<?xml version="1.0" encoding="UTF-8" standalone="no"?>
<!-- Created with CurveBenchmark -->
<svg
	xmlns:dc="http://purl.org/dc/elements/1.1/"
	xmlns:cc="http://creativecommons.org/ns#"
	xmlns:rdf="http://www.w3.org/1999/02/22-rdf-syntax-ns#"
	xmlns:svg="http://www.w3.org/2000/svg"
	xmlns="http://www.w3.org/2000/svg"
	xmlns:sodipodi="http://sodipodi.sourceforge.net/DTD/sodipodi-0.dtd"
	xmlns:inkscape="http://www.inkscape.org/namespaces/inkscape"
	width="1000"
	height="1000"
	id="svg2"
	version="1.1"
	sodipodi:docname="manifold/crust-fountain-08.png.txt">
<defs
	id="defs4" />
<metadata
	id="metadata7">
	<rdf:RDF>
		<cc:Work
			rdf:about="">
			<dc:format>image/svg+xml</dc:format>
			<dc:type
				rdf:resource="http://purl.org/dc/dcmitype/StillImage" />
			<dc:title></dc:title>
		</cc:Work>
	</rdf:RDF>
</metadata>
<g
	inkscape:label="Layer 1"
	inkscape:groupmode="layer"
	id="layer1">
	<path style="fill:none;stroke:red;stroke-width:1px;stroke-linecap:butt;stroke-linejoin:miter;stroke-opacity:1" d="M 358.633,172.086 368.349,167.228 z" id="boundary" inkscape:connector-curvature="0" />
	<path style="fill:none;stroke:red;stroke-width:1px;stroke-linecap:butt;stroke-linejoin:miter;stroke-opacity:1" d="M 378.065,162.37 368.349,167.228 z" id="boundary" inkscape:connector-curvature="0" />
	<path style="fill:none;stroke:red;stroke-width:1px;stroke-linecap:butt;stroke-linejoin:miter;stroke-opacity:1" d="M 387.781,159.455 378.065,162.37 z" id="boundary" inkscape:connector-curvature="0" />
	<path style="fill:none;stroke:red;stroke-width:1px;stroke-linecap:butt;stroke-linejoin:miter;stroke-opacity:1" d="M 358.633,172.086 353.775,181.802 z" id="boundary" inkscape:connector-curvature="0" />
	<path style="fill:none;stroke:red;stroke-width:1px;stroke-linecap:butt;stroke-linejoin:miter;stroke-opacity:1" d="M 396.525,199.291 386.809,199.291 z" id="boundary" inkscape:connector-curvature="0" />
	<path style="fill:none;stroke:red;stroke-width:1px;stroke-linecap:butt;stroke-linejoin:miter;stroke-opacity:1" d="M 353.775,181.802 358.633,190.547 z" id="boundary" inkscape:connector-curvature="0" />
	<path style="fill:none;stroke:red;stroke-width:1px;stroke-linecap:butt;stroke-linejoin:miter;stroke-opacity:1" d="M 368.349,194.433 358.633,190.547 z" id="boundary" inkscape:connector-curvature="0" />
	<path style="fill:none;stroke:red;stroke-width:1px;stroke-linecap:butt;stroke-linejoin:miter;stroke-opacity:1" d="M 378.065,194.433 368.349,194.433 z" id="boundary" inkscape:connector-curvature="0" />
	<path style="fill:none;stroke:red;stroke-width:1px;stroke-linecap:butt;stroke-linejoin:miter;stroke-opacity:1" d="M 378.065,194.433 386.809,199.291 z" id="boundary" inkscape:connector-curvature="0" />
	<path style="fill:none;stroke:red;stroke-width:1px;stroke-linecap:butt;stroke-linejoin:miter;stroke-opacity:1" d="M 196.376,402.355 188.603,410.127 z" id="boundary" inkscape:connector-curvature="0" />
	<path style="fill:none;stroke:red;stroke-width:1px;stroke-linecap:butt;stroke-linejoin:miter;stroke-opacity:1" d="M 243.013,380.008 233.297,382.923 z" id="boundary" inkscape:connector-curvature="0" />
	<path style="fill:none;stroke:red;stroke-width:1px;stroke-linecap:butt;stroke-linejoin:miter;stroke-opacity:1" d="M 233.297,382.923 224.552,387.781 z" id="boundary" inkscape:connector-curvature="0" />
	<path style="fill:none;stroke:red;stroke-width:1px;stroke-linecap:butt;stroke-linejoin:miter;stroke-opacity:1" d="M 252.729,378.065 243.013,380.008 z" id="boundary" inkscape:connector-curvature="0" />
	<path style="fill:none;stroke:red;stroke-width:1px;stroke-linecap:butt;stroke-linejoin:miter;stroke-opacity:1" d="M 196.376,402.355 206.092,397.497 z" id="boundary" inkscape:connector-curvature="0" />
	<path style="fill:none;stroke:red;stroke-width:1px;stroke-linecap:butt;stroke-linejoin:miter;stroke-opacity:1" d="M 215.808,392.639 224.552,387.781 z" id="boundary" inkscape:connector-curvature="0" />
	<path style="fill:none;stroke:red;stroke-width:1px;stroke-linecap:butt;stroke-linejoin:miter;stroke-opacity:1" d="M 215.808,392.639 206.092,397.497 z" id="boundary" inkscape:connector-curvature="0" />
	<path style="fill:none;stroke:red;stroke-width:1px;stroke-linecap:butt;stroke-linejoin:miter;stroke-opacity:1" d="M 178.887,444.133 178.887,453.849 z" id="boundary" inkscape:connector-curvature="0" />
	<path style="fill:none;stroke:red;stroke-width:1px;stroke-linecap:butt;stroke-linejoin:miter;stroke-opacity:1" d="M 183.745,429.559 178.887,444.133 z" id="boundary" inkscape:connector-curvature="0" />
	<path style="fill:none;stroke:red;stroke-width:1px;stroke-linecap:butt;stroke-linejoin:miter;stroke-opacity:1" d="M 183.745,429.559 183.745,419.843 z" id="boundary" inkscape:connector-curvature="0" />
	<path style="fill:none;stroke:red;stroke-width:1px;stroke-linecap:butt;stroke-linejoin:miter;stroke-opacity:1" d="M 183.745,419.843 188.603,410.127 z" id="boundary" inkscape:connector-curvature="0" />
	<path style="fill:none;stroke:red;stroke-width:1px;stroke-linecap:butt;stroke-linejoin:miter;stroke-opacity:1" d="M 175.001,465.508 178.887,453.849 z" id="boundary" inkscape:connector-curvature="0" />
	<path style="fill:none;stroke:red;stroke-width:1px;stroke-linecap:butt;stroke-linejoin:miter;stroke-opacity:1" d="M 300.337,373.207 290.621,373.207 z" id="boundary" inkscape:connector-curvature="0" />
	<path style="fill:none;stroke:red;stroke-width:1px;stroke-linecap:butt;stroke-linejoin:miter;stroke-opacity:1" d="M 261.473,373.207 271.189,373.207 z" id="boundary" inkscape:connector-curvature="0" />
	<path style="fill:none;stroke:red;stroke-width:1px;stroke-linecap:butt;stroke-linejoin:miter;stroke-opacity:1" d="M 280.905,373.207 290.621,373.207 z" id="boundary" inkscape:connector-curvature="0" />
	<path style="fill:none;stroke:red;stroke-width:1px;stroke-linecap:butt;stroke-linejoin:miter;stroke-opacity:1" d="M 280.905,373.207 271.189,373.207 z" id="boundary" inkscape:connector-curvature="0" />
	<path style="fill:none;stroke:red;stroke-width:1px;stroke-linecap:butt;stroke-linejoin:miter;stroke-opacity:1" d="M 261.473,373.207 252.729,378.065 z" id="boundary" inkscape:connector-curvature="0" />
	<path style="fill:none;stroke:red;stroke-width:1px;stroke-linecap:butt;stroke-linejoin:miter;stroke-opacity:1" d="M 310.053,373.207 300.337,373.207 z" id="boundary" inkscape:connector-curvature="0" />
	<path style="fill:none;stroke:red;stroke-width:1px;stroke-linecap:butt;stroke-linejoin:miter;stroke-opacity:1" d="M 310.053,373.207 319.769,373.207 z" id="boundary" inkscape:connector-curvature="0" />
	<path style="fill:none;stroke:red;stroke-width:1px;stroke-linecap:butt;stroke-linejoin:miter;stroke-opacity:1" d="M 319.769,373.207 329.485,373.207 z" id="boundary" inkscape:connector-curvature="0" />
	<path style="fill:none;stroke:red;stroke-width:1px;stroke-linecap:butt;stroke-linejoin:miter;stroke-opacity:1" d="M 339.201,373.207 348.917,373.207 z" id="boundary" inkscape:connector-curvature="0" />
	<path style="fill:none;stroke:red;stroke-width:1px;stroke-linecap:butt;stroke-linejoin:miter;stroke-opacity:1" d="M 339.201,373.207 329.485,373.207 z" id="boundary" inkscape:connector-curvature="0" />
	<path style="fill:none;stroke:red;stroke-width:1px;stroke-linecap:butt;stroke-linejoin:miter;stroke-opacity:1" d="M 348.917,373.207 358.633,373.207 z" id="boundary" inkscape:connector-curvature="0" />
	<path style="fill:none;stroke:red;stroke-width:1px;stroke-linecap:butt;stroke-linejoin:miter;stroke-opacity:1" d="M 368.349,373.207 358.633,373.207 z" id="boundary" inkscape:connector-curvature="0" />
	<path style="fill:none;stroke:red;stroke-width:1px;stroke-linecap:butt;stroke-linejoin:miter;stroke-opacity:1" d="M 368.349,373.207 378.065,373.207 z" id="boundary" inkscape:connector-curvature="0" />
	<path style="fill:none;stroke:red;stroke-width:1px;stroke-linecap:butt;stroke-linejoin:miter;stroke-opacity:1" d="M 387.781,373.207 378.065,373.207 z" id="boundary" inkscape:connector-curvature="0" />
	<path style="fill:none;stroke:red;stroke-width:1px;stroke-linecap:butt;stroke-linejoin:miter;stroke-opacity:1" d="M 414.985,149.739 406.241,154.597 z" id="boundary" inkscape:connector-curvature="0" />
	<path style="fill:none;stroke:red;stroke-width:1px;stroke-linecap:butt;stroke-linejoin:miter;stroke-opacity:1" d="M 424.701,149.739 414.985,149.739 z" id="boundary" inkscape:connector-curvature="0" />
	<path style="fill:none;stroke:red;stroke-width:1px;stroke-linecap:butt;stroke-linejoin:miter;stroke-opacity:1" d="M 396.525,154.597 387.781,159.455 z" id="boundary" inkscape:connector-curvature="0" />
	<path style="fill:none;stroke:red;stroke-width:1px;stroke-linecap:butt;stroke-linejoin:miter;stroke-opacity:1" d="M 453.849,149.739 444.133,149.739 z" id="boundary" inkscape:connector-curvature="0" />
	<path style="fill:none;stroke:red;stroke-width:1px;stroke-linecap:butt;stroke-linejoin:miter;stroke-opacity:1" d="M 502.429,4 493.685,8.85798 z" id="boundary" inkscape:connector-curvature="0" />
	<path style="fill:none;stroke:red;stroke-width:1px;stroke-linecap:butt;stroke-linejoin:miter;stroke-opacity:1" d="M 396.525,154.597 406.241,154.597 z" id="boundary" inkscape:connector-curvature="0" />
	<path style="fill:none;stroke:red;stroke-width:1px;stroke-linecap:butt;stroke-linejoin:miter;stroke-opacity:1" d="M 424.701,149.739 434.417,149.739 z" id="boundary" inkscape:connector-curvature="0" />
	<path style="fill:none;stroke:red;stroke-width:1px;stroke-linecap:butt;stroke-linejoin:miter;stroke-opacity:1" d="M 434.417,149.739 444.133,149.739 z" id="boundary" inkscape:connector-curvature="0" />
	<path style="fill:none;stroke:red;stroke-width:1px;stroke-linecap:butt;stroke-linejoin:miter;stroke-opacity:1" d="M 455.792,45.7786 455.792,55.4946 z" id="boundary" inkscape:connector-curvature="0" />
	<path style="fill:none;stroke:red;stroke-width:1px;stroke-linecap:butt;stroke-linejoin:miter;stroke-opacity:1" d="M 455.792,45.7786 460.65,36.0627 z" id="boundary" inkscape:connector-curvature="0" />
	<path style="fill:none;stroke:red;stroke-width:1px;stroke-linecap:butt;stroke-linejoin:miter;stroke-opacity:1" d="M 470.366,31.2047 460.65,36.0627 z" id="boundary" inkscape:connector-curvature="0" />
	<path style="fill:none;stroke:red;stroke-width:1px;stroke-linecap:butt;stroke-linejoin:miter;stroke-opacity:1" d="M 455.792,65.2106 455.792,55.4946 z" id="boundary" inkscape:connector-curvature="0" />
	<path style="fill:none;stroke:red;stroke-width:1px;stroke-linecap:butt;stroke-linejoin:miter;stroke-opacity:1" d="M 470.366,31.2047 478.139,23.4319 z" id="boundary" inkscape:connector-curvature="0" />
	<path style="fill:none;stroke:red;stroke-width:1px;stroke-linecap:butt;stroke-linejoin:miter;stroke-opacity:1" d="M 455.792,65.2106 455.792,74.9265 z" id="boundary" inkscape:connector-curvature="0" />
	<path style="fill:none;stroke:red;stroke-width:1px;stroke-linecap:butt;stroke-linejoin:miter;stroke-opacity:1" d="M 478.139,23.4319 485.912,15.6592 z" id="boundary" inkscape:connector-curvature="0" />
	<path style="fill:none;stroke:red;stroke-width:1px;stroke-linecap:butt;stroke-linejoin:miter;stroke-opacity:1" d="M 493.685,8.85798 485.912,15.6592 z" id="boundary" inkscape:connector-curvature="0" />
	<path style="fill:none;stroke:red;stroke-width:1px;stroke-linecap:butt;stroke-linejoin:miter;stroke-opacity:1" d="M 460.65,93.3869 455.792,84.6425 z" id="boundary" inkscape:connector-curvature="0" />
	<path style="fill:none;stroke:red;stroke-width:1px;stroke-linecap:butt;stroke-linejoin:miter;stroke-opacity:1" d="M 467.452,101.16 460.65,93.3869 z" id="boundary" inkscape:connector-curvature="0" />
	<path style="fill:none;stroke:red;stroke-width:1px;stroke-linecap:butt;stroke-linejoin:miter;stroke-opacity:1" d="M 467.452,101.16 470.366,110.876 z" id="boundary" inkscape:connector-curvature="0" />
	<path style="fill:none;stroke:red;stroke-width:1px;stroke-linecap:butt;stroke-linejoin:miter;stroke-opacity:1" d="M 462.594,144.881 453.849,149.739 z" id="boundary" inkscape:connector-curvature="0" />
	<path style="fill:none;stroke:red;stroke-width:1px;stroke-linecap:butt;stroke-linejoin:miter;stroke-opacity:1" d="M 470.366,120.592 470.366,130.308 z" id="boundary" inkscape:connector-curvature="0" />
	<path style="fill:none;stroke:red;stroke-width:1px;stroke-linecap:butt;stroke-linejoin:miter;stroke-opacity:1" d="M 455.792,84.6425 455.792,74.9265 z" id="boundary" inkscape:connector-curvature="0" />
	<path style="fill:none;stroke:red;stroke-width:1px;stroke-linecap:butt;stroke-linejoin:miter;stroke-opacity:1" d="M 470.366,120.592 470.366,110.876 z" id="boundary" inkscape:connector-curvature="0" />
	<path style="fill:none;stroke:red;stroke-width:1px;stroke-linecap:butt;stroke-linejoin:miter;stroke-opacity:1" d="M 470.366,130.308 462.594,144.881 z" id="boundary" inkscape:connector-curvature="0" />
	<path style="fill:none;stroke:red;stroke-width:1px;stroke-linecap:butt;stroke-linejoin:miter;stroke-opacity:1" d="M 405.269,204.149 412.071,211.922 z" id="boundary" inkscape:connector-curvature="0" />
	<path style="fill:none;stroke:red;stroke-width:1px;stroke-linecap:butt;stroke-linejoin:miter;stroke-opacity:1" d="M 405.269,204.149 396.525,199.291 z" id="boundary" inkscape:connector-curvature="0" />
	<path style="fill:none;stroke:red;stroke-width:1px;stroke-linecap:butt;stroke-linejoin:miter;stroke-opacity:1" d="M 412.071,211.922 416.929,220.666 z" id="boundary" inkscape:connector-curvature="0" />
	<path style="fill:none;stroke:red;stroke-width:1px;stroke-linecap:butt;stroke-linejoin:miter;stroke-opacity:1" d="M 416.929,220.666 424.701,227.467 z" id="boundary" inkscape:connector-curvature="0" />
	<path style="fill:none;stroke:red;stroke-width:1px;stroke-linecap:butt;stroke-linejoin:miter;stroke-opacity:1" d="M 432.474,233.297 424.701,227.467 z" id="boundary" inkscape:connector-curvature="0" />
	<path style="fill:none;stroke:red;stroke-width:1px;stroke-linecap:butt;stroke-linejoin:miter;stroke-opacity:1" d="M 441.218,238.155 432.474,233.297 z" id="boundary" inkscape:connector-curvature="0" />
	<path style="fill:none;stroke:red;stroke-width:1px;stroke-linecap:butt;stroke-linejoin:miter;stroke-opacity:1" d="M 397.497,373.207 406.241,368.349 z" id="boundary" inkscape:connector-curvature="0" />
	<path style="fill:none;stroke:red;stroke-width:1px;stroke-linecap:butt;stroke-linejoin:miter;stroke-opacity:1" d="M 415.957,368.349 425.673,368.349 z" id="boundary" inkscape:connector-curvature="0" />
	<path style="fill:none;stroke:red;stroke-width:1px;stroke-linecap:butt;stroke-linejoin:miter;stroke-opacity:1" d="M 406.241,368.349 415.957,368.349 z" id="boundary" inkscape:connector-curvature="0" />
	<path style="fill:none;stroke:red;stroke-width:1px;stroke-linecap:butt;stroke-linejoin:miter;stroke-opacity:1" d="M 397.497,373.207 387.781,373.207 z" id="boundary" inkscape:connector-curvature="0" />
	<path style="fill:none;stroke:red;stroke-width:1px;stroke-linecap:butt;stroke-linejoin:miter;stroke-opacity:1" d="M 444.133,348.917 439.275,358.633 z" id="boundary" inkscape:connector-curvature="0" />
	<path style="fill:none;stroke:red;stroke-width:1px;stroke-linecap:butt;stroke-linejoin:miter;stroke-opacity:1" d="M 425.673,368.349 435.389,368.349 z" id="boundary" inkscape:connector-curvature="0" />
	<path style="fill:none;stroke:red;stroke-width:1px;stroke-linecap:butt;stroke-linejoin:miter;stroke-opacity:1" d="M 439.275,358.633 435.389,368.349 z" id="boundary" inkscape:connector-curvature="0" />
	<path style="fill:none;stroke:red;stroke-width:1px;stroke-linecap:butt;stroke-linejoin:miter;stroke-opacity:1" d="M 450.934,247.871 450.934,238.155 z" id="boundary" inkscape:connector-curvature="0" />
	<path style="fill:none;stroke:red;stroke-width:1px;stroke-linecap:butt;stroke-linejoin:miter;stroke-opacity:1" d="M 441.218,238.155 450.934,238.155 z" id="boundary" inkscape:connector-curvature="0" />
	<path style="fill:none;stroke:red;stroke-width:1px;stroke-linecap:butt;stroke-linejoin:miter;stroke-opacity:1" d="M 450.934,247.871 450.934,257.587 z" id="boundary" inkscape:connector-curvature="0" />
	<path style="fill:none;stroke:red;stroke-width:1px;stroke-linecap:butt;stroke-linejoin:miter;stroke-opacity:1" d="M 450.934,257.587 450.934,267.303 z" id="boundary" inkscape:connector-curvature="0" />
	<path style="fill:none;stroke:red;stroke-width:1px;stroke-linecap:butt;stroke-linejoin:miter;stroke-opacity:1" d="M 450.934,267.303 450.934,277.019 z" id="boundary" inkscape:connector-curvature="0" />
	<path style="fill:none;stroke:red;stroke-width:1px;stroke-linecap:butt;stroke-linejoin:miter;stroke-opacity:1" d="M 450.934,286.735 450.934,296.451 z" id="boundary" inkscape:connector-curvature="0" />
	<path style="fill:none;stroke:red;stroke-width:1px;stroke-linecap:butt;stroke-linejoin:miter;stroke-opacity:1" d="M 450.934,286.735 450.934,277.019 z" id="boundary" inkscape:connector-curvature="0" />
	<path style="fill:none;stroke:red;stroke-width:1px;stroke-linecap:butt;stroke-linejoin:miter;stroke-opacity:1" d="M 450.934,296.451 450.934,306.167 z" id="boundary" inkscape:connector-curvature="0" />
	<path style="fill:none;stroke:red;stroke-width:1px;stroke-linecap:butt;stroke-linejoin:miter;stroke-opacity:1" d="M 444.133,348.917 446.076,337.258 z" id="boundary" inkscape:connector-curvature="0" />
	<path style="fill:none;stroke:red;stroke-width:1px;stroke-linecap:butt;stroke-linejoin:miter;stroke-opacity:1" d="M 450.934,315.882 450.934,325.598 z" id="boundary" inkscape:connector-curvature="0" />
	<path style="fill:none;stroke:red;stroke-width:1px;stroke-linecap:butt;stroke-linejoin:miter;stroke-opacity:1" d="M 450.934,315.882 450.934,306.167 z" id="boundary" inkscape:connector-curvature="0" />
	<path style="fill:none;stroke:red;stroke-width:1px;stroke-linecap:butt;stroke-linejoin:miter;stroke-opacity:1" d="M 450.934,325.598 446.076,337.258 z" id="boundary" inkscape:connector-curvature="0" />
	<path style="fill:none;stroke:red;stroke-width:1px;stroke-linecap:butt;stroke-linejoin:miter;stroke-opacity:1" d="M 47.7218,531.577 39.9491,538.378 z" id="boundary" inkscape:connector-curvature="0" />
	<path style="fill:none;stroke:red;stroke-width:1px;stroke-linecap:butt;stroke-linejoin:miter;stroke-opacity:1" d="M 39.9491,538.378 31.2047,543.236 z" id="boundary" inkscape:connector-curvature="0" />
	<path style="fill:none;stroke:red;stroke-width:1px;stroke-linecap:butt;stroke-linejoin:miter;stroke-opacity:1" d="M 18.5739,560.725 26.3467,552.952 z" id="boundary" inkscape:connector-curvature="0" />
	<path style="fill:none;stroke:red;stroke-width:1px;stroke-linecap:butt;stroke-linejoin:miter;stroke-opacity:1" d="M 26.3467,552.952 31.2047,543.236 z" id="boundary" inkscape:connector-curvature="0" />
	<path style="fill:none;stroke:red;stroke-width:1px;stroke-linecap:butt;stroke-linejoin:miter;stroke-opacity:1" d="M 18.5739,560.725 13.716,570.441 z" id="boundary" inkscape:connector-curvature="0" />
	<path style="fill:none;stroke:red;stroke-width:1px;stroke-linecap:butt;stroke-linejoin:miter;stroke-opacity:1" d="M 86.5857,517.003 76.8697,521.861 z" id="boundary" inkscape:connector-curvature="0" />
	<path style="fill:none;stroke:red;stroke-width:1px;stroke-linecap:butt;stroke-linejoin:miter;stroke-opacity:1" d="M 76.8697,521.861 67.1538,523.804 z" id="boundary" inkscape:connector-curvature="0" />
	<path style="fill:none;stroke:red;stroke-width:1px;stroke-linecap:butt;stroke-linejoin:miter;stroke-opacity:1" d="M 57.4378,526.719 47.7218,531.577 z" id="boundary" inkscape:connector-curvature="0" />
	<path style="fill:none;stroke:red;stroke-width:1px;stroke-linecap:butt;stroke-linejoin:miter;stroke-opacity:1" d="M 57.4378,526.719 67.1538,523.804 z" id="boundary" inkscape:connector-curvature="0" />
	<path style="fill:none;stroke:red;stroke-width:1px;stroke-linecap:butt;stroke-linejoin:miter;stroke-opacity:1" d="M 13.716,570.441 8.85798,580.157 z" id="boundary" inkscape:connector-curvature="0" />
	<path style="fill:none;stroke:red;stroke-width:1px;stroke-linecap:butt;stroke-linejoin:miter;stroke-opacity:1" d="M 8.85798,589.873 8.85798,580.157 z" id="boundary" inkscape:connector-curvature="0" />
	<path style="fill:none;stroke:red;stroke-width:1px;stroke-linecap:butt;stroke-linejoin:miter;stroke-opacity:1" d="M 4,604.447 4,614.163 z" id="boundary" inkscape:connector-curvature="0" />
	<path style="fill:none;stroke:red;stroke-width:1px;stroke-linecap:butt;stroke-linejoin:miter;stroke-opacity:1" d="M 4,604.447 8.85798,589.873 z" id="boundary" inkscape:connector-curvature="0" />
	<path style="fill:none;stroke:red;stroke-width:1px;stroke-linecap:butt;stroke-linejoin:miter;stroke-opacity:1" d="M 4,623.879 4,614.163 z" id="boundary" inkscape:connector-curvature="0" />
	<path style="fill:none;stroke:red;stroke-width:1px;stroke-linecap:butt;stroke-linejoin:miter;stroke-opacity:1" d="M 4,623.879 4,633.595 z" id="boundary" inkscape:connector-curvature="0" />
	<path style="fill:none;stroke:red;stroke-width:1px;stroke-linecap:butt;stroke-linejoin:miter;stroke-opacity:1" d="M 128.364,484.94 119.62,489.798 z" id="boundary" inkscape:connector-curvature="0" />
	<path style="fill:none;stroke:red;stroke-width:1px;stroke-linecap:butt;stroke-linejoin:miter;stroke-opacity:1" d="M 111.847,496.599 119.62,489.798 z" id="boundary" inkscape:connector-curvature="0" />
	<path style="fill:none;stroke:red;stroke-width:1px;stroke-linecap:butt;stroke-linejoin:miter;stroke-opacity:1" d="M 86.5857,517.003 94.3585,509.23 z" id="boundary" inkscape:connector-curvature="0" />
	<path style="fill:none;stroke:red;stroke-width:1px;stroke-linecap:butt;stroke-linejoin:miter;stroke-opacity:1" d="M 104.074,504.372 111.847,496.599 z" id="boundary" inkscape:connector-curvature="0" />
	<path style="fill:none;stroke:red;stroke-width:1px;stroke-linecap:butt;stroke-linejoin:miter;stroke-opacity:1" d="M 104.074,504.372 94.3585,509.23 z" id="boundary" inkscape:connector-curvature="0" />
	<path style="fill:none;stroke:red;stroke-width:1px;stroke-linecap:butt;stroke-linejoin:miter;stroke-opacity:1" d="M 157.512,475.224 147.796,475.224 z" id="boundary" inkscape:connector-curvature="0" />
	<path style="fill:none;stroke:red;stroke-width:1px;stroke-linecap:butt;stroke-linejoin:miter;stroke-opacity:1" d="M 147.796,475.224 138.08,480.082 z" id="boundary" inkscape:connector-curvature="0" />
	<path style="fill:none;stroke:red;stroke-width:1px;stroke-linecap:butt;stroke-linejoin:miter;stroke-opacity:1" d="M 166.257,470.366 175.001,465.508 z" id="boundary" inkscape:connector-curvature="0" />
	<path style="fill:none;stroke:red;stroke-width:1px;stroke-linecap:butt;stroke-linejoin:miter;stroke-opacity:1" d="M 166.257,470.366 157.512,475.224 z" id="boundary" inkscape:connector-curvature="0" />
	<path style="fill:none;stroke:red;stroke-width:1px;stroke-linecap:butt;stroke-linejoin:miter;stroke-opacity:1" d="M 128.364,484.94 138.08,480.082 z" id="boundary" inkscape:connector-curvature="0" />
	<path style="fill:none;stroke:red;stroke-width:1px;stroke-linecap:butt;stroke-linejoin:miter;stroke-opacity:1" d="M 4,643.31 4,633.595 z" id="boundary" inkscape:connector-curvature="0" />
	<path style="fill:none;stroke:red;stroke-width:1px;stroke-linecap:butt;stroke-linejoin:miter;stroke-opacity:1" d="M 4,653.026 4,643.31 z" id="boundary" inkscape:connector-curvature="0" />
	<path style="fill:none;stroke:red;stroke-width:1px;stroke-linecap:butt;stroke-linejoin:miter;stroke-opacity:1" d="M 4,653.026 8.85798,661.771 z" id="boundary" inkscape:connector-curvature="0" />
	<path style="fill:none;stroke:red;stroke-width:1px;stroke-linecap:butt;stroke-linejoin:miter;stroke-opacity:1" d="M 13.716,670.515 19.5455,678.288 z" id="boundary" inkscape:connector-curvature="0" />
	<path style="fill:none;stroke:red;stroke-width:1px;stroke-linecap:butt;stroke-linejoin:miter;stroke-opacity:1" d="M 13.716,670.515 8.85798,661.771 z" id="boundary" inkscape:connector-curvature="0" />
	<path style="fill:none;stroke:red;stroke-width:1px;stroke-linecap:butt;stroke-linejoin:miter;stroke-opacity:1" d="M 31.2047,694.805 27.3183,685.089 z" id="boundary" inkscape:connector-curvature="0" />
	<path style="fill:none;stroke:red;stroke-width:1px;stroke-linecap:butt;stroke-linejoin:miter;stroke-opacity:1" d="M 27.3183,685.089 19.5455,678.288 z" id="boundary" inkscape:connector-curvature="0" />
	<path style="fill:none;stroke:red;stroke-width:1px;stroke-linecap:butt;stroke-linejoin:miter;stroke-opacity:1" d="M 31.2047,694.805 40.9207,698.691 z" id="boundary" inkscape:connector-curvature="0" />
	<path style="fill:none;stroke:red;stroke-width:1px;stroke-linecap:butt;stroke-linejoin:miter;stroke-opacity:1" d="M 40.9207,698.691 50.6366,699.663 z" id="boundary" inkscape:connector-curvature="0" />
	<path style="fill:none;stroke:red;stroke-width:1px;stroke-linecap:butt;stroke-linejoin:miter;stroke-opacity:1" d="M 59.381,704.521 50.6366,699.663 z" id="boundary" inkscape:connector-curvature="0" />
	<path style="fill:none;stroke:red;stroke-width:1px;stroke-linecap:butt;stroke-linejoin:miter;stroke-opacity:1" d="M 77.8413,709.379 69.097,704.521 z" id="boundary" inkscape:connector-curvature="0" />
	<path style="fill:none;stroke:red;stroke-width:1px;stroke-linecap:butt;stroke-linejoin:miter;stroke-opacity:1" d="M 59.381,704.521 69.097,704.521 z" id="boundary" inkscape:connector-curvature="0" />
	<path style="fill:none;stroke:red;stroke-width:1px;stroke-linecap:butt;stroke-linejoin:miter;stroke-opacity:1" d="M 77.8413,709.379 87.5573,709.379 z" id="boundary" inkscape:connector-curvature="0" />
	<path style="fill:none;stroke:red;stroke-width:1px;stroke-linecap:butt;stroke-linejoin:miter;stroke-opacity:1" d="M 96.3017,714.237 87.5573,709.379 z" id="boundary" inkscape:connector-curvature="0" />
	<path style="fill:none;stroke:red;stroke-width:1px;stroke-linecap:butt;stroke-linejoin:miter;stroke-opacity:1" d="M 142.938,727.839 133.222,723.953 z" id="boundary" inkscape:connector-curvature="0" />
	<path style="fill:none;stroke:red;stroke-width:1px;stroke-linecap:butt;stroke-linejoin:miter;stroke-opacity:1" d="M 96.3017,714.237 106.018,714.237 z" id="boundary" inkscape:connector-curvature="0" />
	<path style="fill:none;stroke:red;stroke-width:1px;stroke-linecap:butt;stroke-linejoin:miter;stroke-opacity:1" d="M 114.762,719.095 106.018,714.237 z" id="boundary" inkscape:connector-curvature="0" />
	<path style="fill:none;stroke:red;stroke-width:1px;stroke-linecap:butt;stroke-linejoin:miter;stroke-opacity:1" d="M 114.762,719.095 124.478,719.095 z" id="boundary" inkscape:connector-curvature="0" />
	<path style="fill:none;stroke:red;stroke-width:1px;stroke-linecap:butt;stroke-linejoin:miter;stroke-opacity:1" d="M 133.222,723.953 124.478,719.095 z" id="boundary" inkscape:connector-curvature="0" />
	<path style="fill:none;stroke:red;stroke-width:1px;stroke-linecap:butt;stroke-linejoin:miter;stroke-opacity:1" d="M 151.683,732.697 161.399,736.584 z" id="boundary" inkscape:connector-curvature="0" />
	<path style="fill:none;stroke:red;stroke-width:1px;stroke-linecap:butt;stroke-linejoin:miter;stroke-opacity:1" d="M 151.683,732.697 142.938,727.839 z" id="boundary" inkscape:connector-curvature="0" />
	<path style="fill:none;stroke:red;stroke-width:1px;stroke-linecap:butt;stroke-linejoin:miter;stroke-opacity:1" d="M 161.399,736.584 170.143,741.442 z" id="boundary" inkscape:connector-curvature="0" />
	<path style="fill:none;stroke:red;stroke-width:1px;stroke-linecap:butt;stroke-linejoin:miter;stroke-opacity:1" d="M 170.143,741.442 179.859,745.328 z" id="boundary" inkscape:connector-curvature="0" />
	<path style="fill:none;stroke:red;stroke-width:1px;stroke-linecap:butt;stroke-linejoin:miter;stroke-opacity:1" d="M 189.575,748.243 179.859,745.328 z" id="boundary" inkscape:connector-curvature="0" />
	<path style="fill:none;stroke:red;stroke-width:1px;stroke-linecap:butt;stroke-linejoin:miter;stroke-opacity:1" d="M 209.007,753.101 199.291,750.186 z" id="boundary" inkscape:connector-curvature="0" />
	<path style="fill:none;stroke:red;stroke-width:1px;stroke-linecap:butt;stroke-linejoin:miter;stroke-opacity:1" d="M 199.291,750.186 189.575,748.243 z" id="boundary" inkscape:connector-curvature="0" />
	<path style="fill:none;stroke:red;stroke-width:1px;stroke-linecap:butt;stroke-linejoin:miter;stroke-opacity:1" d="M 228.439,757.959 218.723,755.044 z" id="boundary" inkscape:connector-curvature="0" />
	<path style="fill:none;stroke:red;stroke-width:1px;stroke-linecap:butt;stroke-linejoin:miter;stroke-opacity:1" d="M 218.723,755.044 209.007,753.101 z" id="boundary" inkscape:connector-curvature="0" />
	<path style="fill:none;stroke:red;stroke-width:1px;stroke-linecap:butt;stroke-linejoin:miter;stroke-opacity:1" d="M 237.183,762.817 228.439,757.959 z" id="boundary" inkscape:connector-curvature="0" />
	<path style="fill:none;stroke:red;stroke-width:1px;stroke-linecap:butt;stroke-linejoin:miter;stroke-opacity:1" d="M 246.899,762.817 237.183,762.817 z" id="boundary" inkscape:connector-curvature="0" />
	<path style="fill:none;stroke:red;stroke-width:1px;stroke-linecap:butt;stroke-linejoin:miter;stroke-opacity:1" d="M 256.615,762.817 265.359,767.675 z" id="boundary" inkscape:connector-curvature="0" />
	<path style="fill:none;stroke:red;stroke-width:1px;stroke-linecap:butt;stroke-linejoin:miter;stroke-opacity:1" d="M 246.899,762.817 256.615,762.817 z" id="boundary" inkscape:connector-curvature="0" />
	<path style="fill:none;stroke:red;stroke-width:1px;stroke-linecap:butt;stroke-linejoin:miter;stroke-opacity:1" d="M 275.075,767.675 265.359,767.675 z" id="boundary" inkscape:connector-curvature="0" />
	<path style="fill:none;stroke:red;stroke-width:1px;stroke-linecap:butt;stroke-linejoin:miter;stroke-opacity:1" d="M 293.536,772.533 283.82,772.533 z" id="boundary" inkscape:connector-curvature="0" />
	<path style="fill:none;stroke:red;stroke-width:1px;stroke-linecap:butt;stroke-linejoin:miter;stroke-opacity:1" d="M 283.82,772.533 275.075,767.675 z" id="boundary" inkscape:connector-curvature="0" />
	<path style="fill:none;stroke:red;stroke-width:1px;stroke-linecap:butt;stroke-linejoin:miter;stroke-opacity:1" d="M 302.28,777.391 293.536,772.533 z" id="boundary" inkscape:connector-curvature="0" />
	<path style="fill:none;stroke:red;stroke-width:1px;stroke-linecap:butt;stroke-linejoin:miter;stroke-opacity:1" d="M 302.28,777.391 311.996,777.391 z" id="boundary" inkscape:connector-curvature="0" />
	<path style="fill:none;stroke:red;stroke-width:1px;stroke-linecap:butt;stroke-linejoin:miter;stroke-opacity:1" d="M 320.74,782.249 311.996,777.391 z" id="boundary" inkscape:connector-curvature="0" />
	<path style="fill:none;stroke:red;stroke-width:1px;stroke-linecap:butt;stroke-linejoin:miter;stroke-opacity:1" d="M 330.456,782.249 320.74,782.249 z" id="boundary" inkscape:connector-curvature="0" />
	<path style="fill:none;stroke:red;stroke-width:1px;stroke-linecap:butt;stroke-linejoin:miter;stroke-opacity:1" d="M 330.456,782.249 340.172,782.249 z" id="boundary" inkscape:connector-curvature="0" />
	<path style="fill:none;stroke:red;stroke-width:1px;stroke-linecap:butt;stroke-linejoin:miter;stroke-opacity:1" d="M 340.172,782.249 349.888,782.249 z" id="boundary" inkscape:connector-curvature="0" />
	<path style="fill:none;stroke:red;stroke-width:1px;stroke-linecap:butt;stroke-linejoin:miter;stroke-opacity:1" d="M 358.633,787.107 349.888,782.249 z" id="boundary" inkscape:connector-curvature="0" />
	<path style="fill:none;stroke:red;stroke-width:1px;stroke-linecap:butt;stroke-linejoin:miter;stroke-opacity:1" d="M 358.633,787.107 368.349,787.107 z" id="boundary" inkscape:connector-curvature="0" />
	<path style="fill:none;stroke:red;stroke-width:1px;stroke-linecap:butt;stroke-linejoin:miter;stroke-opacity:1" d="M 378.065,787.107 368.349,787.107 z" id="boundary" inkscape:connector-curvature="0" />
	<path style="fill:none;stroke:red;stroke-width:1px;stroke-linecap:butt;stroke-linejoin:miter;stroke-opacity:1" d="M 387.781,787.107 378.065,787.107 z" id="boundary" inkscape:connector-curvature="0" />
	<path style="fill:none;stroke:red;stroke-width:1px;stroke-linecap:butt;stroke-linejoin:miter;stroke-opacity:1" d="M 387.781,787.107 397.497,787.107 z" id="boundary" inkscape:connector-curvature="0" />
	<path style="fill:none;stroke:red;stroke-width:1px;stroke-linecap:butt;stroke-linejoin:miter;stroke-opacity:1" d="M 397.497,787.107 407.213,787.107 z" id="boundary" inkscape:connector-curvature="0" />
	<path style="fill:none;stroke:red;stroke-width:1px;stroke-linecap:butt;stroke-linejoin:miter;stroke-opacity:1" d="M 415.957,791.965 407.213,787.107 z" id="boundary" inkscape:connector-curvature="0" />
	<path style="fill:none;stroke:red;stroke-width:1px;stroke-linecap:butt;stroke-linejoin:miter;stroke-opacity:1" d="M 425.673,791.965 415.957,791.965 z" id="boundary" inkscape:connector-curvature="0" />
	<path style="fill:none;stroke:red;stroke-width:1px;stroke-linecap:butt;stroke-linejoin:miter;stroke-opacity:1" d="M 435.389,791.965 425.673,791.965 z" id="boundary" inkscape:connector-curvature="0" />
	<path style="fill:none;stroke:red;stroke-width:1px;stroke-linecap:butt;stroke-linejoin:miter;stroke-opacity:1" d="M 435.389,791.965 445.105,791.965 z" id="boundary" inkscape:connector-curvature="0" />
	<path style="fill:none;stroke:red;stroke-width:1px;stroke-linecap:butt;stroke-linejoin:miter;stroke-opacity:1" d="M 454.821,791.965 464.537,791.965 z" id="boundary" inkscape:connector-curvature="0" />
	<path style="fill:none;stroke:red;stroke-width:1px;stroke-linecap:butt;stroke-linejoin:miter;stroke-opacity:1" d="M 454.821,791.965 445.105,791.965 z" id="boundary" inkscape:connector-curvature="0" />
	<path style="fill:none;stroke:red;stroke-width:1px;stroke-linecap:butt;stroke-linejoin:miter;stroke-opacity:1" d="M 474.253,791.965 464.537,791.965 z" id="boundary" inkscape:connector-curvature="0" />
	<path style="fill:none;stroke:red;stroke-width:1px;stroke-linecap:butt;stroke-linejoin:miter;stroke-opacity:1" d="M 483.969,791.965 474.253,791.965 z" id="boundary" inkscape:connector-curvature="0" />
	<path style="fill:none;stroke:red;stroke-width:1px;stroke-linecap:butt;stroke-linejoin:miter;stroke-opacity:1" d="M 483.969,791.965 493.685,791.965 z" id="boundary" inkscape:connector-curvature="0" />
	<path style="fill:none;stroke:red;stroke-width:1px;stroke-linecap:butt;stroke-linejoin:miter;stroke-opacity:1" d="M 502.429,4 512.145,4 z" id="boundary" inkscape:connector-curvature="0" />
	<path style="fill:none;stroke:red;stroke-width:1px;stroke-linecap:butt;stroke-linejoin:miter;stroke-opacity:1" d="M 512.145,4 520.889,8.85798 z" id="boundary" inkscape:connector-curvature="0" />
	<path style="fill:none;stroke:red;stroke-width:1px;stroke-linecap:butt;stroke-linejoin:miter;stroke-opacity:1" d="M 528.662,15.6592 520.889,8.85798 z" id="boundary" inkscape:connector-curvature="0" />
	<path style="fill:none;stroke:red;stroke-width:1px;stroke-linecap:butt;stroke-linejoin:miter;stroke-opacity:1" d="M 529.634,25.3751 529.634,35.0911 z" id="boundary" inkscape:connector-curvature="0" />
	<path style="fill:none;stroke:red;stroke-width:1px;stroke-linecap:butt;stroke-linejoin:miter;stroke-opacity:1" d="M 529.634,44.8071 529.634,35.0911 z" id="boundary" inkscape:connector-curvature="0" />
	<path style="fill:none;stroke:red;stroke-width:1px;stroke-linecap:butt;stroke-linejoin:miter;stroke-opacity:1" d="M 528.662,15.6592 529.634,25.3751 z" id="boundary" inkscape:connector-curvature="0" />
	<path style="fill:none;stroke:red;stroke-width:1px;stroke-linecap:butt;stroke-linejoin:miter;stroke-opacity:1" d="M 529.634,64.239 529.634,73.9549 z" id="boundary" inkscape:connector-curvature="0" />
	<path style="fill:none;stroke:red;stroke-width:1px;stroke-linecap:butt;stroke-linejoin:miter;stroke-opacity:1" d="M 529.634,44.8071 529.634,54.523 z" id="boundary" inkscape:connector-curvature="0" />
	<path style="fill:none;stroke:red;stroke-width:1px;stroke-linecap:butt;stroke-linejoin:miter;stroke-opacity:1" d="M 529.634,64.239 529.634,54.523 z" id="boundary" inkscape:connector-curvature="0" />
	<path style="fill:none;stroke:red;stroke-width:1px;stroke-linecap:butt;stroke-linejoin:miter;stroke-opacity:1" d="M 529.634,73.9549 529.634,83.6709 z" id="boundary" inkscape:connector-curvature="0" />
	<path style="fill:none;stroke:red;stroke-width:1px;stroke-linecap:butt;stroke-linejoin:miter;stroke-opacity:1" d="M 529.634,93.3869 529.634,103.103 z" id="boundary" inkscape:connector-curvature="0" />
	<path style="fill:none;stroke:red;stroke-width:1px;stroke-linecap:butt;stroke-linejoin:miter;stroke-opacity:1" d="M 529.634,93.3869 529.634,83.6709 z" id="boundary" inkscape:connector-curvature="0" />
	<path style="fill:none;stroke:red;stroke-width:1px;stroke-linecap:butt;stroke-linejoin:miter;stroke-opacity:1" d="M 529.634,112.819 529.634,122.535 z" id="boundary" inkscape:connector-curvature="0" />
	<path style="fill:none;stroke:red;stroke-width:1px;stroke-linecap:butt;stroke-linejoin:miter;stroke-opacity:1" d="M 529.634,112.819 529.634,103.103 z" id="boundary" inkscape:connector-curvature="0" />
	<path style="fill:none;stroke:red;stroke-width:1px;stroke-linecap:butt;stroke-linejoin:miter;stroke-opacity:1" d="M 532.548,141.967 529.634,132.251 z" id="boundary" inkscape:connector-curvature="0" />
	<path style="fill:none;stroke:red;stroke-width:1px;stroke-linecap:butt;stroke-linejoin:miter;stroke-opacity:1" d="M 532.548,141.967 534.492,151.683 z" id="boundary" inkscape:connector-curvature="0" />
	<path style="fill:none;stroke:red;stroke-width:1px;stroke-linecap:butt;stroke-linejoin:miter;stroke-opacity:1" d="M 540.321,159.455 534.492,151.683 z" id="boundary" inkscape:connector-curvature="0" />
	<path style="fill:none;stroke:red;stroke-width:1px;stroke-linecap:butt;stroke-linejoin:miter;stroke-opacity:1" d="M 550.037,159.455 540.321,159.455 z" id="boundary" inkscape:connector-curvature="0" />
	<path style="fill:none;stroke:red;stroke-width:1px;stroke-linecap:butt;stroke-linejoin:miter;stroke-opacity:1" d="M 559.753,159.455 550.037,159.455 z" id="boundary" inkscape:connector-curvature="0" />
	<path style="fill:none;stroke:red;stroke-width:1px;stroke-linecap:butt;stroke-linejoin:miter;stroke-opacity:1" d="M 529.634,132.251 529.634,122.535 z" id="boundary" inkscape:connector-curvature="0" />
	<path style="fill:none;stroke:red;stroke-width:1px;stroke-linecap:butt;stroke-linejoin:miter;stroke-opacity:1" d="M 568.498,164.313 559.753,159.455 z" id="boundary" inkscape:connector-curvature="0" />
	<path style="fill:none;stroke:red;stroke-width:1px;stroke-linecap:butt;stroke-linejoin:miter;stroke-opacity:1" d="M 568.498,164.313 578.214,164.313 z" id="boundary" inkscape:connector-curvature="0" />
	<path style="fill:none;stroke:red;stroke-width:1px;stroke-linecap:butt;stroke-linejoin:miter;stroke-opacity:1" d="M 578.214,164.313 587.929,164.313 z" id="boundary" inkscape:connector-curvature="0" />
	<path style="fill:none;stroke:red;stroke-width:1px;stroke-linecap:butt;stroke-linejoin:miter;stroke-opacity:1" d="M 538.378,218.723 529.634,223.581 z" id="boundary" inkscape:connector-curvature="0" />
	<path style="fill:none;stroke:red;stroke-width:1px;stroke-linecap:butt;stroke-linejoin:miter;stroke-opacity:1" d="M 529.634,223.581 529.634,233.297 z" id="boundary" inkscape:connector-curvature="0" />
	<path style="fill:none;stroke:red;stroke-width:1px;stroke-linecap:butt;stroke-linejoin:miter;stroke-opacity:1" d="M 529.634,233.297 529.634,243.013 z" id="boundary" inkscape:connector-curvature="0" />
	<path style="fill:none;stroke:red;stroke-width:1px;stroke-linecap:butt;stroke-linejoin:miter;stroke-opacity:1" d="M 529.634,252.729 529.634,262.445 z" id="boundary" inkscape:connector-curvature="0" />
	<path style="fill:none;stroke:red;stroke-width:1px;stroke-linecap:butt;stroke-linejoin:miter;stroke-opacity:1" d="M 529.634,252.729 529.634,243.013 z" id="boundary" inkscape:connector-curvature="0" />
	<path style="fill:none;stroke:red;stroke-width:1px;stroke-linecap:butt;stroke-linejoin:miter;stroke-opacity:1" d="M 529.634,262.445 529.634,272.161 z" id="boundary" inkscape:connector-curvature="0" />
	<path style="fill:none;stroke:red;stroke-width:1px;stroke-linecap:butt;stroke-linejoin:miter;stroke-opacity:1" d="M 547.122,213.865 538.378,218.723 z" id="boundary" inkscape:connector-curvature="0" />
	<path style="fill:none;stroke:red;stroke-width:1px;stroke-linecap:butt;stroke-linejoin:miter;stroke-opacity:1" d="M 529.634,272.161 529.634,281.877 z" id="boundary" inkscape:connector-curvature="0" />
	<path style="fill:none;stroke:red;stroke-width:1px;stroke-linecap:butt;stroke-linejoin:miter;stroke-opacity:1" d="M 534.492,300.337 529.634,291.593 z" id="boundary" inkscape:connector-curvature="0" />
	<path style="fill:none;stroke:red;stroke-width:1px;stroke-linecap:butt;stroke-linejoin:miter;stroke-opacity:1" d="M 529.634,291.593 529.634,281.877 z" id="boundary" inkscape:connector-curvature="0" />
	<path style="fill:none;stroke:red;stroke-width:1px;stroke-linecap:butt;stroke-linejoin:miter;stroke-opacity:1" d="M 539.35,309.081 534.492,300.337 z" id="boundary" inkscape:connector-curvature="0" />
	<path style="fill:none;stroke:red;stroke-width:1px;stroke-linecap:butt;stroke-linejoin:miter;stroke-opacity:1" d="M 539.35,309.081 547.122,315.882 z" id="boundary" inkscape:connector-curvature="0" />
	<path style="fill:none;stroke:red;stroke-width:1px;stroke-linecap:butt;stroke-linejoin:miter;stroke-opacity:1" d="M 565.583,209.007 556.838,213.865 z" id="boundary" inkscape:connector-curvature="0" />
	<path style="fill:none;stroke:red;stroke-width:1px;stroke-linecap:butt;stroke-linejoin:miter;stroke-opacity:1" d="M 556.838,213.865 547.122,213.865 z" id="boundary" inkscape:connector-curvature="0" />
	<path style="fill:none;stroke:red;stroke-width:1px;stroke-linecap:butt;stroke-linejoin:miter;stroke-opacity:1" d="M 585.015,204.149 575.299,208.035 z" id="boundary" inkscape:connector-curvature="0" />
	<path style="fill:none;stroke:red;stroke-width:1px;stroke-linecap:butt;stroke-linejoin:miter;stroke-opacity:1" d="M 565.583,209.007 575.299,208.035 z" id="boundary" inkscape:connector-curvature="0" />
	<path style="fill:none;stroke:red;stroke-width:1px;stroke-linecap:butt;stroke-linejoin:miter;stroke-opacity:1" d="M 553.924,323.655 547.122,315.882 z" id="boundary" inkscape:connector-curvature="0" />
	<path style="fill:none;stroke:red;stroke-width:1px;stroke-linecap:butt;stroke-linejoin:miter;stroke-opacity:1" d="M 558.782,332.4 562.668,342.116 z" id="boundary" inkscape:connector-curvature="0" />
	<path style="fill:none;stroke:red;stroke-width:1px;stroke-linecap:butt;stroke-linejoin:miter;stroke-opacity:1" d="M 558.782,332.4 553.924,323.655 z" id="boundary" inkscape:connector-curvature="0" />
	<path style="fill:none;stroke:red;stroke-width:1px;stroke-linecap:butt;stroke-linejoin:miter;stroke-opacity:1" d="M 562.668,342.116 568.498,349.888 z" id="boundary" inkscape:connector-curvature="0" />
	<path style="fill:none;stroke:red;stroke-width:1px;stroke-linecap:butt;stroke-linejoin:miter;stroke-opacity:1" d="M 586.958,358.633 578.214,353.775 z" id="boundary" inkscape:connector-curvature="0" />
	<path style="fill:none;stroke:red;stroke-width:1px;stroke-linecap:butt;stroke-linejoin:miter;stroke-opacity:1" d="M 578.214,353.775 568.498,349.888 z" id="boundary" inkscape:connector-curvature="0" />
	<path style="fill:none;stroke:red;stroke-width:1px;stroke-linecap:butt;stroke-linejoin:miter;stroke-opacity:1" d="M 626.793,164.313 617.077,164.313 z" id="boundary" inkscape:connector-curvature="0" />
	<path style="fill:none;stroke:red;stroke-width:1px;stroke-linecap:butt;stroke-linejoin:miter;stroke-opacity:1" d="M 597.645,164.313 587.929,164.313 z" id="boundary" inkscape:connector-curvature="0" />
	<path style="fill:none;stroke:red;stroke-width:1px;stroke-linecap:butt;stroke-linejoin:miter;stroke-opacity:1" d="M 597.645,164.313 607.361,164.313 z" id="boundary" inkscape:connector-curvature="0" />
	<path style="fill:none;stroke:red;stroke-width:1px;stroke-linecap:butt;stroke-linejoin:miter;stroke-opacity:1" d="M 617.077,164.313 607.361,164.313 z" id="boundary" inkscape:connector-curvature="0" />
	<path style="fill:none;stroke:red;stroke-width:1px;stroke-linecap:butt;stroke-linejoin:miter;stroke-opacity:1" d="M 632.623,189.575 623.879,194.433 z" id="boundary" inkscape:connector-curvature="0" />
	<path style="fill:none;stroke:red;stroke-width:1px;stroke-linecap:butt;stroke-linejoin:miter;stroke-opacity:1" d="M 604.447,199.291 594.731,203.177 z" id="boundary" inkscape:connector-curvature="0" />
	<path style="fill:none;stroke:red;stroke-width:1px;stroke-linecap:butt;stroke-linejoin:miter;stroke-opacity:1" d="M 585.015,204.149 594.731,203.177 z" id="boundary" inkscape:connector-curvature="0" />
	<path style="fill:none;stroke:red;stroke-width:1px;stroke-linecap:butt;stroke-linejoin:miter;stroke-opacity:1" d="M 604.447,199.291 614.163,198.319 z" id="boundary" inkscape:connector-curvature="0" />
	<path style="fill:none;stroke:red;stroke-width:1px;stroke-linecap:butt;stroke-linejoin:miter;stroke-opacity:1" d="M 614.163,198.319 623.879,194.433 z" id="boundary" inkscape:connector-curvature="0" />
	<path style="fill:none;stroke:red;stroke-width:1px;stroke-linecap:butt;stroke-linejoin:miter;stroke-opacity:1" d="M 636.509,167.228 626.793,164.313 z" id="boundary" inkscape:connector-curvature="0" />
	<path style="fill:none;stroke:red;stroke-width:1px;stroke-linecap:butt;stroke-linejoin:miter;stroke-opacity:1" d="M 636.509,167.228 641.367,179.859 z" id="boundary" inkscape:connector-curvature="0" />
	<path style="fill:none;stroke:red;stroke-width:1px;stroke-linecap:butt;stroke-linejoin:miter;stroke-opacity:1" d="M 632.623,189.575 641.367,179.859 z" id="boundary" inkscape:connector-curvature="0" />
	<path style="fill:none;stroke:red;stroke-width:1px;stroke-linecap:butt;stroke-linejoin:miter;stroke-opacity:1" d="M 605.418,363.491 596.674,358.633 z" id="boundary" inkscape:connector-curvature="0" />
	<path style="fill:none;stroke:red;stroke-width:1px;stroke-linecap:butt;stroke-linejoin:miter;stroke-opacity:1" d="M 615.134,363.491 605.418,363.491 z" id="boundary" inkscape:connector-curvature="0" />
	<path style="fill:none;stroke:red;stroke-width:1px;stroke-linecap:butt;stroke-linejoin:miter;stroke-opacity:1" d="M 615.134,363.491 623.879,368.349 z" id="boundary" inkscape:connector-curvature="0" />
	<path style="fill:none;stroke:red;stroke-width:1px;stroke-linecap:butt;stroke-linejoin:miter;stroke-opacity:1" d="M 623.879,368.349 632.623,373.207 z" id="boundary" inkscape:connector-curvature="0" />
	<path style="fill:none;stroke:red;stroke-width:1px;stroke-linecap:butt;stroke-linejoin:miter;stroke-opacity:1" d="M 586.958,358.633 596.674,358.633 z" id="boundary" inkscape:connector-curvature="0" />
	<path style="fill:none;stroke:red;stroke-width:1px;stroke-linecap:butt;stroke-linejoin:miter;stroke-opacity:1" d="M 641.367,378.065 632.623,373.207 z" id="boundary" inkscape:connector-curvature="0" />
	<path style="fill:none;stroke:red;stroke-width:1px;stroke-linecap:butt;stroke-linejoin:miter;stroke-opacity:1" d="M 651.083,380.979 660.799,382.923 z" id="boundary" inkscape:connector-curvature="0" />
	<path style="fill:none;stroke:red;stroke-width:1px;stroke-linecap:butt;stroke-linejoin:miter;stroke-opacity:1" d="M 651.083,380.979 641.367,378.065 z" id="boundary" inkscape:connector-curvature="0" />
	<path style="fill:none;stroke:red;stroke-width:1px;stroke-linecap:butt;stroke-linejoin:miter;stroke-opacity:1" d="M 669.544,387.781 678.288,392.639 z" id="boundary" inkscape:connector-curvature="0" />
	<path style="fill:none;stroke:red;stroke-width:1px;stroke-linecap:butt;stroke-linejoin:miter;stroke-opacity:1" d="M 660.799,382.923 669.544,387.781 z" id="boundary" inkscape:connector-curvature="0" />
	<path style="fill:none;stroke:red;stroke-width:1px;stroke-linecap:butt;stroke-linejoin:miter;stroke-opacity:1" d="M 678.288,392.639 688.004,393.61 z" id="boundary" inkscape:connector-curvature="0" />
	<path style="fill:none;stroke:red;stroke-width:1px;stroke-linecap:butt;stroke-linejoin:miter;stroke-opacity:1" d="M 697.72,397.497 688.004,393.61 z" id="boundary" inkscape:connector-curvature="0" />
	<path style="fill:none;stroke:red;stroke-width:1px;stroke-linecap:butt;stroke-linejoin:miter;stroke-opacity:1" d="M 697.72,397.497 707.436,398.468 z" id="boundary" inkscape:connector-curvature="0" />
	<path style="fill:none;stroke:red;stroke-width:1px;stroke-linecap:butt;stroke-linejoin:miter;stroke-opacity:1" d="M 726.868,402.355 717.152,402.355 z" id="boundary" inkscape:connector-curvature="0" />
	<path style="fill:none;stroke:red;stroke-width:1px;stroke-linecap:butt;stroke-linejoin:miter;stroke-opacity:1" d="M 717.152,402.355 707.436,398.468 z" id="boundary" inkscape:connector-curvature="0" />
	<path style="fill:none;stroke:red;stroke-width:1px;stroke-linecap:butt;stroke-linejoin:miter;stroke-opacity:1" d="M 726.868,402.355 736.584,402.355 z" id="boundary" inkscape:connector-curvature="0" />
	<path style="fill:none;stroke:red;stroke-width:1px;stroke-linecap:butt;stroke-linejoin:miter;stroke-opacity:1" d="M 746.3,402.355 736.584,402.355 z" id="boundary" inkscape:connector-curvature="0" />
	<path style="fill:none;stroke:red;stroke-width:1px;stroke-linecap:butt;stroke-linejoin:miter;stroke-opacity:1" d="M 756.016,402.355 765.732,402.355 z" id="boundary" inkscape:connector-curvature="0" />
	<path style="fill:none;stroke:red;stroke-width:1px;stroke-linecap:butt;stroke-linejoin:miter;stroke-opacity:1" d="M 765.732,402.355 775.448,402.355 z" id="boundary" inkscape:connector-curvature="0" />
	<path style="fill:none;stroke:red;stroke-width:1px;stroke-linecap:butt;stroke-linejoin:miter;stroke-opacity:1" d="M 746.3,402.355 756.016,402.355 z" id="boundary" inkscape:connector-curvature="0" />
	<path style="fill:none;stroke:red;stroke-width:1px;stroke-linecap:butt;stroke-linejoin:miter;stroke-opacity:1" d="M 785.164,402.355 794.88,403.326 z" id="boundary" inkscape:connector-curvature="0" />
	<path style="fill:none;stroke:red;stroke-width:1px;stroke-linecap:butt;stroke-linejoin:miter;stroke-opacity:1" d="M 794.88,403.326 803.624,408.184 z" id="boundary" inkscape:connector-curvature="0" />
	<path style="fill:none;stroke:red;stroke-width:1px;stroke-linecap:butt;stroke-linejoin:miter;stroke-opacity:1" d="M 808.482,416.929 803.624,408.184 z" id="boundary" inkscape:connector-curvature="0" />
	<path style="fill:none;stroke:red;stroke-width:1px;stroke-linecap:butt;stroke-linejoin:miter;stroke-opacity:1" d="M 811.397,426.644 811.397,436.36 z" id="boundary" inkscape:connector-curvature="0" />
	<path style="fill:none;stroke:red;stroke-width:1px;stroke-linecap:butt;stroke-linejoin:miter;stroke-opacity:1" d="M 808.482,416.929 811.397,426.644 z" id="boundary" inkscape:connector-curvature="0" />
	<path style="fill:none;stroke:red;stroke-width:1px;stroke-linecap:butt;stroke-linejoin:miter;stroke-opacity:1" d="M 775.448,402.355 785.164,402.355 z" id="boundary" inkscape:connector-curvature="0" />
	<path style="fill:none;stroke:red;stroke-width:1px;stroke-linecap:butt;stroke-linejoin:miter;stroke-opacity:1" d="M 811.397,436.36 811.397,446.076 z" id="boundary" inkscape:connector-curvature="0" />
	<path style="fill:none;stroke:red;stroke-width:1px;stroke-linecap:butt;stroke-linejoin:miter;stroke-opacity:1" d="M 811.397,446.076 811.397,455.792 z" id="boundary" inkscape:connector-curvature="0" />
	<path style="fill:none;stroke:red;stroke-width:1px;stroke-linecap:butt;stroke-linejoin:miter;stroke-opacity:1" d="M 811.397,465.508 811.397,455.792 z" id="boundary" inkscape:connector-curvature="0" />
	<path style="fill:none;stroke:red;stroke-width:1px;stroke-linecap:butt;stroke-linejoin:miter;stroke-opacity:1" d="M 811.397,465.508 816.255,474.253 z" id="boundary" inkscape:connector-curvature="0" />
	<path style="fill:none;stroke:red;stroke-width:1px;stroke-linecap:butt;stroke-linejoin:miter;stroke-opacity:1" d="M 821.113,482.997 816.255,474.253 z" id="boundary" inkscape:connector-curvature="0" />
	<path style="fill:none;stroke:red;stroke-width:1px;stroke-linecap:butt;stroke-linejoin:miter;stroke-opacity:1" d="M 821.113,482.997 825.971,491.741 z" id="boundary" inkscape:connector-curvature="0" />
	<path style="fill:none;stroke:red;stroke-width:1px;stroke-linecap:butt;stroke-linejoin:miter;stroke-opacity:1" d="M 503.401,791.965 493.685,791.965 z" id="boundary" inkscape:connector-curvature="0" />
	<path style="fill:none;stroke:red;stroke-width:1px;stroke-linecap:butt;stroke-linejoin:miter;stroke-opacity:1" d="M 541.293,796.823 531.577,796.823 z" id="boundary" inkscape:connector-curvature="0" />
	<path style="fill:none;stroke:red;stroke-width:1px;stroke-linecap:butt;stroke-linejoin:miter;stroke-opacity:1" d="M 503.401,791.965 512.145,796.823 z" id="boundary" inkscape:connector-curvature="0" />
	<path style="fill:none;stroke:red;stroke-width:1px;stroke-linecap:butt;stroke-linejoin:miter;stroke-opacity:1" d="M 521.861,796.823 531.577,796.823 z" id="boundary" inkscape:connector-curvature="0" />
	<path style="fill:none;stroke:red;stroke-width:1px;stroke-linecap:butt;stroke-linejoin:miter;stroke-opacity:1" d="M 521.861,796.823 512.145,796.823 z" id="boundary" inkscape:connector-curvature="0" />
	<path style="fill:none;stroke:red;stroke-width:1px;stroke-linecap:butt;stroke-linejoin:miter;stroke-opacity:1" d="M 580.157,801.681 570.441,801.681 z" id="boundary" inkscape:connector-curvature="0" />
	<path style="fill:none;stroke:red;stroke-width:1px;stroke-linecap:butt;stroke-linejoin:miter;stroke-opacity:1" d="M 541.293,796.823 551.009,796.823 z" id="boundary" inkscape:connector-curvature="0" />
	<path style="fill:none;stroke:red;stroke-width:1px;stroke-linecap:butt;stroke-linejoin:miter;stroke-opacity:1" d="M 551.009,796.823 560.725,800.709 z" id="boundary" inkscape:connector-curvature="0" />
	<path style="fill:none;stroke:red;stroke-width:1px;stroke-linecap:butt;stroke-linejoin:miter;stroke-opacity:1" d="M 570.441,801.681 560.725,800.709 z" id="boundary" inkscape:connector-curvature="0" />
	<path style="fill:none;stroke:red;stroke-width:1px;stroke-linecap:butt;stroke-linejoin:miter;stroke-opacity:1" d="M 589.873,801.681 580.157,801.681 z" id="boundary" inkscape:connector-curvature="0" />
	<path style="fill:none;stroke:red;stroke-width:1px;stroke-linecap:butt;stroke-linejoin:miter;stroke-opacity:1" d="M 589.873,801.681 599.589,801.681 z" id="boundary" inkscape:connector-curvature="0" />
	<path style="fill:none;stroke:red;stroke-width:1px;stroke-linecap:butt;stroke-linejoin:miter;stroke-opacity:1" d="M 599.589,801.681 609.305,801.681 z" id="boundary" inkscape:connector-curvature="0" />
	<path style="fill:none;stroke:red;stroke-width:1px;stroke-linecap:butt;stroke-linejoin:miter;stroke-opacity:1" d="M 619.021,801.681 628.737,801.681 z" id="boundary" inkscape:connector-curvature="0" />
	<path style="fill:none;stroke:red;stroke-width:1px;stroke-linecap:butt;stroke-linejoin:miter;stroke-opacity:1" d="M 619.021,801.681 609.305,801.681 z" id="boundary" inkscape:connector-curvature="0" />
	<path style="fill:none;stroke:red;stroke-width:1px;stroke-linecap:butt;stroke-linejoin:miter;stroke-opacity:1" d="M 638.452,801.681 648.168,801.681 z" id="boundary" inkscape:connector-curvature="0" />
	<path style="fill:none;stroke:red;stroke-width:1px;stroke-linecap:butt;stroke-linejoin:miter;stroke-opacity:1" d="M 667.6,801.681 657.884,801.681 z" id="boundary" inkscape:connector-curvature="0" />
	<path style="fill:none;stroke:red;stroke-width:1px;stroke-linecap:butt;stroke-linejoin:miter;stroke-opacity:1" d="M 657.884,801.681 648.168,801.681 z" id="boundary" inkscape:connector-curvature="0" />
	<path style="fill:none;stroke:red;stroke-width:1px;stroke-linecap:butt;stroke-linejoin:miter;stroke-opacity:1" d="M 638.452,801.681 628.737,801.681 z" id="boundary" inkscape:connector-curvature="0" />
	<path style="fill:none;stroke:red;stroke-width:1px;stroke-linecap:butt;stroke-linejoin:miter;stroke-opacity:1" d="M 782.249,777.391 773.504,782.249 z" id="boundary" inkscape:connector-curvature="0" />
	<path style="fill:none;stroke:red;stroke-width:1px;stroke-linecap:butt;stroke-linejoin:miter;stroke-opacity:1" d="M 773.504,782.249 764.76,787.107 z" id="boundary" inkscape:connector-curvature="0" />
	<path style="fill:none;stroke:red;stroke-width:1px;stroke-linecap:butt;stroke-linejoin:miter;stroke-opacity:1" d="M 677.316,801.681 667.6,801.681 z" id="boundary" inkscape:connector-curvature="0" />
	<path style="fill:none;stroke:red;stroke-width:1px;stroke-linecap:butt;stroke-linejoin:miter;stroke-opacity:1" d="M 810.425,767.675 819.169,762.817 z" id="boundary" inkscape:connector-curvature="0" />
	<path style="fill:none;stroke:red;stroke-width:1px;stroke-linecap:butt;stroke-linejoin:miter;stroke-opacity:1" d="M 827.914,757.959 819.169,762.817 z" id="boundary" inkscape:connector-curvature="0" />
	<path style="fill:none;stroke:red;stroke-width:1px;stroke-linecap:butt;stroke-linejoin:miter;stroke-opacity:1" d="M 782.249,777.391 791.965,772.533 z" id="boundary" inkscape:connector-curvature="0" />
	<path style="fill:none;stroke:red;stroke-width:1px;stroke-linecap:butt;stroke-linejoin:miter;stroke-opacity:1" d="M 801.681,772.533 810.425,767.675 z" id="boundary" inkscape:connector-curvature="0" />
	<path style="fill:none;stroke:red;stroke-width:1px;stroke-linecap:butt;stroke-linejoin:miter;stroke-opacity:1" d="M 801.681,772.533 791.965,772.533 z" id="boundary" inkscape:connector-curvature="0" />
	<path style="fill:none;stroke:red;stroke-width:1px;stroke-linecap:butt;stroke-linejoin:miter;stroke-opacity:1" d="M 696.748,801.681 687.032,801.681 z" id="boundary" inkscape:connector-curvature="0" />
	<path style="fill:none;stroke:red;stroke-width:1px;stroke-linecap:butt;stroke-linejoin:miter;stroke-opacity:1" d="M 687.032,801.681 677.316,801.681 z" id="boundary" inkscape:connector-curvature="0" />
	<path style="fill:none;stroke:red;stroke-width:1px;stroke-linecap:butt;stroke-linejoin:miter;stroke-opacity:1" d="M 725.896,800.709 735.612,796.823 z" id="boundary" inkscape:connector-curvature="0" />
	<path style="fill:none;stroke:red;stroke-width:1px;stroke-linecap:butt;stroke-linejoin:miter;stroke-opacity:1" d="M 725.896,800.709 716.18,801.681 z" id="boundary" inkscape:connector-curvature="0" />
	<path style="fill:none;stroke:red;stroke-width:1px;stroke-linecap:butt;stroke-linejoin:miter;stroke-opacity:1" d="M 706.464,801.681 716.18,801.681 z" id="boundary" inkscape:connector-curvature="0" />
	<path style="fill:none;stroke:red;stroke-width:1px;stroke-linecap:butt;stroke-linejoin:miter;stroke-opacity:1" d="M 706.464,801.681 696.748,801.681 z" id="boundary" inkscape:connector-curvature="0" />
	<path style="fill:none;stroke:red;stroke-width:1px;stroke-linecap:butt;stroke-linejoin:miter;stroke-opacity:1" d="M 745.328,795.851 755.044,790.993 z" id="boundary" inkscape:connector-curvature="0" />
	<path style="fill:none;stroke:red;stroke-width:1px;stroke-linecap:butt;stroke-linejoin:miter;stroke-opacity:1" d="M 745.328,795.851 735.612,796.823 z" id="boundary" inkscape:connector-curvature="0" />
	<path style="fill:none;stroke:red;stroke-width:1px;stroke-linecap:butt;stroke-linejoin:miter;stroke-opacity:1" d="M 755.044,790.993 764.76,787.107 z" id="boundary" inkscape:connector-curvature="0" />
	<path style="fill:none;stroke:red;stroke-width:1px;stroke-linecap:butt;stroke-linejoin:miter;stroke-opacity:1" d="M 825.971,491.741 835.687,494.656 z" id="boundary" inkscape:connector-curvature="0" />
	<path style="fill:none;stroke:red;stroke-width:1px;stroke-linecap:butt;stroke-linejoin:miter;stroke-opacity:1" d="M 854.147,499.514 844.431,499.514 z" id="boundary" inkscape:connector-curvature="0" />
	<path style="fill:none;stroke:red;stroke-width:1px;stroke-linecap:butt;stroke-linejoin:miter;stroke-opacity:1" d="M 844.431,499.514 835.687,494.656 z" id="boundary" inkscape:connector-curvature="0" />
	<path style="fill:none;stroke:red;stroke-width:1px;stroke-linecap:butt;stroke-linejoin:miter;stroke-opacity:1" d="M 862.891,504.372 854.147,499.514 z" id="boundary" inkscape:connector-curvature="0" />
	<path style="fill:none;stroke:red;stroke-width:1px;stroke-linecap:butt;stroke-linejoin:miter;stroke-opacity:1" d="M 872.607,505.344 862.891,504.372 z" id="boundary" inkscape:connector-curvature="0" />
	<path style="fill:none;stroke:red;stroke-width:1px;stroke-linecap:butt;stroke-linejoin:miter;stroke-opacity:1" d="M 872.607,505.344 882.323,509.23 z" id="boundary" inkscape:connector-curvature="0" />
	<path style="fill:none;stroke:red;stroke-width:1px;stroke-linecap:butt;stroke-linejoin:miter;stroke-opacity:1" d="M 892.039,510.202 900.784,515.06 z" id="boundary" inkscape:connector-curvature="0" />
	<path style="fill:none;stroke:red;stroke-width:1px;stroke-linecap:butt;stroke-linejoin:miter;stroke-opacity:1" d="M 882.323,509.23 892.039,510.202 z" id="boundary" inkscape:connector-curvature="0" />
	<path style="fill:none;stroke:red;stroke-width:1px;stroke-linecap:butt;stroke-linejoin:miter;stroke-opacity:1" d="M 900.784,515.06 908.556,521.861 z" id="boundary" inkscape:connector-curvature="0" />
	<path style="fill:none;stroke:red;stroke-width:1px;stroke-linecap:butt;stroke-linejoin:miter;stroke-opacity:1" d="M 908.556,521.861 917.301,526.719 z" id="boundary" inkscape:connector-curvature="0" />
	<path style="fill:none;stroke:red;stroke-width:1px;stroke-linecap:butt;stroke-linejoin:miter;stroke-opacity:1" d="M 927.017,530.605 917.301,526.719 z" id="boundary" inkscape:connector-curvature="0" />
	<path style="fill:none;stroke:red;stroke-width:1px;stroke-linecap:butt;stroke-linejoin:miter;stroke-opacity:1" d="M 927.017,530.605 935.761,535.463 z" id="boundary" inkscape:connector-curvature="0" />
	<path style="fill:none;stroke:red;stroke-width:1px;stroke-linecap:butt;stroke-linejoin:miter;stroke-opacity:1" d="M 935.761,535.463 942.562,543.236 z" id="boundary" inkscape:connector-curvature="0" />
	<path style="fill:none;stroke:red;stroke-width:1px;stroke-linecap:butt;stroke-linejoin:miter;stroke-opacity:1" d="M 942.562,543.236 950.335,549.066 z" id="boundary" inkscape:connector-curvature="0" />
	<path style="fill:none;stroke:red;stroke-width:1px;stroke-linecap:butt;stroke-linejoin:miter;stroke-opacity:1" d="M 979.483,578.214 971.71,571.412 z" id="boundary" inkscape:connector-curvature="0" />
	<path style="fill:none;stroke:red;stroke-width:1px;stroke-linecap:butt;stroke-linejoin:miter;stroke-opacity:1" d="M 950.335,549.066 957.136,556.838 z" id="boundary" inkscape:connector-curvature="0" />
	<path style="fill:none;stroke:red;stroke-width:1px;stroke-linecap:butt;stroke-linejoin:miter;stroke-opacity:1" d="M 957.136,556.838 964.909,563.64 z" id="boundary" inkscape:connector-curvature="0" />
	<path style="fill:none;stroke:red;stroke-width:1px;stroke-linecap:butt;stroke-linejoin:miter;stroke-opacity:1" d="M 971.71,571.412 964.909,563.64 z" id="boundary" inkscape:connector-curvature="0" />
	<path style="fill:none;stroke:red;stroke-width:1px;stroke-linecap:butt;stroke-linejoin:miter;stroke-opacity:1" d="M 979.483,578.214 986.284,585.986 z" id="boundary" inkscape:connector-curvature="0" />
	<path style="fill:none;stroke:red;stroke-width:1px;stroke-linecap:butt;stroke-linejoin:miter;stroke-opacity:1" d="M 986.284,585.986 994.057,592.787 z" id="boundary" inkscape:connector-curvature="0" />
	<path style="fill:none;stroke:red;stroke-width:1px;stroke-linecap:butt;stroke-linejoin:miter;stroke-opacity:1" d="M 994.057,592.787 996,602.503 z" id="boundary" inkscape:connector-curvature="0" />
	<path style="fill:none;stroke:red;stroke-width:1px;stroke-linecap:butt;stroke-linejoin:miter;stroke-opacity:1" d="M 991.142,612.219 996,602.503 z" id="boundary" inkscape:connector-curvature="0" />
	<path style="fill:none;stroke:red;stroke-width:1px;stroke-linecap:butt;stroke-linejoin:miter;stroke-opacity:1" d="M 991.142,612.219 986.284,621.935 z" id="boundary" inkscape:connector-curvature="0" />
	<path style="fill:none;stroke:red;stroke-width:1px;stroke-linecap:butt;stroke-linejoin:miter;stroke-opacity:1" d="M 911.471,726.868 901.755,731.726 z" id="boundary" inkscape:connector-curvature="0" />
	<path style="fill:none;stroke:red;stroke-width:1px;stroke-linecap:butt;stroke-linejoin:miter;stroke-opacity:1" d="M 857.062,748.243 847.346,752.129 z" id="boundary" inkscape:connector-curvature="0" />
	<path style="fill:none;stroke:red;stroke-width:1px;stroke-linecap:butt;stroke-linejoin:miter;stroke-opacity:1" d="M 847.346,752.129 837.63,756.987 z" id="boundary" inkscape:connector-curvature="0" />
	<path style="fill:none;stroke:red;stroke-width:1px;stroke-linecap:butt;stroke-linejoin:miter;stroke-opacity:1" d="M 827.914,757.959 837.63,756.987 z" id="boundary" inkscape:connector-curvature="0" />
	<path style="fill:none;stroke:red;stroke-width:1px;stroke-linecap:butt;stroke-linejoin:miter;stroke-opacity:1" d="M 857.062,748.243 866.778,748.243 z" id="boundary" inkscape:connector-curvature="0" />
	<path style="fill:none;stroke:red;stroke-width:1px;stroke-linecap:butt;stroke-linejoin:miter;stroke-opacity:1" d="M 875.522,743.385 885.238,743.385 z" id="boundary" inkscape:connector-curvature="0" />
	<path style="fill:none;stroke:red;stroke-width:1px;stroke-linecap:butt;stroke-linejoin:miter;stroke-opacity:1" d="M 893.982,738.527 885.238,743.385 z" id="boundary" inkscape:connector-curvature="0" />
	<path style="fill:none;stroke:red;stroke-width:1px;stroke-linecap:butt;stroke-linejoin:miter;stroke-opacity:1" d="M 875.522,743.385 866.778,748.243 z" id="boundary" inkscape:connector-curvature="0" />
	<path style="fill:none;stroke:red;stroke-width:1px;stroke-linecap:butt;stroke-linejoin:miter;stroke-opacity:1" d="M 893.982,738.527 901.755,731.726 z" id="boundary" inkscape:connector-curvature="0" />
	<path style="fill:none;stroke:red;stroke-width:1px;stroke-linecap:butt;stroke-linejoin:miter;stroke-opacity:1" d="M 961.994,680.231 955.193,692.862 z" id="boundary" inkscape:connector-curvature="0" />
	<path style="fill:none;stroke:red;stroke-width:1px;stroke-linecap:butt;stroke-linejoin:miter;stroke-opacity:1" d="M 955.193,692.862 947.42,699.663 z" id="boundary" inkscape:connector-curvature="0" />
	<path style="fill:none;stroke:red;stroke-width:1px;stroke-linecap:butt;stroke-linejoin:miter;stroke-opacity:1" d="M 940.619,712.294 930.903,717.152 z" id="boundary" inkscape:connector-curvature="0" />
	<path style="fill:none;stroke:red;stroke-width:1px;stroke-linecap:butt;stroke-linejoin:miter;stroke-opacity:1" d="M 940.619,712.294 947.42,699.663 z" id="boundary" inkscape:connector-curvature="0" />
	<path style="fill:none;stroke:red;stroke-width:1px;stroke-linecap:butt;stroke-linejoin:miter;stroke-opacity:1" d="M 930.903,717.152 921.187,722.01 z" id="boundary" inkscape:connector-curvature="0" />
	<path style="fill:none;stroke:red;stroke-width:1px;stroke-linecap:butt;stroke-linejoin:miter;stroke-opacity:1" d="M 971.71,655.941 976.568,641.367 z" id="boundary" inkscape:connector-curvature="0" />
	<path style="fill:none;stroke:red;stroke-width:1px;stroke-linecap:butt;stroke-linejoin:miter;stroke-opacity:1" d="M 971.71,655.941 966.852,665.657 z" id="boundary" inkscape:connector-curvature="0" />
	<path style="fill:none;stroke:red;stroke-width:1px;stroke-linecap:butt;stroke-linejoin:miter;stroke-opacity:1" d="M 976.568,641.367 981.426,631.651 z" id="boundary" inkscape:connector-curvature="0" />
	<path style="fill:none;stroke:red;stroke-width:1px;stroke-linecap:butt;stroke-linejoin:miter;stroke-opacity:1" d="M 981.426,631.651 986.284,621.935 z" id="boundary" inkscape:connector-curvature="0" />
	<path style="fill:none;stroke:red;stroke-width:1px;stroke-linecap:butt;stroke-linejoin:miter;stroke-opacity:1" d="M 961.994,680.231 966.852,665.657 z" id="boundary" inkscape:connector-curvature="0" />
	<path style="fill:none;stroke:red;stroke-width:1px;stroke-linecap:butt;stroke-linejoin:miter;stroke-opacity:1" d="M 911.471,726.868 921.187,722.01 z" id="boundary" inkscape:connector-curvature="0" />
	<circle cx="4" cy="604.447" r="4" fill="#0" id="circle0"/>
	<circle cx="4" cy="614.163" r="4" fill="#0" id="circle1"/>
	<circle cx="4" cy="623.879" r="4" fill="#0" id="circle2"/>
	<circle cx="4" cy="633.595" r="4" fill="#0" id="circle3"/>
	<circle cx="4" cy="643.31" r="4" fill="#0" id="circle4"/>
	<circle cx="4" cy="653.026" r="4" fill="#0" id="circle5"/>
	<circle cx="8.85798" cy="580.157" r="4" fill="#0" id="circle6"/>
	<circle cx="8.85798" cy="589.873" r="4" fill="#0" id="circle7"/>
	<circle cx="8.85798" cy="661.771" r="4" fill="#0" id="circle8"/>
	<circle cx="13.716" cy="570.441" r="4" fill="#0" id="circle9"/>
	<circle cx="13.716" cy="670.515" r="4" fill="#0" id="circle10"/>
	<circle cx="18.5739" cy="560.725" r="4" fill="#0" id="circle11"/>
	<circle cx="19.5455" cy="678.288" r="4" fill="#0" id="circle12"/>
	<circle cx="26.3467" cy="552.952" r="4" fill="#0" id="circle13"/>
	<circle cx="27.3183" cy="685.089" r="4" fill="#0" id="circle14"/>
	<circle cx="31.2047" cy="543.236" r="4" fill="#0" id="circle15"/>
	<circle cx="31.2047" cy="694.805" r="4" fill="#0" id="circle16"/>
	<circle cx="39.9491" cy="538.378" r="4" fill="#0" id="circle17"/>
	<circle cx="40.9207" cy="698.691" r="4" fill="#0" id="circle18"/>
	<circle cx="47.7218" cy="531.577" r="4" fill="#0" id="circle19"/>
	<circle cx="50.6366" cy="699.663" r="4" fill="#0" id="circle20"/>
	<circle cx="57.4378" cy="526.719" r="4" fill="#0" id="circle21"/>
	<circle cx="59.381" cy="704.521" r="4" fill="#0" id="circle22"/>
	<circle cx="67.1538" cy="523.804" r="4" fill="#0" id="circle23"/>
	<circle cx="69.097" cy="704.521" r="4" fill="#0" id="circle24"/>
	<circle cx="76.8697" cy="521.861" r="4" fill="#0" id="circle25"/>
	<circle cx="77.8413" cy="709.379" r="4" fill="#0" id="circle26"/>
	<circle cx="86.5857" cy="517.003" r="4" fill="#0" id="circle27"/>
	<circle cx="87.5573" cy="709.379" r="4" fill="#0" id="circle28"/>
	<circle cx="94.3585" cy="509.23" r="4" fill="#0" id="circle29"/>
	<circle cx="96.3017" cy="714.237" r="4" fill="#0" id="circle30"/>
	<circle cx="104.074" cy="504.372" r="4" fill="#0" id="circle31"/>
	<circle cx="106.018" cy="714.237" r="4" fill="#0" id="circle32"/>
	<circle cx="111.847" cy="496.599" r="4" fill="#0" id="circle33"/>
	<circle cx="114.762" cy="719.095" r="4" fill="#0" id="circle34"/>
	<circle cx="119.62" cy="489.798" r="4" fill="#0" id="circle35"/>
	<circle cx="124.478" cy="719.095" r="4" fill="#0" id="circle36"/>
	<circle cx="128.364" cy="484.94" r="4" fill="#0" id="circle37"/>
	<circle cx="133.222" cy="723.953" r="4" fill="#0" id="circle38"/>
	<circle cx="138.08" cy="480.082" r="4" fill="#0" id="circle39"/>
	<circle cx="142.938" cy="727.839" r="4" fill="#0" id="circle40"/>
	<circle cx="147.796" cy="475.224" r="4" fill="#0" id="circle41"/>
	<circle cx="151.683" cy="732.697" r="4" fill="#0" id="circle42"/>
	<circle cx="157.512" cy="475.224" r="4" fill="#0" id="circle43"/>
	<circle cx="161.399" cy="736.584" r="4" fill="#0" id="circle44"/>
	<circle cx="166.257" cy="470.366" r="4" fill="#0" id="circle45"/>
	<circle cx="170.143" cy="741.442" r="4" fill="#0" id="circle46"/>
	<circle cx="175.001" cy="465.508" r="4" fill="#0" id="circle47"/>
	<circle cx="178.887" cy="444.133" r="4" fill="#0" id="circle48"/>
	<circle cx="178.887" cy="453.849" r="4" fill="#0" id="circle49"/>
	<circle cx="179.859" cy="745.328" r="4" fill="#0" id="circle50"/>
	<circle cx="183.745" cy="419.843" r="4" fill="#0" id="circle51"/>
	<circle cx="183.745" cy="429.559" r="4" fill="#0" id="circle52"/>
	<circle cx="188.603" cy="410.127" r="4" fill="#0" id="circle53"/>
	<circle cx="189.575" cy="748.243" r="4" fill="#0" id="circle54"/>
	<circle cx="196.376" cy="402.355" r="4" fill="#0" id="circle55"/>
	<circle cx="199.291" cy="750.186" r="4" fill="#0" id="circle56"/>
	<circle cx="206.092" cy="397.497" r="4" fill="#0" id="circle57"/>
	<circle cx="209.007" cy="753.101" r="4" fill="#0" id="circle58"/>
	<circle cx="215.808" cy="392.639" r="4" fill="#0" id="circle59"/>
	<circle cx="218.723" cy="755.044" r="4" fill="#0" id="circle60"/>
	<circle cx="224.552" cy="387.781" r="4" fill="#0" id="circle61"/>
	<circle cx="228.439" cy="757.959" r="4" fill="#0" id="circle62"/>
	<circle cx="233.297" cy="382.923" r="4" fill="#0" id="circle63"/>
	<circle cx="237.183" cy="762.817" r="4" fill="#0" id="circle64"/>
	<circle cx="243.013" cy="380.008" r="4" fill="#0" id="circle65"/>
	<circle cx="246.899" cy="762.817" r="4" fill="#0" id="circle66"/>
	<circle cx="252.729" cy="378.065" r="4" fill="#0" id="circle67"/>
	<circle cx="256.615" cy="762.817" r="4" fill="#0" id="circle68"/>
	<circle cx="261.473" cy="373.207" r="4" fill="#0" id="circle69"/>
	<circle cx="265.359" cy="767.675" r="4" fill="#0" id="circle70"/>
	<circle cx="271.189" cy="373.207" r="4" fill="#0" id="circle71"/>
	<circle cx="275.075" cy="767.675" r="4" fill="#0" id="circle72"/>
	<circle cx="280.905" cy="373.207" r="4" fill="#0" id="circle73"/>
	<circle cx="283.82" cy="772.533" r="4" fill="#0" id="circle74"/>
	<circle cx="290.621" cy="373.207" r="4" fill="#0" id="circle75"/>
	<circle cx="293.536" cy="772.533" r="4" fill="#0" id="circle76"/>
	<circle cx="300.337" cy="373.207" r="4" fill="#0" id="circle77"/>
	<circle cx="302.28" cy="777.391" r="4" fill="#0" id="circle78"/>
	<circle cx="310.053" cy="373.207" r="4" fill="#0" id="circle79"/>
	<circle cx="311.996" cy="777.391" r="4" fill="#0" id="circle80"/>
	<circle cx="319.769" cy="373.207" r="4" fill="#0" id="circle81"/>
	<circle cx="320.74" cy="782.249" r="4" fill="#0" id="circle82"/>
	<circle cx="329.485" cy="373.207" r="4" fill="#0" id="circle83"/>
	<circle cx="330.456" cy="782.249" r="4" fill="#0" id="circle84"/>
	<circle cx="339.201" cy="373.207" r="4" fill="#0" id="circle85"/>
	<circle cx="340.172" cy="782.249" r="4" fill="#0" id="circle86"/>
	<circle cx="348.917" cy="373.207" r="4" fill="#0" id="circle87"/>
	<circle cx="349.888" cy="782.249" r="4" fill="#0" id="circle88"/>
	<circle cx="353.775" cy="181.802" r="4" fill="#0" id="circle89"/>
	<circle cx="358.633" cy="172.086" r="4" fill="#0" id="circle90"/>
	<circle cx="358.633" cy="190.547" r="4" fill="#0" id="circle91"/>
	<circle cx="358.633" cy="373.207" r="4" fill="#0" id="circle92"/>
	<circle cx="358.633" cy="787.107" r="4" fill="#0" id="circle93"/>
	<circle cx="368.349" cy="167.228" r="4" fill="#0" id="circle94"/>
	<circle cx="368.349" cy="194.433" r="4" fill="#0" id="circle95"/>
	<circle cx="368.349" cy="373.207" r="4" fill="#0" id="circle96"/>
	<circle cx="368.349" cy="787.107" r="4" fill="#0" id="circle97"/>
	<circle cx="378.065" cy="162.37" r="4" fill="#0" id="circle98"/>
	<circle cx="378.065" cy="194.433" r="4" fill="#0" id="circle99"/>
	<circle cx="378.065" cy="373.207" r="4" fill="#0" id="circle100"/>
	<circle cx="378.065" cy="787.107" r="4" fill="#0" id="circle101"/>
	<circle cx="386.809" cy="199.291" r="4" fill="#0" id="circle102"/>
	<circle cx="387.781" cy="159.455" r="4" fill="#0" id="circle103"/>
	<circle cx="387.781" cy="373.207" r="4" fill="#0" id="circle104"/>
	<circle cx="387.781" cy="787.107" r="4" fill="#0" id="circle105"/>
	<circle cx="396.525" cy="154.597" r="4" fill="#0" id="circle106"/>
	<circle cx="396.525" cy="199.291" r="4" fill="#0" id="circle107"/>
	<circle cx="397.497" cy="373.207" r="4" fill="#0" id="circle108"/>
	<circle cx="397.497" cy="787.107" r="4" fill="#0" id="circle109"/>
	<circle cx="405.269" cy="204.149" r="4" fill="#0" id="circle110"/>
	<circle cx="406.241" cy="154.597" r="4" fill="#0" id="circle111"/>
	<circle cx="406.241" cy="368.349" r="4" fill="#0" id="circle112"/>
	<circle cx="407.213" cy="787.107" r="4" fill="#0" id="circle113"/>
	<circle cx="412.071" cy="211.922" r="4" fill="#0" id="circle114"/>
	<circle cx="414.985" cy="149.739" r="4" fill="#0" id="circle115"/>
	<circle cx="415.957" cy="368.349" r="4" fill="#0" id="circle116"/>
	<circle cx="415.957" cy="791.965" r="4" fill="#0" id="circle117"/>
	<circle cx="416.929" cy="220.666" r="4" fill="#0" id="circle118"/>
	<circle cx="424.701" cy="149.739" r="4" fill="#0" id="circle119"/>
	<circle cx="424.701" cy="227.467" r="4" fill="#0" id="circle120"/>
	<circle cx="425.673" cy="368.349" r="4" fill="#0" id="circle121"/>
	<circle cx="425.673" cy="791.965" r="4" fill="#0" id="circle122"/>
	<circle cx="432.474" cy="233.297" r="4" fill="#0" id="circle123"/>
	<circle cx="434.417" cy="149.739" r="4" fill="#0" id="circle124"/>
	<circle cx="435.389" cy="368.349" r="4" fill="#0" id="circle125"/>
	<circle cx="435.389" cy="791.965" r="4" fill="#0" id="circle126"/>
	<circle cx="439.275" cy="358.633" r="4" fill="#0" id="circle127"/>
	<circle cx="441.218" cy="238.155" r="4" fill="#0" id="circle128"/>
	<circle cx="444.133" cy="149.739" r="4" fill="#0" id="circle129"/>
	<circle cx="444.133" cy="348.917" r="4" fill="#0" id="circle130"/>
	<circle cx="445.105" cy="791.965" r="4" fill="#0" id="circle131"/>
	<circle cx="446.076" cy="337.258" r="4" fill="#0" id="circle132"/>
	<circle cx="450.934" cy="238.155" r="4" fill="#0" id="circle133"/>
	<circle cx="450.934" cy="247.871" r="4" fill="#0" id="circle134"/>
	<circle cx="450.934" cy="257.587" r="4" fill="#0" id="circle135"/>
	<circle cx="450.934" cy="267.303" r="4" fill="#0" id="circle136"/>
	<circle cx="450.934" cy="277.019" r="4" fill="#0" id="circle137"/>
	<circle cx="450.934" cy="286.735" r="4" fill="#0" id="circle138"/>
	<circle cx="450.934" cy="296.451" r="4" fill="#0" id="circle139"/>
	<circle cx="450.934" cy="306.167" r="4" fill="#0" id="circle140"/>
	<circle cx="450.934" cy="315.882" r="4" fill="#0" id="circle141"/>
	<circle cx="450.934" cy="325.598" r="4" fill="#0" id="circle142"/>
	<circle cx="453.849" cy="149.739" r="4" fill="#0" id="circle143"/>
	<circle cx="454.821" cy="791.965" r="4" fill="#0" id="circle144"/>
	<circle cx="455.792" cy="45.7786" r="4" fill="#0" id="circle145"/>
	<circle cx="455.792" cy="55.4946" r="4" fill="#0" id="circle146"/>
	<circle cx="455.792" cy="65.2106" r="4" fill="#0" id="circle147"/>
	<circle cx="455.792" cy="74.9265" r="4" fill="#0" id="circle148"/>
	<circle cx="455.792" cy="84.6425" r="4" fill="#0" id="circle149"/>
	<circle cx="460.65" cy="36.0627" r="4" fill="#0" id="circle150"/>
	<circle cx="460.65" cy="93.3869" r="4" fill="#0" id="circle151"/>
	<circle cx="462.594" cy="144.881" r="4" fill="#0" id="circle152"/>
	<circle cx="464.537" cy="791.965" r="4" fill="#0" id="circle153"/>
	<circle cx="467.452" cy="101.16" r="4" fill="#0" id="circle154"/>
	<circle cx="470.366" cy="31.2047" r="4" fill="#0" id="circle155"/>
	<circle cx="470.366" cy="110.876" r="4" fill="#0" id="circle156"/>
	<circle cx="470.366" cy="120.592" r="4" fill="#0" id="circle157"/>
	<circle cx="470.366" cy="130.308" r="4" fill="#0" id="circle158"/>
	<circle cx="474.253" cy="791.965" r="4" fill="#0" id="circle159"/>
	<circle cx="478.139" cy="23.4319" r="4" fill="#0" id="circle160"/>
	<circle cx="483.969" cy="791.965" r="4" fill="#0" id="circle161"/>
	<circle cx="485.912" cy="15.6592" r="4" fill="#0" id="circle162"/>
	<circle cx="493.685" cy="8.85798" r="4" fill="#0" id="circle163"/>
	<circle cx="493.685" cy="791.965" r="4" fill="#0" id="circle164"/>
	<circle cx="502.429" cy="4" r="4" fill="#0" id="circle165"/>
	<circle cx="503.401" cy="791.965" r="4" fill="#0" id="circle166"/>
	<circle cx="512.145" cy="4" r="4" fill="#0" id="circle167"/>
	<circle cx="512.145" cy="796.823" r="4" fill="#0" id="circle168"/>
	<circle cx="520.889" cy="8.85798" r="4" fill="#0" id="circle169"/>
	<circle cx="521.861" cy="796.823" r="4" fill="#0" id="circle170"/>
	<circle cx="528.662" cy="15.6592" r="4" fill="#0" id="circle171"/>
	<circle cx="529.634" cy="25.3751" r="4" fill="#0" id="circle172"/>
	<circle cx="529.634" cy="35.0911" r="4" fill="#0" id="circle173"/>
	<circle cx="529.634" cy="44.8071" r="4" fill="#0" id="circle174"/>
	<circle cx="529.634" cy="54.523" r="4" fill="#0" id="circle175"/>
	<circle cx="529.634" cy="64.239" r="4" fill="#0" id="circle176"/>
	<circle cx="529.634" cy="73.9549" r="4" fill="#0" id="circle177"/>
	<circle cx="529.634" cy="83.6709" r="4" fill="#0" id="circle178"/>
	<circle cx="529.634" cy="93.3869" r="4" fill="#0" id="circle179"/>
	<circle cx="529.634" cy="103.103" r="4" fill="#0" id="circle180"/>
	<circle cx="529.634" cy="112.819" r="4" fill="#0" id="circle181"/>
	<circle cx="529.634" cy="122.535" r="4" fill="#0" id="circle182"/>
	<circle cx="529.634" cy="132.251" r="4" fill="#0" id="circle183"/>
	<circle cx="529.634" cy="223.581" r="4" fill="#0" id="circle184"/>
	<circle cx="529.634" cy="233.297" r="4" fill="#0" id="circle185"/>
	<circle cx="529.634" cy="243.013" r="4" fill="#0" id="circle186"/>
	<circle cx="529.634" cy="252.729" r="4" fill="#0" id="circle187"/>
	<circle cx="529.634" cy="262.445" r="4" fill="#0" id="circle188"/>
	<circle cx="529.634" cy="272.161" r="4" fill="#0" id="circle189"/>
	<circle cx="529.634" cy="281.877" r="4" fill="#0" id="circle190"/>
	<circle cx="529.634" cy="291.593" r="4" fill="#0" id="circle191"/>
	<circle cx="531.577" cy="796.823" r="4" fill="#0" id="circle192"/>
	<circle cx="532.548" cy="141.967" r="4" fill="#0" id="circle193"/>
	<circle cx="534.492" cy="151.683" r="4" fill="#0" id="circle194"/>
	<circle cx="534.492" cy="300.337" r="4" fill="#0" id="circle195"/>
	<circle cx="538.378" cy="218.723" r="4" fill="#0" id="circle196"/>
	<circle cx="539.35" cy="309.081" r="4" fill="#0" id="circle197"/>
	<circle cx="540.321" cy="159.455" r="4" fill="#0" id="circle198"/>
	<circle cx="541.293" cy="796.823" r="4" fill="#0" id="circle199"/>
	<circle cx="547.122" cy="213.865" r="4" fill="#0" id="circle200"/>
	<circle cx="547.122" cy="315.882" r="4" fill="#0" id="circle201"/>
	<circle cx="550.037" cy="159.455" r="4" fill="#0" id="circle202"/>
	<circle cx="551.009" cy="796.823" r="4" fill="#0" id="circle203"/>
	<circle cx="553.924" cy="323.655" r="4" fill="#0" id="circle204"/>
	<circle cx="556.838" cy="213.865" r="4" fill="#0" id="circle205"/>
	<circle cx="558.782" cy="332.4" r="4" fill="#0" id="circle206"/>
	<circle cx="559.753" cy="159.455" r="4" fill="#0" id="circle207"/>
	<circle cx="560.725" cy="800.709" r="4" fill="#0" id="circle208"/>
	<circle cx="562.668" cy="342.116" r="4" fill="#0" id="circle209"/>
	<circle cx="565.583" cy="209.007" r="4" fill="#0" id="circle210"/>
	<circle cx="568.498" cy="164.313" r="4" fill="#0" id="circle211"/>
	<circle cx="568.498" cy="349.888" r="4" fill="#0" id="circle212"/>
	<circle cx="570.441" cy="801.681" r="4" fill="#0" id="circle213"/>
	<circle cx="575.299" cy="208.035" r="4" fill="#0" id="circle214"/>
	<circle cx="578.214" cy="164.313" r="4" fill="#0" id="circle215"/>
	<circle cx="578.214" cy="353.775" r="4" fill="#0" id="circle216"/>
	<circle cx="580.157" cy="801.681" r="4" fill="#0" id="circle217"/>
	<circle cx="585.015" cy="204.149" r="4" fill="#0" id="circle218"/>
	<circle cx="586.958" cy="358.633" r="4" fill="#0" id="circle219"/>
	<circle cx="587.929" cy="164.313" r="4" fill="#0" id="circle220"/>
	<circle cx="589.873" cy="801.681" r="4" fill="#0" id="circle221"/>
	<circle cx="594.731" cy="203.177" r="4" fill="#0" id="circle222"/>
	<circle cx="596.674" cy="358.633" r="4" fill="#0" id="circle223"/>
	<circle cx="597.645" cy="164.313" r="4" fill="#0" id="circle224"/>
	<circle cx="599.589" cy="801.681" r="4" fill="#0" id="circle225"/>
	<circle cx="604.447" cy="199.291" r="4" fill="#0" id="circle226"/>
	<circle cx="605.418" cy="363.491" r="4" fill="#0" id="circle227"/>
	<circle cx="607.361" cy="164.313" r="4" fill="#0" id="circle228"/>
	<circle cx="609.305" cy="801.681" r="4" fill="#0" id="circle229"/>
	<circle cx="614.163" cy="198.319" r="4" fill="#0" id="circle230"/>
	<circle cx="615.134" cy="363.491" r="4" fill="#0" id="circle231"/>
	<circle cx="617.077" cy="164.313" r="4" fill="#0" id="circle232"/>
	<circle cx="619.021" cy="801.681" r="4" fill="#0" id="circle233"/>
	<circle cx="623.879" cy="194.433" r="4" fill="#0" id="circle234"/>
	<circle cx="623.879" cy="368.349" r="4" fill="#0" id="circle235"/>
	<circle cx="626.793" cy="164.313" r="4" fill="#0" id="circle236"/>
	<circle cx="628.737" cy="801.681" r="4" fill="#0" id="circle237"/>
	<circle cx="632.623" cy="189.575" r="4" fill="#0" id="circle238"/>
	<circle cx="632.623" cy="373.207" r="4" fill="#0" id="circle239"/>
	<circle cx="636.509" cy="167.228" r="4" fill="#0" id="circle240"/>
	<circle cx="638.452" cy="801.681" r="4" fill="#0" id="circle241"/>
	<circle cx="641.367" cy="179.859" r="4" fill="#0" id="circle242"/>
	<circle cx="641.367" cy="378.065" r="4" fill="#0" id="circle243"/>
	<circle cx="648.168" cy="801.681" r="4" fill="#0" id="circle244"/>
	<circle cx="651.083" cy="380.979" r="4" fill="#0" id="circle245"/>
	<circle cx="657.884" cy="801.681" r="4" fill="#0" id="circle246"/>
	<circle cx="660.799" cy="382.923" r="4" fill="#0" id="circle247"/>
	<circle cx="667.6" cy="801.681" r="4" fill="#0" id="circle248"/>
	<circle cx="669.544" cy="387.781" r="4" fill="#0" id="circle249"/>
	<circle cx="677.316" cy="801.681" r="4" fill="#0" id="circle250"/>
	<circle cx="678.288" cy="392.639" r="4" fill="#0" id="circle251"/>
	<circle cx="687.032" cy="801.681" r="4" fill="#0" id="circle252"/>
	<circle cx="688.004" cy="393.61" r="4" fill="#0" id="circle253"/>
	<circle cx="696.748" cy="801.681" r="4" fill="#0" id="circle254"/>
	<circle cx="697.72" cy="397.497" r="4" fill="#0" id="circle255"/>
	<circle cx="706.464" cy="801.681" r="4" fill="#0" id="circle256"/>
	<circle cx="707.436" cy="398.468" r="4" fill="#0" id="circle257"/>
	<circle cx="716.18" cy="801.681" r="4" fill="#0" id="circle258"/>
	<circle cx="717.152" cy="402.355" r="4" fill="#0" id="circle259"/>
	<circle cx="725.896" cy="800.709" r="4" fill="#0" id="circle260"/>
	<circle cx="726.868" cy="402.355" r="4" fill="#0" id="circle261"/>
	<circle cx="735.612" cy="796.823" r="4" fill="#0" id="circle262"/>
	<circle cx="736.584" cy="402.355" r="4" fill="#0" id="circle263"/>
	<circle cx="745.328" cy="795.851" r="4" fill="#0" id="circle264"/>
	<circle cx="746.3" cy="402.355" r="4" fill="#0" id="circle265"/>
	<circle cx="755.044" cy="790.993" r="4" fill="#0" id="circle266"/>
	<circle cx="756.016" cy="402.355" r="4" fill="#0" id="circle267"/>
	<circle cx="764.76" cy="787.107" r="4" fill="#0" id="circle268"/>
	<circle cx="765.732" cy="402.355" r="4" fill="#0" id="circle269"/>
	<circle cx="773.504" cy="782.249" r="4" fill="#0" id="circle270"/>
	<circle cx="775.448" cy="402.355" r="4" fill="#0" id="circle271"/>
	<circle cx="782.249" cy="777.391" r="4" fill="#0" id="circle272"/>
	<circle cx="785.164" cy="402.355" r="4" fill="#0" id="circle273"/>
	<circle cx="791.965" cy="772.533" r="4" fill="#0" id="circle274"/>
	<circle cx="794.88" cy="403.326" r="4" fill="#0" id="circle275"/>
	<circle cx="801.681" cy="772.533" r="4" fill="#0" id="circle276"/>
	<circle cx="803.624" cy="408.184" r="4" fill="#0" id="circle277"/>
	<circle cx="808.482" cy="416.929" r="4" fill="#0" id="circle278"/>
	<circle cx="810.425" cy="767.675" r="4" fill="#0" id="circle279"/>
	<circle cx="811.397" cy="426.644" r="4" fill="#0" id="circle280"/>
	<circle cx="811.397" cy="436.36" r="4" fill="#0" id="circle281"/>
	<circle cx="811.397" cy="446.076" r="4" fill="#0" id="circle282"/>
	<circle cx="811.397" cy="455.792" r="4" fill="#0" id="circle283"/>
	<circle cx="811.397" cy="465.508" r="4" fill="#0" id="circle284"/>
	<circle cx="816.255" cy="474.253" r="4" fill="#0" id="circle285"/>
	<circle cx="819.169" cy="762.817" r="4" fill="#0" id="circle286"/>
	<circle cx="821.113" cy="482.997" r="4" fill="#0" id="circle287"/>
	<circle cx="825.971" cy="491.741" r="4" fill="#0" id="circle288"/>
	<circle cx="827.914" cy="757.959" r="4" fill="#0" id="circle289"/>
	<circle cx="835.687" cy="494.656" r="4" fill="#0" id="circle290"/>
	<circle cx="837.63" cy="756.987" r="4" fill="#0" id="circle291"/>
	<circle cx="844.431" cy="499.514" r="4" fill="#0" id="circle292"/>
	<circle cx="847.346" cy="752.129" r="4" fill="#0" id="circle293"/>
	<circle cx="854.147" cy="499.514" r="4" fill="#0" id="circle294"/>
	<circle cx="857.062" cy="748.243" r="4" fill="#0" id="circle295"/>
	<circle cx="862.891" cy="504.372" r="4" fill="#0" id="circle296"/>
	<circle cx="866.778" cy="748.243" r="4" fill="#0" id="circle297"/>
	<circle cx="872.607" cy="505.344" r="4" fill="#0" id="circle298"/>
	<circle cx="875.522" cy="743.385" r="4" fill="#0" id="circle299"/>
	<circle cx="882.323" cy="509.23" r="4" fill="#0" id="circle300"/>
	<circle cx="885.238" cy="743.385" r="4" fill="#0" id="circle301"/>
	<circle cx="892.039" cy="510.202" r="4" fill="#0" id="circle302"/>
	<circle cx="893.982" cy="738.527" r="4" fill="#0" id="circle303"/>
	<circle cx="900.784" cy="515.06" r="4" fill="#0" id="circle304"/>
	<circle cx="901.755" cy="731.726" r="4" fill="#0" id="circle305"/>
	<circle cx="908.556" cy="521.861" r="4" fill="#0" id="circle306"/>
	<circle cx="911.471" cy="726.868" r="4" fill="#0" id="circle307"/>
	<circle cx="917.301" cy="526.719" r="4" fill="#0" id="circle308"/>
	<circle cx="921.187" cy="722.01" r="4" fill="#0" id="circle309"/>
	<circle cx="927.017" cy="530.605" r="4" fill="#0" id="circle310"/>
	<circle cx="930.903" cy="717.152" r="4" fill="#0" id="circle311"/>
	<circle cx="935.761" cy="535.463" r="4" fill="#0" id="circle312"/>
	<circle cx="940.619" cy="712.294" r="4" fill="#0" id="circle313"/>
	<circle cx="942.562" cy="543.236" r="4" fill="#0" id="circle314"/>
	<circle cx="947.42" cy="699.663" r="4" fill="#0" id="circle315"/>
	<circle cx="950.335" cy="549.066" r="4" fill="#0" id="circle316"/>
	<circle cx="955.193" cy="692.862" r="4" fill="#0" id="circle317"/>
	<circle cx="957.136" cy="556.838" r="4" fill="#0" id="circle318"/>
	<circle cx="961.994" cy="680.231" r="4" fill="#0" id="circle319"/>
	<circle cx="964.909" cy="563.64" r="4" fill="#0" id="circle320"/>
	<circle cx="966.852" cy="665.657" r="4" fill="#0" id="circle321"/>
	<circle cx="971.71" cy="571.412" r="4" fill="#0" id="circle322"/>
	<circle cx="971.71" cy="655.941" r="4" fill="#0" id="circle323"/>
	<circle cx="976.568" cy="641.367" r="4" fill="#0" id="circle324"/>
	<circle cx="979.483" cy="578.214" r="4" fill="#0" id="circle325"/>
	<circle cx="981.426" cy="631.651" r="4" fill="#0" id="circle326"/>
	<circle cx="986.284" cy="585.986" r="4" fill="#0" id="circle327"/>
	<circle cx="986.284" cy="621.935" r="4" fill="#0" id="circle328"/>
	<circle cx="991.142" cy="612.219" r="4" fill="#0" id="circle329"/>
	<circle cx="994.057" cy="592.787" r="4" fill="#0" id="circle330"/>
	<circle cx="996" cy="602.503" r="4" fill="#0" id="circle331"/>
	</g>
</svg>