<?xml version="1.0" encoding="UTF-8" standalone="no"?>
<!-- Created with CurveBenchmark -->
<svg
	xmlns:dc="http://purl.org/dc/elements/1.1/"
	xmlns:cc="http://creativecommons.org/ns#"
	xmlns:rdf="http://www.w3.org/1999/02/22-rdf-syntax-ns#"
	xmlns:svg="http://www.w3.org/2000/svg"
	xmlns="http://www.w3.org/2000/svg"
	xmlns:sodipodi="http://sodipodi.sourceforge.net/DTD/sodipodi-0.dtd"
	xmlns:inkscape="http://www.inkscape.org/namespaces/inkscape"
	width="1000"
	height="1000"
	id="svg2"
	version="1.1"
	sodipodi:docname="manifold/crust-fish105.png.txt">
<defs
	id="defs4" />
<metadata
	id="metadata7">
	<rdf:RDF>
		<cc:Work
			rdf:about="">
			<dc:format>image/svg+xml</dc:format>
			<dc:type
				rdf:resource="http://purl.org/dc/dcmitype/StillImage" />
			<dc:title></dc:title>
		</cc:Work>
	</rdf:RDF>
</metadata>
<g
	inkscape:label="Layer 1"
	inkscape:groupmode="layer"
	id="layer1">
	<path style="fill:none;stroke:red;stroke-width:1px;stroke-linecap:butt;stroke-linejoin:miter;stroke-opacity:1" d="M 65.6149,268.944 4,262.783 z" id="boundary" inkscape:connector-curvature="0" />
	<path style="fill:none;stroke:red;stroke-width:1px;stroke-linecap:butt;stroke-linejoin:miter;stroke-opacity:1" d="M 4,324.398 4,262.783 z" id="boundary" inkscape:connector-curvature="0" />
	<path style="fill:none;stroke:red;stroke-width:1px;stroke-linecap:butt;stroke-linejoin:miter;stroke-opacity:1" d="M 4,324.398 4,386.012 z" id="boundary" inkscape:connector-curvature="0" />
	<path style="fill:none;stroke:red;stroke-width:1px;stroke-linecap:butt;stroke-linejoin:miter;stroke-opacity:1" d="M 16.323,447.627 4,386.012 z" id="boundary" inkscape:connector-curvature="0" />
	<path style="fill:none;stroke:red;stroke-width:1px;stroke-linecap:butt;stroke-linejoin:miter;stroke-opacity:1" d="M 16.323,447.627 4,558.534 z" id="boundary" inkscape:connector-curvature="0" />
	<path style="fill:none;stroke:red;stroke-width:1px;stroke-linecap:butt;stroke-linejoin:miter;stroke-opacity:1" d="M 213.491,151.876 164.199,188.845 z" id="boundary" inkscape:connector-curvature="0" />
	<path style="fill:none;stroke:red;stroke-width:1px;stroke-linecap:butt;stroke-linejoin:miter;stroke-opacity:1" d="M 275.106,114.907 213.491,151.876 z" id="boundary" inkscape:connector-curvature="0" />
	<path style="fill:none;stroke:red;stroke-width:1px;stroke-linecap:butt;stroke-linejoin:miter;stroke-opacity:1" d="M 164.199,188.845 139.553,262.783 z" id="boundary" inkscape:connector-curvature="0" />
	<path style="fill:none;stroke:red;stroke-width:1px;stroke-linecap:butt;stroke-linejoin:miter;stroke-opacity:1" d="M 275.106,114.907 312.075,53.2919 z" id="boundary" inkscape:connector-curvature="0" />
	<path style="fill:none;stroke:red;stroke-width:1px;stroke-linecap:butt;stroke-linejoin:miter;stroke-opacity:1" d="M 361.366,4 312.075,53.2919 z" id="boundary" inkscape:connector-curvature="0" />
	<path style="fill:none;stroke:red;stroke-width:1px;stroke-linecap:butt;stroke-linejoin:miter;stroke-opacity:1" d="M 96.4224,324.398 139.553,262.783 z" id="boundary" inkscape:connector-curvature="0" />
	<path style="fill:none;stroke:red;stroke-width:1px;stroke-linecap:butt;stroke-linejoin:miter;stroke-opacity:1" d="M 4,620.149 4,681.764 z" id="boundary" inkscape:connector-curvature="0" />
	<path style="fill:none;stroke:red;stroke-width:1px;stroke-linecap:butt;stroke-linejoin:miter;stroke-opacity:1" d="M 4,681.764 53.2919,724.894 z" id="boundary" inkscape:connector-curvature="0" />
	<path style="fill:none;stroke:red;stroke-width:1px;stroke-linecap:butt;stroke-linejoin:miter;stroke-opacity:1" d="M 4,620.149 4,558.534 z" id="boundary" inkscape:connector-curvature="0" />
	<path style="fill:none;stroke:red;stroke-width:1px;stroke-linecap:butt;stroke-linejoin:miter;stroke-opacity:1" d="M 114.907,731.056 53.2919,724.894 z" id="boundary" inkscape:connector-curvature="0" />
	<path style="fill:none;stroke:red;stroke-width:1px;stroke-linecap:butt;stroke-linejoin:miter;stroke-opacity:1" d="M 114.907,731.056 151.876,780.348 z" id="boundary" inkscape:connector-curvature="0" />
	<path style="fill:none;stroke:red;stroke-width:1px;stroke-linecap:butt;stroke-linejoin:miter;stroke-opacity:1" d="M 188.845,878.932 164.199,940.547 z" id="boundary" inkscape:connector-curvature="0" />
	<path style="fill:none;stroke:red;stroke-width:1px;stroke-linecap:butt;stroke-linejoin:miter;stroke-opacity:1" d="M 164.199,940.547 195.006,996 z" id="boundary" inkscape:connector-curvature="0" />
	<path style="fill:none;stroke:red;stroke-width:1px;stroke-linecap:butt;stroke-linejoin:miter;stroke-opacity:1" d="M 213.491,774.186 151.876,780.348 z" id="boundary" inkscape:connector-curvature="0" />
	<path style="fill:none;stroke:red;stroke-width:1px;stroke-linecap:butt;stroke-linejoin:miter;stroke-opacity:1" d="M 238.137,946.708 195.006,996 z" id="boundary" inkscape:connector-curvature="0" />
	<path style="fill:none;stroke:red;stroke-width:1px;stroke-linecap:butt;stroke-linejoin:miter;stroke-opacity:1" d="M 281.267,891.255 318.236,841.963 z" id="boundary" inkscape:connector-curvature="0" />
	<path style="fill:none;stroke:red;stroke-width:1px;stroke-linecap:butt;stroke-linejoin:miter;stroke-opacity:1" d="M 281.267,891.255 238.137,946.708 z" id="boundary" inkscape:connector-curvature="0" />
	<path style="fill:none;stroke:red;stroke-width:1px;stroke-linecap:butt;stroke-linejoin:miter;stroke-opacity:1" d="M 355.205,780.348 318.236,841.963 z" id="boundary" inkscape:connector-curvature="0" />
	<path style="fill:none;stroke:red;stroke-width:1px;stroke-linecap:butt;stroke-linejoin:miter;stroke-opacity:1" d="M 361.366,4 410.658,40.9689 z" id="boundary" inkscape:connector-curvature="0" />
	<path style="fill:none;stroke:red;stroke-width:1px;stroke-linecap:butt;stroke-linejoin:miter;stroke-opacity:1" d="M 422.981,102.584 429.143,164.199 z" id="boundary" inkscape:connector-curvature="0" />
	<path style="fill:none;stroke:red;stroke-width:1px;stroke-linecap:butt;stroke-linejoin:miter;stroke-opacity:1" d="M 429.143,164.199 466.112,213.491 z" id="boundary" inkscape:connector-curvature="0" />
	<path style="fill:none;stroke:red;stroke-width:1px;stroke-linecap:butt;stroke-linejoin:miter;stroke-opacity:1" d="M 422.981,102.584 410.658,40.9689 z" id="boundary" inkscape:connector-curvature="0" />
	<path style="fill:none;stroke:red;stroke-width:1px;stroke-linecap:butt;stroke-linejoin:miter;stroke-opacity:1" d="M 466.112,213.491 527.727,238.137 z" id="boundary" inkscape:connector-curvature="0" />
	<path style="fill:none;stroke:red;stroke-width:1px;stroke-linecap:butt;stroke-linejoin:miter;stroke-opacity:1" d="M 570.857,287.429 527.727,238.137 z" id="boundary" inkscape:connector-curvature="0" />
	<path style="fill:none;stroke:red;stroke-width:1px;stroke-linecap:butt;stroke-linejoin:miter;stroke-opacity:1" d="M 663.28,367.528 626.311,318.236 z" id="boundary" inkscape:connector-curvature="0" />
	<path style="fill:none;stroke:red;stroke-width:1px;stroke-linecap:butt;stroke-linejoin:miter;stroke-opacity:1" d="M 626.311,318.236 570.857,287.429 z" id="boundary" inkscape:connector-curvature="0" />
	<path style="fill:none;stroke:red;stroke-width:1px;stroke-linecap:butt;stroke-linejoin:miter;stroke-opacity:1" d="M 675.602,552.373 650.957,620.149 z" id="boundary" inkscape:connector-curvature="0" />
	<path style="fill:none;stroke:red;stroke-width:1px;stroke-linecap:butt;stroke-linejoin:miter;stroke-opacity:1" d="M 663.28,367.528 663.28,429.143 z" id="boundary" inkscape:connector-curvature="0" />
	<path style="fill:none;stroke:red;stroke-width:1px;stroke-linecap:butt;stroke-linejoin:miter;stroke-opacity:1" d="M 675.602,490.758 663.28,429.143 z" id="boundary" inkscape:connector-curvature="0" />
	<path style="fill:none;stroke:red;stroke-width:1px;stroke-linecap:butt;stroke-linejoin:miter;stroke-opacity:1" d="M 675.602,490.758 675.602,552.373 z" id="boundary" inkscape:connector-curvature="0" />
	<path style="fill:none;stroke:red;stroke-width:1px;stroke-linecap:butt;stroke-linejoin:miter;stroke-opacity:1" d="M 355.205,780.348 410.658,811.155 z" id="boundary" inkscape:connector-curvature="0" />
	<path style="fill:none;stroke:red;stroke-width:1px;stroke-linecap:butt;stroke-linejoin:miter;stroke-opacity:1" d="M 410.658,811.155 435.304,872.77 z" id="boundary" inkscape:connector-curvature="0" />
	<path style="fill:none;stroke:red;stroke-width:1px;stroke-linecap:butt;stroke-linejoin:miter;stroke-opacity:1" d="M 472.273,922.062 435.304,872.77 z" id="boundary" inkscape:connector-curvature="0" />
	<path style="fill:none;stroke:red;stroke-width:1px;stroke-linecap:butt;stroke-linejoin:miter;stroke-opacity:1" d="M 472.273,922.062 503.081,977.516 z" id="boundary" inkscape:connector-curvature="0" />
	<path style="fill:none;stroke:red;stroke-width:1px;stroke-linecap:butt;stroke-linejoin:miter;stroke-opacity:1" d="M 515.404,755.702 527.727,817.317 z" id="boundary" inkscape:connector-curvature="0" />
	<path style="fill:none;stroke:red;stroke-width:1px;stroke-linecap:butt;stroke-linejoin:miter;stroke-opacity:1" d="M 515.404,755.702 577.019,731.056 z" id="boundary" inkscape:connector-curvature="0" />
	<path style="fill:none;stroke:red;stroke-width:1px;stroke-linecap:butt;stroke-linejoin:miter;stroke-opacity:1" d="M 527.727,817.317 546.211,878.932 z" id="boundary" inkscape:connector-curvature="0" />
	<path style="fill:none;stroke:red;stroke-width:1px;stroke-linecap:butt;stroke-linejoin:miter;stroke-opacity:1" d="M 577.019,731.056 613.988,681.764 z" id="boundary" inkscape:connector-curvature="0" />
	<path style="fill:none;stroke:red;stroke-width:1px;stroke-linecap:butt;stroke-linejoin:miter;stroke-opacity:1" d="M 613.988,681.764 650.957,620.149 z" id="boundary" inkscape:connector-curvature="0" />
	<path style="fill:none;stroke:red;stroke-width:1px;stroke-linecap:butt;stroke-linejoin:miter;stroke-opacity:1" d="M 558.534,940.547 503.081,977.516 z" id="boundary" inkscape:connector-curvature="0" />
	<path style="fill:none;stroke:red;stroke-width:1px;stroke-linecap:butt;stroke-linejoin:miter;stroke-opacity:1" d="M 546.211,878.932 558.534,940.547 z" id="boundary" inkscape:connector-curvature="0" />
	<circle cx="4" cy="262.783" r="4" fill="#0" id="circle0"/>
	<circle cx="4" cy="324.398" r="4" fill="#0" id="circle1"/>
	<circle cx="4" cy="386.012" r="4" fill="#0" id="circle2"/>
	<circle cx="4" cy="558.534" r="4" fill="#0" id="circle3"/>
	<circle cx="4" cy="620.149" r="4" fill="#0" id="circle4"/>
	<circle cx="4" cy="681.764" r="4" fill="#0" id="circle5"/>
	<circle cx="16.323" cy="447.627" r="4" fill="#0" id="circle6"/>
	<circle cx="53.2919" cy="724.894" r="4" fill="#0" id="circle7"/>
	<circle cx="65.6149" cy="268.944" r="4" fill="#0" id="circle8"/>
	<circle cx="96.4224" cy="324.398" r="4" fill="#0" id="circle9"/>
	<circle cx="114.907" cy="731.056" r="4" fill="#0" id="circle10"/>
	<circle cx="139.553" cy="262.783" r="4" fill="#0" id="circle11"/>
	<circle cx="151.876" cy="780.348" r="4" fill="#0" id="circle12"/>
	<circle cx="164.199" cy="188.845" r="4" fill="#0" id="circle13"/>
	<circle cx="164.199" cy="940.547" r="4" fill="#0" id="circle14"/>
	<circle cx="188.845" cy="878.932" r="4" fill="#0" id="circle15"/>
	<circle cx="195.006" cy="996" r="4" fill="#0" id="circle16"/>
	<circle cx="213.491" cy="151.876" r="4" fill="#0" id="circle17"/>
	<circle cx="213.491" cy="774.186" r="4" fill="#0" id="circle18"/>
	<circle cx="238.137" cy="946.708" r="4" fill="#0" id="circle19"/>
	<circle cx="275.106" cy="114.907" r="4" fill="#0" id="circle20"/>
	<circle cx="281.267" cy="891.255" r="4" fill="#0" id="circle21"/>
	<circle cx="312.075" cy="53.2919" r="4" fill="#0" id="circle22"/>
	<circle cx="318.236" cy="841.963" r="4" fill="#0" id="circle23"/>
	<circle cx="355.205" cy="780.348" r="4" fill="#0" id="circle24"/>
	<circle cx="361.366" cy="4" r="4" fill="#0" id="circle25"/>
	<circle cx="410.658" cy="40.9689" r="4" fill="#0" id="circle26"/>
	<circle cx="410.658" cy="811.155" r="4" fill="#0" id="circle27"/>
	<circle cx="422.981" cy="102.584" r="4" fill="#0" id="circle28"/>
	<circle cx="429.143" cy="164.199" r="4" fill="#0" id="circle29"/>
	<circle cx="435.304" cy="872.77" r="4" fill="#0" id="circle30"/>
	<circle cx="466.112" cy="213.491" r="4" fill="#0" id="circle31"/>
	<circle cx="472.273" cy="922.062" r="4" fill="#0" id="circle32"/>
	<circle cx="503.081" cy="977.516" r="4" fill="#0" id="circle33"/>
	<circle cx="515.404" cy="755.702" r="4" fill="#0" id="circle34"/>
	<circle cx="527.727" cy="238.137" r="4" fill="#0" id="circle35"/>
	<circle cx="527.727" cy="817.317" r="4" fill="#0" id="circle36"/>
	<circle cx="546.211" cy="878.932" r="4" fill="#0" id="circle37"/>
	<circle cx="558.534" cy="940.547" r="4" fill="#0" id="circle38"/>
	<circle cx="570.857" cy="287.429" r="4" fill="#0" id="circle39"/>
	<circle cx="577.019" cy="731.056" r="4" fill="#0" id="circle40"/>
	<circle cx="613.988" cy="681.764" r="4" fill="#0" id="circle41"/>
	<circle cx="626.311" cy="318.236" r="4" fill="#0" id="circle42"/>
	<circle cx="650.957" cy="620.149" r="4" fill="#0" id="circle43"/>
	<circle cx="663.28" cy="367.528" r="4" fill="#0" id="circle44"/>
	<circle cx="663.28" cy="429.143" r="4" fill="#0" id="circle45"/>
	<circle cx="675.602" cy="490.758" r="4" fill="#0" id="circle46"/>
	<circle cx="675.602" cy="552.373" r="4" fill="#0" id="circle47"/>
	</g>
</svg>