<?xml version="1.0" encoding="UTF-8" standalone="no"?>
<!-- Created with CurveBenchmark -->
<svg
	xmlns:dc="http://purl.org/dc/elements/1.1/"
	xmlns:cc="http://creativecommons.org/ns#"
	xmlns:rdf="http://www.w3.org/1999/02/22-rdf-syntax-ns#"
	xmlns:svg="http://www.w3.org/2000/svg"
	xmlns="http://www.w3.org/2000/svg"
	xmlns:sodipodi="http://sodipodi.sourceforge.net/DTD/sodipodi-0.dtd"
	xmlns:inkscape="http://www.inkscape.org/namespaces/inkscape"
	width="1000"
	height="1000"
	id="svg2"
	version="1.1"
	sodipodi:docname="manifold/crust-apple-4.png.txt">
<defs
	id="defs4" />
<metadata
	id="metadata7">
	<rdf:RDF>
		<cc:Work
			rdf:about="">
			<dc:format>image/svg+xml</dc:format>
			<dc:type
				rdf:resource="http://purl.org/dc/dcmitype/StillImage" />
			<dc:title></dc:title>
		</cc:Work>
	</rdf:RDF>
</metadata>
<g
	inkscape:label="Layer 1"
	inkscape:groupmode="layer"
	id="layer1">
	<path style="fill:none;stroke:red;stroke-width:1px;stroke-linecap:butt;stroke-linejoin:miter;stroke-opacity:1" d="M 183.576,26.2921 177.383,38.6767 z" id="boundary" inkscape:connector-curvature="0" />
	<path style="fill:none;stroke:red;stroke-width:1px;stroke-linecap:butt;stroke-linejoin:miter;stroke-opacity:1" d="M 177.383,38.6767 171.191,51.0612 z" id="boundary" inkscape:connector-curvature="0" />
	<path style="fill:none;stroke:red;stroke-width:1px;stroke-linecap:butt;stroke-linejoin:miter;stroke-opacity:1" d="M 205.868,10.1923 193.483,16.3845 z" id="boundary" inkscape:connector-curvature="0" />
	<path style="fill:none;stroke:red;stroke-width:1px;stroke-linecap:butt;stroke-linejoin:miter;stroke-opacity:1" d="M 183.576,26.2921 193.483,16.3845 z" id="boundary" inkscape:connector-curvature="0" />
	<path style="fill:none;stroke:red;stroke-width:1px;stroke-linecap:butt;stroke-linejoin:miter;stroke-opacity:1" d="M 171.191,63.4457 171.191,51.0612 z" id="boundary" inkscape:connector-curvature="0" />
	<path style="fill:none;stroke:red;stroke-width:1px;stroke-linecap:butt;stroke-linejoin:miter;stroke-opacity:1" d="M 171.191,75.8302 171.191,63.4457 z" id="boundary" inkscape:connector-curvature="0" />
	<path style="fill:none;stroke:red;stroke-width:1px;stroke-linecap:butt;stroke-linejoin:miter;stroke-opacity:1" d="M 171.191,75.8302 171.191,88.2147 z" id="boundary" inkscape:connector-curvature="0" />
	<path style="fill:none;stroke:red;stroke-width:1px;stroke-linecap:butt;stroke-linejoin:miter;stroke-opacity:1" d="M 177.383,111.745 171.191,100.599 z" id="boundary" inkscape:connector-curvature="0" />
	<path style="fill:none;stroke:red;stroke-width:1px;stroke-linecap:butt;stroke-linejoin:miter;stroke-opacity:1" d="M 171.191,100.599 171.191,88.2147 z" id="boundary" inkscape:connector-curvature="0" />
	<path style="fill:none;stroke:red;stroke-width:1px;stroke-linecap:butt;stroke-linejoin:miter;stroke-opacity:1" d="M 229.398,4 218.252,10.1923 z" id="boundary" inkscape:connector-curvature="0" />
	<path style="fill:none;stroke:red;stroke-width:1px;stroke-linecap:butt;stroke-linejoin:miter;stroke-opacity:1" d="M 241.783,4 229.398,4 z" id="boundary" inkscape:connector-curvature="0" />
	<path style="fill:none;stroke:red;stroke-width:1px;stroke-linecap:butt;stroke-linejoin:miter;stroke-opacity:1" d="M 205.868,10.1923 218.252,10.1923 z" id="boundary" inkscape:connector-curvature="0" />
	<path style="fill:none;stroke:red;stroke-width:1px;stroke-linecap:butt;stroke-linejoin:miter;stroke-opacity:1" d="M 241.783,4 254.167,4 z" id="boundary" inkscape:connector-curvature="0" />
	<path style="fill:none;stroke:red;stroke-width:1px;stroke-linecap:butt;stroke-linejoin:miter;stroke-opacity:1" d="M 266.552,4 254.167,4 z" id="boundary" inkscape:connector-curvature="0" />
	<path style="fill:none;stroke:red;stroke-width:1px;stroke-linecap:butt;stroke-linejoin:miter;stroke-opacity:1" d="M 238.067,104.315 225.683,108.03 z" id="boundary" inkscape:connector-curvature="0" />
	<path style="fill:none;stroke:red;stroke-width:1px;stroke-linecap:butt;stroke-linejoin:miter;stroke-opacity:1" d="M 250.452,104.315 238.067,104.315 z" id="boundary" inkscape:connector-curvature="0" />
	<path style="fill:none;stroke:red;stroke-width:1px;stroke-linecap:butt;stroke-linejoin:miter;stroke-opacity:1" d="M 262.836,104.315 250.452,104.315 z" id="boundary" inkscape:connector-curvature="0" />
	<path style="fill:none;stroke:red;stroke-width:1px;stroke-linecap:butt;stroke-linejoin:miter;stroke-opacity:1" d="M 275.221,104.315 262.836,104.315 z" id="boundary" inkscape:connector-curvature="0" />
	<path style="fill:none;stroke:red;stroke-width:1px;stroke-linecap:butt;stroke-linejoin:miter;stroke-opacity:1" d="M 225.683,108.03 213.298,110.507 z" id="boundary" inkscape:connector-curvature="0" />
	<path style="fill:none;stroke:red;stroke-width:1px;stroke-linecap:butt;stroke-linejoin:miter;stroke-opacity:1" d="M 189.768,116.699 177.383,111.745 z" id="boundary" inkscape:connector-curvature="0" />
	<path style="fill:none;stroke:red;stroke-width:1px;stroke-linecap:butt;stroke-linejoin:miter;stroke-opacity:1" d="M 197.199,214.537 184.814,217.014 z" id="boundary" inkscape:connector-curvature="0" />
	<path style="fill:none;stroke:red;stroke-width:1px;stroke-linecap:butt;stroke-linejoin:miter;stroke-opacity:1" d="M 95.6454,276.459 85.7378,285.129 z" id="boundary" inkscape:connector-curvature="0" />
	<path style="fill:none;stroke:red;stroke-width:1px;stroke-linecap:butt;stroke-linejoin:miter;stroke-opacity:1" d="M 104.315,266.552 95.6454,276.459 z" id="boundary" inkscape:connector-curvature="0" />
	<path style="fill:none;stroke:red;stroke-width:1px;stroke-linecap:butt;stroke-linejoin:miter;stroke-opacity:1" d="M 85.7378,285.129 75.8302,295.036 z" id="boundary" inkscape:connector-curvature="0" />
	<path style="fill:none;stroke:red;stroke-width:1px;stroke-linecap:butt;stroke-linejoin:miter;stroke-opacity:1" d="M 162.522,233.114 172.429,223.206 z" id="boundary" inkscape:connector-curvature="0" />
	<path style="fill:none;stroke:red;stroke-width:1px;stroke-linecap:butt;stroke-linejoin:miter;stroke-opacity:1" d="M 162.522,233.114 151.376,239.306 z" id="boundary" inkscape:connector-curvature="0" />
	<path style="fill:none;stroke:red;stroke-width:1px;stroke-linecap:butt;stroke-linejoin:miter;stroke-opacity:1" d="M 172.429,223.206 184.814,217.014 z" id="boundary" inkscape:connector-curvature="0" />
	<path style="fill:none;stroke:red;stroke-width:1px;stroke-linecap:butt;stroke-linejoin:miter;stroke-opacity:1" d="M 104.315,266.552 116.699,260.36 z" id="boundary" inkscape:connector-curvature="0" />
	<path style="fill:none;stroke:red;stroke-width:1px;stroke-linecap:butt;stroke-linejoin:miter;stroke-opacity:1" d="M 141.468,247.975 151.376,239.306 z" id="boundary" inkscape:connector-curvature="0" />
	<path style="fill:none;stroke:red;stroke-width:1px;stroke-linecap:butt;stroke-linejoin:miter;stroke-opacity:1" d="M 141.468,247.975 129.084,254.167 z" id="boundary" inkscape:connector-curvature="0" />
	<path style="fill:none;stroke:red;stroke-width:1px;stroke-linecap:butt;stroke-linejoin:miter;stroke-opacity:1" d="M 129.084,254.167 116.699,260.36 z" id="boundary" inkscape:connector-curvature="0" />
	<path style="fill:none;stroke:red;stroke-width:1px;stroke-linecap:butt;stroke-linejoin:miter;stroke-opacity:1" d="M 202.152,116.699 213.298,110.507 z" id="boundary" inkscape:connector-curvature="0" />
	<path style="fill:none;stroke:red;stroke-width:1px;stroke-linecap:butt;stroke-linejoin:miter;stroke-opacity:1" d="M 202.152,116.699 189.768,116.699 z" id="boundary" inkscape:connector-curvature="0" />
	<path style="fill:none;stroke:red;stroke-width:1px;stroke-linecap:butt;stroke-linejoin:miter;stroke-opacity:1" d="M 220.729,208.345 208.345,208.345 z" id="boundary" inkscape:connector-curvature="0" />
	<path style="fill:none;stroke:red;stroke-width:1px;stroke-linecap:butt;stroke-linejoin:miter;stroke-opacity:1" d="M 208.345,208.345 197.199,214.537 z" id="boundary" inkscape:connector-curvature="0" />
	<path style="fill:none;stroke:red;stroke-width:1px;stroke-linecap:butt;stroke-linejoin:miter;stroke-opacity:1" d="M 220.729,208.345 233.114,208.345 z" id="boundary" inkscape:connector-curvature="0" />
	<path style="fill:none;stroke:red;stroke-width:1px;stroke-linecap:butt;stroke-linejoin:miter;stroke-opacity:1" d="M 233.114,208.345 245.498,208.345 z" id="boundary" inkscape:connector-curvature="0" />
	<path style="fill:none;stroke:red;stroke-width:1px;stroke-linecap:butt;stroke-linejoin:miter;stroke-opacity:1" d="M 257.883,208.345 245.498,208.345 z" id="boundary" inkscape:connector-curvature="0" />
	<path style="fill:none;stroke:red;stroke-width:1px;stroke-linecap:butt;stroke-linejoin:miter;stroke-opacity:1" d="M 257.883,208.345 270.267,208.345 z" id="boundary" inkscape:connector-curvature="0" />
	<path style="fill:none;stroke:red;stroke-width:1px;stroke-linecap:butt;stroke-linejoin:miter;stroke-opacity:1" d="M 275.221,104.315 286.367,110.507 z" id="boundary" inkscape:connector-curvature="0" />
	<path style="fill:none;stroke:red;stroke-width:1px;stroke-linecap:butt;stroke-linejoin:miter;stroke-opacity:1" d="M 278.936,4 291.321,4 z" id="boundary" inkscape:connector-curvature="0" />
	<path style="fill:none;stroke:red;stroke-width:1px;stroke-linecap:butt;stroke-linejoin:miter;stroke-opacity:1" d="M 302.467,10.1923 291.321,4 z" id="boundary" inkscape:connector-curvature="0" />
	<path style="fill:none;stroke:red;stroke-width:1px;stroke-linecap:butt;stroke-linejoin:miter;stroke-opacity:1" d="M 325.998,16.3845 314.851,10.1923 z" id="boundary" inkscape:connector-curvature="0" />
	<path style="fill:none;stroke:red;stroke-width:1px;stroke-linecap:butt;stroke-linejoin:miter;stroke-opacity:1" d="M 302.467,10.1923 314.851,10.1923 z" id="boundary" inkscape:connector-curvature="0" />
	<path style="fill:none;stroke:red;stroke-width:1px;stroke-linecap:butt;stroke-linejoin:miter;stroke-opacity:1" d="M 325.998,16.3845 338.382,18.8614 z" id="boundary" inkscape:connector-curvature="0" />
	<path style="fill:none;stroke:red;stroke-width:1px;stroke-linecap:butt;stroke-linejoin:miter;stroke-opacity:1" d="M 338.382,18.8614 345.813,28.769 z" id="boundary" inkscape:connector-curvature="0" />
	<path style="fill:none;stroke:red;stroke-width:1px;stroke-linecap:butt;stroke-linejoin:miter;stroke-opacity:1" d="M 278.936,4 266.552,4 z" id="boundary" inkscape:connector-curvature="0" />
	<path style="fill:none;stroke:red;stroke-width:1px;stroke-linecap:butt;stroke-linejoin:miter;stroke-opacity:1" d="M 298.752,110.507 286.367,110.507 z" id="boundary" inkscape:connector-curvature="0" />
	<path style="fill:none;stroke:red;stroke-width:1px;stroke-linecap:butt;stroke-linejoin:miter;stroke-opacity:1" d="M 298.752,110.507 309.898,116.699 z" id="boundary" inkscape:connector-curvature="0" />
	<path style="fill:none;stroke:red;stroke-width:1px;stroke-linecap:butt;stroke-linejoin:miter;stroke-opacity:1" d="M 309.898,116.699 321.044,122.891 z" id="boundary" inkscape:connector-curvature="0" />
	<path style="fill:none;stroke:red;stroke-width:1px;stroke-linecap:butt;stroke-linejoin:miter;stroke-opacity:1" d="M 332.19,129.084 321.044,122.891 z" id="boundary" inkscape:connector-curvature="0" />
	<path style="fill:none;stroke:red;stroke-width:1px;stroke-linecap:butt;stroke-linejoin:miter;stroke-opacity:1" d="M 358.197,32.4844 345.813,28.769 z" id="boundary" inkscape:connector-curvature="0" />
	<path style="fill:none;stroke:red;stroke-width:1px;stroke-linecap:butt;stroke-linejoin:miter;stroke-opacity:1" d="M 366.866,42.392 358.197,32.4844 z" id="boundary" inkscape:connector-curvature="0" />
	<path style="fill:none;stroke:red;stroke-width:1px;stroke-linecap:butt;stroke-linejoin:miter;stroke-opacity:1" d="M 376.774,51.0612 366.866,42.392 z" id="boundary" inkscape:connector-curvature="0" />
	<path style="fill:none;stroke:red;stroke-width:1px;stroke-linecap:butt;stroke-linejoin:miter;stroke-opacity:1" d="M 395.351,69.638 385.443,60.9688 z" id="boundary" inkscape:connector-curvature="0" />
	<path style="fill:none;stroke:red;stroke-width:1px;stroke-linecap:butt;stroke-linejoin:miter;stroke-opacity:1" d="M 376.774,51.0612 385.443,60.9688 z" id="boundary" inkscape:connector-curvature="0" />
	<path style="fill:none;stroke:red;stroke-width:1px;stroke-linecap:butt;stroke-linejoin:miter;stroke-opacity:1" d="M 395.351,69.638 400.305,82.0225 z" id="boundary" inkscape:connector-curvature="0" />
	<path style="fill:none;stroke:red;stroke-width:1px;stroke-linecap:butt;stroke-linejoin:miter;stroke-opacity:1" d="M 400.305,82.0225 401.543,94.407 z" id="boundary" inkscape:connector-curvature="0" />
	<path style="fill:none;stroke:red;stroke-width:1px;stroke-linecap:butt;stroke-linejoin:miter;stroke-opacity:1" d="M 343.336,135.276 332.19,129.084 z" id="boundary" inkscape:connector-curvature="0" />
	<path style="fill:none;stroke:red;stroke-width:1px;stroke-linecap:butt;stroke-linejoin:miter;stroke-opacity:1" d="M 352.005,145.184 343.336,135.276 z" id="boundary" inkscape:connector-curvature="0" />
	<path style="fill:none;stroke:red;stroke-width:1px;stroke-linecap:butt;stroke-linejoin:miter;stroke-opacity:1" d="M 406.497,119.176 401.543,106.792 z" id="boundary" inkscape:connector-curvature="0" />
	<path style="fill:none;stroke:red;stroke-width:1px;stroke-linecap:butt;stroke-linejoin:miter;stroke-opacity:1" d="M 401.543,106.792 401.543,94.407 z" id="boundary" inkscape:connector-curvature="0" />
	<path style="fill:none;stroke:red;stroke-width:1px;stroke-linecap:butt;stroke-linejoin:miter;stroke-opacity:1" d="M 407.735,131.561 407.735,143.945 z" id="boundary" inkscape:connector-curvature="0" />
	<path style="fill:none;stroke:red;stroke-width:1px;stroke-linecap:butt;stroke-linejoin:miter;stroke-opacity:1" d="M 406.497,119.176 407.735,131.561 z" id="boundary" inkscape:connector-curvature="0" />
	<path style="fill:none;stroke:red;stroke-width:1px;stroke-linecap:butt;stroke-linejoin:miter;stroke-opacity:1" d="M 295.036,208.345 282.652,208.345 z" id="boundary" inkscape:connector-curvature="0" />
	<path style="fill:none;stroke:red;stroke-width:1px;stroke-linecap:butt;stroke-linejoin:miter;stroke-opacity:1" d="M 306.182,214.537 295.036,208.345 z" id="boundary" inkscape:connector-curvature="0" />
	<path style="fill:none;stroke:red;stroke-width:1px;stroke-linecap:butt;stroke-linejoin:miter;stroke-opacity:1" d="M 318.567,214.537 306.182,214.537 z" id="boundary" inkscape:connector-curvature="0" />
	<path style="fill:none;stroke:red;stroke-width:1px;stroke-linecap:butt;stroke-linejoin:miter;stroke-opacity:1" d="M 270.267,208.345 282.652,208.345 z" id="boundary" inkscape:connector-curvature="0" />
	<path style="fill:none;stroke:red;stroke-width:1px;stroke-linecap:butt;stroke-linejoin:miter;stroke-opacity:1" d="M 330.951,215.775 318.567,214.537 z" id="boundary" inkscape:connector-curvature="0" />
	<path style="fill:none;stroke:red;stroke-width:1px;stroke-linecap:butt;stroke-linejoin:miter;stroke-opacity:1" d="M 330.951,215.775 343.336,220.729 z" id="boundary" inkscape:connector-curvature="0" />
	<path style="fill:none;stroke:red;stroke-width:1px;stroke-linecap:butt;stroke-linejoin:miter;stroke-opacity:1" d="M 343.336,220.729 354.482,226.921 z" id="boundary" inkscape:connector-curvature="0" />
	<path style="fill:none;stroke:red;stroke-width:1px;stroke-linecap:butt;stroke-linejoin:miter;stroke-opacity:1" d="M 352.005,145.184 361.913,153.853 z" id="boundary" inkscape:connector-curvature="0" />
	<path style="fill:none;stroke:red;stroke-width:1px;stroke-linecap:butt;stroke-linejoin:miter;stroke-opacity:1" d="M 369.343,163.76 361.913,153.853 z" id="boundary" inkscape:connector-curvature="0" />
	<path style="fill:none;stroke:red;stroke-width:1px;stroke-linecap:butt;stroke-linejoin:miter;stroke-opacity:1" d="M 375.536,174.906 369.343,163.76 z" id="boundary" inkscape:connector-curvature="0" />
	<path style="fill:none;stroke:red;stroke-width:1px;stroke-linecap:butt;stroke-linejoin:miter;stroke-opacity:1" d="M 375.536,174.906 381.728,186.052 z" id="boundary" inkscape:connector-curvature="0" />
	<path style="fill:none;stroke:red;stroke-width:1px;stroke-linecap:butt;stroke-linejoin:miter;stroke-opacity:1" d="M 407.735,143.945 407.735,156.33 z" id="boundary" inkscape:connector-curvature="0" />
	<path style="fill:none;stroke:red;stroke-width:1px;stroke-linecap:butt;stroke-linejoin:miter;stroke-opacity:1" d="M 387.92,197.199 381.728,186.052 z" id="boundary" inkscape:connector-curvature="0" />
	<path style="fill:none;stroke:red;stroke-width:1px;stroke-linecap:butt;stroke-linejoin:miter;stroke-opacity:1" d="M 387.92,209.583 387.92,197.199 z" id="boundary" inkscape:connector-curvature="0" />
	<path style="fill:none;stroke:red;stroke-width:1px;stroke-linecap:butt;stroke-linejoin:miter;stroke-opacity:1" d="M 366.866,226.921 354.482,226.921 z" id="boundary" inkscape:connector-curvature="0" />
	<path style="fill:none;stroke:red;stroke-width:1px;stroke-linecap:butt;stroke-linejoin:miter;stroke-opacity:1" d="M 379.251,226.921 366.866,226.921 z" id="boundary" inkscape:connector-curvature="0" />
	<path style="fill:none;stroke:red;stroke-width:1px;stroke-linecap:butt;stroke-linejoin:miter;stroke-opacity:1" d="M 387.92,209.583 394.112,220.729 z" id="boundary" inkscape:connector-curvature="0" />
	<path style="fill:none;stroke:red;stroke-width:1px;stroke-linecap:butt;stroke-linejoin:miter;stroke-opacity:1" d="M 379.251,226.921 390.397,233.114 z" id="boundary" inkscape:connector-curvature="0" />
	<path style="fill:none;stroke:red;stroke-width:1px;stroke-linecap:butt;stroke-linejoin:miter;stroke-opacity:1" d="M 394.112,220.729 390.397,233.114 z" id="boundary" inkscape:connector-curvature="0" />
	<path style="fill:none;stroke:red;stroke-width:1px;stroke-linecap:butt;stroke-linejoin:miter;stroke-opacity:1" d="M 16.3845,441.174 10.1923,459.75 z" id="boundary" inkscape:connector-curvature="0" />
	<path style="fill:none;stroke:red;stroke-width:1px;stroke-linecap:butt;stroke-linejoin:miter;stroke-opacity:1" d="M 4,484.519 4,496.904 z" id="boundary" inkscape:connector-curvature="0" />
	<path style="fill:none;stroke:red;stroke-width:1px;stroke-linecap:butt;stroke-linejoin:miter;stroke-opacity:1" d="M 10.1923,472.135 4,484.519 z" id="boundary" inkscape:connector-curvature="0" />
	<path style="fill:none;stroke:red;stroke-width:1px;stroke-linecap:butt;stroke-linejoin:miter;stroke-opacity:1" d="M 22.5768,410.212 16.3845,428.789 z" id="boundary" inkscape:connector-curvature="0" />
	<path style="fill:none;stroke:red;stroke-width:1px;stroke-linecap:butt;stroke-linejoin:miter;stroke-opacity:1" d="M 4,496.904 4,509.288 z" id="boundary" inkscape:connector-curvature="0" />
	<path style="fill:none;stroke:red;stroke-width:1px;stroke-linecap:butt;stroke-linejoin:miter;stroke-opacity:1" d="M 10.1923,472.135 10.1923,459.75 z" id="boundary" inkscape:connector-curvature="0" />
	<path style="fill:none;stroke:red;stroke-width:1px;stroke-linecap:butt;stroke-linejoin:miter;stroke-opacity:1" d="M 4,546.442 4,534.057 z" id="boundary" inkscape:connector-curvature="0" />
	<path style="fill:none;stroke:red;stroke-width:1px;stroke-linecap:butt;stroke-linejoin:miter;stroke-opacity:1" d="M 4,509.288 4,521.673 z" id="boundary" inkscape:connector-curvature="0" />
	<path style="fill:none;stroke:red;stroke-width:1px;stroke-linecap:butt;stroke-linejoin:miter;stroke-opacity:1" d="M 4,534.057 4,521.673 z" id="boundary" inkscape:connector-curvature="0" />
	<path style="fill:none;stroke:red;stroke-width:1px;stroke-linecap:butt;stroke-linejoin:miter;stroke-opacity:1" d="M 4,558.826 4,546.442 z" id="boundary" inkscape:connector-curvature="0" />
	<path style="fill:none;stroke:red;stroke-width:1px;stroke-linecap:butt;stroke-linejoin:miter;stroke-opacity:1" d="M 4,583.596 4,571.211 z" id="boundary" inkscape:connector-curvature="0" />
	<path style="fill:none;stroke:red;stroke-width:1px;stroke-linecap:butt;stroke-linejoin:miter;stroke-opacity:1" d="M 4,558.826 4,571.211 z" id="boundary" inkscape:connector-curvature="0" />
	<path style="fill:none;stroke:red;stroke-width:1px;stroke-linecap:butt;stroke-linejoin:miter;stroke-opacity:1" d="M 4,583.596 4,595.98 z" id="boundary" inkscape:connector-curvature="0" />
	<path style="fill:none;stroke:red;stroke-width:1px;stroke-linecap:butt;stroke-linejoin:miter;stroke-opacity:1" d="M 4,595.98 4,608.365 z" id="boundary" inkscape:connector-curvature="0" />
	<path style="fill:none;stroke:red;stroke-width:1px;stroke-linecap:butt;stroke-linejoin:miter;stroke-opacity:1" d="M 4,620.749 4,608.365 z" id="boundary" inkscape:connector-curvature="0" />
	<path style="fill:none;stroke:red;stroke-width:1px;stroke-linecap:butt;stroke-linejoin:miter;stroke-opacity:1" d="M 4,633.134 4,620.749 z" id="boundary" inkscape:connector-curvature="0" />
	<path style="fill:none;stroke:red;stroke-width:1px;stroke-linecap:butt;stroke-linejoin:miter;stroke-opacity:1" d="M 4,633.134 4,645.518 z" id="boundary" inkscape:connector-curvature="0" />
	<path style="fill:none;stroke:red;stroke-width:1px;stroke-linecap:butt;stroke-linejoin:miter;stroke-opacity:1" d="M 10.1923,656.664 4,645.518 z" id="boundary" inkscape:connector-curvature="0" />
	<path style="fill:none;stroke:red;stroke-width:1px;stroke-linecap:butt;stroke-linejoin:miter;stroke-opacity:1" d="M 10.1923,656.664 10.1923,669.049 z" id="boundary" inkscape:connector-curvature="0" />
	<path style="fill:none;stroke:red;stroke-width:1px;stroke-linecap:butt;stroke-linejoin:miter;stroke-opacity:1" d="M 10.1923,669.049 16.3845,680.195 z" id="boundary" inkscape:connector-curvature="0" />
	<path style="fill:none;stroke:red;stroke-width:1px;stroke-linecap:butt;stroke-linejoin:miter;stroke-opacity:1" d="M 16.3845,428.789 16.3845,441.174 z" id="boundary" inkscape:connector-curvature="0" />
	<path style="fill:none;stroke:red;stroke-width:1px;stroke-linecap:butt;stroke-linejoin:miter;stroke-opacity:1" d="M 41.1536,366.866 47.3458,348.29 z" id="boundary" inkscape:connector-curvature="0" />
	<path style="fill:none;stroke:red;stroke-width:1px;stroke-linecap:butt;stroke-linejoin:miter;stroke-opacity:1" d="M 41.1536,366.866 34.9613,379.251 z" id="boundary" inkscape:connector-curvature="0" />
	<path style="fill:none;stroke:red;stroke-width:1px;stroke-linecap:butt;stroke-linejoin:miter;stroke-opacity:1" d="M 47.3458,348.29 53.5381,329.713 z" id="boundary" inkscape:connector-curvature="0" />
	<path style="fill:none;stroke:red;stroke-width:1px;stroke-linecap:butt;stroke-linejoin:miter;stroke-opacity:1" d="M 22.5768,410.212 28.769,391.635 z" id="boundary" inkscape:connector-curvature="0" />
	<path style="fill:none;stroke:red;stroke-width:1px;stroke-linecap:butt;stroke-linejoin:miter;stroke-opacity:1" d="M 34.9613,379.251 28.769,391.635 z" id="boundary" inkscape:connector-curvature="0" />
	<path style="fill:none;stroke:red;stroke-width:1px;stroke-linecap:butt;stroke-linejoin:miter;stroke-opacity:1" d="M 65.9226,304.944 75.8302,295.036 z" id="boundary" inkscape:connector-curvature="0" />
	<path style="fill:none;stroke:red;stroke-width:1px;stroke-linecap:butt;stroke-linejoin:miter;stroke-opacity:1" d="M 59.7303,317.328 65.9226,304.944 z" id="boundary" inkscape:connector-curvature="0" />
	<path style="fill:none;stroke:red;stroke-width:1px;stroke-linecap:butt;stroke-linejoin:miter;stroke-opacity:1" d="M 53.5381,329.713 59.7303,317.328 z" id="boundary" inkscape:connector-curvature="0" />
	<path style="fill:none;stroke:red;stroke-width:1px;stroke-linecap:butt;stroke-linejoin:miter;stroke-opacity:1" d="M 16.3845,680.195 16.3845,692.579 z" id="boundary" inkscape:connector-curvature="0" />
	<path style="fill:none;stroke:red;stroke-width:1px;stroke-linecap:butt;stroke-linejoin:miter;stroke-opacity:1" d="M 20.0999,704.964 16.3845,692.579 z" id="boundary" inkscape:connector-curvature="0" />
	<path style="fill:none;stroke:red;stroke-width:1px;stroke-linecap:butt;stroke-linejoin:miter;stroke-opacity:1" d="M 22.5768,717.348 20.0999,704.964 z" id="boundary" inkscape:connector-curvature="0" />
	<path style="fill:none;stroke:red;stroke-width:1px;stroke-linecap:butt;stroke-linejoin:miter;stroke-opacity:1" d="M 22.5768,717.348 28.769,728.494 z" id="boundary" inkscape:connector-curvature="0" />
	<path style="fill:none;stroke:red;stroke-width:1px;stroke-linecap:butt;stroke-linejoin:miter;stroke-opacity:1" d="M 31.2459,740.879 28.769,728.494 z" id="boundary" inkscape:connector-curvature="0" />
	<path style="fill:none;stroke:red;stroke-width:1px;stroke-linecap:butt;stroke-linejoin:miter;stroke-opacity:1" d="M 31.2459,740.879 34.9613,753.263 z" id="boundary" inkscape:connector-curvature="0" />
	<path style="fill:none;stroke:red;stroke-width:1px;stroke-linecap:butt;stroke-linejoin:miter;stroke-opacity:1" d="M 41.1536,764.409 42.392,776.794 z" id="boundary" inkscape:connector-curvature="0" />
	<path style="fill:none;stroke:red;stroke-width:1px;stroke-linecap:butt;stroke-linejoin:miter;stroke-opacity:1" d="M 48.5843,787.94 42.392,776.794 z" id="boundary" inkscape:connector-curvature="0" />
	<path style="fill:none;stroke:red;stroke-width:1px;stroke-linecap:butt;stroke-linejoin:miter;stroke-opacity:1" d="M 41.1536,764.409 34.9613,753.263 z" id="boundary" inkscape:connector-curvature="0" />
	<path style="fill:none;stroke:red;stroke-width:1px;stroke-linecap:butt;stroke-linejoin:miter;stroke-opacity:1" d="M 48.5843,787.94 57.2534,797.848 z" id="boundary" inkscape:connector-curvature="0" />
	<path style="fill:none;stroke:red;stroke-width:1px;stroke-linecap:butt;stroke-linejoin:miter;stroke-opacity:1" d="M 63.4457,808.994 57.2534,797.848 z" id="boundary" inkscape:connector-curvature="0" />
	<path style="fill:none;stroke:red;stroke-width:1px;stroke-linecap:butt;stroke-linejoin:miter;stroke-opacity:1" d="M 63.4457,808.994 68.3995,821.378 z" id="boundary" inkscape:connector-curvature="0" />
	<path style="fill:none;stroke:red;stroke-width:1px;stroke-linecap:butt;stroke-linejoin:miter;stroke-opacity:1" d="M 68.3995,821.378 78.3071,828.809 z" id="boundary" inkscape:connector-curvature="0" />
	<path style="fill:none;stroke:red;stroke-width:1px;stroke-linecap:butt;stroke-linejoin:miter;stroke-opacity:1" d="M 82.0225,841.194 78.3071,828.809 z" id="boundary" inkscape:connector-curvature="0" />
	<path style="fill:none;stroke:red;stroke-width:1px;stroke-linecap:butt;stroke-linejoin:miter;stroke-opacity:1" d="M 88.2147,852.34 82.0225,841.194 z" id="boundary" inkscape:connector-curvature="0" />
	<path style="fill:none;stroke:red;stroke-width:1px;stroke-linecap:butt;stroke-linejoin:miter;stroke-opacity:1" d="M 88.2147,852.34 96.8839,862.247 z" id="boundary" inkscape:connector-curvature="0" />
	<path style="fill:none;stroke:red;stroke-width:1px;stroke-linecap:butt;stroke-linejoin:miter;stroke-opacity:1" d="M 103.076,873.393 96.8839,862.247 z" id="boundary" inkscape:connector-curvature="0" />
	<path style="fill:none;stroke:red;stroke-width:1px;stroke-linecap:butt;stroke-linejoin:miter;stroke-opacity:1" d="M 121.653,890.732 111.745,883.301 z" id="boundary" inkscape:connector-curvature="0" />
	<path style="fill:none;stroke:red;stroke-width:1px;stroke-linecap:butt;stroke-linejoin:miter;stroke-opacity:1" d="M 111.745,883.301 103.076,873.393 z" id="boundary" inkscape:connector-curvature="0" />
	<path style="fill:none;stroke:red;stroke-width:1px;stroke-linecap:butt;stroke-linejoin:miter;stroke-opacity:1" d="M 121.653,890.732 129.084,900.639 z" id="boundary" inkscape:connector-curvature="0" />
	<path style="fill:none;stroke:red;stroke-width:1px;stroke-linecap:butt;stroke-linejoin:miter;stroke-opacity:1" d="M 129.084,900.639 138.991,909.308 z" id="boundary" inkscape:connector-curvature="0" />
	<path style="fill:none;stroke:red;stroke-width:1px;stroke-linecap:butt;stroke-linejoin:miter;stroke-opacity:1" d="M 147.66,919.216 138.991,909.308 z" id="boundary" inkscape:connector-curvature="0" />
	<path style="fill:none;stroke:red;stroke-width:1px;stroke-linecap:butt;stroke-linejoin:miter;stroke-opacity:1" d="M 160.045,924.17 147.66,919.216 z" id="boundary" inkscape:connector-curvature="0" />
	<path style="fill:none;stroke:red;stroke-width:1px;stroke-linecap:butt;stroke-linejoin:miter;stroke-opacity:1" d="M 160.045,924.17 168.714,934.077 z" id="boundary" inkscape:connector-curvature="0" />
	<path style="fill:none;stroke:red;stroke-width:1px;stroke-linecap:butt;stroke-linejoin:miter;stroke-opacity:1" d="M 168.714,934.077 181.099,939.031 z" id="boundary" inkscape:connector-curvature="0" />
	<path style="fill:none;stroke:red;stroke-width:1px;stroke-linecap:butt;stroke-linejoin:miter;stroke-opacity:1" d="M 189.768,948.939 181.099,939.031 z" id="boundary" inkscape:connector-curvature="0" />
	<path style="fill:none;stroke:red;stroke-width:1px;stroke-linecap:butt;stroke-linejoin:miter;stroke-opacity:1" d="M 202.152,952.654 189.768,948.939 z" id="boundary" inkscape:connector-curvature="0" />
	<path style="fill:none;stroke:red;stroke-width:1px;stroke-linecap:butt;stroke-linejoin:miter;stroke-opacity:1" d="M 213.298,958.846 202.152,952.654 z" id="boundary" inkscape:connector-curvature="0" />
	<path style="fill:none;stroke:red;stroke-width:1px;stroke-linecap:butt;stroke-linejoin:miter;stroke-opacity:1" d="M 297.513,971.231 285.129,971.231 z" id="boundary" inkscape:connector-curvature="0" />
	<path style="fill:none;stroke:red;stroke-width:1px;stroke-linecap:butt;stroke-linejoin:miter;stroke-opacity:1" d="M 213.298,958.846 225.683,958.846 z" id="boundary" inkscape:connector-curvature="0" />
	<path style="fill:none;stroke:red;stroke-width:1px;stroke-linecap:butt;stroke-linejoin:miter;stroke-opacity:1" d="M 236.829,965.039 225.683,958.846 z" id="boundary" inkscape:connector-curvature="0" />
	<path style="fill:none;stroke:red;stroke-width:1px;stroke-linecap:butt;stroke-linejoin:miter;stroke-opacity:1" d="M 260.36,971.231 249.213,965.039 z" id="boundary" inkscape:connector-curvature="0" />
	<path style="fill:none;stroke:red;stroke-width:1px;stroke-linecap:butt;stroke-linejoin:miter;stroke-opacity:1" d="M 272.744,971.231 260.36,971.231 z" id="boundary" inkscape:connector-curvature="0" />
	<path style="fill:none;stroke:red;stroke-width:1px;stroke-linecap:butt;stroke-linejoin:miter;stroke-opacity:1" d="M 272.744,971.231 285.129,971.231 z" id="boundary" inkscape:connector-curvature="0" />
	<path style="fill:none;stroke:red;stroke-width:1px;stroke-linecap:butt;stroke-linejoin:miter;stroke-opacity:1" d="M 249.213,965.039 236.829,965.039 z" id="boundary" inkscape:connector-curvature="0" />
	<path style="fill:none;stroke:red;stroke-width:1px;stroke-linecap:butt;stroke-linejoin:miter;stroke-opacity:1" d="M 309.898,971.231 297.513,971.231 z" id="boundary" inkscape:connector-curvature="0" />
	<path style="fill:none;stroke:red;stroke-width:1px;stroke-linecap:butt;stroke-linejoin:miter;stroke-opacity:1" d="M 322.282,971.231 309.898,971.231 z" id="boundary" inkscape:connector-curvature="0" />
	<path style="fill:none;stroke:red;stroke-width:1px;stroke-linecap:butt;stroke-linejoin:miter;stroke-opacity:1" d="M 322.282,971.231 334.667,971.231 z" id="boundary" inkscape:connector-curvature="0" />
	<path style="fill:none;stroke:red;stroke-width:1px;stroke-linecap:butt;stroke-linejoin:miter;stroke-opacity:1" d="M 347.051,971.231 334.667,971.231 z" id="boundary" inkscape:connector-curvature="0" />
	<path style="fill:none;stroke:red;stroke-width:1px;stroke-linecap:butt;stroke-linejoin:miter;stroke-opacity:1" d="M 359.436,971.231 347.051,971.231 z" id="boundary" inkscape:connector-curvature="0" />
	<path style="fill:none;stroke:red;stroke-width:1px;stroke-linecap:butt;stroke-linejoin:miter;stroke-opacity:1" d="M 359.436,971.231 371.82,971.231 z" id="boundary" inkscape:connector-curvature="0" />
	<path style="fill:none;stroke:red;stroke-width:1px;stroke-linecap:butt;stroke-linejoin:miter;stroke-opacity:1" d="M 396.589,971.231 384.205,971.231 z" id="boundary" inkscape:connector-curvature="0" />
	<path style="fill:none;stroke:red;stroke-width:1px;stroke-linecap:butt;stroke-linejoin:miter;stroke-opacity:1" d="M 384.205,971.231 371.82,971.231 z" id="boundary" inkscape:connector-curvature="0" />
	<path style="fill:none;stroke:red;stroke-width:1px;stroke-linecap:butt;stroke-linejoin:miter;stroke-opacity:1" d="M 408.974,971.231 396.589,971.231 z" id="boundary" inkscape:connector-curvature="0" />
	<path style="fill:none;stroke:red;stroke-width:1px;stroke-linecap:butt;stroke-linejoin:miter;stroke-opacity:1" d="M 420.12,965.039 408.974,971.231 z" id="boundary" inkscape:connector-curvature="0" />
	<path style="fill:none;stroke:red;stroke-width:1px;stroke-linecap:butt;stroke-linejoin:miter;stroke-opacity:1" d="M 469.658,80.784 460.989,90.6916 z" id="boundary" inkscape:connector-curvature="0" />
	<path style="fill:none;stroke:red;stroke-width:1px;stroke-linecap:butt;stroke-linejoin:miter;stroke-opacity:1" d="M 441.174,109.268 451.081,99.3608 z" id="boundary" inkscape:connector-curvature="0" />
	<path style="fill:none;stroke:red;stroke-width:1px;stroke-linecap:butt;stroke-linejoin:miter;stroke-opacity:1" d="M 434.981,121.653 425.074,131.561 z" id="boundary" inkscape:connector-curvature="0" />
	<path style="fill:none;stroke:red;stroke-width:1px;stroke-linecap:butt;stroke-linejoin:miter;stroke-opacity:1" d="M 434.981,121.653 441.174,109.268 z" id="boundary" inkscape:connector-curvature="0" />
	<path style="fill:none;stroke:red;stroke-width:1px;stroke-linecap:butt;stroke-linejoin:miter;stroke-opacity:1" d="M 451.081,99.3608 460.989,90.6916 z" id="boundary" inkscape:connector-curvature="0" />
	<path style="fill:none;stroke:red;stroke-width:1px;stroke-linecap:butt;stroke-linejoin:miter;stroke-opacity:1" d="M 469.658,80.784 479.566,72.1149 z" id="boundary" inkscape:connector-curvature="0" />
	<path style="fill:none;stroke:red;stroke-width:1px;stroke-linecap:butt;stroke-linejoin:miter;stroke-opacity:1" d="M 490.712,65.9226 479.566,72.1149 z" id="boundary" inkscape:connector-curvature="0" />
	<path style="fill:none;stroke:red;stroke-width:1px;stroke-linecap:butt;stroke-linejoin:miter;stroke-opacity:1" d="M 525.388,53.5381 514.242,59.7303 z" id="boundary" inkscape:connector-curvature="0" />
	<path style="fill:none;stroke:red;stroke-width:1px;stroke-linecap:butt;stroke-linejoin:miter;stroke-opacity:1" d="M 514.242,59.7303 503.096,65.9226 z" id="boundary" inkscape:connector-curvature="0" />
	<path style="fill:none;stroke:red;stroke-width:1px;stroke-linecap:butt;stroke-linejoin:miter;stroke-opacity:1" d="M 490.712,65.9226 503.096,65.9226 z" id="boundary" inkscape:connector-curvature="0" />
	<path style="fill:none;stroke:red;stroke-width:1px;stroke-linecap:butt;stroke-linejoin:miter;stroke-opacity:1" d="M 525.388,79.5456 516.719,89.4532 z" id="boundary" inkscape:connector-curvature="0" />
	<path style="fill:none;stroke:red;stroke-width:1px;stroke-linecap:butt;stroke-linejoin:miter;stroke-opacity:1" d="M 488.235,116.699 479.566,126.607 z" id="boundary" inkscape:connector-curvature="0" />
	<path style="fill:none;stroke:red;stroke-width:1px;stroke-linecap:butt;stroke-linejoin:miter;stroke-opacity:1" d="M 516.719,89.4532 506.811,98.1223 z" id="boundary" inkscape:connector-curvature="0" />
	<path style="fill:none;stroke:red;stroke-width:1px;stroke-linecap:butt;stroke-linejoin:miter;stroke-opacity:1" d="M 498.142,108.03 488.235,116.699 z" id="boundary" inkscape:connector-curvature="0" />
	<path style="fill:none;stroke:red;stroke-width:1px;stroke-linecap:butt;stroke-linejoin:miter;stroke-opacity:1" d="M 506.811,98.1223 498.142,108.03 z" id="boundary" inkscape:connector-curvature="0" />
	<path style="fill:none;stroke:red;stroke-width:1px;stroke-linecap:butt;stroke-linejoin:miter;stroke-opacity:1" d="M 479.566,126.607 469.658,135.276 z" id="boundary" inkscape:connector-curvature="0" />
	<path style="fill:none;stroke:red;stroke-width:1px;stroke-linecap:butt;stroke-linejoin:miter;stroke-opacity:1" d="M 407.735,156.33 418.881,150.137 z" id="boundary" inkscape:connector-curvature="0" />
	<path style="fill:none;stroke:red;stroke-width:1px;stroke-linecap:butt;stroke-linejoin:miter;stroke-opacity:1" d="M 457.273,160.045 451.081,178.622 z" id="boundary" inkscape:connector-curvature="0" />
	<path style="fill:none;stroke:red;stroke-width:1px;stroke-linecap:butt;stroke-linejoin:miter;stroke-opacity:1" d="M 451.081,178.622 451.081,191.006 z" id="boundary" inkscape:connector-curvature="0" />
	<path style="fill:none;stroke:red;stroke-width:1px;stroke-linecap:butt;stroke-linejoin:miter;stroke-opacity:1" d="M 451.081,191.006 451.081,203.391 z" id="boundary" inkscape:connector-curvature="0" />
	<path style="fill:none;stroke:red;stroke-width:1px;stroke-linecap:butt;stroke-linejoin:miter;stroke-opacity:1" d="M 444.889,221.968 444.889,234.352 z" id="boundary" inkscape:connector-curvature="0" />
	<path style="fill:none;stroke:red;stroke-width:1px;stroke-linecap:butt;stroke-linejoin:miter;stroke-opacity:1" d="M 444.889,221.968 451.081,203.391 z" id="boundary" inkscape:connector-curvature="0" />
	<path style="fill:none;stroke:red;stroke-width:1px;stroke-linecap:butt;stroke-linejoin:miter;stroke-opacity:1" d="M 444.889,246.737 444.889,234.352 z" id="boundary" inkscape:connector-curvature="0" />
	<path style="fill:none;stroke:red;stroke-width:1px;stroke-linecap:butt;stroke-linejoin:miter;stroke-opacity:1" d="M 444.889,246.737 457.273,251.69 z" id="boundary" inkscape:connector-curvature="0" />
	<path style="fill:none;stroke:red;stroke-width:1px;stroke-linecap:butt;stroke-linejoin:miter;stroke-opacity:1" d="M 463.466,147.66 457.273,160.045 z" id="boundary" inkscape:connector-curvature="0" />
	<path style="fill:none;stroke:red;stroke-width:1px;stroke-linecap:butt;stroke-linejoin:miter;stroke-opacity:1" d="M 469.658,135.276 463.466,147.66 z" id="boundary" inkscape:connector-curvature="0" />
	<path style="fill:none;stroke:red;stroke-width:1px;stroke-linecap:butt;stroke-linejoin:miter;stroke-opacity:1" d="M 468.419,243.021 457.273,251.69 z" id="boundary" inkscape:connector-curvature="0" />
	<path style="fill:none;stroke:red;stroke-width:1px;stroke-linecap:butt;stroke-linejoin:miter;stroke-opacity:1" d="M 491.95,233.114 503.096,226.921 z" id="boundary" inkscape:connector-curvature="0" />
	<path style="fill:none;stroke:red;stroke-width:1px;stroke-linecap:butt;stroke-linejoin:miter;stroke-opacity:1" d="M 503.096,226.921 515.481,226.921 z" id="boundary" inkscape:connector-curvature="0" />
	<path style="fill:none;stroke:red;stroke-width:1px;stroke-linecap:butt;stroke-linejoin:miter;stroke-opacity:1" d="M 468.419,243.021 480.804,239.306 z" id="boundary" inkscape:connector-curvature="0" />
	<path style="fill:none;stroke:red;stroke-width:1px;stroke-linecap:butt;stroke-linejoin:miter;stroke-opacity:1" d="M 480.804,239.306 491.95,233.114 z" id="boundary" inkscape:connector-curvature="0" />
	<path style="fill:none;stroke:red;stroke-width:1px;stroke-linecap:butt;stroke-linejoin:miter;stroke-opacity:1" d="M 515.481,226.921 527.865,226.921 z" id="boundary" inkscape:connector-curvature="0" />
	<path style="fill:none;stroke:red;stroke-width:1px;stroke-linecap:butt;stroke-linejoin:miter;stroke-opacity:1" d="M 537.773,49.8227 525.388,53.5381 z" id="boundary" inkscape:connector-curvature="0" />
	<path style="fill:none;stroke:red;stroke-width:1px;stroke-linecap:butt;stroke-linejoin:miter;stroke-opacity:1" d="M 550.157,47.3458 537.773,49.8227 z" id="boundary" inkscape:connector-curvature="0" />
	<path style="fill:none;stroke:red;stroke-width:1px;stroke-linecap:butt;stroke-linejoin:miter;stroke-opacity:1" d="M 550.157,47.3458 562.542,43.6305 z" id="boundary" inkscape:connector-curvature="0" />
	<path style="fill:none;stroke:red;stroke-width:1px;stroke-linecap:butt;stroke-linejoin:miter;stroke-opacity:1" d="M 562.542,43.6305 558.826,60.9688 z" id="boundary" inkscape:connector-curvature="0" />
	<path style="fill:none;stroke:red;stroke-width:1px;stroke-linecap:butt;stroke-linejoin:miter;stroke-opacity:1" d="M 558.826,60.9688 546.442,65.9226 z" id="boundary" inkscape:connector-curvature="0" />
	<path style="fill:none;stroke:red;stroke-width:1px;stroke-linecap:butt;stroke-linejoin:miter;stroke-opacity:1" d="M 546.442,65.9226 536.534,73.3533 z" id="boundary" inkscape:connector-curvature="0" />
	<path style="fill:none;stroke:red;stroke-width:1px;stroke-linecap:butt;stroke-linejoin:miter;stroke-opacity:1" d="M 536.534,73.3533 525.388,79.5456 z" id="boundary" inkscape:connector-curvature="0" />
	<path style="fill:none;stroke:red;stroke-width:1px;stroke-linecap:butt;stroke-linejoin:miter;stroke-opacity:1" d="M 527.865,226.921 540.25,220.729 z" id="boundary" inkscape:connector-curvature="0" />
	<path style="fill:none;stroke:red;stroke-width:1px;stroke-linecap:butt;stroke-linejoin:miter;stroke-opacity:1" d="M 552.634,220.729 540.25,220.729 z" id="boundary" inkscape:connector-curvature="0" />
	<path style="fill:none;stroke:red;stroke-width:1px;stroke-linecap:butt;stroke-linejoin:miter;stroke-opacity:1" d="M 565.019,220.729 552.634,220.729 z" id="boundary" inkscape:connector-curvature="0" />
	<path style="fill:none;stroke:red;stroke-width:1px;stroke-linecap:butt;stroke-linejoin:miter;stroke-opacity:1" d="M 565.019,220.729 577.403,220.729 z" id="boundary" inkscape:connector-curvature="0" />
	<path style="fill:none;stroke:red;stroke-width:1px;stroke-linecap:butt;stroke-linejoin:miter;stroke-opacity:1" d="M 589.788,220.729 577.403,220.729 z" id="boundary" inkscape:connector-curvature="0" />
	<path style="fill:none;stroke:red;stroke-width:1px;stroke-linecap:butt;stroke-linejoin:miter;stroke-opacity:1" d="M 614.557,220.729 602.172,220.729 z" id="boundary" inkscape:connector-curvature="0" />
	<path style="fill:none;stroke:red;stroke-width:1px;stroke-linecap:butt;stroke-linejoin:miter;stroke-opacity:1" d="M 602.172,220.729 589.788,220.729 z" id="boundary" inkscape:connector-curvature="0" />
	<path style="fill:none;stroke:red;stroke-width:1px;stroke-linecap:butt;stroke-linejoin:miter;stroke-opacity:1" d="M 638.087,226.921 625.703,226.921 z" id="boundary" inkscape:connector-curvature="0" />
	<path style="fill:none;stroke:red;stroke-width:1px;stroke-linecap:butt;stroke-linejoin:miter;stroke-opacity:1" d="M 625.703,226.921 614.557,220.729 z" id="boundary" inkscape:connector-curvature="0" />
	<path style="fill:none;stroke:red;stroke-width:1px;stroke-linecap:butt;stroke-linejoin:miter;stroke-opacity:1" d="M 638.087,226.921 650.472,226.921 z" id="boundary" inkscape:connector-curvature="0" />
	<path style="fill:none;stroke:red;stroke-width:1px;stroke-linecap:butt;stroke-linejoin:miter;stroke-opacity:1" d="M 661.618,233.114 650.472,226.921 z" id="boundary" inkscape:connector-curvature="0" />
	<path style="fill:none;stroke:red;stroke-width:1px;stroke-linecap:butt;stroke-linejoin:miter;stroke-opacity:1" d="M 674.002,233.114 661.618,233.114 z" id="boundary" inkscape:connector-curvature="0" />
	<path style="fill:none;stroke:red;stroke-width:1px;stroke-linecap:butt;stroke-linejoin:miter;stroke-opacity:1" d="M 674.002,233.114 685.149,239.306 z" id="boundary" inkscape:connector-curvature="0" />
	<path style="fill:none;stroke:red;stroke-width:1px;stroke-linecap:butt;stroke-linejoin:miter;stroke-opacity:1" d="M 722.302,247.975 709.918,245.498 z" id="boundary" inkscape:connector-curvature="0" />
	<path style="fill:none;stroke:red;stroke-width:1px;stroke-linecap:butt;stroke-linejoin:miter;stroke-opacity:1" d="M 697.533,241.783 709.918,245.498 z" id="boundary" inkscape:connector-curvature="0" />
	<path style="fill:none;stroke:red;stroke-width:1px;stroke-linecap:butt;stroke-linejoin:miter;stroke-opacity:1" d="M 722.302,247.975 733.448,254.167 z" id="boundary" inkscape:connector-curvature="0" />
	<path style="fill:none;stroke:red;stroke-width:1px;stroke-linecap:butt;stroke-linejoin:miter;stroke-opacity:1" d="M 733.448,254.167 742.117,264.075 z" id="boundary" inkscape:connector-curvature="0" />
	<path style="fill:none;stroke:red;stroke-width:1px;stroke-linecap:butt;stroke-linejoin:miter;stroke-opacity:1" d="M 697.533,241.783 685.149,239.306 z" id="boundary" inkscape:connector-curvature="0" />
	<path style="fill:none;stroke:red;stroke-width:1px;stroke-linecap:butt;stroke-linejoin:miter;stroke-opacity:1" d="M 752.025,271.506 742.117,264.075 z" id="boundary" inkscape:connector-curvature="0" />
	<path style="fill:none;stroke:red;stroke-width:1px;stroke-linecap:butt;stroke-linejoin:miter;stroke-opacity:1" d="M 786.702,288.844 775.556,282.652 z" id="boundary" inkscape:connector-curvature="0" />
	<path style="fill:none;stroke:red;stroke-width:1px;stroke-linecap:butt;stroke-linejoin:miter;stroke-opacity:1" d="M 752.025,271.506 763.171,277.698 z" id="boundary" inkscape:connector-curvature="0" />
	<path style="fill:none;stroke:red;stroke-width:1px;stroke-linecap:butt;stroke-linejoin:miter;stroke-opacity:1" d="M 775.556,282.652 763.171,277.698 z" id="boundary" inkscape:connector-curvature="0" />
	<path style="fill:none;stroke:red;stroke-width:1px;stroke-linecap:butt;stroke-linejoin:miter;stroke-opacity:1" d="M 808.994,301.228 797.848,295.036 z" id="boundary" inkscape:connector-curvature="0" />
	<path style="fill:none;stroke:red;stroke-width:1px;stroke-linecap:butt;stroke-linejoin:miter;stroke-opacity:1" d="M 797.848,295.036 786.702,288.844 z" id="boundary" inkscape:connector-curvature="0" />
	<path style="fill:none;stroke:red;stroke-width:1px;stroke-linecap:butt;stroke-linejoin:miter;stroke-opacity:1" d="M 808.994,301.228 818.901,308.659 z" id="boundary" inkscape:connector-curvature="0" />
	<path style="fill:none;stroke:red;stroke-width:1px;stroke-linecap:butt;stroke-linejoin:miter;stroke-opacity:1" d="M 818.901,308.659 828.809,317.328 z" id="boundary" inkscape:connector-curvature="0" />
	<path style="fill:none;stroke:red;stroke-width:1px;stroke-linecap:butt;stroke-linejoin:miter;stroke-opacity:1" d="M 837.478,327.236 828.809,317.328 z" id="boundary" inkscape:connector-curvature="0" />
	<path style="fill:none;stroke:red;stroke-width:1px;stroke-linecap:butt;stroke-linejoin:miter;stroke-opacity:1" d="M 847.386,335.905 837.478,327.236 z" id="boundary" inkscape:connector-curvature="0" />
	<path style="fill:none;stroke:red;stroke-width:1px;stroke-linecap:butt;stroke-linejoin:miter;stroke-opacity:1" d="M 847.386,335.905 852.34,348.29 z" id="boundary" inkscape:connector-curvature="0" />
	<path style="fill:none;stroke:red;stroke-width:1px;stroke-linecap:butt;stroke-linejoin:miter;stroke-opacity:1" d="M 852.34,348.29 858.532,359.436 z" id="boundary" inkscape:connector-curvature="0" />
	<path style="fill:none;stroke:red;stroke-width:1px;stroke-linecap:butt;stroke-linejoin:miter;stroke-opacity:1" d="M 859.77,371.82 858.532,359.436 z" id="boundary" inkscape:connector-curvature="0" />
	<path style="fill:none;stroke:red;stroke-width:1px;stroke-linecap:butt;stroke-linejoin:miter;stroke-opacity:1" d="M 420.12,965.039 432.504,967.516 z" id="boundary" inkscape:connector-curvature="0" />
	<path style="fill:none;stroke:red;stroke-width:1px;stroke-linecap:butt;stroke-linejoin:miter;stroke-opacity:1" d="M 453.558,982.377 441.174,977.423 z" id="boundary" inkscape:connector-curvature="0" />
	<path style="fill:none;stroke:red;stroke-width:1px;stroke-linecap:butt;stroke-linejoin:miter;stroke-opacity:1" d="M 432.504,967.516 441.174,977.423 z" id="boundary" inkscape:connector-curvature="0" />
	<path style="fill:none;stroke:red;stroke-width:1px;stroke-linecap:butt;stroke-linejoin:miter;stroke-opacity:1" d="M 453.558,982.377 464.704,988.569 z" id="boundary" inkscape:connector-curvature="0" />
	<path style="fill:none;stroke:red;stroke-width:1px;stroke-linecap:butt;stroke-linejoin:miter;stroke-opacity:1" d="M 477.089,989.808 464.704,988.569 z" id="boundary" inkscape:connector-curvature="0" />
	<path style="fill:none;stroke:red;stroke-width:1px;stroke-linecap:butt;stroke-linejoin:miter;stroke-opacity:1" d="M 489.473,989.808 477.089,989.808 z" id="boundary" inkscape:connector-curvature="0" />
	<path style="fill:none;stroke:red;stroke-width:1px;stroke-linecap:butt;stroke-linejoin:miter;stroke-opacity:1" d="M 489.473,989.808 501.858,993.523 z" id="boundary" inkscape:connector-curvature="0" />
	<path style="fill:none;stroke:red;stroke-width:1px;stroke-linecap:butt;stroke-linejoin:miter;stroke-opacity:1" d="M 514.242,996 501.858,993.523 z" id="boundary" inkscape:connector-curvature="0" />
	<path style="fill:none;stroke:red;stroke-width:1px;stroke-linecap:butt;stroke-linejoin:miter;stroke-opacity:1" d="M 514.242,996 526.627,996 z" id="boundary" inkscape:connector-curvature="0" />
	<path style="fill:none;stroke:red;stroke-width:1px;stroke-linecap:butt;stroke-linejoin:miter;stroke-opacity:1" d="M 539.011,996 551.396,996 z" id="boundary" inkscape:connector-curvature="0" />
	<path style="fill:none;stroke:red;stroke-width:1px;stroke-linecap:butt;stroke-linejoin:miter;stroke-opacity:1" d="M 539.011,996 526.627,996 z" id="boundary" inkscape:connector-curvature="0" />
	<path style="fill:none;stroke:red;stroke-width:1px;stroke-linecap:butt;stroke-linejoin:miter;stroke-opacity:1" d="M 551.396,996 563.78,996 z" id="boundary" inkscape:connector-curvature="0" />
	<path style="fill:none;stroke:red;stroke-width:1px;stroke-linecap:butt;stroke-linejoin:miter;stroke-opacity:1" d="M 576.165,996 563.78,996 z" id="boundary" inkscape:connector-curvature="0" />
	<path style="fill:none;stroke:red;stroke-width:1px;stroke-linecap:butt;stroke-linejoin:miter;stroke-opacity:1" d="M 588.549,996 576.165,996 z" id="boundary" inkscape:connector-curvature="0" />
	<path style="fill:none;stroke:red;stroke-width:1px;stroke-linecap:butt;stroke-linejoin:miter;stroke-opacity:1" d="M 711.156,977.423 698.772,983.615 z" id="boundary" inkscape:connector-curvature="0" />
	<path style="fill:none;stroke:red;stroke-width:1px;stroke-linecap:butt;stroke-linejoin:miter;stroke-opacity:1" d="M 698.772,983.615 686.387,983.615 z" id="boundary" inkscape:connector-curvature="0" />
	<path style="fill:none;stroke:red;stroke-width:1px;stroke-linecap:butt;stroke-linejoin:miter;stroke-opacity:1" d="M 711.156,977.423 723.541,971.231 z" id="boundary" inkscape:connector-curvature="0" />
	<path style="fill:none;stroke:red;stroke-width:1px;stroke-linecap:butt;stroke-linejoin:miter;stroke-opacity:1" d="M 735.925,971.231 723.541,971.231 z" id="boundary" inkscape:connector-curvature="0" />
	<path style="fill:none;stroke:red;stroke-width:1px;stroke-linecap:butt;stroke-linejoin:miter;stroke-opacity:1" d="M 747.071,965.039 735.925,971.231 z" id="boundary" inkscape:connector-curvature="0" />
	<path style="fill:none;stroke:red;stroke-width:1px;stroke-linecap:butt;stroke-linejoin:miter;stroke-opacity:1" d="M 686.387,983.615 674.002,989.808 z" id="boundary" inkscape:connector-curvature="0" />
	<path style="fill:none;stroke:red;stroke-width:1px;stroke-linecap:butt;stroke-linejoin:miter;stroke-opacity:1" d="M 600.934,996 588.549,996 z" id="boundary" inkscape:connector-curvature="0" />
	<path style="fill:none;stroke:red;stroke-width:1px;stroke-linecap:butt;stroke-linejoin:miter;stroke-opacity:1" d="M 649.233,989.808 638.087,996 z" id="boundary" inkscape:connector-curvature="0" />
	<path style="fill:none;stroke:red;stroke-width:1px;stroke-linecap:butt;stroke-linejoin:miter;stroke-opacity:1" d="M 613.318,996 600.934,996 z" id="boundary" inkscape:connector-curvature="0" />
	<path style="fill:none;stroke:red;stroke-width:1px;stroke-linecap:butt;stroke-linejoin:miter;stroke-opacity:1" d="M 613.318,996 625.703,996 z" id="boundary" inkscape:connector-curvature="0" />
	<path style="fill:none;stroke:red;stroke-width:1px;stroke-linecap:butt;stroke-linejoin:miter;stroke-opacity:1" d="M 638.087,996 625.703,996 z" id="boundary" inkscape:connector-curvature="0" />
	<path style="fill:none;stroke:red;stroke-width:1px;stroke-linecap:butt;stroke-linejoin:miter;stroke-opacity:1" d="M 674.002,989.808 661.618,989.808 z" id="boundary" inkscape:connector-curvature="0" />
	<path style="fill:none;stroke:red;stroke-width:1px;stroke-linecap:butt;stroke-linejoin:miter;stroke-opacity:1" d="M 661.618,989.808 649.233,989.808 z" id="boundary" inkscape:connector-curvature="0" />
	<path style="fill:none;stroke:red;stroke-width:1px;stroke-linecap:butt;stroke-linejoin:miter;stroke-opacity:1" d="M 865.963,382.966 868.439,395.351 z" id="boundary" inkscape:connector-curvature="0" />
	<path style="fill:none;stroke:red;stroke-width:1px;stroke-linecap:butt;stroke-linejoin:miter;stroke-opacity:1" d="M 865.963,382.966 859.77,371.82 z" id="boundary" inkscape:connector-curvature="0" />
	<path style="fill:none;stroke:red;stroke-width:1px;stroke-linecap:butt;stroke-linejoin:miter;stroke-opacity:1" d="M 872.155,407.735 868.439,395.351 z" id="boundary" inkscape:connector-curvature="0" />
	<path style="fill:none;stroke:red;stroke-width:1px;stroke-linecap:butt;stroke-linejoin:miter;stroke-opacity:1" d="M 872.155,407.735 878.347,418.881 z" id="boundary" inkscape:connector-curvature="0" />
	<path style="fill:none;stroke:red;stroke-width:1px;stroke-linecap:butt;stroke-linejoin:miter;stroke-opacity:1" d="M 878.347,418.881 878.347,431.266 z" id="boundary" inkscape:connector-curvature="0" />
	<path style="fill:none;stroke:red;stroke-width:1px;stroke-linecap:butt;stroke-linejoin:miter;stroke-opacity:1" d="M 878.347,443.65 878.347,431.266 z" id="boundary" inkscape:connector-curvature="0" />
	<path style="fill:none;stroke:red;stroke-width:1px;stroke-linecap:butt;stroke-linejoin:miter;stroke-opacity:1" d="M 884.539,454.797 884.539,467.181 z" id="boundary" inkscape:connector-curvature="0" />
	<path style="fill:none;stroke:red;stroke-width:1px;stroke-linecap:butt;stroke-linejoin:miter;stroke-opacity:1" d="M 884.539,454.797 878.347,443.65 z" id="boundary" inkscape:connector-curvature="0" />
	<path style="fill:none;stroke:red;stroke-width:1px;stroke-linecap:butt;stroke-linejoin:miter;stroke-opacity:1" d="M 890.732,478.327 884.539,467.181 z" id="boundary" inkscape:connector-curvature="0" />
	<path style="fill:none;stroke:red;stroke-width:1px;stroke-linecap:butt;stroke-linejoin:miter;stroke-opacity:1" d="M 890.732,478.327 890.732,490.712 z" id="boundary" inkscape:connector-curvature="0" />
	<path style="fill:none;stroke:red;stroke-width:1px;stroke-linecap:butt;stroke-linejoin:miter;stroke-opacity:1" d="M 896.924,501.858 896.924,514.242 z" id="boundary" inkscape:connector-curvature="0" />
	<path style="fill:none;stroke:red;stroke-width:1px;stroke-linecap:butt;stroke-linejoin:miter;stroke-opacity:1" d="M 896.924,501.858 890.732,490.712 z" id="boundary" inkscape:connector-curvature="0" />
	<path style="fill:none;stroke:red;stroke-width:1px;stroke-linecap:butt;stroke-linejoin:miter;stroke-opacity:1" d="M 896.924,514.242 900.639,526.627 z" id="boundary" inkscape:connector-curvature="0" />
	<path style="fill:none;stroke:red;stroke-width:1px;stroke-linecap:butt;stroke-linejoin:miter;stroke-opacity:1" d="M 903.116,539.011 903.116,551.396 z" id="boundary" inkscape:connector-curvature="0" />
	<path style="fill:none;stroke:red;stroke-width:1px;stroke-linecap:butt;stroke-linejoin:miter;stroke-opacity:1" d="M 909.308,562.542 903.116,551.396 z" id="boundary" inkscape:connector-curvature="0" />
	<path style="fill:none;stroke:red;stroke-width:1px;stroke-linecap:butt;stroke-linejoin:miter;stroke-opacity:1" d="M 909.308,562.542 909.308,574.926 z" id="boundary" inkscape:connector-curvature="0" />
	<path style="fill:none;stroke:red;stroke-width:1px;stroke-linecap:butt;stroke-linejoin:miter;stroke-opacity:1" d="M 909.308,587.311 909.308,574.926 z" id="boundary" inkscape:connector-curvature="0" />
	<path style="fill:none;stroke:red;stroke-width:1px;stroke-linecap:butt;stroke-linejoin:miter;stroke-opacity:1" d="M 903.116,539.011 900.639,526.627 z" id="boundary" inkscape:connector-curvature="0" />
	<path style="fill:none;stroke:red;stroke-width:1px;stroke-linecap:butt;stroke-linejoin:miter;stroke-opacity:1" d="M 909.308,587.311 909.308,599.695 z" id="boundary" inkscape:connector-curvature="0" />
	<path style="fill:none;stroke:red;stroke-width:1px;stroke-linecap:butt;stroke-linejoin:miter;stroke-opacity:1" d="M 909.308,612.08 909.308,599.695 z" id="boundary" inkscape:connector-curvature="0" />
	<path style="fill:none;stroke:red;stroke-width:1px;stroke-linecap:butt;stroke-linejoin:miter;stroke-opacity:1" d="M 909.308,624.464 909.308,612.08 z" id="boundary" inkscape:connector-curvature="0" />
	<path style="fill:none;stroke:red;stroke-width:1px;stroke-linecap:butt;stroke-linejoin:miter;stroke-opacity:1" d="M 909.308,636.849 909.308,649.233 z" id="boundary" inkscape:connector-curvature="0" />
	<path style="fill:none;stroke:red;stroke-width:1px;stroke-linecap:butt;stroke-linejoin:miter;stroke-opacity:1" d="M 909.308,636.849 909.308,624.464 z" id="boundary" inkscape:connector-curvature="0" />
	<path style="fill:none;stroke:red;stroke-width:1px;stroke-linecap:butt;stroke-linejoin:miter;stroke-opacity:1" d="M 909.308,661.618 909.308,649.233 z" id="boundary" inkscape:connector-curvature="0" />
	<path style="fill:none;stroke:red;stroke-width:1px;stroke-linecap:butt;stroke-linejoin:miter;stroke-opacity:1" d="M 853.578,872.155 853.578,884.539 z" id="boundary" inkscape:connector-curvature="0" />
	<path style="fill:none;stroke:red;stroke-width:1px;stroke-linecap:butt;stroke-linejoin:miter;stroke-opacity:1" d="M 859.77,859.77 853.578,872.155 z" id="boundary" inkscape:connector-curvature="0" />
	<path style="fill:none;stroke:red;stroke-width:1px;stroke-linecap:butt;stroke-linejoin:miter;stroke-opacity:1" d="M 869.678,851.101 859.77,859.77 z" id="boundary" inkscape:connector-curvature="0" />
	<path style="fill:none;stroke:red;stroke-width:1px;stroke-linecap:butt;stroke-linejoin:miter;stroke-opacity:1" d="M 853.578,884.539 844.909,894.447 z" id="boundary" inkscape:connector-curvature="0" />
	<path style="fill:none;stroke:red;stroke-width:1px;stroke-linecap:butt;stroke-linejoin:miter;stroke-opacity:1" d="M 780.509,946.462 769.363,952.654 z" id="boundary" inkscape:connector-curvature="0" />
	<path style="fill:none;stroke:red;stroke-width:1px;stroke-linecap:butt;stroke-linejoin:miter;stroke-opacity:1" d="M 790.417,936.554 780.509,946.462 z" id="boundary" inkscape:connector-curvature="0" />
	<path style="fill:none;stroke:red;stroke-width:1px;stroke-linecap:butt;stroke-linejoin:miter;stroke-opacity:1" d="M 758.217,958.846 769.363,952.654 z" id="boundary" inkscape:connector-curvature="0" />
	<path style="fill:none;stroke:red;stroke-width:1px;stroke-linecap:butt;stroke-linejoin:miter;stroke-opacity:1" d="M 747.071,965.039 758.217,958.846 z" id="boundary" inkscape:connector-curvature="0" />
	<path style="fill:none;stroke:red;stroke-width:1px;stroke-linecap:butt;stroke-linejoin:miter;stroke-opacity:1" d="M 815.186,924.17 802.801,930.362 z" id="boundary" inkscape:connector-curvature="0" />
	<path style="fill:none;stroke:red;stroke-width:1px;stroke-linecap:butt;stroke-linejoin:miter;stroke-opacity:1" d="M 825.094,914.262 815.186,924.17 z" id="boundary" inkscape:connector-curvature="0" />
	<path style="fill:none;stroke:red;stroke-width:1px;stroke-linecap:butt;stroke-linejoin:miter;stroke-opacity:1" d="M 825.094,914.262 835.001,903.116 z" id="boundary" inkscape:connector-curvature="0" />
	<path style="fill:none;stroke:red;stroke-width:1px;stroke-linecap:butt;stroke-linejoin:miter;stroke-opacity:1" d="M 790.417,936.554 802.801,930.362 z" id="boundary" inkscape:connector-curvature="0" />
	<path style="fill:none;stroke:red;stroke-width:1px;stroke-linecap:butt;stroke-linejoin:miter;stroke-opacity:1" d="M 835.001,903.116 844.909,894.447 z" id="boundary" inkscape:connector-curvature="0" />
	<path style="fill:none;stroke:red;stroke-width:1px;stroke-linecap:butt;stroke-linejoin:miter;stroke-opacity:1" d="M 903.116,704.964 903.116,717.348 z" id="boundary" inkscape:connector-curvature="0" />
	<path style="fill:none;stroke:red;stroke-width:1px;stroke-linecap:butt;stroke-linejoin:miter;stroke-opacity:1" d="M 896.924,748.31 896.924,760.694 z" id="boundary" inkscape:connector-curvature="0" />
	<path style="fill:none;stroke:red;stroke-width:1px;stroke-linecap:butt;stroke-linejoin:miter;stroke-opacity:1" d="M 903.116,704.964 903.116,692.579 z" id="boundary" inkscape:connector-curvature="0" />
	<path style="fill:none;stroke:red;stroke-width:1px;stroke-linecap:butt;stroke-linejoin:miter;stroke-opacity:1" d="M 896.924,760.694 890.732,779.271 z" id="boundary" inkscape:connector-curvature="0" />
	<path style="fill:none;stroke:red;stroke-width:1px;stroke-linecap:butt;stroke-linejoin:miter;stroke-opacity:1" d="M 890.732,779.271 890.732,791.655 z" id="boundary" inkscape:connector-curvature="0" />
	<path style="fill:none;stroke:red;stroke-width:1px;stroke-linecap:butt;stroke-linejoin:miter;stroke-opacity:1" d="M 903.116,717.348 903.116,729.733 z" id="boundary" inkscape:connector-curvature="0" />
	<path style="fill:none;stroke:red;stroke-width:1px;stroke-linecap:butt;stroke-linejoin:miter;stroke-opacity:1" d="M 909.308,674.002 909.308,661.618 z" id="boundary" inkscape:connector-curvature="0" />
	<path style="fill:none;stroke:red;stroke-width:1px;stroke-linecap:butt;stroke-linejoin:miter;stroke-opacity:1" d="M 903.116,729.733 896.924,748.31 z" id="boundary" inkscape:connector-curvature="0" />
	<path style="fill:none;stroke:red;stroke-width:1px;stroke-linecap:butt;stroke-linejoin:miter;stroke-opacity:1" d="M 903.116,692.579 909.308,674.002 z" id="boundary" inkscape:connector-curvature="0" />
	<path style="fill:none;stroke:red;stroke-width:1px;stroke-linecap:butt;stroke-linejoin:miter;stroke-opacity:1" d="M 869.678,851.101 872.155,835.001 z" id="boundary" inkscape:connector-curvature="0" />
	<path style="fill:none;stroke:red;stroke-width:1px;stroke-linecap:butt;stroke-linejoin:miter;stroke-opacity:1" d="M 878.347,816.424 872.155,835.001 z" id="boundary" inkscape:connector-curvature="0" />
	<path style="fill:none;stroke:red;stroke-width:1px;stroke-linecap:butt;stroke-linejoin:miter;stroke-opacity:1" d="M 884.539,804.04 878.347,816.424 z" id="boundary" inkscape:connector-curvature="0" />
	<path style="fill:none;stroke:red;stroke-width:1px;stroke-linecap:butt;stroke-linejoin:miter;stroke-opacity:1" d="M 884.539,804.04 890.732,791.655 z" id="boundary" inkscape:connector-curvature="0" />
	<circle cx="4" cy="484.519" r="4" fill="#0" id="circle0"/>
	<circle cx="4" cy="496.904" r="4" fill="#0" id="circle1"/>
	<circle cx="4" cy="509.288" r="4" fill="#0" id="circle2"/>
	<circle cx="4" cy="521.673" r="4" fill="#0" id="circle3"/>
	<circle cx="4" cy="534.057" r="4" fill="#0" id="circle4"/>
	<circle cx="4" cy="546.442" r="4" fill="#0" id="circle5"/>
	<circle cx="4" cy="558.826" r="4" fill="#0" id="circle6"/>
	<circle cx="4" cy="571.211" r="4" fill="#0" id="circle7"/>
	<circle cx="4" cy="583.596" r="4" fill="#0" id="circle8"/>
	<circle cx="4" cy="595.98" r="4" fill="#0" id="circle9"/>
	<circle cx="4" cy="608.365" r="4" fill="#0" id="circle10"/>
	<circle cx="4" cy="620.749" r="4" fill="#0" id="circle11"/>
	<circle cx="4" cy="633.134" r="4" fill="#0" id="circle12"/>
	<circle cx="4" cy="645.518" r="4" fill="#0" id="circle13"/>
	<circle cx="10.1923" cy="459.75" r="4" fill="#0" id="circle14"/>
	<circle cx="10.1923" cy="472.135" r="4" fill="#0" id="circle15"/>
	<circle cx="10.1923" cy="656.664" r="4" fill="#0" id="circle16"/>
	<circle cx="10.1923" cy="669.049" r="4" fill="#0" id="circle17"/>
	<circle cx="16.3845" cy="428.789" r="4" fill="#0" id="circle18"/>
	<circle cx="16.3845" cy="441.174" r="4" fill="#0" id="circle19"/>
	<circle cx="16.3845" cy="680.195" r="4" fill="#0" id="circle20"/>
	<circle cx="16.3845" cy="692.579" r="4" fill="#0" id="circle21"/>
	<circle cx="20.0999" cy="704.964" r="4" fill="#0" id="circle22"/>
	<circle cx="22.5768" cy="410.212" r="4" fill="#0" id="circle23"/>
	<circle cx="22.5768" cy="717.348" r="4" fill="#0" id="circle24"/>
	<circle cx="28.769" cy="391.635" r="4" fill="#0" id="circle25"/>
	<circle cx="28.769" cy="728.494" r="4" fill="#0" id="circle26"/>
	<circle cx="31.2459" cy="740.879" r="4" fill="#0" id="circle27"/>
	<circle cx="34.9613" cy="379.251" r="4" fill="#0" id="circle28"/>
	<circle cx="34.9613" cy="753.263" r="4" fill="#0" id="circle29"/>
	<circle cx="41.1536" cy="366.866" r="4" fill="#0" id="circle30"/>
	<circle cx="41.1536" cy="764.409" r="4" fill="#0" id="circle31"/>
	<circle cx="42.392" cy="776.794" r="4" fill="#0" id="circle32"/>
	<circle cx="47.3458" cy="348.29" r="4" fill="#0" id="circle33"/>
	<circle cx="48.5843" cy="787.94" r="4" fill="#0" id="circle34"/>
	<circle cx="53.5381" cy="329.713" r="4" fill="#0" id="circle35"/>
	<circle cx="57.2534" cy="797.848" r="4" fill="#0" id="circle36"/>
	<circle cx="59.7303" cy="317.328" r="4" fill="#0" id="circle37"/>
	<circle cx="63.4457" cy="808.994" r="4" fill="#0" id="circle38"/>
	<circle cx="65.9226" cy="304.944" r="4" fill="#0" id="circle39"/>
	<circle cx="68.3995" cy="821.378" r="4" fill="#0" id="circle40"/>
	<circle cx="75.8302" cy="295.036" r="4" fill="#0" id="circle41"/>
	<circle cx="78.3071" cy="828.809" r="4" fill="#0" id="circle42"/>
	<circle cx="82.0225" cy="841.194" r="4" fill="#0" id="circle43"/>
	<circle cx="85.7378" cy="285.129" r="4" fill="#0" id="circle44"/>
	<circle cx="88.2147" cy="852.34" r="4" fill="#0" id="circle45"/>
	<circle cx="95.6454" cy="276.459" r="4" fill="#0" id="circle46"/>
	<circle cx="96.8839" cy="862.247" r="4" fill="#0" id="circle47"/>
	<circle cx="103.076" cy="873.393" r="4" fill="#0" id="circle48"/>
	<circle cx="104.315" cy="266.552" r="4" fill="#0" id="circle49"/>
	<circle cx="111.745" cy="883.301" r="4" fill="#0" id="circle50"/>
	<circle cx="116.699" cy="260.36" r="4" fill="#0" id="circle51"/>
	<circle cx="121.653" cy="890.732" r="4" fill="#0" id="circle52"/>
	<circle cx="129.084" cy="254.167" r="4" fill="#0" id="circle53"/>
	<circle cx="129.084" cy="900.639" r="4" fill="#0" id="circle54"/>
	<circle cx="138.991" cy="909.308" r="4" fill="#0" id="circle55"/>
	<circle cx="141.468" cy="247.975" r="4" fill="#0" id="circle56"/>
	<circle cx="147.66" cy="919.216" r="4" fill="#0" id="circle57"/>
	<circle cx="151.376" cy="239.306" r="4" fill="#0" id="circle58"/>
	<circle cx="160.045" cy="924.17" r="4" fill="#0" id="circle59"/>
	<circle cx="162.522" cy="233.114" r="4" fill="#0" id="circle60"/>
	<circle cx="168.714" cy="934.077" r="4" fill="#0" id="circle61"/>
	<circle cx="171.191" cy="51.0612" r="4" fill="#0" id="circle62"/>
	<circle cx="171.191" cy="63.4457" r="4" fill="#0" id="circle63"/>
	<circle cx="171.191" cy="75.8302" r="4" fill="#0" id="circle64"/>
	<circle cx="171.191" cy="88.2147" r="4" fill="#0" id="circle65"/>
	<circle cx="171.191" cy="100.599" r="4" fill="#0" id="circle66"/>
	<circle cx="172.429" cy="223.206" r="4" fill="#0" id="circle67"/>
	<circle cx="177.383" cy="38.6767" r="4" fill="#0" id="circle68"/>
	<circle cx="177.383" cy="111.745" r="4" fill="#0" id="circle69"/>
	<circle cx="181.099" cy="939.031" r="4" fill="#0" id="circle70"/>
	<circle cx="183.576" cy="26.2921" r="4" fill="#0" id="circle71"/>
	<circle cx="184.814" cy="217.014" r="4" fill="#0" id="circle72"/>
	<circle cx="189.768" cy="116.699" r="4" fill="#0" id="circle73"/>
	<circle cx="189.768" cy="948.939" r="4" fill="#0" id="circle74"/>
	<circle cx="193.483" cy="16.3845" r="4" fill="#0" id="circle75"/>
	<circle cx="197.199" cy="214.537" r="4" fill="#0" id="circle76"/>
	<circle cx="202.152" cy="116.699" r="4" fill="#0" id="circle77"/>
	<circle cx="202.152" cy="952.654" r="4" fill="#0" id="circle78"/>
	<circle cx="205.868" cy="10.1923" r="4" fill="#0" id="circle79"/>
	<circle cx="208.345" cy="208.345" r="4" fill="#0" id="circle80"/>
	<circle cx="213.298" cy="110.507" r="4" fill="#0" id="circle81"/>
	<circle cx="213.298" cy="958.846" r="4" fill="#0" id="circle82"/>
	<circle cx="218.252" cy="10.1923" r="4" fill="#0" id="circle83"/>
	<circle cx="220.729" cy="208.345" r="4" fill="#0" id="circle84"/>
	<circle cx="225.683" cy="108.03" r="4" fill="#0" id="circle85"/>
	<circle cx="225.683" cy="958.846" r="4" fill="#0" id="circle86"/>
	<circle cx="229.398" cy="4" r="4" fill="#0" id="circle87"/>
	<circle cx="233.114" cy="208.345" r="4" fill="#0" id="circle88"/>
	<circle cx="236.829" cy="965.039" r="4" fill="#0" id="circle89"/>
	<circle cx="238.067" cy="104.315" r="4" fill="#0" id="circle90"/>
	<circle cx="241.783" cy="4" r="4" fill="#0" id="circle91"/>
	<circle cx="245.498" cy="208.345" r="4" fill="#0" id="circle92"/>
	<circle cx="249.213" cy="965.039" r="4" fill="#0" id="circle93"/>
	<circle cx="250.452" cy="104.315" r="4" fill="#0" id="circle94"/>
	<circle cx="254.167" cy="4" r="4" fill="#0" id="circle95"/>
	<circle cx="257.883" cy="208.345" r="4" fill="#0" id="circle96"/>
	<circle cx="260.36" cy="971.231" r="4" fill="#0" id="circle97"/>
	<circle cx="262.836" cy="104.315" r="4" fill="#0" id="circle98"/>
	<circle cx="266.552" cy="4" r="4" fill="#0" id="circle99"/>
	<circle cx="270.267" cy="208.345" r="4" fill="#0" id="circle100"/>
	<circle cx="272.744" cy="971.231" r="4" fill="#0" id="circle101"/>
	<circle cx="275.221" cy="104.315" r="4" fill="#0" id="circle102"/>
	<circle cx="278.936" cy="4" r="4" fill="#0" id="circle103"/>
	<circle cx="282.652" cy="208.345" r="4" fill="#0" id="circle104"/>
	<circle cx="285.129" cy="971.231" r="4" fill="#0" id="circle105"/>
	<circle cx="286.367" cy="110.507" r="4" fill="#0" id="circle106"/>
	<circle cx="291.321" cy="4" r="4" fill="#0" id="circle107"/>
	<circle cx="295.036" cy="208.345" r="4" fill="#0" id="circle108"/>
	<circle cx="297.513" cy="971.231" r="4" fill="#0" id="circle109"/>
	<circle cx="298.752" cy="110.507" r="4" fill="#0" id="circle110"/>
	<circle cx="302.467" cy="10.1923" r="4" fill="#0" id="circle111"/>
	<circle cx="306.182" cy="214.537" r="4" fill="#0" id="circle112"/>
	<circle cx="309.898" cy="116.699" r="4" fill="#0" id="circle113"/>
	<circle cx="309.898" cy="971.231" r="4" fill="#0" id="circle114"/>
	<circle cx="314.851" cy="10.1923" r="4" fill="#0" id="circle115"/>
	<circle cx="318.567" cy="214.537" r="4" fill="#0" id="circle116"/>
	<circle cx="321.044" cy="122.891" r="4" fill="#0" id="circle117"/>
	<circle cx="322.282" cy="971.231" r="4" fill="#0" id="circle118"/>
	<circle cx="325.998" cy="16.3845" r="4" fill="#0" id="circle119"/>
	<circle cx="330.951" cy="215.775" r="4" fill="#0" id="circle120"/>
	<circle cx="332.19" cy="129.084" r="4" fill="#0" id="circle121"/>
	<circle cx="334.667" cy="971.231" r="4" fill="#0" id="circle122"/>
	<circle cx="338.382" cy="18.8614" r="4" fill="#0" id="circle123"/>
	<circle cx="343.336" cy="135.276" r="4" fill="#0" id="circle124"/>
	<circle cx="343.336" cy="220.729" r="4" fill="#0" id="circle125"/>
	<circle cx="345.813" cy="28.769" r="4" fill="#0" id="circle126"/>
	<circle cx="347.051" cy="971.231" r="4" fill="#0" id="circle127"/>
	<circle cx="352.005" cy="145.184" r="4" fill="#0" id="circle128"/>
	<circle cx="354.482" cy="226.921" r="4" fill="#0" id="circle129"/>
	<circle cx="358.197" cy="32.4844" r="4" fill="#0" id="circle130"/>
	<circle cx="359.436" cy="971.231" r="4" fill="#0" id="circle131"/>
	<circle cx="361.913" cy="153.853" r="4" fill="#0" id="circle132"/>
	<circle cx="366.866" cy="42.392" r="4" fill="#0" id="circle133"/>
	<circle cx="366.866" cy="226.921" r="4" fill="#0" id="circle134"/>
	<circle cx="369.343" cy="163.76" r="4" fill="#0" id="circle135"/>
	<circle cx="371.82" cy="971.231" r="4" fill="#0" id="circle136"/>
	<circle cx="375.536" cy="174.906" r="4" fill="#0" id="circle137"/>
	<circle cx="376.774" cy="51.0612" r="4" fill="#0" id="circle138"/>
	<circle cx="379.251" cy="226.921" r="4" fill="#0" id="circle139"/>
	<circle cx="381.728" cy="186.052" r="4" fill="#0" id="circle140"/>
	<circle cx="384.205" cy="971.231" r="4" fill="#0" id="circle141"/>
	<circle cx="385.443" cy="60.9688" r="4" fill="#0" id="circle142"/>
	<circle cx="387.92" cy="197.199" r="4" fill="#0" id="circle143"/>
	<circle cx="387.92" cy="209.583" r="4" fill="#0" id="circle144"/>
	<circle cx="390.397" cy="233.114" r="4" fill="#0" id="circle145"/>
	<circle cx="394.112" cy="220.729" r="4" fill="#0" id="circle146"/>
	<circle cx="395.351" cy="69.638" r="4" fill="#0" id="circle147"/>
	<circle cx="396.589" cy="971.231" r="4" fill="#0" id="circle148"/>
	<circle cx="400.305" cy="82.0225" r="4" fill="#0" id="circle149"/>
	<circle cx="401.543" cy="94.407" r="4" fill="#0" id="circle150"/>
	<circle cx="401.543" cy="106.792" r="4" fill="#0" id="circle151"/>
	<circle cx="406.497" cy="119.176" r="4" fill="#0" id="circle152"/>
	<circle cx="407.735" cy="131.561" r="4" fill="#0" id="circle153"/>
	<circle cx="407.735" cy="143.945" r="4" fill="#0" id="circle154"/>
	<circle cx="407.735" cy="156.33" r="4" fill="#0" id="circle155"/>
	<circle cx="408.974" cy="971.231" r="4" fill="#0" id="circle156"/>
	<circle cx="418.881" cy="150.137" r="4" fill="#0" id="circle157"/>
	<circle cx="420.12" cy="965.039" r="4" fill="#0" id="circle158"/>
	<circle cx="425.074" cy="131.561" r="4" fill="#0" id="circle159"/>
	<circle cx="432.504" cy="967.516" r="4" fill="#0" id="circle160"/>
	<circle cx="434.981" cy="121.653" r="4" fill="#0" id="circle161"/>
	<circle cx="441.174" cy="109.268" r="4" fill="#0" id="circle162"/>
	<circle cx="441.174" cy="977.423" r="4" fill="#0" id="circle163"/>
	<circle cx="444.889" cy="221.968" r="4" fill="#0" id="circle164"/>
	<circle cx="444.889" cy="234.352" r="4" fill="#0" id="circle165"/>
	<circle cx="444.889" cy="246.737" r="4" fill="#0" id="circle166"/>
	<circle cx="451.081" cy="99.3608" r="4" fill="#0" id="circle167"/>
	<circle cx="451.081" cy="178.622" r="4" fill="#0" id="circle168"/>
	<circle cx="451.081" cy="191.006" r="4" fill="#0" id="circle169"/>
	<circle cx="451.081" cy="203.391" r="4" fill="#0" id="circle170"/>
	<circle cx="453.558" cy="982.377" r="4" fill="#0" id="circle171"/>
	<circle cx="457.273" cy="160.045" r="4" fill="#0" id="circle172"/>
	<circle cx="457.273" cy="251.69" r="4" fill="#0" id="circle173"/>
	<circle cx="460.989" cy="90.6916" r="4" fill="#0" id="circle174"/>
	<circle cx="463.466" cy="147.66" r="4" fill="#0" id="circle175"/>
	<circle cx="464.704" cy="988.569" r="4" fill="#0" id="circle176"/>
	<circle cx="468.419" cy="243.021" r="4" fill="#0" id="circle177"/>
	<circle cx="469.658" cy="80.784" r="4" fill="#0" id="circle178"/>
	<circle cx="469.658" cy="135.276" r="4" fill="#0" id="circle179"/>
	<circle cx="477.089" cy="989.808" r="4" fill="#0" id="circle180"/>
	<circle cx="479.566" cy="72.1149" r="4" fill="#0" id="circle181"/>
	<circle cx="479.566" cy="126.607" r="4" fill="#0" id="circle182"/>
	<circle cx="480.804" cy="239.306" r="4" fill="#0" id="circle183"/>
	<circle cx="488.235" cy="116.699" r="4" fill="#0" id="circle184"/>
	<circle cx="489.473" cy="989.808" r="4" fill="#0" id="circle185"/>
	<circle cx="490.712" cy="65.9226" r="4" fill="#0" id="circle186"/>
	<circle cx="491.95" cy="233.114" r="4" fill="#0" id="circle187"/>
	<circle cx="498.142" cy="108.03" r="4" fill="#0" id="circle188"/>
	<circle cx="501.858" cy="993.523" r="4" fill="#0" id="circle189"/>
	<circle cx="503.096" cy="65.9226" r="4" fill="#0" id="circle190"/>
	<circle cx="503.096" cy="226.921" r="4" fill="#0" id="circle191"/>
	<circle cx="506.811" cy="98.1223" r="4" fill="#0" id="circle192"/>
	<circle cx="514.242" cy="59.7303" r="4" fill="#0" id="circle193"/>
	<circle cx="514.242" cy="996" r="4" fill="#0" id="circle194"/>
	<circle cx="515.481" cy="226.921" r="4" fill="#0" id="circle195"/>
	<circle cx="516.719" cy="89.4532" r="4" fill="#0" id="circle196"/>
	<circle cx="525.388" cy="53.5381" r="4" fill="#0" id="circle197"/>
	<circle cx="525.388" cy="79.5456" r="4" fill="#0" id="circle198"/>
	<circle cx="526.627" cy="996" r="4" fill="#0" id="circle199"/>
	<circle cx="527.865" cy="226.921" r="4" fill="#0" id="circle200"/>
	<circle cx="536.534" cy="73.3533" r="4" fill="#0" id="circle201"/>
	<circle cx="537.773" cy="49.8227" r="4" fill="#0" id="circle202"/>
	<circle cx="539.011" cy="996" r="4" fill="#0" id="circle203"/>
	<circle cx="540.25" cy="220.729" r="4" fill="#0" id="circle204"/>
	<circle cx="546.442" cy="65.9226" r="4" fill="#0" id="circle205"/>
	<circle cx="550.157" cy="47.3458" r="4" fill="#0" id="circle206"/>
	<circle cx="551.396" cy="996" r="4" fill="#0" id="circle207"/>
	<circle cx="552.634" cy="220.729" r="4" fill="#0" id="circle208"/>
	<circle cx="558.826" cy="60.9688" r="4" fill="#0" id="circle209"/>
	<circle cx="562.542" cy="43.6305" r="4" fill="#0" id="circle210"/>
	<circle cx="563.78" cy="996" r="4" fill="#0" id="circle211"/>
	<circle cx="565.019" cy="220.729" r="4" fill="#0" id="circle212"/>
	<circle cx="576.165" cy="996" r="4" fill="#0" id="circle213"/>
	<circle cx="577.403" cy="220.729" r="4" fill="#0" id="circle214"/>
	<circle cx="588.549" cy="996" r="4" fill="#0" id="circle215"/>
	<circle cx="589.788" cy="220.729" r="4" fill="#0" id="circle216"/>
	<circle cx="600.934" cy="996" r="4" fill="#0" id="circle217"/>
	<circle cx="602.172" cy="220.729" r="4" fill="#0" id="circle218"/>
	<circle cx="613.318" cy="996" r="4" fill="#0" id="circle219"/>
	<circle cx="614.557" cy="220.729" r="4" fill="#0" id="circle220"/>
	<circle cx="625.703" cy="226.921" r="4" fill="#0" id="circle221"/>
	<circle cx="625.703" cy="996" r="4" fill="#0" id="circle222"/>
	<circle cx="638.087" cy="226.921" r="4" fill="#0" id="circle223"/>
	<circle cx="638.087" cy="996" r="4" fill="#0" id="circle224"/>
	<circle cx="649.233" cy="989.808" r="4" fill="#0" id="circle225"/>
	<circle cx="650.472" cy="226.921" r="4" fill="#0" id="circle226"/>
	<circle cx="661.618" cy="233.114" r="4" fill="#0" id="circle227"/>
	<circle cx="661.618" cy="989.808" r="4" fill="#0" id="circle228"/>
	<circle cx="674.002" cy="233.114" r="4" fill="#0" id="circle229"/>
	<circle cx="674.002" cy="989.808" r="4" fill="#0" id="circle230"/>
	<circle cx="685.149" cy="239.306" r="4" fill="#0" id="circle231"/>
	<circle cx="686.387" cy="983.615" r="4" fill="#0" id="circle232"/>
	<circle cx="697.533" cy="241.783" r="4" fill="#0" id="circle233"/>
	<circle cx="698.772" cy="983.615" r="4" fill="#0" id="circle234"/>
	<circle cx="709.918" cy="245.498" r="4" fill="#0" id="circle235"/>
	<circle cx="711.156" cy="977.423" r="4" fill="#0" id="circle236"/>
	<circle cx="722.302" cy="247.975" r="4" fill="#0" id="circle237"/>
	<circle cx="723.541" cy="971.231" r="4" fill="#0" id="circle238"/>
	<circle cx="733.448" cy="254.167" r="4" fill="#0" id="circle239"/>
	<circle cx="735.925" cy="971.231" r="4" fill="#0" id="circle240"/>
	<circle cx="742.117" cy="264.075" r="4" fill="#0" id="circle241"/>
	<circle cx="747.071" cy="965.039" r="4" fill="#0" id="circle242"/>
	<circle cx="752.025" cy="271.506" r="4" fill="#0" id="circle243"/>
	<circle cx="758.217" cy="958.846" r="4" fill="#0" id="circle244"/>
	<circle cx="763.171" cy="277.698" r="4" fill="#0" id="circle245"/>
	<circle cx="769.363" cy="952.654" r="4" fill="#0" id="circle246"/>
	<circle cx="775.556" cy="282.652" r="4" fill="#0" id="circle247"/>
	<circle cx="780.509" cy="946.462" r="4" fill="#0" id="circle248"/>
	<circle cx="786.702" cy="288.844" r="4" fill="#0" id="circle249"/>
	<circle cx="790.417" cy="936.554" r="4" fill="#0" id="circle250"/>
	<circle cx="797.848" cy="295.036" r="4" fill="#0" id="circle251"/>
	<circle cx="802.801" cy="930.362" r="4" fill="#0" id="circle252"/>
	<circle cx="808.994" cy="301.228" r="4" fill="#0" id="circle253"/>
	<circle cx="815.186" cy="924.17" r="4" fill="#0" id="circle254"/>
	<circle cx="818.901" cy="308.659" r="4" fill="#0" id="circle255"/>
	<circle cx="825.094" cy="914.262" r="4" fill="#0" id="circle256"/>
	<circle cx="828.809" cy="317.328" r="4" fill="#0" id="circle257"/>
	<circle cx="835.001" cy="903.116" r="4" fill="#0" id="circle258"/>
	<circle cx="837.478" cy="327.236" r="4" fill="#0" id="circle259"/>
	<circle cx="844.909" cy="894.447" r="4" fill="#0" id="circle260"/>
	<circle cx="847.386" cy="335.905" r="4" fill="#0" id="circle261"/>
	<circle cx="852.34" cy="348.29" r="4" fill="#0" id="circle262"/>
	<circle cx="853.578" cy="872.155" r="4" fill="#0" id="circle263"/>
	<circle cx="853.578" cy="884.539" r="4" fill="#0" id="circle264"/>
	<circle cx="858.532" cy="359.436" r="4" fill="#0" id="circle265"/>
	<circle cx="859.77" cy="371.82" r="4" fill="#0" id="circle266"/>
	<circle cx="859.77" cy="859.77" r="4" fill="#0" id="circle267"/>
	<circle cx="865.963" cy="382.966" r="4" fill="#0" id="circle268"/>
	<circle cx="868.439" cy="395.351" r="4" fill="#0" id="circle269"/>
	<circle cx="869.678" cy="851.101" r="4" fill="#0" id="circle270"/>
	<circle cx="872.155" cy="407.735" r="4" fill="#0" id="circle271"/>
	<circle cx="872.155" cy="835.001" r="4" fill="#0" id="circle272"/>
	<circle cx="878.347" cy="418.881" r="4" fill="#0" id="circle273"/>
	<circle cx="878.347" cy="431.266" r="4" fill="#0" id="circle274"/>
	<circle cx="878.347" cy="443.65" r="4" fill="#0" id="circle275"/>
	<circle cx="878.347" cy="816.424" r="4" fill="#0" id="circle276"/>
	<circle cx="884.539" cy="454.797" r="4" fill="#0" id="circle277"/>
	<circle cx="884.539" cy="467.181" r="4" fill="#0" id="circle278"/>
	<circle cx="884.539" cy="804.04" r="4" fill="#0" id="circle279"/>
	<circle cx="890.732" cy="478.327" r="4" fill="#0" id="circle280"/>
	<circle cx="890.732" cy="490.712" r="4" fill="#0" id="circle281"/>
	<circle cx="890.732" cy="779.271" r="4" fill="#0" id="circle282"/>
	<circle cx="890.732" cy="791.655" r="4" fill="#0" id="circle283"/>
	<circle cx="896.924" cy="501.858" r="4" fill="#0" id="circle284"/>
	<circle cx="896.924" cy="514.242" r="4" fill="#0" id="circle285"/>
	<circle cx="896.924" cy="748.31" r="4" fill="#0" id="circle286"/>
	<circle cx="896.924" cy="760.694" r="4" fill="#0" id="circle287"/>
	<circle cx="900.639" cy="526.627" r="4" fill="#0" id="circle288"/>
	<circle cx="903.116" cy="539.011" r="4" fill="#0" id="circle289"/>
	<circle cx="903.116" cy="551.396" r="4" fill="#0" id="circle290"/>
	<circle cx="903.116" cy="692.579" r="4" fill="#0" id="circle291"/>
	<circle cx="903.116" cy="704.964" r="4" fill="#0" id="circle292"/>
	<circle cx="903.116" cy="717.348" r="4" fill="#0" id="circle293"/>
	<circle cx="903.116" cy="729.733" r="4" fill="#0" id="circle294"/>
	<circle cx="909.308" cy="562.542" r="4" fill="#0" id="circle295"/>
	<circle cx="909.308" cy="574.926" r="4" fill="#0" id="circle296"/>
	<circle cx="909.308" cy="587.311" r="4" fill="#0" id="circle297"/>
	<circle cx="909.308" cy="599.695" r="4" fill="#0" id="circle298"/>
	<circle cx="909.308" cy="612.08" r="4" fill="#0" id="circle299"/>
	<circle cx="909.308" cy="624.464" r="4" fill="#0" id="circle300"/>
	<circle cx="909.308" cy="636.849" r="4" fill="#0" id="circle301"/>
	<circle cx="909.308" cy="649.233" r="4" fill="#0" id="circle302"/>
	<circle cx="909.308" cy="661.618" r="4" fill="#0" id="circle303"/>
	<circle cx="909.308" cy="674.002" r="4" fill="#0" id="circle304"/>
	</g>
</svg>