<?xml version="1.0" encoding="UTF-8" standalone="no"?>
<!-- Created with CurveBenchmark -->
<svg
	xmlns:dc="http://purl.org/dc/elements/1.1/"
	xmlns:cc="http://creativecommons.org/ns#"
	xmlns:rdf="http://www.w3.org/1999/02/22-rdf-syntax-ns#"
	xmlns:svg="http://www.w3.org/2000/svg"
	xmlns="http://www.w3.org/2000/svg"
	xmlns:sodipodi="http://sodipodi.sourceforge.net/DTD/sodipodi-0.dtd"
	xmlns:inkscape="http://www.inkscape.org/namespaces/inkscape"
	width="1000"
	height="1000"
	id="svg2"
	version="1.1"
	sodipodi:docname="manifold/crust-teddy005.png.txt">
<defs
	id="defs4" />
<metadata
	id="metadata7">
	<rdf:RDF>
		<cc:Work
			rdf:about="">
			<dc:format>image/svg+xml</dc:format>
			<dc:type
				rdf:resource="http://purl.org/dc/dcmitype/StillImage" />
			<dc:title></dc:title>
		</cc:Work>
	</rdf:RDF>
</metadata>
<g
	inkscape:label="Layer 1"
	inkscape:groupmode="layer"
	id="layer1">
	<path style="fill:none;stroke:red;stroke-width:1px;stroke-linecap:butt;stroke-linejoin:miter;stroke-opacity:1" d="M 49.2194,512.718 60.5242,478.803 z" id="boundary" inkscape:connector-curvature="0" />
	<path style="fill:none;stroke:red;stroke-width:1px;stroke-linecap:butt;stroke-linejoin:miter;stroke-opacity:1" d="M 77.4815,456.194 60.5242,478.803 z" id="boundary" inkscape:connector-curvature="0" />
	<path style="fill:none;stroke:red;stroke-width:1px;stroke-linecap:butt;stroke-linejoin:miter;stroke-opacity:1" d="M 77.4815,456.194 105.744,444.889 z" id="boundary" inkscape:connector-curvature="0" />
	<path style="fill:none;stroke:red;stroke-width:1px;stroke-linecap:butt;stroke-linejoin:miter;stroke-opacity:1" d="M 105.744,444.889 134.006,439.236 z" id="boundary" inkscape:connector-curvature="0" />
	<path style="fill:none;stroke:red;stroke-width:1px;stroke-linecap:butt;stroke-linejoin:miter;stroke-opacity:1" d="M 162.268,433.584 134.006,439.236 z" id="boundary" inkscape:connector-curvature="0" />
	<path style="fill:none;stroke:red;stroke-width:1px;stroke-linecap:butt;stroke-linejoin:miter;stroke-opacity:1" d="M 162.268,433.584 190.53,427.932 z" id="boundary" inkscape:connector-curvature="0" />
	<path style="fill:none;stroke:red;stroke-width:1px;stroke-linecap:butt;stroke-linejoin:miter;stroke-opacity:1" d="M 49.2194,540.98 49.2194,512.718 z" id="boundary" inkscape:connector-curvature="0" />
	<path style="fill:none;stroke:red;stroke-width:1px;stroke-linecap:butt;stroke-linejoin:miter;stroke-opacity:1" d="M 77.4815,591.852 60.5242,569.242 z" id="boundary" inkscape:connector-curvature="0" />
	<path style="fill:none;stroke:red;stroke-width:1px;stroke-linecap:butt;stroke-linejoin:miter;stroke-opacity:1" d="M 60.5242,569.242 49.2194,540.98 z" id="boundary" inkscape:connector-curvature="0" />
	<path style="fill:none;stroke:red;stroke-width:1px;stroke-linecap:butt;stroke-linejoin:miter;stroke-opacity:1" d="M 100.091,611.635 77.4815,591.852 z" id="boundary" inkscape:connector-curvature="0" />
	<path style="fill:none;stroke:red;stroke-width:1px;stroke-linecap:butt;stroke-linejoin:miter;stroke-opacity:1" d="M 125.527,625.766 100.091,611.635 z" id="boundary" inkscape:connector-curvature="0" />
	<path style="fill:none;stroke:red;stroke-width:1px;stroke-linecap:butt;stroke-linejoin:miter;stroke-opacity:1" d="M 150.963,639.897 125.527,625.766 z" id="boundary" inkscape:connector-curvature="0" />
	<path style="fill:none;stroke:red;stroke-width:1px;stroke-linecap:butt;stroke-linejoin:miter;stroke-opacity:1" d="M 179.225,645.55 150.963,639.897 z" id="boundary" inkscape:connector-curvature="0" />
	<path style="fill:none;stroke:red;stroke-width:1px;stroke-linecap:butt;stroke-linejoin:miter;stroke-opacity:1" d="M 309.231,54.8718 309.231,83.1339 z" id="boundary" inkscape:connector-curvature="0" />
	<path style="fill:none;stroke:red;stroke-width:1px;stroke-linecap:butt;stroke-linejoin:miter;stroke-opacity:1" d="M 309.231,111.396 309.231,83.1339 z" id="boundary" inkscape:connector-curvature="0" />
	<path style="fill:none;stroke:red;stroke-width:1px;stroke-linecap:butt;stroke-linejoin:miter;stroke-opacity:1" d="M 320.536,207.487 309.231,235.749 z" id="boundary" inkscape:connector-curvature="0" />
	<path style="fill:none;stroke:red;stroke-width:1px;stroke-linecap:butt;stroke-linejoin:miter;stroke-opacity:1" d="M 303.578,303.578 303.578,275.316 z" id="boundary" inkscape:connector-curvature="0" />
	<path style="fill:none;stroke:red;stroke-width:1px;stroke-linecap:butt;stroke-linejoin:miter;stroke-opacity:1" d="M 303.578,275.316 309.231,235.749 z" id="boundary" inkscape:connector-curvature="0" />
	<path style="fill:none;stroke:red;stroke-width:1px;stroke-linecap:butt;stroke-linejoin:miter;stroke-opacity:1" d="M 309.231,111.396 317.709,139.658 z" id="boundary" inkscape:connector-curvature="0" />
	<path style="fill:none;stroke:red;stroke-width:1px;stroke-linecap:butt;stroke-linejoin:miter;stroke-opacity:1" d="M 331.84,32.2621 354.45,15.3048 z" id="boundary" inkscape:connector-curvature="0" />
	<path style="fill:none;stroke:red;stroke-width:1px;stroke-linecap:butt;stroke-linejoin:miter;stroke-opacity:1" d="M 354.45,15.3048 382.712,9.65242 z" id="boundary" inkscape:connector-curvature="0" />
	<path style="fill:none;stroke:red;stroke-width:1px;stroke-linecap:butt;stroke-linejoin:miter;stroke-opacity:1" d="M 317.709,139.658 329.014,167.92 z" id="boundary" inkscape:connector-curvature="0" />
	<path style="fill:none;stroke:red;stroke-width:1px;stroke-linecap:butt;stroke-linejoin:miter;stroke-opacity:1" d="M 329.014,167.92 320.536,207.487 z" id="boundary" inkscape:connector-curvature="0" />
	<path style="fill:none;stroke:red;stroke-width:1px;stroke-linecap:butt;stroke-linejoin:miter;stroke-opacity:1" d="M 312.057,331.84 303.578,303.578 z" id="boundary" inkscape:connector-curvature="0" />
	<path style="fill:none;stroke:red;stroke-width:1px;stroke-linecap:butt;stroke-linejoin:miter;stroke-opacity:1" d="M 329.014,354.45 312.057,331.84 z" id="boundary" inkscape:connector-curvature="0" />
	<path style="fill:none;stroke:red;stroke-width:1px;stroke-linecap:butt;stroke-linejoin:miter;stroke-opacity:1" d="M 309.231,54.8718 331.84,32.2621 z" id="boundary" inkscape:connector-curvature="0" />
	<path style="fill:none;stroke:red;stroke-width:1px;stroke-linecap:butt;stroke-linejoin:miter;stroke-opacity:1" d="M 244.228,413.801 218.792,427.932 z" id="boundary" inkscape:connector-curvature="0" />
	<path style="fill:none;stroke:red;stroke-width:1px;stroke-linecap:butt;stroke-linejoin:miter;stroke-opacity:1" d="M 266.838,394.017 244.228,413.801 z" id="boundary" inkscape:connector-curvature="0" />
	<path style="fill:none;stroke:red;stroke-width:1px;stroke-linecap:butt;stroke-linejoin:miter;stroke-opacity:1" d="M 190.53,427.932 218.792,427.932 z" id="boundary" inkscape:connector-curvature="0" />
	<path style="fill:none;stroke:red;stroke-width:1px;stroke-linecap:butt;stroke-linejoin:miter;stroke-opacity:1" d="M 207.487,654.028 179.225,645.55 z" id="boundary" inkscape:connector-curvature="0" />
	<path style="fill:none;stroke:red;stroke-width:1px;stroke-linecap:butt;stroke-linejoin:miter;stroke-opacity:1" d="M 235.749,662.507 207.487,654.028 z" id="boundary" inkscape:connector-curvature="0" />
	<path style="fill:none;stroke:red;stroke-width:1px;stroke-linecap:butt;stroke-linejoin:miter;stroke-opacity:1" d="M 329.014,354.45 323.362,382.712 z" id="boundary" inkscape:connector-curvature="0" />
	<path style="fill:none;stroke:red;stroke-width:1px;stroke-linecap:butt;stroke-linejoin:miter;stroke-opacity:1" d="M 323.362,382.712 295.1,385.538 z" id="boundary" inkscape:connector-curvature="0" />
	<path style="fill:none;stroke:red;stroke-width:1px;stroke-linecap:butt;stroke-linejoin:miter;stroke-opacity:1" d="M 295.1,385.538 266.838,394.017 z" id="boundary" inkscape:connector-curvature="0" />
	<path style="fill:none;stroke:red;stroke-width:1px;stroke-linecap:butt;stroke-linejoin:miter;stroke-opacity:1" d="M 43.567,750.12 20.9573,767.077 z" id="boundary" inkscape:connector-curvature="0" />
	<path style="fill:none;stroke:red;stroke-width:1px;stroke-linecap:butt;stroke-linejoin:miter;stroke-opacity:1" d="M 66.1766,733.162 43.567,750.12 z" id="boundary" inkscape:connector-curvature="0" />
	<path style="fill:none;stroke:red;stroke-width:1px;stroke-linecap:butt;stroke-linejoin:miter;stroke-opacity:1" d="M 94.4387,727.51 66.1766,733.162 z" id="boundary" inkscape:connector-curvature="0" />
	<path style="fill:none;stroke:red;stroke-width:1px;stroke-linecap:butt;stroke-linejoin:miter;stroke-opacity:1" d="M 4,840.558 9.65242,812.296 z" id="boundary" inkscape:connector-curvature="0" />
	<path style="fill:none;stroke:red;stroke-width:1px;stroke-linecap:butt;stroke-linejoin:miter;stroke-opacity:1" d="M 4,868.821 4,840.558 z" id="boundary" inkscape:connector-curvature="0" />
	<path style="fill:none;stroke:red;stroke-width:1px;stroke-linecap:butt;stroke-linejoin:miter;stroke-opacity:1" d="M 9.65242,812.296 20.9573,767.077 z" id="boundary" inkscape:connector-curvature="0" />
	<path style="fill:none;stroke:red;stroke-width:1px;stroke-linecap:butt;stroke-linejoin:miter;stroke-opacity:1" d="M 122.701,727.51 150.963,727.51 z" id="boundary" inkscape:connector-curvature="0" />
	<path style="fill:none;stroke:red;stroke-width:1px;stroke-linecap:butt;stroke-linejoin:miter;stroke-opacity:1" d="M 94.4387,727.51 122.701,727.51 z" id="boundary" inkscape:connector-curvature="0" />
	<path style="fill:none;stroke:red;stroke-width:1px;stroke-linecap:butt;stroke-linejoin:miter;stroke-opacity:1" d="M 150.963,727.51 179.225,730.336 z" id="boundary" inkscape:connector-curvature="0" />
	<path style="fill:none;stroke:red;stroke-width:1px;stroke-linecap:butt;stroke-linejoin:miter;stroke-opacity:1" d="M 4,868.821 9.65242,897.083 z" id="boundary" inkscape:connector-curvature="0" />
	<path style="fill:none;stroke:red;stroke-width:1px;stroke-linecap:butt;stroke-linejoin:miter;stroke-opacity:1" d="M 9.65242,897.083 9.65242,925.345 z" id="boundary" inkscape:connector-curvature="0" />
	<path style="fill:none;stroke:red;stroke-width:1px;stroke-linecap:butt;stroke-linejoin:miter;stroke-opacity:1" d="M 9.65242,925.345 26.6097,947.954 z" id="boundary" inkscape:connector-curvature="0" />
	<path style="fill:none;stroke:red;stroke-width:1px;stroke-linecap:butt;stroke-linejoin:miter;stroke-opacity:1" d="M 46.3932,970.564 26.6097,947.954 z" id="boundary" inkscape:connector-curvature="0" />
	<path style="fill:none;stroke:red;stroke-width:1px;stroke-linecap:butt;stroke-linejoin:miter;stroke-opacity:1" d="M 71.8291,984.695 46.3932,970.564 z" id="boundary" inkscape:connector-curvature="0" />
	<path style="fill:none;stroke:red;stroke-width:1px;stroke-linecap:butt;stroke-linejoin:miter;stroke-opacity:1" d="M 71.8291,984.695 100.091,990.348 z" id="boundary" inkscape:connector-curvature="0" />
	<path style="fill:none;stroke:red;stroke-width:1px;stroke-linecap:butt;stroke-linejoin:miter;stroke-opacity:1" d="M 128.353,996 100.091,990.348 z" id="boundary" inkscape:connector-curvature="0" />
	<path style="fill:none;stroke:red;stroke-width:1px;stroke-linecap:butt;stroke-linejoin:miter;stroke-opacity:1" d="M 156.615,996 128.353,996 z" id="boundary" inkscape:connector-curvature="0" />
	<path style="fill:none;stroke:red;stroke-width:1px;stroke-linecap:butt;stroke-linejoin:miter;stroke-opacity:1" d="M 179.225,730.336 207.487,733.162 z" id="boundary" inkscape:connector-curvature="0" />
	<path style="fill:none;stroke:red;stroke-width:1px;stroke-linecap:butt;stroke-linejoin:miter;stroke-opacity:1" d="M 207.487,733.162 235.749,727.51 z" id="boundary" inkscape:connector-curvature="0" />
	<path style="fill:none;stroke:red;stroke-width:1px;stroke-linecap:butt;stroke-linejoin:miter;stroke-opacity:1" d="M 264.011,716.205 235.749,727.51 z" id="boundary" inkscape:connector-curvature="0" />
	<path style="fill:none;stroke:red;stroke-width:1px;stroke-linecap:butt;stroke-linejoin:miter;stroke-opacity:1" d="M 280.969,682.291 264.011,716.205 z" id="boundary" inkscape:connector-curvature="0" />
	<path style="fill:none;stroke:red;stroke-width:1px;stroke-linecap:butt;stroke-linejoin:miter;stroke-opacity:1" d="M 280.969,682.291 264.011,656.855 z" id="boundary" inkscape:connector-curvature="0" />
	<path style="fill:none;stroke:red;stroke-width:1px;stroke-linecap:butt;stroke-linejoin:miter;stroke-opacity:1" d="M 235.749,662.507 264.011,656.855 z" id="boundary" inkscape:connector-curvature="0" />
	<path style="fill:none;stroke:red;stroke-width:1px;stroke-linecap:butt;stroke-linejoin:miter;stroke-opacity:1" d="M 297.926,967.738 269.664,973.39 z" id="boundary" inkscape:connector-curvature="0" />
	<path style="fill:none;stroke:red;stroke-width:1px;stroke-linecap:butt;stroke-linejoin:miter;stroke-opacity:1" d="M 269.664,973.39 241.402,979.043 z" id="boundary" inkscape:connector-curvature="0" />
	<path style="fill:none;stroke:red;stroke-width:1px;stroke-linecap:butt;stroke-linejoin:miter;stroke-opacity:1" d="M 213.14,990.348 184.877,996 z" id="boundary" inkscape:connector-curvature="0" />
	<path style="fill:none;stroke:red;stroke-width:1px;stroke-linecap:butt;stroke-linejoin:miter;stroke-opacity:1" d="M 241.402,979.043 213.14,990.348 z" id="boundary" inkscape:connector-curvature="0" />
	<path style="fill:none;stroke:red;stroke-width:1px;stroke-linecap:butt;stroke-linejoin:miter;stroke-opacity:1" d="M 297.926,967.738 326.188,973.39 z" id="boundary" inkscape:connector-curvature="0" />
	<path style="fill:none;stroke:red;stroke-width:1px;stroke-linecap:butt;stroke-linejoin:miter;stroke-opacity:1" d="M 184.877,996 156.615,996 z" id="boundary" inkscape:connector-curvature="0" />
	<path style="fill:none;stroke:red;stroke-width:1px;stroke-linecap:butt;stroke-linejoin:miter;stroke-opacity:1" d="M 354.45,973.39 382.712,976.217 z" id="boundary" inkscape:connector-curvature="0" />
	<path style="fill:none;stroke:red;stroke-width:1px;stroke-linecap:butt;stroke-linejoin:miter;stroke-opacity:1" d="M 326.188,973.39 354.45,973.39 z" id="boundary" inkscape:connector-curvature="0" />
	<path style="fill:none;stroke:red;stroke-width:1px;stroke-linecap:butt;stroke-linejoin:miter;stroke-opacity:1" d="M 382.712,976.217 410.974,979.043 z" id="boundary" inkscape:connector-curvature="0" />
	<path style="fill:none;stroke:red;stroke-width:1px;stroke-linecap:butt;stroke-linejoin:miter;stroke-opacity:1" d="M 410.974,4 439.236,12.4786 z" id="boundary" inkscape:connector-curvature="0" />
	<path style="fill:none;stroke:red;stroke-width:1px;stroke-linecap:butt;stroke-linejoin:miter;stroke-opacity:1" d="M 546.632,43.567 518.37,37.9145 z" id="boundary" inkscape:connector-curvature="0" />
	<path style="fill:none;stroke:red;stroke-width:1px;stroke-linecap:butt;stroke-linejoin:miter;stroke-opacity:1" d="M 410.974,4 382.712,9.65242 z" id="boundary" inkscape:connector-curvature="0" />
	<path style="fill:none;stroke:red;stroke-width:1px;stroke-linecap:butt;stroke-linejoin:miter;stroke-opacity:1" d="M 464.672,26.6097 439.236,12.4786 z" id="boundary" inkscape:connector-curvature="0" />
	<path style="fill:none;stroke:red;stroke-width:1px;stroke-linecap:butt;stroke-linejoin:miter;stroke-opacity:1" d="M 490.108,40.7407 464.672,26.6097 z" id="boundary" inkscape:connector-curvature="0" />
	<path style="fill:none;stroke:red;stroke-width:1px;stroke-linecap:butt;stroke-linejoin:miter;stroke-opacity:1" d="M 518.37,37.9145 490.108,40.7407 z" id="boundary" inkscape:connector-curvature="0" />
	<path style="fill:none;stroke:red;stroke-width:1px;stroke-linecap:butt;stroke-linejoin:miter;stroke-opacity:1" d="M 574.895,43.567 546.632,43.567 z" id="boundary" inkscape:connector-curvature="0" />
	<path style="fill:none;stroke:red;stroke-width:1px;stroke-linecap:butt;stroke-linejoin:miter;stroke-opacity:1" d="M 603.157,37.9145 574.895,43.567 z" id="boundary" inkscape:connector-curvature="0" />
	<path style="fill:none;stroke:red;stroke-width:1px;stroke-linecap:butt;stroke-linejoin:miter;stroke-opacity:1" d="M 628.593,23.7835 603.157,37.9145 z" id="boundary" inkscape:connector-curvature="0" />
	<path style="fill:none;stroke:red;stroke-width:1px;stroke-linecap:butt;stroke-linejoin:miter;stroke-opacity:1" d="M 656.855,12.4786 628.593,23.7835 z" id="boundary" inkscape:connector-curvature="0" />
	<path style="fill:none;stroke:red;stroke-width:1px;stroke-linecap:butt;stroke-linejoin:miter;stroke-opacity:1" d="M 656.855,12.4786 685.117,6.82621 z" id="boundary" inkscape:connector-curvature="0" />
	<path style="fill:none;stroke:red;stroke-width:1px;stroke-linecap:butt;stroke-linejoin:miter;stroke-opacity:1" d="M 685.117,6.82621 713.379,4 z" id="boundary" inkscape:connector-curvature="0" />
	<path style="fill:none;stroke:red;stroke-width:1px;stroke-linecap:butt;stroke-linejoin:miter;stroke-opacity:1" d="M 741.641,15.3048 713.379,4 z" id="boundary" inkscape:connector-curvature="0" />
	<path style="fill:none;stroke:red;stroke-width:1px;stroke-linecap:butt;stroke-linejoin:miter;stroke-opacity:1" d="M 784.034,52.0456 769.903,26.6097 z" id="boundary" inkscape:connector-curvature="0" />
	<path style="fill:none;stroke:red;stroke-width:1px;stroke-linecap:butt;stroke-linejoin:miter;stroke-opacity:1" d="M 769.903,26.6097 741.641,15.3048 z" id="boundary" inkscape:connector-curvature="0" />
	<path style="fill:none;stroke:red;stroke-width:1px;stroke-linecap:butt;stroke-linejoin:miter;stroke-opacity:1" d="M 786.86,83.1339 784.034,52.0456 z" id="boundary" inkscape:connector-curvature="0" />
	<path style="fill:none;stroke:red;stroke-width:1px;stroke-linecap:butt;stroke-linejoin:miter;stroke-opacity:1" d="M 769.903,145.311 758.598,173.573 z" id="boundary" inkscape:connector-curvature="0" />
	<path style="fill:none;stroke:red;stroke-width:1px;stroke-linecap:butt;stroke-linejoin:miter;stroke-opacity:1" d="M 781.208,117.048 769.903,145.311 z" id="boundary" inkscape:connector-curvature="0" />
	<path style="fill:none;stroke:red;stroke-width:1px;stroke-linecap:butt;stroke-linejoin:miter;stroke-opacity:1" d="M 786.86,83.1339 781.208,117.048 z" id="boundary" inkscape:connector-curvature="0" />
	<path style="fill:none;stroke:red;stroke-width:1px;stroke-linecap:butt;stroke-linejoin:miter;stroke-opacity:1" d="M 758.598,173.573 761.425,201.835 z" id="boundary" inkscape:connector-curvature="0" />
	<path style="fill:none;stroke:red;stroke-width:1px;stroke-linecap:butt;stroke-linejoin:miter;stroke-opacity:1" d="M 735.989,343.145 747.293,314.883 z" id="boundary" inkscape:connector-curvature="0" />
	<path style="fill:none;stroke:red;stroke-width:1px;stroke-linecap:butt;stroke-linejoin:miter;stroke-opacity:1" d="M 764.251,230.097 758.598,280.969 z" id="boundary" inkscape:connector-curvature="0" />
	<path style="fill:none;stroke:red;stroke-width:1px;stroke-linecap:butt;stroke-linejoin:miter;stroke-opacity:1" d="M 758.598,280.969 747.293,314.883 z" id="boundary" inkscape:connector-curvature="0" />
	<path style="fill:none;stroke:red;stroke-width:1px;stroke-linecap:butt;stroke-linejoin:miter;stroke-opacity:1" d="M 735.989,343.145 719.031,371.407 z" id="boundary" inkscape:connector-curvature="0" />
	<path style="fill:none;stroke:red;stroke-width:1px;stroke-linecap:butt;stroke-linejoin:miter;stroke-opacity:1" d="M 747.293,382.712 719.031,371.407 z" id="boundary" inkscape:connector-curvature="0" />
	<path style="fill:none;stroke:red;stroke-width:1px;stroke-linecap:butt;stroke-linejoin:miter;stroke-opacity:1" d="M 795.339,413.801 772.729,396.843 z" id="boundary" inkscape:connector-curvature="0" />
	<path style="fill:none;stroke:red;stroke-width:1px;stroke-linecap:butt;stroke-linejoin:miter;stroke-opacity:1" d="M 772.729,396.843 747.293,382.712 z" id="boundary" inkscape:connector-curvature="0" />
	<path style="fill:none;stroke:red;stroke-width:1px;stroke-linecap:butt;stroke-linejoin:miter;stroke-opacity:1" d="M 764.251,230.097 761.425,201.835 z" id="boundary" inkscape:connector-curvature="0" />
	<path style="fill:none;stroke:red;stroke-width:1px;stroke-linecap:butt;stroke-linejoin:miter;stroke-opacity:1" d="M 410.974,979.043 439.236,984.695 z" id="boundary" inkscape:connector-curvature="0" />
	<path style="fill:none;stroke:red;stroke-width:1px;stroke-linecap:butt;stroke-linejoin:miter;stroke-opacity:1" d="M 495.761,990.348 467.499,990.348 z" id="boundary" inkscape:connector-curvature="0" />
	<path style="fill:none;stroke:red;stroke-width:1px;stroke-linecap:butt;stroke-linejoin:miter;stroke-opacity:1" d="M 467.499,990.348 439.236,984.695 z" id="boundary" inkscape:connector-curvature="0" />
	<path style="fill:none;stroke:red;stroke-width:1px;stroke-linecap:butt;stroke-linejoin:miter;stroke-opacity:1" d="M 495.761,990.348 524.023,996 z" id="boundary" inkscape:connector-curvature="0" />
	<path style="fill:none;stroke:red;stroke-width:1px;stroke-linecap:butt;stroke-linejoin:miter;stroke-opacity:1" d="M 524.023,996 552.285,996 z" id="boundary" inkscape:connector-curvature="0" />
	<path style="fill:none;stroke:red;stroke-width:1px;stroke-linecap:butt;stroke-linejoin:miter;stroke-opacity:1" d="M 552.285,996 580.547,996 z" id="boundary" inkscape:connector-curvature="0" />
	<path style="fill:none;stroke:red;stroke-width:1px;stroke-linecap:butt;stroke-linejoin:miter;stroke-opacity:1" d="M 580.547,996 608.809,996 z" id="boundary" inkscape:connector-curvature="0" />
	<path style="fill:none;stroke:red;stroke-width:1px;stroke-linecap:butt;stroke-linejoin:miter;stroke-opacity:1" d="M 608.809,996 637.071,996 z" id="boundary" inkscape:connector-curvature="0" />
	<path style="fill:none;stroke:red;stroke-width:1px;stroke-linecap:butt;stroke-linejoin:miter;stroke-opacity:1" d="M 665.333,996 637.071,996 z" id="boundary" inkscape:connector-curvature="0" />
	<path style="fill:none;stroke:red;stroke-width:1px;stroke-linecap:butt;stroke-linejoin:miter;stroke-opacity:1" d="M 693.595,996 665.333,996 z" id="boundary" inkscape:connector-curvature="0" />
	<path style="fill:none;stroke:red;stroke-width:1px;stroke-linecap:butt;stroke-linejoin:miter;stroke-opacity:1" d="M 716.205,979.043 693.595,996 z" id="boundary" inkscape:connector-curvature="0" />
	<path style="fill:none;stroke:red;stroke-width:1px;stroke-linecap:butt;stroke-linejoin:miter;stroke-opacity:1" d="M 724.684,676.638 724.684,704.9 z" id="boundary" inkscape:connector-curvature="0" />
	<path style="fill:none;stroke:red;stroke-width:1px;stroke-linecap:butt;stroke-linejoin:miter;stroke-opacity:1" d="M 747.293,659.681 772.729,645.55 z" id="boundary" inkscape:connector-curvature="0" />
	<path style="fill:none;stroke:red;stroke-width:1px;stroke-linecap:butt;stroke-linejoin:miter;stroke-opacity:1" d="M 724.684,676.638 747.293,659.681 z" id="boundary" inkscape:connector-curvature="0" />
	<path style="fill:none;stroke:red;stroke-width:1px;stroke-linecap:butt;stroke-linejoin:miter;stroke-opacity:1" d="M 730.336,733.162 724.684,704.9 z" id="boundary" inkscape:connector-curvature="0" />
	<path style="fill:none;stroke:red;stroke-width:1px;stroke-linecap:butt;stroke-linejoin:miter;stroke-opacity:1" d="M 795.339,413.801 815.123,436.41 z" id="boundary" inkscape:connector-curvature="0" />
	<path style="fill:none;stroke:red;stroke-width:1px;stroke-linecap:butt;stroke-linejoin:miter;stroke-opacity:1" d="M 832.08,459.02 846.211,484.456 z" id="boundary" inkscape:connector-curvature="0" />
	<path style="fill:none;stroke:red;stroke-width:1px;stroke-linecap:butt;stroke-linejoin:miter;stroke-opacity:1" d="M 832.08,459.02 815.123,436.41 z" id="boundary" inkscape:connector-curvature="0" />
	<path style="fill:none;stroke:red;stroke-width:1px;stroke-linecap:butt;stroke-linejoin:miter;stroke-opacity:1" d="M 846.211,484.456 849.037,535.328 z" id="boundary" inkscape:connector-curvature="0" />
	<path style="fill:none;stroke:red;stroke-width:1px;stroke-linecap:butt;stroke-linejoin:miter;stroke-opacity:1" d="M 795.339,628.593 772.729,645.55 z" id="boundary" inkscape:connector-curvature="0" />
	<path style="fill:none;stroke:red;stroke-width:1px;stroke-linecap:butt;stroke-linejoin:miter;stroke-opacity:1" d="M 834.906,583.373 817.949,605.983 z" id="boundary" inkscape:connector-curvature="0" />
	<path style="fill:none;stroke:red;stroke-width:1px;stroke-linecap:butt;stroke-linejoin:miter;stroke-opacity:1" d="M 817.949,605.983 795.339,628.593 z" id="boundary" inkscape:connector-curvature="0" />
	<path style="fill:none;stroke:red;stroke-width:1px;stroke-linecap:butt;stroke-linejoin:miter;stroke-opacity:1" d="M 834.906,583.373 849.037,535.328 z" id="boundary" inkscape:connector-curvature="0" />
	<path style="fill:none;stroke:red;stroke-width:1px;stroke-linecap:butt;stroke-linejoin:miter;stroke-opacity:1" d="M 730.336,784.034 735.989,812.296 z" id="boundary" inkscape:connector-curvature="0" />
	<path style="fill:none;stroke:red;stroke-width:1px;stroke-linecap:butt;stroke-linejoin:miter;stroke-opacity:1" d="M 730.336,784.034 730.336,733.162 z" id="boundary" inkscape:connector-curvature="0" />
	<path style="fill:none;stroke:red;stroke-width:1px;stroke-linecap:butt;stroke-linejoin:miter;stroke-opacity:1" d="M 741.641,840.558 735.989,812.296 z" id="boundary" inkscape:connector-curvature="0" />
	<path style="fill:none;stroke:red;stroke-width:1px;stroke-linecap:butt;stroke-linejoin:miter;stroke-opacity:1" d="M 747.293,868.821 741.641,840.558 z" id="boundary" inkscape:connector-curvature="0" />
	<path style="fill:none;stroke:red;stroke-width:1px;stroke-linecap:butt;stroke-linejoin:miter;stroke-opacity:1" d="M 738.815,962.085 716.205,979.043 z" id="boundary" inkscape:connector-curvature="0" />
	<path style="fill:none;stroke:red;stroke-width:1px;stroke-linecap:butt;stroke-linejoin:miter;stroke-opacity:1" d="M 741.641,930.997 738.815,962.085 z" id="boundary" inkscape:connector-curvature="0" />
	<path style="fill:none;stroke:red;stroke-width:1px;stroke-linecap:butt;stroke-linejoin:miter;stroke-opacity:1" d="M 741.641,930.997 741.641,902.735 z" id="boundary" inkscape:connector-curvature="0" />
	<path style="fill:none;stroke:red;stroke-width:1px;stroke-linecap:butt;stroke-linejoin:miter;stroke-opacity:1" d="M 741.641,902.735 747.293,868.821 z" id="boundary" inkscape:connector-curvature="0" />
	<circle cx="4" cy="840.558" r="4" fill="#0" id="circle0"/>
	<circle cx="4" cy="868.821" r="4" fill="#0" id="circle1"/>
	<circle cx="9.65242" cy="812.296" r="4" fill="#0" id="circle2"/>
	<circle cx="9.65242" cy="897.083" r="4" fill="#0" id="circle3"/>
	<circle cx="9.65242" cy="925.345" r="4" fill="#0" id="circle4"/>
	<circle cx="20.9573" cy="767.077" r="4" fill="#0" id="circle5"/>
	<circle cx="26.6097" cy="947.954" r="4" fill="#0" id="circle6"/>
	<circle cx="43.567" cy="750.12" r="4" fill="#0" id="circle7"/>
	<circle cx="46.3932" cy="970.564" r="4" fill="#0" id="circle8"/>
	<circle cx="49.2194" cy="512.718" r="4" fill="#0" id="circle9"/>
	<circle cx="49.2194" cy="540.98" r="4" fill="#0" id="circle10"/>
	<circle cx="60.5242" cy="478.803" r="4" fill="#0" id="circle11"/>
	<circle cx="60.5242" cy="569.242" r="4" fill="#0" id="circle12"/>
	<circle cx="66.1766" cy="733.162" r="4" fill="#0" id="circle13"/>
	<circle cx="71.8291" cy="984.695" r="4" fill="#0" id="circle14"/>
	<circle cx="77.4815" cy="456.194" r="4" fill="#0" id="circle15"/>
	<circle cx="77.4815" cy="591.852" r="4" fill="#0" id="circle16"/>
	<circle cx="94.4387" cy="727.51" r="4" fill="#0" id="circle17"/>
	<circle cx="100.091" cy="611.635" r="4" fill="#0" id="circle18"/>
	<circle cx="100.091" cy="990.348" r="4" fill="#0" id="circle19"/>
	<circle cx="105.744" cy="444.889" r="4" fill="#0" id="circle20"/>
	<circle cx="122.701" cy="727.51" r="4" fill="#0" id="circle21"/>
	<circle cx="125.527" cy="625.766" r="4" fill="#0" id="circle22"/>
	<circle cx="128.353" cy="996" r="4" fill="#0" id="circle23"/>
	<circle cx="134.006" cy="439.236" r="4" fill="#0" id="circle24"/>
	<circle cx="150.963" cy="639.897" r="4" fill="#0" id="circle25"/>
	<circle cx="150.963" cy="727.51" r="4" fill="#0" id="circle26"/>
	<circle cx="156.615" cy="996" r="4" fill="#0" id="circle27"/>
	<circle cx="162.268" cy="433.584" r="4" fill="#0" id="circle28"/>
	<circle cx="179.225" cy="645.55" r="4" fill="#0" id="circle29"/>
	<circle cx="179.225" cy="730.336" r="4" fill="#0" id="circle30"/>
	<circle cx="184.877" cy="996" r="4" fill="#0" id="circle31"/>
	<circle cx="190.53" cy="427.932" r="4" fill="#0" id="circle32"/>
	<circle cx="207.487" cy="654.028" r="4" fill="#0" id="circle33"/>
	<circle cx="207.487" cy="733.162" r="4" fill="#0" id="circle34"/>
	<circle cx="213.14" cy="990.348" r="4" fill="#0" id="circle35"/>
	<circle cx="218.792" cy="427.932" r="4" fill="#0" id="circle36"/>
	<circle cx="235.749" cy="662.507" r="4" fill="#0" id="circle37"/>
	<circle cx="235.749" cy="727.51" r="4" fill="#0" id="circle38"/>
	<circle cx="241.402" cy="979.043" r="4" fill="#0" id="circle39"/>
	<circle cx="244.228" cy="413.801" r="4" fill="#0" id="circle40"/>
	<circle cx="264.011" cy="656.855" r="4" fill="#0" id="circle41"/>
	<circle cx="264.011" cy="716.205" r="4" fill="#0" id="circle42"/>
	<circle cx="266.838" cy="394.017" r="4" fill="#0" id="circle43"/>
	<circle cx="269.664" cy="973.39" r="4" fill="#0" id="circle44"/>
	<circle cx="280.969" cy="682.291" r="4" fill="#0" id="circle45"/>
	<circle cx="295.1" cy="385.538" r="4" fill="#0" id="circle46"/>
	<circle cx="297.926" cy="967.738" r="4" fill="#0" id="circle47"/>
	<circle cx="303.578" cy="275.316" r="4" fill="#0" id="circle48"/>
	<circle cx="303.578" cy="303.578" r="4" fill="#0" id="circle49"/>
	<circle cx="309.231" cy="54.8718" r="4" fill="#0" id="circle50"/>
	<circle cx="309.231" cy="83.1339" r="4" fill="#0" id="circle51"/>
	<circle cx="309.231" cy="111.396" r="4" fill="#0" id="circle52"/>
	<circle cx="309.231" cy="235.749" r="4" fill="#0" id="circle53"/>
	<circle cx="312.057" cy="331.84" r="4" fill="#0" id="circle54"/>
	<circle cx="317.709" cy="139.658" r="4" fill="#0" id="circle55"/>
	<circle cx="320.536" cy="207.487" r="4" fill="#0" id="circle56"/>
	<circle cx="323.362" cy="382.712" r="4" fill="#0" id="circle57"/>
	<circle cx="326.188" cy="973.39" r="4" fill="#0" id="circle58"/>
	<circle cx="329.014" cy="167.92" r="4" fill="#0" id="circle59"/>
	<circle cx="329.014" cy="354.45" r="4" fill="#0" id="circle60"/>
	<circle cx="331.84" cy="32.2621" r="4" fill="#0" id="circle61"/>
	<circle cx="354.45" cy="15.3048" r="4" fill="#0" id="circle62"/>
	<circle cx="354.45" cy="973.39" r="4" fill="#0" id="circle63"/>
	<circle cx="382.712" cy="9.65242" r="4" fill="#0" id="circle64"/>
	<circle cx="382.712" cy="976.217" r="4" fill="#0" id="circle65"/>
	<circle cx="410.974" cy="4" r="4" fill="#0" id="circle66"/>
	<circle cx="410.974" cy="979.043" r="4" fill="#0" id="circle67"/>
	<circle cx="439.236" cy="12.4786" r="4" fill="#0" id="circle68"/>
	<circle cx="439.236" cy="984.695" r="4" fill="#0" id="circle69"/>
	<circle cx="464.672" cy="26.6097" r="4" fill="#0" id="circle70"/>
	<circle cx="467.499" cy="990.348" r="4" fill="#0" id="circle71"/>
	<circle cx="490.108" cy="40.7407" r="4" fill="#0" id="circle72"/>
	<circle cx="495.761" cy="990.348" r="4" fill="#0" id="circle73"/>
	<circle cx="518.37" cy="37.9145" r="4" fill="#0" id="circle74"/>
	<circle cx="524.023" cy="996" r="4" fill="#0" id="circle75"/>
	<circle cx="546.632" cy="43.567" r="4" fill="#0" id="circle76"/>
	<circle cx="552.285" cy="996" r="4" fill="#0" id="circle77"/>
	<circle cx="574.895" cy="43.567" r="4" fill="#0" id="circle78"/>
	<circle cx="580.547" cy="996" r="4" fill="#0" id="circle79"/>
	<circle cx="603.157" cy="37.9145" r="4" fill="#0" id="circle80"/>
	<circle cx="608.809" cy="996" r="4" fill="#0" id="circle81"/>
	<circle cx="628.593" cy="23.7835" r="4" fill="#0" id="circle82"/>
	<circle cx="637.071" cy="996" r="4" fill="#0" id="circle83"/>
	<circle cx="656.855" cy="12.4786" r="4" fill="#0" id="circle84"/>
	<circle cx="665.333" cy="996" r="4" fill="#0" id="circle85"/>
	<circle cx="685.117" cy="6.82621" r="4" fill="#0" id="circle86"/>
	<circle cx="693.595" cy="996" r="4" fill="#0" id="circle87"/>
	<circle cx="713.379" cy="4" r="4" fill="#0" id="circle88"/>
	<circle cx="716.205" cy="979.043" r="4" fill="#0" id="circle89"/>
	<circle cx="719.031" cy="371.407" r="4" fill="#0" id="circle90"/>
	<circle cx="724.684" cy="676.638" r="4" fill="#0" id="circle91"/>
	<circle cx="724.684" cy="704.9" r="4" fill="#0" id="circle92"/>
	<circle cx="730.336" cy="733.162" r="4" fill="#0" id="circle93"/>
	<circle cx="730.336" cy="784.034" r="4" fill="#0" id="circle94"/>
	<circle cx="735.989" cy="343.145" r="4" fill="#0" id="circle95"/>
	<circle cx="735.989" cy="812.296" r="4" fill="#0" id="circle96"/>
	<circle cx="738.815" cy="962.085" r="4" fill="#0" id="circle97"/>
	<circle cx="741.641" cy="15.3048" r="4" fill="#0" id="circle98"/>
	<circle cx="741.641" cy="840.558" r="4" fill="#0" id="circle99"/>
	<circle cx="741.641" cy="902.735" r="4" fill="#0" id="circle100"/>
	<circle cx="741.641" cy="930.997" r="4" fill="#0" id="circle101"/>
	<circle cx="747.293" cy="314.883" r="4" fill="#0" id="circle102"/>
	<circle cx="747.293" cy="382.712" r="4" fill="#0" id="circle103"/>
	<circle cx="747.293" cy="659.681" r="4" fill="#0" id="circle104"/>
	<circle cx="747.293" cy="868.821" r="4" fill="#0" id="circle105"/>
	<circle cx="758.598" cy="173.573" r="4" fill="#0" id="circle106"/>
	<circle cx="758.598" cy="280.969" r="4" fill="#0" id="circle107"/>
	<circle cx="761.425" cy="201.835" r="4" fill="#0" id="circle108"/>
	<circle cx="764.251" cy="230.097" r="4" fill="#0" id="circle109"/>
	<circle cx="769.903" cy="26.6097" r="4" fill="#0" id="circle110"/>
	<circle cx="769.903" cy="145.311" r="4" fill="#0" id="circle111"/>
	<circle cx="772.729" cy="396.843" r="4" fill="#0" id="circle112"/>
	<circle cx="772.729" cy="645.55" r="4" fill="#0" id="circle113"/>
	<circle cx="781.208" cy="117.048" r="4" fill="#0" id="circle114"/>
	<circle cx="784.034" cy="52.0456" r="4" fill="#0" id="circle115"/>
	<circle cx="786.86" cy="83.1339" r="4" fill="#0" id="circle116"/>
	<circle cx="795.339" cy="413.801" r="4" fill="#0" id="circle117"/>
	<circle cx="795.339" cy="628.593" r="4" fill="#0" id="circle118"/>
	<circle cx="815.123" cy="436.41" r="4" fill="#0" id="circle119"/>
	<circle cx="817.949" cy="605.983" r="4" fill="#0" id="circle120"/>
	<circle cx="832.08" cy="459.02" r="4" fill="#0" id="circle121"/>
	<circle cx="834.906" cy="583.373" r="4" fill="#0" id="circle122"/>
	<circle cx="846.211" cy="484.456" r="4" fill="#0" id="circle123"/>
	<circle cx="849.037" cy="535.328" r="4" fill="#0" id="circle124"/>
	</g>
</svg>