<?xml version="1.0" encoding="UTF-8" standalone="no"?>
<!-- Created with CurveBenchmark -->
<svg
	xmlns:dc="http://purl.org/dc/elements/1.1/"
	xmlns:cc="http://creativecommons.org/ns#"
	xmlns:rdf="http://www.w3.org/1999/02/22-rdf-syntax-ns#"
	xmlns:svg="http://www.w3.org/2000/svg"
	xmlns="http://www.w3.org/2000/svg"
	xmlns:sodipodi="http://sodipodi.sourceforge.net/DTD/sodipodi-0.dtd"
	xmlns:inkscape="http://www.inkscape.org/namespaces/inkscape"
	width="1000"
	height="1000"
	id="svg2"
	version="1.1"
	sodipodi:docname="manifold/crust-television185.png.txt">
<defs
	id="defs4" />
<metadata
	id="metadata7">
	<rdf:RDF>
		<cc:Work
			rdf:about="">
			<dc:format>image/svg+xml</dc:format>
			<dc:type
				rdf:resource="http://purl.org/dc/dcmitype/StillImage" />
			<dc:title></dc:title>
		</cc:Work>
	</rdf:RDF>
</metadata>
<g
	inkscape:label="Layer 1"
	inkscape:groupmode="layer"
	id="layer1">
	<path style="fill:none;stroke:red;stroke-width:1px;stroke-linecap:butt;stroke-linejoin:miter;stroke-opacity:1" d="M 137.603,4 104.202,10.6801 z" id="boundary" inkscape:connector-curvature="0" />
	<path style="fill:none;stroke:red;stroke-width:1px;stroke-linecap:butt;stroke-linejoin:miter;stroke-opacity:1" d="M 104.202,44.0808 104.202,10.6801 z" id="boundary" inkscape:connector-curvature="0" />
	<path style="fill:none;stroke:red;stroke-width:1px;stroke-linecap:butt;stroke-linejoin:miter;stroke-opacity:1" d="M 104.202,44.0808 104.202,77.4815 z" id="boundary" inkscape:connector-curvature="0" />
	<path style="fill:none;stroke:red;stroke-width:1px;stroke-linecap:butt;stroke-linejoin:miter;stroke-opacity:1" d="M 104.202,110.882 104.202,77.4815 z" id="boundary" inkscape:connector-curvature="0" />
	<path style="fill:none;stroke:red;stroke-width:1px;stroke-linecap:butt;stroke-linejoin:miter;stroke-opacity:1" d="M 104.202,144.283 104.202,110.882 z" id="boundary" inkscape:connector-curvature="0" />
	<path style="fill:none;stroke:red;stroke-width:1px;stroke-linecap:butt;stroke-linejoin:miter;stroke-opacity:1" d="M 104.202,144.283 104.202,177.684 z" id="boundary" inkscape:connector-curvature="0" />
	<path style="fill:none;stroke:red;stroke-width:1px;stroke-linecap:butt;stroke-linejoin:miter;stroke-opacity:1" d="M 137.603,4 171.003,4 z" id="boundary" inkscape:connector-curvature="0" />
	<path style="fill:none;stroke:red;stroke-width:1px;stroke-linecap:butt;stroke-linejoin:miter;stroke-opacity:1" d="M 204.404,4 237.805,4 z" id="boundary" inkscape:connector-curvature="0" />
	<path style="fill:none;stroke:red;stroke-width:1px;stroke-linecap:butt;stroke-linejoin:miter;stroke-opacity:1" d="M 171.003,4 204.404,4 z" id="boundary" inkscape:connector-curvature="0" />
	<path style="fill:none;stroke:red;stroke-width:1px;stroke-linecap:butt;stroke-linejoin:miter;stroke-opacity:1" d="M 104.202,177.684 104.202,211.084 z" id="boundary" inkscape:connector-curvature="0" />
	<path style="fill:none;stroke:red;stroke-width:1px;stroke-linecap:butt;stroke-linejoin:miter;stroke-opacity:1" d="M 104.202,211.084 104.202,244.485 z" id="boundary" inkscape:connector-curvature="0" />
	<path style="fill:none;stroke:red;stroke-width:1px;stroke-linecap:butt;stroke-linejoin:miter;stroke-opacity:1" d="M 104.202,277.886 104.202,244.485 z" id="boundary" inkscape:connector-curvature="0" />
	<path style="fill:none;stroke:red;stroke-width:1px;stroke-linecap:butt;stroke-linejoin:miter;stroke-opacity:1" d="M 104.202,311.286 104.202,277.886 z" id="boundary" inkscape:connector-curvature="0" />
	<path style="fill:none;stroke:red;stroke-width:1px;stroke-linecap:butt;stroke-linejoin:miter;stroke-opacity:1" d="M 104.202,344.687 104.202,311.286 z" id="boundary" inkscape:connector-curvature="0" />
	<path style="fill:none;stroke:red;stroke-width:1px;stroke-linecap:butt;stroke-linejoin:miter;stroke-opacity:1" d="M 104.202,378.088 104.202,344.687 z" id="boundary" inkscape:connector-curvature="0" />
	<path style="fill:none;stroke:red;stroke-width:1px;stroke-linecap:butt;stroke-linejoin:miter;stroke-opacity:1" d="M 241.145,448.229 207.744,448.229 z" id="boundary" inkscape:connector-curvature="0" />
	<path style="fill:none;stroke:red;stroke-width:1px;stroke-linecap:butt;stroke-linejoin:miter;stroke-opacity:1" d="M 104.202,411.488 104.202,378.088 z" id="boundary" inkscape:connector-curvature="0" />
	<path style="fill:none;stroke:red;stroke-width:1px;stroke-linecap:butt;stroke-linejoin:miter;stroke-opacity:1" d="M 104.202,411.488 107.542,444.889 z" id="boundary" inkscape:connector-curvature="0" />
	<path style="fill:none;stroke:red;stroke-width:1px;stroke-linecap:butt;stroke-linejoin:miter;stroke-opacity:1" d="M 107.542,444.889 140.943,448.229 z" id="boundary" inkscape:connector-curvature="0" />
	<path style="fill:none;stroke:red;stroke-width:1px;stroke-linecap:butt;stroke-linejoin:miter;stroke-opacity:1" d="M 107.542,558.451 140.943,558.451 z" id="boundary" inkscape:connector-curvature="0" />
	<path style="fill:none;stroke:red;stroke-width:1px;stroke-linecap:butt;stroke-linejoin:miter;stroke-opacity:1" d="M 64.1212,565.131 90.8418,588.512 z" id="boundary" inkscape:connector-curvature="0" />
	<path style="fill:none;stroke:red;stroke-width:1px;stroke-linecap:butt;stroke-linejoin:miter;stroke-opacity:1" d="M 90.8418,588.512 124.242,588.512 z" id="boundary" inkscape:connector-curvature="0" />
	<path style="fill:none;stroke:red;stroke-width:1px;stroke-linecap:butt;stroke-linejoin:miter;stroke-opacity:1" d="M 174.343,558.451 140.943,558.451 z" id="boundary" inkscape:connector-curvature="0" />
	<path style="fill:none;stroke:red;stroke-width:1px;stroke-linecap:butt;stroke-linejoin:miter;stroke-opacity:1" d="M 140.943,448.229 174.343,448.229 z" id="boundary" inkscape:connector-curvature="0" />
	<path style="fill:none;stroke:red;stroke-width:1px;stroke-linecap:butt;stroke-linejoin:miter;stroke-opacity:1" d="M 174.343,448.229 207.744,448.229 z" id="boundary" inkscape:connector-curvature="0" />
	<path style="fill:none;stroke:red;stroke-width:1px;stroke-linecap:butt;stroke-linejoin:miter;stroke-opacity:1" d="M 207.744,558.451 174.343,558.451 z" id="boundary" inkscape:connector-curvature="0" />
	<path style="fill:none;stroke:red;stroke-width:1px;stroke-linecap:butt;stroke-linejoin:miter;stroke-opacity:1" d="M 207.744,558.451 241.145,558.451 z" id="boundary" inkscape:connector-curvature="0" />
	<path style="fill:none;stroke:red;stroke-width:1px;stroke-linecap:butt;stroke-linejoin:miter;stroke-opacity:1" d="M 124.242,588.512 157.643,588.512 z" id="boundary" inkscape:connector-curvature="0" />
	<path style="fill:none;stroke:red;stroke-width:1px;stroke-linecap:butt;stroke-linejoin:miter;stroke-opacity:1" d="M 157.643,588.512 191.044,588.512 z" id="boundary" inkscape:connector-curvature="0" />
	<path style="fill:none;stroke:red;stroke-width:1px;stroke-linecap:butt;stroke-linejoin:miter;stroke-opacity:1" d="M 191.044,588.512 224.444,588.512 z" id="boundary" inkscape:connector-curvature="0" />
	<path style="fill:none;stroke:red;stroke-width:1px;stroke-linecap:butt;stroke-linejoin:miter;stroke-opacity:1" d="M 237.805,4 271.205,4 z" id="boundary" inkscape:connector-curvature="0" />
	<path style="fill:none;stroke:red;stroke-width:1px;stroke-linecap:butt;stroke-linejoin:miter;stroke-opacity:1" d="M 271.205,4 304.606,4 z" id="boundary" inkscape:connector-curvature="0" />
	<path style="fill:none;stroke:red;stroke-width:1px;stroke-linecap:butt;stroke-linejoin:miter;stroke-opacity:1" d="M 274.545,448.229 241.145,448.229 z" id="boundary" inkscape:connector-curvature="0" />
	<path style="fill:none;stroke:red;stroke-width:1px;stroke-linecap:butt;stroke-linejoin:miter;stroke-opacity:1" d="M 307.946,448.229 274.545,448.229 z" id="boundary" inkscape:connector-curvature="0" />
	<path style="fill:none;stroke:red;stroke-width:1px;stroke-linecap:butt;stroke-linejoin:miter;stroke-opacity:1" d="M 341.347,448.229 307.946,448.229 z" id="boundary" inkscape:connector-curvature="0" />
	<path style="fill:none;stroke:red;stroke-width:1px;stroke-linecap:butt;stroke-linejoin:miter;stroke-opacity:1" d="M 304.606,4 338.007,4 z" id="boundary" inkscape:connector-curvature="0" />
	<path style="fill:none;stroke:red;stroke-width:1px;stroke-linecap:butt;stroke-linejoin:miter;stroke-opacity:1" d="M 404.808,4 438.209,4 z" id="boundary" inkscape:connector-curvature="0" />
	<path style="fill:none;stroke:red;stroke-width:1px;stroke-linecap:butt;stroke-linejoin:miter;stroke-opacity:1" d="M 438.209,4 471.609,4 z" id="boundary" inkscape:connector-curvature="0" />
	<path style="fill:none;stroke:red;stroke-width:1px;stroke-linecap:butt;stroke-linejoin:miter;stroke-opacity:1" d="M 371.407,4 404.808,4 z" id="boundary" inkscape:connector-curvature="0" />
	<path style="fill:none;stroke:red;stroke-width:1px;stroke-linecap:butt;stroke-linejoin:miter;stroke-opacity:1" d="M 341.347,448.229 374.747,448.229 z" id="boundary" inkscape:connector-curvature="0" />
	<path style="fill:none;stroke:red;stroke-width:1px;stroke-linecap:butt;stroke-linejoin:miter;stroke-opacity:1" d="M 374.747,448.229 398.128,474.949 z" id="boundary" inkscape:connector-curvature="0" />
	<path style="fill:none;stroke:red;stroke-width:1px;stroke-linecap:butt;stroke-linejoin:miter;stroke-opacity:1" d="M 398.128,474.949 398.128,508.35 z" id="boundary" inkscape:connector-curvature="0" />
	<path style="fill:none;stroke:red;stroke-width:1px;stroke-linecap:butt;stroke-linejoin:miter;stroke-opacity:1" d="M 471.609,4 505.01,4 z" id="boundary" inkscape:connector-curvature="0" />
	<path style="fill:none;stroke:red;stroke-width:1px;stroke-linecap:butt;stroke-linejoin:miter;stroke-opacity:1" d="M 338.007,4 371.407,4 z" id="boundary" inkscape:connector-curvature="0" />
	<path style="fill:none;stroke:red;stroke-width:1px;stroke-linecap:butt;stroke-linejoin:miter;stroke-opacity:1" d="M 241.145,558.451 274.545,558.451 z" id="boundary" inkscape:connector-curvature="0" />
	<path style="fill:none;stroke:red;stroke-width:1px;stroke-linecap:butt;stroke-linejoin:miter;stroke-opacity:1" d="M 341.347,558.451 307.946,558.451 z" id="boundary" inkscape:connector-curvature="0" />
	<path style="fill:none;stroke:red;stroke-width:1px;stroke-linecap:butt;stroke-linejoin:miter;stroke-opacity:1" d="M 274.545,558.451 307.946,558.451 z" id="boundary" inkscape:connector-curvature="0" />
	<path style="fill:none;stroke:red;stroke-width:1px;stroke-linecap:butt;stroke-linejoin:miter;stroke-opacity:1" d="M 257.845,588.512 224.444,588.512 z" id="boundary" inkscape:connector-curvature="0" />
	<path style="fill:none;stroke:red;stroke-width:1px;stroke-linecap:butt;stroke-linejoin:miter;stroke-opacity:1" d="M 291.246,588.512 257.845,588.512 z" id="boundary" inkscape:connector-curvature="0" />
	<path style="fill:none;stroke:red;stroke-width:1px;stroke-linecap:butt;stroke-linejoin:miter;stroke-opacity:1" d="M 324.646,588.512 291.246,588.512 z" id="boundary" inkscape:connector-curvature="0" />
	<path style="fill:none;stroke:red;stroke-width:1px;stroke-linecap:butt;stroke-linejoin:miter;stroke-opacity:1" d="M 374.747,558.451 341.347,558.451 z" id="boundary" inkscape:connector-curvature="0" />
	<path style="fill:none;stroke:red;stroke-width:1px;stroke-linecap:butt;stroke-linejoin:miter;stroke-opacity:1" d="M 398.128,508.35 374.747,558.451 z" id="boundary" inkscape:connector-curvature="0" />
	<path style="fill:none;stroke:red;stroke-width:1px;stroke-linecap:butt;stroke-linejoin:miter;stroke-opacity:1" d="M 391.448,588.512 374.747,558.451 z" id="boundary" inkscape:connector-curvature="0" />
	<path style="fill:none;stroke:red;stroke-width:1px;stroke-linecap:butt;stroke-linejoin:miter;stroke-opacity:1" d="M 324.646,588.512 358.047,588.512 z" id="boundary" inkscape:connector-curvature="0" />
	<path style="fill:none;stroke:red;stroke-width:1px;stroke-linecap:butt;stroke-linejoin:miter;stroke-opacity:1" d="M 398.128,621.912 391.448,588.512 z" id="boundary" inkscape:connector-curvature="0" />
	<path style="fill:none;stroke:red;stroke-width:1px;stroke-linecap:butt;stroke-linejoin:miter;stroke-opacity:1" d="M 97.5219,665.333 64.1212,665.333 z" id="boundary" inkscape:connector-curvature="0" />
	<path style="fill:none;stroke:red;stroke-width:1px;stroke-linecap:butt;stroke-linejoin:miter;stroke-opacity:1" d="M 80.8215,695.394 64.1212,665.333 z" id="boundary" inkscape:connector-curvature="0" />
	<path style="fill:none;stroke:red;stroke-width:1px;stroke-linecap:butt;stroke-linejoin:miter;stroke-opacity:1" d="M 97.5219,665.333 130.923,665.333 z" id="boundary" inkscape:connector-curvature="0" />
	<path style="fill:none;stroke:red;stroke-width:1px;stroke-linecap:butt;stroke-linejoin:miter;stroke-opacity:1" d="M 114.222,695.394 147.623,695.394 z" id="boundary" inkscape:connector-curvature="0" />
	<path style="fill:none;stroke:red;stroke-width:1px;stroke-linecap:butt;stroke-linejoin:miter;stroke-opacity:1" d="M 80.8215,695.394 114.222,695.394 z" id="boundary" inkscape:connector-curvature="0" />
	<path style="fill:none;stroke:red;stroke-width:1px;stroke-linecap:butt;stroke-linejoin:miter;stroke-opacity:1" d="M 130.923,665.333 164.323,665.333 z" id="boundary" inkscape:connector-curvature="0" />
	<path style="fill:none;stroke:red;stroke-width:1px;stroke-linecap:butt;stroke-linejoin:miter;stroke-opacity:1" d="M 197.724,665.333 164.323,665.333 z" id="boundary" inkscape:connector-curvature="0" />
	<path style="fill:none;stroke:red;stroke-width:1px;stroke-linecap:butt;stroke-linejoin:miter;stroke-opacity:1" d="M 231.125,665.333 197.724,665.333 z" id="boundary" inkscape:connector-curvature="0" />
	<path style="fill:none;stroke:red;stroke-width:1px;stroke-linecap:butt;stroke-linejoin:miter;stroke-opacity:1" d="M 181.024,695.394 147.623,695.394 z" id="boundary" inkscape:connector-curvature="0" />
	<path style="fill:none;stroke:red;stroke-width:1px;stroke-linecap:butt;stroke-linejoin:miter;stroke-opacity:1" d="M 181.024,695.394 214.424,695.394 z" id="boundary" inkscape:connector-curvature="0" />
	<path style="fill:none;stroke:red;stroke-width:1px;stroke-linecap:butt;stroke-linejoin:miter;stroke-opacity:1" d="M 214.424,695.394 247.825,695.394 z" id="boundary" inkscape:connector-curvature="0" />
	<path style="fill:none;stroke:red;stroke-width:1px;stroke-linecap:butt;stroke-linejoin:miter;stroke-opacity:1" d="M 4,772.215 37.4007,765.535 z" id="boundary" inkscape:connector-curvature="0" />
	<path style="fill:none;stroke:red;stroke-width:1px;stroke-linecap:butt;stroke-linejoin:miter;stroke-opacity:1" d="M 4,805.616 4,772.215 z" id="boundary" inkscape:connector-curvature="0" />
	<path style="fill:none;stroke:red;stroke-width:1px;stroke-linecap:butt;stroke-linejoin:miter;stroke-opacity:1" d="M 70.8013,765.535 104.202,765.535 z" id="boundary" inkscape:connector-curvature="0" />
	<path style="fill:none;stroke:red;stroke-width:1px;stroke-linecap:butt;stroke-linejoin:miter;stroke-opacity:1" d="M 104.202,765.535 137.603,765.535 z" id="boundary" inkscape:connector-curvature="0" />
	<path style="fill:none;stroke:red;stroke-width:1px;stroke-linecap:butt;stroke-linejoin:miter;stroke-opacity:1" d="M 37.4007,765.535 70.8013,765.535 z" id="boundary" inkscape:connector-curvature="0" />
	<path style="fill:none;stroke:red;stroke-width:1px;stroke-linecap:butt;stroke-linejoin:miter;stroke-opacity:1" d="M 54.101,849.037 20.7003,835.677 z" id="boundary" inkscape:connector-curvature="0" />
	<path style="fill:none;stroke:red;stroke-width:1px;stroke-linecap:butt;stroke-linejoin:miter;stroke-opacity:1" d="M 20.7003,835.677 4,805.616 z" id="boundary" inkscape:connector-curvature="0" />
	<path style="fill:none;stroke:red;stroke-width:1px;stroke-linecap:butt;stroke-linejoin:miter;stroke-opacity:1" d="M 87.5017,835.677 54.101,849.037 z" id="boundary" inkscape:connector-curvature="0" />
	<path style="fill:none;stroke:red;stroke-width:1px;stroke-linecap:butt;stroke-linejoin:miter;stroke-opacity:1" d="M 87.5017,835.677 120.902,835.677 z" id="boundary" inkscape:connector-curvature="0" />
	<path style="fill:none;stroke:red;stroke-width:1px;stroke-linecap:butt;stroke-linejoin:miter;stroke-opacity:1" d="M 120.902,835.677 154.303,835.677 z" id="boundary" inkscape:connector-curvature="0" />
	<path style="fill:none;stroke:red;stroke-width:1px;stroke-linecap:butt;stroke-linejoin:miter;stroke-opacity:1" d="M 171.003,765.535 137.603,765.535 z" id="boundary" inkscape:connector-curvature="0" />
	<path style="fill:none;stroke:red;stroke-width:1px;stroke-linecap:butt;stroke-linejoin:miter;stroke-opacity:1" d="M 204.404,765.535 171.003,765.535 z" id="boundary" inkscape:connector-curvature="0" />
	<path style="fill:none;stroke:red;stroke-width:1px;stroke-linecap:butt;stroke-linejoin:miter;stroke-opacity:1" d="M 237.805,765.535 204.404,765.535 z" id="boundary" inkscape:connector-curvature="0" />
	<path style="fill:none;stroke:red;stroke-width:1px;stroke-linecap:butt;stroke-linejoin:miter;stroke-opacity:1" d="M 187.704,835.677 221.104,835.677 z" id="boundary" inkscape:connector-curvature="0" />
	<path style="fill:none;stroke:red;stroke-width:1px;stroke-linecap:butt;stroke-linejoin:miter;stroke-opacity:1" d="M 154.303,835.677 187.704,835.677 z" id="boundary" inkscape:connector-curvature="0" />
	<path style="fill:none;stroke:red;stroke-width:1px;stroke-linecap:butt;stroke-linejoin:miter;stroke-opacity:1" d="M 221.104,835.677 254.505,835.677 z" id="boundary" inkscape:connector-curvature="0" />
	<path style="fill:none;stroke:red;stroke-width:1px;stroke-linecap:butt;stroke-linejoin:miter;stroke-opacity:1" d="M 231.125,665.333 264.525,665.333 z" id="boundary" inkscape:connector-curvature="0" />
	<path style="fill:none;stroke:red;stroke-width:1px;stroke-linecap:butt;stroke-linejoin:miter;stroke-opacity:1" d="M 264.525,665.333 297.926,665.333 z" id="boundary" inkscape:connector-curvature="0" />
	<path style="fill:none;stroke:red;stroke-width:1px;stroke-linecap:butt;stroke-linejoin:miter;stroke-opacity:1" d="M 297.926,665.333 331.327,665.333 z" id="boundary" inkscape:connector-curvature="0" />
	<path style="fill:none;stroke:red;stroke-width:1px;stroke-linecap:butt;stroke-linejoin:miter;stroke-opacity:1" d="M 247.825,695.394 281.226,695.394 z" id="boundary" inkscape:connector-curvature="0" />
	<path style="fill:none;stroke:red;stroke-width:1px;stroke-linecap:butt;stroke-linejoin:miter;stroke-opacity:1" d="M 271.205,765.535 237.805,765.535 z" id="boundary" inkscape:connector-curvature="0" />
	<path style="fill:none;stroke:red;stroke-width:1px;stroke-linecap:butt;stroke-linejoin:miter;stroke-opacity:1" d="M 281.226,695.394 314.626,695.394 z" id="boundary" inkscape:connector-curvature="0" />
	<path style="fill:none;stroke:red;stroke-width:1px;stroke-linecap:butt;stroke-linejoin:miter;stroke-opacity:1" d="M 364.727,665.333 331.327,665.333 z" id="boundary" inkscape:connector-curvature="0" />
	<path style="fill:none;stroke:red;stroke-width:1px;stroke-linecap:butt;stroke-linejoin:miter;stroke-opacity:1" d="M 398.128,621.912 398.128,655.313 z" id="boundary" inkscape:connector-curvature="0" />
	<path style="fill:none;stroke:red;stroke-width:1px;stroke-linecap:butt;stroke-linejoin:miter;stroke-opacity:1" d="M 364.727,665.333 398.128,655.313 z" id="boundary" inkscape:connector-curvature="0" />
	<path style="fill:none;stroke:red;stroke-width:1px;stroke-linecap:butt;stroke-linejoin:miter;stroke-opacity:1" d="M 314.626,695.394 348.027,695.394 z" id="boundary" inkscape:connector-curvature="0" />
	<path style="fill:none;stroke:red;stroke-width:1px;stroke-linecap:butt;stroke-linejoin:miter;stroke-opacity:1" d="M 348.027,695.394 381.428,695.394 z" id="boundary" inkscape:connector-curvature="0" />
	<path style="fill:none;stroke:red;stroke-width:1px;stroke-linecap:butt;stroke-linejoin:miter;stroke-opacity:1" d="M 398.128,725.455 381.428,695.394 z" id="boundary" inkscape:connector-curvature="0" />
	<path style="fill:none;stroke:red;stroke-width:1px;stroke-linecap:butt;stroke-linejoin:miter;stroke-opacity:1" d="M 271.205,765.535 304.606,765.535 z" id="boundary" inkscape:connector-curvature="0" />
	<path style="fill:none;stroke:red;stroke-width:1px;stroke-linecap:butt;stroke-linejoin:miter;stroke-opacity:1" d="M 338.007,765.535 304.606,765.535 z" id="boundary" inkscape:connector-curvature="0" />
	<path style="fill:none;stroke:red;stroke-width:1px;stroke-linecap:butt;stroke-linejoin:miter;stroke-opacity:1" d="M 338.007,765.535 364.727,785.576 z" id="boundary" inkscape:connector-curvature="0" />
	<path style="fill:none;stroke:red;stroke-width:1px;stroke-linecap:butt;stroke-linejoin:miter;stroke-opacity:1" d="M 287.906,835.677 254.505,835.677 z" id="boundary" inkscape:connector-curvature="0" />
	<path style="fill:none;stroke:red;stroke-width:1px;stroke-linecap:butt;stroke-linejoin:miter;stroke-opacity:1" d="M 321.306,835.677 354.707,835.677 z" id="boundary" inkscape:connector-curvature="0" />
	<path style="fill:none;stroke:red;stroke-width:1px;stroke-linecap:butt;stroke-linejoin:miter;stroke-opacity:1" d="M 287.906,835.677 321.306,835.677 z" id="boundary" inkscape:connector-curvature="0" />
	<path style="fill:none;stroke:red;stroke-width:1px;stroke-linecap:butt;stroke-linejoin:miter;stroke-opacity:1" d="M 388.108,835.677 421.508,835.677 z" id="boundary" inkscape:connector-curvature="0" />
	<path style="fill:none;stroke:red;stroke-width:1px;stroke-linecap:butt;stroke-linejoin:miter;stroke-opacity:1" d="M 354.707,835.677 388.108,835.677 z" id="boundary" inkscape:connector-curvature="0" />
	<path style="fill:none;stroke:red;stroke-width:1px;stroke-linecap:butt;stroke-linejoin:miter;stroke-opacity:1" d="M 364.727,785.576 391.448,765.535 z" id="boundary" inkscape:connector-curvature="0" />
	<path style="fill:none;stroke:red;stroke-width:1px;stroke-linecap:butt;stroke-linejoin:miter;stroke-opacity:1" d="M 398.128,725.455 391.448,765.535 z" id="boundary" inkscape:connector-curvature="0" />
	<path style="fill:none;stroke:red;stroke-width:1px;stroke-linecap:butt;stroke-linejoin:miter;stroke-opacity:1" d="M 454.909,835.677 488.31,835.677 z" id="boundary" inkscape:connector-curvature="0" />
	<path style="fill:none;stroke:red;stroke-width:1px;stroke-linecap:butt;stroke-linejoin:miter;stroke-opacity:1" d="M 421.508,835.677 454.909,835.677 z" id="boundary" inkscape:connector-curvature="0" />
	<path style="fill:none;stroke:red;stroke-width:1px;stroke-linecap:butt;stroke-linejoin:miter;stroke-opacity:1" d="M 505.01,4 538.411,4 z" id="boundary" inkscape:connector-curvature="0" />
	<path style="fill:none;stroke:red;stroke-width:1px;stroke-linecap:butt;stroke-linejoin:miter;stroke-opacity:1" d="M 571.811,4 605.212,4 z" id="boundary" inkscape:connector-curvature="0" />
	<path style="fill:none;stroke:red;stroke-width:1px;stroke-linecap:butt;stroke-linejoin:miter;stroke-opacity:1" d="M 538.411,4 571.811,4 z" id="boundary" inkscape:connector-curvature="0" />
	<path style="fill:none;stroke:red;stroke-width:1px;stroke-linecap:butt;stroke-linejoin:miter;stroke-opacity:1" d="M 605.212,4 638.613,4 z" id="boundary" inkscape:connector-curvature="0" />
	<path style="fill:none;stroke:red;stroke-width:1px;stroke-linecap:butt;stroke-linejoin:miter;stroke-opacity:1" d="M 628.593,448.229 595.192,451.569 z" id="boundary" inkscape:connector-curvature="0" />
	<path style="fill:none;stroke:red;stroke-width:1px;stroke-linecap:butt;stroke-linejoin:miter;stroke-opacity:1" d="M 628.593,448.229 661.993,448.229 z" id="boundary" inkscape:connector-curvature="0" />
	<path style="fill:none;stroke:red;stroke-width:1px;stroke-linecap:butt;stroke-linejoin:miter;stroke-opacity:1" d="M 595.192,451.569 595.192,484.97 z" id="boundary" inkscape:connector-curvature="0" />
	<path style="fill:none;stroke:red;stroke-width:1px;stroke-linecap:butt;stroke-linejoin:miter;stroke-opacity:1" d="M 638.613,4 672.013,4 z" id="boundary" inkscape:connector-curvature="0" />
	<path style="fill:none;stroke:red;stroke-width:1px;stroke-linecap:butt;stroke-linejoin:miter;stroke-opacity:1" d="M 705.414,4 738.815,4 z" id="boundary" inkscape:connector-curvature="0" />
	<path style="fill:none;stroke:red;stroke-width:1px;stroke-linecap:butt;stroke-linejoin:miter;stroke-opacity:1" d="M 762.195,448.229 728.795,448.229 z" id="boundary" inkscape:connector-curvature="0" />
	<path style="fill:none;stroke:red;stroke-width:1px;stroke-linecap:butt;stroke-linejoin:miter;stroke-opacity:1" d="M 728.795,448.229 695.394,448.229 z" id="boundary" inkscape:connector-curvature="0" />
	<path style="fill:none;stroke:red;stroke-width:1px;stroke-linecap:butt;stroke-linejoin:miter;stroke-opacity:1" d="M 695.394,448.229 661.993,448.229 z" id="boundary" inkscape:connector-curvature="0" />
	<path style="fill:none;stroke:red;stroke-width:1px;stroke-linecap:butt;stroke-linejoin:miter;stroke-opacity:1" d="M 672.013,4 705.414,4 z" id="boundary" inkscape:connector-curvature="0" />
	<path style="fill:none;stroke:red;stroke-width:1px;stroke-linecap:butt;stroke-linejoin:miter;stroke-opacity:1" d="M 595.192,484.97 595.192,518.37 z" id="boundary" inkscape:connector-curvature="0" />
	<path style="fill:none;stroke:red;stroke-width:1px;stroke-linecap:butt;stroke-linejoin:miter;stroke-opacity:1" d="M 595.192,518.37 595.192,551.771 z" id="boundary" inkscape:connector-curvature="0" />
	<path style="fill:none;stroke:red;stroke-width:1px;stroke-linecap:butt;stroke-linejoin:miter;stroke-opacity:1" d="M 595.192,551.771 595.192,591.852 z" id="boundary" inkscape:connector-curvature="0" />
	<path style="fill:none;stroke:red;stroke-width:1px;stroke-linecap:butt;stroke-linejoin:miter;stroke-opacity:1" d="M 628.593,558.451 595.192,551.771 z" id="boundary" inkscape:connector-curvature="0" />
	<path style="fill:none;stroke:red;stroke-width:1px;stroke-linecap:butt;stroke-linejoin:miter;stroke-opacity:1" d="M 595.192,625.253 595.192,591.852 z" id="boundary" inkscape:connector-curvature="0" />
	<path style="fill:none;stroke:red;stroke-width:1px;stroke-linecap:butt;stroke-linejoin:miter;stroke-opacity:1" d="M 628.593,558.451 661.993,558.451 z" id="boundary" inkscape:connector-curvature="0" />
	<path style="fill:none;stroke:red;stroke-width:1px;stroke-linecap:butt;stroke-linejoin:miter;stroke-opacity:1" d="M 678.694,588.512 645.293,588.512 z" id="boundary" inkscape:connector-curvature="0" />
	<path style="fill:none;stroke:red;stroke-width:1px;stroke-linecap:butt;stroke-linejoin:miter;stroke-opacity:1" d="M 661.993,558.451 695.394,558.451 z" id="boundary" inkscape:connector-curvature="0" />
	<path style="fill:none;stroke:red;stroke-width:1px;stroke-linecap:butt;stroke-linejoin:miter;stroke-opacity:1" d="M 728.795,558.451 695.394,558.451 z" id="boundary" inkscape:connector-curvature="0" />
	<path style="fill:none;stroke:red;stroke-width:1px;stroke-linecap:butt;stroke-linejoin:miter;stroke-opacity:1" d="M 762.195,558.451 728.795,558.451 z" id="boundary" inkscape:connector-curvature="0" />
	<path style="fill:none;stroke:red;stroke-width:1px;stroke-linecap:butt;stroke-linejoin:miter;stroke-opacity:1" d="M 712.094,588.512 678.694,588.512 z" id="boundary" inkscape:connector-curvature="0" />
	<path style="fill:none;stroke:red;stroke-width:1px;stroke-linecap:butt;stroke-linejoin:miter;stroke-opacity:1" d="M 712.094,588.512 745.495,588.512 z" id="boundary" inkscape:connector-curvature="0" />
	<path style="fill:none;stroke:red;stroke-width:1px;stroke-linecap:butt;stroke-linejoin:miter;stroke-opacity:1" d="M 745.495,588.512 778.896,588.512 z" id="boundary" inkscape:connector-curvature="0" />
	<path style="fill:none;stroke:red;stroke-width:1px;stroke-linecap:butt;stroke-linejoin:miter;stroke-opacity:1" d="M 738.815,4 772.215,4 z" id="boundary" inkscape:connector-curvature="0" />
	<path style="fill:none;stroke:red;stroke-width:1px;stroke-linecap:butt;stroke-linejoin:miter;stroke-opacity:1" d="M 805.616,4 839.017,4 z" id="boundary" inkscape:connector-curvature="0" />
	<path style="fill:none;stroke:red;stroke-width:1px;stroke-linecap:butt;stroke-linejoin:miter;stroke-opacity:1" d="M 872.418,4 902.478,20.7003 z" id="boundary" inkscape:connector-curvature="0" />
	<path style="fill:none;stroke:red;stroke-width:1px;stroke-linecap:butt;stroke-linejoin:miter;stroke-opacity:1" d="M 902.478,20.7003 902.478,54.101 z" id="boundary" inkscape:connector-curvature="0" />
	<path style="fill:none;stroke:red;stroke-width:1px;stroke-linecap:butt;stroke-linejoin:miter;stroke-opacity:1" d="M 839.017,4 872.418,4 z" id="boundary" inkscape:connector-curvature="0" />
	<path style="fill:none;stroke:red;stroke-width:1px;stroke-linecap:butt;stroke-linejoin:miter;stroke-opacity:1" d="M 902.478,54.101 902.478,87.5017 z" id="boundary" inkscape:connector-curvature="0" />
	<path style="fill:none;stroke:red;stroke-width:1px;stroke-linecap:butt;stroke-linejoin:miter;stroke-opacity:1" d="M 902.478,221.104 902.478,254.505 z" id="boundary" inkscape:connector-curvature="0" />
	<path style="fill:none;stroke:red;stroke-width:1px;stroke-linecap:butt;stroke-linejoin:miter;stroke-opacity:1" d="M 902.478,120.902 902.478,154.303 z" id="boundary" inkscape:connector-curvature="0" />
	<path style="fill:none;stroke:red;stroke-width:1px;stroke-linecap:butt;stroke-linejoin:miter;stroke-opacity:1" d="M 902.478,120.902 902.478,87.5017 z" id="boundary" inkscape:connector-curvature="0" />
	<path style="fill:none;stroke:red;stroke-width:1px;stroke-linecap:butt;stroke-linejoin:miter;stroke-opacity:1" d="M 902.478,154.303 902.478,187.704 z" id="boundary" inkscape:connector-curvature="0" />
	<path style="fill:none;stroke:red;stroke-width:1px;stroke-linecap:butt;stroke-linejoin:miter;stroke-opacity:1" d="M 795.596,448.229 762.195,448.229 z" id="boundary" inkscape:connector-curvature="0" />
	<path style="fill:none;stroke:red;stroke-width:1px;stroke-linecap:butt;stroke-linejoin:miter;stroke-opacity:1" d="M 772.215,4 805.616,4 z" id="boundary" inkscape:connector-curvature="0" />
	<path style="fill:none;stroke:red;stroke-width:1px;stroke-linecap:butt;stroke-linejoin:miter;stroke-opacity:1" d="M 902.478,221.104 902.478,187.704 z" id="boundary" inkscape:connector-curvature="0" />
	<path style="fill:none;stroke:red;stroke-width:1px;stroke-linecap:butt;stroke-linejoin:miter;stroke-opacity:1" d="M 902.478,254.505 902.478,287.906 z" id="boundary" inkscape:connector-curvature="0" />
	<path style="fill:none;stroke:red;stroke-width:1px;stroke-linecap:butt;stroke-linejoin:miter;stroke-opacity:1" d="M 902.478,354.707 902.478,321.306 z" id="boundary" inkscape:connector-curvature="0" />
	<path style="fill:none;stroke:red;stroke-width:1px;stroke-linecap:butt;stroke-linejoin:miter;stroke-opacity:1" d="M 902.478,321.306 902.478,287.906 z" id="boundary" inkscape:connector-curvature="0" />
	<path style="fill:none;stroke:red;stroke-width:1px;stroke-linecap:butt;stroke-linejoin:miter;stroke-opacity:1" d="M 828.997,558.451 795.596,558.451 z" id="boundary" inkscape:connector-curvature="0" />
	<path style="fill:none;stroke:red;stroke-width:1px;stroke-linecap:butt;stroke-linejoin:miter;stroke-opacity:1" d="M 795.596,448.229 828.997,448.229 z" id="boundary" inkscape:connector-curvature="0" />
	<path style="fill:none;stroke:red;stroke-width:1px;stroke-linecap:butt;stroke-linejoin:miter;stroke-opacity:1" d="M 762.195,558.451 795.596,558.451 z" id="boundary" inkscape:connector-curvature="0" />
	<path style="fill:none;stroke:red;stroke-width:1px;stroke-linecap:butt;stroke-linejoin:miter;stroke-opacity:1" d="M 862.397,448.229 828.997,448.229 z" id="boundary" inkscape:connector-curvature="0" />
	<path style="fill:none;stroke:red;stroke-width:1px;stroke-linecap:butt;stroke-linejoin:miter;stroke-opacity:1" d="M 828.997,558.451 862.397,558.451 z" id="boundary" inkscape:connector-curvature="0" />
	<path style="fill:none;stroke:red;stroke-width:1px;stroke-linecap:butt;stroke-linejoin:miter;stroke-opacity:1" d="M 778.896,588.512 812.296,588.512 z" id="boundary" inkscape:connector-curvature="0" />
	<path style="fill:none;stroke:red;stroke-width:1px;stroke-linecap:butt;stroke-linejoin:miter;stroke-opacity:1" d="M 812.296,588.512 845.697,588.512 z" id="boundary" inkscape:connector-curvature="0" />
	<path style="fill:none;stroke:red;stroke-width:1px;stroke-linecap:butt;stroke-linejoin:miter;stroke-opacity:1" d="M 862.397,448.229 895.798,444.889 z" id="boundary" inkscape:connector-curvature="0" />
	<path style="fill:none;stroke:red;stroke-width:1px;stroke-linecap:butt;stroke-linejoin:miter;stroke-opacity:1" d="M 895.798,558.451 862.397,558.451 z" id="boundary" inkscape:connector-curvature="0" />
	<path style="fill:none;stroke:red;stroke-width:1px;stroke-linecap:butt;stroke-linejoin:miter;stroke-opacity:1" d="M 895.798,444.889 902.478,388.108 z" id="boundary" inkscape:connector-curvature="0" />
	<path style="fill:none;stroke:red;stroke-width:1px;stroke-linecap:butt;stroke-linejoin:miter;stroke-opacity:1" d="M 902.478,388.108 902.478,354.707 z" id="boundary" inkscape:connector-curvature="0" />
	<path style="fill:none;stroke:red;stroke-width:1px;stroke-linecap:butt;stroke-linejoin:miter;stroke-opacity:1" d="M 929.199,558.451 895.798,558.451 z" id="boundary" inkscape:connector-curvature="0" />
	<path style="fill:none;stroke:red;stroke-width:1px;stroke-linecap:butt;stroke-linejoin:miter;stroke-opacity:1" d="M 845.697,588.512 879.098,588.512 z" id="boundary" inkscape:connector-curvature="0" />
	<path style="fill:none;stroke:red;stroke-width:1px;stroke-linecap:butt;stroke-linejoin:miter;stroke-opacity:1" d="M 912.498,588.512 879.098,588.512 z" id="boundary" inkscape:connector-curvature="0" />
	<path style="fill:none;stroke:red;stroke-width:1px;stroke-linecap:butt;stroke-linejoin:miter;stroke-opacity:1" d="M 929.199,558.451 912.498,588.512 z" id="boundary" inkscape:connector-curvature="0" />
	<path style="fill:none;stroke:red;stroke-width:1px;stroke-linecap:butt;stroke-linejoin:miter;stroke-opacity:1" d="M 595.192,658.653 595.192,625.253 z" id="boundary" inkscape:connector-curvature="0" />
	<path style="fill:none;stroke:red;stroke-width:1px;stroke-linecap:butt;stroke-linejoin:miter;stroke-opacity:1" d="M 595.192,698.734 595.192,658.653 z" id="boundary" inkscape:connector-curvature="0" />
	<path style="fill:none;stroke:red;stroke-width:1px;stroke-linecap:butt;stroke-linejoin:miter;stroke-opacity:1" d="M 595.192,658.653 628.593,665.333 z" id="boundary" inkscape:connector-curvature="0" />
	<path style="fill:none;stroke:red;stroke-width:1px;stroke-linecap:butt;stroke-linejoin:miter;stroke-opacity:1" d="M 628.593,665.333 661.993,665.333 z" id="boundary" inkscape:connector-curvature="0" />
	<path style="fill:none;stroke:red;stroke-width:1px;stroke-linecap:butt;stroke-linejoin:miter;stroke-opacity:1" d="M 595.192,698.734 595.192,732.135 z" id="boundary" inkscape:connector-curvature="0" />
	<path style="fill:none;stroke:red;stroke-width:1px;stroke-linecap:butt;stroke-linejoin:miter;stroke-opacity:1" d="M 678.694,695.394 645.293,695.394 z" id="boundary" inkscape:connector-curvature="0" />
	<path style="fill:none;stroke:red;stroke-width:1px;stroke-linecap:butt;stroke-linejoin:miter;stroke-opacity:1" d="M 661.993,665.333 695.394,665.333 z" id="boundary" inkscape:connector-curvature="0" />
	<path style="fill:none;stroke:red;stroke-width:1px;stroke-linecap:butt;stroke-linejoin:miter;stroke-opacity:1" d="M 695.394,665.333 728.795,665.333 z" id="boundary" inkscape:connector-curvature="0" />
	<path style="fill:none;stroke:red;stroke-width:1px;stroke-linecap:butt;stroke-linejoin:miter;stroke-opacity:1" d="M 728.795,665.333 762.195,665.333 z" id="boundary" inkscape:connector-curvature="0" />
	<path style="fill:none;stroke:red;stroke-width:1px;stroke-linecap:butt;stroke-linejoin:miter;stroke-opacity:1" d="M 678.694,695.394 712.094,695.394 z" id="boundary" inkscape:connector-curvature="0" />
	<path style="fill:none;stroke:red;stroke-width:1px;stroke-linecap:butt;stroke-linejoin:miter;stroke-opacity:1" d="M 745.495,695.394 712.094,695.394 z" id="boundary" inkscape:connector-curvature="0" />
	<path style="fill:none;stroke:red;stroke-width:1px;stroke-linecap:butt;stroke-linejoin:miter;stroke-opacity:1" d="M 521.71,835.677 488.31,835.677 z" id="boundary" inkscape:connector-curvature="0" />
	<path style="fill:none;stroke:red;stroke-width:1px;stroke-linecap:butt;stroke-linejoin:miter;stroke-opacity:1" d="M 651.973,765.535 625.253,785.576 z" id="boundary" inkscape:connector-curvature="0" />
	<path style="fill:none;stroke:red;stroke-width:1px;stroke-linecap:butt;stroke-linejoin:miter;stroke-opacity:1" d="M 625.253,785.576 598.532,765.535 z" id="boundary" inkscape:connector-curvature="0" />
	<path style="fill:none;stroke:red;stroke-width:1px;stroke-linecap:butt;stroke-linejoin:miter;stroke-opacity:1" d="M 595.192,732.135 598.532,765.535 z" id="boundary" inkscape:connector-curvature="0" />
	<path style="fill:none;stroke:red;stroke-width:1px;stroke-linecap:butt;stroke-linejoin:miter;stroke-opacity:1" d="M 555.111,835.677 521.71,835.677 z" id="boundary" inkscape:connector-curvature="0" />
	<path style="fill:none;stroke:red;stroke-width:1px;stroke-linecap:butt;stroke-linejoin:miter;stroke-opacity:1" d="M 621.912,835.677 588.512,835.677 z" id="boundary" inkscape:connector-curvature="0" />
	<path style="fill:none;stroke:red;stroke-width:1px;stroke-linecap:butt;stroke-linejoin:miter;stroke-opacity:1" d="M 588.512,835.677 555.111,835.677 z" id="boundary" inkscape:connector-curvature="0" />
	<path style="fill:none;stroke:red;stroke-width:1px;stroke-linecap:butt;stroke-linejoin:miter;stroke-opacity:1" d="M 655.313,835.677 621.912,835.677 z" id="boundary" inkscape:connector-curvature="0" />
	<path style="fill:none;stroke:red;stroke-width:1px;stroke-linecap:butt;stroke-linejoin:miter;stroke-opacity:1" d="M 651.973,765.535 685.374,765.535 z" id="boundary" inkscape:connector-curvature="0" />
	<path style="fill:none;stroke:red;stroke-width:1px;stroke-linecap:butt;stroke-linejoin:miter;stroke-opacity:1" d="M 685.374,765.535 718.774,765.535 z" id="boundary" inkscape:connector-curvature="0" />
	<path style="fill:none;stroke:red;stroke-width:1px;stroke-linecap:butt;stroke-linejoin:miter;stroke-opacity:1" d="M 718.774,765.535 752.175,765.535 z" id="boundary" inkscape:connector-curvature="0" />
	<path style="fill:none;stroke:red;stroke-width:1px;stroke-linecap:butt;stroke-linejoin:miter;stroke-opacity:1" d="M 688.714,835.677 655.313,835.677 z" id="boundary" inkscape:connector-curvature="0" />
	<path style="fill:none;stroke:red;stroke-width:1px;stroke-linecap:butt;stroke-linejoin:miter;stroke-opacity:1" d="M 722.114,835.677 688.714,835.677 z" id="boundary" inkscape:connector-curvature="0" />
	<path style="fill:none;stroke:red;stroke-width:1px;stroke-linecap:butt;stroke-linejoin:miter;stroke-opacity:1" d="M 755.515,835.677 722.114,835.677 z" id="boundary" inkscape:connector-curvature="0" />
	<path style="fill:none;stroke:red;stroke-width:1px;stroke-linecap:butt;stroke-linejoin:miter;stroke-opacity:1" d="M 762.195,665.333 795.596,665.333 z" id="boundary" inkscape:connector-curvature="0" />
	<path style="fill:none;stroke:red;stroke-width:1px;stroke-linecap:butt;stroke-linejoin:miter;stroke-opacity:1" d="M 795.596,665.333 828.997,665.333 z" id="boundary" inkscape:connector-curvature="0" />
	<path style="fill:none;stroke:red;stroke-width:1px;stroke-linecap:butt;stroke-linejoin:miter;stroke-opacity:1" d="M 785.576,765.535 752.175,765.535 z" id="boundary" inkscape:connector-curvature="0" />
	<path style="fill:none;stroke:red;stroke-width:1px;stroke-linecap:butt;stroke-linejoin:miter;stroke-opacity:1" d="M 812.296,695.394 778.896,695.394 z" id="boundary" inkscape:connector-curvature="0" />
	<path style="fill:none;stroke:red;stroke-width:1px;stroke-linecap:butt;stroke-linejoin:miter;stroke-opacity:1" d="M 745.495,695.394 778.896,695.394 z" id="boundary" inkscape:connector-curvature="0" />
	<path style="fill:none;stroke:red;stroke-width:1px;stroke-linecap:butt;stroke-linejoin:miter;stroke-opacity:1" d="M 812.296,695.394 845.697,695.394 z" id="boundary" inkscape:connector-curvature="0" />
	<path style="fill:none;stroke:red;stroke-width:1px;stroke-linecap:butt;stroke-linejoin:miter;stroke-opacity:1" d="M 862.397,665.333 828.997,665.333 z" id="boundary" inkscape:connector-curvature="0" />
	<path style="fill:none;stroke:red;stroke-width:1px;stroke-linecap:butt;stroke-linejoin:miter;stroke-opacity:1" d="M 862.397,665.333 895.798,665.333 z" id="boundary" inkscape:connector-curvature="0" />
	<path style="fill:none;stroke:red;stroke-width:1px;stroke-linecap:butt;stroke-linejoin:miter;stroke-opacity:1" d="M 895.798,665.333 929.199,665.333 z" id="boundary" inkscape:connector-curvature="0" />
	<path style="fill:none;stroke:red;stroke-width:1px;stroke-linecap:butt;stroke-linejoin:miter;stroke-opacity:1" d="M 929.199,665.333 912.498,695.394 z" id="boundary" inkscape:connector-curvature="0" />
	<path style="fill:none;stroke:red;stroke-width:1px;stroke-linecap:butt;stroke-linejoin:miter;stroke-opacity:1" d="M 845.697,695.394 879.098,695.394 z" id="boundary" inkscape:connector-curvature="0" />
	<path style="fill:none;stroke:red;stroke-width:1px;stroke-linecap:butt;stroke-linejoin:miter;stroke-opacity:1" d="M 912.498,695.394 879.098,695.394 z" id="boundary" inkscape:connector-curvature="0" />
	<path style="fill:none;stroke:red;stroke-width:1px;stroke-linecap:butt;stroke-linejoin:miter;stroke-opacity:1" d="M 785.576,765.535 818.976,765.535 z" id="boundary" inkscape:connector-curvature="0" />
	<path style="fill:none;stroke:red;stroke-width:1px;stroke-linecap:butt;stroke-linejoin:miter;stroke-opacity:1" d="M 818.976,765.535 852.377,765.535 z" id="boundary" inkscape:connector-curvature="0" />
	<path style="fill:none;stroke:red;stroke-width:1px;stroke-linecap:butt;stroke-linejoin:miter;stroke-opacity:1" d="M 852.377,765.535 885.778,765.535 z" id="boundary" inkscape:connector-curvature="0" />
	<path style="fill:none;stroke:red;stroke-width:1px;stroke-linecap:butt;stroke-linejoin:miter;stroke-opacity:1" d="M 755.515,835.677 788.916,835.677 z" id="boundary" inkscape:connector-curvature="0" />
	<path style="fill:none;stroke:red;stroke-width:1px;stroke-linecap:butt;stroke-linejoin:miter;stroke-opacity:1" d="M 822.316,835.677 788.916,835.677 z" id="boundary" inkscape:connector-curvature="0" />
	<path style="fill:none;stroke:red;stroke-width:1px;stroke-linecap:butt;stroke-linejoin:miter;stroke-opacity:1" d="M 855.717,835.677 822.316,835.677 z" id="boundary" inkscape:connector-curvature="0" />
	<path style="fill:none;stroke:red;stroke-width:1px;stroke-linecap:butt;stroke-linejoin:miter;stroke-opacity:1" d="M 885.778,765.535 919.178,765.535 z" id="boundary" inkscape:connector-curvature="0" />
	<path style="fill:none;stroke:red;stroke-width:1px;stroke-linecap:butt;stroke-linejoin:miter;stroke-opacity:1" d="M 919.178,765.535 952.579,765.535 z" id="boundary" inkscape:connector-curvature="0" />
	<path style="fill:none;stroke:red;stroke-width:1px;stroke-linecap:butt;stroke-linejoin:miter;stroke-opacity:1" d="M 985.98,765.535 996,798.936 z" id="boundary" inkscape:connector-curvature="0" />
	<path style="fill:none;stroke:red;stroke-width:1px;stroke-linecap:butt;stroke-linejoin:miter;stroke-opacity:1" d="M 952.579,765.535 985.98,765.535 z" id="boundary" inkscape:connector-curvature="0" />
	<path style="fill:none;stroke:red;stroke-width:1px;stroke-linecap:butt;stroke-linejoin:miter;stroke-opacity:1" d="M 889.118,835.677 922.519,842.357 z" id="boundary" inkscape:connector-curvature="0" />
	<path style="fill:none;stroke:red;stroke-width:1px;stroke-linecap:butt;stroke-linejoin:miter;stroke-opacity:1" d="M 855.717,835.677 889.118,835.677 z" id="boundary" inkscape:connector-curvature="0" />
	<path style="fill:none;stroke:red;stroke-width:1px;stroke-linecap:butt;stroke-linejoin:miter;stroke-opacity:1" d="M 922.519,842.357 955.919,849.037 z" id="boundary" inkscape:connector-curvature="0" />
	<path style="fill:none;stroke:red;stroke-width:1px;stroke-linecap:butt;stroke-linejoin:miter;stroke-opacity:1" d="M 989.32,835.677 955.919,849.037 z" id="boundary" inkscape:connector-curvature="0" />
	<path style="fill:none;stroke:red;stroke-width:1px;stroke-linecap:butt;stroke-linejoin:miter;stroke-opacity:1" d="M 996,798.936 989.32,835.677 z" id="boundary" inkscape:connector-curvature="0" />
	<circle cx="4" cy="772.215" r="4" fill="#0" id="circle0"/>
	<circle cx="4" cy="805.616" r="4" fill="#0" id="circle1"/>
	<circle cx="20.7003" cy="835.677" r="4" fill="#0" id="circle2"/>
	<circle cx="37.4007" cy="765.535" r="4" fill="#0" id="circle3"/>
	<circle cx="54.101" cy="849.037" r="4" fill="#0" id="circle4"/>
	<circle cx="64.1212" cy="565.131" r="4" fill="#0" id="circle5"/>
	<circle cx="64.1212" cy="665.333" r="4" fill="#0" id="circle6"/>
	<circle cx="70.8013" cy="765.535" r="4" fill="#0" id="circle7"/>
	<circle cx="80.8215" cy="695.394" r="4" fill="#0" id="circle8"/>
	<circle cx="87.5017" cy="835.677" r="4" fill="#0" id="circle9"/>
	<circle cx="90.8418" cy="588.512" r="4" fill="#0" id="circle10"/>
	<circle cx="97.5219" cy="665.333" r="4" fill="#0" id="circle11"/>
	<circle cx="104.202" cy="10.6801" r="4" fill="#0" id="circle12"/>
	<circle cx="104.202" cy="44.0808" r="4" fill="#0" id="circle13"/>
	<circle cx="104.202" cy="77.4815" r="4" fill="#0" id="circle14"/>
	<circle cx="104.202" cy="110.882" r="4" fill="#0" id="circle15"/>
	<circle cx="104.202" cy="144.283" r="4" fill="#0" id="circle16"/>
	<circle cx="104.202" cy="177.684" r="4" fill="#0" id="circle17"/>
	<circle cx="104.202" cy="211.084" r="4" fill="#0" id="circle18"/>
	<circle cx="104.202" cy="244.485" r="4" fill="#0" id="circle19"/>
	<circle cx="104.202" cy="277.886" r="4" fill="#0" id="circle20"/>
	<circle cx="104.202" cy="311.286" r="4" fill="#0" id="circle21"/>
	<circle cx="104.202" cy="344.687" r="4" fill="#0" id="circle22"/>
	<circle cx="104.202" cy="378.088" r="4" fill="#0" id="circle23"/>
	<circle cx="104.202" cy="411.488" r="4" fill="#0" id="circle24"/>
	<circle cx="104.202" cy="765.535" r="4" fill="#0" id="circle25"/>
	<circle cx="107.542" cy="444.889" r="4" fill="#0" id="circle26"/>
	<circle cx="107.542" cy="558.451" r="4" fill="#0" id="circle27"/>
	<circle cx="114.222" cy="695.394" r="4" fill="#0" id="circle28"/>
	<circle cx="120.902" cy="835.677" r="4" fill="#0" id="circle29"/>
	<circle cx="124.242" cy="588.512" r="4" fill="#0" id="circle30"/>
	<circle cx="130.923" cy="665.333" r="4" fill="#0" id="circle31"/>
	<circle cx="137.603" cy="4" r="4" fill="#0" id="circle32"/>
	<circle cx="137.603" cy="765.535" r="4" fill="#0" id="circle33"/>
	<circle cx="140.943" cy="448.229" r="4" fill="#0" id="circle34"/>
	<circle cx="140.943" cy="558.451" r="4" fill="#0" id="circle35"/>
	<circle cx="147.623" cy="695.394" r="4" fill="#0" id="circle36"/>
	<circle cx="154.303" cy="835.677" r="4" fill="#0" id="circle37"/>
	<circle cx="157.643" cy="588.512" r="4" fill="#0" id="circle38"/>
	<circle cx="164.323" cy="665.333" r="4" fill="#0" id="circle39"/>
	<circle cx="171.003" cy="4" r="4" fill="#0" id="circle40"/>
	<circle cx="171.003" cy="765.535" r="4" fill="#0" id="circle41"/>
	<circle cx="174.343" cy="448.229" r="4" fill="#0" id="circle42"/>
	<circle cx="174.343" cy="558.451" r="4" fill="#0" id="circle43"/>
	<circle cx="181.024" cy="695.394" r="4" fill="#0" id="circle44"/>
	<circle cx="187.704" cy="835.677" r="4" fill="#0" id="circle45"/>
	<circle cx="191.044" cy="588.512" r="4" fill="#0" id="circle46"/>
	<circle cx="197.724" cy="665.333" r="4" fill="#0" id="circle47"/>
	<circle cx="204.404" cy="4" r="4" fill="#0" id="circle48"/>
	<circle cx="204.404" cy="765.535" r="4" fill="#0" id="circle49"/>
	<circle cx="207.744" cy="448.229" r="4" fill="#0" id="circle50"/>
	<circle cx="207.744" cy="558.451" r="4" fill="#0" id="circle51"/>
	<circle cx="214.424" cy="695.394" r="4" fill="#0" id="circle52"/>
	<circle cx="221.104" cy="835.677" r="4" fill="#0" id="circle53"/>
	<circle cx="224.444" cy="588.512" r="4" fill="#0" id="circle54"/>
	<circle cx="231.125" cy="665.333" r="4" fill="#0" id="circle55"/>
	<circle cx="237.805" cy="4" r="4" fill="#0" id="circle56"/>
	<circle cx="237.805" cy="765.535" r="4" fill="#0" id="circle57"/>
	<circle cx="241.145" cy="448.229" r="4" fill="#0" id="circle58"/>
	<circle cx="241.145" cy="558.451" r="4" fill="#0" id="circle59"/>
	<circle cx="247.825" cy="695.394" r="4" fill="#0" id="circle60"/>
	<circle cx="254.505" cy="835.677" r="4" fill="#0" id="circle61"/>
	<circle cx="257.845" cy="588.512" r="4" fill="#0" id="circle62"/>
	<circle cx="264.525" cy="665.333" r="4" fill="#0" id="circle63"/>
	<circle cx="271.205" cy="4" r="4" fill="#0" id="circle64"/>
	<circle cx="271.205" cy="765.535" r="4" fill="#0" id="circle65"/>
	<circle cx="274.545" cy="448.229" r="4" fill="#0" id="circle66"/>
	<circle cx="274.545" cy="558.451" r="4" fill="#0" id="circle67"/>
	<circle cx="281.226" cy="695.394" r="4" fill="#0" id="circle68"/>
	<circle cx="287.906" cy="835.677" r="4" fill="#0" id="circle69"/>
	<circle cx="291.246" cy="588.512" r="4" fill="#0" id="circle70"/>
	<circle cx="297.926" cy="665.333" r="4" fill="#0" id="circle71"/>
	<circle cx="304.606" cy="4" r="4" fill="#0" id="circle72"/>
	<circle cx="304.606" cy="765.535" r="4" fill="#0" id="circle73"/>
	<circle cx="307.946" cy="448.229" r="4" fill="#0" id="circle74"/>
	<circle cx="307.946" cy="558.451" r="4" fill="#0" id="circle75"/>
	<circle cx="314.626" cy="695.394" r="4" fill="#0" id="circle76"/>
	<circle cx="321.306" cy="835.677" r="4" fill="#0" id="circle77"/>
	<circle cx="324.646" cy="588.512" r="4" fill="#0" id="circle78"/>
	<circle cx="331.327" cy="665.333" r="4" fill="#0" id="circle79"/>
	<circle cx="338.007" cy="4" r="4" fill="#0" id="circle80"/>
	<circle cx="338.007" cy="765.535" r="4" fill="#0" id="circle81"/>
	<circle cx="341.347" cy="448.229" r="4" fill="#0" id="circle82"/>
	<circle cx="341.347" cy="558.451" r="4" fill="#0" id="circle83"/>
	<circle cx="348.027" cy="695.394" r="4" fill="#0" id="circle84"/>
	<circle cx="354.707" cy="835.677" r="4" fill="#0" id="circle85"/>
	<circle cx="358.047" cy="588.512" r="4" fill="#0" id="circle86"/>
	<circle cx="364.727" cy="665.333" r="4" fill="#0" id="circle87"/>
	<circle cx="364.727" cy="785.576" r="4" fill="#0" id="circle88"/>
	<circle cx="371.407" cy="4" r="4" fill="#0" id="circle89"/>
	<circle cx="374.747" cy="448.229" r="4" fill="#0" id="circle90"/>
	<circle cx="374.747" cy="558.451" r="4" fill="#0" id="circle91"/>
	<circle cx="381.428" cy="695.394" r="4" fill="#0" id="circle92"/>
	<circle cx="388.108" cy="835.677" r="4" fill="#0" id="circle93"/>
	<circle cx="391.448" cy="588.512" r="4" fill="#0" id="circle94"/>
	<circle cx="391.448" cy="765.535" r="4" fill="#0" id="circle95"/>
	<circle cx="398.128" cy="474.949" r="4" fill="#0" id="circle96"/>
	<circle cx="398.128" cy="508.35" r="4" fill="#0" id="circle97"/>
	<circle cx="398.128" cy="621.912" r="4" fill="#0" id="circle98"/>
	<circle cx="398.128" cy="655.313" r="4" fill="#0" id="circle99"/>
	<circle cx="398.128" cy="725.455" r="4" fill="#0" id="circle100"/>
	<circle cx="404.808" cy="4" r="4" fill="#0" id="circle101"/>
	<circle cx="421.508" cy="835.677" r="4" fill="#0" id="circle102"/>
	<circle cx="438.209" cy="4" r="4" fill="#0" id="circle103"/>
	<circle cx="454.909" cy="835.677" r="4" fill="#0" id="circle104"/>
	<circle cx="471.609" cy="4" r="4" fill="#0" id="circle105"/>
	<circle cx="488.31" cy="835.677" r="4" fill="#0" id="circle106"/>
	<circle cx="505.01" cy="4" r="4" fill="#0" id="circle107"/>
	<circle cx="521.71" cy="835.677" r="4" fill="#0" id="circle108"/>
	<circle cx="538.411" cy="4" r="4" fill="#0" id="circle109"/>
	<circle cx="555.111" cy="835.677" r="4" fill="#0" id="circle110"/>
	<circle cx="571.811" cy="4" r="4" fill="#0" id="circle111"/>
	<circle cx="588.512" cy="835.677" r="4" fill="#0" id="circle112"/>
	<circle cx="595.192" cy="451.569" r="4" fill="#0" id="circle113"/>
	<circle cx="595.192" cy="484.97" r="4" fill="#0" id="circle114"/>
	<circle cx="595.192" cy="518.37" r="4" fill="#0" id="circle115"/>
	<circle cx="595.192" cy="551.771" r="4" fill="#0" id="circle116"/>
	<circle cx="595.192" cy="591.852" r="4" fill="#0" id="circle117"/>
	<circle cx="595.192" cy="625.253" r="4" fill="#0" id="circle118"/>
	<circle cx="595.192" cy="658.653" r="4" fill="#0" id="circle119"/>
	<circle cx="595.192" cy="698.734" r="4" fill="#0" id="circle120"/>
	<circle cx="595.192" cy="732.135" r="4" fill="#0" id="circle121"/>
	<circle cx="598.532" cy="765.535" r="4" fill="#0" id="circle122"/>
	<circle cx="605.212" cy="4" r="4" fill="#0" id="circle123"/>
	<circle cx="621.912" cy="835.677" r="4" fill="#0" id="circle124"/>
	<circle cx="625.253" cy="785.576" r="4" fill="#0" id="circle125"/>
	<circle cx="628.593" cy="448.229" r="4" fill="#0" id="circle126"/>
	<circle cx="628.593" cy="558.451" r="4" fill="#0" id="circle127"/>
	<circle cx="628.593" cy="665.333" r="4" fill="#0" id="circle128"/>
	<circle cx="638.613" cy="4" r="4" fill="#0" id="circle129"/>
	<circle cx="645.293" cy="588.512" r="4" fill="#0" id="circle130"/>
	<circle cx="645.293" cy="695.394" r="4" fill="#0" id="circle131"/>
	<circle cx="651.973" cy="765.535" r="4" fill="#0" id="circle132"/>
	<circle cx="655.313" cy="835.677" r="4" fill="#0" id="circle133"/>
	<circle cx="661.993" cy="448.229" r="4" fill="#0" id="circle134"/>
	<circle cx="661.993" cy="558.451" r="4" fill="#0" id="circle135"/>
	<circle cx="661.993" cy="665.333" r="4" fill="#0" id="circle136"/>
	<circle cx="672.013" cy="4" r="4" fill="#0" id="circle137"/>
	<circle cx="678.694" cy="588.512" r="4" fill="#0" id="circle138"/>
	<circle cx="678.694" cy="695.394" r="4" fill="#0" id="circle139"/>
	<circle cx="685.374" cy="765.535" r="4" fill="#0" id="circle140"/>
	<circle cx="688.714" cy="835.677" r="4" fill="#0" id="circle141"/>
	<circle cx="695.394" cy="448.229" r="4" fill="#0" id="circle142"/>
	<circle cx="695.394" cy="558.451" r="4" fill="#0" id="circle143"/>
	<circle cx="695.394" cy="665.333" r="4" fill="#0" id="circle144"/>
	<circle cx="705.414" cy="4" r="4" fill="#0" id="circle145"/>
	<circle cx="712.094" cy="588.512" r="4" fill="#0" id="circle146"/>
	<circle cx="712.094" cy="695.394" r="4" fill="#0" id="circle147"/>
	<circle cx="718.774" cy="765.535" r="4" fill="#0" id="circle148"/>
	<circle cx="722.114" cy="835.677" r="4" fill="#0" id="circle149"/>
	<circle cx="728.795" cy="448.229" r="4" fill="#0" id="circle150"/>
	<circle cx="728.795" cy="558.451" r="4" fill="#0" id="circle151"/>
	<circle cx="728.795" cy="665.333" r="4" fill="#0" id="circle152"/>
	<circle cx="738.815" cy="4" r="4" fill="#0" id="circle153"/>
	<circle cx="745.495" cy="588.512" r="4" fill="#0" id="circle154"/>
	<circle cx="745.495" cy="695.394" r="4" fill="#0" id="circle155"/>
	<circle cx="752.175" cy="765.535" r="4" fill="#0" id="circle156"/>
	<circle cx="755.515" cy="835.677" r="4" fill="#0" id="circle157"/>
	<circle cx="762.195" cy="448.229" r="4" fill="#0" id="circle158"/>
	<circle cx="762.195" cy="558.451" r="4" fill="#0" id="circle159"/>
	<circle cx="762.195" cy="665.333" r="4" fill="#0" id="circle160"/>
	<circle cx="772.215" cy="4" r="4" fill="#0" id="circle161"/>
	<circle cx="778.896" cy="588.512" r="4" fill="#0" id="circle162"/>
	<circle cx="778.896" cy="695.394" r="4" fill="#0" id="circle163"/>
	<circle cx="785.576" cy="765.535" r="4" fill="#0" id="circle164"/>
	<circle cx="788.916" cy="835.677" r="4" fill="#0" id="circle165"/>
	<circle cx="795.596" cy="448.229" r="4" fill="#0" id="circle166"/>
	<circle cx="795.596" cy="558.451" r="4" fill="#0" id="circle167"/>
	<circle cx="795.596" cy="665.333" r="4" fill="#0" id="circle168"/>
	<circle cx="805.616" cy="4" r="4" fill="#0" id="circle169"/>
	<circle cx="812.296" cy="588.512" r="4" fill="#0" id="circle170"/>
	<circle cx="812.296" cy="695.394" r="4" fill="#0" id="circle171"/>
	<circle cx="818.976" cy="765.535" r="4" fill="#0" id="circle172"/>
	<circle cx="822.316" cy="835.677" r="4" fill="#0" id="circle173"/>
	<circle cx="828.997" cy="448.229" r="4" fill="#0" id="circle174"/>
	<circle cx="828.997" cy="558.451" r="4" fill="#0" id="circle175"/>
	<circle cx="828.997" cy="665.333" r="4" fill="#0" id="circle176"/>
	<circle cx="839.017" cy="4" r="4" fill="#0" id="circle177"/>
	<circle cx="845.697" cy="588.512" r="4" fill="#0" id="circle178"/>
	<circle cx="845.697" cy="695.394" r="4" fill="#0" id="circle179"/>
	<circle cx="852.377" cy="765.535" r="4" fill="#0" id="circle180"/>
	<circle cx="855.717" cy="835.677" r="4" fill="#0" id="circle181"/>
	<circle cx="862.397" cy="448.229" r="4" fill="#0" id="circle182"/>
	<circle cx="862.397" cy="558.451" r="4" fill="#0" id="circle183"/>
	<circle cx="862.397" cy="665.333" r="4" fill="#0" id="circle184"/>
	<circle cx="872.418" cy="4" r="4" fill="#0" id="circle185"/>
	<circle cx="879.098" cy="588.512" r="4" fill="#0" id="circle186"/>
	<circle cx="879.098" cy="695.394" r="4" fill="#0" id="circle187"/>
	<circle cx="885.778" cy="765.535" r="4" fill="#0" id="circle188"/>
	<circle cx="889.118" cy="835.677" r="4" fill="#0" id="circle189"/>
	<circle cx="895.798" cy="444.889" r="4" fill="#0" id="circle190"/>
	<circle cx="895.798" cy="558.451" r="4" fill="#0" id="circle191"/>
	<circle cx="895.798" cy="665.333" r="4" fill="#0" id="circle192"/>
	<circle cx="902.478" cy="20.7003" r="4" fill="#0" id="circle193"/>
	<circle cx="902.478" cy="54.101" r="4" fill="#0" id="circle194"/>
	<circle cx="902.478" cy="87.5017" r="4" fill="#0" id="circle195"/>
	<circle cx="902.478" cy="120.902" r="4" fill="#0" id="circle196"/>
	<circle cx="902.478" cy="154.303" r="4" fill="#0" id="circle197"/>
	<circle cx="902.478" cy="187.704" r="4" fill="#0" id="circle198"/>
	<circle cx="902.478" cy="221.104" r="4" fill="#0" id="circle199"/>
	<circle cx="902.478" cy="254.505" r="4" fill="#0" id="circle200"/>
	<circle cx="902.478" cy="287.906" r="4" fill="#0" id="circle201"/>
	<circle cx="902.478" cy="321.306" r="4" fill="#0" id="circle202"/>
	<circle cx="902.478" cy="354.707" r="4" fill="#0" id="circle203"/>
	<circle cx="902.478" cy="388.108" r="4" fill="#0" id="circle204"/>
	<circle cx="912.498" cy="588.512" r="4" fill="#0" id="circle205"/>
	<circle cx="912.498" cy="695.394" r="4" fill="#0" id="circle206"/>
	<circle cx="919.178" cy="765.535" r="4" fill="#0" id="circle207"/>
	<circle cx="922.519" cy="842.357" r="4" fill="#0" id="circle208"/>
	<circle cx="929.199" cy="558.451" r="4" fill="#0" id="circle209"/>
	<circle cx="929.199" cy="665.333" r="4" fill="#0" id="circle210"/>
	<circle cx="952.579" cy="765.535" r="4" fill="#0" id="circle211"/>
	<circle cx="955.919" cy="849.037" r="4" fill="#0" id="circle212"/>
	<circle cx="985.98" cy="765.535" r="4" fill="#0" id="circle213"/>
	<circle cx="989.32" cy="835.677" r="4" fill="#0" id="circle214"/>
	<circle cx="996" cy="798.936" r="4" fill="#0" id="circle215"/>
	</g>
</svg>