<?xml version="1.0" encoding="UTF-8" standalone="no"?>
<!-- Created with CurveBenchmark -->
<svg
	xmlns:dc="http://purl.org/dc/elements/1.1/"
	xmlns:cc="http://creativecommons.org/ns#"
	xmlns:rdf="http://www.w3.org/1999/02/22-rdf-syntax-ns#"
	xmlns:svg="http://www.w3.org/2000/svg"
	xmlns="http://www.w3.org/2000/svg"
	xmlns:sodipodi="http://sodipodi.sourceforge.net/DTD/sodipodi-0.dtd"
	xmlns:inkscape="http://www.inkscape.org/namespaces/inkscape"
	width="1000"
	height="1000"
	id="svg2"
	version="1.1"
	sodipodi:docname="manifold/crust-bed050.png.txt">
<defs
	id="defs4" />
<metadata
	id="metadata7">
	<rdf:RDF>
		<cc:Work
			rdf:about="">
			<dc:format>image/svg+xml</dc:format>
			<dc:type
				rdf:resource="http://purl.org/dc/dcmitype/StillImage" />
			<dc:title></dc:title>
		</cc:Work>
	</rdf:RDF>
</metadata>
<g
	inkscape:label="Layer 1"
	inkscape:groupmode="layer"
	id="layer1">
	<path style="fill:none;stroke:red;stroke-width:1px;stroke-linecap:butt;stroke-linejoin:miter;stroke-opacity:1" d="M 70.7849,77.3005 56.1248,85.445 z" id="boundary" inkscape:connector-curvature="0" />
	<path style="fill:none;stroke:red;stroke-width:1px;stroke-linecap:butt;stroke-linejoin:miter;stroke-opacity:1" d="M 39.8358,91.9606 56.1248,85.445 z" id="boundary" inkscape:connector-curvature="0" />
	<path style="fill:none;stroke:red;stroke-width:1px;stroke-linecap:butt;stroke-linejoin:miter;stroke-opacity:1" d="M 39.8358,91.9606 25.1757,100.105 z" id="boundary" inkscape:connector-curvature="0" />
	<path style="fill:none;stroke:red;stroke-width:1px;stroke-linecap:butt;stroke-linejoin:miter;stroke-opacity:1" d="M 4,124.539 12.1445,109.878 z" id="boundary" inkscape:connector-curvature="0" />
	<path style="fill:none;stroke:red;stroke-width:1px;stroke-linecap:butt;stroke-linejoin:miter;stroke-opacity:1" d="M 25.1757,100.105 12.1445,109.878 z" id="boundary" inkscape:connector-curvature="0" />
	<path style="fill:none;stroke:red;stroke-width:1px;stroke-linecap:butt;stroke-linejoin:miter;stroke-opacity:1" d="M 4,140.828 4,124.539 z" id="boundary" inkscape:connector-curvature="0" />
	<path style="fill:none;stroke:red;stroke-width:1px;stroke-linecap:butt;stroke-linejoin:miter;stroke-opacity:1" d="M 10.5156,157.117 4,140.828 z" id="boundary" inkscape:connector-curvature="0" />
	<path style="fill:none;stroke:red;stroke-width:1px;stroke-linecap:butt;stroke-linejoin:miter;stroke-opacity:1" d="M 199.468,4 183.179,7.2578 z" id="boundary" inkscape:connector-curvature="0" />
	<path style="fill:none;stroke:red;stroke-width:1px;stroke-linecap:butt;stroke-linejoin:miter;stroke-opacity:1" d="M 173.406,26.8046 183.179,7.2578 z" id="boundary" inkscape:connector-curvature="0" />
	<path style="fill:none;stroke:red;stroke-width:1px;stroke-linecap:butt;stroke-linejoin:miter;stroke-opacity:1" d="M 173.406,26.8046 160.374,36.578 z" id="boundary" inkscape:connector-curvature="0" />
	<path style="fill:none;stroke:red;stroke-width:1px;stroke-linecap:butt;stroke-linejoin:miter;stroke-opacity:1" d="M 160.374,36.578 145.714,44.7225 z" id="boundary" inkscape:connector-curvature="0" />
	<path style="fill:none;stroke:red;stroke-width:1px;stroke-linecap:butt;stroke-linejoin:miter;stroke-opacity:1" d="M 87.0739,72.4138 70.7849,77.3005 z" id="boundary" inkscape:connector-curvature="0" />
	<path style="fill:none;stroke:red;stroke-width:1px;stroke-linecap:butt;stroke-linejoin:miter;stroke-opacity:1" d="M 87.0739,72.4138 103.363,65.8982 z" id="boundary" inkscape:connector-curvature="0" />
	<path style="fill:none;stroke:red;stroke-width:1px;stroke-linecap:butt;stroke-linejoin:miter;stroke-opacity:1" d="M 135.941,57.7537 145.714,44.7225 z" id="boundary" inkscape:connector-curvature="0" />
	<path style="fill:none;stroke:red;stroke-width:1px;stroke-linecap:butt;stroke-linejoin:miter;stroke-opacity:1" d="M 135.941,57.7537 119.652,62.6404 z" id="boundary" inkscape:connector-curvature="0" />
	<path style="fill:none;stroke:red;stroke-width:1px;stroke-linecap:butt;stroke-linejoin:miter;stroke-opacity:1" d="M 103.363,65.8982 119.652,62.6404 z" id="boundary" inkscape:connector-curvature="0" />
	<path style="fill:none;stroke:red;stroke-width:1px;stroke-linecap:butt;stroke-linejoin:miter;stroke-opacity:1" d="M 13.7734,173.406 13.7734,189.695 z" id="boundary" inkscape:connector-curvature="0" />
	<path style="fill:none;stroke:red;stroke-width:1px;stroke-linecap:butt;stroke-linejoin:miter;stroke-opacity:1" d="M 13.7734,173.406 10.5156,157.117 z" id="boundary" inkscape:connector-curvature="0" />
	<path style="fill:none;stroke:red;stroke-width:1px;stroke-linecap:butt;stroke-linejoin:miter;stroke-opacity:1" d="M 13.7734,189.695 13.7734,205.984 z" id="boundary" inkscape:connector-curvature="0" />
	<path style="fill:none;stroke:red;stroke-width:1px;stroke-linecap:butt;stroke-linejoin:miter;stroke-opacity:1" d="M 13.7734,205.984 13.7734,222.273 z" id="boundary" inkscape:connector-curvature="0" />
	<path style="fill:none;stroke:red;stroke-width:1px;stroke-linecap:butt;stroke-linejoin:miter;stroke-opacity:1" d="M 13.7734,238.562 13.7734,222.273 z" id="boundary" inkscape:connector-curvature="0" />
	<path style="fill:none;stroke:red;stroke-width:1px;stroke-linecap:butt;stroke-linejoin:miter;stroke-opacity:1" d="M 13.7734,254.851 10.5156,277.655 z" id="boundary" inkscape:connector-curvature="0" />
	<path style="fill:none;stroke:red;stroke-width:1px;stroke-linecap:butt;stroke-linejoin:miter;stroke-opacity:1" d="M 13.7734,238.562 13.7734,254.851 z" id="boundary" inkscape:connector-curvature="0" />
	<path style="fill:none;stroke:red;stroke-width:1px;stroke-linecap:butt;stroke-linejoin:miter;stroke-opacity:1" d="M 214.128,12.1445 199.468,4 z" id="boundary" inkscape:connector-curvature="0" />
	<path style="fill:none;stroke:red;stroke-width:1px;stroke-linecap:butt;stroke-linejoin:miter;stroke-opacity:1" d="M 214.128,12.1445 223.901,25.1757 z" id="boundary" inkscape:connector-curvature="0" />
	<path style="fill:none;stroke:red;stroke-width:1px;stroke-linecap:butt;stroke-linejoin:miter;stroke-opacity:1" d="M 236.933,36.578 223.901,25.1757 z" id="boundary" inkscape:connector-curvature="0" />
	<path style="fill:none;stroke:red;stroke-width:1px;stroke-linecap:butt;stroke-linejoin:miter;stroke-opacity:1" d="M 292.315,69.156 276.026,65.8982 z" id="boundary" inkscape:connector-curvature="0" />
	<path style="fill:none;stroke:red;stroke-width:1px;stroke-linecap:butt;stroke-linejoin:miter;stroke-opacity:1" d="M 251.593,44.7225 236.933,36.578 z" id="boundary" inkscape:connector-curvature="0" />
	<path style="fill:none;stroke:red;stroke-width:1px;stroke-linecap:butt;stroke-linejoin:miter;stroke-opacity:1" d="M 251.593,44.7225 259.737,59.3826 z" id="boundary" inkscape:connector-curvature="0" />
	<path style="fill:none;stroke:red;stroke-width:1px;stroke-linecap:butt;stroke-linejoin:miter;stroke-opacity:1" d="M 259.737,59.3826 276.026,65.8982 z" id="boundary" inkscape:connector-curvature="0" />
	<path style="fill:none;stroke:red;stroke-width:1px;stroke-linecap:butt;stroke-linejoin:miter;stroke-opacity:1" d="M 324.893,82.1872 308.604,75.6716 z" id="boundary" inkscape:connector-curvature="0" />
	<path style="fill:none;stroke:red;stroke-width:1px;stroke-linecap:butt;stroke-linejoin:miter;stroke-opacity:1" d="M 292.315,69.156 308.604,75.6716 z" id="boundary" inkscape:connector-curvature="0" />
	<path style="fill:none;stroke:red;stroke-width:1px;stroke-linecap:butt;stroke-linejoin:miter;stroke-opacity:1" d="M 378.647,119.652 368.874,106.621 z" id="boundary" inkscape:connector-curvature="0" />
	<path style="fill:none;stroke:red;stroke-width:1px;stroke-linecap:butt;stroke-linejoin:miter;stroke-opacity:1" d="M 341.182,88.7028 324.893,82.1872 z" id="boundary" inkscape:connector-curvature="0" />
	<path style="fill:none;stroke:red;stroke-width:1px;stroke-linecap:butt;stroke-linejoin:miter;stroke-opacity:1" d="M 341.182,88.7028 355.842,96.8473 z" id="boundary" inkscape:connector-curvature="0" />
	<path style="fill:none;stroke:red;stroke-width:1px;stroke-linecap:butt;stroke-linejoin:miter;stroke-opacity:1" d="M 368.874,106.621 355.842,96.8473 z" id="boundary" inkscape:connector-curvature="0" />
	<path style="fill:none;stroke:red;stroke-width:1px;stroke-linecap:butt;stroke-linejoin:miter;stroke-opacity:1" d="M 378.647,119.652 380.276,135.941 z" id="boundary" inkscape:connector-curvature="0" />
	<path style="fill:none;stroke:red;stroke-width:1px;stroke-linecap:butt;stroke-linejoin:miter;stroke-opacity:1" d="M 380.276,135.941 373.76,153.859 z" id="boundary" inkscape:connector-curvature="0" />
	<path style="fill:none;stroke:red;stroke-width:1px;stroke-linecap:butt;stroke-linejoin:miter;stroke-opacity:1" d="M 367.245,170.148 367.245,186.437 z" id="boundary" inkscape:connector-curvature="0" />
	<path style="fill:none;stroke:red;stroke-width:1px;stroke-linecap:butt;stroke-linejoin:miter;stroke-opacity:1" d="M 378.647,199.468 367.245,186.437 z" id="boundary" inkscape:connector-curvature="0" />
	<path style="fill:none;stroke:red;stroke-width:1px;stroke-linecap:butt;stroke-linejoin:miter;stroke-opacity:1" d="M 367.245,170.148 373.76,153.859 z" id="boundary" inkscape:connector-curvature="0" />
	<path style="fill:none;stroke:red;stroke-width:1px;stroke-linecap:butt;stroke-linejoin:miter;stroke-opacity:1" d="M 394.936,199.468 378.647,199.468 z" id="boundary" inkscape:connector-curvature="0" />
	<path style="fill:none;stroke:red;stroke-width:1px;stroke-linecap:butt;stroke-linejoin:miter;stroke-opacity:1" d="M 411.225,199.468 427.514,202.726 z" id="boundary" inkscape:connector-curvature="0" />
	<path style="fill:none;stroke:red;stroke-width:1px;stroke-linecap:butt;stroke-linejoin:miter;stroke-opacity:1" d="M 427.514,202.726 443.803,209.241 z" id="boundary" inkscape:connector-curvature="0" />
	<path style="fill:none;stroke:red;stroke-width:1px;stroke-linecap:butt;stroke-linejoin:miter;stroke-opacity:1" d="M 394.936,199.468 411.225,199.468 z" id="boundary" inkscape:connector-curvature="0" />
	<path style="fill:none;stroke:red;stroke-width:1px;stroke-linecap:butt;stroke-linejoin:miter;stroke-opacity:1" d="M 4,359.1 4,375.389 z" id="boundary" inkscape:connector-curvature="0" />
	<path style="fill:none;stroke:red;stroke-width:1px;stroke-linecap:butt;stroke-linejoin:miter;stroke-opacity:1" d="M 4,391.678 4,375.389 z" id="boundary" inkscape:connector-curvature="0" />
	<path style="fill:none;stroke:red;stroke-width:1px;stroke-linecap:butt;stroke-linejoin:miter;stroke-opacity:1" d="M 7.2578,339.553 4,359.1 z" id="boundary" inkscape:connector-curvature="0" />
	<path style="fill:none;stroke:red;stroke-width:1px;stroke-linecap:butt;stroke-linejoin:miter;stroke-opacity:1" d="M 7.2578,323.264 7.2578,339.553 z" id="boundary" inkscape:connector-curvature="0" />
	<path style="fill:none;stroke:red;stroke-width:1px;stroke-linecap:butt;stroke-linejoin:miter;stroke-opacity:1" d="M 7.2578,306.975 7.2578,323.264 z" id="boundary" inkscape:connector-curvature="0" />
	<path style="fill:none;stroke:red;stroke-width:1px;stroke-linecap:butt;stroke-linejoin:miter;stroke-opacity:1" d="M 10.5156,277.655 7.2578,306.975 z" id="boundary" inkscape:connector-curvature="0" />
	<path style="fill:none;stroke:red;stroke-width:1px;stroke-linecap:butt;stroke-linejoin:miter;stroke-opacity:1" d="M 4,407.967 7.2578,424.256 z" id="boundary" inkscape:connector-curvature="0" />
	<path style="fill:none;stroke:red;stroke-width:1px;stroke-linecap:butt;stroke-linejoin:miter;stroke-opacity:1" d="M 7.2578,440.545 10.5156,456.834 z" id="boundary" inkscape:connector-curvature="0" />
	<path style="fill:none;stroke:red;stroke-width:1px;stroke-linecap:butt;stroke-linejoin:miter;stroke-opacity:1" d="M 7.2578,424.256 7.2578,440.545 z" id="boundary" inkscape:connector-curvature="0" />
	<path style="fill:none;stroke:red;stroke-width:1px;stroke-linecap:butt;stroke-linejoin:miter;stroke-opacity:1" d="M 4,391.678 4,407.967 z" id="boundary" inkscape:connector-curvature="0" />
	<path style="fill:none;stroke:red;stroke-width:1px;stroke-linecap:butt;stroke-linejoin:miter;stroke-opacity:1" d="M 51.2381,438.916 34.9491,440.545 z" id="boundary" inkscape:connector-curvature="0" />
	<path style="fill:none;stroke:red;stroke-width:1px;stroke-linecap:butt;stroke-linejoin:miter;stroke-opacity:1" d="M 197.839,442.174 181.55,442.174 z" id="boundary" inkscape:connector-curvature="0" />
	<path style="fill:none;stroke:red;stroke-width:1px;stroke-linecap:butt;stroke-linejoin:miter;stroke-opacity:1" d="M 67.5271,442.174 51.2381,438.916 z" id="boundary" inkscape:connector-curvature="0" />
	<path style="fill:none;stroke:red;stroke-width:1px;stroke-linecap:butt;stroke-linejoin:miter;stroke-opacity:1" d="M 83.8161,442.174 67.5271,442.174 z" id="boundary" inkscape:connector-curvature="0" />
	<path style="fill:none;stroke:red;stroke-width:1px;stroke-linecap:butt;stroke-linejoin:miter;stroke-opacity:1" d="M 10.5156,456.834 10.5156,479.639 z" id="boundary" inkscape:connector-curvature="0" />
	<path style="fill:none;stroke:red;stroke-width:1px;stroke-linecap:butt;stroke-linejoin:miter;stroke-opacity:1" d="M 34.9491,440.545 34.9491,456.834 z" id="boundary" inkscape:connector-curvature="0" />
	<path style="fill:none;stroke:red;stroke-width:1px;stroke-linecap:butt;stroke-linejoin:miter;stroke-opacity:1" d="M 31.6913,482.897 34.9491,456.834 z" id="boundary" inkscape:connector-curvature="0" />
	<path style="fill:none;stroke:red;stroke-width:1px;stroke-linecap:butt;stroke-linejoin:miter;stroke-opacity:1" d="M 13.7734,495.928 10.5156,479.639 z" id="boundary" inkscape:connector-curvature="0" />
	<path style="fill:none;stroke:red;stroke-width:1px;stroke-linecap:butt;stroke-linejoin:miter;stroke-opacity:1" d="M 13.7734,495.928 26.8046,507.33 z" id="boundary" inkscape:connector-curvature="0" />
	<path style="fill:none;stroke:red;stroke-width:1px;stroke-linecap:butt;stroke-linejoin:miter;stroke-opacity:1" d="M 100.105,442.174 83.8161,442.174 z" id="boundary" inkscape:connector-curvature="0" />
	<path style="fill:none;stroke:red;stroke-width:1px;stroke-linecap:butt;stroke-linejoin:miter;stroke-opacity:1" d="M 100.105,442.174 116.394,442.174 z" id="boundary" inkscape:connector-curvature="0" />
	<path style="fill:none;stroke:red;stroke-width:1px;stroke-linecap:butt;stroke-linejoin:miter;stroke-opacity:1" d="M 116.394,442.174 132.683,442.174 z" id="boundary" inkscape:connector-curvature="0" />
	<path style="fill:none;stroke:red;stroke-width:1px;stroke-linecap:butt;stroke-linejoin:miter;stroke-opacity:1" d="M 148.972,442.174 132.683,442.174 z" id="boundary" inkscape:connector-curvature="0" />
	<path style="fill:none;stroke:red;stroke-width:1px;stroke-linecap:butt;stroke-linejoin:miter;stroke-opacity:1" d="M 148.972,442.174 165.261,442.174 z" id="boundary" inkscape:connector-curvature="0" />
	<path style="fill:none;stroke:red;stroke-width:1px;stroke-linecap:butt;stroke-linejoin:miter;stroke-opacity:1" d="M 181.55,442.174 165.261,442.174 z" id="boundary" inkscape:connector-curvature="0" />
	<path style="fill:none;stroke:red;stroke-width:1px;stroke-linecap:butt;stroke-linejoin:miter;stroke-opacity:1" d="M 214.128,442.174 197.839,442.174 z" id="boundary" inkscape:connector-curvature="0" />
	<path style="fill:none;stroke:red;stroke-width:1px;stroke-linecap:butt;stroke-linejoin:miter;stroke-opacity:1" d="M 214.128,442.174 230.417,442.174 z" id="boundary" inkscape:connector-curvature="0" />
	<path style="fill:none;stroke:red;stroke-width:1px;stroke-linecap:butt;stroke-linejoin:miter;stroke-opacity:1" d="M 246.706,442.174 230.417,442.174 z" id="boundary" inkscape:connector-curvature="0" />
	<path style="fill:none;stroke:red;stroke-width:1px;stroke-linecap:butt;stroke-linejoin:miter;stroke-opacity:1" d="M 246.706,442.174 262.995,442.174 z" id="boundary" inkscape:connector-curvature="0" />
	<path style="fill:none;stroke:red;stroke-width:1px;stroke-linecap:butt;stroke-linejoin:miter;stroke-opacity:1" d="M 279.284,442.174 295.573,442.174 z" id="boundary" inkscape:connector-curvature="0" />
	<path style="fill:none;stroke:red;stroke-width:1px;stroke-linecap:butt;stroke-linejoin:miter;stroke-opacity:1" d="M 279.284,442.174 262.995,442.174 z" id="boundary" inkscape:connector-curvature="0" />
	<path style="fill:none;stroke:red;stroke-width:1px;stroke-linecap:butt;stroke-linejoin:miter;stroke-opacity:1" d="M 311.862,442.174 328.151,442.174 z" id="boundary" inkscape:connector-curvature="0" />
	<path style="fill:none;stroke:red;stroke-width:1px;stroke-linecap:butt;stroke-linejoin:miter;stroke-opacity:1" d="M 328.151,442.174 344.44,442.174 z" id="boundary" inkscape:connector-curvature="0" />
	<path style="fill:none;stroke:red;stroke-width:1px;stroke-linecap:butt;stroke-linejoin:miter;stroke-opacity:1" d="M 295.573,442.174 311.862,442.174 z" id="boundary" inkscape:connector-curvature="0" />
	<path style="fill:none;stroke:red;stroke-width:1px;stroke-linecap:butt;stroke-linejoin:miter;stroke-opacity:1" d="M 352.585,456.834 344.44,442.174 z" id="boundary" inkscape:connector-curvature="0" />
	<path style="fill:none;stroke:red;stroke-width:1px;stroke-linecap:butt;stroke-linejoin:miter;stroke-opacity:1" d="M 409.596,442.174 393.307,442.174 z" id="boundary" inkscape:connector-curvature="0" />
	<path style="fill:none;stroke:red;stroke-width:1px;stroke-linecap:butt;stroke-linejoin:miter;stroke-opacity:1" d="M 425.885,442.174 409.596,442.174 z" id="boundary" inkscape:connector-curvature="0" />
	<path style="fill:none;stroke:red;stroke-width:1px;stroke-linecap:butt;stroke-linejoin:miter;stroke-opacity:1" d="M 393.307,442.174 377.018,443.803 z" id="boundary" inkscape:connector-curvature="0" />
	<path style="fill:none;stroke:red;stroke-width:1px;stroke-linecap:butt;stroke-linejoin:miter;stroke-opacity:1" d="M 442.174,442.174 458.463,442.174 z" id="boundary" inkscape:connector-curvature="0" />
	<path style="fill:none;stroke:red;stroke-width:1px;stroke-linecap:butt;stroke-linejoin:miter;stroke-opacity:1" d="M 442.174,442.174 425.885,442.174 z" id="boundary" inkscape:connector-curvature="0" />
	<path style="fill:none;stroke:red;stroke-width:1px;stroke-linecap:butt;stroke-linejoin:miter;stroke-opacity:1" d="M 352.585,456.834 355.842,476.381 z" id="boundary" inkscape:connector-curvature="0" />
	<path style="fill:none;stroke:red;stroke-width:1px;stroke-linecap:butt;stroke-linejoin:miter;stroke-opacity:1" d="M 355.842,476.381 355.842,492.67 z" id="boundary" inkscape:connector-curvature="0" />
	<path style="fill:none;stroke:red;stroke-width:1px;stroke-linecap:butt;stroke-linejoin:miter;stroke-opacity:1" d="M 377.018,443.803 377.018,460.092 z" id="boundary" inkscape:connector-curvature="0" />
	<path style="fill:none;stroke:red;stroke-width:1px;stroke-linecap:butt;stroke-linejoin:miter;stroke-opacity:1" d="M 373.76,482.897 377.018,460.092 z" id="boundary" inkscape:connector-curvature="0" />
	<path style="fill:none;stroke:red;stroke-width:1px;stroke-linecap:butt;stroke-linejoin:miter;stroke-opacity:1" d="M 365.616,505.701 355.842,492.67 z" id="boundary" inkscape:connector-curvature="0" />
	<path style="fill:none;stroke:red;stroke-width:1px;stroke-linecap:butt;stroke-linejoin:miter;stroke-opacity:1" d="M 443.803,209.241 456.834,219.015 z" id="boundary" inkscape:connector-curvature="0" />
	<path style="fill:none;stroke:red;stroke-width:1px;stroke-linecap:butt;stroke-linejoin:miter;stroke-opacity:1" d="M 471.494,227.159 456.834,219.015 z" id="boundary" inkscape:connector-curvature="0" />
	<path style="fill:none;stroke:red;stroke-width:1px;stroke-linecap:butt;stroke-linejoin:miter;stroke-opacity:1" d="M 484.525,236.933 471.494,227.159 z" id="boundary" inkscape:connector-curvature="0" />
	<path style="fill:none;stroke:red;stroke-width:1px;stroke-linecap:butt;stroke-linejoin:miter;stroke-opacity:1" d="M 484.525,236.933 497.557,248.335 z" id="boundary" inkscape:connector-curvature="0" />
	<path style="fill:none;stroke:red;stroke-width:1px;stroke-linecap:butt;stroke-linejoin:miter;stroke-opacity:1" d="M 510.588,258.108 497.557,248.335 z" id="boundary" inkscape:connector-curvature="0" />
	<path style="fill:none;stroke:red;stroke-width:1px;stroke-linecap:butt;stroke-linejoin:miter;stroke-opacity:1" d="M 523.619,267.882 510.588,258.108 z" id="boundary" inkscape:connector-curvature="0" />
	<path style="fill:none;stroke:red;stroke-width:1px;stroke-linecap:butt;stroke-linejoin:miter;stroke-opacity:1" d="M 707.685,261.366 691.396,262.995 z" id="boundary" inkscape:connector-curvature="0" />
	<path style="fill:none;stroke:red;stroke-width:1px;stroke-linecap:butt;stroke-linejoin:miter;stroke-opacity:1" d="M 691.396,262.995 675.107,264.624 z" id="boundary" inkscape:connector-curvature="0" />
	<path style="fill:none;stroke:red;stroke-width:1px;stroke-linecap:butt;stroke-linejoin:miter;stroke-opacity:1" d="M 523.619,267.882 531.764,282.542 z" id="boundary" inkscape:connector-curvature="0" />
	<path style="fill:none;stroke:red;stroke-width:1px;stroke-linecap:butt;stroke-linejoin:miter;stroke-opacity:1" d="M 546.424,290.686 531.764,282.542 z" id="boundary" inkscape:connector-curvature="0" />
	<path style="fill:none;stroke:red;stroke-width:1px;stroke-linecap:butt;stroke-linejoin:miter;stroke-opacity:1" d="M 562.713,290.686 546.424,290.686 z" id="boundary" inkscape:connector-curvature="0" />
	<path style="fill:none;stroke:red;stroke-width:1px;stroke-linecap:butt;stroke-linejoin:miter;stroke-opacity:1" d="M 562.713,290.686 579.002,290.686 z" id="boundary" inkscape:connector-curvature="0" />
	<path style="fill:none;stroke:red;stroke-width:1px;stroke-linecap:butt;stroke-linejoin:miter;stroke-opacity:1" d="M 595.291,289.057 609.951,280.913 z" id="boundary" inkscape:connector-curvature="0" />
	<path style="fill:none;stroke:red;stroke-width:1px;stroke-linecap:butt;stroke-linejoin:miter;stroke-opacity:1" d="M 626.24,277.655 609.951,280.913 z" id="boundary" inkscape:connector-curvature="0" />
	<path style="fill:none;stroke:red;stroke-width:1px;stroke-linecap:butt;stroke-linejoin:miter;stroke-opacity:1" d="M 579.002,290.686 595.291,289.057 z" id="boundary" inkscape:connector-curvature="0" />
	<path style="fill:none;stroke:red;stroke-width:1px;stroke-linecap:butt;stroke-linejoin:miter;stroke-opacity:1" d="M 658.818,267.882 642.529,271.14 z" id="boundary" inkscape:connector-curvature="0" />
	<path style="fill:none;stroke:red;stroke-width:1px;stroke-linecap:butt;stroke-linejoin:miter;stroke-opacity:1" d="M 626.24,277.655 642.529,271.14 z" id="boundary" inkscape:connector-curvature="0" />
	<path style="fill:none;stroke:red;stroke-width:1px;stroke-linecap:butt;stroke-linejoin:miter;stroke-opacity:1" d="M 658.818,267.882 675.107,264.624 z" id="boundary" inkscape:connector-curvature="0" />
	<path style="fill:none;stroke:red;stroke-width:1px;stroke-linecap:butt;stroke-linejoin:miter;stroke-opacity:1" d="M 779.356,219.015 766.325,228.788 z" id="boundary" inkscape:connector-curvature="0" />
	<path style="fill:none;stroke:red;stroke-width:1px;stroke-linecap:butt;stroke-linejoin:miter;stroke-opacity:1" d="M 750.036,235.304 766.325,228.788 z" id="boundary" inkscape:connector-curvature="0" />
	<path style="fill:none;stroke:red;stroke-width:1px;stroke-linecap:butt;stroke-linejoin:miter;stroke-opacity:1" d="M 795.645,219.015 779.356,219.015 z" id="boundary" inkscape:connector-curvature="0" />
	<path style="fill:none;stroke:red;stroke-width:1px;stroke-linecap:butt;stroke-linejoin:miter;stroke-opacity:1" d="M 808.677,228.788 795.645,219.015 z" id="boundary" inkscape:connector-curvature="0" />
	<path style="fill:none;stroke:red;stroke-width:1px;stroke-linecap:butt;stroke-linejoin:miter;stroke-opacity:1" d="M 821.708,238.562 808.677,228.788 z" id="boundary" inkscape:connector-curvature="0" />
	<path style="fill:none;stroke:red;stroke-width:1px;stroke-linecap:butt;stroke-linejoin:miter;stroke-opacity:1" d="M 750.036,235.304 733.747,245.077 z" id="boundary" inkscape:connector-curvature="0" />
	<path style="fill:none;stroke:red;stroke-width:1px;stroke-linecap:butt;stroke-linejoin:miter;stroke-opacity:1" d="M 723.974,258.108 733.747,245.077 z" id="boundary" inkscape:connector-curvature="0" />
	<path style="fill:none;stroke:red;stroke-width:1px;stroke-linecap:butt;stroke-linejoin:miter;stroke-opacity:1" d="M 707.685,261.366 723.974,258.108 z" id="boundary" inkscape:connector-curvature="0" />
	<path style="fill:none;stroke:red;stroke-width:1px;stroke-linecap:butt;stroke-linejoin:miter;stroke-opacity:1" d="M 821.708,238.562 837.997,243.448 z" id="boundary" inkscape:connector-curvature="0" />
	<path style="fill:none;stroke:red;stroke-width:1px;stroke-linecap:butt;stroke-linejoin:miter;stroke-opacity:1" d="M 837.997,243.448 849.399,256.479 z" id="boundary" inkscape:connector-curvature="0" />
	<path style="fill:none;stroke:red;stroke-width:1px;stroke-linecap:butt;stroke-linejoin:miter;stroke-opacity:1" d="M 849.399,256.479 865.688,261.366 z" id="boundary" inkscape:connector-curvature="0" />
	<path style="fill:none;stroke:red;stroke-width:1px;stroke-linecap:butt;stroke-linejoin:miter;stroke-opacity:1" d="M 881.977,261.366 865.688,261.366 z" id="boundary" inkscape:connector-curvature="0" />
	<path style="fill:none;stroke:red;stroke-width:1px;stroke-linecap:butt;stroke-linejoin:miter;stroke-opacity:1" d="M 898.266,264.624 881.977,261.366 z" id="boundary" inkscape:connector-curvature="0" />
	<path style="fill:none;stroke:red;stroke-width:1px;stroke-linecap:butt;stroke-linejoin:miter;stroke-opacity:1" d="M 914.555,267.882 898.266,264.624 z" id="boundary" inkscape:connector-curvature="0" />
	<path style="fill:none;stroke:red;stroke-width:1px;stroke-linecap:butt;stroke-linejoin:miter;stroke-opacity:1" d="M 930.844,271.14 914.555,267.882 z" id="boundary" inkscape:connector-curvature="0" />
	<path style="fill:none;stroke:red;stroke-width:1px;stroke-linecap:butt;stroke-linejoin:miter;stroke-opacity:1" d="M 930.844,271.14 947.133,277.655 z" id="boundary" inkscape:connector-curvature="0" />
	<path style="fill:none;stroke:red;stroke-width:1px;stroke-linecap:butt;stroke-linejoin:miter;stroke-opacity:1" d="M 947.133,277.655 963.422,284.171 z" id="boundary" inkscape:connector-curvature="0" />
	<path style="fill:none;stroke:red;stroke-width:1px;stroke-linecap:butt;stroke-linejoin:miter;stroke-opacity:1" d="M 979.711,290.686 963.422,284.171 z" id="boundary" inkscape:connector-curvature="0" />
	<path style="fill:none;stroke:red;stroke-width:1px;stroke-linecap:butt;stroke-linejoin:miter;stroke-opacity:1" d="M 991.113,303.718 996,333.038 z" id="boundary" inkscape:connector-curvature="0" />
	<path style="fill:none;stroke:red;stroke-width:1px;stroke-linecap:butt;stroke-linejoin:miter;stroke-opacity:1" d="M 979.711,290.686 991.113,303.718 z" id="boundary" inkscape:connector-curvature="0" />
	<path style="fill:none;stroke:red;stroke-width:1px;stroke-linecap:butt;stroke-linejoin:miter;stroke-opacity:1" d="M 996,333.038 986.227,346.069 z" id="boundary" inkscape:connector-curvature="0" />
	<path style="fill:none;stroke:red;stroke-width:1px;stroke-linecap:butt;stroke-linejoin:miter;stroke-opacity:1" d="M 986.227,346.069 982.969,368.874 z" id="boundary" inkscape:connector-curvature="0" />
	<path style="fill:none;stroke:red;stroke-width:1px;stroke-linecap:butt;stroke-linejoin:miter;stroke-opacity:1" d="M 474.752,442.174 458.463,442.174 z" id="boundary" inkscape:connector-curvature="0" />
	<path style="fill:none;stroke:red;stroke-width:1px;stroke-linecap:butt;stroke-linejoin:miter;stroke-opacity:1" d="M 491.041,442.174 507.33,442.174 z" id="boundary" inkscape:connector-curvature="0" />
	<path style="fill:none;stroke:red;stroke-width:1px;stroke-linecap:butt;stroke-linejoin:miter;stroke-opacity:1" d="M 491.041,442.174 474.752,442.174 z" id="boundary" inkscape:connector-curvature="0" />
	<path style="fill:none;stroke:red;stroke-width:1px;stroke-linecap:butt;stroke-linejoin:miter;stroke-opacity:1" d="M 539.908,442.174 523.619,442.174 z" id="boundary" inkscape:connector-curvature="0" />
	<path style="fill:none;stroke:red;stroke-width:1px;stroke-linecap:butt;stroke-linejoin:miter;stroke-opacity:1" d="M 523.619,442.174 507.33,442.174 z" id="boundary" inkscape:connector-curvature="0" />
	<path style="fill:none;stroke:red;stroke-width:1px;stroke-linecap:butt;stroke-linejoin:miter;stroke-opacity:1" d="M 539.908,442.174 556.197,442.174 z" id="boundary" inkscape:connector-curvature="0" />
	<path style="fill:none;stroke:red;stroke-width:1px;stroke-linecap:butt;stroke-linejoin:miter;stroke-opacity:1" d="M 556.197,442.174 572.486,442.174 z" id="boundary" inkscape:connector-curvature="0" />
	<path style="fill:none;stroke:red;stroke-width:1px;stroke-linecap:butt;stroke-linejoin:miter;stroke-opacity:1" d="M 572.486,442.174 580.631,456.834 z" id="boundary" inkscape:connector-curvature="0" />
	<path style="fill:none;stroke:red;stroke-width:1px;stroke-linecap:butt;stroke-linejoin:miter;stroke-opacity:1" d="M 583.888,473.123 580.631,456.834 z" id="boundary" inkscape:connector-curvature="0" />
	<path style="fill:none;stroke:red;stroke-width:1px;stroke-linecap:butt;stroke-linejoin:miter;stroke-opacity:1" d="M 611.58,450.319 627.869,448.69 z" id="boundary" inkscape:connector-curvature="0" />
	<path style="fill:none;stroke:red;stroke-width:1px;stroke-linecap:butt;stroke-linejoin:miter;stroke-opacity:1" d="M 644.158,451.947 627.869,448.69 z" id="boundary" inkscape:connector-curvature="0" />
	<path style="fill:none;stroke:red;stroke-width:1px;stroke-linecap:butt;stroke-linejoin:miter;stroke-opacity:1" d="M 706.056,445.432 689.767,445.432 z" id="boundary" inkscape:connector-curvature="0" />
	<path style="fill:none;stroke:red;stroke-width:1px;stroke-linecap:butt;stroke-linejoin:miter;stroke-opacity:1" d="M 689.767,445.432 676.736,456.834 z" id="boundary" inkscape:connector-curvature="0" />
	<path style="fill:none;stroke:red;stroke-width:1px;stroke-linecap:butt;stroke-linejoin:miter;stroke-opacity:1" d="M 722.345,451.947 706.056,445.432 z" id="boundary" inkscape:connector-curvature="0" />
	<path style="fill:none;stroke:red;stroke-width:1px;stroke-linecap:butt;stroke-linejoin:miter;stroke-opacity:1" d="M 660.447,458.463 644.158,451.947 z" id="boundary" inkscape:connector-curvature="0" />
	<path style="fill:none;stroke:red;stroke-width:1px;stroke-linecap:butt;stroke-linejoin:miter;stroke-opacity:1" d="M 676.736,456.834 660.447,458.463 z" id="boundary" inkscape:connector-curvature="0" />
	<path style="fill:none;stroke:red;stroke-width:1px;stroke-linecap:butt;stroke-linejoin:miter;stroke-opacity:1" d="M 735.376,461.721 722.345,451.947 z" id="boundary" inkscape:connector-curvature="0" />
	<path style="fill:none;stroke:red;stroke-width:1px;stroke-linecap:butt;stroke-linejoin:miter;stroke-opacity:1" d="M 751.665,468.236 735.376,461.721 z" id="boundary" inkscape:connector-curvature="0" />
	<path style="fill:none;stroke:red;stroke-width:1px;stroke-linecap:butt;stroke-linejoin:miter;stroke-opacity:1" d="M 767.954,474.752 751.665,468.236 z" id="boundary" inkscape:connector-curvature="0" />
	<path style="fill:none;stroke:red;stroke-width:1px;stroke-linecap:butt;stroke-linejoin:miter;stroke-opacity:1" d="M 585.517,489.412 583.888,473.123 z" id="boundary" inkscape:connector-curvature="0" />
	<path style="fill:none;stroke:red;stroke-width:1px;stroke-linecap:butt;stroke-linejoin:miter;stroke-opacity:1" d="M 585.517,489.412 588.775,505.701 z" id="boundary" inkscape:connector-curvature="0" />
	<path style="fill:none;stroke:red;stroke-width:1px;stroke-linecap:butt;stroke-linejoin:miter;stroke-opacity:1" d="M 608.322,479.639 605.064,504.072 z" id="boundary" inkscape:connector-curvature="0" />
	<path style="fill:none;stroke:red;stroke-width:1px;stroke-linecap:butt;stroke-linejoin:miter;stroke-opacity:1" d="M 588.775,505.701 605.064,504.072 z" id="boundary" inkscape:connector-curvature="0" />
	<path style="fill:none;stroke:red;stroke-width:1px;stroke-linecap:butt;stroke-linejoin:miter;stroke-opacity:1" d="M 767.954,474.752 784.243,478.01 z" id="boundary" inkscape:connector-curvature="0" />
	<path style="fill:none;stroke:red;stroke-width:1px;stroke-linecap:butt;stroke-linejoin:miter;stroke-opacity:1" d="M 895.008,448.69 878.719,445.432 z" id="boundary" inkscape:connector-curvature="0" />
	<path style="fill:none;stroke:red;stroke-width:1px;stroke-linecap:butt;stroke-linejoin:miter;stroke-opacity:1" d="M 862.43,450.319 878.719,445.432 z" id="boundary" inkscape:connector-curvature="0" />
	<path style="fill:none;stroke:red;stroke-width:1px;stroke-linecap:butt;stroke-linejoin:miter;stroke-opacity:1" d="M 862.43,450.319 847.77,458.463 z" id="boundary" inkscape:connector-curvature="0" />
	<path style="fill:none;stroke:red;stroke-width:1px;stroke-linecap:butt;stroke-linejoin:miter;stroke-opacity:1" d="M 922.7,455.205 938.989,448.69 z" id="boundary" inkscape:connector-curvature="0" />
	<path style="fill:none;stroke:red;stroke-width:1px;stroke-linecap:butt;stroke-linejoin:miter;stroke-opacity:1" d="M 906.411,461.721 895.008,448.69 z" id="boundary" inkscape:connector-curvature="0" />
	<path style="fill:none;stroke:red;stroke-width:1px;stroke-linecap:butt;stroke-linejoin:miter;stroke-opacity:1" d="M 922.7,455.205 906.411,461.721 z" id="boundary" inkscape:connector-curvature="0" />
	<path style="fill:none;stroke:red;stroke-width:1px;stroke-linecap:butt;stroke-linejoin:miter;stroke-opacity:1" d="M 982.969,385.163 982.969,368.874 z" id="boundary" inkscape:connector-curvature="0" />
	<path style="fill:none;stroke:red;stroke-width:1px;stroke-linecap:butt;stroke-linejoin:miter;stroke-opacity:1" d="M 982.969,385.163 979.711,411.225 z" id="boundary" inkscape:connector-curvature="0" />
	<path style="fill:none;stroke:red;stroke-width:1px;stroke-linecap:butt;stroke-linejoin:miter;stroke-opacity:1" d="M 968.309,460.092 955.278,448.69 z" id="boundary" inkscape:connector-curvature="0" />
	<path style="fill:none;stroke:red;stroke-width:1px;stroke-linecap:butt;stroke-linejoin:miter;stroke-opacity:1" d="M 955.278,448.69 938.989,448.69 z" id="boundary" inkscape:connector-curvature="0" />
	<path style="fill:none;stroke:red;stroke-width:1px;stroke-linecap:butt;stroke-linejoin:miter;stroke-opacity:1" d="M 984.598,443.803 982.969,427.514 z" id="boundary" inkscape:connector-curvature="0" />
	<path style="fill:none;stroke:red;stroke-width:1px;stroke-linecap:butt;stroke-linejoin:miter;stroke-opacity:1" d="M 979.711,411.225 982.969,427.514 z" id="boundary" inkscape:connector-curvature="0" />
	<path style="fill:none;stroke:red;stroke-width:1px;stroke-linecap:butt;stroke-linejoin:miter;stroke-opacity:1" d="M 984.598,443.803 992.742,458.463 z" id="boundary" inkscape:connector-curvature="0" />
	<path style="fill:none;stroke:red;stroke-width:1px;stroke-linecap:butt;stroke-linejoin:miter;stroke-opacity:1" d="M 816.821,473.123 833.11,466.608 z" id="boundary" inkscape:connector-curvature="0" />
	<path style="fill:none;stroke:red;stroke-width:1px;stroke-linecap:butt;stroke-linejoin:miter;stroke-opacity:1" d="M 816.821,473.123 800.532,478.01 z" id="boundary" inkscape:connector-curvature="0" />
	<path style="fill:none;stroke:red;stroke-width:1px;stroke-linecap:butt;stroke-linejoin:miter;stroke-opacity:1" d="M 784.243,478.01 800.532,478.01 z" id="boundary" inkscape:connector-curvature="0" />
	<path style="fill:none;stroke:red;stroke-width:1px;stroke-linecap:butt;stroke-linejoin:miter;stroke-opacity:1" d="M 833.11,466.608 847.77,458.463 z" id="boundary" inkscape:connector-curvature="0" />
	<path style="fill:none;stroke:red;stroke-width:1px;stroke-linecap:butt;stroke-linejoin:miter;stroke-opacity:1" d="M 992.742,458.463 986.227,482.897 z" id="boundary" inkscape:connector-curvature="0" />
	<path style="fill:none;stroke:red;stroke-width:1px;stroke-linecap:butt;stroke-linejoin:miter;stroke-opacity:1" d="M 965.051,486.154 968.309,502.443 z" id="boundary" inkscape:connector-curvature="0" />
	<path style="fill:none;stroke:red;stroke-width:1px;stroke-linecap:butt;stroke-linejoin:miter;stroke-opacity:1" d="M 968.309,502.443 984.598,507.33 z" id="boundary" inkscape:connector-curvature="0" />
	<path style="fill:none;stroke:red;stroke-width:1px;stroke-linecap:butt;stroke-linejoin:miter;stroke-opacity:1" d="M 986.227,482.897 984.598,507.33 z" id="boundary" inkscape:connector-curvature="0" />
	<circle cx="4" cy="124.539" r="4" fill="#0" id="circle0"/>
	<circle cx="4" cy="140.828" r="4" fill="#0" id="circle1"/>
	<circle cx="4" cy="359.1" r="4" fill="#0" id="circle2"/>
	<circle cx="4" cy="375.389" r="4" fill="#0" id="circle3"/>
	<circle cx="4" cy="391.678" r="4" fill="#0" id="circle4"/>
	<circle cx="4" cy="407.967" r="4" fill="#0" id="circle5"/>
	<circle cx="7.2578" cy="306.975" r="4" fill="#0" id="circle6"/>
	<circle cx="7.2578" cy="323.264" r="4" fill="#0" id="circle7"/>
	<circle cx="7.2578" cy="339.553" r="4" fill="#0" id="circle8"/>
	<circle cx="7.2578" cy="424.256" r="4" fill="#0" id="circle9"/>
	<circle cx="7.2578" cy="440.545" r="4" fill="#0" id="circle10"/>
	<circle cx="10.5156" cy="157.117" r="4" fill="#0" id="circle11"/>
	<circle cx="10.5156" cy="277.655" r="4" fill="#0" id="circle12"/>
	<circle cx="10.5156" cy="456.834" r="4" fill="#0" id="circle13"/>
	<circle cx="10.5156" cy="479.639" r="4" fill="#0" id="circle14"/>
	<circle cx="12.1445" cy="109.878" r="4" fill="#0" id="circle15"/>
	<circle cx="13.7734" cy="173.406" r="4" fill="#0" id="circle16"/>
	<circle cx="13.7734" cy="189.695" r="4" fill="#0" id="circle17"/>
	<circle cx="13.7734" cy="205.984" r="4" fill="#0" id="circle18"/>
	<circle cx="13.7734" cy="222.273" r="4" fill="#0" id="circle19"/>
	<circle cx="13.7734" cy="238.562" r="4" fill="#0" id="circle20"/>
	<circle cx="13.7734" cy="254.851" r="4" fill="#0" id="circle21"/>
	<circle cx="13.7734" cy="495.928" r="4" fill="#0" id="circle22"/>
	<circle cx="25.1757" cy="100.105" r="4" fill="#0" id="circle23"/>
	<circle cx="26.8046" cy="507.33" r="4" fill="#0" id="circle24"/>
	<circle cx="31.6913" cy="482.897" r="4" fill="#0" id="circle25"/>
	<circle cx="34.9491" cy="440.545" r="4" fill="#0" id="circle26"/>
	<circle cx="34.9491" cy="456.834" r="4" fill="#0" id="circle27"/>
	<circle cx="39.8358" cy="91.9606" r="4" fill="#0" id="circle28"/>
	<circle cx="51.2381" cy="438.916" r="4" fill="#0" id="circle29"/>
	<circle cx="56.1248" cy="85.445" r="4" fill="#0" id="circle30"/>
	<circle cx="67.5271" cy="442.174" r="4" fill="#0" id="circle31"/>
	<circle cx="70.7849" cy="77.3005" r="4" fill="#0" id="circle32"/>
	<circle cx="83.8161" cy="442.174" r="4" fill="#0" id="circle33"/>
	<circle cx="87.0739" cy="72.4138" r="4" fill="#0" id="circle34"/>
	<circle cx="100.105" cy="442.174" r="4" fill="#0" id="circle35"/>
	<circle cx="103.363" cy="65.8982" r="4" fill="#0" id="circle36"/>
	<circle cx="116.394" cy="442.174" r="4" fill="#0" id="circle37"/>
	<circle cx="119.652" cy="62.6404" r="4" fill="#0" id="circle38"/>
	<circle cx="132.683" cy="442.174" r="4" fill="#0" id="circle39"/>
	<circle cx="135.941" cy="57.7537" r="4" fill="#0" id="circle40"/>
	<circle cx="145.714" cy="44.7225" r="4" fill="#0" id="circle41"/>
	<circle cx="148.972" cy="442.174" r="4" fill="#0" id="circle42"/>
	<circle cx="160.374" cy="36.578" r="4" fill="#0" id="circle43"/>
	<circle cx="165.261" cy="442.174" r="4" fill="#0" id="circle44"/>
	<circle cx="173.406" cy="26.8046" r="4" fill="#0" id="circle45"/>
	<circle cx="181.55" cy="442.174" r="4" fill="#0" id="circle46"/>
	<circle cx="183.179" cy="7.2578" r="4" fill="#0" id="circle47"/>
	<circle cx="197.839" cy="442.174" r="4" fill="#0" id="circle48"/>
	<circle cx="199.468" cy="4" r="4" fill="#0" id="circle49"/>
	<circle cx="214.128" cy="12.1445" r="4" fill="#0" id="circle50"/>
	<circle cx="214.128" cy="442.174" r="4" fill="#0" id="circle51"/>
	<circle cx="223.901" cy="25.1757" r="4" fill="#0" id="circle52"/>
	<circle cx="230.417" cy="442.174" r="4" fill="#0" id="circle53"/>
	<circle cx="236.933" cy="36.578" r="4" fill="#0" id="circle54"/>
	<circle cx="246.706" cy="442.174" r="4" fill="#0" id="circle55"/>
	<circle cx="251.593" cy="44.7225" r="4" fill="#0" id="circle56"/>
	<circle cx="259.737" cy="59.3826" r="4" fill="#0" id="circle57"/>
	<circle cx="262.995" cy="442.174" r="4" fill="#0" id="circle58"/>
	<circle cx="276.026" cy="65.8982" r="4" fill="#0" id="circle59"/>
	<circle cx="279.284" cy="442.174" r="4" fill="#0" id="circle60"/>
	<circle cx="292.315" cy="69.156" r="4" fill="#0" id="circle61"/>
	<circle cx="295.573" cy="442.174" r="4" fill="#0" id="circle62"/>
	<circle cx="308.604" cy="75.6716" r="4" fill="#0" id="circle63"/>
	<circle cx="311.862" cy="442.174" r="4" fill="#0" id="circle64"/>
	<circle cx="324.893" cy="82.1872" r="4" fill="#0" id="circle65"/>
	<circle cx="328.151" cy="442.174" r="4" fill="#0" id="circle66"/>
	<circle cx="341.182" cy="88.7028" r="4" fill="#0" id="circle67"/>
	<circle cx="344.44" cy="442.174" r="4" fill="#0" id="circle68"/>
	<circle cx="352.585" cy="456.834" r="4" fill="#0" id="circle69"/>
	<circle cx="355.842" cy="96.8473" r="4" fill="#0" id="circle70"/>
	<circle cx="355.842" cy="476.381" r="4" fill="#0" id="circle71"/>
	<circle cx="355.842" cy="492.67" r="4" fill="#0" id="circle72"/>
	<circle cx="365.616" cy="505.701" r="4" fill="#0" id="circle73"/>
	<circle cx="367.245" cy="170.148" r="4" fill="#0" id="circle74"/>
	<circle cx="367.245" cy="186.437" r="4" fill="#0" id="circle75"/>
	<circle cx="368.874" cy="106.621" r="4" fill="#0" id="circle76"/>
	<circle cx="373.76" cy="153.859" r="4" fill="#0" id="circle77"/>
	<circle cx="373.76" cy="482.897" r="4" fill="#0" id="circle78"/>
	<circle cx="377.018" cy="443.803" r="4" fill="#0" id="circle79"/>
	<circle cx="377.018" cy="460.092" r="4" fill="#0" id="circle80"/>
	<circle cx="378.647" cy="119.652" r="4" fill="#0" id="circle81"/>
	<circle cx="378.647" cy="199.468" r="4" fill="#0" id="circle82"/>
	<circle cx="380.276" cy="135.941" r="4" fill="#0" id="circle83"/>
	<circle cx="393.307" cy="442.174" r="4" fill="#0" id="circle84"/>
	<circle cx="394.936" cy="199.468" r="4" fill="#0" id="circle85"/>
	<circle cx="409.596" cy="442.174" r="4" fill="#0" id="circle86"/>
	<circle cx="411.225" cy="199.468" r="4" fill="#0" id="circle87"/>
	<circle cx="425.885" cy="442.174" r="4" fill="#0" id="circle88"/>
	<circle cx="427.514" cy="202.726" r="4" fill="#0" id="circle89"/>
	<circle cx="442.174" cy="442.174" r="4" fill="#0" id="circle90"/>
	<circle cx="443.803" cy="209.241" r="4" fill="#0" id="circle91"/>
	<circle cx="456.834" cy="219.015" r="4" fill="#0" id="circle92"/>
	<circle cx="458.463" cy="442.174" r="4" fill="#0" id="circle93"/>
	<circle cx="471.494" cy="227.159" r="4" fill="#0" id="circle94"/>
	<circle cx="474.752" cy="442.174" r="4" fill="#0" id="circle95"/>
	<circle cx="484.525" cy="236.933" r="4" fill="#0" id="circle96"/>
	<circle cx="491.041" cy="442.174" r="4" fill="#0" id="circle97"/>
	<circle cx="497.557" cy="248.335" r="4" fill="#0" id="circle98"/>
	<circle cx="507.33" cy="442.174" r="4" fill="#0" id="circle99"/>
	<circle cx="510.588" cy="258.108" r="4" fill="#0" id="circle100"/>
	<circle cx="523.619" cy="267.882" r="4" fill="#0" id="circle101"/>
	<circle cx="523.619" cy="442.174" r="4" fill="#0" id="circle102"/>
	<circle cx="531.764" cy="282.542" r="4" fill="#0" id="circle103"/>
	<circle cx="539.908" cy="442.174" r="4" fill="#0" id="circle104"/>
	<circle cx="546.424" cy="290.686" r="4" fill="#0" id="circle105"/>
	<circle cx="556.197" cy="442.174" r="4" fill="#0" id="circle106"/>
	<circle cx="562.713" cy="290.686" r="4" fill="#0" id="circle107"/>
	<circle cx="572.486" cy="442.174" r="4" fill="#0" id="circle108"/>
	<circle cx="579.002" cy="290.686" r="4" fill="#0" id="circle109"/>
	<circle cx="580.631" cy="456.834" r="4" fill="#0" id="circle110"/>
	<circle cx="583.888" cy="473.123" r="4" fill="#0" id="circle111"/>
	<circle cx="585.517" cy="489.412" r="4" fill="#0" id="circle112"/>
	<circle cx="588.775" cy="505.701" r="4" fill="#0" id="circle113"/>
	<circle cx="595.291" cy="289.057" r="4" fill="#0" id="circle114"/>
	<circle cx="605.064" cy="504.072" r="4" fill="#0" id="circle115"/>
	<circle cx="608.322" cy="479.639" r="4" fill="#0" id="circle116"/>
	<circle cx="609.951" cy="280.913" r="4" fill="#0" id="circle117"/>
	<circle cx="611.58" cy="450.319" r="4" fill="#0" id="circle118"/>
	<circle cx="626.24" cy="277.655" r="4" fill="#0" id="circle119"/>
	<circle cx="627.869" cy="448.69" r="4" fill="#0" id="circle120"/>
	<circle cx="642.529" cy="271.14" r="4" fill="#0" id="circle121"/>
	<circle cx="644.158" cy="451.947" r="4" fill="#0" id="circle122"/>
	<circle cx="658.818" cy="267.882" r="4" fill="#0" id="circle123"/>
	<circle cx="660.447" cy="458.463" r="4" fill="#0" id="circle124"/>
	<circle cx="675.107" cy="264.624" r="4" fill="#0" id="circle125"/>
	<circle cx="676.736" cy="456.834" r="4" fill="#0" id="circle126"/>
	<circle cx="689.767" cy="445.432" r="4" fill="#0" id="circle127"/>
	<circle cx="691.396" cy="262.995" r="4" fill="#0" id="circle128"/>
	<circle cx="706.056" cy="445.432" r="4" fill="#0" id="circle129"/>
	<circle cx="707.685" cy="261.366" r="4" fill="#0" id="circle130"/>
	<circle cx="722.345" cy="451.947" r="4" fill="#0" id="circle131"/>
	<circle cx="723.974" cy="258.108" r="4" fill="#0" id="circle132"/>
	<circle cx="733.747" cy="245.077" r="4" fill="#0" id="circle133"/>
	<circle cx="735.376" cy="461.721" r="4" fill="#0" id="circle134"/>
	<circle cx="750.036" cy="235.304" r="4" fill="#0" id="circle135"/>
	<circle cx="751.665" cy="468.236" r="4" fill="#0" id="circle136"/>
	<circle cx="766.325" cy="228.788" r="4" fill="#0" id="circle137"/>
	<circle cx="767.954" cy="474.752" r="4" fill="#0" id="circle138"/>
	<circle cx="779.356" cy="219.015" r="4" fill="#0" id="circle139"/>
	<circle cx="784.243" cy="478.01" r="4" fill="#0" id="circle140"/>
	<circle cx="795.645" cy="219.015" r="4" fill="#0" id="circle141"/>
	<circle cx="800.532" cy="478.01" r="4" fill="#0" id="circle142"/>
	<circle cx="808.677" cy="228.788" r="4" fill="#0" id="circle143"/>
	<circle cx="816.821" cy="473.123" r="4" fill="#0" id="circle144"/>
	<circle cx="821.708" cy="238.562" r="4" fill="#0" id="circle145"/>
	<circle cx="833.11" cy="466.608" r="4" fill="#0" id="circle146"/>
	<circle cx="837.997" cy="243.448" r="4" fill="#0" id="circle147"/>
	<circle cx="847.77" cy="458.463" r="4" fill="#0" id="circle148"/>
	<circle cx="849.399" cy="256.479" r="4" fill="#0" id="circle149"/>
	<circle cx="862.43" cy="450.319" r="4" fill="#0" id="circle150"/>
	<circle cx="865.688" cy="261.366" r="4" fill="#0" id="circle151"/>
	<circle cx="878.719" cy="445.432" r="4" fill="#0" id="circle152"/>
	<circle cx="881.977" cy="261.366" r="4" fill="#0" id="circle153"/>
	<circle cx="895.008" cy="448.69" r="4" fill="#0" id="circle154"/>
	<circle cx="898.266" cy="264.624" r="4" fill="#0" id="circle155"/>
	<circle cx="906.411" cy="461.721" r="4" fill="#0" id="circle156"/>
	<circle cx="914.555" cy="267.882" r="4" fill="#0" id="circle157"/>
	<circle cx="922.7" cy="455.205" r="4" fill="#0" id="circle158"/>
	<circle cx="930.844" cy="271.14" r="4" fill="#0" id="circle159"/>
	<circle cx="938.989" cy="448.69" r="4" fill="#0" id="circle160"/>
	<circle cx="947.133" cy="277.655" r="4" fill="#0" id="circle161"/>
	<circle cx="955.278" cy="448.69" r="4" fill="#0" id="circle162"/>
	<circle cx="963.422" cy="284.171" r="4" fill="#0" id="circle163"/>
	<circle cx="965.051" cy="486.154" r="4" fill="#0" id="circle164"/>
	<circle cx="968.309" cy="460.092" r="4" fill="#0" id="circle165"/>
	<circle cx="968.309" cy="502.443" r="4" fill="#0" id="circle166"/>
	<circle cx="979.711" cy="290.686" r="4" fill="#0" id="circle167"/>
	<circle cx="979.711" cy="411.225" r="4" fill="#0" id="circle168"/>
	<circle cx="982.969" cy="368.874" r="4" fill="#0" id="circle169"/>
	<circle cx="982.969" cy="385.163" r="4" fill="#0" id="circle170"/>
	<circle cx="982.969" cy="427.514" r="4" fill="#0" id="circle171"/>
	<circle cx="984.598" cy="443.803" r="4" fill="#0" id="circle172"/>
	<circle cx="984.598" cy="507.33" r="4" fill="#0" id="circle173"/>
	<circle cx="986.227" cy="346.069" r="4" fill="#0" id="circle174"/>
	<circle cx="986.227" cy="482.897" r="4" fill="#0" id="circle175"/>
	<circle cx="991.113" cy="303.718" r="4" fill="#0" id="circle176"/>
	<circle cx="992.742" cy="458.463" r="4" fill="#0" id="circle177"/>
	<circle cx="996" cy="333.038" r="4" fill="#0" id="circle178"/>
	</g>
</svg>