<?xml version="1.0" encoding="UTF-8" standalone="no"?>
<!-- Created with CurveBenchmark -->
<svg
	xmlns:dc="http://purl.org/dc/elements/1.1/"
	xmlns:cc="http://creativecommons.org/ns#"
	xmlns:rdf="http://www.w3.org/1999/02/22-rdf-syntax-ns#"
	xmlns:svg="http://www.w3.org/2000/svg"
	xmlns="http://www.w3.org/2000/svg"
	xmlns:sodipodi="http://sodipodi.sourceforge.net/DTD/sodipodi-0.dtd"
	xmlns:inkscape="http://www.inkscape.org/namespaces/inkscape"
	width="1000"
	height="1000"
	id="svg2"
	version="1.1"
	sodipodi:docname="manifold/crust-textbox21.png.txt">
<defs
	id="defs4" />
<metadata
	id="metadata7">
	<rdf:RDF>
		<cc:Work
			rdf:about="">
			<dc:format>image/svg+xml</dc:format>
			<dc:type
				rdf:resource="http://purl.org/dc/dcmitype/StillImage" />
			<dc:title></dc:title>
		</cc:Work>
	</rdf:RDF>
</metadata>
<g
	inkscape:label="Layer 1"
	inkscape:groupmode="layer"
	id="layer1">
	<path style="fill:none;stroke:red;stroke-width:1px;stroke-linecap:butt;stroke-linejoin:miter;stroke-opacity:1" d="M 21.074,38.148 4,43.2702 z" id="boundary" inkscape:connector-curvature="0" />
	<path style="fill:none;stroke:red;stroke-width:1px;stroke-linecap:butt;stroke-linejoin:miter;stroke-opacity:1" d="M 38.148,38.148 55.222,38.148 z" id="boundary" inkscape:connector-curvature="0" />
	<path style="fill:none;stroke:red;stroke-width:1px;stroke-linecap:butt;stroke-linejoin:miter;stroke-opacity:1" d="M 38.148,38.148 21.074,38.148 z" id="boundary" inkscape:connector-curvature="0" />
	<path style="fill:none;stroke:red;stroke-width:1px;stroke-linecap:butt;stroke-linejoin:miter;stroke-opacity:1" d="M 4,77.4182 4,60.3442 z" id="boundary" inkscape:connector-curvature="0" />
	<path style="fill:none;stroke:red;stroke-width:1px;stroke-linecap:butt;stroke-linejoin:miter;stroke-opacity:1" d="M 4,60.3442 4,43.2702 z" id="boundary" inkscape:connector-curvature="0" />
	<path style="fill:none;stroke:red;stroke-width:1px;stroke-linecap:butt;stroke-linejoin:miter;stroke-opacity:1" d="M 4,94.4923 4,77.4182 z" id="boundary" inkscape:connector-curvature="0" />
	<path style="fill:none;stroke:red;stroke-width:1px;stroke-linecap:butt;stroke-linejoin:miter;stroke-opacity:1" d="M 4,111.566 4,94.4923 z" id="boundary" inkscape:connector-curvature="0" />
	<path style="fill:none;stroke:red;stroke-width:1px;stroke-linecap:butt;stroke-linejoin:miter;stroke-opacity:1" d="M 191.814,21.074 174.74,21.074 z" id="boundary" inkscape:connector-curvature="0" />
	<path style="fill:none;stroke:red;stroke-width:1px;stroke-linecap:butt;stroke-linejoin:miter;stroke-opacity:1" d="M 157.666,21.074 174.74,21.074 z" id="boundary" inkscape:connector-curvature="0" />
	<path style="fill:none;stroke:red;stroke-width:1px;stroke-linecap:butt;stroke-linejoin:miter;stroke-opacity:1" d="M 157.666,21.074 140.592,26.1962 z" id="boundary" inkscape:connector-curvature="0" />
	<path style="fill:none;stroke:red;stroke-width:1px;stroke-linecap:butt;stroke-linejoin:miter;stroke-opacity:1" d="M 72.296,38.148 55.222,38.148 z" id="boundary" inkscape:connector-curvature="0" />
	<path style="fill:none;stroke:red;stroke-width:1px;stroke-linecap:butt;stroke-linejoin:miter;stroke-opacity:1" d="M 89.3701,38.148 106.444,38.148 z" id="boundary" inkscape:connector-curvature="0" />
	<path style="fill:none;stroke:red;stroke-width:1px;stroke-linecap:butt;stroke-linejoin:miter;stroke-opacity:1" d="M 89.3701,38.148 72.296,38.148 z" id="boundary" inkscape:connector-curvature="0" />
	<path style="fill:none;stroke:red;stroke-width:1px;stroke-linecap:butt;stroke-linejoin:miter;stroke-opacity:1" d="M 123.518,38.148 140.592,26.1962 z" id="boundary" inkscape:connector-curvature="0" />
	<path style="fill:none;stroke:red;stroke-width:1px;stroke-linecap:butt;stroke-linejoin:miter;stroke-opacity:1" d="M 123.518,38.148 106.444,38.148 z" id="boundary" inkscape:connector-curvature="0" />
	<path style="fill:none;stroke:red;stroke-width:1px;stroke-linecap:butt;stroke-linejoin:miter;stroke-opacity:1" d="M 4,111.566 4,128.64 z" id="boundary" inkscape:connector-curvature="0" />
	<path style="fill:none;stroke:red;stroke-width:1px;stroke-linecap:butt;stroke-linejoin:miter;stroke-opacity:1" d="M 4,145.714 4,128.64 z" id="boundary" inkscape:connector-curvature="0" />
	<path style="fill:none;stroke:red;stroke-width:1px;stroke-linecap:butt;stroke-linejoin:miter;stroke-opacity:1" d="M 4,162.788 4,179.862 z" id="boundary" inkscape:connector-curvature="0" />
	<path style="fill:none;stroke:red;stroke-width:1px;stroke-linecap:butt;stroke-linejoin:miter;stroke-opacity:1" d="M 4,196.936 4,214.01 z" id="boundary" inkscape:connector-curvature="0" />
	<path style="fill:none;stroke:red;stroke-width:1px;stroke-linecap:butt;stroke-linejoin:miter;stroke-opacity:1" d="M 4,196.936 4,179.862 z" id="boundary" inkscape:connector-curvature="0" />
	<path style="fill:none;stroke:red;stroke-width:1px;stroke-linecap:butt;stroke-linejoin:miter;stroke-opacity:1" d="M 4,162.788 4,145.714 z" id="boundary" inkscape:connector-curvature="0" />
	<path style="fill:none;stroke:red;stroke-width:1px;stroke-linecap:butt;stroke-linejoin:miter;stroke-opacity:1" d="M 4,231.084 4,248.158 z" id="boundary" inkscape:connector-curvature="0" />
	<path style="fill:none;stroke:red;stroke-width:1px;stroke-linecap:butt;stroke-linejoin:miter;stroke-opacity:1" d="M 4,248.158 4,265.232 z" id="boundary" inkscape:connector-curvature="0" />
	<path style="fill:none;stroke:red;stroke-width:1px;stroke-linecap:butt;stroke-linejoin:miter;stroke-opacity:1" d="M 4,214.01 4,231.084 z" id="boundary" inkscape:connector-curvature="0" />
	<path style="fill:none;stroke:red;stroke-width:1px;stroke-linecap:butt;stroke-linejoin:miter;stroke-opacity:1" d="M 4,265.232 4,282.306 z" id="boundary" inkscape:connector-curvature="0" />
	<path style="fill:none;stroke:red;stroke-width:1px;stroke-linecap:butt;stroke-linejoin:miter;stroke-opacity:1" d="M 4,299.38 4,316.454 z" id="boundary" inkscape:connector-curvature="0" />
	<path style="fill:none;stroke:red;stroke-width:1px;stroke-linecap:butt;stroke-linejoin:miter;stroke-opacity:1" d="M 4,299.38 4,282.306 z" id="boundary" inkscape:connector-curvature="0" />
	<path style="fill:none;stroke:red;stroke-width:1px;stroke-linecap:butt;stroke-linejoin:miter;stroke-opacity:1" d="M 4,316.454 4,333.528 z" id="boundary" inkscape:connector-curvature="0" />
	<path style="fill:none;stroke:red;stroke-width:1px;stroke-linecap:butt;stroke-linejoin:miter;stroke-opacity:1" d="M 12.537,348.895 4,333.528 z" id="boundary" inkscape:connector-curvature="0" />
	<path style="fill:none;stroke:red;stroke-width:1px;stroke-linecap:butt;stroke-linejoin:miter;stroke-opacity:1" d="M 12.537,348.895 12.537,365.969 z" id="boundary" inkscape:connector-curvature="0" />
	<path style="fill:none;stroke:red;stroke-width:1px;stroke-linecap:butt;stroke-linejoin:miter;stroke-opacity:1" d="M 12.537,383.043 12.537,365.969 z" id="boundary" inkscape:connector-curvature="0" />
	<path style="fill:none;stroke:red;stroke-width:1px;stroke-linecap:butt;stroke-linejoin:miter;stroke-opacity:1" d="M 208.888,21.074 225.962,21.074 z" id="boundary" inkscape:connector-curvature="0" />
	<path style="fill:none;stroke:red;stroke-width:1px;stroke-linecap:butt;stroke-linejoin:miter;stroke-opacity:1" d="M 208.888,21.074 191.814,21.074 z" id="boundary" inkscape:connector-curvature="0" />
	<path style="fill:none;stroke:red;stroke-width:1px;stroke-linecap:butt;stroke-linejoin:miter;stroke-opacity:1" d="M 225.962,21.074 243.036,21.074 z" id="boundary" inkscape:connector-curvature="0" />
	<path style="fill:none;stroke:red;stroke-width:1px;stroke-linecap:butt;stroke-linejoin:miter;stroke-opacity:1" d="M 260.11,21.074 277.184,21.074 z" id="boundary" inkscape:connector-curvature="0" />
	<path style="fill:none;stroke:red;stroke-width:1px;stroke-linecap:butt;stroke-linejoin:miter;stroke-opacity:1" d="M 294.258,21.074 311.332,21.074 z" id="boundary" inkscape:connector-curvature="0" />
	<path style="fill:none;stroke:red;stroke-width:1px;stroke-linecap:butt;stroke-linejoin:miter;stroke-opacity:1" d="M 294.258,21.074 277.184,21.074 z" id="boundary" inkscape:connector-curvature="0" />
	<path style="fill:none;stroke:red;stroke-width:1px;stroke-linecap:butt;stroke-linejoin:miter;stroke-opacity:1" d="M 260.11,21.074 243.036,21.074 z" id="boundary" inkscape:connector-curvature="0" />
	<path style="fill:none;stroke:red;stroke-width:1px;stroke-linecap:butt;stroke-linejoin:miter;stroke-opacity:1" d="M 328.406,21.074 311.332,21.074 z" id="boundary" inkscape:connector-curvature="0" />
	<path style="fill:none;stroke:red;stroke-width:1px;stroke-linecap:butt;stroke-linejoin:miter;stroke-opacity:1" d="M 328.406,21.074 345.48,21.074 z" id="boundary" inkscape:connector-curvature="0" />
	<path style="fill:none;stroke:red;stroke-width:1px;stroke-linecap:butt;stroke-linejoin:miter;stroke-opacity:1" d="M 362.554,21.074 379.628,21.074 z" id="boundary" inkscape:connector-curvature="0" />
	<path style="fill:none;stroke:red;stroke-width:1px;stroke-linecap:butt;stroke-linejoin:miter;stroke-opacity:1" d="M 362.554,21.074 345.48,21.074 z" id="boundary" inkscape:connector-curvature="0" />
	<path style="fill:none;stroke:red;stroke-width:1px;stroke-linecap:butt;stroke-linejoin:miter;stroke-opacity:1" d="M 396.702,21.074 413.776,21.074 z" id="boundary" inkscape:connector-curvature="0" />
	<path style="fill:none;stroke:red;stroke-width:1px;stroke-linecap:butt;stroke-linejoin:miter;stroke-opacity:1" d="M 413.776,21.074 430.85,21.074 z" id="boundary" inkscape:connector-curvature="0" />
	<path style="fill:none;stroke:red;stroke-width:1px;stroke-linecap:butt;stroke-linejoin:miter;stroke-opacity:1" d="M 447.924,21.074 430.85,21.074 z" id="boundary" inkscape:connector-curvature="0" />
	<path style="fill:none;stroke:red;stroke-width:1px;stroke-linecap:butt;stroke-linejoin:miter;stroke-opacity:1" d="M 396.702,21.074 379.628,21.074 z" id="boundary" inkscape:connector-curvature="0" />
	<path style="fill:none;stroke:red;stroke-width:1px;stroke-linecap:butt;stroke-linejoin:miter;stroke-opacity:1" d="M 12.537,400.117 12.537,417.191 z" id="boundary" inkscape:connector-curvature="0" />
	<path style="fill:none;stroke:red;stroke-width:1px;stroke-linecap:butt;stroke-linejoin:miter;stroke-opacity:1" d="M 12.537,400.117 12.537,383.043 z" id="boundary" inkscape:connector-curvature="0" />
	<path style="fill:none;stroke:red;stroke-width:1px;stroke-linecap:butt;stroke-linejoin:miter;stroke-opacity:1" d="M 12.537,434.265 12.537,451.339 z" id="boundary" inkscape:connector-curvature="0" />
	<path style="fill:none;stroke:red;stroke-width:1px;stroke-linecap:butt;stroke-linejoin:miter;stroke-opacity:1" d="M 12.537,434.265 12.537,417.191 z" id="boundary" inkscape:connector-curvature="0" />
	<path style="fill:none;stroke:red;stroke-width:1px;stroke-linecap:butt;stroke-linejoin:miter;stroke-opacity:1" d="M 12.537,451.339 12.537,468.413 z" id="boundary" inkscape:connector-curvature="0" />
	<path style="fill:none;stroke:red;stroke-width:1px;stroke-linecap:butt;stroke-linejoin:miter;stroke-opacity:1" d="M 12.537,485.487 12.537,502.561 z" id="boundary" inkscape:connector-curvature="0" />
	<path style="fill:none;stroke:red;stroke-width:1px;stroke-linecap:butt;stroke-linejoin:miter;stroke-opacity:1" d="M 12.537,468.413 12.537,485.487 z" id="boundary" inkscape:connector-curvature="0" />
	<path style="fill:none;stroke:red;stroke-width:1px;stroke-linecap:butt;stroke-linejoin:miter;stroke-opacity:1" d="M 140.592,535.002 123.518,535.002 z" id="boundary" inkscape:connector-curvature="0" />
	<path style="fill:none;stroke:red;stroke-width:1px;stroke-linecap:butt;stroke-linejoin:miter;stroke-opacity:1" d="M 12.537,502.561 12.537,519.635 z" id="boundary" inkscape:connector-curvature="0" />
	<path style="fill:none;stroke:red;stroke-width:1px;stroke-linecap:butt;stroke-linejoin:miter;stroke-opacity:1" d="M 38.148,535.002 21.074,535.002 z" id="boundary" inkscape:connector-curvature="0" />
	<path style="fill:none;stroke:red;stroke-width:1px;stroke-linecap:butt;stroke-linejoin:miter;stroke-opacity:1" d="M 21.074,535.002 12.537,519.635 z" id="boundary" inkscape:connector-curvature="0" />
	<path style="fill:none;stroke:red;stroke-width:1px;stroke-linecap:butt;stroke-linejoin:miter;stroke-opacity:1" d="M 55.222,535.002 38.148,535.002 z" id="boundary" inkscape:connector-curvature="0" />
	<path style="fill:none;stroke:red;stroke-width:1px;stroke-linecap:butt;stroke-linejoin:miter;stroke-opacity:1" d="M 72.296,535.002 89.3701,535.002 z" id="boundary" inkscape:connector-curvature="0" />
	<path style="fill:none;stroke:red;stroke-width:1px;stroke-linecap:butt;stroke-linejoin:miter;stroke-opacity:1" d="M 55.222,535.002 72.296,535.002 z" id="boundary" inkscape:connector-curvature="0" />
	<path style="fill:none;stroke:red;stroke-width:1px;stroke-linecap:butt;stroke-linejoin:miter;stroke-opacity:1" d="M 91.0775,587.931 77.4182,601.59 z" id="boundary" inkscape:connector-curvature="0" />
	<path style="fill:none;stroke:red;stroke-width:1px;stroke-linecap:butt;stroke-linejoin:miter;stroke-opacity:1" d="M 63.759,615.25 74.0034,628.909 z" id="boundary" inkscape:connector-curvature="0" />
	<path style="fill:none;stroke:red;stroke-width:1px;stroke-linecap:butt;stroke-linejoin:miter;stroke-opacity:1" d="M 91.0775,628.909 74.0034,628.909 z" id="boundary" inkscape:connector-curvature="0" />
	<path style="fill:none;stroke:red;stroke-width:1px;stroke-linecap:butt;stroke-linejoin:miter;stroke-opacity:1" d="M 63.759,615.25 77.4182,601.59 z" id="boundary" inkscape:connector-curvature="0" />
	<path style="fill:none;stroke:red;stroke-width:1px;stroke-linecap:butt;stroke-linejoin:miter;stroke-opacity:1" d="M 89.3701,535.002 106.444,535.002 z" id="boundary" inkscape:connector-curvature="0" />
	<path style="fill:none;stroke:red;stroke-width:1px;stroke-linecap:butt;stroke-linejoin:miter;stroke-opacity:1" d="M 106.444,535.002 123.518,535.002 z" id="boundary" inkscape:connector-curvature="0" />
	<path style="fill:none;stroke:red;stroke-width:1px;stroke-linecap:butt;stroke-linejoin:miter;stroke-opacity:1" d="M 123.518,564.028 108.151,584.516 z" id="boundary" inkscape:connector-curvature="0" />
	<path style="fill:none;stroke:red;stroke-width:1px;stroke-linecap:butt;stroke-linejoin:miter;stroke-opacity:1" d="M 108.151,584.516 91.0775,587.931 z" id="boundary" inkscape:connector-curvature="0" />
	<path style="fill:none;stroke:red;stroke-width:1px;stroke-linecap:butt;stroke-linejoin:miter;stroke-opacity:1" d="M 91.0775,628.909 99.6145,611.835 z" id="boundary" inkscape:connector-curvature="0" />
	<path style="fill:none;stroke:red;stroke-width:1px;stroke-linecap:butt;stroke-linejoin:miter;stroke-opacity:1" d="M 116.688,611.835 99.6145,611.835 z" id="boundary" inkscape:connector-curvature="0" />
	<path style="fill:none;stroke:red;stroke-width:1px;stroke-linecap:butt;stroke-linejoin:miter;stroke-opacity:1" d="M 116.688,611.835 133.762,611.835 z" id="boundary" inkscape:connector-curvature="0" />
	<path style="fill:none;stroke:red;stroke-width:1px;stroke-linecap:butt;stroke-linejoin:miter;stroke-opacity:1" d="M 140.592,535.002 140.592,555.491 z" id="boundary" inkscape:connector-curvature="0" />
	<path style="fill:none;stroke:red;stroke-width:1px;stroke-linecap:butt;stroke-linejoin:miter;stroke-opacity:1" d="M 123.518,564.028 140.592,555.491 z" id="boundary" inkscape:connector-curvature="0" />
	<path style="fill:none;stroke:red;stroke-width:1px;stroke-linecap:butt;stroke-linejoin:miter;stroke-opacity:1" d="M 261.818,560.613 278.892,560.613 z" id="boundary" inkscape:connector-curvature="0" />
	<path style="fill:none;stroke:red;stroke-width:1px;stroke-linecap:butt;stroke-linejoin:miter;stroke-opacity:1" d="M 372.799,535.002 355.725,535.002 z" id="boundary" inkscape:connector-curvature="0" />
	<path style="fill:none;stroke:red;stroke-width:1px;stroke-linecap:butt;stroke-linejoin:miter;stroke-opacity:1" d="M 422.313,526.465 405.239,526.465 z" id="boundary" inkscape:connector-curvature="0" />
	<path style="fill:none;stroke:red;stroke-width:1px;stroke-linecap:butt;stroke-linejoin:miter;stroke-opacity:1" d="M 439.387,526.465 422.313,526.465 z" id="boundary" inkscape:connector-curvature="0" />
	<path style="fill:none;stroke:red;stroke-width:1px;stroke-linecap:butt;stroke-linejoin:miter;stroke-opacity:1" d="M 405.239,526.465 389.873,535.002 z" id="boundary" inkscape:connector-curvature="0" />
	<path style="fill:none;stroke:red;stroke-width:1px;stroke-linecap:butt;stroke-linejoin:miter;stroke-opacity:1" d="M 456.461,526.465 439.387,526.465 z" id="boundary" inkscape:connector-curvature="0" />
	<path style="fill:none;stroke:red;stroke-width:1px;stroke-linecap:butt;stroke-linejoin:miter;stroke-opacity:1" d="M 330.114,552.076 313.04,552.076 z" id="boundary" inkscape:connector-curvature="0" />
	<path style="fill:none;stroke:red;stroke-width:1px;stroke-linecap:butt;stroke-linejoin:miter;stroke-opacity:1" d="M 330.114,552.076 347.188,552.076 z" id="boundary" inkscape:connector-curvature="0" />
	<path style="fill:none;stroke:red;stroke-width:1px;stroke-linecap:butt;stroke-linejoin:miter;stroke-opacity:1" d="M 355.725,535.002 347.188,552.076 z" id="boundary" inkscape:connector-curvature="0" />
	<path style="fill:none;stroke:red;stroke-width:1px;stroke-linecap:butt;stroke-linejoin:miter;stroke-opacity:1" d="M 372.799,535.002 389.873,535.002 z" id="boundary" inkscape:connector-curvature="0" />
	<path style="fill:none;stroke:red;stroke-width:1px;stroke-linecap:butt;stroke-linejoin:miter;stroke-opacity:1" d="M 313.04,552.076 295.966,560.613 z" id="boundary" inkscape:connector-curvature="0" />
	<path style="fill:none;stroke:red;stroke-width:1px;stroke-linecap:butt;stroke-linejoin:miter;stroke-opacity:1" d="M 295.966,560.613 278.892,560.613 z" id="boundary" inkscape:connector-curvature="0" />
	<path style="fill:none;stroke:red;stroke-width:1px;stroke-linecap:butt;stroke-linejoin:miter;stroke-opacity:1" d="M 202.059,586.224 184.985,603.298 z" id="boundary" inkscape:connector-curvature="0" />
	<path style="fill:none;stroke:red;stroke-width:1px;stroke-linecap:butt;stroke-linejoin:miter;stroke-opacity:1" d="M 133.762,611.835 150.836,603.298 z" id="boundary" inkscape:connector-curvature="0" />
	<path style="fill:none;stroke:red;stroke-width:1px;stroke-linecap:butt;stroke-linejoin:miter;stroke-opacity:1" d="M 150.836,603.298 167.91,603.298 z" id="boundary" inkscape:connector-curvature="0" />
	<path style="fill:none;stroke:red;stroke-width:1px;stroke-linecap:butt;stroke-linejoin:miter;stroke-opacity:1" d="M 184.985,603.298 167.91,603.298 z" id="boundary" inkscape:connector-curvature="0" />
	<path style="fill:none;stroke:red;stroke-width:1px;stroke-linecap:butt;stroke-linejoin:miter;stroke-opacity:1" d="M 253.281,577.687 236.207,577.687 z" id="boundary" inkscape:connector-curvature="0" />
	<path style="fill:none;stroke:red;stroke-width:1px;stroke-linecap:butt;stroke-linejoin:miter;stroke-opacity:1" d="M 236.207,577.687 219.133,586.224 z" id="boundary" inkscape:connector-curvature="0" />
	<path style="fill:none;stroke:red;stroke-width:1px;stroke-linecap:butt;stroke-linejoin:miter;stroke-opacity:1" d="M 261.818,560.613 253.281,577.687 z" id="boundary" inkscape:connector-curvature="0" />
	<path style="fill:none;stroke:red;stroke-width:1px;stroke-linecap:butt;stroke-linejoin:miter;stroke-opacity:1" d="M 219.133,586.224 202.059,586.224 z" id="boundary" inkscape:connector-curvature="0" />
	<path style="fill:none;stroke:red;stroke-width:1px;stroke-linecap:butt;stroke-linejoin:miter;stroke-opacity:1" d="M 550.368,12.537 533.294,12.537 z" id="boundary" inkscape:connector-curvature="0" />
	<path style="fill:none;stroke:red;stroke-width:1px;stroke-linecap:butt;stroke-linejoin:miter;stroke-opacity:1" d="M 516.22,12.537 533.294,12.537 z" id="boundary" inkscape:connector-curvature="0" />
	<path style="fill:none;stroke:red;stroke-width:1px;stroke-linecap:butt;stroke-linejoin:miter;stroke-opacity:1" d="M 516.22,12.537 499.146,17.6592 z" id="boundary" inkscape:connector-curvature="0" />
	<path style="fill:none;stroke:red;stroke-width:1px;stroke-linecap:butt;stroke-linejoin:miter;stroke-opacity:1" d="M 550.368,12.537 567.442,12.537 z" id="boundary" inkscape:connector-curvature="0" />
	<path style="fill:none;stroke:red;stroke-width:1px;stroke-linecap:butt;stroke-linejoin:miter;stroke-opacity:1" d="M 584.516,12.537 601.59,12.537 z" id="boundary" inkscape:connector-curvature="0" />
	<path style="fill:none;stroke:red;stroke-width:1px;stroke-linecap:butt;stroke-linejoin:miter;stroke-opacity:1" d="M 584.516,12.537 567.442,12.537 z" id="boundary" inkscape:connector-curvature="0" />
	<path style="fill:none;stroke:red;stroke-width:1px;stroke-linecap:butt;stroke-linejoin:miter;stroke-opacity:1" d="M 618.664,12.537 601.59,12.537 z" id="boundary" inkscape:connector-curvature="0" />
	<path style="fill:none;stroke:red;stroke-width:1px;stroke-linecap:butt;stroke-linejoin:miter;stroke-opacity:1" d="M 464.998,21.074 447.924,21.074 z" id="boundary" inkscape:connector-curvature="0" />
	<path style="fill:none;stroke:red;stroke-width:1px;stroke-linecap:butt;stroke-linejoin:miter;stroke-opacity:1" d="M 618.664,12.537 635.738,12.537 z" id="boundary" inkscape:connector-curvature="0" />
	<path style="fill:none;stroke:red;stroke-width:1px;stroke-linecap:butt;stroke-linejoin:miter;stroke-opacity:1" d="M 652.812,12.537 669.886,12.537 z" id="boundary" inkscape:connector-curvature="0" />
	<path style="fill:none;stroke:red;stroke-width:1px;stroke-linecap:butt;stroke-linejoin:miter;stroke-opacity:1" d="M 652.812,12.537 635.738,12.537 z" id="boundary" inkscape:connector-curvature="0" />
	<path style="fill:none;stroke:red;stroke-width:1px;stroke-linecap:butt;stroke-linejoin:miter;stroke-opacity:1" d="M 704.034,12.537 686.96,12.537 z" id="boundary" inkscape:connector-curvature="0" />
	<path style="fill:none;stroke:red;stroke-width:1px;stroke-linecap:butt;stroke-linejoin:miter;stroke-opacity:1" d="M 686.96,12.537 669.886,12.537 z" id="boundary" inkscape:connector-curvature="0" />
	<path style="fill:none;stroke:red;stroke-width:1px;stroke-linecap:butt;stroke-linejoin:miter;stroke-opacity:1" d="M 482.072,21.074 464.998,21.074 z" id="boundary" inkscape:connector-curvature="0" />
	<path style="fill:none;stroke:red;stroke-width:1px;stroke-linecap:butt;stroke-linejoin:miter;stroke-opacity:1" d="M 499.146,17.6592 482.072,21.074 z" id="boundary" inkscape:connector-curvature="0" />
	<path style="fill:none;stroke:red;stroke-width:1px;stroke-linecap:butt;stroke-linejoin:miter;stroke-opacity:1" d="M 721.108,12.537 704.034,12.537 z" id="boundary" inkscape:connector-curvature="0" />
	<path style="fill:none;stroke:red;stroke-width:1px;stroke-linecap:butt;stroke-linejoin:miter;stroke-opacity:1" d="M 721.108,12.537 738.182,12.537 z" id="boundary" inkscape:connector-curvature="0" />
	<path style="fill:none;stroke:red;stroke-width:1px;stroke-linecap:butt;stroke-linejoin:miter;stroke-opacity:1" d="M 755.256,12.537 738.182,12.537 z" id="boundary" inkscape:connector-curvature="0" />
	<path style="fill:none;stroke:red;stroke-width:1px;stroke-linecap:butt;stroke-linejoin:miter;stroke-opacity:1" d="M 755.256,12.537 772.33,12.537 z" id="boundary" inkscape:connector-curvature="0" />
	<path style="fill:none;stroke:red;stroke-width:1px;stroke-linecap:butt;stroke-linejoin:miter;stroke-opacity:1" d="M 789.404,12.537 772.33,12.537 z" id="boundary" inkscape:connector-curvature="0" />
	<path style="fill:none;stroke:red;stroke-width:1px;stroke-linecap:butt;stroke-linejoin:miter;stroke-opacity:1" d="M 873.067,4 855.993,4 z" id="boundary" inkscape:connector-curvature="0" />
	<path style="fill:none;stroke:red;stroke-width:1px;stroke-linecap:butt;stroke-linejoin:miter;stroke-opacity:1" d="M 855.993,4 840.627,12.537 z" id="boundary" inkscape:connector-curvature="0" />
	<path style="fill:none;stroke:red;stroke-width:1px;stroke-linecap:butt;stroke-linejoin:miter;stroke-opacity:1" d="M 806.478,12.537 789.404,12.537 z" id="boundary" inkscape:connector-curvature="0" />
	<path style="fill:none;stroke:red;stroke-width:1px;stroke-linecap:butt;stroke-linejoin:miter;stroke-opacity:1" d="M 873.067,4 890.141,4 z" id="boundary" inkscape:connector-curvature="0" />
	<path style="fill:none;stroke:red;stroke-width:1px;stroke-linecap:butt;stroke-linejoin:miter;stroke-opacity:1" d="M 907.215,4 924.289,4 z" id="boundary" inkscape:connector-curvature="0" />
	<path style="fill:none;stroke:red;stroke-width:1px;stroke-linecap:butt;stroke-linejoin:miter;stroke-opacity:1" d="M 907.215,4 890.141,4 z" id="boundary" inkscape:connector-curvature="0" />
	<path style="fill:none;stroke:red;stroke-width:1px;stroke-linecap:butt;stroke-linejoin:miter;stroke-opacity:1" d="M 941.363,4 924.289,4 z" id="boundary" inkscape:connector-curvature="0" />
	<path style="fill:none;stroke:red;stroke-width:1px;stroke-linecap:butt;stroke-linejoin:miter;stroke-opacity:1" d="M 806.478,12.537 823.552,12.537 z" id="boundary" inkscape:connector-curvature="0" />
	<path style="fill:none;stroke:red;stroke-width:1px;stroke-linecap:butt;stroke-linejoin:miter;stroke-opacity:1" d="M 823.552,12.537 840.627,12.537 z" id="boundary" inkscape:connector-curvature="0" />
	<path style="fill:none;stroke:red;stroke-width:1px;stroke-linecap:butt;stroke-linejoin:miter;stroke-opacity:1" d="M 941.363,4 958.437,4 z" id="boundary" inkscape:connector-curvature="0" />
	<path style="fill:none;stroke:red;stroke-width:1px;stroke-linecap:butt;stroke-linejoin:miter;stroke-opacity:1" d="M 958.437,4 975.511,4 z" id="boundary" inkscape:connector-curvature="0" />
	<path style="fill:none;stroke:red;stroke-width:1px;stroke-linecap:butt;stroke-linejoin:miter;stroke-opacity:1" d="M 987.463,17.6592 987.463,34.7332 z" id="boundary" inkscape:connector-curvature="0" />
	<path style="fill:none;stroke:red;stroke-width:1px;stroke-linecap:butt;stroke-linejoin:miter;stroke-opacity:1" d="M 987.463,17.6592 975.511,4 z" id="boundary" inkscape:connector-curvature="0" />
	<path style="fill:none;stroke:red;stroke-width:1px;stroke-linecap:butt;stroke-linejoin:miter;stroke-opacity:1" d="M 987.463,34.7332 987.463,51.8072 z" id="boundary" inkscape:connector-curvature="0" />
	<path style="fill:none;stroke:red;stroke-width:1px;stroke-linecap:butt;stroke-linejoin:miter;stroke-opacity:1" d="M 987.463,51.8072 987.463,68.8812 z" id="boundary" inkscape:connector-curvature="0" />
	<path style="fill:none;stroke:red;stroke-width:1px;stroke-linecap:butt;stroke-linejoin:miter;stroke-opacity:1" d="M 987.463,68.8812 987.463,85.9552 z" id="boundary" inkscape:connector-curvature="0" />
	<path style="fill:none;stroke:red;stroke-width:1px;stroke-linecap:butt;stroke-linejoin:miter;stroke-opacity:1" d="M 987.463,85.9552 987.463,103.029 z" id="boundary" inkscape:connector-curvature="0" />
	<path style="fill:none;stroke:red;stroke-width:1px;stroke-linecap:butt;stroke-linejoin:miter;stroke-opacity:1" d="M 987.463,120.103 987.463,103.029 z" id="boundary" inkscape:connector-curvature="0" />
	<path style="fill:none;stroke:red;stroke-width:1px;stroke-linecap:butt;stroke-linejoin:miter;stroke-opacity:1" d="M 987.463,120.103 987.463,137.177 z" id="boundary" inkscape:connector-curvature="0" />
	<path style="fill:none;stroke:red;stroke-width:1px;stroke-linecap:butt;stroke-linejoin:miter;stroke-opacity:1" d="M 987.463,137.177 987.463,154.251 z" id="boundary" inkscape:connector-curvature="0" />
	<path style="fill:none;stroke:red;stroke-width:1px;stroke-linecap:butt;stroke-linejoin:miter;stroke-opacity:1" d="M 987.463,171.325 987.463,154.251 z" id="boundary" inkscape:connector-curvature="0" />
	<path style="fill:none;stroke:red;stroke-width:1px;stroke-linecap:butt;stroke-linejoin:miter;stroke-opacity:1" d="M 987.463,188.399 987.463,205.473 z" id="boundary" inkscape:connector-curvature="0" />
	<path style="fill:none;stroke:red;stroke-width:1px;stroke-linecap:butt;stroke-linejoin:miter;stroke-opacity:1" d="M 987.463,222.547 987.463,205.473 z" id="boundary" inkscape:connector-curvature="0" />
	<path style="fill:none;stroke:red;stroke-width:1px;stroke-linecap:butt;stroke-linejoin:miter;stroke-opacity:1" d="M 996,237.914 996,254.988 z" id="boundary" inkscape:connector-curvature="0" />
	<path style="fill:none;stroke:red;stroke-width:1px;stroke-linecap:butt;stroke-linejoin:miter;stroke-opacity:1" d="M 996,237.914 987.463,222.547 z" id="boundary" inkscape:connector-curvature="0" />
	<path style="fill:none;stroke:red;stroke-width:1px;stroke-linecap:butt;stroke-linejoin:miter;stroke-opacity:1" d="M 996,272.062 996,254.988 z" id="boundary" inkscape:connector-curvature="0" />
	<path style="fill:none;stroke:red;stroke-width:1px;stroke-linecap:butt;stroke-linejoin:miter;stroke-opacity:1" d="M 987.463,188.399 987.463,171.325 z" id="boundary" inkscape:connector-curvature="0" />
	<path style="fill:none;stroke:red;stroke-width:1px;stroke-linecap:butt;stroke-linejoin:miter;stroke-opacity:1" d="M 586.224,509.391 603.298,509.391 z" id="boundary" inkscape:connector-curvature="0" />
	<path style="fill:none;stroke:red;stroke-width:1px;stroke-linecap:butt;stroke-linejoin:miter;stroke-opacity:1" d="M 620.372,509.391 603.298,509.391 z" id="boundary" inkscape:connector-curvature="0" />
	<path style="fill:none;stroke:red;stroke-width:1px;stroke-linecap:butt;stroke-linejoin:miter;stroke-opacity:1" d="M 637.446,509.391 620.372,509.391 z" id="boundary" inkscape:connector-curvature="0" />
	<path style="fill:none;stroke:red;stroke-width:1px;stroke-linecap:butt;stroke-linejoin:miter;stroke-opacity:1" d="M 688.668,509.391 671.594,509.391 z" id="boundary" inkscape:connector-curvature="0" />
	<path style="fill:none;stroke:red;stroke-width:1px;stroke-linecap:butt;stroke-linejoin:miter;stroke-opacity:1" d="M 654.52,509.391 637.446,509.391 z" id="boundary" inkscape:connector-curvature="0" />
	<path style="fill:none;stroke:red;stroke-width:1px;stroke-linecap:butt;stroke-linejoin:miter;stroke-opacity:1" d="M 671.594,509.391 654.52,509.391 z" id="boundary" inkscape:connector-curvature="0" />
	<path style="fill:none;stroke:red;stroke-width:1px;stroke-linecap:butt;stroke-linejoin:miter;stroke-opacity:1" d="M 705.742,509.391 722.816,509.391 z" id="boundary" inkscape:connector-curvature="0" />
	<path style="fill:none;stroke:red;stroke-width:1px;stroke-linecap:butt;stroke-linejoin:miter;stroke-opacity:1" d="M 739.89,509.391 756.964,509.391 z" id="boundary" inkscape:connector-curvature="0" />
	<path style="fill:none;stroke:red;stroke-width:1px;stroke-linecap:butt;stroke-linejoin:miter;stroke-opacity:1" d="M 739.89,509.391 722.816,509.391 z" id="boundary" inkscape:connector-curvature="0" />
	<path style="fill:none;stroke:red;stroke-width:1px;stroke-linecap:butt;stroke-linejoin:miter;stroke-opacity:1" d="M 705.742,509.391 688.668,509.391 z" id="boundary" inkscape:connector-curvature="0" />
	<path style="fill:none;stroke:red;stroke-width:1px;stroke-linecap:butt;stroke-linejoin:miter;stroke-opacity:1" d="M 774.038,509.391 756.964,509.391 z" id="boundary" inkscape:connector-curvature="0" />
	<path style="fill:none;stroke:red;stroke-width:1px;stroke-linecap:butt;stroke-linejoin:miter;stroke-opacity:1" d="M 473.535,526.465 490.609,526.465 z" id="boundary" inkscape:connector-curvature="0" />
	<path style="fill:none;stroke:red;stroke-width:1px;stroke-linecap:butt;stroke-linejoin:miter;stroke-opacity:1" d="M 473.535,526.465 456.461,526.465 z" id="boundary" inkscape:connector-curvature="0" />
	<path style="fill:none;stroke:red;stroke-width:1px;stroke-linecap:butt;stroke-linejoin:miter;stroke-opacity:1" d="M 507.683,526.465 524.757,526.465 z" id="boundary" inkscape:connector-curvature="0" />
	<path style="fill:none;stroke:red;stroke-width:1px;stroke-linecap:butt;stroke-linejoin:miter;stroke-opacity:1" d="M 507.683,526.465 490.609,526.465 z" id="boundary" inkscape:connector-curvature="0" />
	<path style="fill:none;stroke:red;stroke-width:1px;stroke-linecap:butt;stroke-linejoin:miter;stroke-opacity:1" d="M 541.831,526.465 524.757,526.465 z" id="boundary" inkscape:connector-curvature="0" />
	<path style="fill:none;stroke:red;stroke-width:1px;stroke-linecap:butt;stroke-linejoin:miter;stroke-opacity:1" d="M 558.905,526.465 541.831,526.465 z" id="boundary" inkscape:connector-curvature="0" />
	<path style="fill:none;stroke:red;stroke-width:1px;stroke-linecap:butt;stroke-linejoin:miter;stroke-opacity:1" d="M 575.979,526.465 558.905,526.465 z" id="boundary" inkscape:connector-curvature="0" />
	<path style="fill:none;stroke:red;stroke-width:1px;stroke-linecap:butt;stroke-linejoin:miter;stroke-opacity:1" d="M 586.224,509.391 575.979,526.465 z" id="boundary" inkscape:connector-curvature="0" />
	<path style="fill:none;stroke:red;stroke-width:1px;stroke-linecap:butt;stroke-linejoin:miter;stroke-opacity:1" d="M 774.038,509.391 791.112,509.391 z" id="boundary" inkscape:connector-curvature="0" />
	<path style="fill:none;stroke:red;stroke-width:1px;stroke-linecap:butt;stroke-linejoin:miter;stroke-opacity:1" d="M 996,289.136 996,306.21 z" id="boundary" inkscape:connector-curvature="0" />
	<path style="fill:none;stroke:red;stroke-width:1px;stroke-linecap:butt;stroke-linejoin:miter;stroke-opacity:1" d="M 996,289.136 996,272.062 z" id="boundary" inkscape:connector-curvature="0" />
	<path style="fill:none;stroke:red;stroke-width:1px;stroke-linecap:butt;stroke-linejoin:miter;stroke-opacity:1" d="M 996,323.284 996,340.358 z" id="boundary" inkscape:connector-curvature="0" />
	<path style="fill:none;stroke:red;stroke-width:1px;stroke-linecap:butt;stroke-linejoin:miter;stroke-opacity:1" d="M 996,323.284 996,306.21 z" id="boundary" inkscape:connector-curvature="0" />
	<path style="fill:none;stroke:red;stroke-width:1px;stroke-linecap:butt;stroke-linejoin:miter;stroke-opacity:1" d="M 996,357.432 996,374.506 z" id="boundary" inkscape:connector-curvature="0" />
	<path style="fill:none;stroke:red;stroke-width:1px;stroke-linecap:butt;stroke-linejoin:miter;stroke-opacity:1" d="M 996,357.432 996,340.358 z" id="boundary" inkscape:connector-curvature="0" />
	<path style="fill:none;stroke:red;stroke-width:1px;stroke-linecap:butt;stroke-linejoin:miter;stroke-opacity:1" d="M 996,374.506 996,391.58 z" id="boundary" inkscape:connector-curvature="0" />
	<path style="fill:none;stroke:red;stroke-width:1px;stroke-linecap:butt;stroke-linejoin:miter;stroke-opacity:1" d="M 996,425.728 996,408.654 z" id="boundary" inkscape:connector-curvature="0" />
	<path style="fill:none;stroke:red;stroke-width:1px;stroke-linecap:butt;stroke-linejoin:miter;stroke-opacity:1" d="M 996,425.728 996,442.802 z" id="boundary" inkscape:connector-curvature="0" />
	<path style="fill:none;stroke:red;stroke-width:1px;stroke-linecap:butt;stroke-linejoin:miter;stroke-opacity:1" d="M 996,391.58 996,408.654 z" id="boundary" inkscape:connector-curvature="0" />
	<path style="fill:none;stroke:red;stroke-width:1px;stroke-linecap:butt;stroke-linejoin:miter;stroke-opacity:1" d="M 808.186,509.391 791.112,509.391 z" id="boundary" inkscape:connector-curvature="0" />
	<path style="fill:none;stroke:red;stroke-width:1px;stroke-linecap:butt;stroke-linejoin:miter;stroke-opacity:1" d="M 825.26,509.391 842.334,509.391 z" id="boundary" inkscape:connector-curvature="0" />
	<path style="fill:none;stroke:red;stroke-width:1px;stroke-linecap:butt;stroke-linejoin:miter;stroke-opacity:1" d="M 825.26,509.391 808.186,509.391 z" id="boundary" inkscape:connector-curvature="0" />
	<path style="fill:none;stroke:red;stroke-width:1px;stroke-linecap:butt;stroke-linejoin:miter;stroke-opacity:1" d="M 859.408,509.391 876.482,509.391 z" id="boundary" inkscape:connector-curvature="0" />
	<path style="fill:none;stroke:red;stroke-width:1px;stroke-linecap:butt;stroke-linejoin:miter;stroke-opacity:1" d="M 876.482,509.391 893.556,509.391 z" id="boundary" inkscape:connector-curvature="0" />
	<path style="fill:none;stroke:red;stroke-width:1px;stroke-linecap:butt;stroke-linejoin:miter;stroke-opacity:1" d="M 910.63,509.391 893.556,509.391 z" id="boundary" inkscape:connector-curvature="0" />
	<path style="fill:none;stroke:red;stroke-width:1px;stroke-linecap:butt;stroke-linejoin:miter;stroke-opacity:1" d="M 859.408,509.391 842.334,509.391 z" id="boundary" inkscape:connector-curvature="0" />
	<path style="fill:none;stroke:red;stroke-width:1px;stroke-linecap:butt;stroke-linejoin:miter;stroke-opacity:1" d="M 996,476.95 996,459.876 z" id="boundary" inkscape:connector-curvature="0" />
	<path style="fill:none;stroke:red;stroke-width:1px;stroke-linecap:butt;stroke-linejoin:miter;stroke-opacity:1" d="M 996,476.95 994.293,495.731 z" id="boundary" inkscape:connector-curvature="0" />
	<path style="fill:none;stroke:red;stroke-width:1px;stroke-linecap:butt;stroke-linejoin:miter;stroke-opacity:1" d="M 996,442.802 996,459.876 z" id="boundary" inkscape:connector-curvature="0" />
	<path style="fill:none;stroke:red;stroke-width:1px;stroke-linecap:butt;stroke-linejoin:miter;stroke-opacity:1" d="M 994.293,495.731 977.219,500.854 z" id="boundary" inkscape:connector-curvature="0" />
	<path style="fill:none;stroke:red;stroke-width:1px;stroke-linecap:butt;stroke-linejoin:miter;stroke-opacity:1" d="M 910.63,509.391 927.704,509.391 z" id="boundary" inkscape:connector-curvature="0" />
	<path style="fill:none;stroke:red;stroke-width:1px;stroke-linecap:butt;stroke-linejoin:miter;stroke-opacity:1" d="M 960.145,500.854 977.219,500.854 z" id="boundary" inkscape:connector-curvature="0" />
	<path style="fill:none;stroke:red;stroke-width:1px;stroke-linecap:butt;stroke-linejoin:miter;stroke-opacity:1" d="M 927.704,509.391 944.778,509.391 z" id="boundary" inkscape:connector-curvature="0" />
	<path style="fill:none;stroke:red;stroke-width:1px;stroke-linecap:butt;stroke-linejoin:miter;stroke-opacity:1" d="M 944.778,509.391 960.145,500.854 z" id="boundary" inkscape:connector-curvature="0" />
	<circle cx="4" cy="43.2702" r="4" fill="#0" id="circle0"/>
	<circle cx="4" cy="60.3442" r="4" fill="#0" id="circle1"/>
	<circle cx="4" cy="77.4182" r="4" fill="#0" id="circle2"/>
	<circle cx="4" cy="94.4923" r="4" fill="#0" id="circle3"/>
	<circle cx="4" cy="111.566" r="4" fill="#0" id="circle4"/>
	<circle cx="4" cy="128.64" r="4" fill="#0" id="circle5"/>
	<circle cx="4" cy="145.714" r="4" fill="#0" id="circle6"/>
	<circle cx="4" cy="162.788" r="4" fill="#0" id="circle7"/>
	<circle cx="4" cy="179.862" r="4" fill="#0" id="circle8"/>
	<circle cx="4" cy="196.936" r="4" fill="#0" id="circle9"/>
	<circle cx="4" cy="214.01" r="4" fill="#0" id="circle10"/>
	<circle cx="4" cy="231.084" r="4" fill="#0" id="circle11"/>
	<circle cx="4" cy="248.158" r="4" fill="#0" id="circle12"/>
	<circle cx="4" cy="265.232" r="4" fill="#0" id="circle13"/>
	<circle cx="4" cy="282.306" r="4" fill="#0" id="circle14"/>
	<circle cx="4" cy="299.38" r="4" fill="#0" id="circle15"/>
	<circle cx="4" cy="316.454" r="4" fill="#0" id="circle16"/>
	<circle cx="4" cy="333.528" r="4" fill="#0" id="circle17"/>
	<circle cx="12.537" cy="348.895" r="4" fill="#0" id="circle18"/>
	<circle cx="12.537" cy="365.969" r="4" fill="#0" id="circle19"/>
	<circle cx="12.537" cy="383.043" r="4" fill="#0" id="circle20"/>
	<circle cx="12.537" cy="400.117" r="4" fill="#0" id="circle21"/>
	<circle cx="12.537" cy="417.191" r="4" fill="#0" id="circle22"/>
	<circle cx="12.537" cy="434.265" r="4" fill="#0" id="circle23"/>
	<circle cx="12.537" cy="451.339" r="4" fill="#0" id="circle24"/>
	<circle cx="12.537" cy="468.413" r="4" fill="#0" id="circle25"/>
	<circle cx="12.537" cy="485.487" r="4" fill="#0" id="circle26"/>
	<circle cx="12.537" cy="502.561" r="4" fill="#0" id="circle27"/>
	<circle cx="12.537" cy="519.635" r="4" fill="#0" id="circle28"/>
	<circle cx="21.074" cy="38.148" r="4" fill="#0" id="circle29"/>
	<circle cx="21.074" cy="535.002" r="4" fill="#0" id="circle30"/>
	<circle cx="38.148" cy="38.148" r="4" fill="#0" id="circle31"/>
	<circle cx="38.148" cy="535.002" r="4" fill="#0" id="circle32"/>
	<circle cx="55.222" cy="38.148" r="4" fill="#0" id="circle33"/>
	<circle cx="55.222" cy="535.002" r="4" fill="#0" id="circle34"/>
	<circle cx="63.759" cy="615.25" r="4" fill="#0" id="circle35"/>
	<circle cx="72.296" cy="38.148" r="4" fill="#0" id="circle36"/>
	<circle cx="72.296" cy="535.002" r="4" fill="#0" id="circle37"/>
	<circle cx="74.0034" cy="628.909" r="4" fill="#0" id="circle38"/>
	<circle cx="77.4182" cy="601.59" r="4" fill="#0" id="circle39"/>
	<circle cx="89.3701" cy="38.148" r="4" fill="#0" id="circle40"/>
	<circle cx="89.3701" cy="535.002" r="4" fill="#0" id="circle41"/>
	<circle cx="91.0775" cy="587.931" r="4" fill="#0" id="circle42"/>
	<circle cx="91.0775" cy="628.909" r="4" fill="#0" id="circle43"/>
	<circle cx="99.6145" cy="611.835" r="4" fill="#0" id="circle44"/>
	<circle cx="106.444" cy="38.148" r="4" fill="#0" id="circle45"/>
	<circle cx="106.444" cy="535.002" r="4" fill="#0" id="circle46"/>
	<circle cx="108.151" cy="584.516" r="4" fill="#0" id="circle47"/>
	<circle cx="116.688" cy="611.835" r="4" fill="#0" id="circle48"/>
	<circle cx="123.518" cy="38.148" r="4" fill="#0" id="circle49"/>
	<circle cx="123.518" cy="535.002" r="4" fill="#0" id="circle50"/>
	<circle cx="123.518" cy="564.028" r="4" fill="#0" id="circle51"/>
	<circle cx="133.762" cy="611.835" r="4" fill="#0" id="circle52"/>
	<circle cx="140.592" cy="26.1962" r="4" fill="#0" id="circle53"/>
	<circle cx="140.592" cy="535.002" r="4" fill="#0" id="circle54"/>
	<circle cx="140.592" cy="555.491" r="4" fill="#0" id="circle55"/>
	<circle cx="150.836" cy="603.298" r="4" fill="#0" id="circle56"/>
	<circle cx="157.666" cy="21.074" r="4" fill="#0" id="circle57"/>
	<circle cx="167.91" cy="603.298" r="4" fill="#0" id="circle58"/>
	<circle cx="174.74" cy="21.074" r="4" fill="#0" id="circle59"/>
	<circle cx="184.985" cy="603.298" r="4" fill="#0" id="circle60"/>
	<circle cx="191.814" cy="21.074" r="4" fill="#0" id="circle61"/>
	<circle cx="202.059" cy="586.224" r="4" fill="#0" id="circle62"/>
	<circle cx="208.888" cy="21.074" r="4" fill="#0" id="circle63"/>
	<circle cx="219.133" cy="586.224" r="4" fill="#0" id="circle64"/>
	<circle cx="225.962" cy="21.074" r="4" fill="#0" id="circle65"/>
	<circle cx="236.207" cy="577.687" r="4" fill="#0" id="circle66"/>
	<circle cx="243.036" cy="21.074" r="4" fill="#0" id="circle67"/>
	<circle cx="253.281" cy="577.687" r="4" fill="#0" id="circle68"/>
	<circle cx="260.11" cy="21.074" r="4" fill="#0" id="circle69"/>
	<circle cx="261.818" cy="560.613" r="4" fill="#0" id="circle70"/>
	<circle cx="277.184" cy="21.074" r="4" fill="#0" id="circle71"/>
	<circle cx="278.892" cy="560.613" r="4" fill="#0" id="circle72"/>
	<circle cx="294.258" cy="21.074" r="4" fill="#0" id="circle73"/>
	<circle cx="295.966" cy="560.613" r="4" fill="#0" id="circle74"/>
	<circle cx="311.332" cy="21.074" r="4" fill="#0" id="circle75"/>
	<circle cx="313.04" cy="552.076" r="4" fill="#0" id="circle76"/>
	<circle cx="328.406" cy="21.074" r="4" fill="#0" id="circle77"/>
	<circle cx="330.114" cy="552.076" r="4" fill="#0" id="circle78"/>
	<circle cx="345.48" cy="21.074" r="4" fill="#0" id="circle79"/>
	<circle cx="347.188" cy="552.076" r="4" fill="#0" id="circle80"/>
	<circle cx="355.725" cy="535.002" r="4" fill="#0" id="circle81"/>
	<circle cx="362.554" cy="21.074" r="4" fill="#0" id="circle82"/>
	<circle cx="372.799" cy="535.002" r="4" fill="#0" id="circle83"/>
	<circle cx="379.628" cy="21.074" r="4" fill="#0" id="circle84"/>
	<circle cx="389.873" cy="535.002" r="4" fill="#0" id="circle85"/>
	<circle cx="396.702" cy="21.074" r="4" fill="#0" id="circle86"/>
	<circle cx="405.239" cy="526.465" r="4" fill="#0" id="circle87"/>
	<circle cx="413.776" cy="21.074" r="4" fill="#0" id="circle88"/>
	<circle cx="422.313" cy="526.465" r="4" fill="#0" id="circle89"/>
	<circle cx="430.85" cy="21.074" r="4" fill="#0" id="circle90"/>
	<circle cx="439.387" cy="526.465" r="4" fill="#0" id="circle91"/>
	<circle cx="447.924" cy="21.074" r="4" fill="#0" id="circle92"/>
	<circle cx="456.461" cy="526.465" r="4" fill="#0" id="circle93"/>
	<circle cx="464.998" cy="21.074" r="4" fill="#0" id="circle94"/>
	<circle cx="473.535" cy="526.465" r="4" fill="#0" id="circle95"/>
	<circle cx="482.072" cy="21.074" r="4" fill="#0" id="circle96"/>
	<circle cx="490.609" cy="526.465" r="4" fill="#0" id="circle97"/>
	<circle cx="499.146" cy="17.6592" r="4" fill="#0" id="circle98"/>
	<circle cx="507.683" cy="526.465" r="4" fill="#0" id="circle99"/>
	<circle cx="516.22" cy="12.537" r="4" fill="#0" id="circle100"/>
	<circle cx="524.757" cy="526.465" r="4" fill="#0" id="circle101"/>
	<circle cx="533.294" cy="12.537" r="4" fill="#0" id="circle102"/>
	<circle cx="541.831" cy="526.465" r="4" fill="#0" id="circle103"/>
	<circle cx="550.368" cy="12.537" r="4" fill="#0" id="circle104"/>
	<circle cx="558.905" cy="526.465" r="4" fill="#0" id="circle105"/>
	<circle cx="567.442" cy="12.537" r="4" fill="#0" id="circle106"/>
	<circle cx="575.979" cy="526.465" r="4" fill="#0" id="circle107"/>
	<circle cx="584.516" cy="12.537" r="4" fill="#0" id="circle108"/>
	<circle cx="586.224" cy="509.391" r="4" fill="#0" id="circle109"/>
	<circle cx="601.59" cy="12.537" r="4" fill="#0" id="circle110"/>
	<circle cx="603.298" cy="509.391" r="4" fill="#0" id="circle111"/>
	<circle cx="618.664" cy="12.537" r="4" fill="#0" id="circle112"/>
	<circle cx="620.372" cy="509.391" r="4" fill="#0" id="circle113"/>
	<circle cx="635.738" cy="12.537" r="4" fill="#0" id="circle114"/>
	<circle cx="637.446" cy="509.391" r="4" fill="#0" id="circle115"/>
	<circle cx="652.812" cy="12.537" r="4" fill="#0" id="circle116"/>
	<circle cx="654.52" cy="509.391" r="4" fill="#0" id="circle117"/>
	<circle cx="669.886" cy="12.537" r="4" fill="#0" id="circle118"/>
	<circle cx="671.594" cy="509.391" r="4" fill="#0" id="circle119"/>
	<circle cx="686.96" cy="12.537" r="4" fill="#0" id="circle120"/>
	<circle cx="688.668" cy="509.391" r="4" fill="#0" id="circle121"/>
	<circle cx="704.034" cy="12.537" r="4" fill="#0" id="circle122"/>
	<circle cx="705.742" cy="509.391" r="4" fill="#0" id="circle123"/>
	<circle cx="721.108" cy="12.537" r="4" fill="#0" id="circle124"/>
	<circle cx="722.816" cy="509.391" r="4" fill="#0" id="circle125"/>
	<circle cx="738.182" cy="12.537" r="4" fill="#0" id="circle126"/>
	<circle cx="739.89" cy="509.391" r="4" fill="#0" id="circle127"/>
	<circle cx="755.256" cy="12.537" r="4" fill="#0" id="circle128"/>
	<circle cx="756.964" cy="509.391" r="4" fill="#0" id="circle129"/>
	<circle cx="772.33" cy="12.537" r="4" fill="#0" id="circle130"/>
	<circle cx="774.038" cy="509.391" r="4" fill="#0" id="circle131"/>
	<circle cx="789.404" cy="12.537" r="4" fill="#0" id="circle132"/>
	<circle cx="791.112" cy="509.391" r="4" fill="#0" id="circle133"/>
	<circle cx="806.478" cy="12.537" r="4" fill="#0" id="circle134"/>
	<circle cx="808.186" cy="509.391" r="4" fill="#0" id="circle135"/>
	<circle cx="823.552" cy="12.537" r="4" fill="#0" id="circle136"/>
	<circle cx="825.26" cy="509.391" r="4" fill="#0" id="circle137"/>
	<circle cx="840.627" cy="12.537" r="4" fill="#0" id="circle138"/>
	<circle cx="842.334" cy="509.391" r="4" fill="#0" id="circle139"/>
	<circle cx="855.993" cy="4" r="4" fill="#0" id="circle140"/>
	<circle cx="859.408" cy="509.391" r="4" fill="#0" id="circle141"/>
	<circle cx="873.067" cy="4" r="4" fill="#0" id="circle142"/>
	<circle cx="876.482" cy="509.391" r="4" fill="#0" id="circle143"/>
	<circle cx="890.141" cy="4" r="4" fill="#0" id="circle144"/>
	<circle cx="893.556" cy="509.391" r="4" fill="#0" id="circle145"/>
	<circle cx="907.215" cy="4" r="4" fill="#0" id="circle146"/>
	<circle cx="910.63" cy="509.391" r="4" fill="#0" id="circle147"/>
	<circle cx="924.289" cy="4" r="4" fill="#0" id="circle148"/>
	<circle cx="927.704" cy="509.391" r="4" fill="#0" id="circle149"/>
	<circle cx="941.363" cy="4" r="4" fill="#0" id="circle150"/>
	<circle cx="944.778" cy="509.391" r="4" fill="#0" id="circle151"/>
	<circle cx="958.437" cy="4" r="4" fill="#0" id="circle152"/>
	<circle cx="960.145" cy="500.854" r="4" fill="#0" id="circle153"/>
	<circle cx="975.511" cy="4" r="4" fill="#0" id="circle154"/>
	<circle cx="977.219" cy="500.854" r="4" fill="#0" id="circle155"/>
	<circle cx="987.463" cy="17.6592" r="4" fill="#0" id="circle156"/>
	<circle cx="987.463" cy="34.7332" r="4" fill="#0" id="circle157"/>
	<circle cx="987.463" cy="51.8072" r="4" fill="#0" id="circle158"/>
	<circle cx="987.463" cy="68.8812" r="4" fill="#0" id="circle159"/>
	<circle cx="987.463" cy="85.9552" r="4" fill="#0" id="circle160"/>
	<circle cx="987.463" cy="103.029" r="4" fill="#0" id="circle161"/>
	<circle cx="987.463" cy="120.103" r="4" fill="#0" id="circle162"/>
	<circle cx="987.463" cy="137.177" r="4" fill="#0" id="circle163"/>
	<circle cx="987.463" cy="154.251" r="4" fill="#0" id="circle164"/>
	<circle cx="987.463" cy="171.325" r="4" fill="#0" id="circle165"/>
	<circle cx="987.463" cy="188.399" r="4" fill="#0" id="circle166"/>
	<circle cx="987.463" cy="205.473" r="4" fill="#0" id="circle167"/>
	<circle cx="987.463" cy="222.547" r="4" fill="#0" id="circle168"/>
	<circle cx="994.293" cy="495.731" r="4" fill="#0" id="circle169"/>
	<circle cx="996" cy="237.914" r="4" fill="#0" id="circle170"/>
	<circle cx="996" cy="254.988" r="4" fill="#0" id="circle171"/>
	<circle cx="996" cy="272.062" r="4" fill="#0" id="circle172"/>
	<circle cx="996" cy="289.136" r="4" fill="#0" id="circle173"/>
	<circle cx="996" cy="306.21" r="4" fill="#0" id="circle174"/>
	<circle cx="996" cy="323.284" r="4" fill="#0" id="circle175"/>
	<circle cx="996" cy="340.358" r="4" fill="#0" id="circle176"/>
	<circle cx="996" cy="357.432" r="4" fill="#0" id="circle177"/>
	<circle cx="996" cy="374.506" r="4" fill="#0" id="circle178"/>
	<circle cx="996" cy="391.58" r="4" fill="#0" id="circle179"/>
	<circle cx="996" cy="408.654" r="4" fill="#0" id="circle180"/>
	<circle cx="996" cy="425.728" r="4" fill="#0" id="circle181"/>
	<circle cx="996" cy="442.802" r="4" fill="#0" id="circle182"/>
	<circle cx="996" cy="459.876" r="4" fill="#0" id="circle183"/>
	<circle cx="996" cy="476.95" r="4" fill="#0" id="circle184"/>
	</g>
</svg>