<?xml version="1.0" encoding="UTF-8" standalone="no"?>
<!-- Created with CurveBenchmark -->
<svg
	xmlns:dc="http://purl.org/dc/elements/1.1/"
	xmlns:cc="http://creativecommons.org/ns#"
	xmlns:rdf="http://www.w3.org/1999/02/22-rdf-syntax-ns#"
	xmlns:svg="http://www.w3.org/2000/svg"
	xmlns="http://www.w3.org/2000/svg"
	xmlns:sodipodi="http://sodipodi.sourceforge.net/DTD/sodipodi-0.dtd"
	xmlns:inkscape="http://www.inkscape.org/namespaces/inkscape"
	width="1000"
	height="1000"
	id="svg2"
	version="1.1"
	sodipodi:docname="manifold/crust-bird170.png.txt">
<defs
	id="defs4" />
<metadata
	id="metadata7">
	<rdf:RDF>
		<cc:Work
			rdf:about="">
			<dc:format>image/svg+xml</dc:format>
			<dc:type
				rdf:resource="http://purl.org/dc/dcmitype/StillImage" />
			<dc:title></dc:title>
		</cc:Work>
	</rdf:RDF>
</metadata>
<g
	inkscape:label="Layer 1"
	inkscape:groupmode="layer"
	id="layer1">
	<path style="fill:none;stroke:red;stroke-width:1px;stroke-linecap:butt;stroke-linejoin:miter;stroke-opacity:1" d="M 92.1778,114.222 77.4815,150.963 z" id="boundary" inkscape:connector-curvature="0" />
	<path style="fill:none;stroke:red;stroke-width:1px;stroke-linecap:butt;stroke-linejoin:miter;stroke-opacity:1" d="M 121.57,84.8296 92.1778,114.222 z" id="boundary" inkscape:connector-curvature="0" />
	<path style="fill:none;stroke:red;stroke-width:1px;stroke-linecap:butt;stroke-linejoin:miter;stroke-opacity:1" d="M 158.311,70.1333 121.57,84.8296 z" id="boundary" inkscape:connector-curvature="0" />
	<path style="fill:none;stroke:red;stroke-width:1px;stroke-linecap:butt;stroke-linejoin:miter;stroke-opacity:1" d="M 231.793,73.8074 195.052,70.1333 z" id="boundary" inkscape:connector-curvature="0" />
	<path style="fill:none;stroke:red;stroke-width:1px;stroke-linecap:butt;stroke-linejoin:miter;stroke-opacity:1" d="M 195.052,70.1333 158.311,70.1333 z" id="boundary" inkscape:connector-curvature="0" />
	<path style="fill:none;stroke:red;stroke-width:1px;stroke-linecap:butt;stroke-linejoin:miter;stroke-opacity:1" d="M 55.437,180.356 77.4815,150.963 z" id="boundary" inkscape:connector-curvature="0" />
	<path style="fill:none;stroke:red;stroke-width:1px;stroke-linecap:butt;stroke-linejoin:miter;stroke-opacity:1" d="M 55.437,180.356 26.0444,217.096 z" id="boundary" inkscape:connector-curvature="0" />
	<path style="fill:none;stroke:red;stroke-width:1px;stroke-linecap:butt;stroke-linejoin:miter;stroke-opacity:1" d="M 114.222,213.422 84.8296,235.467 z" id="boundary" inkscape:connector-curvature="0" />
	<path style="fill:none;stroke:red;stroke-width:1px;stroke-linecap:butt;stroke-linejoin:miter;stroke-opacity:1" d="M 84.8296,235.467 55.437,257.511 z" id="boundary" inkscape:connector-curvature="0" />
	<path style="fill:none;stroke:red;stroke-width:1px;stroke-linecap:butt;stroke-linejoin:miter;stroke-opacity:1" d="M 220.77,165.659 187.704,184.03 z" id="boundary" inkscape:connector-curvature="0" />
	<path style="fill:none;stroke:red;stroke-width:1px;stroke-linecap:butt;stroke-linejoin:miter;stroke-opacity:1" d="M 187.704,184.03 150.963,198.726 z" id="boundary" inkscape:connector-curvature="0" />
	<path style="fill:none;stroke:red;stroke-width:1px;stroke-linecap:butt;stroke-linejoin:miter;stroke-opacity:1" d="M 114.222,213.422 150.963,198.726 z" id="boundary" inkscape:connector-curvature="0" />
	<path style="fill:none;stroke:red;stroke-width:1px;stroke-linecap:butt;stroke-linejoin:miter;stroke-opacity:1" d="M 26.0444,217.096 4,246.489 z" id="boundary" inkscape:connector-curvature="0" />
	<path style="fill:none;stroke:red;stroke-width:1px;stroke-linecap:butt;stroke-linejoin:miter;stroke-opacity:1" d="M 562.459,4 525.719,4 z" id="boundary" inkscape:connector-curvature="0" />
	<path style="fill:none;stroke:red;stroke-width:1px;stroke-linecap:butt;stroke-linejoin:miter;stroke-opacity:1" d="M 268.533,88.5037 231.793,73.8074 z" id="boundary" inkscape:connector-curvature="0" />
	<path style="fill:none;stroke:red;stroke-width:1px;stroke-linecap:butt;stroke-linejoin:miter;stroke-opacity:1" d="M 268.533,88.5037 294.252,117.896 z" id="boundary" inkscape:connector-curvature="0" />
	<path style="fill:none;stroke:red;stroke-width:1px;stroke-linecap:butt;stroke-linejoin:miter;stroke-opacity:1" d="M 415.496,33.3926 452.237,18.6963 z" id="boundary" inkscape:connector-curvature="0" />
	<path style="fill:none;stroke:red;stroke-width:1px;stroke-linecap:butt;stroke-linejoin:miter;stroke-opacity:1" d="M 452.237,18.6963 488.978,11.3481 z" id="boundary" inkscape:connector-curvature="0" />
	<path style="fill:none;stroke:red;stroke-width:1px;stroke-linecap:butt;stroke-linejoin:miter;stroke-opacity:1" d="M 525.719,4 488.978,11.3481 z" id="boundary" inkscape:connector-curvature="0" />
	<path style="fill:none;stroke:red;stroke-width:1px;stroke-linecap:butt;stroke-linejoin:miter;stroke-opacity:1" d="M 342.015,114.222 360.385,81.1556 z" id="boundary" inkscape:connector-curvature="0" />
	<path style="fill:none;stroke:red;stroke-width:1px;stroke-linecap:butt;stroke-linejoin:miter;stroke-opacity:1" d="M 382.43,51.763 415.496,33.3926 z" id="boundary" inkscape:connector-curvature="0" />
	<path style="fill:none;stroke:red;stroke-width:1px;stroke-linecap:butt;stroke-linejoin:miter;stroke-opacity:1" d="M 360.385,81.1556 382.43,51.763 z" id="boundary" inkscape:connector-curvature="0" />
	<path style="fill:none;stroke:red;stroke-width:1px;stroke-linecap:butt;stroke-linejoin:miter;stroke-opacity:1" d="M 312.622,150.963 294.252,117.896 z" id="boundary" inkscape:connector-curvature="0" />
	<path style="fill:none;stroke:red;stroke-width:1px;stroke-linecap:butt;stroke-linejoin:miter;stroke-opacity:1" d="M 231.793,217.096 224.444,261.185 z" id="boundary" inkscape:connector-curvature="0" />
	<path style="fill:none;stroke:red;stroke-width:1px;stroke-linecap:butt;stroke-linejoin:miter;stroke-opacity:1" d="M 342.015,114.222 312.622,150.963 z" id="boundary" inkscape:connector-curvature="0" />
	<path style="fill:none;stroke:red;stroke-width:1px;stroke-linecap:butt;stroke-linejoin:miter;stroke-opacity:1" d="M 419.17,209.748 397.126,239.141 z" id="boundary" inkscape:connector-curvature="0" />
	<path style="fill:none;stroke:red;stroke-width:1px;stroke-linecap:butt;stroke-linejoin:miter;stroke-opacity:1" d="M 455.911,220.77 419.17,209.748 z" id="boundary" inkscape:connector-curvature="0" />
	<path style="fill:none;stroke:red;stroke-width:1px;stroke-linecap:butt;stroke-linejoin:miter;stroke-opacity:1" d="M 481.63,250.163 455.911,220.77 z" id="boundary" inkscape:connector-curvature="0" />
	<path style="fill:none;stroke:red;stroke-width:1px;stroke-linecap:butt;stroke-linejoin:miter;stroke-opacity:1" d="M 22.3704,279.556 4,246.489 z" id="boundary" inkscape:connector-curvature="0" />
	<path style="fill:none;stroke:red;stroke-width:1px;stroke-linecap:butt;stroke-linejoin:miter;stroke-opacity:1" d="M 55.437,257.511 22.3704,279.556 z" id="boundary" inkscape:connector-curvature="0" />
	<path style="fill:none;stroke:red;stroke-width:1px;stroke-linecap:butt;stroke-linejoin:miter;stroke-opacity:1" d="M 231.793,297.926 224.444,261.185 z" id="boundary" inkscape:connector-curvature="0" />
	<path style="fill:none;stroke:red;stroke-width:1px;stroke-linecap:butt;stroke-linejoin:miter;stroke-opacity:1" d="M 382.43,312.622 360.385,342.015 z" id="boundary" inkscape:connector-curvature="0" />
	<path style="fill:none;stroke:red;stroke-width:1px;stroke-linecap:butt;stroke-linejoin:miter;stroke-opacity:1" d="M 231.793,297.926 253.837,327.319 z" id="boundary" inkscape:connector-curvature="0" />
	<path style="fill:none;stroke:red;stroke-width:1px;stroke-linecap:butt;stroke-linejoin:miter;stroke-opacity:1" d="M 253.837,327.319 286.904,345.689 z" id="boundary" inkscape:connector-curvature="0" />
	<path style="fill:none;stroke:red;stroke-width:1px;stroke-linecap:butt;stroke-linejoin:miter;stroke-opacity:1" d="M 323.644,353.037 286.904,345.689 z" id="boundary" inkscape:connector-curvature="0" />
	<path style="fill:none;stroke:red;stroke-width:1px;stroke-linecap:butt;stroke-linejoin:miter;stroke-opacity:1" d="M 323.644,353.037 360.385,342.015 z" id="boundary" inkscape:connector-curvature="0" />
	<path style="fill:none;stroke:red;stroke-width:1px;stroke-linecap:butt;stroke-linejoin:miter;stroke-opacity:1" d="M 397.126,275.881 397.126,239.141 z" id="boundary" inkscape:connector-curvature="0" />
	<path style="fill:none;stroke:red;stroke-width:1px;stroke-linecap:butt;stroke-linejoin:miter;stroke-opacity:1" d="M 382.43,312.622 397.126,275.881 z" id="boundary" inkscape:connector-curvature="0" />
	<path style="fill:none;stroke:red;stroke-width:1px;stroke-linecap:butt;stroke-linejoin:miter;stroke-opacity:1" d="M 481.63,250.163 511.022,275.881 z" id="boundary" inkscape:connector-curvature="0" />
	<path style="fill:none;stroke:red;stroke-width:1px;stroke-linecap:butt;stroke-linejoin:miter;stroke-opacity:1" d="M 511.022,275.881 518.37,312.622 z" id="boundary" inkscape:connector-curvature="0" />
	<path style="fill:none;stroke:red;stroke-width:1px;stroke-linecap:butt;stroke-linejoin:miter;stroke-opacity:1" d="M 525.719,386.104 518.37,349.363 z" id="boundary" inkscape:connector-curvature="0" />
	<path style="fill:none;stroke:red;stroke-width:1px;stroke-linecap:butt;stroke-linejoin:miter;stroke-opacity:1" d="M 518.37,349.363 518.37,312.622 z" id="boundary" inkscape:connector-curvature="0" />
	<path style="fill:none;stroke:red;stroke-width:1px;stroke-linecap:butt;stroke-linejoin:miter;stroke-opacity:1" d="M 452.237,933.541 422.844,907.822 z" id="boundary" inkscape:connector-curvature="0" />
	<path style="fill:none;stroke:red;stroke-width:1px;stroke-linecap:butt;stroke-linejoin:miter;stroke-opacity:1" d="M 507.348,893.126 470.607,900.474 z" id="boundary" inkscape:connector-curvature="0" />
	<path style="fill:none;stroke:red;stroke-width:1px;stroke-linecap:butt;stroke-linejoin:miter;stroke-opacity:1" d="M 488.978,940.889 452.237,933.541 z" id="boundary" inkscape:connector-curvature="0" />
	<path style="fill:none;stroke:red;stroke-width:1px;stroke-linecap:butt;stroke-linejoin:miter;stroke-opacity:1" d="M 525.719,940.889 488.978,940.889 z" id="boundary" inkscape:connector-curvature="0" />
	<path style="fill:none;stroke:red;stroke-width:1px;stroke-linecap:butt;stroke-linejoin:miter;stroke-opacity:1" d="M 544.089,874.756 507.348,893.126 z" id="boundary" inkscape:connector-curvature="0" />
	<path style="fill:none;stroke:red;stroke-width:1px;stroke-linecap:butt;stroke-linejoin:miter;stroke-opacity:1" d="M 525.719,386.104 533.067,422.844 z" id="boundary" inkscape:connector-curvature="0" />
	<path style="fill:none;stroke:red;stroke-width:1px;stroke-linecap:butt;stroke-linejoin:miter;stroke-opacity:1" d="M 562.459,4 599.2,4 z" id="boundary" inkscape:connector-curvature="0" />
	<path style="fill:none;stroke:red;stroke-width:1px;stroke-linecap:butt;stroke-linejoin:miter;stroke-opacity:1" d="M 599.2,4 635.941,11.3481 z" id="boundary" inkscape:connector-curvature="0" />
	<path style="fill:none;stroke:red;stroke-width:1px;stroke-linecap:butt;stroke-linejoin:miter;stroke-opacity:1" d="M 672.681,26.0444 635.941,11.3481 z" id="boundary" inkscape:connector-curvature="0" />
	<path style="fill:none;stroke:red;stroke-width:1px;stroke-linecap:butt;stroke-linejoin:miter;stroke-opacity:1" d="M 672.681,26.0444 709.422,40.7407 z" id="boundary" inkscape:connector-curvature="0" />
	<path style="fill:none;stroke:red;stroke-width:1px;stroke-linecap:butt;stroke-linejoin:miter;stroke-opacity:1" d="M 738.815,62.7852 709.422,40.7407 z" id="boundary" inkscape:connector-curvature="0" />
	<path style="fill:none;stroke:red;stroke-width:1px;stroke-linecap:butt;stroke-linejoin:miter;stroke-opacity:1" d="M 639.615,378.756 639.615,415.496 z" id="boundary" inkscape:connector-curvature="0" />
	<path style="fill:none;stroke:red;stroke-width:1px;stroke-linecap:butt;stroke-linejoin:miter;stroke-opacity:1" d="M 639.615,342.015 639.615,378.756 z" id="boundary" inkscape:connector-curvature="0" />
	<path style="fill:none;stroke:red;stroke-width:1px;stroke-linecap:butt;stroke-linejoin:miter;stroke-opacity:1" d="M 639.615,342.015 676.356,345.689 z" id="boundary" inkscape:connector-curvature="0" />
	<path style="fill:none;stroke:red;stroke-width:1px;stroke-linecap:butt;stroke-linejoin:miter;stroke-opacity:1" d="M 713.096,353.037 676.356,345.689 z" id="boundary" inkscape:connector-curvature="0" />
	<path style="fill:none;stroke:red;stroke-width:1px;stroke-linecap:butt;stroke-linejoin:miter;stroke-opacity:1" d="M 713.096,353.037 738.815,382.43 z" id="boundary" inkscape:connector-curvature="0" />
	<path style="fill:none;stroke:red;stroke-width:1px;stroke-linecap:butt;stroke-linejoin:miter;stroke-opacity:1" d="M 738.815,62.7852 768.207,84.8296 z" id="boundary" inkscape:connector-curvature="0" />
	<path style="fill:none;stroke:red;stroke-width:1px;stroke-linecap:butt;stroke-linejoin:miter;stroke-opacity:1" d="M 797.6,106.874 819.644,136.267 z" id="boundary" inkscape:connector-curvature="0" />
	<path style="fill:none;stroke:red;stroke-width:1px;stroke-linecap:butt;stroke-linejoin:miter;stroke-opacity:1" d="M 797.6,106.874 768.207,84.8296 z" id="boundary" inkscape:connector-curvature="0" />
	<path style="fill:none;stroke:red;stroke-width:1px;stroke-linecap:butt;stroke-linejoin:miter;stroke-opacity:1" d="M 819.644,136.267 849.037,161.985 z" id="boundary" inkscape:connector-curvature="0" />
	<path style="fill:none;stroke:red;stroke-width:1px;stroke-linecap:butt;stroke-linejoin:miter;stroke-opacity:1" d="M 878.43,184.03 904.148,213.422 z" id="boundary" inkscape:connector-curvature="0" />
	<path style="fill:none;stroke:red;stroke-width:1px;stroke-linecap:butt;stroke-linejoin:miter;stroke-opacity:1" d="M 878.43,184.03 849.037,161.985 z" id="boundary" inkscape:connector-curvature="0" />
	<path style="fill:none;stroke:red;stroke-width:1px;stroke-linecap:butt;stroke-linejoin:miter;stroke-opacity:1" d="M 904.148,213.422 926.193,242.815 z" id="boundary" inkscape:connector-curvature="0" />
	<path style="fill:none;stroke:red;stroke-width:1px;stroke-linecap:butt;stroke-linejoin:miter;stroke-opacity:1" d="M 948.237,272.207 926.193,242.815 z" id="boundary" inkscape:connector-curvature="0" />
	<path style="fill:none;stroke:red;stroke-width:1px;stroke-linecap:butt;stroke-linejoin:miter;stroke-opacity:1" d="M 970.281,301.6 948.237,272.207 z" id="boundary" inkscape:connector-curvature="0" />
	<path style="fill:none;stroke:red;stroke-width:1px;stroke-linecap:butt;stroke-linejoin:miter;stroke-opacity:1" d="M 984.978,338.341 970.281,301.6 z" id="boundary" inkscape:connector-curvature="0" />
	<path style="fill:none;stroke:red;stroke-width:1px;stroke-linecap:butt;stroke-linejoin:miter;stroke-opacity:1" d="M 738.815,382.43 775.556,382.43 z" id="boundary" inkscape:connector-curvature="0" />
	<path style="fill:none;stroke:red;stroke-width:1px;stroke-linecap:butt;stroke-linejoin:miter;stroke-opacity:1" d="M 849.037,411.822 812.296,397.126 z" id="boundary" inkscape:connector-curvature="0" />
	<path style="fill:none;stroke:red;stroke-width:1px;stroke-linecap:butt;stroke-linejoin:miter;stroke-opacity:1" d="M 812.296,397.126 775.556,382.43 z" id="boundary" inkscape:connector-curvature="0" />
	<path style="fill:none;stroke:red;stroke-width:1px;stroke-linecap:butt;stroke-linejoin:miter;stroke-opacity:1" d="M 849.037,411.822 885.778,404.474 z" id="boundary" inkscape:connector-curvature="0" />
	<path style="fill:none;stroke:red;stroke-width:1px;stroke-linecap:butt;stroke-linejoin:miter;stroke-opacity:1" d="M 922.519,397.126 885.778,404.474 z" id="boundary" inkscape:connector-curvature="0" />
	<path style="fill:none;stroke:red;stroke-width:1px;stroke-linecap:butt;stroke-linejoin:miter;stroke-opacity:1" d="M 959.259,411.822 922.519,397.126 z" id="boundary" inkscape:connector-curvature="0" />
	<path style="fill:none;stroke:red;stroke-width:1px;stroke-linecap:butt;stroke-linejoin:miter;stroke-opacity:1" d="M 996,404.474 959.259,411.822 z" id="boundary" inkscape:connector-curvature="0" />
	<path style="fill:none;stroke:red;stroke-width:1px;stroke-linecap:butt;stroke-linejoin:miter;stroke-opacity:1" d="M 984.978,338.341 996,404.474 z" id="boundary" inkscape:connector-curvature="0" />
	<path style="fill:none;stroke:red;stroke-width:1px;stroke-linecap:butt;stroke-linejoin:miter;stroke-opacity:1" d="M 540.415,459.585 551.437,496.326 z" id="boundary" inkscape:connector-curvature="0" />
	<path style="fill:none;stroke:red;stroke-width:1px;stroke-linecap:butt;stroke-linejoin:miter;stroke-opacity:1" d="M 562.459,533.067 569.807,569.807 z" id="boundary" inkscape:connector-curvature="0" />
	<path style="fill:none;stroke:red;stroke-width:1px;stroke-linecap:butt;stroke-linejoin:miter;stroke-opacity:1" d="M 562.459,533.067 551.437,496.326 z" id="boundary" inkscape:connector-curvature="0" />
	<path style="fill:none;stroke:red;stroke-width:1px;stroke-linecap:butt;stroke-linejoin:miter;stroke-opacity:1" d="M 540.415,459.585 533.067,422.844 z" id="boundary" inkscape:connector-curvature="0" />
	<path style="fill:none;stroke:red;stroke-width:1px;stroke-linecap:butt;stroke-linejoin:miter;stroke-opacity:1" d="M 569.807,569.807 577.156,606.548 z" id="boundary" inkscape:connector-curvature="0" />
	<path style="fill:none;stroke:red;stroke-width:1px;stroke-linecap:butt;stroke-linejoin:miter;stroke-opacity:1" d="M 577.156,643.289 569.807,694.726 z" id="boundary" inkscape:connector-curvature="0" />
	<path style="fill:none;stroke:red;stroke-width:1px;stroke-linecap:butt;stroke-linejoin:miter;stroke-opacity:1" d="M 577.156,606.548 577.156,643.289 z" id="boundary" inkscape:connector-curvature="0" />
	<path style="fill:none;stroke:red;stroke-width:1px;stroke-linecap:butt;stroke-linejoin:miter;stroke-opacity:1" d="M 569.807,694.726 562.459,738.815 z" id="boundary" inkscape:connector-curvature="0" />
	<path style="fill:none;stroke:red;stroke-width:1px;stroke-linecap:butt;stroke-linejoin:miter;stroke-opacity:1" d="M 555.111,782.904 547.763,826.993 z" id="boundary" inkscape:connector-curvature="0" />
	<path style="fill:none;stroke:red;stroke-width:1px;stroke-linecap:butt;stroke-linejoin:miter;stroke-opacity:1" d="M 555.111,782.904 562.459,738.815 z" id="boundary" inkscape:connector-curvature="0" />
	<path style="fill:none;stroke:red;stroke-width:1px;stroke-linecap:butt;stroke-linejoin:miter;stroke-opacity:1" d="M 544.089,874.756 547.763,826.993 z" id="boundary" inkscape:connector-curvature="0" />
	<path style="fill:none;stroke:red;stroke-width:1px;stroke-linecap:butt;stroke-linejoin:miter;stroke-opacity:1" d="M 599.2,926.193 562.459,940.889 z" id="boundary" inkscape:connector-curvature="0" />
	<path style="fill:none;stroke:red;stroke-width:1px;stroke-linecap:butt;stroke-linejoin:miter;stroke-opacity:1" d="M 562.459,940.889 525.719,940.889 z" id="boundary" inkscape:connector-curvature="0" />
	<path style="fill:none;stroke:red;stroke-width:1px;stroke-linecap:butt;stroke-linejoin:miter;stroke-opacity:1" d="M 602.874,871.081 599.2,926.193 z" id="boundary" inkscape:connector-curvature="0" />
	<path style="fill:none;stroke:red;stroke-width:1px;stroke-linecap:butt;stroke-linejoin:miter;stroke-opacity:1" d="M 639.615,488.978 639.615,525.719 z" id="boundary" inkscape:connector-curvature="0" />
	<path style="fill:none;stroke:red;stroke-width:1px;stroke-linecap:butt;stroke-linejoin:miter;stroke-opacity:1" d="M 639.615,488.978 639.615,452.237 z" id="boundary" inkscape:connector-curvature="0" />
	<path style="fill:none;stroke:red;stroke-width:1px;stroke-linecap:butt;stroke-linejoin:miter;stroke-opacity:1" d="M 639.615,562.459 639.615,525.719 z" id="boundary" inkscape:connector-curvature="0" />
	<path style="fill:none;stroke:red;stroke-width:1px;stroke-linecap:butt;stroke-linejoin:miter;stroke-opacity:1" d="M 639.615,415.496 639.615,452.237 z" id="boundary" inkscape:connector-curvature="0" />
	<path style="fill:none;stroke:red;stroke-width:1px;stroke-linecap:butt;stroke-linejoin:miter;stroke-opacity:1" d="M 639.615,562.459 639.615,599.2 z" id="boundary" inkscape:connector-curvature="0" />
	<path style="fill:none;stroke:red;stroke-width:1px;stroke-linecap:butt;stroke-linejoin:miter;stroke-opacity:1" d="M 639.615,635.941 639.615,599.2 z" id="boundary" inkscape:connector-curvature="0" />
	<path style="fill:none;stroke:red;stroke-width:1px;stroke-linecap:butt;stroke-linejoin:miter;stroke-opacity:1" d="M 639.615,635.941 632.267,687.378 z" id="boundary" inkscape:connector-curvature="0" />
	<path style="fill:none;stroke:red;stroke-width:1px;stroke-linecap:butt;stroke-linejoin:miter;stroke-opacity:1" d="M 602.874,871.081 610.222,826.993 z" id="boundary" inkscape:connector-curvature="0" />
	<path style="fill:none;stroke:red;stroke-width:1px;stroke-linecap:butt;stroke-linejoin:miter;stroke-opacity:1" d="M 610.222,826.993 617.57,775.556 z" id="boundary" inkscape:connector-curvature="0" />
	<path style="fill:none;stroke:red;stroke-width:1px;stroke-linecap:butt;stroke-linejoin:miter;stroke-opacity:1" d="M 624.919,731.467 617.57,775.556 z" id="boundary" inkscape:connector-curvature="0" />
	<path style="fill:none;stroke:red;stroke-width:1px;stroke-linecap:butt;stroke-linejoin:miter;stroke-opacity:1" d="M 632.267,687.378 624.919,731.467 z" id="boundary" inkscape:connector-curvature="0" />
	<circle cx="4" cy="246.489" r="4" fill="#0" id="circle0"/>
	<circle cx="22.3704" cy="279.556" r="4" fill="#0" id="circle1"/>
	<circle cx="26.0444" cy="217.096" r="4" fill="#0" id="circle2"/>
	<circle cx="55.437" cy="180.356" r="4" fill="#0" id="circle3"/>
	<circle cx="55.437" cy="257.511" r="4" fill="#0" id="circle4"/>
	<circle cx="77.4815" cy="150.963" r="4" fill="#0" id="circle5"/>
	<circle cx="84.8296" cy="235.467" r="4" fill="#0" id="circle6"/>
	<circle cx="92.1778" cy="114.222" r="4" fill="#0" id="circle7"/>
	<circle cx="114.222" cy="213.422" r="4" fill="#0" id="circle8"/>
	<circle cx="121.57" cy="84.8296" r="4" fill="#0" id="circle9"/>
	<circle cx="150.963" cy="198.726" r="4" fill="#0" id="circle10"/>
	<circle cx="158.311" cy="70.1333" r="4" fill="#0" id="circle11"/>
	<circle cx="187.704" cy="184.03" r="4" fill="#0" id="circle12"/>
	<circle cx="195.052" cy="70.1333" r="4" fill="#0" id="circle13"/>
	<circle cx="220.77" cy="165.659" r="4" fill="#0" id="circle14"/>
	<circle cx="224.444" cy="261.185" r="4" fill="#0" id="circle15"/>
	<circle cx="231.793" cy="73.8074" r="4" fill="#0" id="circle16"/>
	<circle cx="231.793" cy="217.096" r="4" fill="#0" id="circle17"/>
	<circle cx="231.793" cy="297.926" r="4" fill="#0" id="circle18"/>
	<circle cx="253.837" cy="327.319" r="4" fill="#0" id="circle19"/>
	<circle cx="268.533" cy="88.5037" r="4" fill="#0" id="circle20"/>
	<circle cx="286.904" cy="345.689" r="4" fill="#0" id="circle21"/>
	<circle cx="294.252" cy="117.896" r="4" fill="#0" id="circle22"/>
	<circle cx="312.622" cy="150.963" r="4" fill="#0" id="circle23"/>
	<circle cx="323.644" cy="353.037" r="4" fill="#0" id="circle24"/>
	<circle cx="342.015" cy="114.222" r="4" fill="#0" id="circle25"/>
	<circle cx="360.385" cy="81.1556" r="4" fill="#0" id="circle26"/>
	<circle cx="360.385" cy="342.015" r="4" fill="#0" id="circle27"/>
	<circle cx="382.43" cy="51.763" r="4" fill="#0" id="circle28"/>
	<circle cx="382.43" cy="312.622" r="4" fill="#0" id="circle29"/>
	<circle cx="397.126" cy="239.141" r="4" fill="#0" id="circle30"/>
	<circle cx="397.126" cy="275.881" r="4" fill="#0" id="circle31"/>
	<circle cx="415.496" cy="33.3926" r="4" fill="#0" id="circle32"/>
	<circle cx="419.17" cy="209.748" r="4" fill="#0" id="circle33"/>
	<circle cx="422.844" cy="907.822" r="4" fill="#0" id="circle34"/>
	<circle cx="452.237" cy="18.6963" r="4" fill="#0" id="circle35"/>
	<circle cx="452.237" cy="933.541" r="4" fill="#0" id="circle36"/>
	<circle cx="455.911" cy="220.77" r="4" fill="#0" id="circle37"/>
	<circle cx="470.607" cy="900.474" r="4" fill="#0" id="circle38"/>
	<circle cx="481.63" cy="250.163" r="4" fill="#0" id="circle39"/>
	<circle cx="488.978" cy="11.3481" r="4" fill="#0" id="circle40"/>
	<circle cx="488.978" cy="940.889" r="4" fill="#0" id="circle41"/>
	<circle cx="507.348" cy="893.126" r="4" fill="#0" id="circle42"/>
	<circle cx="511.022" cy="275.881" r="4" fill="#0" id="circle43"/>
	<circle cx="518.37" cy="312.622" r="4" fill="#0" id="circle44"/>
	<circle cx="518.37" cy="349.363" r="4" fill="#0" id="circle45"/>
	<circle cx="525.719" cy="4" r="4" fill="#0" id="circle46"/>
	<circle cx="525.719" cy="386.104" r="4" fill="#0" id="circle47"/>
	<circle cx="525.719" cy="940.889" r="4" fill="#0" id="circle48"/>
	<circle cx="533.067" cy="422.844" r="4" fill="#0" id="circle49"/>
	<circle cx="540.415" cy="459.585" r="4" fill="#0" id="circle50"/>
	<circle cx="544.089" cy="874.756" r="4" fill="#0" id="circle51"/>
	<circle cx="547.763" cy="826.993" r="4" fill="#0" id="circle52"/>
	<circle cx="551.437" cy="496.326" r="4" fill="#0" id="circle53"/>
	<circle cx="555.111" cy="782.904" r="4" fill="#0" id="circle54"/>
	<circle cx="562.459" cy="4" r="4" fill="#0" id="circle55"/>
	<circle cx="562.459" cy="533.067" r="4" fill="#0" id="circle56"/>
	<circle cx="562.459" cy="738.815" r="4" fill="#0" id="circle57"/>
	<circle cx="562.459" cy="940.889" r="4" fill="#0" id="circle58"/>
	<circle cx="569.807" cy="569.807" r="4" fill="#0" id="circle59"/>
	<circle cx="569.807" cy="694.726" r="4" fill="#0" id="circle60"/>
	<circle cx="577.156" cy="606.548" r="4" fill="#0" id="circle61"/>
	<circle cx="577.156" cy="643.289" r="4" fill="#0" id="circle62"/>
	<circle cx="599.2" cy="4" r="4" fill="#0" id="circle63"/>
	<circle cx="599.2" cy="926.193" r="4" fill="#0" id="circle64"/>
	<circle cx="602.874" cy="871.081" r="4" fill="#0" id="circle65"/>
	<circle cx="610.222" cy="826.993" r="4" fill="#0" id="circle66"/>
	<circle cx="617.57" cy="775.556" r="4" fill="#0" id="circle67"/>
	<circle cx="624.919" cy="731.467" r="4" fill="#0" id="circle68"/>
	<circle cx="632.267" cy="687.378" r="4" fill="#0" id="circle69"/>
	<circle cx="635.941" cy="11.3481" r="4" fill="#0" id="circle70"/>
	<circle cx="639.615" cy="342.015" r="4" fill="#0" id="circle71"/>
	<circle cx="639.615" cy="378.756" r="4" fill="#0" id="circle72"/>
	<circle cx="639.615" cy="415.496" r="4" fill="#0" id="circle73"/>
	<circle cx="639.615" cy="452.237" r="4" fill="#0" id="circle74"/>
	<circle cx="639.615" cy="488.978" r="4" fill="#0" id="circle75"/>
	<circle cx="639.615" cy="525.719" r="4" fill="#0" id="circle76"/>
	<circle cx="639.615" cy="562.459" r="4" fill="#0" id="circle77"/>
	<circle cx="639.615" cy="599.2" r="4" fill="#0" id="circle78"/>
	<circle cx="639.615" cy="635.941" r="4" fill="#0" id="circle79"/>
	<circle cx="672.681" cy="26.0444" r="4" fill="#0" id="circle80"/>
	<circle cx="676.356" cy="345.689" r="4" fill="#0" id="circle81"/>
	<circle cx="709.422" cy="40.7407" r="4" fill="#0" id="circle82"/>
	<circle cx="713.096" cy="353.037" r="4" fill="#0" id="circle83"/>
	<circle cx="738.815" cy="62.7852" r="4" fill="#0" id="circle84"/>
	<circle cx="738.815" cy="382.43" r="4" fill="#0" id="circle85"/>
	<circle cx="768.207" cy="84.8296" r="4" fill="#0" id="circle86"/>
	<circle cx="775.556" cy="382.43" r="4" fill="#0" id="circle87"/>
	<circle cx="797.6" cy="106.874" r="4" fill="#0" id="circle88"/>
	<circle cx="812.296" cy="397.126" r="4" fill="#0" id="circle89"/>
	<circle cx="819.644" cy="136.267" r="4" fill="#0" id="circle90"/>
	<circle cx="849.037" cy="161.985" r="4" fill="#0" id="circle91"/>
	<circle cx="849.037" cy="411.822" r="4" fill="#0" id="circle92"/>
	<circle cx="878.43" cy="184.03" r="4" fill="#0" id="circle93"/>
	<circle cx="885.778" cy="404.474" r="4" fill="#0" id="circle94"/>
	<circle cx="904.148" cy="213.422" r="4" fill="#0" id="circle95"/>
	<circle cx="922.519" cy="397.126" r="4" fill="#0" id="circle96"/>
	<circle cx="926.193" cy="242.815" r="4" fill="#0" id="circle97"/>
	<circle cx="948.237" cy="272.207" r="4" fill="#0" id="circle98"/>
	<circle cx="959.259" cy="411.822" r="4" fill="#0" id="circle99"/>
	<circle cx="970.281" cy="301.6" r="4" fill="#0" id="circle100"/>
	<circle cx="984.978" cy="338.341" r="4" fill="#0" id="circle101"/>
	<circle cx="996" cy="404.474" r="4" fill="#0" id="circle102"/>
	</g>
</svg>