<?xml version="1.0" encoding="UTF-8" standalone="no"?>
<!-- Created with CurveBenchmark -->
<svg
	xmlns:dc="http://purl.org/dc/elements/1.1/"
	xmlns:cc="http://creativecommons.org/ns#"
	xmlns:rdf="http://www.w3.org/1999/02/22-rdf-syntax-ns#"
	xmlns:svg="http://www.w3.org/2000/svg"
	xmlns="http://www.w3.org/2000/svg"
	xmlns:sodipodi="http://sodipodi.sourceforge.net/DTD/sodipodi-0.dtd"
	xmlns:inkscape="http://www.inkscape.org/namespaces/inkscape"
	width="1000"
	height="1000"
	id="svg2"
	version="1.1"
	sodipodi:docname="manifold/crust-kitchenknifebinary12.png.txt">
<defs
	id="defs4" />
<metadata
	id="metadata7">
	<rdf:RDF>
		<cc:Work
			rdf:about="">
			<dc:format>image/svg+xml</dc:format>
			<dc:type
				rdf:resource="http://purl.org/dc/dcmitype/StillImage" />
			<dc:title></dc:title>
		</cc:Work>
	</rdf:RDF>
</metadata>
<g
	inkscape:label="Layer 1"
	inkscape:groupmode="layer"
	id="layer1">
	<path style="fill:none;stroke:red;stroke-width:1px;stroke-linecap:butt;stroke-linejoin:miter;stroke-opacity:1" d="M 50.4877,6.36378 42.6084,6.36378 z" id="boundary" inkscape:connector-curvature="0" />
	<path style="fill:none;stroke:red;stroke-width:1px;stroke-linecap:butt;stroke-linejoin:miter;stroke-opacity:1" d="M 58.367,5.57585 50.4877,6.36378 z" id="boundary" inkscape:connector-curvature="0" />
	<path style="fill:none;stroke:red;stroke-width:1px;stroke-linecap:butt;stroke-linejoin:miter;stroke-opacity:1" d="M 42.6084,6.36378 34.7292,7.93963 z" id="boundary" inkscape:connector-curvature="0" />
	<path style="fill:none;stroke:red;stroke-width:1px;stroke-linecap:butt;stroke-linejoin:miter;stroke-opacity:1" d="M 58.367,5.57585 66.2462,5.57585 z" id="boundary" inkscape:connector-curvature="0" />
	<path style="fill:none;stroke:red;stroke-width:1px;stroke-linecap:butt;stroke-linejoin:miter;stroke-opacity:1" d="M 74.1255,4.78793 66.2462,5.57585 z" id="boundary" inkscape:connector-curvature="0" />
	<path style="fill:none;stroke:red;stroke-width:1px;stroke-linecap:butt;stroke-linejoin:miter;stroke-opacity:1" d="M 82.0048,4.78793 74.1255,4.78793 z" id="boundary" inkscape:connector-curvature="0" />
	<path style="fill:none;stroke:red;stroke-width:1px;stroke-linecap:butt;stroke-linejoin:miter;stroke-opacity:1" d="M 4,15.8189 11.0913,11.8793 z" id="boundary" inkscape:connector-curvature="0" />
	<path style="fill:none;stroke:red;stroke-width:1px;stroke-linecap:butt;stroke-linejoin:miter;stroke-opacity:1" d="M 18.9706,10.3034 11.0913,11.8793 z" id="boundary" inkscape:connector-curvature="0" />
	<path style="fill:none;stroke:red;stroke-width:1px;stroke-linecap:butt;stroke-linejoin:miter;stroke-opacity:1" d="M 8.72756,22.1223 4,15.8189 z" id="boundary" inkscape:connector-curvature="0" />
	<path style="fill:none;stroke:red;stroke-width:1px;stroke-linecap:butt;stroke-linejoin:miter;stroke-opacity:1" d="M 26.8499,9.51549 34.7292,7.93963 z" id="boundary" inkscape:connector-curvature="0" />
	<path style="fill:none;stroke:red;stroke-width:1px;stroke-linecap:butt;stroke-linejoin:miter;stroke-opacity:1" d="M 26.8499,9.51549 18.9706,10.3034 z" id="boundary" inkscape:connector-curvature="0" />
	<path style="fill:none;stroke:red;stroke-width:1px;stroke-linecap:butt;stroke-linejoin:miter;stroke-opacity:1" d="M 89.884,4.78793 82.0048,4.78793 z" id="boundary" inkscape:connector-curvature="0" />
	<path style="fill:none;stroke:red;stroke-width:1px;stroke-linecap:butt;stroke-linejoin:miter;stroke-opacity:1" d="M 184.435,4.78793 176.556,4 z" id="boundary" inkscape:connector-curvature="0" />
	<path style="fill:none;stroke:red;stroke-width:1px;stroke-linecap:butt;stroke-linejoin:miter;stroke-opacity:1" d="M 176.556,4 168.677,4.78793 z" id="boundary" inkscape:connector-curvature="0" />
	<path style="fill:none;stroke:red;stroke-width:1px;stroke-linecap:butt;stroke-linejoin:miter;stroke-opacity:1" d="M 89.884,4.78793 97.7633,4.78793 z" id="boundary" inkscape:connector-curvature="0" />
	<path style="fill:none;stroke:red;stroke-width:1px;stroke-linecap:butt;stroke-linejoin:miter;stroke-opacity:1" d="M 105.643,4.78793 97.7633,4.78793 z" id="boundary" inkscape:connector-curvature="0" />
	<path style="fill:none;stroke:red;stroke-width:1px;stroke-linecap:butt;stroke-linejoin:miter;stroke-opacity:1" d="M 121.401,5.57585 113.522,4.78793 z" id="boundary" inkscape:connector-curvature="0" />
	<path style="fill:none;stroke:red;stroke-width:1px;stroke-linecap:butt;stroke-linejoin:miter;stroke-opacity:1" d="M 129.28,4.78793 121.401,5.57585 z" id="boundary" inkscape:connector-curvature="0" />
	<path style="fill:none;stroke:red;stroke-width:1px;stroke-linecap:butt;stroke-linejoin:miter;stroke-opacity:1" d="M 105.643,4.78793 113.522,4.78793 z" id="boundary" inkscape:connector-curvature="0" />
	<path style="fill:none;stroke:red;stroke-width:1px;stroke-linecap:butt;stroke-linejoin:miter;stroke-opacity:1" d="M 137.16,5.57585 129.28,4.78793 z" id="boundary" inkscape:connector-curvature="0" />
	<path style="fill:none;stroke:red;stroke-width:1px;stroke-linecap:butt;stroke-linejoin:miter;stroke-opacity:1" d="M 145.039,5.57585 137.16,5.57585 z" id="boundary" inkscape:connector-curvature="0" />
	<path style="fill:none;stroke:red;stroke-width:1px;stroke-linecap:butt;stroke-linejoin:miter;stroke-opacity:1" d="M 160.797,5.57585 168.677,4.78793 z" id="boundary" inkscape:connector-curvature="0" />
	<path style="fill:none;stroke:red;stroke-width:1px;stroke-linecap:butt;stroke-linejoin:miter;stroke-opacity:1" d="M 152.918,5.57585 145.039,5.57585 z" id="boundary" inkscape:connector-curvature="0" />
	<path style="fill:none;stroke:red;stroke-width:1px;stroke-linecap:butt;stroke-linejoin:miter;stroke-opacity:1" d="M 160.797,5.57585 152.918,5.57585 z" id="boundary" inkscape:connector-curvature="0" />
	<path style="fill:none;stroke:red;stroke-width:1px;stroke-linecap:butt;stroke-linejoin:miter;stroke-opacity:1" d="M 184.435,4.78793 192.315,4.78793 z" id="boundary" inkscape:connector-curvature="0" />
	<path style="fill:none;stroke:red;stroke-width:1px;stroke-linecap:butt;stroke-linejoin:miter;stroke-opacity:1" d="M 15.8189,26.062 8.72756,22.1223 z" id="boundary" inkscape:connector-curvature="0" />
	<path style="fill:none;stroke:red;stroke-width:1px;stroke-linecap:butt;stroke-linejoin:miter;stroke-opacity:1" d="M 15.8189,26.062 23.6982,29.2137 z" id="boundary" inkscape:connector-curvature="0" />
	<path style="fill:none;stroke:red;stroke-width:1px;stroke-linecap:butt;stroke-linejoin:miter;stroke-opacity:1" d="M 30.7895,33.1533 23.6982,29.2137 z" id="boundary" inkscape:connector-curvature="0" />
	<path style="fill:none;stroke:red;stroke-width:1px;stroke-linecap:butt;stroke-linejoin:miter;stroke-opacity:1" d="M 38.6688,35.5171 30.7895,33.1533 z" id="boundary" inkscape:connector-curvature="0" />
	<path style="fill:none;stroke:red;stroke-width:1px;stroke-linecap:butt;stroke-linejoin:miter;stroke-opacity:1" d="M 38.6688,35.5171 46.5481,37.0929 z" id="boundary" inkscape:connector-curvature="0" />
	<path style="fill:none;stroke:red;stroke-width:1px;stroke-linecap:butt;stroke-linejoin:miter;stroke-opacity:1" d="M 54.4273,40.2446 46.5481,37.0929 z" id="boundary" inkscape:connector-curvature="0" />
	<path style="fill:none;stroke:red;stroke-width:1px;stroke-linecap:butt;stroke-linejoin:miter;stroke-opacity:1" d="M 62.3066,42.6084 54.4273,40.2446 z" id="boundary" inkscape:connector-curvature="0" />
	<path style="fill:none;stroke:red;stroke-width:1px;stroke-linecap:butt;stroke-linejoin:miter;stroke-opacity:1" d="M 208.073,6.36378 200.194,5.57585 z" id="boundary" inkscape:connector-curvature="0" />
	<path style="fill:none;stroke:red;stroke-width:1px;stroke-linecap:butt;stroke-linejoin:miter;stroke-opacity:1" d="M 200.194,5.57585 192.315,4.78793 z" id="boundary" inkscape:connector-curvature="0" />
	<path style="fill:none;stroke:red;stroke-width:1px;stroke-linecap:butt;stroke-linejoin:miter;stroke-opacity:1" d="M 231.711,4.78793 223.832,6.36378 z" id="boundary" inkscape:connector-curvature="0" />
	<path style="fill:none;stroke:red;stroke-width:1px;stroke-linecap:butt;stroke-linejoin:miter;stroke-opacity:1" d="M 208.073,6.36378 215.952,6.36378 z" id="boundary" inkscape:connector-curvature="0" />
	<path style="fill:none;stroke:red;stroke-width:1px;stroke-linecap:butt;stroke-linejoin:miter;stroke-opacity:1" d="M 223.832,6.36378 215.952,6.36378 z" id="boundary" inkscape:connector-curvature="0" />
	<path style="fill:none;stroke:red;stroke-width:1px;stroke-linecap:butt;stroke-linejoin:miter;stroke-opacity:1" d="M 247.469,5.57585 239.59,5.57585 z" id="boundary" inkscape:connector-curvature="0" />
	<path style="fill:none;stroke:red;stroke-width:1px;stroke-linecap:butt;stroke-linejoin:miter;stroke-opacity:1" d="M 239.59,5.57585 231.711,4.78793 z" id="boundary" inkscape:connector-curvature="0" />
	<path style="fill:none;stroke:red;stroke-width:1px;stroke-linecap:butt;stroke-linejoin:miter;stroke-opacity:1" d="M 255.349,5.57585 247.469,5.57585 z" id="boundary" inkscape:connector-curvature="0" />
	<path style="fill:none;stroke:red;stroke-width:1px;stroke-linecap:butt;stroke-linejoin:miter;stroke-opacity:1" d="M 263.228,7.15171 255.349,5.57585 z" id="boundary" inkscape:connector-curvature="0" />
	<path style="fill:none;stroke:red;stroke-width:1px;stroke-linecap:butt;stroke-linejoin:miter;stroke-opacity:1" d="M 278.986,6.36378 271.107,6.36378 z" id="boundary" inkscape:connector-curvature="0" />
	<path style="fill:none;stroke:red;stroke-width:1px;stroke-linecap:butt;stroke-linejoin:miter;stroke-opacity:1" d="M 286.866,5.57585 278.986,6.36378 z" id="boundary" inkscape:connector-curvature="0" />
	<path style="fill:none;stroke:red;stroke-width:1px;stroke-linecap:butt;stroke-linejoin:miter;stroke-opacity:1" d="M 294.745,6.36378 286.866,5.57585 z" id="boundary" inkscape:connector-curvature="0" />
	<path style="fill:none;stroke:red;stroke-width:1px;stroke-linecap:butt;stroke-linejoin:miter;stroke-opacity:1" d="M 271.107,6.36378 263.228,7.15171 z" id="boundary" inkscape:connector-curvature="0" />
	<path style="fill:none;stroke:red;stroke-width:1px;stroke-linecap:butt;stroke-linejoin:miter;stroke-opacity:1" d="M 530.335,15.8189 522.456,15.8189 z" id="boundary" inkscape:connector-curvature="0" />
	<path style="fill:none;stroke:red;stroke-width:1px;stroke-linecap:butt;stroke-linejoin:miter;stroke-opacity:1" d="M 294.745,6.36378 302.624,7.15171 z" id="boundary" inkscape:connector-curvature="0" />
	<path style="fill:none;stroke:red;stroke-width:1px;stroke-linecap:butt;stroke-linejoin:miter;stroke-opacity:1" d="M 302.624,7.15171 310.504,7.15171 z" id="boundary" inkscape:connector-curvature="0" />
	<path style="fill:none;stroke:red;stroke-width:1px;stroke-linecap:butt;stroke-linejoin:miter;stroke-opacity:1" d="M 318.383,7.15171 326.262,7.15171 z" id="boundary" inkscape:connector-curvature="0" />
	<path style="fill:none;stroke:red;stroke-width:1px;stroke-linecap:butt;stroke-linejoin:miter;stroke-opacity:1" d="M 318.383,7.15171 310.504,7.15171 z" id="boundary" inkscape:connector-curvature="0" />
	<path style="fill:none;stroke:red;stroke-width:1px;stroke-linecap:butt;stroke-linejoin:miter;stroke-opacity:1" d="M 334.141,7.93963 326.262,7.15171 z" id="boundary" inkscape:connector-curvature="0" />
	<path style="fill:none;stroke:red;stroke-width:1px;stroke-linecap:butt;stroke-linejoin:miter;stroke-opacity:1" d="M 342.021,7.93963 349.9,7.93963 z" id="boundary" inkscape:connector-curvature="0" />
	<path style="fill:none;stroke:red;stroke-width:1px;stroke-linecap:butt;stroke-linejoin:miter;stroke-opacity:1" d="M 342.021,7.93963 334.141,7.93963 z" id="boundary" inkscape:connector-curvature="0" />
	<path style="fill:none;stroke:red;stroke-width:1px;stroke-linecap:butt;stroke-linejoin:miter;stroke-opacity:1" d="M 365.658,9.51549 357.779,10.3034 z" id="boundary" inkscape:connector-curvature="0" />
	<path style="fill:none;stroke:red;stroke-width:1px;stroke-linecap:butt;stroke-linejoin:miter;stroke-opacity:1" d="M 357.779,10.3034 349.9,7.93963 z" id="boundary" inkscape:connector-curvature="0" />
	<path style="fill:none;stroke:red;stroke-width:1px;stroke-linecap:butt;stroke-linejoin:miter;stroke-opacity:1" d="M 365.658,9.51549 373.538,7.93963 z" id="boundary" inkscape:connector-curvature="0" />
	<path style="fill:none;stroke:red;stroke-width:1px;stroke-linecap:butt;stroke-linejoin:miter;stroke-opacity:1" d="M 388.508,9.51549 380.629,11.8793 z" id="boundary" inkscape:connector-curvature="0" />
	<path style="fill:none;stroke:red;stroke-width:1px;stroke-linecap:butt;stroke-linejoin:miter;stroke-opacity:1" d="M 396.388,9.51549 388.508,9.51549 z" id="boundary" inkscape:connector-curvature="0" />
	<path style="fill:none;stroke:red;stroke-width:1px;stroke-linecap:butt;stroke-linejoin:miter;stroke-opacity:1" d="M 380.629,11.8793 373.538,7.93963 z" id="boundary" inkscape:connector-curvature="0" />
	<path style="fill:none;stroke:red;stroke-width:1px;stroke-linecap:butt;stroke-linejoin:miter;stroke-opacity:1" d="M 396.388,9.51549 404.267,9.51549 z" id="boundary" inkscape:connector-curvature="0" />
	<path style="fill:none;stroke:red;stroke-width:1px;stroke-linecap:butt;stroke-linejoin:miter;stroke-opacity:1" d="M 412.146,10.3034 404.267,9.51549 z" id="boundary" inkscape:connector-curvature="0" />
	<path style="fill:none;stroke:red;stroke-width:1px;stroke-linecap:butt;stroke-linejoin:miter;stroke-opacity:1" d="M 427.905,12.6672 435.784,10.3034 z" id="boundary" inkscape:connector-curvature="0" />
	<path style="fill:none;stroke:red;stroke-width:1px;stroke-linecap:butt;stroke-linejoin:miter;stroke-opacity:1" d="M 467.301,11.8793 459.422,12.6672 z" id="boundary" inkscape:connector-curvature="0" />
	<path style="fill:none;stroke:red;stroke-width:1px;stroke-linecap:butt;stroke-linejoin:miter;stroke-opacity:1" d="M 435.784,10.3034 443.663,10.3034 z" id="boundary" inkscape:connector-curvature="0" />
	<path style="fill:none;stroke:red;stroke-width:1px;stroke-linecap:butt;stroke-linejoin:miter;stroke-opacity:1" d="M 427.905,12.6672 420.025,12.6672 z" id="boundary" inkscape:connector-curvature="0" />
	<path style="fill:none;stroke:red;stroke-width:1px;stroke-linecap:butt;stroke-linejoin:miter;stroke-opacity:1" d="M 459.422,12.6672 451.542,12.6672 z" id="boundary" inkscape:connector-curvature="0" />
	<path style="fill:none;stroke:red;stroke-width:1px;stroke-linecap:butt;stroke-linejoin:miter;stroke-opacity:1" d="M 475.18,12.6672 467.301,11.8793 z" id="boundary" inkscape:connector-curvature="0" />
	<path style="fill:none;stroke:red;stroke-width:1px;stroke-linecap:butt;stroke-linejoin:miter;stroke-opacity:1" d="M 420.025,12.6672 412.146,10.3034 z" id="boundary" inkscape:connector-curvature="0" />
	<path style="fill:none;stroke:red;stroke-width:1px;stroke-linecap:butt;stroke-linejoin:miter;stroke-opacity:1" d="M 490.939,11.8793 483.06,13.4551 z" id="boundary" inkscape:connector-curvature="0" />
	<path style="fill:none;stroke:red;stroke-width:1px;stroke-linecap:butt;stroke-linejoin:miter;stroke-opacity:1" d="M 451.542,12.6672 443.663,10.3034 z" id="boundary" inkscape:connector-curvature="0" />
	<path style="fill:none;stroke:red;stroke-width:1px;stroke-linecap:butt;stroke-linejoin:miter;stroke-opacity:1" d="M 475.18,12.6672 483.06,13.4551 z" id="boundary" inkscape:connector-curvature="0" />
	<path style="fill:none;stroke:red;stroke-width:1px;stroke-linecap:butt;stroke-linejoin:miter;stroke-opacity:1" d="M 498.818,15.031 506.697,12.6672 z" id="boundary" inkscape:connector-curvature="0" />
	<path style="fill:none;stroke:red;stroke-width:1px;stroke-linecap:butt;stroke-linejoin:miter;stroke-opacity:1" d="M 490.939,11.8793 498.818,15.031 z" id="boundary" inkscape:connector-curvature="0" />
	<path style="fill:none;stroke:red;stroke-width:1px;stroke-linecap:butt;stroke-linejoin:miter;stroke-opacity:1" d="M 514.577,15.8189 506.697,12.6672 z" id="boundary" inkscape:connector-curvature="0" />
	<path style="fill:none;stroke:red;stroke-width:1px;stroke-linecap:butt;stroke-linejoin:miter;stroke-opacity:1" d="M 514.577,15.8189 522.456,15.8189 z" id="boundary" inkscape:connector-curvature="0" />
	<path style="fill:none;stroke:red;stroke-width:1px;stroke-linecap:butt;stroke-linejoin:miter;stroke-opacity:1" d="M 62.3066,42.6084 70.1859,44.9722 z" id="boundary" inkscape:connector-curvature="0" />
	<path style="fill:none;stroke:red;stroke-width:1px;stroke-linecap:butt;stroke-linejoin:miter;stroke-opacity:1" d="M 109.582,54.4273 101.703,54.4273 z" id="boundary" inkscape:connector-curvature="0" />
	<path style="fill:none;stroke:red;stroke-width:1px;stroke-linecap:butt;stroke-linejoin:miter;stroke-opacity:1" d="M 93.8237,52.0635 85.9444,48.9118 z" id="boundary" inkscape:connector-curvature="0" />
	<path style="fill:none;stroke:red;stroke-width:1px;stroke-linecap:butt;stroke-linejoin:miter;stroke-opacity:1" d="M 70.1859,44.9722 78.0651,46.5481 z" id="boundary" inkscape:connector-curvature="0" />
	<path style="fill:none;stroke:red;stroke-width:1px;stroke-linecap:butt;stroke-linejoin:miter;stroke-opacity:1" d="M 85.9444,48.9118 78.0651,46.5481 z" id="boundary" inkscape:connector-curvature="0" />
	<path style="fill:none;stroke:red;stroke-width:1px;stroke-linecap:butt;stroke-linejoin:miter;stroke-opacity:1" d="M 101.703,54.4273 93.8237,52.0635 z" id="boundary" inkscape:connector-curvature="0" />
	<path style="fill:none;stroke:red;stroke-width:1px;stroke-linecap:butt;stroke-linejoin:miter;stroke-opacity:1" d="M 117.461,56.0032 109.582,54.4273 z" id="boundary" inkscape:connector-curvature="0" />
	<path style="fill:none;stroke:red;stroke-width:1px;stroke-linecap:butt;stroke-linejoin:miter;stroke-opacity:1" d="M 125.341,59.1549 117.461,56.0032 z" id="boundary" inkscape:connector-curvature="0" />
	<path style="fill:none;stroke:red;stroke-width:1px;stroke-linecap:butt;stroke-linejoin:miter;stroke-opacity:1" d="M 133.22,59.9428 125.341,59.1549 z" id="boundary" inkscape:connector-curvature="0" />
	<path style="fill:none;stroke:red;stroke-width:1px;stroke-linecap:butt;stroke-linejoin:miter;stroke-opacity:1" d="M 141.099,61.5187 133.22,59.9428 z" id="boundary" inkscape:connector-curvature="0" />
	<path style="fill:none;stroke:red;stroke-width:1px;stroke-linecap:butt;stroke-linejoin:miter;stroke-opacity:1" d="M 148.979,63.8824 141.099,61.5187 z" id="boundary" inkscape:connector-curvature="0" />
	<path style="fill:none;stroke:red;stroke-width:1px;stroke-linecap:butt;stroke-linejoin:miter;stroke-opacity:1" d="M 156.858,64.6704 148.979,63.8824 z" id="boundary" inkscape:connector-curvature="0" />
	<path style="fill:none;stroke:red;stroke-width:1px;stroke-linecap:butt;stroke-linejoin:miter;stroke-opacity:1" d="M 156.858,64.6704 164.737,66.2462 z" id="boundary" inkscape:connector-curvature="0" />
	<path style="fill:none;stroke:red;stroke-width:1px;stroke-linecap:butt;stroke-linejoin:miter;stroke-opacity:1" d="M 172.616,67.8221 164.737,66.2462 z" id="boundary" inkscape:connector-curvature="0" />
	<path style="fill:none;stroke:red;stroke-width:1px;stroke-linecap:butt;stroke-linejoin:miter;stroke-opacity:1" d="M 180.496,70.9738 188.375,70.1859 z" id="boundary" inkscape:connector-curvature="0" />
	<path style="fill:none;stroke:red;stroke-width:1px;stroke-linecap:butt;stroke-linejoin:miter;stroke-opacity:1" d="M 180.496,70.9738 172.616,67.8221 z" id="boundary" inkscape:connector-curvature="0" />
	<path style="fill:none;stroke:red;stroke-width:1px;stroke-linecap:butt;stroke-linejoin:miter;stroke-opacity:1" d="M 196.254,71.7617 188.375,70.1859 z" id="boundary" inkscape:connector-curvature="0" />
	<path style="fill:none;stroke:red;stroke-width:1px;stroke-linecap:butt;stroke-linejoin:miter;stroke-opacity:1" d="M 196.254,71.7617 204.133,73.3376 z" id="boundary" inkscape:connector-curvature="0" />
	<path style="fill:none;stroke:red;stroke-width:1px;stroke-linecap:butt;stroke-linejoin:miter;stroke-opacity:1" d="M 212.013,75.7014 204.133,73.3376 z" id="boundary" inkscape:connector-curvature="0" />
	<path style="fill:none;stroke:red;stroke-width:1px;stroke-linecap:butt;stroke-linejoin:miter;stroke-opacity:1" d="M 219.892,78.0651 212.013,75.7014 z" id="boundary" inkscape:connector-curvature="0" />
	<path style="fill:none;stroke:red;stroke-width:1px;stroke-linecap:butt;stroke-linejoin:miter;stroke-opacity:1" d="M 234.075,81.2168 227.771,76.4893 z" id="boundary" inkscape:connector-curvature="0" />
	<path style="fill:none;stroke:red;stroke-width:1px;stroke-linecap:butt;stroke-linejoin:miter;stroke-opacity:1" d="M 241.954,82.0048 234.075,81.2168 z" id="boundary" inkscape:connector-curvature="0" />
	<path style="fill:none;stroke:red;stroke-width:1px;stroke-linecap:butt;stroke-linejoin:miter;stroke-opacity:1" d="M 219.892,78.0651 227.771,76.4893 z" id="boundary" inkscape:connector-curvature="0" />
	<path style="fill:none;stroke:red;stroke-width:1px;stroke-linecap:butt;stroke-linejoin:miter;stroke-opacity:1" d="M 241.954,82.0048 249.833,82.7927 z" id="boundary" inkscape:connector-curvature="0" />
	<path style="fill:none;stroke:red;stroke-width:1px;stroke-linecap:butt;stroke-linejoin:miter;stroke-opacity:1" d="M 257.712,83.5806 249.833,82.7927 z" id="boundary" inkscape:connector-curvature="0" />
	<path style="fill:none;stroke:red;stroke-width:1px;stroke-linecap:butt;stroke-linejoin:miter;stroke-opacity:1" d="M 265.592,86.7323 273.471,83.5806 z" id="boundary" inkscape:connector-curvature="0" />
	<path style="fill:none;stroke:red;stroke-width:1px;stroke-linecap:butt;stroke-linejoin:miter;stroke-opacity:1" d="M 265.592,86.7323 257.712,83.5806 z" id="boundary" inkscape:connector-curvature="0" />
	<path style="fill:none;stroke:red;stroke-width:1px;stroke-linecap:butt;stroke-linejoin:miter;stroke-opacity:1" d="M 281.35,85.1565 273.471,83.5806 z" id="boundary" inkscape:connector-curvature="0" />
	<path style="fill:none;stroke:red;stroke-width:1px;stroke-linecap:butt;stroke-linejoin:miter;stroke-opacity:1" d="M 300.261,86.7323 292.381,88.3082 z" id="boundary" inkscape:connector-curvature="0" />
	<path style="fill:none;stroke:red;stroke-width:1px;stroke-linecap:butt;stroke-linejoin:miter;stroke-opacity:1" d="M 300.261,86.7323 302.624,94.6116 z" id="boundary" inkscape:connector-curvature="0" />
	<path style="fill:none;stroke:red;stroke-width:1px;stroke-linecap:butt;stroke-linejoin:miter;stroke-opacity:1" d="M 292.381,88.3082 285.29,92.2478 z" id="boundary" inkscape:connector-curvature="0" />
	<path style="fill:none;stroke:red;stroke-width:1px;stroke-linecap:butt;stroke-linejoin:miter;stroke-opacity:1" d="M 285.29,92.2478 281.35,85.1565 z" id="boundary" inkscape:connector-curvature="0" />
	<path style="fill:none;stroke:red;stroke-width:1px;stroke-linecap:butt;stroke-linejoin:miter;stroke-opacity:1" d="M 310.504,96.1875 302.624,94.6116 z" id="boundary" inkscape:connector-curvature="0" />
	<path style="fill:none;stroke:red;stroke-width:1px;stroke-linecap:butt;stroke-linejoin:miter;stroke-opacity:1" d="M 310.504,96.1875 318.383,95.3995 z" id="boundary" inkscape:connector-curvature="0" />
	<path style="fill:none;stroke:red;stroke-width:1px;stroke-linecap:butt;stroke-linejoin:miter;stroke-opacity:1" d="M 318.383,95.3995 326.262,96.9754 z" id="boundary" inkscape:connector-curvature="0" />
	<path style="fill:none;stroke:red;stroke-width:1px;stroke-linecap:butt;stroke-linejoin:miter;stroke-opacity:1" d="M 524.82,73.3376 520.092,80.4289 z" id="boundary" inkscape:connector-curvature="0" />
	<path style="fill:none;stroke:red;stroke-width:1px;stroke-linecap:butt;stroke-linejoin:miter;stroke-opacity:1" d="M 520.092,80.4289 514.577,86.7323 z" id="boundary" inkscape:connector-curvature="0" />
	<path style="fill:none;stroke:red;stroke-width:1px;stroke-linecap:butt;stroke-linejoin:miter;stroke-opacity:1" d="M 515.365,100.915 514.577,86.7323 z" id="boundary" inkscape:connector-curvature="0" />
	<path style="fill:none;stroke:red;stroke-width:1px;stroke-linecap:butt;stroke-linejoin:miter;stroke-opacity:1" d="M 326.262,96.9754 334.141,96.1875 z" id="boundary" inkscape:connector-curvature="0" />
	<path style="fill:none;stroke:red;stroke-width:1px;stroke-linecap:butt;stroke-linejoin:miter;stroke-opacity:1" d="M 342.021,97.7633 349.9,97.7633 z" id="boundary" inkscape:connector-curvature="0" />
	<path style="fill:none;stroke:red;stroke-width:1px;stroke-linecap:butt;stroke-linejoin:miter;stroke-opacity:1" d="M 342.021,97.7633 334.141,96.1875 z" id="boundary" inkscape:connector-curvature="0" />
	<path style="fill:none;stroke:red;stroke-width:1px;stroke-linecap:butt;stroke-linejoin:miter;stroke-opacity:1" d="M 357.779,98.5512 349.9,97.7633 z" id="boundary" inkscape:connector-curvature="0" />
	<path style="fill:none;stroke:red;stroke-width:1px;stroke-linecap:butt;stroke-linejoin:miter;stroke-opacity:1" d="M 395.6,98.5512 387.72,101.703 z" id="boundary" inkscape:connector-curvature="0" />
	<path style="fill:none;stroke:red;stroke-width:1px;stroke-linecap:butt;stroke-linejoin:miter;stroke-opacity:1" d="M 387.72,101.703 381.417,96.9754 z" id="boundary" inkscape:connector-curvature="0" />
	<path style="fill:none;stroke:red;stroke-width:1px;stroke-linecap:butt;stroke-linejoin:miter;stroke-opacity:1" d="M 365.658,101.703 373.538,100.127 z" id="boundary" inkscape:connector-curvature="0" />
	<path style="fill:none;stroke:red;stroke-width:1px;stroke-linecap:butt;stroke-linejoin:miter;stroke-opacity:1" d="M 365.658,101.703 357.779,98.5512 z" id="boundary" inkscape:connector-curvature="0" />
	<path style="fill:none;stroke:red;stroke-width:1px;stroke-linecap:butt;stroke-linejoin:miter;stroke-opacity:1" d="M 373.538,100.127 381.417,96.9754 z" id="boundary" inkscape:connector-curvature="0" />
	<path style="fill:none;stroke:red;stroke-width:1px;stroke-linecap:butt;stroke-linejoin:miter;stroke-opacity:1" d="M 399.539,105.643 395.6,98.5512 z" id="boundary" inkscape:connector-curvature="0" />
	<path style="fill:none;stroke:red;stroke-width:1px;stroke-linecap:butt;stroke-linejoin:miter;stroke-opacity:1" d="M 399.539,105.643 407.419,105.643 z" id="boundary" inkscape:connector-curvature="0" />
	<path style="fill:none;stroke:red;stroke-width:1px;stroke-linecap:butt;stroke-linejoin:miter;stroke-opacity:1" d="M 415.298,103.279 407.419,105.643 z" id="boundary" inkscape:connector-curvature="0" />
	<path style="fill:none;stroke:red;stroke-width:1px;stroke-linecap:butt;stroke-linejoin:miter;stroke-opacity:1" d="M 423.177,104.855 415.298,103.279 z" id="boundary" inkscape:connector-curvature="0" />
	<path style="fill:none;stroke:red;stroke-width:1px;stroke-linecap:butt;stroke-linejoin:miter;stroke-opacity:1" d="M 431.056,107.218 423.177,104.855 z" id="boundary" inkscape:connector-curvature="0" />
	<path style="fill:none;stroke:red;stroke-width:1px;stroke-linecap:butt;stroke-linejoin:miter;stroke-opacity:1" d="M 477.544,107.218 470.453,111.158 z" id="boundary" inkscape:connector-curvature="0" />
	<path style="fill:none;stroke:red;stroke-width:1px;stroke-linecap:butt;stroke-linejoin:miter;stroke-opacity:1" d="M 438.936,108.794 431.056,107.218 z" id="boundary" inkscape:connector-curvature="0" />
	<path style="fill:none;stroke:red;stroke-width:1px;stroke-linecap:butt;stroke-linejoin:miter;stroke-opacity:1" d="M 477.544,107.218 485.423,108.006 z" id="boundary" inkscape:connector-curvature="0" />
	<path style="fill:none;stroke:red;stroke-width:1px;stroke-linecap:butt;stroke-linejoin:miter;stroke-opacity:1" d="M 515.365,100.915 509.061,105.643 z" id="boundary" inkscape:connector-curvature="0" />
	<path style="fill:none;stroke:red;stroke-width:1px;stroke-linecap:butt;stroke-linejoin:miter;stroke-opacity:1" d="M 501.182,107.218 493.303,106.431 z" id="boundary" inkscape:connector-curvature="0" />
	<path style="fill:none;stroke:red;stroke-width:1px;stroke-linecap:butt;stroke-linejoin:miter;stroke-opacity:1" d="M 509.061,105.643 501.182,107.218 z" id="boundary" inkscape:connector-curvature="0" />
	<path style="fill:none;stroke:red;stroke-width:1px;stroke-linecap:butt;stroke-linejoin:miter;stroke-opacity:1" d="M 485.423,108.006 493.303,106.431 z" id="boundary" inkscape:connector-curvature="0" />
	<path style="fill:none;stroke:red;stroke-width:1px;stroke-linecap:butt;stroke-linejoin:miter;stroke-opacity:1" d="M 438.936,108.794 446.815,109.582 z" id="boundary" inkscape:connector-curvature="0" />
	<path style="fill:none;stroke:red;stroke-width:1px;stroke-linecap:butt;stroke-linejoin:miter;stroke-opacity:1" d="M 454.694,110.37 446.815,109.582 z" id="boundary" inkscape:connector-curvature="0" />
	<path style="fill:none;stroke:red;stroke-width:1px;stroke-linecap:butt;stroke-linejoin:miter;stroke-opacity:1" d="M 462.573,110.37 470.453,111.158 z" id="boundary" inkscape:connector-curvature="0" />
	<path style="fill:none;stroke:red;stroke-width:1px;stroke-linecap:butt;stroke-linejoin:miter;stroke-opacity:1" d="M 454.694,110.37 462.573,110.37 z" id="boundary" inkscape:connector-curvature="0" />
	<path style="fill:none;stroke:red;stroke-width:1px;stroke-linecap:butt;stroke-linejoin:miter;stroke-opacity:1" d="M 624.098,20.5465 616.219,20.5465 z" id="boundary" inkscape:connector-curvature="0" />
	<path style="fill:none;stroke:red;stroke-width:1px;stroke-linecap:butt;stroke-linejoin:miter;stroke-opacity:1" d="M 530.335,15.8189 538.214,15.8189 z" id="boundary" inkscape:connector-curvature="0" />
	<path style="fill:none;stroke:red;stroke-width:1px;stroke-linecap:butt;stroke-linejoin:miter;stroke-opacity:1" d="M 561.852,15.8189 553.973,16.6068 z" id="boundary" inkscape:connector-curvature="0" />
	<path style="fill:none;stroke:red;stroke-width:1px;stroke-linecap:butt;stroke-linejoin:miter;stroke-opacity:1" d="M 553.973,16.6068 546.094,16.6068 z" id="boundary" inkscape:connector-curvature="0" />
	<path style="fill:none;stroke:red;stroke-width:1px;stroke-linecap:butt;stroke-linejoin:miter;stroke-opacity:1" d="M 546.094,16.6068 538.214,15.8189 z" id="boundary" inkscape:connector-curvature="0" />
	<path style="fill:none;stroke:red;stroke-width:1px;stroke-linecap:butt;stroke-linejoin:miter;stroke-opacity:1" d="M 569.732,18.9706 561.852,15.8189 z" id="boundary" inkscape:connector-curvature="0" />
	<path style="fill:none;stroke:red;stroke-width:1px;stroke-linecap:butt;stroke-linejoin:miter;stroke-opacity:1" d="M 585.49,18.9706 577.611,18.1827 z" id="boundary" inkscape:connector-curvature="0" />
	<path style="fill:none;stroke:red;stroke-width:1px;stroke-linecap:butt;stroke-linejoin:miter;stroke-opacity:1" d="M 577.611,18.1827 569.732,18.9706 z" id="boundary" inkscape:connector-curvature="0" />
	<path style="fill:none;stroke:red;stroke-width:1px;stroke-linecap:butt;stroke-linejoin:miter;stroke-opacity:1" d="M 585.49,18.9706 593.369,16.6068 z" id="boundary" inkscape:connector-curvature="0" />
	<path style="fill:none;stroke:red;stroke-width:1px;stroke-linecap:butt;stroke-linejoin:miter;stroke-opacity:1" d="M 600.461,20.5465 608.34,20.5465 z" id="boundary" inkscape:connector-curvature="0" />
	<path style="fill:none;stroke:red;stroke-width:1px;stroke-linecap:butt;stroke-linejoin:miter;stroke-opacity:1" d="M 600.461,20.5465 593.369,16.6068 z" id="boundary" inkscape:connector-curvature="0" />
	<path style="fill:none;stroke:red;stroke-width:1px;stroke-linecap:butt;stroke-linejoin:miter;stroke-opacity:1" d="M 608.34,20.5465 616.219,20.5465 z" id="boundary" inkscape:connector-curvature="0" />
	<path style="fill:none;stroke:red;stroke-width:1px;stroke-linecap:butt;stroke-linejoin:miter;stroke-opacity:1" d="M 726.529,23.6982 718.65,23.6982 z" id="boundary" inkscape:connector-curvature="0" />
	<path style="fill:none;stroke:red;stroke-width:1px;stroke-linecap:butt;stroke-linejoin:miter;stroke-opacity:1" d="M 631.978,22.1223 624.098,20.5465 z" id="boundary" inkscape:connector-curvature="0" />
	<path style="fill:none;stroke:red;stroke-width:1px;stroke-linecap:butt;stroke-linejoin:miter;stroke-opacity:1" d="M 639.857,22.1223 631.978,22.1223 z" id="boundary" inkscape:connector-curvature="0" />
	<path style="fill:none;stroke:red;stroke-width:1px;stroke-linecap:butt;stroke-linejoin:miter;stroke-opacity:1" d="M 647.736,22.1223 655.616,22.1223 z" id="boundary" inkscape:connector-curvature="0" />
	<path style="fill:none;stroke:red;stroke-width:1px;stroke-linecap:butt;stroke-linejoin:miter;stroke-opacity:1" d="M 647.736,22.1223 639.857,22.1223 z" id="boundary" inkscape:connector-curvature="0" />
	<path style="fill:none;stroke:red;stroke-width:1px;stroke-linecap:butt;stroke-linejoin:miter;stroke-opacity:1" d="M 663.495,25.274 655.616,22.1223 z" id="boundary" inkscape:connector-curvature="0" />
	<path style="fill:none;stroke:red;stroke-width:1px;stroke-linecap:butt;stroke-linejoin:miter;stroke-opacity:1" d="M 671.374,23.6982 663.495,25.274 z" id="boundary" inkscape:connector-curvature="0" />
	<path style="fill:none;stroke:red;stroke-width:1px;stroke-linecap:butt;stroke-linejoin:miter;stroke-opacity:1" d="M 679.253,23.6982 671.374,23.6982 z" id="boundary" inkscape:connector-curvature="0" />
	<path style="fill:none;stroke:red;stroke-width:1px;stroke-linecap:butt;stroke-linejoin:miter;stroke-opacity:1" d="M 687.133,23.6982 679.253,23.6982 z" id="boundary" inkscape:connector-curvature="0" />
	<path style="fill:none;stroke:red;stroke-width:1px;stroke-linecap:butt;stroke-linejoin:miter;stroke-opacity:1" d="M 695.012,24.4861 687.133,23.6982 z" id="boundary" inkscape:connector-curvature="0" />
	<path style="fill:none;stroke:red;stroke-width:1px;stroke-linecap:butt;stroke-linejoin:miter;stroke-opacity:1" d="M 695.012,24.4861 702.891,22.9102 z" id="boundary" inkscape:connector-curvature="0" />
	<path style="fill:none;stroke:red;stroke-width:1px;stroke-linecap:butt;stroke-linejoin:miter;stroke-opacity:1" d="M 718.65,23.6982 710.77,25.274 z" id="boundary" inkscape:connector-curvature="0" />
	<path style="fill:none;stroke:red;stroke-width:1px;stroke-linecap:butt;stroke-linejoin:miter;stroke-opacity:1" d="M 710.77,25.274 702.891,22.9102 z" id="boundary" inkscape:connector-curvature="0" />
	<path style="fill:none;stroke:red;stroke-width:1px;stroke-linecap:butt;stroke-linejoin:miter;stroke-opacity:1" d="M 734.408,24.4861 726.529,23.6982 z" id="boundary" inkscape:connector-curvature="0" />
	<path style="fill:none;stroke:red;stroke-width:1px;stroke-linecap:butt;stroke-linejoin:miter;stroke-opacity:1" d="M 742.288,25.274 734.408,24.4861 z" id="boundary" inkscape:connector-curvature="0" />
	<path style="fill:none;stroke:red;stroke-width:1px;stroke-linecap:butt;stroke-linejoin:miter;stroke-opacity:1" d="M 750.167,25.274 742.288,25.274 z" id="boundary" inkscape:connector-curvature="0" />
	<path style="fill:none;stroke:red;stroke-width:1px;stroke-linecap:butt;stroke-linejoin:miter;stroke-opacity:1" d="M 765.925,26.8499 758.046,25.274 z" id="boundary" inkscape:connector-curvature="0" />
	<path style="fill:none;stroke:red;stroke-width:1px;stroke-linecap:butt;stroke-linejoin:miter;stroke-opacity:1" d="M 773.805,26.062 765.925,26.8499 z" id="boundary" inkscape:connector-curvature="0" />
	<path style="fill:none;stroke:red;stroke-width:1px;stroke-linecap:butt;stroke-linejoin:miter;stroke-opacity:1" d="M 750.167,25.274 758.046,25.274 z" id="boundary" inkscape:connector-curvature="0" />
	<path style="fill:none;stroke:red;stroke-width:1px;stroke-linecap:butt;stroke-linejoin:miter;stroke-opacity:1" d="M 797.442,27.6378 805.322,26.8499 z" id="boundary" inkscape:connector-curvature="0" />
	<path style="fill:none;stroke:red;stroke-width:1px;stroke-linecap:butt;stroke-linejoin:miter;stroke-opacity:1" d="M 781.684,28.4257 773.805,26.062 z" id="boundary" inkscape:connector-curvature="0" />
	<path style="fill:none;stroke:red;stroke-width:1px;stroke-linecap:butt;stroke-linejoin:miter;stroke-opacity:1" d="M 813.201,27.6378 805.322,26.8499 z" id="boundary" inkscape:connector-curvature="0" />
	<path style="fill:none;stroke:red;stroke-width:1px;stroke-linecap:butt;stroke-linejoin:miter;stroke-opacity:1" d="M 789.563,30.0016 797.442,27.6378 z" id="boundary" inkscape:connector-curvature="0" />
	<path style="fill:none;stroke:red;stroke-width:1px;stroke-linecap:butt;stroke-linejoin:miter;stroke-opacity:1" d="M 789.563,30.0016 781.684,28.4257 z" id="boundary" inkscape:connector-curvature="0" />
	<path style="fill:none;stroke:red;stroke-width:1px;stroke-linecap:butt;stroke-linejoin:miter;stroke-opacity:1" d="M 813.201,27.6378 821.08,28.4257 z" id="boundary" inkscape:connector-curvature="0" />
	<path style="fill:none;stroke:red;stroke-width:1px;stroke-linecap:butt;stroke-linejoin:miter;stroke-opacity:1" d="M 836.839,29.2137 828.959,29.2137 z" id="boundary" inkscape:connector-curvature="0" />
	<path style="fill:none;stroke:red;stroke-width:1px;stroke-linecap:butt;stroke-linejoin:miter;stroke-opacity:1" d="M 828.959,29.2137 821.08,28.4257 z" id="boundary" inkscape:connector-curvature="0" />
	<path style="fill:none;stroke:red;stroke-width:1px;stroke-linecap:butt;stroke-linejoin:miter;stroke-opacity:1" d="M 844.718,31.5774 836.839,29.2137 z" id="boundary" inkscape:connector-curvature="0" />
	<path style="fill:none;stroke:red;stroke-width:1px;stroke-linecap:butt;stroke-linejoin:miter;stroke-opacity:1" d="M 852.597,32.3654 844.718,31.5774 z" id="boundary" inkscape:connector-curvature="0" />
	<path style="fill:none;stroke:red;stroke-width:1px;stroke-linecap:butt;stroke-linejoin:miter;stroke-opacity:1" d="M 860.477,31.5774 868.356,30.0016 z" id="boundary" inkscape:connector-curvature="0" />
	<path style="fill:none;stroke:red;stroke-width:1px;stroke-linecap:butt;stroke-linejoin:miter;stroke-opacity:1" d="M 860.477,31.5774 852.597,32.3654 z" id="boundary" inkscape:connector-curvature="0" />
	<path style="fill:none;stroke:red;stroke-width:1px;stroke-linecap:butt;stroke-linejoin:miter;stroke-opacity:1" d="M 868.356,30.0016 878.599,30.0016 z" id="boundary" inkscape:connector-curvature="0" />
	<path style="fill:none;stroke:red;stroke-width:1px;stroke-linecap:butt;stroke-linejoin:miter;stroke-opacity:1" d="M 873.871,36.305 868.356,30.0016 z" id="boundary" inkscape:connector-curvature="0" />
	<path style="fill:none;stroke:red;stroke-width:1px;stroke-linecap:butt;stroke-linejoin:miter;stroke-opacity:1" d="M 878.599,30.0016 873.871,36.305 z" id="boundary" inkscape:connector-curvature="0" />
	<path style="fill:none;stroke:red;stroke-width:1px;stroke-linecap:butt;stroke-linejoin:miter;stroke-opacity:1" d="M 886.478,30.7895 878.599,30.0016 z" id="boundary" inkscape:connector-curvature="0" />
	<path style="fill:none;stroke:red;stroke-width:1px;stroke-linecap:butt;stroke-linejoin:miter;stroke-opacity:1" d="M 894.357,30.7895 886.478,30.7895 z" id="boundary" inkscape:connector-curvature="0" />
	<path style="fill:none;stroke:red;stroke-width:1px;stroke-linecap:butt;stroke-linejoin:miter;stroke-opacity:1" d="M 901.449,34.7292 909.328,31.5774 z" id="boundary" inkscape:connector-curvature="0" />
	<path style="fill:none;stroke:red;stroke-width:1px;stroke-linecap:butt;stroke-linejoin:miter;stroke-opacity:1" d="M 901.449,34.7292 894.357,30.7895 z" id="boundary" inkscape:connector-curvature="0" />
	<path style="fill:none;stroke:red;stroke-width:1px;stroke-linecap:butt;stroke-linejoin:miter;stroke-opacity:1" d="M 917.207,32.3654 909.328,31.5774 z" id="boundary" inkscape:connector-curvature="0" />
	<path style="fill:none;stroke:red;stroke-width:1px;stroke-linecap:butt;stroke-linejoin:miter;stroke-opacity:1" d="M 932.178,35.5171 925.087,31.5774 z" id="boundary" inkscape:connector-curvature="0" />
	<path style="fill:none;stroke:red;stroke-width:1px;stroke-linecap:butt;stroke-linejoin:miter;stroke-opacity:1" d="M 940.057,32.3654 932.178,35.5171 z" id="boundary" inkscape:connector-curvature="0" />
	<path style="fill:none;stroke:red;stroke-width:1px;stroke-linecap:butt;stroke-linejoin:miter;stroke-opacity:1" d="M 947.936,33.1533 940.057,32.3654 z" id="boundary" inkscape:connector-curvature="0" />
	<path style="fill:none;stroke:red;stroke-width:1px;stroke-linecap:butt;stroke-linejoin:miter;stroke-opacity:1" d="M 947.936,33.1533 955.816,33.9412 z" id="boundary" inkscape:connector-curvature="0" />
	<path style="fill:none;stroke:red;stroke-width:1px;stroke-linecap:butt;stroke-linejoin:miter;stroke-opacity:1" d="M 963.695,35.5171 955.816,33.9412 z" id="boundary" inkscape:connector-curvature="0" />
	<path style="fill:none;stroke:red;stroke-width:1px;stroke-linecap:butt;stroke-linejoin:miter;stroke-opacity:1" d="M 917.207,32.3654 925.087,31.5774 z" id="boundary" inkscape:connector-curvature="0" />
	<path style="fill:none;stroke:red;stroke-width:1px;stroke-linecap:butt;stroke-linejoin:miter;stroke-opacity:1" d="M 970.786,39.4567 963.695,35.5171 z" id="boundary" inkscape:connector-curvature="0" />
	<path style="fill:none;stroke:red;stroke-width:1px;stroke-linecap:butt;stroke-linejoin:miter;stroke-opacity:1" d="M 984.969,47.336 978.666,42.6084 z" id="boundary" inkscape:connector-curvature="0" />
	<path style="fill:none;stroke:red;stroke-width:1px;stroke-linecap:butt;stroke-linejoin:miter;stroke-opacity:1" d="M 970.786,39.4567 978.666,42.6084 z" id="boundary" inkscape:connector-curvature="0" />
	<path style="fill:none;stroke:red;stroke-width:1px;stroke-linecap:butt;stroke-linejoin:miter;stroke-opacity:1" d="M 984.969,47.336 989.697,53.6394 z" id="boundary" inkscape:connector-curvature="0" />
	<path style="fill:none;stroke:red;stroke-width:1px;stroke-linecap:butt;stroke-linejoin:miter;stroke-opacity:1" d="M 994.424,59.9428 989.697,53.6394 z" id="boundary" inkscape:connector-curvature="0" />
	<path style="fill:none;stroke:red;stroke-width:1px;stroke-linecap:butt;stroke-linejoin:miter;stroke-opacity:1" d="M 539.79,75.7014 532.699,71.7617 z" id="boundary" inkscape:connector-curvature="0" />
	<path style="fill:none;stroke:red;stroke-width:1px;stroke-linecap:butt;stroke-linejoin:miter;stroke-opacity:1" d="M 532.699,71.7617 524.82,73.3376 z" id="boundary" inkscape:connector-curvature="0" />
	<path style="fill:none;stroke:red;stroke-width:1px;stroke-linecap:butt;stroke-linejoin:miter;stroke-opacity:1" d="M 547.67,74.9134 539.79,75.7014 z" id="boundary" inkscape:connector-curvature="0" />
	<path style="fill:none;stroke:red;stroke-width:1px;stroke-linecap:butt;stroke-linejoin:miter;stroke-opacity:1" d="M 555.549,75.7014 547.67,74.9134 z" id="boundary" inkscape:connector-curvature="0" />
	<path style="fill:none;stroke:red;stroke-width:1px;stroke-linecap:butt;stroke-linejoin:miter;stroke-opacity:1" d="M 571.307,77.2772 563.428,76.4893 z" id="boundary" inkscape:connector-curvature="0" />
	<path style="fill:none;stroke:red;stroke-width:1px;stroke-linecap:butt;stroke-linejoin:miter;stroke-opacity:1" d="M 563.428,76.4893 555.549,75.7014 z" id="boundary" inkscape:connector-curvature="0" />
	<path style="fill:none;stroke:red;stroke-width:1px;stroke-linecap:butt;stroke-linejoin:miter;stroke-opacity:1" d="M 571.307,77.2772 579.187,76.4893 z" id="boundary" inkscape:connector-curvature="0" />
	<path style="fill:none;stroke:red;stroke-width:1px;stroke-linecap:butt;stroke-linejoin:miter;stroke-opacity:1" d="M 587.066,76.4893 594.945,76.4893 z" id="boundary" inkscape:connector-curvature="0" />
	<path style="fill:none;stroke:red;stroke-width:1px;stroke-linecap:butt;stroke-linejoin:miter;stroke-opacity:1" d="M 587.066,76.4893 579.187,76.4893 z" id="boundary" inkscape:connector-curvature="0" />
	<path style="fill:none;stroke:red;stroke-width:1px;stroke-linecap:butt;stroke-linejoin:miter;stroke-opacity:1" d="M 610.704,78.8531 602.824,78.0651 z" id="boundary" inkscape:connector-curvature="0" />
	<path style="fill:none;stroke:red;stroke-width:1px;stroke-linecap:butt;stroke-linejoin:miter;stroke-opacity:1" d="M 602.824,78.0651 594.945,76.4893 z" id="boundary" inkscape:connector-curvature="0" />
	<path style="fill:none;stroke:red;stroke-width:1px;stroke-linecap:butt;stroke-linejoin:miter;stroke-opacity:1" d="M 626.462,81.2168 618.583,80.4289 z" id="boundary" inkscape:connector-curvature="0" />
	<path style="fill:none;stroke:red;stroke-width:1px;stroke-linecap:butt;stroke-linejoin:miter;stroke-opacity:1" d="M 618.583,80.4289 610.704,78.8531 z" id="boundary" inkscape:connector-curvature="0" />
	<path style="fill:none;stroke:red;stroke-width:1px;stroke-linecap:butt;stroke-linejoin:miter;stroke-opacity:1" d="M 626.462,81.2168 634.342,81.2168 z" id="boundary" inkscape:connector-curvature="0" />
	<path style="fill:none;stroke:red;stroke-width:1px;stroke-linecap:butt;stroke-linejoin:miter;stroke-opacity:1" d="M 642.221,83.5806 650.1,83.5806 z" id="boundary" inkscape:connector-curvature="0" />
	<path style="fill:none;stroke:red;stroke-width:1px;stroke-linecap:butt;stroke-linejoin:miter;stroke-opacity:1" d="M 642.221,83.5806 634.342,81.2168 z" id="boundary" inkscape:connector-curvature="0" />
	<path style="fill:none;stroke:red;stroke-width:1px;stroke-linecap:butt;stroke-linejoin:miter;stroke-opacity:1" d="M 657.979,85.1565 650.1,83.5806 z" id="boundary" inkscape:connector-curvature="0" />
	<path style="fill:none;stroke:red;stroke-width:1px;stroke-linecap:butt;stroke-linejoin:miter;stroke-opacity:1" d="M 721.014,91.4599 713.134,90.672 z" id="boundary" inkscape:connector-curvature="0" />
	<path style="fill:none;stroke:red;stroke-width:1px;stroke-linecap:butt;stroke-linejoin:miter;stroke-opacity:1" d="M 807.685,96.1875 799.806,96.1875 z" id="boundary" inkscape:connector-curvature="0" />
	<path style="fill:none;stroke:red;stroke-width:1px;stroke-linecap:butt;stroke-linejoin:miter;stroke-opacity:1" d="M 673.738,87.5203 665.859,86.7323 z" id="boundary" inkscape:connector-curvature="0" />
	<path style="fill:none;stroke:red;stroke-width:1px;stroke-linecap:butt;stroke-linejoin:miter;stroke-opacity:1" d="M 681.617,87.5203 673.738,87.5203 z" id="boundary" inkscape:connector-curvature="0" />
	<path style="fill:none;stroke:red;stroke-width:1px;stroke-linecap:butt;stroke-linejoin:miter;stroke-opacity:1" d="M 689.496,89.884 697.376,89.0961 z" id="boundary" inkscape:connector-curvature="0" />
	<path style="fill:none;stroke:red;stroke-width:1px;stroke-linecap:butt;stroke-linejoin:miter;stroke-opacity:1" d="M 689.496,89.884 681.617,87.5203 z" id="boundary" inkscape:connector-curvature="0" />
	<path style="fill:none;stroke:red;stroke-width:1px;stroke-linecap:butt;stroke-linejoin:miter;stroke-opacity:1" d="M 705.255,89.884 697.376,89.0961 z" id="boundary" inkscape:connector-curvature="0" />
	<path style="fill:none;stroke:red;stroke-width:1px;stroke-linecap:butt;stroke-linejoin:miter;stroke-opacity:1" d="M 657.979,85.1565 665.859,86.7323 z" id="boundary" inkscape:connector-curvature="0" />
	<path style="fill:none;stroke:red;stroke-width:1px;stroke-linecap:butt;stroke-linejoin:miter;stroke-opacity:1" d="M 713.134,90.672 705.255,89.884 z" id="boundary" inkscape:connector-curvature="0" />
	<path style="fill:none;stroke:red;stroke-width:1px;stroke-linecap:butt;stroke-linejoin:miter;stroke-opacity:1" d="M 728.893,91.4599 721.014,91.4599 z" id="boundary" inkscape:connector-curvature="0" />
	<path style="fill:none;stroke:red;stroke-width:1px;stroke-linecap:butt;stroke-linejoin:miter;stroke-opacity:1" d="M 728.893,91.4599 736.772,92.2478 z" id="boundary" inkscape:connector-curvature="0" />
	<path style="fill:none;stroke:red;stroke-width:1px;stroke-linecap:butt;stroke-linejoin:miter;stroke-opacity:1" d="M 744.651,95.3995 736.772,92.2478 z" id="boundary" inkscape:connector-curvature="0" />
	<path style="fill:none;stroke:red;stroke-width:1px;stroke-linecap:butt;stroke-linejoin:miter;stroke-opacity:1" d="M 760.41,95.3995 752.531,94.6116 z" id="boundary" inkscape:connector-curvature="0" />
	<path style="fill:none;stroke:red;stroke-width:1px;stroke-linecap:butt;stroke-linejoin:miter;stroke-opacity:1" d="M 752.531,94.6116 744.651,95.3995 z" id="boundary" inkscape:connector-curvature="0" />
	<path style="fill:none;stroke:red;stroke-width:1px;stroke-linecap:butt;stroke-linejoin:miter;stroke-opacity:1" d="M 768.289,95.3995 776.168,95.3995 z" id="boundary" inkscape:connector-curvature="0" />
	<path style="fill:none;stroke:red;stroke-width:1px;stroke-linecap:butt;stroke-linejoin:miter;stroke-opacity:1" d="M 791.927,96.1875 784.048,97.7633 z" id="boundary" inkscape:connector-curvature="0" />
	<path style="fill:none;stroke:red;stroke-width:1px;stroke-linecap:butt;stroke-linejoin:miter;stroke-opacity:1" d="M 784.048,97.7633 776.168,95.3995 z" id="boundary" inkscape:connector-curvature="0" />
	<path style="fill:none;stroke:red;stroke-width:1px;stroke-linecap:butt;stroke-linejoin:miter;stroke-opacity:1" d="M 791.927,96.1875 799.806,96.1875 z" id="boundary" inkscape:connector-curvature="0" />
	<path style="fill:none;stroke:red;stroke-width:1px;stroke-linecap:butt;stroke-linejoin:miter;stroke-opacity:1" d="M 760.41,95.3995 768.289,95.3995 z" id="boundary" inkscape:connector-curvature="0" />
	<path style="fill:none;stroke:red;stroke-width:1px;stroke-linecap:butt;stroke-linejoin:miter;stroke-opacity:1" d="M 823.444,97.7633 815.565,96.9754 z" id="boundary" inkscape:connector-curvature="0" />
	<path style="fill:none;stroke:red;stroke-width:1px;stroke-linecap:butt;stroke-linejoin:miter;stroke-opacity:1" d="M 862.84,97.7633 854.961,96.9754 z" id="boundary" inkscape:connector-curvature="0" />
	<path style="fill:none;stroke:red;stroke-width:1px;stroke-linecap:butt;stroke-linejoin:miter;stroke-opacity:1" d="M 815.565,96.9754 807.685,96.1875 z" id="boundary" inkscape:connector-curvature="0" />
	<path style="fill:none;stroke:red;stroke-width:1px;stroke-linecap:butt;stroke-linejoin:miter;stroke-opacity:1" d="M 854.961,96.9754 847.082,97.7633 z" id="boundary" inkscape:connector-curvature="0" />
	<path style="fill:none;stroke:red;stroke-width:1px;stroke-linecap:butt;stroke-linejoin:miter;stroke-opacity:1" d="M 994.424,59.9428 996,69.3979 z" id="boundary" inkscape:connector-curvature="0" />
	<path style="fill:none;stroke:red;stroke-width:1px;stroke-linecap:butt;stroke-linejoin:miter;stroke-opacity:1" d="M 996,69.3979 995.212,78.0651 z" id="boundary" inkscape:connector-curvature="0" />
	<path style="fill:none;stroke:red;stroke-width:1px;stroke-linecap:butt;stroke-linejoin:miter;stroke-opacity:1" d="M 990.485,95.3995 992.848,85.9444 z" id="boundary" inkscape:connector-curvature="0" />
	<path style="fill:none;stroke:red;stroke-width:1px;stroke-linecap:butt;stroke-linejoin:miter;stroke-opacity:1" d="M 995.212,78.0651 992.848,85.9444 z" id="boundary" inkscape:connector-curvature="0" />
	<path style="fill:none;stroke:red;stroke-width:1px;stroke-linecap:butt;stroke-linejoin:miter;stroke-opacity:1" d="M 990.485,95.3995 984.181,100.915 z" id="boundary" inkscape:connector-curvature="0" />
	<path style="fill:none;stroke:red;stroke-width:1px;stroke-linecap:butt;stroke-linejoin:miter;stroke-opacity:1" d="M 823.444,97.7633 831.323,97.7633 z" id="boundary" inkscape:connector-curvature="0" />
	<path style="fill:none;stroke:red;stroke-width:1px;stroke-linecap:butt;stroke-linejoin:miter;stroke-opacity:1" d="M 839.203,97.7633 847.082,97.7633 z" id="boundary" inkscape:connector-curvature="0" />
	<path style="fill:none;stroke:red;stroke-width:1px;stroke-linecap:butt;stroke-linejoin:miter;stroke-opacity:1" d="M 831.323,97.7633 839.203,97.7633 z" id="boundary" inkscape:connector-curvature="0" />
	<path style="fill:none;stroke:red;stroke-width:1px;stroke-linecap:butt;stroke-linejoin:miter;stroke-opacity:1" d="M 870.72,98.5512 862.84,97.7633 z" id="boundary" inkscape:connector-curvature="0" />
	<path style="fill:none;stroke:red;stroke-width:1px;stroke-linecap:butt;stroke-linejoin:miter;stroke-opacity:1" d="M 878.599,99.3392 870.72,98.5512 z" id="boundary" inkscape:connector-curvature="0" />
	<path style="fill:none;stroke:red;stroke-width:1px;stroke-linecap:butt;stroke-linejoin:miter;stroke-opacity:1" d="M 894.357,100.915 886.478,99.3392 z" id="boundary" inkscape:connector-curvature="0" />
	<path style="fill:none;stroke:red;stroke-width:1px;stroke-linecap:butt;stroke-linejoin:miter;stroke-opacity:1" d="M 902.237,103.279 894.357,100.915 z" id="boundary" inkscape:connector-curvature="0" />
	<path style="fill:none;stroke:red;stroke-width:1px;stroke-linecap:butt;stroke-linejoin:miter;stroke-opacity:1" d="M 878.599,99.3392 886.478,99.3392 z" id="boundary" inkscape:connector-curvature="0" />
	<path style="fill:none;stroke:red;stroke-width:1px;stroke-linecap:butt;stroke-linejoin:miter;stroke-opacity:1" d="M 910.116,104.067 916.419,98.5512 z" id="boundary" inkscape:connector-curvature="0" />
	<path style="fill:none;stroke:red;stroke-width:1px;stroke-linecap:butt;stroke-linejoin:miter;stroke-opacity:1" d="M 910.116,104.067 902.237,103.279 z" id="boundary" inkscape:connector-curvature="0" />
	<path style="fill:none;stroke:red;stroke-width:1px;stroke-linecap:butt;stroke-linejoin:miter;stroke-opacity:1" d="M 916.419,98.5512 921.147,104.855 z" id="boundary" inkscape:connector-curvature="0" />
	<path style="fill:none;stroke:red;stroke-width:1px;stroke-linecap:butt;stroke-linejoin:miter;stroke-opacity:1" d="M 921.147,104.855 923.511,112.734 z" id="boundary" inkscape:connector-curvature="0" />
	<path style="fill:none;stroke:red;stroke-width:1px;stroke-linecap:butt;stroke-linejoin:miter;stroke-opacity:1" d="M 972.362,111.946 966.059,117.461 z" id="boundary" inkscape:connector-curvature="0" />
	<path style="fill:none;stroke:red;stroke-width:1px;stroke-linecap:butt;stroke-linejoin:miter;stroke-opacity:1" d="M 979.454,108.006 972.362,111.946 z" id="boundary" inkscape:connector-curvature="0" />
	<path style="fill:none;stroke:red;stroke-width:1px;stroke-linecap:butt;stroke-linejoin:miter;stroke-opacity:1" d="M 979.454,108.006 984.181,100.915 z" id="boundary" inkscape:connector-curvature="0" />
	<path style="fill:none;stroke:red;stroke-width:1px;stroke-linecap:butt;stroke-linejoin:miter;stroke-opacity:1" d="M 929.814,117.461 923.511,112.734 z" id="boundary" inkscape:connector-curvature="0" />
	<path style="fill:none;stroke:red;stroke-width:1px;stroke-linecap:butt;stroke-linejoin:miter;stroke-opacity:1" d="M 936.118,122.189 929.814,117.461 z" id="boundary" inkscape:connector-curvature="0" />
	<path style="fill:none;stroke:red;stroke-width:1px;stroke-linecap:butt;stroke-linejoin:miter;stroke-opacity:1" d="M 943.209,126.129 936.118,122.189 z" id="boundary" inkscape:connector-curvature="0" />
	<path style="fill:none;stroke:red;stroke-width:1px;stroke-linecap:butt;stroke-linejoin:miter;stroke-opacity:1" d="M 951.088,124.553 943.209,126.129 z" id="boundary" inkscape:connector-curvature="0" />
	<path style="fill:none;stroke:red;stroke-width:1px;stroke-linecap:butt;stroke-linejoin:miter;stroke-opacity:1" d="M 958.18,120.613 951.088,124.553 z" id="boundary" inkscape:connector-curvature="0" />
	<path style="fill:none;stroke:red;stroke-width:1px;stroke-linecap:butt;stroke-linejoin:miter;stroke-opacity:1" d="M 958.18,120.613 966.059,117.461 z" id="boundary" inkscape:connector-curvature="0" />
	<circle cx="4" cy="15.8189" r="4" fill="#0" id="circle0"/>
	<circle cx="8.72756" cy="22.1223" r="4" fill="#0" id="circle1"/>
	<circle cx="11.0913" cy="11.8793" r="4" fill="#0" id="circle2"/>
	<circle cx="15.8189" cy="26.062" r="4" fill="#0" id="circle3"/>
	<circle cx="18.9706" cy="10.3034" r="4" fill="#0" id="circle4"/>
	<circle cx="23.6982" cy="29.2137" r="4" fill="#0" id="circle5"/>
	<circle cx="26.8499" cy="9.51549" r="4" fill="#0" id="circle6"/>
	<circle cx="30.7895" cy="33.1533" r="4" fill="#0" id="circle7"/>
	<circle cx="34.7292" cy="7.93963" r="4" fill="#0" id="circle8"/>
	<circle cx="38.6688" cy="35.5171" r="4" fill="#0" id="circle9"/>
	<circle cx="42.6084" cy="6.36378" r="4" fill="#0" id="circle10"/>
	<circle cx="46.5481" cy="37.0929" r="4" fill="#0" id="circle11"/>
	<circle cx="50.4877" cy="6.36378" r="4" fill="#0" id="circle12"/>
	<circle cx="54.4273" cy="40.2446" r="4" fill="#0" id="circle13"/>
	<circle cx="58.367" cy="5.57585" r="4" fill="#0" id="circle14"/>
	<circle cx="62.3066" cy="42.6084" r="4" fill="#0" id="circle15"/>
	<circle cx="66.2462" cy="5.57585" r="4" fill="#0" id="circle16"/>
	<circle cx="70.1859" cy="44.9722" r="4" fill="#0" id="circle17"/>
	<circle cx="74.1255" cy="4.78793" r="4" fill="#0" id="circle18"/>
	<circle cx="78.0651" cy="46.5481" r="4" fill="#0" id="circle19"/>
	<circle cx="82.0048" cy="4.78793" r="4" fill="#0" id="circle20"/>
	<circle cx="85.9444" cy="48.9118" r="4" fill="#0" id="circle21"/>
	<circle cx="89.884" cy="4.78793" r="4" fill="#0" id="circle22"/>
	<circle cx="93.8237" cy="52.0635" r="4" fill="#0" id="circle23"/>
	<circle cx="97.7633" cy="4.78793" r="4" fill="#0" id="circle24"/>
	<circle cx="101.703" cy="54.4273" r="4" fill="#0" id="circle25"/>
	<circle cx="105.643" cy="4.78793" r="4" fill="#0" id="circle26"/>
	<circle cx="109.582" cy="54.4273" r="4" fill="#0" id="circle27"/>
	<circle cx="113.522" cy="4.78793" r="4" fill="#0" id="circle28"/>
	<circle cx="117.461" cy="56.0032" r="4" fill="#0" id="circle29"/>
	<circle cx="121.401" cy="5.57585" r="4" fill="#0" id="circle30"/>
	<circle cx="125.341" cy="59.1549" r="4" fill="#0" id="circle31"/>
	<circle cx="129.28" cy="4.78793" r="4" fill="#0" id="circle32"/>
	<circle cx="133.22" cy="59.9428" r="4" fill="#0" id="circle33"/>
	<circle cx="137.16" cy="5.57585" r="4" fill="#0" id="circle34"/>
	<circle cx="141.099" cy="61.5187" r="4" fill="#0" id="circle35"/>
	<circle cx="145.039" cy="5.57585" r="4" fill="#0" id="circle36"/>
	<circle cx="148.979" cy="63.8824" r="4" fill="#0" id="circle37"/>
	<circle cx="152.918" cy="5.57585" r="4" fill="#0" id="circle38"/>
	<circle cx="156.858" cy="64.6704" r="4" fill="#0" id="circle39"/>
	<circle cx="160.797" cy="5.57585" r="4" fill="#0" id="circle40"/>
	<circle cx="164.737" cy="66.2462" r="4" fill="#0" id="circle41"/>
	<circle cx="168.677" cy="4.78793" r="4" fill="#0" id="circle42"/>
	<circle cx="172.616" cy="67.8221" r="4" fill="#0" id="circle43"/>
	<circle cx="176.556" cy="4" r="4" fill="#0" id="circle44"/>
	<circle cx="180.496" cy="70.9738" r="4" fill="#0" id="circle45"/>
	<circle cx="184.435" cy="4.78793" r="4" fill="#0" id="circle46"/>
	<circle cx="188.375" cy="70.1859" r="4" fill="#0" id="circle47"/>
	<circle cx="192.315" cy="4.78793" r="4" fill="#0" id="circle48"/>
	<circle cx="196.254" cy="71.7617" r="4" fill="#0" id="circle49"/>
	<circle cx="200.194" cy="5.57585" r="4" fill="#0" id="circle50"/>
	<circle cx="204.133" cy="73.3376" r="4" fill="#0" id="circle51"/>
	<circle cx="208.073" cy="6.36378" r="4" fill="#0" id="circle52"/>
	<circle cx="212.013" cy="75.7014" r="4" fill="#0" id="circle53"/>
	<circle cx="215.952" cy="6.36378" r="4" fill="#0" id="circle54"/>
	<circle cx="219.892" cy="78.0651" r="4" fill="#0" id="circle55"/>
	<circle cx="223.832" cy="6.36378" r="4" fill="#0" id="circle56"/>
	<circle cx="227.771" cy="76.4893" r="4" fill="#0" id="circle57"/>
	<circle cx="231.711" cy="4.78793" r="4" fill="#0" id="circle58"/>
	<circle cx="234.075" cy="81.2168" r="4" fill="#0" id="circle59"/>
	<circle cx="239.59" cy="5.57585" r="4" fill="#0" id="circle60"/>
	<circle cx="241.954" cy="82.0048" r="4" fill="#0" id="circle61"/>
	<circle cx="247.469" cy="5.57585" r="4" fill="#0" id="circle62"/>
	<circle cx="249.833" cy="82.7927" r="4" fill="#0" id="circle63"/>
	<circle cx="255.349" cy="5.57585" r="4" fill="#0" id="circle64"/>
	<circle cx="257.712" cy="83.5806" r="4" fill="#0" id="circle65"/>
	<circle cx="263.228" cy="7.15171" r="4" fill="#0" id="circle66"/>
	<circle cx="265.592" cy="86.7323" r="4" fill="#0" id="circle67"/>
	<circle cx="271.107" cy="6.36378" r="4" fill="#0" id="circle68"/>
	<circle cx="273.471" cy="83.5806" r="4" fill="#0" id="circle69"/>
	<circle cx="278.986" cy="6.36378" r="4" fill="#0" id="circle70"/>
	<circle cx="281.35" cy="85.1565" r="4" fill="#0" id="circle71"/>
	<circle cx="285.29" cy="92.2478" r="4" fill="#0" id="circle72"/>
	<circle cx="286.866" cy="5.57585" r="4" fill="#0" id="circle73"/>
	<circle cx="292.381" cy="88.3082" r="4" fill="#0" id="circle74"/>
	<circle cx="294.745" cy="6.36378" r="4" fill="#0" id="circle75"/>
	<circle cx="300.261" cy="86.7323" r="4" fill="#0" id="circle76"/>
	<circle cx="302.624" cy="7.15171" r="4" fill="#0" id="circle77"/>
	<circle cx="302.624" cy="94.6116" r="4" fill="#0" id="circle78"/>
	<circle cx="310.504" cy="7.15171" r="4" fill="#0" id="circle79"/>
	<circle cx="310.504" cy="96.1875" r="4" fill="#0" id="circle80"/>
	<circle cx="318.383" cy="7.15171" r="4" fill="#0" id="circle81"/>
	<circle cx="318.383" cy="95.3995" r="4" fill="#0" id="circle82"/>
	<circle cx="326.262" cy="7.15171" r="4" fill="#0" id="circle83"/>
	<circle cx="326.262" cy="96.9754" r="4" fill="#0" id="circle84"/>
	<circle cx="334.141" cy="7.93963" r="4" fill="#0" id="circle85"/>
	<circle cx="334.141" cy="96.1875" r="4" fill="#0" id="circle86"/>
	<circle cx="342.021" cy="7.93963" r="4" fill="#0" id="circle87"/>
	<circle cx="342.021" cy="97.7633" r="4" fill="#0" id="circle88"/>
	<circle cx="349.9" cy="7.93963" r="4" fill="#0" id="circle89"/>
	<circle cx="349.9" cy="97.7633" r="4" fill="#0" id="circle90"/>
	<circle cx="357.779" cy="10.3034" r="4" fill="#0" id="circle91"/>
	<circle cx="357.779" cy="98.5512" r="4" fill="#0" id="circle92"/>
	<circle cx="365.658" cy="9.51549" r="4" fill="#0" id="circle93"/>
	<circle cx="365.658" cy="101.703" r="4" fill="#0" id="circle94"/>
	<circle cx="373.538" cy="7.93963" r="4" fill="#0" id="circle95"/>
	<circle cx="373.538" cy="100.127" r="4" fill="#0" id="circle96"/>
	<circle cx="380.629" cy="11.8793" r="4" fill="#0" id="circle97"/>
	<circle cx="381.417" cy="96.9754" r="4" fill="#0" id="circle98"/>
	<circle cx="387.72" cy="101.703" r="4" fill="#0" id="circle99"/>
	<circle cx="388.508" cy="9.51549" r="4" fill="#0" id="circle100"/>
	<circle cx="395.6" cy="98.5512" r="4" fill="#0" id="circle101"/>
	<circle cx="396.388" cy="9.51549" r="4" fill="#0" id="circle102"/>
	<circle cx="399.539" cy="105.643" r="4" fill="#0" id="circle103"/>
	<circle cx="404.267" cy="9.51549" r="4" fill="#0" id="circle104"/>
	<circle cx="407.419" cy="105.643" r="4" fill="#0" id="circle105"/>
	<circle cx="412.146" cy="10.3034" r="4" fill="#0" id="circle106"/>
	<circle cx="415.298" cy="103.279" r="4" fill="#0" id="circle107"/>
	<circle cx="420.025" cy="12.6672" r="4" fill="#0" id="circle108"/>
	<circle cx="423.177" cy="104.855" r="4" fill="#0" id="circle109"/>
	<circle cx="427.905" cy="12.6672" r="4" fill="#0" id="circle110"/>
	<circle cx="431.056" cy="107.218" r="4" fill="#0" id="circle111"/>
	<circle cx="435.784" cy="10.3034" r="4" fill="#0" id="circle112"/>
	<circle cx="438.936" cy="108.794" r="4" fill="#0" id="circle113"/>
	<circle cx="443.663" cy="10.3034" r="4" fill="#0" id="circle114"/>
	<circle cx="446.815" cy="109.582" r="4" fill="#0" id="circle115"/>
	<circle cx="451.542" cy="12.6672" r="4" fill="#0" id="circle116"/>
	<circle cx="454.694" cy="110.37" r="4" fill="#0" id="circle117"/>
	<circle cx="459.422" cy="12.6672" r="4" fill="#0" id="circle118"/>
	<circle cx="462.573" cy="110.37" r="4" fill="#0" id="circle119"/>
	<circle cx="467.301" cy="11.8793" r="4" fill="#0" id="circle120"/>
	<circle cx="470.453" cy="111.158" r="4" fill="#0" id="circle121"/>
	<circle cx="475.18" cy="12.6672" r="4" fill="#0" id="circle122"/>
	<circle cx="477.544" cy="107.218" r="4" fill="#0" id="circle123"/>
	<circle cx="483.06" cy="13.4551" r="4" fill="#0" id="circle124"/>
	<circle cx="485.423" cy="108.006" r="4" fill="#0" id="circle125"/>
	<circle cx="490.939" cy="11.8793" r="4" fill="#0" id="circle126"/>
	<circle cx="493.303" cy="106.431" r="4" fill="#0" id="circle127"/>
	<circle cx="498.818" cy="15.031" r="4" fill="#0" id="circle128"/>
	<circle cx="501.182" cy="107.218" r="4" fill="#0" id="circle129"/>
	<circle cx="506.697" cy="12.6672" r="4" fill="#0" id="circle130"/>
	<circle cx="509.061" cy="105.643" r="4" fill="#0" id="circle131"/>
	<circle cx="514.577" cy="15.8189" r="4" fill="#0" id="circle132"/>
	<circle cx="514.577" cy="86.7323" r="4" fill="#0" id="circle133"/>
	<circle cx="515.365" cy="100.915" r="4" fill="#0" id="circle134"/>
	<circle cx="520.092" cy="80.4289" r="4" fill="#0" id="circle135"/>
	<circle cx="522.456" cy="15.8189" r="4" fill="#0" id="circle136"/>
	<circle cx="524.82" cy="73.3376" r="4" fill="#0" id="circle137"/>
	<circle cx="530.335" cy="15.8189" r="4" fill="#0" id="circle138"/>
	<circle cx="532.699" cy="71.7617" r="4" fill="#0" id="circle139"/>
	<circle cx="538.214" cy="15.8189" r="4" fill="#0" id="circle140"/>
	<circle cx="539.79" cy="75.7014" r="4" fill="#0" id="circle141"/>
	<circle cx="546.094" cy="16.6068" r="4" fill="#0" id="circle142"/>
	<circle cx="547.67" cy="74.9134" r="4" fill="#0" id="circle143"/>
	<circle cx="553.973" cy="16.6068" r="4" fill="#0" id="circle144"/>
	<circle cx="555.549" cy="75.7014" r="4" fill="#0" id="circle145"/>
	<circle cx="561.852" cy="15.8189" r="4" fill="#0" id="circle146"/>
	<circle cx="563.428" cy="76.4893" r="4" fill="#0" id="circle147"/>
	<circle cx="569.732" cy="18.9706" r="4" fill="#0" id="circle148"/>
	<circle cx="571.307" cy="77.2772" r="4" fill="#0" id="circle149"/>
	<circle cx="577.611" cy="18.1827" r="4" fill="#0" id="circle150"/>
	<circle cx="579.187" cy="76.4893" r="4" fill="#0" id="circle151"/>
	<circle cx="585.49" cy="18.9706" r="4" fill="#0" id="circle152"/>
	<circle cx="587.066" cy="76.4893" r="4" fill="#0" id="circle153"/>
	<circle cx="593.369" cy="16.6068" r="4" fill="#0" id="circle154"/>
	<circle cx="594.945" cy="76.4893" r="4" fill="#0" id="circle155"/>
	<circle cx="600.461" cy="20.5465" r="4" fill="#0" id="circle156"/>
	<circle cx="602.824" cy="78.0651" r="4" fill="#0" id="circle157"/>
	<circle cx="608.34" cy="20.5465" r="4" fill="#0" id="circle158"/>
	<circle cx="610.704" cy="78.8531" r="4" fill="#0" id="circle159"/>
	<circle cx="616.219" cy="20.5465" r="4" fill="#0" id="circle160"/>
	<circle cx="618.583" cy="80.4289" r="4" fill="#0" id="circle161"/>
	<circle cx="624.098" cy="20.5465" r="4" fill="#0" id="circle162"/>
	<circle cx="626.462" cy="81.2168" r="4" fill="#0" id="circle163"/>
	<circle cx="631.978" cy="22.1223" r="4" fill="#0" id="circle164"/>
	<circle cx="634.342" cy="81.2168" r="4" fill="#0" id="circle165"/>
	<circle cx="639.857" cy="22.1223" r="4" fill="#0" id="circle166"/>
	<circle cx="642.221" cy="83.5806" r="4" fill="#0" id="circle167"/>
	<circle cx="647.736" cy="22.1223" r="4" fill="#0" id="circle168"/>
	<circle cx="650.1" cy="83.5806" r="4" fill="#0" id="circle169"/>
	<circle cx="655.616" cy="22.1223" r="4" fill="#0" id="circle170"/>
	<circle cx="657.979" cy="85.1565" r="4" fill="#0" id="circle171"/>
	<circle cx="663.495" cy="25.274" r="4" fill="#0" id="circle172"/>
	<circle cx="665.859" cy="86.7323" r="4" fill="#0" id="circle173"/>
	<circle cx="671.374" cy="23.6982" r="4" fill="#0" id="circle174"/>
	<circle cx="673.738" cy="87.5203" r="4" fill="#0" id="circle175"/>
	<circle cx="679.253" cy="23.6982" r="4" fill="#0" id="circle176"/>
	<circle cx="681.617" cy="87.5203" r="4" fill="#0" id="circle177"/>
	<circle cx="687.133" cy="23.6982" r="4" fill="#0" id="circle178"/>
	<circle cx="689.496" cy="89.884" r="4" fill="#0" id="circle179"/>
	<circle cx="695.012" cy="24.4861" r="4" fill="#0" id="circle180"/>
	<circle cx="697.376" cy="89.0961" r="4" fill="#0" id="circle181"/>
	<circle cx="702.891" cy="22.9102" r="4" fill="#0" id="circle182"/>
	<circle cx="705.255" cy="89.884" r="4" fill="#0" id="circle183"/>
	<circle cx="710.77" cy="25.274" r="4" fill="#0" id="circle184"/>
	<circle cx="713.134" cy="90.672" r="4" fill="#0" id="circle185"/>
	<circle cx="718.65" cy="23.6982" r="4" fill="#0" id="circle186"/>
	<circle cx="721.014" cy="91.4599" r="4" fill="#0" id="circle187"/>
	<circle cx="726.529" cy="23.6982" r="4" fill="#0" id="circle188"/>
	<circle cx="728.893" cy="91.4599" r="4" fill="#0" id="circle189"/>
	<circle cx="734.408" cy="24.4861" r="4" fill="#0" id="circle190"/>
	<circle cx="736.772" cy="92.2478" r="4" fill="#0" id="circle191"/>
	<circle cx="742.288" cy="25.274" r="4" fill="#0" id="circle192"/>
	<circle cx="744.651" cy="95.3995" r="4" fill="#0" id="circle193"/>
	<circle cx="750.167" cy="25.274" r="4" fill="#0" id="circle194"/>
	<circle cx="752.531" cy="94.6116" r="4" fill="#0" id="circle195"/>
	<circle cx="758.046" cy="25.274" r="4" fill="#0" id="circle196"/>
	<circle cx="760.41" cy="95.3995" r="4" fill="#0" id="circle197"/>
	<circle cx="765.925" cy="26.8499" r="4" fill="#0" id="circle198"/>
	<circle cx="768.289" cy="95.3995" r="4" fill="#0" id="circle199"/>
	<circle cx="773.805" cy="26.062" r="4" fill="#0" id="circle200"/>
	<circle cx="776.168" cy="95.3995" r="4" fill="#0" id="circle201"/>
	<circle cx="781.684" cy="28.4257" r="4" fill="#0" id="circle202"/>
	<circle cx="784.048" cy="97.7633" r="4" fill="#0" id="circle203"/>
	<circle cx="789.563" cy="30.0016" r="4" fill="#0" id="circle204"/>
	<circle cx="791.927" cy="96.1875" r="4" fill="#0" id="circle205"/>
	<circle cx="797.442" cy="27.6378" r="4" fill="#0" id="circle206"/>
	<circle cx="799.806" cy="96.1875" r="4" fill="#0" id="circle207"/>
	<circle cx="805.322" cy="26.8499" r="4" fill="#0" id="circle208"/>
	<circle cx="807.685" cy="96.1875" r="4" fill="#0" id="circle209"/>
	<circle cx="813.201" cy="27.6378" r="4" fill="#0" id="circle210"/>
	<circle cx="815.565" cy="96.9754" r="4" fill="#0" id="circle211"/>
	<circle cx="821.08" cy="28.4257" r="4" fill="#0" id="circle212"/>
	<circle cx="823.444" cy="97.7633" r="4" fill="#0" id="circle213"/>
	<circle cx="828.959" cy="29.2137" r="4" fill="#0" id="circle214"/>
	<circle cx="831.323" cy="97.7633" r="4" fill="#0" id="circle215"/>
	<circle cx="836.839" cy="29.2137" r="4" fill="#0" id="circle216"/>
	<circle cx="839.203" cy="97.7633" r="4" fill="#0" id="circle217"/>
	<circle cx="844.718" cy="31.5774" r="4" fill="#0" id="circle218"/>
	<circle cx="847.082" cy="97.7633" r="4" fill="#0" id="circle219"/>
	<circle cx="852.597" cy="32.3654" r="4" fill="#0" id="circle220"/>
	<circle cx="854.961" cy="96.9754" r="4" fill="#0" id="circle221"/>
	<circle cx="860.477" cy="31.5774" r="4" fill="#0" id="circle222"/>
	<circle cx="862.84" cy="97.7633" r="4" fill="#0" id="circle223"/>
	<circle cx="868.356" cy="30.0016" r="4" fill="#0" id="circle224"/>
	<circle cx="870.72" cy="98.5512" r="4" fill="#0" id="circle225"/>
	<circle cx="873.871" cy="36.305" r="4" fill="#0" id="circle226"/>
	<circle cx="878.599" cy="30.0016" r="4" fill="#0" id="circle227"/>
	<circle cx="878.599" cy="99.3392" r="4" fill="#0" id="circle228"/>
	<circle cx="886.478" cy="30.7895" r="4" fill="#0" id="circle229"/>
	<circle cx="886.478" cy="99.3392" r="4" fill="#0" id="circle230"/>
	<circle cx="894.357" cy="30.7895" r="4" fill="#0" id="circle231"/>
	<circle cx="894.357" cy="100.915" r="4" fill="#0" id="circle232"/>
	<circle cx="901.449" cy="34.7292" r="4" fill="#0" id="circle233"/>
	<circle cx="902.237" cy="103.279" r="4" fill="#0" id="circle234"/>
	<circle cx="909.328" cy="31.5774" r="4" fill="#0" id="circle235"/>
	<circle cx="910.116" cy="104.067" r="4" fill="#0" id="circle236"/>
	<circle cx="916.419" cy="98.5512" r="4" fill="#0" id="circle237"/>
	<circle cx="917.207" cy="32.3654" r="4" fill="#0" id="circle238"/>
	<circle cx="921.147" cy="104.855" r="4" fill="#0" id="circle239"/>
	<circle cx="923.511" cy="112.734" r="4" fill="#0" id="circle240"/>
	<circle cx="925.087" cy="31.5774" r="4" fill="#0" id="circle241"/>
	<circle cx="929.814" cy="117.461" r="4" fill="#0" id="circle242"/>
	<circle cx="932.178" cy="35.5171" r="4" fill="#0" id="circle243"/>
	<circle cx="936.118" cy="122.189" r="4" fill="#0" id="circle244"/>
	<circle cx="940.057" cy="32.3654" r="4" fill="#0" id="circle245"/>
	<circle cx="943.209" cy="126.129" r="4" fill="#0" id="circle246"/>
	<circle cx="947.936" cy="33.1533" r="4" fill="#0" id="circle247"/>
	<circle cx="951.088" cy="124.553" r="4" fill="#0" id="circle248"/>
	<circle cx="955.816" cy="33.9412" r="4" fill="#0" id="circle249"/>
	<circle cx="958.18" cy="120.613" r="4" fill="#0" id="circle250"/>
	<circle cx="963.695" cy="35.5171" r="4" fill="#0" id="circle251"/>
	<circle cx="966.059" cy="117.461" r="4" fill="#0" id="circle252"/>
	<circle cx="970.786" cy="39.4567" r="4" fill="#0" id="circle253"/>
	<circle cx="972.362" cy="111.946" r="4" fill="#0" id="circle254"/>
	<circle cx="978.666" cy="42.6084" r="4" fill="#0" id="circle255"/>
	<circle cx="979.454" cy="108.006" r="4" fill="#0" id="circle256"/>
	<circle cx="984.181" cy="100.915" r="4" fill="#0" id="circle257"/>
	<circle cx="984.969" cy="47.336" r="4" fill="#0" id="circle258"/>
	<circle cx="989.697" cy="53.6394" r="4" fill="#0" id="circle259"/>
	<circle cx="990.485" cy="95.3995" r="4" fill="#0" id="circle260"/>
	<circle cx="992.848" cy="85.9444" r="4" fill="#0" id="circle261"/>
	<circle cx="994.424" cy="59.9428" r="4" fill="#0" id="circle262"/>
	<circle cx="995.212" cy="78.0651" r="4" fill="#0" id="circle263"/>
	<circle cx="996" cy="69.3979" r="4" fill="#0" id="circle264"/>
	</g>
</svg>