<?xml version="1.0" encoding="UTF-8" standalone="no"?>
<!-- Created with CurveBenchmark -->
<svg
	xmlns:dc="http://purl.org/dc/elements/1.1/"
	xmlns:cc="http://creativecommons.org/ns#"
	xmlns:rdf="http://www.w3.org/1999/02/22-rdf-syntax-ns#"
	xmlns:svg="http://www.w3.org/2000/svg"
	xmlns="http://www.w3.org/2000/svg"
	xmlns:sodipodi="http://sodipodi.sourceforge.net/DTD/sodipodi-0.dtd"
	xmlns:inkscape="http://www.inkscape.org/namespaces/inkscape"
	width="1000"
	height="1000"
	id="svg2"
	version="1.1"
	sodipodi:docname="manifold/crust-hammer065.png.txt">
<defs
	id="defs4" />
<metadata
	id="metadata7">
	<rdf:RDF>
		<cc:Work
			rdf:about="">
			<dc:format>image/svg+xml</dc:format>
			<dc:type
				rdf:resource="http://purl.org/dc/dcmitype/StillImage" />
			<dc:title></dc:title>
		</cc:Work>
	</rdf:RDF>
</metadata>
<g
	inkscape:label="Layer 1"
	inkscape:groupmode="layer"
	id="layer1">
	<path style="fill:none;stroke:red;stroke-width:1px;stroke-linecap:butt;stroke-linejoin:miter;stroke-opacity:1" d="M 9.75072,113.264 4,142.017 z" id="boundary" inkscape:connector-curvature="0" />
	<path style="fill:none;stroke:red;stroke-width:1px;stroke-linecap:butt;stroke-linejoin:miter;stroke-opacity:1" d="M 21.2522,78.7594 9.75072,113.264 z" id="boundary" inkscape:connector-curvature="0" />
	<path style="fill:none;stroke:red;stroke-width:1px;stroke-linecap:butt;stroke-linejoin:miter;stroke-opacity:1" d="M 32.7536,179.397 4,170.771 z" id="boundary" inkscape:connector-curvature="0" />
	<path style="fill:none;stroke:red;stroke-width:1px;stroke-linecap:butt;stroke-linejoin:miter;stroke-opacity:1" d="M 4,170.771 4,142.017 z" id="boundary" inkscape:connector-curvature="0" />
	<path style="fill:none;stroke:red;stroke-width:1px;stroke-linecap:butt;stroke-linejoin:miter;stroke-opacity:1" d="M 50.0058,27.0029 67.258,4 z" id="boundary" inkscape:connector-curvature="0" />
	<path style="fill:none;stroke:red;stroke-width:1px;stroke-linecap:butt;stroke-linejoin:miter;stroke-opacity:1" d="M 67.258,4 96.0116,4 z" id="boundary" inkscape:connector-curvature="0" />
	<path style="fill:none;stroke:red;stroke-width:1px;stroke-linecap:butt;stroke-linejoin:miter;stroke-opacity:1" d="M 35.629,52.8812 50.0058,27.0029 z" id="boundary" inkscape:connector-curvature="0" />
	<path style="fill:none;stroke:red;stroke-width:1px;stroke-linecap:butt;stroke-linejoin:miter;stroke-opacity:1" d="M 21.2522,78.7594 35.629,52.8812 z" id="boundary" inkscape:connector-curvature="0" />
	<path style="fill:none;stroke:red;stroke-width:1px;stroke-linecap:butt;stroke-linejoin:miter;stroke-opacity:1" d="M 61.5072,179.397 32.7536,179.397 z" id="boundary" inkscape:connector-curvature="0" />
	<path style="fill:none;stroke:red;stroke-width:1px;stroke-linecap:butt;stroke-linejoin:miter;stroke-opacity:1" d="M 90.2609,188.023 61.5072,179.397 z" id="boundary" inkscape:connector-curvature="0" />
	<path style="fill:none;stroke:red;stroke-width:1px;stroke-linecap:butt;stroke-linejoin:miter;stroke-opacity:1" d="M 93.1362,216.777 90.2609,188.023 z" id="boundary" inkscape:connector-curvature="0" />
	<path style="fill:none;stroke:red;stroke-width:1px;stroke-linecap:butt;stroke-linejoin:miter;stroke-opacity:1" d="M 93.1362,216.777 96.0116,245.53 z" id="boundary" inkscape:connector-curvature="0" />
	<path style="fill:none;stroke:red;stroke-width:1px;stroke-linecap:butt;stroke-linejoin:miter;stroke-opacity:1" d="M 96.0116,4 124.765,4 z" id="boundary" inkscape:connector-curvature="0" />
	<path style="fill:none;stroke:red;stroke-width:1px;stroke-linecap:butt;stroke-linejoin:miter;stroke-opacity:1" d="M 96.0116,245.53 96.0116,274.284 z" id="boundary" inkscape:connector-curvature="0" />
	<path style="fill:none;stroke:red;stroke-width:1px;stroke-linecap:butt;stroke-linejoin:miter;stroke-opacity:1" d="M 96.0116,303.038 96.0116,274.284 z" id="boundary" inkscape:connector-curvature="0" />
	<path style="fill:none;stroke:red;stroke-width:1px;stroke-linecap:butt;stroke-linejoin:miter;stroke-opacity:1" d="M 96.0116,331.791 96.0116,360.545 z" id="boundary" inkscape:connector-curvature="0" />
	<path style="fill:none;stroke:red;stroke-width:1px;stroke-linecap:butt;stroke-linejoin:miter;stroke-opacity:1" d="M 96.0116,389.299 96.0116,360.545 z" id="boundary" inkscape:connector-curvature="0" />
	<path style="fill:none;stroke:red;stroke-width:1px;stroke-linecap:butt;stroke-linejoin:miter;stroke-opacity:1" d="M 96.0116,331.791 96.0116,303.038 z" id="boundary" inkscape:connector-curvature="0" />
	<path style="fill:none;stroke:red;stroke-width:1px;stroke-linecap:butt;stroke-linejoin:miter;stroke-opacity:1" d="M 96.0116,418.052 96.0116,389.299 z" id="boundary" inkscape:connector-curvature="0" />
	<path style="fill:none;stroke:red;stroke-width:1px;stroke-linecap:butt;stroke-linejoin:miter;stroke-opacity:1" d="M 96.0116,418.052 87.3855,449.681 z" id="boundary" inkscape:connector-curvature="0" />
	<path style="fill:none;stroke:red;stroke-width:1px;stroke-linecap:butt;stroke-linejoin:miter;stroke-opacity:1" d="M 73.0087,504.313 73.0087,533.067 z" id="boundary" inkscape:connector-curvature="0" />
	<path style="fill:none;stroke:red;stroke-width:1px;stroke-linecap:butt;stroke-linejoin:miter;stroke-opacity:1" d="M 73.0087,504.313 73.0087,475.559 z" id="boundary" inkscape:connector-curvature="0" />
	<path style="fill:none;stroke:red;stroke-width:1px;stroke-linecap:butt;stroke-linejoin:miter;stroke-opacity:1" d="M 73.0087,561.82 73.0087,590.574 z" id="boundary" inkscape:connector-curvature="0" />
	<path style="fill:none;stroke:red;stroke-width:1px;stroke-linecap:butt;stroke-linejoin:miter;stroke-opacity:1" d="M 73.0087,648.081 73.0087,619.328 z" id="boundary" inkscape:connector-curvature="0" />
	<path style="fill:none;stroke:red;stroke-width:1px;stroke-linecap:butt;stroke-linejoin:miter;stroke-opacity:1" d="M 73.0087,619.328 73.0087,590.574 z" id="boundary" inkscape:connector-curvature="0" />
	<path style="fill:none;stroke:red;stroke-width:1px;stroke-linecap:butt;stroke-linejoin:miter;stroke-opacity:1" d="M 73.0087,561.82 73.0087,533.067 z" id="boundary" inkscape:connector-curvature="0" />
	<path style="fill:none;stroke:red;stroke-width:1px;stroke-linecap:butt;stroke-linejoin:miter;stroke-opacity:1" d="M 67.258,952.87 67.258,981.623 z" id="boundary" inkscape:connector-curvature="0" />
	<path style="fill:none;stroke:red;stroke-width:1px;stroke-linecap:butt;stroke-linejoin:miter;stroke-opacity:1" d="M 73.0087,906.864 67.258,952.87 z" id="boundary" inkscape:connector-curvature="0" />
	<path style="fill:none;stroke:red;stroke-width:1px;stroke-linecap:butt;stroke-linejoin:miter;stroke-opacity:1" d="M 67.258,981.623 93.1362,996 z" id="boundary" inkscape:connector-curvature="0" />
	<path style="fill:none;stroke:red;stroke-width:1px;stroke-linecap:butt;stroke-linejoin:miter;stroke-opacity:1" d="M 73.0087,648.081 73.0087,676.835 z" id="boundary" inkscape:connector-curvature="0" />
	<path style="fill:none;stroke:red;stroke-width:1px;stroke-linecap:butt;stroke-linejoin:miter;stroke-opacity:1" d="M 73.0087,734.342 73.0087,705.588 z" id="boundary" inkscape:connector-curvature="0" />
	<path style="fill:none;stroke:red;stroke-width:1px;stroke-linecap:butt;stroke-linejoin:miter;stroke-opacity:1" d="M 73.0087,475.559 87.3855,449.681 z" id="boundary" inkscape:connector-curvature="0" />
	<path style="fill:none;stroke:red;stroke-width:1px;stroke-linecap:butt;stroke-linejoin:miter;stroke-opacity:1" d="M 73.0087,676.835 73.0087,705.588 z" id="boundary" inkscape:connector-curvature="0" />
	<path style="fill:none;stroke:red;stroke-width:1px;stroke-linecap:butt;stroke-linejoin:miter;stroke-opacity:1" d="M 73.0087,734.342 73.0087,763.096 z" id="boundary" inkscape:connector-curvature="0" />
	<path style="fill:none;stroke:red;stroke-width:1px;stroke-linecap:butt;stroke-linejoin:miter;stroke-opacity:1" d="M 73.0087,791.849 73.0087,763.096 z" id="boundary" inkscape:connector-curvature="0" />
	<path style="fill:none;stroke:red;stroke-width:1px;stroke-linecap:butt;stroke-linejoin:miter;stroke-opacity:1" d="M 73.0087,820.603 73.0087,849.357 z" id="boundary" inkscape:connector-curvature="0" />
	<path style="fill:none;stroke:red;stroke-width:1px;stroke-linecap:butt;stroke-linejoin:miter;stroke-opacity:1" d="M 73.0087,878.11 73.0087,849.357 z" id="boundary" inkscape:connector-curvature="0" />
	<path style="fill:none;stroke:red;stroke-width:1px;stroke-linecap:butt;stroke-linejoin:miter;stroke-opacity:1" d="M 73.0087,906.864 73.0087,878.11 z" id="boundary" inkscape:connector-curvature="0" />
	<path style="fill:none;stroke:red;stroke-width:1px;stroke-linecap:butt;stroke-linejoin:miter;stroke-opacity:1" d="M 121.89,996 93.1362,996 z" id="boundary" inkscape:connector-curvature="0" />
	<path style="fill:none;stroke:red;stroke-width:1px;stroke-linecap:butt;stroke-linejoin:miter;stroke-opacity:1" d="M 73.0087,820.603 73.0087,791.849 z" id="boundary" inkscape:connector-curvature="0" />
	<path style="fill:none;stroke:red;stroke-width:1px;stroke-linecap:butt;stroke-linejoin:miter;stroke-opacity:1" d="M 190.899,124.765 185.148,159.27 z" id="boundary" inkscape:connector-curvature="0" />
	<path style="fill:none;stroke:red;stroke-width:1px;stroke-linecap:butt;stroke-linejoin:miter;stroke-opacity:1" d="M 124.765,4 153.519,4 z" id="boundary" inkscape:connector-curvature="0" />
	<path style="fill:none;stroke:red;stroke-width:1px;stroke-linecap:butt;stroke-linejoin:miter;stroke-opacity:1" d="M 153.519,4 182.272,4 z" id="boundary" inkscape:connector-curvature="0" />
	<path style="fill:none;stroke:red;stroke-width:1px;stroke-linecap:butt;stroke-linejoin:miter;stroke-opacity:1" d="M 167.896,251.281 167.896,280.035 z" id="boundary" inkscape:connector-curvature="0" />
	<path style="fill:none;stroke:red;stroke-width:1px;stroke-linecap:butt;stroke-linejoin:miter;stroke-opacity:1" d="M 167.896,251.281 173.646,199.525 z" id="boundary" inkscape:connector-curvature="0" />
	<path style="fill:none;stroke:red;stroke-width:1px;stroke-linecap:butt;stroke-linejoin:miter;stroke-opacity:1" d="M 185.148,159.27 173.646,199.525 z" id="boundary" inkscape:connector-curvature="0" />
	<path style="fill:none;stroke:red;stroke-width:1px;stroke-linecap:butt;stroke-linejoin:miter;stroke-opacity:1" d="M 167.896,308.788 167.896,280.035 z" id="boundary" inkscape:connector-curvature="0" />
	<path style="fill:none;stroke:red;stroke-width:1px;stroke-linecap:butt;stroke-linejoin:miter;stroke-opacity:1" d="M 196.649,96.0116 190.899,124.765 z" id="boundary" inkscape:connector-curvature="0" />
	<path style="fill:none;stroke:red;stroke-width:1px;stroke-linecap:butt;stroke-linejoin:miter;stroke-opacity:1" d="M 179.397,452.557 190.899,481.31 z" id="boundary" inkscape:connector-curvature="0" />
	<path style="fill:none;stroke:red;stroke-width:1px;stroke-linecap:butt;stroke-linejoin:miter;stroke-opacity:1" d="M 167.896,337.542 167.896,366.296 z" id="boundary" inkscape:connector-curvature="0" />
	<path style="fill:none;stroke:red;stroke-width:1px;stroke-linecap:butt;stroke-linejoin:miter;stroke-opacity:1" d="M 167.896,395.049 167.896,366.296 z" id="boundary" inkscape:connector-curvature="0" />
	<path style="fill:none;stroke:red;stroke-width:1px;stroke-linecap:butt;stroke-linejoin:miter;stroke-opacity:1" d="M 167.896,395.049 170.771,423.803 z" id="boundary" inkscape:connector-curvature="0" />
	<path style="fill:none;stroke:red;stroke-width:1px;stroke-linecap:butt;stroke-linejoin:miter;stroke-opacity:1" d="M 170.771,423.803 179.397,452.557 z" id="boundary" inkscape:connector-curvature="0" />
	<path style="fill:none;stroke:red;stroke-width:1px;stroke-linecap:butt;stroke-linejoin:miter;stroke-opacity:1" d="M 167.896,337.542 167.896,308.788 z" id="boundary" inkscape:connector-curvature="0" />
	<path style="fill:none;stroke:red;stroke-width:1px;stroke-linecap:butt;stroke-linejoin:miter;stroke-opacity:1" d="M 225.403,87.3855 196.649,96.0116 z" id="boundary" inkscape:connector-curvature="0" />
	<path style="fill:none;stroke:red;stroke-width:1px;stroke-linecap:butt;stroke-linejoin:miter;stroke-opacity:1" d="M 211.026,4 236.904,18.3768 z" id="boundary" inkscape:connector-curvature="0" />
	<path style="fill:none;stroke:red;stroke-width:1px;stroke-linecap:butt;stroke-linejoin:miter;stroke-opacity:1" d="M 182.272,4 211.026,4 z" id="boundary" inkscape:connector-curvature="0" />
	<path style="fill:none;stroke:red;stroke-width:1px;stroke-linecap:butt;stroke-linejoin:miter;stroke-opacity:1" d="M 245.53,64.3826 225.403,87.3855 z" id="boundary" inkscape:connector-curvature="0" />
	<path style="fill:none;stroke:red;stroke-width:1px;stroke-linecap:butt;stroke-linejoin:miter;stroke-opacity:1" d="M 245.53,64.3826 236.904,18.3768 z" id="boundary" inkscape:connector-curvature="0" />
	<path style="fill:none;stroke:red;stroke-width:1px;stroke-linecap:butt;stroke-linejoin:miter;stroke-opacity:1" d="M 193.774,510.064 190.899,481.31 z" id="boundary" inkscape:connector-curvature="0" />
	<path style="fill:none;stroke:red;stroke-width:1px;stroke-linecap:butt;stroke-linejoin:miter;stroke-opacity:1" d="M 196.649,538.817 193.774,510.064 z" id="boundary" inkscape:connector-curvature="0" />
	<path style="fill:none;stroke:red;stroke-width:1px;stroke-linecap:butt;stroke-linejoin:miter;stroke-opacity:1" d="M 196.649,711.339 190.899,763.096 z" id="boundary" inkscape:connector-curvature="0" />
	<path style="fill:none;stroke:red;stroke-width:1px;stroke-linecap:butt;stroke-linejoin:miter;stroke-opacity:1" d="M 190.899,791.849 190.899,820.603 z" id="boundary" inkscape:connector-curvature="0" />
	<path style="fill:none;stroke:red;stroke-width:1px;stroke-linecap:butt;stroke-linejoin:miter;stroke-opacity:1" d="M 190.899,820.603 190.899,849.357 z" id="boundary" inkscape:connector-curvature="0" />
	<path style="fill:none;stroke:red;stroke-width:1px;stroke-linecap:butt;stroke-linejoin:miter;stroke-opacity:1" d="M 190.899,791.849 190.899,763.096 z" id="boundary" inkscape:connector-curvature="0" />
	<path style="fill:none;stroke:red;stroke-width:1px;stroke-linecap:butt;stroke-linejoin:miter;stroke-opacity:1" d="M 150.643,996 121.89,996 z" id="boundary" inkscape:connector-curvature="0" />
	<path style="fill:none;stroke:red;stroke-width:1px;stroke-linecap:butt;stroke-linejoin:miter;stroke-opacity:1" d="M 179.397,996 150.643,996 z" id="boundary" inkscape:connector-curvature="0" />
	<path style="fill:none;stroke:red;stroke-width:1px;stroke-linecap:butt;stroke-linejoin:miter;stroke-opacity:1" d="M 196.649,964.371 179.397,996 z" id="boundary" inkscape:connector-curvature="0" />
	<path style="fill:none;stroke:red;stroke-width:1px;stroke-linecap:butt;stroke-linejoin:miter;stroke-opacity:1" d="M 196.649,567.571 196.649,596.325 z" id="boundary" inkscape:connector-curvature="0" />
	<path style="fill:none;stroke:red;stroke-width:1px;stroke-linecap:butt;stroke-linejoin:miter;stroke-opacity:1" d="M 196.649,567.571 196.649,538.817 z" id="boundary" inkscape:connector-curvature="0" />
	<path style="fill:none;stroke:red;stroke-width:1px;stroke-linecap:butt;stroke-linejoin:miter;stroke-opacity:1" d="M 196.649,596.325 196.649,625.078 z" id="boundary" inkscape:connector-curvature="0" />
	<path style="fill:none;stroke:red;stroke-width:1px;stroke-linecap:butt;stroke-linejoin:miter;stroke-opacity:1" d="M 196.649,653.832 196.649,682.586 z" id="boundary" inkscape:connector-curvature="0" />
	<path style="fill:none;stroke:red;stroke-width:1px;stroke-linecap:butt;stroke-linejoin:miter;stroke-opacity:1" d="M 196.649,653.832 196.649,625.078 z" id="boundary" inkscape:connector-curvature="0" />
	<path style="fill:none;stroke:red;stroke-width:1px;stroke-linecap:butt;stroke-linejoin:miter;stroke-opacity:1" d="M 196.649,682.586 196.649,711.339 z" id="boundary" inkscape:connector-curvature="0" />
	<path style="fill:none;stroke:red;stroke-width:1px;stroke-linecap:butt;stroke-linejoin:miter;stroke-opacity:1" d="M 196.649,878.11 190.899,849.357 z" id="boundary" inkscape:connector-curvature="0" />
	<path style="fill:none;stroke:red;stroke-width:1px;stroke-linecap:butt;stroke-linejoin:miter;stroke-opacity:1" d="M 196.649,906.864 196.649,878.11 z" id="boundary" inkscape:connector-curvature="0" />
	<path style="fill:none;stroke:red;stroke-width:1px;stroke-linecap:butt;stroke-linejoin:miter;stroke-opacity:1" d="M 196.649,906.864 196.649,935.617 z" id="boundary" inkscape:connector-curvature="0" />
	<path style="fill:none;stroke:red;stroke-width:1px;stroke-linecap:butt;stroke-linejoin:miter;stroke-opacity:1" d="M 196.649,964.371 196.649,935.617 z" id="boundary" inkscape:connector-curvature="0" />
	<circle cx="4" cy="142.017" r="4" fill="#0" id="circle0"/>
	<circle cx="4" cy="170.771" r="4" fill="#0" id="circle1"/>
	<circle cx="9.75072" cy="113.264" r="4" fill="#0" id="circle2"/>
	<circle cx="21.2522" cy="78.7594" r="4" fill="#0" id="circle3"/>
	<circle cx="32.7536" cy="179.397" r="4" fill="#0" id="circle4"/>
	<circle cx="35.629" cy="52.8812" r="4" fill="#0" id="circle5"/>
	<circle cx="50.0058" cy="27.0029" r="4" fill="#0" id="circle6"/>
	<circle cx="61.5072" cy="179.397" r="4" fill="#0" id="circle7"/>
	<circle cx="67.258" cy="4" r="4" fill="#0" id="circle8"/>
	<circle cx="67.258" cy="952.87" r="4" fill="#0" id="circle9"/>
	<circle cx="67.258" cy="981.623" r="4" fill="#0" id="circle10"/>
	<circle cx="73.0087" cy="475.559" r="4" fill="#0" id="circle11"/>
	<circle cx="73.0087" cy="504.313" r="4" fill="#0" id="circle12"/>
	<circle cx="73.0087" cy="533.067" r="4" fill="#0" id="circle13"/>
	<circle cx="73.0087" cy="561.82" r="4" fill="#0" id="circle14"/>
	<circle cx="73.0087" cy="590.574" r="4" fill="#0" id="circle15"/>
	<circle cx="73.0087" cy="619.328" r="4" fill="#0" id="circle16"/>
	<circle cx="73.0087" cy="648.081" r="4" fill="#0" id="circle17"/>
	<circle cx="73.0087" cy="676.835" r="4" fill="#0" id="circle18"/>
	<circle cx="73.0087" cy="705.588" r="4" fill="#0" id="circle19"/>
	<circle cx="73.0087" cy="734.342" r="4" fill="#0" id="circle20"/>
	<circle cx="73.0087" cy="763.096" r="4" fill="#0" id="circle21"/>
	<circle cx="73.0087" cy="791.849" r="4" fill="#0" id="circle22"/>
	<circle cx="73.0087" cy="820.603" r="4" fill="#0" id="circle23"/>
	<circle cx="73.0087" cy="849.357" r="4" fill="#0" id="circle24"/>
	<circle cx="73.0087" cy="878.11" r="4" fill="#0" id="circle25"/>
	<circle cx="73.0087" cy="906.864" r="4" fill="#0" id="circle26"/>
	<circle cx="87.3855" cy="449.681" r="4" fill="#0" id="circle27"/>
	<circle cx="90.2609" cy="188.023" r="4" fill="#0" id="circle28"/>
	<circle cx="93.1362" cy="216.777" r="4" fill="#0" id="circle29"/>
	<circle cx="93.1362" cy="996" r="4" fill="#0" id="circle30"/>
	<circle cx="96.0116" cy="4" r="4" fill="#0" id="circle31"/>
	<circle cx="96.0116" cy="245.53" r="4" fill="#0" id="circle32"/>
	<circle cx="96.0116" cy="274.284" r="4" fill="#0" id="circle33"/>
	<circle cx="96.0116" cy="303.038" r="4" fill="#0" id="circle34"/>
	<circle cx="96.0116" cy="331.791" r="4" fill="#0" id="circle35"/>
	<circle cx="96.0116" cy="360.545" r="4" fill="#0" id="circle36"/>
	<circle cx="96.0116" cy="389.299" r="4" fill="#0" id="circle37"/>
	<circle cx="96.0116" cy="418.052" r="4" fill="#0" id="circle38"/>
	<circle cx="121.89" cy="996" r="4" fill="#0" id="circle39"/>
	<circle cx="124.765" cy="4" r="4" fill="#0" id="circle40"/>
	<circle cx="150.643" cy="996" r="4" fill="#0" id="circle41"/>
	<circle cx="153.519" cy="4" r="4" fill="#0" id="circle42"/>
	<circle cx="167.896" cy="251.281" r="4" fill="#0" id="circle43"/>
	<circle cx="167.896" cy="280.035" r="4" fill="#0" id="circle44"/>
	<circle cx="167.896" cy="308.788" r="4" fill="#0" id="circle45"/>
	<circle cx="167.896" cy="337.542" r="4" fill="#0" id="circle46"/>
	<circle cx="167.896" cy="366.296" r="4" fill="#0" id="circle47"/>
	<circle cx="167.896" cy="395.049" r="4" fill="#0" id="circle48"/>
	<circle cx="170.771" cy="423.803" r="4" fill="#0" id="circle49"/>
	<circle cx="173.646" cy="199.525" r="4" fill="#0" id="circle50"/>
	<circle cx="179.397" cy="452.557" r="4" fill="#0" id="circle51"/>
	<circle cx="179.397" cy="996" r="4" fill="#0" id="circle52"/>
	<circle cx="182.272" cy="4" r="4" fill="#0" id="circle53"/>
	<circle cx="185.148" cy="159.27" r="4" fill="#0" id="circle54"/>
	<circle cx="190.899" cy="124.765" r="4" fill="#0" id="circle55"/>
	<circle cx="190.899" cy="481.31" r="4" fill="#0" id="circle56"/>
	<circle cx="190.899" cy="763.096" r="4" fill="#0" id="circle57"/>
	<circle cx="190.899" cy="791.849" r="4" fill="#0" id="circle58"/>
	<circle cx="190.899" cy="820.603" r="4" fill="#0" id="circle59"/>
	<circle cx="190.899" cy="849.357" r="4" fill="#0" id="circle60"/>
	<circle cx="193.774" cy="510.064" r="4" fill="#0" id="circle61"/>
	<circle cx="196.649" cy="96.0116" r="4" fill="#0" id="circle62"/>
	<circle cx="196.649" cy="538.817" r="4" fill="#0" id="circle63"/>
	<circle cx="196.649" cy="567.571" r="4" fill="#0" id="circle64"/>
	<circle cx="196.649" cy="596.325" r="4" fill="#0" id="circle65"/>
	<circle cx="196.649" cy="625.078" r="4" fill="#0" id="circle66"/>
	<circle cx="196.649" cy="653.832" r="4" fill="#0" id="circle67"/>
	<circle cx="196.649" cy="682.586" r="4" fill="#0" id="circle68"/>
	<circle cx="196.649" cy="711.339" r="4" fill="#0" id="circle69"/>
	<circle cx="196.649" cy="878.11" r="4" fill="#0" id="circle70"/>
	<circle cx="196.649" cy="906.864" r="4" fill="#0" id="circle71"/>
	<circle cx="196.649" cy="935.617" r="4" fill="#0" id="circle72"/>
	<circle cx="196.649" cy="964.371" r="4" fill="#0" id="circle73"/>
	<circle cx="211.026" cy="4" r="4" fill="#0" id="circle74"/>
	<circle cx="225.403" cy="87.3855" r="4" fill="#0" id="circle75"/>
	<circle cx="236.904" cy="18.3768" r="4" fill="#0" id="circle76"/>
	<circle cx="245.53" cy="64.3826" r="4" fill="#0" id="circle77"/>
	</g>
</svg>