<?xml version="1.0" encoding="UTF-8" standalone="no"?>
<!-- Created with CurveBenchmark -->
<svg
	xmlns:dc="http://purl.org/dc/elements/1.1/"
	xmlns:cc="http://creativecommons.org/ns#"
	xmlns:rdf="http://www.w3.org/1999/02/22-rdf-syntax-ns#"
	xmlns:svg="http://www.w3.org/2000/svg"
	xmlns="http://www.w3.org/2000/svg"
	xmlns:sodipodi="http://sodipodi.sourceforge.net/DTD/sodipodi-0.dtd"
	xmlns:inkscape="http://www.inkscape.org/namespaces/inkscape"
	width="1000"
	height="1000"
	id="svg2"
	version="1.1"
	sodipodi:docname="manifold/crust-hammer-5.png.txt">
<defs
	id="defs4" />
<metadata
	id="metadata7">
	<rdf:RDF>
		<cc:Work
			rdf:about="">
			<dc:format>image/svg+xml</dc:format>
			<dc:type
				rdf:resource="http://purl.org/dc/dcmitype/StillImage" />
			<dc:title></dc:title>
		</cc:Work>
	</rdf:RDF>
</metadata>
<g
	inkscape:label="Layer 1"
	inkscape:groupmode="layer"
	id="layer1">
	<path style="fill:none;stroke:red;stroke-width:1px;stroke-linecap:butt;stroke-linejoin:miter;stroke-opacity:1" d="M 13.1767,146.239 22.3534,146.239 z" id="boundary" inkscape:connector-curvature="0" />
	<path style="fill:none;stroke:red;stroke-width:1px;stroke-linecap:butt;stroke-linejoin:miter;stroke-opacity:1" d="M 31.5301,146.239 22.3534,146.239 z" id="boundary" inkscape:connector-curvature="0" />
	<path style="fill:none;stroke:red;stroke-width:1px;stroke-linecap:butt;stroke-linejoin:miter;stroke-opacity:1" d="M 40.7068,146.239 49.8834,146.239 z" id="boundary" inkscape:connector-curvature="0" />
	<path style="fill:none;stroke:red;stroke-width:1px;stroke-linecap:butt;stroke-linejoin:miter;stroke-opacity:1" d="M 59.0601,146.239 49.8834,146.239 z" id="boundary" inkscape:connector-curvature="0" />
	<path style="fill:none;stroke:red;stroke-width:1px;stroke-linecap:butt;stroke-linejoin:miter;stroke-opacity:1" d="M 40.7068,146.239 31.5301,146.239 z" id="boundary" inkscape:connector-curvature="0" />
	<path style="fill:none;stroke:red;stroke-width:1px;stroke-linecap:butt;stroke-linejoin:miter;stroke-opacity:1" d="M 68.2368,146.239 77.4135,146.239 z" id="boundary" inkscape:connector-curvature="0" />
	<path style="fill:none;stroke:red;stroke-width:1px;stroke-linecap:butt;stroke-linejoin:miter;stroke-opacity:1" d="M 86.5902,146.239 77.4135,146.239 z" id="boundary" inkscape:connector-curvature="0" />
	<path style="fill:none;stroke:red;stroke-width:1px;stroke-linecap:butt;stroke-linejoin:miter;stroke-opacity:1" d="M 95.7669,146.239 104.944,146.239 z" id="boundary" inkscape:connector-curvature="0" />
	<path style="fill:none;stroke:red;stroke-width:1px;stroke-linecap:butt;stroke-linejoin:miter;stroke-opacity:1" d="M 114.12,146.239 123.297,146.239 z" id="boundary" inkscape:connector-curvature="0" />
	<path style="fill:none;stroke:red;stroke-width:1px;stroke-linecap:butt;stroke-linejoin:miter;stroke-opacity:1" d="M 114.12,146.239 104.944,146.239 z" id="boundary" inkscape:connector-curvature="0" />
	<path style="fill:none;stroke:red;stroke-width:1px;stroke-linecap:butt;stroke-linejoin:miter;stroke-opacity:1" d="M 95.7669,146.239 86.5902,146.239 z" id="boundary" inkscape:connector-curvature="0" />
	<path style="fill:none;stroke:red;stroke-width:1px;stroke-linecap:butt;stroke-linejoin:miter;stroke-opacity:1" d="M 68.2368,146.239 59.0601,146.239 z" id="boundary" inkscape:connector-curvature="0" />
	<path style="fill:none;stroke:red;stroke-width:1px;stroke-linecap:butt;stroke-linejoin:miter;stroke-opacity:1" d="M 13.1767,146.239 4,148.992 z" id="boundary" inkscape:connector-curvature="0" />
	<path style="fill:none;stroke:red;stroke-width:1px;stroke-linecap:butt;stroke-linejoin:miter;stroke-opacity:1" d="M 132.474,146.239 141.65,146.239 z" id="boundary" inkscape:connector-curvature="0" />
	<path style="fill:none;stroke:red;stroke-width:1px;stroke-linecap:butt;stroke-linejoin:miter;stroke-opacity:1" d="M 150.827,146.239 141.65,146.239 z" id="boundary" inkscape:connector-curvature="0" />
	<path style="fill:none;stroke:red;stroke-width:1px;stroke-linecap:butt;stroke-linejoin:miter;stroke-opacity:1" d="M 160.004,146.239 169.18,146.239 z" id="boundary" inkscape:connector-curvature="0" />
	<path style="fill:none;stroke:red;stroke-width:1px;stroke-linecap:butt;stroke-linejoin:miter;stroke-opacity:1" d="M 178.357,146.239 187.534,146.239 z" id="boundary" inkscape:connector-curvature="0" />
	<path style="fill:none;stroke:red;stroke-width:1px;stroke-linecap:butt;stroke-linejoin:miter;stroke-opacity:1" d="M 178.357,146.239 169.18,146.239 z" id="boundary" inkscape:connector-curvature="0" />
	<path style="fill:none;stroke:red;stroke-width:1px;stroke-linecap:butt;stroke-linejoin:miter;stroke-opacity:1" d="M 160.004,146.239 150.827,146.239 z" id="boundary" inkscape:connector-curvature="0" />
	<path style="fill:none;stroke:red;stroke-width:1px;stroke-linecap:butt;stroke-linejoin:miter;stroke-opacity:1" d="M 132.474,146.239 123.297,146.239 z" id="boundary" inkscape:connector-curvature="0" />
	<path style="fill:none;stroke:red;stroke-width:1px;stroke-linecap:butt;stroke-linejoin:miter;stroke-opacity:1" d="M 196.71,146.239 187.534,146.239 z" id="boundary" inkscape:connector-curvature="0" />
	<path style="fill:none;stroke:red;stroke-width:1px;stroke-linecap:butt;stroke-linejoin:miter;stroke-opacity:1" d="M 205.887,146.239 196.71,146.239 z" id="boundary" inkscape:connector-curvature="0" />
	<path style="fill:none;stroke:red;stroke-width:1px;stroke-linecap:butt;stroke-linejoin:miter;stroke-opacity:1" d="M 4,158.168 4,148.992 z" id="boundary" inkscape:connector-curvature="0" />
	<path style="fill:none;stroke:red;stroke-width:1px;stroke-linecap:butt;stroke-linejoin:miter;stroke-opacity:1" d="M 4,167.345 4,158.168 z" id="boundary" inkscape:connector-curvature="0" />
	<path style="fill:none;stroke:red;stroke-width:1px;stroke-linecap:butt;stroke-linejoin:miter;stroke-opacity:1" d="M 4,167.345 4,176.522 z" id="boundary" inkscape:connector-curvature="0" />
	<path style="fill:none;stroke:red;stroke-width:1px;stroke-linecap:butt;stroke-linejoin:miter;stroke-opacity:1" d="M 4,185.698 4,176.522 z" id="boundary" inkscape:connector-curvature="0" />
	<path style="fill:none;stroke:red;stroke-width:1px;stroke-linecap:butt;stroke-linejoin:miter;stroke-opacity:1" d="M 4,194.875 4,185.698 z" id="boundary" inkscape:connector-curvature="0" />
	<path style="fill:none;stroke:red;stroke-width:1px;stroke-linecap:butt;stroke-linejoin:miter;stroke-opacity:1" d="M 4,204.052 4,194.875 z" id="boundary" inkscape:connector-curvature="0" />
	<path style="fill:none;stroke:red;stroke-width:1px;stroke-linecap:butt;stroke-linejoin:miter;stroke-opacity:1" d="M 215.064,146.239 205.887,146.239 z" id="boundary" inkscape:connector-curvature="0" />
	<path style="fill:none;stroke:red;stroke-width:1px;stroke-linecap:butt;stroke-linejoin:miter;stroke-opacity:1" d="M 224.241,146.239 215.064,146.239 z" id="boundary" inkscape:connector-curvature="0" />
	<path style="fill:none;stroke:red;stroke-width:1px;stroke-linecap:butt;stroke-linejoin:miter;stroke-opacity:1" d="M 224.241,146.239 233.417,146.239 z" id="boundary" inkscape:connector-curvature="0" />
	<path style="fill:none;stroke:red;stroke-width:1px;stroke-linecap:butt;stroke-linejoin:miter;stroke-opacity:1" d="M 242.594,146.239 233.417,146.239 z" id="boundary" inkscape:connector-curvature="0" />
	<path style="fill:none;stroke:red;stroke-width:1px;stroke-linecap:butt;stroke-linejoin:miter;stroke-opacity:1" d="M 251.771,146.239 242.594,146.239 z" id="boundary" inkscape:connector-curvature="0" />
	<path style="fill:none;stroke:red;stroke-width:1px;stroke-linecap:butt;stroke-linejoin:miter;stroke-opacity:1" d="M 251.771,146.239 260.947,146.239 z" id="boundary" inkscape:connector-curvature="0" />
	<path style="fill:none;stroke:red;stroke-width:1px;stroke-linecap:butt;stroke-linejoin:miter;stroke-opacity:1" d="M 270.124,146.239 260.947,146.239 z" id="boundary" inkscape:connector-curvature="0" />
	<path style="fill:none;stroke:red;stroke-width:1px;stroke-linecap:butt;stroke-linejoin:miter;stroke-opacity:1" d="M 270.124,146.239 279.301,146.239 z" id="boundary" inkscape:connector-curvature="0" />
	<path style="fill:none;stroke:red;stroke-width:1px;stroke-linecap:butt;stroke-linejoin:miter;stroke-opacity:1" d="M 288.477,146.239 279.301,146.239 z" id="boundary" inkscape:connector-curvature="0" />
	<path style="fill:none;stroke:red;stroke-width:1px;stroke-linecap:butt;stroke-linejoin:miter;stroke-opacity:1" d="M 288.477,146.239 297.654,146.239 z" id="boundary" inkscape:connector-curvature="0" />
	<path style="fill:none;stroke:red;stroke-width:1px;stroke-linecap:butt;stroke-linejoin:miter;stroke-opacity:1" d="M 297.654,146.239 306.831,146.239 z" id="boundary" inkscape:connector-curvature="0" />
	<path style="fill:none;stroke:red;stroke-width:1px;stroke-linecap:butt;stroke-linejoin:miter;stroke-opacity:1" d="M 316.007,146.239 306.831,146.239 z" id="boundary" inkscape:connector-curvature="0" />
	<path style="fill:none;stroke:red;stroke-width:1px;stroke-linecap:butt;stroke-linejoin:miter;stroke-opacity:1" d="M 325.184,146.239 334.361,146.239 z" id="boundary" inkscape:connector-curvature="0" />
	<path style="fill:none;stroke:red;stroke-width:1px;stroke-linecap:butt;stroke-linejoin:miter;stroke-opacity:1" d="M 343.537,146.239 334.361,146.239 z" id="boundary" inkscape:connector-curvature="0" />
	<path style="fill:none;stroke:red;stroke-width:1px;stroke-linecap:butt;stroke-linejoin:miter;stroke-opacity:1" d="M 325.184,146.239 316.007,146.239 z" id="boundary" inkscape:connector-curvature="0" />
	<path style="fill:none;stroke:red;stroke-width:1px;stroke-linecap:butt;stroke-linejoin:miter;stroke-opacity:1" d="M 352.714,146.239 361.891,146.239 z" id="boundary" inkscape:connector-curvature="0" />
	<path style="fill:none;stroke:red;stroke-width:1px;stroke-linecap:butt;stroke-linejoin:miter;stroke-opacity:1" d="M 371.068,146.239 361.891,146.239 z" id="boundary" inkscape:connector-curvature="0" />
	<path style="fill:none;stroke:red;stroke-width:1px;stroke-linecap:butt;stroke-linejoin:miter;stroke-opacity:1" d="M 380.244,146.239 389.421,146.239 z" id="boundary" inkscape:connector-curvature="0" />
	<path style="fill:none;stroke:red;stroke-width:1px;stroke-linecap:butt;stroke-linejoin:miter;stroke-opacity:1" d="M 398.598,146.239 407.774,146.239 z" id="boundary" inkscape:connector-curvature="0" />
	<path style="fill:none;stroke:red;stroke-width:1px;stroke-linecap:butt;stroke-linejoin:miter;stroke-opacity:1" d="M 398.598,146.239 389.421,146.239 z" id="boundary" inkscape:connector-curvature="0" />
	<path style="fill:none;stroke:red;stroke-width:1px;stroke-linecap:butt;stroke-linejoin:miter;stroke-opacity:1" d="M 380.244,146.239 371.068,146.239 z" id="boundary" inkscape:connector-curvature="0" />
	<path style="fill:none;stroke:red;stroke-width:1px;stroke-linecap:butt;stroke-linejoin:miter;stroke-opacity:1" d="M 352.714,146.239 343.537,146.239 z" id="boundary" inkscape:connector-curvature="0" />
	<path style="fill:none;stroke:red;stroke-width:1px;stroke-linecap:butt;stroke-linejoin:miter;stroke-opacity:1" d="M 416.951,146.239 407.774,146.239 z" id="boundary" inkscape:connector-curvature="0" />
	<path style="fill:none;stroke:red;stroke-width:1px;stroke-linecap:butt;stroke-linejoin:miter;stroke-opacity:1" d="M 426.128,146.239 416.951,146.239 z" id="boundary" inkscape:connector-curvature="0" />
	<path style="fill:none;stroke:red;stroke-width:1px;stroke-linecap:butt;stroke-linejoin:miter;stroke-opacity:1" d="M 426.128,146.239 435.304,146.239 z" id="boundary" inkscape:connector-curvature="0" />
	<path style="fill:none;stroke:red;stroke-width:1px;stroke-linecap:butt;stroke-linejoin:miter;stroke-opacity:1" d="M 444.481,146.239 453.658,146.239 z" id="boundary" inkscape:connector-curvature="0" />
	<path style="fill:none;stroke:red;stroke-width:1px;stroke-linecap:butt;stroke-linejoin:miter;stroke-opacity:1" d="M 444.481,146.239 435.304,146.239 z" id="boundary" inkscape:connector-curvature="0" />
	<path style="fill:none;stroke:red;stroke-width:1px;stroke-linecap:butt;stroke-linejoin:miter;stroke-opacity:1" d="M 462.834,146.239 453.658,146.239 z" id="boundary" inkscape:connector-curvature="0" />
	<path style="fill:none;stroke:red;stroke-width:1px;stroke-linecap:butt;stroke-linejoin:miter;stroke-opacity:1" d="M 472.011,146.239 462.834,146.239 z" id="boundary" inkscape:connector-curvature="0" />
	<path style="fill:none;stroke:red;stroke-width:1px;stroke-linecap:butt;stroke-linejoin:miter;stroke-opacity:1" d="M 481.188,146.239 472.011,146.239 z" id="boundary" inkscape:connector-curvature="0" />
	<path style="fill:none;stroke:red;stroke-width:1px;stroke-linecap:butt;stroke-linejoin:miter;stroke-opacity:1" d="M 481.188,146.239 490.364,146.239 z" id="boundary" inkscape:connector-curvature="0" />
	<path style="fill:none;stroke:red;stroke-width:1px;stroke-linecap:butt;stroke-linejoin:miter;stroke-opacity:1" d="M 490.364,146.239 499.541,146.239 z" id="boundary" inkscape:connector-curvature="0" />
	<path style="fill:none;stroke:red;stroke-width:1px;stroke-linecap:butt;stroke-linejoin:miter;stroke-opacity:1" d="M 499.541,146.239 508.718,146.239 z" id="boundary" inkscape:connector-curvature="0" />
	<path style="fill:none;stroke:red;stroke-width:1px;stroke-linecap:butt;stroke-linejoin:miter;stroke-opacity:1" d="M 517.895,146.239 508.718,146.239 z" id="boundary" inkscape:connector-curvature="0" />
	<path style="fill:none;stroke:red;stroke-width:1px;stroke-linecap:butt;stroke-linejoin:miter;stroke-opacity:1" d="M 527.071,146.239 536.248,146.239 z" id="boundary" inkscape:connector-curvature="0" />
	<path style="fill:none;stroke:red;stroke-width:1px;stroke-linecap:butt;stroke-linejoin:miter;stroke-opacity:1" d="M 545.425,146.239 536.248,146.239 z" id="boundary" inkscape:connector-curvature="0" />
	<path style="fill:none;stroke:red;stroke-width:1px;stroke-linecap:butt;stroke-linejoin:miter;stroke-opacity:1" d="M 527.071,146.239 517.895,146.239 z" id="boundary" inkscape:connector-curvature="0" />
	<path style="fill:none;stroke:red;stroke-width:1px;stroke-linecap:butt;stroke-linejoin:miter;stroke-opacity:1" d="M 554.601,146.239 563.778,146.239 z" id="boundary" inkscape:connector-curvature="0" />
	<path style="fill:none;stroke:red;stroke-width:1px;stroke-linecap:butt;stroke-linejoin:miter;stroke-opacity:1" d="M 572.955,146.239 563.778,146.239 z" id="boundary" inkscape:connector-curvature="0" />
	<path style="fill:none;stroke:red;stroke-width:1px;stroke-linecap:butt;stroke-linejoin:miter;stroke-opacity:1" d="M 582.131,146.239 591.308,146.239 z" id="boundary" inkscape:connector-curvature="0" />
	<path style="fill:none;stroke:red;stroke-width:1px;stroke-linecap:butt;stroke-linejoin:miter;stroke-opacity:1" d="M 600.485,146.239 609.661,146.239 z" id="boundary" inkscape:connector-curvature="0" />
	<path style="fill:none;stroke:red;stroke-width:1px;stroke-linecap:butt;stroke-linejoin:miter;stroke-opacity:1" d="M 600.485,146.239 591.308,146.239 z" id="boundary" inkscape:connector-curvature="0" />
	<path style="fill:none;stroke:red;stroke-width:1px;stroke-linecap:butt;stroke-linejoin:miter;stroke-opacity:1" d="M 582.131,146.239 572.955,146.239 z" id="boundary" inkscape:connector-curvature="0" />
	<path style="fill:none;stroke:red;stroke-width:1px;stroke-linecap:butt;stroke-linejoin:miter;stroke-opacity:1" d="M 554.601,146.239 545.425,146.239 z" id="boundary" inkscape:connector-curvature="0" />
	<path style="fill:none;stroke:red;stroke-width:1px;stroke-linecap:butt;stroke-linejoin:miter;stroke-opacity:1" d="M 609.661,146.239 618.838,146.239 z" id="boundary" inkscape:connector-curvature="0" />
	<path style="fill:none;stroke:red;stroke-width:1px;stroke-linecap:butt;stroke-linejoin:miter;stroke-opacity:1" d="M 4,213.228 4,222.405 z" id="boundary" inkscape:connector-curvature="0" />
	<path style="fill:none;stroke:red;stroke-width:1px;stroke-linecap:butt;stroke-linejoin:miter;stroke-opacity:1" d="M 4,222.405 4,231.582 z" id="boundary" inkscape:connector-curvature="0" />
	<path style="fill:none;stroke:red;stroke-width:1px;stroke-linecap:butt;stroke-linejoin:miter;stroke-opacity:1" d="M 4,213.228 4,204.052 z" id="boundary" inkscape:connector-curvature="0" />
	<path style="fill:none;stroke:red;stroke-width:1px;stroke-linecap:butt;stroke-linejoin:miter;stroke-opacity:1" d="M 4,231.582 4,240.759 z" id="boundary" inkscape:connector-curvature="0" />
	<path style="fill:none;stroke:red;stroke-width:1px;stroke-linecap:butt;stroke-linejoin:miter;stroke-opacity:1" d="M 73.7428,257.277 64.5661,257.277 z" id="boundary" inkscape:connector-curvature="0" />
	<path style="fill:none;stroke:red;stroke-width:1px;stroke-linecap:butt;stroke-linejoin:miter;stroke-opacity:1" d="M 4,249.935 4,240.759 z" id="boundary" inkscape:connector-curvature="0" />
	<path style="fill:none;stroke:red;stroke-width:1px;stroke-linecap:butt;stroke-linejoin:miter;stroke-opacity:1" d="M 9.50601,257.277 4,249.935 z" id="boundary" inkscape:connector-curvature="0" />
	<path style="fill:none;stroke:red;stroke-width:1px;stroke-linecap:butt;stroke-linejoin:miter;stroke-opacity:1" d="M 18.6827,257.277 9.50601,257.277 z" id="boundary" inkscape:connector-curvature="0" />
	<path style="fill:none;stroke:red;stroke-width:1px;stroke-linecap:butt;stroke-linejoin:miter;stroke-opacity:1" d="M 27.8594,257.277 18.6827,257.277 z" id="boundary" inkscape:connector-curvature="0" />
	<path style="fill:none;stroke:red;stroke-width:1px;stroke-linecap:butt;stroke-linejoin:miter;stroke-opacity:1" d="M 37.0361,257.277 27.8594,257.277 z" id="boundary" inkscape:connector-curvature="0" />
	<path style="fill:none;stroke:red;stroke-width:1px;stroke-linecap:butt;stroke-linejoin:miter;stroke-opacity:1" d="M 46.2128,257.277 55.3895,257.277 z" id="boundary" inkscape:connector-curvature="0" />
	<path style="fill:none;stroke:red;stroke-width:1px;stroke-linecap:butt;stroke-linejoin:miter;stroke-opacity:1" d="M 46.2128,257.277 37.0361,257.277 z" id="boundary" inkscape:connector-curvature="0" />
	<path style="fill:none;stroke:red;stroke-width:1px;stroke-linecap:butt;stroke-linejoin:miter;stroke-opacity:1" d="M 64.5661,257.277 55.3895,257.277 z" id="boundary" inkscape:connector-curvature="0" />
	<path style="fill:none;stroke:red;stroke-width:1px;stroke-linecap:butt;stroke-linejoin:miter;stroke-opacity:1" d="M 101.273,257.277 92.0962,257.277 z" id="boundary" inkscape:connector-curvature="0" />
	<path style="fill:none;stroke:red;stroke-width:1px;stroke-linecap:butt;stroke-linejoin:miter;stroke-opacity:1" d="M 82.9195,257.277 73.7428,257.277 z" id="boundary" inkscape:connector-curvature="0" />
	<path style="fill:none;stroke:red;stroke-width:1px;stroke-linecap:butt;stroke-linejoin:miter;stroke-opacity:1" d="M 92.0962,257.277 82.9195,257.277 z" id="boundary" inkscape:connector-curvature="0" />
	<path style="fill:none;stroke:red;stroke-width:1px;stroke-linecap:butt;stroke-linejoin:miter;stroke-opacity:1" d="M 110.45,257.277 101.273,257.277 z" id="boundary" inkscape:connector-curvature="0" />
	<path style="fill:none;stroke:red;stroke-width:1px;stroke-linecap:butt;stroke-linejoin:miter;stroke-opacity:1" d="M 119.626,257.277 110.45,257.277 z" id="boundary" inkscape:connector-curvature="0" />
	<path style="fill:none;stroke:red;stroke-width:1px;stroke-linecap:butt;stroke-linejoin:miter;stroke-opacity:1" d="M 128.803,257.277 119.626,257.277 z" id="boundary" inkscape:connector-curvature="0" />
	<path style="fill:none;stroke:red;stroke-width:1px;stroke-linecap:butt;stroke-linejoin:miter;stroke-opacity:1" d="M 147.156,257.277 137.98,257.277 z" id="boundary" inkscape:connector-curvature="0" />
	<path style="fill:none;stroke:red;stroke-width:1px;stroke-linecap:butt;stroke-linejoin:miter;stroke-opacity:1" d="M 156.333,257.277 147.156,257.277 z" id="boundary" inkscape:connector-curvature="0" />
	<path style="fill:none;stroke:red;stroke-width:1px;stroke-linecap:butt;stroke-linejoin:miter;stroke-opacity:1" d="M 128.803,257.277 137.98,257.277 z" id="boundary" inkscape:connector-curvature="0" />
	<path style="fill:none;stroke:red;stroke-width:1px;stroke-linecap:butt;stroke-linejoin:miter;stroke-opacity:1" d="M 165.51,257.277 156.333,257.277 z" id="boundary" inkscape:connector-curvature="0" />
	<path style="fill:none;stroke:red;stroke-width:1px;stroke-linecap:butt;stroke-linejoin:miter;stroke-opacity:1" d="M 165.51,257.277 174.686,257.277 z" id="boundary" inkscape:connector-curvature="0" />
	<path style="fill:none;stroke:red;stroke-width:1px;stroke-linecap:butt;stroke-linejoin:miter;stroke-opacity:1" d="M 183.863,257.277 174.686,257.277 z" id="boundary" inkscape:connector-curvature="0" />
	<path style="fill:none;stroke:red;stroke-width:1px;stroke-linecap:butt;stroke-linejoin:miter;stroke-opacity:1" d="M 193.04,257.277 183.863,257.277 z" id="boundary" inkscape:connector-curvature="0" />
	<path style="fill:none;stroke:red;stroke-width:1px;stroke-linecap:butt;stroke-linejoin:miter;stroke-opacity:1" d="M 193.04,257.277 202.216,257.277 z" id="boundary" inkscape:connector-curvature="0" />
	<path style="fill:none;stroke:red;stroke-width:1px;stroke-linecap:butt;stroke-linejoin:miter;stroke-opacity:1" d="M 211.393,257.277 202.216,257.277 z" id="boundary" inkscape:connector-curvature="0" />
	<path style="fill:none;stroke:red;stroke-width:1px;stroke-linecap:butt;stroke-linejoin:miter;stroke-opacity:1" d="M 220.57,257.277 211.393,257.277 z" id="boundary" inkscape:connector-curvature="0" />
	<path style="fill:none;stroke:red;stroke-width:1px;stroke-linecap:butt;stroke-linejoin:miter;stroke-opacity:1" d="M 220.57,257.277 229.747,257.277 z" id="boundary" inkscape:connector-curvature="0" />
	<path style="fill:none;stroke:red;stroke-width:1px;stroke-linecap:butt;stroke-linejoin:miter;stroke-opacity:1" d="M 238.923,257.277 229.747,257.277 z" id="boundary" inkscape:connector-curvature="0" />
	<path style="fill:none;stroke:red;stroke-width:1px;stroke-linecap:butt;stroke-linejoin:miter;stroke-opacity:1" d="M 248.1,257.277 238.923,257.277 z" id="boundary" inkscape:connector-curvature="0" />
	<path style="fill:none;stroke:red;stroke-width:1px;stroke-linecap:butt;stroke-linejoin:miter;stroke-opacity:1" d="M 248.1,257.277 257.277,257.277 z" id="boundary" inkscape:connector-curvature="0" />
	<path style="fill:none;stroke:red;stroke-width:1px;stroke-linecap:butt;stroke-linejoin:miter;stroke-opacity:1" d="M 266.453,257.277 257.277,257.277 z" id="boundary" inkscape:connector-curvature="0" />
	<path style="fill:none;stroke:red;stroke-width:1px;stroke-linecap:butt;stroke-linejoin:miter;stroke-opacity:1" d="M 266.453,257.277 275.63,257.277 z" id="boundary" inkscape:connector-curvature="0" />
	<path style="fill:none;stroke:red;stroke-width:1px;stroke-linecap:butt;stroke-linejoin:miter;stroke-opacity:1" d="M 284.807,257.277 275.63,257.277 z" id="boundary" inkscape:connector-curvature="0" />
	<path style="fill:none;stroke:red;stroke-width:1px;stroke-linecap:butt;stroke-linejoin:miter;stroke-opacity:1" d="M 293.983,257.277 284.807,257.277 z" id="boundary" inkscape:connector-curvature="0" />
	<path style="fill:none;stroke:red;stroke-width:1px;stroke-linecap:butt;stroke-linejoin:miter;stroke-opacity:1" d="M 293.983,257.277 303.16,257.277 z" id="boundary" inkscape:connector-curvature="0" />
	<path style="fill:none;stroke:red;stroke-width:1px;stroke-linecap:butt;stroke-linejoin:miter;stroke-opacity:1" d="M 312.337,257.277 303.16,257.277 z" id="boundary" inkscape:connector-curvature="0" />
	<path style="fill:none;stroke:red;stroke-width:1px;stroke-linecap:butt;stroke-linejoin:miter;stroke-opacity:1" d="M 321.513,257.277 330.69,257.277 z" id="boundary" inkscape:connector-curvature="0" />
	<path style="fill:none;stroke:red;stroke-width:1px;stroke-linecap:butt;stroke-linejoin:miter;stroke-opacity:1" d="M 339.867,257.277 330.69,257.277 z" id="boundary" inkscape:connector-curvature="0" />
	<path style="fill:none;stroke:red;stroke-width:1px;stroke-linecap:butt;stroke-linejoin:miter;stroke-opacity:1" d="M 321.513,257.277 312.337,257.277 z" id="boundary" inkscape:connector-curvature="0" />
	<path style="fill:none;stroke:red;stroke-width:1px;stroke-linecap:butt;stroke-linejoin:miter;stroke-opacity:1" d="M 349.043,257.277 358.22,257.277 z" id="boundary" inkscape:connector-curvature="0" />
	<path style="fill:none;stroke:red;stroke-width:1px;stroke-linecap:butt;stroke-linejoin:miter;stroke-opacity:1" d="M 367.397,257.277 358.22,257.277 z" id="boundary" inkscape:connector-curvature="0" />
	<path style="fill:none;stroke:red;stroke-width:1px;stroke-linecap:butt;stroke-linejoin:miter;stroke-opacity:1" d="M 376.574,257.277 385.75,257.277 z" id="boundary" inkscape:connector-curvature="0" />
	<path style="fill:none;stroke:red;stroke-width:1px;stroke-linecap:butt;stroke-linejoin:miter;stroke-opacity:1" d="M 394.927,257.277 404.104,257.277 z" id="boundary" inkscape:connector-curvature="0" />
	<path style="fill:none;stroke:red;stroke-width:1px;stroke-linecap:butt;stroke-linejoin:miter;stroke-opacity:1" d="M 394.927,257.277 385.75,257.277 z" id="boundary" inkscape:connector-curvature="0" />
	<path style="fill:none;stroke:red;stroke-width:1px;stroke-linecap:butt;stroke-linejoin:miter;stroke-opacity:1" d="M 376.574,257.277 367.397,257.277 z" id="boundary" inkscape:connector-curvature="0" />
	<path style="fill:none;stroke:red;stroke-width:1px;stroke-linecap:butt;stroke-linejoin:miter;stroke-opacity:1" d="M 349.043,257.277 339.867,257.277 z" id="boundary" inkscape:connector-curvature="0" />
	<path style="fill:none;stroke:red;stroke-width:1px;stroke-linecap:butt;stroke-linejoin:miter;stroke-opacity:1" d="M 413.28,257.277 404.104,257.277 z" id="boundary" inkscape:connector-curvature="0" />
	<path style="fill:none;stroke:red;stroke-width:1px;stroke-linecap:butt;stroke-linejoin:miter;stroke-opacity:1" d="M 459.164,257.277 449.987,257.277 z" id="boundary" inkscape:connector-curvature="0" />
	<path style="fill:none;stroke:red;stroke-width:1px;stroke-linecap:butt;stroke-linejoin:miter;stroke-opacity:1" d="M 422.457,257.277 413.28,257.277 z" id="boundary" inkscape:connector-curvature="0" />
	<path style="fill:none;stroke:red;stroke-width:1px;stroke-linecap:butt;stroke-linejoin:miter;stroke-opacity:1" d="M 422.457,257.277 431.634,257.277 z" id="boundary" inkscape:connector-curvature="0" />
	<path style="fill:none;stroke:red;stroke-width:1px;stroke-linecap:butt;stroke-linejoin:miter;stroke-opacity:1" d="M 440.81,257.277 449.987,257.277 z" id="boundary" inkscape:connector-curvature="0" />
	<path style="fill:none;stroke:red;stroke-width:1px;stroke-linecap:butt;stroke-linejoin:miter;stroke-opacity:1" d="M 440.81,257.277 431.634,257.277 z" id="boundary" inkscape:connector-curvature="0" />
	<path style="fill:none;stroke:red;stroke-width:1px;stroke-linecap:butt;stroke-linejoin:miter;stroke-opacity:1" d="M 459.164,257.277 468.34,257.277 z" id="boundary" inkscape:connector-curvature="0" />
	<path style="fill:none;stroke:red;stroke-width:1px;stroke-linecap:butt;stroke-linejoin:miter;stroke-opacity:1" d="M 477.517,257.277 468.34,257.277 z" id="boundary" inkscape:connector-curvature="0" />
	<path style="fill:none;stroke:red;stroke-width:1px;stroke-linecap:butt;stroke-linejoin:miter;stroke-opacity:1" d="M 486.694,257.277 477.517,257.277 z" id="boundary" inkscape:connector-curvature="0" />
	<path style="fill:none;stroke:red;stroke-width:1px;stroke-linecap:butt;stroke-linejoin:miter;stroke-opacity:1" d="M 495.87,257.277 505.047,257.277 z" id="boundary" inkscape:connector-curvature="0" />
	<path style="fill:none;stroke:red;stroke-width:1px;stroke-linecap:butt;stroke-linejoin:miter;stroke-opacity:1" d="M 514.224,257.277 505.047,257.277 z" id="boundary" inkscape:connector-curvature="0" />
	<path style="fill:none;stroke:red;stroke-width:1px;stroke-linecap:butt;stroke-linejoin:miter;stroke-opacity:1" d="M 523.401,257.277 532.577,257.277 z" id="boundary" inkscape:connector-curvature="0" />
	<path style="fill:none;stroke:red;stroke-width:1px;stroke-linecap:butt;stroke-linejoin:miter;stroke-opacity:1" d="M 541.754,257.277 532.577,257.277 z" id="boundary" inkscape:connector-curvature="0" />
	<path style="fill:none;stroke:red;stroke-width:1px;stroke-linecap:butt;stroke-linejoin:miter;stroke-opacity:1" d="M 523.401,257.277 514.224,257.277 z" id="boundary" inkscape:connector-curvature="0" />
	<path style="fill:none;stroke:red;stroke-width:1px;stroke-linecap:butt;stroke-linejoin:miter;stroke-opacity:1" d="M 550.931,257.277 560.107,257.277 z" id="boundary" inkscape:connector-curvature="0" />
	<path style="fill:none;stroke:red;stroke-width:1px;stroke-linecap:butt;stroke-linejoin:miter;stroke-opacity:1" d="M 569.284,257.277 560.107,257.277 z" id="boundary" inkscape:connector-curvature="0" />
	<path style="fill:none;stroke:red;stroke-width:1px;stroke-linecap:butt;stroke-linejoin:miter;stroke-opacity:1" d="M 569.284,257.277 578.461,257.277 z" id="boundary" inkscape:connector-curvature="0" />
	<path style="fill:none;stroke:red;stroke-width:1px;stroke-linecap:butt;stroke-linejoin:miter;stroke-opacity:1" d="M 587.637,257.277 578.461,257.277 z" id="boundary" inkscape:connector-curvature="0" />
	<path style="fill:none;stroke:red;stroke-width:1px;stroke-linecap:butt;stroke-linejoin:miter;stroke-opacity:1" d="M 587.637,257.277 596.814,257.277 z" id="boundary" inkscape:connector-curvature="0" />
	<path style="fill:none;stroke:red;stroke-width:1px;stroke-linecap:butt;stroke-linejoin:miter;stroke-opacity:1" d="M 605.991,257.277 596.814,257.277 z" id="boundary" inkscape:connector-curvature="0" />
	<path style="fill:none;stroke:red;stroke-width:1px;stroke-linecap:butt;stroke-linejoin:miter;stroke-opacity:1" d="M 550.931,257.277 541.754,257.277 z" id="boundary" inkscape:connector-curvature="0" />
	<path style="fill:none;stroke:red;stroke-width:1px;stroke-linecap:butt;stroke-linejoin:miter;stroke-opacity:1" d="M 605.991,257.277 615.167,257.277 z" id="boundary" inkscape:connector-curvature="0" />
	<path style="fill:none;stroke:red;stroke-width:1px;stroke-linecap:butt;stroke-linejoin:miter;stroke-opacity:1" d="M 486.694,257.277 495.87,257.277 z" id="boundary" inkscape:connector-curvature="0" />
	<path style="fill:none;stroke:red;stroke-width:1px;stroke-linecap:butt;stroke-linejoin:miter;stroke-opacity:1" d="M 628.015,146.239 618.838,146.239 z" id="boundary" inkscape:connector-curvature="0" />
	<path style="fill:none;stroke:red;stroke-width:1px;stroke-linecap:butt;stroke-linejoin:miter;stroke-opacity:1" d="M 774.842,6.75301 784.019,4 z" id="boundary" inkscape:connector-curvature="0" />
	<path style="fill:none;stroke:red;stroke-width:1px;stroke-linecap:butt;stroke-linejoin:miter;stroke-opacity:1" d="M 774.842,15.9297 774.842,6.75301 z" id="boundary" inkscape:connector-curvature="0" />
	<path style="fill:none;stroke:red;stroke-width:1px;stroke-linecap:butt;stroke-linejoin:miter;stroke-opacity:1" d="M 774.842,25.1064 774.842,34.2831 z" id="boundary" inkscape:connector-curvature="0" />
	<path style="fill:none;stroke:red;stroke-width:1px;stroke-linecap:butt;stroke-linejoin:miter;stroke-opacity:1" d="M 774.842,25.1064 774.842,15.9297 z" id="boundary" inkscape:connector-curvature="0" />
	<path style="fill:none;stroke:red;stroke-width:1px;stroke-linecap:butt;stroke-linejoin:miter;stroke-opacity:1" d="M 774.842,34.2831 774.842,43.4598 z" id="boundary" inkscape:connector-curvature="0" />
	<path style="fill:none;stroke:red;stroke-width:1px;stroke-linecap:butt;stroke-linejoin:miter;stroke-opacity:1" d="M 793.195,4 802.372,4 z" id="boundary" inkscape:connector-curvature="0" />
	<path style="fill:none;stroke:red;stroke-width:1px;stroke-linecap:butt;stroke-linejoin:miter;stroke-opacity:1" d="M 784.019,4 793.195,4 z" id="boundary" inkscape:connector-curvature="0" />
	<path style="fill:none;stroke:red;stroke-width:1px;stroke-linecap:butt;stroke-linejoin:miter;stroke-opacity:1" d="M 802.372,4 811.549,4 z" id="boundary" inkscape:connector-curvature="0" />
	<path style="fill:none;stroke:red;stroke-width:1px;stroke-linecap:butt;stroke-linejoin:miter;stroke-opacity:1" d="M 774.842,52.6364 774.842,61.8131 z" id="boundary" inkscape:connector-curvature="0" />
	<path style="fill:none;stroke:red;stroke-width:1px;stroke-linecap:butt;stroke-linejoin:miter;stroke-opacity:1" d="M 774.842,52.6364 774.842,43.4598 z" id="boundary" inkscape:connector-curvature="0" />
	<path style="fill:none;stroke:red;stroke-width:1px;stroke-linecap:butt;stroke-linejoin:miter;stroke-opacity:1" d="M 774.842,61.8131 774.842,70.9898 z" id="boundary" inkscape:connector-curvature="0" />
	<path style="fill:none;stroke:red;stroke-width:1px;stroke-linecap:butt;stroke-linejoin:miter;stroke-opacity:1" d="M 774.842,80.1665 774.842,89.3432 z" id="boundary" inkscape:connector-curvature="0" />
	<path style="fill:none;stroke:red;stroke-width:1px;stroke-linecap:butt;stroke-linejoin:miter;stroke-opacity:1" d="M 774.842,70.9898 774.842,80.1665 z" id="boundary" inkscape:connector-curvature="0" />
	<path style="fill:none;stroke:red;stroke-width:1px;stroke-linecap:butt;stroke-linejoin:miter;stroke-opacity:1" d="M 774.842,89.3432 774.842,98.5199 z" id="boundary" inkscape:connector-curvature="0" />
	<path style="fill:none;stroke:red;stroke-width:1px;stroke-linecap:butt;stroke-linejoin:miter;stroke-opacity:1" d="M 774.842,98.5199 774.842,107.697 z" id="boundary" inkscape:connector-curvature="0" />
	<path style="fill:none;stroke:red;stroke-width:1px;stroke-linecap:butt;stroke-linejoin:miter;stroke-opacity:1" d="M 780.348,124.215 774.842,116.873 z" id="boundary" inkscape:connector-curvature="0" />
	<path style="fill:none;stroke:red;stroke-width:1px;stroke-linecap:butt;stroke-linejoin:miter;stroke-opacity:1" d="M 774.842,116.873 774.842,107.697 z" id="boundary" inkscape:connector-curvature="0" />
	<path style="fill:none;stroke:red;stroke-width:1px;stroke-linecap:butt;stroke-linejoin:miter;stroke-opacity:1" d="M 789.525,124.215 780.348,124.215 z" id="boundary" inkscape:connector-curvature="0" />
	<path style="fill:none;stroke:red;stroke-width:1px;stroke-linecap:butt;stroke-linejoin:miter;stroke-opacity:1" d="M 628.015,146.239 637.191,146.239 z" id="boundary" inkscape:connector-curvature="0" />
	<path style="fill:none;stroke:red;stroke-width:1px;stroke-linecap:butt;stroke-linejoin:miter;stroke-opacity:1" d="M 646.368,146.239 637.191,146.239 z" id="boundary" inkscape:connector-curvature="0" />
	<path style="fill:none;stroke:red;stroke-width:1px;stroke-linecap:butt;stroke-linejoin:miter;stroke-opacity:1" d="M 664.722,146.239 655.545,146.239 z" id="boundary" inkscape:connector-curvature="0" />
	<path style="fill:none;stroke:red;stroke-width:1px;stroke-linecap:butt;stroke-linejoin:miter;stroke-opacity:1" d="M 673.898,146.239 664.722,146.239 z" id="boundary" inkscape:connector-curvature="0" />
	<path style="fill:none;stroke:red;stroke-width:1px;stroke-linecap:butt;stroke-linejoin:miter;stroke-opacity:1" d="M 673.898,146.239 683.075,146.239 z" id="boundary" inkscape:connector-curvature="0" />
	<path style="fill:none;stroke:red;stroke-width:1px;stroke-linecap:butt;stroke-linejoin:miter;stroke-opacity:1" d="M 683.075,146.239 692.252,146.239 z" id="boundary" inkscape:connector-curvature="0" />
	<path style="fill:none;stroke:red;stroke-width:1px;stroke-linecap:butt;stroke-linejoin:miter;stroke-opacity:1" d="M 701.428,146.239 692.252,146.239 z" id="boundary" inkscape:connector-curvature="0" />
	<path style="fill:none;stroke:red;stroke-width:1px;stroke-linecap:butt;stroke-linejoin:miter;stroke-opacity:1" d="M 646.368,146.239 655.545,146.239 z" id="boundary" inkscape:connector-curvature="0" />
	<path style="fill:none;stroke:red;stroke-width:1px;stroke-linecap:butt;stroke-linejoin:miter;stroke-opacity:1" d="M 701.428,146.239 710.605,146.239 z" id="boundary" inkscape:connector-curvature="0" />
	<path style="fill:none;stroke:red;stroke-width:1px;stroke-linecap:butt;stroke-linejoin:miter;stroke-opacity:1" d="M 738.135,146.239 728.958,146.239 z" id="boundary" inkscape:connector-curvature="0" />
	<path style="fill:none;stroke:red;stroke-width:1px;stroke-linecap:butt;stroke-linejoin:miter;stroke-opacity:1" d="M 710.605,146.239 719.782,146.239 z" id="boundary" inkscape:connector-curvature="0" />
	<path style="fill:none;stroke:red;stroke-width:1px;stroke-linecap:butt;stroke-linejoin:miter;stroke-opacity:1" d="M 728.958,146.239 719.782,146.239 z" id="boundary" inkscape:connector-curvature="0" />
	<path style="fill:none;stroke:red;stroke-width:1px;stroke-linecap:butt;stroke-linejoin:miter;stroke-opacity:1" d="M 789.525,124.215 793.195,133.391 z" id="boundary" inkscape:connector-curvature="0" />
	<path style="fill:none;stroke:red;stroke-width:1px;stroke-linecap:butt;stroke-linejoin:miter;stroke-opacity:1" d="M 793.195,133.391 793.195,142.568 z" id="boundary" inkscape:connector-curvature="0" />
	<path style="fill:none;stroke:red;stroke-width:1px;stroke-linecap:butt;stroke-linejoin:miter;stroke-opacity:1" d="M 793.195,142.568 784.019,146.239 z" id="boundary" inkscape:connector-curvature="0" />
	<path style="fill:none;stroke:red;stroke-width:1px;stroke-linecap:butt;stroke-linejoin:miter;stroke-opacity:1" d="M 747.312,146.239 738.135,146.239 z" id="boundary" inkscape:connector-curvature="0" />
	<path style="fill:none;stroke:red;stroke-width:1px;stroke-linecap:butt;stroke-linejoin:miter;stroke-opacity:1" d="M 747.312,146.239 756.488,146.239 z" id="boundary" inkscape:connector-curvature="0" />
	<path style="fill:none;stroke:red;stroke-width:1px;stroke-linecap:butt;stroke-linejoin:miter;stroke-opacity:1" d="M 756.488,146.239 765.665,146.239 z" id="boundary" inkscape:connector-curvature="0" />
	<path style="fill:none;stroke:red;stroke-width:1px;stroke-linecap:butt;stroke-linejoin:miter;stroke-opacity:1" d="M 774.842,146.239 765.665,146.239 z" id="boundary" inkscape:connector-curvature="0" />
	<path style="fill:none;stroke:red;stroke-width:1px;stroke-linecap:butt;stroke-linejoin:miter;stroke-opacity:1" d="M 774.842,146.239 784.019,146.239 z" id="boundary" inkscape:connector-curvature="0" />
	<path style="fill:none;stroke:red;stroke-width:1px;stroke-linecap:butt;stroke-linejoin:miter;stroke-opacity:1" d="M 820.725,4 811.549,4 z" id="boundary" inkscape:connector-curvature="0" />
	<path style="fill:none;stroke:red;stroke-width:1px;stroke-linecap:butt;stroke-linejoin:miter;stroke-opacity:1" d="M 820.725,4 829.902,4 z" id="boundary" inkscape:connector-curvature="0" />
	<path style="fill:none;stroke:red;stroke-width:1px;stroke-linecap:butt;stroke-linejoin:miter;stroke-opacity:1" d="M 839.079,4 848.255,4 z" id="boundary" inkscape:connector-curvature="0" />
	<path style="fill:none;stroke:red;stroke-width:1px;stroke-linecap:butt;stroke-linejoin:miter;stroke-opacity:1" d="M 839.079,4 829.902,4 z" id="boundary" inkscape:connector-curvature="0" />
	<path style="fill:none;stroke:red;stroke-width:1px;stroke-linecap:butt;stroke-linejoin:miter;stroke-opacity:1" d="M 848.255,4 857.432,4 z" id="boundary" inkscape:connector-curvature="0" />
	<path style="fill:none;stroke:red;stroke-width:1px;stroke-linecap:butt;stroke-linejoin:miter;stroke-opacity:1" d="M 866.609,4 875.785,4 z" id="boundary" inkscape:connector-curvature="0" />
	<path style="fill:none;stroke:red;stroke-width:1px;stroke-linecap:butt;stroke-linejoin:miter;stroke-opacity:1" d="M 866.609,4 857.432,4 z" id="boundary" inkscape:connector-curvature="0" />
	<path style="fill:none;stroke:red;stroke-width:1px;stroke-linecap:butt;stroke-linejoin:miter;stroke-opacity:1" d="M 894.139,4 903.315,4 z" id="boundary" inkscape:connector-curvature="0" />
	<path style="fill:none;stroke:red;stroke-width:1px;stroke-linecap:butt;stroke-linejoin:miter;stroke-opacity:1" d="M 894.139,4 884.962,4 z" id="boundary" inkscape:connector-curvature="0" />
	<path style="fill:none;stroke:red;stroke-width:1px;stroke-linecap:butt;stroke-linejoin:miter;stroke-opacity:1" d="M 903.315,4 912.492,4 z" id="boundary" inkscape:connector-curvature="0" />
	<path style="fill:none;stroke:red;stroke-width:1px;stroke-linecap:butt;stroke-linejoin:miter;stroke-opacity:1" d="M 884.962,4 875.785,4 z" id="boundary" inkscape:connector-curvature="0" />
	<path style="fill:none;stroke:red;stroke-width:1px;stroke-linecap:butt;stroke-linejoin:miter;stroke-opacity:1" d="M 921.669,4 930.846,4 z" id="boundary" inkscape:connector-curvature="0" />
	<path style="fill:none;stroke:red;stroke-width:1px;stroke-linecap:butt;stroke-linejoin:miter;stroke-opacity:1" d="M 912.492,4 921.669,4 z" id="boundary" inkscape:connector-curvature="0" />
	<path style="fill:none;stroke:red;stroke-width:1px;stroke-linecap:butt;stroke-linejoin:miter;stroke-opacity:1" d="M 940.022,4 949.199,4 z" id="boundary" inkscape:connector-curvature="0" />
	<path style="fill:none;stroke:red;stroke-width:1px;stroke-linecap:butt;stroke-linejoin:miter;stroke-opacity:1" d="M 940.022,4 930.846,4 z" id="boundary" inkscape:connector-curvature="0" />
	<path style="fill:none;stroke:red;stroke-width:1px;stroke-linecap:butt;stroke-linejoin:miter;stroke-opacity:1" d="M 949.199,4 958.376,4 z" id="boundary" inkscape:connector-curvature="0" />
	<path style="fill:none;stroke:red;stroke-width:1px;stroke-linecap:butt;stroke-linejoin:miter;stroke-opacity:1" d="M 967.552,4 958.376,4 z" id="boundary" inkscape:connector-curvature="0" />
	<path style="fill:none;stroke:red;stroke-width:1px;stroke-linecap:butt;stroke-linejoin:miter;stroke-opacity:1" d="M 967.552,4 976.729,4 z" id="boundary" inkscape:connector-curvature="0" />
	<path style="fill:none;stroke:red;stroke-width:1px;stroke-linecap:butt;stroke-linejoin:miter;stroke-opacity:1" d="M 985.906,4 995.082,5.83534 z" id="boundary" inkscape:connector-curvature="0" />
	<path style="fill:none;stroke:red;stroke-width:1px;stroke-linecap:butt;stroke-linejoin:miter;stroke-opacity:1" d="M 995.082,5.83534 996,15.012 z" id="boundary" inkscape:connector-curvature="0" />
	<path style="fill:none;stroke:red;stroke-width:1px;stroke-linecap:butt;stroke-linejoin:miter;stroke-opacity:1" d="M 996,15.012 996,24.1887 z" id="boundary" inkscape:connector-curvature="0" />
	<path style="fill:none;stroke:red;stroke-width:1px;stroke-linecap:butt;stroke-linejoin:miter;stroke-opacity:1" d="M 976.729,4 985.906,4 z" id="boundary" inkscape:connector-curvature="0" />
	<path style="fill:none;stroke:red;stroke-width:1px;stroke-linecap:butt;stroke-linejoin:miter;stroke-opacity:1" d="M 996,24.1887 996,33.3654 z" id="boundary" inkscape:connector-curvature="0" />
	<path style="fill:none;stroke:red;stroke-width:1px;stroke-linecap:butt;stroke-linejoin:miter;stroke-opacity:1" d="M 996,33.3654 996,42.5421 z" id="boundary" inkscape:connector-curvature="0" />
	<path style="fill:none;stroke:red;stroke-width:1px;stroke-linecap:butt;stroke-linejoin:miter;stroke-opacity:1" d="M 996,42.5421 996,51.7188 z" id="boundary" inkscape:connector-curvature="0" />
	<path style="fill:none;stroke:red;stroke-width:1px;stroke-linecap:butt;stroke-linejoin:miter;stroke-opacity:1" d="M 996,60.8955 996,70.0722 z" id="boundary" inkscape:connector-curvature="0" />
	<path style="fill:none;stroke:red;stroke-width:1px;stroke-linecap:butt;stroke-linejoin:miter;stroke-opacity:1" d="M 996,60.8955 996,51.7188 z" id="boundary" inkscape:connector-curvature="0" />
	<path style="fill:none;stroke:red;stroke-width:1px;stroke-linecap:butt;stroke-linejoin:miter;stroke-opacity:1" d="M 977.647,133.391 977.647,124.215 z" id="boundary" inkscape:connector-curvature="0" />
	<path style="fill:none;stroke:red;stroke-width:1px;stroke-linecap:butt;stroke-linejoin:miter;stroke-opacity:1" d="M 977.647,124.215 986.823,124.215 z" id="boundary" inkscape:connector-curvature="0" />
	<path style="fill:none;stroke:red;stroke-width:1px;stroke-linecap:butt;stroke-linejoin:miter;stroke-opacity:1" d="M 977.647,133.391 977.647,142.568 z" id="boundary" inkscape:connector-curvature="0" />
	<path style="fill:none;stroke:red;stroke-width:1px;stroke-linecap:butt;stroke-linejoin:miter;stroke-opacity:1" d="M 996,88.4255 996,97.6022 z" id="boundary" inkscape:connector-curvature="0" />
	<path style="fill:none;stroke:red;stroke-width:1px;stroke-linecap:butt;stroke-linejoin:miter;stroke-opacity:1" d="M 996,88.4255 996,79.2488 z" id="boundary" inkscape:connector-curvature="0" />
	<path style="fill:none;stroke:red;stroke-width:1px;stroke-linecap:butt;stroke-linejoin:miter;stroke-opacity:1" d="M 996,97.6022 996,106.779 z" id="boundary" inkscape:connector-curvature="0" />
	<path style="fill:none;stroke:red;stroke-width:1px;stroke-linecap:butt;stroke-linejoin:miter;stroke-opacity:1" d="M 986.823,124.215 996,115.956 z" id="boundary" inkscape:connector-curvature="0" />
	<path style="fill:none;stroke:red;stroke-width:1px;stroke-linecap:butt;stroke-linejoin:miter;stroke-opacity:1" d="M 996,115.956 996,106.779 z" id="boundary" inkscape:connector-curvature="0" />
	<path style="fill:none;stroke:red;stroke-width:1px;stroke-linecap:butt;stroke-linejoin:miter;stroke-opacity:1" d="M 977.647,142.568 977.647,151.745 z" id="boundary" inkscape:connector-curvature="0" />
	<path style="fill:none;stroke:red;stroke-width:1px;stroke-linecap:butt;stroke-linejoin:miter;stroke-opacity:1" d="M 977.647,160.921 977.647,151.745 z" id="boundary" inkscape:connector-curvature="0" />
	<path style="fill:none;stroke:red;stroke-width:1px;stroke-linecap:butt;stroke-linejoin:miter;stroke-opacity:1" d="M 977.647,170.098 977.647,179.275 z" id="boundary" inkscape:connector-curvature="0" />
	<path style="fill:none;stroke:red;stroke-width:1px;stroke-linecap:butt;stroke-linejoin:miter;stroke-opacity:1" d="M 977.647,179.275 977.647,188.451 z" id="boundary" inkscape:connector-curvature="0" />
	<path style="fill:none;stroke:red;stroke-width:1px;stroke-linecap:butt;stroke-linejoin:miter;stroke-opacity:1" d="M 977.647,197.628 977.647,188.451 z" id="boundary" inkscape:connector-curvature="0" />
	<path style="fill:none;stroke:red;stroke-width:1px;stroke-linecap:butt;stroke-linejoin:miter;stroke-opacity:1" d="M 977.647,170.098 977.647,160.921 z" id="boundary" inkscape:connector-curvature="0" />
	<path style="fill:none;stroke:red;stroke-width:1px;stroke-linecap:butt;stroke-linejoin:miter;stroke-opacity:1" d="M 996,79.2488 996,70.0722 z" id="boundary" inkscape:connector-curvature="0" />
	<path style="fill:none;stroke:red;stroke-width:1px;stroke-linecap:butt;stroke-linejoin:miter;stroke-opacity:1" d="M 977.647,206.805 977.647,197.628 z" id="boundary" inkscape:connector-curvature="0" />
	<path style="fill:none;stroke:red;stroke-width:1px;stroke-linecap:butt;stroke-linejoin:miter;stroke-opacity:1" d="M 624.344,257.277 633.521,257.277 z" id="boundary" inkscape:connector-curvature="0" />
	<path style="fill:none;stroke:red;stroke-width:1px;stroke-linecap:butt;stroke-linejoin:miter;stroke-opacity:1" d="M 642.698,257.277 633.521,257.277 z" id="boundary" inkscape:connector-curvature="0" />
	<path style="fill:none;stroke:red;stroke-width:1px;stroke-linecap:butt;stroke-linejoin:miter;stroke-opacity:1" d="M 651.874,257.277 661.051,257.277 z" id="boundary" inkscape:connector-curvature="0" />
	<path style="fill:none;stroke:red;stroke-width:1px;stroke-linecap:butt;stroke-linejoin:miter;stroke-opacity:1" d="M 670.228,257.277 661.051,257.277 z" id="boundary" inkscape:connector-curvature="0" />
	<path style="fill:none;stroke:red;stroke-width:1px;stroke-linecap:butt;stroke-linejoin:miter;stroke-opacity:1" d="M 651.874,257.277 642.698,257.277 z" id="boundary" inkscape:connector-curvature="0" />
	<path style="fill:none;stroke:red;stroke-width:1px;stroke-linecap:butt;stroke-linejoin:miter;stroke-opacity:1" d="M 679.404,257.277 670.228,257.277 z" id="boundary" inkscape:connector-curvature="0" />
	<path style="fill:none;stroke:red;stroke-width:1px;stroke-linecap:butt;stroke-linejoin:miter;stroke-opacity:1" d="M 679.404,257.277 688.581,257.277 z" id="boundary" inkscape:connector-curvature="0" />
	<path style="fill:none;stroke:red;stroke-width:1px;stroke-linecap:butt;stroke-linejoin:miter;stroke-opacity:1" d="M 697.758,257.277 688.581,257.277 z" id="boundary" inkscape:connector-curvature="0" />
	<path style="fill:none;stroke:red;stroke-width:1px;stroke-linecap:butt;stroke-linejoin:miter;stroke-opacity:1" d="M 716.111,257.277 706.934,257.277 z" id="boundary" inkscape:connector-curvature="0" />
	<path style="fill:none;stroke:red;stroke-width:1px;stroke-linecap:butt;stroke-linejoin:miter;stroke-opacity:1" d="M 697.758,257.277 706.934,257.277 z" id="boundary" inkscape:connector-curvature="0" />
	<path style="fill:none;stroke:red;stroke-width:1px;stroke-linecap:butt;stroke-linejoin:miter;stroke-opacity:1" d="M 734.464,257.277 725.288,257.277 z" id="boundary" inkscape:connector-curvature="0" />
	<path style="fill:none;stroke:red;stroke-width:1px;stroke-linecap:butt;stroke-linejoin:miter;stroke-opacity:1" d="M 716.111,257.277 725.288,257.277 z" id="boundary" inkscape:connector-curvature="0" />
	<path style="fill:none;stroke:red;stroke-width:1px;stroke-linecap:butt;stroke-linejoin:miter;stroke-opacity:1" d="M 743.641,257.277 734.464,257.277 z" id="boundary" inkscape:connector-curvature="0" />
	<path style="fill:none;stroke:red;stroke-width:1px;stroke-linecap:butt;stroke-linejoin:miter;stroke-opacity:1" d="M 743.641,257.277 752.818,257.277 z" id="boundary" inkscape:connector-curvature="0" />
	<path style="fill:none;stroke:red;stroke-width:1px;stroke-linecap:butt;stroke-linejoin:miter;stroke-opacity:1" d="M 761.994,257.277 752.818,257.277 z" id="boundary" inkscape:connector-curvature="0" />
	<path style="fill:none;stroke:red;stroke-width:1px;stroke-linecap:butt;stroke-linejoin:miter;stroke-opacity:1" d="M 771.171,257.277 761.994,257.277 z" id="boundary" inkscape:connector-curvature="0" />
	<path style="fill:none;stroke:red;stroke-width:1px;stroke-linecap:butt;stroke-linejoin:miter;stroke-opacity:1" d="M 780.348,257.277 771.171,257.277 z" id="boundary" inkscape:connector-curvature="0" />
	<path style="fill:none;stroke:red;stroke-width:1px;stroke-linecap:butt;stroke-linejoin:miter;stroke-opacity:1" d="M 780.348,257.277 789.525,257.277 z" id="boundary" inkscape:connector-curvature="0" />
	<path style="fill:none;stroke:red;stroke-width:1px;stroke-linecap:butt;stroke-linejoin:miter;stroke-opacity:1" d="M 797.784,261.865 797.784,271.042 z" id="boundary" inkscape:connector-curvature="0" />
	<path style="fill:none;stroke:red;stroke-width:1px;stroke-linecap:butt;stroke-linejoin:miter;stroke-opacity:1" d="M 789.525,257.277 797.784,261.865 z" id="boundary" inkscape:connector-curvature="0" />
	<path style="fill:none;stroke:red;stroke-width:1px;stroke-linecap:butt;stroke-linejoin:miter;stroke-opacity:1" d="M 797.784,289.395 793.195,304.995 z" id="boundary" inkscape:connector-curvature="0" />
	<path style="fill:none;stroke:red;stroke-width:1px;stroke-linecap:butt;stroke-linejoin:miter;stroke-opacity:1" d="M 797.784,271.042 797.784,280.218 z" id="boundary" inkscape:connector-curvature="0" />
	<path style="fill:none;stroke:red;stroke-width:1px;stroke-linecap:butt;stroke-linejoin:miter;stroke-opacity:1" d="M 793.195,304.995 793.195,314.172 z" id="boundary" inkscape:connector-curvature="0" />
	<path style="fill:none;stroke:red;stroke-width:1px;stroke-linecap:butt;stroke-linejoin:miter;stroke-opacity:1" d="M 793.195,332.525 793.195,323.349 z" id="boundary" inkscape:connector-curvature="0" />
	<path style="fill:none;stroke:red;stroke-width:1px;stroke-linecap:butt;stroke-linejoin:miter;stroke-opacity:1" d="M 793.195,323.349 793.195,314.172 z" id="boundary" inkscape:connector-curvature="0" />
	<path style="fill:none;stroke:red;stroke-width:1px;stroke-linecap:butt;stroke-linejoin:miter;stroke-opacity:1" d="M 761.077,456.411 756.488,465.587 z" id="boundary" inkscape:connector-curvature="0" />
	<path style="fill:none;stroke:red;stroke-width:1px;stroke-linecap:butt;stroke-linejoin:miter;stroke-opacity:1" d="M 765.665,447.234 761.077,456.411 z" id="boundary" inkscape:connector-curvature="0" />
	<path style="fill:none;stroke:red;stroke-width:1px;stroke-linecap:butt;stroke-linejoin:miter;stroke-opacity:1" d="M 765.665,468.34 756.488,465.587 z" id="boundary" inkscape:connector-curvature="0" />
	<path style="fill:none;stroke:red;stroke-width:1px;stroke-linecap:butt;stroke-linejoin:miter;stroke-opacity:1" d="M 779.43,387.586 779.43,396.762 z" id="boundary" inkscape:connector-curvature="0" />
	<path style="fill:none;stroke:red;stroke-width:1px;stroke-linecap:butt;stroke-linejoin:miter;stroke-opacity:1" d="M 784.019,378.409 779.43,387.586 z" id="boundary" inkscape:connector-curvature="0" />
	<path style="fill:none;stroke:red;stroke-width:1px;stroke-linecap:butt;stroke-linejoin:miter;stroke-opacity:1" d="M 779.43,396.762 779.43,405.939 z" id="boundary" inkscape:connector-curvature="0" />
	<path style="fill:none;stroke:red;stroke-width:1px;stroke-linecap:butt;stroke-linejoin:miter;stroke-opacity:1" d="M 770.253,428.881 774.842,415.116 z" id="boundary" inkscape:connector-curvature="0" />
	<path style="fill:none;stroke:red;stroke-width:1px;stroke-linecap:butt;stroke-linejoin:miter;stroke-opacity:1" d="M 779.43,405.939 774.842,415.116 z" id="boundary" inkscape:connector-curvature="0" />
	<path style="fill:none;stroke:red;stroke-width:1px;stroke-linecap:butt;stroke-linejoin:miter;stroke-opacity:1" d="M 770.253,428.881 770.253,438.057 z" id="boundary" inkscape:connector-curvature="0" />
	<path style="fill:none;stroke:red;stroke-width:1px;stroke-linecap:butt;stroke-linejoin:miter;stroke-opacity:1" d="M 788.607,350.879 788.607,341.702 z" id="boundary" inkscape:connector-curvature="0" />
	<path style="fill:none;stroke:red;stroke-width:1px;stroke-linecap:butt;stroke-linejoin:miter;stroke-opacity:1" d="M 788.607,360.056 788.607,350.879 z" id="boundary" inkscape:connector-curvature="0" />
	<path style="fill:none;stroke:red;stroke-width:1px;stroke-linecap:butt;stroke-linejoin:miter;stroke-opacity:1" d="M 784.019,369.232 784.019,378.409 z" id="boundary" inkscape:connector-curvature="0" />
	<path style="fill:none;stroke:red;stroke-width:1px;stroke-linecap:butt;stroke-linejoin:miter;stroke-opacity:1" d="M 784.019,369.232 788.607,360.056 z" id="boundary" inkscape:connector-curvature="0" />
	<path style="fill:none;stroke:red;stroke-width:1px;stroke-linecap:butt;stroke-linejoin:miter;stroke-opacity:1" d="M 788.607,341.702 793.195,332.525 z" id="boundary" inkscape:connector-curvature="0" />
	<path style="fill:none;stroke:red;stroke-width:1px;stroke-linecap:butt;stroke-linejoin:miter;stroke-opacity:1" d="M 770.253,438.057 765.665,447.234 z" id="boundary" inkscape:connector-curvature="0" />
	<path style="fill:none;stroke:red;stroke-width:1px;stroke-linecap:butt;stroke-linejoin:miter;stroke-opacity:1" d="M 774.842,465.587 765.665,468.34 z" id="boundary" inkscape:connector-curvature="0" />
	<path style="fill:none;stroke:red;stroke-width:1px;stroke-linecap:butt;stroke-linejoin:miter;stroke-opacity:1" d="M 784.019,463.752 774.842,465.587 z" id="boundary" inkscape:connector-curvature="0" />
	<path style="fill:none;stroke:red;stroke-width:1px;stroke-linecap:butt;stroke-linejoin:miter;stroke-opacity:1" d="M 801.454,457.328 792.278,459.164 z" id="boundary" inkscape:connector-curvature="0" />
	<path style="fill:none;stroke:red;stroke-width:1px;stroke-linecap:butt;stroke-linejoin:miter;stroke-opacity:1" d="M 784.019,463.752 792.278,459.164 z" id="boundary" inkscape:connector-curvature="0" />
	<path style="fill:none;stroke:red;stroke-width:1px;stroke-linecap:butt;stroke-linejoin:miter;stroke-opacity:1" d="M 797.784,280.218 797.784,289.395 z" id="boundary" inkscape:connector-curvature="0" />
	<path style="fill:none;stroke:red;stroke-width:1px;stroke-linecap:butt;stroke-linejoin:miter;stroke-opacity:1" d="M 615.167,257.277 624.344,257.277 z" id="boundary" inkscape:connector-curvature="0" />
	<path style="fill:none;stroke:red;stroke-width:1px;stroke-linecap:butt;stroke-linejoin:miter;stroke-opacity:1" d="M 977.647,206.805 977.647,215.981 z" id="boundary" inkscape:connector-curvature="0" />
	<path style="fill:none;stroke:red;stroke-width:1px;stroke-linecap:butt;stroke-linejoin:miter;stroke-opacity:1" d="M 977.647,225.158 977.647,215.981 z" id="boundary" inkscape:connector-curvature="0" />
	<path style="fill:none;stroke:red;stroke-width:1px;stroke-linecap:butt;stroke-linejoin:miter;stroke-opacity:1" d="M 977.647,243.512 973.058,252.688 z" id="boundary" inkscape:connector-curvature="0" />
	<path style="fill:none;stroke:red;stroke-width:1px;stroke-linecap:butt;stroke-linejoin:miter;stroke-opacity:1" d="M 973.058,252.688 973.058,261.865 z" id="boundary" inkscape:connector-curvature="0" />
	<path style="fill:none;stroke:red;stroke-width:1px;stroke-linecap:butt;stroke-linejoin:miter;stroke-opacity:1" d="M 977.647,225.158 977.647,234.335 z" id="boundary" inkscape:connector-curvature="0" />
	<path style="fill:none;stroke:red;stroke-width:1px;stroke-linecap:butt;stroke-linejoin:miter;stroke-opacity:1" d="M 977.647,234.335 977.647,243.512 z" id="boundary" inkscape:connector-curvature="0" />
	<path style="fill:none;stroke:red;stroke-width:1px;stroke-linecap:butt;stroke-linejoin:miter;stroke-opacity:1" d="M 959.293,303.16 952.87,315.09 z" id="boundary" inkscape:connector-curvature="0" />
	<path style="fill:none;stroke:red;stroke-width:1px;stroke-linecap:butt;stroke-linejoin:miter;stroke-opacity:1" d="M 963.882,284.807 959.293,293.983 z" id="boundary" inkscape:connector-curvature="0" />
	<path style="fill:none;stroke:red;stroke-width:1px;stroke-linecap:butt;stroke-linejoin:miter;stroke-opacity:1" d="M 959.293,293.983 959.293,303.16 z" id="boundary" inkscape:connector-curvature="0" />
	<path style="fill:none;stroke:red;stroke-width:1px;stroke-linecap:butt;stroke-linejoin:miter;stroke-opacity:1" d="M 952.87,315.09 948.281,324.266 z" id="boundary" inkscape:connector-curvature="0" />
	<path style="fill:none;stroke:red;stroke-width:1px;stroke-linecap:butt;stroke-linejoin:miter;stroke-opacity:1" d="M 929.928,351.796 934.516,342.62 z" id="boundary" inkscape:connector-curvature="0" />
	<path style="fill:none;stroke:red;stroke-width:1px;stroke-linecap:butt;stroke-linejoin:miter;stroke-opacity:1" d="M 934.516,342.62 940.94,330.69 z" id="boundary" inkscape:connector-curvature="0" />
	<path style="fill:none;stroke:red;stroke-width:1px;stroke-linecap:butt;stroke-linejoin:miter;stroke-opacity:1" d="M 948.281,324.266 940.94,330.69 z" id="boundary" inkscape:connector-curvature="0" />
	<path style="fill:none;stroke:red;stroke-width:1px;stroke-linecap:butt;stroke-linejoin:miter;stroke-opacity:1" d="M 968.47,275.63 973.058,261.865 z" id="boundary" inkscape:connector-curvature="0" />
	<path style="fill:none;stroke:red;stroke-width:1px;stroke-linecap:butt;stroke-linejoin:miter;stroke-opacity:1" d="M 963.882,284.807 968.47,275.63 z" id="boundary" inkscape:connector-curvature="0" />
	<path style="fill:none;stroke:red;stroke-width:1px;stroke-linecap:butt;stroke-linejoin:miter;stroke-opacity:1" d="M 929.928,351.796 922.586,358.22 z" id="boundary" inkscape:connector-curvature="0" />
	<path style="fill:none;stroke:red;stroke-width:1px;stroke-linecap:butt;stroke-linejoin:miter;stroke-opacity:1" d="M 819.808,449.987 810.631,452.74 z" id="boundary" inkscape:connector-curvature="0" />
	<path style="fill:none;stroke:red;stroke-width:1px;stroke-linecap:butt;stroke-linejoin:miter;stroke-opacity:1" d="M 801.454,457.328 810.631,452.74 z" id="boundary" inkscape:connector-curvature="0" />
	<path style="fill:none;stroke:red;stroke-width:1px;stroke-linecap:butt;stroke-linejoin:miter;stroke-opacity:1" d="M 853.761,427.045 844.585,431.634 z" id="boundary" inkscape:connector-curvature="0" />
	<path style="fill:none;stroke:red;stroke-width:1px;stroke-linecap:butt;stroke-linejoin:miter;stroke-opacity:1" d="M 837.243,439.893 844.585,431.634 z" id="boundary" inkscape:connector-curvature="0" />
	<path style="fill:none;stroke:red;stroke-width:1px;stroke-linecap:butt;stroke-linejoin:miter;stroke-opacity:1" d="M 828.067,444.481 819.808,449.987 z" id="boundary" inkscape:connector-curvature="0" />
	<path style="fill:none;stroke:red;stroke-width:1px;stroke-linecap:butt;stroke-linejoin:miter;stroke-opacity:1" d="M 828.067,444.481 837.243,439.893 z" id="boundary" inkscape:connector-curvature="0" />
	<path style="fill:none;stroke:red;stroke-width:1px;stroke-linecap:butt;stroke-linejoin:miter;stroke-opacity:1" d="M 906.986,388.503 899.645,394.927 z" id="boundary" inkscape:connector-curvature="0" />
	<path style="fill:none;stroke:red;stroke-width:1px;stroke-linecap:butt;stroke-linejoin:miter;stroke-opacity:1" d="M 899.645,394.927 893.221,402.268 z" id="boundary" inkscape:connector-curvature="0" />
	<path style="fill:none;stroke:red;stroke-width:1px;stroke-linecap:butt;stroke-linejoin:miter;stroke-opacity:1" d="M 885.88,408.692 876.703,413.28 z" id="boundary" inkscape:connector-curvature="0" />
	<path style="fill:none;stroke:red;stroke-width:1px;stroke-linecap:butt;stroke-linejoin:miter;stroke-opacity:1" d="M 893.221,402.268 885.88,408.692 z" id="boundary" inkscape:connector-curvature="0" />
	<path style="fill:none;stroke:red;stroke-width:1px;stroke-linecap:butt;stroke-linejoin:miter;stroke-opacity:1" d="M 917.998,367.397 922.586,358.22 z" id="boundary" inkscape:connector-curvature="0" />
	<path style="fill:none;stroke:red;stroke-width:1px;stroke-linecap:butt;stroke-linejoin:miter;stroke-opacity:1" d="M 917.998,367.397 911.574,379.327 z" id="boundary" inkscape:connector-curvature="0" />
	<path style="fill:none;stroke:red;stroke-width:1px;stroke-linecap:butt;stroke-linejoin:miter;stroke-opacity:1" d="M 906.986,388.503 911.574,379.327 z" id="boundary" inkscape:connector-curvature="0" />
	<path style="fill:none;stroke:red;stroke-width:1px;stroke-linecap:butt;stroke-linejoin:miter;stroke-opacity:1" d="M 870.279,420.622 862.938,427.045 z" id="boundary" inkscape:connector-curvature="0" />
	<path style="fill:none;stroke:red;stroke-width:1px;stroke-linecap:butt;stroke-linejoin:miter;stroke-opacity:1" d="M 876.703,413.28 870.279,420.622 z" id="boundary" inkscape:connector-curvature="0" />
	<path style="fill:none;stroke:red;stroke-width:1px;stroke-linecap:butt;stroke-linejoin:miter;stroke-opacity:1" d="M 853.761,427.045 862.938,427.045 z" id="boundary" inkscape:connector-curvature="0" />
	<circle cx="4" cy="148.992" r="4" fill="#0" id="circle0"/>
	<circle cx="4" cy="158.168" r="4" fill="#0" id="circle1"/>
	<circle cx="4" cy="167.345" r="4" fill="#0" id="circle2"/>
	<circle cx="4" cy="176.522" r="4" fill="#0" id="circle3"/>
	<circle cx="4" cy="185.698" r="4" fill="#0" id="circle4"/>
	<circle cx="4" cy="194.875" r="4" fill="#0" id="circle5"/>
	<circle cx="4" cy="204.052" r="4" fill="#0" id="circle6"/>
	<circle cx="4" cy="213.228" r="4" fill="#0" id="circle7"/>
	<circle cx="4" cy="222.405" r="4" fill="#0" id="circle8"/>
	<circle cx="4" cy="231.582" r="4" fill="#0" id="circle9"/>
	<circle cx="4" cy="240.759" r="4" fill="#0" id="circle10"/>
	<circle cx="4" cy="249.935" r="4" fill="#0" id="circle11"/>
	<circle cx="9.50601" cy="257.277" r="4" fill="#0" id="circle12"/>
	<circle cx="13.1767" cy="146.239" r="4" fill="#0" id="circle13"/>
	<circle cx="18.6827" cy="257.277" r="4" fill="#0" id="circle14"/>
	<circle cx="22.3534" cy="146.239" r="4" fill="#0" id="circle15"/>
	<circle cx="27.8594" cy="257.277" r="4" fill="#0" id="circle16"/>
	<circle cx="31.5301" cy="146.239" r="4" fill="#0" id="circle17"/>
	<circle cx="37.0361" cy="257.277" r="4" fill="#0" id="circle18"/>
	<circle cx="40.7068" cy="146.239" r="4" fill="#0" id="circle19"/>
	<circle cx="46.2128" cy="257.277" r="4" fill="#0" id="circle20"/>
	<circle cx="49.8834" cy="146.239" r="4" fill="#0" id="circle21"/>
	<circle cx="55.3895" cy="257.277" r="4" fill="#0" id="circle22"/>
	<circle cx="59.0601" cy="146.239" r="4" fill="#0" id="circle23"/>
	<circle cx="64.5661" cy="257.277" r="4" fill="#0" id="circle24"/>
	<circle cx="68.2368" cy="146.239" r="4" fill="#0" id="circle25"/>
	<circle cx="73.7428" cy="257.277" r="4" fill="#0" id="circle26"/>
	<circle cx="77.4135" cy="146.239" r="4" fill="#0" id="circle27"/>
	<circle cx="82.9195" cy="257.277" r="4" fill="#0" id="circle28"/>
	<circle cx="86.5902" cy="146.239" r="4" fill="#0" id="circle29"/>
	<circle cx="92.0962" cy="257.277" r="4" fill="#0" id="circle30"/>
	<circle cx="95.7669" cy="146.239" r="4" fill="#0" id="circle31"/>
	<circle cx="101.273" cy="257.277" r="4" fill="#0" id="circle32"/>
	<circle cx="104.944" cy="146.239" r="4" fill="#0" id="circle33"/>
	<circle cx="110.45" cy="257.277" r="4" fill="#0" id="circle34"/>
	<circle cx="114.12" cy="146.239" r="4" fill="#0" id="circle35"/>
	<circle cx="119.626" cy="257.277" r="4" fill="#0" id="circle36"/>
	<circle cx="123.297" cy="146.239" r="4" fill="#0" id="circle37"/>
	<circle cx="128.803" cy="257.277" r="4" fill="#0" id="circle38"/>
	<circle cx="132.474" cy="146.239" r="4" fill="#0" id="circle39"/>
	<circle cx="137.98" cy="257.277" r="4" fill="#0" id="circle40"/>
	<circle cx="141.65" cy="146.239" r="4" fill="#0" id="circle41"/>
	<circle cx="147.156" cy="257.277" r="4" fill="#0" id="circle42"/>
	<circle cx="150.827" cy="146.239" r="4" fill="#0" id="circle43"/>
	<circle cx="156.333" cy="257.277" r="4" fill="#0" id="circle44"/>
	<circle cx="160.004" cy="146.239" r="4" fill="#0" id="circle45"/>
	<circle cx="165.51" cy="257.277" r="4" fill="#0" id="circle46"/>
	<circle cx="169.18" cy="146.239" r="4" fill="#0" id="circle47"/>
	<circle cx="174.686" cy="257.277" r="4" fill="#0" id="circle48"/>
	<circle cx="178.357" cy="146.239" r="4" fill="#0" id="circle49"/>
	<circle cx="183.863" cy="257.277" r="4" fill="#0" id="circle50"/>
	<circle cx="187.534" cy="146.239" r="4" fill="#0" id="circle51"/>
	<circle cx="193.04" cy="257.277" r="4" fill="#0" id="circle52"/>
	<circle cx="196.71" cy="146.239" r="4" fill="#0" id="circle53"/>
	<circle cx="202.216" cy="257.277" r="4" fill="#0" id="circle54"/>
	<circle cx="205.887" cy="146.239" r="4" fill="#0" id="circle55"/>
	<circle cx="211.393" cy="257.277" r="4" fill="#0" id="circle56"/>
	<circle cx="215.064" cy="146.239" r="4" fill="#0" id="circle57"/>
	<circle cx="220.57" cy="257.277" r="4" fill="#0" id="circle58"/>
	<circle cx="224.241" cy="146.239" r="4" fill="#0" id="circle59"/>
	<circle cx="229.747" cy="257.277" r="4" fill="#0" id="circle60"/>
	<circle cx="233.417" cy="146.239" r="4" fill="#0" id="circle61"/>
	<circle cx="238.923" cy="257.277" r="4" fill="#0" id="circle62"/>
	<circle cx="242.594" cy="146.239" r="4" fill="#0" id="circle63"/>
	<circle cx="248.1" cy="257.277" r="4" fill="#0" id="circle64"/>
	<circle cx="251.771" cy="146.239" r="4" fill="#0" id="circle65"/>
	<circle cx="257.277" cy="257.277" r="4" fill="#0" id="circle66"/>
	<circle cx="260.947" cy="146.239" r="4" fill="#0" id="circle67"/>
	<circle cx="266.453" cy="257.277" r="4" fill="#0" id="circle68"/>
	<circle cx="270.124" cy="146.239" r="4" fill="#0" id="circle69"/>
	<circle cx="275.63" cy="257.277" r="4" fill="#0" id="circle70"/>
	<circle cx="279.301" cy="146.239" r="4" fill="#0" id="circle71"/>
	<circle cx="284.807" cy="257.277" r="4" fill="#0" id="circle72"/>
	<circle cx="288.477" cy="146.239" r="4" fill="#0" id="circle73"/>
	<circle cx="293.983" cy="257.277" r="4" fill="#0" id="circle74"/>
	<circle cx="297.654" cy="146.239" r="4" fill="#0" id="circle75"/>
	<circle cx="303.16" cy="257.277" r="4" fill="#0" id="circle76"/>
	<circle cx="306.831" cy="146.239" r="4" fill="#0" id="circle77"/>
	<circle cx="312.337" cy="257.277" r="4" fill="#0" id="circle78"/>
	<circle cx="316.007" cy="146.239" r="4" fill="#0" id="circle79"/>
	<circle cx="321.513" cy="257.277" r="4" fill="#0" id="circle80"/>
	<circle cx="325.184" cy="146.239" r="4" fill="#0" id="circle81"/>
	<circle cx="330.69" cy="257.277" r="4" fill="#0" id="circle82"/>
	<circle cx="334.361" cy="146.239" r="4" fill="#0" id="circle83"/>
	<circle cx="339.867" cy="257.277" r="4" fill="#0" id="circle84"/>
	<circle cx="343.537" cy="146.239" r="4" fill="#0" id="circle85"/>
	<circle cx="349.043" cy="257.277" r="4" fill="#0" id="circle86"/>
	<circle cx="352.714" cy="146.239" r="4" fill="#0" id="circle87"/>
	<circle cx="358.22" cy="257.277" r="4" fill="#0" id="circle88"/>
	<circle cx="361.891" cy="146.239" r="4" fill="#0" id="circle89"/>
	<circle cx="367.397" cy="257.277" r="4" fill="#0" id="circle90"/>
	<circle cx="371.068" cy="146.239" r="4" fill="#0" id="circle91"/>
	<circle cx="376.574" cy="257.277" r="4" fill="#0" id="circle92"/>
	<circle cx="380.244" cy="146.239" r="4" fill="#0" id="circle93"/>
	<circle cx="385.75" cy="257.277" r="4" fill="#0" id="circle94"/>
	<circle cx="389.421" cy="146.239" r="4" fill="#0" id="circle95"/>
	<circle cx="394.927" cy="257.277" r="4" fill="#0" id="circle96"/>
	<circle cx="398.598" cy="146.239" r="4" fill="#0" id="circle97"/>
	<circle cx="404.104" cy="257.277" r="4" fill="#0" id="circle98"/>
	<circle cx="407.774" cy="146.239" r="4" fill="#0" id="circle99"/>
	<circle cx="413.28" cy="257.277" r="4" fill="#0" id="circle100"/>
	<circle cx="416.951" cy="146.239" r="4" fill="#0" id="circle101"/>
	<circle cx="422.457" cy="257.277" r="4" fill="#0" id="circle102"/>
	<circle cx="426.128" cy="146.239" r="4" fill="#0" id="circle103"/>
	<circle cx="431.634" cy="257.277" r="4" fill="#0" id="circle104"/>
	<circle cx="435.304" cy="146.239" r="4" fill="#0" id="circle105"/>
	<circle cx="440.81" cy="257.277" r="4" fill="#0" id="circle106"/>
	<circle cx="444.481" cy="146.239" r="4" fill="#0" id="circle107"/>
	<circle cx="449.987" cy="257.277" r="4" fill="#0" id="circle108"/>
	<circle cx="453.658" cy="146.239" r="4" fill="#0" id="circle109"/>
	<circle cx="459.164" cy="257.277" r="4" fill="#0" id="circle110"/>
	<circle cx="462.834" cy="146.239" r="4" fill="#0" id="circle111"/>
	<circle cx="468.34" cy="257.277" r="4" fill="#0" id="circle112"/>
	<circle cx="472.011" cy="146.239" r="4" fill="#0" id="circle113"/>
	<circle cx="477.517" cy="257.277" r="4" fill="#0" id="circle114"/>
	<circle cx="481.188" cy="146.239" r="4" fill="#0" id="circle115"/>
	<circle cx="486.694" cy="257.277" r="4" fill="#0" id="circle116"/>
	<circle cx="490.364" cy="146.239" r="4" fill="#0" id="circle117"/>
	<circle cx="495.87" cy="257.277" r="4" fill="#0" id="circle118"/>
	<circle cx="499.541" cy="146.239" r="4" fill="#0" id="circle119"/>
	<circle cx="505.047" cy="257.277" r="4" fill="#0" id="circle120"/>
	<circle cx="508.718" cy="146.239" r="4" fill="#0" id="circle121"/>
	<circle cx="514.224" cy="257.277" r="4" fill="#0" id="circle122"/>
	<circle cx="517.895" cy="146.239" r="4" fill="#0" id="circle123"/>
	<circle cx="523.401" cy="257.277" r="4" fill="#0" id="circle124"/>
	<circle cx="527.071" cy="146.239" r="4" fill="#0" id="circle125"/>
	<circle cx="532.577" cy="257.277" r="4" fill="#0" id="circle126"/>
	<circle cx="536.248" cy="146.239" r="4" fill="#0" id="circle127"/>
	<circle cx="541.754" cy="257.277" r="4" fill="#0" id="circle128"/>
	<circle cx="545.425" cy="146.239" r="4" fill="#0" id="circle129"/>
	<circle cx="550.931" cy="257.277" r="4" fill="#0" id="circle130"/>
	<circle cx="554.601" cy="146.239" r="4" fill="#0" id="circle131"/>
	<circle cx="560.107" cy="257.277" r="4" fill="#0" id="circle132"/>
	<circle cx="563.778" cy="146.239" r="4" fill="#0" id="circle133"/>
	<circle cx="569.284" cy="257.277" r="4" fill="#0" id="circle134"/>
	<circle cx="572.955" cy="146.239" r="4" fill="#0" id="circle135"/>
	<circle cx="578.461" cy="257.277" r="4" fill="#0" id="circle136"/>
	<circle cx="582.131" cy="146.239" r="4" fill="#0" id="circle137"/>
	<circle cx="587.637" cy="257.277" r="4" fill="#0" id="circle138"/>
	<circle cx="591.308" cy="146.239" r="4" fill="#0" id="circle139"/>
	<circle cx="596.814" cy="257.277" r="4" fill="#0" id="circle140"/>
	<circle cx="600.485" cy="146.239" r="4" fill="#0" id="circle141"/>
	<circle cx="605.991" cy="257.277" r="4" fill="#0" id="circle142"/>
	<circle cx="609.661" cy="146.239" r="4" fill="#0" id="circle143"/>
	<circle cx="615.167" cy="257.277" r="4" fill="#0" id="circle144"/>
	<circle cx="618.838" cy="146.239" r="4" fill="#0" id="circle145"/>
	<circle cx="624.344" cy="257.277" r="4" fill="#0" id="circle146"/>
	<circle cx="628.015" cy="146.239" r="4" fill="#0" id="circle147"/>
	<circle cx="633.521" cy="257.277" r="4" fill="#0" id="circle148"/>
	<circle cx="637.191" cy="146.239" r="4" fill="#0" id="circle149"/>
	<circle cx="642.698" cy="257.277" r="4" fill="#0" id="circle150"/>
	<circle cx="646.368" cy="146.239" r="4" fill="#0" id="circle151"/>
	<circle cx="651.874" cy="257.277" r="4" fill="#0" id="circle152"/>
	<circle cx="655.545" cy="146.239" r="4" fill="#0" id="circle153"/>
	<circle cx="661.051" cy="257.277" r="4" fill="#0" id="circle154"/>
	<circle cx="664.722" cy="146.239" r="4" fill="#0" id="circle155"/>
	<circle cx="670.228" cy="257.277" r="4" fill="#0" id="circle156"/>
	<circle cx="673.898" cy="146.239" r="4" fill="#0" id="circle157"/>
	<circle cx="679.404" cy="257.277" r="4" fill="#0" id="circle158"/>
	<circle cx="683.075" cy="146.239" r="4" fill="#0" id="circle159"/>
	<circle cx="688.581" cy="257.277" r="4" fill="#0" id="circle160"/>
	<circle cx="692.252" cy="146.239" r="4" fill="#0" id="circle161"/>
	<circle cx="697.758" cy="257.277" r="4" fill="#0" id="circle162"/>
	<circle cx="701.428" cy="146.239" r="4" fill="#0" id="circle163"/>
	<circle cx="706.934" cy="257.277" r="4" fill="#0" id="circle164"/>
	<circle cx="710.605" cy="146.239" r="4" fill="#0" id="circle165"/>
	<circle cx="716.111" cy="257.277" r="4" fill="#0" id="circle166"/>
	<circle cx="719.782" cy="146.239" r="4" fill="#0" id="circle167"/>
	<circle cx="725.288" cy="257.277" r="4" fill="#0" id="circle168"/>
	<circle cx="728.958" cy="146.239" r="4" fill="#0" id="circle169"/>
	<circle cx="734.464" cy="257.277" r="4" fill="#0" id="circle170"/>
	<circle cx="738.135" cy="146.239" r="4" fill="#0" id="circle171"/>
	<circle cx="743.641" cy="257.277" r="4" fill="#0" id="circle172"/>
	<circle cx="747.312" cy="146.239" r="4" fill="#0" id="circle173"/>
	<circle cx="752.818" cy="257.277" r="4" fill="#0" id="circle174"/>
	<circle cx="756.488" cy="146.239" r="4" fill="#0" id="circle175"/>
	<circle cx="756.488" cy="465.587" r="4" fill="#0" id="circle176"/>
	<circle cx="761.077" cy="456.411" r="4" fill="#0" id="circle177"/>
	<circle cx="761.994" cy="257.277" r="4" fill="#0" id="circle178"/>
	<circle cx="765.665" cy="146.239" r="4" fill="#0" id="circle179"/>
	<circle cx="765.665" cy="447.234" r="4" fill="#0" id="circle180"/>
	<circle cx="765.665" cy="468.34" r="4" fill="#0" id="circle181"/>
	<circle cx="770.253" cy="428.881" r="4" fill="#0" id="circle182"/>
	<circle cx="770.253" cy="438.057" r="4" fill="#0" id="circle183"/>
	<circle cx="771.171" cy="257.277" r="4" fill="#0" id="circle184"/>
	<circle cx="774.842" cy="6.75301" r="4" fill="#0" id="circle185"/>
	<circle cx="774.842" cy="15.9297" r="4" fill="#0" id="circle186"/>
	<circle cx="774.842" cy="25.1064" r="4" fill="#0" id="circle187"/>
	<circle cx="774.842" cy="34.2831" r="4" fill="#0" id="circle188"/>
	<circle cx="774.842" cy="43.4598" r="4" fill="#0" id="circle189"/>
	<circle cx="774.842" cy="52.6364" r="4" fill="#0" id="circle190"/>
	<circle cx="774.842" cy="61.8131" r="4" fill="#0" id="circle191"/>
	<circle cx="774.842" cy="70.9898" r="4" fill="#0" id="circle192"/>
	<circle cx="774.842" cy="80.1665" r="4" fill="#0" id="circle193"/>
	<circle cx="774.842" cy="89.3432" r="4" fill="#0" id="circle194"/>
	<circle cx="774.842" cy="98.5199" r="4" fill="#0" id="circle195"/>
	<circle cx="774.842" cy="107.697" r="4" fill="#0" id="circle196"/>
	<circle cx="774.842" cy="116.873" r="4" fill="#0" id="circle197"/>
	<circle cx="774.842" cy="146.239" r="4" fill="#0" id="circle198"/>
	<circle cx="774.842" cy="415.116" r="4" fill="#0" id="circle199"/>
	<circle cx="774.842" cy="465.587" r="4" fill="#0" id="circle200"/>
	<circle cx="779.43" cy="387.586" r="4" fill="#0" id="circle201"/>
	<circle cx="779.43" cy="396.762" r="4" fill="#0" id="circle202"/>
	<circle cx="779.43" cy="405.939" r="4" fill="#0" id="circle203"/>
	<circle cx="780.348" cy="124.215" r="4" fill="#0" id="circle204"/>
	<circle cx="780.348" cy="257.277" r="4" fill="#0" id="circle205"/>
	<circle cx="784.019" cy="4" r="4" fill="#0" id="circle206"/>
	<circle cx="784.019" cy="146.239" r="4" fill="#0" id="circle207"/>
	<circle cx="784.019" cy="369.232" r="4" fill="#0" id="circle208"/>
	<circle cx="784.019" cy="378.409" r="4" fill="#0" id="circle209"/>
	<circle cx="784.019" cy="463.752" r="4" fill="#0" id="circle210"/>
	<circle cx="788.607" cy="341.702" r="4" fill="#0" id="circle211"/>
	<circle cx="788.607" cy="350.879" r="4" fill="#0" id="circle212"/>
	<circle cx="788.607" cy="360.056" r="4" fill="#0" id="circle213"/>
	<circle cx="789.525" cy="124.215" r="4" fill="#0" id="circle214"/>
	<circle cx="789.525" cy="257.277" r="4" fill="#0" id="circle215"/>
	<circle cx="792.278" cy="459.164" r="4" fill="#0" id="circle216"/>
	<circle cx="793.195" cy="4" r="4" fill="#0" id="circle217"/>
	<circle cx="793.195" cy="133.391" r="4" fill="#0" id="circle218"/>
	<circle cx="793.195" cy="142.568" r="4" fill="#0" id="circle219"/>
	<circle cx="793.195" cy="304.995" r="4" fill="#0" id="circle220"/>
	<circle cx="793.195" cy="314.172" r="4" fill="#0" id="circle221"/>
	<circle cx="793.195" cy="323.349" r="4" fill="#0" id="circle222"/>
	<circle cx="793.195" cy="332.525" r="4" fill="#0" id="circle223"/>
	<circle cx="797.784" cy="261.865" r="4" fill="#0" id="circle224"/>
	<circle cx="797.784" cy="271.042" r="4" fill="#0" id="circle225"/>
	<circle cx="797.784" cy="280.218" r="4" fill="#0" id="circle226"/>
	<circle cx="797.784" cy="289.395" r="4" fill="#0" id="circle227"/>
	<circle cx="801.454" cy="457.328" r="4" fill="#0" id="circle228"/>
	<circle cx="802.372" cy="4" r="4" fill="#0" id="circle229"/>
	<circle cx="810.631" cy="452.74" r="4" fill="#0" id="circle230"/>
	<circle cx="811.549" cy="4" r="4" fill="#0" id="circle231"/>
	<circle cx="819.808" cy="449.987" r="4" fill="#0" id="circle232"/>
	<circle cx="820.725" cy="4" r="4" fill="#0" id="circle233"/>
	<circle cx="828.067" cy="444.481" r="4" fill="#0" id="circle234"/>
	<circle cx="829.902" cy="4" r="4" fill="#0" id="circle235"/>
	<circle cx="837.243" cy="439.893" r="4" fill="#0" id="circle236"/>
	<circle cx="839.079" cy="4" r="4" fill="#0" id="circle237"/>
	<circle cx="844.585" cy="431.634" r="4" fill="#0" id="circle238"/>
	<circle cx="848.255" cy="4" r="4" fill="#0" id="circle239"/>
	<circle cx="853.761" cy="427.045" r="4" fill="#0" id="circle240"/>
	<circle cx="857.432" cy="4" r="4" fill="#0" id="circle241"/>
	<circle cx="862.938" cy="427.045" r="4" fill="#0" id="circle242"/>
	<circle cx="866.609" cy="4" r="4" fill="#0" id="circle243"/>
	<circle cx="870.279" cy="420.622" r="4" fill="#0" id="circle244"/>
	<circle cx="875.785" cy="4" r="4" fill="#0" id="circle245"/>
	<circle cx="876.703" cy="413.28" r="4" fill="#0" id="circle246"/>
	<circle cx="884.962" cy="4" r="4" fill="#0" id="circle247"/>
	<circle cx="885.88" cy="408.692" r="4" fill="#0" id="circle248"/>
	<circle cx="893.221" cy="402.268" r="4" fill="#0" id="circle249"/>
	<circle cx="894.139" cy="4" r="4" fill="#0" id="circle250"/>
	<circle cx="899.645" cy="394.927" r="4" fill="#0" id="circle251"/>
	<circle cx="903.315" cy="4" r="4" fill="#0" id="circle252"/>
	<circle cx="906.986" cy="388.503" r="4" fill="#0" id="circle253"/>
	<circle cx="911.574" cy="379.327" r="4" fill="#0" id="circle254"/>
	<circle cx="912.492" cy="4" r="4" fill="#0" id="circle255"/>
	<circle cx="917.998" cy="367.397" r="4" fill="#0" id="circle256"/>
	<circle cx="921.669" cy="4" r="4" fill="#0" id="circle257"/>
	<circle cx="922.586" cy="358.22" r="4" fill="#0" id="circle258"/>
	<circle cx="929.928" cy="351.796" r="4" fill="#0" id="circle259"/>
	<circle cx="930.846" cy="4" r="4" fill="#0" id="circle260"/>
	<circle cx="934.516" cy="342.62" r="4" fill="#0" id="circle261"/>
	<circle cx="940.022" cy="4" r="4" fill="#0" id="circle262"/>
	<circle cx="940.94" cy="330.69" r="4" fill="#0" id="circle263"/>
	<circle cx="948.281" cy="324.266" r="4" fill="#0" id="circle264"/>
	<circle cx="949.199" cy="4" r="4" fill="#0" id="circle265"/>
	<circle cx="952.87" cy="315.09" r="4" fill="#0" id="circle266"/>
	<circle cx="958.376" cy="4" r="4" fill="#0" id="circle267"/>
	<circle cx="959.293" cy="293.983" r="4" fill="#0" id="circle268"/>
	<circle cx="959.293" cy="303.16" r="4" fill="#0" id="circle269"/>
	<circle cx="963.882" cy="284.807" r="4" fill="#0" id="circle270"/>
	<circle cx="967.552" cy="4" r="4" fill="#0" id="circle271"/>
	<circle cx="968.47" cy="275.63" r="4" fill="#0" id="circle272"/>
	<circle cx="973.058" cy="252.688" r="4" fill="#0" id="circle273"/>
	<circle cx="973.058" cy="261.865" r="4" fill="#0" id="circle274"/>
	<circle cx="976.729" cy="4" r="4" fill="#0" id="circle275"/>
	<circle cx="977.647" cy="124.215" r="4" fill="#0" id="circle276"/>
	<circle cx="977.647" cy="133.391" r="4" fill="#0" id="circle277"/>
	<circle cx="977.647" cy="142.568" r="4" fill="#0" id="circle278"/>
	<circle cx="977.647" cy="151.745" r="4" fill="#0" id="circle279"/>
	<circle cx="977.647" cy="160.921" r="4" fill="#0" id="circle280"/>
	<circle cx="977.647" cy="170.098" r="4" fill="#0" id="circle281"/>
	<circle cx="977.647" cy="179.275" r="4" fill="#0" id="circle282"/>
	<circle cx="977.647" cy="188.451" r="4" fill="#0" id="circle283"/>
	<circle cx="977.647" cy="197.628" r="4" fill="#0" id="circle284"/>
	<circle cx="977.647" cy="206.805" r="4" fill="#0" id="circle285"/>
	<circle cx="977.647" cy="215.981" r="4" fill="#0" id="circle286"/>
	<circle cx="977.647" cy="225.158" r="4" fill="#0" id="circle287"/>
	<circle cx="977.647" cy="234.335" r="4" fill="#0" id="circle288"/>
	<circle cx="977.647" cy="243.512" r="4" fill="#0" id="circle289"/>
	<circle cx="985.906" cy="4" r="4" fill="#0" id="circle290"/>
	<circle cx="986.823" cy="124.215" r="4" fill="#0" id="circle291"/>
	<circle cx="995.082" cy="5.83534" r="4" fill="#0" id="circle292"/>
	<circle cx="996" cy="15.012" r="4" fill="#0" id="circle293"/>
	<circle cx="996" cy="24.1887" r="4" fill="#0" id="circle294"/>
	<circle cx="996" cy="33.3654" r="4" fill="#0" id="circle295"/>
	<circle cx="996" cy="42.5421" r="4" fill="#0" id="circle296"/>
	<circle cx="996" cy="51.7188" r="4" fill="#0" id="circle297"/>
	<circle cx="996" cy="60.8955" r="4" fill="#0" id="circle298"/>
	<circle cx="996" cy="70.0722" r="4" fill="#0" id="circle299"/>
	<circle cx="996" cy="79.2488" r="4" fill="#0" id="circle300"/>
	<circle cx="996" cy="88.4255" r="4" fill="#0" id="circle301"/>
	<circle cx="996" cy="97.6022" r="4" fill="#0" id="circle302"/>
	<circle cx="996" cy="106.779" r="4" fill="#0" id="circle303"/>
	<circle cx="996" cy="115.956" r="4" fill="#0" id="circle304"/>
	</g>
</svg>