<?xml version="1.0" encoding="UTF-8" standalone="no"?>
<!-- Created with CurveBenchmark -->
<svg
	xmlns:dc="http://purl.org/dc/elements/1.1/"
	xmlns:cc="http://creativecommons.org/ns#"
	xmlns:rdf="http://www.w3.org/1999/02/22-rdf-syntax-ns#"
	xmlns:svg="http://www.w3.org/2000/svg"
	xmlns="http://www.w3.org/2000/svg"
	xmlns:sodipodi="http://sodipodi.sourceforge.net/DTD/sodipodi-0.dtd"
	xmlns:inkscape="http://www.inkscape.org/namespaces/inkscape"
	width="1000"
	height="1000"
	id="svg2"
	version="1.1"
	sodipodi:docname="manifold/crust-children-19.png.txt">
<defs
	id="defs4" />
<metadata
	id="metadata7">
	<rdf:RDF>
		<cc:Work
			rdf:about="">
			<dc:format>image/svg+xml</dc:format>
			<dc:type
				rdf:resource="http://purl.org/dc/dcmitype/StillImage" />
			<dc:title></dc:title>
		</cc:Work>
	</rdf:RDF>
</metadata>
<g
	inkscape:label="Layer 1"
	inkscape:groupmode="layer"
	id="layer1">
	<path style="fill:none;stroke:red;stroke-width:1px;stroke-linecap:butt;stroke-linejoin:miter;stroke-opacity:1" d="M 21.9061,79.2058 15.9374,91.1432 z" id="boundary" inkscape:connector-curvature="0" />
	<path style="fill:none;stroke:red;stroke-width:1px;stroke-linecap:butt;stroke-linejoin:miter;stroke-opacity:1" d="M 15.9374,91.1432 15.9374,103.081 z" id="boundary" inkscape:connector-curvature="0" />
	<path style="fill:none;stroke:red;stroke-width:1px;stroke-linecap:butt;stroke-linejoin:miter;stroke-opacity:1" d="M 27.8748,55.3309 21.9061,67.2684 z" id="boundary" inkscape:connector-curvature="0" />
	<path style="fill:none;stroke:red;stroke-width:1px;stroke-linecap:butt;stroke-linejoin:miter;stroke-opacity:1" d="M 21.9061,79.2058 21.9061,67.2684 z" id="boundary" inkscape:connector-curvature="0" />
	<path style="fill:none;stroke:red;stroke-width:1px;stroke-linecap:butt;stroke-linejoin:miter;stroke-opacity:1" d="M 15.9374,103.081 21.9061,113.824 z" id="boundary" inkscape:connector-curvature="0" />
	<path style="fill:none;stroke:red;stroke-width:1px;stroke-linecap:butt;stroke-linejoin:miter;stroke-opacity:1" d="M 21.9061,113.824 21.9061,125.762 z" id="boundary" inkscape:connector-curvature="0" />
	<path style="fill:none;stroke:red;stroke-width:1px;stroke-linecap:butt;stroke-linejoin:miter;stroke-opacity:1" d="M 37.4248,45.781 27.8748,55.3309 z" id="boundary" inkscape:connector-curvature="0" />
	<path style="fill:none;stroke:red;stroke-width:1px;stroke-linecap:butt;stroke-linejoin:miter;stroke-opacity:1" d="M 46.9747,36.231 56.5247,27.8748 z" id="boundary" inkscape:connector-curvature="0" />
	<path style="fill:none;stroke:red;stroke-width:1px;stroke-linecap:butt;stroke-linejoin:miter;stroke-opacity:1" d="M 37.4248,45.781 46.9747,36.231 z" id="boundary" inkscape:connector-curvature="0" />
	<path style="fill:none;stroke:red;stroke-width:1px;stroke-linecap:butt;stroke-linejoin:miter;stroke-opacity:1" d="M 27.8748,136.505 31.4561,148.443 z" id="boundary" inkscape:connector-curvature="0" />
	<path style="fill:none;stroke:red;stroke-width:1px;stroke-linecap:butt;stroke-linejoin:miter;stroke-opacity:1" d="M 27.8748,136.505 21.9061,125.762 z" id="boundary" inkscape:connector-curvature="0" />
	<path style="fill:none;stroke:red;stroke-width:1px;stroke-linecap:butt;stroke-linejoin:miter;stroke-opacity:1" d="M 31.4561,148.443 37.4248,159.187 z" id="boundary" inkscape:connector-curvature="0" />
	<path style="fill:none;stroke:red;stroke-width:1px;stroke-linecap:butt;stroke-linejoin:miter;stroke-opacity:1" d="M 45.781,168.736 37.4248,159.187 z" id="boundary" inkscape:connector-curvature="0" />
	<path style="fill:none;stroke:red;stroke-width:1px;stroke-linecap:butt;stroke-linejoin:miter;stroke-opacity:1" d="M 45.781,168.736 55.3309,177.093 z" id="boundary" inkscape:connector-curvature="0" />
	<path style="fill:none;stroke:red;stroke-width:1px;stroke-linecap:butt;stroke-linejoin:miter;stroke-opacity:1" d="M 55.3309,177.093 63.6871,186.643 z" id="boundary" inkscape:connector-curvature="0" />
	<path style="fill:none;stroke:red;stroke-width:1px;stroke-linecap:butt;stroke-linejoin:miter;stroke-opacity:1" d="M 67.2684,21.9061 56.5247,27.8748 z" id="boundary" inkscape:connector-curvature="0" />
	<path style="fill:none;stroke:red;stroke-width:1px;stroke-linecap:butt;stroke-linejoin:miter;stroke-opacity:1" d="M 9.96871,306.017 4,317.954 z" id="boundary" inkscape:connector-curvature="0" />
	<path style="fill:none;stroke:red;stroke-width:1px;stroke-linecap:butt;stroke-linejoin:miter;stroke-opacity:1" d="M 4,329.892 9.96871,340.635 z" id="boundary" inkscape:connector-curvature="0" />
	<path style="fill:none;stroke:red;stroke-width:1px;stroke-linecap:butt;stroke-linejoin:miter;stroke-opacity:1" d="M 4,317.954 4,329.892 z" id="boundary" inkscape:connector-curvature="0" />
	<path style="fill:none;stroke:red;stroke-width:1px;stroke-linecap:butt;stroke-linejoin:miter;stroke-opacity:1" d="M 15.9374,294.079 9.96871,306.017 z" id="boundary" inkscape:connector-curvature="0" />
	<path style="fill:none;stroke:red;stroke-width:1px;stroke-linecap:butt;stroke-linejoin:miter;stroke-opacity:1" d="M 9.96871,352.573 9.96871,340.635 z" id="boundary" inkscape:connector-curvature="0" />
	<path style="fill:none;stroke:red;stroke-width:1px;stroke-linecap:butt;stroke-linejoin:miter;stroke-opacity:1" d="M 21.9061,282.142 15.9374,294.079 z" id="boundary" inkscape:connector-curvature="0" />
	<path style="fill:none;stroke:red;stroke-width:1px;stroke-linecap:butt;stroke-linejoin:miter;stroke-opacity:1" d="M 9.96871,364.51 15.9374,375.254 z" id="boundary" inkscape:connector-curvature="0" />
	<path style="fill:none;stroke:red;stroke-width:1px;stroke-linecap:butt;stroke-linejoin:miter;stroke-opacity:1" d="M 15.9374,375.254 15.9374,387.191 z" id="boundary" inkscape:connector-curvature="0" />
	<path style="fill:none;stroke:red;stroke-width:1px;stroke-linecap:butt;stroke-linejoin:miter;stroke-opacity:1" d="M 15.9374,387.191 21.9061,397.935 z" id="boundary" inkscape:connector-curvature="0" />
	<path style="fill:none;stroke:red;stroke-width:1px;stroke-linecap:butt;stroke-linejoin:miter;stroke-opacity:1" d="M 9.96871,364.51 9.96871,352.573 z" id="boundary" inkscape:connector-curvature="0" />
	<path style="fill:none;stroke:red;stroke-width:1px;stroke-linecap:butt;stroke-linejoin:miter;stroke-opacity:1" d="M 57.7184,246.33 48.1685,254.686 z" id="boundary" inkscape:connector-curvature="0" />
	<path style="fill:none;stroke:red;stroke-width:1px;stroke-linecap:butt;stroke-linejoin:miter;stroke-opacity:1" d="M 27.8748,270.205 37.4248,260.655 z" id="boundary" inkscape:connector-curvature="0" />
	<path style="fill:none;stroke:red;stroke-width:1px;stroke-linecap:butt;stroke-linejoin:miter;stroke-opacity:1" d="M 48.1685,254.686 37.4248,260.655 z" id="boundary" inkscape:connector-curvature="0" />
	<path style="fill:none;stroke:red;stroke-width:1px;stroke-linecap:butt;stroke-linejoin:miter;stroke-opacity:1" d="M 63.6871,234.392 57.7184,246.33 z" id="boundary" inkscape:connector-curvature="0" />
	<path style="fill:none;stroke:red;stroke-width:1px;stroke-linecap:butt;stroke-linejoin:miter;stroke-opacity:1" d="M 21.9061,409.872 21.9061,421.81 z" id="boundary" inkscape:connector-curvature="0" />
	<path style="fill:none;stroke:red;stroke-width:1px;stroke-linecap:butt;stroke-linejoin:miter;stroke-opacity:1" d="M 21.9061,409.872 21.9061,397.935 z" id="boundary" inkscape:connector-curvature="0" />
	<path style="fill:none;stroke:red;stroke-width:1px;stroke-linecap:butt;stroke-linejoin:miter;stroke-opacity:1" d="M 21.9061,282.142 27.8748,270.205 z" id="boundary" inkscape:connector-curvature="0" />
	<path style="fill:none;stroke:red;stroke-width:1px;stroke-linecap:butt;stroke-linejoin:miter;stroke-opacity:1" d="M 21.9061,421.81 21.9061,433.747 z" id="boundary" inkscape:connector-curvature="0" />
	<path style="fill:none;stroke:red;stroke-width:1px;stroke-linecap:butt;stroke-linejoin:miter;stroke-opacity:1" d="M 88.7557,9.96871 99.4994,4 z" id="boundary" inkscape:connector-curvature="0" />
	<path style="fill:none;stroke:red;stroke-width:1px;stroke-linecap:butt;stroke-linejoin:miter;stroke-opacity:1" d="M 67.2684,21.9061 78.012,15.9374 z" id="boundary" inkscape:connector-curvature="0" />
	<path style="fill:none;stroke:red;stroke-width:1px;stroke-linecap:butt;stroke-linejoin:miter;stroke-opacity:1" d="M 78.012,15.9374 88.7557,9.96871 z" id="boundary" inkscape:connector-curvature="0" />
	<path style="fill:none;stroke:red;stroke-width:1px;stroke-linecap:butt;stroke-linejoin:miter;stroke-opacity:1" d="M 99.4994,4 111.437,4 z" id="boundary" inkscape:connector-curvature="0" />
	<path style="fill:none;stroke:red;stroke-width:1px;stroke-linecap:butt;stroke-linejoin:miter;stroke-opacity:1" d="M 111.437,4 123.374,4 z" id="boundary" inkscape:connector-curvature="0" />
	<path style="fill:none;stroke:red;stroke-width:1px;stroke-linecap:butt;stroke-linejoin:miter;stroke-opacity:1" d="M 135.312,4 123.374,4 z" id="boundary" inkscape:connector-curvature="0" />
	<path style="fill:none;stroke:red;stroke-width:1px;stroke-linecap:butt;stroke-linejoin:miter;stroke-opacity:1" d="M 135.312,4 147.249,4 z" id="boundary" inkscape:connector-curvature="0" />
	<path style="fill:none;stroke:red;stroke-width:1px;stroke-linecap:butt;stroke-linejoin:miter;stroke-opacity:1" d="M 147.249,4 159.187,6.38748 z" id="boundary" inkscape:connector-curvature="0" />
	<path style="fill:none;stroke:red;stroke-width:1px;stroke-linecap:butt;stroke-linejoin:miter;stroke-opacity:1" d="M 171.124,9.96871 159.187,6.38748 z" id="boundary" inkscape:connector-curvature="0" />
	<path style="fill:none;stroke:red;stroke-width:1px;stroke-linecap:butt;stroke-linejoin:miter;stroke-opacity:1" d="M 69.6558,209.324 69.6558,221.261 z" id="boundary" inkscape:connector-curvature="0" />
	<path style="fill:none;stroke:red;stroke-width:1px;stroke-linecap:butt;stroke-linejoin:miter;stroke-opacity:1" d="M 63.6871,186.643 69.6558,197.386 z" id="boundary" inkscape:connector-curvature="0" />
	<path style="fill:none;stroke:red;stroke-width:1px;stroke-linecap:butt;stroke-linejoin:miter;stroke-opacity:1" d="M 69.6558,221.261 63.6871,234.392 z" id="boundary" inkscape:connector-curvature="0" />
	<path style="fill:none;stroke:red;stroke-width:1px;stroke-linecap:butt;stroke-linejoin:miter;stroke-opacity:1" d="M 69.6558,197.386 69.6558,209.324 z" id="boundary" inkscape:connector-curvature="0" />
	<path style="fill:none;stroke:red;stroke-width:1px;stroke-linecap:butt;stroke-linejoin:miter;stroke-opacity:1" d="M 21.9061,445.685 21.9061,457.622 z" id="boundary" inkscape:connector-curvature="0" />
	<path style="fill:none;stroke:red;stroke-width:1px;stroke-linecap:butt;stroke-linejoin:miter;stroke-opacity:1" d="M 21.9061,457.622 27.8748,468.366 z" id="boundary" inkscape:connector-curvature="0" />
	<path style="fill:none;stroke:red;stroke-width:1px;stroke-linecap:butt;stroke-linejoin:miter;stroke-opacity:1" d="M 21.9061,445.685 21.9061,433.747 z" id="boundary" inkscape:connector-curvature="0" />
	<path style="fill:none;stroke:red;stroke-width:1px;stroke-linecap:butt;stroke-linejoin:miter;stroke-opacity:1" d="M 27.8748,468.366 33.8436,479.11 z" id="boundary" inkscape:connector-curvature="0" />
	<path style="fill:none;stroke:red;stroke-width:1px;stroke-linecap:butt;stroke-linejoin:miter;stroke-opacity:1" d="M 33.8436,491.047 33.8436,479.11 z" id="boundary" inkscape:connector-curvature="0" />
	<path style="fill:none;stroke:red;stroke-width:1px;stroke-linecap:butt;stroke-linejoin:miter;stroke-opacity:1" d="M 39.8123,501.791 45.781,512.534 z" id="boundary" inkscape:connector-curvature="0" />
	<path style="fill:none;stroke:red;stroke-width:1px;stroke-linecap:butt;stroke-linejoin:miter;stroke-opacity:1" d="M 39.8123,501.791 33.8436,491.047 z" id="boundary" inkscape:connector-curvature="0" />
	<path style="fill:none;stroke:red;stroke-width:1px;stroke-linecap:butt;stroke-linejoin:miter;stroke-opacity:1" d="M 45.781,524.472 45.781,512.534 z" id="boundary" inkscape:connector-curvature="0" />
	<path style="fill:none;stroke:red;stroke-width:1px;stroke-linecap:butt;stroke-linejoin:miter;stroke-opacity:1" d="M 45.781,524.472 45.781,536.409 z" id="boundary" inkscape:connector-curvature="0" />
	<path style="fill:none;stroke:red;stroke-width:1px;stroke-linecap:butt;stroke-linejoin:miter;stroke-opacity:1" d="M 45.781,536.409 45.781,548.347 z" id="boundary" inkscape:connector-curvature="0" />
	<path style="fill:none;stroke:red;stroke-width:1px;stroke-linecap:butt;stroke-linejoin:miter;stroke-opacity:1" d="M 51.7497,559.09 51.7497,571.028 z" id="boundary" inkscape:connector-curvature="0" />
	<path style="fill:none;stroke:red;stroke-width:1px;stroke-linecap:butt;stroke-linejoin:miter;stroke-opacity:1" d="M 51.7497,559.09 45.781,548.347 z" id="boundary" inkscape:connector-curvature="0" />
	<path style="fill:none;stroke:red;stroke-width:1px;stroke-linecap:butt;stroke-linejoin:miter;stroke-opacity:1" d="M 51.7497,571.028 51.7497,582.965 z" id="boundary" inkscape:connector-curvature="0" />
	<path style="fill:none;stroke:red;stroke-width:1px;stroke-linecap:butt;stroke-linejoin:miter;stroke-opacity:1" d="M 57.7184,606.84 54.1372,594.903 z" id="boundary" inkscape:connector-curvature="0" />
	<path style="fill:none;stroke:red;stroke-width:1px;stroke-linecap:butt;stroke-linejoin:miter;stroke-opacity:1" d="M 54.1372,594.903 51.7497,582.965 z" id="boundary" inkscape:connector-curvature="0" />
	<path style="fill:none;stroke:red;stroke-width:1px;stroke-linecap:butt;stroke-linejoin:miter;stroke-opacity:1" d="M 63.6871,630.715 60.1059,618.777 z" id="boundary" inkscape:connector-curvature="0" />
	<path style="fill:none;stroke:red;stroke-width:1px;stroke-linecap:butt;stroke-linejoin:miter;stroke-opacity:1" d="M 69.6558,641.458 63.6871,630.715 z" id="boundary" inkscape:connector-curvature="0" />
	<path style="fill:none;stroke:red;stroke-width:1px;stroke-linecap:butt;stroke-linejoin:miter;stroke-opacity:1" d="M 57.7184,606.84 60.1059,618.777 z" id="boundary" inkscape:connector-curvature="0" />
	<path style="fill:none;stroke:red;stroke-width:1px;stroke-linecap:butt;stroke-linejoin:miter;stroke-opacity:1" d="M 69.6558,641.458 69.6558,653.396 z" id="boundary" inkscape:connector-curvature="0" />
	<path style="fill:none;stroke:red;stroke-width:1px;stroke-linecap:butt;stroke-linejoin:miter;stroke-opacity:1" d="M 75.6245,664.14 69.6558,653.396 z" id="boundary" inkscape:connector-curvature="0" />
	<path style="fill:none;stroke:red;stroke-width:1px;stroke-linecap:butt;stroke-linejoin:miter;stroke-opacity:1" d="M 75.6245,664.14 81.5933,674.883 z" id="boundary" inkscape:connector-curvature="0" />
	<path style="fill:none;stroke:red;stroke-width:1px;stroke-linecap:butt;stroke-linejoin:miter;stroke-opacity:1" d="M 87.562,685.627 98.3057,691.596 z" id="boundary" inkscape:connector-curvature="0" />
	<path style="fill:none;stroke:red;stroke-width:1px;stroke-linecap:butt;stroke-linejoin:miter;stroke-opacity:1" d="M 87.562,685.627 81.5933,674.883 z" id="boundary" inkscape:connector-curvature="0" />
	<path style="fill:none;stroke:red;stroke-width:1px;stroke-linecap:butt;stroke-linejoin:miter;stroke-opacity:1" d="M 106.662,701.146 98.3057,691.596 z" id="boundary" inkscape:connector-curvature="0" />
	<path style="fill:none;stroke:red;stroke-width:1px;stroke-linecap:butt;stroke-linejoin:miter;stroke-opacity:1" d="M 93.5307,789.483 87.562,801.42 z" id="boundary" inkscape:connector-curvature="0" />
	<path style="fill:none;stroke:red;stroke-width:1px;stroke-linecap:butt;stroke-linejoin:miter;stroke-opacity:1" d="M 99.4994,777.545 93.5307,789.483 z" id="boundary" inkscape:connector-curvature="0" />
	<path style="fill:none;stroke:red;stroke-width:1px;stroke-linecap:butt;stroke-linejoin:miter;stroke-opacity:1" d="M 87.562,801.42 87.562,813.357 z" id="boundary" inkscape:connector-curvature="0" />
	<path style="fill:none;stroke:red;stroke-width:1px;stroke-linecap:butt;stroke-linejoin:miter;stroke-opacity:1" d="M 111.437,753.67 105.468,765.608 z" id="boundary" inkscape:connector-curvature="0" />
	<path style="fill:none;stroke:red;stroke-width:1px;stroke-linecap:butt;stroke-linejoin:miter;stroke-opacity:1" d="M 106.662,701.146 112.631,711.889 z" id="boundary" inkscape:connector-curvature="0" />
	<path style="fill:none;stroke:red;stroke-width:1px;stroke-linecap:butt;stroke-linejoin:miter;stroke-opacity:1" d="M 105.468,765.608 99.4994,777.545 z" id="boundary" inkscape:connector-curvature="0" />
	<path style="fill:none;stroke:red;stroke-width:1px;stroke-linecap:butt;stroke-linejoin:miter;stroke-opacity:1" d="M 117.406,735.764 111.437,753.67 z" id="boundary" inkscape:connector-curvature="0" />
	<path style="fill:none;stroke:red;stroke-width:1px;stroke-linecap:butt;stroke-linejoin:miter;stroke-opacity:1" d="M 87.562,825.295 87.562,813.357 z" id="boundary" inkscape:connector-curvature="0" />
	<path style="fill:none;stroke:red;stroke-width:1px;stroke-linecap:butt;stroke-linejoin:miter;stroke-opacity:1" d="M 117.406,723.827 117.406,735.764 z" id="boundary" inkscape:connector-curvature="0" />
	<path style="fill:none;stroke:red;stroke-width:1px;stroke-linecap:butt;stroke-linejoin:miter;stroke-opacity:1" d="M 117.406,723.827 112.631,711.889 z" id="boundary" inkscape:connector-curvature="0" />
	<path style="fill:none;stroke:red;stroke-width:1px;stroke-linecap:butt;stroke-linejoin:miter;stroke-opacity:1" d="M 93.5307,836.039 99.4994,846.782 z" id="boundary" inkscape:connector-curvature="0" />
	<path style="fill:none;stroke:red;stroke-width:1px;stroke-linecap:butt;stroke-linejoin:miter;stroke-opacity:1" d="M 99.4994,846.782 99.4994,858.72 z" id="boundary" inkscape:connector-curvature="0" />
	<path style="fill:none;stroke:red;stroke-width:1px;stroke-linecap:butt;stroke-linejoin:miter;stroke-opacity:1" d="M 99.4994,858.72 99.4994,870.657 z" id="boundary" inkscape:connector-curvature="0" />
	<path style="fill:none;stroke:red;stroke-width:1px;stroke-linecap:butt;stroke-linejoin:miter;stroke-opacity:1" d="M 87.562,825.295 93.5307,836.039 z" id="boundary" inkscape:connector-curvature="0" />
	<path style="fill:none;stroke:red;stroke-width:1px;stroke-linecap:butt;stroke-linejoin:miter;stroke-opacity:1" d="M 99.4994,870.657 105.468,881.401 z" id="boundary" inkscape:connector-curvature="0" />
	<path style="fill:none;stroke:red;stroke-width:1px;stroke-linecap:butt;stroke-linejoin:miter;stroke-opacity:1" d="M 105.468,893.338 105.468,881.401 z" id="boundary" inkscape:connector-curvature="0" />
	<path style="fill:none;stroke:red;stroke-width:1px;stroke-linecap:butt;stroke-linejoin:miter;stroke-opacity:1" d="M 93.5307,944.669 93.5307,932.732 z" id="boundary" inkscape:connector-curvature="0" />
	<path style="fill:none;stroke:red;stroke-width:1px;stroke-linecap:butt;stroke-linejoin:miter;stroke-opacity:1" d="M 99.4994,914.826 93.5307,932.732 z" id="boundary" inkscape:connector-curvature="0" />
	<path style="fill:none;stroke:red;stroke-width:1px;stroke-linecap:butt;stroke-linejoin:miter;stroke-opacity:1" d="M 93.5307,944.669 93.5307,956.606 z" id="boundary" inkscape:connector-curvature="0" />
	<path style="fill:none;stroke:red;stroke-width:1px;stroke-linecap:butt;stroke-linejoin:miter;stroke-opacity:1" d="M 99.4994,967.35 93.5307,956.606 z" id="boundary" inkscape:connector-curvature="0" />
	<path style="fill:none;stroke:red;stroke-width:1px;stroke-linecap:butt;stroke-linejoin:miter;stroke-opacity:1" d="M 99.4994,914.826 105.468,893.338 z" id="boundary" inkscape:connector-curvature="0" />
	<path style="fill:none;stroke:red;stroke-width:1px;stroke-linecap:butt;stroke-linejoin:miter;stroke-opacity:1" d="M 107.856,976.9 99.4994,967.35 z" id="boundary" inkscape:connector-curvature="0" />
	<path style="fill:none;stroke:red;stroke-width:1px;stroke-linecap:butt;stroke-linejoin:miter;stroke-opacity:1" d="M 117.406,984.063 107.856,976.9 z" id="boundary" inkscape:connector-curvature="0" />
	<path style="fill:none;stroke:red;stroke-width:1px;stroke-linecap:butt;stroke-linejoin:miter;stroke-opacity:1" d="M 117.406,984.063 129.343,984.063 z" id="boundary" inkscape:connector-curvature="0" />
	<path style="fill:none;stroke:red;stroke-width:1px;stroke-linecap:butt;stroke-linejoin:miter;stroke-opacity:1" d="M 141.28,984.063 129.343,984.063 z" id="boundary" inkscape:connector-curvature="0" />
	<path style="fill:none;stroke:red;stroke-width:1px;stroke-linecap:butt;stroke-linejoin:miter;stroke-opacity:1" d="M 152.024,990.031 141.28,984.063 z" id="boundary" inkscape:connector-curvature="0" />
	<path style="fill:none;stroke:red;stroke-width:1px;stroke-linecap:butt;stroke-linejoin:miter;stroke-opacity:1" d="M 152.024,990.031 163.961,990.031 z" id="boundary" inkscape:connector-curvature="0" />
	<path style="fill:none;stroke:red;stroke-width:1px;stroke-linecap:butt;stroke-linejoin:miter;stroke-opacity:1" d="M 163.961,990.031 174.705,996 z" id="boundary" inkscape:connector-curvature="0" />
	<path style="fill:none;stroke:red;stroke-width:1px;stroke-linecap:butt;stroke-linejoin:miter;stroke-opacity:1" d="M 171.124,9.96871 183.061,9.96871 z" id="boundary" inkscape:connector-curvature="0" />
	<path style="fill:none;stroke:red;stroke-width:1px;stroke-linecap:butt;stroke-linejoin:miter;stroke-opacity:1" d="M 193.805,15.9374 183.061,9.96871 z" id="boundary" inkscape:connector-curvature="0" />
	<path style="fill:none;stroke:red;stroke-width:1px;stroke-linecap:butt;stroke-linejoin:miter;stroke-opacity:1" d="M 193.805,15.9374 204.549,21.9061 z" id="boundary" inkscape:connector-curvature="0" />
	<path style="fill:none;stroke:red;stroke-width:1px;stroke-linecap:butt;stroke-linejoin:miter;stroke-opacity:1" d="M 215.292,27.8748 204.549,21.9061 z" id="boundary" inkscape:connector-curvature="0" />
	<path style="fill:none;stroke:red;stroke-width:1px;stroke-linecap:butt;stroke-linejoin:miter;stroke-opacity:1" d="M 235.586,41.006 226.036,33.8436 z" id="boundary" inkscape:connector-curvature="0" />
	<path style="fill:none;stroke:red;stroke-width:1px;stroke-linecap:butt;stroke-linejoin:miter;stroke-opacity:1" d="M 226.036,33.8436 215.292,27.8748 z" id="boundary" inkscape:connector-curvature="0" />
	<path style="fill:none;stroke:red;stroke-width:1px;stroke-linecap:butt;stroke-linejoin:miter;stroke-opacity:1" d="M 235.586,41.006 243.942,50.556 z" id="boundary" inkscape:connector-curvature="0" />
	<path style="fill:none;stroke:red;stroke-width:1px;stroke-linecap:butt;stroke-linejoin:miter;stroke-opacity:1" d="M 253.492,58.9122 258.267,70.8496 z" id="boundary" inkscape:connector-curvature="0" />
	<path style="fill:none;stroke:red;stroke-width:1px;stroke-linecap:butt;stroke-linejoin:miter;stroke-opacity:1" d="M 253.492,58.9122 243.942,50.556 z" id="boundary" inkscape:connector-curvature="0" />
	<path style="fill:none;stroke:red;stroke-width:1px;stroke-linecap:butt;stroke-linejoin:miter;stroke-opacity:1" d="M 258.267,70.8496 261.848,82.787 z" id="boundary" inkscape:connector-curvature="0" />
	<path style="fill:none;stroke:red;stroke-width:1px;stroke-linecap:butt;stroke-linejoin:miter;stroke-opacity:1" d="M 261.848,82.787 261.848,94.7244 z" id="boundary" inkscape:connector-curvature="0" />
	<path style="fill:none;stroke:red;stroke-width:1px;stroke-linecap:butt;stroke-linejoin:miter;stroke-opacity:1" d="M 261.848,106.662 261.848,94.7244 z" id="boundary" inkscape:connector-curvature="0" />
	<path style="fill:none;stroke:red;stroke-width:1px;stroke-linecap:butt;stroke-linejoin:miter;stroke-opacity:1" d="M 261.848,106.662 267.817,117.406 z" id="boundary" inkscape:connector-curvature="0" />
	<path style="fill:none;stroke:red;stroke-width:1px;stroke-linecap:butt;stroke-linejoin:miter;stroke-opacity:1" d="M 267.817,117.406 261.848,130.537 z" id="boundary" inkscape:connector-curvature="0" />
	<path style="fill:none;stroke:red;stroke-width:1px;stroke-linecap:butt;stroke-linejoin:miter;stroke-opacity:1" d="M 261.848,184.255 255.88,196.193 z" id="boundary" inkscape:connector-curvature="0" />
	<path style="fill:none;stroke:red;stroke-width:1px;stroke-linecap:butt;stroke-linejoin:miter;stroke-opacity:1" d="M 261.848,130.537 261.848,142.474 z" id="boundary" inkscape:connector-curvature="0" />
	<path style="fill:none;stroke:red;stroke-width:1px;stroke-linecap:butt;stroke-linejoin:miter;stroke-opacity:1" d="M 249.911,214.099 255.88,196.193 z" id="boundary" inkscape:connector-curvature="0" />
	<path style="fill:none;stroke:red;stroke-width:1px;stroke-linecap:butt;stroke-linejoin:miter;stroke-opacity:1" d="M 261.848,142.474 261.848,154.412 z" id="boundary" inkscape:connector-curvature="0" />
	<path style="fill:none;stroke:red;stroke-width:1px;stroke-linecap:butt;stroke-linejoin:miter;stroke-opacity:1" d="M 267.817,165.155 261.848,154.412 z" id="boundary" inkscape:connector-curvature="0" />
	<path style="fill:none;stroke:red;stroke-width:1px;stroke-linecap:butt;stroke-linejoin:miter;stroke-opacity:1" d="M 267.817,165.155 261.848,184.255 z" id="boundary" inkscape:connector-curvature="0" />
	<path style="fill:none;stroke:red;stroke-width:1px;stroke-linecap:butt;stroke-linejoin:miter;stroke-opacity:1" d="M 243.942,232.005 249.911,214.099 z" id="boundary" inkscape:connector-curvature="0" />
	<path style="fill:none;stroke:red;stroke-width:1px;stroke-linecap:butt;stroke-linejoin:miter;stroke-opacity:1" d="M 243.942,232.005 249.911,242.748 z" id="boundary" inkscape:connector-curvature="0" />
	<path style="fill:none;stroke:red;stroke-width:1px;stroke-linecap:butt;stroke-linejoin:miter;stroke-opacity:1" d="M 255.88,253.492 265.43,261.848 z" id="boundary" inkscape:connector-curvature="0" />
	<path style="fill:none;stroke:red;stroke-width:1px;stroke-linecap:butt;stroke-linejoin:miter;stroke-opacity:1" d="M 249.911,242.748 255.88,253.492 z" id="boundary" inkscape:connector-curvature="0" />
	<path style="fill:none;stroke:red;stroke-width:1px;stroke-linecap:butt;stroke-linejoin:miter;stroke-opacity:1" d="M 265.43,261.848 270.205,273.786 z" id="boundary" inkscape:connector-curvature="0" />
	<path style="fill:none;stroke:red;stroke-width:1px;stroke-linecap:butt;stroke-linejoin:miter;stroke-opacity:1" d="M 279.755,296.467 276.173,284.529 z" id="boundary" inkscape:connector-curvature="0" />
	<path style="fill:none;stroke:red;stroke-width:1px;stroke-linecap:butt;stroke-linejoin:miter;stroke-opacity:1" d="M 276.173,284.529 270.205,273.786 z" id="boundary" inkscape:connector-curvature="0" />
	<path style="fill:none;stroke:red;stroke-width:1px;stroke-linecap:butt;stroke-linejoin:miter;stroke-opacity:1" d="M 279.755,320.342 285.723,331.085 z" id="boundary" inkscape:connector-curvature="0" />
	<path style="fill:none;stroke:red;stroke-width:1px;stroke-linecap:butt;stroke-linejoin:miter;stroke-opacity:1" d="M 279.755,320.342 279.755,308.404 z" id="boundary" inkscape:connector-curvature="0" />
	<path style="fill:none;stroke:red;stroke-width:1px;stroke-linecap:butt;stroke-linejoin:miter;stroke-opacity:1" d="M 279.755,296.467 279.755,308.404 z" id="boundary" inkscape:connector-curvature="0" />
	<path style="fill:none;stroke:red;stroke-width:1px;stroke-linecap:butt;stroke-linejoin:miter;stroke-opacity:1" d="M 285.723,331.085 291.692,341.829 z" id="boundary" inkscape:connector-curvature="0" />
	<path style="fill:none;stroke:red;stroke-width:1px;stroke-linecap:butt;stroke-linejoin:miter;stroke-opacity:1" d="M 285.723,363.316 285.723,375.254 z" id="boundary" inkscape:connector-curvature="0" />
	<path style="fill:none;stroke:red;stroke-width:1px;stroke-linecap:butt;stroke-linejoin:miter;stroke-opacity:1" d="M 291.692,341.829 285.723,363.316 z" id="boundary" inkscape:connector-curvature="0" />
	<path style="fill:none;stroke:red;stroke-width:1px;stroke-linecap:butt;stroke-linejoin:miter;stroke-opacity:1" d="M 285.723,375.254 285.723,387.191 z" id="boundary" inkscape:connector-curvature="0" />
	<path style="fill:none;stroke:red;stroke-width:1px;stroke-linecap:butt;stroke-linejoin:miter;stroke-opacity:1" d="M 291.692,397.935 297.661,408.679 z" id="boundary" inkscape:connector-curvature="0" />
	<path style="fill:none;stroke:red;stroke-width:1px;stroke-linecap:butt;stroke-linejoin:miter;stroke-opacity:1" d="M 291.692,397.935 285.723,387.191 z" id="boundary" inkscape:connector-curvature="0" />
	<path style="fill:none;stroke:red;stroke-width:1px;stroke-linecap:butt;stroke-linejoin:miter;stroke-opacity:1" d="M 303.629,419.422 303.629,431.36 z" id="boundary" inkscape:connector-curvature="0" />
	<path style="fill:none;stroke:red;stroke-width:1px;stroke-linecap:butt;stroke-linejoin:miter;stroke-opacity:1" d="M 297.661,408.679 303.629,419.422 z" id="boundary" inkscape:connector-curvature="0" />
	<path style="fill:none;stroke:red;stroke-width:1px;stroke-linecap:butt;stroke-linejoin:miter;stroke-opacity:1" d="M 309.598,442.103 303.629,431.36 z" id="boundary" inkscape:connector-curvature="0" />
	<path style="fill:none;stroke:red;stroke-width:1px;stroke-linecap:butt;stroke-linejoin:miter;stroke-opacity:1" d="M 309.598,442.103 309.598,454.041 z" id="boundary" inkscape:connector-curvature="0" />
	<path style="fill:none;stroke:red;stroke-width:1px;stroke-linecap:butt;stroke-linejoin:miter;stroke-opacity:1" d="M 315.567,464.785 309.598,454.041 z" id="boundary" inkscape:connector-curvature="0" />
	<path style="fill:none;stroke:red;stroke-width:1px;stroke-linecap:butt;stroke-linejoin:miter;stroke-opacity:1" d="M 315.567,464.785 317.954,476.722 z" id="boundary" inkscape:connector-curvature="0" />
	<path style="fill:none;stroke:red;stroke-width:1px;stroke-linecap:butt;stroke-linejoin:miter;stroke-opacity:1" d="M 323.923,487.466 317.954,476.722 z" id="boundary" inkscape:connector-curvature="0" />
	<path style="fill:none;stroke:red;stroke-width:1px;stroke-linecap:butt;stroke-linejoin:miter;stroke-opacity:1" d="M 323.923,487.466 327.504,499.403 z" id="boundary" inkscape:connector-curvature="0" />
	<path style="fill:none;stroke:red;stroke-width:1px;stroke-linecap:butt;stroke-linejoin:miter;stroke-opacity:1" d="M 333.473,510.147 333.473,522.084 z" id="boundary" inkscape:connector-curvature="0" />
	<path style="fill:none;stroke:red;stroke-width:1px;stroke-linecap:butt;stroke-linejoin:miter;stroke-opacity:1" d="M 333.473,510.147 327.504,499.403 z" id="boundary" inkscape:connector-curvature="0" />
	<path style="fill:none;stroke:red;stroke-width:1px;stroke-linecap:butt;stroke-linejoin:miter;stroke-opacity:1" d="M 339.442,532.828 344.217,544.765 z" id="boundary" inkscape:connector-curvature="0" />
	<path style="fill:none;stroke:red;stroke-width:1px;stroke-linecap:butt;stroke-linejoin:miter;stroke-opacity:1" d="M 339.442,532.828 333.473,522.084 z" id="boundary" inkscape:connector-curvature="0" />
	<path style="fill:none;stroke:red;stroke-width:1px;stroke-linecap:butt;stroke-linejoin:miter;stroke-opacity:1" d="M 327.504,602.065 338.248,596.096 z" id="boundary" inkscape:connector-curvature="0" />
	<path style="fill:none;stroke:red;stroke-width:1px;stroke-linecap:butt;stroke-linejoin:miter;stroke-opacity:1" d="M 344.217,544.765 350.185,555.509 z" id="boundary" inkscape:connector-curvature="0" />
	<path style="fill:none;stroke:red;stroke-width:1px;stroke-linecap:butt;stroke-linejoin:miter;stroke-opacity:1" d="M 351.379,567.446 345.41,584.159 z" id="boundary" inkscape:connector-curvature="0" />
	<path style="fill:none;stroke:red;stroke-width:1px;stroke-linecap:butt;stroke-linejoin:miter;stroke-opacity:1" d="M 350.185,555.509 351.379,567.446 z" id="boundary" inkscape:connector-curvature="0" />
	<path style="fill:none;stroke:red;stroke-width:1px;stroke-linecap:butt;stroke-linejoin:miter;stroke-opacity:1" d="M 345.41,584.159 338.248,596.096 z" id="boundary" inkscape:connector-curvature="0" />
	<path style="fill:none;stroke:red;stroke-width:1px;stroke-linecap:butt;stroke-linejoin:miter;stroke-opacity:1" d="M 327.504,602.065 321.535,614.002 z" id="boundary" inkscape:connector-curvature="0" />
	<path style="fill:none;stroke:red;stroke-width:1px;stroke-linecap:butt;stroke-linejoin:miter;stroke-opacity:1" d="M 279.755,739.345 273.786,751.283 z" id="boundary" inkscape:connector-curvature="0" />
	<path style="fill:none;stroke:red;stroke-width:1px;stroke-linecap:butt;stroke-linejoin:miter;stroke-opacity:1" d="M 285.723,727.408 279.755,739.345 z" id="boundary" inkscape:connector-curvature="0" />
	<path style="fill:none;stroke:red;stroke-width:1px;stroke-linecap:butt;stroke-linejoin:miter;stroke-opacity:1" d="M 267.817,775.158 267.817,763.22 z" id="boundary" inkscape:connector-curvature="0" />
	<path style="fill:none;stroke:red;stroke-width:1px;stroke-linecap:butt;stroke-linejoin:miter;stroke-opacity:1" d="M 273.786,751.283 267.817,763.22 z" id="boundary" inkscape:connector-curvature="0" />
	<path style="fill:none;stroke:red;stroke-width:1px;stroke-linecap:butt;stroke-linejoin:miter;stroke-opacity:1" d="M 255.88,834.845 249.911,846.782 z" id="boundary" inkscape:connector-curvature="0" />
	<path style="fill:none;stroke:red;stroke-width:1px;stroke-linecap:butt;stroke-linejoin:miter;stroke-opacity:1" d="M 261.848,805.001 261.848,793.064 z" id="boundary" inkscape:connector-curvature="0" />
	<path style="fill:none;stroke:red;stroke-width:1px;stroke-linecap:butt;stroke-linejoin:miter;stroke-opacity:1" d="M 267.817,775.158 261.848,793.064 z" id="boundary" inkscape:connector-curvature="0" />
	<path style="fill:none;stroke:red;stroke-width:1px;stroke-linecap:butt;stroke-linejoin:miter;stroke-opacity:1" d="M 255.88,834.845 255.88,822.907 z" id="boundary" inkscape:connector-curvature="0" />
	<path style="fill:none;stroke:red;stroke-width:1px;stroke-linecap:butt;stroke-linejoin:miter;stroke-opacity:1" d="M 261.848,805.001 255.88,822.907 z" id="boundary" inkscape:connector-curvature="0" />
	<path style="fill:none;stroke:red;stroke-width:1px;stroke-linecap:butt;stroke-linejoin:miter;stroke-opacity:1" d="M 249.911,846.782 243.942,864.688 z" id="boundary" inkscape:connector-curvature="0" />
	<path style="fill:none;stroke:red;stroke-width:1px;stroke-linecap:butt;stroke-linejoin:miter;stroke-opacity:1" d="M 186.643,996 174.705,996 z" id="boundary" inkscape:connector-curvature="0" />
	<path style="fill:none;stroke:red;stroke-width:1px;stroke-linecap:butt;stroke-linejoin:miter;stroke-opacity:1" d="M 198.58,996 210.517,996 z" id="boundary" inkscape:connector-curvature="0" />
	<path style="fill:none;stroke:red;stroke-width:1px;stroke-linecap:butt;stroke-linejoin:miter;stroke-opacity:1" d="M 198.58,996 186.643,996 z" id="boundary" inkscape:connector-curvature="0" />
	<path style="fill:none;stroke:red;stroke-width:1px;stroke-linecap:butt;stroke-linejoin:miter;stroke-opacity:1" d="M 222.455,996 210.517,996 z" id="boundary" inkscape:connector-curvature="0" />
	<path style="fill:none;stroke:red;stroke-width:1px;stroke-linecap:butt;stroke-linejoin:miter;stroke-opacity:1" d="M 234.392,996 222.455,996 z" id="boundary" inkscape:connector-curvature="0" />
	<path style="fill:none;stroke:red;stroke-width:1px;stroke-linecap:butt;stroke-linejoin:miter;stroke-opacity:1" d="M 243.942,893.338 237.974,882.594 z" id="boundary" inkscape:connector-curvature="0" />
	<path style="fill:none;stroke:red;stroke-width:1px;stroke-linecap:butt;stroke-linejoin:miter;stroke-opacity:1" d="M 253.492,900.501 264.236,906.469 z" id="boundary" inkscape:connector-curvature="0" />
	<path style="fill:none;stroke:red;stroke-width:1px;stroke-linecap:butt;stroke-linejoin:miter;stroke-opacity:1" d="M 253.492,900.501 243.942,893.338 z" id="boundary" inkscape:connector-curvature="0" />
	<path style="fill:none;stroke:red;stroke-width:1px;stroke-linecap:butt;stroke-linejoin:miter;stroke-opacity:1" d="M 237.974,882.594 243.942,864.688 z" id="boundary" inkscape:connector-curvature="0" />
	<path style="fill:none;stroke:red;stroke-width:1px;stroke-linecap:butt;stroke-linejoin:miter;stroke-opacity:1" d="M 273.786,914.826 264.236,906.469 z" id="boundary" inkscape:connector-curvature="0" />
	<path style="fill:none;stroke:red;stroke-width:1px;stroke-linecap:butt;stroke-linejoin:miter;stroke-opacity:1" d="M 246.33,996 234.392,996 z" id="boundary" inkscape:connector-curvature="0" />
	<path style="fill:none;stroke:red;stroke-width:1px;stroke-linecap:butt;stroke-linejoin:miter;stroke-opacity:1" d="M 270.205,988.838 258.267,994.806 z" id="boundary" inkscape:connector-curvature="0" />
	<path style="fill:none;stroke:red;stroke-width:1px;stroke-linecap:butt;stroke-linejoin:miter;stroke-opacity:1" d="M 279.755,978.094 270.205,988.838 z" id="boundary" inkscape:connector-curvature="0" />
	<path style="fill:none;stroke:red;stroke-width:1px;stroke-linecap:butt;stroke-linejoin:miter;stroke-opacity:1" d="M 258.267,994.806 246.33,996 z" id="boundary" inkscape:connector-curvature="0" />
	<path style="fill:none;stroke:red;stroke-width:1px;stroke-linecap:butt;stroke-linejoin:miter;stroke-opacity:1" d="M 273.786,914.826 284.529,920.794 z" id="boundary" inkscape:connector-curvature="0" />
	<path style="fill:none;stroke:red;stroke-width:1px;stroke-linecap:butt;stroke-linejoin:miter;stroke-opacity:1" d="M 285.723,673.69 295.273,665.333 z" id="boundary" inkscape:connector-curvature="0" />
	<path style="fill:none;stroke:red;stroke-width:1px;stroke-linecap:butt;stroke-linejoin:miter;stroke-opacity:1" d="M 285.723,673.69 285.723,685.627 z" id="boundary" inkscape:connector-curvature="0" />
	<path style="fill:none;stroke:red;stroke-width:1px;stroke-linecap:butt;stroke-linejoin:miter;stroke-opacity:1" d="M 327.504,636.684 319.148,653.396 z" id="boundary" inkscape:connector-curvature="0" />
	<path style="fill:none;stroke:red;stroke-width:1px;stroke-linecap:butt;stroke-linejoin:miter;stroke-opacity:1" d="M 295.273,665.333 307.211,659.365 z" id="boundary" inkscape:connector-curvature="0" />
	<path style="fill:none;stroke:red;stroke-width:1px;stroke-linecap:butt;stroke-linejoin:miter;stroke-opacity:1" d="M 319.148,653.396 307.211,659.365 z" id="boundary" inkscape:connector-curvature="0" />
	<path style="fill:none;stroke:red;stroke-width:1px;stroke-linecap:butt;stroke-linejoin:miter;stroke-opacity:1" d="M 285.723,685.627 285.723,697.564 z" id="boundary" inkscape:connector-curvature="0" />
	<path style="fill:none;stroke:red;stroke-width:1px;stroke-linecap:butt;stroke-linejoin:miter;stroke-opacity:1" d="M 288.111,709.502 285.723,697.564 z" id="boundary" inkscape:connector-curvature="0" />
	<path style="fill:none;stroke:red;stroke-width:1px;stroke-linecap:butt;stroke-linejoin:miter;stroke-opacity:1" d="M 285.723,727.408 288.111,709.502 z" id="boundary" inkscape:connector-curvature="0" />
	<path style="fill:none;stroke:red;stroke-width:1px;stroke-linecap:butt;stroke-linejoin:miter;stroke-opacity:1" d="M 327.504,624.746 327.504,636.684 z" id="boundary" inkscape:connector-curvature="0" />
	<path style="fill:none;stroke:red;stroke-width:1px;stroke-linecap:butt;stroke-linejoin:miter;stroke-opacity:1" d="M 327.504,624.746 321.535,614.002 z" id="boundary" inkscape:connector-curvature="0" />
	<path style="fill:none;stroke:red;stroke-width:1px;stroke-linecap:butt;stroke-linejoin:miter;stroke-opacity:1" d="M 284.529,920.794 296.467,923.182 z" id="boundary" inkscape:connector-curvature="0" />
	<path style="fill:none;stroke:red;stroke-width:1px;stroke-linecap:butt;stroke-linejoin:miter;stroke-opacity:1" d="M 307.211,929.15 296.467,923.182 z" id="boundary" inkscape:connector-curvature="0" />
	<path style="fill:none;stroke:red;stroke-width:1px;stroke-linecap:butt;stroke-linejoin:miter;stroke-opacity:1" d="M 279.755,978.094 291.692,972.125 z" id="boundary" inkscape:connector-curvature="0" />
	<path style="fill:none;stroke:red;stroke-width:1px;stroke-linecap:butt;stroke-linejoin:miter;stroke-opacity:1" d="M 291.692,972.125 303.629,972.125 z" id="boundary" inkscape:connector-curvature="0" />
	<path style="fill:none;stroke:red;stroke-width:1px;stroke-linecap:butt;stroke-linejoin:miter;stroke-opacity:1" d="M 303.629,972.125 315.567,972.125 z" id="boundary" inkscape:connector-curvature="0" />
	<path style="fill:none;stroke:red;stroke-width:1px;stroke-linecap:butt;stroke-linejoin:miter;stroke-opacity:1" d="M 307.211,929.15 319.148,930.344 z" id="boundary" inkscape:connector-curvature="0" />
	<path style="fill:none;stroke:red;stroke-width:1px;stroke-linecap:butt;stroke-linejoin:miter;stroke-opacity:1" d="M 327.504,939.894 319.148,930.344 z" id="boundary" inkscape:connector-curvature="0" />
	<path style="fill:none;stroke:red;stroke-width:1px;stroke-linecap:butt;stroke-linejoin:miter;stroke-opacity:1" d="M 333.473,950.638 327.504,939.894 z" id="boundary" inkscape:connector-curvature="0" />
	<path style="fill:none;stroke:red;stroke-width:1px;stroke-linecap:butt;stroke-linejoin:miter;stroke-opacity:1" d="M 333.473,950.638 325.117,963.769 z" id="boundary" inkscape:connector-curvature="0" />
	<path style="fill:none;stroke:red;stroke-width:1px;stroke-linecap:butt;stroke-linejoin:miter;stroke-opacity:1" d="M 325.117,963.769 315.567,972.125 z" id="boundary" inkscape:connector-curvature="0" />
	<circle cx="4" cy="317.954" r="4" fill="#0" id="circle0"/>
	<circle cx="4" cy="329.892" r="4" fill="#0" id="circle1"/>
	<circle cx="9.96871" cy="306.017" r="4" fill="#0" id="circle2"/>
	<circle cx="9.96871" cy="340.635" r="4" fill="#0" id="circle3"/>
	<circle cx="9.96871" cy="352.573" r="4" fill="#0" id="circle4"/>
	<circle cx="9.96871" cy="364.51" r="4" fill="#0" id="circle5"/>
	<circle cx="15.9374" cy="91.1432" r="4" fill="#0" id="circle6"/>
	<circle cx="15.9374" cy="103.081" r="4" fill="#0" id="circle7"/>
	<circle cx="15.9374" cy="294.079" r="4" fill="#0" id="circle8"/>
	<circle cx="15.9374" cy="375.254" r="4" fill="#0" id="circle9"/>
	<circle cx="15.9374" cy="387.191" r="4" fill="#0" id="circle10"/>
	<circle cx="21.9061" cy="67.2684" r="4" fill="#0" id="circle11"/>
	<circle cx="21.9061" cy="79.2058" r="4" fill="#0" id="circle12"/>
	<circle cx="21.9061" cy="113.824" r="4" fill="#0" id="circle13"/>
	<circle cx="21.9061" cy="125.762" r="4" fill="#0" id="circle14"/>
	<circle cx="21.9061" cy="282.142" r="4" fill="#0" id="circle15"/>
	<circle cx="21.9061" cy="397.935" r="4" fill="#0" id="circle16"/>
	<circle cx="21.9061" cy="409.872" r="4" fill="#0" id="circle17"/>
	<circle cx="21.9061" cy="421.81" r="4" fill="#0" id="circle18"/>
	<circle cx="21.9061" cy="433.747" r="4" fill="#0" id="circle19"/>
	<circle cx="21.9061" cy="445.685" r="4" fill="#0" id="circle20"/>
	<circle cx="21.9061" cy="457.622" r="4" fill="#0" id="circle21"/>
	<circle cx="27.8748" cy="55.3309" r="4" fill="#0" id="circle22"/>
	<circle cx="27.8748" cy="136.505" r="4" fill="#0" id="circle23"/>
	<circle cx="27.8748" cy="270.205" r="4" fill="#0" id="circle24"/>
	<circle cx="27.8748" cy="468.366" r="4" fill="#0" id="circle25"/>
	<circle cx="31.4561" cy="148.443" r="4" fill="#0" id="circle26"/>
	<circle cx="33.8436" cy="479.11" r="4" fill="#0" id="circle27"/>
	<circle cx="33.8436" cy="491.047" r="4" fill="#0" id="circle28"/>
	<circle cx="37.4248" cy="45.781" r="4" fill="#0" id="circle29"/>
	<circle cx="37.4248" cy="159.187" r="4" fill="#0" id="circle30"/>
	<circle cx="37.4248" cy="260.655" r="4" fill="#0" id="circle31"/>
	<circle cx="39.8123" cy="501.791" r="4" fill="#0" id="circle32"/>
	<circle cx="45.781" cy="168.736" r="4" fill="#0" id="circle33"/>
	<circle cx="45.781" cy="512.534" r="4" fill="#0" id="circle34"/>
	<circle cx="45.781" cy="524.472" r="4" fill="#0" id="circle35"/>
	<circle cx="45.781" cy="536.409" r="4" fill="#0" id="circle36"/>
	<circle cx="45.781" cy="548.347" r="4" fill="#0" id="circle37"/>
	<circle cx="46.9747" cy="36.231" r="4" fill="#0" id="circle38"/>
	<circle cx="48.1685" cy="254.686" r="4" fill="#0" id="circle39"/>
	<circle cx="51.7497" cy="559.09" r="4" fill="#0" id="circle40"/>
	<circle cx="51.7497" cy="571.028" r="4" fill="#0" id="circle41"/>
	<circle cx="51.7497" cy="582.965" r="4" fill="#0" id="circle42"/>
	<circle cx="54.1372" cy="594.903" r="4" fill="#0" id="circle43"/>
	<circle cx="55.3309" cy="177.093" r="4" fill="#0" id="circle44"/>
	<circle cx="56.5247" cy="27.8748" r="4" fill="#0" id="circle45"/>
	<circle cx="57.7184" cy="246.33" r="4" fill="#0" id="circle46"/>
	<circle cx="57.7184" cy="606.84" r="4" fill="#0" id="circle47"/>
	<circle cx="60.1059" cy="618.777" r="4" fill="#0" id="circle48"/>
	<circle cx="63.6871" cy="186.643" r="4" fill="#0" id="circle49"/>
	<circle cx="63.6871" cy="234.392" r="4" fill="#0" id="circle50"/>
	<circle cx="63.6871" cy="630.715" r="4" fill="#0" id="circle51"/>
	<circle cx="67.2684" cy="21.9061" r="4" fill="#0" id="circle52"/>
	<circle cx="69.6558" cy="197.386" r="4" fill="#0" id="circle53"/>
	<circle cx="69.6558" cy="209.324" r="4" fill="#0" id="circle54"/>
	<circle cx="69.6558" cy="221.261" r="4" fill="#0" id="circle55"/>
	<circle cx="69.6558" cy="641.458" r="4" fill="#0" id="circle56"/>
	<circle cx="69.6558" cy="653.396" r="4" fill="#0" id="circle57"/>
	<circle cx="75.6245" cy="664.14" r="4" fill="#0" id="circle58"/>
	<circle cx="78.012" cy="15.9374" r="4" fill="#0" id="circle59"/>
	<circle cx="81.5933" cy="674.883" r="4" fill="#0" id="circle60"/>
	<circle cx="87.562" cy="685.627" r="4" fill="#0" id="circle61"/>
	<circle cx="87.562" cy="801.42" r="4" fill="#0" id="circle62"/>
	<circle cx="87.562" cy="813.357" r="4" fill="#0" id="circle63"/>
	<circle cx="87.562" cy="825.295" r="4" fill="#0" id="circle64"/>
	<circle cx="88.7557" cy="9.96871" r="4" fill="#0" id="circle65"/>
	<circle cx="93.5307" cy="789.483" r="4" fill="#0" id="circle66"/>
	<circle cx="93.5307" cy="836.039" r="4" fill="#0" id="circle67"/>
	<circle cx="93.5307" cy="932.732" r="4" fill="#0" id="circle68"/>
	<circle cx="93.5307" cy="944.669" r="4" fill="#0" id="circle69"/>
	<circle cx="93.5307" cy="956.606" r="4" fill="#0" id="circle70"/>
	<circle cx="98.3057" cy="691.596" r="4" fill="#0" id="circle71"/>
	<circle cx="99.4994" cy="4" r="4" fill="#0" id="circle72"/>
	<circle cx="99.4994" cy="777.545" r="4" fill="#0" id="circle73"/>
	<circle cx="99.4994" cy="846.782" r="4" fill="#0" id="circle74"/>
	<circle cx="99.4994" cy="858.72" r="4" fill="#0" id="circle75"/>
	<circle cx="99.4994" cy="870.657" r="4" fill="#0" id="circle76"/>
	<circle cx="99.4994" cy="914.826" r="4" fill="#0" id="circle77"/>
	<circle cx="99.4994" cy="967.35" r="4" fill="#0" id="circle78"/>
	<circle cx="105.468" cy="765.608" r="4" fill="#0" id="circle79"/>
	<circle cx="105.468" cy="881.401" r="4" fill="#0" id="circle80"/>
	<circle cx="105.468" cy="893.338" r="4" fill="#0" id="circle81"/>
	<circle cx="106.662" cy="701.146" r="4" fill="#0" id="circle82"/>
	<circle cx="107.856" cy="976.9" r="4" fill="#0" id="circle83"/>
	<circle cx="111.437" cy="4" r="4" fill="#0" id="circle84"/>
	<circle cx="111.437" cy="753.67" r="4" fill="#0" id="circle85"/>
	<circle cx="112.631" cy="711.889" r="4" fill="#0" id="circle86"/>
	<circle cx="117.406" cy="723.827" r="4" fill="#0" id="circle87"/>
	<circle cx="117.406" cy="735.764" r="4" fill="#0" id="circle88"/>
	<circle cx="117.406" cy="984.063" r="4" fill="#0" id="circle89"/>
	<circle cx="123.374" cy="4" r="4" fill="#0" id="circle90"/>
	<circle cx="129.343" cy="984.063" r="4" fill="#0" id="circle91"/>
	<circle cx="135.312" cy="4" r="4" fill="#0" id="circle92"/>
	<circle cx="141.28" cy="984.063" r="4" fill="#0" id="circle93"/>
	<circle cx="147.249" cy="4" r="4" fill="#0" id="circle94"/>
	<circle cx="152.024" cy="990.031" r="4" fill="#0" id="circle95"/>
	<circle cx="159.187" cy="6.38748" r="4" fill="#0" id="circle96"/>
	<circle cx="163.961" cy="990.031" r="4" fill="#0" id="circle97"/>
	<circle cx="171.124" cy="9.96871" r="4" fill="#0" id="circle98"/>
	<circle cx="174.705" cy="996" r="4" fill="#0" id="circle99"/>
	<circle cx="183.061" cy="9.96871" r="4" fill="#0" id="circle100"/>
	<circle cx="186.643" cy="996" r="4" fill="#0" id="circle101"/>
	<circle cx="193.805" cy="15.9374" r="4" fill="#0" id="circle102"/>
	<circle cx="198.58" cy="996" r="4" fill="#0" id="circle103"/>
	<circle cx="204.549" cy="21.9061" r="4" fill="#0" id="circle104"/>
	<circle cx="210.517" cy="996" r="4" fill="#0" id="circle105"/>
	<circle cx="215.292" cy="27.8748" r="4" fill="#0" id="circle106"/>
	<circle cx="222.455" cy="996" r="4" fill="#0" id="circle107"/>
	<circle cx="226.036" cy="33.8436" r="4" fill="#0" id="circle108"/>
	<circle cx="234.392" cy="996" r="4" fill="#0" id="circle109"/>
	<circle cx="235.586" cy="41.006" r="4" fill="#0" id="circle110"/>
	<circle cx="237.974" cy="882.594" r="4" fill="#0" id="circle111"/>
	<circle cx="243.942" cy="50.556" r="4" fill="#0" id="circle112"/>
	<circle cx="243.942" cy="232.005" r="4" fill="#0" id="circle113"/>
	<circle cx="243.942" cy="864.688" r="4" fill="#0" id="circle114"/>
	<circle cx="243.942" cy="893.338" r="4" fill="#0" id="circle115"/>
	<circle cx="246.33" cy="996" r="4" fill="#0" id="circle116"/>
	<circle cx="249.911" cy="214.099" r="4" fill="#0" id="circle117"/>
	<circle cx="249.911" cy="242.748" r="4" fill="#0" id="circle118"/>
	<circle cx="249.911" cy="846.782" r="4" fill="#0" id="circle119"/>
	<circle cx="253.492" cy="58.9122" r="4" fill="#0" id="circle120"/>
	<circle cx="253.492" cy="900.501" r="4" fill="#0" id="circle121"/>
	<circle cx="255.88" cy="196.193" r="4" fill="#0" id="circle122"/>
	<circle cx="255.88" cy="253.492" r="4" fill="#0" id="circle123"/>
	<circle cx="255.88" cy="822.907" r="4" fill="#0" id="circle124"/>
	<circle cx="255.88" cy="834.845" r="4" fill="#0" id="circle125"/>
	<circle cx="258.267" cy="70.8496" r="4" fill="#0" id="circle126"/>
	<circle cx="258.267" cy="994.806" r="4" fill="#0" id="circle127"/>
	<circle cx="261.848" cy="82.787" r="4" fill="#0" id="circle128"/>
	<circle cx="261.848" cy="94.7244" r="4" fill="#0" id="circle129"/>
	<circle cx="261.848" cy="106.662" r="4" fill="#0" id="circle130"/>
	<circle cx="261.848" cy="130.537" r="4" fill="#0" id="circle131"/>
	<circle cx="261.848" cy="142.474" r="4" fill="#0" id="circle132"/>
	<circle cx="261.848" cy="154.412" r="4" fill="#0" id="circle133"/>
	<circle cx="261.848" cy="184.255" r="4" fill="#0" id="circle134"/>
	<circle cx="261.848" cy="793.064" r="4" fill="#0" id="circle135"/>
	<circle cx="261.848" cy="805.001" r="4" fill="#0" id="circle136"/>
	<circle cx="264.236" cy="906.469" r="4" fill="#0" id="circle137"/>
	<circle cx="265.43" cy="261.848" r="4" fill="#0" id="circle138"/>
	<circle cx="267.817" cy="117.406" r="4" fill="#0" id="circle139"/>
	<circle cx="267.817" cy="165.155" r="4" fill="#0" id="circle140"/>
	<circle cx="267.817" cy="763.22" r="4" fill="#0" id="circle141"/>
	<circle cx="267.817" cy="775.158" r="4" fill="#0" id="circle142"/>
	<circle cx="270.205" cy="273.786" r="4" fill="#0" id="circle143"/>
	<circle cx="270.205" cy="988.838" r="4" fill="#0" id="circle144"/>
	<circle cx="273.786" cy="751.283" r="4" fill="#0" id="circle145"/>
	<circle cx="273.786" cy="914.826" r="4" fill="#0" id="circle146"/>
	<circle cx="276.173" cy="284.529" r="4" fill="#0" id="circle147"/>
	<circle cx="279.755" cy="296.467" r="4" fill="#0" id="circle148"/>
	<circle cx="279.755" cy="308.404" r="4" fill="#0" id="circle149"/>
	<circle cx="279.755" cy="320.342" r="4" fill="#0" id="circle150"/>
	<circle cx="279.755" cy="739.345" r="4" fill="#0" id="circle151"/>
	<circle cx="279.755" cy="978.094" r="4" fill="#0" id="circle152"/>
	<circle cx="284.529" cy="920.794" r="4" fill="#0" id="circle153"/>
	<circle cx="285.723" cy="331.085" r="4" fill="#0" id="circle154"/>
	<circle cx="285.723" cy="363.316" r="4" fill="#0" id="circle155"/>
	<circle cx="285.723" cy="375.254" r="4" fill="#0" id="circle156"/>
	<circle cx="285.723" cy="387.191" r="4" fill="#0" id="circle157"/>
	<circle cx="285.723" cy="673.69" r="4" fill="#0" id="circle158"/>
	<circle cx="285.723" cy="685.627" r="4" fill="#0" id="circle159"/>
	<circle cx="285.723" cy="697.564" r="4" fill="#0" id="circle160"/>
	<circle cx="285.723" cy="727.408" r="4" fill="#0" id="circle161"/>
	<circle cx="288.111" cy="709.502" r="4" fill="#0" id="circle162"/>
	<circle cx="291.692" cy="341.829" r="4" fill="#0" id="circle163"/>
	<circle cx="291.692" cy="397.935" r="4" fill="#0" id="circle164"/>
	<circle cx="291.692" cy="972.125" r="4" fill="#0" id="circle165"/>
	<circle cx="295.273" cy="665.333" r="4" fill="#0" id="circle166"/>
	<circle cx="296.467" cy="923.182" r="4" fill="#0" id="circle167"/>
	<circle cx="297.661" cy="408.679" r="4" fill="#0" id="circle168"/>
	<circle cx="303.629" cy="419.422" r="4" fill="#0" id="circle169"/>
	<circle cx="303.629" cy="431.36" r="4" fill="#0" id="circle170"/>
	<circle cx="303.629" cy="972.125" r="4" fill="#0" id="circle171"/>
	<circle cx="307.211" cy="659.365" r="4" fill="#0" id="circle172"/>
	<circle cx="307.211" cy="929.15" r="4" fill="#0" id="circle173"/>
	<circle cx="309.598" cy="442.103" r="4" fill="#0" id="circle174"/>
	<circle cx="309.598" cy="454.041" r="4" fill="#0" id="circle175"/>
	<circle cx="315.567" cy="464.785" r="4" fill="#0" id="circle176"/>
	<circle cx="315.567" cy="972.125" r="4" fill="#0" id="circle177"/>
	<circle cx="317.954" cy="476.722" r="4" fill="#0" id="circle178"/>
	<circle cx="319.148" cy="653.396" r="4" fill="#0" id="circle179"/>
	<circle cx="319.148" cy="930.344" r="4" fill="#0" id="circle180"/>
	<circle cx="321.535" cy="614.002" r="4" fill="#0" id="circle181"/>
	<circle cx="323.923" cy="487.466" r="4" fill="#0" id="circle182"/>
	<circle cx="325.117" cy="963.769" r="4" fill="#0" id="circle183"/>
	<circle cx="327.504" cy="499.403" r="4" fill="#0" id="circle184"/>
	<circle cx="327.504" cy="602.065" r="4" fill="#0" id="circle185"/>
	<circle cx="327.504" cy="624.746" r="4" fill="#0" id="circle186"/>
	<circle cx="327.504" cy="636.684" r="4" fill="#0" id="circle187"/>
	<circle cx="327.504" cy="939.894" r="4" fill="#0" id="circle188"/>
	<circle cx="333.473" cy="510.147" r="4" fill="#0" id="circle189"/>
	<circle cx="333.473" cy="522.084" r="4" fill="#0" id="circle190"/>
	<circle cx="333.473" cy="950.638" r="4" fill="#0" id="circle191"/>
	<circle cx="338.248" cy="596.096" r="4" fill="#0" id="circle192"/>
	<circle cx="339.442" cy="532.828" r="4" fill="#0" id="circle193"/>
	<circle cx="344.217" cy="544.765" r="4" fill="#0" id="circle194"/>
	<circle cx="345.41" cy="584.159" r="4" fill="#0" id="circle195"/>
	<circle cx="350.185" cy="555.509" r="4" fill="#0" id="circle196"/>
	<circle cx="351.379" cy="567.446" r="4" fill="#0" id="circle197"/>
	</g>
</svg>