<?xml version="1.0" encoding="UTF-8" standalone="no"?>
<!-- Created with CurveBenchmark -->
<svg
	xmlns:dc="http://purl.org/dc/elements/1.1/"
	xmlns:cc="http://creativecommons.org/ns#"
	xmlns:rdf="http://www.w3.org/1999/02/22-rdf-syntax-ns#"
	xmlns:svg="http://www.w3.org/2000/svg"
	xmlns="http://www.w3.org/2000/svg"
	xmlns:sodipodi="http://sodipodi.sourceforge.net/DTD/sodipodi-0.dtd"
	xmlns:inkscape="http://www.inkscape.org/namespaces/inkscape"
	width="1000"
	height="1000"
	id="svg2"
	version="1.1"
	sodipodi:docname="manifold/crust-face13.png.txt">
<defs
	id="defs4" />
<metadata
	id="metadata7">
	<rdf:RDF>
		<cc:Work
			rdf:about="">
			<dc:format>image/svg+xml</dc:format>
			<dc:type
				rdf:resource="http://purl.org/dc/dcmitype/StillImage" />
			<dc:title></dc:title>
		</cc:Work>
	</rdf:RDF>
</metadata>
<g
	inkscape:label="Layer 1"
	inkscape:groupmode="layer"
	id="layer1">
	<path style="fill:none;stroke:red;stroke-width:1px;stroke-linecap:butt;stroke-linejoin:miter;stroke-opacity:1" d="M 60.8249,211.817 52.707,228.052 z" id="boundary" inkscape:connector-curvature="0" />
	<path style="fill:none;stroke:red;stroke-width:1px;stroke-linecap:butt;stroke-linejoin:miter;stroke-opacity:1" d="M 52.707,228.052 52.707,244.288 z" id="boundary" inkscape:connector-curvature="0" />
	<path style="fill:none;stroke:red;stroke-width:1px;stroke-linecap:butt;stroke-linejoin:miter;stroke-opacity:1" d="M 85.1784,154.992 77.0606,171.227 z" id="boundary" inkscape:connector-curvature="0" />
	<path style="fill:none;stroke:red;stroke-width:1px;stroke-linecap:butt;stroke-linejoin:miter;stroke-opacity:1" d="M 77.0606,171.227 68.9427,187.463 z" id="boundary" inkscape:connector-curvature="0" />
	<path style="fill:none;stroke:red;stroke-width:1px;stroke-linecap:butt;stroke-linejoin:miter;stroke-opacity:1" d="M 106.285,125.768 98.1669,142.003 z" id="boundary" inkscape:connector-curvature="0" />
	<path style="fill:none;stroke:red;stroke-width:1px;stroke-linecap:butt;stroke-linejoin:miter;stroke-opacity:1" d="M 85.1784,154.992 98.1669,142.003 z" id="boundary" inkscape:connector-curvature="0" />
	<path style="fill:none;stroke:red;stroke-width:1px;stroke-linecap:butt;stroke-linejoin:miter;stroke-opacity:1" d="M 114.403,109.532 106.285,125.768 z" id="boundary" inkscape:connector-curvature="0" />
	<path style="fill:none;stroke:red;stroke-width:1px;stroke-linecap:butt;stroke-linejoin:miter;stroke-opacity:1" d="M 130.638,101.414 114.403,109.532 z" id="boundary" inkscape:connector-curvature="0" />
	<path style="fill:none;stroke:red;stroke-width:1px;stroke-linecap:butt;stroke-linejoin:miter;stroke-opacity:1" d="M 52.707,260.524 52.707,244.288 z" id="boundary" inkscape:connector-curvature="0" />
	<path style="fill:none;stroke:red;stroke-width:1px;stroke-linecap:butt;stroke-linejoin:miter;stroke-opacity:1" d="M 52.707,276.759 52.707,260.524 z" id="boundary" inkscape:connector-curvature="0" />
	<path style="fill:none;stroke:red;stroke-width:1px;stroke-linecap:butt;stroke-linejoin:miter;stroke-opacity:1" d="M 60.8249,211.817 68.9427,187.463 z" id="boundary" inkscape:connector-curvature="0" />
	<path style="fill:none;stroke:red;stroke-width:1px;stroke-linecap:butt;stroke-linejoin:miter;stroke-opacity:1" d="M 52.707,309.231 52.707,292.995 z" id="boundary" inkscape:connector-curvature="0" />
	<path style="fill:none;stroke:red;stroke-width:1px;stroke-linecap:butt;stroke-linejoin:miter;stroke-opacity:1" d="M 52.707,292.995 52.707,276.759 z" id="boundary" inkscape:connector-curvature="0" />
	<path style="fill:none;stroke:red;stroke-width:1px;stroke-linecap:butt;stroke-linejoin:miter;stroke-opacity:1" d="M 12.1178,455.352 4,479.705 z" id="boundary" inkscape:connector-curvature="0" />
	<path style="fill:none;stroke:red;stroke-width:1px;stroke-linecap:butt;stroke-linejoin:miter;stroke-opacity:1" d="M 20.2357,422.881 12.1178,439.116 z" id="boundary" inkscape:connector-curvature="0" />
	<path style="fill:none;stroke:red;stroke-width:1px;stroke-linecap:butt;stroke-linejoin:miter;stroke-opacity:1" d="M 12.1178,439.116 12.1178,455.352 z" id="boundary" inkscape:connector-curvature="0" />
	<path style="fill:none;stroke:red;stroke-width:1px;stroke-linecap:butt;stroke-linejoin:miter;stroke-opacity:1" d="M 12.1178,494.318 4,479.705 z" id="boundary" inkscape:connector-curvature="0" />
	<path style="fill:none;stroke:red;stroke-width:1px;stroke-linecap:butt;stroke-linejoin:miter;stroke-opacity:1" d="M 33.2242,409.892 20.2357,422.881 z" id="boundary" inkscape:connector-curvature="0" />
	<path style="fill:none;stroke:red;stroke-width:1px;stroke-linecap:butt;stroke-linejoin:miter;stroke-opacity:1" d="M 52.707,325.466 52.707,341.702 z" id="boundary" inkscape:connector-curvature="0" />
	<path style="fill:none;stroke:red;stroke-width:1px;stroke-linecap:butt;stroke-linejoin:miter;stroke-opacity:1" d="M 46.2128,396.903 33.2242,409.892 z" id="boundary" inkscape:connector-curvature="0" />
	<path style="fill:none;stroke:red;stroke-width:1px;stroke-linecap:butt;stroke-linejoin:miter;stroke-opacity:1" d="M 52.707,325.466 52.707,309.231 z" id="boundary" inkscape:connector-curvature="0" />
	<path style="fill:none;stroke:red;stroke-width:1px;stroke-linecap:butt;stroke-linejoin:miter;stroke-opacity:1" d="M 52.707,341.702 52.707,357.938 z" id="boundary" inkscape:connector-curvature="0" />
	<path style="fill:none;stroke:red;stroke-width:1px;stroke-linecap:butt;stroke-linejoin:miter;stroke-opacity:1" d="M 52.707,357.938 52.707,374.173 z" id="boundary" inkscape:connector-curvature="0" />
	<path style="fill:none;stroke:red;stroke-width:1px;stroke-linecap:butt;stroke-linejoin:miter;stroke-opacity:1" d="M 52.707,374.173 46.2128,396.903 z" id="boundary" inkscape:connector-curvature="0" />
	<path style="fill:none;stroke:red;stroke-width:1px;stroke-linecap:butt;stroke-linejoin:miter;stroke-opacity:1" d="M 187.463,60.8249 172.851,68.9427 z" id="boundary" inkscape:connector-curvature="0" />
	<path style="fill:none;stroke:red;stroke-width:1px;stroke-linecap:butt;stroke-linejoin:miter;stroke-opacity:1" d="M 172.851,68.9427 159.863,80.3077 z" id="boundary" inkscape:connector-curvature="0" />
	<path style="fill:none;stroke:red;stroke-width:1px;stroke-linecap:butt;stroke-linejoin:miter;stroke-opacity:1" d="M 202.075,52.707 187.463,60.8249 z" id="boundary" inkscape:connector-curvature="0" />
	<path style="fill:none;stroke:red;stroke-width:1px;stroke-linecap:butt;stroke-linejoin:miter;stroke-opacity:1" d="M 216.687,44.5892 202.075,52.707 z" id="boundary" inkscape:connector-curvature="0" />
	<path style="fill:none;stroke:red;stroke-width:1px;stroke-linecap:butt;stroke-linejoin:miter;stroke-opacity:1" d="M 130.638,101.414 143.627,88.4255 z" id="boundary" inkscape:connector-curvature="0" />
	<path style="fill:none;stroke:red;stroke-width:1px;stroke-linecap:butt;stroke-linejoin:miter;stroke-opacity:1" d="M 143.627,88.4255 159.863,80.3077 z" id="boundary" inkscape:connector-curvature="0" />
	<path style="fill:none;stroke:red;stroke-width:1px;stroke-linecap:butt;stroke-linejoin:miter;stroke-opacity:1" d="M 280.007,20.2357 265.394,28.3535 z" id="boundary" inkscape:connector-curvature="0" />
	<path style="fill:none;stroke:red;stroke-width:1px;stroke-linecap:butt;stroke-linejoin:miter;stroke-opacity:1" d="M 265.394,28.3535 249.159,31.6007 z" id="boundary" inkscape:connector-curvature="0" />
	<path style="fill:none;stroke:red;stroke-width:1px;stroke-linecap:butt;stroke-linejoin:miter;stroke-opacity:1" d="M 280.007,20.2357 294.619,12.1178 z" id="boundary" inkscape:connector-curvature="0" />
	<path style="fill:none;stroke:red;stroke-width:1px;stroke-linecap:butt;stroke-linejoin:miter;stroke-opacity:1" d="M 309.231,4 294.619,12.1178 z" id="boundary" inkscape:connector-curvature="0" />
	<path style="fill:none;stroke:red;stroke-width:1px;stroke-linecap:butt;stroke-linejoin:miter;stroke-opacity:1" d="M 232.923,39.7185 216.687,44.5892 z" id="boundary" inkscape:connector-curvature="0" />
	<path style="fill:none;stroke:red;stroke-width:1px;stroke-linecap:butt;stroke-linejoin:miter;stroke-opacity:1" d="M 232.923,39.7185 249.159,31.6007 z" id="boundary" inkscape:connector-curvature="0" />
	<path style="fill:none;stroke:red;stroke-width:1px;stroke-linecap:butt;stroke-linejoin:miter;stroke-opacity:1" d="M 309.231,4 325.466,4 z" id="boundary" inkscape:connector-curvature="0" />
	<path style="fill:none;stroke:red;stroke-width:1px;stroke-linecap:butt;stroke-linejoin:miter;stroke-opacity:1" d="M 12.1178,494.318 20.2357,508.93 z" id="boundary" inkscape:connector-curvature="0" />
	<path style="fill:none;stroke:red;stroke-width:1px;stroke-linecap:butt;stroke-linejoin:miter;stroke-opacity:1" d="M 20.2357,508.93 25.1064,525.165 z" id="boundary" inkscape:connector-curvature="0" />
	<path style="fill:none;stroke:red;stroke-width:1px;stroke-linecap:butt;stroke-linejoin:miter;stroke-opacity:1" d="M 33.2242,539.777 25.1064,525.165 z" id="boundary" inkscape:connector-curvature="0" />
	<path style="fill:none;stroke:red;stroke-width:1px;stroke-linecap:butt;stroke-linejoin:miter;stroke-opacity:1" d="M 44.5892,552.766 33.2242,539.777 z" id="boundary" inkscape:connector-curvature="0" />
	<path style="fill:none;stroke:red;stroke-width:1px;stroke-linecap:butt;stroke-linejoin:miter;stroke-opacity:1" d="M 60.8249,581.99 52.707,567.378 z" id="boundary" inkscape:connector-curvature="0" />
	<path style="fill:none;stroke:red;stroke-width:1px;stroke-linecap:butt;stroke-linejoin:miter;stroke-opacity:1" d="M 60.8249,581.99 70.5663,594.979 z" id="boundary" inkscape:connector-curvature="0" />
	<path style="fill:none;stroke:red;stroke-width:1px;stroke-linecap:butt;stroke-linejoin:miter;stroke-opacity:1" d="M 44.5892,552.766 52.707,567.378 z" id="boundary" inkscape:connector-curvature="0" />
	<path style="fill:none;stroke:red;stroke-width:1px;stroke-linecap:butt;stroke-linejoin:miter;stroke-opacity:1" d="M 70.5663,594.979 83.5548,606.344 z" id="boundary" inkscape:connector-curvature="0" />
	<path style="fill:none;stroke:red;stroke-width:1px;stroke-linecap:butt;stroke-linejoin:miter;stroke-opacity:1" d="M 94.9198,619.332 83.5548,606.344 z" id="boundary" inkscape:connector-curvature="0" />
	<path style="fill:none;stroke:red;stroke-width:1px;stroke-linecap:butt;stroke-linejoin:miter;stroke-opacity:1" d="M 107.908,630.697 94.9198,619.332 z" id="boundary" inkscape:connector-curvature="0" />
	<path style="fill:none;stroke:red;stroke-width:1px;stroke-linecap:butt;stroke-linejoin:miter;stroke-opacity:1" d="M 117.65,643.686 107.908,630.697 z" id="boundary" inkscape:connector-curvature="0" />
	<path style="fill:none;stroke:red;stroke-width:1px;stroke-linecap:butt;stroke-linejoin:miter;stroke-opacity:1" d="M 125.768,658.298 125.768,674.534 z" id="boundary" inkscape:connector-curvature="0" />
	<path style="fill:none;stroke:red;stroke-width:1px;stroke-linecap:butt;stroke-linejoin:miter;stroke-opacity:1" d="M 125.768,658.298 117.65,643.686 z" id="boundary" inkscape:connector-curvature="0" />
	<path style="fill:none;stroke:red;stroke-width:1px;stroke-linecap:butt;stroke-linejoin:miter;stroke-opacity:1" d="M 125.768,674.534 133.885,689.146 z" id="boundary" inkscape:connector-curvature="0" />
	<path style="fill:none;stroke:red;stroke-width:1px;stroke-linecap:butt;stroke-linejoin:miter;stroke-opacity:1" d="M 133.885,689.146 133.885,705.381 z" id="boundary" inkscape:connector-curvature="0" />
	<path style="fill:none;stroke:red;stroke-width:1px;stroke-linecap:butt;stroke-linejoin:miter;stroke-opacity:1" d="M 133.885,721.617 133.885,737.853 z" id="boundary" inkscape:connector-curvature="0" />
	<path style="fill:none;stroke:red;stroke-width:1px;stroke-linecap:butt;stroke-linejoin:miter;stroke-opacity:1" d="M 133.885,721.617 133.885,705.381 z" id="boundary" inkscape:connector-curvature="0" />
	<path style="fill:none;stroke:red;stroke-width:1px;stroke-linecap:butt;stroke-linejoin:miter;stroke-opacity:1" d="M 133.885,754.088 133.885,737.853 z" id="boundary" inkscape:connector-curvature="0" />
	<path style="fill:none;stroke:red;stroke-width:1px;stroke-linecap:butt;stroke-linejoin:miter;stroke-opacity:1" d="M 133.885,770.324 133.885,754.088 z" id="boundary" inkscape:connector-curvature="0" />
	<path style="fill:none;stroke:red;stroke-width:1px;stroke-linecap:butt;stroke-linejoin:miter;stroke-opacity:1" d="M 133.885,802.795 125.768,820.655 z" id="boundary" inkscape:connector-curvature="0" />
	<path style="fill:none;stroke:red;stroke-width:1px;stroke-linecap:butt;stroke-linejoin:miter;stroke-opacity:1" d="M 125.768,820.655 138.756,832.02 z" id="boundary" inkscape:connector-curvature="0" />
	<path style="fill:none;stroke:red;stroke-width:1px;stroke-linecap:butt;stroke-linejoin:miter;stroke-opacity:1" d="M 133.885,786.56 133.885,802.795 z" id="boundary" inkscape:connector-curvature="0" />
	<path style="fill:none;stroke:red;stroke-width:1px;stroke-linecap:butt;stroke-linejoin:miter;stroke-opacity:1" d="M 133.885,770.324 133.885,786.56 z" id="boundary" inkscape:connector-curvature="0" />
	<path style="fill:none;stroke:red;stroke-width:1px;stroke-linecap:butt;stroke-linejoin:miter;stroke-opacity:1" d="M 153.368,862.867 145.25,848.255 z" id="boundary" inkscape:connector-curvature="0" />
	<path style="fill:none;stroke:red;stroke-width:1px;stroke-linecap:butt;stroke-linejoin:miter;stroke-opacity:1" d="M 145.25,848.255 138.756,832.02 z" id="boundary" inkscape:connector-curvature="0" />
	<path style="fill:none;stroke:red;stroke-width:1px;stroke-linecap:butt;stroke-linejoin:miter;stroke-opacity:1" d="M 153.368,862.867 158.239,879.103 z" id="boundary" inkscape:connector-curvature="0" />
	<path style="fill:none;stroke:red;stroke-width:1px;stroke-linecap:butt;stroke-linejoin:miter;stroke-opacity:1" d="M 158.239,879.103 166.357,893.715 z" id="boundary" inkscape:connector-curvature="0" />
	<path style="fill:none;stroke:red;stroke-width:1px;stroke-linecap:butt;stroke-linejoin:miter;stroke-opacity:1" d="M 166.357,893.715 174.475,908.327 z" id="boundary" inkscape:connector-curvature="0" />
	<path style="fill:none;stroke:red;stroke-width:1px;stroke-linecap:butt;stroke-linejoin:miter;stroke-opacity:1" d="M 174.475,908.327 190.71,914.822 z" id="boundary" inkscape:connector-curvature="0" />
	<path style="fill:none;stroke:red;stroke-width:1px;stroke-linecap:butt;stroke-linejoin:miter;stroke-opacity:1" d="M 200.452,927.81 190.71,914.822 z" id="boundary" inkscape:connector-curvature="0" />
	<path style="fill:none;stroke:red;stroke-width:1px;stroke-linecap:butt;stroke-linejoin:miter;stroke-opacity:1" d="M 208.57,942.422 200.452,927.81 z" id="boundary" inkscape:connector-curvature="0" />
	<path style="fill:none;stroke:red;stroke-width:1px;stroke-linecap:butt;stroke-linejoin:miter;stroke-opacity:1" d="M 208.57,942.422 219.935,955.411 z" id="boundary" inkscape:connector-curvature="0" />
	<path style="fill:none;stroke:red;stroke-width:1px;stroke-linecap:butt;stroke-linejoin:miter;stroke-opacity:1" d="M 219.935,955.411 232.923,966.776 z" id="boundary" inkscape:connector-curvature="0" />
	<path style="fill:none;stroke:red;stroke-width:1px;stroke-linecap:butt;stroke-linejoin:miter;stroke-opacity:1" d="M 249.159,971.646 232.923,966.776 z" id="boundary" inkscape:connector-curvature="0" />
	<path style="fill:none;stroke:red;stroke-width:1px;stroke-linecap:butt;stroke-linejoin:miter;stroke-opacity:1" d="M 249.159,971.646 263.771,979.764 z" id="boundary" inkscape:connector-curvature="0" />
	<path style="fill:none;stroke:red;stroke-width:1px;stroke-linecap:butt;stroke-linejoin:miter;stroke-opacity:1" d="M 278.383,987.882 263.771,979.764 z" id="boundary" inkscape:connector-curvature="0" />
	<path style="fill:none;stroke:red;stroke-width:1px;stroke-linecap:butt;stroke-linejoin:miter;stroke-opacity:1" d="M 294.619,987.882 278.383,987.882 z" id="boundary" inkscape:connector-curvature="0" />
	<path style="fill:none;stroke:red;stroke-width:1px;stroke-linecap:butt;stroke-linejoin:miter;stroke-opacity:1" d="M 309.231,996 294.619,987.882 z" id="boundary" inkscape:connector-curvature="0" />
	<path style="fill:none;stroke:red;stroke-width:1px;stroke-linecap:butt;stroke-linejoin:miter;stroke-opacity:1" d="M 323.843,987.882 309.231,996 z" id="boundary" inkscape:connector-curvature="0" />
	<path style="fill:none;stroke:red;stroke-width:1px;stroke-linecap:butt;stroke-linejoin:miter;stroke-opacity:1" d="M 325.466,4 341.702,4 z" id="boundary" inkscape:connector-curvature="0" />
	<path style="fill:none;stroke:red;stroke-width:1px;stroke-linecap:butt;stroke-linejoin:miter;stroke-opacity:1" d="M 357.938,4 341.702,4 z" id="boundary" inkscape:connector-curvature="0" />
	<path style="fill:none;stroke:red;stroke-width:1px;stroke-linecap:butt;stroke-linejoin:miter;stroke-opacity:1" d="M 388.786,12.1178 372.55,12.1178 z" id="boundary" inkscape:connector-curvature="0" />
	<path style="fill:none;stroke:red;stroke-width:1px;stroke-linecap:butt;stroke-linejoin:miter;stroke-opacity:1" d="M 372.55,12.1178 357.938,4 z" id="boundary" inkscape:connector-curvature="0" />
	<path style="fill:none;stroke:red;stroke-width:1px;stroke-linecap:butt;stroke-linejoin:miter;stroke-opacity:1" d="M 403.398,20.2357 388.786,12.1178 z" id="boundary" inkscape:connector-curvature="0" />
	<path style="fill:none;stroke:red;stroke-width:1px;stroke-linecap:butt;stroke-linejoin:miter;stroke-opacity:1" d="M 416.386,29.9771 403.398,20.2357 z" id="boundary" inkscape:connector-curvature="0" />
	<path style="fill:none;stroke:red;stroke-width:1px;stroke-linecap:butt;stroke-linejoin:miter;stroke-opacity:1" d="M 424.504,44.5892 416.386,29.9771 z" id="boundary" inkscape:connector-curvature="0" />
	<path style="fill:none;stroke:red;stroke-width:1px;stroke-linecap:butt;stroke-linejoin:miter;stroke-opacity:1" d="M 439.116,52.707 424.504,44.5892 z" id="boundary" inkscape:connector-curvature="0" />
	<path style="fill:none;stroke:red;stroke-width:1px;stroke-linecap:butt;stroke-linejoin:miter;stroke-opacity:1" d="M 455.352,52.707 439.116,52.707 z" id="boundary" inkscape:connector-curvature="0" />
	<path style="fill:none;stroke:red;stroke-width:1px;stroke-linecap:butt;stroke-linejoin:miter;stroke-opacity:1" d="M 471.588,52.707 486.2,60.8249 z" id="boundary" inkscape:connector-curvature="0" />
	<path style="fill:none;stroke:red;stroke-width:1px;stroke-linecap:butt;stroke-linejoin:miter;stroke-opacity:1" d="M 486.2,60.8249 500.812,68.9427 z" id="boundary" inkscape:connector-curvature="0" />
	<path style="fill:none;stroke:red;stroke-width:1px;stroke-linecap:butt;stroke-linejoin:miter;stroke-opacity:1" d="M 455.352,52.707 471.588,52.707 z" id="boundary" inkscape:connector-curvature="0" />
	<path style="fill:none;stroke:red;stroke-width:1px;stroke-linecap:butt;stroke-linejoin:miter;stroke-opacity:1" d="M 500.812,68.9427 513.8,78.6841 z" id="boundary" inkscape:connector-curvature="0" />
	<path style="fill:none;stroke:red;stroke-width:1px;stroke-linecap:butt;stroke-linejoin:miter;stroke-opacity:1" d="M 513.8,78.6841 528.412,86.802 z" id="boundary" inkscape:connector-curvature="0" />
	<path style="fill:none;stroke:red;stroke-width:1px;stroke-linecap:butt;stroke-linejoin:miter;stroke-opacity:1" d="M 544.648,93.2962 528.412,86.802 z" id="boundary" inkscape:connector-curvature="0" />
	<path style="fill:none;stroke:red;stroke-width:1px;stroke-linecap:butt;stroke-linejoin:miter;stroke-opacity:1" d="M 549.519,109.532 544.648,93.2962 z" id="boundary" inkscape:connector-curvature="0" />
	<path style="fill:none;stroke:red;stroke-width:1px;stroke-linecap:butt;stroke-linejoin:miter;stroke-opacity:1" d="M 562.507,119.273 549.519,109.532 z" id="boundary" inkscape:connector-curvature="0" />
	<path style="fill:none;stroke:red;stroke-width:1px;stroke-linecap:butt;stroke-linejoin:miter;stroke-opacity:1" d="M 562.507,119.273 569.002,135.509 z" id="boundary" inkscape:connector-curvature="0" />
	<path style="fill:none;stroke:red;stroke-width:1px;stroke-linecap:butt;stroke-linejoin:miter;stroke-opacity:1" d="M 569.002,135.509 573.872,151.745 z" id="boundary" inkscape:connector-curvature="0" />
	<path style="fill:none;stroke:red;stroke-width:1px;stroke-linecap:butt;stroke-linejoin:miter;stroke-opacity:1" d="M 573.872,167.98 573.872,151.745 z" id="boundary" inkscape:connector-curvature="0" />
	<path style="fill:none;stroke:red;stroke-width:1px;stroke-linecap:butt;stroke-linejoin:miter;stroke-opacity:1" d="M 581.99,182.592 573.872,167.98 z" id="boundary" inkscape:connector-curvature="0" />
	<path style="fill:none;stroke:red;stroke-width:1px;stroke-linecap:butt;stroke-linejoin:miter;stroke-opacity:1" d="M 581.99,182.592 581.99,198.828 z" id="boundary" inkscape:connector-curvature="0" />
	<path style="fill:none;stroke:red;stroke-width:1px;stroke-linecap:butt;stroke-linejoin:miter;stroke-opacity:1" d="M 581.99,215.064 581.99,198.828 z" id="boundary" inkscape:connector-curvature="0" />
	<path style="fill:none;stroke:red;stroke-width:1px;stroke-linecap:butt;stroke-linejoin:miter;stroke-opacity:1" d="M 581.99,231.3 581.99,215.064 z" id="boundary" inkscape:connector-curvature="0" />
	<path style="fill:none;stroke:red;stroke-width:1px;stroke-linecap:butt;stroke-linejoin:miter;stroke-opacity:1" d="M 581.99,231.3 581.99,247.535 z" id="boundary" inkscape:connector-curvature="0" />
	<path style="fill:none;stroke:red;stroke-width:1px;stroke-linecap:butt;stroke-linejoin:miter;stroke-opacity:1" d="M 581.99,263.771 581.99,280.007 z" id="boundary" inkscape:connector-curvature="0" />
	<path style="fill:none;stroke:red;stroke-width:1px;stroke-linecap:butt;stroke-linejoin:miter;stroke-opacity:1" d="M 581.99,296.242 581.99,280.007 z" id="boundary" inkscape:connector-curvature="0" />
	<path style="fill:none;stroke:red;stroke-width:1px;stroke-linecap:butt;stroke-linejoin:miter;stroke-opacity:1" d="M 581.99,312.478 581.99,328.714 z" id="boundary" inkscape:connector-curvature="0" />
	<path style="fill:none;stroke:red;stroke-width:1px;stroke-linecap:butt;stroke-linejoin:miter;stroke-opacity:1" d="M 581.99,344.949 581.99,328.714 z" id="boundary" inkscape:connector-curvature="0" />
	<path style="fill:none;stroke:red;stroke-width:1px;stroke-linecap:butt;stroke-linejoin:miter;stroke-opacity:1" d="M 581.99,312.478 581.99,296.242 z" id="boundary" inkscape:connector-curvature="0" />
	<path style="fill:none;stroke:red;stroke-width:1px;stroke-linecap:butt;stroke-linejoin:miter;stroke-opacity:1" d="M 581.99,361.185 581.99,377.421 z" id="boundary" inkscape:connector-curvature="0" />
	<path style="fill:none;stroke:red;stroke-width:1px;stroke-linecap:butt;stroke-linejoin:miter;stroke-opacity:1" d="M 581.99,344.949 581.99,361.185 z" id="boundary" inkscape:connector-curvature="0" />
	<path style="fill:none;stroke:red;stroke-width:1px;stroke-linecap:butt;stroke-linejoin:miter;stroke-opacity:1" d="M 581.99,377.421 581.99,393.656 z" id="boundary" inkscape:connector-curvature="0" />
	<path style="fill:none;stroke:red;stroke-width:1px;stroke-linecap:butt;stroke-linejoin:miter;stroke-opacity:1" d="M 590.108,408.268 581.99,393.656 z" id="boundary" inkscape:connector-curvature="0" />
	<path style="fill:none;stroke:red;stroke-width:1px;stroke-linecap:butt;stroke-linejoin:miter;stroke-opacity:1" d="M 590.108,408.268 598.226,422.881 z" id="boundary" inkscape:connector-curvature="0" />
	<path style="fill:none;stroke:red;stroke-width:1px;stroke-linecap:butt;stroke-linejoin:miter;stroke-opacity:1" d="M 598.226,422.881 598.226,439.116 z" id="boundary" inkscape:connector-curvature="0" />
	<path style="fill:none;stroke:red;stroke-width:1px;stroke-linecap:butt;stroke-linejoin:miter;stroke-opacity:1" d="M 581.99,263.771 581.99,247.535 z" id="boundary" inkscape:connector-curvature="0" />
	<path style="fill:none;stroke:red;stroke-width:1px;stroke-linecap:butt;stroke-linejoin:miter;stroke-opacity:1" d="M 598.226,455.352 598.226,439.116 z" id="boundary" inkscape:connector-curvature="0" />
	<path style="fill:none;stroke:red;stroke-width:1px;stroke-linecap:butt;stroke-linejoin:miter;stroke-opacity:1" d="M 492.694,825.525 484.576,849.879 z" id="boundary" inkscape:connector-curvature="0" />
	<path style="fill:none;stroke:red;stroke-width:1px;stroke-linecap:butt;stroke-linejoin:miter;stroke-opacity:1" d="M 395.28,947.293 379.044,955.411 z" id="boundary" inkscape:connector-curvature="0" />
	<path style="fill:none;stroke:red;stroke-width:1px;stroke-linecap:butt;stroke-linejoin:miter;stroke-opacity:1" d="M 408.268,935.928 395.28,947.293 z" id="boundary" inkscape:connector-curvature="0" />
	<path style="fill:none;stroke:red;stroke-width:1px;stroke-linecap:butt;stroke-linejoin:miter;stroke-opacity:1" d="M 367.679,968.399 379.044,955.411 z" id="boundary" inkscape:connector-curvature="0" />
	<path style="fill:none;stroke:red;stroke-width:1px;stroke-linecap:butt;stroke-linejoin:miter;stroke-opacity:1" d="M 323.843,987.882 338.455,979.764 z" id="boundary" inkscape:connector-curvature="0" />
	<path style="fill:none;stroke:red;stroke-width:1px;stroke-linecap:butt;stroke-linejoin:miter;stroke-opacity:1" d="M 338.455,979.764 354.691,979.764 z" id="boundary" inkscape:connector-curvature="0" />
	<path style="fill:none;stroke:red;stroke-width:1px;stroke-linecap:butt;stroke-linejoin:miter;stroke-opacity:1" d="M 354.691,979.764 367.679,968.399 z" id="boundary" inkscape:connector-curvature="0" />
	<path style="fill:none;stroke:red;stroke-width:1px;stroke-linecap:butt;stroke-linejoin:miter;stroke-opacity:1" d="M 476.458,882.35 465.093,895.339 z" id="boundary" inkscape:connector-curvature="0" />
	<path style="fill:none;stroke:red;stroke-width:1px;stroke-linecap:butt;stroke-linejoin:miter;stroke-opacity:1" d="M 476.458,866.115 476.458,882.35 z" id="boundary" inkscape:connector-curvature="0" />
	<path style="fill:none;stroke:red;stroke-width:1px;stroke-linecap:butt;stroke-linejoin:miter;stroke-opacity:1" d="M 484.576,849.879 476.458,866.115 z" id="boundary" inkscape:connector-curvature="0" />
	<path style="fill:none;stroke:red;stroke-width:1px;stroke-linecap:butt;stroke-linejoin:miter;stroke-opacity:1" d="M 465.093,895.339 452.105,906.704 z" id="boundary" inkscape:connector-curvature="0" />
	<path style="fill:none;stroke:red;stroke-width:1px;stroke-linecap:butt;stroke-linejoin:miter;stroke-opacity:1" d="M 424.504,927.81 408.268,935.928 z" id="boundary" inkscape:connector-curvature="0" />
	<path style="fill:none;stroke:red;stroke-width:1px;stroke-linecap:butt;stroke-linejoin:miter;stroke-opacity:1" d="M 435.869,914.822 452.105,906.704 z" id="boundary" inkscape:connector-curvature="0" />
	<path style="fill:none;stroke:red;stroke-width:1px;stroke-linecap:butt;stroke-linejoin:miter;stroke-opacity:1" d="M 424.504,927.81 435.869,914.822 z" id="boundary" inkscape:connector-curvature="0" />
	<path style="fill:none;stroke:red;stroke-width:1px;stroke-linecap:butt;stroke-linejoin:miter;stroke-opacity:1" d="M 581.99,573.872 573.872,590.108 z" id="boundary" inkscape:connector-curvature="0" />
	<path style="fill:none;stroke:red;stroke-width:1px;stroke-linecap:butt;stroke-linejoin:miter;stroke-opacity:1" d="M 549.519,614.462 549.519,630.697 z" id="boundary" inkscape:connector-curvature="0" />
	<path style="fill:none;stroke:red;stroke-width:1px;stroke-linecap:butt;stroke-linejoin:miter;stroke-opacity:1" d="M 549.519,646.933 549.519,630.697 z" id="boundary" inkscape:connector-curvature="0" />
	<path style="fill:none;stroke:red;stroke-width:1px;stroke-linecap:butt;stroke-linejoin:miter;stroke-opacity:1" d="M 562.507,603.097 573.872,590.108 z" id="boundary" inkscape:connector-curvature="0" />
	<path style="fill:none;stroke:red;stroke-width:1px;stroke-linecap:butt;stroke-linejoin:miter;stroke-opacity:1" d="M 562.507,603.097 549.519,614.462 z" id="boundary" inkscape:connector-curvature="0" />
	<path style="fill:none;stroke:red;stroke-width:1px;stroke-linecap:butt;stroke-linejoin:miter;stroke-opacity:1" d="M 549.519,646.933 541.401,671.286 z" id="boundary" inkscape:connector-curvature="0" />
	<path style="fill:none;stroke:red;stroke-width:1px;stroke-linecap:butt;stroke-linejoin:miter;stroke-opacity:1" d="M 590.108,508.93 590.108,525.165 z" id="boundary" inkscape:connector-curvature="0" />
	<path style="fill:none;stroke:red;stroke-width:1px;stroke-linecap:butt;stroke-linejoin:miter;stroke-opacity:1" d="M 590.108,508.93 590.108,492.694 z" id="boundary" inkscape:connector-curvature="0" />
	<path style="fill:none;stroke:red;stroke-width:1px;stroke-linecap:butt;stroke-linejoin:miter;stroke-opacity:1" d="M 590.108,525.165 590.108,541.401 z" id="boundary" inkscape:connector-curvature="0" />
	<path style="fill:none;stroke:red;stroke-width:1px;stroke-linecap:butt;stroke-linejoin:miter;stroke-opacity:1" d="M 598.226,471.588 598.226,455.352 z" id="boundary" inkscape:connector-curvature="0" />
	<path style="fill:none;stroke:red;stroke-width:1px;stroke-linecap:butt;stroke-linejoin:miter;stroke-opacity:1" d="M 590.108,492.694 598.226,471.588 z" id="boundary" inkscape:connector-curvature="0" />
	<path style="fill:none;stroke:red;stroke-width:1px;stroke-linecap:butt;stroke-linejoin:miter;stroke-opacity:1" d="M 581.99,573.872 581.99,557.637 z" id="boundary" inkscape:connector-curvature="0" />
	<path style="fill:none;stroke:red;stroke-width:1px;stroke-linecap:butt;stroke-linejoin:miter;stroke-opacity:1" d="M 590.108,541.401 581.99,557.637 z" id="boundary" inkscape:connector-curvature="0" />
	<path style="fill:none;stroke:red;stroke-width:1px;stroke-linecap:butt;stroke-linejoin:miter;stroke-opacity:1" d="M 500.812,744.347 508.93,728.111 z" id="boundary" inkscape:connector-curvature="0" />
	<path style="fill:none;stroke:red;stroke-width:1px;stroke-linecap:butt;stroke-linejoin:miter;stroke-opacity:1" d="M 521.918,716.746 508.93,728.111 z" id="boundary" inkscape:connector-curvature="0" />
	<path style="fill:none;stroke:red;stroke-width:1px;stroke-linecap:butt;stroke-linejoin:miter;stroke-opacity:1" d="M 521.918,716.746 533.283,695.64 z" id="boundary" inkscape:connector-curvature="0" />
	<path style="fill:none;stroke:red;stroke-width:1px;stroke-linecap:butt;stroke-linejoin:miter;stroke-opacity:1" d="M 533.283,695.64 541.401,671.286 z" id="boundary" inkscape:connector-curvature="0" />
	<path style="fill:none;stroke:red;stroke-width:1px;stroke-linecap:butt;stroke-linejoin:miter;stroke-opacity:1" d="M 500.812,760.583 500.812,744.347 z" id="boundary" inkscape:connector-curvature="0" />
	<path style="fill:none;stroke:red;stroke-width:1px;stroke-linecap:butt;stroke-linejoin:miter;stroke-opacity:1" d="M 492.694,825.525 492.694,809.29 z" id="boundary" inkscape:connector-curvature="0" />
	<path style="fill:none;stroke:red;stroke-width:1px;stroke-linecap:butt;stroke-linejoin:miter;stroke-opacity:1" d="M 500.812,760.583 500.812,776.818 z" id="boundary" inkscape:connector-curvature="0" />
	<path style="fill:none;stroke:red;stroke-width:1px;stroke-linecap:butt;stroke-linejoin:miter;stroke-opacity:1" d="M 500.812,776.818 500.812,793.054 z" id="boundary" inkscape:connector-curvature="0" />
	<path style="fill:none;stroke:red;stroke-width:1px;stroke-linecap:butt;stroke-linejoin:miter;stroke-opacity:1" d="M 500.812,793.054 492.694,809.29 z" id="boundary" inkscape:connector-curvature="0" />
	<circle cx="4" cy="479.705" r="4" fill="#0" id="circle0"/>
	<circle cx="12.1178" cy="439.116" r="4" fill="#0" id="circle1"/>
	<circle cx="12.1178" cy="455.352" r="4" fill="#0" id="circle2"/>
	<circle cx="12.1178" cy="494.318" r="4" fill="#0" id="circle3"/>
	<circle cx="20.2357" cy="422.881" r="4" fill="#0" id="circle4"/>
	<circle cx="20.2357" cy="508.93" r="4" fill="#0" id="circle5"/>
	<circle cx="25.1064" cy="525.165" r="4" fill="#0" id="circle6"/>
	<circle cx="33.2242" cy="409.892" r="4" fill="#0" id="circle7"/>
	<circle cx="33.2242" cy="539.777" r="4" fill="#0" id="circle8"/>
	<circle cx="44.5892" cy="552.766" r="4" fill="#0" id="circle9"/>
	<circle cx="46.2128" cy="396.903" r="4" fill="#0" id="circle10"/>
	<circle cx="52.707" cy="228.052" r="4" fill="#0" id="circle11"/>
	<circle cx="52.707" cy="244.288" r="4" fill="#0" id="circle12"/>
	<circle cx="52.707" cy="260.524" r="4" fill="#0" id="circle13"/>
	<circle cx="52.707" cy="276.759" r="4" fill="#0" id="circle14"/>
	<circle cx="52.707" cy="292.995" r="4" fill="#0" id="circle15"/>
	<circle cx="52.707" cy="309.231" r="4" fill="#0" id="circle16"/>
	<circle cx="52.707" cy="325.466" r="4" fill="#0" id="circle17"/>
	<circle cx="52.707" cy="341.702" r="4" fill="#0" id="circle18"/>
	<circle cx="52.707" cy="357.938" r="4" fill="#0" id="circle19"/>
	<circle cx="52.707" cy="374.173" r="4" fill="#0" id="circle20"/>
	<circle cx="52.707" cy="567.378" r="4" fill="#0" id="circle21"/>
	<circle cx="60.8249" cy="211.817" r="4" fill="#0" id="circle22"/>
	<circle cx="60.8249" cy="581.99" r="4" fill="#0" id="circle23"/>
	<circle cx="68.9427" cy="187.463" r="4" fill="#0" id="circle24"/>
	<circle cx="70.5663" cy="594.979" r="4" fill="#0" id="circle25"/>
	<circle cx="77.0606" cy="171.227" r="4" fill="#0" id="circle26"/>
	<circle cx="83.5548" cy="606.344" r="4" fill="#0" id="circle27"/>
	<circle cx="85.1784" cy="154.992" r="4" fill="#0" id="circle28"/>
	<circle cx="94.9198" cy="619.332" r="4" fill="#0" id="circle29"/>
	<circle cx="98.1669" cy="142.003" r="4" fill="#0" id="circle30"/>
	<circle cx="106.285" cy="125.768" r="4" fill="#0" id="circle31"/>
	<circle cx="107.908" cy="630.697" r="4" fill="#0" id="circle32"/>
	<circle cx="114.403" cy="109.532" r="4" fill="#0" id="circle33"/>
	<circle cx="117.65" cy="643.686" r="4" fill="#0" id="circle34"/>
	<circle cx="125.768" cy="658.298" r="4" fill="#0" id="circle35"/>
	<circle cx="125.768" cy="674.534" r="4" fill="#0" id="circle36"/>
	<circle cx="125.768" cy="820.655" r="4" fill="#0" id="circle37"/>
	<circle cx="130.638" cy="101.414" r="4" fill="#0" id="circle38"/>
	<circle cx="133.885" cy="689.146" r="4" fill="#0" id="circle39"/>
	<circle cx="133.885" cy="705.381" r="4" fill="#0" id="circle40"/>
	<circle cx="133.885" cy="721.617" r="4" fill="#0" id="circle41"/>
	<circle cx="133.885" cy="737.853" r="4" fill="#0" id="circle42"/>
	<circle cx="133.885" cy="754.088" r="4" fill="#0" id="circle43"/>
	<circle cx="133.885" cy="770.324" r="4" fill="#0" id="circle44"/>
	<circle cx="133.885" cy="786.56" r="4" fill="#0" id="circle45"/>
	<circle cx="133.885" cy="802.795" r="4" fill="#0" id="circle46"/>
	<circle cx="138.756" cy="832.02" r="4" fill="#0" id="circle47"/>
	<circle cx="143.627" cy="88.4255" r="4" fill="#0" id="circle48"/>
	<circle cx="145.25" cy="848.255" r="4" fill="#0" id="circle49"/>
	<circle cx="153.368" cy="862.867" r="4" fill="#0" id="circle50"/>
	<circle cx="158.239" cy="879.103" r="4" fill="#0" id="circle51"/>
	<circle cx="159.863" cy="80.3077" r="4" fill="#0" id="circle52"/>
	<circle cx="166.357" cy="893.715" r="4" fill="#0" id="circle53"/>
	<circle cx="172.851" cy="68.9427" r="4" fill="#0" id="circle54"/>
	<circle cx="174.475" cy="908.327" r="4" fill="#0" id="circle55"/>
	<circle cx="187.463" cy="60.8249" r="4" fill="#0" id="circle56"/>
	<circle cx="190.71" cy="914.822" r="4" fill="#0" id="circle57"/>
	<circle cx="200.452" cy="927.81" r="4" fill="#0" id="circle58"/>
	<circle cx="202.075" cy="52.707" r="4" fill="#0" id="circle59"/>
	<circle cx="208.57" cy="942.422" r="4" fill="#0" id="circle60"/>
	<circle cx="216.687" cy="44.5892" r="4" fill="#0" id="circle61"/>
	<circle cx="219.935" cy="955.411" r="4" fill="#0" id="circle62"/>
	<circle cx="232.923" cy="39.7185" r="4" fill="#0" id="circle63"/>
	<circle cx="232.923" cy="966.776" r="4" fill="#0" id="circle64"/>
	<circle cx="249.159" cy="31.6007" r="4" fill="#0" id="circle65"/>
	<circle cx="249.159" cy="971.646" r="4" fill="#0" id="circle66"/>
	<circle cx="263.771" cy="979.764" r="4" fill="#0" id="circle67"/>
	<circle cx="265.394" cy="28.3535" r="4" fill="#0" id="circle68"/>
	<circle cx="278.383" cy="987.882" r="4" fill="#0" id="circle69"/>
	<circle cx="280.007" cy="20.2357" r="4" fill="#0" id="circle70"/>
	<circle cx="294.619" cy="12.1178" r="4" fill="#0" id="circle71"/>
	<circle cx="294.619" cy="987.882" r="4" fill="#0" id="circle72"/>
	<circle cx="309.231" cy="4" r="4" fill="#0" id="circle73"/>
	<circle cx="309.231" cy="996" r="4" fill="#0" id="circle74"/>
	<circle cx="323.843" cy="987.882" r="4" fill="#0" id="circle75"/>
	<circle cx="325.466" cy="4" r="4" fill="#0" id="circle76"/>
	<circle cx="338.455" cy="979.764" r="4" fill="#0" id="circle77"/>
	<circle cx="341.702" cy="4" r="4" fill="#0" id="circle78"/>
	<circle cx="354.691" cy="979.764" r="4" fill="#0" id="circle79"/>
	<circle cx="357.938" cy="4" r="4" fill="#0" id="circle80"/>
	<circle cx="367.679" cy="968.399" r="4" fill="#0" id="circle81"/>
	<circle cx="372.55" cy="12.1178" r="4" fill="#0" id="circle82"/>
	<circle cx="379.044" cy="955.411" r="4" fill="#0" id="circle83"/>
	<circle cx="388.786" cy="12.1178" r="4" fill="#0" id="circle84"/>
	<circle cx="395.28" cy="947.293" r="4" fill="#0" id="circle85"/>
	<circle cx="403.398" cy="20.2357" r="4" fill="#0" id="circle86"/>
	<circle cx="408.268" cy="935.928" r="4" fill="#0" id="circle87"/>
	<circle cx="416.386" cy="29.9771" r="4" fill="#0" id="circle88"/>
	<circle cx="424.504" cy="44.5892" r="4" fill="#0" id="circle89"/>
	<circle cx="424.504" cy="927.81" r="4" fill="#0" id="circle90"/>
	<circle cx="435.869" cy="914.822" r="4" fill="#0" id="circle91"/>
	<circle cx="439.116" cy="52.707" r="4" fill="#0" id="circle92"/>
	<circle cx="452.105" cy="906.704" r="4" fill="#0" id="circle93"/>
	<circle cx="455.352" cy="52.707" r="4" fill="#0" id="circle94"/>
	<circle cx="465.093" cy="895.339" r="4" fill="#0" id="circle95"/>
	<circle cx="471.588" cy="52.707" r="4" fill="#0" id="circle96"/>
	<circle cx="476.458" cy="866.115" r="4" fill="#0" id="circle97"/>
	<circle cx="476.458" cy="882.35" r="4" fill="#0" id="circle98"/>
	<circle cx="484.576" cy="849.879" r="4" fill="#0" id="circle99"/>
	<circle cx="486.2" cy="60.8249" r="4" fill="#0" id="circle100"/>
	<circle cx="492.694" cy="809.29" r="4" fill="#0" id="circle101"/>
	<circle cx="492.694" cy="825.525" r="4" fill="#0" id="circle102"/>
	<circle cx="500.812" cy="68.9427" r="4" fill="#0" id="circle103"/>
	<circle cx="500.812" cy="744.347" r="4" fill="#0" id="circle104"/>
	<circle cx="500.812" cy="760.583" r="4" fill="#0" id="circle105"/>
	<circle cx="500.812" cy="776.818" r="4" fill="#0" id="circle106"/>
	<circle cx="500.812" cy="793.054" r="4" fill="#0" id="circle107"/>
	<circle cx="508.93" cy="728.111" r="4" fill="#0" id="circle108"/>
	<circle cx="513.8" cy="78.6841" r="4" fill="#0" id="circle109"/>
	<circle cx="521.918" cy="716.746" r="4" fill="#0" id="circle110"/>
	<circle cx="528.412" cy="86.802" r="4" fill="#0" id="circle111"/>
	<circle cx="533.283" cy="695.64" r="4" fill="#0" id="circle112"/>
	<circle cx="541.401" cy="671.286" r="4" fill="#0" id="circle113"/>
	<circle cx="544.648" cy="93.2962" r="4" fill="#0" id="circle114"/>
	<circle cx="549.519" cy="109.532" r="4" fill="#0" id="circle115"/>
	<circle cx="549.519" cy="614.462" r="4" fill="#0" id="circle116"/>
	<circle cx="549.519" cy="630.697" r="4" fill="#0" id="circle117"/>
	<circle cx="549.519" cy="646.933" r="4" fill="#0" id="circle118"/>
	<circle cx="562.507" cy="119.273" r="4" fill="#0" id="circle119"/>
	<circle cx="562.507" cy="603.097" r="4" fill="#0" id="circle120"/>
	<circle cx="569.002" cy="135.509" r="4" fill="#0" id="circle121"/>
	<circle cx="573.872" cy="151.745" r="4" fill="#0" id="circle122"/>
	<circle cx="573.872" cy="167.98" r="4" fill="#0" id="circle123"/>
	<circle cx="573.872" cy="590.108" r="4" fill="#0" id="circle124"/>
	<circle cx="581.99" cy="182.592" r="4" fill="#0" id="circle125"/>
	<circle cx="581.99" cy="198.828" r="4" fill="#0" id="circle126"/>
	<circle cx="581.99" cy="215.064" r="4" fill="#0" id="circle127"/>
	<circle cx="581.99" cy="231.3" r="4" fill="#0" id="circle128"/>
	<circle cx="581.99" cy="247.535" r="4" fill="#0" id="circle129"/>
	<circle cx="581.99" cy="263.771" r="4" fill="#0" id="circle130"/>
	<circle cx="581.99" cy="280.007" r="4" fill="#0" id="circle131"/>
	<circle cx="581.99" cy="296.242" r="4" fill="#0" id="circle132"/>
	<circle cx="581.99" cy="312.478" r="4" fill="#0" id="circle133"/>
	<circle cx="581.99" cy="328.714" r="4" fill="#0" id="circle134"/>
	<circle cx="581.99" cy="344.949" r="4" fill="#0" id="circle135"/>
	<circle cx="581.99" cy="361.185" r="4" fill="#0" id="circle136"/>
	<circle cx="581.99" cy="377.421" r="4" fill="#0" id="circle137"/>
	<circle cx="581.99" cy="393.656" r="4" fill="#0" id="circle138"/>
	<circle cx="581.99" cy="557.637" r="4" fill="#0" id="circle139"/>
	<circle cx="581.99" cy="573.872" r="4" fill="#0" id="circle140"/>
	<circle cx="590.108" cy="408.268" r="4" fill="#0" id="circle141"/>
	<circle cx="590.108" cy="492.694" r="4" fill="#0" id="circle142"/>
	<circle cx="590.108" cy="508.93" r="4" fill="#0" id="circle143"/>
	<circle cx="590.108" cy="525.165" r="4" fill="#0" id="circle144"/>
	<circle cx="590.108" cy="541.401" r="4" fill="#0" id="circle145"/>
	<circle cx="598.226" cy="422.881" r="4" fill="#0" id="circle146"/>
	<circle cx="598.226" cy="439.116" r="4" fill="#0" id="circle147"/>
	<circle cx="598.226" cy="455.352" r="4" fill="#0" id="circle148"/>
	<circle cx="598.226" cy="471.588" r="4" fill="#0" id="circle149"/>
	</g>
</svg>