<?xml version="1.0" encoding="UTF-8" standalone="no"?>
<!-- Created with CurveBenchmark -->
<svg
	xmlns:dc="http://purl.org/dc/elements/1.1/"
	xmlns:cc="http://creativecommons.org/ns#"
	xmlns:rdf="http://www.w3.org/1999/02/22-rdf-syntax-ns#"
	xmlns:svg="http://www.w3.org/2000/svg"
	xmlns="http://www.w3.org/2000/svg"
	xmlns:sodipodi="http://sodipodi.sourceforge.net/DTD/sodipodi-0.dtd"
	xmlns:inkscape="http://www.inkscape.org/namespaces/inkscape"
	width="1000"
	height="1000"
	id="svg2"
	version="1.1"
	sodipodi:docname="manifold/crust-lmfish-14.png.txt">
<defs
	id="defs4" />
<metadata
	id="metadata7">
	<rdf:RDF>
		<cc:Work
			rdf:about="">
			<dc:format>image/svg+xml</dc:format>
			<dc:type
				rdf:resource="http://purl.org/dc/dcmitype/StillImage" />
			<dc:title></dc:title>
		</cc:Work>
	</rdf:RDF>
</metadata>
<g
	inkscape:label="Layer 1"
	inkscape:groupmode="layer"
	id="layer1">
	<path style="fill:none;stroke:red;stroke-width:1px;stroke-linecap:butt;stroke-linejoin:miter;stroke-opacity:1" d="M 194.045,143.257 202.236,143.257 z" id="boundary" inkscape:connector-curvature="0" />
	<path style="fill:none;stroke:red;stroke-width:1px;stroke-linecap:butt;stroke-linejoin:miter;stroke-opacity:1" d="M 210.428,143.257 217.8,139.161 z" id="boundary" inkscape:connector-curvature="0" />
	<path style="fill:none;stroke:red;stroke-width:1px;stroke-linecap:butt;stroke-linejoin:miter;stroke-opacity:1" d="M 210.428,143.257 202.236,143.257 z" id="boundary" inkscape:connector-curvature="0" />
	<path style="fill:none;stroke:red;stroke-width:1px;stroke-linecap:butt;stroke-linejoin:miter;stroke-opacity:1" d="M 194.045,143.257 186.672,147.353 z" id="boundary" inkscape:connector-curvature="0" />
	<path style="fill:none;stroke:red;stroke-width:1px;stroke-linecap:butt;stroke-linejoin:miter;stroke-opacity:1" d="M 290.705,71.9901 297.258,65.4368 z" id="boundary" inkscape:connector-curvature="0" />
	<path style="fill:none;stroke:red;stroke-width:1px;stroke-linecap:butt;stroke-linejoin:miter;stroke-opacity:1" d="M 298.897,55.6069 297.258,65.4368 z" id="boundary" inkscape:connector-curvature="0" />
	<path style="fill:none;stroke:red;stroke-width:1px;stroke-linecap:butt;stroke-linejoin:miter;stroke-opacity:1" d="M 298.897,47.4154 298.897,55.6069 z" id="boundary" inkscape:connector-curvature="0" />
	<path style="fill:none;stroke:red;stroke-width:1px;stroke-linecap:butt;stroke-linejoin:miter;stroke-opacity:1" d="M 286.609,96.5648 286.609,88.3732 z" id="boundary" inkscape:connector-curvature="0" />
	<path style="fill:none;stroke:red;stroke-width:1px;stroke-linecap:butt;stroke-linejoin:miter;stroke-opacity:1" d="M 286.609,88.3732 290.705,80.1817 z" id="boundary" inkscape:connector-curvature="0" />
	<path style="fill:none;stroke:red;stroke-width:1px;stroke-linecap:butt;stroke-linejoin:miter;stroke-opacity:1" d="M 290.705,80.1817 290.705,71.9901 z" id="boundary" inkscape:connector-curvature="0" />
	<path style="fill:none;stroke:red;stroke-width:1px;stroke-linecap:butt;stroke-linejoin:miter;stroke-opacity:1" d="M 286.609,104.756 286.609,96.5648 z" id="boundary" inkscape:connector-curvature="0" />
	<path style="fill:none;stroke:red;stroke-width:1px;stroke-linecap:butt;stroke-linejoin:miter;stroke-opacity:1" d="M 305.45,40.8621 298.897,47.4154 z" id="boundary" inkscape:connector-curvature="0" />
	<path style="fill:none;stroke:red;stroke-width:1px;stroke-linecap:butt;stroke-linejoin:miter;stroke-opacity:1" d="M 242.375,135.065 234.183,136.704 z" id="boundary" inkscape:connector-curvature="0" />
	<path style="fill:none;stroke:red;stroke-width:1px;stroke-linecap:butt;stroke-linejoin:miter;stroke-opacity:1" d="M 250.566,135.065 242.375,135.065 z" id="boundary" inkscape:connector-curvature="0" />
	<path style="fill:none;stroke:red;stroke-width:1px;stroke-linecap:butt;stroke-linejoin:miter;stroke-opacity:1" d="M 225.992,139.161 234.183,136.704 z" id="boundary" inkscape:connector-curvature="0" />
	<path style="fill:none;stroke:red;stroke-width:1px;stroke-linecap:butt;stroke-linejoin:miter;stroke-opacity:1" d="M 258.758,135.065 250.566,135.065 z" id="boundary" inkscape:connector-curvature="0" />
	<path style="fill:none;stroke:red;stroke-width:1px;stroke-linecap:butt;stroke-linejoin:miter;stroke-opacity:1" d="M 225.992,139.161 217.8,139.161 z" id="boundary" inkscape:connector-curvature="0" />
	<path style="fill:none;stroke:red;stroke-width:1px;stroke-linecap:butt;stroke-linejoin:miter;stroke-opacity:1" d="M 281.694,126.874 282.514,112.948 z" id="boundary" inkscape:connector-curvature="0" />
	<path style="fill:none;stroke:red;stroke-width:1px;stroke-linecap:butt;stroke-linejoin:miter;stroke-opacity:1" d="M 286.609,104.756 282.514,112.948 z" id="boundary" inkscape:connector-curvature="0" />
	<path style="fill:none;stroke:red;stroke-width:1px;stroke-linecap:butt;stroke-linejoin:miter;stroke-opacity:1" d="M 275.141,132.608 266.95,135.065 z" id="boundary" inkscape:connector-curvature="0" />
	<path style="fill:none;stroke:red;stroke-width:1px;stroke-linecap:butt;stroke-linejoin:miter;stroke-opacity:1" d="M 281.694,126.874 275.141,132.608 z" id="boundary" inkscape:connector-curvature="0" />
	<path style="fill:none;stroke:red;stroke-width:1px;stroke-linecap:butt;stroke-linejoin:miter;stroke-opacity:1" d="M 266.95,135.065 258.758,135.065 z" id="boundary" inkscape:connector-curvature="0" />
	<path style="fill:none;stroke:red;stroke-width:1px;stroke-linecap:butt;stroke-linejoin:miter;stroke-opacity:1" d="M 74.4476,180.119 81.82,176.023 z" id="boundary" inkscape:connector-curvature="0" />
	<path style="fill:none;stroke:red;stroke-width:1px;stroke-linecap:butt;stroke-linejoin:miter;stroke-opacity:1" d="M 81.82,176.023 90.0116,177.661 z" id="boundary" inkscape:connector-curvature="0" />
	<path style="fill:none;stroke:red;stroke-width:1px;stroke-linecap:butt;stroke-linejoin:miter;stroke-opacity:1" d="M 98.2031,178.481 90.0116,177.661 z" id="boundary" inkscape:connector-curvature="0" />
	<path style="fill:none;stroke:red;stroke-width:1px;stroke-linecap:butt;stroke-linejoin:miter;stroke-opacity:1" d="M 106.395,176.023 98.2031,178.481 z" id="boundary" inkscape:connector-curvature="0" />
	<path style="fill:none;stroke:red;stroke-width:1px;stroke-linecap:butt;stroke-linejoin:miter;stroke-opacity:1" d="M 74.4476,180.119 67.0751,184.215 z" id="boundary" inkscape:connector-curvature="0" />
	<path style="fill:none;stroke:red;stroke-width:1px;stroke-linecap:butt;stroke-linejoin:miter;stroke-opacity:1" d="M 137.523,163.736 129.331,167.832 z" id="boundary" inkscape:connector-curvature="0" />
	<path style="fill:none;stroke:red;stroke-width:1px;stroke-linecap:butt;stroke-linejoin:miter;stroke-opacity:1" d="M 145.714,159.64 137.523,163.736 z" id="boundary" inkscape:connector-curvature="0" />
	<path style="fill:none;stroke:red;stroke-width:1px;stroke-linecap:butt;stroke-linejoin:miter;stroke-opacity:1" d="M 106.395,176.023 113.767,171.927 z" id="boundary" inkscape:connector-curvature="0" />
	<path style="fill:none;stroke:red;stroke-width:1px;stroke-linecap:butt;stroke-linejoin:miter;stroke-opacity:1" d="M 121.959,171.927 129.331,167.832 z" id="boundary" inkscape:connector-curvature="0" />
	<path style="fill:none;stroke:red;stroke-width:1px;stroke-linecap:butt;stroke-linejoin:miter;stroke-opacity:1" d="M 121.959,171.927 113.767,171.927 z" id="boundary" inkscape:connector-curvature="0" />
	<path style="fill:none;stroke:red;stroke-width:1px;stroke-linecap:butt;stroke-linejoin:miter;stroke-opacity:1" d="M 153.906,155.544 145.714,159.64 z" id="boundary" inkscape:connector-curvature="0" />
	<path style="fill:none;stroke:red;stroke-width:1px;stroke-linecap:butt;stroke-linejoin:miter;stroke-opacity:1" d="M 37.5855,202.236 29.3939,206.332 z" id="boundary" inkscape:connector-curvature="0" />
	<path style="fill:none;stroke:red;stroke-width:1px;stroke-linecap:butt;stroke-linejoin:miter;stroke-opacity:1" d="M 45.777,198.14 52.3303,192.406 z" id="boundary" inkscape:connector-curvature="0" />
	<path style="fill:none;stroke:red;stroke-width:1px;stroke-linecap:butt;stroke-linejoin:miter;stroke-opacity:1" d="M 45.777,198.14 37.5855,202.236 z" id="boundary" inkscape:connector-curvature="0" />
	<path style="fill:none;stroke:red;stroke-width:1px;stroke-linecap:butt;stroke-linejoin:miter;stroke-opacity:1" d="M 8.09579,223.534 14.6491,216.981 z" id="boundary" inkscape:connector-curvature="0" />
	<path style="fill:none;stroke:red;stroke-width:1px;stroke-linecap:butt;stroke-linejoin:miter;stroke-opacity:1" d="M 22.8406,212.885 29.3939,206.332 z" id="boundary" inkscape:connector-curvature="0" />
	<path style="fill:none;stroke:red;stroke-width:1px;stroke-linecap:butt;stroke-linejoin:miter;stroke-opacity:1" d="M 22.8406,212.885 14.6491,216.981 z" id="boundary" inkscape:connector-curvature="0" />
	<path style="fill:none;stroke:red;stroke-width:1px;stroke-linecap:butt;stroke-linejoin:miter;stroke-opacity:1" d="M 59.7027,188.31 67.0751,184.215 z" id="boundary" inkscape:connector-curvature="0" />
	<path style="fill:none;stroke:red;stroke-width:1px;stroke-linecap:butt;stroke-linejoin:miter;stroke-opacity:1" d="M 59.7027,188.31 52.3303,192.406 z" id="boundary" inkscape:connector-curvature="0" />
	<path style="fill:none;stroke:red;stroke-width:1px;stroke-linecap:butt;stroke-linejoin:miter;stroke-opacity:1" d="M 162.097,155.544 170.289,151.448 z" id="boundary" inkscape:connector-curvature="0" />
	<path style="fill:none;stroke:red;stroke-width:1px;stroke-linecap:butt;stroke-linejoin:miter;stroke-opacity:1" d="M 162.097,155.544 153.906,155.544 z" id="boundary" inkscape:connector-curvature="0" />
	<path style="fill:none;stroke:red;stroke-width:1px;stroke-linecap:butt;stroke-linejoin:miter;stroke-opacity:1" d="M 170.289,151.448 178.481,147.353 z" id="boundary" inkscape:connector-curvature="0" />
	<path style="fill:none;stroke:red;stroke-width:1px;stroke-linecap:butt;stroke-linejoin:miter;stroke-opacity:1" d="M 178.481,147.353 186.672,147.353 z" id="boundary" inkscape:connector-curvature="0" />
	<path style="fill:none;stroke:red;stroke-width:1px;stroke-linecap:butt;stroke-linejoin:miter;stroke-opacity:1" d="M 8.09579,223.534 4,235.822 z" id="boundary" inkscape:connector-curvature="0" />
	<path style="fill:none;stroke:red;stroke-width:1px;stroke-linecap:butt;stroke-linejoin:miter;stroke-opacity:1" d="M 357.876,20.3832 349.685,20.3832 z" id="boundary" inkscape:connector-curvature="0" />
	<path style="fill:none;stroke:red;stroke-width:1px;stroke-linecap:butt;stroke-linejoin:miter;stroke-opacity:1" d="M 349.685,20.3832 342.312,24.4789 z" id="boundary" inkscape:connector-curvature="0" />
	<path style="fill:none;stroke:red;stroke-width:1px;stroke-linecap:butt;stroke-linejoin:miter;stroke-opacity:1" d="M 318.557,28.5747 325.929,24.4789 z" id="boundary" inkscape:connector-curvature="0" />
	<path style="fill:none;stroke:red;stroke-width:1px;stroke-linecap:butt;stroke-linejoin:miter;stroke-opacity:1" d="M 325.929,24.4789 334.121,24.4789 z" id="boundary" inkscape:connector-curvature="0" />
	<path style="fill:none;stroke:red;stroke-width:1px;stroke-linecap:butt;stroke-linejoin:miter;stroke-opacity:1" d="M 342.312,24.4789 334.121,24.4789 z" id="boundary" inkscape:connector-curvature="0" />
	<path style="fill:none;stroke:red;stroke-width:1px;stroke-linecap:butt;stroke-linejoin:miter;stroke-opacity:1" d="M 389.004,28.5747 381.632,24.4789 z" id="boundary" inkscape:connector-curvature="0" />
	<path style="fill:none;stroke:red;stroke-width:1px;stroke-linecap:butt;stroke-linejoin:miter;stroke-opacity:1" d="M 357.876,20.3832 366.068,20.3832 z" id="boundary" inkscape:connector-curvature="0" />
	<path style="fill:none;stroke:red;stroke-width:1px;stroke-linecap:butt;stroke-linejoin:miter;stroke-opacity:1" d="M 366.068,20.3832 374.259,20.3832 z" id="boundary" inkscape:connector-curvature="0" />
	<path style="fill:none;stroke:red;stroke-width:1px;stroke-linecap:butt;stroke-linejoin:miter;stroke-opacity:1" d="M 381.632,24.4789 374.259,20.3832 z" id="boundary" inkscape:connector-curvature="0" />
	<path style="fill:none;stroke:red;stroke-width:1px;stroke-linecap:butt;stroke-linejoin:miter;stroke-opacity:1" d="M 318.557,28.5747 312.003,34.3088 z" id="boundary" inkscape:connector-curvature="0" />
	<path style="fill:none;stroke:red;stroke-width:1px;stroke-linecap:butt;stroke-linejoin:miter;stroke-opacity:1" d="M 305.45,40.8621 312.003,34.3088 z" id="boundary" inkscape:connector-curvature="0" />
	<path style="fill:none;stroke:red;stroke-width:1px;stroke-linecap:butt;stroke-linejoin:miter;stroke-opacity:1" d="M 396.377,32.6705 389.004,28.5747 z" id="boundary" inkscape:connector-curvature="0" />
	<path style="fill:none;stroke:red;stroke-width:1px;stroke-linecap:butt;stroke-linejoin:miter;stroke-opacity:1" d="M 396.377,32.6705 402.111,39.2238 z" id="boundary" inkscape:connector-curvature="0" />
	<path style="fill:none;stroke:red;stroke-width:1px;stroke-linecap:butt;stroke-linejoin:miter;stroke-opacity:1" d="M 402.111,39.2238 407.845,45.777 z" id="boundary" inkscape:connector-curvature="0" />
	<path style="fill:none;stroke:red;stroke-width:1px;stroke-linecap:butt;stroke-linejoin:miter;stroke-opacity:1" d="M 493.856,16.2874 487.303,22.8406 z" id="boundary" inkscape:connector-curvature="0" />
	<path style="fill:none;stroke:red;stroke-width:1px;stroke-linecap:butt;stroke-linejoin:miter;stroke-opacity:1" d="M 475.016,35.128 466.824,39.2238 z" id="boundary" inkscape:connector-curvature="0" />
	<path style="fill:none;stroke:red;stroke-width:1px;stroke-linecap:butt;stroke-linejoin:miter;stroke-opacity:1" d="M 483.207,31.0322 475.016,35.128 z" id="boundary" inkscape:connector-curvature="0" />
	<path style="fill:none;stroke:red;stroke-width:1px;stroke-linecap:butt;stroke-linejoin:miter;stroke-opacity:1" d="M 487.303,22.8406 483.207,31.0322 z" id="boundary" inkscape:connector-curvature="0" />
	<path style="fill:none;stroke:red;stroke-width:1px;stroke-linecap:butt;stroke-linejoin:miter;stroke-opacity:1" d="M 407.845,45.777 414.398,51.5111 z" id="boundary" inkscape:connector-curvature="0" />
	<path style="fill:none;stroke:red;stroke-width:1px;stroke-linecap:butt;stroke-linejoin:miter;stroke-opacity:1" d="M 420.132,58.0644 414.398,51.5111 z" id="boundary" inkscape:connector-curvature="0" />
	<path style="fill:none;stroke:red;stroke-width:1px;stroke-linecap:butt;stroke-linejoin:miter;stroke-opacity:1" d="M 420.132,58.0644 422.59,66.256 z" id="boundary" inkscape:connector-curvature="0" />
	<path style="fill:none;stroke:red;stroke-width:1px;stroke-linecap:butt;stroke-linejoin:miter;stroke-opacity:1" d="M 422.59,66.256 422.59,74.4476 z" id="boundary" inkscape:connector-curvature="0" />
	<path style="fill:none;stroke:red;stroke-width:1px;stroke-linecap:butt;stroke-linejoin:miter;stroke-opacity:1" d="M 462.728,47.4154 462.728,55.6069 z" id="boundary" inkscape:connector-curvature="0" />
	<path style="fill:none;stroke:red;stroke-width:1px;stroke-linecap:butt;stroke-linejoin:miter;stroke-opacity:1" d="M 462.728,47.4154 466.824,39.2238 z" id="boundary" inkscape:connector-curvature="0" />
	<path style="fill:none;stroke:red;stroke-width:1px;stroke-linecap:butt;stroke-linejoin:miter;stroke-opacity:1" d="M 462.728,55.6069 458.633,67.8943 z" id="boundary" inkscape:connector-curvature="0" />
	<path style="fill:none;stroke:red;stroke-width:1px;stroke-linecap:butt;stroke-linejoin:miter;stroke-opacity:1" d="M 458.633,67.8943 454.537,76.0859 z" id="boundary" inkscape:connector-curvature="0" />
	<path style="fill:none;stroke:red;stroke-width:1px;stroke-linecap:butt;stroke-linejoin:miter;stroke-opacity:1" d="M 422.59,74.4476 422.59,82.6391 z" id="boundary" inkscape:connector-curvature="0" />
	<path style="fill:none;stroke:red;stroke-width:1px;stroke-linecap:butt;stroke-linejoin:miter;stroke-opacity:1" d="M 422.59,90.8307 422.59,82.6391 z" id="boundary" inkscape:connector-curvature="0" />
	<path style="fill:none;stroke:red;stroke-width:1px;stroke-linecap:butt;stroke-linejoin:miter;stroke-opacity:1" d="M 426.685,98.2031 430.781,105.576 z" id="boundary" inkscape:connector-curvature="0" />
	<path style="fill:none;stroke:red;stroke-width:1px;stroke-linecap:butt;stroke-linejoin:miter;stroke-opacity:1" d="M 426.685,98.2031 422.59,90.8307 z" id="boundary" inkscape:connector-curvature="0" />
	<path style="fill:none;stroke:red;stroke-width:1px;stroke-linecap:butt;stroke-linejoin:miter;stroke-opacity:1" d="M 450.441,84.2775 450.441,92.469 z" id="boundary" inkscape:connector-curvature="0" />
	<path style="fill:none;stroke:red;stroke-width:1px;stroke-linecap:butt;stroke-linejoin:miter;stroke-opacity:1" d="M 454.537,76.0859 450.441,84.2775 z" id="boundary" inkscape:connector-curvature="0" />
	<path style="fill:none;stroke:red;stroke-width:1px;stroke-linecap:butt;stroke-linejoin:miter;stroke-opacity:1" d="M 454.537,99.8415 450.441,92.469 z" id="boundary" inkscape:connector-curvature="0" />
	<path style="fill:none;stroke:red;stroke-width:1px;stroke-linecap:butt;stroke-linejoin:miter;stroke-opacity:1" d="M 434.877,112.948 430.781,105.576 z" id="boundary" inkscape:connector-curvature="0" />
	<path style="fill:none;stroke:red;stroke-width:1px;stroke-linecap:butt;stroke-linejoin:miter;stroke-opacity:1" d="M 450.441,108.852 443.069,114.586 z" id="boundary" inkscape:connector-curvature="0" />
	<path style="fill:none;stroke:red;stroke-width:1px;stroke-linecap:butt;stroke-linejoin:miter;stroke-opacity:1" d="M 434.877,112.948 443.069,114.586 z" id="boundary" inkscape:connector-curvature="0" />
	<path style="fill:none;stroke:red;stroke-width:1px;stroke-linecap:butt;stroke-linejoin:miter;stroke-opacity:1" d="M 454.537,99.8415 450.441,108.852 z" id="boundary" inkscape:connector-curvature="0" />
	<path style="fill:none;stroke:red;stroke-width:1px;stroke-linecap:butt;stroke-linejoin:miter;stroke-opacity:1" d="M 494.675,234.183 487.303,238.279 z" id="boundary" inkscape:connector-curvature="0" />
	<path style="fill:none;stroke:red;stroke-width:1px;stroke-linecap:butt;stroke-linejoin:miter;stroke-opacity:1" d="M 13.8299,249.747 8.09579,243.194 z" id="boundary" inkscape:connector-curvature="0" />
	<path style="fill:none;stroke:red;stroke-width:1px;stroke-linecap:butt;stroke-linejoin:miter;stroke-opacity:1" d="M 4,235.822 8.09579,243.194 z" id="boundary" inkscape:connector-curvature="0" />
	<path style="fill:none;stroke:red;stroke-width:1px;stroke-linecap:butt;stroke-linejoin:miter;stroke-opacity:1" d="M 13.8299,249.747 20.3832,254.662 z" id="boundary" inkscape:connector-curvature="0" />
	<path style="fill:none;stroke:red;stroke-width:1px;stroke-linecap:butt;stroke-linejoin:miter;stroke-opacity:1" d="M 20.3832,254.662 22.8406,262.854 z" id="boundary" inkscape:connector-curvature="0" />
	<path style="fill:none;stroke:red;stroke-width:1px;stroke-linecap:butt;stroke-linejoin:miter;stroke-opacity:1" d="M 30.213,266.95 22.8406,262.854 z" id="boundary" inkscape:connector-curvature="0" />
	<path style="fill:none;stroke:red;stroke-width:1px;stroke-linecap:butt;stroke-linejoin:miter;stroke-opacity:1" d="M 30.213,266.95 36.7663,271.865 z" id="boundary" inkscape:connector-curvature="0" />
	<path style="fill:none;stroke:red;stroke-width:1px;stroke-linecap:butt;stroke-linejoin:miter;stroke-opacity:1" d="M 44.9579,275.141 36.7663,271.865 z" id="boundary" inkscape:connector-curvature="0" />
	<path style="fill:none;stroke:red;stroke-width:1px;stroke-linecap:butt;stroke-linejoin:miter;stroke-opacity:1" d="M 52.3303,279.237 44.9579,275.141 z" id="boundary" inkscape:connector-curvature="0" />
	<path style="fill:none;stroke:red;stroke-width:1px;stroke-linecap:butt;stroke-linejoin:miter;stroke-opacity:1" d="M 59.7027,283.333 52.3303,279.237 z" id="boundary" inkscape:connector-curvature="0" />
	<path style="fill:none;stroke:red;stroke-width:1px;stroke-linecap:butt;stroke-linejoin:miter;stroke-opacity:1" d="M 91.6499,291.524 83.4583,291.524 z" id="boundary" inkscape:connector-curvature="0" />
	<path style="fill:none;stroke:red;stroke-width:1px;stroke-linecap:butt;stroke-linejoin:miter;stroke-opacity:1" d="M 67.0751,287.429 59.7027,283.333 z" id="boundary" inkscape:connector-curvature="0" />
	<path style="fill:none;stroke:red;stroke-width:1px;stroke-linecap:butt;stroke-linejoin:miter;stroke-opacity:1" d="M 75.2667,289.886 83.4583,291.524 z" id="boundary" inkscape:connector-curvature="0" />
	<path style="fill:none;stroke:red;stroke-width:1px;stroke-linecap:butt;stroke-linejoin:miter;stroke-opacity:1" d="M 75.2667,289.886 67.0751,287.429 z" id="boundary" inkscape:connector-curvature="0" />
	<path style="fill:none;stroke:red;stroke-width:1px;stroke-linecap:butt;stroke-linejoin:miter;stroke-opacity:1" d="M 171.108,291.524 162.917,291.524 z" id="boundary" inkscape:connector-curvature="0" />
	<path style="fill:none;stroke:red;stroke-width:1px;stroke-linecap:butt;stroke-linejoin:miter;stroke-opacity:1" d="M 203.874,289.886 212.066,287.429 z" id="boundary" inkscape:connector-curvature="0" />
	<path style="fill:none;stroke:red;stroke-width:1px;stroke-linecap:butt;stroke-linejoin:miter;stroke-opacity:1" d="M 91.6499,291.524 99.8415,291.524 z" id="boundary" inkscape:connector-curvature="0" />
	<path style="fill:none;stroke:red;stroke-width:1px;stroke-linecap:butt;stroke-linejoin:miter;stroke-opacity:1" d="M 162.917,291.524 154.725,293.982 z" id="boundary" inkscape:connector-curvature="0" />
	<path style="fill:none;stroke:red;stroke-width:1px;stroke-linecap:butt;stroke-linejoin:miter;stroke-opacity:1" d="M 121.959,295.62 114.586,291.524 z" id="boundary" inkscape:connector-curvature="0" />
	<path style="fill:none;stroke:red;stroke-width:1px;stroke-linecap:butt;stroke-linejoin:miter;stroke-opacity:1" d="M 107.214,295.62 99.8415,291.524 z" id="boundary" inkscape:connector-curvature="0" />
	<path style="fill:none;stroke:red;stroke-width:1px;stroke-linecap:butt;stroke-linejoin:miter;stroke-opacity:1" d="M 114.586,291.524 107.214,295.62 z" id="boundary" inkscape:connector-curvature="0" />
	<path style="fill:none;stroke:red;stroke-width:1px;stroke-linecap:butt;stroke-linejoin:miter;stroke-opacity:1" d="M 203.874,289.886 195.683,291.524 z" id="boundary" inkscape:connector-curvature="0" />
	<path style="fill:none;stroke:red;stroke-width:1px;stroke-linecap:butt;stroke-linejoin:miter;stroke-opacity:1" d="M 312.003,279.237 303.812,279.237 z" id="boundary" inkscape:connector-curvature="0" />
	<path style="fill:none;stroke:red;stroke-width:1px;stroke-linecap:butt;stroke-linejoin:miter;stroke-opacity:1" d="M 307.908,286.609 303.812,279.237 z" id="boundary" inkscape:connector-curvature="0" />
	<path style="fill:none;stroke:red;stroke-width:1px;stroke-linecap:butt;stroke-linejoin:miter;stroke-opacity:1" d="M 307.908,286.609 316.099,286.609 z" id="boundary" inkscape:connector-curvature="0" />
	<path style="fill:none;stroke:red;stroke-width:1px;stroke-linecap:butt;stroke-linejoin:miter;stroke-opacity:1" d="M 320.195,275.141 312.003,279.237 z" id="boundary" inkscape:connector-curvature="0" />
	<path style="fill:none;stroke:red;stroke-width:1px;stroke-linecap:butt;stroke-linejoin:miter;stroke-opacity:1" d="M 219.438,291.524 212.066,287.429 z" id="boundary" inkscape:connector-curvature="0" />
	<path style="fill:none;stroke:red;stroke-width:1px;stroke-linecap:butt;stroke-linejoin:miter;stroke-opacity:1" d="M 130.15,295.62 121.959,295.62 z" id="boundary" inkscape:connector-curvature="0" />
	<path style="fill:none;stroke:red;stroke-width:1px;stroke-linecap:butt;stroke-linejoin:miter;stroke-opacity:1" d="M 171.108,291.524 179.3,291.524 z" id="boundary" inkscape:connector-curvature="0" />
	<path style="fill:none;stroke:red;stroke-width:1px;stroke-linecap:butt;stroke-linejoin:miter;stroke-opacity:1" d="M 195.683,291.524 187.491,291.524 z" id="boundary" inkscape:connector-curvature="0" />
	<path style="fill:none;stroke:red;stroke-width:1px;stroke-linecap:butt;stroke-linejoin:miter;stroke-opacity:1" d="M 187.491,291.524 179.3,291.524 z" id="boundary" inkscape:connector-curvature="0" />
	<path style="fill:none;stroke:red;stroke-width:1px;stroke-linecap:butt;stroke-linejoin:miter;stroke-opacity:1" d="M 138.342,295.62 146.533,295.62 z" id="boundary" inkscape:connector-curvature="0" />
	<path style="fill:none;stroke:red;stroke-width:1px;stroke-linecap:butt;stroke-linejoin:miter;stroke-opacity:1" d="M 146.533,295.62 154.725,293.982 z" id="boundary" inkscape:connector-curvature="0" />
	<path style="fill:none;stroke:red;stroke-width:1px;stroke-linecap:butt;stroke-linejoin:miter;stroke-opacity:1" d="M 138.342,295.62 130.15,295.62 z" id="boundary" inkscape:connector-curvature="0" />
	<path style="fill:none;stroke:red;stroke-width:1px;stroke-linecap:butt;stroke-linejoin:miter;stroke-opacity:1" d="M 219.438,291.524 227.63,291.524 z" id="boundary" inkscape:connector-curvature="0" />
	<path style="fill:none;stroke:red;stroke-width:1px;stroke-linecap:butt;stroke-linejoin:miter;stroke-opacity:1" d="M 235.822,291.524 244.013,291.524 z" id="boundary" inkscape:connector-curvature="0" />
	<path style="fill:none;stroke:red;stroke-width:1px;stroke-linecap:butt;stroke-linejoin:miter;stroke-opacity:1" d="M 235.822,291.524 227.63,291.524 z" id="boundary" inkscape:connector-curvature="0" />
	<path style="fill:none;stroke:red;stroke-width:1px;stroke-linecap:butt;stroke-linejoin:miter;stroke-opacity:1" d="M 252.205,291.524 257.939,298.078 z" id="boundary" inkscape:connector-curvature="0" />
	<path style="fill:none;stroke:red;stroke-width:1px;stroke-linecap:butt;stroke-linejoin:miter;stroke-opacity:1" d="M 244.013,291.524 252.205,291.524 z" id="boundary" inkscape:connector-curvature="0" />
	<path style="fill:none;stroke:red;stroke-width:1px;stroke-linecap:butt;stroke-linejoin:miter;stroke-opacity:1" d="M 257.939,298.078 258.758,306.269 z" id="boundary" inkscape:connector-curvature="0" />
	<path style="fill:none;stroke:red;stroke-width:1px;stroke-linecap:butt;stroke-linejoin:miter;stroke-opacity:1" d="M 258.758,306.269 262.854,313.642 z" id="boundary" inkscape:connector-curvature="0" />
	<path style="fill:none;stroke:red;stroke-width:1px;stroke-linecap:butt;stroke-linejoin:miter;stroke-opacity:1" d="M 268.588,320.195 262.854,313.642 z" id="boundary" inkscape:connector-curvature="0" />
	<path style="fill:none;stroke:red;stroke-width:1px;stroke-linecap:butt;stroke-linejoin:miter;stroke-opacity:1" d="M 300.535,316.099 308.727,316.099 z" id="boundary" inkscape:connector-curvature="0" />
	<path style="fill:none;stroke:red;stroke-width:1px;stroke-linecap:butt;stroke-linejoin:miter;stroke-opacity:1" d="M 300.535,316.099 293.163,320.195 z" id="boundary" inkscape:connector-curvature="0" />
	<path style="fill:none;stroke:red;stroke-width:1px;stroke-linecap:butt;stroke-linejoin:miter;stroke-opacity:1" d="M 276.78,320.195 284.971,320.195 z" id="boundary" inkscape:connector-curvature="0" />
	<path style="fill:none;stroke:red;stroke-width:1px;stroke-linecap:butt;stroke-linejoin:miter;stroke-opacity:1" d="M 284.971,320.195 293.163,320.195 z" id="boundary" inkscape:connector-curvature="0" />
	<path style="fill:none;stroke:red;stroke-width:1px;stroke-linecap:butt;stroke-linejoin:miter;stroke-opacity:1" d="M 268.588,320.195 276.78,320.195 z" id="boundary" inkscape:connector-curvature="0" />
	<path style="fill:none;stroke:red;stroke-width:1px;stroke-linecap:butt;stroke-linejoin:miter;stroke-opacity:1" d="M 308.727,316.099 316.918,316.099 z" id="boundary" inkscape:connector-curvature="0" />
	<path style="fill:none;stroke:red;stroke-width:1px;stroke-linecap:butt;stroke-linejoin:miter;stroke-opacity:1" d="M 343.95,271.045 352.142,271.045 z" id="boundary" inkscape:connector-curvature="0" />
	<path style="fill:none;stroke:red;stroke-width:1px;stroke-linecap:butt;stroke-linejoin:miter;stroke-opacity:1" d="M 360.334,268.588 366.887,262.854 z" id="boundary" inkscape:connector-curvature="0" />
	<path style="fill:none;stroke:red;stroke-width:1px;stroke-linecap:butt;stroke-linejoin:miter;stroke-opacity:1" d="M 360.334,268.588 352.142,271.045 z" id="boundary" inkscape:connector-curvature="0" />
	<path style="fill:none;stroke:red;stroke-width:1px;stroke-linecap:butt;stroke-linejoin:miter;stroke-opacity:1" d="M 343.95,271.045 336.578,275.141 z" id="boundary" inkscape:connector-curvature="0" />
	<path style="fill:none;stroke:red;stroke-width:1px;stroke-linecap:butt;stroke-linejoin:miter;stroke-opacity:1" d="M 383.27,262.854 375.078,262.854 z" id="boundary" inkscape:connector-curvature="0" />
	<path style="fill:none;stroke:red;stroke-width:1px;stroke-linecap:butt;stroke-linejoin:miter;stroke-opacity:1" d="M 366.887,262.854 375.078,262.854 z" id="boundary" inkscape:connector-curvature="0" />
	<path style="fill:none;stroke:red;stroke-width:1px;stroke-linecap:butt;stroke-linejoin:miter;stroke-opacity:1" d="M 390.642,258.758 383.27,262.854 z" id="boundary" inkscape:connector-curvature="0" />
	<path style="fill:none;stroke:red;stroke-width:1px;stroke-linecap:butt;stroke-linejoin:miter;stroke-opacity:1" d="M 320.195,275.141 328.386,275.141 z" id="boundary" inkscape:connector-curvature="0" />
	<path style="fill:none;stroke:red;stroke-width:1px;stroke-linecap:butt;stroke-linejoin:miter;stroke-opacity:1" d="M 336.578,275.141 328.386,275.141 z" id="boundary" inkscape:connector-curvature="0" />
	<path style="fill:none;stroke:red;stroke-width:1px;stroke-linecap:butt;stroke-linejoin:miter;stroke-opacity:1" d="M 372.621,278.418 364.429,278.418 z" id="boundary" inkscape:connector-curvature="0" />
	<path style="fill:none;stroke:red;stroke-width:1px;stroke-linecap:butt;stroke-linejoin:miter;stroke-opacity:1" d="M 356.238,278.418 348.046,278.418 z" id="boundary" inkscape:connector-curvature="0" />
	<path style="fill:none;stroke:red;stroke-width:1px;stroke-linecap:butt;stroke-linejoin:miter;stroke-opacity:1" d="M 389.004,276.78 380.813,278.418 z" id="boundary" inkscape:connector-curvature="0" />
	<path style="fill:none;stroke:red;stroke-width:1px;stroke-linecap:butt;stroke-linejoin:miter;stroke-opacity:1" d="M 364.429,278.418 356.238,278.418 z" id="boundary" inkscape:connector-curvature="0" />
	<path style="fill:none;stroke:red;stroke-width:1px;stroke-linecap:butt;stroke-linejoin:miter;stroke-opacity:1" d="M 414.398,254.662 407.026,258.758 z" id="boundary" inkscape:connector-curvature="0" />
	<path style="fill:none;stroke:red;stroke-width:1px;stroke-linecap:butt;stroke-linejoin:miter;stroke-opacity:1" d="M 422.59,254.662 414.398,254.662 z" id="boundary" inkscape:connector-curvature="0" />
	<path style="fill:none;stroke:red;stroke-width:1px;stroke-linecap:butt;stroke-linejoin:miter;stroke-opacity:1" d="M 447.164,246.471 438.973,250.566 z" id="boundary" inkscape:connector-curvature="0" />
	<path style="fill:none;stroke:red;stroke-width:1px;stroke-linecap:butt;stroke-linejoin:miter;stroke-opacity:1" d="M 438.973,250.566 430.781,254.662 z" id="boundary" inkscape:connector-curvature="0" />
	<path style="fill:none;stroke:red;stroke-width:1px;stroke-linecap:butt;stroke-linejoin:miter;stroke-opacity:1" d="M 398.834,258.758 407.026,258.758 z" id="boundary" inkscape:connector-curvature="0" />
	<path style="fill:none;stroke:red;stroke-width:1px;stroke-linecap:butt;stroke-linejoin:miter;stroke-opacity:1" d="M 430.781,254.662 422.59,254.662 z" id="boundary" inkscape:connector-curvature="0" />
	<path style="fill:none;stroke:red;stroke-width:1px;stroke-linecap:butt;stroke-linejoin:miter;stroke-opacity:1" d="M 390.642,258.758 398.834,258.758 z" id="boundary" inkscape:connector-curvature="0" />
	<path style="fill:none;stroke:red;stroke-width:1px;stroke-linecap:butt;stroke-linejoin:miter;stroke-opacity:1" d="M 462.728,242.375 455.356,246.471 z" id="boundary" inkscape:connector-curvature="0" />
	<path style="fill:none;stroke:red;stroke-width:1px;stroke-linecap:butt;stroke-linejoin:miter;stroke-opacity:1" d="M 479.111,239.917 470.92,242.375 z" id="boundary" inkscape:connector-curvature="0" />
	<path style="fill:none;stroke:red;stroke-width:1px;stroke-linecap:butt;stroke-linejoin:miter;stroke-opacity:1" d="M 487.303,238.279 479.111,239.917 z" id="boundary" inkscape:connector-curvature="0" />
	<path style="fill:none;stroke:red;stroke-width:1px;stroke-linecap:butt;stroke-linejoin:miter;stroke-opacity:1" d="M 470.92,242.375 462.728,242.375 z" id="boundary" inkscape:connector-curvature="0" />
	<path style="fill:none;stroke:red;stroke-width:1px;stroke-linecap:butt;stroke-linejoin:miter;stroke-opacity:1" d="M 447.164,246.471 455.356,246.471 z" id="boundary" inkscape:connector-curvature="0" />
	<path style="fill:none;stroke:red;stroke-width:1px;stroke-linecap:butt;stroke-linejoin:miter;stroke-opacity:1" d="M 397.196,274.322 405.387,274.322 z" id="boundary" inkscape:connector-curvature="0" />
	<path style="fill:none;stroke:red;stroke-width:1px;stroke-linecap:butt;stroke-linejoin:miter;stroke-opacity:1" d="M 397.196,274.322 389.004,276.78 z" id="boundary" inkscape:connector-curvature="0" />
	<path style="fill:none;stroke:red;stroke-width:1px;stroke-linecap:butt;stroke-linejoin:miter;stroke-opacity:1" d="M 413.579,274.322 405.387,274.322 z" id="boundary" inkscape:connector-curvature="0" />
	<path style="fill:none;stroke:red;stroke-width:1px;stroke-linecap:butt;stroke-linejoin:miter;stroke-opacity:1" d="M 421.77,275.96 413.579,274.322 z" id="boundary" inkscape:connector-curvature="0" />
	<path style="fill:none;stroke:red;stroke-width:1px;stroke-linecap:butt;stroke-linejoin:miter;stroke-opacity:1" d="M 418.494,287.429 421.77,275.96 z" id="boundary" inkscape:connector-curvature="0" />
	<path style="fill:none;stroke:red;stroke-width:1px;stroke-linecap:butt;stroke-linejoin:miter;stroke-opacity:1" d="M 316.099,286.609 324.291,282.514 z" id="boundary" inkscape:connector-curvature="0" />
	<path style="fill:none;stroke:red;stroke-width:1px;stroke-linecap:butt;stroke-linejoin:miter;stroke-opacity:1" d="M 324.291,282.514 332.482,282.514 z" id="boundary" inkscape:connector-curvature="0" />
	<path style="fill:none;stroke:red;stroke-width:1px;stroke-linecap:butt;stroke-linejoin:miter;stroke-opacity:1" d="M 371.802,299.716 364.429,303.812 z" id="boundary" inkscape:connector-curvature="0" />
	<path style="fill:none;stroke:red;stroke-width:1px;stroke-linecap:butt;stroke-linejoin:miter;stroke-opacity:1" d="M 316.918,316.099 324.291,312.003 z" id="boundary" inkscape:connector-curvature="0" />
	<path style="fill:none;stroke:red;stroke-width:1px;stroke-linecap:butt;stroke-linejoin:miter;stroke-opacity:1" d="M 324.291,312.003 332.482,312.003 z" id="boundary" inkscape:connector-curvature="0" />
	<path style="fill:none;stroke:red;stroke-width:1px;stroke-linecap:butt;stroke-linejoin:miter;stroke-opacity:1" d="M 348.046,307.908 340.674,312.003 z" id="boundary" inkscape:connector-curvature="0" />
	<path style="fill:none;stroke:red;stroke-width:1px;stroke-linecap:butt;stroke-linejoin:miter;stroke-opacity:1" d="M 348.046,307.908 356.238,305.45 z" id="boundary" inkscape:connector-curvature="0" />
	<path style="fill:none;stroke:red;stroke-width:1px;stroke-linecap:butt;stroke-linejoin:miter;stroke-opacity:1" d="M 364.429,303.812 356.238,305.45 z" id="boundary" inkscape:connector-curvature="0" />
	<path style="fill:none;stroke:red;stroke-width:1px;stroke-linecap:butt;stroke-linejoin:miter;stroke-opacity:1" d="M 332.482,312.003 340.674,312.003 z" id="boundary" inkscape:connector-curvature="0" />
	<path style="fill:none;stroke:red;stroke-width:1px;stroke-linecap:butt;stroke-linejoin:miter;stroke-opacity:1" d="M 372.621,278.418 380.813,278.418 z" id="boundary" inkscape:connector-curvature="0" />
	<path style="fill:none;stroke:red;stroke-width:1px;stroke-linecap:butt;stroke-linejoin:miter;stroke-opacity:1" d="M 418.494,287.429 411.121,291.524 z" id="boundary" inkscape:connector-curvature="0" />
	<path style="fill:none;stroke:red;stroke-width:1px;stroke-linecap:butt;stroke-linejoin:miter;stroke-opacity:1" d="M 371.802,299.716 379.174,295.62 z" id="boundary" inkscape:connector-curvature="0" />
	<path style="fill:none;stroke:red;stroke-width:1px;stroke-linecap:butt;stroke-linejoin:miter;stroke-opacity:1" d="M 387.366,295.62 394.738,291.524 z" id="boundary" inkscape:connector-curvature="0" />
	<path style="fill:none;stroke:red;stroke-width:1px;stroke-linecap:butt;stroke-linejoin:miter;stroke-opacity:1" d="M 387.366,295.62 379.174,295.62 z" id="boundary" inkscape:connector-curvature="0" />
	<path style="fill:none;stroke:red;stroke-width:1px;stroke-linecap:butt;stroke-linejoin:miter;stroke-opacity:1" d="M 394.738,291.524 402.93,291.524 z" id="boundary" inkscape:connector-curvature="0" />
	<path style="fill:none;stroke:red;stroke-width:1px;stroke-linecap:butt;stroke-linejoin:miter;stroke-opacity:1" d="M 411.121,291.524 402.93,291.524 z" id="boundary" inkscape:connector-curvature="0" />
	<path style="fill:none;stroke:red;stroke-width:1px;stroke-linecap:butt;stroke-linejoin:miter;stroke-opacity:1" d="M 542.187,8.09579 550.378,8.09579 z" id="boundary" inkscape:connector-curvature="0" />
	<path style="fill:none;stroke:red;stroke-width:1px;stroke-linecap:butt;stroke-linejoin:miter;stroke-opacity:1" d="M 542.187,8.09579 533.995,8.91495 z" id="boundary" inkscape:connector-curvature="0" />
	<path style="fill:none;stroke:red;stroke-width:1px;stroke-linecap:butt;stroke-linejoin:miter;stroke-opacity:1" d="M 558.57,4.81916 550.378,8.09579 z" id="boundary" inkscape:connector-curvature="0" />
	<path style="fill:none;stroke:red;stroke-width:1px;stroke-linecap:butt;stroke-linejoin:miter;stroke-opacity:1" d="M 574.953,4 566.761,4 z" id="boundary" inkscape:connector-curvature="0" />
	<path style="fill:none;stroke:red;stroke-width:1px;stroke-linecap:butt;stroke-linejoin:miter;stroke-opacity:1" d="M 566.761,4 558.57,4.81916 z" id="boundary" inkscape:connector-curvature="0" />
	<path style="fill:none;stroke:red;stroke-width:1px;stroke-linecap:butt;stroke-linejoin:miter;stroke-opacity:1" d="M 623.283,8.09579 615.092,8.09579 z" id="boundary" inkscape:connector-curvature="0" />
	<path style="fill:none;stroke:red;stroke-width:1px;stroke-linecap:butt;stroke-linejoin:miter;stroke-opacity:1" d="M 574.953,4 583.145,4 z" id="boundary" inkscape:connector-curvature="0" />
	<path style="fill:none;stroke:red;stroke-width:1px;stroke-linecap:butt;stroke-linejoin:miter;stroke-opacity:1" d="M 591.336,4 583.145,4 z" id="boundary" inkscape:connector-curvature="0" />
	<path style="fill:none;stroke:red;stroke-width:1px;stroke-linecap:butt;stroke-linejoin:miter;stroke-opacity:1" d="M 598.709,8.09579 591.336,4 z" id="boundary" inkscape:connector-curvature="0" />
	<path style="fill:none;stroke:red;stroke-width:1px;stroke-linecap:butt;stroke-linejoin:miter;stroke-opacity:1" d="M 493.856,16.2874 502.048,16.2874 z" id="boundary" inkscape:connector-curvature="0" />
	<path style="fill:none;stroke:red;stroke-width:1px;stroke-linecap:butt;stroke-linejoin:miter;stroke-opacity:1" d="M 510.239,16.2874 517.612,12.1916 z" id="boundary" inkscape:connector-curvature="0" />
	<path style="fill:none;stroke:red;stroke-width:1px;stroke-linecap:butt;stroke-linejoin:miter;stroke-opacity:1" d="M 510.239,16.2874 502.048,16.2874 z" id="boundary" inkscape:connector-curvature="0" />
	<path style="fill:none;stroke:red;stroke-width:1px;stroke-linecap:butt;stroke-linejoin:miter;stroke-opacity:1" d="M 517.612,12.1916 525.803,12.1916 z" id="boundary" inkscape:connector-curvature="0" />
	<path style="fill:none;stroke:red;stroke-width:1px;stroke-linecap:butt;stroke-linejoin:miter;stroke-opacity:1" d="M 598.709,8.09579 606.9,8.09579 z" id="boundary" inkscape:connector-curvature="0" />
	<path style="fill:none;stroke:red;stroke-width:1px;stroke-linecap:butt;stroke-linejoin:miter;stroke-opacity:1" d="M 615.092,8.09579 606.9,8.09579 z" id="boundary" inkscape:connector-curvature="0" />
	<path style="fill:none;stroke:red;stroke-width:1px;stroke-linecap:butt;stroke-linejoin:miter;stroke-opacity:1" d="M 525.803,12.1916 533.995,8.91495 z" id="boundary" inkscape:connector-curvature="0" />
	<path style="fill:none;stroke:red;stroke-width:1px;stroke-linecap:butt;stroke-linejoin:miter;stroke-opacity:1" d="M 623.283,8.09579 631.475,8.09579 z" id="boundary" inkscape:connector-curvature="0" />
	<path style="fill:none;stroke:red;stroke-width:1px;stroke-linecap:butt;stroke-linejoin:miter;stroke-opacity:1" d="M 639.666,8.09579 647.858,8.09579 z" id="boundary" inkscape:connector-curvature="0" />
	<path style="fill:none;stroke:red;stroke-width:1px;stroke-linecap:butt;stroke-linejoin:miter;stroke-opacity:1" d="M 639.666,8.09579 631.475,8.09579 z" id="boundary" inkscape:connector-curvature="0" />
	<path style="fill:none;stroke:red;stroke-width:1px;stroke-linecap:butt;stroke-linejoin:miter;stroke-opacity:1" d="M 708.476,31.0322 702.742,24.4789 z" id="boundary" inkscape:connector-curvature="0" />
	<path style="fill:none;stroke:red;stroke-width:1px;stroke-linecap:butt;stroke-linejoin:miter;stroke-opacity:1" d="M 696.188,18.7448 688.816,14.6491 z" id="boundary" inkscape:connector-curvature="0" />
	<path style="fill:none;stroke:red;stroke-width:1px;stroke-linecap:butt;stroke-linejoin:miter;stroke-opacity:1" d="M 656.05,8.09579 647.858,8.09579 z" id="boundary" inkscape:connector-curvature="0" />
	<path style="fill:none;stroke:red;stroke-width:1px;stroke-linecap:butt;stroke-linejoin:miter;stroke-opacity:1" d="M 664.241,10.5533 656.05,8.09579 z" id="boundary" inkscape:connector-curvature="0" />
	<path style="fill:none;stroke:red;stroke-width:1px;stroke-linecap:butt;stroke-linejoin:miter;stroke-opacity:1" d="M 672.433,12.1916 664.241,10.5533 z" id="boundary" inkscape:connector-curvature="0" />
	<path style="fill:none;stroke:red;stroke-width:1px;stroke-linecap:butt;stroke-linejoin:miter;stroke-opacity:1" d="M 672.433,12.1916 680.624,12.1916 z" id="boundary" inkscape:connector-curvature="0" />
	<path style="fill:none;stroke:red;stroke-width:1px;stroke-linecap:butt;stroke-linejoin:miter;stroke-opacity:1" d="M 688.816,14.6491 680.624,12.1916 z" id="boundary" inkscape:connector-curvature="0" />
	<path style="fill:none;stroke:red;stroke-width:1px;stroke-linecap:butt;stroke-linejoin:miter;stroke-opacity:1" d="M 696.188,18.7448 702.742,24.4789 z" id="boundary" inkscape:connector-curvature="0" />
	<path style="fill:none;stroke:red;stroke-width:1px;stroke-linecap:butt;stroke-linejoin:miter;stroke-opacity:1" d="M 708.476,31.0322 703.561,44.1387 z" id="boundary" inkscape:connector-curvature="0" />
	<path style="fill:none;stroke:red;stroke-width:1px;stroke-linecap:butt;stroke-linejoin:miter;stroke-opacity:1" d="M 643.762,82.6391 647.858,90.0116 z" id="boundary" inkscape:connector-curvature="0" />
	<path style="fill:none;stroke:red;stroke-width:1px;stroke-linecap:butt;stroke-linejoin:miter;stroke-opacity:1" d="M 643.762,82.6391 651.954,78.5434 z" id="boundary" inkscape:connector-curvature="0" />
	<path style="fill:none;stroke:red;stroke-width:1px;stroke-linecap:butt;stroke-linejoin:miter;stroke-opacity:1" d="M 651.954,78.5434 659.326,74.4476 z" id="boundary" inkscape:connector-curvature="0" />
	<path style="fill:none;stroke:red;stroke-width:1px;stroke-linecap:butt;stroke-linejoin:miter;stroke-opacity:1" d="M 659.326,74.4476 666.699,70.3518 z" id="boundary" inkscape:connector-curvature="0" />
	<path style="fill:none;stroke:red;stroke-width:1px;stroke-linecap:butt;stroke-linejoin:miter;stroke-opacity:1" d="M 656.05,87.5541 647.858,90.0116 z" id="boundary" inkscape:connector-curvature="0" />
	<path style="fill:none;stroke:red;stroke-width:1px;stroke-linecap:butt;stroke-linejoin:miter;stroke-opacity:1" d="M 664.241,85.9158 656.05,87.5541 z" id="boundary" inkscape:connector-curvature="0" />
	<path style="fill:none;stroke:red;stroke-width:1px;stroke-linecap:butt;stroke-linejoin:miter;stroke-opacity:1" d="M 680.624,58.0644 688.816,53.9686 z" id="boundary" inkscape:connector-curvature="0" />
	<path style="fill:none;stroke:red;stroke-width:1px;stroke-linecap:butt;stroke-linejoin:miter;stroke-opacity:1" d="M 680.624,58.0644 674.071,65.4368 z" id="boundary" inkscape:connector-curvature="0" />
	<path style="fill:none;stroke:red;stroke-width:1px;stroke-linecap:butt;stroke-linejoin:miter;stroke-opacity:1" d="M 688.816,53.9686 697.007,49.8728 z" id="boundary" inkscape:connector-curvature="0" />
	<path style="fill:none;stroke:red;stroke-width:1px;stroke-linecap:butt;stroke-linejoin:miter;stroke-opacity:1" d="M 703.561,44.1387 697.007,49.8728 z" id="boundary" inkscape:connector-curvature="0" />
	<path style="fill:none;stroke:red;stroke-width:1px;stroke-linecap:butt;stroke-linejoin:miter;stroke-opacity:1" d="M 666.699,70.3518 674.071,65.4368 z" id="boundary" inkscape:connector-curvature="0" />
	<path style="fill:none;stroke:red;stroke-width:1px;stroke-linecap:butt;stroke-linejoin:miter;stroke-opacity:1" d="M 688.816,81.82 680.624,83.4583 z" id="boundary" inkscape:connector-curvature="0" />
	<path style="fill:none;stroke:red;stroke-width:1px;stroke-linecap:butt;stroke-linejoin:miter;stroke-opacity:1" d="M 672.433,85.9158 664.241,85.9158 z" id="boundary" inkscape:connector-curvature="0" />
	<path style="fill:none;stroke:red;stroke-width:1px;stroke-linecap:butt;stroke-linejoin:miter;stroke-opacity:1" d="M 680.624,83.4583 672.433,85.9158 z" id="boundary" inkscape:connector-curvature="0" />
	<path style="fill:none;stroke:red;stroke-width:1px;stroke-linecap:butt;stroke-linejoin:miter;stroke-opacity:1" d="M 713.391,77.7242 721.582,77.7242 z" id="boundary" inkscape:connector-curvature="0" />
	<path style="fill:none;stroke:red;stroke-width:1px;stroke-linecap:butt;stroke-linejoin:miter;stroke-opacity:1" d="M 721.582,77.7242 728.955,73.6284 z" id="boundary" inkscape:connector-curvature="0" />
	<path style="fill:none;stroke:red;stroke-width:1px;stroke-linecap:butt;stroke-linejoin:miter;stroke-opacity:1" d="M 705.199,79.3625 697.007,81.82 z" id="boundary" inkscape:connector-curvature="0" />
	<path style="fill:none;stroke:red;stroke-width:1px;stroke-linecap:butt;stroke-linejoin:miter;stroke-opacity:1" d="M 728.955,73.6284 737.146,73.6284 z" id="boundary" inkscape:connector-curvature="0" />
	<path style="fill:none;stroke:red;stroke-width:1px;stroke-linecap:butt;stroke-linejoin:miter;stroke-opacity:1" d="M 688.816,81.82 697.007,81.82 z" id="boundary" inkscape:connector-curvature="0" />
	<path style="fill:none;stroke:red;stroke-width:1px;stroke-linecap:butt;stroke-linejoin:miter;stroke-opacity:1" d="M 705.199,79.3625 713.391,77.7242 z" id="boundary" inkscape:connector-curvature="0" />
	<path style="fill:none;stroke:red;stroke-width:1px;stroke-linecap:butt;stroke-linejoin:miter;stroke-opacity:1" d="M 737.146,73.6284 745.338,73.6284 z" id="boundary" inkscape:connector-curvature="0" />
	<path style="fill:none;stroke:red;stroke-width:1px;stroke-linecap:butt;stroke-linejoin:miter;stroke-opacity:1" d="M 887.052,32.6705 878.86,36.7663 z" id="boundary" inkscape:connector-curvature="0" />
	<path style="fill:none;stroke:red;stroke-width:1px;stroke-linecap:butt;stroke-linejoin:miter;stroke-opacity:1" d="M 870.669,36.7663 863.296,40.8621 z" id="boundary" inkscape:connector-curvature="0" />
	<path style="fill:none;stroke:red;stroke-width:1px;stroke-linecap:butt;stroke-linejoin:miter;stroke-opacity:1" d="M 878.86,36.7663 870.669,36.7663 z" id="boundary" inkscape:connector-curvature="0" />
	<path style="fill:none;stroke:red;stroke-width:1px;stroke-linecap:butt;stroke-linejoin:miter;stroke-opacity:1" d="M 863.296,40.8621 855.924,44.9579 z" id="boundary" inkscape:connector-curvature="0" />
	<path style="fill:none;stroke:red;stroke-width:1px;stroke-linecap:butt;stroke-linejoin:miter;stroke-opacity:1" d="M 958.319,4 950.127,6.45747 z" id="boundary" inkscape:connector-curvature="0" />
	<path style="fill:none;stroke:red;stroke-width:1px;stroke-linecap:butt;stroke-linejoin:miter;stroke-opacity:1" d="M 933.744,10.5533 941.936,8.09579 z" id="boundary" inkscape:connector-curvature="0" />
	<path style="fill:none;stroke:red;stroke-width:1px;stroke-linecap:butt;stroke-linejoin:miter;stroke-opacity:1" d="M 950.127,6.45747 941.936,8.09579 z" id="boundary" inkscape:connector-curvature="0" />
	<path style="fill:none;stroke:red;stroke-width:1px;stroke-linecap:butt;stroke-linejoin:miter;stroke-opacity:1" d="M 909.169,18.7448 917.361,16.2874 z" id="boundary" inkscape:connector-curvature="0" />
	<path style="fill:none;stroke:red;stroke-width:1px;stroke-linecap:butt;stroke-linejoin:miter;stroke-opacity:1" d="M 925.552,14.6491 933.744,10.5533 z" id="boundary" inkscape:connector-curvature="0" />
	<path style="fill:none;stroke:red;stroke-width:1px;stroke-linecap:butt;stroke-linejoin:miter;stroke-opacity:1" d="M 925.552,14.6491 917.361,16.2874 z" id="boundary" inkscape:connector-curvature="0" />
	<path style="fill:none;stroke:red;stroke-width:1px;stroke-linecap:butt;stroke-linejoin:miter;stroke-opacity:1" d="M 909.169,18.7448 901.797,24.4789 z" id="boundary" inkscape:connector-curvature="0" />
	<path style="fill:none;stroke:red;stroke-width:1px;stroke-linecap:butt;stroke-linejoin:miter;stroke-opacity:1" d="M 958.319,4 966.51,4 z" id="boundary" inkscape:connector-curvature="0" />
	<path style="fill:none;stroke:red;stroke-width:1px;stroke-linecap:butt;stroke-linejoin:miter;stroke-opacity:1" d="M 975.521,17.1065 973.064,8.91495 z" id="boundary" inkscape:connector-curvature="0" />
	<path style="fill:none;stroke:red;stroke-width:1px;stroke-linecap:butt;stroke-linejoin:miter;stroke-opacity:1" d="M 973.064,8.91495 966.51,4 z" id="boundary" inkscape:connector-curvature="0" />
	<path style="fill:none;stroke:red;stroke-width:1px;stroke-linecap:butt;stroke-linejoin:miter;stroke-opacity:1" d="M 979.617,24.4789 975.521,17.1065 z" id="boundary" inkscape:connector-curvature="0" />
	<path style="fill:none;stroke:red;stroke-width:1px;stroke-linecap:butt;stroke-linejoin:miter;stroke-opacity:1" d="M 894.424,28.5747 901.797,24.4789 z" id="boundary" inkscape:connector-curvature="0" />
	<path style="fill:none;stroke:red;stroke-width:1px;stroke-linecap:butt;stroke-linejoin:miter;stroke-opacity:1" d="M 887.052,32.6705 894.424,28.5747 z" id="boundary" inkscape:connector-curvature="0" />
	<path style="fill:none;stroke:red;stroke-width:1px;stroke-linecap:butt;stroke-linejoin:miter;stroke-opacity:1" d="M 979.617,24.4789 979.617,32.6705 z" id="boundary" inkscape:connector-curvature="0" />
	<path style="fill:none;stroke:red;stroke-width:1px;stroke-linecap:butt;stroke-linejoin:miter;stroke-opacity:1" d="M 975.521,41.6813 979.617,32.6705 z" id="boundary" inkscape:connector-curvature="0" />
	<path style="fill:none;stroke:red;stroke-width:1px;stroke-linecap:butt;stroke-linejoin:miter;stroke-opacity:1" d="M 801.04,61.341 792.849,65.4368 z" id="boundary" inkscape:connector-curvature="0" />
	<path style="fill:none;stroke:red;stroke-width:1px;stroke-linecap:butt;stroke-linejoin:miter;stroke-opacity:1" d="M 784.657,65.4368 776.466,69.5326 z" id="boundary" inkscape:connector-curvature="0" />
	<path style="fill:none;stroke:red;stroke-width:1px;stroke-linecap:butt;stroke-linejoin:miter;stroke-opacity:1" d="M 801.04,61.341 809.232,61.341 z" id="boundary" inkscape:connector-curvature="0" />
	<path style="fill:none;stroke:red;stroke-width:1px;stroke-linecap:butt;stroke-linejoin:miter;stroke-opacity:1" d="M 792.849,65.4368 784.657,65.4368 z" id="boundary" inkscape:connector-curvature="0" />
	<path style="fill:none;stroke:red;stroke-width:1px;stroke-linecap:butt;stroke-linejoin:miter;stroke-opacity:1" d="M 839.541,47.4154 847.732,44.9579 z" id="boundary" inkscape:connector-curvature="0" />
	<path style="fill:none;stroke:red;stroke-width:1px;stroke-linecap:butt;stroke-linejoin:miter;stroke-opacity:1" d="M 839.541,47.4154 832.988,53.1495 z" id="boundary" inkscape:connector-curvature="0" />
	<path style="fill:none;stroke:red;stroke-width:1px;stroke-linecap:butt;stroke-linejoin:miter;stroke-opacity:1" d="M 847.732,44.9579 855.924,44.9579 z" id="boundary" inkscape:connector-curvature="0" />
	<path style="fill:none;stroke:red;stroke-width:1px;stroke-linecap:butt;stroke-linejoin:miter;stroke-opacity:1" d="M 817.424,57.2453 824.796,53.1495 z" id="boundary" inkscape:connector-curvature="0" />
	<path style="fill:none;stroke:red;stroke-width:1px;stroke-linecap:butt;stroke-linejoin:miter;stroke-opacity:1" d="M 817.424,57.2453 809.232,61.341 z" id="boundary" inkscape:connector-curvature="0" />
	<path style="fill:none;stroke:red;stroke-width:1px;stroke-linecap:butt;stroke-linejoin:miter;stroke-opacity:1" d="M 824.796,53.1495 832.988,53.1495 z" id="boundary" inkscape:connector-curvature="0" />
	<path style="fill:none;stroke:red;stroke-width:1px;stroke-linecap:butt;stroke-linejoin:miter;stroke-opacity:1" d="M 745.338,73.6284 752.71,69.5326 z" id="boundary" inkscape:connector-curvature="0" />
	<path style="fill:none;stroke:red;stroke-width:1px;stroke-linecap:butt;stroke-linejoin:miter;stroke-opacity:1" d="M 752.71,69.5326 760.902,70.3518 z" id="boundary" inkscape:connector-curvature="0" />
	<path style="fill:none;stroke:red;stroke-width:1px;stroke-linecap:butt;stroke-linejoin:miter;stroke-opacity:1" d="M 776.466,69.5326 769.093,73.6284 z" id="boundary" inkscape:connector-curvature="0" />
	<path style="fill:none;stroke:red;stroke-width:1px;stroke-linecap:butt;stroke-linejoin:miter;stroke-opacity:1" d="M 769.093,73.6284 760.902,70.3518 z" id="boundary" inkscape:connector-curvature="0" />
	<path style="fill:none;stroke:red;stroke-width:1px;stroke-linecap:butt;stroke-linejoin:miter;stroke-opacity:1" d="M 977.159,49.8728 981.255,57.2453 z" id="boundary" inkscape:connector-curvature="0" />
	<path style="fill:none;stroke:red;stroke-width:1px;stroke-linecap:butt;stroke-linejoin:miter;stroke-opacity:1" d="M 975.521,41.6813 977.159,49.8728 z" id="boundary" inkscape:connector-curvature="0" />
	<path style="fill:none;stroke:red;stroke-width:1px;stroke-linecap:butt;stroke-linejoin:miter;stroke-opacity:1" d="M 979.617,66.256 981.255,57.2453 z" id="boundary" inkscape:connector-curvature="0" />
	<path style="fill:none;stroke:red;stroke-width:1px;stroke-linecap:butt;stroke-linejoin:miter;stroke-opacity:1" d="M 979.617,66.256 979.617,74.4476 z" id="boundary" inkscape:connector-curvature="0" />
	<path style="fill:none;stroke:red;stroke-width:1px;stroke-linecap:butt;stroke-linejoin:miter;stroke-opacity:1" d="M 979.617,74.4476 979.617,82.6391 z" id="boundary" inkscape:connector-curvature="0" />
	<path style="fill:none;stroke:red;stroke-width:1px;stroke-linecap:butt;stroke-linejoin:miter;stroke-opacity:1" d="M 981.255,90.8307 979.617,82.6391 z" id="boundary" inkscape:connector-curvature="0" />
	<path style="fill:none;stroke:red;stroke-width:1px;stroke-linecap:butt;stroke-linejoin:miter;stroke-opacity:1" d="M 987.808,96.5648 981.255,90.8307 z" id="boundary" inkscape:connector-curvature="0" />
	<path style="fill:none;stroke:red;stroke-width:1px;stroke-linecap:butt;stroke-linejoin:miter;stroke-opacity:1" d="M 680.624,180.938 672.433,180.938 z" id="boundary" inkscape:connector-curvature="0" />
	<path style="fill:none;stroke:red;stroke-width:1px;stroke-linecap:butt;stroke-linejoin:miter;stroke-opacity:1" d="M 687.997,176.842 680.624,180.938 z" id="boundary" inkscape:connector-curvature="0" />
	<path style="fill:none;stroke:red;stroke-width:1px;stroke-linecap:butt;stroke-linejoin:miter;stroke-opacity:1" d="M 676.528,188.31 672.433,180.938 z" id="boundary" inkscape:connector-curvature="0" />
	<path style="fill:none;stroke:red;stroke-width:1px;stroke-linecap:butt;stroke-linejoin:miter;stroke-opacity:1" d="M 676.528,188.31 684.72,188.31 z" id="boundary" inkscape:connector-curvature="0" />
	<path style="fill:none;stroke:red;stroke-width:1px;stroke-linecap:butt;stroke-linejoin:miter;stroke-opacity:1" d="M 687.997,176.842 695.369,172.746 z" id="boundary" inkscape:connector-curvature="0" />
	<path style="fill:none;stroke:red;stroke-width:1px;stroke-linecap:butt;stroke-linejoin:miter;stroke-opacity:1" d="M 711.752,171.108 703.561,172.746 z" id="boundary" inkscape:connector-curvature="0" />
	<path style="fill:none;stroke:red;stroke-width:1px;stroke-linecap:butt;stroke-linejoin:miter;stroke-opacity:1" d="M 695.369,172.746 703.561,172.746 z" id="boundary" inkscape:connector-curvature="0" />
	<path style="fill:none;stroke:red;stroke-width:1px;stroke-linecap:butt;stroke-linejoin:miter;stroke-opacity:1" d="M 692.912,188.31 684.72,188.31 z" id="boundary" inkscape:connector-curvature="0" />
	<path style="fill:none;stroke:red;stroke-width:1px;stroke-linecap:butt;stroke-linejoin:miter;stroke-opacity:1" d="M 692.912,188.31 701.103,188.31 z" id="boundary" inkscape:connector-curvature="0" />
	<path style="fill:none;stroke:red;stroke-width:1px;stroke-linecap:butt;stroke-linejoin:miter;stroke-opacity:1" d="M 709.295,188.31 701.103,188.31 z" id="boundary" inkscape:connector-curvature="0" />
	<path style="fill:none;stroke:red;stroke-width:1px;stroke-linecap:butt;stroke-linejoin:miter;stroke-opacity:1" d="M 709.295,188.31 717.486,190.768 z" id="boundary" inkscape:connector-curvature="0" />
	<path style="fill:none;stroke:red;stroke-width:1px;stroke-linecap:butt;stroke-linejoin:miter;stroke-opacity:1" d="M 717.486,198.96 710.933,204.694 z" id="boundary" inkscape:connector-curvature="0" />
	<path style="fill:none;stroke:red;stroke-width:1px;stroke-linecap:butt;stroke-linejoin:miter;stroke-opacity:1" d="M 704.38,209.609 710.933,204.694 z" id="boundary" inkscape:connector-curvature="0" />
	<path style="fill:none;stroke:red;stroke-width:1px;stroke-linecap:butt;stroke-linejoin:miter;stroke-opacity:1" d="M 502.048,238.279 494.675,234.183 z" id="boundary" inkscape:connector-curvature="0" />
	<path style="fill:none;stroke:red;stroke-width:1px;stroke-linecap:butt;stroke-linejoin:miter;stroke-opacity:1" d="M 510.239,241.556 502.048,238.279 z" id="boundary" inkscape:connector-curvature="0" />
	<path style="fill:none;stroke:red;stroke-width:1px;stroke-linecap:butt;stroke-linejoin:miter;stroke-opacity:1" d="M 510.239,241.556 517.612,245.652 z" id="boundary" inkscape:connector-curvature="0" />
	<path style="fill:none;stroke:red;stroke-width:1px;stroke-linecap:butt;stroke-linejoin:miter;stroke-opacity:1" d="M 524.165,250.566 517.612,245.652 z" id="boundary" inkscape:connector-curvature="0" />
	<path style="fill:none;stroke:red;stroke-width:1px;stroke-linecap:butt;stroke-linejoin:miter;stroke-opacity:1" d="M 532.357,250.566 524.165,250.566 z" id="boundary" inkscape:connector-curvature="0" />
	<path style="fill:none;stroke:red;stroke-width:1px;stroke-linecap:butt;stroke-linejoin:miter;stroke-opacity:1" d="M 539.729,254.662 532.357,250.566 z" id="boundary" inkscape:connector-curvature="0" />
	<path style="fill:none;stroke:red;stroke-width:1px;stroke-linecap:butt;stroke-linejoin:miter;stroke-opacity:1" d="M 547.102,258.758 539.729,254.662 z" id="boundary" inkscape:connector-curvature="0" />
	<path style="fill:none;stroke:red;stroke-width:1px;stroke-linecap:butt;stroke-linejoin:miter;stroke-opacity:1" d="M 555.293,258.758 547.102,258.758 z" id="boundary" inkscape:connector-curvature="0" />
	<path style="fill:none;stroke:red;stroke-width:1px;stroke-linecap:butt;stroke-linejoin:miter;stroke-opacity:1" d="M 555.293,258.758 563.485,258.758 z" id="boundary" inkscape:connector-curvature="0" />
	<path style="fill:none;stroke:red;stroke-width:1px;stroke-linecap:butt;stroke-linejoin:miter;stroke-opacity:1" d="M 571.676,262.035 563.485,258.758 z" id="boundary" inkscape:connector-curvature="0" />
	<path style="fill:none;stroke:red;stroke-width:1px;stroke-linecap:butt;stroke-linejoin:miter;stroke-opacity:1" d="M 579.868,258.758 571.676,262.035 z" id="boundary" inkscape:connector-curvature="0" />
	<path style="fill:none;stroke:red;stroke-width:1px;stroke-linecap:butt;stroke-linejoin:miter;stroke-opacity:1" d="M 659.326,234.183 651.135,234.183 z" id="boundary" inkscape:connector-curvature="0" />
	<path style="fill:none;stroke:red;stroke-width:1px;stroke-linecap:butt;stroke-linejoin:miter;stroke-opacity:1" d="M 665.879,229.268 659.326,234.183 z" id="boundary" inkscape:connector-curvature="0" />
	<path style="fill:none;stroke:red;stroke-width:1px;stroke-linecap:butt;stroke-linejoin:miter;stroke-opacity:1" d="M 651.135,234.183 643.762,238.279 z" id="boundary" inkscape:connector-curvature="0" />
	<path style="fill:none;stroke:red;stroke-width:1px;stroke-linecap:butt;stroke-linejoin:miter;stroke-opacity:1" d="M 635.571,242.375 643.762,238.279 z" id="boundary" inkscape:connector-curvature="0" />
	<path style="fill:none;stroke:red;stroke-width:1px;stroke-linecap:butt;stroke-linejoin:miter;stroke-opacity:1" d="M 635.571,242.375 627.379,246.471 z" id="boundary" inkscape:connector-curvature="0" />
	<path style="fill:none;stroke:red;stroke-width:1px;stroke-linecap:butt;stroke-linejoin:miter;stroke-opacity:1" d="M 697.007,213.704 704.38,209.609 z" id="boundary" inkscape:connector-curvature="0" />
	<path style="fill:none;stroke:red;stroke-width:1px;stroke-linecap:butt;stroke-linejoin:miter;stroke-opacity:1" d="M 697.007,213.704 689.635,217.8 z" id="boundary" inkscape:connector-curvature="0" />
	<path style="fill:none;stroke:red;stroke-width:1px;stroke-linecap:butt;stroke-linejoin:miter;stroke-opacity:1" d="M 665.879,229.268 674.071,225.173 z" id="boundary" inkscape:connector-curvature="0" />
	<path style="fill:none;stroke:red;stroke-width:1px;stroke-linecap:butt;stroke-linejoin:miter;stroke-opacity:1" d="M 682.263,221.896 689.635,217.8 z" id="boundary" inkscape:connector-curvature="0" />
	<path style="fill:none;stroke:red;stroke-width:1px;stroke-linecap:butt;stroke-linejoin:miter;stroke-opacity:1" d="M 682.263,221.896 674.071,225.173 z" id="boundary" inkscape:connector-curvature="0" />
	<path style="fill:none;stroke:red;stroke-width:1px;stroke-linecap:butt;stroke-linejoin:miter;stroke-opacity:1" d="M 596.251,258.758 588.059,258.758 z" id="boundary" inkscape:connector-curvature="0" />
	<path style="fill:none;stroke:red;stroke-width:1px;stroke-linecap:butt;stroke-linejoin:miter;stroke-opacity:1" d="M 603.623,254.662 596.251,258.758 z" id="boundary" inkscape:connector-curvature="0" />
	<path style="fill:none;stroke:red;stroke-width:1px;stroke-linecap:butt;stroke-linejoin:miter;stroke-opacity:1" d="M 611.815,254.662 619.187,250.566 z" id="boundary" inkscape:connector-curvature="0" />
	<path style="fill:none;stroke:red;stroke-width:1px;stroke-linecap:butt;stroke-linejoin:miter;stroke-opacity:1" d="M 611.815,254.662 603.623,254.662 z" id="boundary" inkscape:connector-curvature="0" />
	<path style="fill:none;stroke:red;stroke-width:1px;stroke-linecap:butt;stroke-linejoin:miter;stroke-opacity:1" d="M 619.187,250.566 627.379,246.471 z" id="boundary" inkscape:connector-curvature="0" />
	<path style="fill:none;stroke:red;stroke-width:1px;stroke-linecap:butt;stroke-linejoin:miter;stroke-opacity:1" d="M 579.868,258.758 588.059,258.758 z" id="boundary" inkscape:connector-curvature="0" />
	<path style="fill:none;stroke:red;stroke-width:1px;stroke-linecap:butt;stroke-linejoin:miter;stroke-opacity:1" d="M 790.391,148.172 783.019,152.268 z" id="boundary" inkscape:connector-curvature="0" />
	<path style="fill:none;stroke:red;stroke-width:1px;stroke-linecap:butt;stroke-linejoin:miter;stroke-opacity:1" d="M 790.391,148.172 798.583,148.172 z" id="boundary" inkscape:connector-curvature="0" />
	<path style="fill:none;stroke:red;stroke-width:1px;stroke-linecap:butt;stroke-linejoin:miter;stroke-opacity:1" d="M 806.775,148.172 814.966,148.172 z" id="boundary" inkscape:connector-curvature="0" />
	<path style="fill:none;stroke:red;stroke-width:1px;stroke-linecap:butt;stroke-linejoin:miter;stroke-opacity:1" d="M 798.583,148.172 806.775,148.172 z" id="boundary" inkscape:connector-curvature="0" />
	<path style="fill:none;stroke:red;stroke-width:1px;stroke-linecap:butt;stroke-linejoin:miter;stroke-opacity:1" d="M 814.966,148.172 823.158,148.172 z" id="boundary" inkscape:connector-curvature="0" />
	<path style="fill:none;stroke:red;stroke-width:1px;stroke-linecap:butt;stroke-linejoin:miter;stroke-opacity:1" d="M 823.158,148.172 831.349,148.172 z" id="boundary" inkscape:connector-curvature="0" />
	<path style="fill:none;stroke:red;stroke-width:1px;stroke-linecap:butt;stroke-linejoin:miter;stroke-opacity:1" d="M 783.019,152.268 775.647,156.363 z" id="boundary" inkscape:connector-curvature="0" />
	<path style="fill:none;stroke:red;stroke-width:1px;stroke-linecap:butt;stroke-linejoin:miter;stroke-opacity:1" d="M 895.244,152.268 887.052,152.268 z" id="boundary" inkscape:connector-curvature="0" />
	<path style="fill:none;stroke:red;stroke-width:1px;stroke-linecap:butt;stroke-linejoin:miter;stroke-opacity:1" d="M 991.085,104.756 991.904,112.948 z" id="boundary" inkscape:connector-curvature="0" />
	<path style="fill:none;stroke:red;stroke-width:1px;stroke-linecap:butt;stroke-linejoin:miter;stroke-opacity:1" d="M 996,120.32 991.904,112.948 z" id="boundary" inkscape:connector-curvature="0" />
	<path style="fill:none;stroke:red;stroke-width:1px;stroke-linecap:butt;stroke-linejoin:miter;stroke-opacity:1" d="M 991.085,104.756 987.808,96.5648 z" id="boundary" inkscape:connector-curvature="0" />
	<path style="fill:none;stroke:red;stroke-width:1px;stroke-linecap:butt;stroke-linejoin:miter;stroke-opacity:1" d="M 996,120.32 994.362,130.15 z" id="boundary" inkscape:connector-curvature="0" />
	<path style="fill:none;stroke:red;stroke-width:1px;stroke-linecap:butt;stroke-linejoin:miter;stroke-opacity:1" d="M 846.913,152.268 839.541,148.172 z" id="boundary" inkscape:connector-curvature="0" />
	<path style="fill:none;stroke:red;stroke-width:1px;stroke-linecap:butt;stroke-linejoin:miter;stroke-opacity:1" d="M 839.541,148.172 831.349,148.172 z" id="boundary" inkscape:connector-curvature="0" />
	<path style="fill:none;stroke:red;stroke-width:1px;stroke-linecap:butt;stroke-linejoin:miter;stroke-opacity:1" d="M 854.286,148.172 846.913,152.268 z" id="boundary" inkscape:connector-curvature="0" />
	<path style="fill:none;stroke:red;stroke-width:1px;stroke-linecap:butt;stroke-linejoin:miter;stroke-opacity:1" d="M 862.477,151.448 854.286,148.172 z" id="boundary" inkscape:connector-curvature="0" />
	<path style="fill:none;stroke:red;stroke-width:1px;stroke-linecap:butt;stroke-linejoin:miter;stroke-opacity:1" d="M 862.477,151.448 870.669,152.268 z" id="boundary" inkscape:connector-curvature="0" />
	<path style="fill:none;stroke:red;stroke-width:1px;stroke-linecap:butt;stroke-linejoin:miter;stroke-opacity:1" d="M 878.86,152.268 887.052,152.268 z" id="boundary" inkscape:connector-curvature="0" />
	<path style="fill:none;stroke:red;stroke-width:1px;stroke-linecap:butt;stroke-linejoin:miter;stroke-opacity:1" d="M 878.86,152.268 870.669,152.268 z" id="boundary" inkscape:connector-curvature="0" />
	<path style="fill:none;stroke:red;stroke-width:1px;stroke-linecap:butt;stroke-linejoin:miter;stroke-opacity:1" d="M 990.266,138.342 994.362,130.15 z" id="boundary" inkscape:connector-curvature="0" />
	<path style="fill:none;stroke:red;stroke-width:1px;stroke-linecap:butt;stroke-linejoin:miter;stroke-opacity:1" d="M 990.266,138.342 983.713,144.076 z" id="boundary" inkscape:connector-curvature="0" />
	<path style="fill:none;stroke:red;stroke-width:1px;stroke-linecap:butt;stroke-linejoin:miter;stroke-opacity:1" d="M 975.521,144.076 968.968,151.448 z" id="boundary" inkscape:connector-curvature="0" />
	<path style="fill:none;stroke:red;stroke-width:1px;stroke-linecap:butt;stroke-linejoin:miter;stroke-opacity:1" d="M 983.713,144.076 975.521,144.076 z" id="boundary" inkscape:connector-curvature="0" />
	<path style="fill:none;stroke:red;stroke-width:1px;stroke-linecap:butt;stroke-linejoin:miter;stroke-opacity:1" d="M 968.968,151.448 960.776,152.268 z" id="boundary" inkscape:connector-curvature="0" />
	<path style="fill:none;stroke:red;stroke-width:1px;stroke-linecap:butt;stroke-linejoin:miter;stroke-opacity:1" d="M 728.135,168.651 719.944,168.651 z" id="boundary" inkscape:connector-curvature="0" />
	<path style="fill:none;stroke:red;stroke-width:1px;stroke-linecap:butt;stroke-linejoin:miter;stroke-opacity:1" d="M 719.944,168.651 711.752,171.108 z" id="boundary" inkscape:connector-curvature="0" />
	<path style="fill:none;stroke:red;stroke-width:1px;stroke-linecap:butt;stroke-linejoin:miter;stroke-opacity:1" d="M 743.699,163.736 735.508,164.555 z" id="boundary" inkscape:connector-curvature="0" />
	<path style="fill:none;stroke:red;stroke-width:1px;stroke-linecap:butt;stroke-linejoin:miter;stroke-opacity:1" d="M 735.508,164.555 728.135,168.651 z" id="boundary" inkscape:connector-curvature="0" />
	<path style="fill:none;stroke:red;stroke-width:1px;stroke-linecap:butt;stroke-linejoin:miter;stroke-opacity:1" d="M 751.891,160.459 759.263,156.363 z" id="boundary" inkscape:connector-curvature="0" />
	<path style="fill:none;stroke:red;stroke-width:1px;stroke-linecap:butt;stroke-linejoin:miter;stroke-opacity:1" d="M 759.263,156.363 767.455,156.363 z" id="boundary" inkscape:connector-curvature="0" />
	<path style="fill:none;stroke:red;stroke-width:1px;stroke-linecap:butt;stroke-linejoin:miter;stroke-opacity:1" d="M 767.455,156.363 775.647,156.363 z" id="boundary" inkscape:connector-curvature="0" />
	<path style="fill:none;stroke:red;stroke-width:1px;stroke-linecap:butt;stroke-linejoin:miter;stroke-opacity:1" d="M 743.699,163.736 751.891,160.459 z" id="boundary" inkscape:connector-curvature="0" />
	<path style="fill:none;stroke:red;stroke-width:1px;stroke-linecap:butt;stroke-linejoin:miter;stroke-opacity:1" d="M 717.486,190.768 717.486,198.96 z" id="boundary" inkscape:connector-curvature="0" />
	<path style="fill:none;stroke:red;stroke-width:1px;stroke-linecap:butt;stroke-linejoin:miter;stroke-opacity:1" d="M 895.244,152.268 903.435,152.268 z" id="boundary" inkscape:connector-curvature="0" />
	<path style="fill:none;stroke:red;stroke-width:1px;stroke-linecap:butt;stroke-linejoin:miter;stroke-opacity:1" d="M 903.435,152.268 911.627,152.268 z" id="boundary" inkscape:connector-curvature="0" />
	<path style="fill:none;stroke:red;stroke-width:1px;stroke-linecap:butt;stroke-linejoin:miter;stroke-opacity:1" d="M 919.818,152.268 928.01,152.268 z" id="boundary" inkscape:connector-curvature="0" />
	<path style="fill:none;stroke:red;stroke-width:1px;stroke-linecap:butt;stroke-linejoin:miter;stroke-opacity:1" d="M 919.818,152.268 911.627,152.268 z" id="boundary" inkscape:connector-curvature="0" />
	<path style="fill:none;stroke:red;stroke-width:1px;stroke-linecap:butt;stroke-linejoin:miter;stroke-opacity:1" d="M 936.201,152.268 944.393,152.268 z" id="boundary" inkscape:connector-curvature="0" />
	<path style="fill:none;stroke:red;stroke-width:1px;stroke-linecap:butt;stroke-linejoin:miter;stroke-opacity:1" d="M 936.201,152.268 928.01,152.268 z" id="boundary" inkscape:connector-curvature="0" />
	<path style="fill:none;stroke:red;stroke-width:1px;stroke-linecap:butt;stroke-linejoin:miter;stroke-opacity:1" d="M 952.585,152.268 960.776,152.268 z" id="boundary" inkscape:connector-curvature="0" />
	<path style="fill:none;stroke:red;stroke-width:1px;stroke-linecap:butt;stroke-linejoin:miter;stroke-opacity:1" d="M 952.585,152.268 944.393,152.268 z" id="boundary" inkscape:connector-curvature="0" />
	<circle cx="4" cy="235.822" r="4" fill="#0" id="circle0"/>
	<circle cx="8.09579" cy="223.534" r="4" fill="#0" id="circle1"/>
	<circle cx="8.09579" cy="243.194" r="4" fill="#0" id="circle2"/>
	<circle cx="13.8299" cy="249.747" r="4" fill="#0" id="circle3"/>
	<circle cx="14.6491" cy="216.981" r="4" fill="#0" id="circle4"/>
	<circle cx="20.3832" cy="254.662" r="4" fill="#0" id="circle5"/>
	<circle cx="22.8406" cy="212.885" r="4" fill="#0" id="circle6"/>
	<circle cx="22.8406" cy="262.854" r="4" fill="#0" id="circle7"/>
	<circle cx="29.3939" cy="206.332" r="4" fill="#0" id="circle8"/>
	<circle cx="30.213" cy="266.95" r="4" fill="#0" id="circle9"/>
	<circle cx="36.7663" cy="271.865" r="4" fill="#0" id="circle10"/>
	<circle cx="37.5855" cy="202.236" r="4" fill="#0" id="circle11"/>
	<circle cx="44.9579" cy="275.141" r="4" fill="#0" id="circle12"/>
	<circle cx="45.777" cy="198.14" r="4" fill="#0" id="circle13"/>
	<circle cx="52.3303" cy="192.406" r="4" fill="#0" id="circle14"/>
	<circle cx="52.3303" cy="279.237" r="4" fill="#0" id="circle15"/>
	<circle cx="59.7027" cy="188.31" r="4" fill="#0" id="circle16"/>
	<circle cx="59.7027" cy="283.333" r="4" fill="#0" id="circle17"/>
	<circle cx="67.0751" cy="184.215" r="4" fill="#0" id="circle18"/>
	<circle cx="67.0751" cy="287.429" r="4" fill="#0" id="circle19"/>
	<circle cx="74.4476" cy="180.119" r="4" fill="#0" id="circle20"/>
	<circle cx="75.2667" cy="289.886" r="4" fill="#0" id="circle21"/>
	<circle cx="81.82" cy="176.023" r="4" fill="#0" id="circle22"/>
	<circle cx="83.4583" cy="291.524" r="4" fill="#0" id="circle23"/>
	<circle cx="90.0116" cy="177.661" r="4" fill="#0" id="circle24"/>
	<circle cx="91.6499" cy="291.524" r="4" fill="#0" id="circle25"/>
	<circle cx="98.2031" cy="178.481" r="4" fill="#0" id="circle26"/>
	<circle cx="99.8415" cy="291.524" r="4" fill="#0" id="circle27"/>
	<circle cx="106.395" cy="176.023" r="4" fill="#0" id="circle28"/>
	<circle cx="107.214" cy="295.62" r="4" fill="#0" id="circle29"/>
	<circle cx="113.767" cy="171.927" r="4" fill="#0" id="circle30"/>
	<circle cx="114.586" cy="291.524" r="4" fill="#0" id="circle31"/>
	<circle cx="121.959" cy="171.927" r="4" fill="#0" id="circle32"/>
	<circle cx="121.959" cy="295.62" r="4" fill="#0" id="circle33"/>
	<circle cx="129.331" cy="167.832" r="4" fill="#0" id="circle34"/>
	<circle cx="130.15" cy="295.62" r="4" fill="#0" id="circle35"/>
	<circle cx="137.523" cy="163.736" r="4" fill="#0" id="circle36"/>
	<circle cx="138.342" cy="295.62" r="4" fill="#0" id="circle37"/>
	<circle cx="145.714" cy="159.64" r="4" fill="#0" id="circle38"/>
	<circle cx="146.533" cy="295.62" r="4" fill="#0" id="circle39"/>
	<circle cx="153.906" cy="155.544" r="4" fill="#0" id="circle40"/>
	<circle cx="154.725" cy="293.982" r="4" fill="#0" id="circle41"/>
	<circle cx="162.097" cy="155.544" r="4" fill="#0" id="circle42"/>
	<circle cx="162.917" cy="291.524" r="4" fill="#0" id="circle43"/>
	<circle cx="170.289" cy="151.448" r="4" fill="#0" id="circle44"/>
	<circle cx="171.108" cy="291.524" r="4" fill="#0" id="circle45"/>
	<circle cx="178.481" cy="147.353" r="4" fill="#0" id="circle46"/>
	<circle cx="179.3" cy="291.524" r="4" fill="#0" id="circle47"/>
	<circle cx="186.672" cy="147.353" r="4" fill="#0" id="circle48"/>
	<circle cx="187.491" cy="291.524" r="4" fill="#0" id="circle49"/>
	<circle cx="194.045" cy="143.257" r="4" fill="#0" id="circle50"/>
	<circle cx="195.683" cy="291.524" r="4" fill="#0" id="circle51"/>
	<circle cx="202.236" cy="143.257" r="4" fill="#0" id="circle52"/>
	<circle cx="203.874" cy="289.886" r="4" fill="#0" id="circle53"/>
	<circle cx="210.428" cy="143.257" r="4" fill="#0" id="circle54"/>
	<circle cx="212.066" cy="287.429" r="4" fill="#0" id="circle55"/>
	<circle cx="217.8" cy="139.161" r="4" fill="#0" id="circle56"/>
	<circle cx="219.438" cy="291.524" r="4" fill="#0" id="circle57"/>
	<circle cx="225.992" cy="139.161" r="4" fill="#0" id="circle58"/>
	<circle cx="227.63" cy="291.524" r="4" fill="#0" id="circle59"/>
	<circle cx="234.183" cy="136.704" r="4" fill="#0" id="circle60"/>
	<circle cx="235.822" cy="291.524" r="4" fill="#0" id="circle61"/>
	<circle cx="242.375" cy="135.065" r="4" fill="#0" id="circle62"/>
	<circle cx="244.013" cy="291.524" r="4" fill="#0" id="circle63"/>
	<circle cx="250.566" cy="135.065" r="4" fill="#0" id="circle64"/>
	<circle cx="252.205" cy="291.524" r="4" fill="#0" id="circle65"/>
	<circle cx="257.939" cy="298.078" r="4" fill="#0" id="circle66"/>
	<circle cx="258.758" cy="135.065" r="4" fill="#0" id="circle67"/>
	<circle cx="258.758" cy="306.269" r="4" fill="#0" id="circle68"/>
	<circle cx="262.854" cy="313.642" r="4" fill="#0" id="circle69"/>
	<circle cx="266.95" cy="135.065" r="4" fill="#0" id="circle70"/>
	<circle cx="268.588" cy="320.195" r="4" fill="#0" id="circle71"/>
	<circle cx="275.141" cy="132.608" r="4" fill="#0" id="circle72"/>
	<circle cx="276.78" cy="320.195" r="4" fill="#0" id="circle73"/>
	<circle cx="281.694" cy="126.874" r="4" fill="#0" id="circle74"/>
	<circle cx="282.514" cy="112.948" r="4" fill="#0" id="circle75"/>
	<circle cx="284.971" cy="320.195" r="4" fill="#0" id="circle76"/>
	<circle cx="286.609" cy="88.3732" r="4" fill="#0" id="circle77"/>
	<circle cx="286.609" cy="96.5648" r="4" fill="#0" id="circle78"/>
	<circle cx="286.609" cy="104.756" r="4" fill="#0" id="circle79"/>
	<circle cx="290.705" cy="71.9901" r="4" fill="#0" id="circle80"/>
	<circle cx="290.705" cy="80.1817" r="4" fill="#0" id="circle81"/>
	<circle cx="293.163" cy="320.195" r="4" fill="#0" id="circle82"/>
	<circle cx="297.258" cy="65.4368" r="4" fill="#0" id="circle83"/>
	<circle cx="298.897" cy="47.4154" r="4" fill="#0" id="circle84"/>
	<circle cx="298.897" cy="55.6069" r="4" fill="#0" id="circle85"/>
	<circle cx="300.535" cy="316.099" r="4" fill="#0" id="circle86"/>
	<circle cx="303.812" cy="279.237" r="4" fill="#0" id="circle87"/>
	<circle cx="305.45" cy="40.8621" r="4" fill="#0" id="circle88"/>
	<circle cx="307.908" cy="286.609" r="4" fill="#0" id="circle89"/>
	<circle cx="308.727" cy="316.099" r="4" fill="#0" id="circle90"/>
	<circle cx="312.003" cy="34.3088" r="4" fill="#0" id="circle91"/>
	<circle cx="312.003" cy="279.237" r="4" fill="#0" id="circle92"/>
	<circle cx="316.099" cy="286.609" r="4" fill="#0" id="circle93"/>
	<circle cx="316.918" cy="316.099" r="4" fill="#0" id="circle94"/>
	<circle cx="318.557" cy="28.5747" r="4" fill="#0" id="circle95"/>
	<circle cx="320.195" cy="275.141" r="4" fill="#0" id="circle96"/>
	<circle cx="324.291" cy="282.514" r="4" fill="#0" id="circle97"/>
	<circle cx="324.291" cy="312.003" r="4" fill="#0" id="circle98"/>
	<circle cx="325.929" cy="24.4789" r="4" fill="#0" id="circle99"/>
	<circle cx="328.386" cy="275.141" r="4" fill="#0" id="circle100"/>
	<circle cx="332.482" cy="282.514" r="4" fill="#0" id="circle101"/>
	<circle cx="332.482" cy="312.003" r="4" fill="#0" id="circle102"/>
	<circle cx="334.121" cy="24.4789" r="4" fill="#0" id="circle103"/>
	<circle cx="336.578" cy="275.141" r="4" fill="#0" id="circle104"/>
	<circle cx="340.674" cy="312.003" r="4" fill="#0" id="circle105"/>
	<circle cx="342.312" cy="24.4789" r="4" fill="#0" id="circle106"/>
	<circle cx="343.95" cy="271.045" r="4" fill="#0" id="circle107"/>
	<circle cx="348.046" cy="278.418" r="4" fill="#0" id="circle108"/>
	<circle cx="348.046" cy="307.908" r="4" fill="#0" id="circle109"/>
	<circle cx="349.685" cy="20.3832" r="4" fill="#0" id="circle110"/>
	<circle cx="352.142" cy="271.045" r="4" fill="#0" id="circle111"/>
	<circle cx="356.238" cy="278.418" r="4" fill="#0" id="circle112"/>
	<circle cx="356.238" cy="305.45" r="4" fill="#0" id="circle113"/>
	<circle cx="357.876" cy="20.3832" r="4" fill="#0" id="circle114"/>
	<circle cx="360.334" cy="268.588" r="4" fill="#0" id="circle115"/>
	<circle cx="364.429" cy="278.418" r="4" fill="#0" id="circle116"/>
	<circle cx="364.429" cy="303.812" r="4" fill="#0" id="circle117"/>
	<circle cx="366.068" cy="20.3832" r="4" fill="#0" id="circle118"/>
	<circle cx="366.887" cy="262.854" r="4" fill="#0" id="circle119"/>
	<circle cx="371.802" cy="299.716" r="4" fill="#0" id="circle120"/>
	<circle cx="372.621" cy="278.418" r="4" fill="#0" id="circle121"/>
	<circle cx="374.259" cy="20.3832" r="4" fill="#0" id="circle122"/>
	<circle cx="375.078" cy="262.854" r="4" fill="#0" id="circle123"/>
	<circle cx="379.174" cy="295.62" r="4" fill="#0" id="circle124"/>
	<circle cx="380.813" cy="278.418" r="4" fill="#0" id="circle125"/>
	<circle cx="381.632" cy="24.4789" r="4" fill="#0" id="circle126"/>
	<circle cx="383.27" cy="262.854" r="4" fill="#0" id="circle127"/>
	<circle cx="387.366" cy="295.62" r="4" fill="#0" id="circle128"/>
	<circle cx="389.004" cy="28.5747" r="4" fill="#0" id="circle129"/>
	<circle cx="389.004" cy="276.78" r="4" fill="#0" id="circle130"/>
	<circle cx="390.642" cy="258.758" r="4" fill="#0" id="circle131"/>
	<circle cx="394.738" cy="291.524" r="4" fill="#0" id="circle132"/>
	<circle cx="396.377" cy="32.6705" r="4" fill="#0" id="circle133"/>
	<circle cx="397.196" cy="274.322" r="4" fill="#0" id="circle134"/>
	<circle cx="398.834" cy="258.758" r="4" fill="#0" id="circle135"/>
	<circle cx="402.111" cy="39.2238" r="4" fill="#0" id="circle136"/>
	<circle cx="402.93" cy="291.524" r="4" fill="#0" id="circle137"/>
	<circle cx="405.387" cy="274.322" r="4" fill="#0" id="circle138"/>
	<circle cx="407.026" cy="258.758" r="4" fill="#0" id="circle139"/>
	<circle cx="407.845" cy="45.777" r="4" fill="#0" id="circle140"/>
	<circle cx="411.121" cy="291.524" r="4" fill="#0" id="circle141"/>
	<circle cx="413.579" cy="274.322" r="4" fill="#0" id="circle142"/>
	<circle cx="414.398" cy="51.5111" r="4" fill="#0" id="circle143"/>
	<circle cx="414.398" cy="254.662" r="4" fill="#0" id="circle144"/>
	<circle cx="418.494" cy="287.429" r="4" fill="#0" id="circle145"/>
	<circle cx="420.132" cy="58.0644" r="4" fill="#0" id="circle146"/>
	<circle cx="421.77" cy="275.96" r="4" fill="#0" id="circle147"/>
	<circle cx="422.59" cy="66.256" r="4" fill="#0" id="circle148"/>
	<circle cx="422.59" cy="74.4476" r="4" fill="#0" id="circle149"/>
	<circle cx="422.59" cy="82.6391" r="4" fill="#0" id="circle150"/>
	<circle cx="422.59" cy="90.8307" r="4" fill="#0" id="circle151"/>
	<circle cx="422.59" cy="254.662" r="4" fill="#0" id="circle152"/>
	<circle cx="426.685" cy="98.2031" r="4" fill="#0" id="circle153"/>
	<circle cx="430.781" cy="105.576" r="4" fill="#0" id="circle154"/>
	<circle cx="430.781" cy="254.662" r="4" fill="#0" id="circle155"/>
	<circle cx="434.877" cy="112.948" r="4" fill="#0" id="circle156"/>
	<circle cx="438.973" cy="250.566" r="4" fill="#0" id="circle157"/>
	<circle cx="443.069" cy="114.586" r="4" fill="#0" id="circle158"/>
	<circle cx="447.164" cy="246.471" r="4" fill="#0" id="circle159"/>
	<circle cx="450.441" cy="84.2775" r="4" fill="#0" id="circle160"/>
	<circle cx="450.441" cy="92.469" r="4" fill="#0" id="circle161"/>
	<circle cx="450.441" cy="108.852" r="4" fill="#0" id="circle162"/>
	<circle cx="454.537" cy="76.0859" r="4" fill="#0" id="circle163"/>
	<circle cx="454.537" cy="99.8415" r="4" fill="#0" id="circle164"/>
	<circle cx="455.356" cy="246.471" r="4" fill="#0" id="circle165"/>
	<circle cx="458.633" cy="67.8943" r="4" fill="#0" id="circle166"/>
	<circle cx="462.728" cy="47.4154" r="4" fill="#0" id="circle167"/>
	<circle cx="462.728" cy="55.6069" r="4" fill="#0" id="circle168"/>
	<circle cx="462.728" cy="242.375" r="4" fill="#0" id="circle169"/>
	<circle cx="466.824" cy="39.2238" r="4" fill="#0" id="circle170"/>
	<circle cx="470.92" cy="242.375" r="4" fill="#0" id="circle171"/>
	<circle cx="475.016" cy="35.128" r="4" fill="#0" id="circle172"/>
	<circle cx="479.111" cy="239.917" r="4" fill="#0" id="circle173"/>
	<circle cx="483.207" cy="31.0322" r="4" fill="#0" id="circle174"/>
	<circle cx="487.303" cy="22.8406" r="4" fill="#0" id="circle175"/>
	<circle cx="487.303" cy="238.279" r="4" fill="#0" id="circle176"/>
	<circle cx="493.856" cy="16.2874" r="4" fill="#0" id="circle177"/>
	<circle cx="494.675" cy="234.183" r="4" fill="#0" id="circle178"/>
	<circle cx="502.048" cy="16.2874" r="4" fill="#0" id="circle179"/>
	<circle cx="502.048" cy="238.279" r="4" fill="#0" id="circle180"/>
	<circle cx="510.239" cy="16.2874" r="4" fill="#0" id="circle181"/>
	<circle cx="510.239" cy="241.556" r="4" fill="#0" id="circle182"/>
	<circle cx="517.612" cy="12.1916" r="4" fill="#0" id="circle183"/>
	<circle cx="517.612" cy="245.652" r="4" fill="#0" id="circle184"/>
	<circle cx="524.165" cy="250.566" r="4" fill="#0" id="circle185"/>
	<circle cx="525.803" cy="12.1916" r="4" fill="#0" id="circle186"/>
	<circle cx="532.357" cy="250.566" r="4" fill="#0" id="circle187"/>
	<circle cx="533.995" cy="8.91495" r="4" fill="#0" id="circle188"/>
	<circle cx="539.729" cy="254.662" r="4" fill="#0" id="circle189"/>
	<circle cx="542.187" cy="8.09579" r="4" fill="#0" id="circle190"/>
	<circle cx="547.102" cy="258.758" r="4" fill="#0" id="circle191"/>
	<circle cx="550.378" cy="8.09579" r="4" fill="#0" id="circle192"/>
	<circle cx="555.293" cy="258.758" r="4" fill="#0" id="circle193"/>
	<circle cx="558.57" cy="4.81916" r="4" fill="#0" id="circle194"/>
	<circle cx="563.485" cy="258.758" r="4" fill="#0" id="circle195"/>
	<circle cx="566.761" cy="4" r="4" fill="#0" id="circle196"/>
	<circle cx="571.676" cy="262.035" r="4" fill="#0" id="circle197"/>
	<circle cx="574.953" cy="4" r="4" fill="#0" id="circle198"/>
	<circle cx="579.868" cy="258.758" r="4" fill="#0" id="circle199"/>
	<circle cx="583.145" cy="4" r="4" fill="#0" id="circle200"/>
	<circle cx="588.059" cy="258.758" r="4" fill="#0" id="circle201"/>
	<circle cx="591.336" cy="4" r="4" fill="#0" id="circle202"/>
	<circle cx="596.251" cy="258.758" r="4" fill="#0" id="circle203"/>
	<circle cx="598.709" cy="8.09579" r="4" fill="#0" id="circle204"/>
	<circle cx="603.623" cy="254.662" r="4" fill="#0" id="circle205"/>
	<circle cx="606.9" cy="8.09579" r="4" fill="#0" id="circle206"/>
	<circle cx="611.815" cy="254.662" r="4" fill="#0" id="circle207"/>
	<circle cx="615.092" cy="8.09579" r="4" fill="#0" id="circle208"/>
	<circle cx="619.187" cy="250.566" r="4" fill="#0" id="circle209"/>
	<circle cx="623.283" cy="8.09579" r="4" fill="#0" id="circle210"/>
	<circle cx="627.379" cy="246.471" r="4" fill="#0" id="circle211"/>
	<circle cx="631.475" cy="8.09579" r="4" fill="#0" id="circle212"/>
	<circle cx="635.571" cy="242.375" r="4" fill="#0" id="circle213"/>
	<circle cx="639.666" cy="8.09579" r="4" fill="#0" id="circle214"/>
	<circle cx="643.762" cy="82.6391" r="4" fill="#0" id="circle215"/>
	<circle cx="643.762" cy="238.279" r="4" fill="#0" id="circle216"/>
	<circle cx="647.858" cy="8.09579" r="4" fill="#0" id="circle217"/>
	<circle cx="647.858" cy="90.0116" r="4" fill="#0" id="circle218"/>
	<circle cx="651.135" cy="234.183" r="4" fill="#0" id="circle219"/>
	<circle cx="651.954" cy="78.5434" r="4" fill="#0" id="circle220"/>
	<circle cx="656.05" cy="8.09579" r="4" fill="#0" id="circle221"/>
	<circle cx="656.05" cy="87.5541" r="4" fill="#0" id="circle222"/>
	<circle cx="659.326" cy="74.4476" r="4" fill="#0" id="circle223"/>
	<circle cx="659.326" cy="234.183" r="4" fill="#0" id="circle224"/>
	<circle cx="664.241" cy="10.5533" r="4" fill="#0" id="circle225"/>
	<circle cx="664.241" cy="85.9158" r="4" fill="#0" id="circle226"/>
	<circle cx="665.879" cy="229.268" r="4" fill="#0" id="circle227"/>
	<circle cx="666.699" cy="70.3518" r="4" fill="#0" id="circle228"/>
	<circle cx="672.433" cy="12.1916" r="4" fill="#0" id="circle229"/>
	<circle cx="672.433" cy="85.9158" r="4" fill="#0" id="circle230"/>
	<circle cx="672.433" cy="180.938" r="4" fill="#0" id="circle231"/>
	<circle cx="674.071" cy="65.4368" r="4" fill="#0" id="circle232"/>
	<circle cx="674.071" cy="225.173" r="4" fill="#0" id="circle233"/>
	<circle cx="676.528" cy="188.31" r="4" fill="#0" id="circle234"/>
	<circle cx="680.624" cy="12.1916" r="4" fill="#0" id="circle235"/>
	<circle cx="680.624" cy="58.0644" r="4" fill="#0" id="circle236"/>
	<circle cx="680.624" cy="83.4583" r="4" fill="#0" id="circle237"/>
	<circle cx="680.624" cy="180.938" r="4" fill="#0" id="circle238"/>
	<circle cx="682.263" cy="221.896" r="4" fill="#0" id="circle239"/>
	<circle cx="684.72" cy="188.31" r="4" fill="#0" id="circle240"/>
	<circle cx="687.997" cy="176.842" r="4" fill="#0" id="circle241"/>
	<circle cx="688.816" cy="14.6491" r="4" fill="#0" id="circle242"/>
	<circle cx="688.816" cy="53.9686" r="4" fill="#0" id="circle243"/>
	<circle cx="688.816" cy="81.82" r="4" fill="#0" id="circle244"/>
	<circle cx="689.635" cy="217.8" r="4" fill="#0" id="circle245"/>
	<circle cx="692.912" cy="188.31" r="4" fill="#0" id="circle246"/>
	<circle cx="695.369" cy="172.746" r="4" fill="#0" id="circle247"/>
	<circle cx="696.188" cy="18.7448" r="4" fill="#0" id="circle248"/>
	<circle cx="697.007" cy="49.8728" r="4" fill="#0" id="circle249"/>
	<circle cx="697.007" cy="81.82" r="4" fill="#0" id="circle250"/>
	<circle cx="697.007" cy="213.704" r="4" fill="#0" id="circle251"/>
	<circle cx="701.103" cy="188.31" r="4" fill="#0" id="circle252"/>
	<circle cx="702.742" cy="24.4789" r="4" fill="#0" id="circle253"/>
	<circle cx="703.561" cy="44.1387" r="4" fill="#0" id="circle254"/>
	<circle cx="703.561" cy="172.746" r="4" fill="#0" id="circle255"/>
	<circle cx="704.38" cy="209.609" r="4" fill="#0" id="circle256"/>
	<circle cx="705.199" cy="79.3625" r="4" fill="#0" id="circle257"/>
	<circle cx="708.476" cy="31.0322" r="4" fill="#0" id="circle258"/>
	<circle cx="709.295" cy="188.31" r="4" fill="#0" id="circle259"/>
	<circle cx="710.933" cy="204.694" r="4" fill="#0" id="circle260"/>
	<circle cx="711.752" cy="171.108" r="4" fill="#0" id="circle261"/>
	<circle cx="713.391" cy="77.7242" r="4" fill="#0" id="circle262"/>
	<circle cx="717.486" cy="190.768" r="4" fill="#0" id="circle263"/>
	<circle cx="717.486" cy="198.96" r="4" fill="#0" id="circle264"/>
	<circle cx="719.944" cy="168.651" r="4" fill="#0" id="circle265"/>
	<circle cx="721.582" cy="77.7242" r="4" fill="#0" id="circle266"/>
	<circle cx="728.135" cy="168.651" r="4" fill="#0" id="circle267"/>
	<circle cx="728.955" cy="73.6284" r="4" fill="#0" id="circle268"/>
	<circle cx="735.508" cy="164.555" r="4" fill="#0" id="circle269"/>
	<circle cx="737.146" cy="73.6284" r="4" fill="#0" id="circle270"/>
	<circle cx="743.699" cy="163.736" r="4" fill="#0" id="circle271"/>
	<circle cx="745.338" cy="73.6284" r="4" fill="#0" id="circle272"/>
	<circle cx="751.891" cy="160.459" r="4" fill="#0" id="circle273"/>
	<circle cx="752.71" cy="69.5326" r="4" fill="#0" id="circle274"/>
	<circle cx="759.263" cy="156.363" r="4" fill="#0" id="circle275"/>
	<circle cx="760.902" cy="70.3518" r="4" fill="#0" id="circle276"/>
	<circle cx="767.455" cy="156.363" r="4" fill="#0" id="circle277"/>
	<circle cx="769.093" cy="73.6284" r="4" fill="#0" id="circle278"/>
	<circle cx="775.647" cy="156.363" r="4" fill="#0" id="circle279"/>
	<circle cx="776.466" cy="69.5326" r="4" fill="#0" id="circle280"/>
	<circle cx="783.019" cy="152.268" r="4" fill="#0" id="circle281"/>
	<circle cx="784.657" cy="65.4368" r="4" fill="#0" id="circle282"/>
	<circle cx="790.391" cy="148.172" r="4" fill="#0" id="circle283"/>
	<circle cx="792.849" cy="65.4368" r="4" fill="#0" id="circle284"/>
	<circle cx="798.583" cy="148.172" r="4" fill="#0" id="circle285"/>
	<circle cx="801.04" cy="61.341" r="4" fill="#0" id="circle286"/>
	<circle cx="806.775" cy="148.172" r="4" fill="#0" id="circle287"/>
	<circle cx="809.232" cy="61.341" r="4" fill="#0" id="circle288"/>
	<circle cx="814.966" cy="148.172" r="4" fill="#0" id="circle289"/>
	<circle cx="817.424" cy="57.2453" r="4" fill="#0" id="circle290"/>
	<circle cx="823.158" cy="148.172" r="4" fill="#0" id="circle291"/>
	<circle cx="824.796" cy="53.1495" r="4" fill="#0" id="circle292"/>
	<circle cx="831.349" cy="148.172" r="4" fill="#0" id="circle293"/>
	<circle cx="832.988" cy="53.1495" r="4" fill="#0" id="circle294"/>
	<circle cx="839.541" cy="47.4154" r="4" fill="#0" id="circle295"/>
	<circle cx="839.541" cy="148.172" r="4" fill="#0" id="circle296"/>
	<circle cx="846.913" cy="152.268" r="4" fill="#0" id="circle297"/>
	<circle cx="847.732" cy="44.9579" r="4" fill="#0" id="circle298"/>
	<circle cx="854.286" cy="148.172" r="4" fill="#0" id="circle299"/>
	<circle cx="855.924" cy="44.9579" r="4" fill="#0" id="circle300"/>
	<circle cx="862.477" cy="151.448" r="4" fill="#0" id="circle301"/>
	<circle cx="863.296" cy="40.8621" r="4" fill="#0" id="circle302"/>
	<circle cx="870.669" cy="36.7663" r="4" fill="#0" id="circle303"/>
	<circle cx="870.669" cy="152.268" r="4" fill="#0" id="circle304"/>
	<circle cx="878.86" cy="36.7663" r="4" fill="#0" id="circle305"/>
	<circle cx="878.86" cy="152.268" r="4" fill="#0" id="circle306"/>
	<circle cx="887.052" cy="32.6705" r="4" fill="#0" id="circle307"/>
	<circle cx="887.052" cy="152.268" r="4" fill="#0" id="circle308"/>
	<circle cx="894.424" cy="28.5747" r="4" fill="#0" id="circle309"/>
	<circle cx="895.244" cy="152.268" r="4" fill="#0" id="circle310"/>
	<circle cx="901.797" cy="24.4789" r="4" fill="#0" id="circle311"/>
	<circle cx="903.435" cy="152.268" r="4" fill="#0" id="circle312"/>
	<circle cx="909.169" cy="18.7448" r="4" fill="#0" id="circle313"/>
	<circle cx="911.627" cy="152.268" r="4" fill="#0" id="circle314"/>
	<circle cx="917.361" cy="16.2874" r="4" fill="#0" id="circle315"/>
	<circle cx="919.818" cy="152.268" r="4" fill="#0" id="circle316"/>
	<circle cx="925.552" cy="14.6491" r="4" fill="#0" id="circle317"/>
	<circle cx="928.01" cy="152.268" r="4" fill="#0" id="circle318"/>
	<circle cx="933.744" cy="10.5533" r="4" fill="#0" id="circle319"/>
	<circle cx="936.201" cy="152.268" r="4" fill="#0" id="circle320"/>
	<circle cx="941.936" cy="8.09579" r="4" fill="#0" id="circle321"/>
	<circle cx="944.393" cy="152.268" r="4" fill="#0" id="circle322"/>
	<circle cx="950.127" cy="6.45747" r="4" fill="#0" id="circle323"/>
	<circle cx="952.585" cy="152.268" r="4" fill="#0" id="circle324"/>
	<circle cx="958.319" cy="4" r="4" fill="#0" id="circle325"/>
	<circle cx="960.776" cy="152.268" r="4" fill="#0" id="circle326"/>
	<circle cx="966.51" cy="4" r="4" fill="#0" id="circle327"/>
	<circle cx="968.968" cy="151.448" r="4" fill="#0" id="circle328"/>
	<circle cx="973.064" cy="8.91495" r="4" fill="#0" id="circle329"/>
	<circle cx="975.521" cy="17.1065" r="4" fill="#0" id="circle330"/>
	<circle cx="975.521" cy="41.6813" r="4" fill="#0" id="circle331"/>
	<circle cx="975.521" cy="144.076" r="4" fill="#0" id="circle332"/>
	<circle cx="977.159" cy="49.8728" r="4" fill="#0" id="circle333"/>
	<circle cx="979.617" cy="24.4789" r="4" fill="#0" id="circle334"/>
	<circle cx="979.617" cy="32.6705" r="4" fill="#0" id="circle335"/>
	<circle cx="979.617" cy="66.256" r="4" fill="#0" id="circle336"/>
	<circle cx="979.617" cy="74.4476" r="4" fill="#0" id="circle337"/>
	<circle cx="979.617" cy="82.6391" r="4" fill="#0" id="circle338"/>
	<circle cx="981.255" cy="57.2453" r="4" fill="#0" id="circle339"/>
	<circle cx="981.255" cy="90.8307" r="4" fill="#0" id="circle340"/>
	<circle cx="983.713" cy="144.076" r="4" fill="#0" id="circle341"/>
	<circle cx="987.808" cy="96.5648" r="4" fill="#0" id="circle342"/>
	<circle cx="990.266" cy="138.342" r="4" fill="#0" id="circle343"/>
	<circle cx="991.085" cy="104.756" r="4" fill="#0" id="circle344"/>
	<circle cx="991.904" cy="112.948" r="4" fill="#0" id="circle345"/>
	<circle cx="994.362" cy="130.15" r="4" fill="#0" id="circle346"/>
	<circle cx="996" cy="120.32" r="4" fill="#0" id="circle347"/>
	</g>
</svg>