<?xml version="1.0" encoding="UTF-8" standalone="no"?>
<!-- Created with CurveBenchmark -->
<svg
	xmlns:dc="http://purl.org/dc/elements/1.1/"
	xmlns:cc="http://creativecommons.org/ns#"
	xmlns:rdf="http://www.w3.org/1999/02/22-rdf-syntax-ns#"
	xmlns:svg="http://www.w3.org/2000/svg"
	xmlns="http://www.w3.org/2000/svg"
	xmlns:sodipodi="http://sodipodi.sourceforge.net/DTD/sodipodi-0.dtd"
	xmlns:inkscape="http://www.inkscape.org/namespaces/inkscape"
	width="1000"
	height="1000"
	id="svg2"
	version="1.1"
	sodipodi:docname="manifold/crust-sink180.png.txt">
<defs
	id="defs4" />
<metadata
	id="metadata7">
	<rdf:RDF>
		<cc:Work
			rdf:about="">
			<dc:format>image/svg+xml</dc:format>
			<dc:type
				rdf:resource="http://purl.org/dc/dcmitype/StillImage" />
			<dc:title></dc:title>
		</cc:Work>
	</rdf:RDF>
</metadata>
<g
	inkscape:label="Layer 1"
	inkscape:groupmode="layer"
	id="layer1">
	<path style="fill:none;stroke:red;stroke-width:1px;stroke-linecap:butt;stroke-linejoin:miter;stroke-opacity:1" d="M 33.0341,265.307 81.4244,265.307 z" id="boundary" inkscape:connector-curvature="0" />
	<path style="fill:none;stroke:red;stroke-width:1px;stroke-linecap:butt;stroke-linejoin:miter;stroke-opacity:1" d="M 33.0341,265.307 4,304.02 z" id="boundary" inkscape:connector-curvature="0" />
	<path style="fill:none;stroke:red;stroke-width:1px;stroke-linecap:butt;stroke-linejoin:miter;stroke-opacity:1" d="M 81.4244,265.307 129.815,265.307 z" id="boundary" inkscape:connector-curvature="0" />
	<path style="fill:none;stroke:red;stroke-width:1px;stroke-linecap:butt;stroke-linejoin:miter;stroke-opacity:1" d="M 129.815,265.307 178.205,265.307 z" id="boundary" inkscape:connector-curvature="0" />
	<path style="fill:none;stroke:red;stroke-width:1px;stroke-linecap:butt;stroke-linejoin:miter;stroke-opacity:1" d="M 52.3902,318.537 4,304.02 z" id="boundary" inkscape:connector-curvature="0" />
	<path style="fill:none;stroke:red;stroke-width:1px;stroke-linecap:butt;stroke-linejoin:miter;stroke-opacity:1" d="M 100.78,318.537 52.3902,318.537 z" id="boundary" inkscape:connector-curvature="0" />
	<path style="fill:none;stroke:red;stroke-width:1px;stroke-linecap:butt;stroke-linejoin:miter;stroke-opacity:1" d="M 149.171,318.537 100.78,318.537 z" id="boundary" inkscape:connector-curvature="0" />
	<path style="fill:none;stroke:red;stroke-width:1px;stroke-linecap:butt;stroke-linejoin:miter;stroke-opacity:1" d="M 149.171,318.537 178.205,357.249 z" id="boundary" inkscape:connector-curvature="0" />
	<path style="fill:none;stroke:red;stroke-width:1px;stroke-linecap:butt;stroke-linejoin:miter;stroke-opacity:1" d="M 255.629,168.527 226.595,236.273 z" id="boundary" inkscape:connector-curvature="0" />
	<path style="fill:none;stroke:red;stroke-width:1px;stroke-linecap:butt;stroke-linejoin:miter;stroke-opacity:1" d="M 178.205,265.307 226.595,236.273 z" id="boundary" inkscape:connector-curvature="0" />
	<path style="fill:none;stroke:red;stroke-width:1px;stroke-linecap:butt;stroke-linejoin:miter;stroke-opacity:1" d="M 352.41,168.527 304.02,168.527 z" id="boundary" inkscape:connector-curvature="0" />
	<path style="fill:none;stroke:red;stroke-width:1px;stroke-linecap:butt;stroke-linejoin:miter;stroke-opacity:1" d="M 255.629,168.527 304.02,168.527 z" id="boundary" inkscape:connector-curvature="0" />
	<path style="fill:none;stroke:red;stroke-width:1px;stroke-linecap:butt;stroke-linejoin:miter;stroke-opacity:1" d="M 352.41,168.527 400.8,168.527 z" id="boundary" inkscape:connector-curvature="0" />
	<path style="fill:none;stroke:red;stroke-width:1px;stroke-linecap:butt;stroke-linejoin:miter;stroke-opacity:1" d="M 202.4,400.8 178.205,357.249 z" id="boundary" inkscape:connector-curvature="0" />
	<path style="fill:none;stroke:red;stroke-width:1px;stroke-linecap:butt;stroke-linejoin:miter;stroke-opacity:1" d="M 216.917,449.19 226.595,497.58 z" id="boundary" inkscape:connector-curvature="0" />
	<path style="fill:none;stroke:red;stroke-width:1px;stroke-linecap:butt;stroke-linejoin:miter;stroke-opacity:1" d="M 216.917,449.19 202.4,400.8 z" id="boundary" inkscape:connector-curvature="0" />
	<path style="fill:none;stroke:red;stroke-width:1px;stroke-linecap:butt;stroke-linejoin:miter;stroke-opacity:1" d="M 226.595,497.58 226.595,545.971 z" id="boundary" inkscape:connector-curvature="0" />
	<path style="fill:none;stroke:red;stroke-width:1px;stroke-linecap:butt;stroke-linejoin:miter;stroke-opacity:1" d="M 226.595,545.971 226.595,594.361 z" id="boundary" inkscape:connector-curvature="0" />
	<path style="fill:none;stroke:red;stroke-width:1px;stroke-linecap:butt;stroke-linejoin:miter;stroke-opacity:1" d="M 226.595,594.361 226.595,642.751 z" id="boundary" inkscape:connector-curvature="0" />
	<path style="fill:none;stroke:red;stroke-width:1px;stroke-linecap:butt;stroke-linejoin:miter;stroke-opacity:1" d="M 226.595,691.141 226.595,642.751 z" id="boundary" inkscape:connector-curvature="0" />
	<path style="fill:none;stroke:red;stroke-width:1px;stroke-linecap:butt;stroke-linejoin:miter;stroke-opacity:1" d="M 168.527,952.449 192.722,996 z" id="boundary" inkscape:connector-curvature="0" />
	<path style="fill:none;stroke:red;stroke-width:1px;stroke-linecap:butt;stroke-linejoin:miter;stroke-opacity:1" d="M 197.561,904.059 168.527,952.449 z" id="boundary" inkscape:connector-curvature="0" />
	<path style="fill:none;stroke:red;stroke-width:1px;stroke-linecap:butt;stroke-linejoin:miter;stroke-opacity:1" d="M 226.595,787.922 216.917,836.312 z" id="boundary" inkscape:connector-curvature="0" />
	<path style="fill:none;stroke:red;stroke-width:1px;stroke-linecap:butt;stroke-linejoin:miter;stroke-opacity:1" d="M 216.917,836.312 197.561,904.059 z" id="boundary" inkscape:connector-curvature="0" />
	<path style="fill:none;stroke:red;stroke-width:1px;stroke-linecap:butt;stroke-linejoin:miter;stroke-opacity:1" d="M 226.595,787.922 226.595,739.532 z" id="boundary" inkscape:connector-curvature="0" />
	<path style="fill:none;stroke:red;stroke-width:1px;stroke-linecap:butt;stroke-linejoin:miter;stroke-opacity:1" d="M 241.112,996 192.722,996 z" id="boundary" inkscape:connector-curvature="0" />
	<path style="fill:none;stroke:red;stroke-width:1px;stroke-linecap:butt;stroke-linejoin:miter;stroke-opacity:1" d="M 226.595,691.141 226.595,739.532 z" id="boundary" inkscape:connector-curvature="0" />
	<path style="fill:none;stroke:red;stroke-width:1px;stroke-linecap:butt;stroke-linejoin:miter;stroke-opacity:1" d="M 289.502,996 241.112,996 z" id="boundary" inkscape:connector-curvature="0" />
	<path style="fill:none;stroke:red;stroke-width:1px;stroke-linecap:butt;stroke-linejoin:miter;stroke-opacity:1" d="M 386.283,996 337.893,996 z" id="boundary" inkscape:connector-curvature="0" />
	<path style="fill:none;stroke:red;stroke-width:1px;stroke-linecap:butt;stroke-linejoin:miter;stroke-opacity:1" d="M 337.893,996 289.502,996 z" id="boundary" inkscape:connector-curvature="0" />
	<path style="fill:none;stroke:red;stroke-width:1px;stroke-linecap:butt;stroke-linejoin:miter;stroke-opacity:1" d="M 410.478,23.3561 458.868,4 z" id="boundary" inkscape:connector-curvature="0" />
	<path style="fill:none;stroke:red;stroke-width:1px;stroke-linecap:butt;stroke-linejoin:miter;stroke-opacity:1" d="M 381.444,62.0683 410.478,23.3561 z" id="boundary" inkscape:connector-curvature="0" />
	<path style="fill:none;stroke:red;stroke-width:1px;stroke-linecap:butt;stroke-linejoin:miter;stroke-opacity:1" d="M 492.741,42.7122 458.868,4 z" id="boundary" inkscape:connector-curvature="0" />
	<path style="fill:none;stroke:red;stroke-width:1px;stroke-linecap:butt;stroke-linejoin:miter;stroke-opacity:1" d="M 541.132,42.7122 492.741,42.7122 z" id="boundary" inkscape:connector-curvature="0" />
	<path style="fill:none;stroke:red;stroke-width:1px;stroke-linecap:butt;stroke-linejoin:miter;stroke-opacity:1" d="M 516.937,86.2634 550.81,124.976 z" id="boundary" inkscape:connector-curvature="0" />
	<path style="fill:none;stroke:red;stroke-width:1px;stroke-linecap:butt;stroke-linejoin:miter;stroke-opacity:1" d="M 516.937,86.2634 492.741,42.7122 z" id="boundary" inkscape:connector-curvature="0" />
	<path style="fill:none;stroke:red;stroke-width:1px;stroke-linecap:butt;stroke-linejoin:miter;stroke-opacity:1" d="M 449.19,168.527 400.8,168.527 z" id="boundary" inkscape:connector-curvature="0" />
	<path style="fill:none;stroke:red;stroke-width:1px;stroke-linecap:butt;stroke-linejoin:miter;stroke-opacity:1" d="M 449.19,168.527 497.58,168.527 z" id="boundary" inkscape:connector-curvature="0" />
	<path style="fill:none;stroke:red;stroke-width:1px;stroke-linecap:butt;stroke-linejoin:miter;stroke-opacity:1" d="M 497.58,168.527 550.81,173.366 z" id="boundary" inkscape:connector-curvature="0" />
	<path style="fill:none;stroke:red;stroke-width:1px;stroke-linecap:butt;stroke-linejoin:miter;stroke-opacity:1" d="M 599.2,168.527 550.81,173.366 z" id="boundary" inkscape:connector-curvature="0" />
	<path style="fill:none;stroke:red;stroke-width:1px;stroke-linecap:butt;stroke-linejoin:miter;stroke-opacity:1" d="M 647.59,168.527 599.2,168.527 z" id="boundary" inkscape:connector-curvature="0" />
	<path style="fill:none;stroke:red;stroke-width:1px;stroke-linecap:butt;stroke-linejoin:miter;stroke-opacity:1" d="M 647.59,168.527 695.98,168.527 z" id="boundary" inkscape:connector-curvature="0" />
	<path style="fill:none;stroke:red;stroke-width:1px;stroke-linecap:butt;stroke-linejoin:miter;stroke-opacity:1" d="M 744.371,168.527 695.98,168.527 z" id="boundary" inkscape:connector-curvature="0" />
	<path style="fill:none;stroke:red;stroke-width:1px;stroke-linecap:butt;stroke-linejoin:miter;stroke-opacity:1" d="M 754.049,216.917 744.371,168.527 z" id="boundary" inkscape:connector-curvature="0" />
	<path style="fill:none;stroke:red;stroke-width:1px;stroke-linecap:butt;stroke-linejoin:miter;stroke-opacity:1" d="M 754.049,216.917 763.727,265.307 z" id="boundary" inkscape:connector-curvature="0" />
	<path style="fill:none;stroke:red;stroke-width:1px;stroke-linecap:butt;stroke-linejoin:miter;stroke-opacity:1" d="M 763.727,265.307 720.176,318.537 z" id="boundary" inkscape:connector-curvature="0" />
	<path style="fill:none;stroke:red;stroke-width:1px;stroke-linecap:butt;stroke-linejoin:miter;stroke-opacity:1" d="M 386.283,468.546 386.283,516.937 z" id="boundary" inkscape:connector-curvature="0" />
	<path style="fill:none;stroke:red;stroke-width:1px;stroke-linecap:butt;stroke-linejoin:miter;stroke-opacity:1" d="M 386.283,565.327 386.283,516.937 z" id="boundary" inkscape:connector-curvature="0" />
	<path style="fill:none;stroke:red;stroke-width:1px;stroke-linecap:butt;stroke-linejoin:miter;stroke-opacity:1" d="M 386.283,565.327 386.283,613.717 z" id="boundary" inkscape:connector-curvature="0" />
	<path style="fill:none;stroke:red;stroke-width:1px;stroke-linecap:butt;stroke-linejoin:miter;stroke-opacity:1" d="M 386.283,468.546 434.673,454.029 z" id="boundary" inkscape:connector-curvature="0" />
	<path style="fill:none;stroke:red;stroke-width:1px;stroke-linecap:butt;stroke-linejoin:miter;stroke-opacity:1" d="M 434.673,454.029 483.063,444.351 z" id="boundary" inkscape:connector-curvature="0" />
	<path style="fill:none;stroke:red;stroke-width:1px;stroke-linecap:butt;stroke-linejoin:miter;stroke-opacity:1" d="M 386.283,662.107 386.283,710.498 z" id="boundary" inkscape:connector-curvature="0" />
	<path style="fill:none;stroke:red;stroke-width:1px;stroke-linecap:butt;stroke-linejoin:miter;stroke-opacity:1" d="M 386.283,662.107 386.283,613.717 z" id="boundary" inkscape:connector-curvature="0" />
	<path style="fill:none;stroke:red;stroke-width:1px;stroke-linecap:butt;stroke-linejoin:miter;stroke-opacity:1" d="M 386.283,710.498 386.283,758.888 z" id="boundary" inkscape:connector-curvature="0" />
	<path style="fill:none;stroke:red;stroke-width:1px;stroke-linecap:butt;stroke-linejoin:miter;stroke-opacity:1" d="M 386.283,807.278 386.283,855.668 z" id="boundary" inkscape:connector-curvature="0" />
	<path style="fill:none;stroke:red;stroke-width:1px;stroke-linecap:butt;stroke-linejoin:miter;stroke-opacity:1" d="M 386.283,758.888 386.283,807.278 z" id="boundary" inkscape:connector-curvature="0" />
	<path style="fill:none;stroke:red;stroke-width:1px;stroke-linecap:butt;stroke-linejoin:miter;stroke-opacity:1" d="M 386.283,855.668 410.478,899.22 z" id="boundary" inkscape:connector-curvature="0" />
	<path style="fill:none;stroke:red;stroke-width:1px;stroke-linecap:butt;stroke-linejoin:miter;stroke-opacity:1" d="M 410.478,899.22 434.673,942.771 z" id="boundary" inkscape:connector-curvature="0" />
	<path style="fill:none;stroke:red;stroke-width:1px;stroke-linecap:butt;stroke-linejoin:miter;stroke-opacity:1" d="M 434.673,996 386.283,996 z" id="boundary" inkscape:connector-curvature="0" />
	<path style="fill:none;stroke:red;stroke-width:1px;stroke-linecap:butt;stroke-linejoin:miter;stroke-opacity:1" d="M 434.673,942.771 434.673,996 z" id="boundary" inkscape:connector-curvature="0" />
	<path style="fill:none;stroke:red;stroke-width:1px;stroke-linecap:butt;stroke-linejoin:miter;stroke-opacity:1" d="M 550.81,362.088 575.005,318.537 z" id="boundary" inkscape:connector-curvature="0" />
	<path style="fill:none;stroke:red;stroke-width:1px;stroke-linecap:butt;stroke-linejoin:miter;stroke-opacity:1" d="M 575.005,318.537 623.395,318.537 z" id="boundary" inkscape:connector-curvature="0" />
	<path style="fill:none;stroke:red;stroke-width:1px;stroke-linecap:butt;stroke-linejoin:miter;stroke-opacity:1" d="M 526.615,415.317 483.063,444.351 z" id="boundary" inkscape:connector-curvature="0" />
	<path style="fill:none;stroke:red;stroke-width:1px;stroke-linecap:butt;stroke-linejoin:miter;stroke-opacity:1" d="M 550.81,362.088 526.615,415.317 z" id="boundary" inkscape:connector-curvature="0" />
	<path style="fill:none;stroke:red;stroke-width:1px;stroke-linecap:butt;stroke-linejoin:miter;stroke-opacity:1" d="M 671.785,318.537 623.395,318.537 z" id="boundary" inkscape:connector-curvature="0" />
	<path style="fill:none;stroke:red;stroke-width:1px;stroke-linecap:butt;stroke-linejoin:miter;stroke-opacity:1" d="M 671.785,318.537 720.176,318.537 z" id="boundary" inkscape:connector-curvature="0" />
	<circle cx="4" cy="304.02" r="4" fill="#0" id="circle0"/>
	<circle cx="33.0341" cy="265.307" r="4" fill="#0" id="circle1"/>
	<circle cx="52.3902" cy="318.537" r="4" fill="#0" id="circle2"/>
	<circle cx="81.4244" cy="265.307" r="4" fill="#0" id="circle3"/>
	<circle cx="100.78" cy="318.537" r="4" fill="#0" id="circle4"/>
	<circle cx="129.815" cy="265.307" r="4" fill="#0" id="circle5"/>
	<circle cx="149.171" cy="318.537" r="4" fill="#0" id="circle6"/>
	<circle cx="168.527" cy="952.449" r="4" fill="#0" id="circle7"/>
	<circle cx="178.205" cy="265.307" r="4" fill="#0" id="circle8"/>
	<circle cx="178.205" cy="357.249" r="4" fill="#0" id="circle9"/>
	<circle cx="192.722" cy="996" r="4" fill="#0" id="circle10"/>
	<circle cx="197.561" cy="904.059" r="4" fill="#0" id="circle11"/>
	<circle cx="202.4" cy="400.8" r="4" fill="#0" id="circle12"/>
	<circle cx="216.917" cy="449.19" r="4" fill="#0" id="circle13"/>
	<circle cx="216.917" cy="836.312" r="4" fill="#0" id="circle14"/>
	<circle cx="226.595" cy="236.273" r="4" fill="#0" id="circle15"/>
	<circle cx="226.595" cy="497.58" r="4" fill="#0" id="circle16"/>
	<circle cx="226.595" cy="545.971" r="4" fill="#0" id="circle17"/>
	<circle cx="226.595" cy="594.361" r="4" fill="#0" id="circle18"/>
	<circle cx="226.595" cy="642.751" r="4" fill="#0" id="circle19"/>
	<circle cx="226.595" cy="691.141" r="4" fill="#0" id="circle20"/>
	<circle cx="226.595" cy="739.532" r="4" fill="#0" id="circle21"/>
	<circle cx="226.595" cy="787.922" r="4" fill="#0" id="circle22"/>
	<circle cx="241.112" cy="996" r="4" fill="#0" id="circle23"/>
	<circle cx="255.629" cy="168.527" r="4" fill="#0" id="circle24"/>
	<circle cx="289.502" cy="996" r="4" fill="#0" id="circle25"/>
	<circle cx="304.02" cy="168.527" r="4" fill="#0" id="circle26"/>
	<circle cx="337.893" cy="996" r="4" fill="#0" id="circle27"/>
	<circle cx="352.41" cy="168.527" r="4" fill="#0" id="circle28"/>
	<circle cx="381.444" cy="62.0683" r="4" fill="#0" id="circle29"/>
	<circle cx="386.283" cy="468.546" r="4" fill="#0" id="circle30"/>
	<circle cx="386.283" cy="516.937" r="4" fill="#0" id="circle31"/>
	<circle cx="386.283" cy="565.327" r="4" fill="#0" id="circle32"/>
	<circle cx="386.283" cy="613.717" r="4" fill="#0" id="circle33"/>
	<circle cx="386.283" cy="662.107" r="4" fill="#0" id="circle34"/>
	<circle cx="386.283" cy="710.498" r="4" fill="#0" id="circle35"/>
	<circle cx="386.283" cy="758.888" r="4" fill="#0" id="circle36"/>
	<circle cx="386.283" cy="807.278" r="4" fill="#0" id="circle37"/>
	<circle cx="386.283" cy="855.668" r="4" fill="#0" id="circle38"/>
	<circle cx="386.283" cy="996" r="4" fill="#0" id="circle39"/>
	<circle cx="400.8" cy="168.527" r="4" fill="#0" id="circle40"/>
	<circle cx="410.478" cy="23.3561" r="4" fill="#0" id="circle41"/>
	<circle cx="410.478" cy="899.22" r="4" fill="#0" id="circle42"/>
	<circle cx="434.673" cy="454.029" r="4" fill="#0" id="circle43"/>
	<circle cx="434.673" cy="942.771" r="4" fill="#0" id="circle44"/>
	<circle cx="434.673" cy="996" r="4" fill="#0" id="circle45"/>
	<circle cx="449.19" cy="168.527" r="4" fill="#0" id="circle46"/>
	<circle cx="458.868" cy="4" r="4" fill="#0" id="circle47"/>
	<circle cx="483.063" cy="444.351" r="4" fill="#0" id="circle48"/>
	<circle cx="492.741" cy="42.7122" r="4" fill="#0" id="circle49"/>
	<circle cx="497.58" cy="168.527" r="4" fill="#0" id="circle50"/>
	<circle cx="516.937" cy="86.2634" r="4" fill="#0" id="circle51"/>
	<circle cx="526.615" cy="415.317" r="4" fill="#0" id="circle52"/>
	<circle cx="541.132" cy="42.7122" r="4" fill="#0" id="circle53"/>
	<circle cx="550.81" cy="124.976" r="4" fill="#0" id="circle54"/>
	<circle cx="550.81" cy="173.366" r="4" fill="#0" id="circle55"/>
	<circle cx="550.81" cy="362.088" r="4" fill="#0" id="circle56"/>
	<circle cx="575.005" cy="318.537" r="4" fill="#0" id="circle57"/>
	<circle cx="599.2" cy="168.527" r="4" fill="#0" id="circle58"/>
	<circle cx="623.395" cy="318.537" r="4" fill="#0" id="circle59"/>
	<circle cx="647.59" cy="168.527" r="4" fill="#0" id="circle60"/>
	<circle cx="671.785" cy="318.537" r="4" fill="#0" id="circle61"/>
	<circle cx="695.98" cy="168.527" r="4" fill="#0" id="circle62"/>
	<circle cx="720.176" cy="318.537" r="4" fill="#0" id="circle63"/>
	<circle cx="744.371" cy="168.527" r="4" fill="#0" id="circle64"/>
	<circle cx="754.049" cy="216.917" r="4" fill="#0" id="circle65"/>
	<circle cx="763.727" cy="265.307" r="4" fill="#0" id="circle66"/>
	</g>
</svg>