<?xml version="1.0" encoding="UTF-8" standalone="no"?>
<!-- Created with CurveBenchmark -->
<svg
	xmlns:dc="http://purl.org/dc/elements/1.1/"
	xmlns:cc="http://creativecommons.org/ns#"
	xmlns:rdf="http://www.w3.org/1999/02/22-rdf-syntax-ns#"
	xmlns:svg="http://www.w3.org/2000/svg"
	xmlns="http://www.w3.org/2000/svg"
	xmlns:sodipodi="http://sodipodi.sourceforge.net/DTD/sodipodi-0.dtd"
	xmlns:inkscape="http://www.inkscape.org/namespaces/inkscape"
	width="1000"
	height="1000"
	id="svg2"
	version="1.1"
	sodipodi:docname="manifold/crust-textbox04.png.txt">
<defs
	id="defs4" />
<metadata
	id="metadata7">
	<rdf:RDF>
		<cc:Work
			rdf:about="">
			<dc:format>image/svg+xml</dc:format>
			<dc:type
				rdf:resource="http://purl.org/dc/dcmitype/StillImage" />
			<dc:title></dc:title>
		</cc:Work>
	</rdf:RDF>
</metadata>
<g
	inkscape:label="Layer 1"
	inkscape:groupmode="layer"
	id="layer1">
	<path style="fill:none;stroke:red;stroke-width:1px;stroke-linecap:butt;stroke-linejoin:miter;stroke-opacity:1" d="M 75.512,132.355 88.3475,117.686 z" id="boundary" inkscape:connector-curvature="0" />
	<path style="fill:none;stroke:red;stroke-width:1px;stroke-linecap:butt;stroke-linejoin:miter;stroke-opacity:1" d="M 103.017,104.85 88.3475,117.686 z" id="boundary" inkscape:connector-curvature="0" />
	<path style="fill:none;stroke:red;stroke-width:1px;stroke-linecap:butt;stroke-linejoin:miter;stroke-opacity:1" d="M 103.017,104.85 121.353,104.85 z" id="boundary" inkscape:connector-curvature="0" />
	<path style="fill:none;stroke:red;stroke-width:1px;stroke-linecap:butt;stroke-linejoin:miter;stroke-opacity:1" d="M 128.688,86.5139 121.353,104.85 z" id="boundary" inkscape:connector-curvature="0" />
	<path style="fill:none;stroke:red;stroke-width:1px;stroke-linecap:butt;stroke-linejoin:miter;stroke-opacity:1" d="M 75.512,132.355 60.8429,145.19 z" id="boundary" inkscape:connector-curvature="0" />
	<path style="fill:none;stroke:red;stroke-width:1px;stroke-linecap:butt;stroke-linejoin:miter;stroke-opacity:1" d="M 211.201,49.841 192.865,59.0092 z" id="boundary" inkscape:connector-curvature="0" />
	<path style="fill:none;stroke:red;stroke-width:1px;stroke-linecap:butt;stroke-linejoin:miter;stroke-opacity:1" d="M 192.865,59.0092 174.529,59.0092 z" id="boundary" inkscape:connector-curvature="0" />
	<path style="fill:none;stroke:red;stroke-width:1px;stroke-linecap:butt;stroke-linejoin:miter;stroke-opacity:1" d="M 147.024,77.3457 165.36,77.3457 z" id="boundary" inkscape:connector-curvature="0" />
	<path style="fill:none;stroke:red;stroke-width:1px;stroke-linecap:butt;stroke-linejoin:miter;stroke-opacity:1" d="M 147.024,77.3457 128.688,86.5139 z" id="boundary" inkscape:connector-curvature="0" />
	<path style="fill:none;stroke:red;stroke-width:1px;stroke-linecap:butt;stroke-linejoin:miter;stroke-opacity:1" d="M 174.529,59.0092 165.36,77.3457 z" id="boundary" inkscape:connector-curvature="0" />
	<path style="fill:none;stroke:red;stroke-width:1px;stroke-linecap:butt;stroke-linejoin:miter;stroke-opacity:1" d="M 31.5046,192.865 13.1682,202.033 z" id="boundary" inkscape:connector-curvature="0" />
	<path style="fill:none;stroke:red;stroke-width:1px;stroke-linecap:butt;stroke-linejoin:miter;stroke-opacity:1" d="M 13.1682,202.033 4,229.538 z" id="boundary" inkscape:connector-curvature="0" />
	<path style="fill:none;stroke:red;stroke-width:1px;stroke-linecap:butt;stroke-linejoin:miter;stroke-opacity:1" d="M 31.5046,192.865 31.5046,174.529 z" id="boundary" inkscape:connector-curvature="0" />
	<path style="fill:none;stroke:red;stroke-width:1px;stroke-linecap:butt;stroke-linejoin:miter;stroke-opacity:1" d="M 46.1738,159.86 31.5046,174.529 z" id="boundary" inkscape:connector-curvature="0" />
	<path style="fill:none;stroke:red;stroke-width:1px;stroke-linecap:butt;stroke-linejoin:miter;stroke-opacity:1" d="M 4,247.874 4,229.538 z" id="boundary" inkscape:connector-curvature="0" />
	<path style="fill:none;stroke:red;stroke-width:1px;stroke-linecap:butt;stroke-linejoin:miter;stroke-opacity:1" d="M 4,266.211 4,247.874 z" id="boundary" inkscape:connector-curvature="0" />
	<path style="fill:none;stroke:red;stroke-width:1px;stroke-linecap:butt;stroke-linejoin:miter;stroke-opacity:1" d="M 4,266.211 4,284.547 z" id="boundary" inkscape:connector-curvature="0" />
	<path style="fill:none;stroke:red;stroke-width:1px;stroke-linecap:butt;stroke-linejoin:miter;stroke-opacity:1" d="M 4,302.884 4,284.547 z" id="boundary" inkscape:connector-curvature="0" />
	<path style="fill:none;stroke:red;stroke-width:1px;stroke-linecap:butt;stroke-linejoin:miter;stroke-opacity:1" d="M 4,321.22 4,302.884 z" id="boundary" inkscape:connector-curvature="0" />
	<path style="fill:none;stroke:red;stroke-width:1px;stroke-linecap:butt;stroke-linejoin:miter;stroke-opacity:1" d="M 46.1738,159.86 60.8429,145.19 z" id="boundary" inkscape:connector-curvature="0" />
	<path style="fill:none;stroke:red;stroke-width:1px;stroke-linecap:butt;stroke-linejoin:miter;stroke-opacity:1" d="M 262.543,31.5046 244.207,35.1719 z" id="boundary" inkscape:connector-curvature="0" />
	<path style="fill:none;stroke:red;stroke-width:1px;stroke-linecap:butt;stroke-linejoin:miter;stroke-opacity:1" d="M 297.383,22.3364 315.719,22.3364 z" id="boundary" inkscape:connector-curvature="0" />
	<path style="fill:none;stroke:red;stroke-width:1px;stroke-linecap:butt;stroke-linejoin:miter;stroke-opacity:1" d="M 280.88,31.5046 262.543,31.5046 z" id="boundary" inkscape:connector-curvature="0" />
	<path style="fill:none;stroke:red;stroke-width:1px;stroke-linecap:butt;stroke-linejoin:miter;stroke-opacity:1" d="M 297.383,22.3364 280.88,31.5046 z" id="boundary" inkscape:connector-curvature="0" />
	<path style="fill:none;stroke:red;stroke-width:1px;stroke-linecap:butt;stroke-linejoin:miter;stroke-opacity:1" d="M 229.538,49.841 211.201,49.841 z" id="boundary" inkscape:connector-curvature="0" />
	<path style="fill:none;stroke:red;stroke-width:1px;stroke-linecap:butt;stroke-linejoin:miter;stroke-opacity:1" d="M 244.207,35.1719 229.538,49.841 z" id="boundary" inkscape:connector-curvature="0" />
	<path style="fill:none;stroke:red;stroke-width:1px;stroke-linecap:butt;stroke-linejoin:miter;stroke-opacity:1" d="M 370.728,4 352.392,9.50092 z" id="boundary" inkscape:connector-curvature="0" />
	<path style="fill:none;stroke:red;stroke-width:1px;stroke-linecap:butt;stroke-linejoin:miter;stroke-opacity:1" d="M 389.065,4 407.401,4 z" id="boundary" inkscape:connector-curvature="0" />
	<path style="fill:none;stroke:red;stroke-width:1px;stroke-linecap:butt;stroke-linejoin:miter;stroke-opacity:1" d="M 389.065,4 370.728,4 z" id="boundary" inkscape:connector-curvature="0" />
	<path style="fill:none;stroke:red;stroke-width:1px;stroke-linecap:butt;stroke-linejoin:miter;stroke-opacity:1" d="M 407.401,4 425.738,4 z" id="boundary" inkscape:connector-curvature="0" />
	<path style="fill:none;stroke:red;stroke-width:1px;stroke-linecap:butt;stroke-linejoin:miter;stroke-opacity:1" d="M 334.055,22.3364 315.719,22.3364 z" id="boundary" inkscape:connector-curvature="0" />
	<path style="fill:none;stroke:red;stroke-width:1px;stroke-linecap:butt;stroke-linejoin:miter;stroke-opacity:1" d="M 352.392,9.50092 334.055,22.3364 z" id="boundary" inkscape:connector-curvature="0" />
	<path style="fill:none;stroke:red;stroke-width:1px;stroke-linecap:butt;stroke-linejoin:miter;stroke-opacity:1" d="M 444.074,4 425.738,4 z" id="boundary" inkscape:connector-curvature="0" />
	<path style="fill:none;stroke:red;stroke-width:1px;stroke-linecap:butt;stroke-linejoin:miter;stroke-opacity:1" d="M 444.074,4 462.41,4 z" id="boundary" inkscape:connector-curvature="0" />
	<path style="fill:none;stroke:red;stroke-width:1px;stroke-linecap:butt;stroke-linejoin:miter;stroke-opacity:1" d="M 480.747,4 462.41,4 z" id="boundary" inkscape:connector-curvature="0" />
	<path style="fill:none;stroke:red;stroke-width:1px;stroke-linecap:butt;stroke-linejoin:miter;stroke-opacity:1" d="M 4,339.556 4,357.893 z" id="boundary" inkscape:connector-curvature="0" />
	<path style="fill:none;stroke:red;stroke-width:1px;stroke-linecap:butt;stroke-linejoin:miter;stroke-opacity:1" d="M 4,321.22 4,339.556 z" id="boundary" inkscape:connector-curvature="0" />
	<path style="fill:none;stroke:red;stroke-width:1px;stroke-linecap:butt;stroke-linejoin:miter;stroke-opacity:1" d="M 13.1682,374.396 4,357.893 z" id="boundary" inkscape:connector-curvature="0" />
	<path style="fill:none;stroke:red;stroke-width:1px;stroke-linecap:butt;stroke-linejoin:miter;stroke-opacity:1" d="M 13.1682,374.396 13.1682,392.732 z" id="boundary" inkscape:connector-curvature="0" />
	<path style="fill:none;stroke:red;stroke-width:1px;stroke-linecap:butt;stroke-linejoin:miter;stroke-opacity:1" d="M 13.1682,392.732 31.5046,400.067 z" id="boundary" inkscape:connector-curvature="0" />
	<path style="fill:none;stroke:red;stroke-width:1px;stroke-linecap:butt;stroke-linejoin:miter;stroke-opacity:1" d="M 55.342,427.571 40.6728,416.569 z" id="boundary" inkscape:connector-curvature="0" />
	<path style="fill:none;stroke:red;stroke-width:1px;stroke-linecap:butt;stroke-linejoin:miter;stroke-opacity:1" d="M 31.5046,400.067 40.6728,416.569 z" id="boundary" inkscape:connector-curvature="0" />
	<path style="fill:none;stroke:red;stroke-width:1px;stroke-linecap:butt;stroke-linejoin:miter;stroke-opacity:1" d="M 55.342,427.571 68.1774,442.24 z" id="boundary" inkscape:connector-curvature="0" />
	<path style="fill:none;stroke:red;stroke-width:1px;stroke-linecap:butt;stroke-linejoin:miter;stroke-opacity:1" d="M 68.1774,442.24 82.8466,455.076 z" id="boundary" inkscape:connector-curvature="0" />
	<path style="fill:none;stroke:red;stroke-width:1px;stroke-linecap:butt;stroke-linejoin:miter;stroke-opacity:1" d="M 95.6821,469.745 82.8466,455.076 z" id="boundary" inkscape:connector-curvature="0" />
	<path style="fill:none;stroke:red;stroke-width:1px;stroke-linecap:butt;stroke-linejoin:miter;stroke-opacity:1" d="M 128.688,489.915 110.351,482.58 z" id="boundary" inkscape:connector-curvature="0" />
	<path style="fill:none;stroke:red;stroke-width:1px;stroke-linecap:butt;stroke-linejoin:miter;stroke-opacity:1" d="M 110.351,482.58 95.6821,469.745 z" id="boundary" inkscape:connector-curvature="0" />
	<path style="fill:none;stroke:red;stroke-width:1px;stroke-linecap:butt;stroke-linejoin:miter;stroke-opacity:1" d="M 147.024,491.749 128.688,489.915 z" id="boundary" inkscape:connector-curvature="0" />
	<path style="fill:none;stroke:red;stroke-width:1px;stroke-linecap:butt;stroke-linejoin:miter;stroke-opacity:1" d="M 123.187,550.425 114.018,577.93 z" id="boundary" inkscape:connector-curvature="0" />
	<path style="fill:none;stroke:red;stroke-width:1px;stroke-linecap:butt;stroke-linejoin:miter;stroke-opacity:1" d="M 147.024,491.749 141.523,522.921 z" id="boundary" inkscape:connector-curvature="0" />
	<path style="fill:none;stroke:red;stroke-width:1px;stroke-linecap:butt;stroke-linejoin:miter;stroke-opacity:1" d="M 141.523,522.921 141.523,541.257 z" id="boundary" inkscape:connector-curvature="0" />
	<path style="fill:none;stroke:red;stroke-width:1px;stroke-linecap:butt;stroke-linejoin:miter;stroke-opacity:1" d="M 123.187,550.425 141.523,541.257 z" id="boundary" inkscape:connector-curvature="0" />
	<path style="fill:none;stroke:red;stroke-width:1px;stroke-linecap:butt;stroke-linejoin:miter;stroke-opacity:1" d="M 132.355,583.431 114.018,577.93 z" id="boundary" inkscape:connector-curvature="0" />
	<path style="fill:none;stroke:red;stroke-width:1px;stroke-linecap:butt;stroke-linejoin:miter;stroke-opacity:1" d="M 169.028,583.431 150.691,583.431 z" id="boundary" inkscape:connector-curvature="0" />
	<path style="fill:none;stroke:red;stroke-width:1px;stroke-linecap:butt;stroke-linejoin:miter;stroke-opacity:1" d="M 132.355,583.431 150.691,583.431 z" id="boundary" inkscape:connector-curvature="0" />
	<path style="fill:none;stroke:red;stroke-width:1px;stroke-linecap:butt;stroke-linejoin:miter;stroke-opacity:1" d="M 313.885,570.595 324.887,555.926 z" id="boundary" inkscape:connector-curvature="0" />
	<path style="fill:none;stroke:red;stroke-width:1px;stroke-linecap:butt;stroke-linejoin:miter;stroke-opacity:1" d="M 343.224,555.926 324.887,555.926 z" id="boundary" inkscape:connector-curvature="0" />
	<path style="fill:none;stroke:red;stroke-width:1px;stroke-linecap:butt;stroke-linejoin:miter;stroke-opacity:1" d="M 361.56,555.926 367.061,574.262 z" id="boundary" inkscape:connector-curvature="0" />
	<path style="fill:none;stroke:red;stroke-width:1px;stroke-linecap:butt;stroke-linejoin:miter;stroke-opacity:1" d="M 343.224,555.926 361.56,555.926 z" id="boundary" inkscape:connector-curvature="0" />
	<path style="fill:none;stroke:red;stroke-width:1px;stroke-linecap:butt;stroke-linejoin:miter;stroke-opacity:1" d="M 313.885,570.595 295.549,574.262 z" id="boundary" inkscape:connector-curvature="0" />
	<path style="fill:none;stroke:red;stroke-width:1px;stroke-linecap:butt;stroke-linejoin:miter;stroke-opacity:1" d="M 187.364,583.431 205.701,583.431 z" id="boundary" inkscape:connector-curvature="0" />
	<path style="fill:none;stroke:red;stroke-width:1px;stroke-linecap:butt;stroke-linejoin:miter;stroke-opacity:1" d="M 242.373,583.431 224.037,583.431 z" id="boundary" inkscape:connector-curvature="0" />
	<path style="fill:none;stroke:red;stroke-width:1px;stroke-linecap:butt;stroke-linejoin:miter;stroke-opacity:1" d="M 224.037,583.431 205.701,583.431 z" id="boundary" inkscape:connector-curvature="0" />
	<path style="fill:none;stroke:red;stroke-width:1px;stroke-linecap:butt;stroke-linejoin:miter;stroke-opacity:1" d="M 295.549,574.262 279.046,583.431 z" id="boundary" inkscape:connector-curvature="0" />
	<path style="fill:none;stroke:red;stroke-width:1px;stroke-linecap:butt;stroke-linejoin:miter;stroke-opacity:1" d="M 242.373,583.431 260.71,583.431 z" id="boundary" inkscape:connector-curvature="0" />
	<path style="fill:none;stroke:red;stroke-width:1px;stroke-linecap:butt;stroke-linejoin:miter;stroke-opacity:1" d="M 279.046,583.431 260.71,583.431 z" id="boundary" inkscape:connector-curvature="0" />
	<path style="fill:none;stroke:red;stroke-width:1px;stroke-linecap:butt;stroke-linejoin:miter;stroke-opacity:1" d="M 385.397,574.262 367.061,574.262 z" id="boundary" inkscape:connector-curvature="0" />
	<path style="fill:none;stroke:red;stroke-width:1px;stroke-linecap:butt;stroke-linejoin:miter;stroke-opacity:1" d="M 403.734,574.262 385.397,574.262 z" id="boundary" inkscape:connector-curvature="0" />
	<path style="fill:none;stroke:red;stroke-width:1px;stroke-linecap:butt;stroke-linejoin:miter;stroke-opacity:1" d="M 422.07,574.262 440.407,574.262 z" id="boundary" inkscape:connector-curvature="0" />
	<path style="fill:none;stroke:red;stroke-width:1px;stroke-linecap:butt;stroke-linejoin:miter;stroke-opacity:1" d="M 458.743,574.262 440.407,574.262 z" id="boundary" inkscape:connector-curvature="0" />
	<path style="fill:none;stroke:red;stroke-width:1px;stroke-linecap:butt;stroke-linejoin:miter;stroke-opacity:1" d="M 422.07,574.262 403.734,574.262 z" id="boundary" inkscape:connector-curvature="0" />
	<path style="fill:none;stroke:red;stroke-width:1px;stroke-linecap:butt;stroke-linejoin:miter;stroke-opacity:1" d="M 458.743,574.262 475.246,583.431 z" id="boundary" inkscape:connector-curvature="0" />
	<path style="fill:none;stroke:red;stroke-width:1px;stroke-linecap:butt;stroke-linejoin:miter;stroke-opacity:1" d="M 169.028,583.431 187.364,583.431 z" id="boundary" inkscape:connector-curvature="0" />
	<path style="fill:none;stroke:red;stroke-width:1px;stroke-linecap:butt;stroke-linejoin:miter;stroke-opacity:1" d="M 517.42,4 499.083,4 z" id="boundary" inkscape:connector-curvature="0" />
	<path style="fill:none;stroke:red;stroke-width:1px;stroke-linecap:butt;stroke-linejoin:miter;stroke-opacity:1" d="M 517.42,4 535.756,4 z" id="boundary" inkscape:connector-curvature="0" />
	<path style="fill:none;stroke:red;stroke-width:1px;stroke-linecap:butt;stroke-linejoin:miter;stroke-opacity:1" d="M 554.092,4 535.756,4 z" id="boundary" inkscape:connector-curvature="0" />
	<path style="fill:none;stroke:red;stroke-width:1px;stroke-linecap:butt;stroke-linejoin:miter;stroke-opacity:1" d="M 572.429,4 590.765,4 z" id="boundary" inkscape:connector-curvature="0" />
	<path style="fill:none;stroke:red;stroke-width:1px;stroke-linecap:butt;stroke-linejoin:miter;stroke-opacity:1" d="M 609.102,4 590.765,4 z" id="boundary" inkscape:connector-curvature="0" />
	<path style="fill:none;stroke:red;stroke-width:1px;stroke-linecap:butt;stroke-linejoin:miter;stroke-opacity:1" d="M 627.438,4 645.774,7.66728 z" id="boundary" inkscape:connector-curvature="0" />
	<path style="fill:none;stroke:red;stroke-width:1px;stroke-linecap:butt;stroke-linejoin:miter;stroke-opacity:1" d="M 645.774,7.66728 656.776,22.3364 z" id="boundary" inkscape:connector-curvature="0" />
	<path style="fill:none;stroke:red;stroke-width:1px;stroke-linecap:butt;stroke-linejoin:miter;stroke-opacity:1" d="M 609.102,4 627.438,4 z" id="boundary" inkscape:connector-curvature="0" />
	<path style="fill:none;stroke:red;stroke-width:1px;stroke-linecap:butt;stroke-linejoin:miter;stroke-opacity:1" d="M 554.092,4 572.429,4 z" id="boundary" inkscape:connector-curvature="0" />
	<path style="fill:none;stroke:red;stroke-width:1px;stroke-linecap:butt;stroke-linejoin:miter;stroke-opacity:1" d="M 675.113,22.3364 656.776,22.3364 z" id="boundary" inkscape:connector-curvature="0" />
	<path style="fill:none;stroke:red;stroke-width:1px;stroke-linecap:butt;stroke-linejoin:miter;stroke-opacity:1" d="M 675.113,22.3364 693.449,22.3364 z" id="boundary" inkscape:connector-curvature="0" />
	<path style="fill:none;stroke:red;stroke-width:1px;stroke-linecap:butt;stroke-linejoin:miter;stroke-opacity:1" d="M 711.786,27.8373 693.449,22.3364 z" id="boundary" inkscape:connector-curvature="0" />
	<path style="fill:none;stroke:red;stroke-width:1px;stroke-linecap:butt;stroke-linejoin:miter;stroke-opacity:1" d="M 730.122,31.5046 711.786,27.8373 z" id="boundary" inkscape:connector-curvature="0" />
	<path style="fill:none;stroke:red;stroke-width:1px;stroke-linecap:butt;stroke-linejoin:miter;stroke-opacity:1" d="M 748.458,31.5046 730.122,31.5046 z" id="boundary" inkscape:connector-curvature="0" />
	<path style="fill:none;stroke:red;stroke-width:1px;stroke-linecap:butt;stroke-linejoin:miter;stroke-opacity:1" d="M 757.627,48.0074 748.458,31.5046 z" id="boundary" inkscape:connector-curvature="0" />
	<path style="fill:none;stroke:red;stroke-width:1px;stroke-linecap:butt;stroke-linejoin:miter;stroke-opacity:1" d="M 794.299,55.342 775.963,49.841 z" id="boundary" inkscape:connector-curvature="0" />
	<path style="fill:none;stroke:red;stroke-width:1px;stroke-linecap:butt;stroke-linejoin:miter;stroke-opacity:1" d="M 499.083,4 480.747,4 z" id="boundary" inkscape:connector-curvature="0" />
	<path style="fill:none;stroke:red;stroke-width:1px;stroke-linecap:butt;stroke-linejoin:miter;stroke-opacity:1" d="M 775.963,49.841 757.627,48.0074 z" id="boundary" inkscape:connector-curvature="0" />
	<path style="fill:none;stroke:red;stroke-width:1px;stroke-linecap:butt;stroke-linejoin:miter;stroke-opacity:1" d="M 830.972,64.5102 812.636,59.0092 z" id="boundary" inkscape:connector-curvature="0" />
	<path style="fill:none;stroke:red;stroke-width:1px;stroke-linecap:butt;stroke-linejoin:miter;stroke-opacity:1" d="M 812.636,59.0092 794.299,55.342 z" id="boundary" inkscape:connector-curvature="0" />
	<path style="fill:none;stroke:red;stroke-width:1px;stroke-linecap:butt;stroke-linejoin:miter;stroke-opacity:1" d="M 830.972,64.5102 845.641,77.3457 z" id="boundary" inkscape:connector-curvature="0" />
	<path style="fill:none;stroke:red;stroke-width:1px;stroke-linecap:butt;stroke-linejoin:miter;stroke-opacity:1" d="M 862.144,86.5139 845.641,77.3457 z" id="boundary" inkscape:connector-curvature="0" />
	<path style="fill:none;stroke:red;stroke-width:1px;stroke-linecap:butt;stroke-linejoin:miter;stroke-opacity:1" d="M 862.144,86.5139 876.813,97.5157 z" id="boundary" inkscape:connector-curvature="0" />
	<path style="fill:none;stroke:red;stroke-width:1px;stroke-linecap:butt;stroke-linejoin:miter;stroke-opacity:1" d="M 876.813,97.5157 895.15,104.85 z" id="boundary" inkscape:connector-curvature="0" />
	<path style="fill:none;stroke:red;stroke-width:1px;stroke-linecap:butt;stroke-linejoin:miter;stroke-opacity:1" d="M 909.819,115.852 918.987,132.355 z" id="boundary" inkscape:connector-curvature="0" />
	<path style="fill:none;stroke:red;stroke-width:1px;stroke-linecap:butt;stroke-linejoin:miter;stroke-opacity:1" d="M 909.819,115.852 895.15,104.85 z" id="boundary" inkscape:connector-curvature="0" />
	<path style="fill:none;stroke:red;stroke-width:1px;stroke-linecap:butt;stroke-linejoin:miter;stroke-opacity:1" d="M 935.49,141.523 918.987,132.355 z" id="boundary" inkscape:connector-curvature="0" />
	<path style="fill:none;stroke:red;stroke-width:1px;stroke-linecap:butt;stroke-linejoin:miter;stroke-opacity:1" d="M 940.991,159.86 935.49,141.523 z" id="boundary" inkscape:connector-curvature="0" />
	<path style="fill:none;stroke:red;stroke-width:1px;stroke-linecap:butt;stroke-linejoin:miter;stroke-opacity:1" d="M 940.991,159.86 959.327,165.36 z" id="boundary" inkscape:connector-curvature="0" />
	<path style="fill:none;stroke:red;stroke-width:1px;stroke-linecap:butt;stroke-linejoin:miter;stroke-opacity:1" d="M 968.495,181.863 973.996,200.2 z" id="boundary" inkscape:connector-curvature="0" />
	<path style="fill:none;stroke:red;stroke-width:1px;stroke-linecap:butt;stroke-linejoin:miter;stroke-opacity:1" d="M 968.495,181.863 959.327,165.36 z" id="boundary" inkscape:connector-curvature="0" />
	<path style="fill:none;stroke:red;stroke-width:1px;stroke-linecap:butt;stroke-linejoin:miter;stroke-opacity:1" d="M 973.996,200.2 977.664,218.536 z" id="boundary" inkscape:connector-curvature="0" />
	<path style="fill:none;stroke:red;stroke-width:1px;stroke-linecap:butt;stroke-linejoin:miter;stroke-opacity:1" d="M 994.166,227.704 977.664,218.536 z" id="boundary" inkscape:connector-curvature="0" />
	<path style="fill:none;stroke:red;stroke-width:1px;stroke-linecap:butt;stroke-linejoin:miter;stroke-opacity:1" d="M 994.166,227.704 996,246.041 z" id="boundary" inkscape:connector-curvature="0" />
	<path style="fill:none;stroke:red;stroke-width:1px;stroke-linecap:butt;stroke-linejoin:miter;stroke-opacity:1" d="M 996,246.041 996,264.377 z" id="boundary" inkscape:connector-curvature="0" />
	<path style="fill:none;stroke:red;stroke-width:1px;stroke-linecap:butt;stroke-linejoin:miter;stroke-opacity:1" d="M 996,282.713 996,264.377 z" id="boundary" inkscape:connector-curvature="0" />
	<path style="fill:none;stroke:red;stroke-width:1px;stroke-linecap:butt;stroke-linejoin:miter;stroke-opacity:1" d="M 665.945,555.926 647.608,555.926 z" id="boundary" inkscape:connector-curvature="0" />
	<path style="fill:none;stroke:red;stroke-width:1px;stroke-linecap:butt;stroke-linejoin:miter;stroke-opacity:1" d="M 755.793,541.257 737.457,546.758 z" id="boundary" inkscape:connector-curvature="0" />
	<path style="fill:none;stroke:red;stroke-width:1px;stroke-linecap:butt;stroke-linejoin:miter;stroke-opacity:1" d="M 770.462,528.421 755.793,541.257 z" id="boundary" inkscape:connector-curvature="0" />
	<path style="fill:none;stroke:red;stroke-width:1px;stroke-linecap:butt;stroke-linejoin:miter;stroke-opacity:1" d="M 737.457,546.758 719.12,546.758 z" id="boundary" inkscape:connector-curvature="0" />
	<path style="fill:none;stroke:red;stroke-width:1px;stroke-linecap:butt;stroke-linejoin:miter;stroke-opacity:1" d="M 719.12,546.758 702.617,555.926 z" id="boundary" inkscape:connector-curvature="0" />
	<path style="fill:none;stroke:red;stroke-width:1px;stroke-linecap:butt;stroke-linejoin:miter;stroke-opacity:1" d="M 493.582,583.431 475.246,583.431 z" id="boundary" inkscape:connector-curvature="0" />
	<path style="fill:none;stroke:red;stroke-width:1px;stroke-linecap:butt;stroke-linejoin:miter;stroke-opacity:1" d="M 546.758,574.262 530.255,583.431 z" id="boundary" inkscape:connector-curvature="0" />
	<path style="fill:none;stroke:red;stroke-width:1px;stroke-linecap:butt;stroke-linejoin:miter;stroke-opacity:1" d="M 546.758,574.262 565.094,574.262 z" id="boundary" inkscape:connector-curvature="0" />
	<path style="fill:none;stroke:red;stroke-width:1px;stroke-linecap:butt;stroke-linejoin:miter;stroke-opacity:1" d="M 583.431,574.262 565.094,574.262 z" id="boundary" inkscape:connector-curvature="0" />
	<path style="fill:none;stroke:red;stroke-width:1px;stroke-linecap:butt;stroke-linejoin:miter;stroke-opacity:1" d="M 601.767,574.262 583.431,574.262 z" id="boundary" inkscape:connector-curvature="0" />
	<path style="fill:none;stroke:red;stroke-width:1px;stroke-linecap:butt;stroke-linejoin:miter;stroke-opacity:1" d="M 493.582,583.431 511.919,583.431 z" id="boundary" inkscape:connector-curvature="0" />
	<path style="fill:none;stroke:red;stroke-width:1px;stroke-linecap:butt;stroke-linejoin:miter;stroke-opacity:1" d="M 530.255,583.431 511.919,583.431 z" id="boundary" inkscape:connector-curvature="0" />
	<path style="fill:none;stroke:red;stroke-width:1px;stroke-linecap:butt;stroke-linejoin:miter;stroke-opacity:1" d="M 601.767,574.262 620.104,574.262 z" id="boundary" inkscape:connector-curvature="0" />
	<path style="fill:none;stroke:red;stroke-width:1px;stroke-linecap:butt;stroke-linejoin:miter;stroke-opacity:1" d="M 638.44,574.262 620.104,574.262 z" id="boundary" inkscape:connector-curvature="0" />
	<path style="fill:none;stroke:red;stroke-width:1px;stroke-linecap:butt;stroke-linejoin:miter;stroke-opacity:1" d="M 638.44,574.262 647.608,555.926 z" id="boundary" inkscape:connector-curvature="0" />
	<path style="fill:none;stroke:red;stroke-width:1px;stroke-linecap:butt;stroke-linejoin:miter;stroke-opacity:1" d="M 665.945,555.926 684.281,555.926 z" id="boundary" inkscape:connector-curvature="0" />
	<path style="fill:none;stroke:red;stroke-width:1px;stroke-linecap:butt;stroke-linejoin:miter;stroke-opacity:1" d="M 702.617,555.926 684.281,555.926 z" id="boundary" inkscape:connector-curvature="0" />
	<path style="fill:none;stroke:red;stroke-width:1px;stroke-linecap:butt;stroke-linejoin:miter;stroke-opacity:1" d="M 996,301.05 996,319.386 z" id="boundary" inkscape:connector-curvature="0" />
	<path style="fill:none;stroke:red;stroke-width:1px;stroke-linecap:butt;stroke-linejoin:miter;stroke-opacity:1" d="M 996,337.723 996,319.386 z" id="boundary" inkscape:connector-curvature="0" />
	<path style="fill:none;stroke:red;stroke-width:1px;stroke-linecap:butt;stroke-linejoin:miter;stroke-opacity:1" d="M 996,337.723 977.664,354.226 z" id="boundary" inkscape:connector-curvature="0" />
	<path style="fill:none;stroke:red;stroke-width:1px;stroke-linecap:butt;stroke-linejoin:miter;stroke-opacity:1" d="M 948.325,427.571 931.823,436.739 z" id="boundary" inkscape:connector-curvature="0" />
	<path style="fill:none;stroke:red;stroke-width:1px;stroke-linecap:butt;stroke-linejoin:miter;stroke-opacity:1" d="M 959.327,409.235 948.325,427.571 z" id="boundary" inkscape:connector-curvature="0" />
	<path style="fill:none;stroke:red;stroke-width:1px;stroke-linecap:butt;stroke-linejoin:miter;stroke-opacity:1" d="M 968.495,381.73 977.664,354.226 z" id="boundary" inkscape:connector-curvature="0" />
	<path style="fill:none;stroke:red;stroke-width:1px;stroke-linecap:butt;stroke-linejoin:miter;stroke-opacity:1" d="M 968.495,381.73 959.327,409.235 z" id="boundary" inkscape:connector-curvature="0" />
	<path style="fill:none;stroke:red;stroke-width:1px;stroke-linecap:butt;stroke-linejoin:miter;stroke-opacity:1" d="M 996,282.713 996,301.05 z" id="boundary" inkscape:connector-curvature="0" />
	<path style="fill:none;stroke:red;stroke-width:1px;stroke-linecap:butt;stroke-linejoin:miter;stroke-opacity:1" d="M 931.823,436.739 920.821,455.076 z" id="boundary" inkscape:connector-curvature="0" />
	<path style="fill:none;stroke:red;stroke-width:1px;stroke-linecap:butt;stroke-linejoin:miter;stroke-opacity:1" d="M 825.471,517.42 834.64,500.917 z" id="boundary" inkscape:connector-curvature="0" />
	<path style="fill:none;stroke:red;stroke-width:1px;stroke-linecap:butt;stroke-linejoin:miter;stroke-opacity:1" d="M 852.976,499.083 834.64,500.917 z" id="boundary" inkscape:connector-curvature="0" />
	<path style="fill:none;stroke:red;stroke-width:1px;stroke-linecap:butt;stroke-linejoin:miter;stroke-opacity:1" d="M 825.471,517.42 807.135,519.253 z" id="boundary" inkscape:connector-curvature="0" />
	<path style="fill:none;stroke:red;stroke-width:1px;stroke-linecap:butt;stroke-linejoin:miter;stroke-opacity:1" d="M 770.462,528.421 788.799,526.588 z" id="boundary" inkscape:connector-curvature="0" />
	<path style="fill:none;stroke:red;stroke-width:1px;stroke-linecap:butt;stroke-linejoin:miter;stroke-opacity:1" d="M 788.799,526.588 807.135,519.253 z" id="boundary" inkscape:connector-curvature="0" />
	<path style="fill:none;stroke:red;stroke-width:1px;stroke-linecap:butt;stroke-linejoin:miter;stroke-opacity:1" d="M 852.976,499.083 871.312,489.915 z" id="boundary" inkscape:connector-curvature="0" />
	<path style="fill:none;stroke:red;stroke-width:1px;stroke-linecap:butt;stroke-linejoin:miter;stroke-opacity:1" d="M 904.318,464.244 889.649,482.58 z" id="boundary" inkscape:connector-curvature="0" />
	<path style="fill:none;stroke:red;stroke-width:1px;stroke-linecap:butt;stroke-linejoin:miter;stroke-opacity:1" d="M 889.649,482.58 871.312,489.915 z" id="boundary" inkscape:connector-curvature="0" />
	<path style="fill:none;stroke:red;stroke-width:1px;stroke-linecap:butt;stroke-linejoin:miter;stroke-opacity:1" d="M 920.821,455.076 904.318,464.244 z" id="boundary" inkscape:connector-curvature="0" />
	<circle cx="4" cy="229.538" r="4" fill="#0" id="circle0"/>
	<circle cx="4" cy="247.874" r="4" fill="#0" id="circle1"/>
	<circle cx="4" cy="266.211" r="4" fill="#0" id="circle2"/>
	<circle cx="4" cy="284.547" r="4" fill="#0" id="circle3"/>
	<circle cx="4" cy="302.884" r="4" fill="#0" id="circle4"/>
	<circle cx="4" cy="321.22" r="4" fill="#0" id="circle5"/>
	<circle cx="4" cy="339.556" r="4" fill="#0" id="circle6"/>
	<circle cx="4" cy="357.893" r="4" fill="#0" id="circle7"/>
	<circle cx="13.1682" cy="202.033" r="4" fill="#0" id="circle8"/>
	<circle cx="13.1682" cy="374.396" r="4" fill="#0" id="circle9"/>
	<circle cx="13.1682" cy="392.732" r="4" fill="#0" id="circle10"/>
	<circle cx="31.5046" cy="174.529" r="4" fill="#0" id="circle11"/>
	<circle cx="31.5046" cy="192.865" r="4" fill="#0" id="circle12"/>
	<circle cx="31.5046" cy="400.067" r="4" fill="#0" id="circle13"/>
	<circle cx="40.6728" cy="416.569" r="4" fill="#0" id="circle14"/>
	<circle cx="46.1738" cy="159.86" r="4" fill="#0" id="circle15"/>
	<circle cx="55.342" cy="427.571" r="4" fill="#0" id="circle16"/>
	<circle cx="60.8429" cy="145.19" r="4" fill="#0" id="circle17"/>
	<circle cx="68.1774" cy="442.24" r="4" fill="#0" id="circle18"/>
	<circle cx="75.512" cy="132.355" r="4" fill="#0" id="circle19"/>
	<circle cx="82.8466" cy="455.076" r="4" fill="#0" id="circle20"/>
	<circle cx="88.3475" cy="117.686" r="4" fill="#0" id="circle21"/>
	<circle cx="95.6821" cy="469.745" r="4" fill="#0" id="circle22"/>
	<circle cx="103.017" cy="104.85" r="4" fill="#0" id="circle23"/>
	<circle cx="110.351" cy="482.58" r="4" fill="#0" id="circle24"/>
	<circle cx="114.018" cy="577.93" r="4" fill="#0" id="circle25"/>
	<circle cx="121.353" cy="104.85" r="4" fill="#0" id="circle26"/>
	<circle cx="123.187" cy="550.425" r="4" fill="#0" id="circle27"/>
	<circle cx="128.688" cy="86.5139" r="4" fill="#0" id="circle28"/>
	<circle cx="128.688" cy="489.915" r="4" fill="#0" id="circle29"/>
	<circle cx="132.355" cy="583.431" r="4" fill="#0" id="circle30"/>
	<circle cx="141.523" cy="522.921" r="4" fill="#0" id="circle31"/>
	<circle cx="141.523" cy="541.257" r="4" fill="#0" id="circle32"/>
	<circle cx="147.024" cy="77.3457" r="4" fill="#0" id="circle33"/>
	<circle cx="147.024" cy="491.749" r="4" fill="#0" id="circle34"/>
	<circle cx="150.691" cy="583.431" r="4" fill="#0" id="circle35"/>
	<circle cx="165.36" cy="77.3457" r="4" fill="#0" id="circle36"/>
	<circle cx="169.028" cy="583.431" r="4" fill="#0" id="circle37"/>
	<circle cx="174.529" cy="59.0092" r="4" fill="#0" id="circle38"/>
	<circle cx="187.364" cy="583.431" r="4" fill="#0" id="circle39"/>
	<circle cx="192.865" cy="59.0092" r="4" fill="#0" id="circle40"/>
	<circle cx="205.701" cy="583.431" r="4" fill="#0" id="circle41"/>
	<circle cx="211.201" cy="49.841" r="4" fill="#0" id="circle42"/>
	<circle cx="224.037" cy="583.431" r="4" fill="#0" id="circle43"/>
	<circle cx="229.538" cy="49.841" r="4" fill="#0" id="circle44"/>
	<circle cx="242.373" cy="583.431" r="4" fill="#0" id="circle45"/>
	<circle cx="244.207" cy="35.1719" r="4" fill="#0" id="circle46"/>
	<circle cx="260.71" cy="583.431" r="4" fill="#0" id="circle47"/>
	<circle cx="262.543" cy="31.5046" r="4" fill="#0" id="circle48"/>
	<circle cx="279.046" cy="583.431" r="4" fill="#0" id="circle49"/>
	<circle cx="280.88" cy="31.5046" r="4" fill="#0" id="circle50"/>
	<circle cx="295.549" cy="574.262" r="4" fill="#0" id="circle51"/>
	<circle cx="297.383" cy="22.3364" r="4" fill="#0" id="circle52"/>
	<circle cx="313.885" cy="570.595" r="4" fill="#0" id="circle53"/>
	<circle cx="315.719" cy="22.3364" r="4" fill="#0" id="circle54"/>
	<circle cx="324.887" cy="555.926" r="4" fill="#0" id="circle55"/>
	<circle cx="334.055" cy="22.3364" r="4" fill="#0" id="circle56"/>
	<circle cx="343.224" cy="555.926" r="4" fill="#0" id="circle57"/>
	<circle cx="352.392" cy="9.50092" r="4" fill="#0" id="circle58"/>
	<circle cx="361.56" cy="555.926" r="4" fill="#0" id="circle59"/>
	<circle cx="367.061" cy="574.262" r="4" fill="#0" id="circle60"/>
	<circle cx="370.728" cy="4" r="4" fill="#0" id="circle61"/>
	<circle cx="385.397" cy="574.262" r="4" fill="#0" id="circle62"/>
	<circle cx="389.065" cy="4" r="4" fill="#0" id="circle63"/>
	<circle cx="403.734" cy="574.262" r="4" fill="#0" id="circle64"/>
	<circle cx="407.401" cy="4" r="4" fill="#0" id="circle65"/>
	<circle cx="422.07" cy="574.262" r="4" fill="#0" id="circle66"/>
	<circle cx="425.738" cy="4" r="4" fill="#0" id="circle67"/>
	<circle cx="440.407" cy="574.262" r="4" fill="#0" id="circle68"/>
	<circle cx="444.074" cy="4" r="4" fill="#0" id="circle69"/>
	<circle cx="458.743" cy="574.262" r="4" fill="#0" id="circle70"/>
	<circle cx="462.41" cy="4" r="4" fill="#0" id="circle71"/>
	<circle cx="475.246" cy="583.431" r="4" fill="#0" id="circle72"/>
	<circle cx="480.747" cy="4" r="4" fill="#0" id="circle73"/>
	<circle cx="493.582" cy="583.431" r="4" fill="#0" id="circle74"/>
	<circle cx="499.083" cy="4" r="4" fill="#0" id="circle75"/>
	<circle cx="511.919" cy="583.431" r="4" fill="#0" id="circle76"/>
	<circle cx="517.42" cy="4" r="4" fill="#0" id="circle77"/>
	<circle cx="530.255" cy="583.431" r="4" fill="#0" id="circle78"/>
	<circle cx="535.756" cy="4" r="4" fill="#0" id="circle79"/>
	<circle cx="546.758" cy="574.262" r="4" fill="#0" id="circle80"/>
	<circle cx="554.092" cy="4" r="4" fill="#0" id="circle81"/>
	<circle cx="565.094" cy="574.262" r="4" fill="#0" id="circle82"/>
	<circle cx="572.429" cy="4" r="4" fill="#0" id="circle83"/>
	<circle cx="583.431" cy="574.262" r="4" fill="#0" id="circle84"/>
	<circle cx="590.765" cy="4" r="4" fill="#0" id="circle85"/>
	<circle cx="601.767" cy="574.262" r="4" fill="#0" id="circle86"/>
	<circle cx="609.102" cy="4" r="4" fill="#0" id="circle87"/>
	<circle cx="620.104" cy="574.262" r="4" fill="#0" id="circle88"/>
	<circle cx="627.438" cy="4" r="4" fill="#0" id="circle89"/>
	<circle cx="638.44" cy="574.262" r="4" fill="#0" id="circle90"/>
	<circle cx="645.774" cy="7.66728" r="4" fill="#0" id="circle91"/>
	<circle cx="647.608" cy="555.926" r="4" fill="#0" id="circle92"/>
	<circle cx="656.776" cy="22.3364" r="4" fill="#0" id="circle93"/>
	<circle cx="665.945" cy="555.926" r="4" fill="#0" id="circle94"/>
	<circle cx="675.113" cy="22.3364" r="4" fill="#0" id="circle95"/>
	<circle cx="684.281" cy="555.926" r="4" fill="#0" id="circle96"/>
	<circle cx="693.449" cy="22.3364" r="4" fill="#0" id="circle97"/>
	<circle cx="702.617" cy="555.926" r="4" fill="#0" id="circle98"/>
	<circle cx="711.786" cy="27.8373" r="4" fill="#0" id="circle99"/>
	<circle cx="719.12" cy="546.758" r="4" fill="#0" id="circle100"/>
	<circle cx="730.122" cy="31.5046" r="4" fill="#0" id="circle101"/>
	<circle cx="737.457" cy="546.758" r="4" fill="#0" id="circle102"/>
	<circle cx="748.458" cy="31.5046" r="4" fill="#0" id="circle103"/>
	<circle cx="755.793" cy="541.257" r="4" fill="#0" id="circle104"/>
	<circle cx="757.627" cy="48.0074" r="4" fill="#0" id="circle105"/>
	<circle cx="770.462" cy="528.421" r="4" fill="#0" id="circle106"/>
	<circle cx="775.963" cy="49.841" r="4" fill="#0" id="circle107"/>
	<circle cx="788.799" cy="526.588" r="4" fill="#0" id="circle108"/>
	<circle cx="794.299" cy="55.342" r="4" fill="#0" id="circle109"/>
	<circle cx="807.135" cy="519.253" r="4" fill="#0" id="circle110"/>
	<circle cx="812.636" cy="59.0092" r="4" fill="#0" id="circle111"/>
	<circle cx="825.471" cy="517.42" r="4" fill="#0" id="circle112"/>
	<circle cx="830.972" cy="64.5102" r="4" fill="#0" id="circle113"/>
	<circle cx="834.64" cy="500.917" r="4" fill="#0" id="circle114"/>
	<circle cx="845.641" cy="77.3457" r="4" fill="#0" id="circle115"/>
	<circle cx="852.976" cy="499.083" r="4" fill="#0" id="circle116"/>
	<circle cx="862.144" cy="86.5139" r="4" fill="#0" id="circle117"/>
	<circle cx="871.312" cy="489.915" r="4" fill="#0" id="circle118"/>
	<circle cx="876.813" cy="97.5157" r="4" fill="#0" id="circle119"/>
	<circle cx="889.649" cy="482.58" r="4" fill="#0" id="circle120"/>
	<circle cx="895.15" cy="104.85" r="4" fill="#0" id="circle121"/>
	<circle cx="904.318" cy="464.244" r="4" fill="#0" id="circle122"/>
	<circle cx="909.819" cy="115.852" r="4" fill="#0" id="circle123"/>
	<circle cx="918.987" cy="132.355" r="4" fill="#0" id="circle124"/>
	<circle cx="920.821" cy="455.076" r="4" fill="#0" id="circle125"/>
	<circle cx="931.823" cy="436.739" r="4" fill="#0" id="circle126"/>
	<circle cx="935.49" cy="141.523" r="4" fill="#0" id="circle127"/>
	<circle cx="940.991" cy="159.86" r="4" fill="#0" id="circle128"/>
	<circle cx="948.325" cy="427.571" r="4" fill="#0" id="circle129"/>
	<circle cx="959.327" cy="165.36" r="4" fill="#0" id="circle130"/>
	<circle cx="959.327" cy="409.235" r="4" fill="#0" id="circle131"/>
	<circle cx="968.495" cy="181.863" r="4" fill="#0" id="circle132"/>
	<circle cx="968.495" cy="381.73" r="4" fill="#0" id="circle133"/>
	<circle cx="973.996" cy="200.2" r="4" fill="#0" id="circle134"/>
	<circle cx="977.664" cy="218.536" r="4" fill="#0" id="circle135"/>
	<circle cx="977.664" cy="354.226" r="4" fill="#0" id="circle136"/>
	<circle cx="994.166" cy="227.704" r="4" fill="#0" id="circle137"/>
	<circle cx="996" cy="246.041" r="4" fill="#0" id="circle138"/>
	<circle cx="996" cy="264.377" r="4" fill="#0" id="circle139"/>
	<circle cx="996" cy="282.713" r="4" fill="#0" id="circle140"/>
	<circle cx="996" cy="301.05" r="4" fill="#0" id="circle141"/>
	<circle cx="996" cy="319.386" r="4" fill="#0" id="circle142"/>
	<circle cx="996" cy="337.723" r="4" fill="#0" id="circle143"/>
	</g>
</svg>