<?xml version="1.0" encoding="UTF-8" standalone="no"?>
<!-- Created with CurveBenchmark -->
<svg
	xmlns:dc="http://purl.org/dc/elements/1.1/"
	xmlns:cc="http://creativecommons.org/ns#"
	xmlns:rdf="http://www.w3.org/1999/02/22-rdf-syntax-ns#"
	xmlns:svg="http://www.w3.org/2000/svg"
	xmlns="http://www.w3.org/2000/svg"
	xmlns:sodipodi="http://sodipodi.sourceforge.net/DTD/sodipodi-0.dtd"
	xmlns:inkscape="http://www.inkscape.org/namespaces/inkscape"
	width="1000"
	height="1000"
	id="svg2"
	version="1.1"
	sodipodi:docname="manifold/crust-fish0718.png.txt">
<defs
	id="defs4" />
<metadata
	id="metadata7">
	<rdf:RDF>
		<cc:Work
			rdf:about="">
			<dc:format>image/svg+xml</dc:format>
			<dc:type
				rdf:resource="http://purl.org/dc/dcmitype/StillImage" />
			<dc:title></dc:title>
		</cc:Work>
	</rdf:RDF>
</metadata>
<g
	inkscape:label="Layer 1"
	inkscape:groupmode="layer"
	id="layer1">
	<path style="fill:none;stroke:red;stroke-width:1px;stroke-linecap:butt;stroke-linejoin:miter;stroke-opacity:1" d="M 178.402,117.013 164.45,119.803 z" id="boundary" inkscape:connector-curvature="0" />
	<path style="fill:none;stroke:red;stroke-width:1px;stroke-linecap:butt;stroke-linejoin:miter;stroke-opacity:1" d="M 164.45,119.803 151.893,126.779 z" id="boundary" inkscape:connector-curvature="0" />
	<path style="fill:none;stroke:red;stroke-width:1px;stroke-linecap:butt;stroke-linejoin:miter;stroke-opacity:1" d="M 273.277,98.8748 259.325,98.8748 z" id="boundary" inkscape:connector-curvature="0" />
	<path style="fill:none;stroke:red;stroke-width:1px;stroke-linecap:butt;stroke-linejoin:miter;stroke-opacity:1" d="M 259.325,98.8748 246.768,105.851 z" id="boundary" inkscape:connector-curvature="0" />
	<path style="fill:none;stroke:red;stroke-width:1px;stroke-linecap:butt;stroke-linejoin:miter;stroke-opacity:1" d="M 206.307,112.827 192.354,112.827 z" id="boundary" inkscape:connector-curvature="0" />
	<path style="fill:none;stroke:red;stroke-width:1px;stroke-linecap:butt;stroke-linejoin:miter;stroke-opacity:1" d="M 218.864,105.851 206.307,112.827 z" id="boundary" inkscape:connector-curvature="0" />
	<path style="fill:none;stroke:red;stroke-width:1px;stroke-linecap:butt;stroke-linejoin:miter;stroke-opacity:1" d="M 178.402,117.013 192.354,112.827 z" id="boundary" inkscape:connector-curvature="0" />
	<path style="fill:none;stroke:red;stroke-width:1px;stroke-linecap:butt;stroke-linejoin:miter;stroke-opacity:1" d="M 246.768,105.851 232.816,105.851 z" id="boundary" inkscape:connector-curvature="0" />
	<path style="fill:none;stroke:red;stroke-width:1px;stroke-linecap:butt;stroke-linejoin:miter;stroke-opacity:1" d="M 232.816,105.851 218.864,105.851 z" id="boundary" inkscape:connector-curvature="0" />
	<path style="fill:none;stroke:red;stroke-width:1px;stroke-linecap:butt;stroke-linejoin:miter;stroke-opacity:1" d="M 70.9705,147.707 57.0183,147.707 z" id="boundary" inkscape:connector-curvature="0" />
	<path style="fill:none;stroke:red;stroke-width:1px;stroke-linecap:butt;stroke-linejoin:miter;stroke-opacity:1" d="M 84.9226,140.731 70.9705,147.707 z" id="boundary" inkscape:connector-curvature="0" />
	<path style="fill:none;stroke:red;stroke-width:1px;stroke-linecap:butt;stroke-linejoin:miter;stroke-opacity:1" d="M 44.4613,154.684 57.0183,147.707 z" id="boundary" inkscape:connector-curvature="0" />
	<path style="fill:none;stroke:red;stroke-width:1px;stroke-linecap:butt;stroke-linejoin:miter;stroke-opacity:1" d="M 44.4613,154.684 31.9044,161.66 z" id="boundary" inkscape:connector-curvature="0" />
	<path style="fill:none;stroke:red;stroke-width:1px;stroke-linecap:butt;stroke-linejoin:miter;stroke-opacity:1" d="M 111.432,133.755 125.384,133.755 z" id="boundary" inkscape:connector-curvature="0" />
	<path style="fill:none;stroke:red;stroke-width:1px;stroke-linecap:butt;stroke-linejoin:miter;stroke-opacity:1" d="M 84.9226,140.731 98.8748,140.731 z" id="boundary" inkscape:connector-curvature="0" />
	<path style="fill:none;stroke:red;stroke-width:1px;stroke-linecap:butt;stroke-linejoin:miter;stroke-opacity:1" d="M 98.8748,140.731 111.432,133.755 z" id="boundary" inkscape:connector-curvature="0" />
	<path style="fill:none;stroke:red;stroke-width:1px;stroke-linecap:butt;stroke-linejoin:miter;stroke-opacity:1" d="M 17.9522,165.845 31.9044,161.66 z" id="boundary" inkscape:connector-curvature="0" />
	<path style="fill:none;stroke:red;stroke-width:1px;stroke-linecap:butt;stroke-linejoin:miter;stroke-opacity:1" d="M 137.941,126.779 151.893,126.779 z" id="boundary" inkscape:connector-curvature="0" />
	<path style="fill:none;stroke:red;stroke-width:1px;stroke-linecap:butt;stroke-linejoin:miter;stroke-opacity:1" d="M 125.384,133.755 137.941,126.779 z" id="boundary" inkscape:connector-curvature="0" />
	<path style="fill:none;stroke:red;stroke-width:1px;stroke-linecap:butt;stroke-linejoin:miter;stroke-opacity:1" d="M 273.277,98.8748 287.229,98.8748 z" id="boundary" inkscape:connector-curvature="0" />
	<path style="fill:none;stroke:red;stroke-width:1px;stroke-linecap:butt;stroke-linejoin:miter;stroke-opacity:1" d="M 17.9522,165.845 4,172.821 z" id="boundary" inkscape:connector-curvature="0" />
	<path style="fill:none;stroke:red;stroke-width:1px;stroke-linecap:butt;stroke-linejoin:miter;stroke-opacity:1" d="M 366.757,40.2757 373.733,26.3235 z" id="boundary" inkscape:connector-curvature="0" />
	<path style="fill:none;stroke:red;stroke-width:1px;stroke-linecap:butt;stroke-linejoin:miter;stroke-opacity:1" d="M 384.895,15.1617 373.733,26.3235 z" id="boundary" inkscape:connector-curvature="0" />
	<path style="fill:none;stroke:red;stroke-width:1px;stroke-linecap:butt;stroke-linejoin:miter;stroke-opacity:1" d="M 396.056,4 384.895,15.1617 z" id="boundary" inkscape:connector-curvature="0" />
	<path style="fill:none;stroke:red;stroke-width:1px;stroke-linecap:butt;stroke-linejoin:miter;stroke-opacity:1" d="M 359.781,54.2278 366.757,40.2757 z" id="boundary" inkscape:connector-curvature="0" />
	<path style="fill:none;stroke:red;stroke-width:1px;stroke-linecap:butt;stroke-linejoin:miter;stroke-opacity:1" d="M 359.781,54.2278 352.805,75.1561 z" id="boundary" inkscape:connector-curvature="0" />
	<path style="fill:none;stroke:red;stroke-width:1px;stroke-linecap:butt;stroke-linejoin:miter;stroke-opacity:1" d="M 352.805,75.1561 341.643,86.3179 z" id="boundary" inkscape:connector-curvature="0" />
	<path style="fill:none;stroke:red;stroke-width:1px;stroke-linecap:butt;stroke-linejoin:miter;stroke-opacity:1" d="M 396.056,4 410.008,5.39522 z" id="boundary" inkscape:connector-curvature="0" />
	<path style="fill:none;stroke:red;stroke-width:1px;stroke-linecap:butt;stroke-linejoin:miter;stroke-opacity:1" d="M 416.985,17.9522 416.985,31.9044 z" id="boundary" inkscape:connector-curvature="0" />
	<path style="fill:none;stroke:red;stroke-width:1px;stroke-linecap:butt;stroke-linejoin:miter;stroke-opacity:1" d="M 416.985,17.9522 410.008,5.39522 z" id="boundary" inkscape:connector-curvature="0" />
	<path style="fill:none;stroke:red;stroke-width:1px;stroke-linecap:butt;stroke-linejoin:miter;stroke-opacity:1" d="M 423.961,44.4613 416.985,31.9044 z" id="boundary" inkscape:connector-curvature="0" />
	<path style="fill:none;stroke:red;stroke-width:1px;stroke-linecap:butt;stroke-linejoin:miter;stroke-opacity:1" d="M 430.937,57.0183 423.961,44.4613 z" id="boundary" inkscape:connector-curvature="0" />
	<path style="fill:none;stroke:red;stroke-width:1px;stroke-linecap:butt;stroke-linejoin:miter;stroke-opacity:1" d="M 430.937,57.0183 437.913,69.5752 z" id="boundary" inkscape:connector-curvature="0" />
	<path style="fill:none;stroke:red;stroke-width:1px;stroke-linecap:butt;stroke-linejoin:miter;stroke-opacity:1" d="M 507.674,105.851 493.722,105.851 z" id="boundary" inkscape:connector-curvature="0" />
	<path style="fill:none;stroke:red;stroke-width:1px;stroke-linecap:butt;stroke-linejoin:miter;stroke-opacity:1" d="M 449.075,79.3418 437.913,69.5752 z" id="boundary" inkscape:connector-curvature="0" />
	<path style="fill:none;stroke:red;stroke-width:1px;stroke-linecap:butt;stroke-linejoin:miter;stroke-opacity:1" d="M 301.181,98.8748 287.229,98.8748 z" id="boundary" inkscape:connector-curvature="0" />
	<path style="fill:none;stroke:red;stroke-width:1px;stroke-linecap:butt;stroke-linejoin:miter;stroke-opacity:1" d="M 313.738,91.8987 301.181,98.8748 z" id="boundary" inkscape:connector-curvature="0" />
	<path style="fill:none;stroke:red;stroke-width:1px;stroke-linecap:butt;stroke-linejoin:miter;stroke-opacity:1" d="M 313.738,91.8987 327.691,91.8987 z" id="boundary" inkscape:connector-curvature="0" />
	<path style="fill:none;stroke:red;stroke-width:1px;stroke-linecap:butt;stroke-linejoin:miter;stroke-opacity:1" d="M 327.691,91.8987 341.643,86.3179 z" id="boundary" inkscape:connector-curvature="0" />
	<path style="fill:none;stroke:red;stroke-width:1px;stroke-linecap:butt;stroke-linejoin:miter;stroke-opacity:1" d="M 437.913,93.294 451.865,98.8748 z" id="boundary" inkscape:connector-curvature="0" />
	<path style="fill:none;stroke:red;stroke-width:1px;stroke-linecap:butt;stroke-linejoin:miter;stroke-opacity:1" d="M 465.817,98.8748 451.865,98.8748 z" id="boundary" inkscape:connector-curvature="0" />
	<path style="fill:none;stroke:red;stroke-width:1px;stroke-linecap:butt;stroke-linejoin:miter;stroke-opacity:1" d="M 465.817,98.8748 479.769,103.06 z" id="boundary" inkscape:connector-curvature="0" />
	<path style="fill:none;stroke:red;stroke-width:1px;stroke-linecap:butt;stroke-linejoin:miter;stroke-opacity:1" d="M 493.722,105.851 479.769,103.06 z" id="boundary" inkscape:connector-curvature="0" />
	<path style="fill:none;stroke:red;stroke-width:1px;stroke-linecap:butt;stroke-linejoin:miter;stroke-opacity:1" d="M 17.9522,179.797 4,172.821 z" id="boundary" inkscape:connector-curvature="0" />
	<path style="fill:none;stroke:red;stroke-width:1px;stroke-linecap:butt;stroke-linejoin:miter;stroke-opacity:1" d="M 31.9044,183.983 17.9522,179.797 z" id="boundary" inkscape:connector-curvature="0" />
	<path style="fill:none;stroke:red;stroke-width:1px;stroke-linecap:butt;stroke-linejoin:miter;stroke-opacity:1" d="M 17.9522,165.845 17.9522,179.797 z" id="boundary" inkscape:connector-curvature="0" />
	<path style="fill:none;stroke:red;stroke-width:1px;stroke-linecap:butt;stroke-linejoin:miter;stroke-opacity:1" d="M 58.4135,190.959 45.8565,183.983 z" id="boundary" inkscape:connector-curvature="0" />
	<path style="fill:none;stroke:red;stroke-width:1px;stroke-linecap:butt;stroke-linejoin:miter;stroke-opacity:1" d="M 31.9044,183.983 45.8565,183.983 z" id="boundary" inkscape:connector-curvature="0" />
	<path style="fill:none;stroke:red;stroke-width:1px;stroke-linecap:butt;stroke-linejoin:miter;stroke-opacity:1" d="M 58.4135,190.959 70.9705,197.935 z" id="boundary" inkscape:connector-curvature="0" />
	<path style="fill:none;stroke:red;stroke-width:1px;stroke-linecap:butt;stroke-linejoin:miter;stroke-opacity:1" d="M 70.9705,197.935 84.9226,197.935 z" id="boundary" inkscape:connector-curvature="0" />
	<path style="fill:none;stroke:red;stroke-width:1px;stroke-linecap:butt;stroke-linejoin:miter;stroke-opacity:1" d="M 98.8748,197.935 111.432,204.911 z" id="boundary" inkscape:connector-curvature="0" />
	<path style="fill:none;stroke:red;stroke-width:1px;stroke-linecap:butt;stroke-linejoin:miter;stroke-opacity:1" d="M 84.9226,197.935 98.8748,197.935 z" id="boundary" inkscape:connector-curvature="0" />
	<path style="fill:none;stroke:red;stroke-width:1px;stroke-linecap:butt;stroke-linejoin:miter;stroke-opacity:1" d="M 139.336,204.911 125.384,204.911 z" id="boundary" inkscape:connector-curvature="0" />
	<path style="fill:none;stroke:red;stroke-width:1px;stroke-linecap:butt;stroke-linejoin:miter;stroke-opacity:1" d="M 125.384,204.911 111.432,204.911 z" id="boundary" inkscape:connector-curvature="0" />
	<path style="fill:none;stroke:red;stroke-width:1px;stroke-linecap:butt;stroke-linejoin:miter;stroke-opacity:1" d="M 153.288,204.911 139.336,204.911 z" id="boundary" inkscape:connector-curvature="0" />
	<path style="fill:none;stroke:red;stroke-width:1px;stroke-linecap:butt;stroke-linejoin:miter;stroke-opacity:1" d="M 153.288,204.911 167.241,204.911 z" id="boundary" inkscape:connector-curvature="0" />
	<path style="fill:none;stroke:red;stroke-width:1px;stroke-linecap:butt;stroke-linejoin:miter;stroke-opacity:1" d="M 179.797,211.887 167.241,204.911 z" id="boundary" inkscape:connector-curvature="0" />
	<path style="fill:none;stroke:red;stroke-width:1px;stroke-linecap:butt;stroke-linejoin:miter;stroke-opacity:1" d="M 193.75,211.887 179.797,211.887 z" id="boundary" inkscape:connector-curvature="0" />
	<path style="fill:none;stroke:red;stroke-width:1px;stroke-linecap:butt;stroke-linejoin:miter;stroke-opacity:1" d="M 193.75,211.887 207.702,214.678 z" id="boundary" inkscape:connector-curvature="0" />
	<path style="fill:none;stroke:red;stroke-width:1px;stroke-linecap:butt;stroke-linejoin:miter;stroke-opacity:1" d="M 221.654,218.864 234.211,225.84 z" id="boundary" inkscape:connector-curvature="0" />
	<path style="fill:none;stroke:red;stroke-width:1px;stroke-linecap:butt;stroke-linejoin:miter;stroke-opacity:1" d="M 234.211,225.84 238.397,239.792 z" id="boundary" inkscape:connector-curvature="0" />
	<path style="fill:none;stroke:red;stroke-width:1px;stroke-linecap:butt;stroke-linejoin:miter;stroke-opacity:1" d="M 241.187,253.744 238.397,239.792 z" id="boundary" inkscape:connector-curvature="0" />
	<path style="fill:none;stroke:red;stroke-width:1px;stroke-linecap:butt;stroke-linejoin:miter;stroke-opacity:1" d="M 207.702,214.678 221.654,218.864 z" id="boundary" inkscape:connector-curvature="0" />
	<path style="fill:none;stroke:red;stroke-width:1px;stroke-linecap:butt;stroke-linejoin:miter;stroke-opacity:1" d="M 241.187,253.744 241.187,267.696 z" id="boundary" inkscape:connector-curvature="0" />
	<path style="fill:none;stroke:red;stroke-width:1px;stroke-linecap:butt;stroke-linejoin:miter;stroke-opacity:1" d="M 241.187,267.696 241.187,281.648 z" id="boundary" inkscape:connector-curvature="0" />
	<path style="fill:none;stroke:red;stroke-width:1px;stroke-linecap:butt;stroke-linejoin:miter;stroke-opacity:1" d="M 245.373,295.601 241.187,281.648 z" id="boundary" inkscape:connector-curvature="0" />
	<path style="fill:none;stroke:red;stroke-width:1px;stroke-linecap:butt;stroke-linejoin:miter;stroke-opacity:1" d="M 248.163,309.553 252.349,323.505 z" id="boundary" inkscape:connector-curvature="0" />
	<path style="fill:none;stroke:red;stroke-width:1px;stroke-linecap:butt;stroke-linejoin:miter;stroke-opacity:1" d="M 245.373,295.601 248.163,309.553 z" id="boundary" inkscape:connector-curvature="0" />
	<path style="fill:none;stroke:red;stroke-width:1px;stroke-linecap:butt;stroke-linejoin:miter;stroke-opacity:1" d="M 259.325,336.062 262.115,350.014 z" id="boundary" inkscape:connector-curvature="0" />
	<path style="fill:none;stroke:red;stroke-width:1px;stroke-linecap:butt;stroke-linejoin:miter;stroke-opacity:1" d="M 259.325,336.062 252.349,323.505 z" id="boundary" inkscape:connector-curvature="0" />
	<path style="fill:none;stroke:red;stroke-width:1px;stroke-linecap:butt;stroke-linejoin:miter;stroke-opacity:1" d="M 262.115,350.014 270.487,361.176 z" id="boundary" inkscape:connector-curvature="0" />
	<path style="fill:none;stroke:red;stroke-width:1px;stroke-linecap:butt;stroke-linejoin:miter;stroke-opacity:1" d="M 305.367,267.696 317.924,260.72 z" id="boundary" inkscape:connector-curvature="0" />
	<path style="fill:none;stroke:red;stroke-width:1px;stroke-linecap:butt;stroke-linejoin:miter;stroke-opacity:1" d="M 298.391,295.601 298.391,281.648 z" id="boundary" inkscape:connector-curvature="0" />
	<path style="fill:none;stroke:red;stroke-width:1px;stroke-linecap:butt;stroke-linejoin:miter;stroke-opacity:1" d="M 298.391,281.648 305.367,267.696 z" id="boundary" inkscape:connector-curvature="0" />
	<path style="fill:none;stroke:red;stroke-width:1px;stroke-linecap:butt;stroke-linejoin:miter;stroke-opacity:1" d="M 317.924,260.72 329.086,252.349 z" id="boundary" inkscape:connector-curvature="0" />
	<path style="fill:none;stroke:red;stroke-width:1px;stroke-linecap:butt;stroke-linejoin:miter;stroke-opacity:1" d="M 354.2,232.816 368.152,232.816 z" id="boundary" inkscape:connector-curvature="0" />
	<path style="fill:none;stroke:red;stroke-width:1px;stroke-linecap:butt;stroke-linejoin:miter;stroke-opacity:1" d="M 382.104,232.816 396.056,232.816 z" id="boundary" inkscape:connector-curvature="0" />
	<path style="fill:none;stroke:red;stroke-width:1px;stroke-linecap:butt;stroke-linejoin:miter;stroke-opacity:1" d="M 382.104,232.816 368.152,232.816 z" id="boundary" inkscape:connector-curvature="0" />
	<path style="fill:none;stroke:red;stroke-width:1px;stroke-linecap:butt;stroke-linejoin:miter;stroke-opacity:1" d="M 437.913,232.816 423.961,232.816 z" id="boundary" inkscape:connector-curvature="0" />
	<path style="fill:none;stroke:red;stroke-width:1px;stroke-linecap:butt;stroke-linejoin:miter;stroke-opacity:1" d="M 504.883,218.864 492.326,225.84 z" id="boundary" inkscape:connector-curvature="0" />
	<path style="fill:none;stroke:red;stroke-width:1px;stroke-linecap:butt;stroke-linejoin:miter;stroke-opacity:1" d="M 396.056,232.816 410.008,232.816 z" id="boundary" inkscape:connector-curvature="0" />
	<path style="fill:none;stroke:red;stroke-width:1px;stroke-linecap:butt;stroke-linejoin:miter;stroke-opacity:1" d="M 423.961,232.816 410.008,232.816 z" id="boundary" inkscape:connector-curvature="0" />
	<path style="fill:none;stroke:red;stroke-width:1px;stroke-linecap:butt;stroke-linejoin:miter;stroke-opacity:1" d="M 492.326,225.84 479.769,232.816 z" id="boundary" inkscape:connector-curvature="0" />
	<path style="fill:none;stroke:red;stroke-width:1px;stroke-linecap:butt;stroke-linejoin:miter;stroke-opacity:1" d="M 329.086,252.349 340.248,239.792 z" id="boundary" inkscape:connector-curvature="0" />
	<path style="fill:none;stroke:red;stroke-width:1px;stroke-linecap:butt;stroke-linejoin:miter;stroke-opacity:1" d="M 340.248,239.792 354.2,232.816 z" id="boundary" inkscape:connector-curvature="0" />
	<path style="fill:none;stroke:red;stroke-width:1px;stroke-linecap:butt;stroke-linejoin:miter;stroke-opacity:1" d="M 451.865,232.816 437.913,232.816 z" id="boundary" inkscape:connector-curvature="0" />
	<path style="fill:none;stroke:red;stroke-width:1px;stroke-linecap:butt;stroke-linejoin:miter;stroke-opacity:1" d="M 479.769,232.816 465.817,232.816 z" id="boundary" inkscape:connector-curvature="0" />
	<path style="fill:none;stroke:red;stroke-width:1px;stroke-linecap:butt;stroke-linejoin:miter;stroke-opacity:1" d="M 465.817,232.816 451.865,232.816 z" id="boundary" inkscape:connector-curvature="0" />
	<path style="fill:none;stroke:red;stroke-width:1px;stroke-linecap:butt;stroke-linejoin:miter;stroke-opacity:1" d="M 298.391,309.553 291.415,323.505 z" id="boundary" inkscape:connector-curvature="0" />
	<path style="fill:none;stroke:red;stroke-width:1px;stroke-linecap:butt;stroke-linejoin:miter;stroke-opacity:1" d="M 291.415,323.505 291.415,337.457 z" id="boundary" inkscape:connector-curvature="0" />
	<path style="fill:none;stroke:red;stroke-width:1px;stroke-linecap:butt;stroke-linejoin:miter;stroke-opacity:1" d="M 291.415,351.409 291.415,337.457 z" id="boundary" inkscape:connector-curvature="0" />
	<path style="fill:none;stroke:red;stroke-width:1px;stroke-linecap:butt;stroke-linejoin:miter;stroke-opacity:1" d="M 291.415,351.409 280.253,372.338 z" id="boundary" inkscape:connector-curvature="0" />
	<path style="fill:none;stroke:red;stroke-width:1px;stroke-linecap:butt;stroke-linejoin:miter;stroke-opacity:1" d="M 280.253,372.338 270.487,361.176 z" id="boundary" inkscape:connector-curvature="0" />
	<path style="fill:none;stroke:red;stroke-width:1px;stroke-linecap:butt;stroke-linejoin:miter;stroke-opacity:1" d="M 298.391,309.553 298.391,295.601 z" id="boundary" inkscape:connector-curvature="0" />
	<path style="fill:none;stroke:red;stroke-width:1px;stroke-linecap:butt;stroke-linejoin:miter;stroke-opacity:1" d="M 817.412,98.8748 803.46,105.851 z" id="boundary" inkscape:connector-curvature="0" />
	<path style="fill:none;stroke:red;stroke-width:1px;stroke-linecap:butt;stroke-linejoin:miter;stroke-opacity:1" d="M 507.674,105.851 521.626,105.851 z" id="boundary" inkscape:connector-curvature="0" />
	<path style="fill:none;stroke:red;stroke-width:1px;stroke-linecap:butt;stroke-linejoin:miter;stroke-opacity:1" d="M 535.578,105.851 549.53,105.851 z" id="boundary" inkscape:connector-curvature="0" />
	<path style="fill:none;stroke:red;stroke-width:1px;stroke-linecap:butt;stroke-linejoin:miter;stroke-opacity:1" d="M 535.578,105.851 521.626,105.851 z" id="boundary" inkscape:connector-curvature="0" />
	<path style="fill:none;stroke:red;stroke-width:1px;stroke-linecap:butt;stroke-linejoin:miter;stroke-opacity:1" d="M 563.482,105.851 577.435,105.851 z" id="boundary" inkscape:connector-curvature="0" />
	<path style="fill:none;stroke:red;stroke-width:1px;stroke-linecap:butt;stroke-linejoin:miter;stroke-opacity:1" d="M 687.657,110.037 673.705,117.013 z" id="boundary" inkscape:connector-curvature="0" />
	<path style="fill:none;stroke:red;stroke-width:1px;stroke-linecap:butt;stroke-linejoin:miter;stroke-opacity:1" d="M 589.992,112.827 577.435,105.851 z" id="boundary" inkscape:connector-curvature="0" />
	<path style="fill:none;stroke:red;stroke-width:1px;stroke-linecap:butt;stroke-linejoin:miter;stroke-opacity:1" d="M 631.848,112.827 617.896,112.827 z" id="boundary" inkscape:connector-curvature="0" />
	<path style="fill:none;stroke:red;stroke-width:1px;stroke-linecap:butt;stroke-linejoin:miter;stroke-opacity:1" d="M 549.53,105.851 563.482,105.851 z" id="boundary" inkscape:connector-curvature="0" />
	<path style="fill:none;stroke:red;stroke-width:1px;stroke-linecap:butt;stroke-linejoin:miter;stroke-opacity:1" d="M 603.944,112.827 617.896,112.827 z" id="boundary" inkscape:connector-curvature="0" />
	<path style="fill:none;stroke:red;stroke-width:1px;stroke-linecap:butt;stroke-linejoin:miter;stroke-opacity:1" d="M 603.944,112.827 589.992,112.827 z" id="boundary" inkscape:connector-curvature="0" />
	<path style="fill:none;stroke:red;stroke-width:1px;stroke-linecap:butt;stroke-linejoin:miter;stroke-opacity:1" d="M 645.8,115.617 631.848,112.827 z" id="boundary" inkscape:connector-curvature="0" />
	<path style="fill:none;stroke:red;stroke-width:1px;stroke-linecap:butt;stroke-linejoin:miter;stroke-opacity:1" d="M 645.8,115.617 659.752,119.803 z" id="boundary" inkscape:connector-curvature="0" />
	<path style="fill:none;stroke:red;stroke-width:1px;stroke-linecap:butt;stroke-linejoin:miter;stroke-opacity:1" d="M 673.705,117.013 659.752,119.803 z" id="boundary" inkscape:connector-curvature="0" />
	<path style="fill:none;stroke:red;stroke-width:1px;stroke-linecap:butt;stroke-linejoin:miter;stroke-opacity:1" d="M 726.723,119.803 712.771,114.222 z" id="boundary" inkscape:connector-curvature="0" />
	<path style="fill:none;stroke:red;stroke-width:1px;stroke-linecap:butt;stroke-linejoin:miter;stroke-opacity:1" d="M 712.771,114.222 701.609,105.851 z" id="boundary" inkscape:connector-curvature="0" />
	<path style="fill:none;stroke:red;stroke-width:1px;stroke-linecap:butt;stroke-linejoin:miter;stroke-opacity:1" d="M 736.489,130.965 726.723,119.803 z" id="boundary" inkscape:connector-curvature="0" />
	<path style="fill:none;stroke:red;stroke-width:1px;stroke-linecap:butt;stroke-linejoin:miter;stroke-opacity:1" d="M 789.508,112.827 803.46,105.851 z" id="boundary" inkscape:connector-curvature="0" />
	<path style="fill:none;stroke:red;stroke-width:1px;stroke-linecap:butt;stroke-linejoin:miter;stroke-opacity:1" d="M 701.609,105.851 687.657,110.037 z" id="boundary" inkscape:connector-curvature="0" />
	<path style="fill:none;stroke:red;stroke-width:1px;stroke-linecap:butt;stroke-linejoin:miter;stroke-opacity:1" d="M 789.508,112.827 778.346,123.989 z" id="boundary" inkscape:connector-curvature="0" />
	<path style="fill:none;stroke:red;stroke-width:1px;stroke-linecap:butt;stroke-linejoin:miter;stroke-opacity:1" d="M 764.394,130.965 778.346,123.989 z" id="boundary" inkscape:connector-curvature="0" />
	<path style="fill:none;stroke:red;stroke-width:1px;stroke-linecap:butt;stroke-linejoin:miter;stroke-opacity:1" d="M 750.442,133.755 736.489,130.965 z" id="boundary" inkscape:connector-curvature="0" />
	<path style="fill:none;stroke:red;stroke-width:1px;stroke-linecap:butt;stroke-linejoin:miter;stroke-opacity:1" d="M 750.442,133.755 764.394,130.965 z" id="boundary" inkscape:connector-curvature="0" />
	<path style="fill:none;stroke:red;stroke-width:1px;stroke-linecap:butt;stroke-linejoin:miter;stroke-opacity:1" d="M 919.263,50.0422 931.82,43.0661 z" id="boundary" inkscape:connector-curvature="0" />
	<path style="fill:none;stroke:red;stroke-width:1px;stroke-linecap:butt;stroke-linejoin:miter;stroke-opacity:1" d="M 945.772,40.2757 931.82,43.0661 z" id="boundary" inkscape:connector-curvature="0" />
	<path style="fill:none;stroke:red;stroke-width:1px;stroke-linecap:butt;stroke-linejoin:miter;stroke-opacity:1" d="M 919.263,50.0422 906.706,57.0183 z" id="boundary" inkscape:connector-curvature="0" />
	<path style="fill:none;stroke:red;stroke-width:1px;stroke-linecap:butt;stroke-linejoin:miter;stroke-opacity:1" d="M 894.149,63.9944 906.706,57.0183 z" id="boundary" inkscape:connector-curvature="0" />
	<path style="fill:none;stroke:red;stroke-width:1px;stroke-linecap:butt;stroke-linejoin:miter;stroke-opacity:1" d="M 894.149,63.9944 881.592,70.9705 z" id="boundary" inkscape:connector-curvature="0" />
	<path style="fill:none;stroke:red;stroke-width:1px;stroke-linecap:butt;stroke-linejoin:miter;stroke-opacity:1" d="M 867.64,70.9705 881.592,70.9705 z" id="boundary" inkscape:connector-curvature="0" />
	<path style="fill:none;stroke:red;stroke-width:1px;stroke-linecap:butt;stroke-linejoin:miter;stroke-opacity:1" d="M 867.64,70.9705 855.083,77.9466 z" id="boundary" inkscape:connector-curvature="0" />
	<path style="fill:none;stroke:red;stroke-width:1px;stroke-linecap:butt;stroke-linejoin:miter;stroke-opacity:1" d="M 986.233,29.1139 972.281,29.1139 z" id="boundary" inkscape:connector-curvature="0" />
	<path style="fill:none;stroke:red;stroke-width:1px;stroke-linecap:butt;stroke-linejoin:miter;stroke-opacity:1" d="M 972.281,29.1139 959.724,36.09 z" id="boundary" inkscape:connector-curvature="0" />
	<path style="fill:none;stroke:red;stroke-width:1px;stroke-linecap:butt;stroke-linejoin:miter;stroke-opacity:1" d="M 945.772,40.2757 959.724,36.09 z" id="boundary" inkscape:connector-curvature="0" />
	<path style="fill:none;stroke:red;stroke-width:1px;stroke-linecap:butt;stroke-linejoin:miter;stroke-opacity:1" d="M 986.233,29.1139 996,40.2757 z" id="boundary" inkscape:connector-curvature="0" />
	<path style="fill:none;stroke:red;stroke-width:1px;stroke-linecap:butt;stroke-linejoin:miter;stroke-opacity:1" d="M 996,40.2757 984.838,50.0422 z" id="boundary" inkscape:connector-curvature="0" />
	<path style="fill:none;stroke:red;stroke-width:1px;stroke-linecap:butt;stroke-linejoin:miter;stroke-opacity:1" d="M 984.838,50.0422 977.862,63.9944 z" id="boundary" inkscape:connector-curvature="0" />
	<path style="fill:none;stroke:red;stroke-width:1px;stroke-linecap:butt;stroke-linejoin:miter;stroke-opacity:1" d="M 977.862,63.9944 966.7,72.3657 z" id="boundary" inkscape:connector-curvature="0" />
	<path style="fill:none;stroke:red;stroke-width:1px;stroke-linecap:butt;stroke-linejoin:miter;stroke-opacity:1" d="M 842.526,84.9226 855.083,77.9466 z" id="boundary" inkscape:connector-curvature="0" />
	<path style="fill:none;stroke:red;stroke-width:1px;stroke-linecap:butt;stroke-linejoin:miter;stroke-opacity:1" d="M 817.412,98.8748 829.969,91.8987 z" id="boundary" inkscape:connector-curvature="0" />
	<path style="fill:none;stroke:red;stroke-width:1px;stroke-linecap:butt;stroke-linejoin:miter;stroke-opacity:1" d="M 829.969,91.8987 842.526,84.9226 z" id="boundary" inkscape:connector-curvature="0" />
	<path style="fill:none;stroke:red;stroke-width:1px;stroke-linecap:butt;stroke-linejoin:miter;stroke-opacity:1" d="M 884.383,128.174 874.616,139.336 z" id="boundary" inkscape:connector-curvature="0" />
	<path style="fill:none;stroke:red;stroke-width:1px;stroke-linecap:butt;stroke-linejoin:miter;stroke-opacity:1" d="M 863.454,149.103 874.616,139.336 z" id="boundary" inkscape:connector-curvature="0" />
	<path style="fill:none;stroke:red;stroke-width:1px;stroke-linecap:butt;stroke-linejoin:miter;stroke-opacity:1" d="M 940.191,79.3418 952.748,72.3657 z" id="boundary" inkscape:connector-curvature="0" />
	<path style="fill:none;stroke:red;stroke-width:1px;stroke-linecap:butt;stroke-linejoin:miter;stroke-opacity:1" d="M 966.7,72.3657 952.748,72.3657 z" id="boundary" inkscape:connector-curvature="0" />
	<path style="fill:none;stroke:red;stroke-width:1px;stroke-linecap:butt;stroke-linejoin:miter;stroke-opacity:1" d="M 940.191,79.3418 930.425,90.5035 z" id="boundary" inkscape:connector-curvature="0" />
	<path style="fill:none;stroke:red;stroke-width:1px;stroke-linecap:butt;stroke-linejoin:miter;stroke-opacity:1" d="M 884.383,128.174 898.335,121.198 z" id="boundary" inkscape:connector-curvature="0" />
	<path style="fill:none;stroke:red;stroke-width:1px;stroke-linecap:butt;stroke-linejoin:miter;stroke-opacity:1" d="M 909.496,111.432 898.335,121.198 z" id="boundary" inkscape:connector-curvature="0" />
	<path style="fill:none;stroke:red;stroke-width:1px;stroke-linecap:butt;stroke-linejoin:miter;stroke-opacity:1" d="M 909.496,111.432 919.263,100.27 z" id="boundary" inkscape:connector-curvature="0" />
	<path style="fill:none;stroke:red;stroke-width:1px;stroke-linecap:butt;stroke-linejoin:miter;stroke-opacity:1" d="M 919.263,100.27 930.425,90.5035 z" id="boundary" inkscape:connector-curvature="0" />
	<path style="fill:none;stroke:red;stroke-width:1px;stroke-linecap:butt;stroke-linejoin:miter;stroke-opacity:1" d="M 863.454,149.103 853.688,160.264 z" id="boundary" inkscape:connector-curvature="0" />
	<path style="fill:none;stroke:red;stroke-width:1px;stroke-linecap:butt;stroke-linejoin:miter;stroke-opacity:1" d="M 612.315,197.935 605.339,211.887 z" id="boundary" inkscape:connector-curvature="0" />
	<path style="fill:none;stroke:red;stroke-width:1px;stroke-linecap:butt;stroke-linejoin:miter;stroke-opacity:1" d="M 626.267,197.935 640.219,190.959 z" id="boundary" inkscape:connector-curvature="0" />
	<path style="fill:none;stroke:red;stroke-width:1px;stroke-linecap:butt;stroke-linejoin:miter;stroke-opacity:1" d="M 654.172,190.959 640.219,190.959 z" id="boundary" inkscape:connector-curvature="0" />
	<path style="fill:none;stroke:red;stroke-width:1px;stroke-linecap:butt;stroke-linejoin:miter;stroke-opacity:1" d="M 654.172,190.959 668.124,193.75 z" id="boundary" inkscape:connector-curvature="0" />
	<path style="fill:none;stroke:red;stroke-width:1px;stroke-linecap:butt;stroke-linejoin:miter;stroke-opacity:1" d="M 680.681,200.726 668.124,193.75 z" id="boundary" inkscape:connector-curvature="0" />
	<path style="fill:none;stroke:red;stroke-width:1px;stroke-linecap:butt;stroke-linejoin:miter;stroke-opacity:1" d="M 694.633,204.911 680.681,200.726 z" id="boundary" inkscape:connector-curvature="0" />
	<path style="fill:none;stroke:red;stroke-width:1px;stroke-linecap:butt;stroke-linejoin:miter;stroke-opacity:1" d="M 612.315,197.935 626.267,197.935 z" id="boundary" inkscape:connector-curvature="0" />
	<path style="fill:none;stroke:red;stroke-width:1px;stroke-linecap:butt;stroke-linejoin:miter;stroke-opacity:1" d="M 694.633,204.911 708.585,207.702 z" id="boundary" inkscape:connector-curvature="0" />
	<path style="fill:none;stroke:red;stroke-width:1px;stroke-linecap:butt;stroke-linejoin:miter;stroke-opacity:1" d="M 504.883,218.864 518.835,218.864 z" id="boundary" inkscape:connector-curvature="0" />
	<path style="fill:none;stroke:red;stroke-width:1px;stroke-linecap:butt;stroke-linejoin:miter;stroke-opacity:1" d="M 518.835,218.864 532.788,218.864 z" id="boundary" inkscape:connector-curvature="0" />
	<path style="fill:none;stroke:red;stroke-width:1px;stroke-linecap:butt;stroke-linejoin:miter;stroke-opacity:1" d="M 532.788,218.864 546.74,218.864 z" id="boundary" inkscape:connector-curvature="0" />
	<path style="fill:none;stroke:red;stroke-width:1px;stroke-linecap:butt;stroke-linejoin:miter;stroke-opacity:1" d="M 546.74,218.864 556.506,230.025 z" id="boundary" inkscape:connector-curvature="0" />
	<path style="fill:none;stroke:red;stroke-width:1px;stroke-linecap:butt;stroke-linejoin:miter;stroke-opacity:1" d="M 570.459,235.606 556.506,230.025 z" id="boundary" inkscape:connector-curvature="0" />
	<path style="fill:none;stroke:red;stroke-width:1px;stroke-linecap:butt;stroke-linejoin:miter;stroke-opacity:1" d="M 584.411,232.816 570.459,235.606 z" id="boundary" inkscape:connector-curvature="0" />
	<path style="fill:none;stroke:red;stroke-width:1px;stroke-linecap:butt;stroke-linejoin:miter;stroke-opacity:1" d="M 605.339,211.887 595.572,223.049 z" id="boundary" inkscape:connector-curvature="0" />
	<path style="fill:none;stroke:red;stroke-width:1px;stroke-linecap:butt;stroke-linejoin:miter;stroke-opacity:1" d="M 584.411,232.816 595.572,223.049 z" id="boundary" inkscape:connector-curvature="0" />
	<path style="fill:none;stroke:red;stroke-width:1px;stroke-linecap:butt;stroke-linejoin:miter;stroke-opacity:1" d="M 729.513,183.983 742.07,177.007 z" id="boundary" inkscape:connector-curvature="0" />
	<path style="fill:none;stroke:red;stroke-width:1px;stroke-linecap:butt;stroke-linejoin:miter;stroke-opacity:1" d="M 729.513,183.983 716.956,190.959 z" id="boundary" inkscape:connector-curvature="0" />
	<path style="fill:none;stroke:red;stroke-width:1px;stroke-linecap:butt;stroke-linejoin:miter;stroke-opacity:1" d="M 716.956,190.959 708.585,207.702 z" id="boundary" inkscape:connector-curvature="0" />
	<path style="fill:none;stroke:red;stroke-width:1px;stroke-linecap:butt;stroke-linejoin:miter;stroke-opacity:1" d="M 768.579,183.983 756.023,177.007 z" id="boundary" inkscape:connector-curvature="0" />
	<path style="fill:none;stroke:red;stroke-width:1px;stroke-linecap:butt;stroke-linejoin:miter;stroke-opacity:1" d="M 756.023,177.007 742.07,177.007 z" id="boundary" inkscape:connector-curvature="0" />
	<path style="fill:none;stroke:red;stroke-width:1px;stroke-linecap:butt;stroke-linejoin:miter;stroke-opacity:1" d="M 779.741,193.75 768.579,183.983 z" id="boundary" inkscape:connector-curvature="0" />
	<path style="fill:none;stroke:red;stroke-width:1px;stroke-linecap:butt;stroke-linejoin:miter;stroke-opacity:1" d="M 842.526,170.031 835.55,183.983 z" id="boundary" inkscape:connector-curvature="0" />
	<path style="fill:none;stroke:red;stroke-width:1px;stroke-linecap:butt;stroke-linejoin:miter;stroke-opacity:1" d="M 842.526,170.031 853.688,160.264 z" id="boundary" inkscape:connector-curvature="0" />
	<path style="fill:none;stroke:red;stroke-width:1px;stroke-linecap:butt;stroke-linejoin:miter;stroke-opacity:1" d="M 835.55,197.935 835.55,183.983 z" id="boundary" inkscape:connector-curvature="0" />
	<path style="fill:none;stroke:red;stroke-width:1px;stroke-linecap:butt;stroke-linejoin:miter;stroke-opacity:1" d="M 789.508,204.911 779.741,193.75 z" id="boundary" inkscape:connector-curvature="0" />
	<path style="fill:none;stroke:red;stroke-width:1px;stroke-linecap:butt;stroke-linejoin:miter;stroke-opacity:1" d="M 800.669,214.678 789.508,204.911 z" id="boundary" inkscape:connector-curvature="0" />
	<path style="fill:none;stroke:red;stroke-width:1px;stroke-linecap:butt;stroke-linejoin:miter;stroke-opacity:1" d="M 810.436,225.84 800.669,214.678 z" id="boundary" inkscape:connector-curvature="0" />
	<path style="fill:none;stroke:red;stroke-width:1px;stroke-linecap:butt;stroke-linejoin:miter;stroke-opacity:1" d="M 810.436,225.84 821.598,235.606 z" id="boundary" inkscape:connector-curvature="0" />
	<path style="fill:none;stroke:red;stroke-width:1px;stroke-linecap:butt;stroke-linejoin:miter;stroke-opacity:1" d="M 821.598,235.606 835.55,239.792 z" id="boundary" inkscape:connector-curvature="0" />
	<path style="fill:none;stroke:red;stroke-width:1px;stroke-linecap:butt;stroke-linejoin:miter;stroke-opacity:1" d="M 842.526,210.492 835.55,197.935 z" id="boundary" inkscape:connector-curvature="0" />
	<path style="fill:none;stroke:red;stroke-width:1px;stroke-linecap:butt;stroke-linejoin:miter;stroke-opacity:1" d="M 856.478,235.606 849.502,223.049 z" id="boundary" inkscape:connector-curvature="0" />
	<path style="fill:none;stroke:red;stroke-width:1px;stroke-linecap:butt;stroke-linejoin:miter;stroke-opacity:1" d="M 842.526,210.492 849.502,223.049 z" id="boundary" inkscape:connector-curvature="0" />
	<path style="fill:none;stroke:red;stroke-width:1px;stroke-linecap:butt;stroke-linejoin:miter;stroke-opacity:1" d="M 848.107,246.768 835.55,239.792 z" id="boundary" inkscape:connector-curvature="0" />
	<path style="fill:none;stroke:red;stroke-width:1px;stroke-linecap:butt;stroke-linejoin:miter;stroke-opacity:1" d="M 848.107,246.768 856.478,235.606 z" id="boundary" inkscape:connector-curvature="0" />
	<circle cx="4" cy="172.821" r="4" fill="#0" id="circle0"/>
	<circle cx="17.9522" cy="165.845" r="4" fill="#0" id="circle1"/>
	<circle cx="17.9522" cy="179.797" r="4" fill="#0" id="circle2"/>
	<circle cx="31.9044" cy="161.66" r="4" fill="#0" id="circle3"/>
	<circle cx="31.9044" cy="183.983" r="4" fill="#0" id="circle4"/>
	<circle cx="44.4613" cy="154.684" r="4" fill="#0" id="circle5"/>
	<circle cx="45.8565" cy="183.983" r="4" fill="#0" id="circle6"/>
	<circle cx="57.0183" cy="147.707" r="4" fill="#0" id="circle7"/>
	<circle cx="58.4135" cy="190.959" r="4" fill="#0" id="circle8"/>
	<circle cx="70.9705" cy="147.707" r="4" fill="#0" id="circle9"/>
	<circle cx="70.9705" cy="197.935" r="4" fill="#0" id="circle10"/>
	<circle cx="84.9226" cy="140.731" r="4" fill="#0" id="circle11"/>
	<circle cx="84.9226" cy="197.935" r="4" fill="#0" id="circle12"/>
	<circle cx="98.8748" cy="140.731" r="4" fill="#0" id="circle13"/>
	<circle cx="98.8748" cy="197.935" r="4" fill="#0" id="circle14"/>
	<circle cx="111.432" cy="133.755" r="4" fill="#0" id="circle15"/>
	<circle cx="111.432" cy="204.911" r="4" fill="#0" id="circle16"/>
	<circle cx="125.384" cy="133.755" r="4" fill="#0" id="circle17"/>
	<circle cx="125.384" cy="204.911" r="4" fill="#0" id="circle18"/>
	<circle cx="137.941" cy="126.779" r="4" fill="#0" id="circle19"/>
	<circle cx="139.336" cy="204.911" r="4" fill="#0" id="circle20"/>
	<circle cx="151.893" cy="126.779" r="4" fill="#0" id="circle21"/>
	<circle cx="153.288" cy="204.911" r="4" fill="#0" id="circle22"/>
	<circle cx="164.45" cy="119.803" r="4" fill="#0" id="circle23"/>
	<circle cx="167.241" cy="204.911" r="4" fill="#0" id="circle24"/>
	<circle cx="178.402" cy="117.013" r="4" fill="#0" id="circle25"/>
	<circle cx="179.797" cy="211.887" r="4" fill="#0" id="circle26"/>
	<circle cx="192.354" cy="112.827" r="4" fill="#0" id="circle27"/>
	<circle cx="193.75" cy="211.887" r="4" fill="#0" id="circle28"/>
	<circle cx="206.307" cy="112.827" r="4" fill="#0" id="circle29"/>
	<circle cx="207.702" cy="214.678" r="4" fill="#0" id="circle30"/>
	<circle cx="218.864" cy="105.851" r="4" fill="#0" id="circle31"/>
	<circle cx="221.654" cy="218.864" r="4" fill="#0" id="circle32"/>
	<circle cx="232.816" cy="105.851" r="4" fill="#0" id="circle33"/>
	<circle cx="234.211" cy="225.84" r="4" fill="#0" id="circle34"/>
	<circle cx="238.397" cy="239.792" r="4" fill="#0" id="circle35"/>
	<circle cx="241.187" cy="253.744" r="4" fill="#0" id="circle36"/>
	<circle cx="241.187" cy="267.696" r="4" fill="#0" id="circle37"/>
	<circle cx="241.187" cy="281.648" r="4" fill="#0" id="circle38"/>
	<circle cx="245.373" cy="295.601" r="4" fill="#0" id="circle39"/>
	<circle cx="246.768" cy="105.851" r="4" fill="#0" id="circle40"/>
	<circle cx="248.163" cy="309.553" r="4" fill="#0" id="circle41"/>
	<circle cx="252.349" cy="323.505" r="4" fill="#0" id="circle42"/>
	<circle cx="259.325" cy="98.8748" r="4" fill="#0" id="circle43"/>
	<circle cx="259.325" cy="336.062" r="4" fill="#0" id="circle44"/>
	<circle cx="262.115" cy="350.014" r="4" fill="#0" id="circle45"/>
	<circle cx="270.487" cy="361.176" r="4" fill="#0" id="circle46"/>
	<circle cx="273.277" cy="98.8748" r="4" fill="#0" id="circle47"/>
	<circle cx="280.253" cy="372.338" r="4" fill="#0" id="circle48"/>
	<circle cx="287.229" cy="98.8748" r="4" fill="#0" id="circle49"/>
	<circle cx="291.415" cy="323.505" r="4" fill="#0" id="circle50"/>
	<circle cx="291.415" cy="337.457" r="4" fill="#0" id="circle51"/>
	<circle cx="291.415" cy="351.409" r="4" fill="#0" id="circle52"/>
	<circle cx="298.391" cy="281.648" r="4" fill="#0" id="circle53"/>
	<circle cx="298.391" cy="295.601" r="4" fill="#0" id="circle54"/>
	<circle cx="298.391" cy="309.553" r="4" fill="#0" id="circle55"/>
	<circle cx="301.181" cy="98.8748" r="4" fill="#0" id="circle56"/>
	<circle cx="305.367" cy="267.696" r="4" fill="#0" id="circle57"/>
	<circle cx="313.738" cy="91.8987" r="4" fill="#0" id="circle58"/>
	<circle cx="317.924" cy="260.72" r="4" fill="#0" id="circle59"/>
	<circle cx="327.691" cy="91.8987" r="4" fill="#0" id="circle60"/>
	<circle cx="329.086" cy="252.349" r="4" fill="#0" id="circle61"/>
	<circle cx="340.248" cy="239.792" r="4" fill="#0" id="circle62"/>
	<circle cx="341.643" cy="86.3179" r="4" fill="#0" id="circle63"/>
	<circle cx="352.805" cy="75.1561" r="4" fill="#0" id="circle64"/>
	<circle cx="354.2" cy="232.816" r="4" fill="#0" id="circle65"/>
	<circle cx="359.781" cy="54.2278" r="4" fill="#0" id="circle66"/>
	<circle cx="366.757" cy="40.2757" r="4" fill="#0" id="circle67"/>
	<circle cx="368.152" cy="232.816" r="4" fill="#0" id="circle68"/>
	<circle cx="373.733" cy="26.3235" r="4" fill="#0" id="circle69"/>
	<circle cx="382.104" cy="232.816" r="4" fill="#0" id="circle70"/>
	<circle cx="384.895" cy="15.1617" r="4" fill="#0" id="circle71"/>
	<circle cx="396.056" cy="4" r="4" fill="#0" id="circle72"/>
	<circle cx="396.056" cy="232.816" r="4" fill="#0" id="circle73"/>
	<circle cx="410.008" cy="5.39522" r="4" fill="#0" id="circle74"/>
	<circle cx="410.008" cy="232.816" r="4" fill="#0" id="circle75"/>
	<circle cx="416.985" cy="17.9522" r="4" fill="#0" id="circle76"/>
	<circle cx="416.985" cy="31.9044" r="4" fill="#0" id="circle77"/>
	<circle cx="423.961" cy="44.4613" r="4" fill="#0" id="circle78"/>
	<circle cx="423.961" cy="232.816" r="4" fill="#0" id="circle79"/>
	<circle cx="430.937" cy="57.0183" r="4" fill="#0" id="circle80"/>
	<circle cx="437.913" cy="69.5752" r="4" fill="#0" id="circle81"/>
	<circle cx="437.913" cy="93.294" r="4" fill="#0" id="circle82"/>
	<circle cx="437.913" cy="232.816" r="4" fill="#0" id="circle83"/>
	<circle cx="449.075" cy="79.3418" r="4" fill="#0" id="circle84"/>
	<circle cx="451.865" cy="98.8748" r="4" fill="#0" id="circle85"/>
	<circle cx="451.865" cy="232.816" r="4" fill="#0" id="circle86"/>
	<circle cx="465.817" cy="98.8748" r="4" fill="#0" id="circle87"/>
	<circle cx="465.817" cy="232.816" r="4" fill="#0" id="circle88"/>
	<circle cx="479.769" cy="103.06" r="4" fill="#0" id="circle89"/>
	<circle cx="479.769" cy="232.816" r="4" fill="#0" id="circle90"/>
	<circle cx="492.326" cy="225.84" r="4" fill="#0" id="circle91"/>
	<circle cx="493.722" cy="105.851" r="4" fill="#0" id="circle92"/>
	<circle cx="504.883" cy="218.864" r="4" fill="#0" id="circle93"/>
	<circle cx="507.674" cy="105.851" r="4" fill="#0" id="circle94"/>
	<circle cx="518.835" cy="218.864" r="4" fill="#0" id="circle95"/>
	<circle cx="521.626" cy="105.851" r="4" fill="#0" id="circle96"/>
	<circle cx="532.788" cy="218.864" r="4" fill="#0" id="circle97"/>
	<circle cx="535.578" cy="105.851" r="4" fill="#0" id="circle98"/>
	<circle cx="546.74" cy="218.864" r="4" fill="#0" id="circle99"/>
	<circle cx="549.53" cy="105.851" r="4" fill="#0" id="circle100"/>
	<circle cx="556.506" cy="230.025" r="4" fill="#0" id="circle101"/>
	<circle cx="563.482" cy="105.851" r="4" fill="#0" id="circle102"/>
	<circle cx="570.459" cy="235.606" r="4" fill="#0" id="circle103"/>
	<circle cx="577.435" cy="105.851" r="4" fill="#0" id="circle104"/>
	<circle cx="584.411" cy="232.816" r="4" fill="#0" id="circle105"/>
	<circle cx="589.992" cy="112.827" r="4" fill="#0" id="circle106"/>
	<circle cx="595.572" cy="223.049" r="4" fill="#0" id="circle107"/>
	<circle cx="603.944" cy="112.827" r="4" fill="#0" id="circle108"/>
	<circle cx="605.339" cy="211.887" r="4" fill="#0" id="circle109"/>
	<circle cx="612.315" cy="197.935" r="4" fill="#0" id="circle110"/>
	<circle cx="617.896" cy="112.827" r="4" fill="#0" id="circle111"/>
	<circle cx="626.267" cy="197.935" r="4" fill="#0" id="circle112"/>
	<circle cx="631.848" cy="112.827" r="4" fill="#0" id="circle113"/>
	<circle cx="640.219" cy="190.959" r="4" fill="#0" id="circle114"/>
	<circle cx="645.8" cy="115.617" r="4" fill="#0" id="circle115"/>
	<circle cx="654.172" cy="190.959" r="4" fill="#0" id="circle116"/>
	<circle cx="659.752" cy="119.803" r="4" fill="#0" id="circle117"/>
	<circle cx="668.124" cy="193.75" r="4" fill="#0" id="circle118"/>
	<circle cx="673.705" cy="117.013" r="4" fill="#0" id="circle119"/>
	<circle cx="680.681" cy="200.726" r="4" fill="#0" id="circle120"/>
	<circle cx="687.657" cy="110.037" r="4" fill="#0" id="circle121"/>
	<circle cx="694.633" cy="204.911" r="4" fill="#0" id="circle122"/>
	<circle cx="701.609" cy="105.851" r="4" fill="#0" id="circle123"/>
	<circle cx="708.585" cy="207.702" r="4" fill="#0" id="circle124"/>
	<circle cx="712.771" cy="114.222" r="4" fill="#0" id="circle125"/>
	<circle cx="716.956" cy="190.959" r="4" fill="#0" id="circle126"/>
	<circle cx="726.723" cy="119.803" r="4" fill="#0" id="circle127"/>
	<circle cx="729.513" cy="183.983" r="4" fill="#0" id="circle128"/>
	<circle cx="736.489" cy="130.965" r="4" fill="#0" id="circle129"/>
	<circle cx="742.07" cy="177.007" r="4" fill="#0" id="circle130"/>
	<circle cx="750.442" cy="133.755" r="4" fill="#0" id="circle131"/>
	<circle cx="756.023" cy="177.007" r="4" fill="#0" id="circle132"/>
	<circle cx="764.394" cy="130.965" r="4" fill="#0" id="circle133"/>
	<circle cx="768.579" cy="183.983" r="4" fill="#0" id="circle134"/>
	<circle cx="778.346" cy="123.989" r="4" fill="#0" id="circle135"/>
	<circle cx="779.741" cy="193.75" r="4" fill="#0" id="circle136"/>
	<circle cx="789.508" cy="112.827" r="4" fill="#0" id="circle137"/>
	<circle cx="789.508" cy="204.911" r="4" fill="#0" id="circle138"/>
	<circle cx="800.669" cy="214.678" r="4" fill="#0" id="circle139"/>
	<circle cx="803.46" cy="105.851" r="4" fill="#0" id="circle140"/>
	<circle cx="810.436" cy="225.84" r="4" fill="#0" id="circle141"/>
	<circle cx="817.412" cy="98.8748" r="4" fill="#0" id="circle142"/>
	<circle cx="821.598" cy="235.606" r="4" fill="#0" id="circle143"/>
	<circle cx="829.969" cy="91.8987" r="4" fill="#0" id="circle144"/>
	<circle cx="835.55" cy="183.983" r="4" fill="#0" id="circle145"/>
	<circle cx="835.55" cy="197.935" r="4" fill="#0" id="circle146"/>
	<circle cx="835.55" cy="239.792" r="4" fill="#0" id="circle147"/>
	<circle cx="842.526" cy="84.9226" r="4" fill="#0" id="circle148"/>
	<circle cx="842.526" cy="170.031" r="4" fill="#0" id="circle149"/>
	<circle cx="842.526" cy="210.492" r="4" fill="#0" id="circle150"/>
	<circle cx="848.107" cy="246.768" r="4" fill="#0" id="circle151"/>
	<circle cx="849.502" cy="223.049" r="4" fill="#0" id="circle152"/>
	<circle cx="853.688" cy="160.264" r="4" fill="#0" id="circle153"/>
	<circle cx="855.083" cy="77.9466" r="4" fill="#0" id="circle154"/>
	<circle cx="856.478" cy="235.606" r="4" fill="#0" id="circle155"/>
	<circle cx="863.454" cy="149.103" r="4" fill="#0" id="circle156"/>
	<circle cx="867.64" cy="70.9705" r="4" fill="#0" id="circle157"/>
	<circle cx="874.616" cy="139.336" r="4" fill="#0" id="circle158"/>
	<circle cx="881.592" cy="70.9705" r="4" fill="#0" id="circle159"/>
	<circle cx="884.383" cy="128.174" r="4" fill="#0" id="circle160"/>
	<circle cx="894.149" cy="63.9944" r="4" fill="#0" id="circle161"/>
	<circle cx="898.335" cy="121.198" r="4" fill="#0" id="circle162"/>
	<circle cx="906.706" cy="57.0183" r="4" fill="#0" id="circle163"/>
	<circle cx="909.496" cy="111.432" r="4" fill="#0" id="circle164"/>
	<circle cx="919.263" cy="50.0422" r="4" fill="#0" id="circle165"/>
	<circle cx="919.263" cy="100.27" r="4" fill="#0" id="circle166"/>
	<circle cx="930.425" cy="90.5035" r="4" fill="#0" id="circle167"/>
	<circle cx="931.82" cy="43.0661" r="4" fill="#0" id="circle168"/>
	<circle cx="940.191" cy="79.3418" r="4" fill="#0" id="circle169"/>
	<circle cx="945.772" cy="40.2757" r="4" fill="#0" id="circle170"/>
	<circle cx="952.748" cy="72.3657" r="4" fill="#0" id="circle171"/>
	<circle cx="959.724" cy="36.09" r="4" fill="#0" id="circle172"/>
	<circle cx="966.7" cy="72.3657" r="4" fill="#0" id="circle173"/>
	<circle cx="972.281" cy="29.1139" r="4" fill="#0" id="circle174"/>
	<circle cx="977.862" cy="63.9944" r="4" fill="#0" id="circle175"/>
	<circle cx="984.838" cy="50.0422" r="4" fill="#0" id="circle176"/>
	<circle cx="986.233" cy="29.1139" r="4" fill="#0" id="circle177"/>
	<circle cx="996" cy="40.2757" r="4" fill="#0" id="circle178"/>
	</g>
</svg>