<?xml version="1.0" encoding="UTF-8" standalone="no"?>
<!-- Created with CurveBenchmark -->
<svg
	xmlns:dc="http://purl.org/dc/elements/1.1/"
	xmlns:cc="http://creativecommons.org/ns#"
	xmlns:rdf="http://www.w3.org/1999/02/22-rdf-syntax-ns#"
	xmlns:svg="http://www.w3.org/2000/svg"
	xmlns="http://www.w3.org/2000/svg"
	xmlns:sodipodi="http://sodipodi.sourceforge.net/DTD/sodipodi-0.dtd"
	xmlns:inkscape="http://www.inkscape.org/namespaces/inkscape"
	width="1000"
	height="1000"
	id="svg2"
	version="1.1"
	sodipodi:docname="manifold/crust-stef-19.png.txt">
<defs
	id="defs4" />
<metadata
	id="metadata7">
	<rdf:RDF>
		<cc:Work
			rdf:about="">
			<dc:format>image/svg+xml</dc:format>
			<dc:type
				rdf:resource="http://purl.org/dc/dcmitype/StillImage" />
			<dc:title></dc:title>
		</cc:Work>
	</rdf:RDF>
</metadata>
<g
	inkscape:label="Layer 1"
	inkscape:groupmode="layer"
	id="layer1">
	<path style="fill:none;stroke:red;stroke-width:1px;stroke-linecap:butt;stroke-linejoin:miter;stroke-opacity:1" d="M 92.9686,10.6726 70.7265,21.7937 z" id="boundary" inkscape:connector-curvature="0" />
	<path style="fill:none;stroke:red;stroke-width:1px;stroke-linecap:butt;stroke-linejoin:miter;stroke-opacity:1" d="M 115.211,4 92.9686,10.6726 z" id="boundary" inkscape:connector-curvature="0" />
	<path style="fill:none;stroke:red;stroke-width:1px;stroke-linecap:butt;stroke-linejoin:miter;stroke-opacity:1" d="M 59.6054,44.0359 70.7265,21.7937 z" id="boundary" inkscape:connector-curvature="0" />
	<path style="fill:none;stroke:red;stroke-width:1px;stroke-linecap:butt;stroke-linejoin:miter;stroke-opacity:1" d="M 59.6054,66.278 59.6054,44.0359 z" id="boundary" inkscape:connector-curvature="0" />
	<path style="fill:none;stroke:red;stroke-width:1px;stroke-linecap:butt;stroke-linejoin:miter;stroke-opacity:1" d="M 59.6054,88.5202 59.6054,66.278 z" id="boundary" inkscape:connector-curvature="0" />
	<path style="fill:none;stroke:red;stroke-width:1px;stroke-linecap:butt;stroke-linejoin:miter;stroke-opacity:1" d="M 59.6054,88.5202 70.7265,108.538 z" id="boundary" inkscape:connector-curvature="0" />
	<path style="fill:none;stroke:red;stroke-width:1px;stroke-linecap:butt;stroke-linejoin:miter;stroke-opacity:1" d="M 81.8475,128.556 70.7265,108.538 z" id="boundary" inkscape:connector-curvature="0" />
	<path style="fill:none;stroke:red;stroke-width:1px;stroke-linecap:butt;stroke-linejoin:miter;stroke-opacity:1" d="M 137.453,4 157.471,15.1211 z" id="boundary" inkscape:connector-curvature="0" />
	<path style="fill:none;stroke:red;stroke-width:1px;stroke-linecap:butt;stroke-linejoin:miter;stroke-opacity:1" d="M 197.507,37.3632 177.489,26.2422 z" id="boundary" inkscape:connector-curvature="0" />
	<path style="fill:none;stroke:red;stroke-width:1px;stroke-linecap:butt;stroke-linejoin:miter;stroke-opacity:1" d="M 177.489,26.2422 157.471,15.1211 z" id="boundary" inkscape:connector-curvature="0" />
	<path style="fill:none;stroke:red;stroke-width:1px;stroke-linecap:butt;stroke-linejoin:miter;stroke-opacity:1" d="M 115.211,4 137.453,4 z" id="boundary" inkscape:connector-curvature="0" />
	<path style="fill:none;stroke:red;stroke-width:1px;stroke-linecap:butt;stroke-linejoin:miter;stroke-opacity:1" d="M 108.538,161.919 88.5202,150.798 z" id="boundary" inkscape:connector-curvature="0" />
	<path style="fill:none;stroke:red;stroke-width:1px;stroke-linecap:butt;stroke-linejoin:miter;stroke-opacity:1" d="M 81.8475,128.556 88.5202,150.798 z" id="boundary" inkscape:connector-curvature="0" />
	<path style="fill:none;stroke:red;stroke-width:1px;stroke-linecap:butt;stroke-linejoin:miter;stroke-opacity:1" d="M 128.556,173.04 108.538,161.919 z" id="boundary" inkscape:connector-curvature="0" />
	<path style="fill:none;stroke:red;stroke-width:1px;stroke-linecap:butt;stroke-linejoin:miter;stroke-opacity:1" d="M 128.556,173.04 148.574,184.161 z" id="boundary" inkscape:connector-curvature="0" />
	<path style="fill:none;stroke:red;stroke-width:1px;stroke-linecap:butt;stroke-linejoin:miter;stroke-opacity:1" d="M 159.695,204.179 173.04,221.973 z" id="boundary" inkscape:connector-curvature="0" />
	<path style="fill:none;stroke:red;stroke-width:1px;stroke-linecap:butt;stroke-linejoin:miter;stroke-opacity:1" d="M 148.574,184.161 159.695,204.179 z" id="boundary" inkscape:connector-curvature="0" />
	<path style="fill:none;stroke:red;stroke-width:1px;stroke-linecap:butt;stroke-linejoin:miter;stroke-opacity:1" d="M 173.04,221.973 188.61,239.767 z" id="boundary" inkscape:connector-curvature="0" />
	<path style="fill:none;stroke:red;stroke-width:1px;stroke-linecap:butt;stroke-linejoin:miter;stroke-opacity:1" d="M 188.61,239.767 206.404,255.336 z" id="boundary" inkscape:connector-curvature="0" />
	<path style="fill:none;stroke:red;stroke-width:1px;stroke-linecap:butt;stroke-linejoin:miter;stroke-opacity:1" d="M 197.507,37.3632 215.3,52.9327 z" id="boundary" inkscape:connector-curvature="0" />
	<path style="fill:none;stroke:red;stroke-width:1px;stroke-linecap:butt;stroke-linejoin:miter;stroke-opacity:1" d="M 215.3,52.9327 237.543,59.6054 z" id="boundary" inkscape:connector-curvature="0" />
	<path style="fill:none;stroke:red;stroke-width:1px;stroke-linecap:butt;stroke-linejoin:miter;stroke-opacity:1" d="M 237.543,59.6054 259.785,59.6054 z" id="boundary" inkscape:connector-curvature="0" />
	<path style="fill:none;stroke:red;stroke-width:1px;stroke-linecap:butt;stroke-linejoin:miter;stroke-opacity:1" d="M 282.027,64.0538 259.785,59.6054 z" id="boundary" inkscape:connector-curvature="0" />
	<path style="fill:none;stroke:red;stroke-width:1px;stroke-linecap:butt;stroke-linejoin:miter;stroke-opacity:1" d="M 282.027,64.0538 302.045,75.1749 z" id="boundary" inkscape:connector-curvature="0" />
	<path style="fill:none;stroke:red;stroke-width:1px;stroke-linecap:butt;stroke-linejoin:miter;stroke-opacity:1" d="M 324.287,81.8475 302.045,75.1749 z" id="boundary" inkscape:connector-curvature="0" />
	<path style="fill:none;stroke:red;stroke-width:1px;stroke-linecap:butt;stroke-linejoin:miter;stroke-opacity:1" d="M 324.287,81.8475 344.305,92.9686 z" id="boundary" inkscape:connector-curvature="0" />
	<path style="fill:none;stroke:red;stroke-width:1px;stroke-linecap:butt;stroke-linejoin:miter;stroke-opacity:1" d="M 364.323,104.09 344.305,92.9686 z" id="boundary" inkscape:connector-curvature="0" />
	<path style="fill:none;stroke:red;stroke-width:1px;stroke-linecap:butt;stroke-linejoin:miter;stroke-opacity:1" d="M 364.323,104.09 382.117,119.659 z" id="boundary" inkscape:connector-curvature="0" />
	<path style="fill:none;stroke:red;stroke-width:1px;stroke-linecap:butt;stroke-linejoin:miter;stroke-opacity:1" d="M 382.117,119.659 395.462,137.453 z" id="boundary" inkscape:connector-curvature="0" />
	<path style="fill:none;stroke:red;stroke-width:1px;stroke-linecap:butt;stroke-linejoin:miter;stroke-opacity:1" d="M 226.422,297.596 215.3,277.578 z" id="boundary" inkscape:connector-curvature="0" />
	<path style="fill:none;stroke:red;stroke-width:1px;stroke-linecap:butt;stroke-linejoin:miter;stroke-opacity:1" d="M 215.3,277.578 206.404,255.336 z" id="boundary" inkscape:connector-curvature="0" />
	<path style="fill:none;stroke:red;stroke-width:1px;stroke-linecap:butt;stroke-linejoin:miter;stroke-opacity:1" d="M 226.422,297.596 248.664,306.493 z" id="boundary" inkscape:connector-curvature="0" />
	<path style="fill:none;stroke:red;stroke-width:1px;stroke-linecap:butt;stroke-linejoin:miter;stroke-opacity:1" d="M 268.682,317.614 248.664,306.493 z" id="boundary" inkscape:connector-curvature="0" />
	<path style="fill:none;stroke:red;stroke-width:1px;stroke-linecap:butt;stroke-linejoin:miter;stroke-opacity:1" d="M 268.682,317.614 284.251,335.408 z" id="boundary" inkscape:connector-curvature="0" />
	<path style="fill:none;stroke:red;stroke-width:1px;stroke-linecap:butt;stroke-linejoin:miter;stroke-opacity:1" d="M 306.493,344.305 284.251,335.408 z" id="boundary" inkscape:connector-curvature="0" />
	<path style="fill:none;stroke:red;stroke-width:1px;stroke-linecap:butt;stroke-linejoin:miter;stroke-opacity:1" d="M 322.063,362.099 326.511,384.341 z" id="boundary" inkscape:connector-curvature="0" />
	<path style="fill:none;stroke:red;stroke-width:1px;stroke-linecap:butt;stroke-linejoin:miter;stroke-opacity:1" d="M 306.493,344.305 322.063,362.099 z" id="boundary" inkscape:connector-curvature="0" />
	<path style="fill:none;stroke:red;stroke-width:1px;stroke-linecap:butt;stroke-linejoin:miter;stroke-opacity:1" d="M 324.287,437.722 326.511,406.583 z" id="boundary" inkscape:connector-curvature="0" />
	<path style="fill:none;stroke:red;stroke-width:1px;stroke-linecap:butt;stroke-linejoin:miter;stroke-opacity:1" d="M 326.511,384.341 326.511,406.583 z" id="boundary" inkscape:connector-curvature="0" />
	<path style="fill:none;stroke:red;stroke-width:1px;stroke-linecap:butt;stroke-linejoin:miter;stroke-opacity:1" d="M 324.287,437.722 306.493,453.291 z" id="boundary" inkscape:connector-curvature="0" />
	<path style="fill:none;stroke:red;stroke-width:1px;stroke-linecap:butt;stroke-linejoin:miter;stroke-opacity:1" d="M 117.435,720.197 106.314,742.439 z" id="boundary" inkscape:connector-curvature="0" />
	<path style="fill:none;stroke:red;stroke-width:1px;stroke-linecap:butt;stroke-linejoin:miter;stroke-opacity:1" d="M 4,789.148 21.7937,771.354 z" id="boundary" inkscape:connector-curvature="0" />
	<path style="fill:none;stroke:red;stroke-width:1px;stroke-linecap:butt;stroke-linejoin:miter;stroke-opacity:1" d="M 21.7937,771.354 44.0359,760.233 z" id="boundary" inkscape:connector-curvature="0" />
	<path style="fill:none;stroke:red;stroke-width:1px;stroke-linecap:butt;stroke-linejoin:miter;stroke-opacity:1" d="M 66.278,760.233 44.0359,760.233 z" id="boundary" inkscape:connector-curvature="0" />
	<path style="fill:none;stroke:red;stroke-width:1px;stroke-linecap:butt;stroke-linejoin:miter;stroke-opacity:1" d="M 106.314,742.439 88.5202,760.233 z" id="boundary" inkscape:connector-curvature="0" />
	<path style="fill:none;stroke:red;stroke-width:1px;stroke-linecap:butt;stroke-linejoin:miter;stroke-opacity:1" d="M 88.5202,760.233 66.278,760.233 z" id="boundary" inkscape:connector-curvature="0" />
	<path style="fill:none;stroke:red;stroke-width:1px;stroke-linecap:butt;stroke-linejoin:miter;stroke-opacity:1" d="M 148.574,644.574 137.453,666.816 z" id="boundary" inkscape:connector-curvature="0" />
	<path style="fill:none;stroke:red;stroke-width:1px;stroke-linecap:butt;stroke-linejoin:miter;stroke-opacity:1" d="M 166.368,626.78 148.574,644.574 z" id="boundary" inkscape:connector-curvature="0" />
	<path style="fill:none;stroke:red;stroke-width:1px;stroke-linecap:butt;stroke-linejoin:miter;stroke-opacity:1" d="M 137.453,666.816 128.556,697.955 z" id="boundary" inkscape:connector-curvature="0" />
	<path style="fill:none;stroke:red;stroke-width:1px;stroke-linecap:butt;stroke-linejoin:miter;stroke-opacity:1" d="M 181.937,600.09 166.368,626.78 z" id="boundary" inkscape:connector-curvature="0" />
	<path style="fill:none;stroke:red;stroke-width:1px;stroke-linecap:butt;stroke-linejoin:miter;stroke-opacity:1" d="M 199.731,582.296 181.937,600.09 z" id="boundary" inkscape:connector-curvature="0" />
	<path style="fill:none;stroke:red;stroke-width:1px;stroke-linecap:butt;stroke-linejoin:miter;stroke-opacity:1" d="M 128.556,697.955 117.435,720.197 z" id="boundary" inkscape:connector-curvature="0" />
	<path style="fill:none;stroke:red;stroke-width:1px;stroke-linecap:butt;stroke-linejoin:miter;stroke-opacity:1" d="M 184.161,795.821 173.04,829.184 z" id="boundary" inkscape:connector-curvature="0" />
	<path style="fill:none;stroke:red;stroke-width:1px;stroke-linecap:butt;stroke-linejoin:miter;stroke-opacity:1" d="M 21.7937,826.96 4,811.39 z" id="boundary" inkscape:connector-curvature="0" />
	<path style="fill:none;stroke:red;stroke-width:1px;stroke-linecap:butt;stroke-linejoin:miter;stroke-opacity:1" d="M 4,811.39 4,789.148 z" id="boundary" inkscape:connector-curvature="0" />
	<path style="fill:none;stroke:red;stroke-width:1px;stroke-linecap:butt;stroke-linejoin:miter;stroke-opacity:1" d="M 30.6906,849.202 21.7937,826.96 z" id="boundary" inkscape:connector-curvature="0" />
	<path style="fill:none;stroke:red;stroke-width:1px;stroke-linecap:butt;stroke-linejoin:miter;stroke-opacity:1" d="M 30.6906,849.202 41.8117,869.22 z" id="boundary" inkscape:connector-curvature="0" />
	<path style="fill:none;stroke:red;stroke-width:1px;stroke-linecap:butt;stroke-linejoin:miter;stroke-opacity:1" d="M 59.6054,884.789 72.9507,902.583 z" id="boundary" inkscape:connector-curvature="0" />
	<path style="fill:none;stroke:red;stroke-width:1px;stroke-linecap:butt;stroke-linejoin:miter;stroke-opacity:1" d="M 59.6054,884.789 41.8117,869.22 z" id="boundary" inkscape:connector-curvature="0" />
	<path style="fill:none;stroke:red;stroke-width:1px;stroke-linecap:butt;stroke-linejoin:miter;stroke-opacity:1" d="M 72.9507,902.583 95.1928,911.48 z" id="boundary" inkscape:connector-curvature="0" />
	<path style="fill:none;stroke:red;stroke-width:1px;stroke-linecap:butt;stroke-linejoin:miter;stroke-opacity:1" d="M 173.04,829.184 168.592,858.099 z" id="boundary" inkscape:connector-curvature="0" />
	<path style="fill:none;stroke:red;stroke-width:1px;stroke-linecap:butt;stroke-linejoin:miter;stroke-opacity:1" d="M 117.435,907.031 95.1928,911.48 z" id="boundary" inkscape:connector-curvature="0" />
	<path style="fill:none;stroke:red;stroke-width:1px;stroke-linecap:butt;stroke-linejoin:miter;stroke-opacity:1" d="M 157.471,880.341 168.592,858.099 z" id="boundary" inkscape:connector-curvature="0" />
	<path style="fill:none;stroke:red;stroke-width:1px;stroke-linecap:butt;stroke-linejoin:miter;stroke-opacity:1" d="M 157.471,880.341 139.677,895.91 z" id="boundary" inkscape:connector-curvature="0" />
	<path style="fill:none;stroke:red;stroke-width:1px;stroke-linecap:butt;stroke-linejoin:miter;stroke-opacity:1" d="M 117.435,907.031 139.677,895.91 z" id="boundary" inkscape:connector-curvature="0" />
	<path style="fill:none;stroke:red;stroke-width:1px;stroke-linecap:butt;stroke-linejoin:miter;stroke-opacity:1" d="M 255.336,504.448 246.439,526.691 z" id="boundary" inkscape:connector-curvature="0" />
	<path style="fill:none;stroke:red;stroke-width:1px;stroke-linecap:butt;stroke-linejoin:miter;stroke-opacity:1" d="M 273.13,486.655 255.336,504.448 z" id="boundary" inkscape:connector-curvature="0" />
	<path style="fill:none;stroke:red;stroke-width:1px;stroke-linecap:butt;stroke-linejoin:miter;stroke-opacity:1" d="M 246.439,526.691 228.646,542.26 z" id="boundary" inkscape:connector-curvature="0" />
	<path style="fill:none;stroke:red;stroke-width:1px;stroke-linecap:butt;stroke-linejoin:miter;stroke-opacity:1" d="M 290.924,471.085 273.13,486.655 z" id="boundary" inkscape:connector-curvature="0" />
	<path style="fill:none;stroke:red;stroke-width:1px;stroke-linecap:butt;stroke-linejoin:miter;stroke-opacity:1" d="M 210.852,560.054 228.646,542.26 z" id="boundary" inkscape:connector-curvature="0" />
	<path style="fill:none;stroke:red;stroke-width:1px;stroke-linecap:butt;stroke-linejoin:miter;stroke-opacity:1" d="M 295.372,551.157 295.372,573.399 z" id="boundary" inkscape:connector-curvature="0" />
	<path style="fill:none;stroke:red;stroke-width:1px;stroke-linecap:butt;stroke-linejoin:miter;stroke-opacity:1" d="M 295.372,573.399 284.251,606.762 z" id="boundary" inkscape:connector-curvature="0" />
	<path style="fill:none;stroke:red;stroke-width:1px;stroke-linecap:butt;stroke-linejoin:miter;stroke-opacity:1" d="M 210.852,560.054 199.731,582.296 z" id="boundary" inkscape:connector-curvature="0" />
	<path style="fill:none;stroke:red;stroke-width:1px;stroke-linecap:butt;stroke-linejoin:miter;stroke-opacity:1" d="M 295.372,551.157 317.614,551.157 z" id="boundary" inkscape:connector-curvature="0" />
	<path style="fill:none;stroke:red;stroke-width:1px;stroke-linecap:butt;stroke-linejoin:miter;stroke-opacity:1" d="M 362.099,540.036 339.857,551.157 z" id="boundary" inkscape:connector-curvature="0" />
	<path style="fill:none;stroke:red;stroke-width:1px;stroke-linecap:butt;stroke-linejoin:miter;stroke-opacity:1" d="M 317.614,551.157 339.857,551.157 z" id="boundary" inkscape:connector-curvature="0" />
	<path style="fill:none;stroke:red;stroke-width:1px;stroke-linecap:butt;stroke-linejoin:miter;stroke-opacity:1" d="M 384.341,540.036 362.099,540.036 z" id="boundary" inkscape:connector-curvature="0" />
	<path style="fill:none;stroke:red;stroke-width:1px;stroke-linecap:butt;stroke-linejoin:miter;stroke-opacity:1" d="M 384.341,540.036 406.583,540.036 z" id="boundary" inkscape:connector-curvature="0" />
	<path style="fill:none;stroke:red;stroke-width:1px;stroke-linecap:butt;stroke-linejoin:miter;stroke-opacity:1" d="M 290.924,471.085 306.493,453.291 z" id="boundary" inkscape:connector-curvature="0" />
	<path style="fill:none;stroke:red;stroke-width:1px;stroke-linecap:butt;stroke-linejoin:miter;stroke-opacity:1" d="M 250.888,673.489 235.318,702.404 z" id="boundary" inkscape:connector-curvature="0" />
	<path style="fill:none;stroke:red;stroke-width:1px;stroke-linecap:butt;stroke-linejoin:miter;stroke-opacity:1" d="M 195.283,762.457 184.161,795.821 z" id="boundary" inkscape:connector-curvature="0" />
	<path style="fill:none;stroke:red;stroke-width:1px;stroke-linecap:butt;stroke-linejoin:miter;stroke-opacity:1" d="M 224.197,724.646 235.318,702.404 z" id="boundary" inkscape:connector-curvature="0" />
	<path style="fill:none;stroke:red;stroke-width:1px;stroke-linecap:butt;stroke-linejoin:miter;stroke-opacity:1" d="M 224.197,724.646 206.404,740.215 z" id="boundary" inkscape:connector-curvature="0" />
	<path style="fill:none;stroke:red;stroke-width:1px;stroke-linecap:butt;stroke-linejoin:miter;stroke-opacity:1" d="M 195.283,762.457 206.404,740.215 z" id="boundary" inkscape:connector-curvature="0" />
	<path style="fill:none;stroke:red;stroke-width:1px;stroke-linecap:butt;stroke-linejoin:miter;stroke-opacity:1" d="M 273.13,629.004 284.251,606.762 z" id="boundary" inkscape:connector-curvature="0" />
	<path style="fill:none;stroke:red;stroke-width:1px;stroke-linecap:butt;stroke-linejoin:miter;stroke-opacity:1" d="M 250.888,673.489 262.009,651.247 z" id="boundary" inkscape:connector-curvature="0" />
	<path style="fill:none;stroke:red;stroke-width:1px;stroke-linecap:butt;stroke-linejoin:miter;stroke-opacity:1" d="M 273.13,629.004 262.009,651.247 z" id="boundary" inkscape:connector-curvature="0" />
	<path style="fill:none;stroke:red;stroke-width:1px;stroke-linecap:butt;stroke-linejoin:miter;stroke-opacity:1" d="M 415.48,148.574 435.498,159.695 z" id="boundary" inkscape:connector-curvature="0" />
	<path style="fill:none;stroke:red;stroke-width:1px;stroke-linecap:butt;stroke-linejoin:miter;stroke-opacity:1" d="M 395.462,137.453 415.48,148.574 z" id="boundary" inkscape:connector-curvature="0" />
	<path style="fill:none;stroke:red;stroke-width:1px;stroke-linecap:butt;stroke-linejoin:miter;stroke-opacity:1" d="M 455.516,170.816 435.498,159.695 z" id="boundary" inkscape:connector-curvature="0" />
	<path style="fill:none;stroke:red;stroke-width:1px;stroke-linecap:butt;stroke-linejoin:miter;stroke-opacity:1" d="M 455.516,170.816 471.085,188.61 z" id="boundary" inkscape:connector-curvature="0" />
	<path style="fill:none;stroke:red;stroke-width:1px;stroke-linecap:butt;stroke-linejoin:miter;stroke-opacity:1" d="M 488.879,204.179 471.085,188.61 z" id="boundary" inkscape:connector-curvature="0" />
	<path style="fill:none;stroke:red;stroke-width:1px;stroke-linecap:butt;stroke-linejoin:miter;stroke-opacity:1" d="M 526.691,230.87 508.897,215.3 z" id="boundary" inkscape:connector-curvature="0" />
	<path style="fill:none;stroke:red;stroke-width:1px;stroke-linecap:butt;stroke-linejoin:miter;stroke-opacity:1" d="M 508.897,215.3 488.879,204.179 z" id="boundary" inkscape:connector-curvature="0" />
	<path style="fill:none;stroke:red;stroke-width:1px;stroke-linecap:butt;stroke-linejoin:miter;stroke-opacity:1" d="M 535.587,253.112 526.691,230.87 z" id="boundary" inkscape:connector-curvature="0" />
	<path style="fill:none;stroke:red;stroke-width:1px;stroke-linecap:butt;stroke-linejoin:miter;stroke-opacity:1" d="M 540.036,297.596 540.036,275.354 z" id="boundary" inkscape:connector-curvature="0" />
	<path style="fill:none;stroke:red;stroke-width:1px;stroke-linecap:butt;stroke-linejoin:miter;stroke-opacity:1" d="M 540.036,275.354 535.587,253.112 z" id="boundary" inkscape:connector-curvature="0" />
	<path style="fill:none;stroke:red;stroke-width:1px;stroke-linecap:butt;stroke-linejoin:miter;stroke-opacity:1" d="M 540.036,297.596 560.054,308.717 z" id="boundary" inkscape:connector-curvature="0" />
	<path style="fill:none;stroke:red;stroke-width:1px;stroke-linecap:butt;stroke-linejoin:miter;stroke-opacity:1" d="M 560.054,308.717 573.399,326.511 z" id="boundary" inkscape:connector-curvature="0" />
	<path style="fill:none;stroke:red;stroke-width:1px;stroke-linecap:butt;stroke-linejoin:miter;stroke-opacity:1" d="M 448.843,528.915 426.601,528.915 z" id="boundary" inkscape:connector-curvature="0" />
	<path style="fill:none;stroke:red;stroke-width:1px;stroke-linecap:butt;stroke-linejoin:miter;stroke-opacity:1" d="M 426.601,528.915 406.583,540.036 z" id="boundary" inkscape:connector-curvature="0" />
	<path style="fill:none;stroke:red;stroke-width:1px;stroke-linecap:butt;stroke-linejoin:miter;stroke-opacity:1" d="M 448.843,528.915 471.085,528.915 z" id="boundary" inkscape:connector-curvature="0" />
	<path style="fill:none;stroke:red;stroke-width:1px;stroke-linecap:butt;stroke-linejoin:miter;stroke-opacity:1" d="M 491.103,540.036 471.085,528.915 z" id="boundary" inkscape:connector-curvature="0" />
	<path style="fill:none;stroke:red;stroke-width:1px;stroke-linecap:butt;stroke-linejoin:miter;stroke-opacity:1" d="M 491.103,540.036 493.327,562.278 z" id="boundary" inkscape:connector-curvature="0" />
	<path style="fill:none;stroke:red;stroke-width:1px;stroke-linecap:butt;stroke-linejoin:miter;stroke-opacity:1" d="M 493.327,562.278 506.673,580.072 z" id="boundary" inkscape:connector-curvature="0" />
	<path style="fill:none;stroke:red;stroke-width:1px;stroke-linecap:butt;stroke-linejoin:miter;stroke-opacity:1" d="M 506.673,580.072 517.794,600.09 z" id="boundary" inkscape:connector-curvature="0" />
	<path style="fill:none;stroke:red;stroke-width:1px;stroke-linecap:butt;stroke-linejoin:miter;stroke-opacity:1" d="M 526.691,622.332 517.794,600.09 z" id="boundary" inkscape:connector-curvature="0" />
	<path style="fill:none;stroke:red;stroke-width:1px;stroke-linecap:butt;stroke-linejoin:miter;stroke-opacity:1" d="M 584.52,346.529 573.399,326.511 z" id="boundary" inkscape:connector-curvature="0" />
	<path style="fill:none;stroke:red;stroke-width:1px;stroke-linecap:butt;stroke-linejoin:miter;stroke-opacity:1" d="M 584.52,346.529 595.641,366.547 z" id="boundary" inkscape:connector-curvature="0" />
	<path style="fill:none;stroke:red;stroke-width:1px;stroke-linecap:butt;stroke-linejoin:miter;stroke-opacity:1" d="M 595.641,366.547 606.762,386.565 z" id="boundary" inkscape:connector-curvature="0" />
	<path style="fill:none;stroke:red;stroke-width:1px;stroke-linecap:butt;stroke-linejoin:miter;stroke-opacity:1" d="M 606.762,386.565 617.883,406.583 z" id="boundary" inkscape:connector-curvature="0" />
	<path style="fill:none;stroke:red;stroke-width:1px;stroke-linecap:butt;stroke-linejoin:miter;stroke-opacity:1" d="M 617.883,428.825 617.883,406.583 z" id="boundary" inkscape:connector-curvature="0" />
	<path style="fill:none;stroke:red;stroke-width:1px;stroke-linecap:butt;stroke-linejoin:miter;stroke-opacity:1" d="M 617.883,428.825 629.004,448.843 z" id="boundary" inkscape:connector-curvature="0" />
	<path style="fill:none;stroke:red;stroke-width:1px;stroke-linecap:butt;stroke-linejoin:miter;stroke-opacity:1" d="M 629.004,471.085 629.004,448.843 z" id="boundary" inkscape:connector-curvature="0" />
	<path style="fill:none;stroke:red;stroke-width:1px;stroke-linecap:butt;stroke-linejoin:miter;stroke-opacity:1" d="M 629.004,493.327 629.004,515.57 z" id="boundary" inkscape:connector-curvature="0" />
	<path style="fill:none;stroke:red;stroke-width:1px;stroke-linecap:butt;stroke-linejoin:miter;stroke-opacity:1" d="M 629.004,537.812 629.004,515.57 z" id="boundary" inkscape:connector-curvature="0" />
	<path style="fill:none;stroke:red;stroke-width:1px;stroke-linecap:butt;stroke-linejoin:miter;stroke-opacity:1" d="M 629.004,560.054 629.004,582.296 z" id="boundary" inkscape:connector-curvature="0" />
	<path style="fill:none;stroke:red;stroke-width:1px;stroke-linecap:butt;stroke-linejoin:miter;stroke-opacity:1" d="M 629.004,560.054 629.004,537.812 z" id="boundary" inkscape:connector-curvature="0" />
	<path style="fill:none;stroke:red;stroke-width:1px;stroke-linecap:butt;stroke-linejoin:miter;stroke-opacity:1" d="M 662.368,604.538 640.126,602.314 z" id="boundary" inkscape:connector-curvature="0" />
	<path style="fill:none;stroke:red;stroke-width:1px;stroke-linecap:butt;stroke-linejoin:miter;stroke-opacity:1" d="M 629.004,493.327 629.004,471.085 z" id="boundary" inkscape:connector-curvature="0" />
	<path style="fill:none;stroke:red;stroke-width:1px;stroke-linecap:butt;stroke-linejoin:miter;stroke-opacity:1" d="M 629.004,582.296 640.126,602.314 z" id="boundary" inkscape:connector-curvature="0" />
	<path style="fill:none;stroke:red;stroke-width:1px;stroke-linecap:butt;stroke-linejoin:miter;stroke-opacity:1" d="M 662.368,604.538 684.61,604.538 z" id="boundary" inkscape:connector-curvature="0" />
	<path style="fill:none;stroke:red;stroke-width:1px;stroke-linecap:butt;stroke-linejoin:miter;stroke-opacity:1" d="M 704.628,615.659 684.61,604.538 z" id="boundary" inkscape:connector-curvature="0" />
	<path style="fill:none;stroke:red;stroke-width:1px;stroke-linecap:butt;stroke-linejoin:miter;stroke-opacity:1" d="M 722.422,629.004 704.628,615.659 z" id="boundary" inkscape:connector-curvature="0" />
	<path style="fill:none;stroke:red;stroke-width:1px;stroke-linecap:butt;stroke-linejoin:miter;stroke-opacity:1" d="M 562.278,651.247 544.484,637.901 z" id="boundary" inkscape:connector-curvature="0" />
	<path style="fill:none;stroke:red;stroke-width:1px;stroke-linecap:butt;stroke-linejoin:miter;stroke-opacity:1" d="M 544.484,637.901 526.691,622.332 z" id="boundary" inkscape:connector-curvature="0" />
	<path style="fill:none;stroke:red;stroke-width:1px;stroke-linecap:butt;stroke-linejoin:miter;stroke-opacity:1" d="M 604.538,662.368 582.296,662.368 z" id="boundary" inkscape:connector-curvature="0" />
	<path style="fill:none;stroke:red;stroke-width:1px;stroke-linecap:butt;stroke-linejoin:miter;stroke-opacity:1" d="M 562.278,651.247 582.296,662.368 z" id="boundary" inkscape:connector-curvature="0" />
	<path style="fill:none;stroke:red;stroke-width:1px;stroke-linecap:butt;stroke-linejoin:miter;stroke-opacity:1" d="M 617.883,680.161 635.677,695.731 z" id="boundary" inkscape:connector-curvature="0" />
	<path style="fill:none;stroke:red;stroke-width:1px;stroke-linecap:butt;stroke-linejoin:miter;stroke-opacity:1" d="M 604.538,662.368 617.883,680.161 z" id="boundary" inkscape:connector-curvature="0" />
	<path style="fill:none;stroke:red;stroke-width:1px;stroke-linecap:butt;stroke-linejoin:miter;stroke-opacity:1" d="M 740.215,644.574 722.422,629.004 z" id="boundary" inkscape:connector-curvature="0" />
	<path style="fill:none;stroke:red;stroke-width:1px;stroke-linecap:butt;stroke-linejoin:miter;stroke-opacity:1" d="M 762.457,649.022 740.215,644.574 z" id="boundary" inkscape:connector-curvature="0" />
	<path style="fill:none;stroke:red;stroke-width:1px;stroke-linecap:butt;stroke-linejoin:miter;stroke-opacity:1" d="M 655.695,706.852 675.713,717.973 z" id="boundary" inkscape:connector-curvature="0" />
	<path style="fill:none;stroke:red;stroke-width:1px;stroke-linecap:butt;stroke-linejoin:miter;stroke-opacity:1" d="M 655.695,706.852 635.677,695.731 z" id="boundary" inkscape:connector-curvature="0" />
	<path style="fill:none;stroke:red;stroke-width:1px;stroke-linecap:butt;stroke-linejoin:miter;stroke-opacity:1" d="M 720.197,717.973 697.955,717.973 z" id="boundary" inkscape:connector-curvature="0" />
	<path style="fill:none;stroke:red;stroke-width:1px;stroke-linecap:butt;stroke-linejoin:miter;stroke-opacity:1" d="M 697.955,717.973 675.713,717.973 z" id="boundary" inkscape:connector-curvature="0" />
	<path style="fill:none;stroke:red;stroke-width:1px;stroke-linecap:butt;stroke-linejoin:miter;stroke-opacity:1" d="M 740.215,729.094 720.197,717.973 z" id="boundary" inkscape:connector-curvature="0" />
	<path style="fill:none;stroke:red;stroke-width:1px;stroke-linecap:butt;stroke-linejoin:miter;stroke-opacity:1" d="M 762.457,729.094 740.215,729.094 z" id="boundary" inkscape:connector-curvature="0" />
	<path style="fill:none;stroke:red;stroke-width:1px;stroke-linecap:butt;stroke-linejoin:miter;stroke-opacity:1" d="M 784.7,729.094 762.457,729.094 z" id="boundary" inkscape:connector-curvature="0" />
	<path style="fill:none;stroke:red;stroke-width:1px;stroke-linecap:butt;stroke-linejoin:miter;stroke-opacity:1" d="M 762.457,649.022 784.7,649.022 z" id="boundary" inkscape:connector-curvature="0" />
	<path style="fill:none;stroke:red;stroke-width:1px;stroke-linecap:butt;stroke-linejoin:miter;stroke-opacity:1" d="M 784.7,649.022 806.942,649.022 z" id="boundary" inkscape:connector-curvature="0" />
	<path style="fill:none;stroke:red;stroke-width:1px;stroke-linecap:butt;stroke-linejoin:miter;stroke-opacity:1" d="M 806.942,649.022 829.184,649.022 z" id="boundary" inkscape:connector-curvature="0" />
	<path style="fill:none;stroke:red;stroke-width:1px;stroke-linecap:butt;stroke-linejoin:miter;stroke-opacity:1" d="M 851.426,649.022 873.668,649.022 z" id="boundary" inkscape:connector-curvature="0" />
	<path style="fill:none;stroke:red;stroke-width:1px;stroke-linecap:butt;stroke-linejoin:miter;stroke-opacity:1" d="M 851.426,649.022 829.184,649.022 z" id="boundary" inkscape:connector-curvature="0" />
	<path style="fill:none;stroke:red;stroke-width:1px;stroke-linecap:butt;stroke-linejoin:miter;stroke-opacity:1" d="M 873.668,649.022 895.91,649.022 z" id="boundary" inkscape:connector-curvature="0" />
	<path style="fill:none;stroke:red;stroke-width:1px;stroke-linecap:butt;stroke-linejoin:miter;stroke-opacity:1" d="M 806.942,729.094 784.7,729.094 z" id="boundary" inkscape:connector-curvature="0" />
	<path style="fill:none;stroke:red;stroke-width:1px;stroke-linecap:butt;stroke-linejoin:miter;stroke-opacity:1" d="M 918.152,649.022 940.395,649.022 z" id="boundary" inkscape:connector-curvature="0" />
	<path style="fill:none;stroke:red;stroke-width:1px;stroke-linecap:butt;stroke-linejoin:miter;stroke-opacity:1" d="M 918.152,649.022 895.91,649.022 z" id="boundary" inkscape:connector-curvature="0" />
	<path style="fill:none;stroke:red;stroke-width:1px;stroke-linecap:butt;stroke-linejoin:miter;stroke-opacity:1" d="M 940.395,649.022 962.637,649.022 z" id="boundary" inkscape:connector-curvature="0" />
	<path style="fill:none;stroke:red;stroke-width:1px;stroke-linecap:butt;stroke-linejoin:miter;stroke-opacity:1" d="M 980.43,662.368 962.637,649.022 z" id="boundary" inkscape:connector-curvature="0" />
	<path style="fill:none;stroke:red;stroke-width:1px;stroke-linecap:butt;stroke-linejoin:miter;stroke-opacity:1" d="M 996,680.161 996,702.404 z" id="boundary" inkscape:connector-curvature="0" />
	<path style="fill:none;stroke:red;stroke-width:1px;stroke-linecap:butt;stroke-linejoin:miter;stroke-opacity:1" d="M 980.43,662.368 996,680.161 z" id="boundary" inkscape:connector-curvature="0" />
	<path style="fill:none;stroke:red;stroke-width:1px;stroke-linecap:butt;stroke-linejoin:miter;stroke-opacity:1" d="M 996,702.404 984.879,729.094 z" id="boundary" inkscape:connector-curvature="0" />
	<path style="fill:none;stroke:red;stroke-width:1px;stroke-linecap:butt;stroke-linejoin:miter;stroke-opacity:1" d="M 806.942,729.094 829.184,729.094 z" id="boundary" inkscape:connector-curvature="0" />
	<path style="fill:none;stroke:red;stroke-width:1px;stroke-linecap:butt;stroke-linejoin:miter;stroke-opacity:1" d="M 829.184,729.094 849.202,740.215 z" id="boundary" inkscape:connector-curvature="0" />
	<path style="fill:none;stroke:red;stroke-width:1px;stroke-linecap:butt;stroke-linejoin:miter;stroke-opacity:1" d="M 849.202,740.215 871.444,740.215 z" id="boundary" inkscape:connector-curvature="0" />
	<path style="fill:none;stroke:red;stroke-width:1px;stroke-linecap:butt;stroke-linejoin:miter;stroke-opacity:1" d="M 871.444,740.215 891.462,751.336 z" id="boundary" inkscape:connector-curvature="0" />
	<path style="fill:none;stroke:red;stroke-width:1px;stroke-linecap:butt;stroke-linejoin:miter;stroke-opacity:1" d="M 907.031,769.13 891.462,751.336 z" id="boundary" inkscape:connector-curvature="0" />
	<path style="fill:none;stroke:red;stroke-width:1px;stroke-linecap:butt;stroke-linejoin:miter;stroke-opacity:1" d="M 907.031,769.13 918.152,789.148 z" id="boundary" inkscape:connector-curvature="0" />
	<path style="fill:none;stroke:red;stroke-width:1px;stroke-linecap:butt;stroke-linejoin:miter;stroke-opacity:1" d="M 973.758,762.457 984.879,729.094 z" id="boundary" inkscape:connector-curvature="0" />
	<path style="fill:none;stroke:red;stroke-width:1px;stroke-linecap:butt;stroke-linejoin:miter;stroke-opacity:1" d="M 973.758,784.7 973.758,762.457 z" id="boundary" inkscape:connector-curvature="0" />
	<path style="fill:none;stroke:red;stroke-width:1px;stroke-linecap:butt;stroke-linejoin:miter;stroke-opacity:1" d="M 933.722,806.942 918.152,789.148 z" id="boundary" inkscape:connector-curvature="0" />
	<path style="fill:none;stroke:red;stroke-width:1px;stroke-linecap:butt;stroke-linejoin:miter;stroke-opacity:1" d="M 955.964,804.717 933.722,806.942 z" id="boundary" inkscape:connector-curvature="0" />
	<path style="fill:none;stroke:red;stroke-width:1px;stroke-linecap:butt;stroke-linejoin:miter;stroke-opacity:1" d="M 973.758,784.7 955.964,804.717 z" id="boundary" inkscape:connector-curvature="0" />
	<circle cx="4" cy="789.148" r="4" fill="#0" id="circle0"/>
	<circle cx="4" cy="811.39" r="4" fill="#0" id="circle1"/>
	<circle cx="21.7937" cy="771.354" r="4" fill="#0" id="circle2"/>
	<circle cx="21.7937" cy="826.96" r="4" fill="#0" id="circle3"/>
	<circle cx="30.6906" cy="849.202" r="4" fill="#0" id="circle4"/>
	<circle cx="41.8117" cy="869.22" r="4" fill="#0" id="circle5"/>
	<circle cx="44.0359" cy="760.233" r="4" fill="#0" id="circle6"/>
	<circle cx="59.6054" cy="44.0359" r="4" fill="#0" id="circle7"/>
	<circle cx="59.6054" cy="66.278" r="4" fill="#0" id="circle8"/>
	<circle cx="59.6054" cy="88.5202" r="4" fill="#0" id="circle9"/>
	<circle cx="59.6054" cy="884.789" r="4" fill="#0" id="circle10"/>
	<circle cx="66.278" cy="760.233" r="4" fill="#0" id="circle11"/>
	<circle cx="70.7265" cy="21.7937" r="4" fill="#0" id="circle12"/>
	<circle cx="70.7265" cy="108.538" r="4" fill="#0" id="circle13"/>
	<circle cx="72.9507" cy="902.583" r="4" fill="#0" id="circle14"/>
	<circle cx="81.8475" cy="128.556" r="4" fill="#0" id="circle15"/>
	<circle cx="88.5202" cy="150.798" r="4" fill="#0" id="circle16"/>
	<circle cx="88.5202" cy="760.233" r="4" fill="#0" id="circle17"/>
	<circle cx="92.9686" cy="10.6726" r="4" fill="#0" id="circle18"/>
	<circle cx="95.1928" cy="911.48" r="4" fill="#0" id="circle19"/>
	<circle cx="106.314" cy="742.439" r="4" fill="#0" id="circle20"/>
	<circle cx="108.538" cy="161.919" r="4" fill="#0" id="circle21"/>
	<circle cx="115.211" cy="4" r="4" fill="#0" id="circle22"/>
	<circle cx="117.435" cy="720.197" r="4" fill="#0" id="circle23"/>
	<circle cx="117.435" cy="907.031" r="4" fill="#0" id="circle24"/>
	<circle cx="128.556" cy="173.04" r="4" fill="#0" id="circle25"/>
	<circle cx="128.556" cy="697.955" r="4" fill="#0" id="circle26"/>
	<circle cx="137.453" cy="4" r="4" fill="#0" id="circle27"/>
	<circle cx="137.453" cy="666.816" r="4" fill="#0" id="circle28"/>
	<circle cx="139.677" cy="895.91" r="4" fill="#0" id="circle29"/>
	<circle cx="148.574" cy="184.161" r="4" fill="#0" id="circle30"/>
	<circle cx="148.574" cy="644.574" r="4" fill="#0" id="circle31"/>
	<circle cx="157.471" cy="15.1211" r="4" fill="#0" id="circle32"/>
	<circle cx="157.471" cy="880.341" r="4" fill="#0" id="circle33"/>
	<circle cx="159.695" cy="204.179" r="4" fill="#0" id="circle34"/>
	<circle cx="166.368" cy="626.78" r="4" fill="#0" id="circle35"/>
	<circle cx="168.592" cy="858.099" r="4" fill="#0" id="circle36"/>
	<circle cx="173.04" cy="221.973" r="4" fill="#0" id="circle37"/>
	<circle cx="173.04" cy="829.184" r="4" fill="#0" id="circle38"/>
	<circle cx="177.489" cy="26.2422" r="4" fill="#0" id="circle39"/>
	<circle cx="181.937" cy="600.09" r="4" fill="#0" id="circle40"/>
	<circle cx="184.161" cy="795.821" r="4" fill="#0" id="circle41"/>
	<circle cx="188.61" cy="239.767" r="4" fill="#0" id="circle42"/>
	<circle cx="195.283" cy="762.457" r="4" fill="#0" id="circle43"/>
	<circle cx="197.507" cy="37.3632" r="4" fill="#0" id="circle44"/>
	<circle cx="199.731" cy="582.296" r="4" fill="#0" id="circle45"/>
	<circle cx="206.404" cy="255.336" r="4" fill="#0" id="circle46"/>
	<circle cx="206.404" cy="740.215" r="4" fill="#0" id="circle47"/>
	<circle cx="210.852" cy="560.054" r="4" fill="#0" id="circle48"/>
	<circle cx="215.3" cy="52.9327" r="4" fill="#0" id="circle49"/>
	<circle cx="215.3" cy="277.578" r="4" fill="#0" id="circle50"/>
	<circle cx="224.197" cy="724.646" r="4" fill="#0" id="circle51"/>
	<circle cx="226.422" cy="297.596" r="4" fill="#0" id="circle52"/>
	<circle cx="228.646" cy="542.26" r="4" fill="#0" id="circle53"/>
	<circle cx="235.318" cy="702.404" r="4" fill="#0" id="circle54"/>
	<circle cx="237.543" cy="59.6054" r="4" fill="#0" id="circle55"/>
	<circle cx="246.439" cy="526.691" r="4" fill="#0" id="circle56"/>
	<circle cx="248.664" cy="306.493" r="4" fill="#0" id="circle57"/>
	<circle cx="250.888" cy="673.489" r="4" fill="#0" id="circle58"/>
	<circle cx="255.336" cy="504.448" r="4" fill="#0" id="circle59"/>
	<circle cx="259.785" cy="59.6054" r="4" fill="#0" id="circle60"/>
	<circle cx="262.009" cy="651.247" r="4" fill="#0" id="circle61"/>
	<circle cx="268.682" cy="317.614" r="4" fill="#0" id="circle62"/>
	<circle cx="273.13" cy="486.655" r="4" fill="#0" id="circle63"/>
	<circle cx="273.13" cy="629.004" r="4" fill="#0" id="circle64"/>
	<circle cx="282.027" cy="64.0538" r="4" fill="#0" id="circle65"/>
	<circle cx="284.251" cy="335.408" r="4" fill="#0" id="circle66"/>
	<circle cx="284.251" cy="606.762" r="4" fill="#0" id="circle67"/>
	<circle cx="290.924" cy="471.085" r="4" fill="#0" id="circle68"/>
	<circle cx="295.372" cy="551.157" r="4" fill="#0" id="circle69"/>
	<circle cx="295.372" cy="573.399" r="4" fill="#0" id="circle70"/>
	<circle cx="302.045" cy="75.1749" r="4" fill="#0" id="circle71"/>
	<circle cx="306.493" cy="344.305" r="4" fill="#0" id="circle72"/>
	<circle cx="306.493" cy="453.291" r="4" fill="#0" id="circle73"/>
	<circle cx="317.614" cy="551.157" r="4" fill="#0" id="circle74"/>
	<circle cx="322.063" cy="362.099" r="4" fill="#0" id="circle75"/>
	<circle cx="324.287" cy="81.8475" r="4" fill="#0" id="circle76"/>
	<circle cx="324.287" cy="437.722" r="4" fill="#0" id="circle77"/>
	<circle cx="326.511" cy="384.341" r="4" fill="#0" id="circle78"/>
	<circle cx="326.511" cy="406.583" r="4" fill="#0" id="circle79"/>
	<circle cx="339.857" cy="551.157" r="4" fill="#0" id="circle80"/>
	<circle cx="344.305" cy="92.9686" r="4" fill="#0" id="circle81"/>
	<circle cx="362.099" cy="540.036" r="4" fill="#0" id="circle82"/>
	<circle cx="364.323" cy="104.09" r="4" fill="#0" id="circle83"/>
	<circle cx="382.117" cy="119.659" r="4" fill="#0" id="circle84"/>
	<circle cx="384.341" cy="540.036" r="4" fill="#0" id="circle85"/>
	<circle cx="395.462" cy="137.453" r="4" fill="#0" id="circle86"/>
	<circle cx="406.583" cy="540.036" r="4" fill="#0" id="circle87"/>
	<circle cx="415.48" cy="148.574" r="4" fill="#0" id="circle88"/>
	<circle cx="426.601" cy="528.915" r="4" fill="#0" id="circle89"/>
	<circle cx="435.498" cy="159.695" r="4" fill="#0" id="circle90"/>
	<circle cx="448.843" cy="528.915" r="4" fill="#0" id="circle91"/>
	<circle cx="455.516" cy="170.816" r="4" fill="#0" id="circle92"/>
	<circle cx="471.085" cy="188.61" r="4" fill="#0" id="circle93"/>
	<circle cx="471.085" cy="528.915" r="4" fill="#0" id="circle94"/>
	<circle cx="488.879" cy="204.179" r="4" fill="#0" id="circle95"/>
	<circle cx="491.103" cy="540.036" r="4" fill="#0" id="circle96"/>
	<circle cx="493.327" cy="562.278" r="4" fill="#0" id="circle97"/>
	<circle cx="506.673" cy="580.072" r="4" fill="#0" id="circle98"/>
	<circle cx="508.897" cy="215.3" r="4" fill="#0" id="circle99"/>
	<circle cx="517.794" cy="600.09" r="4" fill="#0" id="circle100"/>
	<circle cx="526.691" cy="230.87" r="4" fill="#0" id="circle101"/>
	<circle cx="526.691" cy="622.332" r="4" fill="#0" id="circle102"/>
	<circle cx="535.587" cy="253.112" r="4" fill="#0" id="circle103"/>
	<circle cx="540.036" cy="275.354" r="4" fill="#0" id="circle104"/>
	<circle cx="540.036" cy="297.596" r="4" fill="#0" id="circle105"/>
	<circle cx="544.484" cy="637.901" r="4" fill="#0" id="circle106"/>
	<circle cx="560.054" cy="308.717" r="4" fill="#0" id="circle107"/>
	<circle cx="562.278" cy="651.247" r="4" fill="#0" id="circle108"/>
	<circle cx="573.399" cy="326.511" r="4" fill="#0" id="circle109"/>
	<circle cx="582.296" cy="662.368" r="4" fill="#0" id="circle110"/>
	<circle cx="584.52" cy="346.529" r="4" fill="#0" id="circle111"/>
	<circle cx="595.641" cy="366.547" r="4" fill="#0" id="circle112"/>
	<circle cx="604.538" cy="662.368" r="4" fill="#0" id="circle113"/>
	<circle cx="606.762" cy="386.565" r="4" fill="#0" id="circle114"/>
	<circle cx="617.883" cy="406.583" r="4" fill="#0" id="circle115"/>
	<circle cx="617.883" cy="428.825" r="4" fill="#0" id="circle116"/>
	<circle cx="617.883" cy="680.161" r="4" fill="#0" id="circle117"/>
	<circle cx="629.004" cy="448.843" r="4" fill="#0" id="circle118"/>
	<circle cx="629.004" cy="471.085" r="4" fill="#0" id="circle119"/>
	<circle cx="629.004" cy="493.327" r="4" fill="#0" id="circle120"/>
	<circle cx="629.004" cy="515.57" r="4" fill="#0" id="circle121"/>
	<circle cx="629.004" cy="537.812" r="4" fill="#0" id="circle122"/>
	<circle cx="629.004" cy="560.054" r="4" fill="#0" id="circle123"/>
	<circle cx="629.004" cy="582.296" r="4" fill="#0" id="circle124"/>
	<circle cx="635.677" cy="695.731" r="4" fill="#0" id="circle125"/>
	<circle cx="640.126" cy="602.314" r="4" fill="#0" id="circle126"/>
	<circle cx="655.695" cy="706.852" r="4" fill="#0" id="circle127"/>
	<circle cx="662.368" cy="604.538" r="4" fill="#0" id="circle128"/>
	<circle cx="675.713" cy="717.973" r="4" fill="#0" id="circle129"/>
	<circle cx="684.61" cy="604.538" r="4" fill="#0" id="circle130"/>
	<circle cx="697.955" cy="717.973" r="4" fill="#0" id="circle131"/>
	<circle cx="704.628" cy="615.659" r="4" fill="#0" id="circle132"/>
	<circle cx="720.197" cy="717.973" r="4" fill="#0" id="circle133"/>
	<circle cx="722.422" cy="629.004" r="4" fill="#0" id="circle134"/>
	<circle cx="740.215" cy="644.574" r="4" fill="#0" id="circle135"/>
	<circle cx="740.215" cy="729.094" r="4" fill="#0" id="circle136"/>
	<circle cx="762.457" cy="649.022" r="4" fill="#0" id="circle137"/>
	<circle cx="762.457" cy="729.094" r="4" fill="#0" id="circle138"/>
	<circle cx="784.7" cy="649.022" r="4" fill="#0" id="circle139"/>
	<circle cx="784.7" cy="729.094" r="4" fill="#0" id="circle140"/>
	<circle cx="806.942" cy="649.022" r="4" fill="#0" id="circle141"/>
	<circle cx="806.942" cy="729.094" r="4" fill="#0" id="circle142"/>
	<circle cx="829.184" cy="649.022" r="4" fill="#0" id="circle143"/>
	<circle cx="829.184" cy="729.094" r="4" fill="#0" id="circle144"/>
	<circle cx="849.202" cy="740.215" r="4" fill="#0" id="circle145"/>
	<circle cx="851.426" cy="649.022" r="4" fill="#0" id="circle146"/>
	<circle cx="871.444" cy="740.215" r="4" fill="#0" id="circle147"/>
	<circle cx="873.668" cy="649.022" r="4" fill="#0" id="circle148"/>
	<circle cx="891.462" cy="751.336" r="4" fill="#0" id="circle149"/>
	<circle cx="895.91" cy="649.022" r="4" fill="#0" id="circle150"/>
	<circle cx="907.031" cy="769.13" r="4" fill="#0" id="circle151"/>
	<circle cx="918.152" cy="649.022" r="4" fill="#0" id="circle152"/>
	<circle cx="918.152" cy="789.148" r="4" fill="#0" id="circle153"/>
	<circle cx="933.722" cy="806.942" r="4" fill="#0" id="circle154"/>
	<circle cx="940.395" cy="649.022" r="4" fill="#0" id="circle155"/>
	<circle cx="955.964" cy="804.717" r="4" fill="#0" id="circle156"/>
	<circle cx="962.637" cy="649.022" r="4" fill="#0" id="circle157"/>
	<circle cx="973.758" cy="762.457" r="4" fill="#0" id="circle158"/>
	<circle cx="973.758" cy="784.7" r="4" fill="#0" id="circle159"/>
	<circle cx="980.43" cy="662.368" r="4" fill="#0" id="circle160"/>
	<circle cx="984.879" cy="729.094" r="4" fill="#0" id="circle161"/>
	<circle cx="996" cy="680.161" r="4" fill="#0" id="circle162"/>
	<circle cx="996" cy="702.404" r="4" fill="#0" id="circle163"/>
	</g>
</svg>