<?xml version="1.0" encoding="UTF-8" standalone="no"?>
<!-- Created with CurveBenchmark -->
<svg
	xmlns:dc="http://purl.org/dc/elements/1.1/"
	xmlns:cc="http://creativecommons.org/ns#"
	xmlns:rdf="http://www.w3.org/1999/02/22-rdf-syntax-ns#"
	xmlns:svg="http://www.w3.org/2000/svg"
	xmlns="http://www.w3.org/2000/svg"
	xmlns:sodipodi="http://sodipodi.sourceforge.net/DTD/sodipodi-0.dtd"
	xmlns:inkscape="http://www.inkscape.org/namespaces/inkscape"
	width="1000"
	height="1000"
	id="svg2"
	version="1.1"
	sodipodi:docname="manifold/crust-chicken-7.png.txt">
<defs
	id="defs4" />
<metadata
	id="metadata7">
	<rdf:RDF>
		<cc:Work
			rdf:about="">
			<dc:format>image/svg+xml</dc:format>
			<dc:type
				rdf:resource="http://purl.org/dc/dcmitype/StillImage" />
			<dc:title></dc:title>
		</cc:Work>
	</rdf:RDF>
</metadata>
<g
	inkscape:label="Layer 1"
	inkscape:groupmode="layer"
	id="layer1">
	<path style="fill:none;stroke:red;stroke-width:1px;stroke-linecap:butt;stroke-linejoin:miter;stroke-opacity:1" d="M 52.062,498.078 32.8372,490.388 z" id="boundary" inkscape:connector-curvature="0" />
	<path style="fill:none;stroke:red;stroke-width:1px;stroke-linecap:butt;stroke-linejoin:miter;stroke-opacity:1" d="M 32.8372,509.612 32.8372,490.388 z" id="boundary" inkscape:connector-curvature="0" />
	<path style="fill:none;stroke:red;stroke-width:1px;stroke-linecap:butt;stroke-linejoin:miter;stroke-opacity:1" d="M 32.8372,509.612 42.4496,526.915 z" id="boundary" inkscape:connector-curvature="0" />
	<path style="fill:none;stroke:red;stroke-width:1px;stroke-linecap:butt;stroke-linejoin:miter;stroke-opacity:1" d="M 42.4496,526.915 42.4496,546.14 z" id="boundary" inkscape:connector-curvature="0" />
	<path style="fill:none;stroke:red;stroke-width:1px;stroke-linecap:butt;stroke-linejoin:miter;stroke-opacity:1" d="M 52.062,498.078 63.5969,513.457 z" id="boundary" inkscape:connector-curvature="0" />
	<path style="fill:none;stroke:red;stroke-width:1px;stroke-linecap:butt;stroke-linejoin:miter;stroke-opacity:1" d="M 167.411,413.488 157.798,432.713 z" id="boundary" inkscape:connector-curvature="0" />
	<path style="fill:none;stroke:red;stroke-width:1px;stroke-linecap:butt;stroke-linejoin:miter;stroke-opacity:1" d="M 157.798,432.713 157.798,451.938 z" id="boundary" inkscape:connector-curvature="0" />
	<path style="fill:none;stroke:red;stroke-width:1px;stroke-linecap:butt;stroke-linejoin:miter;stroke-opacity:1" d="M 73.2093,530.76 63.5969,513.457 z" id="boundary" inkscape:connector-curvature="0" />
	<path style="fill:none;stroke:red;stroke-width:1px;stroke-linecap:butt;stroke-linejoin:miter;stroke-opacity:1" d="M 157.798,490.388 146.264,523.07 z" id="boundary" inkscape:connector-curvature="0" />
	<path style="fill:none;stroke:red;stroke-width:1px;stroke-linecap:butt;stroke-linejoin:miter;stroke-opacity:1" d="M 146.264,523.07 130.884,536.527 z" id="boundary" inkscape:connector-curvature="0" />
	<path style="fill:none;stroke:red;stroke-width:1px;stroke-linecap:butt;stroke-linejoin:miter;stroke-opacity:1" d="M 42.4496,565.364 42.4496,546.14 z" id="boundary" inkscape:connector-curvature="0" />
	<path style="fill:none;stroke:red;stroke-width:1px;stroke-linecap:butt;stroke-linejoin:miter;stroke-opacity:1" d="M 42.4496,565.364 32.8372,596.124 z" id="boundary" inkscape:connector-curvature="0" />
	<path style="fill:none;stroke:red;stroke-width:1px;stroke-linecap:butt;stroke-linejoin:miter;stroke-opacity:1" d="M 19.3798,619.194 32.8372,596.124 z" id="boundary" inkscape:connector-curvature="0" />
	<path style="fill:none;stroke:red;stroke-width:1px;stroke-linecap:butt;stroke-linejoin:miter;stroke-opacity:1" d="M 82.8217,592.279 63.5969,611.504 z" id="boundary" inkscape:connector-curvature="0" />
	<path style="fill:none;stroke:red;stroke-width:1px;stroke-linecap:butt;stroke-linejoin:miter;stroke-opacity:1" d="M 63.5969,611.504 63.5969,630.729 z" id="boundary" inkscape:connector-curvature="0" />
	<path style="fill:none;stroke:red;stroke-width:1px;stroke-linecap:butt;stroke-linejoin:miter;stroke-opacity:1" d="M 92.4341,551.907 73.2093,549.984 z" id="boundary" inkscape:connector-curvature="0" />
	<path style="fill:none;stroke:red;stroke-width:1px;stroke-linecap:butt;stroke-linejoin:miter;stroke-opacity:1" d="M 73.2093,530.76 73.2093,549.984 z" id="boundary" inkscape:connector-curvature="0" />
	<path style="fill:none;stroke:red;stroke-width:1px;stroke-linecap:butt;stroke-linejoin:miter;stroke-opacity:1" d="M 92.4341,551.907 111.659,546.14 z" id="boundary" inkscape:connector-curvature="0" />
	<path style="fill:none;stroke:red;stroke-width:1px;stroke-linecap:butt;stroke-linejoin:miter;stroke-opacity:1" d="M 111.659,546.14 130.884,536.527 z" id="boundary" inkscape:connector-curvature="0" />
	<path style="fill:none;stroke:red;stroke-width:1px;stroke-linecap:butt;stroke-linejoin:miter;stroke-opacity:1" d="M 82.8217,592.279 102.047,592.279 z" id="boundary" inkscape:connector-curvature="0" />
	<path style="fill:none;stroke:red;stroke-width:1px;stroke-linecap:butt;stroke-linejoin:miter;stroke-opacity:1" d="M 102.047,592.279 121.271,592.279 z" id="boundary" inkscape:connector-curvature="0" />
	<path style="fill:none;stroke:red;stroke-width:1px;stroke-linecap:butt;stroke-linejoin:miter;stroke-opacity:1" d="M 121.271,592.279 140.496,596.124 z" id="boundary" inkscape:connector-curvature="0" />
	<path style="fill:none;stroke:red;stroke-width:1px;stroke-linecap:butt;stroke-linejoin:miter;stroke-opacity:1" d="M 140.496,596.124 157.798,605.736 z" id="boundary" inkscape:connector-curvature="0" />
	<path style="fill:none;stroke:red;stroke-width:1px;stroke-linecap:butt;stroke-linejoin:miter;stroke-opacity:1" d="M 157.798,451.938 157.798,471.163 z" id="boundary" inkscape:connector-curvature="0" />
	<path style="fill:none;stroke:red;stroke-width:1px;stroke-linecap:butt;stroke-linejoin:miter;stroke-opacity:1" d="M 19.3798,619.194 4,634.574 z" id="boundary" inkscape:connector-curvature="0" />
	<path style="fill:none;stroke:red;stroke-width:1px;stroke-linecap:butt;stroke-linejoin:miter;stroke-opacity:1" d="M 253.922,134.729 253.922,153.953 z" id="boundary" inkscape:connector-curvature="0" />
	<path style="fill:none;stroke:red;stroke-width:1px;stroke-linecap:butt;stroke-linejoin:miter;stroke-opacity:1" d="M 263.535,115.504 253.922,134.729 z" id="boundary" inkscape:connector-curvature="0" />
	<path style="fill:none;stroke:red;stroke-width:1px;stroke-linecap:butt;stroke-linejoin:miter;stroke-opacity:1" d="M 253.922,153.953 253.922,173.178 z" id="boundary" inkscape:connector-curvature="0" />
	<path style="fill:none;stroke:red;stroke-width:1px;stroke-linecap:butt;stroke-linejoin:miter;stroke-opacity:1" d="M 278.915,100.124 263.535,115.504 z" id="boundary" inkscape:connector-curvature="0" />
	<path style="fill:none;stroke:red;stroke-width:1px;stroke-linecap:butt;stroke-linejoin:miter;stroke-opacity:1" d="M 263.535,209.705 253.922,192.403 z" id="boundary" inkscape:connector-curvature="0" />
	<path style="fill:none;stroke:red;stroke-width:1px;stroke-linecap:butt;stroke-linejoin:miter;stroke-opacity:1" d="M 253.922,192.403 253.922,173.178 z" id="boundary" inkscape:connector-curvature="0" />
	<path style="fill:none;stroke:red;stroke-width:1px;stroke-linecap:butt;stroke-linejoin:miter;stroke-opacity:1" d="M 263.535,228.93 263.535,209.705 z" id="boundary" inkscape:connector-curvature="0" />
	<path style="fill:none;stroke:red;stroke-width:1px;stroke-linecap:butt;stroke-linejoin:miter;stroke-opacity:1" d="M 294.295,84.7442 278.915,100.124 z" id="boundary" inkscape:connector-curvature="0" />
	<path style="fill:none;stroke:red;stroke-width:1px;stroke-linecap:butt;stroke-linejoin:miter;stroke-opacity:1" d="M 263.535,228.93 273.147,246.233 z" id="boundary" inkscape:connector-curvature="0" />
	<path style="fill:none;stroke:red;stroke-width:1px;stroke-linecap:butt;stroke-linejoin:miter;stroke-opacity:1" d="M 263.535,269.302 263.535,288.527 z" id="boundary" inkscape:connector-curvature="0" />
	<path style="fill:none;stroke:red;stroke-width:1px;stroke-linecap:butt;stroke-linejoin:miter;stroke-opacity:1" d="M 273.147,246.233 263.535,269.302 z" id="boundary" inkscape:connector-curvature="0" />
	<path style="fill:none;stroke:red;stroke-width:1px;stroke-linecap:butt;stroke-linejoin:miter;stroke-opacity:1" d="M 294.295,84.7442 309.674,71.2868 z" id="boundary" inkscape:connector-curvature="0" />
	<path style="fill:none;stroke:red;stroke-width:1px;stroke-linecap:butt;stroke-linejoin:miter;stroke-opacity:1" d="M 309.674,71.2868 323.132,55.907 z" id="boundary" inkscape:connector-curvature="0" />
	<path style="fill:none;stroke:red;stroke-width:1px;stroke-linecap:butt;stroke-linejoin:miter;stroke-opacity:1" d="M 400.031,17.4574 380.806,27.0698 z" id="boundary" inkscape:connector-curvature="0" />
	<path style="fill:none;stroke:red;stroke-width:1px;stroke-linecap:butt;stroke-linejoin:miter;stroke-opacity:1" d="M 342.357,46.2946 361.581,36.6822 z" id="boundary" inkscape:connector-curvature="0" />
	<path style="fill:none;stroke:red;stroke-width:1px;stroke-linecap:butt;stroke-linejoin:miter;stroke-opacity:1" d="M 361.581,36.6822 380.806,27.0698 z" id="boundary" inkscape:connector-curvature="0" />
	<path style="fill:none;stroke:red;stroke-width:1px;stroke-linecap:butt;stroke-linejoin:miter;stroke-opacity:1" d="M 323.132,55.907 342.357,46.2946 z" id="boundary" inkscape:connector-curvature="0" />
	<path style="fill:none;stroke:red;stroke-width:1px;stroke-linecap:butt;stroke-linejoin:miter;stroke-opacity:1" d="M 271.225,311.597 263.535,288.527 z" id="boundary" inkscape:connector-curvature="0" />
	<path style="fill:none;stroke:red;stroke-width:1px;stroke-linecap:butt;stroke-linejoin:miter;stroke-opacity:1" d="M 419.256,7.84496 400.031,17.4574 z" id="boundary" inkscape:connector-curvature="0" />
	<path style="fill:none;stroke:red;stroke-width:1px;stroke-linecap:butt;stroke-linejoin:miter;stroke-opacity:1" d="M 167.411,375.039 167.411,394.264 z" id="boundary" inkscape:connector-curvature="0" />
	<path style="fill:none;stroke:red;stroke-width:1px;stroke-linecap:butt;stroke-linejoin:miter;stroke-opacity:1" d="M 186.636,369.271 167.411,375.039 z" id="boundary" inkscape:connector-curvature="0" />
	<path style="fill:none;stroke:red;stroke-width:1px;stroke-linecap:butt;stroke-linejoin:miter;stroke-opacity:1" d="M 167.411,394.264 167.411,413.488 z" id="boundary" inkscape:connector-curvature="0" />
	<path style="fill:none;stroke:red;stroke-width:1px;stroke-linecap:butt;stroke-linejoin:miter;stroke-opacity:1" d="M 203.938,359.659 186.636,369.271 z" id="boundary" inkscape:connector-curvature="0" />
	<path style="fill:none;stroke:red;stroke-width:1px;stroke-linecap:butt;stroke-linejoin:miter;stroke-opacity:1" d="M 215.473,326.977 203.938,359.659 z" id="boundary" inkscape:connector-curvature="0" />
	<path style="fill:none;stroke:red;stroke-width:1px;stroke-linecap:butt;stroke-linejoin:miter;stroke-opacity:1" d="M 157.798,471.163 157.798,490.388 z" id="boundary" inkscape:connector-curvature="0" />
	<path style="fill:none;stroke:red;stroke-width:1px;stroke-linecap:butt;stroke-linejoin:miter;stroke-opacity:1" d="M 157.798,605.736 157.798,624.961 z" id="boundary" inkscape:connector-curvature="0" />
	<path style="fill:none;stroke:red;stroke-width:1px;stroke-linecap:butt;stroke-linejoin:miter;stroke-opacity:1" d="M 167.411,642.264 157.798,624.961 z" id="boundary" inkscape:connector-curvature="0" />
	<path style="fill:none;stroke:red;stroke-width:1px;stroke-linecap:butt;stroke-linejoin:miter;stroke-opacity:1" d="M 252,311.597 234.698,321.209 z" id="boundary" inkscape:connector-curvature="0" />
	<path style="fill:none;stroke:red;stroke-width:1px;stroke-linecap:butt;stroke-linejoin:miter;stroke-opacity:1" d="M 215.473,326.977 234.698,321.209 z" id="boundary" inkscape:connector-curvature="0" />
	<path style="fill:none;stroke:red;stroke-width:1px;stroke-linecap:butt;stroke-linejoin:miter;stroke-opacity:1" d="M 252,311.597 271.225,311.597 z" id="boundary" inkscape:connector-curvature="0" />
	<path style="fill:none;stroke:red;stroke-width:1px;stroke-linecap:butt;stroke-linejoin:miter;stroke-opacity:1" d="M 13.6124,651.876 4,634.574 z" id="boundary" inkscape:connector-curvature="0" />
	<path style="fill:none;stroke:red;stroke-width:1px;stroke-linecap:butt;stroke-linejoin:miter;stroke-opacity:1" d="M 48.2171,648.031 32.8372,659.566 z" id="boundary" inkscape:connector-curvature="0" />
	<path style="fill:none;stroke:red;stroke-width:1px;stroke-linecap:butt;stroke-linejoin:miter;stroke-opacity:1" d="M 13.6124,651.876 32.8372,659.566 z" id="boundary" inkscape:connector-curvature="0" />
	<path style="fill:none;stroke:red;stroke-width:1px;stroke-linecap:butt;stroke-linejoin:miter;stroke-opacity:1" d="M 61.6744,730.698 57.8295,763.38 z" id="boundary" inkscape:connector-curvature="0" />
	<path style="fill:none;stroke:red;stroke-width:1px;stroke-linecap:butt;stroke-linejoin:miter;stroke-opacity:1" d="M 61.6744,711.473 61.6744,730.698 z" id="boundary" inkscape:connector-curvature="0" />
	<path style="fill:none;stroke:red;stroke-width:1px;stroke-linecap:butt;stroke-linejoin:miter;stroke-opacity:1" d="M 57.8295,763.38 42.4496,778.76 z" id="boundary" inkscape:connector-curvature="0" />
	<path style="fill:none;stroke:red;stroke-width:1px;stroke-linecap:butt;stroke-linejoin:miter;stroke-opacity:1" d="M 61.6744,711.473 80.8992,705.705 z" id="boundary" inkscape:connector-curvature="0" />
	<path style="fill:none;stroke:red;stroke-width:1px;stroke-linecap:butt;stroke-linejoin:miter;stroke-opacity:1" d="M 48.2171,648.031 63.5969,630.729 z" id="boundary" inkscape:connector-curvature="0" />
	<path style="fill:none;stroke:red;stroke-width:1px;stroke-linecap:butt;stroke-linejoin:miter;stroke-opacity:1" d="M 96.2791,717.24 80.8992,705.705 z" id="boundary" inkscape:connector-curvature="0" />
	<path style="fill:none;stroke:red;stroke-width:1px;stroke-linecap:butt;stroke-linejoin:miter;stroke-opacity:1" d="M 111.659,730.698 96.2791,717.24 z" id="boundary" inkscape:connector-curvature="0" />
	<path style="fill:none;stroke:red;stroke-width:1px;stroke-linecap:butt;stroke-linejoin:miter;stroke-opacity:1" d="M 111.659,730.698 128.961,740.31 z" id="boundary" inkscape:connector-curvature="0" />
	<path style="fill:none;stroke:red;stroke-width:1px;stroke-linecap:butt;stroke-linejoin:miter;stroke-opacity:1" d="M 28.9922,840.279 13.6124,855.659 z" id="boundary" inkscape:connector-curvature="0" />
	<path style="fill:none;stroke:red;stroke-width:1px;stroke-linecap:butt;stroke-linejoin:miter;stroke-opacity:1" d="M 13.6124,855.659 13.6124,874.884 z" id="boundary" inkscape:connector-curvature="0" />
	<path style="fill:none;stroke:red;stroke-width:1px;stroke-linecap:butt;stroke-linejoin:miter;stroke-opacity:1" d="M 28.9922,840.279 32.8372,817.209 z" id="boundary" inkscape:connector-curvature="0" />
	<path style="fill:none;stroke:red;stroke-width:1px;stroke-linecap:butt;stroke-linejoin:miter;stroke-opacity:1" d="M 42.4496,797.984 32.8372,817.209 z" id="boundary" inkscape:connector-curvature="0" />
	<path style="fill:none;stroke:red;stroke-width:1px;stroke-linecap:butt;stroke-linejoin:miter;stroke-opacity:1" d="M 13.6124,874.884 13.6124,894.109 z" id="boundary" inkscape:connector-curvature="0" />
	<path style="fill:none;stroke:red;stroke-width:1px;stroke-linecap:butt;stroke-linejoin:miter;stroke-opacity:1" d="M 32.8372,894.109 13.6124,894.109 z" id="boundary" inkscape:connector-curvature="0" />
	<path style="fill:none;stroke:red;stroke-width:1px;stroke-linecap:butt;stroke-linejoin:miter;stroke-opacity:1" d="M 48.2171,878.729 32.8372,894.109 z" id="boundary" inkscape:connector-curvature="0" />
	<path style="fill:none;stroke:red;stroke-width:1px;stroke-linecap:butt;stroke-linejoin:miter;stroke-opacity:1" d="M 42.4496,778.76 42.4496,797.984 z" id="boundary" inkscape:connector-curvature="0" />
	<path style="fill:none;stroke:red;stroke-width:1px;stroke-linecap:butt;stroke-linejoin:miter;stroke-opacity:1" d="M 82.8217,813.364 98.2016,799.907 z" id="boundary" inkscape:connector-curvature="0" />
	<path style="fill:none;stroke:red;stroke-width:1px;stroke-linecap:butt;stroke-linejoin:miter;stroke-opacity:1" d="M 117.426,790.295 98.2016,799.907 z" id="boundary" inkscape:connector-curvature="0" />
	<path style="fill:none;stroke:red;stroke-width:1px;stroke-linecap:butt;stroke-linejoin:miter;stroke-opacity:1" d="M 82.8217,813.364 67.4419,840.279 z" id="boundary" inkscape:connector-curvature="0" />
	<path style="fill:none;stroke:red;stroke-width:1px;stroke-linecap:butt;stroke-linejoin:miter;stroke-opacity:1" d="M 57.8295,859.504 48.2171,878.729 z" id="boundary" inkscape:connector-curvature="0" />
	<path style="fill:none;stroke:red;stroke-width:1px;stroke-linecap:butt;stroke-linejoin:miter;stroke-opacity:1" d="M 57.8295,859.504 67.4419,840.279 z" id="boundary" inkscape:connector-curvature="0" />
	<path style="fill:none;stroke:red;stroke-width:1px;stroke-linecap:butt;stroke-linejoin:miter;stroke-opacity:1" d="M 117.426,790.295 136.651,794.14 z" id="boundary" inkscape:connector-curvature="0" />
	<path style="fill:none;stroke:red;stroke-width:1px;stroke-linecap:butt;stroke-linejoin:miter;stroke-opacity:1" d="M 157.798,673.023 167.411,690.326 z" id="boundary" inkscape:connector-curvature="0" />
	<path style="fill:none;stroke:red;stroke-width:1px;stroke-linecap:butt;stroke-linejoin:miter;stroke-opacity:1" d="M 167.411,690.326 163.566,724.93 z" id="boundary" inkscape:connector-curvature="0" />
	<path style="fill:none;stroke:red;stroke-width:1px;stroke-linecap:butt;stroke-linejoin:miter;stroke-opacity:1" d="M 163.566,724.93 148.186,740.31 z" id="boundary" inkscape:connector-curvature="0" />
	<path style="fill:none;stroke:red;stroke-width:1px;stroke-linecap:butt;stroke-linejoin:miter;stroke-opacity:1" d="M 167.411,642.264 157.798,673.023 z" id="boundary" inkscape:connector-curvature="0" />
	<path style="fill:none;stroke:red;stroke-width:1px;stroke-linecap:butt;stroke-linejoin:miter;stroke-opacity:1" d="M 136.651,794.14 153.953,803.752 z" id="boundary" inkscape:connector-curvature="0" />
	<path style="fill:none;stroke:red;stroke-width:1px;stroke-linecap:butt;stroke-linejoin:miter;stroke-opacity:1" d="M 128.961,740.31 148.186,740.31 z" id="boundary" inkscape:connector-curvature="0" />
	<path style="fill:none;stroke:red;stroke-width:1px;stroke-linecap:butt;stroke-linejoin:miter;stroke-opacity:1" d="M 173.178,803.752 153.953,803.752 z" id="boundary" inkscape:connector-curvature="0" />
	<path style="fill:none;stroke:red;stroke-width:1px;stroke-linecap:butt;stroke-linejoin:miter;stroke-opacity:1" d="M 190.481,813.364 173.178,803.752 z" id="boundary" inkscape:connector-curvature="0" />
	<path style="fill:none;stroke:red;stroke-width:1px;stroke-linecap:butt;stroke-linejoin:miter;stroke-opacity:1" d="M 207.783,822.977 190.481,813.364 z" id="boundary" inkscape:connector-curvature="0" />
	<path style="fill:none;stroke:red;stroke-width:1px;stroke-linecap:butt;stroke-linejoin:miter;stroke-opacity:1" d="M 219.318,838.357 207.783,822.977 z" id="boundary" inkscape:connector-curvature="0" />
	<path style="fill:none;stroke:red;stroke-width:1px;stroke-linecap:butt;stroke-linejoin:miter;stroke-opacity:1" d="M 219.318,838.357 236.62,847.969 z" id="boundary" inkscape:connector-curvature="0" />
	<path style="fill:none;stroke:red;stroke-width:1px;stroke-linecap:butt;stroke-linejoin:miter;stroke-opacity:1" d="M 236.62,847.969 252,861.426 z" id="boundary" inkscape:connector-curvature="0" />
	<path style="fill:none;stroke:red;stroke-width:1px;stroke-linecap:butt;stroke-linejoin:miter;stroke-opacity:1" d="M 269.302,871.039 284.682,884.496 z" id="boundary" inkscape:connector-curvature="0" />
	<path style="fill:none;stroke:red;stroke-width:1px;stroke-linecap:butt;stroke-linejoin:miter;stroke-opacity:1" d="M 269.302,871.039 252,861.426 z" id="boundary" inkscape:connector-curvature="0" />
	<path style="fill:none;stroke:red;stroke-width:1px;stroke-linecap:butt;stroke-linejoin:miter;stroke-opacity:1" d="M 284.682,884.496 298.14,899.876 z" id="boundary" inkscape:connector-curvature="0" />
	<path style="fill:none;stroke:red;stroke-width:1px;stroke-linecap:butt;stroke-linejoin:miter;stroke-opacity:1" d="M 298.14,899.876 317.364,907.566 z" id="boundary" inkscape:connector-curvature="0" />
	<path style="fill:none;stroke:red;stroke-width:1px;stroke-linecap:butt;stroke-linejoin:miter;stroke-opacity:1" d="M 334.667,917.178 317.364,907.566 z" id="boundary" inkscape:connector-curvature="0" />
	<path style="fill:none;stroke:red;stroke-width:1px;stroke-linecap:butt;stroke-linejoin:miter;stroke-opacity:1" d="M 353.891,919.101 334.667,917.178 z" id="boundary" inkscape:connector-curvature="0" />
	<path style="fill:none;stroke:red;stroke-width:1px;stroke-linecap:butt;stroke-linejoin:miter;stroke-opacity:1" d="M 353.891,919.101 373.116,919.101 z" id="boundary" inkscape:connector-curvature="0" />
	<path style="fill:none;stroke:red;stroke-width:1px;stroke-linecap:butt;stroke-linejoin:miter;stroke-opacity:1" d="M 390.419,928.713 409.643,932.558 z" id="boundary" inkscape:connector-curvature="0" />
	<path style="fill:none;stroke:red;stroke-width:1px;stroke-linecap:butt;stroke-linejoin:miter;stroke-opacity:1" d="M 390.419,928.713 373.116,919.101 z" id="boundary" inkscape:connector-curvature="0" />
	<path style="fill:none;stroke:red;stroke-width:1px;stroke-linecap:butt;stroke-linejoin:miter;stroke-opacity:1" d="M 428.868,938.326 409.643,932.558 z" id="boundary" inkscape:connector-curvature="0" />
	<path style="fill:none;stroke:red;stroke-width:1px;stroke-linecap:butt;stroke-linejoin:miter;stroke-opacity:1" d="M 419.256,7.84496 438.481,4 z" id="boundary" inkscape:connector-curvature="0" />
	<path style="fill:none;stroke:red;stroke-width:1px;stroke-linecap:butt;stroke-linejoin:miter;stroke-opacity:1" d="M 438.481,4 457.705,4 z" id="boundary" inkscape:connector-curvature="0" />
	<path style="fill:none;stroke:red;stroke-width:1px;stroke-linecap:butt;stroke-linejoin:miter;stroke-opacity:1" d="M 476.93,4 457.705,4 z" id="boundary" inkscape:connector-curvature="0" />
	<path style="fill:none;stroke:red;stroke-width:1px;stroke-linecap:butt;stroke-linejoin:miter;stroke-opacity:1" d="M 476.93,4 496.155,4 z" id="boundary" inkscape:connector-curvature="0" />
	<path style="fill:none;stroke:red;stroke-width:1px;stroke-linecap:butt;stroke-linejoin:miter;stroke-opacity:1" d="M 515.38,4 534.605,9.76744 z" id="boundary" inkscape:connector-curvature="0" />
	<path style="fill:none;stroke:red;stroke-width:1px;stroke-linecap:butt;stroke-linejoin:miter;stroke-opacity:1" d="M 551.907,19.3798 567.287,32.8372 z" id="boundary" inkscape:connector-curvature="0" />
	<path style="fill:none;stroke:red;stroke-width:1px;stroke-linecap:butt;stroke-linejoin:miter;stroke-opacity:1" d="M 534.605,9.76744 551.907,19.3798 z" id="boundary" inkscape:connector-curvature="0" />
	<path style="fill:none;stroke:red;stroke-width:1px;stroke-linecap:butt;stroke-linejoin:miter;stroke-opacity:1" d="M 584.589,42.4496 567.287,32.8372 z" id="boundary" inkscape:connector-curvature="0" />
	<path style="fill:none;stroke:red;stroke-width:1px;stroke-linecap:butt;stroke-linejoin:miter;stroke-opacity:1" d="M 584.589,42.4496 599.969,55.907 z" id="boundary" inkscape:connector-curvature="0" />
	<path style="fill:none;stroke:red;stroke-width:1px;stroke-linecap:butt;stroke-linejoin:miter;stroke-opacity:1" d="M 611.504,71.2868 599.969,55.907 z" id="boundary" inkscape:connector-curvature="0" />
	<path style="fill:none;stroke:red;stroke-width:1px;stroke-linecap:butt;stroke-linejoin:miter;stroke-opacity:1" d="M 621.116,88.5891 611.504,71.2868 z" id="boundary" inkscape:connector-curvature="0" />
	<path style="fill:none;stroke:red;stroke-width:1px;stroke-linecap:butt;stroke-linejoin:miter;stroke-opacity:1" d="M 515.38,4 496.155,4 z" id="boundary" inkscape:connector-curvature="0" />
	<path style="fill:none;stroke:red;stroke-width:1px;stroke-linecap:butt;stroke-linejoin:miter;stroke-opacity:1" d="M 621.116,88.5891 621.116,107.814 z" id="boundary" inkscape:connector-curvature="0" />
	<path style="fill:none;stroke:red;stroke-width:1px;stroke-linecap:butt;stroke-linejoin:miter;stroke-opacity:1" d="M 621.116,107.814 636.496,121.271 z" id="boundary" inkscape:connector-curvature="0" />
	<path style="fill:none;stroke:red;stroke-width:1px;stroke-linecap:butt;stroke-linejoin:miter;stroke-opacity:1" d="M 553.829,448.093 553.829,467.318 z" id="boundary" inkscape:connector-curvature="0" />
	<path style="fill:none;stroke:red;stroke-width:1px;stroke-linecap:butt;stroke-linejoin:miter;stroke-opacity:1" d="M 553.829,486.543 553.829,467.318 z" id="boundary" inkscape:connector-curvature="0" />
	<path style="fill:none;stroke:red;stroke-width:1px;stroke-linecap:butt;stroke-linejoin:miter;stroke-opacity:1" d="M 553.829,486.543 569.209,498.078 z" id="boundary" inkscape:connector-curvature="0" />
	<path style="fill:none;stroke:red;stroke-width:1px;stroke-linecap:butt;stroke-linejoin:miter;stroke-opacity:1" d="M 569.209,498.078 588.434,505.767 z" id="boundary" inkscape:connector-curvature="0" />
	<path style="fill:none;stroke:red;stroke-width:1px;stroke-linecap:butt;stroke-linejoin:miter;stroke-opacity:1" d="M 588.434,428.868 571.132,438.481 z" id="boundary" inkscape:connector-curvature="0" />
	<path style="fill:none;stroke:red;stroke-width:1px;stroke-linecap:butt;stroke-linejoin:miter;stroke-opacity:1" d="M 605.736,419.256 588.434,428.868 z" id="boundary" inkscape:connector-curvature="0" />
	<path style="fill:none;stroke:red;stroke-width:1px;stroke-linecap:butt;stroke-linejoin:miter;stroke-opacity:1" d="M 553.829,448.093 571.132,438.481 z" id="boundary" inkscape:connector-curvature="0" />
	<path style="fill:none;stroke:red;stroke-width:1px;stroke-linecap:butt;stroke-linejoin:miter;stroke-opacity:1" d="M 623.039,409.643 605.736,419.256 z" id="boundary" inkscape:connector-curvature="0" />
	<path style="fill:none;stroke:red;stroke-width:1px;stroke-linecap:butt;stroke-linejoin:miter;stroke-opacity:1" d="M 601.891,521.147 617.271,534.605 z" id="boundary" inkscape:connector-curvature="0" />
	<path style="fill:none;stroke:red;stroke-width:1px;stroke-linecap:butt;stroke-linejoin:miter;stroke-opacity:1" d="M 588.434,505.767 601.891,521.147 z" id="boundary" inkscape:connector-curvature="0" />
	<path style="fill:none;stroke:red;stroke-width:1px;stroke-linecap:butt;stroke-linejoin:miter;stroke-opacity:1" d="M 617.271,534.605 630.729,549.984 z" id="boundary" inkscape:connector-curvature="0" />
	<path style="fill:none;stroke:red;stroke-width:1px;stroke-linecap:butt;stroke-linejoin:miter;stroke-opacity:1" d="M 649.953,136.651 636.496,121.271 z" id="boundary" inkscape:connector-curvature="0" />
	<path style="fill:none;stroke:red;stroke-width:1px;stroke-linecap:butt;stroke-linejoin:miter;stroke-opacity:1" d="M 649.953,136.651 659.566,153.953 z" id="boundary" inkscape:connector-curvature="0" />
	<path style="fill:none;stroke:red;stroke-width:1px;stroke-linecap:butt;stroke-linejoin:miter;stroke-opacity:1" d="M 667.256,173.178 659.566,153.953 z" id="boundary" inkscape:connector-curvature="0" />
	<path style="fill:none;stroke:red;stroke-width:1px;stroke-linecap:butt;stroke-linejoin:miter;stroke-opacity:1" d="M 667.256,173.178 676.868,190.481 z" id="boundary" inkscape:connector-curvature="0" />
	<path style="fill:none;stroke:red;stroke-width:1px;stroke-linecap:butt;stroke-linejoin:miter;stroke-opacity:1" d="M 688.403,205.86 676.868,190.481 z" id="boundary" inkscape:connector-curvature="0" />
	<path style="fill:none;stroke:red;stroke-width:1px;stroke-linecap:butt;stroke-linejoin:miter;stroke-opacity:1" d="M 688.403,205.86 688.403,225.085 z" id="boundary" inkscape:connector-curvature="0" />
	<path style="fill:none;stroke:red;stroke-width:1px;stroke-linecap:butt;stroke-linejoin:miter;stroke-opacity:1" d="M 688.403,225.085 688.403,244.31 z" id="boundary" inkscape:connector-curvature="0" />
	<path style="fill:none;stroke:red;stroke-width:1px;stroke-linecap:butt;stroke-linejoin:miter;stroke-opacity:1" d="M 669.178,361.581 657.643,384.651 z" id="boundary" inkscape:connector-curvature="0" />
	<path style="fill:none;stroke:red;stroke-width:1px;stroke-linecap:butt;stroke-linejoin:miter;stroke-opacity:1" d="M 638.419,394.264 657.643,384.651 z" id="boundary" inkscape:connector-curvature="0" />
	<path style="fill:none;stroke:red;stroke-width:1px;stroke-linecap:butt;stroke-linejoin:miter;stroke-opacity:1" d="M 623.039,409.643 638.419,394.264 z" id="boundary" inkscape:connector-curvature="0" />
	<path style="fill:none;stroke:red;stroke-width:1px;stroke-linecap:butt;stroke-linejoin:miter;stroke-opacity:1" d="M 678.791,332.744 669.178,361.581 z" id="boundary" inkscape:connector-curvature="0" />
	<path style="fill:none;stroke:red;stroke-width:1px;stroke-linecap:butt;stroke-linejoin:miter;stroke-opacity:1" d="M 694.171,319.287 678.791,332.744 z" id="boundary" inkscape:connector-curvature="0" />
	<path style="fill:none;stroke:red;stroke-width:1px;stroke-linecap:butt;stroke-linejoin:miter;stroke-opacity:1" d="M 688.403,244.31 698.016,261.612 z" id="boundary" inkscape:connector-curvature="0" />
	<path style="fill:none;stroke:red;stroke-width:1px;stroke-linecap:butt;stroke-linejoin:miter;stroke-opacity:1" d="M 698.016,280.837 698.016,300.062 z" id="boundary" inkscape:connector-curvature="0" />
	<path style="fill:none;stroke:red;stroke-width:1px;stroke-linecap:butt;stroke-linejoin:miter;stroke-opacity:1" d="M 698.016,280.837 698.016,261.612 z" id="boundary" inkscape:connector-curvature="0" />
	<path style="fill:none;stroke:red;stroke-width:1px;stroke-linecap:butt;stroke-linejoin:miter;stroke-opacity:1" d="M 694.171,319.287 698.016,300.062 z" id="boundary" inkscape:connector-curvature="0" />
	<path style="fill:none;stroke:red;stroke-width:1px;stroke-linecap:butt;stroke-linejoin:miter;stroke-opacity:1" d="M 646.109,563.442 630.729,549.984 z" id="boundary" inkscape:connector-curvature="0" />
	<path style="fill:none;stroke:red;stroke-width:1px;stroke-linecap:butt;stroke-linejoin:miter;stroke-opacity:1" d="M 659.566,578.822 669.178,596.124 z" id="boundary" inkscape:connector-curvature="0" />
	<path style="fill:none;stroke:red;stroke-width:1px;stroke-linecap:butt;stroke-linejoin:miter;stroke-opacity:1" d="M 659.566,578.822 646.109,563.442 z" id="boundary" inkscape:connector-curvature="0" />
	<path style="fill:none;stroke:red;stroke-width:1px;stroke-linecap:butt;stroke-linejoin:miter;stroke-opacity:1" d="M 669.178,596.124 682.636,611.504 z" id="boundary" inkscape:connector-curvature="0" />
	<path style="fill:none;stroke:red;stroke-width:1px;stroke-linecap:butt;stroke-linejoin:miter;stroke-opacity:1" d="M 717.24,628.806 698.016,624.961 z" id="boundary" inkscape:connector-curvature="0" />
	<path style="fill:none;stroke:red;stroke-width:1px;stroke-linecap:butt;stroke-linejoin:miter;stroke-opacity:1" d="M 698.016,624.961 682.636,611.504 z" id="boundary" inkscape:connector-curvature="0" />
	<path style="fill:none;stroke:red;stroke-width:1px;stroke-linecap:butt;stroke-linejoin:miter;stroke-opacity:1" d="M 736.465,628.806 717.24,628.806 z" id="boundary" inkscape:connector-curvature="0" />
	<path style="fill:none;stroke:red;stroke-width:1px;stroke-linecap:butt;stroke-linejoin:miter;stroke-opacity:1" d="M 771.07,648.031 753.767,638.419 z" id="boundary" inkscape:connector-curvature="0" />
	<path style="fill:none;stroke:red;stroke-width:1px;stroke-linecap:butt;stroke-linejoin:miter;stroke-opacity:1" d="M 753.767,638.419 736.465,628.806 z" id="boundary" inkscape:connector-curvature="0" />
	<path style="fill:none;stroke:red;stroke-width:1px;stroke-linecap:butt;stroke-linejoin:miter;stroke-opacity:1" d="M 771.07,648.031 788.372,657.643 z" id="boundary" inkscape:connector-curvature="0" />
	<path style="fill:none;stroke:red;stroke-width:1px;stroke-linecap:butt;stroke-linejoin:miter;stroke-opacity:1" d="M 774.915,890.264 755.69,899.876 z" id="boundary" inkscape:connector-curvature="0" />
	<path style="fill:none;stroke:red;stroke-width:1px;stroke-linecap:butt;stroke-linejoin:miter;stroke-opacity:1" d="M 774.915,890.264 792.217,899.876 z" id="boundary" inkscape:connector-curvature="0" />
	<path style="fill:none;stroke:red;stroke-width:1px;stroke-linecap:butt;stroke-linejoin:miter;stroke-opacity:1" d="M 428.868,938.326 448.093,942.171 z" id="boundary" inkscape:connector-curvature="0" />
	<path style="fill:none;stroke:red;stroke-width:1px;stroke-linecap:butt;stroke-linejoin:miter;stroke-opacity:1" d="M 461.55,957.55 480.775,965.24 z" id="boundary" inkscape:connector-curvature="0" />
	<path style="fill:none;stroke:red;stroke-width:1px;stroke-linecap:butt;stroke-linejoin:miter;stroke-opacity:1" d="M 461.55,957.55 448.093,942.171 z" id="boundary" inkscape:connector-curvature="0" />
	<path style="fill:none;stroke:red;stroke-width:1px;stroke-linecap:butt;stroke-linejoin:miter;stroke-opacity:1" d="M 519.225,967.163 500,967.163 z" id="boundary" inkscape:connector-curvature="0" />
	<path style="fill:none;stroke:red;stroke-width:1px;stroke-linecap:butt;stroke-linejoin:miter;stroke-opacity:1" d="M 500,967.163 480.775,965.24 z" id="boundary" inkscape:connector-curvature="0" />
	<path style="fill:none;stroke:red;stroke-width:1px;stroke-linecap:butt;stroke-linejoin:miter;stroke-opacity:1" d="M 519.225,967.163 538.45,974.853 z" id="boundary" inkscape:connector-curvature="0" />
	<path style="fill:none;stroke:red;stroke-width:1px;stroke-linecap:butt;stroke-linejoin:miter;stroke-opacity:1" d="M 557.674,976.775 538.45,974.853 z" id="boundary" inkscape:connector-curvature="0" />
	<path style="fill:none;stroke:red;stroke-width:1px;stroke-linecap:butt;stroke-linejoin:miter;stroke-opacity:1" d="M 576.899,976.775 557.674,976.775 z" id="boundary" inkscape:connector-curvature="0" />
	<path style="fill:none;stroke:red;stroke-width:1px;stroke-linecap:butt;stroke-linejoin:miter;stroke-opacity:1" d="M 596.124,976.775 576.899,976.775 z" id="boundary" inkscape:connector-curvature="0" />
	<path style="fill:none;stroke:red;stroke-width:1px;stroke-linecap:butt;stroke-linejoin:miter;stroke-opacity:1" d="M 615.349,974.853 596.124,976.775 z" id="boundary" inkscape:connector-curvature="0" />
	<path style="fill:none;stroke:red;stroke-width:1px;stroke-linecap:butt;stroke-linejoin:miter;stroke-opacity:1" d="M 634.574,965.24 615.349,974.853 z" id="boundary" inkscape:connector-curvature="0" />
	<path style="fill:none;stroke:red;stroke-width:1px;stroke-linecap:butt;stroke-linejoin:miter;stroke-opacity:1" d="M 688.403,938.326 705.705,928.713 z" id="boundary" inkscape:connector-curvature="0" />
	<path style="fill:none;stroke:red;stroke-width:1px;stroke-linecap:butt;stroke-linejoin:miter;stroke-opacity:1" d="M 653.798,957.55 671.101,947.938 z" id="boundary" inkscape:connector-curvature="0" />
	<path style="fill:none;stroke:red;stroke-width:1px;stroke-linecap:butt;stroke-linejoin:miter;stroke-opacity:1" d="M 671.101,947.938 688.403,938.326 z" id="boundary" inkscape:connector-curvature="0" />
	<path style="fill:none;stroke:red;stroke-width:1px;stroke-linecap:butt;stroke-linejoin:miter;stroke-opacity:1" d="M 744.155,919.101 755.69,899.876 z" id="boundary" inkscape:connector-curvature="0" />
	<path style="fill:none;stroke:red;stroke-width:1px;stroke-linecap:butt;stroke-linejoin:miter;stroke-opacity:1" d="M 744.155,919.101 724.93,922.946 z" id="boundary" inkscape:connector-curvature="0" />
	<path style="fill:none;stroke:red;stroke-width:1px;stroke-linecap:butt;stroke-linejoin:miter;stroke-opacity:1" d="M 705.705,928.713 724.93,922.946 z" id="boundary" inkscape:connector-curvature="0" />
	<path style="fill:none;stroke:red;stroke-width:1px;stroke-linecap:butt;stroke-linejoin:miter;stroke-opacity:1" d="M 653.798,957.55 634.574,965.24 z" id="boundary" inkscape:connector-curvature="0" />
	<path style="fill:none;stroke:red;stroke-width:1px;stroke-linecap:butt;stroke-linejoin:miter;stroke-opacity:1" d="M 788.372,657.643 801.829,673.023 z" id="boundary" inkscape:connector-curvature="0" />
	<path style="fill:none;stroke:red;stroke-width:1px;stroke-linecap:butt;stroke-linejoin:miter;stroke-opacity:1" d="M 821.054,680.713 838.357,690.326 z" id="boundary" inkscape:connector-curvature="0" />
	<path style="fill:none;stroke:red;stroke-width:1px;stroke-linecap:butt;stroke-linejoin:miter;stroke-opacity:1" d="M 838.357,690.326 857.581,696.093 z" id="boundary" inkscape:connector-curvature="0" />
	<path style="fill:none;stroke:red;stroke-width:1px;stroke-linecap:butt;stroke-linejoin:miter;stroke-opacity:1" d="M 894.109,705.705 876.806,696.093 z" id="boundary" inkscape:connector-curvature="0" />
	<path style="fill:none;stroke:red;stroke-width:1px;stroke-linecap:butt;stroke-linejoin:miter;stroke-opacity:1" d="M 876.806,696.093 857.581,696.093 z" id="boundary" inkscape:connector-curvature="0" />
	<path style="fill:none;stroke:red;stroke-width:1px;stroke-linecap:butt;stroke-linejoin:miter;stroke-opacity:1" d="M 894.109,705.705 911.411,715.318 z" id="boundary" inkscape:connector-curvature="0" />
	<path style="fill:none;stroke:red;stroke-width:1px;stroke-linecap:butt;stroke-linejoin:miter;stroke-opacity:1" d="M 821.054,680.713 801.829,673.023 z" id="boundary" inkscape:connector-curvature="0" />
	<path style="fill:none;stroke:red;stroke-width:1px;stroke-linecap:butt;stroke-linejoin:miter;stroke-opacity:1" d="M 930.636,707.628 911.411,715.318 z" id="boundary" inkscape:connector-curvature="0" />
	<path style="fill:none;stroke:red;stroke-width:1px;stroke-linecap:butt;stroke-linejoin:miter;stroke-opacity:1" d="M 930.636,707.628 949.86,705.705 z" id="boundary" inkscape:connector-curvature="0" />
	<path style="fill:none;stroke:red;stroke-width:1px;stroke-linecap:butt;stroke-linejoin:miter;stroke-opacity:1" d="M 949.86,705.705 967.163,715.318 z" id="boundary" inkscape:connector-curvature="0" />
	<path style="fill:none;stroke:red;stroke-width:1px;stroke-linecap:butt;stroke-linejoin:miter;stroke-opacity:1" d="M 967.163,715.318 986.388,721.085 z" id="boundary" inkscape:connector-curvature="0" />
	<path style="fill:none;stroke:red;stroke-width:1px;stroke-linecap:butt;stroke-linejoin:miter;stroke-opacity:1" d="M 986.388,721.085 986.388,740.31 z" id="boundary" inkscape:connector-curvature="0" />
	<path style="fill:none;stroke:red;stroke-width:1px;stroke-linecap:butt;stroke-linejoin:miter;stroke-opacity:1" d="M 986.388,740.31 986.388,759.535 z" id="boundary" inkscape:connector-curvature="0" />
	<path style="fill:none;stroke:red;stroke-width:1px;stroke-linecap:butt;stroke-linejoin:miter;stroke-opacity:1" d="M 986.388,759.535 996,776.837 z" id="boundary" inkscape:connector-curvature="0" />
	<path style="fill:none;stroke:red;stroke-width:1px;stroke-linecap:butt;stroke-linejoin:miter;stroke-opacity:1" d="M 986.388,813.364 996,796.062 z" id="boundary" inkscape:connector-curvature="0" />
	<path style="fill:none;stroke:red;stroke-width:1px;stroke-linecap:butt;stroke-linejoin:miter;stroke-opacity:1" d="M 996,796.062 996,776.837 z" id="boundary" inkscape:connector-curvature="0" />
	<path style="fill:none;stroke:red;stroke-width:1px;stroke-linecap:butt;stroke-linejoin:miter;stroke-opacity:1" d="M 986.388,832.589 986.388,813.364 z" id="boundary" inkscape:connector-curvature="0" />
	<path style="fill:none;stroke:red;stroke-width:1px;stroke-linecap:butt;stroke-linejoin:miter;stroke-opacity:1" d="M 811.442,899.876 792.217,899.876 z" id="boundary" inkscape:connector-curvature="0" />
	<path style="fill:none;stroke:red;stroke-width:1px;stroke-linecap:butt;stroke-linejoin:miter;stroke-opacity:1" d="M 811.442,899.876 830.667,899.876 z" id="boundary" inkscape:connector-curvature="0" />
	<path style="fill:none;stroke:red;stroke-width:1px;stroke-linecap:butt;stroke-linejoin:miter;stroke-opacity:1" d="M 840.279,917.178 830.667,899.876 z" id="boundary" inkscape:connector-curvature="0" />
	<path style="fill:none;stroke:red;stroke-width:1px;stroke-linecap:butt;stroke-linejoin:miter;stroke-opacity:1" d="M 840.279,917.178 844.124,936.403 z" id="boundary" inkscape:connector-curvature="0" />
	<path style="fill:none;stroke:red;stroke-width:1px;stroke-linecap:butt;stroke-linejoin:miter;stroke-opacity:1" d="M 844.124,936.403 859.504,947.938 z" id="boundary" inkscape:connector-curvature="0" />
	<path style="fill:none;stroke:red;stroke-width:1px;stroke-linecap:butt;stroke-linejoin:miter;stroke-opacity:1" d="M 878.729,947.938 859.504,947.938 z" id="boundary" inkscape:connector-curvature="0" />
	<path style="fill:none;stroke:red;stroke-width:1px;stroke-linecap:butt;stroke-linejoin:miter;stroke-opacity:1" d="M 897.953,942.171 878.729,947.938 z" id="boundary" inkscape:connector-curvature="0" />
	<path style="fill:none;stroke:red;stroke-width:1px;stroke-linecap:butt;stroke-linejoin:miter;stroke-opacity:1" d="M 986.388,851.814 986.388,832.589 z" id="boundary" inkscape:connector-curvature="0" />
	<path style="fill:none;stroke:red;stroke-width:1px;stroke-linecap:butt;stroke-linejoin:miter;stroke-opacity:1" d="M 986.388,851.814 982.543,876.806 z" id="boundary" inkscape:connector-curvature="0" />
	<path style="fill:none;stroke:red;stroke-width:1px;stroke-linecap:butt;stroke-linejoin:miter;stroke-opacity:1" d="M 982.543,876.806 967.163,890.264 z" id="boundary" inkscape:connector-curvature="0" />
	<path style="fill:none;stroke:red;stroke-width:1px;stroke-linecap:butt;stroke-linejoin:miter;stroke-opacity:1" d="M 909.488,909.488 928.713,909.488 z" id="boundary" inkscape:connector-curvature="0" />
	<path style="fill:none;stroke:red;stroke-width:1px;stroke-linecap:butt;stroke-linejoin:miter;stroke-opacity:1" d="M 897.953,942.171 909.488,909.488 z" id="boundary" inkscape:connector-curvature="0" />
	<path style="fill:none;stroke:red;stroke-width:1px;stroke-linecap:butt;stroke-linejoin:miter;stroke-opacity:1" d="M 928.713,909.488 947.938,899.876 z" id="boundary" inkscape:connector-curvature="0" />
	<path style="fill:none;stroke:red;stroke-width:1px;stroke-linecap:butt;stroke-linejoin:miter;stroke-opacity:1" d="M 947.938,899.876 967.163,890.264 z" id="boundary" inkscape:connector-curvature="0" />
	<circle cx="4" cy="634.574" r="4" fill="#0" id="circle0"/>
	<circle cx="13.6124" cy="651.876" r="4" fill="#0" id="circle1"/>
	<circle cx="13.6124" cy="855.659" r="4" fill="#0" id="circle2"/>
	<circle cx="13.6124" cy="874.884" r="4" fill="#0" id="circle3"/>
	<circle cx="13.6124" cy="894.109" r="4" fill="#0" id="circle4"/>
	<circle cx="19.3798" cy="619.194" r="4" fill="#0" id="circle5"/>
	<circle cx="28.9922" cy="840.279" r="4" fill="#0" id="circle6"/>
	<circle cx="32.8372" cy="490.388" r="4" fill="#0" id="circle7"/>
	<circle cx="32.8372" cy="509.612" r="4" fill="#0" id="circle8"/>
	<circle cx="32.8372" cy="596.124" r="4" fill="#0" id="circle9"/>
	<circle cx="32.8372" cy="659.566" r="4" fill="#0" id="circle10"/>
	<circle cx="32.8372" cy="817.209" r="4" fill="#0" id="circle11"/>
	<circle cx="32.8372" cy="894.109" r="4" fill="#0" id="circle12"/>
	<circle cx="42.4496" cy="526.915" r="4" fill="#0" id="circle13"/>
	<circle cx="42.4496" cy="546.14" r="4" fill="#0" id="circle14"/>
	<circle cx="42.4496" cy="565.364" r="4" fill="#0" id="circle15"/>
	<circle cx="42.4496" cy="778.76" r="4" fill="#0" id="circle16"/>
	<circle cx="42.4496" cy="797.984" r="4" fill="#0" id="circle17"/>
	<circle cx="48.2171" cy="648.031" r="4" fill="#0" id="circle18"/>
	<circle cx="48.2171" cy="878.729" r="4" fill="#0" id="circle19"/>
	<circle cx="52.062" cy="498.078" r="4" fill="#0" id="circle20"/>
	<circle cx="57.8295" cy="763.38" r="4" fill="#0" id="circle21"/>
	<circle cx="57.8295" cy="859.504" r="4" fill="#0" id="circle22"/>
	<circle cx="61.6744" cy="711.473" r="4" fill="#0" id="circle23"/>
	<circle cx="61.6744" cy="730.698" r="4" fill="#0" id="circle24"/>
	<circle cx="63.5969" cy="513.457" r="4" fill="#0" id="circle25"/>
	<circle cx="63.5969" cy="611.504" r="4" fill="#0" id="circle26"/>
	<circle cx="63.5969" cy="630.729" r="4" fill="#0" id="circle27"/>
	<circle cx="67.4419" cy="840.279" r="4" fill="#0" id="circle28"/>
	<circle cx="73.2093" cy="530.76" r="4" fill="#0" id="circle29"/>
	<circle cx="73.2093" cy="549.984" r="4" fill="#0" id="circle30"/>
	<circle cx="80.8992" cy="705.705" r="4" fill="#0" id="circle31"/>
	<circle cx="82.8217" cy="592.279" r="4" fill="#0" id="circle32"/>
	<circle cx="82.8217" cy="813.364" r="4" fill="#0" id="circle33"/>
	<circle cx="92.4341" cy="551.907" r="4" fill="#0" id="circle34"/>
	<circle cx="96.2791" cy="717.24" r="4" fill="#0" id="circle35"/>
	<circle cx="98.2016" cy="799.907" r="4" fill="#0" id="circle36"/>
	<circle cx="102.047" cy="592.279" r="4" fill="#0" id="circle37"/>
	<circle cx="111.659" cy="546.14" r="4" fill="#0" id="circle38"/>
	<circle cx="111.659" cy="730.698" r="4" fill="#0" id="circle39"/>
	<circle cx="117.426" cy="790.295" r="4" fill="#0" id="circle40"/>
	<circle cx="121.271" cy="592.279" r="4" fill="#0" id="circle41"/>
	<circle cx="128.961" cy="740.31" r="4" fill="#0" id="circle42"/>
	<circle cx="130.884" cy="536.527" r="4" fill="#0" id="circle43"/>
	<circle cx="136.651" cy="794.14" r="4" fill="#0" id="circle44"/>
	<circle cx="140.496" cy="596.124" r="4" fill="#0" id="circle45"/>
	<circle cx="146.264" cy="523.07" r="4" fill="#0" id="circle46"/>
	<circle cx="148.186" cy="740.31" r="4" fill="#0" id="circle47"/>
	<circle cx="153.953" cy="803.752" r="4" fill="#0" id="circle48"/>
	<circle cx="157.798" cy="432.713" r="4" fill="#0" id="circle49"/>
	<circle cx="157.798" cy="451.938" r="4" fill="#0" id="circle50"/>
	<circle cx="157.798" cy="471.163" r="4" fill="#0" id="circle51"/>
	<circle cx="157.798" cy="490.388" r="4" fill="#0" id="circle52"/>
	<circle cx="157.798" cy="605.736" r="4" fill="#0" id="circle53"/>
	<circle cx="157.798" cy="624.961" r="4" fill="#0" id="circle54"/>
	<circle cx="157.798" cy="673.023" r="4" fill="#0" id="circle55"/>
	<circle cx="163.566" cy="724.93" r="4" fill="#0" id="circle56"/>
	<circle cx="167.411" cy="375.039" r="4" fill="#0" id="circle57"/>
	<circle cx="167.411" cy="394.264" r="4" fill="#0" id="circle58"/>
	<circle cx="167.411" cy="413.488" r="4" fill="#0" id="circle59"/>
	<circle cx="167.411" cy="642.264" r="4" fill="#0" id="circle60"/>
	<circle cx="167.411" cy="690.326" r="4" fill="#0" id="circle61"/>
	<circle cx="173.178" cy="803.752" r="4" fill="#0" id="circle62"/>
	<circle cx="186.636" cy="369.271" r="4" fill="#0" id="circle63"/>
	<circle cx="190.481" cy="813.364" r="4" fill="#0" id="circle64"/>
	<circle cx="203.938" cy="359.659" r="4" fill="#0" id="circle65"/>
	<circle cx="207.783" cy="822.977" r="4" fill="#0" id="circle66"/>
	<circle cx="215.473" cy="326.977" r="4" fill="#0" id="circle67"/>
	<circle cx="219.318" cy="838.357" r="4" fill="#0" id="circle68"/>
	<circle cx="234.698" cy="321.209" r="4" fill="#0" id="circle69"/>
	<circle cx="236.62" cy="847.969" r="4" fill="#0" id="circle70"/>
	<circle cx="252" cy="311.597" r="4" fill="#0" id="circle71"/>
	<circle cx="252" cy="861.426" r="4" fill="#0" id="circle72"/>
	<circle cx="253.922" cy="134.729" r="4" fill="#0" id="circle73"/>
	<circle cx="253.922" cy="153.953" r="4" fill="#0" id="circle74"/>
	<circle cx="253.922" cy="173.178" r="4" fill="#0" id="circle75"/>
	<circle cx="253.922" cy="192.403" r="4" fill="#0" id="circle76"/>
	<circle cx="263.535" cy="115.504" r="4" fill="#0" id="circle77"/>
	<circle cx="263.535" cy="209.705" r="4" fill="#0" id="circle78"/>
	<circle cx="263.535" cy="228.93" r="4" fill="#0" id="circle79"/>
	<circle cx="263.535" cy="269.302" r="4" fill="#0" id="circle80"/>
	<circle cx="263.535" cy="288.527" r="4" fill="#0" id="circle81"/>
	<circle cx="269.302" cy="871.039" r="4" fill="#0" id="circle82"/>
	<circle cx="271.225" cy="311.597" r="4" fill="#0" id="circle83"/>
	<circle cx="273.147" cy="246.233" r="4" fill="#0" id="circle84"/>
	<circle cx="278.915" cy="100.124" r="4" fill="#0" id="circle85"/>
	<circle cx="284.682" cy="884.496" r="4" fill="#0" id="circle86"/>
	<circle cx="294.295" cy="84.7442" r="4" fill="#0" id="circle87"/>
	<circle cx="298.14" cy="899.876" r="4" fill="#0" id="circle88"/>
	<circle cx="309.674" cy="71.2868" r="4" fill="#0" id="circle89"/>
	<circle cx="317.364" cy="907.566" r="4" fill="#0" id="circle90"/>
	<circle cx="323.132" cy="55.907" r="4" fill="#0" id="circle91"/>
	<circle cx="334.667" cy="917.178" r="4" fill="#0" id="circle92"/>
	<circle cx="342.357" cy="46.2946" r="4" fill="#0" id="circle93"/>
	<circle cx="353.891" cy="919.101" r="4" fill="#0" id="circle94"/>
	<circle cx="361.581" cy="36.6822" r="4" fill="#0" id="circle95"/>
	<circle cx="373.116" cy="919.101" r="4" fill="#0" id="circle96"/>
	<circle cx="380.806" cy="27.0698" r="4" fill="#0" id="circle97"/>
	<circle cx="390.419" cy="928.713" r="4" fill="#0" id="circle98"/>
	<circle cx="400.031" cy="17.4574" r="4" fill="#0" id="circle99"/>
	<circle cx="409.643" cy="932.558" r="4" fill="#0" id="circle100"/>
	<circle cx="419.256" cy="7.84496" r="4" fill="#0" id="circle101"/>
	<circle cx="428.868" cy="938.326" r="4" fill="#0" id="circle102"/>
	<circle cx="438.481" cy="4" r="4" fill="#0" id="circle103"/>
	<circle cx="448.093" cy="942.171" r="4" fill="#0" id="circle104"/>
	<circle cx="457.705" cy="4" r="4" fill="#0" id="circle105"/>
	<circle cx="461.55" cy="957.55" r="4" fill="#0" id="circle106"/>
	<circle cx="476.93" cy="4" r="4" fill="#0" id="circle107"/>
	<circle cx="480.775" cy="965.24" r="4" fill="#0" id="circle108"/>
	<circle cx="496.155" cy="4" r="4" fill="#0" id="circle109"/>
	<circle cx="500" cy="967.163" r="4" fill="#0" id="circle110"/>
	<circle cx="515.38" cy="4" r="4" fill="#0" id="circle111"/>
	<circle cx="519.225" cy="967.163" r="4" fill="#0" id="circle112"/>
	<circle cx="534.605" cy="9.76744" r="4" fill="#0" id="circle113"/>
	<circle cx="538.45" cy="974.853" r="4" fill="#0" id="circle114"/>
	<circle cx="551.907" cy="19.3798" r="4" fill="#0" id="circle115"/>
	<circle cx="553.829" cy="448.093" r="4" fill="#0" id="circle116"/>
	<circle cx="553.829" cy="467.318" r="4" fill="#0" id="circle117"/>
	<circle cx="553.829" cy="486.543" r="4" fill="#0" id="circle118"/>
	<circle cx="557.674" cy="976.775" r="4" fill="#0" id="circle119"/>
	<circle cx="567.287" cy="32.8372" r="4" fill="#0" id="circle120"/>
	<circle cx="569.209" cy="498.078" r="4" fill="#0" id="circle121"/>
	<circle cx="571.132" cy="438.481" r="4" fill="#0" id="circle122"/>
	<circle cx="576.899" cy="976.775" r="4" fill="#0" id="circle123"/>
	<circle cx="584.589" cy="42.4496" r="4" fill="#0" id="circle124"/>
	<circle cx="588.434" cy="428.868" r="4" fill="#0" id="circle125"/>
	<circle cx="588.434" cy="505.767" r="4" fill="#0" id="circle126"/>
	<circle cx="596.124" cy="976.775" r="4" fill="#0" id="circle127"/>
	<circle cx="599.969" cy="55.907" r="4" fill="#0" id="circle128"/>
	<circle cx="601.891" cy="521.147" r="4" fill="#0" id="circle129"/>
	<circle cx="605.736" cy="419.256" r="4" fill="#0" id="circle130"/>
	<circle cx="611.504" cy="71.2868" r="4" fill="#0" id="circle131"/>
	<circle cx="615.349" cy="974.853" r="4" fill="#0" id="circle132"/>
	<circle cx="617.271" cy="534.605" r="4" fill="#0" id="circle133"/>
	<circle cx="621.116" cy="88.5891" r="4" fill="#0" id="circle134"/>
	<circle cx="621.116" cy="107.814" r="4" fill="#0" id="circle135"/>
	<circle cx="623.039" cy="409.643" r="4" fill="#0" id="circle136"/>
	<circle cx="630.729" cy="549.984" r="4" fill="#0" id="circle137"/>
	<circle cx="634.574" cy="965.24" r="4" fill="#0" id="circle138"/>
	<circle cx="636.496" cy="121.271" r="4" fill="#0" id="circle139"/>
	<circle cx="638.419" cy="394.264" r="4" fill="#0" id="circle140"/>
	<circle cx="646.109" cy="563.442" r="4" fill="#0" id="circle141"/>
	<circle cx="649.953" cy="136.651" r="4" fill="#0" id="circle142"/>
	<circle cx="653.798" cy="957.55" r="4" fill="#0" id="circle143"/>
	<circle cx="657.643" cy="384.651" r="4" fill="#0" id="circle144"/>
	<circle cx="659.566" cy="153.953" r="4" fill="#0" id="circle145"/>
	<circle cx="659.566" cy="578.822" r="4" fill="#0" id="circle146"/>
	<circle cx="667.256" cy="173.178" r="4" fill="#0" id="circle147"/>
	<circle cx="669.178" cy="361.581" r="4" fill="#0" id="circle148"/>
	<circle cx="669.178" cy="596.124" r="4" fill="#0" id="circle149"/>
	<circle cx="671.101" cy="947.938" r="4" fill="#0" id="circle150"/>
	<circle cx="676.868" cy="190.481" r="4" fill="#0" id="circle151"/>
	<circle cx="678.791" cy="332.744" r="4" fill="#0" id="circle152"/>
	<circle cx="682.636" cy="611.504" r="4" fill="#0" id="circle153"/>
	<circle cx="688.403" cy="205.86" r="4" fill="#0" id="circle154"/>
	<circle cx="688.403" cy="225.085" r="4" fill="#0" id="circle155"/>
	<circle cx="688.403" cy="244.31" r="4" fill="#0" id="circle156"/>
	<circle cx="688.403" cy="938.326" r="4" fill="#0" id="circle157"/>
	<circle cx="694.171" cy="319.287" r="4" fill="#0" id="circle158"/>
	<circle cx="698.016" cy="261.612" r="4" fill="#0" id="circle159"/>
	<circle cx="698.016" cy="280.837" r="4" fill="#0" id="circle160"/>
	<circle cx="698.016" cy="300.062" r="4" fill="#0" id="circle161"/>
	<circle cx="698.016" cy="624.961" r="4" fill="#0" id="circle162"/>
	<circle cx="705.705" cy="928.713" r="4" fill="#0" id="circle163"/>
	<circle cx="717.24" cy="628.806" r="4" fill="#0" id="circle164"/>
	<circle cx="724.93" cy="922.946" r="4" fill="#0" id="circle165"/>
	<circle cx="736.465" cy="628.806" r="4" fill="#0" id="circle166"/>
	<circle cx="744.155" cy="919.101" r="4" fill="#0" id="circle167"/>
	<circle cx="753.767" cy="638.419" r="4" fill="#0" id="circle168"/>
	<circle cx="755.69" cy="899.876" r="4" fill="#0" id="circle169"/>
	<circle cx="771.07" cy="648.031" r="4" fill="#0" id="circle170"/>
	<circle cx="774.915" cy="890.264" r="4" fill="#0" id="circle171"/>
	<circle cx="788.372" cy="657.643" r="4" fill="#0" id="circle172"/>
	<circle cx="792.217" cy="899.876" r="4" fill="#0" id="circle173"/>
	<circle cx="801.829" cy="673.023" r="4" fill="#0" id="circle174"/>
	<circle cx="811.442" cy="899.876" r="4" fill="#0" id="circle175"/>
	<circle cx="821.054" cy="680.713" r="4" fill="#0" id="circle176"/>
	<circle cx="830.667" cy="899.876" r="4" fill="#0" id="circle177"/>
	<circle cx="838.357" cy="690.326" r="4" fill="#0" id="circle178"/>
	<circle cx="840.279" cy="917.178" r="4" fill="#0" id="circle179"/>
	<circle cx="844.124" cy="936.403" r="4" fill="#0" id="circle180"/>
	<circle cx="857.581" cy="696.093" r="4" fill="#0" id="circle181"/>
	<circle cx="859.504" cy="947.938" r="4" fill="#0" id="circle182"/>
	<circle cx="876.806" cy="696.093" r="4" fill="#0" id="circle183"/>
	<circle cx="878.729" cy="947.938" r="4" fill="#0" id="circle184"/>
	<circle cx="894.109" cy="705.705" r="4" fill="#0" id="circle185"/>
	<circle cx="897.953" cy="942.171" r="4" fill="#0" id="circle186"/>
	<circle cx="909.488" cy="909.488" r="4" fill="#0" id="circle187"/>
	<circle cx="911.411" cy="715.318" r="4" fill="#0" id="circle188"/>
	<circle cx="928.713" cy="909.488" r="4" fill="#0" id="circle189"/>
	<circle cx="930.636" cy="707.628" r="4" fill="#0" id="circle190"/>
	<circle cx="947.938" cy="899.876" r="4" fill="#0" id="circle191"/>
	<circle cx="949.86" cy="705.705" r="4" fill="#0" id="circle192"/>
	<circle cx="967.163" cy="715.318" r="4" fill="#0" id="circle193"/>
	<circle cx="967.163" cy="890.264" r="4" fill="#0" id="circle194"/>
	<circle cx="982.543" cy="876.806" r="4" fill="#0" id="circle195"/>
	<circle cx="986.388" cy="721.085" r="4" fill="#0" id="circle196"/>
	<circle cx="986.388" cy="740.31" r="4" fill="#0" id="circle197"/>
	<circle cx="986.388" cy="759.535" r="4" fill="#0" id="circle198"/>
	<circle cx="986.388" cy="813.364" r="4" fill="#0" id="circle199"/>
	<circle cx="986.388" cy="832.589" r="4" fill="#0" id="circle200"/>
	<circle cx="986.388" cy="851.814" r="4" fill="#0" id="circle201"/>
	<circle cx="996" cy="776.837" r="4" fill="#0" id="circle202"/>
	<circle cx="996" cy="796.062" r="4" fill="#0" id="circle203"/>
	</g>
</svg>