<?xml version="1.0" encoding="UTF-8" standalone="no"?>
<!-- Created with CurveBenchmark -->
<svg
	xmlns:dc="http://purl.org/dc/elements/1.1/"
	xmlns:cc="http://creativecommons.org/ns#"
	xmlns:rdf="http://www.w3.org/1999/02/22-rdf-syntax-ns#"
	xmlns:svg="http://www.w3.org/2000/svg"
	xmlns="http://www.w3.org/2000/svg"
	xmlns:sodipodi="http://sodipodi.sourceforge.net/DTD/sodipodi-0.dtd"
	xmlns:inkscape="http://www.inkscape.org/namespaces/inkscape"
	width="1000"
	height="1000"
	id="svg2"
	version="1.1"
	sodipodi:docname="manifold/crust-kk0738.png.txt">
<defs
	id="defs4" />
<metadata
	id="metadata7">
	<rdf:RDF>
		<cc:Work
			rdf:about="">
			<dc:format>image/svg+xml</dc:format>
			<dc:type
				rdf:resource="http://purl.org/dc/dcmitype/StillImage" />
			<dc:title></dc:title>
		</cc:Work>
	</rdf:RDF>
</metadata>
<g
	inkscape:label="Layer 1"
	inkscape:groupmode="layer"
	id="layer1">
	<path style="fill:none;stroke:red;stroke-width:1px;stroke-linecap:butt;stroke-linejoin:miter;stroke-opacity:1" d="M 158.745,90.3317 147.343,118.023 z" id="boundary" inkscape:connector-curvature="0" />
	<path style="fill:none;stroke:red;stroke-width:1px;stroke-linecap:butt;stroke-linejoin:miter;stroke-opacity:1" d="M 147.343,118.023 139.199,134.312 z" id="boundary" inkscape:connector-curvature="0" />
	<path style="fill:none;stroke:red;stroke-width:1px;stroke-linecap:butt;stroke-linejoin:miter;stroke-opacity:1" d="M 158.745,90.3317 166.89,74.0427 z" id="boundary" inkscape:connector-curvature="0" />
	<path style="fill:none;stroke:red;stroke-width:1px;stroke-linecap:butt;stroke-linejoin:miter;stroke-opacity:1" d="M 179.921,61.0115 166.89,74.0427 z" id="boundary" inkscape:connector-curvature="0" />
	<path style="fill:none;stroke:red;stroke-width:1px;stroke-linecap:butt;stroke-linejoin:miter;stroke-opacity:1" d="M 192.952,47.9803 179.921,61.0115 z" id="boundary" inkscape:connector-curvature="0" />
	<path style="fill:none;stroke:red;stroke-width:1px;stroke-linecap:butt;stroke-linejoin:miter;stroke-opacity:1" d="M 205.984,36.578 192.952,47.9803 z" id="boundary" inkscape:connector-curvature="0" />
	<path style="fill:none;stroke:red;stroke-width:1px;stroke-linecap:butt;stroke-linejoin:miter;stroke-opacity:1" d="M 217.386,23.5468 205.984,36.578 z" id="boundary" inkscape:connector-curvature="0" />
	<path style="fill:none;stroke:red;stroke-width:1px;stroke-linecap:butt;stroke-linejoin:miter;stroke-opacity:1" d="M 233.675,15.4023 249.964,7.2578 z" id="boundary" inkscape:connector-curvature="0" />
	<path style="fill:none;stroke:red;stroke-width:1px;stroke-linecap:butt;stroke-linejoin:miter;stroke-opacity:1" d="M 266.253,4 249.964,7.2578 z" id="boundary" inkscape:connector-curvature="0" />
	<path style="fill:none;stroke:red;stroke-width:1px;stroke-linecap:butt;stroke-linejoin:miter;stroke-opacity:1" d="M 217.386,23.5468 233.675,15.4023 z" id="boundary" inkscape:connector-curvature="0" />
	<path style="fill:none;stroke:red;stroke-width:1px;stroke-linecap:butt;stroke-linejoin:miter;stroke-opacity:1" d="M 266.253,4 282.542,4 z" id="boundary" inkscape:connector-curvature="0" />
	<path style="fill:none;stroke:red;stroke-width:1px;stroke-linecap:butt;stroke-linejoin:miter;stroke-opacity:1" d="M 57.7537,215.757 49.6092,232.046 z" id="boundary" inkscape:connector-curvature="0" />
	<path style="fill:none;stroke:red;stroke-width:1px;stroke-linecap:butt;stroke-linejoin:miter;stroke-opacity:1" d="M 70.7849,202.726 57.7537,215.757 z" id="boundary" inkscape:connector-curvature="0" />
	<path style="fill:none;stroke:red;stroke-width:1px;stroke-linecap:butt;stroke-linejoin:miter;stroke-opacity:1" d="M 49.6092,232.046 36.578,245.077 z" id="boundary" inkscape:connector-curvature="0" />
	<path style="fill:none;stroke:red;stroke-width:1px;stroke-linecap:butt;stroke-linejoin:miter;stroke-opacity:1" d="M 83.8161,191.323 70.7849,202.726 z" id="boundary" inkscape:connector-curvature="0" />
	<path style="fill:none;stroke:red;stroke-width:1px;stroke-linecap:butt;stroke-linejoin:miter;stroke-opacity:1" d="M 98.4762,183.179 83.8161,191.323 z" id="boundary" inkscape:connector-curvature="0" />
	<path style="fill:none;stroke:red;stroke-width:1px;stroke-linecap:butt;stroke-linejoin:miter;stroke-opacity:1" d="M 20.289,277.655 12.1445,293.944 z" id="boundary" inkscape:connector-curvature="0" />
	<path style="fill:none;stroke:red;stroke-width:1px;stroke-linecap:butt;stroke-linejoin:miter;stroke-opacity:1" d="M 33.3202,264.624 20.289,277.655 z" id="boundary" inkscape:connector-curvature="0" />
	<path style="fill:none;stroke:red;stroke-width:1px;stroke-linecap:butt;stroke-linejoin:miter;stroke-opacity:1" d="M 33.3202,264.624 36.578,245.077 z" id="boundary" inkscape:connector-curvature="0" />
	<path style="fill:none;stroke:red;stroke-width:1px;stroke-linecap:butt;stroke-linejoin:miter;stroke-opacity:1" d="M 98.4762,183.179 109.878,163.632 z" id="boundary" inkscape:connector-curvature="0" />
	<path style="fill:none;stroke:red;stroke-width:1px;stroke-linecap:butt;stroke-linejoin:miter;stroke-opacity:1" d="M 126.167,147.343 109.878,163.632 z" id="boundary" inkscape:connector-curvature="0" />
	<path style="fill:none;stroke:red;stroke-width:1px;stroke-linecap:butt;stroke-linejoin:miter;stroke-opacity:1" d="M 126.167,147.343 139.199,134.312 z" id="boundary" inkscape:connector-curvature="0" />
	<path style="fill:none;stroke:red;stroke-width:1px;stroke-linecap:butt;stroke-linejoin:miter;stroke-opacity:1" d="M 12.1445,293.944 4,318.378 z" id="boundary" inkscape:connector-curvature="0" />
	<path style="fill:none;stroke:red;stroke-width:1px;stroke-linecap:butt;stroke-linejoin:miter;stroke-opacity:1" d="M 315.12,12.1445 298.831,8.8867 z" id="boundary" inkscape:connector-curvature="0" />
	<path style="fill:none;stroke:red;stroke-width:1px;stroke-linecap:butt;stroke-linejoin:miter;stroke-opacity:1" d="M 298.831,8.8867 282.542,4 z" id="boundary" inkscape:connector-curvature="0" />
	<path style="fill:none;stroke:red;stroke-width:1px;stroke-linecap:butt;stroke-linejoin:miter;stroke-opacity:1" d="M 329.78,20.289 315.12,12.1445 z" id="boundary" inkscape:connector-curvature="0" />
	<path style="fill:none;stroke:red;stroke-width:1px;stroke-linecap:butt;stroke-linejoin:miter;stroke-opacity:1" d="M 346.069,23.5468 329.78,20.289 z" id="boundary" inkscape:connector-curvature="0" />
	<path style="fill:none;stroke:red;stroke-width:1px;stroke-linecap:butt;stroke-linejoin:miter;stroke-opacity:1" d="M 346.069,23.5468 355.842,36.578 z" id="boundary" inkscape:connector-curvature="0" />
	<path style="fill:none;stroke:red;stroke-width:1px;stroke-linecap:butt;stroke-linejoin:miter;stroke-opacity:1" d="M 355.842,36.578 372.131,36.578 z" id="boundary" inkscape:connector-curvature="0" />
	<path style="fill:none;stroke:red;stroke-width:1px;stroke-linecap:butt;stroke-linejoin:miter;stroke-opacity:1" d="M 399.823,54.4959 385.163,46.3514 z" id="boundary" inkscape:connector-curvature="0" />
	<path style="fill:none;stroke:red;stroke-width:1px;stroke-linecap:butt;stroke-linejoin:miter;stroke-opacity:1" d="M 385.163,46.3514 372.131,36.578 z" id="boundary" inkscape:connector-curvature="0" />
	<path style="fill:none;stroke:red;stroke-width:1px;stroke-linecap:butt;stroke-linejoin:miter;stroke-opacity:1" d="M 399.823,54.4959 412.854,65.8982 z" id="boundary" inkscape:connector-curvature="0" />
	<path style="fill:none;stroke:red;stroke-width:1px;stroke-linecap:butt;stroke-linejoin:miter;stroke-opacity:1" d="M 412.854,65.8982 427.514,74.0427 z" id="boundary" inkscape:connector-curvature="0" />
	<path style="fill:none;stroke:red;stroke-width:1px;stroke-linecap:butt;stroke-linejoin:miter;stroke-opacity:1" d="M 427.514,74.0427 440.545,85.445 z" id="boundary" inkscape:connector-curvature="0" />
	<path style="fill:none;stroke:red;stroke-width:1px;stroke-linecap:butt;stroke-linejoin:miter;stroke-opacity:1" d="M 455.205,93.5895 468.236,104.992 z" id="boundary" inkscape:connector-curvature="0" />
	<path style="fill:none;stroke:red;stroke-width:1px;stroke-linecap:butt;stroke-linejoin:miter;stroke-opacity:1" d="M 468.236,104.992 474.752,121.281 z" id="boundary" inkscape:connector-curvature="0" />
	<path style="fill:none;stroke:red;stroke-width:1px;stroke-linecap:butt;stroke-linejoin:miter;stroke-opacity:1" d="M 486.154,134.312 474.752,121.281 z" id="boundary" inkscape:connector-curvature="0" />
	<path style="fill:none;stroke:red;stroke-width:1px;stroke-linecap:butt;stroke-linejoin:miter;stroke-opacity:1" d="M 440.545,85.445 455.205,93.5895 z" id="boundary" inkscape:connector-curvature="0" />
	<path style="fill:none;stroke:red;stroke-width:1px;stroke-linecap:butt;stroke-linejoin:miter;stroke-opacity:1" d="M 486.154,134.312 486.154,150.601 z" id="boundary" inkscape:connector-curvature="0" />
	<path style="fill:none;stroke:red;stroke-width:1px;stroke-linecap:butt;stroke-linejoin:miter;stroke-opacity:1" d="M 486.154,166.89 486.154,150.601 z" id="boundary" inkscape:connector-curvature="0" />
	<path style="fill:none;stroke:red;stroke-width:1px;stroke-linecap:butt;stroke-linejoin:miter;stroke-opacity:1" d="M 494.299,181.55 486.154,166.89 z" id="boundary" inkscape:connector-curvature="0" />
	<path style="fill:none;stroke:red;stroke-width:1px;stroke-linecap:butt;stroke-linejoin:miter;stroke-opacity:1" d="M 12.1445,333.038 4,318.378 z" id="boundary" inkscape:connector-curvature="0" />
	<path style="fill:none;stroke:red;stroke-width:1px;stroke-linecap:butt;stroke-linejoin:miter;stroke-opacity:1" d="M 23.5468,346.069 12.1445,333.038 z" id="boundary" inkscape:connector-curvature="0" />
	<path style="fill:none;stroke:red;stroke-width:1px;stroke-linecap:butt;stroke-linejoin:miter;stroke-opacity:1" d="M 23.5468,346.069 36.578,355.842 z" id="boundary" inkscape:connector-curvature="0" />
	<path style="fill:none;stroke:red;stroke-width:1px;stroke-linecap:butt;stroke-linejoin:miter;stroke-opacity:1" d="M 36.578,355.842 41.4647,372.131 z" id="boundary" inkscape:connector-curvature="0" />
	<path style="fill:none;stroke:red;stroke-width:1px;stroke-linecap:butt;stroke-linejoin:miter;stroke-opacity:1" d="M 49.6092,386.791 41.4647,372.131 z" id="boundary" inkscape:connector-curvature="0" />
	<path style="fill:none;stroke:red;stroke-width:1px;stroke-linecap:butt;stroke-linejoin:miter;stroke-opacity:1" d="M 49.6092,386.791 61.0115,399.823 z" id="boundary" inkscape:connector-curvature="0" />
	<path style="fill:none;stroke:red;stroke-width:1px;stroke-linecap:butt;stroke-linejoin:miter;stroke-opacity:1" d="M 98.4762,435.658 85.445,424.256 z" id="boundary" inkscape:connector-curvature="0" />
	<path style="fill:none;stroke:red;stroke-width:1px;stroke-linecap:butt;stroke-linejoin:miter;stroke-opacity:1" d="M 85.445,424.256 74.0427,411.225 z" id="boundary" inkscape:connector-curvature="0" />
	<path style="fill:none;stroke:red;stroke-width:1px;stroke-linecap:butt;stroke-linejoin:miter;stroke-opacity:1" d="M 61.0115,399.823 74.0427,411.225 z" id="boundary" inkscape:connector-curvature="0" />
	<path style="fill:none;stroke:red;stroke-width:1px;stroke-linecap:butt;stroke-linejoin:miter;stroke-opacity:1" d="M 111.507,445.432 98.4762,435.658 z" id="boundary" inkscape:connector-curvature="0" />
	<path style="fill:none;stroke:red;stroke-width:1px;stroke-linecap:butt;stroke-linejoin:miter;stroke-opacity:1" d="M 111.507,445.432 126.167,453.576 z" id="boundary" inkscape:connector-curvature="0" />
	<path style="fill:none;stroke:red;stroke-width:1px;stroke-linecap:butt;stroke-linejoin:miter;stroke-opacity:1" d="M 135.941,466.608 126.167,453.576 z" id="boundary" inkscape:connector-curvature="0" />
	<path style="fill:none;stroke:red;stroke-width:1px;stroke-linecap:butt;stroke-linejoin:miter;stroke-opacity:1" d="M 148.972,478.01 160.374,491.041 z" id="boundary" inkscape:connector-curvature="0" />
	<path style="fill:none;stroke:red;stroke-width:1px;stroke-linecap:butt;stroke-linejoin:miter;stroke-opacity:1" d="M 148.972,478.01 135.941,466.608 z" id="boundary" inkscape:connector-curvature="0" />
	<path style="fill:none;stroke:red;stroke-width:1px;stroke-linecap:butt;stroke-linejoin:miter;stroke-opacity:1" d="M 160.374,491.041 168.519,505.701 z" id="boundary" inkscape:connector-curvature="0" />
	<path style="fill:none;stroke:red;stroke-width:1px;stroke-linecap:butt;stroke-linejoin:miter;stroke-opacity:1" d="M 179.921,518.732 168.519,505.701 z" id="boundary" inkscape:connector-curvature="0" />
	<path style="fill:none;stroke:red;stroke-width:1px;stroke-linecap:butt;stroke-linejoin:miter;stroke-opacity:1" d="M 192.952,530.135 199.468,546.424 z" id="boundary" inkscape:connector-curvature="0" />
	<path style="fill:none;stroke:red;stroke-width:1px;stroke-linecap:butt;stroke-linejoin:miter;stroke-opacity:1" d="M 179.921,518.732 192.952,530.135 z" id="boundary" inkscape:connector-curvature="0" />
	<path style="fill:none;stroke:red;stroke-width:1px;stroke-linecap:butt;stroke-linejoin:miter;stroke-opacity:1" d="M 199.468,546.424 212.499,557.826 z" id="boundary" inkscape:connector-curvature="0" />
	<path style="fill:none;stroke:red;stroke-width:1px;stroke-linecap:butt;stroke-linejoin:miter;stroke-opacity:1" d="M 223.901,570.857 212.499,557.826 z" id="boundary" inkscape:connector-curvature="0" />
	<path style="fill:none;stroke:red;stroke-width:1px;stroke-linecap:butt;stroke-linejoin:miter;stroke-opacity:1" d="M 223.901,570.857 236.933,582.259 z" id="boundary" inkscape:connector-curvature="0" />
	<path style="fill:none;stroke:red;stroke-width:1px;stroke-linecap:butt;stroke-linejoin:miter;stroke-opacity:1" d="M 494.299,420.998 486.154,445.432 z" id="boundary" inkscape:connector-curvature="0" />
	<path style="fill:none;stroke:red;stroke-width:1px;stroke-linecap:butt;stroke-linejoin:miter;stroke-opacity:1" d="M 502.443,396.565 494.299,420.998 z" id="boundary" inkscape:connector-curvature="0" />
	<path style="fill:none;stroke:red;stroke-width:1px;stroke-linecap:butt;stroke-linejoin:miter;stroke-opacity:1" d="M 478.01,461.721 486.154,445.432 z" id="boundary" inkscape:connector-curvature="0" />
	<path style="fill:none;stroke:red;stroke-width:1px;stroke-linecap:butt;stroke-linejoin:miter;stroke-opacity:1" d="M 469.865,486.154 460.092,502.443 z" id="boundary" inkscape:connector-curvature="0" />
	<path style="fill:none;stroke:red;stroke-width:1px;stroke-linecap:butt;stroke-linejoin:miter;stroke-opacity:1" d="M 445.432,510.588 460.092,502.443 z" id="boundary" inkscape:connector-curvature="0" />
	<path style="fill:none;stroke:red;stroke-width:1px;stroke-linecap:butt;stroke-linejoin:miter;stroke-opacity:1" d="M 478.01,461.721 469.865,486.154 z" id="boundary" inkscape:connector-curvature="0" />
	<path style="fill:none;stroke:red;stroke-width:1px;stroke-linecap:butt;stroke-linejoin:miter;stroke-opacity:1" d="M 445.432,510.588 432.401,533.392 z" id="boundary" inkscape:connector-curvature="0" />
	<path style="fill:none;stroke:red;stroke-width:1px;stroke-linecap:butt;stroke-linejoin:miter;stroke-opacity:1" d="M 249.964,592.033 236.933,582.259 z" id="boundary" inkscape:connector-curvature="0" />
	<path style="fill:none;stroke:red;stroke-width:1px;stroke-linecap:butt;stroke-linejoin:miter;stroke-opacity:1" d="M 266.253,595.291 249.964,592.033 z" id="boundary" inkscape:connector-curvature="0" />
	<path style="fill:none;stroke:red;stroke-width:1px;stroke-linecap:butt;stroke-linejoin:miter;stroke-opacity:1" d="M 266.253,595.291 282.542,600.177 z" id="boundary" inkscape:connector-curvature="0" />
	<path style="fill:none;stroke:red;stroke-width:1px;stroke-linecap:butt;stroke-linejoin:miter;stroke-opacity:1" d="M 298.831,600.177 282.542,600.177 z" id="boundary" inkscape:connector-curvature="0" />
	<path style="fill:none;stroke:red;stroke-width:1px;stroke-linecap:butt;stroke-linejoin:miter;stroke-opacity:1" d="M 298.831,600.177 315.12,600.177 z" id="boundary" inkscape:connector-curvature="0" />
	<path style="fill:none;stroke:red;stroke-width:1px;stroke-linecap:butt;stroke-linejoin:miter;stroke-opacity:1" d="M 315.12,600.177 329.78,592.033 z" id="boundary" inkscape:connector-curvature="0" />
	<path style="fill:none;stroke:red;stroke-width:1px;stroke-linecap:butt;stroke-linejoin:miter;stroke-opacity:1" d="M 388.42,559.455 404.709,551.31 z" id="boundary" inkscape:connector-curvature="0" />
	<path style="fill:none;stroke:red;stroke-width:1px;stroke-linecap:butt;stroke-linejoin:miter;stroke-opacity:1" d="M 388.42,559.455 375.389,574.115 z" id="boundary" inkscape:connector-curvature="0" />
	<path style="fill:none;stroke:red;stroke-width:1px;stroke-linecap:butt;stroke-linejoin:miter;stroke-opacity:1" d="M 419.369,543.166 432.401,533.392 z" id="boundary" inkscape:connector-curvature="0" />
	<path style="fill:none;stroke:red;stroke-width:1px;stroke-linecap:butt;stroke-linejoin:miter;stroke-opacity:1" d="M 404.709,551.31 419.369,543.166 z" id="boundary" inkscape:connector-curvature="0" />
	<path style="fill:none;stroke:red;stroke-width:1px;stroke-linecap:butt;stroke-linejoin:miter;stroke-opacity:1" d="M 346.069,587.146 362.358,583.888 z" id="boundary" inkscape:connector-curvature="0" />
	<path style="fill:none;stroke:red;stroke-width:1px;stroke-linecap:butt;stroke-linejoin:miter;stroke-opacity:1" d="M 329.78,592.033 346.069,587.146 z" id="boundary" inkscape:connector-curvature="0" />
	<path style="fill:none;stroke:red;stroke-width:1px;stroke-linecap:butt;stroke-linejoin:miter;stroke-opacity:1" d="M 362.358,583.888 375.389,574.115 z" id="boundary" inkscape:connector-curvature="0" />
	<path style="fill:none;stroke:red;stroke-width:1px;stroke-linecap:butt;stroke-linejoin:miter;stroke-opacity:1" d="M 507.33,191.323 494.299,181.55 z" id="boundary" inkscape:connector-curvature="0" />
	<path style="fill:none;stroke:red;stroke-width:1px;stroke-linecap:butt;stroke-linejoin:miter;stroke-opacity:1" d="M 523.619,192.952 507.33,191.323 z" id="boundary" inkscape:connector-curvature="0" />
	<path style="fill:none;stroke:red;stroke-width:1px;stroke-linecap:butt;stroke-linejoin:miter;stroke-opacity:1" d="M 523.619,192.952 539.908,199.468 z" id="boundary" inkscape:connector-curvature="0" />
	<path style="fill:none;stroke:red;stroke-width:1px;stroke-linecap:butt;stroke-linejoin:miter;stroke-opacity:1" d="M 539.908,199.468 554.568,207.612 z" id="boundary" inkscape:connector-curvature="0" />
	<path style="fill:none;stroke:red;stroke-width:1px;stroke-linecap:butt;stroke-linejoin:miter;stroke-opacity:1" d="M 559.455,223.901 559.455,240.19 z" id="boundary" inkscape:connector-curvature="0" />
	<path style="fill:none;stroke:red;stroke-width:1px;stroke-linecap:butt;stroke-linejoin:miter;stroke-opacity:1" d="M 559.455,223.901 554.568,207.612 z" id="boundary" inkscape:connector-curvature="0" />
	<path style="fill:none;stroke:red;stroke-width:1px;stroke-linecap:butt;stroke-linejoin:miter;stroke-opacity:1" d="M 559.455,240.19 559.455,256.479 z" id="boundary" inkscape:connector-curvature="0" />
	<path style="fill:none;stroke:red;stroke-width:1px;stroke-linecap:butt;stroke-linejoin:miter;stroke-opacity:1" d="M 574.115,264.624 559.455,256.479 z" id="boundary" inkscape:connector-curvature="0" />
	<path style="fill:none;stroke:red;stroke-width:1px;stroke-linecap:butt;stroke-linejoin:miter;stroke-opacity:1" d="M 590.404,264.624 574.115,264.624 z" id="boundary" inkscape:connector-curvature="0" />
	<path style="fill:none;stroke:red;stroke-width:1px;stroke-linecap:butt;stroke-linejoin:miter;stroke-opacity:1" d="M 606.693,264.624 590.404,264.624 z" id="boundary" inkscape:connector-curvature="0" />
	<path style="fill:none;stroke:red;stroke-width:1px;stroke-linecap:butt;stroke-linejoin:miter;stroke-opacity:1" d="M 606.693,264.624 622.982,264.624 z" id="boundary" inkscape:connector-curvature="0" />
	<path style="fill:none;stroke:red;stroke-width:1px;stroke-linecap:butt;stroke-linejoin:miter;stroke-opacity:1" d="M 639.271,264.624 655.56,264.624 z" id="boundary" inkscape:connector-curvature="0" />
	<path style="fill:none;stroke:red;stroke-width:1px;stroke-linecap:butt;stroke-linejoin:miter;stroke-opacity:1" d="M 670.22,272.768 655.56,264.624 z" id="boundary" inkscape:connector-curvature="0" />
	<path style="fill:none;stroke:red;stroke-width:1px;stroke-linecap:butt;stroke-linejoin:miter;stroke-opacity:1" d="M 702.798,272.768 686.509,272.768 z" id="boundary" inkscape:connector-curvature="0" />
	<path style="fill:none;stroke:red;stroke-width:1px;stroke-linecap:butt;stroke-linejoin:miter;stroke-opacity:1" d="M 686.509,272.768 670.22,272.768 z" id="boundary" inkscape:connector-curvature="0" />
	<path style="fill:none;stroke:red;stroke-width:1px;stroke-linecap:butt;stroke-linejoin:miter;stroke-opacity:1" d="M 639.271,264.624 622.982,264.624 z" id="boundary" inkscape:connector-curvature="0" />
	<path style="fill:none;stroke:red;stroke-width:1px;stroke-linecap:butt;stroke-linejoin:miter;stroke-opacity:1" d="M 719.087,272.768 702.798,272.768 z" id="boundary" inkscape:connector-curvature="0" />
	<path style="fill:none;stroke:red;stroke-width:1px;stroke-linecap:butt;stroke-linejoin:miter;stroke-opacity:1" d="M 733.747,280.913 719.087,272.768 z" id="boundary" inkscape:connector-curvature="0" />
	<path style="fill:none;stroke:red;stroke-width:1px;stroke-linecap:butt;stroke-linejoin:miter;stroke-opacity:1" d="M 750.036,280.913 733.747,280.913 z" id="boundary" inkscape:connector-curvature="0" />
	<path style="fill:none;stroke:red;stroke-width:1px;stroke-linecap:butt;stroke-linejoin:miter;stroke-opacity:1" d="M 766.325,280.913 750.036,280.913 z" id="boundary" inkscape:connector-curvature="0" />
	<path style="fill:none;stroke:red;stroke-width:1px;stroke-linecap:butt;stroke-linejoin:miter;stroke-opacity:1" d="M 782.614,280.913 798.903,280.913 z" id="boundary" inkscape:connector-curvature="0" />
	<path style="fill:none;stroke:red;stroke-width:1px;stroke-linecap:butt;stroke-linejoin:miter;stroke-opacity:1" d="M 815.192,280.913 798.903,280.913 z" id="boundary" inkscape:connector-curvature="0" />
	<path style="fill:none;stroke:red;stroke-width:1px;stroke-linecap:butt;stroke-linejoin:miter;stroke-opacity:1" d="M 782.614,280.913 766.325,280.913 z" id="boundary" inkscape:connector-curvature="0" />
	<path style="fill:none;stroke:red;stroke-width:1px;stroke-linecap:butt;stroke-linejoin:miter;stroke-opacity:1" d="M 831.481,280.913 847.77,280.913 z" id="boundary" inkscape:connector-curvature="0" />
	<path style="fill:none;stroke:red;stroke-width:1px;stroke-linecap:butt;stroke-linejoin:miter;stroke-opacity:1" d="M 815.192,280.913 831.481,280.913 z" id="boundary" inkscape:connector-curvature="0" />
	<path style="fill:none;stroke:red;stroke-width:1px;stroke-linecap:butt;stroke-linejoin:miter;stroke-opacity:1" d="M 864.059,280.913 880.348,280.913 z" id="boundary" inkscape:connector-curvature="0" />
	<path style="fill:none;stroke:red;stroke-width:1px;stroke-linecap:butt;stroke-linejoin:miter;stroke-opacity:1" d="M 896.637,280.913 880.348,280.913 z" id="boundary" inkscape:connector-curvature="0" />
	<path style="fill:none;stroke:red;stroke-width:1px;stroke-linecap:butt;stroke-linejoin:miter;stroke-opacity:1" d="M 896.637,280.913 911.297,289.057 z" id="boundary" inkscape:connector-curvature="0" />
	<path style="fill:none;stroke:red;stroke-width:1px;stroke-linecap:butt;stroke-linejoin:miter;stroke-opacity:1" d="M 927.586,289.057 911.297,289.057 z" id="boundary" inkscape:connector-curvature="0" />
	<path style="fill:none;stroke:red;stroke-width:1px;stroke-linecap:butt;stroke-linejoin:miter;stroke-opacity:1" d="M 943.875,289.057 927.586,289.057 z" id="boundary" inkscape:connector-curvature="0" />
	<path style="fill:none;stroke:red;stroke-width:1px;stroke-linecap:butt;stroke-linejoin:miter;stroke-opacity:1" d="M 960.164,289.057 976.453,289.057 z" id="boundary" inkscape:connector-curvature="0" />
	<path style="fill:none;stroke:red;stroke-width:1px;stroke-linecap:butt;stroke-linejoin:miter;stroke-opacity:1" d="M 960.164,289.057 943.875,289.057 z" id="boundary" inkscape:connector-curvature="0" />
	<path style="fill:none;stroke:red;stroke-width:1px;stroke-linecap:butt;stroke-linejoin:miter;stroke-opacity:1" d="M 976.453,289.057 996,297.202 z" id="boundary" inkscape:connector-curvature="0" />
	<path style="fill:none;stroke:red;stroke-width:1px;stroke-linecap:butt;stroke-linejoin:miter;stroke-opacity:1" d="M 847.77,280.913 864.059,280.913 z" id="boundary" inkscape:connector-curvature="0" />
	<path style="fill:none;stroke:red;stroke-width:1px;stroke-linecap:butt;stroke-linejoin:miter;stroke-opacity:1" d="M 996,297.202 982.969,306.975 z" id="boundary" inkscape:connector-curvature="0" />
	<path style="fill:none;stroke:red;stroke-width:1px;stroke-linecap:butt;stroke-linejoin:miter;stroke-opacity:1" d="M 613.209,323.264 627.869,315.12 z" id="boundary" inkscape:connector-curvature="0" />
	<path style="fill:none;stroke:red;stroke-width:1px;stroke-linecap:butt;stroke-linejoin:miter;stroke-opacity:1" d="M 613.209,323.264 596.92,328.151 z" id="boundary" inkscape:connector-curvature="0" />
	<path style="fill:none;stroke:red;stroke-width:1px;stroke-linecap:butt;stroke-linejoin:miter;stroke-opacity:1" d="M 642.529,323.264 627.869,315.12 z" id="boundary" inkscape:connector-curvature="0" />
	<path style="fill:none;stroke:red;stroke-width:1px;stroke-linecap:butt;stroke-linejoin:miter;stroke-opacity:1" d="M 567.599,347.698 580.631,336.296 z" id="boundary" inkscape:connector-curvature="0" />
	<path style="fill:none;stroke:red;stroke-width:1px;stroke-linecap:butt;stroke-linejoin:miter;stroke-opacity:1" d="M 596.92,328.151 580.631,336.296 z" id="boundary" inkscape:connector-curvature="0" />
	<path style="fill:none;stroke:red;stroke-width:1px;stroke-linecap:butt;stroke-linejoin:miter;stroke-opacity:1" d="M 642.529,323.264 658.818,323.264 z" id="boundary" inkscape:connector-curvature="0" />
	<path style="fill:none;stroke:red;stroke-width:1px;stroke-linecap:butt;stroke-linejoin:miter;stroke-opacity:1" d="M 675.107,323.264 658.818,323.264 z" id="boundary" inkscape:connector-curvature="0" />
	<path style="fill:none;stroke:red;stroke-width:1px;stroke-linecap:butt;stroke-linejoin:miter;stroke-opacity:1" d="M 675.107,323.264 691.396,323.264 z" id="boundary" inkscape:connector-curvature="0" />
	<path style="fill:none;stroke:red;stroke-width:1px;stroke-linecap:butt;stroke-linejoin:miter;stroke-opacity:1" d="M 707.685,323.264 691.396,323.264 z" id="boundary" inkscape:connector-curvature="0" />
	<path style="fill:none;stroke:red;stroke-width:1px;stroke-linecap:butt;stroke-linejoin:miter;stroke-opacity:1" d="M 723.974,323.264 707.685,323.264 z" id="boundary" inkscape:connector-curvature="0" />
	<path style="fill:none;stroke:red;stroke-width:1px;stroke-linecap:butt;stroke-linejoin:miter;stroke-opacity:1" d="M 756.552,323.264 740.263,323.264 z" id="boundary" inkscape:connector-curvature="0" />
	<path style="fill:none;stroke:red;stroke-width:1px;stroke-linecap:butt;stroke-linejoin:miter;stroke-opacity:1" d="M 740.263,323.264 723.974,323.264 z" id="boundary" inkscape:connector-curvature="0" />
	<path style="fill:none;stroke:red;stroke-width:1px;stroke-linecap:butt;stroke-linejoin:miter;stroke-opacity:1" d="M 531.764,380.276 515.475,385.163 z" id="boundary" inkscape:connector-curvature="0" />
	<path style="fill:none;stroke:red;stroke-width:1px;stroke-linecap:butt;stroke-linejoin:miter;stroke-opacity:1" d="M 548.053,380.276 531.764,380.276 z" id="boundary" inkscape:connector-curvature="0" />
	<path style="fill:none;stroke:red;stroke-width:1px;stroke-linecap:butt;stroke-linejoin:miter;stroke-opacity:1" d="M 567.599,347.698 562.713,370.502 z" id="boundary" inkscape:connector-curvature="0" />
	<path style="fill:none;stroke:red;stroke-width:1px;stroke-linecap:butt;stroke-linejoin:miter;stroke-opacity:1" d="M 562.713,370.502 548.053,380.276 z" id="boundary" inkscape:connector-curvature="0" />
	<path style="fill:none;stroke:red;stroke-width:1px;stroke-linecap:butt;stroke-linejoin:miter;stroke-opacity:1" d="M 502.443,396.565 515.475,385.163 z" id="boundary" inkscape:connector-curvature="0" />
	<path style="fill:none;stroke:red;stroke-width:1px;stroke-linecap:butt;stroke-linejoin:miter;stroke-opacity:1" d="M 787.501,315.12 772.841,323.264 z" id="boundary" inkscape:connector-curvature="0" />
	<path style="fill:none;stroke:red;stroke-width:1px;stroke-linecap:butt;stroke-linejoin:miter;stroke-opacity:1" d="M 803.79,315.12 820.079,315.12 z" id="boundary" inkscape:connector-curvature="0" />
	<path style="fill:none;stroke:red;stroke-width:1px;stroke-linecap:butt;stroke-linejoin:miter;stroke-opacity:1" d="M 803.79,315.12 787.501,315.12 z" id="boundary" inkscape:connector-curvature="0" />
	<path style="fill:none;stroke:red;stroke-width:1px;stroke-linecap:butt;stroke-linejoin:miter;stroke-opacity:1" d="M 836.368,315.12 852.657,315.12 z" id="boundary" inkscape:connector-curvature="0" />
	<path style="fill:none;stroke:red;stroke-width:1px;stroke-linecap:butt;stroke-linejoin:miter;stroke-opacity:1" d="M 836.368,315.12 820.079,315.12 z" id="boundary" inkscape:connector-curvature="0" />
	<path style="fill:none;stroke:red;stroke-width:1px;stroke-linecap:butt;stroke-linejoin:miter;stroke-opacity:1" d="M 868.946,315.12 852.657,315.12 z" id="boundary" inkscape:connector-curvature="0" />
	<path style="fill:none;stroke:red;stroke-width:1px;stroke-linecap:butt;stroke-linejoin:miter;stroke-opacity:1" d="M 982.969,306.975 966.68,315.12 z" id="boundary" inkscape:connector-curvature="0" />
	<path style="fill:none;stroke:red;stroke-width:1px;stroke-linecap:butt;stroke-linejoin:miter;stroke-opacity:1" d="M 868.946,315.12 885.235,315.12 z" id="boundary" inkscape:connector-curvature="0" />
	<path style="fill:none;stroke:red;stroke-width:1px;stroke-linecap:butt;stroke-linejoin:miter;stroke-opacity:1" d="M 885.235,315.12 901.524,315.12 z" id="boundary" inkscape:connector-curvature="0" />
	<path style="fill:none;stroke:red;stroke-width:1px;stroke-linecap:butt;stroke-linejoin:miter;stroke-opacity:1" d="M 756.552,323.264 772.841,323.264 z" id="boundary" inkscape:connector-curvature="0" />
	<path style="fill:none;stroke:red;stroke-width:1px;stroke-linecap:butt;stroke-linejoin:miter;stroke-opacity:1" d="M 917.813,315.12 934.102,315.12 z" id="boundary" inkscape:connector-curvature="0" />
	<path style="fill:none;stroke:red;stroke-width:1px;stroke-linecap:butt;stroke-linejoin:miter;stroke-opacity:1" d="M 901.524,315.12 917.813,315.12 z" id="boundary" inkscape:connector-curvature="0" />
	<path style="fill:none;stroke:red;stroke-width:1px;stroke-linecap:butt;stroke-linejoin:miter;stroke-opacity:1" d="M 934.102,315.12 950.391,315.12 z" id="boundary" inkscape:connector-curvature="0" />
	<path style="fill:none;stroke:red;stroke-width:1px;stroke-linecap:butt;stroke-linejoin:miter;stroke-opacity:1" d="M 950.391,315.12 966.68,315.12 z" id="boundary" inkscape:connector-curvature="0" />
	<circle cx="4" cy="318.378" r="4" fill="#0" id="circle0"/>
	<circle cx="12.1445" cy="293.944" r="4" fill="#0" id="circle1"/>
	<circle cx="12.1445" cy="333.038" r="4" fill="#0" id="circle2"/>
	<circle cx="20.289" cy="277.655" r="4" fill="#0" id="circle3"/>
	<circle cx="23.5468" cy="346.069" r="4" fill="#0" id="circle4"/>
	<circle cx="33.3202" cy="264.624" r="4" fill="#0" id="circle5"/>
	<circle cx="36.578" cy="245.077" r="4" fill="#0" id="circle6"/>
	<circle cx="36.578" cy="355.842" r="4" fill="#0" id="circle7"/>
	<circle cx="41.4647" cy="372.131" r="4" fill="#0" id="circle8"/>
	<circle cx="49.6092" cy="232.046" r="4" fill="#0" id="circle9"/>
	<circle cx="49.6092" cy="386.791" r="4" fill="#0" id="circle10"/>
	<circle cx="57.7537" cy="215.757" r="4" fill="#0" id="circle11"/>
	<circle cx="61.0115" cy="399.823" r="4" fill="#0" id="circle12"/>
	<circle cx="70.7849" cy="202.726" r="4" fill="#0" id="circle13"/>
	<circle cx="74.0427" cy="411.225" r="4" fill="#0" id="circle14"/>
	<circle cx="83.8161" cy="191.323" r="4" fill="#0" id="circle15"/>
	<circle cx="85.445" cy="424.256" r="4" fill="#0" id="circle16"/>
	<circle cx="98.4762" cy="183.179" r="4" fill="#0" id="circle17"/>
	<circle cx="98.4762" cy="435.658" r="4" fill="#0" id="circle18"/>
	<circle cx="109.878" cy="163.632" r="4" fill="#0" id="circle19"/>
	<circle cx="111.507" cy="445.432" r="4" fill="#0" id="circle20"/>
	<circle cx="126.167" cy="147.343" r="4" fill="#0" id="circle21"/>
	<circle cx="126.167" cy="453.576" r="4" fill="#0" id="circle22"/>
	<circle cx="135.941" cy="466.608" r="4" fill="#0" id="circle23"/>
	<circle cx="139.199" cy="134.312" r="4" fill="#0" id="circle24"/>
	<circle cx="147.343" cy="118.023" r="4" fill="#0" id="circle25"/>
	<circle cx="148.972" cy="478.01" r="4" fill="#0" id="circle26"/>
	<circle cx="158.745" cy="90.3317" r="4" fill="#0" id="circle27"/>
	<circle cx="160.374" cy="491.041" r="4" fill="#0" id="circle28"/>
	<circle cx="166.89" cy="74.0427" r="4" fill="#0" id="circle29"/>
	<circle cx="168.519" cy="505.701" r="4" fill="#0" id="circle30"/>
	<circle cx="179.921" cy="61.0115" r="4" fill="#0" id="circle31"/>
	<circle cx="179.921" cy="518.732" r="4" fill="#0" id="circle32"/>
	<circle cx="192.952" cy="47.9803" r="4" fill="#0" id="circle33"/>
	<circle cx="192.952" cy="530.135" r="4" fill="#0" id="circle34"/>
	<circle cx="199.468" cy="546.424" r="4" fill="#0" id="circle35"/>
	<circle cx="205.984" cy="36.578" r="4" fill="#0" id="circle36"/>
	<circle cx="212.499" cy="557.826" r="4" fill="#0" id="circle37"/>
	<circle cx="217.386" cy="23.5468" r="4" fill="#0" id="circle38"/>
	<circle cx="223.901" cy="570.857" r="4" fill="#0" id="circle39"/>
	<circle cx="233.675" cy="15.4023" r="4" fill="#0" id="circle40"/>
	<circle cx="236.933" cy="582.259" r="4" fill="#0" id="circle41"/>
	<circle cx="249.964" cy="7.2578" r="4" fill="#0" id="circle42"/>
	<circle cx="249.964" cy="592.033" r="4" fill="#0" id="circle43"/>
	<circle cx="266.253" cy="4" r="4" fill="#0" id="circle44"/>
	<circle cx="266.253" cy="595.291" r="4" fill="#0" id="circle45"/>
	<circle cx="282.542" cy="4" r="4" fill="#0" id="circle46"/>
	<circle cx="282.542" cy="600.177" r="4" fill="#0" id="circle47"/>
	<circle cx="298.831" cy="8.8867" r="4" fill="#0" id="circle48"/>
	<circle cx="298.831" cy="600.177" r="4" fill="#0" id="circle49"/>
	<circle cx="315.12" cy="12.1445" r="4" fill="#0" id="circle50"/>
	<circle cx="315.12" cy="600.177" r="4" fill="#0" id="circle51"/>
	<circle cx="329.78" cy="20.289" r="4" fill="#0" id="circle52"/>
	<circle cx="329.78" cy="592.033" r="4" fill="#0" id="circle53"/>
	<circle cx="346.069" cy="23.5468" r="4" fill="#0" id="circle54"/>
	<circle cx="346.069" cy="587.146" r="4" fill="#0" id="circle55"/>
	<circle cx="355.842" cy="36.578" r="4" fill="#0" id="circle56"/>
	<circle cx="362.358" cy="583.888" r="4" fill="#0" id="circle57"/>
	<circle cx="372.131" cy="36.578" r="4" fill="#0" id="circle58"/>
	<circle cx="375.389" cy="574.115" r="4" fill="#0" id="circle59"/>
	<circle cx="385.163" cy="46.3514" r="4" fill="#0" id="circle60"/>
	<circle cx="388.42" cy="559.455" r="4" fill="#0" id="circle61"/>
	<circle cx="399.823" cy="54.4959" r="4" fill="#0" id="circle62"/>
	<circle cx="404.709" cy="551.31" r="4" fill="#0" id="circle63"/>
	<circle cx="412.854" cy="65.8982" r="4" fill="#0" id="circle64"/>
	<circle cx="419.369" cy="543.166" r="4" fill="#0" id="circle65"/>
	<circle cx="427.514" cy="74.0427" r="4" fill="#0" id="circle66"/>
	<circle cx="432.401" cy="533.392" r="4" fill="#0" id="circle67"/>
	<circle cx="440.545" cy="85.445" r="4" fill="#0" id="circle68"/>
	<circle cx="445.432" cy="510.588" r="4" fill="#0" id="circle69"/>
	<circle cx="455.205" cy="93.5895" r="4" fill="#0" id="circle70"/>
	<circle cx="460.092" cy="502.443" r="4" fill="#0" id="circle71"/>
	<circle cx="468.236" cy="104.992" r="4" fill="#0" id="circle72"/>
	<circle cx="469.865" cy="486.154" r="4" fill="#0" id="circle73"/>
	<circle cx="474.752" cy="121.281" r="4" fill="#0" id="circle74"/>
	<circle cx="478.01" cy="461.721" r="4" fill="#0" id="circle75"/>
	<circle cx="486.154" cy="134.312" r="4" fill="#0" id="circle76"/>
	<circle cx="486.154" cy="150.601" r="4" fill="#0" id="circle77"/>
	<circle cx="486.154" cy="166.89" r="4" fill="#0" id="circle78"/>
	<circle cx="486.154" cy="445.432" r="4" fill="#0" id="circle79"/>
	<circle cx="494.299" cy="181.55" r="4" fill="#0" id="circle80"/>
	<circle cx="494.299" cy="420.998" r="4" fill="#0" id="circle81"/>
	<circle cx="502.443" cy="396.565" r="4" fill="#0" id="circle82"/>
	<circle cx="507.33" cy="191.323" r="4" fill="#0" id="circle83"/>
	<circle cx="515.475" cy="385.163" r="4" fill="#0" id="circle84"/>
	<circle cx="523.619" cy="192.952" r="4" fill="#0" id="circle85"/>
	<circle cx="531.764" cy="380.276" r="4" fill="#0" id="circle86"/>
	<circle cx="539.908" cy="199.468" r="4" fill="#0" id="circle87"/>
	<circle cx="548.053" cy="380.276" r="4" fill="#0" id="circle88"/>
	<circle cx="554.568" cy="207.612" r="4" fill="#0" id="circle89"/>
	<circle cx="559.455" cy="223.901" r="4" fill="#0" id="circle90"/>
	<circle cx="559.455" cy="240.19" r="4" fill="#0" id="circle91"/>
	<circle cx="559.455" cy="256.479" r="4" fill="#0" id="circle92"/>
	<circle cx="562.713" cy="370.502" r="4" fill="#0" id="circle93"/>
	<circle cx="567.599" cy="347.698" r="4" fill="#0" id="circle94"/>
	<circle cx="574.115" cy="264.624" r="4" fill="#0" id="circle95"/>
	<circle cx="580.631" cy="336.296" r="4" fill="#0" id="circle96"/>
	<circle cx="590.404" cy="264.624" r="4" fill="#0" id="circle97"/>
	<circle cx="596.92" cy="328.151" r="4" fill="#0" id="circle98"/>
	<circle cx="606.693" cy="264.624" r="4" fill="#0" id="circle99"/>
	<circle cx="613.209" cy="323.264" r="4" fill="#0" id="circle100"/>
	<circle cx="622.982" cy="264.624" r="4" fill="#0" id="circle101"/>
	<circle cx="627.869" cy="315.12" r="4" fill="#0" id="circle102"/>
	<circle cx="639.271" cy="264.624" r="4" fill="#0" id="circle103"/>
	<circle cx="642.529" cy="323.264" r="4" fill="#0" id="circle104"/>
	<circle cx="655.56" cy="264.624" r="4" fill="#0" id="circle105"/>
	<circle cx="658.818" cy="323.264" r="4" fill="#0" id="circle106"/>
	<circle cx="670.22" cy="272.768" r="4" fill="#0" id="circle107"/>
	<circle cx="675.107" cy="323.264" r="4" fill="#0" id="circle108"/>
	<circle cx="686.509" cy="272.768" r="4" fill="#0" id="circle109"/>
	<circle cx="691.396" cy="323.264" r="4" fill="#0" id="circle110"/>
	<circle cx="702.798" cy="272.768" r="4" fill="#0" id="circle111"/>
	<circle cx="707.685" cy="323.264" r="4" fill="#0" id="circle112"/>
	<circle cx="719.087" cy="272.768" r="4" fill="#0" id="circle113"/>
	<circle cx="723.974" cy="323.264" r="4" fill="#0" id="circle114"/>
	<circle cx="733.747" cy="280.913" r="4" fill="#0" id="circle115"/>
	<circle cx="740.263" cy="323.264" r="4" fill="#0" id="circle116"/>
	<circle cx="750.036" cy="280.913" r="4" fill="#0" id="circle117"/>
	<circle cx="756.552" cy="323.264" r="4" fill="#0" id="circle118"/>
	<circle cx="766.325" cy="280.913" r="4" fill="#0" id="circle119"/>
	<circle cx="772.841" cy="323.264" r="4" fill="#0" id="circle120"/>
	<circle cx="782.614" cy="280.913" r="4" fill="#0" id="circle121"/>
	<circle cx="787.501" cy="315.12" r="4" fill="#0" id="circle122"/>
	<circle cx="798.903" cy="280.913" r="4" fill="#0" id="circle123"/>
	<circle cx="803.79" cy="315.12" r="4" fill="#0" id="circle124"/>
	<circle cx="815.192" cy="280.913" r="4" fill="#0" id="circle125"/>
	<circle cx="820.079" cy="315.12" r="4" fill="#0" id="circle126"/>
	<circle cx="831.481" cy="280.913" r="4" fill="#0" id="circle127"/>
	<circle cx="836.368" cy="315.12" r="4" fill="#0" id="circle128"/>
	<circle cx="847.77" cy="280.913" r="4" fill="#0" id="circle129"/>
	<circle cx="852.657" cy="315.12" r="4" fill="#0" id="circle130"/>
	<circle cx="864.059" cy="280.913" r="4" fill="#0" id="circle131"/>
	<circle cx="868.946" cy="315.12" r="4" fill="#0" id="circle132"/>
	<circle cx="880.348" cy="280.913" r="4" fill="#0" id="circle133"/>
	<circle cx="885.235" cy="315.12" r="4" fill="#0" id="circle134"/>
	<circle cx="896.637" cy="280.913" r="4" fill="#0" id="circle135"/>
	<circle cx="901.524" cy="315.12" r="4" fill="#0" id="circle136"/>
	<circle cx="911.297" cy="289.057" r="4" fill="#0" id="circle137"/>
	<circle cx="917.813" cy="315.12" r="4" fill="#0" id="circle138"/>
	<circle cx="927.586" cy="289.057" r="4" fill="#0" id="circle139"/>
	<circle cx="934.102" cy="315.12" r="4" fill="#0" id="circle140"/>
	<circle cx="943.875" cy="289.057" r="4" fill="#0" id="circle141"/>
	<circle cx="950.391" cy="315.12" r="4" fill="#0" id="circle142"/>
	<circle cx="960.164" cy="289.057" r="4" fill="#0" id="circle143"/>
	<circle cx="966.68" cy="315.12" r="4" fill="#0" id="circle144"/>
	<circle cx="976.453" cy="289.057" r="4" fill="#0" id="circle145"/>
	<circle cx="982.969" cy="306.975" r="4" fill="#0" id="circle146"/>
	<circle cx="996" cy="297.202" r="4" fill="#0" id="circle147"/>
	</g>
</svg>