<?xml version="1.0" encoding="UTF-8" standalone="no"?>
<!-- Created with CurveBenchmark -->
<svg
	xmlns:dc="http://purl.org/dc/elements/1.1/"
	xmlns:cc="http://creativecommons.org/ns#"
	xmlns:rdf="http://www.w3.org/1999/02/22-rdf-syntax-ns#"
	xmlns:svg="http://www.w3.org/2000/svg"
	xmlns="http://www.w3.org/2000/svg"
	xmlns:sodipodi="http://sodipodi.sourceforge.net/DTD/sodipodi-0.dtd"
	xmlns:inkscape="http://www.inkscape.org/namespaces/inkscape"
	width="1000"
	height="1000"
	id="svg2"
	version="1.1"
	sodipodi:docname="manifold/crust-fork23.png.txt">
<defs
	id="defs4" />
<metadata
	id="metadata7">
	<rdf:RDF>
		<cc:Work
			rdf:about="">
			<dc:format>image/svg+xml</dc:format>
			<dc:type
				rdf:resource="http://purl.org/dc/dcmitype/StillImage" />
			<dc:title></dc:title>
		</cc:Work>
	</rdf:RDF>
</metadata>
<g
	inkscape:label="Layer 1"
	inkscape:groupmode="layer"
	id="layer1">
	<path style="fill:none;stroke:red;stroke-width:1px;stroke-linecap:butt;stroke-linejoin:miter;stroke-opacity:1" d="M 4,176.119 4,157.612 z" id="boundary" inkscape:connector-curvature="0" />
	<path style="fill:none;stroke:red;stroke-width:1px;stroke-linecap:butt;stroke-linejoin:miter;stroke-opacity:1" d="M 4,157.612 22.5075,152.06 z" id="boundary" inkscape:connector-curvature="0" />
	<path style="fill:none;stroke:red;stroke-width:1px;stroke-linecap:butt;stroke-linejoin:miter;stroke-opacity:1" d="M 78.0299,142.806 59.5224,148.358 z" id="boundary" inkscape:connector-curvature="0" />
	<path style="fill:none;stroke:red;stroke-width:1px;stroke-linecap:butt;stroke-linejoin:miter;stroke-opacity:1" d="M 41.0149,152.06 22.5075,152.06 z" id="boundary" inkscape:connector-curvature="0" />
	<path style="fill:none;stroke:red;stroke-width:1px;stroke-linecap:butt;stroke-linejoin:miter;stroke-opacity:1" d="M 59.5224,148.358 41.0149,152.06 z" id="boundary" inkscape:connector-curvature="0" />
	<path style="fill:none;stroke:red;stroke-width:1px;stroke-linecap:butt;stroke-linejoin:miter;stroke-opacity:1" d="M 13.2537,192.776 4,176.119 z" id="boundary" inkscape:connector-curvature="0" />
	<path style="fill:none;stroke:red;stroke-width:1px;stroke-linecap:butt;stroke-linejoin:miter;stroke-opacity:1" d="M 31.7612,200.179 13.2537,192.776 z" id="boundary" inkscape:connector-curvature="0" />
	<path style="fill:none;stroke:red;stroke-width:1px;stroke-linecap:butt;stroke-linejoin:miter;stroke-opacity:1" d="M 50.2687,200.179 31.7612,200.179 z" id="boundary" inkscape:connector-curvature="0" />
	<path style="fill:none;stroke:red;stroke-width:1px;stroke-linecap:butt;stroke-linejoin:miter;stroke-opacity:1" d="M 68.7761,200.179 50.2687,200.179 z" id="boundary" inkscape:connector-curvature="0" />
	<path style="fill:none;stroke:red;stroke-width:1px;stroke-linecap:butt;stroke-linejoin:miter;stroke-opacity:1" d="M 96.5373,142.806 78.0299,142.806 z" id="boundary" inkscape:connector-curvature="0" />
	<path style="fill:none;stroke:red;stroke-width:1px;stroke-linecap:butt;stroke-linejoin:miter;stroke-opacity:1" d="M 115.045,142.806 96.5373,142.806 z" id="boundary" inkscape:connector-curvature="0" />
	<path style="fill:none;stroke:red;stroke-width:1px;stroke-linecap:butt;stroke-linejoin:miter;stroke-opacity:1" d="M 115.045,142.806 133.552,142.806 z" id="boundary" inkscape:connector-curvature="0" />
	<path style="fill:none;stroke:red;stroke-width:1px;stroke-linecap:butt;stroke-linejoin:miter;stroke-opacity:1" d="M 87.2836,200.179 68.7761,200.179 z" id="boundary" inkscape:connector-curvature="0" />
	<path style="fill:none;stroke:red;stroke-width:1px;stroke-linecap:butt;stroke-linejoin:miter;stroke-opacity:1" d="M 105.791,200.179 87.2836,200.179 z" id="boundary" inkscape:connector-curvature="0" />
	<path style="fill:none;stroke:red;stroke-width:1px;stroke-linecap:butt;stroke-linejoin:miter;stroke-opacity:1" d="M 124.299,200.179 105.791,200.179 z" id="boundary" inkscape:connector-curvature="0" />
	<path style="fill:none;stroke:red;stroke-width:1px;stroke-linecap:butt;stroke-linejoin:miter;stroke-opacity:1" d="M 133.552,244.597 115.045,250.149 z" id="boundary" inkscape:connector-curvature="0" />
	<path style="fill:none;stroke:red;stroke-width:1px;stroke-linecap:butt;stroke-linejoin:miter;stroke-opacity:1" d="M 22.5075,259.403 22.5075,277.91 z" id="boundary" inkscape:connector-curvature="0" />
	<path style="fill:none;stroke:red;stroke-width:1px;stroke-linecap:butt;stroke-linejoin:miter;stroke-opacity:1" d="M 22.5075,259.403 41.0149,253.851 z" id="boundary" inkscape:connector-curvature="0" />
	<path style="fill:none;stroke:red;stroke-width:1px;stroke-linecap:butt;stroke-linejoin:miter;stroke-opacity:1" d="M 41.0149,253.851 59.5224,253.851 z" id="boundary" inkscape:connector-curvature="0" />
	<path style="fill:none;stroke:red;stroke-width:1px;stroke-linecap:butt;stroke-linejoin:miter;stroke-opacity:1" d="M 22.5075,277.91 22.5075,296.418 z" id="boundary" inkscape:connector-curvature="0" />
	<path style="fill:none;stroke:red;stroke-width:1px;stroke-linecap:butt;stroke-linejoin:miter;stroke-opacity:1" d="M 33.6119,311.224 22.5075,296.418 z" id="boundary" inkscape:connector-curvature="0" />
	<path style="fill:none;stroke:red;stroke-width:1px;stroke-linecap:butt;stroke-linejoin:miter;stroke-opacity:1" d="M 52.1194,311.224 33.6119,311.224 z" id="boundary" inkscape:connector-curvature="0" />
	<path style="fill:none;stroke:red;stroke-width:1px;stroke-linecap:butt;stroke-linejoin:miter;stroke-opacity:1" d="M 70.6269,301.97 52.1194,311.224 z" id="boundary" inkscape:connector-curvature="0" />
	<path style="fill:none;stroke:red;stroke-width:1px;stroke-linecap:butt;stroke-linejoin:miter;stroke-opacity:1" d="M 78.0299,253.851 59.5224,253.851 z" id="boundary" inkscape:connector-curvature="0" />
	<path style="fill:none;stroke:red;stroke-width:1px;stroke-linecap:butt;stroke-linejoin:miter;stroke-opacity:1" d="M 96.5373,253.851 78.0299,253.851 z" id="boundary" inkscape:connector-curvature="0" />
	<path style="fill:none;stroke:red;stroke-width:1px;stroke-linecap:butt;stroke-linejoin:miter;stroke-opacity:1" d="M 115.045,250.149 96.5373,253.851 z" id="boundary" inkscape:connector-curvature="0" />
	<path style="fill:none;stroke:red;stroke-width:1px;stroke-linecap:butt;stroke-linejoin:miter;stroke-opacity:1" d="M 89.1343,301.97 70.6269,301.97 z" id="boundary" inkscape:connector-curvature="0" />
	<path style="fill:none;stroke:red;stroke-width:1px;stroke-linecap:butt;stroke-linejoin:miter;stroke-opacity:1" d="M 126.149,301.97 107.642,301.97 z" id="boundary" inkscape:connector-curvature="0" />
	<path style="fill:none;stroke:red;stroke-width:1px;stroke-linecap:butt;stroke-linejoin:miter;stroke-opacity:1" d="M 107.642,301.97 89.1343,301.97 z" id="boundary" inkscape:connector-curvature="0" />
	<path style="fill:none;stroke:red;stroke-width:1px;stroke-linecap:butt;stroke-linejoin:miter;stroke-opacity:1" d="M 168.716,133.552 152.06,142.806 z" id="boundary" inkscape:connector-curvature="0" />
	<path style="fill:none;stroke:red;stroke-width:1px;stroke-linecap:butt;stroke-linejoin:miter;stroke-opacity:1" d="M 187.224,133.552 168.716,133.552 z" id="boundary" inkscape:connector-curvature="0" />
	<path style="fill:none;stroke:red;stroke-width:1px;stroke-linecap:butt;stroke-linejoin:miter;stroke-opacity:1" d="M 133.552,142.806 152.06,142.806 z" id="boundary" inkscape:connector-curvature="0" />
	<path style="fill:none;stroke:red;stroke-width:1px;stroke-linecap:butt;stroke-linejoin:miter;stroke-opacity:1" d="M 187.224,133.552 205.731,133.552 z" id="boundary" inkscape:connector-curvature="0" />
	<path style="fill:none;stroke:red;stroke-width:1px;stroke-linecap:butt;stroke-linejoin:miter;stroke-opacity:1" d="M 161.313,200.179 142.806,200.179 z" id="boundary" inkscape:connector-curvature="0" />
	<path style="fill:none;stroke:red;stroke-width:1px;stroke-linecap:butt;stroke-linejoin:miter;stroke-opacity:1" d="M 124.299,200.179 142.806,200.179 z" id="boundary" inkscape:connector-curvature="0" />
	<path style="fill:none;stroke:red;stroke-width:1px;stroke-linecap:butt;stroke-linejoin:miter;stroke-opacity:1" d="M 198.328,190.925 179.821,194.627 z" id="boundary" inkscape:connector-curvature="0" />
	<path style="fill:none;stroke:red;stroke-width:1px;stroke-linecap:butt;stroke-linejoin:miter;stroke-opacity:1" d="M 161.313,200.179 179.821,194.627 z" id="boundary" inkscape:connector-curvature="0" />
	<path style="fill:none;stroke:red;stroke-width:1px;stroke-linecap:butt;stroke-linejoin:miter;stroke-opacity:1" d="M 224.239,133.552 205.731,133.552 z" id="boundary" inkscape:connector-curvature="0" />
	<path style="fill:none;stroke:red;stroke-width:1px;stroke-linecap:butt;stroke-linejoin:miter;stroke-opacity:1" d="M 240.896,124.299 224.239,133.552 z" id="boundary" inkscape:connector-curvature="0" />
	<path style="fill:none;stroke:red;stroke-width:1px;stroke-linecap:butt;stroke-linejoin:miter;stroke-opacity:1" d="M 240.896,124.299 259.403,124.299 z" id="boundary" inkscape:connector-curvature="0" />
	<path style="fill:none;stroke:red;stroke-width:1px;stroke-linecap:butt;stroke-linejoin:miter;stroke-opacity:1" d="M 198.328,190.925 216.836,190.925 z" id="boundary" inkscape:connector-curvature="0" />
	<path style="fill:none;stroke:red;stroke-width:1px;stroke-linecap:butt;stroke-linejoin:miter;stroke-opacity:1" d="M 235.343,190.925 216.836,190.925 z" id="boundary" inkscape:connector-curvature="0" />
	<path style="fill:none;stroke:red;stroke-width:1px;stroke-linecap:butt;stroke-linejoin:miter;stroke-opacity:1" d="M 235.343,190.925 253.851,190.925 z" id="boundary" inkscape:connector-curvature="0" />
	<path style="fill:none;stroke:red;stroke-width:1px;stroke-linecap:butt;stroke-linejoin:miter;stroke-opacity:1" d="M 152.06,244.597 133.552,244.597 z" id="boundary" inkscape:connector-curvature="0" />
	<path style="fill:none;stroke:red;stroke-width:1px;stroke-linecap:butt;stroke-linejoin:miter;stroke-opacity:1" d="M 189.075,240.896 170.567,244.597 z" id="boundary" inkscape:connector-curvature="0" />
	<path style="fill:none;stroke:red;stroke-width:1px;stroke-linecap:butt;stroke-linejoin:miter;stroke-opacity:1" d="M 170.567,244.597 152.06,244.597 z" id="boundary" inkscape:connector-curvature="0" />
	<path style="fill:none;stroke:red;stroke-width:1px;stroke-linecap:butt;stroke-linejoin:miter;stroke-opacity:1" d="M 144.657,301.97 126.149,301.97 z" id="boundary" inkscape:connector-curvature="0" />
	<path style="fill:none;stroke:red;stroke-width:1px;stroke-linecap:butt;stroke-linejoin:miter;stroke-opacity:1" d="M 181.672,301.97 163.164,301.97 z" id="boundary" inkscape:connector-curvature="0" />
	<path style="fill:none;stroke:red;stroke-width:1px;stroke-linecap:butt;stroke-linejoin:miter;stroke-opacity:1" d="M 163.164,301.97 144.657,301.97 z" id="boundary" inkscape:connector-curvature="0" />
	<path style="fill:none;stroke:red;stroke-width:1px;stroke-linecap:butt;stroke-linejoin:miter;stroke-opacity:1" d="M 189.075,240.896 207.582,235.343 z" id="boundary" inkscape:connector-curvature="0" />
	<path style="fill:none;stroke:red;stroke-width:1px;stroke-linecap:butt;stroke-linejoin:miter;stroke-opacity:1" d="M 244.597,235.343 226.09,235.343 z" id="boundary" inkscape:connector-curvature="0" />
	<path style="fill:none;stroke:red;stroke-width:1px;stroke-linecap:butt;stroke-linejoin:miter;stroke-opacity:1" d="M 226.09,235.343 207.582,235.343 z" id="boundary" inkscape:connector-curvature="0" />
	<path style="fill:none;stroke:red;stroke-width:1px;stroke-linecap:butt;stroke-linejoin:miter;stroke-opacity:1" d="M 253.851,209.433 244.597,235.343 z" id="boundary" inkscape:connector-curvature="0" />
	<path style="fill:none;stroke:red;stroke-width:1px;stroke-linecap:butt;stroke-linejoin:miter;stroke-opacity:1" d="M 200.179,301.97 218.687,301.97 z" id="boundary" inkscape:connector-curvature="0" />
	<path style="fill:none;stroke:red;stroke-width:1px;stroke-linecap:butt;stroke-linejoin:miter;stroke-opacity:1" d="M 181.672,301.97 200.179,301.97 z" id="boundary" inkscape:connector-curvature="0" />
	<path style="fill:none;stroke:red;stroke-width:1px;stroke-linecap:butt;stroke-linejoin:miter;stroke-opacity:1" d="M 237.194,301.97 218.687,301.97 z" id="boundary" inkscape:connector-curvature="0" />
	<path style="fill:none;stroke:red;stroke-width:1px;stroke-linecap:butt;stroke-linejoin:miter;stroke-opacity:1" d="M 237.194,301.97 253.851,311.224 z" id="boundary" inkscape:connector-curvature="0" />
	<path style="fill:none;stroke:red;stroke-width:1px;stroke-linecap:butt;stroke-linejoin:miter;stroke-opacity:1" d="M 31.7612,370.448 31.7612,388.955 z" id="boundary" inkscape:connector-curvature="0" />
	<path style="fill:none;stroke:red;stroke-width:1px;stroke-linecap:butt;stroke-linejoin:miter;stroke-opacity:1" d="M 50.2687,361.194 31.7612,370.448 z" id="boundary" inkscape:connector-curvature="0" />
	<path style="fill:none;stroke:red;stroke-width:1px;stroke-linecap:butt;stroke-linejoin:miter;stroke-opacity:1" d="M 68.7761,355.642 50.2687,361.194 z" id="boundary" inkscape:connector-curvature="0" />
	<path style="fill:none;stroke:red;stroke-width:1px;stroke-linecap:butt;stroke-linejoin:miter;stroke-opacity:1" d="M 31.7612,388.955 31.7612,407.463 z" id="boundary" inkscape:connector-curvature="0" />
	<path style="fill:none;stroke:red;stroke-width:1px;stroke-linecap:butt;stroke-linejoin:miter;stroke-opacity:1" d="M 50.2687,413.015 31.7612,407.463 z" id="boundary" inkscape:connector-curvature="0" />
	<path style="fill:none;stroke:red;stroke-width:1px;stroke-linecap:butt;stroke-linejoin:miter;stroke-opacity:1" d="M 68.7761,413.015 50.2687,413.015 z" id="boundary" inkscape:connector-curvature="0" />
	<path style="fill:none;stroke:red;stroke-width:1px;stroke-linecap:butt;stroke-linejoin:miter;stroke-opacity:1" d="M 105.791,355.642 87.2836,355.642 z" id="boundary" inkscape:connector-curvature="0" />
	<path style="fill:none;stroke:red;stroke-width:1px;stroke-linecap:butt;stroke-linejoin:miter;stroke-opacity:1" d="M 68.7761,355.642 87.2836,355.642 z" id="boundary" inkscape:connector-curvature="0" />
	<path style="fill:none;stroke:red;stroke-width:1px;stroke-linecap:butt;stroke-linejoin:miter;stroke-opacity:1" d="M 124.299,351.94 105.791,355.642 z" id="boundary" inkscape:connector-curvature="0" />
	<path style="fill:none;stroke:red;stroke-width:1px;stroke-linecap:butt;stroke-linejoin:miter;stroke-opacity:1" d="M 105.791,413.015 87.2836,413.015 z" id="boundary" inkscape:connector-curvature="0" />
	<path style="fill:none;stroke:red;stroke-width:1px;stroke-linecap:butt;stroke-linejoin:miter;stroke-opacity:1" d="M 87.2836,413.015 68.7761,413.015 z" id="boundary" inkscape:connector-curvature="0" />
	<path style="fill:none;stroke:red;stroke-width:1px;stroke-linecap:butt;stroke-linejoin:miter;stroke-opacity:1" d="M 105.791,413.015 124.299,413.015 z" id="boundary" inkscape:connector-curvature="0" />
	<path style="fill:none;stroke:red;stroke-width:1px;stroke-linecap:butt;stroke-linejoin:miter;stroke-opacity:1" d="M 124.299,413.015 142.806,413.015 z" id="boundary" inkscape:connector-curvature="0" />
	<path style="fill:none;stroke:red;stroke-width:1px;stroke-linecap:butt;stroke-linejoin:miter;stroke-opacity:1" d="M 142.806,346.388 124.299,351.94 z" id="boundary" inkscape:connector-curvature="0" />
	<path style="fill:none;stroke:red;stroke-width:1px;stroke-linecap:butt;stroke-linejoin:miter;stroke-opacity:1" d="M 41.0149,472.239 41.0149,490.746 z" id="boundary" inkscape:connector-curvature="0" />
	<path style="fill:none;stroke:red;stroke-width:1px;stroke-linecap:butt;stroke-linejoin:miter;stroke-opacity:1" d="M 41.0149,490.746 41.0149,509.254 z" id="boundary" inkscape:connector-curvature="0" />
	<path style="fill:none;stroke:red;stroke-width:1px;stroke-linecap:butt;stroke-linejoin:miter;stroke-opacity:1" d="M 41.0149,472.239 59.5224,466.687 z" id="boundary" inkscape:connector-curvature="0" />
	<path style="fill:none;stroke:red;stroke-width:1px;stroke-linecap:butt;stroke-linejoin:miter;stroke-opacity:1" d="M 59.5224,466.687 78.0299,466.687 z" id="boundary" inkscape:connector-curvature="0" />
	<path style="fill:none;stroke:red;stroke-width:1px;stroke-linecap:butt;stroke-linejoin:miter;stroke-opacity:1" d="M 52.1194,524.06 41.0149,509.254 z" id="boundary" inkscape:connector-curvature="0" />
	<path style="fill:none;stroke:red;stroke-width:1px;stroke-linecap:butt;stroke-linejoin:miter;stroke-opacity:1" d="M 70.6269,524.06 52.1194,524.06 z" id="boundary" inkscape:connector-curvature="0" />
	<path style="fill:none;stroke:red;stroke-width:1px;stroke-linecap:butt;stroke-linejoin:miter;stroke-opacity:1" d="M 96.5373,462.985 78.0299,466.687 z" id="boundary" inkscape:connector-curvature="0" />
	<path style="fill:none;stroke:red;stroke-width:1px;stroke-linecap:butt;stroke-linejoin:miter;stroke-opacity:1" d="M 133.552,457.433 115.045,457.433 z" id="boundary" inkscape:connector-curvature="0" />
	<path style="fill:none;stroke:red;stroke-width:1px;stroke-linecap:butt;stroke-linejoin:miter;stroke-opacity:1" d="M 115.045,457.433 96.5373,462.985 z" id="boundary" inkscape:connector-curvature="0" />
	<path style="fill:none;stroke:red;stroke-width:1px;stroke-linecap:butt;stroke-linejoin:miter;stroke-opacity:1" d="M 107.642,524.06 89.1343,524.06 z" id="boundary" inkscape:connector-curvature="0" />
	<path style="fill:none;stroke:red;stroke-width:1px;stroke-linecap:butt;stroke-linejoin:miter;stroke-opacity:1" d="M 70.6269,524.06 89.1343,524.06 z" id="boundary" inkscape:connector-curvature="0" />
	<path style="fill:none;stroke:red;stroke-width:1px;stroke-linecap:butt;stroke-linejoin:miter;stroke-opacity:1" d="M 144.657,514.806 126.149,524.06 z" id="boundary" inkscape:connector-curvature="0" />
	<path style="fill:none;stroke:red;stroke-width:1px;stroke-linecap:butt;stroke-linejoin:miter;stroke-opacity:1" d="M 126.149,524.06 107.642,524.06 z" id="boundary" inkscape:connector-curvature="0" />
	<path style="fill:none;stroke:red;stroke-width:1px;stroke-linecap:butt;stroke-linejoin:miter;stroke-opacity:1" d="M 161.313,346.388 142.806,346.388 z" id="boundary" inkscape:connector-curvature="0" />
	<path style="fill:none;stroke:red;stroke-width:1px;stroke-linecap:butt;stroke-linejoin:miter;stroke-opacity:1" d="M 179.821,346.388 161.313,346.388 z" id="boundary" inkscape:connector-curvature="0" />
	<path style="fill:none;stroke:red;stroke-width:1px;stroke-linecap:butt;stroke-linejoin:miter;stroke-opacity:1" d="M 161.313,413.015 142.806,413.015 z" id="boundary" inkscape:connector-curvature="0" />
	<path style="fill:none;stroke:red;stroke-width:1px;stroke-linecap:butt;stroke-linejoin:miter;stroke-opacity:1" d="M 179.821,413.015 161.313,413.015 z" id="boundary" inkscape:connector-curvature="0" />
	<path style="fill:none;stroke:red;stroke-width:1px;stroke-linecap:butt;stroke-linejoin:miter;stroke-opacity:1" d="M 179.821,346.388 198.328,346.388 z" id="boundary" inkscape:connector-curvature="0" />
	<path style="fill:none;stroke:red;stroke-width:1px;stroke-linecap:butt;stroke-linejoin:miter;stroke-opacity:1" d="M 198.328,407.463 179.821,413.015 z" id="boundary" inkscape:connector-curvature="0" />
	<path style="fill:none;stroke:red;stroke-width:1px;stroke-linecap:butt;stroke-linejoin:miter;stroke-opacity:1" d="M 198.328,346.388 216.836,342.687 z" id="boundary" inkscape:connector-curvature="0" />
	<path style="fill:none;stroke:red;stroke-width:1px;stroke-linecap:butt;stroke-linejoin:miter;stroke-opacity:1" d="M 235.343,337.134 216.836,342.687 z" id="boundary" inkscape:connector-curvature="0" />
	<path style="fill:none;stroke:red;stroke-width:1px;stroke-linecap:butt;stroke-linejoin:miter;stroke-opacity:1" d="M 235.343,337.134 253.851,337.134 z" id="boundary" inkscape:connector-curvature="0" />
	<path style="fill:none;stroke:red;stroke-width:1px;stroke-linecap:butt;stroke-linejoin:miter;stroke-opacity:1" d="M 216.836,403.761 198.328,407.463 z" id="boundary" inkscape:connector-curvature="0" />
	<path style="fill:none;stroke:red;stroke-width:1px;stroke-linecap:butt;stroke-linejoin:miter;stroke-opacity:1" d="M 216.836,403.761 235.343,403.761 z" id="boundary" inkscape:connector-curvature="0" />
	<path style="fill:none;stroke:red;stroke-width:1px;stroke-linecap:butt;stroke-linejoin:miter;stroke-opacity:1" d="M 235.343,403.761 253.851,403.761 z" id="boundary" inkscape:connector-curvature="0" />
	<path style="fill:none;stroke:red;stroke-width:1px;stroke-linecap:butt;stroke-linejoin:miter;stroke-opacity:1" d="M 133.552,457.433 152.06,457.433 z" id="boundary" inkscape:connector-curvature="0" />
	<path style="fill:none;stroke:red;stroke-width:1px;stroke-linecap:butt;stroke-linejoin:miter;stroke-opacity:1" d="M 189.075,457.433 170.567,457.433 z" id="boundary" inkscape:connector-curvature="0" />
	<path style="fill:none;stroke:red;stroke-width:1px;stroke-linecap:butt;stroke-linejoin:miter;stroke-opacity:1" d="M 170.567,457.433 152.06,457.433 z" id="boundary" inkscape:connector-curvature="0" />
	<path style="fill:none;stroke:red;stroke-width:1px;stroke-linecap:butt;stroke-linejoin:miter;stroke-opacity:1" d="M 163.164,514.806 144.657,514.806 z" id="boundary" inkscape:connector-curvature="0" />
	<path style="fill:none;stroke:red;stroke-width:1px;stroke-linecap:butt;stroke-linejoin:miter;stroke-opacity:1" d="M 181.672,514.806 163.164,514.806 z" id="boundary" inkscape:connector-curvature="0" />
	<path style="fill:none;stroke:red;stroke-width:1px;stroke-linecap:butt;stroke-linejoin:miter;stroke-opacity:1" d="M 181.672,514.806 200.179,514.806 z" id="boundary" inkscape:connector-curvature="0" />
	<path style="fill:none;stroke:red;stroke-width:1px;stroke-linecap:butt;stroke-linejoin:miter;stroke-opacity:1" d="M 205.731,448.179 189.075,457.433 z" id="boundary" inkscape:connector-curvature="0" />
	<path style="fill:none;stroke:red;stroke-width:1px;stroke-linecap:butt;stroke-linejoin:miter;stroke-opacity:1" d="M 205.731,448.179 224.239,448.179 z" id="boundary" inkscape:connector-curvature="0" />
	<path style="fill:none;stroke:red;stroke-width:1px;stroke-linecap:butt;stroke-linejoin:miter;stroke-opacity:1" d="M 242.746,448.179 261.254,448.179 z" id="boundary" inkscape:connector-curvature="0" />
	<path style="fill:none;stroke:red;stroke-width:1px;stroke-linecap:butt;stroke-linejoin:miter;stroke-opacity:1" d="M 242.746,448.179 224.239,448.179 z" id="boundary" inkscape:connector-curvature="0" />
	<path style="fill:none;stroke:red;stroke-width:1px;stroke-linecap:butt;stroke-linejoin:miter;stroke-opacity:1" d="M 253.851,505.552 235.343,505.552 z" id="boundary" inkscape:connector-curvature="0" />
	<path style="fill:none;stroke:red;stroke-width:1px;stroke-linecap:butt;stroke-linejoin:miter;stroke-opacity:1" d="M 218.687,514.806 200.179,514.806 z" id="boundary" inkscape:connector-curvature="0" />
	<path style="fill:none;stroke:red;stroke-width:1px;stroke-linecap:butt;stroke-linejoin:miter;stroke-opacity:1" d="M 218.687,514.806 235.343,505.552 z" id="boundary" inkscape:connector-curvature="0" />
	<path style="fill:none;stroke:red;stroke-width:1px;stroke-linecap:butt;stroke-linejoin:miter;stroke-opacity:1" d="M 253.851,190.925 253.851,209.433 z" id="boundary" inkscape:connector-curvature="0" />
	<path style="fill:none;stroke:red;stroke-width:1px;stroke-linecap:butt;stroke-linejoin:miter;stroke-opacity:1" d="M 259.403,124.299 277.91,124.299 z" id="boundary" inkscape:connector-curvature="0" />
	<path style="fill:none;stroke:red;stroke-width:1px;stroke-linecap:butt;stroke-linejoin:miter;stroke-opacity:1" d="M 296.418,124.299 277.91,124.299 z" id="boundary" inkscape:connector-curvature="0" />
	<path style="fill:none;stroke:red;stroke-width:1px;stroke-linecap:butt;stroke-linejoin:miter;stroke-opacity:1" d="M 296.418,124.299 314.925,124.299 z" id="boundary" inkscape:connector-curvature="0" />
	<path style="fill:none;stroke:red;stroke-width:1px;stroke-linecap:butt;stroke-linejoin:miter;stroke-opacity:1" d="M 333.433,124.299 351.94,124.299 z" id="boundary" inkscape:connector-curvature="0" />
	<path style="fill:none;stroke:red;stroke-width:1px;stroke-linecap:butt;stroke-linejoin:miter;stroke-opacity:1" d="M 314.925,124.299 333.433,124.299 z" id="boundary" inkscape:connector-curvature="0" />
	<path style="fill:none;stroke:red;stroke-width:1px;stroke-linecap:butt;stroke-linejoin:miter;stroke-opacity:1" d="M 370.448,124.299 376,142.806 z" id="boundary" inkscape:connector-curvature="0" />
	<path style="fill:none;stroke:red;stroke-width:1px;stroke-linecap:butt;stroke-linejoin:miter;stroke-opacity:1" d="M 351.94,124.299 370.448,124.299 z" id="boundary" inkscape:connector-curvature="0" />
	<path style="fill:none;stroke:red;stroke-width:1px;stroke-linecap:butt;stroke-linejoin:miter;stroke-opacity:1" d="M 376,142.806 376,161.313 z" id="boundary" inkscape:connector-curvature="0" />
	<path style="fill:none;stroke:red;stroke-width:1px;stroke-linecap:butt;stroke-linejoin:miter;stroke-opacity:1" d="M 376,161.313 385.254,177.97 z" id="boundary" inkscape:connector-curvature="0" />
	<path style="fill:none;stroke:red;stroke-width:1px;stroke-linecap:butt;stroke-linejoin:miter;stroke-opacity:1" d="M 385.254,177.97 385.254,196.478 z" id="boundary" inkscape:connector-curvature="0" />
	<path style="fill:none;stroke:red;stroke-width:1px;stroke-linecap:butt;stroke-linejoin:miter;stroke-opacity:1" d="M 385.254,233.493 385.254,214.985 z" id="boundary" inkscape:connector-curvature="0" />
	<path style="fill:none;stroke:red;stroke-width:1px;stroke-linecap:butt;stroke-linejoin:miter;stroke-opacity:1" d="M 385.254,233.493 385.254,252 z" id="boundary" inkscape:connector-curvature="0" />
	<path style="fill:none;stroke:red;stroke-width:1px;stroke-linecap:butt;stroke-linejoin:miter;stroke-opacity:1" d="M 385.254,214.985 385.254,196.478 z" id="boundary" inkscape:connector-curvature="0" />
	<path style="fill:none;stroke:red;stroke-width:1px;stroke-linecap:butt;stroke-linejoin:miter;stroke-opacity:1" d="M 686.925,189.075 672.119,202.03 z" id="boundary" inkscape:connector-curvature="0" />
	<path style="fill:none;stroke:red;stroke-width:1px;stroke-linecap:butt;stroke-linejoin:miter;stroke-opacity:1" d="M 686.925,189.075 699.881,174.269 z" id="boundary" inkscape:connector-curvature="0" />
	<path style="fill:none;stroke:red;stroke-width:1px;stroke-linecap:butt;stroke-linejoin:miter;stroke-opacity:1" d="M 672.119,202.03 653.612,211.284 z" id="boundary" inkscape:connector-curvature="0" />
	<path style="fill:none;stroke:red;stroke-width:1px;stroke-linecap:butt;stroke-linejoin:miter;stroke-opacity:1" d="M 638.806,226.09 620.299,235.343 z" id="boundary" inkscape:connector-curvature="0" />
	<path style="fill:none;stroke:red;stroke-width:1px;stroke-linecap:butt;stroke-linejoin:miter;stroke-opacity:1" d="M 653.612,211.284 638.806,226.09 z" id="boundary" inkscape:connector-curvature="0" />
	<path style="fill:none;stroke:red;stroke-width:1px;stroke-linecap:butt;stroke-linejoin:miter;stroke-opacity:1" d="M 620.299,235.343 601.791,235.343 z" id="boundary" inkscape:connector-curvature="0" />
	<path style="fill:none;stroke:red;stroke-width:1px;stroke-linecap:butt;stroke-linejoin:miter;stroke-opacity:1" d="M 601.791,235.343 583.284,244.597 z" id="boundary" inkscape:connector-curvature="0" />
	<path style="fill:none;stroke:red;stroke-width:1px;stroke-linecap:butt;stroke-linejoin:miter;stroke-opacity:1" d="M 714.687,161.313 699.881,174.269 z" id="boundary" inkscape:connector-curvature="0" />
	<path style="fill:none;stroke:red;stroke-width:1px;stroke-linecap:butt;stroke-linejoin:miter;stroke-opacity:1" d="M 853.493,50.2687 838.687,63.2239 z" id="boundary" inkscape:connector-curvature="0" />
	<path style="fill:none;stroke:red;stroke-width:1px;stroke-linecap:butt;stroke-linejoin:miter;stroke-opacity:1" d="M 838.687,63.2239 823.881,78.0299 z" id="boundary" inkscape:connector-curvature="0" />
	<path style="fill:none;stroke:red;stroke-width:1px;stroke-linecap:butt;stroke-linejoin:miter;stroke-opacity:1" d="M 870.149,41.0149 884.955,26.209 z" id="boundary" inkscape:connector-curvature="0" />
	<path style="fill:none;stroke:red;stroke-width:1px;stroke-linecap:butt;stroke-linejoin:miter;stroke-opacity:1" d="M 853.493,50.2687 870.149,41.0149 z" id="boundary" inkscape:connector-curvature="0" />
	<path style="fill:none;stroke:red;stroke-width:1px;stroke-linecap:butt;stroke-linejoin:miter;stroke-opacity:1" d="M 884.955,26.209 899.761,13.2537 z" id="boundary" inkscape:connector-curvature="0" />
	<path style="fill:none;stroke:red;stroke-width:1px;stroke-linecap:butt;stroke-linejoin:miter;stroke-opacity:1" d="M 916.418,4 899.761,13.2537 z" id="boundary" inkscape:connector-curvature="0" />
	<path style="fill:none;stroke:red;stroke-width:1px;stroke-linecap:butt;stroke-linejoin:miter;stroke-opacity:1" d="M 807.224,87.2836 823.881,78.0299 z" id="boundary" inkscape:connector-curvature="0" />
	<path style="fill:none;stroke:red;stroke-width:1px;stroke-linecap:butt;stroke-linejoin:miter;stroke-opacity:1" d="M 792.418,100.239 807.224,87.2836 z" id="boundary" inkscape:connector-curvature="0" />
	<path style="fill:none;stroke:red;stroke-width:1px;stroke-linecap:butt;stroke-linejoin:miter;stroke-opacity:1" d="M 792.418,100.239 777.612,115.045 z" id="boundary" inkscape:connector-curvature="0" />
	<path style="fill:none;stroke:red;stroke-width:1px;stroke-linecap:butt;stroke-linejoin:miter;stroke-opacity:1" d="M 947.881,18.806 934.925,4 z" id="boundary" inkscape:connector-curvature="0" />
	<path style="fill:none;stroke:red;stroke-width:1px;stroke-linecap:butt;stroke-linejoin:miter;stroke-opacity:1" d="M 934.925,4 916.418,4 z" id="boundary" inkscape:connector-curvature="0" />
	<path style="fill:none;stroke:red;stroke-width:1px;stroke-linecap:butt;stroke-linejoin:miter;stroke-opacity:1" d="M 947.881,18.806 957.134,35.4627 z" id="boundary" inkscape:connector-curvature="0" />
	<path style="fill:none;stroke:red;stroke-width:1px;stroke-linecap:butt;stroke-linejoin:miter;stroke-opacity:1" d="M 968.239,50.2687 957.134,35.4627 z" id="boundary" inkscape:connector-curvature="0" />
	<path style="fill:none;stroke:red;stroke-width:1px;stroke-linecap:butt;stroke-linejoin:miter;stroke-opacity:1" d="M 968.239,50.2687 977.493,66.9254 z" id="boundary" inkscape:connector-curvature="0" />
	<path style="fill:none;stroke:red;stroke-width:1px;stroke-linecap:butt;stroke-linejoin:miter;stroke-opacity:1" d="M 986.746,83.5821 977.493,66.9254 z" id="boundary" inkscape:connector-curvature="0" />
	<path style="fill:none;stroke:red;stroke-width:1px;stroke-linecap:butt;stroke-linejoin:miter;stroke-opacity:1" d="M 996,100.239 977.493,107.642 z" id="boundary" inkscape:connector-curvature="0" />
	<path style="fill:none;stroke:red;stroke-width:1px;stroke-linecap:butt;stroke-linejoin:miter;stroke-opacity:1" d="M 986.746,83.5821 996,100.239 z" id="boundary" inkscape:connector-curvature="0" />
	<path style="fill:none;stroke:red;stroke-width:1px;stroke-linecap:butt;stroke-linejoin:miter;stroke-opacity:1" d="M 977.493,107.642 962.687,124.299 z" id="boundary" inkscape:connector-curvature="0" />
	<path style="fill:none;stroke:red;stroke-width:1px;stroke-linecap:butt;stroke-linejoin:miter;stroke-opacity:1" d="M 731.343,152.06 746.149,137.254 z" id="boundary" inkscape:connector-curvature="0" />
	<path style="fill:none;stroke:red;stroke-width:1px;stroke-linecap:butt;stroke-linejoin:miter;stroke-opacity:1" d="M 714.687,161.313 731.343,152.06 z" id="boundary" inkscape:connector-curvature="0" />
	<path style="fill:none;stroke:red;stroke-width:1px;stroke-linecap:butt;stroke-linejoin:miter;stroke-opacity:1" d="M 746.149,137.254 760.955,124.299 z" id="boundary" inkscape:connector-curvature="0" />
	<path style="fill:none;stroke:red;stroke-width:1px;stroke-linecap:butt;stroke-linejoin:miter;stroke-opacity:1" d="M 760.955,124.299 777.612,115.045 z" id="boundary" inkscape:connector-curvature="0" />
	<path style="fill:none;stroke:red;stroke-width:1px;stroke-linecap:butt;stroke-linejoin:miter;stroke-opacity:1" d="M 947.881,135.403 931.224,144.657 z" id="boundary" inkscape:connector-curvature="0" />
	<path style="fill:none;stroke:red;stroke-width:1px;stroke-linecap:butt;stroke-linejoin:miter;stroke-opacity:1" d="M 962.687,124.299 947.881,135.403 z" id="boundary" inkscape:connector-curvature="0" />
	<path style="fill:none;stroke:red;stroke-width:1px;stroke-linecap:butt;stroke-linejoin:miter;stroke-opacity:1" d="M 931.224,144.657 918.269,159.463 z" id="boundary" inkscape:connector-curvature="0" />
	<path style="fill:none;stroke:red;stroke-width:1px;stroke-linecap:butt;stroke-linejoin:miter;stroke-opacity:1" d="M 872,196.478 853.493,205.731 z" id="boundary" inkscape:connector-curvature="0" />
	<path style="fill:none;stroke:red;stroke-width:1px;stroke-linecap:butt;stroke-linejoin:miter;stroke-opacity:1" d="M 884.955,181.672 872,196.478 z" id="boundary" inkscape:connector-curvature="0" />
	<path style="fill:none;stroke:red;stroke-width:1px;stroke-linecap:butt;stroke-linejoin:miter;stroke-opacity:1" d="M 838.687,218.687 820.179,227.94 z" id="boundary" inkscape:connector-curvature="0" />
	<path style="fill:none;stroke:red;stroke-width:1px;stroke-linecap:butt;stroke-linejoin:miter;stroke-opacity:1" d="M 853.493,205.731 838.687,218.687 z" id="boundary" inkscape:connector-curvature="0" />
	<path style="fill:none;stroke:red;stroke-width:1px;stroke-linecap:butt;stroke-linejoin:miter;stroke-opacity:1" d="M 899.761,168.716 918.269,159.463 z" id="boundary" inkscape:connector-curvature="0" />
	<path style="fill:none;stroke:red;stroke-width:1px;stroke-linecap:butt;stroke-linejoin:miter;stroke-opacity:1" d="M 899.761,168.716 884.955,181.672 z" id="boundary" inkscape:connector-curvature="0" />
	<path style="fill:none;stroke:red;stroke-width:1px;stroke-linecap:butt;stroke-linejoin:miter;stroke-opacity:1" d="M 820.179,227.94 805.373,244.597 z" id="boundary" inkscape:connector-curvature="0" />
	<path style="fill:none;stroke:red;stroke-width:1px;stroke-linecap:butt;stroke-linejoin:miter;stroke-opacity:1" d="M 385.254,252 400.06,263.104 z" id="boundary" inkscape:connector-curvature="0" />
	<path style="fill:none;stroke:red;stroke-width:1px;stroke-linecap:butt;stroke-linejoin:miter;stroke-opacity:1" d="M 435.224,253.851 418.567,263.104 z" id="boundary" inkscape:connector-curvature="0" />
	<path style="fill:none;stroke:red;stroke-width:1px;stroke-linecap:butt;stroke-linejoin:miter;stroke-opacity:1" d="M 253.851,337.134 253.851,311.224 z" id="boundary" inkscape:connector-curvature="0" />
	<path style="fill:none;stroke:red;stroke-width:1px;stroke-linecap:butt;stroke-linejoin:miter;stroke-opacity:1" d="M 253.851,403.761 272.358,403.761 z" id="boundary" inkscape:connector-curvature="0" />
	<path style="fill:none;stroke:red;stroke-width:1px;stroke-linecap:butt;stroke-linejoin:miter;stroke-opacity:1" d="M 272.358,403.761 272.358,422.269 z" id="boundary" inkscape:connector-curvature="0" />
	<path style="fill:none;stroke:red;stroke-width:1px;stroke-linecap:butt;stroke-linejoin:miter;stroke-opacity:1" d="M 403.761,376 403.761,394.507 z" id="boundary" inkscape:connector-curvature="0" />
	<path style="fill:none;stroke:red;stroke-width:1px;stroke-linecap:butt;stroke-linejoin:miter;stroke-opacity:1" d="M 418.567,263.104 400.06,263.104 z" id="boundary" inkscape:connector-curvature="0" />
	<path style="fill:none;stroke:red;stroke-width:1px;stroke-linecap:butt;stroke-linejoin:miter;stroke-opacity:1" d="M 435.224,253.851 453.731,253.851 z" id="boundary" inkscape:connector-curvature="0" />
	<path style="fill:none;stroke:red;stroke-width:1px;stroke-linecap:butt;stroke-linejoin:miter;stroke-opacity:1" d="M 472.239,253.851 453.731,253.851 z" id="boundary" inkscape:connector-curvature="0" />
	<path style="fill:none;stroke:red;stroke-width:1px;stroke-linecap:butt;stroke-linejoin:miter;stroke-opacity:1" d="M 422.269,376 403.761,376 z" id="boundary" inkscape:connector-curvature="0" />
	<path style="fill:none;stroke:red;stroke-width:1px;stroke-linecap:butt;stroke-linejoin:miter;stroke-opacity:1" d="M 422.269,376 440.776,376 z" id="boundary" inkscape:connector-curvature="0" />
	<path style="fill:none;stroke:red;stroke-width:1px;stroke-linecap:butt;stroke-linejoin:miter;stroke-opacity:1" d="M 440.776,376 459.284,376 z" id="boundary" inkscape:connector-curvature="0" />
	<path style="fill:none;stroke:red;stroke-width:1px;stroke-linecap:butt;stroke-linejoin:miter;stroke-opacity:1" d="M 459.284,376 477.791,376 z" id="boundary" inkscape:connector-curvature="0" />
	<path style="fill:none;stroke:red;stroke-width:1px;stroke-linecap:butt;stroke-linejoin:miter;stroke-opacity:1" d="M 403.761,394.507 403.761,413.015 z" id="boundary" inkscape:connector-curvature="0" />
	<path style="fill:none;stroke:red;stroke-width:1px;stroke-linecap:butt;stroke-linejoin:miter;stroke-opacity:1" d="M 261.254,448.179 272.358,422.269 z" id="boundary" inkscape:connector-curvature="0" />
	<path style="fill:none;stroke:red;stroke-width:1px;stroke-linecap:butt;stroke-linejoin:miter;stroke-opacity:1" d="M 272.358,505.552 253.851,505.552 z" id="boundary" inkscape:connector-curvature="0" />
	<path style="fill:none;stroke:red;stroke-width:1px;stroke-linecap:butt;stroke-linejoin:miter;stroke-opacity:1" d="M 272.358,505.552 290.866,505.552 z" id="boundary" inkscape:connector-curvature="0" />
	<path style="fill:none;stroke:red;stroke-width:1px;stroke-linecap:butt;stroke-linejoin:miter;stroke-opacity:1" d="M 309.373,505.552 290.866,505.552 z" id="boundary" inkscape:connector-curvature="0" />
	<path style="fill:none;stroke:red;stroke-width:1px;stroke-linecap:butt;stroke-linejoin:miter;stroke-opacity:1" d="M 309.373,505.552 327.881,500 z" id="boundary" inkscape:connector-curvature="0" />
	<path style="fill:none;stroke:red;stroke-width:1px;stroke-linecap:butt;stroke-linejoin:miter;stroke-opacity:1" d="M 327.881,500 346.388,496.299 z" id="boundary" inkscape:connector-curvature="0" />
	<path style="fill:none;stroke:red;stroke-width:1px;stroke-linecap:butt;stroke-linejoin:miter;stroke-opacity:1" d="M 403.761,413.015 407.463,431.522 z" id="boundary" inkscape:connector-curvature="0" />
	<path style="fill:none;stroke:red;stroke-width:1px;stroke-linecap:butt;stroke-linejoin:miter;stroke-opacity:1" d="M 413.015,468.537 413.015,450.03 z" id="boundary" inkscape:connector-curvature="0" />
	<path style="fill:none;stroke:red;stroke-width:1px;stroke-linecap:butt;stroke-linejoin:miter;stroke-opacity:1" d="M 413.015,450.03 407.463,431.522 z" id="boundary" inkscape:connector-curvature="0" />
	<path style="fill:none;stroke:red;stroke-width:1px;stroke-linecap:butt;stroke-linejoin:miter;stroke-opacity:1" d="M 364.896,496.299 346.388,496.299 z" id="boundary" inkscape:connector-curvature="0" />
	<path style="fill:none;stroke:red;stroke-width:1px;stroke-linecap:butt;stroke-linejoin:miter;stroke-opacity:1" d="M 364.896,496.299 383.403,496.299 z" id="boundary" inkscape:connector-curvature="0" />
	<path style="fill:none;stroke:red;stroke-width:1px;stroke-linecap:butt;stroke-linejoin:miter;stroke-opacity:1" d="M 413.015,468.537 400.06,487.045 z" id="boundary" inkscape:connector-curvature="0" />
	<path style="fill:none;stroke:red;stroke-width:1px;stroke-linecap:butt;stroke-linejoin:miter;stroke-opacity:1" d="M 383.403,496.299 400.06,487.045 z" id="boundary" inkscape:connector-curvature="0" />
	<path style="fill:none;stroke:red;stroke-width:1px;stroke-linecap:butt;stroke-linejoin:miter;stroke-opacity:1" d="M 477.791,376 496.299,376 z" id="boundary" inkscape:connector-curvature="0" />
	<path style="fill:none;stroke:red;stroke-width:1px;stroke-linecap:butt;stroke-linejoin:miter;stroke-opacity:1" d="M 509.254,253.851 490.746,253.851 z" id="boundary" inkscape:connector-curvature="0" />
	<path style="fill:none;stroke:red;stroke-width:1px;stroke-linecap:butt;stroke-linejoin:miter;stroke-opacity:1" d="M 490.746,253.851 472.239,253.851 z" id="boundary" inkscape:connector-curvature="0" />
	<path style="fill:none;stroke:red;stroke-width:1px;stroke-linecap:butt;stroke-linejoin:miter;stroke-opacity:1" d="M 509.254,253.851 527.761,244.597 z" id="boundary" inkscape:connector-curvature="0" />
	<path style="fill:none;stroke:red;stroke-width:1px;stroke-linecap:butt;stroke-linejoin:miter;stroke-opacity:1" d="M 527.761,244.597 546.269,244.597 z" id="boundary" inkscape:connector-curvature="0" />
	<path style="fill:none;stroke:red;stroke-width:1px;stroke-linecap:butt;stroke-linejoin:miter;stroke-opacity:1" d="M 564.776,244.597 546.269,244.597 z" id="boundary" inkscape:connector-curvature="0" />
	<path style="fill:none;stroke:red;stroke-width:1px;stroke-linecap:butt;stroke-linejoin:miter;stroke-opacity:1" d="M 564.776,244.597 583.284,244.597 z" id="boundary" inkscape:connector-curvature="0" />
	<path style="fill:none;stroke:red;stroke-width:1px;stroke-linecap:butt;stroke-linejoin:miter;stroke-opacity:1" d="M 790.567,255.701 805.373,244.597 z" id="boundary" inkscape:connector-curvature="0" />
	<path style="fill:none;stroke:red;stroke-width:1px;stroke-linecap:butt;stroke-linejoin:miter;stroke-opacity:1" d="M 773.91,264.955 760.955,279.761 z" id="boundary" inkscape:connector-curvature="0" />
	<path style="fill:none;stroke:red;stroke-width:1px;stroke-linecap:butt;stroke-linejoin:miter;stroke-opacity:1" d="M 773.91,264.955 790.567,255.701 z" id="boundary" inkscape:connector-curvature="0" />
	<path style="fill:none;stroke:red;stroke-width:1px;stroke-linecap:butt;stroke-linejoin:miter;stroke-opacity:1" d="M 760.955,279.761 742.448,289.015 z" id="boundary" inkscape:connector-curvature="0" />
	<path style="fill:none;stroke:red;stroke-width:1px;stroke-linecap:butt;stroke-linejoin:miter;stroke-opacity:1" d="M 727.642,301.97 742.448,289.015 z" id="boundary" inkscape:connector-curvature="0" />
	<path style="fill:none;stroke:red;stroke-width:1px;stroke-linecap:butt;stroke-linejoin:miter;stroke-opacity:1" d="M 727.642,301.97 709.134,311.224 z" id="boundary" inkscape:connector-curvature="0" />
	<path style="fill:none;stroke:red;stroke-width:1px;stroke-linecap:butt;stroke-linejoin:miter;stroke-opacity:1" d="M 709.134,311.224 694.328,327.881 z" id="boundary" inkscape:connector-curvature="0" />
	<path style="fill:none;stroke:red;stroke-width:1px;stroke-linecap:butt;stroke-linejoin:miter;stroke-opacity:1" d="M 514.806,366.746 496.299,376 z" id="boundary" inkscape:connector-curvature="0" />
	<path style="fill:none;stroke:red;stroke-width:1px;stroke-linecap:butt;stroke-linejoin:miter;stroke-opacity:1" d="M 588.836,366.746 570.328,366.746 z" id="boundary" inkscape:connector-curvature="0" />
	<path style="fill:none;stroke:red;stroke-width:1px;stroke-linecap:butt;stroke-linejoin:miter;stroke-opacity:1" d="M 533.313,366.746 551.821,366.746 z" id="boundary" inkscape:connector-curvature="0" />
	<path style="fill:none;stroke:red;stroke-width:1px;stroke-linecap:butt;stroke-linejoin:miter;stroke-opacity:1" d="M 570.328,366.746 551.821,366.746 z" id="boundary" inkscape:connector-curvature="0" />
	<path style="fill:none;stroke:red;stroke-width:1px;stroke-linecap:butt;stroke-linejoin:miter;stroke-opacity:1" d="M 607.343,357.493 588.836,366.746 z" id="boundary" inkscape:connector-curvature="0" />
	<path style="fill:none;stroke:red;stroke-width:1px;stroke-linecap:butt;stroke-linejoin:miter;stroke-opacity:1" d="M 533.313,366.746 514.806,366.746 z" id="boundary" inkscape:connector-curvature="0" />
	<path style="fill:none;stroke:red;stroke-width:1px;stroke-linecap:butt;stroke-linejoin:miter;stroke-opacity:1" d="M 607.343,357.493 625.851,357.493 z" id="boundary" inkscape:connector-curvature="0" />
	<path style="fill:none;stroke:red;stroke-width:1px;stroke-linecap:butt;stroke-linejoin:miter;stroke-opacity:1" d="M 661.015,348.239 644.358,357.493 z" id="boundary" inkscape:connector-curvature="0" />
	<path style="fill:none;stroke:red;stroke-width:1px;stroke-linecap:butt;stroke-linejoin:miter;stroke-opacity:1" d="M 675.821,337.134 661.015,348.239 z" id="boundary" inkscape:connector-curvature="0" />
	<path style="fill:none;stroke:red;stroke-width:1px;stroke-linecap:butt;stroke-linejoin:miter;stroke-opacity:1" d="M 644.358,357.493 625.851,357.493 z" id="boundary" inkscape:connector-curvature="0" />
	<path style="fill:none;stroke:red;stroke-width:1px;stroke-linecap:butt;stroke-linejoin:miter;stroke-opacity:1" d="M 675.821,337.134 694.328,327.881 z" id="boundary" inkscape:connector-curvature="0" />
	<circle cx="4" cy="157.612" r="4" fill="#0" id="circle0"/>
	<circle cx="4" cy="176.119" r="4" fill="#0" id="circle1"/>
	<circle cx="13.2537" cy="192.776" r="4" fill="#0" id="circle2"/>
	<circle cx="22.5075" cy="152.06" r="4" fill="#0" id="circle3"/>
	<circle cx="22.5075" cy="259.403" r="4" fill="#0" id="circle4"/>
	<circle cx="22.5075" cy="277.91" r="4" fill="#0" id="circle5"/>
	<circle cx="22.5075" cy="296.418" r="4" fill="#0" id="circle6"/>
	<circle cx="31.7612" cy="200.179" r="4" fill="#0" id="circle7"/>
	<circle cx="31.7612" cy="370.448" r="4" fill="#0" id="circle8"/>
	<circle cx="31.7612" cy="388.955" r="4" fill="#0" id="circle9"/>
	<circle cx="31.7612" cy="407.463" r="4" fill="#0" id="circle10"/>
	<circle cx="33.6119" cy="311.224" r="4" fill="#0" id="circle11"/>
	<circle cx="41.0149" cy="152.06" r="4" fill="#0" id="circle12"/>
	<circle cx="41.0149" cy="253.851" r="4" fill="#0" id="circle13"/>
	<circle cx="41.0149" cy="472.239" r="4" fill="#0" id="circle14"/>
	<circle cx="41.0149" cy="490.746" r="4" fill="#0" id="circle15"/>
	<circle cx="41.0149" cy="509.254" r="4" fill="#0" id="circle16"/>
	<circle cx="50.2687" cy="200.179" r="4" fill="#0" id="circle17"/>
	<circle cx="50.2687" cy="361.194" r="4" fill="#0" id="circle18"/>
	<circle cx="50.2687" cy="413.015" r="4" fill="#0" id="circle19"/>
	<circle cx="52.1194" cy="311.224" r="4" fill="#0" id="circle20"/>
	<circle cx="52.1194" cy="524.06" r="4" fill="#0" id="circle21"/>
	<circle cx="59.5224" cy="148.358" r="4" fill="#0" id="circle22"/>
	<circle cx="59.5224" cy="253.851" r="4" fill="#0" id="circle23"/>
	<circle cx="59.5224" cy="466.687" r="4" fill="#0" id="circle24"/>
	<circle cx="68.7761" cy="200.179" r="4" fill="#0" id="circle25"/>
	<circle cx="68.7761" cy="355.642" r="4" fill="#0" id="circle26"/>
	<circle cx="68.7761" cy="413.015" r="4" fill="#0" id="circle27"/>
	<circle cx="70.6269" cy="301.97" r="4" fill="#0" id="circle28"/>
	<circle cx="70.6269" cy="524.06" r="4" fill="#0" id="circle29"/>
	<circle cx="78.0299" cy="142.806" r="4" fill="#0" id="circle30"/>
	<circle cx="78.0299" cy="253.851" r="4" fill="#0" id="circle31"/>
	<circle cx="78.0299" cy="466.687" r="4" fill="#0" id="circle32"/>
	<circle cx="87.2836" cy="200.179" r="4" fill="#0" id="circle33"/>
	<circle cx="87.2836" cy="355.642" r="4" fill="#0" id="circle34"/>
	<circle cx="87.2836" cy="413.015" r="4" fill="#0" id="circle35"/>
	<circle cx="89.1343" cy="301.97" r="4" fill="#0" id="circle36"/>
	<circle cx="89.1343" cy="524.06" r="4" fill="#0" id="circle37"/>
	<circle cx="96.5373" cy="142.806" r="4" fill="#0" id="circle38"/>
	<circle cx="96.5373" cy="253.851" r="4" fill="#0" id="circle39"/>
	<circle cx="96.5373" cy="462.985" r="4" fill="#0" id="circle40"/>
	<circle cx="105.791" cy="200.179" r="4" fill="#0" id="circle41"/>
	<circle cx="105.791" cy="355.642" r="4" fill="#0" id="circle42"/>
	<circle cx="105.791" cy="413.015" r="4" fill="#0" id="circle43"/>
	<circle cx="107.642" cy="301.97" r="4" fill="#0" id="circle44"/>
	<circle cx="107.642" cy="524.06" r="4" fill="#0" id="circle45"/>
	<circle cx="115.045" cy="142.806" r="4" fill="#0" id="circle46"/>
	<circle cx="115.045" cy="250.149" r="4" fill="#0" id="circle47"/>
	<circle cx="115.045" cy="457.433" r="4" fill="#0" id="circle48"/>
	<circle cx="124.299" cy="200.179" r="4" fill="#0" id="circle49"/>
	<circle cx="124.299" cy="351.94" r="4" fill="#0" id="circle50"/>
	<circle cx="124.299" cy="413.015" r="4" fill="#0" id="circle51"/>
	<circle cx="126.149" cy="301.97" r="4" fill="#0" id="circle52"/>
	<circle cx="126.149" cy="524.06" r="4" fill="#0" id="circle53"/>
	<circle cx="133.552" cy="142.806" r="4" fill="#0" id="circle54"/>
	<circle cx="133.552" cy="244.597" r="4" fill="#0" id="circle55"/>
	<circle cx="133.552" cy="457.433" r="4" fill="#0" id="circle56"/>
	<circle cx="142.806" cy="200.179" r="4" fill="#0" id="circle57"/>
	<circle cx="142.806" cy="346.388" r="4" fill="#0" id="circle58"/>
	<circle cx="142.806" cy="413.015" r="4" fill="#0" id="circle59"/>
	<circle cx="144.657" cy="301.97" r="4" fill="#0" id="circle60"/>
	<circle cx="144.657" cy="514.806" r="4" fill="#0" id="circle61"/>
	<circle cx="152.06" cy="142.806" r="4" fill="#0" id="circle62"/>
	<circle cx="152.06" cy="244.597" r="4" fill="#0" id="circle63"/>
	<circle cx="152.06" cy="457.433" r="4" fill="#0" id="circle64"/>
	<circle cx="161.313" cy="200.179" r="4" fill="#0" id="circle65"/>
	<circle cx="161.313" cy="346.388" r="4" fill="#0" id="circle66"/>
	<circle cx="161.313" cy="413.015" r="4" fill="#0" id="circle67"/>
	<circle cx="163.164" cy="301.97" r="4" fill="#0" id="circle68"/>
	<circle cx="163.164" cy="514.806" r="4" fill="#0" id="circle69"/>
	<circle cx="168.716" cy="133.552" r="4" fill="#0" id="circle70"/>
	<circle cx="170.567" cy="244.597" r="4" fill="#0" id="circle71"/>
	<circle cx="170.567" cy="457.433" r="4" fill="#0" id="circle72"/>
	<circle cx="179.821" cy="194.627" r="4" fill="#0" id="circle73"/>
	<circle cx="179.821" cy="346.388" r="4" fill="#0" id="circle74"/>
	<circle cx="179.821" cy="413.015" r="4" fill="#0" id="circle75"/>
	<circle cx="181.672" cy="301.97" r="4" fill="#0" id="circle76"/>
	<circle cx="181.672" cy="514.806" r="4" fill="#0" id="circle77"/>
	<circle cx="187.224" cy="133.552" r="4" fill="#0" id="circle78"/>
	<circle cx="189.075" cy="240.896" r="4" fill="#0" id="circle79"/>
	<circle cx="189.075" cy="457.433" r="4" fill="#0" id="circle80"/>
	<circle cx="198.328" cy="190.925" r="4" fill="#0" id="circle81"/>
	<circle cx="198.328" cy="346.388" r="4" fill="#0" id="circle82"/>
	<circle cx="198.328" cy="407.463" r="4" fill="#0" id="circle83"/>
	<circle cx="200.179" cy="301.97" r="4" fill="#0" id="circle84"/>
	<circle cx="200.179" cy="514.806" r="4" fill="#0" id="circle85"/>
	<circle cx="205.731" cy="133.552" r="4" fill="#0" id="circle86"/>
	<circle cx="205.731" cy="448.179" r="4" fill="#0" id="circle87"/>
	<circle cx="207.582" cy="235.343" r="4" fill="#0" id="circle88"/>
	<circle cx="216.836" cy="190.925" r="4" fill="#0" id="circle89"/>
	<circle cx="216.836" cy="342.687" r="4" fill="#0" id="circle90"/>
	<circle cx="216.836" cy="403.761" r="4" fill="#0" id="circle91"/>
	<circle cx="218.687" cy="301.97" r="4" fill="#0" id="circle92"/>
	<circle cx="218.687" cy="514.806" r="4" fill="#0" id="circle93"/>
	<circle cx="224.239" cy="133.552" r="4" fill="#0" id="circle94"/>
	<circle cx="224.239" cy="448.179" r="4" fill="#0" id="circle95"/>
	<circle cx="226.09" cy="235.343" r="4" fill="#0" id="circle96"/>
	<circle cx="235.343" cy="190.925" r="4" fill="#0" id="circle97"/>
	<circle cx="235.343" cy="337.134" r="4" fill="#0" id="circle98"/>
	<circle cx="235.343" cy="403.761" r="4" fill="#0" id="circle99"/>
	<circle cx="235.343" cy="505.552" r="4" fill="#0" id="circle100"/>
	<circle cx="237.194" cy="301.97" r="4" fill="#0" id="circle101"/>
	<circle cx="240.896" cy="124.299" r="4" fill="#0" id="circle102"/>
	<circle cx="242.746" cy="448.179" r="4" fill="#0" id="circle103"/>
	<circle cx="244.597" cy="235.343" r="4" fill="#0" id="circle104"/>
	<circle cx="253.851" cy="190.925" r="4" fill="#0" id="circle105"/>
	<circle cx="253.851" cy="209.433" r="4" fill="#0" id="circle106"/>
	<circle cx="253.851" cy="311.224" r="4" fill="#0" id="circle107"/>
	<circle cx="253.851" cy="337.134" r="4" fill="#0" id="circle108"/>
	<circle cx="253.851" cy="403.761" r="4" fill="#0" id="circle109"/>
	<circle cx="253.851" cy="505.552" r="4" fill="#0" id="circle110"/>
	<circle cx="259.403" cy="124.299" r="4" fill="#0" id="circle111"/>
	<circle cx="261.254" cy="448.179" r="4" fill="#0" id="circle112"/>
	<circle cx="272.358" cy="403.761" r="4" fill="#0" id="circle113"/>
	<circle cx="272.358" cy="422.269" r="4" fill="#0" id="circle114"/>
	<circle cx="272.358" cy="505.552" r="4" fill="#0" id="circle115"/>
	<circle cx="277.91" cy="124.299" r="4" fill="#0" id="circle116"/>
	<circle cx="290.866" cy="505.552" r="4" fill="#0" id="circle117"/>
	<circle cx="296.418" cy="124.299" r="4" fill="#0" id="circle118"/>
	<circle cx="309.373" cy="505.552" r="4" fill="#0" id="circle119"/>
	<circle cx="314.925" cy="124.299" r="4" fill="#0" id="circle120"/>
	<circle cx="327.881" cy="500" r="4" fill="#0" id="circle121"/>
	<circle cx="333.433" cy="124.299" r="4" fill="#0" id="circle122"/>
	<circle cx="346.388" cy="496.299" r="4" fill="#0" id="circle123"/>
	<circle cx="351.94" cy="124.299" r="4" fill="#0" id="circle124"/>
	<circle cx="364.896" cy="496.299" r="4" fill="#0" id="circle125"/>
	<circle cx="370.448" cy="124.299" r="4" fill="#0" id="circle126"/>
	<circle cx="376" cy="142.806" r="4" fill="#0" id="circle127"/>
	<circle cx="376" cy="161.313" r="4" fill="#0" id="circle128"/>
	<circle cx="383.403" cy="496.299" r="4" fill="#0" id="circle129"/>
	<circle cx="385.254" cy="177.97" r="4" fill="#0" id="circle130"/>
	<circle cx="385.254" cy="196.478" r="4" fill="#0" id="circle131"/>
	<circle cx="385.254" cy="214.985" r="4" fill="#0" id="circle132"/>
	<circle cx="385.254" cy="233.493" r="4" fill="#0" id="circle133"/>
	<circle cx="385.254" cy="252" r="4" fill="#0" id="circle134"/>
	<circle cx="400.06" cy="263.104" r="4" fill="#0" id="circle135"/>
	<circle cx="400.06" cy="487.045" r="4" fill="#0" id="circle136"/>
	<circle cx="403.761" cy="376" r="4" fill="#0" id="circle137"/>
	<circle cx="403.761" cy="394.507" r="4" fill="#0" id="circle138"/>
	<circle cx="403.761" cy="413.015" r="4" fill="#0" id="circle139"/>
	<circle cx="407.463" cy="431.522" r="4" fill="#0" id="circle140"/>
	<circle cx="413.015" cy="450.03" r="4" fill="#0" id="circle141"/>
	<circle cx="413.015" cy="468.537" r="4" fill="#0" id="circle142"/>
	<circle cx="418.567" cy="263.104" r="4" fill="#0" id="circle143"/>
	<circle cx="422.269" cy="376" r="4" fill="#0" id="circle144"/>
	<circle cx="435.224" cy="253.851" r="4" fill="#0" id="circle145"/>
	<circle cx="440.776" cy="376" r="4" fill="#0" id="circle146"/>
	<circle cx="453.731" cy="253.851" r="4" fill="#0" id="circle147"/>
	<circle cx="459.284" cy="376" r="4" fill="#0" id="circle148"/>
	<circle cx="472.239" cy="253.851" r="4" fill="#0" id="circle149"/>
	<circle cx="477.791" cy="376" r="4" fill="#0" id="circle150"/>
	<circle cx="490.746" cy="253.851" r="4" fill="#0" id="circle151"/>
	<circle cx="496.299" cy="376" r="4" fill="#0" id="circle152"/>
	<circle cx="509.254" cy="253.851" r="4" fill="#0" id="circle153"/>
	<circle cx="514.806" cy="366.746" r="4" fill="#0" id="circle154"/>
	<circle cx="527.761" cy="244.597" r="4" fill="#0" id="circle155"/>
	<circle cx="533.313" cy="366.746" r="4" fill="#0" id="circle156"/>
	<circle cx="546.269" cy="244.597" r="4" fill="#0" id="circle157"/>
	<circle cx="551.821" cy="366.746" r="4" fill="#0" id="circle158"/>
	<circle cx="564.776" cy="244.597" r="4" fill="#0" id="circle159"/>
	<circle cx="570.328" cy="366.746" r="4" fill="#0" id="circle160"/>
	<circle cx="583.284" cy="244.597" r="4" fill="#0" id="circle161"/>
	<circle cx="588.836" cy="366.746" r="4" fill="#0" id="circle162"/>
	<circle cx="601.791" cy="235.343" r="4" fill="#0" id="circle163"/>
	<circle cx="607.343" cy="357.493" r="4" fill="#0" id="circle164"/>
	<circle cx="620.299" cy="235.343" r="4" fill="#0" id="circle165"/>
	<circle cx="625.851" cy="357.493" r="4" fill="#0" id="circle166"/>
	<circle cx="638.806" cy="226.09" r="4" fill="#0" id="circle167"/>
	<circle cx="644.358" cy="357.493" r="4" fill="#0" id="circle168"/>
	<circle cx="653.612" cy="211.284" r="4" fill="#0" id="circle169"/>
	<circle cx="661.015" cy="348.239" r="4" fill="#0" id="circle170"/>
	<circle cx="672.119" cy="202.03" r="4" fill="#0" id="circle171"/>
	<circle cx="675.821" cy="337.134" r="4" fill="#0" id="circle172"/>
	<circle cx="686.925" cy="189.075" r="4" fill="#0" id="circle173"/>
	<circle cx="694.328" cy="327.881" r="4" fill="#0" id="circle174"/>
	<circle cx="699.881" cy="174.269" r="4" fill="#0" id="circle175"/>
	<circle cx="709.134" cy="311.224" r="4" fill="#0" id="circle176"/>
	<circle cx="714.687" cy="161.313" r="4" fill="#0" id="circle177"/>
	<circle cx="727.642" cy="301.97" r="4" fill="#0" id="circle178"/>
	<circle cx="731.343" cy="152.06" r="4" fill="#0" id="circle179"/>
	<circle cx="742.448" cy="289.015" r="4" fill="#0" id="circle180"/>
	<circle cx="746.149" cy="137.254" r="4" fill="#0" id="circle181"/>
	<circle cx="760.955" cy="124.299" r="4" fill="#0" id="circle182"/>
	<circle cx="760.955" cy="279.761" r="4" fill="#0" id="circle183"/>
	<circle cx="773.91" cy="264.955" r="4" fill="#0" id="circle184"/>
	<circle cx="777.612" cy="115.045" r="4" fill="#0" id="circle185"/>
	<circle cx="790.567" cy="255.701" r="4" fill="#0" id="circle186"/>
	<circle cx="792.418" cy="100.239" r="4" fill="#0" id="circle187"/>
	<circle cx="805.373" cy="244.597" r="4" fill="#0" id="circle188"/>
	<circle cx="807.224" cy="87.2836" r="4" fill="#0" id="circle189"/>
	<circle cx="820.179" cy="227.94" r="4" fill="#0" id="circle190"/>
	<circle cx="823.881" cy="78.0299" r="4" fill="#0" id="circle191"/>
	<circle cx="838.687" cy="63.2239" r="4" fill="#0" id="circle192"/>
	<circle cx="838.687" cy="218.687" r="4" fill="#0" id="circle193"/>
	<circle cx="853.493" cy="50.2687" r="4" fill="#0" id="circle194"/>
	<circle cx="853.493" cy="205.731" r="4" fill="#0" id="circle195"/>
	<circle cx="870.149" cy="41.0149" r="4" fill="#0" id="circle196"/>
	<circle cx="872" cy="196.478" r="4" fill="#0" id="circle197"/>
	<circle cx="884.955" cy="26.209" r="4" fill="#0" id="circle198"/>
	<circle cx="884.955" cy="181.672" r="4" fill="#0" id="circle199"/>
	<circle cx="899.761" cy="13.2537" r="4" fill="#0" id="circle200"/>
	<circle cx="899.761" cy="168.716" r="4" fill="#0" id="circle201"/>
	<circle cx="916.418" cy="4" r="4" fill="#0" id="circle202"/>
	<circle cx="918.269" cy="159.463" r="4" fill="#0" id="circle203"/>
	<circle cx="931.224" cy="144.657" r="4" fill="#0" id="circle204"/>
	<circle cx="934.925" cy="4" r="4" fill="#0" id="circle205"/>
	<circle cx="947.881" cy="18.806" r="4" fill="#0" id="circle206"/>
	<circle cx="947.881" cy="135.403" r="4" fill="#0" id="circle207"/>
	<circle cx="957.134" cy="35.4627" r="4" fill="#0" id="circle208"/>
	<circle cx="962.687" cy="124.299" r="4" fill="#0" id="circle209"/>
	<circle cx="968.239" cy="50.2687" r="4" fill="#0" id="circle210"/>
	<circle cx="977.493" cy="66.9254" r="4" fill="#0" id="circle211"/>
	<circle cx="977.493" cy="107.642" r="4" fill="#0" id="circle212"/>
	<circle cx="986.746" cy="83.5821" r="4" fill="#0" id="circle213"/>
	<circle cx="996" cy="100.239" r="4" fill="#0" id="circle214"/>
	</g>
</svg>