<?xml version="1.0" encoding="UTF-8" standalone="no"?>
<!-- Created with CurveBenchmark -->
<svg
	xmlns:dc="http://purl.org/dc/elements/1.1/"
	xmlns:cc="http://creativecommons.org/ns#"
	xmlns:rdf="http://www.w3.org/1999/02/22-rdf-syntax-ns#"
	xmlns:svg="http://www.w3.org/2000/svg"
	xmlns="http://www.w3.org/2000/svg"
	xmlns:sodipodi="http://sodipodi.sourceforge.net/DTD/sodipodi-0.dtd"
	xmlns:inkscape="http://www.inkscape.org/namespaces/inkscape"
	width="1000"
	height="1000"
	id="svg2"
	version="1.1"
	sodipodi:docname="manifold/crust-bird145.png.txt">
<defs
	id="defs4" />
<metadata
	id="metadata7">
	<rdf:RDF>
		<cc:Work
			rdf:about="">
			<dc:format>image/svg+xml</dc:format>
			<dc:type
				rdf:resource="http://purl.org/dc/dcmitype/StillImage" />
			<dc:title></dc:title>
		</cc:Work>
	</rdf:RDF>
</metadata>
<g
	inkscape:label="Layer 1"
	inkscape:groupmode="layer"
	id="layer1">
	<path style="fill:none;stroke:red;stroke-width:1px;stroke-linecap:butt;stroke-linejoin:miter;stroke-opacity:1" d="M 74.0235,136.267 50.6824,190.729 z" id="boundary" inkscape:connector-curvature="0" />
	<path style="fill:none;stroke:red;stroke-width:1px;stroke-linecap:butt;stroke-linejoin:miter;stroke-opacity:1" d="M 93.4745,101.255 74.0235,136.267 z" id="boundary" inkscape:connector-curvature="0" />
	<path style="fill:none;stroke:red;stroke-width:1px;stroke-linecap:butt;stroke-linejoin:miter;stroke-opacity:1" d="M 128.486,81.8039 167.388,74.0235 z" id="boundary" inkscape:connector-curvature="0" />
	<path style="fill:none;stroke:red;stroke-width:1px;stroke-linecap:butt;stroke-linejoin:miter;stroke-opacity:1" d="M 167.388,74.0235 206.29,74.0235 z" id="boundary" inkscape:connector-curvature="0" />
	<path style="fill:none;stroke:red;stroke-width:1px;stroke-linecap:butt;stroke-linejoin:miter;stroke-opacity:1" d="M 128.486,81.8039 93.4745,101.255 z" id="boundary" inkscape:connector-curvature="0" />
	<path style="fill:none;stroke:red;stroke-width:1px;stroke-linecap:butt;stroke-linejoin:miter;stroke-opacity:1" d="M 27.3412,229.631 50.6824,190.729 z" id="boundary" inkscape:connector-curvature="0" />
	<path style="fill:none;stroke:red;stroke-width:1px;stroke-linecap:butt;stroke-linejoin:miter;stroke-opacity:1" d="M 27.3412,229.631 4,260.753 z" id="boundary" inkscape:connector-curvature="0" />
	<path style="fill:none;stroke:red;stroke-width:1px;stroke-linecap:butt;stroke-linejoin:miter;stroke-opacity:1" d="M 93.4745,245.192 62.3529,276.314 z" id="boundary" inkscape:connector-curvature="0" />
	<path style="fill:none;stroke:red;stroke-width:1px;stroke-linecap:butt;stroke-linejoin:miter;stroke-opacity:1" d="M 23.451,295.765 4,260.753 z" id="boundary" inkscape:connector-curvature="0" />
	<path style="fill:none;stroke:red;stroke-width:1px;stroke-linecap:butt;stroke-linejoin:miter;stroke-opacity:1" d="M 62.3529,276.314 23.451,295.765 z" id="boundary" inkscape:connector-curvature="0" />
	<path style="fill:none;stroke:red;stroke-width:1px;stroke-linecap:butt;stroke-linejoin:miter;stroke-opacity:1" d="M 159.608,202.4 190.729,179.059 z" id="boundary" inkscape:connector-curvature="0" />
	<path style="fill:none;stroke:red;stroke-width:1px;stroke-linecap:butt;stroke-linejoin:miter;stroke-opacity:1" d="M 159.608,202.4 124.596,221.851 z" id="boundary" inkscape:connector-curvature="0" />
	<path style="fill:none;stroke:red;stroke-width:1px;stroke-linecap:butt;stroke-linejoin:miter;stroke-opacity:1" d="M 93.4745,245.192 124.596,221.851 z" id="boundary" inkscape:connector-curvature="0" />
	<path style="fill:none;stroke:red;stroke-width:1px;stroke-linecap:butt;stroke-linejoin:miter;stroke-opacity:1" d="M 241.302,93.4745 206.29,74.0235 z" id="boundary" inkscape:connector-curvature="0" />
	<path style="fill:none;stroke:red;stroke-width:1px;stroke-linecap:butt;stroke-linejoin:miter;stroke-opacity:1" d="M 241.302,93.4745 264.643,124.596 z" id="boundary" inkscape:connector-curvature="0" />
	<path style="fill:none;stroke:red;stroke-width:1px;stroke-linecap:butt;stroke-linejoin:miter;stroke-opacity:1" d="M 326.886,70.1333 358.008,42.902 z" id="boundary" inkscape:connector-curvature="0" />
	<path style="fill:none;stroke:red;stroke-width:1px;stroke-linecap:butt;stroke-linejoin:miter;stroke-opacity:1" d="M 358.008,42.902 396.91,23.451 z" id="boundary" inkscape:connector-curvature="0" />
	<path style="fill:none;stroke:red;stroke-width:1px;stroke-linecap:butt;stroke-linejoin:miter;stroke-opacity:1" d="M 474.714,4 435.812,11.7804 z" id="boundary" inkscape:connector-curvature="0" />
	<path style="fill:none;stroke:red;stroke-width:1px;stroke-linecap:butt;stroke-linejoin:miter;stroke-opacity:1" d="M 435.812,11.7804 396.91,23.451 z" id="boundary" inkscape:connector-curvature="0" />
	<path style="fill:none;stroke:red;stroke-width:1px;stroke-linecap:butt;stroke-linejoin:miter;stroke-opacity:1" d="M 326.886,70.1333 307.435,105.145 z" id="boundary" inkscape:connector-curvature="0" />
	<path style="fill:none;stroke:red;stroke-width:1px;stroke-linecap:butt;stroke-linejoin:miter;stroke-opacity:1" d="M 307.435,105.145 295.765,147.937 z" id="boundary" inkscape:connector-curvature="0" />
	<path style="fill:none;stroke:red;stroke-width:1px;stroke-linecap:butt;stroke-linejoin:miter;stroke-opacity:1" d="M 295.765,147.937 264.643,124.596 z" id="boundary" inkscape:connector-curvature="0" />
	<path style="fill:none;stroke:red;stroke-width:1px;stroke-linecap:butt;stroke-linejoin:miter;stroke-opacity:1" d="M 295.765,147.937 365.788,237.412 z" id="boundary" inkscape:connector-curvature="0" />
	<path style="fill:none;stroke:red;stroke-width:1px;stroke-linecap:butt;stroke-linejoin:miter;stroke-opacity:1" d="M 206.29,245.192 206.29,284.094 z" id="boundary" inkscape:connector-curvature="0" />
	<path style="fill:none;stroke:red;stroke-width:1px;stroke-linecap:butt;stroke-linejoin:miter;stroke-opacity:1" d="M 365.788,237.412 358.008,276.314 z" id="boundary" inkscape:connector-curvature="0" />
	<path style="fill:none;stroke:red;stroke-width:1px;stroke-linecap:butt;stroke-linejoin:miter;stroke-opacity:1" d="M 365.788,237.412 400.8,256.863 z" id="boundary" inkscape:connector-curvature="0" />
	<path style="fill:none;stroke:red;stroke-width:1px;stroke-linecap:butt;stroke-linejoin:miter;stroke-opacity:1" d="M 416.361,295.765 400.8,256.863 z" id="boundary" inkscape:connector-curvature="0" />
	<path style="fill:none;stroke:red;stroke-width:1px;stroke-linecap:butt;stroke-linejoin:miter;stroke-opacity:1" d="M 206.29,284.094 214.071,322.996 z" id="boundary" inkscape:connector-curvature="0" />
	<path style="fill:none;stroke:red;stroke-width:1px;stroke-linecap:butt;stroke-linejoin:miter;stroke-opacity:1" d="M 214.071,322.996 237.412,354.118 z" id="boundary" inkscape:connector-curvature="0" />
	<path style="fill:none;stroke:red;stroke-width:1px;stroke-linecap:butt;stroke-linejoin:miter;stroke-opacity:1" d="M 311.325,369.678 272.424,373.569 z" id="boundary" inkscape:connector-curvature="0" />
	<path style="fill:none;stroke:red;stroke-width:1px;stroke-linecap:butt;stroke-linejoin:miter;stroke-opacity:1" d="M 272.424,373.569 237.412,354.118 z" id="boundary" inkscape:connector-curvature="0" />
	<path style="fill:none;stroke:red;stroke-width:1px;stroke-linecap:butt;stroke-linejoin:miter;stroke-opacity:1" d="M 342.447,338.557 311.325,369.678 z" id="boundary" inkscape:connector-curvature="0" />
	<path style="fill:none;stroke:red;stroke-width:1px;stroke-linecap:butt;stroke-linejoin:miter;stroke-opacity:1" d="M 358.008,276.314 342.447,338.557 z" id="boundary" inkscape:connector-curvature="0" />
	<path style="fill:none;stroke:red;stroke-width:1px;stroke-linecap:butt;stroke-linejoin:miter;stroke-opacity:1" d="M 346.337,960.988 377.459,988.22 z" id="boundary" inkscape:connector-curvature="0" />
	<path style="fill:none;stroke:red;stroke-width:1px;stroke-linecap:butt;stroke-linejoin:miter;stroke-opacity:1" d="M 416.361,295.765 424.141,334.667 z" id="boundary" inkscape:connector-curvature="0" />
	<path style="fill:none;stroke:red;stroke-width:1px;stroke-linecap:butt;stroke-linejoin:miter;stroke-opacity:1" d="M 424.141,334.667 431.922,373.569 z" id="boundary" inkscape:connector-curvature="0" />
	<path style="fill:none;stroke:red;stroke-width:1px;stroke-linecap:butt;stroke-linejoin:miter;stroke-opacity:1" d="M 431.922,373.569 439.702,412.471 z" id="boundary" inkscape:connector-curvature="0" />
	<path style="fill:none;stroke:red;stroke-width:1px;stroke-linecap:butt;stroke-linejoin:miter;stroke-opacity:1" d="M 439.702,412.471 447.482,451.373 z" id="boundary" inkscape:connector-curvature="0" />
	<path style="fill:none;stroke:red;stroke-width:1px;stroke-linecap:butt;stroke-linejoin:miter;stroke-opacity:1" d="M 455.263,490.275 463.043,529.176 z" id="boundary" inkscape:connector-curvature="0" />
	<path style="fill:none;stroke:red;stroke-width:1px;stroke-linecap:butt;stroke-linejoin:miter;stroke-opacity:1" d="M 470.824,568.078 463.043,529.176 z" id="boundary" inkscape:connector-curvature="0" />
	<path style="fill:none;stroke:red;stroke-width:1px;stroke-linecap:butt;stroke-linejoin:miter;stroke-opacity:1" d="M 455.263,490.275 447.482,451.373 z" id="boundary" inkscape:connector-curvature="0" />
	<path style="fill:none;stroke:red;stroke-width:1px;stroke-linecap:butt;stroke-linejoin:miter;stroke-opacity:1" d="M 486.384,723.686 478.604,766.478 z" id="boundary" inkscape:connector-curvature="0" />
	<path style="fill:none;stroke:red;stroke-width:1px;stroke-linecap:butt;stroke-linejoin:miter;stroke-opacity:1" d="M 435.812,945.427 396.91,949.318 z" id="boundary" inkscape:connector-curvature="0" />
	<path style="fill:none;stroke:red;stroke-width:1px;stroke-linecap:butt;stroke-linejoin:miter;stroke-opacity:1" d="M 416.361,996 377.459,988.22 z" id="boundary" inkscape:connector-curvature="0" />
	<path style="fill:none;stroke:red;stroke-width:1px;stroke-linecap:butt;stroke-linejoin:miter;stroke-opacity:1" d="M 463.043,883.184 470.824,828.722 z" id="boundary" inkscape:connector-curvature="0" />
	<path style="fill:none;stroke:red;stroke-width:1px;stroke-linecap:butt;stroke-linejoin:miter;stroke-opacity:1" d="M 470.824,568.078 486.384,606.98 z" id="boundary" inkscape:connector-curvature="0" />
	<path style="fill:none;stroke:red;stroke-width:1px;stroke-linecap:butt;stroke-linejoin:miter;stroke-opacity:1" d="M 463.043,883.184 505.835,906.525 z" id="boundary" inkscape:connector-curvature="0" />
	<path style="fill:none;stroke:red;stroke-width:1px;stroke-linecap:butt;stroke-linejoin:miter;stroke-opacity:1" d="M 455.263,996 416.361,996 z" id="boundary" inkscape:connector-curvature="0" />
	<path style="fill:none;stroke:red;stroke-width:1px;stroke-linecap:butt;stroke-linejoin:miter;stroke-opacity:1" d="M 494.165,996 455.263,996 z" id="boundary" inkscape:connector-curvature="0" />
	<path style="fill:none;stroke:red;stroke-width:1px;stroke-linecap:butt;stroke-linejoin:miter;stroke-opacity:1" d="M 478.604,766.478 470.824,828.722 z" id="boundary" inkscape:connector-curvature="0" />
	<path style="fill:none;stroke:red;stroke-width:1px;stroke-linecap:butt;stroke-linejoin:miter;stroke-opacity:1" d="M 474.714,4 513.616,4 z" id="boundary" inkscape:connector-curvature="0" />
	<path style="fill:none;stroke:red;stroke-width:1px;stroke-linecap:butt;stroke-linejoin:miter;stroke-opacity:1" d="M 513.616,4 552.518,4 z" id="boundary" inkscape:connector-curvature="0" />
	<path style="fill:none;stroke:red;stroke-width:1px;stroke-linecap:butt;stroke-linejoin:miter;stroke-opacity:1" d="M 552.518,4 587.529,23.451 z" id="boundary" inkscape:connector-curvature="0" />
	<path style="fill:none;stroke:red;stroke-width:1px;stroke-linecap:butt;stroke-linejoin:miter;stroke-opacity:1" d="M 626.431,39.0118 657.553,62.3529 z" id="boundary" inkscape:connector-curvature="0" />
	<path style="fill:none;stroke:red;stroke-width:1px;stroke-linecap:butt;stroke-linejoin:miter;stroke-opacity:1" d="M 626.431,39.0118 587.529,23.451 z" id="boundary" inkscape:connector-curvature="0" />
	<path style="fill:none;stroke:red;stroke-width:1px;stroke-linecap:butt;stroke-linejoin:miter;stroke-opacity:1" d="M 599.2,416.361 599.2,377.459 z" id="boundary" inkscape:connector-curvature="0" />
	<path style="fill:none;stroke:red;stroke-width:1px;stroke-linecap:butt;stroke-linejoin:miter;stroke-opacity:1" d="M 599.2,377.459 638.102,381.349 z" id="boundary" inkscape:connector-curvature="0" />
	<path style="fill:none;stroke:red;stroke-width:1px;stroke-linecap:butt;stroke-linejoin:miter;stroke-opacity:1" d="M 638.102,381.349 669.224,404.69 z" id="boundary" inkscape:connector-curvature="0" />
	<path style="fill:none;stroke:red;stroke-width:1px;stroke-linecap:butt;stroke-linejoin:miter;stroke-opacity:1" d="M 599.2,416.361 599.2,455.263 z" id="boundary" inkscape:connector-curvature="0" />
	<path style="fill:none;stroke:red;stroke-width:1px;stroke-linecap:butt;stroke-linejoin:miter;stroke-opacity:1" d="M 599.2,494.165 599.2,455.263 z" id="boundary" inkscape:connector-curvature="0" />
	<path style="fill:none;stroke:red;stroke-width:1px;stroke-linecap:butt;stroke-linejoin:miter;stroke-opacity:1" d="M 657.553,62.3529 688.675,85.6941 z" id="boundary" inkscape:connector-curvature="0" />
	<path style="fill:none;stroke:red;stroke-width:1px;stroke-linecap:butt;stroke-linejoin:miter;stroke-opacity:1" d="M 712.016,116.816 739.247,147.937 z" id="boundary" inkscape:connector-curvature="0" />
	<path style="fill:none;stroke:red;stroke-width:1px;stroke-linecap:butt;stroke-linejoin:miter;stroke-opacity:1" d="M 712.016,116.816 688.675,85.6941 z" id="boundary" inkscape:connector-curvature="0" />
	<path style="fill:none;stroke:red;stroke-width:1px;stroke-linecap:butt;stroke-linejoin:miter;stroke-opacity:1" d="M 739.247,147.937 762.588,179.059 z" id="boundary" inkscape:connector-curvature="0" />
	<path style="fill:none;stroke:red;stroke-width:1px;stroke-linecap:butt;stroke-linejoin:miter;stroke-opacity:1" d="M 793.71,206.29 762.588,179.059 z" id="boundary" inkscape:connector-curvature="0" />
	<path style="fill:none;stroke:red;stroke-width:1px;stroke-linecap:butt;stroke-linejoin:miter;stroke-opacity:1" d="M 879.294,338.557 859.843,303.545 z" id="boundary" inkscape:connector-curvature="0" />
	<path style="fill:none;stroke:red;stroke-width:1px;stroke-linecap:butt;stroke-linejoin:miter;stroke-opacity:1" d="M 793.71,206.29 817.051,237.412 z" id="boundary" inkscape:connector-curvature="0" />
	<path style="fill:none;stroke:red;stroke-width:1px;stroke-linecap:butt;stroke-linejoin:miter;stroke-opacity:1" d="M 817.051,237.412 840.392,268.533 z" id="boundary" inkscape:connector-curvature="0" />
	<path style="fill:none;stroke:red;stroke-width:1px;stroke-linecap:butt;stroke-linejoin:miter;stroke-opacity:1" d="M 859.843,303.545 840.392,268.533 z" id="boundary" inkscape:connector-curvature="0" />
	<path style="fill:none;stroke:red;stroke-width:1px;stroke-linecap:butt;stroke-linejoin:miter;stroke-opacity:1" d="M 708.125,420.251 669.224,404.69 z" id="boundary" inkscape:connector-curvature="0" />
	<path style="fill:none;stroke:red;stroke-width:1px;stroke-linecap:butt;stroke-linejoin:miter;stroke-opacity:1" d="M 708.125,420.251 747.027,431.922 z" id="boundary" inkscape:connector-curvature="0" />
	<path style="fill:none;stroke:red;stroke-width:1px;stroke-linecap:butt;stroke-linejoin:miter;stroke-opacity:1" d="M 879.294,338.557 887.075,377.459 z" id="boundary" inkscape:connector-curvature="0" />
	<path style="fill:none;stroke:red;stroke-width:1px;stroke-linecap:butt;stroke-linejoin:miter;stroke-opacity:1" d="M 785.929,435.812 824.831,428.031 z" id="boundary" inkscape:connector-curvature="0" />
	<path style="fill:none;stroke:red;stroke-width:1px;stroke-linecap:butt;stroke-linejoin:miter;stroke-opacity:1" d="M 887.075,377.459 863.733,431.922 z" id="boundary" inkscape:connector-curvature="0" />
	<path style="fill:none;stroke:red;stroke-width:1px;stroke-linecap:butt;stroke-linejoin:miter;stroke-opacity:1" d="M 863.733,431.922 824.831,428.031 z" id="boundary" inkscape:connector-curvature="0" />
	<path style="fill:none;stroke:red;stroke-width:1px;stroke-linecap:butt;stroke-linejoin:miter;stroke-opacity:1" d="M 747.027,431.922 785.929,435.812 z" id="boundary" inkscape:connector-curvature="0" />
	<path style="fill:none;stroke:red;stroke-width:1px;stroke-linecap:butt;stroke-linejoin:miter;stroke-opacity:1" d="M 599.2,533.067 599.2,494.165 z" id="boundary" inkscape:connector-curvature="0" />
	<path style="fill:none;stroke:red;stroke-width:1px;stroke-linecap:butt;stroke-linejoin:miter;stroke-opacity:1" d="M 486.384,606.98 486.384,645.882 z" id="boundary" inkscape:connector-curvature="0" />
	<path style="fill:none;stroke:red;stroke-width:1px;stroke-linecap:butt;stroke-linejoin:miter;stroke-opacity:1" d="M 486.384,684.784 486.384,645.882 z" id="boundary" inkscape:connector-curvature="0" />
	<path style="fill:none;stroke:red;stroke-width:1px;stroke-linecap:butt;stroke-linejoin:miter;stroke-opacity:1" d="M 486.384,723.686 486.384,684.784 z" id="boundary" inkscape:connector-curvature="0" />
	<path style="fill:none;stroke:red;stroke-width:1px;stroke-linecap:butt;stroke-linejoin:miter;stroke-opacity:1" d="M 564.188,972.659 533.067,996 z" id="boundary" inkscape:connector-curvature="0" />
	<path style="fill:none;stroke:red;stroke-width:1px;stroke-linecap:butt;stroke-linejoin:miter;stroke-opacity:1" d="M 533.067,996 494.165,996 z" id="boundary" inkscape:connector-curvature="0" />
	<path style="fill:none;stroke:red;stroke-width:1px;stroke-linecap:butt;stroke-linejoin:miter;stroke-opacity:1" d="M 599.2,571.969 591.42,610.871 z" id="boundary" inkscape:connector-curvature="0" />
	<path style="fill:none;stroke:red;stroke-width:1px;stroke-linecap:butt;stroke-linejoin:miter;stroke-opacity:1" d="M 599.2,533.067 599.2,571.969 z" id="boundary" inkscape:connector-curvature="0" />
	<path style="fill:none;stroke:red;stroke-width:1px;stroke-linecap:butt;stroke-linejoin:miter;stroke-opacity:1" d="M 591.42,610.871 599.2,649.773 z" id="boundary" inkscape:connector-curvature="0" />
	<path style="fill:none;stroke:red;stroke-width:1px;stroke-linecap:butt;stroke-linejoin:miter;stroke-opacity:1" d="M 599.2,649.773 591.42,696.455 z" id="boundary" inkscape:connector-curvature="0" />
	<path style="fill:none;stroke:red;stroke-width:1px;stroke-linecap:butt;stroke-linejoin:miter;stroke-opacity:1" d="M 583.639,758.698 591.42,696.455 z" id="boundary" inkscape:connector-curvature="0" />
	<path style="fill:none;stroke:red;stroke-width:1px;stroke-linecap:butt;stroke-linejoin:miter;stroke-opacity:1" d="M 568.078,883.184 568.078,922.086 z" id="boundary" inkscape:connector-curvature="0" />
	<path style="fill:none;stroke:red;stroke-width:1px;stroke-linecap:butt;stroke-linejoin:miter;stroke-opacity:1" d="M 568.078,922.086 564.188,972.659 z" id="boundary" inkscape:connector-curvature="0" />
	<path style="fill:none;stroke:red;stroke-width:1px;stroke-linecap:butt;stroke-linejoin:miter;stroke-opacity:1" d="M 575.859,820.941 568.078,883.184 z" id="boundary" inkscape:connector-curvature="0" />
	<path style="fill:none;stroke:red;stroke-width:1px;stroke-linecap:butt;stroke-linejoin:miter;stroke-opacity:1" d="M 575.859,820.941 583.639,758.698 z" id="boundary" inkscape:connector-curvature="0" />
	<circle cx="4" cy="260.753" r="4" fill="#0" id="circle0"/>
	<circle cx="23.451" cy="295.765" r="4" fill="#0" id="circle1"/>
	<circle cx="27.3412" cy="229.631" r="4" fill="#0" id="circle2"/>
	<circle cx="50.6824" cy="190.729" r="4" fill="#0" id="circle3"/>
	<circle cx="62.3529" cy="276.314" r="4" fill="#0" id="circle4"/>
	<circle cx="74.0235" cy="136.267" r="4" fill="#0" id="circle5"/>
	<circle cx="93.4745" cy="101.255" r="4" fill="#0" id="circle6"/>
	<circle cx="93.4745" cy="245.192" r="4" fill="#0" id="circle7"/>
	<circle cx="124.596" cy="221.851" r="4" fill="#0" id="circle8"/>
	<circle cx="128.486" cy="81.8039" r="4" fill="#0" id="circle9"/>
	<circle cx="159.608" cy="202.4" r="4" fill="#0" id="circle10"/>
	<circle cx="167.388" cy="74.0235" r="4" fill="#0" id="circle11"/>
	<circle cx="190.729" cy="179.059" r="4" fill="#0" id="circle12"/>
	<circle cx="206.29" cy="74.0235" r="4" fill="#0" id="circle13"/>
	<circle cx="206.29" cy="245.192" r="4" fill="#0" id="circle14"/>
	<circle cx="206.29" cy="284.094" r="4" fill="#0" id="circle15"/>
	<circle cx="214.071" cy="322.996" r="4" fill="#0" id="circle16"/>
	<circle cx="237.412" cy="354.118" r="4" fill="#0" id="circle17"/>
	<circle cx="241.302" cy="93.4745" r="4" fill="#0" id="circle18"/>
	<circle cx="264.643" cy="124.596" r="4" fill="#0" id="circle19"/>
	<circle cx="272.424" cy="373.569" r="4" fill="#0" id="circle20"/>
	<circle cx="295.765" cy="147.937" r="4" fill="#0" id="circle21"/>
	<circle cx="307.435" cy="105.145" r="4" fill="#0" id="circle22"/>
	<circle cx="311.325" cy="369.678" r="4" fill="#0" id="circle23"/>
	<circle cx="326.886" cy="70.1333" r="4" fill="#0" id="circle24"/>
	<circle cx="342.447" cy="338.557" r="4" fill="#0" id="circle25"/>
	<circle cx="346.337" cy="960.988" r="4" fill="#0" id="circle26"/>
	<circle cx="358.008" cy="42.902" r="4" fill="#0" id="circle27"/>
	<circle cx="358.008" cy="276.314" r="4" fill="#0" id="circle28"/>
	<circle cx="365.788" cy="237.412" r="4" fill="#0" id="circle29"/>
	<circle cx="377.459" cy="988.22" r="4" fill="#0" id="circle30"/>
	<circle cx="396.91" cy="23.451" r="4" fill="#0" id="circle31"/>
	<circle cx="396.91" cy="949.318" r="4" fill="#0" id="circle32"/>
	<circle cx="400.8" cy="256.863" r="4" fill="#0" id="circle33"/>
	<circle cx="416.361" cy="295.765" r="4" fill="#0" id="circle34"/>
	<circle cx="416.361" cy="996" r="4" fill="#0" id="circle35"/>
	<circle cx="424.141" cy="334.667" r="4" fill="#0" id="circle36"/>
	<circle cx="431.922" cy="373.569" r="4" fill="#0" id="circle37"/>
	<circle cx="435.812" cy="11.7804" r="4" fill="#0" id="circle38"/>
	<circle cx="435.812" cy="945.427" r="4" fill="#0" id="circle39"/>
	<circle cx="439.702" cy="412.471" r="4" fill="#0" id="circle40"/>
	<circle cx="447.482" cy="451.373" r="4" fill="#0" id="circle41"/>
	<circle cx="455.263" cy="490.275" r="4" fill="#0" id="circle42"/>
	<circle cx="455.263" cy="996" r="4" fill="#0" id="circle43"/>
	<circle cx="463.043" cy="529.176" r="4" fill="#0" id="circle44"/>
	<circle cx="463.043" cy="883.184" r="4" fill="#0" id="circle45"/>
	<circle cx="470.824" cy="568.078" r="4" fill="#0" id="circle46"/>
	<circle cx="470.824" cy="828.722" r="4" fill="#0" id="circle47"/>
	<circle cx="474.714" cy="4" r="4" fill="#0" id="circle48"/>
	<circle cx="478.604" cy="766.478" r="4" fill="#0" id="circle49"/>
	<circle cx="486.384" cy="606.98" r="4" fill="#0" id="circle50"/>
	<circle cx="486.384" cy="645.882" r="4" fill="#0" id="circle51"/>
	<circle cx="486.384" cy="684.784" r="4" fill="#0" id="circle52"/>
	<circle cx="486.384" cy="723.686" r="4" fill="#0" id="circle53"/>
	<circle cx="494.165" cy="996" r="4" fill="#0" id="circle54"/>
	<circle cx="505.835" cy="906.525" r="4" fill="#0" id="circle55"/>
	<circle cx="513.616" cy="4" r="4" fill="#0" id="circle56"/>
	<circle cx="513.616" cy="852.063" r="4" fill="#0" id="circle57"/>
	<circle cx="521.396" cy="797.6" r="4" fill="#0" id="circle58"/>
	<circle cx="529.176" cy="743.137" r="4" fill="#0" id="circle59"/>
	<circle cx="533.067" cy="996" r="4" fill="#0" id="circle60"/>
	<circle cx="536.957" cy="618.651" r="4" fill="#0" id="circle61"/>
	<circle cx="536.957" cy="680.894" r="4" fill="#0" id="circle62"/>
	<circle cx="552.518" cy="4" r="4" fill="#0" id="circle63"/>
	<circle cx="564.188" cy="972.659" r="4" fill="#0" id="circle64"/>
	<circle cx="568.078" cy="883.184" r="4" fill="#0" id="circle65"/>
	<circle cx="568.078" cy="922.086" r="4" fill="#0" id="circle66"/>
	<circle cx="575.859" cy="820.941" r="4" fill="#0" id="circle67"/>
	<circle cx="583.639" cy="758.698" r="4" fill="#0" id="circle68"/>
	<circle cx="587.529" cy="23.451" r="4" fill="#0" id="circle69"/>
	<circle cx="591.42" cy="610.871" r="4" fill="#0" id="circle70"/>
	<circle cx="591.42" cy="696.455" r="4" fill="#0" id="circle71"/>
	<circle cx="599.2" cy="377.459" r="4" fill="#0" id="circle72"/>
	<circle cx="599.2" cy="416.361" r="4" fill="#0" id="circle73"/>
	<circle cx="599.2" cy="455.263" r="4" fill="#0" id="circle74"/>
	<circle cx="599.2" cy="494.165" r="4" fill="#0" id="circle75"/>
	<circle cx="599.2" cy="533.067" r="4" fill="#0" id="circle76"/>
	<circle cx="599.2" cy="571.969" r="4" fill="#0" id="circle77"/>
	<circle cx="599.2" cy="649.773" r="4" fill="#0" id="circle78"/>
	<circle cx="626.431" cy="39.0118" r="4" fill="#0" id="circle79"/>
	<circle cx="638.102" cy="381.349" r="4" fill="#0" id="circle80"/>
	<circle cx="657.553" cy="62.3529" r="4" fill="#0" id="circle81"/>
	<circle cx="669.224" cy="404.69" r="4" fill="#0" id="circle82"/>
	<circle cx="688.675" cy="85.6941" r="4" fill="#0" id="circle83"/>
	<circle cx="708.125" cy="420.251" r="4" fill="#0" id="circle84"/>
	<circle cx="712.016" cy="116.816" r="4" fill="#0" id="circle85"/>
	<circle cx="739.247" cy="147.937" r="4" fill="#0" id="circle86"/>
	<circle cx="747.027" cy="431.922" r="4" fill="#0" id="circle87"/>
	<circle cx="762.588" cy="179.059" r="4" fill="#0" id="circle88"/>
	<circle cx="785.929" cy="435.812" r="4" fill="#0" id="circle89"/>
	<circle cx="793.71" cy="206.29" r="4" fill="#0" id="circle90"/>
	<circle cx="817.051" cy="237.412" r="4" fill="#0" id="circle91"/>
	<circle cx="824.831" cy="428.031" r="4" fill="#0" id="circle92"/>
	<circle cx="840.392" cy="268.533" r="4" fill="#0" id="circle93"/>
	<circle cx="859.843" cy="303.545" r="4" fill="#0" id="circle94"/>
	<circle cx="863.733" cy="431.922" r="4" fill="#0" id="circle95"/>
	<circle cx="879.294" cy="338.557" r="4" fill="#0" id="circle96"/>
	<circle cx="887.075" cy="377.459" r="4" fill="#0" id="circle97"/>
	</g>
</svg>