<?xml version="1.0" encoding="UTF-8" standalone="no"?>
<!-- Created with CurveBenchmark -->
<svg
	xmlns:dc="http://purl.org/dc/elements/1.1/"
	xmlns:cc="http://creativecommons.org/ns#"
	xmlns:rdf="http://www.w3.org/1999/02/22-rdf-syntax-ns#"
	xmlns:svg="http://www.w3.org/2000/svg"
	xmlns="http://www.w3.org/2000/svg"
	xmlns:sodipodi="http://sodipodi.sourceforge.net/DTD/sodipodi-0.dtd"
	xmlns:inkscape="http://www.inkscape.org/namespaces/inkscape"
	width="1000"
	height="1000"
	id="svg2"
	version="1.1"
	sodipodi:docname="manifold/crust-dude6occ4.png.txt">
<defs
	id="defs4" />
<metadata
	id="metadata7">
	<rdf:RDF>
		<cc:Work
			rdf:about="">
			<dc:format>image/svg+xml</dc:format>
			<dc:type
				rdf:resource="http://purl.org/dc/dcmitype/StillImage" />
			<dc:title></dc:title>
		</cc:Work>
	</rdf:RDF>
</metadata>
<g
	inkscape:label="Layer 1"
	inkscape:groupmode="layer"
	id="layer1">
	<path style="fill:none;stroke:red;stroke-width:1px;stroke-linecap:butt;stroke-linejoin:miter;stroke-opacity:1" d="M 102.129,294.82 93.2086,321.583 z" id="boundary" inkscape:connector-curvature="0" />
	<path style="fill:none;stroke:red;stroke-width:1px;stroke-linecap:butt;stroke-linejoin:miter;stroke-opacity:1" d="M 93.2086,321.583 80.7194,342.993 z" id="boundary" inkscape:connector-curvature="0" />
	<path style="fill:none;stroke:red;stroke-width:1px;stroke-linecap:butt;stroke-linejoin:miter;stroke-opacity:1" d="M 148.518,257.353 134.245,271.626 z" id="boundary" inkscape:connector-curvature="0" />
	<path style="fill:none;stroke:red;stroke-width:1px;stroke-linecap:butt;stroke-linejoin:miter;stroke-opacity:1" d="M 102.129,294.82 116.403,280.547 z" id="boundary" inkscape:connector-curvature="0" />
	<path style="fill:none;stroke:red;stroke-width:1px;stroke-linecap:butt;stroke-linejoin:miter;stroke-opacity:1" d="M 134.245,271.626 116.403,280.547 z" id="boundary" inkscape:connector-curvature="0" />
	<path style="fill:none;stroke:red;stroke-width:1px;stroke-linecap:butt;stroke-linejoin:miter;stroke-opacity:1" d="M 182.417,53.9568 182.417,71.7986 z" id="boundary" inkscape:connector-curvature="0" />
	<path style="fill:none;stroke:red;stroke-width:1px;stroke-linecap:butt;stroke-linejoin:miter;stroke-opacity:1" d="M 182.417,71.7986 191.338,87.8561 z" id="boundary" inkscape:connector-curvature="0" />
	<path style="fill:none;stroke:red;stroke-width:1px;stroke-linecap:butt;stroke-linejoin:miter;stroke-opacity:1" d="M 182.417,53.9568 200.259,48.6043 z" id="boundary" inkscape:connector-curvature="0" />
	<path style="fill:none;stroke:red;stroke-width:1px;stroke-linecap:butt;stroke-linejoin:miter;stroke-opacity:1" d="M 191.338,105.698 191.338,87.8561 z" id="boundary" inkscape:connector-curvature="0" />
	<path style="fill:none;stroke:red;stroke-width:1px;stroke-linecap:butt;stroke-linejoin:miter;stroke-opacity:1" d="M 191.338,105.698 191.338,123.54 z" id="boundary" inkscape:connector-curvature="0" />
	<path style="fill:none;stroke:red;stroke-width:1px;stroke-linecap:butt;stroke-linejoin:miter;stroke-opacity:1" d="M 191.338,141.381 191.338,123.54 z" id="boundary" inkscape:connector-curvature="0" />
	<path style="fill:none;stroke:red;stroke-width:1px;stroke-linecap:butt;stroke-linejoin:miter;stroke-opacity:1" d="M 191.338,141.381 209.18,148.518 z" id="boundary" inkscape:connector-curvature="0" />
	<path style="fill:none;stroke:red;stroke-width:1px;stroke-linecap:butt;stroke-linejoin:miter;stroke-opacity:1" d="M 166.36,248.432 148.518,257.353 z" id="boundary" inkscape:connector-curvature="0" />
	<path style="fill:none;stroke:red;stroke-width:1px;stroke-linecap:butt;stroke-linejoin:miter;stroke-opacity:1" d="M 202.043,235.942 184.201,239.511 z" id="boundary" inkscape:connector-curvature="0" />
	<path style="fill:none;stroke:red;stroke-width:1px;stroke-linecap:butt;stroke-linejoin:miter;stroke-opacity:1" d="M 184.201,239.511 166.36,248.432 z" id="boundary" inkscape:connector-curvature="0" />
	<path style="fill:none;stroke:red;stroke-width:1px;stroke-linecap:butt;stroke-linejoin:miter;stroke-opacity:1" d="M 387.597,4 369.755,4 z" id="boundary" inkscape:connector-curvature="0" />
	<path style="fill:none;stroke:red;stroke-width:1px;stroke-linecap:butt;stroke-linejoin:miter;stroke-opacity:1" d="M 48.6043,392.95 36.1151,414.36 z" id="boundary" inkscape:connector-curvature="0" />
	<path style="fill:none;stroke:red;stroke-width:1px;stroke-linecap:butt;stroke-linejoin:miter;stroke-opacity:1" d="M 57.5252,375.108 48.6043,392.95 z" id="boundary" inkscape:connector-curvature="0" />
	<path style="fill:none;stroke:red;stroke-width:1px;stroke-linecap:butt;stroke-linejoin:miter;stroke-opacity:1" d="M 36.1151,414.36 27.1942,432.201 z" id="boundary" inkscape:connector-curvature="0" />
	<path style="fill:none;stroke:red;stroke-width:1px;stroke-linecap:butt;stroke-linejoin:miter;stroke-opacity:1" d="M 66.446,357.266 57.5252,375.108 z" id="boundary" inkscape:connector-curvature="0" />
	<path style="fill:none;stroke:red;stroke-width:1px;stroke-linecap:butt;stroke-linejoin:miter;stroke-opacity:1" d="M 66.446,357.266 80.7194,342.993 z" id="boundary" inkscape:connector-curvature="0" />
	<path style="fill:none;stroke:red;stroke-width:1px;stroke-linecap:butt;stroke-linejoin:miter;stroke-opacity:1" d="M 103.914,425.065 91.4245,448.259 z" id="boundary" inkscape:connector-curvature="0" />
	<path style="fill:none;stroke:red;stroke-width:1px;stroke-linecap:butt;stroke-linejoin:miter;stroke-opacity:1" d="M 12.9209,446.475 27.1942,432.201 z" id="boundary" inkscape:connector-curvature="0" />
	<path style="fill:none;stroke:red;stroke-width:1px;stroke-linecap:butt;stroke-linejoin:miter;stroke-opacity:1" d="M 4,464.317 12.9209,446.475 z" id="boundary" inkscape:connector-curvature="0" />
	<path style="fill:none;stroke:red;stroke-width:1px;stroke-linecap:butt;stroke-linejoin:miter;stroke-opacity:1" d="M 91.4245,448.259 77.1511,460.748 z" id="boundary" inkscape:connector-curvature="0" />
	<path style="fill:none;stroke:red;stroke-width:1px;stroke-linecap:butt;stroke-linejoin:miter;stroke-opacity:1" d="M 77.1511,460.748 59.3094,469.669 z" id="boundary" inkscape:connector-curvature="0" />
	<path style="fill:none;stroke:red;stroke-width:1px;stroke-linecap:butt;stroke-linejoin:miter;stroke-opacity:1" d="M 144.95,376.892 162.791,367.971 z" id="boundary" inkscape:connector-curvature="0" />
	<path style="fill:none;stroke:red;stroke-width:1px;stroke-linecap:butt;stroke-linejoin:miter;stroke-opacity:1" d="M 162.791,367.971 180.633,362.619 z" id="boundary" inkscape:connector-curvature="0" />
	<path style="fill:none;stroke:red;stroke-width:1px;stroke-linecap:butt;stroke-linejoin:miter;stroke-opacity:1" d="M 144.95,376.892 130.676,389.381 z" id="boundary" inkscape:connector-curvature="0" />
	<path style="fill:none;stroke:red;stroke-width:1px;stroke-linecap:butt;stroke-linejoin:miter;stroke-opacity:1" d="M 118.187,412.576 103.914,425.065 z" id="boundary" inkscape:connector-curvature="0" />
	<path style="fill:none;stroke:red;stroke-width:1px;stroke-linecap:butt;stroke-linejoin:miter;stroke-opacity:1" d="M 118.187,412.576 130.676,389.381 z" id="boundary" inkscape:connector-curvature="0" />
	<path style="fill:none;stroke:red;stroke-width:1px;stroke-linecap:butt;stroke-linejoin:miter;stroke-opacity:1" d="M 180.633,362.619 196.691,371.54 z" id="boundary" inkscape:connector-curvature="0" />
	<path style="fill:none;stroke:red;stroke-width:1px;stroke-linecap:butt;stroke-linejoin:miter;stroke-opacity:1" d="M 4,464.317 4,482.158 z" id="boundary" inkscape:connector-curvature="0" />
	<path style="fill:none;stroke:red;stroke-width:1px;stroke-linecap:butt;stroke-linejoin:miter;stroke-opacity:1" d="M 218.101,48.6043 200.259,48.6043 z" id="boundary" inkscape:connector-curvature="0" />
	<path style="fill:none;stroke:red;stroke-width:1px;stroke-linecap:butt;stroke-linejoin:miter;stroke-opacity:1" d="M 228.806,34.3309 218.101,48.6043 z" id="boundary" inkscape:connector-curvature="0" />
	<path style="fill:none;stroke:red;stroke-width:1px;stroke-linecap:butt;stroke-linejoin:miter;stroke-opacity:1" d="M 228.806,34.3309 244.863,9.35252 z" id="boundary" inkscape:connector-curvature="0" />
	<path style="fill:none;stroke:red;stroke-width:1px;stroke-linecap:butt;stroke-linejoin:miter;stroke-opacity:1" d="M 262.705,4 244.863,9.35252 z" id="boundary" inkscape:connector-curvature="0" />
	<path style="fill:none;stroke:red;stroke-width:1px;stroke-linecap:butt;stroke-linejoin:miter;stroke-opacity:1" d="M 227.022,148.518 209.18,148.518 z" id="boundary" inkscape:connector-curvature="0" />
	<path style="fill:none;stroke:red;stroke-width:1px;stroke-linecap:butt;stroke-linejoin:miter;stroke-opacity:1" d="M 244.863,148.518 227.022,148.518 z" id="boundary" inkscape:connector-curvature="0" />
	<path style="fill:none;stroke:red;stroke-width:1px;stroke-linecap:butt;stroke-linejoin:miter;stroke-opacity:1" d="M 244.863,148.518 244.863,166.36 z" id="boundary" inkscape:connector-curvature="0" />
	<path style="fill:none;stroke:red;stroke-width:1px;stroke-linecap:butt;stroke-linejoin:miter;stroke-opacity:1" d="M 244.863,166.36 250.216,184.201 z" id="boundary" inkscape:connector-curvature="0" />
	<path style="fill:none;stroke:red;stroke-width:1px;stroke-linecap:butt;stroke-linejoin:miter;stroke-opacity:1" d="M 280.547,4 298.388,4 z" id="boundary" inkscape:connector-curvature="0" />
	<path style="fill:none;stroke:red;stroke-width:1px;stroke-linecap:butt;stroke-linejoin:miter;stroke-opacity:1" d="M 298.388,4 316.23,4 z" id="boundary" inkscape:connector-curvature="0" />
	<path style="fill:none;stroke:red;stroke-width:1px;stroke-linecap:butt;stroke-linejoin:miter;stroke-opacity:1" d="M 262.705,4 280.547,4 z" id="boundary" inkscape:connector-curvature="0" />
	<path style="fill:none;stroke:red;stroke-width:1px;stroke-linecap:butt;stroke-linejoin:miter;stroke-opacity:1" d="M 316.23,4 334.072,4 z" id="boundary" inkscape:connector-curvature="0" />
	<path style="fill:none;stroke:red;stroke-width:1px;stroke-linecap:butt;stroke-linejoin:miter;stroke-opacity:1" d="M 369.755,4 351.914,4 z" id="boundary" inkscape:connector-curvature="0" />
	<path style="fill:none;stroke:red;stroke-width:1px;stroke-linecap:butt;stroke-linejoin:miter;stroke-opacity:1" d="M 334.072,4 351.914,4 z" id="boundary" inkscape:connector-curvature="0" />
	<path style="fill:none;stroke:red;stroke-width:1px;stroke-linecap:butt;stroke-linejoin:miter;stroke-opacity:1" d="M 219.885,235.942 202.043,235.942 z" id="boundary" inkscape:connector-curvature="0" />
	<path style="fill:none;stroke:red;stroke-width:1px;stroke-linecap:butt;stroke-linejoin:miter;stroke-opacity:1" d="M 250.216,184.201 252,218.101 z" id="boundary" inkscape:connector-curvature="0" />
	<path style="fill:none;stroke:red;stroke-width:1px;stroke-linecap:butt;stroke-linejoin:miter;stroke-opacity:1" d="M 237.727,230.59 219.885,235.942 z" id="boundary" inkscape:connector-curvature="0" />
	<path style="fill:none;stroke:red;stroke-width:1px;stroke-linecap:butt;stroke-linejoin:miter;stroke-opacity:1" d="M 252,218.101 237.727,230.59 z" id="boundary" inkscape:connector-curvature="0" />
	<path style="fill:none;stroke:red;stroke-width:1px;stroke-linecap:butt;stroke-linejoin:miter;stroke-opacity:1" d="M 210.964,403.655 219.885,419.712 z" id="boundary" inkscape:connector-curvature="0" />
	<path style="fill:none;stroke:red;stroke-width:1px;stroke-linecap:butt;stroke-linejoin:miter;stroke-opacity:1" d="M 209.18,385.813 196.691,371.54 z" id="boundary" inkscape:connector-curvature="0" />
	<path style="fill:none;stroke:red;stroke-width:1px;stroke-linecap:butt;stroke-linejoin:miter;stroke-opacity:1" d="M 209.18,385.813 210.964,403.655 z" id="boundary" inkscape:connector-curvature="0" />
	<path style="fill:none;stroke:red;stroke-width:1px;stroke-linecap:butt;stroke-linejoin:miter;stroke-opacity:1" d="M 235.942,453.612 227.022,437.554 z" id="boundary" inkscape:connector-curvature="0" />
	<path style="fill:none;stroke:red;stroke-width:1px;stroke-linecap:butt;stroke-linejoin:miter;stroke-opacity:1" d="M 227.022,437.554 219.885,419.712 z" id="boundary" inkscape:connector-curvature="0" />
	<path style="fill:none;stroke:red;stroke-width:1px;stroke-linecap:butt;stroke-linejoin:miter;stroke-opacity:1" d="M 235.942,453.612 235.942,471.453 z" id="boundary" inkscape:connector-curvature="0" />
	<path style="fill:none;stroke:red;stroke-width:1px;stroke-linecap:butt;stroke-linejoin:miter;stroke-opacity:1" d="M 12.9209,498.216 4,482.158 z" id="boundary" inkscape:connector-curvature="0" />
	<path style="fill:none;stroke:red;stroke-width:1px;stroke-linecap:butt;stroke-linejoin:miter;stroke-opacity:1" d="M 30.7626,500 12.9209,498.216 z" id="boundary" inkscape:connector-curvature="0" />
	<path style="fill:none;stroke:red;stroke-width:1px;stroke-linecap:butt;stroke-linejoin:miter;stroke-opacity:1" d="M 59.3094,469.669 45.036,485.727 z" id="boundary" inkscape:connector-curvature="0" />
	<path style="fill:none;stroke:red;stroke-width:1px;stroke-linecap:butt;stroke-linejoin:miter;stroke-opacity:1" d="M 30.7626,500 45.036,485.727 z" id="boundary" inkscape:connector-curvature="0" />
	<path style="fill:none;stroke:red;stroke-width:1px;stroke-linecap:butt;stroke-linejoin:miter;stroke-opacity:1" d="M 164.576,794.388 155.655,812.23 z" id="boundary" inkscape:connector-curvature="0" />
	<path style="fill:none;stroke:red;stroke-width:1px;stroke-linecap:butt;stroke-linejoin:miter;stroke-opacity:1" d="M 173.496,776.547 164.576,794.388 z" id="boundary" inkscape:connector-curvature="0" />
	<path style="fill:none;stroke:red;stroke-width:1px;stroke-linecap:butt;stroke-linejoin:miter;stroke-opacity:1" d="M 205.612,726.59 191.338,740.863 z" id="boundary" inkscape:connector-curvature="0" />
	<path style="fill:none;stroke:red;stroke-width:1px;stroke-linecap:butt;stroke-linejoin:miter;stroke-opacity:1" d="M 182.417,758.705 191.338,740.863 z" id="boundary" inkscape:connector-curvature="0" />
	<path style="fill:none;stroke:red;stroke-width:1px;stroke-linecap:butt;stroke-linejoin:miter;stroke-opacity:1" d="M 182.417,758.705 173.496,776.547 z" id="boundary" inkscape:connector-curvature="0" />
	<path style="fill:none;stroke:red;stroke-width:1px;stroke-linecap:butt;stroke-linejoin:miter;stroke-opacity:1" d="M 214.532,708.748 205.612,726.59 z" id="boundary" inkscape:connector-curvature="0" />
	<path style="fill:none;stroke:red;stroke-width:1px;stroke-linecap:butt;stroke-linejoin:miter;stroke-opacity:1" d="M 155.655,812.23 146.734,830.072 z" id="boundary" inkscape:connector-curvature="0" />
	<path style="fill:none;stroke:red;stroke-width:1px;stroke-linecap:butt;stroke-linejoin:miter;stroke-opacity:1" d="M 137.813,847.914 137.813,865.755 z" id="boundary" inkscape:connector-curvature="0" />
	<path style="fill:none;stroke:red;stroke-width:1px;stroke-linecap:butt;stroke-linejoin:miter;stroke-opacity:1" d="M 137.813,865.755 137.813,883.597 z" id="boundary" inkscape:connector-curvature="0" />
	<path style="fill:none;stroke:red;stroke-width:1px;stroke-linecap:butt;stroke-linejoin:miter;stroke-opacity:1" d="M 137.813,901.439 137.813,883.597 z" id="boundary" inkscape:connector-curvature="0" />
	<path style="fill:none;stroke:red;stroke-width:1px;stroke-linecap:butt;stroke-linejoin:miter;stroke-opacity:1" d="M 137.813,847.914 146.734,830.072 z" id="boundary" inkscape:connector-curvature="0" />
	<path style="fill:none;stroke:red;stroke-width:1px;stroke-linecap:butt;stroke-linejoin:miter;stroke-opacity:1" d="M 137.813,901.439 137.813,919.281 z" id="boundary" inkscape:connector-curvature="0" />
	<path style="fill:none;stroke:red;stroke-width:1px;stroke-linecap:butt;stroke-linejoin:miter;stroke-opacity:1" d="M 137.813,919.281 137.813,937.122 z" id="boundary" inkscape:connector-curvature="0" />
	<path style="fill:none;stroke:red;stroke-width:1px;stroke-linecap:butt;stroke-linejoin:miter;stroke-opacity:1" d="M 137.813,954.964 137.813,937.122 z" id="boundary" inkscape:connector-curvature="0" />
	<path style="fill:none;stroke:red;stroke-width:1px;stroke-linecap:butt;stroke-linejoin:miter;stroke-opacity:1" d="M 152.086,967.453 164.576,981.727 z" id="boundary" inkscape:connector-curvature="0" />
	<path style="fill:none;stroke:red;stroke-width:1px;stroke-linecap:butt;stroke-linejoin:miter;stroke-opacity:1" d="M 152.086,967.453 137.813,954.964 z" id="boundary" inkscape:connector-curvature="0" />
	<path style="fill:none;stroke:red;stroke-width:1px;stroke-linecap:butt;stroke-linejoin:miter;stroke-opacity:1" d="M 164.576,981.727 178.849,994.216 z" id="boundary" inkscape:connector-curvature="0" />
	<path style="fill:none;stroke:red;stroke-width:1px;stroke-linecap:butt;stroke-linejoin:miter;stroke-opacity:1" d="M 219.885,871.108 210.964,897.871 z" id="boundary" inkscape:connector-curvature="0" />
	<path style="fill:none;stroke:red;stroke-width:1px;stroke-linecap:butt;stroke-linejoin:miter;stroke-opacity:1" d="M 214.532,994.216 196.691,996 z" id="boundary" inkscape:connector-curvature="0" />
	<path style="fill:none;stroke:red;stroke-width:1px;stroke-linecap:butt;stroke-linejoin:miter;stroke-opacity:1" d="M 196.691,996 178.849,994.216 z" id="boundary" inkscape:connector-curvature="0" />
	<path style="fill:none;stroke:red;stroke-width:1px;stroke-linecap:butt;stroke-linejoin:miter;stroke-opacity:1" d="M 210.964,897.871 210.964,915.712 z" id="boundary" inkscape:connector-curvature="0" />
	<path style="fill:none;stroke:red;stroke-width:1px;stroke-linecap:butt;stroke-linejoin:miter;stroke-opacity:1" d="M 235.942,471.453 244.863,487.511 z" id="boundary" inkscape:connector-curvature="0" />
	<path style="fill:none;stroke:red;stroke-width:1px;stroke-linecap:butt;stroke-linejoin:miter;stroke-opacity:1" d="M 244.863,487.511 253.784,503.568 z" id="boundary" inkscape:connector-curvature="0" />
	<path style="fill:none;stroke:red;stroke-width:1px;stroke-linecap:butt;stroke-linejoin:miter;stroke-opacity:1" d="M 253.784,503.568 253.784,521.41 z" id="boundary" inkscape:connector-curvature="0" />
	<path style="fill:none;stroke:red;stroke-width:1px;stroke-linecap:butt;stroke-linejoin:miter;stroke-opacity:1" d="M 262.705,537.468 253.784,521.41 z" id="boundary" inkscape:connector-curvature="0" />
	<path style="fill:none;stroke:red;stroke-width:1px;stroke-linecap:butt;stroke-linejoin:miter;stroke-opacity:1" d="M 262.705,537.468 262.705,555.309 z" id="boundary" inkscape:connector-curvature="0" />
	<path style="fill:none;stroke:red;stroke-width:1px;stroke-linecap:butt;stroke-linejoin:miter;stroke-opacity:1" d="M 262.705,573.151 262.705,555.309 z" id="boundary" inkscape:connector-curvature="0" />
	<path style="fill:none;stroke:red;stroke-width:1px;stroke-linecap:butt;stroke-linejoin:miter;stroke-opacity:1" d="M 262.705,590.993 262.705,573.151 z" id="boundary" inkscape:connector-curvature="0" />
	<path style="fill:none;stroke:red;stroke-width:1px;stroke-linecap:butt;stroke-linejoin:miter;stroke-opacity:1" d="M 250.216,637.381 241.295,655.223 z" id="boundary" inkscape:connector-curvature="0" />
	<path style="fill:none;stroke:red;stroke-width:1px;stroke-linecap:butt;stroke-linejoin:miter;stroke-opacity:1" d="M 214.532,708.748 223.453,690.906 z" id="boundary" inkscape:connector-curvature="0" />
	<path style="fill:none;stroke:red;stroke-width:1px;stroke-linecap:butt;stroke-linejoin:miter;stroke-opacity:1" d="M 232.374,673.065 223.453,690.906 z" id="boundary" inkscape:connector-curvature="0" />
	<path style="fill:none;stroke:red;stroke-width:1px;stroke-linecap:butt;stroke-linejoin:miter;stroke-opacity:1" d="M 232.374,673.065 241.295,655.223 z" id="boundary" inkscape:connector-curvature="0" />
	<path style="fill:none;stroke:red;stroke-width:1px;stroke-linecap:butt;stroke-linejoin:miter;stroke-opacity:1" d="M 262.705,590.993 253.784,607.05 z" id="boundary" inkscape:connector-curvature="0" />
	<path style="fill:none;stroke:red;stroke-width:1px;stroke-linecap:butt;stroke-linejoin:miter;stroke-opacity:1" d="M 250.216,637.381 253.784,607.05 z" id="boundary" inkscape:connector-curvature="0" />
	<path style="fill:none;stroke:red;stroke-width:1px;stroke-linecap:butt;stroke-linejoin:miter;stroke-opacity:1" d="M 335.856,701.612 353.698,692.691 z" id="boundary" inkscape:connector-curvature="0" />
	<path style="fill:none;stroke:red;stroke-width:1px;stroke-linecap:butt;stroke-linejoin:miter;stroke-opacity:1" d="M 371.54,692.691 353.698,692.691 z" id="boundary" inkscape:connector-curvature="0" />
	<path style="fill:none;stroke:red;stroke-width:1px;stroke-linecap:butt;stroke-linejoin:miter;stroke-opacity:1" d="M 335.856,701.612 323.367,715.885 z" id="boundary" inkscape:connector-curvature="0" />
	<path style="fill:none;stroke:red;stroke-width:1px;stroke-linecap:butt;stroke-linejoin:miter;stroke-opacity:1" d="M 278.763,787.252 264.489,799.741 z" id="boundary" inkscape:connector-curvature="0" />
	<path style="fill:none;stroke:red;stroke-width:1px;stroke-linecap:butt;stroke-linejoin:miter;stroke-opacity:1" d="M 264.489,799.741 255.568,817.583 z" id="boundary" inkscape:connector-curvature="0" />
	<path style="fill:none;stroke:red;stroke-width:1px;stroke-linecap:butt;stroke-linejoin:miter;stroke-opacity:1" d="M 210.964,933.554 210.964,915.712 z" id="boundary" inkscape:connector-curvature="0" />
	<path style="fill:none;stroke:red;stroke-width:1px;stroke-linecap:butt;stroke-linejoin:miter;stroke-opacity:1" d="M 219.885,967.453 214.532,994.216 z" id="boundary" inkscape:connector-curvature="0" />
	<path style="fill:none;stroke:red;stroke-width:1px;stroke-linecap:butt;stroke-linejoin:miter;stroke-opacity:1" d="M 219.885,949.612 210.964,933.554 z" id="boundary" inkscape:connector-curvature="0" />
	<path style="fill:none;stroke:red;stroke-width:1px;stroke-linecap:butt;stroke-linejoin:miter;stroke-opacity:1" d="M 219.885,949.612 219.885,967.453 z" id="boundary" inkscape:connector-curvature="0" />
	<path style="fill:none;stroke:red;stroke-width:1px;stroke-linecap:butt;stroke-linejoin:miter;stroke-opacity:1" d="M 234.158,858.619 219.885,871.108 z" id="boundary" inkscape:connector-curvature="0" />
	<path style="fill:none;stroke:red;stroke-width:1px;stroke-linecap:butt;stroke-linejoin:miter;stroke-opacity:1" d="M 246.647,835.424 234.158,858.619 z" id="boundary" inkscape:connector-curvature="0" />
	<path style="fill:none;stroke:red;stroke-width:1px;stroke-linecap:butt;stroke-linejoin:miter;stroke-opacity:1" d="M 246.647,835.424 255.568,817.583 z" id="boundary" inkscape:connector-curvature="0" />
	<path style="fill:none;stroke:red;stroke-width:1px;stroke-linecap:butt;stroke-linejoin:miter;stroke-opacity:1" d="M 314.446,733.727 323.367,715.885 z" id="boundary" inkscape:connector-curvature="0" />
	<path style="fill:none;stroke:red;stroke-width:1px;stroke-linecap:butt;stroke-linejoin:miter;stroke-opacity:1" d="M 305.525,751.568 291.252,764.058 z" id="boundary" inkscape:connector-curvature="0" />
	<path style="fill:none;stroke:red;stroke-width:1px;stroke-linecap:butt;stroke-linejoin:miter;stroke-opacity:1" d="M 314.446,733.727 305.525,751.568 z" id="boundary" inkscape:connector-curvature="0" />
	<path style="fill:none;stroke:red;stroke-width:1px;stroke-linecap:butt;stroke-linejoin:miter;stroke-opacity:1" d="M 278.763,787.252 291.252,764.058 z" id="boundary" inkscape:connector-curvature="0" />
	<path style="fill:none;stroke:red;stroke-width:1px;stroke-linecap:butt;stroke-linejoin:miter;stroke-opacity:1" d="M 371.54,692.691 387.597,701.612 z" id="boundary" inkscape:connector-curvature="0" />
	<path style="fill:none;stroke:red;stroke-width:1px;stroke-linecap:butt;stroke-linejoin:miter;stroke-opacity:1" d="M 387.597,4 405.439,7.56835 z" id="boundary" inkscape:connector-curvature="0" />
	<path style="fill:none;stroke:red;stroke-width:1px;stroke-linecap:butt;stroke-linejoin:miter;stroke-opacity:1" d="M 407.223,25.4101 405.439,7.56835 z" id="boundary" inkscape:connector-curvature="0" />
	<path style="fill:none;stroke:red;stroke-width:1px;stroke-linecap:butt;stroke-linejoin:miter;stroke-opacity:1" d="M 407.223,25.4101 425.065,30.7626 z" id="boundary" inkscape:connector-curvature="0" />
	<path style="fill:none;stroke:red;stroke-width:1px;stroke-linecap:butt;stroke-linejoin:miter;stroke-opacity:1" d="M 442.906,30.7626 425.065,30.7626 z" id="boundary" inkscape:connector-curvature="0" />
	<path style="fill:none;stroke:red;stroke-width:1px;stroke-linecap:butt;stroke-linejoin:miter;stroke-opacity:1" d="M 389.381,148.518 407.223,148.518 z" id="boundary" inkscape:connector-curvature="0" />
	<path style="fill:none;stroke:red;stroke-width:1px;stroke-linecap:butt;stroke-linejoin:miter;stroke-opacity:1" d="M 389.381,184.201 389.381,166.36 z" id="boundary" inkscape:connector-curvature="0" />
	<path style="fill:none;stroke:red;stroke-width:1px;stroke-linecap:butt;stroke-linejoin:miter;stroke-opacity:1" d="M 389.381,166.36 389.381,148.518 z" id="boundary" inkscape:connector-curvature="0" />
	<path style="fill:none;stroke:red;stroke-width:1px;stroke-linecap:butt;stroke-linejoin:miter;stroke-opacity:1" d="M 425.065,148.518 407.223,148.518 z" id="boundary" inkscape:connector-curvature="0" />
	<path style="fill:none;stroke:red;stroke-width:1px;stroke-linecap:butt;stroke-linejoin:miter;stroke-opacity:1" d="M 425.065,148.518 442.906,148.518 z" id="boundary" inkscape:connector-curvature="0" />
	<path style="fill:none;stroke:red;stroke-width:1px;stroke-linecap:butt;stroke-linejoin:miter;stroke-opacity:1" d="M 392.95,202.043 389.381,184.201 z" id="boundary" inkscape:connector-curvature="0" />
	<path style="fill:none;stroke:red;stroke-width:1px;stroke-linecap:butt;stroke-linejoin:miter;stroke-opacity:1" d="M 451.827,46.8201 442.906,30.7626 z" id="boundary" inkscape:connector-curvature="0" />
	<path style="fill:none;stroke:red;stroke-width:1px;stroke-linecap:butt;stroke-linejoin:miter;stroke-opacity:1" d="M 451.827,46.8201 451.827,64.6619 z" id="boundary" inkscape:connector-curvature="0" />
	<path style="fill:none;stroke:red;stroke-width:1px;stroke-linecap:butt;stroke-linejoin:miter;stroke-opacity:1" d="M 466.101,75.3669 451.827,64.6619 z" id="boundary" inkscape:connector-curvature="0" />
	<path style="fill:none;stroke:red;stroke-width:1px;stroke-linecap:butt;stroke-linejoin:miter;stroke-opacity:1" d="M 466.101,75.3669 478.59,89.6403 z" id="boundary" inkscape:connector-curvature="0" />
	<path style="fill:none;stroke:red;stroke-width:1px;stroke-linecap:butt;stroke-linejoin:miter;stroke-opacity:1" d="M 478.59,89.6403 478.59,107.482 z" id="boundary" inkscape:connector-curvature="0" />
	<path style="fill:none;stroke:red;stroke-width:1px;stroke-linecap:butt;stroke-linejoin:miter;stroke-opacity:1" d="M 460.748,148.518 442.906,148.518 z" id="boundary" inkscape:connector-curvature="0" />
	<path style="fill:none;stroke:red;stroke-width:1px;stroke-linecap:butt;stroke-linejoin:miter;stroke-opacity:1" d="M 478.59,107.482 478.59,125.324 z" id="boundary" inkscape:connector-curvature="0" />
	<path style="fill:none;stroke:red;stroke-width:1px;stroke-linecap:butt;stroke-linejoin:miter;stroke-opacity:1" d="M 478.59,143.165 478.59,125.324 z" id="boundary" inkscape:connector-curvature="0" />
	<path style="fill:none;stroke:red;stroke-width:1px;stroke-linecap:butt;stroke-linejoin:miter;stroke-opacity:1" d="M 460.748,148.518 478.59,143.165 z" id="boundary" inkscape:connector-curvature="0" />
	<path style="fill:none;stroke:red;stroke-width:1px;stroke-linecap:butt;stroke-linejoin:miter;stroke-opacity:1" d="M 435.77,227.022 417.928,227.022 z" id="boundary" inkscape:connector-curvature="0" />
	<path style="fill:none;stroke:red;stroke-width:1px;stroke-linecap:butt;stroke-linejoin:miter;stroke-opacity:1" d="M 401.871,218.101 392.95,202.043 z" id="boundary" inkscape:connector-curvature="0" />
	<path style="fill:none;stroke:red;stroke-width:1px;stroke-linecap:butt;stroke-linejoin:miter;stroke-opacity:1" d="M 417.928,227.022 401.871,218.101 z" id="boundary" inkscape:connector-curvature="0" />
	<path style="fill:none;stroke:red;stroke-width:1px;stroke-linecap:butt;stroke-linejoin:miter;stroke-opacity:1" d="M 453.612,227.022 435.77,227.022 z" id="boundary" inkscape:connector-curvature="0" />
	<path style="fill:none;stroke:red;stroke-width:1px;stroke-linecap:butt;stroke-linejoin:miter;stroke-opacity:1" d="M 451.827,380.46 442.906,398.302 z" id="boundary" inkscape:connector-curvature="0" />
	<path style="fill:none;stroke:red;stroke-width:1px;stroke-linecap:butt;stroke-linejoin:miter;stroke-opacity:1" d="M 433.986,478.59 433.986,460.748 z" id="boundary" inkscape:connector-curvature="0" />
	<path style="fill:none;stroke:red;stroke-width:1px;stroke-linecap:butt;stroke-linejoin:miter;stroke-opacity:1" d="M 442.906,433.986 433.986,460.748 z" id="boundary" inkscape:connector-curvature="0" />
	<path style="fill:none;stroke:red;stroke-width:1px;stroke-linecap:butt;stroke-linejoin:miter;stroke-opacity:1" d="M 442.906,398.302 442.906,416.144 z" id="boundary" inkscape:connector-curvature="0" />
	<path style="fill:none;stroke:red;stroke-width:1px;stroke-linecap:butt;stroke-linejoin:miter;stroke-opacity:1" d="M 460.748,344.777 451.827,362.619 z" id="boundary" inkscape:connector-curvature="0" />
	<path style="fill:none;stroke:red;stroke-width:1px;stroke-linecap:butt;stroke-linejoin:miter;stroke-opacity:1" d="M 433.986,478.59 433.986,496.432 z" id="boundary" inkscape:connector-curvature="0" />
	<path style="fill:none;stroke:red;stroke-width:1px;stroke-linecap:butt;stroke-linejoin:miter;stroke-opacity:1" d="M 442.906,433.986 442.906,416.144 z" id="boundary" inkscape:connector-curvature="0" />
	<path style="fill:none;stroke:red;stroke-width:1px;stroke-linecap:butt;stroke-linejoin:miter;stroke-opacity:1" d="M 451.827,362.619 451.827,380.46 z" id="boundary" inkscape:connector-curvature="0" />
	<path style="fill:none;stroke:red;stroke-width:1px;stroke-linecap:butt;stroke-linejoin:miter;stroke-opacity:1" d="M 453.612,227.022 471.453,227.022 z" id="boundary" inkscape:connector-curvature="0" />
	<path style="fill:none;stroke:red;stroke-width:1px;stroke-linecap:butt;stroke-linejoin:miter;stroke-opacity:1" d="M 478.59,335.856 460.748,344.777 z" id="boundary" inkscape:connector-curvature="0" />
	<path style="fill:none;stroke:red;stroke-width:1px;stroke-linecap:butt;stroke-linejoin:miter;stroke-opacity:1" d="M 494.647,344.777 478.59,335.856 z" id="boundary" inkscape:connector-curvature="0" />
	<path style="fill:none;stroke:red;stroke-width:1px;stroke-linecap:butt;stroke-linejoin:miter;stroke-opacity:1" d="M 471.453,227.022 487.511,235.942 z" id="boundary" inkscape:connector-curvature="0" />
	<path style="fill:none;stroke:red;stroke-width:1px;stroke-linecap:butt;stroke-linejoin:miter;stroke-opacity:1" d="M 494.647,344.777 510.705,353.698 z" id="boundary" inkscape:connector-curvature="0" />
	<path style="fill:none;stroke:red;stroke-width:1px;stroke-linecap:butt;stroke-linejoin:miter;stroke-opacity:1" d="M 487.511,235.942 505.353,241.295 z" id="boundary" inkscape:connector-curvature="0" />
	<path style="fill:none;stroke:red;stroke-width:1px;stroke-linecap:butt;stroke-linejoin:miter;stroke-opacity:1" d="M 505.353,241.295 521.41,250.216 z" id="boundary" inkscape:connector-curvature="0" />
	<path style="fill:none;stroke:red;stroke-width:1px;stroke-linecap:butt;stroke-linejoin:miter;stroke-opacity:1" d="M 521.41,250.216 539.252,257.353 z" id="boundary" inkscape:connector-curvature="0" />
	<path style="fill:none;stroke:red;stroke-width:1px;stroke-linecap:butt;stroke-linejoin:miter;stroke-opacity:1" d="M 549.957,271.626 539.252,257.353 z" id="boundary" inkscape:connector-curvature="0" />
	<path style="fill:none;stroke:red;stroke-width:1px;stroke-linecap:butt;stroke-linejoin:miter;stroke-opacity:1" d="M 558.878,287.683 549.957,271.626 z" id="boundary" inkscape:connector-curvature="0" />
	<path style="fill:none;stroke:red;stroke-width:1px;stroke-linecap:butt;stroke-linejoin:miter;stroke-opacity:1" d="M 558.878,287.683 573.151,300.173 z" id="boundary" inkscape:connector-curvature="0" />
	<path style="fill:none;stroke:red;stroke-width:1px;stroke-linecap:butt;stroke-linejoin:miter;stroke-opacity:1" d="M 585.64,314.446 573.151,300.173 z" id="boundary" inkscape:connector-curvature="0" />
	<path style="fill:none;stroke:red;stroke-width:1px;stroke-linecap:butt;stroke-linejoin:miter;stroke-opacity:1" d="M 585.64,314.446 599.914,326.935 z" id="boundary" inkscape:connector-curvature="0" />
	<path style="fill:none;stroke:red;stroke-width:1px;stroke-linecap:butt;stroke-linejoin:miter;stroke-opacity:1" d="M 607.05,344.777 599.914,326.935 z" id="boundary" inkscape:connector-curvature="0" />
	<path style="fill:none;stroke:red;stroke-width:1px;stroke-linecap:butt;stroke-linejoin:miter;stroke-opacity:1" d="M 621.324,357.266 607.05,344.777 z" id="boundary" inkscape:connector-curvature="0" />
	<path style="fill:none;stroke:red;stroke-width:1px;stroke-linecap:butt;stroke-linejoin:miter;stroke-opacity:1" d="M 526.763,362.619 510.705,353.698 z" id="boundary" inkscape:connector-curvature="0" />
	<path style="fill:none;stroke:red;stroke-width:1px;stroke-linecap:butt;stroke-linejoin:miter;stroke-opacity:1" d="M 535.683,378.676 526.763,362.619 z" id="boundary" inkscape:connector-curvature="0" />
	<path style="fill:none;stroke:red;stroke-width:1px;stroke-linecap:butt;stroke-linejoin:miter;stroke-opacity:1" d="M 551.741,387.597 535.683,378.676 z" id="boundary" inkscape:connector-curvature="0" />
	<path style="fill:none;stroke:red;stroke-width:1px;stroke-linecap:butt;stroke-linejoin:miter;stroke-opacity:1" d="M 566.014,398.302 551.741,387.597 z" id="boundary" inkscape:connector-curvature="0" />
	<path style="fill:none;stroke:red;stroke-width:1px;stroke-linecap:butt;stroke-linejoin:miter;stroke-opacity:1" d="M 576.719,412.576 566.014,398.302 z" id="boundary" inkscape:connector-curvature="0" />
	<path style="fill:none;stroke:red;stroke-width:1px;stroke-linecap:butt;stroke-linejoin:miter;stroke-opacity:1" d="M 590.993,425.065 576.719,412.576 z" id="boundary" inkscape:connector-curvature="0" />
	<path style="fill:none;stroke:red;stroke-width:1px;stroke-linecap:butt;stroke-linejoin:miter;stroke-opacity:1" d="M 590.993,425.065 608.835,425.065 z" id="boundary" inkscape:connector-curvature="0" />
	<path style="fill:none;stroke:red;stroke-width:1px;stroke-linecap:butt;stroke-linejoin:miter;stroke-opacity:1" d="M 621.324,357.266 639.165,360.835 z" id="boundary" inkscape:connector-curvature="0" />
	<path style="fill:none;stroke:red;stroke-width:1px;stroke-linecap:butt;stroke-linejoin:miter;stroke-opacity:1" d="M 657.007,360.835 674.849,360.835 z" id="boundary" inkscape:connector-curvature="0" />
	<path style="fill:none;stroke:red;stroke-width:1px;stroke-linecap:butt;stroke-linejoin:miter;stroke-opacity:1" d="M 639.165,360.835 657.007,360.835 z" id="boundary" inkscape:connector-curvature="0" />
	<path style="fill:none;stroke:red;stroke-width:1px;stroke-linecap:butt;stroke-linejoin:miter;stroke-opacity:1" d="M 674.849,360.835 692.691,366.187 z" id="boundary" inkscape:connector-curvature="0" />
	<path style="fill:none;stroke:red;stroke-width:1px;stroke-linecap:butt;stroke-linejoin:miter;stroke-opacity:1" d="M 692.691,366.187 705.18,380.46 z" id="boundary" inkscape:connector-curvature="0" />
	<path style="fill:none;stroke:red;stroke-width:1px;stroke-linecap:butt;stroke-linejoin:miter;stroke-opacity:1" d="M 705.18,380.46 692.691,407.223 z" id="boundary" inkscape:connector-curvature="0" />
	<path style="fill:none;stroke:red;stroke-width:1px;stroke-linecap:butt;stroke-linejoin:miter;stroke-opacity:1" d="M 624.892,433.986 608.835,425.065 z" id="boundary" inkscape:connector-curvature="0" />
	<path style="fill:none;stroke:red;stroke-width:1px;stroke-linecap:butt;stroke-linejoin:miter;stroke-opacity:1" d="M 642.734,433.986 624.892,433.986 z" id="boundary" inkscape:connector-curvature="0" />
	<path style="fill:none;stroke:red;stroke-width:1px;stroke-linecap:butt;stroke-linejoin:miter;stroke-opacity:1" d="M 692.691,407.223 674.849,416.144 z" id="boundary" inkscape:connector-curvature="0" />
	<path style="fill:none;stroke:red;stroke-width:1px;stroke-linecap:butt;stroke-linejoin:miter;stroke-opacity:1" d="M 642.734,433.986 658.791,425.065 z" id="boundary" inkscape:connector-curvature="0" />
	<path style="fill:none;stroke:red;stroke-width:1px;stroke-linecap:butt;stroke-linejoin:miter;stroke-opacity:1" d="M 674.849,416.144 658.791,425.065 z" id="boundary" inkscape:connector-curvature="0" />
	<path style="fill:none;stroke:red;stroke-width:1px;stroke-linecap:butt;stroke-linejoin:miter;stroke-opacity:1" d="M 425.065,523.194 425.065,541.036 z" id="boundary" inkscape:connector-curvature="0" />
	<path style="fill:none;stroke:red;stroke-width:1px;stroke-linecap:butt;stroke-linejoin:miter;stroke-opacity:1" d="M 425.065,541.036 428.633,558.878 z" id="boundary" inkscape:connector-curvature="0" />
	<path style="fill:none;stroke:red;stroke-width:1px;stroke-linecap:butt;stroke-linejoin:miter;stroke-opacity:1" d="M 442.906,592.777 433.986,576.719 z" id="boundary" inkscape:connector-curvature="0" />
	<path style="fill:none;stroke:red;stroke-width:1px;stroke-linecap:butt;stroke-linejoin:miter;stroke-opacity:1" d="M 433.986,576.719 428.633,558.878 z" id="boundary" inkscape:connector-curvature="0" />
	<path style="fill:none;stroke:red;stroke-width:1px;stroke-linecap:butt;stroke-linejoin:miter;stroke-opacity:1" d="M 425.065,523.194 433.986,496.432 z" id="boundary" inkscape:connector-curvature="0" />
	<path style="fill:none;stroke:red;stroke-width:1px;stroke-linecap:butt;stroke-linejoin:miter;stroke-opacity:1" d="M 403.655,710.532 387.597,701.612 z" id="boundary" inkscape:connector-curvature="0" />
	<path style="fill:none;stroke:red;stroke-width:1px;stroke-linecap:butt;stroke-linejoin:miter;stroke-opacity:1" d="M 403.655,710.532 410.791,728.374 z" id="boundary" inkscape:connector-curvature="0" />
	<path style="fill:none;stroke:red;stroke-width:1px;stroke-linecap:butt;stroke-linejoin:miter;stroke-opacity:1" d="M 410.791,728.374 425.065,740.863 z" id="boundary" inkscape:connector-curvature="0" />
	<path style="fill:none;stroke:red;stroke-width:1px;stroke-linecap:butt;stroke-linejoin:miter;stroke-opacity:1" d="M 442.906,592.777 451.827,608.835 z" id="boundary" inkscape:connector-curvature="0" />
	<path style="fill:none;stroke:red;stroke-width:1px;stroke-linecap:butt;stroke-linejoin:miter;stroke-opacity:1" d="M 460.748,624.892 467.885,642.734 z" id="boundary" inkscape:connector-curvature="0" />
	<path style="fill:none;stroke:red;stroke-width:1px;stroke-linecap:butt;stroke-linejoin:miter;stroke-opacity:1" d="M 460.748,624.892 451.827,608.835 z" id="boundary" inkscape:connector-curvature="0" />
	<path style="fill:none;stroke:red;stroke-width:1px;stroke-linecap:butt;stroke-linejoin:miter;stroke-opacity:1" d="M 467.885,642.734 476.806,658.791 z" id="boundary" inkscape:connector-curvature="0" />
	<path style="fill:none;stroke:red;stroke-width:1px;stroke-linecap:butt;stroke-linejoin:miter;stroke-opacity:1" d="M 476.806,658.791 487.511,673.065 z" id="boundary" inkscape:connector-curvature="0" />
	<path style="fill:none;stroke:red;stroke-width:1px;stroke-linecap:butt;stroke-linejoin:miter;stroke-opacity:1" d="M 501.784,683.77 487.511,673.065 z" id="boundary" inkscape:connector-curvature="0" />
	<path style="fill:none;stroke:red;stroke-width:1px;stroke-linecap:butt;stroke-linejoin:miter;stroke-opacity:1" d="M 508.921,701.612 501.784,683.77 z" id="boundary" inkscape:connector-curvature="0" />
	<path style="fill:none;stroke:red;stroke-width:1px;stroke-linecap:butt;stroke-linejoin:miter;stroke-opacity:1" d="M 508.921,701.612 523.194,714.101 z" id="boundary" inkscape:connector-curvature="0" />
	<path style="fill:none;stroke:red;stroke-width:1px;stroke-linecap:butt;stroke-linejoin:miter;stroke-opacity:1" d="M 532.115,730.158 523.194,714.101 z" id="boundary" inkscape:connector-curvature="0" />
	<path style="fill:none;stroke:red;stroke-width:1px;stroke-linecap:butt;stroke-linejoin:miter;stroke-opacity:1" d="M 548.173,739.079 532.115,730.158 z" id="boundary" inkscape:connector-curvature="0" />
	<path style="fill:none;stroke:red;stroke-width:1px;stroke-linecap:butt;stroke-linejoin:miter;stroke-opacity:1" d="M 437.554,755.137 450.043,769.41 z" id="boundary" inkscape:connector-curvature="0" />
	<path style="fill:none;stroke:red;stroke-width:1px;stroke-linecap:butt;stroke-linejoin:miter;stroke-opacity:1" d="M 437.554,755.137 425.065,740.863 z" id="boundary" inkscape:connector-curvature="0" />
	<path style="fill:none;stroke:red;stroke-width:1px;stroke-linecap:butt;stroke-linejoin:miter;stroke-opacity:1" d="M 458.964,785.468 450.043,769.41 z" id="boundary" inkscape:connector-curvature="0" />
	<path style="fill:none;stroke:red;stroke-width:1px;stroke-linecap:butt;stroke-linejoin:miter;stroke-opacity:1" d="M 473.237,797.957 485.727,812.23 z" id="boundary" inkscape:connector-curvature="0" />
	<path style="fill:none;stroke:red;stroke-width:1px;stroke-linecap:butt;stroke-linejoin:miter;stroke-opacity:1" d="M 473.237,797.957 458.964,785.468 z" id="boundary" inkscape:connector-curvature="0" />
	<path style="fill:none;stroke:red;stroke-width:1px;stroke-linecap:butt;stroke-linejoin:miter;stroke-opacity:1" d="M 500,824.719 485.727,812.23 z" id="boundary" inkscape:connector-curvature="0" />
	<path style="fill:none;stroke:red;stroke-width:1px;stroke-linecap:butt;stroke-linejoin:miter;stroke-opacity:1" d="M 500,824.719 512.489,838.993 z" id="boundary" inkscape:connector-curvature="0" />
	<path style="fill:none;stroke:red;stroke-width:1px;stroke-linecap:butt;stroke-linejoin:miter;stroke-opacity:1" d="M 512.489,838.993 526.763,851.482 z" id="boundary" inkscape:connector-curvature="0" />
	<path style="fill:none;stroke:red;stroke-width:1px;stroke-linecap:butt;stroke-linejoin:miter;stroke-opacity:1" d="M 533.899,869.324 526.763,851.482 z" id="boundary" inkscape:connector-curvature="0" />
	<path style="fill:none;stroke:red;stroke-width:1px;stroke-linecap:butt;stroke-linejoin:miter;stroke-opacity:1" d="M 533.899,869.324 551.741,876.46 z" id="boundary" inkscape:connector-curvature="0" />
	<path style="fill:none;stroke:red;stroke-width:1px;stroke-linecap:butt;stroke-linejoin:miter;stroke-opacity:1" d="M 548.173,739.079 555.309,756.921 z" id="boundary" inkscape:connector-curvature="0" />
	<path style="fill:none;stroke:red;stroke-width:1px;stroke-linecap:butt;stroke-linejoin:miter;stroke-opacity:1" d="M 555.309,756.921 567.799,771.194 z" id="boundary" inkscape:connector-curvature="0" />
	<path style="fill:none;stroke:red;stroke-width:1px;stroke-linecap:butt;stroke-linejoin:miter;stroke-opacity:1" d="M 567.799,771.194 576.719,787.252 z" id="boundary" inkscape:connector-curvature="0" />
	<path style="fill:none;stroke:red;stroke-width:1px;stroke-linecap:butt;stroke-linejoin:miter;stroke-opacity:1" d="M 590.993,799.741 603.482,814.014 z" id="boundary" inkscape:connector-curvature="0" />
	<path style="fill:none;stroke:red;stroke-width:1px;stroke-linecap:butt;stroke-linejoin:miter;stroke-opacity:1" d="M 603.482,814.014 612.403,830.072 z" id="boundary" inkscape:connector-curvature="0" />
	<path style="fill:none;stroke:red;stroke-width:1px;stroke-linecap:butt;stroke-linejoin:miter;stroke-opacity:1" d="M 590.993,799.741 576.719,787.252 z" id="boundary" inkscape:connector-curvature="0" />
	<path style="fill:none;stroke:red;stroke-width:1px;stroke-linecap:butt;stroke-linejoin:miter;stroke-opacity:1" d="M 639.165,856.835 624.892,844.345 z" id="boundary" inkscape:connector-curvature="0" />
	<path style="fill:none;stroke:red;stroke-width:1px;stroke-linecap:butt;stroke-linejoin:miter;stroke-opacity:1" d="M 624.892,844.345 612.403,830.072 z" id="boundary" inkscape:connector-curvature="0" />
	<path style="fill:none;stroke:red;stroke-width:1px;stroke-linecap:butt;stroke-linejoin:miter;stroke-opacity:1" d="M 566.014,888.95 551.741,876.46 z" id="boundary" inkscape:connector-curvature="0" />
	<path style="fill:none;stroke:red;stroke-width:1px;stroke-linecap:butt;stroke-linejoin:miter;stroke-opacity:1" d="M 639.165,856.835 651.655,871.108 z" id="boundary" inkscape:connector-curvature="0" />
	<path style="fill:none;stroke:red;stroke-width:1px;stroke-linecap:butt;stroke-linejoin:miter;stroke-opacity:1" d="M 582.072,897.871 594.561,912.144 z" id="boundary" inkscape:connector-curvature="0" />
	<path style="fill:none;stroke:red;stroke-width:1px;stroke-linecap:butt;stroke-linejoin:miter;stroke-opacity:1" d="M 582.072,897.871 566.014,888.95 z" id="boundary" inkscape:connector-curvature="0" />
	<path style="fill:none;stroke:red;stroke-width:1px;stroke-linecap:butt;stroke-linejoin:miter;stroke-opacity:1" d="M 612.403,919.281 594.561,912.144 z" id="boundary" inkscape:connector-curvature="0" />
	<path style="fill:none;stroke:red;stroke-width:1px;stroke-linecap:butt;stroke-linejoin:miter;stroke-opacity:1" d="M 612.403,919.281 628.46,928.201 z" id="boundary" inkscape:connector-curvature="0" />
	<path style="fill:none;stroke:red;stroke-width:1px;stroke-linecap:butt;stroke-linejoin:miter;stroke-opacity:1" d="M 646.302,933.554 628.46,928.201 z" id="boundary" inkscape:connector-curvature="0" />
	<path style="fill:none;stroke:red;stroke-width:1px;stroke-linecap:butt;stroke-linejoin:miter;stroke-opacity:1" d="M 651.655,871.108 665.928,883.597 z" id="boundary" inkscape:connector-curvature="0" />
	<path style="fill:none;stroke:red;stroke-width:1px;stroke-linecap:butt;stroke-linejoin:miter;stroke-opacity:1" d="M 680.201,896.086 665.928,883.597 z" id="boundary" inkscape:connector-curvature="0" />
	<path style="fill:none;stroke:red;stroke-width:1px;stroke-linecap:butt;stroke-linejoin:miter;stroke-opacity:1" d="M 680.201,896.086 696.259,905.007 z" id="boundary" inkscape:connector-curvature="0" />
	<path style="fill:none;stroke:red;stroke-width:1px;stroke-linecap:butt;stroke-linejoin:miter;stroke-opacity:1" d="M 662.36,942.475 646.302,933.554 z" id="boundary" inkscape:connector-curvature="0" />
	<path style="fill:none;stroke:red;stroke-width:1px;stroke-linecap:butt;stroke-linejoin:miter;stroke-opacity:1" d="M 696.259,905.007 712.317,913.928 z" id="boundary" inkscape:connector-curvature="0" />
	<path style="fill:none;stroke:red;stroke-width:1px;stroke-linecap:butt;stroke-linejoin:miter;stroke-opacity:1" d="M 712.317,913.928 728.374,922.849 z" id="boundary" inkscape:connector-curvature="0" />
	<path style="fill:none;stroke:red;stroke-width:1px;stroke-linecap:butt;stroke-linejoin:miter;stroke-opacity:1" d="M 680.201,942.475 662.36,942.475 z" id="boundary" inkscape:connector-curvature="0" />
	<path style="fill:none;stroke:red;stroke-width:1px;stroke-linecap:butt;stroke-linejoin:miter;stroke-opacity:1" d="M 680.201,942.475 696.259,951.396 z" id="boundary" inkscape:connector-curvature="0" />
	<path style="fill:none;stroke:red;stroke-width:1px;stroke-linecap:butt;stroke-linejoin:miter;stroke-opacity:1" d="M 696.259,951.396 714.101,951.396 z" id="boundary" inkscape:connector-curvature="0" />
	<path style="fill:none;stroke:red;stroke-width:1px;stroke-linecap:butt;stroke-linejoin:miter;stroke-opacity:1" d="M 728.374,922.849 731.942,949.612 z" id="boundary" inkscape:connector-curvature="0" />
	<path style="fill:none;stroke:red;stroke-width:1px;stroke-linecap:butt;stroke-linejoin:miter;stroke-opacity:1" d="M 731.942,949.612 714.101,951.396 z" id="boundary" inkscape:connector-curvature="0" />
	<circle cx="4" cy="464.317" r="4" fill="#0" id="circle0"/>
	<circle cx="4" cy="482.158" r="4" fill="#0" id="circle1"/>
	<circle cx="12.9209" cy="446.475" r="4" fill="#0" id="circle2"/>
	<circle cx="12.9209" cy="498.216" r="4" fill="#0" id="circle3"/>
	<circle cx="27.1942" cy="432.201" r="4" fill="#0" id="circle4"/>
	<circle cx="30.7626" cy="500" r="4" fill="#0" id="circle5"/>
	<circle cx="36.1151" cy="414.36" r="4" fill="#0" id="circle6"/>
	<circle cx="45.036" cy="485.727" r="4" fill="#0" id="circle7"/>
	<circle cx="48.6043" cy="392.95" r="4" fill="#0" id="circle8"/>
	<circle cx="57.5252" cy="375.108" r="4" fill="#0" id="circle9"/>
	<circle cx="59.3094" cy="469.669" r="4" fill="#0" id="circle10"/>
	<circle cx="66.446" cy="357.266" r="4" fill="#0" id="circle11"/>
	<circle cx="77.1511" cy="460.748" r="4" fill="#0" id="circle12"/>
	<circle cx="80.7194" cy="342.993" r="4" fill="#0" id="circle13"/>
	<circle cx="91.4245" cy="448.259" r="4" fill="#0" id="circle14"/>
	<circle cx="93.2086" cy="321.583" r="4" fill="#0" id="circle15"/>
	<circle cx="102.129" cy="294.82" r="4" fill="#0" id="circle16"/>
	<circle cx="103.914" cy="425.065" r="4" fill="#0" id="circle17"/>
	<circle cx="116.403" cy="280.547" r="4" fill="#0" id="circle18"/>
	<circle cx="118.187" cy="412.576" r="4" fill="#0" id="circle19"/>
	<circle cx="130.676" cy="389.381" r="4" fill="#0" id="circle20"/>
	<circle cx="134.245" cy="271.626" r="4" fill="#0" id="circle21"/>
	<circle cx="137.813" cy="847.914" r="4" fill="#0" id="circle22"/>
	<circle cx="137.813" cy="865.755" r="4" fill="#0" id="circle23"/>
	<circle cx="137.813" cy="883.597" r="4" fill="#0" id="circle24"/>
	<circle cx="137.813" cy="901.439" r="4" fill="#0" id="circle25"/>
	<circle cx="137.813" cy="919.281" r="4" fill="#0" id="circle26"/>
	<circle cx="137.813" cy="937.122" r="4" fill="#0" id="circle27"/>
	<circle cx="137.813" cy="954.964" r="4" fill="#0" id="circle28"/>
	<circle cx="144.95" cy="376.892" r="4" fill="#0" id="circle29"/>
	<circle cx="146.734" cy="830.072" r="4" fill="#0" id="circle30"/>
	<circle cx="148.518" cy="257.353" r="4" fill="#0" id="circle31"/>
	<circle cx="152.086" cy="967.453" r="4" fill="#0" id="circle32"/>
	<circle cx="155.655" cy="812.23" r="4" fill="#0" id="circle33"/>
	<circle cx="162.791" cy="367.971" r="4" fill="#0" id="circle34"/>
	<circle cx="164.576" cy="794.388" r="4" fill="#0" id="circle35"/>
	<circle cx="164.576" cy="981.727" r="4" fill="#0" id="circle36"/>
	<circle cx="166.36" cy="248.432" r="4" fill="#0" id="circle37"/>
	<circle cx="173.496" cy="776.547" r="4" fill="#0" id="circle38"/>
	<circle cx="178.849" cy="994.216" r="4" fill="#0" id="circle39"/>
	<circle cx="180.633" cy="362.619" r="4" fill="#0" id="circle40"/>
	<circle cx="182.417" cy="53.9568" r="4" fill="#0" id="circle41"/>
	<circle cx="182.417" cy="71.7986" r="4" fill="#0" id="circle42"/>
	<circle cx="182.417" cy="758.705" r="4" fill="#0" id="circle43"/>
	<circle cx="184.201" cy="239.511" r="4" fill="#0" id="circle44"/>
	<circle cx="191.338" cy="87.8561" r="4" fill="#0" id="circle45"/>
	<circle cx="191.338" cy="105.698" r="4" fill="#0" id="circle46"/>
	<circle cx="191.338" cy="123.54" r="4" fill="#0" id="circle47"/>
	<circle cx="191.338" cy="141.381" r="4" fill="#0" id="circle48"/>
	<circle cx="191.338" cy="740.863" r="4" fill="#0" id="circle49"/>
	<circle cx="196.691" cy="371.54" r="4" fill="#0" id="circle50"/>
	<circle cx="196.691" cy="996" r="4" fill="#0" id="circle51"/>
	<circle cx="200.259" cy="48.6043" r="4" fill="#0" id="circle52"/>
	<circle cx="202.043" cy="235.942" r="4" fill="#0" id="circle53"/>
	<circle cx="205.612" cy="726.59" r="4" fill="#0" id="circle54"/>
	<circle cx="209.18" cy="148.518" r="4" fill="#0" id="circle55"/>
	<circle cx="209.18" cy="385.813" r="4" fill="#0" id="circle56"/>
	<circle cx="210.964" cy="403.655" r="4" fill="#0" id="circle57"/>
	<circle cx="210.964" cy="897.871" r="4" fill="#0" id="circle58"/>
	<circle cx="210.964" cy="915.712" r="4" fill="#0" id="circle59"/>
	<circle cx="210.964" cy="933.554" r="4" fill="#0" id="circle60"/>
	<circle cx="214.532" cy="708.748" r="4" fill="#0" id="circle61"/>
	<circle cx="214.532" cy="994.216" r="4" fill="#0" id="circle62"/>
	<circle cx="218.101" cy="48.6043" r="4" fill="#0" id="circle63"/>
	<circle cx="219.885" cy="235.942" r="4" fill="#0" id="circle64"/>
	<circle cx="219.885" cy="419.712" r="4" fill="#0" id="circle65"/>
	<circle cx="219.885" cy="871.108" r="4" fill="#0" id="circle66"/>
	<circle cx="219.885" cy="949.612" r="4" fill="#0" id="circle67"/>
	<circle cx="219.885" cy="967.453" r="4" fill="#0" id="circle68"/>
	<circle cx="223.453" cy="690.906" r="4" fill="#0" id="circle69"/>
	<circle cx="227.022" cy="148.518" r="4" fill="#0" id="circle70"/>
	<circle cx="227.022" cy="437.554" r="4" fill="#0" id="circle71"/>
	<circle cx="228.806" cy="34.3309" r="4" fill="#0" id="circle72"/>
	<circle cx="232.374" cy="673.065" r="4" fill="#0" id="circle73"/>
	<circle cx="234.158" cy="858.619" r="4" fill="#0" id="circle74"/>
	<circle cx="235.942" cy="453.612" r="4" fill="#0" id="circle75"/>
	<circle cx="235.942" cy="471.453" r="4" fill="#0" id="circle76"/>
	<circle cx="237.727" cy="230.59" r="4" fill="#0" id="circle77"/>
	<circle cx="241.295" cy="655.223" r="4" fill="#0" id="circle78"/>
	<circle cx="244.863" cy="9.35252" r="4" fill="#0" id="circle79"/>
	<circle cx="244.863" cy="148.518" r="4" fill="#0" id="circle80"/>
	<circle cx="244.863" cy="166.36" r="4" fill="#0" id="circle81"/>
	<circle cx="244.863" cy="487.511" r="4" fill="#0" id="circle82"/>
	<circle cx="246.647" cy="835.424" r="4" fill="#0" id="circle83"/>
	<circle cx="250.216" cy="184.201" r="4" fill="#0" id="circle84"/>
	<circle cx="250.216" cy="637.381" r="4" fill="#0" id="circle85"/>
	<circle cx="252" cy="218.101" r="4" fill="#0" id="circle86"/>
	<circle cx="253.784" cy="503.568" r="4" fill="#0" id="circle87"/>
	<circle cx="253.784" cy="521.41" r="4" fill="#0" id="circle88"/>
	<circle cx="253.784" cy="607.05" r="4" fill="#0" id="circle89"/>
	<circle cx="255.568" cy="817.583" r="4" fill="#0" id="circle90"/>
	<circle cx="262.705" cy="4" r="4" fill="#0" id="circle91"/>
	<circle cx="262.705" cy="537.468" r="4" fill="#0" id="circle92"/>
	<circle cx="262.705" cy="555.309" r="4" fill="#0" id="circle93"/>
	<circle cx="262.705" cy="573.151" r="4" fill="#0" id="circle94"/>
	<circle cx="262.705" cy="590.993" r="4" fill="#0" id="circle95"/>
	<circle cx="264.489" cy="799.741" r="4" fill="#0" id="circle96"/>
	<circle cx="278.763" cy="787.252" r="4" fill="#0" id="circle97"/>
	<circle cx="280.547" cy="4" r="4" fill="#0" id="circle98"/>
	<circle cx="291.252" cy="764.058" r="4" fill="#0" id="circle99"/>
	<circle cx="298.388" cy="4" r="4" fill="#0" id="circle100"/>
	<circle cx="305.525" cy="751.568" r="4" fill="#0" id="circle101"/>
	<circle cx="314.446" cy="733.727" r="4" fill="#0" id="circle102"/>
	<circle cx="316.23" cy="4" r="4" fill="#0" id="circle103"/>
	<circle cx="323.367" cy="715.885" r="4" fill="#0" id="circle104"/>
	<circle cx="334.072" cy="4" r="4" fill="#0" id="circle105"/>
	<circle cx="335.856" cy="701.612" r="4" fill="#0" id="circle106"/>
	<circle cx="351.914" cy="4" r="4" fill="#0" id="circle107"/>
	<circle cx="353.698" cy="692.691" r="4" fill="#0" id="circle108"/>
	<circle cx="369.755" cy="4" r="4" fill="#0" id="circle109"/>
	<circle cx="371.54" cy="692.691" r="4" fill="#0" id="circle110"/>
	<circle cx="387.597" cy="4" r="4" fill="#0" id="circle111"/>
	<circle cx="387.597" cy="701.612" r="4" fill="#0" id="circle112"/>
	<circle cx="389.381" cy="148.518" r="4" fill="#0" id="circle113"/>
	<circle cx="389.381" cy="166.36" r="4" fill="#0" id="circle114"/>
	<circle cx="389.381" cy="184.201" r="4" fill="#0" id="circle115"/>
	<circle cx="392.95" cy="202.043" r="4" fill="#0" id="circle116"/>
	<circle cx="401.871" cy="218.101" r="4" fill="#0" id="circle117"/>
	<circle cx="403.655" cy="710.532" r="4" fill="#0" id="circle118"/>
	<circle cx="405.439" cy="7.56835" r="4" fill="#0" id="circle119"/>
	<circle cx="407.223" cy="25.4101" r="4" fill="#0" id="circle120"/>
	<circle cx="407.223" cy="148.518" r="4" fill="#0" id="circle121"/>
	<circle cx="410.791" cy="728.374" r="4" fill="#0" id="circle122"/>
	<circle cx="417.928" cy="227.022" r="4" fill="#0" id="circle123"/>
	<circle cx="425.065" cy="30.7626" r="4" fill="#0" id="circle124"/>
	<circle cx="425.065" cy="148.518" r="4" fill="#0" id="circle125"/>
	<circle cx="425.065" cy="523.194" r="4" fill="#0" id="circle126"/>
	<circle cx="425.065" cy="541.036" r="4" fill="#0" id="circle127"/>
	<circle cx="425.065" cy="740.863" r="4" fill="#0" id="circle128"/>
	<circle cx="428.633" cy="558.878" r="4" fill="#0" id="circle129"/>
	<circle cx="433.986" cy="460.748" r="4" fill="#0" id="circle130"/>
	<circle cx="433.986" cy="478.59" r="4" fill="#0" id="circle131"/>
	<circle cx="433.986" cy="496.432" r="4" fill="#0" id="circle132"/>
	<circle cx="433.986" cy="576.719" r="4" fill="#0" id="circle133"/>
	<circle cx="435.77" cy="227.022" r="4" fill="#0" id="circle134"/>
	<circle cx="437.554" cy="755.137" r="4" fill="#0" id="circle135"/>
	<circle cx="442.906" cy="30.7626" r="4" fill="#0" id="circle136"/>
	<circle cx="442.906" cy="148.518" r="4" fill="#0" id="circle137"/>
	<circle cx="442.906" cy="398.302" r="4" fill="#0" id="circle138"/>
	<circle cx="442.906" cy="416.144" r="4" fill="#0" id="circle139"/>
	<circle cx="442.906" cy="433.986" r="4" fill="#0" id="circle140"/>
	<circle cx="442.906" cy="592.777" r="4" fill="#0" id="circle141"/>
	<circle cx="450.043" cy="769.41" r="4" fill="#0" id="circle142"/>
	<circle cx="451.827" cy="46.8201" r="4" fill="#0" id="circle143"/>
	<circle cx="451.827" cy="64.6619" r="4" fill="#0" id="circle144"/>
	<circle cx="451.827" cy="362.619" r="4" fill="#0" id="circle145"/>
	<circle cx="451.827" cy="380.46" r="4" fill="#0" id="circle146"/>
	<circle cx="451.827" cy="608.835" r="4" fill="#0" id="circle147"/>
	<circle cx="453.612" cy="227.022" r="4" fill="#0" id="circle148"/>
	<circle cx="458.964" cy="785.468" r="4" fill="#0" id="circle149"/>
	<circle cx="460.748" cy="148.518" r="4" fill="#0" id="circle150"/>
	<circle cx="460.748" cy="344.777" r="4" fill="#0" id="circle151"/>
	<circle cx="460.748" cy="624.892" r="4" fill="#0" id="circle152"/>
	<circle cx="466.101" cy="75.3669" r="4" fill="#0" id="circle153"/>
	<circle cx="467.885" cy="642.734" r="4" fill="#0" id="circle154"/>
	<circle cx="471.453" cy="227.022" r="4" fill="#0" id="circle155"/>
	<circle cx="473.237" cy="797.957" r="4" fill="#0" id="circle156"/>
	<circle cx="476.806" cy="658.791" r="4" fill="#0" id="circle157"/>
	<circle cx="478.59" cy="89.6403" r="4" fill="#0" id="circle158"/>
	<circle cx="478.59" cy="107.482" r="4" fill="#0" id="circle159"/>
	<circle cx="478.59" cy="125.324" r="4" fill="#0" id="circle160"/>
	<circle cx="478.59" cy="143.165" r="4" fill="#0" id="circle161"/>
	<circle cx="478.59" cy="335.856" r="4" fill="#0" id="circle162"/>
	<circle cx="485.727" cy="812.23" r="4" fill="#0" id="circle163"/>
	<circle cx="487.511" cy="235.942" r="4" fill="#0" id="circle164"/>
	<circle cx="487.511" cy="673.065" r="4" fill="#0" id="circle165"/>
	<circle cx="494.647" cy="344.777" r="4" fill="#0" id="circle166"/>
	<circle cx="500" cy="824.719" r="4" fill="#0" id="circle167"/>
	<circle cx="501.784" cy="683.77" r="4" fill="#0" id="circle168"/>
	<circle cx="505.353" cy="241.295" r="4" fill="#0" id="circle169"/>
	<circle cx="508.921" cy="701.612" r="4" fill="#0" id="circle170"/>
	<circle cx="510.705" cy="353.698" r="4" fill="#0" id="circle171"/>
	<circle cx="512.489" cy="838.993" r="4" fill="#0" id="circle172"/>
	<circle cx="521.41" cy="250.216" r="4" fill="#0" id="circle173"/>
	<circle cx="523.194" cy="714.101" r="4" fill="#0" id="circle174"/>
	<circle cx="526.763" cy="362.619" r="4" fill="#0" id="circle175"/>
	<circle cx="526.763" cy="851.482" r="4" fill="#0" id="circle176"/>
	<circle cx="532.115" cy="730.158" r="4" fill="#0" id="circle177"/>
	<circle cx="533.899" cy="869.324" r="4" fill="#0" id="circle178"/>
	<circle cx="535.683" cy="378.676" r="4" fill="#0" id="circle179"/>
	<circle cx="539.252" cy="257.353" r="4" fill="#0" id="circle180"/>
	<circle cx="548.173" cy="739.079" r="4" fill="#0" id="circle181"/>
	<circle cx="549.957" cy="271.626" r="4" fill="#0" id="circle182"/>
	<circle cx="551.741" cy="387.597" r="4" fill="#0" id="circle183"/>
	<circle cx="551.741" cy="876.46" r="4" fill="#0" id="circle184"/>
	<circle cx="555.309" cy="756.921" r="4" fill="#0" id="circle185"/>
	<circle cx="558.878" cy="287.683" r="4" fill="#0" id="circle186"/>
	<circle cx="566.014" cy="398.302" r="4" fill="#0" id="circle187"/>
	<circle cx="566.014" cy="888.95" r="4" fill="#0" id="circle188"/>
	<circle cx="567.799" cy="771.194" r="4" fill="#0" id="circle189"/>
	<circle cx="573.151" cy="300.173" r="4" fill="#0" id="circle190"/>
	<circle cx="576.719" cy="412.576" r="4" fill="#0" id="circle191"/>
	<circle cx="576.719" cy="787.252" r="4" fill="#0" id="circle192"/>
	<circle cx="582.072" cy="897.871" r="4" fill="#0" id="circle193"/>
	<circle cx="585.64" cy="314.446" r="4" fill="#0" id="circle194"/>
	<circle cx="590.993" cy="425.065" r="4" fill="#0" id="circle195"/>
	<circle cx="590.993" cy="799.741" r="4" fill="#0" id="circle196"/>
	<circle cx="594.561" cy="912.144" r="4" fill="#0" id="circle197"/>
	<circle cx="599.914" cy="326.935" r="4" fill="#0" id="circle198"/>
	<circle cx="603.482" cy="814.014" r="4" fill="#0" id="circle199"/>
	<circle cx="607.05" cy="344.777" r="4" fill="#0" id="circle200"/>
	<circle cx="608.835" cy="425.065" r="4" fill="#0" id="circle201"/>
	<circle cx="612.403" cy="830.072" r="4" fill="#0" id="circle202"/>
	<circle cx="612.403" cy="919.281" r="4" fill="#0" id="circle203"/>
	<circle cx="621.324" cy="357.266" r="4" fill="#0" id="circle204"/>
	<circle cx="624.892" cy="433.986" r="4" fill="#0" id="circle205"/>
	<circle cx="624.892" cy="844.345" r="4" fill="#0" id="circle206"/>
	<circle cx="628.46" cy="928.201" r="4" fill="#0" id="circle207"/>
	<circle cx="639.165" cy="360.835" r="4" fill="#0" id="circle208"/>
	<circle cx="639.165" cy="856.835" r="4" fill="#0" id="circle209"/>
	<circle cx="642.734" cy="433.986" r="4" fill="#0" id="circle210"/>
	<circle cx="646.302" cy="933.554" r="4" fill="#0" id="circle211"/>
	<circle cx="651.655" cy="871.108" r="4" fill="#0" id="circle212"/>
	<circle cx="657.007" cy="360.835" r="4" fill="#0" id="circle213"/>
	<circle cx="658.791" cy="425.065" r="4" fill="#0" id="circle214"/>
	<circle cx="662.36" cy="942.475" r="4" fill="#0" id="circle215"/>
	<circle cx="665.928" cy="883.597" r="4" fill="#0" id="circle216"/>
	<circle cx="674.849" cy="360.835" r="4" fill="#0" id="circle217"/>
	<circle cx="674.849" cy="416.144" r="4" fill="#0" id="circle218"/>
	<circle cx="680.201" cy="896.086" r="4" fill="#0" id="circle219"/>
	<circle cx="680.201" cy="942.475" r="4" fill="#0" id="circle220"/>
	<circle cx="692.691" cy="366.187" r="4" fill="#0" id="circle221"/>
	<circle cx="692.691" cy="407.223" r="4" fill="#0" id="circle222"/>
	<circle cx="696.259" cy="905.007" r="4" fill="#0" id="circle223"/>
	<circle cx="696.259" cy="951.396" r="4" fill="#0" id="circle224"/>
	<circle cx="705.18" cy="380.46" r="4" fill="#0" id="circle225"/>
	<circle cx="712.317" cy="913.928" r="4" fill="#0" id="circle226"/>
	<circle cx="714.101" cy="951.396" r="4" fill="#0" id="circle227"/>
	<circle cx="728.374" cy="922.849" r="4" fill="#0" id="circle228"/>
	<circle cx="731.942" cy="949.612" r="4" fill="#0" id="circle229"/>
	</g>
</svg>