<?xml version="1.0" encoding="UTF-8" standalone="no"?>
<!-- Created with CurveBenchmark -->
<svg
	xmlns:dc="http://purl.org/dc/elements/1.1/"
	xmlns:cc="http://creativecommons.org/ns#"
	xmlns:rdf="http://www.w3.org/1999/02/22-rdf-syntax-ns#"
	xmlns:svg="http://www.w3.org/2000/svg"
	xmlns="http://www.w3.org/2000/svg"
	xmlns:sodipodi="http://sodipodi.sourceforge.net/DTD/sodipodi-0.dtd"
	xmlns:inkscape="http://www.inkscape.org/namespaces/inkscape"
	width="1000"
	height="1000"
	id="svg2"
	version="1.1"
	sodipodi:docname="manifold/crust-bed130.png.txt">
<defs
	id="defs4" />
<metadata
	id="metadata7">
	<rdf:RDF>
		<cc:Work
			rdf:about="">
			<dc:format>image/svg+xml</dc:format>
			<dc:type
				rdf:resource="http://purl.org/dc/dcmitype/StillImage" />
			<dc:title></dc:title>
		</cc:Work>
	</rdf:RDF>
</metadata>
<g
	inkscape:label="Layer 1"
	inkscape:groupmode="layer"
	id="layer1">
	<path style="fill:none;stroke:red;stroke-width:1px;stroke-linecap:butt;stroke-linejoin:miter;stroke-opacity:1" d="M 38.5473,94.4809 25.3864,104.352 z" id="boundary" inkscape:connector-curvature="0" />
	<path style="fill:none;stroke:red;stroke-width:1px;stroke-linecap:butt;stroke-linejoin:miter;stroke-opacity:1" d="M 25.3864,104.352 12.2255,114.222 z" id="boundary" inkscape:connector-curvature="0" />
	<path style="fill:none;stroke:red;stroke-width:1px;stroke-linecap:butt;stroke-linejoin:miter;stroke-opacity:1" d="M 71.4494,81.3201 54.9983,89.5456 z" id="boundary" inkscape:connector-curvature="0" />
	<path style="fill:none;stroke:red;stroke-width:1px;stroke-linecap:butt;stroke-linejoin:miter;stroke-opacity:1" d="M 54.9983,89.5456 38.5473,94.4809 z" id="boundary" inkscape:connector-curvature="0" />
	<path style="fill:none;stroke:red;stroke-width:1px;stroke-linecap:butt;stroke-linejoin:miter;stroke-opacity:1" d="M 4,129.028 12.2255,114.222 z" id="boundary" inkscape:connector-curvature="0" />
	<path style="fill:none;stroke:red;stroke-width:1px;stroke-linecap:butt;stroke-linejoin:miter;stroke-opacity:1" d="M 10.5804,161.93 4,145.479 z" id="boundary" inkscape:connector-curvature="0" />
	<path style="fill:none;stroke:red;stroke-width:1px;stroke-linecap:butt;stroke-linejoin:miter;stroke-opacity:1" d="M 4,145.479 4,129.028 z" id="boundary" inkscape:connector-curvature="0" />
	<path style="fill:none;stroke:red;stroke-width:1px;stroke-linecap:butt;stroke-linejoin:miter;stroke-opacity:1" d="M 173.446,25.3864 181.672,10.5804 z" id="boundary" inkscape:connector-curvature="0" />
	<path style="fill:none;stroke:red;stroke-width:1px;stroke-linecap:butt;stroke-linejoin:miter;stroke-opacity:1" d="M 181.672,10.5804 198.123,4 z" id="boundary" inkscape:connector-curvature="0" />
	<path style="fill:none;stroke:red;stroke-width:1px;stroke-linecap:butt;stroke-linejoin:miter;stroke-opacity:1" d="M 173.446,25.3864 163.575,38.5473 z" id="boundary" inkscape:connector-curvature="0" />
	<path style="fill:none;stroke:red;stroke-width:1px;stroke-linecap:butt;stroke-linejoin:miter;stroke-opacity:1" d="M 87.9005,74.7396 104.352,69.8043 z" id="boundary" inkscape:connector-curvature="0" />
	<path style="fill:none;stroke:red;stroke-width:1px;stroke-linecap:butt;stroke-linejoin:miter;stroke-opacity:1" d="M 120.803,66.5141 104.352,69.8043 z" id="boundary" inkscape:connector-curvature="0" />
	<path style="fill:none;stroke:red;stroke-width:1px;stroke-linecap:butt;stroke-linejoin:miter;stroke-opacity:1" d="M 87.9005,74.7396 71.4494,81.3201 z" id="boundary" inkscape:connector-curvature="0" />
	<path style="fill:none;stroke:red;stroke-width:1px;stroke-linecap:butt;stroke-linejoin:miter;stroke-opacity:1" d="M 147.124,45.1277 163.575,38.5473 z" id="boundary" inkscape:connector-curvature="0" />
	<path style="fill:none;stroke:red;stroke-width:1px;stroke-linecap:butt;stroke-linejoin:miter;stroke-opacity:1" d="M 120.803,66.5141 137.254,58.2886 z" id="boundary" inkscape:connector-curvature="0" />
	<path style="fill:none;stroke:red;stroke-width:1px;stroke-linecap:butt;stroke-linejoin:miter;stroke-opacity:1" d="M 137.254,58.2886 147.124,45.1277 z" id="boundary" inkscape:connector-curvature="0" />
	<path style="fill:none;stroke:red;stroke-width:1px;stroke-linecap:butt;stroke-linejoin:miter;stroke-opacity:1" d="M 10.5804,161.93 10.5804,178.381 z" id="boundary" inkscape:connector-curvature="0" />
	<path style="fill:none;stroke:red;stroke-width:1px;stroke-linecap:butt;stroke-linejoin:miter;stroke-opacity:1" d="M 13.8706,194.833 10.5804,178.381 z" id="boundary" inkscape:connector-curvature="0" />
	<path style="fill:none;stroke:red;stroke-width:1px;stroke-linecap:butt;stroke-linejoin:miter;stroke-opacity:1" d="M 13.8706,194.833 13.8706,211.284 z" id="boundary" inkscape:connector-curvature="0" />
	<path style="fill:none;stroke:red;stroke-width:1px;stroke-linecap:butt;stroke-linejoin:miter;stroke-opacity:1" d="M 13.8706,211.284 13.8706,227.735 z" id="boundary" inkscape:connector-curvature="0" />
	<path style="fill:none;stroke:red;stroke-width:1px;stroke-linecap:butt;stroke-linejoin:miter;stroke-opacity:1" d="M 13.8706,244.186 13.8706,227.735 z" id="boundary" inkscape:connector-curvature="0" />
	<path style="fill:none;stroke:red;stroke-width:1px;stroke-linecap:butt;stroke-linejoin:miter;stroke-opacity:1" d="M 7.29022,300.119 10.5804,270.507 z" id="boundary" inkscape:connector-curvature="0" />
	<path style="fill:none;stroke:red;stroke-width:1px;stroke-linecap:butt;stroke-linejoin:miter;stroke-opacity:1" d="M 10.5804,270.507 13.8706,244.186 z" id="boundary" inkscape:connector-curvature="0" />
	<path style="fill:none;stroke:red;stroke-width:1px;stroke-linecap:butt;stroke-linejoin:miter;stroke-opacity:1" d="M 211.284,13.8706 221.154,27.0315 z" id="boundary" inkscape:connector-curvature="0" />
	<path style="fill:none;stroke:red;stroke-width:1px;stroke-linecap:butt;stroke-linejoin:miter;stroke-opacity:1" d="M 211.284,13.8706 198.123,4 z" id="boundary" inkscape:connector-curvature="0" />
	<path style="fill:none;stroke:red;stroke-width:1px;stroke-linecap:butt;stroke-linejoin:miter;stroke-opacity:1" d="M 234.315,38.5473 221.154,27.0315 z" id="boundary" inkscape:connector-curvature="0" />
	<path style="fill:none;stroke:red;stroke-width:1px;stroke-linecap:butt;stroke-linejoin:miter;stroke-opacity:1" d="M 250.766,45.1277 234.315,38.5473 z" id="boundary" inkscape:connector-curvature="0" />
	<path style="fill:none;stroke:red;stroke-width:1px;stroke-linecap:butt;stroke-linejoin:miter;stroke-opacity:1" d="M 250.766,45.1277 258.992,59.9337 z" id="boundary" inkscape:connector-curvature="0" />
	<path style="fill:none;stroke:red;stroke-width:1px;stroke-linecap:butt;stroke-linejoin:miter;stroke-opacity:1" d="M 258.992,59.9337 273.798,68.1592 z" id="boundary" inkscape:connector-curvature="0" />
	<path style="fill:none;stroke:red;stroke-width:1px;stroke-linecap:butt;stroke-linejoin:miter;stroke-opacity:1" d="M 290.249,73.0945 273.798,68.1592 z" id="boundary" inkscape:connector-curvature="0" />
	<path style="fill:none;stroke:red;stroke-width:1px;stroke-linecap:butt;stroke-linejoin:miter;stroke-opacity:1" d="M 306.7,78.0299 290.249,73.0945 z" id="boundary" inkscape:connector-curvature="0" />
	<path style="fill:none;stroke:red;stroke-width:1px;stroke-linecap:butt;stroke-linejoin:miter;stroke-opacity:1" d="M 323.151,84.6103 306.7,78.0299 z" id="boundary" inkscape:connector-curvature="0" />
	<path style="fill:none;stroke:red;stroke-width:1px;stroke-linecap:butt;stroke-linejoin:miter;stroke-opacity:1" d="M 339.602,89.5456 323.151,84.6103 z" id="boundary" inkscape:connector-curvature="0" />
	<path style="fill:none;stroke:red;stroke-width:1px;stroke-linecap:butt;stroke-linejoin:miter;stroke-opacity:1" d="M 339.602,89.5456 352.763,99.4163 z" id="boundary" inkscape:connector-curvature="0" />
	<path style="fill:none;stroke:red;stroke-width:1px;stroke-linecap:butt;stroke-linejoin:miter;stroke-opacity:1" d="M 352.763,99.4163 367.569,107.642 z" id="boundary" inkscape:connector-curvature="0" />
	<path style="fill:none;stroke:red;stroke-width:1px;stroke-linecap:butt;stroke-linejoin:miter;stroke-opacity:1" d="M 377.439,120.803 380.73,137.254 z" id="boundary" inkscape:connector-curvature="0" />
	<path style="fill:none;stroke:red;stroke-width:1px;stroke-linecap:butt;stroke-linejoin:miter;stroke-opacity:1" d="M 367.569,107.642 377.439,120.803 z" id="boundary" inkscape:connector-curvature="0" />
	<path style="fill:none;stroke:red;stroke-width:1px;stroke-linecap:butt;stroke-linejoin:miter;stroke-opacity:1" d="M 367.569,175.091 364.279,194.833 z" id="boundary" inkscape:connector-curvature="0" />
	<path style="fill:none;stroke:red;stroke-width:1px;stroke-linecap:butt;stroke-linejoin:miter;stroke-opacity:1" d="M 374.149,158.64 367.569,175.091 z" id="boundary" inkscape:connector-curvature="0" />
	<path style="fill:none;stroke:red;stroke-width:1px;stroke-linecap:butt;stroke-linejoin:miter;stroke-opacity:1" d="M 374.149,158.64 380.73,137.254 z" id="boundary" inkscape:connector-curvature="0" />
	<path style="fill:none;stroke:red;stroke-width:1px;stroke-linecap:butt;stroke-linejoin:miter;stroke-opacity:1" d="M 377.439,204.703 364.279,194.833 z" id="boundary" inkscape:connector-curvature="0" />
	<path style="fill:none;stroke:red;stroke-width:1px;stroke-linecap:butt;stroke-linejoin:miter;stroke-opacity:1" d="M 393.891,204.703 377.439,204.703 z" id="boundary" inkscape:connector-curvature="0" />
	<path style="fill:none;stroke:red;stroke-width:1px;stroke-linecap:butt;stroke-linejoin:miter;stroke-opacity:1" d="M 410.342,207.993 426.793,211.284 z" id="boundary" inkscape:connector-curvature="0" />
	<path style="fill:none;stroke:red;stroke-width:1px;stroke-linecap:butt;stroke-linejoin:miter;stroke-opacity:1" d="M 426.793,211.284 443.244,217.864 z" id="boundary" inkscape:connector-curvature="0" />
	<path style="fill:none;stroke:red;stroke-width:1px;stroke-linecap:butt;stroke-linejoin:miter;stroke-opacity:1" d="M 393.891,204.703 410.342,207.993 z" id="boundary" inkscape:connector-curvature="0" />
	<path style="fill:none;stroke:red;stroke-width:1px;stroke-linecap:butt;stroke-linejoin:miter;stroke-opacity:1" d="M 4,333.022 4,349.473 z" id="boundary" inkscape:connector-curvature="0" />
	<path style="fill:none;stroke:red;stroke-width:1px;stroke-linecap:butt;stroke-linejoin:miter;stroke-opacity:1" d="M 7.29022,316.57 4,333.022 z" id="boundary" inkscape:connector-curvature="0" />
	<path style="fill:none;stroke:red;stroke-width:1px;stroke-linecap:butt;stroke-linejoin:miter;stroke-opacity:1" d="M 4,349.473 4,365.924 z" id="boundary" inkscape:connector-curvature="0" />
	<path style="fill:none;stroke:red;stroke-width:1px;stroke-linecap:butt;stroke-linejoin:miter;stroke-opacity:1" d="M 4,365.924 4,382.375 z" id="boundary" inkscape:connector-curvature="0" />
	<path style="fill:none;stroke:red;stroke-width:1px;stroke-linecap:butt;stroke-linejoin:miter;stroke-opacity:1" d="M 4,398.826 4,382.375 z" id="boundary" inkscape:connector-curvature="0" />
	<path style="fill:none;stroke:red;stroke-width:1px;stroke-linecap:butt;stroke-linejoin:miter;stroke-opacity:1" d="M 7.29022,300.119 7.29022,316.57 z" id="boundary" inkscape:connector-curvature="0" />
	<path style="fill:none;stroke:red;stroke-width:1px;stroke-linecap:butt;stroke-linejoin:miter;stroke-opacity:1" d="M 4,431.728 4,415.277 z" id="boundary" inkscape:connector-curvature="0" />
	<path style="fill:none;stroke:red;stroke-width:1px;stroke-linecap:butt;stroke-linejoin:miter;stroke-opacity:1" d="M 4,415.277 4,398.826 z" id="boundary" inkscape:connector-curvature="0" />
	<path style="fill:none;stroke:red;stroke-width:1px;stroke-linecap:butt;stroke-linejoin:miter;stroke-opacity:1" d="M 7.29022,448.179 4,431.728 z" id="boundary" inkscape:connector-curvature="0" />
	<path style="fill:none;stroke:red;stroke-width:1px;stroke-linecap:butt;stroke-linejoin:miter;stroke-opacity:1" d="M 40.1924,443.244 56.6434,443.244 z" id="boundary" inkscape:connector-curvature="0" />
	<path style="fill:none;stroke:red;stroke-width:1px;stroke-linecap:butt;stroke-linejoin:miter;stroke-opacity:1" d="M 73.0945,443.244 56.6434,443.244 z" id="boundary" inkscape:connector-curvature="0" />
	<path style="fill:none;stroke:red;stroke-width:1px;stroke-linecap:butt;stroke-linejoin:miter;stroke-opacity:1" d="M 171.801,443.244 155.35,443.244 z" id="boundary" inkscape:connector-curvature="0" />
	<path style="fill:none;stroke:red;stroke-width:1px;stroke-linecap:butt;stroke-linejoin:miter;stroke-opacity:1" d="M 105.997,443.244 89.5456,443.244 z" id="boundary" inkscape:connector-curvature="0" />
	<path style="fill:none;stroke:red;stroke-width:1px;stroke-linecap:butt;stroke-linejoin:miter;stroke-opacity:1" d="M 73.0945,443.244 89.5456,443.244 z" id="boundary" inkscape:connector-curvature="0" />
	<path style="fill:none;stroke:red;stroke-width:1px;stroke-linecap:butt;stroke-linejoin:miter;stroke-opacity:1" d="M 105.997,443.244 122.448,443.244 z" id="boundary" inkscape:connector-curvature="0" />
	<path style="fill:none;stroke:red;stroke-width:1px;stroke-linecap:butt;stroke-linejoin:miter;stroke-opacity:1" d="M 138.899,443.244 155.35,443.244 z" id="boundary" inkscape:connector-curvature="0" />
	<path style="fill:none;stroke:red;stroke-width:1px;stroke-linecap:butt;stroke-linejoin:miter;stroke-opacity:1" d="M 138.899,443.244 122.448,443.244 z" id="boundary" inkscape:connector-curvature="0" />
	<path style="fill:none;stroke:red;stroke-width:1px;stroke-linecap:butt;stroke-linejoin:miter;stroke-opacity:1" d="M 10.5804,464.63 7.29022,448.179 z" id="boundary" inkscape:connector-curvature="0" />
	<path style="fill:none;stroke:red;stroke-width:1px;stroke-linecap:butt;stroke-linejoin:miter;stroke-opacity:1" d="M 10.5804,464.63 10.5804,481.081 z" id="boundary" inkscape:connector-curvature="0" />
	<path style="fill:none;stroke:red;stroke-width:1px;stroke-linecap:butt;stroke-linejoin:miter;stroke-opacity:1" d="M 40.1924,443.244 31.9668,458.05 z" id="boundary" inkscape:connector-curvature="0" />
	<path style="fill:none;stroke:red;stroke-width:1px;stroke-linecap:butt;stroke-linejoin:miter;stroke-opacity:1" d="M 10.5804,497.532 23.7413,509.048 z" id="boundary" inkscape:connector-curvature="0" />
	<path style="fill:none;stroke:red;stroke-width:1px;stroke-linecap:butt;stroke-linejoin:miter;stroke-opacity:1" d="M 10.5804,481.081 10.5804,497.532 z" id="boundary" inkscape:connector-curvature="0" />
	<path style="fill:none;stroke:red;stroke-width:1px;stroke-linecap:butt;stroke-linejoin:miter;stroke-opacity:1" d="M 31.9668,490.952 23.7413,509.048 z" id="boundary" inkscape:connector-curvature="0" />
	<path style="fill:none;stroke:red;stroke-width:1px;stroke-linecap:butt;stroke-linejoin:miter;stroke-opacity:1" d="M 31.9668,458.05 31.9668,474.501 z" id="boundary" inkscape:connector-curvature="0" />
	<path style="fill:none;stroke:red;stroke-width:1px;stroke-linecap:butt;stroke-linejoin:miter;stroke-opacity:1" d="M 31.9668,474.501 31.9668,490.952 z" id="boundary" inkscape:connector-curvature="0" />
	<path style="fill:none;stroke:red;stroke-width:1px;stroke-linecap:butt;stroke-linejoin:miter;stroke-opacity:1" d="M 188.252,443.244 171.801,443.244 z" id="boundary" inkscape:connector-curvature="0" />
	<path style="fill:none;stroke:red;stroke-width:1px;stroke-linecap:butt;stroke-linejoin:miter;stroke-opacity:1" d="M 204.703,443.244 188.252,443.244 z" id="boundary" inkscape:connector-curvature="0" />
	<path style="fill:none;stroke:red;stroke-width:1px;stroke-linecap:butt;stroke-linejoin:miter;stroke-opacity:1" d="M 237.605,443.244 221.154,443.244 z" id="boundary" inkscape:connector-curvature="0" />
	<path style="fill:none;stroke:red;stroke-width:1px;stroke-linecap:butt;stroke-linejoin:miter;stroke-opacity:1" d="M 204.703,443.244 221.154,443.244 z" id="boundary" inkscape:connector-curvature="0" />
	<path style="fill:none;stroke:red;stroke-width:1px;stroke-linecap:butt;stroke-linejoin:miter;stroke-opacity:1" d="M 237.605,443.244 254.056,443.244 z" id="boundary" inkscape:connector-curvature="0" />
	<path style="fill:none;stroke:red;stroke-width:1px;stroke-linecap:butt;stroke-linejoin:miter;stroke-opacity:1" d="M 270.507,443.244 286.959,443.244 z" id="boundary" inkscape:connector-curvature="0" />
	<path style="fill:none;stroke:red;stroke-width:1px;stroke-linecap:butt;stroke-linejoin:miter;stroke-opacity:1" d="M 270.507,443.244 254.056,443.244 z" id="boundary" inkscape:connector-curvature="0" />
	<path style="fill:none;stroke:red;stroke-width:1px;stroke-linecap:butt;stroke-linejoin:miter;stroke-opacity:1" d="M 303.41,443.244 319.861,443.244 z" id="boundary" inkscape:connector-curvature="0" />
	<path style="fill:none;stroke:red;stroke-width:1px;stroke-linecap:butt;stroke-linejoin:miter;stroke-opacity:1" d="M 319.861,443.244 336.312,443.244 z" id="boundary" inkscape:connector-curvature="0" />
	<path style="fill:none;stroke:red;stroke-width:1px;stroke-linecap:butt;stroke-linejoin:miter;stroke-opacity:1" d="M 349.473,453.114 336.312,443.244 z" id="boundary" inkscape:connector-curvature="0" />
	<path style="fill:none;stroke:red;stroke-width:1px;stroke-linecap:butt;stroke-linejoin:miter;stroke-opacity:1" d="M 286.959,443.244 303.41,443.244 z" id="boundary" inkscape:connector-curvature="0" />
	<path style="fill:none;stroke:red;stroke-width:1px;stroke-linecap:butt;stroke-linejoin:miter;stroke-opacity:1" d="M 377.439,444.889 393.891,443.244 z" id="boundary" inkscape:connector-curvature="0" />
	<path style="fill:none;stroke:red;stroke-width:1px;stroke-linecap:butt;stroke-linejoin:miter;stroke-opacity:1" d="M 410.342,443.244 393.891,443.244 z" id="boundary" inkscape:connector-curvature="0" />
	<path style="fill:none;stroke:red;stroke-width:1px;stroke-linecap:butt;stroke-linejoin:miter;stroke-opacity:1" d="M 410.342,443.244 426.793,443.244 z" id="boundary" inkscape:connector-curvature="0" />
	<path style="fill:none;stroke:red;stroke-width:1px;stroke-linecap:butt;stroke-linejoin:miter;stroke-opacity:1" d="M 443.244,443.244 459.695,443.244 z" id="boundary" inkscape:connector-curvature="0" />
	<path style="fill:none;stroke:red;stroke-width:1px;stroke-linecap:butt;stroke-linejoin:miter;stroke-opacity:1" d="M 443.244,443.244 426.793,443.244 z" id="boundary" inkscape:connector-curvature="0" />
	<path style="fill:none;stroke:red;stroke-width:1px;stroke-linecap:butt;stroke-linejoin:miter;stroke-opacity:1" d="M 349.473,453.114 356.053,469.566 z" id="boundary" inkscape:connector-curvature="0" />
	<path style="fill:none;stroke:red;stroke-width:1px;stroke-linecap:butt;stroke-linejoin:miter;stroke-opacity:1" d="M 356.053,469.566 356.053,486.017 z" id="boundary" inkscape:connector-curvature="0" />
	<path style="fill:none;stroke:red;stroke-width:1px;stroke-linecap:butt;stroke-linejoin:miter;stroke-opacity:1" d="M 356.053,486.017 356.053,502.468 z" id="boundary" inkscape:connector-curvature="0" />
	<path style="fill:none;stroke:red;stroke-width:1px;stroke-linecap:butt;stroke-linejoin:miter;stroke-opacity:1" d="M 377.439,444.889 377.439,461.34 z" id="boundary" inkscape:connector-curvature="0" />
	<path style="fill:none;stroke:red;stroke-width:1px;stroke-linecap:butt;stroke-linejoin:miter;stroke-opacity:1" d="M 356.053,502.468 372.504,509.048 z" id="boundary" inkscape:connector-curvature="0" />
	<path style="fill:none;stroke:red;stroke-width:1px;stroke-linecap:butt;stroke-linejoin:miter;stroke-opacity:1" d="M 374.149,487.662 372.504,509.048 z" id="boundary" inkscape:connector-curvature="0" />
	<path style="fill:none;stroke:red;stroke-width:1px;stroke-linecap:butt;stroke-linejoin:miter;stroke-opacity:1" d="M 443.244,217.864 456.405,227.735 z" id="boundary" inkscape:connector-curvature="0" />
	<path style="fill:none;stroke:red;stroke-width:1px;stroke-linecap:butt;stroke-linejoin:miter;stroke-opacity:1" d="M 471.211,235.96 482.726,249.121 z" id="boundary" inkscape:connector-curvature="0" />
	<path style="fill:none;stroke:red;stroke-width:1px;stroke-linecap:butt;stroke-linejoin:miter;stroke-opacity:1" d="M 471.211,235.96 456.405,227.735 z" id="boundary" inkscape:connector-curvature="0" />
	<path style="fill:none;stroke:red;stroke-width:1px;stroke-linecap:butt;stroke-linejoin:miter;stroke-opacity:1" d="M 482.726,249.121 495.887,260.637 z" id="boundary" inkscape:connector-curvature="0" />
	<path style="fill:none;stroke:red;stroke-width:1px;stroke-linecap:butt;stroke-linejoin:miter;stroke-opacity:1" d="M 509.048,270.507 495.887,260.637 z" id="boundary" inkscape:connector-curvature="0" />
	<path style="fill:none;stroke:red;stroke-width:1px;stroke-linecap:butt;stroke-linejoin:miter;stroke-opacity:1" d="M 680.139,267.217 663.688,267.217 z" id="boundary" inkscape:connector-curvature="0" />
	<path style="fill:none;stroke:red;stroke-width:1px;stroke-linecap:butt;stroke-linejoin:miter;stroke-opacity:1" d="M 696.59,263.927 713.041,260.637 z" id="boundary" inkscape:connector-curvature="0" />
	<path style="fill:none;stroke:red;stroke-width:1px;stroke-linecap:butt;stroke-linejoin:miter;stroke-opacity:1" d="M 696.59,263.927 680.139,267.217 z" id="boundary" inkscape:connector-curvature="0" />
	<path style="fill:none;stroke:red;stroke-width:1px;stroke-linecap:butt;stroke-linejoin:miter;stroke-opacity:1" d="M 663.688,267.217 647.237,270.507 z" id="boundary" inkscape:connector-curvature="0" />
	<path style="fill:none;stroke:red;stroke-width:1px;stroke-linecap:butt;stroke-linejoin:miter;stroke-opacity:1" d="M 509.048,270.507 518.919,283.668 z" id="boundary" inkscape:connector-curvature="0" />
	<path style="fill:none;stroke:red;stroke-width:1px;stroke-linecap:butt;stroke-linejoin:miter;stroke-opacity:1" d="M 518.919,283.668 532.08,293.539 z" id="boundary" inkscape:connector-curvature="0" />
	<path style="fill:none;stroke:red;stroke-width:1px;stroke-linecap:butt;stroke-linejoin:miter;stroke-opacity:1" d="M 548.531,293.539 532.08,293.539 z" id="boundary" inkscape:connector-curvature="0" />
	<path style="fill:none;stroke:red;stroke-width:1px;stroke-linecap:butt;stroke-linejoin:miter;stroke-opacity:1" d="M 564.982,293.539 548.531,293.539 z" id="boundary" inkscape:connector-curvature="0" />
	<path style="fill:none;stroke:red;stroke-width:1px;stroke-linecap:butt;stroke-linejoin:miter;stroke-opacity:1" d="M 614.335,283.668 630.786,277.088 z" id="boundary" inkscape:connector-curvature="0" />
	<path style="fill:none;stroke:red;stroke-width:1px;stroke-linecap:butt;stroke-linejoin:miter;stroke-opacity:1" d="M 597.884,290.249 581.433,293.539 z" id="boundary" inkscape:connector-curvature="0" />
	<path style="fill:none;stroke:red;stroke-width:1px;stroke-linecap:butt;stroke-linejoin:miter;stroke-opacity:1" d="M 581.433,293.539 564.982,293.539 z" id="boundary" inkscape:connector-curvature="0" />
	<path style="fill:none;stroke:red;stroke-width:1px;stroke-linecap:butt;stroke-linejoin:miter;stroke-opacity:1" d="M 597.884,290.249 614.335,283.668 z" id="boundary" inkscape:connector-curvature="0" />
	<path style="fill:none;stroke:red;stroke-width:1px;stroke-linecap:butt;stroke-linejoin:miter;stroke-opacity:1" d="M 647.237,270.507 630.786,277.088 z" id="boundary" inkscape:connector-curvature="0" />
	<path style="fill:none;stroke:red;stroke-width:1px;stroke-linecap:butt;stroke-linejoin:miter;stroke-opacity:1" d="M 773.91,224.444 759.104,232.67 z" id="boundary" inkscape:connector-curvature="0" />
	<path style="fill:none;stroke:red;stroke-width:1px;stroke-linecap:butt;stroke-linejoin:miter;stroke-opacity:1" d="M 790.362,222.799 773.91,224.444 z" id="boundary" inkscape:connector-curvature="0" />
	<path style="fill:none;stroke:red;stroke-width:1px;stroke-linecap:butt;stroke-linejoin:miter;stroke-opacity:1" d="M 744.299,240.896 759.104,232.67 z" id="boundary" inkscape:connector-curvature="0" />
	<path style="fill:none;stroke:red;stroke-width:1px;stroke-linecap:butt;stroke-linejoin:miter;stroke-opacity:1" d="M 744.299,240.896 727.847,250.766 z" id="boundary" inkscape:connector-curvature="0" />
	<path style="fill:none;stroke:red;stroke-width:1px;stroke-linecap:butt;stroke-linejoin:miter;stroke-opacity:1" d="M 803.522,232.67 790.362,222.799 z" id="boundary" inkscape:connector-curvature="0" />
	<path style="fill:none;stroke:red;stroke-width:1px;stroke-linecap:butt;stroke-linejoin:miter;stroke-opacity:1" d="M 818.328,240.896 803.522,232.67 z" id="boundary" inkscape:connector-curvature="0" />
	<path style="fill:none;stroke:red;stroke-width:1px;stroke-linecap:butt;stroke-linejoin:miter;stroke-opacity:1" d="M 713.041,260.637 727.847,250.766 z" id="boundary" inkscape:connector-curvature="0" />
	<path style="fill:none;stroke:red;stroke-width:1px;stroke-linecap:butt;stroke-linejoin:miter;stroke-opacity:1" d="M 844.65,260.637 834.779,247.476 z" id="boundary" inkscape:connector-curvature="0" />
	<path style="fill:none;stroke:red;stroke-width:1px;stroke-linecap:butt;stroke-linejoin:miter;stroke-opacity:1" d="M 818.328,240.896 834.779,247.476 z" id="boundary" inkscape:connector-curvature="0" />
	<path style="fill:none;stroke:red;stroke-width:1px;stroke-linecap:butt;stroke-linejoin:miter;stroke-opacity:1" d="M 844.65,260.637 861.101,263.927 z" id="boundary" inkscape:connector-curvature="0" />
	<path style="fill:none;stroke:red;stroke-width:1px;stroke-linecap:butt;stroke-linejoin:miter;stroke-opacity:1" d="M 959.808,283.668 943.357,277.088 z" id="boundary" inkscape:connector-curvature="0" />
	<path style="fill:none;stroke:red;stroke-width:1px;stroke-linecap:butt;stroke-linejoin:miter;stroke-opacity:1" d="M 894.003,267.217 877.552,263.927 z" id="boundary" inkscape:connector-curvature="0" />
	<path style="fill:none;stroke:red;stroke-width:1px;stroke-linecap:butt;stroke-linejoin:miter;stroke-opacity:1" d="M 861.101,263.927 877.552,263.927 z" id="boundary" inkscape:connector-curvature="0" />
	<path style="fill:none;stroke:red;stroke-width:1px;stroke-linecap:butt;stroke-linejoin:miter;stroke-opacity:1" d="M 910.454,270.507 894.003,267.217 z" id="boundary" inkscape:connector-curvature="0" />
	<path style="fill:none;stroke:red;stroke-width:1px;stroke-linecap:butt;stroke-linejoin:miter;stroke-opacity:1" d="M 910.454,270.507 926.905,273.798 z" id="boundary" inkscape:connector-curvature="0" />
	<path style="fill:none;stroke:red;stroke-width:1px;stroke-linecap:butt;stroke-linejoin:miter;stroke-opacity:1" d="M 943.357,277.088 926.905,273.798 z" id="boundary" inkscape:connector-curvature="0" />
	<path style="fill:none;stroke:red;stroke-width:1px;stroke-linecap:butt;stroke-linejoin:miter;stroke-opacity:1" d="M 959.808,283.668 972.968,293.539 z" id="boundary" inkscape:connector-curvature="0" />
	<path style="fill:none;stroke:red;stroke-width:1px;stroke-linecap:butt;stroke-linejoin:miter;stroke-opacity:1" d="M 972.968,293.539 986.129,303.41 z" id="boundary" inkscape:connector-curvature="0" />
	<path style="fill:none;stroke:red;stroke-width:1px;stroke-linecap:butt;stroke-linejoin:miter;stroke-opacity:1" d="M 986.129,303.41 996,316.57 z" id="boundary" inkscape:connector-curvature="0" />
	<path style="fill:none;stroke:red;stroke-width:1px;stroke-linecap:butt;stroke-linejoin:miter;stroke-opacity:1" d="M 996,316.57 996,333.022 z" id="boundary" inkscape:connector-curvature="0" />
	<path style="fill:none;stroke:red;stroke-width:1px;stroke-linecap:butt;stroke-linejoin:miter;stroke-opacity:1" d="M 982.839,352.763 982.839,369.214 z" id="boundary" inkscape:connector-curvature="0" />
	<path style="fill:none;stroke:red;stroke-width:1px;stroke-linecap:butt;stroke-linejoin:miter;stroke-opacity:1" d="M 996,333.022 982.839,352.763 z" id="boundary" inkscape:connector-curvature="0" />
	<path style="fill:none;stroke:red;stroke-width:1px;stroke-linecap:butt;stroke-linejoin:miter;stroke-opacity:1" d="M 979.549,395.536 982.839,369.214 z" id="boundary" inkscape:connector-curvature="0" />
	<path style="fill:none;stroke:red;stroke-width:1px;stroke-linecap:butt;stroke-linejoin:miter;stroke-opacity:1" d="M 476.146,443.244 459.695,443.244 z" id="boundary" inkscape:connector-curvature="0" />
	<path style="fill:none;stroke:red;stroke-width:1px;stroke-linecap:butt;stroke-linejoin:miter;stroke-opacity:1" d="M 492.597,443.244 509.048,443.244 z" id="boundary" inkscape:connector-curvature="0" />
	<path style="fill:none;stroke:red;stroke-width:1px;stroke-linecap:butt;stroke-linejoin:miter;stroke-opacity:1" d="M 492.597,443.244 476.146,443.244 z" id="boundary" inkscape:connector-curvature="0" />
	<path style="fill:none;stroke:red;stroke-width:1px;stroke-linecap:butt;stroke-linejoin:miter;stroke-opacity:1" d="M 525.499,443.244 541.95,443.244 z" id="boundary" inkscape:connector-curvature="0" />
	<path style="fill:none;stroke:red;stroke-width:1px;stroke-linecap:butt;stroke-linejoin:miter;stroke-opacity:1" d="M 558.401,443.244 574.852,443.244 z" id="boundary" inkscape:connector-curvature="0" />
	<path style="fill:none;stroke:red;stroke-width:1px;stroke-linecap:butt;stroke-linejoin:miter;stroke-opacity:1" d="M 558.401,443.244 541.95,443.244 z" id="boundary" inkscape:connector-curvature="0" />
	<path style="fill:none;stroke:red;stroke-width:1px;stroke-linecap:butt;stroke-linejoin:miter;stroke-opacity:1" d="M 525.499,443.244 509.048,443.244 z" id="boundary" inkscape:connector-curvature="0" />
	<path style="fill:none;stroke:red;stroke-width:1px;stroke-linecap:butt;stroke-linejoin:miter;stroke-opacity:1" d="M 574.852,443.244 579.788,459.695 z" id="boundary" inkscape:connector-curvature="0" />
	<path style="fill:none;stroke:red;stroke-width:1px;stroke-linecap:butt;stroke-linejoin:miter;stroke-opacity:1" d="M 579.788,459.695 579.788,476.146 z" id="boundary" inkscape:connector-curvature="0" />
	<path style="fill:none;stroke:red;stroke-width:1px;stroke-linecap:butt;stroke-linejoin:miter;stroke-opacity:1" d="M 611.045,454.76 611.045,471.211 z" id="boundary" inkscape:connector-curvature="0" />
	<path style="fill:none;stroke:red;stroke-width:1px;stroke-linecap:butt;stroke-linejoin:miter;stroke-opacity:1" d="M 627.496,453.114 611.045,454.76 z" id="boundary" inkscape:connector-curvature="0" />
	<path style="fill:none;stroke:red;stroke-width:1px;stroke-linecap:butt;stroke-linejoin:miter;stroke-opacity:1" d="M 704.816,451.469 688.365,446.534 z" id="boundary" inkscape:connector-curvature="0" />
	<path style="fill:none;stroke:red;stroke-width:1px;stroke-linecap:butt;stroke-linejoin:miter;stroke-opacity:1" d="M 688.365,446.534 673.559,454.76 z" id="boundary" inkscape:connector-curvature="0" />
	<path style="fill:none;stroke:red;stroke-width:1px;stroke-linecap:butt;stroke-linejoin:miter;stroke-opacity:1" d="M 719.622,459.695 704.816,451.469 z" id="boundary" inkscape:connector-curvature="0" />
	<path style="fill:none;stroke:red;stroke-width:1px;stroke-linecap:butt;stroke-linejoin:miter;stroke-opacity:1" d="M 643.947,456.405 627.496,453.114 z" id="boundary" inkscape:connector-curvature="0" />
	<path style="fill:none;stroke:red;stroke-width:1px;stroke-linecap:butt;stroke-linejoin:miter;stroke-opacity:1" d="M 643.947,456.405 658.753,464.63 z" id="boundary" inkscape:connector-curvature="0" />
	<path style="fill:none;stroke:red;stroke-width:1px;stroke-linecap:butt;stroke-linejoin:miter;stroke-opacity:1" d="M 719.622,459.695 736.073,466.275 z" id="boundary" inkscape:connector-curvature="0" />
	<path style="fill:none;stroke:red;stroke-width:1px;stroke-linecap:butt;stroke-linejoin:miter;stroke-opacity:1" d="M 658.753,464.63 673.559,454.76 z" id="boundary" inkscape:connector-curvature="0" />
	<path style="fill:none;stroke:red;stroke-width:1px;stroke-linecap:butt;stroke-linejoin:miter;stroke-opacity:1" d="M 749.234,476.146 736.073,466.275 z" id="boundary" inkscape:connector-curvature="0" />
	<path style="fill:none;stroke:red;stroke-width:1px;stroke-linecap:butt;stroke-linejoin:miter;stroke-opacity:1" d="M 579.788,476.146 583.078,492.597 z" id="boundary" inkscape:connector-curvature="0" />
	<path style="fill:none;stroke:red;stroke-width:1px;stroke-linecap:butt;stroke-linejoin:miter;stroke-opacity:1" d="M 586.368,509.048 583.078,492.597 z" id="boundary" inkscape:connector-curvature="0" />
	<path style="fill:none;stroke:red;stroke-width:1px;stroke-linecap:butt;stroke-linejoin:miter;stroke-opacity:1" d="M 602.819,509.048 586.368,509.048 z" id="boundary" inkscape:connector-curvature="0" />
	<path style="fill:none;stroke:red;stroke-width:1px;stroke-linecap:butt;stroke-linejoin:miter;stroke-opacity:1" d="M 611.045,471.211 604.464,490.952 z" id="boundary" inkscape:connector-curvature="0" />
	<path style="fill:none;stroke:red;stroke-width:1px;stroke-linecap:butt;stroke-linejoin:miter;stroke-opacity:1" d="M 604.464,490.952 602.819,509.048 z" id="boundary" inkscape:connector-curvature="0" />
	<path style="fill:none;stroke:red;stroke-width:1px;stroke-linecap:butt;stroke-linejoin:miter;stroke-opacity:1" d="M 765.685,482.726 749.234,476.146 z" id="boundary" inkscape:connector-curvature="0" />
	<path style="fill:none;stroke:red;stroke-width:1px;stroke-linecap:butt;stroke-linejoin:miter;stroke-opacity:1" d="M 765.685,482.726 782.136,482.726 z" id="boundary" inkscape:connector-curvature="0" />
	<path style="fill:none;stroke:red;stroke-width:1px;stroke-linecap:butt;stroke-linejoin:miter;stroke-opacity:1" d="M 846.295,459.695 861.101,451.469 z" id="boundary" inkscape:connector-curvature="0" />
	<path style="fill:none;stroke:red;stroke-width:1px;stroke-linecap:butt;stroke-linejoin:miter;stroke-opacity:1" d="M 846.295,459.695 831.489,469.566 z" id="boundary" inkscape:connector-curvature="0" />
	<path style="fill:none;stroke:red;stroke-width:1px;stroke-linecap:butt;stroke-linejoin:miter;stroke-opacity:1" d="M 892.358,456.405 877.552,448.179 z" id="boundary" inkscape:connector-curvature="0" />
	<path style="fill:none;stroke:red;stroke-width:1px;stroke-linecap:butt;stroke-linejoin:miter;stroke-opacity:1" d="M 877.552,448.179 861.101,451.469 z" id="boundary" inkscape:connector-curvature="0" />
	<path style="fill:none;stroke:red;stroke-width:1px;stroke-linecap:butt;stroke-linejoin:miter;stroke-opacity:1" d="M 905.519,466.275 892.358,456.405 z" id="boundary" inkscape:connector-curvature="0" />
	<path style="fill:none;stroke:red;stroke-width:1px;stroke-linecap:butt;stroke-linejoin:miter;stroke-opacity:1" d="M 938.421,453.114 921.97,459.695 z" id="boundary" inkscape:connector-curvature="0" />
	<path style="fill:none;stroke:red;stroke-width:1px;stroke-linecap:butt;stroke-linejoin:miter;stroke-opacity:1" d="M 921.97,459.695 905.519,466.275 z" id="boundary" inkscape:connector-curvature="0" />
	<path style="fill:none;stroke:red;stroke-width:1px;stroke-linecap:butt;stroke-linejoin:miter;stroke-opacity:1" d="M 979.549,395.536 979.549,411.987 z" id="boundary" inkscape:connector-curvature="0" />
	<path style="fill:none;stroke:red;stroke-width:1px;stroke-linecap:butt;stroke-linejoin:miter;stroke-opacity:1" d="M 979.549,428.438 979.549,411.987 z" id="boundary" inkscape:connector-curvature="0" />
	<path style="fill:none;stroke:red;stroke-width:1px;stroke-linecap:butt;stroke-linejoin:miter;stroke-opacity:1" d="M 989.42,461.34 982.839,444.889 z" id="boundary" inkscape:connector-curvature="0" />
	<path style="fill:none;stroke:red;stroke-width:1px;stroke-linecap:butt;stroke-linejoin:miter;stroke-opacity:1" d="M 938.421,453.114 954.872,453.114 z" id="boundary" inkscape:connector-curvature="0" />
	<path style="fill:none;stroke:red;stroke-width:1px;stroke-linecap:butt;stroke-linejoin:miter;stroke-opacity:1" d="M 968.033,462.985 954.872,453.114 z" id="boundary" inkscape:connector-curvature="0" />
	<path style="fill:none;stroke:red;stroke-width:1px;stroke-linecap:butt;stroke-linejoin:miter;stroke-opacity:1" d="M 982.839,444.889 979.549,428.438 z" id="boundary" inkscape:connector-curvature="0" />
	<path style="fill:none;stroke:red;stroke-width:1px;stroke-linecap:butt;stroke-linejoin:miter;stroke-opacity:1" d="M 815.038,476.146 831.489,469.566 z" id="boundary" inkscape:connector-curvature="0" />
	<path style="fill:none;stroke:red;stroke-width:1px;stroke-linecap:butt;stroke-linejoin:miter;stroke-opacity:1" d="M 815.038,476.146 798.587,482.726 z" id="boundary" inkscape:connector-curvature="0" />
	<path style="fill:none;stroke:red;stroke-width:1px;stroke-linecap:butt;stroke-linejoin:miter;stroke-opacity:1" d="M 782.136,482.726 798.587,482.726 z" id="boundary" inkscape:connector-curvature="0" />
	<path style="fill:none;stroke:red;stroke-width:1px;stroke-linecap:butt;stroke-linejoin:miter;stroke-opacity:1" d="M 968.033,462.985 968.033,479.436 z" id="boundary" inkscape:connector-curvature="0" />
	<path style="fill:none;stroke:red;stroke-width:1px;stroke-linecap:butt;stroke-linejoin:miter;stroke-opacity:1" d="M 968.033,479.436 968.033,495.887 z" id="boundary" inkscape:connector-curvature="0" />
	<path style="fill:none;stroke:red;stroke-width:1px;stroke-linecap:butt;stroke-linejoin:miter;stroke-opacity:1" d="M 968.033,495.887 976.259,510.693 z" id="boundary" inkscape:connector-curvature="0" />
	<path style="fill:none;stroke:red;stroke-width:1px;stroke-linecap:butt;stroke-linejoin:miter;stroke-opacity:1" d="M 992.71,504.113 976.259,510.693 z" id="boundary" inkscape:connector-curvature="0" />
	<path style="fill:none;stroke:red;stroke-width:1px;stroke-linecap:butt;stroke-linejoin:miter;stroke-opacity:1" d="M 984.484,489.307 992.71,504.113 z" id="boundary" inkscape:connector-curvature="0" />
	<circle cx="4" cy="129.028" r="4" fill="#0" id="circle0"/>
	<circle cx="4" cy="145.479" r="4" fill="#0" id="circle1"/>
	<circle cx="4" cy="333.022" r="4" fill="#0" id="circle2"/>
	<circle cx="4" cy="349.473" r="4" fill="#0" id="circle3"/>
	<circle cx="4" cy="365.924" r="4" fill="#0" id="circle4"/>
	<circle cx="4" cy="382.375" r="4" fill="#0" id="circle5"/>
	<circle cx="4" cy="398.826" r="4" fill="#0" id="circle6"/>
	<circle cx="4" cy="415.277" r="4" fill="#0" id="circle7"/>
	<circle cx="4" cy="431.728" r="4" fill="#0" id="circle8"/>
	<circle cx="7.29022" cy="300.119" r="4" fill="#0" id="circle9"/>
	<circle cx="7.29022" cy="316.57" r="4" fill="#0" id="circle10"/>
	<circle cx="7.29022" cy="448.179" r="4" fill="#0" id="circle11"/>
	<circle cx="10.5804" cy="161.93" r="4" fill="#0" id="circle12"/>
	<circle cx="10.5804" cy="178.381" r="4" fill="#0" id="circle13"/>
	<circle cx="10.5804" cy="270.507" r="4" fill="#0" id="circle14"/>
	<circle cx="10.5804" cy="464.63" r="4" fill="#0" id="circle15"/>
	<circle cx="10.5804" cy="481.081" r="4" fill="#0" id="circle16"/>
	<circle cx="10.5804" cy="497.532" r="4" fill="#0" id="circle17"/>
	<circle cx="12.2255" cy="114.222" r="4" fill="#0" id="circle18"/>
	<circle cx="13.8706" cy="194.833" r="4" fill="#0" id="circle19"/>
	<circle cx="13.8706" cy="211.284" r="4" fill="#0" id="circle20"/>
	<circle cx="13.8706" cy="227.735" r="4" fill="#0" id="circle21"/>
	<circle cx="13.8706" cy="244.186" r="4" fill="#0" id="circle22"/>
	<circle cx="23.7413" cy="509.048" r="4" fill="#0" id="circle23"/>
	<circle cx="25.3864" cy="104.352" r="4" fill="#0" id="circle24"/>
	<circle cx="31.9668" cy="458.05" r="4" fill="#0" id="circle25"/>
	<circle cx="31.9668" cy="474.501" r="4" fill="#0" id="circle26"/>
	<circle cx="31.9668" cy="490.952" r="4" fill="#0" id="circle27"/>
	<circle cx="38.5473" cy="94.4809" r="4" fill="#0" id="circle28"/>
	<circle cx="40.1924" cy="443.244" r="4" fill="#0" id="circle29"/>
	<circle cx="54.9983" cy="89.5456" r="4" fill="#0" id="circle30"/>
	<circle cx="56.6434" cy="443.244" r="4" fill="#0" id="circle31"/>
	<circle cx="71.4494" cy="81.3201" r="4" fill="#0" id="circle32"/>
	<circle cx="73.0945" cy="443.244" r="4" fill="#0" id="circle33"/>
	<circle cx="87.9005" cy="74.7396" r="4" fill="#0" id="circle34"/>
	<circle cx="89.5456" cy="443.244" r="4" fill="#0" id="circle35"/>
	<circle cx="104.352" cy="69.8043" r="4" fill="#0" id="circle36"/>
	<circle cx="105.997" cy="443.244" r="4" fill="#0" id="circle37"/>
	<circle cx="120.803" cy="66.5141" r="4" fill="#0" id="circle38"/>
	<circle cx="122.448" cy="443.244" r="4" fill="#0" id="circle39"/>
	<circle cx="137.254" cy="58.2886" r="4" fill="#0" id="circle40"/>
	<circle cx="138.899" cy="443.244" r="4" fill="#0" id="circle41"/>
	<circle cx="147.124" cy="45.1277" r="4" fill="#0" id="circle42"/>
	<circle cx="155.35" cy="443.244" r="4" fill="#0" id="circle43"/>
	<circle cx="163.575" cy="38.5473" r="4" fill="#0" id="circle44"/>
	<circle cx="171.801" cy="443.244" r="4" fill="#0" id="circle45"/>
	<circle cx="173.446" cy="25.3864" r="4" fill="#0" id="circle46"/>
	<circle cx="181.672" cy="10.5804" r="4" fill="#0" id="circle47"/>
	<circle cx="188.252" cy="443.244" r="4" fill="#0" id="circle48"/>
	<circle cx="198.123" cy="4" r="4" fill="#0" id="circle49"/>
	<circle cx="204.703" cy="443.244" r="4" fill="#0" id="circle50"/>
	<circle cx="211.284" cy="13.8706" r="4" fill="#0" id="circle51"/>
	<circle cx="221.154" cy="27.0315" r="4" fill="#0" id="circle52"/>
	<circle cx="221.154" cy="443.244" r="4" fill="#0" id="circle53"/>
	<circle cx="234.315" cy="38.5473" r="4" fill="#0" id="circle54"/>
	<circle cx="237.605" cy="443.244" r="4" fill="#0" id="circle55"/>
	<circle cx="250.766" cy="45.1277" r="4" fill="#0" id="circle56"/>
	<circle cx="254.056" cy="443.244" r="4" fill="#0" id="circle57"/>
	<circle cx="258.992" cy="59.9337" r="4" fill="#0" id="circle58"/>
	<circle cx="270.507" cy="443.244" r="4" fill="#0" id="circle59"/>
	<circle cx="273.798" cy="68.1592" r="4" fill="#0" id="circle60"/>
	<circle cx="286.959" cy="443.244" r="4" fill="#0" id="circle61"/>
	<circle cx="290.249" cy="73.0945" r="4" fill="#0" id="circle62"/>
	<circle cx="303.41" cy="443.244" r="4" fill="#0" id="circle63"/>
	<circle cx="306.7" cy="78.0299" r="4" fill="#0" id="circle64"/>
	<circle cx="319.861" cy="443.244" r="4" fill="#0" id="circle65"/>
	<circle cx="323.151" cy="84.6103" r="4" fill="#0" id="circle66"/>
	<circle cx="336.312" cy="443.244" r="4" fill="#0" id="circle67"/>
	<circle cx="339.602" cy="89.5456" r="4" fill="#0" id="circle68"/>
	<circle cx="349.473" cy="453.114" r="4" fill="#0" id="circle69"/>
	<circle cx="352.763" cy="99.4163" r="4" fill="#0" id="circle70"/>
	<circle cx="356.053" cy="469.566" r="4" fill="#0" id="circle71"/>
	<circle cx="356.053" cy="486.017" r="4" fill="#0" id="circle72"/>
	<circle cx="356.053" cy="502.468" r="4" fill="#0" id="circle73"/>
	<circle cx="364.279" cy="194.833" r="4" fill="#0" id="circle74"/>
	<circle cx="367.569" cy="107.642" r="4" fill="#0" id="circle75"/>
	<circle cx="367.569" cy="175.091" r="4" fill="#0" id="circle76"/>
	<circle cx="372.504" cy="509.048" r="4" fill="#0" id="circle77"/>
	<circle cx="374.149" cy="158.64" r="4" fill="#0" id="circle78"/>
	<circle cx="374.149" cy="487.662" r="4" fill="#0" id="circle79"/>
	<circle cx="377.439" cy="120.803" r="4" fill="#0" id="circle80"/>
	<circle cx="377.439" cy="204.703" r="4" fill="#0" id="circle81"/>
	<circle cx="377.439" cy="444.889" r="4" fill="#0" id="circle82"/>
	<circle cx="377.439" cy="461.34" r="4" fill="#0" id="circle83"/>
	<circle cx="380.73" cy="137.254" r="4" fill="#0" id="circle84"/>
	<circle cx="393.891" cy="204.703" r="4" fill="#0" id="circle85"/>
	<circle cx="393.891" cy="443.244" r="4" fill="#0" id="circle86"/>
	<circle cx="410.342" cy="207.993" r="4" fill="#0" id="circle87"/>
	<circle cx="410.342" cy="443.244" r="4" fill="#0" id="circle88"/>
	<circle cx="426.793" cy="211.284" r="4" fill="#0" id="circle89"/>
	<circle cx="426.793" cy="443.244" r="4" fill="#0" id="circle90"/>
	<circle cx="443.244" cy="217.864" r="4" fill="#0" id="circle91"/>
	<circle cx="443.244" cy="443.244" r="4" fill="#0" id="circle92"/>
	<circle cx="456.405" cy="227.735" r="4" fill="#0" id="circle93"/>
	<circle cx="459.695" cy="443.244" r="4" fill="#0" id="circle94"/>
	<circle cx="471.211" cy="235.96" r="4" fill="#0" id="circle95"/>
	<circle cx="476.146" cy="443.244" r="4" fill="#0" id="circle96"/>
	<circle cx="482.726" cy="249.121" r="4" fill="#0" id="circle97"/>
	<circle cx="492.597" cy="443.244" r="4" fill="#0" id="circle98"/>
	<circle cx="495.887" cy="260.637" r="4" fill="#0" id="circle99"/>
	<circle cx="509.048" cy="270.507" r="4" fill="#0" id="circle100"/>
	<circle cx="509.048" cy="443.244" r="4" fill="#0" id="circle101"/>
	<circle cx="518.919" cy="283.668" r="4" fill="#0" id="circle102"/>
	<circle cx="525.499" cy="443.244" r="4" fill="#0" id="circle103"/>
	<circle cx="532.08" cy="293.539" r="4" fill="#0" id="circle104"/>
	<circle cx="541.95" cy="443.244" r="4" fill="#0" id="circle105"/>
	<circle cx="548.531" cy="293.539" r="4" fill="#0" id="circle106"/>
	<circle cx="558.401" cy="443.244" r="4" fill="#0" id="circle107"/>
	<circle cx="564.982" cy="293.539" r="4" fill="#0" id="circle108"/>
	<circle cx="574.852" cy="443.244" r="4" fill="#0" id="circle109"/>
	<circle cx="579.788" cy="459.695" r="4" fill="#0" id="circle110"/>
	<circle cx="579.788" cy="476.146" r="4" fill="#0" id="circle111"/>
	<circle cx="581.433" cy="293.539" r="4" fill="#0" id="circle112"/>
	<circle cx="583.078" cy="492.597" r="4" fill="#0" id="circle113"/>
	<circle cx="586.368" cy="509.048" r="4" fill="#0" id="circle114"/>
	<circle cx="597.884" cy="290.249" r="4" fill="#0" id="circle115"/>
	<circle cx="602.819" cy="509.048" r="4" fill="#0" id="circle116"/>
	<circle cx="604.464" cy="490.952" r="4" fill="#0" id="circle117"/>
	<circle cx="611.045" cy="454.76" r="4" fill="#0" id="circle118"/>
	<circle cx="611.045" cy="471.211" r="4" fill="#0" id="circle119"/>
	<circle cx="614.335" cy="283.668" r="4" fill="#0" id="circle120"/>
	<circle cx="627.496" cy="453.114" r="4" fill="#0" id="circle121"/>
	<circle cx="630.786" cy="277.088" r="4" fill="#0" id="circle122"/>
	<circle cx="643.947" cy="456.405" r="4" fill="#0" id="circle123"/>
	<circle cx="647.237" cy="270.507" r="4" fill="#0" id="circle124"/>
	<circle cx="658.753" cy="464.63" r="4" fill="#0" id="circle125"/>
	<circle cx="663.688" cy="267.217" r="4" fill="#0" id="circle126"/>
	<circle cx="673.559" cy="454.76" r="4" fill="#0" id="circle127"/>
	<circle cx="680.139" cy="267.217" r="4" fill="#0" id="circle128"/>
	<circle cx="688.365" cy="446.534" r="4" fill="#0" id="circle129"/>
	<circle cx="696.59" cy="263.927" r="4" fill="#0" id="circle130"/>
	<circle cx="704.816" cy="451.469" r="4" fill="#0" id="circle131"/>
	<circle cx="713.041" cy="260.637" r="4" fill="#0" id="circle132"/>
	<circle cx="719.622" cy="459.695" r="4" fill="#0" id="circle133"/>
	<circle cx="727.847" cy="250.766" r="4" fill="#0" id="circle134"/>
	<circle cx="736.073" cy="466.275" r="4" fill="#0" id="circle135"/>
	<circle cx="744.299" cy="240.896" r="4" fill="#0" id="circle136"/>
	<circle cx="749.234" cy="476.146" r="4" fill="#0" id="circle137"/>
	<circle cx="759.104" cy="232.67" r="4" fill="#0" id="circle138"/>
	<circle cx="765.685" cy="482.726" r="4" fill="#0" id="circle139"/>
	<circle cx="773.91" cy="224.444" r="4" fill="#0" id="circle140"/>
	<circle cx="782.136" cy="482.726" r="4" fill="#0" id="circle141"/>
	<circle cx="790.362" cy="222.799" r="4" fill="#0" id="circle142"/>
	<circle cx="798.587" cy="482.726" r="4" fill="#0" id="circle143"/>
	<circle cx="803.522" cy="232.67" r="4" fill="#0" id="circle144"/>
	<circle cx="815.038" cy="476.146" r="4" fill="#0" id="circle145"/>
	<circle cx="818.328" cy="240.896" r="4" fill="#0" id="circle146"/>
	<circle cx="831.489" cy="469.566" r="4" fill="#0" id="circle147"/>
	<circle cx="834.779" cy="247.476" r="4" fill="#0" id="circle148"/>
	<circle cx="844.65" cy="260.637" r="4" fill="#0" id="circle149"/>
	<circle cx="846.295" cy="459.695" r="4" fill="#0" id="circle150"/>
	<circle cx="861.101" cy="263.927" r="4" fill="#0" id="circle151"/>
	<circle cx="861.101" cy="451.469" r="4" fill="#0" id="circle152"/>
	<circle cx="877.552" cy="263.927" r="4" fill="#0" id="circle153"/>
	<circle cx="877.552" cy="448.179" r="4" fill="#0" id="circle154"/>
	<circle cx="892.358" cy="456.405" r="4" fill="#0" id="circle155"/>
	<circle cx="894.003" cy="267.217" r="4" fill="#0" id="circle156"/>
	<circle cx="905.519" cy="466.275" r="4" fill="#0" id="circle157"/>
	<circle cx="910.454" cy="270.507" r="4" fill="#0" id="circle158"/>
	<circle cx="921.97" cy="459.695" r="4" fill="#0" id="circle159"/>
	<circle cx="926.905" cy="273.798" r="4" fill="#0" id="circle160"/>
	<circle cx="938.421" cy="453.114" r="4" fill="#0" id="circle161"/>
	<circle cx="943.357" cy="277.088" r="4" fill="#0" id="circle162"/>
	<circle cx="954.872" cy="453.114" r="4" fill="#0" id="circle163"/>
	<circle cx="959.808" cy="283.668" r="4" fill="#0" id="circle164"/>
	<circle cx="968.033" cy="462.985" r="4" fill="#0" id="circle165"/>
	<circle cx="968.033" cy="479.436" r="4" fill="#0" id="circle166"/>
	<circle cx="968.033" cy="495.887" r="4" fill="#0" id="circle167"/>
	<circle cx="972.968" cy="293.539" r="4" fill="#0" id="circle168"/>
	<circle cx="976.259" cy="510.693" r="4" fill="#0" id="circle169"/>
	<circle cx="979.549" cy="395.536" r="4" fill="#0" id="circle170"/>
	<circle cx="979.549" cy="411.987" r="4" fill="#0" id="circle171"/>
	<circle cx="979.549" cy="428.438" r="4" fill="#0" id="circle172"/>
	<circle cx="982.839" cy="352.763" r="4" fill="#0" id="circle173"/>
	<circle cx="982.839" cy="369.214" r="4" fill="#0" id="circle174"/>
	<circle cx="982.839" cy="444.889" r="4" fill="#0" id="circle175"/>
	<circle cx="984.484" cy="489.307" r="4" fill="#0" id="circle176"/>
	<circle cx="986.129" cy="303.41" r="4" fill="#0" id="circle177"/>
	<circle cx="989.42" cy="461.34" r="4" fill="#0" id="circle178"/>
	<circle cx="992.71" cy="504.113" r="4" fill="#0" id="circle179"/>
	<circle cx="996" cy="316.57" r="4" fill="#0" id="circle180"/>
	<circle cx="996" cy="333.022" r="4" fill="#0" id="circle181"/>
	</g>
</svg>