<?xml version="1.0" encoding="UTF-8" standalone="no"?>
<!-- Created with CurveBenchmark -->
<svg
	xmlns:dc="http://purl.org/dc/elements/1.1/"
	xmlns:cc="http://creativecommons.org/ns#"
	xmlns:rdf="http://www.w3.org/1999/02/22-rdf-syntax-ns#"
	xmlns:svg="http://www.w3.org/2000/svg"
	xmlns="http://www.w3.org/2000/svg"
	xmlns:sodipodi="http://sodipodi.sourceforge.net/DTD/sodipodi-0.dtd"
	xmlns:inkscape="http://www.inkscape.org/namespaces/inkscape"
	width="1000"
	height="1000"
	id="svg2"
	version="1.1"
	sodipodi:docname="manifold/crust-carriage12.png.txt">
<defs
	id="defs4" />
<metadata
	id="metadata7">
	<rdf:RDF>
		<cc:Work
			rdf:about="">
			<dc:format>image/svg+xml</dc:format>
			<dc:type
				rdf:resource="http://purl.org/dc/dcmitype/StillImage" />
			<dc:title></dc:title>
		</cc:Work>
	</rdf:RDF>
</metadata>
<g
	inkscape:label="Layer 1"
	inkscape:groupmode="layer"
	id="layer1">
	<path style="fill:none;stroke:red;stroke-width:1px;stroke-linecap:butt;stroke-linejoin:miter;stroke-opacity:1" d="M 37.2886,92.2148 20.6443,100.537 z" id="boundary" inkscape:connector-curvature="0" />
	<path style="fill:none;stroke:red;stroke-width:1px;stroke-linecap:butt;stroke-linejoin:miter;stroke-opacity:1" d="M 20.6443,117.181 12.3221,133.826 z" id="boundary" inkscape:connector-curvature="0" />
	<path style="fill:none;stroke:red;stroke-width:1px;stroke-linecap:butt;stroke-linejoin:miter;stroke-opacity:1" d="M 20.6443,100.537 20.6443,117.181 z" id="boundary" inkscape:connector-curvature="0" />
	<path style="fill:none;stroke:red;stroke-width:1px;stroke-linecap:butt;stroke-linejoin:miter;stroke-opacity:1" d="M 70.5772,90.5503 53.9329,87.2215 z" id="boundary" inkscape:connector-curvature="0" />
	<path style="fill:none;stroke:red;stroke-width:1px;stroke-linecap:butt;stroke-linejoin:miter;stroke-opacity:1" d="M 37.2886,92.2148 53.9329,87.2215 z" id="boundary" inkscape:connector-curvature="0" />
	<path style="fill:none;stroke:red;stroke-width:1px;stroke-linecap:butt;stroke-linejoin:miter;stroke-opacity:1" d="M 12.3221,133.826 4,150.47 z" id="boundary" inkscape:connector-curvature="0" />
	<path style="fill:none;stroke:red;stroke-width:1px;stroke-linecap:butt;stroke-linejoin:miter;stroke-opacity:1" d="M 63.9195,147.141 47.2752,147.141 z" id="boundary" inkscape:connector-curvature="0" />
	<path style="fill:none;stroke:red;stroke-width:1px;stroke-linecap:butt;stroke-linejoin:miter;stroke-opacity:1" d="M 47.2752,147.141 33.9597,162.121 z" id="boundary" inkscape:connector-curvature="0" />
	<path style="fill:none;stroke:red;stroke-width:1px;stroke-linecap:butt;stroke-linejoin:miter;stroke-opacity:1" d="M 87.2215,95.5436 70.5772,90.5503 z" id="boundary" inkscape:connector-curvature="0" />
	<path style="fill:none;stroke:red;stroke-width:1px;stroke-linecap:butt;stroke-linejoin:miter;stroke-opacity:1" d="M 87.2215,95.5436 103.866,98.8725 z" id="boundary" inkscape:connector-curvature="0" />
	<path style="fill:none;stroke:red;stroke-width:1px;stroke-linecap:butt;stroke-linejoin:miter;stroke-opacity:1" d="M 118.846,107.195 103.866,98.8725 z" id="boundary" inkscape:connector-curvature="0" />
	<path style="fill:none;stroke:red;stroke-width:1px;stroke-linecap:butt;stroke-linejoin:miter;stroke-opacity:1" d="M 135.49,113.852 118.846,107.195 z" id="boundary" inkscape:connector-curvature="0" />
	<path style="fill:none;stroke:red;stroke-width:1px;stroke-linecap:butt;stroke-linejoin:miter;stroke-opacity:1" d="M 212.054,153.799 195.409,148.805 z" id="boundary" inkscape:connector-curvature="0" />
	<path style="fill:none;stroke:red;stroke-width:1px;stroke-linecap:butt;stroke-linejoin:miter;stroke-opacity:1" d="M 78.8993,155.463 63.9195,147.141 z" id="boundary" inkscape:connector-curvature="0" />
	<path style="fill:none;stroke:red;stroke-width:1px;stroke-linecap:butt;stroke-linejoin:miter;stroke-opacity:1" d="M 150.47,122.174 135.49,113.852 z" id="boundary" inkscape:connector-curvature="0" />
	<path style="fill:none;stroke:red;stroke-width:1px;stroke-linecap:butt;stroke-linejoin:miter;stroke-opacity:1" d="M 167.114,128.832 182.094,137.154 z" id="boundary" inkscape:connector-curvature="0" />
	<path style="fill:none;stroke:red;stroke-width:1px;stroke-linecap:butt;stroke-linejoin:miter;stroke-opacity:1" d="M 195.409,148.805 182.094,137.154 z" id="boundary" inkscape:connector-curvature="0" />
	<path style="fill:none;stroke:red;stroke-width:1px;stroke-linecap:butt;stroke-linejoin:miter;stroke-opacity:1" d="M 150.47,122.174 167.114,128.832 z" id="boundary" inkscape:connector-curvature="0" />
	<path style="fill:none;stroke:red;stroke-width:1px;stroke-linecap:butt;stroke-linejoin:miter;stroke-opacity:1" d="M 228.698,153.799 212.054,153.799 z" id="boundary" inkscape:connector-curvature="0" />
	<path style="fill:none;stroke:red;stroke-width:1px;stroke-linecap:butt;stroke-linejoin:miter;stroke-opacity:1" d="M 4,150.47 17.3154,162.121 z" id="boundary" inkscape:connector-curvature="0" />
	<path style="fill:none;stroke:red;stroke-width:1px;stroke-linecap:butt;stroke-linejoin:miter;stroke-opacity:1" d="M 17.3154,162.121 33.9597,162.121 z" id="boundary" inkscape:connector-curvature="0" />
	<path style="fill:none;stroke:red;stroke-width:1px;stroke-linecap:butt;stroke-linejoin:miter;stroke-opacity:1" d="M 78.8993,155.463 87.2215,183.758 z" id="boundary" inkscape:connector-curvature="0" />
	<path style="fill:none;stroke:red;stroke-width:1px;stroke-linecap:butt;stroke-linejoin:miter;stroke-opacity:1" d="M 87.2215,183.758 87.2215,200.403 z" id="boundary" inkscape:connector-curvature="0" />
	<path style="fill:none;stroke:red;stroke-width:1px;stroke-linecap:butt;stroke-linejoin:miter;stroke-opacity:1" d="M 87.2215,200.403 87.2215,217.047 z" id="boundary" inkscape:connector-curvature="0" />
	<path style="fill:none;stroke:red;stroke-width:1px;stroke-linecap:butt;stroke-linejoin:miter;stroke-opacity:1" d="M 87.2215,217.047 87.2215,233.691 z" id="boundary" inkscape:connector-curvature="0" />
	<path style="fill:none;stroke:red;stroke-width:1px;stroke-linecap:butt;stroke-linejoin:miter;stroke-opacity:1" d="M 87.2215,233.691 92.2148,253.664 z" id="boundary" inkscape:connector-curvature="0" />
	<path style="fill:none;stroke:red;stroke-width:1px;stroke-linecap:butt;stroke-linejoin:miter;stroke-opacity:1" d="M 92.2148,253.664 83.8926,270.309 z" id="boundary" inkscape:connector-curvature="0" />
	<path style="fill:none;stroke:red;stroke-width:1px;stroke-linecap:butt;stroke-linejoin:miter;stroke-opacity:1" d="M 278.631,153.799 261.987,153.799 z" id="boundary" inkscape:connector-curvature="0" />
	<path style="fill:none;stroke:red;stroke-width:1px;stroke-linecap:butt;stroke-linejoin:miter;stroke-opacity:1" d="M 228.698,153.799 245.342,153.799 z" id="boundary" inkscape:connector-curvature="0" />
	<path style="fill:none;stroke:red;stroke-width:1px;stroke-linecap:butt;stroke-linejoin:miter;stroke-opacity:1" d="M 261.987,153.799 245.342,153.799 z" id="boundary" inkscape:connector-curvature="0" />
	<path style="fill:none;stroke:red;stroke-width:1px;stroke-linecap:butt;stroke-linejoin:miter;stroke-opacity:1" d="M 278.631,153.799 295.275,153.799 z" id="boundary" inkscape:connector-curvature="0" />
	<path style="fill:none;stroke:red;stroke-width:1px;stroke-linecap:butt;stroke-linejoin:miter;stroke-opacity:1" d="M 311.919,153.799 328.564,157.128 z" id="boundary" inkscape:connector-curvature="0" />
	<path style="fill:none;stroke:red;stroke-width:1px;stroke-linecap:butt;stroke-linejoin:miter;stroke-opacity:1" d="M 295.275,153.799 311.919,153.799 z" id="boundary" inkscape:connector-curvature="0" />
	<path style="fill:none;stroke:red;stroke-width:1px;stroke-linecap:butt;stroke-linejoin:miter;stroke-opacity:1" d="M 343.544,165.45 328.564,157.128 z" id="boundary" inkscape:connector-curvature="0" />
	<path style="fill:none;stroke:red;stroke-width:1px;stroke-linecap:butt;stroke-linejoin:miter;stroke-opacity:1" d="M 495.007,125.503 486.685,142.148 z" id="boundary" inkscape:connector-curvature="0" />
	<path style="fill:none;stroke:red;stroke-width:1px;stroke-linecap:butt;stroke-linejoin:miter;stroke-opacity:1" d="M 486.685,158.792 486.685,142.148 z" id="boundary" inkscape:connector-curvature="0" />
	<path style="fill:none;stroke:red;stroke-width:1px;stroke-linecap:butt;stroke-linejoin:miter;stroke-opacity:1" d="M 360.188,172.107 343.544,165.45 z" id="boundary" inkscape:connector-curvature="0" />
	<path style="fill:none;stroke:red;stroke-width:1px;stroke-linecap:butt;stroke-linejoin:miter;stroke-opacity:1" d="M 371.839,185.423 360.188,172.107 z" id="boundary" inkscape:connector-curvature="0" />
	<path style="fill:none;stroke:red;stroke-width:1px;stroke-linecap:butt;stroke-linejoin:miter;stroke-opacity:1" d="M 380.161,200.403 371.839,185.423 z" id="boundary" inkscape:connector-curvature="0" />
	<path style="fill:none;stroke:red;stroke-width:1px;stroke-linecap:butt;stroke-linejoin:miter;stroke-opacity:1" d="M 486.685,158.792 486.685,175.436 z" id="boundary" inkscape:connector-curvature="0" />
	<path style="fill:none;stroke:red;stroke-width:1px;stroke-linecap:butt;stroke-linejoin:miter;stroke-opacity:1" d="M 486.685,192.081 486.685,175.436 z" id="boundary" inkscape:connector-curvature="0" />
	<path style="fill:none;stroke:red;stroke-width:1px;stroke-linecap:butt;stroke-linejoin:miter;stroke-opacity:1" d="M 380.161,217.047 380.161,200.403 z" id="boundary" inkscape:connector-curvature="0" />
	<path style="fill:none;stroke:red;stroke-width:1px;stroke-linecap:butt;stroke-linejoin:miter;stroke-opacity:1" d="M 393.477,228.698 380.161,217.047 z" id="boundary" inkscape:connector-curvature="0" />
	<path style="fill:none;stroke:red;stroke-width:1px;stroke-linecap:butt;stroke-linejoin:miter;stroke-opacity:1" d="M 486.685,192.081 475.034,220.376 z" id="boundary" inkscape:connector-curvature="0" />
	<path style="fill:none;stroke:red;stroke-width:1px;stroke-linecap:butt;stroke-linejoin:miter;stroke-opacity:1" d="M 441.745,220.376 458.389,220.376 z" id="boundary" inkscape:connector-curvature="0" />
	<path style="fill:none;stroke:red;stroke-width:1px;stroke-linecap:butt;stroke-linejoin:miter;stroke-opacity:1" d="M 475.034,220.376 458.389,220.376 z" id="boundary" inkscape:connector-curvature="0" />
	<path style="fill:none;stroke:red;stroke-width:1px;stroke-linecap:butt;stroke-linejoin:miter;stroke-opacity:1" d="M 441.745,220.376 426.765,228.698 z" id="boundary" inkscape:connector-curvature="0" />
	<path style="fill:none;stroke:red;stroke-width:1px;stroke-linecap:butt;stroke-linejoin:miter;stroke-opacity:1" d="M 393.477,228.698 410.121,228.698 z" id="boundary" inkscape:connector-curvature="0" />
	<path style="fill:none;stroke:red;stroke-width:1px;stroke-linecap:butt;stroke-linejoin:miter;stroke-opacity:1" d="M 410.121,228.698 426.765,228.698 z" id="boundary" inkscape:connector-curvature="0" />
	<path style="fill:none;stroke:red;stroke-width:1px;stroke-linecap:butt;stroke-linejoin:miter;stroke-opacity:1" d="M 62.255,300.268 62.255,316.913 z" id="boundary" inkscape:connector-curvature="0" />
	<path style="fill:none;stroke:red;stroke-width:1px;stroke-linecap:butt;stroke-linejoin:miter;stroke-opacity:1" d="M 83.8926,270.309 75.5705,286.953 z" id="boundary" inkscape:connector-curvature="0" />
	<path style="fill:none;stroke:red;stroke-width:1px;stroke-linecap:butt;stroke-linejoin:miter;stroke-opacity:1" d="M 62.255,300.268 75.5705,286.953 z" id="boundary" inkscape:connector-curvature="0" />
	<path style="fill:none;stroke:red;stroke-width:1px;stroke-linecap:butt;stroke-linejoin:miter;stroke-opacity:1" d="M 135.49,285.289 122.174,296.94 z" id="boundary" inkscape:connector-curvature="0" />
	<path style="fill:none;stroke:red;stroke-width:1px;stroke-linecap:butt;stroke-linejoin:miter;stroke-opacity:1" d="M 62.255,316.913 62.255,333.557 z" id="boundary" inkscape:connector-curvature="0" />
	<path style="fill:none;stroke:red;stroke-width:1px;stroke-linecap:butt;stroke-linejoin:miter;stroke-opacity:1" d="M 122.174,296.94 122.174,313.584 z" id="boundary" inkscape:connector-curvature="0" />
	<path style="fill:none;stroke:red;stroke-width:1px;stroke-linecap:butt;stroke-linejoin:miter;stroke-opacity:1" d="M 122.174,330.228 122.174,313.584 z" id="boundary" inkscape:connector-curvature="0" />
	<path style="fill:none;stroke:red;stroke-width:1px;stroke-linecap:butt;stroke-linejoin:miter;stroke-opacity:1" d="M 135.49,285.289 152.134,280.295 z" id="boundary" inkscape:connector-curvature="0" />
	<path style="fill:none;stroke:red;stroke-width:1px;stroke-linecap:butt;stroke-linejoin:miter;stroke-opacity:1" d="M 183.758,271.973 198.738,263.651 z" id="boundary" inkscape:connector-curvature="0" />
	<path style="fill:none;stroke:red;stroke-width:1px;stroke-linecap:butt;stroke-linejoin:miter;stroke-opacity:1" d="M 215.383,263.651 198.738,263.651 z" id="boundary" inkscape:connector-curvature="0" />
	<path style="fill:none;stroke:red;stroke-width:1px;stroke-linecap:butt;stroke-linejoin:miter;stroke-opacity:1" d="M 168.779,280.295 152.134,280.295 z" id="boundary" inkscape:connector-curvature="0" />
	<path style="fill:none;stroke:red;stroke-width:1px;stroke-linecap:butt;stroke-linejoin:miter;stroke-opacity:1" d="M 215.383,263.651 232.027,263.651 z" id="boundary" inkscape:connector-curvature="0" />
	<path style="fill:none;stroke:red;stroke-width:1px;stroke-linecap:butt;stroke-linejoin:miter;stroke-opacity:1" d="M 183.758,271.973 168.779,280.295 z" id="boundary" inkscape:connector-curvature="0" />
	<path style="fill:none;stroke:red;stroke-width:1px;stroke-linecap:butt;stroke-linejoin:miter;stroke-opacity:1" d="M 263.651,255.329 280.295,255.329 z" id="boundary" inkscape:connector-curvature="0" />
	<path style="fill:none;stroke:red;stroke-width:1px;stroke-linecap:butt;stroke-linejoin:miter;stroke-opacity:1" d="M 248.671,263.651 263.651,255.329 z" id="boundary" inkscape:connector-curvature="0" />
	<path style="fill:none;stroke:red;stroke-width:1px;stroke-linecap:butt;stroke-linejoin:miter;stroke-opacity:1" d="M 280.295,255.329 295.275,263.651 z" id="boundary" inkscape:connector-curvature="0" />
	<path style="fill:none;stroke:red;stroke-width:1px;stroke-linecap:butt;stroke-linejoin:miter;stroke-opacity:1" d="M 313.584,291.946 303.597,278.631 z" id="boundary" inkscape:connector-curvature="0" />
	<path style="fill:none;stroke:red;stroke-width:1px;stroke-linecap:butt;stroke-linejoin:miter;stroke-opacity:1" d="M 232.027,263.651 248.671,263.651 z" id="boundary" inkscape:connector-curvature="0" />
	<path style="fill:none;stroke:red;stroke-width:1px;stroke-linecap:butt;stroke-linejoin:miter;stroke-opacity:1" d="M 295.275,263.651 303.597,278.631 z" id="boundary" inkscape:connector-curvature="0" />
	<path style="fill:none;stroke:red;stroke-width:1px;stroke-linecap:butt;stroke-linejoin:miter;stroke-opacity:1" d="M 62.255,350.201 62.255,333.557 z" id="boundary" inkscape:connector-curvature="0" />
	<path style="fill:none;stroke:red;stroke-width:1px;stroke-linecap:butt;stroke-linejoin:miter;stroke-opacity:1" d="M 70.5772,365.181 62.255,350.201 z" id="boundary" inkscape:connector-curvature="0" />
	<path style="fill:none;stroke:red;stroke-width:1px;stroke-linecap:butt;stroke-linejoin:miter;stroke-opacity:1" d="M 70.5772,365.181 78.8993,380.161 z" id="boundary" inkscape:connector-curvature="0" />
	<path style="fill:none;stroke:red;stroke-width:1px;stroke-linecap:butt;stroke-linejoin:miter;stroke-opacity:1" d="M 78.8993,380.161 83.8926,396.805 z" id="boundary" inkscape:connector-curvature="0" />
	<path style="fill:none;stroke:red;stroke-width:1px;stroke-linecap:butt;stroke-linejoin:miter;stroke-opacity:1" d="M 113.852,380.161 100.537,395.141 z" id="boundary" inkscape:connector-curvature="0" />
	<path style="fill:none;stroke:red;stroke-width:1px;stroke-linecap:butt;stroke-linejoin:miter;stroke-opacity:1" d="M 100.537,395.141 83.8926,396.805 z" id="boundary" inkscape:connector-curvature="0" />
	<path style="fill:none;stroke:red;stroke-width:1px;stroke-linecap:butt;stroke-linejoin:miter;stroke-opacity:1" d="M 122.174,363.517 113.852,380.161 z" id="boundary" inkscape:connector-curvature="0" />
	<path style="fill:none;stroke:red;stroke-width:1px;stroke-linecap:butt;stroke-linejoin:miter;stroke-opacity:1" d="M 122.174,330.228 122.174,346.872 z" id="boundary" inkscape:connector-curvature="0" />
	<path style="fill:none;stroke:red;stroke-width:1px;stroke-linecap:butt;stroke-linejoin:miter;stroke-opacity:1" d="M 122.174,363.517 122.174,346.872 z" id="boundary" inkscape:connector-curvature="0" />
	<path style="fill:none;stroke:red;stroke-width:1px;stroke-linecap:butt;stroke-linejoin:miter;stroke-opacity:1" d="M 325.235,305.262 313.584,291.946 z" id="boundary" inkscape:connector-curvature="0" />
	<path style="fill:none;stroke:red;stroke-width:1px;stroke-linecap:butt;stroke-linejoin:miter;stroke-opacity:1" d="M 363.517,280.295 380.161,271.973 z" id="boundary" inkscape:connector-curvature="0" />
	<path style="fill:none;stroke:red;stroke-width:1px;stroke-linecap:butt;stroke-linejoin:miter;stroke-opacity:1" d="M 363.517,296.94 363.517,280.295 z" id="boundary" inkscape:connector-curvature="0" />
	<path style="fill:none;stroke:red;stroke-width:1px;stroke-linecap:butt;stroke-linejoin:miter;stroke-opacity:1" d="M 363.517,313.584 363.517,296.94 z" id="boundary" inkscape:connector-curvature="0" />
	<path style="fill:none;stroke:red;stroke-width:1px;stroke-linecap:butt;stroke-linejoin:miter;stroke-opacity:1" d="M 336.886,318.577 325.235,305.262 z" id="boundary" inkscape:connector-curvature="0" />
	<path style="fill:none;stroke:red;stroke-width:1px;stroke-linecap:butt;stroke-linejoin:miter;stroke-opacity:1" d="M 380.161,271.973 396.805,271.973 z" id="boundary" inkscape:connector-curvature="0" />
	<path style="fill:none;stroke:red;stroke-width:1px;stroke-linecap:butt;stroke-linejoin:miter;stroke-opacity:1" d="M 336.886,318.577 336.886,335.221 z" id="boundary" inkscape:connector-curvature="0" />
	<path style="fill:none;stroke:red;stroke-width:1px;stroke-linecap:butt;stroke-linejoin:miter;stroke-opacity:1" d="M 336.886,335.221 336.886,351.866 z" id="boundary" inkscape:connector-curvature="0" />
	<path style="fill:none;stroke:red;stroke-width:1px;stroke-linecap:butt;stroke-linejoin:miter;stroke-opacity:1" d="M 363.517,313.584 363.517,330.228 z" id="boundary" inkscape:connector-curvature="0" />
	<path style="fill:none;stroke:red;stroke-width:1px;stroke-linecap:butt;stroke-linejoin:miter;stroke-opacity:1" d="M 363.517,330.228 363.517,355.195 z" id="boundary" inkscape:connector-curvature="0" />
	<path style="fill:none;stroke:red;stroke-width:1px;stroke-linecap:butt;stroke-linejoin:miter;stroke-opacity:1" d="M 396.805,271.973 413.45,263.651 z" id="boundary" inkscape:connector-curvature="0" />
	<path style="fill:none;stroke:red;stroke-width:1px;stroke-linecap:butt;stroke-linejoin:miter;stroke-opacity:1" d="M 428.43,288.617 428.43,271.973 z" id="boundary" inkscape:connector-curvature="0" />
	<path style="fill:none;stroke:red;stroke-width:1px;stroke-linecap:butt;stroke-linejoin:miter;stroke-opacity:1" d="M 428.43,271.973 413.45,263.651 z" id="boundary" inkscape:connector-curvature="0" />
	<path style="fill:none;stroke:red;stroke-width:1px;stroke-linecap:butt;stroke-linejoin:miter;stroke-opacity:1" d="M 428.43,288.617 428.43,305.262 z" id="boundary" inkscape:connector-curvature="0" />
	<path style="fill:none;stroke:red;stroke-width:1px;stroke-linecap:butt;stroke-linejoin:miter;stroke-opacity:1" d="M 428.43,321.906 428.43,305.262 z" id="boundary" inkscape:connector-curvature="0" />
	<path style="fill:none;stroke:red;stroke-width:1px;stroke-linecap:butt;stroke-linejoin:miter;stroke-opacity:1" d="M 428.43,321.906 428.43,338.55 z" id="boundary" inkscape:connector-curvature="0" />
	<path style="fill:none;stroke:red;stroke-width:1px;stroke-linecap:butt;stroke-linejoin:miter;stroke-opacity:1" d="M 433.423,355.195 428.43,338.55 z" id="boundary" inkscape:connector-curvature="0" />
	<path style="fill:none;stroke:red;stroke-width:1px;stroke-linecap:butt;stroke-linejoin:miter;stroke-opacity:1" d="M 336.886,368.51 336.886,351.866 z" id="boundary" inkscape:connector-curvature="0" />
	<path style="fill:none;stroke:red;stroke-width:1px;stroke-linecap:butt;stroke-linejoin:miter;stroke-opacity:1" d="M 336.886,385.154 336.886,368.51 z" id="boundary" inkscape:connector-curvature="0" />
	<path style="fill:none;stroke:red;stroke-width:1px;stroke-linecap:butt;stroke-linejoin:miter;stroke-opacity:1" d="M 336.886,385.154 328.564,400.134 z" id="boundary" inkscape:connector-curvature="0" />
	<path style="fill:none;stroke:red;stroke-width:1px;stroke-linecap:butt;stroke-linejoin:miter;stroke-opacity:1" d="M 363.517,371.839 363.517,355.195 z" id="boundary" inkscape:connector-curvature="0" />
	<path style="fill:none;stroke:red;stroke-width:1px;stroke-linecap:butt;stroke-linejoin:miter;stroke-opacity:1" d="M 363.517,371.839 366.846,388.483 z" id="boundary" inkscape:connector-curvature="0" />
	<path style="fill:none;stroke:red;stroke-width:1px;stroke-linecap:butt;stroke-linejoin:miter;stroke-opacity:1" d="M 345.208,405.128 328.564,400.134 z" id="boundary" inkscape:connector-curvature="0" />
	<path style="fill:none;stroke:red;stroke-width:1px;stroke-linecap:butt;stroke-linejoin:miter;stroke-opacity:1" d="M 366.846,388.483 361.852,405.128 z" id="boundary" inkscape:connector-curvature="0" />
	<path style="fill:none;stroke:red;stroke-width:1px;stroke-linecap:butt;stroke-linejoin:miter;stroke-opacity:1" d="M 345.208,405.128 361.852,405.128 z" id="boundary" inkscape:connector-curvature="0" />
	<path style="fill:none;stroke:red;stroke-width:1px;stroke-linecap:butt;stroke-linejoin:miter;stroke-opacity:1" d="M 433.423,355.195 436.752,371.839 z" id="boundary" inkscape:connector-curvature="0" />
	<path style="fill:none;stroke:red;stroke-width:1px;stroke-linecap:butt;stroke-linejoin:miter;stroke-opacity:1" d="M 441.745,388.483 436.752,371.839 z" id="boundary" inkscape:connector-curvature="0" />
	<path style="fill:none;stroke:red;stroke-width:1px;stroke-linecap:butt;stroke-linejoin:miter;stroke-opacity:1" d="M 441.745,388.483 450.067,403.463 z" id="boundary" inkscape:connector-curvature="0" />
	<path style="fill:none;stroke:red;stroke-width:1px;stroke-linecap:butt;stroke-linejoin:miter;stroke-opacity:1" d="M 450.067,403.463 461.718,416.779 z" id="boundary" inkscape:connector-curvature="0" />
	<path style="fill:none;stroke:red;stroke-width:1px;stroke-linecap:butt;stroke-linejoin:miter;stroke-opacity:1" d="M 478.362,421.772 461.718,416.779 z" id="boundary" inkscape:connector-curvature="0" />
	<path style="fill:none;stroke:red;stroke-width:1px;stroke-linecap:butt;stroke-linejoin:miter;stroke-opacity:1" d="M 478.362,421.772 495.007,421.772 z" id="boundary" inkscape:connector-curvature="0" />
	<path style="fill:none;stroke:red;stroke-width:1px;stroke-linecap:butt;stroke-linejoin:miter;stroke-opacity:1" d="M 495.007,421.772 509.987,430.094 z" id="boundary" inkscape:connector-curvature="0" />
	<path style="fill:none;stroke:red;stroke-width:1px;stroke-linecap:butt;stroke-linejoin:miter;stroke-opacity:1" d="M 549.933,4 536.617,17.3154 z" id="boundary" inkscape:connector-curvature="0" />
	<path style="fill:none;stroke:red;stroke-width:1px;stroke-linecap:butt;stroke-linejoin:miter;stroke-opacity:1" d="M 536.617,33.9597 536.617,17.3154 z" id="boundary" inkscape:connector-curvature="0" />
	<path style="fill:none;stroke:red;stroke-width:1px;stroke-linecap:butt;stroke-linejoin:miter;stroke-opacity:1" d="M 536.617,50.604 536.617,33.9597 z" id="boundary" inkscape:connector-curvature="0" />
	<path style="fill:none;stroke:red;stroke-width:1px;stroke-linecap:butt;stroke-linejoin:miter;stroke-opacity:1" d="M 549.933,4 566.577,4 z" id="boundary" inkscape:connector-curvature="0" />
	<path style="fill:none;stroke:red;stroke-width:1px;stroke-linecap:butt;stroke-linejoin:miter;stroke-opacity:1" d="M 524.966,112.188 508.322,112.188 z" id="boundary" inkscape:connector-curvature="0" />
	<path style="fill:none;stroke:red;stroke-width:1px;stroke-linecap:butt;stroke-linejoin:miter;stroke-opacity:1" d="M 495.007,125.503 508.322,112.188 z" id="boundary" inkscape:connector-curvature="0" />
	<path style="fill:none;stroke:red;stroke-width:1px;stroke-linecap:butt;stroke-linejoin:miter;stroke-opacity:1" d="M 544.94,65.5839 536.617,50.604 z" id="boundary" inkscape:connector-curvature="0" />
	<path style="fill:none;stroke:red;stroke-width:1px;stroke-linecap:butt;stroke-linejoin:miter;stroke-opacity:1" d="M 544.94,82.2282 539.946,103.866 z" id="boundary" inkscape:connector-curvature="0" />
	<path style="fill:none;stroke:red;stroke-width:1px;stroke-linecap:butt;stroke-linejoin:miter;stroke-opacity:1" d="M 544.94,65.5839 544.94,82.2282 z" id="boundary" inkscape:connector-curvature="0" />
	<path style="fill:none;stroke:red;stroke-width:1px;stroke-linecap:butt;stroke-linejoin:miter;stroke-opacity:1" d="M 539.946,103.866 524.966,112.188 z" id="boundary" inkscape:connector-curvature="0" />
	<path style="fill:none;stroke:red;stroke-width:1px;stroke-linecap:butt;stroke-linejoin:miter;stroke-opacity:1" d="M 578.228,17.3154 579.893,33.9597 z" id="boundary" inkscape:connector-curvature="0" />
	<path style="fill:none;stroke:red;stroke-width:1px;stroke-linecap:butt;stroke-linejoin:miter;stroke-opacity:1" d="M 578.228,17.3154 566.577,4 z" id="boundary" inkscape:connector-curvature="0" />
	<path style="fill:none;stroke:red;stroke-width:1px;stroke-linecap:butt;stroke-linejoin:miter;stroke-opacity:1" d="M 579.893,33.9597 588.215,48.9396 z" id="boundary" inkscape:connector-curvature="0" />
	<path style="fill:none;stroke:red;stroke-width:1px;stroke-linecap:butt;stroke-linejoin:miter;stroke-opacity:1" d="M 588.215,48.9396 588.215,65.5839 z" id="boundary" inkscape:connector-curvature="0" />
	<path style="fill:none;stroke:red;stroke-width:1px;stroke-linecap:butt;stroke-linejoin:miter;stroke-opacity:1" d="M 588.215,65.5839 588.215,82.2282 z" id="boundary" inkscape:connector-curvature="0" />
	<path style="fill:none;stroke:red;stroke-width:1px;stroke-linecap:butt;stroke-linejoin:miter;stroke-opacity:1" d="M 588.215,82.2282 593.208,98.8725 z" id="boundary" inkscape:connector-curvature="0" />
	<path style="fill:none;stroke:red;stroke-width:1px;stroke-linecap:butt;stroke-linejoin:miter;stroke-opacity:1" d="M 601.53,113.852 593.208,98.8725 z" id="boundary" inkscape:connector-curvature="0" />
	<path style="fill:none;stroke:red;stroke-width:1px;stroke-linecap:butt;stroke-linejoin:miter;stroke-opacity:1" d="M 604.859,130.497 613.181,145.477 z" id="boundary" inkscape:connector-curvature="0" />
	<path style="fill:none;stroke:red;stroke-width:1px;stroke-linecap:butt;stroke-linejoin:miter;stroke-opacity:1" d="M 613.181,145.477 613.181,162.121 z" id="boundary" inkscape:connector-curvature="0" />
	<path style="fill:none;stroke:red;stroke-width:1px;stroke-linecap:butt;stroke-linejoin:miter;stroke-opacity:1" d="M 613.181,178.765 613.181,162.121 z" id="boundary" inkscape:connector-curvature="0" />
	<path style="fill:none;stroke:red;stroke-width:1px;stroke-linecap:butt;stroke-linejoin:miter;stroke-opacity:1" d="M 604.859,130.497 601.53,113.852 z" id="boundary" inkscape:connector-curvature="0" />
	<path style="fill:none;stroke:red;stroke-width:1px;stroke-linecap:butt;stroke-linejoin:miter;stroke-opacity:1" d="M 621.503,193.745 613.181,178.765 z" id="boundary" inkscape:connector-curvature="0" />
	<path style="fill:none;stroke:red;stroke-width:1px;stroke-linecap:butt;stroke-linejoin:miter;stroke-opacity:1" d="M 638.148,217.047 621.503,210.389 z" id="boundary" inkscape:connector-curvature="0" />
	<path style="fill:none;stroke:red;stroke-width:1px;stroke-linecap:butt;stroke-linejoin:miter;stroke-opacity:1" d="M 621.503,210.389 621.503,193.745 z" id="boundary" inkscape:connector-curvature="0" />
	<path style="fill:none;stroke:red;stroke-width:1px;stroke-linecap:butt;stroke-linejoin:miter;stroke-opacity:1" d="M 654.792,220.376 638.148,217.047 z" id="boundary" inkscape:connector-curvature="0" />
	<path style="fill:none;stroke:red;stroke-width:1px;stroke-linecap:butt;stroke-linejoin:miter;stroke-opacity:1" d="M 671.436,220.376 654.792,220.376 z" id="boundary" inkscape:connector-curvature="0" />
	<path style="fill:none;stroke:red;stroke-width:1px;stroke-linecap:butt;stroke-linejoin:miter;stroke-opacity:1" d="M 761.315,67.2483 752.993,83.8926 z" id="boundary" inkscape:connector-curvature="0" />
	<path style="fill:none;stroke:red;stroke-width:1px;stroke-linecap:butt;stroke-linejoin:miter;stroke-opacity:1" d="M 777.96,58.9262 761.315,67.2483 z" id="boundary" inkscape:connector-curvature="0" />
	<path style="fill:none;stroke:red;stroke-width:1px;stroke-linecap:butt;stroke-linejoin:miter;stroke-opacity:1" d="M 794.604,62.255 777.96,58.9262 z" id="boundary" inkscape:connector-curvature="0" />
	<path style="fill:none;stroke:red;stroke-width:1px;stroke-linecap:butt;stroke-linejoin:miter;stroke-opacity:1" d="M 811.248,57.2617 794.604,62.255 z" id="boundary" inkscape:connector-curvature="0" />
	<path style="fill:none;stroke:red;stroke-width:1px;stroke-linecap:butt;stroke-linejoin:miter;stroke-opacity:1" d="M 761.315,98.8725 752.993,83.8926 z" id="boundary" inkscape:connector-curvature="0" />
	<path style="fill:none;stroke:red;stroke-width:1px;stroke-linecap:butt;stroke-linejoin:miter;stroke-opacity:1" d="M 761.315,115.517 761.315,98.8725 z" id="boundary" inkscape:connector-curvature="0" />
	<path style="fill:none;stroke:red;stroke-width:1px;stroke-linecap:butt;stroke-linejoin:miter;stroke-opacity:1" d="M 761.315,115.517 761.315,132.161 z" id="boundary" inkscape:connector-curvature="0" />
	<path style="fill:none;stroke:red;stroke-width:1px;stroke-linecap:butt;stroke-linejoin:miter;stroke-opacity:1" d="M 811.248,57.2617 826.228,65.5839 z" id="boundary" inkscape:connector-curvature="0" />
	<path style="fill:none;stroke:red;stroke-width:1px;stroke-linecap:butt;stroke-linejoin:miter;stroke-opacity:1" d="M 826.228,65.5839 829.557,82.2282 z" id="boundary" inkscape:connector-curvature="0" />
	<path style="fill:none;stroke:red;stroke-width:1px;stroke-linecap:butt;stroke-linejoin:miter;stroke-opacity:1" d="M 829.557,82.2282 839.544,95.5436 z" id="boundary" inkscape:connector-curvature="0" />
	<path style="fill:none;stroke:red;stroke-width:1px;stroke-linecap:butt;stroke-linejoin:miter;stroke-opacity:1" d="M 854.523,103.866 839.544,95.5436 z" id="boundary" inkscape:connector-curvature="0" />
	<path style="fill:none;stroke:red;stroke-width:1px;stroke-linecap:butt;stroke-linejoin:miter;stroke-opacity:1" d="M 867.839,113.852 854.523,103.866 z" id="boundary" inkscape:connector-curvature="0" />
	<path style="fill:none;stroke:red;stroke-width:1px;stroke-linecap:butt;stroke-linejoin:miter;stroke-opacity:1" d="M 871.168,130.497 867.839,113.852 z" id="boundary" inkscape:connector-curvature="0" />
	<path style="fill:none;stroke:red;stroke-width:1px;stroke-linecap:butt;stroke-linejoin:miter;stroke-opacity:1" d="M 711.383,158.792 728.027,150.47 z" id="boundary" inkscape:connector-curvature="0" />
	<path style="fill:none;stroke:red;stroke-width:1px;stroke-linecap:butt;stroke-linejoin:miter;stroke-opacity:1" d="M 703.06,192.081 703.06,175.436 z" id="boundary" inkscape:connector-curvature="0" />
	<path style="fill:none;stroke:red;stroke-width:1px;stroke-linecap:butt;stroke-linejoin:miter;stroke-opacity:1" d="M 703.06,175.436 711.383,158.792 z" id="boundary" inkscape:connector-curvature="0" />
	<path style="fill:none;stroke:red;stroke-width:1px;stroke-linecap:butt;stroke-linejoin:miter;stroke-opacity:1" d="M 728.027,150.47 744.671,142.148 z" id="boundary" inkscape:connector-curvature="0" />
	<path style="fill:none;stroke:red;stroke-width:1px;stroke-linecap:butt;stroke-linejoin:miter;stroke-opacity:1" d="M 744.671,142.148 761.315,132.161 z" id="boundary" inkscape:connector-curvature="0" />
	<path style="fill:none;stroke:red;stroke-width:1px;stroke-linecap:butt;stroke-linejoin:miter;stroke-opacity:1" d="M 703.06,208.725 703.06,192.081 z" id="boundary" inkscape:connector-curvature="0" />
	<path style="fill:none;stroke:red;stroke-width:1px;stroke-linecap:butt;stroke-linejoin:miter;stroke-opacity:1" d="M 703.06,208.725 688.081,220.376 z" id="boundary" inkscape:connector-curvature="0" />
	<path style="fill:none;stroke:red;stroke-width:1px;stroke-linecap:butt;stroke-linejoin:miter;stroke-opacity:1" d="M 688.081,220.376 671.436,220.376 z" id="boundary" inkscape:connector-curvature="0" />
	<path style="fill:none;stroke:red;stroke-width:1px;stroke-linecap:butt;stroke-linejoin:miter;stroke-opacity:1" d="M 871.168,130.497 887.812,137.154 z" id="boundary" inkscape:connector-curvature="0" />
	<path style="fill:none;stroke:red;stroke-width:1px;stroke-linecap:butt;stroke-linejoin:miter;stroke-opacity:1" d="M 887.812,137.154 904.456,142.148 z" id="boundary" inkscape:connector-curvature="0" />
	<path style="fill:none;stroke:red;stroke-width:1px;stroke-linecap:butt;stroke-linejoin:miter;stroke-opacity:1" d="M 916.107,155.463 921.101,172.107 z" id="boundary" inkscape:connector-curvature="0" />
	<path style="fill:none;stroke:red;stroke-width:1px;stroke-linecap:butt;stroke-linejoin:miter;stroke-opacity:1" d="M 916.107,155.463 904.456,142.148 z" id="boundary" inkscape:connector-curvature="0" />
	<path style="fill:none;stroke:red;stroke-width:1px;stroke-linecap:butt;stroke-linejoin:miter;stroke-opacity:1" d="M 921.101,172.107 921.101,188.752 z" id="boundary" inkscape:connector-curvature="0" />
	<path style="fill:none;stroke:red;stroke-width:1px;stroke-linecap:butt;stroke-linejoin:miter;stroke-opacity:1" d="M 921.101,205.396 921.101,222.04 z" id="boundary" inkscape:connector-curvature="0" />
	<path style="fill:none;stroke:red;stroke-width:1px;stroke-linecap:butt;stroke-linejoin:miter;stroke-opacity:1" d="M 921.101,188.752 921.101,205.396 z" id="boundary" inkscape:connector-curvature="0" />
	<path style="fill:none;stroke:red;stroke-width:1px;stroke-linecap:butt;stroke-linejoin:miter;stroke-opacity:1" d="M 921.101,222.04 921.101,238.685 z" id="boundary" inkscape:connector-curvature="0" />
	<path style="fill:none;stroke:red;stroke-width:1px;stroke-linecap:butt;stroke-linejoin:miter;stroke-opacity:1" d="M 574.899,263.651 571.57,247.007 z" id="boundary" inkscape:connector-curvature="0" />
	<path style="fill:none;stroke:red;stroke-width:1px;stroke-linecap:butt;stroke-linejoin:miter;stroke-opacity:1" d="M 571.57,247.007 588.215,247.007 z" id="boundary" inkscape:connector-curvature="0" />
	<path style="fill:none;stroke:red;stroke-width:1px;stroke-linecap:butt;stroke-linejoin:miter;stroke-opacity:1" d="M 588.215,247.007 604.859,247.007 z" id="boundary" inkscape:connector-curvature="0" />
	<path style="fill:none;stroke:red;stroke-width:1px;stroke-linecap:butt;stroke-linejoin:miter;stroke-opacity:1" d="M 579.893,280.295 574.899,263.651 z" id="boundary" inkscape:connector-curvature="0" />
	<path style="fill:none;stroke:red;stroke-width:1px;stroke-linecap:butt;stroke-linejoin:miter;stroke-opacity:1" d="M 604.859,247.007 619.839,255.329 z" id="boundary" inkscape:connector-curvature="0" />
	<path style="fill:none;stroke:red;stroke-width:1px;stroke-linecap:butt;stroke-linejoin:miter;stroke-opacity:1" d="M 579.893,280.295 579.893,296.94 z" id="boundary" inkscape:connector-curvature="0" />
	<path style="fill:none;stroke:red;stroke-width:1px;stroke-linecap:butt;stroke-linejoin:miter;stroke-opacity:1" d="M 579.893,296.94 579.893,313.584 z" id="boundary" inkscape:connector-curvature="0" />
	<path style="fill:none;stroke:red;stroke-width:1px;stroke-linecap:butt;stroke-linejoin:miter;stroke-opacity:1" d="M 579.893,313.584 579.893,330.228 z" id="boundary" inkscape:connector-curvature="0" />
	<path style="fill:none;stroke:red;stroke-width:1px;stroke-linecap:butt;stroke-linejoin:miter;stroke-opacity:1" d="M 634.819,263.651 619.839,255.329 z" id="boundary" inkscape:connector-curvature="0" />
	<path style="fill:none;stroke:red;stroke-width:1px;stroke-linecap:butt;stroke-linejoin:miter;stroke-opacity:1" d="M 646.47,276.966 634.819,263.651 z" id="boundary" inkscape:connector-curvature="0" />
	<path style="fill:none;stroke:red;stroke-width:1px;stroke-linecap:butt;stroke-linejoin:miter;stroke-opacity:1" d="M 646.47,276.966 654.792,291.946 z" id="boundary" inkscape:connector-curvature="0" />
	<path style="fill:none;stroke:red;stroke-width:1px;stroke-linecap:butt;stroke-linejoin:miter;stroke-opacity:1" d="M 654.792,291.946 653.128,308.591 z" id="boundary" inkscape:connector-curvature="0" />
	<path style="fill:none;stroke:red;stroke-width:1px;stroke-linecap:butt;stroke-linejoin:miter;stroke-opacity:1" d="M 661.45,323.57 653.128,308.591 z" id="boundary" inkscape:connector-curvature="0" />
	<path style="fill:none;stroke:red;stroke-width:1px;stroke-linecap:butt;stroke-linejoin:miter;stroke-opacity:1" d="M 579.893,346.872 579.893,330.228 z" id="boundary" inkscape:connector-curvature="0" />
	<path style="fill:none;stroke:red;stroke-width:1px;stroke-linecap:butt;stroke-linejoin:miter;stroke-opacity:1" d="M 579.893,346.872 579.893,371.839 z" id="boundary" inkscape:connector-curvature="0" />
	<path style="fill:none;stroke:red;stroke-width:1px;stroke-linecap:butt;stroke-linejoin:miter;stroke-opacity:1" d="M 579.893,371.839 563.248,388.483 z" id="boundary" inkscape:connector-curvature="0" />
	<path style="fill:none;stroke:red;stroke-width:1px;stroke-linecap:butt;stroke-linejoin:miter;stroke-opacity:1" d="M 526.631,426.765 509.987,430.094 z" id="boundary" inkscape:connector-curvature="0" />
	<path style="fill:none;stroke:red;stroke-width:1px;stroke-linecap:butt;stroke-linejoin:miter;stroke-opacity:1" d="M 563.248,388.483 554.926,405.128 z" id="boundary" inkscape:connector-curvature="0" />
	<path style="fill:none;stroke:red;stroke-width:1px;stroke-linecap:butt;stroke-linejoin:miter;stroke-opacity:1" d="M 543.275,421.772 554.926,405.128 z" id="boundary" inkscape:connector-curvature="0" />
	<path style="fill:none;stroke:red;stroke-width:1px;stroke-linecap:butt;stroke-linejoin:miter;stroke-opacity:1" d="M 526.631,426.765 543.275,421.772 z" id="boundary" inkscape:connector-curvature="0" />
	<path style="fill:none;stroke:red;stroke-width:1px;stroke-linecap:butt;stroke-linejoin:miter;stroke-opacity:1" d="M 673.101,336.886 681.423,351.866 z" id="boundary" inkscape:connector-curvature="0" />
	<path style="fill:none;stroke:red;stroke-width:1px;stroke-linecap:butt;stroke-linejoin:miter;stroke-opacity:1" d="M 673.101,336.886 661.45,323.57 z" id="boundary" inkscape:connector-curvature="0" />
	<path style="fill:none;stroke:red;stroke-width:1px;stroke-linecap:butt;stroke-linejoin:miter;stroke-opacity:1" d="M 681.423,351.866 694.738,363.517 z" id="boundary" inkscape:connector-curvature="0" />
	<path style="fill:none;stroke:red;stroke-width:1px;stroke-linecap:butt;stroke-linejoin:miter;stroke-opacity:1" d="M 924.43,255.329 921.101,238.685 z" id="boundary" inkscape:connector-curvature="0" />
	<path style="fill:none;stroke:red;stroke-width:1px;stroke-linecap:butt;stroke-linejoin:miter;stroke-opacity:1" d="M 937.745,266.98 924.43,255.329 z" id="boundary" inkscape:connector-curvature="0" />
	<path style="fill:none;stroke:red;stroke-width:1px;stroke-linecap:butt;stroke-linejoin:miter;stroke-opacity:1" d="M 952.725,275.302 937.745,266.98 z" id="boundary" inkscape:connector-curvature="0" />
	<path style="fill:none;stroke:red;stroke-width:1px;stroke-linecap:butt;stroke-linejoin:miter;stroke-opacity:1" d="M 977.691,300.268 966.04,286.953 z" id="boundary" inkscape:connector-curvature="0" />
	<path style="fill:none;stroke:red;stroke-width:1px;stroke-linecap:butt;stroke-linejoin:miter;stroke-opacity:1" d="M 966.04,286.953 952.725,275.302 z" id="boundary" inkscape:connector-curvature="0" />
	<path style="fill:none;stroke:red;stroke-width:1px;stroke-linecap:butt;stroke-linejoin:miter;stroke-opacity:1" d="M 986.013,315.248 977.691,300.268 z" id="boundary" inkscape:connector-curvature="0" />
	<path style="fill:none;stroke:red;stroke-width:1px;stroke-linecap:butt;stroke-linejoin:miter;stroke-opacity:1" d="M 996,328.564 986.013,315.248 z" id="boundary" inkscape:connector-curvature="0" />
	<path style="fill:none;stroke:red;stroke-width:1px;stroke-linecap:butt;stroke-linejoin:miter;stroke-opacity:1" d="M 996,345.208 996,328.564 z" id="boundary" inkscape:connector-curvature="0" />
	<path style="fill:none;stroke:red;stroke-width:1px;stroke-linecap:butt;stroke-linejoin:miter;stroke-opacity:1" d="M 996,345.208 987.678,363.517 z" id="boundary" inkscape:connector-curvature="0" />
	<path style="fill:none;stroke:red;stroke-width:1px;stroke-linecap:butt;stroke-linejoin:miter;stroke-opacity:1" d="M 709.718,371.839 724.698,380.161 z" id="boundary" inkscape:connector-curvature="0" />
	<path style="fill:none;stroke:red;stroke-width:1px;stroke-linecap:butt;stroke-linejoin:miter;stroke-opacity:1" d="M 709.718,371.839 694.738,363.517 z" id="boundary" inkscape:connector-curvature="0" />
	<path style="fill:none;stroke:red;stroke-width:1px;stroke-linecap:butt;stroke-linejoin:miter;stroke-opacity:1" d="M 724.698,380.161 741.342,380.161 z" id="boundary" inkscape:connector-curvature="0" />
	<path style="fill:none;stroke:red;stroke-width:1px;stroke-linecap:butt;stroke-linejoin:miter;stroke-opacity:1" d="M 741.342,380.161 757.987,380.161 z" id="boundary" inkscape:connector-curvature="0" />
	<path style="fill:none;stroke:red;stroke-width:1px;stroke-linecap:butt;stroke-linejoin:miter;stroke-opacity:1" d="M 774.631,380.161 791.275,380.161 z" id="boundary" inkscape:connector-curvature="0" />
	<path style="fill:none;stroke:red;stroke-width:1px;stroke-linecap:butt;stroke-linejoin:miter;stroke-opacity:1" d="M 774.631,380.161 757.987,380.161 z" id="boundary" inkscape:connector-curvature="0" />
	<path style="fill:none;stroke:red;stroke-width:1px;stroke-linecap:butt;stroke-linejoin:miter;stroke-opacity:1" d="M 791.275,380.161 799.597,395.141 z" id="boundary" inkscape:connector-curvature="0" />
	<path style="fill:none;stroke:red;stroke-width:1px;stroke-linecap:butt;stroke-linejoin:miter;stroke-opacity:1" d="M 806.255,411.785 799.597,395.141 z" id="boundary" inkscape:connector-curvature="0" />
	<path style="fill:none;stroke:red;stroke-width:1px;stroke-linecap:butt;stroke-linejoin:miter;stroke-opacity:1" d="M 822.899,418.443 837.879,426.765 z" id="boundary" inkscape:connector-curvature="0" />
	<path style="fill:none;stroke:red;stroke-width:1px;stroke-linecap:butt;stroke-linejoin:miter;stroke-opacity:1" d="M 822.899,418.443 806.255,411.785 z" id="boundary" inkscape:connector-curvature="0" />
	<path style="fill:none;stroke:red;stroke-width:1px;stroke-linecap:butt;stroke-linejoin:miter;stroke-opacity:1" d="M 854.523,433.423 837.879,426.765 z" id="boundary" inkscape:connector-curvature="0" />
	<path style="fill:none;stroke:red;stroke-width:1px;stroke-linecap:butt;stroke-linejoin:miter;stroke-opacity:1" d="M 871.168,438.416 854.523,433.423 z" id="boundary" inkscape:connector-curvature="0" />
	<path style="fill:none;stroke:red;stroke-width:1px;stroke-linecap:butt;stroke-linejoin:miter;stroke-opacity:1" d="M 979.356,388.483 987.678,363.517 z" id="boundary" inkscape:connector-curvature="0" />
	<path style="fill:none;stroke:red;stroke-width:1px;stroke-linecap:butt;stroke-linejoin:miter;stroke-opacity:1" d="M 979.356,405.128 979.356,388.483 z" id="boundary" inkscape:connector-curvature="0" />
	<path style="fill:none;stroke:red;stroke-width:1px;stroke-linecap:butt;stroke-linejoin:miter;stroke-opacity:1" d="M 979.356,405.128 962.711,413.45 z" id="boundary" inkscape:connector-curvature="0" />
	<path style="fill:none;stroke:red;stroke-width:1px;stroke-linecap:butt;stroke-linejoin:miter;stroke-opacity:1" d="M 902.792,446.738 887.812,438.416 z" id="boundary" inkscape:connector-curvature="0" />
	<path style="fill:none;stroke:red;stroke-width:1px;stroke-linecap:butt;stroke-linejoin:miter;stroke-opacity:1" d="M 902.792,446.738 919.436,446.738 z" id="boundary" inkscape:connector-curvature="0" />
	<path style="fill:none;stroke:red;stroke-width:1px;stroke-linecap:butt;stroke-linejoin:miter;stroke-opacity:1" d="M 936.081,441.745 919.436,446.738 z" id="boundary" inkscape:connector-curvature="0" />
	<path style="fill:none;stroke:red;stroke-width:1px;stroke-linecap:butt;stroke-linejoin:miter;stroke-opacity:1" d="M 871.168,438.416 887.812,438.416 z" id="boundary" inkscape:connector-curvature="0" />
	<path style="fill:none;stroke:red;stroke-width:1px;stroke-linecap:butt;stroke-linejoin:miter;stroke-opacity:1" d="M 949.396,430.094 962.711,413.45 z" id="boundary" inkscape:connector-curvature="0" />
	<path style="fill:none;stroke:red;stroke-width:1px;stroke-linecap:butt;stroke-linejoin:miter;stroke-opacity:1" d="M 949.396,430.094 936.081,441.745 z" id="boundary" inkscape:connector-curvature="0" />
	<circle cx="4" cy="150.47" r="4" fill="#0" id="circle0"/>
	<circle cx="12.3221" cy="133.826" r="4" fill="#0" id="circle1"/>
	<circle cx="17.3154" cy="162.121" r="4" fill="#0" id="circle2"/>
	<circle cx="20.6443" cy="100.537" r="4" fill="#0" id="circle3"/>
	<circle cx="20.6443" cy="117.181" r="4" fill="#0" id="circle4"/>
	<circle cx="33.9597" cy="162.121" r="4" fill="#0" id="circle5"/>
	<circle cx="37.2886" cy="92.2148" r="4" fill="#0" id="circle6"/>
	<circle cx="47.2752" cy="147.141" r="4" fill="#0" id="circle7"/>
	<circle cx="53.9329" cy="87.2215" r="4" fill="#0" id="circle8"/>
	<circle cx="62.255" cy="300.268" r="4" fill="#0" id="circle9"/>
	<circle cx="62.255" cy="316.913" r="4" fill="#0" id="circle10"/>
	<circle cx="62.255" cy="333.557" r="4" fill="#0" id="circle11"/>
	<circle cx="62.255" cy="350.201" r="4" fill="#0" id="circle12"/>
	<circle cx="63.9195" cy="147.141" r="4" fill="#0" id="circle13"/>
	<circle cx="70.5772" cy="90.5503" r="4" fill="#0" id="circle14"/>
	<circle cx="70.5772" cy="365.181" r="4" fill="#0" id="circle15"/>
	<circle cx="75.5705" cy="286.953" r="4" fill="#0" id="circle16"/>
	<circle cx="78.8993" cy="155.463" r="4" fill="#0" id="circle17"/>
	<circle cx="78.8993" cy="380.161" r="4" fill="#0" id="circle18"/>
	<circle cx="83.8926" cy="270.309" r="4" fill="#0" id="circle19"/>
	<circle cx="83.8926" cy="396.805" r="4" fill="#0" id="circle20"/>
	<circle cx="87.2215" cy="95.5436" r="4" fill="#0" id="circle21"/>
	<circle cx="87.2215" cy="183.758" r="4" fill="#0" id="circle22"/>
	<circle cx="87.2215" cy="200.403" r="4" fill="#0" id="circle23"/>
	<circle cx="87.2215" cy="217.047" r="4" fill="#0" id="circle24"/>
	<circle cx="87.2215" cy="233.691" r="4" fill="#0" id="circle25"/>
	<circle cx="92.2148" cy="253.664" r="4" fill="#0" id="circle26"/>
	<circle cx="100.537" cy="395.141" r="4" fill="#0" id="circle27"/>
	<circle cx="103.866" cy="98.8725" r="4" fill="#0" id="circle28"/>
	<circle cx="113.852" cy="380.161" r="4" fill="#0" id="circle29"/>
	<circle cx="118.846" cy="107.195" r="4" fill="#0" id="circle30"/>
	<circle cx="122.174" cy="296.94" r="4" fill="#0" id="circle31"/>
	<circle cx="122.174" cy="313.584" r="4" fill="#0" id="circle32"/>
	<circle cx="122.174" cy="330.228" r="4" fill="#0" id="circle33"/>
	<circle cx="122.174" cy="346.872" r="4" fill="#0" id="circle34"/>
	<circle cx="122.174" cy="363.517" r="4" fill="#0" id="circle35"/>
	<circle cx="135.49" cy="113.852" r="4" fill="#0" id="circle36"/>
	<circle cx="135.49" cy="285.289" r="4" fill="#0" id="circle37"/>
	<circle cx="150.47" cy="122.174" r="4" fill="#0" id="circle38"/>
	<circle cx="152.134" cy="280.295" r="4" fill="#0" id="circle39"/>
	<circle cx="167.114" cy="128.832" r="4" fill="#0" id="circle40"/>
	<circle cx="168.779" cy="280.295" r="4" fill="#0" id="circle41"/>
	<circle cx="182.094" cy="137.154" r="4" fill="#0" id="circle42"/>
	<circle cx="183.758" cy="271.973" r="4" fill="#0" id="circle43"/>
	<circle cx="195.409" cy="148.805" r="4" fill="#0" id="circle44"/>
	<circle cx="198.738" cy="263.651" r="4" fill="#0" id="circle45"/>
	<circle cx="212.054" cy="153.799" r="4" fill="#0" id="circle46"/>
	<circle cx="215.383" cy="263.651" r="4" fill="#0" id="circle47"/>
	<circle cx="228.698" cy="153.799" r="4" fill="#0" id="circle48"/>
	<circle cx="232.027" cy="263.651" r="4" fill="#0" id="circle49"/>
	<circle cx="245.342" cy="153.799" r="4" fill="#0" id="circle50"/>
	<circle cx="248.671" cy="263.651" r="4" fill="#0" id="circle51"/>
	<circle cx="261.987" cy="153.799" r="4" fill="#0" id="circle52"/>
	<circle cx="263.651" cy="255.329" r="4" fill="#0" id="circle53"/>
	<circle cx="278.631" cy="153.799" r="4" fill="#0" id="circle54"/>
	<circle cx="280.295" cy="255.329" r="4" fill="#0" id="circle55"/>
	<circle cx="295.275" cy="153.799" r="4" fill="#0" id="circle56"/>
	<circle cx="295.275" cy="263.651" r="4" fill="#0" id="circle57"/>
	<circle cx="303.597" cy="278.631" r="4" fill="#0" id="circle58"/>
	<circle cx="311.919" cy="153.799" r="4" fill="#0" id="circle59"/>
	<circle cx="313.584" cy="291.946" r="4" fill="#0" id="circle60"/>
	<circle cx="325.235" cy="305.262" r="4" fill="#0" id="circle61"/>
	<circle cx="328.564" cy="157.128" r="4" fill="#0" id="circle62"/>
	<circle cx="328.564" cy="400.134" r="4" fill="#0" id="circle63"/>
	<circle cx="336.886" cy="318.577" r="4" fill="#0" id="circle64"/>
	<circle cx="336.886" cy="335.221" r="4" fill="#0" id="circle65"/>
	<circle cx="336.886" cy="351.866" r="4" fill="#0" id="circle66"/>
	<circle cx="336.886" cy="368.51" r="4" fill="#0" id="circle67"/>
	<circle cx="336.886" cy="385.154" r="4" fill="#0" id="circle68"/>
	<circle cx="343.544" cy="165.45" r="4" fill="#0" id="circle69"/>
	<circle cx="345.208" cy="405.128" r="4" fill="#0" id="circle70"/>
	<circle cx="360.188" cy="172.107" r="4" fill="#0" id="circle71"/>
	<circle cx="361.852" cy="405.128" r="4" fill="#0" id="circle72"/>
	<circle cx="363.517" cy="280.295" r="4" fill="#0" id="circle73"/>
	<circle cx="363.517" cy="296.94" r="4" fill="#0" id="circle74"/>
	<circle cx="363.517" cy="313.584" r="4" fill="#0" id="circle75"/>
	<circle cx="363.517" cy="330.228" r="4" fill="#0" id="circle76"/>
	<circle cx="363.517" cy="355.195" r="4" fill="#0" id="circle77"/>
	<circle cx="363.517" cy="371.839" r="4" fill="#0" id="circle78"/>
	<circle cx="366.846" cy="388.483" r="4" fill="#0" id="circle79"/>
	<circle cx="371.839" cy="185.423" r="4" fill="#0" id="circle80"/>
	<circle cx="380.161" cy="200.403" r="4" fill="#0" id="circle81"/>
	<circle cx="380.161" cy="217.047" r="4" fill="#0" id="circle82"/>
	<circle cx="380.161" cy="271.973" r="4" fill="#0" id="circle83"/>
	<circle cx="393.477" cy="228.698" r="4" fill="#0" id="circle84"/>
	<circle cx="396.805" cy="271.973" r="4" fill="#0" id="circle85"/>
	<circle cx="410.121" cy="228.698" r="4" fill="#0" id="circle86"/>
	<circle cx="413.45" cy="263.651" r="4" fill="#0" id="circle87"/>
	<circle cx="426.765" cy="228.698" r="4" fill="#0" id="circle88"/>
	<circle cx="428.43" cy="271.973" r="4" fill="#0" id="circle89"/>
	<circle cx="428.43" cy="288.617" r="4" fill="#0" id="circle90"/>
	<circle cx="428.43" cy="305.262" r="4" fill="#0" id="circle91"/>
	<circle cx="428.43" cy="321.906" r="4" fill="#0" id="circle92"/>
	<circle cx="428.43" cy="338.55" r="4" fill="#0" id="circle93"/>
	<circle cx="433.423" cy="355.195" r="4" fill="#0" id="circle94"/>
	<circle cx="436.752" cy="371.839" r="4" fill="#0" id="circle95"/>
	<circle cx="441.745" cy="220.376" r="4" fill="#0" id="circle96"/>
	<circle cx="441.745" cy="388.483" r="4" fill="#0" id="circle97"/>
	<circle cx="450.067" cy="403.463" r="4" fill="#0" id="circle98"/>
	<circle cx="458.389" cy="220.376" r="4" fill="#0" id="circle99"/>
	<circle cx="461.718" cy="416.779" r="4" fill="#0" id="circle100"/>
	<circle cx="475.034" cy="220.376" r="4" fill="#0" id="circle101"/>
	<circle cx="478.362" cy="421.772" r="4" fill="#0" id="circle102"/>
	<circle cx="486.685" cy="142.148" r="4" fill="#0" id="circle103"/>
	<circle cx="486.685" cy="158.792" r="4" fill="#0" id="circle104"/>
	<circle cx="486.685" cy="175.436" r="4" fill="#0" id="circle105"/>
	<circle cx="486.685" cy="192.081" r="4" fill="#0" id="circle106"/>
	<circle cx="495.007" cy="125.503" r="4" fill="#0" id="circle107"/>
	<circle cx="495.007" cy="421.772" r="4" fill="#0" id="circle108"/>
	<circle cx="508.322" cy="112.188" r="4" fill="#0" id="circle109"/>
	<circle cx="509.987" cy="430.094" r="4" fill="#0" id="circle110"/>
	<circle cx="524.966" cy="112.188" r="4" fill="#0" id="circle111"/>
	<circle cx="526.631" cy="426.765" r="4" fill="#0" id="circle112"/>
	<circle cx="536.617" cy="17.3154" r="4" fill="#0" id="circle113"/>
	<circle cx="536.617" cy="33.9597" r="4" fill="#0" id="circle114"/>
	<circle cx="536.617" cy="50.604" r="4" fill="#0" id="circle115"/>
	<circle cx="539.946" cy="103.866" r="4" fill="#0" id="circle116"/>
	<circle cx="543.275" cy="421.772" r="4" fill="#0" id="circle117"/>
	<circle cx="544.94" cy="65.5839" r="4" fill="#0" id="circle118"/>
	<circle cx="544.94" cy="82.2282" r="4" fill="#0" id="circle119"/>
	<circle cx="549.933" cy="4" r="4" fill="#0" id="circle120"/>
	<circle cx="554.926" cy="405.128" r="4" fill="#0" id="circle121"/>
	<circle cx="563.248" cy="388.483" r="4" fill="#0" id="circle122"/>
	<circle cx="566.577" cy="4" r="4" fill="#0" id="circle123"/>
	<circle cx="571.57" cy="247.007" r="4" fill="#0" id="circle124"/>
	<circle cx="574.899" cy="263.651" r="4" fill="#0" id="circle125"/>
	<circle cx="578.228" cy="17.3154" r="4" fill="#0" id="circle126"/>
	<circle cx="579.893" cy="33.9597" r="4" fill="#0" id="circle127"/>
	<circle cx="579.893" cy="280.295" r="4" fill="#0" id="circle128"/>
	<circle cx="579.893" cy="296.94" r="4" fill="#0" id="circle129"/>
	<circle cx="579.893" cy="313.584" r="4" fill="#0" id="circle130"/>
	<circle cx="579.893" cy="330.228" r="4" fill="#0" id="circle131"/>
	<circle cx="579.893" cy="346.872" r="4" fill="#0" id="circle132"/>
	<circle cx="579.893" cy="371.839" r="4" fill="#0" id="circle133"/>
	<circle cx="588.215" cy="48.9396" r="4" fill="#0" id="circle134"/>
	<circle cx="588.215" cy="65.5839" r="4" fill="#0" id="circle135"/>
	<circle cx="588.215" cy="82.2282" r="4" fill="#0" id="circle136"/>
	<circle cx="588.215" cy="247.007" r="4" fill="#0" id="circle137"/>
	<circle cx="593.208" cy="98.8725" r="4" fill="#0" id="circle138"/>
	<circle cx="601.53" cy="113.852" r="4" fill="#0" id="circle139"/>
	<circle cx="604.859" cy="130.497" r="4" fill="#0" id="circle140"/>
	<circle cx="604.859" cy="247.007" r="4" fill="#0" id="circle141"/>
	<circle cx="613.181" cy="145.477" r="4" fill="#0" id="circle142"/>
	<circle cx="613.181" cy="162.121" r="4" fill="#0" id="circle143"/>
	<circle cx="613.181" cy="178.765" r="4" fill="#0" id="circle144"/>
	<circle cx="619.839" cy="255.329" r="4" fill="#0" id="circle145"/>
	<circle cx="621.503" cy="193.745" r="4" fill="#0" id="circle146"/>
	<circle cx="621.503" cy="210.389" r="4" fill="#0" id="circle147"/>
	<circle cx="634.819" cy="263.651" r="4" fill="#0" id="circle148"/>
	<circle cx="638.148" cy="217.047" r="4" fill="#0" id="circle149"/>
	<circle cx="646.47" cy="276.966" r="4" fill="#0" id="circle150"/>
	<circle cx="653.128" cy="308.591" r="4" fill="#0" id="circle151"/>
	<circle cx="654.792" cy="220.376" r="4" fill="#0" id="circle152"/>
	<circle cx="654.792" cy="291.946" r="4" fill="#0" id="circle153"/>
	<circle cx="661.45" cy="323.57" r="4" fill="#0" id="circle154"/>
	<circle cx="671.436" cy="220.376" r="4" fill="#0" id="circle155"/>
	<circle cx="673.101" cy="336.886" r="4" fill="#0" id="circle156"/>
	<circle cx="681.423" cy="351.866" r="4" fill="#0" id="circle157"/>
	<circle cx="688.081" cy="220.376" r="4" fill="#0" id="circle158"/>
	<circle cx="694.738" cy="363.517" r="4" fill="#0" id="circle159"/>
	<circle cx="703.06" cy="175.436" r="4" fill="#0" id="circle160"/>
	<circle cx="703.06" cy="192.081" r="4" fill="#0" id="circle161"/>
	<circle cx="703.06" cy="208.725" r="4" fill="#0" id="circle162"/>
	<circle cx="709.718" cy="371.839" r="4" fill="#0" id="circle163"/>
	<circle cx="711.383" cy="158.792" r="4" fill="#0" id="circle164"/>
	<circle cx="724.698" cy="380.161" r="4" fill="#0" id="circle165"/>
	<circle cx="728.027" cy="150.47" r="4" fill="#0" id="circle166"/>
	<circle cx="741.342" cy="380.161" r="4" fill="#0" id="circle167"/>
	<circle cx="744.671" cy="142.148" r="4" fill="#0" id="circle168"/>
	<circle cx="752.993" cy="83.8926" r="4" fill="#0" id="circle169"/>
	<circle cx="757.987" cy="380.161" r="4" fill="#0" id="circle170"/>
	<circle cx="761.315" cy="67.2483" r="4" fill="#0" id="circle171"/>
	<circle cx="761.315" cy="98.8725" r="4" fill="#0" id="circle172"/>
	<circle cx="761.315" cy="115.517" r="4" fill="#0" id="circle173"/>
	<circle cx="761.315" cy="132.161" r="4" fill="#0" id="circle174"/>
	<circle cx="774.631" cy="380.161" r="4" fill="#0" id="circle175"/>
	<circle cx="777.96" cy="58.9262" r="4" fill="#0" id="circle176"/>
	<circle cx="791.275" cy="380.161" r="4" fill="#0" id="circle177"/>
	<circle cx="794.604" cy="62.255" r="4" fill="#0" id="circle178"/>
	<circle cx="799.597" cy="395.141" r="4" fill="#0" id="circle179"/>
	<circle cx="806.255" cy="411.785" r="4" fill="#0" id="circle180"/>
	<circle cx="811.248" cy="57.2617" r="4" fill="#0" id="circle181"/>
	<circle cx="822.899" cy="418.443" r="4" fill="#0" id="circle182"/>
	<circle cx="826.228" cy="65.5839" r="4" fill="#0" id="circle183"/>
	<circle cx="829.557" cy="82.2282" r="4" fill="#0" id="circle184"/>
	<circle cx="837.879" cy="426.765" r="4" fill="#0" id="circle185"/>
	<circle cx="839.544" cy="95.5436" r="4" fill="#0" id="circle186"/>
	<circle cx="854.523" cy="103.866" r="4" fill="#0" id="circle187"/>
	<circle cx="854.523" cy="433.423" r="4" fill="#0" id="circle188"/>
	<circle cx="867.839" cy="113.852" r="4" fill="#0" id="circle189"/>
	<circle cx="871.168" cy="130.497" r="4" fill="#0" id="circle190"/>
	<circle cx="871.168" cy="438.416" r="4" fill="#0" id="circle191"/>
	<circle cx="887.812" cy="137.154" r="4" fill="#0" id="circle192"/>
	<circle cx="887.812" cy="438.416" r="4" fill="#0" id="circle193"/>
	<circle cx="902.792" cy="446.738" r="4" fill="#0" id="circle194"/>
	<circle cx="904.456" cy="142.148" r="4" fill="#0" id="circle195"/>
	<circle cx="916.107" cy="155.463" r="4" fill="#0" id="circle196"/>
	<circle cx="919.436" cy="446.738" r="4" fill="#0" id="circle197"/>
	<circle cx="921.101" cy="172.107" r="4" fill="#0" id="circle198"/>
	<circle cx="921.101" cy="188.752" r="4" fill="#0" id="circle199"/>
	<circle cx="921.101" cy="205.396" r="4" fill="#0" id="circle200"/>
	<circle cx="921.101" cy="222.04" r="4" fill="#0" id="circle201"/>
	<circle cx="921.101" cy="238.685" r="4" fill="#0" id="circle202"/>
	<circle cx="924.43" cy="255.329" r="4" fill="#0" id="circle203"/>
	<circle cx="936.081" cy="441.745" r="4" fill="#0" id="circle204"/>
	<circle cx="937.745" cy="266.98" r="4" fill="#0" id="circle205"/>
	<circle cx="949.396" cy="430.094" r="4" fill="#0" id="circle206"/>
	<circle cx="952.725" cy="275.302" r="4" fill="#0" id="circle207"/>
	<circle cx="962.711" cy="413.45" r="4" fill="#0" id="circle208"/>
	<circle cx="966.04" cy="286.953" r="4" fill="#0" id="circle209"/>
	<circle cx="977.691" cy="300.268" r="4" fill="#0" id="circle210"/>
	<circle cx="979.356" cy="388.483" r="4" fill="#0" id="circle211"/>
	<circle cx="979.356" cy="405.128" r="4" fill="#0" id="circle212"/>
	<circle cx="986.013" cy="315.248" r="4" fill="#0" id="circle213"/>
	<circle cx="987.678" cy="363.517" r="4" fill="#0" id="circle214"/>
	<circle cx="996" cy="328.564" r="4" fill="#0" id="circle215"/>
	<circle cx="996" cy="345.208" r="4" fill="#0" id="circle216"/>
	</g>
</svg>