<?xml version="1.0" encoding="UTF-8" standalone="no"?>
<!-- Created with CurveBenchmark -->
<svg
	xmlns:dc="http://purl.org/dc/elements/1.1/"
	xmlns:cc="http://creativecommons.org/ns#"
	xmlns:rdf="http://www.w3.org/1999/02/22-rdf-syntax-ns#"
	xmlns:svg="http://www.w3.org/2000/svg"
	xmlns="http://www.w3.org/2000/svg"
	xmlns:sodipodi="http://sodipodi.sourceforge.net/DTD/sodipodi-0.dtd"
	xmlns:inkscape="http://www.inkscape.org/namespaces/inkscape"
	width="1000"
	height="1000"
	id="svg2"
	version="1.1"
	sodipodi:docname="manifold/crust-chopper06.png.txt">
<defs
	id="defs4" />
<metadata
	id="metadata7">
	<rdf:RDF>
		<cc:Work
			rdf:about="">
			<dc:format>image/svg+xml</dc:format>
			<dc:type
				rdf:resource="http://purl.org/dc/dcmitype/StillImage" />
			<dc:title></dc:title>
		</cc:Work>
	</rdf:RDF>
</metadata>
<g
	inkscape:label="Layer 1"
	inkscape:groupmode="layer"
	id="layer1">
	<path style="fill:none;stroke:red;stroke-width:1px;stroke-linecap:butt;stroke-linejoin:miter;stroke-opacity:1" d="M 155.353,204.588 173.588,204.588 z" id="boundary" inkscape:connector-curvature="0" />
	<path style="fill:none;stroke:red;stroke-width:1px;stroke-linecap:butt;stroke-linejoin:miter;stroke-opacity:1" d="M 155.353,204.588 137.118,213.706 z" id="boundary" inkscape:connector-curvature="0" />
	<path style="fill:none;stroke:red;stroke-width:1px;stroke-linecap:butt;stroke-linejoin:miter;stroke-opacity:1" d="M 100.647,259.294 115.235,244.706 z" id="boundary" inkscape:connector-curvature="0" />
	<path style="fill:none;stroke:red;stroke-width:1px;stroke-linecap:butt;stroke-linejoin:miter;stroke-opacity:1" d="M 100.647,259.294 86.0588,273.882 z" id="boundary" inkscape:connector-curvature="0" />
	<path style="fill:none;stroke:red;stroke-width:1px;stroke-linecap:butt;stroke-linejoin:miter;stroke-opacity:1" d="M 86.0588,273.882 82.4118,295.765 z" id="boundary" inkscape:connector-curvature="0" />
	<path style="fill:none;stroke:red;stroke-width:1px;stroke-linecap:butt;stroke-linejoin:miter;stroke-opacity:1" d="M 129.824,231.941 137.118,213.706 z" id="boundary" inkscape:connector-curvature="0" />
	<path style="fill:none;stroke:red;stroke-width:1px;stroke-linecap:butt;stroke-linejoin:miter;stroke-opacity:1" d="M 129.824,231.941 115.235,244.706 z" id="boundary" inkscape:connector-curvature="0" />
	<path style="fill:none;stroke:red;stroke-width:1px;stroke-linecap:butt;stroke-linejoin:miter;stroke-opacity:1" d="M 244.706,186.353 228.294,195.471 z" id="boundary" inkscape:connector-curvature="0" />
	<path style="fill:none;stroke:red;stroke-width:1px;stroke-linecap:butt;stroke-linejoin:miter;stroke-opacity:1" d="M 297.588,177.235 281.176,186.353 z" id="boundary" inkscape:connector-curvature="0" />
	<path style="fill:none;stroke:red;stroke-width:1px;stroke-linecap:butt;stroke-linejoin:miter;stroke-opacity:1" d="M 262.941,186.353 244.706,186.353 z" id="boundary" inkscape:connector-curvature="0" />
	<path style="fill:none;stroke:red;stroke-width:1px;stroke-linecap:butt;stroke-linejoin:miter;stroke-opacity:1" d="M 191.824,195.471 210.059,195.471 z" id="boundary" inkscape:connector-curvature="0" />
	<path style="fill:none;stroke:red;stroke-width:1px;stroke-linecap:butt;stroke-linejoin:miter;stroke-opacity:1" d="M 173.588,204.588 191.824,195.471 z" id="boundary" inkscape:connector-curvature="0" />
	<path style="fill:none;stroke:red;stroke-width:1px;stroke-linecap:butt;stroke-linejoin:miter;stroke-opacity:1" d="M 210.059,195.471 228.294,195.471 z" id="boundary" inkscape:connector-curvature="0" />
	<path style="fill:none;stroke:red;stroke-width:1px;stroke-linecap:butt;stroke-linejoin:miter;stroke-opacity:1" d="M 262.941,186.353 281.176,186.353 z" id="boundary" inkscape:connector-curvature="0" />
	<path style="fill:none;stroke:red;stroke-width:1px;stroke-linecap:butt;stroke-linejoin:miter;stroke-opacity:1" d="M 31.3529,401.529 45.9412,386.941 z" id="boundary" inkscape:connector-curvature="0" />
	<path style="fill:none;stroke:red;stroke-width:1px;stroke-linecap:butt;stroke-linejoin:miter;stroke-opacity:1" d="M 49.5882,365.059 45.9412,386.941 z" id="boundary" inkscape:connector-curvature="0" />
	<path style="fill:none;stroke:red;stroke-width:1px;stroke-linecap:butt;stroke-linejoin:miter;stroke-opacity:1" d="M 49.5882,346.824 49.5882,365.059 z" id="boundary" inkscape:connector-curvature="0" />
	<path style="fill:none;stroke:red;stroke-width:1px;stroke-linecap:butt;stroke-linejoin:miter;stroke-opacity:1" d="M 58.7059,328.588 49.5882,346.824 z" id="boundary" inkscape:connector-curvature="0" />
	<path style="fill:none;stroke:red;stroke-width:1px;stroke-linecap:butt;stroke-linejoin:miter;stroke-opacity:1" d="M 67.8235,310.353 58.7059,328.588 z" id="boundary" inkscape:connector-curvature="0" />
	<path style="fill:none;stroke:red;stroke-width:1px;stroke-linecap:butt;stroke-linejoin:miter;stroke-opacity:1" d="M 22.2353,456.235 22.2353,474.471 z" id="boundary" inkscape:connector-curvature="0" />
	<path style="fill:none;stroke:red;stroke-width:1px;stroke-linecap:butt;stroke-linejoin:miter;stroke-opacity:1" d="M 31.3529,438 22.2353,456.235 z" id="boundary" inkscape:connector-curvature="0" />
	<path style="fill:none;stroke:red;stroke-width:1px;stroke-linecap:butt;stroke-linejoin:miter;stroke-opacity:1" d="M 31.3529,438 31.3529,419.765 z" id="boundary" inkscape:connector-curvature="0" />
	<path style="fill:none;stroke:red;stroke-width:1px;stroke-linecap:butt;stroke-linejoin:miter;stroke-opacity:1" d="M 31.3529,401.529 31.3529,419.765 z" id="boundary" inkscape:connector-curvature="0" />
	<path style="fill:none;stroke:red;stroke-width:1px;stroke-linecap:butt;stroke-linejoin:miter;stroke-opacity:1" d="M 22.2353,492.706 22.2353,474.471 z" id="boundary" inkscape:connector-curvature="0" />
	<path style="fill:none;stroke:red;stroke-width:1px;stroke-linecap:butt;stroke-linejoin:miter;stroke-opacity:1" d="M 67.8235,310.353 82.4118,295.765 z" id="boundary" inkscape:connector-curvature="0" />
	<path style="fill:none;stroke:red;stroke-width:1px;stroke-linecap:butt;stroke-linejoin:miter;stroke-opacity:1" d="M 304.882,36.8235 323.118,27.7059 z" id="boundary" inkscape:connector-curvature="0" />
	<path style="fill:none;stroke:red;stroke-width:1px;stroke-linecap:butt;stroke-linejoin:miter;stroke-opacity:1" d="M 323.118,27.7059 341.353,22.2353 z" id="boundary" inkscape:connector-curvature="0" />
	<path style="fill:none;stroke:red;stroke-width:1px;stroke-linecap:butt;stroke-linejoin:miter;stroke-opacity:1" d="M 304.882,55.0588 304.882,36.8235 z" id="boundary" inkscape:connector-curvature="0" />
	<path style="fill:none;stroke:red;stroke-width:1px;stroke-linecap:butt;stroke-linejoin:miter;stroke-opacity:1" d="M 359.588,22.2353 341.353,22.2353 z" id="boundary" inkscape:connector-curvature="0" />
	<path style="fill:none;stroke:red;stroke-width:1px;stroke-linecap:butt;stroke-linejoin:miter;stroke-opacity:1" d="M 376,13.1176 359.588,22.2353 z" id="boundary" inkscape:connector-curvature="0" />
	<path style="fill:none;stroke:red;stroke-width:1px;stroke-linecap:butt;stroke-linejoin:miter;stroke-opacity:1" d="M 304.882,55.0588 319.471,67.8235 z" id="boundary" inkscape:connector-curvature="0" />
	<path style="fill:none;stroke:red;stroke-width:1px;stroke-linecap:butt;stroke-linejoin:miter;stroke-opacity:1" d="M 337.706,69.6471 319.471,67.8235 z" id="boundary" inkscape:connector-curvature="0" />
	<path style="fill:none;stroke:red;stroke-width:1px;stroke-linecap:butt;stroke-linejoin:miter;stroke-opacity:1" d="M 354.118,78.7647 337.706,69.6471 z" id="boundary" inkscape:connector-curvature="0" />
	<path style="fill:none;stroke:red;stroke-width:1px;stroke-linecap:butt;stroke-linejoin:miter;stroke-opacity:1" d="M 354.118,78.7647 368.706,91.5294 z" id="boundary" inkscape:connector-curvature="0" />
	<path style="fill:none;stroke:red;stroke-width:1px;stroke-linecap:butt;stroke-linejoin:miter;stroke-opacity:1" d="M 368.706,91.5294 368.706,109.765 z" id="boundary" inkscape:connector-curvature="0" />
	<path style="fill:none;stroke:red;stroke-width:1px;stroke-linecap:butt;stroke-linejoin:miter;stroke-opacity:1" d="M 376,13.1176 394.235,13.1176 z" id="boundary" inkscape:connector-curvature="0" />
	<path style="fill:none;stroke:red;stroke-width:1px;stroke-linecap:butt;stroke-linejoin:miter;stroke-opacity:1" d="M 410.647,4 428.882,4 z" id="boundary" inkscape:connector-curvature="0" />
	<path style="fill:none;stroke:red;stroke-width:1px;stroke-linecap:butt;stroke-linejoin:miter;stroke-opacity:1" d="M 394.235,13.1176 410.647,4 z" id="boundary" inkscape:connector-curvature="0" />
	<path style="fill:none;stroke:red;stroke-width:1px;stroke-linecap:butt;stroke-linejoin:miter;stroke-opacity:1" d="M 447.118,4 428.882,4 z" id="boundary" inkscape:connector-curvature="0" />
	<path style="fill:none;stroke:red;stroke-width:1px;stroke-linecap:butt;stroke-linejoin:miter;stroke-opacity:1" d="M 434.353,78.7647 425.235,97 z" id="boundary" inkscape:connector-curvature="0" />
	<path style="fill:none;stroke:red;stroke-width:1px;stroke-linecap:butt;stroke-linejoin:miter;stroke-opacity:1" d="M 425.235,97 425.235,115.235 z" id="boundary" inkscape:connector-curvature="0" />
	<path style="fill:none;stroke:red;stroke-width:1px;stroke-linecap:butt;stroke-linejoin:miter;stroke-opacity:1" d="M 352.294,164.471 334.059,162.647 z" id="boundary" inkscape:connector-curvature="0" />
	<path style="fill:none;stroke:red;stroke-width:1px;stroke-linecap:butt;stroke-linejoin:miter;stroke-opacity:1" d="M 334.059,162.647 315.824,171.765 z" id="boundary" inkscape:connector-curvature="0" />
	<path style="fill:none;stroke:red;stroke-width:1px;stroke-linecap:butt;stroke-linejoin:miter;stroke-opacity:1" d="M 315.824,171.765 297.588,177.235 z" id="boundary" inkscape:connector-curvature="0" />
	<path style="fill:none;stroke:red;stroke-width:1px;stroke-linecap:butt;stroke-linejoin:miter;stroke-opacity:1" d="M 352.294,164.471 370.529,162.647 z" id="boundary" inkscape:connector-curvature="0" />
	<path style="fill:none;stroke:red;stroke-width:1px;stroke-linecap:butt;stroke-linejoin:miter;stroke-opacity:1" d="M 368.706,109.765 386.941,115.235 z" id="boundary" inkscape:connector-curvature="0" />
	<path style="fill:none;stroke:red;stroke-width:1px;stroke-linecap:butt;stroke-linejoin:miter;stroke-opacity:1" d="M 396.059,131.647 386.941,115.235 z" id="boundary" inkscape:connector-curvature="0" />
	<path style="fill:none;stroke:red;stroke-width:1px;stroke-linecap:butt;stroke-linejoin:miter;stroke-opacity:1" d="M 396.059,131.647 385.118,151.706 z" id="boundary" inkscape:connector-curvature="0" />
	<path style="fill:none;stroke:red;stroke-width:1px;stroke-linecap:butt;stroke-linejoin:miter;stroke-opacity:1" d="M 370.529,162.647 385.118,151.706 z" id="boundary" inkscape:connector-curvature="0" />
	<path style="fill:none;stroke:red;stroke-width:1px;stroke-linecap:butt;stroke-linejoin:miter;stroke-opacity:1" d="M 425.235,115.235 434.353,131.647 z" id="boundary" inkscape:connector-curvature="0" />
	<path style="fill:none;stroke:red;stroke-width:1px;stroke-linecap:butt;stroke-linejoin:miter;stroke-opacity:1" d="M 434.353,60.5294 434.353,78.7647 z" id="boundary" inkscape:connector-curvature="0" />
	<path style="fill:none;stroke:red;stroke-width:1px;stroke-linecap:butt;stroke-linejoin:miter;stroke-opacity:1" d="M 22.2353,510.941 22.2353,529.176 z" id="boundary" inkscape:connector-curvature="0" />
	<path style="fill:none;stroke:red;stroke-width:1px;stroke-linecap:butt;stroke-linejoin:miter;stroke-opacity:1" d="M 22.2353,510.941 22.2353,492.706 z" id="boundary" inkscape:connector-curvature="0" />
	<path style="fill:none;stroke:red;stroke-width:1px;stroke-linecap:butt;stroke-linejoin:miter;stroke-opacity:1" d="M 22.2353,529.176 22.2353,547.412 z" id="boundary" inkscape:connector-curvature="0" />
	<path style="fill:none;stroke:red;stroke-width:1px;stroke-linecap:butt;stroke-linejoin:miter;stroke-opacity:1" d="M 22.2353,547.412 31.3529,563.824 z" id="boundary" inkscape:connector-curvature="0" />
	<path style="fill:none;stroke:red;stroke-width:1px;stroke-linecap:butt;stroke-linejoin:miter;stroke-opacity:1" d="M 49.5882,571.118 31.3529,563.824 z" id="boundary" inkscape:connector-curvature="0" />
	<path style="fill:none;stroke:red;stroke-width:1px;stroke-linecap:butt;stroke-linejoin:miter;stroke-opacity:1" d="M 49.5882,571.118 66,580.235 z" id="boundary" inkscape:connector-curvature="0" />
	<path style="fill:none;stroke:red;stroke-width:1px;stroke-linecap:butt;stroke-linejoin:miter;stroke-opacity:1" d="M 84.2353,580.235 66,580.235 z" id="boundary" inkscape:connector-curvature="0" />
	<path style="fill:none;stroke:red;stroke-width:1px;stroke-linecap:butt;stroke-linejoin:miter;stroke-opacity:1" d="M 137.118,589.353 118.882,589.353 z" id="boundary" inkscape:connector-curvature="0" />
	<path style="fill:none;stroke:red;stroke-width:1px;stroke-linecap:butt;stroke-linejoin:miter;stroke-opacity:1" d="M 100.647,589.353 84.2353,580.235 z" id="boundary" inkscape:connector-curvature="0" />
	<path style="fill:none;stroke:red;stroke-width:1px;stroke-linecap:butt;stroke-linejoin:miter;stroke-opacity:1" d="M 100.647,589.353 118.882,589.353 z" id="boundary" inkscape:connector-curvature="0" />
	<path style="fill:none;stroke:red;stroke-width:1px;stroke-linecap:butt;stroke-linejoin:miter;stroke-opacity:1" d="M 4,647.706 18.5882,633.118 z" id="boundary" inkscape:connector-curvature="0" />
	<path style="fill:none;stroke:red;stroke-width:1px;stroke-linecap:butt;stroke-linejoin:miter;stroke-opacity:1" d="M 18.5882,633.118 35,642.235 z" id="boundary" inkscape:connector-curvature="0" />
	<path style="fill:none;stroke:red;stroke-width:1px;stroke-linecap:butt;stroke-linejoin:miter;stroke-opacity:1" d="M 4,665.941 4,647.706 z" id="boundary" inkscape:connector-curvature="0" />
	<path style="fill:none;stroke:red;stroke-width:1px;stroke-linecap:butt;stroke-linejoin:miter;stroke-opacity:1" d="M 35,642.235 51.4118,651.353 z" id="boundary" inkscape:connector-curvature="0" />
	<path style="fill:none;stroke:red;stroke-width:1px;stroke-linecap:butt;stroke-linejoin:miter;stroke-opacity:1" d="M 4,665.941 22.2353,671.412 z" id="boundary" inkscape:connector-curvature="0" />
	<path style="fill:none;stroke:red;stroke-width:1px;stroke-linecap:butt;stroke-linejoin:miter;stroke-opacity:1" d="M 22.2353,671.412 38.6471,680.529 z" id="boundary" inkscape:connector-curvature="0" />
	<path style="fill:none;stroke:red;stroke-width:1px;stroke-linecap:butt;stroke-linejoin:miter;stroke-opacity:1" d="M 55.0588,689.647 38.6471,680.529 z" id="boundary" inkscape:connector-curvature="0" />
	<path style="fill:none;stroke:red;stroke-width:1px;stroke-linecap:butt;stroke-linejoin:miter;stroke-opacity:1" d="M 55.0588,689.647 73.2941,689.647 z" id="boundary" inkscape:connector-curvature="0" />
	<path style="fill:none;stroke:red;stroke-width:1px;stroke-linecap:butt;stroke-linejoin:miter;stroke-opacity:1" d="M 51.4118,651.353 67.8235,660.471 z" id="boundary" inkscape:connector-curvature="0" />
	<path style="fill:none;stroke:red;stroke-width:1px;stroke-linecap:butt;stroke-linejoin:miter;stroke-opacity:1" d="M 86.0588,660.471 67.8235,660.471 z" id="boundary" inkscape:connector-curvature="0" />
	<path style="fill:none;stroke:red;stroke-width:1px;stroke-linecap:butt;stroke-linejoin:miter;stroke-opacity:1" d="M 86.0588,660.471 104.294,660.471 z" id="boundary" inkscape:connector-curvature="0" />
	<path style="fill:none;stroke:red;stroke-width:1px;stroke-linecap:butt;stroke-linejoin:miter;stroke-opacity:1" d="M 122.529,660.471 104.294,660.471 z" id="boundary" inkscape:connector-curvature="0" />
	<path style="fill:none;stroke:red;stroke-width:1px;stroke-linecap:butt;stroke-linejoin:miter;stroke-opacity:1" d="M 73.2941,689.647 91.5294,689.647 z" id="boundary" inkscape:connector-curvature="0" />
	<path style="fill:none;stroke:red;stroke-width:1px;stroke-linecap:butt;stroke-linejoin:miter;stroke-opacity:1" d="M 128,689.647 109.765,689.647 z" id="boundary" inkscape:connector-curvature="0" />
	<path style="fill:none;stroke:red;stroke-width:1px;stroke-linecap:butt;stroke-linejoin:miter;stroke-opacity:1" d="M 91.5294,689.647 109.765,689.647 z" id="boundary" inkscape:connector-curvature="0" />
	<path style="fill:none;stroke:red;stroke-width:1px;stroke-linecap:butt;stroke-linejoin:miter;stroke-opacity:1" d="M 137.118,589.353 155.353,589.353 z" id="boundary" inkscape:connector-curvature="0" />
	<path style="fill:none;stroke:red;stroke-width:1px;stroke-linecap:butt;stroke-linejoin:miter;stroke-opacity:1" d="M 173.588,589.353 186.353,603.941 z" id="boundary" inkscape:connector-curvature="0" />
	<path style="fill:none;stroke:red;stroke-width:1px;stroke-linecap:butt;stroke-linejoin:miter;stroke-opacity:1" d="M 155.353,589.353 173.588,589.353 z" id="boundary" inkscape:connector-curvature="0" />
	<path style="fill:none;stroke:red;stroke-width:1px;stroke-linecap:butt;stroke-linejoin:miter;stroke-opacity:1" d="M 186.353,603.941 186.353,622.176 z" id="boundary" inkscape:connector-curvature="0" />
	<path style="fill:none;stroke:red;stroke-width:1px;stroke-linecap:butt;stroke-linejoin:miter;stroke-opacity:1" d="M 175.412,651.353 157.176,651.353 z" id="boundary" inkscape:connector-curvature="0" />
	<path style="fill:none;stroke:red;stroke-width:1px;stroke-linecap:butt;stroke-linejoin:miter;stroke-opacity:1" d="M 157.176,651.353 140.765,660.471 z" id="boundary" inkscape:connector-curvature="0" />
	<path style="fill:none;stroke:red;stroke-width:1px;stroke-linecap:butt;stroke-linejoin:miter;stroke-opacity:1" d="M 175.412,651.353 186.353,622.176 z" id="boundary" inkscape:connector-curvature="0" />
	<path style="fill:none;stroke:red;stroke-width:1px;stroke-linecap:butt;stroke-linejoin:miter;stroke-opacity:1" d="M 303.059,662.294 286.647,653.176 z" id="boundary" inkscape:connector-curvature="0" />
	<path style="fill:none;stroke:red;stroke-width:1px;stroke-linecap:butt;stroke-linejoin:miter;stroke-opacity:1" d="M 410.647,653.176 392.412,653.176 z" id="boundary" inkscape:connector-curvature="0" />
	<path style="fill:none;stroke:red;stroke-width:1px;stroke-linecap:butt;stroke-linejoin:miter;stroke-opacity:1" d="M 427.059,644.059 410.647,653.176 z" id="boundary" inkscape:connector-curvature="0" />
	<path style="fill:none;stroke:red;stroke-width:1px;stroke-linecap:butt;stroke-linejoin:miter;stroke-opacity:1" d="M 392.412,653.176 376,662.294 z" id="boundary" inkscape:connector-curvature="0" />
	<path style="fill:none;stroke:red;stroke-width:1px;stroke-linecap:butt;stroke-linejoin:miter;stroke-opacity:1" d="M 434.353,616.706 427.059,644.059 z" id="boundary" inkscape:connector-curvature="0" />
	<path style="fill:none;stroke:red;stroke-width:1px;stroke-linecap:butt;stroke-linejoin:miter;stroke-opacity:1" d="M 286.647,653.176 270.235,662.294 z" id="boundary" inkscape:connector-curvature="0" />
	<path style="fill:none;stroke:red;stroke-width:1px;stroke-linecap:butt;stroke-linejoin:miter;stroke-opacity:1" d="M 233.765,662.294 215.529,671.412 z" id="boundary" inkscape:connector-curvature="0" />
	<path style="fill:none;stroke:red;stroke-width:1px;stroke-linecap:butt;stroke-linejoin:miter;stroke-opacity:1" d="M 179.059,671.412 197.294,671.412 z" id="boundary" inkscape:connector-curvature="0" />
	<path style="fill:none;stroke:red;stroke-width:1px;stroke-linecap:butt;stroke-linejoin:miter;stroke-opacity:1" d="M 215.529,671.412 197.294,671.412 z" id="boundary" inkscape:connector-curvature="0" />
	<path style="fill:none;stroke:red;stroke-width:1px;stroke-linecap:butt;stroke-linejoin:miter;stroke-opacity:1" d="M 175.412,651.353 179.059,671.412 z" id="boundary" inkscape:connector-curvature="0" />
	<path style="fill:none;stroke:red;stroke-width:1px;stroke-linecap:butt;stroke-linejoin:miter;stroke-opacity:1" d="M 179.059,671.412 162.647,680.529 z" id="boundary" inkscape:connector-curvature="0" />
	<path style="fill:none;stroke:red;stroke-width:1px;stroke-linecap:butt;stroke-linejoin:miter;stroke-opacity:1" d="M 146.235,689.647 128,689.647 z" id="boundary" inkscape:connector-curvature="0" />
	<path style="fill:none;stroke:red;stroke-width:1px;stroke-linecap:butt;stroke-linejoin:miter;stroke-opacity:1" d="M 162.647,680.529 146.235,689.647 z" id="boundary" inkscape:connector-curvature="0" />
	<path style="fill:none;stroke:red;stroke-width:1px;stroke-linecap:butt;stroke-linejoin:miter;stroke-opacity:1" d="M 122.529,660.471 140.765,660.471 z" id="boundary" inkscape:connector-curvature="0" />
	<path style="fill:none;stroke:red;stroke-width:1px;stroke-linecap:butt;stroke-linejoin:miter;stroke-opacity:1" d="M 252,665.941 270.235,662.294 z" id="boundary" inkscape:connector-curvature="0" />
	<path style="fill:none;stroke:red;stroke-width:1px;stroke-linecap:butt;stroke-linejoin:miter;stroke-opacity:1" d="M 303.059,662.294 321.294,662.294 z" id="boundary" inkscape:connector-curvature="0" />
	<path style="fill:none;stroke:red;stroke-width:1px;stroke-linecap:butt;stroke-linejoin:miter;stroke-opacity:1" d="M 252,665.941 233.765,662.294 z" id="boundary" inkscape:connector-curvature="0" />
	<path style="fill:none;stroke:red;stroke-width:1px;stroke-linecap:butt;stroke-linejoin:miter;stroke-opacity:1" d="M 339.529,662.294 321.294,662.294 z" id="boundary" inkscape:connector-curvature="0" />
	<path style="fill:none;stroke:red;stroke-width:1px;stroke-linecap:butt;stroke-linejoin:miter;stroke-opacity:1" d="M 357.765,662.294 339.529,662.294 z" id="boundary" inkscape:connector-curvature="0" />
	<path style="fill:none;stroke:red;stroke-width:1px;stroke-linecap:butt;stroke-linejoin:miter;stroke-opacity:1" d="M 376,662.294 357.765,662.294 z" id="boundary" inkscape:connector-curvature="0" />
	<path style="fill:none;stroke:red;stroke-width:1px;stroke-linecap:butt;stroke-linejoin:miter;stroke-opacity:1" d="M 452.588,60.5294 434.353,60.5294 z" id="boundary" inkscape:connector-curvature="0" />
	<path style="fill:none;stroke:red;stroke-width:1px;stroke-linecap:butt;stroke-linejoin:miter;stroke-opacity:1" d="M 479.941,36.8235 469,51.4118 z" id="boundary" inkscape:connector-curvature="0" />
	<path style="fill:none;stroke:red;stroke-width:1px;stroke-linecap:butt;stroke-linejoin:miter;stroke-opacity:1" d="M 447.118,4 465.353,4 z" id="boundary" inkscape:connector-curvature="0" />
	<path style="fill:none;stroke:red;stroke-width:1px;stroke-linecap:butt;stroke-linejoin:miter;stroke-opacity:1" d="M 452.588,60.5294 469,51.4118 z" id="boundary" inkscape:connector-curvature="0" />
	<path style="fill:none;stroke:red;stroke-width:1px;stroke-linecap:butt;stroke-linejoin:miter;stroke-opacity:1" d="M 450.765,140.765 434.353,131.647 z" id="boundary" inkscape:connector-curvature="0" />
	<path style="fill:none;stroke:red;stroke-width:1px;stroke-linecap:butt;stroke-linejoin:miter;stroke-opacity:1" d="M 465.353,4 478.118,18.5882 z" id="boundary" inkscape:connector-curvature="0" />
	<path style="fill:none;stroke:red;stroke-width:1px;stroke-linecap:butt;stroke-linejoin:miter;stroke-opacity:1" d="M 479.941,36.8235 478.118,18.5882 z" id="boundary" inkscape:connector-curvature="0" />
	<path style="fill:none;stroke:red;stroke-width:1px;stroke-linecap:butt;stroke-linejoin:miter;stroke-opacity:1" d="M 487.235,140.765 469,137.118 z" id="boundary" inkscape:connector-curvature="0" />
	<path style="fill:none;stroke:red;stroke-width:1px;stroke-linecap:butt;stroke-linejoin:miter;stroke-opacity:1" d="M 660.471,168.118 642.235,168.118 z" id="boundary" inkscape:connector-curvature="0" />
	<path style="fill:none;stroke:red;stroke-width:1px;stroke-linecap:butt;stroke-linejoin:miter;stroke-opacity:1" d="M 469,137.118 450.765,140.765 z" id="boundary" inkscape:connector-curvature="0" />
	<path style="fill:none;stroke:red;stroke-width:1px;stroke-linecap:butt;stroke-linejoin:miter;stroke-opacity:1" d="M 505.471,140.765 523.706,140.765 z" id="boundary" inkscape:connector-curvature="0" />
	<path style="fill:none;stroke:red;stroke-width:1px;stroke-linecap:butt;stroke-linejoin:miter;stroke-opacity:1" d="M 505.471,140.765 487.235,140.765 z" id="boundary" inkscape:connector-curvature="0" />
	<path style="fill:none;stroke:red;stroke-width:1px;stroke-linecap:butt;stroke-linejoin:miter;stroke-opacity:1" d="M 541.941,140.765 560.176,140.765 z" id="boundary" inkscape:connector-curvature="0" />
	<path style="fill:none;stroke:red;stroke-width:1px;stroke-linecap:butt;stroke-linejoin:miter;stroke-opacity:1" d="M 560.176,140.765 578.412,140.765 z" id="boundary" inkscape:connector-curvature="0" />
	<path style="fill:none;stroke:red;stroke-width:1px;stroke-linecap:butt;stroke-linejoin:miter;stroke-opacity:1" d="M 578.412,140.765 596.647,144.412 z" id="boundary" inkscape:connector-curvature="0" />
	<path style="fill:none;stroke:red;stroke-width:1px;stroke-linecap:butt;stroke-linejoin:miter;stroke-opacity:1" d="M 523.706,140.765 541.941,140.765 z" id="boundary" inkscape:connector-curvature="0" />
	<path style="fill:none;stroke:red;stroke-width:1px;stroke-linecap:butt;stroke-linejoin:miter;stroke-opacity:1" d="M 624,168.118 607.588,159 z" id="boundary" inkscape:connector-curvature="0" />
	<path style="fill:none;stroke:red;stroke-width:1px;stroke-linecap:butt;stroke-linejoin:miter;stroke-opacity:1" d="M 607.588,159 596.647,144.412 z" id="boundary" inkscape:connector-curvature="0" />
	<path style="fill:none;stroke:red;stroke-width:1px;stroke-linecap:butt;stroke-linejoin:miter;stroke-opacity:1" d="M 624,168.118 642.235,168.118 z" id="boundary" inkscape:connector-curvature="0" />
	<path style="fill:none;stroke:red;stroke-width:1px;stroke-linecap:butt;stroke-linejoin:miter;stroke-opacity:1" d="M 616.706,261.118 625.824,277.529 z" id="boundary" inkscape:connector-curvature="0" />
	<path style="fill:none;stroke:red;stroke-width:1px;stroke-linecap:butt;stroke-linejoin:miter;stroke-opacity:1" d="M 642.235,268.412 625.824,277.529 z" id="boundary" inkscape:connector-curvature="0" />
	<path style="fill:none;stroke:red;stroke-width:1px;stroke-linecap:butt;stroke-linejoin:miter;stroke-opacity:1" d="M 631.294,248.353 616.706,261.118 z" id="boundary" inkscape:connector-curvature="0" />
	<path style="fill:none;stroke:red;stroke-width:1px;stroke-linecap:butt;stroke-linejoin:miter;stroke-opacity:1" d="M 631.294,248.353 649.529,242.882 z" id="boundary" inkscape:connector-curvature="0" />
	<path style="fill:none;stroke:red;stroke-width:1px;stroke-linecap:butt;stroke-linejoin:miter;stroke-opacity:1" d="M 660.471,168.118 678.706,171.765 z" id="boundary" inkscape:connector-curvature="0" />
	<path style="fill:none;stroke:red;stroke-width:1px;stroke-linecap:butt;stroke-linejoin:miter;stroke-opacity:1" d="M 680.529,190 676.882,221 z" id="boundary" inkscape:connector-curvature="0" />
	<path style="fill:none;stroke:red;stroke-width:1px;stroke-linecap:butt;stroke-linejoin:miter;stroke-opacity:1" d="M 678.706,171.765 680.529,190 z" id="boundary" inkscape:connector-curvature="0" />
	<path style="fill:none;stroke:red;stroke-width:1px;stroke-linecap:butt;stroke-linejoin:miter;stroke-opacity:1" d="M 676.882,221 667.765,239.235 z" id="boundary" inkscape:connector-curvature="0" />
	<path style="fill:none;stroke:red;stroke-width:1px;stroke-linecap:butt;stroke-linejoin:miter;stroke-opacity:1" d="M 649.529,242.882 667.765,239.235 z" id="boundary" inkscape:connector-curvature="0" />
	<path style="fill:none;stroke:red;stroke-width:1px;stroke-linecap:butt;stroke-linejoin:miter;stroke-opacity:1" d="M 996,266.588 983.235,241.059 z" id="boundary" inkscape:connector-curvature="0" />
	<path style="fill:none;stroke:red;stroke-width:1px;stroke-linecap:butt;stroke-linejoin:miter;stroke-opacity:1" d="M 966.824,250.176 948.588,250.176 z" id="boundary" inkscape:connector-curvature="0" />
	<path style="fill:none;stroke:red;stroke-width:1px;stroke-linecap:butt;stroke-linejoin:miter;stroke-opacity:1" d="M 983.235,241.059 966.824,250.176 z" id="boundary" inkscape:connector-curvature="0" />
	<path style="fill:none;stroke:red;stroke-width:1px;stroke-linecap:butt;stroke-linejoin:miter;stroke-opacity:1" d="M 948.588,250.176 932.176,259.294 z" id="boundary" inkscape:connector-curvature="0" />
	<path style="fill:none;stroke:red;stroke-width:1px;stroke-linecap:butt;stroke-linejoin:miter;stroke-opacity:1" d="M 678.706,272.059 660.471,268.412 z" id="boundary" inkscape:connector-curvature="0" />
	<path style="fill:none;stroke:red;stroke-width:1px;stroke-linecap:butt;stroke-linejoin:miter;stroke-opacity:1" d="M 696.941,268.412 678.706,272.059 z" id="boundary" inkscape:connector-curvature="0" />
	<path style="fill:none;stroke:red;stroke-width:1px;stroke-linecap:butt;stroke-linejoin:miter;stroke-opacity:1" d="M 660.471,268.412 642.235,268.412 z" id="boundary" inkscape:connector-curvature="0" />
	<path style="fill:none;stroke:red;stroke-width:1px;stroke-linecap:butt;stroke-linejoin:miter;stroke-opacity:1" d="M 696.941,268.412 715.176,268.412 z" id="boundary" inkscape:connector-curvature="0" />
	<path style="fill:none;stroke:red;stroke-width:1px;stroke-linecap:butt;stroke-linejoin:miter;stroke-opacity:1" d="M 751.647,268.412 769.882,268.412 z" id="boundary" inkscape:connector-curvature="0" />
	<path style="fill:none;stroke:red;stroke-width:1px;stroke-linecap:butt;stroke-linejoin:miter;stroke-opacity:1" d="M 751.647,268.412 733.412,268.412 z" id="boundary" inkscape:connector-curvature="0" />
	<path style="fill:none;stroke:red;stroke-width:1px;stroke-linecap:butt;stroke-linejoin:miter;stroke-opacity:1" d="M 733.412,268.412 715.176,268.412 z" id="boundary" inkscape:connector-curvature="0" />
	<path style="fill:none;stroke:red;stroke-width:1px;stroke-linecap:butt;stroke-linejoin:miter;stroke-opacity:1" d="M 788.118,268.412 769.882,268.412 z" id="boundary" inkscape:connector-curvature="0" />
	<path style="fill:none;stroke:red;stroke-width:1px;stroke-linecap:butt;stroke-linejoin:miter;stroke-opacity:1" d="M 806.353,268.412 824.588,268.412 z" id="boundary" inkscape:connector-curvature="0" />
	<path style="fill:none;stroke:red;stroke-width:1px;stroke-linecap:butt;stroke-linejoin:miter;stroke-opacity:1" d="M 788.118,268.412 806.353,268.412 z" id="boundary" inkscape:connector-curvature="0" />
	<path style="fill:none;stroke:red;stroke-width:1px;stroke-linecap:butt;stroke-linejoin:miter;stroke-opacity:1" d="M 842.824,268.412 861.059,268.412 z" id="boundary" inkscape:connector-curvature="0" />
	<path style="fill:none;stroke:red;stroke-width:1px;stroke-linecap:butt;stroke-linejoin:miter;stroke-opacity:1" d="M 879.294,268.412 897.529,268.412 z" id="boundary" inkscape:connector-curvature="0" />
	<path style="fill:none;stroke:red;stroke-width:1px;stroke-linecap:butt;stroke-linejoin:miter;stroke-opacity:1" d="M 861.059,268.412 879.294,268.412 z" id="boundary" inkscape:connector-curvature="0" />
	<path style="fill:none;stroke:red;stroke-width:1px;stroke-linecap:butt;stroke-linejoin:miter;stroke-opacity:1" d="M 824.588,268.412 842.824,268.412 z" id="boundary" inkscape:connector-curvature="0" />
	<path style="fill:none;stroke:red;stroke-width:1px;stroke-linecap:butt;stroke-linejoin:miter;stroke-opacity:1" d="M 915.765,268.412 932.176,259.294 z" id="boundary" inkscape:connector-curvature="0" />
	<path style="fill:none;stroke:red;stroke-width:1px;stroke-linecap:butt;stroke-linejoin:miter;stroke-opacity:1" d="M 915.765,268.412 897.529,268.412 z" id="boundary" inkscape:connector-curvature="0" />
	<path style="fill:none;stroke:red;stroke-width:1px;stroke-linecap:butt;stroke-linejoin:miter;stroke-opacity:1" d="M 996,266.588 981.412,279.353 z" id="boundary" inkscape:connector-curvature="0" />
	<path style="fill:none;stroke:red;stroke-width:1px;stroke-linecap:butt;stroke-linejoin:miter;stroke-opacity:1" d="M 963.176,279.353 944.941,288.471 z" id="boundary" inkscape:connector-curvature="0" />
	<path style="fill:none;stroke:red;stroke-width:1px;stroke-linecap:butt;stroke-linejoin:miter;stroke-opacity:1" d="M 926.706,297.588 944.941,288.471 z" id="boundary" inkscape:connector-curvature="0" />
	<path style="fill:none;stroke:red;stroke-width:1px;stroke-linecap:butt;stroke-linejoin:miter;stroke-opacity:1" d="M 981.412,279.353 963.176,279.353 z" id="boundary" inkscape:connector-curvature="0" />
	<path style="fill:none;stroke:red;stroke-width:1px;stroke-linecap:butt;stroke-linejoin:miter;stroke-opacity:1" d="M 926.706,297.588 913.941,315.824 z" id="boundary" inkscape:connector-curvature="0" />
	<path style="fill:none;stroke:red;stroke-width:1px;stroke-linecap:butt;stroke-linejoin:miter;stroke-opacity:1" d="M 689.647,407 689.647,425.235 z" id="boundary" inkscape:connector-curvature="0" />
	<path style="fill:none;stroke:red;stroke-width:1px;stroke-linecap:butt;stroke-linejoin:miter;stroke-opacity:1" d="M 706.059,397.882 689.647,407 z" id="boundary" inkscape:connector-curvature="0" />
	<path style="fill:none;stroke:red;stroke-width:1px;stroke-linecap:butt;stroke-linejoin:miter;stroke-opacity:1" d="M 706.059,397.882 724.294,397.882 z" id="boundary" inkscape:connector-curvature="0" />
	<path style="fill:none;stroke:red;stroke-width:1px;stroke-linecap:butt;stroke-linejoin:miter;stroke-opacity:1" d="M 689.647,443.471 689.647,425.235 z" id="boundary" inkscape:connector-curvature="0" />
	<path style="fill:none;stroke:red;stroke-width:1px;stroke-linecap:butt;stroke-linejoin:miter;stroke-opacity:1" d="M 689.647,443.471 698.765,459.882 z" id="boundary" inkscape:connector-curvature="0" />
	<path style="fill:none;stroke:red;stroke-width:1px;stroke-linecap:butt;stroke-linejoin:miter;stroke-opacity:1" d="M 717,459.882 698.765,459.882 z" id="boundary" inkscape:connector-curvature="0" />
	<path style="fill:none;stroke:red;stroke-width:1px;stroke-linecap:butt;stroke-linejoin:miter;stroke-opacity:1" d="M 450.765,589.353 467.176,580.235 z" id="boundary" inkscape:connector-curvature="0" />
	<path style="fill:none;stroke:red;stroke-width:1px;stroke-linecap:butt;stroke-linejoin:miter;stroke-opacity:1" d="M 503.647,580.235 485.412,580.235 z" id="boundary" inkscape:connector-curvature="0" />
	<path style="fill:none;stroke:red;stroke-width:1px;stroke-linecap:butt;stroke-linejoin:miter;stroke-opacity:1" d="M 467.176,580.235 485.412,580.235 z" id="boundary" inkscape:connector-curvature="0" />
	<path style="fill:none;stroke:red;stroke-width:1px;stroke-linecap:butt;stroke-linejoin:miter;stroke-opacity:1" d="M 576.588,571.118 558.353,576.588 z" id="boundary" inkscape:connector-curvature="0" />
	<path style="fill:none;stroke:red;stroke-width:1px;stroke-linecap:butt;stroke-linejoin:miter;stroke-opacity:1" d="M 558.353,576.588 540.118,580.235 z" id="boundary" inkscape:connector-curvature="0" />
	<path style="fill:none;stroke:red;stroke-width:1px;stroke-linecap:butt;stroke-linejoin:miter;stroke-opacity:1" d="M 503.647,580.235 521.882,580.235 z" id="boundary" inkscape:connector-curvature="0" />
	<path style="fill:none;stroke:red;stroke-width:1px;stroke-linecap:butt;stroke-linejoin:miter;stroke-opacity:1" d="M 540.118,580.235 521.882,580.235 z" id="boundary" inkscape:connector-curvature="0" />
	<path style="fill:none;stroke:red;stroke-width:1px;stroke-linecap:butt;stroke-linejoin:miter;stroke-opacity:1" d="M 434.353,616.706 434.353,598.471 z" id="boundary" inkscape:connector-curvature="0" />
	<path style="fill:none;stroke:red;stroke-width:1px;stroke-linecap:butt;stroke-linejoin:miter;stroke-opacity:1" d="M 434.353,598.471 450.765,589.353 z" id="boundary" inkscape:connector-curvature="0" />
	<path style="fill:none;stroke:red;stroke-width:1px;stroke-linecap:butt;stroke-linejoin:miter;stroke-opacity:1" d="M 631.294,558.353 649.529,552.882 z" id="boundary" inkscape:connector-curvature="0" />
	<path style="fill:none;stroke:red;stroke-width:1px;stroke-linecap:butt;stroke-linejoin:miter;stroke-opacity:1" d="M 594.824,567.471 613.059,562 z" id="boundary" inkscape:connector-curvature="0" />
	<path style="fill:none;stroke:red;stroke-width:1px;stroke-linecap:butt;stroke-linejoin:miter;stroke-opacity:1" d="M 594.824,567.471 576.588,571.118 z" id="boundary" inkscape:connector-curvature="0" />
	<path style="fill:none;stroke:red;stroke-width:1px;stroke-linecap:butt;stroke-linejoin:miter;stroke-opacity:1" d="M 613.059,562 631.294,558.353 z" id="boundary" inkscape:connector-curvature="0" />
	<path style="fill:none;stroke:red;stroke-width:1px;stroke-linecap:butt;stroke-linejoin:miter;stroke-opacity:1" d="M 667.765,552.882 686,552.882 z" id="boundary" inkscape:connector-curvature="0" />
	<path style="fill:none;stroke:red;stroke-width:1px;stroke-linecap:butt;stroke-linejoin:miter;stroke-opacity:1" d="M 702.412,562 686,552.882 z" id="boundary" inkscape:connector-curvature="0" />
	<path style="fill:none;stroke:red;stroke-width:1px;stroke-linecap:butt;stroke-linejoin:miter;stroke-opacity:1" d="M 649.529,552.882 667.765,552.882 z" id="boundary" inkscape:connector-curvature="0" />
	<path style="fill:none;stroke:red;stroke-width:1px;stroke-linecap:butt;stroke-linejoin:miter;stroke-opacity:1" d="M 718.824,552.882 702.412,562 z" id="boundary" inkscape:connector-curvature="0" />
	<path style="fill:none;stroke:red;stroke-width:1px;stroke-linecap:butt;stroke-linejoin:miter;stroke-opacity:1" d="M 740.706,388.765 724.294,397.882 z" id="boundary" inkscape:connector-curvature="0" />
	<path style="fill:none;stroke:red;stroke-width:1px;stroke-linecap:butt;stroke-linejoin:miter;stroke-opacity:1" d="M 757.118,377.824 740.706,388.765 z" id="boundary" inkscape:connector-curvature="0" />
	<path style="fill:none;stroke:red;stroke-width:1px;stroke-linecap:butt;stroke-linejoin:miter;stroke-opacity:1" d="M 793.588,361.412 775.353,368.706 z" id="boundary" inkscape:connector-curvature="0" />
	<path style="fill:none;stroke:red;stroke-width:1px;stroke-linecap:butt;stroke-linejoin:miter;stroke-opacity:1" d="M 810,352.294 793.588,361.412 z" id="boundary" inkscape:connector-curvature="0" />
	<path style="fill:none;stroke:red;stroke-width:1px;stroke-linecap:butt;stroke-linejoin:miter;stroke-opacity:1" d="M 757.118,377.824 775.353,368.706 z" id="boundary" inkscape:connector-curvature="0" />
	<path style="fill:none;stroke:red;stroke-width:1px;stroke-linecap:butt;stroke-linejoin:miter;stroke-opacity:1" d="M 828.235,352.294 810,352.294 z" id="boundary" inkscape:connector-curvature="0" />
	<path style="fill:none;stroke:red;stroke-width:1px;stroke-linecap:butt;stroke-linejoin:miter;stroke-opacity:1" d="M 913.941,315.824 895.706,321.294 z" id="boundary" inkscape:connector-curvature="0" />
	<path style="fill:none;stroke:red;stroke-width:1px;stroke-linecap:butt;stroke-linejoin:miter;stroke-opacity:1" d="M 846.471,348.647 864.706,343.176 z" id="boundary" inkscape:connector-curvature="0" />
	<path style="fill:none;stroke:red;stroke-width:1px;stroke-linecap:butt;stroke-linejoin:miter;stroke-opacity:1" d="M 828.235,352.294 846.471,348.647 z" id="boundary" inkscape:connector-curvature="0" />
	<path style="fill:none;stroke:red;stroke-width:1px;stroke-linecap:butt;stroke-linejoin:miter;stroke-opacity:1" d="M 881.118,334.059 895.706,321.294 z" id="boundary" inkscape:connector-curvature="0" />
	<path style="fill:none;stroke:red;stroke-width:1px;stroke-linecap:butt;stroke-linejoin:miter;stroke-opacity:1" d="M 864.706,343.176 881.118,334.059 z" id="boundary" inkscape:connector-curvature="0" />
	<path style="fill:none;stroke:red;stroke-width:1px;stroke-linecap:butt;stroke-linejoin:miter;stroke-opacity:1" d="M 735.235,465.353 717,459.882 z" id="boundary" inkscape:connector-curvature="0" />
	<path style="fill:none;stroke:red;stroke-width:1px;stroke-linecap:butt;stroke-linejoin:miter;stroke-opacity:1" d="M 751.647,474.471 735.235,465.353 z" id="boundary" inkscape:connector-curvature="0" />
	<path style="fill:none;stroke:red;stroke-width:1px;stroke-linecap:butt;stroke-linejoin:miter;stroke-opacity:1" d="M 718.824,552.882 737.059,552.882 z" id="boundary" inkscape:connector-curvature="0" />
	<path style="fill:none;stroke:red;stroke-width:1px;stroke-linecap:butt;stroke-linejoin:miter;stroke-opacity:1" d="M 751.647,474.471 753.471,492.706 z" id="boundary" inkscape:connector-curvature="0" />
	<path style="fill:none;stroke:red;stroke-width:1px;stroke-linecap:butt;stroke-linejoin:miter;stroke-opacity:1" d="M 753.471,543.765 737.059,552.882 z" id="boundary" inkscape:connector-curvature="0" />
	<path style="fill:none;stroke:red;stroke-width:1px;stroke-linecap:butt;stroke-linejoin:miter;stroke-opacity:1" d="M 753.471,492.706 753.471,510.941 z" id="boundary" inkscape:connector-curvature="0" />
	<path style="fill:none;stroke:red;stroke-width:1px;stroke-linecap:butt;stroke-linejoin:miter;stroke-opacity:1" d="M 753.471,543.765 753.471,510.941 z" id="boundary" inkscape:connector-curvature="0" />
	<circle cx="4" cy="647.706" r="4" fill="#0" id="circle0"/>
	<circle cx="4" cy="665.941" r="4" fill="#0" id="circle1"/>
	<circle cx="18.5882" cy="633.118" r="4" fill="#0" id="circle2"/>
	<circle cx="22.2353" cy="456.235" r="4" fill="#0" id="circle3"/>
	<circle cx="22.2353" cy="474.471" r="4" fill="#0" id="circle4"/>
	<circle cx="22.2353" cy="492.706" r="4" fill="#0" id="circle5"/>
	<circle cx="22.2353" cy="510.941" r="4" fill="#0" id="circle6"/>
	<circle cx="22.2353" cy="529.176" r="4" fill="#0" id="circle7"/>
	<circle cx="22.2353" cy="547.412" r="4" fill="#0" id="circle8"/>
	<circle cx="22.2353" cy="671.412" r="4" fill="#0" id="circle9"/>
	<circle cx="31.3529" cy="401.529" r="4" fill="#0" id="circle10"/>
	<circle cx="31.3529" cy="419.765" r="4" fill="#0" id="circle11"/>
	<circle cx="31.3529" cy="438" r="4" fill="#0" id="circle12"/>
	<circle cx="31.3529" cy="563.824" r="4" fill="#0" id="circle13"/>
	<circle cx="35" cy="642.235" r="4" fill="#0" id="circle14"/>
	<circle cx="38.6471" cy="680.529" r="4" fill="#0" id="circle15"/>
	<circle cx="45.9412" cy="386.941" r="4" fill="#0" id="circle16"/>
	<circle cx="49.5882" cy="346.824" r="4" fill="#0" id="circle17"/>
	<circle cx="49.5882" cy="365.059" r="4" fill="#0" id="circle18"/>
	<circle cx="49.5882" cy="571.118" r="4" fill="#0" id="circle19"/>
	<circle cx="51.4118" cy="651.353" r="4" fill="#0" id="circle20"/>
	<circle cx="55.0588" cy="689.647" r="4" fill="#0" id="circle21"/>
	<circle cx="58.7059" cy="328.588" r="4" fill="#0" id="circle22"/>
	<circle cx="66" cy="580.235" r="4" fill="#0" id="circle23"/>
	<circle cx="67.8235" cy="310.353" r="4" fill="#0" id="circle24"/>
	<circle cx="67.8235" cy="660.471" r="4" fill="#0" id="circle25"/>
	<circle cx="73.2941" cy="689.647" r="4" fill="#0" id="circle26"/>
	<circle cx="82.4118" cy="295.765" r="4" fill="#0" id="circle27"/>
	<circle cx="84.2353" cy="580.235" r="4" fill="#0" id="circle28"/>
	<circle cx="86.0588" cy="273.882" r="4" fill="#0" id="circle29"/>
	<circle cx="86.0588" cy="660.471" r="4" fill="#0" id="circle30"/>
	<circle cx="91.5294" cy="689.647" r="4" fill="#0" id="circle31"/>
	<circle cx="100.647" cy="259.294" r="4" fill="#0" id="circle32"/>
	<circle cx="100.647" cy="589.353" r="4" fill="#0" id="circle33"/>
	<circle cx="104.294" cy="660.471" r="4" fill="#0" id="circle34"/>
	<circle cx="109.765" cy="689.647" r="4" fill="#0" id="circle35"/>
	<circle cx="115.235" cy="244.706" r="4" fill="#0" id="circle36"/>
	<circle cx="118.882" cy="589.353" r="4" fill="#0" id="circle37"/>
	<circle cx="122.529" cy="660.471" r="4" fill="#0" id="circle38"/>
	<circle cx="128" cy="689.647" r="4" fill="#0" id="circle39"/>
	<circle cx="129.824" cy="231.941" r="4" fill="#0" id="circle40"/>
	<circle cx="137.118" cy="213.706" r="4" fill="#0" id="circle41"/>
	<circle cx="137.118" cy="589.353" r="4" fill="#0" id="circle42"/>
	<circle cx="140.765" cy="660.471" r="4" fill="#0" id="circle43"/>
	<circle cx="146.235" cy="689.647" r="4" fill="#0" id="circle44"/>
	<circle cx="155.353" cy="204.588" r="4" fill="#0" id="circle45"/>
	<circle cx="155.353" cy="589.353" r="4" fill="#0" id="circle46"/>
	<circle cx="157.176" cy="651.353" r="4" fill="#0" id="circle47"/>
	<circle cx="162.647" cy="680.529" r="4" fill="#0" id="circle48"/>
	<circle cx="173.588" cy="204.588" r="4" fill="#0" id="circle49"/>
	<circle cx="173.588" cy="589.353" r="4" fill="#0" id="circle50"/>
	<circle cx="175.412" cy="651.353" r="4" fill="#0" id="circle51"/>
	<circle cx="179.059" cy="671.412" r="4" fill="#0" id="circle52"/>
	<circle cx="186.353" cy="603.941" r="4" fill="#0" id="circle53"/>
	<circle cx="186.353" cy="622.176" r="4" fill="#0" id="circle54"/>
	<circle cx="191.824" cy="195.471" r="4" fill="#0" id="circle55"/>
	<circle cx="197.294" cy="671.412" r="4" fill="#0" id="circle56"/>
	<circle cx="210.059" cy="195.471" r="4" fill="#0" id="circle57"/>
	<circle cx="215.529" cy="671.412" r="4" fill="#0" id="circle58"/>
	<circle cx="228.294" cy="195.471" r="4" fill="#0" id="circle59"/>
	<circle cx="233.765" cy="662.294" r="4" fill="#0" id="circle60"/>
	<circle cx="244.706" cy="186.353" r="4" fill="#0" id="circle61"/>
	<circle cx="252" cy="665.941" r="4" fill="#0" id="circle62"/>
	<circle cx="262.941" cy="186.353" r="4" fill="#0" id="circle63"/>
	<circle cx="270.235" cy="662.294" r="4" fill="#0" id="circle64"/>
	<circle cx="281.176" cy="186.353" r="4" fill="#0" id="circle65"/>
	<circle cx="286.647" cy="653.176" r="4" fill="#0" id="circle66"/>
	<circle cx="297.588" cy="177.235" r="4" fill="#0" id="circle67"/>
	<circle cx="303.059" cy="662.294" r="4" fill="#0" id="circle68"/>
	<circle cx="304.882" cy="36.8235" r="4" fill="#0" id="circle69"/>
	<circle cx="304.882" cy="55.0588" r="4" fill="#0" id="circle70"/>
	<circle cx="315.824" cy="171.765" r="4" fill="#0" id="circle71"/>
	<circle cx="319.471" cy="67.8235" r="4" fill="#0" id="circle72"/>
	<circle cx="321.294" cy="662.294" r="4" fill="#0" id="circle73"/>
	<circle cx="323.118" cy="27.7059" r="4" fill="#0" id="circle74"/>
	<circle cx="334.059" cy="162.647" r="4" fill="#0" id="circle75"/>
	<circle cx="337.706" cy="69.6471" r="4" fill="#0" id="circle76"/>
	<circle cx="339.529" cy="662.294" r="4" fill="#0" id="circle77"/>
	<circle cx="341.353" cy="22.2353" r="4" fill="#0" id="circle78"/>
	<circle cx="352.294" cy="164.471" r="4" fill="#0" id="circle79"/>
	<circle cx="354.118" cy="78.7647" r="4" fill="#0" id="circle80"/>
	<circle cx="357.765" cy="662.294" r="4" fill="#0" id="circle81"/>
	<circle cx="359.588" cy="22.2353" r="4" fill="#0" id="circle82"/>
	<circle cx="368.706" cy="91.5294" r="4" fill="#0" id="circle83"/>
	<circle cx="368.706" cy="109.765" r="4" fill="#0" id="circle84"/>
	<circle cx="370.529" cy="162.647" r="4" fill="#0" id="circle85"/>
	<circle cx="376" cy="13.1176" r="4" fill="#0" id="circle86"/>
	<circle cx="376" cy="662.294" r="4" fill="#0" id="circle87"/>
	<circle cx="385.118" cy="151.706" r="4" fill="#0" id="circle88"/>
	<circle cx="386.941" cy="115.235" r="4" fill="#0" id="circle89"/>
	<circle cx="392.412" cy="653.176" r="4" fill="#0" id="circle90"/>
	<circle cx="394.235" cy="13.1176" r="4" fill="#0" id="circle91"/>
	<circle cx="396.059" cy="131.647" r="4" fill="#0" id="circle92"/>
	<circle cx="410.647" cy="4" r="4" fill="#0" id="circle93"/>
	<circle cx="410.647" cy="653.176" r="4" fill="#0" id="circle94"/>
	<circle cx="425.235" cy="97" r="4" fill="#0" id="circle95"/>
	<circle cx="425.235" cy="115.235" r="4" fill="#0" id="circle96"/>
	<circle cx="427.059" cy="644.059" r="4" fill="#0" id="circle97"/>
	<circle cx="428.882" cy="4" r="4" fill="#0" id="circle98"/>
	<circle cx="434.353" cy="60.5294" r="4" fill="#0" id="circle99"/>
	<circle cx="434.353" cy="78.7647" r="4" fill="#0" id="circle100"/>
	<circle cx="434.353" cy="131.647" r="4" fill="#0" id="circle101"/>
	<circle cx="434.353" cy="598.471" r="4" fill="#0" id="circle102"/>
	<circle cx="434.353" cy="616.706" r="4" fill="#0" id="circle103"/>
	<circle cx="447.118" cy="4" r="4" fill="#0" id="circle104"/>
	<circle cx="450.765" cy="140.765" r="4" fill="#0" id="circle105"/>
	<circle cx="450.765" cy="589.353" r="4" fill="#0" id="circle106"/>
	<circle cx="452.588" cy="60.5294" r="4" fill="#0" id="circle107"/>
	<circle cx="465.353" cy="4" r="4" fill="#0" id="circle108"/>
	<circle cx="467.176" cy="580.235" r="4" fill="#0" id="circle109"/>
	<circle cx="469" cy="51.4118" r="4" fill="#0" id="circle110"/>
	<circle cx="469" cy="137.118" r="4" fill="#0" id="circle111"/>
	<circle cx="478.118" cy="18.5882" r="4" fill="#0" id="circle112"/>
	<circle cx="479.941" cy="36.8235" r="4" fill="#0" id="circle113"/>
	<circle cx="485.412" cy="580.235" r="4" fill="#0" id="circle114"/>
	<circle cx="487.235" cy="140.765" r="4" fill="#0" id="circle115"/>
	<circle cx="503.647" cy="580.235" r="4" fill="#0" id="circle116"/>
	<circle cx="505.471" cy="140.765" r="4" fill="#0" id="circle117"/>
	<circle cx="521.882" cy="580.235" r="4" fill="#0" id="circle118"/>
	<circle cx="523.706" cy="140.765" r="4" fill="#0" id="circle119"/>
	<circle cx="540.118" cy="580.235" r="4" fill="#0" id="circle120"/>
	<circle cx="541.941" cy="140.765" r="4" fill="#0" id="circle121"/>
	<circle cx="558.353" cy="576.588" r="4" fill="#0" id="circle122"/>
	<circle cx="560.176" cy="140.765" r="4" fill="#0" id="circle123"/>
	<circle cx="576.588" cy="571.118" r="4" fill="#0" id="circle124"/>
	<circle cx="578.412" cy="140.765" r="4" fill="#0" id="circle125"/>
	<circle cx="594.824" cy="567.471" r="4" fill="#0" id="circle126"/>
	<circle cx="596.647" cy="144.412" r="4" fill="#0" id="circle127"/>
	<circle cx="607.588" cy="159" r="4" fill="#0" id="circle128"/>
	<circle cx="613.059" cy="562" r="4" fill="#0" id="circle129"/>
	<circle cx="616.706" cy="261.118" r="4" fill="#0" id="circle130"/>
	<circle cx="624" cy="168.118" r="4" fill="#0" id="circle131"/>
	<circle cx="625.824" cy="277.529" r="4" fill="#0" id="circle132"/>
	<circle cx="631.294" cy="248.353" r="4" fill="#0" id="circle133"/>
	<circle cx="631.294" cy="558.353" r="4" fill="#0" id="circle134"/>
	<circle cx="642.235" cy="168.118" r="4" fill="#0" id="circle135"/>
	<circle cx="642.235" cy="268.412" r="4" fill="#0" id="circle136"/>
	<circle cx="649.529" cy="242.882" r="4" fill="#0" id="circle137"/>
	<circle cx="649.529" cy="552.882" r="4" fill="#0" id="circle138"/>
	<circle cx="660.471" cy="168.118" r="4" fill="#0" id="circle139"/>
	<circle cx="660.471" cy="268.412" r="4" fill="#0" id="circle140"/>
	<circle cx="667.765" cy="239.235" r="4" fill="#0" id="circle141"/>
	<circle cx="667.765" cy="552.882" r="4" fill="#0" id="circle142"/>
	<circle cx="676.882" cy="221" r="4" fill="#0" id="circle143"/>
	<circle cx="678.706" cy="171.765" r="4" fill="#0" id="circle144"/>
	<circle cx="678.706" cy="272.059" r="4" fill="#0" id="circle145"/>
	<circle cx="680.529" cy="190" r="4" fill="#0" id="circle146"/>
	<circle cx="686" cy="552.882" r="4" fill="#0" id="circle147"/>
	<circle cx="689.647" cy="407" r="4" fill="#0" id="circle148"/>
	<circle cx="689.647" cy="425.235" r="4" fill="#0" id="circle149"/>
	<circle cx="689.647" cy="443.471" r="4" fill="#0" id="circle150"/>
	<circle cx="696.941" cy="268.412" r="4" fill="#0" id="circle151"/>
	<circle cx="698.765" cy="459.882" r="4" fill="#0" id="circle152"/>
	<circle cx="702.412" cy="562" r="4" fill="#0" id="circle153"/>
	<circle cx="706.059" cy="397.882" r="4" fill="#0" id="circle154"/>
	<circle cx="715.176" cy="268.412" r="4" fill="#0" id="circle155"/>
	<circle cx="717" cy="459.882" r="4" fill="#0" id="circle156"/>
	<circle cx="718.824" cy="552.882" r="4" fill="#0" id="circle157"/>
	<circle cx="724.294" cy="397.882" r="4" fill="#0" id="circle158"/>
	<circle cx="733.412" cy="268.412" r="4" fill="#0" id="circle159"/>
	<circle cx="735.235" cy="465.353" r="4" fill="#0" id="circle160"/>
	<circle cx="737.059" cy="552.882" r="4" fill="#0" id="circle161"/>
	<circle cx="740.706" cy="388.765" r="4" fill="#0" id="circle162"/>
	<circle cx="751.647" cy="268.412" r="4" fill="#0" id="circle163"/>
	<circle cx="751.647" cy="474.471" r="4" fill="#0" id="circle164"/>
	<circle cx="753.471" cy="492.706" r="4" fill="#0" id="circle165"/>
	<circle cx="753.471" cy="510.941" r="4" fill="#0" id="circle166"/>
	<circle cx="753.471" cy="543.765" r="4" fill="#0" id="circle167"/>
	<circle cx="757.118" cy="377.824" r="4" fill="#0" id="circle168"/>
	<circle cx="769.882" cy="268.412" r="4" fill="#0" id="circle169"/>
	<circle cx="775.353" cy="368.706" r="4" fill="#0" id="circle170"/>
	<circle cx="788.118" cy="268.412" r="4" fill="#0" id="circle171"/>
	<circle cx="793.588" cy="361.412" r="4" fill="#0" id="circle172"/>
	<circle cx="806.353" cy="268.412" r="4" fill="#0" id="circle173"/>
	<circle cx="810" cy="352.294" r="4" fill="#0" id="circle174"/>
	<circle cx="824.588" cy="268.412" r="4" fill="#0" id="circle175"/>
	<circle cx="828.235" cy="352.294" r="4" fill="#0" id="circle176"/>
	<circle cx="842.824" cy="268.412" r="4" fill="#0" id="circle177"/>
	<circle cx="846.471" cy="348.647" r="4" fill="#0" id="circle178"/>
	<circle cx="861.059" cy="268.412" r="4" fill="#0" id="circle179"/>
	<circle cx="864.706" cy="343.176" r="4" fill="#0" id="circle180"/>
	<circle cx="879.294" cy="268.412" r="4" fill="#0" id="circle181"/>
	<circle cx="881.118" cy="334.059" r="4" fill="#0" id="circle182"/>
	<circle cx="895.706" cy="321.294" r="4" fill="#0" id="circle183"/>
	<circle cx="897.529" cy="268.412" r="4" fill="#0" id="circle184"/>
	<circle cx="913.941" cy="315.824" r="4" fill="#0" id="circle185"/>
	<circle cx="915.765" cy="268.412" r="4" fill="#0" id="circle186"/>
	<circle cx="926.706" cy="297.588" r="4" fill="#0" id="circle187"/>
	<circle cx="932.176" cy="259.294" r="4" fill="#0" id="circle188"/>
	<circle cx="944.941" cy="288.471" r="4" fill="#0" id="circle189"/>
	<circle cx="948.588" cy="250.176" r="4" fill="#0" id="circle190"/>
	<circle cx="963.176" cy="279.353" r="4" fill="#0" id="circle191"/>
	<circle cx="966.824" cy="250.176" r="4" fill="#0" id="circle192"/>
	<circle cx="981.412" cy="279.353" r="4" fill="#0" id="circle193"/>
	<circle cx="983.235" cy="241.059" r="4" fill="#0" id="circle194"/>
	<circle cx="996" cy="266.588" r="4" fill="#0" id="circle195"/>
	</g>
</svg>