<?xml version="1.0" encoding="UTF-8" standalone="no"?>
<!-- Created with CurveBenchmark -->
<svg
	xmlns:dc="http://purl.org/dc/elements/1.1/"
	xmlns:cc="http://creativecommons.org/ns#"
	xmlns:rdf="http://www.w3.org/1999/02/22-rdf-syntax-ns#"
	xmlns:svg="http://www.w3.org/2000/svg"
	xmlns="http://www.w3.org/2000/svg"
	xmlns:sodipodi="http://sodipodi.sourceforge.net/DTD/sodipodi-0.dtd"
	xmlns:inkscape="http://www.inkscape.org/namespaces/inkscape"
	width="1000"
	height="1000"
	id="svg2"
	version="1.1"
	sodipodi:docname="manifold/crust-hammer-8.png.txt">
<defs
	id="defs4" />
<metadata
	id="metadata7">
	<rdf:RDF>
		<cc:Work
			rdf:about="">
			<dc:format>image/svg+xml</dc:format>
			<dc:type
				rdf:resource="http://purl.org/dc/dcmitype/StillImage" />
			<dc:title></dc:title>
		</cc:Work>
	</rdf:RDF>
</metadata>
<g
	inkscape:label="Layer 1"
	inkscape:groupmode="layer"
	id="layer1">
	<path style="fill:none;stroke:red;stroke-width:1px;stroke-linecap:butt;stroke-linejoin:miter;stroke-opacity:1" d="M 111.15,113.454 100.78,119.215 z" id="boundary" inkscape:connector-curvature="0" />
	<path style="fill:none;stroke:red;stroke-width:1px;stroke-linecap:butt;stroke-linejoin:miter;stroke-opacity:1" d="M 100.78,119.215 91.5633,127.28 z" id="boundary" inkscape:connector-curvature="0" />
	<path style="fill:none;stroke:red;stroke-width:1px;stroke-linecap:butt;stroke-linejoin:miter;stroke-opacity:1" d="M 82.3461,136.497 73.1289,145.714 z" id="boundary" inkscape:connector-curvature="0" />
	<path style="fill:none;stroke:red;stroke-width:1px;stroke-linecap:butt;stroke-linejoin:miter;stroke-opacity:1" d="M 91.5633,127.28 82.3461,136.497 z" id="boundary" inkscape:connector-curvature="0" />
	<path style="fill:none;stroke:red;stroke-width:1px;stroke-linecap:butt;stroke-linejoin:miter;stroke-opacity:1" d="M 73.1289,145.714 65.0639,159.54 z" id="boundary" inkscape:connector-curvature="0" />
	<path style="fill:none;stroke:red;stroke-width:1px;stroke-linecap:butt;stroke-linejoin:miter;stroke-opacity:1" d="M 50.0859,186.039 42.0209,199.865 z" id="boundary" inkscape:connector-curvature="0" />
	<path style="fill:none;stroke:red;stroke-width:1px;stroke-linecap:butt;stroke-linejoin:miter;stroke-opacity:1" d="M 42.0209,199.865 36.2602,211.387 z" id="boundary" inkscape:connector-curvature="0" />
	<path style="fill:none;stroke:red;stroke-width:1px;stroke-linecap:butt;stroke-linejoin:miter;stroke-opacity:1" d="M 36.2602,211.387 27.043,220.604 z" id="boundary" inkscape:connector-curvature="0" />
	<path style="fill:none;stroke:red;stroke-width:1px;stroke-linecap:butt;stroke-linejoin:miter;stroke-opacity:1" d="M 50.0859,186.039 55.8467,168.757 z" id="boundary" inkscape:connector-curvature="0" />
	<path style="fill:none;stroke:red;stroke-width:1px;stroke-linecap:butt;stroke-linejoin:miter;stroke-opacity:1" d="M 55.8467,168.757 65.0639,159.54 z" id="boundary" inkscape:connector-curvature="0" />
	<path style="fill:none;stroke:red;stroke-width:1px;stroke-linecap:butt;stroke-linejoin:miter;stroke-opacity:1" d="M 143.41,92.7154 131.889,98.4762 z" id="boundary" inkscape:connector-curvature="0" />
	<path style="fill:none;stroke:red;stroke-width:1px;stroke-linecap:butt;stroke-linejoin:miter;stroke-opacity:1" d="M 111.15,113.454 120.367,104.237 z" id="boundary" inkscape:connector-curvature="0" />
	<path style="fill:none;stroke:red;stroke-width:1px;stroke-linecap:butt;stroke-linejoin:miter;stroke-opacity:1" d="M 131.889,98.4762 120.367,104.237 z" id="boundary" inkscape:connector-curvature="0" />
	<path style="fill:none;stroke:red;stroke-width:1px;stroke-linecap:butt;stroke-linejoin:miter;stroke-opacity:1" d="M 182.583,65.0639 173.366,73.1289 z" id="boundary" inkscape:connector-curvature="0" />
	<path style="fill:none;stroke:red;stroke-width:1px;stroke-linecap:butt;stroke-linejoin:miter;stroke-opacity:1" d="M 173.366,73.1289 162.997,78.8897 z" id="boundary" inkscape:connector-curvature="0" />
	<path style="fill:none;stroke:red;stroke-width:1px;stroke-linecap:butt;stroke-linejoin:miter;stroke-opacity:1" d="M 152.627,84.6504 143.41,92.7154 z" id="boundary" inkscape:connector-curvature="0" />
	<path style="fill:none;stroke:red;stroke-width:1px;stroke-linecap:butt;stroke-linejoin:miter;stroke-opacity:1" d="M 162.997,78.8897 152.627,84.6504 z" id="boundary" inkscape:connector-curvature="0" />
	<path style="fill:none;stroke:red;stroke-width:1px;stroke-linecap:butt;stroke-linejoin:miter;stroke-opacity:1" d="M 15.5215,249.408 21.2822,237.886 z" id="boundary" inkscape:connector-curvature="0" />
	<path style="fill:none;stroke:red;stroke-width:1px;stroke-linecap:butt;stroke-linejoin:miter;stroke-opacity:1" d="M 15.5215,249.408 9.76074,266.69 z" id="boundary" inkscape:connector-curvature="0" />
	<path style="fill:none;stroke:red;stroke-width:1px;stroke-linecap:butt;stroke-linejoin:miter;stroke-opacity:1" d="M 21.2822,237.886 27.043,220.604 z" id="boundary" inkscape:connector-curvature="0" />
	<path style="fill:none;stroke:red;stroke-width:1px;stroke-linecap:butt;stroke-linejoin:miter;stroke-opacity:1" d="M 15.5215,298.95 4,295.494 z" id="boundary" inkscape:connector-curvature="0" />
	<path style="fill:none;stroke:red;stroke-width:1px;stroke-linecap:butt;stroke-linejoin:miter;stroke-opacity:1" d="M 4,295.494 4,283.972 z" id="boundary" inkscape:connector-curvature="0" />
	<path style="fill:none;stroke:red;stroke-width:1px;stroke-linecap:butt;stroke-linejoin:miter;stroke-opacity:1" d="M 25.8908,293.189 15.5215,298.95 z" id="boundary" inkscape:connector-curvature="0" />
	<path style="fill:none;stroke:red;stroke-width:1px;stroke-linecap:butt;stroke-linejoin:miter;stroke-opacity:1" d="M 36.2602,287.429 25.8908,293.189 z" id="boundary" inkscape:connector-curvature="0" />
	<path style="fill:none;stroke:red;stroke-width:1px;stroke-linecap:butt;stroke-linejoin:miter;stroke-opacity:1" d="M 58.151,281.668 47.7816,287.429 z" id="boundary" inkscape:connector-curvature="0" />
	<path style="fill:none;stroke:red;stroke-width:1px;stroke-linecap:butt;stroke-linejoin:miter;stroke-opacity:1" d="M 47.7816,287.429 36.2602,287.429 z" id="boundary" inkscape:connector-curvature="0" />
	<path style="fill:none;stroke:red;stroke-width:1px;stroke-linecap:butt;stroke-linejoin:miter;stroke-opacity:1" d="M 4,283.972 9.76074,266.69 z" id="boundary" inkscape:connector-curvature="0" />
	<path style="fill:none;stroke:red;stroke-width:1px;stroke-linecap:butt;stroke-linejoin:miter;stroke-opacity:1" d="M 69.6725,281.668 58.151,281.668 z" id="boundary" inkscape:connector-curvature="0" />
	<path style="fill:none;stroke:red;stroke-width:1px;stroke-linecap:butt;stroke-linejoin:miter;stroke-opacity:1" d="M 146.866,264.386 135.345,264.386 z" id="boundary" inkscape:connector-curvature="0" />
	<path style="fill:none;stroke:red;stroke-width:1px;stroke-linecap:butt;stroke-linejoin:miter;stroke-opacity:1" d="M 158.388,264.386 146.866,264.386 z" id="boundary" inkscape:connector-curvature="0" />
	<path style="fill:none;stroke:red;stroke-width:1px;stroke-linecap:butt;stroke-linejoin:miter;stroke-opacity:1" d="M 168.757,258.625 158.388,264.386 z" id="boundary" inkscape:connector-curvature="0" />
	<path style="fill:none;stroke:red;stroke-width:1px;stroke-linecap:butt;stroke-linejoin:miter;stroke-opacity:1" d="M 180.279,258.625 168.757,258.625 z" id="boundary" inkscape:connector-curvature="0" />
	<path style="fill:none;stroke:red;stroke-width:1px;stroke-linecap:butt;stroke-linejoin:miter;stroke-opacity:1" d="M 135.345,264.386 124.976,270.146 z" id="boundary" inkscape:connector-curvature="0" />
	<path style="fill:none;stroke:red;stroke-width:1px;stroke-linecap:butt;stroke-linejoin:miter;stroke-opacity:1" d="M 80.0418,275.907 91.5633,275.907 z" id="boundary" inkscape:connector-curvature="0" />
	<path style="fill:none;stroke:red;stroke-width:1px;stroke-linecap:butt;stroke-linejoin:miter;stroke-opacity:1" d="M 103.085,275.907 91.5633,275.907 z" id="boundary" inkscape:connector-curvature="0" />
	<path style="fill:none;stroke:red;stroke-width:1px;stroke-linecap:butt;stroke-linejoin:miter;stroke-opacity:1" d="M 69.6725,281.668 80.0418,275.907 z" id="boundary" inkscape:connector-curvature="0" />
	<path style="fill:none;stroke:red;stroke-width:1px;stroke-linecap:butt;stroke-linejoin:miter;stroke-opacity:1" d="M 124.976,270.146 113.454,270.146 z" id="boundary" inkscape:connector-curvature="0" />
	<path style="fill:none;stroke:red;stroke-width:1px;stroke-linecap:butt;stroke-linejoin:miter;stroke-opacity:1" d="M 103.085,275.907 113.454,270.146 z" id="boundary" inkscape:connector-curvature="0" />
	<path style="fill:none;stroke:red;stroke-width:1px;stroke-linecap:butt;stroke-linejoin:miter;stroke-opacity:1" d="M 237.886,38.5645 226.365,44.3252 z" id="boundary" inkscape:connector-curvature="0" />
	<path style="fill:none;stroke:red;stroke-width:1px;stroke-linecap:butt;stroke-linejoin:miter;stroke-opacity:1" d="M 214.843,50.0859 203.322,50.0859 z" id="boundary" inkscape:connector-curvature="0" />
	<path style="fill:none;stroke:red;stroke-width:1px;stroke-linecap:butt;stroke-linejoin:miter;stroke-opacity:1" d="M 226.365,44.3252 214.843,50.0859 z" id="boundary" inkscape:connector-curvature="0" />
	<path style="fill:none;stroke:red;stroke-width:1px;stroke-linecap:butt;stroke-linejoin:miter;stroke-opacity:1" d="M 203.322,50.0859 194.105,59.3031 z" id="boundary" inkscape:connector-curvature="0" />
	<path style="fill:none;stroke:red;stroke-width:1px;stroke-linecap:butt;stroke-linejoin:miter;stroke-opacity:1" d="M 249.408,32.8037 237.886,38.5645 z" id="boundary" inkscape:connector-curvature="0" />
	<path style="fill:none;stroke:red;stroke-width:1px;stroke-linecap:butt;stroke-linejoin:miter;stroke-opacity:1" d="M 260.929,32.8037 249.408,32.8037 z" id="boundary" inkscape:connector-curvature="0" />
	<path style="fill:none;stroke:red;stroke-width:1px;stroke-linecap:butt;stroke-linejoin:miter;stroke-opacity:1" d="M 260.929,32.8037 272.451,32.8037 z" id="boundary" inkscape:connector-curvature="0" />
	<path style="fill:none;stroke:red;stroke-width:1px;stroke-linecap:butt;stroke-linejoin:miter;stroke-opacity:1" d="M 182.583,65.0639 194.105,59.3031 z" id="boundary" inkscape:connector-curvature="0" />
	<path style="fill:none;stroke:red;stroke-width:1px;stroke-linecap:butt;stroke-linejoin:miter;stroke-opacity:1" d="M 294.341,27.043 282.82,27.043 z" id="boundary" inkscape:connector-curvature="0" />
	<path style="fill:none;stroke:red;stroke-width:1px;stroke-linecap:butt;stroke-linejoin:miter;stroke-opacity:1" d="M 282.82,27.043 272.451,32.8037 z" id="boundary" inkscape:connector-curvature="0" />
	<path style="fill:none;stroke:red;stroke-width:1px;stroke-linecap:butt;stroke-linejoin:miter;stroke-opacity:1" d="M 305.863,27.043 294.341,27.043 z" id="boundary" inkscape:connector-curvature="0" />
	<path style="fill:none;stroke:red;stroke-width:1px;stroke-linecap:butt;stroke-linejoin:miter;stroke-opacity:1" d="M 305.863,27.043 317.384,27.043 z" id="boundary" inkscape:connector-curvature="0" />
	<path style="fill:none;stroke:red;stroke-width:1px;stroke-linecap:butt;stroke-linejoin:miter;stroke-opacity:1" d="M 328.906,27.043 317.384,27.043 z" id="boundary" inkscape:connector-curvature="0" />
	<path style="fill:none;stroke:red;stroke-width:1px;stroke-linecap:butt;stroke-linejoin:miter;stroke-opacity:1" d="M 328.906,27.043 340.427,27.043 z" id="boundary" inkscape:connector-curvature="0" />
	<path style="fill:none;stroke:red;stroke-width:1px;stroke-linecap:butt;stroke-linejoin:miter;stroke-opacity:1" d="M 191.8,258.625 180.279,258.625 z" id="boundary" inkscape:connector-curvature="0" />
	<path style="fill:none;stroke:red;stroke-width:1px;stroke-linecap:butt;stroke-linejoin:miter;stroke-opacity:1" d="M 236.734,252.864 225.213,252.864 z" id="boundary" inkscape:connector-curvature="0" />
	<path style="fill:none;stroke:red;stroke-width:1px;stroke-linecap:butt;stroke-linejoin:miter;stroke-opacity:1" d="M 203.322,258.625 213.691,252.864 z" id="boundary" inkscape:connector-curvature="0" />
	<path style="fill:none;stroke:red;stroke-width:1px;stroke-linecap:butt;stroke-linejoin:miter;stroke-opacity:1" d="M 225.213,252.864 213.691,252.864 z" id="boundary" inkscape:connector-curvature="0" />
	<path style="fill:none;stroke:red;stroke-width:1px;stroke-linecap:butt;stroke-linejoin:miter;stroke-opacity:1" d="M 203.322,258.625 191.8,258.625 z" id="boundary" inkscape:connector-curvature="0" />
	<path style="fill:none;stroke:red;stroke-width:1px;stroke-linecap:butt;stroke-linejoin:miter;stroke-opacity:1" d="M 236.734,252.864 248.256,252.864 z" id="boundary" inkscape:connector-curvature="0" />
	<path style="fill:none;stroke:red;stroke-width:1px;stroke-linecap:butt;stroke-linejoin:miter;stroke-opacity:1" d="M 248.256,252.864 259.777,252.864 z" id="boundary" inkscape:connector-curvature="0" />
	<path style="fill:none;stroke:red;stroke-width:1px;stroke-linecap:butt;stroke-linejoin:miter;stroke-opacity:1" d="M 268.994,259.777 259.777,252.864 z" id="boundary" inkscape:connector-curvature="0" />
	<path style="fill:none;stroke:red;stroke-width:1px;stroke-linecap:butt;stroke-linejoin:miter;stroke-opacity:1" d="M 268.994,259.777 268.994,271.298 z" id="boundary" inkscape:connector-curvature="0" />
	<path style="fill:none;stroke:red;stroke-width:1px;stroke-linecap:butt;stroke-linejoin:miter;stroke-opacity:1" d="M 268.994,271.298 268.994,282.82 z" id="boundary" inkscape:connector-curvature="0" />
	<path style="fill:none;stroke:red;stroke-width:1px;stroke-linecap:butt;stroke-linejoin:miter;stroke-opacity:1" d="M 268.994,282.82 268.994,294.341 z" id="boundary" inkscape:connector-curvature="0" />
	<path style="fill:none;stroke:red;stroke-width:1px;stroke-linecap:butt;stroke-linejoin:miter;stroke-opacity:1" d="M 268.994,294.341 268.994,305.863 z" id="boundary" inkscape:connector-curvature="0" />
	<path style="fill:none;stroke:red;stroke-width:1px;stroke-linecap:butt;stroke-linejoin:miter;stroke-opacity:1" d="M 268.994,317.384 268.994,305.863 z" id="boundary" inkscape:connector-curvature="0" />
	<path style="fill:none;stroke:red;stroke-width:1px;stroke-linecap:butt;stroke-linejoin:miter;stroke-opacity:1" d="M 268.994,317.384 268.994,328.906 z" id="boundary" inkscape:connector-curvature="0" />
	<path style="fill:none;stroke:red;stroke-width:1px;stroke-linecap:butt;stroke-linejoin:miter;stroke-opacity:1" d="M 268.994,328.906 268.994,340.427 z" id="boundary" inkscape:connector-curvature="0" />
	<path style="fill:none;stroke:red;stroke-width:1px;stroke-linecap:butt;stroke-linejoin:miter;stroke-opacity:1" d="M 268.994,351.949 268.994,363.47 z" id="boundary" inkscape:connector-curvature="0" />
	<path style="fill:none;stroke:red;stroke-width:1px;stroke-linecap:butt;stroke-linejoin:miter;stroke-opacity:1" d="M 268.994,363.47 268.994,374.992 z" id="boundary" inkscape:connector-curvature="0" />
	<path style="fill:none;stroke:red;stroke-width:1px;stroke-linecap:butt;stroke-linejoin:miter;stroke-opacity:1" d="M 268.994,351.949 268.994,340.427 z" id="boundary" inkscape:connector-curvature="0" />
	<path style="fill:none;stroke:red;stroke-width:1px;stroke-linecap:butt;stroke-linejoin:miter;stroke-opacity:1" d="M 268.994,386.513 268.994,374.992 z" id="boundary" inkscape:connector-curvature="0" />
	<path style="fill:none;stroke:red;stroke-width:1px;stroke-linecap:butt;stroke-linejoin:miter;stroke-opacity:1" d="M 268.994,398.035 268.994,409.556 z" id="boundary" inkscape:connector-curvature="0" />
	<path style="fill:none;stroke:red;stroke-width:1px;stroke-linecap:butt;stroke-linejoin:miter;stroke-opacity:1" d="M 268.994,421.078 268.994,409.556 z" id="boundary" inkscape:connector-curvature="0" />
	<path style="fill:none;stroke:red;stroke-width:1px;stroke-linecap:butt;stroke-linejoin:miter;stroke-opacity:1" d="M 268.994,398.035 268.994,386.513 z" id="boundary" inkscape:connector-curvature="0" />
	<path style="fill:none;stroke:red;stroke-width:1px;stroke-linecap:butt;stroke-linejoin:miter;stroke-opacity:1" d="M 268.994,421.078 268.994,432.599 z" id="boundary" inkscape:connector-curvature="0" />
	<path style="fill:none;stroke:red;stroke-width:1px;stroke-linecap:butt;stroke-linejoin:miter;stroke-opacity:1" d="M 268.994,432.599 268.994,444.121 z" id="boundary" inkscape:connector-curvature="0" />
	<path style="fill:none;stroke:red;stroke-width:1px;stroke-linecap:butt;stroke-linejoin:miter;stroke-opacity:1" d="M 268.994,455.642 268.994,467.164 z" id="boundary" inkscape:connector-curvature="0" />
	<path style="fill:none;stroke:red;stroke-width:1px;stroke-linecap:butt;stroke-linejoin:miter;stroke-opacity:1" d="M 268.994,478.685 268.994,467.164 z" id="boundary" inkscape:connector-curvature="0" />
	<path style="fill:none;stroke:red;stroke-width:1px;stroke-linecap:butt;stroke-linejoin:miter;stroke-opacity:1" d="M 268.994,455.642 268.994,444.121 z" id="boundary" inkscape:connector-curvature="0" />
	<path style="fill:none;stroke:red;stroke-width:1px;stroke-linecap:butt;stroke-linejoin:miter;stroke-opacity:1" d="M 268.994,490.207 268.994,501.728 z" id="boundary" inkscape:connector-curvature="0" />
	<path style="fill:none;stroke:red;stroke-width:1px;stroke-linecap:butt;stroke-linejoin:miter;stroke-opacity:1" d="M 268.994,513.25 268.994,501.728 z" id="boundary" inkscape:connector-curvature="0" />
	<path style="fill:none;stroke:red;stroke-width:1px;stroke-linecap:butt;stroke-linejoin:miter;stroke-opacity:1" d="M 268.994,524.771 268.994,536.293 z" id="boundary" inkscape:connector-curvature="0" />
	<path style="fill:none;stroke:red;stroke-width:1px;stroke-linecap:butt;stroke-linejoin:miter;stroke-opacity:1" d="M 268.994,547.814 268.994,536.293 z" id="boundary" inkscape:connector-curvature="0" />
	<path style="fill:none;stroke:red;stroke-width:1px;stroke-linecap:butt;stroke-linejoin:miter;stroke-opacity:1" d="M 268.994,524.771 268.994,513.25 z" id="boundary" inkscape:connector-curvature="0" />
	<path style="fill:none;stroke:red;stroke-width:1px;stroke-linecap:butt;stroke-linejoin:miter;stroke-opacity:1" d="M 268.994,490.207 268.994,478.685 z" id="boundary" inkscape:connector-curvature="0" />
	<path style="fill:none;stroke:red;stroke-width:1px;stroke-linecap:butt;stroke-linejoin:miter;stroke-opacity:1" d="M 268.994,547.814 268.994,559.336 z" id="boundary" inkscape:connector-curvature="0" />
	<path style="fill:none;stroke:red;stroke-width:1px;stroke-linecap:butt;stroke-linejoin:miter;stroke-opacity:1" d="M 268.994,570.857 268.994,582.379 z" id="boundary" inkscape:connector-curvature="0" />
	<path style="fill:none;stroke:red;stroke-width:1px;stroke-linecap:butt;stroke-linejoin:miter;stroke-opacity:1" d="M 268.994,559.336 268.994,570.857 z" id="boundary" inkscape:connector-curvature="0" />
	<path style="fill:none;stroke:red;stroke-width:1px;stroke-linecap:butt;stroke-linejoin:miter;stroke-opacity:1" d="M 268.994,582.379 268.994,593.9 z" id="boundary" inkscape:connector-curvature="0" />
	<path style="fill:none;stroke:red;stroke-width:1px;stroke-linecap:butt;stroke-linejoin:miter;stroke-opacity:1" d="M 268.994,593.9 268.994,605.422 z" id="boundary" inkscape:connector-curvature="0" />
	<path style="fill:none;stroke:red;stroke-width:1px;stroke-linecap:butt;stroke-linejoin:miter;stroke-opacity:1" d="M 268.994,605.422 268.994,616.943 z" id="boundary" inkscape:connector-curvature="0" />
	<path style="fill:none;stroke:red;stroke-width:1px;stroke-linecap:butt;stroke-linejoin:miter;stroke-opacity:1" d="M 268.994,616.943 268.994,628.465 z" id="boundary" inkscape:connector-curvature="0" />
	<path style="fill:none;stroke:red;stroke-width:1px;stroke-linecap:butt;stroke-linejoin:miter;stroke-opacity:1" d="M 268.994,628.465 268.994,639.986 z" id="boundary" inkscape:connector-curvature="0" />
	<path style="fill:none;stroke:red;stroke-width:1px;stroke-linecap:butt;stroke-linejoin:miter;stroke-opacity:1" d="M 268.994,651.508 268.994,663.029 z" id="boundary" inkscape:connector-curvature="0" />
	<path style="fill:none;stroke:red;stroke-width:1px;stroke-linecap:butt;stroke-linejoin:miter;stroke-opacity:1" d="M 268.994,674.551 268.994,663.029 z" id="boundary" inkscape:connector-curvature="0" />
	<path style="fill:none;stroke:red;stroke-width:1px;stroke-linecap:butt;stroke-linejoin:miter;stroke-opacity:1" d="M 268.994,651.508 268.994,639.986 z" id="boundary" inkscape:connector-curvature="0" />
	<path style="fill:none;stroke:red;stroke-width:1px;stroke-linecap:butt;stroke-linejoin:miter;stroke-opacity:1" d="M 268.994,697.593 268.994,686.072 z" id="boundary" inkscape:connector-curvature="0" />
	<path style="fill:none;stroke:red;stroke-width:1px;stroke-linecap:butt;stroke-linejoin:miter;stroke-opacity:1" d="M 268.994,686.072 268.994,674.551 z" id="boundary" inkscape:connector-curvature="0" />
	<path style="fill:none;stroke:red;stroke-width:1px;stroke-linecap:butt;stroke-linejoin:miter;stroke-opacity:1" d="M 268.994,709.115 268.994,697.593 z" id="boundary" inkscape:connector-curvature="0" />
	<path style="fill:none;stroke:red;stroke-width:1px;stroke-linecap:butt;stroke-linejoin:miter;stroke-opacity:1" d="M 268.994,709.115 268.994,720.636 z" id="boundary" inkscape:connector-curvature="0" />
	<path style="fill:none;stroke:red;stroke-width:1px;stroke-linecap:butt;stroke-linejoin:miter;stroke-opacity:1" d="M 268.994,732.158 268.994,720.636 z" id="boundary" inkscape:connector-curvature="0" />
	<path style="fill:none;stroke:red;stroke-width:1px;stroke-linecap:butt;stroke-linejoin:miter;stroke-opacity:1" d="M 268.994,743.679 268.994,732.158 z" id="boundary" inkscape:connector-curvature="0" />
	<path style="fill:none;stroke:red;stroke-width:1px;stroke-linecap:butt;stroke-linejoin:miter;stroke-opacity:1" d="M 268.994,743.679 268.994,755.201 z" id="boundary" inkscape:connector-curvature="0" />
	<path style="fill:none;stroke:red;stroke-width:1px;stroke-linecap:butt;stroke-linejoin:miter;stroke-opacity:1" d="M 268.994,766.722 268.994,778.244 z" id="boundary" inkscape:connector-curvature="0" />
	<path style="fill:none;stroke:red;stroke-width:1px;stroke-linecap:butt;stroke-linejoin:miter;stroke-opacity:1" d="M 268.994,789.765 268.994,778.244 z" id="boundary" inkscape:connector-curvature="0" />
	<path style="fill:none;stroke:red;stroke-width:1px;stroke-linecap:butt;stroke-linejoin:miter;stroke-opacity:1" d="M 268.994,766.722 268.994,755.201 z" id="boundary" inkscape:connector-curvature="0" />
	<path style="fill:none;stroke:red;stroke-width:1px;stroke-linecap:butt;stroke-linejoin:miter;stroke-opacity:1" d="M 268.994,801.287 268.994,812.808 z" id="boundary" inkscape:connector-curvature="0" />
	<path style="fill:none;stroke:red;stroke-width:1px;stroke-linecap:butt;stroke-linejoin:miter;stroke-opacity:1" d="M 268.994,824.33 268.994,812.808 z" id="boundary" inkscape:connector-curvature="0" />
	<path style="fill:none;stroke:red;stroke-width:1px;stroke-linecap:butt;stroke-linejoin:miter;stroke-opacity:1" d="M 268.994,835.851 268.994,847.373 z" id="boundary" inkscape:connector-curvature="0" />
	<path style="fill:none;stroke:red;stroke-width:1px;stroke-linecap:butt;stroke-linejoin:miter;stroke-opacity:1" d="M 268.994,858.894 268.994,847.373 z" id="boundary" inkscape:connector-curvature="0" />
	<path style="fill:none;stroke:red;stroke-width:1px;stroke-linecap:butt;stroke-linejoin:miter;stroke-opacity:1" d="M 268.994,835.851 268.994,824.33 z" id="boundary" inkscape:connector-curvature="0" />
	<path style="fill:none;stroke:red;stroke-width:1px;stroke-linecap:butt;stroke-linejoin:miter;stroke-opacity:1" d="M 268.994,801.287 268.994,789.765 z" id="boundary" inkscape:connector-curvature="0" />
	<path style="fill:none;stroke:red;stroke-width:1px;stroke-linecap:butt;stroke-linejoin:miter;stroke-opacity:1" d="M 268.994,870.416 268.994,881.937 z" id="boundary" inkscape:connector-curvature="0" />
	<path style="fill:none;stroke:red;stroke-width:1px;stroke-linecap:butt;stroke-linejoin:miter;stroke-opacity:1" d="M 268.994,893.459 268.994,881.937 z" id="boundary" inkscape:connector-curvature="0" />
	<path style="fill:none;stroke:red;stroke-width:1px;stroke-linecap:butt;stroke-linejoin:miter;stroke-opacity:1" d="M 268.994,893.459 268.994,904.98 z" id="boundary" inkscape:connector-curvature="0" />
	<path style="fill:none;stroke:red;stroke-width:1px;stroke-linecap:butt;stroke-linejoin:miter;stroke-opacity:1" d="M 268.994,916.502 268.994,904.98 z" id="boundary" inkscape:connector-curvature="0" />
	<path style="fill:none;stroke:red;stroke-width:1px;stroke-linecap:butt;stroke-linejoin:miter;stroke-opacity:1" d="M 268.994,928.023 268.994,939.545 z" id="boundary" inkscape:connector-curvature="0" />
	<path style="fill:none;stroke:red;stroke-width:1px;stroke-linecap:butt;stroke-linejoin:miter;stroke-opacity:1" d="M 268.994,951.066 268.994,939.545 z" id="boundary" inkscape:connector-curvature="0" />
	<path style="fill:none;stroke:red;stroke-width:1px;stroke-linecap:butt;stroke-linejoin:miter;stroke-opacity:1" d="M 268.994,962.588 268.994,974.109 z" id="boundary" inkscape:connector-curvature="0" />
	<path style="fill:none;stroke:red;stroke-width:1px;stroke-linecap:butt;stroke-linejoin:miter;stroke-opacity:1" d="M 268.994,985.631 268.994,974.109 z" id="boundary" inkscape:connector-curvature="0" />
	<path style="fill:none;stroke:red;stroke-width:1px;stroke-linecap:butt;stroke-linejoin:miter;stroke-opacity:1" d="M 268.994,962.588 268.994,951.066 z" id="boundary" inkscape:connector-curvature="0" />
	<path style="fill:none;stroke:red;stroke-width:1px;stroke-linecap:butt;stroke-linejoin:miter;stroke-opacity:1" d="M 268.994,928.023 268.994,916.502 z" id="boundary" inkscape:connector-curvature="0" />
	<path style="fill:none;stroke:red;stroke-width:1px;stroke-linecap:butt;stroke-linejoin:miter;stroke-opacity:1" d="M 268.994,870.416 268.994,858.894 z" id="boundary" inkscape:connector-curvature="0" />
	<path style="fill:none;stroke:red;stroke-width:1px;stroke-linecap:butt;stroke-linejoin:miter;stroke-opacity:1" d="M 343.884,996 332.362,996 z" id="boundary" inkscape:connector-curvature="0" />
	<path style="fill:none;stroke:red;stroke-width:1px;stroke-linecap:butt;stroke-linejoin:miter;stroke-opacity:1" d="M 297.798,996 286.276,996 z" id="boundary" inkscape:connector-curvature="0" />
	<path style="fill:none;stroke:red;stroke-width:1px;stroke-linecap:butt;stroke-linejoin:miter;stroke-opacity:1" d="M 286.276,996 274.755,996 z" id="boundary" inkscape:connector-curvature="0" />
	<path style="fill:none;stroke:red;stroke-width:1px;stroke-linecap:butt;stroke-linejoin:miter;stroke-opacity:1" d="M 274.755,996 268.994,985.631 z" id="boundary" inkscape:connector-curvature="0" />
	<path style="fill:none;stroke:red;stroke-width:1px;stroke-linecap:butt;stroke-linejoin:miter;stroke-opacity:1" d="M 309.319,996 297.798,996 z" id="boundary" inkscape:connector-curvature="0" />
	<path style="fill:none;stroke:red;stroke-width:1px;stroke-linecap:butt;stroke-linejoin:miter;stroke-opacity:1" d="M 320.841,996 309.319,996 z" id="boundary" inkscape:connector-curvature="0" />
	<path style="fill:none;stroke:red;stroke-width:1px;stroke-linecap:butt;stroke-linejoin:miter;stroke-opacity:1" d="M 332.362,996 320.841,996 z" id="boundary" inkscape:connector-curvature="0" />
	<path style="fill:none;stroke:red;stroke-width:1px;stroke-linecap:butt;stroke-linejoin:miter;stroke-opacity:1" d="M 351.949,27.043 363.47,27.043 z" id="boundary" inkscape:connector-curvature="0" />
	<path style="fill:none;stroke:red;stroke-width:1px;stroke-linecap:butt;stroke-linejoin:miter;stroke-opacity:1" d="M 351.949,27.043 340.427,27.043 z" id="boundary" inkscape:connector-curvature="0" />
	<path style="fill:none;stroke:red;stroke-width:1px;stroke-linecap:butt;stroke-linejoin:miter;stroke-opacity:1" d="M 374.992,27.043 363.47,27.043 z" id="boundary" inkscape:connector-curvature="0" />
	<path style="fill:none;stroke:red;stroke-width:1px;stroke-linecap:butt;stroke-linejoin:miter;stroke-opacity:1" d="M 386.513,27.043 374.992,27.043 z" id="boundary" inkscape:connector-curvature="0" />
	<path style="fill:none;stroke:red;stroke-width:1px;stroke-linecap:butt;stroke-linejoin:miter;stroke-opacity:1" d="M 482.142,4 470.62,4 z" id="boundary" inkscape:connector-curvature="0" />
	<path style="fill:none;stroke:red;stroke-width:1px;stroke-linecap:butt;stroke-linejoin:miter;stroke-opacity:1" d="M 398.035,27.043 409.556,27.043 z" id="boundary" inkscape:connector-curvature="0" />
	<path style="fill:none;stroke:red;stroke-width:1px;stroke-linecap:butt;stroke-linejoin:miter;stroke-opacity:1" d="M 419.926,258.625 408.404,258.625 z" id="boundary" inkscape:connector-curvature="0" />
	<path style="fill:none;stroke:red;stroke-width:1px;stroke-linecap:butt;stroke-linejoin:miter;stroke-opacity:1" d="M 386.513,27.043 398.035,27.043 z" id="boundary" inkscape:connector-curvature="0" />
	<path style="fill:none;stroke:red;stroke-width:1px;stroke-linecap:butt;stroke-linejoin:miter;stroke-opacity:1" d="M 421.078,27.043 409.556,27.043 z" id="boundary" inkscape:connector-curvature="0" />
	<path style="fill:none;stroke:red;stroke-width:1px;stroke-linecap:butt;stroke-linejoin:miter;stroke-opacity:1" d="M 432.599,27.043 421.078,27.043 z" id="boundary" inkscape:connector-curvature="0" />
	<path style="fill:none;stroke:red;stroke-width:1px;stroke-linecap:butt;stroke-linejoin:miter;stroke-opacity:1" d="M 436.056,7.45645 447.577,4 z" id="boundary" inkscape:connector-curvature="0" />
	<path style="fill:none;stroke:red;stroke-width:1px;stroke-linecap:butt;stroke-linejoin:miter;stroke-opacity:1" d="M 459.099,4 447.577,4 z" id="boundary" inkscape:connector-curvature="0" />
	<path style="fill:none;stroke:red;stroke-width:1px;stroke-linecap:butt;stroke-linejoin:miter;stroke-opacity:1" d="M 470.62,4 459.099,4 z" id="boundary" inkscape:connector-curvature="0" />
	<path style="fill:none;stroke:red;stroke-width:1px;stroke-linecap:butt;stroke-linejoin:miter;stroke-opacity:1" d="M 431.447,258.625 419.926,258.625 z" id="boundary" inkscape:connector-curvature="0" />
	<path style="fill:none;stroke:red;stroke-width:1px;stroke-linecap:butt;stroke-linejoin:miter;stroke-opacity:1" d="M 485.598,281.668 474.077,281.668 z" id="boundary" inkscape:connector-curvature="0" />
	<path style="fill:none;stroke:red;stroke-width:1px;stroke-linecap:butt;stroke-linejoin:miter;stroke-opacity:1" d="M 408.404,281.668 408.404,293.189 z" id="boundary" inkscape:connector-curvature="0" />
	<path style="fill:none;stroke:red;stroke-width:1px;stroke-linecap:butt;stroke-linejoin:miter;stroke-opacity:1" d="M 408.404,281.668 408.404,270.146 z" id="boundary" inkscape:connector-curvature="0" />
	<path style="fill:none;stroke:red;stroke-width:1px;stroke-linecap:butt;stroke-linejoin:miter;stroke-opacity:1" d="M 408.404,293.189 408.404,304.711 z" id="boundary" inkscape:connector-curvature="0" />
	<path style="fill:none;stroke:red;stroke-width:1px;stroke-linecap:butt;stroke-linejoin:miter;stroke-opacity:1" d="M 408.404,304.711 408.404,316.232 z" id="boundary" inkscape:connector-curvature="0" />
	<path style="fill:none;stroke:red;stroke-width:1px;stroke-linecap:butt;stroke-linejoin:miter;stroke-opacity:1" d="M 408.404,316.232 408.404,327.754 z" id="boundary" inkscape:connector-curvature="0" />
	<path style="fill:none;stroke:red;stroke-width:1px;stroke-linecap:butt;stroke-linejoin:miter;stroke-opacity:1" d="M 408.404,258.625 408.404,270.146 z" id="boundary" inkscape:connector-curvature="0" />
	<path style="fill:none;stroke:red;stroke-width:1px;stroke-linecap:butt;stroke-linejoin:miter;stroke-opacity:1" d="M 408.404,339.275 408.404,350.797 z" id="boundary" inkscape:connector-curvature="0" />
	<path style="fill:none;stroke:red;stroke-width:1px;stroke-linecap:butt;stroke-linejoin:miter;stroke-opacity:1" d="M 408.404,339.275 408.404,327.754 z" id="boundary" inkscape:connector-curvature="0" />
	<path style="fill:none;stroke:red;stroke-width:1px;stroke-linecap:butt;stroke-linejoin:miter;stroke-opacity:1" d="M 408.404,350.797 408.404,362.318 z" id="boundary" inkscape:connector-curvature="0" />
	<path style="fill:none;stroke:red;stroke-width:1px;stroke-linecap:butt;stroke-linejoin:miter;stroke-opacity:1" d="M 408.404,362.318 408.404,373.84 z" id="boundary" inkscape:connector-curvature="0" />
	<path style="fill:none;stroke:red;stroke-width:1px;stroke-linecap:butt;stroke-linejoin:miter;stroke-opacity:1" d="M 408.404,373.84 408.404,385.361 z" id="boundary" inkscape:connector-curvature="0" />
	<path style="fill:none;stroke:red;stroke-width:1px;stroke-linecap:butt;stroke-linejoin:miter;stroke-opacity:1" d="M 431.447,258.625 436.056,270.146 z" id="boundary" inkscape:connector-curvature="0" />
	<path style="fill:none;stroke:red;stroke-width:1px;stroke-linecap:butt;stroke-linejoin:miter;stroke-opacity:1" d="M 439.512,281.668 436.056,270.146 z" id="boundary" inkscape:connector-curvature="0" />
	<path style="fill:none;stroke:red;stroke-width:1px;stroke-linecap:butt;stroke-linejoin:miter;stroke-opacity:1" d="M 439.512,281.668 451.034,281.668 z" id="boundary" inkscape:connector-curvature="0" />
	<path style="fill:none;stroke:red;stroke-width:1px;stroke-linecap:butt;stroke-linejoin:miter;stroke-opacity:1" d="M 462.555,281.668 451.034,281.668 z" id="boundary" inkscape:connector-curvature="0" />
	<path style="fill:none;stroke:red;stroke-width:1px;stroke-linecap:butt;stroke-linejoin:miter;stroke-opacity:1" d="M 474.077,281.668 462.555,281.668 z" id="boundary" inkscape:connector-curvature="0" />
	<path style="fill:none;stroke:red;stroke-width:1px;stroke-linecap:butt;stroke-linejoin:miter;stroke-opacity:1" d="M 408.404,396.883 408.404,385.361 z" id="boundary" inkscape:connector-curvature="0" />
	<path style="fill:none;stroke:red;stroke-width:1px;stroke-linecap:butt;stroke-linejoin:miter;stroke-opacity:1" d="M 493.663,4 505.185,4 z" id="boundary" inkscape:connector-curvature="0" />
	<path style="fill:none;stroke:red;stroke-width:1px;stroke-linecap:butt;stroke-linejoin:miter;stroke-opacity:1" d="M 493.663,4 482.142,4 z" id="boundary" inkscape:connector-curvature="0" />
	<path style="fill:none;stroke:red;stroke-width:1px;stroke-linecap:butt;stroke-linejoin:miter;stroke-opacity:1" d="M 516.706,4 505.185,4 z" id="boundary" inkscape:connector-curvature="0" />
	<path style="fill:none;stroke:red;stroke-width:1px;stroke-linecap:butt;stroke-linejoin:miter;stroke-opacity:1" d="M 528.228,4 539.749,4 z" id="boundary" inkscape:connector-curvature="0" />
	<path style="fill:none;stroke:red;stroke-width:1px;stroke-linecap:butt;stroke-linejoin:miter;stroke-opacity:1" d="M 516.706,4 528.228,4 z" id="boundary" inkscape:connector-curvature="0" />
	<path style="fill:none;stroke:red;stroke-width:1px;stroke-linecap:butt;stroke-linejoin:miter;stroke-opacity:1" d="M 562.792,4 551.271,4 z" id="boundary" inkscape:connector-curvature="0" />
	<path style="fill:none;stroke:red;stroke-width:1px;stroke-linecap:butt;stroke-linejoin:miter;stroke-opacity:1" d="M 539.749,4 551.271,4 z" id="boundary" inkscape:connector-curvature="0" />
	<path style="fill:none;stroke:red;stroke-width:1px;stroke-linecap:butt;stroke-linejoin:miter;stroke-opacity:1" d="M 574.314,4 585.835,6.3043 z" id="boundary" inkscape:connector-curvature="0" />
	<path style="fill:none;stroke:red;stroke-width:1px;stroke-linecap:butt;stroke-linejoin:miter;stroke-opacity:1" d="M 585.835,6.3043 586.987,17.8258 z" id="boundary" inkscape:connector-curvature="0" />
	<path style="fill:none;stroke:red;stroke-width:1px;stroke-linecap:butt;stroke-linejoin:miter;stroke-opacity:1" d="M 586.987,17.8258 586.987,29.3473 z" id="boundary" inkscape:connector-curvature="0" />
	<path style="fill:none;stroke:red;stroke-width:1px;stroke-linecap:butt;stroke-linejoin:miter;stroke-opacity:1" d="M 562.792,4 574.314,4 z" id="boundary" inkscape:connector-curvature="0" />
	<path style="fill:none;stroke:red;stroke-width:1px;stroke-linecap:butt;stroke-linejoin:miter;stroke-opacity:1" d="M 586.987,29.3473 586.987,40.8688 z" id="boundary" inkscape:connector-curvature="0" />
	<path style="fill:none;stroke:red;stroke-width:1px;stroke-linecap:butt;stroke-linejoin:miter;stroke-opacity:1" d="M 586.987,40.8688 586.987,52.3902 z" id="boundary" inkscape:connector-curvature="0" />
	<path style="fill:none;stroke:red;stroke-width:1px;stroke-linecap:butt;stroke-linejoin:miter;stroke-opacity:1" d="M 586.987,63.9117 586.987,52.3902 z" id="boundary" inkscape:connector-curvature="0" />
	<path style="fill:none;stroke:red;stroke-width:1px;stroke-linecap:butt;stroke-linejoin:miter;stroke-opacity:1" d="M 586.987,75.4332 586.987,86.9547 z" id="boundary" inkscape:connector-curvature="0" />
	<path style="fill:none;stroke:red;stroke-width:1px;stroke-linecap:butt;stroke-linejoin:miter;stroke-opacity:1" d="M 586.987,98.4762 586.987,86.9547 z" id="boundary" inkscape:connector-curvature="0" />
	<path style="fill:none;stroke:red;stroke-width:1px;stroke-linecap:butt;stroke-linejoin:miter;stroke-opacity:1" d="M 586.987,75.4332 586.987,63.9117 z" id="boundary" inkscape:connector-curvature="0" />
	<path style="fill:none;stroke:red;stroke-width:1px;stroke-linecap:butt;stroke-linejoin:miter;stroke-opacity:1" d="M 586.987,109.998 586.987,121.519 z" id="boundary" inkscape:connector-curvature="0" />
	<path style="fill:none;stroke:red;stroke-width:1px;stroke-linecap:butt;stroke-linejoin:miter;stroke-opacity:1" d="M 586.987,133.041 586.987,121.519 z" id="boundary" inkscape:connector-curvature="0" />
	<path style="fill:none;stroke:red;stroke-width:1px;stroke-linecap:butt;stroke-linejoin:miter;stroke-opacity:1" d="M 586.987,144.562 586.987,156.084 z" id="boundary" inkscape:connector-curvature="0" />
	<path style="fill:none;stroke:red;stroke-width:1px;stroke-linecap:butt;stroke-linejoin:miter;stroke-opacity:1" d="M 586.987,167.605 586.987,156.084 z" id="boundary" inkscape:connector-curvature="0" />
	<path style="fill:none;stroke:red;stroke-width:1px;stroke-linecap:butt;stroke-linejoin:miter;stroke-opacity:1" d="M 586.987,144.562 586.987,133.041 z" id="boundary" inkscape:connector-curvature="0" />
	<path style="fill:none;stroke:red;stroke-width:1px;stroke-linecap:butt;stroke-linejoin:miter;stroke-opacity:1" d="M 586.987,109.998 586.987,98.4762 z" id="boundary" inkscape:connector-curvature="0" />
	<path style="fill:none;stroke:red;stroke-width:1px;stroke-linecap:butt;stroke-linejoin:miter;stroke-opacity:1" d="M 497.12,281.668 485.598,281.668 z" id="boundary" inkscape:connector-curvature="0" />
	<path style="fill:none;stroke:red;stroke-width:1px;stroke-linecap:butt;stroke-linejoin:miter;stroke-opacity:1" d="M 408.404,408.404 408.404,396.883 z" id="boundary" inkscape:connector-curvature="0" />
	<path style="fill:none;stroke:red;stroke-width:1px;stroke-linecap:butt;stroke-linejoin:miter;stroke-opacity:1" d="M 497.12,281.668 508.641,281.668 z" id="boundary" inkscape:connector-curvature="0" />
	<path style="fill:none;stroke:red;stroke-width:1px;stroke-linecap:butt;stroke-linejoin:miter;stroke-opacity:1" d="M 508.641,281.668 520.163,281.668 z" id="boundary" inkscape:connector-curvature="0" />
	<path style="fill:none;stroke:red;stroke-width:1px;stroke-linecap:butt;stroke-linejoin:miter;stroke-opacity:1" d="M 520.163,281.668 531.684,281.668 z" id="boundary" inkscape:connector-curvature="0" />
	<path style="fill:none;stroke:red;stroke-width:1px;stroke-linecap:butt;stroke-linejoin:miter;stroke-opacity:1" d="M 586.987,179.127 586.987,190.648 z" id="boundary" inkscape:connector-curvature="0" />
	<path style="fill:none;stroke:red;stroke-width:1px;stroke-linecap:butt;stroke-linejoin:miter;stroke-opacity:1" d="M 586.987,190.648 586.987,202.17 z" id="boundary" inkscape:connector-curvature="0" />
	<path style="fill:none;stroke:red;stroke-width:1px;stroke-linecap:butt;stroke-linejoin:miter;stroke-opacity:1" d="M 586.987,213.691 586.987,202.17 z" id="boundary" inkscape:connector-curvature="0" />
	<path style="fill:none;stroke:red;stroke-width:1px;stroke-linecap:butt;stroke-linejoin:miter;stroke-opacity:1" d="M 586.987,225.213 586.987,236.734 z" id="boundary" inkscape:connector-curvature="0" />
	<path style="fill:none;stroke:red;stroke-width:1px;stroke-linecap:butt;stroke-linejoin:miter;stroke-opacity:1" d="M 586.987,248.256 586.987,236.734 z" id="boundary" inkscape:connector-curvature="0" />
	<path style="fill:none;stroke:red;stroke-width:1px;stroke-linecap:butt;stroke-linejoin:miter;stroke-opacity:1" d="M 586.987,225.213 586.987,213.691 z" id="boundary" inkscape:connector-curvature="0" />
	<path style="fill:none;stroke:red;stroke-width:1px;stroke-linecap:butt;stroke-linejoin:miter;stroke-opacity:1" d="M 543.206,281.668 531.684,281.668 z" id="boundary" inkscape:connector-curvature="0" />
	<path style="fill:none;stroke:red;stroke-width:1px;stroke-linecap:butt;stroke-linejoin:miter;stroke-opacity:1" d="M 554.727,281.668 566.249,281.668 z" id="boundary" inkscape:connector-curvature="0" />
	<path style="fill:none;stroke:red;stroke-width:1px;stroke-linecap:butt;stroke-linejoin:miter;stroke-opacity:1" d="M 543.206,281.668 554.727,281.668 z" id="boundary" inkscape:connector-curvature="0" />
	<path style="fill:none;stroke:red;stroke-width:1px;stroke-linecap:butt;stroke-linejoin:miter;stroke-opacity:1" d="M 586.987,259.777 586.987,271.298 z" id="boundary" inkscape:connector-curvature="0" />
	<path style="fill:none;stroke:red;stroke-width:1px;stroke-linecap:butt;stroke-linejoin:miter;stroke-opacity:1" d="M 577.77,281.668 566.249,281.668 z" id="boundary" inkscape:connector-curvature="0" />
	<path style="fill:none;stroke:red;stroke-width:1px;stroke-linecap:butt;stroke-linejoin:miter;stroke-opacity:1" d="M 586.987,271.298 577.77,281.668 z" id="boundary" inkscape:connector-curvature="0" />
	<path style="fill:none;stroke:red;stroke-width:1px;stroke-linecap:butt;stroke-linejoin:miter;stroke-opacity:1" d="M 586.987,248.256 586.987,259.777 z" id="boundary" inkscape:connector-curvature="0" />
	<path style="fill:none;stroke:red;stroke-width:1px;stroke-linecap:butt;stroke-linejoin:miter;stroke-opacity:1" d="M 586.987,167.605 586.987,179.127 z" id="boundary" inkscape:connector-curvature="0" />
	<path style="fill:none;stroke:red;stroke-width:1px;stroke-linecap:butt;stroke-linejoin:miter;stroke-opacity:1" d="M 408.404,419.926 408.404,431.447 z" id="boundary" inkscape:connector-curvature="0" />
	<path style="fill:none;stroke:red;stroke-width:1px;stroke-linecap:butt;stroke-linejoin:miter;stroke-opacity:1" d="M 408.404,419.926 408.404,408.404 z" id="boundary" inkscape:connector-curvature="0" />
	<path style="fill:none;stroke:red;stroke-width:1px;stroke-linecap:butt;stroke-linejoin:miter;stroke-opacity:1" d="M 408.404,442.969 408.404,454.49 z" id="boundary" inkscape:connector-curvature="0" />
	<path style="fill:none;stroke:red;stroke-width:1px;stroke-linecap:butt;stroke-linejoin:miter;stroke-opacity:1" d="M 408.404,442.969 408.404,431.447 z" id="boundary" inkscape:connector-curvature="0" />
	<path style="fill:none;stroke:red;stroke-width:1px;stroke-linecap:butt;stroke-linejoin:miter;stroke-opacity:1" d="M 408.404,454.49 408.404,466.012 z" id="boundary" inkscape:connector-curvature="0" />
	<path style="fill:none;stroke:red;stroke-width:1px;stroke-linecap:butt;stroke-linejoin:miter;stroke-opacity:1" d="M 408.404,477.533 408.404,489.055 z" id="boundary" inkscape:connector-curvature="0" />
	<path style="fill:none;stroke:red;stroke-width:1px;stroke-linecap:butt;stroke-linejoin:miter;stroke-opacity:1" d="M 408.404,477.533 408.404,466.012 z" id="boundary" inkscape:connector-curvature="0" />
	<path style="fill:none;stroke:red;stroke-width:1px;stroke-linecap:butt;stroke-linejoin:miter;stroke-opacity:1" d="M 408.404,489.055 408.404,500.576 z" id="boundary" inkscape:connector-curvature="0" />
	<path style="fill:none;stroke:red;stroke-width:1px;stroke-linecap:butt;stroke-linejoin:miter;stroke-opacity:1" d="M 408.404,512.098 408.404,523.619 z" id="boundary" inkscape:connector-curvature="0" />
	<path style="fill:none;stroke:red;stroke-width:1px;stroke-linecap:butt;stroke-linejoin:miter;stroke-opacity:1" d="M 408.404,512.098 408.404,500.576 z" id="boundary" inkscape:connector-curvature="0" />
	<path style="fill:none;stroke:red;stroke-width:1px;stroke-linecap:butt;stroke-linejoin:miter;stroke-opacity:1" d="M 408.404,523.619 408.404,535.141 z" id="boundary" inkscape:connector-curvature="0" />
	<path style="fill:none;stroke:red;stroke-width:1px;stroke-linecap:butt;stroke-linejoin:miter;stroke-opacity:1" d="M 408.404,546.662 408.404,558.184 z" id="boundary" inkscape:connector-curvature="0" />
	<path style="fill:none;stroke:red;stroke-width:1px;stroke-linecap:butt;stroke-linejoin:miter;stroke-opacity:1" d="M 408.404,546.662 408.404,535.141 z" id="boundary" inkscape:connector-curvature="0" />
	<path style="fill:none;stroke:red;stroke-width:1px;stroke-linecap:butt;stroke-linejoin:miter;stroke-opacity:1" d="M 408.404,558.184 408.404,569.705 z" id="boundary" inkscape:connector-curvature="0" />
	<path style="fill:none;stroke:red;stroke-width:1px;stroke-linecap:butt;stroke-linejoin:miter;stroke-opacity:1" d="M 408.404,581.226 408.404,592.748 z" id="boundary" inkscape:connector-curvature="0" />
	<path style="fill:none;stroke:red;stroke-width:1px;stroke-linecap:butt;stroke-linejoin:miter;stroke-opacity:1" d="M 408.404,581.226 408.404,569.705 z" id="boundary" inkscape:connector-curvature="0" />
	<path style="fill:none;stroke:red;stroke-width:1px;stroke-linecap:butt;stroke-linejoin:miter;stroke-opacity:1" d="M 355.405,996 343.884,996 z" id="boundary" inkscape:connector-curvature="0" />
	<path style="fill:none;stroke:red;stroke-width:1px;stroke-linecap:butt;stroke-linejoin:miter;stroke-opacity:1" d="M 366.927,996 355.405,996 z" id="boundary" inkscape:connector-curvature="0" />
	<path style="fill:none;stroke:red;stroke-width:1px;stroke-linecap:butt;stroke-linejoin:miter;stroke-opacity:1" d="M 378.448,996 366.927,996 z" id="boundary" inkscape:connector-curvature="0" />
	<path style="fill:none;stroke:red;stroke-width:1px;stroke-linecap:butt;stroke-linejoin:miter;stroke-opacity:1" d="M 389.97,996 378.448,996 z" id="boundary" inkscape:connector-curvature="0" />
	<path style="fill:none;stroke:red;stroke-width:1px;stroke-linecap:butt;stroke-linejoin:miter;stroke-opacity:1" d="M 401.491,996 389.97,996 z" id="boundary" inkscape:connector-curvature="0" />
	<path style="fill:none;stroke:red;stroke-width:1px;stroke-linecap:butt;stroke-linejoin:miter;stroke-opacity:1" d="M 408.404,984.479 401.491,996 z" id="boundary" inkscape:connector-curvature="0" />
	<path style="fill:none;stroke:red;stroke-width:1px;stroke-linecap:butt;stroke-linejoin:miter;stroke-opacity:1" d="M 408.404,592.748 408.404,604.269 z" id="boundary" inkscape:connector-curvature="0" />
	<path style="fill:none;stroke:red;stroke-width:1px;stroke-linecap:butt;stroke-linejoin:miter;stroke-opacity:1" d="M 408.404,615.791 408.404,604.269 z" id="boundary" inkscape:connector-curvature="0" />
	<path style="fill:none;stroke:red;stroke-width:1px;stroke-linecap:butt;stroke-linejoin:miter;stroke-opacity:1" d="M 408.404,615.791 408.404,627.312 z" id="boundary" inkscape:connector-curvature="0" />
	<path style="fill:none;stroke:red;stroke-width:1px;stroke-linecap:butt;stroke-linejoin:miter;stroke-opacity:1" d="M 408.404,638.834 408.404,650.355 z" id="boundary" inkscape:connector-curvature="0" />
	<path style="fill:none;stroke:red;stroke-width:1px;stroke-linecap:butt;stroke-linejoin:miter;stroke-opacity:1" d="M 408.404,661.877 408.404,650.355 z" id="boundary" inkscape:connector-curvature="0" />
	<path style="fill:none;stroke:red;stroke-width:1px;stroke-linecap:butt;stroke-linejoin:miter;stroke-opacity:1" d="M 408.404,638.834 408.404,627.312 z" id="boundary" inkscape:connector-curvature="0" />
	<path style="fill:none;stroke:red;stroke-width:1px;stroke-linecap:butt;stroke-linejoin:miter;stroke-opacity:1" d="M 408.404,673.398 408.404,684.92 z" id="boundary" inkscape:connector-curvature="0" />
	<path style="fill:none;stroke:red;stroke-width:1px;stroke-linecap:butt;stroke-linejoin:miter;stroke-opacity:1" d="M 408.404,696.441 408.404,684.92 z" id="boundary" inkscape:connector-curvature="0" />
	<path style="fill:none;stroke:red;stroke-width:1px;stroke-linecap:butt;stroke-linejoin:miter;stroke-opacity:1" d="M 408.404,707.963 408.404,719.484 z" id="boundary" inkscape:connector-curvature="0" />
	<path style="fill:none;stroke:red;stroke-width:1px;stroke-linecap:butt;stroke-linejoin:miter;stroke-opacity:1" d="M 408.404,731.006 408.404,719.484 z" id="boundary" inkscape:connector-curvature="0" />
	<path style="fill:none;stroke:red;stroke-width:1px;stroke-linecap:butt;stroke-linejoin:miter;stroke-opacity:1" d="M 408.404,707.963 408.404,696.441 z" id="boundary" inkscape:connector-curvature="0" />
	<path style="fill:none;stroke:red;stroke-width:1px;stroke-linecap:butt;stroke-linejoin:miter;stroke-opacity:1" d="M 408.404,673.398 408.404,661.877 z" id="boundary" inkscape:connector-curvature="0" />
	<path style="fill:none;stroke:red;stroke-width:1px;stroke-linecap:butt;stroke-linejoin:miter;stroke-opacity:1" d="M 408.404,742.527 408.404,731.006 z" id="boundary" inkscape:connector-curvature="0" />
	<path style="fill:none;stroke:red;stroke-width:1px;stroke-linecap:butt;stroke-linejoin:miter;stroke-opacity:1" d="M 408.404,742.527 408.404,754.049 z" id="boundary" inkscape:connector-curvature="0" />
	<path style="fill:none;stroke:red;stroke-width:1px;stroke-linecap:butt;stroke-linejoin:miter;stroke-opacity:1" d="M 408.404,765.57 408.404,777.092 z" id="boundary" inkscape:connector-curvature="0" />
	<path style="fill:none;stroke:red;stroke-width:1px;stroke-linecap:butt;stroke-linejoin:miter;stroke-opacity:1" d="M 408.404,788.613 408.404,777.092 z" id="boundary" inkscape:connector-curvature="0" />
	<path style="fill:none;stroke:red;stroke-width:1px;stroke-linecap:butt;stroke-linejoin:miter;stroke-opacity:1" d="M 408.404,765.57 408.404,754.049 z" id="boundary" inkscape:connector-curvature="0" />
	<path style="fill:none;stroke:red;stroke-width:1px;stroke-linecap:butt;stroke-linejoin:miter;stroke-opacity:1" d="M 408.404,800.135 408.404,811.656 z" id="boundary" inkscape:connector-curvature="0" />
	<path style="fill:none;stroke:red;stroke-width:1px;stroke-linecap:butt;stroke-linejoin:miter;stroke-opacity:1" d="M 408.404,823.178 408.404,811.656 z" id="boundary" inkscape:connector-curvature="0" />
	<path style="fill:none;stroke:red;stroke-width:1px;stroke-linecap:butt;stroke-linejoin:miter;stroke-opacity:1" d="M 408.404,834.699 408.404,846.221 z" id="boundary" inkscape:connector-curvature="0" />
	<path style="fill:none;stroke:red;stroke-width:1px;stroke-linecap:butt;stroke-linejoin:miter;stroke-opacity:1" d="M 408.404,857.742 408.404,846.221 z" id="boundary" inkscape:connector-curvature="0" />
	<path style="fill:none;stroke:red;stroke-width:1px;stroke-linecap:butt;stroke-linejoin:miter;stroke-opacity:1" d="M 408.404,834.699 408.404,823.178 z" id="boundary" inkscape:connector-curvature="0" />
	<path style="fill:none;stroke:red;stroke-width:1px;stroke-linecap:butt;stroke-linejoin:miter;stroke-opacity:1" d="M 408.404,800.135 408.404,788.613 z" id="boundary" inkscape:connector-curvature="0" />
	<path style="fill:none;stroke:red;stroke-width:1px;stroke-linecap:butt;stroke-linejoin:miter;stroke-opacity:1" d="M 408.404,869.264 408.404,880.785 z" id="boundary" inkscape:connector-curvature="0" />
	<path style="fill:none;stroke:red;stroke-width:1px;stroke-linecap:butt;stroke-linejoin:miter;stroke-opacity:1" d="M 408.404,892.307 408.404,903.828 z" id="boundary" inkscape:connector-curvature="0" />
	<path style="fill:none;stroke:red;stroke-width:1px;stroke-linecap:butt;stroke-linejoin:miter;stroke-opacity:1" d="M 408.404,915.35 408.404,903.828 z" id="boundary" inkscape:connector-curvature="0" />
	<path style="fill:none;stroke:red;stroke-width:1px;stroke-linecap:butt;stroke-linejoin:miter;stroke-opacity:1" d="M 408.404,892.307 408.404,880.785 z" id="boundary" inkscape:connector-curvature="0" />
	<path style="fill:none;stroke:red;stroke-width:1px;stroke-linecap:butt;stroke-linejoin:miter;stroke-opacity:1" d="M 408.404,926.871 408.404,938.393 z" id="boundary" inkscape:connector-curvature="0" />
	<path style="fill:none;stroke:red;stroke-width:1px;stroke-linecap:butt;stroke-linejoin:miter;stroke-opacity:1" d="M 408.404,949.914 408.404,938.393 z" id="boundary" inkscape:connector-curvature="0" />
	<path style="fill:none;stroke:red;stroke-width:1px;stroke-linecap:butt;stroke-linejoin:miter;stroke-opacity:1" d="M 408.404,961.436 408.404,972.957 z" id="boundary" inkscape:connector-curvature="0" />
	<path style="fill:none;stroke:red;stroke-width:1px;stroke-linecap:butt;stroke-linejoin:miter;stroke-opacity:1" d="M 408.404,984.479 408.404,972.957 z" id="boundary" inkscape:connector-curvature="0" />
	<path style="fill:none;stroke:red;stroke-width:1px;stroke-linecap:butt;stroke-linejoin:miter;stroke-opacity:1" d="M 408.404,961.436 408.404,949.914 z" id="boundary" inkscape:connector-curvature="0" />
	<path style="fill:none;stroke:red;stroke-width:1px;stroke-linecap:butt;stroke-linejoin:miter;stroke-opacity:1" d="M 408.404,926.871 408.404,915.35 z" id="boundary" inkscape:connector-curvature="0" />
	<path style="fill:none;stroke:red;stroke-width:1px;stroke-linecap:butt;stroke-linejoin:miter;stroke-opacity:1" d="M 408.404,869.264 408.404,857.742 z" id="boundary" inkscape:connector-curvature="0" />
	<circle cx="4" cy="283.972" r="4" fill="#0" id="circle0"/>
	<circle cx="4" cy="295.494" r="4" fill="#0" id="circle1"/>
	<circle cx="9.76074" cy="266.69" r="4" fill="#0" id="circle2"/>
	<circle cx="15.5215" cy="249.408" r="4" fill="#0" id="circle3"/>
	<circle cx="15.5215" cy="298.95" r="4" fill="#0" id="circle4"/>
	<circle cx="21.2822" cy="237.886" r="4" fill="#0" id="circle5"/>
	<circle cx="25.8908" cy="293.189" r="4" fill="#0" id="circle6"/>
	<circle cx="27.043" cy="220.604" r="4" fill="#0" id="circle7"/>
	<circle cx="36.2602" cy="211.387" r="4" fill="#0" id="circle8"/>
	<circle cx="36.2602" cy="287.429" r="4" fill="#0" id="circle9"/>
	<circle cx="42.0209" cy="199.865" r="4" fill="#0" id="circle10"/>
	<circle cx="47.7816" cy="287.429" r="4" fill="#0" id="circle11"/>
	<circle cx="50.0859" cy="186.039" r="4" fill="#0" id="circle12"/>
	<circle cx="55.8467" cy="168.757" r="4" fill="#0" id="circle13"/>
	<circle cx="58.151" cy="281.668" r="4" fill="#0" id="circle14"/>
	<circle cx="65.0639" cy="159.54" r="4" fill="#0" id="circle15"/>
	<circle cx="69.6725" cy="281.668" r="4" fill="#0" id="circle16"/>
	<circle cx="73.1289" cy="145.714" r="4" fill="#0" id="circle17"/>
	<circle cx="80.0418" cy="275.907" r="4" fill="#0" id="circle18"/>
	<circle cx="82.3461" cy="136.497" r="4" fill="#0" id="circle19"/>
	<circle cx="91.5633" cy="127.28" r="4" fill="#0" id="circle20"/>
	<circle cx="91.5633" cy="275.907" r="4" fill="#0" id="circle21"/>
	<circle cx="100.78" cy="119.215" r="4" fill="#0" id="circle22"/>
	<circle cx="103.085" cy="275.907" r="4" fill="#0" id="circle23"/>
	<circle cx="111.15" cy="113.454" r="4" fill="#0" id="circle24"/>
	<circle cx="113.454" cy="270.146" r="4" fill="#0" id="circle25"/>
	<circle cx="120.367" cy="104.237" r="4" fill="#0" id="circle26"/>
	<circle cx="124.976" cy="270.146" r="4" fill="#0" id="circle27"/>
	<circle cx="131.889" cy="98.4762" r="4" fill="#0" id="circle28"/>
	<circle cx="135.345" cy="264.386" r="4" fill="#0" id="circle29"/>
	<circle cx="143.41" cy="92.7154" r="4" fill="#0" id="circle30"/>
	<circle cx="146.866" cy="264.386" r="4" fill="#0" id="circle31"/>
	<circle cx="152.627" cy="84.6504" r="4" fill="#0" id="circle32"/>
	<circle cx="158.388" cy="264.386" r="4" fill="#0" id="circle33"/>
	<circle cx="162.997" cy="78.8897" r="4" fill="#0" id="circle34"/>
	<circle cx="168.757" cy="258.625" r="4" fill="#0" id="circle35"/>
	<circle cx="173.366" cy="73.1289" r="4" fill="#0" id="circle36"/>
	<circle cx="180.279" cy="258.625" r="4" fill="#0" id="circle37"/>
	<circle cx="182.583" cy="65.0639" r="4" fill="#0" id="circle38"/>
	<circle cx="191.8" cy="258.625" r="4" fill="#0" id="circle39"/>
	<circle cx="194.105" cy="59.3031" r="4" fill="#0" id="circle40"/>
	<circle cx="203.322" cy="50.0859" r="4" fill="#0" id="circle41"/>
	<circle cx="203.322" cy="258.625" r="4" fill="#0" id="circle42"/>
	<circle cx="213.691" cy="252.864" r="4" fill="#0" id="circle43"/>
	<circle cx="214.843" cy="50.0859" r="4" fill="#0" id="circle44"/>
	<circle cx="225.213" cy="252.864" r="4" fill="#0" id="circle45"/>
	<circle cx="226.365" cy="44.3252" r="4" fill="#0" id="circle46"/>
	<circle cx="236.734" cy="252.864" r="4" fill="#0" id="circle47"/>
	<circle cx="237.886" cy="38.5645" r="4" fill="#0" id="circle48"/>
	<circle cx="248.256" cy="252.864" r="4" fill="#0" id="circle49"/>
	<circle cx="249.408" cy="32.8037" r="4" fill="#0" id="circle50"/>
	<circle cx="259.777" cy="252.864" r="4" fill="#0" id="circle51"/>
	<circle cx="260.929" cy="32.8037" r="4" fill="#0" id="circle52"/>
	<circle cx="268.994" cy="259.777" r="4" fill="#0" id="circle53"/>
	<circle cx="268.994" cy="271.298" r="4" fill="#0" id="circle54"/>
	<circle cx="268.994" cy="282.82" r="4" fill="#0" id="circle55"/>
	<circle cx="268.994" cy="294.341" r="4" fill="#0" id="circle56"/>
	<circle cx="268.994" cy="305.863" r="4" fill="#0" id="circle57"/>
	<circle cx="268.994" cy="317.384" r="4" fill="#0" id="circle58"/>
	<circle cx="268.994" cy="328.906" r="4" fill="#0" id="circle59"/>
	<circle cx="268.994" cy="340.427" r="4" fill="#0" id="circle60"/>
	<circle cx="268.994" cy="351.949" r="4" fill="#0" id="circle61"/>
	<circle cx="268.994" cy="363.47" r="4" fill="#0" id="circle62"/>
	<circle cx="268.994" cy="374.992" r="4" fill="#0" id="circle63"/>
	<circle cx="268.994" cy="386.513" r="4" fill="#0" id="circle64"/>
	<circle cx="268.994" cy="398.035" r="4" fill="#0" id="circle65"/>
	<circle cx="268.994" cy="409.556" r="4" fill="#0" id="circle66"/>
	<circle cx="268.994" cy="421.078" r="4" fill="#0" id="circle67"/>
	<circle cx="268.994" cy="432.599" r="4" fill="#0" id="circle68"/>
	<circle cx="268.994" cy="444.121" r="4" fill="#0" id="circle69"/>
	<circle cx="268.994" cy="455.642" r="4" fill="#0" id="circle70"/>
	<circle cx="268.994" cy="467.164" r="4" fill="#0" id="circle71"/>
	<circle cx="268.994" cy="478.685" r="4" fill="#0" id="circle72"/>
	<circle cx="268.994" cy="490.207" r="4" fill="#0" id="circle73"/>
	<circle cx="268.994" cy="501.728" r="4" fill="#0" id="circle74"/>
	<circle cx="268.994" cy="513.25" r="4" fill="#0" id="circle75"/>
	<circle cx="268.994" cy="524.771" r="4" fill="#0" id="circle76"/>
	<circle cx="268.994" cy="536.293" r="4" fill="#0" id="circle77"/>
	<circle cx="268.994" cy="547.814" r="4" fill="#0" id="circle78"/>
	<circle cx="268.994" cy="559.336" r="4" fill="#0" id="circle79"/>
	<circle cx="268.994" cy="570.857" r="4" fill="#0" id="circle80"/>
	<circle cx="268.994" cy="582.379" r="4" fill="#0" id="circle81"/>
	<circle cx="268.994" cy="593.9" r="4" fill="#0" id="circle82"/>
	<circle cx="268.994" cy="605.422" r="4" fill="#0" id="circle83"/>
	<circle cx="268.994" cy="616.943" r="4" fill="#0" id="circle84"/>
	<circle cx="268.994" cy="628.465" r="4" fill="#0" id="circle85"/>
	<circle cx="268.994" cy="639.986" r="4" fill="#0" id="circle86"/>
	<circle cx="268.994" cy="651.508" r="4" fill="#0" id="circle87"/>
	<circle cx="268.994" cy="663.029" r="4" fill="#0" id="circle88"/>
	<circle cx="268.994" cy="674.551" r="4" fill="#0" id="circle89"/>
	<circle cx="268.994" cy="686.072" r="4" fill="#0" id="circle90"/>
	<circle cx="268.994" cy="697.593" r="4" fill="#0" id="circle91"/>
	<circle cx="268.994" cy="709.115" r="4" fill="#0" id="circle92"/>
	<circle cx="268.994" cy="720.636" r="4" fill="#0" id="circle93"/>
	<circle cx="268.994" cy="732.158" r="4" fill="#0" id="circle94"/>
	<circle cx="268.994" cy="743.679" r="4" fill="#0" id="circle95"/>
	<circle cx="268.994" cy="755.201" r="4" fill="#0" id="circle96"/>
	<circle cx="268.994" cy="766.722" r="4" fill="#0" id="circle97"/>
	<circle cx="268.994" cy="778.244" r="4" fill="#0" id="circle98"/>
	<circle cx="268.994" cy="789.765" r="4" fill="#0" id="circle99"/>
	<circle cx="268.994" cy="801.287" r="4" fill="#0" id="circle100"/>
	<circle cx="268.994" cy="812.808" r="4" fill="#0" id="circle101"/>
	<circle cx="268.994" cy="824.33" r="4" fill="#0" id="circle102"/>
	<circle cx="268.994" cy="835.851" r="4" fill="#0" id="circle103"/>
	<circle cx="268.994" cy="847.373" r="4" fill="#0" id="circle104"/>
	<circle cx="268.994" cy="858.894" r="4" fill="#0" id="circle105"/>
	<circle cx="268.994" cy="870.416" r="4" fill="#0" id="circle106"/>
	<circle cx="268.994" cy="881.937" r="4" fill="#0" id="circle107"/>
	<circle cx="268.994" cy="893.459" r="4" fill="#0" id="circle108"/>
	<circle cx="268.994" cy="904.98" r="4" fill="#0" id="circle109"/>
	<circle cx="268.994" cy="916.502" r="4" fill="#0" id="circle110"/>
	<circle cx="268.994" cy="928.023" r="4" fill="#0" id="circle111"/>
	<circle cx="268.994" cy="939.545" r="4" fill="#0" id="circle112"/>
	<circle cx="268.994" cy="951.066" r="4" fill="#0" id="circle113"/>
	<circle cx="268.994" cy="962.588" r="4" fill="#0" id="circle114"/>
	<circle cx="268.994" cy="974.109" r="4" fill="#0" id="circle115"/>
	<circle cx="268.994" cy="985.631" r="4" fill="#0" id="circle116"/>
	<circle cx="272.451" cy="32.8037" r="4" fill="#0" id="circle117"/>
	<circle cx="274.755" cy="996" r="4" fill="#0" id="circle118"/>
	<circle cx="282.82" cy="27.043" r="4" fill="#0" id="circle119"/>
	<circle cx="286.276" cy="996" r="4" fill="#0" id="circle120"/>
	<circle cx="294.341" cy="27.043" r="4" fill="#0" id="circle121"/>
	<circle cx="297.798" cy="996" r="4" fill="#0" id="circle122"/>
	<circle cx="305.863" cy="27.043" r="4" fill="#0" id="circle123"/>
	<circle cx="309.319" cy="996" r="4" fill="#0" id="circle124"/>
	<circle cx="317.384" cy="27.043" r="4" fill="#0" id="circle125"/>
	<circle cx="320.841" cy="996" r="4" fill="#0" id="circle126"/>
	<circle cx="328.906" cy="27.043" r="4" fill="#0" id="circle127"/>
	<circle cx="332.362" cy="996" r="4" fill="#0" id="circle128"/>
	<circle cx="340.427" cy="27.043" r="4" fill="#0" id="circle129"/>
	<circle cx="343.884" cy="996" r="4" fill="#0" id="circle130"/>
	<circle cx="351.949" cy="27.043" r="4" fill="#0" id="circle131"/>
	<circle cx="355.405" cy="996" r="4" fill="#0" id="circle132"/>
	<circle cx="363.47" cy="27.043" r="4" fill="#0" id="circle133"/>
	<circle cx="366.927" cy="996" r="4" fill="#0" id="circle134"/>
	<circle cx="374.992" cy="27.043" r="4" fill="#0" id="circle135"/>
	<circle cx="378.448" cy="996" r="4" fill="#0" id="circle136"/>
	<circle cx="386.513" cy="27.043" r="4" fill="#0" id="circle137"/>
	<circle cx="389.97" cy="996" r="4" fill="#0" id="circle138"/>
	<circle cx="398.035" cy="27.043" r="4" fill="#0" id="circle139"/>
	<circle cx="401.491" cy="996" r="4" fill="#0" id="circle140"/>
	<circle cx="408.404" cy="258.625" r="4" fill="#0" id="circle141"/>
	<circle cx="408.404" cy="270.146" r="4" fill="#0" id="circle142"/>
	<circle cx="408.404" cy="281.668" r="4" fill="#0" id="circle143"/>
	<circle cx="408.404" cy="293.189" r="4" fill="#0" id="circle144"/>
	<circle cx="408.404" cy="304.711" r="4" fill="#0" id="circle145"/>
	<circle cx="408.404" cy="316.232" r="4" fill="#0" id="circle146"/>
	<circle cx="408.404" cy="327.754" r="4" fill="#0" id="circle147"/>
	<circle cx="408.404" cy="339.275" r="4" fill="#0" id="circle148"/>
	<circle cx="408.404" cy="350.797" r="4" fill="#0" id="circle149"/>
	<circle cx="408.404" cy="362.318" r="4" fill="#0" id="circle150"/>
	<circle cx="408.404" cy="373.84" r="4" fill="#0" id="circle151"/>
	<circle cx="408.404" cy="385.361" r="4" fill="#0" id="circle152"/>
	<circle cx="408.404" cy="396.883" r="4" fill="#0" id="circle153"/>
	<circle cx="408.404" cy="408.404" r="4" fill="#0" id="circle154"/>
	<circle cx="408.404" cy="419.926" r="4" fill="#0" id="circle155"/>
	<circle cx="408.404" cy="431.447" r="4" fill="#0" id="circle156"/>
	<circle cx="408.404" cy="442.969" r="4" fill="#0" id="circle157"/>
	<circle cx="408.404" cy="454.49" r="4" fill="#0" id="circle158"/>
	<circle cx="408.404" cy="466.012" r="4" fill="#0" id="circle159"/>
	<circle cx="408.404" cy="477.533" r="4" fill="#0" id="circle160"/>
	<circle cx="408.404" cy="489.055" r="4" fill="#0" id="circle161"/>
	<circle cx="408.404" cy="500.576" r="4" fill="#0" id="circle162"/>
	<circle cx="408.404" cy="512.098" r="4" fill="#0" id="circle163"/>
	<circle cx="408.404" cy="523.619" r="4" fill="#0" id="circle164"/>
	<circle cx="408.404" cy="535.141" r="4" fill="#0" id="circle165"/>
	<circle cx="408.404" cy="546.662" r="4" fill="#0" id="circle166"/>
	<circle cx="408.404" cy="558.184" r="4" fill="#0" id="circle167"/>
	<circle cx="408.404" cy="569.705" r="4" fill="#0" id="circle168"/>
	<circle cx="408.404" cy="581.226" r="4" fill="#0" id="circle169"/>
	<circle cx="408.404" cy="592.748" r="4" fill="#0" id="circle170"/>
	<circle cx="408.404" cy="604.269" r="4" fill="#0" id="circle171"/>
	<circle cx="408.404" cy="615.791" r="4" fill="#0" id="circle172"/>
	<circle cx="408.404" cy="627.312" r="4" fill="#0" id="circle173"/>
	<circle cx="408.404" cy="638.834" r="4" fill="#0" id="circle174"/>
	<circle cx="408.404" cy="650.355" r="4" fill="#0" id="circle175"/>
	<circle cx="408.404" cy="661.877" r="4" fill="#0" id="circle176"/>
	<circle cx="408.404" cy="673.398" r="4" fill="#0" id="circle177"/>
	<circle cx="408.404" cy="684.92" r="4" fill="#0" id="circle178"/>
	<circle cx="408.404" cy="696.441" r="4" fill="#0" id="circle179"/>
	<circle cx="408.404" cy="707.963" r="4" fill="#0" id="circle180"/>
	<circle cx="408.404" cy="719.484" r="4" fill="#0" id="circle181"/>
	<circle cx="408.404" cy="731.006" r="4" fill="#0" id="circle182"/>
	<circle cx="408.404" cy="742.527" r="4" fill="#0" id="circle183"/>
	<circle cx="408.404" cy="754.049" r="4" fill="#0" id="circle184"/>
	<circle cx="408.404" cy="765.57" r="4" fill="#0" id="circle185"/>
	<circle cx="408.404" cy="777.092" r="4" fill="#0" id="circle186"/>
	<circle cx="408.404" cy="788.613" r="4" fill="#0" id="circle187"/>
	<circle cx="408.404" cy="800.135" r="4" fill="#0" id="circle188"/>
	<circle cx="408.404" cy="811.656" r="4" fill="#0" id="circle189"/>
	<circle cx="408.404" cy="823.178" r="4" fill="#0" id="circle190"/>
	<circle cx="408.404" cy="834.699" r="4" fill="#0" id="circle191"/>
	<circle cx="408.404" cy="846.221" r="4" fill="#0" id="circle192"/>
	<circle cx="408.404" cy="857.742" r="4" fill="#0" id="circle193"/>
	<circle cx="408.404" cy="869.264" r="4" fill="#0" id="circle194"/>
	<circle cx="408.404" cy="880.785" r="4" fill="#0" id="circle195"/>
	<circle cx="408.404" cy="892.307" r="4" fill="#0" id="circle196"/>
	<circle cx="408.404" cy="903.828" r="4" fill="#0" id="circle197"/>
	<circle cx="408.404" cy="915.35" r="4" fill="#0" id="circle198"/>
	<circle cx="408.404" cy="926.871" r="4" fill="#0" id="circle199"/>
	<circle cx="408.404" cy="938.393" r="4" fill="#0" id="circle200"/>
	<circle cx="408.404" cy="949.914" r="4" fill="#0" id="circle201"/>
	<circle cx="408.404" cy="961.436" r="4" fill="#0" id="circle202"/>
	<circle cx="408.404" cy="972.957" r="4" fill="#0" id="circle203"/>
	<circle cx="408.404" cy="984.479" r="4" fill="#0" id="circle204"/>
	<circle cx="409.556" cy="27.043" r="4" fill="#0" id="circle205"/>
	<circle cx="419.926" cy="258.625" r="4" fill="#0" id="circle206"/>
	<circle cx="421.078" cy="27.043" r="4" fill="#0" id="circle207"/>
	<circle cx="431.447" cy="258.625" r="4" fill="#0" id="circle208"/>
	<circle cx="432.599" cy="27.043" r="4" fill="#0" id="circle209"/>
	<circle cx="436.056" cy="7.45645" r="4" fill="#0" id="circle210"/>
	<circle cx="436.056" cy="270.146" r="4" fill="#0" id="circle211"/>
	<circle cx="439.512" cy="281.668" r="4" fill="#0" id="circle212"/>
	<circle cx="447.577" cy="4" r="4" fill="#0" id="circle213"/>
	<circle cx="451.034" cy="281.668" r="4" fill="#0" id="circle214"/>
	<circle cx="459.099" cy="4" r="4" fill="#0" id="circle215"/>
	<circle cx="462.555" cy="281.668" r="4" fill="#0" id="circle216"/>
	<circle cx="470.62" cy="4" r="4" fill="#0" id="circle217"/>
	<circle cx="474.077" cy="281.668" r="4" fill="#0" id="circle218"/>
	<circle cx="482.142" cy="4" r="4" fill="#0" id="circle219"/>
	<circle cx="485.598" cy="281.668" r="4" fill="#0" id="circle220"/>
	<circle cx="493.663" cy="4" r="4" fill="#0" id="circle221"/>
	<circle cx="497.12" cy="281.668" r="4" fill="#0" id="circle222"/>
	<circle cx="505.185" cy="4" r="4" fill="#0" id="circle223"/>
	<circle cx="508.641" cy="281.668" r="4" fill="#0" id="circle224"/>
	<circle cx="516.706" cy="4" r="4" fill="#0" id="circle225"/>
	<circle cx="520.163" cy="281.668" r="4" fill="#0" id="circle226"/>
	<circle cx="528.228" cy="4" r="4" fill="#0" id="circle227"/>
	<circle cx="531.684" cy="281.668" r="4" fill="#0" id="circle228"/>
	<circle cx="539.749" cy="4" r="4" fill="#0" id="circle229"/>
	<circle cx="543.206" cy="281.668" r="4" fill="#0" id="circle230"/>
	<circle cx="551.271" cy="4" r="4" fill="#0" id="circle231"/>
	<circle cx="554.727" cy="281.668" r="4" fill="#0" id="circle232"/>
	<circle cx="562.792" cy="4" r="4" fill="#0" id="circle233"/>
	<circle cx="566.249" cy="281.668" r="4" fill="#0" id="circle234"/>
	<circle cx="574.314" cy="4" r="4" fill="#0" id="circle235"/>
	<circle cx="577.77" cy="281.668" r="4" fill="#0" id="circle236"/>
	<circle cx="585.835" cy="6.3043" r="4" fill="#0" id="circle237"/>
	<circle cx="586.987" cy="17.8258" r="4" fill="#0" id="circle238"/>
	<circle cx="586.987" cy="29.3473" r="4" fill="#0" id="circle239"/>
	<circle cx="586.987" cy="40.8688" r="4" fill="#0" id="circle240"/>
	<circle cx="586.987" cy="52.3902" r="4" fill="#0" id="circle241"/>
	<circle cx="586.987" cy="63.9117" r="4" fill="#0" id="circle242"/>
	<circle cx="586.987" cy="75.4332" r="4" fill="#0" id="circle243"/>
	<circle cx="586.987" cy="86.9547" r="4" fill="#0" id="circle244"/>
	<circle cx="586.987" cy="98.4762" r="4" fill="#0" id="circle245"/>
	<circle cx="586.987" cy="109.998" r="4" fill="#0" id="circle246"/>
	<circle cx="586.987" cy="121.519" r="4" fill="#0" id="circle247"/>
	<circle cx="586.987" cy="133.041" r="4" fill="#0" id="circle248"/>
	<circle cx="586.987" cy="144.562" r="4" fill="#0" id="circle249"/>
	<circle cx="586.987" cy="156.084" r="4" fill="#0" id="circle250"/>
	<circle cx="586.987" cy="167.605" r="4" fill="#0" id="circle251"/>
	<circle cx="586.987" cy="179.127" r="4" fill="#0" id="circle252"/>
	<circle cx="586.987" cy="190.648" r="4" fill="#0" id="circle253"/>
	<circle cx="586.987" cy="202.17" r="4" fill="#0" id="circle254"/>
	<circle cx="586.987" cy="213.691" r="4" fill="#0" id="circle255"/>
	<circle cx="586.987" cy="225.213" r="4" fill="#0" id="circle256"/>
	<circle cx="586.987" cy="236.734" r="4" fill="#0" id="circle257"/>
	<circle cx="586.987" cy="248.256" r="4" fill="#0" id="circle258"/>
	<circle cx="586.987" cy="259.777" r="4" fill="#0" id="circle259"/>
	<circle cx="586.987" cy="271.298" r="4" fill="#0" id="circle260"/>
	</g>
</svg>