<?xml version="1.0" encoding="UTF-8" standalone="no"?>
<!-- Created with CurveBenchmark -->
<svg
	xmlns:dc="http://purl.org/dc/elements/1.1/"
	xmlns:cc="http://creativecommons.org/ns#"
	xmlns:rdf="http://www.w3.org/1999/02/22-rdf-syntax-ns#"
	xmlns:svg="http://www.w3.org/2000/svg"
	xmlns="http://www.w3.org/2000/svg"
	xmlns:sodipodi="http://sodipodi.sourceforge.net/DTD/sodipodi-0.dtd"
	xmlns:inkscape="http://www.inkscape.org/namespaces/inkscape"
	width="1000"
	height="1000"
	id="svg2"
	version="1.1"
	sodipodi:docname="manifold/crust-hand90occ4.png.txt">
<defs
	id="defs4" />
<metadata
	id="metadata7">
	<rdf:RDF>
		<cc:Work
			rdf:about="">
			<dc:format>image/svg+xml</dc:format>
			<dc:type
				rdf:resource="http://purl.org/dc/dcmitype/StillImage" />
			<dc:title></dc:title>
		</cc:Work>
	</rdf:RDF>
</metadata>
<g
	inkscape:label="Layer 1"
	inkscape:groupmode="layer"
	id="layer1">
	<path style="fill:none;stroke:red;stroke-width:1px;stroke-linecap:butt;stroke-linejoin:miter;stroke-opacity:1" d="M 155.655,53.9568 137.813,62.8777 z" id="boundary" inkscape:connector-curvature="0" />
	<path style="fill:none;stroke:red;stroke-width:1px;stroke-linecap:butt;stroke-linejoin:miter;stroke-opacity:1" d="M 155.655,53.9568 169.928,39.6835 z" id="boundary" inkscape:connector-curvature="0" />
	<path style="fill:none;stroke:red;stroke-width:1px;stroke-linecap:butt;stroke-linejoin:miter;stroke-opacity:1" d="M 137.813,62.8777 146.734,78.9353 z" id="boundary" inkscape:connector-curvature="0" />
	<path style="fill:none;stroke:red;stroke-width:1px;stroke-linecap:butt;stroke-linejoin:miter;stroke-opacity:1" d="M 155.655,94.9928 146.734,78.9353 z" id="boundary" inkscape:connector-curvature="0" />
	<path style="fill:none;stroke:red;stroke-width:1px;stroke-linecap:butt;stroke-linejoin:miter;stroke-opacity:1" d="M 166.36,109.266 155.655,94.9928 z" id="boundary" inkscape:connector-curvature="0" />
	<path style="fill:none;stroke:red;stroke-width:1px;stroke-linecap:butt;stroke-linejoin:miter;stroke-opacity:1" d="M 18.2734,155.655 34.3309,164.576 z" id="boundary" inkscape:connector-curvature="0" />
	<path style="fill:none;stroke:red;stroke-width:1px;stroke-linecap:butt;stroke-linejoin:miter;stroke-opacity:1" d="M 68.2302,173.496 52.1727,164.576 z" id="boundary" inkscape:connector-curvature="0" />
	<path style="fill:none;stroke:red;stroke-width:1px;stroke-linecap:butt;stroke-linejoin:miter;stroke-opacity:1" d="M 52.1727,164.576 34.3309,164.576 z" id="boundary" inkscape:connector-curvature="0" />
	<path style="fill:none;stroke:red;stroke-width:1px;stroke-linecap:butt;stroke-linejoin:miter;stroke-opacity:1" d="M 175.281,159.223 157.439,168.144 z" id="boundary" inkscape:connector-curvature="0" />
	<path style="fill:none;stroke:red;stroke-width:1px;stroke-linecap:butt;stroke-linejoin:miter;stroke-opacity:1" d="M 157.439,168.144 139.597,173.496 z" id="boundary" inkscape:connector-curvature="0" />
	<path style="fill:none;stroke:red;stroke-width:1px;stroke-linecap:butt;stroke-linejoin:miter;stroke-opacity:1" d="M 166.36,109.266 180.633,121.755 z" id="boundary" inkscape:connector-curvature="0" />
	<path style="fill:none;stroke:red;stroke-width:1px;stroke-linecap:butt;stroke-linejoin:miter;stroke-opacity:1" d="M 18.2734,155.655 4,169.928 z" id="boundary" inkscape:connector-curvature="0" />
	<path style="fill:none;stroke:red;stroke-width:1px;stroke-linecap:butt;stroke-linejoin:miter;stroke-opacity:1" d="M 169.928,39.6835 182.417,53.9568 z" id="boundary" inkscape:connector-curvature="0" />
	<path style="fill:none;stroke:red;stroke-width:1px;stroke-linecap:butt;stroke-linejoin:miter;stroke-opacity:1" d="M 182.417,53.9568 191.338,70.0144 z" id="boundary" inkscape:connector-curvature="0" />
	<path style="fill:none;stroke:red;stroke-width:1px;stroke-linecap:butt;stroke-linejoin:miter;stroke-opacity:1" d="M 202.043,84.2878 191.338,70.0144 z" id="boundary" inkscape:connector-curvature="0" />
	<path style="fill:none;stroke:red;stroke-width:1px;stroke-linecap:butt;stroke-linejoin:miter;stroke-opacity:1" d="M 216.317,94.9928 202.043,84.2878 z" id="boundary" inkscape:connector-curvature="0" />
	<path style="fill:none;stroke:red;stroke-width:1px;stroke-linecap:butt;stroke-linejoin:miter;stroke-opacity:1" d="M 237.727,125.324 228.806,109.266 z" id="boundary" inkscape:connector-curvature="0" />
	<path style="fill:none;stroke:red;stroke-width:1px;stroke-linecap:butt;stroke-linejoin:miter;stroke-opacity:1" d="M 228.806,109.266 216.317,94.9928 z" id="boundary" inkscape:connector-curvature="0" />
	<path style="fill:none;stroke:red;stroke-width:1px;stroke-linecap:butt;stroke-linejoin:miter;stroke-opacity:1" d="M 187.77,139.597 180.633,121.755 z" id="boundary" inkscape:connector-curvature="0" />
	<path style="fill:none;stroke:red;stroke-width:1px;stroke-linecap:butt;stroke-linejoin:miter;stroke-opacity:1" d="M 196.691,155.655 175.281,159.223 z" id="boundary" inkscape:connector-curvature="0" />
	<path style="fill:none;stroke:red;stroke-width:1px;stroke-linecap:butt;stroke-linejoin:miter;stroke-opacity:1" d="M 187.77,139.597 196.691,155.655 z" id="boundary" inkscape:connector-curvature="0" />
	<path style="fill:none;stroke:red;stroke-width:1px;stroke-linecap:butt;stroke-linejoin:miter;stroke-opacity:1" d="M 252,137.813 237.727,125.324 z" id="boundary" inkscape:connector-curvature="0" />
	<path style="fill:none;stroke:red;stroke-width:1px;stroke-linecap:butt;stroke-linejoin:miter;stroke-opacity:1" d="M 268.058,128.892 252,137.813 z" id="boundary" inkscape:connector-curvature="0" />
	<path style="fill:none;stroke:red;stroke-width:1px;stroke-linecap:butt;stroke-linejoin:miter;stroke-opacity:1" d="M 4,169.928 4,187.77 z" id="boundary" inkscape:connector-curvature="0" />
	<path style="fill:none;stroke:red;stroke-width:1px;stroke-linecap:butt;stroke-linejoin:miter;stroke-opacity:1" d="M 4,205.612 4,187.77 z" id="boundary" inkscape:connector-curvature="0" />
	<path style="fill:none;stroke:red;stroke-width:1px;stroke-linecap:butt;stroke-linejoin:miter;stroke-opacity:1" d="M 4,223.453 4,241.295 z" id="boundary" inkscape:connector-curvature="0" />
	<path style="fill:none;stroke:red;stroke-width:1px;stroke-linecap:butt;stroke-linejoin:miter;stroke-opacity:1" d="M 4,259.137 4,241.295 z" id="boundary" inkscape:connector-curvature="0" />
	<path style="fill:none;stroke:red;stroke-width:1px;stroke-linecap:butt;stroke-linejoin:miter;stroke-opacity:1" d="M 4,223.453 4,205.612 z" id="boundary" inkscape:connector-curvature="0" />
	<path style="fill:none;stroke:red;stroke-width:1px;stroke-linecap:butt;stroke-linejoin:miter;stroke-opacity:1" d="M 4,276.978 4,294.82 z" id="boundary" inkscape:connector-curvature="0" />
	<path style="fill:none;stroke:red;stroke-width:1px;stroke-linecap:butt;stroke-linejoin:miter;stroke-opacity:1" d="M 4,276.978 4,259.137 z" id="boundary" inkscape:connector-curvature="0" />
	<path style="fill:none;stroke:red;stroke-width:1px;stroke-linecap:butt;stroke-linejoin:miter;stroke-opacity:1" d="M 4,312.662 12.9209,328.719 z" id="boundary" inkscape:connector-curvature="0" />
	<path style="fill:none;stroke:red;stroke-width:1px;stroke-linecap:butt;stroke-linejoin:miter;stroke-opacity:1" d="M 4,294.82 4,312.662 z" id="boundary" inkscape:connector-curvature="0" />
	<path style="fill:none;stroke:red;stroke-width:1px;stroke-linecap:butt;stroke-linejoin:miter;stroke-opacity:1" d="M 12.9209,346.561 12.9209,328.719 z" id="boundary" inkscape:connector-curvature="0" />
	<path style="fill:none;stroke:red;stroke-width:1px;stroke-linecap:butt;stroke-linejoin:miter;stroke-opacity:1" d="M 12.9209,364.403 12.9209,346.561 z" id="boundary" inkscape:connector-curvature="0" />
	<path style="fill:none;stroke:red;stroke-width:1px;stroke-linecap:butt;stroke-linejoin:miter;stroke-opacity:1" d="M 12.9209,364.403 12.9209,382.245 z" id="boundary" inkscape:connector-curvature="0" />
	<path style="fill:none;stroke:red;stroke-width:1px;stroke-linecap:butt;stroke-linejoin:miter;stroke-opacity:1" d="M 12.9209,400.086 12.9209,417.928 z" id="boundary" inkscape:connector-curvature="0" />
	<path style="fill:none;stroke:red;stroke-width:1px;stroke-linecap:butt;stroke-linejoin:miter;stroke-opacity:1" d="M 12.9209,400.086 12.9209,382.245 z" id="boundary" inkscape:connector-curvature="0" />
	<path style="fill:none;stroke:red;stroke-width:1px;stroke-linecap:butt;stroke-linejoin:miter;stroke-opacity:1" d="M 12.9209,417.928 12.9209,435.77 z" id="boundary" inkscape:connector-curvature="0" />
	<path style="fill:none;stroke:red;stroke-width:1px;stroke-linecap:butt;stroke-linejoin:miter;stroke-opacity:1" d="M 68.2302,173.496 86.0719,173.496 z" id="boundary" inkscape:connector-curvature="0" />
	<path style="fill:none;stroke:red;stroke-width:1px;stroke-linecap:butt;stroke-linejoin:miter;stroke-opacity:1" d="M 86.0719,173.496 103.914,173.496 z" id="boundary" inkscape:connector-curvature="0" />
	<path style="fill:none;stroke:red;stroke-width:1px;stroke-linecap:butt;stroke-linejoin:miter;stroke-opacity:1" d="M 121.755,173.496 139.597,173.496 z" id="boundary" inkscape:connector-curvature="0" />
	<path style="fill:none;stroke:red;stroke-width:1px;stroke-linecap:butt;stroke-linejoin:miter;stroke-opacity:1" d="M 121.755,173.496 103.914,173.496 z" id="boundary" inkscape:connector-curvature="0" />
	<path style="fill:none;stroke:red;stroke-width:1px;stroke-linecap:butt;stroke-linejoin:miter;stroke-opacity:1" d="M 303.741,119.971 285.899,128.892 z" id="boundary" inkscape:connector-curvature="0" />
	<path style="fill:none;stroke:red;stroke-width:1px;stroke-linecap:butt;stroke-linejoin:miter;stroke-opacity:1" d="M 321.583,119.971 303.741,119.971 z" id="boundary" inkscape:connector-curvature="0" />
	<path style="fill:none;stroke:red;stroke-width:1px;stroke-linecap:butt;stroke-linejoin:miter;stroke-opacity:1" d="M 285.899,128.892 268.058,128.892 z" id="boundary" inkscape:connector-curvature="0" />
	<path style="fill:none;stroke:red;stroke-width:1px;stroke-linecap:butt;stroke-linejoin:miter;stroke-opacity:1" d="M 321.583,119.971 339.424,119.971 z" id="boundary" inkscape:connector-curvature="0" />
	<path style="fill:none;stroke:red;stroke-width:1px;stroke-linecap:butt;stroke-linejoin:miter;stroke-opacity:1" d="M 392.95,111.05 375.108,119.971 z" id="boundary" inkscape:connector-curvature="0" />
	<path style="fill:none;stroke:red;stroke-width:1px;stroke-linecap:butt;stroke-linejoin:miter;stroke-opacity:1" d="M 410.791,111.05 392.95,111.05 z" id="boundary" inkscape:connector-curvature="0" />
	<path style="fill:none;stroke:red;stroke-width:1px;stroke-linecap:butt;stroke-linejoin:miter;stroke-opacity:1" d="M 357.266,119.971 339.424,119.971 z" id="boundary" inkscape:connector-curvature="0" />
	<path style="fill:none;stroke:red;stroke-width:1px;stroke-linecap:butt;stroke-linejoin:miter;stroke-opacity:1" d="M 569.583,50.3885 551.741,59.3094 z" id="boundary" inkscape:connector-curvature="0" />
	<path style="fill:none;stroke:red;stroke-width:1px;stroke-linecap:butt;stroke-linejoin:miter;stroke-opacity:1" d="M 516.058,77.1511 498.216,86.0719 z" id="boundary" inkscape:connector-curvature="0" />
	<path style="fill:none;stroke:red;stroke-width:1px;stroke-linecap:butt;stroke-linejoin:miter;stroke-opacity:1" d="M 533.899,68.2302 551.741,59.3094 z" id="boundary" inkscape:connector-curvature="0" />
	<path style="fill:none;stroke:red;stroke-width:1px;stroke-linecap:butt;stroke-linejoin:miter;stroke-opacity:1" d="M 533.899,68.2302 516.058,77.1511 z" id="boundary" inkscape:connector-curvature="0" />
	<path style="fill:none;stroke:red;stroke-width:1px;stroke-linecap:butt;stroke-linejoin:miter;stroke-opacity:1" d="M 428.633,111.05 410.791,111.05 z" id="boundary" inkscape:connector-curvature="0" />
	<path style="fill:none;stroke:red;stroke-width:1px;stroke-linecap:butt;stroke-linejoin:miter;stroke-opacity:1" d="M 603.482,39.6835 619.54,30.7626 z" id="boundary" inkscape:connector-curvature="0" />
	<path style="fill:none;stroke:red;stroke-width:1px;stroke-linecap:butt;stroke-linejoin:miter;stroke-opacity:1" d="M 587.424,48.6043 603.482,39.6835 z" id="boundary" inkscape:connector-curvature="0" />
	<path style="fill:none;stroke:red;stroke-width:1px;stroke-linecap:butt;stroke-linejoin:miter;stroke-opacity:1" d="M 635.597,127.108 617.755,136.029 z" id="boundary" inkscape:connector-curvature="0" />
	<path style="fill:none;stroke:red;stroke-width:1px;stroke-linecap:butt;stroke-linejoin:miter;stroke-opacity:1" d="M 569.583,50.3885 587.424,48.6043 z" id="boundary" inkscape:connector-curvature="0" />
	<path style="fill:none;stroke:red;stroke-width:1px;stroke-linecap:butt;stroke-linejoin:miter;stroke-opacity:1" d="M 480.374,94.9928 462.532,102.129 z" id="boundary" inkscape:connector-curvature="0" />
	<path style="fill:none;stroke:red;stroke-width:1px;stroke-linecap:butt;stroke-linejoin:miter;stroke-opacity:1" d="M 462.532,102.129 446.475,111.05 z" id="boundary" inkscape:connector-curvature="0" />
	<path style="fill:none;stroke:red;stroke-width:1px;stroke-linecap:butt;stroke-linejoin:miter;stroke-opacity:1" d="M 480.374,94.9928 498.216,86.0719 z" id="boundary" inkscape:connector-curvature="0" />
	<path style="fill:none;stroke:red;stroke-width:1px;stroke-linecap:butt;stroke-linejoin:miter;stroke-opacity:1" d="M 428.633,111.05 446.475,111.05 z" id="boundary" inkscape:connector-curvature="0" />
	<path style="fill:none;stroke:red;stroke-width:1px;stroke-linecap:butt;stroke-linejoin:miter;stroke-opacity:1" d="M 375.108,119.971 357.266,119.971 z" id="boundary" inkscape:connector-curvature="0" />
	<path style="fill:none;stroke:red;stroke-width:1px;stroke-linecap:butt;stroke-linejoin:miter;stroke-opacity:1" d="M 583.856,148.518 567.799,157.439 z" id="boundary" inkscape:connector-curvature="0" />
	<path style="fill:none;stroke:red;stroke-width:1px;stroke-linecap:butt;stroke-linejoin:miter;stroke-opacity:1" d="M 567.799,157.439 549.957,166.36 z" id="boundary" inkscape:connector-curvature="0" />
	<path style="fill:none;stroke:red;stroke-width:1px;stroke-linecap:butt;stroke-linejoin:miter;stroke-opacity:1" d="M 549.957,184.201 549.957,166.36 z" id="boundary" inkscape:connector-curvature="0" />
	<path style="fill:none;stroke:red;stroke-width:1px;stroke-linecap:butt;stroke-linejoin:miter;stroke-opacity:1" d="M 599.914,139.597 617.755,136.029 z" id="boundary" inkscape:connector-curvature="0" />
	<path style="fill:none;stroke:red;stroke-width:1px;stroke-linecap:butt;stroke-linejoin:miter;stroke-opacity:1" d="M 599.914,139.597 583.856,148.518 z" id="boundary" inkscape:connector-curvature="0" />
	<path style="fill:none;stroke:red;stroke-width:1px;stroke-linecap:butt;stroke-linejoin:miter;stroke-opacity:1" d="M 558.878,200.259 549.957,184.201 z" id="boundary" inkscape:connector-curvature="0" />
	<path style="fill:none;stroke:red;stroke-width:1px;stroke-linecap:butt;stroke-linejoin:miter;stroke-opacity:1" d="M 558.878,200.259 574.935,191.338 z" id="boundary" inkscape:connector-curvature="0" />
	<path style="fill:none;stroke:red;stroke-width:1px;stroke-linecap:butt;stroke-linejoin:miter;stroke-opacity:1" d="M 574.935,191.338 592.777,187.77 z" id="boundary" inkscape:connector-curvature="0" />
	<path style="fill:none;stroke:red;stroke-width:1px;stroke-linecap:butt;stroke-linejoin:miter;stroke-opacity:1" d="M 610.619,182.417 592.777,187.77 z" id="boundary" inkscape:connector-curvature="0" />
	<path style="fill:none;stroke:red;stroke-width:1px;stroke-linecap:butt;stroke-linejoin:miter;stroke-opacity:1" d="M 621.324,416.144 630.245,432.201 z" id="boundary" inkscape:connector-curvature="0" />
	<path style="fill:none;stroke:red;stroke-width:1px;stroke-linecap:butt;stroke-linejoin:miter;stroke-opacity:1" d="M 628.46,178.849 610.619,182.417 z" id="boundary" inkscape:connector-curvature="0" />
	<path style="fill:none;stroke:red;stroke-width:1px;stroke-linecap:butt;stroke-linejoin:miter;stroke-opacity:1" d="M 12.9209,435.77 12.9209,453.612 z" id="boundary" inkscape:connector-curvature="0" />
	<path style="fill:none;stroke:red;stroke-width:1px;stroke-linecap:butt;stroke-linejoin:miter;stroke-opacity:1" d="M 21.8417,469.669 12.9209,453.612 z" id="boundary" inkscape:connector-curvature="0" />
	<path style="fill:none;stroke:red;stroke-width:1px;stroke-linecap:butt;stroke-linejoin:miter;stroke-opacity:1" d="M 37.8993,478.59 21.8417,469.669 z" id="boundary" inkscape:connector-curvature="0" />
	<path style="fill:none;stroke:red;stroke-width:1px;stroke-linecap:butt;stroke-linejoin:miter;stroke-opacity:1" d="M 53.9568,487.511 37.8993,478.59 z" id="boundary" inkscape:connector-curvature="0" />
	<path style="fill:none;stroke:red;stroke-width:1px;stroke-linecap:butt;stroke-linejoin:miter;stroke-opacity:1" d="M 71.7986,494.647 53.9568,487.511 z" id="boundary" inkscape:connector-curvature="0" />
	<path style="fill:none;stroke:red;stroke-width:1px;stroke-linecap:butt;stroke-linejoin:miter;stroke-opacity:1" d="M 84.2878,508.921 71.7986,494.647 z" id="boundary" inkscape:connector-curvature="0" />
	<path style="fill:none;stroke:red;stroke-width:1px;stroke-linecap:butt;stroke-linejoin:miter;stroke-opacity:1" d="M 98.5612,521.41 84.2878,508.921 z" id="boundary" inkscape:connector-curvature="0" />
	<path style="fill:none;stroke:red;stroke-width:1px;stroke-linecap:butt;stroke-linejoin:miter;stroke-opacity:1" d="M 105.698,539.252 98.5612,521.41 z" id="boundary" inkscape:connector-curvature="0" />
	<path style="fill:none;stroke:red;stroke-width:1px;stroke-linecap:butt;stroke-linejoin:miter;stroke-opacity:1" d="M 105.698,539.252 114.619,555.309 z" id="boundary" inkscape:connector-curvature="0" />
	<path style="fill:none;stroke:red;stroke-width:1px;stroke-linecap:butt;stroke-linejoin:miter;stroke-opacity:1" d="M 128.892,567.799 114.619,555.309 z" id="boundary" inkscape:connector-curvature="0" />
	<path style="fill:none;stroke:red;stroke-width:1px;stroke-linecap:butt;stroke-linejoin:miter;stroke-opacity:1" d="M 139.597,582.072 128.892,567.799 z" id="boundary" inkscape:connector-curvature="0" />
	<path style="fill:none;stroke:red;stroke-width:1px;stroke-linecap:butt;stroke-linejoin:miter;stroke-opacity:1" d="M 153.871,594.561 139.597,582.072 z" id="boundary" inkscape:connector-curvature="0" />
	<path style="fill:none;stroke:red;stroke-width:1px;stroke-linecap:butt;stroke-linejoin:miter;stroke-opacity:1" d="M 153.871,594.561 166.36,608.835 z" id="boundary" inkscape:connector-curvature="0" />
	<path style="fill:none;stroke:red;stroke-width:1px;stroke-linecap:butt;stroke-linejoin:miter;stroke-opacity:1" d="M 184.201,615.971 166.36,608.835 z" id="boundary" inkscape:connector-curvature="0" />
	<path style="fill:none;stroke:red;stroke-width:1px;stroke-linecap:butt;stroke-linejoin:miter;stroke-opacity:1" d="M 196.691,630.245 184.201,615.971 z" id="boundary" inkscape:connector-curvature="0" />
	<path style="fill:none;stroke:red;stroke-width:1px;stroke-linecap:butt;stroke-linejoin:miter;stroke-opacity:1" d="M 469.669,541.036 451.827,549.957 z" id="boundary" inkscape:connector-curvature="0" />
	<path style="fill:none;stroke:red;stroke-width:1px;stroke-linecap:butt;stroke-linejoin:miter;stroke-opacity:1" d="M 451.827,549.957 439.338,564.23 z" id="boundary" inkscape:connector-curvature="0" />
	<path style="fill:none;stroke:red;stroke-width:1px;stroke-linecap:butt;stroke-linejoin:miter;stroke-opacity:1" d="M 407.223,585.64 421.496,573.151 z" id="boundary" inkscape:connector-curvature="0" />
	<path style="fill:none;stroke:red;stroke-width:1px;stroke-linecap:butt;stroke-linejoin:miter;stroke-opacity:1" d="M 439.338,564.23 421.496,573.151 z" id="boundary" inkscape:connector-curvature="0" />
	<path style="fill:none;stroke:red;stroke-width:1px;stroke-linecap:butt;stroke-linejoin:miter;stroke-opacity:1" d="M 407.223,585.64 407.223,603.482 z" id="boundary" inkscape:connector-curvature="0" />
	<path style="fill:none;stroke:red;stroke-width:1px;stroke-linecap:butt;stroke-linejoin:miter;stroke-opacity:1" d="M 212.748,639.165 196.691,630.245 z" id="boundary" inkscape:connector-curvature="0" />
	<path style="fill:none;stroke:red;stroke-width:1px;stroke-linecap:butt;stroke-linejoin:miter;stroke-opacity:1" d="M 433.986,624.892 416.144,619.54 z" id="boundary" inkscape:connector-curvature="0" />
	<path style="fill:none;stroke:red;stroke-width:1px;stroke-linecap:butt;stroke-linejoin:miter;stroke-opacity:1" d="M 416.144,619.54 407.223,603.482 z" id="boundary" inkscape:connector-curvature="0" />
	<path style="fill:none;stroke:red;stroke-width:1px;stroke-linecap:butt;stroke-linejoin:miter;stroke-opacity:1" d="M 448.259,637.381 433.986,624.892 z" id="boundary" inkscape:connector-curvature="0" />
	<path style="fill:none;stroke:red;stroke-width:1px;stroke-linecap:butt;stroke-linejoin:miter;stroke-opacity:1" d="M 448.259,637.381 464.317,646.302 z" id="boundary" inkscape:connector-curvature="0" />
	<path style="fill:none;stroke:red;stroke-width:1px;stroke-linecap:butt;stroke-linejoin:miter;stroke-opacity:1" d="M 212.748,639.165 228.806,648.086 z" id="boundary" inkscape:connector-curvature="0" />
	<path style="fill:none;stroke:red;stroke-width:1px;stroke-linecap:butt;stroke-linejoin:miter;stroke-opacity:1" d="M 228.806,648.086 244.863,657.007 z" id="boundary" inkscape:connector-curvature="0" />
	<path style="fill:none;stroke:red;stroke-width:1px;stroke-linecap:butt;stroke-linejoin:miter;stroke-opacity:1" d="M 244.863,657.007 260.921,665.928 z" id="boundary" inkscape:connector-curvature="0" />
	<path style="fill:none;stroke:red;stroke-width:1px;stroke-linecap:butt;stroke-linejoin:miter;stroke-opacity:1" d="M 260.921,665.928 276.978,674.849 z" id="boundary" inkscape:connector-curvature="0" />
	<path style="fill:none;stroke:red;stroke-width:1px;stroke-linecap:butt;stroke-linejoin:miter;stroke-opacity:1" d="M 293.036,683.77 276.978,674.849 z" id="boundary" inkscape:connector-curvature="0" />
	<path style="fill:none;stroke:red;stroke-width:1px;stroke-linecap:butt;stroke-linejoin:miter;stroke-opacity:1" d="M 293.036,683.77 309.094,692.691 z" id="boundary" inkscape:connector-curvature="0" />
	<path style="fill:none;stroke:red;stroke-width:1px;stroke-linecap:butt;stroke-linejoin:miter;stroke-opacity:1" d="M 309.094,692.691 325.151,701.612 z" id="boundary" inkscape:connector-curvature="0" />
	<path style="fill:none;stroke:red;stroke-width:1px;stroke-linecap:butt;stroke-linejoin:miter;stroke-opacity:1" d="M 341.209,710.532 325.151,701.612 z" id="boundary" inkscape:connector-curvature="0" />
	<path style="fill:none;stroke:red;stroke-width:1px;stroke-linecap:butt;stroke-linejoin:miter;stroke-opacity:1" d="M 357.266,719.453 341.209,710.532 z" id="boundary" inkscape:connector-curvature="0" />
	<path style="fill:none;stroke:red;stroke-width:1px;stroke-linecap:butt;stroke-linejoin:miter;stroke-opacity:1" d="M 357.266,719.453 375.108,726.59 z" id="boundary" inkscape:connector-curvature="0" />
	<path style="fill:none;stroke:red;stroke-width:1px;stroke-linecap:butt;stroke-linejoin:miter;stroke-opacity:1" d="M 387.597,740.863 375.108,726.59 z" id="boundary" inkscape:connector-curvature="0" />
	<path style="fill:none;stroke:red;stroke-width:1px;stroke-linecap:butt;stroke-linejoin:miter;stroke-opacity:1" d="M 387.597,740.863 405.439,746.216 z" id="boundary" inkscape:connector-curvature="0" />
	<path style="fill:none;stroke:red;stroke-width:1px;stroke-linecap:butt;stroke-linejoin:miter;stroke-opacity:1" d="M 421.496,755.137 405.439,746.216 z" id="boundary" inkscape:connector-curvature="0" />
	<path style="fill:none;stroke:red;stroke-width:1px;stroke-linecap:butt;stroke-linejoin:miter;stroke-opacity:1" d="M 421.496,755.137 433.986,769.41 z" id="boundary" inkscape:connector-curvature="0" />
	<path style="fill:none;stroke:red;stroke-width:1px;stroke-linecap:butt;stroke-linejoin:miter;stroke-opacity:1" d="M 451.827,776.547 433.986,769.41 z" id="boundary" inkscape:connector-curvature="0" />
	<path style="fill:none;stroke:red;stroke-width:1px;stroke-linecap:butt;stroke-linejoin:miter;stroke-opacity:1" d="M 458.964,794.388 451.827,776.547 z" id="boundary" inkscape:connector-curvature="0" />
	<path style="fill:none;stroke:red;stroke-width:1px;stroke-linecap:butt;stroke-linejoin:miter;stroke-opacity:1" d="M 458.964,794.388 476.806,799.741 z" id="boundary" inkscape:connector-curvature="0" />
	<path style="fill:none;stroke:red;stroke-width:1px;stroke-linecap:butt;stroke-linejoin:miter;stroke-opacity:1" d="M 469.669,541.036 487.511,541.036 z" id="boundary" inkscape:connector-curvature="0" />
	<path style="fill:none;stroke:red;stroke-width:1px;stroke-linecap:butt;stroke-linejoin:miter;stroke-opacity:1" d="M 503.568,549.957 487.511,541.036 z" id="boundary" inkscape:connector-curvature="0" />
	<path style="fill:none;stroke:red;stroke-width:1px;stroke-linecap:butt;stroke-linejoin:miter;stroke-opacity:1" d="M 503.568,549.957 514.273,564.23 z" id="boundary" inkscape:connector-curvature="0" />
	<path style="fill:none;stroke:red;stroke-width:1px;stroke-linecap:butt;stroke-linejoin:miter;stroke-opacity:1" d="M 514.273,564.23 523.194,580.288 z" id="boundary" inkscape:connector-curvature="0" />
	<path style="fill:none;stroke:red;stroke-width:1px;stroke-linecap:butt;stroke-linejoin:miter;stroke-opacity:1" d="M 535.683,594.561 523.194,580.288 z" id="boundary" inkscape:connector-curvature="0" />
	<path style="fill:none;stroke:red;stroke-width:1px;stroke-linecap:butt;stroke-linejoin:miter;stroke-opacity:1" d="M 548.173,608.835 535.683,594.561 z" id="boundary" inkscape:connector-curvature="0" />
	<path style="fill:none;stroke:red;stroke-width:1px;stroke-linecap:butt;stroke-linejoin:miter;stroke-opacity:1" d="M 476.806,660.576 464.317,646.302 z" id="boundary" inkscape:connector-curvature="0" />
	<path style="fill:none;stroke:red;stroke-width:1px;stroke-linecap:butt;stroke-linejoin:miter;stroke-opacity:1" d="M 548.173,608.835 557.094,624.892 z" id="boundary" inkscape:connector-curvature="0" />
	<path style="fill:none;stroke:red;stroke-width:1px;stroke-linecap:butt;stroke-linejoin:miter;stroke-opacity:1" d="M 585.64,541.036 603.482,541.036 z" id="boundary" inkscape:connector-curvature="0" />
	<path style="fill:none;stroke:red;stroke-width:1px;stroke-linecap:butt;stroke-linejoin:miter;stroke-opacity:1" d="M 594.561,557.094 585.64,541.036 z" id="boundary" inkscape:connector-curvature="0" />
	<path style="fill:none;stroke:red;stroke-width:1px;stroke-linecap:butt;stroke-linejoin:miter;stroke-opacity:1" d="M 621.324,541.036 603.482,541.036 z" id="boundary" inkscape:connector-curvature="0" />
	<path style="fill:none;stroke:red;stroke-width:1px;stroke-linecap:butt;stroke-linejoin:miter;stroke-opacity:1" d="M 608.835,567.799 594.561,557.094 z" id="boundary" inkscape:connector-curvature="0" />
	<path style="fill:none;stroke:red;stroke-width:1px;stroke-linecap:butt;stroke-linejoin:miter;stroke-opacity:1" d="M 621.324,582.072 608.835,567.799 z" id="boundary" inkscape:connector-curvature="0" />
	<path style="fill:none;stroke:red;stroke-width:1px;stroke-linecap:butt;stroke-linejoin:miter;stroke-opacity:1" d="M 557.094,624.892 571.367,637.381 z" id="boundary" inkscape:connector-curvature="0" />
	<path style="fill:none;stroke:red;stroke-width:1px;stroke-linecap:butt;stroke-linejoin:miter;stroke-opacity:1" d="M 578.504,655.223 571.367,637.381 z" id="boundary" inkscape:connector-curvature="0" />
	<path style="fill:none;stroke:red;stroke-width:1px;stroke-linecap:butt;stroke-linejoin:miter;stroke-opacity:1" d="M 592.777,665.928 578.504,655.223 z" id="boundary" inkscape:connector-curvature="0" />
	<path style="fill:none;stroke:red;stroke-width:1px;stroke-linecap:butt;stroke-linejoin:miter;stroke-opacity:1" d="M 621.324,582.072 630.245,598.129 z" id="boundary" inkscape:connector-curvature="0" />
	<path style="fill:none;stroke:red;stroke-width:1px;stroke-linecap:butt;stroke-linejoin:miter;stroke-opacity:1" d="M 476.806,660.576 494.647,667.712 z" id="boundary" inkscape:connector-curvature="0" />
	<path style="fill:none;stroke:red;stroke-width:1px;stroke-linecap:butt;stroke-linejoin:miter;stroke-opacity:1" d="M 494.647,667.712 505.353,681.986 z" id="boundary" inkscape:connector-curvature="0" />
	<path style="fill:none;stroke:red;stroke-width:1px;stroke-linecap:butt;stroke-linejoin:miter;stroke-opacity:1" d="M 519.626,692.691 505.353,681.986 z" id="boundary" inkscape:connector-curvature="0" />
	<path style="fill:none;stroke:red;stroke-width:1px;stroke-linecap:butt;stroke-linejoin:miter;stroke-opacity:1" d="M 532.115,706.964 519.626,692.691 z" id="boundary" inkscape:connector-curvature="0" />
	<path style="fill:none;stroke:red;stroke-width:1px;stroke-linecap:butt;stroke-linejoin:miter;stroke-opacity:1" d="M 532.115,706.964 541.036,723.022 z" id="boundary" inkscape:connector-curvature="0" />
	<path style="fill:none;stroke:red;stroke-width:1px;stroke-linecap:butt;stroke-linejoin:miter;stroke-opacity:1" d="M 492.863,808.662 505.353,822.935 z" id="boundary" inkscape:connector-curvature="0" />
	<path style="fill:none;stroke:red;stroke-width:1px;stroke-linecap:butt;stroke-linejoin:miter;stroke-opacity:1" d="M 492.863,808.662 476.806,799.741 z" id="boundary" inkscape:connector-curvature="0" />
	<path style="fill:none;stroke:red;stroke-width:1px;stroke-linecap:butt;stroke-linejoin:miter;stroke-opacity:1" d="M 505.353,822.935 519.626,835.424 z" id="boundary" inkscape:connector-curvature="0" />
	<path style="fill:none;stroke:red;stroke-width:1px;stroke-linecap:butt;stroke-linejoin:miter;stroke-opacity:1" d="M 535.683,844.345 519.626,835.424 z" id="boundary" inkscape:connector-curvature="0" />
	<path style="fill:none;stroke:red;stroke-width:1px;stroke-linecap:butt;stroke-linejoin:miter;stroke-opacity:1" d="M 551.741,835.424 535.683,844.345 z" id="boundary" inkscape:connector-curvature="0" />
	<path style="fill:none;stroke:red;stroke-width:1px;stroke-linecap:butt;stroke-linejoin:miter;stroke-opacity:1" d="M 601.698,681.986 592.777,665.928 z" id="boundary" inkscape:connector-curvature="0" />
	<path style="fill:none;stroke:red;stroke-width:1px;stroke-linecap:butt;stroke-linejoin:miter;stroke-opacity:1" d="M 612.403,696.259 601.698,681.986 z" id="boundary" inkscape:connector-curvature="0" />
	<path style="fill:none;stroke:red;stroke-width:1px;stroke-linecap:butt;stroke-linejoin:miter;stroke-opacity:1" d="M 612.403,696.259 624.892,710.532 z" id="boundary" inkscape:connector-curvature="0" />
	<path style="fill:none;stroke:red;stroke-width:1px;stroke-linecap:butt;stroke-linejoin:miter;stroke-opacity:1" d="M 549.957,739.079 541.036,723.022 z" id="boundary" inkscape:connector-curvature="0" />
	<path style="fill:none;stroke:red;stroke-width:1px;stroke-linecap:butt;stroke-linejoin:miter;stroke-opacity:1" d="M 558.878,755.137 549.957,739.079 z" id="boundary" inkscape:connector-curvature="0" />
	<path style="fill:none;stroke:red;stroke-width:1px;stroke-linecap:butt;stroke-linejoin:miter;stroke-opacity:1" d="M 567.799,771.194 558.878,755.137 z" id="boundary" inkscape:connector-curvature="0" />
	<path style="fill:none;stroke:red;stroke-width:1px;stroke-linecap:butt;stroke-linejoin:miter;stroke-opacity:1" d="M 551.741,835.424 558.878,817.583 z" id="boundary" inkscape:connector-curvature="0" />
	<path style="fill:none;stroke:red;stroke-width:1px;stroke-linecap:butt;stroke-linejoin:miter;stroke-opacity:1" d="M 567.799,789.036 558.878,817.583 z" id="boundary" inkscape:connector-curvature="0" />
	<path style="fill:none;stroke:red;stroke-width:1px;stroke-linecap:butt;stroke-linejoin:miter;stroke-opacity:1" d="M 567.799,789.036 567.799,771.194 z" id="boundary" inkscape:connector-curvature="0" />
	<path style="fill:none;stroke:red;stroke-width:1px;stroke-linecap:butt;stroke-linejoin:miter;stroke-opacity:1" d="M 624.892,710.532 633.813,726.59 z" id="boundary" inkscape:connector-curvature="0" />
	<path style="fill:none;stroke:red;stroke-width:1px;stroke-linecap:butt;stroke-linejoin:miter;stroke-opacity:1" d="M 653.439,21.8417 635.597,21.8417 z" id="boundary" inkscape:connector-curvature="0" />
	<path style="fill:none;stroke:red;stroke-width:1px;stroke-linecap:butt;stroke-linejoin:miter;stroke-opacity:1" d="M 635.597,21.8417 619.54,30.7626 z" id="boundary" inkscape:connector-curvature="0" />
	<path style="fill:none;stroke:red;stroke-width:1px;stroke-linecap:butt;stroke-linejoin:miter;stroke-opacity:1" d="M 669.496,12.9209 653.439,21.8417 z" id="boundary" inkscape:connector-curvature="0" />
	<path style="fill:none;stroke:red;stroke-width:1px;stroke-linecap:butt;stroke-linejoin:miter;stroke-opacity:1" d="M 669.496,12.9209 687.338,4 z" id="boundary" inkscape:connector-curvature="0" />
	<path style="fill:none;stroke:red;stroke-width:1px;stroke-linecap:butt;stroke-linejoin:miter;stroke-opacity:1" d="M 687.338,4 705.18,4 z" id="boundary" inkscape:connector-curvature="0" />
	<path style="fill:none;stroke:red;stroke-width:1px;stroke-linecap:butt;stroke-linejoin:miter;stroke-opacity:1" d="M 653.439,118.187 635.597,127.108 z" id="boundary" inkscape:connector-curvature="0" />
	<path style="fill:none;stroke:red;stroke-width:1px;stroke-linecap:butt;stroke-linejoin:miter;stroke-opacity:1" d="M 671.281,112.835 687.338,103.914 z" id="boundary" inkscape:connector-curvature="0" />
	<path style="fill:none;stroke:red;stroke-width:1px;stroke-linecap:butt;stroke-linejoin:miter;stroke-opacity:1" d="M 671.281,112.835 653.439,118.187 z" id="boundary" inkscape:connector-curvature="0" />
	<path style="fill:none;stroke:red;stroke-width:1px;stroke-linecap:butt;stroke-linejoin:miter;stroke-opacity:1" d="M 687.338,103.914 705.18,103.914 z" id="boundary" inkscape:connector-curvature="0" />
	<path style="fill:none;stroke:red;stroke-width:1px;stroke-linecap:butt;stroke-linejoin:miter;stroke-opacity:1" d="M 705.18,4 723.022,4 z" id="boundary" inkscape:connector-curvature="0" />
	<path style="fill:none;stroke:red;stroke-width:1px;stroke-linecap:butt;stroke-linejoin:miter;stroke-opacity:1" d="M 740.863,4 758.705,4 z" id="boundary" inkscape:connector-curvature="0" />
	<path style="fill:none;stroke:red;stroke-width:1px;stroke-linecap:butt;stroke-linejoin:miter;stroke-opacity:1" d="M 758.705,4 764.058,21.8417 z" id="boundary" inkscape:connector-curvature="0" />
	<path style="fill:none;stroke:red;stroke-width:1px;stroke-linecap:butt;stroke-linejoin:miter;stroke-opacity:1" d="M 772.978,37.8993 764.058,59.3094 z" id="boundary" inkscape:connector-curvature="0" />
	<path style="fill:none;stroke:red;stroke-width:1px;stroke-linecap:butt;stroke-linejoin:miter;stroke-opacity:1" d="M 723.022,4 740.863,4 z" id="boundary" inkscape:connector-curvature="0" />
	<path style="fill:none;stroke:red;stroke-width:1px;stroke-linecap:butt;stroke-linejoin:miter;stroke-opacity:1" d="M 705.18,103.914 721.237,94.9928 z" id="boundary" inkscape:connector-curvature="0" />
	<path style="fill:none;stroke:red;stroke-width:1px;stroke-linecap:butt;stroke-linejoin:miter;stroke-opacity:1" d="M 737.295,86.0719 721.237,94.9928 z" id="boundary" inkscape:connector-curvature="0" />
	<path style="fill:none;stroke:red;stroke-width:1px;stroke-linecap:butt;stroke-linejoin:miter;stroke-opacity:1" d="M 755.137,77.1511 737.295,86.0719 z" id="boundary" inkscape:connector-curvature="0" />
	<path style="fill:none;stroke:red;stroke-width:1px;stroke-linecap:butt;stroke-linejoin:miter;stroke-opacity:1" d="M 783.683,146.734 767.626,155.655 z" id="boundary" inkscape:connector-curvature="0" />
	<path style="fill:none;stroke:red;stroke-width:1px;stroke-linecap:butt;stroke-linejoin:miter;stroke-opacity:1" d="M 755.137,77.1511 764.058,59.3094 z" id="boundary" inkscape:connector-curvature="0" />
	<path style="fill:none;stroke:red;stroke-width:1px;stroke-linecap:butt;stroke-linejoin:miter;stroke-opacity:1" d="M 764.058,21.8417 772.978,37.8993 z" id="boundary" inkscape:connector-curvature="0" />
	<path style="fill:none;stroke:red;stroke-width:1px;stroke-linecap:butt;stroke-linejoin:miter;stroke-opacity:1" d="M 767.626,155.655 751.568,164.576 z" id="boundary" inkscape:connector-curvature="0" />
	<path style="fill:none;stroke:red;stroke-width:1px;stroke-linecap:butt;stroke-linejoin:miter;stroke-opacity:1" d="M 628.46,178.849 646.302,173.496 z" id="boundary" inkscape:connector-curvature="0" />
	<path style="fill:none;stroke:red;stroke-width:1px;stroke-linecap:butt;stroke-linejoin:miter;stroke-opacity:1" d="M 664.144,173.496 680.201,164.576 z" id="boundary" inkscape:connector-curvature="0" />
	<path style="fill:none;stroke:red;stroke-width:1px;stroke-linecap:butt;stroke-linejoin:miter;stroke-opacity:1" d="M 664.144,173.496 646.302,173.496 z" id="boundary" inkscape:connector-curvature="0" />
	<path style="fill:none;stroke:red;stroke-width:1px;stroke-linecap:butt;stroke-linejoin:miter;stroke-opacity:1" d="M 698.043,273.41 680.201,273.41 z" id="boundary" inkscape:connector-curvature="0" />
	<path style="fill:none;stroke:red;stroke-width:1px;stroke-linecap:butt;stroke-linejoin:miter;stroke-opacity:1" d="M 680.201,164.576 698.043,164.576 z" id="boundary" inkscape:connector-curvature="0" />
	<path style="fill:none;stroke:red;stroke-width:1px;stroke-linecap:butt;stroke-linejoin:miter;stroke-opacity:1" d="M 680.201,273.41 664.144,282.331 z" id="boundary" inkscape:connector-curvature="0" />
	<path style="fill:none;stroke:red;stroke-width:1px;stroke-linecap:butt;stroke-linejoin:miter;stroke-opacity:1" d="M 630.245,291.252 648.086,291.252 z" id="boundary" inkscape:connector-curvature="0" />
	<path style="fill:none;stroke:red;stroke-width:1px;stroke-linecap:butt;stroke-linejoin:miter;stroke-opacity:1" d="M 648.086,291.252 664.144,282.331 z" id="boundary" inkscape:connector-curvature="0" />
	<path style="fill:none;stroke:red;stroke-width:1px;stroke-linecap:butt;stroke-linejoin:miter;stroke-opacity:1" d="M 639.165,307.309 630.245,291.252 z" id="boundary" inkscape:connector-curvature="0" />
	<path style="fill:none;stroke:red;stroke-width:1px;stroke-linecap:butt;stroke-linejoin:miter;stroke-opacity:1" d="M 657.007,307.309 639.165,307.309 z" id="boundary" inkscape:connector-curvature="0" />
	<path style="fill:none;stroke:red;stroke-width:1px;stroke-linecap:butt;stroke-linejoin:miter;stroke-opacity:1" d="M 674.849,307.309 657.007,307.309 z" id="boundary" inkscape:connector-curvature="0" />
	<path style="fill:none;stroke:red;stroke-width:1px;stroke-linecap:butt;stroke-linejoin:miter;stroke-opacity:1" d="M 692.691,301.957 674.849,307.309 z" id="boundary" inkscape:connector-curvature="0" />
	<path style="fill:none;stroke:red;stroke-width:1px;stroke-linecap:butt;stroke-linejoin:miter;stroke-opacity:1" d="M 715.885,164.576 698.043,164.576 z" id="boundary" inkscape:connector-curvature="0" />
	<path style="fill:none;stroke:red;stroke-width:1px;stroke-linecap:butt;stroke-linejoin:miter;stroke-opacity:1" d="M 715.885,164.576 733.727,164.576 z" id="boundary" inkscape:connector-curvature="0" />
	<path style="fill:none;stroke:red;stroke-width:1px;stroke-linecap:butt;stroke-linejoin:miter;stroke-opacity:1" d="M 733.727,164.576 751.568,164.576 z" id="boundary" inkscape:connector-curvature="0" />
	<path style="fill:none;stroke:red;stroke-width:1px;stroke-linecap:butt;stroke-linejoin:miter;stroke-opacity:1" d="M 733.727,264.489 749.784,255.568 z" id="boundary" inkscape:connector-curvature="0" />
	<path style="fill:none;stroke:red;stroke-width:1px;stroke-linecap:butt;stroke-linejoin:miter;stroke-opacity:1" d="M 767.626,255.568 749.784,255.568 z" id="boundary" inkscape:connector-curvature="0" />
	<path style="fill:none;stroke:red;stroke-width:1px;stroke-linecap:butt;stroke-linejoin:miter;stroke-opacity:1" d="M 733.727,264.489 715.885,269.842 z" id="boundary" inkscape:connector-curvature="0" />
	<path style="fill:none;stroke:red;stroke-width:1px;stroke-linecap:butt;stroke-linejoin:miter;stroke-opacity:1" d="M 698.043,273.41 715.885,269.842 z" id="boundary" inkscape:connector-curvature="0" />
	<path style="fill:none;stroke:red;stroke-width:1px;stroke-linecap:butt;stroke-linejoin:miter;stroke-opacity:1" d="M 710.532,298.388 692.691,301.957 z" id="boundary" inkscape:connector-curvature="0" />
	<path style="fill:none;stroke:red;stroke-width:1px;stroke-linecap:butt;stroke-linejoin:miter;stroke-opacity:1" d="M 728.374,298.388 710.532,298.388 z" id="boundary" inkscape:connector-curvature="0" />
	<path style="fill:none;stroke:red;stroke-width:1px;stroke-linecap:butt;stroke-linejoin:miter;stroke-opacity:1" d="M 746.216,298.388 728.374,298.388 z" id="boundary" inkscape:connector-curvature="0" />
	<path style="fill:none;stroke:red;stroke-width:1px;stroke-linecap:butt;stroke-linejoin:miter;stroke-opacity:1" d="M 764.058,298.388 746.216,298.388 z" id="boundary" inkscape:connector-curvature="0" />
	<path style="fill:none;stroke:red;stroke-width:1px;stroke-linecap:butt;stroke-linejoin:miter;stroke-opacity:1" d="M 801.525,146.734 783.683,146.734 z" id="boundary" inkscape:connector-curvature="0" />
	<path style="fill:none;stroke:red;stroke-width:1px;stroke-linecap:butt;stroke-linejoin:miter;stroke-opacity:1" d="M 819.367,139.597 801.525,146.734 z" id="boundary" inkscape:connector-curvature="0" />
	<path style="fill:none;stroke:red;stroke-width:1px;stroke-linecap:butt;stroke-linejoin:miter;stroke-opacity:1" d="M 872.892,137.813 855.05,137.813 z" id="boundary" inkscape:connector-curvature="0" />
	<path style="fill:none;stroke:red;stroke-width:1px;stroke-linecap:butt;stroke-linejoin:miter;stroke-opacity:1" d="M 837.209,137.813 819.367,139.597 z" id="boundary" inkscape:connector-curvature="0" />
	<path style="fill:none;stroke:red;stroke-width:1px;stroke-linecap:butt;stroke-linejoin:miter;stroke-opacity:1" d="M 855.05,137.813 837.209,137.813 z" id="boundary" inkscape:connector-curvature="0" />
	<path style="fill:none;stroke:red;stroke-width:1px;stroke-linecap:butt;stroke-linejoin:miter;stroke-opacity:1" d="M 785.468,255.568 767.626,255.568 z" id="boundary" inkscape:connector-curvature="0" />
	<path style="fill:none;stroke:red;stroke-width:1px;stroke-linecap:butt;stroke-linejoin:miter;stroke-opacity:1" d="M 853.266,237.727 835.424,237.727 z" id="boundary" inkscape:connector-curvature="0" />
	<path style="fill:none;stroke:red;stroke-width:1px;stroke-linecap:butt;stroke-linejoin:miter;stroke-opacity:1" d="M 835.424,237.727 819.367,246.647 z" id="boundary" inkscape:connector-curvature="0" />
	<path style="fill:none;stroke:red;stroke-width:1px;stroke-linecap:butt;stroke-linejoin:miter;stroke-opacity:1" d="M 872.892,137.813 890.734,137.813 z" id="boundary" inkscape:connector-curvature="0" />
	<path style="fill:none;stroke:red;stroke-width:1px;stroke-linecap:butt;stroke-linejoin:miter;stroke-opacity:1" d="M 908.576,137.813 922.849,150.302 z" id="boundary" inkscape:connector-curvature="0" />
	<path style="fill:none;stroke:red;stroke-width:1px;stroke-linecap:butt;stroke-linejoin:miter;stroke-opacity:1" d="M 890.734,137.813 908.576,137.813 z" id="boundary" inkscape:connector-curvature="0" />
	<path style="fill:none;stroke:red;stroke-width:1px;stroke-linecap:butt;stroke-linejoin:miter;stroke-opacity:1" d="M 922.849,150.302 929.986,168.144 z" id="boundary" inkscape:connector-curvature="0" />
	<path style="fill:none;stroke:red;stroke-width:1px;stroke-linecap:butt;stroke-linejoin:miter;stroke-opacity:1" d="M 929.986,168.144 929.986,198.475 z" id="boundary" inkscape:connector-curvature="0" />
	<path style="fill:none;stroke:red;stroke-width:1px;stroke-linecap:butt;stroke-linejoin:miter;stroke-opacity:1" d="M 929.986,198.475 921.065,216.317 z" id="boundary" inkscape:connector-curvature="0" />
	<path style="fill:none;stroke:red;stroke-width:1px;stroke-linecap:butt;stroke-linejoin:miter;stroke-opacity:1" d="M 903.223,225.237 921.065,216.317 z" id="boundary" inkscape:connector-curvature="0" />
	<path style="fill:none;stroke:red;stroke-width:1px;stroke-linecap:butt;stroke-linejoin:miter;stroke-opacity:1" d="M 903.223,225.237 888.95,237.727 z" id="boundary" inkscape:connector-curvature="0" />
	<path style="fill:none;stroke:red;stroke-width:1px;stroke-linecap:butt;stroke-linejoin:miter;stroke-opacity:1" d="M 871.108,237.727 853.266,237.727 z" id="boundary" inkscape:connector-curvature="0" />
	<path style="fill:none;stroke:red;stroke-width:1px;stroke-linecap:butt;stroke-linejoin:miter;stroke-opacity:1" d="M 785.468,255.568 801.525,246.647 z" id="boundary" inkscape:connector-curvature="0" />
	<path style="fill:none;stroke:red;stroke-width:1px;stroke-linecap:butt;stroke-linejoin:miter;stroke-opacity:1" d="M 819.367,246.647 801.525,246.647 z" id="boundary" inkscape:connector-curvature="0" />
	<path style="fill:none;stroke:red;stroke-width:1px;stroke-linecap:butt;stroke-linejoin:miter;stroke-opacity:1" d="M 817.583,293.036 799.741,298.388 z" id="boundary" inkscape:connector-curvature="0" />
	<path style="fill:none;stroke:red;stroke-width:1px;stroke-linecap:butt;stroke-linejoin:miter;stroke-opacity:1" d="M 835.424,289.468 817.583,293.036 z" id="boundary" inkscape:connector-curvature="0" />
	<path style="fill:none;stroke:red;stroke-width:1px;stroke-linecap:butt;stroke-linejoin:miter;stroke-opacity:1" d="M 799.741,298.388 781.899,298.388 z" id="boundary" inkscape:connector-curvature="0" />
	<path style="fill:none;stroke:red;stroke-width:1px;stroke-linecap:butt;stroke-linejoin:miter;stroke-opacity:1" d="M 764.058,298.388 781.899,298.388 z" id="boundary" inkscape:connector-curvature="0" />
	<path style="fill:none;stroke:red;stroke-width:1px;stroke-linecap:butt;stroke-linejoin:miter;stroke-opacity:1" d="M 871.108,289.468 853.266,289.468 z" id="boundary" inkscape:connector-curvature="0" />
	<path style="fill:none;stroke:red;stroke-width:1px;stroke-linecap:butt;stroke-linejoin:miter;stroke-opacity:1" d="M 835.424,289.468 853.266,289.468 z" id="boundary" inkscape:connector-curvature="0" />
	<path style="fill:none;stroke:red;stroke-width:1px;stroke-linecap:butt;stroke-linejoin:miter;stroke-opacity:1" d="M 924.633,289.468 906.791,289.468 z" id="boundary" inkscape:connector-curvature="0" />
	<path style="fill:none;stroke:red;stroke-width:1px;stroke-linecap:butt;stroke-linejoin:miter;stroke-opacity:1" d="M 871.108,289.468 888.95,289.468 z" id="boundary" inkscape:connector-curvature="0" />
	<path style="fill:none;stroke:red;stroke-width:1px;stroke-linecap:butt;stroke-linejoin:miter;stroke-opacity:1" d="M 906.791,289.468 888.95,289.468 z" id="boundary" inkscape:connector-curvature="0" />
	<path style="fill:none;stroke:red;stroke-width:1px;stroke-linecap:butt;stroke-linejoin:miter;stroke-opacity:1" d="M 871.108,237.727 888.95,237.727 z" id="boundary" inkscape:connector-curvature="0" />
	<path style="fill:none;stroke:red;stroke-width:1px;stroke-linecap:butt;stroke-linejoin:miter;stroke-opacity:1" d="M 924.633,289.468 942.475,289.468 z" id="boundary" inkscape:connector-curvature="0" />
	<path style="fill:none;stroke:red;stroke-width:1px;stroke-linecap:butt;stroke-linejoin:miter;stroke-opacity:1" d="M 942.475,289.468 960.317,289.468 z" id="boundary" inkscape:connector-curvature="0" />
	<path style="fill:none;stroke:red;stroke-width:1px;stroke-linecap:butt;stroke-linejoin:miter;stroke-opacity:1" d="M 978.158,294.82 960.317,289.468 z" id="boundary" inkscape:connector-curvature="0" />
	<path style="fill:none;stroke:red;stroke-width:1px;stroke-linecap:butt;stroke-linejoin:miter;stroke-opacity:1" d="M 987.079,310.878 996,326.935 z" id="boundary" inkscape:connector-curvature="0" />
	<path style="fill:none;stroke:red;stroke-width:1px;stroke-linecap:butt;stroke-linejoin:miter;stroke-opacity:1" d="M 978.158,294.82 987.079,310.878 z" id="boundary" inkscape:connector-curvature="0" />
	<path style="fill:none;stroke:red;stroke-width:1px;stroke-linecap:butt;stroke-linejoin:miter;stroke-opacity:1" d="M 996,326.935 992.432,359.05 z" id="boundary" inkscape:connector-curvature="0" />
	<path style="fill:none;stroke:red;stroke-width:1px;stroke-linecap:butt;stroke-linejoin:miter;stroke-opacity:1" d="M 655.223,407.223 639.165,416.144 z" id="boundary" inkscape:connector-curvature="0" />
	<path style="fill:none;stroke:red;stroke-width:1px;stroke-linecap:butt;stroke-linejoin:miter;stroke-opacity:1" d="M 621.324,416.144 639.165,416.144 z" id="boundary" inkscape:connector-curvature="0" />
	<path style="fill:none;stroke:red;stroke-width:1px;stroke-linecap:butt;stroke-linejoin:miter;stroke-opacity:1" d="M 671.281,416.144 655.223,407.223 z" id="boundary" inkscape:connector-curvature="0" />
	<path style="fill:none;stroke:red;stroke-width:1px;stroke-linecap:butt;stroke-linejoin:miter;stroke-opacity:1" d="M 671.281,416.144 687.338,407.223 z" id="boundary" inkscape:connector-curvature="0" />
	<path style="fill:none;stroke:red;stroke-width:1px;stroke-linecap:butt;stroke-linejoin:miter;stroke-opacity:1" d="M 646.302,441.122 630.245,432.201 z" id="boundary" inkscape:connector-curvature="0" />
	<path style="fill:none;stroke:red;stroke-width:1px;stroke-linecap:butt;stroke-linejoin:miter;stroke-opacity:1" d="M 646.302,441.122 664.144,441.122 z" id="boundary" inkscape:connector-curvature="0" />
	<path style="fill:none;stroke:red;stroke-width:1px;stroke-linecap:butt;stroke-linejoin:miter;stroke-opacity:1" d="M 639.165,541.036 621.324,541.036 z" id="boundary" inkscape:connector-curvature="0" />
	<path style="fill:none;stroke:red;stroke-width:1px;stroke-linecap:butt;stroke-linejoin:miter;stroke-opacity:1" d="M 681.986,441.122 664.144,441.122 z" id="boundary" inkscape:connector-curvature="0" />
	<path style="fill:none;stroke:red;stroke-width:1px;stroke-linecap:butt;stroke-linejoin:miter;stroke-opacity:1" d="M 681.986,441.122 699.827,444.691 z" id="boundary" inkscape:connector-curvature="0" />
	<path style="fill:none;stroke:red;stroke-width:1px;stroke-linecap:butt;stroke-linejoin:miter;stroke-opacity:1" d="M 687.338,407.223 705.18,407.223 z" id="boundary" inkscape:connector-curvature="0" />
	<path style="fill:none;stroke:red;stroke-width:1px;stroke-linecap:butt;stroke-linejoin:miter;stroke-opacity:1" d="M 723.022,407.223 705.18,407.223 z" id="boundary" inkscape:connector-curvature="0" />
	<path style="fill:none;stroke:red;stroke-width:1px;stroke-linecap:butt;stroke-linejoin:miter;stroke-opacity:1" d="M 740.863,407.223 758.705,407.223 z" id="boundary" inkscape:connector-curvature="0" />
	<path style="fill:none;stroke:red;stroke-width:1px;stroke-linecap:butt;stroke-linejoin:miter;stroke-opacity:1" d="M 740.863,407.223 723.022,407.223 z" id="boundary" inkscape:connector-curvature="0" />
	<path style="fill:none;stroke:red;stroke-width:1px;stroke-linecap:butt;stroke-linejoin:miter;stroke-opacity:1" d="M 717.669,450.043 699.827,444.691 z" id="boundary" inkscape:connector-curvature="0" />
	<path style="fill:none;stroke:red;stroke-width:1px;stroke-linecap:butt;stroke-linejoin:miter;stroke-opacity:1" d="M 717.669,450.043 735.511,453.612 z" id="boundary" inkscape:connector-curvature="0" />
	<path style="fill:none;stroke:red;stroke-width:1px;stroke-linecap:butt;stroke-linejoin:miter;stroke-opacity:1" d="M 735.511,453.612 753.353,458.964 z" id="boundary" inkscape:connector-curvature="0" />
	<path style="fill:none;stroke:red;stroke-width:1px;stroke-linecap:butt;stroke-linejoin:miter;stroke-opacity:1" d="M 642.734,612.403 657.007,624.892 z" id="boundary" inkscape:connector-curvature="0" />
	<path style="fill:none;stroke:red;stroke-width:1px;stroke-linecap:butt;stroke-linejoin:miter;stroke-opacity:1" d="M 630.245,598.129 642.734,612.403 z" id="boundary" inkscape:connector-curvature="0" />
	<path style="fill:none;stroke:red;stroke-width:1px;stroke-linecap:butt;stroke-linejoin:miter;stroke-opacity:1" d="M 657.007,624.892 665.928,640.95 z" id="boundary" inkscape:connector-curvature="0" />
	<path style="fill:none;stroke:red;stroke-width:1px;stroke-linecap:butt;stroke-linejoin:miter;stroke-opacity:1" d="M 639.165,541.036 657.007,544.604 z" id="boundary" inkscape:connector-curvature="0" />
	<path style="fill:none;stroke:red;stroke-width:1px;stroke-linecap:butt;stroke-linejoin:miter;stroke-opacity:1" d="M 657.007,544.604 674.849,549.957 z" id="boundary" inkscape:connector-curvature="0" />
	<path style="fill:none;stroke:red;stroke-width:1px;stroke-linecap:butt;stroke-linejoin:miter;stroke-opacity:1" d="M 633.813,726.59 646.302,740.863 z" id="boundary" inkscape:connector-curvature="0" />
	<path style="fill:none;stroke:red;stroke-width:1px;stroke-linecap:butt;stroke-linejoin:miter;stroke-opacity:1" d="M 655.223,756.921 667.712,771.194 z" id="boundary" inkscape:connector-curvature="0" />
	<path style="fill:none;stroke:red;stroke-width:1px;stroke-linecap:butt;stroke-linejoin:miter;stroke-opacity:1" d="M 646.302,740.863 655.223,756.921 z" id="boundary" inkscape:connector-curvature="0" />
	<path style="fill:none;stroke:red;stroke-width:1px;stroke-linecap:butt;stroke-linejoin:miter;stroke-opacity:1" d="M 681.986,758.705 667.712,771.194 z" id="boundary" inkscape:connector-curvature="0" />
	<path style="fill:none;stroke:red;stroke-width:1px;stroke-linecap:butt;stroke-linejoin:miter;stroke-opacity:1" d="M 665.928,640.95 676.633,655.223 z" id="boundary" inkscape:connector-curvature="0" />
	<path style="fill:none;stroke:red;stroke-width:1px;stroke-linecap:butt;stroke-linejoin:miter;stroke-opacity:1" d="M 674.849,549.957 692.691,549.957 z" id="boundary" inkscape:connector-curvature="0" />
	<path style="fill:none;stroke:red;stroke-width:1px;stroke-linecap:butt;stroke-linejoin:miter;stroke-opacity:1" d="M 692.691,549.957 710.532,549.957 z" id="boundary" inkscape:connector-curvature="0" />
	<path style="fill:none;stroke:red;stroke-width:1px;stroke-linecap:butt;stroke-linejoin:miter;stroke-opacity:1" d="M 676.633,655.223 690.906,667.712 z" id="boundary" inkscape:connector-curvature="0" />
	<path style="fill:none;stroke:red;stroke-width:1px;stroke-linecap:butt;stroke-linejoin:miter;stroke-opacity:1" d="M 728.374,549.957 710.532,549.957 z" id="boundary" inkscape:connector-curvature="0" />
	<path style="fill:none;stroke:red;stroke-width:1px;stroke-linecap:butt;stroke-linejoin:miter;stroke-opacity:1" d="M 728.374,549.957 746.216,549.957 z" id="boundary" inkscape:connector-curvature="0" />
	<path style="fill:none;stroke:red;stroke-width:1px;stroke-linecap:butt;stroke-linejoin:miter;stroke-opacity:1" d="M 690.906,667.712 701.612,681.986 z" id="boundary" inkscape:connector-curvature="0" />
	<path style="fill:none;stroke:red;stroke-width:1px;stroke-linecap:butt;stroke-linejoin:miter;stroke-opacity:1" d="M 696.259,746.216 681.986,758.705 z" id="boundary" inkscape:connector-curvature="0" />
	<path style="fill:none;stroke:red;stroke-width:1px;stroke-linecap:butt;stroke-linejoin:miter;stroke-opacity:1" d="M 712.317,737.295 696.259,746.216 z" id="boundary" inkscape:connector-curvature="0" />
	<path style="fill:none;stroke:red;stroke-width:1px;stroke-linecap:butt;stroke-linejoin:miter;stroke-opacity:1" d="M 710.532,698.043 701.612,681.986 z" id="boundary" inkscape:connector-curvature="0" />
	<path style="fill:none;stroke:red;stroke-width:1px;stroke-linecap:butt;stroke-linejoin:miter;stroke-opacity:1" d="M 724.806,710.532 710.532,698.043 z" id="boundary" inkscape:connector-curvature="0" />
	<path style="fill:none;stroke:red;stroke-width:1px;stroke-linecap:butt;stroke-linejoin:miter;stroke-opacity:1" d="M 724.806,710.532 712.317,737.295 z" id="boundary" inkscape:connector-curvature="0" />
	<path style="fill:none;stroke:red;stroke-width:1px;stroke-linecap:butt;stroke-linejoin:miter;stroke-opacity:1" d="M 776.547,407.223 758.705,407.223 z" id="boundary" inkscape:connector-curvature="0" />
	<path style="fill:none;stroke:red;stroke-width:1px;stroke-linecap:butt;stroke-linejoin:miter;stroke-opacity:1" d="M 792.604,398.302 776.547,407.223 z" id="boundary" inkscape:connector-curvature="0" />
	<path style="fill:none;stroke:red;stroke-width:1px;stroke-linecap:butt;stroke-linejoin:miter;stroke-opacity:1" d="M 810.446,398.302 792.604,398.302 z" id="boundary" inkscape:connector-curvature="0" />
	<path style="fill:none;stroke:red;stroke-width:1px;stroke-linecap:butt;stroke-linejoin:miter;stroke-opacity:1" d="M 810.446,398.302 828.288,398.302 z" id="boundary" inkscape:connector-curvature="0" />
	<path style="fill:none;stroke:red;stroke-width:1px;stroke-linecap:butt;stroke-linejoin:miter;stroke-opacity:1" d="M 828.288,398.302 846.129,398.302 z" id="boundary" inkscape:connector-curvature="0" />
	<path style="fill:none;stroke:red;stroke-width:1px;stroke-linecap:butt;stroke-linejoin:miter;stroke-opacity:1" d="M 753.353,458.964 771.194,458.964 z" id="boundary" inkscape:connector-curvature="0" />
	<path style="fill:none;stroke:red;stroke-width:1px;stroke-linecap:butt;stroke-linejoin:miter;stroke-opacity:1" d="M 789.036,458.964 771.194,458.964 z" id="boundary" inkscape:connector-curvature="0" />
	<path style="fill:none;stroke:red;stroke-width:1px;stroke-linecap:butt;stroke-linejoin:miter;stroke-opacity:1" d="M 806.878,458.964 789.036,458.964 z" id="boundary" inkscape:connector-curvature="0" />
	<path style="fill:none;stroke:red;stroke-width:1px;stroke-linecap:butt;stroke-linejoin:miter;stroke-opacity:1" d="M 822.935,450.043 806.878,458.964 z" id="boundary" inkscape:connector-curvature="0" />
	<path style="fill:none;stroke:red;stroke-width:1px;stroke-linecap:butt;stroke-linejoin:miter;stroke-opacity:1" d="M 840.777,450.043 822.935,450.043 z" id="boundary" inkscape:connector-curvature="0" />
	<path style="fill:none;stroke:red;stroke-width:1px;stroke-linecap:butt;stroke-linejoin:miter;stroke-opacity:1" d="M 881.813,398.302 863.971,398.302 z" id="boundary" inkscape:connector-curvature="0" />
	<path style="fill:none;stroke:red;stroke-width:1px;stroke-linecap:butt;stroke-linejoin:miter;stroke-opacity:1" d="M 863.971,398.302 846.129,398.302 z" id="boundary" inkscape:connector-curvature="0" />
	<path style="fill:none;stroke:red;stroke-width:1px;stroke-linecap:butt;stroke-linejoin:miter;stroke-opacity:1" d="M 899.655,398.302 881.813,398.302 z" id="boundary" inkscape:connector-curvature="0" />
	<path style="fill:none;stroke:red;stroke-width:1px;stroke-linecap:butt;stroke-linejoin:miter;stroke-opacity:1" d="M 917.496,398.302 899.655,398.302 z" id="boundary" inkscape:connector-curvature="0" />
	<path style="fill:none;stroke:red;stroke-width:1px;stroke-linecap:butt;stroke-linejoin:miter;stroke-opacity:1" d="M 935.338,398.302 917.496,398.302 z" id="boundary" inkscape:connector-curvature="0" />
	<path style="fill:none;stroke:red;stroke-width:1px;stroke-linecap:butt;stroke-linejoin:miter;stroke-opacity:1" d="M 992.432,359.05 983.511,376.892 z" id="boundary" inkscape:connector-curvature="0" />
	<path style="fill:none;stroke:red;stroke-width:1px;stroke-linecap:butt;stroke-linejoin:miter;stroke-opacity:1" d="M 935.338,398.302 951.396,389.381 z" id="boundary" inkscape:connector-curvature="0" />
	<path style="fill:none;stroke:red;stroke-width:1px;stroke-linecap:butt;stroke-linejoin:miter;stroke-opacity:1" d="M 969.237,389.381 983.511,376.892 z" id="boundary" inkscape:connector-curvature="0" />
	<path style="fill:none;stroke:red;stroke-width:1px;stroke-linecap:butt;stroke-linejoin:miter;stroke-opacity:1" d="M 969.237,389.381 951.396,389.381 z" id="boundary" inkscape:connector-curvature="0" />
	<path style="fill:none;stroke:red;stroke-width:1px;stroke-linecap:butt;stroke-linejoin:miter;stroke-opacity:1" d="M 858.619,450.043 876.46,450.043 z" id="boundary" inkscape:connector-curvature="0" />
	<path style="fill:none;stroke:red;stroke-width:1px;stroke-linecap:butt;stroke-linejoin:miter;stroke-opacity:1" d="M 894.302,451.827 876.46,450.043 z" id="boundary" inkscape:connector-curvature="0" />
	<path style="fill:none;stroke:red;stroke-width:1px;stroke-linecap:butt;stroke-linejoin:miter;stroke-opacity:1" d="M 840.777,450.043 858.619,450.043 z" id="boundary" inkscape:connector-curvature="0" />
	<path style="fill:none;stroke:red;stroke-width:1px;stroke-linecap:butt;stroke-linejoin:miter;stroke-opacity:1" d="M 912.144,458.964 894.302,451.827 z" id="boundary" inkscape:connector-curvature="0" />
	<path style="fill:none;stroke:red;stroke-width:1px;stroke-linecap:butt;stroke-linejoin:miter;stroke-opacity:1" d="M 746.216,549.957 764.058,549.957 z" id="boundary" inkscape:connector-curvature="0" />
	<path style="fill:none;stroke:red;stroke-width:1px;stroke-linecap:butt;stroke-linejoin:miter;stroke-opacity:1" d="M 781.899,549.957 764.058,549.957 z" id="boundary" inkscape:connector-curvature="0" />
	<path style="fill:none;stroke:red;stroke-width:1px;stroke-linecap:butt;stroke-linejoin:miter;stroke-opacity:1" d="M 781.899,549.957 797.957,558.878 z" id="boundary" inkscape:connector-curvature="0" />
	<path style="fill:none;stroke:red;stroke-width:1px;stroke-linecap:butt;stroke-linejoin:miter;stroke-opacity:1" d="M 797.957,558.878 815.799,558.878 z" id="boundary" inkscape:connector-curvature="0" />
	<path style="fill:none;stroke:red;stroke-width:1px;stroke-linecap:butt;stroke-linejoin:miter;stroke-opacity:1" d="M 815.799,558.878 831.856,549.957 z" id="boundary" inkscape:connector-curvature="0" />
	<path style="fill:none;stroke:red;stroke-width:1px;stroke-linecap:butt;stroke-linejoin:miter;stroke-opacity:1" d="M 849.698,549.957 831.856,549.957 z" id="boundary" inkscape:connector-curvature="0" />
	<path style="fill:none;stroke:red;stroke-width:1px;stroke-linecap:butt;stroke-linejoin:miter;stroke-opacity:1" d="M 849.698,549.957 867.54,549.957 z" id="boundary" inkscape:connector-curvature="0" />
	<path style="fill:none;stroke:red;stroke-width:1px;stroke-linecap:butt;stroke-linejoin:miter;stroke-opacity:1" d="M 928.201,467.885 912.144,458.964 z" id="boundary" inkscape:connector-curvature="0" />
	<path style="fill:none;stroke:red;stroke-width:1px;stroke-linecap:butt;stroke-linejoin:miter;stroke-opacity:1" d="M 940.691,482.158 928.201,467.885 z" id="boundary" inkscape:connector-curvature="0" />
	<path style="fill:none;stroke:red;stroke-width:1px;stroke-linecap:butt;stroke-linejoin:miter;stroke-opacity:1" d="M 940.691,482.158 942.475,500 z" id="boundary" inkscape:connector-curvature="0" />
	<path style="fill:none;stroke:red;stroke-width:1px;stroke-linecap:butt;stroke-linejoin:miter;stroke-opacity:1" d="M 933.554,523.194 942.475,500 z" id="boundary" inkscape:connector-curvature="0" />
	<path style="fill:none;stroke:red;stroke-width:1px;stroke-linecap:butt;stroke-linejoin:miter;stroke-opacity:1" d="M 921.065,537.468 903.223,546.388 z" id="boundary" inkscape:connector-curvature="0" />
	<path style="fill:none;stroke:red;stroke-width:1px;stroke-linecap:butt;stroke-linejoin:miter;stroke-opacity:1" d="M 903.223,546.388 885.381,549.957 z" id="boundary" inkscape:connector-curvature="0" />
	<path style="fill:none;stroke:red;stroke-width:1px;stroke-linecap:butt;stroke-linejoin:miter;stroke-opacity:1" d="M 867.54,549.957 885.381,549.957 z" id="boundary" inkscape:connector-curvature="0" />
	<path style="fill:none;stroke:red;stroke-width:1px;stroke-linecap:butt;stroke-linejoin:miter;stroke-opacity:1" d="M 921.065,537.468 933.554,523.194 z" id="boundary" inkscape:connector-curvature="0" />
	<circle cx="4" cy="169.928" r="4" fill="#0" id="circle0"/>
	<circle cx="4" cy="187.77" r="4" fill="#0" id="circle1"/>
	<circle cx="4" cy="205.612" r="4" fill="#0" id="circle2"/>
	<circle cx="4" cy="223.453" r="4" fill="#0" id="circle3"/>
	<circle cx="4" cy="241.295" r="4" fill="#0" id="circle4"/>
	<circle cx="4" cy="259.137" r="4" fill="#0" id="circle5"/>
	<circle cx="4" cy="276.978" r="4" fill="#0" id="circle6"/>
	<circle cx="4" cy="294.82" r="4" fill="#0" id="circle7"/>
	<circle cx="4" cy="312.662" r="4" fill="#0" id="circle8"/>
	<circle cx="12.9209" cy="328.719" r="4" fill="#0" id="circle9"/>
	<circle cx="12.9209" cy="346.561" r="4" fill="#0" id="circle10"/>
	<circle cx="12.9209" cy="364.403" r="4" fill="#0" id="circle11"/>
	<circle cx="12.9209" cy="382.245" r="4" fill="#0" id="circle12"/>
	<circle cx="12.9209" cy="400.086" r="4" fill="#0" id="circle13"/>
	<circle cx="12.9209" cy="417.928" r="4" fill="#0" id="circle14"/>
	<circle cx="12.9209" cy="435.77" r="4" fill="#0" id="circle15"/>
	<circle cx="12.9209" cy="453.612" r="4" fill="#0" id="circle16"/>
	<circle cx="18.2734" cy="155.655" r="4" fill="#0" id="circle17"/>
	<circle cx="21.8417" cy="469.669" r="4" fill="#0" id="circle18"/>
	<circle cx="34.3309" cy="164.576" r="4" fill="#0" id="circle19"/>
	<circle cx="37.8993" cy="478.59" r="4" fill="#0" id="circle20"/>
	<circle cx="52.1727" cy="164.576" r="4" fill="#0" id="circle21"/>
	<circle cx="53.9568" cy="487.511" r="4" fill="#0" id="circle22"/>
	<circle cx="68.2302" cy="173.496" r="4" fill="#0" id="circle23"/>
	<circle cx="71.7986" cy="494.647" r="4" fill="#0" id="circle24"/>
	<circle cx="84.2878" cy="508.921" r="4" fill="#0" id="circle25"/>
	<circle cx="86.0719" cy="173.496" r="4" fill="#0" id="circle26"/>
	<circle cx="98.5612" cy="521.41" r="4" fill="#0" id="circle27"/>
	<circle cx="103.914" cy="173.496" r="4" fill="#0" id="circle28"/>
	<circle cx="105.698" cy="539.252" r="4" fill="#0" id="circle29"/>
	<circle cx="114.619" cy="555.309" r="4" fill="#0" id="circle30"/>
	<circle cx="121.755" cy="173.496" r="4" fill="#0" id="circle31"/>
	<circle cx="128.892" cy="567.799" r="4" fill="#0" id="circle32"/>
	<circle cx="137.813" cy="62.8777" r="4" fill="#0" id="circle33"/>
	<circle cx="139.597" cy="173.496" r="4" fill="#0" id="circle34"/>
	<circle cx="139.597" cy="582.072" r="4" fill="#0" id="circle35"/>
	<circle cx="146.734" cy="78.9353" r="4" fill="#0" id="circle36"/>
	<circle cx="153.871" cy="594.561" r="4" fill="#0" id="circle37"/>
	<circle cx="155.655" cy="53.9568" r="4" fill="#0" id="circle38"/>
	<circle cx="155.655" cy="94.9928" r="4" fill="#0" id="circle39"/>
	<circle cx="157.439" cy="168.144" r="4" fill="#0" id="circle40"/>
	<circle cx="166.36" cy="109.266" r="4" fill="#0" id="circle41"/>
	<circle cx="166.36" cy="608.835" r="4" fill="#0" id="circle42"/>
	<circle cx="169.928" cy="39.6835" r="4" fill="#0" id="circle43"/>
	<circle cx="175.281" cy="159.223" r="4" fill="#0" id="circle44"/>
	<circle cx="180.633" cy="121.755" r="4" fill="#0" id="circle45"/>
	<circle cx="182.417" cy="53.9568" r="4" fill="#0" id="circle46"/>
	<circle cx="184.201" cy="615.971" r="4" fill="#0" id="circle47"/>
	<circle cx="187.77" cy="139.597" r="4" fill="#0" id="circle48"/>
	<circle cx="191.338" cy="70.0144" r="4" fill="#0" id="circle49"/>
	<circle cx="196.691" cy="155.655" r="4" fill="#0" id="circle50"/>
	<circle cx="196.691" cy="630.245" r="4" fill="#0" id="circle51"/>
	<circle cx="202.043" cy="84.2878" r="4" fill="#0" id="circle52"/>
	<circle cx="212.748" cy="639.165" r="4" fill="#0" id="circle53"/>
	<circle cx="216.317" cy="94.9928" r="4" fill="#0" id="circle54"/>
	<circle cx="228.806" cy="109.266" r="4" fill="#0" id="circle55"/>
	<circle cx="228.806" cy="648.086" r="4" fill="#0" id="circle56"/>
	<circle cx="237.727" cy="125.324" r="4" fill="#0" id="circle57"/>
	<circle cx="244.863" cy="657.007" r="4" fill="#0" id="circle58"/>
	<circle cx="252" cy="137.813" r="4" fill="#0" id="circle59"/>
	<circle cx="260.921" cy="665.928" r="4" fill="#0" id="circle60"/>
	<circle cx="268.058" cy="128.892" r="4" fill="#0" id="circle61"/>
	<circle cx="276.978" cy="674.849" r="4" fill="#0" id="circle62"/>
	<circle cx="285.899" cy="128.892" r="4" fill="#0" id="circle63"/>
	<circle cx="293.036" cy="683.77" r="4" fill="#0" id="circle64"/>
	<circle cx="303.741" cy="119.971" r="4" fill="#0" id="circle65"/>
	<circle cx="309.094" cy="692.691" r="4" fill="#0" id="circle66"/>
	<circle cx="321.583" cy="119.971" r="4" fill="#0" id="circle67"/>
	<circle cx="325.151" cy="701.612" r="4" fill="#0" id="circle68"/>
	<circle cx="339.424" cy="119.971" r="4" fill="#0" id="circle69"/>
	<circle cx="341.209" cy="710.532" r="4" fill="#0" id="circle70"/>
	<circle cx="357.266" cy="119.971" r="4" fill="#0" id="circle71"/>
	<circle cx="357.266" cy="719.453" r="4" fill="#0" id="circle72"/>
	<circle cx="375.108" cy="119.971" r="4" fill="#0" id="circle73"/>
	<circle cx="375.108" cy="726.59" r="4" fill="#0" id="circle74"/>
	<circle cx="387.597" cy="740.863" r="4" fill="#0" id="circle75"/>
	<circle cx="392.95" cy="111.05" r="4" fill="#0" id="circle76"/>
	<circle cx="405.439" cy="746.216" r="4" fill="#0" id="circle77"/>
	<circle cx="407.223" cy="585.64" r="4" fill="#0" id="circle78"/>
	<circle cx="407.223" cy="603.482" r="4" fill="#0" id="circle79"/>
	<circle cx="410.791" cy="111.05" r="4" fill="#0" id="circle80"/>
	<circle cx="416.144" cy="619.54" r="4" fill="#0" id="circle81"/>
	<circle cx="421.496" cy="573.151" r="4" fill="#0" id="circle82"/>
	<circle cx="421.496" cy="755.137" r="4" fill="#0" id="circle83"/>
	<circle cx="428.633" cy="111.05" r="4" fill="#0" id="circle84"/>
	<circle cx="433.986" cy="624.892" r="4" fill="#0" id="circle85"/>
	<circle cx="433.986" cy="769.41" r="4" fill="#0" id="circle86"/>
	<circle cx="439.338" cy="564.23" r="4" fill="#0" id="circle87"/>
	<circle cx="446.475" cy="111.05" r="4" fill="#0" id="circle88"/>
	<circle cx="448.259" cy="637.381" r="4" fill="#0" id="circle89"/>
	<circle cx="451.827" cy="549.957" r="4" fill="#0" id="circle90"/>
	<circle cx="451.827" cy="776.547" r="4" fill="#0" id="circle91"/>
	<circle cx="458.964" cy="794.388" r="4" fill="#0" id="circle92"/>
	<circle cx="462.532" cy="102.129" r="4" fill="#0" id="circle93"/>
	<circle cx="464.317" cy="646.302" r="4" fill="#0" id="circle94"/>
	<circle cx="469.669" cy="541.036" r="4" fill="#0" id="circle95"/>
	<circle cx="476.806" cy="660.576" r="4" fill="#0" id="circle96"/>
	<circle cx="476.806" cy="799.741" r="4" fill="#0" id="circle97"/>
	<circle cx="480.374" cy="94.9928" r="4" fill="#0" id="circle98"/>
	<circle cx="487.511" cy="541.036" r="4" fill="#0" id="circle99"/>
	<circle cx="492.863" cy="808.662" r="4" fill="#0" id="circle100"/>
	<circle cx="494.647" cy="667.712" r="4" fill="#0" id="circle101"/>
	<circle cx="498.216" cy="86.0719" r="4" fill="#0" id="circle102"/>
	<circle cx="503.568" cy="549.957" r="4" fill="#0" id="circle103"/>
	<circle cx="505.353" cy="681.986" r="4" fill="#0" id="circle104"/>
	<circle cx="505.353" cy="822.935" r="4" fill="#0" id="circle105"/>
	<circle cx="514.273" cy="564.23" r="4" fill="#0" id="circle106"/>
	<circle cx="516.058" cy="77.1511" r="4" fill="#0" id="circle107"/>
	<circle cx="519.626" cy="692.691" r="4" fill="#0" id="circle108"/>
	<circle cx="519.626" cy="835.424" r="4" fill="#0" id="circle109"/>
	<circle cx="523.194" cy="580.288" r="4" fill="#0" id="circle110"/>
	<circle cx="532.115" cy="706.964" r="4" fill="#0" id="circle111"/>
	<circle cx="533.899" cy="68.2302" r="4" fill="#0" id="circle112"/>
	<circle cx="535.683" cy="594.561" r="4" fill="#0" id="circle113"/>
	<circle cx="535.683" cy="844.345" r="4" fill="#0" id="circle114"/>
	<circle cx="541.036" cy="723.022" r="4" fill="#0" id="circle115"/>
	<circle cx="548.173" cy="608.835" r="4" fill="#0" id="circle116"/>
	<circle cx="549.957" cy="166.36" r="4" fill="#0" id="circle117"/>
	<circle cx="549.957" cy="184.201" r="4" fill="#0" id="circle118"/>
	<circle cx="549.957" cy="739.079" r="4" fill="#0" id="circle119"/>
	<circle cx="551.741" cy="59.3094" r="4" fill="#0" id="circle120"/>
	<circle cx="551.741" cy="835.424" r="4" fill="#0" id="circle121"/>
	<circle cx="557.094" cy="624.892" r="4" fill="#0" id="circle122"/>
	<circle cx="558.878" cy="200.259" r="4" fill="#0" id="circle123"/>
	<circle cx="558.878" cy="755.137" r="4" fill="#0" id="circle124"/>
	<circle cx="558.878" cy="817.583" r="4" fill="#0" id="circle125"/>
	<circle cx="567.799" cy="157.439" r="4" fill="#0" id="circle126"/>
	<circle cx="567.799" cy="771.194" r="4" fill="#0" id="circle127"/>
	<circle cx="567.799" cy="789.036" r="4" fill="#0" id="circle128"/>
	<circle cx="569.583" cy="50.3885" r="4" fill="#0" id="circle129"/>
	<circle cx="571.367" cy="637.381" r="4" fill="#0" id="circle130"/>
	<circle cx="574.935" cy="191.338" r="4" fill="#0" id="circle131"/>
	<circle cx="578.504" cy="655.223" r="4" fill="#0" id="circle132"/>
	<circle cx="583.856" cy="148.518" r="4" fill="#0" id="circle133"/>
	<circle cx="585.64" cy="541.036" r="4" fill="#0" id="circle134"/>
	<circle cx="587.424" cy="48.6043" r="4" fill="#0" id="circle135"/>
	<circle cx="592.777" cy="187.77" r="4" fill="#0" id="circle136"/>
	<circle cx="592.777" cy="665.928" r="4" fill="#0" id="circle137"/>
	<circle cx="594.561" cy="557.094" r="4" fill="#0" id="circle138"/>
	<circle cx="599.914" cy="139.597" r="4" fill="#0" id="circle139"/>
	<circle cx="601.698" cy="681.986" r="4" fill="#0" id="circle140"/>
	<circle cx="603.482" cy="39.6835" r="4" fill="#0" id="circle141"/>
	<circle cx="603.482" cy="541.036" r="4" fill="#0" id="circle142"/>
	<circle cx="608.835" cy="567.799" r="4" fill="#0" id="circle143"/>
	<circle cx="610.619" cy="182.417" r="4" fill="#0" id="circle144"/>
	<circle cx="612.403" cy="696.259" r="4" fill="#0" id="circle145"/>
	<circle cx="617.755" cy="136.029" r="4" fill="#0" id="circle146"/>
	<circle cx="619.54" cy="30.7626" r="4" fill="#0" id="circle147"/>
	<circle cx="621.324" cy="416.144" r="4" fill="#0" id="circle148"/>
	<circle cx="621.324" cy="541.036" r="4" fill="#0" id="circle149"/>
	<circle cx="621.324" cy="582.072" r="4" fill="#0" id="circle150"/>
	<circle cx="624.892" cy="710.532" r="4" fill="#0" id="circle151"/>
	<circle cx="628.46" cy="178.849" r="4" fill="#0" id="circle152"/>
	<circle cx="630.245" cy="291.252" r="4" fill="#0" id="circle153"/>
	<circle cx="630.245" cy="432.201" r="4" fill="#0" id="circle154"/>
	<circle cx="630.245" cy="598.129" r="4" fill="#0" id="circle155"/>
	<circle cx="633.813" cy="726.59" r="4" fill="#0" id="circle156"/>
	<circle cx="635.597" cy="21.8417" r="4" fill="#0" id="circle157"/>
	<circle cx="635.597" cy="127.108" r="4" fill="#0" id="circle158"/>
	<circle cx="639.165" cy="307.309" r="4" fill="#0" id="circle159"/>
	<circle cx="639.165" cy="416.144" r="4" fill="#0" id="circle160"/>
	<circle cx="639.165" cy="541.036" r="4" fill="#0" id="circle161"/>
	<circle cx="642.734" cy="612.403" r="4" fill="#0" id="circle162"/>
	<circle cx="646.302" cy="173.496" r="4" fill="#0" id="circle163"/>
	<circle cx="646.302" cy="441.122" r="4" fill="#0" id="circle164"/>
	<circle cx="646.302" cy="740.863" r="4" fill="#0" id="circle165"/>
	<circle cx="648.086" cy="291.252" r="4" fill="#0" id="circle166"/>
	<circle cx="653.439" cy="21.8417" r="4" fill="#0" id="circle167"/>
	<circle cx="653.439" cy="118.187" r="4" fill="#0" id="circle168"/>
	<circle cx="655.223" cy="407.223" r="4" fill="#0" id="circle169"/>
	<circle cx="655.223" cy="756.921" r="4" fill="#0" id="circle170"/>
	<circle cx="657.007" cy="307.309" r="4" fill="#0" id="circle171"/>
	<circle cx="657.007" cy="544.604" r="4" fill="#0" id="circle172"/>
	<circle cx="657.007" cy="624.892" r="4" fill="#0" id="circle173"/>
	<circle cx="664.144" cy="173.496" r="4" fill="#0" id="circle174"/>
	<circle cx="664.144" cy="282.331" r="4" fill="#0" id="circle175"/>
	<circle cx="664.144" cy="441.122" r="4" fill="#0" id="circle176"/>
	<circle cx="665.928" cy="640.95" r="4" fill="#0" id="circle177"/>
	<circle cx="667.712" cy="771.194" r="4" fill="#0" id="circle178"/>
	<circle cx="669.496" cy="12.9209" r="4" fill="#0" id="circle179"/>
	<circle cx="671.281" cy="112.835" r="4" fill="#0" id="circle180"/>
	<circle cx="671.281" cy="416.144" r="4" fill="#0" id="circle181"/>
	<circle cx="674.849" cy="307.309" r="4" fill="#0" id="circle182"/>
	<circle cx="674.849" cy="549.957" r="4" fill="#0" id="circle183"/>
	<circle cx="676.633" cy="655.223" r="4" fill="#0" id="circle184"/>
	<circle cx="680.201" cy="164.576" r="4" fill="#0" id="circle185"/>
	<circle cx="680.201" cy="273.41" r="4" fill="#0" id="circle186"/>
	<circle cx="681.986" cy="441.122" r="4" fill="#0" id="circle187"/>
	<circle cx="681.986" cy="758.705" r="4" fill="#0" id="circle188"/>
	<circle cx="687.338" cy="4" r="4" fill="#0" id="circle189"/>
	<circle cx="687.338" cy="103.914" r="4" fill="#0" id="circle190"/>
	<circle cx="687.338" cy="407.223" r="4" fill="#0" id="circle191"/>
	<circle cx="690.906" cy="667.712" r="4" fill="#0" id="circle192"/>
	<circle cx="692.691" cy="301.957" r="4" fill="#0" id="circle193"/>
	<circle cx="692.691" cy="549.957" r="4" fill="#0" id="circle194"/>
	<circle cx="696.259" cy="746.216" r="4" fill="#0" id="circle195"/>
	<circle cx="698.043" cy="164.576" r="4" fill="#0" id="circle196"/>
	<circle cx="698.043" cy="273.41" r="4" fill="#0" id="circle197"/>
	<circle cx="699.827" cy="444.691" r="4" fill="#0" id="circle198"/>
	<circle cx="701.612" cy="681.986" r="4" fill="#0" id="circle199"/>
	<circle cx="705.18" cy="4" r="4" fill="#0" id="circle200"/>
	<circle cx="705.18" cy="103.914" r="4" fill="#0" id="circle201"/>
	<circle cx="705.18" cy="407.223" r="4" fill="#0" id="circle202"/>
	<circle cx="710.532" cy="298.388" r="4" fill="#0" id="circle203"/>
	<circle cx="710.532" cy="549.957" r="4" fill="#0" id="circle204"/>
	<circle cx="710.532" cy="698.043" r="4" fill="#0" id="circle205"/>
	<circle cx="712.317" cy="737.295" r="4" fill="#0" id="circle206"/>
	<circle cx="715.885" cy="164.576" r="4" fill="#0" id="circle207"/>
	<circle cx="715.885" cy="269.842" r="4" fill="#0" id="circle208"/>
	<circle cx="717.669" cy="450.043" r="4" fill="#0" id="circle209"/>
	<circle cx="721.237" cy="94.9928" r="4" fill="#0" id="circle210"/>
	<circle cx="723.022" cy="4" r="4" fill="#0" id="circle211"/>
	<circle cx="723.022" cy="407.223" r="4" fill="#0" id="circle212"/>
	<circle cx="724.806" cy="710.532" r="4" fill="#0" id="circle213"/>
	<circle cx="728.374" cy="298.388" r="4" fill="#0" id="circle214"/>
	<circle cx="728.374" cy="549.957" r="4" fill="#0" id="circle215"/>
	<circle cx="733.727" cy="164.576" r="4" fill="#0" id="circle216"/>
	<circle cx="733.727" cy="264.489" r="4" fill="#0" id="circle217"/>
	<circle cx="735.511" cy="453.612" r="4" fill="#0" id="circle218"/>
	<circle cx="737.295" cy="86.0719" r="4" fill="#0" id="circle219"/>
	<circle cx="740.863" cy="4" r="4" fill="#0" id="circle220"/>
	<circle cx="740.863" cy="407.223" r="4" fill="#0" id="circle221"/>
	<circle cx="746.216" cy="298.388" r="4" fill="#0" id="circle222"/>
	<circle cx="746.216" cy="549.957" r="4" fill="#0" id="circle223"/>
	<circle cx="749.784" cy="255.568" r="4" fill="#0" id="circle224"/>
	<circle cx="751.568" cy="164.576" r="4" fill="#0" id="circle225"/>
	<circle cx="753.353" cy="458.964" r="4" fill="#0" id="circle226"/>
	<circle cx="755.137" cy="77.1511" r="4" fill="#0" id="circle227"/>
	<circle cx="758.705" cy="4" r="4" fill="#0" id="circle228"/>
	<circle cx="758.705" cy="407.223" r="4" fill="#0" id="circle229"/>
	<circle cx="764.058" cy="21.8417" r="4" fill="#0" id="circle230"/>
	<circle cx="764.058" cy="59.3094" r="4" fill="#0" id="circle231"/>
	<circle cx="764.058" cy="298.388" r="4" fill="#0" id="circle232"/>
	<circle cx="764.058" cy="549.957" r="4" fill="#0" id="circle233"/>
	<circle cx="767.626" cy="155.655" r="4" fill="#0" id="circle234"/>
	<circle cx="767.626" cy="255.568" r="4" fill="#0" id="circle235"/>
	<circle cx="771.194" cy="458.964" r="4" fill="#0" id="circle236"/>
	<circle cx="772.978" cy="37.8993" r="4" fill="#0" id="circle237"/>
	<circle cx="776.547" cy="407.223" r="4" fill="#0" id="circle238"/>
	<circle cx="781.899" cy="298.388" r="4" fill="#0" id="circle239"/>
	<circle cx="781.899" cy="549.957" r="4" fill="#0" id="circle240"/>
	<circle cx="783.683" cy="146.734" r="4" fill="#0" id="circle241"/>
	<circle cx="785.468" cy="255.568" r="4" fill="#0" id="circle242"/>
	<circle cx="789.036" cy="458.964" r="4" fill="#0" id="circle243"/>
	<circle cx="792.604" cy="398.302" r="4" fill="#0" id="circle244"/>
	<circle cx="797.957" cy="558.878" r="4" fill="#0" id="circle245"/>
	<circle cx="799.741" cy="298.388" r="4" fill="#0" id="circle246"/>
	<circle cx="801.525" cy="146.734" r="4" fill="#0" id="circle247"/>
	<circle cx="801.525" cy="246.647" r="4" fill="#0" id="circle248"/>
	<circle cx="806.878" cy="458.964" r="4" fill="#0" id="circle249"/>
	<circle cx="810.446" cy="398.302" r="4" fill="#0" id="circle250"/>
	<circle cx="815.799" cy="558.878" r="4" fill="#0" id="circle251"/>
	<circle cx="817.583" cy="293.036" r="4" fill="#0" id="circle252"/>
	<circle cx="819.367" cy="139.597" r="4" fill="#0" id="circle253"/>
	<circle cx="819.367" cy="246.647" r="4" fill="#0" id="circle254"/>
	<circle cx="822.935" cy="450.043" r="4" fill="#0" id="circle255"/>
	<circle cx="828.288" cy="398.302" r="4" fill="#0" id="circle256"/>
	<circle cx="831.856" cy="549.957" r="4" fill="#0" id="circle257"/>
	<circle cx="835.424" cy="237.727" r="4" fill="#0" id="circle258"/>
	<circle cx="835.424" cy="289.468" r="4" fill="#0" id="circle259"/>
	<circle cx="837.209" cy="137.813" r="4" fill="#0" id="circle260"/>
	<circle cx="840.777" cy="450.043" r="4" fill="#0" id="circle261"/>
	<circle cx="846.129" cy="398.302" r="4" fill="#0" id="circle262"/>
	<circle cx="849.698" cy="549.957" r="4" fill="#0" id="circle263"/>
	<circle cx="853.266" cy="237.727" r="4" fill="#0" id="circle264"/>
	<circle cx="853.266" cy="289.468" r="4" fill="#0" id="circle265"/>
	<circle cx="855.05" cy="137.813" r="4" fill="#0" id="circle266"/>
	<circle cx="858.619" cy="450.043" r="4" fill="#0" id="circle267"/>
	<circle cx="863.971" cy="398.302" r="4" fill="#0" id="circle268"/>
	<circle cx="867.54" cy="549.957" r="4" fill="#0" id="circle269"/>
	<circle cx="871.108" cy="237.727" r="4" fill="#0" id="circle270"/>
	<circle cx="871.108" cy="289.468" r="4" fill="#0" id="circle271"/>
	<circle cx="872.892" cy="137.813" r="4" fill="#0" id="circle272"/>
	<circle cx="876.46" cy="450.043" r="4" fill="#0" id="circle273"/>
	<circle cx="881.813" cy="398.302" r="4" fill="#0" id="circle274"/>
	<circle cx="885.381" cy="549.957" r="4" fill="#0" id="circle275"/>
	<circle cx="888.95" cy="237.727" r="4" fill="#0" id="circle276"/>
	<circle cx="888.95" cy="289.468" r="4" fill="#0" id="circle277"/>
	<circle cx="890.734" cy="137.813" r="4" fill="#0" id="circle278"/>
	<circle cx="894.302" cy="451.827" r="4" fill="#0" id="circle279"/>
	<circle cx="899.655" cy="398.302" r="4" fill="#0" id="circle280"/>
	<circle cx="903.223" cy="225.237" r="4" fill="#0" id="circle281"/>
	<circle cx="903.223" cy="546.388" r="4" fill="#0" id="circle282"/>
	<circle cx="906.791" cy="289.468" r="4" fill="#0" id="circle283"/>
	<circle cx="908.576" cy="137.813" r="4" fill="#0" id="circle284"/>
	<circle cx="912.144" cy="458.964" r="4" fill="#0" id="circle285"/>
	<circle cx="917.496" cy="398.302" r="4" fill="#0" id="circle286"/>
	<circle cx="921.065" cy="216.317" r="4" fill="#0" id="circle287"/>
	<circle cx="921.065" cy="537.468" r="4" fill="#0" id="circle288"/>
	<circle cx="922.849" cy="150.302" r="4" fill="#0" id="circle289"/>
	<circle cx="924.633" cy="289.468" r="4" fill="#0" id="circle290"/>
	<circle cx="928.201" cy="467.885" r="4" fill="#0" id="circle291"/>
	<circle cx="929.986" cy="168.144" r="4" fill="#0" id="circle292"/>
	<circle cx="929.986" cy="198.475" r="4" fill="#0" id="circle293"/>
	<circle cx="933.554" cy="523.194" r="4" fill="#0" id="circle294"/>
	<circle cx="935.338" cy="398.302" r="4" fill="#0" id="circle295"/>
	<circle cx="940.691" cy="482.158" r="4" fill="#0" id="circle296"/>
	<circle cx="942.475" cy="289.468" r="4" fill="#0" id="circle297"/>
	<circle cx="942.475" cy="500" r="4" fill="#0" id="circle298"/>
	<circle cx="951.396" cy="389.381" r="4" fill="#0" id="circle299"/>
	<circle cx="960.317" cy="289.468" r="4" fill="#0" id="circle300"/>
	<circle cx="969.237" cy="389.381" r="4" fill="#0" id="circle301"/>
	<circle cx="978.158" cy="294.82" r="4" fill="#0" id="circle302"/>
	<circle cx="983.511" cy="376.892" r="4" fill="#0" id="circle303"/>
	<circle cx="987.079" cy="310.878" r="4" fill="#0" id="circle304"/>
	<circle cx="992.432" cy="359.05" r="4" fill="#0" id="circle305"/>
	<circle cx="996" cy="326.935" r="4" fill="#0" id="circle306"/>
	</g>
</svg>