<?xml version="1.0" encoding="UTF-8" standalone="no"?>
<!-- Created with CurveBenchmark -->
<svg
	xmlns:dc="http://purl.org/dc/elements/1.1/"
	xmlns:cc="http://creativecommons.org/ns#"
	xmlns:rdf="http://www.w3.org/1999/02/22-rdf-syntax-ns#"
	xmlns:svg="http://www.w3.org/2000/svg"
	xmlns="http://www.w3.org/2000/svg"
	xmlns:sodipodi="http://sodipodi.sourceforge.net/DTD/sodipodi-0.dtd"
	xmlns:inkscape="http://www.inkscape.org/namespaces/inkscape"
	width="1000"
	height="1000"
	id="svg2"
	version="1.1"
	sodipodi:docname="manifold/crust-face18.png.txt">
<defs
	id="defs4" />
<metadata
	id="metadata7">
	<rdf:RDF>
		<cc:Work
			rdf:about="">
			<dc:format>image/svg+xml</dc:format>
			<dc:type
				rdf:resource="http://purl.org/dc/dcmitype/StillImage" />
			<dc:title></dc:title>
		</cc:Work>
	</rdf:RDF>
</metadata>
<g
	inkscape:label="Layer 1"
	inkscape:groupmode="layer"
	id="layer1">
	<path style="fill:none;stroke:red;stroke-width:1px;stroke-linecap:butt;stroke-linejoin:miter;stroke-opacity:1" d="M 36.7393,188.977 28.5545,213.531 z" id="boundary" inkscape:connector-curvature="0" />
	<path style="fill:none;stroke:red;stroke-width:1px;stroke-linecap:butt;stroke-linejoin:miter;stroke-opacity:1" d="M 28.5545,229.901 28.5545,213.531 z" id="boundary" inkscape:connector-curvature="0" />
	<path style="fill:none;stroke:red;stroke-width:1px;stroke-linecap:butt;stroke-linejoin:miter;stroke-opacity:1" d="M 28.5545,229.901 28.5545,246.271 z" id="boundary" inkscape:connector-curvature="0" />
	<path style="fill:none;stroke:red;stroke-width:1px;stroke-linecap:butt;stroke-linejoin:miter;stroke-opacity:1" d="M 28.5545,262.64 28.5545,246.271 z" id="boundary" inkscape:connector-curvature="0" />
	<path style="fill:none;stroke:red;stroke-width:1px;stroke-linecap:butt;stroke-linejoin:miter;stroke-opacity:1" d="M 85.8482,107.129 74.3894,126.772 z" id="boundary" inkscape:connector-curvature="0" />
	<path style="fill:none;stroke:red;stroke-width:1px;stroke-linecap:butt;stroke-linejoin:miter;stroke-opacity:1" d="M 61.2937,139.868 53.1089,156.238 z" id="boundary" inkscape:connector-curvature="0" />
	<path style="fill:none;stroke:red;stroke-width:1px;stroke-linecap:butt;stroke-linejoin:miter;stroke-opacity:1" d="M 74.3894,126.772 61.2937,139.868 z" id="boundary" inkscape:connector-curvature="0" />
	<path style="fill:none;stroke:red;stroke-width:1px;stroke-linecap:butt;stroke-linejoin:miter;stroke-opacity:1" d="M 98.9439,94.033 85.8482,107.129 z" id="boundary" inkscape:connector-curvature="0" />
	<path style="fill:none;stroke:red;stroke-width:1px;stroke-linecap:butt;stroke-linejoin:miter;stroke-opacity:1" d="M 28.5545,295.38 28.5545,279.01 z" id="boundary" inkscape:connector-curvature="0" />
	<path style="fill:none;stroke:red;stroke-width:1px;stroke-linecap:butt;stroke-linejoin:miter;stroke-opacity:1" d="M 28.5545,279.01 28.5545,262.64 z" id="boundary" inkscape:connector-curvature="0" />
	<path style="fill:none;stroke:red;stroke-width:1px;stroke-linecap:butt;stroke-linejoin:miter;stroke-opacity:1" d="M 44.9241,172.607 53.1089,156.238 z" id="boundary" inkscape:connector-curvature="0" />
	<path style="fill:none;stroke:red;stroke-width:1px;stroke-linecap:butt;stroke-linejoin:miter;stroke-opacity:1" d="M 36.7393,188.977 44.9241,172.607 z" id="boundary" inkscape:connector-curvature="0" />
	<path style="fill:none;stroke:red;stroke-width:1px;stroke-linecap:butt;stroke-linejoin:miter;stroke-opacity:1" d="M 112.04,80.9373 98.9439,94.033 z" id="boundary" inkscape:connector-curvature="0" />
	<path style="fill:none;stroke:red;stroke-width:1px;stroke-linecap:butt;stroke-linejoin:miter;stroke-opacity:1" d="M 28.5545,295.38 28.5545,311.749 z" id="boundary" inkscape:connector-curvature="0" />
	<path style="fill:none;stroke:red;stroke-width:1px;stroke-linecap:butt;stroke-linejoin:miter;stroke-opacity:1" d="M 12.1848,442.706 4,467.261 z" id="boundary" inkscape:connector-curvature="0" />
	<path style="fill:none;stroke:red;stroke-width:1px;stroke-linecap:butt;stroke-linejoin:miter;stroke-opacity:1" d="M 20.3696,426.337 12.1848,442.706 z" id="boundary" inkscape:connector-curvature="0" />
	<path style="fill:none;stroke:red;stroke-width:1px;stroke-linecap:butt;stroke-linejoin:miter;stroke-opacity:1" d="M 36.7393,409.967 20.3696,426.337 z" id="boundary" inkscape:connector-curvature="0" />
	<path style="fill:none;stroke:red;stroke-width:1px;stroke-linecap:butt;stroke-linejoin:miter;stroke-opacity:1" d="M 28.5545,311.749 28.5545,328.119 z" id="boundary" inkscape:connector-curvature="0" />
	<path style="fill:none;stroke:red;stroke-width:1px;stroke-linecap:butt;stroke-linejoin:miter;stroke-opacity:1" d="M 36.7393,342.851 36.7393,359.221 z" id="boundary" inkscape:connector-curvature="0" />
	<path style="fill:none;stroke:red;stroke-width:1px;stroke-linecap:butt;stroke-linejoin:miter;stroke-opacity:1" d="M 36.7393,342.851 28.5545,328.119 z" id="boundary" inkscape:connector-curvature="0" />
	<path style="fill:none;stroke:red;stroke-width:1px;stroke-linecap:butt;stroke-linejoin:miter;stroke-opacity:1" d="M 36.7393,359.221 44.9241,373.954 z" id="boundary" inkscape:connector-curvature="0" />
	<path style="fill:none;stroke:red;stroke-width:1px;stroke-linecap:butt;stroke-linejoin:miter;stroke-opacity:1" d="M 44.9241,390.323 44.9241,373.954 z" id="boundary" inkscape:connector-curvature="0" />
	<path style="fill:none;stroke:red;stroke-width:1px;stroke-linecap:butt;stroke-linejoin:miter;stroke-opacity:1" d="M 44.9241,390.323 36.7393,409.967 z" id="boundary" inkscape:connector-curvature="0" />
	<path style="fill:none;stroke:red;stroke-width:1px;stroke-linecap:butt;stroke-linejoin:miter;stroke-opacity:1" d="M 169.333,40.0132 152.964,48.198 z" id="boundary" inkscape:connector-curvature="0" />
	<path style="fill:none;stroke:red;stroke-width:1px;stroke-linecap:butt;stroke-linejoin:miter;stroke-opacity:1" d="M 182.429,28.5545 169.333,40.0132 z" id="boundary" inkscape:connector-curvature="0" />
	<path style="fill:none;stroke:red;stroke-width:1px;stroke-linecap:butt;stroke-linejoin:miter;stroke-opacity:1" d="M 152.964,48.198 136.594,56.3828 z" id="boundary" inkscape:connector-curvature="0" />
	<path style="fill:none;stroke:red;stroke-width:1px;stroke-linecap:butt;stroke-linejoin:miter;stroke-opacity:1" d="M 197.162,20.3696 182.429,28.5545 z" id="boundary" inkscape:connector-curvature="0" />
	<path style="fill:none;stroke:red;stroke-width:1px;stroke-linecap:butt;stroke-linejoin:miter;stroke-opacity:1" d="M 197.162,20.3696 213.531,20.3696 z" id="boundary" inkscape:connector-curvature="0" />
	<path style="fill:none;stroke:red;stroke-width:1px;stroke-linecap:butt;stroke-linejoin:miter;stroke-opacity:1" d="M 125.135,69.4785 112.04,80.9373 z" id="boundary" inkscape:connector-curvature="0" />
	<path style="fill:none;stroke:red;stroke-width:1px;stroke-linecap:butt;stroke-linejoin:miter;stroke-opacity:1" d="M 136.594,56.3828 125.135,69.4785 z" id="boundary" inkscape:connector-curvature="0" />
	<path style="fill:none;stroke:red;stroke-width:1px;stroke-linecap:butt;stroke-linejoin:miter;stroke-opacity:1" d="M 246.271,12.1848 229.901,12.1848 z" id="boundary" inkscape:connector-curvature="0" />
	<path style="fill:none;stroke:red;stroke-width:1px;stroke-linecap:butt;stroke-linejoin:miter;stroke-opacity:1" d="M 229.901,12.1848 213.531,20.3696 z" id="boundary" inkscape:connector-curvature="0" />
	<path style="fill:none;stroke:red;stroke-width:1px;stroke-linecap:butt;stroke-linejoin:miter;stroke-opacity:1" d="M 277.373,4 261.003,4 z" id="boundary" inkscape:connector-curvature="0" />
	<path style="fill:none;stroke:red;stroke-width:1px;stroke-linecap:butt;stroke-linejoin:miter;stroke-opacity:1" d="M 261.003,4 246.271,12.1848 z" id="boundary" inkscape:connector-curvature="0" />
	<path style="fill:none;stroke:red;stroke-width:1px;stroke-linecap:butt;stroke-linejoin:miter;stroke-opacity:1" d="M 293.743,4 277.373,4 z" id="boundary" inkscape:connector-curvature="0" />
	<path style="fill:none;stroke:red;stroke-width:1px;stroke-linecap:butt;stroke-linejoin:miter;stroke-opacity:1" d="M 310.112,4 293.743,4 z" id="boundary" inkscape:connector-curvature="0" />
	<path style="fill:none;stroke:red;stroke-width:1px;stroke-linecap:butt;stroke-linejoin:miter;stroke-opacity:1" d="M 326.482,4 310.112,4 z" id="boundary" inkscape:connector-curvature="0" />
	<path style="fill:none;stroke:red;stroke-width:1px;stroke-linecap:butt;stroke-linejoin:miter;stroke-opacity:1" d="M 12.1848,514.733 4,500 z" id="boundary" inkscape:connector-curvature="0" />
	<path style="fill:none;stroke:red;stroke-width:1px;stroke-linecap:butt;stroke-linejoin:miter;stroke-opacity:1" d="M 4,500 4,483.63 z" id="boundary" inkscape:connector-curvature="0" />
	<path style="fill:none;stroke:red;stroke-width:1px;stroke-linecap:butt;stroke-linejoin:miter;stroke-opacity:1" d="M 36.7393,558.931 25.2805,545.835 z" id="boundary" inkscape:connector-curvature="0" />
	<path style="fill:none;stroke:red;stroke-width:1px;stroke-linecap:butt;stroke-linejoin:miter;stroke-opacity:1" d="M 20.3696,529.465 12.1848,514.733 z" id="boundary" inkscape:connector-curvature="0" />
	<path style="fill:none;stroke:red;stroke-width:1px;stroke-linecap:butt;stroke-linejoin:miter;stroke-opacity:1" d="M 25.2805,545.835 20.3696,529.465 z" id="boundary" inkscape:connector-curvature="0" />
	<path style="fill:none;stroke:red;stroke-width:1px;stroke-linecap:butt;stroke-linejoin:miter;stroke-opacity:1" d="M 4,483.63 4,467.261 z" id="boundary" inkscape:connector-curvature="0" />
	<path style="fill:none;stroke:red;stroke-width:1px;stroke-linecap:butt;stroke-linejoin:miter;stroke-opacity:1" d="M 36.7393,558.931 44.9241,573.663 z" id="boundary" inkscape:connector-curvature="0" />
	<path style="fill:none;stroke:red;stroke-width:1px;stroke-linecap:butt;stroke-linejoin:miter;stroke-opacity:1" d="M 44.9241,573.663 53.1089,588.396 z" id="boundary" inkscape:connector-curvature="0" />
	<path style="fill:none;stroke:red;stroke-width:1px;stroke-linecap:butt;stroke-linejoin:miter;stroke-opacity:1" d="M 61.2937,603.129 53.1089,588.396 z" id="boundary" inkscape:connector-curvature="0" />
	<path style="fill:none;stroke:red;stroke-width:1px;stroke-linecap:butt;stroke-linejoin:miter;stroke-opacity:1" d="M 71.1155,616.224 61.2937,603.129 z" id="boundary" inkscape:connector-curvature="0" />
	<path style="fill:none;stroke:red;stroke-width:1px;stroke-linecap:butt;stroke-linejoin:miter;stroke-opacity:1" d="M 84.2112,627.683 71.1155,616.224 z" id="boundary" inkscape:connector-curvature="0" />
	<path style="fill:none;stroke:red;stroke-width:1px;stroke-linecap:butt;stroke-linejoin:miter;stroke-opacity:1" d="M 98.9439,635.868 84.2112,627.683 z" id="boundary" inkscape:connector-curvature="0" />
	<path style="fill:none;stroke:red;stroke-width:1px;stroke-linecap:butt;stroke-linejoin:miter;stroke-opacity:1" d="M 110.403,648.964 98.9439,635.868 z" id="boundary" inkscape:connector-curvature="0" />
	<path style="fill:none;stroke:red;stroke-width:1px;stroke-linecap:butt;stroke-linejoin:miter;stroke-opacity:1" d="M 118.587,663.696 126.772,678.429 z" id="boundary" inkscape:connector-curvature="0" />
	<path style="fill:none;stroke:red;stroke-width:1px;stroke-linecap:butt;stroke-linejoin:miter;stroke-opacity:1" d="M 118.587,663.696 110.403,648.964 z" id="boundary" inkscape:connector-curvature="0" />
	<path style="fill:none;stroke:red;stroke-width:1px;stroke-linecap:butt;stroke-linejoin:miter;stroke-opacity:1" d="M 126.772,678.429 126.772,694.799 z" id="boundary" inkscape:connector-curvature="0" />
	<path style="fill:none;stroke:red;stroke-width:1px;stroke-linecap:butt;stroke-linejoin:miter;stroke-opacity:1" d="M 126.772,711.168 126.772,694.799 z" id="boundary" inkscape:connector-curvature="0" />
	<path style="fill:none;stroke:red;stroke-width:1px;stroke-linecap:butt;stroke-linejoin:miter;stroke-opacity:1" d="M 126.772,727.538 126.772,711.168 z" id="boundary" inkscape:connector-curvature="0" />
	<path style="fill:none;stroke:red;stroke-width:1px;stroke-linecap:butt;stroke-linejoin:miter;stroke-opacity:1" d="M 126.772,743.908 126.772,727.538 z" id="boundary" inkscape:connector-curvature="0" />
	<path style="fill:none;stroke:red;stroke-width:1px;stroke-linecap:butt;stroke-linejoin:miter;stroke-opacity:1" d="M 126.772,743.908 126.772,760.277 z" id="boundary" inkscape:connector-curvature="0" />
	<path style="fill:none;stroke:red;stroke-width:1px;stroke-linecap:butt;stroke-linejoin:miter;stroke-opacity:1" d="M 126.772,776.647 126.772,793.017 z" id="boundary" inkscape:connector-curvature="0" />
	<path style="fill:none;stroke:red;stroke-width:1px;stroke-linecap:butt;stroke-linejoin:miter;stroke-opacity:1" d="M 126.772,776.647 126.772,760.277 z" id="boundary" inkscape:connector-curvature="0" />
	<path style="fill:none;stroke:red;stroke-width:1px;stroke-linecap:butt;stroke-linejoin:miter;stroke-opacity:1" d="M 126.772,793.017 126.772,809.386 z" id="boundary" inkscape:connector-curvature="0" />
	<path style="fill:none;stroke:red;stroke-width:1px;stroke-linecap:butt;stroke-linejoin:miter;stroke-opacity:1" d="M 126.772,809.386 126.772,825.756 z" id="boundary" inkscape:connector-curvature="0" />
	<path style="fill:none;stroke:red;stroke-width:1px;stroke-linecap:butt;stroke-linejoin:miter;stroke-opacity:1" d="M 134.957,840.488 126.772,825.756 z" id="boundary" inkscape:connector-curvature="0" />
	<path style="fill:none;stroke:red;stroke-width:1px;stroke-linecap:butt;stroke-linejoin:miter;stroke-opacity:1" d="M 134.957,840.488 134.957,856.858 z" id="boundary" inkscape:connector-curvature="0" />
	<path style="fill:none;stroke:red;stroke-width:1px;stroke-linecap:butt;stroke-linejoin:miter;stroke-opacity:1" d="M 143.142,871.591 151.327,886.323 z" id="boundary" inkscape:connector-curvature="0" />
	<path style="fill:none;stroke:red;stroke-width:1px;stroke-linecap:butt;stroke-linejoin:miter;stroke-opacity:1" d="M 143.142,871.591 134.957,856.858 z" id="boundary" inkscape:connector-curvature="0" />
	<path style="fill:none;stroke:red;stroke-width:1px;stroke-linecap:butt;stroke-linejoin:miter;stroke-opacity:1" d="M 151.327,886.323 159.512,901.056 z" id="boundary" inkscape:connector-curvature="0" />
	<path style="fill:none;stroke:red;stroke-width:1px;stroke-linecap:butt;stroke-linejoin:miter;stroke-opacity:1" d="M 172.607,912.515 159.512,901.056 z" id="boundary" inkscape:connector-curvature="0" />
	<path style="fill:none;stroke:red;stroke-width:1px;stroke-linecap:butt;stroke-linejoin:miter;stroke-opacity:1" d="M 184.066,925.611 172.607,912.515 z" id="boundary" inkscape:connector-curvature="0" />
	<path style="fill:none;stroke:red;stroke-width:1px;stroke-linecap:butt;stroke-linejoin:miter;stroke-opacity:1" d="M 197.162,937.069 208.62,950.165 z" id="boundary" inkscape:connector-curvature="0" />
	<path style="fill:none;stroke:red;stroke-width:1px;stroke-linecap:butt;stroke-linejoin:miter;stroke-opacity:1" d="M 197.162,937.069 184.066,925.611 z" id="boundary" inkscape:connector-curvature="0" />
	<path style="fill:none;stroke:red;stroke-width:1px;stroke-linecap:butt;stroke-linejoin:miter;stroke-opacity:1" d="M 208.62,950.165 221.716,961.624 z" id="boundary" inkscape:connector-curvature="0" />
	<path style="fill:none;stroke:red;stroke-width:1px;stroke-linecap:butt;stroke-linejoin:miter;stroke-opacity:1" d="M 221.716,961.624 234.812,971.446 z" id="boundary" inkscape:connector-curvature="0" />
	<path style="fill:none;stroke:red;stroke-width:1px;stroke-linecap:butt;stroke-linejoin:miter;stroke-opacity:1" d="M 249.545,979.63 265.914,979.63 z" id="boundary" inkscape:connector-curvature="0" />
	<path style="fill:none;stroke:red;stroke-width:1px;stroke-linecap:butt;stroke-linejoin:miter;stroke-opacity:1" d="M 249.545,979.63 234.812,971.446 z" id="boundary" inkscape:connector-curvature="0" />
	<path style="fill:none;stroke:red;stroke-width:1px;stroke-linecap:butt;stroke-linejoin:miter;stroke-opacity:1" d="M 280.647,987.815 265.914,979.63 z" id="boundary" inkscape:connector-curvature="0" />
	<path style="fill:none;stroke:red;stroke-width:1px;stroke-linecap:butt;stroke-linejoin:miter;stroke-opacity:1" d="M 280.647,987.815 295.38,996 z" id="boundary" inkscape:connector-curvature="0" />
	<path style="fill:none;stroke:red;stroke-width:1px;stroke-linecap:butt;stroke-linejoin:miter;stroke-opacity:1" d="M 311.749,996 295.38,996 z" id="boundary" inkscape:connector-curvature="0" />
	<path style="fill:none;stroke:red;stroke-width:1px;stroke-linecap:butt;stroke-linejoin:miter;stroke-opacity:1" d="M 326.482,4 342.851,4 z" id="boundary" inkscape:connector-curvature="0" />
	<path style="fill:none;stroke:red;stroke-width:1px;stroke-linecap:butt;stroke-linejoin:miter;stroke-opacity:1" d="M 342.851,4 359.221,4 z" id="boundary" inkscape:connector-curvature="0" />
	<path style="fill:none;stroke:red;stroke-width:1px;stroke-linecap:butt;stroke-linejoin:miter;stroke-opacity:1" d="M 372.317,15.4587 359.221,4 z" id="boundary" inkscape:connector-curvature="0" />
	<path style="fill:none;stroke:red;stroke-width:1px;stroke-linecap:butt;stroke-linejoin:miter;stroke-opacity:1" d="M 372.317,15.4587 382.139,28.5545 z" id="boundary" inkscape:connector-curvature="0" />
	<path style="fill:none;stroke:red;stroke-width:1px;stroke-linecap:butt;stroke-linejoin:miter;stroke-opacity:1" d="M 398.508,33.4653 409.967,46.5611 z" id="boundary" inkscape:connector-curvature="0" />
	<path style="fill:none;stroke:red;stroke-width:1px;stroke-linecap:butt;stroke-linejoin:miter;stroke-opacity:1" d="M 398.508,33.4653 382.139,28.5545 z" id="boundary" inkscape:connector-curvature="0" />
	<path style="fill:none;stroke:red;stroke-width:1px;stroke-linecap:butt;stroke-linejoin:miter;stroke-opacity:1" d="M 409.967,46.5611 423.063,58.0198 z" id="boundary" inkscape:connector-curvature="0" />
	<path style="fill:none;stroke:red;stroke-width:1px;stroke-linecap:butt;stroke-linejoin:miter;stroke-opacity:1" d="M 519.644,64.5677 503.274,61.2937 z" id="boundary" inkscape:connector-curvature="0" />
	<path style="fill:none;stroke:red;stroke-width:1px;stroke-linecap:butt;stroke-linejoin:miter;stroke-opacity:1" d="M 439.432,56.3828 423.063,58.0198 z" id="boundary" inkscape:connector-curvature="0" />
	<path style="fill:none;stroke:red;stroke-width:1px;stroke-linecap:butt;stroke-linejoin:miter;stroke-opacity:1" d="M 455.802,53.1089 439.432,56.3828 z" id="boundary" inkscape:connector-curvature="0" />
	<path style="fill:none;stroke:red;stroke-width:1px;stroke-linecap:butt;stroke-linejoin:miter;stroke-opacity:1" d="M 455.802,53.1089 472.172,53.1089 z" id="boundary" inkscape:connector-curvature="0" />
	<path style="fill:none;stroke:red;stroke-width:1px;stroke-linecap:butt;stroke-linejoin:miter;stroke-opacity:1" d="M 486.904,61.2937 503.274,61.2937 z" id="boundary" inkscape:connector-curvature="0" />
	<path style="fill:none;stroke:red;stroke-width:1px;stroke-linecap:butt;stroke-linejoin:miter;stroke-opacity:1" d="M 486.904,61.2937 472.172,53.1089 z" id="boundary" inkscape:connector-curvature="0" />
	<path style="fill:none;stroke:red;stroke-width:1px;stroke-linecap:butt;stroke-linejoin:miter;stroke-opacity:1" d="M 519.644,64.5677 534.376,72.7525 z" id="boundary" inkscape:connector-curvature="0" />
	<path style="fill:none;stroke:red;stroke-width:1px;stroke-linecap:butt;stroke-linejoin:miter;stroke-opacity:1" d="M 554.02,100.581 542.561,87.4851 z" id="boundary" inkscape:connector-curvature="0" />
	<path style="fill:none;stroke:red;stroke-width:1px;stroke-linecap:butt;stroke-linejoin:miter;stroke-opacity:1" d="M 567.116,112.04 554.02,100.581 z" id="boundary" inkscape:connector-curvature="0" />
	<path style="fill:none;stroke:red;stroke-width:1px;stroke-linecap:butt;stroke-linejoin:miter;stroke-opacity:1" d="M 578.574,125.135 567.116,112.04 z" id="boundary" inkscape:connector-curvature="0" />
	<path style="fill:none;stroke:red;stroke-width:1px;stroke-linecap:butt;stroke-linejoin:miter;stroke-opacity:1" d="M 542.561,87.4851 534.376,72.7525 z" id="boundary" inkscape:connector-curvature="0" />
	<path style="fill:none;stroke:red;stroke-width:1px;stroke-linecap:butt;stroke-linejoin:miter;stroke-opacity:1" d="M 586.759,139.868 578.574,125.135 z" id="boundary" inkscape:connector-curvature="0" />
	<path style="fill:none;stroke:red;stroke-width:1px;stroke-linecap:butt;stroke-linejoin:miter;stroke-opacity:1" d="M 586.759,139.868 586.759,156.238 z" id="boundary" inkscape:connector-curvature="0" />
	<path style="fill:none;stroke:red;stroke-width:1px;stroke-linecap:butt;stroke-linejoin:miter;stroke-opacity:1" d="M 594.944,170.97 594.944,187.34 z" id="boundary" inkscape:connector-curvature="0" />
	<path style="fill:none;stroke:red;stroke-width:1px;stroke-linecap:butt;stroke-linejoin:miter;stroke-opacity:1" d="M 594.944,170.97 586.759,156.238 z" id="boundary" inkscape:connector-curvature="0" />
	<path style="fill:none;stroke:red;stroke-width:1px;stroke-linecap:butt;stroke-linejoin:miter;stroke-opacity:1" d="M 594.944,187.34 594.944,203.71 z" id="boundary" inkscape:connector-curvature="0" />
	<path style="fill:none;stroke:red;stroke-width:1px;stroke-linecap:butt;stroke-linejoin:miter;stroke-opacity:1" d="M 594.944,203.71 594.944,220.079 z" id="boundary" inkscape:connector-curvature="0" />
	<path style="fill:none;stroke:red;stroke-width:1px;stroke-linecap:butt;stroke-linejoin:miter;stroke-opacity:1" d="M 594.944,236.449 594.944,220.079 z" id="boundary" inkscape:connector-curvature="0" />
	<path style="fill:none;stroke:red;stroke-width:1px;stroke-linecap:butt;stroke-linejoin:miter;stroke-opacity:1" d="M 594.944,269.188 586.759,283.921 z" id="boundary" inkscape:connector-curvature="0" />
	<path style="fill:none;stroke:red;stroke-width:1px;stroke-linecap:butt;stroke-linejoin:miter;stroke-opacity:1" d="M 586.759,283.921 586.759,300.29 z" id="boundary" inkscape:connector-curvature="0" />
	<path style="fill:none;stroke:red;stroke-width:1px;stroke-linecap:butt;stroke-linejoin:miter;stroke-opacity:1" d="M 586.759,316.66 586.759,300.29 z" id="boundary" inkscape:connector-curvature="0" />
	<path style="fill:none;stroke:red;stroke-width:1px;stroke-linecap:butt;stroke-linejoin:miter;stroke-opacity:1" d="M 578.574,333.03 586.759,316.66 z" id="boundary" inkscape:connector-curvature="0" />
	<path style="fill:none;stroke:red;stroke-width:1px;stroke-linecap:butt;stroke-linejoin:miter;stroke-opacity:1" d="M 594.944,236.449 594.944,252.818 z" id="boundary" inkscape:connector-curvature="0" />
	<path style="fill:none;stroke:red;stroke-width:1px;stroke-linecap:butt;stroke-linejoin:miter;stroke-opacity:1" d="M 578.574,333.03 578.574,349.399 z" id="boundary" inkscape:connector-curvature="0" />
	<path style="fill:none;stroke:red;stroke-width:1px;stroke-linecap:butt;stroke-linejoin:miter;stroke-opacity:1" d="M 578.574,365.769 578.574,349.399 z" id="boundary" inkscape:connector-curvature="0" />
	<path style="fill:none;stroke:red;stroke-width:1px;stroke-linecap:butt;stroke-linejoin:miter;stroke-opacity:1" d="M 586.759,413.241 578.574,398.508 z" id="boundary" inkscape:connector-curvature="0" />
	<path style="fill:none;stroke:red;stroke-width:1px;stroke-linecap:butt;stroke-linejoin:miter;stroke-opacity:1" d="M 578.574,398.508 578.574,382.139 z" id="boundary" inkscape:connector-curvature="0" />
	<path style="fill:none;stroke:red;stroke-width:1px;stroke-linecap:butt;stroke-linejoin:miter;stroke-opacity:1" d="M 578.574,382.139 578.574,365.769 z" id="boundary" inkscape:connector-curvature="0" />
	<path style="fill:none;stroke:red;stroke-width:1px;stroke-linecap:butt;stroke-linejoin:miter;stroke-opacity:1" d="M 594.944,252.818 594.944,269.188 z" id="boundary" inkscape:connector-curvature="0" />
	<path style="fill:none;stroke:red;stroke-width:1px;stroke-linecap:butt;stroke-linejoin:miter;stroke-opacity:1" d="M 599.855,423.063 586.759,413.241 z" id="boundary" inkscape:connector-curvature="0" />
	<path style="fill:none;stroke:red;stroke-width:1px;stroke-linecap:butt;stroke-linejoin:miter;stroke-opacity:1" d="M 603.129,439.432 599.855,423.063 z" id="boundary" inkscape:connector-curvature="0" />
	<path style="fill:none;stroke:red;stroke-width:1px;stroke-linecap:butt;stroke-linejoin:miter;stroke-opacity:1" d="M 383.776,955.076 369.043,963.261 z" id="boundary" inkscape:connector-curvature="0" />
	<path style="fill:none;stroke:red;stroke-width:1px;stroke-linecap:butt;stroke-linejoin:miter;stroke-opacity:1" d="M 396.871,941.98 383.776,955.076 z" id="boundary" inkscape:connector-curvature="0" />
	<path style="fill:none;stroke:red;stroke-width:1px;stroke-linecap:butt;stroke-linejoin:miter;stroke-opacity:1" d="M 413.241,933.795 396.871,941.98 z" id="boundary" inkscape:connector-curvature="0" />
	<path style="fill:none;stroke:red;stroke-width:1px;stroke-linecap:butt;stroke-linejoin:miter;stroke-opacity:1" d="M 355.947,974.719 369.043,963.261 z" id="boundary" inkscape:connector-curvature="0" />
	<path style="fill:none;stroke:red;stroke-width:1px;stroke-linecap:butt;stroke-linejoin:miter;stroke-opacity:1" d="M 326.482,987.815 311.749,996 z" id="boundary" inkscape:connector-curvature="0" />
	<path style="fill:none;stroke:red;stroke-width:1px;stroke-linecap:butt;stroke-linejoin:miter;stroke-opacity:1" d="M 342.851,987.815 326.482,987.815 z" id="boundary" inkscape:connector-curvature="0" />
	<path style="fill:none;stroke:red;stroke-width:1px;stroke-linecap:butt;stroke-linejoin:miter;stroke-opacity:1" d="M 355.947,974.719 342.851,987.815 z" id="boundary" inkscape:connector-curvature="0" />
	<path style="fill:none;stroke:red;stroke-width:1px;stroke-linecap:butt;stroke-linejoin:miter;stroke-opacity:1" d="M 463.987,881.413 454.165,901.056 z" id="boundary" inkscape:connector-curvature="0" />
	<path style="fill:none;stroke:red;stroke-width:1px;stroke-linecap:butt;stroke-linejoin:miter;stroke-opacity:1" d="M 472.172,856.858 463.987,881.413 z" id="boundary" inkscape:connector-curvature="0" />
	<path style="fill:none;stroke:red;stroke-width:1px;stroke-linecap:butt;stroke-linejoin:miter;stroke-opacity:1" d="M 480.356,840.488 472.172,856.858 z" id="boundary" inkscape:connector-curvature="0" />
	<path style="fill:none;stroke:red;stroke-width:1px;stroke-linecap:butt;stroke-linejoin:miter;stroke-opacity:1" d="M 454.165,901.056 441.069,914.152 z" id="boundary" inkscape:connector-curvature="0" />
	<path style="fill:none;stroke:red;stroke-width:1px;stroke-linecap:butt;stroke-linejoin:miter;stroke-opacity:1" d="M 426.337,922.337 413.241,933.795 z" id="boundary" inkscape:connector-curvature="0" />
	<path style="fill:none;stroke:red;stroke-width:1px;stroke-linecap:butt;stroke-linejoin:miter;stroke-opacity:1" d="M 426.337,922.337 441.069,914.152 z" id="boundary" inkscape:connector-curvature="0" />
	<path style="fill:none;stroke:red;stroke-width:1px;stroke-linecap:butt;stroke-linejoin:miter;stroke-opacity:1" d="M 581.848,585.122 568.752,594.944 z" id="boundary" inkscape:connector-curvature="0" />
	<path style="fill:none;stroke:red;stroke-width:1px;stroke-linecap:butt;stroke-linejoin:miter;stroke-opacity:1" d="M 537.65,652.238 537.65,635.868 z" id="boundary" inkscape:connector-curvature="0" />
	<path style="fill:none;stroke:red;stroke-width:1px;stroke-linecap:butt;stroke-linejoin:miter;stroke-opacity:1" d="M 545.835,619.498 537.65,635.868 z" id="boundary" inkscape:connector-curvature="0" />
	<path style="fill:none;stroke:red;stroke-width:1px;stroke-linecap:butt;stroke-linejoin:miter;stroke-opacity:1" d="M 545.835,619.498 554.02,603.129 z" id="boundary" inkscape:connector-curvature="0" />
	<path style="fill:none;stroke:red;stroke-width:1px;stroke-linecap:butt;stroke-linejoin:miter;stroke-opacity:1" d="M 568.752,594.944 554.02,603.129 z" id="boundary" inkscape:connector-curvature="0" />
	<path style="fill:none;stroke:red;stroke-width:1px;stroke-linecap:butt;stroke-linejoin:miter;stroke-opacity:1" d="M 529.465,676.792 537.65,652.238 z" id="boundary" inkscape:connector-curvature="0" />
	<path style="fill:none;stroke:red;stroke-width:1px;stroke-linecap:butt;stroke-linejoin:miter;stroke-opacity:1" d="M 603.129,439.432 603.129,455.802 z" id="boundary" inkscape:connector-curvature="0" />
	<path style="fill:none;stroke:red;stroke-width:1px;stroke-linecap:butt;stroke-linejoin:miter;stroke-opacity:1" d="M 603.129,455.802 603.129,472.172 z" id="boundary" inkscape:connector-curvature="0" />
	<path style="fill:none;stroke:red;stroke-width:1px;stroke-linecap:butt;stroke-linejoin:miter;stroke-opacity:1" d="M 603.129,472.172 603.129,488.541 z" id="boundary" inkscape:connector-curvature="0" />
	<path style="fill:none;stroke:red;stroke-width:1px;stroke-linecap:butt;stroke-linejoin:miter;stroke-opacity:1" d="M 603.129,504.911 603.129,488.541 z" id="boundary" inkscape:connector-curvature="0" />
	<path style="fill:none;stroke:red;stroke-width:1px;stroke-linecap:butt;stroke-linejoin:miter;stroke-opacity:1" d="M 603.129,504.911 603.129,521.281 z" id="boundary" inkscape:connector-curvature="0" />
	<path style="fill:none;stroke:red;stroke-width:1px;stroke-linecap:butt;stroke-linejoin:miter;stroke-opacity:1" d="M 586.759,562.205 581.848,585.122 z" id="boundary" inkscape:connector-curvature="0" />
	<path style="fill:none;stroke:red;stroke-width:1px;stroke-linecap:butt;stroke-linejoin:miter;stroke-opacity:1" d="M 594.944,545.835 603.129,521.281 z" id="boundary" inkscape:connector-curvature="0" />
	<path style="fill:none;stroke:red;stroke-width:1px;stroke-linecap:butt;stroke-linejoin:miter;stroke-opacity:1" d="M 594.944,545.835 586.759,562.205 z" id="boundary" inkscape:connector-curvature="0" />
	<path style="fill:none;stroke:red;stroke-width:1px;stroke-linecap:butt;stroke-linejoin:miter;stroke-opacity:1" d="M 504.911,734.086 496.726,750.455 z" id="boundary" inkscape:connector-curvature="0" />
	<path style="fill:none;stroke:red;stroke-width:1px;stroke-linecap:butt;stroke-linejoin:miter;stroke-opacity:1" d="M 496.726,750.455 496.726,766.825 z" id="boundary" inkscape:connector-curvature="0" />
	<path style="fill:none;stroke:red;stroke-width:1px;stroke-linecap:butt;stroke-linejoin:miter;stroke-opacity:1" d="M 513.096,717.716 504.911,734.086 z" id="boundary" inkscape:connector-curvature="0" />
	<path style="fill:none;stroke:red;stroke-width:1px;stroke-linecap:butt;stroke-linejoin:miter;stroke-opacity:1" d="M 526.191,706.257 513.096,717.716 z" id="boundary" inkscape:connector-curvature="0" />
	<path style="fill:none;stroke:red;stroke-width:1px;stroke-linecap:butt;stroke-linejoin:miter;stroke-opacity:1" d="M 529.465,676.792 526.191,706.257 z" id="boundary" inkscape:connector-curvature="0" />
	<path style="fill:none;stroke:red;stroke-width:1px;stroke-linecap:butt;stroke-linejoin:miter;stroke-opacity:1" d="M 488.541,815.934 480.356,840.488 z" id="boundary" inkscape:connector-curvature="0" />
	<path style="fill:none;stroke:red;stroke-width:1px;stroke-linecap:butt;stroke-linejoin:miter;stroke-opacity:1" d="M 488.541,799.564 488.541,815.934 z" id="boundary" inkscape:connector-curvature="0" />
	<path style="fill:none;stroke:red;stroke-width:1px;stroke-linecap:butt;stroke-linejoin:miter;stroke-opacity:1" d="M 496.726,783.195 496.726,766.825 z" id="boundary" inkscape:connector-curvature="0" />
	<path style="fill:none;stroke:red;stroke-width:1px;stroke-linecap:butt;stroke-linejoin:miter;stroke-opacity:1" d="M 488.541,799.564 496.726,783.195 z" id="boundary" inkscape:connector-curvature="0" />
	<circle cx="4" cy="467.261" r="4" fill="#0" id="circle0"/>
	<circle cx="4" cy="483.63" r="4" fill="#0" id="circle1"/>
	<circle cx="4" cy="500" r="4" fill="#0" id="circle2"/>
	<circle cx="12.1848" cy="442.706" r="4" fill="#0" id="circle3"/>
	<circle cx="12.1848" cy="514.733" r="4" fill="#0" id="circle4"/>
	<circle cx="20.3696" cy="426.337" r="4" fill="#0" id="circle5"/>
	<circle cx="20.3696" cy="529.465" r="4" fill="#0" id="circle6"/>
	<circle cx="25.2805" cy="545.835" r="4" fill="#0" id="circle7"/>
	<circle cx="28.5545" cy="213.531" r="4" fill="#0" id="circle8"/>
	<circle cx="28.5545" cy="229.901" r="4" fill="#0" id="circle9"/>
	<circle cx="28.5545" cy="246.271" r="4" fill="#0" id="circle10"/>
	<circle cx="28.5545" cy="262.64" r="4" fill="#0" id="circle11"/>
	<circle cx="28.5545" cy="279.01" r="4" fill="#0" id="circle12"/>
	<circle cx="28.5545" cy="295.38" r="4" fill="#0" id="circle13"/>
	<circle cx="28.5545" cy="311.749" r="4" fill="#0" id="circle14"/>
	<circle cx="28.5545" cy="328.119" r="4" fill="#0" id="circle15"/>
	<circle cx="36.7393" cy="188.977" r="4" fill="#0" id="circle16"/>
	<circle cx="36.7393" cy="342.851" r="4" fill="#0" id="circle17"/>
	<circle cx="36.7393" cy="359.221" r="4" fill="#0" id="circle18"/>
	<circle cx="36.7393" cy="409.967" r="4" fill="#0" id="circle19"/>
	<circle cx="36.7393" cy="558.931" r="4" fill="#0" id="circle20"/>
	<circle cx="44.9241" cy="172.607" r="4" fill="#0" id="circle21"/>
	<circle cx="44.9241" cy="373.954" r="4" fill="#0" id="circle22"/>
	<circle cx="44.9241" cy="390.323" r="4" fill="#0" id="circle23"/>
	<circle cx="44.9241" cy="573.663" r="4" fill="#0" id="circle24"/>
	<circle cx="53.1089" cy="156.238" r="4" fill="#0" id="circle25"/>
	<circle cx="53.1089" cy="588.396" r="4" fill="#0" id="circle26"/>
	<circle cx="61.2937" cy="139.868" r="4" fill="#0" id="circle27"/>
	<circle cx="61.2937" cy="603.129" r="4" fill="#0" id="circle28"/>
	<circle cx="71.1155" cy="616.224" r="4" fill="#0" id="circle29"/>
	<circle cx="74.3894" cy="126.772" r="4" fill="#0" id="circle30"/>
	<circle cx="84.2112" cy="627.683" r="4" fill="#0" id="circle31"/>
	<circle cx="85.8482" cy="107.129" r="4" fill="#0" id="circle32"/>
	<circle cx="98.9439" cy="94.033" r="4" fill="#0" id="circle33"/>
	<circle cx="98.9439" cy="635.868" r="4" fill="#0" id="circle34"/>
	<circle cx="110.403" cy="648.964" r="4" fill="#0" id="circle35"/>
	<circle cx="112.04" cy="80.9373" r="4" fill="#0" id="circle36"/>
	<circle cx="118.587" cy="663.696" r="4" fill="#0" id="circle37"/>
	<circle cx="125.135" cy="69.4785" r="4" fill="#0" id="circle38"/>
	<circle cx="126.772" cy="678.429" r="4" fill="#0" id="circle39"/>
	<circle cx="126.772" cy="694.799" r="4" fill="#0" id="circle40"/>
	<circle cx="126.772" cy="711.168" r="4" fill="#0" id="circle41"/>
	<circle cx="126.772" cy="727.538" r="4" fill="#0" id="circle42"/>
	<circle cx="126.772" cy="743.908" r="4" fill="#0" id="circle43"/>
	<circle cx="126.772" cy="760.277" r="4" fill="#0" id="circle44"/>
	<circle cx="126.772" cy="776.647" r="4" fill="#0" id="circle45"/>
	<circle cx="126.772" cy="793.017" r="4" fill="#0" id="circle46"/>
	<circle cx="126.772" cy="809.386" r="4" fill="#0" id="circle47"/>
	<circle cx="126.772" cy="825.756" r="4" fill="#0" id="circle48"/>
	<circle cx="134.957" cy="840.488" r="4" fill="#0" id="circle49"/>
	<circle cx="134.957" cy="856.858" r="4" fill="#0" id="circle50"/>
	<circle cx="136.594" cy="56.3828" r="4" fill="#0" id="circle51"/>
	<circle cx="143.142" cy="871.591" r="4" fill="#0" id="circle52"/>
	<circle cx="151.327" cy="886.323" r="4" fill="#0" id="circle53"/>
	<circle cx="152.964" cy="48.198" r="4" fill="#0" id="circle54"/>
	<circle cx="159.512" cy="901.056" r="4" fill="#0" id="circle55"/>
	<circle cx="169.333" cy="40.0132" r="4" fill="#0" id="circle56"/>
	<circle cx="172.607" cy="912.515" r="4" fill="#0" id="circle57"/>
	<circle cx="182.429" cy="28.5545" r="4" fill="#0" id="circle58"/>
	<circle cx="184.066" cy="925.611" r="4" fill="#0" id="circle59"/>
	<circle cx="197.162" cy="20.3696" r="4" fill="#0" id="circle60"/>
	<circle cx="197.162" cy="937.069" r="4" fill="#0" id="circle61"/>
	<circle cx="208.62" cy="950.165" r="4" fill="#0" id="circle62"/>
	<circle cx="213.531" cy="20.3696" r="4" fill="#0" id="circle63"/>
	<circle cx="221.716" cy="961.624" r="4" fill="#0" id="circle64"/>
	<circle cx="229.901" cy="12.1848" r="4" fill="#0" id="circle65"/>
	<circle cx="234.812" cy="971.446" r="4" fill="#0" id="circle66"/>
	<circle cx="246.271" cy="12.1848" r="4" fill="#0" id="circle67"/>
	<circle cx="249.545" cy="979.63" r="4" fill="#0" id="circle68"/>
	<circle cx="261.003" cy="4" r="4" fill="#0" id="circle69"/>
	<circle cx="265.914" cy="979.63" r="4" fill="#0" id="circle70"/>
	<circle cx="277.373" cy="4" r="4" fill="#0" id="circle71"/>
	<circle cx="280.647" cy="987.815" r="4" fill="#0" id="circle72"/>
	<circle cx="293.743" cy="4" r="4" fill="#0" id="circle73"/>
	<circle cx="295.38" cy="996" r="4" fill="#0" id="circle74"/>
	<circle cx="310.112" cy="4" r="4" fill="#0" id="circle75"/>
	<circle cx="311.749" cy="996" r="4" fill="#0" id="circle76"/>
	<circle cx="326.482" cy="4" r="4" fill="#0" id="circle77"/>
	<circle cx="326.482" cy="987.815" r="4" fill="#0" id="circle78"/>
	<circle cx="342.851" cy="4" r="4" fill="#0" id="circle79"/>
	<circle cx="342.851" cy="987.815" r="4" fill="#0" id="circle80"/>
	<circle cx="355.947" cy="974.719" r="4" fill="#0" id="circle81"/>
	<circle cx="359.221" cy="4" r="4" fill="#0" id="circle82"/>
	<circle cx="369.043" cy="963.261" r="4" fill="#0" id="circle83"/>
	<circle cx="372.317" cy="15.4587" r="4" fill="#0" id="circle84"/>
	<circle cx="382.139" cy="28.5545" r="4" fill="#0" id="circle85"/>
	<circle cx="383.776" cy="955.076" r="4" fill="#0" id="circle86"/>
	<circle cx="396.871" cy="941.98" r="4" fill="#0" id="circle87"/>
	<circle cx="398.508" cy="33.4653" r="4" fill="#0" id="circle88"/>
	<circle cx="409.967" cy="46.5611" r="4" fill="#0" id="circle89"/>
	<circle cx="413.241" cy="933.795" r="4" fill="#0" id="circle90"/>
	<circle cx="423.063" cy="58.0198" r="4" fill="#0" id="circle91"/>
	<circle cx="426.337" cy="922.337" r="4" fill="#0" id="circle92"/>
	<circle cx="439.432" cy="56.3828" r="4" fill="#0" id="circle93"/>
	<circle cx="441.069" cy="914.152" r="4" fill="#0" id="circle94"/>
	<circle cx="454.165" cy="901.056" r="4" fill="#0" id="circle95"/>
	<circle cx="455.802" cy="53.1089" r="4" fill="#0" id="circle96"/>
	<circle cx="463.987" cy="881.413" r="4" fill="#0" id="circle97"/>
	<circle cx="472.172" cy="53.1089" r="4" fill="#0" id="circle98"/>
	<circle cx="472.172" cy="856.858" r="4" fill="#0" id="circle99"/>
	<circle cx="480.356" cy="840.488" r="4" fill="#0" id="circle100"/>
	<circle cx="486.904" cy="61.2937" r="4" fill="#0" id="circle101"/>
	<circle cx="488.541" cy="799.564" r="4" fill="#0" id="circle102"/>
	<circle cx="488.541" cy="815.934" r="4" fill="#0" id="circle103"/>
	<circle cx="496.726" cy="750.455" r="4" fill="#0" id="circle104"/>
	<circle cx="496.726" cy="766.825" r="4" fill="#0" id="circle105"/>
	<circle cx="496.726" cy="783.195" r="4" fill="#0" id="circle106"/>
	<circle cx="503.274" cy="61.2937" r="4" fill="#0" id="circle107"/>
	<circle cx="504.911" cy="734.086" r="4" fill="#0" id="circle108"/>
	<circle cx="513.096" cy="717.716" r="4" fill="#0" id="circle109"/>
	<circle cx="519.644" cy="64.5677" r="4" fill="#0" id="circle110"/>
	<circle cx="526.191" cy="706.257" r="4" fill="#0" id="circle111"/>
	<circle cx="529.465" cy="676.792" r="4" fill="#0" id="circle112"/>
	<circle cx="534.376" cy="72.7525" r="4" fill="#0" id="circle113"/>
	<circle cx="537.65" cy="635.868" r="4" fill="#0" id="circle114"/>
	<circle cx="537.65" cy="652.238" r="4" fill="#0" id="circle115"/>
	<circle cx="542.561" cy="87.4851" r="4" fill="#0" id="circle116"/>
	<circle cx="545.835" cy="619.498" r="4" fill="#0" id="circle117"/>
	<circle cx="554.02" cy="100.581" r="4" fill="#0" id="circle118"/>
	<circle cx="554.02" cy="603.129" r="4" fill="#0" id="circle119"/>
	<circle cx="567.116" cy="112.04" r="4" fill="#0" id="circle120"/>
	<circle cx="568.752" cy="594.944" r="4" fill="#0" id="circle121"/>
	<circle cx="578.574" cy="125.135" r="4" fill="#0" id="circle122"/>
	<circle cx="578.574" cy="333.03" r="4" fill="#0" id="circle123"/>
	<circle cx="578.574" cy="349.399" r="4" fill="#0" id="circle124"/>
	<circle cx="578.574" cy="365.769" r="4" fill="#0" id="circle125"/>
	<circle cx="578.574" cy="382.139" r="4" fill="#0" id="circle126"/>
	<circle cx="578.574" cy="398.508" r="4" fill="#0" id="circle127"/>
	<circle cx="581.848" cy="585.122" r="4" fill="#0" id="circle128"/>
	<circle cx="586.759" cy="139.868" r="4" fill="#0" id="circle129"/>
	<circle cx="586.759" cy="156.238" r="4" fill="#0" id="circle130"/>
	<circle cx="586.759" cy="283.921" r="4" fill="#0" id="circle131"/>
	<circle cx="586.759" cy="300.29" r="4" fill="#0" id="circle132"/>
	<circle cx="586.759" cy="316.66" r="4" fill="#0" id="circle133"/>
	<circle cx="586.759" cy="413.241" r="4" fill="#0" id="circle134"/>
	<circle cx="586.759" cy="562.205" r="4" fill="#0" id="circle135"/>
	<circle cx="594.944" cy="170.97" r="4" fill="#0" id="circle136"/>
	<circle cx="594.944" cy="187.34" r="4" fill="#0" id="circle137"/>
	<circle cx="594.944" cy="203.71" r="4" fill="#0" id="circle138"/>
	<circle cx="594.944" cy="220.079" r="4" fill="#0" id="circle139"/>
	<circle cx="594.944" cy="236.449" r="4" fill="#0" id="circle140"/>
	<circle cx="594.944" cy="252.818" r="4" fill="#0" id="circle141"/>
	<circle cx="594.944" cy="269.188" r="4" fill="#0" id="circle142"/>
	<circle cx="594.944" cy="545.835" r="4" fill="#0" id="circle143"/>
	<circle cx="599.855" cy="423.063" r="4" fill="#0" id="circle144"/>
	<circle cx="603.129" cy="439.432" r="4" fill="#0" id="circle145"/>
	<circle cx="603.129" cy="455.802" r="4" fill="#0" id="circle146"/>
	<circle cx="603.129" cy="472.172" r="4" fill="#0" id="circle147"/>
	<circle cx="603.129" cy="488.541" r="4" fill="#0" id="circle148"/>
	<circle cx="603.129" cy="504.911" r="4" fill="#0" id="circle149"/>
	<circle cx="603.129" cy="521.281" r="4" fill="#0" id="circle150"/>
	</g>
</svg>