<?xml version="1.0" encoding="UTF-8" standalone="no"?>
<!-- Created with CurveBenchmark -->
<svg
	xmlns:dc="http://purl.org/dc/elements/1.1/"
	xmlns:cc="http://creativecommons.org/ns#"
	xmlns:rdf="http://www.w3.org/1999/02/22-rdf-syntax-ns#"
	xmlns:svg="http://www.w3.org/2000/svg"
	xmlns="http://www.w3.org/2000/svg"
	xmlns:sodipodi="http://sodipodi.sourceforge.net/DTD/sodipodi-0.dtd"
	xmlns:inkscape="http://www.inkscape.org/namespaces/inkscape"
	width="1000"
	height="1000"
	id="svg2"
	version="1.1"
	sodipodi:docname="manifold/crust-television035.png.txt">
<defs
	id="defs4" />
<metadata
	id="metadata7">
	<rdf:RDF>
		<cc:Work
			rdf:about="">
			<dc:format>image/svg+xml</dc:format>
			<dc:type
				rdf:resource="http://purl.org/dc/dcmitype/StillImage" />
			<dc:title></dc:title>
		</cc:Work>
	</rdf:RDF>
</metadata>
<g
	inkscape:label="Layer 1"
	inkscape:groupmode="layer"
	id="layer1">
	<path style="fill:none;stroke:red;stroke-width:1px;stroke-linecap:butt;stroke-linejoin:miter;stroke-opacity:1" d="M 166.512,44.628 166.512,10.7713 z" id="boundary" inkscape:connector-curvature="0" />
	<path style="fill:none;stroke:red;stroke-width:1px;stroke-linecap:butt;stroke-linejoin:miter;stroke-opacity:1" d="M 166.512,44.628 166.512,78.4846 z" id="boundary" inkscape:connector-curvature="0" />
	<path style="fill:none;stroke:red;stroke-width:1px;stroke-linecap:butt;stroke-linejoin:miter;stroke-opacity:1" d="M 200.369,4 166.512,10.7713 z" id="boundary" inkscape:connector-curvature="0" />
	<path style="fill:none;stroke:red;stroke-width:1px;stroke-linecap:butt;stroke-linejoin:miter;stroke-opacity:1" d="M 166.512,78.4846 166.512,112.341 z" id="boundary" inkscape:connector-curvature="0" />
	<path style="fill:none;stroke:red;stroke-width:1px;stroke-linecap:butt;stroke-linejoin:miter;stroke-opacity:1" d="M 166.512,112.341 166.512,146.198 z" id="boundary" inkscape:connector-curvature="0" />
	<path style="fill:none;stroke:red;stroke-width:1px;stroke-linecap:butt;stroke-linejoin:miter;stroke-opacity:1" d="M 166.512,180.055 166.512,213.911 z" id="boundary" inkscape:connector-curvature="0" />
	<path style="fill:none;stroke:red;stroke-width:1px;stroke-linecap:butt;stroke-linejoin:miter;stroke-opacity:1" d="M 166.512,180.055 166.512,146.198 z" id="boundary" inkscape:connector-curvature="0" />
	<path style="fill:none;stroke:red;stroke-width:1px;stroke-linecap:butt;stroke-linejoin:miter;stroke-opacity:1" d="M 200.369,4 234.225,4 z" id="boundary" inkscape:connector-curvature="0" />
	<path style="fill:none;stroke:red;stroke-width:1px;stroke-linecap:butt;stroke-linejoin:miter;stroke-opacity:1" d="M 166.512,247.768 166.512,213.911 z" id="boundary" inkscape:connector-curvature="0" />
	<path style="fill:none;stroke:red;stroke-width:1px;stroke-linecap:butt;stroke-linejoin:miter;stroke-opacity:1" d="M 166.512,247.768 166.512,281.625 z" id="boundary" inkscape:connector-curvature="0" />
	<path style="fill:none;stroke:red;stroke-width:1px;stroke-linecap:butt;stroke-linejoin:miter;stroke-opacity:1" d="M 166.512,315.481 166.512,281.625 z" id="boundary" inkscape:connector-curvature="0" />
	<path style="fill:none;stroke:red;stroke-width:1px;stroke-linecap:butt;stroke-linejoin:miter;stroke-opacity:1" d="M 166.512,315.481 166.512,349.338 z" id="boundary" inkscape:connector-curvature="0" />
	<path style="fill:none;stroke:red;stroke-width:1px;stroke-linecap:butt;stroke-linejoin:miter;stroke-opacity:1" d="M 166.512,417.051 166.512,383.195 z" id="boundary" inkscape:connector-curvature="0" />
	<path style="fill:none;stroke:red;stroke-width:1px;stroke-linecap:butt;stroke-linejoin:miter;stroke-opacity:1" d="M 166.512,383.195 166.512,349.338 z" id="boundary" inkscape:connector-curvature="0" />
	<path style="fill:none;stroke:red;stroke-width:1px;stroke-linecap:butt;stroke-linejoin:miter;stroke-opacity:1" d="M 169.898,450.908 166.512,417.051 z" id="boundary" inkscape:connector-curvature="0" />
	<path style="fill:none;stroke:red;stroke-width:1px;stroke-linecap:butt;stroke-linejoin:miter;stroke-opacity:1" d="M 203.754,454.294 169.898,450.908 z" id="boundary" inkscape:connector-curvature="0" />
	<path style="fill:none;stroke:red;stroke-width:1px;stroke-linecap:butt;stroke-linejoin:miter;stroke-opacity:1" d="M 237.611,454.294 203.754,454.294 z" id="boundary" inkscape:connector-curvature="0" />
	<path style="fill:none;stroke:red;stroke-width:1px;stroke-linecap:butt;stroke-linejoin:miter;stroke-opacity:1" d="M 125.884,566.02 92.0273,566.02 z" id="boundary" inkscape:connector-curvature="0" />
	<path style="fill:none;stroke:red;stroke-width:1px;stroke-linecap:butt;stroke-linejoin:miter;stroke-opacity:1" d="M 75.099,596.491 44.628,579.563 z" id="boundary" inkscape:connector-curvature="0" />
	<path style="fill:none;stroke:red;stroke-width:1px;stroke-linecap:butt;stroke-linejoin:miter;stroke-opacity:1" d="M 125.884,566.02 159.741,566.02 z" id="boundary" inkscape:connector-curvature="0" />
	<path style="fill:none;stroke:red;stroke-width:1px;stroke-linecap:butt;stroke-linejoin:miter;stroke-opacity:1" d="M 108.956,596.491 75.099,596.491 z" id="boundary" inkscape:connector-curvature="0" />
	<path style="fill:none;stroke:red;stroke-width:1px;stroke-linecap:butt;stroke-linejoin:miter;stroke-opacity:1" d="M 142.812,596.491 108.956,596.491 z" id="boundary" inkscape:connector-curvature="0" />
	<path style="fill:none;stroke:red;stroke-width:1px;stroke-linecap:butt;stroke-linejoin:miter;stroke-opacity:1" d="M 159.741,566.02 193.597,566.02 z" id="boundary" inkscape:connector-curvature="0" />
	<path style="fill:none;stroke:red;stroke-width:1px;stroke-linecap:butt;stroke-linejoin:miter;stroke-opacity:1" d="M 227.454,566.02 193.597,566.02 z" id="boundary" inkscape:connector-curvature="0" />
	<path style="fill:none;stroke:red;stroke-width:1px;stroke-linecap:butt;stroke-linejoin:miter;stroke-opacity:1" d="M 142.812,596.491 176.669,596.491 z" id="boundary" inkscape:connector-curvature="0" />
	<path style="fill:none;stroke:red;stroke-width:1px;stroke-linecap:butt;stroke-linejoin:miter;stroke-opacity:1" d="M 176.669,596.491 210.526,596.491 z" id="boundary" inkscape:connector-curvature="0" />
	<path style="fill:none;stroke:red;stroke-width:1px;stroke-linecap:butt;stroke-linejoin:miter;stroke-opacity:1" d="M 244.382,596.491 210.526,596.491 z" id="boundary" inkscape:connector-curvature="0" />
	<path style="fill:none;stroke:red;stroke-width:1px;stroke-linecap:butt;stroke-linejoin:miter;stroke-opacity:1" d="M 268.082,4 234.225,4 z" id="boundary" inkscape:connector-curvature="0" />
	<path style="fill:none;stroke:red;stroke-width:1px;stroke-linecap:butt;stroke-linejoin:miter;stroke-opacity:1" d="M 268.082,4 301.939,4 z" id="boundary" inkscape:connector-curvature="0" />
	<path style="fill:none;stroke:red;stroke-width:1px;stroke-linecap:butt;stroke-linejoin:miter;stroke-opacity:1" d="M 271.468,454.294 237.611,454.294 z" id="boundary" inkscape:connector-curvature="0" />
	<path style="fill:none;stroke:red;stroke-width:1px;stroke-linecap:butt;stroke-linejoin:miter;stroke-opacity:1" d="M 305.324,454.294 271.468,454.294 z" id="boundary" inkscape:connector-curvature="0" />
	<path style="fill:none;stroke:red;stroke-width:1px;stroke-linecap:butt;stroke-linejoin:miter;stroke-opacity:1" d="M 339.181,454.294 305.324,454.294 z" id="boundary" inkscape:connector-curvature="0" />
	<path style="fill:none;stroke:red;stroke-width:1px;stroke-linecap:butt;stroke-linejoin:miter;stroke-opacity:1" d="M 301.939,4 335.795,4 z" id="boundary" inkscape:connector-curvature="0" />
	<path style="fill:none;stroke:red;stroke-width:1px;stroke-linecap:butt;stroke-linejoin:miter;stroke-opacity:1" d="M 369.652,4 403.509,4 z" id="boundary" inkscape:connector-curvature="0" />
	<path style="fill:none;stroke:red;stroke-width:1px;stroke-linecap:butt;stroke-linejoin:miter;stroke-opacity:1" d="M 369.652,4 335.795,4 z" id="boundary" inkscape:connector-curvature="0" />
	<path style="fill:none;stroke:red;stroke-width:1px;stroke-linecap:butt;stroke-linejoin:miter;stroke-opacity:1" d="M 406.894,454.294 373.038,454.294 z" id="boundary" inkscape:connector-curvature="0" />
	<path style="fill:none;stroke:red;stroke-width:1px;stroke-linecap:butt;stroke-linejoin:miter;stroke-opacity:1" d="M 339.181,454.294 373.038,454.294 z" id="boundary" inkscape:connector-curvature="0" />
	<path style="fill:none;stroke:red;stroke-width:1px;stroke-linecap:butt;stroke-linejoin:miter;stroke-opacity:1" d="M 406.894,454.294 440.751,454.294 z" id="boundary" inkscape:connector-curvature="0" />
	<path style="fill:none;stroke:red;stroke-width:1px;stroke-linecap:butt;stroke-linejoin:miter;stroke-opacity:1" d="M 403.509,4 437.365,4 z" id="boundary" inkscape:connector-curvature="0" />
	<path style="fill:none;stroke:red;stroke-width:1px;stroke-linecap:butt;stroke-linejoin:miter;stroke-opacity:1" d="M 227.454,566.02 261.311,566.02 z" id="boundary" inkscape:connector-curvature="0" />
	<path style="fill:none;stroke:red;stroke-width:1px;stroke-linecap:butt;stroke-linejoin:miter;stroke-opacity:1" d="M 295.167,566.02 261.311,566.02 z" id="boundary" inkscape:connector-curvature="0" />
	<path style="fill:none;stroke:red;stroke-width:1px;stroke-linecap:butt;stroke-linejoin:miter;stroke-opacity:1" d="M 295.167,566.02 329.024,566.02 z" id="boundary" inkscape:connector-curvature="0" />
	<path style="fill:none;stroke:red;stroke-width:1px;stroke-linecap:butt;stroke-linejoin:miter;stroke-opacity:1" d="M 244.382,596.491 278.239,596.491 z" id="boundary" inkscape:connector-curvature="0" />
	<path style="fill:none;stroke:red;stroke-width:1px;stroke-linecap:butt;stroke-linejoin:miter;stroke-opacity:1" d="M 278.239,596.491 312.096,596.491 z" id="boundary" inkscape:connector-curvature="0" />
	<path style="fill:none;stroke:red;stroke-width:1px;stroke-linecap:butt;stroke-linejoin:miter;stroke-opacity:1" d="M 329.024,566.02 362.881,566.02 z" id="boundary" inkscape:connector-curvature="0" />
	<path style="fill:none;stroke:red;stroke-width:1px;stroke-linecap:butt;stroke-linejoin:miter;stroke-opacity:1" d="M 430.594,566.02 396.737,566.02 z" id="boundary" inkscape:connector-curvature="0" />
	<path style="fill:none;stroke:red;stroke-width:1px;stroke-linecap:butt;stroke-linejoin:miter;stroke-opacity:1" d="M 444.137,522.007 430.594,566.02 z" id="boundary" inkscape:connector-curvature="0" />
	<path style="fill:none;stroke:red;stroke-width:1px;stroke-linecap:butt;stroke-linejoin:miter;stroke-opacity:1" d="M 396.737,566.02 362.881,566.02 z" id="boundary" inkscape:connector-curvature="0" />
	<path style="fill:none;stroke:red;stroke-width:1px;stroke-linecap:butt;stroke-linejoin:miter;stroke-opacity:1" d="M 379.809,596.491 345.952,596.491 z" id="boundary" inkscape:connector-curvature="0" />
	<path style="fill:none;stroke:red;stroke-width:1px;stroke-linecap:butt;stroke-linejoin:miter;stroke-opacity:1" d="M 345.952,596.491 312.096,596.491 z" id="boundary" inkscape:connector-curvature="0" />
	<path style="fill:none;stroke:red;stroke-width:1px;stroke-linecap:butt;stroke-linejoin:miter;stroke-opacity:1" d="M 413.666,596.491 379.809,596.491 z" id="boundary" inkscape:connector-curvature="0" />
	<path style="fill:none;stroke:red;stroke-width:1px;stroke-linecap:butt;stroke-linejoin:miter;stroke-opacity:1" d="M 413.666,596.491 444.137,613.42 z" id="boundary" inkscape:connector-curvature="0" />
	<path style="fill:none;stroke:red;stroke-width:1px;stroke-linecap:butt;stroke-linejoin:miter;stroke-opacity:1" d="M 71.7133,704.833 44.628,681.133 z" id="boundary" inkscape:connector-curvature="0" />
	<path style="fill:none;stroke:red;stroke-width:1px;stroke-linecap:butt;stroke-linejoin:miter;stroke-opacity:1" d="M 88.6416,674.362 122.498,674.362 z" id="boundary" inkscape:connector-curvature="0" />
	<path style="fill:none;stroke:red;stroke-width:1px;stroke-linecap:butt;stroke-linejoin:miter;stroke-opacity:1" d="M 71.7133,704.833 105.57,704.833 z" id="boundary" inkscape:connector-curvature="0" />
	<path style="fill:none;stroke:red;stroke-width:1px;stroke-linecap:butt;stroke-linejoin:miter;stroke-opacity:1" d="M 105.57,704.833 139.427,704.833 z" id="boundary" inkscape:connector-curvature="0" />
	<path style="fill:none;stroke:red;stroke-width:1px;stroke-linecap:butt;stroke-linejoin:miter;stroke-opacity:1" d="M 156.355,674.362 122.498,674.362 z" id="boundary" inkscape:connector-curvature="0" />
	<path style="fill:none;stroke:red;stroke-width:1px;stroke-linecap:butt;stroke-linejoin:miter;stroke-opacity:1" d="M 156.355,674.362 190.212,674.362 z" id="boundary" inkscape:connector-curvature="0" />
	<path style="fill:none;stroke:red;stroke-width:1px;stroke-linecap:butt;stroke-linejoin:miter;stroke-opacity:1" d="M 224.068,674.362 190.212,674.362 z" id="boundary" inkscape:connector-curvature="0" />
	<path style="fill:none;stroke:red;stroke-width:1px;stroke-linecap:butt;stroke-linejoin:miter;stroke-opacity:1" d="M 173.283,704.833 139.427,704.833 z" id="boundary" inkscape:connector-curvature="0" />
	<path style="fill:none;stroke:red;stroke-width:1px;stroke-linecap:butt;stroke-linejoin:miter;stroke-opacity:1" d="M 173.283,704.833 207.14,704.833 z" id="boundary" inkscape:connector-curvature="0" />
	<path style="fill:none;stroke:red;stroke-width:1px;stroke-linecap:butt;stroke-linejoin:miter;stroke-opacity:1" d="M 207.14,704.833 240.997,704.833 z" id="boundary" inkscape:connector-curvature="0" />
	<path style="fill:none;stroke:red;stroke-width:1px;stroke-linecap:butt;stroke-linejoin:miter;stroke-opacity:1" d="M 71.7133,775.932 37.8567,775.932 z" id="boundary" inkscape:connector-curvature="0" />
	<path style="fill:none;stroke:red;stroke-width:1px;stroke-linecap:butt;stroke-linejoin:miter;stroke-opacity:1" d="M 4,816.56 4,782.703 z" id="boundary" inkscape:connector-curvature="0" />
	<path style="fill:none;stroke:red;stroke-width:1px;stroke-linecap:butt;stroke-linejoin:miter;stroke-opacity:1" d="M 4,782.703 37.8567,775.932 z" id="boundary" inkscape:connector-curvature="0" />
	<path style="fill:none;stroke:red;stroke-width:1px;stroke-linecap:butt;stroke-linejoin:miter;stroke-opacity:1" d="M 71.7133,775.932 105.57,775.932 z" id="boundary" inkscape:connector-curvature="0" />
	<path style="fill:none;stroke:red;stroke-width:1px;stroke-linecap:butt;stroke-linejoin:miter;stroke-opacity:1" d="M 122.498,847.031 88.6416,847.031 z" id="boundary" inkscape:connector-curvature="0" />
	<path style="fill:none;stroke:red;stroke-width:1px;stroke-linecap:butt;stroke-linejoin:miter;stroke-opacity:1" d="M 105.57,775.932 139.427,775.932 z" id="boundary" inkscape:connector-curvature="0" />
	<path style="fill:none;stroke:red;stroke-width:1px;stroke-linecap:butt;stroke-linejoin:miter;stroke-opacity:1" d="M 20.9283,847.031 4,816.56 z" id="boundary" inkscape:connector-curvature="0" />
	<path style="fill:none;stroke:red;stroke-width:1px;stroke-linecap:butt;stroke-linejoin:miter;stroke-opacity:1" d="M 54.785,860.573 20.9283,847.031 z" id="boundary" inkscape:connector-curvature="0" />
	<path style="fill:none;stroke:red;stroke-width:1px;stroke-linecap:butt;stroke-linejoin:miter;stroke-opacity:1" d="M 54.785,860.573 88.6416,847.031 z" id="boundary" inkscape:connector-curvature="0" />
	<path style="fill:none;stroke:red;stroke-width:1px;stroke-linecap:butt;stroke-linejoin:miter;stroke-opacity:1" d="M 139.427,775.932 173.283,775.932 z" id="boundary" inkscape:connector-curvature="0" />
	<path style="fill:none;stroke:red;stroke-width:1px;stroke-linecap:butt;stroke-linejoin:miter;stroke-opacity:1" d="M 207.14,775.932 173.283,775.932 z" id="boundary" inkscape:connector-curvature="0" />
	<path style="fill:none;stroke:red;stroke-width:1px;stroke-linecap:butt;stroke-linejoin:miter;stroke-opacity:1" d="M 207.14,775.932 240.997,775.932 z" id="boundary" inkscape:connector-curvature="0" />
	<path style="fill:none;stroke:red;stroke-width:1px;stroke-linecap:butt;stroke-linejoin:miter;stroke-opacity:1" d="M 156.355,847.031 190.212,853.802 z" id="boundary" inkscape:connector-curvature="0" />
	<path style="fill:none;stroke:red;stroke-width:1px;stroke-linecap:butt;stroke-linejoin:miter;stroke-opacity:1" d="M 156.355,847.031 122.498,847.031 z" id="boundary" inkscape:connector-curvature="0" />
	<path style="fill:none;stroke:red;stroke-width:1px;stroke-linecap:butt;stroke-linejoin:miter;stroke-opacity:1" d="M 224.068,850.416 190.212,853.802 z" id="boundary" inkscape:connector-curvature="0" />
	<path style="fill:none;stroke:red;stroke-width:1px;stroke-linecap:butt;stroke-linejoin:miter;stroke-opacity:1" d="M 257.925,847.031 224.068,850.416 z" id="boundary" inkscape:connector-curvature="0" />
	<path style="fill:none;stroke:red;stroke-width:1px;stroke-linecap:butt;stroke-linejoin:miter;stroke-opacity:1" d="M 257.925,674.362 224.068,674.362 z" id="boundary" inkscape:connector-curvature="0" />
	<path style="fill:none;stroke:red;stroke-width:1px;stroke-linecap:butt;stroke-linejoin:miter;stroke-opacity:1" d="M 291.782,674.362 257.925,674.362 z" id="boundary" inkscape:connector-curvature="0" />
	<path style="fill:none;stroke:red;stroke-width:1px;stroke-linecap:butt;stroke-linejoin:miter;stroke-opacity:1" d="M 325.638,674.362 359.495,674.362 z" id="boundary" inkscape:connector-curvature="0" />
	<path style="fill:none;stroke:red;stroke-width:1px;stroke-linecap:butt;stroke-linejoin:miter;stroke-opacity:1" d="M 325.638,674.362 291.782,674.362 z" id="boundary" inkscape:connector-curvature="0" />
	<path style="fill:none;stroke:red;stroke-width:1px;stroke-linecap:butt;stroke-linejoin:miter;stroke-opacity:1" d="M 240.997,704.833 274.853,704.833 z" id="boundary" inkscape:connector-curvature="0" />
	<path style="fill:none;stroke:red;stroke-width:1px;stroke-linecap:butt;stroke-linejoin:miter;stroke-opacity:1" d="M 342.567,704.833 308.71,704.833 z" id="boundary" inkscape:connector-curvature="0" />
	<path style="fill:none;stroke:red;stroke-width:1px;stroke-linecap:butt;stroke-linejoin:miter;stroke-opacity:1" d="M 308.71,704.833 274.853,704.833 z" id="boundary" inkscape:connector-curvature="0" />
	<path style="fill:none;stroke:red;stroke-width:1px;stroke-linecap:butt;stroke-linejoin:miter;stroke-opacity:1" d="M 359.495,674.362 393.352,674.362 z" id="boundary" inkscape:connector-curvature="0" />
	<path style="fill:none;stroke:red;stroke-width:1px;stroke-linecap:butt;stroke-linejoin:miter;stroke-opacity:1" d="M 427.208,674.362 393.352,674.362 z" id="boundary" inkscape:connector-curvature="0" />
	<path style="fill:none;stroke:red;stroke-width:1px;stroke-linecap:butt;stroke-linejoin:miter;stroke-opacity:1" d="M 444.137,613.42 427.208,674.362 z" id="boundary" inkscape:connector-curvature="0" />
	<path style="fill:none;stroke:red;stroke-width:1px;stroke-linecap:butt;stroke-linejoin:miter;stroke-opacity:1" d="M 342.567,704.833 376.423,704.833 z" id="boundary" inkscape:connector-curvature="0" />
	<path style="fill:none;stroke:red;stroke-width:1px;stroke-linecap:butt;stroke-linejoin:miter;stroke-opacity:1" d="M 376.423,704.833 410.28,704.833 z" id="boundary" inkscape:connector-curvature="0" />
	<path style="fill:none;stroke:red;stroke-width:1px;stroke-linecap:butt;stroke-linejoin:miter;stroke-opacity:1" d="M 427.208,674.362 444.137,708.218 z" id="boundary" inkscape:connector-curvature="0" />
	<path style="fill:none;stroke:red;stroke-width:1px;stroke-linecap:butt;stroke-linejoin:miter;stroke-opacity:1" d="M 274.853,775.932 240.997,775.932 z" id="boundary" inkscape:connector-curvature="0" />
	<path style="fill:none;stroke:red;stroke-width:1px;stroke-linecap:butt;stroke-linejoin:miter;stroke-opacity:1" d="M 274.853,775.932 308.71,775.932 z" id="boundary" inkscape:connector-curvature="0" />
	<path style="fill:none;stroke:red;stroke-width:1px;stroke-linecap:butt;stroke-linejoin:miter;stroke-opacity:1" d="M 308.71,775.932 342.567,775.932 z" id="boundary" inkscape:connector-curvature="0" />
	<path style="fill:none;stroke:red;stroke-width:1px;stroke-linecap:butt;stroke-linejoin:miter;stroke-opacity:1" d="M 291.782,847.031 257.925,847.031 z" id="boundary" inkscape:connector-curvature="0" />
	<path style="fill:none;stroke:red;stroke-width:1px;stroke-linecap:butt;stroke-linejoin:miter;stroke-opacity:1" d="M 291.782,847.031 325.638,847.031 z" id="boundary" inkscape:connector-curvature="0" />
	<path style="fill:none;stroke:red;stroke-width:1px;stroke-linecap:butt;stroke-linejoin:miter;stroke-opacity:1" d="M 325.638,847.031 359.495,847.031 z" id="boundary" inkscape:connector-curvature="0" />
	<path style="fill:none;stroke:red;stroke-width:1px;stroke-linecap:butt;stroke-linejoin:miter;stroke-opacity:1" d="M 342.567,775.932 376.423,775.932 z" id="boundary" inkscape:connector-curvature="0" />
	<path style="fill:none;stroke:red;stroke-width:1px;stroke-linecap:butt;stroke-linejoin:miter;stroke-opacity:1" d="M 376.423,775.932 410.28,775.932 z" id="boundary" inkscape:connector-curvature="0" />
	<path style="fill:none;stroke:red;stroke-width:1px;stroke-linecap:butt;stroke-linejoin:miter;stroke-opacity:1" d="M 444.137,742.075 410.28,775.932 z" id="boundary" inkscape:connector-curvature="0" />
	<path style="fill:none;stroke:red;stroke-width:1px;stroke-linecap:butt;stroke-linejoin:miter;stroke-opacity:1" d="M 393.352,847.031 427.208,847.031 z" id="boundary" inkscape:connector-curvature="0" />
	<path style="fill:none;stroke:red;stroke-width:1px;stroke-linecap:butt;stroke-linejoin:miter;stroke-opacity:1" d="M 393.352,847.031 359.495,847.031 z" id="boundary" inkscape:connector-curvature="0" />
	<path style="fill:none;stroke:red;stroke-width:1px;stroke-linecap:butt;stroke-linejoin:miter;stroke-opacity:1" d="M 427.208,847.031 461.065,847.031 z" id="boundary" inkscape:connector-curvature="0" />
	<path style="fill:none;stroke:red;stroke-width:1px;stroke-linecap:butt;stroke-linejoin:miter;stroke-opacity:1" d="M 437.365,4 471.222,4 z" id="boundary" inkscape:connector-curvature="0" />
	<path style="fill:none;stroke:red;stroke-width:1px;stroke-linecap:butt;stroke-linejoin:miter;stroke-opacity:1" d="M 471.222,4 505.078,4 z" id="boundary" inkscape:connector-curvature="0" />
	<path style="fill:none;stroke:red;stroke-width:1px;stroke-linecap:butt;stroke-linejoin:miter;stroke-opacity:1" d="M 538.935,4 572.792,4 z" id="boundary" inkscape:connector-curvature="0" />
	<path style="fill:none;stroke:red;stroke-width:1px;stroke-linecap:butt;stroke-linejoin:miter;stroke-opacity:1" d="M 572.792,4 606.648,4 z" id="boundary" inkscape:connector-curvature="0" />
	<path style="fill:none;stroke:red;stroke-width:1px;stroke-linecap:butt;stroke-linejoin:miter;stroke-opacity:1" d="M 505.078,4 538.935,4 z" id="boundary" inkscape:connector-curvature="0" />
	<path style="fill:none;stroke:red;stroke-width:1px;stroke-linecap:butt;stroke-linejoin:miter;stroke-opacity:1" d="M 444.137,488.15 440.751,454.294 z" id="boundary" inkscape:connector-curvature="0" />
	<path style="fill:none;stroke:red;stroke-width:1px;stroke-linecap:butt;stroke-linejoin:miter;stroke-opacity:1" d="M 674.362,4 640.505,4 z" id="boundary" inkscape:connector-curvature="0" />
	<path style="fill:none;stroke:red;stroke-width:1px;stroke-linecap:butt;stroke-linejoin:miter;stroke-opacity:1" d="M 674.362,4 708.218,4 z" id="boundary" inkscape:connector-curvature="0" />
	<path style="fill:none;stroke:red;stroke-width:1px;stroke-linecap:butt;stroke-linejoin:miter;stroke-opacity:1" d="M 670.976,454.294 637.119,457.679 z" id="boundary" inkscape:connector-curvature="0" />
	<path style="fill:none;stroke:red;stroke-width:1px;stroke-linecap:butt;stroke-linejoin:miter;stroke-opacity:1" d="M 704.833,454.294 670.976,454.294 z" id="boundary" inkscape:connector-curvature="0" />
	<path style="fill:none;stroke:red;stroke-width:1px;stroke-linecap:butt;stroke-linejoin:miter;stroke-opacity:1" d="M 704.833,454.294 738.689,454.294 z" id="boundary" inkscape:connector-curvature="0" />
	<path style="fill:none;stroke:red;stroke-width:1px;stroke-linecap:butt;stroke-linejoin:miter;stroke-opacity:1" d="M 606.648,4 640.505,4 z" id="boundary" inkscape:connector-curvature="0" />
	<path style="fill:none;stroke:red;stroke-width:1px;stroke-linecap:butt;stroke-linejoin:miter;stroke-opacity:1" d="M 444.137,522.007 444.137,488.15 z" id="boundary" inkscape:connector-curvature="0" />
	<path style="fill:none;stroke:red;stroke-width:1px;stroke-linecap:butt;stroke-linejoin:miter;stroke-opacity:1" d="M 637.119,457.679 637.119,491.536 z" id="boundary" inkscape:connector-curvature="0" />
	<path style="fill:none;stroke:red;stroke-width:1px;stroke-linecap:butt;stroke-linejoin:miter;stroke-opacity:1" d="M 637.119,491.536 637.119,525.392 z" id="boundary" inkscape:connector-curvature="0" />
	<path style="fill:none;stroke:red;stroke-width:1px;stroke-linecap:butt;stroke-linejoin:miter;stroke-opacity:1" d="M 637.119,559.249 637.119,525.392 z" id="boundary" inkscape:connector-curvature="0" />
	<path style="fill:none;stroke:red;stroke-width:1px;stroke-linecap:butt;stroke-linejoin:miter;stroke-opacity:1" d="M 637.119,559.249 637.119,599.877 z" id="boundary" inkscape:connector-curvature="0" />
	<path style="fill:none;stroke:red;stroke-width:1px;stroke-linecap:butt;stroke-linejoin:miter;stroke-opacity:1" d="M 637.119,599.877 637.119,633.734 z" id="boundary" inkscape:connector-curvature="0" />
	<path style="fill:none;stroke:red;stroke-width:1px;stroke-linecap:butt;stroke-linejoin:miter;stroke-opacity:1" d="M 637.119,559.249 670.976,566.02 z" id="boundary" inkscape:connector-curvature="0" />
	<path style="fill:none;stroke:red;stroke-width:1px;stroke-linecap:butt;stroke-linejoin:miter;stroke-opacity:1" d="M 704.833,566.02 670.976,566.02 z" id="boundary" inkscape:connector-curvature="0" />
	<path style="fill:none;stroke:red;stroke-width:1px;stroke-linecap:butt;stroke-linejoin:miter;stroke-opacity:1" d="M 704.833,566.02 738.689,566.02 z" id="boundary" inkscape:connector-curvature="0" />
	<path style="fill:none;stroke:red;stroke-width:1px;stroke-linecap:butt;stroke-linejoin:miter;stroke-opacity:1" d="M 687.904,596.491 721.761,596.491 z" id="boundary" inkscape:connector-curvature="0" />
	<path style="fill:none;stroke:red;stroke-width:1px;stroke-linecap:butt;stroke-linejoin:miter;stroke-opacity:1" d="M 742.075,4 775.932,4 z" id="boundary" inkscape:connector-curvature="0" />
	<path style="fill:none;stroke:red;stroke-width:1px;stroke-linecap:butt;stroke-linejoin:miter;stroke-opacity:1" d="M 809.788,4 843.645,14.157 z" id="boundary" inkscape:connector-curvature="0" />
	<path style="fill:none;stroke:red;stroke-width:1px;stroke-linecap:butt;stroke-linejoin:miter;stroke-opacity:1" d="M 843.645,14.157 847.031,48.0137 z" id="boundary" inkscape:connector-curvature="0" />
	<path style="fill:none;stroke:red;stroke-width:1px;stroke-linecap:butt;stroke-linejoin:miter;stroke-opacity:1" d="M 775.932,4 809.788,4 z" id="boundary" inkscape:connector-curvature="0" />
	<path style="fill:none;stroke:red;stroke-width:1px;stroke-linecap:butt;stroke-linejoin:miter;stroke-opacity:1" d="M 847.031,48.0137 847.031,81.8703 z" id="boundary" inkscape:connector-curvature="0" />
	<path style="fill:none;stroke:red;stroke-width:1px;stroke-linecap:butt;stroke-linejoin:miter;stroke-opacity:1" d="M 847.031,217.297 847.031,251.154 z" id="boundary" inkscape:connector-curvature="0" />
	<path style="fill:none;stroke:red;stroke-width:1px;stroke-linecap:butt;stroke-linejoin:miter;stroke-opacity:1" d="M 847.031,115.727 847.031,149.584 z" id="boundary" inkscape:connector-curvature="0" />
	<path style="fill:none;stroke:red;stroke-width:1px;stroke-linecap:butt;stroke-linejoin:miter;stroke-opacity:1" d="M 847.031,115.727 847.031,81.8703 z" id="boundary" inkscape:connector-curvature="0" />
	<path style="fill:none;stroke:red;stroke-width:1px;stroke-linecap:butt;stroke-linejoin:miter;stroke-opacity:1" d="M 847.031,149.584 847.031,183.44 z" id="boundary" inkscape:connector-curvature="0" />
	<path style="fill:none;stroke:red;stroke-width:1px;stroke-linecap:butt;stroke-linejoin:miter;stroke-opacity:1" d="M 847.031,183.44 847.031,217.297 z" id="boundary" inkscape:connector-curvature="0" />
	<path style="fill:none;stroke:red;stroke-width:1px;stroke-linecap:butt;stroke-linejoin:miter;stroke-opacity:1" d="M 708.218,4 742.075,4 z" id="boundary" inkscape:connector-curvature="0" />
	<path style="fill:none;stroke:red;stroke-width:1px;stroke-linecap:butt;stroke-linejoin:miter;stroke-opacity:1" d="M 847.031,285.01 847.031,251.154 z" id="boundary" inkscape:connector-curvature="0" />
	<path style="fill:none;stroke:red;stroke-width:1px;stroke-linecap:butt;stroke-linejoin:miter;stroke-opacity:1" d="M 847.031,318.867 847.031,352.724 z" id="boundary" inkscape:connector-curvature="0" />
	<path style="fill:none;stroke:red;stroke-width:1px;stroke-linecap:butt;stroke-linejoin:miter;stroke-opacity:1" d="M 847.031,318.867 847.031,285.01 z" id="boundary" inkscape:connector-curvature="0" />
	<path style="fill:none;stroke:red;stroke-width:1px;stroke-linecap:butt;stroke-linejoin:miter;stroke-opacity:1" d="M 738.689,454.294 772.546,454.294 z" id="boundary" inkscape:connector-curvature="0" />
	<path style="fill:none;stroke:red;stroke-width:1px;stroke-linecap:butt;stroke-linejoin:miter;stroke-opacity:1" d="M 772.546,566.02 738.689,566.02 z" id="boundary" inkscape:connector-curvature="0" />
	<path style="fill:none;stroke:red;stroke-width:1px;stroke-linecap:butt;stroke-linejoin:miter;stroke-opacity:1" d="M 772.546,454.294 806.403,454.294 z" id="boundary" inkscape:connector-curvature="0" />
	<path style="fill:none;stroke:red;stroke-width:1px;stroke-linecap:butt;stroke-linejoin:miter;stroke-opacity:1" d="M 806.403,566.02 772.546,566.02 z" id="boundary" inkscape:connector-curvature="0" />
	<path style="fill:none;stroke:red;stroke-width:1px;stroke-linecap:butt;stroke-linejoin:miter;stroke-opacity:1" d="M 721.761,596.491 755.618,596.491 z" id="boundary" inkscape:connector-curvature="0" />
	<path style="fill:none;stroke:red;stroke-width:1px;stroke-linecap:butt;stroke-linejoin:miter;stroke-opacity:1" d="M 755.618,596.491 789.474,596.491 z" id="boundary" inkscape:connector-curvature="0" />
	<path style="fill:none;stroke:red;stroke-width:1px;stroke-linecap:butt;stroke-linejoin:miter;stroke-opacity:1" d="M 806.403,454.294 840.259,444.137 z" id="boundary" inkscape:connector-curvature="0" />
	<path style="fill:none;stroke:red;stroke-width:1px;stroke-linecap:butt;stroke-linejoin:miter;stroke-opacity:1" d="M 840.259,410.28 840.259,444.137 z" id="boundary" inkscape:connector-curvature="0" />
	<path style="fill:none;stroke:red;stroke-width:1px;stroke-linecap:butt;stroke-linejoin:miter;stroke-opacity:1" d="M 840.259,566.02 806.403,566.02 z" id="boundary" inkscape:connector-curvature="0" />
	<path style="fill:none;stroke:red;stroke-width:1px;stroke-linecap:butt;stroke-linejoin:miter;stroke-opacity:1" d="M 874.116,566.02 840.259,566.02 z" id="boundary" inkscape:connector-curvature="0" />
	<path style="fill:none;stroke:red;stroke-width:1px;stroke-linecap:butt;stroke-linejoin:miter;stroke-opacity:1" d="M 840.259,410.28 847.031,352.724 z" id="boundary" inkscape:connector-curvature="0" />
	<path style="fill:none;stroke:red;stroke-width:1px;stroke-linecap:butt;stroke-linejoin:miter;stroke-opacity:1" d="M 857.188,596.491 823.331,596.491 z" id="boundary" inkscape:connector-curvature="0" />
	<path style="fill:none;stroke:red;stroke-width:1px;stroke-linecap:butt;stroke-linejoin:miter;stroke-opacity:1" d="M 823.331,596.491 789.474,596.491 z" id="boundary" inkscape:connector-curvature="0" />
	<path style="fill:none;stroke:red;stroke-width:1px;stroke-linecap:butt;stroke-linejoin:miter;stroke-opacity:1" d="M 874.116,566.02 857.188,596.491 z" id="boundary" inkscape:connector-curvature="0" />
	<path style="fill:none;stroke:red;stroke-width:1px;stroke-linecap:butt;stroke-linejoin:miter;stroke-opacity:1" d="M 637.119,667.59 637.119,633.734 z" id="boundary" inkscape:connector-curvature="0" />
	<path style="fill:none;stroke:red;stroke-width:1px;stroke-linecap:butt;stroke-linejoin:miter;stroke-opacity:1" d="M 637.119,667.59 637.119,708.218 z" id="boundary" inkscape:connector-curvature="0" />
	<path style="fill:none;stroke:red;stroke-width:1px;stroke-linecap:butt;stroke-linejoin:miter;stroke-opacity:1" d="M 637.119,667.59 670.976,674.362 z" id="boundary" inkscape:connector-curvature="0" />
	<path style="fill:none;stroke:red;stroke-width:1px;stroke-linecap:butt;stroke-linejoin:miter;stroke-opacity:1" d="M 444.137,742.075 444.137,708.218 z" id="boundary" inkscape:connector-curvature="0" />
	<path style="fill:none;stroke:red;stroke-width:1px;stroke-linecap:butt;stroke-linejoin:miter;stroke-opacity:1" d="M 637.119,742.075 637.119,708.218 z" id="boundary" inkscape:connector-curvature="0" />
	<path style="fill:none;stroke:red;stroke-width:1px;stroke-linecap:butt;stroke-linejoin:miter;stroke-opacity:1" d="M 640.505,775.932 637.119,742.075 z" id="boundary" inkscape:connector-curvature="0" />
	<path style="fill:none;stroke:red;stroke-width:1px;stroke-linecap:butt;stroke-linejoin:miter;stroke-opacity:1" d="M 670.976,674.362 704.833,674.362 z" id="boundary" inkscape:connector-curvature="0" />
	<path style="fill:none;stroke:red;stroke-width:1px;stroke-linecap:butt;stroke-linejoin:miter;stroke-opacity:1" d="M 738.689,674.362 704.833,674.362 z" id="boundary" inkscape:connector-curvature="0" />
	<path style="fill:none;stroke:red;stroke-width:1px;stroke-linecap:butt;stroke-linejoin:miter;stroke-opacity:1" d="M 687.904,704.833 721.761,704.833 z" id="boundary" inkscape:connector-curvature="0" />
	<path style="fill:none;stroke:red;stroke-width:1px;stroke-linecap:butt;stroke-linejoin:miter;stroke-opacity:1" d="M 742.075,775.932 708.218,775.932 z" id="boundary" inkscape:connector-curvature="0" />
	<path style="fill:none;stroke:red;stroke-width:1px;stroke-linecap:butt;stroke-linejoin:miter;stroke-opacity:1" d="M 494.922,847.031 461.065,847.031 z" id="boundary" inkscape:connector-curvature="0" />
	<path style="fill:none;stroke:red;stroke-width:1px;stroke-linecap:butt;stroke-linejoin:miter;stroke-opacity:1" d="M 528.778,847.031 494.922,847.031 z" id="boundary" inkscape:connector-curvature="0" />
	<path style="fill:none;stroke:red;stroke-width:1px;stroke-linecap:butt;stroke-linejoin:miter;stroke-opacity:1" d="M 562.635,847.031 528.778,847.031 z" id="boundary" inkscape:connector-curvature="0" />
	<path style="fill:none;stroke:red;stroke-width:1px;stroke-linecap:butt;stroke-linejoin:miter;stroke-opacity:1" d="M 562.635,847.031 596.491,847.031 z" id="boundary" inkscape:connector-curvature="0" />
	<path style="fill:none;stroke:red;stroke-width:1px;stroke-linecap:butt;stroke-linejoin:miter;stroke-opacity:1" d="M 640.505,775.932 674.362,775.932 z" id="boundary" inkscape:connector-curvature="0" />
	<path style="fill:none;stroke:red;stroke-width:1px;stroke-linecap:butt;stroke-linejoin:miter;stroke-opacity:1" d="M 674.362,775.932 708.218,775.932 z" id="boundary" inkscape:connector-curvature="0" />
	<path style="fill:none;stroke:red;stroke-width:1px;stroke-linecap:butt;stroke-linejoin:miter;stroke-opacity:1" d="M 664.205,847.031 630.348,847.031 z" id="boundary" inkscape:connector-curvature="0" />
	<path style="fill:none;stroke:red;stroke-width:1px;stroke-linecap:butt;stroke-linejoin:miter;stroke-opacity:1" d="M 596.491,847.031 630.348,847.031 z" id="boundary" inkscape:connector-curvature="0" />
	<path style="fill:none;stroke:red;stroke-width:1px;stroke-linecap:butt;stroke-linejoin:miter;stroke-opacity:1" d="M 731.918,847.031 698.061,847.031 z" id="boundary" inkscape:connector-curvature="0" />
	<path style="fill:none;stroke:red;stroke-width:1px;stroke-linecap:butt;stroke-linejoin:miter;stroke-opacity:1" d="M 698.061,847.031 664.205,847.031 z" id="boundary" inkscape:connector-curvature="0" />
	<path style="fill:none;stroke:red;stroke-width:1px;stroke-linecap:butt;stroke-linejoin:miter;stroke-opacity:1" d="M 755.618,704.833 721.761,704.833 z" id="boundary" inkscape:connector-curvature="0" />
	<path style="fill:none;stroke:red;stroke-width:1px;stroke-linecap:butt;stroke-linejoin:miter;stroke-opacity:1" d="M 738.689,674.362 772.546,674.362 z" id="boundary" inkscape:connector-curvature="0" />
	<path style="fill:none;stroke:red;stroke-width:1px;stroke-linecap:butt;stroke-linejoin:miter;stroke-opacity:1" d="M 772.546,674.362 806.403,674.362 z" id="boundary" inkscape:connector-curvature="0" />
	<path style="fill:none;stroke:red;stroke-width:1px;stroke-linecap:butt;stroke-linejoin:miter;stroke-opacity:1" d="M 775.932,775.932 742.075,775.932 z" id="boundary" inkscape:connector-curvature="0" />
	<path style="fill:none;stroke:red;stroke-width:1px;stroke-linecap:butt;stroke-linejoin:miter;stroke-opacity:1" d="M 789.474,704.833 823.331,704.833 z" id="boundary" inkscape:connector-curvature="0" />
	<path style="fill:none;stroke:red;stroke-width:1px;stroke-linecap:butt;stroke-linejoin:miter;stroke-opacity:1" d="M 789.474,704.833 755.618,704.833 z" id="boundary" inkscape:connector-curvature="0" />
	<path style="fill:none;stroke:red;stroke-width:1px;stroke-linecap:butt;stroke-linejoin:miter;stroke-opacity:1" d="M 806.403,674.362 840.259,674.362 z" id="boundary" inkscape:connector-curvature="0" />
	<path style="fill:none;stroke:red;stroke-width:1px;stroke-linecap:butt;stroke-linejoin:miter;stroke-opacity:1" d="M 840.259,674.362 874.116,674.362 z" id="boundary" inkscape:connector-curvature="0" />
	<path style="fill:none;stroke:red;stroke-width:1px;stroke-linecap:butt;stroke-linejoin:miter;stroke-opacity:1" d="M 874.116,674.362 857.188,704.833 z" id="boundary" inkscape:connector-curvature="0" />
	<path style="fill:none;stroke:red;stroke-width:1px;stroke-linecap:butt;stroke-linejoin:miter;stroke-opacity:1" d="M 823.331,704.833 857.188,704.833 z" id="boundary" inkscape:connector-curvature="0" />
	<path style="fill:none;stroke:red;stroke-width:1px;stroke-linecap:butt;stroke-linejoin:miter;stroke-opacity:1" d="M 809.788,775.932 775.932,775.932 z" id="boundary" inkscape:connector-curvature="0" />
	<path style="fill:none;stroke:red;stroke-width:1px;stroke-linecap:butt;stroke-linejoin:miter;stroke-opacity:1" d="M 809.788,775.932 843.645,775.932 z" id="boundary" inkscape:connector-curvature="0" />
	<path style="fill:none;stroke:red;stroke-width:1px;stroke-linecap:butt;stroke-linejoin:miter;stroke-opacity:1" d="M 843.645,775.932 877.502,775.932 z" id="boundary" inkscape:connector-curvature="0" />
	<path style="fill:none;stroke:red;stroke-width:1px;stroke-linecap:butt;stroke-linejoin:miter;stroke-opacity:1" d="M 765.775,847.031 799.631,860.573 z" id="boundary" inkscape:connector-curvature="0" />
	<path style="fill:none;stroke:red;stroke-width:1px;stroke-linecap:butt;stroke-linejoin:miter;stroke-opacity:1" d="M 731.918,847.031 765.775,847.031 z" id="boundary" inkscape:connector-curvature="0" />
	<path style="fill:none;stroke:red;stroke-width:1px;stroke-linecap:butt;stroke-linejoin:miter;stroke-opacity:1" d="M 833.488,847.031 799.631,860.573 z" id="boundary" inkscape:connector-curvature="0" />
	<path style="fill:none;stroke:red;stroke-width:1px;stroke-linecap:butt;stroke-linejoin:miter;stroke-opacity:1" d="M 833.488,847.031 867.345,847.031 z" id="boundary" inkscape:connector-curvature="0" />
	<path style="fill:none;stroke:red;stroke-width:1px;stroke-linecap:butt;stroke-linejoin:miter;stroke-opacity:1" d="M 867.345,847.031 901.201,847.031 z" id="boundary" inkscape:connector-curvature="0" />
	<path style="fill:none;stroke:red;stroke-width:1px;stroke-linecap:butt;stroke-linejoin:miter;stroke-opacity:1" d="M 877.502,775.932 911.358,775.932 z" id="boundary" inkscape:connector-curvature="0" />
	<path style="fill:none;stroke:red;stroke-width:1px;stroke-linecap:butt;stroke-linejoin:miter;stroke-opacity:1" d="M 911.358,775.932 945.215,775.932 z" id="boundary" inkscape:connector-curvature="0" />
	<path style="fill:none;stroke:red;stroke-width:1px;stroke-linecap:butt;stroke-linejoin:miter;stroke-opacity:1" d="M 945.215,775.932 979.072,775.932 z" id="boundary" inkscape:connector-curvature="0" />
	<path style="fill:none;stroke:red;stroke-width:1px;stroke-linecap:butt;stroke-linejoin:miter;stroke-opacity:1" d="M 979.072,775.932 996,806.403 z" id="boundary" inkscape:connector-curvature="0" />
	<path style="fill:none;stroke:red;stroke-width:1px;stroke-linecap:butt;stroke-linejoin:miter;stroke-opacity:1" d="M 996,806.403 968.915,847.031 z" id="boundary" inkscape:connector-curvature="0" />
	<path style="fill:none;stroke:red;stroke-width:1px;stroke-linecap:butt;stroke-linejoin:miter;stroke-opacity:1" d="M 935.058,847.031 968.915,847.031 z" id="boundary" inkscape:connector-curvature="0" />
	<path style="fill:none;stroke:red;stroke-width:1px;stroke-linecap:butt;stroke-linejoin:miter;stroke-opacity:1" d="M 901.201,847.031 935.058,847.031 z" id="boundary" inkscape:connector-curvature="0" />
	<circle cx="4" cy="782.703" r="4" fill="#0" id="circle0"/>
	<circle cx="4" cy="816.56" r="4" fill="#0" id="circle1"/>
	<circle cx="20.9283" cy="847.031" r="4" fill="#0" id="circle2"/>
	<circle cx="37.8567" cy="775.932" r="4" fill="#0" id="circle3"/>
	<circle cx="44.628" cy="579.563" r="4" fill="#0" id="circle4"/>
	<circle cx="44.628" cy="681.133" r="4" fill="#0" id="circle5"/>
	<circle cx="54.785" cy="860.573" r="4" fill="#0" id="circle6"/>
	<circle cx="71.7133" cy="704.833" r="4" fill="#0" id="circle7"/>
	<circle cx="71.7133" cy="775.932" r="4" fill="#0" id="circle8"/>
	<circle cx="75.099" cy="596.491" r="4" fill="#0" id="circle9"/>
	<circle cx="88.6416" cy="674.362" r="4" fill="#0" id="circle10"/>
	<circle cx="88.6416" cy="847.031" r="4" fill="#0" id="circle11"/>
	<circle cx="92.0273" cy="566.02" r="4" fill="#0" id="circle12"/>
	<circle cx="105.57" cy="704.833" r="4" fill="#0" id="circle13"/>
	<circle cx="105.57" cy="775.932" r="4" fill="#0" id="circle14"/>
	<circle cx="108.956" cy="596.491" r="4" fill="#0" id="circle15"/>
	<circle cx="122.498" cy="674.362" r="4" fill="#0" id="circle16"/>
	<circle cx="122.498" cy="847.031" r="4" fill="#0" id="circle17"/>
	<circle cx="125.884" cy="566.02" r="4" fill="#0" id="circle18"/>
	<circle cx="139.427" cy="704.833" r="4" fill="#0" id="circle19"/>
	<circle cx="139.427" cy="775.932" r="4" fill="#0" id="circle20"/>
	<circle cx="142.812" cy="596.491" r="4" fill="#0" id="circle21"/>
	<circle cx="156.355" cy="674.362" r="4" fill="#0" id="circle22"/>
	<circle cx="156.355" cy="847.031" r="4" fill="#0" id="circle23"/>
	<circle cx="159.741" cy="566.02" r="4" fill="#0" id="circle24"/>
	<circle cx="166.512" cy="10.7713" r="4" fill="#0" id="circle25"/>
	<circle cx="166.512" cy="44.628" r="4" fill="#0" id="circle26"/>
	<circle cx="166.512" cy="78.4846" r="4" fill="#0" id="circle27"/>
	<circle cx="166.512" cy="112.341" r="4" fill="#0" id="circle28"/>
	<circle cx="166.512" cy="146.198" r="4" fill="#0" id="circle29"/>
	<circle cx="166.512" cy="180.055" r="4" fill="#0" id="circle30"/>
	<circle cx="166.512" cy="213.911" r="4" fill="#0" id="circle31"/>
	<circle cx="166.512" cy="247.768" r="4" fill="#0" id="circle32"/>
	<circle cx="166.512" cy="281.625" r="4" fill="#0" id="circle33"/>
	<circle cx="166.512" cy="315.481" r="4" fill="#0" id="circle34"/>
	<circle cx="166.512" cy="349.338" r="4" fill="#0" id="circle35"/>
	<circle cx="166.512" cy="383.195" r="4" fill="#0" id="circle36"/>
	<circle cx="166.512" cy="417.051" r="4" fill="#0" id="circle37"/>
	<circle cx="169.898" cy="450.908" r="4" fill="#0" id="circle38"/>
	<circle cx="173.283" cy="704.833" r="4" fill="#0" id="circle39"/>
	<circle cx="173.283" cy="775.932" r="4" fill="#0" id="circle40"/>
	<circle cx="176.669" cy="596.491" r="4" fill="#0" id="circle41"/>
	<circle cx="190.212" cy="674.362" r="4" fill="#0" id="circle42"/>
	<circle cx="190.212" cy="853.802" r="4" fill="#0" id="circle43"/>
	<circle cx="193.597" cy="566.02" r="4" fill="#0" id="circle44"/>
	<circle cx="200.369" cy="4" r="4" fill="#0" id="circle45"/>
	<circle cx="203.754" cy="454.294" r="4" fill="#0" id="circle46"/>
	<circle cx="207.14" cy="704.833" r="4" fill="#0" id="circle47"/>
	<circle cx="207.14" cy="775.932" r="4" fill="#0" id="circle48"/>
	<circle cx="210.526" cy="596.491" r="4" fill="#0" id="circle49"/>
	<circle cx="224.068" cy="674.362" r="4" fill="#0" id="circle50"/>
	<circle cx="224.068" cy="850.416" r="4" fill="#0" id="circle51"/>
	<circle cx="227.454" cy="566.02" r="4" fill="#0" id="circle52"/>
	<circle cx="234.225" cy="4" r="4" fill="#0" id="circle53"/>
	<circle cx="237.611" cy="454.294" r="4" fill="#0" id="circle54"/>
	<circle cx="240.997" cy="704.833" r="4" fill="#0" id="circle55"/>
	<circle cx="240.997" cy="775.932" r="4" fill="#0" id="circle56"/>
	<circle cx="244.382" cy="596.491" r="4" fill="#0" id="circle57"/>
	<circle cx="257.925" cy="674.362" r="4" fill="#0" id="circle58"/>
	<circle cx="257.925" cy="847.031" r="4" fill="#0" id="circle59"/>
	<circle cx="261.311" cy="566.02" r="4" fill="#0" id="circle60"/>
	<circle cx="268.082" cy="4" r="4" fill="#0" id="circle61"/>
	<circle cx="271.468" cy="454.294" r="4" fill="#0" id="circle62"/>
	<circle cx="274.853" cy="704.833" r="4" fill="#0" id="circle63"/>
	<circle cx="274.853" cy="775.932" r="4" fill="#0" id="circle64"/>
	<circle cx="278.239" cy="596.491" r="4" fill="#0" id="circle65"/>
	<circle cx="291.782" cy="674.362" r="4" fill="#0" id="circle66"/>
	<circle cx="291.782" cy="847.031" r="4" fill="#0" id="circle67"/>
	<circle cx="295.167" cy="566.02" r="4" fill="#0" id="circle68"/>
	<circle cx="301.939" cy="4" r="4" fill="#0" id="circle69"/>
	<circle cx="305.324" cy="454.294" r="4" fill="#0" id="circle70"/>
	<circle cx="308.71" cy="704.833" r="4" fill="#0" id="circle71"/>
	<circle cx="308.71" cy="775.932" r="4" fill="#0" id="circle72"/>
	<circle cx="312.096" cy="596.491" r="4" fill="#0" id="circle73"/>
	<circle cx="325.638" cy="674.362" r="4" fill="#0" id="circle74"/>
	<circle cx="325.638" cy="847.031" r="4" fill="#0" id="circle75"/>
	<circle cx="329.024" cy="566.02" r="4" fill="#0" id="circle76"/>
	<circle cx="335.795" cy="4" r="4" fill="#0" id="circle77"/>
	<circle cx="339.181" cy="454.294" r="4" fill="#0" id="circle78"/>
	<circle cx="342.567" cy="704.833" r="4" fill="#0" id="circle79"/>
	<circle cx="342.567" cy="775.932" r="4" fill="#0" id="circle80"/>
	<circle cx="345.952" cy="596.491" r="4" fill="#0" id="circle81"/>
	<circle cx="359.495" cy="674.362" r="4" fill="#0" id="circle82"/>
	<circle cx="359.495" cy="847.031" r="4" fill="#0" id="circle83"/>
	<circle cx="362.881" cy="566.02" r="4" fill="#0" id="circle84"/>
	<circle cx="369.652" cy="4" r="4" fill="#0" id="circle85"/>
	<circle cx="373.038" cy="454.294" r="4" fill="#0" id="circle86"/>
	<circle cx="376.423" cy="704.833" r="4" fill="#0" id="circle87"/>
	<circle cx="376.423" cy="775.932" r="4" fill="#0" id="circle88"/>
	<circle cx="379.809" cy="596.491" r="4" fill="#0" id="circle89"/>
	<circle cx="393.352" cy="674.362" r="4" fill="#0" id="circle90"/>
	<circle cx="393.352" cy="847.031" r="4" fill="#0" id="circle91"/>
	<circle cx="396.737" cy="566.02" r="4" fill="#0" id="circle92"/>
	<circle cx="403.509" cy="4" r="4" fill="#0" id="circle93"/>
	<circle cx="406.894" cy="454.294" r="4" fill="#0" id="circle94"/>
	<circle cx="410.28" cy="704.833" r="4" fill="#0" id="circle95"/>
	<circle cx="410.28" cy="775.932" r="4" fill="#0" id="circle96"/>
	<circle cx="413.666" cy="596.491" r="4" fill="#0" id="circle97"/>
	<circle cx="427.208" cy="674.362" r="4" fill="#0" id="circle98"/>
	<circle cx="427.208" cy="847.031" r="4" fill="#0" id="circle99"/>
	<circle cx="430.594" cy="566.02" r="4" fill="#0" id="circle100"/>
	<circle cx="437.365" cy="4" r="4" fill="#0" id="circle101"/>
	<circle cx="440.751" cy="454.294" r="4" fill="#0" id="circle102"/>
	<circle cx="444.137" cy="488.15" r="4" fill="#0" id="circle103"/>
	<circle cx="444.137" cy="522.007" r="4" fill="#0" id="circle104"/>
	<circle cx="444.137" cy="613.42" r="4" fill="#0" id="circle105"/>
	<circle cx="444.137" cy="708.218" r="4" fill="#0" id="circle106"/>
	<circle cx="444.137" cy="742.075" r="4" fill="#0" id="circle107"/>
	<circle cx="461.065" cy="847.031" r="4" fill="#0" id="circle108"/>
	<circle cx="471.222" cy="4" r="4" fill="#0" id="circle109"/>
	<circle cx="494.922" cy="847.031" r="4" fill="#0" id="circle110"/>
	<circle cx="505.078" cy="4" r="4" fill="#0" id="circle111"/>
	<circle cx="528.778" cy="847.031" r="4" fill="#0" id="circle112"/>
	<circle cx="538.935" cy="4" r="4" fill="#0" id="circle113"/>
	<circle cx="562.635" cy="847.031" r="4" fill="#0" id="circle114"/>
	<circle cx="572.792" cy="4" r="4" fill="#0" id="circle115"/>
	<circle cx="596.491" cy="847.031" r="4" fill="#0" id="circle116"/>
	<circle cx="606.648" cy="4" r="4" fill="#0" id="circle117"/>
	<circle cx="630.348" cy="847.031" r="4" fill="#0" id="circle118"/>
	<circle cx="637.119" cy="457.679" r="4" fill="#0" id="circle119"/>
	<circle cx="637.119" cy="491.536" r="4" fill="#0" id="circle120"/>
	<circle cx="637.119" cy="525.392" r="4" fill="#0" id="circle121"/>
	<circle cx="637.119" cy="559.249" r="4" fill="#0" id="circle122"/>
	<circle cx="637.119" cy="599.877" r="4" fill="#0" id="circle123"/>
	<circle cx="637.119" cy="633.734" r="4" fill="#0" id="circle124"/>
	<circle cx="637.119" cy="667.59" r="4" fill="#0" id="circle125"/>
	<circle cx="637.119" cy="708.218" r="4" fill="#0" id="circle126"/>
	<circle cx="637.119" cy="742.075" r="4" fill="#0" id="circle127"/>
	<circle cx="640.505" cy="4" r="4" fill="#0" id="circle128"/>
	<circle cx="640.505" cy="775.932" r="4" fill="#0" id="circle129"/>
	<circle cx="664.205" cy="847.031" r="4" fill="#0" id="circle130"/>
	<circle cx="670.976" cy="454.294" r="4" fill="#0" id="circle131"/>
	<circle cx="670.976" cy="566.02" r="4" fill="#0" id="circle132"/>
	<circle cx="670.976" cy="674.362" r="4" fill="#0" id="circle133"/>
	<circle cx="674.362" cy="4" r="4" fill="#0" id="circle134"/>
	<circle cx="674.362" cy="775.932" r="4" fill="#0" id="circle135"/>
	<circle cx="687.904" cy="596.491" r="4" fill="#0" id="circle136"/>
	<circle cx="687.904" cy="704.833" r="4" fill="#0" id="circle137"/>
	<circle cx="698.061" cy="847.031" r="4" fill="#0" id="circle138"/>
	<circle cx="704.833" cy="454.294" r="4" fill="#0" id="circle139"/>
	<circle cx="704.833" cy="566.02" r="4" fill="#0" id="circle140"/>
	<circle cx="704.833" cy="674.362" r="4" fill="#0" id="circle141"/>
	<circle cx="708.218" cy="4" r="4" fill="#0" id="circle142"/>
	<circle cx="708.218" cy="775.932" r="4" fill="#0" id="circle143"/>
	<circle cx="721.761" cy="596.491" r="4" fill="#0" id="circle144"/>
	<circle cx="721.761" cy="704.833" r="4" fill="#0" id="circle145"/>
	<circle cx="731.918" cy="847.031" r="4" fill="#0" id="circle146"/>
	<circle cx="738.689" cy="454.294" r="4" fill="#0" id="circle147"/>
	<circle cx="738.689" cy="566.02" r="4" fill="#0" id="circle148"/>
	<circle cx="738.689" cy="674.362" r="4" fill="#0" id="circle149"/>
	<circle cx="742.075" cy="4" r="4" fill="#0" id="circle150"/>
	<circle cx="742.075" cy="775.932" r="4" fill="#0" id="circle151"/>
	<circle cx="755.618" cy="596.491" r="4" fill="#0" id="circle152"/>
	<circle cx="755.618" cy="704.833" r="4" fill="#0" id="circle153"/>
	<circle cx="765.775" cy="847.031" r="4" fill="#0" id="circle154"/>
	<circle cx="772.546" cy="454.294" r="4" fill="#0" id="circle155"/>
	<circle cx="772.546" cy="566.02" r="4" fill="#0" id="circle156"/>
	<circle cx="772.546" cy="674.362" r="4" fill="#0" id="circle157"/>
	<circle cx="775.932" cy="4" r="4" fill="#0" id="circle158"/>
	<circle cx="775.932" cy="775.932" r="4" fill="#0" id="circle159"/>
	<circle cx="789.474" cy="596.491" r="4" fill="#0" id="circle160"/>
	<circle cx="789.474" cy="704.833" r="4" fill="#0" id="circle161"/>
	<circle cx="799.631" cy="860.573" r="4" fill="#0" id="circle162"/>
	<circle cx="806.403" cy="454.294" r="4" fill="#0" id="circle163"/>
	<circle cx="806.403" cy="566.02" r="4" fill="#0" id="circle164"/>
	<circle cx="806.403" cy="674.362" r="4" fill="#0" id="circle165"/>
	<circle cx="809.788" cy="4" r="4" fill="#0" id="circle166"/>
	<circle cx="809.788" cy="775.932" r="4" fill="#0" id="circle167"/>
	<circle cx="823.331" cy="596.491" r="4" fill="#0" id="circle168"/>
	<circle cx="823.331" cy="704.833" r="4" fill="#0" id="circle169"/>
	<circle cx="833.488" cy="847.031" r="4" fill="#0" id="circle170"/>
	<circle cx="840.259" cy="410.28" r="4" fill="#0" id="circle171"/>
	<circle cx="840.259" cy="444.137" r="4" fill="#0" id="circle172"/>
	<circle cx="840.259" cy="566.02" r="4" fill="#0" id="circle173"/>
	<circle cx="840.259" cy="674.362" r="4" fill="#0" id="circle174"/>
	<circle cx="843.645" cy="14.157" r="4" fill="#0" id="circle175"/>
	<circle cx="843.645" cy="775.932" r="4" fill="#0" id="circle176"/>
	<circle cx="847.031" cy="48.0137" r="4" fill="#0" id="circle177"/>
	<circle cx="847.031" cy="81.8703" r="4" fill="#0" id="circle178"/>
	<circle cx="847.031" cy="115.727" r="4" fill="#0" id="circle179"/>
	<circle cx="847.031" cy="149.584" r="4" fill="#0" id="circle180"/>
	<circle cx="847.031" cy="183.44" r="4" fill="#0" id="circle181"/>
	<circle cx="847.031" cy="217.297" r="4" fill="#0" id="circle182"/>
	<circle cx="847.031" cy="251.154" r="4" fill="#0" id="circle183"/>
	<circle cx="847.031" cy="285.01" r="4" fill="#0" id="circle184"/>
	<circle cx="847.031" cy="318.867" r="4" fill="#0" id="circle185"/>
	<circle cx="847.031" cy="352.724" r="4" fill="#0" id="circle186"/>
	<circle cx="857.188" cy="596.491" r="4" fill="#0" id="circle187"/>
	<circle cx="857.188" cy="704.833" r="4" fill="#0" id="circle188"/>
	<circle cx="867.345" cy="847.031" r="4" fill="#0" id="circle189"/>
	<circle cx="874.116" cy="566.02" r="4" fill="#0" id="circle190"/>
	<circle cx="874.116" cy="674.362" r="4" fill="#0" id="circle191"/>
	<circle cx="877.502" cy="775.932" r="4" fill="#0" id="circle192"/>
	<circle cx="901.201" cy="847.031" r="4" fill="#0" id="circle193"/>
	<circle cx="911.358" cy="775.932" r="4" fill="#0" id="circle194"/>
	<circle cx="935.058" cy="847.031" r="4" fill="#0" id="circle195"/>
	<circle cx="945.215" cy="775.932" r="4" fill="#0" id="circle196"/>
	<circle cx="968.915" cy="847.031" r="4" fill="#0" id="circle197"/>
	<circle cx="979.072" cy="775.932" r="4" fill="#0" id="circle198"/>
	<circle cx="996" cy="806.403" r="4" fill="#0" id="circle199"/>
	</g>
</svg>