<?xml version="1.0" encoding="UTF-8" standalone="no"?>
<!-- Created with CurveBenchmark -->
<svg
	xmlns:dc="http://purl.org/dc/elements/1.1/"
	xmlns:cc="http://creativecommons.org/ns#"
	xmlns:rdf="http://www.w3.org/1999/02/22-rdf-syntax-ns#"
	xmlns:svg="http://www.w3.org/2000/svg"
	xmlns="http://www.w3.org/2000/svg"
	xmlns:sodipodi="http://sodipodi.sourceforge.net/DTD/sodipodi-0.dtd"
	xmlns:inkscape="http://www.inkscape.org/namespaces/inkscape"
	width="1000"
	height="1000"
	id="svg2"
	version="1.1"
	sodipodi:docname="manifold/crust-tool58.png.txt">
<defs
	id="defs4" />
<metadata
	id="metadata7">
	<rdf:RDF>
		<cc:Work
			rdf:about="">
			<dc:format>image/svg+xml</dc:format>
			<dc:type
				rdf:resource="http://purl.org/dc/dcmitype/StillImage" />
			<dc:title></dc:title>
		</cc:Work>
	</rdf:RDF>
</metadata>
<g
	inkscape:label="Layer 1"
	inkscape:groupmode="layer"
	id="layer1">
	<path style="fill:none;stroke:red;stroke-width:1px;stroke-linecap:butt;stroke-linejoin:miter;stroke-opacity:1" d="M 72.5957,22.4681 46.2128,35.6596 z" id="boundary" inkscape:connector-curvature="0" />
	<path style="fill:none;stroke:red;stroke-width:1px;stroke-linecap:butt;stroke-linejoin:miter;stroke-opacity:1" d="M 98.9787,17.1915 72.5957,22.4681 z" id="boundary" inkscape:connector-curvature="0" />
	<path style="fill:none;stroke:red;stroke-width:1px;stroke-linecap:butt;stroke-linejoin:miter;stroke-opacity:1" d="M 122.723,4 98.9787,17.1915 z" id="boundary" inkscape:connector-curvature="0" />
	<path style="fill:none;stroke:red;stroke-width:1px;stroke-linecap:butt;stroke-linejoin:miter;stroke-opacity:1" d="M 25.1064,56.766 46.2128,35.6596 z" id="boundary" inkscape:connector-curvature="0" />
	<path style="fill:none;stroke:red;stroke-width:1px;stroke-linecap:butt;stroke-linejoin:miter;stroke-opacity:1" d="M 25.1064,56.766 4,77.8723 z" id="boundary" inkscape:connector-curvature="0" />
	<path style="fill:none;stroke:red;stroke-width:1px;stroke-linecap:butt;stroke-linejoin:miter;stroke-opacity:1" d="M 122.723,4 146.468,17.1915 z" id="boundary" inkscape:connector-curvature="0" />
	<path style="fill:none;stroke:red;stroke-width:1px;stroke-linecap:butt;stroke-linejoin:miter;stroke-opacity:1" d="M 172.851,19.8298 146.468,17.1915 z" id="boundary" inkscape:connector-curvature="0" />
	<path style="fill:none;stroke:red;stroke-width:1px;stroke-linecap:butt;stroke-linejoin:miter;stroke-opacity:1" d="M 196.596,33.0213 172.851,19.8298 z" id="boundary" inkscape:connector-curvature="0" />
	<path style="fill:none;stroke:red;stroke-width:1px;stroke-linecap:butt;stroke-linejoin:miter;stroke-opacity:1" d="M 217.702,51.4894 196.596,33.0213 z" id="boundary" inkscape:connector-curvature="0" />
	<path style="fill:none;stroke:red;stroke-width:1px;stroke-linecap:butt;stroke-linejoin:miter;stroke-opacity:1" d="M 56.766,98.9787 30.383,104.255 z" id="boundary" inkscape:connector-curvature="0" />
	<path style="fill:none;stroke:red;stroke-width:1px;stroke-linecap:butt;stroke-linejoin:miter;stroke-opacity:1" d="M 30.383,104.255 4,104.255 z" id="boundary" inkscape:connector-curvature="0" />
	<path style="fill:none;stroke:red;stroke-width:1px;stroke-linecap:butt;stroke-linejoin:miter;stroke-opacity:1" d="M 4,104.255 4,77.8723 z" id="boundary" inkscape:connector-curvature="0" />
	<path style="fill:none;stroke:red;stroke-width:1px;stroke-linecap:butt;stroke-linejoin:miter;stroke-opacity:1" d="M 56.766,98.9787 80.5106,85.7872 z" id="boundary" inkscape:connector-curvature="0" />
	<path style="fill:none;stroke:red;stroke-width:1px;stroke-linecap:butt;stroke-linejoin:miter;stroke-opacity:1" d="M 98.9787,106.894 80.5106,85.7872 z" id="boundary" inkscape:connector-curvature="0" />
	<path style="fill:none;stroke:red;stroke-width:1px;stroke-linecap:butt;stroke-linejoin:miter;stroke-opacity:1" d="M 217.702,51.4894 244.085,56.766 z" id="boundary" inkscape:connector-curvature="0" />
	<path style="fill:none;stroke:red;stroke-width:1px;stroke-linecap:butt;stroke-linejoin:miter;stroke-opacity:1" d="M 270.468,56.766 244.085,56.766 z" id="boundary" inkscape:connector-curvature="0" />
	<path style="fill:none;stroke:red;stroke-width:1px;stroke-linecap:butt;stroke-linejoin:miter;stroke-opacity:1" d="M 270.468,56.766 296.851,56.766 z" id="boundary" inkscape:connector-curvature="0" />
	<path style="fill:none;stroke:red;stroke-width:1px;stroke-linecap:butt;stroke-linejoin:miter;stroke-opacity:1" d="M 323.234,56.766 349.617,56.766 z" id="boundary" inkscape:connector-curvature="0" />
	<path style="fill:none;stroke:red;stroke-width:1px;stroke-linecap:butt;stroke-linejoin:miter;stroke-opacity:1" d="M 323.234,56.766 296.851,56.766 z" id="boundary" inkscape:connector-curvature="0" />
	<path style="fill:none;stroke:red;stroke-width:1px;stroke-linecap:butt;stroke-linejoin:miter;stroke-opacity:1" d="M 376,56.766 402.383,56.766 z" id="boundary" inkscape:connector-curvature="0" />
	<path style="fill:none;stroke:red;stroke-width:1px;stroke-linecap:butt;stroke-linejoin:miter;stroke-opacity:1" d="M 455.149,56.766 428.766,56.766 z" id="boundary" inkscape:connector-curvature="0" />
	<path style="fill:none;stroke:red;stroke-width:1px;stroke-linecap:butt;stroke-linejoin:miter;stroke-opacity:1" d="M 428.766,56.766 402.383,56.766 z" id="boundary" inkscape:connector-curvature="0" />
	<path style="fill:none;stroke:red;stroke-width:1px;stroke-linecap:butt;stroke-linejoin:miter;stroke-opacity:1" d="M 455.149,56.766 481.532,56.766 z" id="boundary" inkscape:connector-curvature="0" />
	<path style="fill:none;stroke:red;stroke-width:1px;stroke-linecap:butt;stroke-linejoin:miter;stroke-opacity:1" d="M 507.915,56.766 481.532,56.766 z" id="boundary" inkscape:connector-curvature="0" />
	<path style="fill:none;stroke:red;stroke-width:1px;stroke-linecap:butt;stroke-linejoin:miter;stroke-opacity:1" d="M 349.617,56.766 376,56.766 z" id="boundary" inkscape:connector-curvature="0" />
	<path style="fill:none;stroke:red;stroke-width:1px;stroke-linecap:butt;stroke-linejoin:miter;stroke-opacity:1" d="M 507.915,56.766 531.66,69.9574 z" id="boundary" inkscape:connector-curvature="0" />
	<path style="fill:none;stroke:red;stroke-width:1px;stroke-linecap:butt;stroke-linejoin:miter;stroke-opacity:1" d="M 109.532,133.277 98.9787,167.574 z" id="boundary" inkscape:connector-curvature="0" />
	<path style="fill:none;stroke:red;stroke-width:1px;stroke-linecap:butt;stroke-linejoin:miter;stroke-opacity:1" d="M 109.532,133.277 98.9787,106.894 z" id="boundary" inkscape:connector-curvature="0" />
	<path style="fill:none;stroke:red;stroke-width:1px;stroke-linecap:butt;stroke-linejoin:miter;stroke-opacity:1" d="M 98.9787,167.574 77.8723,188.681 z" id="boundary" inkscape:connector-curvature="0" />
	<path style="fill:none;stroke:red;stroke-width:1px;stroke-linecap:butt;stroke-linejoin:miter;stroke-opacity:1" d="M 217.702,151.745 204.511,178.128 z" id="boundary" inkscape:connector-curvature="0" />
	<path style="fill:none;stroke:red;stroke-width:1px;stroke-linecap:butt;stroke-linejoin:miter;stroke-opacity:1" d="M 204.511,178.128 178.128,191.319 z" id="boundary" inkscape:connector-curvature="0" />
	<path style="fill:none;stroke:red;stroke-width:1px;stroke-linecap:butt;stroke-linejoin:miter;stroke-opacity:1" d="M 30.383,209.787 51.4894,188.681 z" id="boundary" inkscape:connector-curvature="0" />
	<path style="fill:none;stroke:red;stroke-width:1px;stroke-linecap:butt;stroke-linejoin:miter;stroke-opacity:1" d="M 51.4894,188.681 77.8723,188.681 z" id="boundary" inkscape:connector-curvature="0" />
	<path style="fill:none;stroke:red;stroke-width:1px;stroke-linecap:butt;stroke-linejoin:miter;stroke-opacity:1" d="M 51.4894,228.255 30.383,209.787 z" id="boundary" inkscape:connector-curvature="0" />
	<path style="fill:none;stroke:red;stroke-width:1px;stroke-linecap:butt;stroke-linejoin:miter;stroke-opacity:1" d="M 77.8723,230.894 51.4894,228.255 z" id="boundary" inkscape:connector-curvature="0" />
	<path style="fill:none;stroke:red;stroke-width:1px;stroke-linecap:butt;stroke-linejoin:miter;stroke-opacity:1" d="M 178.128,191.319 151.745,204.511 z" id="boundary" inkscape:connector-curvature="0" />
	<path style="fill:none;stroke:red;stroke-width:1px;stroke-linecap:butt;stroke-linejoin:miter;stroke-opacity:1" d="M 104.255,230.894 77.8723,230.894 z" id="boundary" inkscape:connector-curvature="0" />
	<path style="fill:none;stroke:red;stroke-width:1px;stroke-linecap:butt;stroke-linejoin:miter;stroke-opacity:1" d="M 104.255,230.894 128,217.702 z" id="boundary" inkscape:connector-curvature="0" />
	<path style="fill:none;stroke:red;stroke-width:1px;stroke-linecap:butt;stroke-linejoin:miter;stroke-opacity:1" d="M 128,217.702 151.745,204.511 z" id="boundary" inkscape:connector-curvature="0" />
	<path style="fill:none;stroke:red;stroke-width:1px;stroke-linecap:butt;stroke-linejoin:miter;stroke-opacity:1" d="M 217.702,151.745 244.085,151.745 z" id="boundary" inkscape:connector-curvature="0" />
	<path style="fill:none;stroke:red;stroke-width:1px;stroke-linecap:butt;stroke-linejoin:miter;stroke-opacity:1" d="M 270.468,151.745 296.851,151.745 z" id="boundary" inkscape:connector-curvature="0" />
	<path style="fill:none;stroke:red;stroke-width:1px;stroke-linecap:butt;stroke-linejoin:miter;stroke-opacity:1" d="M 244.085,151.745 270.468,151.745 z" id="boundary" inkscape:connector-curvature="0" />
	<path style="fill:none;stroke:red;stroke-width:1px;stroke-linecap:butt;stroke-linejoin:miter;stroke-opacity:1" d="M 323.234,151.745 349.617,151.745 z" id="boundary" inkscape:connector-curvature="0" />
	<path style="fill:none;stroke:red;stroke-width:1px;stroke-linecap:butt;stroke-linejoin:miter;stroke-opacity:1" d="M 376,151.745 402.383,151.745 z" id="boundary" inkscape:connector-curvature="0" />
	<path style="fill:none;stroke:red;stroke-width:1px;stroke-linecap:butt;stroke-linejoin:miter;stroke-opacity:1" d="M 376,151.745 349.617,151.745 z" id="boundary" inkscape:connector-curvature="0" />
	<path style="fill:none;stroke:red;stroke-width:1px;stroke-linecap:butt;stroke-linejoin:miter;stroke-opacity:1" d="M 323.234,151.745 296.851,151.745 z" id="boundary" inkscape:connector-curvature="0" />
	<path style="fill:none;stroke:red;stroke-width:1px;stroke-linecap:butt;stroke-linejoin:miter;stroke-opacity:1" d="M 428.766,151.745 455.149,151.745 z" id="boundary" inkscape:connector-curvature="0" />
	<path style="fill:none;stroke:red;stroke-width:1px;stroke-linecap:butt;stroke-linejoin:miter;stroke-opacity:1" d="M 455.149,151.745 481.532,151.745 z" id="boundary" inkscape:connector-curvature="0" />
	<path style="fill:none;stroke:red;stroke-width:1px;stroke-linecap:butt;stroke-linejoin:miter;stroke-opacity:1" d="M 507.915,151.745 481.532,151.745 z" id="boundary" inkscape:connector-curvature="0" />
	<path style="fill:none;stroke:red;stroke-width:1px;stroke-linecap:butt;stroke-linejoin:miter;stroke-opacity:1" d="M 428.766,151.745 402.383,151.745 z" id="boundary" inkscape:connector-curvature="0" />
	<path style="fill:none;stroke:red;stroke-width:1px;stroke-linecap:butt;stroke-linejoin:miter;stroke-opacity:1" d="M 637.191,69.9574 610.809,69.9574 z" id="boundary" inkscape:connector-curvature="0" />
	<path style="fill:none;stroke:red;stroke-width:1px;stroke-linecap:butt;stroke-linejoin:miter;stroke-opacity:1" d="M 531.66,69.9574 558.043,69.9574 z" id="boundary" inkscape:connector-curvature="0" />
	<path style="fill:none;stroke:red;stroke-width:1px;stroke-linecap:butt;stroke-linejoin:miter;stroke-opacity:1" d="M 584.426,69.9574 610.809,69.9574 z" id="boundary" inkscape:connector-curvature="0" />
	<path style="fill:none;stroke:red;stroke-width:1px;stroke-linecap:butt;stroke-linejoin:miter;stroke-opacity:1" d="M 584.426,69.9574 558.043,69.9574 z" id="boundary" inkscape:connector-curvature="0" />
	<path style="fill:none;stroke:red;stroke-width:1px;stroke-linecap:butt;stroke-linejoin:miter;stroke-opacity:1" d="M 663.574,69.9574 637.191,69.9574 z" id="boundary" inkscape:connector-curvature="0" />
	<path style="fill:none;stroke:red;stroke-width:1px;stroke-linecap:butt;stroke-linejoin:miter;stroke-opacity:1" d="M 663.574,69.9574 689.957,69.9574 z" id="boundary" inkscape:connector-curvature="0" />
	<path style="fill:none;stroke:red;stroke-width:1px;stroke-linecap:butt;stroke-linejoin:miter;stroke-opacity:1" d="M 716.34,69.9574 689.957,69.9574 z" id="boundary" inkscape:connector-curvature="0" />
	<path style="fill:none;stroke:red;stroke-width:1px;stroke-linecap:butt;stroke-linejoin:miter;stroke-opacity:1" d="M 716.34,69.9574 742.723,69.9574 z" id="boundary" inkscape:connector-curvature="0" />
	<path style="fill:none;stroke:red;stroke-width:1px;stroke-linecap:butt;stroke-linejoin:miter;stroke-opacity:1" d="M 840.34,17.1915 816.596,30.383 z" id="boundary" inkscape:connector-curvature="0" />
	<path style="fill:none;stroke:red;stroke-width:1px;stroke-linecap:butt;stroke-linejoin:miter;stroke-opacity:1" d="M 866.723,17.1915 840.34,17.1915 z" id="boundary" inkscape:connector-curvature="0" />
	<path style="fill:none;stroke:red;stroke-width:1px;stroke-linecap:butt;stroke-linejoin:miter;stroke-opacity:1" d="M 916.851,11.9149 890.468,4 z" id="boundary" inkscape:connector-curvature="0" />
	<path style="fill:none;stroke:red;stroke-width:1px;stroke-linecap:butt;stroke-linejoin:miter;stroke-opacity:1" d="M 890.468,4 866.723,17.1915 z" id="boundary" inkscape:connector-curvature="0" />
	<path style="fill:none;stroke:red;stroke-width:1px;stroke-linecap:butt;stroke-linejoin:miter;stroke-opacity:1" d="M 795.489,51.4894 816.596,30.383 z" id="boundary" inkscape:connector-curvature="0" />
	<path style="fill:none;stroke:red;stroke-width:1px;stroke-linecap:butt;stroke-linejoin:miter;stroke-opacity:1" d="M 795.489,51.4894 769.106,64.6809 z" id="boundary" inkscape:connector-curvature="0" />
	<path style="fill:none;stroke:red;stroke-width:1px;stroke-linecap:butt;stroke-linejoin:miter;stroke-opacity:1" d="M 916.851,11.9149 940.596,25.1064 z" id="boundary" inkscape:connector-curvature="0" />
	<path style="fill:none;stroke:red;stroke-width:1px;stroke-linecap:butt;stroke-linejoin:miter;stroke-opacity:1" d="M 961.702,43.5745 940.596,25.1064 z" id="boundary" inkscape:connector-curvature="0" />
	<path style="fill:none;stroke:red;stroke-width:1px;stroke-linecap:butt;stroke-linejoin:miter;stroke-opacity:1" d="M 742.723,69.9574 769.106,64.6809 z" id="boundary" inkscape:connector-curvature="0" />
	<path style="fill:none;stroke:red;stroke-width:1px;stroke-linecap:butt;stroke-linejoin:miter;stroke-opacity:1" d="M 953.787,72.5957 927.404,77.8723 z" id="boundary" inkscape:connector-curvature="0" />
	<path style="fill:none;stroke:red;stroke-width:1px;stroke-linecap:butt;stroke-linejoin:miter;stroke-opacity:1" d="M 927.404,77.8723 901.021,85.7872 z" id="boundary" inkscape:connector-curvature="0" />
	<path style="fill:none;stroke:red;stroke-width:1px;stroke-linecap:butt;stroke-linejoin:miter;stroke-opacity:1" d="M 980.17,64.6809 953.787,72.5957 z" id="boundary" inkscape:connector-curvature="0" />
	<path style="fill:none;stroke:red;stroke-width:1px;stroke-linecap:butt;stroke-linejoin:miter;stroke-opacity:1" d="M 961.702,43.5745 980.17,64.6809 z" id="boundary" inkscape:connector-curvature="0" />
	<path style="fill:none;stroke:red;stroke-width:1px;stroke-linecap:butt;stroke-linejoin:miter;stroke-opacity:1" d="M 877.277,98.9787 877.277,125.362 z" id="boundary" inkscape:connector-curvature="0" />
	<path style="fill:none;stroke:red;stroke-width:1px;stroke-linecap:butt;stroke-linejoin:miter;stroke-opacity:1" d="M 877.277,98.9787 901.021,85.7872 z" id="boundary" inkscape:connector-curvature="0" />
	<path style="fill:none;stroke:red;stroke-width:1px;stroke-linecap:butt;stroke-linejoin:miter;stroke-opacity:1" d="M 534.298,151.745 560.681,151.745 z" id="boundary" inkscape:connector-curvature="0" />
	<path style="fill:none;stroke:red;stroke-width:1px;stroke-linecap:butt;stroke-linejoin:miter;stroke-opacity:1" d="M 587.064,151.745 613.447,151.745 z" id="boundary" inkscape:connector-curvature="0" />
	<path style="fill:none;stroke:red;stroke-width:1px;stroke-linecap:butt;stroke-linejoin:miter;stroke-opacity:1" d="M 587.064,151.745 560.681,151.745 z" id="boundary" inkscape:connector-curvature="0" />
	<path style="fill:none;stroke:red;stroke-width:1px;stroke-linecap:butt;stroke-linejoin:miter;stroke-opacity:1" d="M 613.447,151.745 639.83,151.745 z" id="boundary" inkscape:connector-curvature="0" />
	<path style="fill:none;stroke:red;stroke-width:1px;stroke-linecap:butt;stroke-linejoin:miter;stroke-opacity:1" d="M 663.574,164.936 639.83,151.745 z" id="boundary" inkscape:connector-curvature="0" />
	<path style="fill:none;stroke:red;stroke-width:1px;stroke-linecap:butt;stroke-linejoin:miter;stroke-opacity:1" d="M 689.957,164.936 716.34,164.936 z" id="boundary" inkscape:connector-curvature="0" />
	<path style="fill:none;stroke:red;stroke-width:1px;stroke-linecap:butt;stroke-linejoin:miter;stroke-opacity:1" d="M 689.957,164.936 663.574,164.936 z" id="boundary" inkscape:connector-curvature="0" />
	<path style="fill:none;stroke:red;stroke-width:1px;stroke-linecap:butt;stroke-linejoin:miter;stroke-opacity:1" d="M 716.34,164.936 742.723,164.936 z" id="boundary" inkscape:connector-curvature="0" />
	<path style="fill:none;stroke:red;stroke-width:1px;stroke-linecap:butt;stroke-linejoin:miter;stroke-opacity:1" d="M 766.468,178.128 742.723,164.936 z" id="boundary" inkscape:connector-curvature="0" />
	<path style="fill:none;stroke:red;stroke-width:1px;stroke-linecap:butt;stroke-linejoin:miter;stroke-opacity:1" d="M 790.213,191.319 766.468,178.128 z" id="boundary" inkscape:connector-curvature="0" />
	<path style="fill:none;stroke:red;stroke-width:1px;stroke-linecap:butt;stroke-linejoin:miter;stroke-opacity:1" d="M 824.511,230.894 803.404,215.064 z" id="boundary" inkscape:connector-curvature="0" />
	<path style="fill:none;stroke:red;stroke-width:1px;stroke-linecap:butt;stroke-linejoin:miter;stroke-opacity:1" d="M 803.404,215.064 790.213,191.319 z" id="boundary" inkscape:connector-curvature="0" />
	<path style="fill:none;stroke:red;stroke-width:1px;stroke-linecap:butt;stroke-linejoin:miter;stroke-opacity:1" d="M 824.511,230.894 850.894,236.17 z" id="boundary" inkscape:connector-curvature="0" />
	<path style="fill:none;stroke:red;stroke-width:1px;stroke-linecap:butt;stroke-linejoin:miter;stroke-opacity:1" d="M 507.915,151.745 534.298,151.745 z" id="boundary" inkscape:connector-curvature="0" />
	<path style="fill:none;stroke:red;stroke-width:1px;stroke-linecap:butt;stroke-linejoin:miter;stroke-opacity:1" d="M 877.277,151.745 877.277,125.362 z" id="boundary" inkscape:connector-curvature="0" />
	<path style="fill:none;stroke:red;stroke-width:1px;stroke-linecap:butt;stroke-linejoin:miter;stroke-opacity:1" d="M 943.234,175.489 916.851,175.489 z" id="boundary" inkscape:connector-curvature="0" />
	<path style="fill:none;stroke:red;stroke-width:1px;stroke-linecap:butt;stroke-linejoin:miter;stroke-opacity:1" d="M 877.277,151.745 890.468,175.489 z" id="boundary" inkscape:connector-curvature="0" />
	<path style="fill:none;stroke:red;stroke-width:1px;stroke-linecap:butt;stroke-linejoin:miter;stroke-opacity:1" d="M 916.851,175.489 890.468,175.489 z" id="boundary" inkscape:connector-curvature="0" />
	<path style="fill:none;stroke:red;stroke-width:1px;stroke-linecap:butt;stroke-linejoin:miter;stroke-opacity:1" d="M 969.617,175.489 996,175.489 z" id="boundary" inkscape:connector-curvature="0" />
	<path style="fill:none;stroke:red;stroke-width:1px;stroke-linecap:butt;stroke-linejoin:miter;stroke-opacity:1" d="M 969.617,175.489 943.234,175.489 z" id="boundary" inkscape:connector-curvature="0" />
	<path style="fill:none;stroke:red;stroke-width:1px;stroke-linecap:butt;stroke-linejoin:miter;stroke-opacity:1" d="M 996,175.489 996,201.872 z" id="boundary" inkscape:connector-curvature="0" />
	<path style="fill:none;stroke:red;stroke-width:1px;stroke-linecap:butt;stroke-linejoin:miter;stroke-opacity:1" d="M 980.17,64.6809 996,175.489 z" id="boundary" inkscape:connector-curvature="0" />
	<path style="fill:none;stroke:red;stroke-width:1px;stroke-linecap:butt;stroke-linejoin:miter;stroke-opacity:1" d="M 877.277,244.085 850.894,236.17 z" id="boundary" inkscape:connector-curvature="0" />
	<path style="fill:none;stroke:red;stroke-width:1px;stroke-linecap:butt;stroke-linejoin:miter;stroke-opacity:1" d="M 930.043,244.085 903.66,244.085 z" id="boundary" inkscape:connector-curvature="0" />
	<path style="fill:none;stroke:red;stroke-width:1px;stroke-linecap:butt;stroke-linejoin:miter;stroke-opacity:1" d="M 903.66,244.085 877.277,244.085 z" id="boundary" inkscape:connector-curvature="0" />
	<path style="fill:none;stroke:red;stroke-width:1px;stroke-linecap:butt;stroke-linejoin:miter;stroke-opacity:1" d="M 996,201.872 980.17,222.979 z" id="boundary" inkscape:connector-curvature="0" />
	<path style="fill:none;stroke:red;stroke-width:1px;stroke-linecap:butt;stroke-linejoin:miter;stroke-opacity:1" d="M 953.787,230.894 930.043,244.085 z" id="boundary" inkscape:connector-curvature="0" />
	<path style="fill:none;stroke:red;stroke-width:1px;stroke-linecap:butt;stroke-linejoin:miter;stroke-opacity:1" d="M 953.787,230.894 980.17,222.979 z" id="boundary" inkscape:connector-curvature="0" />
	<circle cx="4" cy="77.8723" r="4" fill="#0" id="circle0"/>
	<circle cx="4" cy="104.255" r="4" fill="#0" id="circle1"/>
	<circle cx="25.1064" cy="56.766" r="4" fill="#0" id="circle2"/>
	<circle cx="30.383" cy="104.255" r="4" fill="#0" id="circle3"/>
	<circle cx="30.383" cy="209.787" r="4" fill="#0" id="circle4"/>
	<circle cx="46.2128" cy="35.6596" r="4" fill="#0" id="circle5"/>
	<circle cx="51.4894" cy="188.681" r="4" fill="#0" id="circle6"/>
	<circle cx="51.4894" cy="228.255" r="4" fill="#0" id="circle7"/>
	<circle cx="56.766" cy="98.9787" r="4" fill="#0" id="circle8"/>
	<circle cx="72.5957" cy="22.4681" r="4" fill="#0" id="circle9"/>
	<circle cx="77.8723" cy="188.681" r="4" fill="#0" id="circle10"/>
	<circle cx="77.8723" cy="230.894" r="4" fill="#0" id="circle11"/>
	<circle cx="80.5106" cy="85.7872" r="4" fill="#0" id="circle12"/>
	<circle cx="98.9787" cy="17.1915" r="4" fill="#0" id="circle13"/>
	<circle cx="98.9787" cy="106.894" r="4" fill="#0" id="circle14"/>
	<circle cx="98.9787" cy="167.574" r="4" fill="#0" id="circle15"/>
	<circle cx="104.255" cy="230.894" r="4" fill="#0" id="circle16"/>
	<circle cx="109.532" cy="133.277" r="4" fill="#0" id="circle17"/>
	<circle cx="122.723" cy="4" r="4" fill="#0" id="circle18"/>
	<circle cx="128" cy="217.702" r="4" fill="#0" id="circle19"/>
	<circle cx="146.468" cy="17.1915" r="4" fill="#0" id="circle20"/>
	<circle cx="151.745" cy="204.511" r="4" fill="#0" id="circle21"/>
	<circle cx="172.851" cy="19.8298" r="4" fill="#0" id="circle22"/>
	<circle cx="178.128" cy="191.319" r="4" fill="#0" id="circle23"/>
	<circle cx="196.596" cy="33.0213" r="4" fill="#0" id="circle24"/>
	<circle cx="204.511" cy="178.128" r="4" fill="#0" id="circle25"/>
	<circle cx="217.702" cy="51.4894" r="4" fill="#0" id="circle26"/>
	<circle cx="217.702" cy="151.745" r="4" fill="#0" id="circle27"/>
	<circle cx="244.085" cy="56.766" r="4" fill="#0" id="circle28"/>
	<circle cx="244.085" cy="151.745" r="4" fill="#0" id="circle29"/>
	<circle cx="270.468" cy="56.766" r="4" fill="#0" id="circle30"/>
	<circle cx="270.468" cy="151.745" r="4" fill="#0" id="circle31"/>
	<circle cx="296.851" cy="56.766" r="4" fill="#0" id="circle32"/>
	<circle cx="296.851" cy="151.745" r="4" fill="#0" id="circle33"/>
	<circle cx="323.234" cy="56.766" r="4" fill="#0" id="circle34"/>
	<circle cx="323.234" cy="151.745" r="4" fill="#0" id="circle35"/>
	<circle cx="349.617" cy="56.766" r="4" fill="#0" id="circle36"/>
	<circle cx="349.617" cy="151.745" r="4" fill="#0" id="circle37"/>
	<circle cx="376" cy="56.766" r="4" fill="#0" id="circle38"/>
	<circle cx="376" cy="151.745" r="4" fill="#0" id="circle39"/>
	<circle cx="402.383" cy="56.766" r="4" fill="#0" id="circle40"/>
	<circle cx="402.383" cy="151.745" r="4" fill="#0" id="circle41"/>
	<circle cx="428.766" cy="56.766" r="4" fill="#0" id="circle42"/>
	<circle cx="428.766" cy="151.745" r="4" fill="#0" id="circle43"/>
	<circle cx="455.149" cy="56.766" r="4" fill="#0" id="circle44"/>
	<circle cx="455.149" cy="151.745" r="4" fill="#0" id="circle45"/>
	<circle cx="481.532" cy="56.766" r="4" fill="#0" id="circle46"/>
	<circle cx="481.532" cy="151.745" r="4" fill="#0" id="circle47"/>
	<circle cx="507.915" cy="56.766" r="4" fill="#0" id="circle48"/>
	<circle cx="507.915" cy="151.745" r="4" fill="#0" id="circle49"/>
	<circle cx="531.66" cy="69.9574" r="4" fill="#0" id="circle50"/>
	<circle cx="534.298" cy="151.745" r="4" fill="#0" id="circle51"/>
	<circle cx="558.043" cy="69.9574" r="4" fill="#0" id="circle52"/>
	<circle cx="560.681" cy="151.745" r="4" fill="#0" id="circle53"/>
	<circle cx="584.426" cy="69.9574" r="4" fill="#0" id="circle54"/>
	<circle cx="587.064" cy="151.745" r="4" fill="#0" id="circle55"/>
	<circle cx="610.809" cy="69.9574" r="4" fill="#0" id="circle56"/>
	<circle cx="613.447" cy="151.745" r="4" fill="#0" id="circle57"/>
	<circle cx="637.191" cy="69.9574" r="4" fill="#0" id="circle58"/>
	<circle cx="639.83" cy="151.745" r="4" fill="#0" id="circle59"/>
	<circle cx="663.574" cy="69.9574" r="4" fill="#0" id="circle60"/>
	<circle cx="663.574" cy="164.936" r="4" fill="#0" id="circle61"/>
	<circle cx="689.957" cy="69.9574" r="4" fill="#0" id="circle62"/>
	<circle cx="689.957" cy="164.936" r="4" fill="#0" id="circle63"/>
	<circle cx="716.34" cy="69.9574" r="4" fill="#0" id="circle64"/>
	<circle cx="716.34" cy="164.936" r="4" fill="#0" id="circle65"/>
	<circle cx="742.723" cy="69.9574" r="4" fill="#0" id="circle66"/>
	<circle cx="742.723" cy="164.936" r="4" fill="#0" id="circle67"/>
	<circle cx="766.468" cy="178.128" r="4" fill="#0" id="circle68"/>
	<circle cx="769.106" cy="64.6809" r="4" fill="#0" id="circle69"/>
	<circle cx="790.213" cy="191.319" r="4" fill="#0" id="circle70"/>
	<circle cx="795.489" cy="51.4894" r="4" fill="#0" id="circle71"/>
	<circle cx="803.404" cy="215.064" r="4" fill="#0" id="circle72"/>
	<circle cx="816.596" cy="30.383" r="4" fill="#0" id="circle73"/>
	<circle cx="824.511" cy="230.894" r="4" fill="#0" id="circle74"/>
	<circle cx="840.34" cy="17.1915" r="4" fill="#0" id="circle75"/>
	<circle cx="850.894" cy="236.17" r="4" fill="#0" id="circle76"/>
	<circle cx="866.723" cy="17.1915" r="4" fill="#0" id="circle77"/>
	<circle cx="877.277" cy="98.9787" r="4" fill="#0" id="circle78"/>
	<circle cx="877.277" cy="125.362" r="4" fill="#0" id="circle79"/>
	<circle cx="877.277" cy="151.745" r="4" fill="#0" id="circle80"/>
	<circle cx="877.277" cy="244.085" r="4" fill="#0" id="circle81"/>
	<circle cx="890.468" cy="4" r="4" fill="#0" id="circle82"/>
	<circle cx="890.468" cy="175.489" r="4" fill="#0" id="circle83"/>
	<circle cx="901.021" cy="85.7872" r="4" fill="#0" id="circle84"/>
	<circle cx="903.66" cy="244.085" r="4" fill="#0" id="circle85"/>
	<circle cx="916.851" cy="11.9149" r="4" fill="#0" id="circle86"/>
	<circle cx="916.851" cy="175.489" r="4" fill="#0" id="circle87"/>
	<circle cx="927.404" cy="77.8723" r="4" fill="#0" id="circle88"/>
	<circle cx="930.043" cy="244.085" r="4" fill="#0" id="circle89"/>
	<circle cx="940.596" cy="25.1064" r="4" fill="#0" id="circle90"/>
	<circle cx="943.234" cy="175.489" r="4" fill="#0" id="circle91"/>
	<circle cx="953.787" cy="72.5957" r="4" fill="#0" id="circle92"/>
	<circle cx="953.787" cy="230.894" r="4" fill="#0" id="circle93"/>
	<circle cx="961.702" cy="43.5745" r="4" fill="#0" id="circle94"/>
	<circle cx="969.617" cy="175.489" r="4" fill="#0" id="circle95"/>
	<circle cx="980.17" cy="64.6809" r="4" fill="#0" id="circle96"/>
	<circle cx="980.17" cy="222.979" r="4" fill="#0" id="circle97"/>
	<circle cx="996" cy="175.489" r="4" fill="#0" id="circle98"/>
	<circle cx="996" cy="201.872" r="4" fill="#0" id="circle99"/>
	</g>
</svg>