<?xml version="1.0" encoding="UTF-8" standalone="no"?>
<!-- Created with CurveBenchmark -->
<svg
	xmlns:dc="http://purl.org/dc/elements/1.1/"
	xmlns:cc="http://creativecommons.org/ns#"
	xmlns:rdf="http://www.w3.org/1999/02/22-rdf-syntax-ns#"
	xmlns:svg="http://www.w3.org/2000/svg"
	xmlns="http://www.w3.org/2000/svg"
	xmlns:sodipodi="http://sodipodi.sourceforge.net/DTD/sodipodi-0.dtd"
	xmlns:inkscape="http://www.inkscape.org/namespaces/inkscape"
	width="1000"
	height="1000"
	id="svg2"
	version="1.1"
	sodipodi:docname="manifold/crust-Misk24.png.txt">
<defs
	id="defs4" />
<metadata
	id="metadata7">
	<rdf:RDF>
		<cc:Work
			rdf:about="">
			<dc:format>image/svg+xml</dc:format>
			<dc:type
				rdf:resource="http://purl.org/dc/dcmitype/StillImage" />
			<dc:title></dc:title>
		</cc:Work>
	</rdf:RDF>
</metadata>
<g
	inkscape:label="Layer 1"
	inkscape:groupmode="layer"
	id="layer1">
	<path style="fill:none;stroke:red;stroke-width:1px;stroke-linecap:butt;stroke-linejoin:miter;stroke-opacity:1" d="M 43.8928,167.56 43.8928,154.263 z" id="boundary" inkscape:connector-curvature="0" />
	<path style="fill:none;stroke:red;stroke-width:1px;stroke-linecap:butt;stroke-linejoin:miter;stroke-opacity:1" d="M 43.8928,167.56 50.5416,179.528 z" id="boundary" inkscape:connector-curvature="0" />
	<path style="fill:none;stroke:red;stroke-width:1px;stroke-linecap:butt;stroke-linejoin:miter;stroke-opacity:1" d="M 54.5308,143.625 43.8928,154.263 z" id="boundary" inkscape:connector-curvature="0" />
	<path style="fill:none;stroke:red;stroke-width:1px;stroke-linecap:butt;stroke-linejoin:miter;stroke-opacity:1" d="M 59.8499,190.166 50.5416,179.528 z" id="boundary" inkscape:connector-curvature="0" />
	<path style="fill:none;stroke:red;stroke-width:1px;stroke-linecap:butt;stroke-linejoin:miter;stroke-opacity:1" d="M 59.8499,190.166 73.1475,195.485 z" id="boundary" inkscape:connector-curvature="0" />
	<path style="fill:none;stroke:red;stroke-width:1px;stroke-linecap:butt;stroke-linejoin:miter;stroke-opacity:1" d="M 54.5308,143.625 66.4987,136.976 z" id="boundary" inkscape:connector-curvature="0" />
	<path style="fill:none;stroke:red;stroke-width:1px;stroke-linecap:butt;stroke-linejoin:miter;stroke-opacity:1" d="M 90.4343,123.678 78.4665,130.327 z" id="boundary" inkscape:connector-curvature="0" />
	<path style="fill:none;stroke:red;stroke-width:1px;stroke-linecap:butt;stroke-linejoin:miter;stroke-opacity:1" d="M 102.402,117.029 90.4343,123.678 z" id="boundary" inkscape:connector-curvature="0" />
	<path style="fill:none;stroke:red;stroke-width:1px;stroke-linecap:butt;stroke-linejoin:miter;stroke-opacity:1" d="M 78.4665,130.327 66.4987,136.976 z" id="boundary" inkscape:connector-curvature="0" />
	<path style="fill:none;stroke:red;stroke-width:1px;stroke-linecap:butt;stroke-linejoin:miter;stroke-opacity:1" d="M 131.657,86.445 122.349,97.0831 z" id="boundary" inkscape:connector-curvature="0" />
	<path style="fill:none;stroke:red;stroke-width:1px;stroke-linecap:butt;stroke-linejoin:miter;stroke-opacity:1" d="M 122.349,97.0831 111.71,106.391 z" id="boundary" inkscape:connector-curvature="0" />
	<path style="fill:none;stroke:red;stroke-width:1px;stroke-linecap:butt;stroke-linejoin:miter;stroke-opacity:1" d="M 142.295,77.1367 131.657,86.445 z" id="boundary" inkscape:connector-curvature="0" />
	<path style="fill:none;stroke:red;stroke-width:1px;stroke-linecap:butt;stroke-linejoin:miter;stroke-opacity:1" d="M 111.71,106.391 102.402,117.029 z" id="boundary" inkscape:connector-curvature="0" />
	<path style="fill:none;stroke:red;stroke-width:1px;stroke-linecap:butt;stroke-linejoin:miter;stroke-opacity:1" d="M 83.7855,204.794 73.1475,195.485 z" id="boundary" inkscape:connector-curvature="0" />
	<path style="fill:none;stroke:red;stroke-width:1px;stroke-linecap:butt;stroke-linejoin:miter;stroke-opacity:1" d="M 91.7641,215.432 83.7855,204.794 z" id="boundary" inkscape:connector-curvature="0" />
	<path style="fill:none;stroke:red;stroke-width:1px;stroke-linecap:butt;stroke-linejoin:miter;stroke-opacity:1" d="M 102.402,224.74 91.7641,215.432 z" id="boundary" inkscape:connector-curvature="0" />
	<path style="fill:none;stroke:red;stroke-width:1px;stroke-linecap:butt;stroke-linejoin:miter;stroke-opacity:1" d="M 102.402,224.74 110.381,235.378 z" id="boundary" inkscape:connector-curvature="0" />
	<path style="fill:none;stroke:red;stroke-width:1px;stroke-linecap:butt;stroke-linejoin:miter;stroke-opacity:1" d="M 110.381,235.378 117.029,247.346 z" id="boundary" inkscape:connector-curvature="0" />
	<path style="fill:none;stroke:red;stroke-width:1px;stroke-linecap:butt;stroke-linejoin:miter;stroke-opacity:1" d="M 117.029,247.346 127.668,256.654 z" id="boundary" inkscape:connector-curvature="0" />
	<path style="fill:none;stroke:red;stroke-width:1px;stroke-linecap:butt;stroke-linejoin:miter;stroke-opacity:1" d="M 127.668,256.654 130.327,269.952 z" id="boundary" inkscape:connector-curvature="0" />
	<path style="fill:none;stroke:red;stroke-width:1px;stroke-linecap:butt;stroke-linejoin:miter;stroke-opacity:1" d="M 117.029,446.81 110.381,460.107 z" id="boundary" inkscape:connector-curvature="0" />
	<path style="fill:none;stroke:red;stroke-width:1px;stroke-linecap:butt;stroke-linejoin:miter;stroke-opacity:1" d="M 123.678,426.863 117.029,446.81 z" id="boundary" inkscape:connector-curvature="0" />
	<path style="fill:none;stroke:red;stroke-width:1px;stroke-linecap:butt;stroke-linejoin:miter;stroke-opacity:1" d="M 110.381,460.107 103.732,480.054 z" id="boundary" inkscape:connector-curvature="0" />
	<path style="fill:none;stroke:red;stroke-width:1px;stroke-linecap:butt;stroke-linejoin:miter;stroke-opacity:1" d="M 94.4236,496.011 83.7855,506.649 z" id="boundary" inkscape:connector-curvature="0" />
	<path style="fill:none;stroke:red;stroke-width:1px;stroke-linecap:butt;stroke-linejoin:miter;stroke-opacity:1" d="M 103.732,480.054 94.4236,496.011 z" id="boundary" inkscape:connector-curvature="0" />
	<path style="fill:none;stroke:red;stroke-width:1px;stroke-linecap:butt;stroke-linejoin:miter;stroke-opacity:1" d="M 83.7855,506.649 77.1367,519.946 z" id="boundary" inkscape:connector-curvature="0" />
	<path style="fill:none;stroke:red;stroke-width:1px;stroke-linecap:butt;stroke-linejoin:miter;stroke-opacity:1" d="M 130.327,269.952 136.976,281.92 z" id="boundary" inkscape:connector-curvature="0" />
	<path style="fill:none;stroke:red;stroke-width:1px;stroke-linecap:butt;stroke-linejoin:miter;stroke-opacity:1" d="M 130.327,413.566 123.678,426.863 z" id="boundary" inkscape:connector-curvature="0" />
	<path style="fill:none;stroke:red;stroke-width:1px;stroke-linecap:butt;stroke-linejoin:miter;stroke-opacity:1" d="M 136.976,393.619 130.327,413.566 z" id="boundary" inkscape:connector-curvature="0" />
	<path style="fill:none;stroke:red;stroke-width:1px;stroke-linecap:butt;stroke-linejoin:miter;stroke-opacity:1" d="M 136.976,281.92 143.625,293.887 z" id="boundary" inkscape:connector-curvature="0" />
	<path style="fill:none;stroke:red;stroke-width:1px;stroke-linecap:butt;stroke-linejoin:miter;stroke-opacity:1" d="M 143.625,373.673 136.976,393.619 z" id="boundary" inkscape:connector-curvature="0" />
	<path style="fill:none;stroke:red;stroke-width:1px;stroke-linecap:butt;stroke-linejoin:miter;stroke-opacity:1" d="M 70.4879,553.19 70.4879,539.893 z" id="boundary" inkscape:connector-curvature="0" />
	<path style="fill:none;stroke:red;stroke-width:1px;stroke-linecap:butt;stroke-linejoin:miter;stroke-opacity:1" d="M 77.1367,519.946 70.4879,539.893 z" id="boundary" inkscape:connector-curvature="0" />
	<path style="fill:none;stroke:red;stroke-width:1px;stroke-linecap:butt;stroke-linejoin:miter;stroke-opacity:1" d="M 70.4879,566.488 70.4879,553.19 z" id="boundary" inkscape:connector-curvature="0" />
	<path style="fill:none;stroke:red;stroke-width:1px;stroke-linecap:butt;stroke-linejoin:miter;stroke-opacity:1" d="M 77.1367,591.753 70.4879,579.786 z" id="boundary" inkscape:connector-curvature="0" />
	<path style="fill:none;stroke:red;stroke-width:1px;stroke-linecap:butt;stroke-linejoin:miter;stroke-opacity:1" d="M 70.4879,579.786 70.4879,566.488 z" id="boundary" inkscape:connector-curvature="0" />
	<path style="fill:none;stroke:red;stroke-width:1px;stroke-linecap:butt;stroke-linejoin:miter;stroke-opacity:1" d="M 200.804,37.244 187.507,43.8928 z" id="boundary" inkscape:connector-curvature="0" />
	<path style="fill:none;stroke:red;stroke-width:1px;stroke-linecap:butt;stroke-linejoin:miter;stroke-opacity:1" d="M 212.772,30.5952 200.804,37.244 z" id="boundary" inkscape:connector-curvature="0" />
	<path style="fill:none;stroke:red;stroke-width:1px;stroke-linecap:butt;stroke-linejoin:miter;stroke-opacity:1" d="M 175.539,50.5416 187.507,43.8928 z" id="boundary" inkscape:connector-curvature="0" />
	<path style="fill:none;stroke:red;stroke-width:1px;stroke-linecap:butt;stroke-linejoin:miter;stroke-opacity:1" d="M 164.901,59.8499 175.539,50.5416 z" id="boundary" inkscape:connector-curvature="0" />
	<path style="fill:none;stroke:red;stroke-width:1px;stroke-linecap:butt;stroke-linejoin:miter;stroke-opacity:1" d="M 154.263,70.4879 142.295,77.1367 z" id="boundary" inkscape:connector-curvature="0" />
	<path style="fill:none;stroke:red;stroke-width:1px;stroke-linecap:butt;stroke-linejoin:miter;stroke-opacity:1" d="M 164.901,59.8499 154.263,70.4879 z" id="boundary" inkscape:connector-curvature="0" />
	<path style="fill:none;stroke:red;stroke-width:1px;stroke-linecap:butt;stroke-linejoin:miter;stroke-opacity:1" d="M 248.676,10.6488 260.643,4 z" id="boundary" inkscape:connector-curvature="0" />
	<path style="fill:none;stroke:red;stroke-width:1px;stroke-linecap:butt;stroke-linejoin:miter;stroke-opacity:1" d="M 248.676,10.6488 236.708,17.2976 z" id="boundary" inkscape:connector-curvature="0" />
	<path style="fill:none;stroke:red;stroke-width:1px;stroke-linecap:butt;stroke-linejoin:miter;stroke-opacity:1" d="M 273.941,4 260.643,4 z" id="boundary" inkscape:connector-curvature="0" />
	<path style="fill:none;stroke:red;stroke-width:1px;stroke-linecap:butt;stroke-linejoin:miter;stroke-opacity:1" d="M 224.74,23.9464 236.708,17.2976 z" id="boundary" inkscape:connector-curvature="0" />
	<path style="fill:none;stroke:red;stroke-width:1px;stroke-linecap:butt;stroke-linejoin:miter;stroke-opacity:1" d="M 224.74,23.9464 212.772,30.5952 z" id="boundary" inkscape:connector-curvature="0" />
	<path style="fill:none;stroke:red;stroke-width:1px;stroke-linecap:butt;stroke-linejoin:miter;stroke-opacity:1" d="M 273.941,4 287.239,4 z" id="boundary" inkscape:connector-curvature="0" />
	<path style="fill:none;stroke:red;stroke-width:1px;stroke-linecap:butt;stroke-linejoin:miter;stroke-opacity:1" d="M 300.536,4 287.239,4 z" id="boundary" inkscape:connector-curvature="0" />
	<path style="fill:none;stroke:red;stroke-width:1px;stroke-linecap:butt;stroke-linejoin:miter;stroke-opacity:1" d="M 313.834,4 300.536,4 z" id="boundary" inkscape:connector-curvature="0" />
	<path style="fill:none;stroke:red;stroke-width:1px;stroke-linecap:butt;stroke-linejoin:miter;stroke-opacity:1" d="M 327.131,4 340.429,4 z" id="boundary" inkscape:connector-curvature="0" />
	<path style="fill:none;stroke:red;stroke-width:1px;stroke-linecap:butt;stroke-linejoin:miter;stroke-opacity:1" d="M 353.727,4 340.429,4 z" id="boundary" inkscape:connector-curvature="0" />
	<path style="fill:none;stroke:red;stroke-width:1px;stroke-linecap:butt;stroke-linejoin:miter;stroke-opacity:1" d="M 327.131,4 313.834,4 z" id="boundary" inkscape:connector-curvature="0" />
	<path style="fill:none;stroke:red;stroke-width:1px;stroke-linecap:butt;stroke-linejoin:miter;stroke-opacity:1" d="M 380.322,4 367.024,4 z" id="boundary" inkscape:connector-curvature="0" />
	<path style="fill:none;stroke:red;stroke-width:1px;stroke-linecap:butt;stroke-linejoin:miter;stroke-opacity:1" d="M 367.024,4 353.727,4 z" id="boundary" inkscape:connector-curvature="0" />
	<path style="fill:none;stroke:red;stroke-width:1px;stroke-linecap:butt;stroke-linejoin:miter;stroke-opacity:1" d="M 392.29,10.6488 380.322,4 z" id="boundary" inkscape:connector-curvature="0" />
	<path style="fill:none;stroke:red;stroke-width:1px;stroke-linecap:butt;stroke-linejoin:miter;stroke-opacity:1" d="M 405.587,10.6488 392.29,10.6488 z" id="boundary" inkscape:connector-curvature="0" />
	<path style="fill:none;stroke:red;stroke-width:1px;stroke-linecap:butt;stroke-linejoin:miter;stroke-opacity:1" d="M 417.555,17.2976 405.587,10.6488 z" id="boundary" inkscape:connector-curvature="0" />
	<path style="fill:none;stroke:red;stroke-width:1px;stroke-linecap:butt;stroke-linejoin:miter;stroke-opacity:1" d="M 417.555,17.2976 430.853,17.2976 z" id="boundary" inkscape:connector-curvature="0" />
	<path style="fill:none;stroke:red;stroke-width:1px;stroke-linecap:butt;stroke-linejoin:miter;stroke-opacity:1" d="M 143.625,307.185 143.625,320.483 z" id="boundary" inkscape:connector-curvature="0" />
	<path style="fill:none;stroke:red;stroke-width:1px;stroke-linecap:butt;stroke-linejoin:miter;stroke-opacity:1" d="M 143.625,307.185 143.625,293.887 z" id="boundary" inkscape:connector-curvature="0" />
	<path style="fill:none;stroke:red;stroke-width:1px;stroke-linecap:butt;stroke-linejoin:miter;stroke-opacity:1" d="M 143.625,320.483 143.625,333.78 z" id="boundary" inkscape:connector-curvature="0" />
	<path style="fill:none;stroke:red;stroke-width:1px;stroke-linecap:butt;stroke-linejoin:miter;stroke-opacity:1" d="M 143.625,347.078 143.625,360.375 z" id="boundary" inkscape:connector-curvature="0" />
	<path style="fill:none;stroke:red;stroke-width:1px;stroke-linecap:butt;stroke-linejoin:miter;stroke-opacity:1" d="M 143.625,347.078 143.625,333.78 z" id="boundary" inkscape:connector-curvature="0" />
	<path style="fill:none;stroke:red;stroke-width:1px;stroke-linecap:butt;stroke-linejoin:miter;stroke-opacity:1" d="M 143.625,373.673 143.625,360.375 z" id="boundary" inkscape:connector-curvature="0" />
	<path style="fill:none;stroke:red;stroke-width:1px;stroke-linecap:butt;stroke-linejoin:miter;stroke-opacity:1" d="M 91.7641,627.657 83.7855,617.019 z" id="boundary" inkscape:connector-curvature="0" />
	<path style="fill:none;stroke:red;stroke-width:1px;stroke-linecap:butt;stroke-linejoin:miter;stroke-opacity:1" d="M 83.7855,617.019 77.1367,605.051 z" id="boundary" inkscape:connector-curvature="0" />
	<path style="fill:none;stroke:red;stroke-width:1px;stroke-linecap:butt;stroke-linejoin:miter;stroke-opacity:1" d="M 91.7641,627.657 102.402,636.965 z" id="boundary" inkscape:connector-curvature="0" />
	<path style="fill:none;stroke:red;stroke-width:1px;stroke-linecap:butt;stroke-linejoin:miter;stroke-opacity:1" d="M 77.1367,591.753 77.1367,605.051 z" id="boundary" inkscape:connector-curvature="0" />
	<path style="fill:none;stroke:red;stroke-width:1px;stroke-linecap:butt;stroke-linejoin:miter;stroke-opacity:1" d="M 95.7534,848.397 85.1153,857.705 z" id="boundary" inkscape:connector-curvature="0" />
	<path style="fill:none;stroke:red;stroke-width:1px;stroke-linecap:butt;stroke-linejoin:miter;stroke-opacity:1" d="M 85.1153,857.705 75.807,868.343 z" id="boundary" inkscape:connector-curvature="0" />
	<path style="fill:none;stroke:red;stroke-width:1px;stroke-linecap:butt;stroke-linejoin:miter;stroke-opacity:1" d="M 127.668,630.316 114.37,630.316 z" id="boundary" inkscape:connector-curvature="0" />
	<path style="fill:none;stroke:red;stroke-width:1px;stroke-linecap:butt;stroke-linejoin:miter;stroke-opacity:1" d="M 102.402,636.965 114.37,630.316 z" id="boundary" inkscape:connector-curvature="0" />
	<path style="fill:none;stroke:red;stroke-width:1px;stroke-linecap:butt;stroke-linejoin:miter;stroke-opacity:1" d="M 127.668,630.316 140.965,630.316 z" id="boundary" inkscape:connector-curvature="0" />
	<path style="fill:none;stroke:red;stroke-width:1px;stroke-linecap:butt;stroke-linejoin:miter;stroke-opacity:1" d="M 125.008,811.164 114.37,821.802 z" id="boundary" inkscape:connector-curvature="0" />
	<path style="fill:none;stroke:red;stroke-width:1px;stroke-linecap:butt;stroke-linejoin:miter;stroke-opacity:1" d="M 95.7534,848.397 103.732,832.44 z" id="boundary" inkscape:connector-curvature="0" />
	<path style="fill:none;stroke:red;stroke-width:1px;stroke-linecap:butt;stroke-linejoin:miter;stroke-opacity:1" d="M 114.37,821.802 103.732,832.44 z" id="boundary" inkscape:connector-curvature="0" />
	<path style="fill:none;stroke:red;stroke-width:1px;stroke-linecap:butt;stroke-linejoin:miter;stroke-opacity:1" d="M 155.592,781.909 144.954,791.217 z" id="boundary" inkscape:connector-curvature="0" />
	<path style="fill:none;stroke:red;stroke-width:1px;stroke-linecap:butt;stroke-linejoin:miter;stroke-opacity:1" d="M 125.008,811.164 135.646,801.855 z" id="boundary" inkscape:connector-curvature="0" />
	<path style="fill:none;stroke:red;stroke-width:1px;stroke-linecap:butt;stroke-linejoin:miter;stroke-opacity:1" d="M 144.954,791.217 135.646,801.855 z" id="boundary" inkscape:connector-curvature="0" />
	<path style="fill:none;stroke:red;stroke-width:1px;stroke-linecap:butt;stroke-linejoin:miter;stroke-opacity:1" d="M 140.965,630.316 151.603,639.625 z" id="boundary" inkscape:connector-curvature="0" />
	<path style="fill:none;stroke:red;stroke-width:1px;stroke-linecap:butt;stroke-linejoin:miter;stroke-opacity:1" d="M 14.6381,928.182 25.2761,917.544 z" id="boundary" inkscape:connector-curvature="0" />
	<path style="fill:none;stroke:red;stroke-width:1px;stroke-linecap:butt;stroke-linejoin:miter;stroke-opacity:1" d="M 35.9142,908.236 25.2761,917.544 z" id="boundary" inkscape:connector-curvature="0" />
	<path style="fill:none;stroke:red;stroke-width:1px;stroke-linecap:butt;stroke-linejoin:miter;stroke-opacity:1" d="M 45.2225,897.598 55.8606,888.29 z" id="boundary" inkscape:connector-curvature="0" />
	<path style="fill:none;stroke:red;stroke-width:1px;stroke-linecap:butt;stroke-linejoin:miter;stroke-opacity:1" d="M 69.1582,949.458 55.8606,949.458 z" id="boundary" inkscape:connector-curvature="0" />
	<path style="fill:none;stroke:red;stroke-width:1px;stroke-linecap:butt;stroke-linejoin:miter;stroke-opacity:1" d="M 35.9142,908.236 45.2225,897.598 z" id="boundary" inkscape:connector-curvature="0" />
	<path style="fill:none;stroke:red;stroke-width:1px;stroke-linecap:butt;stroke-linejoin:miter;stroke-opacity:1" d="M 4,938.82 14.6381,928.182 z" id="boundary" inkscape:connector-curvature="0" />
	<path style="fill:none;stroke:red;stroke-width:1px;stroke-linecap:butt;stroke-linejoin:miter;stroke-opacity:1" d="M 17.2976,942.81 4,938.82 z" id="boundary" inkscape:connector-curvature="0" />
	<path style="fill:none;stroke:red;stroke-width:1px;stroke-linecap:butt;stroke-linejoin:miter;stroke-opacity:1" d="M 17.2976,942.81 30.5952,942.81 z" id="boundary" inkscape:connector-curvature="0" />
	<path style="fill:none;stroke:red;stroke-width:1px;stroke-linecap:butt;stroke-linejoin:miter;stroke-opacity:1" d="M 30.5952,942.81 43.8928,942.81 z" id="boundary" inkscape:connector-curvature="0" />
	<path style="fill:none;stroke:red;stroke-width:1px;stroke-linecap:butt;stroke-linejoin:miter;stroke-opacity:1" d="M 43.8928,942.81 55.8606,949.458 z" id="boundary" inkscape:connector-curvature="0" />
	<path style="fill:none;stroke:red;stroke-width:1px;stroke-linecap:butt;stroke-linejoin:miter;stroke-opacity:1" d="M 65.1689,877.651 75.807,868.343 z" id="boundary" inkscape:connector-curvature="0" />
	<path style="fill:none;stroke:red;stroke-width:1px;stroke-linecap:butt;stroke-linejoin:miter;stroke-opacity:1" d="M 82.4558,949.458 69.1582,949.458 z" id="boundary" inkscape:connector-curvature="0" />
	<path style="fill:none;stroke:red;stroke-width:1px;stroke-linecap:butt;stroke-linejoin:miter;stroke-opacity:1" d="M 95.7534,949.458 82.4558,949.458 z" id="boundary" inkscape:connector-curvature="0" />
	<path style="fill:none;stroke:red;stroke-width:1px;stroke-linecap:butt;stroke-linejoin:miter;stroke-opacity:1" d="M 109.051,949.458 122.349,949.458 z" id="boundary" inkscape:connector-curvature="0" />
	<path style="fill:none;stroke:red;stroke-width:1px;stroke-linecap:butt;stroke-linejoin:miter;stroke-opacity:1" d="M 134.316,956.107 122.349,949.458 z" id="boundary" inkscape:connector-curvature="0" />
	<path style="fill:none;stroke:red;stroke-width:1px;stroke-linecap:butt;stroke-linejoin:miter;stroke-opacity:1" d="M 134.316,956.107 147.614,956.107 z" id="boundary" inkscape:connector-curvature="0" />
	<path style="fill:none;stroke:red;stroke-width:1px;stroke-linecap:butt;stroke-linejoin:miter;stroke-opacity:1" d="M 95.7534,949.458 109.051,949.458 z" id="boundary" inkscape:connector-curvature="0" />
	<path style="fill:none;stroke:red;stroke-width:1px;stroke-linecap:butt;stroke-linejoin:miter;stroke-opacity:1" d="M 160.912,956.107 147.614,956.107 z" id="boundary" inkscape:connector-curvature="0" />
	<path style="fill:none;stroke:red;stroke-width:1px;stroke-linecap:butt;stroke-linejoin:miter;stroke-opacity:1" d="M 55.8606,888.29 65.1689,877.651 z" id="boundary" inkscape:connector-curvature="0" />
	<path style="fill:none;stroke:red;stroke-width:1px;stroke-linecap:butt;stroke-linejoin:miter;stroke-opacity:1" d="M 167.56,662.231 156.922,652.922 z" id="boundary" inkscape:connector-curvature="0" />
	<path style="fill:none;stroke:red;stroke-width:1px;stroke-linecap:butt;stroke-linejoin:miter;stroke-opacity:1" d="M 176.869,672.869 167.56,662.231 z" id="boundary" inkscape:connector-curvature="0" />
	<path style="fill:none;stroke:red;stroke-width:1px;stroke-linecap:butt;stroke-linejoin:miter;stroke-opacity:1" d="M 176.869,672.869 176.869,686.166 z" id="boundary" inkscape:connector-curvature="0" />
	<path style="fill:none;stroke:red;stroke-width:1px;stroke-linecap:butt;stroke-linejoin:miter;stroke-opacity:1" d="M 156.922,652.922 151.603,639.625 z" id="boundary" inkscape:connector-curvature="0" />
	<path style="fill:none;stroke:red;stroke-width:1px;stroke-linecap:butt;stroke-linejoin:miter;stroke-opacity:1" d="M 183.517,698.134 176.869,686.166 z" id="boundary" inkscape:connector-curvature="0" />
	<path style="fill:none;stroke:red;stroke-width:1px;stroke-linecap:butt;stroke-linejoin:miter;stroke-opacity:1" d="M 192.826,708.772 183.517,698.134 z" id="boundary" inkscape:connector-curvature="0" />
	<path style="fill:none;stroke:red;stroke-width:1px;stroke-linecap:butt;stroke-linejoin:miter;stroke-opacity:1" d="M 203.464,716.751 192.826,708.772 z" id="boundary" inkscape:connector-curvature="0" />
	<path style="fill:none;stroke:red;stroke-width:1px;stroke-linecap:butt;stroke-linejoin:miter;stroke-opacity:1" d="M 204.794,731.378 203.464,716.751 z" id="boundary" inkscape:connector-curvature="0" />
	<path style="fill:none;stroke:red;stroke-width:1px;stroke-linecap:butt;stroke-linejoin:miter;stroke-opacity:1" d="M 184.847,751.324 175.539,761.962 z" id="boundary" inkscape:connector-curvature="0" />
	<path style="fill:none;stroke:red;stroke-width:1px;stroke-linecap:butt;stroke-linejoin:miter;stroke-opacity:1" d="M 175.539,761.962 164.901,771.271 z" id="boundary" inkscape:connector-curvature="0" />
	<path style="fill:none;stroke:red;stroke-width:1px;stroke-linecap:butt;stroke-linejoin:miter;stroke-opacity:1" d="M 164.901,771.271 155.592,781.909 z" id="boundary" inkscape:connector-curvature="0" />
	<path style="fill:none;stroke:red;stroke-width:1px;stroke-linecap:butt;stroke-linejoin:miter;stroke-opacity:1" d="M 204.794,731.378 195.485,742.016 z" id="boundary" inkscape:connector-curvature="0" />
	<path style="fill:none;stroke:red;stroke-width:1px;stroke-linecap:butt;stroke-linejoin:miter;stroke-opacity:1" d="M 184.847,751.324 195.485,742.016 z" id="boundary" inkscape:connector-curvature="0" />
	<path style="fill:none;stroke:red;stroke-width:1px;stroke-linecap:butt;stroke-linejoin:miter;stroke-opacity:1" d="M 187.507,956.107 174.209,956.107 z" id="boundary" inkscape:connector-curvature="0" />
	<path style="fill:none;stroke:red;stroke-width:1px;stroke-linecap:butt;stroke-linejoin:miter;stroke-opacity:1" d="M 174.209,956.107 160.912,956.107 z" id="boundary" inkscape:connector-curvature="0" />
	<path style="fill:none;stroke:red;stroke-width:1px;stroke-linecap:butt;stroke-linejoin:miter;stroke-opacity:1" d="M 200.804,956.107 187.507,956.107 z" id="boundary" inkscape:connector-curvature="0" />
	<path style="fill:none;stroke:red;stroke-width:1px;stroke-linecap:butt;stroke-linejoin:miter;stroke-opacity:1" d="M 214.102,961.426 200.804,956.107 z" id="boundary" inkscape:connector-curvature="0" />
	<path style="fill:none;stroke:red;stroke-width:1px;stroke-linecap:butt;stroke-linejoin:miter;stroke-opacity:1" d="M 214.102,961.426 227.399,962.756 z" id="boundary" inkscape:connector-curvature="0" />
	<path style="fill:none;stroke:red;stroke-width:1px;stroke-linecap:butt;stroke-linejoin:miter;stroke-opacity:1" d="M 227.399,962.756 240.697,962.756 z" id="boundary" inkscape:connector-curvature="0" />
	<path style="fill:none;stroke:red;stroke-width:1px;stroke-linecap:butt;stroke-linejoin:miter;stroke-opacity:1" d="M 240.697,962.756 253.995,962.756 z" id="boundary" inkscape:connector-curvature="0" />
	<path style="fill:none;stroke:red;stroke-width:1px;stroke-linecap:butt;stroke-linejoin:miter;stroke-opacity:1" d="M 253.995,962.756 267.292,962.756 z" id="boundary" inkscape:connector-curvature="0" />
	<path style="fill:none;stroke:red;stroke-width:1px;stroke-linecap:butt;stroke-linejoin:miter;stroke-opacity:1" d="M 280.59,962.756 267.292,962.756 z" id="boundary" inkscape:connector-curvature="0" />
	<path style="fill:none;stroke:red;stroke-width:1px;stroke-linecap:butt;stroke-linejoin:miter;stroke-opacity:1" d="M 332.45,969.405 319.153,969.405 z" id="boundary" inkscape:connector-curvature="0" />
	<path style="fill:none;stroke:red;stroke-width:1px;stroke-linecap:butt;stroke-linejoin:miter;stroke-opacity:1" d="M 293.887,962.756 280.59,962.756 z" id="boundary" inkscape:connector-curvature="0" />
	<path style="fill:none;stroke:red;stroke-width:1px;stroke-linecap:butt;stroke-linejoin:miter;stroke-opacity:1" d="M 305.855,969.405 293.887,962.756 z" id="boundary" inkscape:connector-curvature="0" />
	<path style="fill:none;stroke:red;stroke-width:1px;stroke-linecap:butt;stroke-linejoin:miter;stroke-opacity:1" d="M 319.153,969.405 305.855,969.405 z" id="boundary" inkscape:connector-curvature="0" />
	<path style="fill:none;stroke:red;stroke-width:1px;stroke-linecap:butt;stroke-linejoin:miter;stroke-opacity:1" d="M 345.748,969.405 332.45,969.405 z" id="boundary" inkscape:connector-curvature="0" />
	<path style="fill:none;stroke:red;stroke-width:1px;stroke-linecap:butt;stroke-linejoin:miter;stroke-opacity:1" d="M 345.748,969.405 359.046,969.405 z" id="boundary" inkscape:connector-curvature="0" />
	<path style="fill:none;stroke:red;stroke-width:1px;stroke-linecap:butt;stroke-linejoin:miter;stroke-opacity:1" d="M 372.343,969.405 359.046,969.405 z" id="boundary" inkscape:connector-curvature="0" />
	<path style="fill:none;stroke:red;stroke-width:1px;stroke-linecap:butt;stroke-linejoin:miter;stroke-opacity:1" d="M 384.311,976.054 372.343,969.405 z" id="boundary" inkscape:connector-curvature="0" />
	<path style="fill:none;stroke:red;stroke-width:1px;stroke-linecap:butt;stroke-linejoin:miter;stroke-opacity:1" d="M 397.609,976.054 384.311,976.054 z" id="boundary" inkscape:connector-curvature="0" />
	<path style="fill:none;stroke:red;stroke-width:1px;stroke-linecap:butt;stroke-linejoin:miter;stroke-opacity:1" d="M 410.906,976.054 397.609,976.054 z" id="boundary" inkscape:connector-curvature="0" />
	<path style="fill:none;stroke:red;stroke-width:1px;stroke-linecap:butt;stroke-linejoin:miter;stroke-opacity:1" d="M 410.906,976.054 424.204,976.054 z" id="boundary" inkscape:connector-curvature="0" />
	<path style="fill:none;stroke:red;stroke-width:1px;stroke-linecap:butt;stroke-linejoin:miter;stroke-opacity:1" d="M 437.501,976.054 424.204,976.054 z" id="boundary" inkscape:connector-curvature="0" />
	<path style="fill:none;stroke:red;stroke-width:1px;stroke-linecap:butt;stroke-linejoin:miter;stroke-opacity:1" d="M 442.82,23.9464 453.458,31.9249 z" id="boundary" inkscape:connector-curvature="0" />
	<path style="fill:none;stroke:red;stroke-width:1px;stroke-linecap:butt;stroke-linejoin:miter;stroke-opacity:1" d="M 442.82,23.9464 430.853,17.2976 z" id="boundary" inkscape:connector-curvature="0" />
	<path style="fill:none;stroke:red;stroke-width:1px;stroke-linecap:butt;stroke-linejoin:miter;stroke-opacity:1" d="M 464.097,41.2332 453.458,31.9249 z" id="boundary" inkscape:connector-curvature="0" />
	<path style="fill:none;stroke:red;stroke-width:1px;stroke-linecap:butt;stroke-linejoin:miter;stroke-opacity:1" d="M 464.097,41.2332 476.064,47.882 z" id="boundary" inkscape:connector-curvature="0" />
	<path style="fill:none;stroke:red;stroke-width:1px;stroke-linecap:butt;stroke-linejoin:miter;stroke-opacity:1" d="M 486.702,57.1903 476.064,47.882 z" id="boundary" inkscape:connector-curvature="0" />
	<path style="fill:none;stroke:red;stroke-width:1px;stroke-linecap:butt;stroke-linejoin:miter;stroke-opacity:1" d="M 496.011,67.8284 486.702,57.1903 z" id="boundary" inkscape:connector-curvature="0" />
	<path style="fill:none;stroke:red;stroke-width:1px;stroke-linecap:butt;stroke-linejoin:miter;stroke-opacity:1" d="M 506.649,77.1367 496.011,67.8284 z" id="boundary" inkscape:connector-curvature="0" />
	<path style="fill:none;stroke:red;stroke-width:1px;stroke-linecap:butt;stroke-linejoin:miter;stroke-opacity:1" d="M 515.957,87.7748 506.649,77.1367 z" id="boundary" inkscape:connector-curvature="0" />
	<path style="fill:none;stroke:red;stroke-width:1px;stroke-linecap:butt;stroke-linejoin:miter;stroke-opacity:1" d="M 529.255,93.0938 515.957,87.7748 z" id="boundary" inkscape:connector-curvature="0" />
	<path style="fill:none;stroke:red;stroke-width:1px;stroke-linecap:butt;stroke-linejoin:miter;stroke-opacity:1" d="M 537.233,103.732 529.255,93.0938 z" id="boundary" inkscape:connector-curvature="0" />
	<path style="fill:none;stroke:red;stroke-width:1px;stroke-linecap:butt;stroke-linejoin:miter;stroke-opacity:1" d="M 549.201,110.381 537.233,103.732 z" id="boundary" inkscape:connector-curvature="0" />
	<path style="fill:none;stroke:red;stroke-width:1px;stroke-linecap:butt;stroke-linejoin:miter;stroke-opacity:1" d="M 549.201,110.381 561.169,117.029 z" id="boundary" inkscape:connector-curvature="0" />
	<path style="fill:none;stroke:red;stroke-width:1px;stroke-linecap:butt;stroke-linejoin:miter;stroke-opacity:1" d="M 586.434,123.678 573.137,123.678 z" id="boundary" inkscape:connector-curvature="0" />
	<path style="fill:none;stroke:red;stroke-width:1px;stroke-linecap:butt;stroke-linejoin:miter;stroke-opacity:1" d="M 573.137,123.678 561.169,117.029 z" id="boundary" inkscape:connector-curvature="0" />
	<path style="fill:none;stroke:red;stroke-width:1px;stroke-linecap:butt;stroke-linejoin:miter;stroke-opacity:1" d="M 613.029,123.678 599.732,123.678 z" id="boundary" inkscape:connector-curvature="0" />
	<path style="fill:none;stroke:red;stroke-width:1px;stroke-linecap:butt;stroke-linejoin:miter;stroke-opacity:1" d="M 599.732,123.678 586.434,123.678 z" id="boundary" inkscape:connector-curvature="0" />
	<path style="fill:none;stroke:red;stroke-width:1px;stroke-linecap:butt;stroke-linejoin:miter;stroke-opacity:1" d="M 636.965,110.381 624.997,117.029 z" id="boundary" inkscape:connector-curvature="0" />
	<path style="fill:none;stroke:red;stroke-width:1px;stroke-linecap:butt;stroke-linejoin:miter;stroke-opacity:1" d="M 624.997,117.029 613.029,123.678 z" id="boundary" inkscape:connector-curvature="0" />
	<path style="fill:none;stroke:red;stroke-width:1px;stroke-linecap:butt;stroke-linejoin:miter;stroke-opacity:1" d="M 623.668,351.067 636.965,344.418 z" id="boundary" inkscape:connector-curvature="0" />
	<path style="fill:none;stroke:red;stroke-width:1px;stroke-linecap:butt;stroke-linejoin:miter;stroke-opacity:1" d="M 623.668,351.067 610.37,357.716 z" id="boundary" inkscape:connector-curvature="0" />
	<path style="fill:none;stroke:red;stroke-width:1px;stroke-linecap:butt;stroke-linejoin:miter;stroke-opacity:1" d="M 539.893,555.85 526.595,550.531 z" id="boundary" inkscape:connector-curvature="0" />
	<path style="fill:none;stroke:red;stroke-width:1px;stroke-linecap:butt;stroke-linejoin:miter;stroke-opacity:1" d="M 553.19,557.18 539.893,555.85 z" id="boundary" inkscape:connector-curvature="0" />
	<path style="fill:none;stroke:red;stroke-width:1px;stroke-linecap:butt;stroke-linejoin:miter;stroke-opacity:1" d="M 526.595,550.531 514.627,557.18 z" id="boundary" inkscape:connector-curvature="0" />
	<path style="fill:none;stroke:red;stroke-width:1px;stroke-linecap:butt;stroke-linejoin:miter;stroke-opacity:1" d="M 477.394,570.477 464.097,577.126 z" id="boundary" inkscape:connector-curvature="0" />
	<path style="fill:none;stroke:red;stroke-width:1px;stroke-linecap:butt;stroke-linejoin:miter;stroke-opacity:1" d="M 501.33,557.18 488.032,561.169 z" id="boundary" inkscape:connector-curvature="0" />
	<path style="fill:none;stroke:red;stroke-width:1px;stroke-linecap:butt;stroke-linejoin:miter;stroke-opacity:1" d="M 477.394,570.477 488.032,561.169 z" id="boundary" inkscape:connector-curvature="0" />
	<path style="fill:none;stroke:red;stroke-width:1px;stroke-linecap:butt;stroke-linejoin:miter;stroke-opacity:1" d="M 457.448,590.424 464.097,577.126 z" id="boundary" inkscape:connector-curvature="0" />
	<path style="fill:none;stroke:red;stroke-width:1px;stroke-linecap:butt;stroke-linejoin:miter;stroke-opacity:1" d="M 553.19,557.18 565.158,563.828 z" id="boundary" inkscape:connector-curvature="0" />
	<path style="fill:none;stroke:red;stroke-width:1px;stroke-linecap:butt;stroke-linejoin:miter;stroke-opacity:1" d="M 501.33,557.18 514.627,557.18 z" id="boundary" inkscape:connector-curvature="0" />
	<path style="fill:none;stroke:red;stroke-width:1px;stroke-linecap:butt;stroke-linejoin:miter;stroke-opacity:1" d="M 457.448,590.424 450.799,610.37 z" id="boundary" inkscape:connector-curvature="0" />
	<path style="fill:none;stroke:red;stroke-width:1px;stroke-linecap:butt;stroke-linejoin:miter;stroke-opacity:1" d="M 610.37,371.013 617.019,382.981 z" id="boundary" inkscape:connector-curvature="0" />
	<path style="fill:none;stroke:red;stroke-width:1px;stroke-linecap:butt;stroke-linejoin:miter;stroke-opacity:1" d="M 610.37,357.716 610.37,371.013 z" id="boundary" inkscape:connector-curvature="0" />
	<path style="fill:none;stroke:red;stroke-width:1px;stroke-linecap:butt;stroke-linejoin:miter;stroke-opacity:1" d="M 617.019,382.981 623.668,394.949 z" id="boundary" inkscape:connector-curvature="0" />
	<path style="fill:none;stroke:red;stroke-width:1px;stroke-linecap:butt;stroke-linejoin:miter;stroke-opacity:1" d="M 630.316,406.917 623.668,394.949 z" id="boundary" inkscape:connector-curvature="0" />
	<path style="fill:none;stroke:red;stroke-width:1px;stroke-linecap:butt;stroke-linejoin:miter;stroke-opacity:1" d="M 578.456,563.828 565.158,563.828 z" id="boundary" inkscape:connector-curvature="0" />
	<path style="fill:none;stroke:red;stroke-width:1px;stroke-linecap:butt;stroke-linejoin:miter;stroke-opacity:1" d="M 591.753,567.818 578.456,563.828 z" id="boundary" inkscape:connector-curvature="0" />
	<path style="fill:none;stroke:red;stroke-width:1px;stroke-linecap:butt;stroke-linejoin:miter;stroke-opacity:1" d="M 617.019,577.126 603.721,574.466 z" id="boundary" inkscape:connector-curvature="0" />
	<path style="fill:none;stroke:red;stroke-width:1px;stroke-linecap:butt;stroke-linejoin:miter;stroke-opacity:1" d="M 603.721,574.466 591.753,567.818 z" id="boundary" inkscape:connector-curvature="0" />
	<path style="fill:none;stroke:red;stroke-width:1px;stroke-linecap:butt;stroke-linejoin:miter;stroke-opacity:1" d="M 628.987,583.775 617.019,577.126 z" id="boundary" inkscape:connector-curvature="0" />
	<path style="fill:none;stroke:red;stroke-width:1px;stroke-linecap:butt;stroke-linejoin:miter;stroke-opacity:1" d="M 630.316,406.917 636.965,418.885 z" id="boundary" inkscape:connector-curvature="0" />
	<path style="fill:none;stroke:red;stroke-width:1px;stroke-linecap:butt;stroke-linejoin:miter;stroke-opacity:1" d="M 650.263,110.381 636.965,110.381 z" id="boundary" inkscape:connector-curvature="0" />
	<path style="fill:none;stroke:red;stroke-width:1px;stroke-linecap:butt;stroke-linejoin:miter;stroke-opacity:1" d="M 663.56,110.381 650.263,110.381 z" id="boundary" inkscape:connector-curvature="0" />
	<path style="fill:none;stroke:red;stroke-width:1px;stroke-linecap:butt;stroke-linejoin:miter;stroke-opacity:1" d="M 676.858,114.37 663.56,110.381 z" id="boundary" inkscape:connector-curvature="0" />
	<path style="fill:none;stroke:red;stroke-width:1px;stroke-linecap:butt;stroke-linejoin:miter;stroke-opacity:1" d="M 676.858,151.603 670.209,171.55 z" id="boundary" inkscape:connector-curvature="0" />
	<path style="fill:none;stroke:red;stroke-width:1px;stroke-linecap:butt;stroke-linejoin:miter;stroke-opacity:1" d="M 663.56,198.145 663.56,184.847 z" id="boundary" inkscape:connector-curvature="0" />
	<path style="fill:none;stroke:red;stroke-width:1px;stroke-linecap:butt;stroke-linejoin:miter;stroke-opacity:1" d="M 670.209,171.55 663.56,184.847 z" id="boundary" inkscape:connector-curvature="0" />
	<path style="fill:none;stroke:red;stroke-width:1px;stroke-linecap:butt;stroke-linejoin:miter;stroke-opacity:1" d="M 663.56,211.442 663.56,198.145 z" id="boundary" inkscape:connector-curvature="0" />
	<path style="fill:none;stroke:red;stroke-width:1px;stroke-linecap:butt;stroke-linejoin:miter;stroke-opacity:1" d="M 663.56,211.442 670.209,223.41 z" id="boundary" inkscape:connector-curvature="0" />
	<path style="fill:none;stroke:red;stroke-width:1px;stroke-linecap:butt;stroke-linejoin:miter;stroke-opacity:1" d="M 683.507,126.338 676.858,114.37 z" id="boundary" inkscape:connector-curvature="0" />
	<path style="fill:none;stroke:red;stroke-width:1px;stroke-linecap:butt;stroke-linejoin:miter;stroke-opacity:1" d="M 683.507,139.635 676.858,151.603 z" id="boundary" inkscape:connector-curvature="0" />
	<path style="fill:none;stroke:red;stroke-width:1px;stroke-linecap:butt;stroke-linejoin:miter;stroke-opacity:1" d="M 683.507,126.338 683.507,139.635 z" id="boundary" inkscape:connector-curvature="0" />
	<path style="fill:none;stroke:red;stroke-width:1px;stroke-linecap:butt;stroke-linejoin:miter;stroke-opacity:1" d="M 680.847,231.389 670.209,223.41 z" id="boundary" inkscape:connector-curvature="0" />
	<path style="fill:none;stroke:red;stroke-width:1px;stroke-linecap:butt;stroke-linejoin:miter;stroke-opacity:1" d="M 690.155,242.027 680.847,231.389 z" id="boundary" inkscape:connector-curvature="0" />
	<path style="fill:none;stroke:red;stroke-width:1px;stroke-linecap:butt;stroke-linejoin:miter;stroke-opacity:1" d="M 696.804,280.59 690.155,297.877 z" id="boundary" inkscape:connector-curvature="0" />
	<path style="fill:none;stroke:red;stroke-width:1px;stroke-linecap:butt;stroke-linejoin:miter;stroke-opacity:1" d="M 690.155,242.027 696.804,253.995 z" id="boundary" inkscape:connector-curvature="0" />
	<path style="fill:none;stroke:red;stroke-width:1px;stroke-linecap:butt;stroke-linejoin:miter;stroke-opacity:1" d="M 696.804,253.995 696.804,267.292 z" id="boundary" inkscape:connector-curvature="0" />
	<path style="fill:none;stroke:red;stroke-width:1px;stroke-linecap:butt;stroke-linejoin:miter;stroke-opacity:1" d="M 696.804,267.292 696.804,280.59 z" id="boundary" inkscape:connector-curvature="0" />
	<path style="fill:none;stroke:red;stroke-width:1px;stroke-linecap:butt;stroke-linejoin:miter;stroke-opacity:1" d="M 690.155,297.877 679.517,309.845 z" id="boundary" inkscape:connector-curvature="0" />
	<path style="fill:none;stroke:red;stroke-width:1px;stroke-linecap:butt;stroke-linejoin:miter;stroke-opacity:1" d="M 636.965,344.418 648.933,337.769 z" id="boundary" inkscape:connector-curvature="0" />
	<path style="fill:none;stroke:red;stroke-width:1px;stroke-linecap:butt;stroke-linejoin:miter;stroke-opacity:1" d="M 660.901,331.121 648.933,337.769 z" id="boundary" inkscape:connector-curvature="0" />
	<path style="fill:none;stroke:red;stroke-width:1px;stroke-linecap:butt;stroke-linejoin:miter;stroke-opacity:1" d="M 644.944,429.523 636.965,418.885 z" id="boundary" inkscape:connector-curvature="0" />
	<path style="fill:none;stroke:red;stroke-width:1px;stroke-linecap:butt;stroke-linejoin:miter;stroke-opacity:1" d="M 672.869,323.142 660.901,331.121 z" id="boundary" inkscape:connector-curvature="0" />
	<path style="fill:none;stroke:red;stroke-width:1px;stroke-linecap:butt;stroke-linejoin:miter;stroke-opacity:1" d="M 667.55,445.48 655.582,438.831 z" id="boundary" inkscape:connector-curvature="0" />
	<path style="fill:none;stroke:red;stroke-width:1px;stroke-linecap:butt;stroke-linejoin:miter;stroke-opacity:1" d="M 655.582,438.831 644.944,429.523 z" id="boundary" inkscape:connector-curvature="0" />
	<path style="fill:none;stroke:red;stroke-width:1px;stroke-linecap:butt;stroke-linejoin:miter;stroke-opacity:1" d="M 667.55,445.48 674.198,457.448 z" id="boundary" inkscape:connector-curvature="0" />
	<path style="fill:none;stroke:red;stroke-width:1px;stroke-linecap:butt;stroke-linejoin:miter;stroke-opacity:1" d="M 640.954,590.424 628.987,583.775 z" id="boundary" inkscape:connector-curvature="0" />
	<path style="fill:none;stroke:red;stroke-width:1px;stroke-linecap:butt;stroke-linejoin:miter;stroke-opacity:1" d="M 654.252,590.424 640.954,590.424 z" id="boundary" inkscape:connector-curvature="0" />
	<path style="fill:none;stroke:red;stroke-width:1px;stroke-linecap:butt;stroke-linejoin:miter;stroke-opacity:1" d="M 667.55,590.424 654.252,590.424 z" id="boundary" inkscape:connector-curvature="0" />
	<path style="fill:none;stroke:red;stroke-width:1px;stroke-linecap:butt;stroke-linejoin:miter;stroke-opacity:1" d="M 679.517,582.445 667.55,590.424 z" id="boundary" inkscape:connector-curvature="0" />
	<path style="fill:none;stroke:red;stroke-width:1px;stroke-linecap:butt;stroke-linejoin:miter;stroke-opacity:1" d="M 683.507,468.086 690.155,480.054 z" id="boundary" inkscape:connector-curvature="0" />
	<path style="fill:none;stroke:red;stroke-width:1px;stroke-linecap:butt;stroke-linejoin:miter;stroke-opacity:1" d="M 683.507,468.086 674.198,457.448 z" id="boundary" inkscape:connector-curvature="0" />
	<path style="fill:none;stroke:red;stroke-width:1px;stroke-linecap:butt;stroke-linejoin:miter;stroke-opacity:1" d="M 690.155,480.054 695.475,493.351 z" id="boundary" inkscape:connector-curvature="0" />
	<path style="fill:none;stroke:red;stroke-width:1px;stroke-linecap:butt;stroke-linejoin:miter;stroke-opacity:1" d="M 690.155,570.477 679.517,582.445 z" id="boundary" inkscape:connector-curvature="0" />
	<path style="fill:none;stroke:red;stroke-width:1px;stroke-linecap:butt;stroke-linejoin:miter;stroke-opacity:1" d="M 696.804,519.946 696.804,533.244 z" id="boundary" inkscape:connector-curvature="0" />
	<path style="fill:none;stroke:red;stroke-width:1px;stroke-linecap:butt;stroke-linejoin:miter;stroke-opacity:1" d="M 695.475,493.351 696.804,506.649 z" id="boundary" inkscape:connector-curvature="0" />
	<path style="fill:none;stroke:red;stroke-width:1px;stroke-linecap:butt;stroke-linejoin:miter;stroke-opacity:1" d="M 696.804,506.649 696.804,519.946 z" id="boundary" inkscape:connector-curvature="0" />
	<path style="fill:none;stroke:red;stroke-width:1px;stroke-linecap:butt;stroke-linejoin:miter;stroke-opacity:1" d="M 696.804,546.542 690.155,570.477 z" id="boundary" inkscape:connector-curvature="0" />
	<path style="fill:none;stroke:red;stroke-width:1px;stroke-linecap:butt;stroke-linejoin:miter;stroke-opacity:1" d="M 696.804,546.542 696.804,533.244 z" id="boundary" inkscape:connector-curvature="0" />
	<path style="fill:none;stroke:red;stroke-width:1px;stroke-linecap:butt;stroke-linejoin:miter;stroke-opacity:1" d="M 672.869,323.142 679.517,309.845 z" id="boundary" inkscape:connector-curvature="0" />
	<path style="fill:none;stroke:red;stroke-width:1px;stroke-linecap:butt;stroke-linejoin:miter;stroke-opacity:1" d="M 450.799,623.668 450.799,610.37 z" id="boundary" inkscape:connector-curvature="0" />
	<path style="fill:none;stroke:red;stroke-width:1px;stroke-linecap:butt;stroke-linejoin:miter;stroke-opacity:1" d="M 450.799,623.668 457.448,635.635 z" id="boundary" inkscape:connector-curvature="0" />
	<path style="fill:none;stroke:red;stroke-width:1px;stroke-linecap:butt;stroke-linejoin:miter;stroke-opacity:1" d="M 470.745,635.635 457.448,635.635 z" id="boundary" inkscape:connector-curvature="0" />
	<path style="fill:none;stroke:red;stroke-width:1px;stroke-linecap:butt;stroke-linejoin:miter;stroke-opacity:1" d="M 484.043,639.625 470.745,635.635 z" id="boundary" inkscape:connector-curvature="0" />
	<path style="fill:none;stroke:red;stroke-width:1px;stroke-linecap:butt;stroke-linejoin:miter;stroke-opacity:1" d="M 497.34,642.284 484.043,639.625 z" id="boundary" inkscape:connector-curvature="0" />
	<path style="fill:none;stroke:red;stroke-width:1px;stroke-linecap:butt;stroke-linejoin:miter;stroke-opacity:1" d="M 497.34,642.284 509.308,648.933 z" id="boundary" inkscape:connector-curvature="0" />
	<path style="fill:none;stroke:red;stroke-width:1px;stroke-linecap:butt;stroke-linejoin:miter;stroke-opacity:1" d="M 523.936,789.887 510.638,796.536 z" id="boundary" inkscape:connector-curvature="0" />
	<path style="fill:none;stroke:red;stroke-width:1px;stroke-linecap:butt;stroke-linejoin:miter;stroke-opacity:1" d="M 517.287,808.504 510.638,796.536 z" id="boundary" inkscape:connector-curvature="0" />
	<path style="fill:none;stroke:red;stroke-width:1px;stroke-linecap:butt;stroke-linejoin:miter;stroke-opacity:1" d="M 522.606,648.933 509.308,648.933 z" id="boundary" inkscape:connector-curvature="0" />
	<path style="fill:none;stroke:red;stroke-width:1px;stroke-linecap:butt;stroke-linejoin:miter;stroke-opacity:1" d="M 522.606,648.933 535.903,651.592 z" id="boundary" inkscape:connector-curvature="0" />
	<path style="fill:none;stroke:red;stroke-width:1px;stroke-linecap:butt;stroke-linejoin:miter;stroke-opacity:1" d="M 535.903,651.592 549.201,655.582 z" id="boundary" inkscape:connector-curvature="0" />
	<path style="fill:none;stroke:red;stroke-width:1px;stroke-linecap:butt;stroke-linejoin:miter;stroke-opacity:1" d="M 561.169,662.231 549.201,655.582 z" id="boundary" inkscape:connector-curvature="0" />
	<path style="fill:none;stroke:red;stroke-width:1px;stroke-linecap:butt;stroke-linejoin:miter;stroke-opacity:1" d="M 561.169,662.231 573.137,668.879 z" id="boundary" inkscape:connector-curvature="0" />
	<path style="fill:none;stroke:red;stroke-width:1px;stroke-linecap:butt;stroke-linejoin:miter;stroke-opacity:1" d="M 537.233,783.239 523.936,789.887 z" id="boundary" inkscape:connector-curvature="0" />
	<path style="fill:none;stroke:red;stroke-width:1px;stroke-linecap:butt;stroke-linejoin:miter;stroke-opacity:1" d="M 550.531,783.239 537.233,783.239 z" id="boundary" inkscape:connector-curvature="0" />
	<path style="fill:none;stroke:red;stroke-width:1px;stroke-linecap:butt;stroke-linejoin:miter;stroke-opacity:1" d="M 562.499,776.59 550.531,783.239 z" id="boundary" inkscape:connector-curvature="0" />
	<path style="fill:none;stroke:red;stroke-width:1px;stroke-linecap:butt;stroke-linejoin:miter;stroke-opacity:1" d="M 574.466,769.941 562.499,776.59 z" id="boundary" inkscape:connector-curvature="0" />
	<path style="fill:none;stroke:red;stroke-width:1px;stroke-linecap:butt;stroke-linejoin:miter;stroke-opacity:1" d="M 437.501,976.054 450.799,976.054 z" id="boundary" inkscape:connector-curvature="0" />
	<path style="fill:none;stroke:red;stroke-width:1px;stroke-linecap:butt;stroke-linejoin:miter;stroke-opacity:1" d="M 464.097,978.713 450.799,976.054 z" id="boundary" inkscape:connector-curvature="0" />
	<path style="fill:none;stroke:red;stroke-width:1px;stroke-linecap:butt;stroke-linejoin:miter;stroke-opacity:1" d="M 464.097,978.713 477.394,982.702 z" id="boundary" inkscape:connector-curvature="0" />
	<path style="fill:none;stroke:red;stroke-width:1px;stroke-linecap:butt;stroke-linejoin:miter;stroke-opacity:1" d="M 490.692,982.702 477.394,982.702 z" id="boundary" inkscape:connector-curvature="0" />
	<path style="fill:none;stroke:red;stroke-width:1px;stroke-linecap:butt;stroke-linejoin:miter;stroke-opacity:1" d="M 503.989,982.702 490.692,982.702 z" id="boundary" inkscape:connector-curvature="0" />
	<path style="fill:none;stroke:red;stroke-width:1px;stroke-linecap:butt;stroke-linejoin:miter;stroke-opacity:1" d="M 517.287,982.702 503.989,982.702 z" id="boundary" inkscape:connector-curvature="0" />
	<path style="fill:none;stroke:red;stroke-width:1px;stroke-linecap:butt;stroke-linejoin:miter;stroke-opacity:1" d="M 517.287,808.504 527.925,816.483 z" id="boundary" inkscape:connector-curvature="0" />
	<path style="fill:none;stroke:red;stroke-width:1px;stroke-linecap:butt;stroke-linejoin:miter;stroke-opacity:1" d="M 537.233,827.121 543.882,839.088 z" id="boundary" inkscape:connector-curvature="0" />
	<path style="fill:none;stroke:red;stroke-width:1px;stroke-linecap:butt;stroke-linejoin:miter;stroke-opacity:1" d="M 537.233,827.121 527.925,816.483 z" id="boundary" inkscape:connector-curvature="0" />
	<path style="fill:none;stroke:red;stroke-width:1px;stroke-linecap:butt;stroke-linejoin:miter;stroke-opacity:1" d="M 553.19,849.727 543.882,839.088 z" id="boundary" inkscape:connector-curvature="0" />
	<path style="fill:none;stroke:red;stroke-width:1px;stroke-linecap:butt;stroke-linejoin:miter;stroke-opacity:1" d="M 563.828,859.035 570.477,871.003 z" id="boundary" inkscape:connector-curvature="0" />
	<path style="fill:none;stroke:red;stroke-width:1px;stroke-linecap:butt;stroke-linejoin:miter;stroke-opacity:1" d="M 563.828,859.035 553.19,849.727 z" id="boundary" inkscape:connector-curvature="0" />
	<path style="fill:none;stroke:red;stroke-width:1px;stroke-linecap:butt;stroke-linejoin:miter;stroke-opacity:1" d="M 530.584,982.702 517.287,982.702 z" id="boundary" inkscape:connector-curvature="0" />
	<path style="fill:none;stroke:red;stroke-width:1px;stroke-linecap:butt;stroke-linejoin:miter;stroke-opacity:1" d="M 543.882,982.702 530.584,982.702 z" id="boundary" inkscape:connector-curvature="0" />
	<path style="fill:none;stroke:red;stroke-width:1px;stroke-linecap:butt;stroke-linejoin:miter;stroke-opacity:1" d="M 543.882,982.702 555.85,989.351 z" id="boundary" inkscape:connector-curvature="0" />
	<path style="fill:none;stroke:red;stroke-width:1px;stroke-linecap:butt;stroke-linejoin:miter;stroke-opacity:1" d="M 569.147,989.351 555.85,989.351 z" id="boundary" inkscape:connector-curvature="0" />
	<path style="fill:none;stroke:red;stroke-width:1px;stroke-linecap:butt;stroke-linejoin:miter;stroke-opacity:1" d="M 582.445,989.351 569.147,989.351 z" id="boundary" inkscape:connector-curvature="0" />
	<path style="fill:none;stroke:red;stroke-width:1px;stroke-linecap:butt;stroke-linejoin:miter;stroke-opacity:1" d="M 570.477,871.003 578.456,881.641 z" id="boundary" inkscape:connector-curvature="0" />
	<path style="fill:none;stroke:red;stroke-width:1px;stroke-linecap:butt;stroke-linejoin:miter;stroke-opacity:1" d="M 585.105,675.528 573.137,668.879 z" id="boundary" inkscape:connector-curvature="0" />
	<path style="fill:none;stroke:red;stroke-width:1px;stroke-linecap:butt;stroke-linejoin:miter;stroke-opacity:1" d="M 585.105,675.528 598.402,675.528 z" id="boundary" inkscape:connector-curvature="0" />
	<path style="fill:none;stroke:red;stroke-width:1px;stroke-linecap:butt;stroke-linejoin:miter;stroke-opacity:1" d="M 598.402,675.528 610.37,682.177 z" id="boundary" inkscape:connector-curvature="0" />
	<path style="fill:none;stroke:red;stroke-width:1px;stroke-linecap:butt;stroke-linejoin:miter;stroke-opacity:1" d="M 587.764,767.282 574.466,769.941 z" id="boundary" inkscape:connector-curvature="0" />
	<path style="fill:none;stroke:red;stroke-width:1px;stroke-linecap:butt;stroke-linejoin:miter;stroke-opacity:1" d="M 610.37,749.995 601.062,760.633 z" id="boundary" inkscape:connector-curvature="0" />
	<path style="fill:none;stroke:red;stroke-width:1px;stroke-linecap:butt;stroke-linejoin:miter;stroke-opacity:1" d="M 601.062,760.633 587.764,767.282 z" id="boundary" inkscape:connector-curvature="0" />
	<path style="fill:none;stroke:red;stroke-width:1px;stroke-linecap:butt;stroke-linejoin:miter;stroke-opacity:1" d="M 622.338,688.826 610.37,682.177 z" id="boundary" inkscape:connector-curvature="0" />
	<path style="fill:none;stroke:red;stroke-width:1px;stroke-linecap:butt;stroke-linejoin:miter;stroke-opacity:1" d="M 634.306,695.475 622.338,688.826 z" id="boundary" inkscape:connector-curvature="0" />
	<path style="fill:none;stroke:red;stroke-width:1px;stroke-linecap:butt;stroke-linejoin:miter;stroke-opacity:1" d="M 646.273,702.123 634.306,695.475 z" id="boundary" inkscape:connector-curvature="0" />
	<path style="fill:none;stroke:red;stroke-width:1px;stroke-linecap:butt;stroke-linejoin:miter;stroke-opacity:1" d="M 623.668,743.346 610.37,749.995 z" id="boundary" inkscape:connector-curvature="0" />
	<path style="fill:none;stroke:red;stroke-width:1px;stroke-linecap:butt;stroke-linejoin:miter;stroke-opacity:1" d="M 636.965,736.697 623.668,743.346 z" id="boundary" inkscape:connector-curvature="0" />
	<path style="fill:none;stroke:red;stroke-width:1px;stroke-linecap:butt;stroke-linejoin:miter;stroke-opacity:1" d="M 646.273,702.123 647.603,727.389 z" id="boundary" inkscape:connector-curvature="0" />
	<path style="fill:none;stroke:red;stroke-width:1px;stroke-linecap:butt;stroke-linejoin:miter;stroke-opacity:1" d="M 636.965,736.697 647.603,727.389 z" id="boundary" inkscape:connector-curvature="0" />
	<path style="fill:none;stroke:red;stroke-width:1px;stroke-linecap:butt;stroke-linejoin:miter;stroke-opacity:1" d="M 589.094,890.949 597.072,901.587 z" id="boundary" inkscape:connector-curvature="0" />
	<path style="fill:none;stroke:red;stroke-width:1px;stroke-linecap:butt;stroke-linejoin:miter;stroke-opacity:1" d="M 589.094,890.949 578.456,881.641 z" id="boundary" inkscape:connector-curvature="0" />
	<path style="fill:none;stroke:red;stroke-width:1px;stroke-linecap:butt;stroke-linejoin:miter;stroke-opacity:1" d="M 597.072,901.587 603.721,913.555 z" id="boundary" inkscape:connector-curvature="0" />
	<path style="fill:none;stroke:red;stroke-width:1px;stroke-linecap:butt;stroke-linejoin:miter;stroke-opacity:1" d="M 614.359,922.863 603.721,913.555 z" id="boundary" inkscape:connector-curvature="0" />
	<path style="fill:none;stroke:red;stroke-width:1px;stroke-linecap:butt;stroke-linejoin:miter;stroke-opacity:1" d="M 614.359,922.863 623.668,933.501 z" id="boundary" inkscape:connector-curvature="0" />
	<path style="fill:none;stroke:red;stroke-width:1px;stroke-linecap:butt;stroke-linejoin:miter;stroke-opacity:1" d="M 630.316,945.469 623.668,933.501 z" id="boundary" inkscape:connector-curvature="0" />
	<path style="fill:none;stroke:red;stroke-width:1px;stroke-linecap:butt;stroke-linejoin:miter;stroke-opacity:1" d="M 595.743,989.351 582.445,989.351 z" id="boundary" inkscape:connector-curvature="0" />
	<path style="fill:none;stroke:red;stroke-width:1px;stroke-linecap:butt;stroke-linejoin:miter;stroke-opacity:1" d="M 595.743,989.351 609.04,989.351 z" id="boundary" inkscape:connector-curvature="0" />
	<path style="fill:none;stroke:red;stroke-width:1px;stroke-linecap:butt;stroke-linejoin:miter;stroke-opacity:1" d="M 609.04,989.351 622.338,989.351 z" id="boundary" inkscape:connector-curvature="0" />
	<path style="fill:none;stroke:red;stroke-width:1px;stroke-linecap:butt;stroke-linejoin:miter;stroke-opacity:1" d="M 622.338,989.351 634.306,996 z" id="boundary" inkscape:connector-curvature="0" />
	<path style="fill:none;stroke:red;stroke-width:1px;stroke-linecap:butt;stroke-linejoin:miter;stroke-opacity:1" d="M 630.316,945.469 639.625,956.107 z" id="boundary" inkscape:connector-curvature="0" />
	<path style="fill:none;stroke:red;stroke-width:1px;stroke-linecap:butt;stroke-linejoin:miter;stroke-opacity:1" d="M 647.603,996 634.306,996 z" id="boundary" inkscape:connector-curvature="0" />
	<path style="fill:none;stroke:red;stroke-width:1px;stroke-linecap:butt;stroke-linejoin:miter;stroke-opacity:1" d="M 639.625,956.107 650.263,965.416 z" id="boundary" inkscape:connector-curvature="0" />
	<path style="fill:none;stroke:red;stroke-width:1px;stroke-linecap:butt;stroke-linejoin:miter;stroke-opacity:1" d="M 656.912,977.383 650.263,965.416 z" id="boundary" inkscape:connector-curvature="0" />
	<path style="fill:none;stroke:red;stroke-width:1px;stroke-linecap:butt;stroke-linejoin:miter;stroke-opacity:1" d="M 660.901,996 647.603,996 z" id="boundary" inkscape:connector-curvature="0" />
	<path style="fill:none;stroke:red;stroke-width:1px;stroke-linecap:butt;stroke-linejoin:miter;stroke-opacity:1" d="M 656.912,977.383 660.901,996 z" id="boundary" inkscape:connector-curvature="0" />
	<circle cx="4" cy="938.82" r="4" fill="#0" id="circle0"/>
	<circle cx="14.6381" cy="928.182" r="4" fill="#0" id="circle1"/>
	<circle cx="17.2976" cy="942.81" r="4" fill="#0" id="circle2"/>
	<circle cx="25.2761" cy="917.544" r="4" fill="#0" id="circle3"/>
	<circle cx="30.5952" cy="942.81" r="4" fill="#0" id="circle4"/>
	<circle cx="35.9142" cy="908.236" r="4" fill="#0" id="circle5"/>
	<circle cx="43.8928" cy="154.263" r="4" fill="#0" id="circle6"/>
	<circle cx="43.8928" cy="167.56" r="4" fill="#0" id="circle7"/>
	<circle cx="43.8928" cy="942.81" r="4" fill="#0" id="circle8"/>
	<circle cx="45.2225" cy="897.598" r="4" fill="#0" id="circle9"/>
	<circle cx="50.5416" cy="179.528" r="4" fill="#0" id="circle10"/>
	<circle cx="54.5308" cy="143.625" r="4" fill="#0" id="circle11"/>
	<circle cx="55.8606" cy="888.29" r="4" fill="#0" id="circle12"/>
	<circle cx="55.8606" cy="949.458" r="4" fill="#0" id="circle13"/>
	<circle cx="59.8499" cy="190.166" r="4" fill="#0" id="circle14"/>
	<circle cx="65.1689" cy="877.651" r="4" fill="#0" id="circle15"/>
	<circle cx="66.4987" cy="136.976" r="4" fill="#0" id="circle16"/>
	<circle cx="69.1582" cy="949.458" r="4" fill="#0" id="circle17"/>
	<circle cx="70.4879" cy="539.893" r="4" fill="#0" id="circle18"/>
	<circle cx="70.4879" cy="553.19" r="4" fill="#0" id="circle19"/>
	<circle cx="70.4879" cy="566.488" r="4" fill="#0" id="circle20"/>
	<circle cx="70.4879" cy="579.786" r="4" fill="#0" id="circle21"/>
	<circle cx="73.1475" cy="195.485" r="4" fill="#0" id="circle22"/>
	<circle cx="75.807" cy="868.343" r="4" fill="#0" id="circle23"/>
	<circle cx="77.1367" cy="519.946" r="4" fill="#0" id="circle24"/>
	<circle cx="77.1367" cy="591.753" r="4" fill="#0" id="circle25"/>
	<circle cx="77.1367" cy="605.051" r="4" fill="#0" id="circle26"/>
	<circle cx="78.4665" cy="130.327" r="4" fill="#0" id="circle27"/>
	<circle cx="82.4558" cy="949.458" r="4" fill="#0" id="circle28"/>
	<circle cx="83.7855" cy="204.794" r="4" fill="#0" id="circle29"/>
	<circle cx="83.7855" cy="506.649" r="4" fill="#0" id="circle30"/>
	<circle cx="83.7855" cy="617.019" r="4" fill="#0" id="circle31"/>
	<circle cx="85.1153" cy="857.705" r="4" fill="#0" id="circle32"/>
	<circle cx="90.4343" cy="123.678" r="4" fill="#0" id="circle33"/>
	<circle cx="91.7641" cy="215.432" r="4" fill="#0" id="circle34"/>
	<circle cx="91.7641" cy="627.657" r="4" fill="#0" id="circle35"/>
	<circle cx="94.4236" cy="496.011" r="4" fill="#0" id="circle36"/>
	<circle cx="95.7534" cy="848.397" r="4" fill="#0" id="circle37"/>
	<circle cx="95.7534" cy="949.458" r="4" fill="#0" id="circle38"/>
	<circle cx="102.402" cy="117.029" r="4" fill="#0" id="circle39"/>
	<circle cx="102.402" cy="224.74" r="4" fill="#0" id="circle40"/>
	<circle cx="102.402" cy="636.965" r="4" fill="#0" id="circle41"/>
	<circle cx="103.732" cy="480.054" r="4" fill="#0" id="circle42"/>
	<circle cx="103.732" cy="832.44" r="4" fill="#0" id="circle43"/>
	<circle cx="109.051" cy="949.458" r="4" fill="#0" id="circle44"/>
	<circle cx="110.381" cy="235.378" r="4" fill="#0" id="circle45"/>
	<circle cx="110.381" cy="460.107" r="4" fill="#0" id="circle46"/>
	<circle cx="111.71" cy="106.391" r="4" fill="#0" id="circle47"/>
	<circle cx="114.37" cy="630.316" r="4" fill="#0" id="circle48"/>
	<circle cx="114.37" cy="821.802" r="4" fill="#0" id="circle49"/>
	<circle cx="117.029" cy="247.346" r="4" fill="#0" id="circle50"/>
	<circle cx="117.029" cy="446.81" r="4" fill="#0" id="circle51"/>
	<circle cx="122.349" cy="97.0831" r="4" fill="#0" id="circle52"/>
	<circle cx="122.349" cy="949.458" r="4" fill="#0" id="circle53"/>
	<circle cx="123.678" cy="426.863" r="4" fill="#0" id="circle54"/>
	<circle cx="125.008" cy="811.164" r="4" fill="#0" id="circle55"/>
	<circle cx="127.668" cy="256.654" r="4" fill="#0" id="circle56"/>
	<circle cx="127.668" cy="630.316" r="4" fill="#0" id="circle57"/>
	<circle cx="130.327" cy="269.952" r="4" fill="#0" id="circle58"/>
	<circle cx="130.327" cy="413.566" r="4" fill="#0" id="circle59"/>
	<circle cx="131.657" cy="86.445" r="4" fill="#0" id="circle60"/>
	<circle cx="134.316" cy="956.107" r="4" fill="#0" id="circle61"/>
	<circle cx="135.646" cy="801.855" r="4" fill="#0" id="circle62"/>
	<circle cx="136.976" cy="281.92" r="4" fill="#0" id="circle63"/>
	<circle cx="136.976" cy="393.619" r="4" fill="#0" id="circle64"/>
	<circle cx="140.965" cy="630.316" r="4" fill="#0" id="circle65"/>
	<circle cx="142.295" cy="77.1367" r="4" fill="#0" id="circle66"/>
	<circle cx="143.625" cy="293.887" r="4" fill="#0" id="circle67"/>
	<circle cx="143.625" cy="307.185" r="4" fill="#0" id="circle68"/>
	<circle cx="143.625" cy="320.483" r="4" fill="#0" id="circle69"/>
	<circle cx="143.625" cy="333.78" r="4" fill="#0" id="circle70"/>
	<circle cx="143.625" cy="347.078" r="4" fill="#0" id="circle71"/>
	<circle cx="143.625" cy="360.375" r="4" fill="#0" id="circle72"/>
	<circle cx="143.625" cy="373.673" r="4" fill="#0" id="circle73"/>
	<circle cx="144.954" cy="791.217" r="4" fill="#0" id="circle74"/>
	<circle cx="147.614" cy="956.107" r="4" fill="#0" id="circle75"/>
	<circle cx="151.603" cy="639.625" r="4" fill="#0" id="circle76"/>
	<circle cx="154.263" cy="70.4879" r="4" fill="#0" id="circle77"/>
	<circle cx="155.592" cy="781.909" r="4" fill="#0" id="circle78"/>
	<circle cx="156.922" cy="652.922" r="4" fill="#0" id="circle79"/>
	<circle cx="160.912" cy="956.107" r="4" fill="#0" id="circle80"/>
	<circle cx="164.901" cy="59.8499" r="4" fill="#0" id="circle81"/>
	<circle cx="164.901" cy="771.271" r="4" fill="#0" id="circle82"/>
	<circle cx="167.56" cy="662.231" r="4" fill="#0" id="circle83"/>
	<circle cx="174.209" cy="956.107" r="4" fill="#0" id="circle84"/>
	<circle cx="175.539" cy="50.5416" r="4" fill="#0" id="circle85"/>
	<circle cx="175.539" cy="761.962" r="4" fill="#0" id="circle86"/>
	<circle cx="176.869" cy="672.869" r="4" fill="#0" id="circle87"/>
	<circle cx="176.869" cy="686.166" r="4" fill="#0" id="circle88"/>
	<circle cx="183.517" cy="698.134" r="4" fill="#0" id="circle89"/>
	<circle cx="184.847" cy="751.324" r="4" fill="#0" id="circle90"/>
	<circle cx="187.507" cy="43.8928" r="4" fill="#0" id="circle91"/>
	<circle cx="187.507" cy="956.107" r="4" fill="#0" id="circle92"/>
	<circle cx="192.826" cy="708.772" r="4" fill="#0" id="circle93"/>
	<circle cx="195.485" cy="742.016" r="4" fill="#0" id="circle94"/>
	<circle cx="200.804" cy="37.244" r="4" fill="#0" id="circle95"/>
	<circle cx="200.804" cy="956.107" r="4" fill="#0" id="circle96"/>
	<circle cx="203.464" cy="716.751" r="4" fill="#0" id="circle97"/>
	<circle cx="204.794" cy="731.378" r="4" fill="#0" id="circle98"/>
	<circle cx="212.772" cy="30.5952" r="4" fill="#0" id="circle99"/>
	<circle cx="214.102" cy="961.426" r="4" fill="#0" id="circle100"/>
	<circle cx="224.74" cy="23.9464" r="4" fill="#0" id="circle101"/>
	<circle cx="227.399" cy="962.756" r="4" fill="#0" id="circle102"/>
	<circle cx="236.708" cy="17.2976" r="4" fill="#0" id="circle103"/>
	<circle cx="240.697" cy="962.756" r="4" fill="#0" id="circle104"/>
	<circle cx="248.676" cy="10.6488" r="4" fill="#0" id="circle105"/>
	<circle cx="253.995" cy="962.756" r="4" fill="#0" id="circle106"/>
	<circle cx="260.643" cy="4" r="4" fill="#0" id="circle107"/>
	<circle cx="267.292" cy="962.756" r="4" fill="#0" id="circle108"/>
	<circle cx="273.941" cy="4" r="4" fill="#0" id="circle109"/>
	<circle cx="280.59" cy="962.756" r="4" fill="#0" id="circle110"/>
	<circle cx="287.239" cy="4" r="4" fill="#0" id="circle111"/>
	<circle cx="293.887" cy="962.756" r="4" fill="#0" id="circle112"/>
	<circle cx="300.536" cy="4" r="4" fill="#0" id="circle113"/>
	<circle cx="305.855" cy="969.405" r="4" fill="#0" id="circle114"/>
	<circle cx="313.834" cy="4" r="4" fill="#0" id="circle115"/>
	<circle cx="319.153" cy="969.405" r="4" fill="#0" id="circle116"/>
	<circle cx="327.131" cy="4" r="4" fill="#0" id="circle117"/>
	<circle cx="332.45" cy="969.405" r="4" fill="#0" id="circle118"/>
	<circle cx="340.429" cy="4" r="4" fill="#0" id="circle119"/>
	<circle cx="345.748" cy="969.405" r="4" fill="#0" id="circle120"/>
	<circle cx="353.727" cy="4" r="4" fill="#0" id="circle121"/>
	<circle cx="359.046" cy="969.405" r="4" fill="#0" id="circle122"/>
	<circle cx="367.024" cy="4" r="4" fill="#0" id="circle123"/>
	<circle cx="372.343" cy="969.405" r="4" fill="#0" id="circle124"/>
	<circle cx="380.322" cy="4" r="4" fill="#0" id="circle125"/>
	<circle cx="384.311" cy="976.054" r="4" fill="#0" id="circle126"/>
	<circle cx="392.29" cy="10.6488" r="4" fill="#0" id="circle127"/>
	<circle cx="397.609" cy="976.054" r="4" fill="#0" id="circle128"/>
	<circle cx="405.587" cy="10.6488" r="4" fill="#0" id="circle129"/>
	<circle cx="410.906" cy="976.054" r="4" fill="#0" id="circle130"/>
	<circle cx="417.555" cy="17.2976" r="4" fill="#0" id="circle131"/>
	<circle cx="424.204" cy="976.054" r="4" fill="#0" id="circle132"/>
	<circle cx="430.853" cy="17.2976" r="4" fill="#0" id="circle133"/>
	<circle cx="437.501" cy="976.054" r="4" fill="#0" id="circle134"/>
	<circle cx="442.82" cy="23.9464" r="4" fill="#0" id="circle135"/>
	<circle cx="450.799" cy="610.37" r="4" fill="#0" id="circle136"/>
	<circle cx="450.799" cy="623.668" r="4" fill="#0" id="circle137"/>
	<circle cx="450.799" cy="976.054" r="4" fill="#0" id="circle138"/>
	<circle cx="453.458" cy="31.9249" r="4" fill="#0" id="circle139"/>
	<circle cx="457.448" cy="590.424" r="4" fill="#0" id="circle140"/>
	<circle cx="457.448" cy="635.635" r="4" fill="#0" id="circle141"/>
	<circle cx="464.097" cy="41.2332" r="4" fill="#0" id="circle142"/>
	<circle cx="464.097" cy="577.126" r="4" fill="#0" id="circle143"/>
	<circle cx="464.097" cy="978.713" r="4" fill="#0" id="circle144"/>
	<circle cx="470.745" cy="635.635" r="4" fill="#0" id="circle145"/>
	<circle cx="476.064" cy="47.882" r="4" fill="#0" id="circle146"/>
	<circle cx="477.394" cy="570.477" r="4" fill="#0" id="circle147"/>
	<circle cx="477.394" cy="982.702" r="4" fill="#0" id="circle148"/>
	<circle cx="484.043" cy="639.625" r="4" fill="#0" id="circle149"/>
	<circle cx="486.702" cy="57.1903" r="4" fill="#0" id="circle150"/>
	<circle cx="488.032" cy="561.169" r="4" fill="#0" id="circle151"/>
	<circle cx="490.692" cy="982.702" r="4" fill="#0" id="circle152"/>
	<circle cx="496.011" cy="67.8284" r="4" fill="#0" id="circle153"/>
	<circle cx="497.34" cy="642.284" r="4" fill="#0" id="circle154"/>
	<circle cx="501.33" cy="557.18" r="4" fill="#0" id="circle155"/>
	<circle cx="503.989" cy="982.702" r="4" fill="#0" id="circle156"/>
	<circle cx="506.649" cy="77.1367" r="4" fill="#0" id="circle157"/>
	<circle cx="509.308" cy="648.933" r="4" fill="#0" id="circle158"/>
	<circle cx="510.638" cy="796.536" r="4" fill="#0" id="circle159"/>
	<circle cx="514.627" cy="557.18" r="4" fill="#0" id="circle160"/>
	<circle cx="515.957" cy="87.7748" r="4" fill="#0" id="circle161"/>
	<circle cx="517.287" cy="808.504" r="4" fill="#0" id="circle162"/>
	<circle cx="517.287" cy="982.702" r="4" fill="#0" id="circle163"/>
	<circle cx="522.606" cy="648.933" r="4" fill="#0" id="circle164"/>
	<circle cx="523.936" cy="789.887" r="4" fill="#0" id="circle165"/>
	<circle cx="526.595" cy="550.531" r="4" fill="#0" id="circle166"/>
	<circle cx="527.925" cy="816.483" r="4" fill="#0" id="circle167"/>
	<circle cx="529.255" cy="93.0938" r="4" fill="#0" id="circle168"/>
	<circle cx="530.584" cy="982.702" r="4" fill="#0" id="circle169"/>
	<circle cx="535.903" cy="651.592" r="4" fill="#0" id="circle170"/>
	<circle cx="537.233" cy="103.732" r="4" fill="#0" id="circle171"/>
	<circle cx="537.233" cy="783.239" r="4" fill="#0" id="circle172"/>
	<circle cx="537.233" cy="827.121" r="4" fill="#0" id="circle173"/>
	<circle cx="539.893" cy="555.85" r="4" fill="#0" id="circle174"/>
	<circle cx="543.882" cy="839.088" r="4" fill="#0" id="circle175"/>
	<circle cx="543.882" cy="982.702" r="4" fill="#0" id="circle176"/>
	<circle cx="549.201" cy="110.381" r="4" fill="#0" id="circle177"/>
	<circle cx="549.201" cy="655.582" r="4" fill="#0" id="circle178"/>
	<circle cx="550.531" cy="783.239" r="4" fill="#0" id="circle179"/>
	<circle cx="553.19" cy="557.18" r="4" fill="#0" id="circle180"/>
	<circle cx="553.19" cy="849.727" r="4" fill="#0" id="circle181"/>
	<circle cx="555.85" cy="989.351" r="4" fill="#0" id="circle182"/>
	<circle cx="561.169" cy="117.029" r="4" fill="#0" id="circle183"/>
	<circle cx="561.169" cy="662.231" r="4" fill="#0" id="circle184"/>
	<circle cx="562.499" cy="776.59" r="4" fill="#0" id="circle185"/>
	<circle cx="563.828" cy="859.035" r="4" fill="#0" id="circle186"/>
	<circle cx="565.158" cy="563.828" r="4" fill="#0" id="circle187"/>
	<circle cx="569.147" cy="989.351" r="4" fill="#0" id="circle188"/>
	<circle cx="570.477" cy="871.003" r="4" fill="#0" id="circle189"/>
	<circle cx="573.137" cy="123.678" r="4" fill="#0" id="circle190"/>
	<circle cx="573.137" cy="668.879" r="4" fill="#0" id="circle191"/>
	<circle cx="574.466" cy="769.941" r="4" fill="#0" id="circle192"/>
	<circle cx="578.456" cy="563.828" r="4" fill="#0" id="circle193"/>
	<circle cx="578.456" cy="881.641" r="4" fill="#0" id="circle194"/>
	<circle cx="582.445" cy="989.351" r="4" fill="#0" id="circle195"/>
	<circle cx="585.105" cy="675.528" r="4" fill="#0" id="circle196"/>
	<circle cx="586.434" cy="123.678" r="4" fill="#0" id="circle197"/>
	<circle cx="587.764" cy="767.282" r="4" fill="#0" id="circle198"/>
	<circle cx="589.094" cy="890.949" r="4" fill="#0" id="circle199"/>
	<circle cx="591.753" cy="567.818" r="4" fill="#0" id="circle200"/>
	<circle cx="595.743" cy="989.351" r="4" fill="#0" id="circle201"/>
	<circle cx="597.072" cy="901.587" r="4" fill="#0" id="circle202"/>
	<circle cx="598.402" cy="675.528" r="4" fill="#0" id="circle203"/>
	<circle cx="599.732" cy="123.678" r="4" fill="#0" id="circle204"/>
	<circle cx="601.062" cy="760.633" r="4" fill="#0" id="circle205"/>
	<circle cx="603.721" cy="574.466" r="4" fill="#0" id="circle206"/>
	<circle cx="603.721" cy="913.555" r="4" fill="#0" id="circle207"/>
	<circle cx="609.04" cy="989.351" r="4" fill="#0" id="circle208"/>
	<circle cx="610.37" cy="357.716" r="4" fill="#0" id="circle209"/>
	<circle cx="610.37" cy="371.013" r="4" fill="#0" id="circle210"/>
	<circle cx="610.37" cy="682.177" r="4" fill="#0" id="circle211"/>
	<circle cx="610.37" cy="749.995" r="4" fill="#0" id="circle212"/>
	<circle cx="613.029" cy="123.678" r="4" fill="#0" id="circle213"/>
	<circle cx="614.359" cy="922.863" r="4" fill="#0" id="circle214"/>
	<circle cx="617.019" cy="382.981" r="4" fill="#0" id="circle215"/>
	<circle cx="617.019" cy="577.126" r="4" fill="#0" id="circle216"/>
	<circle cx="622.338" cy="688.826" r="4" fill="#0" id="circle217"/>
	<circle cx="622.338" cy="989.351" r="4" fill="#0" id="circle218"/>
	<circle cx="623.668" cy="351.067" r="4" fill="#0" id="circle219"/>
	<circle cx="623.668" cy="394.949" r="4" fill="#0" id="circle220"/>
	<circle cx="623.668" cy="743.346" r="4" fill="#0" id="circle221"/>
	<circle cx="623.668" cy="933.501" r="4" fill="#0" id="circle222"/>
	<circle cx="624.997" cy="117.029" r="4" fill="#0" id="circle223"/>
	<circle cx="628.987" cy="583.775" r="4" fill="#0" id="circle224"/>
	<circle cx="630.316" cy="406.917" r="4" fill="#0" id="circle225"/>
	<circle cx="630.316" cy="945.469" r="4" fill="#0" id="circle226"/>
	<circle cx="634.306" cy="695.475" r="4" fill="#0" id="circle227"/>
	<circle cx="634.306" cy="996" r="4" fill="#0" id="circle228"/>
	<circle cx="636.965" cy="110.381" r="4" fill="#0" id="circle229"/>
	<circle cx="636.965" cy="344.418" r="4" fill="#0" id="circle230"/>
	<circle cx="636.965" cy="418.885" r="4" fill="#0" id="circle231"/>
	<circle cx="636.965" cy="736.697" r="4" fill="#0" id="circle232"/>
	<circle cx="639.625" cy="956.107" r="4" fill="#0" id="circle233"/>
	<circle cx="640.954" cy="590.424" r="4" fill="#0" id="circle234"/>
	<circle cx="644.944" cy="429.523" r="4" fill="#0" id="circle235"/>
	<circle cx="646.273" cy="702.123" r="4" fill="#0" id="circle236"/>
	<circle cx="647.603" cy="727.389" r="4" fill="#0" id="circle237"/>
	<circle cx="647.603" cy="996" r="4" fill="#0" id="circle238"/>
	<circle cx="648.933" cy="337.769" r="4" fill="#0" id="circle239"/>
	<circle cx="650.263" cy="110.381" r="4" fill="#0" id="circle240"/>
	<circle cx="650.263" cy="965.416" r="4" fill="#0" id="circle241"/>
	<circle cx="654.252" cy="590.424" r="4" fill="#0" id="circle242"/>
	<circle cx="655.582" cy="438.831" r="4" fill="#0" id="circle243"/>
	<circle cx="656.912" cy="977.383" r="4" fill="#0" id="circle244"/>
	<circle cx="660.901" cy="331.121" r="4" fill="#0" id="circle245"/>
	<circle cx="660.901" cy="996" r="4" fill="#0" id="circle246"/>
	<circle cx="663.56" cy="110.381" r="4" fill="#0" id="circle247"/>
	<circle cx="663.56" cy="184.847" r="4" fill="#0" id="circle248"/>
	<circle cx="663.56" cy="198.145" r="4" fill="#0" id="circle249"/>
	<circle cx="663.56" cy="211.442" r="4" fill="#0" id="circle250"/>
	<circle cx="667.55" cy="445.48" r="4" fill="#0" id="circle251"/>
	<circle cx="667.55" cy="590.424" r="4" fill="#0" id="circle252"/>
	<circle cx="670.209" cy="171.55" r="4" fill="#0" id="circle253"/>
	<circle cx="670.209" cy="223.41" r="4" fill="#0" id="circle254"/>
	<circle cx="672.869" cy="323.142" r="4" fill="#0" id="circle255"/>
	<circle cx="674.198" cy="457.448" r="4" fill="#0" id="circle256"/>
	<circle cx="676.858" cy="114.37" r="4" fill="#0" id="circle257"/>
	<circle cx="676.858" cy="151.603" r="4" fill="#0" id="circle258"/>
	<circle cx="679.517" cy="309.845" r="4" fill="#0" id="circle259"/>
	<circle cx="679.517" cy="582.445" r="4" fill="#0" id="circle260"/>
	<circle cx="680.847" cy="231.389" r="4" fill="#0" id="circle261"/>
	<circle cx="683.507" cy="126.338" r="4" fill="#0" id="circle262"/>
	<circle cx="683.507" cy="139.635" r="4" fill="#0" id="circle263"/>
	<circle cx="683.507" cy="468.086" r="4" fill="#0" id="circle264"/>
	<circle cx="690.155" cy="242.027" r="4" fill="#0" id="circle265"/>
	<circle cx="690.155" cy="297.877" r="4" fill="#0" id="circle266"/>
	<circle cx="690.155" cy="480.054" r="4" fill="#0" id="circle267"/>
	<circle cx="690.155" cy="570.477" r="4" fill="#0" id="circle268"/>
	<circle cx="695.475" cy="493.351" r="4" fill="#0" id="circle269"/>
	<circle cx="696.804" cy="253.995" r="4" fill="#0" id="circle270"/>
	<circle cx="696.804" cy="267.292" r="4" fill="#0" id="circle271"/>
	<circle cx="696.804" cy="280.59" r="4" fill="#0" id="circle272"/>
	<circle cx="696.804" cy="506.649" r="4" fill="#0" id="circle273"/>
	<circle cx="696.804" cy="519.946" r="4" fill="#0" id="circle274"/>
	<circle cx="696.804" cy="533.244" r="4" fill="#0" id="circle275"/>
	<circle cx="696.804" cy="546.542" r="4" fill="#0" id="circle276"/>
	</g>
</svg>