<?xml version="1.0" encoding="UTF-8" standalone="no"?>
<!-- Created with CurveBenchmark -->
<svg
	xmlns:dc="http://purl.org/dc/elements/1.1/"
	xmlns:cc="http://creativecommons.org/ns#"
	xmlns:rdf="http://www.w3.org/1999/02/22-rdf-syntax-ns#"
	xmlns:svg="http://www.w3.org/2000/svg"
	xmlns="http://www.w3.org/2000/svg"
	xmlns:sodipodi="http://sodipodi.sourceforge.net/DTD/sodipodi-0.dtd"
	xmlns:inkscape="http://www.inkscape.org/namespaces/inkscape"
	width="1000"
	height="1000"
	id="svg2"
	version="1.1"
	sodipodi:docname="manifold/crust-easterncottontail.png.txt">
<defs
	id="defs4" />
<metadata
	id="metadata7">
	<rdf:RDF>
		<cc:Work
			rdf:about="">
			<dc:format>image/svg+xml</dc:format>
			<dc:type
				rdf:resource="http://purl.org/dc/dcmitype/StillImage" />
			<dc:title></dc:title>
		</cc:Work>
	</rdf:RDF>
</metadata>
<g
	inkscape:label="Layer 1"
	inkscape:groupmode="layer"
	id="layer1">
	<path style="fill:none;stroke:red;stroke-width:1px;stroke-linecap:butt;stroke-linejoin:miter;stroke-opacity:1" d="M 176.148,64.2516 165.388,85.7701 z" id="boundary" inkscape:connector-curvature="0" />
	<path style="fill:none;stroke:red;stroke-width:1px;stroke-linecap:butt;stroke-linejoin:miter;stroke-opacity:1" d="M 232.095,4 212.729,14.7592 z" id="boundary" inkscape:connector-curvature="0" />
	<path style="fill:none;stroke:red;stroke-width:1px;stroke-linecap:butt;stroke-linejoin:miter;stroke-opacity:1" d="M 165.388,85.7701 165.388,107.289 z" id="boundary" inkscape:connector-curvature="0" />
	<path style="fill:none;stroke:red;stroke-width:1px;stroke-linecap:butt;stroke-linejoin:miter;stroke-opacity:1" d="M 176.148,64.2516 176.148,42.7332 z" id="boundary" inkscape:connector-curvature="0" />
	<path style="fill:none;stroke:red;stroke-width:1px;stroke-linecap:butt;stroke-linejoin:miter;stroke-opacity:1" d="M 193.362,25.5184 176.148,42.7332 z" id="boundary" inkscape:connector-curvature="0" />
	<path style="fill:none;stroke:red;stroke-width:1px;stroke-linecap:butt;stroke-linejoin:miter;stroke-opacity:1" d="M 193.362,25.5184 212.729,14.7592 z" id="boundary" inkscape:connector-curvature="0" />
	<path style="fill:none;stroke:red;stroke-width:1px;stroke-linecap:butt;stroke-linejoin:miter;stroke-opacity:1" d="M 165.388,107.289 165.388,128.807 z" id="boundary" inkscape:connector-curvature="0" />
	<path style="fill:none;stroke:red;stroke-width:1px;stroke-linecap:butt;stroke-linejoin:miter;stroke-opacity:1" d="M 165.388,150.325 165.388,128.807 z" id="boundary" inkscape:connector-curvature="0" />
	<path style="fill:none;stroke:red;stroke-width:1px;stroke-linecap:butt;stroke-linejoin:miter;stroke-opacity:1" d="M 167.54,201.97 176.148,169.692 z" id="boundary" inkscape:connector-curvature="0" />
	<path style="fill:none;stroke:red;stroke-width:1px;stroke-linecap:butt;stroke-linejoin:miter;stroke-opacity:1" d="M 176.148,169.692 165.388,150.325 z" id="boundary" inkscape:connector-curvature="0" />
	<path style="fill:none;stroke:red;stroke-width:1px;stroke-linecap:butt;stroke-linejoin:miter;stroke-opacity:1" d="M 150.325,219.184 167.54,201.97 z" id="boundary" inkscape:connector-curvature="0" />
	<path style="fill:none;stroke:red;stroke-width:1px;stroke-linecap:butt;stroke-linejoin:miter;stroke-opacity:1" d="M 90.0738,236.399 90.0738,257.918 z" id="boundary" inkscape:connector-curvature="0" />
	<path style="fill:none;stroke:red;stroke-width:1px;stroke-linecap:butt;stroke-linejoin:miter;stroke-opacity:1" d="M 90.0738,214.881 90.0738,236.399 z" id="boundary" inkscape:connector-curvature="0" />
	<path style="fill:none;stroke:red;stroke-width:1px;stroke-linecap:butt;stroke-linejoin:miter;stroke-opacity:1" d="M 90.0738,257.918 75.0108,283.74 z" id="boundary" inkscape:connector-curvature="0" />
	<path style="fill:none;stroke:red;stroke-width:1px;stroke-linecap:butt;stroke-linejoin:miter;stroke-opacity:1" d="M 14.7592,376.269 25.5184,343.991 z" id="boundary" inkscape:connector-curvature="0" />
	<path style="fill:none;stroke:red;stroke-width:1px;stroke-linecap:butt;stroke-linejoin:miter;stroke-opacity:1" d="M 36.2777,311.714 25.5184,343.991 z" id="boundary" inkscape:connector-curvature="0" />
	<path style="fill:none;stroke:red;stroke-width:1px;stroke-linecap:butt;stroke-linejoin:miter;stroke-opacity:1" d="M 57.7961,300.954 75.0108,283.74 z" id="boundary" inkscape:connector-curvature="0" />
	<path style="fill:none;stroke:red;stroke-width:1px;stroke-linecap:butt;stroke-linejoin:miter;stroke-opacity:1" d="M 57.7961,300.954 36.2777,311.714 z" id="boundary" inkscape:connector-curvature="0" />
	<path style="fill:none;stroke:red;stroke-width:1px;stroke-linecap:butt;stroke-linejoin:miter;stroke-opacity:1" d="M 90.0738,257.918 111.592,240.703 z" id="boundary" inkscape:connector-curvature="0" />
	<path style="fill:none;stroke:red;stroke-width:1px;stroke-linecap:butt;stroke-linejoin:miter;stroke-opacity:1" d="M 150.325,219.184 130.959,229.944 z" id="boundary" inkscape:connector-curvature="0" />
	<path style="fill:none;stroke:red;stroke-width:1px;stroke-linecap:butt;stroke-linejoin:miter;stroke-opacity:1" d="M 130.959,229.944 111.592,240.703 z" id="boundary" inkscape:connector-curvature="0" />
	<path style="fill:none;stroke:red;stroke-width:1px;stroke-linecap:butt;stroke-linejoin:miter;stroke-opacity:1" d="M 14.7592,376.269 4,408.547 z" id="boundary" inkscape:connector-curvature="0" />
	<path style="fill:none;stroke:red;stroke-width:1px;stroke-linecap:butt;stroke-linejoin:miter;stroke-opacity:1" d="M 232.095,4 253.614,4 z" id="boundary" inkscape:connector-curvature="0" />
	<path style="fill:none;stroke:red;stroke-width:1px;stroke-linecap:butt;stroke-linejoin:miter;stroke-opacity:1" d="M 253.614,4 275.132,4 z" id="boundary" inkscape:connector-curvature="0" />
	<path style="fill:none;stroke:red;stroke-width:1px;stroke-linecap:butt;stroke-linejoin:miter;stroke-opacity:1" d="M 275.132,4 292.347,16.9111 z" id="boundary" inkscape:connector-curvature="0" />
	<path style="fill:none;stroke:red;stroke-width:1px;stroke-linecap:butt;stroke-linejoin:miter;stroke-opacity:1" d="M 307.41,34.1258 318.169,53.4924 z" id="boundary" inkscape:connector-curvature="0" />
	<path style="fill:none;stroke:red;stroke-width:1px;stroke-linecap:butt;stroke-linejoin:miter;stroke-opacity:1" d="M 292.347,16.9111 307.41,34.1258 z" id="boundary" inkscape:connector-curvature="0" />
	<path style="fill:none;stroke:red;stroke-width:1px;stroke-linecap:butt;stroke-linejoin:miter;stroke-opacity:1" d="M 318.169,53.4924 318.169,75.0108 z" id="boundary" inkscape:connector-curvature="0" />
	<path style="fill:none;stroke:red;stroke-width:1px;stroke-linecap:butt;stroke-linejoin:miter;stroke-opacity:1" d="M 318.169,75.0108 318.169,96.5293 z" id="boundary" inkscape:connector-curvature="0" />
	<path style="fill:none;stroke:red;stroke-width:1px;stroke-linecap:butt;stroke-linejoin:miter;stroke-opacity:1" d="M 318.169,96.5293 326.777,118.048 z" id="boundary" inkscape:connector-curvature="0" />
	<path style="fill:none;stroke:red;stroke-width:1px;stroke-linecap:butt;stroke-linejoin:miter;stroke-opacity:1" d="M 326.777,118.048 318.169,146.022 z" id="boundary" inkscape:connector-curvature="0" />
	<path style="fill:none;stroke:red;stroke-width:1px;stroke-linecap:butt;stroke-linejoin:miter;stroke-opacity:1" d="M 318.169,189.059 318.169,167.54 z" id="boundary" inkscape:connector-curvature="0" />
	<path style="fill:none;stroke:red;stroke-width:1px;stroke-linecap:butt;stroke-linejoin:miter;stroke-opacity:1" d="M 328.928,208.425 318.169,189.059 z" id="boundary" inkscape:connector-curvature="0" />
	<path style="fill:none;stroke:red;stroke-width:1px;stroke-linecap:butt;stroke-linejoin:miter;stroke-opacity:1" d="M 318.169,146.022 318.169,167.54 z" id="boundary" inkscape:connector-curvature="0" />
	<path style="fill:none;stroke:red;stroke-width:1px;stroke-linecap:butt;stroke-linejoin:miter;stroke-opacity:1" d="M 432.217,176.148 412.85,186.907 z" id="boundary" inkscape:connector-curvature="0" />
	<path style="fill:none;stroke:red;stroke-width:1px;stroke-linecap:butt;stroke-linejoin:miter;stroke-opacity:1" d="M 369.813,197.666 350.447,208.425 z" id="boundary" inkscape:connector-curvature="0" />
	<path style="fill:none;stroke:red;stroke-width:1px;stroke-linecap:butt;stroke-linejoin:miter;stroke-opacity:1" d="M 350.447,208.425 328.928,208.425 z" id="boundary" inkscape:connector-curvature="0" />
	<path style="fill:none;stroke:red;stroke-width:1px;stroke-linecap:butt;stroke-linejoin:miter;stroke-opacity:1" d="M 391.332,193.362 412.85,186.907 z" id="boundary" inkscape:connector-curvature="0" />
	<path style="fill:none;stroke:red;stroke-width:1px;stroke-linecap:butt;stroke-linejoin:miter;stroke-opacity:1" d="M 369.813,197.666 391.332,193.362 z" id="boundary" inkscape:connector-curvature="0" />
	<path style="fill:none;stroke:red;stroke-width:1px;stroke-linecap:butt;stroke-linejoin:miter;stroke-opacity:1" d="M 4,408.547 21.2148,423.61 z" id="boundary" inkscape:connector-curvature="0" />
	<path style="fill:none;stroke:red;stroke-width:1px;stroke-linecap:butt;stroke-linejoin:miter;stroke-opacity:1" d="M 21.2148,423.61 29.8221,445.128 z" id="boundary" inkscape:connector-curvature="0" />
	<path style="fill:none;stroke:red;stroke-width:1px;stroke-linecap:butt;stroke-linejoin:miter;stroke-opacity:1" d="M 47.0369,458.039 29.8221,445.128 z" id="boundary" inkscape:connector-curvature="0" />
	<path style="fill:none;stroke:red;stroke-width:1px;stroke-linecap:butt;stroke-linejoin:miter;stroke-opacity:1" d="M 47.0369,458.039 57.7961,477.406 z" id="boundary" inkscape:connector-curvature="0" />
	<path style="fill:none;stroke:red;stroke-width:1px;stroke-linecap:butt;stroke-linejoin:miter;stroke-opacity:1" d="M 57.7961,477.406 79.3145,479.557 z" id="boundary" inkscape:connector-curvature="0" />
	<path style="fill:none;stroke:red;stroke-width:1px;stroke-linecap:butt;stroke-linejoin:miter;stroke-opacity:1" d="M 79.3145,479.557 85.7701,501.076 z" id="boundary" inkscape:connector-curvature="0" />
	<path style="fill:none;stroke:red;stroke-width:1px;stroke-linecap:butt;stroke-linejoin:miter;stroke-opacity:1" d="M 85.7701,501.076 107.289,498.924 z" id="boundary" inkscape:connector-curvature="0" />
	<path style="fill:none;stroke:red;stroke-width:1px;stroke-linecap:butt;stroke-linejoin:miter;stroke-opacity:1" d="M 107.289,498.924 128.807,490.317 z" id="boundary" inkscape:connector-curvature="0" />
	<path style="fill:none;stroke:red;stroke-width:1px;stroke-linecap:butt;stroke-linejoin:miter;stroke-opacity:1" d="M 146.022,505.38 128.807,490.317 z" id="boundary" inkscape:connector-curvature="0" />
	<path style="fill:none;stroke:red;stroke-width:1px;stroke-linecap:butt;stroke-linejoin:miter;stroke-opacity:1" d="M 146.022,505.38 161.085,522.594 z" id="boundary" inkscape:connector-curvature="0" />
	<path style="fill:none;stroke:red;stroke-width:1px;stroke-linecap:butt;stroke-linejoin:miter;stroke-opacity:1" d="M 161.085,522.594 182.603,520.443 z" id="boundary" inkscape:connector-curvature="0" />
	<path style="fill:none;stroke:red;stroke-width:1px;stroke-linecap:butt;stroke-linejoin:miter;stroke-opacity:1" d="M 197.666,537.657 182.603,520.443 z" id="boundary" inkscape:connector-curvature="0" />
	<path style="fill:none;stroke:red;stroke-width:1px;stroke-linecap:butt;stroke-linejoin:miter;stroke-opacity:1" d="M 197.666,537.657 210.577,554.872 z" id="boundary" inkscape:connector-curvature="0" />
	<path style="fill:none;stroke:red;stroke-width:1px;stroke-linecap:butt;stroke-linejoin:miter;stroke-opacity:1" d="M 210.577,554.872 229.944,565.631 z" id="boundary" inkscape:connector-curvature="0" />
	<path style="fill:none;stroke:red;stroke-width:1px;stroke-linecap:butt;stroke-linejoin:miter;stroke-opacity:1" d="M 236.399,660.312 214.881,671.072 z" id="boundary" inkscape:connector-curvature="0" />
	<path style="fill:none;stroke:red;stroke-width:1px;stroke-linecap:butt;stroke-linejoin:miter;stroke-opacity:1" d="M 197.666,688.286 214.881,671.072 z" id="boundary" inkscape:connector-curvature="0" />
	<path style="fill:none;stroke:red;stroke-width:1px;stroke-linecap:butt;stroke-linejoin:miter;stroke-opacity:1" d="M 214.881,703.349 197.666,688.286 z" id="boundary" inkscape:connector-curvature="0" />
	<path style="fill:none;stroke:red;stroke-width:1px;stroke-linecap:butt;stroke-linejoin:miter;stroke-opacity:1" d="M 236.399,705.501 214.881,703.349 z" id="boundary" inkscape:connector-curvature="0" />
	<path style="fill:none;stroke:red;stroke-width:1px;stroke-linecap:butt;stroke-linejoin:miter;stroke-opacity:1" d="M 229.944,565.631 236.399,587.15 z" id="boundary" inkscape:connector-curvature="0" />
	<path style="fill:none;stroke:red;stroke-width:1px;stroke-linecap:butt;stroke-linejoin:miter;stroke-opacity:1" d="M 257.918,587.15 236.399,587.15 z" id="boundary" inkscape:connector-curvature="0" />
	<path style="fill:none;stroke:red;stroke-width:1px;stroke-linecap:butt;stroke-linejoin:miter;stroke-opacity:1" d="M 257.918,587.15 268.677,606.516 z" id="boundary" inkscape:connector-curvature="0" />
	<path style="fill:none;stroke:red;stroke-width:1px;stroke-linecap:butt;stroke-linejoin:miter;stroke-opacity:1" d="M 257.918,660.312 236.399,660.312 z" id="boundary" inkscape:connector-curvature="0" />
	<path style="fill:none;stroke:red;stroke-width:1px;stroke-linecap:butt;stroke-linejoin:miter;stroke-opacity:1" d="M 279.436,660.312 257.918,660.312 z" id="boundary" inkscape:connector-curvature="0" />
	<path style="fill:none;stroke:red;stroke-width:1px;stroke-linecap:butt;stroke-linejoin:miter;stroke-opacity:1" d="M 268.677,606.516 283.74,623.731 z" id="boundary" inkscape:connector-curvature="0" />
	<path style="fill:none;stroke:red;stroke-width:1px;stroke-linecap:butt;stroke-linejoin:miter;stroke-opacity:1" d="M 283.74,623.731 279.436,660.312 z" id="boundary" inkscape:connector-curvature="0" />
	<path style="fill:none;stroke:red;stroke-width:1px;stroke-linecap:butt;stroke-linejoin:miter;stroke-opacity:1" d="M 423.61,677.527 402.091,688.286 z" id="boundary" inkscape:connector-curvature="0" />
	<path style="fill:none;stroke:red;stroke-width:1px;stroke-linecap:butt;stroke-linejoin:miter;stroke-opacity:1" d="M 255.766,716.26 236.399,705.501 z" id="boundary" inkscape:connector-curvature="0" />
	<path style="fill:none;stroke:red;stroke-width:1px;stroke-linecap:butt;stroke-linejoin:miter;stroke-opacity:1" d="M 298.803,716.26 277.284,716.26 z" id="boundary" inkscape:connector-curvature="0" />
	<path style="fill:none;stroke:red;stroke-width:1px;stroke-linecap:butt;stroke-linejoin:miter;stroke-opacity:1" d="M 277.284,716.26 255.766,716.26 z" id="boundary" inkscape:connector-curvature="0" />
	<path style="fill:none;stroke:red;stroke-width:1px;stroke-linecap:butt;stroke-linejoin:miter;stroke-opacity:1" d="M 337.536,694.742 318.169,705.501 z" id="boundary" inkscape:connector-curvature="0" />
	<path style="fill:none;stroke:red;stroke-width:1px;stroke-linecap:butt;stroke-linejoin:miter;stroke-opacity:1" d="M 318.169,705.501 298.803,716.26 z" id="boundary" inkscape:connector-curvature="0" />
	<path style="fill:none;stroke:red;stroke-width:1px;stroke-linecap:butt;stroke-linejoin:miter;stroke-opacity:1" d="M 359.054,694.742 380.573,688.286 z" id="boundary" inkscape:connector-curvature="0" />
	<path style="fill:none;stroke:red;stroke-width:1px;stroke-linecap:butt;stroke-linejoin:miter;stroke-opacity:1" d="M 359.054,694.742 337.536,694.742 z" id="boundary" inkscape:connector-curvature="0" />
	<path style="fill:none;stroke:red;stroke-width:1px;stroke-linecap:butt;stroke-linejoin:miter;stroke-opacity:1" d="M 380.573,688.286 402.091,688.286 z" id="boundary" inkscape:connector-curvature="0" />
	<path style="fill:none;stroke:red;stroke-width:1px;stroke-linecap:butt;stroke-linejoin:miter;stroke-opacity:1" d="M 451.584,165.388 432.217,176.148 z" id="boundary" inkscape:connector-curvature="0" />
	<path style="fill:none;stroke:red;stroke-width:1px;stroke-linecap:butt;stroke-linejoin:miter;stroke-opacity:1" d="M 473.102,165.388 451.584,165.388 z" id="boundary" inkscape:connector-curvature="0" />
	<path style="fill:none;stroke:red;stroke-width:1px;stroke-linecap:butt;stroke-linejoin:miter;stroke-opacity:1" d="M 473.102,165.388 494.62,154.629 z" id="boundary" inkscape:connector-curvature="0" />
	<path style="fill:none;stroke:red;stroke-width:1px;stroke-linecap:butt;stroke-linejoin:miter;stroke-opacity:1" d="M 516.139,154.629 494.62,154.629 z" id="boundary" inkscape:connector-curvature="0" />
	<path style="fill:none;stroke:red;stroke-width:1px;stroke-linecap:butt;stroke-linejoin:miter;stroke-opacity:1" d="M 537.657,154.629 516.139,154.629 z" id="boundary" inkscape:connector-curvature="0" />
	<path style="fill:none;stroke:red;stroke-width:1px;stroke-linecap:butt;stroke-linejoin:miter;stroke-opacity:1" d="M 559.176,143.87 537.657,154.629 z" id="boundary" inkscape:connector-curvature="0" />
	<path style="fill:none;stroke:red;stroke-width:1px;stroke-linecap:butt;stroke-linejoin:miter;stroke-opacity:1" d="M 580.694,143.87 559.176,143.87 z" id="boundary" inkscape:connector-curvature="0" />
	<path style="fill:none;stroke:red;stroke-width:1px;stroke-linecap:butt;stroke-linejoin:miter;stroke-opacity:1" d="M 602.213,143.87 580.694,143.87 z" id="boundary" inkscape:connector-curvature="0" />
	<path style="fill:none;stroke:red;stroke-width:1px;stroke-linecap:butt;stroke-linejoin:miter;stroke-opacity:1" d="M 602.213,143.87 621.579,154.629 z" id="boundary" inkscape:connector-curvature="0" />
	<path style="fill:none;stroke:red;stroke-width:1px;stroke-linecap:butt;stroke-linejoin:miter;stroke-opacity:1" d="M 643.098,154.629 621.579,154.629 z" id="boundary" inkscape:connector-curvature="0" />
	<path style="fill:none;stroke:red;stroke-width:1px;stroke-linecap:butt;stroke-linejoin:miter;stroke-opacity:1" d="M 664.616,154.629 643.098,154.629 z" id="boundary" inkscape:connector-curvature="0" />
	<path style="fill:none;stroke:red;stroke-width:1px;stroke-linecap:butt;stroke-linejoin:miter;stroke-opacity:1" d="M 664.616,154.629 683.983,165.388 z" id="boundary" inkscape:connector-curvature="0" />
	<path style="fill:none;stroke:red;stroke-width:1px;stroke-linecap:butt;stroke-linejoin:miter;stroke-opacity:1" d="M 705.501,171.844 683.983,165.388 z" id="boundary" inkscape:connector-curvature="0" />
	<path style="fill:none;stroke:red;stroke-width:1px;stroke-linecap:butt;stroke-linejoin:miter;stroke-opacity:1" d="M 727.02,176.148 705.501,171.844 z" id="boundary" inkscape:connector-curvature="0" />
	<path style="fill:none;stroke:red;stroke-width:1px;stroke-linecap:butt;stroke-linejoin:miter;stroke-opacity:1" d="M 746.386,186.907 727.02,176.148 z" id="boundary" inkscape:connector-curvature="0" />
	<path style="fill:none;stroke:red;stroke-width:1px;stroke-linecap:butt;stroke-linejoin:miter;stroke-opacity:1" d="M 767.905,191.21 780.816,208.425 z" id="boundary" inkscape:connector-curvature="0" />
	<path style="fill:none;stroke:red;stroke-width:1px;stroke-linecap:butt;stroke-linejoin:miter;stroke-opacity:1" d="M 746.386,186.907 767.905,191.21 z" id="boundary" inkscape:connector-curvature="0" />
	<path style="fill:none;stroke:red;stroke-width:1px;stroke-linecap:butt;stroke-linejoin:miter;stroke-opacity:1" d="M 817.397,232.095 802.334,214.881 z" id="boundary" inkscape:connector-curvature="0" />
	<path style="fill:none;stroke:red;stroke-width:1px;stroke-linecap:butt;stroke-linejoin:miter;stroke-opacity:1" d="M 780.816,208.425 802.334,214.881 z" id="boundary" inkscape:connector-curvature="0" />
	<path style="fill:none;stroke:red;stroke-width:1px;stroke-linecap:butt;stroke-linejoin:miter;stroke-opacity:1" d="M 834.612,247.158 817.397,232.095 z" id="boundary" inkscape:connector-curvature="0" />
	<path style="fill:none;stroke:red;stroke-width:1px;stroke-linecap:butt;stroke-linejoin:miter;stroke-opacity:1" d="M 834.612,247.158 853.978,257.918 z" id="boundary" inkscape:connector-curvature="0" />
	<path style="fill:none;stroke:red;stroke-width:1px;stroke-linecap:butt;stroke-linejoin:miter;stroke-opacity:1" d="M 853.978,257.918 864.738,277.284 z" id="boundary" inkscape:connector-curvature="0" />
	<path style="fill:none;stroke:red;stroke-width:1px;stroke-linecap:butt;stroke-linejoin:miter;stroke-opacity:1" d="M 884.104,288.043 864.738,277.284 z" id="boundary" inkscape:connector-curvature="0" />
	<path style="fill:none;stroke:red;stroke-width:1px;stroke-linecap:butt;stroke-linejoin:miter;stroke-opacity:1" d="M 894.863,307.41 884.104,288.043 z" id="boundary" inkscape:connector-curvature="0" />
	<path style="fill:none;stroke:red;stroke-width:1px;stroke-linecap:butt;stroke-linejoin:miter;stroke-opacity:1" d="M 894.863,307.41 909.926,324.625 z" id="boundary" inkscape:connector-curvature="0" />
	<path style="fill:none;stroke:red;stroke-width:1px;stroke-linecap:butt;stroke-linejoin:miter;stroke-opacity:1" d="M 909.926,324.625 927.141,339.688 z" id="boundary" inkscape:connector-curvature="0" />
	<path style="fill:none;stroke:red;stroke-width:1px;stroke-linecap:butt;stroke-linejoin:miter;stroke-opacity:1" d="M 927.141,339.688 942.204,356.902 z" id="boundary" inkscape:connector-curvature="0" />
	<path style="fill:none;stroke:red;stroke-width:1px;stroke-linecap:butt;stroke-linejoin:miter;stroke-opacity:1" d="M 942.204,356.902 942.204,378.421 z" id="boundary" inkscape:connector-curvature="0" />
	<path style="fill:none;stroke:red;stroke-width:1px;stroke-linecap:butt;stroke-linejoin:miter;stroke-opacity:1" d="M 952.963,397.787 961.57,419.306 z" id="boundary" inkscape:connector-curvature="0" />
	<path style="fill:none;stroke:red;stroke-width:1px;stroke-linecap:butt;stroke-linejoin:miter;stroke-opacity:1" d="M 952.963,397.787 942.204,378.421 z" id="boundary" inkscape:connector-curvature="0" />
	<path style="fill:none;stroke:red;stroke-width:1px;stroke-linecap:butt;stroke-linejoin:miter;stroke-opacity:1" d="M 961.57,419.306 963.722,447.28 z" id="boundary" inkscape:connector-curvature="0" />
	<path style="fill:none;stroke:red;stroke-width:1px;stroke-linecap:butt;stroke-linejoin:miter;stroke-opacity:1" d="M 968.026,468.798 963.722,447.28 z" id="boundary" inkscape:connector-curvature="0" />
	<path style="fill:none;stroke:red;stroke-width:1px;stroke-linecap:butt;stroke-linejoin:miter;stroke-opacity:1" d="M 466.646,673.223 445.128,666.768 z" id="boundary" inkscape:connector-curvature="0" />
	<path style="fill:none;stroke:red;stroke-width:1px;stroke-linecap:butt;stroke-linejoin:miter;stroke-opacity:1" d="M 445.128,666.768 423.61,677.527 z" id="boundary" inkscape:connector-curvature="0" />
	<path style="fill:none;stroke:red;stroke-width:1px;stroke-linecap:butt;stroke-linejoin:miter;stroke-opacity:1" d="M 488.165,673.223 466.646,673.223 z" id="boundary" inkscape:connector-curvature="0" />
	<path style="fill:none;stroke:red;stroke-width:1px;stroke-linecap:butt;stroke-linejoin:miter;stroke-opacity:1" d="M 509.683,673.223 488.165,673.223 z" id="boundary" inkscape:connector-curvature="0" />
	<path style="fill:none;stroke:red;stroke-width:1px;stroke-linecap:butt;stroke-linejoin:miter;stroke-opacity:1" d="M 531.202,673.223 509.683,673.223 z" id="boundary" inkscape:connector-curvature="0" />
	<path style="fill:none;stroke:red;stroke-width:1px;stroke-linecap:butt;stroke-linejoin:miter;stroke-opacity:1" d="M 531.202,673.223 541.961,692.59 z" id="boundary" inkscape:connector-curvature="0" />
	<path style="fill:none;stroke:red;stroke-width:1px;stroke-linecap:butt;stroke-linejoin:miter;stroke-opacity:1" d="M 765.753,722.716 744.234,727.02 z" id="boundary" inkscape:connector-curvature="0" />
	<path style="fill:none;stroke:red;stroke-width:1px;stroke-linecap:butt;stroke-linejoin:miter;stroke-opacity:1" d="M 531.202,718.412 520.443,699.046 z" id="boundary" inkscape:connector-curvature="0" />
	<path style="fill:none;stroke:red;stroke-width:1px;stroke-linecap:butt;stroke-linejoin:miter;stroke-opacity:1" d="M 552.72,727.02 531.202,718.412 z" id="boundary" inkscape:connector-curvature="0" />
	<path style="fill:none;stroke:red;stroke-width:1px;stroke-linecap:butt;stroke-linejoin:miter;stroke-opacity:1" d="M 574.239,727.02 552.72,727.02 z" id="boundary" inkscape:connector-curvature="0" />
	<path style="fill:none;stroke:red;stroke-width:1px;stroke-linecap:butt;stroke-linejoin:miter;stroke-opacity:1" d="M 593.605,737.779 574.239,727.02 z" id="boundary" inkscape:connector-curvature="0" />
	<path style="fill:none;stroke:red;stroke-width:1px;stroke-linecap:butt;stroke-linejoin:miter;stroke-opacity:1" d="M 679.679,733.475 658.161,737.779 z" id="boundary" inkscape:connector-curvature="0" />
	<path style="fill:none;stroke:red;stroke-width:1px;stroke-linecap:butt;stroke-linejoin:miter;stroke-opacity:1" d="M 679.679,733.475 701.197,727.02 z" id="boundary" inkscape:connector-curvature="0" />
	<path style="fill:none;stroke:red;stroke-width:1px;stroke-linecap:butt;stroke-linejoin:miter;stroke-opacity:1" d="M 722.716,727.02 701.197,727.02 z" id="boundary" inkscape:connector-curvature="0" />
	<path style="fill:none;stroke:red;stroke-width:1px;stroke-linecap:butt;stroke-linejoin:miter;stroke-opacity:1" d="M 744.234,727.02 722.716,727.02 z" id="boundary" inkscape:connector-curvature="0" />
	<path style="fill:none;stroke:red;stroke-width:1px;stroke-linecap:butt;stroke-linejoin:miter;stroke-opacity:1" d="M 593.605,737.779 615.124,737.779 z" id="boundary" inkscape:connector-curvature="0" />
	<path style="fill:none;stroke:red;stroke-width:1px;stroke-linecap:butt;stroke-linejoin:miter;stroke-opacity:1" d="M 615.124,737.779 636.642,737.779 z" id="boundary" inkscape:connector-curvature="0" />
	<path style="fill:none;stroke:red;stroke-width:1px;stroke-linecap:butt;stroke-linejoin:miter;stroke-opacity:1" d="M 636.642,737.779 658.161,737.779 z" id="boundary" inkscape:connector-curvature="0" />
	<path style="fill:none;stroke:red;stroke-width:1px;stroke-linecap:butt;stroke-linejoin:miter;stroke-opacity:1" d="M 974.482,511.835 974.482,533.354 z" id="boundary" inkscape:connector-curvature="0" />
	<path style="fill:none;stroke:red;stroke-width:1px;stroke-linecap:butt;stroke-linejoin:miter;stroke-opacity:1" d="M 974.482,511.835 974.482,490.317 z" id="boundary" inkscape:connector-curvature="0" />
	<path style="fill:none;stroke:red;stroke-width:1px;stroke-linecap:butt;stroke-linejoin:miter;stroke-opacity:1" d="M 974.482,533.354 963.722,554.872 z" id="boundary" inkscape:connector-curvature="0" />
	<path style="fill:none;stroke:red;stroke-width:1px;stroke-linecap:butt;stroke-linejoin:miter;stroke-opacity:1" d="M 974.482,490.317 968.026,468.798 z" id="boundary" inkscape:connector-curvature="0" />
	<path style="fill:none;stroke:red;stroke-width:1px;stroke-linecap:butt;stroke-linejoin:miter;stroke-opacity:1" d="M 985.241,640.946 996,608.668 z" id="boundary" inkscape:connector-curvature="0" />
	<path style="fill:none;stroke:red;stroke-width:1px;stroke-linecap:butt;stroke-linejoin:miter;stroke-opacity:1" d="M 963.722,554.872 974.482,574.239 z" id="boundary" inkscape:connector-curvature="0" />
	<path style="fill:none;stroke:red;stroke-width:1px;stroke-linecap:butt;stroke-linejoin:miter;stroke-opacity:1" d="M 991.696,587.15 974.482,574.239 z" id="boundary" inkscape:connector-curvature="0" />
	<path style="fill:none;stroke:red;stroke-width:1px;stroke-linecap:butt;stroke-linejoin:miter;stroke-opacity:1" d="M 991.696,587.15 996,608.668 z" id="boundary" inkscape:connector-curvature="0" />
	<path style="fill:none;stroke:red;stroke-width:1px;stroke-linecap:butt;stroke-linejoin:miter;stroke-opacity:1" d="M 765.753,722.716 787.271,716.26 z" id="boundary" inkscape:connector-curvature="0" />
	<path style="fill:none;stroke:red;stroke-width:1px;stroke-linecap:butt;stroke-linejoin:miter;stroke-opacity:1" d="M 830.308,705.501 808.79,711.957 z" id="boundary" inkscape:connector-curvature="0" />
	<path style="fill:none;stroke:red;stroke-width:1px;stroke-linecap:butt;stroke-linejoin:miter;stroke-opacity:1" d="M 787.271,716.26 808.79,711.957 z" id="boundary" inkscape:connector-curvature="0" />
	<path style="fill:none;stroke:red;stroke-width:1px;stroke-linecap:butt;stroke-linejoin:miter;stroke-opacity:1" d="M 830.308,705.501 851.826,705.501 z" id="boundary" inkscape:connector-curvature="0" />
	<path style="fill:none;stroke:red;stroke-width:1px;stroke-linecap:butt;stroke-linejoin:miter;stroke-opacity:1" d="M 871.193,716.26 851.826,705.501 z" id="boundary" inkscape:connector-curvature="0" />
	<path style="fill:none;stroke:red;stroke-width:1px;stroke-linecap:butt;stroke-linejoin:miter;stroke-opacity:1" d="M 871.193,716.26 892.711,716.26 z" id="boundary" inkscape:connector-curvature="0" />
	<path style="fill:none;stroke:red;stroke-width:1px;stroke-linecap:butt;stroke-linejoin:miter;stroke-opacity:1" d="M 970.178,668.92 952.963,683.983 z" id="boundary" inkscape:connector-curvature="0" />
	<path style="fill:none;stroke:red;stroke-width:1px;stroke-linecap:butt;stroke-linejoin:miter;stroke-opacity:1" d="M 970.178,668.92 985.241,640.946 z" id="boundary" inkscape:connector-curvature="0" />
	<path style="fill:none;stroke:red;stroke-width:1px;stroke-linecap:butt;stroke-linejoin:miter;stroke-opacity:1" d="M 952.963,683.983 931.445,694.742 z" id="boundary" inkscape:connector-curvature="0" />
	<path style="fill:none;stroke:red;stroke-width:1px;stroke-linecap:butt;stroke-linejoin:miter;stroke-opacity:1" d="M 892.711,716.26 912.078,705.501 z" id="boundary" inkscape:connector-curvature="0" />
	<path style="fill:none;stroke:red;stroke-width:1px;stroke-linecap:butt;stroke-linejoin:miter;stroke-opacity:1" d="M 912.078,705.501 931.445,694.742 z" id="boundary" inkscape:connector-curvature="0" />
	<circle cx="4" cy="408.547" r="4" fill="#0" id="circle0"/>
	<circle cx="14.7592" cy="376.269" r="4" fill="#0" id="circle1"/>
	<circle cx="21.2148" cy="423.61" r="4" fill="#0" id="circle2"/>
	<circle cx="25.5184" cy="343.991" r="4" fill="#0" id="circle3"/>
	<circle cx="29.8221" cy="445.128" r="4" fill="#0" id="circle4"/>
	<circle cx="36.2777" cy="311.714" r="4" fill="#0" id="circle5"/>
	<circle cx="47.0369" cy="458.039" r="4" fill="#0" id="circle6"/>
	<circle cx="57.7961" cy="300.954" r="4" fill="#0" id="circle7"/>
	<circle cx="57.7961" cy="477.406" r="4" fill="#0" id="circle8"/>
	<circle cx="75.0108" cy="283.74" r="4" fill="#0" id="circle9"/>
	<circle cx="79.3145" cy="479.557" r="4" fill="#0" id="circle10"/>
	<circle cx="85.7701" cy="501.076" r="4" fill="#0" id="circle11"/>
	<circle cx="90.0738" cy="214.881" r="4" fill="#0" id="circle12"/>
	<circle cx="90.0738" cy="236.399" r="4" fill="#0" id="circle13"/>
	<circle cx="90.0738" cy="257.918" r="4" fill="#0" id="circle14"/>
	<circle cx="107.289" cy="498.924" r="4" fill="#0" id="circle15"/>
	<circle cx="111.592" cy="240.703" r="4" fill="#0" id="circle16"/>
	<circle cx="128.807" cy="490.317" r="4" fill="#0" id="circle17"/>
	<circle cx="130.959" cy="229.944" r="4" fill="#0" id="circle18"/>
	<circle cx="146.022" cy="505.38" r="4" fill="#0" id="circle19"/>
	<circle cx="150.325" cy="219.184" r="4" fill="#0" id="circle20"/>
	<circle cx="161.085" cy="522.594" r="4" fill="#0" id="circle21"/>
	<circle cx="165.388" cy="85.7701" r="4" fill="#0" id="circle22"/>
	<circle cx="165.388" cy="107.289" r="4" fill="#0" id="circle23"/>
	<circle cx="165.388" cy="128.807" r="4" fill="#0" id="circle24"/>
	<circle cx="165.388" cy="150.325" r="4" fill="#0" id="circle25"/>
	<circle cx="167.54" cy="201.97" r="4" fill="#0" id="circle26"/>
	<circle cx="176.148" cy="42.7332" r="4" fill="#0" id="circle27"/>
	<circle cx="176.148" cy="64.2516" r="4" fill="#0" id="circle28"/>
	<circle cx="176.148" cy="169.692" r="4" fill="#0" id="circle29"/>
	<circle cx="182.603" cy="520.443" r="4" fill="#0" id="circle30"/>
	<circle cx="193.362" cy="25.5184" r="4" fill="#0" id="circle31"/>
	<circle cx="197.666" cy="537.657" r="4" fill="#0" id="circle32"/>
	<circle cx="197.666" cy="688.286" r="4" fill="#0" id="circle33"/>
	<circle cx="210.577" cy="554.872" r="4" fill="#0" id="circle34"/>
	<circle cx="212.729" cy="14.7592" r="4" fill="#0" id="circle35"/>
	<circle cx="214.881" cy="671.072" r="4" fill="#0" id="circle36"/>
	<circle cx="214.881" cy="703.349" r="4" fill="#0" id="circle37"/>
	<circle cx="229.944" cy="565.631" r="4" fill="#0" id="circle38"/>
	<circle cx="232.095" cy="4" r="4" fill="#0" id="circle39"/>
	<circle cx="236.399" cy="587.15" r="4" fill="#0" id="circle40"/>
	<circle cx="236.399" cy="660.312" r="4" fill="#0" id="circle41"/>
	<circle cx="236.399" cy="705.501" r="4" fill="#0" id="circle42"/>
	<circle cx="253.614" cy="4" r="4" fill="#0" id="circle43"/>
	<circle cx="255.766" cy="716.26" r="4" fill="#0" id="circle44"/>
	<circle cx="257.918" cy="587.15" r="4" fill="#0" id="circle45"/>
	<circle cx="257.918" cy="660.312" r="4" fill="#0" id="circle46"/>
	<circle cx="268.677" cy="606.516" r="4" fill="#0" id="circle47"/>
	<circle cx="275.132" cy="4" r="4" fill="#0" id="circle48"/>
	<circle cx="277.284" cy="716.26" r="4" fill="#0" id="circle49"/>
	<circle cx="279.436" cy="660.312" r="4" fill="#0" id="circle50"/>
	<circle cx="283.74" cy="623.731" r="4" fill="#0" id="circle51"/>
	<circle cx="292.347" cy="16.9111" r="4" fill="#0" id="circle52"/>
	<circle cx="298.803" cy="716.26" r="4" fill="#0" id="circle53"/>
	<circle cx="307.41" cy="34.1258" r="4" fill="#0" id="circle54"/>
	<circle cx="318.169" cy="53.4924" r="4" fill="#0" id="circle55"/>
	<circle cx="318.169" cy="75.0108" r="4" fill="#0" id="circle56"/>
	<circle cx="318.169" cy="96.5293" r="4" fill="#0" id="circle57"/>
	<circle cx="318.169" cy="146.022" r="4" fill="#0" id="circle58"/>
	<circle cx="318.169" cy="167.54" r="4" fill="#0" id="circle59"/>
	<circle cx="318.169" cy="189.059" r="4" fill="#0" id="circle60"/>
	<circle cx="318.169" cy="705.501" r="4" fill="#0" id="circle61"/>
	<circle cx="326.777" cy="118.048" r="4" fill="#0" id="circle62"/>
	<circle cx="328.928" cy="208.425" r="4" fill="#0" id="circle63"/>
	<circle cx="337.536" cy="694.742" r="4" fill="#0" id="circle64"/>
	<circle cx="350.447" cy="208.425" r="4" fill="#0" id="circle65"/>
	<circle cx="359.054" cy="694.742" r="4" fill="#0" id="circle66"/>
	<circle cx="369.813" cy="197.666" r="4" fill="#0" id="circle67"/>
	<circle cx="380.573" cy="688.286" r="4" fill="#0" id="circle68"/>
	<circle cx="391.332" cy="193.362" r="4" fill="#0" id="circle69"/>
	<circle cx="402.091" cy="688.286" r="4" fill="#0" id="circle70"/>
	<circle cx="412.85" cy="186.907" r="4" fill="#0" id="circle71"/>
	<circle cx="423.61" cy="677.527" r="4" fill="#0" id="circle72"/>
	<circle cx="432.217" cy="176.148" r="4" fill="#0" id="circle73"/>
	<circle cx="445.128" cy="666.768" r="4" fill="#0" id="circle74"/>
	<circle cx="451.584" cy="165.388" r="4" fill="#0" id="circle75"/>
	<circle cx="466.646" cy="673.223" r="4" fill="#0" id="circle76"/>
	<circle cx="473.102" cy="165.388" r="4" fill="#0" id="circle77"/>
	<circle cx="488.165" cy="673.223" r="4" fill="#0" id="circle78"/>
	<circle cx="494.62" cy="154.629" r="4" fill="#0" id="circle79"/>
	<circle cx="509.683" cy="673.223" r="4" fill="#0" id="circle80"/>
	<circle cx="516.139" cy="154.629" r="4" fill="#0" id="circle81"/>
	<circle cx="520.443" cy="699.046" r="4" fill="#0" id="circle82"/>
	<circle cx="531.202" cy="673.223" r="4" fill="#0" id="circle83"/>
	<circle cx="531.202" cy="718.412" r="4" fill="#0" id="circle84"/>
	<circle cx="537.657" cy="154.629" r="4" fill="#0" id="circle85"/>
	<circle cx="541.961" cy="692.59" r="4" fill="#0" id="circle86"/>
	<circle cx="552.72" cy="727.02" r="4" fill="#0" id="circle87"/>
	<circle cx="559.176" cy="143.87" r="4" fill="#0" id="circle88"/>
	<circle cx="574.239" cy="727.02" r="4" fill="#0" id="circle89"/>
	<circle cx="580.694" cy="143.87" r="4" fill="#0" id="circle90"/>
	<circle cx="593.605" cy="737.779" r="4" fill="#0" id="circle91"/>
	<circle cx="602.213" cy="143.87" r="4" fill="#0" id="circle92"/>
	<circle cx="615.124" cy="737.779" r="4" fill="#0" id="circle93"/>
	<circle cx="621.579" cy="154.629" r="4" fill="#0" id="circle94"/>
	<circle cx="636.642" cy="737.779" r="4" fill="#0" id="circle95"/>
	<circle cx="643.098" cy="154.629" r="4" fill="#0" id="circle96"/>
	<circle cx="658.161" cy="737.779" r="4" fill="#0" id="circle97"/>
	<circle cx="664.616" cy="154.629" r="4" fill="#0" id="circle98"/>
	<circle cx="679.679" cy="733.475" r="4" fill="#0" id="circle99"/>
	<circle cx="683.983" cy="165.388" r="4" fill="#0" id="circle100"/>
	<circle cx="701.197" cy="727.02" r="4" fill="#0" id="circle101"/>
	<circle cx="705.501" cy="171.844" r="4" fill="#0" id="circle102"/>
	<circle cx="722.716" cy="727.02" r="4" fill="#0" id="circle103"/>
	<circle cx="727.02" cy="176.148" r="4" fill="#0" id="circle104"/>
	<circle cx="744.234" cy="727.02" r="4" fill="#0" id="circle105"/>
	<circle cx="746.386" cy="186.907" r="4" fill="#0" id="circle106"/>
	<circle cx="765.753" cy="722.716" r="4" fill="#0" id="circle107"/>
	<circle cx="767.905" cy="191.21" r="4" fill="#0" id="circle108"/>
	<circle cx="780.816" cy="208.425" r="4" fill="#0" id="circle109"/>
	<circle cx="787.271" cy="716.26" r="4" fill="#0" id="circle110"/>
	<circle cx="802.334" cy="214.881" r="4" fill="#0" id="circle111"/>
	<circle cx="808.79" cy="711.957" r="4" fill="#0" id="circle112"/>
	<circle cx="817.397" cy="232.095" r="4" fill="#0" id="circle113"/>
	<circle cx="830.308" cy="705.501" r="4" fill="#0" id="circle114"/>
	<circle cx="834.612" cy="247.158" r="4" fill="#0" id="circle115"/>
	<circle cx="851.826" cy="705.501" r="4" fill="#0" id="circle116"/>
	<circle cx="853.978" cy="257.918" r="4" fill="#0" id="circle117"/>
	<circle cx="864.738" cy="277.284" r="4" fill="#0" id="circle118"/>
	<circle cx="871.193" cy="716.26" r="4" fill="#0" id="circle119"/>
	<circle cx="884.104" cy="288.043" r="4" fill="#0" id="circle120"/>
	<circle cx="892.711" cy="716.26" r="4" fill="#0" id="circle121"/>
	<circle cx="894.863" cy="307.41" r="4" fill="#0" id="circle122"/>
	<circle cx="909.926" cy="324.625" r="4" fill="#0" id="circle123"/>
	<circle cx="912.078" cy="705.501" r="4" fill="#0" id="circle124"/>
	<circle cx="927.141" cy="339.688" r="4" fill="#0" id="circle125"/>
	<circle cx="931.445" cy="694.742" r="4" fill="#0" id="circle126"/>
	<circle cx="942.204" cy="356.902" r="4" fill="#0" id="circle127"/>
	<circle cx="942.204" cy="378.421" r="4" fill="#0" id="circle128"/>
	<circle cx="952.963" cy="397.787" r="4" fill="#0" id="circle129"/>
	<circle cx="952.963" cy="683.983" r="4" fill="#0" id="circle130"/>
	<circle cx="961.57" cy="419.306" r="4" fill="#0" id="circle131"/>
	<circle cx="963.722" cy="447.28" r="4" fill="#0" id="circle132"/>
	<circle cx="963.722" cy="554.872" r="4" fill="#0" id="circle133"/>
	<circle cx="968.026" cy="468.798" r="4" fill="#0" id="circle134"/>
	<circle cx="970.178" cy="668.92" r="4" fill="#0" id="circle135"/>
	<circle cx="974.482" cy="490.317" r="4" fill="#0" id="circle136"/>
	<circle cx="974.482" cy="511.835" r="4" fill="#0" id="circle137"/>
	<circle cx="974.482" cy="533.354" r="4" fill="#0" id="circle138"/>
	<circle cx="974.482" cy="574.239" r="4" fill="#0" id="circle139"/>
	<circle cx="985.241" cy="640.946" r="4" fill="#0" id="circle140"/>
	<circle cx="991.696" cy="587.15" r="4" fill="#0" id="circle141"/>
	<circle cx="996" cy="608.668" r="4" fill="#0" id="circle142"/>
	</g>
</svg>