<?xml version="1.0" encoding="UTF-8" standalone="no"?>
<!-- Created with CurveBenchmark -->
<svg
	xmlns:dc="http://purl.org/dc/elements/1.1/"
	xmlns:cc="http://creativecommons.org/ns#"
	xmlns:rdf="http://www.w3.org/1999/02/22-rdf-syntax-ns#"
	xmlns:svg="http://www.w3.org/2000/svg"
	xmlns="http://www.w3.org/2000/svg"
	xmlns:sodipodi="http://sodipodi.sourceforge.net/DTD/sodipodi-0.dtd"
	xmlns:inkscape="http://www.inkscape.org/namespaces/inkscape"
	width="1000"
	height="1000"
	id="svg2"
	version="1.1"
	sodipodi:docname="manifold/crust-classic02.png.txt">
<defs
	id="defs4" />
<metadata
	id="metadata7">
	<rdf:RDF>
		<cc:Work
			rdf:about="">
			<dc:format>image/svg+xml</dc:format>
			<dc:type
				rdf:resource="http://purl.org/dc/dcmitype/StillImage" />
			<dc:title></dc:title>
		</cc:Work>
	</rdf:RDF>
</metadata>
<g
	inkscape:label="Layer 1"
	inkscape:groupmode="layer"
	id="layer1">
	<path style="fill:none;stroke:red;stroke-width:1px;stroke-linecap:butt;stroke-linejoin:miter;stroke-opacity:1" d="M 156.192,93.8484 147.024,112.185 z" id="boundary" inkscape:connector-curvature="0" />
	<path style="fill:none;stroke:red;stroke-width:1px;stroke-linecap:butt;stroke-linejoin:miter;stroke-opacity:1" d="M 174.529,93.8484 192.865,93.8484 z" id="boundary" inkscape:connector-curvature="0" />
	<path style="fill:none;stroke:red;stroke-width:1px;stroke-linecap:butt;stroke-linejoin:miter;stroke-opacity:1" d="M 156.192,93.8484 174.529,93.8484 z" id="boundary" inkscape:connector-curvature="0" />
	<path style="fill:none;stroke:red;stroke-width:1px;stroke-linecap:butt;stroke-linejoin:miter;stroke-opacity:1" d="M 211.201,93.8484 192.865,93.8484 z" id="boundary" inkscape:connector-curvature="0" />
	<path style="fill:none;stroke:red;stroke-width:1px;stroke-linecap:butt;stroke-linejoin:miter;stroke-opacity:1" d="M 229.538,93.8484 211.201,93.8484 z" id="boundary" inkscape:connector-curvature="0" />
	<path style="fill:none;stroke:red;stroke-width:1px;stroke-linecap:butt;stroke-linejoin:miter;stroke-opacity:1" d="M 246.041,103.017 229.538,93.8484 z" id="boundary" inkscape:connector-curvature="0" />
	<path style="fill:none;stroke:red;stroke-width:1px;stroke-linecap:butt;stroke-linejoin:miter;stroke-opacity:1" d="M 246.041,103.017 262.543,93.8484 z" id="boundary" inkscape:connector-curvature="0" />
	<path style="fill:none;stroke:red;stroke-width:1px;stroke-linecap:butt;stroke-linejoin:miter;stroke-opacity:1" d="M 280.88,93.8484 262.543,93.8484 z" id="boundary" inkscape:connector-curvature="0" />
	<path style="fill:none;stroke:red;stroke-width:1px;stroke-linecap:butt;stroke-linejoin:miter;stroke-opacity:1" d="M 86.5139,145.19 73.6784,176.362 z" id="boundary" inkscape:connector-curvature="0" />
	<path style="fill:none;stroke:red;stroke-width:1px;stroke-linecap:butt;stroke-linejoin:miter;stroke-opacity:1" d="M 101.183,130.521 86.5139,145.19 z" id="boundary" inkscape:connector-curvature="0" />
	<path style="fill:none;stroke:red;stroke-width:1px;stroke-linecap:butt;stroke-linejoin:miter;stroke-opacity:1" d="M 101.183,130.521 117.686,139.689 z" id="boundary" inkscape:connector-curvature="0" />
	<path style="fill:none;stroke:red;stroke-width:1px;stroke-linecap:butt;stroke-linejoin:miter;stroke-opacity:1" d="M 42.5065,198.366 33.3383,216.702 z" id="boundary" inkscape:connector-curvature="0" />
	<path style="fill:none;stroke:red;stroke-width:1px;stroke-linecap:butt;stroke-linejoin:miter;stroke-opacity:1" d="M 33.3383,216.702 18.6691,231.372 z" id="boundary" inkscape:connector-curvature="0" />
	<path style="fill:none;stroke:red;stroke-width:1px;stroke-linecap:butt;stroke-linejoin:miter;stroke-opacity:1" d="M 57.1756,185.53 73.6784,176.362 z" id="boundary" inkscape:connector-curvature="0" />
	<path style="fill:none;stroke:red;stroke-width:1px;stroke-linecap:butt;stroke-linejoin:miter;stroke-opacity:1" d="M 57.1756,185.53 42.5065,198.366 z" id="boundary" inkscape:connector-curvature="0" />
	<path style="fill:none;stroke:red;stroke-width:1px;stroke-linecap:butt;stroke-linejoin:miter;stroke-opacity:1" d="M 132.355,126.854 117.686,139.689 z" id="boundary" inkscape:connector-curvature="0" />
	<path style="fill:none;stroke:red;stroke-width:1px;stroke-linecap:butt;stroke-linejoin:miter;stroke-opacity:1" d="M 147.024,112.185 132.355,126.854 z" id="boundary" inkscape:connector-curvature="0" />
	<path style="fill:none;stroke:red;stroke-width:1px;stroke-linecap:butt;stroke-linejoin:miter;stroke-opacity:1" d="M 280.88,93.8484 299.216,93.8484 z" id="boundary" inkscape:connector-curvature="0" />
	<path style="fill:none;stroke:red;stroke-width:1px;stroke-linecap:butt;stroke-linejoin:miter;stroke-opacity:1" d="M 403.734,29.671 389.065,44.3401 z" id="boundary" inkscape:connector-curvature="0" />
	<path style="fill:none;stroke:red;stroke-width:1px;stroke-linecap:butt;stroke-linejoin:miter;stroke-opacity:1" d="M 403.734,29.671 422.07,29.671 z" id="boundary" inkscape:connector-curvature="0" />
	<path style="fill:none;stroke:red;stroke-width:1px;stroke-linecap:butt;stroke-linejoin:miter;stroke-opacity:1" d="M 317.553,93.8484 299.216,93.8484 z" id="boundary" inkscape:connector-curvature="0" />
	<path style="fill:none;stroke:red;stroke-width:1px;stroke-linecap:butt;stroke-linejoin:miter;stroke-opacity:1" d="M 389.065,44.3401 383.564,77.3457 z" id="boundary" inkscape:connector-curvature="0" />
	<path style="fill:none;stroke:red;stroke-width:1px;stroke-linecap:butt;stroke-linejoin:miter;stroke-opacity:1" d="M 383.564,77.3457 372.562,93.8484 z" id="boundary" inkscape:connector-curvature="0" />
	<path style="fill:none;stroke:red;stroke-width:1px;stroke-linecap:butt;stroke-linejoin:miter;stroke-opacity:1" d="M 440.407,20.5028 422.07,29.671 z" id="boundary" inkscape:connector-curvature="0" />
	<path style="fill:none;stroke:red;stroke-width:1px;stroke-linecap:butt;stroke-linejoin:miter;stroke-opacity:1" d="M 530.255,11.3346 511.919,11.3346 z" id="boundary" inkscape:connector-curvature="0" />
	<path style="fill:none;stroke:red;stroke-width:1px;stroke-linecap:butt;stroke-linejoin:miter;stroke-opacity:1" d="M 458.743,20.5028 440.407,20.5028 z" id="boundary" inkscape:connector-curvature="0" />
	<path style="fill:none;stroke:red;stroke-width:1px;stroke-linecap:butt;stroke-linejoin:miter;stroke-opacity:1" d="M 511.919,11.3346 495.416,20.5028 z" id="boundary" inkscape:connector-curvature="0" />
	<path style="fill:none;stroke:red;stroke-width:1px;stroke-linecap:butt;stroke-linejoin:miter;stroke-opacity:1" d="M 458.743,20.5028 477.079,20.5028 z" id="boundary" inkscape:connector-curvature="0" />
	<path style="fill:none;stroke:red;stroke-width:1px;stroke-linecap:butt;stroke-linejoin:miter;stroke-opacity:1" d="M 495.416,20.5028 477.079,20.5028 z" id="boundary" inkscape:connector-curvature="0" />
	<path style="fill:none;stroke:red;stroke-width:1px;stroke-linecap:butt;stroke-linejoin:miter;stroke-opacity:1" d="M 317.553,93.8484 335.889,93.8484 z" id="boundary" inkscape:connector-curvature="0" />
	<path style="fill:none;stroke:red;stroke-width:1px;stroke-linecap:butt;stroke-linejoin:miter;stroke-opacity:1" d="M 354.226,93.8484 335.889,93.8484 z" id="boundary" inkscape:connector-curvature="0" />
	<path style="fill:none;stroke:red;stroke-width:1px;stroke-linecap:butt;stroke-linejoin:miter;stroke-opacity:1" d="M 372.562,93.8484 354.226,93.8484 z" id="boundary" inkscape:connector-curvature="0" />
	<path style="fill:none;stroke:red;stroke-width:1px;stroke-linecap:butt;stroke-linejoin:miter;stroke-opacity:1" d="M 4,246.041 18.6691,231.372 z" id="boundary" inkscape:connector-curvature="0" />
	<path style="fill:none;stroke:red;stroke-width:1px;stroke-linecap:butt;stroke-linejoin:miter;stroke-opacity:1" d="M 35.1719,240.54 18.6691,231.372 z" id="boundary" inkscape:connector-curvature="0" />
	<path style="fill:none;stroke:red;stroke-width:1px;stroke-linecap:butt;stroke-linejoin:miter;stroke-opacity:1" d="M 13.1682,262.543 4,246.041 z" id="boundary" inkscape:connector-curvature="0" />
	<path style="fill:none;stroke:red;stroke-width:1px;stroke-linecap:butt;stroke-linejoin:miter;stroke-opacity:1" d="M 35.1719,240.54 31.5046,269.878 z" id="boundary" inkscape:connector-curvature="0" />
	<path style="fill:none;stroke:red;stroke-width:1px;stroke-linecap:butt;stroke-linejoin:miter;stroke-opacity:1" d="M 40.6728,286.381 31.5046,269.878 z" id="boundary" inkscape:connector-curvature="0" />
	<path style="fill:none;stroke:red;stroke-width:1px;stroke-linecap:butt;stroke-linejoin:miter;stroke-opacity:1" d="M 31.5046,269.878 13.1682,262.543 z" id="boundary" inkscape:connector-curvature="0" />
	<path style="fill:none;stroke:red;stroke-width:1px;stroke-linecap:butt;stroke-linejoin:miter;stroke-opacity:1" d="M 44.3401,304.717 40.6728,286.381 z" id="boundary" inkscape:connector-curvature="0" />
	<path style="fill:none;stroke:red;stroke-width:1px;stroke-linecap:butt;stroke-linejoin:miter;stroke-opacity:1" d="M 44.3401,304.717 53.5083,321.22 z" id="boundary" inkscape:connector-curvature="0" />
	<path style="fill:none;stroke:red;stroke-width:1px;stroke-linecap:butt;stroke-linejoin:miter;stroke-opacity:1" d="M 53.5083,321.22 68.1774,334.055 z" id="boundary" inkscape:connector-curvature="0" />
	<path style="fill:none;stroke:red;stroke-width:1px;stroke-linecap:butt;stroke-linejoin:miter;stroke-opacity:1" d="M 84.6802,343.224 103.017,343.224 z" id="boundary" inkscape:connector-curvature="0" />
	<path style="fill:none;stroke:red;stroke-width:1px;stroke-linecap:butt;stroke-linejoin:miter;stroke-opacity:1" d="M 84.6802,343.224 68.1774,334.055 z" id="boundary" inkscape:connector-curvature="0" />
	<path style="fill:none;stroke:red;stroke-width:1px;stroke-linecap:butt;stroke-linejoin:miter;stroke-opacity:1" d="M 103.017,343.224 119.519,352.392 z" id="boundary" inkscape:connector-curvature="0" />
	<path style="fill:none;stroke:red;stroke-width:1px;stroke-linecap:butt;stroke-linejoin:miter;stroke-opacity:1" d="M 154.359,343.224 136.022,343.224 z" id="boundary" inkscape:connector-curvature="0" />
	<path style="fill:none;stroke:red;stroke-width:1px;stroke-linecap:butt;stroke-linejoin:miter;stroke-opacity:1" d="M 136.022,343.224 119.519,352.392 z" id="boundary" inkscape:connector-curvature="0" />
	<path style="fill:none;stroke:red;stroke-width:1px;stroke-linecap:butt;stroke-linejoin:miter;stroke-opacity:1" d="M 169.028,328.555 183.697,315.719 z" id="boundary" inkscape:connector-curvature="0" />
	<path style="fill:none;stroke:red;stroke-width:1px;stroke-linecap:butt;stroke-linejoin:miter;stroke-opacity:1" d="M 183.697,315.719 198.366,328.555 z" id="boundary" inkscape:connector-curvature="0" />
	<path style="fill:none;stroke:red;stroke-width:1px;stroke-linecap:butt;stroke-linejoin:miter;stroke-opacity:1" d="M 169.028,328.555 154.359,343.224 z" id="boundary" inkscape:connector-curvature="0" />
	<path style="fill:none;stroke:red;stroke-width:1px;stroke-linecap:butt;stroke-linejoin:miter;stroke-opacity:1" d="M 352.392,306.551 341.39,321.22 z" id="boundary" inkscape:connector-curvature="0" />
	<path style="fill:none;stroke:red;stroke-width:1px;stroke-linecap:butt;stroke-linejoin:miter;stroke-opacity:1" d="M 341.39,321.22 326.721,334.055 z" id="boundary" inkscape:connector-curvature="0" />
	<path style="fill:none;stroke:red;stroke-width:1px;stroke-linecap:butt;stroke-linejoin:miter;stroke-opacity:1" d="M 352.392,306.551 370.728,306.551 z" id="boundary" inkscape:connector-curvature="0" />
	<path style="fill:none;stroke:red;stroke-width:1px;stroke-linecap:butt;stroke-linejoin:miter;stroke-opacity:1" d="M 407.401,306.551 389.065,306.551 z" id="boundary" inkscape:connector-curvature="0" />
	<path style="fill:none;stroke:red;stroke-width:1px;stroke-linecap:butt;stroke-linejoin:miter;stroke-opacity:1" d="M 425.738,306.551 407.401,306.551 z" id="boundary" inkscape:connector-curvature="0" />
	<path style="fill:none;stroke:red;stroke-width:1px;stroke-linecap:butt;stroke-linejoin:miter;stroke-opacity:1" d="M 389.065,306.551 370.728,306.551 z" id="boundary" inkscape:connector-curvature="0" />
	<path style="fill:none;stroke:red;stroke-width:1px;stroke-linecap:butt;stroke-linejoin:miter;stroke-opacity:1" d="M 444.074,306.551 425.738,306.551 z" id="boundary" inkscape:connector-curvature="0" />
	<path style="fill:none;stroke:red;stroke-width:1px;stroke-linecap:butt;stroke-linejoin:miter;stroke-opacity:1" d="M 444.074,306.551 462.41,306.551 z" id="boundary" inkscape:connector-curvature="0" />
	<path style="fill:none;stroke:red;stroke-width:1px;stroke-linecap:butt;stroke-linejoin:miter;stroke-opacity:1" d="M 480.747,306.551 462.41,306.551 z" id="boundary" inkscape:connector-curvature="0" />
	<path style="fill:none;stroke:red;stroke-width:1px;stroke-linecap:butt;stroke-linejoin:miter;stroke-opacity:1" d="M 499.083,306.551 480.747,306.551 z" id="boundary" inkscape:connector-curvature="0" />
	<path style="fill:none;stroke:red;stroke-width:1px;stroke-linecap:butt;stroke-linejoin:miter;stroke-opacity:1" d="M 515.586,297.383 499.083,306.551 z" id="boundary" inkscape:connector-curvature="0" />
	<path style="fill:none;stroke:red;stroke-width:1px;stroke-linecap:butt;stroke-linejoin:miter;stroke-opacity:1" d="M 205.701,346.891 224.037,352.392 z" id="boundary" inkscape:connector-curvature="0" />
	<path style="fill:none;stroke:red;stroke-width:1px;stroke-linecap:butt;stroke-linejoin:miter;stroke-opacity:1" d="M 198.366,328.555 205.701,346.891 z" id="boundary" inkscape:connector-curvature="0" />
	<path style="fill:none;stroke:red;stroke-width:1px;stroke-linecap:butt;stroke-linejoin:miter;stroke-opacity:1" d="M 295.549,357.893 277.213,361.56 z" id="boundary" inkscape:connector-curvature="0" />
	<path style="fill:none;stroke:red;stroke-width:1px;stroke-linecap:butt;stroke-linejoin:miter;stroke-opacity:1" d="M 326.721,334.055 313.885,348.725 z" id="boundary" inkscape:connector-curvature="0" />
	<path style="fill:none;stroke:red;stroke-width:1px;stroke-linecap:butt;stroke-linejoin:miter;stroke-opacity:1" d="M 313.885,348.725 295.549,357.893 z" id="boundary" inkscape:connector-curvature="0" />
	<path style="fill:none;stroke:red;stroke-width:1px;stroke-linecap:butt;stroke-linejoin:miter;stroke-opacity:1" d="M 224.037,352.392 240.54,361.56 z" id="boundary" inkscape:connector-curvature="0" />
	<path style="fill:none;stroke:red;stroke-width:1px;stroke-linecap:butt;stroke-linejoin:miter;stroke-opacity:1" d="M 240.54,361.56 258.876,361.56 z" id="boundary" inkscape:connector-curvature="0" />
	<path style="fill:none;stroke:red;stroke-width:1px;stroke-linecap:butt;stroke-linejoin:miter;stroke-opacity:1" d="M 258.876,361.56 277.213,361.56 z" id="boundary" inkscape:connector-curvature="0" />
	<path style="fill:none;stroke:red;stroke-width:1px;stroke-linecap:butt;stroke-linejoin:miter;stroke-opacity:1" d="M 640.274,4 621.937,4 z" id="boundary" inkscape:connector-curvature="0" />
	<path style="fill:none;stroke:red;stroke-width:1px;stroke-linecap:butt;stroke-linejoin:miter;stroke-opacity:1" d="M 530.255,11.3346 548.591,11.3346 z" id="boundary" inkscape:connector-curvature="0" />
	<path style="fill:none;stroke:red;stroke-width:1px;stroke-linecap:butt;stroke-linejoin:miter;stroke-opacity:1" d="M 566.928,11.3346 548.591,11.3346 z" id="boundary" inkscape:connector-curvature="0" />
	<path style="fill:none;stroke:red;stroke-width:1px;stroke-linecap:butt;stroke-linejoin:miter;stroke-opacity:1" d="M 603.601,11.3346 585.264,11.3346 z" id="boundary" inkscape:connector-curvature="0" />
	<path style="fill:none;stroke:red;stroke-width:1px;stroke-linecap:butt;stroke-linejoin:miter;stroke-opacity:1" d="M 585.264,11.3346 566.928,11.3346 z" id="boundary" inkscape:connector-curvature="0" />
	<path style="fill:none;stroke:red;stroke-width:1px;stroke-linecap:butt;stroke-linejoin:miter;stroke-opacity:1" d="M 603.601,11.3346 621.937,4 z" id="boundary" inkscape:connector-curvature="0" />
	<path style="fill:none;stroke:red;stroke-width:1px;stroke-linecap:butt;stroke-linejoin:miter;stroke-opacity:1" d="M 640.274,4 658.61,4 z" id="boundary" inkscape:connector-curvature="0" />
	<path style="fill:none;stroke:red;stroke-width:1px;stroke-linecap:butt;stroke-linejoin:miter;stroke-opacity:1" d="M 676.946,4 658.61,4 z" id="boundary" inkscape:connector-curvature="0" />
	<path style="fill:none;stroke:red;stroke-width:1px;stroke-linecap:butt;stroke-linejoin:miter;stroke-opacity:1" d="M 695.283,4 676.946,4 z" id="boundary" inkscape:connector-curvature="0" />
	<path style="fill:none;stroke:red;stroke-width:1px;stroke-linecap:butt;stroke-linejoin:miter;stroke-opacity:1" d="M 695.283,4 713.619,4 z" id="boundary" inkscape:connector-curvature="0" />
	<path style="fill:none;stroke:red;stroke-width:1px;stroke-linecap:butt;stroke-linejoin:miter;stroke-opacity:1" d="M 731.956,4 713.619,4 z" id="boundary" inkscape:connector-curvature="0" />
	<path style="fill:none;stroke:red;stroke-width:1px;stroke-linecap:butt;stroke-linejoin:miter;stroke-opacity:1" d="M 750.292,11.3346 768.628,11.3346 z" id="boundary" inkscape:connector-curvature="0" />
	<path style="fill:none;stroke:red;stroke-width:1px;stroke-linecap:butt;stroke-linejoin:miter;stroke-opacity:1" d="M 750.292,11.3346 731.956,4 z" id="boundary" inkscape:connector-curvature="0" />
	<path style="fill:none;stroke:red;stroke-width:1px;stroke-linecap:butt;stroke-linejoin:miter;stroke-opacity:1" d="M 768.628,11.3346 786.965,11.3346 z" id="boundary" inkscape:connector-curvature="0" />
	<path style="fill:none;stroke:red;stroke-width:1px;stroke-linecap:butt;stroke-linejoin:miter;stroke-opacity:1" d="M 786.965,11.3346 803.468,20.5028 z" id="boundary" inkscape:connector-curvature="0" />
	<path style="fill:none;stroke:red;stroke-width:1px;stroke-linecap:butt;stroke-linejoin:miter;stroke-opacity:1" d="M 821.804,20.5028 803.468,20.5028 z" id="boundary" inkscape:connector-curvature="0" />
	<path style="fill:none;stroke:red;stroke-width:1px;stroke-linecap:butt;stroke-linejoin:miter;stroke-opacity:1" d="M 821.804,20.5028 840.14,26.0037 z" id="boundary" inkscape:connector-curvature="0" />
	<path style="fill:none;stroke:red;stroke-width:1px;stroke-linecap:butt;stroke-linejoin:miter;stroke-opacity:1" d="M 856.643,35.1719 840.14,26.0037 z" id="boundary" inkscape:connector-curvature="0" />
	<path style="fill:none;stroke:red;stroke-width:1px;stroke-linecap:butt;stroke-linejoin:miter;stroke-opacity:1" d="M 856.643,35.1719 871.312,48.0074 z" id="boundary" inkscape:connector-curvature="0" />
	<path style="fill:none;stroke:red;stroke-width:1px;stroke-linecap:butt;stroke-linejoin:miter;stroke-opacity:1" d="M 876.813,66.3438 885.982,82.8466 z" id="boundary" inkscape:connector-curvature="0" />
	<path style="fill:none;stroke:red;stroke-width:1px;stroke-linecap:butt;stroke-linejoin:miter;stroke-opacity:1" d="M 876.813,66.3438 871.312,48.0074 z" id="boundary" inkscape:connector-curvature="0" />
	<path style="fill:none;stroke:red;stroke-width:1px;stroke-linecap:butt;stroke-linejoin:miter;stroke-opacity:1" d="M 885.982,104.85 885.982,82.8466 z" id="boundary" inkscape:connector-curvature="0" />
	<path style="fill:none;stroke:red;stroke-width:1px;stroke-linecap:butt;stroke-linejoin:miter;stroke-opacity:1" d="M 885.982,104.85 885.982,123.187 z" id="boundary" inkscape:connector-curvature="0" />
	<path style="fill:none;stroke:red;stroke-width:1px;stroke-linecap:butt;stroke-linejoin:miter;stroke-opacity:1" d="M 885.982,123.187 904.318,125.02 z" id="boundary" inkscape:connector-curvature="0" />
	<path style="fill:none;stroke:red;stroke-width:1px;stroke-linecap:butt;stroke-linejoin:miter;stroke-opacity:1" d="M 922.654,130.521 940.991,126.854 z" id="boundary" inkscape:connector-curvature="0" />
	<path style="fill:none;stroke:red;stroke-width:1px;stroke-linecap:butt;stroke-linejoin:miter;stroke-opacity:1" d="M 922.654,130.521 904.318,125.02 z" id="boundary" inkscape:connector-curvature="0" />
	<path style="fill:none;stroke:red;stroke-width:1px;stroke-linecap:butt;stroke-linejoin:miter;stroke-opacity:1" d="M 940.991,126.854 948.325,145.19 z" id="boundary" inkscape:connector-curvature="0" />
	<path style="fill:none;stroke:red;stroke-width:1px;stroke-linecap:butt;stroke-linejoin:miter;stroke-opacity:1" d="M 950.159,163.527 950.159,181.863 z" id="boundary" inkscape:connector-curvature="0" />
	<path style="fill:none;stroke:red;stroke-width:1px;stroke-linecap:butt;stroke-linejoin:miter;stroke-opacity:1" d="M 948.325,145.19 950.159,163.527 z" id="boundary" inkscape:connector-curvature="0" />
	<path style="fill:none;stroke:red;stroke-width:1px;stroke-linecap:butt;stroke-linejoin:miter;stroke-opacity:1" d="M 968.495,214.869 962.994,196.532 z" id="boundary" inkscape:connector-curvature="0" />
	<path style="fill:none;stroke:red;stroke-width:1px;stroke-linecap:butt;stroke-linejoin:miter;stroke-opacity:1" d="M 962.994,196.532 950.159,181.863 z" id="boundary" inkscape:connector-curvature="0" />
	<path style="fill:none;stroke:red;stroke-width:1px;stroke-linecap:butt;stroke-linejoin:miter;stroke-opacity:1" d="M 532.089,306.551 515.586,297.383 z" id="boundary" inkscape:connector-curvature="0" />
	<path style="fill:none;stroke:red;stroke-width:1px;stroke-linecap:butt;stroke-linejoin:miter;stroke-opacity:1" d="M 550.425,304.717 568.762,304.717 z" id="boundary" inkscape:connector-curvature="0" />
	<path style="fill:none;stroke:red;stroke-width:1px;stroke-linecap:butt;stroke-linejoin:miter;stroke-opacity:1" d="M 587.098,304.717 568.762,304.717 z" id="boundary" inkscape:connector-curvature="0" />
	<path style="fill:none;stroke:red;stroke-width:1px;stroke-linecap:butt;stroke-linejoin:miter;stroke-opacity:1" d="M 550.425,304.717 532.089,306.551 z" id="boundary" inkscape:connector-curvature="0" />
	<path style="fill:none;stroke:red;stroke-width:1px;stroke-linecap:butt;stroke-linejoin:miter;stroke-opacity:1" d="M 609.102,323.054 605.434,304.717 z" id="boundary" inkscape:connector-curvature="0" />
	<path style="fill:none;stroke:red;stroke-width:1px;stroke-linecap:butt;stroke-linejoin:miter;stroke-opacity:1" d="M 623.771,334.055 609.102,323.054 z" id="boundary" inkscape:connector-curvature="0" />
	<path style="fill:none;stroke:red;stroke-width:1px;stroke-linecap:butt;stroke-linejoin:miter;stroke-opacity:1" d="M 587.098,304.717 605.434,304.717 z" id="boundary" inkscape:connector-curvature="0" />
	<path style="fill:none;stroke:red;stroke-width:1px;stroke-linecap:butt;stroke-linejoin:miter;stroke-opacity:1" d="M 737.457,306.551 726.455,321.22 z" id="boundary" inkscape:connector-curvature="0" />
	<path style="fill:none;stroke:red;stroke-width:1px;stroke-linecap:butt;stroke-linejoin:miter;stroke-opacity:1" d="M 737.457,306.551 753.959,315.719 z" id="boundary" inkscape:connector-curvature="0" />
	<path style="fill:none;stroke:red;stroke-width:1px;stroke-linecap:butt;stroke-linejoin:miter;stroke-opacity:1" d="M 726.455,321.22 711.786,334.055 z" id="boundary" inkscape:connector-curvature="0" />
	<path style="fill:none;stroke:red;stroke-width:1px;stroke-linecap:butt;stroke-linejoin:miter;stroke-opacity:1" d="M 640.274,343.224 623.771,334.055 z" id="boundary" inkscape:connector-curvature="0" />
	<path style="fill:none;stroke:red;stroke-width:1px;stroke-linecap:butt;stroke-linejoin:miter;stroke-opacity:1" d="M 658.61,343.224 640.274,343.224 z" id="boundary" inkscape:connector-curvature="0" />
	<path style="fill:none;stroke:red;stroke-width:1px;stroke-linecap:butt;stroke-linejoin:miter;stroke-opacity:1" d="M 695.283,343.224 676.946,343.224 z" id="boundary" inkscape:connector-curvature="0" />
	<path style="fill:none;stroke:red;stroke-width:1px;stroke-linecap:butt;stroke-linejoin:miter;stroke-opacity:1" d="M 676.946,343.224 658.61,343.224 z" id="boundary" inkscape:connector-curvature="0" />
	<path style="fill:none;stroke:red;stroke-width:1px;stroke-linecap:butt;stroke-linejoin:miter;stroke-opacity:1" d="M 695.283,343.224 711.786,334.055 z" id="boundary" inkscape:connector-curvature="0" />
	<path style="fill:none;stroke:red;stroke-width:1px;stroke-linecap:butt;stroke-linejoin:miter;stroke-opacity:1" d="M 753.959,315.719 761.294,334.055 z" id="boundary" inkscape:connector-curvature="0" />
	<path style="fill:none;stroke:red;stroke-width:1px;stroke-linecap:butt;stroke-linejoin:miter;stroke-opacity:1" d="M 761.294,334.055 775.963,346.891 z" id="boundary" inkscape:connector-curvature="0" />
	<path style="fill:none;stroke:red;stroke-width:1px;stroke-linecap:butt;stroke-linejoin:miter;stroke-opacity:1" d="M 929.989,288.214 911.652,288.214 z" id="boundary" inkscape:connector-curvature="0" />
	<path style="fill:none;stroke:red;stroke-width:1px;stroke-linecap:butt;stroke-linejoin:miter;stroke-opacity:1" d="M 948.325,288.214 929.989,288.214 z" id="boundary" inkscape:connector-curvature="0" />
	<path style="fill:none;stroke:red;stroke-width:1px;stroke-linecap:butt;stroke-linejoin:miter;stroke-opacity:1" d="M 911.652,288.214 895.15,297.383 z" id="boundary" inkscape:connector-curvature="0" />
	<path style="fill:none;stroke:red;stroke-width:1px;stroke-linecap:butt;stroke-linejoin:miter;stroke-opacity:1" d="M 968.495,251.542 986.832,255.209 z" id="boundary" inkscape:connector-curvature="0" />
	<path style="fill:none;stroke:red;stroke-width:1px;stroke-linecap:butt;stroke-linejoin:miter;stroke-opacity:1" d="M 968.495,251.542 968.495,233.205 z" id="boundary" inkscape:connector-curvature="0" />
	<path style="fill:none;stroke:red;stroke-width:1px;stroke-linecap:butt;stroke-linejoin:miter;stroke-opacity:1" d="M 996,271.712 986.832,255.209 z" id="boundary" inkscape:connector-curvature="0" />
	<path style="fill:none;stroke:red;stroke-width:1px;stroke-linecap:butt;stroke-linejoin:miter;stroke-opacity:1" d="M 968.495,214.869 968.495,233.205 z" id="boundary" inkscape:connector-curvature="0" />
	<path style="fill:none;stroke:red;stroke-width:1px;stroke-linecap:butt;stroke-linejoin:miter;stroke-opacity:1" d="M 964.828,297.383 948.325,288.214 z" id="boundary" inkscape:connector-curvature="0" />
	<path style="fill:none;stroke:red;stroke-width:1px;stroke-linecap:butt;stroke-linejoin:miter;stroke-opacity:1" d="M 996,271.712 981.331,288.214 z" id="boundary" inkscape:connector-curvature="0" />
	<path style="fill:none;stroke:red;stroke-width:1px;stroke-linecap:butt;stroke-linejoin:miter;stroke-opacity:1" d="M 981.331,288.214 964.828,297.383 z" id="boundary" inkscape:connector-curvature="0" />
	<path style="fill:none;stroke:red;stroke-width:1px;stroke-linecap:butt;stroke-linejoin:miter;stroke-opacity:1" d="M 876.813,334.055 862.144,350.558 z" id="boundary" inkscape:connector-curvature="0" />
	<path style="fill:none;stroke:red;stroke-width:1px;stroke-linecap:butt;stroke-linejoin:miter;stroke-opacity:1" d="M 810.802,361.56 792.466,356.059 z" id="boundary" inkscape:connector-curvature="0" />
	<path style="fill:none;stroke:red;stroke-width:1px;stroke-linecap:butt;stroke-linejoin:miter;stroke-opacity:1" d="M 792.466,356.059 775.963,346.891 z" id="boundary" inkscape:connector-curvature="0" />
	<path style="fill:none;stroke:red;stroke-width:1px;stroke-linecap:butt;stroke-linejoin:miter;stroke-opacity:1" d="M 810.802,361.56 829.139,361.56 z" id="boundary" inkscape:connector-curvature="0" />
	<path style="fill:none;stroke:red;stroke-width:1px;stroke-linecap:butt;stroke-linejoin:miter;stroke-opacity:1" d="M 847.475,361.56 829.139,361.56 z" id="boundary" inkscape:connector-curvature="0" />
	<path style="fill:none;stroke:red;stroke-width:1px;stroke-linecap:butt;stroke-linejoin:miter;stroke-opacity:1" d="M 847.475,361.56 862.144,350.558 z" id="boundary" inkscape:connector-curvature="0" />
	<path style="fill:none;stroke:red;stroke-width:1px;stroke-linecap:butt;stroke-linejoin:miter;stroke-opacity:1" d="M 895.15,297.383 891.482,321.22 z" id="boundary" inkscape:connector-curvature="0" />
	<path style="fill:none;stroke:red;stroke-width:1px;stroke-linecap:butt;stroke-linejoin:miter;stroke-opacity:1" d="M 891.482,321.22 876.813,334.055 z" id="boundary" inkscape:connector-curvature="0" />
	<circle cx="4" cy="246.041" r="4" fill="#0" id="circle0"/>
	<circle cx="13.1682" cy="262.543" r="4" fill="#0" id="circle1"/>
	<circle cx="18.6691" cy="231.372" r="4" fill="#0" id="circle2"/>
	<circle cx="31.5046" cy="269.878" r="4" fill="#0" id="circle3"/>
	<circle cx="33.3383" cy="216.702" r="4" fill="#0" id="circle4"/>
	<circle cx="35.1719" cy="240.54" r="4" fill="#0" id="circle5"/>
	<circle cx="40.6728" cy="286.381" r="4" fill="#0" id="circle6"/>
	<circle cx="42.5065" cy="198.366" r="4" fill="#0" id="circle7"/>
	<circle cx="44.3401" cy="304.717" r="4" fill="#0" id="circle8"/>
	<circle cx="53.5083" cy="321.22" r="4" fill="#0" id="circle9"/>
	<circle cx="57.1756" cy="185.53" r="4" fill="#0" id="circle10"/>
	<circle cx="68.1774" cy="334.055" r="4" fill="#0" id="circle11"/>
	<circle cx="73.6784" cy="176.362" r="4" fill="#0" id="circle12"/>
	<circle cx="84.6802" cy="343.224" r="4" fill="#0" id="circle13"/>
	<circle cx="86.5139" cy="145.19" r="4" fill="#0" id="circle14"/>
	<circle cx="101.183" cy="130.521" r="4" fill="#0" id="circle15"/>
	<circle cx="103.017" cy="343.224" r="4" fill="#0" id="circle16"/>
	<circle cx="117.686" cy="139.689" r="4" fill="#0" id="circle17"/>
	<circle cx="119.519" cy="352.392" r="4" fill="#0" id="circle18"/>
	<circle cx="132.355" cy="126.854" r="4" fill="#0" id="circle19"/>
	<circle cx="136.022" cy="343.224" r="4" fill="#0" id="circle20"/>
	<circle cx="147.024" cy="112.185" r="4" fill="#0" id="circle21"/>
	<circle cx="154.359" cy="343.224" r="4" fill="#0" id="circle22"/>
	<circle cx="156.192" cy="93.8484" r="4" fill="#0" id="circle23"/>
	<circle cx="169.028" cy="328.555" r="4" fill="#0" id="circle24"/>
	<circle cx="174.529" cy="93.8484" r="4" fill="#0" id="circle25"/>
	<circle cx="183.697" cy="315.719" r="4" fill="#0" id="circle26"/>
	<circle cx="192.865" cy="93.8484" r="4" fill="#0" id="circle27"/>
	<circle cx="198.366" cy="328.555" r="4" fill="#0" id="circle28"/>
	<circle cx="205.701" cy="346.891" r="4" fill="#0" id="circle29"/>
	<circle cx="211.201" cy="93.8484" r="4" fill="#0" id="circle30"/>
	<circle cx="224.037" cy="352.392" r="4" fill="#0" id="circle31"/>
	<circle cx="229.538" cy="93.8484" r="4" fill="#0" id="circle32"/>
	<circle cx="240.54" cy="361.56" r="4" fill="#0" id="circle33"/>
	<circle cx="246.041" cy="103.017" r="4" fill="#0" id="circle34"/>
	<circle cx="258.876" cy="361.56" r="4" fill="#0" id="circle35"/>
	<circle cx="262.543" cy="93.8484" r="4" fill="#0" id="circle36"/>
	<circle cx="277.213" cy="361.56" r="4" fill="#0" id="circle37"/>
	<circle cx="280.88" cy="93.8484" r="4" fill="#0" id="circle38"/>
	<circle cx="295.549" cy="357.893" r="4" fill="#0" id="circle39"/>
	<circle cx="299.216" cy="93.8484" r="4" fill="#0" id="circle40"/>
	<circle cx="313.885" cy="348.725" r="4" fill="#0" id="circle41"/>
	<circle cx="317.553" cy="93.8484" r="4" fill="#0" id="circle42"/>
	<circle cx="326.721" cy="334.055" r="4" fill="#0" id="circle43"/>
	<circle cx="335.889" cy="93.8484" r="4" fill="#0" id="circle44"/>
	<circle cx="341.39" cy="321.22" r="4" fill="#0" id="circle45"/>
	<circle cx="352.392" cy="306.551" r="4" fill="#0" id="circle46"/>
	<circle cx="354.226" cy="93.8484" r="4" fill="#0" id="circle47"/>
	<circle cx="370.728" cy="306.551" r="4" fill="#0" id="circle48"/>
	<circle cx="372.562" cy="93.8484" r="4" fill="#0" id="circle49"/>
	<circle cx="383.564" cy="77.3457" r="4" fill="#0" id="circle50"/>
	<circle cx="389.065" cy="44.3401" r="4" fill="#0" id="circle51"/>
	<circle cx="389.065" cy="306.551" r="4" fill="#0" id="circle52"/>
	<circle cx="403.734" cy="29.671" r="4" fill="#0" id="circle53"/>
	<circle cx="407.401" cy="306.551" r="4" fill="#0" id="circle54"/>
	<circle cx="422.07" cy="29.671" r="4" fill="#0" id="circle55"/>
	<circle cx="425.738" cy="306.551" r="4" fill="#0" id="circle56"/>
	<circle cx="440.407" cy="20.5028" r="4" fill="#0" id="circle57"/>
	<circle cx="444.074" cy="306.551" r="4" fill="#0" id="circle58"/>
	<circle cx="458.743" cy="20.5028" r="4" fill="#0" id="circle59"/>
	<circle cx="462.41" cy="306.551" r="4" fill="#0" id="circle60"/>
	<circle cx="477.079" cy="20.5028" r="4" fill="#0" id="circle61"/>
	<circle cx="480.747" cy="306.551" r="4" fill="#0" id="circle62"/>
	<circle cx="495.416" cy="20.5028" r="4" fill="#0" id="circle63"/>
	<circle cx="499.083" cy="306.551" r="4" fill="#0" id="circle64"/>
	<circle cx="511.919" cy="11.3346" r="4" fill="#0" id="circle65"/>
	<circle cx="515.586" cy="297.383" r="4" fill="#0" id="circle66"/>
	<circle cx="530.255" cy="11.3346" r="4" fill="#0" id="circle67"/>
	<circle cx="532.089" cy="306.551" r="4" fill="#0" id="circle68"/>
	<circle cx="548.591" cy="11.3346" r="4" fill="#0" id="circle69"/>
	<circle cx="550.425" cy="304.717" r="4" fill="#0" id="circle70"/>
	<circle cx="566.928" cy="11.3346" r="4" fill="#0" id="circle71"/>
	<circle cx="568.762" cy="304.717" r="4" fill="#0" id="circle72"/>
	<circle cx="585.264" cy="11.3346" r="4" fill="#0" id="circle73"/>
	<circle cx="587.098" cy="304.717" r="4" fill="#0" id="circle74"/>
	<circle cx="603.601" cy="11.3346" r="4" fill="#0" id="circle75"/>
	<circle cx="605.434" cy="304.717" r="4" fill="#0" id="circle76"/>
	<circle cx="609.102" cy="323.054" r="4" fill="#0" id="circle77"/>
	<circle cx="621.937" cy="4" r="4" fill="#0" id="circle78"/>
	<circle cx="623.771" cy="334.055" r="4" fill="#0" id="circle79"/>
	<circle cx="640.274" cy="4" r="4" fill="#0" id="circle80"/>
	<circle cx="640.274" cy="343.224" r="4" fill="#0" id="circle81"/>
	<circle cx="658.61" cy="4" r="4" fill="#0" id="circle82"/>
	<circle cx="658.61" cy="343.224" r="4" fill="#0" id="circle83"/>
	<circle cx="676.946" cy="4" r="4" fill="#0" id="circle84"/>
	<circle cx="676.946" cy="343.224" r="4" fill="#0" id="circle85"/>
	<circle cx="695.283" cy="4" r="4" fill="#0" id="circle86"/>
	<circle cx="695.283" cy="343.224" r="4" fill="#0" id="circle87"/>
	<circle cx="711.786" cy="334.055" r="4" fill="#0" id="circle88"/>
	<circle cx="713.619" cy="4" r="4" fill="#0" id="circle89"/>
	<circle cx="726.455" cy="321.22" r="4" fill="#0" id="circle90"/>
	<circle cx="731.956" cy="4" r="4" fill="#0" id="circle91"/>
	<circle cx="737.457" cy="306.551" r="4" fill="#0" id="circle92"/>
	<circle cx="750.292" cy="11.3346" r="4" fill="#0" id="circle93"/>
	<circle cx="753.959" cy="315.719" r="4" fill="#0" id="circle94"/>
	<circle cx="761.294" cy="334.055" r="4" fill="#0" id="circle95"/>
	<circle cx="768.628" cy="11.3346" r="4" fill="#0" id="circle96"/>
	<circle cx="775.963" cy="346.891" r="4" fill="#0" id="circle97"/>
	<circle cx="786.965" cy="11.3346" r="4" fill="#0" id="circle98"/>
	<circle cx="792.466" cy="356.059" r="4" fill="#0" id="circle99"/>
	<circle cx="803.468" cy="20.5028" r="4" fill="#0" id="circle100"/>
	<circle cx="810.802" cy="361.56" r="4" fill="#0" id="circle101"/>
	<circle cx="821.804" cy="20.5028" r="4" fill="#0" id="circle102"/>
	<circle cx="829.139" cy="361.56" r="4" fill="#0" id="circle103"/>
	<circle cx="840.14" cy="26.0037" r="4" fill="#0" id="circle104"/>
	<circle cx="847.475" cy="361.56" r="4" fill="#0" id="circle105"/>
	<circle cx="856.643" cy="35.1719" r="4" fill="#0" id="circle106"/>
	<circle cx="862.144" cy="350.558" r="4" fill="#0" id="circle107"/>
	<circle cx="871.312" cy="48.0074" r="4" fill="#0" id="circle108"/>
	<circle cx="876.813" cy="66.3438" r="4" fill="#0" id="circle109"/>
	<circle cx="876.813" cy="334.055" r="4" fill="#0" id="circle110"/>
	<circle cx="885.982" cy="82.8466" r="4" fill="#0" id="circle111"/>
	<circle cx="885.982" cy="104.85" r="4" fill="#0" id="circle112"/>
	<circle cx="885.982" cy="123.187" r="4" fill="#0" id="circle113"/>
	<circle cx="891.482" cy="321.22" r="4" fill="#0" id="circle114"/>
	<circle cx="895.15" cy="297.383" r="4" fill="#0" id="circle115"/>
	<circle cx="904.318" cy="125.02" r="4" fill="#0" id="circle116"/>
	<circle cx="911.652" cy="288.214" r="4" fill="#0" id="circle117"/>
	<circle cx="922.654" cy="130.521" r="4" fill="#0" id="circle118"/>
	<circle cx="929.989" cy="288.214" r="4" fill="#0" id="circle119"/>
	<circle cx="940.991" cy="126.854" r="4" fill="#0" id="circle120"/>
	<circle cx="948.325" cy="145.19" r="4" fill="#0" id="circle121"/>
	<circle cx="948.325" cy="288.214" r="4" fill="#0" id="circle122"/>
	<circle cx="950.159" cy="163.527" r="4" fill="#0" id="circle123"/>
	<circle cx="950.159" cy="181.863" r="4" fill="#0" id="circle124"/>
	<circle cx="962.994" cy="196.532" r="4" fill="#0" id="circle125"/>
	<circle cx="964.828" cy="297.383" r="4" fill="#0" id="circle126"/>
	<circle cx="968.495" cy="214.869" r="4" fill="#0" id="circle127"/>
	<circle cx="968.495" cy="233.205" r="4" fill="#0" id="circle128"/>
	<circle cx="968.495" cy="251.542" r="4" fill="#0" id="circle129"/>
	<circle cx="981.331" cy="288.214" r="4" fill="#0" id="circle130"/>
	<circle cx="986.832" cy="255.209" r="4" fill="#0" id="circle131"/>
	<circle cx="996" cy="271.712" r="4" fill="#0" id="circle132"/>
	</g>
</svg>