<?xml version="1.0" encoding="UTF-8" standalone="no"?>
<!-- Created with CurveBenchmark -->
<svg
	xmlns:dc="http://purl.org/dc/elements/1.1/"
	xmlns:cc="http://creativecommons.org/ns#"
	xmlns:rdf="http://www.w3.org/1999/02/22-rdf-syntax-ns#"
	xmlns:svg="http://www.w3.org/2000/svg"
	xmlns="http://www.w3.org/2000/svg"
	xmlns:sodipodi="http://sodipodi.sourceforge.net/DTD/sodipodi-0.dtd"
	xmlns:inkscape="http://www.inkscape.org/namespaces/inkscape"
	width="1000"
	height="1000"
	id="svg2"
	version="1.1"
	sodipodi:docname="manifold/crust-chopper-09.png.txt">
<defs
	id="defs4" />
<metadata
	id="metadata7">
	<rdf:RDF>
		<cc:Work
			rdf:about="">
			<dc:format>image/svg+xml</dc:format>
			<dc:type
				rdf:resource="http://purl.org/dc/dcmitype/StillImage" />
			<dc:title></dc:title>
		</cc:Work>
	</rdf:RDF>
</metadata>
<g
	inkscape:label="Layer 1"
	inkscape:groupmode="layer"
	id="layer1">
	<path style="fill:none;stroke:red;stroke-width:1px;stroke-linecap:butt;stroke-linejoin:miter;stroke-opacity:1" d="M 155.201,198.109 165.417,193.001 z" id="boundary" inkscape:connector-curvature="0" />
	<path style="fill:none;stroke:red;stroke-width:1px;stroke-linecap:butt;stroke-linejoin:miter;stroke-opacity:1" d="M 165.417,193.001 175.633,187.893 z" id="boundary" inkscape:connector-curvature="0" />
	<path style="fill:none;stroke:red;stroke-width:1px;stroke-linecap:butt;stroke-linejoin:miter;stroke-opacity:1" d="M 155.201,198.109 144.985,203.217 z" id="boundary" inkscape:connector-curvature="0" />
	<path style="fill:none;stroke:red;stroke-width:1px;stroke-linecap:butt;stroke-linejoin:miter;stroke-opacity:1" d="M 89.8167,254.299 81.6437,261.45 z" id="boundary" inkscape:connector-curvature="0" />
	<path style="fill:none;stroke:red;stroke-width:1px;stroke-linecap:butt;stroke-linejoin:miter;stroke-opacity:1" d="M 89.8167,254.299 96.9681,246.126 z" id="boundary" inkscape:connector-curvature="0" />
	<path style="fill:none;stroke:red;stroke-width:1px;stroke-linecap:butt;stroke-linejoin:miter;stroke-opacity:1" d="M 105.141,238.974 96.9681,246.126 z" id="boundary" inkscape:connector-curvature="0" />
	<path style="fill:none;stroke:red;stroke-width:1px;stroke-linecap:butt;stroke-linejoin:miter;stroke-opacity:1" d="M 65.2976,277.796 58.1462,290.056 z" id="boundary" inkscape:connector-curvature="0" />
	<path style="fill:none;stroke:red;stroke-width:1px;stroke-linecap:butt;stroke-linejoin:miter;stroke-opacity:1" d="M 73.4706,269.623 81.6437,261.45 z" id="boundary" inkscape:connector-curvature="0" />
	<path style="fill:none;stroke:red;stroke-width:1px;stroke-linecap:butt;stroke-linejoin:miter;stroke-opacity:1" d="M 73.4706,269.623 65.2976,277.796 z" id="boundary" inkscape:connector-curvature="0" />
	<path style="fill:none;stroke:red;stroke-width:1px;stroke-linecap:butt;stroke-linejoin:miter;stroke-opacity:1" d="M 120.465,223.65 127.617,215.477 z" id="boundary" inkscape:connector-curvature="0" />
	<path style="fill:none;stroke:red;stroke-width:1px;stroke-linecap:butt;stroke-linejoin:miter;stroke-opacity:1" d="M 120.465,223.65 112.292,230.801 z" id="boundary" inkscape:connector-curvature="0" />
	<path style="fill:none;stroke:red;stroke-width:1px;stroke-linecap:butt;stroke-linejoin:miter;stroke-opacity:1" d="M 127.617,215.477 135.79,208.325 z" id="boundary" inkscape:connector-curvature="0" />
	<path style="fill:none;stroke:red;stroke-width:1px;stroke-linecap:butt;stroke-linejoin:miter;stroke-opacity:1" d="M 135.79,208.325 144.985,203.217 z" id="boundary" inkscape:connector-curvature="0" />
	<path style="fill:none;stroke:red;stroke-width:1px;stroke-linecap:butt;stroke-linejoin:miter;stroke-opacity:1" d="M 105.141,238.974 112.292,230.801 z" id="boundary" inkscape:connector-curvature="0" />
	<path style="fill:none;stroke:red;stroke-width:1px;stroke-linecap:butt;stroke-linejoin:miter;stroke-opacity:1" d="M 232.844,162.352 223.65,167.46 z" id="boundary" inkscape:connector-curvature="0" />
	<path style="fill:none;stroke:red;stroke-width:1px;stroke-linecap:butt;stroke-linejoin:miter;stroke-opacity:1" d="M 243.061,162.352 253.277,162.352 z" id="boundary" inkscape:connector-curvature="0" />
	<path style="fill:none;stroke:red;stroke-width:1px;stroke-linecap:butt;stroke-linejoin:miter;stroke-opacity:1" d="M 243.061,162.352 232.844,162.352 z" id="boundary" inkscape:connector-curvature="0" />
	<path style="fill:none;stroke:red;stroke-width:1px;stroke-linecap:butt;stroke-linejoin:miter;stroke-opacity:1" d="M 263.493,162.352 253.277,162.352 z" id="boundary" inkscape:connector-curvature="0" />
	<path style="fill:none;stroke:red;stroke-width:1px;stroke-linecap:butt;stroke-linejoin:miter;stroke-opacity:1" d="M 273.71,162.352 263.493,162.352 z" id="boundary" inkscape:connector-curvature="0" />
	<path style="fill:none;stroke:red;stroke-width:1px;stroke-linecap:butt;stroke-linejoin:miter;stroke-opacity:1" d="M 185.85,182.785 195.044,177.677 z" id="boundary" inkscape:connector-curvature="0" />
	<path style="fill:none;stroke:red;stroke-width:1px;stroke-linecap:butt;stroke-linejoin:miter;stroke-opacity:1" d="M 185.85,182.785 175.633,187.893 z" id="boundary" inkscape:connector-curvature="0" />
	<path style="fill:none;stroke:red;stroke-width:1px;stroke-linecap:butt;stroke-linejoin:miter;stroke-opacity:1" d="M 195.044,177.677 204.239,172.568 z" id="boundary" inkscape:connector-curvature="0" />
	<path style="fill:none;stroke:red;stroke-width:1px;stroke-linecap:butt;stroke-linejoin:miter;stroke-opacity:1" d="M 214.455,172.568 204.239,172.568 z" id="boundary" inkscape:connector-curvature="0" />
	<path style="fill:none;stroke:red;stroke-width:1px;stroke-linecap:butt;stroke-linejoin:miter;stroke-opacity:1" d="M 273.71,162.352 283.926,162.352 z" id="boundary" inkscape:connector-curvature="0" />
	<path style="fill:none;stroke:red;stroke-width:1px;stroke-linecap:butt;stroke-linejoin:miter;stroke-opacity:1" d="M 294.142,162.352 283.926,162.352 z" id="boundary" inkscape:connector-curvature="0" />
	<path style="fill:none;stroke:red;stroke-width:1px;stroke-linecap:butt;stroke-linejoin:miter;stroke-opacity:1" d="M 214.455,172.568 223.65,167.46 z" id="boundary" inkscape:connector-curvature="0" />
	<path style="fill:none;stroke:red;stroke-width:1px;stroke-linecap:butt;stroke-linejoin:miter;stroke-opacity:1" d="M 39.757,323.769 34.6488,333.986 z" id="boundary" inkscape:connector-curvature="0" />
	<path style="fill:none;stroke:red;stroke-width:1px;stroke-linecap:butt;stroke-linejoin:miter;stroke-opacity:1" d="M 34.6488,344.202 29.5407,359.526 z" id="boundary" inkscape:connector-curvature="0" />
	<path style="fill:none;stroke:red;stroke-width:1px;stroke-linecap:butt;stroke-linejoin:miter;stroke-opacity:1" d="M 24.4325,369.743 29.5407,359.526 z" id="boundary" inkscape:connector-curvature="0" />
	<path style="fill:none;stroke:red;stroke-width:1px;stroke-linecap:butt;stroke-linejoin:miter;stroke-opacity:1" d="M 34.6488,333.986 34.6488,344.202 z" id="boundary" inkscape:connector-curvature="0" />
	<path style="fill:none;stroke:red;stroke-width:1px;stroke-linecap:butt;stroke-linejoin:miter;stroke-opacity:1" d="M 44.8651,308.445 49.9732,298.229 z" id="boundary" inkscape:connector-curvature="0" />
	<path style="fill:none;stroke:red;stroke-width:1px;stroke-linecap:butt;stroke-linejoin:miter;stroke-opacity:1" d="M 49.9732,298.229 58.1462,290.056 z" id="boundary" inkscape:connector-curvature="0" />
	<path style="fill:none;stroke:red;stroke-width:1px;stroke-linecap:butt;stroke-linejoin:miter;stroke-opacity:1" d="M 39.757,323.769 44.8651,308.445 z" id="boundary" inkscape:connector-curvature="0" />
	<path style="fill:none;stroke:red;stroke-width:1px;stroke-linecap:butt;stroke-linejoin:miter;stroke-opacity:1" d="M 24.4325,379.959 24.4325,369.743 z" id="boundary" inkscape:connector-curvature="0" />
	<path style="fill:none;stroke:red;stroke-width:1px;stroke-linecap:butt;stroke-linejoin:miter;stroke-opacity:1" d="M 19.3244,415.716 14.2163,425.932 z" id="boundary" inkscape:connector-curvature="0" />
	<path style="fill:none;stroke:red;stroke-width:1px;stroke-linecap:butt;stroke-linejoin:miter;stroke-opacity:1" d="M 14.2163,425.932 14.2163,436.148 z" id="boundary" inkscape:connector-curvature="0" />
	<path style="fill:none;stroke:red;stroke-width:1px;stroke-linecap:butt;stroke-linejoin:miter;stroke-opacity:1" d="M 14.2163,436.148 14.2163,446.365 z" id="boundary" inkscape:connector-curvature="0" />
	<path style="fill:none;stroke:red;stroke-width:1px;stroke-linecap:butt;stroke-linejoin:miter;stroke-opacity:1" d="M 14.2163,446.365 14.2163,456.581 z" id="boundary" inkscape:connector-curvature="0" />
	<path style="fill:none;stroke:red;stroke-width:1px;stroke-linecap:butt;stroke-linejoin:miter;stroke-opacity:1" d="M 24.4325,390.175 19.3244,405.499 z" id="boundary" inkscape:connector-curvature="0" />
	<path style="fill:none;stroke:red;stroke-width:1px;stroke-linecap:butt;stroke-linejoin:miter;stroke-opacity:1" d="M 24.4325,379.959 24.4325,390.175 z" id="boundary" inkscape:connector-curvature="0" />
	<path style="fill:none;stroke:red;stroke-width:1px;stroke-linecap:butt;stroke-linejoin:miter;stroke-opacity:1" d="M 19.3244,415.716 19.3244,405.499 z" id="boundary" inkscape:connector-curvature="0" />
	<path style="fill:none;stroke:red;stroke-width:1px;stroke-linecap:butt;stroke-linejoin:miter;stroke-opacity:1" d="M 14.2163,456.581 9.10814,471.905 z" id="boundary" inkscape:connector-curvature="0" />
	<path style="fill:none;stroke:red;stroke-width:1px;stroke-linecap:butt;stroke-linejoin:miter;stroke-opacity:1" d="M 354.418,19.3244 344.202,19.3244 z" id="boundary" inkscape:connector-curvature="0" />
	<path style="fill:none;stroke:red;stroke-width:1px;stroke-linecap:butt;stroke-linejoin:miter;stroke-opacity:1" d="M 344.202,19.3244 333.986,24.4325 z" id="boundary" inkscape:connector-curvature="0" />
	<path style="fill:none;stroke:red;stroke-width:1px;stroke-linecap:butt;stroke-linejoin:miter;stroke-opacity:1" d="M 325.813,32.6056 333.986,24.4325 z" id="boundary" inkscape:connector-curvature="0" />
	<path style="fill:none;stroke:red;stroke-width:1px;stroke-linecap:butt;stroke-linejoin:miter;stroke-opacity:1" d="M 325.813,32.6056 320.704,42.8218 z" id="boundary" inkscape:connector-curvature="0" />
	<path style="fill:none;stroke:red;stroke-width:1px;stroke-linecap:butt;stroke-linejoin:miter;stroke-opacity:1" d="M 443.3,4 433.083,4 z" id="boundary" inkscape:connector-curvature="0" />
	<path style="fill:none;stroke:red;stroke-width:1px;stroke-linecap:butt;stroke-linejoin:miter;stroke-opacity:1" d="M 354.418,19.3244 364.634,19.3244 z" id="boundary" inkscape:connector-curvature="0" />
	<path style="fill:none;stroke:red;stroke-width:1px;stroke-linecap:butt;stroke-linejoin:miter;stroke-opacity:1" d="M 374.851,19.3244 364.634,19.3244 z" id="boundary" inkscape:connector-curvature="0" />
	<path style="fill:none;stroke:red;stroke-width:1px;stroke-linecap:butt;stroke-linejoin:miter;stroke-opacity:1" d="M 346.245,56.103 336.029,56.103 z" id="boundary" inkscape:connector-curvature="0" />
	<path style="fill:none;stroke:red;stroke-width:1px;stroke-linecap:butt;stroke-linejoin:miter;stroke-opacity:1" d="M 325.813,52.0165 320.704,42.8218 z" id="boundary" inkscape:connector-curvature="0" />
	<path style="fill:none;stroke:red;stroke-width:1px;stroke-linecap:butt;stroke-linejoin:miter;stroke-opacity:1" d="M 325.813,52.0165 336.029,56.103 z" id="boundary" inkscape:connector-curvature="0" />
	<path style="fill:none;stroke:red;stroke-width:1px;stroke-linecap:butt;stroke-linejoin:miter;stroke-opacity:1" d="M 355.44,61.2111 346.245,56.103 z" id="boundary" inkscape:connector-curvature="0" />
	<path style="fill:none;stroke:red;stroke-width:1px;stroke-linecap:butt;stroke-linejoin:miter;stroke-opacity:1" d="M 355.44,61.2111 365.656,61.2111 z" id="boundary" inkscape:connector-curvature="0" />
	<path style="fill:none;stroke:red;stroke-width:1px;stroke-linecap:butt;stroke-linejoin:miter;stroke-opacity:1" d="M 374.851,66.3193 382.002,74.4923 z" id="boundary" inkscape:connector-curvature="0" />
	<path style="fill:none;stroke:red;stroke-width:1px;stroke-linecap:butt;stroke-linejoin:miter;stroke-opacity:1" d="M 365.656,61.2111 374.851,66.3193 z" id="boundary" inkscape:connector-curvature="0" />
	<path style="fill:none;stroke:red;stroke-width:1px;stroke-linecap:butt;stroke-linejoin:miter;stroke-opacity:1" d="M 385.067,19.3244 374.851,19.3244 z" id="boundary" inkscape:connector-curvature="0" />
	<path style="fill:none;stroke:red;stroke-width:1px;stroke-linecap:butt;stroke-linejoin:miter;stroke-opacity:1" d="M 394.262,14.2163 403.456,9.10814 z" id="boundary" inkscape:connector-curvature="0" />
	<path style="fill:none;stroke:red;stroke-width:1px;stroke-linecap:butt;stroke-linejoin:miter;stroke-opacity:1" d="M 412.651,4 403.456,9.10814 z" id="boundary" inkscape:connector-curvature="0" />
	<path style="fill:none;stroke:red;stroke-width:1px;stroke-linecap:butt;stroke-linejoin:miter;stroke-opacity:1" d="M 385.067,19.3244 394.262,14.2163 z" id="boundary" inkscape:connector-curvature="0" />
	<path style="fill:none;stroke:red;stroke-width:1px;stroke-linecap:butt;stroke-linejoin:miter;stroke-opacity:1" d="M 412.651,4 422.867,4 z" id="boundary" inkscape:connector-curvature="0" />
	<path style="fill:none;stroke:red;stroke-width:1px;stroke-linecap:butt;stroke-linejoin:miter;stroke-opacity:1" d="M 422.867,4 433.083,4 z" id="boundary" inkscape:connector-curvature="0" />
	<path style="fill:none;stroke:red;stroke-width:1px;stroke-linecap:butt;stroke-linejoin:miter;stroke-opacity:1" d="M 443.3,37.7137 433.083,40.7786 z" id="boundary" inkscape:connector-curvature="0" />
	<path style="fill:none;stroke:red;stroke-width:1px;stroke-linecap:butt;stroke-linejoin:miter;stroke-opacity:1" d="M 433.083,40.7786 423.889,45.8867 z" id="boundary" inkscape:connector-curvature="0" />
	<path style="fill:none;stroke:red;stroke-width:1px;stroke-linecap:butt;stroke-linejoin:miter;stroke-opacity:1" d="M 413.673,45.8867 413.673,56.103 z" id="boundary" inkscape:connector-curvature="0" />
	<path style="fill:none;stroke:red;stroke-width:1px;stroke-linecap:butt;stroke-linejoin:miter;stroke-opacity:1" d="M 413.673,45.8867 423.889,45.8867 z" id="boundary" inkscape:connector-curvature="0" />
	<path style="fill:none;stroke:red;stroke-width:1px;stroke-linecap:butt;stroke-linejoin:miter;stroke-opacity:1" d="M 413.673,66.3193 413.673,76.5355 z" id="boundary" inkscape:connector-curvature="0" />
	<path style="fill:none;stroke:red;stroke-width:1px;stroke-linecap:butt;stroke-linejoin:miter;stroke-opacity:1" d="M 413.673,66.3193 413.673,56.103 z" id="boundary" inkscape:connector-curvature="0" />
	<path style="fill:none;stroke:red;stroke-width:1px;stroke-linecap:butt;stroke-linejoin:miter;stroke-opacity:1" d="M 421.846,82.6653 413.673,76.5355 z" id="boundary" inkscape:connector-curvature="0" />
	<path style="fill:none;stroke:red;stroke-width:1px;stroke-linecap:butt;stroke-linejoin:miter;stroke-opacity:1" d="M 382.002,74.4923 379.959,90.8383 z" id="boundary" inkscape:connector-curvature="0" />
	<path style="fill:none;stroke:red;stroke-width:1px;stroke-linecap:butt;stroke-linejoin:miter;stroke-opacity:1" d="M 371.786,99.0113 371.786,109.228 z" id="boundary" inkscape:connector-curvature="0" />
	<path style="fill:none;stroke:red;stroke-width:1px;stroke-linecap:butt;stroke-linejoin:miter;stroke-opacity:1" d="M 371.786,109.228 379.959,116.379 z" id="boundary" inkscape:connector-curvature="0" />
	<path style="fill:none;stroke:red;stroke-width:1px;stroke-linecap:butt;stroke-linejoin:miter;stroke-opacity:1" d="M 314.575,162.352 304.358,162.352 z" id="boundary" inkscape:connector-curvature="0" />
	<path style="fill:none;stroke:red;stroke-width:1px;stroke-linecap:butt;stroke-linejoin:miter;stroke-opacity:1" d="M 304.358,162.352 294.142,162.352 z" id="boundary" inkscape:connector-curvature="0" />
	<path style="fill:none;stroke:red;stroke-width:1px;stroke-linecap:butt;stroke-linejoin:miter;stroke-opacity:1" d="M 314.575,162.352 323.769,157.244 z" id="boundary" inkscape:connector-curvature="0" />
	<path style="fill:none;stroke:red;stroke-width:1px;stroke-linecap:butt;stroke-linejoin:miter;stroke-opacity:1" d="M 323.769,157.244 333.986,157.244 z" id="boundary" inkscape:connector-curvature="0" />
	<path style="fill:none;stroke:red;stroke-width:1px;stroke-linecap:butt;stroke-linejoin:miter;stroke-opacity:1" d="M 344.202,157.244 333.986,157.244 z" id="boundary" inkscape:connector-curvature="0" />
	<path style="fill:none;stroke:red;stroke-width:1px;stroke-linecap:butt;stroke-linejoin:miter;stroke-opacity:1" d="M 363.613,152.136 373.829,148.049 z" id="boundary" inkscape:connector-curvature="0" />
	<path style="fill:none;stroke:red;stroke-width:1px;stroke-linecap:butt;stroke-linejoin:miter;stroke-opacity:1" d="M 363.613,152.136 353.396,152.136 z" id="boundary" inkscape:connector-curvature="0" />
	<path style="fill:none;stroke:red;stroke-width:1px;stroke-linecap:butt;stroke-linejoin:miter;stroke-opacity:1" d="M 353.396,152.136 344.202,157.244 z" id="boundary" inkscape:connector-curvature="0" />
	<path style="fill:none;stroke:red;stroke-width:1px;stroke-linecap:butt;stroke-linejoin:miter;stroke-opacity:1" d="M 379.959,90.8383 371.786,99.0113 z" id="boundary" inkscape:connector-curvature="0" />
	<path style="fill:none;stroke:red;stroke-width:1px;stroke-linecap:butt;stroke-linejoin:miter;stroke-opacity:1" d="M 388.132,122.509 379.959,116.379 z" id="boundary" inkscape:connector-curvature="0" />
	<path style="fill:none;stroke:red;stroke-width:1px;stroke-linecap:butt;stroke-linejoin:miter;stroke-opacity:1" d="M 421.846,82.6653 432.062,86.7518 z" id="boundary" inkscape:connector-curvature="0" />
	<path style="fill:none;stroke:red;stroke-width:1px;stroke-linecap:butt;stroke-linejoin:miter;stroke-opacity:1" d="M 384.045,147.028 373.829,148.049 z" id="boundary" inkscape:connector-curvature="0" />
	<path style="fill:none;stroke:red;stroke-width:1px;stroke-linecap:butt;stroke-linejoin:miter;stroke-opacity:1" d="M 384.045,147.028 394.262,147.028 z" id="boundary" inkscape:connector-curvature="0" />
	<path style="fill:none;stroke:red;stroke-width:1px;stroke-linecap:butt;stroke-linejoin:miter;stroke-opacity:1" d="M 388.132,122.509 397.326,127.617 z" id="boundary" inkscape:connector-curvature="0" />
	<path style="fill:none;stroke:red;stroke-width:1px;stroke-linecap:butt;stroke-linejoin:miter;stroke-opacity:1" d="M 394.262,147.028 397.326,127.617 z" id="boundary" inkscape:connector-curvature="0" />
	<path style="fill:none;stroke:red;stroke-width:1px;stroke-linecap:butt;stroke-linejoin:miter;stroke-opacity:1" d="M 432.062,86.7518 434.105,102.076 z" id="boundary" inkscape:connector-curvature="0" />
	<path style="fill:none;stroke:red;stroke-width:1px;stroke-linecap:butt;stroke-linejoin:miter;stroke-opacity:1" d="M 9.10814,471.905 9.10814,482.122 z" id="boundary" inkscape:connector-curvature="0" />
	<path style="fill:none;stroke:red;stroke-width:1px;stroke-linecap:butt;stroke-linejoin:miter;stroke-opacity:1" d="M 9.10814,482.122 9.10814,492.338 z" id="boundary" inkscape:connector-curvature="0" />
	<path style="fill:none;stroke:red;stroke-width:1px;stroke-linecap:butt;stroke-linejoin:miter;stroke-opacity:1" d="M 9.10814,492.338 9.10814,502.554 z" id="boundary" inkscape:connector-curvature="0" />
	<path style="fill:none;stroke:red;stroke-width:1px;stroke-linecap:butt;stroke-linejoin:miter;stroke-opacity:1" d="M 9.10814,522.987 9.10814,512.77 z" id="boundary" inkscape:connector-curvature="0" />
	<path style="fill:none;stroke:red;stroke-width:1px;stroke-linecap:butt;stroke-linejoin:miter;stroke-opacity:1" d="M 9.10814,512.77 9.10814,502.554 z" id="boundary" inkscape:connector-curvature="0" />
	<path style="fill:none;stroke:red;stroke-width:1px;stroke-linecap:butt;stroke-linejoin:miter;stroke-opacity:1" d="M 14.2163,532.181 9.10814,522.987 z" id="boundary" inkscape:connector-curvature="0" />
	<path style="fill:none;stroke:red;stroke-width:1px;stroke-linecap:butt;stroke-linejoin:miter;stroke-opacity:1" d="M 19.3244,541.376 14.2163,532.181 z" id="boundary" inkscape:connector-curvature="0" />
	<path style="fill:none;stroke:red;stroke-width:1px;stroke-linecap:butt;stroke-linejoin:miter;stroke-opacity:1" d="M 19.3244,541.376 28.5191,546.484 z" id="boundary" inkscape:connector-curvature="0" />
	<path style="fill:none;stroke:red;stroke-width:1px;stroke-linecap:butt;stroke-linejoin:miter;stroke-opacity:1" d="M 47.93,551.592 37.7137,551.592 z" id="boundary" inkscape:connector-curvature="0" />
	<path style="fill:none;stroke:red;stroke-width:1px;stroke-linecap:butt;stroke-linejoin:miter;stroke-opacity:1" d="M 37.7137,551.592 28.5191,546.484 z" id="boundary" inkscape:connector-curvature="0" />
	<path style="fill:none;stroke:red;stroke-width:1px;stroke-linecap:butt;stroke-linejoin:miter;stroke-opacity:1" d="M 47.93,551.592 58.1462,551.592 z" id="boundary" inkscape:connector-curvature="0" />
	<path style="fill:none;stroke:red;stroke-width:1px;stroke-linecap:butt;stroke-linejoin:miter;stroke-opacity:1" d="M 58.1462,551.592 68.3625,551.592 z" id="boundary" inkscape:connector-curvature="0" />
	<path style="fill:none;stroke:red;stroke-width:1px;stroke-linecap:butt;stroke-linejoin:miter;stroke-opacity:1" d="M 78.5788,551.592 88.7951,555.679 z" id="boundary" inkscape:connector-curvature="0" />
	<path style="fill:none;stroke:red;stroke-width:1px;stroke-linecap:butt;stroke-linejoin:miter;stroke-opacity:1" d="M 68.3625,551.592 78.5788,551.592 z" id="boundary" inkscape:connector-curvature="0" />
	<path style="fill:none;stroke:red;stroke-width:1px;stroke-linecap:butt;stroke-linejoin:miter;stroke-opacity:1" d="M 99.0113,556.7 88.7951,555.679 z" id="boundary" inkscape:connector-curvature="0" />
	<path style="fill:none;stroke:red;stroke-width:1px;stroke-linecap:butt;stroke-linejoin:miter;stroke-opacity:1" d="M 99.0113,556.7 109.228,556.7 z" id="boundary" inkscape:connector-curvature="0" />
	<path style="fill:none;stroke:red;stroke-width:1px;stroke-linecap:butt;stroke-linejoin:miter;stroke-opacity:1" d="M 109.228,556.7 119.444,556.7 z" id="boundary" inkscape:connector-curvature="0" />
	<path style="fill:none;stroke:red;stroke-width:1px;stroke-linecap:butt;stroke-linejoin:miter;stroke-opacity:1" d="M 129.66,560.787 119.444,556.7 z" id="boundary" inkscape:connector-curvature="0" />
	<path style="fill:none;stroke:red;stroke-width:1px;stroke-linecap:butt;stroke-linejoin:miter;stroke-opacity:1" d="M 139.876,561.808 129.66,560.787 z" id="boundary" inkscape:connector-curvature="0" />
	<path style="fill:none;stroke:red;stroke-width:1px;stroke-linecap:butt;stroke-linejoin:miter;stroke-opacity:1" d="M 4,640.474 12.173,632.301 z" id="boundary" inkscape:connector-curvature="0" />
	<path style="fill:none;stroke:red;stroke-width:1px;stroke-linecap:butt;stroke-linejoin:miter;stroke-opacity:1" d="M 21.3677,627.193 12.173,632.301 z" id="boundary" inkscape:connector-curvature="0" />
	<path style="fill:none;stroke:red;stroke-width:1px;stroke-linecap:butt;stroke-linejoin:miter;stroke-opacity:1" d="M 9.10814,659.885 4,650.69 z" id="boundary" inkscape:connector-curvature="0" />
	<path style="fill:none;stroke:red;stroke-width:1px;stroke-linecap:butt;stroke-linejoin:miter;stroke-opacity:1" d="M 4,650.69 4,640.474 z" id="boundary" inkscape:connector-curvature="0" />
	<path style="fill:none;stroke:red;stroke-width:1px;stroke-linecap:butt;stroke-linejoin:miter;stroke-opacity:1" d="M 21.3677,627.193 31.5839,627.193 z" id="boundary" inkscape:connector-curvature="0" />
	<path style="fill:none;stroke:red;stroke-width:1px;stroke-linecap:butt;stroke-linejoin:miter;stroke-opacity:1" d="M 56.103,646.604 48.9516,638.43 z" id="boundary" inkscape:connector-curvature="0" />
	<path style="fill:none;stroke:red;stroke-width:1px;stroke-linecap:butt;stroke-linejoin:miter;stroke-opacity:1" d="M 48.9516,638.43 40.7786,632.301 z" id="boundary" inkscape:connector-curvature="0" />
	<path style="fill:none;stroke:red;stroke-width:1px;stroke-linecap:butt;stroke-linejoin:miter;stroke-opacity:1" d="M 40.7786,632.301 31.5839,627.193 z" id="boundary" inkscape:connector-curvature="0" />
	<path style="fill:none;stroke:red;stroke-width:1px;stroke-linecap:butt;stroke-linejoin:miter;stroke-opacity:1" d="M 66.3193,647.625 56.103,646.604 z" id="boundary" inkscape:connector-curvature="0" />
	<path style="fill:none;stroke:red;stroke-width:1px;stroke-linecap:butt;stroke-linejoin:miter;stroke-opacity:1" d="M 76.5355,647.625 66.3193,647.625 z" id="boundary" inkscape:connector-curvature="0" />
	<path style="fill:none;stroke:red;stroke-width:1px;stroke-linecap:butt;stroke-linejoin:miter;stroke-opacity:1" d="M 9.10814,659.885 14.2163,669.079 z" id="boundary" inkscape:connector-curvature="0" />
	<path style="fill:none;stroke:red;stroke-width:1px;stroke-linecap:butt;stroke-linejoin:miter;stroke-opacity:1" d="M 14.2163,669.079 23.4109,674.187 z" id="boundary" inkscape:connector-curvature="0" />
	<path style="fill:none;stroke:red;stroke-width:1px;stroke-linecap:butt;stroke-linejoin:miter;stroke-opacity:1" d="M 32.6056,679.296 23.4109,674.187 z" id="boundary" inkscape:connector-curvature="0" />
	<path style="fill:none;stroke:red;stroke-width:1px;stroke-linecap:butt;stroke-linejoin:miter;stroke-opacity:1" d="M 41.8002,684.404 52.0165,684.404 z" id="boundary" inkscape:connector-curvature="0" />
	<path style="fill:none;stroke:red;stroke-width:1px;stroke-linecap:butt;stroke-linejoin:miter;stroke-opacity:1" d="M 72.449,684.404 62.2327,684.404 z" id="boundary" inkscape:connector-curvature="0" />
	<path style="fill:none;stroke:red;stroke-width:1px;stroke-linecap:butt;stroke-linejoin:miter;stroke-opacity:1" d="M 62.2327,684.404 52.0165,684.404 z" id="boundary" inkscape:connector-curvature="0" />
	<path style="fill:none;stroke:red;stroke-width:1px;stroke-linecap:butt;stroke-linejoin:miter;stroke-opacity:1" d="M 41.8002,684.404 32.6056,679.296 z" id="boundary" inkscape:connector-curvature="0" />
	<path style="fill:none;stroke:red;stroke-width:1px;stroke-linecap:butt;stroke-linejoin:miter;stroke-opacity:1" d="M 107.184,642.517 96.9681,644.56 z" id="boundary" inkscape:connector-curvature="0" />
	<path style="fill:none;stroke:red;stroke-width:1px;stroke-linecap:butt;stroke-linejoin:miter;stroke-opacity:1" d="M 76.5355,647.625 86.7518,647.625 z" id="boundary" inkscape:connector-curvature="0" />
	<path style="fill:none;stroke:red;stroke-width:1px;stroke-linecap:butt;stroke-linejoin:miter;stroke-opacity:1" d="M 86.7518,647.625 96.9681,644.56 z" id="boundary" inkscape:connector-curvature="0" />
	<path style="fill:none;stroke:red;stroke-width:1px;stroke-linecap:butt;stroke-linejoin:miter;stroke-opacity:1" d="M 117.401,642.517 127.617,642.517 z" id="boundary" inkscape:connector-curvature="0" />
	<path style="fill:none;stroke:red;stroke-width:1px;stroke-linecap:butt;stroke-linejoin:miter;stroke-opacity:1" d="M 137.833,642.517 127.617,642.517 z" id="boundary" inkscape:connector-curvature="0" />
	<path style="fill:none;stroke:red;stroke-width:1px;stroke-linecap:butt;stroke-linejoin:miter;stroke-opacity:1" d="M 117.401,642.517 107.184,642.517 z" id="boundary" inkscape:connector-curvature="0" />
	<path style="fill:none;stroke:red;stroke-width:1px;stroke-linecap:butt;stroke-linejoin:miter;stroke-opacity:1" d="M 72.449,684.404 82.6653,684.404 z" id="boundary" inkscape:connector-curvature="0" />
	<path style="fill:none;stroke:red;stroke-width:1px;stroke-linecap:butt;stroke-linejoin:miter;stroke-opacity:1" d="M 92.8816,684.404 82.6653,684.404 z" id="boundary" inkscape:connector-curvature="0" />
	<path style="fill:none;stroke:red;stroke-width:1px;stroke-linecap:butt;stroke-linejoin:miter;stroke-opacity:1" d="M 113.314,684.404 103.098,684.404 z" id="boundary" inkscape:connector-curvature="0" />
	<path style="fill:none;stroke:red;stroke-width:1px;stroke-linecap:butt;stroke-linejoin:miter;stroke-opacity:1" d="M 123.53,684.404 133.747,684.404 z" id="boundary" inkscape:connector-curvature="0" />
	<path style="fill:none;stroke:red;stroke-width:1px;stroke-linecap:butt;stroke-linejoin:miter;stroke-opacity:1" d="M 123.53,684.404 113.314,684.404 z" id="boundary" inkscape:connector-curvature="0" />
	<path style="fill:none;stroke:red;stroke-width:1px;stroke-linecap:butt;stroke-linejoin:miter;stroke-opacity:1" d="M 143.963,684.404 133.747,684.404 z" id="boundary" inkscape:connector-curvature="0" />
	<path style="fill:none;stroke:red;stroke-width:1px;stroke-linecap:butt;stroke-linejoin:miter;stroke-opacity:1" d="M 103.098,684.404 92.8816,684.404 z" id="boundary" inkscape:connector-curvature="0" />
	<path style="fill:none;stroke:red;stroke-width:1px;stroke-linecap:butt;stroke-linejoin:miter;stroke-opacity:1" d="M 150.093,561.808 139.876,561.808 z" id="boundary" inkscape:connector-curvature="0" />
	<path style="fill:none;stroke:red;stroke-width:1px;stroke-linecap:butt;stroke-linejoin:miter;stroke-opacity:1" d="M 150.093,561.808 159.287,566.917 z" id="boundary" inkscape:connector-curvature="0" />
	<path style="fill:none;stroke:red;stroke-width:1px;stroke-linecap:butt;stroke-linejoin:miter;stroke-opacity:1" d="M 159.287,566.917 169.504,566.917 z" id="boundary" inkscape:connector-curvature="0" />
	<path style="fill:none;stroke:red;stroke-width:1px;stroke-linecap:butt;stroke-linejoin:miter;stroke-opacity:1" d="M 178.698,572.025 187.893,577.133 z" id="boundary" inkscape:connector-curvature="0" />
	<path style="fill:none;stroke:red;stroke-width:1px;stroke-linecap:butt;stroke-linejoin:miter;stroke-opacity:1" d="M 178.698,572.025 169.504,566.917 z" id="boundary" inkscape:connector-curvature="0" />
	<path style="fill:none;stroke:red;stroke-width:1px;stroke-linecap:butt;stroke-linejoin:miter;stroke-opacity:1" d="M 208.325,577.133 198.109,577.133 z" id="boundary" inkscape:connector-curvature="0" />
	<path style="fill:none;stroke:red;stroke-width:1px;stroke-linecap:butt;stroke-linejoin:miter;stroke-opacity:1" d="M 187.893,577.133 198.109,577.133 z" id="boundary" inkscape:connector-curvature="0" />
	<path style="fill:none;stroke:red;stroke-width:1px;stroke-linecap:butt;stroke-linejoin:miter;stroke-opacity:1" d="M 157.244,637.409 148.049,642.517 z" id="boundary" inkscape:connector-curvature="0" />
	<path style="fill:none;stroke:red;stroke-width:1px;stroke-linecap:butt;stroke-linejoin:miter;stroke-opacity:1" d="M 166.439,632.301 157.244,637.409 z" id="boundary" inkscape:connector-curvature="0" />
	<path style="fill:none;stroke:red;stroke-width:1px;stroke-linecap:butt;stroke-linejoin:miter;stroke-opacity:1" d="M 176.655,632.301 166.439,632.301 z" id="boundary" inkscape:connector-curvature="0" />
	<path style="fill:none;stroke:red;stroke-width:1px;stroke-linecap:butt;stroke-linejoin:miter;stroke-opacity:1" d="M 186.871,632.301 176.655,632.301 z" id="boundary" inkscape:connector-curvature="0" />
	<path style="fill:none;stroke:red;stroke-width:1px;stroke-linecap:butt;stroke-linejoin:miter;stroke-opacity:1" d="M 196.066,627.193 186.871,632.301 z" id="boundary" inkscape:connector-curvature="0" />
	<path style="fill:none;stroke:red;stroke-width:1px;stroke-linecap:butt;stroke-linejoin:miter;stroke-opacity:1" d="M 205.261,622.084 196.066,627.193 z" id="boundary" inkscape:connector-curvature="0" />
	<path style="fill:none;stroke:red;stroke-width:1px;stroke-linecap:butt;stroke-linejoin:miter;stroke-opacity:1" d="M 148.049,642.517 137.833,642.517 z" id="boundary" inkscape:connector-curvature="0" />
	<path style="fill:none;stroke:red;stroke-width:1px;stroke-linecap:butt;stroke-linejoin:miter;stroke-opacity:1" d="M 213.434,586.327 213.434,596.544 z" id="boundary" inkscape:connector-curvature="0" />
	<path style="fill:none;stroke:red;stroke-width:1px;stroke-linecap:butt;stroke-linejoin:miter;stroke-opacity:1" d="M 213.434,586.327 208.325,577.133 z" id="boundary" inkscape:connector-curvature="0" />
	<path style="fill:none;stroke:red;stroke-width:1px;stroke-linecap:butt;stroke-linejoin:miter;stroke-opacity:1" d="M 208.325,609.825 213.434,596.544 z" id="boundary" inkscape:connector-curvature="0" />
	<path style="fill:none;stroke:red;stroke-width:1px;stroke-linecap:butt;stroke-linejoin:miter;stroke-opacity:1" d="M 205.261,622.084 208.325,609.825 z" id="boundary" inkscape:connector-curvature="0" />
	<path style="fill:none;stroke:red;stroke-width:1px;stroke-linecap:butt;stroke-linejoin:miter;stroke-opacity:1" d="M 431.04,628.214 421.846,633.322 z" id="boundary" inkscape:connector-curvature="0" />
	<path style="fill:none;stroke:red;stroke-width:1px;stroke-linecap:butt;stroke-linejoin:miter;stroke-opacity:1" d="M 439.213,617.998 431.04,628.214 z" id="boundary" inkscape:connector-curvature="0" />
	<path style="fill:none;stroke:red;stroke-width:1px;stroke-linecap:butt;stroke-linejoin:miter;stroke-opacity:1" d="M 421.846,633.322 412.651,638.43 z" id="boundary" inkscape:connector-curvature="0" />
	<path style="fill:none;stroke:red;stroke-width:1px;stroke-linecap:butt;stroke-linejoin:miter;stroke-opacity:1" d="M 154.179,684.404 143.963,684.404 z" id="boundary" inkscape:connector-curvature="0" />
	<path style="fill:none;stroke:red;stroke-width:1px;stroke-linecap:butt;stroke-linejoin:miter;stroke-opacity:1" d="M 154.179,684.404 164.395,684.404 z" id="boundary" inkscape:connector-curvature="0" />
	<path style="fill:none;stroke:red;stroke-width:1px;stroke-linecap:butt;stroke-linejoin:miter;stroke-opacity:1" d="M 174.612,684.404 184.828,684.404 z" id="boundary" inkscape:connector-curvature="0" />
	<path style="fill:none;stroke:red;stroke-width:1px;stroke-linecap:butt;stroke-linejoin:miter;stroke-opacity:1" d="M 174.612,684.404 164.395,684.404 z" id="boundary" inkscape:connector-curvature="0" />
	<path style="fill:none;stroke:red;stroke-width:1px;stroke-linecap:butt;stroke-linejoin:miter;stroke-opacity:1" d="M 205.261,684.404 195.044,684.404 z" id="boundary" inkscape:connector-curvature="0" />
	<path style="fill:none;stroke:red;stroke-width:1px;stroke-linecap:butt;stroke-linejoin:miter;stroke-opacity:1" d="M 195.044,684.404 184.828,684.404 z" id="boundary" inkscape:connector-curvature="0" />
	<path style="fill:none;stroke:red;stroke-width:1px;stroke-linecap:butt;stroke-linejoin:miter;stroke-opacity:1" d="M 234.888,679.296 225.693,684.404 z" id="boundary" inkscape:connector-curvature="0" />
	<path style="fill:none;stroke:red;stroke-width:1px;stroke-linecap:butt;stroke-linejoin:miter;stroke-opacity:1" d="M 245.104,679.296 234.888,679.296 z" id="boundary" inkscape:connector-curvature="0" />
	<path style="fill:none;stroke:red;stroke-width:1px;stroke-linecap:butt;stroke-linejoin:miter;stroke-opacity:1" d="M 205.261,684.404 215.477,684.404 z" id="boundary" inkscape:connector-curvature="0" />
	<path style="fill:none;stroke:red;stroke-width:1px;stroke-linecap:butt;stroke-linejoin:miter;stroke-opacity:1" d="M 215.477,684.404 225.693,684.404 z" id="boundary" inkscape:connector-curvature="0" />
	<path style="fill:none;stroke:red;stroke-width:1px;stroke-linecap:butt;stroke-linejoin:miter;stroke-opacity:1" d="M 245.104,679.296 255.32,679.296 z" id="boundary" inkscape:connector-curvature="0" />
	<path style="fill:none;stroke:red;stroke-width:1px;stroke-linecap:butt;stroke-linejoin:miter;stroke-opacity:1" d="M 315.596,663.971 325.813,663.971 z" id="boundary" inkscape:connector-curvature="0" />
	<path style="fill:none;stroke:red;stroke-width:1px;stroke-linecap:butt;stroke-linejoin:miter;stroke-opacity:1" d="M 336.029,663.971 345.223,658.863 z" id="boundary" inkscape:connector-curvature="0" />
	<path style="fill:none;stroke:red;stroke-width:1px;stroke-linecap:butt;stroke-linejoin:miter;stroke-opacity:1" d="M 336.029,663.971 325.813,663.971 z" id="boundary" inkscape:connector-curvature="0" />
	<path style="fill:none;stroke:red;stroke-width:1px;stroke-linecap:butt;stroke-linejoin:miter;stroke-opacity:1" d="M 315.596,663.971 306.402,669.079 z" id="boundary" inkscape:connector-curvature="0" />
	<path style="fill:none;stroke:red;stroke-width:1px;stroke-linecap:butt;stroke-linejoin:miter;stroke-opacity:1" d="M 374.851,653.755 364.634,653.755 z" id="boundary" inkscape:connector-curvature="0" />
	<path style="fill:none;stroke:red;stroke-width:1px;stroke-linecap:butt;stroke-linejoin:miter;stroke-opacity:1" d="M 384.045,648.647 374.851,653.755 z" id="boundary" inkscape:connector-curvature="0" />
	<path style="fill:none;stroke:red;stroke-width:1px;stroke-linecap:butt;stroke-linejoin:miter;stroke-opacity:1" d="M 403.456,643.539 412.651,638.43 z" id="boundary" inkscape:connector-curvature="0" />
	<path style="fill:none;stroke:red;stroke-width:1px;stroke-linecap:butt;stroke-linejoin:miter;stroke-opacity:1" d="M 403.456,643.539 394.262,648.647 z" id="boundary" inkscape:connector-curvature="0" />
	<path style="fill:none;stroke:red;stroke-width:1px;stroke-linecap:butt;stroke-linejoin:miter;stroke-opacity:1" d="M 394.262,648.647 384.045,648.647 z" id="boundary" inkscape:connector-curvature="0" />
	<path style="fill:none;stroke:red;stroke-width:1px;stroke-linecap:butt;stroke-linejoin:miter;stroke-opacity:1" d="M 355.44,658.863 364.634,653.755 z" id="boundary" inkscape:connector-curvature="0" />
	<path style="fill:none;stroke:red;stroke-width:1px;stroke-linecap:butt;stroke-linejoin:miter;stroke-opacity:1" d="M 355.44,658.863 345.223,658.863 z" id="boundary" inkscape:connector-curvature="0" />
	<path style="fill:none;stroke:red;stroke-width:1px;stroke-linecap:butt;stroke-linejoin:miter;stroke-opacity:1" d="M 265.537,674.187 275.753,674.187 z" id="boundary" inkscape:connector-curvature="0" />
	<path style="fill:none;stroke:red;stroke-width:1px;stroke-linecap:butt;stroke-linejoin:miter;stroke-opacity:1" d="M 275.753,674.187 285.969,669.079 z" id="boundary" inkscape:connector-curvature="0" />
	<path style="fill:none;stroke:red;stroke-width:1px;stroke-linecap:butt;stroke-linejoin:miter;stroke-opacity:1" d="M 296.185,669.079 285.969,669.079 z" id="boundary" inkscape:connector-curvature="0" />
	<path style="fill:none;stroke:red;stroke-width:1px;stroke-linecap:butt;stroke-linejoin:miter;stroke-opacity:1" d="M 255.32,679.296 265.537,674.187 z" id="boundary" inkscape:connector-curvature="0" />
	<path style="fill:none;stroke:red;stroke-width:1px;stroke-linecap:butt;stroke-linejoin:miter;stroke-opacity:1" d="M 296.185,669.079 306.402,669.079 z" id="boundary" inkscape:connector-curvature="0" />
	<path style="fill:none;stroke:red;stroke-width:1px;stroke-linecap:butt;stroke-linejoin:miter;stroke-opacity:1" d="M 453.516,32.6056 443.3,37.7137 z" id="boundary" inkscape:connector-curvature="0" />
	<path style="fill:none;stroke:red;stroke-width:1px;stroke-linecap:butt;stroke-linejoin:miter;stroke-opacity:1" d="M 453.516,6.04325 459.646,14.2163 z" id="boundary" inkscape:connector-curvature="0" />
	<path style="fill:none;stroke:red;stroke-width:1px;stroke-linecap:butt;stroke-linejoin:miter;stroke-opacity:1" d="M 443.3,4 453.516,6.04325 z" id="boundary" inkscape:connector-curvature="0" />
	<path style="fill:none;stroke:red;stroke-width:1px;stroke-linecap:butt;stroke-linejoin:miter;stroke-opacity:1" d="M 461.689,24.4325 453.516,32.6056 z" id="boundary" inkscape:connector-curvature="0" />
	<path style="fill:none;stroke:red;stroke-width:1px;stroke-linecap:butt;stroke-linejoin:miter;stroke-opacity:1" d="M 459.646,14.2163 461.689,24.4325 z" id="boundary" inkscape:connector-curvature="0" />
	<path style="fill:none;stroke:red;stroke-width:1px;stroke-linecap:butt;stroke-linejoin:miter;stroke-opacity:1" d="M 434.105,102.076 434.105,112.292 z" id="boundary" inkscape:connector-curvature="0" />
	<path style="fill:none;stroke:red;stroke-width:1px;stroke-linecap:butt;stroke-linejoin:miter;stroke-opacity:1" d="M 459.646,131.703 449.429,131.703 z" id="boundary" inkscape:connector-curvature="0" />
	<path style="fill:none;stroke:red;stroke-width:1px;stroke-linecap:butt;stroke-linejoin:miter;stroke-opacity:1" d="M 439.213,131.703 434.105,122.509 z" id="boundary" inkscape:connector-curvature="0" />
	<path style="fill:none;stroke:red;stroke-width:1px;stroke-linecap:butt;stroke-linejoin:miter;stroke-opacity:1" d="M 449.429,131.703 439.213,131.703 z" id="boundary" inkscape:connector-curvature="0" />
	<path style="fill:none;stroke:red;stroke-width:1px;stroke-linecap:butt;stroke-linejoin:miter;stroke-opacity:1" d="M 434.105,122.509 434.105,112.292 z" id="boundary" inkscape:connector-curvature="0" />
	<path style="fill:none;stroke:red;stroke-width:1px;stroke-linecap:butt;stroke-linejoin:miter;stroke-opacity:1" d="M 479.057,126.595 468.84,126.595 z" id="boundary" inkscape:connector-curvature="0" />
	<path style="fill:none;stroke:red;stroke-width:1px;stroke-linecap:butt;stroke-linejoin:miter;stroke-opacity:1" d="M 468.84,126.595 459.646,131.703 z" id="boundary" inkscape:connector-curvature="0" />
	<path style="fill:none;stroke:red;stroke-width:1px;stroke-linecap:butt;stroke-linejoin:miter;stroke-opacity:1" d="M 489.273,128.639 499.489,131.703 z" id="boundary" inkscape:connector-curvature="0" />
	<path style="fill:none;stroke:red;stroke-width:1px;stroke-linecap:butt;stroke-linejoin:miter;stroke-opacity:1" d="M 489.273,128.639 479.057,126.595 z" id="boundary" inkscape:connector-curvature="0" />
	<path style="fill:none;stroke:red;stroke-width:1px;stroke-linecap:butt;stroke-linejoin:miter;stroke-opacity:1" d="M 509.705,133.747 499.489,131.703 z" id="boundary" inkscape:connector-curvature="0" />
	<path style="fill:none;stroke:red;stroke-width:1px;stroke-linecap:butt;stroke-linejoin:miter;stroke-opacity:1" d="M 519.922,136.812 509.705,133.747 z" id="boundary" inkscape:connector-curvature="0" />
	<path style="fill:none;stroke:red;stroke-width:1px;stroke-linecap:butt;stroke-linejoin:miter;stroke-opacity:1" d="M 519.922,136.812 530.138,136.812 z" id="boundary" inkscape:connector-curvature="0" />
	<path style="fill:none;stroke:red;stroke-width:1px;stroke-linecap:butt;stroke-linejoin:miter;stroke-opacity:1" d="M 539.333,141.92 530.138,136.812 z" id="boundary" inkscape:connector-curvature="0" />
	<path style="fill:none;stroke:red;stroke-width:1px;stroke-linecap:butt;stroke-linejoin:miter;stroke-opacity:1" d="M 549.549,141.92 539.333,141.92 z" id="boundary" inkscape:connector-curvature="0" />
	<path style="fill:none;stroke:red;stroke-width:1px;stroke-linecap:butt;stroke-linejoin:miter;stroke-opacity:1" d="M 559.765,141.92 549.549,141.92 z" id="boundary" inkscape:connector-curvature="0" />
	<path style="fill:none;stroke:red;stroke-width:1px;stroke-linecap:butt;stroke-linejoin:miter;stroke-opacity:1" d="M 590.414,141.92 580.198,141.92 z" id="boundary" inkscape:connector-curvature="0" />
	<path style="fill:none;stroke:red;stroke-width:1px;stroke-linecap:butt;stroke-linejoin:miter;stroke-opacity:1" d="M 663.971,162.352 653.755,162.352 z" id="boundary" inkscape:connector-curvature="0" />
	<path style="fill:none;stroke:red;stroke-width:1px;stroke-linecap:butt;stroke-linejoin:miter;stroke-opacity:1" d="M 569.981,141.92 559.765,141.92 z" id="boundary" inkscape:connector-curvature="0" />
	<path style="fill:none;stroke:red;stroke-width:1px;stroke-linecap:butt;stroke-linejoin:miter;stroke-opacity:1" d="M 569.981,141.92 580.198,141.92 z" id="boundary" inkscape:connector-curvature="0" />
	<path style="fill:none;stroke:red;stroke-width:1px;stroke-linecap:butt;stroke-linejoin:miter;stroke-opacity:1" d="M 599.609,147.028 590.414,141.92 z" id="boundary" inkscape:connector-curvature="0" />
	<path style="fill:none;stroke:red;stroke-width:1px;stroke-linecap:butt;stroke-linejoin:miter;stroke-opacity:1" d="M 607.782,153.158 612.89,162.352 z" id="boundary" inkscape:connector-curvature="0" />
	<path style="fill:none;stroke:red;stroke-width:1px;stroke-linecap:butt;stroke-linejoin:miter;stroke-opacity:1" d="M 607.782,153.158 599.609,147.028 z" id="boundary" inkscape:connector-curvature="0" />
	<path style="fill:none;stroke:red;stroke-width:1px;stroke-linecap:butt;stroke-linejoin:miter;stroke-opacity:1" d="M 623.106,162.352 612.89,162.352 z" id="boundary" inkscape:connector-curvature="0" />
	<path style="fill:none;stroke:red;stroke-width:1px;stroke-linecap:butt;stroke-linejoin:miter;stroke-opacity:1" d="M 631.279,245.104 622.084,250.212 z" id="boundary" inkscape:connector-curvature="0" />
	<path style="fill:none;stroke:red;stroke-width:1px;stroke-linecap:butt;stroke-linejoin:miter;stroke-opacity:1" d="M 633.322,162.352 623.106,162.352 z" id="boundary" inkscape:connector-curvature="0" />
	<path style="fill:none;stroke:red;stroke-width:1px;stroke-linecap:butt;stroke-linejoin:miter;stroke-opacity:1" d="M 612.89,255.32 614.933,265.537 z" id="boundary" inkscape:connector-curvature="0" />
	<path style="fill:none;stroke:red;stroke-width:1px;stroke-linecap:butt;stroke-linejoin:miter;stroke-opacity:1" d="M 612.89,255.32 622.084,250.212 z" id="boundary" inkscape:connector-curvature="0" />
	<path style="fill:none;stroke:red;stroke-width:1px;stroke-linecap:butt;stroke-linejoin:miter;stroke-opacity:1" d="M 633.322,162.352 643.539,162.352 z" id="boundary" inkscape:connector-curvature="0" />
	<path style="fill:none;stroke:red;stroke-width:1px;stroke-linecap:butt;stroke-linejoin:miter;stroke-opacity:1" d="M 671.123,234.888 660.906,238.974 z" id="boundary" inkscape:connector-curvature="0" />
	<path style="fill:none;stroke:red;stroke-width:1px;stroke-linecap:butt;stroke-linejoin:miter;stroke-opacity:1" d="M 643.539,162.352 653.755,162.352 z" id="boundary" inkscape:connector-curvature="0" />
	<path style="fill:none;stroke:red;stroke-width:1px;stroke-linecap:butt;stroke-linejoin:miter;stroke-opacity:1" d="M 660.906,238.974 650.69,239.996 z" id="boundary" inkscape:connector-curvature="0" />
	<path style="fill:none;stroke:red;stroke-width:1px;stroke-linecap:butt;stroke-linejoin:miter;stroke-opacity:1" d="M 640.474,239.996 631.279,245.104 z" id="boundary" inkscape:connector-curvature="0" />
	<path style="fill:none;stroke:red;stroke-width:1px;stroke-linecap:butt;stroke-linejoin:miter;stroke-opacity:1" d="M 614.933,265.537 623.106,272.688 z" id="boundary" inkscape:connector-curvature="0" />
	<path style="fill:none;stroke:red;stroke-width:1px;stroke-linecap:butt;stroke-linejoin:miter;stroke-opacity:1" d="M 631.279,279.839 623.106,272.688 z" id="boundary" inkscape:connector-curvature="0" />
	<path style="fill:none;stroke:red;stroke-width:1px;stroke-linecap:butt;stroke-linejoin:miter;stroke-opacity:1" d="M 640.474,284.947 631.279,279.839 z" id="boundary" inkscape:connector-curvature="0" />
	<path style="fill:none;stroke:red;stroke-width:1px;stroke-linecap:butt;stroke-linejoin:miter;stroke-opacity:1" d="M 660.906,279.839 650.69,279.839 z" id="boundary" inkscape:connector-curvature="0" />
	<path style="fill:none;stroke:red;stroke-width:1px;stroke-linecap:butt;stroke-linejoin:miter;stroke-opacity:1" d="M 650.69,279.839 640.474,284.947 z" id="boundary" inkscape:connector-curvature="0" />
	<path style="fill:none;stroke:red;stroke-width:1px;stroke-linecap:butt;stroke-linejoin:miter;stroke-opacity:1" d="M 640.474,239.996 650.69,239.996 z" id="boundary" inkscape:connector-curvature="0" />
	<path style="fill:none;stroke:red;stroke-width:1px;stroke-linecap:butt;stroke-linejoin:miter;stroke-opacity:1" d="M 673.166,167.46 663.971,162.352 z" id="boundary" inkscape:connector-curvature="0" />
	<path style="fill:none;stroke:red;stroke-width:1px;stroke-linecap:butt;stroke-linejoin:miter;stroke-opacity:1" d="M 682.36,172.568 673.166,167.46 z" id="boundary" inkscape:connector-curvature="0" />
	<path style="fill:none;stroke:red;stroke-width:1px;stroke-linecap:butt;stroke-linejoin:miter;stroke-opacity:1" d="M 682.36,172.568 689.512,180.742 z" id="boundary" inkscape:connector-curvature="0" />
	<path style="fill:none;stroke:red;stroke-width:1px;stroke-linecap:butt;stroke-linejoin:miter;stroke-opacity:1" d="M 694.62,189.936 694.62,200.152 z" id="boundary" inkscape:connector-curvature="0" />
	<path style="fill:none;stroke:red;stroke-width:1px;stroke-linecap:butt;stroke-linejoin:miter;stroke-opacity:1" d="M 694.62,189.936 689.512,180.742 z" id="boundary" inkscape:connector-curvature="0" />
	<path style="fill:none;stroke:red;stroke-width:1px;stroke-linecap:butt;stroke-linejoin:miter;stroke-opacity:1" d="M 680.317,229.78 671.123,234.888 z" id="boundary" inkscape:connector-curvature="0" />
	<path style="fill:none;stroke:red;stroke-width:1px;stroke-linecap:butt;stroke-linejoin:miter;stroke-opacity:1" d="M 689.512,219.563 680.317,229.78 z" id="boundary" inkscape:connector-curvature="0" />
	<path style="fill:none;stroke:red;stroke-width:1px;stroke-linecap:butt;stroke-linejoin:miter;stroke-opacity:1" d="M 694.62,210.369 689.512,219.563 z" id="boundary" inkscape:connector-curvature="0" />
	<path style="fill:none;stroke:red;stroke-width:1px;stroke-linecap:butt;stroke-linejoin:miter;stroke-opacity:1" d="M 694.62,200.152 694.62,210.369 z" id="boundary" inkscape:connector-curvature="0" />
	<path style="fill:none;stroke:red;stroke-width:1px;stroke-linecap:butt;stroke-linejoin:miter;stroke-opacity:1" d="M 849.907,249.191 839.691,249.191 z" id="boundary" inkscape:connector-curvature="0" />
	<path style="fill:none;stroke:red;stroke-width:1px;stroke-linecap:butt;stroke-linejoin:miter;stroke-opacity:1" d="M 900.989,249.191 890.772,249.191 z" id="boundary" inkscape:connector-curvature="0" />
	<path style="fill:none;stroke:red;stroke-width:1px;stroke-linecap:butt;stroke-linejoin:miter;stroke-opacity:1" d="M 809.042,249.191 819.258,249.191 z" id="boundary" inkscape:connector-curvature="0" />
	<path style="fill:none;stroke:red;stroke-width:1px;stroke-linecap:butt;stroke-linejoin:miter;stroke-opacity:1" d="M 829.475,249.191 839.691,249.191 z" id="boundary" inkscape:connector-curvature="0" />
	<path style="fill:none;stroke:red;stroke-width:1px;stroke-linecap:butt;stroke-linejoin:miter;stroke-opacity:1" d="M 829.475,249.191 819.258,249.191 z" id="boundary" inkscape:connector-curvature="0" />
	<path style="fill:none;stroke:red;stroke-width:1px;stroke-linecap:butt;stroke-linejoin:miter;stroke-opacity:1" d="M 860.124,249.191 849.907,249.191 z" id="boundary" inkscape:connector-curvature="0" />
	<path style="fill:none;stroke:red;stroke-width:1px;stroke-linecap:butt;stroke-linejoin:miter;stroke-opacity:1" d="M 860.124,249.191 870.34,249.191 z" id="boundary" inkscape:connector-curvature="0" />
	<path style="fill:none;stroke:red;stroke-width:1px;stroke-linecap:butt;stroke-linejoin:miter;stroke-opacity:1" d="M 880.556,249.191 890.772,249.191 z" id="boundary" inkscape:connector-curvature="0" />
	<path style="fill:none;stroke:red;stroke-width:1px;stroke-linecap:butt;stroke-linejoin:miter;stroke-opacity:1" d="M 880.556,249.191 870.34,249.191 z" id="boundary" inkscape:connector-curvature="0" />
	<path style="fill:none;stroke:red;stroke-width:1px;stroke-linecap:butt;stroke-linejoin:miter;stroke-opacity:1" d="M 809.042,249.191 799.848,254.299 z" id="boundary" inkscape:connector-curvature="0" />
	<path style="fill:none;stroke:red;stroke-width:1px;stroke-linecap:butt;stroke-linejoin:miter;stroke-opacity:1" d="M 771.242,264.515 761.026,264.515 z" id="boundary" inkscape:connector-curvature="0" />
	<path style="fill:none;stroke:red;stroke-width:1px;stroke-linecap:butt;stroke-linejoin:miter;stroke-opacity:1" d="M 780.437,259.407 771.242,264.515 z" id="boundary" inkscape:connector-curvature="0" />
	<path style="fill:none;stroke:red;stroke-width:1px;stroke-linecap:butt;stroke-linejoin:miter;stroke-opacity:1" d="M 780.437,259.407 789.631,254.299 z" id="boundary" inkscape:connector-curvature="0" />
	<path style="fill:none;stroke:red;stroke-width:1px;stroke-linecap:butt;stroke-linejoin:miter;stroke-opacity:1" d="M 799.848,254.299 789.631,254.299 z" id="boundary" inkscape:connector-curvature="0" />
	<path style="fill:none;stroke:red;stroke-width:1px;stroke-linecap:butt;stroke-linejoin:miter;stroke-opacity:1" d="M 750.809,266.558 740.593,269.623 z" id="boundary" inkscape:connector-curvature="0" />
	<path style="fill:none;stroke:red;stroke-width:1px;stroke-linecap:butt;stroke-linejoin:miter;stroke-opacity:1" d="M 740.593,269.623 730.377,269.623 z" id="boundary" inkscape:connector-curvature="0" />
	<path style="fill:none;stroke:red;stroke-width:1px;stroke-linecap:butt;stroke-linejoin:miter;stroke-opacity:1" d="M 750.809,266.558 761.026,264.515 z" id="boundary" inkscape:connector-curvature="0" />
	<path style="fill:none;stroke:red;stroke-width:1px;stroke-linecap:butt;stroke-linejoin:miter;stroke-opacity:1" d="M 730.377,269.623 721.182,274.731 z" id="boundary" inkscape:connector-curvature="0" />
	<path style="fill:none;stroke:red;stroke-width:1px;stroke-linecap:butt;stroke-linejoin:miter;stroke-opacity:1" d="M 681.339,279.839 690.533,274.731 z" id="boundary" inkscape:connector-curvature="0" />
	<path style="fill:none;stroke:red;stroke-width:1px;stroke-linecap:butt;stroke-linejoin:miter;stroke-opacity:1" d="M 700.75,274.731 690.533,274.731 z" id="boundary" inkscape:connector-curvature="0" />
	<path style="fill:none;stroke:red;stroke-width:1px;stroke-linecap:butt;stroke-linejoin:miter;stroke-opacity:1" d="M 710.966,274.731 721.182,274.731 z" id="boundary" inkscape:connector-curvature="0" />
	<path style="fill:none;stroke:red;stroke-width:1px;stroke-linecap:butt;stroke-linejoin:miter;stroke-opacity:1" d="M 710.966,274.731 700.75,274.731 z" id="boundary" inkscape:connector-curvature="0" />
	<path style="fill:none;stroke:red;stroke-width:1px;stroke-linecap:butt;stroke-linejoin:miter;stroke-opacity:1" d="M 660.906,279.839 671.123,279.839 z" id="boundary" inkscape:connector-curvature="0" />
	<path style="fill:none;stroke:red;stroke-width:1px;stroke-linecap:butt;stroke-linejoin:miter;stroke-opacity:1" d="M 671.123,279.839 681.339,279.839 z" id="boundary" inkscape:connector-curvature="0" />
	<path style="fill:none;stroke:red;stroke-width:1px;stroke-linecap:butt;stroke-linejoin:miter;stroke-opacity:1" d="M 900.989,249.191 911.205,249.191 z" id="boundary" inkscape:connector-curvature="0" />
	<path style="fill:none;stroke:red;stroke-width:1px;stroke-linecap:butt;stroke-linejoin:miter;stroke-opacity:1" d="M 921.421,249.191 911.205,249.191 z" id="boundary" inkscape:connector-curvature="0" />
	<path style="fill:none;stroke:red;stroke-width:1px;stroke-linecap:butt;stroke-linejoin:miter;stroke-opacity:1" d="M 931.637,249.191 941.854,249.191 z" id="boundary" inkscape:connector-curvature="0" />
	<path style="fill:none;stroke:red;stroke-width:1px;stroke-linecap:butt;stroke-linejoin:miter;stroke-opacity:1" d="M 952.07,249.191 962.286,249.191 z" id="boundary" inkscape:connector-curvature="0" />
	<path style="fill:none;stroke:red;stroke-width:1px;stroke-linecap:butt;stroke-linejoin:miter;stroke-opacity:1" d="M 952.07,249.191 941.854,249.191 z" id="boundary" inkscape:connector-curvature="0" />
	<path style="fill:none;stroke:red;stroke-width:1px;stroke-linecap:butt;stroke-linejoin:miter;stroke-opacity:1" d="M 931.637,249.191 921.421,249.191 z" id="boundary" inkscape:connector-curvature="0" />
	<path style="fill:none;stroke:red;stroke-width:1px;stroke-linecap:butt;stroke-linejoin:miter;stroke-opacity:1" d="M 972.503,249.191 982.719,249.191 z" id="boundary" inkscape:connector-curvature="0" />
	<path style="fill:none;stroke:red;stroke-width:1px;stroke-linecap:butt;stroke-linejoin:miter;stroke-opacity:1" d="M 982.719,249.191 991.913,254.299 z" id="boundary" inkscape:connector-curvature="0" />
	<path style="fill:none;stroke:red;stroke-width:1px;stroke-linecap:butt;stroke-linejoin:miter;stroke-opacity:1" d="M 991.913,254.299 996,270.645 z" id="boundary" inkscape:connector-curvature="0" />
	<path style="fill:none;stroke:red;stroke-width:1px;stroke-linecap:butt;stroke-linejoin:miter;stroke-opacity:1" d="M 996,270.645 990.892,280.861 z" id="boundary" inkscape:connector-curvature="0" />
	<path style="fill:none;stroke:red;stroke-width:1px;stroke-linecap:butt;stroke-linejoin:miter;stroke-opacity:1" d="M 962.286,249.191 972.503,249.191 z" id="boundary" inkscape:connector-curvature="0" />
	<path style="fill:none;stroke:red;stroke-width:1px;stroke-linecap:butt;stroke-linejoin:miter;stroke-opacity:1" d="M 983.74,289.034 990.892,280.861 z" id="boundary" inkscape:connector-curvature="0" />
	<path style="fill:none;stroke:red;stroke-width:1px;stroke-linecap:butt;stroke-linejoin:miter;stroke-opacity:1" d="M 983.74,289.034 975.567,296.185 z" id="boundary" inkscape:connector-curvature="0" />
	<path style="fill:none;stroke:red;stroke-width:1px;stroke-linecap:butt;stroke-linejoin:miter;stroke-opacity:1" d="M 689.512,418.781 689.512,428.997 z" id="boundary" inkscape:connector-curvature="0" />
	<path style="fill:none;stroke:red;stroke-width:1px;stroke-linecap:butt;stroke-linejoin:miter;stroke-opacity:1" d="M 689.512,418.781 699.728,418.781 z" id="boundary" inkscape:connector-curvature="0" />
	<path style="fill:none;stroke:red;stroke-width:1px;stroke-linecap:butt;stroke-linejoin:miter;stroke-opacity:1" d="M 689.512,428.997 689.512,439.213 z" id="boundary" inkscape:connector-curvature="0" />
	<path style="fill:none;stroke:red;stroke-width:1px;stroke-linecap:butt;stroke-linejoin:miter;stroke-opacity:1" d="M 709.944,418.781 699.728,418.781 z" id="boundary" inkscape:connector-curvature="0" />
	<path style="fill:none;stroke:red;stroke-width:1px;stroke-linecap:butt;stroke-linejoin:miter;stroke-opacity:1" d="M 719.139,413.673 709.944,418.781 z" id="boundary" inkscape:connector-curvature="0" />
	<path style="fill:none;stroke:red;stroke-width:1px;stroke-linecap:butt;stroke-linejoin:miter;stroke-opacity:1" d="M 694.62,448.408 689.512,439.213 z" id="boundary" inkscape:connector-curvature="0" />
	<path style="fill:none;stroke:red;stroke-width:1px;stroke-linecap:butt;stroke-linejoin:miter;stroke-opacity:1" d="M 704.836,448.408 694.62,448.408 z" id="boundary" inkscape:connector-curvature="0" />
	<path style="fill:none;stroke:red;stroke-width:1px;stroke-linecap:butt;stroke-linejoin:miter;stroke-opacity:1" d="M 715.053,448.408 704.836,448.408 z" id="boundary" inkscape:connector-curvature="0" />
	<path style="fill:none;stroke:red;stroke-width:1px;stroke-linecap:butt;stroke-linejoin:miter;stroke-opacity:1" d="M 452.494,564.873 462.711,561.808 z" id="boundary" inkscape:connector-curvature="0" />
	<path style="fill:none;stroke:red;stroke-width:1px;stroke-linecap:butt;stroke-linejoin:miter;stroke-opacity:1" d="M 472.927,561.808 462.711,561.808 z" id="boundary" inkscape:connector-curvature="0" />
	<path style="fill:none;stroke:red;stroke-width:1px;stroke-linecap:butt;stroke-linejoin:miter;stroke-opacity:1" d="M 444.321,582.241 444.321,592.457 z" id="boundary" inkscape:connector-curvature="0" />
	<path style="fill:none;stroke:red;stroke-width:1px;stroke-linecap:butt;stroke-linejoin:miter;stroke-opacity:1" d="M 444.321,582.241 444.321,572.025 z" id="boundary" inkscape:connector-curvature="0" />
	<path style="fill:none;stroke:red;stroke-width:1px;stroke-linecap:butt;stroke-linejoin:miter;stroke-opacity:1" d="M 444.321,572.025 452.494,564.873 z" id="boundary" inkscape:connector-curvature="0" />
	<path style="fill:none;stroke:red;stroke-width:1px;stroke-linecap:butt;stroke-linejoin:miter;stroke-opacity:1" d="M 472.927,561.808 483.143,561.808 z" id="boundary" inkscape:connector-curvature="0" />
	<path style="fill:none;stroke:red;stroke-width:1px;stroke-linecap:butt;stroke-linejoin:miter;stroke-opacity:1" d="M 493.359,561.808 483.143,561.808 z" id="boundary" inkscape:connector-curvature="0" />
	<path style="fill:none;stroke:red;stroke-width:1px;stroke-linecap:butt;stroke-linejoin:miter;stroke-opacity:1" d="M 493.359,561.808 503.576,561.808 z" id="boundary" inkscape:connector-curvature="0" />
	<path style="fill:none;stroke:red;stroke-width:1px;stroke-linecap:butt;stroke-linejoin:miter;stroke-opacity:1" d="M 513.792,561.808 503.576,561.808 z" id="boundary" inkscape:connector-curvature="0" />
	<path style="fill:none;stroke:red;stroke-width:1px;stroke-linecap:butt;stroke-linejoin:miter;stroke-opacity:1" d="M 513.792,561.808 524.008,561.808 z" id="boundary" inkscape:connector-curvature="0" />
	<path style="fill:none;stroke:red;stroke-width:1px;stroke-linecap:butt;stroke-linejoin:miter;stroke-opacity:1" d="M 534.225,561.808 524.008,561.808 z" id="boundary" inkscape:connector-curvature="0" />
	<path style="fill:none;stroke:red;stroke-width:1px;stroke-linecap:butt;stroke-linejoin:miter;stroke-opacity:1" d="M 534.225,561.808 544.441,561.808 z" id="boundary" inkscape:connector-curvature="0" />
	<path style="fill:none;stroke:red;stroke-width:1px;stroke-linecap:butt;stroke-linejoin:miter;stroke-opacity:1" d="M 554.657,561.808 544.441,561.808 z" id="boundary" inkscape:connector-curvature="0" />
	<path style="fill:none;stroke:red;stroke-width:1px;stroke-linecap:butt;stroke-linejoin:miter;stroke-opacity:1" d="M 444.321,602.674 444.321,592.457 z" id="boundary" inkscape:connector-curvature="0" />
	<path style="fill:none;stroke:red;stroke-width:1px;stroke-linecap:butt;stroke-linejoin:miter;stroke-opacity:1" d="M 439.213,617.998 444.321,602.674 z" id="boundary" inkscape:connector-curvature="0" />
	<path style="fill:none;stroke:red;stroke-width:1px;stroke-linecap:butt;stroke-linejoin:miter;stroke-opacity:1" d="M 554.657,561.808 564.873,561.808 z" id="boundary" inkscape:connector-curvature="0" />
	<path style="fill:none;stroke:red;stroke-width:1px;stroke-linecap:butt;stroke-linejoin:miter;stroke-opacity:1" d="M 655.798,550.571 645.582,551.592 z" id="boundary" inkscape:connector-curvature="0" />
	<path style="fill:none;stroke:red;stroke-width:1px;stroke-linecap:butt;stroke-linejoin:miter;stroke-opacity:1" d="M 614.933,556.7 625.149,556.7 z" id="boundary" inkscape:connector-curvature="0" />
	<path style="fill:none;stroke:red;stroke-width:1px;stroke-linecap:butt;stroke-linejoin:miter;stroke-opacity:1" d="M 635.366,555.679 645.582,551.592 z" id="boundary" inkscape:connector-curvature="0" />
	<path style="fill:none;stroke:red;stroke-width:1px;stroke-linecap:butt;stroke-linejoin:miter;stroke-opacity:1" d="M 635.366,555.679 625.149,556.7 z" id="boundary" inkscape:connector-curvature="0" />
	<path style="fill:none;stroke:red;stroke-width:1px;stroke-linecap:butt;stroke-linejoin:miter;stroke-opacity:1" d="M 614.933,556.7 605.738,561.808 z" id="boundary" inkscape:connector-curvature="0" />
	<path style="fill:none;stroke:red;stroke-width:1px;stroke-linecap:butt;stroke-linejoin:miter;stroke-opacity:1" d="M 694.62,536.268 685.425,541.376 z" id="boundary" inkscape:connector-curvature="0" />
	<path style="fill:none;stroke:red;stroke-width:1px;stroke-linecap:butt;stroke-linejoin:miter;stroke-opacity:1" d="M 704.836,531.16 694.62,536.268 z" id="boundary" inkscape:connector-curvature="0" />
	<path style="fill:none;stroke:red;stroke-width:1px;stroke-linecap:butt;stroke-linejoin:miter;stroke-opacity:1" d="M 715.053,531.16 704.836,531.16 z" id="boundary" inkscape:connector-curvature="0" />
	<path style="fill:none;stroke:red;stroke-width:1px;stroke-linecap:butt;stroke-linejoin:miter;stroke-opacity:1" d="M 666.014,546.484 675.209,541.376 z" id="boundary" inkscape:connector-curvature="0" />
	<path style="fill:none;stroke:red;stroke-width:1px;stroke-linecap:butt;stroke-linejoin:miter;stroke-opacity:1" d="M 675.209,541.376 685.425,541.376 z" id="boundary" inkscape:connector-curvature="0" />
	<path style="fill:none;stroke:red;stroke-width:1px;stroke-linecap:butt;stroke-linejoin:miter;stroke-opacity:1" d="M 655.798,550.571 666.014,546.484 z" id="boundary" inkscape:connector-curvature="0" />
	<path style="fill:none;stroke:red;stroke-width:1px;stroke-linecap:butt;stroke-linejoin:miter;stroke-opacity:1" d="M 564.873,561.808 575.09,561.808 z" id="boundary" inkscape:connector-curvature="0" />
	<path style="fill:none;stroke:red;stroke-width:1px;stroke-linecap:butt;stroke-linejoin:miter;stroke-opacity:1" d="M 585.306,561.808 575.09,561.808 z" id="boundary" inkscape:connector-curvature="0" />
	<path style="fill:none;stroke:red;stroke-width:1px;stroke-linecap:butt;stroke-linejoin:miter;stroke-opacity:1" d="M 595.522,561.808 605.738,561.808 z" id="boundary" inkscape:connector-curvature="0" />
	<path style="fill:none;stroke:red;stroke-width:1px;stroke-linecap:butt;stroke-linejoin:miter;stroke-opacity:1" d="M 595.522,561.808 585.306,561.808 z" id="boundary" inkscape:connector-curvature="0" />
	<path style="fill:none;stroke:red;stroke-width:1px;stroke-linecap:butt;stroke-linejoin:miter;stroke-opacity:1" d="M 715.053,531.16 725.269,531.16 z" id="boundary" inkscape:connector-curvature="0" />
	<path style="fill:none;stroke:red;stroke-width:1px;stroke-linecap:butt;stroke-linejoin:miter;stroke-opacity:1" d="M 832.54,357.483 822.323,362.591 z" id="boundary" inkscape:connector-curvature="0" />
	<path style="fill:none;stroke:red;stroke-width:1px;stroke-linecap:butt;stroke-linejoin:miter;stroke-opacity:1" d="M 729.355,413.673 719.139,413.673 z" id="boundary" inkscape:connector-curvature="0" />
	<path style="fill:none;stroke:red;stroke-width:1px;stroke-linecap:butt;stroke-linejoin:miter;stroke-opacity:1" d="M 729.355,413.673 739.572,410.608 z" id="boundary" inkscape:connector-curvature="0" />
	<path style="fill:none;stroke:red;stroke-width:1px;stroke-linecap:butt;stroke-linejoin:miter;stroke-opacity:1" d="M 739.572,410.608 749.788,405.499 z" id="boundary" inkscape:connector-curvature="0" />
	<path style="fill:none;stroke:red;stroke-width:1px;stroke-linecap:butt;stroke-linejoin:miter;stroke-opacity:1" d="M 760.004,403.456 749.788,405.499 z" id="boundary" inkscape:connector-curvature="0" />
	<path style="fill:none;stroke:red;stroke-width:1px;stroke-linecap:butt;stroke-linejoin:miter;stroke-opacity:1" d="M 769.199,398.348 760.004,403.456 z" id="boundary" inkscape:connector-curvature="0" />
	<path style="fill:none;stroke:red;stroke-width:1px;stroke-linecap:butt;stroke-linejoin:miter;stroke-opacity:1" d="M 806.999,377.916 796.783,383.024 z" id="boundary" inkscape:connector-curvature="0" />
	<path style="fill:none;stroke:red;stroke-width:1px;stroke-linecap:butt;stroke-linejoin:miter;stroke-opacity:1" d="M 815.172,370.764 806.999,377.916 z" id="boundary" inkscape:connector-curvature="0" />
	<path style="fill:none;stroke:red;stroke-width:1px;stroke-linecap:butt;stroke-linejoin:miter;stroke-opacity:1" d="M 815.172,370.764 822.323,362.591 z" id="boundary" inkscape:connector-curvature="0" />
	<path style="fill:none;stroke:red;stroke-width:1px;stroke-linecap:butt;stroke-linejoin:miter;stroke-opacity:1" d="M 769.199,398.348 778.393,393.24 z" id="boundary" inkscape:connector-curvature="0" />
	<path style="fill:none;stroke:red;stroke-width:1px;stroke-linecap:butt;stroke-linejoin:miter;stroke-opacity:1" d="M 787.588,388.132 796.783,383.024 z" id="boundary" inkscape:connector-curvature="0" />
	<path style="fill:none;stroke:red;stroke-width:1px;stroke-linecap:butt;stroke-linejoin:miter;stroke-opacity:1" d="M 787.588,388.132 778.393,393.24 z" id="boundary" inkscape:connector-curvature="0" />
	<path style="fill:none;stroke:red;stroke-width:1px;stroke-linecap:butt;stroke-linejoin:miter;stroke-opacity:1" d="M 896.902,321.726 887.708,326.834 z" id="boundary" inkscape:connector-curvature="0" />
	<path style="fill:none;stroke:red;stroke-width:1px;stroke-linecap:butt;stroke-linejoin:miter;stroke-opacity:1" d="M 966.373,301.294 975.567,296.185 z" id="boundary" inkscape:connector-curvature="0" />
	<path style="fill:none;stroke:red;stroke-width:1px;stroke-linecap:butt;stroke-linejoin:miter;stroke-opacity:1" d="M 966.373,301.294 957.178,306.402 z" id="boundary" inkscape:connector-curvature="0" />
	<path style="fill:none;stroke:red;stroke-width:1px;stroke-linecap:butt;stroke-linejoin:miter;stroke-opacity:1" d="M 957.178,306.402 946.962,310.488 z" id="boundary" inkscape:connector-curvature="0" />
	<path style="fill:none;stroke:red;stroke-width:1px;stroke-linecap:butt;stroke-linejoin:miter;stroke-opacity:1" d="M 936.746,311.51 927.551,316.618 z" id="boundary" inkscape:connector-curvature="0" />
	<path style="fill:none;stroke:red;stroke-width:1px;stroke-linecap:butt;stroke-linejoin:miter;stroke-opacity:1" d="M 927.551,316.618 917.335,316.618 z" id="boundary" inkscape:connector-curvature="0" />
	<path style="fill:none;stroke:red;stroke-width:1px;stroke-linecap:butt;stroke-linejoin:miter;stroke-opacity:1" d="M 946.962,310.488 936.746,311.51 z" id="boundary" inkscape:connector-curvature="0" />
	<path style="fill:none;stroke:red;stroke-width:1px;stroke-linecap:butt;stroke-linejoin:miter;stroke-opacity:1" d="M 917.335,316.618 907.118,319.683 z" id="boundary" inkscape:connector-curvature="0" />
	<path style="fill:none;stroke:red;stroke-width:1px;stroke-linecap:butt;stroke-linejoin:miter;stroke-opacity:1" d="M 869.318,337.05 860.124,342.159 z" id="boundary" inkscape:connector-curvature="0" />
	<path style="fill:none;stroke:red;stroke-width:1px;stroke-linecap:butt;stroke-linejoin:miter;stroke-opacity:1" d="M 869.318,337.05 878.513,331.942 z" id="boundary" inkscape:connector-curvature="0" />
	<path style="fill:none;stroke:red;stroke-width:1px;stroke-linecap:butt;stroke-linejoin:miter;stroke-opacity:1" d="M 832.54,357.483 841.734,352.375 z" id="boundary" inkscape:connector-curvature="0" />
	<path style="fill:none;stroke:red;stroke-width:1px;stroke-linecap:butt;stroke-linejoin:miter;stroke-opacity:1" d="M 841.734,352.375 850.929,347.267 z" id="boundary" inkscape:connector-curvature="0" />
	<path style="fill:none;stroke:red;stroke-width:1px;stroke-linecap:butt;stroke-linejoin:miter;stroke-opacity:1" d="M 850.929,347.267 860.124,342.159 z" id="boundary" inkscape:connector-curvature="0" />
	<path style="fill:none;stroke:red;stroke-width:1px;stroke-linecap:butt;stroke-linejoin:miter;stroke-opacity:1" d="M 878.513,331.942 887.708,326.834 z" id="boundary" inkscape:connector-curvature="0" />
	<path style="fill:none;stroke:red;stroke-width:1px;stroke-linecap:butt;stroke-linejoin:miter;stroke-opacity:1" d="M 896.902,321.726 907.118,319.683 z" id="boundary" inkscape:connector-curvature="0" />
	<path style="fill:none;stroke:red;stroke-width:1px;stroke-linecap:butt;stroke-linejoin:miter;stroke-opacity:1" d="M 725.269,448.408 733.442,454.538 z" id="boundary" inkscape:connector-curvature="0" />
	<path style="fill:none;stroke:red;stroke-width:1px;stroke-linecap:butt;stroke-linejoin:miter;stroke-opacity:1" d="M 715.053,448.408 725.269,448.408 z" id="boundary" inkscape:connector-curvature="0" />
	<path style="fill:none;stroke:red;stroke-width:1px;stroke-linecap:butt;stroke-linejoin:miter;stroke-opacity:1" d="M 733.442,454.538 740.593,462.711 z" id="boundary" inkscape:connector-curvature="0" />
	<path style="fill:none;stroke:red;stroke-width:1px;stroke-linecap:butt;stroke-linejoin:miter;stroke-opacity:1" d="M 740.593,472.927 740.593,483.143 z" id="boundary" inkscape:connector-curvature="0" />
	<path style="fill:none;stroke:red;stroke-width:1px;stroke-linecap:butt;stroke-linejoin:miter;stroke-opacity:1" d="M 755.918,498.468 748.766,490.295 z" id="boundary" inkscape:connector-curvature="0" />
	<path style="fill:none;stroke:red;stroke-width:1px;stroke-linecap:butt;stroke-linejoin:miter;stroke-opacity:1" d="M 748.766,490.295 740.593,483.143 z" id="boundary" inkscape:connector-curvature="0" />
	<path style="fill:none;stroke:red;stroke-width:1px;stroke-linecap:butt;stroke-linejoin:miter;stroke-opacity:1" d="M 740.593,472.927 740.593,462.711 z" id="boundary" inkscape:connector-curvature="0" />
	<path style="fill:none;stroke:red;stroke-width:1px;stroke-linecap:butt;stroke-linejoin:miter;stroke-opacity:1" d="M 725.269,531.16 735.485,531.16 z" id="boundary" inkscape:connector-curvature="0" />
	<path style="fill:none;stroke:red;stroke-width:1px;stroke-linecap:butt;stroke-linejoin:miter;stroke-opacity:1" d="M 755.918,498.468 755.918,515.835 z" id="boundary" inkscape:connector-curvature="0" />
	<path style="fill:none;stroke:red;stroke-width:1px;stroke-linecap:butt;stroke-linejoin:miter;stroke-opacity:1" d="M 755.918,515.835 745.701,526.051 z" id="boundary" inkscape:connector-curvature="0" />
	<path style="fill:none;stroke:red;stroke-width:1px;stroke-linecap:butt;stroke-linejoin:miter;stroke-opacity:1" d="M 745.701,526.051 735.485,531.16 z" id="boundary" inkscape:connector-curvature="0" />
	<circle cx="4" cy="640.474" r="4" fill="#0" id="circle0"/>
	<circle cx="4" cy="650.69" r="4" fill="#0" id="circle1"/>
	<circle cx="9.10814" cy="471.905" r="4" fill="#0" id="circle2"/>
	<circle cx="9.10814" cy="482.122" r="4" fill="#0" id="circle3"/>
	<circle cx="9.10814" cy="492.338" r="4" fill="#0" id="circle4"/>
	<circle cx="9.10814" cy="502.554" r="4" fill="#0" id="circle5"/>
	<circle cx="9.10814" cy="512.77" r="4" fill="#0" id="circle6"/>
	<circle cx="9.10814" cy="522.987" r="4" fill="#0" id="circle7"/>
	<circle cx="9.10814" cy="659.885" r="4" fill="#0" id="circle8"/>
	<circle cx="12.173" cy="632.301" r="4" fill="#0" id="circle9"/>
	<circle cx="14.2163" cy="425.932" r="4" fill="#0" id="circle10"/>
	<circle cx="14.2163" cy="436.148" r="4" fill="#0" id="circle11"/>
	<circle cx="14.2163" cy="446.365" r="4" fill="#0" id="circle12"/>
	<circle cx="14.2163" cy="456.581" r="4" fill="#0" id="circle13"/>
	<circle cx="14.2163" cy="532.181" r="4" fill="#0" id="circle14"/>
	<circle cx="14.2163" cy="669.079" r="4" fill="#0" id="circle15"/>
	<circle cx="19.3244" cy="405.499" r="4" fill="#0" id="circle16"/>
	<circle cx="19.3244" cy="415.716" r="4" fill="#0" id="circle17"/>
	<circle cx="19.3244" cy="541.376" r="4" fill="#0" id="circle18"/>
	<circle cx="21.3677" cy="627.193" r="4" fill="#0" id="circle19"/>
	<circle cx="23.4109" cy="674.187" r="4" fill="#0" id="circle20"/>
	<circle cx="24.4325" cy="369.743" r="4" fill="#0" id="circle21"/>
	<circle cx="24.4325" cy="379.959" r="4" fill="#0" id="circle22"/>
	<circle cx="24.4325" cy="390.175" r="4" fill="#0" id="circle23"/>
	<circle cx="28.5191" cy="546.484" r="4" fill="#0" id="circle24"/>
	<circle cx="29.5407" cy="359.526" r="4" fill="#0" id="circle25"/>
	<circle cx="31.5839" cy="627.193" r="4" fill="#0" id="circle26"/>
	<circle cx="32.6056" cy="679.296" r="4" fill="#0" id="circle27"/>
	<circle cx="34.6488" cy="333.986" r="4" fill="#0" id="circle28"/>
	<circle cx="34.6488" cy="344.202" r="4" fill="#0" id="circle29"/>
	<circle cx="37.7137" cy="551.592" r="4" fill="#0" id="circle30"/>
	<circle cx="39.757" cy="323.769" r="4" fill="#0" id="circle31"/>
	<circle cx="40.7786" cy="632.301" r="4" fill="#0" id="circle32"/>
	<circle cx="41.8002" cy="684.404" r="4" fill="#0" id="circle33"/>
	<circle cx="44.8651" cy="308.445" r="4" fill="#0" id="circle34"/>
	<circle cx="47.93" cy="551.592" r="4" fill="#0" id="circle35"/>
	<circle cx="48.9516" cy="638.43" r="4" fill="#0" id="circle36"/>
	<circle cx="49.9732" cy="298.229" r="4" fill="#0" id="circle37"/>
	<circle cx="52.0165" cy="684.404" r="4" fill="#0" id="circle38"/>
	<circle cx="56.103" cy="646.604" r="4" fill="#0" id="circle39"/>
	<circle cx="58.1462" cy="290.056" r="4" fill="#0" id="circle40"/>
	<circle cx="58.1462" cy="551.592" r="4" fill="#0" id="circle41"/>
	<circle cx="62.2327" cy="684.404" r="4" fill="#0" id="circle42"/>
	<circle cx="65.2976" cy="277.796" r="4" fill="#0" id="circle43"/>
	<circle cx="66.3193" cy="647.625" r="4" fill="#0" id="circle44"/>
	<circle cx="68.3625" cy="551.592" r="4" fill="#0" id="circle45"/>
	<circle cx="72.449" cy="684.404" r="4" fill="#0" id="circle46"/>
	<circle cx="73.4706" cy="269.623" r="4" fill="#0" id="circle47"/>
	<circle cx="76.5355" cy="647.625" r="4" fill="#0" id="circle48"/>
	<circle cx="78.5788" cy="551.592" r="4" fill="#0" id="circle49"/>
	<circle cx="81.6437" cy="261.45" r="4" fill="#0" id="circle50"/>
	<circle cx="82.6653" cy="684.404" r="4" fill="#0" id="circle51"/>
	<circle cx="86.7518" cy="647.625" r="4" fill="#0" id="circle52"/>
	<circle cx="88.7951" cy="555.679" r="4" fill="#0" id="circle53"/>
	<circle cx="89.8167" cy="254.299" r="4" fill="#0" id="circle54"/>
	<circle cx="92.8816" cy="684.404" r="4" fill="#0" id="circle55"/>
	<circle cx="96.9681" cy="246.126" r="4" fill="#0" id="circle56"/>
	<circle cx="96.9681" cy="644.56" r="4" fill="#0" id="circle57"/>
	<circle cx="99.0113" cy="556.7" r="4" fill="#0" id="circle58"/>
	<circle cx="103.098" cy="684.404" r="4" fill="#0" id="circle59"/>
	<circle cx="105.141" cy="238.974" r="4" fill="#0" id="circle60"/>
	<circle cx="107.184" cy="642.517" r="4" fill="#0" id="circle61"/>
	<circle cx="109.228" cy="556.7" r="4" fill="#0" id="circle62"/>
	<circle cx="112.292" cy="230.801" r="4" fill="#0" id="circle63"/>
	<circle cx="113.314" cy="684.404" r="4" fill="#0" id="circle64"/>
	<circle cx="117.401" cy="642.517" r="4" fill="#0" id="circle65"/>
	<circle cx="119.444" cy="556.7" r="4" fill="#0" id="circle66"/>
	<circle cx="120.465" cy="223.65" r="4" fill="#0" id="circle67"/>
	<circle cx="123.53" cy="684.404" r="4" fill="#0" id="circle68"/>
	<circle cx="127.617" cy="215.477" r="4" fill="#0" id="circle69"/>
	<circle cx="127.617" cy="642.517" r="4" fill="#0" id="circle70"/>
	<circle cx="129.66" cy="560.787" r="4" fill="#0" id="circle71"/>
	<circle cx="133.747" cy="684.404" r="4" fill="#0" id="circle72"/>
	<circle cx="135.79" cy="208.325" r="4" fill="#0" id="circle73"/>
	<circle cx="137.833" cy="642.517" r="4" fill="#0" id="circle74"/>
	<circle cx="139.876" cy="561.808" r="4" fill="#0" id="circle75"/>
	<circle cx="143.963" cy="684.404" r="4" fill="#0" id="circle76"/>
	<circle cx="144.985" cy="203.217" r="4" fill="#0" id="circle77"/>
	<circle cx="148.049" cy="642.517" r="4" fill="#0" id="circle78"/>
	<circle cx="150.093" cy="561.808" r="4" fill="#0" id="circle79"/>
	<circle cx="154.179" cy="684.404" r="4" fill="#0" id="circle80"/>
	<circle cx="155.201" cy="198.109" r="4" fill="#0" id="circle81"/>
	<circle cx="157.244" cy="637.409" r="4" fill="#0" id="circle82"/>
	<circle cx="159.287" cy="566.917" r="4" fill="#0" id="circle83"/>
	<circle cx="164.395" cy="684.404" r="4" fill="#0" id="circle84"/>
	<circle cx="165.417" cy="193.001" r="4" fill="#0" id="circle85"/>
	<circle cx="166.439" cy="632.301" r="4" fill="#0" id="circle86"/>
	<circle cx="169.504" cy="566.917" r="4" fill="#0" id="circle87"/>
	<circle cx="174.612" cy="684.404" r="4" fill="#0" id="circle88"/>
	<circle cx="175.633" cy="187.893" r="4" fill="#0" id="circle89"/>
	<circle cx="176.655" cy="632.301" r="4" fill="#0" id="circle90"/>
	<circle cx="178.698" cy="572.025" r="4" fill="#0" id="circle91"/>
	<circle cx="184.828" cy="684.404" r="4" fill="#0" id="circle92"/>
	<circle cx="185.85" cy="182.785" r="4" fill="#0" id="circle93"/>
	<circle cx="186.871" cy="632.301" r="4" fill="#0" id="circle94"/>
	<circle cx="187.893" cy="577.133" r="4" fill="#0" id="circle95"/>
	<circle cx="195.044" cy="177.677" r="4" fill="#0" id="circle96"/>
	<circle cx="195.044" cy="684.404" r="4" fill="#0" id="circle97"/>
	<circle cx="196.066" cy="627.193" r="4" fill="#0" id="circle98"/>
	<circle cx="198.109" cy="577.133" r="4" fill="#0" id="circle99"/>
	<circle cx="204.239" cy="172.568" r="4" fill="#0" id="circle100"/>
	<circle cx="205.261" cy="622.084" r="4" fill="#0" id="circle101"/>
	<circle cx="205.261" cy="684.404" r="4" fill="#0" id="circle102"/>
	<circle cx="208.325" cy="577.133" r="4" fill="#0" id="circle103"/>
	<circle cx="208.325" cy="609.825" r="4" fill="#0" id="circle104"/>
	<circle cx="213.434" cy="586.327" r="4" fill="#0" id="circle105"/>
	<circle cx="213.434" cy="596.544" r="4" fill="#0" id="circle106"/>
	<circle cx="214.455" cy="172.568" r="4" fill="#0" id="circle107"/>
	<circle cx="215.477" cy="684.404" r="4" fill="#0" id="circle108"/>
	<circle cx="223.65" cy="167.46" r="4" fill="#0" id="circle109"/>
	<circle cx="225.693" cy="684.404" r="4" fill="#0" id="circle110"/>
	<circle cx="232.844" cy="162.352" r="4" fill="#0" id="circle111"/>
	<circle cx="234.888" cy="679.296" r="4" fill="#0" id="circle112"/>
	<circle cx="243.061" cy="162.352" r="4" fill="#0" id="circle113"/>
	<circle cx="245.104" cy="679.296" r="4" fill="#0" id="circle114"/>
	<circle cx="253.277" cy="162.352" r="4" fill="#0" id="circle115"/>
	<circle cx="255.32" cy="679.296" r="4" fill="#0" id="circle116"/>
	<circle cx="263.493" cy="162.352" r="4" fill="#0" id="circle117"/>
	<circle cx="265.537" cy="674.187" r="4" fill="#0" id="circle118"/>
	<circle cx="273.71" cy="162.352" r="4" fill="#0" id="circle119"/>
	<circle cx="275.753" cy="674.187" r="4" fill="#0" id="circle120"/>
	<circle cx="283.926" cy="162.352" r="4" fill="#0" id="circle121"/>
	<circle cx="285.969" cy="669.079" r="4" fill="#0" id="circle122"/>
	<circle cx="294.142" cy="162.352" r="4" fill="#0" id="circle123"/>
	<circle cx="296.185" cy="669.079" r="4" fill="#0" id="circle124"/>
	<circle cx="304.358" cy="162.352" r="4" fill="#0" id="circle125"/>
	<circle cx="306.402" cy="669.079" r="4" fill="#0" id="circle126"/>
	<circle cx="314.575" cy="162.352" r="4" fill="#0" id="circle127"/>
	<circle cx="315.596" cy="663.971" r="4" fill="#0" id="circle128"/>
	<circle cx="320.704" cy="42.8218" r="4" fill="#0" id="circle129"/>
	<circle cx="323.769" cy="157.244" r="4" fill="#0" id="circle130"/>
	<circle cx="325.813" cy="32.6056" r="4" fill="#0" id="circle131"/>
	<circle cx="325.813" cy="52.0165" r="4" fill="#0" id="circle132"/>
	<circle cx="325.813" cy="663.971" r="4" fill="#0" id="circle133"/>
	<circle cx="333.986" cy="24.4325" r="4" fill="#0" id="circle134"/>
	<circle cx="333.986" cy="157.244" r="4" fill="#0" id="circle135"/>
	<circle cx="336.029" cy="56.103" r="4" fill="#0" id="circle136"/>
	<circle cx="336.029" cy="663.971" r="4" fill="#0" id="circle137"/>
	<circle cx="344.202" cy="19.3244" r="4" fill="#0" id="circle138"/>
	<circle cx="344.202" cy="157.244" r="4" fill="#0" id="circle139"/>
	<circle cx="345.223" cy="658.863" r="4" fill="#0" id="circle140"/>
	<circle cx="346.245" cy="56.103" r="4" fill="#0" id="circle141"/>
	<circle cx="353.396" cy="152.136" r="4" fill="#0" id="circle142"/>
	<circle cx="354.418" cy="19.3244" r="4" fill="#0" id="circle143"/>
	<circle cx="355.44" cy="61.2111" r="4" fill="#0" id="circle144"/>
	<circle cx="355.44" cy="658.863" r="4" fill="#0" id="circle145"/>
	<circle cx="363.613" cy="152.136" r="4" fill="#0" id="circle146"/>
	<circle cx="364.634" cy="19.3244" r="4" fill="#0" id="circle147"/>
	<circle cx="364.634" cy="653.755" r="4" fill="#0" id="circle148"/>
	<circle cx="365.656" cy="61.2111" r="4" fill="#0" id="circle149"/>
	<circle cx="371.786" cy="99.0113" r="4" fill="#0" id="circle150"/>
	<circle cx="371.786" cy="109.228" r="4" fill="#0" id="circle151"/>
	<circle cx="373.829" cy="148.049" r="4" fill="#0" id="circle152"/>
	<circle cx="374.851" cy="19.3244" r="4" fill="#0" id="circle153"/>
	<circle cx="374.851" cy="66.3193" r="4" fill="#0" id="circle154"/>
	<circle cx="374.851" cy="653.755" r="4" fill="#0" id="circle155"/>
	<circle cx="379.959" cy="90.8383" r="4" fill="#0" id="circle156"/>
	<circle cx="379.959" cy="116.379" r="4" fill="#0" id="circle157"/>
	<circle cx="382.002" cy="74.4923" r="4" fill="#0" id="circle158"/>
	<circle cx="384.045" cy="147.028" r="4" fill="#0" id="circle159"/>
	<circle cx="384.045" cy="648.647" r="4" fill="#0" id="circle160"/>
	<circle cx="385.067" cy="19.3244" r="4" fill="#0" id="circle161"/>
	<circle cx="388.132" cy="122.509" r="4" fill="#0" id="circle162"/>
	<circle cx="394.262" cy="14.2163" r="4" fill="#0" id="circle163"/>
	<circle cx="394.262" cy="147.028" r="4" fill="#0" id="circle164"/>
	<circle cx="394.262" cy="648.647" r="4" fill="#0" id="circle165"/>
	<circle cx="397.326" cy="127.617" r="4" fill="#0" id="circle166"/>
	<circle cx="403.456" cy="9.10814" r="4" fill="#0" id="circle167"/>
	<circle cx="403.456" cy="643.539" r="4" fill="#0" id="circle168"/>
	<circle cx="412.651" cy="4" r="4" fill="#0" id="circle169"/>
	<circle cx="412.651" cy="638.43" r="4" fill="#0" id="circle170"/>
	<circle cx="413.673" cy="45.8867" r="4" fill="#0" id="circle171"/>
	<circle cx="413.673" cy="56.103" r="4" fill="#0" id="circle172"/>
	<circle cx="413.673" cy="66.3193" r="4" fill="#0" id="circle173"/>
	<circle cx="413.673" cy="76.5355" r="4" fill="#0" id="circle174"/>
	<circle cx="421.846" cy="82.6653" r="4" fill="#0" id="circle175"/>
	<circle cx="421.846" cy="633.322" r="4" fill="#0" id="circle176"/>
	<circle cx="422.867" cy="4" r="4" fill="#0" id="circle177"/>
	<circle cx="423.889" cy="45.8867" r="4" fill="#0" id="circle178"/>
	<circle cx="431.04" cy="628.214" r="4" fill="#0" id="circle179"/>
	<circle cx="432.062" cy="86.7518" r="4" fill="#0" id="circle180"/>
	<circle cx="433.083" cy="4" r="4" fill="#0" id="circle181"/>
	<circle cx="433.083" cy="40.7786" r="4" fill="#0" id="circle182"/>
	<circle cx="434.105" cy="102.076" r="4" fill="#0" id="circle183"/>
	<circle cx="434.105" cy="112.292" r="4" fill="#0" id="circle184"/>
	<circle cx="434.105" cy="122.509" r="4" fill="#0" id="circle185"/>
	<circle cx="439.213" cy="131.703" r="4" fill="#0" id="circle186"/>
	<circle cx="439.213" cy="617.998" r="4" fill="#0" id="circle187"/>
	<circle cx="443.3" cy="4" r="4" fill="#0" id="circle188"/>
	<circle cx="443.3" cy="37.7137" r="4" fill="#0" id="circle189"/>
	<circle cx="444.321" cy="572.025" r="4" fill="#0" id="circle190"/>
	<circle cx="444.321" cy="582.241" r="4" fill="#0" id="circle191"/>
	<circle cx="444.321" cy="592.457" r="4" fill="#0" id="circle192"/>
	<circle cx="444.321" cy="602.674" r="4" fill="#0" id="circle193"/>
	<circle cx="449.429" cy="131.703" r="4" fill="#0" id="circle194"/>
	<circle cx="452.494" cy="564.873" r="4" fill="#0" id="circle195"/>
	<circle cx="453.516" cy="6.04325" r="4" fill="#0" id="circle196"/>
	<circle cx="453.516" cy="32.6056" r="4" fill="#0" id="circle197"/>
	<circle cx="459.646" cy="14.2163" r="4" fill="#0" id="circle198"/>
	<circle cx="459.646" cy="131.703" r="4" fill="#0" id="circle199"/>
	<circle cx="461.689" cy="24.4325" r="4" fill="#0" id="circle200"/>
	<circle cx="462.711" cy="561.808" r="4" fill="#0" id="circle201"/>
	<circle cx="468.84" cy="126.595" r="4" fill="#0" id="circle202"/>
	<circle cx="472.927" cy="561.808" r="4" fill="#0" id="circle203"/>
	<circle cx="479.057" cy="126.595" r="4" fill="#0" id="circle204"/>
	<circle cx="483.143" cy="561.808" r="4" fill="#0" id="circle205"/>
	<circle cx="489.273" cy="128.639" r="4" fill="#0" id="circle206"/>
	<circle cx="493.359" cy="561.808" r="4" fill="#0" id="circle207"/>
	<circle cx="499.489" cy="131.703" r="4" fill="#0" id="circle208"/>
	<circle cx="503.576" cy="561.808" r="4" fill="#0" id="circle209"/>
	<circle cx="509.705" cy="133.747" r="4" fill="#0" id="circle210"/>
	<circle cx="513.792" cy="561.808" r="4" fill="#0" id="circle211"/>
	<circle cx="519.922" cy="136.812" r="4" fill="#0" id="circle212"/>
	<circle cx="524.008" cy="561.808" r="4" fill="#0" id="circle213"/>
	<circle cx="530.138" cy="136.812" r="4" fill="#0" id="circle214"/>
	<circle cx="534.225" cy="561.808" r="4" fill="#0" id="circle215"/>
	<circle cx="539.333" cy="141.92" r="4" fill="#0" id="circle216"/>
	<circle cx="544.441" cy="561.808" r="4" fill="#0" id="circle217"/>
	<circle cx="549.549" cy="141.92" r="4" fill="#0" id="circle218"/>
	<circle cx="554.657" cy="561.808" r="4" fill="#0" id="circle219"/>
	<circle cx="559.765" cy="141.92" r="4" fill="#0" id="circle220"/>
	<circle cx="564.873" cy="561.808" r="4" fill="#0" id="circle221"/>
	<circle cx="569.981" cy="141.92" r="4" fill="#0" id="circle222"/>
	<circle cx="575.09" cy="561.808" r="4" fill="#0" id="circle223"/>
	<circle cx="580.198" cy="141.92" r="4" fill="#0" id="circle224"/>
	<circle cx="585.306" cy="561.808" r="4" fill="#0" id="circle225"/>
	<circle cx="590.414" cy="141.92" r="4" fill="#0" id="circle226"/>
	<circle cx="595.522" cy="561.808" r="4" fill="#0" id="circle227"/>
	<circle cx="599.609" cy="147.028" r="4" fill="#0" id="circle228"/>
	<circle cx="605.738" cy="561.808" r="4" fill="#0" id="circle229"/>
	<circle cx="607.782" cy="153.158" r="4" fill="#0" id="circle230"/>
	<circle cx="612.89" cy="162.352" r="4" fill="#0" id="circle231"/>
	<circle cx="612.89" cy="255.32" r="4" fill="#0" id="circle232"/>
	<circle cx="614.933" cy="265.537" r="4" fill="#0" id="circle233"/>
	<circle cx="614.933" cy="556.7" r="4" fill="#0" id="circle234"/>
	<circle cx="622.084" cy="250.212" r="4" fill="#0" id="circle235"/>
	<circle cx="623.106" cy="162.352" r="4" fill="#0" id="circle236"/>
	<circle cx="623.106" cy="272.688" r="4" fill="#0" id="circle237"/>
	<circle cx="625.149" cy="556.7" r="4" fill="#0" id="circle238"/>
	<circle cx="631.279" cy="245.104" r="4" fill="#0" id="circle239"/>
	<circle cx="631.279" cy="279.839" r="4" fill="#0" id="circle240"/>
	<circle cx="633.322" cy="162.352" r="4" fill="#0" id="circle241"/>
	<circle cx="635.366" cy="555.679" r="4" fill="#0" id="circle242"/>
	<circle cx="640.474" cy="239.996" r="4" fill="#0" id="circle243"/>
	<circle cx="640.474" cy="284.947" r="4" fill="#0" id="circle244"/>
	<circle cx="643.539" cy="162.352" r="4" fill="#0" id="circle245"/>
	<circle cx="645.582" cy="551.592" r="4" fill="#0" id="circle246"/>
	<circle cx="650.69" cy="239.996" r="4" fill="#0" id="circle247"/>
	<circle cx="650.69" cy="279.839" r="4" fill="#0" id="circle248"/>
	<circle cx="653.755" cy="162.352" r="4" fill="#0" id="circle249"/>
	<circle cx="655.798" cy="550.571" r="4" fill="#0" id="circle250"/>
	<circle cx="660.906" cy="238.974" r="4" fill="#0" id="circle251"/>
	<circle cx="660.906" cy="279.839" r="4" fill="#0" id="circle252"/>
	<circle cx="663.971" cy="162.352" r="4" fill="#0" id="circle253"/>
	<circle cx="666.014" cy="546.484" r="4" fill="#0" id="circle254"/>
	<circle cx="671.123" cy="234.888" r="4" fill="#0" id="circle255"/>
	<circle cx="671.123" cy="279.839" r="4" fill="#0" id="circle256"/>
	<circle cx="673.166" cy="167.46" r="4" fill="#0" id="circle257"/>
	<circle cx="675.209" cy="541.376" r="4" fill="#0" id="circle258"/>
	<circle cx="680.317" cy="229.78" r="4" fill="#0" id="circle259"/>
	<circle cx="681.339" cy="279.839" r="4" fill="#0" id="circle260"/>
	<circle cx="682.36" cy="172.568" r="4" fill="#0" id="circle261"/>
	<circle cx="685.425" cy="541.376" r="4" fill="#0" id="circle262"/>
	<circle cx="689.512" cy="180.742" r="4" fill="#0" id="circle263"/>
	<circle cx="689.512" cy="219.563" r="4" fill="#0" id="circle264"/>
	<circle cx="689.512" cy="418.781" r="4" fill="#0" id="circle265"/>
	<circle cx="689.512" cy="428.997" r="4" fill="#0" id="circle266"/>
	<circle cx="689.512" cy="439.213" r="4" fill="#0" id="circle267"/>
	<circle cx="690.533" cy="274.731" r="4" fill="#0" id="circle268"/>
	<circle cx="694.62" cy="189.936" r="4" fill="#0" id="circle269"/>
	<circle cx="694.62" cy="200.152" r="4" fill="#0" id="circle270"/>
	<circle cx="694.62" cy="210.369" r="4" fill="#0" id="circle271"/>
	<circle cx="694.62" cy="448.408" r="4" fill="#0" id="circle272"/>
	<circle cx="694.62" cy="536.268" r="4" fill="#0" id="circle273"/>
	<circle cx="699.728" cy="418.781" r="4" fill="#0" id="circle274"/>
	<circle cx="700.75" cy="274.731" r="4" fill="#0" id="circle275"/>
	<circle cx="704.836" cy="448.408" r="4" fill="#0" id="circle276"/>
	<circle cx="704.836" cy="531.16" r="4" fill="#0" id="circle277"/>
	<circle cx="709.944" cy="418.781" r="4" fill="#0" id="circle278"/>
	<circle cx="710.966" cy="274.731" r="4" fill="#0" id="circle279"/>
	<circle cx="715.053" cy="448.408" r="4" fill="#0" id="circle280"/>
	<circle cx="715.053" cy="531.16" r="4" fill="#0" id="circle281"/>
	<circle cx="719.139" cy="413.673" r="4" fill="#0" id="circle282"/>
	<circle cx="721.182" cy="274.731" r="4" fill="#0" id="circle283"/>
	<circle cx="725.269" cy="448.408" r="4" fill="#0" id="circle284"/>
	<circle cx="725.269" cy="531.16" r="4" fill="#0" id="circle285"/>
	<circle cx="729.355" cy="413.673" r="4" fill="#0" id="circle286"/>
	<circle cx="730.377" cy="269.623" r="4" fill="#0" id="circle287"/>
	<circle cx="733.442" cy="454.538" r="4" fill="#0" id="circle288"/>
	<circle cx="735.485" cy="531.16" r="4" fill="#0" id="circle289"/>
	<circle cx="739.572" cy="410.608" r="4" fill="#0" id="circle290"/>
	<circle cx="740.593" cy="269.623" r="4" fill="#0" id="circle291"/>
	<circle cx="740.593" cy="462.711" r="4" fill="#0" id="circle292"/>
	<circle cx="740.593" cy="472.927" r="4" fill="#0" id="circle293"/>
	<circle cx="740.593" cy="483.143" r="4" fill="#0" id="circle294"/>
	<circle cx="745.701" cy="526.051" r="4" fill="#0" id="circle295"/>
	<circle cx="748.766" cy="490.295" r="4" fill="#0" id="circle296"/>
	<circle cx="749.788" cy="405.499" r="4" fill="#0" id="circle297"/>
	<circle cx="750.809" cy="266.558" r="4" fill="#0" id="circle298"/>
	<circle cx="755.918" cy="498.468" r="4" fill="#0" id="circle299"/>
	<circle cx="755.918" cy="515.835" r="4" fill="#0" id="circle300"/>
	<circle cx="760.004" cy="403.456" r="4" fill="#0" id="circle301"/>
	<circle cx="761.026" cy="264.515" r="4" fill="#0" id="circle302"/>
	<circle cx="769.199" cy="398.348" r="4" fill="#0" id="circle303"/>
	<circle cx="771.242" cy="264.515" r="4" fill="#0" id="circle304"/>
	<circle cx="778.393" cy="393.24" r="4" fill="#0" id="circle305"/>
	<circle cx="780.437" cy="259.407" r="4" fill="#0" id="circle306"/>
	<circle cx="787.588" cy="388.132" r="4" fill="#0" id="circle307"/>
	<circle cx="789.631" cy="254.299" r="4" fill="#0" id="circle308"/>
	<circle cx="796.783" cy="383.024" r="4" fill="#0" id="circle309"/>
	<circle cx="799.848" cy="254.299" r="4" fill="#0" id="circle310"/>
	<circle cx="806.999" cy="377.916" r="4" fill="#0" id="circle311"/>
	<circle cx="809.042" cy="249.191" r="4" fill="#0" id="circle312"/>
	<circle cx="815.172" cy="370.764" r="4" fill="#0" id="circle313"/>
	<circle cx="819.258" cy="249.191" r="4" fill="#0" id="circle314"/>
	<circle cx="822.323" cy="362.591" r="4" fill="#0" id="circle315"/>
	<circle cx="829.475" cy="249.191" r="4" fill="#0" id="circle316"/>
	<circle cx="832.54" cy="357.483" r="4" fill="#0" id="circle317"/>
	<circle cx="839.691" cy="249.191" r="4" fill="#0" id="circle318"/>
	<circle cx="841.734" cy="352.375" r="4" fill="#0" id="circle319"/>
	<circle cx="849.907" cy="249.191" r="4" fill="#0" id="circle320"/>
	<circle cx="850.929" cy="347.267" r="4" fill="#0" id="circle321"/>
	<circle cx="860.124" cy="249.191" r="4" fill="#0" id="circle322"/>
	<circle cx="860.124" cy="342.159" r="4" fill="#0" id="circle323"/>
	<circle cx="869.318" cy="337.05" r="4" fill="#0" id="circle324"/>
	<circle cx="870.34" cy="249.191" r="4" fill="#0" id="circle325"/>
	<circle cx="878.513" cy="331.942" r="4" fill="#0" id="circle326"/>
	<circle cx="880.556" cy="249.191" r="4" fill="#0" id="circle327"/>
	<circle cx="887.708" cy="326.834" r="4" fill="#0" id="circle328"/>
	<circle cx="890.772" cy="249.191" r="4" fill="#0" id="circle329"/>
	<circle cx="896.902" cy="321.726" r="4" fill="#0" id="circle330"/>
	<circle cx="900.989" cy="249.191" r="4" fill="#0" id="circle331"/>
	<circle cx="907.118" cy="319.683" r="4" fill="#0" id="circle332"/>
	<circle cx="911.205" cy="249.191" r="4" fill="#0" id="circle333"/>
	<circle cx="917.335" cy="316.618" r="4" fill="#0" id="circle334"/>
	<circle cx="921.421" cy="249.191" r="4" fill="#0" id="circle335"/>
	<circle cx="927.551" cy="316.618" r="4" fill="#0" id="circle336"/>
	<circle cx="931.637" cy="249.191" r="4" fill="#0" id="circle337"/>
	<circle cx="936.746" cy="311.51" r="4" fill="#0" id="circle338"/>
	<circle cx="941.854" cy="249.191" r="4" fill="#0" id="circle339"/>
	<circle cx="946.962" cy="310.488" r="4" fill="#0" id="circle340"/>
	<circle cx="952.07" cy="249.191" r="4" fill="#0" id="circle341"/>
	<circle cx="957.178" cy="306.402" r="4" fill="#0" id="circle342"/>
	<circle cx="962.286" cy="249.191" r="4" fill="#0" id="circle343"/>
	<circle cx="966.373" cy="301.294" r="4" fill="#0" id="circle344"/>
	<circle cx="972.503" cy="249.191" r="4" fill="#0" id="circle345"/>
	<circle cx="975.567" cy="296.185" r="4" fill="#0" id="circle346"/>
	<circle cx="982.719" cy="249.191" r="4" fill="#0" id="circle347"/>
	<circle cx="983.74" cy="289.034" r="4" fill="#0" id="circle348"/>
	<circle cx="990.892" cy="280.861" r="4" fill="#0" id="circle349"/>
	<circle cx="991.913" cy="254.299" r="4" fill="#0" id="circle350"/>
	<circle cx="996" cy="270.645" r="4" fill="#0" id="circle351"/>
	</g>
</svg>