<?xml version="1.0" encoding="UTF-8" standalone="no"?>
<!-- Created with CurveBenchmark -->
<svg
	xmlns:dc="http://purl.org/dc/elements/1.1/"
	xmlns:cc="http://creativecommons.org/ns#"
	xmlns:rdf="http://www.w3.org/1999/02/22-rdf-syntax-ns#"
	xmlns:svg="http://www.w3.org/2000/svg"
	xmlns="http://www.w3.org/2000/svg"
	xmlns:sodipodi="http://sodipodi.sourceforge.net/DTD/sodipodi-0.dtd"
	xmlns:inkscape="http://www.inkscape.org/namespaces/inkscape"
	width="1000"
	height="1000"
	id="svg2"
	version="1.1"
	sodipodi:docname="manifold/crust-textbox39.png.txt">
<defs
	id="defs4" />
<metadata
	id="metadata7">
	<rdf:RDF>
		<cc:Work
			rdf:about="">
			<dc:format>image/svg+xml</dc:format>
			<dc:type
				rdf:resource="http://purl.org/dc/dcmitype/StillImage" />
			<dc:title></dc:title>
		</cc:Work>
	</rdf:RDF>
</metadata>
<g
	inkscape:label="Layer 1"
	inkscape:groupmode="layer"
	id="layer1">
	<path style="fill:none;stroke:red;stroke-width:1px;stroke-linecap:butt;stroke-linejoin:miter;stroke-opacity:1" d="M 51.9328,87.3613 31.0924,87.3613 z" id="boundary" inkscape:connector-curvature="0" />
	<path style="fill:none;stroke:red;stroke-width:1px;stroke-linecap:butt;stroke-linejoin:miter;stroke-opacity:1" d="M 31.0924,87.3613 14.4202,104.034 z" id="boundary" inkscape:connector-curvature="0" />
	<path style="fill:none;stroke:red;stroke-width:1px;stroke-linecap:butt;stroke-linejoin:miter;stroke-opacity:1" d="M 56.1008,62.3529 51.9328,87.3613 z" id="boundary" inkscape:connector-curvature="0" />
	<path style="fill:none;stroke:red;stroke-width:1px;stroke-linecap:butt;stroke-linejoin:miter;stroke-opacity:1" d="M 56.1008,62.3529 76.9412,51.9328 z" id="boundary" inkscape:connector-curvature="0" />
	<path style="fill:none;stroke:red;stroke-width:1px;stroke-linecap:butt;stroke-linejoin:miter;stroke-opacity:1" d="M 76.9412,51.9328 97.7815,45.6807 z" id="boundary" inkscape:connector-curvature="0" />
	<path style="fill:none;stroke:red;stroke-width:1px;stroke-linecap:butt;stroke-linejoin:miter;stroke-opacity:1" d="M 4,156.134 4,135.294 z" id="boundary" inkscape:connector-curvature="0" />
	<path style="fill:none;stroke:red;stroke-width:1px;stroke-linecap:butt;stroke-linejoin:miter;stroke-opacity:1" d="M 4,135.294 14.4202,104.034 z" id="boundary" inkscape:connector-curvature="0" />
	<path style="fill:none;stroke:red;stroke-width:1px;stroke-linecap:butt;stroke-linejoin:miter;stroke-opacity:1" d="M 4,176.975 4,156.134 z" id="boundary" inkscape:connector-curvature="0" />
	<path style="fill:none;stroke:red;stroke-width:1px;stroke-linecap:butt;stroke-linejoin:miter;stroke-opacity:1" d="M 181.143,35.2605 160.303,35.2605 z" id="boundary" inkscape:connector-curvature="0" />
	<path style="fill:none;stroke:red;stroke-width:1px;stroke-linecap:butt;stroke-linejoin:miter;stroke-opacity:1" d="M 201.983,35.2605 181.143,35.2605 z" id="boundary" inkscape:connector-curvature="0" />
	<path style="fill:none;stroke:red;stroke-width:1px;stroke-linecap:butt;stroke-linejoin:miter;stroke-opacity:1" d="M 160.303,35.2605 139.462,41.5126 z" id="boundary" inkscape:connector-curvature="0" />
	<path style="fill:none;stroke:red;stroke-width:1px;stroke-linecap:butt;stroke-linejoin:miter;stroke-opacity:1" d="M 97.7815,45.6807 118.622,45.6807 z" id="boundary" inkscape:connector-curvature="0" />
	<path style="fill:none;stroke:red;stroke-width:1px;stroke-linecap:butt;stroke-linejoin:miter;stroke-opacity:1" d="M 118.622,45.6807 139.462,41.5126 z" id="boundary" inkscape:connector-curvature="0" />
	<path style="fill:none;stroke:red;stroke-width:1px;stroke-linecap:butt;stroke-linejoin:miter;stroke-opacity:1" d="M 4,176.975 4,197.815 z" id="boundary" inkscape:connector-curvature="0" />
	<path style="fill:none;stroke:red;stroke-width:1px;stroke-linecap:butt;stroke-linejoin:miter;stroke-opacity:1" d="M 4,218.655 4,197.815 z" id="boundary" inkscape:connector-curvature="0" />
	<path style="fill:none;stroke:red;stroke-width:1px;stroke-linecap:butt;stroke-linejoin:miter;stroke-opacity:1" d="M 4,239.496 4,260.336 z" id="boundary" inkscape:connector-curvature="0" />
	<path style="fill:none;stroke:red;stroke-width:1px;stroke-linecap:butt;stroke-linejoin:miter;stroke-opacity:1" d="M 4,281.176 4,260.336 z" id="boundary" inkscape:connector-curvature="0" />
	<path style="fill:none;stroke:red;stroke-width:1px;stroke-linecap:butt;stroke-linejoin:miter;stroke-opacity:1" d="M 4,239.496 4,218.655 z" id="boundary" inkscape:connector-curvature="0" />
	<path style="fill:none;stroke:red;stroke-width:1px;stroke-linecap:butt;stroke-linejoin:miter;stroke-opacity:1" d="M 4,302.017 4,322.857 z" id="boundary" inkscape:connector-curvature="0" />
	<path style="fill:none;stroke:red;stroke-width:1px;stroke-linecap:butt;stroke-linejoin:miter;stroke-opacity:1" d="M 4,322.857 14.4202,341.613 z" id="boundary" inkscape:connector-curvature="0" />
	<path style="fill:none;stroke:red;stroke-width:1px;stroke-linecap:butt;stroke-linejoin:miter;stroke-opacity:1" d="M 4,281.176 4,302.017 z" id="boundary" inkscape:connector-curvature="0" />
	<path style="fill:none;stroke:red;stroke-width:1px;stroke-linecap:butt;stroke-linejoin:miter;stroke-opacity:1" d="M 14.4202,341.613 14.4202,362.454 z" id="boundary" inkscape:connector-curvature="0" />
	<path style="fill:none;stroke:red;stroke-width:1px;stroke-linecap:butt;stroke-linejoin:miter;stroke-opacity:1" d="M 14.4202,383.294 14.4202,362.454 z" id="boundary" inkscape:connector-curvature="0" />
	<path style="fill:none;stroke:red;stroke-width:1px;stroke-linecap:butt;stroke-linejoin:miter;stroke-opacity:1" d="M 14.4202,404.134 14.4202,383.294 z" id="boundary" inkscape:connector-curvature="0" />
	<path style="fill:none;stroke:red;stroke-width:1px;stroke-linecap:butt;stroke-linejoin:miter;stroke-opacity:1" d="M 14.4202,404.134 14.4202,424.975 z" id="boundary" inkscape:connector-curvature="0" />
	<path style="fill:none;stroke:red;stroke-width:1px;stroke-linecap:butt;stroke-linejoin:miter;stroke-opacity:1" d="M 14.4202,424.975 14.4202,445.815 z" id="boundary" inkscape:connector-curvature="0" />
	<path style="fill:none;stroke:red;stroke-width:1px;stroke-linecap:butt;stroke-linejoin:miter;stroke-opacity:1" d="M 222.824,35.2605 243.664,35.2605 z" id="boundary" inkscape:connector-curvature="0" />
	<path style="fill:none;stroke:red;stroke-width:1px;stroke-linecap:butt;stroke-linejoin:miter;stroke-opacity:1" d="M 222.824,35.2605 201.983,35.2605 z" id="boundary" inkscape:connector-curvature="0" />
	<path style="fill:none;stroke:red;stroke-width:1px;stroke-linecap:butt;stroke-linejoin:miter;stroke-opacity:1" d="M 243.664,35.2605 264.504,35.2605 z" id="boundary" inkscape:connector-curvature="0" />
	<path style="fill:none;stroke:red;stroke-width:1px;stroke-linecap:butt;stroke-linejoin:miter;stroke-opacity:1" d="M 285.345,35.2605 264.504,35.2605 z" id="boundary" inkscape:connector-curvature="0" />
	<path style="fill:none;stroke:red;stroke-width:1px;stroke-linecap:butt;stroke-linejoin:miter;stroke-opacity:1" d="M 306.185,35.2605 285.345,35.2605 z" id="boundary" inkscape:connector-curvature="0" />
	<path style="fill:none;stroke:red;stroke-width:1px;stroke-linecap:butt;stroke-linejoin:miter;stroke-opacity:1" d="M 327.025,35.2605 306.185,35.2605 z" id="boundary" inkscape:connector-curvature="0" />
	<path style="fill:none;stroke:red;stroke-width:1px;stroke-linecap:butt;stroke-linejoin:miter;stroke-opacity:1" d="M 464.571,14.4202 443.731,14.4202 z" id="boundary" inkscape:connector-curvature="0" />
	<path style="fill:none;stroke:red;stroke-width:1px;stroke-linecap:butt;stroke-linejoin:miter;stroke-opacity:1" d="M 327.025,35.2605 347.866,35.2605 z" id="boundary" inkscape:connector-curvature="0" />
	<path style="fill:none;stroke:red;stroke-width:1px;stroke-linecap:butt;stroke-linejoin:miter;stroke-opacity:1" d="M 368.706,35.2605 347.866,35.2605 z" id="boundary" inkscape:connector-curvature="0" />
	<path style="fill:none;stroke:red;stroke-width:1px;stroke-linecap:butt;stroke-linejoin:miter;stroke-opacity:1" d="M 381.21,18.5882 402.05,14.4202 z" id="boundary" inkscape:connector-curvature="0" />
	<path style="fill:none;stroke:red;stroke-width:1px;stroke-linecap:butt;stroke-linejoin:miter;stroke-opacity:1" d="M 422.891,14.4202 402.05,14.4202 z" id="boundary" inkscape:connector-curvature="0" />
	<path style="fill:none;stroke:red;stroke-width:1px;stroke-linecap:butt;stroke-linejoin:miter;stroke-opacity:1" d="M 368.706,35.2605 381.21,18.5882 z" id="boundary" inkscape:connector-curvature="0" />
	<path style="fill:none;stroke:red;stroke-width:1px;stroke-linecap:butt;stroke-linejoin:miter;stroke-opacity:1" d="M 443.731,14.4202 422.891,14.4202 z" id="boundary" inkscape:connector-curvature="0" />
	<path style="fill:none;stroke:red;stroke-width:1px;stroke-linecap:butt;stroke-linejoin:miter;stroke-opacity:1" d="M 14.4202,466.655 14.4202,487.496 z" id="boundary" inkscape:connector-curvature="0" />
	<path style="fill:none;stroke:red;stroke-width:1px;stroke-linecap:butt;stroke-linejoin:miter;stroke-opacity:1" d="M 14.4202,466.655 14.4202,445.815 z" id="boundary" inkscape:connector-curvature="0" />
	<path style="fill:none;stroke:red;stroke-width:1px;stroke-linecap:butt;stroke-linejoin:miter;stroke-opacity:1" d="M 14.4202,487.496 14.4202,508.336 z" id="boundary" inkscape:connector-curvature="0" />
	<path style="fill:none;stroke:red;stroke-width:1px;stroke-linecap:butt;stroke-linejoin:miter;stroke-opacity:1" d="M 14.4202,508.336 14.4202,529.176 z" id="boundary" inkscape:connector-curvature="0" />
	<path style="fill:none;stroke:red;stroke-width:1px;stroke-linecap:butt;stroke-linejoin:miter;stroke-opacity:1" d="M 14.4202,550.017 14.4202,529.176 z" id="boundary" inkscape:connector-curvature="0" />
	<path style="fill:none;stroke:red;stroke-width:1px;stroke-linecap:butt;stroke-linejoin:miter;stroke-opacity:1" d="M 43.5966,579.193 24.8403,568.773 z" id="boundary" inkscape:connector-curvature="0" />
	<path style="fill:none;stroke:red;stroke-width:1px;stroke-linecap:butt;stroke-linejoin:miter;stroke-opacity:1" d="M 24.8403,568.773 14.4202,550.017 z" id="boundary" inkscape:connector-curvature="0" />
	<path style="fill:none;stroke:red;stroke-width:1px;stroke-linecap:butt;stroke-linejoin:miter;stroke-opacity:1" d="M 58.1849,595.866 74.8571,610.454 z" id="boundary" inkscape:connector-curvature="0" />
	<path style="fill:none;stroke:red;stroke-width:1px;stroke-linecap:butt;stroke-linejoin:miter;stroke-opacity:1" d="M 43.5966,579.193 58.1849,595.866 z" id="boundary" inkscape:connector-curvature="0" />
	<path style="fill:none;stroke:red;stroke-width:1px;stroke-linecap:butt;stroke-linejoin:miter;stroke-opacity:1" d="M 95.6975,610.454 74.8571,610.454 z" id="boundary" inkscape:connector-curvature="0" />
	<path style="fill:none;stroke:red;stroke-width:1px;stroke-linecap:butt;stroke-linejoin:miter;stroke-opacity:1" d="M 95.6975,610.454 116.538,610.454 z" id="boundary" inkscape:connector-curvature="0" />
	<path style="fill:none;stroke:red;stroke-width:1px;stroke-linecap:butt;stroke-linejoin:miter;stroke-opacity:1" d="M 135.294,620.874 116.538,610.454 z" id="boundary" inkscape:connector-curvature="0" />
	<path style="fill:none;stroke:red;stroke-width:1px;stroke-linecap:butt;stroke-linejoin:miter;stroke-opacity:1" d="M 174.891,610.454 156.134,620.874 z" id="boundary" inkscape:connector-curvature="0" />
	<path style="fill:none;stroke:red;stroke-width:1px;stroke-linecap:butt;stroke-linejoin:miter;stroke-opacity:1" d="M 195.731,616.706 174.891,610.454 z" id="boundary" inkscape:connector-curvature="0" />
	<path style="fill:none;stroke:red;stroke-width:1px;stroke-linecap:butt;stroke-linejoin:miter;stroke-opacity:1" d="M 156.134,620.874 135.294,620.874 z" id="boundary" inkscape:connector-curvature="0" />
	<path style="fill:none;stroke:red;stroke-width:1px;stroke-linecap:butt;stroke-linejoin:miter;stroke-opacity:1" d="M 201.983,637.546 204.067,658.387 z" id="boundary" inkscape:connector-curvature="0" />
	<path style="fill:none;stroke:red;stroke-width:1px;stroke-linecap:butt;stroke-linejoin:miter;stroke-opacity:1" d="M 201.983,637.546 195.731,616.706 z" id="boundary" inkscape:connector-curvature="0" />
	<path style="fill:none;stroke:red;stroke-width:1px;stroke-linecap:butt;stroke-linejoin:miter;stroke-opacity:1" d="M 204.067,658.387 212.403,679.227 z" id="boundary" inkscape:connector-curvature="0" />
	<path style="fill:none;stroke:red;stroke-width:1px;stroke-linecap:butt;stroke-linejoin:miter;stroke-opacity:1" d="M 233.244,710.487 214.487,700.067 z" id="boundary" inkscape:connector-curvature="0" />
	<path style="fill:none;stroke:red;stroke-width:1px;stroke-linecap:butt;stroke-linejoin:miter;stroke-opacity:1" d="M 214.487,700.067 212.403,679.227 z" id="boundary" inkscape:connector-curvature="0" />
	<path style="fill:none;stroke:red;stroke-width:1px;stroke-linecap:butt;stroke-linejoin:miter;stroke-opacity:1" d="M 452.067,610.454 433.311,620.874 z" id="boundary" inkscape:connector-curvature="0" />
	<path style="fill:none;stroke:red;stroke-width:1px;stroke-linecap:butt;stroke-linejoin:miter;stroke-opacity:1" d="M 412.471,641.714 433.311,620.874 z" id="boundary" inkscape:connector-curvature="0" />
	<path style="fill:none;stroke:red;stroke-width:1px;stroke-linecap:butt;stroke-linejoin:miter;stroke-opacity:1" d="M 368.706,704.235 349.95,714.655 z" id="boundary" inkscape:connector-curvature="0" />
	<path style="fill:none;stroke:red;stroke-width:1px;stroke-linecap:butt;stroke-linejoin:miter;stroke-opacity:1" d="M 402.05,672.975 412.471,641.714 z" id="boundary" inkscape:connector-curvature="0" />
	<path style="fill:none;stroke:red;stroke-width:1px;stroke-linecap:butt;stroke-linejoin:miter;stroke-opacity:1" d="M 402.05,672.975 387.462,693.815 z" id="boundary" inkscape:connector-curvature="0" />
	<path style="fill:none;stroke:red;stroke-width:1px;stroke-linecap:butt;stroke-linejoin:miter;stroke-opacity:1" d="M 368.706,704.235 387.462,693.815 z" id="boundary" inkscape:connector-curvature="0" />
	<path style="fill:none;stroke:red;stroke-width:1px;stroke-linecap:butt;stroke-linejoin:miter;stroke-opacity:1" d="M 349.95,714.655 339.529,735.496 z" id="boundary" inkscape:connector-curvature="0" />
	<path style="fill:none;stroke:red;stroke-width:1px;stroke-linecap:butt;stroke-linejoin:miter;stroke-opacity:1" d="M 233.244,710.487 233.244,731.328 z" id="boundary" inkscape:connector-curvature="0" />
	<path style="fill:none;stroke:red;stroke-width:1px;stroke-linecap:butt;stroke-linejoin:miter;stroke-opacity:1" d="M 243.664,750.084 233.244,731.328 z" id="boundary" inkscape:connector-curvature="0" />
	<path style="fill:none;stroke:red;stroke-width:1px;stroke-linecap:butt;stroke-linejoin:miter;stroke-opacity:1" d="M 243.664,750.084 254.084,768.84 z" id="boundary" inkscape:connector-curvature="0" />
	<path style="fill:none;stroke:red;stroke-width:1px;stroke-linecap:butt;stroke-linejoin:miter;stroke-opacity:1" d="M 264.504,787.597 254.084,768.84 z" id="boundary" inkscape:connector-curvature="0" />
	<path style="fill:none;stroke:red;stroke-width:1px;stroke-linecap:butt;stroke-linejoin:miter;stroke-opacity:1" d="M 264.504,787.597 285.345,787.597 z" id="boundary" inkscape:connector-curvature="0" />
	<path style="fill:none;stroke:red;stroke-width:1px;stroke-linecap:butt;stroke-linejoin:miter;stroke-opacity:1" d="M 329.109,756.336 327.025,781.345 z" id="boundary" inkscape:connector-curvature="0" />
	<path style="fill:none;stroke:red;stroke-width:1px;stroke-linecap:butt;stroke-linejoin:miter;stroke-opacity:1" d="M 306.185,791.765 285.345,787.597 z" id="boundary" inkscape:connector-curvature="0" />
	<path style="fill:none;stroke:red;stroke-width:1px;stroke-linecap:butt;stroke-linejoin:miter;stroke-opacity:1" d="M 329.109,756.336 339.529,735.496 z" id="boundary" inkscape:connector-curvature="0" />
	<path style="fill:none;stroke:red;stroke-width:1px;stroke-linecap:butt;stroke-linejoin:miter;stroke-opacity:1" d="M 306.185,791.765 291.597,808.437 z" id="boundary" inkscape:connector-curvature="0" />
	<path style="fill:none;stroke:red;stroke-width:1px;stroke-linecap:butt;stroke-linejoin:miter;stroke-opacity:1" d="M 306.185,791.765 327.025,781.345 z" id="boundary" inkscape:connector-curvature="0" />
	<path style="fill:none;stroke:red;stroke-width:1px;stroke-linecap:butt;stroke-linejoin:miter;stroke-opacity:1" d="M 485.412,14.4202 506.252,14.4202 z" id="boundary" inkscape:connector-curvature="0" />
	<path style="fill:none;stroke:red;stroke-width:1px;stroke-linecap:butt;stroke-linejoin:miter;stroke-opacity:1" d="M 485.412,14.4202 464.571,14.4202 z" id="boundary" inkscape:connector-curvature="0" />
	<path style="fill:none;stroke:red;stroke-width:1px;stroke-linecap:butt;stroke-linejoin:miter;stroke-opacity:1" d="M 506.252,14.4202 527.092,14.4202 z" id="boundary" inkscape:connector-curvature="0" />
	<path style="fill:none;stroke:red;stroke-width:1px;stroke-linecap:butt;stroke-linejoin:miter;stroke-opacity:1" d="M 547.933,14.4202 568.773,14.4202 z" id="boundary" inkscape:connector-curvature="0" />
	<path style="fill:none;stroke:red;stroke-width:1px;stroke-linecap:butt;stroke-linejoin:miter;stroke-opacity:1" d="M 547.933,14.4202 527.092,14.4202 z" id="boundary" inkscape:connector-curvature="0" />
	<path style="fill:none;stroke:red;stroke-width:1px;stroke-linecap:butt;stroke-linejoin:miter;stroke-opacity:1" d="M 568.773,14.4202 589.613,14.4202 z" id="boundary" inkscape:connector-curvature="0" />
	<path style="fill:none;stroke:red;stroke-width:1px;stroke-linecap:butt;stroke-linejoin:miter;stroke-opacity:1" d="M 589.613,14.4202 610.454,14.4202 z" id="boundary" inkscape:connector-curvature="0" />
	<path style="fill:none;stroke:red;stroke-width:1px;stroke-linecap:butt;stroke-linejoin:miter;stroke-opacity:1" d="M 631.294,14.4202 610.454,14.4202 z" id="boundary" inkscape:connector-curvature="0" />
	<path style="fill:none;stroke:red;stroke-width:1px;stroke-linecap:butt;stroke-linejoin:miter;stroke-opacity:1" d="M 652.134,14.4202 631.294,14.4202 z" id="boundary" inkscape:connector-curvature="0" />
	<path style="fill:none;stroke:red;stroke-width:1px;stroke-linecap:butt;stroke-linejoin:miter;stroke-opacity:1" d="M 672.975,14.4202 652.134,14.4202 z" id="boundary" inkscape:connector-curvature="0" />
	<path style="fill:none;stroke:red;stroke-width:1px;stroke-linecap:butt;stroke-linejoin:miter;stroke-opacity:1" d="M 693.815,14.4202 672.975,14.4202 z" id="boundary" inkscape:connector-curvature="0" />
	<path style="fill:none;stroke:red;stroke-width:1px;stroke-linecap:butt;stroke-linejoin:miter;stroke-opacity:1" d="M 714.655,14.4202 693.815,14.4202 z" id="boundary" inkscape:connector-curvature="0" />
	<path style="fill:none;stroke:red;stroke-width:1px;stroke-linecap:butt;stroke-linejoin:miter;stroke-opacity:1" d="M 714.655,14.4202 735.496,14.4202 z" id="boundary" inkscape:connector-curvature="0" />
	<path style="fill:none;stroke:red;stroke-width:1px;stroke-linecap:butt;stroke-linejoin:miter;stroke-opacity:1" d="M 756.336,14.4202 735.496,14.4202 z" id="boundary" inkscape:connector-curvature="0" />
	<path style="fill:none;stroke:red;stroke-width:1px;stroke-linecap:butt;stroke-linejoin:miter;stroke-opacity:1" d="M 777.176,14.4202 756.336,14.4202 z" id="boundary" inkscape:connector-curvature="0" />
	<path style="fill:none;stroke:red;stroke-width:1px;stroke-linecap:butt;stroke-linejoin:miter;stroke-opacity:1" d="M 816.773,4 837.613,4 z" id="boundary" inkscape:connector-curvature="0" />
	<path style="fill:none;stroke:red;stroke-width:1px;stroke-linecap:butt;stroke-linejoin:miter;stroke-opacity:1" d="M 858.454,8.16807 837.613,4 z" id="boundary" inkscape:connector-curvature="0" />
	<path style="fill:none;stroke:red;stroke-width:1px;stroke-linecap:butt;stroke-linejoin:miter;stroke-opacity:1" d="M 816.773,4 798.017,14.4202 z" id="boundary" inkscape:connector-curvature="0" />
	<path style="fill:none;stroke:red;stroke-width:1px;stroke-linecap:butt;stroke-linejoin:miter;stroke-opacity:1" d="M 879.294,14.4202 858.454,8.16807 z" id="boundary" inkscape:connector-curvature="0" />
	<path style="fill:none;stroke:red;stroke-width:1px;stroke-linecap:butt;stroke-linejoin:miter;stroke-opacity:1" d="M 777.176,14.4202 798.017,14.4202 z" id="boundary" inkscape:connector-curvature="0" />
	<path style="fill:none;stroke:red;stroke-width:1px;stroke-linecap:butt;stroke-linejoin:miter;stroke-opacity:1" d="M 879.294,14.4202 900.134,18.5882 z" id="boundary" inkscape:connector-curvature="0" />
	<path style="fill:none;stroke:red;stroke-width:1px;stroke-linecap:butt;stroke-linejoin:miter;stroke-opacity:1" d="M 912.639,35.2605 900.134,18.5882 z" id="boundary" inkscape:connector-curvature="0" />
	<path style="fill:none;stroke:red;stroke-width:1px;stroke-linecap:butt;stroke-linejoin:miter;stroke-opacity:1" d="M 933.479,41.5126 912.639,35.2605 z" id="boundary" inkscape:connector-curvature="0" />
	<path style="fill:none;stroke:red;stroke-width:1px;stroke-linecap:butt;stroke-linejoin:miter;stroke-opacity:1" d="M 948.067,58.1849 933.479,41.5126 z" id="boundary" inkscape:connector-curvature="0" />
	<path style="fill:none;stroke:red;stroke-width:1px;stroke-linecap:butt;stroke-linejoin:miter;stroke-opacity:1" d="M 948.067,58.1849 954.319,79.0252 z" id="boundary" inkscape:connector-curvature="0" />
	<path style="fill:none;stroke:red;stroke-width:1px;stroke-linecap:butt;stroke-linejoin:miter;stroke-opacity:1" d="M 954.319,79.0252 964.739,97.7815 z" id="boundary" inkscape:connector-curvature="0" />
	<path style="fill:none;stroke:red;stroke-width:1px;stroke-linecap:butt;stroke-linejoin:miter;stroke-opacity:1" d="M 983.496,108.202 964.739,97.7815 z" id="boundary" inkscape:connector-curvature="0" />
	<path style="fill:none;stroke:red;stroke-width:1px;stroke-linecap:butt;stroke-linejoin:miter;stroke-opacity:1" d="M 996,124.874 996,145.714 z" id="boundary" inkscape:connector-curvature="0" />
	<path style="fill:none;stroke:red;stroke-width:1px;stroke-linecap:butt;stroke-linejoin:miter;stroke-opacity:1" d="M 996,124.874 983.496,108.202 z" id="boundary" inkscape:connector-curvature="0" />
	<path style="fill:none;stroke:red;stroke-width:1px;stroke-linecap:butt;stroke-linejoin:miter;stroke-opacity:1" d="M 996,145.714 996,166.555 z" id="boundary" inkscape:connector-curvature="0" />
	<path style="fill:none;stroke:red;stroke-width:1px;stroke-linecap:butt;stroke-linejoin:miter;stroke-opacity:1" d="M 996,166.555 996,187.395 z" id="boundary" inkscape:connector-curvature="0" />
	<path style="fill:none;stroke:red;stroke-width:1px;stroke-linecap:butt;stroke-linejoin:miter;stroke-opacity:1" d="M 996,208.235 996,187.395 z" id="boundary" inkscape:connector-curvature="0" />
	<path style="fill:none;stroke:red;stroke-width:1px;stroke-linecap:butt;stroke-linejoin:miter;stroke-opacity:1" d="M 996,229.076 996,249.916 z" id="boundary" inkscape:connector-curvature="0" />
	<path style="fill:none;stroke:red;stroke-width:1px;stroke-linecap:butt;stroke-linejoin:miter;stroke-opacity:1" d="M 996,270.756 996,291.597 z" id="boundary" inkscape:connector-curvature="0" />
	<path style="fill:none;stroke:red;stroke-width:1px;stroke-linecap:butt;stroke-linejoin:miter;stroke-opacity:1" d="M 996,270.756 996,249.916 z" id="boundary" inkscape:connector-curvature="0" />
	<path style="fill:none;stroke:red;stroke-width:1px;stroke-linecap:butt;stroke-linejoin:miter;stroke-opacity:1" d="M 996,229.076 996,208.235 z" id="boundary" inkscape:connector-curvature="0" />
	<path style="fill:none;stroke:red;stroke-width:1px;stroke-linecap:butt;stroke-linejoin:miter;stroke-opacity:1" d="M 996,312.437 996,291.597 z" id="boundary" inkscape:connector-curvature="0" />
	<path style="fill:none;stroke:red;stroke-width:1px;stroke-linecap:butt;stroke-linejoin:miter;stroke-opacity:1" d="M 472.908,610.454 452.067,610.454 z" id="boundary" inkscape:connector-curvature="0" />
	<path style="fill:none;stroke:red;stroke-width:1px;stroke-linecap:butt;stroke-linejoin:miter;stroke-opacity:1" d="M 493.748,610.454 472.908,610.454 z" id="boundary" inkscape:connector-curvature="0" />
	<path style="fill:none;stroke:red;stroke-width:1px;stroke-linecap:butt;stroke-linejoin:miter;stroke-opacity:1" d="M 637.546,600.034 616.706,600.034 z" id="boundary" inkscape:connector-curvature="0" />
	<path style="fill:none;stroke:red;stroke-width:1px;stroke-linecap:butt;stroke-linejoin:miter;stroke-opacity:1" d="M 658.387,600.034 637.546,600.034 z" id="boundary" inkscape:connector-curvature="0" />
	<path style="fill:none;stroke:red;stroke-width:1px;stroke-linecap:butt;stroke-linejoin:miter;stroke-opacity:1" d="M 616.706,600.034 597.95,610.454 z" id="boundary" inkscape:connector-curvature="0" />
	<path style="fill:none;stroke:red;stroke-width:1px;stroke-linecap:butt;stroke-linejoin:miter;stroke-opacity:1" d="M 679.227,600.034 658.387,600.034 z" id="boundary" inkscape:connector-curvature="0" />
	<path style="fill:none;stroke:red;stroke-width:1px;stroke-linecap:butt;stroke-linejoin:miter;stroke-opacity:1" d="M 700.067,600.034 679.227,600.034 z" id="boundary" inkscape:connector-curvature="0" />
	<path style="fill:none;stroke:red;stroke-width:1px;stroke-linecap:butt;stroke-linejoin:miter;stroke-opacity:1" d="M 741.748,600.034 720.908,600.034 z" id="boundary" inkscape:connector-curvature="0" />
	<path style="fill:none;stroke:red;stroke-width:1px;stroke-linecap:butt;stroke-linejoin:miter;stroke-opacity:1" d="M 720.908,600.034 700.067,600.034 z" id="boundary" inkscape:connector-curvature="0" />
	<path style="fill:none;stroke:red;stroke-width:1px;stroke-linecap:butt;stroke-linejoin:miter;stroke-opacity:1" d="M 762.588,600.034 741.748,600.034 z" id="boundary" inkscape:connector-curvature="0" />
	<path style="fill:none;stroke:red;stroke-width:1px;stroke-linecap:butt;stroke-linejoin:miter;stroke-opacity:1" d="M 762.588,600.034 783.429,600.034 z" id="boundary" inkscape:connector-curvature="0" />
	<path style="fill:none;stroke:red;stroke-width:1px;stroke-linecap:butt;stroke-linejoin:miter;stroke-opacity:1" d="M 493.748,610.454 514.588,610.454 z" id="boundary" inkscape:connector-curvature="0" />
	<path style="fill:none;stroke:red;stroke-width:1px;stroke-linecap:butt;stroke-linejoin:miter;stroke-opacity:1" d="M 535.429,610.454 514.588,610.454 z" id="boundary" inkscape:connector-curvature="0" />
	<path style="fill:none;stroke:red;stroke-width:1px;stroke-linecap:butt;stroke-linejoin:miter;stroke-opacity:1" d="M 556.269,610.454 535.429,610.454 z" id="boundary" inkscape:connector-curvature="0" />
	<path style="fill:none;stroke:red;stroke-width:1px;stroke-linecap:butt;stroke-linejoin:miter;stroke-opacity:1" d="M 556.269,610.454 577.109,610.454 z" id="boundary" inkscape:connector-curvature="0" />
	<path style="fill:none;stroke:red;stroke-width:1px;stroke-linecap:butt;stroke-linejoin:miter;stroke-opacity:1" d="M 597.95,610.454 577.109,610.454 z" id="boundary" inkscape:connector-curvature="0" />
	<path style="fill:none;stroke:red;stroke-width:1px;stroke-linecap:butt;stroke-linejoin:miter;stroke-opacity:1" d="M 996,333.277 996,354.118 z" id="boundary" inkscape:connector-curvature="0" />
	<path style="fill:none;stroke:red;stroke-width:1px;stroke-linecap:butt;stroke-linejoin:miter;stroke-opacity:1" d="M 996,333.277 996,312.437 z" id="boundary" inkscape:connector-curvature="0" />
	<path style="fill:none;stroke:red;stroke-width:1px;stroke-linecap:butt;stroke-linejoin:miter;stroke-opacity:1" d="M 996,354.118 996,374.958 z" id="boundary" inkscape:connector-curvature="0" />
	<path style="fill:none;stroke:red;stroke-width:1px;stroke-linecap:butt;stroke-linejoin:miter;stroke-opacity:1" d="M 996,395.798 996,416.639 z" id="boundary" inkscape:connector-curvature="0" />
	<path style="fill:none;stroke:red;stroke-width:1px;stroke-linecap:butt;stroke-linejoin:miter;stroke-opacity:1" d="M 996,395.798 996,374.958 z" id="boundary" inkscape:connector-curvature="0" />
	<path style="fill:none;stroke:red;stroke-width:1px;stroke-linecap:butt;stroke-linejoin:miter;stroke-opacity:1" d="M 996,416.639 996,437.479 z" id="boundary" inkscape:connector-curvature="0" />
	<path style="fill:none;stroke:red;stroke-width:1px;stroke-linecap:butt;stroke-linejoin:miter;stroke-opacity:1" d="M 996,437.479 996,458.319 z" id="boundary" inkscape:connector-curvature="0" />
	<path style="fill:none;stroke:red;stroke-width:1px;stroke-linecap:butt;stroke-linejoin:miter;stroke-opacity:1" d="M 996,479.16 996,500 z" id="boundary" inkscape:connector-curvature="0" />
	<path style="fill:none;stroke:red;stroke-width:1px;stroke-linecap:butt;stroke-linejoin:miter;stroke-opacity:1" d="M 996,479.16 996,458.319 z" id="boundary" inkscape:connector-curvature="0" />
	<path style="fill:none;stroke:red;stroke-width:1px;stroke-linecap:butt;stroke-linejoin:miter;stroke-opacity:1" d="M 996,500 989.748,535.429 z" id="boundary" inkscape:connector-curvature="0" />
	<path style="fill:none;stroke:red;stroke-width:1px;stroke-linecap:butt;stroke-linejoin:miter;stroke-opacity:1" d="M 804.269,600.034 825.109,600.034 z" id="boundary" inkscape:connector-curvature="0" />
	<path style="fill:none;stroke:red;stroke-width:1px;stroke-linecap:butt;stroke-linejoin:miter;stroke-opacity:1" d="M 804.269,600.034 783.429,600.034 z" id="boundary" inkscape:connector-curvature="0" />
	<path style="fill:none;stroke:red;stroke-width:1px;stroke-linecap:butt;stroke-linejoin:miter;stroke-opacity:1" d="M 825.109,600.034 845.95,600.034 z" id="boundary" inkscape:connector-curvature="0" />
	<path style="fill:none;stroke:red;stroke-width:1px;stroke-linecap:butt;stroke-linejoin:miter;stroke-opacity:1" d="M 866.79,600.034 845.95,600.034 z" id="boundary" inkscape:connector-curvature="0" />
	<path style="fill:none;stroke:red;stroke-width:1px;stroke-linecap:butt;stroke-linejoin:miter;stroke-opacity:1" d="M 866.79,600.034 887.63,600.034 z" id="boundary" inkscape:connector-curvature="0" />
	<path style="fill:none;stroke:red;stroke-width:1px;stroke-linecap:butt;stroke-linejoin:miter;stroke-opacity:1" d="M 941.815,572.941 920.975,579.193 z" id="boundary" inkscape:connector-curvature="0" />
	<path style="fill:none;stroke:red;stroke-width:1px;stroke-linecap:butt;stroke-linejoin:miter;stroke-opacity:1" d="M 941.815,572.941 958.487,556.269 z" id="boundary" inkscape:connector-curvature="0" />
	<path style="fill:none;stroke:red;stroke-width:1px;stroke-linecap:butt;stroke-linejoin:miter;stroke-opacity:1" d="M 968.908,537.513 989.748,535.429 z" id="boundary" inkscape:connector-curvature="0" />
	<path style="fill:none;stroke:red;stroke-width:1px;stroke-linecap:butt;stroke-linejoin:miter;stroke-opacity:1" d="M 968.908,537.513 958.487,556.269 z" id="boundary" inkscape:connector-curvature="0" />
	<path style="fill:none;stroke:red;stroke-width:1px;stroke-linecap:butt;stroke-linejoin:miter;stroke-opacity:1" d="M 908.471,595.866 887.63,600.034 z" id="boundary" inkscape:connector-curvature="0" />
	<path style="fill:none;stroke:red;stroke-width:1px;stroke-linecap:butt;stroke-linejoin:miter;stroke-opacity:1" d="M 908.471,595.866 920.975,579.193 z" id="boundary" inkscape:connector-curvature="0" />
	<circle cx="4" cy="135.294" r="4" fill="#0" id="circle0"/>
	<circle cx="4" cy="156.134" r="4" fill="#0" id="circle1"/>
	<circle cx="4" cy="176.975" r="4" fill="#0" id="circle2"/>
	<circle cx="4" cy="197.815" r="4" fill="#0" id="circle3"/>
	<circle cx="4" cy="218.655" r="4" fill="#0" id="circle4"/>
	<circle cx="4" cy="239.496" r="4" fill="#0" id="circle5"/>
	<circle cx="4" cy="260.336" r="4" fill="#0" id="circle6"/>
	<circle cx="4" cy="281.176" r="4" fill="#0" id="circle7"/>
	<circle cx="4" cy="302.017" r="4" fill="#0" id="circle8"/>
	<circle cx="4" cy="322.857" r="4" fill="#0" id="circle9"/>
	<circle cx="14.4202" cy="104.034" r="4" fill="#0" id="circle10"/>
	<circle cx="14.4202" cy="341.613" r="4" fill="#0" id="circle11"/>
	<circle cx="14.4202" cy="362.454" r="4" fill="#0" id="circle12"/>
	<circle cx="14.4202" cy="383.294" r="4" fill="#0" id="circle13"/>
	<circle cx="14.4202" cy="404.134" r="4" fill="#0" id="circle14"/>
	<circle cx="14.4202" cy="424.975" r="4" fill="#0" id="circle15"/>
	<circle cx="14.4202" cy="445.815" r="4" fill="#0" id="circle16"/>
	<circle cx="14.4202" cy="466.655" r="4" fill="#0" id="circle17"/>
	<circle cx="14.4202" cy="487.496" r="4" fill="#0" id="circle18"/>
	<circle cx="14.4202" cy="508.336" r="4" fill="#0" id="circle19"/>
	<circle cx="14.4202" cy="529.176" r="4" fill="#0" id="circle20"/>
	<circle cx="14.4202" cy="550.017" r="4" fill="#0" id="circle21"/>
	<circle cx="24.8403" cy="568.773" r="4" fill="#0" id="circle22"/>
	<circle cx="31.0924" cy="87.3613" r="4" fill="#0" id="circle23"/>
	<circle cx="43.5966" cy="579.193" r="4" fill="#0" id="circle24"/>
	<circle cx="51.9328" cy="87.3613" r="4" fill="#0" id="circle25"/>
	<circle cx="56.1008" cy="62.3529" r="4" fill="#0" id="circle26"/>
	<circle cx="58.1849" cy="595.866" r="4" fill="#0" id="circle27"/>
	<circle cx="74.8571" cy="610.454" r="4" fill="#0" id="circle28"/>
	<circle cx="76.9412" cy="51.9328" r="4" fill="#0" id="circle29"/>
	<circle cx="95.6975" cy="610.454" r="4" fill="#0" id="circle30"/>
	<circle cx="97.7815" cy="45.6807" r="4" fill="#0" id="circle31"/>
	<circle cx="116.538" cy="610.454" r="4" fill="#0" id="circle32"/>
	<circle cx="118.622" cy="45.6807" r="4" fill="#0" id="circle33"/>
	<circle cx="135.294" cy="620.874" r="4" fill="#0" id="circle34"/>
	<circle cx="139.462" cy="41.5126" r="4" fill="#0" id="circle35"/>
	<circle cx="156.134" cy="620.874" r="4" fill="#0" id="circle36"/>
	<circle cx="160.303" cy="35.2605" r="4" fill="#0" id="circle37"/>
	<circle cx="174.891" cy="610.454" r="4" fill="#0" id="circle38"/>
	<circle cx="181.143" cy="35.2605" r="4" fill="#0" id="circle39"/>
	<circle cx="195.731" cy="616.706" r="4" fill="#0" id="circle40"/>
	<circle cx="201.983" cy="35.2605" r="4" fill="#0" id="circle41"/>
	<circle cx="201.983" cy="637.546" r="4" fill="#0" id="circle42"/>
	<circle cx="204.067" cy="658.387" r="4" fill="#0" id="circle43"/>
	<circle cx="212.403" cy="679.227" r="4" fill="#0" id="circle44"/>
	<circle cx="214.487" cy="700.067" r="4" fill="#0" id="circle45"/>
	<circle cx="222.824" cy="35.2605" r="4" fill="#0" id="circle46"/>
	<circle cx="233.244" cy="710.487" r="4" fill="#0" id="circle47"/>
	<circle cx="233.244" cy="731.328" r="4" fill="#0" id="circle48"/>
	<circle cx="243.664" cy="35.2605" r="4" fill="#0" id="circle49"/>
	<circle cx="243.664" cy="750.084" r="4" fill="#0" id="circle50"/>
	<circle cx="254.084" cy="768.84" r="4" fill="#0" id="circle51"/>
	<circle cx="264.504" cy="35.2605" r="4" fill="#0" id="circle52"/>
	<circle cx="264.504" cy="787.597" r="4" fill="#0" id="circle53"/>
	<circle cx="285.345" cy="35.2605" r="4" fill="#0" id="circle54"/>
	<circle cx="285.345" cy="787.597" r="4" fill="#0" id="circle55"/>
	<circle cx="291.597" cy="808.437" r="4" fill="#0" id="circle56"/>
	<circle cx="306.185" cy="35.2605" r="4" fill="#0" id="circle57"/>
	<circle cx="306.185" cy="791.765" r="4" fill="#0" id="circle58"/>
	<circle cx="327.025" cy="35.2605" r="4" fill="#0" id="circle59"/>
	<circle cx="327.025" cy="781.345" r="4" fill="#0" id="circle60"/>
	<circle cx="329.109" cy="756.336" r="4" fill="#0" id="circle61"/>
	<circle cx="339.529" cy="735.496" r="4" fill="#0" id="circle62"/>
	<circle cx="347.866" cy="35.2605" r="4" fill="#0" id="circle63"/>
	<circle cx="349.95" cy="714.655" r="4" fill="#0" id="circle64"/>
	<circle cx="368.706" cy="35.2605" r="4" fill="#0" id="circle65"/>
	<circle cx="368.706" cy="704.235" r="4" fill="#0" id="circle66"/>
	<circle cx="381.21" cy="18.5882" r="4" fill="#0" id="circle67"/>
	<circle cx="387.462" cy="693.815" r="4" fill="#0" id="circle68"/>
	<circle cx="402.05" cy="14.4202" r="4" fill="#0" id="circle69"/>
	<circle cx="402.05" cy="672.975" r="4" fill="#0" id="circle70"/>
	<circle cx="412.471" cy="641.714" r="4" fill="#0" id="circle71"/>
	<circle cx="422.891" cy="14.4202" r="4" fill="#0" id="circle72"/>
	<circle cx="433.311" cy="620.874" r="4" fill="#0" id="circle73"/>
	<circle cx="443.731" cy="14.4202" r="4" fill="#0" id="circle74"/>
	<circle cx="452.067" cy="610.454" r="4" fill="#0" id="circle75"/>
	<circle cx="464.571" cy="14.4202" r="4" fill="#0" id="circle76"/>
	<circle cx="472.908" cy="610.454" r="4" fill="#0" id="circle77"/>
	<circle cx="485.412" cy="14.4202" r="4" fill="#0" id="circle78"/>
	<circle cx="493.748" cy="610.454" r="4" fill="#0" id="circle79"/>
	<circle cx="506.252" cy="14.4202" r="4" fill="#0" id="circle80"/>
	<circle cx="514.588" cy="610.454" r="4" fill="#0" id="circle81"/>
	<circle cx="527.092" cy="14.4202" r="4" fill="#0" id="circle82"/>
	<circle cx="535.429" cy="610.454" r="4" fill="#0" id="circle83"/>
	<circle cx="547.933" cy="14.4202" r="4" fill="#0" id="circle84"/>
	<circle cx="556.269" cy="610.454" r="4" fill="#0" id="circle85"/>
	<circle cx="568.773" cy="14.4202" r="4" fill="#0" id="circle86"/>
	<circle cx="577.109" cy="610.454" r="4" fill="#0" id="circle87"/>
	<circle cx="589.613" cy="14.4202" r="4" fill="#0" id="circle88"/>
	<circle cx="597.95" cy="610.454" r="4" fill="#0" id="circle89"/>
	<circle cx="610.454" cy="14.4202" r="4" fill="#0" id="circle90"/>
	<circle cx="616.706" cy="600.034" r="4" fill="#0" id="circle91"/>
	<circle cx="631.294" cy="14.4202" r="4" fill="#0" id="circle92"/>
	<circle cx="637.546" cy="600.034" r="4" fill="#0" id="circle93"/>
	<circle cx="652.134" cy="14.4202" r="4" fill="#0" id="circle94"/>
	<circle cx="658.387" cy="600.034" r="4" fill="#0" id="circle95"/>
	<circle cx="672.975" cy="14.4202" r="4" fill="#0" id="circle96"/>
	<circle cx="679.227" cy="600.034" r="4" fill="#0" id="circle97"/>
	<circle cx="693.815" cy="14.4202" r="4" fill="#0" id="circle98"/>
	<circle cx="700.067" cy="600.034" r="4" fill="#0" id="circle99"/>
	<circle cx="714.655" cy="14.4202" r="4" fill="#0" id="circle100"/>
	<circle cx="720.908" cy="600.034" r="4" fill="#0" id="circle101"/>
	<circle cx="735.496" cy="14.4202" r="4" fill="#0" id="circle102"/>
	<circle cx="741.748" cy="600.034" r="4" fill="#0" id="circle103"/>
	<circle cx="756.336" cy="14.4202" r="4" fill="#0" id="circle104"/>
	<circle cx="762.588" cy="600.034" r="4" fill="#0" id="circle105"/>
	<circle cx="777.176" cy="14.4202" r="4" fill="#0" id="circle106"/>
	<circle cx="783.429" cy="600.034" r="4" fill="#0" id="circle107"/>
	<circle cx="798.017" cy="14.4202" r="4" fill="#0" id="circle108"/>
	<circle cx="804.269" cy="600.034" r="4" fill="#0" id="circle109"/>
	<circle cx="816.773" cy="4" r="4" fill="#0" id="circle110"/>
	<circle cx="825.109" cy="600.034" r="4" fill="#0" id="circle111"/>
	<circle cx="837.613" cy="4" r="4" fill="#0" id="circle112"/>
	<circle cx="845.95" cy="600.034" r="4" fill="#0" id="circle113"/>
	<circle cx="858.454" cy="8.16807" r="4" fill="#0" id="circle114"/>
	<circle cx="866.79" cy="600.034" r="4" fill="#0" id="circle115"/>
	<circle cx="879.294" cy="14.4202" r="4" fill="#0" id="circle116"/>
	<circle cx="887.63" cy="600.034" r="4" fill="#0" id="circle117"/>
	<circle cx="900.134" cy="18.5882" r="4" fill="#0" id="circle118"/>
	<circle cx="908.471" cy="595.866" r="4" fill="#0" id="circle119"/>
	<circle cx="912.639" cy="35.2605" r="4" fill="#0" id="circle120"/>
	<circle cx="920.975" cy="579.193" r="4" fill="#0" id="circle121"/>
	<circle cx="933.479" cy="41.5126" r="4" fill="#0" id="circle122"/>
	<circle cx="941.815" cy="572.941" r="4" fill="#0" id="circle123"/>
	<circle cx="948.067" cy="58.1849" r="4" fill="#0" id="circle124"/>
	<circle cx="954.319" cy="79.0252" r="4" fill="#0" id="circle125"/>
	<circle cx="958.487" cy="556.269" r="4" fill="#0" id="circle126"/>
	<circle cx="964.739" cy="97.7815" r="4" fill="#0" id="circle127"/>
	<circle cx="968.908" cy="537.513" r="4" fill="#0" id="circle128"/>
	<circle cx="983.496" cy="108.202" r="4" fill="#0" id="circle129"/>
	<circle cx="989.748" cy="535.429" r="4" fill="#0" id="circle130"/>
	<circle cx="996" cy="124.874" r="4" fill="#0" id="circle131"/>
	<circle cx="996" cy="145.714" r="4" fill="#0" id="circle132"/>
	<circle cx="996" cy="166.555" r="4" fill="#0" id="circle133"/>
	<circle cx="996" cy="187.395" r="4" fill="#0" id="circle134"/>
	<circle cx="996" cy="208.235" r="4" fill="#0" id="circle135"/>
	<circle cx="996" cy="229.076" r="4" fill="#0" id="circle136"/>
	<circle cx="996" cy="249.916" r="4" fill="#0" id="circle137"/>
	<circle cx="996" cy="270.756" r="4" fill="#0" id="circle138"/>
	<circle cx="996" cy="291.597" r="4" fill="#0" id="circle139"/>
	<circle cx="996" cy="312.437" r="4" fill="#0" id="circle140"/>
	<circle cx="996" cy="333.277" r="4" fill="#0" id="circle141"/>
	<circle cx="996" cy="354.118" r="4" fill="#0" id="circle142"/>
	<circle cx="996" cy="374.958" r="4" fill="#0" id="circle143"/>
	<circle cx="996" cy="395.798" r="4" fill="#0" id="circle144"/>
	<circle cx="996" cy="416.639" r="4" fill="#0" id="circle145"/>
	<circle cx="996" cy="437.479" r="4" fill="#0" id="circle146"/>
	<circle cx="996" cy="458.319" r="4" fill="#0" id="circle147"/>
	<circle cx="996" cy="479.16" r="4" fill="#0" id="circle148"/>
	<circle cx="996" cy="500" r="4" fill="#0" id="circle149"/>
	</g>
</svg>