<?xml version="1.0" encoding="UTF-8" standalone="no"?>
<!-- Created with CurveBenchmark -->
<svg
	xmlns:dc="http://purl.org/dc/elements/1.1/"
	xmlns:cc="http://creativecommons.org/ns#"
	xmlns:rdf="http://www.w3.org/1999/02/22-rdf-syntax-ns#"
	xmlns:svg="http://www.w3.org/2000/svg"
	xmlns="http://www.w3.org/2000/svg"
	xmlns:sodipodi="http://sodipodi.sourceforge.net/DTD/sodipodi-0.dtd"
	xmlns:inkscape="http://www.inkscape.org/namespaces/inkscape"
	width="1000"
	height="1000"
	id="svg2"
	version="1.1"
	sodipodi:docname="manifold/crust-teddy240.png.txt">
<defs
	id="defs4" />
<metadata
	id="metadata7">
	<rdf:RDF>
		<cc:Work
			rdf:about="">
			<dc:format>image/svg+xml</dc:format>
			<dc:type
				rdf:resource="http://purl.org/dc/dcmitype/StillImage" />
			<dc:title></dc:title>
		</cc:Work>
	</rdf:RDF>
</metadata>
<g
	inkscape:label="Layer 1"
	inkscape:groupmode="layer"
	id="layer1">
	<path style="fill:none;stroke:red;stroke-width:1px;stroke-linecap:butt;stroke-linejoin:miter;stroke-opacity:1" d="M 57.698,450.541 35.0883,470.325 z" id="boundary" inkscape:connector-curvature="0" />
	<path style="fill:none;stroke:red;stroke-width:1px;stroke-linecap:butt;stroke-linejoin:miter;stroke-opacity:1" d="M 35.0883,470.325 20.9573,495.761 z" id="boundary" inkscape:connector-curvature="0" />
	<path style="fill:none;stroke:red;stroke-width:1px;stroke-linecap:butt;stroke-linejoin:miter;stroke-opacity:1" d="M 114.222,433.584 85.9601,444.889 z" id="boundary" inkscape:connector-curvature="0" />
	<path style="fill:none;stroke:red;stroke-width:1px;stroke-linecap:butt;stroke-linejoin:miter;stroke-opacity:1" d="M 85.9601,444.889 57.698,450.541 z" id="boundary" inkscape:connector-curvature="0" />
	<path style="fill:none;stroke:red;stroke-width:1px;stroke-linecap:butt;stroke-linejoin:miter;stroke-opacity:1" d="M 170.746,427.932 142.484,433.584 z" id="boundary" inkscape:connector-curvature="0" />
	<path style="fill:none;stroke:red;stroke-width:1px;stroke-linecap:butt;stroke-linejoin:miter;stroke-opacity:1" d="M 142.484,433.584 114.222,433.584 z" id="boundary" inkscape:connector-curvature="0" />
	<path style="fill:none;stroke:red;stroke-width:1px;stroke-linecap:butt;stroke-linejoin:miter;stroke-opacity:1" d="M 193.356,408.148 170.746,427.932 z" id="boundary" inkscape:connector-curvature="0" />
	<path style="fill:none;stroke:red;stroke-width:1px;stroke-linecap:butt;stroke-linejoin:miter;stroke-opacity:1" d="M 20.9573,524.023 20.9573,495.761 z" id="boundary" inkscape:connector-curvature="0" />
	<path style="fill:none;stroke:red;stroke-width:1px;stroke-linecap:butt;stroke-linejoin:miter;stroke-opacity:1" d="M 23.7835,552.285 20.9573,524.023 z" id="boundary" inkscape:connector-curvature="0" />
	<path style="fill:none;stroke:red;stroke-width:1px;stroke-linecap:butt;stroke-linejoin:miter;stroke-opacity:1" d="M 35.0883,580.547 23.7835,552.285 z" id="boundary" inkscape:connector-curvature="0" />
	<path style="fill:none;stroke:red;stroke-width:1px;stroke-linecap:butt;stroke-linejoin:miter;stroke-opacity:1" d="M 57.698,600.33 35.0883,580.547 z" id="boundary" inkscape:connector-curvature="0" />
	<path style="fill:none;stroke:red;stroke-width:1px;stroke-linecap:butt;stroke-linejoin:miter;stroke-opacity:1" d="M 80.3077,617.288 57.698,600.33 z" id="boundary" inkscape:connector-curvature="0" />
	<path style="fill:none;stroke:red;stroke-width:1px;stroke-linecap:butt;stroke-linejoin:miter;stroke-opacity:1" d="M 134.006,642.724 105.744,631.419 z" id="boundary" inkscape:connector-curvature="0" />
	<path style="fill:none;stroke:red;stroke-width:1px;stroke-linecap:butt;stroke-linejoin:miter;stroke-opacity:1" d="M 80.3077,617.288 105.744,631.419 z" id="boundary" inkscape:connector-curvature="0" />
	<path style="fill:none;stroke:red;stroke-width:1px;stroke-linecap:butt;stroke-linejoin:miter;stroke-opacity:1" d="M 252.707,54.8718 275.316,32.2621 z" id="boundary" inkscape:connector-curvature="0" />
	<path style="fill:none;stroke:red;stroke-width:1px;stroke-linecap:butt;stroke-linejoin:miter;stroke-opacity:1" d="M 275.316,32.2621 297.926,15.3048 z" id="boundary" inkscape:connector-curvature="0" />
	<path style="fill:none;stroke:red;stroke-width:1px;stroke-linecap:butt;stroke-linejoin:miter;stroke-opacity:1" d="M 326.188,9.65242 297.926,15.3048 z" id="boundary" inkscape:connector-curvature="0" />
	<path style="fill:none;stroke:red;stroke-width:1px;stroke-linecap:butt;stroke-linejoin:miter;stroke-opacity:1" d="M 252.707,83.1339 252.707,54.8718 z" id="boundary" inkscape:connector-curvature="0" />
	<path style="fill:none;stroke:red;stroke-width:1px;stroke-linecap:butt;stroke-linejoin:miter;stroke-opacity:1" d="M 258.359,111.396 264.011,139.658 z" id="boundary" inkscape:connector-curvature="0" />
	<path style="fill:none;stroke:red;stroke-width:1px;stroke-linecap:butt;stroke-linejoin:miter;stroke-opacity:1" d="M 258.359,111.396 252.707,83.1339 z" id="boundary" inkscape:connector-curvature="0" />
	<path style="fill:none;stroke:red;stroke-width:1px;stroke-linecap:butt;stroke-linejoin:miter;stroke-opacity:1" d="M 264.011,139.658 275.316,167.92 z" id="boundary" inkscape:connector-curvature="0" />
	<path style="fill:none;stroke:red;stroke-width:1px;stroke-linecap:butt;stroke-linejoin:miter;stroke-opacity:1" d="M 275.316,167.92 275.316,218.792 z" id="boundary" inkscape:connector-curvature="0" />
	<path style="fill:none;stroke:red;stroke-width:1px;stroke-linecap:butt;stroke-linejoin:miter;stroke-opacity:1" d="M 326.188,9.65242 354.45,4 z" id="boundary" inkscape:connector-curvature="0" />
	<path style="fill:none;stroke:red;stroke-width:1px;stroke-linecap:butt;stroke-linejoin:miter;stroke-opacity:1" d="M 382.712,9.65242 410.974,20.9573 z" id="boundary" inkscape:connector-curvature="0" />
	<path style="fill:none;stroke:red;stroke-width:1px;stroke-linecap:butt;stroke-linejoin:miter;stroke-opacity:1" d="M 354.45,4 382.712,9.65242 z" id="boundary" inkscape:connector-curvature="0" />
	<path style="fill:none;stroke:red;stroke-width:1px;stroke-linecap:butt;stroke-linejoin:miter;stroke-opacity:1" d="M 221.618,396.843 193.356,408.148 z" id="boundary" inkscape:connector-curvature="0" />
	<path style="fill:none;stroke:red;stroke-width:1px;stroke-linecap:butt;stroke-linejoin:miter;stroke-opacity:1" d="M 249.88,385.538 221.618,396.843 z" id="boundary" inkscape:connector-curvature="0" />
	<path style="fill:none;stroke:red;stroke-width:1px;stroke-linecap:butt;stroke-linejoin:miter;stroke-opacity:1" d="M 275.316,247.054 275.316,275.316 z" id="boundary" inkscape:connector-curvature="0" />
	<path style="fill:none;stroke:red;stroke-width:1px;stroke-linecap:butt;stroke-linejoin:miter;stroke-opacity:1" d="M 286.621,331.84 278.142,303.578 z" id="boundary" inkscape:connector-curvature="0" />
	<path style="fill:none;stroke:red;stroke-width:1px;stroke-linecap:butt;stroke-linejoin:miter;stroke-opacity:1" d="M 275.316,275.316 278.142,303.578 z" id="boundary" inkscape:connector-curvature="0" />
	<path style="fill:none;stroke:red;stroke-width:1px;stroke-linecap:butt;stroke-linejoin:miter;stroke-opacity:1" d="M 275.316,247.054 275.316,218.792 z" id="boundary" inkscape:connector-curvature="0" />
	<path style="fill:none;stroke:red;stroke-width:1px;stroke-linecap:butt;stroke-linejoin:miter;stroke-opacity:1" d="M 286.621,331.84 297.926,360.103 z" id="boundary" inkscape:connector-curvature="0" />
	<path style="fill:none;stroke:red;stroke-width:1px;stroke-linecap:butt;stroke-linejoin:miter;stroke-opacity:1" d="M 249.88,385.538 278.142,382.712 z" id="boundary" inkscape:connector-curvature="0" />
	<path style="fill:none;stroke:red;stroke-width:1px;stroke-linecap:butt;stroke-linejoin:miter;stroke-opacity:1" d="M 278.142,382.712 297.926,360.103 z" id="boundary" inkscape:connector-curvature="0" />
	<path style="fill:none;stroke:red;stroke-width:1px;stroke-linecap:butt;stroke-linejoin:miter;stroke-opacity:1" d="M 162.268,651.202 134.006,642.724 z" id="boundary" inkscape:connector-curvature="0" />
	<path style="fill:none;stroke:red;stroke-width:1px;stroke-linecap:butt;stroke-linejoin:miter;stroke-opacity:1" d="M 410.974,20.9573 436.41,35.0883 z" id="boundary" inkscape:connector-curvature="0" />
	<path style="fill:none;stroke:red;stroke-width:1px;stroke-linecap:butt;stroke-linejoin:miter;stroke-opacity:1" d="M 26.6097,767.077 15.3048,795.339 z" id="boundary" inkscape:connector-curvature="0" />
	<path style="fill:none;stroke:red;stroke-width:1px;stroke-linecap:butt;stroke-linejoin:miter;stroke-opacity:1" d="M 49.2194,750.12 26.6097,767.077 z" id="boundary" inkscape:connector-curvature="0" />
	<path style="fill:none;stroke:red;stroke-width:1px;stroke-linecap:butt;stroke-linejoin:miter;stroke-opacity:1" d="M 71.8291,733.162 49.2194,750.12 z" id="boundary" inkscape:connector-curvature="0" />
	<path style="fill:none;stroke:red;stroke-width:1px;stroke-linecap:butt;stroke-linejoin:miter;stroke-opacity:1" d="M 4,840.558 15.3048,795.339 z" id="boundary" inkscape:connector-curvature="0" />
	<path style="fill:none;stroke:red;stroke-width:1px;stroke-linecap:butt;stroke-linejoin:miter;stroke-opacity:1" d="M 71.8291,733.162 100.091,727.51 z" id="boundary" inkscape:connector-curvature="0" />
	<path style="fill:none;stroke:red;stroke-width:1px;stroke-linecap:butt;stroke-linejoin:miter;stroke-opacity:1" d="M 100.091,727.51 128.353,727.51 z" id="boundary" inkscape:connector-curvature="0" />
	<path style="fill:none;stroke:red;stroke-width:1px;stroke-linecap:butt;stroke-linejoin:miter;stroke-opacity:1" d="M 128.353,727.51 156.615,727.51 z" id="boundary" inkscape:connector-curvature="0" />
	<path style="fill:none;stroke:red;stroke-width:1px;stroke-linecap:butt;stroke-linejoin:miter;stroke-opacity:1" d="M 4,840.558 4,868.821 z" id="boundary" inkscape:connector-curvature="0" />
	<path style="fill:none;stroke:red;stroke-width:1px;stroke-linecap:butt;stroke-linejoin:miter;stroke-opacity:1" d="M 4,897.083 4,868.821 z" id="boundary" inkscape:connector-curvature="0" />
	<path style="fill:none;stroke:red;stroke-width:1px;stroke-linecap:butt;stroke-linejoin:miter;stroke-opacity:1" d="M 46.3932,967.738 23.7835,950.781 z" id="boundary" inkscape:connector-curvature="0" />
	<path style="fill:none;stroke:red;stroke-width:1px;stroke-linecap:butt;stroke-linejoin:miter;stroke-opacity:1" d="M 23.7835,950.781 9.65242,925.345 z" id="boundary" inkscape:connector-curvature="0" />
	<path style="fill:none;stroke:red;stroke-width:1px;stroke-linecap:butt;stroke-linejoin:miter;stroke-opacity:1" d="M 97.265,996 69.0028,984.695 z" id="boundary" inkscape:connector-curvature="0" />
	<path style="fill:none;stroke:red;stroke-width:1px;stroke-linecap:butt;stroke-linejoin:miter;stroke-opacity:1" d="M 69.0028,984.695 46.3932,967.738 z" id="boundary" inkscape:connector-curvature="0" />
	<path style="fill:none;stroke:red;stroke-width:1px;stroke-linecap:butt;stroke-linejoin:miter;stroke-opacity:1" d="M 9.65242,925.345 4,897.083 z" id="boundary" inkscape:connector-curvature="0" />
	<path style="fill:none;stroke:red;stroke-width:1px;stroke-linecap:butt;stroke-linejoin:miter;stroke-opacity:1" d="M 153.789,996 125.527,996 z" id="boundary" inkscape:connector-curvature="0" />
	<path style="fill:none;stroke:red;stroke-width:1px;stroke-linecap:butt;stroke-linejoin:miter;stroke-opacity:1" d="M 125.527,996 97.265,996 z" id="boundary" inkscape:connector-curvature="0" />
	<path style="fill:none;stroke:red;stroke-width:1px;stroke-linecap:butt;stroke-linejoin:miter;stroke-opacity:1" d="M 156.615,727.51 184.877,733.162 z" id="boundary" inkscape:connector-curvature="0" />
	<path style="fill:none;stroke:red;stroke-width:1px;stroke-linecap:butt;stroke-linejoin:miter;stroke-opacity:1" d="M 162.268,651.202 190.53,662.507 z" id="boundary" inkscape:connector-curvature="0" />
	<path style="fill:none;stroke:red;stroke-width:1px;stroke-linecap:butt;stroke-linejoin:miter;stroke-opacity:1" d="M 190.53,662.507 218.792,656.855 z" id="boundary" inkscape:connector-curvature="0" />
	<path style="fill:none;stroke:red;stroke-width:1px;stroke-linecap:butt;stroke-linejoin:miter;stroke-opacity:1" d="M 218.792,656.855 247.054,668.16 z" id="boundary" inkscape:connector-curvature="0" />
	<path style="fill:none;stroke:red;stroke-width:1px;stroke-linecap:butt;stroke-linejoin:miter;stroke-opacity:1" d="M 241.402,716.205 213.14,721.858 z" id="boundary" inkscape:connector-curvature="0" />
	<path style="fill:none;stroke:red;stroke-width:1px;stroke-linecap:butt;stroke-linejoin:miter;stroke-opacity:1" d="M 213.14,721.858 184.877,733.162 z" id="boundary" inkscape:connector-curvature="0" />
	<path style="fill:none;stroke:red;stroke-width:1px;stroke-linecap:butt;stroke-linejoin:miter;stroke-opacity:1" d="M 269.664,693.595 241.402,716.205 z" id="boundary" inkscape:connector-curvature="0" />
	<path style="fill:none;stroke:red;stroke-width:1px;stroke-linecap:butt;stroke-linejoin:miter;stroke-opacity:1" d="M 269.664,693.595 247.054,668.16 z" id="boundary" inkscape:connector-curvature="0" />
	<path style="fill:none;stroke:red;stroke-width:1px;stroke-linecap:butt;stroke-linejoin:miter;stroke-opacity:1" d="M 182.051,996 153.789,996 z" id="boundary" inkscape:connector-curvature="0" />
	<path style="fill:none;stroke:red;stroke-width:1px;stroke-linecap:butt;stroke-linejoin:miter;stroke-opacity:1" d="M 210.313,993.174 182.051,996 z" id="boundary" inkscape:connector-curvature="0" />
	<path style="fill:none;stroke:red;stroke-width:1px;stroke-linecap:butt;stroke-linejoin:miter;stroke-opacity:1" d="M 235.749,979.043 210.313,993.174 z" id="boundary" inkscape:connector-curvature="0" />
	<path style="fill:none;stroke:red;stroke-width:1px;stroke-linecap:butt;stroke-linejoin:miter;stroke-opacity:1" d="M 235.749,979.043 264.011,973.39 z" id="boundary" inkscape:connector-curvature="0" />
	<path style="fill:none;stroke:red;stroke-width:1px;stroke-linecap:butt;stroke-linejoin:miter;stroke-opacity:1" d="M 264.011,973.39 292.274,967.738 z" id="boundary" inkscape:connector-curvature="0" />
	<path style="fill:none;stroke:red;stroke-width:1px;stroke-linecap:butt;stroke-linejoin:miter;stroke-opacity:1" d="M 292.274,967.738 320.536,973.39 z" id="boundary" inkscape:connector-curvature="0" />
	<path style="fill:none;stroke:red;stroke-width:1px;stroke-linecap:butt;stroke-linejoin:miter;stroke-opacity:1" d="M 320.536,973.39 348.798,979.043 z" id="boundary" inkscape:connector-curvature="0" />
	<path style="fill:none;stroke:red;stroke-width:1px;stroke-linecap:butt;stroke-linejoin:miter;stroke-opacity:1" d="M 348.798,979.043 377.06,981.869 z" id="boundary" inkscape:connector-curvature="0" />
	<path style="fill:none;stroke:red;stroke-width:1px;stroke-linecap:butt;stroke-linejoin:miter;stroke-opacity:1" d="M 377.06,981.869 405.322,984.695 z" id="boundary" inkscape:connector-curvature="0" />
	<path style="fill:none;stroke:red;stroke-width:1px;stroke-linecap:butt;stroke-linejoin:miter;stroke-opacity:1" d="M 405.322,984.695 433.584,990.348 z" id="boundary" inkscape:connector-curvature="0" />
	<path style="fill:none;stroke:red;stroke-width:1px;stroke-linecap:butt;stroke-linejoin:miter;stroke-opacity:1" d="M 716.205,9.65242 687.943,4 z" id="boundary" inkscape:connector-curvature="0" />
	<path style="fill:none;stroke:red;stroke-width:1px;stroke-linecap:butt;stroke-linejoin:miter;stroke-opacity:1" d="M 464.672,43.567 436.41,35.0883 z" id="boundary" inkscape:connector-curvature="0" />
	<path style="fill:none;stroke:red;stroke-width:1px;stroke-linecap:butt;stroke-linejoin:miter;stroke-opacity:1" d="M 492.934,40.7407 464.672,43.567 z" id="boundary" inkscape:connector-curvature="0" />
	<path style="fill:none;stroke:red;stroke-width:1px;stroke-linecap:butt;stroke-linejoin:miter;stroke-opacity:1" d="M 521.197,43.567 492.934,40.7407 z" id="boundary" inkscape:connector-curvature="0" />
	<path style="fill:none;stroke:red;stroke-width:1px;stroke-linecap:butt;stroke-linejoin:miter;stroke-opacity:1" d="M 687.943,4 659.681,9.65242 z" id="boundary" inkscape:connector-curvature="0" />
	<path style="fill:none;stroke:red;stroke-width:1px;stroke-linecap:butt;stroke-linejoin:miter;stroke-opacity:1" d="M 659.681,9.65242 631.419,15.3048 z" id="boundary" inkscape:connector-curvature="0" />
	<path style="fill:none;stroke:red;stroke-width:1px;stroke-linecap:butt;stroke-linejoin:miter;stroke-opacity:1" d="M 549.459,43.567 521.197,43.567 z" id="boundary" inkscape:connector-curvature="0" />
	<path style="fill:none;stroke:red;stroke-width:1px;stroke-linecap:butt;stroke-linejoin:miter;stroke-opacity:1" d="M 577.721,43.567 549.459,43.567 z" id="boundary" inkscape:connector-curvature="0" />
	<path style="fill:none;stroke:red;stroke-width:1px;stroke-linecap:butt;stroke-linejoin:miter;stroke-opacity:1" d="M 605.983,29.4359 577.721,43.567 z" id="boundary" inkscape:connector-curvature="0" />
	<path style="fill:none;stroke:red;stroke-width:1px;stroke-linecap:butt;stroke-linejoin:miter;stroke-opacity:1" d="M 605.983,29.4359 631.419,15.3048 z" id="boundary" inkscape:connector-curvature="0" />
	<path style="fill:none;stroke:red;stroke-width:1px;stroke-linecap:butt;stroke-linejoin:miter;stroke-opacity:1" d="M 716.205,9.65242 744.467,20.9573 z" id="boundary" inkscape:connector-curvature="0" />
	<path style="fill:none;stroke:red;stroke-width:1px;stroke-linecap:butt;stroke-linejoin:miter;stroke-opacity:1" d="M 744.467,20.9573 767.077,37.9145 z" id="boundary" inkscape:connector-curvature="0" />
	<path style="fill:none;stroke:red;stroke-width:1px;stroke-linecap:butt;stroke-linejoin:miter;stroke-opacity:1" d="M 781.208,100.091 772.729,136.832 z" id="boundary" inkscape:connector-curvature="0" />
	<path style="fill:none;stroke:red;stroke-width:1px;stroke-linecap:butt;stroke-linejoin:miter;stroke-opacity:1" d="M 747.293,190.53 741.641,224.444 z" id="boundary" inkscape:connector-curvature="0" />
	<path style="fill:none;stroke:red;stroke-width:1px;stroke-linecap:butt;stroke-linejoin:miter;stroke-opacity:1" d="M 741.641,224.444 741.641,252.707 z" id="boundary" inkscape:connector-curvature="0" />
	<path style="fill:none;stroke:red;stroke-width:1px;stroke-linecap:butt;stroke-linejoin:miter;stroke-opacity:1" d="M 761.425,165.094 747.293,190.53 z" id="boundary" inkscape:connector-curvature="0" />
	<path style="fill:none;stroke:red;stroke-width:1px;stroke-linecap:butt;stroke-linejoin:miter;stroke-opacity:1" d="M 772.729,136.832 761.425,165.094 z" id="boundary" inkscape:connector-curvature="0" />
	<path style="fill:none;stroke:red;stroke-width:1px;stroke-linecap:butt;stroke-linejoin:miter;stroke-opacity:1" d="M 767.077,37.9145 784.034,60.5242 z" id="boundary" inkscape:connector-curvature="0" />
	<path style="fill:none;stroke:red;stroke-width:1px;stroke-linecap:butt;stroke-linejoin:miter;stroke-opacity:1" d="M 781.208,100.091 784.034,60.5242 z" id="boundary" inkscape:connector-curvature="0" />
	<path style="fill:none;stroke:red;stroke-width:1px;stroke-linecap:butt;stroke-linejoin:miter;stroke-opacity:1" d="M 707.726,371.407 724.684,343.145 z" id="boundary" inkscape:connector-curvature="0" />
	<path style="fill:none;stroke:red;stroke-width:1px;stroke-linecap:butt;stroke-linejoin:miter;stroke-opacity:1" d="M 735.989,292.274 724.684,343.145 z" id="boundary" inkscape:connector-curvature="0" />
	<path style="fill:none;stroke:red;stroke-width:1px;stroke-linecap:butt;stroke-linejoin:miter;stroke-opacity:1" d="M 735.989,382.712 764.251,388.365 z" id="boundary" inkscape:connector-curvature="0" />
	<path style="fill:none;stroke:red;stroke-width:1px;stroke-linecap:butt;stroke-linejoin:miter;stroke-opacity:1" d="M 735.989,382.712 707.726,371.407 z" id="boundary" inkscape:connector-curvature="0" />
	<path style="fill:none;stroke:red;stroke-width:1px;stroke-linecap:butt;stroke-linejoin:miter;stroke-opacity:1" d="M 764.251,388.365 792.513,399.67 z" id="boundary" inkscape:connector-curvature="0" />
	<path style="fill:none;stroke:red;stroke-width:1px;stroke-linecap:butt;stroke-linejoin:miter;stroke-opacity:1" d="M 735.989,292.274 741.641,252.707 z" id="boundary" inkscape:connector-curvature="0" />
	<path style="fill:none;stroke:red;stroke-width:1px;stroke-linecap:butt;stroke-linejoin:miter;stroke-opacity:1" d="M 815.123,416.627 792.513,399.67 z" id="boundary" inkscape:connector-curvature="0" />
	<path style="fill:none;stroke:red;stroke-width:1px;stroke-linecap:butt;stroke-linejoin:miter;stroke-opacity:1" d="M 815.123,416.627 834.906,439.236 z" id="boundary" inkscape:connector-curvature="0" />
	<path style="fill:none;stroke:red;stroke-width:1px;stroke-linecap:butt;stroke-linejoin:miter;stroke-opacity:1" d="M 834.906,439.236 851.863,461.846 z" id="boundary" inkscape:connector-curvature="0" />
	<path style="fill:none;stroke:red;stroke-width:1px;stroke-linecap:butt;stroke-linejoin:miter;stroke-opacity:1" d="M 871.647,484.456 880.125,512.718 z" id="boundary" inkscape:connector-curvature="0" />
	<path style="fill:none;stroke:red;stroke-width:1px;stroke-linecap:butt;stroke-linejoin:miter;stroke-opacity:1" d="M 851.863,461.846 871.647,484.456 z" id="boundary" inkscape:connector-curvature="0" />
	<path style="fill:none;stroke:red;stroke-width:1px;stroke-linecap:butt;stroke-linejoin:miter;stroke-opacity:1" d="M 880.125,512.718 877.299,546.632 z" id="boundary" inkscape:connector-curvature="0" />
	<path style="fill:none;stroke:red;stroke-width:1px;stroke-linecap:butt;stroke-linejoin:miter;stroke-opacity:1" d="M 713.379,699.248 721.858,727.51 z" id="boundary" inkscape:connector-curvature="0" />
	<path style="fill:none;stroke:red;stroke-width:1px;stroke-linecap:butt;stroke-linejoin:miter;stroke-opacity:1" d="M 707.726,670.986 713.379,699.248 z" id="boundary" inkscape:connector-curvature="0" />
	<path style="fill:none;stroke:red;stroke-width:1px;stroke-linecap:butt;stroke-linejoin:miter;stroke-opacity:1" d="M 707.726,670.986 735.989,673.812 z" id="boundary" inkscape:connector-curvature="0" />
	<path style="fill:none;stroke:red;stroke-width:1px;stroke-linecap:butt;stroke-linejoin:miter;stroke-opacity:1" d="M 461.846,993.174 490.108,996 z" id="boundary" inkscape:connector-curvature="0" />
	<path style="fill:none;stroke:red;stroke-width:1px;stroke-linecap:butt;stroke-linejoin:miter;stroke-opacity:1" d="M 461.846,993.174 433.584,990.348 z" id="boundary" inkscape:connector-curvature="0" />
	<path style="fill:none;stroke:red;stroke-width:1px;stroke-linecap:butt;stroke-linejoin:miter;stroke-opacity:1" d="M 631.419,993.174 603.157,990.348 z" id="boundary" inkscape:connector-curvature="0" />
	<path style="fill:none;stroke:red;stroke-width:1px;stroke-linecap:butt;stroke-linejoin:miter;stroke-opacity:1" d="M 603.157,990.348 574.895,996 z" id="boundary" inkscape:connector-curvature="0" />
	<path style="fill:none;stroke:red;stroke-width:1px;stroke-linecap:butt;stroke-linejoin:miter;stroke-opacity:1" d="M 490.108,996 518.37,996 z" id="boundary" inkscape:connector-curvature="0" />
	<path style="fill:none;stroke:red;stroke-width:1px;stroke-linecap:butt;stroke-linejoin:miter;stroke-opacity:1" d="M 546.632,996 518.37,996 z" id="boundary" inkscape:connector-curvature="0" />
	<path style="fill:none;stroke:red;stroke-width:1px;stroke-linecap:butt;stroke-linejoin:miter;stroke-opacity:1" d="M 546.632,996 574.895,996 z" id="boundary" inkscape:connector-curvature="0" />
	<path style="fill:none;stroke:red;stroke-width:1px;stroke-linecap:butt;stroke-linejoin:miter;stroke-opacity:1" d="M 631.419,993.174 659.681,996 z" id="boundary" inkscape:connector-curvature="0" />
	<path style="fill:none;stroke:red;stroke-width:1px;stroke-linecap:butt;stroke-linejoin:miter;stroke-opacity:1" d="M 687.943,996 659.681,996 z" id="boundary" inkscape:connector-curvature="0" />
	<path style="fill:none;stroke:red;stroke-width:1px;stroke-linecap:butt;stroke-linejoin:miter;stroke-opacity:1" d="M 716.205,996 687.943,996 z" id="boundary" inkscape:connector-curvature="0" />
	<path style="fill:none;stroke:red;stroke-width:1px;stroke-linecap:butt;stroke-linejoin:miter;stroke-opacity:1" d="M 716.205,996 744.467,996 z" id="boundary" inkscape:connector-curvature="0" />
	<path style="fill:none;stroke:red;stroke-width:1px;stroke-linecap:butt;stroke-linejoin:miter;stroke-opacity:1" d="M 812.296,628.593 789.687,645.55 z" id="boundary" inkscape:connector-curvature="0" />
	<path style="fill:none;stroke:red;stroke-width:1px;stroke-linecap:butt;stroke-linejoin:miter;stroke-opacity:1" d="M 789.687,645.55 764.251,659.681 z" id="boundary" inkscape:connector-curvature="0" />
	<path style="fill:none;stroke:red;stroke-width:1px;stroke-linecap:butt;stroke-linejoin:miter;stroke-opacity:1" d="M 750.12,735.989 721.858,727.51 z" id="boundary" inkscape:connector-curvature="0" />
	<path style="fill:none;stroke:red;stroke-width:1px;stroke-linecap:butt;stroke-linejoin:miter;stroke-opacity:1" d="M 735.989,673.812 764.251,659.681 z" id="boundary" inkscape:connector-curvature="0" />
	<path style="fill:none;stroke:red;stroke-width:1px;stroke-linecap:butt;stroke-linejoin:miter;stroke-opacity:1" d="M 834.906,611.635 812.296,628.593 z" id="boundary" inkscape:connector-curvature="0" />
	<path style="fill:none;stroke:red;stroke-width:1px;stroke-linecap:butt;stroke-linejoin:miter;stroke-opacity:1" d="M 857.516,589.026 834.906,611.635 z" id="boundary" inkscape:connector-curvature="0" />
	<path style="fill:none;stroke:red;stroke-width:1px;stroke-linecap:butt;stroke-linejoin:miter;stroke-opacity:1" d="M 857.516,589.026 877.299,546.632 z" id="boundary" inkscape:connector-curvature="0" />
	<path style="fill:none;stroke:red;stroke-width:1px;stroke-linecap:butt;stroke-linejoin:miter;stroke-opacity:1" d="M 772.729,752.946 750.12,735.989 z" id="boundary" inkscape:connector-curvature="0" />
	<path style="fill:none;stroke:red;stroke-width:1px;stroke-linecap:butt;stroke-linejoin:miter;stroke-opacity:1" d="M 815.123,860.342 815.123,888.604 z" id="boundary" inkscape:connector-curvature="0" />
	<path style="fill:none;stroke:red;stroke-width:1px;stroke-linecap:butt;stroke-linejoin:miter;stroke-opacity:1" d="M 792.513,775.556 798.165,803.818 z" id="boundary" inkscape:connector-curvature="0" />
	<path style="fill:none;stroke:red;stroke-width:1px;stroke-linecap:butt;stroke-linejoin:miter;stroke-opacity:1" d="M 792.513,775.556 772.729,752.946 z" id="boundary" inkscape:connector-curvature="0" />
	<path style="fill:none;stroke:red;stroke-width:1px;stroke-linecap:butt;stroke-linejoin:miter;stroke-opacity:1" d="M 772.729,990.348 744.467,996 z" id="boundary" inkscape:connector-curvature="0" />
	<path style="fill:none;stroke:red;stroke-width:1px;stroke-linecap:butt;stroke-linejoin:miter;stroke-opacity:1" d="M 795.339,973.39 772.729,990.348 z" id="boundary" inkscape:connector-curvature="0" />
	<path style="fill:none;stroke:red;stroke-width:1px;stroke-linecap:butt;stroke-linejoin:miter;stroke-opacity:1" d="M 815.123,945.128 795.339,973.39 z" id="boundary" inkscape:connector-curvature="0" />
	<path style="fill:none;stroke:red;stroke-width:1px;stroke-linecap:butt;stroke-linejoin:miter;stroke-opacity:1" d="M 798.165,803.818 809.47,832.08 z" id="boundary" inkscape:connector-curvature="0" />
	<path style="fill:none;stroke:red;stroke-width:1px;stroke-linecap:butt;stroke-linejoin:miter;stroke-opacity:1" d="M 815.123,860.342 809.47,832.08 z" id="boundary" inkscape:connector-curvature="0" />
	<path style="fill:none;stroke:red;stroke-width:1px;stroke-linecap:butt;stroke-linejoin:miter;stroke-opacity:1" d="M 815.123,888.604 815.123,916.866 z" id="boundary" inkscape:connector-curvature="0" />
	<path style="fill:none;stroke:red;stroke-width:1px;stroke-linecap:butt;stroke-linejoin:miter;stroke-opacity:1" d="M 815.123,945.128 815.123,916.866 z" id="boundary" inkscape:connector-curvature="0" />
	<circle cx="4" cy="840.558" r="4" fill="#0" id="circle0"/>
	<circle cx="4" cy="868.821" r="4" fill="#0" id="circle1"/>
	<circle cx="4" cy="897.083" r="4" fill="#0" id="circle2"/>
	<circle cx="9.65242" cy="925.345" r="4" fill="#0" id="circle3"/>
	<circle cx="15.3048" cy="795.339" r="4" fill="#0" id="circle4"/>
	<circle cx="20.9573" cy="495.761" r="4" fill="#0" id="circle5"/>
	<circle cx="20.9573" cy="524.023" r="4" fill="#0" id="circle6"/>
	<circle cx="23.7835" cy="552.285" r="4" fill="#0" id="circle7"/>
	<circle cx="23.7835" cy="950.781" r="4" fill="#0" id="circle8"/>
	<circle cx="26.6097" cy="767.077" r="4" fill="#0" id="circle9"/>
	<circle cx="35.0883" cy="470.325" r="4" fill="#0" id="circle10"/>
	<circle cx="35.0883" cy="580.547" r="4" fill="#0" id="circle11"/>
	<circle cx="46.3932" cy="967.738" r="4" fill="#0" id="circle12"/>
	<circle cx="49.2194" cy="750.12" r="4" fill="#0" id="circle13"/>
	<circle cx="57.698" cy="450.541" r="4" fill="#0" id="circle14"/>
	<circle cx="57.698" cy="600.33" r="4" fill="#0" id="circle15"/>
	<circle cx="69.0028" cy="984.695" r="4" fill="#0" id="circle16"/>
	<circle cx="71.8291" cy="733.162" r="4" fill="#0" id="circle17"/>
	<circle cx="80.3077" cy="617.288" r="4" fill="#0" id="circle18"/>
	<circle cx="85.9601" cy="444.889" r="4" fill="#0" id="circle19"/>
	<circle cx="97.265" cy="996" r="4" fill="#0" id="circle20"/>
	<circle cx="100.091" cy="727.51" r="4" fill="#0" id="circle21"/>
	<circle cx="105.744" cy="631.419" r="4" fill="#0" id="circle22"/>
	<circle cx="114.222" cy="433.584" r="4" fill="#0" id="circle23"/>
	<circle cx="125.527" cy="996" r="4" fill="#0" id="circle24"/>
	<circle cx="128.353" cy="727.51" r="4" fill="#0" id="circle25"/>
	<circle cx="134.006" cy="642.724" r="4" fill="#0" id="circle26"/>
	<circle cx="142.484" cy="433.584" r="4" fill="#0" id="circle27"/>
	<circle cx="153.789" cy="996" r="4" fill="#0" id="circle28"/>
	<circle cx="156.615" cy="727.51" r="4" fill="#0" id="circle29"/>
	<circle cx="162.268" cy="651.202" r="4" fill="#0" id="circle30"/>
	<circle cx="170.746" cy="427.932" r="4" fill="#0" id="circle31"/>
	<circle cx="182.051" cy="996" r="4" fill="#0" id="circle32"/>
	<circle cx="184.877" cy="733.162" r="4" fill="#0" id="circle33"/>
	<circle cx="190.53" cy="662.507" r="4" fill="#0" id="circle34"/>
	<circle cx="193.356" cy="408.148" r="4" fill="#0" id="circle35"/>
	<circle cx="210.313" cy="993.174" r="4" fill="#0" id="circle36"/>
	<circle cx="213.14" cy="721.858" r="4" fill="#0" id="circle37"/>
	<circle cx="218.792" cy="656.855" r="4" fill="#0" id="circle38"/>
	<circle cx="221.618" cy="396.843" r="4" fill="#0" id="circle39"/>
	<circle cx="235.749" cy="979.043" r="4" fill="#0" id="circle40"/>
	<circle cx="241.402" cy="716.205" r="4" fill="#0" id="circle41"/>
	<circle cx="247.054" cy="668.16" r="4" fill="#0" id="circle42"/>
	<circle cx="249.88" cy="385.538" r="4" fill="#0" id="circle43"/>
	<circle cx="252.707" cy="54.8718" r="4" fill="#0" id="circle44"/>
	<circle cx="252.707" cy="83.1339" r="4" fill="#0" id="circle45"/>
	<circle cx="258.359" cy="111.396" r="4" fill="#0" id="circle46"/>
	<circle cx="264.011" cy="139.658" r="4" fill="#0" id="circle47"/>
	<circle cx="264.011" cy="973.39" r="4" fill="#0" id="circle48"/>
	<circle cx="269.664" cy="693.595" r="4" fill="#0" id="circle49"/>
	<circle cx="275.316" cy="32.2621" r="4" fill="#0" id="circle50"/>
	<circle cx="275.316" cy="167.92" r="4" fill="#0" id="circle51"/>
	<circle cx="275.316" cy="218.792" r="4" fill="#0" id="circle52"/>
	<circle cx="275.316" cy="247.054" r="4" fill="#0" id="circle53"/>
	<circle cx="275.316" cy="275.316" r="4" fill="#0" id="circle54"/>
	<circle cx="278.142" cy="303.578" r="4" fill="#0" id="circle55"/>
	<circle cx="278.142" cy="382.712" r="4" fill="#0" id="circle56"/>
	<circle cx="286.621" cy="331.84" r="4" fill="#0" id="circle57"/>
	<circle cx="292.274" cy="967.738" r="4" fill="#0" id="circle58"/>
	<circle cx="297.926" cy="15.3048" r="4" fill="#0" id="circle59"/>
	<circle cx="297.926" cy="360.103" r="4" fill="#0" id="circle60"/>
	<circle cx="320.536" cy="973.39" r="4" fill="#0" id="circle61"/>
	<circle cx="326.188" cy="9.65242" r="4" fill="#0" id="circle62"/>
	<circle cx="348.798" cy="979.043" r="4" fill="#0" id="circle63"/>
	<circle cx="354.45" cy="4" r="4" fill="#0" id="circle64"/>
	<circle cx="377.06" cy="981.869" r="4" fill="#0" id="circle65"/>
	<circle cx="382.712" cy="9.65242" r="4" fill="#0" id="circle66"/>
	<circle cx="405.322" cy="984.695" r="4" fill="#0" id="circle67"/>
	<circle cx="410.974" cy="20.9573" r="4" fill="#0" id="circle68"/>
	<circle cx="433.584" cy="990.348" r="4" fill="#0" id="circle69"/>
	<circle cx="436.41" cy="35.0883" r="4" fill="#0" id="circle70"/>
	<circle cx="461.846" cy="993.174" r="4" fill="#0" id="circle71"/>
	<circle cx="464.672" cy="43.567" r="4" fill="#0" id="circle72"/>
	<circle cx="490.108" cy="996" r="4" fill="#0" id="circle73"/>
	<circle cx="492.934" cy="40.7407" r="4" fill="#0" id="circle74"/>
	<circle cx="518.37" cy="996" r="4" fill="#0" id="circle75"/>
	<circle cx="521.197" cy="43.567" r="4" fill="#0" id="circle76"/>
	<circle cx="546.632" cy="996" r="4" fill="#0" id="circle77"/>
	<circle cx="549.459" cy="43.567" r="4" fill="#0" id="circle78"/>
	<circle cx="574.895" cy="996" r="4" fill="#0" id="circle79"/>
	<circle cx="577.721" cy="43.567" r="4" fill="#0" id="circle80"/>
	<circle cx="603.157" cy="990.348" r="4" fill="#0" id="circle81"/>
	<circle cx="605.983" cy="29.4359" r="4" fill="#0" id="circle82"/>
	<circle cx="631.419" cy="15.3048" r="4" fill="#0" id="circle83"/>
	<circle cx="631.419" cy="993.174" r="4" fill="#0" id="circle84"/>
	<circle cx="659.681" cy="9.65242" r="4" fill="#0" id="circle85"/>
	<circle cx="659.681" cy="996" r="4" fill="#0" id="circle86"/>
	<circle cx="687.943" cy="4" r="4" fill="#0" id="circle87"/>
	<circle cx="687.943" cy="996" r="4" fill="#0" id="circle88"/>
	<circle cx="707.726" cy="371.407" r="4" fill="#0" id="circle89"/>
	<circle cx="707.726" cy="670.986" r="4" fill="#0" id="circle90"/>
	<circle cx="713.379" cy="699.248" r="4" fill="#0" id="circle91"/>
	<circle cx="716.205" cy="9.65242" r="4" fill="#0" id="circle92"/>
	<circle cx="716.205" cy="996" r="4" fill="#0" id="circle93"/>
	<circle cx="721.858" cy="727.51" r="4" fill="#0" id="circle94"/>
	<circle cx="724.684" cy="343.145" r="4" fill="#0" id="circle95"/>
	<circle cx="735.989" cy="292.274" r="4" fill="#0" id="circle96"/>
	<circle cx="735.989" cy="382.712" r="4" fill="#0" id="circle97"/>
	<circle cx="735.989" cy="673.812" r="4" fill="#0" id="circle98"/>
	<circle cx="741.641" cy="224.444" r="4" fill="#0" id="circle99"/>
	<circle cx="741.641" cy="252.707" r="4" fill="#0" id="circle100"/>
	<circle cx="744.467" cy="20.9573" r="4" fill="#0" id="circle101"/>
	<circle cx="744.467" cy="996" r="4" fill="#0" id="circle102"/>
	<circle cx="747.293" cy="190.53" r="4" fill="#0" id="circle103"/>
	<circle cx="750.12" cy="735.989" r="4" fill="#0" id="circle104"/>
	<circle cx="761.425" cy="165.094" r="4" fill="#0" id="circle105"/>
	<circle cx="764.251" cy="388.365" r="4" fill="#0" id="circle106"/>
	<circle cx="764.251" cy="659.681" r="4" fill="#0" id="circle107"/>
	<circle cx="767.077" cy="37.9145" r="4" fill="#0" id="circle108"/>
	<circle cx="772.729" cy="136.832" r="4" fill="#0" id="circle109"/>
	<circle cx="772.729" cy="752.946" r="4" fill="#0" id="circle110"/>
	<circle cx="772.729" cy="990.348" r="4" fill="#0" id="circle111"/>
	<circle cx="781.208" cy="100.091" r="4" fill="#0" id="circle112"/>
	<circle cx="784.034" cy="60.5242" r="4" fill="#0" id="circle113"/>
	<circle cx="789.687" cy="645.55" r="4" fill="#0" id="circle114"/>
	<circle cx="792.513" cy="399.67" r="4" fill="#0" id="circle115"/>
	<circle cx="792.513" cy="775.556" r="4" fill="#0" id="circle116"/>
	<circle cx="795.339" cy="973.39" r="4" fill="#0" id="circle117"/>
	<circle cx="798.165" cy="803.818" r="4" fill="#0" id="circle118"/>
	<circle cx="809.47" cy="832.08" r="4" fill="#0" id="circle119"/>
	<circle cx="812.296" cy="628.593" r="4" fill="#0" id="circle120"/>
	<circle cx="815.123" cy="416.627" r="4" fill="#0" id="circle121"/>
	<circle cx="815.123" cy="860.342" r="4" fill="#0" id="circle122"/>
	<circle cx="815.123" cy="888.604" r="4" fill="#0" id="circle123"/>
	<circle cx="815.123" cy="916.866" r="4" fill="#0" id="circle124"/>
	<circle cx="815.123" cy="945.128" r="4" fill="#0" id="circle125"/>
	<circle cx="834.906" cy="439.236" r="4" fill="#0" id="circle126"/>
	<circle cx="834.906" cy="611.635" r="4" fill="#0" id="circle127"/>
	<circle cx="851.863" cy="461.846" r="4" fill="#0" id="circle128"/>
	<circle cx="857.516" cy="589.026" r="4" fill="#0" id="circle129"/>
	<circle cx="871.647" cy="484.456" r="4" fill="#0" id="circle130"/>
	<circle cx="877.299" cy="546.632" r="4" fill="#0" id="circle131"/>
	<circle cx="880.125" cy="512.718" r="4" fill="#0" id="circle132"/>
	</g>
</svg>