<?xml version="1.0" encoding="UTF-8" standalone="no"?>
<!-- Created with CurveBenchmark -->
<svg
	xmlns:dc="http://purl.org/dc/elements/1.1/"
	xmlns:cc="http://creativecommons.org/ns#"
	xmlns:rdf="http://www.w3.org/1999/02/22-rdf-syntax-ns#"
	xmlns:svg="http://www.w3.org/2000/svg"
	xmlns="http://www.w3.org/2000/svg"
	xmlns:sodipodi="http://sodipodi.sourceforge.net/DTD/sodipodi-0.dtd"
	xmlns:inkscape="http://www.inkscape.org/namespaces/inkscape"
	width="1000"
	height="1000"
	id="svg2"
	version="1.1"
	sodipodi:docname="manifold/crust-handocc4.png.txt">
<defs
	id="defs4" />
<metadata
	id="metadata7">
	<rdf:RDF>
		<cc:Work
			rdf:about="">
			<dc:format>image/svg+xml</dc:format>
			<dc:type
				rdf:resource="http://purl.org/dc/dcmitype/StillImage" />
			<dc:title></dc:title>
		</cc:Work>
	</rdf:RDF>
</metadata>
<g
	inkscape:label="Layer 1"
	inkscape:groupmode="layer"
	id="layer1">
	<path style="fill:none;stroke:red;stroke-width:1px;stroke-linecap:butt;stroke-linejoin:miter;stroke-opacity:1" d="M 191.338,107.482 191.338,89.6403 z" id="boundary" inkscape:connector-curvature="0" />
	<path style="fill:none;stroke:red;stroke-width:1px;stroke-linecap:butt;stroke-linejoin:miter;stroke-opacity:1" d="M 205.612,75.3669 191.338,89.6403 z" id="boundary" inkscape:connector-curvature="0" />
	<path style="fill:none;stroke:red;stroke-width:1px;stroke-linecap:butt;stroke-linejoin:miter;stroke-opacity:1" d="M 191.338,125.324 191.338,107.482 z" id="boundary" inkscape:connector-curvature="0" />
	<path style="fill:none;stroke:red;stroke-width:1px;stroke-linecap:butt;stroke-linejoin:miter;stroke-opacity:1" d="M 191.338,125.324 191.338,143.165 z" id="boundary" inkscape:connector-curvature="0" />
	<path style="fill:none;stroke:red;stroke-width:1px;stroke-linecap:butt;stroke-linejoin:miter;stroke-opacity:1" d="M 191.338,161.007 191.338,143.165 z" id="boundary" inkscape:connector-curvature="0" />
	<path style="fill:none;stroke:red;stroke-width:1px;stroke-linecap:butt;stroke-linejoin:miter;stroke-opacity:1" d="M 200.259,177.065 191.338,161.007 z" id="boundary" inkscape:connector-curvature="0" />
	<path style="fill:none;stroke:red;stroke-width:1px;stroke-linecap:butt;stroke-linejoin:miter;stroke-opacity:1" d="M 123.54,235.942 107.482,227.022 z" id="boundary" inkscape:connector-curvature="0" />
	<path style="fill:none;stroke:red;stroke-width:1px;stroke-linecap:butt;stroke-linejoin:miter;stroke-opacity:1" d="M 71.7986,227.022 89.6403,227.022 z" id="boundary" inkscape:connector-curvature="0" />
	<path style="fill:none;stroke:red;stroke-width:1px;stroke-linecap:butt;stroke-linejoin:miter;stroke-opacity:1" d="M 107.482,227.022 89.6403,227.022 z" id="boundary" inkscape:connector-curvature="0" />
	<path style="fill:none;stroke:red;stroke-width:1px;stroke-linecap:butt;stroke-linejoin:miter;stroke-opacity:1" d="M 200.259,177.065 200.259,194.906 z" id="boundary" inkscape:connector-curvature="0" />
	<path style="fill:none;stroke:red;stroke-width:1px;stroke-linecap:butt;stroke-linejoin:miter;stroke-opacity:1" d="M 200.259,212.748 200.259,194.906 z" id="boundary" inkscape:connector-curvature="0" />
	<path style="fill:none;stroke:red;stroke-width:1px;stroke-linecap:butt;stroke-linejoin:miter;stroke-opacity:1" d="M 209.18,228.806 200.259,212.748 z" id="boundary" inkscape:connector-curvature="0" />
	<path style="fill:none;stroke:red;stroke-width:1px;stroke-linecap:butt;stroke-linejoin:miter;stroke-opacity:1" d="M 71.7986,227.022 57.5252,241.295 z" id="boundary" inkscape:connector-curvature="0" />
	<path style="fill:none;stroke:red;stroke-width:1px;stroke-linecap:butt;stroke-linejoin:miter;stroke-opacity:1" d="M 205.612,75.3669 221.669,66.446 z" id="boundary" inkscape:connector-curvature="0" />
	<path style="fill:none;stroke:red;stroke-width:1px;stroke-linecap:butt;stroke-linejoin:miter;stroke-opacity:1" d="M 221.669,66.446 239.511,66.446 z" id="boundary" inkscape:connector-curvature="0" />
	<path style="fill:none;stroke:red;stroke-width:1px;stroke-linecap:butt;stroke-linejoin:miter;stroke-opacity:1" d="M 257.353,66.446 239.511,66.446 z" id="boundary" inkscape:connector-curvature="0" />
	<path style="fill:none;stroke:red;stroke-width:1px;stroke-linecap:butt;stroke-linejoin:miter;stroke-opacity:1" d="M 214.532,246.647 209.18,228.806 z" id="boundary" inkscape:connector-curvature="0" />
	<path style="fill:none;stroke:red;stroke-width:1px;stroke-linecap:butt;stroke-linejoin:miter;stroke-opacity:1" d="M 257.353,66.446 273.41,75.3669 z" id="boundary" inkscape:connector-curvature="0" />
	<path style="fill:none;stroke:red;stroke-width:1px;stroke-linecap:butt;stroke-linejoin:miter;stroke-opacity:1" d="M 57.5252,259.137 57.5252,241.295 z" id="boundary" inkscape:connector-curvature="0" />
	<path style="fill:none;stroke:red;stroke-width:1px;stroke-linecap:butt;stroke-linejoin:miter;stroke-opacity:1" d="M 57.5252,276.978 57.5252,259.137 z" id="boundary" inkscape:connector-curvature="0" />
	<path style="fill:none;stroke:red;stroke-width:1px;stroke-linecap:butt;stroke-linejoin:miter;stroke-opacity:1" d="M 57.5252,276.978 57.5252,294.82 z" id="boundary" inkscape:connector-curvature="0" />
	<path style="fill:none;stroke:red;stroke-width:1px;stroke-linecap:butt;stroke-linejoin:miter;stroke-opacity:1" d="M 66.446,310.878 57.5252,294.82 z" id="boundary" inkscape:connector-curvature="0" />
	<path style="fill:none;stroke:red;stroke-width:1px;stroke-linecap:butt;stroke-linejoin:miter;stroke-opacity:1" d="M 66.446,310.878 66.446,328.719 z" id="boundary" inkscape:connector-curvature="0" />
	<path style="fill:none;stroke:red;stroke-width:1px;stroke-linecap:butt;stroke-linejoin:miter;stroke-opacity:1" d="M 75.3669,344.777 66.446,328.719 z" id="boundary" inkscape:connector-curvature="0" />
	<path style="fill:none;stroke:red;stroke-width:1px;stroke-linecap:butt;stroke-linejoin:miter;stroke-opacity:1" d="M 123.54,235.942 137.813,248.432 z" id="boundary" inkscape:connector-curvature="0" />
	<path style="fill:none;stroke:red;stroke-width:1px;stroke-linecap:butt;stroke-linejoin:miter;stroke-opacity:1" d="M 148.518,262.705 137.813,248.432 z" id="boundary" inkscape:connector-curvature="0" />
	<path style="fill:none;stroke:red;stroke-width:1px;stroke-linecap:butt;stroke-linejoin:miter;stroke-opacity:1" d="M 148.518,280.547 148.518,262.705 z" id="boundary" inkscape:connector-curvature="0" />
	<path style="fill:none;stroke:red;stroke-width:1px;stroke-linecap:butt;stroke-linejoin:miter;stroke-opacity:1" d="M 218.101,264.489 214.532,246.647 z" id="boundary" inkscape:connector-curvature="0" />
	<path style="fill:none;stroke:red;stroke-width:1px;stroke-linecap:butt;stroke-linejoin:miter;stroke-opacity:1" d="M 218.101,264.489 218.101,282.331 z" id="boundary" inkscape:connector-curvature="0" />
	<path style="fill:none;stroke:red;stroke-width:1px;stroke-linecap:butt;stroke-linejoin:miter;stroke-opacity:1" d="M 157.439,296.604 148.518,280.547 z" id="boundary" inkscape:connector-curvature="0" />
	<path style="fill:none;stroke:red;stroke-width:1px;stroke-linecap:butt;stroke-linejoin:miter;stroke-opacity:1" d="M 157.439,314.446 157.439,296.604 z" id="boundary" inkscape:connector-curvature="0" />
	<path style="fill:none;stroke:red;stroke-width:1px;stroke-linecap:butt;stroke-linejoin:miter;stroke-opacity:1" d="M 166.36,330.504 157.439,314.446 z" id="boundary" inkscape:connector-curvature="0" />
	<path style="fill:none;stroke:red;stroke-width:1px;stroke-linecap:butt;stroke-linejoin:miter;stroke-opacity:1" d="M 218.101,282.331 218.101,300.173 z" id="boundary" inkscape:connector-curvature="0" />
	<path style="fill:none;stroke:red;stroke-width:1px;stroke-linecap:butt;stroke-linejoin:miter;stroke-opacity:1" d="M 223.453,318.014 227.022,335.856 z" id="boundary" inkscape:connector-curvature="0" />
	<path style="fill:none;stroke:red;stroke-width:1px;stroke-linecap:butt;stroke-linejoin:miter;stroke-opacity:1" d="M 218.101,300.173 223.453,318.014 z" id="boundary" inkscape:connector-curvature="0" />
	<path style="fill:none;stroke:red;stroke-width:1px;stroke-linecap:butt;stroke-linejoin:miter;stroke-opacity:1" d="M 173.496,348.345 166.36,330.504 z" id="boundary" inkscape:connector-curvature="0" />
	<path style="fill:none;stroke:red;stroke-width:1px;stroke-linecap:butt;stroke-linejoin:miter;stroke-opacity:1" d="M 282.331,91.4245 273.41,75.3669 z" id="boundary" inkscape:connector-curvature="0" />
	<path style="fill:none;stroke:red;stroke-width:1px;stroke-linecap:butt;stroke-linejoin:miter;stroke-opacity:1" d="M 282.331,91.4245 291.252,107.482 z" id="boundary" inkscape:connector-curvature="0" />
	<path style="fill:none;stroke:red;stroke-width:1px;stroke-linecap:butt;stroke-linejoin:miter;stroke-opacity:1" d="M 342.993,45.036 342.993,62.8777 z" id="boundary" inkscape:connector-curvature="0" />
	<path style="fill:none;stroke:red;stroke-width:1px;stroke-linecap:butt;stroke-linejoin:miter;stroke-opacity:1" d="M 342.993,45.036 342.993,27.1942 z" id="boundary" inkscape:connector-curvature="0" />
	<path style="fill:none;stroke:red;stroke-width:1px;stroke-linecap:butt;stroke-linejoin:miter;stroke-opacity:1" d="M 342.993,80.7194 342.993,98.5612 z" id="boundary" inkscape:connector-curvature="0" />
	<path style="fill:none;stroke:red;stroke-width:1px;stroke-linecap:butt;stroke-linejoin:miter;stroke-opacity:1" d="M 342.993,62.8777 342.993,80.7194 z" id="boundary" inkscape:connector-curvature="0" />
	<path style="fill:none;stroke:red;stroke-width:1px;stroke-linecap:butt;stroke-linejoin:miter;stroke-opacity:1" d="M 357.266,12.9209 342.993,27.1942 z" id="boundary" inkscape:connector-curvature="0" />
	<path style="fill:none;stroke:red;stroke-width:1px;stroke-linecap:butt;stroke-linejoin:miter;stroke-opacity:1" d="M 291.252,125.324 291.252,107.482 z" id="boundary" inkscape:connector-curvature="0" />
	<path style="fill:none;stroke:red;stroke-width:1px;stroke-linecap:butt;stroke-linejoin:miter;stroke-opacity:1" d="M 291.252,161.007 291.252,143.165 z" id="boundary" inkscape:connector-curvature="0" />
	<path style="fill:none;stroke:red;stroke-width:1px;stroke-linecap:butt;stroke-linejoin:miter;stroke-opacity:1" d="M 291.252,143.165 291.252,125.324 z" id="boundary" inkscape:connector-curvature="0" />
	<path style="fill:none;stroke:red;stroke-width:1px;stroke-linecap:butt;stroke-linejoin:miter;stroke-opacity:1" d="M 300.173,177.065 291.252,161.007 z" id="boundary" inkscape:connector-curvature="0" />
	<path style="fill:none;stroke:red;stroke-width:1px;stroke-linecap:butt;stroke-linejoin:miter;stroke-opacity:1" d="M 342.993,98.5612 342.993,116.403 z" id="boundary" inkscape:connector-curvature="0" />
	<path style="fill:none;stroke:red;stroke-width:1px;stroke-linecap:butt;stroke-linejoin:miter;stroke-opacity:1" d="M 357.266,12.9209 373.324,4 z" id="boundary" inkscape:connector-curvature="0" />
	<path style="fill:none;stroke:red;stroke-width:1px;stroke-linecap:butt;stroke-linejoin:miter;stroke-opacity:1" d="M 391.165,4 373.324,4 z" id="boundary" inkscape:connector-curvature="0" />
	<path style="fill:none;stroke:red;stroke-width:1px;stroke-linecap:butt;stroke-linejoin:miter;stroke-opacity:1" d="M 391.165,4 409.007,4 z" id="boundary" inkscape:connector-curvature="0" />
	<path style="fill:none;stroke:red;stroke-width:1px;stroke-linecap:butt;stroke-linejoin:miter;stroke-opacity:1" d="M 342.993,134.245 342.993,116.403 z" id="boundary" inkscape:connector-curvature="0" />
	<path style="fill:none;stroke:red;stroke-width:1px;stroke-linecap:butt;stroke-linejoin:miter;stroke-opacity:1" d="M 342.993,152.086 342.993,134.245 z" id="boundary" inkscape:connector-curvature="0" />
	<path style="fill:none;stroke:red;stroke-width:1px;stroke-linecap:butt;stroke-linejoin:miter;stroke-opacity:1" d="M 342.993,152.086 342.993,169.928 z" id="boundary" inkscape:connector-curvature="0" />
	<path style="fill:none;stroke:red;stroke-width:1px;stroke-linecap:butt;stroke-linejoin:miter;stroke-opacity:1" d="M 300.173,194.906 300.173,177.065 z" id="boundary" inkscape:connector-curvature="0" />
	<path style="fill:none;stroke:red;stroke-width:1px;stroke-linecap:butt;stroke-linejoin:miter;stroke-opacity:1" d="M 309.094,210.964 300.173,194.906 z" id="boundary" inkscape:connector-curvature="0" />
	<path style="fill:none;stroke:red;stroke-width:1px;stroke-linecap:butt;stroke-linejoin:miter;stroke-opacity:1" d="M 309.094,210.964 309.094,228.806 z" id="boundary" inkscape:connector-curvature="0" />
	<path style="fill:none;stroke:red;stroke-width:1px;stroke-linecap:butt;stroke-linejoin:miter;stroke-opacity:1" d="M 309.094,228.806 309.094,246.647 z" id="boundary" inkscape:connector-curvature="0" />
	<path style="fill:none;stroke:red;stroke-width:1px;stroke-linecap:butt;stroke-linejoin:miter;stroke-opacity:1" d="M 318.014,262.705 309.094,246.647 z" id="boundary" inkscape:connector-curvature="0" />
	<path style="fill:none;stroke:red;stroke-width:1px;stroke-linecap:butt;stroke-linejoin:miter;stroke-opacity:1" d="M 318.014,280.547 318.014,262.705 z" id="boundary" inkscape:connector-curvature="0" />
	<path style="fill:none;stroke:red;stroke-width:1px;stroke-linecap:butt;stroke-linejoin:miter;stroke-opacity:1" d="M 318.014,280.547 326.935,296.604 z" id="boundary" inkscape:connector-curvature="0" />
	<path style="fill:none;stroke:red;stroke-width:1px;stroke-linecap:butt;stroke-linejoin:miter;stroke-opacity:1" d="M 326.935,296.604 326.935,314.446 z" id="boundary" inkscape:connector-curvature="0" />
	<path style="fill:none;stroke:red;stroke-width:1px;stroke-linecap:butt;stroke-linejoin:miter;stroke-opacity:1" d="M 351.914,185.986 351.914,203.827 z" id="boundary" inkscape:connector-curvature="0" />
	<path style="fill:none;stroke:red;stroke-width:1px;stroke-linecap:butt;stroke-linejoin:miter;stroke-opacity:1" d="M 351.914,185.986 342.993,169.928 z" id="boundary" inkscape:connector-curvature="0" />
	<path style="fill:none;stroke:red;stroke-width:1px;stroke-linecap:butt;stroke-linejoin:miter;stroke-opacity:1" d="M 351.914,203.827 351.914,221.669 z" id="boundary" inkscape:connector-curvature="0" />
	<path style="fill:none;stroke:red;stroke-width:1px;stroke-linecap:butt;stroke-linejoin:miter;stroke-opacity:1" d="M 351.914,221.669 351.914,239.511 z" id="boundary" inkscape:connector-curvature="0" />
	<path style="fill:none;stroke:red;stroke-width:1px;stroke-linecap:butt;stroke-linejoin:miter;stroke-opacity:1" d="M 351.914,257.353 351.914,239.511 z" id="boundary" inkscape:connector-curvature="0" />
	<path style="fill:none;stroke:red;stroke-width:1px;stroke-linecap:butt;stroke-linejoin:miter;stroke-opacity:1" d="M 351.914,257.353 351.914,275.194 z" id="boundary" inkscape:connector-curvature="0" />
	<path style="fill:none;stroke:red;stroke-width:1px;stroke-linecap:butt;stroke-linejoin:miter;stroke-opacity:1" d="M 335.856,330.504 326.935,314.446 z" id="boundary" inkscape:connector-curvature="0" />
	<path style="fill:none;stroke:red;stroke-width:1px;stroke-linecap:butt;stroke-linejoin:miter;stroke-opacity:1" d="M 351.914,293.036 351.914,275.194 z" id="boundary" inkscape:connector-curvature="0" />
	<path style="fill:none;stroke:red;stroke-width:1px;stroke-linecap:butt;stroke-linejoin:miter;stroke-opacity:1" d="M 360.835,309.094 351.914,293.036 z" id="boundary" inkscape:connector-curvature="0" />
	<path style="fill:none;stroke:red;stroke-width:1px;stroke-linecap:butt;stroke-linejoin:miter;stroke-opacity:1" d="M 360.835,309.094 360.835,326.935 z" id="boundary" inkscape:connector-curvature="0" />
	<path style="fill:none;stroke:red;stroke-width:1px;stroke-linecap:butt;stroke-linejoin:miter;stroke-opacity:1" d="M 344.777,346.561 335.856,330.504 z" id="boundary" inkscape:connector-curvature="0" />
	<path style="fill:none;stroke:red;stroke-width:1px;stroke-linecap:butt;stroke-linejoin:miter;stroke-opacity:1" d="M 4,375.108 21.8417,373.324 z" id="boundary" inkscape:connector-curvature="0" />
	<path style="fill:none;stroke:red;stroke-width:1px;stroke-linecap:butt;stroke-linejoin:miter;stroke-opacity:1" d="M 12.9209,391.165 4,375.108 z" id="boundary" inkscape:connector-curvature="0" />
	<path style="fill:none;stroke:red;stroke-width:1px;stroke-linecap:butt;stroke-linejoin:miter;stroke-opacity:1" d="M 21.8417,407.223 12.9209,391.165 z" id="boundary" inkscape:connector-curvature="0" />
	<path style="fill:none;stroke:red;stroke-width:1px;stroke-linecap:butt;stroke-linejoin:miter;stroke-opacity:1" d="M 21.8417,373.324 37.8993,382.245 z" id="boundary" inkscape:connector-curvature="0" />
	<path style="fill:none;stroke:red;stroke-width:1px;stroke-linecap:butt;stroke-linejoin:miter;stroke-opacity:1" d="M 37.8993,382.245 55.741,389.381 z" id="boundary" inkscape:connector-curvature="0" />
	<path style="fill:none;stroke:red;stroke-width:1px;stroke-linecap:butt;stroke-linejoin:miter;stroke-opacity:1" d="M 55.741,389.381 71.7986,398.302 z" id="boundary" inkscape:connector-curvature="0" />
	<path style="fill:none;stroke:red;stroke-width:1px;stroke-linecap:butt;stroke-linejoin:miter;stroke-opacity:1" d="M 21.8417,407.223 30.7626,423.281 z" id="boundary" inkscape:connector-curvature="0" />
	<path style="fill:none;stroke:red;stroke-width:1px;stroke-linecap:butt;stroke-linejoin:miter;stroke-opacity:1" d="M 34.3309,441.122 30.7626,423.281 z" id="boundary" inkscape:connector-curvature="0" />
	<path style="fill:none;stroke:red;stroke-width:1px;stroke-linecap:butt;stroke-linejoin:miter;stroke-opacity:1" d="M 34.3309,441.122 43.2518,457.18 z" id="boundary" inkscape:connector-curvature="0" />
	<path style="fill:none;stroke:red;stroke-width:1px;stroke-linecap:butt;stroke-linejoin:miter;stroke-opacity:1" d="M 43.2518,457.18 48.6043,475.022 z" id="boundary" inkscape:connector-curvature="0" />
	<path style="fill:none;stroke:red;stroke-width:1px;stroke-linecap:butt;stroke-linejoin:miter;stroke-opacity:1" d="M 48.6043,475.022 57.5252,491.079 z" id="boundary" inkscape:connector-curvature="0" />
	<path style="fill:none;stroke:red;stroke-width:1px;stroke-linecap:butt;stroke-linejoin:miter;stroke-opacity:1" d="M 80.7194,362.619 75.3669,344.777 z" id="boundary" inkscape:connector-curvature="0" />
	<path style="fill:none;stroke:red;stroke-width:1px;stroke-linecap:butt;stroke-linejoin:miter;stroke-opacity:1" d="M 89.6403,378.676 80.7194,362.619 z" id="boundary" inkscape:connector-curvature="0" />
	<path style="fill:none;stroke:red;stroke-width:1px;stroke-linecap:butt;stroke-linejoin:miter;stroke-opacity:1" d="M 89.6403,378.676 89.6403,405.439 z" id="boundary" inkscape:connector-curvature="0" />
	<path style="fill:none;stroke:red;stroke-width:1px;stroke-linecap:butt;stroke-linejoin:miter;stroke-opacity:1" d="M 173.496,348.345 182.417,364.403 z" id="boundary" inkscape:connector-curvature="0" />
	<path style="fill:none;stroke:red;stroke-width:1px;stroke-linecap:butt;stroke-linejoin:miter;stroke-opacity:1" d="M 89.6403,405.439 71.7986,398.302 z" id="boundary" inkscape:connector-curvature="0" />
	<path style="fill:none;stroke:red;stroke-width:1px;stroke-linecap:butt;stroke-linejoin:miter;stroke-opacity:1" d="M 66.446,507.137 75.3669,523.194 z" id="boundary" inkscape:connector-curvature="0" />
	<path style="fill:none;stroke:red;stroke-width:1px;stroke-linecap:butt;stroke-linejoin:miter;stroke-opacity:1" d="M 66.446,507.137 57.5252,491.079 z" id="boundary" inkscape:connector-curvature="0" />
	<path style="fill:none;stroke:red;stroke-width:1px;stroke-linecap:butt;stroke-linejoin:miter;stroke-opacity:1" d="M 75.3669,523.194 80.7194,541.036 z" id="boundary" inkscape:connector-curvature="0" />
	<path style="fill:none;stroke:red;stroke-width:1px;stroke-linecap:butt;stroke-linejoin:miter;stroke-opacity:1" d="M 114.619,557.094 98.5612,548.173 z" id="boundary" inkscape:connector-curvature="0" />
	<path style="fill:none;stroke:red;stroke-width:1px;stroke-linecap:butt;stroke-linejoin:miter;stroke-opacity:1" d="M 80.7194,541.036 98.5612,548.173 z" id="boundary" inkscape:connector-curvature="0" />
	<path style="fill:none;stroke:red;stroke-width:1px;stroke-linecap:butt;stroke-linejoin:miter;stroke-opacity:1" d="M 114.619,557.094 132.46,558.878 z" id="boundary" inkscape:connector-curvature="0" />
	<path style="fill:none;stroke:red;stroke-width:1px;stroke-linecap:butt;stroke-linejoin:miter;stroke-opacity:1" d="M 148.518,567.799 132.46,558.878 z" id="boundary" inkscape:connector-curvature="0" />
	<path style="fill:none;stroke:red;stroke-width:1px;stroke-linecap:butt;stroke-linejoin:miter;stroke-opacity:1" d="M 164.576,576.719 148.518,567.799 z" id="boundary" inkscape:connector-curvature="0" />
	<path style="fill:none;stroke:red;stroke-width:1px;stroke-linecap:butt;stroke-linejoin:miter;stroke-opacity:1" d="M 164.576,576.719 164.576,594.561 z" id="boundary" inkscape:connector-curvature="0" />
	<path style="fill:none;stroke:red;stroke-width:1px;stroke-linecap:butt;stroke-linejoin:miter;stroke-opacity:1" d="M 164.576,594.561 169.928,612.403 z" id="boundary" inkscape:connector-curvature="0" />
	<path style="fill:none;stroke:red;stroke-width:1px;stroke-linecap:butt;stroke-linejoin:miter;stroke-opacity:1" d="M 173.496,630.245 169.928,612.403 z" id="boundary" inkscape:connector-curvature="0" />
	<path style="fill:none;stroke:red;stroke-width:1px;stroke-linecap:butt;stroke-linejoin:miter;stroke-opacity:1" d="M 173.496,630.245 173.496,648.086 z" id="boundary" inkscape:connector-curvature="0" />
	<path style="fill:none;stroke:red;stroke-width:1px;stroke-linecap:butt;stroke-linejoin:miter;stroke-opacity:1" d="M 173.496,665.928 173.496,648.086 z" id="boundary" inkscape:connector-curvature="0" />
	<path style="fill:none;stroke:red;stroke-width:1px;stroke-linecap:butt;stroke-linejoin:miter;stroke-opacity:1" d="M 173.496,683.77 173.496,665.928 z" id="boundary" inkscape:connector-curvature="0" />
	<path style="fill:none;stroke:red;stroke-width:1px;stroke-linecap:butt;stroke-linejoin:miter;stroke-opacity:1" d="M 173.496,683.77 178.849,701.612 z" id="boundary" inkscape:connector-curvature="0" />
	<path style="fill:none;stroke:red;stroke-width:1px;stroke-linecap:butt;stroke-linejoin:miter;stroke-opacity:1" d="M 178.849,701.612 182.417,719.453 z" id="boundary" inkscape:connector-curvature="0" />
	<path style="fill:none;stroke:red;stroke-width:1px;stroke-linecap:butt;stroke-linejoin:miter;stroke-opacity:1" d="M 182.417,719.453 187.77,737.295 z" id="boundary" inkscape:connector-curvature="0" />
	<path style="fill:none;stroke:red;stroke-width:1px;stroke-linecap:butt;stroke-linejoin:miter;stroke-opacity:1" d="M 182.417,364.403 189.554,382.245 z" id="boundary" inkscape:connector-curvature="0" />
	<path style="fill:none;stroke:red;stroke-width:1px;stroke-linecap:butt;stroke-linejoin:miter;stroke-opacity:1" d="M 198.475,398.302 189.554,382.245 z" id="boundary" inkscape:connector-curvature="0" />
	<path style="fill:none;stroke:red;stroke-width:1px;stroke-linecap:butt;stroke-linejoin:miter;stroke-opacity:1" d="M 198.475,398.302 205.612,416.144 z" id="boundary" inkscape:connector-curvature="0" />
	<path style="fill:none;stroke:red;stroke-width:1px;stroke-linecap:butt;stroke-linejoin:miter;stroke-opacity:1" d="M 235.942,369.755 227.022,353.698 z" id="boundary" inkscape:connector-curvature="0" />
	<path style="fill:none;stroke:red;stroke-width:1px;stroke-linecap:butt;stroke-linejoin:miter;stroke-opacity:1" d="M 227.022,353.698 227.022,335.856 z" id="boundary" inkscape:connector-curvature="0" />
	<path style="fill:none;stroke:red;stroke-width:1px;stroke-linecap:butt;stroke-linejoin:miter;stroke-opacity:1" d="M 235.942,369.755 235.942,387.597 z" id="boundary" inkscape:connector-curvature="0" />
	<path style="fill:none;stroke:red;stroke-width:1px;stroke-linecap:butt;stroke-linejoin:miter;stroke-opacity:1" d="M 219.885,428.633 205.612,416.144 z" id="boundary" inkscape:connector-curvature="0" />
	<path style="fill:none;stroke:red;stroke-width:1px;stroke-linecap:butt;stroke-linejoin:miter;stroke-opacity:1" d="M 219.885,428.633 227.022,446.475 z" id="boundary" inkscape:connector-curvature="0" />
	<path style="fill:none;stroke:red;stroke-width:1px;stroke-linecap:butt;stroke-linejoin:miter;stroke-opacity:1" d="M 244.863,446.475 227.022,446.475 z" id="boundary" inkscape:connector-curvature="0" />
	<path style="fill:none;stroke:red;stroke-width:1px;stroke-linecap:butt;stroke-linejoin:miter;stroke-opacity:1" d="M 235.942,387.597 244.863,403.655 z" id="boundary" inkscape:connector-curvature="0" />
	<path style="fill:none;stroke:red;stroke-width:1px;stroke-linecap:butt;stroke-linejoin:miter;stroke-opacity:1" d="M 246.647,421.496 244.863,403.655 z" id="boundary" inkscape:connector-curvature="0" />
	<path style="fill:none;stroke:red;stroke-width:1px;stroke-linecap:butt;stroke-linejoin:miter;stroke-opacity:1" d="M 246.647,421.496 244.863,446.475 z" id="boundary" inkscape:connector-curvature="0" />
	<path style="fill:none;stroke:red;stroke-width:1px;stroke-linecap:butt;stroke-linejoin:miter;stroke-opacity:1" d="M 355.482,360.835 344.777,346.561 z" id="boundary" inkscape:connector-curvature="0" />
	<path style="fill:none;stroke:red;stroke-width:1px;stroke-linecap:butt;stroke-linejoin:miter;stroke-opacity:1" d="M 205.612,789.036 196.691,772.978 z" id="boundary" inkscape:connector-curvature="0" />
	<path style="fill:none;stroke:red;stroke-width:1px;stroke-linecap:butt;stroke-linejoin:miter;stroke-opacity:1" d="M 205.612,789.036 209.18,806.878 z" id="boundary" inkscape:connector-curvature="0" />
	<path style="fill:none;stroke:red;stroke-width:1px;stroke-linecap:butt;stroke-linejoin:miter;stroke-opacity:1" d="M 209.18,806.878 218.101,822.935 z" id="boundary" inkscape:connector-curvature="0" />
	<path style="fill:none;stroke:red;stroke-width:1px;stroke-linecap:butt;stroke-linejoin:miter;stroke-opacity:1" d="M 218.101,822.935 227.022,838.993 z" id="boundary" inkscape:connector-curvature="0" />
	<path style="fill:none;stroke:red;stroke-width:1px;stroke-linecap:butt;stroke-linejoin:miter;stroke-opacity:1" d="M 191.338,755.137 196.691,772.978 z" id="boundary" inkscape:connector-curvature="0" />
	<path style="fill:none;stroke:red;stroke-width:1px;stroke-linecap:butt;stroke-linejoin:miter;stroke-opacity:1" d="M 227.022,856.835 227.022,838.993 z" id="boundary" inkscape:connector-curvature="0" />
	<path style="fill:none;stroke:red;stroke-width:1px;stroke-linecap:butt;stroke-linejoin:miter;stroke-opacity:1" d="M 227.022,892.518 227.022,874.676 z" id="boundary" inkscape:connector-curvature="0" />
	<path style="fill:none;stroke:red;stroke-width:1px;stroke-linecap:butt;stroke-linejoin:miter;stroke-opacity:1" d="M 227.022,856.835 227.022,874.676 z" id="boundary" inkscape:connector-curvature="0" />
	<path style="fill:none;stroke:red;stroke-width:1px;stroke-linecap:butt;stroke-linejoin:miter;stroke-opacity:1" d="M 227.022,892.518 227.022,910.36 z" id="boundary" inkscape:connector-curvature="0" />
	<path style="fill:none;stroke:red;stroke-width:1px;stroke-linecap:butt;stroke-linejoin:miter;stroke-opacity:1" d="M 227.022,910.36 218.101,937.122 z" id="boundary" inkscape:connector-curvature="0" />
	<path style="fill:none;stroke:red;stroke-width:1px;stroke-linecap:butt;stroke-linejoin:miter;stroke-opacity:1" d="M 218.101,937.122 218.101,954.964 z" id="boundary" inkscape:connector-curvature="0" />
	<path style="fill:none;stroke:red;stroke-width:1px;stroke-linecap:butt;stroke-linejoin:miter;stroke-opacity:1" d="M 209.18,972.806 218.101,954.964 z" id="boundary" inkscape:connector-curvature="0" />
	<path style="fill:none;stroke:red;stroke-width:1px;stroke-linecap:butt;stroke-linejoin:miter;stroke-opacity:1" d="M 223.453,985.295 209.18,972.806 z" id="boundary" inkscape:connector-curvature="0" />
	<path style="fill:none;stroke:red;stroke-width:1px;stroke-linecap:butt;stroke-linejoin:miter;stroke-opacity:1" d="M 237.727,996 223.453,985.295 z" id="boundary" inkscape:connector-curvature="0" />
	<path style="fill:none;stroke:red;stroke-width:1px;stroke-linecap:butt;stroke-linejoin:miter;stroke-opacity:1" d="M 255.568,996 237.727,996 z" id="boundary" inkscape:connector-curvature="0" />
	<path style="fill:none;stroke:red;stroke-width:1px;stroke-linecap:butt;stroke-linejoin:miter;stroke-opacity:1" d="M 273.41,996 255.568,996 z" id="boundary" inkscape:connector-curvature="0" />
	<path style="fill:none;stroke:red;stroke-width:1px;stroke-linecap:butt;stroke-linejoin:miter;stroke-opacity:1" d="M 291.252,987.079 273.41,996 z" id="boundary" inkscape:connector-curvature="0" />
	<path style="fill:none;stroke:red;stroke-width:1px;stroke-linecap:butt;stroke-linejoin:miter;stroke-opacity:1" d="M 291.252,987.079 309.094,987.079 z" id="boundary" inkscape:connector-curvature="0" />
	<path style="fill:none;stroke:red;stroke-width:1px;stroke-linecap:butt;stroke-linejoin:miter;stroke-opacity:1" d="M 326.935,987.079 309.094,987.079 z" id="boundary" inkscape:connector-curvature="0" />
	<path style="fill:none;stroke:red;stroke-width:1px;stroke-linecap:butt;stroke-linejoin:miter;stroke-opacity:1" d="M 326.935,987.079 344.777,987.079 z" id="boundary" inkscape:connector-curvature="0" />
	<path style="fill:none;stroke:red;stroke-width:1px;stroke-linecap:butt;stroke-linejoin:miter;stroke-opacity:1" d="M 362.619,987.079 380.46,987.079 z" id="boundary" inkscape:connector-curvature="0" />
	<path style="fill:none;stroke:red;stroke-width:1px;stroke-linecap:butt;stroke-linejoin:miter;stroke-opacity:1" d="M 362.619,987.079 344.777,987.079 z" id="boundary" inkscape:connector-curvature="0" />
	<path style="fill:none;stroke:red;stroke-width:1px;stroke-linecap:butt;stroke-linejoin:miter;stroke-opacity:1" d="M 380.46,987.079 398.302,987.079 z" id="boundary" inkscape:connector-curvature="0" />
	<path style="fill:none;stroke:red;stroke-width:1px;stroke-linecap:butt;stroke-linejoin:miter;stroke-opacity:1" d="M 191.338,755.137 187.77,737.295 z" id="boundary" inkscape:connector-curvature="0" />
	<path style="fill:none;stroke:red;stroke-width:1px;stroke-linecap:butt;stroke-linejoin:miter;stroke-opacity:1" d="M 409.007,4 425.065,12.9209 z" id="boundary" inkscape:connector-curvature="0" />
	<path style="fill:none;stroke:red;stroke-width:1px;stroke-linecap:butt;stroke-linejoin:miter;stroke-opacity:1" d="M 439.338,23.6259 425.065,12.9209 z" id="boundary" inkscape:connector-curvature="0" />
	<path style="fill:none;stroke:red;stroke-width:1px;stroke-linecap:butt;stroke-linejoin:miter;stroke-opacity:1" d="M 439.338,23.6259 442.906,41.4676 z" id="boundary" inkscape:connector-curvature="0" />
	<path style="fill:none;stroke:red;stroke-width:1px;stroke-linecap:butt;stroke-linejoin:miter;stroke-opacity:1" d="M 442.906,41.4676 451.827,57.5252 z" id="boundary" inkscape:connector-curvature="0" />
	<path style="fill:none;stroke:red;stroke-width:1px;stroke-linecap:butt;stroke-linejoin:miter;stroke-opacity:1" d="M 451.827,57.5252 451.827,75.3669 z" id="boundary" inkscape:connector-curvature="0" />
	<path style="fill:none;stroke:red;stroke-width:1px;stroke-linecap:butt;stroke-linejoin:miter;stroke-opacity:1" d="M 451.827,93.2086 451.827,75.3669 z" id="boundary" inkscape:connector-curvature="0" />
	<path style="fill:none;stroke:red;stroke-width:1px;stroke-linecap:butt;stroke-linejoin:miter;stroke-opacity:1" d="M 451.827,111.05 451.827,93.2086 z" id="boundary" inkscape:connector-curvature="0" />
	<path style="fill:none;stroke:red;stroke-width:1px;stroke-linecap:butt;stroke-linejoin:miter;stroke-opacity:1" d="M 451.827,111.05 451.827,128.892 z" id="boundary" inkscape:connector-curvature="0" />
	<path style="fill:none;stroke:red;stroke-width:1px;stroke-linecap:butt;stroke-linejoin:miter;stroke-opacity:1" d="M 451.827,146.734 451.827,164.576 z" id="boundary" inkscape:connector-curvature="0" />
	<path style="fill:none;stroke:red;stroke-width:1px;stroke-linecap:butt;stroke-linejoin:miter;stroke-opacity:1" d="M 451.827,146.734 451.827,128.892 z" id="boundary" inkscape:connector-curvature="0" />
	<path style="fill:none;stroke:red;stroke-width:1px;stroke-linecap:butt;stroke-linejoin:miter;stroke-opacity:1" d="M 451.827,164.576 451.827,182.417 z" id="boundary" inkscape:connector-curvature="0" />
	<path style="fill:none;stroke:red;stroke-width:1px;stroke-linecap:butt;stroke-linejoin:miter;stroke-opacity:1" d="M 451.827,182.417 451.827,200.259 z" id="boundary" inkscape:connector-curvature="0" />
	<path style="fill:none;stroke:red;stroke-width:1px;stroke-linecap:butt;stroke-linejoin:miter;stroke-opacity:1" d="M 451.827,200.259 460.748,216.317 z" id="boundary" inkscape:connector-curvature="0" />
	<path style="fill:none;stroke:red;stroke-width:1px;stroke-linecap:butt;stroke-linejoin:miter;stroke-opacity:1" d="M 460.748,216.317 460.748,234.158 z" id="boundary" inkscape:connector-curvature="0" />
	<path style="fill:none;stroke:red;stroke-width:1px;stroke-linecap:butt;stroke-linejoin:miter;stroke-opacity:1" d="M 558.878,48.6043 542.82,57.5252 z" id="boundary" inkscape:connector-curvature="0" />
	<path style="fill:none;stroke:red;stroke-width:1px;stroke-linecap:butt;stroke-linejoin:miter;stroke-opacity:1" d="M 503.568,125.324 503.568,107.482 z" id="boundary" inkscape:connector-curvature="0" />
	<path style="fill:none;stroke:red;stroke-width:1px;stroke-linecap:butt;stroke-linejoin:miter;stroke-opacity:1" d="M 512.489,80.7194 503.568,107.482 z" id="boundary" inkscape:connector-curvature="0" />
	<path style="fill:none;stroke:red;stroke-width:1px;stroke-linecap:butt;stroke-linejoin:miter;stroke-opacity:1" d="M 542.82,57.5252 526.763,66.446 z" id="boundary" inkscape:connector-curvature="0" />
	<path style="fill:none;stroke:red;stroke-width:1px;stroke-linecap:butt;stroke-linejoin:miter;stroke-opacity:1" d="M 526.763,66.446 512.489,80.7194 z" id="boundary" inkscape:connector-curvature="0" />
	<path style="fill:none;stroke:red;stroke-width:1px;stroke-linecap:butt;stroke-linejoin:miter;stroke-opacity:1" d="M 503.568,143.165 503.568,125.324 z" id="boundary" inkscape:connector-curvature="0" />
	<path style="fill:none;stroke:red;stroke-width:1px;stroke-linecap:butt;stroke-linejoin:miter;stroke-opacity:1" d="M 503.568,161.007 503.568,143.165 z" id="boundary" inkscape:connector-curvature="0" />
	<path style="fill:none;stroke:red;stroke-width:1px;stroke-linecap:butt;stroke-linejoin:miter;stroke-opacity:1" d="M 512.489,177.065 512.489,194.906 z" id="boundary" inkscape:connector-curvature="0" />
	<path style="fill:none;stroke:red;stroke-width:1px;stroke-linecap:butt;stroke-linejoin:miter;stroke-opacity:1" d="M 512.489,177.065 503.568,161.007 z" id="boundary" inkscape:connector-curvature="0" />
	<path style="fill:none;stroke:red;stroke-width:1px;stroke-linecap:butt;stroke-linejoin:miter;stroke-opacity:1" d="M 512.489,194.906 512.489,212.748 z" id="boundary" inkscape:connector-curvature="0" />
	<path style="fill:none;stroke:red;stroke-width:1px;stroke-linecap:butt;stroke-linejoin:miter;stroke-opacity:1" d="M 512.489,230.59 512.489,212.748 z" id="boundary" inkscape:connector-curvature="0" />
	<path style="fill:none;stroke:red;stroke-width:1px;stroke-linecap:butt;stroke-linejoin:miter;stroke-opacity:1" d="M 460.748,252 460.748,269.842 z" id="boundary" inkscape:connector-curvature="0" />
	<path style="fill:none;stroke:red;stroke-width:1px;stroke-linecap:butt;stroke-linejoin:miter;stroke-opacity:1" d="M 460.748,269.842 460.748,287.683 z" id="boundary" inkscape:connector-curvature="0" />
	<path style="fill:none;stroke:red;stroke-width:1px;stroke-linecap:butt;stroke-linejoin:miter;stroke-opacity:1" d="M 460.748,252 460.748,234.158 z" id="boundary" inkscape:connector-curvature="0" />
	<path style="fill:none;stroke:red;stroke-width:1px;stroke-linecap:butt;stroke-linejoin:miter;stroke-opacity:1" d="M 460.748,287.683 460.748,305.525 z" id="boundary" inkscape:connector-curvature="0" />
	<path style="fill:none;stroke:red;stroke-width:1px;stroke-linecap:butt;stroke-linejoin:miter;stroke-opacity:1" d="M 469.669,321.583 460.748,305.525 z" id="boundary" inkscape:connector-curvature="0" />
	<path style="fill:none;stroke:red;stroke-width:1px;stroke-linecap:butt;stroke-linejoin:miter;stroke-opacity:1" d="M 469.669,321.583 469.669,339.424 z" id="boundary" inkscape:connector-curvature="0" />
	<path style="fill:none;stroke:red;stroke-width:1px;stroke-linecap:butt;stroke-linejoin:miter;stroke-opacity:1" d="M 469.669,339.424 469.669,357.266 z" id="boundary" inkscape:connector-curvature="0" />
	<path style="fill:none;stroke:red;stroke-width:1px;stroke-linecap:butt;stroke-linejoin:miter;stroke-opacity:1" d="M 469.669,357.266 483.942,369.755 z" id="boundary" inkscape:connector-curvature="0" />
	<path style="fill:none;stroke:red;stroke-width:1px;stroke-linecap:butt;stroke-linejoin:miter;stroke-opacity:1" d="M 512.489,230.59 503.568,259.137 z" id="boundary" inkscape:connector-curvature="0" />
	<path style="fill:none;stroke:red;stroke-width:1px;stroke-linecap:butt;stroke-linejoin:miter;stroke-opacity:1" d="M 503.568,276.978 503.568,259.137 z" id="boundary" inkscape:connector-curvature="0" />
	<path style="fill:none;stroke:red;stroke-width:1px;stroke-linecap:butt;stroke-linejoin:miter;stroke-opacity:1" d="M 494.647,303.741 494.647,321.583 z" id="boundary" inkscape:connector-curvature="0" />
	<path style="fill:none;stroke:red;stroke-width:1px;stroke-linecap:butt;stroke-linejoin:miter;stroke-opacity:1" d="M 494.647,303.741 503.568,276.978 z" id="boundary" inkscape:connector-curvature="0" />
	<path style="fill:none;stroke:red;stroke-width:1px;stroke-linecap:butt;stroke-linejoin:miter;stroke-opacity:1" d="M 494.647,321.583 494.647,339.424 z" id="boundary" inkscape:connector-curvature="0" />
	<path style="fill:none;stroke:red;stroke-width:1px;stroke-linecap:butt;stroke-linejoin:miter;stroke-opacity:1" d="M 558.878,48.6043 574.935,57.5252 z" id="boundary" inkscape:connector-curvature="0" />
	<path style="fill:none;stroke:red;stroke-width:1px;stroke-linecap:butt;stroke-linejoin:miter;stroke-opacity:1" d="M 598.129,86.0719 585.64,71.7986 z" id="boundary" inkscape:connector-curvature="0" />
	<path style="fill:none;stroke:red;stroke-width:1px;stroke-linecap:butt;stroke-linejoin:miter;stroke-opacity:1" d="M 585.64,71.7986 574.935,57.5252 z" id="boundary" inkscape:connector-curvature="0" />
	<path style="fill:none;stroke:red;stroke-width:1px;stroke-linecap:butt;stroke-linejoin:miter;stroke-opacity:1" d="M 598.129,86.0719 603.482,103.914 z" id="boundary" inkscape:connector-curvature="0" />
	<path style="fill:none;stroke:red;stroke-width:1px;stroke-linecap:butt;stroke-linejoin:miter;stroke-opacity:1" d="M 603.482,103.914 603.482,121.755 z" id="boundary" inkscape:connector-curvature="0" />
	<path style="fill:none;stroke:red;stroke-width:1px;stroke-linecap:butt;stroke-linejoin:miter;stroke-opacity:1" d="M 603.482,139.597 603.482,121.755 z" id="boundary" inkscape:connector-curvature="0" />
	<path style="fill:none;stroke:red;stroke-width:1px;stroke-linecap:butt;stroke-linejoin:miter;stroke-opacity:1" d="M 603.482,139.597 603.482,157.439 z" id="boundary" inkscape:connector-curvature="0" />
	<path style="fill:none;stroke:red;stroke-width:1px;stroke-linecap:butt;stroke-linejoin:miter;stroke-opacity:1" d="M 612.403,193.122 607.05,175.281 z" id="boundary" inkscape:connector-curvature="0" />
	<path style="fill:none;stroke:red;stroke-width:1px;stroke-linecap:butt;stroke-linejoin:miter;stroke-opacity:1" d="M 607.05,175.281 603.482,157.439 z" id="boundary" inkscape:connector-curvature="0" />
	<path style="fill:none;stroke:red;stroke-width:1px;stroke-linecap:butt;stroke-linejoin:miter;stroke-opacity:1" d="M 612.403,193.122 603.482,219.885 z" id="boundary" inkscape:connector-curvature="0" />
	<path style="fill:none;stroke:red;stroke-width:1px;stroke-linecap:butt;stroke-linejoin:miter;stroke-opacity:1" d="M 603.482,219.885 603.482,237.727 z" id="boundary" inkscape:connector-curvature="0" />
	<path style="fill:none;stroke:red;stroke-width:1px;stroke-linecap:butt;stroke-linejoin:miter;stroke-opacity:1" d="M 603.482,255.568 603.482,237.727 z" id="boundary" inkscape:connector-curvature="0" />
	<path style="fill:none;stroke:red;stroke-width:1px;stroke-linecap:butt;stroke-linejoin:miter;stroke-opacity:1" d="M 603.482,273.41 603.482,255.568 z" id="boundary" inkscape:connector-curvature="0" />
	<path style="fill:none;stroke:red;stroke-width:1px;stroke-linecap:butt;stroke-linejoin:miter;stroke-opacity:1" d="M 603.482,326.935 594.561,353.698 z" id="boundary" inkscape:connector-curvature="0" />
	<path style="fill:none;stroke:red;stroke-width:1px;stroke-linecap:butt;stroke-linejoin:miter;stroke-opacity:1" d="M 594.561,353.698 594.561,371.54 z" id="boundary" inkscape:connector-curvature="0" />
	<path style="fill:none;stroke:red;stroke-width:1px;stroke-linecap:butt;stroke-linejoin:miter;stroke-opacity:1" d="M 603.482,291.252 603.482,309.094 z" id="boundary" inkscape:connector-curvature="0" />
	<path style="fill:none;stroke:red;stroke-width:1px;stroke-linecap:butt;stroke-linejoin:miter;stroke-opacity:1" d="M 603.482,309.094 603.482,326.935 z" id="boundary" inkscape:connector-curvature="0" />
	<path style="fill:none;stroke:red;stroke-width:1px;stroke-linecap:butt;stroke-linejoin:miter;stroke-opacity:1" d="M 594.561,371.54 594.561,389.381 z" id="boundary" inkscape:connector-curvature="0" />
	<path style="fill:none;stroke:red;stroke-width:1px;stroke-linecap:butt;stroke-linejoin:miter;stroke-opacity:1" d="M 594.561,407.223 594.561,389.381 z" id="boundary" inkscape:connector-curvature="0" />
	<path style="fill:none;stroke:red;stroke-width:1px;stroke-linecap:butt;stroke-linejoin:miter;stroke-opacity:1" d="M 603.482,273.41 603.482,291.252 z" id="boundary" inkscape:connector-curvature="0" />
	<path style="fill:none;stroke:red;stroke-width:1px;stroke-linecap:butt;stroke-linejoin:miter;stroke-opacity:1" d="M 594.561,442.906 594.561,425.065 z" id="boundary" inkscape:connector-curvature="0" />
	<path style="fill:none;stroke:red;stroke-width:1px;stroke-linecap:butt;stroke-linejoin:miter;stroke-opacity:1" d="M 598.129,460.748 594.561,478.59 z" id="boundary" inkscape:connector-curvature="0" />
	<path style="fill:none;stroke:red;stroke-width:1px;stroke-linecap:butt;stroke-linejoin:miter;stroke-opacity:1" d="M 594.561,442.906 598.129,460.748 z" id="boundary" inkscape:connector-curvature="0" />
	<path style="fill:none;stroke:red;stroke-width:1px;stroke-linecap:butt;stroke-linejoin:miter;stroke-opacity:1" d="M 594.561,425.065 594.561,407.223 z" id="boundary" inkscape:connector-curvature="0" />
	<path style="fill:none;stroke:red;stroke-width:1px;stroke-linecap:butt;stroke-linejoin:miter;stroke-opacity:1" d="M 880.029,441.122 863.971,432.201 z" id="boundary" inkscape:connector-curvature="0" />
	<path style="fill:none;stroke:red;stroke-width:1px;stroke-linecap:butt;stroke-linejoin:miter;stroke-opacity:1" d="M 812.23,432.201 830.072,432.201 z" id="boundary" inkscape:connector-curvature="0" />
	<path style="fill:none;stroke:red;stroke-width:1px;stroke-linecap:butt;stroke-linejoin:miter;stroke-opacity:1" d="M 830.072,432.201 847.914,423.281 z" id="boundary" inkscape:connector-curvature="0" />
	<path style="fill:none;stroke:red;stroke-width:1px;stroke-linecap:butt;stroke-linejoin:miter;stroke-opacity:1" d="M 863.971,432.201 847.914,423.281 z" id="boundary" inkscape:connector-curvature="0" />
	<path style="fill:none;stroke:red;stroke-width:1px;stroke-linecap:butt;stroke-linejoin:miter;stroke-opacity:1" d="M 812.23,432.201 796.173,441.122 z" id="boundary" inkscape:connector-curvature="0" />
	<path style="fill:none;stroke:red;stroke-width:1px;stroke-linecap:butt;stroke-linejoin:miter;stroke-opacity:1" d="M 781.899,453.612 796.173,441.122 z" id="boundary" inkscape:connector-curvature="0" />
	<path style="fill:none;stroke:red;stroke-width:1px;stroke-linecap:butt;stroke-linejoin:miter;stroke-opacity:1" d="M 781.899,453.612 764.058,462.532 z" id="boundary" inkscape:connector-curvature="0" />
	<path style="fill:none;stroke:red;stroke-width:1px;stroke-linecap:butt;stroke-linejoin:miter;stroke-opacity:1" d="M 880.029,441.122 888.95,457.18 z" id="boundary" inkscape:connector-curvature="0" />
	<path style="fill:none;stroke:red;stroke-width:1px;stroke-linecap:butt;stroke-linejoin:miter;stroke-opacity:1" d="M 897.871,473.237 883.597,494.647 z" id="boundary" inkscape:connector-curvature="0" />
	<path style="fill:none;stroke:red;stroke-width:1px;stroke-linecap:butt;stroke-linejoin:miter;stroke-opacity:1" d="M 888.95,457.18 897.871,473.237 z" id="boundary" inkscape:connector-curvature="0" />
	<path style="fill:none;stroke:red;stroke-width:1px;stroke-linecap:butt;stroke-linejoin:miter;stroke-opacity:1" d="M 764.058,462.532 751.568,476.806 z" id="boundary" inkscape:connector-curvature="0" />
	<path style="fill:none;stroke:red;stroke-width:1px;stroke-linecap:butt;stroke-linejoin:miter;stroke-opacity:1" d="M 594.561,496.432 594.561,514.273 z" id="boundary" inkscape:connector-curvature="0" />
	<path style="fill:none;stroke:red;stroke-width:1px;stroke-linecap:butt;stroke-linejoin:miter;stroke-opacity:1" d="M 594.561,478.59 594.561,496.432 z" id="boundary" inkscape:connector-curvature="0" />
	<path style="fill:none;stroke:red;stroke-width:1px;stroke-linecap:butt;stroke-linejoin:miter;stroke-opacity:1" d="M 598.129,532.115 594.561,514.273 z" id="boundary" inkscape:connector-curvature="0" />
	<path style="fill:none;stroke:red;stroke-width:1px;stroke-linecap:butt;stroke-linejoin:miter;stroke-opacity:1" d="M 607.05,548.173 598.129,532.115 z" id="boundary" inkscape:connector-curvature="0" />
	<path style="fill:none;stroke:red;stroke-width:1px;stroke-linecap:butt;stroke-linejoin:miter;stroke-opacity:1" d="M 619.54,562.446 607.05,548.173 z" id="boundary" inkscape:connector-curvature="0" />
	<path style="fill:none;stroke:red;stroke-width:1px;stroke-linecap:butt;stroke-linejoin:miter;stroke-opacity:1" d="M 619.54,562.446 633.813,574.935 z" id="boundary" inkscape:connector-curvature="0" />
	<path style="fill:none;stroke:red;stroke-width:1px;stroke-linecap:butt;stroke-linejoin:miter;stroke-opacity:1" d="M 646.302,589.209 633.813,574.935 z" id="boundary" inkscape:connector-curvature="0" />
	<path style="fill:none;stroke:red;stroke-width:1px;stroke-linecap:butt;stroke-linejoin:miter;stroke-opacity:1" d="M 696.259,539.252 687.338,557.094 z" id="boundary" inkscape:connector-curvature="0" />
	<path style="fill:none;stroke:red;stroke-width:1px;stroke-linecap:butt;stroke-linejoin:miter;stroke-opacity:1" d="M 708.748,517.842 696.259,539.252 z" id="boundary" inkscape:connector-curvature="0" />
	<path style="fill:none;stroke:red;stroke-width:1px;stroke-linecap:butt;stroke-linejoin:miter;stroke-opacity:1" d="M 723.022,503.568 708.748,517.842 z" id="boundary" inkscape:connector-curvature="0" />
	<path style="fill:none;stroke:red;stroke-width:1px;stroke-linecap:butt;stroke-linejoin:miter;stroke-opacity:1" d="M 687.338,557.094 673.065,571.367 z" id="boundary" inkscape:connector-curvature="0" />
	<path style="fill:none;stroke:red;stroke-width:1px;stroke-linecap:butt;stroke-linejoin:miter;stroke-opacity:1" d="M 664.144,589.209 646.302,589.209 z" id="boundary" inkscape:connector-curvature="0" />
	<path style="fill:none;stroke:red;stroke-width:1px;stroke-linecap:butt;stroke-linejoin:miter;stroke-opacity:1" d="M 673.065,571.367 664.144,589.209 z" id="boundary" inkscape:connector-curvature="0" />
	<path style="fill:none;stroke:red;stroke-width:1px;stroke-linecap:butt;stroke-linejoin:miter;stroke-opacity:1" d="M 567.799,906.791 555.309,921.065 z" id="boundary" inkscape:connector-curvature="0" />
	<path style="fill:none;stroke:red;stroke-width:1px;stroke-linecap:butt;stroke-linejoin:miter;stroke-opacity:1" d="M 532.115,951.396 541.036,933.554 z" id="boundary" inkscape:connector-curvature="0" />
	<path style="fill:none;stroke:red;stroke-width:1px;stroke-linecap:butt;stroke-linejoin:miter;stroke-opacity:1" d="M 555.309,921.065 541.036,933.554 z" id="boundary" inkscape:connector-curvature="0" />
	<path style="fill:none;stroke:red;stroke-width:1px;stroke-linecap:butt;stroke-linejoin:miter;stroke-opacity:1" d="M 416.144,987.079 433.986,978.158 z" id="boundary" inkscape:connector-curvature="0" />
	<path style="fill:none;stroke:red;stroke-width:1px;stroke-linecap:butt;stroke-linejoin:miter;stroke-opacity:1" d="M 451.827,978.158 433.986,978.158 z" id="boundary" inkscape:connector-curvature="0" />
	<path style="fill:none;stroke:red;stroke-width:1px;stroke-linecap:butt;stroke-linejoin:miter;stroke-opacity:1" d="M 451.827,978.158 469.669,978.158 z" id="boundary" inkscape:connector-curvature="0" />
	<path style="fill:none;stroke:red;stroke-width:1px;stroke-linecap:butt;stroke-linejoin:miter;stroke-opacity:1" d="M 398.302,987.079 416.144,987.079 z" id="boundary" inkscape:connector-curvature="0" />
	<path style="fill:none;stroke:red;stroke-width:1px;stroke-linecap:butt;stroke-linejoin:miter;stroke-opacity:1" d="M 487.511,978.158 469.669,978.158 z" id="boundary" inkscape:connector-curvature="0" />
	<path style="fill:none;stroke:red;stroke-width:1px;stroke-linecap:butt;stroke-linejoin:miter;stroke-opacity:1" d="M 523.194,969.237 532.115,951.396 z" id="boundary" inkscape:connector-curvature="0" />
	<path style="fill:none;stroke:red;stroke-width:1px;stroke-linecap:butt;stroke-linejoin:miter;stroke-opacity:1" d="M 523.194,969.237 505.353,978.158 z" id="boundary" inkscape:connector-curvature="0" />
	<path style="fill:none;stroke:red;stroke-width:1px;stroke-linecap:butt;stroke-linejoin:miter;stroke-opacity:1" d="M 487.511,978.158 505.353,978.158 z" id="boundary" inkscape:connector-curvature="0" />
	<path style="fill:none;stroke:red;stroke-width:1px;stroke-linecap:butt;stroke-linejoin:miter;stroke-opacity:1" d="M 671.281,814.014 657.007,826.504 z" id="boundary" inkscape:connector-curvature="0" />
	<path style="fill:none;stroke:red;stroke-width:1px;stroke-linecap:butt;stroke-linejoin:miter;stroke-opacity:1" d="M 683.77,799.741 671.281,814.014 z" id="boundary" inkscape:connector-curvature="0" />
	<path style="fill:none;stroke:red;stroke-width:1px;stroke-linecap:butt;stroke-linejoin:miter;stroke-opacity:1" d="M 644.518,840.777 657.007,826.504 z" id="boundary" inkscape:connector-curvature="0" />
	<path style="fill:none;stroke:red;stroke-width:1px;stroke-linecap:butt;stroke-linejoin:miter;stroke-opacity:1" d="M 644.518,840.777 630.245,853.266 z" id="boundary" inkscape:connector-curvature="0" />
	<path style="fill:none;stroke:red;stroke-width:1px;stroke-linecap:butt;stroke-linejoin:miter;stroke-opacity:1" d="M 692.691,781.899 710.532,781.899 z" id="boundary" inkscape:connector-curvature="0" />
	<path style="fill:none;stroke:red;stroke-width:1px;stroke-linecap:butt;stroke-linejoin:miter;stroke-opacity:1" d="M 726.59,790.82 710.532,781.899 z" id="boundary" inkscape:connector-curvature="0" />
	<path style="fill:none;stroke:red;stroke-width:1px;stroke-linecap:butt;stroke-linejoin:miter;stroke-opacity:1" d="M 683.77,799.741 692.691,781.899 z" id="boundary" inkscape:connector-curvature="0" />
	<path style="fill:none;stroke:red;stroke-width:1px;stroke-linecap:butt;stroke-linejoin:miter;stroke-opacity:1" d="M 615.971,878.245 599.914,888.95 z" id="boundary" inkscape:connector-curvature="0" />
	<path style="fill:none;stroke:red;stroke-width:1px;stroke-linecap:butt;stroke-linejoin:miter;stroke-opacity:1" d="M 599.914,888.95 582.072,894.302 z" id="boundary" inkscape:connector-curvature="0" />
	<path style="fill:none;stroke:red;stroke-width:1px;stroke-linecap:butt;stroke-linejoin:miter;stroke-opacity:1" d="M 567.799,906.791 582.072,894.302 z" id="boundary" inkscape:connector-curvature="0" />
	<path style="fill:none;stroke:red;stroke-width:1px;stroke-linecap:butt;stroke-linejoin:miter;stroke-opacity:1" d="M 615.971,878.245 630.245,853.266 z" id="boundary" inkscape:connector-curvature="0" />
	<path style="fill:none;stroke:red;stroke-width:1px;stroke-linecap:butt;stroke-linejoin:miter;stroke-opacity:1" d="M 737.295,489.295 723.022,503.568 z" id="boundary" inkscape:connector-curvature="0" />
	<path style="fill:none;stroke:red;stroke-width:1px;stroke-linecap:butt;stroke-linejoin:miter;stroke-opacity:1" d="M 737.295,489.295 751.568,476.806 z" id="boundary" inkscape:connector-curvature="0" />
	<path style="fill:none;stroke:red;stroke-width:1px;stroke-linecap:butt;stroke-linejoin:miter;stroke-opacity:1" d="M 822.935,564.23 808.662,576.719 z" id="boundary" inkscape:connector-curvature="0" />
	<path style="fill:none;stroke:red;stroke-width:1px;stroke-linecap:butt;stroke-linejoin:miter;stroke-opacity:1" d="M 799.741,594.561 787.252,617.755 z" id="boundary" inkscape:connector-curvature="0" />
	<path style="fill:none;stroke:red;stroke-width:1px;stroke-linecap:butt;stroke-linejoin:miter;stroke-opacity:1" d="M 787.252,617.755 772.978,630.245 z" id="boundary" inkscape:connector-curvature="0" />
	<path style="fill:none;stroke:red;stroke-width:1px;stroke-linecap:butt;stroke-linejoin:miter;stroke-opacity:1" d="M 755.137,665.928 764.058,648.086 z" id="boundary" inkscape:connector-curvature="0" />
	<path style="fill:none;stroke:red;stroke-width:1px;stroke-linecap:butt;stroke-linejoin:miter;stroke-opacity:1" d="M 772.978,630.245 764.058,648.086 z" id="boundary" inkscape:connector-curvature="0" />
	<path style="fill:none;stroke:red;stroke-width:1px;stroke-linecap:butt;stroke-linejoin:miter;stroke-opacity:1" d="M 755.137,665.928 755.137,683.77 z" id="boundary" inkscape:connector-curvature="0" />
	<path style="fill:none;stroke:red;stroke-width:1px;stroke-linecap:butt;stroke-linejoin:miter;stroke-opacity:1" d="M 799.741,594.561 808.662,576.719 z" id="boundary" inkscape:connector-curvature="0" />
	<path style="fill:none;stroke:red;stroke-width:1px;stroke-linecap:butt;stroke-linejoin:miter;stroke-opacity:1" d="M 831.856,546.388 822.935,564.23 z" id="boundary" inkscape:connector-curvature="0" />
	<path style="fill:none;stroke:red;stroke-width:1px;stroke-linecap:butt;stroke-linejoin:miter;stroke-opacity:1" d="M 844.345,532.115 831.856,546.388 z" id="boundary" inkscape:connector-curvature="0" />
	<path style="fill:none;stroke:red;stroke-width:1px;stroke-linecap:butt;stroke-linejoin:miter;stroke-opacity:1" d="M 858.619,519.626 869.324,505.353 z" id="boundary" inkscape:connector-curvature="0" />
	<path style="fill:none;stroke:red;stroke-width:1px;stroke-linecap:butt;stroke-linejoin:miter;stroke-opacity:1" d="M 858.619,519.626 844.345,532.115 z" id="boundary" inkscape:connector-curvature="0" />
	<path style="fill:none;stroke:red;stroke-width:1px;stroke-linecap:butt;stroke-linejoin:miter;stroke-opacity:1" d="M 869.324,505.353 883.597,494.647 z" id="boundary" inkscape:connector-curvature="0" />
	<path style="fill:none;stroke:red;stroke-width:1px;stroke-linecap:butt;stroke-linejoin:miter;stroke-opacity:1" d="M 755.137,683.77 764.058,699.827 z" id="boundary" inkscape:connector-curvature="0" />
	<path style="fill:none;stroke:red;stroke-width:1px;stroke-linecap:butt;stroke-linejoin:miter;stroke-opacity:1" d="M 764.058,699.827 780.115,708.748 z" id="boundary" inkscape:connector-curvature="0" />
	<path style="fill:none;stroke:red;stroke-width:1px;stroke-linecap:butt;stroke-linejoin:miter;stroke-opacity:1" d="M 780.115,708.748 796.173,717.669 z" id="boundary" inkscape:connector-curvature="0" />
	<path style="fill:none;stroke:red;stroke-width:1px;stroke-linecap:butt;stroke-linejoin:miter;stroke-opacity:1" d="M 796.173,717.669 814.014,719.453 z" id="boundary" inkscape:connector-curvature="0" />
	<path style="fill:none;stroke:red;stroke-width:1px;stroke-linecap:butt;stroke-linejoin:miter;stroke-opacity:1" d="M 726.59,790.82 744.432,790.82 z" id="boundary" inkscape:connector-curvature="0" />
	<path style="fill:none;stroke:red;stroke-width:1px;stroke-linecap:butt;stroke-linejoin:miter;stroke-opacity:1" d="M 744.432,790.82 760.489,799.741 z" id="boundary" inkscape:connector-curvature="0" />
	<path style="fill:none;stroke:red;stroke-width:1px;stroke-linecap:butt;stroke-linejoin:miter;stroke-opacity:1" d="M 776.547,808.662 760.489,799.741 z" id="boundary" inkscape:connector-curvature="0" />
	<path style="fill:none;stroke:red;stroke-width:1px;stroke-linecap:butt;stroke-linejoin:miter;stroke-opacity:1" d="M 776.547,808.662 794.388,815.799 z" id="boundary" inkscape:connector-curvature="0" />
	<path style="fill:none;stroke:red;stroke-width:1px;stroke-linecap:butt;stroke-linejoin:miter;stroke-opacity:1" d="M 794.388,815.799 812.23,817.583 z" id="boundary" inkscape:connector-curvature="0" />
	<path style="fill:none;stroke:red;stroke-width:1px;stroke-linecap:butt;stroke-linejoin:miter;stroke-opacity:1" d="M 814.014,719.453 830.072,728.374 z" id="boundary" inkscape:connector-curvature="0" />
	<path style="fill:none;stroke:red;stroke-width:1px;stroke-linecap:butt;stroke-linejoin:miter;stroke-opacity:1" d="M 830.072,728.374 847.914,735.511 z" id="boundary" inkscape:connector-curvature="0" />
	<path style="fill:none;stroke:red;stroke-width:1px;stroke-linecap:butt;stroke-linejoin:miter;stroke-opacity:1" d="M 847.914,735.511 863.971,744.432 z" id="boundary" inkscape:connector-curvature="0" />
	<path style="fill:none;stroke:red;stroke-width:1px;stroke-linecap:butt;stroke-linejoin:miter;stroke-opacity:1" d="M 878.245,756.921 863.971,744.432 z" id="boundary" inkscape:connector-curvature="0" />
	<path style="fill:none;stroke:red;stroke-width:1px;stroke-linecap:butt;stroke-linejoin:miter;stroke-opacity:1" d="M 878.245,756.921 880.029,774.763 z" id="boundary" inkscape:connector-curvature="0" />
	<path style="fill:none;stroke:red;stroke-width:1px;stroke-linecap:butt;stroke-linejoin:miter;stroke-opacity:1" d="M 880.029,774.763 880.029,792.604 z" id="boundary" inkscape:connector-curvature="0" />
	<path style="fill:none;stroke:red;stroke-width:1px;stroke-linecap:butt;stroke-linejoin:miter;stroke-opacity:1" d="M 828.288,826.504 812.23,817.583 z" id="boundary" inkscape:connector-curvature="0" />
	<path style="fill:none;stroke:red;stroke-width:1px;stroke-linecap:butt;stroke-linejoin:miter;stroke-opacity:1" d="M 846.129,831.856 862.187,840.777 z" id="boundary" inkscape:connector-curvature="0" />
	<path style="fill:none;stroke:red;stroke-width:1px;stroke-linecap:butt;stroke-linejoin:miter;stroke-opacity:1" d="M 828.288,826.504 846.129,831.856 z" id="boundary" inkscape:connector-curvature="0" />
	<path style="fill:none;stroke:red;stroke-width:1px;stroke-linecap:butt;stroke-linejoin:miter;stroke-opacity:1" d="M 871.108,808.662 880.029,792.604 z" id="boundary" inkscape:connector-curvature="0" />
	<path style="fill:none;stroke:red;stroke-width:1px;stroke-linecap:butt;stroke-linejoin:miter;stroke-opacity:1" d="M 871.108,808.662 862.187,840.777 z" id="boundary" inkscape:connector-curvature="0" />
	<circle cx="4" cy="375.108" r="4" fill="#0" id="circle0"/>
	<circle cx="12.9209" cy="391.165" r="4" fill="#0" id="circle1"/>
	<circle cx="21.8417" cy="373.324" r="4" fill="#0" id="circle2"/>
	<circle cx="21.8417" cy="407.223" r="4" fill="#0" id="circle3"/>
	<circle cx="30.7626" cy="423.281" r="4" fill="#0" id="circle4"/>
	<circle cx="34.3309" cy="441.122" r="4" fill="#0" id="circle5"/>
	<circle cx="37.8993" cy="382.245" r="4" fill="#0" id="circle6"/>
	<circle cx="43.2518" cy="457.18" r="4" fill="#0" id="circle7"/>
	<circle cx="48.6043" cy="475.022" r="4" fill="#0" id="circle8"/>
	<circle cx="55.741" cy="389.381" r="4" fill="#0" id="circle9"/>
	<circle cx="57.5252" cy="241.295" r="4" fill="#0" id="circle10"/>
	<circle cx="57.5252" cy="259.137" r="4" fill="#0" id="circle11"/>
	<circle cx="57.5252" cy="276.978" r="4" fill="#0" id="circle12"/>
	<circle cx="57.5252" cy="294.82" r="4" fill="#0" id="circle13"/>
	<circle cx="57.5252" cy="491.079" r="4" fill="#0" id="circle14"/>
	<circle cx="66.446" cy="310.878" r="4" fill="#0" id="circle15"/>
	<circle cx="66.446" cy="328.719" r="4" fill="#0" id="circle16"/>
	<circle cx="66.446" cy="507.137" r="4" fill="#0" id="circle17"/>
	<circle cx="71.7986" cy="227.022" r="4" fill="#0" id="circle18"/>
	<circle cx="71.7986" cy="398.302" r="4" fill="#0" id="circle19"/>
	<circle cx="75.3669" cy="344.777" r="4" fill="#0" id="circle20"/>
	<circle cx="75.3669" cy="523.194" r="4" fill="#0" id="circle21"/>
	<circle cx="80.7194" cy="362.619" r="4" fill="#0" id="circle22"/>
	<circle cx="80.7194" cy="541.036" r="4" fill="#0" id="circle23"/>
	<circle cx="89.6403" cy="227.022" r="4" fill="#0" id="circle24"/>
	<circle cx="89.6403" cy="378.676" r="4" fill="#0" id="circle25"/>
	<circle cx="89.6403" cy="405.439" r="4" fill="#0" id="circle26"/>
	<circle cx="98.5612" cy="548.173" r="4" fill="#0" id="circle27"/>
	<circle cx="107.482" cy="227.022" r="4" fill="#0" id="circle28"/>
	<circle cx="114.619" cy="557.094" r="4" fill="#0" id="circle29"/>
	<circle cx="123.54" cy="235.942" r="4" fill="#0" id="circle30"/>
	<circle cx="132.46" cy="558.878" r="4" fill="#0" id="circle31"/>
	<circle cx="137.813" cy="248.432" r="4" fill="#0" id="circle32"/>
	<circle cx="148.518" cy="262.705" r="4" fill="#0" id="circle33"/>
	<circle cx="148.518" cy="280.547" r="4" fill="#0" id="circle34"/>
	<circle cx="148.518" cy="567.799" r="4" fill="#0" id="circle35"/>
	<circle cx="157.439" cy="296.604" r="4" fill="#0" id="circle36"/>
	<circle cx="157.439" cy="314.446" r="4" fill="#0" id="circle37"/>
	<circle cx="164.576" cy="576.719" r="4" fill="#0" id="circle38"/>
	<circle cx="164.576" cy="594.561" r="4" fill="#0" id="circle39"/>
	<circle cx="166.36" cy="330.504" r="4" fill="#0" id="circle40"/>
	<circle cx="169.928" cy="612.403" r="4" fill="#0" id="circle41"/>
	<circle cx="173.496" cy="348.345" r="4" fill="#0" id="circle42"/>
	<circle cx="173.496" cy="630.245" r="4" fill="#0" id="circle43"/>
	<circle cx="173.496" cy="648.086" r="4" fill="#0" id="circle44"/>
	<circle cx="173.496" cy="665.928" r="4" fill="#0" id="circle45"/>
	<circle cx="173.496" cy="683.77" r="4" fill="#0" id="circle46"/>
	<circle cx="178.849" cy="701.612" r="4" fill="#0" id="circle47"/>
	<circle cx="182.417" cy="364.403" r="4" fill="#0" id="circle48"/>
	<circle cx="182.417" cy="719.453" r="4" fill="#0" id="circle49"/>
	<circle cx="187.77" cy="737.295" r="4" fill="#0" id="circle50"/>
	<circle cx="189.554" cy="382.245" r="4" fill="#0" id="circle51"/>
	<circle cx="191.338" cy="89.6403" r="4" fill="#0" id="circle52"/>
	<circle cx="191.338" cy="107.482" r="4" fill="#0" id="circle53"/>
	<circle cx="191.338" cy="125.324" r="4" fill="#0" id="circle54"/>
	<circle cx="191.338" cy="143.165" r="4" fill="#0" id="circle55"/>
	<circle cx="191.338" cy="161.007" r="4" fill="#0" id="circle56"/>
	<circle cx="191.338" cy="755.137" r="4" fill="#0" id="circle57"/>
	<circle cx="196.691" cy="772.978" r="4" fill="#0" id="circle58"/>
	<circle cx="198.475" cy="398.302" r="4" fill="#0" id="circle59"/>
	<circle cx="200.259" cy="177.065" r="4" fill="#0" id="circle60"/>
	<circle cx="200.259" cy="194.906" r="4" fill="#0" id="circle61"/>
	<circle cx="200.259" cy="212.748" r="4" fill="#0" id="circle62"/>
	<circle cx="205.612" cy="75.3669" r="4" fill="#0" id="circle63"/>
	<circle cx="205.612" cy="416.144" r="4" fill="#0" id="circle64"/>
	<circle cx="205.612" cy="789.036" r="4" fill="#0" id="circle65"/>
	<circle cx="209.18" cy="228.806" r="4" fill="#0" id="circle66"/>
	<circle cx="209.18" cy="806.878" r="4" fill="#0" id="circle67"/>
	<circle cx="209.18" cy="972.806" r="4" fill="#0" id="circle68"/>
	<circle cx="214.532" cy="246.647" r="4" fill="#0" id="circle69"/>
	<circle cx="218.101" cy="264.489" r="4" fill="#0" id="circle70"/>
	<circle cx="218.101" cy="282.331" r="4" fill="#0" id="circle71"/>
	<circle cx="218.101" cy="300.173" r="4" fill="#0" id="circle72"/>
	<circle cx="218.101" cy="822.935" r="4" fill="#0" id="circle73"/>
	<circle cx="218.101" cy="937.122" r="4" fill="#0" id="circle74"/>
	<circle cx="218.101" cy="954.964" r="4" fill="#0" id="circle75"/>
	<circle cx="219.885" cy="428.633" r="4" fill="#0" id="circle76"/>
	<circle cx="221.669" cy="66.446" r="4" fill="#0" id="circle77"/>
	<circle cx="223.453" cy="318.014" r="4" fill="#0" id="circle78"/>
	<circle cx="223.453" cy="985.295" r="4" fill="#0" id="circle79"/>
	<circle cx="227.022" cy="335.856" r="4" fill="#0" id="circle80"/>
	<circle cx="227.022" cy="353.698" r="4" fill="#0" id="circle81"/>
	<circle cx="227.022" cy="446.475" r="4" fill="#0" id="circle82"/>
	<circle cx="227.022" cy="838.993" r="4" fill="#0" id="circle83"/>
	<circle cx="227.022" cy="856.835" r="4" fill="#0" id="circle84"/>
	<circle cx="227.022" cy="874.676" r="4" fill="#0" id="circle85"/>
	<circle cx="227.022" cy="892.518" r="4" fill="#0" id="circle86"/>
	<circle cx="227.022" cy="910.36" r="4" fill="#0" id="circle87"/>
	<circle cx="235.942" cy="369.755" r="4" fill="#0" id="circle88"/>
	<circle cx="235.942" cy="387.597" r="4" fill="#0" id="circle89"/>
	<circle cx="237.727" cy="996" r="4" fill="#0" id="circle90"/>
	<circle cx="239.511" cy="66.446" r="4" fill="#0" id="circle91"/>
	<circle cx="244.863" cy="403.655" r="4" fill="#0" id="circle92"/>
	<circle cx="244.863" cy="446.475" r="4" fill="#0" id="circle93"/>
	<circle cx="246.647" cy="421.496" r="4" fill="#0" id="circle94"/>
	<circle cx="255.568" cy="996" r="4" fill="#0" id="circle95"/>
	<circle cx="257.353" cy="66.446" r="4" fill="#0" id="circle96"/>
	<circle cx="273.41" cy="75.3669" r="4" fill="#0" id="circle97"/>
	<circle cx="273.41" cy="996" r="4" fill="#0" id="circle98"/>
	<circle cx="282.331" cy="91.4245" r="4" fill="#0" id="circle99"/>
	<circle cx="291.252" cy="107.482" r="4" fill="#0" id="circle100"/>
	<circle cx="291.252" cy="125.324" r="4" fill="#0" id="circle101"/>
	<circle cx="291.252" cy="143.165" r="4" fill="#0" id="circle102"/>
	<circle cx="291.252" cy="161.007" r="4" fill="#0" id="circle103"/>
	<circle cx="291.252" cy="987.079" r="4" fill="#0" id="circle104"/>
	<circle cx="300.173" cy="177.065" r="4" fill="#0" id="circle105"/>
	<circle cx="300.173" cy="194.906" r="4" fill="#0" id="circle106"/>
	<circle cx="309.094" cy="210.964" r="4" fill="#0" id="circle107"/>
	<circle cx="309.094" cy="228.806" r="4" fill="#0" id="circle108"/>
	<circle cx="309.094" cy="246.647" r="4" fill="#0" id="circle109"/>
	<circle cx="309.094" cy="987.079" r="4" fill="#0" id="circle110"/>
	<circle cx="318.014" cy="262.705" r="4" fill="#0" id="circle111"/>
	<circle cx="318.014" cy="280.547" r="4" fill="#0" id="circle112"/>
	<circle cx="326.935" cy="296.604" r="4" fill="#0" id="circle113"/>
	<circle cx="326.935" cy="314.446" r="4" fill="#0" id="circle114"/>
	<circle cx="326.935" cy="987.079" r="4" fill="#0" id="circle115"/>
	<circle cx="335.856" cy="330.504" r="4" fill="#0" id="circle116"/>
	<circle cx="342.993" cy="27.1942" r="4" fill="#0" id="circle117"/>
	<circle cx="342.993" cy="45.036" r="4" fill="#0" id="circle118"/>
	<circle cx="342.993" cy="62.8777" r="4" fill="#0" id="circle119"/>
	<circle cx="342.993" cy="80.7194" r="4" fill="#0" id="circle120"/>
	<circle cx="342.993" cy="98.5612" r="4" fill="#0" id="circle121"/>
	<circle cx="342.993" cy="116.403" r="4" fill="#0" id="circle122"/>
	<circle cx="342.993" cy="134.245" r="4" fill="#0" id="circle123"/>
	<circle cx="342.993" cy="152.086" r="4" fill="#0" id="circle124"/>
	<circle cx="342.993" cy="169.928" r="4" fill="#0" id="circle125"/>
	<circle cx="344.777" cy="346.561" r="4" fill="#0" id="circle126"/>
	<circle cx="344.777" cy="987.079" r="4" fill="#0" id="circle127"/>
	<circle cx="351.914" cy="185.986" r="4" fill="#0" id="circle128"/>
	<circle cx="351.914" cy="203.827" r="4" fill="#0" id="circle129"/>
	<circle cx="351.914" cy="221.669" r="4" fill="#0" id="circle130"/>
	<circle cx="351.914" cy="239.511" r="4" fill="#0" id="circle131"/>
	<circle cx="351.914" cy="257.353" r="4" fill="#0" id="circle132"/>
	<circle cx="351.914" cy="275.194" r="4" fill="#0" id="circle133"/>
	<circle cx="351.914" cy="293.036" r="4" fill="#0" id="circle134"/>
	<circle cx="355.482" cy="360.835" r="4" fill="#0" id="circle135"/>
	<circle cx="357.266" cy="12.9209" r="4" fill="#0" id="circle136"/>
	<circle cx="360.835" cy="309.094" r="4" fill="#0" id="circle137"/>
	<circle cx="360.835" cy="326.935" r="4" fill="#0" id="circle138"/>
	<circle cx="362.619" cy="987.079" r="4" fill="#0" id="circle139"/>
	<circle cx="373.324" cy="4" r="4" fill="#0" id="circle140"/>
	<circle cx="380.46" cy="987.079" r="4" fill="#0" id="circle141"/>
	<circle cx="391.165" cy="4" r="4" fill="#0" id="circle142"/>
	<circle cx="398.302" cy="987.079" r="4" fill="#0" id="circle143"/>
	<circle cx="409.007" cy="4" r="4" fill="#0" id="circle144"/>
	<circle cx="416.144" cy="987.079" r="4" fill="#0" id="circle145"/>
	<circle cx="425.065" cy="12.9209" r="4" fill="#0" id="circle146"/>
	<circle cx="433.986" cy="978.158" r="4" fill="#0" id="circle147"/>
	<circle cx="439.338" cy="23.6259" r="4" fill="#0" id="circle148"/>
	<circle cx="442.906" cy="41.4676" r="4" fill="#0" id="circle149"/>
	<circle cx="451.827" cy="57.5252" r="4" fill="#0" id="circle150"/>
	<circle cx="451.827" cy="75.3669" r="4" fill="#0" id="circle151"/>
	<circle cx="451.827" cy="93.2086" r="4" fill="#0" id="circle152"/>
	<circle cx="451.827" cy="111.05" r="4" fill="#0" id="circle153"/>
	<circle cx="451.827" cy="128.892" r="4" fill="#0" id="circle154"/>
	<circle cx="451.827" cy="146.734" r="4" fill="#0" id="circle155"/>
	<circle cx="451.827" cy="164.576" r="4" fill="#0" id="circle156"/>
	<circle cx="451.827" cy="182.417" r="4" fill="#0" id="circle157"/>
	<circle cx="451.827" cy="200.259" r="4" fill="#0" id="circle158"/>
	<circle cx="451.827" cy="978.158" r="4" fill="#0" id="circle159"/>
	<circle cx="460.748" cy="216.317" r="4" fill="#0" id="circle160"/>
	<circle cx="460.748" cy="234.158" r="4" fill="#0" id="circle161"/>
	<circle cx="460.748" cy="252" r="4" fill="#0" id="circle162"/>
	<circle cx="460.748" cy="269.842" r="4" fill="#0" id="circle163"/>
	<circle cx="460.748" cy="287.683" r="4" fill="#0" id="circle164"/>
	<circle cx="460.748" cy="305.525" r="4" fill="#0" id="circle165"/>
	<circle cx="469.669" cy="321.583" r="4" fill="#0" id="circle166"/>
	<circle cx="469.669" cy="339.424" r="4" fill="#0" id="circle167"/>
	<circle cx="469.669" cy="357.266" r="4" fill="#0" id="circle168"/>
	<circle cx="469.669" cy="978.158" r="4" fill="#0" id="circle169"/>
	<circle cx="483.942" cy="369.755" r="4" fill="#0" id="circle170"/>
	<circle cx="487.511" cy="978.158" r="4" fill="#0" id="circle171"/>
	<circle cx="494.647" cy="303.741" r="4" fill="#0" id="circle172"/>
	<circle cx="494.647" cy="321.583" r="4" fill="#0" id="circle173"/>
	<circle cx="494.647" cy="339.424" r="4" fill="#0" id="circle174"/>
	<circle cx="503.568" cy="107.482" r="4" fill="#0" id="circle175"/>
	<circle cx="503.568" cy="125.324" r="4" fill="#0" id="circle176"/>
	<circle cx="503.568" cy="143.165" r="4" fill="#0" id="circle177"/>
	<circle cx="503.568" cy="161.007" r="4" fill="#0" id="circle178"/>
	<circle cx="503.568" cy="259.137" r="4" fill="#0" id="circle179"/>
	<circle cx="503.568" cy="276.978" r="4" fill="#0" id="circle180"/>
	<circle cx="505.353" cy="978.158" r="4" fill="#0" id="circle181"/>
	<circle cx="512.489" cy="80.7194" r="4" fill="#0" id="circle182"/>
	<circle cx="512.489" cy="177.065" r="4" fill="#0" id="circle183"/>
	<circle cx="512.489" cy="194.906" r="4" fill="#0" id="circle184"/>
	<circle cx="512.489" cy="212.748" r="4" fill="#0" id="circle185"/>
	<circle cx="512.489" cy="230.59" r="4" fill="#0" id="circle186"/>
	<circle cx="523.194" cy="969.237" r="4" fill="#0" id="circle187"/>
	<circle cx="526.763" cy="66.446" r="4" fill="#0" id="circle188"/>
	<circle cx="532.115" cy="951.396" r="4" fill="#0" id="circle189"/>
	<circle cx="541.036" cy="933.554" r="4" fill="#0" id="circle190"/>
	<circle cx="542.82" cy="57.5252" r="4" fill="#0" id="circle191"/>
	<circle cx="555.309" cy="921.065" r="4" fill="#0" id="circle192"/>
	<circle cx="558.878" cy="48.6043" r="4" fill="#0" id="circle193"/>
	<circle cx="567.799" cy="906.791" r="4" fill="#0" id="circle194"/>
	<circle cx="574.935" cy="57.5252" r="4" fill="#0" id="circle195"/>
	<circle cx="582.072" cy="894.302" r="4" fill="#0" id="circle196"/>
	<circle cx="585.64" cy="71.7986" r="4" fill="#0" id="circle197"/>
	<circle cx="594.561" cy="353.698" r="4" fill="#0" id="circle198"/>
	<circle cx="594.561" cy="371.54" r="4" fill="#0" id="circle199"/>
	<circle cx="594.561" cy="389.381" r="4" fill="#0" id="circle200"/>
	<circle cx="594.561" cy="407.223" r="4" fill="#0" id="circle201"/>
	<circle cx="594.561" cy="425.065" r="4" fill="#0" id="circle202"/>
	<circle cx="594.561" cy="442.906" r="4" fill="#0" id="circle203"/>
	<circle cx="594.561" cy="478.59" r="4" fill="#0" id="circle204"/>
	<circle cx="594.561" cy="496.432" r="4" fill="#0" id="circle205"/>
	<circle cx="594.561" cy="514.273" r="4" fill="#0" id="circle206"/>
	<circle cx="598.129" cy="86.0719" r="4" fill="#0" id="circle207"/>
	<circle cx="598.129" cy="460.748" r="4" fill="#0" id="circle208"/>
	<circle cx="598.129" cy="532.115" r="4" fill="#0" id="circle209"/>
	<circle cx="599.914" cy="888.95" r="4" fill="#0" id="circle210"/>
	<circle cx="603.482" cy="103.914" r="4" fill="#0" id="circle211"/>
	<circle cx="603.482" cy="121.755" r="4" fill="#0" id="circle212"/>
	<circle cx="603.482" cy="139.597" r="4" fill="#0" id="circle213"/>
	<circle cx="603.482" cy="157.439" r="4" fill="#0" id="circle214"/>
	<circle cx="603.482" cy="219.885" r="4" fill="#0" id="circle215"/>
	<circle cx="603.482" cy="237.727" r="4" fill="#0" id="circle216"/>
	<circle cx="603.482" cy="255.568" r="4" fill="#0" id="circle217"/>
	<circle cx="603.482" cy="273.41" r="4" fill="#0" id="circle218"/>
	<circle cx="603.482" cy="291.252" r="4" fill="#0" id="circle219"/>
	<circle cx="603.482" cy="309.094" r="4" fill="#0" id="circle220"/>
	<circle cx="603.482" cy="326.935" r="4" fill="#0" id="circle221"/>
	<circle cx="607.05" cy="175.281" r="4" fill="#0" id="circle222"/>
	<circle cx="607.05" cy="548.173" r="4" fill="#0" id="circle223"/>
	<circle cx="612.403" cy="193.122" r="4" fill="#0" id="circle224"/>
	<circle cx="615.971" cy="878.245" r="4" fill="#0" id="circle225"/>
	<circle cx="619.54" cy="562.446" r="4" fill="#0" id="circle226"/>
	<circle cx="630.245" cy="853.266" r="4" fill="#0" id="circle227"/>
	<circle cx="633.813" cy="574.935" r="4" fill="#0" id="circle228"/>
	<circle cx="644.518" cy="840.777" r="4" fill="#0" id="circle229"/>
	<circle cx="646.302" cy="589.209" r="4" fill="#0" id="circle230"/>
	<circle cx="657.007" cy="826.504" r="4" fill="#0" id="circle231"/>
	<circle cx="664.144" cy="589.209" r="4" fill="#0" id="circle232"/>
	<circle cx="671.281" cy="814.014" r="4" fill="#0" id="circle233"/>
	<circle cx="673.065" cy="571.367" r="4" fill="#0" id="circle234"/>
	<circle cx="683.77" cy="799.741" r="4" fill="#0" id="circle235"/>
	<circle cx="687.338" cy="557.094" r="4" fill="#0" id="circle236"/>
	<circle cx="692.691" cy="781.899" r="4" fill="#0" id="circle237"/>
	<circle cx="696.259" cy="539.252" r="4" fill="#0" id="circle238"/>
	<circle cx="708.748" cy="517.842" r="4" fill="#0" id="circle239"/>
	<circle cx="710.532" cy="781.899" r="4" fill="#0" id="circle240"/>
	<circle cx="723.022" cy="503.568" r="4" fill="#0" id="circle241"/>
	<circle cx="726.59" cy="790.82" r="4" fill="#0" id="circle242"/>
	<circle cx="737.295" cy="489.295" r="4" fill="#0" id="circle243"/>
	<circle cx="744.432" cy="790.82" r="4" fill="#0" id="circle244"/>
	<circle cx="751.568" cy="476.806" r="4" fill="#0" id="circle245"/>
	<circle cx="755.137" cy="665.928" r="4" fill="#0" id="circle246"/>
	<circle cx="755.137" cy="683.77" r="4" fill="#0" id="circle247"/>
	<circle cx="760.489" cy="799.741" r="4" fill="#0" id="circle248"/>
	<circle cx="764.058" cy="462.532" r="4" fill="#0" id="circle249"/>
	<circle cx="764.058" cy="648.086" r="4" fill="#0" id="circle250"/>
	<circle cx="764.058" cy="699.827" r="4" fill="#0" id="circle251"/>
	<circle cx="772.978" cy="630.245" r="4" fill="#0" id="circle252"/>
	<circle cx="776.547" cy="808.662" r="4" fill="#0" id="circle253"/>
	<circle cx="780.115" cy="708.748" r="4" fill="#0" id="circle254"/>
	<circle cx="781.899" cy="453.612" r="4" fill="#0" id="circle255"/>
	<circle cx="787.252" cy="617.755" r="4" fill="#0" id="circle256"/>
	<circle cx="794.388" cy="815.799" r="4" fill="#0" id="circle257"/>
	<circle cx="796.173" cy="441.122" r="4" fill="#0" id="circle258"/>
	<circle cx="796.173" cy="717.669" r="4" fill="#0" id="circle259"/>
	<circle cx="799.741" cy="594.561" r="4" fill="#0" id="circle260"/>
	<circle cx="808.662" cy="576.719" r="4" fill="#0" id="circle261"/>
	<circle cx="812.23" cy="432.201" r="4" fill="#0" id="circle262"/>
	<circle cx="812.23" cy="817.583" r="4" fill="#0" id="circle263"/>
	<circle cx="814.014" cy="719.453" r="4" fill="#0" id="circle264"/>
	<circle cx="822.935" cy="564.23" r="4" fill="#0" id="circle265"/>
	<circle cx="828.288" cy="826.504" r="4" fill="#0" id="circle266"/>
	<circle cx="830.072" cy="432.201" r="4" fill="#0" id="circle267"/>
	<circle cx="830.072" cy="728.374" r="4" fill="#0" id="circle268"/>
	<circle cx="831.856" cy="546.388" r="4" fill="#0" id="circle269"/>
	<circle cx="844.345" cy="532.115" r="4" fill="#0" id="circle270"/>
	<circle cx="846.129" cy="831.856" r="4" fill="#0" id="circle271"/>
	<circle cx="847.914" cy="423.281" r="4" fill="#0" id="circle272"/>
	<circle cx="847.914" cy="735.511" r="4" fill="#0" id="circle273"/>
	<circle cx="858.619" cy="519.626" r="4" fill="#0" id="circle274"/>
	<circle cx="862.187" cy="840.777" r="4" fill="#0" id="circle275"/>
	<circle cx="863.971" cy="432.201" r="4" fill="#0" id="circle276"/>
	<circle cx="863.971" cy="744.432" r="4" fill="#0" id="circle277"/>
	<circle cx="869.324" cy="505.353" r="4" fill="#0" id="circle278"/>
	<circle cx="871.108" cy="808.662" r="4" fill="#0" id="circle279"/>
	<circle cx="878.245" cy="756.921" r="4" fill="#0" id="circle280"/>
	<circle cx="880.029" cy="441.122" r="4" fill="#0" id="circle281"/>
	<circle cx="880.029" cy="774.763" r="4" fill="#0" id="circle282"/>
	<circle cx="880.029" cy="792.604" r="4" fill="#0" id="circle283"/>
	<circle cx="883.597" cy="494.647" r="4" fill="#0" id="circle284"/>
	<circle cx="888.95" cy="457.18" r="4" fill="#0" id="circle285"/>
	<circle cx="897.871" cy="473.237" r="4" fill="#0" id="circle286"/>
	</g>
</svg>