<?xml version="1.0" encoding="UTF-8" standalone="no"?>
<!-- Created with CurveBenchmark -->
<svg
	xmlns:dc="http://purl.org/dc/elements/1.1/"
	xmlns:cc="http://creativecommons.org/ns#"
	xmlns:rdf="http://www.w3.org/1999/02/22-rdf-syntax-ns#"
	xmlns:svg="http://www.w3.org/2000/svg"
	xmlns="http://www.w3.org/2000/svg"
	xmlns:sodipodi="http://sodipodi.sourceforge.net/DTD/sodipodi-0.dtd"
	xmlns:inkscape="http://www.inkscape.org/namespaces/inkscape"
	width="1000"
	height="1000"
	id="svg2"
	version="1.1"
	sodipodi:docname="manifold/crust-fish0753.png.txt">
<defs
	id="defs4" />
<metadata
	id="metadata7">
	<rdf:RDF>
		<cc:Work
			rdf:about="">
			<dc:format>image/svg+xml</dc:format>
			<dc:type
				rdf:resource="http://purl.org/dc/dcmitype/StillImage" />
			<dc:title></dc:title>
		</cc:Work>
	</rdf:RDF>
</metadata>
<g
	inkscape:label="Layer 1"
	inkscape:groupmode="layer"
	id="layer1">
	<path style="fill:none;stroke:red;stroke-width:1px;stroke-linecap:butt;stroke-linejoin:miter;stroke-opacity:1" d="M 136.463,55.5134 149.709,48.1543 z" id="boundary" inkscape:connector-curvature="0" />
	<path style="fill:none;stroke:red;stroke-width:1px;stroke-linecap:butt;stroke-linejoin:miter;stroke-opacity:1" d="M 164.427,48.1543 149.709,48.1543 z" id="boundary" inkscape:connector-curvature="0" />
	<path style="fill:none;stroke:red;stroke-width:1px;stroke-linecap:butt;stroke-linejoin:miter;stroke-opacity:1" d="M 121.745,59.9288 136.463,55.5134 z" id="boundary" inkscape:connector-curvature="0" />
	<path style="fill:none;stroke:red;stroke-width:1px;stroke-linecap:butt;stroke-linejoin:miter;stroke-opacity:1" d="M 121.745,59.9288 111.442,77.5905 z" id="boundary" inkscape:connector-curvature="0" />
	<path style="fill:none;stroke:red;stroke-width:1px;stroke-linecap:butt;stroke-linejoin:miter;stroke-opacity:1" d="M 179.145,48.1543 164.427,48.1543 z" id="boundary" inkscape:connector-curvature="0" />
	<path style="fill:none;stroke:red;stroke-width:1px;stroke-linecap:butt;stroke-linejoin:miter;stroke-opacity:1" d="M 292.475,26.0772 277.757,26.0772 z" id="boundary" inkscape:connector-curvature="0" />
	<path style="fill:none;stroke:red;stroke-width:1px;stroke-linecap:butt;stroke-linejoin:miter;stroke-opacity:1" d="M 263.039,26.0772 277.757,26.0772 z" id="boundary" inkscape:connector-curvature="0" />
	<path style="fill:none;stroke:red;stroke-width:1px;stroke-linecap:butt;stroke-linejoin:miter;stroke-opacity:1" d="M 263.039,26.0772 249.792,33.4362 z" id="boundary" inkscape:connector-curvature="0" />
	<path style="fill:none;stroke:red;stroke-width:1px;stroke-linecap:butt;stroke-linejoin:miter;stroke-opacity:1" d="M 193.864,48.1543 207.11,40.7953 z" id="boundary" inkscape:connector-curvature="0" />
	<path style="fill:none;stroke:red;stroke-width:1px;stroke-linecap:butt;stroke-linejoin:miter;stroke-opacity:1" d="M 221.828,40.7953 207.11,40.7953 z" id="boundary" inkscape:connector-curvature="0" />
	<path style="fill:none;stroke:red;stroke-width:1px;stroke-linecap:butt;stroke-linejoin:miter;stroke-opacity:1" d="M 179.145,48.1543 193.864,48.1543 z" id="boundary" inkscape:connector-curvature="0" />
	<path style="fill:none;stroke:red;stroke-width:1px;stroke-linecap:butt;stroke-linejoin:miter;stroke-opacity:1" d="M 235.074,33.4362 249.792,33.4362 z" id="boundary" inkscape:connector-curvature="0" />
	<path style="fill:none;stroke:red;stroke-width:1px;stroke-linecap:butt;stroke-linejoin:miter;stroke-opacity:1" d="M 221.828,40.7953 235.074,33.4362 z" id="boundary" inkscape:connector-curvature="0" />
	<path style="fill:none;stroke:red;stroke-width:1px;stroke-linecap:butt;stroke-linejoin:miter;stroke-opacity:1" d="M 58.457,114.386 45.2107,121.745 z" id="boundary" inkscape:connector-curvature="0" />
	<path style="fill:none;stroke:red;stroke-width:1px;stroke-linecap:butt;stroke-linejoin:miter;stroke-opacity:1" d="M 70.2315,104.083 58.457,114.386 z" id="boundary" inkscape:connector-curvature="0" />
	<path style="fill:none;stroke:red;stroke-width:1px;stroke-linecap:butt;stroke-linejoin:miter;stroke-opacity:1" d="M 96.724,84.9496 111.442,77.5905 z" id="boundary" inkscape:connector-curvature="0" />
	<path style="fill:none;stroke:red;stroke-width:1px;stroke-linecap:butt;stroke-linejoin:miter;stroke-opacity:1" d="M 96.724,84.9496 84.9496,96.724 z" id="boundary" inkscape:connector-curvature="0" />
	<path style="fill:none;stroke:red;stroke-width:1px;stroke-linecap:butt;stroke-linejoin:miter;stroke-opacity:1" d="M 70.2315,104.083 84.9496,96.724 z" id="boundary" inkscape:connector-curvature="0" />
	<path style="fill:none;stroke:red;stroke-width:1px;stroke-linecap:butt;stroke-linejoin:miter;stroke-opacity:1" d="M 45.2107,121.745 33.4362,133.519 z" id="boundary" inkscape:connector-curvature="0" />
	<path style="fill:none;stroke:red;stroke-width:1px;stroke-linecap:butt;stroke-linejoin:miter;stroke-opacity:1" d="M 33.4362,133.519 23.1335,151.181 z" id="boundary" inkscape:connector-curvature="0" />
	<path style="fill:none;stroke:red;stroke-width:1px;stroke-linecap:butt;stroke-linejoin:miter;stroke-opacity:1" d="M 15.7745,165.899 23.1335,151.181 z" id="boundary" inkscape:connector-curvature="0" />
	<path style="fill:none;stroke:red;stroke-width:1px;stroke-linecap:butt;stroke-linejoin:miter;stroke-opacity:1" d="M 15.7745,165.899 4,177.674 z" id="boundary" inkscape:connector-curvature="0" />
	<path style="fill:none;stroke:red;stroke-width:1px;stroke-linecap:butt;stroke-linejoin:miter;stroke-opacity:1" d="M 307.193,26.0772 292.475,26.0772 z" id="boundary" inkscape:connector-curvature="0" />
	<path style="fill:none;stroke:red;stroke-width:1px;stroke-linecap:butt;stroke-linejoin:miter;stroke-opacity:1" d="M 321.911,26.0772 336.629,26.0772 z" id="boundary" inkscape:connector-curvature="0" />
	<path style="fill:none;stroke:red;stroke-width:1px;stroke-linecap:butt;stroke-linejoin:miter;stroke-opacity:1" d="M 321.911,26.0772 307.193,26.0772 z" id="boundary" inkscape:connector-curvature="0" />
	<path style="fill:none;stroke:red;stroke-width:1px;stroke-linecap:butt;stroke-linejoin:miter;stroke-opacity:1" d="M 364.593,33.4362 351.347,26.0772 z" id="boundary" inkscape:connector-curvature="0" />
	<path style="fill:none;stroke:red;stroke-width:1px;stroke-linecap:butt;stroke-linejoin:miter;stroke-opacity:1" d="M 351.347,26.0772 336.629,26.0772 z" id="boundary" inkscape:connector-curvature="0" />
	<path style="fill:none;stroke:red;stroke-width:1px;stroke-linecap:butt;stroke-linejoin:miter;stroke-opacity:1" d="M 364.593,33.4362 379.312,33.4362 z" id="boundary" inkscape:connector-curvature="0" />
	<path style="fill:none;stroke:red;stroke-width:1px;stroke-linecap:butt;stroke-linejoin:miter;stroke-opacity:1" d="M 394.03,33.4362 379.312,33.4362 z" id="boundary" inkscape:connector-curvature="0" />
	<path style="fill:none;stroke:red;stroke-width:1px;stroke-linecap:butt;stroke-linejoin:miter;stroke-opacity:1" d="M 444.071,4 454.374,15.7745 z" id="boundary" inkscape:connector-curvature="0" />
	<path style="fill:none;stroke:red;stroke-width:1px;stroke-linecap:butt;stroke-linejoin:miter;stroke-opacity:1" d="M 432.297,14.3027 444.071,4 z" id="boundary" inkscape:connector-curvature="0" />
	<path style="fill:none;stroke:red;stroke-width:1px;stroke-linecap:butt;stroke-linejoin:miter;stroke-opacity:1" d="M 432.297,14.3027 421.994,26.0772 z" id="boundary" inkscape:connector-curvature="0" />
	<path style="fill:none;stroke:red;stroke-width:1px;stroke-linecap:butt;stroke-linejoin:miter;stroke-opacity:1" d="M 421.994,26.0772 408.748,33.4362 z" id="boundary" inkscape:connector-curvature="0" />
	<path style="fill:none;stroke:red;stroke-width:1px;stroke-linecap:butt;stroke-linejoin:miter;stroke-opacity:1" d="M 408.748,33.4362 394.03,33.4362 z" id="boundary" inkscape:connector-curvature="0" />
	<path style="fill:none;stroke:red;stroke-width:1px;stroke-linecap:butt;stroke-linejoin:miter;stroke-opacity:1" d="M 469.092,42.2671 461.733,29.0208 z" id="boundary" inkscape:connector-curvature="0" />
	<path style="fill:none;stroke:red;stroke-width:1px;stroke-linecap:butt;stroke-linejoin:miter;stroke-opacity:1" d="M 461.733,29.0208 454.374,15.7745 z" id="boundary" inkscape:connector-curvature="0" />
	<path style="fill:none;stroke:red;stroke-width:1px;stroke-linecap:butt;stroke-linejoin:miter;stroke-opacity:1" d="M 469.092,42.2671 480.866,51.0979 z" id="boundary" inkscape:connector-curvature="0" />
	<path style="fill:none;stroke:red;stroke-width:1px;stroke-linecap:butt;stroke-linejoin:miter;stroke-opacity:1" d="M 480.866,51.0979 495.585,55.5134 z" id="boundary" inkscape:connector-curvature="0" />
	<path style="fill:none;stroke:red;stroke-width:1px;stroke-linecap:butt;stroke-linejoin:miter;stroke-opacity:1" d="M 508.831,62.8724 495.585,55.5134 z" id="boundary" inkscape:connector-curvature="0" />
	<path style="fill:none;stroke:red;stroke-width:1px;stroke-linecap:butt;stroke-linejoin:miter;stroke-opacity:1" d="M 522.077,70.2315 535.323,77.5905 z" id="boundary" inkscape:connector-curvature="0" />
	<path style="fill:none;stroke:red;stroke-width:1px;stroke-linecap:butt;stroke-linejoin:miter;stroke-opacity:1" d="M 535.323,77.5905 550.042,82.0059 z" id="boundary" inkscape:connector-curvature="0" />
	<path style="fill:none;stroke:red;stroke-width:1px;stroke-linecap:butt;stroke-linejoin:miter;stroke-opacity:1" d="M 522.077,70.2315 508.831,62.8724 z" id="boundary" inkscape:connector-curvature="0" />
	<path style="fill:none;stroke:red;stroke-width:1px;stroke-linecap:butt;stroke-linejoin:miter;stroke-opacity:1" d="M 4,192.392 4,177.674 z" id="boundary" inkscape:connector-curvature="0" />
	<path style="fill:none;stroke:red;stroke-width:1px;stroke-linecap:butt;stroke-linejoin:miter;stroke-opacity:1" d="M 11.3591,205.638 4,192.392 z" id="boundary" inkscape:connector-curvature="0" />
	<path style="fill:none;stroke:red;stroke-width:1px;stroke-linecap:butt;stroke-linejoin:miter;stroke-opacity:1" d="M 11.3591,205.638 21.6617,217.412 z" id="boundary" inkscape:connector-curvature="0" />
	<path style="fill:none;stroke:red;stroke-width:1px;stroke-linecap:butt;stroke-linejoin:miter;stroke-opacity:1" d="M 33.4362,226.243 21.6617,217.412 z" id="boundary" inkscape:connector-curvature="0" />
	<path style="fill:none;stroke:red;stroke-width:1px;stroke-linecap:butt;stroke-linejoin:miter;stroke-opacity:1" d="M 33.4362,226.243 42.2671,238.018 z" id="boundary" inkscape:connector-curvature="0" />
	<path style="fill:none;stroke:red;stroke-width:1px;stroke-linecap:butt;stroke-linejoin:miter;stroke-opacity:1" d="M 56.9852,240.961 42.2671,238.018 z" id="boundary" inkscape:connector-curvature="0" />
	<path style="fill:none;stroke:red;stroke-width:1px;stroke-linecap:butt;stroke-linejoin:miter;stroke-opacity:1" d="M 70.2315,248.32 56.9852,240.961 z" id="boundary" inkscape:connector-curvature="0" />
	<path style="fill:none;stroke:red;stroke-width:1px;stroke-linecap:butt;stroke-linejoin:miter;stroke-opacity:1" d="M 70.2315,248.32 84.9496,248.32 z" id="boundary" inkscape:connector-curvature="0" />
	<path style="fill:none;stroke:red;stroke-width:1px;stroke-linecap:butt;stroke-linejoin:miter;stroke-opacity:1" d="M 111.442,263.039 98.1958,255.68 z" id="boundary" inkscape:connector-curvature="0" />
	<path style="fill:none;stroke:red;stroke-width:1px;stroke-linecap:butt;stroke-linejoin:miter;stroke-opacity:1" d="M 126.16,268.926 111.442,263.039 z" id="boundary" inkscape:connector-curvature="0" />
	<path style="fill:none;stroke:red;stroke-width:1px;stroke-linecap:butt;stroke-linejoin:miter;stroke-opacity:1" d="M 98.1958,255.68 84.9496,248.32 z" id="boundary" inkscape:connector-curvature="0" />
	<path style="fill:none;stroke:red;stroke-width:1px;stroke-linecap:butt;stroke-linejoin:miter;stroke-opacity:1" d="M 295.418,314.552 280.7,314.552 z" id="boundary" inkscape:connector-curvature="0" />
	<path style="fill:none;stroke:red;stroke-width:1px;stroke-linecap:butt;stroke-linejoin:miter;stroke-opacity:1" d="M 140.878,270.398 155.596,276.285 z" id="boundary" inkscape:connector-curvature="0" />
	<path style="fill:none;stroke:red;stroke-width:1px;stroke-linecap:butt;stroke-linejoin:miter;stroke-opacity:1" d="M 155.596,276.285 167.371,285.116 z" id="boundary" inkscape:connector-curvature="0" />
	<path style="fill:none;stroke:red;stroke-width:1px;stroke-linecap:butt;stroke-linejoin:miter;stroke-opacity:1" d="M 126.16,268.926 140.878,270.398 z" id="boundary" inkscape:connector-curvature="0" />
	<path style="fill:none;stroke:red;stroke-width:1px;stroke-linecap:butt;stroke-linejoin:miter;stroke-opacity:1" d="M 167.371,285.116 180.617,292.475 z" id="boundary" inkscape:connector-curvature="0" />
	<path style="fill:none;stroke:red;stroke-width:1px;stroke-linecap:butt;stroke-linejoin:miter;stroke-opacity:1" d="M 180.617,292.475 195.335,292.475 z" id="boundary" inkscape:connector-curvature="0" />
	<path style="fill:none;stroke:red;stroke-width:1px;stroke-linecap:butt;stroke-linejoin:miter;stroke-opacity:1" d="M 210.053,292.475 195.335,292.475 z" id="boundary" inkscape:connector-curvature="0" />
	<path style="fill:none;stroke:red;stroke-width:1px;stroke-linecap:butt;stroke-linejoin:miter;stroke-opacity:1" d="M 238.018,299.834 223.3,299.834 z" id="boundary" inkscape:connector-curvature="0" />
	<path style="fill:none;stroke:red;stroke-width:1px;stroke-linecap:butt;stroke-linejoin:miter;stroke-opacity:1" d="M 223.3,299.834 210.053,292.475 z" id="boundary" inkscape:connector-curvature="0" />
	<path style="fill:none;stroke:red;stroke-width:1px;stroke-linecap:butt;stroke-linejoin:miter;stroke-opacity:1" d="M 251.264,307.193 238.018,299.834 z" id="boundary" inkscape:connector-curvature="0" />
	<path style="fill:none;stroke:red;stroke-width:1px;stroke-linecap:butt;stroke-linejoin:miter;stroke-opacity:1" d="M 265.982,313.08 280.7,314.552 z" id="boundary" inkscape:connector-curvature="0" />
	<path style="fill:none;stroke:red;stroke-width:1px;stroke-linecap:butt;stroke-linejoin:miter;stroke-opacity:1" d="M 265.982,313.08 251.264,307.193 z" id="boundary" inkscape:connector-curvature="0" />
	<path style="fill:none;stroke:red;stroke-width:1px;stroke-linecap:butt;stroke-linejoin:miter;stroke-opacity:1" d="M 295.418,314.552 310.136,314.552 z" id="boundary" inkscape:connector-curvature="0" />
	<path style="fill:none;stroke:red;stroke-width:1px;stroke-linecap:butt;stroke-linejoin:miter;stroke-opacity:1" d="M 324.855,314.552 339.573,314.552 z" id="boundary" inkscape:connector-curvature="0" />
	<path style="fill:none;stroke:red;stroke-width:1px;stroke-linecap:butt;stroke-linejoin:miter;stroke-opacity:1" d="M 324.855,314.552 310.136,314.552 z" id="boundary" inkscape:connector-curvature="0" />
	<path style="fill:none;stroke:red;stroke-width:1px;stroke-linecap:butt;stroke-linejoin:miter;stroke-opacity:1" d="M 354.291,314.552 369.009,314.552 z" id="boundary" inkscape:connector-curvature="0" />
	<path style="fill:none;stroke:red;stroke-width:1px;stroke-linecap:butt;stroke-linejoin:miter;stroke-opacity:1" d="M 369.009,314.552 383.727,320.439 z" id="boundary" inkscape:connector-curvature="0" />
	<path style="fill:none;stroke:red;stroke-width:1px;stroke-linecap:butt;stroke-linejoin:miter;stroke-opacity:1" d="M 398.445,321.911 383.727,320.439 z" id="boundary" inkscape:connector-curvature="0" />
	<path style="fill:none;stroke:red;stroke-width:1px;stroke-linecap:butt;stroke-linejoin:miter;stroke-opacity:1" d="M 339.573,314.552 354.291,314.552 z" id="boundary" inkscape:connector-curvature="0" />
	<path style="fill:none;stroke:red;stroke-width:1px;stroke-linecap:butt;stroke-linejoin:miter;stroke-opacity:1" d="M 520.605,321.911 505.887,321.911 z" id="boundary" inkscape:connector-curvature="0" />
	<path style="fill:none;stroke:red;stroke-width:1px;stroke-linecap:butt;stroke-linejoin:miter;stroke-opacity:1" d="M 410.22,332.214 398.445,321.911 z" id="boundary" inkscape:connector-curvature="0" />
	<path style="fill:none;stroke:red;stroke-width:1px;stroke-linecap:butt;stroke-linejoin:miter;stroke-opacity:1" d="M 548.57,314.552 533.852,314.552 z" id="boundary" inkscape:connector-curvature="0" />
	<path style="fill:none;stroke:red;stroke-width:1px;stroke-linecap:butt;stroke-linejoin:miter;stroke-opacity:1" d="M 533.852,314.552 520.605,321.911 z" id="boundary" inkscape:connector-curvature="0" />
	<path style="fill:none;stroke:red;stroke-width:1px;stroke-linecap:butt;stroke-linejoin:miter;stroke-opacity:1" d="M 548.57,314.552 563.288,314.552 z" id="boundary" inkscape:connector-curvature="0" />
	<path style="fill:none;stroke:red;stroke-width:1px;stroke-linecap:butt;stroke-linejoin:miter;stroke-opacity:1" d="M 410.22,332.214 423.466,339.573 z" id="boundary" inkscape:connector-curvature="0" />
	<path style="fill:none;stroke:red;stroke-width:1px;stroke-linecap:butt;stroke-linejoin:miter;stroke-opacity:1" d="M 423.466,339.573 435.24,349.875 z" id="boundary" inkscape:connector-curvature="0" />
	<path style="fill:none;stroke:red;stroke-width:1px;stroke-linecap:butt;stroke-linejoin:miter;stroke-opacity:1" d="M 435.24,349.875 445.543,361.65 z" id="boundary" inkscape:connector-curvature="0" />
	<path style="fill:none;stroke:red;stroke-width:1px;stroke-linecap:butt;stroke-linejoin:miter;stroke-opacity:1" d="M 505.887,321.911 502.944,341.045 z" id="boundary" inkscape:connector-curvature="0" />
	<path style="fill:none;stroke:red;stroke-width:1px;stroke-linecap:butt;stroke-linejoin:miter;stroke-opacity:1" d="M 491.169,351.347 502.944,341.045 z" id="boundary" inkscape:connector-curvature="0" />
	<path style="fill:none;stroke:red;stroke-width:1px;stroke-linecap:butt;stroke-linejoin:miter;stroke-opacity:1" d="M 457.318,371.953 445.543,361.65 z" id="boundary" inkscape:connector-curvature="0" />
	<path style="fill:none;stroke:red;stroke-width:1px;stroke-linecap:butt;stroke-linejoin:miter;stroke-opacity:1" d="M 457.318,371.953 470.564,379.312 z" id="boundary" inkscape:connector-curvature="0" />
	<path style="fill:none;stroke:red;stroke-width:1px;stroke-linecap:butt;stroke-linejoin:miter;stroke-opacity:1" d="M 485.282,373.424 470.564,379.312 z" id="boundary" inkscape:connector-curvature="0" />
	<path style="fill:none;stroke:red;stroke-width:1px;stroke-linecap:butt;stroke-linejoin:miter;stroke-opacity:1" d="M 485.282,373.424 491.169,351.347 z" id="boundary" inkscape:connector-curvature="0" />
	<path style="fill:none;stroke:red;stroke-width:1px;stroke-linecap:butt;stroke-linejoin:miter;stroke-opacity:1" d="M 550.042,82.0059 563.288,89.365 z" id="boundary" inkscape:connector-curvature="0" />
	<path style="fill:none;stroke:red;stroke-width:1px;stroke-linecap:butt;stroke-linejoin:miter;stroke-opacity:1" d="M 575.062,99.6677 563.288,89.365 z" id="boundary" inkscape:connector-curvature="0" />
	<path style="fill:none;stroke:red;stroke-width:1px;stroke-linecap:butt;stroke-linejoin:miter;stroke-opacity:1" d="M 588.309,107.027 575.062,99.6677 z" id="boundary" inkscape:connector-curvature="0" />
	<path style="fill:none;stroke:red;stroke-width:1px;stroke-linecap:butt;stroke-linejoin:miter;stroke-opacity:1" d="M 603.027,107.027 616.273,99.6677 z" id="boundary" inkscape:connector-curvature="0" />
	<path style="fill:none;stroke:red;stroke-width:1px;stroke-linecap:butt;stroke-linejoin:miter;stroke-opacity:1" d="M 630.991,99.6677 616.273,99.6677 z" id="boundary" inkscape:connector-curvature="0" />
	<path style="fill:none;stroke:red;stroke-width:1px;stroke-linecap:butt;stroke-linejoin:miter;stroke-opacity:1" d="M 603.027,107.027 588.309,107.027 z" id="boundary" inkscape:connector-curvature="0" />
	<path style="fill:none;stroke:red;stroke-width:1px;stroke-linecap:butt;stroke-linejoin:miter;stroke-opacity:1" d="M 630.991,99.6677 644.237,92.3086 z" id="boundary" inkscape:connector-curvature="0" />
	<path style="fill:none;stroke:red;stroke-width:1px;stroke-linecap:butt;stroke-linejoin:miter;stroke-opacity:1" d="M 657.484,99.6677 667.786,111.442 z" id="boundary" inkscape:connector-curvature="0" />
	<path style="fill:none;stroke:red;stroke-width:1px;stroke-linecap:butt;stroke-linejoin:miter;stroke-opacity:1" d="M 644.237,92.3086 657.484,99.6677 z" id="boundary" inkscape:connector-curvature="0" />
	<path style="fill:none;stroke:red;stroke-width:1px;stroke-linecap:butt;stroke-linejoin:miter;stroke-opacity:1" d="M 692.807,129.104 681.033,118.801 z" id="boundary" inkscape:connector-curvature="0" />
	<path style="fill:none;stroke:red;stroke-width:1px;stroke-linecap:butt;stroke-linejoin:miter;stroke-opacity:1" d="M 681.033,118.801 667.786,111.442 z" id="boundary" inkscape:connector-curvature="0" />
	<path style="fill:none;stroke:red;stroke-width:1px;stroke-linecap:butt;stroke-linejoin:miter;stroke-opacity:1" d="M 714.884,151.181 703.11,140.878 z" id="boundary" inkscape:connector-curvature="0" />
	<path style="fill:none;stroke:red;stroke-width:1px;stroke-linecap:butt;stroke-linejoin:miter;stroke-opacity:1" d="M 703.11,140.878 692.807,129.104 z" id="boundary" inkscape:connector-curvature="0" />
	<path style="fill:none;stroke:red;stroke-width:1px;stroke-linecap:butt;stroke-linejoin:miter;stroke-opacity:1" d="M 725.187,162.955 714.884,151.181 z" id="boundary" inkscape:connector-curvature="0" />
	<path style="fill:none;stroke:red;stroke-width:1px;stroke-linecap:butt;stroke-linejoin:miter;stroke-opacity:1" d="M 725.187,162.955 739.905,165.899 z" id="boundary" inkscape:connector-curvature="0" />
	<path style="fill:none;stroke:red;stroke-width:1px;stroke-linecap:butt;stroke-linejoin:miter;stroke-opacity:1" d="M 753.151,173.258 739.905,165.899 z" id="boundary" inkscape:connector-curvature="0" />
	<path style="fill:none;stroke:red;stroke-width:1px;stroke-linecap:butt;stroke-linejoin:miter;stroke-opacity:1" d="M 753.151,173.258 767.869,174.73 z" id="boundary" inkscape:connector-curvature="0" />
	<path style="fill:none;stroke:red;stroke-width:1px;stroke-linecap:butt;stroke-linejoin:miter;stroke-opacity:1" d="M 782.588,180.617 767.869,174.73 z" id="boundary" inkscape:connector-curvature="0" />
	<path style="fill:none;stroke:red;stroke-width:1px;stroke-linecap:butt;stroke-linejoin:miter;stroke-opacity:1" d="M 795.834,173.258 782.588,180.617 z" id="boundary" inkscape:connector-curvature="0" />
	<path style="fill:none;stroke:red;stroke-width:1px;stroke-linecap:butt;stroke-linejoin:miter;stroke-opacity:1" d="M 882.671,143.822 867.953,145.294 z" id="boundary" inkscape:connector-curvature="0" />
	<path style="fill:none;stroke:red;stroke-width:1px;stroke-linecap:butt;stroke-linejoin:miter;stroke-opacity:1" d="M 867.953,145.294 853.234,151.181 z" id="boundary" inkscape:connector-curvature="0" />
	<path style="fill:none;stroke:red;stroke-width:1px;stroke-linecap:butt;stroke-linejoin:miter;stroke-opacity:1" d="M 923.881,129.104 909.163,129.104 z" id="boundary" inkscape:connector-curvature="0" />
	<path style="fill:none;stroke:red;stroke-width:1px;stroke-linecap:butt;stroke-linejoin:miter;stroke-opacity:1" d="M 909.163,129.104 895.917,136.463 z" id="boundary" inkscape:connector-curvature="0" />
	<path style="fill:none;stroke:red;stroke-width:1px;stroke-linecap:butt;stroke-linejoin:miter;stroke-opacity:1" d="M 882.671,143.822 895.917,136.463 z" id="boundary" inkscape:connector-curvature="0" />
	<path style="fill:none;stroke:red;stroke-width:1px;stroke-linecap:butt;stroke-linejoin:miter;stroke-opacity:1" d="M 938.599,126.16 923.881,129.104 z" id="boundary" inkscape:connector-curvature="0" />
	<path style="fill:none;stroke:red;stroke-width:1px;stroke-linecap:butt;stroke-linejoin:miter;stroke-opacity:1" d="M 953.318,121.745 938.599,126.16 z" id="boundary" inkscape:connector-curvature="0" />
	<path style="fill:none;stroke:red;stroke-width:1px;stroke-linecap:butt;stroke-linejoin:miter;stroke-opacity:1" d="M 996,134.991 982.754,121.745 z" id="boundary" inkscape:connector-curvature="0" />
	<path style="fill:none;stroke:red;stroke-width:1px;stroke-linecap:butt;stroke-linejoin:miter;stroke-opacity:1" d="M 953.318,121.745 968.036,121.745 z" id="boundary" inkscape:connector-curvature="0" />
	<path style="fill:none;stroke:red;stroke-width:1px;stroke-linecap:butt;stroke-linejoin:miter;stroke-opacity:1" d="M 982.754,121.745 968.036,121.745 z" id="boundary" inkscape:connector-curvature="0" />
	<path style="fill:none;stroke:red;stroke-width:1px;stroke-linecap:butt;stroke-linejoin:miter;stroke-opacity:1" d="M 984.226,145.294 996,134.991 z" id="boundary" inkscape:connector-curvature="0" />
	<path style="fill:none;stroke:red;stroke-width:1px;stroke-linecap:butt;stroke-linejoin:miter;stroke-opacity:1" d="M 984.226,145.294 969.507,152.653 z" id="boundary" inkscape:connector-curvature="0" />
	<path style="fill:none;stroke:red;stroke-width:1px;stroke-linecap:butt;stroke-linejoin:miter;stroke-opacity:1" d="M 795.834,173.258 809.08,165.899 z" id="boundary" inkscape:connector-curvature="0" />
	<path style="fill:none;stroke:red;stroke-width:1px;stroke-linecap:butt;stroke-linejoin:miter;stroke-opacity:1" d="M 823.798,160.012 809.08,165.899 z" id="boundary" inkscape:connector-curvature="0" />
	<path style="fill:none;stroke:red;stroke-width:1px;stroke-linecap:butt;stroke-linejoin:miter;stroke-opacity:1" d="M 838.516,152.653 853.234,151.181 z" id="boundary" inkscape:connector-curvature="0" />
	<path style="fill:none;stroke:red;stroke-width:1px;stroke-linecap:butt;stroke-linejoin:miter;stroke-opacity:1" d="M 903.276,189.448 892.973,201.223 z" id="boundary" inkscape:connector-curvature="0" />
	<path style="fill:none;stroke:red;stroke-width:1px;stroke-linecap:butt;stroke-linejoin:miter;stroke-opacity:1" d="M 823.798,160.012 838.516,152.653 z" id="boundary" inkscape:connector-curvature="0" />
	<path style="fill:none;stroke:red;stroke-width:1px;stroke-linecap:butt;stroke-linejoin:miter;stroke-opacity:1" d="M 881.199,211.525 892.973,201.223 z" id="boundary" inkscape:connector-curvature="0" />
	<path style="fill:none;stroke:red;stroke-width:1px;stroke-linecap:butt;stroke-linejoin:miter;stroke-opacity:1" d="M 916.522,182.089 903.276,189.448 z" id="boundary" inkscape:connector-curvature="0" />
	<path style="fill:none;stroke:red;stroke-width:1px;stroke-linecap:butt;stroke-linejoin:miter;stroke-opacity:1" d="M 916.522,182.089 931.24,182.089 z" id="boundary" inkscape:connector-curvature="0" />
	<path style="fill:none;stroke:red;stroke-width:1px;stroke-linecap:butt;stroke-linejoin:miter;stroke-opacity:1" d="M 945.958,177.674 957.733,167.371 z" id="boundary" inkscape:connector-curvature="0" />
	<path style="fill:none;stroke:red;stroke-width:1px;stroke-linecap:butt;stroke-linejoin:miter;stroke-opacity:1" d="M 931.24,182.089 945.958,177.674 z" id="boundary" inkscape:connector-curvature="0" />
	<path style="fill:none;stroke:red;stroke-width:1px;stroke-linecap:butt;stroke-linejoin:miter;stroke-opacity:1" d="M 957.733,167.371 969.507,152.653 z" id="boundary" inkscape:connector-curvature="0" />
	<path style="fill:none;stroke:red;stroke-width:1px;stroke-linecap:butt;stroke-linejoin:miter;stroke-opacity:1" d="M 881.199,211.525 881.199,226.243 z" id="boundary" inkscape:connector-curvature="0" />
	<path style="fill:none;stroke:red;stroke-width:1px;stroke-linecap:butt;stroke-linejoin:miter;stroke-opacity:1" d="M 717.828,265.982 732.546,258.623 z" id="boundary" inkscape:connector-curvature="0" />
	<path style="fill:none;stroke:red;stroke-width:1px;stroke-linecap:butt;stroke-linejoin:miter;stroke-opacity:1" d="M 747.264,255.68 732.546,258.623 z" id="boundary" inkscape:connector-curvature="0" />
	<path style="fill:none;stroke:red;stroke-width:1px;stroke-linecap:butt;stroke-linejoin:miter;stroke-opacity:1" d="M 761.982,255.68 747.264,255.68 z" id="boundary" inkscape:connector-curvature="0" />
	<path style="fill:none;stroke:red;stroke-width:1px;stroke-linecap:butt;stroke-linejoin:miter;stroke-opacity:1" d="M 647.181,285.116 661.899,285.116 z" id="boundary" inkscape:connector-curvature="0" />
	<path style="fill:none;stroke:red;stroke-width:1px;stroke-linecap:butt;stroke-linejoin:miter;stroke-opacity:1" d="M 647.181,285.116 633.935,292.475 z" id="boundary" inkscape:connector-curvature="0" />
	<path style="fill:none;stroke:red;stroke-width:1px;stroke-linecap:butt;stroke-linejoin:miter;stroke-opacity:1" d="M 703.11,270.398 688.392,270.398 z" id="boundary" inkscape:connector-curvature="0" />
	<path style="fill:none;stroke:red;stroke-width:1px;stroke-linecap:butt;stroke-linejoin:miter;stroke-opacity:1" d="M 688.392,270.398 675.145,277.757 z" id="boundary" inkscape:connector-curvature="0" />
	<path style="fill:none;stroke:red;stroke-width:1px;stroke-linecap:butt;stroke-linejoin:miter;stroke-opacity:1" d="M 661.899,285.116 675.145,277.757 z" id="boundary" inkscape:connector-curvature="0" />
	<path style="fill:none;stroke:red;stroke-width:1px;stroke-linecap:butt;stroke-linejoin:miter;stroke-opacity:1" d="M 717.828,265.982 703.11,270.398 z" id="boundary" inkscape:connector-curvature="0" />
	<path style="fill:none;stroke:red;stroke-width:1px;stroke-linecap:butt;stroke-linejoin:miter;stroke-opacity:1" d="M 761.982,255.68 776.7,255.68 z" id="boundary" inkscape:connector-curvature="0" />
	<path style="fill:none;stroke:red;stroke-width:1px;stroke-linecap:butt;stroke-linejoin:miter;stroke-opacity:1" d="M 789.947,263.039 803.193,270.398 z" id="boundary" inkscape:connector-curvature="0" />
	<path style="fill:none;stroke:red;stroke-width:1px;stroke-linecap:butt;stroke-linejoin:miter;stroke-opacity:1" d="M 776.7,255.68 789.947,263.039 z" id="boundary" inkscape:connector-curvature="0" />
	<path style="fill:none;stroke:red;stroke-width:1px;stroke-linecap:butt;stroke-linejoin:miter;stroke-opacity:1" d="M 817.911,270.398 803.193,270.398 z" id="boundary" inkscape:connector-curvature="0" />
	<path style="fill:none;stroke:red;stroke-width:1px;stroke-linecap:butt;stroke-linejoin:miter;stroke-opacity:1" d="M 817.911,270.398 829.685,280.7 z" id="boundary" inkscape:connector-curvature="0" />
	<path style="fill:none;stroke:red;stroke-width:1px;stroke-linecap:butt;stroke-linejoin:miter;stroke-opacity:1" d="M 578.006,310.136 589.78,298.362 z" id="boundary" inkscape:connector-curvature="0" />
	<path style="fill:none;stroke:red;stroke-width:1px;stroke-linecap:butt;stroke-linejoin:miter;stroke-opacity:1" d="M 578.006,310.136 563.288,314.552 z" id="boundary" inkscape:connector-curvature="0" />
	<path style="fill:none;stroke:red;stroke-width:1px;stroke-linecap:butt;stroke-linejoin:miter;stroke-opacity:1" d="M 604.499,292.475 589.78,298.362 z" id="boundary" inkscape:connector-curvature="0" />
	<path style="fill:none;stroke:red;stroke-width:1px;stroke-linecap:butt;stroke-linejoin:miter;stroke-opacity:1" d="M 619.217,292.475 633.935,292.475 z" id="boundary" inkscape:connector-curvature="0" />
	<path style="fill:none;stroke:red;stroke-width:1px;stroke-linecap:butt;stroke-linejoin:miter;stroke-opacity:1" d="M 604.499,292.475 619.217,292.475 z" id="boundary" inkscape:connector-curvature="0" />
	<path style="fill:none;stroke:red;stroke-width:1px;stroke-linecap:butt;stroke-linejoin:miter;stroke-opacity:1" d="M 888.558,239.49 881.199,226.243 z" id="boundary" inkscape:connector-curvature="0" />
	<path style="fill:none;stroke:red;stroke-width:1px;stroke-linecap:butt;stroke-linejoin:miter;stroke-opacity:1" d="M 901.804,246.849 888.558,239.49 z" id="boundary" inkscape:connector-curvature="0" />
	<path style="fill:none;stroke:red;stroke-width:1px;stroke-linecap:butt;stroke-linejoin:miter;stroke-opacity:1" d="M 915.05,254.208 901.804,246.849 z" id="boundary" inkscape:connector-curvature="0" />
	<path style="fill:none;stroke:red;stroke-width:1px;stroke-linecap:butt;stroke-linejoin:miter;stroke-opacity:1" d="M 928.297,261.567 941.543,268.926 z" id="boundary" inkscape:connector-curvature="0" />
	<path style="fill:none;stroke:red;stroke-width:1px;stroke-linecap:butt;stroke-linejoin:miter;stroke-opacity:1" d="M 928.297,261.567 915.05,254.208 z" id="boundary" inkscape:connector-curvature="0" />
	<path style="fill:none;stroke:red;stroke-width:1px;stroke-linecap:butt;stroke-linejoin:miter;stroke-opacity:1" d="M 947.43,283.644 941.543,268.926 z" id="boundary" inkscape:connector-curvature="0" />
	<path style="fill:none;stroke:red;stroke-width:1px;stroke-linecap:butt;stroke-linejoin:miter;stroke-opacity:1" d="M 839.988,292.475 829.685,280.7 z" id="boundary" inkscape:connector-curvature="0" />
	<path style="fill:none;stroke:red;stroke-width:1px;stroke-linecap:butt;stroke-linejoin:miter;stroke-opacity:1" d="M 854.706,292.475 839.988,292.475 z" id="boundary" inkscape:connector-curvature="0" />
	<path style="fill:none;stroke:red;stroke-width:1px;stroke-linecap:butt;stroke-linejoin:miter;stroke-opacity:1" d="M 867.953,299.834 854.706,292.475 z" id="boundary" inkscape:connector-curvature="0" />
	<path style="fill:none;stroke:red;stroke-width:1px;stroke-linecap:butt;stroke-linejoin:miter;stroke-opacity:1" d="M 867.953,299.834 881.199,307.193 z" id="boundary" inkscape:connector-curvature="0" />
	<path style="fill:none;stroke:red;stroke-width:1px;stroke-linecap:butt;stroke-linejoin:miter;stroke-opacity:1" d="M 881.199,307.193 894.445,314.552 z" id="boundary" inkscape:connector-curvature="0" />
	<path style="fill:none;stroke:red;stroke-width:1px;stroke-linecap:butt;stroke-linejoin:miter;stroke-opacity:1" d="M 894.445,314.552 909.163,314.552 z" id="boundary" inkscape:connector-curvature="0" />
	<path style="fill:none;stroke:red;stroke-width:1px;stroke-linecap:butt;stroke-linejoin:miter;stroke-opacity:1" d="M 909.163,314.552 923.881,314.552 z" id="boundary" inkscape:connector-curvature="0" />
	<path style="fill:none;stroke:red;stroke-width:1px;stroke-linecap:butt;stroke-linejoin:miter;stroke-opacity:1" d="M 947.43,283.644 960.677,291.003 z" id="boundary" inkscape:connector-curvature="0" />
	<path style="fill:none;stroke:red;stroke-width:1px;stroke-linecap:butt;stroke-linejoin:miter;stroke-opacity:1" d="M 960.677,291.003 969.507,302.777 z" id="boundary" inkscape:connector-curvature="0" />
	<path style="fill:none;stroke:red;stroke-width:1px;stroke-linecap:butt;stroke-linejoin:miter;stroke-opacity:1" d="M 937.128,321.911 923.881,314.552 z" id="boundary" inkscape:connector-curvature="0" />
	<path style="fill:none;stroke:red;stroke-width:1px;stroke-linecap:butt;stroke-linejoin:miter;stroke-opacity:1" d="M 937.128,321.911 951.846,321.911 z" id="boundary" inkscape:connector-curvature="0" />
	<path style="fill:none;stroke:red;stroke-width:1px;stroke-linecap:butt;stroke-linejoin:miter;stroke-opacity:1" d="M 951.846,321.911 966.564,318.967 z" id="boundary" inkscape:connector-curvature="0" />
	<path style="fill:none;stroke:red;stroke-width:1px;stroke-linecap:butt;stroke-linejoin:miter;stroke-opacity:1" d="M 969.507,302.777 966.564,318.967 z" id="boundary" inkscape:connector-curvature="0" />
	<circle cx="4" cy="177.674" r="4" fill="#0" id="circle0"/>
	<circle cx="4" cy="192.392" r="4" fill="#0" id="circle1"/>
	<circle cx="11.3591" cy="205.638" r="4" fill="#0" id="circle2"/>
	<circle cx="15.7745" cy="165.899" r="4" fill="#0" id="circle3"/>
	<circle cx="21.6617" cy="217.412" r="4" fill="#0" id="circle4"/>
	<circle cx="23.1335" cy="151.181" r="4" fill="#0" id="circle5"/>
	<circle cx="33.4362" cy="133.519" r="4" fill="#0" id="circle6"/>
	<circle cx="33.4362" cy="226.243" r="4" fill="#0" id="circle7"/>
	<circle cx="42.2671" cy="238.018" r="4" fill="#0" id="circle8"/>
	<circle cx="45.2107" cy="121.745" r="4" fill="#0" id="circle9"/>
	<circle cx="56.9852" cy="240.961" r="4" fill="#0" id="circle10"/>
	<circle cx="58.457" cy="114.386" r="4" fill="#0" id="circle11"/>
	<circle cx="70.2315" cy="104.083" r="4" fill="#0" id="circle12"/>
	<circle cx="70.2315" cy="248.32" r="4" fill="#0" id="circle13"/>
	<circle cx="84.9496" cy="96.724" r="4" fill="#0" id="circle14"/>
	<circle cx="84.9496" cy="248.32" r="4" fill="#0" id="circle15"/>
	<circle cx="96.724" cy="84.9496" r="4" fill="#0" id="circle16"/>
	<circle cx="98.1958" cy="255.68" r="4" fill="#0" id="circle17"/>
	<circle cx="111.442" cy="77.5905" r="4" fill="#0" id="circle18"/>
	<circle cx="111.442" cy="263.039" r="4" fill="#0" id="circle19"/>
	<circle cx="121.745" cy="59.9288" r="4" fill="#0" id="circle20"/>
	<circle cx="126.16" cy="268.926" r="4" fill="#0" id="circle21"/>
	<circle cx="136.463" cy="55.5134" r="4" fill="#0" id="circle22"/>
	<circle cx="140.878" cy="270.398" r="4" fill="#0" id="circle23"/>
	<circle cx="149.709" cy="48.1543" r="4" fill="#0" id="circle24"/>
	<circle cx="155.596" cy="276.285" r="4" fill="#0" id="circle25"/>
	<circle cx="164.427" cy="48.1543" r="4" fill="#0" id="circle26"/>
	<circle cx="167.371" cy="285.116" r="4" fill="#0" id="circle27"/>
	<circle cx="179.145" cy="48.1543" r="4" fill="#0" id="circle28"/>
	<circle cx="180.617" cy="292.475" r="4" fill="#0" id="circle29"/>
	<circle cx="193.864" cy="48.1543" r="4" fill="#0" id="circle30"/>
	<circle cx="195.335" cy="292.475" r="4" fill="#0" id="circle31"/>
	<circle cx="207.11" cy="40.7953" r="4" fill="#0" id="circle32"/>
	<circle cx="210.053" cy="292.475" r="4" fill="#0" id="circle33"/>
	<circle cx="221.828" cy="40.7953" r="4" fill="#0" id="circle34"/>
	<circle cx="223.3" cy="299.834" r="4" fill="#0" id="circle35"/>
	<circle cx="235.074" cy="33.4362" r="4" fill="#0" id="circle36"/>
	<circle cx="238.018" cy="299.834" r="4" fill="#0" id="circle37"/>
	<circle cx="249.792" cy="33.4362" r="4" fill="#0" id="circle38"/>
	<circle cx="251.264" cy="307.193" r="4" fill="#0" id="circle39"/>
	<circle cx="263.039" cy="26.0772" r="4" fill="#0" id="circle40"/>
	<circle cx="265.982" cy="313.08" r="4" fill="#0" id="circle41"/>
	<circle cx="277.757" cy="26.0772" r="4" fill="#0" id="circle42"/>
	<circle cx="280.7" cy="314.552" r="4" fill="#0" id="circle43"/>
	<circle cx="292.475" cy="26.0772" r="4" fill="#0" id="circle44"/>
	<circle cx="295.418" cy="314.552" r="4" fill="#0" id="circle45"/>
	<circle cx="307.193" cy="26.0772" r="4" fill="#0" id="circle46"/>
	<circle cx="310.136" cy="314.552" r="4" fill="#0" id="circle47"/>
	<circle cx="321.911" cy="26.0772" r="4" fill="#0" id="circle48"/>
	<circle cx="324.855" cy="314.552" r="4" fill="#0" id="circle49"/>
	<circle cx="336.629" cy="26.0772" r="4" fill="#0" id="circle50"/>
	<circle cx="339.573" cy="314.552" r="4" fill="#0" id="circle51"/>
	<circle cx="351.347" cy="26.0772" r="4" fill="#0" id="circle52"/>
	<circle cx="354.291" cy="314.552" r="4" fill="#0" id="circle53"/>
	<circle cx="364.593" cy="33.4362" r="4" fill="#0" id="circle54"/>
	<circle cx="369.009" cy="314.552" r="4" fill="#0" id="circle55"/>
	<circle cx="379.312" cy="33.4362" r="4" fill="#0" id="circle56"/>
	<circle cx="383.727" cy="320.439" r="4" fill="#0" id="circle57"/>
	<circle cx="394.03" cy="33.4362" r="4" fill="#0" id="circle58"/>
	<circle cx="398.445" cy="321.911" r="4" fill="#0" id="circle59"/>
	<circle cx="408.748" cy="33.4362" r="4" fill="#0" id="circle60"/>
	<circle cx="410.22" cy="332.214" r="4" fill="#0" id="circle61"/>
	<circle cx="421.994" cy="26.0772" r="4" fill="#0" id="circle62"/>
	<circle cx="423.466" cy="339.573" r="4" fill="#0" id="circle63"/>
	<circle cx="432.297" cy="14.3027" r="4" fill="#0" id="circle64"/>
	<circle cx="435.24" cy="349.875" r="4" fill="#0" id="circle65"/>
	<circle cx="444.071" cy="4" r="4" fill="#0" id="circle66"/>
	<circle cx="445.543" cy="361.65" r="4" fill="#0" id="circle67"/>
	<circle cx="454.374" cy="15.7745" r="4" fill="#0" id="circle68"/>
	<circle cx="457.318" cy="371.953" r="4" fill="#0" id="circle69"/>
	<circle cx="461.733" cy="29.0208" r="4" fill="#0" id="circle70"/>
	<circle cx="469.092" cy="42.2671" r="4" fill="#0" id="circle71"/>
	<circle cx="470.564" cy="379.312" r="4" fill="#0" id="circle72"/>
	<circle cx="480.866" cy="51.0979" r="4" fill="#0" id="circle73"/>
	<circle cx="485.282" cy="373.424" r="4" fill="#0" id="circle74"/>
	<circle cx="491.169" cy="351.347" r="4" fill="#0" id="circle75"/>
	<circle cx="495.585" cy="55.5134" r="4" fill="#0" id="circle76"/>
	<circle cx="502.944" cy="341.045" r="4" fill="#0" id="circle77"/>
	<circle cx="505.887" cy="321.911" r="4" fill="#0" id="circle78"/>
	<circle cx="508.831" cy="62.8724" r="4" fill="#0" id="circle79"/>
	<circle cx="520.605" cy="321.911" r="4" fill="#0" id="circle80"/>
	<circle cx="522.077" cy="70.2315" r="4" fill="#0" id="circle81"/>
	<circle cx="533.852" cy="314.552" r="4" fill="#0" id="circle82"/>
	<circle cx="535.323" cy="77.5905" r="4" fill="#0" id="circle83"/>
	<circle cx="548.57" cy="314.552" r="4" fill="#0" id="circle84"/>
	<circle cx="550.042" cy="82.0059" r="4" fill="#0" id="circle85"/>
	<circle cx="563.288" cy="89.365" r="4" fill="#0" id="circle86"/>
	<circle cx="563.288" cy="314.552" r="4" fill="#0" id="circle87"/>
	<circle cx="575.062" cy="99.6677" r="4" fill="#0" id="circle88"/>
	<circle cx="578.006" cy="310.136" r="4" fill="#0" id="circle89"/>
	<circle cx="588.309" cy="107.027" r="4" fill="#0" id="circle90"/>
	<circle cx="589.78" cy="298.362" r="4" fill="#0" id="circle91"/>
	<circle cx="603.027" cy="107.027" r="4" fill="#0" id="circle92"/>
	<circle cx="604.499" cy="292.475" r="4" fill="#0" id="circle93"/>
	<circle cx="616.273" cy="99.6677" r="4" fill="#0" id="circle94"/>
	<circle cx="619.217" cy="292.475" r="4" fill="#0" id="circle95"/>
	<circle cx="630.991" cy="99.6677" r="4" fill="#0" id="circle96"/>
	<circle cx="633.935" cy="292.475" r="4" fill="#0" id="circle97"/>
	<circle cx="644.237" cy="92.3086" r="4" fill="#0" id="circle98"/>
	<circle cx="647.181" cy="285.116" r="4" fill="#0" id="circle99"/>
	<circle cx="657.484" cy="99.6677" r="4" fill="#0" id="circle100"/>
	<circle cx="661.899" cy="285.116" r="4" fill="#0" id="circle101"/>
	<circle cx="667.786" cy="111.442" r="4" fill="#0" id="circle102"/>
	<circle cx="675.145" cy="277.757" r="4" fill="#0" id="circle103"/>
	<circle cx="681.033" cy="118.801" r="4" fill="#0" id="circle104"/>
	<circle cx="688.392" cy="270.398" r="4" fill="#0" id="circle105"/>
	<circle cx="692.807" cy="129.104" r="4" fill="#0" id="circle106"/>
	<circle cx="703.11" cy="140.878" r="4" fill="#0" id="circle107"/>
	<circle cx="703.11" cy="270.398" r="4" fill="#0" id="circle108"/>
	<circle cx="714.884" cy="151.181" r="4" fill="#0" id="circle109"/>
	<circle cx="717.828" cy="265.982" r="4" fill="#0" id="circle110"/>
	<circle cx="725.187" cy="162.955" r="4" fill="#0" id="circle111"/>
	<circle cx="732.546" cy="258.623" r="4" fill="#0" id="circle112"/>
	<circle cx="739.905" cy="165.899" r="4" fill="#0" id="circle113"/>
	<circle cx="747.264" cy="255.68" r="4" fill="#0" id="circle114"/>
	<circle cx="753.151" cy="173.258" r="4" fill="#0" id="circle115"/>
	<circle cx="761.982" cy="255.68" r="4" fill="#0" id="circle116"/>
	<circle cx="767.869" cy="174.73" r="4" fill="#0" id="circle117"/>
	<circle cx="776.7" cy="255.68" r="4" fill="#0" id="circle118"/>
	<circle cx="782.588" cy="180.617" r="4" fill="#0" id="circle119"/>
	<circle cx="789.947" cy="263.039" r="4" fill="#0" id="circle120"/>
	<circle cx="795.834" cy="173.258" r="4" fill="#0" id="circle121"/>
	<circle cx="803.193" cy="270.398" r="4" fill="#0" id="circle122"/>
	<circle cx="809.08" cy="165.899" r="4" fill="#0" id="circle123"/>
	<circle cx="817.911" cy="270.398" r="4" fill="#0" id="circle124"/>
	<circle cx="823.798" cy="160.012" r="4" fill="#0" id="circle125"/>
	<circle cx="829.685" cy="280.7" r="4" fill="#0" id="circle126"/>
	<circle cx="838.516" cy="152.653" r="4" fill="#0" id="circle127"/>
	<circle cx="839.988" cy="292.475" r="4" fill="#0" id="circle128"/>
	<circle cx="853.234" cy="151.181" r="4" fill="#0" id="circle129"/>
	<circle cx="854.706" cy="292.475" r="4" fill="#0" id="circle130"/>
	<circle cx="867.953" cy="145.294" r="4" fill="#0" id="circle131"/>
	<circle cx="867.953" cy="299.834" r="4" fill="#0" id="circle132"/>
	<circle cx="881.199" cy="211.525" r="4" fill="#0" id="circle133"/>
	<circle cx="881.199" cy="226.243" r="4" fill="#0" id="circle134"/>
	<circle cx="881.199" cy="307.193" r="4" fill="#0" id="circle135"/>
	<circle cx="882.671" cy="143.822" r="4" fill="#0" id="circle136"/>
	<circle cx="888.558" cy="239.49" r="4" fill="#0" id="circle137"/>
	<circle cx="892.973" cy="201.223" r="4" fill="#0" id="circle138"/>
	<circle cx="894.445" cy="314.552" r="4" fill="#0" id="circle139"/>
	<circle cx="895.917" cy="136.463" r="4" fill="#0" id="circle140"/>
	<circle cx="901.804" cy="246.849" r="4" fill="#0" id="circle141"/>
	<circle cx="903.276" cy="189.448" r="4" fill="#0" id="circle142"/>
	<circle cx="909.163" cy="129.104" r="4" fill="#0" id="circle143"/>
	<circle cx="909.163" cy="314.552" r="4" fill="#0" id="circle144"/>
	<circle cx="915.05" cy="254.208" r="4" fill="#0" id="circle145"/>
	<circle cx="916.522" cy="182.089" r="4" fill="#0" id="circle146"/>
	<circle cx="923.881" cy="129.104" r="4" fill="#0" id="circle147"/>
	<circle cx="923.881" cy="314.552" r="4" fill="#0" id="circle148"/>
	<circle cx="928.297" cy="261.567" r="4" fill="#0" id="circle149"/>
	<circle cx="931.24" cy="182.089" r="4" fill="#0" id="circle150"/>
	<circle cx="937.128" cy="321.911" r="4" fill="#0" id="circle151"/>
	<circle cx="938.599" cy="126.16" r="4" fill="#0" id="circle152"/>
	<circle cx="941.543" cy="268.926" r="4" fill="#0" id="circle153"/>
	<circle cx="945.958" cy="177.674" r="4" fill="#0" id="circle154"/>
	<circle cx="947.43" cy="283.644" r="4" fill="#0" id="circle155"/>
	<circle cx="951.846" cy="321.911" r="4" fill="#0" id="circle156"/>
	<circle cx="953.318" cy="121.745" r="4" fill="#0" id="circle157"/>
	<circle cx="957.733" cy="167.371" r="4" fill="#0" id="circle158"/>
	<circle cx="960.677" cy="291.003" r="4" fill="#0" id="circle159"/>
	<circle cx="966.564" cy="318.967" r="4" fill="#0" id="circle160"/>
	<circle cx="968.036" cy="121.745" r="4" fill="#0" id="circle161"/>
	<circle cx="969.507" cy="152.653" r="4" fill="#0" id="circle162"/>
	<circle cx="969.507" cy="302.777" r="4" fill="#0" id="circle163"/>
	<circle cx="982.754" cy="121.745" r="4" fill="#0" id="circle164"/>
	<circle cx="984.226" cy="145.294" r="4" fill="#0" id="circle165"/>
	<circle cx="996" cy="134.991" r="4" fill="#0" id="circle166"/>
	</g>
</svg>