<?xml version="1.0" encoding="UTF-8" standalone="no"?>
<!-- Created with CurveBenchmark -->
<svg
	xmlns:dc="http://purl.org/dc/elements/1.1/"
	xmlns:cc="http://creativecommons.org/ns#"
	xmlns:rdf="http://www.w3.org/1999/02/22-rdf-syntax-ns#"
	xmlns:svg="http://www.w3.org/2000/svg"
	xmlns="http://www.w3.org/2000/svg"
	xmlns:sodipodi="http://sodipodi.sourceforge.net/DTD/sodipodi-0.dtd"
	xmlns:inkscape="http://www.inkscape.org/namespaces/inkscape"
	width="1000"
	height="1000"
	id="svg2"
	version="1.1"
	sodipodi:docname="manifold/crust-cthand13.png.txt">
<defs
	id="defs4" />
<metadata
	id="metadata7">
	<rdf:RDF>
		<cc:Work
			rdf:about="">
			<dc:format>image/svg+xml</dc:format>
			<dc:type
				rdf:resource="http://purl.org/dc/dcmitype/StillImage" />
			<dc:title></dc:title>
		</cc:Work>
	</rdf:RDF>
</metadata>
<g
	inkscape:label="Layer 1"
	inkscape:groupmode="layer"
	id="layer1">
	<path style="fill:none;stroke:red;stroke-width:1px;stroke-linecap:butt;stroke-linejoin:miter;stroke-opacity:1" d="M 12.1178,219.935 25.1064,206.946 z" id="boundary" inkscape:connector-curvature="0" />
	<path style="fill:none;stroke:red;stroke-width:1px;stroke-linecap:butt;stroke-linejoin:miter;stroke-opacity:1" d="M 4,244.288 12.1178,219.935 z" id="boundary" inkscape:connector-curvature="0" />
	<path style="fill:none;stroke:red;stroke-width:1px;stroke-linecap:butt;stroke-linejoin:miter;stroke-opacity:1" d="M 25.1064,206.946 39.7185,215.064 z" id="boundary" inkscape:connector-curvature="0" />
	<path style="fill:none;stroke:red;stroke-width:1px;stroke-linecap:butt;stroke-linejoin:miter;stroke-opacity:1" d="M 54.3306,223.182 39.7185,215.064 z" id="boundary" inkscape:connector-curvature="0" />
	<path style="fill:none;stroke:red;stroke-width:1px;stroke-linecap:butt;stroke-linejoin:miter;stroke-opacity:1" d="M 62.4484,237.794 54.3306,223.182 z" id="boundary" inkscape:connector-curvature="0" />
	<path style="fill:none;stroke:red;stroke-width:1px;stroke-linecap:butt;stroke-linejoin:miter;stroke-opacity:1" d="M 75.437,249.159 62.4484,237.794 z" id="boundary" inkscape:connector-curvature="0" />
	<path style="fill:none;stroke:red;stroke-width:1px;stroke-linecap:butt;stroke-linejoin:miter;stroke-opacity:1" d="M 167.98,64.072 154.992,77.0606 z" id="boundary" inkscape:connector-curvature="0" />
	<path style="fill:none;stroke:red;stroke-width:1px;stroke-linecap:butt;stroke-linejoin:miter;stroke-opacity:1" d="M 176.098,47.8363 167.98,64.072 z" id="boundary" inkscape:connector-curvature="0" />
	<path style="fill:none;stroke:red;stroke-width:1px;stroke-linecap:butt;stroke-linejoin:miter;stroke-opacity:1" d="M 154.992,77.0606 142.003,90.0491 z" id="boundary" inkscape:connector-curvature="0" />
	<path style="fill:none;stroke:red;stroke-width:1px;stroke-linecap:butt;stroke-linejoin:miter;stroke-opacity:1" d="M 142.003,106.285 142.003,90.0491 z" id="boundary" inkscape:connector-curvature="0" />
	<path style="fill:none;stroke:red;stroke-width:1px;stroke-linecap:butt;stroke-linejoin:miter;stroke-opacity:1" d="M 150.121,120.897 142.003,106.285 z" id="boundary" inkscape:connector-curvature="0" />
	<path style="fill:none;stroke:red;stroke-width:1px;stroke-linecap:butt;stroke-linejoin:miter;stroke-opacity:1" d="M 189.087,38.0949 176.098,47.8363 z" id="boundary" inkscape:connector-curvature="0" />
	<path style="fill:none;stroke:red;stroke-width:1px;stroke-linecap:butt;stroke-linejoin:miter;stroke-opacity:1" d="M 150.121,120.897 150.121,137.133 z" id="boundary" inkscape:connector-curvature="0" />
	<path style="fill:none;stroke:red;stroke-width:1px;stroke-linecap:butt;stroke-linejoin:miter;stroke-opacity:1" d="M 150.121,137.133 150.121,153.368 z" id="boundary" inkscape:connector-curvature="0" />
	<path style="fill:none;stroke:red;stroke-width:1px;stroke-linecap:butt;stroke-linejoin:miter;stroke-opacity:1" d="M 150.121,169.604 150.121,185.84 z" id="boundary" inkscape:connector-curvature="0" />
	<path style="fill:none;stroke:red;stroke-width:1px;stroke-linecap:butt;stroke-linejoin:miter;stroke-opacity:1" d="M 150.121,153.368 150.121,169.604 z" id="boundary" inkscape:connector-curvature="0" />
	<path style="fill:none;stroke:red;stroke-width:1px;stroke-linecap:butt;stroke-linejoin:miter;stroke-opacity:1" d="M 158.239,200.452 158.239,216.687 z" id="boundary" inkscape:connector-curvature="0" />
	<path style="fill:none;stroke:red;stroke-width:1px;stroke-linecap:butt;stroke-linejoin:miter;stroke-opacity:1" d="M 158.239,200.452 150.121,185.84 z" id="boundary" inkscape:connector-curvature="0" />
	<path style="fill:none;stroke:red;stroke-width:1px;stroke-linecap:butt;stroke-linejoin:miter;stroke-opacity:1" d="M 158.239,216.687 158.239,232.923 z" id="boundary" inkscape:connector-curvature="0" />
	<path style="fill:none;stroke:red;stroke-width:1px;stroke-linecap:butt;stroke-linejoin:miter;stroke-opacity:1" d="M 158.239,249.159 158.239,232.923 z" id="boundary" inkscape:connector-curvature="0" />
	<path style="fill:none;stroke:red;stroke-width:1px;stroke-linecap:butt;stroke-linejoin:miter;stroke-opacity:1" d="M 4,260.524 4,244.288 z" id="boundary" inkscape:connector-curvature="0" />
	<path style="fill:none;stroke:red;stroke-width:1px;stroke-linecap:butt;stroke-linejoin:miter;stroke-opacity:1" d="M 4,276.759 4,260.524 z" id="boundary" inkscape:connector-curvature="0" />
	<path style="fill:none;stroke:red;stroke-width:1px;stroke-linecap:butt;stroke-linejoin:miter;stroke-opacity:1" d="M 4,292.995 4,276.759 z" id="boundary" inkscape:connector-curvature="0" />
	<path style="fill:none;stroke:red;stroke-width:1px;stroke-linecap:butt;stroke-linejoin:miter;stroke-opacity:1" d="M 12.1178,307.607 4,292.995 z" id="boundary" inkscape:connector-curvature="0" />
	<path style="fill:none;stroke:red;stroke-width:1px;stroke-linecap:butt;stroke-linejoin:miter;stroke-opacity:1" d="M 78.6841,265.394 81.9313,281.63 z" id="boundary" inkscape:connector-curvature="0" />
	<path style="fill:none;stroke:red;stroke-width:1px;stroke-linecap:butt;stroke-linejoin:miter;stroke-opacity:1" d="M 75.437,249.159 78.6841,265.394 z" id="boundary" inkscape:connector-curvature="0" />
	<path style="fill:none;stroke:red;stroke-width:1px;stroke-linecap:butt;stroke-linejoin:miter;stroke-opacity:1" d="M 12.1178,307.607 20.2357,322.219 z" id="boundary" inkscape:connector-curvature="0" />
	<path style="fill:none;stroke:red;stroke-width:1px;stroke-linecap:butt;stroke-linejoin:miter;stroke-opacity:1" d="M 20.2357,322.219 20.2357,338.455 z" id="boundary" inkscape:connector-curvature="0" />
	<path style="fill:none;stroke:red;stroke-width:1px;stroke-linecap:butt;stroke-linejoin:miter;stroke-opacity:1" d="M 28.3535,353.067 20.2357,338.455 z" id="boundary" inkscape:connector-curvature="0" />
	<path style="fill:none;stroke:red;stroke-width:1px;stroke-linecap:butt;stroke-linejoin:miter;stroke-opacity:1" d="M 36.4714,367.679 28.3535,353.067 z" id="boundary" inkscape:connector-curvature="0" />
	<path style="fill:none;stroke:red;stroke-width:1px;stroke-linecap:butt;stroke-linejoin:miter;stroke-opacity:1" d="M 81.9313,281.63 86.802,297.866 z" id="boundary" inkscape:connector-curvature="0" />
	<path style="fill:none;stroke:red;stroke-width:1px;stroke-linecap:butt;stroke-linejoin:miter;stroke-opacity:1" d="M 158.239,265.394 158.239,281.63 z" id="boundary" inkscape:connector-curvature="0" />
	<path style="fill:none;stroke:red;stroke-width:1px;stroke-linecap:butt;stroke-linejoin:miter;stroke-opacity:1" d="M 158.239,281.63 158.239,297.866 z" id="boundary" inkscape:connector-curvature="0" />
	<path style="fill:none;stroke:red;stroke-width:1px;stroke-linecap:butt;stroke-linejoin:miter;stroke-opacity:1" d="M 90.0491,314.101 86.802,297.866 z" id="boundary" inkscape:connector-curvature="0" />
	<path style="fill:none;stroke:red;stroke-width:1px;stroke-linecap:butt;stroke-linejoin:miter;stroke-opacity:1" d="M 158.239,249.159 158.239,265.394 z" id="boundary" inkscape:connector-curvature="0" />
	<path style="fill:none;stroke:red;stroke-width:1px;stroke-linecap:butt;stroke-linejoin:miter;stroke-opacity:1" d="M 98.1669,328.714 90.0491,314.101 z" id="boundary" inkscape:connector-curvature="0" />
	<path style="fill:none;stroke:red;stroke-width:1px;stroke-linecap:butt;stroke-linejoin:miter;stroke-opacity:1" d="M 103.038,344.949 98.1669,328.714 z" id="boundary" inkscape:connector-curvature="0" />
	<path style="fill:none;stroke:red;stroke-width:1px;stroke-linecap:butt;stroke-linejoin:miter;stroke-opacity:1" d="M 166.357,328.714 158.239,314.101 z" id="boundary" inkscape:connector-curvature="0" />
	<path style="fill:none;stroke:red;stroke-width:1px;stroke-linecap:butt;stroke-linejoin:miter;stroke-opacity:1" d="M 158.239,297.866 158.239,314.101 z" id="boundary" inkscape:connector-curvature="0" />
	<path style="fill:none;stroke:red;stroke-width:1px;stroke-linecap:butt;stroke-linejoin:miter;stroke-opacity:1" d="M 169.604,344.949 166.357,328.714 z" id="boundary" inkscape:connector-curvature="0" />
	<path style="fill:none;stroke:red;stroke-width:1px;stroke-linecap:butt;stroke-linejoin:miter;stroke-opacity:1" d="M 111.155,359.561 103.038,344.949 z" id="boundary" inkscape:connector-curvature="0" />
	<path style="fill:none;stroke:red;stroke-width:1px;stroke-linecap:butt;stroke-linejoin:miter;stroke-opacity:1" d="M 211.817,60.8249 216.687,77.0606 z" id="boundary" inkscape:connector-curvature="0" />
	<path style="fill:none;stroke:red;stroke-width:1px;stroke-linecap:butt;stroke-linejoin:miter;stroke-opacity:1" d="M 216.687,77.0606 224.805,91.6727 z" id="boundary" inkscape:connector-curvature="0" />
	<path style="fill:none;stroke:red;stroke-width:1px;stroke-linecap:butt;stroke-linejoin:miter;stroke-opacity:1" d="M 224.805,91.6727 224.805,107.908 z" id="boundary" inkscape:connector-curvature="0" />
	<path style="fill:none;stroke:red;stroke-width:1px;stroke-linecap:butt;stroke-linejoin:miter;stroke-opacity:1" d="M 232.923,138.756 232.923,122.52 z" id="boundary" inkscape:connector-curvature="0" />
	<path style="fill:none;stroke:red;stroke-width:1px;stroke-linecap:butt;stroke-linejoin:miter;stroke-opacity:1" d="M 232.923,122.52 224.805,107.908 z" id="boundary" inkscape:connector-curvature="0" />
	<path style="fill:none;stroke:red;stroke-width:1px;stroke-linecap:butt;stroke-linejoin:miter;stroke-opacity:1" d="M 211.817,60.8249 203.699,46.2128 z" id="boundary" inkscape:connector-curvature="0" />
	<path style="fill:none;stroke:red;stroke-width:1px;stroke-linecap:butt;stroke-linejoin:miter;stroke-opacity:1" d="M 189.087,38.0949 203.699,46.2128 z" id="boundary" inkscape:connector-curvature="0" />
	<path style="fill:none;stroke:red;stroke-width:1px;stroke-linecap:butt;stroke-linejoin:miter;stroke-opacity:1" d="M 232.923,154.992 232.923,171.227 z" id="boundary" inkscape:connector-curvature="0" />
	<path style="fill:none;stroke:red;stroke-width:1px;stroke-linecap:butt;stroke-linejoin:miter;stroke-opacity:1" d="M 232.923,154.992 232.923,138.756 z" id="boundary" inkscape:connector-curvature="0" />
	<path style="fill:none;stroke:red;stroke-width:1px;stroke-linecap:butt;stroke-linejoin:miter;stroke-opacity:1" d="M 241.041,185.84 232.923,171.227 z" id="boundary" inkscape:connector-curvature="0" />
	<path style="fill:none;stroke:red;stroke-width:1px;stroke-linecap:butt;stroke-linejoin:miter;stroke-opacity:1" d="M 241.041,185.84 241.041,202.075 z" id="boundary" inkscape:connector-curvature="0" />
	<path style="fill:none;stroke:red;stroke-width:1px;stroke-linecap:butt;stroke-linejoin:miter;stroke-opacity:1" d="M 245.912,218.311 241.041,202.075 z" id="boundary" inkscape:connector-curvature="0" />
	<path style="fill:none;stroke:red;stroke-width:1px;stroke-linecap:butt;stroke-linejoin:miter;stroke-opacity:1" d="M 353.067,228.052 353.067,211.817 z" id="boundary" inkscape:connector-curvature="0" />
	<path style="fill:none;stroke:red;stroke-width:1px;stroke-linecap:butt;stroke-linejoin:miter;stroke-opacity:1" d="M 361.185,195.581 353.067,211.817 z" id="boundary" inkscape:connector-curvature="0" />
	<path style="fill:none;stroke:red;stroke-width:1px;stroke-linecap:butt;stroke-linejoin:miter;stroke-opacity:1" d="M 369.303,171.227 361.185,195.581 z" id="boundary" inkscape:connector-curvature="0" />
	<path style="fill:none;stroke:red;stroke-width:1px;stroke-linecap:butt;stroke-linejoin:miter;stroke-opacity:1" d="M 245.912,218.311 249.159,234.547 z" id="boundary" inkscape:connector-curvature="0" />
	<path style="fill:none;stroke:red;stroke-width:1px;stroke-linecap:butt;stroke-linejoin:miter;stroke-opacity:1" d="M 249.159,250.782 249.159,234.547 z" id="boundary" inkscape:connector-curvature="0" />
	<path style="fill:none;stroke:red;stroke-width:1px;stroke-linecap:butt;stroke-linejoin:miter;stroke-opacity:1" d="M 249.159,250.782 249.159,267.018 z" id="boundary" inkscape:connector-curvature="0" />
	<path style="fill:none;stroke:red;stroke-width:1px;stroke-linecap:butt;stroke-linejoin:miter;stroke-opacity:1" d="M 254.029,283.254 249.159,267.018 z" id="boundary" inkscape:connector-curvature="0" />
	<path style="fill:none;stroke:red;stroke-width:1px;stroke-linecap:butt;stroke-linejoin:miter;stroke-opacity:1" d="M 262.147,297.866 254.029,283.254 z" id="boundary" inkscape:connector-curvature="0" />
	<path style="fill:none;stroke:red;stroke-width:1px;stroke-linecap:butt;stroke-linejoin:miter;stroke-opacity:1" d="M 273.512,328.714 265.394,314.101 z" id="boundary" inkscape:connector-curvature="0" />
	<path style="fill:none;stroke:red;stroke-width:1px;stroke-linecap:butt;stroke-linejoin:miter;stroke-opacity:1" d="M 281.63,343.326 273.512,328.714 z" id="boundary" inkscape:connector-curvature="0" />
	<path style="fill:none;stroke:red;stroke-width:1px;stroke-linecap:butt;stroke-linejoin:miter;stroke-opacity:1" d="M 174.475,361.185 169.604,344.949 z" id="boundary" inkscape:connector-curvature="0" />
	<path style="fill:none;stroke:red;stroke-width:1px;stroke-linecap:butt;stroke-linejoin:miter;stroke-opacity:1" d="M 265.394,314.101 262.147,297.866 z" id="boundary" inkscape:connector-curvature="0" />
	<path style="fill:none;stroke:red;stroke-width:1px;stroke-linecap:butt;stroke-linejoin:miter;stroke-opacity:1" d="M 289.748,357.938 281.63,343.326 z" id="boundary" inkscape:connector-curvature="0" />
	<path style="fill:none;stroke:red;stroke-width:1px;stroke-linecap:butt;stroke-linejoin:miter;stroke-opacity:1" d="M 353.067,228.052 344.949,244.288 z" id="boundary" inkscape:connector-curvature="0" />
	<path style="fill:none;stroke:red;stroke-width:1px;stroke-linecap:butt;stroke-linejoin:miter;stroke-opacity:1" d="M 336.831,284.877 336.831,301.113 z" id="boundary" inkscape:connector-curvature="0" />
	<path style="fill:none;stroke:red;stroke-width:1px;stroke-linecap:butt;stroke-linejoin:miter;stroke-opacity:1" d="M 344.949,260.524 336.831,284.877 z" id="boundary" inkscape:connector-curvature="0" />
	<path style="fill:none;stroke:red;stroke-width:1px;stroke-linecap:butt;stroke-linejoin:miter;stroke-opacity:1" d="M 344.949,260.524 344.949,244.288 z" id="boundary" inkscape:connector-curvature="0" />
	<path style="fill:none;stroke:red;stroke-width:1px;stroke-linecap:butt;stroke-linejoin:miter;stroke-opacity:1" d="M 328.714,333.584 336.831,317.349 z" id="boundary" inkscape:connector-curvature="0" />
	<path style="fill:none;stroke:red;stroke-width:1px;stroke-linecap:butt;stroke-linejoin:miter;stroke-opacity:1" d="M 336.831,301.113 336.831,317.349 z" id="boundary" inkscape:connector-curvature="0" />
	<path style="fill:none;stroke:red;stroke-width:1px;stroke-linecap:butt;stroke-linejoin:miter;stroke-opacity:1" d="M 315.725,370.926 320.596,349.82 z" id="boundary" inkscape:connector-curvature="0" />
	<path style="fill:none;stroke:red;stroke-width:1px;stroke-linecap:butt;stroke-linejoin:miter;stroke-opacity:1" d="M 328.714,333.584 320.596,349.82 z" id="boundary" inkscape:connector-curvature="0" />
	<path style="fill:none;stroke:red;stroke-width:1px;stroke-linecap:butt;stroke-linejoin:miter;stroke-opacity:1" d="M 297.866,372.55 289.748,357.938 z" id="boundary" inkscape:connector-curvature="0" />
	<path style="fill:none;stroke:red;stroke-width:1px;stroke-linecap:butt;stroke-linejoin:miter;stroke-opacity:1" d="M 36.4714,367.679 36.4714,383.915 z" id="boundary" inkscape:connector-curvature="0" />
	<path style="fill:none;stroke:red;stroke-width:1px;stroke-linecap:butt;stroke-linejoin:miter;stroke-opacity:1" d="M 36.4714,383.915 44.5892,398.527 z" id="boundary" inkscape:connector-curvature="0" />
	<path style="fill:none;stroke:red;stroke-width:1px;stroke-linecap:butt;stroke-linejoin:miter;stroke-opacity:1" d="M 44.5892,398.527 44.5892,414.763 z" id="boundary" inkscape:connector-curvature="0" />
	<path style="fill:none;stroke:red;stroke-width:1px;stroke-linecap:butt;stroke-linejoin:miter;stroke-opacity:1" d="M 60.8249,442.363 57.5777,426.128 z" id="boundary" inkscape:connector-curvature="0" />
	<path style="fill:none;stroke:red;stroke-width:1px;stroke-linecap:butt;stroke-linejoin:miter;stroke-opacity:1" d="M 57.5777,426.128 44.5892,414.763 z" id="boundary" inkscape:connector-curvature="0" />
	<path style="fill:none;stroke:red;stroke-width:1px;stroke-linecap:butt;stroke-linejoin:miter;stroke-opacity:1" d="M 70.5663,455.352 77.0606,471.588 z" id="boundary" inkscape:connector-curvature="0" />
	<path style="fill:none;stroke:red;stroke-width:1px;stroke-linecap:butt;stroke-linejoin:miter;stroke-opacity:1" d="M 70.5663,455.352 60.8249,442.363 z" id="boundary" inkscape:connector-curvature="0" />
	<path style="fill:none;stroke:red;stroke-width:1px;stroke-linecap:butt;stroke-linejoin:miter;stroke-opacity:1" d="M 77.0606,471.588 77.0606,487.823 z" id="boundary" inkscape:connector-curvature="0" />
	<path style="fill:none;stroke:red;stroke-width:1px;stroke-linecap:butt;stroke-linejoin:miter;stroke-opacity:1" d="M 77.0606,487.823 77.0606,504.059 z" id="boundary" inkscape:connector-curvature="0" />
	<path style="fill:none;stroke:red;stroke-width:1px;stroke-linecap:butt;stroke-linejoin:miter;stroke-opacity:1" d="M 130.638,387.162 119.273,374.173 z" id="boundary" inkscape:connector-curvature="0" />
	<path style="fill:none;stroke:red;stroke-width:1px;stroke-linecap:butt;stroke-linejoin:miter;stroke-opacity:1" d="M 119.273,374.173 111.155,359.561 z" id="boundary" inkscape:connector-curvature="0" />
	<path style="fill:none;stroke:red;stroke-width:1px;stroke-linecap:butt;stroke-linejoin:miter;stroke-opacity:1" d="M 130.638,387.162 138.756,401.774 z" id="boundary" inkscape:connector-curvature="0" />
	<path style="fill:none;stroke:red;stroke-width:1px;stroke-linecap:butt;stroke-linejoin:miter;stroke-opacity:1" d="M 85.1784,518.671 93.2962,533.283 z" id="boundary" inkscape:connector-curvature="0" />
	<path style="fill:none;stroke:red;stroke-width:1px;stroke-linecap:butt;stroke-linejoin:miter;stroke-opacity:1" d="M 85.1784,518.671 77.0606,504.059 z" id="boundary" inkscape:connector-curvature="0" />
	<path style="fill:none;stroke:red;stroke-width:1px;stroke-linecap:butt;stroke-linejoin:miter;stroke-opacity:1" d="M 93.2962,533.283 93.2962,549.519 z" id="boundary" inkscape:connector-curvature="0" />
	<path style="fill:none;stroke:red;stroke-width:1px;stroke-linecap:butt;stroke-linejoin:miter;stroke-opacity:1" d="M 101.414,564.131 101.414,580.367 z" id="boundary" inkscape:connector-curvature="0" />
	<path style="fill:none;stroke:red;stroke-width:1px;stroke-linecap:butt;stroke-linejoin:miter;stroke-opacity:1" d="M 101.414,564.131 93.2962,549.519 z" id="boundary" inkscape:connector-curvature="0" />
	<path style="fill:none;stroke:red;stroke-width:1px;stroke-linecap:butt;stroke-linejoin:miter;stroke-opacity:1" d="M 101.414,580.367 104.661,596.602 z" id="boundary" inkscape:connector-curvature="0" />
	<path style="fill:none;stroke:red;stroke-width:1px;stroke-linecap:butt;stroke-linejoin:miter;stroke-opacity:1" d="M 109.532,629.074 109.532,612.838 z" id="boundary" inkscape:connector-curvature="0" />
	<path style="fill:none;stroke:red;stroke-width:1px;stroke-linecap:butt;stroke-linejoin:miter;stroke-opacity:1" d="M 109.532,612.838 104.661,596.602 z" id="boundary" inkscape:connector-curvature="0" />
	<path style="fill:none;stroke:red;stroke-width:1px;stroke-linecap:butt;stroke-linejoin:miter;stroke-opacity:1" d="M 109.532,645.309 109.532,661.545 z" id="boundary" inkscape:connector-curvature="0" />
	<path style="fill:none;stroke:red;stroke-width:1px;stroke-linecap:butt;stroke-linejoin:miter;stroke-opacity:1" d="M 109.532,677.781 109.532,661.545 z" id="boundary" inkscape:connector-curvature="0" />
	<path style="fill:none;stroke:red;stroke-width:1px;stroke-linecap:butt;stroke-linejoin:miter;stroke-opacity:1" d="M 109.532,694.016 109.532,710.252 z" id="boundary" inkscape:connector-curvature="0" />
	<path style="fill:none;stroke:red;stroke-width:1px;stroke-linecap:butt;stroke-linejoin:miter;stroke-opacity:1" d="M 109.532,726.488 109.532,710.252 z" id="boundary" inkscape:connector-curvature="0" />
	<path style="fill:none;stroke:red;stroke-width:1px;stroke-linecap:butt;stroke-linejoin:miter;stroke-opacity:1" d="M 109.532,694.016 109.532,677.781 z" id="boundary" inkscape:connector-curvature="0" />
	<path style="fill:none;stroke:red;stroke-width:1px;stroke-linecap:butt;stroke-linejoin:miter;stroke-opacity:1" d="M 109.532,726.488 109.532,742.723 z" id="boundary" inkscape:connector-curvature="0" />
	<path style="fill:none;stroke:red;stroke-width:1px;stroke-linecap:butt;stroke-linejoin:miter;stroke-opacity:1" d="M 109.532,758.959 109.532,742.723 z" id="boundary" inkscape:connector-curvature="0" />
	<path style="fill:none;stroke:red;stroke-width:1px;stroke-linecap:butt;stroke-linejoin:miter;stroke-opacity:1" d="M 117.65,789.807 117.65,806.043 z" id="boundary" inkscape:connector-curvature="0" />
	<path style="fill:none;stroke:red;stroke-width:1px;stroke-linecap:butt;stroke-linejoin:miter;stroke-opacity:1" d="M 117.65,789.807 109.532,775.195 z" id="boundary" inkscape:connector-curvature="0" />
	<path style="fill:none;stroke:red;stroke-width:1px;stroke-linecap:butt;stroke-linejoin:miter;stroke-opacity:1" d="M 119.273,822.278 117.65,806.043 z" id="boundary" inkscape:connector-curvature="0" />
	<path style="fill:none;stroke:red;stroke-width:1px;stroke-linecap:butt;stroke-linejoin:miter;stroke-opacity:1" d="M 109.532,775.195 109.532,758.959 z" id="boundary" inkscape:connector-curvature="0" />
	<path style="fill:none;stroke:red;stroke-width:1px;stroke-linecap:butt;stroke-linejoin:miter;stroke-opacity:1" d="M 109.532,645.309 109.532,629.074 z" id="boundary" inkscape:connector-curvature="0" />
	<path style="fill:none;stroke:red;stroke-width:1px;stroke-linecap:butt;stroke-linejoin:miter;stroke-opacity:1" d="M 125.768,838.514 127.391,854.75 z" id="boundary" inkscape:connector-curvature="0" />
	<path style="fill:none;stroke:red;stroke-width:1px;stroke-linecap:butt;stroke-linejoin:miter;stroke-opacity:1" d="M 125.768,838.514 119.273,822.278 z" id="boundary" inkscape:connector-curvature="0" />
	<path style="fill:none;stroke:red;stroke-width:1px;stroke-linecap:butt;stroke-linejoin:miter;stroke-opacity:1" d="M 133.885,870.985 127.391,854.75 z" id="boundary" inkscape:connector-curvature="0" />
	<path style="fill:none;stroke:red;stroke-width:1px;stroke-linecap:butt;stroke-linejoin:miter;stroke-opacity:1" d="M 125.768,958.658 125.768,974.894 z" id="boundary" inkscape:connector-curvature="0" />
	<path style="fill:none;stroke:red;stroke-width:1px;stroke-linecap:butt;stroke-linejoin:miter;stroke-opacity:1" d="M 133.885,934.304 125.768,958.658 z" id="boundary" inkscape:connector-curvature="0" />
	<path style="fill:none;stroke:red;stroke-width:1px;stroke-linecap:butt;stroke-linejoin:miter;stroke-opacity:1" d="M 133.885,870.985 133.885,887.221 z" id="boundary" inkscape:connector-curvature="0" />
	<path style="fill:none;stroke:red;stroke-width:1px;stroke-linecap:butt;stroke-linejoin:miter;stroke-opacity:1" d="M 142.003,901.833 133.885,887.221 z" id="boundary" inkscape:connector-curvature="0" />
	<path style="fill:none;stroke:red;stroke-width:1px;stroke-linecap:butt;stroke-linejoin:miter;stroke-opacity:1" d="M 142.003,901.833 142.003,918.069 z" id="boundary" inkscape:connector-curvature="0" />
	<path style="fill:none;stroke:red;stroke-width:1px;stroke-linecap:butt;stroke-linejoin:miter;stroke-opacity:1" d="M 133.885,934.304 142.003,918.069 z" id="boundary" inkscape:connector-curvature="0" />
	<path style="fill:none;stroke:red;stroke-width:1px;stroke-linecap:butt;stroke-linejoin:miter;stroke-opacity:1" d="M 142.003,979.764 125.768,974.894 z" id="boundary" inkscape:connector-curvature="0" />
	<path style="fill:none;stroke:red;stroke-width:1px;stroke-linecap:butt;stroke-linejoin:miter;stroke-opacity:1" d="M 138.756,401.774 143.627,418.01 z" id="boundary" inkscape:connector-curvature="0" />
	<path style="fill:none;stroke:red;stroke-width:1px;stroke-linecap:butt;stroke-linejoin:miter;stroke-opacity:1" d="M 174.475,361.185 174.475,377.421 z" id="boundary" inkscape:connector-curvature="0" />
	<path style="fill:none;stroke:red;stroke-width:1px;stroke-linecap:butt;stroke-linejoin:miter;stroke-opacity:1" d="M 174.475,393.656 174.475,377.421 z" id="boundary" inkscape:connector-curvature="0" />
	<path style="fill:none;stroke:red;stroke-width:1px;stroke-linecap:butt;stroke-linejoin:miter;stroke-opacity:1" d="M 174.475,409.892 174.475,393.656 z" id="boundary" inkscape:connector-curvature="0" />
	<path style="fill:none;stroke:red;stroke-width:1px;stroke-linecap:butt;stroke-linejoin:miter;stroke-opacity:1" d="M 156.615,427.751 167.98,440.74 z" id="boundary" inkscape:connector-curvature="0" />
	<path style="fill:none;stroke:red;stroke-width:1px;stroke-linecap:butt;stroke-linejoin:miter;stroke-opacity:1" d="M 143.627,418.01 156.615,427.751 z" id="boundary" inkscape:connector-curvature="0" />
	<path style="fill:none;stroke:red;stroke-width:1px;stroke-linecap:butt;stroke-linejoin:miter;stroke-opacity:1" d="M 297.866,372.55 307.607,385.538 z" id="boundary" inkscape:connector-curvature="0" />
	<path style="fill:none;stroke:red;stroke-width:1px;stroke-linecap:butt;stroke-linejoin:miter;stroke-opacity:1" d="M 315.725,370.926 307.607,385.538 z" id="boundary" inkscape:connector-curvature="0" />
	<path style="fill:none;stroke:red;stroke-width:1px;stroke-linecap:butt;stroke-linejoin:miter;stroke-opacity:1" d="M 254.029,987.882 237.794,987.882 z" id="boundary" inkscape:connector-curvature="0" />
	<path style="fill:none;stroke:red;stroke-width:1px;stroke-linecap:butt;stroke-linejoin:miter;stroke-opacity:1" d="M 174.475,979.764 158.239,979.764 z" id="boundary" inkscape:connector-curvature="0" />
	<path style="fill:none;stroke:red;stroke-width:1px;stroke-linecap:butt;stroke-linejoin:miter;stroke-opacity:1" d="M 142.003,979.764 158.239,979.764 z" id="boundary" inkscape:connector-curvature="0" />
	<path style="fill:none;stroke:red;stroke-width:1px;stroke-linecap:butt;stroke-linejoin:miter;stroke-opacity:1" d="M 190.71,979.764 206.946,979.764 z" id="boundary" inkscape:connector-curvature="0" />
	<path style="fill:none;stroke:red;stroke-width:1px;stroke-linecap:butt;stroke-linejoin:miter;stroke-opacity:1" d="M 190.71,979.764 174.475,979.764 z" id="boundary" inkscape:connector-curvature="0" />
	<path style="fill:none;stroke:red;stroke-width:1px;stroke-linecap:butt;stroke-linejoin:miter;stroke-opacity:1" d="M 221.558,987.882 206.946,979.764 z" id="boundary" inkscape:connector-curvature="0" />
	<path style="fill:none;stroke:red;stroke-width:1px;stroke-linecap:butt;stroke-linejoin:miter;stroke-opacity:1" d="M 221.558,987.882 237.794,987.882 z" id="boundary" inkscape:connector-curvature="0" />
	<path style="fill:none;stroke:red;stroke-width:1px;stroke-linecap:butt;stroke-linejoin:miter;stroke-opacity:1" d="M 270.265,987.882 254.029,987.882 z" id="boundary" inkscape:connector-curvature="0" />
	<path style="fill:none;stroke:red;stroke-width:1px;stroke-linecap:butt;stroke-linejoin:miter;stroke-opacity:1" d="M 286.501,987.882 270.265,987.882 z" id="boundary" inkscape:connector-curvature="0" />
	<path style="fill:none;stroke:red;stroke-width:1px;stroke-linecap:butt;stroke-linejoin:miter;stroke-opacity:1" d="M 302.736,987.882 286.501,987.882 z" id="boundary" inkscape:connector-curvature="0" />
	<path style="fill:none;stroke:red;stroke-width:1px;stroke-linecap:butt;stroke-linejoin:miter;stroke-opacity:1" d="M 318.972,987.882 335.208,987.882 z" id="boundary" inkscape:connector-curvature="0" />
	<path style="fill:none;stroke:red;stroke-width:1px;stroke-linecap:butt;stroke-linejoin:miter;stroke-opacity:1" d="M 351.444,987.882 335.208,987.882 z" id="boundary" inkscape:connector-curvature="0" />
	<path style="fill:none;stroke:red;stroke-width:1px;stroke-linecap:butt;stroke-linejoin:miter;stroke-opacity:1" d="M 351.444,987.882 367.679,987.882 z" id="boundary" inkscape:connector-curvature="0" />
	<path style="fill:none;stroke:red;stroke-width:1px;stroke-linecap:butt;stroke-linejoin:miter;stroke-opacity:1" d="M 302.736,987.882 318.972,987.882 z" id="boundary" inkscape:connector-curvature="0" />
	<path style="fill:none;stroke:red;stroke-width:1px;stroke-linecap:butt;stroke-linejoin:miter;stroke-opacity:1" d="M 385.538,57.5777 393.656,41.3421 z" id="boundary" inkscape:connector-curvature="0" />
	<path style="fill:none;stroke:red;stroke-width:1px;stroke-linecap:butt;stroke-linejoin:miter;stroke-opacity:1" d="M 406.645,28.3535 393.656,41.3421 z" id="boundary" inkscape:connector-curvature="0" />
	<path style="fill:none;stroke:red;stroke-width:1px;stroke-linecap:butt;stroke-linejoin:miter;stroke-opacity:1" d="M 419.633,15.365 406.645,28.3535 z" id="boundary" inkscape:connector-curvature="0" />
	<path style="fill:none;stroke:red;stroke-width:1px;stroke-linecap:butt;stroke-linejoin:miter;stroke-opacity:1" d="M 385.538,73.8134 385.538,90.0491 z" id="boundary" inkscape:connector-curvature="0" />
	<path style="fill:none;stroke:red;stroke-width:1px;stroke-linecap:butt;stroke-linejoin:miter;stroke-opacity:1" d="M 385.538,73.8134 385.538,57.5777 z" id="boundary" inkscape:connector-curvature="0" />
	<path style="fill:none;stroke:red;stroke-width:1px;stroke-linecap:butt;stroke-linejoin:miter;stroke-opacity:1" d="M 385.538,90.0491 385.538,106.285 z" id="boundary" inkscape:connector-curvature="0" />
	<path style="fill:none;stroke:red;stroke-width:1px;stroke-linecap:butt;stroke-linejoin:miter;stroke-opacity:1" d="M 385.538,106.285 377.421,130.638 z" id="boundary" inkscape:connector-curvature="0" />
	<path style="fill:none;stroke:red;stroke-width:1px;stroke-linecap:butt;stroke-linejoin:miter;stroke-opacity:1" d="M 377.421,146.874 377.421,130.638 z" id="boundary" inkscape:connector-curvature="0" />
	<path style="fill:none;stroke:red;stroke-width:1px;stroke-linecap:butt;stroke-linejoin:miter;stroke-opacity:1" d="M 377.421,146.874 369.303,171.227 z" id="boundary" inkscape:connector-curvature="0" />
	<path style="fill:none;stroke:red;stroke-width:1px;stroke-linecap:butt;stroke-linejoin:miter;stroke-opacity:1" d="M 432.622,4 448.858,4 z" id="boundary" inkscape:connector-curvature="0" />
	<path style="fill:none;stroke:red;stroke-width:1px;stroke-linecap:butt;stroke-linejoin:miter;stroke-opacity:1" d="M 419.633,15.365 432.622,4 z" id="boundary" inkscape:connector-curvature="0" />
	<path style="fill:none;stroke:red;stroke-width:1px;stroke-linecap:butt;stroke-linejoin:miter;stroke-opacity:1" d="M 460.223,16.9885 468.34,31.6007 z" id="boundary" inkscape:connector-curvature="0" />
	<path style="fill:none;stroke:red;stroke-width:1px;stroke-linecap:butt;stroke-linejoin:miter;stroke-opacity:1" d="M 460.223,16.9885 448.858,4 z" id="boundary" inkscape:connector-curvature="0" />
	<path style="fill:none;stroke:red;stroke-width:1px;stroke-linecap:butt;stroke-linejoin:miter;stroke-opacity:1" d="M 478.082,44.5892 468.34,31.6007 z" id="boundary" inkscape:connector-curvature="0" />
	<path style="fill:none;stroke:red;stroke-width:1px;stroke-linecap:butt;stroke-linejoin:miter;stroke-opacity:1" d="M 476.458,62.4484 476.458,78.6841 z" id="boundary" inkscape:connector-curvature="0" />
	<path style="fill:none;stroke:red;stroke-width:1px;stroke-linecap:butt;stroke-linejoin:miter;stroke-opacity:1" d="M 478.082,44.5892 476.458,62.4484 z" id="boundary" inkscape:connector-curvature="0" />
	<path style="fill:none;stroke:red;stroke-width:1px;stroke-linecap:butt;stroke-linejoin:miter;stroke-opacity:1" d="M 476.458,94.9198 476.458,78.6841 z" id="boundary" inkscape:connector-curvature="0" />
	<path style="fill:none;stroke:red;stroke-width:1px;stroke-linecap:butt;stroke-linejoin:miter;stroke-opacity:1" d="M 468.34,111.155 468.34,127.391 z" id="boundary" inkscape:connector-curvature="0" />
	<path style="fill:none;stroke:red;stroke-width:1px;stroke-linecap:butt;stroke-linejoin:miter;stroke-opacity:1" d="M 476.458,94.9198 468.34,111.155 z" id="boundary" inkscape:connector-curvature="0" />
	<path style="fill:none;stroke:red;stroke-width:1px;stroke-linecap:butt;stroke-linejoin:miter;stroke-opacity:1" d="M 468.34,127.391 460.223,143.627 z" id="boundary" inkscape:connector-curvature="0" />
	<path style="fill:none;stroke:red;stroke-width:1px;stroke-linecap:butt;stroke-linejoin:miter;stroke-opacity:1" d="M 460.223,143.627 460.223,159.863 z" id="boundary" inkscape:connector-curvature="0" />
	<path style="fill:none;stroke:red;stroke-width:1px;stroke-linecap:butt;stroke-linejoin:miter;stroke-opacity:1" d="M 460.223,176.098 460.223,159.863 z" id="boundary" inkscape:connector-curvature="0" />
	<path style="fill:none;stroke:red;stroke-width:1px;stroke-linecap:butt;stroke-linejoin:miter;stroke-opacity:1" d="M 460.223,176.098 460.223,192.334 z" id="boundary" inkscape:connector-curvature="0" />
	<path style="fill:none;stroke:red;stroke-width:1px;stroke-linecap:butt;stroke-linejoin:miter;stroke-opacity:1" d="M 443.987,265.394 435.869,281.63 z" id="boundary" inkscape:connector-curvature="0" />
	<path style="fill:none;stroke:red;stroke-width:1px;stroke-linecap:butt;stroke-linejoin:miter;stroke-opacity:1" d="M 435.869,297.866 427.751,314.101 z" id="boundary" inkscape:connector-curvature="0" />
	<path style="fill:none;stroke:red;stroke-width:1px;stroke-linecap:butt;stroke-linejoin:miter;stroke-opacity:1" d="M 435.869,281.63 435.869,297.866 z" id="boundary" inkscape:connector-curvature="0" />
	<path style="fill:none;stroke:red;stroke-width:1px;stroke-linecap:butt;stroke-linejoin:miter;stroke-opacity:1" d="M 419.633,338.455 427.751,314.101 z" id="boundary" inkscape:connector-curvature="0" />
	<path style="fill:none;stroke:red;stroke-width:1px;stroke-linecap:butt;stroke-linejoin:miter;stroke-opacity:1" d="M 419.633,338.455 419.633,354.691 z" id="boundary" inkscape:connector-curvature="0" />
	<path style="fill:none;stroke:red;stroke-width:1px;stroke-linecap:butt;stroke-linejoin:miter;stroke-opacity:1" d="M 419.633,354.691 419.633,370.926 z" id="boundary" inkscape:connector-curvature="0" />
	<path style="fill:none;stroke:red;stroke-width:1px;stroke-linecap:butt;stroke-linejoin:miter;stroke-opacity:1" d="M 443.987,249.159 452.105,232.923 z" id="boundary" inkscape:connector-curvature="0" />
	<path style="fill:none;stroke:red;stroke-width:1px;stroke-linecap:butt;stroke-linejoin:miter;stroke-opacity:1" d="M 460.223,192.334 452.105,216.687 z" id="boundary" inkscape:connector-curvature="0" />
	<path style="fill:none;stroke:red;stroke-width:1px;stroke-linecap:butt;stroke-linejoin:miter;stroke-opacity:1" d="M 452.105,232.923 452.105,216.687 z" id="boundary" inkscape:connector-curvature="0" />
	<path style="fill:none;stroke:red;stroke-width:1px;stroke-linecap:butt;stroke-linejoin:miter;stroke-opacity:1" d="M 443.987,265.394 443.987,249.159 z" id="boundary" inkscape:connector-curvature="0" />
	<path style="fill:none;stroke:red;stroke-width:1px;stroke-linecap:butt;stroke-linejoin:miter;stroke-opacity:1" d="M 482.953,260.524 474.835,284.877 z" id="boundary" inkscape:connector-curvature="0" />
	<path style="fill:none;stroke:red;stroke-width:1px;stroke-linecap:butt;stroke-linejoin:miter;stroke-opacity:1" d="M 466.717,325.466 458.599,341.702 z" id="boundary" inkscape:connector-curvature="0" />
	<path style="fill:none;stroke:red;stroke-width:1px;stroke-linecap:butt;stroke-linejoin:miter;stroke-opacity:1" d="M 466.717,309.231 466.717,325.466 z" id="boundary" inkscape:connector-curvature="0" />
	<path style="fill:none;stroke:red;stroke-width:1px;stroke-linecap:butt;stroke-linejoin:miter;stroke-opacity:1" d="M 474.835,284.877 466.717,309.231 z" id="boundary" inkscape:connector-curvature="0" />
	<path style="fill:none;stroke:red;stroke-width:1px;stroke-linecap:butt;stroke-linejoin:miter;stroke-opacity:1" d="M 458.599,341.702 452.105,364.432 z" id="boundary" inkscape:connector-curvature="0" />
	<path style="fill:none;stroke:red;stroke-width:1px;stroke-linecap:butt;stroke-linejoin:miter;stroke-opacity:1" d="M 515.424,81.9313 507.306,106.285 z" id="boundary" inkscape:connector-curvature="0" />
	<path style="fill:none;stroke:red;stroke-width:1px;stroke-linecap:butt;stroke-linejoin:miter;stroke-opacity:1" d="M 531.66,77.0606 515.424,81.9313 z" id="boundary" inkscape:connector-curvature="0" />
	<path style="fill:none;stroke:red;stroke-width:1px;stroke-linecap:butt;stroke-linejoin:miter;stroke-opacity:1" d="M 546.272,68.9427 531.66,77.0606 z" id="boundary" inkscape:connector-curvature="0" />
	<path style="fill:none;stroke:red;stroke-width:1px;stroke-linecap:butt;stroke-linejoin:miter;stroke-opacity:1" d="M 507.306,122.52 507.306,106.285 z" id="boundary" inkscape:connector-curvature="0" />
	<path style="fill:none;stroke:red;stroke-width:1px;stroke-linecap:butt;stroke-linejoin:miter;stroke-opacity:1" d="M 499.188,154.992 491.07,171.227 z" id="boundary" inkscape:connector-curvature="0" />
	<path style="fill:none;stroke:red;stroke-width:1px;stroke-linecap:butt;stroke-linejoin:miter;stroke-opacity:1" d="M 491.07,171.227 491.07,187.463 z" id="boundary" inkscape:connector-curvature="0" />
	<path style="fill:none;stroke:red;stroke-width:1px;stroke-linecap:butt;stroke-linejoin:miter;stroke-opacity:1" d="M 499.188,138.756 499.188,154.992 z" id="boundary" inkscape:connector-curvature="0" />
	<path style="fill:none;stroke:red;stroke-width:1px;stroke-linecap:butt;stroke-linejoin:miter;stroke-opacity:1" d="M 499.188,138.756 507.306,122.52 z" id="boundary" inkscape:connector-curvature="0" />
	<path style="fill:none;stroke:red;stroke-width:1px;stroke-linecap:butt;stroke-linejoin:miter;stroke-opacity:1" d="M 560.884,60.8249 546.272,68.9427 z" id="boundary" inkscape:connector-curvature="0" />
	<path style="fill:none;stroke:red;stroke-width:1px;stroke-linecap:butt;stroke-linejoin:miter;stroke-opacity:1" d="M 560.884,60.8249 565.755,77.0606 z" id="boundary" inkscape:connector-curvature="0" />
	<path style="fill:none;stroke:red;stroke-width:1px;stroke-linecap:butt;stroke-linejoin:miter;stroke-opacity:1" d="M 565.755,77.0606 573.872,91.6727 z" id="boundary" inkscape:connector-curvature="0" />
	<path style="fill:none;stroke:red;stroke-width:1px;stroke-linecap:butt;stroke-linejoin:miter;stroke-opacity:1" d="M 573.872,91.6727 573.872,107.908 z" id="boundary" inkscape:connector-curvature="0" />
	<path style="fill:none;stroke:red;stroke-width:1px;stroke-linecap:butt;stroke-linejoin:miter;stroke-opacity:1" d="M 581.99,122.52 573.872,107.908 z" id="boundary" inkscape:connector-curvature="0" />
	<path style="fill:none;stroke:red;stroke-width:1px;stroke-linecap:butt;stroke-linejoin:miter;stroke-opacity:1" d="M 590.108,137.133 581.99,122.52 z" id="boundary" inkscape:connector-curvature="0" />
	<path style="fill:none;stroke:red;stroke-width:1px;stroke-linecap:butt;stroke-linejoin:miter;stroke-opacity:1" d="M 590.108,153.368 581.99,176.098 z" id="boundary" inkscape:connector-curvature="0" />
	<path style="fill:none;stroke:red;stroke-width:1px;stroke-linecap:butt;stroke-linejoin:miter;stroke-opacity:1" d="M 590.108,137.133 590.108,153.368 z" id="boundary" inkscape:connector-curvature="0" />
	<path style="fill:none;stroke:red;stroke-width:1px;stroke-linecap:butt;stroke-linejoin:miter;stroke-opacity:1" d="M 491.07,203.699 491.07,219.935 z" id="boundary" inkscape:connector-curvature="0" />
	<path style="fill:none;stroke:red;stroke-width:1px;stroke-linecap:butt;stroke-linejoin:miter;stroke-opacity:1" d="M 491.07,219.935 482.953,244.288 z" id="boundary" inkscape:connector-curvature="0" />
	<path style="fill:none;stroke:red;stroke-width:1px;stroke-linecap:butt;stroke-linejoin:miter;stroke-opacity:1" d="M 491.07,203.699 491.07,187.463 z" id="boundary" inkscape:connector-curvature="0" />
	<path style="fill:none;stroke:red;stroke-width:1px;stroke-linecap:butt;stroke-linejoin:miter;stroke-opacity:1" d="M 482.953,260.524 482.953,244.288 z" id="boundary" inkscape:connector-curvature="0" />
	<path style="fill:none;stroke:red;stroke-width:1px;stroke-linecap:butt;stroke-linejoin:miter;stroke-opacity:1" d="M 581.99,208.57 573.872,224.805 z" id="boundary" inkscape:connector-curvature="0" />
	<path style="fill:none;stroke:red;stroke-width:1px;stroke-linecap:butt;stroke-linejoin:miter;stroke-opacity:1" d="M 581.99,192.334 581.99,208.57 z" id="boundary" inkscape:connector-curvature="0" />
	<path style="fill:none;stroke:red;stroke-width:1px;stroke-linecap:butt;stroke-linejoin:miter;stroke-opacity:1" d="M 573.872,241.041 573.872,224.805 z" id="boundary" inkscape:connector-curvature="0" />
	<path style="fill:none;stroke:red;stroke-width:1px;stroke-linecap:butt;stroke-linejoin:miter;stroke-opacity:1" d="M 573.872,257.277 565.755,273.512 z" id="boundary" inkscape:connector-curvature="0" />
	<path style="fill:none;stroke:red;stroke-width:1px;stroke-linecap:butt;stroke-linejoin:miter;stroke-opacity:1" d="M 573.872,241.041 573.872,257.277 z" id="boundary" inkscape:connector-curvature="0" />
	<path style="fill:none;stroke:red;stroke-width:1px;stroke-linecap:butt;stroke-linejoin:miter;stroke-opacity:1" d="M 581.99,176.098 581.99,192.334 z" id="boundary" inkscape:connector-curvature="0" />
	<path style="fill:none;stroke:red;stroke-width:1px;stroke-linecap:butt;stroke-linejoin:miter;stroke-opacity:1" d="M 565.755,305.984 557.637,322.219 z" id="boundary" inkscape:connector-curvature="0" />
	<path style="fill:none;stroke:red;stroke-width:1px;stroke-linecap:butt;stroke-linejoin:miter;stroke-opacity:1" d="M 565.755,289.748 565.755,305.984 z" id="boundary" inkscape:connector-curvature="0" />
	<path style="fill:none;stroke:red;stroke-width:1px;stroke-linecap:butt;stroke-linejoin:miter;stroke-opacity:1" d="M 557.637,354.691 557.637,338.455 z" id="boundary" inkscape:connector-curvature="0" />
	<path style="fill:none;stroke:red;stroke-width:1px;stroke-linecap:butt;stroke-linejoin:miter;stroke-opacity:1" d="M 557.637,338.455 557.637,322.219 z" id="boundary" inkscape:connector-curvature="0" />
	<path style="fill:none;stroke:red;stroke-width:1px;stroke-linecap:butt;stroke-linejoin:miter;stroke-opacity:1" d="M 557.637,370.926 557.637,354.691 z" id="boundary" inkscape:connector-curvature="0" />
	<path style="fill:none;stroke:red;stroke-width:1px;stroke-linecap:butt;stroke-linejoin:miter;stroke-opacity:1" d="M 565.755,289.748 565.755,273.512 z" id="boundary" inkscape:connector-curvature="0" />
	<path style="fill:none;stroke:red;stroke-width:1px;stroke-linecap:butt;stroke-linejoin:miter;stroke-opacity:1" d="M 419.633,370.926 419.633,387.162 z" id="boundary" inkscape:connector-curvature="0" />
	<path style="fill:none;stroke:red;stroke-width:1px;stroke-linecap:butt;stroke-linejoin:miter;stroke-opacity:1" d="M 419.633,387.162 419.633,403.398 z" id="boundary" inkscape:connector-curvature="0" />
	<path style="fill:none;stroke:red;stroke-width:1px;stroke-linecap:butt;stroke-linejoin:miter;stroke-opacity:1" d="M 452.105,364.432 443.987,380.668 z" id="boundary" inkscape:connector-curvature="0" />
	<path style="fill:none;stroke:red;stroke-width:1px;stroke-linecap:butt;stroke-linejoin:miter;stroke-opacity:1" d="M 434.245,395.28 443.987,380.668 z" id="boundary" inkscape:connector-curvature="0" />
	<path style="fill:none;stroke:red;stroke-width:1px;stroke-linecap:butt;stroke-linejoin:miter;stroke-opacity:1" d="M 434.245,395.28 419.633,403.398 z" id="boundary" inkscape:connector-curvature="0" />
	<path style="fill:none;stroke:red;stroke-width:1px;stroke-linecap:butt;stroke-linejoin:miter;stroke-opacity:1" d="M 549.519,411.516 541.401,427.751 z" id="boundary" inkscape:connector-curvature="0" />
	<path style="fill:none;stroke:red;stroke-width:1px;stroke-linecap:butt;stroke-linejoin:miter;stroke-opacity:1" d="M 541.401,427.751 541.401,443.987 z" id="boundary" inkscape:connector-curvature="0" />
	<path style="fill:none;stroke:red;stroke-width:1px;stroke-linecap:butt;stroke-linejoin:miter;stroke-opacity:1" d="M 541.401,460.223 541.401,443.987 z" id="boundary" inkscape:connector-curvature="0" />
	<path style="fill:none;stroke:red;stroke-width:1px;stroke-linecap:butt;stroke-linejoin:miter;stroke-opacity:1" d="M 541.401,460.223 541.401,476.458 z" id="boundary" inkscape:connector-curvature="0" />
	<path style="fill:none;stroke:red;stroke-width:1px;stroke-linecap:butt;stroke-linejoin:miter;stroke-opacity:1" d="M 549.519,411.516 549.519,395.28 z" id="boundary" inkscape:connector-curvature="0" />
	<path style="fill:none;stroke:red;stroke-width:1px;stroke-linecap:butt;stroke-linejoin:miter;stroke-opacity:1" d="M 557.637,370.926 549.519,395.28 z" id="boundary" inkscape:connector-curvature="0" />
	<path style="fill:none;stroke:red;stroke-width:1px;stroke-linecap:butt;stroke-linejoin:miter;stroke-opacity:1" d="M 541.401,476.458 544.648,492.694 z" id="boundary" inkscape:connector-curvature="0" />
	<path style="fill:none;stroke:red;stroke-width:1px;stroke-linecap:butt;stroke-linejoin:miter;stroke-opacity:1" d="M 549.519,508.93 544.648,492.694 z" id="boundary" inkscape:connector-curvature="0" />
	<path style="fill:none;stroke:red;stroke-width:1px;stroke-linecap:butt;stroke-linejoin:miter;stroke-opacity:1" d="M 549.519,508.93 549.519,525.165 z" id="boundary" inkscape:connector-curvature="0" />
	<path style="fill:none;stroke:red;stroke-width:1px;stroke-linecap:butt;stroke-linejoin:miter;stroke-opacity:1" d="M 557.637,573.872 552.766,557.637 z" id="boundary" inkscape:connector-curvature="0" />
	<path style="fill:none;stroke:red;stroke-width:1px;stroke-linecap:butt;stroke-linejoin:miter;stroke-opacity:1" d="M 552.766,557.637 549.519,541.401 z" id="boundary" inkscape:connector-curvature="0" />
	<path style="fill:none;stroke:red;stroke-width:1px;stroke-linecap:butt;stroke-linejoin:miter;stroke-opacity:1" d="M 549.519,525.165 549.519,541.401 z" id="boundary" inkscape:connector-curvature="0" />
	<path style="fill:none;stroke:red;stroke-width:1px;stroke-linecap:butt;stroke-linejoin:miter;stroke-opacity:1" d="M 557.637,590.108 557.637,573.872 z" id="boundary" inkscape:connector-curvature="0" />
	<path style="fill:none;stroke:red;stroke-width:1px;stroke-linecap:butt;stroke-linejoin:miter;stroke-opacity:1" d="M 560.884,606.344 557.637,590.108 z" id="boundary" inkscape:connector-curvature="0" />
	<path style="fill:none;stroke:red;stroke-width:1px;stroke-linecap:butt;stroke-linejoin:miter;stroke-opacity:1" d="M 492.694,939.175 508.93,939.175 z" id="boundary" inkscape:connector-curvature="0" />
	<path style="fill:none;stroke:red;stroke-width:1px;stroke-linecap:butt;stroke-linejoin:miter;stroke-opacity:1" d="M 492.694,939.175 484.576,955.411 z" id="boundary" inkscape:connector-curvature="0" />
	<path style="fill:none;stroke:red;stroke-width:1px;stroke-linecap:butt;stroke-linejoin:miter;stroke-opacity:1" d="M 382.291,996 367.679,987.882 z" id="boundary" inkscape:connector-curvature="0" />
	<path style="fill:none;stroke:red;stroke-width:1px;stroke-linecap:butt;stroke-linejoin:miter;stroke-opacity:1" d="M 398.527,996 382.291,996 z" id="boundary" inkscape:connector-curvature="0" />
	<path style="fill:none;stroke:red;stroke-width:1px;stroke-linecap:butt;stroke-linejoin:miter;stroke-opacity:1" d="M 414.763,996 430.998,996 z" id="boundary" inkscape:connector-curvature="0" />
	<path style="fill:none;stroke:red;stroke-width:1px;stroke-linecap:butt;stroke-linejoin:miter;stroke-opacity:1" d="M 414.763,996 398.527,996 z" id="boundary" inkscape:connector-curvature="0" />
	<path style="fill:none;stroke:red;stroke-width:1px;stroke-linecap:butt;stroke-linejoin:miter;stroke-opacity:1" d="M 476.458,971.646 484.576,955.411 z" id="boundary" inkscape:connector-curvature="0" />
	<path style="fill:none;stroke:red;stroke-width:1px;stroke-linecap:butt;stroke-linejoin:miter;stroke-opacity:1" d="M 476.458,971.646 460.223,979.764 z" id="boundary" inkscape:connector-curvature="0" />
	<path style="fill:none;stroke:red;stroke-width:1px;stroke-linecap:butt;stroke-linejoin:miter;stroke-opacity:1" d="M 447.234,996 430.998,996 z" id="boundary" inkscape:connector-curvature="0" />
	<path style="fill:none;stroke:red;stroke-width:1px;stroke-linecap:butt;stroke-linejoin:miter;stroke-opacity:1" d="M 460.223,979.764 447.234,996 z" id="boundary" inkscape:connector-curvature="0" />
	<path style="fill:none;stroke:red;stroke-width:1px;stroke-linecap:butt;stroke-linejoin:miter;stroke-opacity:1" d="M 565.755,622.579 573.872,637.191 z" id="boundary" inkscape:connector-curvature="0" />
	<path style="fill:none;stroke:red;stroke-width:1px;stroke-linecap:butt;stroke-linejoin:miter;stroke-opacity:1" d="M 565.755,622.579 560.884,606.344 z" id="boundary" inkscape:connector-curvature="0" />
	<path style="fill:none;stroke:red;stroke-width:1px;stroke-linecap:butt;stroke-linejoin:miter;stroke-opacity:1" d="M 603.097,620.956 590.108,632.321 z" id="boundary" inkscape:connector-curvature="0" />
	<path style="fill:none;stroke:red;stroke-width:1px;stroke-linecap:butt;stroke-linejoin:miter;stroke-opacity:1" d="M 590.108,632.321 573.872,637.191 z" id="boundary" inkscape:connector-curvature="0" />
	<path style="fill:none;stroke:red;stroke-width:1px;stroke-linecap:butt;stroke-linejoin:miter;stroke-opacity:1" d="M 549.519,898.586 533.283,906.704 z" id="boundary" inkscape:connector-curvature="0" />
	<path style="fill:none;stroke:red;stroke-width:1px;stroke-linecap:butt;stroke-linejoin:miter;stroke-opacity:1" d="M 557.637,874.232 549.519,898.586 z" id="boundary" inkscape:connector-curvature="0" />
	<path style="fill:none;stroke:red;stroke-width:1px;stroke-linecap:butt;stroke-linejoin:miter;stroke-opacity:1" d="M 521.918,927.81 533.283,906.704 z" id="boundary" inkscape:connector-curvature="0" />
	<path style="fill:none;stroke:red;stroke-width:1px;stroke-linecap:butt;stroke-linejoin:miter;stroke-opacity:1" d="M 508.93,939.175 521.918,927.81 z" id="boundary" inkscape:connector-curvature="0" />
	<path style="fill:none;stroke:red;stroke-width:1px;stroke-linecap:butt;stroke-linejoin:miter;stroke-opacity:1" d="M 594.979,838.514 581.99,849.879 z" id="boundary" inkscape:connector-curvature="0" />
	<path style="fill:none;stroke:red;stroke-width:1px;stroke-linecap:butt;stroke-linejoin:miter;stroke-opacity:1" d="M 606.344,825.525 594.979,838.514 z" id="boundary" inkscape:connector-curvature="0" />
	<path style="fill:none;stroke:red;stroke-width:1px;stroke-linecap:butt;stroke-linejoin:miter;stroke-opacity:1" d="M 573.872,866.115 581.99,849.879 z" id="boundary" inkscape:connector-curvature="0" />
	<path style="fill:none;stroke:red;stroke-width:1px;stroke-linecap:butt;stroke-linejoin:miter;stroke-opacity:1" d="M 557.637,874.232 573.872,866.115 z" id="boundary" inkscape:connector-curvature="0" />
	<path style="fill:none;stroke:red;stroke-width:1px;stroke-linecap:butt;stroke-linejoin:miter;stroke-opacity:1" d="M 661.545,463.47 661.545,479.705 z" id="boundary" inkscape:connector-curvature="0" />
	<path style="fill:none;stroke:red;stroke-width:1px;stroke-linecap:butt;stroke-linejoin:miter;stroke-opacity:1" d="M 661.545,463.47 669.663,447.234 z" id="boundary" inkscape:connector-curvature="0" />
	<path style="fill:none;stroke:red;stroke-width:1px;stroke-linecap:butt;stroke-linejoin:miter;stroke-opacity:1" d="M 677.781,430.998 669.663,447.234 z" id="boundary" inkscape:connector-curvature="0" />
	<path style="fill:none;stroke:red;stroke-width:1px;stroke-linecap:butt;stroke-linejoin:miter;stroke-opacity:1" d="M 694.016,422.881 677.781,430.998 z" id="boundary" inkscape:connector-curvature="0" />
	<path style="fill:none;stroke:red;stroke-width:1px;stroke-linecap:butt;stroke-linejoin:miter;stroke-opacity:1" d="M 637.191,536.53 629.074,560.884 z" id="boundary" inkscape:connector-curvature="0" />
	<path style="fill:none;stroke:red;stroke-width:1px;stroke-linecap:butt;stroke-linejoin:miter;stroke-opacity:1" d="M 645.309,520.295 637.191,536.53 z" id="boundary" inkscape:connector-curvature="0" />
	<path style="fill:none;stroke:red;stroke-width:1px;stroke-linecap:butt;stroke-linejoin:miter;stroke-opacity:1" d="M 653.427,495.941 645.309,520.295 z" id="boundary" inkscape:connector-curvature="0" />
	<path style="fill:none;stroke:red;stroke-width:1px;stroke-linecap:butt;stroke-linejoin:miter;stroke-opacity:1" d="M 653.427,495.941 661.545,479.705 z" id="boundary" inkscape:connector-curvature="0" />
	<path style="fill:none;stroke:red;stroke-width:1px;stroke-linecap:butt;stroke-linejoin:miter;stroke-opacity:1" d="M 710.252,418.01 726.488,418.01 z" id="boundary" inkscape:connector-curvature="0" />
	<path style="fill:none;stroke:red;stroke-width:1px;stroke-linecap:butt;stroke-linejoin:miter;stroke-opacity:1" d="M 710.252,418.01 694.016,422.881 z" id="boundary" inkscape:connector-curvature="0" />
	<path style="fill:none;stroke:red;stroke-width:1px;stroke-linecap:butt;stroke-linejoin:miter;stroke-opacity:1" d="M 736.229,430.998 726.488,418.01 z" id="boundary" inkscape:connector-curvature="0" />
	<path style="fill:none;stroke:red;stroke-width:1px;stroke-linecap:butt;stroke-linejoin:miter;stroke-opacity:1" d="M 736.229,447.234 736.229,463.47 z" id="boundary" inkscape:connector-curvature="0" />
	<path style="fill:none;stroke:red;stroke-width:1px;stroke-linecap:butt;stroke-linejoin:miter;stroke-opacity:1" d="M 736.229,430.998 736.229,447.234 z" id="boundary" inkscape:connector-curvature="0" />
	<path style="fill:none;stroke:red;stroke-width:1px;stroke-linecap:butt;stroke-linejoin:miter;stroke-opacity:1" d="M 736.229,479.705 736.229,495.941 z" id="boundary" inkscape:connector-curvature="0" />
	<path style="fill:none;stroke:red;stroke-width:1px;stroke-linecap:butt;stroke-linejoin:miter;stroke-opacity:1" d="M 736.229,463.47 736.229,479.705 z" id="boundary" inkscape:connector-curvature="0" />
	<path style="fill:none;stroke:red;stroke-width:1px;stroke-linecap:butt;stroke-linejoin:miter;stroke-opacity:1" d="M 736.229,495.941 736.229,512.177 z" id="boundary" inkscape:connector-curvature="0" />
	<path style="fill:none;stroke:red;stroke-width:1px;stroke-linecap:butt;stroke-linejoin:miter;stroke-opacity:1" d="M 736.229,512.177 736.229,528.412 z" id="boundary" inkscape:connector-curvature="0" />
	<path style="fill:none;stroke:red;stroke-width:1px;stroke-linecap:butt;stroke-linejoin:miter;stroke-opacity:1" d="M 736.229,544.648 736.229,560.884 z" id="boundary" inkscape:connector-curvature="0" />
	<path style="fill:none;stroke:red;stroke-width:1px;stroke-linecap:butt;stroke-linejoin:miter;stroke-opacity:1" d="M 736.229,544.648 736.229,528.412 z" id="boundary" inkscape:connector-curvature="0" />
	<path style="fill:none;stroke:red;stroke-width:1px;stroke-linecap:butt;stroke-linejoin:miter;stroke-opacity:1" d="M 625.827,588.484 612.838,601.473 z" id="boundary" inkscape:connector-curvature="0" />
	<path style="fill:none;stroke:red;stroke-width:1px;stroke-linecap:butt;stroke-linejoin:miter;stroke-opacity:1" d="M 625.827,588.484 629.074,560.884 z" id="boundary" inkscape:connector-curvature="0" />
	<path style="fill:none;stroke:red;stroke-width:1px;stroke-linecap:butt;stroke-linejoin:miter;stroke-opacity:1" d="M 603.097,620.956 612.838,601.473 z" id="boundary" inkscape:connector-curvature="0" />
	<path style="fill:none;stroke:red;stroke-width:1px;stroke-linecap:butt;stroke-linejoin:miter;stroke-opacity:1" d="M 692.393,700.511 679.404,711.876 z" id="boundary" inkscape:connector-curvature="0" />
	<path style="fill:none;stroke:red;stroke-width:1px;stroke-linecap:butt;stroke-linejoin:miter;stroke-opacity:1" d="M 619.332,814.16 606.344,825.525 z" id="boundary" inkscape:connector-curvature="0" />
	<path style="fill:none;stroke:red;stroke-width:1px;stroke-linecap:butt;stroke-linejoin:miter;stroke-opacity:1" d="M 671.286,736.229 663.169,752.465 z" id="boundary" inkscape:connector-curvature="0" />
	<path style="fill:none;stroke:red;stroke-width:1px;stroke-linecap:butt;stroke-linejoin:miter;stroke-opacity:1" d="M 663.169,752.465 655.051,768.7 z" id="boundary" inkscape:connector-curvature="0" />
	<path style="fill:none;stroke:red;stroke-width:1px;stroke-linecap:butt;stroke-linejoin:miter;stroke-opacity:1" d="M 671.286,736.229 679.404,711.876 z" id="boundary" inkscape:connector-curvature="0" />
	<path style="fill:none;stroke:red;stroke-width:1px;stroke-linecap:butt;stroke-linejoin:miter;stroke-opacity:1" d="M 630.697,801.172 619.332,814.16 z" id="boundary" inkscape:connector-curvature="0" />
	<path style="fill:none;stroke:red;stroke-width:1px;stroke-linecap:butt;stroke-linejoin:miter;stroke-opacity:1" d="M 630.697,801.172 643.686,789.807 z" id="boundary" inkscape:connector-curvature="0" />
	<path style="fill:none;stroke:red;stroke-width:1px;stroke-linecap:butt;stroke-linejoin:miter;stroke-opacity:1" d="M 655.051,768.7 643.686,789.807 z" id="boundary" inkscape:connector-curvature="0" />
	<path style="fill:none;stroke:red;stroke-width:1px;stroke-linecap:butt;stroke-linejoin:miter;stroke-opacity:1" d="M 692.393,700.511 695.64,671.286 z" id="boundary" inkscape:connector-curvature="0" />
	<path style="fill:none;stroke:red;stroke-width:1px;stroke-linecap:butt;stroke-linejoin:miter;stroke-opacity:1" d="M 708.628,659.921 695.64,671.286 z" id="boundary" inkscape:connector-curvature="0" />
	<path style="fill:none;stroke:red;stroke-width:1px;stroke-linecap:butt;stroke-linejoin:miter;stroke-opacity:1" d="M 736.229,593.355 736.229,609.591 z" id="boundary" inkscape:connector-curvature="0" />
	<path style="fill:none;stroke:red;stroke-width:1px;stroke-linecap:butt;stroke-linejoin:miter;stroke-opacity:1" d="M 736.229,593.355 736.229,577.119 z" id="boundary" inkscape:connector-curvature="0" />
	<path style="fill:none;stroke:red;stroke-width:1px;stroke-linecap:butt;stroke-linejoin:miter;stroke-opacity:1" d="M 736.229,609.591 724.864,627.45 z" id="boundary" inkscape:connector-curvature="0" />
	<path style="fill:none;stroke:red;stroke-width:1px;stroke-linecap:butt;stroke-linejoin:miter;stroke-opacity:1" d="M 708.628,659.921 716.746,643.686 z" id="boundary" inkscape:connector-curvature="0" />
	<path style="fill:none;stroke:red;stroke-width:1px;stroke-linecap:butt;stroke-linejoin:miter;stroke-opacity:1" d="M 716.746,643.686 724.864,627.45 z" id="boundary" inkscape:connector-curvature="0" />
	<path style="fill:none;stroke:red;stroke-width:1px;stroke-linecap:butt;stroke-linejoin:miter;stroke-opacity:1" d="M 736.229,560.884 736.229,577.119 z" id="boundary" inkscape:connector-curvature="0" />
	<circle cx="4" cy="244.288" r="4" fill="#0" id="circle0"/>
	<circle cx="4" cy="260.524" r="4" fill="#0" id="circle1"/>
	<circle cx="4" cy="276.759" r="4" fill="#0" id="circle2"/>
	<circle cx="4" cy="292.995" r="4" fill="#0" id="circle3"/>
	<circle cx="12.1178" cy="219.935" r="4" fill="#0" id="circle4"/>
	<circle cx="12.1178" cy="307.607" r="4" fill="#0" id="circle5"/>
	<circle cx="20.2357" cy="322.219" r="4" fill="#0" id="circle6"/>
	<circle cx="20.2357" cy="338.455" r="4" fill="#0" id="circle7"/>
	<circle cx="25.1064" cy="206.946" r="4" fill="#0" id="circle8"/>
	<circle cx="28.3535" cy="353.067" r="4" fill="#0" id="circle9"/>
	<circle cx="36.4714" cy="367.679" r="4" fill="#0" id="circle10"/>
	<circle cx="36.4714" cy="383.915" r="4" fill="#0" id="circle11"/>
	<circle cx="39.7185" cy="215.064" r="4" fill="#0" id="circle12"/>
	<circle cx="44.5892" cy="398.527" r="4" fill="#0" id="circle13"/>
	<circle cx="44.5892" cy="414.763" r="4" fill="#0" id="circle14"/>
	<circle cx="54.3306" cy="223.182" r="4" fill="#0" id="circle15"/>
	<circle cx="57.5777" cy="426.128" r="4" fill="#0" id="circle16"/>
	<circle cx="60.8249" cy="442.363" r="4" fill="#0" id="circle17"/>
	<circle cx="62.4484" cy="237.794" r="4" fill="#0" id="circle18"/>
	<circle cx="70.5663" cy="455.352" r="4" fill="#0" id="circle19"/>
	<circle cx="75.437" cy="249.159" r="4" fill="#0" id="circle20"/>
	<circle cx="77.0606" cy="471.588" r="4" fill="#0" id="circle21"/>
	<circle cx="77.0606" cy="487.823" r="4" fill="#0" id="circle22"/>
	<circle cx="77.0606" cy="504.059" r="4" fill="#0" id="circle23"/>
	<circle cx="78.6841" cy="265.394" r="4" fill="#0" id="circle24"/>
	<circle cx="81.9313" cy="281.63" r="4" fill="#0" id="circle25"/>
	<circle cx="85.1784" cy="518.671" r="4" fill="#0" id="circle26"/>
	<circle cx="86.802" cy="297.866" r="4" fill="#0" id="circle27"/>
	<circle cx="90.0491" cy="314.101" r="4" fill="#0" id="circle28"/>
	<circle cx="93.2962" cy="533.283" r="4" fill="#0" id="circle29"/>
	<circle cx="93.2962" cy="549.519" r="4" fill="#0" id="circle30"/>
	<circle cx="98.1669" cy="328.714" r="4" fill="#0" id="circle31"/>
	<circle cx="101.414" cy="564.131" r="4" fill="#0" id="circle32"/>
	<circle cx="101.414" cy="580.367" r="4" fill="#0" id="circle33"/>
	<circle cx="103.038" cy="344.949" r="4" fill="#0" id="circle34"/>
	<circle cx="104.661" cy="596.602" r="4" fill="#0" id="circle35"/>
	<circle cx="109.532" cy="612.838" r="4" fill="#0" id="circle36"/>
	<circle cx="109.532" cy="629.074" r="4" fill="#0" id="circle37"/>
	<circle cx="109.532" cy="645.309" r="4" fill="#0" id="circle38"/>
	<circle cx="109.532" cy="661.545" r="4" fill="#0" id="circle39"/>
	<circle cx="109.532" cy="677.781" r="4" fill="#0" id="circle40"/>
	<circle cx="109.532" cy="694.016" r="4" fill="#0" id="circle41"/>
	<circle cx="109.532" cy="710.252" r="4" fill="#0" id="circle42"/>
	<circle cx="109.532" cy="726.488" r="4" fill="#0" id="circle43"/>
	<circle cx="109.532" cy="742.723" r="4" fill="#0" id="circle44"/>
	<circle cx="109.532" cy="758.959" r="4" fill="#0" id="circle45"/>
	<circle cx="109.532" cy="775.195" r="4" fill="#0" id="circle46"/>
	<circle cx="111.155" cy="359.561" r="4" fill="#0" id="circle47"/>
	<circle cx="117.65" cy="789.807" r="4" fill="#0" id="circle48"/>
	<circle cx="117.65" cy="806.043" r="4" fill="#0" id="circle49"/>
	<circle cx="119.273" cy="374.173" r="4" fill="#0" id="circle50"/>
	<circle cx="119.273" cy="822.278" r="4" fill="#0" id="circle51"/>
	<circle cx="125.768" cy="838.514" r="4" fill="#0" id="circle52"/>
	<circle cx="125.768" cy="958.658" r="4" fill="#0" id="circle53"/>
	<circle cx="125.768" cy="974.894" r="4" fill="#0" id="circle54"/>
	<circle cx="127.391" cy="854.75" r="4" fill="#0" id="circle55"/>
	<circle cx="130.638" cy="387.162" r="4" fill="#0" id="circle56"/>
	<circle cx="133.885" cy="870.985" r="4" fill="#0" id="circle57"/>
	<circle cx="133.885" cy="887.221" r="4" fill="#0" id="circle58"/>
	<circle cx="133.885" cy="934.304" r="4" fill="#0" id="circle59"/>
	<circle cx="138.756" cy="401.774" r="4" fill="#0" id="circle60"/>
	<circle cx="142.003" cy="90.0491" r="4" fill="#0" id="circle61"/>
	<circle cx="142.003" cy="106.285" r="4" fill="#0" id="circle62"/>
	<circle cx="142.003" cy="901.833" r="4" fill="#0" id="circle63"/>
	<circle cx="142.003" cy="918.069" r="4" fill="#0" id="circle64"/>
	<circle cx="142.003" cy="979.764" r="4" fill="#0" id="circle65"/>
	<circle cx="143.627" cy="418.01" r="4" fill="#0" id="circle66"/>
	<circle cx="150.121" cy="120.897" r="4" fill="#0" id="circle67"/>
	<circle cx="150.121" cy="137.133" r="4" fill="#0" id="circle68"/>
	<circle cx="150.121" cy="153.368" r="4" fill="#0" id="circle69"/>
	<circle cx="150.121" cy="169.604" r="4" fill="#0" id="circle70"/>
	<circle cx="150.121" cy="185.84" r="4" fill="#0" id="circle71"/>
	<circle cx="154.992" cy="77.0606" r="4" fill="#0" id="circle72"/>
	<circle cx="156.615" cy="427.751" r="4" fill="#0" id="circle73"/>
	<circle cx="158.239" cy="200.452" r="4" fill="#0" id="circle74"/>
	<circle cx="158.239" cy="216.687" r="4" fill="#0" id="circle75"/>
	<circle cx="158.239" cy="232.923" r="4" fill="#0" id="circle76"/>
	<circle cx="158.239" cy="249.159" r="4" fill="#0" id="circle77"/>
	<circle cx="158.239" cy="265.394" r="4" fill="#0" id="circle78"/>
	<circle cx="158.239" cy="281.63" r="4" fill="#0" id="circle79"/>
	<circle cx="158.239" cy="297.866" r="4" fill="#0" id="circle80"/>
	<circle cx="158.239" cy="314.101" r="4" fill="#0" id="circle81"/>
	<circle cx="158.239" cy="979.764" r="4" fill="#0" id="circle82"/>
	<circle cx="166.357" cy="328.714" r="4" fill="#0" id="circle83"/>
	<circle cx="167.98" cy="64.072" r="4" fill="#0" id="circle84"/>
	<circle cx="167.98" cy="440.74" r="4" fill="#0" id="circle85"/>
	<circle cx="169.604" cy="344.949" r="4" fill="#0" id="circle86"/>
	<circle cx="174.475" cy="361.185" r="4" fill="#0" id="circle87"/>
	<circle cx="174.475" cy="377.421" r="4" fill="#0" id="circle88"/>
	<circle cx="174.475" cy="393.656" r="4" fill="#0" id="circle89"/>
	<circle cx="174.475" cy="409.892" r="4" fill="#0" id="circle90"/>
	<circle cx="174.475" cy="979.764" r="4" fill="#0" id="circle91"/>
	<circle cx="176.098" cy="47.8363" r="4" fill="#0" id="circle92"/>
	<circle cx="189.087" cy="38.0949" r="4" fill="#0" id="circle93"/>
	<circle cx="190.71" cy="979.764" r="4" fill="#0" id="circle94"/>
	<circle cx="203.699" cy="46.2128" r="4" fill="#0" id="circle95"/>
	<circle cx="206.946" cy="979.764" r="4" fill="#0" id="circle96"/>
	<circle cx="211.817" cy="60.8249" r="4" fill="#0" id="circle97"/>
	<circle cx="216.687" cy="77.0606" r="4" fill="#0" id="circle98"/>
	<circle cx="221.558" cy="987.882" r="4" fill="#0" id="circle99"/>
	<circle cx="224.805" cy="91.6727" r="4" fill="#0" id="circle100"/>
	<circle cx="224.805" cy="107.908" r="4" fill="#0" id="circle101"/>
	<circle cx="232.923" cy="122.52" r="4" fill="#0" id="circle102"/>
	<circle cx="232.923" cy="138.756" r="4" fill="#0" id="circle103"/>
	<circle cx="232.923" cy="154.992" r="4" fill="#0" id="circle104"/>
	<circle cx="232.923" cy="171.227" r="4" fill="#0" id="circle105"/>
	<circle cx="237.794" cy="987.882" r="4" fill="#0" id="circle106"/>
	<circle cx="241.041" cy="185.84" r="4" fill="#0" id="circle107"/>
	<circle cx="241.041" cy="202.075" r="4" fill="#0" id="circle108"/>
	<circle cx="245.912" cy="218.311" r="4" fill="#0" id="circle109"/>
	<circle cx="249.159" cy="234.547" r="4" fill="#0" id="circle110"/>
	<circle cx="249.159" cy="250.782" r="4" fill="#0" id="circle111"/>
	<circle cx="249.159" cy="267.018" r="4" fill="#0" id="circle112"/>
	<circle cx="254.029" cy="283.254" r="4" fill="#0" id="circle113"/>
	<circle cx="254.029" cy="987.882" r="4" fill="#0" id="circle114"/>
	<circle cx="262.147" cy="297.866" r="4" fill="#0" id="circle115"/>
	<circle cx="265.394" cy="314.101" r="4" fill="#0" id="circle116"/>
	<circle cx="270.265" cy="987.882" r="4" fill="#0" id="circle117"/>
	<circle cx="273.512" cy="328.714" r="4" fill="#0" id="circle118"/>
	<circle cx="281.63" cy="343.326" r="4" fill="#0" id="circle119"/>
	<circle cx="286.501" cy="987.882" r="4" fill="#0" id="circle120"/>
	<circle cx="289.748" cy="357.938" r="4" fill="#0" id="circle121"/>
	<circle cx="297.866" cy="372.55" r="4" fill="#0" id="circle122"/>
	<circle cx="302.736" cy="987.882" r="4" fill="#0" id="circle123"/>
	<circle cx="307.607" cy="385.538" r="4" fill="#0" id="circle124"/>
	<circle cx="315.725" cy="370.926" r="4" fill="#0" id="circle125"/>
	<circle cx="318.972" cy="987.882" r="4" fill="#0" id="circle126"/>
	<circle cx="320.596" cy="349.82" r="4" fill="#0" id="circle127"/>
	<circle cx="328.714" cy="333.584" r="4" fill="#0" id="circle128"/>
	<circle cx="335.208" cy="987.882" r="4" fill="#0" id="circle129"/>
	<circle cx="336.831" cy="284.877" r="4" fill="#0" id="circle130"/>
	<circle cx="336.831" cy="301.113" r="4" fill="#0" id="circle131"/>
	<circle cx="336.831" cy="317.349" r="4" fill="#0" id="circle132"/>
	<circle cx="344.949" cy="244.288" r="4" fill="#0" id="circle133"/>
	<circle cx="344.949" cy="260.524" r="4" fill="#0" id="circle134"/>
	<circle cx="351.444" cy="987.882" r="4" fill="#0" id="circle135"/>
	<circle cx="353.067" cy="211.817" r="4" fill="#0" id="circle136"/>
	<circle cx="353.067" cy="228.052" r="4" fill="#0" id="circle137"/>
	<circle cx="361.185" cy="195.581" r="4" fill="#0" id="circle138"/>
	<circle cx="367.679" cy="987.882" r="4" fill="#0" id="circle139"/>
	<circle cx="369.303" cy="171.227" r="4" fill="#0" id="circle140"/>
	<circle cx="377.421" cy="130.638" r="4" fill="#0" id="circle141"/>
	<circle cx="377.421" cy="146.874" r="4" fill="#0" id="circle142"/>
	<circle cx="382.291" cy="996" r="4" fill="#0" id="circle143"/>
	<circle cx="385.538" cy="57.5777" r="4" fill="#0" id="circle144"/>
	<circle cx="385.538" cy="73.8134" r="4" fill="#0" id="circle145"/>
	<circle cx="385.538" cy="90.0491" r="4" fill="#0" id="circle146"/>
	<circle cx="385.538" cy="106.285" r="4" fill="#0" id="circle147"/>
	<circle cx="393.656" cy="41.3421" r="4" fill="#0" id="circle148"/>
	<circle cx="398.527" cy="996" r="4" fill="#0" id="circle149"/>
	<circle cx="406.645" cy="28.3535" r="4" fill="#0" id="circle150"/>
	<circle cx="414.763" cy="996" r="4" fill="#0" id="circle151"/>
	<circle cx="419.633" cy="15.365" r="4" fill="#0" id="circle152"/>
	<circle cx="419.633" cy="338.455" r="4" fill="#0" id="circle153"/>
	<circle cx="419.633" cy="354.691" r="4" fill="#0" id="circle154"/>
	<circle cx="419.633" cy="370.926" r="4" fill="#0" id="circle155"/>
	<circle cx="419.633" cy="387.162" r="4" fill="#0" id="circle156"/>
	<circle cx="419.633" cy="403.398" r="4" fill="#0" id="circle157"/>
	<circle cx="427.751" cy="314.101" r="4" fill="#0" id="circle158"/>
	<circle cx="430.998" cy="996" r="4" fill="#0" id="circle159"/>
	<circle cx="432.622" cy="4" r="4" fill="#0" id="circle160"/>
	<circle cx="434.245" cy="395.28" r="4" fill="#0" id="circle161"/>
	<circle cx="435.869" cy="281.63" r="4" fill="#0" id="circle162"/>
	<circle cx="435.869" cy="297.866" r="4" fill="#0" id="circle163"/>
	<circle cx="443.987" cy="249.159" r="4" fill="#0" id="circle164"/>
	<circle cx="443.987" cy="265.394" r="4" fill="#0" id="circle165"/>
	<circle cx="443.987" cy="380.668" r="4" fill="#0" id="circle166"/>
	<circle cx="447.234" cy="996" r="4" fill="#0" id="circle167"/>
	<circle cx="448.858" cy="4" r="4" fill="#0" id="circle168"/>
	<circle cx="452.105" cy="216.687" r="4" fill="#0" id="circle169"/>
	<circle cx="452.105" cy="232.923" r="4" fill="#0" id="circle170"/>
	<circle cx="452.105" cy="364.432" r="4" fill="#0" id="circle171"/>
	<circle cx="458.599" cy="341.702" r="4" fill="#0" id="circle172"/>
	<circle cx="460.223" cy="16.9885" r="4" fill="#0" id="circle173"/>
	<circle cx="460.223" cy="143.627" r="4" fill="#0" id="circle174"/>
	<circle cx="460.223" cy="159.863" r="4" fill="#0" id="circle175"/>
	<circle cx="460.223" cy="176.098" r="4" fill="#0" id="circle176"/>
	<circle cx="460.223" cy="192.334" r="4" fill="#0" id="circle177"/>
	<circle cx="460.223" cy="979.764" r="4" fill="#0" id="circle178"/>
	<circle cx="466.717" cy="309.231" r="4" fill="#0" id="circle179"/>
	<circle cx="466.717" cy="325.466" r="4" fill="#0" id="circle180"/>
	<circle cx="468.34" cy="31.6007" r="4" fill="#0" id="circle181"/>
	<circle cx="468.34" cy="111.155" r="4" fill="#0" id="circle182"/>
	<circle cx="468.34" cy="127.391" r="4" fill="#0" id="circle183"/>
	<circle cx="474.835" cy="284.877" r="4" fill="#0" id="circle184"/>
	<circle cx="476.458" cy="62.4484" r="4" fill="#0" id="circle185"/>
	<circle cx="476.458" cy="78.6841" r="4" fill="#0" id="circle186"/>
	<circle cx="476.458" cy="94.9198" r="4" fill="#0" id="circle187"/>
	<circle cx="476.458" cy="971.646" r="4" fill="#0" id="circle188"/>
	<circle cx="478.082" cy="44.5892" r="4" fill="#0" id="circle189"/>
	<circle cx="482.953" cy="244.288" r="4" fill="#0" id="circle190"/>
	<circle cx="482.953" cy="260.524" r="4" fill="#0" id="circle191"/>
	<circle cx="484.576" cy="955.411" r="4" fill="#0" id="circle192"/>
	<circle cx="491.07" cy="171.227" r="4" fill="#0" id="circle193"/>
	<circle cx="491.07" cy="187.463" r="4" fill="#0" id="circle194"/>
	<circle cx="491.07" cy="203.699" r="4" fill="#0" id="circle195"/>
	<circle cx="491.07" cy="219.935" r="4" fill="#0" id="circle196"/>
	<circle cx="492.694" cy="939.175" r="4" fill="#0" id="circle197"/>
	<circle cx="499.188" cy="138.756" r="4" fill="#0" id="circle198"/>
	<circle cx="499.188" cy="154.992" r="4" fill="#0" id="circle199"/>
	<circle cx="507.306" cy="106.285" r="4" fill="#0" id="circle200"/>
	<circle cx="507.306" cy="122.52" r="4" fill="#0" id="circle201"/>
	<circle cx="508.93" cy="939.175" r="4" fill="#0" id="circle202"/>
	<circle cx="515.424" cy="81.9313" r="4" fill="#0" id="circle203"/>
	<circle cx="521.918" cy="927.81" r="4" fill="#0" id="circle204"/>
	<circle cx="531.66" cy="77.0606" r="4" fill="#0" id="circle205"/>
	<circle cx="533.283" cy="906.704" r="4" fill="#0" id="circle206"/>
	<circle cx="541.401" cy="427.751" r="4" fill="#0" id="circle207"/>
	<circle cx="541.401" cy="443.987" r="4" fill="#0" id="circle208"/>
	<circle cx="541.401" cy="460.223" r="4" fill="#0" id="circle209"/>
	<circle cx="541.401" cy="476.458" r="4" fill="#0" id="circle210"/>
	<circle cx="544.648" cy="492.694" r="4" fill="#0" id="circle211"/>
	<circle cx="546.272" cy="68.9427" r="4" fill="#0" id="circle212"/>
	<circle cx="549.519" cy="395.28" r="4" fill="#0" id="circle213"/>
	<circle cx="549.519" cy="411.516" r="4" fill="#0" id="circle214"/>
	<circle cx="549.519" cy="508.93" r="4" fill="#0" id="circle215"/>
	<circle cx="549.519" cy="525.165" r="4" fill="#0" id="circle216"/>
	<circle cx="549.519" cy="541.401" r="4" fill="#0" id="circle217"/>
	<circle cx="549.519" cy="898.586" r="4" fill="#0" id="circle218"/>
	<circle cx="552.766" cy="557.637" r="4" fill="#0" id="circle219"/>
	<circle cx="557.637" cy="322.219" r="4" fill="#0" id="circle220"/>
	<circle cx="557.637" cy="338.455" r="4" fill="#0" id="circle221"/>
	<circle cx="557.637" cy="354.691" r="4" fill="#0" id="circle222"/>
	<circle cx="557.637" cy="370.926" r="4" fill="#0" id="circle223"/>
	<circle cx="557.637" cy="573.872" r="4" fill="#0" id="circle224"/>
	<circle cx="557.637" cy="590.108" r="4" fill="#0" id="circle225"/>
	<circle cx="557.637" cy="874.232" r="4" fill="#0" id="circle226"/>
	<circle cx="560.884" cy="60.8249" r="4" fill="#0" id="circle227"/>
	<circle cx="560.884" cy="606.344" r="4" fill="#0" id="circle228"/>
	<circle cx="565.755" cy="77.0606" r="4" fill="#0" id="circle229"/>
	<circle cx="565.755" cy="273.512" r="4" fill="#0" id="circle230"/>
	<circle cx="565.755" cy="289.748" r="4" fill="#0" id="circle231"/>
	<circle cx="565.755" cy="305.984" r="4" fill="#0" id="circle232"/>
	<circle cx="565.755" cy="622.579" r="4" fill="#0" id="circle233"/>
	<circle cx="573.872" cy="91.6727" r="4" fill="#0" id="circle234"/>
	<circle cx="573.872" cy="107.908" r="4" fill="#0" id="circle235"/>
	<circle cx="573.872" cy="224.805" r="4" fill="#0" id="circle236"/>
	<circle cx="573.872" cy="241.041" r="4" fill="#0" id="circle237"/>
	<circle cx="573.872" cy="257.277" r="4" fill="#0" id="circle238"/>
	<circle cx="573.872" cy="637.191" r="4" fill="#0" id="circle239"/>
	<circle cx="573.872" cy="866.115" r="4" fill="#0" id="circle240"/>
	<circle cx="581.99" cy="122.52" r="4" fill="#0" id="circle241"/>
	<circle cx="581.99" cy="176.098" r="4" fill="#0" id="circle242"/>
	<circle cx="581.99" cy="192.334" r="4" fill="#0" id="circle243"/>
	<circle cx="581.99" cy="208.57" r="4" fill="#0" id="circle244"/>
	<circle cx="581.99" cy="849.879" r="4" fill="#0" id="circle245"/>
	<circle cx="590.108" cy="137.133" r="4" fill="#0" id="circle246"/>
	<circle cx="590.108" cy="153.368" r="4" fill="#0" id="circle247"/>
	<circle cx="590.108" cy="632.321" r="4" fill="#0" id="circle248"/>
	<circle cx="594.979" cy="838.514" r="4" fill="#0" id="circle249"/>
	<circle cx="603.097" cy="620.956" r="4" fill="#0" id="circle250"/>
	<circle cx="606.344" cy="825.525" r="4" fill="#0" id="circle251"/>
	<circle cx="612.838" cy="601.473" r="4" fill="#0" id="circle252"/>
	<circle cx="619.332" cy="814.16" r="4" fill="#0" id="circle253"/>
	<circle cx="625.827" cy="588.484" r="4" fill="#0" id="circle254"/>
	<circle cx="629.074" cy="560.884" r="4" fill="#0" id="circle255"/>
	<circle cx="630.697" cy="801.172" r="4" fill="#0" id="circle256"/>
	<circle cx="637.191" cy="536.53" r="4" fill="#0" id="circle257"/>
	<circle cx="643.686" cy="789.807" r="4" fill="#0" id="circle258"/>
	<circle cx="645.309" cy="520.295" r="4" fill="#0" id="circle259"/>
	<circle cx="653.427" cy="495.941" r="4" fill="#0" id="circle260"/>
	<circle cx="655.051" cy="768.7" r="4" fill="#0" id="circle261"/>
	<circle cx="661.545" cy="463.47" r="4" fill="#0" id="circle262"/>
	<circle cx="661.545" cy="479.705" r="4" fill="#0" id="circle263"/>
	<circle cx="663.169" cy="752.465" r="4" fill="#0" id="circle264"/>
	<circle cx="669.663" cy="447.234" r="4" fill="#0" id="circle265"/>
	<circle cx="671.286" cy="736.229" r="4" fill="#0" id="circle266"/>
	<circle cx="677.781" cy="430.998" r="4" fill="#0" id="circle267"/>
	<circle cx="679.404" cy="711.876" r="4" fill="#0" id="circle268"/>
	<circle cx="692.393" cy="700.511" r="4" fill="#0" id="circle269"/>
	<circle cx="694.016" cy="422.881" r="4" fill="#0" id="circle270"/>
	<circle cx="695.64" cy="671.286" r="4" fill="#0" id="circle271"/>
	<circle cx="708.628" cy="659.921" r="4" fill="#0" id="circle272"/>
	<circle cx="710.252" cy="418.01" r="4" fill="#0" id="circle273"/>
	<circle cx="716.746" cy="643.686" r="4" fill="#0" id="circle274"/>
	<circle cx="724.864" cy="627.45" r="4" fill="#0" id="circle275"/>
	<circle cx="726.488" cy="418.01" r="4" fill="#0" id="circle276"/>
	<circle cx="736.229" cy="430.998" r="4" fill="#0" id="circle277"/>
	<circle cx="736.229" cy="447.234" r="4" fill="#0" id="circle278"/>
	<circle cx="736.229" cy="463.47" r="4" fill="#0" id="circle279"/>
	<circle cx="736.229" cy="479.705" r="4" fill="#0" id="circle280"/>
	<circle cx="736.229" cy="495.941" r="4" fill="#0" id="circle281"/>
	<circle cx="736.229" cy="512.177" r="4" fill="#0" id="circle282"/>
	<circle cx="736.229" cy="528.412" r="4" fill="#0" id="circle283"/>
	<circle cx="736.229" cy="544.648" r="4" fill="#0" id="circle284"/>
	<circle cx="736.229" cy="560.884" r="4" fill="#0" id="circle285"/>
	<circle cx="736.229" cy="577.119" r="4" fill="#0" id="circle286"/>
	<circle cx="736.229" cy="593.355" r="4" fill="#0" id="circle287"/>
	<circle cx="736.229" cy="609.591" r="4" fill="#0" id="circle288"/>
	</g>
</svg>