<?xml version="1.0" encoding="UTF-8" standalone="no"?>
<!-- Created with CurveBenchmark -->
<svg
	xmlns:dc="http://purl.org/dc/elements/1.1/"
	xmlns:cc="http://creativecommons.org/ns#"
	xmlns:rdf="http://www.w3.org/1999/02/22-rdf-syntax-ns#"
	xmlns:svg="http://www.w3.org/2000/svg"
	xmlns="http://www.w3.org/2000/svg"
	xmlns:sodipodi="http://sodipodi.sourceforge.net/DTD/sodipodi-0.dtd"
	xmlns:inkscape="http://www.inkscape.org/namespaces/inkscape"
	width="1000"
	height="1000"
	id="svg2"
	version="1.1"
	sodipodi:docname="manifold/crust-stef-08.png.txt">
<defs
	id="defs4" />
<metadata
	id="metadata7">
	<rdf:RDF>
		<cc:Work
			rdf:about="">
			<dc:format>image/svg+xml</dc:format>
			<dc:type
				rdf:resource="http://purl.org/dc/dcmitype/StillImage" />
			<dc:title></dc:title>
		</cc:Work>
	</rdf:RDF>
</metadata>
<g
	inkscape:label="Layer 1"
	inkscape:groupmode="layer"
	id="layer1">
	<path style="fill:none;stroke:red;stroke-width:1px;stroke-linecap:butt;stroke-linejoin:miter;stroke-opacity:1" d="M 86.5291,50.2163 94.782,33.7105 z" id="boundary" inkscape:connector-curvature="0" />
	<path style="fill:none;stroke:red;stroke-width:1px;stroke-linecap:butt;stroke-linejoin:miter;stroke-opacity:1" d="M 122.842,12.2529 107.987,20.5058 z" id="boundary" inkscape:connector-curvature="0" />
	<path style="fill:none;stroke:red;stroke-width:1px;stroke-linecap:butt;stroke-linejoin:miter;stroke-opacity:1" d="M 107.987,20.5058 94.782,33.7105 z" id="boundary" inkscape:connector-curvature="0" />
	<path style="fill:none;stroke:red;stroke-width:1px;stroke-linecap:butt;stroke-linejoin:miter;stroke-opacity:1" d="M 137.697,4 122.842,12.2529 z" id="boundary" inkscape:connector-curvature="0" />
	<path style="fill:none;stroke:red;stroke-width:1px;stroke-linecap:butt;stroke-linejoin:miter;stroke-opacity:1" d="M 86.5291,66.7221 86.5291,50.2163 z" id="boundary" inkscape:connector-curvature="0" />
	<path style="fill:none;stroke:red;stroke-width:1px;stroke-linecap:butt;stroke-linejoin:miter;stroke-opacity:1" d="M 137.697,4 154.203,4 z" id="boundary" inkscape:connector-curvature="0" />
	<path style="fill:none;stroke:red;stroke-width:1px;stroke-linecap:butt;stroke-linejoin:miter;stroke-opacity:1" d="M 86.5291,66.7221 86.5291,83.228 z" id="boundary" inkscape:connector-curvature="0" />
	<path style="fill:none;stroke:red;stroke-width:1px;stroke-linecap:butt;stroke-linejoin:miter;stroke-opacity:1" d="M 94.782,98.0832 86.5291,83.228 z" id="boundary" inkscape:connector-curvature="0" />
	<path style="fill:none;stroke:red;stroke-width:1px;stroke-linecap:butt;stroke-linejoin:miter;stroke-opacity:1" d="M 112.938,126.143 103.035,112.938 z" id="boundary" inkscape:connector-curvature="0" />
	<path style="fill:none;stroke:red;stroke-width:1px;stroke-linecap:butt;stroke-linejoin:miter;stroke-opacity:1" d="M 103.035,112.938 94.782,98.0832 z" id="boundary" inkscape:connector-curvature="0" />
	<path style="fill:none;stroke:red;stroke-width:1px;stroke-linecap:butt;stroke-linejoin:miter;stroke-opacity:1" d="M 170.709,8.95175 185.564,17.2047 z" id="boundary" inkscape:connector-curvature="0" />
	<path style="fill:none;stroke:red;stroke-width:1px;stroke-linecap:butt;stroke-linejoin:miter;stroke-opacity:1" d="M 193.817,32.0599 203.72,45.2646 z" id="boundary" inkscape:connector-curvature="0" />
	<path style="fill:none;stroke:red;stroke-width:1px;stroke-linecap:butt;stroke-linejoin:miter;stroke-opacity:1" d="M 185.564,17.2047 193.817,32.0599 z" id="boundary" inkscape:connector-curvature="0" />
	<path style="fill:none;stroke:red;stroke-width:1px;stroke-linecap:butt;stroke-linejoin:miter;stroke-opacity:1" d="M 154.203,4 170.709,8.95175 z" id="boundary" inkscape:connector-curvature="0" />
	<path style="fill:none;stroke:red;stroke-width:1px;stroke-linecap:butt;stroke-linejoin:miter;stroke-opacity:1" d="M 126.143,137.697 112.938,126.143 z" id="boundary" inkscape:connector-curvature="0" />
	<path style="fill:none;stroke:red;stroke-width:1px;stroke-linecap:butt;stroke-linejoin:miter;stroke-opacity:1" d="M 126.143,137.697 140.998,145.95 z" id="boundary" inkscape:connector-curvature="0" />
	<path style="fill:none;stroke:red;stroke-width:1px;stroke-linecap:butt;stroke-linejoin:miter;stroke-opacity:1" d="M 157.504,145.95 174.01,145.95 z" id="boundary" inkscape:connector-curvature="0" />
	<path style="fill:none;stroke:red;stroke-width:1px;stroke-linecap:butt;stroke-linejoin:miter;stroke-opacity:1" d="M 157.504,145.95 140.998,145.95 z" id="boundary" inkscape:connector-curvature="0" />
	<path style="fill:none;stroke:red;stroke-width:1px;stroke-linecap:butt;stroke-linejoin:miter;stroke-opacity:1" d="M 174.01,145.95 177.311,162.456 z" id="boundary" inkscape:connector-curvature="0" />
	<path style="fill:none;stroke:red;stroke-width:1px;stroke-linecap:butt;stroke-linejoin:miter;stroke-opacity:1" d="M 182.263,178.962 177.311,162.456 z" id="boundary" inkscape:connector-curvature="0" />
	<path style="fill:none;stroke:red;stroke-width:1px;stroke-linecap:butt;stroke-linejoin:miter;stroke-opacity:1" d="M 195.468,190.516 182.263,178.962 z" id="boundary" inkscape:connector-curvature="0" />
	<path style="fill:none;stroke:red;stroke-width:1px;stroke-linecap:butt;stroke-linejoin:miter;stroke-opacity:1" d="M 210.323,198.769 195.468,190.516 z" id="boundary" inkscape:connector-curvature="0" />
	<path style="fill:none;stroke:red;stroke-width:1px;stroke-linecap:butt;stroke-linejoin:miter;stroke-opacity:1" d="M 226.829,203.72 210.323,198.769 z" id="boundary" inkscape:connector-curvature="0" />
	<path style="fill:none;stroke:red;stroke-width:1px;stroke-linecap:butt;stroke-linejoin:miter;stroke-opacity:1" d="M 215.275,350.622 198.769,358.875 z" id="boundary" inkscape:connector-curvature="0" />
	<path style="fill:none;stroke:red;stroke-width:1px;stroke-linecap:butt;stroke-linejoin:miter;stroke-opacity:1" d="M 231.78,342.369 215.275,350.622 z" id="boundary" inkscape:connector-curvature="0" />
	<path style="fill:none;stroke:red;stroke-width:1px;stroke-linecap:butt;stroke-linejoin:miter;stroke-opacity:1" d="M 198.769,358.875 185.564,372.08 z" id="boundary" inkscape:connector-curvature="0" />
	<path style="fill:none;stroke:red;stroke-width:1px;stroke-linecap:butt;stroke-linejoin:miter;stroke-opacity:1" d="M 203.72,45.2646 216.925,55.1681 z" id="boundary" inkscape:connector-curvature="0" />
	<path style="fill:none;stroke:red;stroke-width:1px;stroke-linecap:butt;stroke-linejoin:miter;stroke-opacity:1" d="M 249.937,61.7704 233.431,61.7704 z" id="boundary" inkscape:connector-curvature="0" />
	<path style="fill:none;stroke:red;stroke-width:1px;stroke-linecap:butt;stroke-linejoin:miter;stroke-opacity:1" d="M 233.431,61.7704 216.925,55.1681 z" id="boundary" inkscape:connector-curvature="0" />
	<path style="fill:none;stroke:red;stroke-width:1px;stroke-linecap:butt;stroke-linejoin:miter;stroke-opacity:1" d="M 266.443,61.7704 249.937,61.7704 z" id="boundary" inkscape:connector-curvature="0" />
	<path style="fill:none;stroke:red;stroke-width:1px;stroke-linecap:butt;stroke-linejoin:miter;stroke-opacity:1" d="M 282.948,63.421 266.443,61.7704 z" id="boundary" inkscape:connector-curvature="0" />
	<path style="fill:none;stroke:red;stroke-width:1px;stroke-linecap:butt;stroke-linejoin:miter;stroke-opacity:1" d="M 299.454,70.0233 282.948,63.421 z" id="boundary" inkscape:connector-curvature="0" />
	<path style="fill:none;stroke:red;stroke-width:1px;stroke-linecap:butt;stroke-linejoin:miter;stroke-opacity:1" d="M 299.454,70.0233 314.309,78.2762 z" id="boundary" inkscape:connector-curvature="0" />
	<path style="fill:none;stroke:red;stroke-width:1px;stroke-linecap:butt;stroke-linejoin:miter;stroke-opacity:1" d="M 339.068,103.035 325.864,91.4809 z" id="boundary" inkscape:connector-curvature="0" />
	<path style="fill:none;stroke:red;stroke-width:1px;stroke-linecap:butt;stroke-linejoin:miter;stroke-opacity:1" d="M 339.068,103.035 353.923,111.288 z" id="boundary" inkscape:connector-curvature="0" />
	<path style="fill:none;stroke:red;stroke-width:1px;stroke-linecap:butt;stroke-linejoin:miter;stroke-opacity:1" d="M 325.864,91.4809 314.309,78.2762 z" id="boundary" inkscape:connector-curvature="0" />
	<path style="fill:none;stroke:red;stroke-width:1px;stroke-linecap:butt;stroke-linejoin:miter;stroke-opacity:1" d="M 353.923,111.288 360.526,127.794 z" id="boundary" inkscape:connector-curvature="0" />
	<path style="fill:none;stroke:red;stroke-width:1px;stroke-linecap:butt;stroke-linejoin:miter;stroke-opacity:1" d="M 241.684,211.973 253.238,225.178 z" id="boundary" inkscape:connector-curvature="0" />
	<path style="fill:none;stroke:red;stroke-width:1px;stroke-linecap:butt;stroke-linejoin:miter;stroke-opacity:1" d="M 241.684,211.973 226.829,203.72 z" id="boundary" inkscape:connector-curvature="0" />
	<path style="fill:none;stroke:red;stroke-width:1px;stroke-linecap:butt;stroke-linejoin:miter;stroke-opacity:1" d="M 266.443,236.732 253.238,225.178 z" id="boundary" inkscape:connector-curvature="0" />
	<path style="fill:none;stroke:red;stroke-width:1px;stroke-linecap:butt;stroke-linejoin:miter;stroke-opacity:1" d="M 266.443,236.732 277.997,249.937 z" id="boundary" inkscape:connector-curvature="0" />
	<path style="fill:none;stroke:red;stroke-width:1px;stroke-linecap:butt;stroke-linejoin:miter;stroke-opacity:1" d="M 291.201,261.491 277.997,249.937 z" id="boundary" inkscape:connector-curvature="0" />
	<path style="fill:none;stroke:red;stroke-width:1px;stroke-linecap:butt;stroke-linejoin:miter;stroke-opacity:1" d="M 231.78,342.369 248.286,334.116 z" id="boundary" inkscape:connector-curvature="0" />
	<path style="fill:none;stroke:red;stroke-width:1px;stroke-linecap:butt;stroke-linejoin:miter;stroke-opacity:1" d="M 264.792,334.116 248.286,334.116 z" id="boundary" inkscape:connector-curvature="0" />
	<path style="fill:none;stroke:red;stroke-width:1px;stroke-linecap:butt;stroke-linejoin:miter;stroke-opacity:1" d="M 264.792,334.116 279.647,325.864 z" id="boundary" inkscape:connector-curvature="0" />
	<path style="fill:none;stroke:red;stroke-width:1px;stroke-linecap:butt;stroke-linejoin:miter;stroke-opacity:1" d="M 296.153,319.261 279.647,325.864 z" id="boundary" inkscape:connector-curvature="0" />
	<path style="fill:none;stroke:red;stroke-width:1px;stroke-linecap:butt;stroke-linejoin:miter;stroke-opacity:1" d="M 291.201,261.491 306.057,269.744 z" id="boundary" inkscape:connector-curvature="0" />
	<path style="fill:none;stroke:red;stroke-width:1px;stroke-linecap:butt;stroke-linejoin:miter;stroke-opacity:1" d="M 306.057,269.744 319.261,281.298 z" id="boundary" inkscape:connector-curvature="0" />
	<path style="fill:none;stroke:red;stroke-width:1px;stroke-linecap:butt;stroke-linejoin:miter;stroke-opacity:1" d="M 327.514,309.358 312.659,317.611 z" id="boundary" inkscape:connector-curvature="0" />
	<path style="fill:none;stroke:red;stroke-width:1px;stroke-linecap:butt;stroke-linejoin:miter;stroke-opacity:1" d="M 319.261,281.298 327.514,309.358 z" id="boundary" inkscape:connector-curvature="0" />
	<path style="fill:none;stroke:red;stroke-width:1px;stroke-linecap:butt;stroke-linejoin:miter;stroke-opacity:1" d="M 312.659,317.611 296.153,319.261 z" id="boundary" inkscape:connector-curvature="0" />
	<path style="fill:none;stroke:red;stroke-width:1px;stroke-linecap:butt;stroke-linejoin:miter;stroke-opacity:1" d="M 367.128,401.79 350.622,401.79 z" id="boundary" inkscape:connector-curvature="0" />
	<path style="fill:none;stroke:red;stroke-width:1px;stroke-linecap:butt;stroke-linejoin:miter;stroke-opacity:1" d="M 17.2047,622.968 33.7105,622.968 z" id="boundary" inkscape:connector-curvature="0" />
	<path style="fill:none;stroke:red;stroke-width:1px;stroke-linecap:butt;stroke-linejoin:miter;stroke-opacity:1" d="M 50.2163,622.968 66.7221,622.968 z" id="boundary" inkscape:connector-curvature="0" />
	<path style="fill:none;stroke:red;stroke-width:1px;stroke-linecap:butt;stroke-linejoin:miter;stroke-opacity:1" d="M 50.2163,622.968 33.7105,622.968 z" id="boundary" inkscape:connector-curvature="0" />
	<path style="fill:none;stroke:red;stroke-width:1px;stroke-linecap:butt;stroke-linejoin:miter;stroke-opacity:1" d="M 111.288,578.403 103.035,603.161 z" id="boundary" inkscape:connector-curvature="0" />
	<path style="fill:none;stroke:red;stroke-width:1px;stroke-linecap:butt;stroke-linejoin:miter;stroke-opacity:1" d="M 99.7338,622.968 83.228,622.968 z" id="boundary" inkscape:connector-curvature="0" />
	<path style="fill:none;stroke:red;stroke-width:1px;stroke-linecap:butt;stroke-linejoin:miter;stroke-opacity:1" d="M 103.035,603.161 99.7338,622.968 z" id="boundary" inkscape:connector-curvature="0" />
	<path style="fill:none;stroke:red;stroke-width:1px;stroke-linecap:butt;stroke-linejoin:miter;stroke-opacity:1" d="M 83.228,622.968 66.7221,622.968 z" id="boundary" inkscape:connector-curvature="0" />
	<path style="fill:none;stroke:red;stroke-width:1px;stroke-linecap:butt;stroke-linejoin:miter;stroke-opacity:1" d="M 17.2047,622.968 4,636.173 z" id="boundary" inkscape:connector-curvature="0" />
	<path style="fill:none;stroke:red;stroke-width:1px;stroke-linecap:butt;stroke-linejoin:miter;stroke-opacity:1" d="M 127.794,504.126 119.541,528.885 z" id="boundary" inkscape:connector-curvature="0" />
	<path style="fill:none;stroke:red;stroke-width:1px;stroke-linecap:butt;stroke-linejoin:miter;stroke-opacity:1" d="M 136.047,487.621 127.794,504.126 z" id="boundary" inkscape:connector-curvature="0" />
	<path style="fill:none;stroke:red;stroke-width:1px;stroke-linecap:butt;stroke-linejoin:miter;stroke-opacity:1" d="M 119.541,528.885 119.541,545.391 z" id="boundary" inkscape:connector-curvature="0" />
	<path style="fill:none;stroke:red;stroke-width:1px;stroke-linecap:butt;stroke-linejoin:miter;stroke-opacity:1" d="M 119.541,545.391 111.288,561.897 z" id="boundary" inkscape:connector-curvature="0" />
	<path style="fill:none;stroke:red;stroke-width:1px;stroke-linecap:butt;stroke-linejoin:miter;stroke-opacity:1" d="M 144.3,471.115 136.047,487.621 z" id="boundary" inkscape:connector-curvature="0" />
	<path style="fill:none;stroke:red;stroke-width:1px;stroke-linecap:butt;stroke-linejoin:miter;stroke-opacity:1" d="M 152.552,454.609 144.3,471.115 z" id="boundary" inkscape:connector-curvature="0" />
	<path style="fill:none;stroke:red;stroke-width:1px;stroke-linecap:butt;stroke-linejoin:miter;stroke-opacity:1" d="M 111.288,561.897 111.288,578.403 z" id="boundary" inkscape:connector-curvature="0" />
	<path style="fill:none;stroke:red;stroke-width:1px;stroke-linecap:butt;stroke-linejoin:miter;stroke-opacity:1" d="M 12.2529,651.028 4,636.173 z" id="boundary" inkscape:connector-curvature="0" />
	<path style="fill:none;stroke:red;stroke-width:1px;stroke-linecap:butt;stroke-linejoin:miter;stroke-opacity:1" d="M 28.7587,657.631 12.2529,651.028 z" id="boundary" inkscape:connector-curvature="0" />
	<path style="fill:none;stroke:red;stroke-width:1px;stroke-linecap:butt;stroke-linejoin:miter;stroke-opacity:1" d="M 38.6622,670.835 51.8669,682.389 z" id="boundary" inkscape:connector-curvature="0" />
	<path style="fill:none;stroke:red;stroke-width:1px;stroke-linecap:butt;stroke-linejoin:miter;stroke-opacity:1" d="M 38.6622,670.835 28.7587,657.631 z" id="boundary" inkscape:connector-curvature="0" />
	<path style="fill:none;stroke:red;stroke-width:1px;stroke-linecap:butt;stroke-linejoin:miter;stroke-opacity:1" d="M 66.7221,690.642 81.5774,698.895 z" id="boundary" inkscape:connector-curvature="0" />
	<path style="fill:none;stroke:red;stroke-width:1px;stroke-linecap:butt;stroke-linejoin:miter;stroke-opacity:1" d="M 51.8669,682.389 66.7221,690.642 z" id="boundary" inkscape:connector-curvature="0" />
	<path style="fill:none;stroke:red;stroke-width:1px;stroke-linecap:butt;stroke-linejoin:miter;stroke-opacity:1" d="M 94.782,708.799 81.5774,698.895 z" id="boundary" inkscape:connector-curvature="0" />
	<path style="fill:none;stroke:red;stroke-width:1px;stroke-linecap:butt;stroke-linejoin:miter;stroke-opacity:1" d="M 111.288,715.401 126.143,723.654 z" id="boundary" inkscape:connector-curvature="0" />
	<path style="fill:none;stroke:red;stroke-width:1px;stroke-linecap:butt;stroke-linejoin:miter;stroke-opacity:1" d="M 111.288,715.401 94.782,708.799 z" id="boundary" inkscape:connector-curvature="0" />
	<path style="fill:none;stroke:red;stroke-width:1px;stroke-linecap:butt;stroke-linejoin:miter;stroke-opacity:1" d="M 140.998,713.75 126.143,723.654 z" id="boundary" inkscape:connector-curvature="0" />
	<path style="fill:none;stroke:red;stroke-width:1px;stroke-linecap:butt;stroke-linejoin:miter;stroke-opacity:1" d="M 154.203,698.895 140.998,713.75 z" id="boundary" inkscape:connector-curvature="0" />
	<path style="fill:none;stroke:red;stroke-width:1px;stroke-linecap:butt;stroke-linejoin:miter;stroke-opacity:1" d="M 177.311,388.586 169.058,405.092 z" id="boundary" inkscape:connector-curvature="0" />
	<path style="fill:none;stroke:red;stroke-width:1px;stroke-linecap:butt;stroke-linejoin:miter;stroke-opacity:1" d="M 177.311,388.586 185.564,372.08 z" id="boundary" inkscape:connector-curvature="0" />
	<path style="fill:none;stroke:red;stroke-width:1px;stroke-linecap:butt;stroke-linejoin:miter;stroke-opacity:1" d="M 236.732,418.296 220.226,426.549 z" id="boundary" inkscape:connector-curvature="0" />
	<path style="fill:none;stroke:red;stroke-width:1px;stroke-linecap:butt;stroke-linejoin:miter;stroke-opacity:1" d="M 152.552,438.103 160.805,421.597 z" id="boundary" inkscape:connector-curvature="0" />
	<path style="fill:none;stroke:red;stroke-width:1px;stroke-linecap:butt;stroke-linejoin:miter;stroke-opacity:1" d="M 152.552,454.609 152.552,438.103 z" id="boundary" inkscape:connector-curvature="0" />
	<path style="fill:none;stroke:red;stroke-width:1px;stroke-linecap:butt;stroke-linejoin:miter;stroke-opacity:1" d="M 160.805,421.597 169.058,405.092 z" id="boundary" inkscape:connector-curvature="0" />
	<path style="fill:none;stroke:red;stroke-width:1px;stroke-linecap:butt;stroke-linejoin:miter;stroke-opacity:1" d="M 220.226,426.549 211.973,443.055 z" id="boundary" inkscape:connector-curvature="0" />
	<path style="fill:none;stroke:red;stroke-width:1px;stroke-linecap:butt;stroke-linejoin:miter;stroke-opacity:1" d="M 211.973,443.055 211.973,459.561 z" id="boundary" inkscape:connector-curvature="0" />
	<path style="fill:none;stroke:red;stroke-width:1px;stroke-linecap:butt;stroke-linejoin:miter;stroke-opacity:1" d="M 253.238,410.043 236.732,418.296 z" id="boundary" inkscape:connector-curvature="0" />
	<path style="fill:none;stroke:red;stroke-width:1px;stroke-linecap:butt;stroke-linejoin:miter;stroke-opacity:1" d="M 350.622,401.79 334.116,401.79 z" id="boundary" inkscape:connector-curvature="0" />
	<path style="fill:none;stroke:red;stroke-width:1px;stroke-linecap:butt;stroke-linejoin:miter;stroke-opacity:1" d="M 334.116,401.79 319.261,410.043 z" id="boundary" inkscape:connector-curvature="0" />
	<path style="fill:none;stroke:red;stroke-width:1px;stroke-linecap:butt;stroke-linejoin:miter;stroke-opacity:1" d="M 269.744,410.043 253.238,410.043 z" id="boundary" inkscape:connector-curvature="0" />
	<path style="fill:none;stroke:red;stroke-width:1px;stroke-linecap:butt;stroke-linejoin:miter;stroke-opacity:1" d="M 286.25,410.043 302.755,410.043 z" id="boundary" inkscape:connector-curvature="0" />
	<path style="fill:none;stroke:red;stroke-width:1px;stroke-linecap:butt;stroke-linejoin:miter;stroke-opacity:1" d="M 286.25,410.043 269.744,410.043 z" id="boundary" inkscape:connector-curvature="0" />
	<path style="fill:none;stroke:red;stroke-width:1px;stroke-linecap:butt;stroke-linejoin:miter;stroke-opacity:1" d="M 302.755,410.043 319.261,410.043 z" id="boundary" inkscape:connector-curvature="0" />
	<path style="fill:none;stroke:red;stroke-width:1px;stroke-linecap:butt;stroke-linejoin:miter;stroke-opacity:1" d="M 192.166,530.536 178.962,542.09 z" id="boundary" inkscape:connector-curvature="0" />
	<path style="fill:none;stroke:red;stroke-width:1px;stroke-linecap:butt;stroke-linejoin:miter;stroke-opacity:1" d="M 178.962,542.09 170.709,558.596 z" id="boundary" inkscape:connector-curvature="0" />
	<path style="fill:none;stroke:red;stroke-width:1px;stroke-linecap:butt;stroke-linejoin:miter;stroke-opacity:1" d="M 154.203,599.86 154.203,616.366 z" id="boundary" inkscape:connector-curvature="0" />
	<path style="fill:none;stroke:red;stroke-width:1px;stroke-linecap:butt;stroke-linejoin:miter;stroke-opacity:1" d="M 154.203,632.872 154.203,649.378 z" id="boundary" inkscape:connector-curvature="0" />
	<path style="fill:none;stroke:red;stroke-width:1px;stroke-linecap:butt;stroke-linejoin:miter;stroke-opacity:1" d="M 162.456,575.101 170.709,558.596 z" id="boundary" inkscape:connector-curvature="0" />
	<path style="fill:none;stroke:red;stroke-width:1px;stroke-linecap:butt;stroke-linejoin:miter;stroke-opacity:1" d="M 154.203,632.872 154.203,616.366 z" id="boundary" inkscape:connector-curvature="0" />
	<path style="fill:none;stroke:red;stroke-width:1px;stroke-linecap:butt;stroke-linejoin:miter;stroke-opacity:1" d="M 154.203,665.884 154.203,682.389 z" id="boundary" inkscape:connector-curvature="0" />
	<path style="fill:none;stroke:red;stroke-width:1px;stroke-linecap:butt;stroke-linejoin:miter;stroke-opacity:1" d="M 154.203,665.884 154.203,649.378 z" id="boundary" inkscape:connector-curvature="0" />
	<path style="fill:none;stroke:red;stroke-width:1px;stroke-linecap:butt;stroke-linejoin:miter;stroke-opacity:1" d="M 154.203,682.389 154.203,698.895 z" id="boundary" inkscape:connector-curvature="0" />
	<path style="fill:none;stroke:red;stroke-width:1px;stroke-linecap:butt;stroke-linejoin:miter;stroke-opacity:1" d="M 154.203,599.86 162.456,575.101 z" id="boundary" inkscape:connector-curvature="0" />
	<path style="fill:none;stroke:red;stroke-width:1px;stroke-linecap:butt;stroke-linejoin:miter;stroke-opacity:1" d="M 211.973,459.561 203.72,484.319 z" id="boundary" inkscape:connector-curvature="0" />
	<path style="fill:none;stroke:red;stroke-width:1px;stroke-linecap:butt;stroke-linejoin:miter;stroke-opacity:1" d="M 203.72,484.319 200.419,514.03 z" id="boundary" inkscape:connector-curvature="0" />
	<path style="fill:none;stroke:red;stroke-width:1px;stroke-linecap:butt;stroke-linejoin:miter;stroke-opacity:1" d="M 192.166,530.536 200.419,514.03 z" id="boundary" inkscape:connector-curvature="0" />
	<path style="fill:none;stroke:red;stroke-width:1px;stroke-linecap:butt;stroke-linejoin:miter;stroke-opacity:1" d="M 377.032,132.745 388.586,145.95 z" id="boundary" inkscape:connector-curvature="0" />
	<path style="fill:none;stroke:red;stroke-width:1px;stroke-linecap:butt;stroke-linejoin:miter;stroke-opacity:1" d="M 377.032,132.745 360.526,127.794 z" id="boundary" inkscape:connector-curvature="0" />
	<path style="fill:none;stroke:red;stroke-width:1px;stroke-linecap:butt;stroke-linejoin:miter;stroke-opacity:1" d="M 388.586,145.95 405.092,152.552 z" id="boundary" inkscape:connector-curvature="0" />
	<path style="fill:none;stroke:red;stroke-width:1px;stroke-linecap:butt;stroke-linejoin:miter;stroke-opacity:1" d="M 416.646,165.757 405.092,152.552 z" id="boundary" inkscape:connector-curvature="0" />
	<path style="fill:none;stroke:red;stroke-width:1px;stroke-linecap:butt;stroke-linejoin:miter;stroke-opacity:1" d="M 429.85,177.311 444.705,185.564 z" id="boundary" inkscape:connector-curvature="0" />
	<path style="fill:none;stroke:red;stroke-width:1px;stroke-linecap:butt;stroke-linejoin:miter;stroke-opacity:1" d="M 451.308,202.07 464.512,211.973 z" id="boundary" inkscape:connector-curvature="0" />
	<path style="fill:none;stroke:red;stroke-width:1px;stroke-linecap:butt;stroke-linejoin:miter;stroke-opacity:1" d="M 444.705,185.564 451.308,202.07 z" id="boundary" inkscape:connector-curvature="0" />
	<path style="fill:none;stroke:red;stroke-width:1px;stroke-linecap:butt;stroke-linejoin:miter;stroke-opacity:1" d="M 416.646,165.757 429.85,177.311 z" id="boundary" inkscape:connector-curvature="0" />
	<path style="fill:none;stroke:red;stroke-width:1px;stroke-linecap:butt;stroke-linejoin:miter;stroke-opacity:1" d="M 476.067,225.178 484.319,240.033 z" id="boundary" inkscape:connector-curvature="0" />
	<path style="fill:none;stroke:red;stroke-width:1px;stroke-linecap:butt;stroke-linejoin:miter;stroke-opacity:1" d="M 476.067,225.178 464.512,211.973 z" id="boundary" inkscape:connector-curvature="0" />
	<path style="fill:none;stroke:red;stroke-width:1px;stroke-linecap:butt;stroke-linejoin:miter;stroke-opacity:1" d="M 495.874,253.238 504.126,268.093 z" id="boundary" inkscape:connector-curvature="0" />
	<path style="fill:none;stroke:red;stroke-width:1px;stroke-linecap:butt;stroke-linejoin:miter;stroke-opacity:1" d="M 504.126,268.093 515.681,281.298 z" id="boundary" inkscape:connector-curvature="0" />
	<path style="fill:none;stroke:red;stroke-width:1px;stroke-linecap:butt;stroke-linejoin:miter;stroke-opacity:1" d="M 523.933,296.153 515.681,281.298 z" id="boundary" inkscape:connector-curvature="0" />
	<path style="fill:none;stroke:red;stroke-width:1px;stroke-linecap:butt;stroke-linejoin:miter;stroke-opacity:1" d="M 484.319,240.033 495.874,253.238 z" id="boundary" inkscape:connector-curvature="0" />
	<path style="fill:none;stroke:red;stroke-width:1px;stroke-linecap:butt;stroke-linejoin:miter;stroke-opacity:1" d="M 533.837,309.358 523.933,296.153 z" id="boundary" inkscape:connector-curvature="0" />
	<path style="fill:none;stroke:red;stroke-width:1px;stroke-linecap:butt;stroke-linejoin:miter;stroke-opacity:1" d="M 414.995,393.537 398.489,393.537 z" id="boundary" inkscape:connector-curvature="0" />
	<path style="fill:none;stroke:red;stroke-width:1px;stroke-linecap:butt;stroke-linejoin:miter;stroke-opacity:1" d="M 381.983,393.537 398.489,393.537 z" id="boundary" inkscape:connector-curvature="0" />
	<path style="fill:none;stroke:red;stroke-width:1px;stroke-linecap:butt;stroke-linejoin:miter;stroke-opacity:1" d="M 381.983,393.537 367.128,401.79 z" id="boundary" inkscape:connector-curvature="0" />
	<path style="fill:none;stroke:red;stroke-width:1px;stroke-linecap:butt;stroke-linejoin:miter;stroke-opacity:1" d="M 414.995,393.537 431.501,393.537 z" id="boundary" inkscape:connector-curvature="0" />
	<path style="fill:none;stroke:red;stroke-width:1px;stroke-linecap:butt;stroke-linejoin:miter;stroke-opacity:1" d="M 448.007,393.537 464.512,393.537 z" id="boundary" inkscape:connector-curvature="0" />
	<path style="fill:none;stroke:red;stroke-width:1px;stroke-linecap:butt;stroke-linejoin:miter;stroke-opacity:1" d="M 431.501,393.537 448.007,393.537 z" id="boundary" inkscape:connector-curvature="0" />
	<path style="fill:none;stroke:red;stroke-width:1px;stroke-linecap:butt;stroke-linejoin:miter;stroke-opacity:1" d="M 547.042,319.261 533.837,309.358 z" id="boundary" inkscape:connector-curvature="0" />
	<path style="fill:none;stroke:red;stroke-width:1px;stroke-linecap:butt;stroke-linejoin:miter;stroke-opacity:1" d="M 479.368,401.79 492.572,413.344 z" id="boundary" inkscape:connector-curvature="0" />
	<path style="fill:none;stroke:red;stroke-width:1px;stroke-linecap:butt;stroke-linejoin:miter;stroke-opacity:1" d="M 479.368,401.79 464.512,393.537 z" id="boundary" inkscape:connector-curvature="0" />
	<path style="fill:none;stroke:red;stroke-width:1px;stroke-linecap:butt;stroke-linejoin:miter;stroke-opacity:1" d="M 492.572,413.344 504.126,426.549 z" id="boundary" inkscape:connector-curvature="0" />
	<path style="fill:none;stroke:red;stroke-width:1px;stroke-linecap:butt;stroke-linejoin:miter;stroke-opacity:1" d="M 504.126,426.549 517.331,438.103 z" id="boundary" inkscape:connector-curvature="0" />
	<path style="fill:none;stroke:red;stroke-width:1px;stroke-linecap:butt;stroke-linejoin:miter;stroke-opacity:1" d="M 528.885,451.308 517.331,438.103 z" id="boundary" inkscape:connector-curvature="0" />
	<path style="fill:none;stroke:red;stroke-width:1px;stroke-linecap:butt;stroke-linejoin:miter;stroke-opacity:1" d="M 542.09,462.862 528.885,451.308 z" id="boundary" inkscape:connector-curvature="0" />
	<path style="fill:none;stroke:red;stroke-width:1px;stroke-linecap:butt;stroke-linejoin:miter;stroke-opacity:1" d="M 547.042,319.261 558.596,332.466 z" id="boundary" inkscape:connector-curvature="0" />
	<path style="fill:none;stroke:red;stroke-width:1px;stroke-linecap:butt;stroke-linejoin:miter;stroke-opacity:1" d="M 571.8,342.369 586.656,350.622 z" id="boundary" inkscape:connector-curvature="0" />
	<path style="fill:none;stroke:red;stroke-width:1px;stroke-linecap:butt;stroke-linejoin:miter;stroke-opacity:1" d="M 586.656,350.622 601.511,358.875 z" id="boundary" inkscape:connector-curvature="0" />
	<path style="fill:none;stroke:red;stroke-width:1px;stroke-linecap:butt;stroke-linejoin:miter;stroke-opacity:1" d="M 571.8,342.369 558.596,332.466 z" id="boundary" inkscape:connector-curvature="0" />
	<path style="fill:none;stroke:red;stroke-width:1px;stroke-linecap:butt;stroke-linejoin:miter;stroke-opacity:1" d="M 624.619,383.634 614.715,370.429 z" id="boundary" inkscape:connector-curvature="0" />
	<path style="fill:none;stroke:red;stroke-width:1px;stroke-linecap:butt;stroke-linejoin:miter;stroke-opacity:1" d="M 624.619,383.634 632.872,398.489 z" id="boundary" inkscape:connector-curvature="0" />
	<path style="fill:none;stroke:red;stroke-width:1px;stroke-linecap:butt;stroke-linejoin:miter;stroke-opacity:1" d="M 601.511,358.875 614.715,370.429 z" id="boundary" inkscape:connector-curvature="0" />
	<path style="fill:none;stroke:red;stroke-width:1px;stroke-linecap:butt;stroke-linejoin:miter;stroke-opacity:1" d="M 568.499,484.319 553.644,476.067 z" id="boundary" inkscape:connector-curvature="0" />
	<path style="fill:none;stroke:red;stroke-width:1px;stroke-linecap:butt;stroke-linejoin:miter;stroke-opacity:1" d="M 553.644,476.067 542.09,462.862 z" id="boundary" inkscape:connector-curvature="0" />
	<path style="fill:none;stroke:red;stroke-width:1px;stroke-linecap:butt;stroke-linejoin:miter;stroke-opacity:1" d="M 632.872,398.489 646.077,410.043 z" id="boundary" inkscape:connector-curvature="0" />
	<path style="fill:none;stroke:red;stroke-width:1px;stroke-linecap:butt;stroke-linejoin:miter;stroke-opacity:1" d="M 657.631,423.248 646.077,410.043 z" id="boundary" inkscape:connector-curvature="0" />
	<path style="fill:none;stroke:red;stroke-width:1px;stroke-linecap:butt;stroke-linejoin:miter;stroke-opacity:1" d="M 670.835,433.151 657.631,423.248 z" id="boundary" inkscape:connector-curvature="0" />
	<path style="fill:none;stroke:red;stroke-width:1px;stroke-linecap:butt;stroke-linejoin:miter;stroke-opacity:1" d="M 685.691,441.404 670.835,433.151 z" id="boundary" inkscape:connector-curvature="0" />
	<path style="fill:none;stroke:red;stroke-width:1px;stroke-linecap:butt;stroke-linejoin:miter;stroke-opacity:1" d="M 700.546,449.657 717.052,449.657 z" id="boundary" inkscape:connector-curvature="0" />
	<path style="fill:none;stroke:red;stroke-width:1px;stroke-linecap:butt;stroke-linejoin:miter;stroke-opacity:1" d="M 700.546,449.657 685.691,441.404 z" id="boundary" inkscape:connector-curvature="0" />
	<path style="fill:none;stroke:red;stroke-width:1px;stroke-linecap:butt;stroke-linejoin:miter;stroke-opacity:1" d="M 746.762,466.163 731.907,457.91 z" id="boundary" inkscape:connector-curvature="0" />
	<path style="fill:none;stroke:red;stroke-width:1px;stroke-linecap:butt;stroke-linejoin:miter;stroke-opacity:1" d="M 731.907,457.91 717.052,449.657 z" id="boundary" inkscape:connector-curvature="0" />
	<path style="fill:none;stroke:red;stroke-width:1px;stroke-linecap:butt;stroke-linejoin:miter;stroke-opacity:1" d="M 746.762,466.163 763.268,469.464 z" id="boundary" inkscape:connector-curvature="0" />
	<path style="fill:none;stroke:red;stroke-width:1px;stroke-linecap:butt;stroke-linejoin:miter;stroke-opacity:1" d="M 779.774,474.416 763.268,469.464 z" id="boundary" inkscape:connector-curvature="0" />
	<path style="fill:none;stroke:red;stroke-width:1px;stroke-linecap:butt;stroke-linejoin:miter;stroke-opacity:1" d="M 794.629,482.669 779.774,474.416 z" id="boundary" inkscape:connector-curvature="0" />
	<path style="fill:none;stroke:red;stroke-width:1px;stroke-linecap:butt;stroke-linejoin:miter;stroke-opacity:1" d="M 568.499,484.319 581.704,494.223 z" id="boundary" inkscape:connector-curvature="0" />
	<path style="fill:none;stroke:red;stroke-width:1px;stroke-linecap:butt;stroke-linejoin:miter;stroke-opacity:1" d="M 593.258,507.428 581.704,494.223 z" id="boundary" inkscape:connector-curvature="0" />
	<path style="fill:none;stroke:red;stroke-width:1px;stroke-linecap:butt;stroke-linejoin:miter;stroke-opacity:1" d="M 609.764,514.03 593.258,507.428 z" id="boundary" inkscape:connector-curvature="0" />
	<path style="fill:none;stroke:red;stroke-width:1px;stroke-linecap:butt;stroke-linejoin:miter;stroke-opacity:1" d="M 609.764,514.03 626.27,517.331 z" id="boundary" inkscape:connector-curvature="0" />
	<path style="fill:none;stroke:red;stroke-width:1px;stroke-linecap:butt;stroke-linejoin:miter;stroke-opacity:1" d="M 641.125,525.584 657.631,528.885 z" id="boundary" inkscape:connector-curvature="0" />
	<path style="fill:none;stroke:red;stroke-width:1px;stroke-linecap:butt;stroke-linejoin:miter;stroke-opacity:1" d="M 641.125,525.584 626.27,517.331 z" id="boundary" inkscape:connector-curvature="0" />
	<path style="fill:none;stroke:red;stroke-width:1px;stroke-linecap:butt;stroke-linejoin:miter;stroke-opacity:1" d="M 674.136,533.837 657.631,528.885 z" id="boundary" inkscape:connector-curvature="0" />
	<path style="fill:none;stroke:red;stroke-width:1px;stroke-linecap:butt;stroke-linejoin:miter;stroke-opacity:1" d="M 690.642,537.138 674.136,533.837 z" id="boundary" inkscape:connector-curvature="0" />
	<path style="fill:none;stroke:red;stroke-width:1px;stroke-linecap:butt;stroke-linejoin:miter;stroke-opacity:1" d="M 722.003,550.343 705.498,545.391 z" id="boundary" inkscape:connector-curvature="0" />
	<path style="fill:none;stroke:red;stroke-width:1px;stroke-linecap:butt;stroke-linejoin:miter;stroke-opacity:1" d="M 705.498,545.391 690.642,537.138 z" id="boundary" inkscape:connector-curvature="0" />
	<path style="fill:none;stroke:red;stroke-width:1px;stroke-linecap:butt;stroke-linejoin:miter;stroke-opacity:1" d="M 722.003,550.343 736.859,558.596 z" id="boundary" inkscape:connector-curvature="0" />
	<path style="fill:none;stroke:red;stroke-width:1px;stroke-linecap:butt;stroke-linejoin:miter;stroke-opacity:1" d="M 751.714,566.849 768.22,566.849 z" id="boundary" inkscape:connector-curvature="0" />
	<path style="fill:none;stroke:red;stroke-width:1px;stroke-linecap:butt;stroke-linejoin:miter;stroke-opacity:1" d="M 751.714,566.849 736.859,558.596 z" id="boundary" inkscape:connector-curvature="0" />
	<path style="fill:none;stroke:red;stroke-width:1px;stroke-linecap:butt;stroke-linejoin:miter;stroke-opacity:1" d="M 768.22,566.849 784.725,573.451 z" id="boundary" inkscape:connector-curvature="0" />
	<path style="fill:none;stroke:red;stroke-width:1px;stroke-linecap:butt;stroke-linejoin:miter;stroke-opacity:1" d="M 784.725,573.451 801.231,575.101 z" id="boundary" inkscape:connector-curvature="0" />
	<path style="fill:none;stroke:red;stroke-width:1px;stroke-linecap:butt;stroke-linejoin:miter;stroke-opacity:1" d="M 794.629,482.669 811.135,484.319 z" id="boundary" inkscape:connector-curvature="0" />
	<path style="fill:none;stroke:red;stroke-width:1px;stroke-linecap:butt;stroke-linejoin:miter;stroke-opacity:1" d="M 811.135,484.319 825.99,492.572 z" id="boundary" inkscape:connector-curvature="0" />
	<path style="fill:none;stroke:red;stroke-width:1px;stroke-linecap:butt;stroke-linejoin:miter;stroke-opacity:1" d="M 842.496,499.175 825.99,492.572 z" id="boundary" inkscape:connector-curvature="0" />
	<path style="fill:none;stroke:red;stroke-width:1px;stroke-linecap:butt;stroke-linejoin:miter;stroke-opacity:1" d="M 842.496,499.175 857.351,507.428 z" id="boundary" inkscape:connector-curvature="0" />
	<path style="fill:none;stroke:red;stroke-width:1px;stroke-linecap:butt;stroke-linejoin:miter;stroke-opacity:1" d="M 872.206,515.681 857.351,507.428 z" id="boundary" inkscape:connector-curvature="0" />
	<path style="fill:none;stroke:red;stroke-width:1px;stroke-linecap:butt;stroke-linejoin:miter;stroke-opacity:1" d="M 887.062,523.933 872.206,515.681 z" id="boundary" inkscape:connector-curvature="0" />
	<path style="fill:none;stroke:red;stroke-width:1px;stroke-linecap:butt;stroke-linejoin:miter;stroke-opacity:1" d="M 816.087,583.354 801.231,575.101 z" id="boundary" inkscape:connector-curvature="0" />
	<path style="fill:none;stroke:red;stroke-width:1px;stroke-linecap:butt;stroke-linejoin:miter;stroke-opacity:1" d="M 887.062,523.933 903.567,523.933 z" id="boundary" inkscape:connector-curvature="0" />
	<path style="fill:none;stroke:red;stroke-width:1px;stroke-linecap:butt;stroke-linejoin:miter;stroke-opacity:1" d="M 920.073,523.933 903.567,523.933 z" id="boundary" inkscape:connector-curvature="0" />
	<path style="fill:none;stroke:red;stroke-width:1px;stroke-linecap:butt;stroke-linejoin:miter;stroke-opacity:1" d="M 936.579,523.933 920.073,523.933 z" id="boundary" inkscape:connector-curvature="0" />
	<path style="fill:none;stroke:red;stroke-width:1px;stroke-linecap:butt;stroke-linejoin:miter;stroke-opacity:1" d="M 936.579,523.933 953.085,523.933 z" id="boundary" inkscape:connector-curvature="0" />
	<path style="fill:none;stroke:red;stroke-width:1px;stroke-linecap:butt;stroke-linejoin:miter;stroke-opacity:1" d="M 967.94,532.186 979.494,545.391 z" id="boundary" inkscape:connector-curvature="0" />
	<path style="fill:none;stroke:red;stroke-width:1px;stroke-linecap:butt;stroke-linejoin:miter;stroke-opacity:1" d="M 953.085,523.933 967.94,532.186 z" id="boundary" inkscape:connector-curvature="0" />
	<path style="fill:none;stroke:red;stroke-width:1px;stroke-linecap:butt;stroke-linejoin:miter;stroke-opacity:1" d="M 979.494,545.391 987.747,560.246 z" id="boundary" inkscape:connector-curvature="0" />
	<path style="fill:none;stroke:red;stroke-width:1px;stroke-linecap:butt;stroke-linejoin:miter;stroke-opacity:1" d="M 996,575.101 987.747,560.246 z" id="boundary" inkscape:connector-curvature="0" />
	<path style="fill:none;stroke:red;stroke-width:1px;stroke-linecap:butt;stroke-linejoin:miter;stroke-opacity:1" d="M 816.087,583.354 832.592,583.354 z" id="boundary" inkscape:connector-curvature="0" />
	<path style="fill:none;stroke:red;stroke-width:1px;stroke-linecap:butt;stroke-linejoin:miter;stroke-opacity:1" d="M 832.592,583.354 849.098,583.354 z" id="boundary" inkscape:connector-curvature="0" />
	<path style="fill:none;stroke:red;stroke-width:1px;stroke-linecap:butt;stroke-linejoin:miter;stroke-opacity:1" d="M 882.11,591.607 865.604,588.306 z" id="boundary" inkscape:connector-curvature="0" />
	<path style="fill:none;stroke:red;stroke-width:1px;stroke-linecap:butt;stroke-linejoin:miter;stroke-opacity:1" d="M 849.098,583.354 865.604,588.306 z" id="boundary" inkscape:connector-curvature="0" />
	<path style="fill:none;stroke:red;stroke-width:1px;stroke-linecap:butt;stroke-linejoin:miter;stroke-opacity:1" d="M 882.11,591.607 898.616,596.559 z" id="boundary" inkscape:connector-curvature="0" />
	<path style="fill:none;stroke:red;stroke-width:1px;stroke-linecap:butt;stroke-linejoin:miter;stroke-opacity:1" d="M 913.471,604.812 926.676,616.366 z" id="boundary" inkscape:connector-curvature="0" />
	<path style="fill:none;stroke:red;stroke-width:1px;stroke-linecap:butt;stroke-linejoin:miter;stroke-opacity:1" d="M 946.483,644.426 933.278,632.872 z" id="boundary" inkscape:connector-curvature="0" />
	<path style="fill:none;stroke:red;stroke-width:1px;stroke-linecap:butt;stroke-linejoin:miter;stroke-opacity:1" d="M 898.616,596.559 913.471,604.812 z" id="boundary" inkscape:connector-curvature="0" />
	<path style="fill:none;stroke:red;stroke-width:1px;stroke-linecap:butt;stroke-linejoin:miter;stroke-opacity:1" d="M 926.676,616.366 933.278,632.872 z" id="boundary" inkscape:connector-curvature="0" />
	<path style="fill:none;stroke:red;stroke-width:1px;stroke-linecap:butt;stroke-linejoin:miter;stroke-opacity:1" d="M 946.483,644.426 958.037,657.631 z" id="boundary" inkscape:connector-curvature="0" />
	<path style="fill:none;stroke:red;stroke-width:1px;stroke-linecap:butt;stroke-linejoin:miter;stroke-opacity:1" d="M 996,591.607 996,608.113 z" id="boundary" inkscape:connector-curvature="0" />
	<path style="fill:none;stroke:red;stroke-width:1px;stroke-linecap:butt;stroke-linejoin:miter;stroke-opacity:1" d="M 996,608.113 996,624.619 z" id="boundary" inkscape:connector-curvature="0" />
	<path style="fill:none;stroke:red;stroke-width:1px;stroke-linecap:butt;stroke-linejoin:miter;stroke-opacity:1" d="M 996,575.101 996,591.607 z" id="boundary" inkscape:connector-curvature="0" />
	<path style="fill:none;stroke:red;stroke-width:1px;stroke-linecap:butt;stroke-linejoin:miter;stroke-opacity:1" d="M 958.037,657.631 969.591,670.835 z" id="boundary" inkscape:connector-curvature="0" />
	<path style="fill:none;stroke:red;stroke-width:1px;stroke-linecap:butt;stroke-linejoin:miter;stroke-opacity:1" d="M 996,641.125 996,624.619 z" id="boundary" inkscape:connector-curvature="0" />
	<path style="fill:none;stroke:red;stroke-width:1px;stroke-linecap:butt;stroke-linejoin:miter;stroke-opacity:1" d="M 996,641.125 986.097,669.185 z" id="boundary" inkscape:connector-curvature="0" />
	<path style="fill:none;stroke:red;stroke-width:1px;stroke-linecap:butt;stroke-linejoin:miter;stroke-opacity:1" d="M 986.097,669.185 969.591,670.835 z" id="boundary" inkscape:connector-curvature="0" />
	<circle cx="4" cy="636.173" r="4" fill="#0" id="circle0"/>
	<circle cx="12.2529" cy="651.028" r="4" fill="#0" id="circle1"/>
	<circle cx="17.2047" cy="622.968" r="4" fill="#0" id="circle2"/>
	<circle cx="28.7587" cy="657.631" r="4" fill="#0" id="circle3"/>
	<circle cx="33.7105" cy="622.968" r="4" fill="#0" id="circle4"/>
	<circle cx="38.6622" cy="670.835" r="4" fill="#0" id="circle5"/>
	<circle cx="50.2163" cy="622.968" r="4" fill="#0" id="circle6"/>
	<circle cx="51.8669" cy="682.389" r="4" fill="#0" id="circle7"/>
	<circle cx="66.7221" cy="622.968" r="4" fill="#0" id="circle8"/>
	<circle cx="66.7221" cy="690.642" r="4" fill="#0" id="circle9"/>
	<circle cx="81.5774" cy="698.895" r="4" fill="#0" id="circle10"/>
	<circle cx="83.228" cy="622.968" r="4" fill="#0" id="circle11"/>
	<circle cx="86.5291" cy="50.2163" r="4" fill="#0" id="circle12"/>
	<circle cx="86.5291" cy="66.7221" r="4" fill="#0" id="circle13"/>
	<circle cx="86.5291" cy="83.228" r="4" fill="#0" id="circle14"/>
	<circle cx="94.782" cy="33.7105" r="4" fill="#0" id="circle15"/>
	<circle cx="94.782" cy="98.0832" r="4" fill="#0" id="circle16"/>
	<circle cx="94.782" cy="708.799" r="4" fill="#0" id="circle17"/>
	<circle cx="99.7338" cy="622.968" r="4" fill="#0" id="circle18"/>
	<circle cx="103.035" cy="112.938" r="4" fill="#0" id="circle19"/>
	<circle cx="103.035" cy="603.161" r="4" fill="#0" id="circle20"/>
	<circle cx="107.987" cy="20.5058" r="4" fill="#0" id="circle21"/>
	<circle cx="111.288" cy="561.897" r="4" fill="#0" id="circle22"/>
	<circle cx="111.288" cy="578.403" r="4" fill="#0" id="circle23"/>
	<circle cx="111.288" cy="715.401" r="4" fill="#0" id="circle24"/>
	<circle cx="112.938" cy="126.143" r="4" fill="#0" id="circle25"/>
	<circle cx="119.541" cy="528.885" r="4" fill="#0" id="circle26"/>
	<circle cx="119.541" cy="545.391" r="4" fill="#0" id="circle27"/>
	<circle cx="122.842" cy="12.2529" r="4" fill="#0" id="circle28"/>
	<circle cx="126.143" cy="137.697" r="4" fill="#0" id="circle29"/>
	<circle cx="126.143" cy="723.654" r="4" fill="#0" id="circle30"/>
	<circle cx="127.794" cy="504.126" r="4" fill="#0" id="circle31"/>
	<circle cx="136.047" cy="487.621" r="4" fill="#0" id="circle32"/>
	<circle cx="137.697" cy="4" r="4" fill="#0" id="circle33"/>
	<circle cx="140.998" cy="145.95" r="4" fill="#0" id="circle34"/>
	<circle cx="140.998" cy="713.75" r="4" fill="#0" id="circle35"/>
	<circle cx="144.3" cy="471.115" r="4" fill="#0" id="circle36"/>
	<circle cx="152.552" cy="438.103" r="4" fill="#0" id="circle37"/>
	<circle cx="152.552" cy="454.609" r="4" fill="#0" id="circle38"/>
	<circle cx="154.203" cy="4" r="4" fill="#0" id="circle39"/>
	<circle cx="154.203" cy="599.86" r="4" fill="#0" id="circle40"/>
	<circle cx="154.203" cy="616.366" r="4" fill="#0" id="circle41"/>
	<circle cx="154.203" cy="632.872" r="4" fill="#0" id="circle42"/>
	<circle cx="154.203" cy="649.378" r="4" fill="#0" id="circle43"/>
	<circle cx="154.203" cy="665.884" r="4" fill="#0" id="circle44"/>
	<circle cx="154.203" cy="682.389" r="4" fill="#0" id="circle45"/>
	<circle cx="154.203" cy="698.895" r="4" fill="#0" id="circle46"/>
	<circle cx="157.504" cy="145.95" r="4" fill="#0" id="circle47"/>
	<circle cx="160.805" cy="421.597" r="4" fill="#0" id="circle48"/>
	<circle cx="162.456" cy="575.101" r="4" fill="#0" id="circle49"/>
	<circle cx="169.058" cy="405.092" r="4" fill="#0" id="circle50"/>
	<circle cx="170.709" cy="8.95175" r="4" fill="#0" id="circle51"/>
	<circle cx="170.709" cy="558.596" r="4" fill="#0" id="circle52"/>
	<circle cx="174.01" cy="145.95" r="4" fill="#0" id="circle53"/>
	<circle cx="177.311" cy="162.456" r="4" fill="#0" id="circle54"/>
	<circle cx="177.311" cy="388.586" r="4" fill="#0" id="circle55"/>
	<circle cx="178.962" cy="542.09" r="4" fill="#0" id="circle56"/>
	<circle cx="182.263" cy="178.962" r="4" fill="#0" id="circle57"/>
	<circle cx="185.564" cy="17.2047" r="4" fill="#0" id="circle58"/>
	<circle cx="185.564" cy="372.08" r="4" fill="#0" id="circle59"/>
	<circle cx="192.166" cy="530.536" r="4" fill="#0" id="circle60"/>
	<circle cx="193.817" cy="32.0599" r="4" fill="#0" id="circle61"/>
	<circle cx="195.468" cy="190.516" r="4" fill="#0" id="circle62"/>
	<circle cx="198.769" cy="358.875" r="4" fill="#0" id="circle63"/>
	<circle cx="200.419" cy="514.03" r="4" fill="#0" id="circle64"/>
	<circle cx="203.72" cy="45.2646" r="4" fill="#0" id="circle65"/>
	<circle cx="203.72" cy="484.319" r="4" fill="#0" id="circle66"/>
	<circle cx="210.323" cy="198.769" r="4" fill="#0" id="circle67"/>
	<circle cx="211.973" cy="443.055" r="4" fill="#0" id="circle68"/>
	<circle cx="211.973" cy="459.561" r="4" fill="#0" id="circle69"/>
	<circle cx="215.275" cy="350.622" r="4" fill="#0" id="circle70"/>
	<circle cx="216.925" cy="55.1681" r="4" fill="#0" id="circle71"/>
	<circle cx="220.226" cy="426.549" r="4" fill="#0" id="circle72"/>
	<circle cx="226.829" cy="203.72" r="4" fill="#0" id="circle73"/>
	<circle cx="231.78" cy="342.369" r="4" fill="#0" id="circle74"/>
	<circle cx="233.431" cy="61.7704" r="4" fill="#0" id="circle75"/>
	<circle cx="236.732" cy="418.296" r="4" fill="#0" id="circle76"/>
	<circle cx="241.684" cy="211.973" r="4" fill="#0" id="circle77"/>
	<circle cx="248.286" cy="334.116" r="4" fill="#0" id="circle78"/>
	<circle cx="249.937" cy="61.7704" r="4" fill="#0" id="circle79"/>
	<circle cx="253.238" cy="225.178" r="4" fill="#0" id="circle80"/>
	<circle cx="253.238" cy="410.043" r="4" fill="#0" id="circle81"/>
	<circle cx="264.792" cy="334.116" r="4" fill="#0" id="circle82"/>
	<circle cx="266.443" cy="61.7704" r="4" fill="#0" id="circle83"/>
	<circle cx="266.443" cy="236.732" r="4" fill="#0" id="circle84"/>
	<circle cx="269.744" cy="410.043" r="4" fill="#0" id="circle85"/>
	<circle cx="277.997" cy="249.937" r="4" fill="#0" id="circle86"/>
	<circle cx="279.647" cy="325.864" r="4" fill="#0" id="circle87"/>
	<circle cx="282.948" cy="63.421" r="4" fill="#0" id="circle88"/>
	<circle cx="286.25" cy="410.043" r="4" fill="#0" id="circle89"/>
	<circle cx="291.201" cy="261.491" r="4" fill="#0" id="circle90"/>
	<circle cx="296.153" cy="319.261" r="4" fill="#0" id="circle91"/>
	<circle cx="299.454" cy="70.0233" r="4" fill="#0" id="circle92"/>
	<circle cx="302.755" cy="410.043" r="4" fill="#0" id="circle93"/>
	<circle cx="306.057" cy="269.744" r="4" fill="#0" id="circle94"/>
	<circle cx="312.659" cy="317.611" r="4" fill="#0" id="circle95"/>
	<circle cx="314.309" cy="78.2762" r="4" fill="#0" id="circle96"/>
	<circle cx="319.261" cy="281.298" r="4" fill="#0" id="circle97"/>
	<circle cx="319.261" cy="410.043" r="4" fill="#0" id="circle98"/>
	<circle cx="325.864" cy="91.4809" r="4" fill="#0" id="circle99"/>
	<circle cx="327.514" cy="309.358" r="4" fill="#0" id="circle100"/>
	<circle cx="334.116" cy="401.79" r="4" fill="#0" id="circle101"/>
	<circle cx="339.068" cy="103.035" r="4" fill="#0" id="circle102"/>
	<circle cx="350.622" cy="401.79" r="4" fill="#0" id="circle103"/>
	<circle cx="353.923" cy="111.288" r="4" fill="#0" id="circle104"/>
	<circle cx="360.526" cy="127.794" r="4" fill="#0" id="circle105"/>
	<circle cx="367.128" cy="401.79" r="4" fill="#0" id="circle106"/>
	<circle cx="377.032" cy="132.745" r="4" fill="#0" id="circle107"/>
	<circle cx="381.983" cy="393.537" r="4" fill="#0" id="circle108"/>
	<circle cx="388.586" cy="145.95" r="4" fill="#0" id="circle109"/>
	<circle cx="398.489" cy="393.537" r="4" fill="#0" id="circle110"/>
	<circle cx="405.092" cy="152.552" r="4" fill="#0" id="circle111"/>
	<circle cx="414.995" cy="393.537" r="4" fill="#0" id="circle112"/>
	<circle cx="416.646" cy="165.757" r="4" fill="#0" id="circle113"/>
	<circle cx="429.85" cy="177.311" r="4" fill="#0" id="circle114"/>
	<circle cx="431.501" cy="393.537" r="4" fill="#0" id="circle115"/>
	<circle cx="444.705" cy="185.564" r="4" fill="#0" id="circle116"/>
	<circle cx="448.007" cy="393.537" r="4" fill="#0" id="circle117"/>
	<circle cx="451.308" cy="202.07" r="4" fill="#0" id="circle118"/>
	<circle cx="464.512" cy="211.973" r="4" fill="#0" id="circle119"/>
	<circle cx="464.512" cy="393.537" r="4" fill="#0" id="circle120"/>
	<circle cx="476.067" cy="225.178" r="4" fill="#0" id="circle121"/>
	<circle cx="479.368" cy="401.79" r="4" fill="#0" id="circle122"/>
	<circle cx="484.319" cy="240.033" r="4" fill="#0" id="circle123"/>
	<circle cx="492.572" cy="413.344" r="4" fill="#0" id="circle124"/>
	<circle cx="495.874" cy="253.238" r="4" fill="#0" id="circle125"/>
	<circle cx="504.126" cy="268.093" r="4" fill="#0" id="circle126"/>
	<circle cx="504.126" cy="426.549" r="4" fill="#0" id="circle127"/>
	<circle cx="515.681" cy="281.298" r="4" fill="#0" id="circle128"/>
	<circle cx="517.331" cy="438.103" r="4" fill="#0" id="circle129"/>
	<circle cx="523.933" cy="296.153" r="4" fill="#0" id="circle130"/>
	<circle cx="528.885" cy="451.308" r="4" fill="#0" id="circle131"/>
	<circle cx="533.837" cy="309.358" r="4" fill="#0" id="circle132"/>
	<circle cx="542.09" cy="462.862" r="4" fill="#0" id="circle133"/>
	<circle cx="547.042" cy="319.261" r="4" fill="#0" id="circle134"/>
	<circle cx="553.644" cy="476.067" r="4" fill="#0" id="circle135"/>
	<circle cx="558.596" cy="332.466" r="4" fill="#0" id="circle136"/>
	<circle cx="568.499" cy="484.319" r="4" fill="#0" id="circle137"/>
	<circle cx="571.8" cy="342.369" r="4" fill="#0" id="circle138"/>
	<circle cx="581.704" cy="494.223" r="4" fill="#0" id="circle139"/>
	<circle cx="586.656" cy="350.622" r="4" fill="#0" id="circle140"/>
	<circle cx="593.258" cy="507.428" r="4" fill="#0" id="circle141"/>
	<circle cx="601.511" cy="358.875" r="4" fill="#0" id="circle142"/>
	<circle cx="609.764" cy="514.03" r="4" fill="#0" id="circle143"/>
	<circle cx="614.715" cy="370.429" r="4" fill="#0" id="circle144"/>
	<circle cx="624.619" cy="383.634" r="4" fill="#0" id="circle145"/>
	<circle cx="626.27" cy="517.331" r="4" fill="#0" id="circle146"/>
	<circle cx="632.872" cy="398.489" r="4" fill="#0" id="circle147"/>
	<circle cx="641.125" cy="525.584" r="4" fill="#0" id="circle148"/>
	<circle cx="646.077" cy="410.043" r="4" fill="#0" id="circle149"/>
	<circle cx="657.631" cy="423.248" r="4" fill="#0" id="circle150"/>
	<circle cx="657.631" cy="528.885" r="4" fill="#0" id="circle151"/>
	<circle cx="670.835" cy="433.151" r="4" fill="#0" id="circle152"/>
	<circle cx="674.136" cy="533.837" r="4" fill="#0" id="circle153"/>
	<circle cx="685.691" cy="441.404" r="4" fill="#0" id="circle154"/>
	<circle cx="690.642" cy="537.138" r="4" fill="#0" id="circle155"/>
	<circle cx="700.546" cy="449.657" r="4" fill="#0" id="circle156"/>
	<circle cx="705.498" cy="545.391" r="4" fill="#0" id="circle157"/>
	<circle cx="717.052" cy="449.657" r="4" fill="#0" id="circle158"/>
	<circle cx="722.003" cy="550.343" r="4" fill="#0" id="circle159"/>
	<circle cx="731.907" cy="457.91" r="4" fill="#0" id="circle160"/>
	<circle cx="736.859" cy="558.596" r="4" fill="#0" id="circle161"/>
	<circle cx="746.762" cy="466.163" r="4" fill="#0" id="circle162"/>
	<circle cx="751.714" cy="566.849" r="4" fill="#0" id="circle163"/>
	<circle cx="763.268" cy="469.464" r="4" fill="#0" id="circle164"/>
	<circle cx="768.22" cy="566.849" r="4" fill="#0" id="circle165"/>
	<circle cx="779.774" cy="474.416" r="4" fill="#0" id="circle166"/>
	<circle cx="784.725" cy="573.451" r="4" fill="#0" id="circle167"/>
	<circle cx="794.629" cy="482.669" r="4" fill="#0" id="circle168"/>
	<circle cx="801.231" cy="575.101" r="4" fill="#0" id="circle169"/>
	<circle cx="811.135" cy="484.319" r="4" fill="#0" id="circle170"/>
	<circle cx="816.087" cy="583.354" r="4" fill="#0" id="circle171"/>
	<circle cx="825.99" cy="492.572" r="4" fill="#0" id="circle172"/>
	<circle cx="832.592" cy="583.354" r="4" fill="#0" id="circle173"/>
	<circle cx="842.496" cy="499.175" r="4" fill="#0" id="circle174"/>
	<circle cx="849.098" cy="583.354" r="4" fill="#0" id="circle175"/>
	<circle cx="857.351" cy="507.428" r="4" fill="#0" id="circle176"/>
	<circle cx="865.604" cy="588.306" r="4" fill="#0" id="circle177"/>
	<circle cx="872.206" cy="515.681" r="4" fill="#0" id="circle178"/>
	<circle cx="882.11" cy="591.607" r="4" fill="#0" id="circle179"/>
	<circle cx="887.062" cy="523.933" r="4" fill="#0" id="circle180"/>
	<circle cx="898.616" cy="596.559" r="4" fill="#0" id="circle181"/>
	<circle cx="903.567" cy="523.933" r="4" fill="#0" id="circle182"/>
	<circle cx="913.471" cy="604.812" r="4" fill="#0" id="circle183"/>
	<circle cx="920.073" cy="523.933" r="4" fill="#0" id="circle184"/>
	<circle cx="926.676" cy="616.366" r="4" fill="#0" id="circle185"/>
	<circle cx="933.278" cy="632.872" r="4" fill="#0" id="circle186"/>
	<circle cx="936.579" cy="523.933" r="4" fill="#0" id="circle187"/>
	<circle cx="946.483" cy="644.426" r="4" fill="#0" id="circle188"/>
	<circle cx="953.085" cy="523.933" r="4" fill="#0" id="circle189"/>
	<circle cx="958.037" cy="657.631" r="4" fill="#0" id="circle190"/>
	<circle cx="967.94" cy="532.186" r="4" fill="#0" id="circle191"/>
	<circle cx="969.591" cy="670.835" r="4" fill="#0" id="circle192"/>
	<circle cx="979.494" cy="545.391" r="4" fill="#0" id="circle193"/>
	<circle cx="986.097" cy="669.185" r="4" fill="#0" id="circle194"/>
	<circle cx="987.747" cy="560.246" r="4" fill="#0" id="circle195"/>
	<circle cx="996" cy="575.101" r="4" fill="#0" id="circle196"/>
	<circle cx="996" cy="591.607" r="4" fill="#0" id="circle197"/>
	<circle cx="996" cy="608.113" r="4" fill="#0" id="circle198"/>
	<circle cx="996" cy="624.619" r="4" fill="#0" id="circle199"/>
	<circle cx="996" cy="641.125" r="4" fill="#0" id="circle200"/>
	</g>
</svg>