<?xml version="1.0" encoding="UTF-8" standalone="no"?>
<!-- Created with CurveBenchmark -->
<svg
	xmlns:dc="http://purl.org/dc/elements/1.1/"
	xmlns:cc="http://creativecommons.org/ns#"
	xmlns:rdf="http://www.w3.org/1999/02/22-rdf-syntax-ns#"
	xmlns:svg="http://www.w3.org/2000/svg"
	xmlns="http://www.w3.org/2000/svg"
	xmlns:sodipodi="http://sodipodi.sourceforge.net/DTD/sodipodi-0.dtd"
	xmlns:inkscape="http://www.inkscape.org/namespaces/inkscape"
	width="1000"
	height="1000"
	id="svg2"
	version="1.1"
	sodipodi:docname="manifold/crust-cat28.png.txt">
<defs
	id="defs4" />
<metadata
	id="metadata7">
	<rdf:RDF>
		<cc:Work
			rdf:about="">
			<dc:format>image/svg+xml</dc:format>
			<dc:type
				rdf:resource="http://purl.org/dc/dcmitype/StillImage" />
			<dc:title></dc:title>
		</cc:Work>
	</rdf:RDF>
</metadata>
<g
	inkscape:label="Layer 1"
	inkscape:groupmode="layer"
	id="layer1">
	<path style="fill:none;stroke:red;stroke-width:1px;stroke-linecap:butt;stroke-linejoin:miter;stroke-opacity:1" d="M 32.3024,5.41512 32.3024,19.5663 z" id="boundary" inkscape:connector-curvature="0" />
	<path style="fill:none;stroke:red;stroke-width:1px;stroke-linecap:butt;stroke-linejoin:miter;stroke-opacity:1" d="M 60.6049,8.24536 46.4536,4 z" id="boundary" inkscape:connector-curvature="0" />
	<path style="fill:none;stroke:red;stroke-width:1px;stroke-linecap:butt;stroke-linejoin:miter;stroke-opacity:1" d="M 32.3024,5.41512 46.4536,4 z" id="boundary" inkscape:connector-curvature="0" />
	<path style="fill:none;stroke:red;stroke-width:1px;stroke-linecap:butt;stroke-linejoin:miter;stroke-opacity:1" d="M 32.3024,19.5663 29.4722,36.5478 z" id="boundary" inkscape:connector-curvature="0" />
	<path style="fill:none;stroke:red;stroke-width:1px;stroke-linecap:butt;stroke-linejoin:miter;stroke-opacity:1" d="M 22.3966,50.699 15.321,64.8502 z" id="boundary" inkscape:connector-curvature="0" />
	<path style="fill:none;stroke:red;stroke-width:1px;stroke-linecap:butt;stroke-linejoin:miter;stroke-opacity:1" d="M 29.4722,36.5478 22.3966,50.699 z" id="boundary" inkscape:connector-curvature="0" />
	<path style="fill:none;stroke:red;stroke-width:1px;stroke-linecap:butt;stroke-linejoin:miter;stroke-opacity:1" d="M 4,90.3224 4,76.1712 z" id="boundary" inkscape:connector-curvature="0" />
	<path style="fill:none;stroke:red;stroke-width:1px;stroke-linecap:butt;stroke-linejoin:miter;stroke-opacity:1" d="M 15.321,64.8502 4,76.1712 z" id="boundary" inkscape:connector-curvature="0" />
	<path style="fill:none;stroke:red;stroke-width:1px;stroke-linecap:butt;stroke-linejoin:miter;stroke-opacity:1" d="M 4,104.474 4,90.3224 z" id="boundary" inkscape:connector-curvature="0" />
	<path style="fill:none;stroke:red;stroke-width:1px;stroke-linecap:butt;stroke-linejoin:miter;stroke-opacity:1" d="M 74.7561,8.24536 60.6049,8.24536 z" id="boundary" inkscape:connector-curvature="0" />
	<path style="fill:none;stroke:red;stroke-width:1px;stroke-linecap:butt;stroke-linejoin:miter;stroke-opacity:1" d="M 115.795,15.321 101.643,15.321 z" id="boundary" inkscape:connector-curvature="0" />
	<path style="fill:none;stroke:red;stroke-width:1px;stroke-linecap:butt;stroke-linejoin:miter;stroke-opacity:1" d="M 87.4922,15.321 74.7561,8.24536 z" id="boundary" inkscape:connector-curvature="0" />
	<path style="fill:none;stroke:red;stroke-width:1px;stroke-linecap:butt;stroke-linejoin:miter;stroke-opacity:1" d="M 101.643,15.321 87.4922,15.321 z" id="boundary" inkscape:connector-curvature="0" />
	<path style="fill:none;stroke:red;stroke-width:1px;stroke-linecap:butt;stroke-linejoin:miter;stroke-opacity:1" d="M 129.946,16.7361 115.795,15.321 z" id="boundary" inkscape:connector-curvature="0" />
	<path style="fill:none;stroke:red;stroke-width:1px;stroke-linecap:butt;stroke-linejoin:miter;stroke-opacity:1" d="M 144.097,22.3966 129.946,16.7361 z" id="boundary" inkscape:connector-curvature="0" />
	<path style="fill:none;stroke:red;stroke-width:1px;stroke-linecap:butt;stroke-linejoin:miter;stroke-opacity:1" d="M 185.136,29.4722 170.984,29.4722 z" id="boundary" inkscape:connector-curvature="0" />
	<path style="fill:none;stroke:red;stroke-width:1px;stroke-linecap:butt;stroke-linejoin:miter;stroke-opacity:1" d="M 144.097,22.3966 156.833,29.4722 z" id="boundary" inkscape:connector-curvature="0" />
	<path style="fill:none;stroke:red;stroke-width:1px;stroke-linecap:butt;stroke-linejoin:miter;stroke-opacity:1" d="M 156.833,29.4722 170.984,29.4722 z" id="boundary" inkscape:connector-curvature="0" />
	<path style="fill:none;stroke:red;stroke-width:1px;stroke-linecap:butt;stroke-linejoin:miter;stroke-opacity:1" d="M 4,118.625 4,104.474 z" id="boundary" inkscape:connector-curvature="0" />
	<path style="fill:none;stroke:red;stroke-width:1px;stroke-linecap:butt;stroke-linejoin:miter;stroke-opacity:1" d="M 11.0756,131.361 4,118.625 z" id="boundary" inkscape:connector-curvature="0" />
	<path style="fill:none;stroke:red;stroke-width:1px;stroke-linecap:butt;stroke-linejoin:miter;stroke-opacity:1" d="M 18.1512,144.097 11.0756,131.361 z" id="boundary" inkscape:connector-curvature="0" />
	<path style="fill:none;stroke:red;stroke-width:1px;stroke-linecap:butt;stroke-linejoin:miter;stroke-opacity:1" d="M 18.1512,144.097 22.3966,158.248 z" id="boundary" inkscape:connector-curvature="0" />
	<path style="fill:none;stroke:red;stroke-width:1px;stroke-linecap:butt;stroke-linejoin:miter;stroke-opacity:1" d="M 35.1327,165.324 22.3966,158.248 z" id="boundary" inkscape:connector-curvature="0" />
	<path style="fill:none;stroke:red;stroke-width:1px;stroke-linecap:butt;stroke-linejoin:miter;stroke-opacity:1" d="M 63.4351,165.324 49.2839,169.569 z" id="boundary" inkscape:connector-curvature="0" />
	<path style="fill:none;stroke:red;stroke-width:1px;stroke-linecap:butt;stroke-linejoin:miter;stroke-opacity:1" d="M 63.4351,165.324 76.1712,172.399 z" id="boundary" inkscape:connector-curvature="0" />
	<path style="fill:none;stroke:red;stroke-width:1px;stroke-linecap:butt;stroke-linejoin:miter;stroke-opacity:1" d="M 35.1327,165.324 49.2839,169.569 z" id="boundary" inkscape:connector-curvature="0" />
	<path style="fill:none;stroke:red;stroke-width:1px;stroke-linecap:butt;stroke-linejoin:miter;stroke-opacity:1" d="M 104.474,172.399 90.3224,172.399 z" id="boundary" inkscape:connector-curvature="0" />
	<path style="fill:none;stroke:red;stroke-width:1px;stroke-linecap:butt;stroke-linejoin:miter;stroke-opacity:1" d="M 118.625,175.23 104.474,172.399 z" id="boundary" inkscape:connector-curvature="0" />
	<path style="fill:none;stroke:red;stroke-width:1px;stroke-linecap:butt;stroke-linejoin:miter;stroke-opacity:1" d="M 76.1712,172.399 90.3224,172.399 z" id="boundary" inkscape:connector-curvature="0" />
	<path style="fill:none;stroke:red;stroke-width:1px;stroke-linecap:butt;stroke-linejoin:miter;stroke-opacity:1" d="M 118.625,175.23 128.531,186.551 z" id="boundary" inkscape:connector-curvature="0" />
	<path style="fill:none;stroke:red;stroke-width:1px;stroke-linecap:butt;stroke-linejoin:miter;stroke-opacity:1" d="M 128.531,186.551 139.852,196.456 z" id="boundary" inkscape:connector-curvature="0" />
	<path style="fill:none;stroke:red;stroke-width:1px;stroke-linecap:butt;stroke-linejoin:miter;stroke-opacity:1" d="M 139.852,196.456 149.757,207.777 z" id="boundary" inkscape:connector-curvature="0" />
	<path style="fill:none;stroke:red;stroke-width:1px;stroke-linecap:butt;stroke-linejoin:miter;stroke-opacity:1" d="M 170.984,229.004 161.078,217.683 z" id="boundary" inkscape:connector-curvature="0" />
	<path style="fill:none;stroke:red;stroke-width:1px;stroke-linecap:butt;stroke-linejoin:miter;stroke-opacity:1" d="M 182.305,238.91 170.984,229.004 z" id="boundary" inkscape:connector-curvature="0" />
	<path style="fill:none;stroke:red;stroke-width:1px;stroke-linecap:butt;stroke-linejoin:miter;stroke-opacity:1" d="M 161.078,217.683 149.757,207.777 z" id="boundary" inkscape:connector-curvature="0" />
	<path style="fill:none;stroke:red;stroke-width:1px;stroke-linecap:butt;stroke-linejoin:miter;stroke-opacity:1" d="M 199.287,29.4722 185.136,29.4722 z" id="boundary" inkscape:connector-curvature="0" />
	<path style="fill:none;stroke:red;stroke-width:1px;stroke-linecap:butt;stroke-linejoin:miter;stroke-opacity:1" d="M 213.438,29.4722 199.287,29.4722 z" id="boundary" inkscape:connector-curvature="0" />
	<path style="fill:none;stroke:red;stroke-width:1px;stroke-linecap:butt;stroke-linejoin:miter;stroke-opacity:1" d="M 213.438,29.4722 227.589,29.4722 z" id="boundary" inkscape:connector-curvature="0" />
	<path style="fill:none;stroke:red;stroke-width:1px;stroke-linecap:butt;stroke-linejoin:miter;stroke-opacity:1" d="M 241.74,29.4722 255.892,29.4722 z" id="boundary" inkscape:connector-curvature="0" />
	<path style="fill:none;stroke:red;stroke-width:1px;stroke-linecap:butt;stroke-linejoin:miter;stroke-opacity:1" d="M 270.043,29.4722 255.892,29.4722 z" id="boundary" inkscape:connector-curvature="0" />
	<path style="fill:none;stroke:red;stroke-width:1px;stroke-linecap:butt;stroke-linejoin:miter;stroke-opacity:1" d="M 241.74,29.4722 227.589,29.4722 z" id="boundary" inkscape:connector-curvature="0" />
	<path style="fill:none;stroke:red;stroke-width:1px;stroke-linecap:butt;stroke-linejoin:miter;stroke-opacity:1" d="M 284.194,29.4722 270.043,29.4722 z" id="boundary" inkscape:connector-curvature="0" />
	<path style="fill:none;stroke:red;stroke-width:1px;stroke-linecap:butt;stroke-linejoin:miter;stroke-opacity:1" d="M 438.442,8.24536 452.593,8.24536 z" id="boundary" inkscape:connector-curvature="0" />
	<path style="fill:none;stroke:red;stroke-width:1px;stroke-linecap:butt;stroke-linejoin:miter;stroke-opacity:1" d="M 354.95,22.3966 340.799,29.4722 z" id="boundary" inkscape:connector-curvature="0" />
	<path style="fill:none;stroke:red;stroke-width:1px;stroke-linecap:butt;stroke-linejoin:miter;stroke-opacity:1" d="M 369.101,22.3966 354.95,22.3966 z" id="boundary" inkscape:connector-curvature="0" />
	<path style="fill:none;stroke:red;stroke-width:1px;stroke-linecap:butt;stroke-linejoin:miter;stroke-opacity:1" d="M 284.194,29.4722 298.345,29.4722 z" id="boundary" inkscape:connector-curvature="0" />
	<path style="fill:none;stroke:red;stroke-width:1px;stroke-linecap:butt;stroke-linejoin:miter;stroke-opacity:1" d="M 312.496,29.4722 298.345,29.4722 z" id="boundary" inkscape:connector-curvature="0" />
	<path style="fill:none;stroke:red;stroke-width:1px;stroke-linecap:butt;stroke-linejoin:miter;stroke-opacity:1" d="M 326.648,29.4722 312.496,29.4722 z" id="boundary" inkscape:connector-curvature="0" />
	<path style="fill:none;stroke:red;stroke-width:1px;stroke-linecap:butt;stroke-linejoin:miter;stroke-opacity:1" d="M 411.555,15.321 424.291,8.24536 z" id="boundary" inkscape:connector-curvature="0" />
	<path style="fill:none;stroke:red;stroke-width:1px;stroke-linecap:butt;stroke-linejoin:miter;stroke-opacity:1" d="M 438.442,8.24536 424.291,8.24536 z" id="boundary" inkscape:connector-curvature="0" />
	<path style="fill:none;stroke:red;stroke-width:1px;stroke-linecap:butt;stroke-linejoin:miter;stroke-opacity:1" d="M 369.101,22.3966 383.252,15.321 z" id="boundary" inkscape:connector-curvature="0" />
	<path style="fill:none;stroke:red;stroke-width:1px;stroke-linecap:butt;stroke-linejoin:miter;stroke-opacity:1" d="M 397.404,15.321 383.252,15.321 z" id="boundary" inkscape:connector-curvature="0" />
	<path style="fill:none;stroke:red;stroke-width:1px;stroke-linecap:butt;stroke-linejoin:miter;stroke-opacity:1" d="M 411.555,15.321 397.404,15.321 z" id="boundary" inkscape:connector-curvature="0" />
	<path style="fill:none;stroke:red;stroke-width:1px;stroke-linecap:butt;stroke-linejoin:miter;stroke-opacity:1" d="M 192.211,250.231 182.305,238.91 z" id="boundary" inkscape:connector-curvature="0" />
	<path style="fill:none;stroke:red;stroke-width:1px;stroke-linecap:butt;stroke-linejoin:miter;stroke-opacity:1" d="M 326.648,29.4722 340.799,29.4722 z" id="boundary" inkscape:connector-curvature="0" />
	<path style="fill:none;stroke:red;stroke-width:1px;stroke-linecap:butt;stroke-linejoin:miter;stroke-opacity:1" d="M 192.211,250.231 203.532,260.137 z" id="boundary" inkscape:connector-curvature="0" />
	<path style="fill:none;stroke:red;stroke-width:1px;stroke-linecap:butt;stroke-linejoin:miter;stroke-opacity:1" d="M 209.193,274.288 216.268,287.024 z" id="boundary" inkscape:connector-curvature="0" />
	<path style="fill:none;stroke:red;stroke-width:1px;stroke-linecap:butt;stroke-linejoin:miter;stroke-opacity:1" d="M 216.268,287.024 216.268,301.175 z" id="boundary" inkscape:connector-curvature="0" />
	<path style="fill:none;stroke:red;stroke-width:1px;stroke-linecap:butt;stroke-linejoin:miter;stroke-opacity:1" d="M 216.268,315.327 216.268,301.175 z" id="boundary" inkscape:connector-curvature="0" />
	<path style="fill:none;stroke:red;stroke-width:1px;stroke-linecap:butt;stroke-linejoin:miter;stroke-opacity:1" d="M 209.193,274.288 203.532,260.137 z" id="boundary" inkscape:connector-curvature="0" />
	<path style="fill:none;stroke:red;stroke-width:1px;stroke-linecap:butt;stroke-linejoin:miter;stroke-opacity:1" d="M 216.268,315.327 209.193,337.969 z" id="boundary" inkscape:connector-curvature="0" />
	<path style="fill:none;stroke:red;stroke-width:1px;stroke-linecap:butt;stroke-linejoin:miter;stroke-opacity:1" d="M 209.193,337.969 202.117,359.195 z" id="boundary" inkscape:connector-curvature="0" />
	<path style="fill:none;stroke:red;stroke-width:1px;stroke-linecap:butt;stroke-linejoin:miter;stroke-opacity:1" d="M 281.364,335.138 295.515,337.969 z" id="boundary" inkscape:connector-curvature="0" />
	<path style="fill:none;stroke:red;stroke-width:1px;stroke-linecap:butt;stroke-linejoin:miter;stroke-opacity:1" d="M 271.458,346.459 281.364,335.138 z" id="boundary" inkscape:connector-curvature="0" />
	<path style="fill:none;stroke:red;stroke-width:1px;stroke-linecap:butt;stroke-linejoin:miter;stroke-opacity:1" d="M 295.515,337.969 308.251,345.044 z" id="boundary" inkscape:connector-curvature="0" />
	<path style="fill:none;stroke:red;stroke-width:1px;stroke-linecap:butt;stroke-linejoin:miter;stroke-opacity:1" d="M 271.458,346.459 264.382,360.611 z" id="boundary" inkscape:connector-curvature="0" />
	<path style="fill:none;stroke:red;stroke-width:1px;stroke-linecap:butt;stroke-linejoin:miter;stroke-opacity:1" d="M 159.663,401.649 159.663,415.8 z" id="boundary" inkscape:connector-curvature="0" />
	<path style="fill:none;stroke:red;stroke-width:1px;stroke-linecap:butt;stroke-linejoin:miter;stroke-opacity:1" d="M 159.663,401.649 170.984,390.328 z" id="boundary" inkscape:connector-curvature="0" />
	<path style="fill:none;stroke:red;stroke-width:1px;stroke-linecap:butt;stroke-linejoin:miter;stroke-opacity:1" d="M 185.136,390.328 170.984,390.328 z" id="boundary" inkscape:connector-curvature="0" />
	<path style="fill:none;stroke:red;stroke-width:1px;stroke-linecap:butt;stroke-linejoin:miter;stroke-opacity:1" d="M 195.041,373.347 185.136,390.328 z" id="boundary" inkscape:connector-curvature="0" />
	<path style="fill:none;stroke:red;stroke-width:1px;stroke-linecap:butt;stroke-linejoin:miter;stroke-opacity:1" d="M 202.117,359.195 195.041,373.347 z" id="boundary" inkscape:connector-curvature="0" />
	<path style="fill:none;stroke:red;stroke-width:1px;stroke-linecap:butt;stroke-linejoin:miter;stroke-opacity:1" d="M 210.608,420.046 196.456,427.121 z" id="boundary" inkscape:connector-curvature="0" />
	<path style="fill:none;stroke:red;stroke-width:1px;stroke-linecap:butt;stroke-linejoin:miter;stroke-opacity:1" d="M 159.663,415.8 168.154,427.121 z" id="boundary" inkscape:connector-curvature="0" />
	<path style="fill:none;stroke:red;stroke-width:1px;stroke-linecap:butt;stroke-linejoin:miter;stroke-opacity:1" d="M 182.305,427.121 168.154,427.121 z" id="boundary" inkscape:connector-curvature="0" />
	<path style="fill:none;stroke:red;stroke-width:1px;stroke-linecap:butt;stroke-linejoin:miter;stroke-opacity:1" d="M 196.456,427.121 182.305,427.121 z" id="boundary" inkscape:connector-curvature="0" />
	<path style="fill:none;stroke:red;stroke-width:1px;stroke-linecap:butt;stroke-linejoin:miter;stroke-opacity:1" d="M 253.061,370.516 243.155,388.913 z" id="boundary" inkscape:connector-curvature="0" />
	<path style="fill:none;stroke:red;stroke-width:1px;stroke-linecap:butt;stroke-linejoin:miter;stroke-opacity:1" d="M 264.382,360.611 253.061,370.516 z" id="boundary" inkscape:connector-curvature="0" />
	<path style="fill:none;stroke:red;stroke-width:1px;stroke-linecap:butt;stroke-linejoin:miter;stroke-opacity:1" d="M 243.155,388.913 231.835,398.819 z" id="boundary" inkscape:connector-curvature="0" />
	<path style="fill:none;stroke:red;stroke-width:1px;stroke-linecap:butt;stroke-linejoin:miter;stroke-opacity:1" d="M 224.759,412.97 210.608,420.046 z" id="boundary" inkscape:connector-curvature="0" />
	<path style="fill:none;stroke:red;stroke-width:1px;stroke-linecap:butt;stroke-linejoin:miter;stroke-opacity:1" d="M 231.835,398.819 224.759,412.97 z" id="boundary" inkscape:connector-curvature="0" />
	<path style="fill:none;stroke:red;stroke-width:1px;stroke-linecap:butt;stroke-linejoin:miter;stroke-opacity:1" d="M 308.251,345.044 319.572,354.95 z" id="boundary" inkscape:connector-curvature="0" />
	<path style="fill:none;stroke:red;stroke-width:1px;stroke-linecap:butt;stroke-linejoin:miter;stroke-opacity:1" d="M 316.742,292.685 328.063,282.779 z" id="boundary" inkscape:connector-curvature="0" />
	<path style="fill:none;stroke:red;stroke-width:1px;stroke-linecap:butt;stroke-linejoin:miter;stroke-opacity:1" d="M 319.572,306.836 316.742,292.685 z" id="boundary" inkscape:connector-curvature="0" />
	<path style="fill:none;stroke:red;stroke-width:1px;stroke-linecap:butt;stroke-linejoin:miter;stroke-opacity:1" d="M 328.063,282.779 342.214,278.534 z" id="boundary" inkscape:connector-curvature="0" />
	<path style="fill:none;stroke:red;stroke-width:1px;stroke-linecap:butt;stroke-linejoin:miter;stroke-opacity:1" d="M 342.214,278.534 356.365,278.534 z" id="boundary" inkscape:connector-curvature="0" />
	<path style="fill:none;stroke:red;stroke-width:1px;stroke-linecap:butt;stroke-linejoin:miter;stroke-opacity:1" d="M 356.365,278.534 370.516,278.534 z" id="boundary" inkscape:connector-curvature="0" />
	<path style="fill:none;stroke:red;stroke-width:1px;stroke-linecap:butt;stroke-linejoin:miter;stroke-opacity:1" d="M 319.572,306.836 330.893,316.742 z" id="boundary" inkscape:connector-curvature="0" />
	<path style="fill:none;stroke:red;stroke-width:1px;stroke-linecap:butt;stroke-linejoin:miter;stroke-opacity:1" d="M 350.705,336.553 343.629,323.817 z" id="boundary" inkscape:connector-curvature="0" />
	<path style="fill:none;stroke:red;stroke-width:1px;stroke-linecap:butt;stroke-linejoin:miter;stroke-opacity:1" d="M 330.893,316.742 343.629,323.817 z" id="boundary" inkscape:connector-curvature="0" />
	<path style="fill:none;stroke:red;stroke-width:1px;stroke-linecap:butt;stroke-linejoin:miter;stroke-opacity:1" d="M 370.516,278.534 384.668,278.534 z" id="boundary" inkscape:connector-curvature="0" />
	<path style="fill:none;stroke:red;stroke-width:1px;stroke-linecap:butt;stroke-linejoin:miter;stroke-opacity:1" d="M 384.668,278.534 398.819,278.534 z" id="boundary" inkscape:connector-curvature="0" />
	<path style="fill:none;stroke:red;stroke-width:1px;stroke-linecap:butt;stroke-linejoin:miter;stroke-opacity:1" d="M 412.97,278.534 427.121,278.534 z" id="boundary" inkscape:connector-curvature="0" />
	<path style="fill:none;stroke:red;stroke-width:1px;stroke-linecap:butt;stroke-linejoin:miter;stroke-opacity:1" d="M 398.819,278.534 412.97,278.534 z" id="boundary" inkscape:connector-curvature="0" />
	<path style="fill:none;stroke:red;stroke-width:1px;stroke-linecap:butt;stroke-linejoin:miter;stroke-opacity:1" d="M 427.121,278.534 441.272,278.534 z" id="boundary" inkscape:connector-curvature="0" />
	<path style="fill:none;stroke:red;stroke-width:1px;stroke-linecap:butt;stroke-linejoin:miter;stroke-opacity:1" d="M 455.424,312.496 444.103,322.402 z" id="boundary" inkscape:connector-curvature="0" />
	<path style="fill:none;stroke:red;stroke-width:1px;stroke-linecap:butt;stroke-linejoin:miter;stroke-opacity:1" d="M 444.103,322.402 429.951,329.478 z" id="boundary" inkscape:connector-curvature="0" />
	<path style="fill:none;stroke:red;stroke-width:1px;stroke-linecap:butt;stroke-linejoin:miter;stroke-opacity:1" d="M 441.272,278.534 454.009,285.609 z" id="boundary" inkscape:connector-curvature="0" />
	<path style="fill:none;stroke:red;stroke-width:1px;stroke-linecap:butt;stroke-linejoin:miter;stroke-opacity:1" d="M 429.951,329.478 420.046,340.799 z" id="boundary" inkscape:connector-curvature="0" />
	<path style="fill:none;stroke:red;stroke-width:1px;stroke-linecap:butt;stroke-linejoin:miter;stroke-opacity:1" d="M 325.233,369.101 319.572,354.95 z" id="boundary" inkscape:connector-curvature="0" />
	<path style="fill:none;stroke:red;stroke-width:1px;stroke-linecap:butt;stroke-linejoin:miter;stroke-opacity:1" d="M 350.705,336.553 352.12,350.705 z" id="boundary" inkscape:connector-curvature="0" />
	<path style="fill:none;stroke:red;stroke-width:1px;stroke-linecap:butt;stroke-linejoin:miter;stroke-opacity:1" d="M 352.12,350.705 350.705,373.347 z" id="boundary" inkscape:connector-curvature="0" />
	<path style="fill:none;stroke:red;stroke-width:1px;stroke-linecap:butt;stroke-linejoin:miter;stroke-opacity:1" d="M 336.553,377.592 325.233,369.101 z" id="boundary" inkscape:connector-curvature="0" />
	<path style="fill:none;stroke:red;stroke-width:1px;stroke-linecap:butt;stroke-linejoin:miter;stroke-opacity:1" d="M 350.705,373.347 336.553,377.592 z" id="boundary" inkscape:connector-curvature="0" />
	<path style="fill:none;stroke:red;stroke-width:1px;stroke-linecap:butt;stroke-linejoin:miter;stroke-opacity:1" d="M 393.158,352.12 407.31,347.874 z" id="boundary" inkscape:connector-curvature="0" />
	<path style="fill:none;stroke:red;stroke-width:1px;stroke-linecap:butt;stroke-linejoin:miter;stroke-opacity:1" d="M 379.007,359.195 393.158,352.12 z" id="boundary" inkscape:connector-curvature="0" />
	<path style="fill:none;stroke:red;stroke-width:1px;stroke-linecap:butt;stroke-linejoin:miter;stroke-opacity:1" d="M 379.007,373.347 379.007,359.195 z" id="boundary" inkscape:connector-curvature="0" />
	<path style="fill:none;stroke:red;stroke-width:1px;stroke-linecap:butt;stroke-linejoin:miter;stroke-opacity:1" d="M 455.424,363.441 442.688,370.516 z" id="boundary" inkscape:connector-curvature="0" />
	<path style="fill:none;stroke:red;stroke-width:1px;stroke-linecap:butt;stroke-linejoin:miter;stroke-opacity:1" d="M 407.31,347.874 420.046,340.799 z" id="boundary" inkscape:connector-curvature="0" />
	<path style="fill:none;stroke:red;stroke-width:1px;stroke-linecap:butt;stroke-linejoin:miter;stroke-opacity:1" d="M 390.328,383.252 379.007,373.347 z" id="boundary" inkscape:connector-curvature="0" />
	<path style="fill:none;stroke:red;stroke-width:1px;stroke-linecap:butt;stroke-linejoin:miter;stroke-opacity:1" d="M 403.064,390.328 390.328,383.252 z" id="boundary" inkscape:connector-curvature="0" />
	<path style="fill:none;stroke:red;stroke-width:1px;stroke-linecap:butt;stroke-linejoin:miter;stroke-opacity:1" d="M 417.215,384.668 403.064,390.328 z" id="boundary" inkscape:connector-curvature="0" />
	<path style="fill:none;stroke:red;stroke-width:1px;stroke-linecap:butt;stroke-linejoin:miter;stroke-opacity:1" d="M 429.951,377.592 417.215,384.668 z" id="boundary" inkscape:connector-curvature="0" />
	<path style="fill:none;stroke:red;stroke-width:1px;stroke-linecap:butt;stroke-linejoin:miter;stroke-opacity:1" d="M 442.688,370.516 429.951,377.592 z" id="boundary" inkscape:connector-curvature="0" />
	<path style="fill:none;stroke:red;stroke-width:1px;stroke-linecap:butt;stroke-linejoin:miter;stroke-opacity:1" d="M 466.745,8.24536 452.593,8.24536 z" id="boundary" inkscape:connector-curvature="0" />
	<path style="fill:none;stroke:red;stroke-width:1px;stroke-linecap:butt;stroke-linejoin:miter;stroke-opacity:1" d="M 479.481,15.321 466.745,8.24536 z" id="boundary" inkscape:connector-curvature="0" />
	<path style="fill:none;stroke:red;stroke-width:1px;stroke-linecap:butt;stroke-linejoin:miter;stroke-opacity:1" d="M 493.632,15.321 479.481,15.321 z" id="boundary" inkscape:connector-curvature="0" />
	<path style="fill:none;stroke:red;stroke-width:1px;stroke-linecap:butt;stroke-linejoin:miter;stroke-opacity:1" d="M 493.632,15.321 507.783,15.321 z" id="boundary" inkscape:connector-curvature="0" />
	<path style="fill:none;stroke:red;stroke-width:1px;stroke-linecap:butt;stroke-linejoin:miter;stroke-opacity:1" d="M 507.783,15.321 520.519,22.3966 z" id="boundary" inkscape:connector-curvature="0" />
	<path style="fill:none;stroke:red;stroke-width:1px;stroke-linecap:butt;stroke-linejoin:miter;stroke-opacity:1" d="M 548.822,29.4722 562.973,29.4722 z" id="boundary" inkscape:connector-curvature="0" />
	<path style="fill:none;stroke:red;stroke-width:1px;stroke-linecap:butt;stroke-linejoin:miter;stroke-opacity:1" d="M 548.822,29.4722 534.67,25.2268 z" id="boundary" inkscape:connector-curvature="0" />
	<path style="fill:none;stroke:red;stroke-width:1px;stroke-linecap:butt;stroke-linejoin:miter;stroke-opacity:1" d="M 562.973,29.4722 575.709,36.5478 z" id="boundary" inkscape:connector-curvature="0" />
	<path style="fill:none;stroke:red;stroke-width:1px;stroke-linecap:butt;stroke-linejoin:miter;stroke-opacity:1" d="M 534.67,25.2268 520.519,22.3966 z" id="boundary" inkscape:connector-curvature="0" />
	<path style="fill:none;stroke:red;stroke-width:1px;stroke-linecap:butt;stroke-linejoin:miter;stroke-opacity:1" d="M 616.748,50.699 602.596,45.0385 z" id="boundary" inkscape:connector-curvature="0" />
	<path style="fill:none;stroke:red;stroke-width:1px;stroke-linecap:butt;stroke-linejoin:miter;stroke-opacity:1" d="M 575.709,36.5478 589.86,37.9629 z" id="boundary" inkscape:connector-curvature="0" />
	<path style="fill:none;stroke:red;stroke-width:1px;stroke-linecap:butt;stroke-linejoin:miter;stroke-opacity:1" d="M 602.596,45.0385 589.86,37.9629 z" id="boundary" inkscape:connector-curvature="0" />
	<path style="fill:none;stroke:red;stroke-width:1px;stroke-linecap:butt;stroke-linejoin:miter;stroke-opacity:1" d="M 616.748,50.699 629.484,57.7746 z" id="boundary" inkscape:connector-curvature="0" />
	<path style="fill:none;stroke:red;stroke-width:1px;stroke-linecap:butt;stroke-linejoin:miter;stroke-opacity:1" d="M 629.484,57.7746 642.22,64.8502 z" id="boundary" inkscape:connector-curvature="0" />
	<path style="fill:none;stroke:red;stroke-width:1px;stroke-linecap:butt;stroke-linejoin:miter;stroke-opacity:1" d="M 653.541,73.3409 642.22,64.8502 z" id="boundary" inkscape:connector-curvature="0" />
	<path style="fill:none;stroke:red;stroke-width:1px;stroke-linecap:butt;stroke-linejoin:miter;stroke-opacity:1" d="M 677.598,90.3224 666.277,80.4165 z" id="boundary" inkscape:connector-curvature="0" />
	<path style="fill:none;stroke:red;stroke-width:1px;stroke-linecap:butt;stroke-linejoin:miter;stroke-opacity:1" d="M 666.277,80.4165 653.541,73.3409 z" id="boundary" inkscape:connector-curvature="0" />
	<path style="fill:none;stroke:red;stroke-width:1px;stroke-linecap:butt;stroke-linejoin:miter;stroke-opacity:1" d="M 690.334,97.398 677.598,90.3224 z" id="boundary" inkscape:connector-curvature="0" />
	<path style="fill:none;stroke:red;stroke-width:1px;stroke-linecap:butt;stroke-linejoin:miter;stroke-opacity:1" d="M 704.485,100.228 690.334,97.398 z" id="boundary" inkscape:connector-curvature="0" />
	<path style="fill:none;stroke:red;stroke-width:1px;stroke-linecap:butt;stroke-linejoin:miter;stroke-opacity:1" d="M 704.485,100.228 717.221,107.304 z" id="boundary" inkscape:connector-curvature="0" />
	<path style="fill:none;stroke:red;stroke-width:1px;stroke-linecap:butt;stroke-linejoin:miter;stroke-opacity:1" d="M 717.221,107.304 729.957,114.379 z" id="boundary" inkscape:connector-curvature="0" />
	<path style="fill:none;stroke:red;stroke-width:1px;stroke-linecap:butt;stroke-linejoin:miter;stroke-opacity:1" d="M 729.957,114.379 742.693,121.455 z" id="boundary" inkscape:connector-curvature="0" />
	<path style="fill:none;stroke:red;stroke-width:1px;stroke-linecap:butt;stroke-linejoin:miter;stroke-opacity:1" d="M 742.693,121.455 756.845,121.455 z" id="boundary" inkscape:connector-curvature="0" />
	<path style="fill:none;stroke:red;stroke-width:1px;stroke-linecap:butt;stroke-linejoin:miter;stroke-opacity:1" d="M 770.996,121.455 783.732,128.531 z" id="boundary" inkscape:connector-curvature="0" />
	<path style="fill:none;stroke:red;stroke-width:1px;stroke-linecap:butt;stroke-linejoin:miter;stroke-opacity:1" d="M 756.845,121.455 770.996,121.455 z" id="boundary" inkscape:connector-curvature="0" />
	<path style="fill:none;stroke:red;stroke-width:1px;stroke-linecap:butt;stroke-linejoin:miter;stroke-opacity:1" d="M 731.372,186.551 718.636,179.475 z" id="boundary" inkscape:connector-curvature="0" />
	<path style="fill:none;stroke:red;stroke-width:1px;stroke-linecap:butt;stroke-linejoin:miter;stroke-opacity:1" d="M 718.636,179.475 705.9,186.551 z" id="boundary" inkscape:connector-curvature="0" />
	<path style="fill:none;stroke:red;stroke-width:1px;stroke-linecap:butt;stroke-linejoin:miter;stroke-opacity:1" d="M 810.619,135.606 797.883,128.531 z" id="boundary" inkscape:connector-curvature="0" />
	<path style="fill:none;stroke:red;stroke-width:1px;stroke-linecap:butt;stroke-linejoin:miter;stroke-opacity:1" d="M 823.355,128.531 810.619,135.606 z" id="boundary" inkscape:connector-curvature="0" />
	<path style="fill:none;stroke:red;stroke-width:1px;stroke-linecap:butt;stroke-linejoin:miter;stroke-opacity:1" d="M 783.732,128.531 797.883,128.531 z" id="boundary" inkscape:connector-curvature="0" />
	<path style="fill:none;stroke:red;stroke-width:1px;stroke-linecap:butt;stroke-linejoin:miter;stroke-opacity:1" d="M 850.243,121.455 837.506,128.531 z" id="boundary" inkscape:connector-curvature="0" />
	<path style="fill:none;stroke:red;stroke-width:1px;stroke-linecap:butt;stroke-linejoin:miter;stroke-opacity:1" d="M 850.243,121.455 864.394,121.455 z" id="boundary" inkscape:connector-curvature="0" />
	<path style="fill:none;stroke:red;stroke-width:1px;stroke-linecap:butt;stroke-linejoin:miter;stroke-opacity:1" d="M 823.355,128.531 837.506,128.531 z" id="boundary" inkscape:connector-curvature="0" />
	<path style="fill:none;stroke:red;stroke-width:1px;stroke-linecap:butt;stroke-linejoin:miter;stroke-opacity:1" d="M 878.545,121.455 864.394,121.455 z" id="boundary" inkscape:connector-curvature="0" />
	<path style="fill:none;stroke:red;stroke-width:1px;stroke-linecap:butt;stroke-linejoin:miter;stroke-opacity:1" d="M 906.847,114.379 892.696,114.379 z" id="boundary" inkscape:connector-curvature="0" />
	<path style="fill:none;stroke:red;stroke-width:1px;stroke-linecap:butt;stroke-linejoin:miter;stroke-opacity:1" d="M 892.696,114.379 878.545,121.455 z" id="boundary" inkscape:connector-curvature="0" />
	<path style="fill:none;stroke:red;stroke-width:1px;stroke-linecap:butt;stroke-linejoin:miter;stroke-opacity:1" d="M 920.999,114.379 906.847,114.379 z" id="boundary" inkscape:connector-curvature="0" />
	<path style="fill:none;stroke:red;stroke-width:1px;stroke-linecap:butt;stroke-linejoin:miter;stroke-opacity:1" d="M 970.528,144.097 960.622,132.776 z" id="boundary" inkscape:connector-curvature="0" />
	<path style="fill:none;stroke:red;stroke-width:1px;stroke-linecap:butt;stroke-linejoin:miter;stroke-opacity:1" d="M 933.735,121.455 920.999,114.379 z" id="boundary" inkscape:connector-curvature="0" />
	<path style="fill:none;stroke:red;stroke-width:1px;stroke-linecap:butt;stroke-linejoin:miter;stroke-opacity:1" d="M 933.735,121.455 946.471,128.531 z" id="boundary" inkscape:connector-curvature="0" />
	<path style="fill:none;stroke:red;stroke-width:1px;stroke-linecap:butt;stroke-linejoin:miter;stroke-opacity:1" d="M 946.471,128.531 960.622,132.776 z" id="boundary" inkscape:connector-curvature="0" />
	<path style="fill:none;stroke:red;stroke-width:1px;stroke-linecap:butt;stroke-linejoin:miter;stroke-opacity:1" d="M 802.128,183.72 816.28,179.475 z" id="boundary" inkscape:connector-curvature="0" />
	<path style="fill:none;stroke:red;stroke-width:1px;stroke-linecap:butt;stroke-linejoin:miter;stroke-opacity:1" d="M 830.431,176.645 816.28,179.475 z" id="boundary" inkscape:connector-curvature="0" />
	<path style="fill:none;stroke:red;stroke-width:1px;stroke-linecap:butt;stroke-linejoin:miter;stroke-opacity:1" d="M 844.582,172.399 857.318,165.324 z" id="boundary" inkscape:connector-curvature="0" />
	<path style="fill:none;stroke:red;stroke-width:1px;stroke-linecap:butt;stroke-linejoin:miter;stroke-opacity:1" d="M 844.582,172.399 830.431,176.645 z" id="boundary" inkscape:connector-curvature="0" />
	<path style="fill:none;stroke:red;stroke-width:1px;stroke-linecap:butt;stroke-linejoin:miter;stroke-opacity:1" d="M 870.054,172.399 884.205,172.399 z" id="boundary" inkscape:connector-curvature="0" />
	<path style="fill:none;stroke:red;stroke-width:1px;stroke-linecap:butt;stroke-linejoin:miter;stroke-opacity:1" d="M 857.318,165.324 870.054,172.399 z" id="boundary" inkscape:connector-curvature="0" />
	<path style="fill:none;stroke:red;stroke-width:1px;stroke-linecap:butt;stroke-linejoin:miter;stroke-opacity:1" d="M 898.357,172.399 884.205,172.399 z" id="boundary" inkscape:connector-curvature="0" />
	<path style="fill:none;stroke:red;stroke-width:1px;stroke-linecap:butt;stroke-linejoin:miter;stroke-opacity:1" d="M 970.528,144.097 981.849,154.003 z" id="boundary" inkscape:connector-curvature="0" />
	<path style="fill:none;stroke:red;stroke-width:1px;stroke-linecap:butt;stroke-linejoin:miter;stroke-opacity:1" d="M 981.849,154.003 991.755,165.324 z" id="boundary" inkscape:connector-curvature="0" />
	<path style="fill:none;stroke:red;stroke-width:1px;stroke-linecap:butt;stroke-linejoin:miter;stroke-opacity:1" d="M 912.508,172.399 898.357,172.399 z" id="boundary" inkscape:connector-curvature="0" />
	<path style="fill:none;stroke:red;stroke-width:1px;stroke-linecap:butt;stroke-linejoin:miter;stroke-opacity:1" d="M 926.659,169.569 912.508,172.399 z" id="boundary" inkscape:connector-curvature="0" />
	<path style="fill:none;stroke:red;stroke-width:1px;stroke-linecap:butt;stroke-linejoin:miter;stroke-opacity:1" d="M 926.659,169.569 940.81,172.399 z" id="boundary" inkscape:connector-curvature="0" />
	<path style="fill:none;stroke:red;stroke-width:1px;stroke-linecap:butt;stroke-linejoin:miter;stroke-opacity:1" d="M 952.131,180.89 940.81,172.399 z" id="boundary" inkscape:connector-curvature="0" />
	<path style="fill:none;stroke:red;stroke-width:1px;stroke-linecap:butt;stroke-linejoin:miter;stroke-opacity:1" d="M 991.755,165.324 996,179.475 z" id="boundary" inkscape:connector-curvature="0" />
	<path style="fill:none;stroke:red;stroke-width:1px;stroke-linecap:butt;stroke-linejoin:miter;stroke-opacity:1" d="M 966.282,186.551 952.131,180.89 z" id="boundary" inkscape:connector-curvature="0" />
	<path style="fill:none;stroke:red;stroke-width:1px;stroke-linecap:butt;stroke-linejoin:miter;stroke-opacity:1" d="M 991.755,200.702 996,179.475 z" id="boundary" inkscape:connector-curvature="0" />
	<path style="fill:none;stroke:red;stroke-width:1px;stroke-linecap:butt;stroke-linejoin:miter;stroke-opacity:1" d="M 802.128,183.72 787.977,186.551 z" id="boundary" inkscape:connector-curvature="0" />
	<path style="fill:none;stroke:red;stroke-width:1px;stroke-linecap:butt;stroke-linejoin:miter;stroke-opacity:1" d="M 455.424,312.496 454.009,285.609 z" id="boundary" inkscape:connector-curvature="0" />
	<path style="fill:none;stroke:red;stroke-width:1px;stroke-linecap:butt;stroke-linejoin:miter;stroke-opacity:1" d="M 536.086,306.836 521.934,306.836 z" id="boundary" inkscape:connector-curvature="0" />
	<path style="fill:none;stroke:red;stroke-width:1px;stroke-linecap:butt;stroke-linejoin:miter;stroke-opacity:1" d="M 548.822,299.76 536.086,306.836 z" id="boundary" inkscape:connector-curvature="0" />
	<path style="fill:none;stroke:red;stroke-width:1px;stroke-linecap:butt;stroke-linejoin:miter;stroke-opacity:1" d="M 562.973,295.515 548.822,299.76 z" id="boundary" inkscape:connector-curvature="0" />
	<path style="fill:none;stroke:red;stroke-width:1px;stroke-linecap:butt;stroke-linejoin:miter;stroke-opacity:1" d="M 521.934,306.836 514.859,320.987 z" id="boundary" inkscape:connector-curvature="0" />
	<path style="fill:none;stroke:red;stroke-width:1px;stroke-linecap:butt;stroke-linejoin:miter;stroke-opacity:1" d="M 507.783,335.138 514.859,320.987 z" id="boundary" inkscape:connector-curvature="0" />
	<path style="fill:none;stroke:red;stroke-width:1px;stroke-linecap:butt;stroke-linejoin:miter;stroke-opacity:1" d="M 507.783,335.138 497.877,346.459 z" id="boundary" inkscape:connector-curvature="0" />
	<path style="fill:none;stroke:red;stroke-width:1px;stroke-linecap:butt;stroke-linejoin:miter;stroke-opacity:1" d="M 588.445,285.609 574.294,285.609 z" id="boundary" inkscape:connector-curvature="0" />
	<path style="fill:none;stroke:red;stroke-width:1px;stroke-linecap:butt;stroke-linejoin:miter;stroke-opacity:1" d="M 601.181,292.685 588.445,285.609 z" id="boundary" inkscape:connector-curvature="0" />
	<path style="fill:none;stroke:red;stroke-width:1px;stroke-linecap:butt;stroke-linejoin:miter;stroke-opacity:1" d="M 574.294,285.609 562.973,295.515 z" id="boundary" inkscape:connector-curvature="0" />
	<path style="fill:none;stroke:red;stroke-width:1px;stroke-linecap:butt;stroke-linejoin:miter;stroke-opacity:1" d="M 601.181,292.685 613.917,299.76 z" id="boundary" inkscape:connector-curvature="0" />
	<path style="fill:none;stroke:red;stroke-width:1px;stroke-linecap:butt;stroke-linejoin:miter;stroke-opacity:1" d="M 613.917,299.76 628.068,302.591 z" id="boundary" inkscape:connector-curvature="0" />
	<path style="fill:none;stroke:red;stroke-width:1px;stroke-linecap:butt;stroke-linejoin:miter;stroke-opacity:1" d="M 642.22,306.836 654.956,313.912 z" id="boundary" inkscape:connector-curvature="0" />
	<path style="fill:none;stroke:red;stroke-width:1px;stroke-linecap:butt;stroke-linejoin:miter;stroke-opacity:1" d="M 654.956,313.912 667.692,320.987 z" id="boundary" inkscape:connector-curvature="0" />
	<path style="fill:none;stroke:red;stroke-width:1px;stroke-linecap:butt;stroke-linejoin:miter;stroke-opacity:1" d="M 628.068,302.591 642.22,306.836 z" id="boundary" inkscape:connector-curvature="0" />
	<path style="fill:none;stroke:red;stroke-width:1px;stroke-linecap:butt;stroke-linejoin:miter;stroke-opacity:1" d="M 469.575,360.611 455.424,363.441 z" id="boundary" inkscape:connector-curvature="0" />
	<path style="fill:none;stroke:red;stroke-width:1px;stroke-linecap:butt;stroke-linejoin:miter;stroke-opacity:1" d="M 469.575,360.611 483.726,353.535 z" id="boundary" inkscape:connector-curvature="0" />
	<path style="fill:none;stroke:red;stroke-width:1px;stroke-linecap:butt;stroke-linejoin:miter;stroke-opacity:1" d="M 497.877,346.459 483.726,353.535 z" id="boundary" inkscape:connector-curvature="0" />
	<path style="fill:none;stroke:red;stroke-width:1px;stroke-linecap:butt;stroke-linejoin:miter;stroke-opacity:1" d="M 667.692,362.026 656.371,371.932 z" id="boundary" inkscape:connector-curvature="0" />
	<path style="fill:none;stroke:red;stroke-width:1px;stroke-linecap:butt;stroke-linejoin:miter;stroke-opacity:1" d="M 633.729,394.573 645.05,383.252 z" id="boundary" inkscape:connector-curvature="0" />
	<path style="fill:none;stroke:red;stroke-width:1px;stroke-linecap:butt;stroke-linejoin:miter;stroke-opacity:1" d="M 645.05,404.479 633.729,394.573 z" id="boundary" inkscape:connector-curvature="0" />
	<path style="fill:none;stroke:red;stroke-width:1px;stroke-linecap:butt;stroke-linejoin:miter;stroke-opacity:1" d="M 659.201,405.894 645.05,404.479 z" id="boundary" inkscape:connector-curvature="0" />
	<path style="fill:none;stroke:red;stroke-width:1px;stroke-linecap:butt;stroke-linejoin:miter;stroke-opacity:1" d="M 659.201,405.894 673.352,405.894 z" id="boundary" inkscape:connector-curvature="0" />
	<path style="fill:none;stroke:red;stroke-width:1px;stroke-linecap:butt;stroke-linejoin:miter;stroke-opacity:1" d="M 645.05,383.252 656.371,371.932 z" id="boundary" inkscape:connector-curvature="0" />
	<path style="fill:none;stroke:red;stroke-width:1px;stroke-linecap:butt;stroke-linejoin:miter;stroke-opacity:1" d="M 705.9,200.702 705.9,186.551 z" id="boundary" inkscape:connector-curvature="0" />
	<path style="fill:none;stroke:red;stroke-width:1px;stroke-linecap:butt;stroke-linejoin:miter;stroke-opacity:1" d="M 705.9,214.853 708.73,229.004 z" id="boundary" inkscape:connector-curvature="0" />
	<path style="fill:none;stroke:red;stroke-width:1px;stroke-linecap:butt;stroke-linejoin:miter;stroke-opacity:1" d="M 705.9,214.853 705.9,200.702 z" id="boundary" inkscape:connector-curvature="0" />
	<path style="fill:none;stroke:red;stroke-width:1px;stroke-linecap:butt;stroke-linejoin:miter;stroke-opacity:1" d="M 731.372,186.551 745.524,186.551 z" id="boundary" inkscape:connector-curvature="0" />
	<path style="fill:none;stroke:red;stroke-width:1px;stroke-linecap:butt;stroke-linejoin:miter;stroke-opacity:1" d="M 708.73,229.004 712.976,243.155 z" id="boundary" inkscape:connector-curvature="0" />
	<path style="fill:none;stroke:red;stroke-width:1px;stroke-linecap:butt;stroke-linejoin:miter;stroke-opacity:1" d="M 727.127,268.628 727.127,282.779 z" id="boundary" inkscape:connector-curvature="0" />
	<path style="fill:none;stroke:red;stroke-width:1px;stroke-linecap:butt;stroke-linejoin:miter;stroke-opacity:1" d="M 720.051,255.892 712.976,243.155 z" id="boundary" inkscape:connector-curvature="0" />
	<path style="fill:none;stroke:red;stroke-width:1px;stroke-linecap:butt;stroke-linejoin:miter;stroke-opacity:1" d="M 720.051,255.892 727.127,268.628 z" id="boundary" inkscape:connector-curvature="0" />
	<path style="fill:none;stroke:red;stroke-width:1px;stroke-linecap:butt;stroke-linejoin:miter;stroke-opacity:1" d="M 759.675,186.551 745.524,186.551 z" id="boundary" inkscape:connector-curvature="0" />
	<path style="fill:none;stroke:red;stroke-width:1px;stroke-linecap:butt;stroke-linejoin:miter;stroke-opacity:1" d="M 773.826,186.551 787.977,186.551 z" id="boundary" inkscape:connector-curvature="0" />
	<path style="fill:none;stroke:red;stroke-width:1px;stroke-linecap:butt;stroke-linejoin:miter;stroke-opacity:1" d="M 759.675,186.551 773.826,186.551 z" id="boundary" inkscape:connector-curvature="0" />
	<path style="fill:none;stroke:red;stroke-width:1px;stroke-linecap:butt;stroke-linejoin:miter;stroke-opacity:1" d="M 979.019,193.626 966.282,186.551 z" id="boundary" inkscape:connector-curvature="0" />
	<path style="fill:none;stroke:red;stroke-width:1px;stroke-linecap:butt;stroke-linejoin:miter;stroke-opacity:1" d="M 979.019,193.626 991.755,200.702 z" id="boundary" inkscape:connector-curvature="0" />
	<path style="fill:none;stroke:red;stroke-width:1px;stroke-linecap:butt;stroke-linejoin:miter;stroke-opacity:1" d="M 727.127,306.836 727.127,282.779 z" id="boundary" inkscape:connector-curvature="0" />
	<path style="fill:none;stroke:red;stroke-width:1px;stroke-linecap:butt;stroke-linejoin:miter;stroke-opacity:1" d="M 676.183,332.308 667.692,320.987 z" id="boundary" inkscape:connector-curvature="0" />
	<path style="fill:none;stroke:red;stroke-width:1px;stroke-linecap:butt;stroke-linejoin:miter;stroke-opacity:1" d="M 676.183,332.308 673.352,347.874 z" id="boundary" inkscape:connector-curvature="0" />
	<path style="fill:none;stroke:red;stroke-width:1px;stroke-linecap:butt;stroke-linejoin:miter;stroke-opacity:1" d="M 673.352,347.874 667.692,362.026 z" id="boundary" inkscape:connector-curvature="0" />
	<path style="fill:none;stroke:red;stroke-width:1px;stroke-linecap:butt;stroke-linejoin:miter;stroke-opacity:1" d="M 712.976,356.365 705.9,370.516 z" id="boundary" inkscape:connector-curvature="0" />
	<path style="fill:none;stroke:red;stroke-width:1px;stroke-linecap:butt;stroke-linejoin:miter;stroke-opacity:1" d="M 687.504,404.479 673.352,405.894 z" id="boundary" inkscape:connector-curvature="0" />
	<path style="fill:none;stroke:red;stroke-width:1px;stroke-linecap:butt;stroke-linejoin:miter;stroke-opacity:1" d="M 698.825,391.743 687.504,404.479 z" id="boundary" inkscape:connector-curvature="0" />
	<path style="fill:none;stroke:red;stroke-width:1px;stroke-linecap:butt;stroke-linejoin:miter;stroke-opacity:1" d="M 705.9,370.516 698.825,391.743 z" id="boundary" inkscape:connector-curvature="0" />
	<path style="fill:none;stroke:red;stroke-width:1px;stroke-linecap:butt;stroke-linejoin:miter;stroke-opacity:1" d="M 727.127,320.987 727.127,306.836 z" id="boundary" inkscape:connector-curvature="0" />
	<path style="fill:none;stroke:red;stroke-width:1px;stroke-linecap:butt;stroke-linejoin:miter;stroke-opacity:1" d="M 727.127,320.987 720.051,342.214 z" id="boundary" inkscape:connector-curvature="0" />
	<path style="fill:none;stroke:red;stroke-width:1px;stroke-linecap:butt;stroke-linejoin:miter;stroke-opacity:1" d="M 712.976,356.365 720.051,342.214 z" id="boundary" inkscape:connector-curvature="0" />
	<circle cx="4" cy="76.1712" r="4" fill="#0" id="circle0"/>
	<circle cx="4" cy="90.3224" r="4" fill="#0" id="circle1"/>
	<circle cx="4" cy="104.474" r="4" fill="#0" id="circle2"/>
	<circle cx="4" cy="118.625" r="4" fill="#0" id="circle3"/>
	<circle cx="11.0756" cy="131.361" r="4" fill="#0" id="circle4"/>
	<circle cx="15.321" cy="64.8502" r="4" fill="#0" id="circle5"/>
	<circle cx="18.1512" cy="144.097" r="4" fill="#0" id="circle6"/>
	<circle cx="22.3966" cy="50.699" r="4" fill="#0" id="circle7"/>
	<circle cx="22.3966" cy="158.248" r="4" fill="#0" id="circle8"/>
	<circle cx="29.4722" cy="36.5478" r="4" fill="#0" id="circle9"/>
	<circle cx="32.3024" cy="5.41512" r="4" fill="#0" id="circle10"/>
	<circle cx="32.3024" cy="19.5663" r="4" fill="#0" id="circle11"/>
	<circle cx="35.1327" cy="165.324" r="4" fill="#0" id="circle12"/>
	<circle cx="46.4536" cy="4" r="4" fill="#0" id="circle13"/>
	<circle cx="49.2839" cy="169.569" r="4" fill="#0" id="circle14"/>
	<circle cx="60.6049" cy="8.24536" r="4" fill="#0" id="circle15"/>
	<circle cx="63.4351" cy="165.324" r="4" fill="#0" id="circle16"/>
	<circle cx="74.7561" cy="8.24536" r="4" fill="#0" id="circle17"/>
	<circle cx="76.1712" cy="172.399" r="4" fill="#0" id="circle18"/>
	<circle cx="87.4922" cy="15.321" r="4" fill="#0" id="circle19"/>
	<circle cx="90.3224" cy="172.399" r="4" fill="#0" id="circle20"/>
	<circle cx="101.643" cy="15.321" r="4" fill="#0" id="circle21"/>
	<circle cx="104.474" cy="172.399" r="4" fill="#0" id="circle22"/>
	<circle cx="115.795" cy="15.321" r="4" fill="#0" id="circle23"/>
	<circle cx="118.625" cy="175.23" r="4" fill="#0" id="circle24"/>
	<circle cx="128.531" cy="186.551" r="4" fill="#0" id="circle25"/>
	<circle cx="129.946" cy="16.7361" r="4" fill="#0" id="circle26"/>
	<circle cx="139.852" cy="196.456" r="4" fill="#0" id="circle27"/>
	<circle cx="144.097" cy="22.3966" r="4" fill="#0" id="circle28"/>
	<circle cx="149.757" cy="207.777" r="4" fill="#0" id="circle29"/>
	<circle cx="156.833" cy="29.4722" r="4" fill="#0" id="circle30"/>
	<circle cx="159.663" cy="401.649" r="4" fill="#0" id="circle31"/>
	<circle cx="159.663" cy="415.8" r="4" fill="#0" id="circle32"/>
	<circle cx="161.078" cy="217.683" r="4" fill="#0" id="circle33"/>
	<circle cx="168.154" cy="427.121" r="4" fill="#0" id="circle34"/>
	<circle cx="170.984" cy="29.4722" r="4" fill="#0" id="circle35"/>
	<circle cx="170.984" cy="229.004" r="4" fill="#0" id="circle36"/>
	<circle cx="170.984" cy="390.328" r="4" fill="#0" id="circle37"/>
	<circle cx="182.305" cy="238.91" r="4" fill="#0" id="circle38"/>
	<circle cx="182.305" cy="427.121" r="4" fill="#0" id="circle39"/>
	<circle cx="185.136" cy="29.4722" r="4" fill="#0" id="circle40"/>
	<circle cx="185.136" cy="390.328" r="4" fill="#0" id="circle41"/>
	<circle cx="192.211" cy="250.231" r="4" fill="#0" id="circle42"/>
	<circle cx="195.041" cy="373.347" r="4" fill="#0" id="circle43"/>
	<circle cx="196.456" cy="427.121" r="4" fill="#0" id="circle44"/>
	<circle cx="199.287" cy="29.4722" r="4" fill="#0" id="circle45"/>
	<circle cx="202.117" cy="359.195" r="4" fill="#0" id="circle46"/>
	<circle cx="203.532" cy="260.137" r="4" fill="#0" id="circle47"/>
	<circle cx="209.193" cy="274.288" r="4" fill="#0" id="circle48"/>
	<circle cx="209.193" cy="337.969" r="4" fill="#0" id="circle49"/>
	<circle cx="210.608" cy="420.046" r="4" fill="#0" id="circle50"/>
	<circle cx="213.438" cy="29.4722" r="4" fill="#0" id="circle51"/>
	<circle cx="216.268" cy="287.024" r="4" fill="#0" id="circle52"/>
	<circle cx="216.268" cy="301.175" r="4" fill="#0" id="circle53"/>
	<circle cx="216.268" cy="315.327" r="4" fill="#0" id="circle54"/>
	<circle cx="224.759" cy="412.97" r="4" fill="#0" id="circle55"/>
	<circle cx="227.589" cy="29.4722" r="4" fill="#0" id="circle56"/>
	<circle cx="231.835" cy="398.819" r="4" fill="#0" id="circle57"/>
	<circle cx="241.74" cy="29.4722" r="4" fill="#0" id="circle58"/>
	<circle cx="243.155" cy="388.913" r="4" fill="#0" id="circle59"/>
	<circle cx="253.061" cy="370.516" r="4" fill="#0" id="circle60"/>
	<circle cx="255.892" cy="29.4722" r="4" fill="#0" id="circle61"/>
	<circle cx="264.382" cy="360.611" r="4" fill="#0" id="circle62"/>
	<circle cx="270.043" cy="29.4722" r="4" fill="#0" id="circle63"/>
	<circle cx="271.458" cy="346.459" r="4" fill="#0" id="circle64"/>
	<circle cx="281.364" cy="335.138" r="4" fill="#0" id="circle65"/>
	<circle cx="284.194" cy="29.4722" r="4" fill="#0" id="circle66"/>
	<circle cx="295.515" cy="337.969" r="4" fill="#0" id="circle67"/>
	<circle cx="298.345" cy="29.4722" r="4" fill="#0" id="circle68"/>
	<circle cx="308.251" cy="345.044" r="4" fill="#0" id="circle69"/>
	<circle cx="312.496" cy="29.4722" r="4" fill="#0" id="circle70"/>
	<circle cx="316.742" cy="292.685" r="4" fill="#0" id="circle71"/>
	<circle cx="319.572" cy="306.836" r="4" fill="#0" id="circle72"/>
	<circle cx="319.572" cy="354.95" r="4" fill="#0" id="circle73"/>
	<circle cx="325.233" cy="369.101" r="4" fill="#0" id="circle74"/>
	<circle cx="326.648" cy="29.4722" r="4" fill="#0" id="circle75"/>
	<circle cx="328.063" cy="282.779" r="4" fill="#0" id="circle76"/>
	<circle cx="330.893" cy="316.742" r="4" fill="#0" id="circle77"/>
	<circle cx="336.553" cy="377.592" r="4" fill="#0" id="circle78"/>
	<circle cx="340.799" cy="29.4722" r="4" fill="#0" id="circle79"/>
	<circle cx="342.214" cy="278.534" r="4" fill="#0" id="circle80"/>
	<circle cx="343.629" cy="323.817" r="4" fill="#0" id="circle81"/>
	<circle cx="350.705" cy="336.553" r="4" fill="#0" id="circle82"/>
	<circle cx="350.705" cy="373.347" r="4" fill="#0" id="circle83"/>
	<circle cx="352.12" cy="350.705" r="4" fill="#0" id="circle84"/>
	<circle cx="354.95" cy="22.3966" r="4" fill="#0" id="circle85"/>
	<circle cx="356.365" cy="278.534" r="4" fill="#0" id="circle86"/>
	<circle cx="369.101" cy="22.3966" r="4" fill="#0" id="circle87"/>
	<circle cx="370.516" cy="278.534" r="4" fill="#0" id="circle88"/>
	<circle cx="379.007" cy="359.195" r="4" fill="#0" id="circle89"/>
	<circle cx="379.007" cy="373.347" r="4" fill="#0" id="circle90"/>
	<circle cx="383.252" cy="15.321" r="4" fill="#0" id="circle91"/>
	<circle cx="384.668" cy="278.534" r="4" fill="#0" id="circle92"/>
	<circle cx="390.328" cy="383.252" r="4" fill="#0" id="circle93"/>
	<circle cx="393.158" cy="352.12" r="4" fill="#0" id="circle94"/>
	<circle cx="397.404" cy="15.321" r="4" fill="#0" id="circle95"/>
	<circle cx="398.819" cy="278.534" r="4" fill="#0" id="circle96"/>
	<circle cx="403.064" cy="390.328" r="4" fill="#0" id="circle97"/>
	<circle cx="407.31" cy="347.874" r="4" fill="#0" id="circle98"/>
	<circle cx="411.555" cy="15.321" r="4" fill="#0" id="circle99"/>
	<circle cx="412.97" cy="278.534" r="4" fill="#0" id="circle100"/>
	<circle cx="417.215" cy="384.668" r="4" fill="#0" id="circle101"/>
	<circle cx="420.046" cy="340.799" r="4" fill="#0" id="circle102"/>
	<circle cx="424.291" cy="8.24536" r="4" fill="#0" id="circle103"/>
	<circle cx="427.121" cy="278.534" r="4" fill="#0" id="circle104"/>
	<circle cx="429.951" cy="329.478" r="4" fill="#0" id="circle105"/>
	<circle cx="429.951" cy="377.592" r="4" fill="#0" id="circle106"/>
	<circle cx="438.442" cy="8.24536" r="4" fill="#0" id="circle107"/>
	<circle cx="441.272" cy="278.534" r="4" fill="#0" id="circle108"/>
	<circle cx="442.688" cy="370.516" r="4" fill="#0" id="circle109"/>
	<circle cx="444.103" cy="322.402" r="4" fill="#0" id="circle110"/>
	<circle cx="452.593" cy="8.24536" r="4" fill="#0" id="circle111"/>
	<circle cx="454.009" cy="285.609" r="4" fill="#0" id="circle112"/>
	<circle cx="455.424" cy="312.496" r="4" fill="#0" id="circle113"/>
	<circle cx="455.424" cy="363.441" r="4" fill="#0" id="circle114"/>
	<circle cx="466.745" cy="8.24536" r="4" fill="#0" id="circle115"/>
	<circle cx="469.575" cy="360.611" r="4" fill="#0" id="circle116"/>
	<circle cx="479.481" cy="15.321" r="4" fill="#0" id="circle117"/>
	<circle cx="483.726" cy="353.535" r="4" fill="#0" id="circle118"/>
	<circle cx="493.632" cy="15.321" r="4" fill="#0" id="circle119"/>
	<circle cx="497.877" cy="346.459" r="4" fill="#0" id="circle120"/>
	<circle cx="507.783" cy="15.321" r="4" fill="#0" id="circle121"/>
	<circle cx="507.783" cy="335.138" r="4" fill="#0" id="circle122"/>
	<circle cx="514.859" cy="320.987" r="4" fill="#0" id="circle123"/>
	<circle cx="520.519" cy="22.3966" r="4" fill="#0" id="circle124"/>
	<circle cx="521.934" cy="306.836" r="4" fill="#0" id="circle125"/>
	<circle cx="534.67" cy="25.2268" r="4" fill="#0" id="circle126"/>
	<circle cx="536.086" cy="306.836" r="4" fill="#0" id="circle127"/>
	<circle cx="548.822" cy="29.4722" r="4" fill="#0" id="circle128"/>
	<circle cx="548.822" cy="299.76" r="4" fill="#0" id="circle129"/>
	<circle cx="562.973" cy="29.4722" r="4" fill="#0" id="circle130"/>
	<circle cx="562.973" cy="295.515" r="4" fill="#0" id="circle131"/>
	<circle cx="574.294" cy="285.609" r="4" fill="#0" id="circle132"/>
	<circle cx="575.709" cy="36.5478" r="4" fill="#0" id="circle133"/>
	<circle cx="588.445" cy="285.609" r="4" fill="#0" id="circle134"/>
	<circle cx="589.86" cy="37.9629" r="4" fill="#0" id="circle135"/>
	<circle cx="601.181" cy="292.685" r="4" fill="#0" id="circle136"/>
	<circle cx="602.596" cy="45.0385" r="4" fill="#0" id="circle137"/>
	<circle cx="613.917" cy="299.76" r="4" fill="#0" id="circle138"/>
	<circle cx="616.748" cy="50.699" r="4" fill="#0" id="circle139"/>
	<circle cx="628.068" cy="302.591" r="4" fill="#0" id="circle140"/>
	<circle cx="629.484" cy="57.7746" r="4" fill="#0" id="circle141"/>
	<circle cx="633.729" cy="394.573" r="4" fill="#0" id="circle142"/>
	<circle cx="642.22" cy="64.8502" r="4" fill="#0" id="circle143"/>
	<circle cx="642.22" cy="306.836" r="4" fill="#0" id="circle144"/>
	<circle cx="645.05" cy="383.252" r="4" fill="#0" id="circle145"/>
	<circle cx="645.05" cy="404.479" r="4" fill="#0" id="circle146"/>
	<circle cx="653.541" cy="73.3409" r="4" fill="#0" id="circle147"/>
	<circle cx="654.956" cy="313.912" r="4" fill="#0" id="circle148"/>
	<circle cx="656.371" cy="371.932" r="4" fill="#0" id="circle149"/>
	<circle cx="659.201" cy="405.894" r="4" fill="#0" id="circle150"/>
	<circle cx="666.277" cy="80.4165" r="4" fill="#0" id="circle151"/>
	<circle cx="667.692" cy="320.987" r="4" fill="#0" id="circle152"/>
	<circle cx="667.692" cy="362.026" r="4" fill="#0" id="circle153"/>
	<circle cx="673.352" cy="347.874" r="4" fill="#0" id="circle154"/>
	<circle cx="673.352" cy="405.894" r="4" fill="#0" id="circle155"/>
	<circle cx="676.183" cy="332.308" r="4" fill="#0" id="circle156"/>
	<circle cx="677.598" cy="90.3224" r="4" fill="#0" id="circle157"/>
	<circle cx="687.504" cy="404.479" r="4" fill="#0" id="circle158"/>
	<circle cx="690.334" cy="97.398" r="4" fill="#0" id="circle159"/>
	<circle cx="698.825" cy="391.743" r="4" fill="#0" id="circle160"/>
	<circle cx="704.485" cy="100.228" r="4" fill="#0" id="circle161"/>
	<circle cx="705.9" cy="186.551" r="4" fill="#0" id="circle162"/>
	<circle cx="705.9" cy="200.702" r="4" fill="#0" id="circle163"/>
	<circle cx="705.9" cy="214.853" r="4" fill="#0" id="circle164"/>
	<circle cx="705.9" cy="370.516" r="4" fill="#0" id="circle165"/>
	<circle cx="708.73" cy="229.004" r="4" fill="#0" id="circle166"/>
	<circle cx="712.976" cy="243.155" r="4" fill="#0" id="circle167"/>
	<circle cx="712.976" cy="356.365" r="4" fill="#0" id="circle168"/>
	<circle cx="717.221" cy="107.304" r="4" fill="#0" id="circle169"/>
	<circle cx="718.636" cy="179.475" r="4" fill="#0" id="circle170"/>
	<circle cx="720.051" cy="255.892" r="4" fill="#0" id="circle171"/>
	<circle cx="720.051" cy="342.214" r="4" fill="#0" id="circle172"/>
	<circle cx="727.127" cy="268.628" r="4" fill="#0" id="circle173"/>
	<circle cx="727.127" cy="282.779" r="4" fill="#0" id="circle174"/>
	<circle cx="727.127" cy="306.836" r="4" fill="#0" id="circle175"/>
	<circle cx="727.127" cy="320.987" r="4" fill="#0" id="circle176"/>
	<circle cx="729.957" cy="114.379" r="4" fill="#0" id="circle177"/>
	<circle cx="731.372" cy="186.551" r="4" fill="#0" id="circle178"/>
	<circle cx="742.693" cy="121.455" r="4" fill="#0" id="circle179"/>
	<circle cx="745.524" cy="186.551" r="4" fill="#0" id="circle180"/>
	<circle cx="756.845" cy="121.455" r="4" fill="#0" id="circle181"/>
	<circle cx="759.675" cy="186.551" r="4" fill="#0" id="circle182"/>
	<circle cx="770.996" cy="121.455" r="4" fill="#0" id="circle183"/>
	<circle cx="773.826" cy="186.551" r="4" fill="#0" id="circle184"/>
	<circle cx="783.732" cy="128.531" r="4" fill="#0" id="circle185"/>
	<circle cx="787.977" cy="186.551" r="4" fill="#0" id="circle186"/>
	<circle cx="797.883" cy="128.531" r="4" fill="#0" id="circle187"/>
	<circle cx="802.128" cy="183.72" r="4" fill="#0" id="circle188"/>
	<circle cx="810.619" cy="135.606" r="4" fill="#0" id="circle189"/>
	<circle cx="816.28" cy="179.475" r="4" fill="#0" id="circle190"/>
	<circle cx="823.355" cy="128.531" r="4" fill="#0" id="circle191"/>
	<circle cx="830.431" cy="176.645" r="4" fill="#0" id="circle192"/>
	<circle cx="837.506" cy="128.531" r="4" fill="#0" id="circle193"/>
	<circle cx="844.582" cy="172.399" r="4" fill="#0" id="circle194"/>
	<circle cx="850.243" cy="121.455" r="4" fill="#0" id="circle195"/>
	<circle cx="857.318" cy="165.324" r="4" fill="#0" id="circle196"/>
	<circle cx="864.394" cy="121.455" r="4" fill="#0" id="circle197"/>
	<circle cx="870.054" cy="172.399" r="4" fill="#0" id="circle198"/>
	<circle cx="878.545" cy="121.455" r="4" fill="#0" id="circle199"/>
	<circle cx="884.205" cy="172.399" r="4" fill="#0" id="circle200"/>
	<circle cx="892.696" cy="114.379" r="4" fill="#0" id="circle201"/>
	<circle cx="898.357" cy="172.399" r="4" fill="#0" id="circle202"/>
	<circle cx="906.847" cy="114.379" r="4" fill="#0" id="circle203"/>
	<circle cx="912.508" cy="172.399" r="4" fill="#0" id="circle204"/>
	<circle cx="920.999" cy="114.379" r="4" fill="#0" id="circle205"/>
	<circle cx="926.659" cy="169.569" r="4" fill="#0" id="circle206"/>
	<circle cx="933.735" cy="121.455" r="4" fill="#0" id="circle207"/>
	<circle cx="940.81" cy="172.399" r="4" fill="#0" id="circle208"/>
	<circle cx="946.471" cy="128.531" r="4" fill="#0" id="circle209"/>
	<circle cx="952.131" cy="180.89" r="4" fill="#0" id="circle210"/>
	<circle cx="960.622" cy="132.776" r="4" fill="#0" id="circle211"/>
	<circle cx="966.282" cy="186.551" r="4" fill="#0" id="circle212"/>
	<circle cx="970.528" cy="144.097" r="4" fill="#0" id="circle213"/>
	<circle cx="979.019" cy="193.626" r="4" fill="#0" id="circle214"/>
	<circle cx="981.849" cy="154.003" r="4" fill="#0" id="circle215"/>
	<circle cx="991.755" cy="165.324" r="4" fill="#0" id="circle216"/>
	<circle cx="991.755" cy="200.702" r="4" fill="#0" id="circle217"/>
	<circle cx="996" cy="179.475" r="4" fill="#0" id="circle218"/>
	</g>
</svg>