<?xml version="1.0" encoding="UTF-8" standalone="no"?>
<!-- Created with CurveBenchmark -->
<svg
	xmlns:dc="http://purl.org/dc/elements/1.1/"
	xmlns:cc="http://creativecommons.org/ns#"
	xmlns:rdf="http://www.w3.org/1999/02/22-rdf-syntax-ns#"
	xmlns:svg="http://www.w3.org/2000/svg"
	xmlns="http://www.w3.org/2000/svg"
	xmlns:sodipodi="http://sodipodi.sourceforge.net/DTD/sodipodi-0.dtd"
	xmlns:inkscape="http://www.inkscape.org/namespaces/inkscape"
	width="1000"
	height="1000"
	id="svg2"
	version="1.1"
	sodipodi:docname="manifold/crust-fork20.png.txt">
<defs
	id="defs4" />
<metadata
	id="metadata7">
	<rdf:RDF>
		<cc:Work
			rdf:about="">
			<dc:format>image/svg+xml</dc:format>
			<dc:type
				rdf:resource="http://purl.org/dc/dcmitype/StillImage" />
			<dc:title></dc:title>
		</cc:Work>
	</rdf:RDF>
</metadata>
<g
	inkscape:label="Layer 1"
	inkscape:groupmode="layer"
	id="layer1">
	<path style="fill:none;stroke:red;stroke-width:1px;stroke-linecap:butt;stroke-linejoin:miter;stroke-opacity:1" d="M 4,18.6691 18.6691,4 z" id="boundary" inkscape:connector-curvature="0" />
	<path style="fill:none;stroke:red;stroke-width:1px;stroke-linecap:butt;stroke-linejoin:miter;stroke-opacity:1" d="M 18.6691,31.5046 4,18.6691 z" id="boundary" inkscape:connector-curvature="0" />
	<path style="fill:none;stroke:red;stroke-width:1px;stroke-linecap:butt;stroke-linejoin:miter;stroke-opacity:1" d="M 18.6691,4 37.0055,4 z" id="boundary" inkscape:connector-curvature="0" />
	<path style="fill:none;stroke:red;stroke-width:1px;stroke-linecap:butt;stroke-linejoin:miter;stroke-opacity:1" d="M 37.0055,4 55.342,4 z" id="boundary" inkscape:connector-curvature="0" />
	<path style="fill:none;stroke:red;stroke-width:1px;stroke-linecap:butt;stroke-linejoin:miter;stroke-opacity:1" d="M 18.6691,31.5046 33.3383,42.5065 z" id="boundary" inkscape:connector-curvature="0" />
	<path style="fill:none;stroke:red;stroke-width:1px;stroke-linecap:butt;stroke-linejoin:miter;stroke-opacity:1" d="M 51.6747,42.5065 70.0111,42.5065 z" id="boundary" inkscape:connector-curvature="0" />
	<path style="fill:none;stroke:red;stroke-width:1px;stroke-linecap:butt;stroke-linejoin:miter;stroke-opacity:1" d="M 51.6747,42.5065 33.3383,42.5065 z" id="boundary" inkscape:connector-curvature="0" />
	<path style="fill:none;stroke:red;stroke-width:1px;stroke-linecap:butt;stroke-linejoin:miter;stroke-opacity:1" d="M 55.342,4 73.6784,4 z" id="boundary" inkscape:connector-curvature="0" />
	<path style="fill:none;stroke:red;stroke-width:1px;stroke-linecap:butt;stroke-linejoin:miter;stroke-opacity:1" d="M 73.6784,4 92.0148,4 z" id="boundary" inkscape:connector-curvature="0" />
	<path style="fill:none;stroke:red;stroke-width:1px;stroke-linecap:butt;stroke-linejoin:miter;stroke-opacity:1" d="M 92.0148,4 110.351,4 z" id="boundary" inkscape:connector-curvature="0" />
	<path style="fill:none;stroke:red;stroke-width:1px;stroke-linecap:butt;stroke-linejoin:miter;stroke-opacity:1" d="M 110.351,4 128.688,4 z" id="boundary" inkscape:connector-curvature="0" />
	<path style="fill:none;stroke:red;stroke-width:1px;stroke-linecap:butt;stroke-linejoin:miter;stroke-opacity:1" d="M 70.0111,42.5065 88.3475,46.1738 z" id="boundary" inkscape:connector-curvature="0" />
	<path style="fill:none;stroke:red;stroke-width:1px;stroke-linecap:butt;stroke-linejoin:miter;stroke-opacity:1" d="M 125.02,51.6747 106.684,51.6747 z" id="boundary" inkscape:connector-curvature="0" />
	<path style="fill:none;stroke:red;stroke-width:1px;stroke-linecap:butt;stroke-linejoin:miter;stroke-opacity:1" d="M 88.3475,46.1738 106.684,51.6747 z" id="boundary" inkscape:connector-curvature="0" />
	<path style="fill:none;stroke:red;stroke-width:1px;stroke-linecap:butt;stroke-linejoin:miter;stroke-opacity:1" d="M 22.3364,92.0148 22.3364,110.351 z" id="boundary" inkscape:connector-curvature="0" />
	<path style="fill:none;stroke:red;stroke-width:1px;stroke-linecap:butt;stroke-linejoin:miter;stroke-opacity:1" d="M 22.3364,92.0148 40.6728,86.5139 z" id="boundary" inkscape:connector-curvature="0" />
	<path style="fill:none;stroke:red;stroke-width:1px;stroke-linecap:butt;stroke-linejoin:miter;stroke-opacity:1" d="M 40.6728,86.5139 59.0092,86.5139 z" id="boundary" inkscape:connector-curvature="0" />
	<path style="fill:none;stroke:red;stroke-width:1px;stroke-linecap:butt;stroke-linejoin:miter;stroke-opacity:1" d="M 59.0092,86.5139 77.3457,86.5139 z" id="boundary" inkscape:connector-curvature="0" />
	<path style="fill:none;stroke:red;stroke-width:1px;stroke-linecap:butt;stroke-linejoin:miter;stroke-opacity:1" d="M 22.3364,110.351 37.0055,123.187 z" id="boundary" inkscape:connector-curvature="0" />
	<path style="fill:none;stroke:red;stroke-width:1px;stroke-linecap:butt;stroke-linejoin:miter;stroke-opacity:1" d="M 73.6784,125.02 55.342,125.02 z" id="boundary" inkscape:connector-curvature="0" />
	<path style="fill:none;stroke:red;stroke-width:1px;stroke-linecap:butt;stroke-linejoin:miter;stroke-opacity:1" d="M 37.0055,123.187 55.342,125.02 z" id="boundary" inkscape:connector-curvature="0" />
	<path style="fill:none;stroke:red;stroke-width:1px;stroke-linecap:butt;stroke-linejoin:miter;stroke-opacity:1" d="M 77.3457,86.5139 95.6821,90.1811 z" id="boundary" inkscape:connector-curvature="0" />
	<path style="fill:none;stroke:red;stroke-width:1px;stroke-linecap:butt;stroke-linejoin:miter;stroke-opacity:1" d="M 95.6821,90.1811 114.018,90.1811 z" id="boundary" inkscape:connector-curvature="0" />
	<path style="fill:none;stroke:red;stroke-width:1px;stroke-linecap:butt;stroke-linejoin:miter;stroke-opacity:1" d="M 114.018,90.1811 132.355,90.1811 z" id="boundary" inkscape:connector-curvature="0" />
	<path style="fill:none;stroke:red;stroke-width:1px;stroke-linecap:butt;stroke-linejoin:miter;stroke-opacity:1" d="M 73.6784,125.02 92.0148,125.02 z" id="boundary" inkscape:connector-curvature="0" />
	<path style="fill:none;stroke:red;stroke-width:1px;stroke-linecap:butt;stroke-linejoin:miter;stroke-opacity:1" d="M 126.854,134.189 110.351,125.02 z" id="boundary" inkscape:connector-curvature="0" />
	<path style="fill:none;stroke:red;stroke-width:1px;stroke-linecap:butt;stroke-linejoin:miter;stroke-opacity:1" d="M 110.351,125.02 92.0148,125.02 z" id="boundary" inkscape:connector-curvature="0" />
	<path style="fill:none;stroke:red;stroke-width:1px;stroke-linecap:butt;stroke-linejoin:miter;stroke-opacity:1" d="M 128.688,4 147.024,4 z" id="boundary" inkscape:connector-curvature="0" />
	<path style="fill:none;stroke:red;stroke-width:1px;stroke-linecap:butt;stroke-linejoin:miter;stroke-opacity:1" d="M 143.357,51.6747 125.02,51.6747 z" id="boundary" inkscape:connector-curvature="0" />
	<path style="fill:none;stroke:red;stroke-width:1px;stroke-linecap:butt;stroke-linejoin:miter;stroke-opacity:1" d="M 165.36,4 181.863,13.1682 z" id="boundary" inkscape:connector-curvature="0" />
	<path style="fill:none;stroke:red;stroke-width:1px;stroke-linecap:butt;stroke-linejoin:miter;stroke-opacity:1" d="M 147.024,4 165.36,4 z" id="boundary" inkscape:connector-curvature="0" />
	<path style="fill:none;stroke:red;stroke-width:1px;stroke-linecap:butt;stroke-linejoin:miter;stroke-opacity:1" d="M 143.357,51.6747 161.693,51.6747 z" id="boundary" inkscape:connector-curvature="0" />
	<path style="fill:none;stroke:red;stroke-width:1px;stroke-linecap:butt;stroke-linejoin:miter;stroke-opacity:1" d="M 180.03,51.6747 161.693,51.6747 z" id="boundary" inkscape:connector-curvature="0" />
	<path style="fill:none;stroke:red;stroke-width:1px;stroke-linecap:butt;stroke-linejoin:miter;stroke-opacity:1" d="M 180.03,51.6747 198.366,55.342 z" id="boundary" inkscape:connector-curvature="0" />
	<path style="fill:none;stroke:red;stroke-width:1px;stroke-linecap:butt;stroke-linejoin:miter;stroke-opacity:1" d="M 181.863,13.1682 200.2,13.1682 z" id="boundary" inkscape:connector-curvature="0" />
	<path style="fill:none;stroke:red;stroke-width:1px;stroke-linecap:butt;stroke-linejoin:miter;stroke-opacity:1" d="M 218.536,13.1682 200.2,13.1682 z" id="boundary" inkscape:connector-curvature="0" />
	<path style="fill:none;stroke:red;stroke-width:1px;stroke-linecap:butt;stroke-linejoin:miter;stroke-opacity:1" d="M 235.039,22.3364 218.536,13.1682 z" id="boundary" inkscape:connector-curvature="0" />
	<path style="fill:none;stroke:red;stroke-width:1px;stroke-linecap:butt;stroke-linejoin:miter;stroke-opacity:1" d="M 253.375,27.8373 235.039,22.3364 z" id="boundary" inkscape:connector-curvature="0" />
	<path style="fill:none;stroke:red;stroke-width:1px;stroke-linecap:butt;stroke-linejoin:miter;stroke-opacity:1" d="M 198.366,55.342 216.702,55.342 z" id="boundary" inkscape:connector-curvature="0" />
	<path style="fill:none;stroke:red;stroke-width:1px;stroke-linecap:butt;stroke-linejoin:miter;stroke-opacity:1" d="M 233.205,64.5102 216.702,55.342 z" id="boundary" inkscape:connector-curvature="0" />
	<path style="fill:none;stroke:red;stroke-width:1px;stroke-linecap:butt;stroke-linejoin:miter;stroke-opacity:1" d="M 251.542,70.0111 268.044,79.1793 z" id="boundary" inkscape:connector-curvature="0" />
	<path style="fill:none;stroke:red;stroke-width:1px;stroke-linecap:butt;stroke-linejoin:miter;stroke-opacity:1" d="M 251.542,70.0111 233.205,64.5102 z" id="boundary" inkscape:connector-curvature="0" />
	<path style="fill:none;stroke:red;stroke-width:1px;stroke-linecap:butt;stroke-linejoin:miter;stroke-opacity:1" d="M 132.355,90.1811 150.691,95.6821 z" id="boundary" inkscape:connector-curvature="0" />
	<path style="fill:none;stroke:red;stroke-width:1px;stroke-linecap:butt;stroke-linejoin:miter;stroke-opacity:1" d="M 145.19,130.521 126.854,134.189 z" id="boundary" inkscape:connector-curvature="0" />
	<path style="fill:none;stroke:red;stroke-width:1px;stroke-linecap:butt;stroke-linejoin:miter;stroke-opacity:1" d="M 150.691,95.6821 169.028,95.6821 z" id="boundary" inkscape:connector-curvature="0" />
	<path style="fill:none;stroke:red;stroke-width:1px;stroke-linecap:butt;stroke-linejoin:miter;stroke-opacity:1" d="M 185.53,104.85 169.028,95.6821 z" id="boundary" inkscape:connector-curvature="0" />
	<path style="fill:none;stroke:red;stroke-width:1px;stroke-linecap:butt;stroke-linejoin:miter;stroke-opacity:1" d="M 185.53,104.85 203.867,104.85 z" id="boundary" inkscape:connector-curvature="0" />
	<path style="fill:none;stroke:red;stroke-width:1px;stroke-linecap:butt;stroke-linejoin:miter;stroke-opacity:1" d="M 161.693,139.689 145.19,130.521 z" id="boundary" inkscape:connector-curvature="0" />
	<path style="fill:none;stroke:red;stroke-width:1px;stroke-linecap:butt;stroke-linejoin:miter;stroke-opacity:1" d="M 198.366,143.357 180.03,137.856 z" id="boundary" inkscape:connector-curvature="0" />
	<path style="fill:none;stroke:red;stroke-width:1px;stroke-linecap:butt;stroke-linejoin:miter;stroke-opacity:1" d="M 161.693,139.689 180.03,137.856 z" id="boundary" inkscape:connector-curvature="0" />
	<path style="fill:none;stroke:red;stroke-width:1px;stroke-linecap:butt;stroke-linejoin:miter;stroke-opacity:1" d="M 222.203,106.684 203.867,104.85 z" id="boundary" inkscape:connector-curvature="0" />
	<path style="fill:none;stroke:red;stroke-width:1px;stroke-linecap:butt;stroke-linejoin:miter;stroke-opacity:1" d="M 240.54,114.018 222.203,106.684 z" id="boundary" inkscape:connector-curvature="0" />
	<path style="fill:none;stroke:red;stroke-width:1px;stroke-linecap:butt;stroke-linejoin:miter;stroke-opacity:1" d="M 258.876,114.018 240.54,114.018 z" id="boundary" inkscape:connector-curvature="0" />
	<path style="fill:none;stroke:red;stroke-width:1px;stroke-linecap:butt;stroke-linejoin:miter;stroke-opacity:1" d="M 235.039,143.357 216.702,143.357 z" id="boundary" inkscape:connector-curvature="0" />
	<path style="fill:none;stroke:red;stroke-width:1px;stroke-linecap:butt;stroke-linejoin:miter;stroke-opacity:1" d="M 216.702,143.357 198.366,143.357 z" id="boundary" inkscape:connector-curvature="0" />
	<path style="fill:none;stroke:red;stroke-width:1px;stroke-linecap:butt;stroke-linejoin:miter;stroke-opacity:1" d="M 251.542,152.525 235.039,143.357 z" id="boundary" inkscape:connector-curvature="0" />
	<path style="fill:none;stroke:red;stroke-width:1px;stroke-linecap:butt;stroke-linejoin:miter;stroke-opacity:1" d="M 253.375,27.8373 269.878,37.0055 z" id="boundary" inkscape:connector-curvature="0" />
	<path style="fill:none;stroke:red;stroke-width:1px;stroke-linecap:butt;stroke-linejoin:miter;stroke-opacity:1" d="M 22.3364,183.697 37.0055,169.028 z" id="boundary" inkscape:connector-curvature="0" />
	<path style="fill:none;stroke:red;stroke-width:1px;stroke-linecap:butt;stroke-linejoin:miter;stroke-opacity:1" d="M 22.3364,183.697 22.3364,202.033 z" id="boundary" inkscape:connector-curvature="0" />
	<path style="fill:none;stroke:red;stroke-width:1px;stroke-linecap:butt;stroke-linejoin:miter;stroke-opacity:1" d="M 37.0055,169.028 55.342,169.028 z" id="boundary" inkscape:connector-curvature="0" />
	<path style="fill:none;stroke:red;stroke-width:1px;stroke-linecap:butt;stroke-linejoin:miter;stroke-opacity:1" d="M 55.342,169.028 73.6784,169.028 z" id="boundary" inkscape:connector-curvature="0" />
	<path style="fill:none;stroke:red;stroke-width:1px;stroke-linecap:butt;stroke-linejoin:miter;stroke-opacity:1" d="M 77.3457,207.534 59.0092,207.534 z" id="boundary" inkscape:connector-curvature="0" />
	<path style="fill:none;stroke:red;stroke-width:1px;stroke-linecap:butt;stroke-linejoin:miter;stroke-opacity:1" d="M 22.3364,202.033 40.6728,207.534 z" id="boundary" inkscape:connector-curvature="0" />
	<path style="fill:none;stroke:red;stroke-width:1px;stroke-linecap:butt;stroke-linejoin:miter;stroke-opacity:1" d="M 40.6728,207.534 59.0092,207.534 z" id="boundary" inkscape:connector-curvature="0" />
	<path style="fill:none;stroke:red;stroke-width:1px;stroke-linecap:butt;stroke-linejoin:miter;stroke-opacity:1" d="M 90.1811,178.196 108.518,178.196 z" id="boundary" inkscape:connector-curvature="0" />
	<path style="fill:none;stroke:red;stroke-width:1px;stroke-linecap:butt;stroke-linejoin:miter;stroke-opacity:1" d="M 73.6784,169.028 90.1811,178.196 z" id="boundary" inkscape:connector-curvature="0" />
	<path style="fill:none;stroke:red;stroke-width:1px;stroke-linecap:butt;stroke-linejoin:miter;stroke-opacity:1" d="M 145.19,178.196 126.854,178.196 z" id="boundary" inkscape:connector-curvature="0" />
	<path style="fill:none;stroke:red;stroke-width:1px;stroke-linecap:butt;stroke-linejoin:miter;stroke-opacity:1" d="M 126.854,178.196 108.518,178.196 z" id="boundary" inkscape:connector-curvature="0" />
	<path style="fill:none;stroke:red;stroke-width:1px;stroke-linecap:butt;stroke-linejoin:miter;stroke-opacity:1" d="M 93.8484,216.702 77.3457,207.534 z" id="boundary" inkscape:connector-curvature="0" />
	<path style="fill:none;stroke:red;stroke-width:1px;stroke-linecap:butt;stroke-linejoin:miter;stroke-opacity:1" d="M 112.185,216.702 93.8484,216.702 z" id="boundary" inkscape:connector-curvature="0" />
	<path style="fill:none;stroke:red;stroke-width:1px;stroke-linecap:butt;stroke-linejoin:miter;stroke-opacity:1" d="M 130.521,216.702 148.858,216.702 z" id="boundary" inkscape:connector-curvature="0" />
	<path style="fill:none;stroke:red;stroke-width:1px;stroke-linecap:butt;stroke-linejoin:miter;stroke-opacity:1" d="M 130.521,216.702 112.185,216.702 z" id="boundary" inkscape:connector-curvature="0" />
	<path style="fill:none;stroke:red;stroke-width:1px;stroke-linecap:butt;stroke-linejoin:miter;stroke-opacity:1" d="M 22.3364,302.884 37.0055,315.719 z" id="boundary" inkscape:connector-curvature="0" />
	<path style="fill:none;stroke:red;stroke-width:1px;stroke-linecap:butt;stroke-linejoin:miter;stroke-opacity:1" d="M 22.3364,284.547 37.0055,269.878 z" id="boundary" inkscape:connector-curvature="0" />
	<path style="fill:none;stroke:red;stroke-width:1px;stroke-linecap:butt;stroke-linejoin:miter;stroke-opacity:1" d="M 22.3364,284.547 22.3364,302.884 z" id="boundary" inkscape:connector-curvature="0" />
	<path style="fill:none;stroke:red;stroke-width:1px;stroke-linecap:butt;stroke-linejoin:miter;stroke-opacity:1" d="M 37.0055,269.878 55.342,269.878 z" id="boundary" inkscape:connector-curvature="0" />
	<path style="fill:none;stroke:red;stroke-width:1px;stroke-linecap:butt;stroke-linejoin:miter;stroke-opacity:1" d="M 71.8447,279.046 55.342,269.878 z" id="boundary" inkscape:connector-curvature="0" />
	<path style="fill:none;stroke:red;stroke-width:1px;stroke-linecap:butt;stroke-linejoin:miter;stroke-opacity:1" d="M 73.6784,317.553 55.342,317.553 z" id="boundary" inkscape:connector-curvature="0" />
	<path style="fill:none;stroke:red;stroke-width:1px;stroke-linecap:butt;stroke-linejoin:miter;stroke-opacity:1" d="M 55.342,317.553 37.0055,315.719 z" id="boundary" inkscape:connector-curvature="0" />
	<path style="fill:none;stroke:red;stroke-width:1px;stroke-linecap:butt;stroke-linejoin:miter;stroke-opacity:1" d="M 90.1811,279.046 71.8447,279.046 z" id="boundary" inkscape:connector-curvature="0" />
	<path style="fill:none;stroke:red;stroke-width:1px;stroke-linecap:butt;stroke-linejoin:miter;stroke-opacity:1" d="M 108.518,279.046 90.1811,279.046 z" id="boundary" inkscape:connector-curvature="0" />
	<path style="fill:none;stroke:red;stroke-width:1px;stroke-linecap:butt;stroke-linejoin:miter;stroke-opacity:1" d="M 145.19,279.046 126.854,279.046 z" id="boundary" inkscape:connector-curvature="0" />
	<path style="fill:none;stroke:red;stroke-width:1px;stroke-linecap:butt;stroke-linejoin:miter;stroke-opacity:1" d="M 126.854,279.046 108.518,279.046 z" id="boundary" inkscape:connector-curvature="0" />
	<path style="fill:none;stroke:red;stroke-width:1px;stroke-linecap:butt;stroke-linejoin:miter;stroke-opacity:1" d="M 110.351,317.553 92.0148,317.553 z" id="boundary" inkscape:connector-curvature="0" />
	<path style="fill:none;stroke:red;stroke-width:1px;stroke-linecap:butt;stroke-linejoin:miter;stroke-opacity:1" d="M 92.0148,317.553 73.6784,317.553 z" id="boundary" inkscape:connector-curvature="0" />
	<path style="fill:none;stroke:red;stroke-width:1px;stroke-linecap:butt;stroke-linejoin:miter;stroke-opacity:1" d="M 147.024,317.553 128.688,317.553 z" id="boundary" inkscape:connector-curvature="0" />
	<path style="fill:none;stroke:red;stroke-width:1px;stroke-linecap:butt;stroke-linejoin:miter;stroke-opacity:1" d="M 128.688,317.553 110.351,317.553 z" id="boundary" inkscape:connector-curvature="0" />
	<path style="fill:none;stroke:red;stroke-width:1px;stroke-linecap:butt;stroke-linejoin:miter;stroke-opacity:1" d="M 145.19,178.196 163.527,180.03 z" id="boundary" inkscape:connector-curvature="0" />
	<path style="fill:none;stroke:red;stroke-width:1px;stroke-linecap:butt;stroke-linejoin:miter;stroke-opacity:1" d="M 200.2,187.364 181.863,187.364 z" id="boundary" inkscape:connector-curvature="0" />
	<path style="fill:none;stroke:red;stroke-width:1px;stroke-linecap:butt;stroke-linejoin:miter;stroke-opacity:1" d="M 181.863,187.364 163.527,180.03 z" id="boundary" inkscape:connector-curvature="0" />
	<path style="fill:none;stroke:red;stroke-width:1px;stroke-linecap:butt;stroke-linejoin:miter;stroke-opacity:1" d="M 167.194,216.702 148.858,216.702 z" id="boundary" inkscape:connector-curvature="0" />
	<path style="fill:none;stroke:red;stroke-width:1px;stroke-linecap:butt;stroke-linejoin:miter;stroke-opacity:1" d="M 185.53,216.702 167.194,216.702 z" id="boundary" inkscape:connector-curvature="0" />
	<path style="fill:none;stroke:red;stroke-width:1px;stroke-linecap:butt;stroke-linejoin:miter;stroke-opacity:1" d="M 203.867,216.702 185.53,216.702 z" id="boundary" inkscape:connector-curvature="0" />
	<path style="fill:none;stroke:red;stroke-width:1px;stroke-linecap:butt;stroke-linejoin:miter;stroke-opacity:1" d="M 218.536,187.364 200.2,187.364 z" id="boundary" inkscape:connector-curvature="0" />
	<path style="fill:none;stroke:red;stroke-width:1px;stroke-linecap:butt;stroke-linejoin:miter;stroke-opacity:1" d="M 236.872,180.03 218.536,187.364 z" id="boundary" inkscape:connector-curvature="0" />
	<path style="fill:none;stroke:red;stroke-width:1px;stroke-linecap:butt;stroke-linejoin:miter;stroke-opacity:1" d="M 255.209,187.364 236.872,180.03 z" id="boundary" inkscape:connector-curvature="0" />
	<path style="fill:none;stroke:red;stroke-width:1px;stroke-linecap:butt;stroke-linejoin:miter;stroke-opacity:1" d="M 220.37,225.871 203.867,216.702 z" id="boundary" inkscape:connector-curvature="0" />
	<path style="fill:none;stroke:red;stroke-width:1px;stroke-linecap:butt;stroke-linejoin:miter;stroke-opacity:1" d="M 238.706,225.871 220.37,225.871 z" id="boundary" inkscape:connector-curvature="0" />
	<path style="fill:none;stroke:red;stroke-width:1px;stroke-linecap:butt;stroke-linejoin:miter;stroke-opacity:1" d="M 257.043,225.871 238.706,225.871 z" id="boundary" inkscape:connector-curvature="0" />
	<path style="fill:none;stroke:red;stroke-width:1px;stroke-linecap:butt;stroke-linejoin:miter;stroke-opacity:1" d="M 145.19,279.046 163.527,279.046 z" id="boundary" inkscape:connector-curvature="0" />
	<path style="fill:none;stroke:red;stroke-width:1px;stroke-linecap:butt;stroke-linejoin:miter;stroke-opacity:1" d="M 181.863,279.046 163.527,279.046 z" id="boundary" inkscape:connector-curvature="0" />
	<path style="fill:none;stroke:red;stroke-width:1px;stroke-linecap:butt;stroke-linejoin:miter;stroke-opacity:1" d="M 200.2,279.046 181.863,279.046 z" id="boundary" inkscape:connector-curvature="0" />
	<path style="fill:none;stroke:red;stroke-width:1px;stroke-linecap:butt;stroke-linejoin:miter;stroke-opacity:1" d="M 165.36,317.553 147.024,317.553 z" id="boundary" inkscape:connector-curvature="0" />
	<path style="fill:none;stroke:red;stroke-width:1px;stroke-linecap:butt;stroke-linejoin:miter;stroke-opacity:1" d="M 202.033,317.553 183.697,317.553 z" id="boundary" inkscape:connector-curvature="0" />
	<path style="fill:none;stroke:red;stroke-width:1px;stroke-linecap:butt;stroke-linejoin:miter;stroke-opacity:1" d="M 183.697,317.553 165.36,317.553 z" id="boundary" inkscape:connector-curvature="0" />
	<path style="fill:none;stroke:red;stroke-width:1px;stroke-linecap:butt;stroke-linejoin:miter;stroke-opacity:1" d="M 200.2,279.046 218.536,279.046 z" id="boundary" inkscape:connector-curvature="0" />
	<path style="fill:none;stroke:red;stroke-width:1px;stroke-linecap:butt;stroke-linejoin:miter;stroke-opacity:1" d="M 236.872,279.046 218.536,279.046 z" id="boundary" inkscape:connector-curvature="0" />
	<path style="fill:none;stroke:red;stroke-width:1px;stroke-linecap:butt;stroke-linejoin:miter;stroke-opacity:1" d="M 255.209,279.046 236.872,279.046 z" id="boundary" inkscape:connector-curvature="0" />
	<path style="fill:none;stroke:red;stroke-width:1px;stroke-linecap:butt;stroke-linejoin:miter;stroke-opacity:1" d="M 271.712,269.878 255.209,279.046 z" id="boundary" inkscape:connector-curvature="0" />
	<path style="fill:none;stroke:red;stroke-width:1px;stroke-linecap:butt;stroke-linejoin:miter;stroke-opacity:1" d="M 220.37,317.553 202.033,317.553 z" id="boundary" inkscape:connector-curvature="0" />
	<path style="fill:none;stroke:red;stroke-width:1px;stroke-linecap:butt;stroke-linejoin:miter;stroke-opacity:1" d="M 238.706,317.553 220.37,317.553 z" id="boundary" inkscape:connector-curvature="0" />
	<path style="fill:none;stroke:red;stroke-width:1px;stroke-linecap:butt;stroke-linejoin:miter;stroke-opacity:1" d="M 257.043,317.553 238.706,317.553 z" id="boundary" inkscape:connector-curvature="0" />
	<path style="fill:none;stroke:red;stroke-width:1px;stroke-linecap:butt;stroke-linejoin:miter;stroke-opacity:1" d="M 273.545,308.384 257.043,317.553 z" id="boundary" inkscape:connector-curvature="0" />
	<path style="fill:none;stroke:red;stroke-width:1px;stroke-linecap:butt;stroke-linejoin:miter;stroke-opacity:1" d="M 284.547,49.841 269.878,37.0055 z" id="boundary" inkscape:connector-curvature="0" />
	<path style="fill:none;stroke:red;stroke-width:1px;stroke-linecap:butt;stroke-linejoin:miter;stroke-opacity:1" d="M 284.547,49.841 301.05,59.0092 z" id="boundary" inkscape:connector-curvature="0" />
	<path style="fill:none;stroke:red;stroke-width:1px;stroke-linecap:butt;stroke-linejoin:miter;stroke-opacity:1" d="M 277.213,115.852 258.876,114.018 z" id="boundary" inkscape:connector-curvature="0" />
	<path style="fill:none;stroke:red;stroke-width:1px;stroke-linecap:butt;stroke-linejoin:miter;stroke-opacity:1" d="M 268.044,79.1793 284.547,88.3475 z" id="boundary" inkscape:connector-curvature="0" />
	<path style="fill:none;stroke:red;stroke-width:1px;stroke-linecap:butt;stroke-linejoin:miter;stroke-opacity:1" d="M 293.715,104.85 284.547,88.3475 z" id="boundary" inkscape:connector-curvature="0" />
	<path style="fill:none;stroke:red;stroke-width:1px;stroke-linecap:butt;stroke-linejoin:miter;stroke-opacity:1" d="M 293.715,104.85 299.216,123.187 z" id="boundary" inkscape:connector-curvature="0" />
	<path style="fill:none;stroke:red;stroke-width:1px;stroke-linecap:butt;stroke-linejoin:miter;stroke-opacity:1" d="M 301.05,59.0092 317.553,68.1774 z" id="boundary" inkscape:connector-curvature="0" />
	<path style="fill:none;stroke:red;stroke-width:1px;stroke-linecap:butt;stroke-linejoin:miter;stroke-opacity:1" d="M 326.721,84.6802 317.553,68.1774 z" id="boundary" inkscape:connector-curvature="0" />
	<path style="fill:none;stroke:red;stroke-width:1px;stroke-linecap:butt;stroke-linejoin:miter;stroke-opacity:1" d="M 341.39,97.5157 326.721,84.6802 z" id="boundary" inkscape:connector-curvature="0" />
	<path style="fill:none;stroke:red;stroke-width:1px;stroke-linecap:butt;stroke-linejoin:miter;stroke-opacity:1" d="M 341.39,97.5157 348.725,115.852 z" id="boundary" inkscape:connector-curvature="0" />
	<path style="fill:none;stroke:red;stroke-width:1px;stroke-linecap:butt;stroke-linejoin:miter;stroke-opacity:1" d="M 378.063,141.523 363.394,128.688 z" id="boundary" inkscape:connector-curvature="0" />
	<path style="fill:none;stroke:red;stroke-width:1px;stroke-linecap:butt;stroke-linejoin:miter;stroke-opacity:1" d="M 363.394,128.688 348.725,115.852 z" id="boundary" inkscape:connector-curvature="0" />
	<path style="fill:none;stroke:red;stroke-width:1px;stroke-linecap:butt;stroke-linejoin:miter;stroke-opacity:1" d="M 411.068,141.523 394.566,132.355 z" id="boundary" inkscape:connector-curvature="0" />
	<path style="fill:none;stroke:red;stroke-width:1px;stroke-linecap:butt;stroke-linejoin:miter;stroke-opacity:1" d="M 394.566,132.355 378.063,141.523 z" id="boundary" inkscape:connector-curvature="0" />
	<path style="fill:none;stroke:red;stroke-width:1px;stroke-linecap:butt;stroke-linejoin:miter;stroke-opacity:1" d="M 251.542,152.525 269.878,152.525 z" id="boundary" inkscape:connector-curvature="0" />
	<path style="fill:none;stroke:red;stroke-width:1px;stroke-linecap:butt;stroke-linejoin:miter;stroke-opacity:1" d="M 304.717,158.026 286.381,161.693 z" id="boundary" inkscape:connector-curvature="0" />
	<path style="fill:none;stroke:red;stroke-width:1px;stroke-linecap:butt;stroke-linejoin:miter;stroke-opacity:1" d="M 304.717,158.026 323.054,161.693 z" id="boundary" inkscape:connector-curvature="0" />
	<path style="fill:none;stroke:red;stroke-width:1px;stroke-linecap:butt;stroke-linejoin:miter;stroke-opacity:1" d="M 286.381,161.693 269.878,152.525 z" id="boundary" inkscape:connector-curvature="0" />
	<path style="fill:none;stroke:red;stroke-width:1px;stroke-linecap:butt;stroke-linejoin:miter;stroke-opacity:1" d="M 291.882,187.364 273.545,187.364 z" id="boundary" inkscape:connector-curvature="0" />
	<path style="fill:none;stroke:red;stroke-width:1px;stroke-linecap:butt;stroke-linejoin:miter;stroke-opacity:1" d="M 273.545,187.364 255.209,187.364 z" id="boundary" inkscape:connector-curvature="0" />
	<path style="fill:none;stroke:red;stroke-width:1px;stroke-linecap:butt;stroke-linejoin:miter;stroke-opacity:1" d="M 310.218,187.364 291.882,187.364 z" id="boundary" inkscape:connector-curvature="0" />
	<path style="fill:none;stroke:red;stroke-width:1px;stroke-linecap:butt;stroke-linejoin:miter;stroke-opacity:1" d="M 411.068,141.523 429.405,141.523 z" id="boundary" inkscape:connector-curvature="0" />
	<path style="fill:none;stroke:red;stroke-width:1px;stroke-linecap:butt;stroke-linejoin:miter;stroke-opacity:1" d="M 447.741,143.357 429.405,141.523 z" id="boundary" inkscape:connector-curvature="0" />
	<path style="fill:none;stroke:red;stroke-width:1px;stroke-linecap:butt;stroke-linejoin:miter;stroke-opacity:1" d="M 447.741,143.357 466.078,150.691 z" id="boundary" inkscape:connector-curvature="0" />
	<path style="fill:none;stroke:red;stroke-width:1px;stroke-linecap:butt;stroke-linejoin:miter;stroke-opacity:1" d="M 521.087,150.691 502.75,150.691 z" id="boundary" inkscape:connector-curvature="0" />
	<path style="fill:none;stroke:red;stroke-width:1px;stroke-linecap:butt;stroke-linejoin:miter;stroke-opacity:1" d="M 466.078,150.691 484.414,150.691 z" id="boundary" inkscape:connector-curvature="0" />
	<path style="fill:none;stroke:red;stroke-width:1px;stroke-linecap:butt;stroke-linejoin:miter;stroke-opacity:1" d="M 502.75,150.691 484.414,150.691 z" id="boundary" inkscape:connector-curvature="0" />
	<path style="fill:none;stroke:red;stroke-width:1px;stroke-linecap:butt;stroke-linejoin:miter;stroke-opacity:1" d="M 521.087,150.691 539.423,150.691 z" id="boundary" inkscape:connector-curvature="0" />
	<path style="fill:none;stroke:red;stroke-width:1px;stroke-linecap:butt;stroke-linejoin:miter;stroke-opacity:1" d="M 557.76,150.691 539.423,150.691 z" id="boundary" inkscape:connector-curvature="0" />
	<path style="fill:none;stroke:red;stroke-width:1px;stroke-linecap:butt;stroke-linejoin:miter;stroke-opacity:1" d="M 576.096,150.691 557.76,150.691 z" id="boundary" inkscape:connector-curvature="0" />
	<path style="fill:none;stroke:red;stroke-width:1px;stroke-linecap:butt;stroke-linejoin:miter;stroke-opacity:1" d="M 973.996,196.532 957.494,187.364 z" id="boundary" inkscape:connector-curvature="0" />
	<path style="fill:none;stroke:red;stroke-width:1px;stroke-linecap:butt;stroke-linejoin:miter;stroke-opacity:1" d="M 592.599,159.86 576.096,150.691 z" id="boundary" inkscape:connector-curvature="0" />
	<path style="fill:none;stroke:red;stroke-width:1px;stroke-linecap:butt;stroke-linejoin:miter;stroke-opacity:1" d="M 610.935,154.359 592.599,159.86 z" id="boundary" inkscape:connector-curvature="0" />
	<path style="fill:none;stroke:red;stroke-width:1px;stroke-linecap:butt;stroke-linejoin:miter;stroke-opacity:1" d="M 610.935,154.359 629.272,159.86 z" id="boundary" inkscape:connector-curvature="0" />
	<path style="fill:none;stroke:red;stroke-width:1px;stroke-linecap:butt;stroke-linejoin:miter;stroke-opacity:1" d="M 629.272,159.86 647.608,159.86 z" id="boundary" inkscape:connector-curvature="0" />
	<path style="fill:none;stroke:red;stroke-width:1px;stroke-linecap:butt;stroke-linejoin:miter;stroke-opacity:1" d="M 665.945,159.86 684.281,159.86 z" id="boundary" inkscape:connector-curvature="0" />
	<path style="fill:none;stroke:red;stroke-width:1px;stroke-linecap:butt;stroke-linejoin:miter;stroke-opacity:1" d="M 665.945,159.86 647.608,159.86 z" id="boundary" inkscape:connector-curvature="0" />
	<path style="fill:none;stroke:red;stroke-width:1px;stroke-linecap:butt;stroke-linejoin:miter;stroke-opacity:1" d="M 700.784,169.028 684.281,159.86 z" id="boundary" inkscape:connector-curvature="0" />
	<path style="fill:none;stroke:red;stroke-width:1px;stroke-linecap:butt;stroke-linejoin:miter;stroke-opacity:1" d="M 700.784,169.028 719.12,169.028 z" id="boundary" inkscape:connector-curvature="0" />
	<path style="fill:none;stroke:red;stroke-width:1px;stroke-linecap:butt;stroke-linejoin:miter;stroke-opacity:1" d="M 737.457,172.695 719.12,169.028 z" id="boundary" inkscape:connector-curvature="0" />
	<path style="fill:none;stroke:red;stroke-width:1px;stroke-linecap:butt;stroke-linejoin:miter;stroke-opacity:1" d="M 774.129,178.196 755.793,172.695 z" id="boundary" inkscape:connector-curvature="0" />
	<path style="fill:none;stroke:red;stroke-width:1px;stroke-linecap:butt;stroke-linejoin:miter;stroke-opacity:1" d="M 792.466,178.196 774.129,178.196 z" id="boundary" inkscape:connector-curvature="0" />
	<path style="fill:none;stroke:red;stroke-width:1px;stroke-linecap:butt;stroke-linejoin:miter;stroke-opacity:1" d="M 737.457,172.695 755.793,172.695 z" id="boundary" inkscape:connector-curvature="0" />
	<path style="fill:none;stroke:red;stroke-width:1px;stroke-linecap:butt;stroke-linejoin:miter;stroke-opacity:1" d="M 810.802,181.863 829.139,181.863 z" id="boundary" inkscape:connector-curvature="0" />
	<path style="fill:none;stroke:red;stroke-width:1px;stroke-linecap:butt;stroke-linejoin:miter;stroke-opacity:1" d="M 810.802,181.863 792.466,178.196 z" id="boundary" inkscape:connector-curvature="0" />
	<path style="fill:none;stroke:red;stroke-width:1px;stroke-linecap:butt;stroke-linejoin:miter;stroke-opacity:1" d="M 829.139,181.863 847.475,183.697 z" id="boundary" inkscape:connector-curvature="0" />
	<path style="fill:none;stroke:red;stroke-width:1px;stroke-linecap:butt;stroke-linejoin:miter;stroke-opacity:1" d="M 865.811,187.364 884.148,181.863 z" id="boundary" inkscape:connector-curvature="0" />
	<path style="fill:none;stroke:red;stroke-width:1px;stroke-linecap:butt;stroke-linejoin:miter;stroke-opacity:1" d="M 865.811,187.364 847.475,183.697 z" id="boundary" inkscape:connector-curvature="0" />
	<path style="fill:none;stroke:red;stroke-width:1px;stroke-linecap:butt;stroke-linejoin:miter;stroke-opacity:1" d="M 884.148,181.863 902.484,187.364 z" id="boundary" inkscape:connector-curvature="0" />
	<path style="fill:none;stroke:red;stroke-width:1px;stroke-linecap:butt;stroke-linejoin:miter;stroke-opacity:1" d="M 920.821,191.031 902.484,187.364 z" id="boundary" inkscape:connector-curvature="0" />
	<path style="fill:none;stroke:red;stroke-width:1px;stroke-linecap:butt;stroke-linejoin:miter;stroke-opacity:1" d="M 939.157,187.364 920.821,191.031 z" id="boundary" inkscape:connector-curvature="0" />
	<path style="fill:none;stroke:red;stroke-width:1px;stroke-linecap:butt;stroke-linejoin:miter;stroke-opacity:1" d="M 939.157,187.364 957.494,187.364 z" id="boundary" inkscape:connector-curvature="0" />
	<path style="fill:none;stroke:red;stroke-width:1px;stroke-linecap:butt;stroke-linejoin:miter;stroke-opacity:1" d="M 275.379,225.871 257.043,225.871 z" id="boundary" inkscape:connector-curvature="0" />
	<path style="fill:none;stroke:red;stroke-width:1px;stroke-linecap:butt;stroke-linejoin:miter;stroke-opacity:1" d="M 275.379,225.871 293.715,225.871 z" id="boundary" inkscape:connector-curvature="0" />
	<path style="fill:none;stroke:red;stroke-width:1px;stroke-linecap:butt;stroke-linejoin:miter;stroke-opacity:1" d="M 293.715,225.871 312.052,225.871 z" id="boundary" inkscape:connector-curvature="0" />
	<path style="fill:none;stroke:red;stroke-width:1px;stroke-linecap:butt;stroke-linejoin:miter;stroke-opacity:1" d="M 370.728,216.702 359.726,231.372 z" id="boundary" inkscape:connector-curvature="0" />
	<path style="fill:none;stroke:red;stroke-width:1px;stroke-linecap:butt;stroke-linejoin:miter;stroke-opacity:1" d="M 345.057,244.207 359.726,231.372 z" id="boundary" inkscape:connector-curvature="0" />
	<path style="fill:none;stroke:red;stroke-width:1px;stroke-linecap:butt;stroke-linejoin:miter;stroke-opacity:1" d="M 370.728,216.702 389.065,216.702 z" id="boundary" inkscape:connector-curvature="0" />
	<path style="fill:none;stroke:red;stroke-width:1px;stroke-linecap:butt;stroke-linejoin:miter;stroke-opacity:1" d="M 389.065,216.702 405.567,207.534 z" id="boundary" inkscape:connector-curvature="0" />
	<path style="fill:none;stroke:red;stroke-width:1px;stroke-linecap:butt;stroke-linejoin:miter;stroke-opacity:1" d="M 423.904,207.534 442.24,207.534 z" id="boundary" inkscape:connector-curvature="0" />
	<path style="fill:none;stroke:red;stroke-width:1px;stroke-linecap:butt;stroke-linejoin:miter;stroke-opacity:1" d="M 405.567,207.534 423.904,207.534 z" id="boundary" inkscape:connector-curvature="0" />
	<path style="fill:none;stroke:red;stroke-width:1px;stroke-linecap:butt;stroke-linejoin:miter;stroke-opacity:1" d="M 532.089,216.702 513.752,216.702 z" id="boundary" inkscape:connector-curvature="0" />
	<path style="fill:none;stroke:red;stroke-width:1px;stroke-linecap:butt;stroke-linejoin:miter;stroke-opacity:1" d="M 460.577,207.534 478.913,207.534 z" id="boundary" inkscape:connector-curvature="0" />
	<path style="fill:none;stroke:red;stroke-width:1px;stroke-linecap:butt;stroke-linejoin:miter;stroke-opacity:1" d="M 460.577,207.534 442.24,207.534 z" id="boundary" inkscape:connector-curvature="0" />
	<path style="fill:none;stroke:red;stroke-width:1px;stroke-linecap:butt;stroke-linejoin:miter;stroke-opacity:1" d="M 495.416,216.702 478.913,207.534 z" id="boundary" inkscape:connector-curvature="0" />
	<path style="fill:none;stroke:red;stroke-width:1px;stroke-linecap:butt;stroke-linejoin:miter;stroke-opacity:1" d="M 623.771,216.702 605.434,216.702 z" id="boundary" inkscape:connector-curvature="0" />
	<path style="fill:none;stroke:red;stroke-width:1px;stroke-linecap:butt;stroke-linejoin:miter;stroke-opacity:1" d="M 513.752,216.702 495.416,216.702 z" id="boundary" inkscape:connector-curvature="0" />
	<path style="fill:none;stroke:red;stroke-width:1px;stroke-linecap:butt;stroke-linejoin:miter;stroke-opacity:1" d="M 532.089,216.702 550.425,216.702 z" id="boundary" inkscape:connector-curvature="0" />
	<path style="fill:none;stroke:red;stroke-width:1px;stroke-linecap:butt;stroke-linejoin:miter;stroke-opacity:1" d="M 550.425,216.702 568.762,216.702 z" id="boundary" inkscape:connector-curvature="0" />
	<path style="fill:none;stroke:red;stroke-width:1px;stroke-linecap:butt;stroke-linejoin:miter;stroke-opacity:1" d="M 587.098,216.702 568.762,216.702 z" id="boundary" inkscape:connector-curvature="0" />
	<path style="fill:none;stroke:red;stroke-width:1px;stroke-linecap:butt;stroke-linejoin:miter;stroke-opacity:1" d="M 587.098,216.702 605.434,216.702 z" id="boundary" inkscape:connector-curvature="0" />
	<path style="fill:none;stroke:red;stroke-width:1px;stroke-linecap:butt;stroke-linejoin:miter;stroke-opacity:1" d="M 642.107,216.702 623.771,216.702 z" id="boundary" inkscape:connector-curvature="0" />
	<path style="fill:none;stroke:red;stroke-width:1px;stroke-linecap:butt;stroke-linejoin:miter;stroke-opacity:1" d="M 271.712,269.878 288.214,247.874 z" id="boundary" inkscape:connector-curvature="0" />
	<path style="fill:none;stroke:red;stroke-width:1px;stroke-linecap:butt;stroke-linejoin:miter;stroke-opacity:1" d="M 335.889,262.543 323.054,277.213 z" id="boundary" inkscape:connector-curvature="0" />
	<path style="fill:none;stroke:red;stroke-width:1px;stroke-linecap:butt;stroke-linejoin:miter;stroke-opacity:1" d="M 345.057,244.207 335.889,262.543 z" id="boundary" inkscape:connector-curvature="0" />
	<path style="fill:none;stroke:red;stroke-width:1px;stroke-linecap:butt;stroke-linejoin:miter;stroke-opacity:1" d="M 290.048,299.216 273.545,308.384 z" id="boundary" inkscape:connector-curvature="0" />
	<path style="fill:none;stroke:red;stroke-width:1px;stroke-linecap:butt;stroke-linejoin:miter;stroke-opacity:1" d="M 308.384,290.048 290.048,299.216 z" id="boundary" inkscape:connector-curvature="0" />
	<path style="fill:none;stroke:red;stroke-width:1px;stroke-linecap:butt;stroke-linejoin:miter;stroke-opacity:1" d="M 323.054,277.213 308.384,290.048 z" id="boundary" inkscape:connector-curvature="0" />
	<path style="fill:none;stroke:red;stroke-width:1px;stroke-linecap:butt;stroke-linejoin:miter;stroke-opacity:1" d="M 642.107,216.702 660.444,224.037 z" id="boundary" inkscape:connector-curvature="0" />
	<path style="fill:none;stroke:red;stroke-width:1px;stroke-linecap:butt;stroke-linejoin:miter;stroke-opacity:1" d="M 973.996,196.532 990.499,205.701 z" id="boundary" inkscape:connector-curvature="0" />
	<path style="fill:none;stroke:red;stroke-width:1px;stroke-linecap:butt;stroke-linejoin:miter;stroke-opacity:1" d="M 990.499,205.701 996,225.871 z" id="boundary" inkscape:connector-curvature="0" />
	<path style="fill:none;stroke:red;stroke-width:1px;stroke-linecap:butt;stroke-linejoin:miter;stroke-opacity:1" d="M 678.78,224.037 660.444,224.037 z" id="boundary" inkscape:connector-curvature="0" />
	<path style="fill:none;stroke:red;stroke-width:1px;stroke-linecap:butt;stroke-linejoin:miter;stroke-opacity:1" d="M 697.116,225.871 715.453,225.871 z" id="boundary" inkscape:connector-curvature="0" />
	<path style="fill:none;stroke:red;stroke-width:1px;stroke-linecap:butt;stroke-linejoin:miter;stroke-opacity:1" d="M 697.116,225.871 678.78,224.037 z" id="boundary" inkscape:connector-curvature="0" />
	<path style="fill:none;stroke:red;stroke-width:1px;stroke-linecap:butt;stroke-linejoin:miter;stroke-opacity:1" d="M 715.453,225.871 733.789,225.871 z" id="boundary" inkscape:connector-curvature="0" />
	<path style="fill:none;stroke:red;stroke-width:1px;stroke-linecap:butt;stroke-linejoin:miter;stroke-opacity:1" d="M 750.292,235.039 733.789,225.871 z" id="boundary" inkscape:connector-curvature="0" />
	<path style="fill:none;stroke:red;stroke-width:1px;stroke-linecap:butt;stroke-linejoin:miter;stroke-opacity:1" d="M 805.301,244.207 786.965,240.54 z" id="boundary" inkscape:connector-curvature="0" />
	<path style="fill:none;stroke:red;stroke-width:1px;stroke-linecap:butt;stroke-linejoin:miter;stroke-opacity:1" d="M 786.965,240.54 768.628,235.039 z" id="boundary" inkscape:connector-curvature="0" />
	<path style="fill:none;stroke:red;stroke-width:1px;stroke-linecap:butt;stroke-linejoin:miter;stroke-opacity:1" d="M 750.292,235.039 768.628,235.039 z" id="boundary" inkscape:connector-curvature="0" />
	<path style="fill:none;stroke:red;stroke-width:1px;stroke-linecap:butt;stroke-linejoin:miter;stroke-opacity:1" d="M 823.638,244.207 805.301,244.207 z" id="boundary" inkscape:connector-curvature="0" />
	<path style="fill:none;stroke:red;stroke-width:1px;stroke-linecap:butt;stroke-linejoin:miter;stroke-opacity:1" d="M 860.311,244.207 841.974,244.207 z" id="boundary" inkscape:connector-curvature="0" />
	<path style="fill:none;stroke:red;stroke-width:1px;stroke-linecap:butt;stroke-linejoin:miter;stroke-opacity:1" d="M 841.974,244.207 823.638,244.207 z" id="boundary" inkscape:connector-curvature="0" />
	<path style="fill:none;stroke:red;stroke-width:1px;stroke-linecap:butt;stroke-linejoin:miter;stroke-opacity:1" d="M 860.311,244.207 878.647,244.207 z" id="boundary" inkscape:connector-curvature="0" />
	<path style="fill:none;stroke:red;stroke-width:1px;stroke-linecap:butt;stroke-linejoin:miter;stroke-opacity:1" d="M 896.983,244.207 878.647,244.207 z" id="boundary" inkscape:connector-curvature="0" />
	<path style="fill:none;stroke:red;stroke-width:1px;stroke-linecap:butt;stroke-linejoin:miter;stroke-opacity:1" d="M 913.486,253.375 896.983,244.207 z" id="boundary" inkscape:connector-curvature="0" />
	<path style="fill:none;stroke:red;stroke-width:1px;stroke-linecap:butt;stroke-linejoin:miter;stroke-opacity:1" d="M 996,225.871 984.998,244.207 z" id="boundary" inkscape:connector-curvature="0" />
	<path style="fill:none;stroke:red;stroke-width:1px;stroke-linecap:butt;stroke-linejoin:miter;stroke-opacity:1" d="M 984.998,244.207 968.495,253.375 z" id="boundary" inkscape:connector-curvature="0" />
	<path style="fill:none;stroke:red;stroke-width:1px;stroke-linecap:butt;stroke-linejoin:miter;stroke-opacity:1" d="M 913.486,253.375 931.823,253.375 z" id="boundary" inkscape:connector-curvature="0" />
	<path style="fill:none;stroke:red;stroke-width:1px;stroke-linecap:butt;stroke-linejoin:miter;stroke-opacity:1" d="M 950.159,253.375 968.495,253.375 z" id="boundary" inkscape:connector-curvature="0" />
	<path style="fill:none;stroke:red;stroke-width:1px;stroke-linecap:butt;stroke-linejoin:miter;stroke-opacity:1" d="M 950.159,253.375 931.823,253.375 z" id="boundary" inkscape:connector-curvature="0" />
	<circle cx="4" cy="18.6691" r="4" fill="#0" id="circle0"/>
	<circle cx="18.6691" cy="4" r="4" fill="#0" id="circle1"/>
	<circle cx="18.6691" cy="31.5046" r="4" fill="#0" id="circle2"/>
	<circle cx="22.3364" cy="92.0148" r="4" fill="#0" id="circle3"/>
	<circle cx="22.3364" cy="110.351" r="4" fill="#0" id="circle4"/>
	<circle cx="22.3364" cy="183.697" r="4" fill="#0" id="circle5"/>
	<circle cx="22.3364" cy="202.033" r="4" fill="#0" id="circle6"/>
	<circle cx="22.3364" cy="284.547" r="4" fill="#0" id="circle7"/>
	<circle cx="22.3364" cy="302.884" r="4" fill="#0" id="circle8"/>
	<circle cx="33.3383" cy="42.5065" r="4" fill="#0" id="circle9"/>
	<circle cx="37.0055" cy="4" r="4" fill="#0" id="circle10"/>
	<circle cx="37.0055" cy="123.187" r="4" fill="#0" id="circle11"/>
	<circle cx="37.0055" cy="169.028" r="4" fill="#0" id="circle12"/>
	<circle cx="37.0055" cy="269.878" r="4" fill="#0" id="circle13"/>
	<circle cx="37.0055" cy="315.719" r="4" fill="#0" id="circle14"/>
	<circle cx="40.6728" cy="86.5139" r="4" fill="#0" id="circle15"/>
	<circle cx="40.6728" cy="207.534" r="4" fill="#0" id="circle16"/>
	<circle cx="51.6747" cy="42.5065" r="4" fill="#0" id="circle17"/>
	<circle cx="55.342" cy="4" r="4" fill="#0" id="circle18"/>
	<circle cx="55.342" cy="125.02" r="4" fill="#0" id="circle19"/>
	<circle cx="55.342" cy="169.028" r="4" fill="#0" id="circle20"/>
	<circle cx="55.342" cy="269.878" r="4" fill="#0" id="circle21"/>
	<circle cx="55.342" cy="317.553" r="4" fill="#0" id="circle22"/>
	<circle cx="59.0092" cy="86.5139" r="4" fill="#0" id="circle23"/>
	<circle cx="59.0092" cy="207.534" r="4" fill="#0" id="circle24"/>
	<circle cx="70.0111" cy="42.5065" r="4" fill="#0" id="circle25"/>
	<circle cx="71.8447" cy="279.046" r="4" fill="#0" id="circle26"/>
	<circle cx="73.6784" cy="4" r="4" fill="#0" id="circle27"/>
	<circle cx="73.6784" cy="125.02" r="4" fill="#0" id="circle28"/>
	<circle cx="73.6784" cy="169.028" r="4" fill="#0" id="circle29"/>
	<circle cx="73.6784" cy="317.553" r="4" fill="#0" id="circle30"/>
	<circle cx="77.3457" cy="86.5139" r="4" fill="#0" id="circle31"/>
	<circle cx="77.3457" cy="207.534" r="4" fill="#0" id="circle32"/>
	<circle cx="88.3475" cy="46.1738" r="4" fill="#0" id="circle33"/>
	<circle cx="90.1811" cy="178.196" r="4" fill="#0" id="circle34"/>
	<circle cx="90.1811" cy="279.046" r="4" fill="#0" id="circle35"/>
	<circle cx="92.0148" cy="4" r="4" fill="#0" id="circle36"/>
	<circle cx="92.0148" cy="125.02" r="4" fill="#0" id="circle37"/>
	<circle cx="92.0148" cy="317.553" r="4" fill="#0" id="circle38"/>
	<circle cx="93.8484" cy="216.702" r="4" fill="#0" id="circle39"/>
	<circle cx="95.6821" cy="90.1811" r="4" fill="#0" id="circle40"/>
	<circle cx="106.684" cy="51.6747" r="4" fill="#0" id="circle41"/>
	<circle cx="108.518" cy="178.196" r="4" fill="#0" id="circle42"/>
	<circle cx="108.518" cy="279.046" r="4" fill="#0" id="circle43"/>
	<circle cx="110.351" cy="4" r="4" fill="#0" id="circle44"/>
	<circle cx="110.351" cy="125.02" r="4" fill="#0" id="circle45"/>
	<circle cx="110.351" cy="317.553" r="4" fill="#0" id="circle46"/>
	<circle cx="112.185" cy="216.702" r="4" fill="#0" id="circle47"/>
	<circle cx="114.018" cy="90.1811" r="4" fill="#0" id="circle48"/>
	<circle cx="125.02" cy="51.6747" r="4" fill="#0" id="circle49"/>
	<circle cx="126.854" cy="134.189" r="4" fill="#0" id="circle50"/>
	<circle cx="126.854" cy="178.196" r="4" fill="#0" id="circle51"/>
	<circle cx="126.854" cy="279.046" r="4" fill="#0" id="circle52"/>
	<circle cx="128.688" cy="4" r="4" fill="#0" id="circle53"/>
	<circle cx="128.688" cy="317.553" r="4" fill="#0" id="circle54"/>
	<circle cx="130.521" cy="216.702" r="4" fill="#0" id="circle55"/>
	<circle cx="132.355" cy="90.1811" r="4" fill="#0" id="circle56"/>
	<circle cx="143.357" cy="51.6747" r="4" fill="#0" id="circle57"/>
	<circle cx="145.19" cy="130.521" r="4" fill="#0" id="circle58"/>
	<circle cx="145.19" cy="178.196" r="4" fill="#0" id="circle59"/>
	<circle cx="145.19" cy="279.046" r="4" fill="#0" id="circle60"/>
	<circle cx="147.024" cy="4" r="4" fill="#0" id="circle61"/>
	<circle cx="147.024" cy="317.553" r="4" fill="#0" id="circle62"/>
	<circle cx="148.858" cy="216.702" r="4" fill="#0" id="circle63"/>
	<circle cx="150.691" cy="95.6821" r="4" fill="#0" id="circle64"/>
	<circle cx="161.693" cy="51.6747" r="4" fill="#0" id="circle65"/>
	<circle cx="161.693" cy="139.689" r="4" fill="#0" id="circle66"/>
	<circle cx="163.527" cy="180.03" r="4" fill="#0" id="circle67"/>
	<circle cx="163.527" cy="279.046" r="4" fill="#0" id="circle68"/>
	<circle cx="165.36" cy="4" r="4" fill="#0" id="circle69"/>
	<circle cx="165.36" cy="317.553" r="4" fill="#0" id="circle70"/>
	<circle cx="167.194" cy="216.702" r="4" fill="#0" id="circle71"/>
	<circle cx="169.028" cy="95.6821" r="4" fill="#0" id="circle72"/>
	<circle cx="180.03" cy="51.6747" r="4" fill="#0" id="circle73"/>
	<circle cx="180.03" cy="137.856" r="4" fill="#0" id="circle74"/>
	<circle cx="181.863" cy="13.1682" r="4" fill="#0" id="circle75"/>
	<circle cx="181.863" cy="187.364" r="4" fill="#0" id="circle76"/>
	<circle cx="181.863" cy="279.046" r="4" fill="#0" id="circle77"/>
	<circle cx="183.697" cy="317.553" r="4" fill="#0" id="circle78"/>
	<circle cx="185.53" cy="104.85" r="4" fill="#0" id="circle79"/>
	<circle cx="185.53" cy="216.702" r="4" fill="#0" id="circle80"/>
	<circle cx="198.366" cy="55.342" r="4" fill="#0" id="circle81"/>
	<circle cx="198.366" cy="143.357" r="4" fill="#0" id="circle82"/>
	<circle cx="200.2" cy="13.1682" r="4" fill="#0" id="circle83"/>
	<circle cx="200.2" cy="187.364" r="4" fill="#0" id="circle84"/>
	<circle cx="200.2" cy="279.046" r="4" fill="#0" id="circle85"/>
	<circle cx="202.033" cy="317.553" r="4" fill="#0" id="circle86"/>
	<circle cx="203.867" cy="104.85" r="4" fill="#0" id="circle87"/>
	<circle cx="203.867" cy="216.702" r="4" fill="#0" id="circle88"/>
	<circle cx="216.702" cy="55.342" r="4" fill="#0" id="circle89"/>
	<circle cx="216.702" cy="143.357" r="4" fill="#0" id="circle90"/>
	<circle cx="218.536" cy="13.1682" r="4" fill="#0" id="circle91"/>
	<circle cx="218.536" cy="187.364" r="4" fill="#0" id="circle92"/>
	<circle cx="218.536" cy="279.046" r="4" fill="#0" id="circle93"/>
	<circle cx="220.37" cy="225.871" r="4" fill="#0" id="circle94"/>
	<circle cx="220.37" cy="317.553" r="4" fill="#0" id="circle95"/>
	<circle cx="222.203" cy="106.684" r="4" fill="#0" id="circle96"/>
	<circle cx="233.205" cy="64.5102" r="4" fill="#0" id="circle97"/>
	<circle cx="235.039" cy="22.3364" r="4" fill="#0" id="circle98"/>
	<circle cx="235.039" cy="143.357" r="4" fill="#0" id="circle99"/>
	<circle cx="236.872" cy="180.03" r="4" fill="#0" id="circle100"/>
	<circle cx="236.872" cy="279.046" r="4" fill="#0" id="circle101"/>
	<circle cx="238.706" cy="225.871" r="4" fill="#0" id="circle102"/>
	<circle cx="238.706" cy="317.553" r="4" fill="#0" id="circle103"/>
	<circle cx="240.54" cy="114.018" r="4" fill="#0" id="circle104"/>
	<circle cx="251.542" cy="70.0111" r="4" fill="#0" id="circle105"/>
	<circle cx="251.542" cy="152.525" r="4" fill="#0" id="circle106"/>
	<circle cx="253.375" cy="27.8373" r="4" fill="#0" id="circle107"/>
	<circle cx="255.209" cy="187.364" r="4" fill="#0" id="circle108"/>
	<circle cx="255.209" cy="279.046" r="4" fill="#0" id="circle109"/>
	<circle cx="257.043" cy="225.871" r="4" fill="#0" id="circle110"/>
	<circle cx="257.043" cy="317.553" r="4" fill="#0" id="circle111"/>
	<circle cx="258.876" cy="114.018" r="4" fill="#0" id="circle112"/>
	<circle cx="268.044" cy="79.1793" r="4" fill="#0" id="circle113"/>
	<circle cx="269.878" cy="37.0055" r="4" fill="#0" id="circle114"/>
	<circle cx="269.878" cy="152.525" r="4" fill="#0" id="circle115"/>
	<circle cx="271.712" cy="269.878" r="4" fill="#0" id="circle116"/>
	<circle cx="273.545" cy="187.364" r="4" fill="#0" id="circle117"/>
	<circle cx="273.545" cy="308.384" r="4" fill="#0" id="circle118"/>
	<circle cx="275.379" cy="225.871" r="4" fill="#0" id="circle119"/>
	<circle cx="277.213" cy="115.852" r="4" fill="#0" id="circle120"/>
	<circle cx="284.547" cy="49.841" r="4" fill="#0" id="circle121"/>
	<circle cx="284.547" cy="88.3475" r="4" fill="#0" id="circle122"/>
	<circle cx="286.381" cy="161.693" r="4" fill="#0" id="circle123"/>
	<circle cx="288.214" cy="247.874" r="4" fill="#0" id="circle124"/>
	<circle cx="290.048" cy="299.216" r="4" fill="#0" id="circle125"/>
	<circle cx="291.882" cy="187.364" r="4" fill="#0" id="circle126"/>
	<circle cx="293.715" cy="104.85" r="4" fill="#0" id="circle127"/>
	<circle cx="293.715" cy="225.871" r="4" fill="#0" id="circle128"/>
	<circle cx="299.216" cy="123.187" r="4" fill="#0" id="circle129"/>
	<circle cx="301.05" cy="59.0092" r="4" fill="#0" id="circle130"/>
	<circle cx="304.717" cy="158.026" r="4" fill="#0" id="circle131"/>
	<circle cx="308.384" cy="290.048" r="4" fill="#0" id="circle132"/>
	<circle cx="310.218" cy="187.364" r="4" fill="#0" id="circle133"/>
	<circle cx="312.052" cy="225.871" r="4" fill="#0" id="circle134"/>
	<circle cx="317.553" cy="68.1774" r="4" fill="#0" id="circle135"/>
	<circle cx="323.054" cy="161.693" r="4" fill="#0" id="circle136"/>
	<circle cx="323.054" cy="277.213" r="4" fill="#0" id="circle137"/>
	<circle cx="326.721" cy="84.6802" r="4" fill="#0" id="circle138"/>
	<circle cx="335.889" cy="262.543" r="4" fill="#0" id="circle139"/>
	<circle cx="341.39" cy="97.5157" r="4" fill="#0" id="circle140"/>
	<circle cx="345.057" cy="244.207" r="4" fill="#0" id="circle141"/>
	<circle cx="348.725" cy="115.852" r="4" fill="#0" id="circle142"/>
	<circle cx="359.726" cy="231.372" r="4" fill="#0" id="circle143"/>
	<circle cx="363.394" cy="128.688" r="4" fill="#0" id="circle144"/>
	<circle cx="370.728" cy="216.702" r="4" fill="#0" id="circle145"/>
	<circle cx="378.063" cy="141.523" r="4" fill="#0" id="circle146"/>
	<circle cx="389.065" cy="216.702" r="4" fill="#0" id="circle147"/>
	<circle cx="394.566" cy="132.355" r="4" fill="#0" id="circle148"/>
	<circle cx="405.567" cy="207.534" r="4" fill="#0" id="circle149"/>
	<circle cx="411.068" cy="141.523" r="4" fill="#0" id="circle150"/>
	<circle cx="423.904" cy="207.534" r="4" fill="#0" id="circle151"/>
	<circle cx="429.405" cy="141.523" r="4" fill="#0" id="circle152"/>
	<circle cx="442.24" cy="207.534" r="4" fill="#0" id="circle153"/>
	<circle cx="447.741" cy="143.357" r="4" fill="#0" id="circle154"/>
	<circle cx="460.577" cy="207.534" r="4" fill="#0" id="circle155"/>
	<circle cx="466.078" cy="150.691" r="4" fill="#0" id="circle156"/>
	<circle cx="478.913" cy="207.534" r="4" fill="#0" id="circle157"/>
	<circle cx="484.414" cy="150.691" r="4" fill="#0" id="circle158"/>
	<circle cx="495.416" cy="216.702" r="4" fill="#0" id="circle159"/>
	<circle cx="502.75" cy="150.691" r="4" fill="#0" id="circle160"/>
	<circle cx="513.752" cy="216.702" r="4" fill="#0" id="circle161"/>
	<circle cx="521.087" cy="150.691" r="4" fill="#0" id="circle162"/>
	<circle cx="532.089" cy="216.702" r="4" fill="#0" id="circle163"/>
	<circle cx="539.423" cy="150.691" r="4" fill="#0" id="circle164"/>
	<circle cx="550.425" cy="216.702" r="4" fill="#0" id="circle165"/>
	<circle cx="557.76" cy="150.691" r="4" fill="#0" id="circle166"/>
	<circle cx="568.762" cy="216.702" r="4" fill="#0" id="circle167"/>
	<circle cx="576.096" cy="150.691" r="4" fill="#0" id="circle168"/>
	<circle cx="587.098" cy="216.702" r="4" fill="#0" id="circle169"/>
	<circle cx="592.599" cy="159.86" r="4" fill="#0" id="circle170"/>
	<circle cx="605.434" cy="216.702" r="4" fill="#0" id="circle171"/>
	<circle cx="610.935" cy="154.359" r="4" fill="#0" id="circle172"/>
	<circle cx="623.771" cy="216.702" r="4" fill="#0" id="circle173"/>
	<circle cx="629.272" cy="159.86" r="4" fill="#0" id="circle174"/>
	<circle cx="642.107" cy="216.702" r="4" fill="#0" id="circle175"/>
	<circle cx="647.608" cy="159.86" r="4" fill="#0" id="circle176"/>
	<circle cx="660.444" cy="224.037" r="4" fill="#0" id="circle177"/>
	<circle cx="665.945" cy="159.86" r="4" fill="#0" id="circle178"/>
	<circle cx="678.78" cy="224.037" r="4" fill="#0" id="circle179"/>
	<circle cx="684.281" cy="159.86" r="4" fill="#0" id="circle180"/>
	<circle cx="697.116" cy="225.871" r="4" fill="#0" id="circle181"/>
	<circle cx="700.784" cy="169.028" r="4" fill="#0" id="circle182"/>
	<circle cx="715.453" cy="225.871" r="4" fill="#0" id="circle183"/>
	<circle cx="719.12" cy="169.028" r="4" fill="#0" id="circle184"/>
	<circle cx="733.789" cy="225.871" r="4" fill="#0" id="circle185"/>
	<circle cx="737.457" cy="172.695" r="4" fill="#0" id="circle186"/>
	<circle cx="750.292" cy="235.039" r="4" fill="#0" id="circle187"/>
	<circle cx="755.793" cy="172.695" r="4" fill="#0" id="circle188"/>
	<circle cx="768.628" cy="235.039" r="4" fill="#0" id="circle189"/>
	<circle cx="774.129" cy="178.196" r="4" fill="#0" id="circle190"/>
	<circle cx="786.965" cy="240.54" r="4" fill="#0" id="circle191"/>
	<circle cx="792.466" cy="178.196" r="4" fill="#0" id="circle192"/>
	<circle cx="805.301" cy="244.207" r="4" fill="#0" id="circle193"/>
	<circle cx="810.802" cy="181.863" r="4" fill="#0" id="circle194"/>
	<circle cx="823.638" cy="244.207" r="4" fill="#0" id="circle195"/>
	<circle cx="829.139" cy="181.863" r="4" fill="#0" id="circle196"/>
	<circle cx="841.974" cy="244.207" r="4" fill="#0" id="circle197"/>
	<circle cx="847.475" cy="183.697" r="4" fill="#0" id="circle198"/>
	<circle cx="860.311" cy="244.207" r="4" fill="#0" id="circle199"/>
	<circle cx="865.811" cy="187.364" r="4" fill="#0" id="circle200"/>
	<circle cx="878.647" cy="244.207" r="4" fill="#0" id="circle201"/>
	<circle cx="884.148" cy="181.863" r="4" fill="#0" id="circle202"/>
	<circle cx="896.983" cy="244.207" r="4" fill="#0" id="circle203"/>
	<circle cx="902.484" cy="187.364" r="4" fill="#0" id="circle204"/>
	<circle cx="913.486" cy="253.375" r="4" fill="#0" id="circle205"/>
	<circle cx="920.821" cy="191.031" r="4" fill="#0" id="circle206"/>
	<circle cx="931.823" cy="253.375" r="4" fill="#0" id="circle207"/>
	<circle cx="939.157" cy="187.364" r="4" fill="#0" id="circle208"/>
	<circle cx="950.159" cy="253.375" r="4" fill="#0" id="circle209"/>
	<circle cx="957.494" cy="187.364" r="4" fill="#0" id="circle210"/>
	<circle cx="968.495" cy="253.375" r="4" fill="#0" id="circle211"/>
	<circle cx="973.996" cy="196.532" r="4" fill="#0" id="circle212"/>
	<circle cx="984.998" cy="244.207" r="4" fill="#0" id="circle213"/>
	<circle cx="990.499" cy="205.701" r="4" fill="#0" id="circle214"/>
	<circle cx="996" cy="225.871" r="4" fill="#0" id="circle215"/>
	</g>
</svg>