<?xml version="1.0" encoding="UTF-8" standalone="no"?>
<!-- Created with CurveBenchmark -->
<svg
	xmlns:dc="http://purl.org/dc/elements/1.1/"
	xmlns:cc="http://creativecommons.org/ns#"
	xmlns:rdf="http://www.w3.org/1999/02/22-rdf-syntax-ns#"
	xmlns:svg="http://www.w3.org/2000/svg"
	xmlns="http://www.w3.org/2000/svg"
	xmlns:sodipodi="http://sodipodi.sourceforge.net/DTD/sodipodi-0.dtd"
	xmlns:inkscape="http://www.inkscape.org/namespaces/inkscape"
	width="1000"
	height="1000"
	id="svg2"
	version="1.1"
	sodipodi:docname="manifold/crust-fish130.png.txt">
<defs
	id="defs4" />
<metadata
	id="metadata7">
	<rdf:RDF>
		<cc:Work
			rdf:about="">
			<dc:format>image/svg+xml</dc:format>
			<dc:type
				rdf:resource="http://purl.org/dc/dcmitype/StillImage" />
			<dc:title></dc:title>
		</cc:Work>
	</rdf:RDF>
</metadata>
<g
	inkscape:label="Layer 1"
	inkscape:groupmode="layer"
	id="layer1">
	<path style="fill:none;stroke:red;stroke-width:1px;stroke-linecap:butt;stroke-linejoin:miter;stroke-opacity:1" d="M 4,188.658 46.9437,184.364 z" id="boundary" inkscape:connector-curvature="0" />
	<path style="fill:none;stroke:red;stroke-width:1px;stroke-linecap:butt;stroke-linejoin:miter;stroke-opacity:1" d="M 4,231.602 4,188.658 z" id="boundary" inkscape:connector-curvature="0" />
	<path style="fill:none;stroke:red;stroke-width:1px;stroke-linecap:butt;stroke-linejoin:miter;stroke-opacity:1" d="M 46.9437,184.364 89.8874,201.541 z" id="boundary" inkscape:connector-curvature="0" />
	<path style="fill:none;stroke:red;stroke-width:1px;stroke-linecap:butt;stroke-linejoin:miter;stroke-opacity:1" d="M 124.242,227.307 89.8874,201.541 z" id="boundary" inkscape:connector-curvature="0" />
	<path style="fill:none;stroke:red;stroke-width:1px;stroke-linecap:butt;stroke-linejoin:miter;stroke-opacity:1" d="M 162.892,248.779 124.242,227.307 z" id="boundary" inkscape:connector-curvature="0" />
	<path style="fill:none;stroke:red;stroke-width:1px;stroke-linecap:butt;stroke-linejoin:miter;stroke-opacity:1" d="M 12.5887,274.545 4,231.602 z" id="boundary" inkscape:connector-curvature="0" />
	<path style="fill:none;stroke:red;stroke-width:1px;stroke-linecap:butt;stroke-linejoin:miter;stroke-opacity:1" d="M 12.5887,274.545 21.1775,317.489 z" id="boundary" inkscape:connector-curvature="0" />
	<path style="fill:none;stroke:red;stroke-width:1px;stroke-linecap:butt;stroke-linejoin:miter;stroke-opacity:1" d="M 21.1775,317.489 21.1775,360.433 z" id="boundary" inkscape:connector-curvature="0" />
	<path style="fill:none;stroke:red;stroke-width:1px;stroke-linecap:butt;stroke-linejoin:miter;stroke-opacity:1" d="M 162.892,248.779 197.247,274.545 z" id="boundary" inkscape:connector-curvature="0" />
	<path style="fill:none;stroke:red;stroke-width:1px;stroke-linecap:butt;stroke-linejoin:miter;stroke-opacity:1" d="M 338.961,111.359 296.017,128.537 z" id="boundary" inkscape:connector-curvature="0" />
	<path style="fill:none;stroke:red;stroke-width:1px;stroke-linecap:butt;stroke-linejoin:miter;stroke-opacity:1" d="M 296.017,128.537 270.251,162.892 z" id="boundary" inkscape:connector-curvature="0" />
	<path style="fill:none;stroke:red;stroke-width:1px;stroke-linecap:butt;stroke-linejoin:miter;stroke-opacity:1" d="M 377.61,132.831 338.961,111.359 z" id="boundary" inkscape:connector-curvature="0" />
	<path style="fill:none;stroke:red;stroke-width:1px;stroke-linecap:butt;stroke-linejoin:miter;stroke-opacity:1" d="M 442.026,119.948 416.26,154.303 z" id="boundary" inkscape:connector-curvature="0" />
	<path style="fill:none;stroke:red;stroke-width:1px;stroke-linecap:butt;stroke-linejoin:miter;stroke-opacity:1" d="M 416.26,154.303 377.61,132.831 z" id="boundary" inkscape:connector-curvature="0" />
	<path style="fill:none;stroke:red;stroke-width:1px;stroke-linecap:butt;stroke-linejoin:miter;stroke-opacity:1" d="M 270.251,162.892 244.485,197.247 z" id="boundary" inkscape:connector-curvature="0" />
	<path style="fill:none;stroke:red;stroke-width:1px;stroke-linecap:butt;stroke-linejoin:miter;stroke-opacity:1" d="M 244.485,197.247 223.013,235.896 z" id="boundary" inkscape:connector-curvature="0" />
	<path style="fill:none;stroke:red;stroke-width:1px;stroke-linecap:butt;stroke-linejoin:miter;stroke-opacity:1" d="M 223.013,235.896 197.247,274.545 z" id="boundary" inkscape:connector-curvature="0" />
	<path style="fill:none;stroke:red;stroke-width:1px;stroke-linecap:butt;stroke-linejoin:miter;stroke-opacity:1" d="M 21.1775,360.433 12.5887,420.554 z" id="boundary" inkscape:connector-curvature="0" />
	<path style="fill:none;stroke:red;stroke-width:1px;stroke-linecap:butt;stroke-linejoin:miter;stroke-opacity:1" d="M 12.5887,420.554 4,463.498 z" id="boundary" inkscape:connector-curvature="0" />
	<path style="fill:none;stroke:red;stroke-width:1px;stroke-linecap:butt;stroke-linejoin:miter;stroke-opacity:1" d="M 4,463.498 4,506.442 z" id="boundary" inkscape:connector-curvature="0" />
	<path style="fill:none;stroke:red;stroke-width:1px;stroke-linecap:butt;stroke-linejoin:miter;stroke-opacity:1" d="M 162.892,437.732 128.537,472.087 z" id="boundary" inkscape:connector-curvature="0" />
	<path style="fill:none;stroke:red;stroke-width:1px;stroke-linecap:butt;stroke-linejoin:miter;stroke-opacity:1" d="M 46.9437,510.736 4,506.442 z" id="boundary" inkscape:connector-curvature="0" />
	<path style="fill:none;stroke:red;stroke-width:1px;stroke-linecap:butt;stroke-linejoin:miter;stroke-opacity:1" d="M 89.8874,493.558 128.537,472.087 z" id="boundary" inkscape:connector-curvature="0" />
	<path style="fill:none;stroke:red;stroke-width:1px;stroke-linecap:butt;stroke-linejoin:miter;stroke-opacity:1" d="M 89.8874,493.558 46.9437,510.736 z" id="boundary" inkscape:connector-curvature="0" />
	<path style="fill:none;stroke:red;stroke-width:1px;stroke-linecap:butt;stroke-linejoin:miter;stroke-opacity:1" d="M 201.541,416.26 162.892,437.732 z" id="boundary" inkscape:connector-curvature="0" />
	<path style="fill:none;stroke:red;stroke-width:1px;stroke-linecap:butt;stroke-linejoin:miter;stroke-opacity:1" d="M 201.541,416.26 218.719,459.203 z" id="boundary" inkscape:connector-curvature="0" />
	<path style="fill:none;stroke:red;stroke-width:1px;stroke-linecap:butt;stroke-linejoin:miter;stroke-opacity:1" d="M 218.719,459.203 227.307,502.147 z" id="boundary" inkscape:connector-curvature="0" />
	<path style="fill:none;stroke:red;stroke-width:1px;stroke-linecap:butt;stroke-linejoin:miter;stroke-opacity:1" d="M 227.307,502.147 244.485,545.091 z" id="boundary" inkscape:connector-curvature="0" />
	<path style="fill:none;stroke:red;stroke-width:1px;stroke-linecap:butt;stroke-linejoin:miter;stroke-opacity:1" d="M 197.247,274.545 201.541,416.26 z" id="boundary" inkscape:connector-curvature="0" />
	<path style="fill:none;stroke:red;stroke-width:1px;stroke-linecap:butt;stroke-linejoin:miter;stroke-opacity:1" d="M 287.429,553.68 244.485,545.091 z" id="boundary" inkscape:connector-curvature="0" />
	<path style="fill:none;stroke:red;stroke-width:1px;stroke-linecap:butt;stroke-linejoin:miter;stroke-opacity:1" d="M 330.372,545.091 287.429,553.68 z" id="boundary" inkscape:connector-curvature="0" />
	<path style="fill:none;stroke:red;stroke-width:1px;stroke-linecap:butt;stroke-linejoin:miter;stroke-opacity:1" d="M 369.022,523.619 411.965,527.913 z" id="boundary" inkscape:connector-curvature="0" />
	<path style="fill:none;stroke:red;stroke-width:1px;stroke-linecap:butt;stroke-linejoin:miter;stroke-opacity:1" d="M 369.022,523.619 330.372,545.091 z" id="boundary" inkscape:connector-curvature="0" />
	<path style="fill:none;stroke:red;stroke-width:1px;stroke-linecap:butt;stroke-linejoin:miter;stroke-opacity:1" d="M 515.03,64.1212 549.385,34.0606 z" id="boundary" inkscape:connector-curvature="0" />
	<path style="fill:none;stroke:red;stroke-width:1px;stroke-linecap:butt;stroke-linejoin:miter;stroke-opacity:1" d="M 515.03,64.1212 476.381,85.5931 z" id="boundary" inkscape:connector-curvature="0" />
	<path style="fill:none;stroke:red;stroke-width:1px;stroke-linecap:butt;stroke-linejoin:miter;stroke-opacity:1" d="M 592.329,21.1775 549.385,34.0606 z" id="boundary" inkscape:connector-curvature="0" />
	<path style="fill:none;stroke:red;stroke-width:1px;stroke-linecap:butt;stroke-linejoin:miter;stroke-opacity:1" d="M 635.273,4 669.628,29.7662 z" id="boundary" inkscape:connector-curvature="0" />
	<path style="fill:none;stroke:red;stroke-width:1px;stroke-linecap:butt;stroke-linejoin:miter;stroke-opacity:1" d="M 592.329,21.1775 635.273,4 z" id="boundary" inkscape:connector-curvature="0" />
	<path style="fill:none;stroke:red;stroke-width:1px;stroke-linecap:butt;stroke-linejoin:miter;stroke-opacity:1" d="M 669.628,29.7662 678.216,72.71 z" id="boundary" inkscape:connector-curvature="0" />
	<path style="fill:none;stroke:red;stroke-width:1px;stroke-linecap:butt;stroke-linejoin:miter;stroke-opacity:1" d="M 678.216,72.71 703.983,107.065 z" id="boundary" inkscape:connector-curvature="0" />
	<path style="fill:none;stroke:red;stroke-width:1px;stroke-linecap:butt;stroke-linejoin:miter;stroke-opacity:1" d="M 721.16,150.009 764.104,162.892 z" id="boundary" inkscape:connector-curvature="0" />
	<path style="fill:none;stroke:red;stroke-width:1px;stroke-linecap:butt;stroke-linejoin:miter;stroke-opacity:1" d="M 442.026,119.948 476.381,85.5931 z" id="boundary" inkscape:connector-curvature="0" />
	<path style="fill:none;stroke:red;stroke-width:1px;stroke-linecap:butt;stroke-linejoin:miter;stroke-opacity:1" d="M 703.983,107.065 721.16,150.009 z" id="boundary" inkscape:connector-curvature="0" />
	<path style="fill:none;stroke:red;stroke-width:1px;stroke-linecap:butt;stroke-linejoin:miter;stroke-opacity:1" d="M 764.104,162.892 807.048,180.069 z" id="boundary" inkscape:connector-curvature="0" />
	<path style="fill:none;stroke:red;stroke-width:1px;stroke-linecap:butt;stroke-linejoin:miter;stroke-opacity:1" d="M 849.991,197.247 807.048,180.069 z" id="boundary" inkscape:connector-curvature="0" />
	<path style="fill:none;stroke:red;stroke-width:1px;stroke-linecap:butt;stroke-linejoin:miter;stroke-opacity:1" d="M 892.935,214.424 849.991,197.247 z" id="boundary" inkscape:connector-curvature="0" />
	<path style="fill:none;stroke:red;stroke-width:1px;stroke-linecap:butt;stroke-linejoin:miter;stroke-opacity:1" d="M 935.879,231.602 892.935,214.424 z" id="boundary" inkscape:connector-curvature="0" />
	<path style="fill:none;stroke:red;stroke-width:1px;stroke-linecap:butt;stroke-linejoin:miter;stroke-opacity:1" d="M 961.645,265.957 935.879,231.602 z" id="boundary" inkscape:connector-curvature="0" />
	<path style="fill:none;stroke:red;stroke-width:1px;stroke-linecap:butt;stroke-linejoin:miter;stroke-opacity:1" d="M 996,291.723 961.645,265.957 z" id="boundary" inkscape:connector-curvature="0" />
	<path style="fill:none;stroke:red;stroke-width:1px;stroke-linecap:butt;stroke-linejoin:miter;stroke-opacity:1" d="M 996,291.723 996,369.022 z" id="boundary" inkscape:connector-curvature="0" />
	<path style="fill:none;stroke:red;stroke-width:1px;stroke-linecap:butt;stroke-linejoin:miter;stroke-opacity:1" d="M 454.909,527.913 497.853,536.502 z" id="boundary" inkscape:connector-curvature="0" />
	<path style="fill:none;stroke:red;stroke-width:1px;stroke-linecap:butt;stroke-linejoin:miter;stroke-opacity:1" d="M 484.97,609.506 476.381,652.45 z" id="boundary" inkscape:connector-curvature="0" />
	<path style="fill:none;stroke:red;stroke-width:1px;stroke-linecap:butt;stroke-linejoin:miter;stroke-opacity:1" d="M 411.965,527.913 454.909,527.913 z" id="boundary" inkscape:connector-curvature="0" />
	<path style="fill:none;stroke:red;stroke-width:1px;stroke-linecap:butt;stroke-linejoin:miter;stroke-opacity:1" d="M 643.861,648.156 609.506,618.095 z" id="boundary" inkscape:connector-curvature="0" />
	<path style="fill:none;stroke:red;stroke-width:1px;stroke-linecap:butt;stroke-linejoin:miter;stroke-opacity:1" d="M 609.506,618.095 575.152,652.45 z" id="boundary" inkscape:connector-curvature="0" />
	<path style="fill:none;stroke:red;stroke-width:1px;stroke-linecap:butt;stroke-linejoin:miter;stroke-opacity:1" d="M 575.152,652.45 540.797,682.511 z" id="boundary" inkscape:connector-curvature="0" />
	<path style="fill:none;stroke:red;stroke-width:1px;stroke-linecap:butt;stroke-linejoin:miter;stroke-opacity:1" d="M 540.797,682.511 497.853,691.1 z" id="boundary" inkscape:connector-curvature="0" />
	<path style="fill:none;stroke:red;stroke-width:1px;stroke-linecap:butt;stroke-linejoin:miter;stroke-opacity:1" d="M 497.853,691.1 476.381,652.45 z" id="boundary" inkscape:connector-curvature="0" />
	<path style="fill:none;stroke:red;stroke-width:1px;stroke-linecap:butt;stroke-linejoin:miter;stroke-opacity:1" d="M 669.628,682.511 643.861,648.156 z" id="boundary" inkscape:connector-curvature="0" />
	<path style="fill:none;stroke:red;stroke-width:1px;stroke-linecap:butt;stroke-linejoin:miter;stroke-opacity:1" d="M 669.628,682.511 712.571,691.1 z" id="boundary" inkscape:connector-curvature="0" />
	<path style="fill:none;stroke:red;stroke-width:1px;stroke-linecap:butt;stroke-linejoin:miter;stroke-opacity:1" d="M 837.108,510.736 798.459,532.208 z" id="boundary" inkscape:connector-curvature="0" />
	<path style="fill:none;stroke:red;stroke-width:1px;stroke-linecap:butt;stroke-linejoin:miter;stroke-opacity:1" d="M 798.459,532.208 755.515,549.385 z" id="boundary" inkscape:connector-curvature="0" />
	<path style="fill:none;stroke:red;stroke-width:1px;stroke-linecap:butt;stroke-linejoin:miter;stroke-opacity:1" d="M 755.515,549.385 746.926,609.506 z" id="boundary" inkscape:connector-curvature="0" />
	<path style="fill:none;stroke:red;stroke-width:1px;stroke-linecap:butt;stroke-linejoin:miter;stroke-opacity:1" d="M 974.528,407.671 996,369.022 z" id="boundary" inkscape:connector-curvature="0" />
	<path style="fill:none;stroke:red;stroke-width:1px;stroke-linecap:butt;stroke-linejoin:miter;stroke-opacity:1" d="M 974.528,407.671 953.056,446.32 z" id="boundary" inkscape:connector-curvature="0" />
	<path style="fill:none;stroke:red;stroke-width:1px;stroke-linecap:butt;stroke-linejoin:miter;stroke-opacity:1" d="M 918.701,472.087 880.052,493.558 z" id="boundary" inkscape:connector-curvature="0" />
	<path style="fill:none;stroke:red;stroke-width:1px;stroke-linecap:butt;stroke-linejoin:miter;stroke-opacity:1" d="M 953.056,446.32 918.701,472.087 z" id="boundary" inkscape:connector-curvature="0" />
	<path style="fill:none;stroke:red;stroke-width:1px;stroke-linecap:butt;stroke-linejoin:miter;stroke-opacity:1" d="M 880.052,493.558 837.108,510.736 z" id="boundary" inkscape:connector-curvature="0" />
	<path style="fill:none;stroke:red;stroke-width:1px;stroke-linecap:butt;stroke-linejoin:miter;stroke-opacity:1" d="M 746.926,609.506 738.338,652.45 z" id="boundary" inkscape:connector-curvature="0" />
	<path style="fill:none;stroke:red;stroke-width:1px;stroke-linecap:butt;stroke-linejoin:miter;stroke-opacity:1" d="M 738.338,652.45 712.571,691.1 z" id="boundary" inkscape:connector-curvature="0" />
	<circle cx="4" cy="188.658" r="4" fill="#0" id="circle0"/>
	<circle cx="4" cy="231.602" r="4" fill="#0" id="circle1"/>
	<circle cx="4" cy="463.498" r="4" fill="#0" id="circle2"/>
	<circle cx="4" cy="506.442" r="4" fill="#0" id="circle3"/>
	<circle cx="12.5887" cy="274.545" r="4" fill="#0" id="circle4"/>
	<circle cx="12.5887" cy="420.554" r="4" fill="#0" id="circle5"/>
	<circle cx="21.1775" cy="317.489" r="4" fill="#0" id="circle6"/>
	<circle cx="21.1775" cy="360.433" r="4" fill="#0" id="circle7"/>
	<circle cx="46.9437" cy="184.364" r="4" fill="#0" id="circle8"/>
	<circle cx="46.9437" cy="510.736" r="4" fill="#0" id="circle9"/>
	<circle cx="89.8874" cy="201.541" r="4" fill="#0" id="circle10"/>
	<circle cx="89.8874" cy="493.558" r="4" fill="#0" id="circle11"/>
	<circle cx="124.242" cy="227.307" r="4" fill="#0" id="circle12"/>
	<circle cx="128.537" cy="472.087" r="4" fill="#0" id="circle13"/>
	<circle cx="162.892" cy="248.779" r="4" fill="#0" id="circle14"/>
	<circle cx="162.892" cy="437.732" r="4" fill="#0" id="circle15"/>
	<circle cx="197.247" cy="274.545" r="4" fill="#0" id="circle16"/>
	<circle cx="201.541" cy="416.26" r="4" fill="#0" id="circle17"/>
	<circle cx="218.719" cy="459.203" r="4" fill="#0" id="circle18"/>
	<circle cx="223.013" cy="235.896" r="4" fill="#0" id="circle19"/>
	<circle cx="227.307" cy="502.147" r="4" fill="#0" id="circle20"/>
	<circle cx="244.485" cy="197.247" r="4" fill="#0" id="circle21"/>
	<circle cx="244.485" cy="545.091" r="4" fill="#0" id="circle22"/>
	<circle cx="270.251" cy="162.892" r="4" fill="#0" id="circle23"/>
	<circle cx="287.429" cy="553.68" r="4" fill="#0" id="circle24"/>
	<circle cx="296.017" cy="128.537" r="4" fill="#0" id="circle25"/>
	<circle cx="330.372" cy="545.091" r="4" fill="#0" id="circle26"/>
	<circle cx="338.961" cy="111.359" r="4" fill="#0" id="circle27"/>
	<circle cx="369.022" cy="523.619" r="4" fill="#0" id="circle28"/>
	<circle cx="377.61" cy="132.831" r="4" fill="#0" id="circle29"/>
	<circle cx="411.965" cy="527.913" r="4" fill="#0" id="circle30"/>
	<circle cx="416.26" cy="154.303" r="4" fill="#0" id="circle31"/>
	<circle cx="442.026" cy="119.948" r="4" fill="#0" id="circle32"/>
	<circle cx="454.909" cy="527.913" r="4" fill="#0" id="circle33"/>
	<circle cx="476.381" cy="85.5931" r="4" fill="#0" id="circle34"/>
	<circle cx="476.381" cy="652.45" r="4" fill="#0" id="circle35"/>
	<circle cx="484.97" cy="609.506" r="4" fill="#0" id="circle36"/>
	<circle cx="497.853" cy="536.502" r="4" fill="#0" id="circle37"/>
	<circle cx="497.853" cy="691.1" r="4" fill="#0" id="circle38"/>
	<circle cx="515.03" cy="64.1212" r="4" fill="#0" id="circle39"/>
	<circle cx="540.797" cy="682.511" r="4" fill="#0" id="circle40"/>
	<circle cx="549.385" cy="34.0606" r="4" fill="#0" id="circle41"/>
	<circle cx="575.152" cy="652.45" r="4" fill="#0" id="circle42"/>
	<circle cx="592.329" cy="21.1775" r="4" fill="#0" id="circle43"/>
	<circle cx="609.506" cy="618.095" r="4" fill="#0" id="circle44"/>
	<circle cx="635.273" cy="4" r="4" fill="#0" id="circle45"/>
	<circle cx="643.861" cy="648.156" r="4" fill="#0" id="circle46"/>
	<circle cx="669.628" cy="29.7662" r="4" fill="#0" id="circle47"/>
	<circle cx="669.628" cy="682.511" r="4" fill="#0" id="circle48"/>
	<circle cx="678.216" cy="72.71" r="4" fill="#0" id="circle49"/>
	<circle cx="703.983" cy="107.065" r="4" fill="#0" id="circle50"/>
	<circle cx="712.571" cy="691.1" r="4" fill="#0" id="circle51"/>
	<circle cx="721.16" cy="150.009" r="4" fill="#0" id="circle52"/>
	<circle cx="738.338" cy="652.45" r="4" fill="#0" id="circle53"/>
	<circle cx="746.926" cy="609.506" r="4" fill="#0" id="circle54"/>
	<circle cx="755.515" cy="549.385" r="4" fill="#0" id="circle55"/>
	<circle cx="764.104" cy="162.892" r="4" fill="#0" id="circle56"/>
	<circle cx="798.459" cy="532.208" r="4" fill="#0" id="circle57"/>
	<circle cx="807.048" cy="180.069" r="4" fill="#0" id="circle58"/>
	<circle cx="837.108" cy="510.736" r="4" fill="#0" id="circle59"/>
	<circle cx="849.991" cy="197.247" r="4" fill="#0" id="circle60"/>
	<circle cx="880.052" cy="493.558" r="4" fill="#0" id="circle61"/>
	<circle cx="892.935" cy="214.424" r="4" fill="#0" id="circle62"/>
	<circle cx="918.701" cy="472.087" r="4" fill="#0" id="circle63"/>
	<circle cx="935.879" cy="231.602" r="4" fill="#0" id="circle64"/>
	<circle cx="953.056" cy="446.32" r="4" fill="#0" id="circle65"/>
	<circle cx="961.645" cy="265.957" r="4" fill="#0" id="circle66"/>
	<circle cx="974.528" cy="407.671" r="4" fill="#0" id="circle67"/>
	<circle cx="996" cy="291.723" r="4" fill="#0" id="circle68"/>
	<circle cx="996" cy="369.022" r="4" fill="#0" id="circle69"/>
	</g>
</svg>