<?xml version="1.0" encoding="UTF-8" standalone="no"?>
<!-- Created with CurveBenchmark -->
<svg
	xmlns:dc="http://purl.org/dc/elements/1.1/"
	xmlns:cc="http://creativecommons.org/ns#"
	xmlns:rdf="http://www.w3.org/1999/02/22-rdf-syntax-ns#"
	xmlns:svg="http://www.w3.org/2000/svg"
	xmlns="http://www.w3.org/2000/svg"
	xmlns:sodipodi="http://sodipodi.sourceforge.net/DTD/sodipodi-0.dtd"
	xmlns:inkscape="http://www.inkscape.org/namespaces/inkscape"
	width="1000"
	height="1000"
	id="svg2"
	version="1.1"
	sodipodi:docname="manifold/crust-woodenspoonbinary12.png.txt">
<defs
	id="defs4" />
<metadata
	id="metadata7">
	<rdf:RDF>
		<cc:Work
			rdf:about="">
			<dc:format>image/svg+xml</dc:format>
			<dc:type
				rdf:resource="http://purl.org/dc/dcmitype/StillImage" />
			<dc:title></dc:title>
		</cc:Work>
	</rdf:RDF>
</metadata>
<g
	inkscape:label="Layer 1"
	inkscape:groupmode="layer"
	id="layer1">
	<path style="fill:none;stroke:red;stroke-width:1px;stroke-linecap:butt;stroke-linejoin:miter;stroke-opacity:1" d="M 24.4146,50.878 18.3659,56.9268 z" id="boundary" inkscape:connector-curvature="0" />
	<path style="fill:none;stroke:red;stroke-width:1px;stroke-linecap:butt;stroke-linejoin:miter;stroke-opacity:1" d="M 24.4146,50.878 30.4634,44.8293 z" id="boundary" inkscape:connector-curvature="0" />
	<path style="fill:none;stroke:red;stroke-width:1px;stroke-linecap:butt;stroke-linejoin:miter;stroke-opacity:1" d="M 37.2683,40.2927 30.4634,44.8293 z" id="boundary" inkscape:connector-curvature="0" />
	<path style="fill:none;stroke:red;stroke-width:1px;stroke-linecap:butt;stroke-linejoin:miter;stroke-opacity:1" d="M 49.3659,28.1951 41.8049,31.9756 z" id="boundary" inkscape:connector-curvature="0" />
	<path style="fill:none;stroke:red;stroke-width:1px;stroke-linecap:butt;stroke-linejoin:miter;stroke-opacity:1" d="M 56.1707,20.6341 49.3659,28.1951 z" id="boundary" inkscape:connector-curvature="0" />
	<path style="fill:none;stroke:red;stroke-width:1px;stroke-linecap:butt;stroke-linejoin:miter;stroke-opacity:1" d="M 56.1707,20.6341 63.7317,21.3902 z" id="boundary" inkscape:connector-curvature="0" />
	<path style="fill:none;stroke:red;stroke-width:1px;stroke-linecap:butt;stroke-linejoin:miter;stroke-opacity:1" d="M 37.2683,40.2927 41.8049,31.9756 z" id="boundary" inkscape:connector-curvature="0" />
	<path style="fill:none;stroke:red;stroke-width:1px;stroke-linecap:butt;stroke-linejoin:miter;stroke-opacity:1" d="M 11.561,66 19.122,64.4878 z" id="boundary" inkscape:connector-curvature="0" />
	<path style="fill:none;stroke:red;stroke-width:1px;stroke-linecap:butt;stroke-linejoin:miter;stroke-opacity:1" d="M 11.561,66 10.0488,73.561 z" id="boundary" inkscape:connector-curvature="0" />
	<path style="fill:none;stroke:red;stroke-width:1px;stroke-linecap:butt;stroke-linejoin:miter;stroke-opacity:1" d="M 5.5122,89.439 7.02439,81.122 z" id="boundary" inkscape:connector-curvature="0" />
	<path style="fill:none;stroke:red;stroke-width:1px;stroke-linecap:butt;stroke-linejoin:miter;stroke-opacity:1" d="M 7.02439,81.122 10.0488,73.561 z" id="boundary" inkscape:connector-curvature="0" />
	<path style="fill:none;stroke:red;stroke-width:1px;stroke-linecap:butt;stroke-linejoin:miter;stroke-opacity:1" d="M 5.5122,89.439 4,103.805 z" id="boundary" inkscape:connector-curvature="0" />
	<path style="fill:none;stroke:red;stroke-width:1px;stroke-linecap:butt;stroke-linejoin:miter;stroke-opacity:1" d="M 18.3659,56.9268 19.122,64.4878 z" id="boundary" inkscape:connector-curvature="0" />
	<path style="fill:none;stroke:red;stroke-width:1px;stroke-linecap:butt;stroke-linejoin:miter;stroke-opacity:1" d="M 105.317,5.5122 97.7561,6.26829 z" id="boundary" inkscape:connector-curvature="0" />
	<path style="fill:none;stroke:red;stroke-width:1px;stroke-linecap:butt;stroke-linejoin:miter;stroke-opacity:1" d="M 76.5854,11.561 84.1463,12.3171 z" id="boundary" inkscape:connector-curvature="0" />
	<path style="fill:none;stroke:red;stroke-width:1px;stroke-linecap:butt;stroke-linejoin:miter;stroke-opacity:1" d="M 84.1463,12.3171 90.1951,7.78049 z" id="boundary" inkscape:connector-curvature="0" />
	<path style="fill:none;stroke:red;stroke-width:1px;stroke-linecap:butt;stroke-linejoin:miter;stroke-opacity:1" d="M 97.7561,6.26829 90.1951,7.78049 z" id="boundary" inkscape:connector-curvature="0" />
	<path style="fill:none;stroke:red;stroke-width:1px;stroke-linecap:butt;stroke-linejoin:miter;stroke-opacity:1" d="M 76.5854,11.561 69.7805,15.3415 z" id="boundary" inkscape:connector-curvature="0" />
	<path style="fill:none;stroke:red;stroke-width:1px;stroke-linecap:butt;stroke-linejoin:miter;stroke-opacity:1" d="M 112.878,4 120.439,4 z" id="boundary" inkscape:connector-curvature="0" />
	<path style="fill:none;stroke:red;stroke-width:1px;stroke-linecap:butt;stroke-linejoin:miter;stroke-opacity:1" d="M 135.561,6.26829 128,6.26829 z" id="boundary" inkscape:connector-curvature="0" />
	<path style="fill:none;stroke:red;stroke-width:1px;stroke-linecap:butt;stroke-linejoin:miter;stroke-opacity:1" d="M 128,6.26829 120.439,4 z" id="boundary" inkscape:connector-curvature="0" />
	<path style="fill:none;stroke:red;stroke-width:1px;stroke-linecap:butt;stroke-linejoin:miter;stroke-opacity:1" d="M 112.878,4 105.317,5.5122 z" id="boundary" inkscape:connector-curvature="0" />
	<path style="fill:none;stroke:red;stroke-width:1px;stroke-linecap:butt;stroke-linejoin:miter;stroke-opacity:1" d="M 143.122,8.53659 135.561,6.26829 z" id="boundary" inkscape:connector-curvature="0" />
	<path style="fill:none;stroke:red;stroke-width:1px;stroke-linecap:butt;stroke-linejoin:miter;stroke-opacity:1" d="M 143.122,8.53659 150.683,10.8049 z" id="boundary" inkscape:connector-curvature="0" />
	<path style="fill:none;stroke:red;stroke-width:1px;stroke-linecap:butt;stroke-linejoin:miter;stroke-opacity:1" d="M 158.244,13.0732 150.683,10.8049 z" id="boundary" inkscape:connector-curvature="0" />
	<path style="fill:none;stroke:red;stroke-width:1px;stroke-linecap:butt;stroke-linejoin:miter;stroke-opacity:1" d="M 63.7317,21.3902 69.7805,15.3415 z" id="boundary" inkscape:connector-curvature="0" />
	<path style="fill:none;stroke:red;stroke-width:1px;stroke-linecap:butt;stroke-linejoin:miter;stroke-opacity:1" d="M 158.244,13.0732 165.805,14.5854 z" id="boundary" inkscape:connector-curvature="0" />
	<path style="fill:none;stroke:red;stroke-width:1px;stroke-linecap:butt;stroke-linejoin:miter;stroke-opacity:1" d="M 4,103.805 7.02439,111.366 z" id="boundary" inkscape:connector-curvature="0" />
	<path style="fill:none;stroke:red;stroke-width:1px;stroke-linecap:butt;stroke-linejoin:miter;stroke-opacity:1" d="M 10.0488,118.927 7.02439,111.366 z" id="boundary" inkscape:connector-curvature="0" />
	<path style="fill:none;stroke:red;stroke-width:1px;stroke-linecap:butt;stroke-linejoin:miter;stroke-opacity:1" d="M 14.5854,126.488 10.0488,118.927 z" id="boundary" inkscape:connector-curvature="0" />
	<path style="fill:none;stroke:red;stroke-width:1px;stroke-linecap:butt;stroke-linejoin:miter;stroke-opacity:1" d="M 14.5854,126.488 20.6341,131.78 z" id="boundary" inkscape:connector-curvature="0" />
	<path style="fill:none;stroke:red;stroke-width:1px;stroke-linecap:butt;stroke-linejoin:miter;stroke-opacity:1" d="M 20.6341,131.78 23.6585,139.341 z" id="boundary" inkscape:connector-curvature="0" />
	<path style="fill:none;stroke:red;stroke-width:1px;stroke-linecap:butt;stroke-linejoin:miter;stroke-opacity:1" d="M 23.6585,139.341 29.7073,144.634 z" id="boundary" inkscape:connector-curvature="0" />
	<path style="fill:none;stroke:red;stroke-width:1px;stroke-linecap:butt;stroke-linejoin:miter;stroke-opacity:1" d="M 29.7073,144.634 29.7073,152.195 z" id="boundary" inkscape:connector-curvature="0" />
	<path style="fill:none;stroke:red;stroke-width:1px;stroke-linecap:butt;stroke-linejoin:miter;stroke-opacity:1" d="M 38.7805,165.049 33.4878,159 z" id="boundary" inkscape:connector-curvature="0" />
	<path style="fill:none;stroke:red;stroke-width:1px;stroke-linecap:butt;stroke-linejoin:miter;stroke-opacity:1" d="M 33.4878,159 29.7073,152.195 z" id="boundary" inkscape:connector-curvature="0" />
	<path style="fill:none;stroke:red;stroke-width:1px;stroke-linecap:butt;stroke-linejoin:miter;stroke-opacity:1" d="M 38.7805,165.049 44.0732,171.098 z" id="boundary" inkscape:connector-curvature="0" />
	<path style="fill:none;stroke:red;stroke-width:1px;stroke-linecap:butt;stroke-linejoin:miter;stroke-opacity:1" d="M 50.878,174.878 51.6341,182.439 z" id="boundary" inkscape:connector-curvature="0" />
	<path style="fill:none;stroke:red;stroke-width:1px;stroke-linecap:butt;stroke-linejoin:miter;stroke-opacity:1" d="M 50.878,174.878 44.0732,171.098 z" id="boundary" inkscape:connector-curvature="0" />
	<path style="fill:none;stroke:red;stroke-width:1px;stroke-linecap:butt;stroke-linejoin:miter;stroke-opacity:1" d="M 51.6341,182.439 58.439,186.22 z" id="boundary" inkscape:connector-curvature="0" />
	<path style="fill:none;stroke:red;stroke-width:1px;stroke-linecap:butt;stroke-linejoin:miter;stroke-opacity:1" d="M 58.439,186.22 60.7073,193.78 z" id="boundary" inkscape:connector-curvature="0" />
	<path style="fill:none;stroke:red;stroke-width:1px;stroke-linecap:butt;stroke-linejoin:miter;stroke-opacity:1" d="M 60.7073,193.78 66.7561,199.073 z" id="boundary" inkscape:connector-curvature="0" />
	<path style="fill:none;stroke:red;stroke-width:1px;stroke-linecap:butt;stroke-linejoin:miter;stroke-opacity:1" d="M 71.2927,205.122 66.7561,199.073 z" id="boundary" inkscape:connector-curvature="0" />
	<path style="fill:none;stroke:red;stroke-width:1px;stroke-linecap:butt;stroke-linejoin:miter;stroke-opacity:1" d="M 71.2927,205.122 78.0976,208.902 z" id="boundary" inkscape:connector-curvature="0" />
	<path style="fill:none;stroke:red;stroke-width:1px;stroke-linecap:butt;stroke-linejoin:miter;stroke-opacity:1" d="M 78.0976,208.902 84.1463,213.439 z" id="boundary" inkscape:connector-curvature="0" />
	<path style="fill:none;stroke:red;stroke-width:1px;stroke-linecap:butt;stroke-linejoin:miter;stroke-opacity:1" d="M 88.6829,219.488 84.1463,213.439 z" id="boundary" inkscape:connector-curvature="0" />
	<path style="fill:none;stroke:red;stroke-width:1px;stroke-linecap:butt;stroke-linejoin:miter;stroke-opacity:1" d="M 97.7561,222.512 94.7317,214.951 z" id="boundary" inkscape:connector-curvature="0" />
	<path style="fill:none;stroke:red;stroke-width:1px;stroke-linecap:butt;stroke-linejoin:miter;stroke-opacity:1" d="M 97.7561,222.512 88.6829,219.488 z" id="boundary" inkscape:connector-curvature="0" />
	<path style="fill:none;stroke:red;stroke-width:1px;stroke-linecap:butt;stroke-linejoin:miter;stroke-opacity:1" d="M 105.317,223.268 97.7561,222.512 z" id="boundary" inkscape:connector-curvature="0" />
	<path style="fill:none;stroke:red;stroke-width:1px;stroke-linecap:butt;stroke-linejoin:miter;stroke-opacity:1" d="M 171.854,19.122 165.805,14.5854 z" id="boundary" inkscape:connector-curvature="0" />
	<path style="fill:none;stroke:red;stroke-width:1px;stroke-linecap:butt;stroke-linejoin:miter;stroke-opacity:1" d="M 179.415,20.6341 186.976,22.1463 z" id="boundary" inkscape:connector-curvature="0" />
	<path style="fill:none;stroke:red;stroke-width:1px;stroke-linecap:butt;stroke-linejoin:miter;stroke-opacity:1" d="M 179.415,20.6341 171.854,19.122 z" id="boundary" inkscape:connector-curvature="0" />
	<path style="fill:none;stroke:red;stroke-width:1px;stroke-linecap:butt;stroke-linejoin:miter;stroke-opacity:1" d="M 194.537,25.1707 186.976,22.1463 z" id="boundary" inkscape:connector-curvature="0" />
	<path style="fill:none;stroke:red;stroke-width:1px;stroke-linecap:butt;stroke-linejoin:miter;stroke-opacity:1" d="M 222.512,38.7805 214.951,36.5122 z" id="boundary" inkscape:connector-curvature="0" />
	<path style="fill:none;stroke:red;stroke-width:1px;stroke-linecap:butt;stroke-linejoin:miter;stroke-opacity:1" d="M 199.829,31.2195 194.537,25.1707 z" id="boundary" inkscape:connector-curvature="0" />
	<path style="fill:none;stroke:red;stroke-width:1px;stroke-linecap:butt;stroke-linejoin:miter;stroke-opacity:1" d="M 207.39,34.2439 214.951,36.5122 z" id="boundary" inkscape:connector-curvature="0" />
	<path style="fill:none;stroke:red;stroke-width:1px;stroke-linecap:butt;stroke-linejoin:miter;stroke-opacity:1" d="M 207.39,34.2439 199.829,31.2195 z" id="boundary" inkscape:connector-curvature="0" />
	<path style="fill:none;stroke:red;stroke-width:1px;stroke-linecap:butt;stroke-linejoin:miter;stroke-opacity:1" d="M 228.561,44.0732 228.561,51.6341 z" id="boundary" inkscape:connector-curvature="0" />
	<path style="fill:none;stroke:red;stroke-width:1px;stroke-linecap:butt;stroke-linejoin:miter;stroke-opacity:1" d="M 228.561,44.0732 222.512,38.7805 z" id="boundary" inkscape:connector-curvature="0" />
	<path style="fill:none;stroke:red;stroke-width:1px;stroke-linecap:butt;stroke-linejoin:miter;stroke-opacity:1" d="M 236.122,49.3659 228.561,51.6341 z" id="boundary" inkscape:connector-curvature="0" />
	<path style="fill:none;stroke:red;stroke-width:1px;stroke-linecap:butt;stroke-linejoin:miter;stroke-opacity:1" d="M 228.561,44.0732 236.122,49.3659 z" id="boundary" inkscape:connector-curvature="0" />
	<path style="fill:none;stroke:red;stroke-width:1px;stroke-linecap:butt;stroke-linejoin:miter;stroke-opacity:1" d="M 236.122,49.3659 242.927,53.1463 z" id="boundary" inkscape:connector-curvature="0" />
	<path style="fill:none;stroke:red;stroke-width:1px;stroke-linecap:butt;stroke-linejoin:miter;stroke-opacity:1" d="M 248.976,57.6829 242.927,53.1463 z" id="boundary" inkscape:connector-curvature="0" />
	<path style="fill:none;stroke:red;stroke-width:1px;stroke-linecap:butt;stroke-linejoin:miter;stroke-opacity:1" d="M 251.244,65.2439 248.976,57.6829 z" id="boundary" inkscape:connector-curvature="0" />
	<path style="fill:none;stroke:red;stroke-width:1px;stroke-linecap:butt;stroke-linejoin:miter;stroke-opacity:1" d="M 251.244,65.2439 258.805,66.7561 z" id="boundary" inkscape:connector-curvature="0" />
	<path style="fill:none;stroke:red;stroke-width:1px;stroke-linecap:butt;stroke-linejoin:miter;stroke-opacity:1" d="M 258.805,66.7561 266.366,69.7805 z" id="boundary" inkscape:connector-curvature="0" />
	<path style="fill:none;stroke:red;stroke-width:1px;stroke-linecap:butt;stroke-linejoin:miter;stroke-opacity:1" d="M 272.415,74.3171 266.366,69.7805 z" id="boundary" inkscape:connector-curvature="0" />
	<path style="fill:none;stroke:red;stroke-width:1px;stroke-linecap:butt;stroke-linejoin:miter;stroke-opacity:1" d="M 278.463,78.8537 272.415,74.3171 z" id="boundary" inkscape:connector-curvature="0" />
	<path style="fill:none;stroke:red;stroke-width:1px;stroke-linecap:butt;stroke-linejoin:miter;stroke-opacity:1" d="M 284.512,84.1463 278.463,78.8537 z" id="boundary" inkscape:connector-curvature="0" />
	<path style="fill:none;stroke:red;stroke-width:1px;stroke-linecap:butt;stroke-linejoin:miter;stroke-opacity:1" d="M 284.512,84.1463 287.537,91.7073 z" id="boundary" inkscape:connector-curvature="0" />
	<path style="fill:none;stroke:red;stroke-width:1px;stroke-linecap:butt;stroke-linejoin:miter;stroke-opacity:1" d="M 293.585,96.2439 287.537,91.7073 z" id="boundary" inkscape:connector-curvature="0" />
	<path style="fill:none;stroke:red;stroke-width:1px;stroke-linecap:butt;stroke-linejoin:miter;stroke-opacity:1" d="M 307.195,103.049 299.634,101.537 z" id="boundary" inkscape:connector-curvature="0" />
	<path style="fill:none;stroke:red;stroke-width:1px;stroke-linecap:butt;stroke-linejoin:miter;stroke-opacity:1" d="M 299.634,101.537 293.585,96.2439 z" id="boundary" inkscape:connector-curvature="0" />
	<path style="fill:none;stroke:red;stroke-width:1px;stroke-linecap:butt;stroke-linejoin:miter;stroke-opacity:1" d="M 313.244,108.341 307.195,103.049 z" id="boundary" inkscape:connector-curvature="0" />
	<path style="fill:none;stroke:red;stroke-width:1px;stroke-linecap:butt;stroke-linejoin:miter;stroke-opacity:1" d="M 313.244,108.341 319.293,112.878 z" id="boundary" inkscape:connector-curvature="0" />
	<path style="fill:none;stroke:red;stroke-width:1px;stroke-linecap:butt;stroke-linejoin:miter;stroke-opacity:1" d="M 323.073,119.683 319.293,112.878 z" id="boundary" inkscape:connector-curvature="0" />
	<path style="fill:none;stroke:red;stroke-width:1px;stroke-linecap:butt;stroke-linejoin:miter;stroke-opacity:1" d="M 323.073,119.683 326.854,126.488 z" id="boundary" inkscape:connector-curvature="0" />
	<path style="fill:none;stroke:red;stroke-width:1px;stroke-linecap:butt;stroke-linejoin:miter;stroke-opacity:1" d="M 333.659,130.268 336.683,137.829 z" id="boundary" inkscape:connector-curvature="0" />
	<path style="fill:none;stroke:red;stroke-width:1px;stroke-linecap:butt;stroke-linejoin:miter;stroke-opacity:1" d="M 326.854,126.488 333.659,130.268 z" id="boundary" inkscape:connector-curvature="0" />
	<path style="fill:none;stroke:red;stroke-width:1px;stroke-linecap:butt;stroke-linejoin:miter;stroke-opacity:1" d="M 336.683,137.829 342.732,143.122 z" id="boundary" inkscape:connector-curvature="0" />
	<path style="fill:none;stroke:red;stroke-width:1px;stroke-linecap:butt;stroke-linejoin:miter;stroke-opacity:1" d="M 342.732,143.122 345.756,150.683 z" id="boundary" inkscape:connector-curvature="0" />
	<path style="fill:none;stroke:red;stroke-width:1px;stroke-linecap:butt;stroke-linejoin:miter;stroke-opacity:1" d="M 349.537,157.488 345.756,150.683 z" id="boundary" inkscape:connector-curvature="0" />
	<path style="fill:none;stroke:red;stroke-width:1px;stroke-linecap:butt;stroke-linejoin:miter;stroke-opacity:1" d="M 349.537,157.488 353.317,164.293 z" id="boundary" inkscape:connector-curvature="0" />
	<path style="fill:none;stroke:red;stroke-width:1px;stroke-linecap:butt;stroke-linejoin:miter;stroke-opacity:1" d="M 359.366,178.659 357.098,171.098 z" id="boundary" inkscape:connector-curvature="0" />
	<path style="fill:none;stroke:red;stroke-width:1px;stroke-linecap:butt;stroke-linejoin:miter;stroke-opacity:1" d="M 357.098,171.098 353.317,164.293 z" id="boundary" inkscape:connector-curvature="0" />
	<path style="fill:none;stroke:red;stroke-width:1px;stroke-linecap:butt;stroke-linejoin:miter;stroke-opacity:1" d="M 359.366,178.659 360.878,186.22 z" id="boundary" inkscape:connector-curvature="0" />
	<path style="fill:none;stroke:red;stroke-width:1px;stroke-linecap:butt;stroke-linejoin:miter;stroke-opacity:1" d="M 360.878,186.22 363.902,193.78 z" id="boundary" inkscape:connector-curvature="0" />
	<path style="fill:none;stroke:red;stroke-width:1px;stroke-linecap:butt;stroke-linejoin:miter;stroke-opacity:1" d="M 366.927,201.341 363.902,193.78 z" id="boundary" inkscape:connector-curvature="0" />
	<path style="fill:none;stroke:red;stroke-width:1px;stroke-linecap:butt;stroke-linejoin:miter;stroke-opacity:1" d="M 369.195,208.902 366.927,201.341 z" id="boundary" inkscape:connector-curvature="0" />
	<path style="fill:none;stroke:red;stroke-width:1px;stroke-linecap:butt;stroke-linejoin:miter;stroke-opacity:1" d="M 379.024,230.073 376,222.512 z" id="boundary" inkscape:connector-curvature="0" />
	<path style="fill:none;stroke:red;stroke-width:1px;stroke-linecap:butt;stroke-linejoin:miter;stroke-opacity:1" d="M 369.195,208.902 371.463,216.463 z" id="boundary" inkscape:connector-curvature="0" />
	<path style="fill:none;stroke:red;stroke-width:1px;stroke-linecap:butt;stroke-linejoin:miter;stroke-opacity:1" d="M 376,222.512 371.463,216.463 z" id="boundary" inkscape:connector-curvature="0" />
	<path style="fill:none;stroke:red;stroke-width:1px;stroke-linecap:butt;stroke-linejoin:miter;stroke-opacity:1" d="M 109.098,233.854 105.317,223.268 z" id="boundary" inkscape:connector-curvature="0" />
	<path style="fill:none;stroke:red;stroke-width:1px;stroke-linecap:butt;stroke-linejoin:miter;stroke-opacity:1" d="M 113.634,239.902 109.098,233.854 z" id="boundary" inkscape:connector-curvature="0" />
	<path style="fill:none;stroke:red;stroke-width:1px;stroke-linecap:butt;stroke-linejoin:miter;stroke-opacity:1" d="M 121.195,242.171 113.634,239.902 z" id="boundary" inkscape:connector-curvature="0" />
	<path style="fill:none;stroke:red;stroke-width:1px;stroke-linecap:butt;stroke-linejoin:miter;stroke-opacity:1" d="M 121.195,242.171 127.244,247.463 z" id="boundary" inkscape:connector-curvature="0" />
	<path style="fill:none;stroke:red;stroke-width:1px;stroke-linecap:butt;stroke-linejoin:miter;stroke-opacity:1" d="M 127.244,247.463 133.293,252 z" id="boundary" inkscape:connector-curvature="0" />
	<path style="fill:none;stroke:red;stroke-width:1px;stroke-linecap:butt;stroke-linejoin:miter;stroke-opacity:1" d="M 137.829,258.049 133.293,252 z" id="boundary" inkscape:connector-curvature="0" />
	<path style="fill:none;stroke:red;stroke-width:1px;stroke-linecap:butt;stroke-linejoin:miter;stroke-opacity:1" d="M 142.366,264.098 137.829,258.049 z" id="boundary" inkscape:connector-curvature="0" />
	<path style="fill:none;stroke:red;stroke-width:1px;stroke-linecap:butt;stroke-linejoin:miter;stroke-opacity:1" d="M 198.317,289.805 190.756,288.293 z" id="boundary" inkscape:connector-curvature="0" />
	<path style="fill:none;stroke:red;stroke-width:1px;stroke-linecap:butt;stroke-linejoin:miter;stroke-opacity:1" d="M 149.171,267.878 156.732,270.902 z" id="boundary" inkscape:connector-curvature="0" />
	<path style="fill:none;stroke:red;stroke-width:1px;stroke-linecap:butt;stroke-linejoin:miter;stroke-opacity:1" d="M 149.171,267.878 142.366,264.098 z" id="boundary" inkscape:connector-curvature="0" />
	<path style="fill:none;stroke:red;stroke-width:1px;stroke-linecap:butt;stroke-linejoin:miter;stroke-opacity:1" d="M 156.732,270.902 162.78,275.439 z" id="boundary" inkscape:connector-curvature="0" />
	<path style="fill:none;stroke:red;stroke-width:1px;stroke-linecap:butt;stroke-linejoin:miter;stroke-opacity:1" d="M 162.78,275.439 168.829,279.976 z" id="boundary" inkscape:connector-curvature="0" />
	<path style="fill:none;stroke:red;stroke-width:1px;stroke-linecap:butt;stroke-linejoin:miter;stroke-opacity:1" d="M 168.829,279.976 175.634,283.756 z" id="boundary" inkscape:connector-curvature="0" />
	<path style="fill:none;stroke:red;stroke-width:1px;stroke-linecap:butt;stroke-linejoin:miter;stroke-opacity:1" d="M 175.634,283.756 183.195,286.024 z" id="boundary" inkscape:connector-curvature="0" />
	<path style="fill:none;stroke:red;stroke-width:1px;stroke-linecap:butt;stroke-linejoin:miter;stroke-opacity:1" d="M 190.756,288.293 183.195,286.024 z" id="boundary" inkscape:connector-curvature="0" />
	<path style="fill:none;stroke:red;stroke-width:1px;stroke-linecap:butt;stroke-linejoin:miter;stroke-opacity:1" d="M 198.317,289.805 205.878,290.561 z" id="boundary" inkscape:connector-curvature="0" />
	<path style="fill:none;stroke:red;stroke-width:1px;stroke-linecap:butt;stroke-linejoin:miter;stroke-opacity:1" d="M 220.244,297.366 213.439,293.585 z" id="boundary" inkscape:connector-curvature="0" />
	<path style="fill:none;stroke:red;stroke-width:1px;stroke-linecap:butt;stroke-linejoin:miter;stroke-opacity:1" d="M 213.439,293.585 205.878,290.561 z" id="boundary" inkscape:connector-curvature="0" />
	<path style="fill:none;stroke:red;stroke-width:1px;stroke-linecap:butt;stroke-linejoin:miter;stroke-opacity:1" d="M 226.293,301.902 220.244,297.366 z" id="boundary" inkscape:connector-curvature="0" />
	<path style="fill:none;stroke:red;stroke-width:1px;stroke-linecap:butt;stroke-linejoin:miter;stroke-opacity:1" d="M 226.293,301.902 233.854,301.902 z" id="boundary" inkscape:connector-curvature="0" />
	<path style="fill:none;stroke:red;stroke-width:1px;stroke-linecap:butt;stroke-linejoin:miter;stroke-opacity:1" d="M 241.415,302.659 233.854,301.902 z" id="boundary" inkscape:connector-curvature="0" />
	<path style="fill:none;stroke:red;stroke-width:1px;stroke-linecap:butt;stroke-linejoin:miter;stroke-opacity:1" d="M 248.976,304.927 256.537,304.171 z" id="boundary" inkscape:connector-curvature="0" />
	<path style="fill:none;stroke:red;stroke-width:1px;stroke-linecap:butt;stroke-linejoin:miter;stroke-opacity:1" d="M 248.976,304.927 241.415,302.659 z" id="boundary" inkscape:connector-curvature="0" />
	<path style="fill:none;stroke:red;stroke-width:1px;stroke-linecap:butt;stroke-linejoin:miter;stroke-opacity:1" d="M 256.537,304.171 264.098,304.171 z" id="boundary" inkscape:connector-curvature="0" />
	<path style="fill:none;stroke:red;stroke-width:1px;stroke-linecap:butt;stroke-linejoin:miter;stroke-opacity:1" d="M 271.659,307.195 264.098,304.171 z" id="boundary" inkscape:connector-curvature="0" />
	<path style="fill:none;stroke:red;stroke-width:1px;stroke-linecap:butt;stroke-linejoin:miter;stroke-opacity:1" d="M 279.22,305.683 271.659,307.195 z" id="boundary" inkscape:connector-curvature="0" />
	<path style="fill:none;stroke:red;stroke-width:1px;stroke-linecap:butt;stroke-linejoin:miter;stroke-opacity:1" d="M 301.902,306.439 294.341,304.927 z" id="boundary" inkscape:connector-curvature="0" />
	<path style="fill:none;stroke:red;stroke-width:1px;stroke-linecap:butt;stroke-linejoin:miter;stroke-opacity:1" d="M 317.024,301.902 309.463,306.439 z" id="boundary" inkscape:connector-curvature="0" />
	<path style="fill:none;stroke:red;stroke-width:1px;stroke-linecap:butt;stroke-linejoin:miter;stroke-opacity:1" d="M 332.902,311.732 325.341,310.976 z" id="boundary" inkscape:connector-curvature="0" />
	<path style="fill:none;stroke:red;stroke-width:1px;stroke-linecap:butt;stroke-linejoin:miter;stroke-opacity:1" d="M 286.78,305.683 279.22,305.683 z" id="boundary" inkscape:connector-curvature="0" />
	<path style="fill:none;stroke:red;stroke-width:1px;stroke-linecap:butt;stroke-linejoin:miter;stroke-opacity:1" d="M 317.024,301.902 317.78,309.463 z" id="boundary" inkscape:connector-curvature="0" />
	<path style="fill:none;stroke:red;stroke-width:1px;stroke-linecap:butt;stroke-linejoin:miter;stroke-opacity:1" d="M 286.78,305.683 294.341,304.927 z" id="boundary" inkscape:connector-curvature="0" />
	<path style="fill:none;stroke:red;stroke-width:1px;stroke-linecap:butt;stroke-linejoin:miter;stroke-opacity:1" d="M 317.78,309.463 309.463,306.439 z" id="boundary" inkscape:connector-curvature="0" />
	<path style="fill:none;stroke:red;stroke-width:1px;stroke-linecap:butt;stroke-linejoin:miter;stroke-opacity:1" d="M 309.463,306.439 301.902,306.439 z" id="boundary" inkscape:connector-curvature="0" />
	<path style="fill:none;stroke:red;stroke-width:1px;stroke-linecap:butt;stroke-linejoin:miter;stroke-opacity:1" d="M 317.78,309.463 325.341,310.976 z" id="boundary" inkscape:connector-curvature="0" />
	<path style="fill:none;stroke:red;stroke-width:1px;stroke-linecap:butt;stroke-linejoin:miter;stroke-opacity:1" d="M 383.561,236.122 386.585,243.683 z" id="boundary" inkscape:connector-curvature="0" />
	<path style="fill:none;stroke:red;stroke-width:1px;stroke-linecap:butt;stroke-linejoin:miter;stroke-opacity:1" d="M 383.561,236.122 379.024,230.073 z" id="boundary" inkscape:connector-curvature="0" />
	<path style="fill:none;stroke:red;stroke-width:1px;stroke-linecap:butt;stroke-linejoin:miter;stroke-opacity:1" d="M 386.585,243.683 391.878,249.732 z" id="boundary" inkscape:connector-curvature="0" />
	<path style="fill:none;stroke:red;stroke-width:1px;stroke-linecap:butt;stroke-linejoin:miter;stroke-opacity:1" d="M 391.878,249.732 395.659,256.537 z" id="boundary" inkscape:connector-curvature="0" />
	<path style="fill:none;stroke:red;stroke-width:1px;stroke-linecap:butt;stroke-linejoin:miter;stroke-opacity:1" d="M 361.634,318.537 354.073,318.537 z" id="boundary" inkscape:connector-curvature="0" />
	<path style="fill:none;stroke:red;stroke-width:1px;stroke-linecap:butt;stroke-linejoin:miter;stroke-opacity:1" d="M 340.463,313.244 332.902,311.732 z" id="boundary" inkscape:connector-curvature="0" />
	<path style="fill:none;stroke:red;stroke-width:1px;stroke-linecap:butt;stroke-linejoin:miter;stroke-opacity:1" d="M 340.463,313.244 346.512,317.78 z" id="boundary" inkscape:connector-curvature="0" />
	<path style="fill:none;stroke:red;stroke-width:1px;stroke-linecap:butt;stroke-linejoin:miter;stroke-opacity:1" d="M 354.073,318.537 346.512,317.78 z" id="boundary" inkscape:connector-curvature="0" />
	<path style="fill:none;stroke:red;stroke-width:1px;stroke-linecap:butt;stroke-linejoin:miter;stroke-opacity:1" d="M 361.634,318.537 368.439,322.317 z" id="boundary" inkscape:connector-curvature="0" />
	<path style="fill:none;stroke:red;stroke-width:1px;stroke-linecap:butt;stroke-linejoin:miter;stroke-opacity:1" d="M 379.78,331.39 372.22,329.122 z" id="boundary" inkscape:connector-curvature="0" />
	<path style="fill:none;stroke:red;stroke-width:1px;stroke-linecap:butt;stroke-linejoin:miter;stroke-opacity:1" d="M 372.22,329.122 368.439,322.317 z" id="boundary" inkscape:connector-curvature="0" />
	<path style="fill:none;stroke:red;stroke-width:1px;stroke-linecap:butt;stroke-linejoin:miter;stroke-opacity:1" d="M 395.659,256.537 400.195,262.585 z" id="boundary" inkscape:connector-curvature="0" />
	<path style="fill:none;stroke:red;stroke-width:1px;stroke-linecap:butt;stroke-linejoin:miter;stroke-opacity:1" d="M 404.732,268.634 400.195,262.585 z" id="boundary" inkscape:connector-curvature="0" />
	<path style="fill:none;stroke:red;stroke-width:1px;stroke-linecap:butt;stroke-linejoin:miter;stroke-opacity:1" d="M 408.512,275.439 404.732,268.634 z" id="boundary" inkscape:connector-curvature="0" />
	<path style="fill:none;stroke:red;stroke-width:1px;stroke-linecap:butt;stroke-linejoin:miter;stroke-opacity:1" d="M 408.512,275.439 414.561,280.732 z" id="boundary" inkscape:connector-curvature="0" />
	<path style="fill:none;stroke:red;stroke-width:1px;stroke-linecap:butt;stroke-linejoin:miter;stroke-opacity:1" d="M 422.122,283 414.561,280.732 z" id="boundary" inkscape:connector-curvature="0" />
	<path style="fill:none;stroke:red;stroke-width:1px;stroke-linecap:butt;stroke-linejoin:miter;stroke-opacity:1" d="M 422.122,283 425.902,289.805 z" id="boundary" inkscape:connector-curvature="0" />
	<path style="fill:none;stroke:red;stroke-width:1px;stroke-linecap:butt;stroke-linejoin:miter;stroke-opacity:1" d="M 425.902,289.805 431.195,295.854 z" id="boundary" inkscape:connector-curvature="0" />
	<path style="fill:none;stroke:red;stroke-width:1px;stroke-linecap:butt;stroke-linejoin:miter;stroke-opacity:1" d="M 437.244,301.146 431.195,295.854 z" id="boundary" inkscape:connector-curvature="0" />
	<path style="fill:none;stroke:red;stroke-width:1px;stroke-linecap:butt;stroke-linejoin:miter;stroke-opacity:1" d="M 473.537,329.122 467.488,324.585 z" id="boundary" inkscape:connector-curvature="0" />
	<path style="fill:none;stroke:red;stroke-width:1px;stroke-linecap:butt;stroke-linejoin:miter;stroke-opacity:1" d="M 437.244,301.146 444.049,304.927 z" id="boundary" inkscape:connector-curvature="0" />
	<path style="fill:none;stroke:red;stroke-width:1px;stroke-linecap:butt;stroke-linejoin:miter;stroke-opacity:1" d="M 448.585,310.976 455.39,314.756 z" id="boundary" inkscape:connector-curvature="0" />
	<path style="fill:none;stroke:red;stroke-width:1px;stroke-linecap:butt;stroke-linejoin:miter;stroke-opacity:1" d="M 448.585,310.976 444.049,304.927 z" id="boundary" inkscape:connector-curvature="0" />
	<path style="fill:none;stroke:red;stroke-width:1px;stroke-linecap:butt;stroke-linejoin:miter;stroke-opacity:1" d="M 455.39,314.756 461.439,319.293 z" id="boundary" inkscape:connector-curvature="0" />
	<path style="fill:none;stroke:red;stroke-width:1px;stroke-linecap:butt;stroke-linejoin:miter;stroke-opacity:1" d="M 467.488,324.585 461.439,319.293 z" id="boundary" inkscape:connector-curvature="0" />
	<path style="fill:none;stroke:red;stroke-width:1px;stroke-linecap:butt;stroke-linejoin:miter;stroke-opacity:1" d="M 385.073,337.439 391.122,341.976 z" id="boundary" inkscape:connector-curvature="0" />
	<path style="fill:none;stroke:red;stroke-width:1px;stroke-linecap:butt;stroke-linejoin:miter;stroke-opacity:1" d="M 379.78,331.39 385.073,337.439 z" id="boundary" inkscape:connector-curvature="0" />
	<path style="fill:none;stroke:red;stroke-width:1px;stroke-linecap:butt;stroke-linejoin:miter;stroke-opacity:1" d="M 391.122,341.976 397.171,347.268 z" id="boundary" inkscape:connector-curvature="0" />
	<path style="fill:none;stroke:red;stroke-width:1px;stroke-linecap:butt;stroke-linejoin:miter;stroke-opacity:1" d="M 403.22,351.805 397.171,347.268 z" id="boundary" inkscape:connector-curvature="0" />
	<path style="fill:none;stroke:red;stroke-width:1px;stroke-linecap:butt;stroke-linejoin:miter;stroke-opacity:1" d="M 409.268,356.341 403.22,351.805 z" id="boundary" inkscape:connector-curvature="0" />
	<path style="fill:none;stroke:red;stroke-width:1px;stroke-linecap:butt;stroke-linejoin:miter;stroke-opacity:1" d="M 409.268,356.341 416.829,358.61 z" id="boundary" inkscape:connector-curvature="0" />
	<path style="fill:none;stroke:red;stroke-width:1px;stroke-linecap:butt;stroke-linejoin:miter;stroke-opacity:1" d="M 422.122,364.659 416.829,358.61 z" id="boundary" inkscape:connector-curvature="0" />
	<path style="fill:none;stroke:red;stroke-width:1px;stroke-linecap:butt;stroke-linejoin:miter;stroke-opacity:1" d="M 432.707,375.244 425.146,372.22 z" id="boundary" inkscape:connector-curvature="0" />
	<path style="fill:none;stroke:red;stroke-width:1px;stroke-linecap:butt;stroke-linejoin:miter;stroke-opacity:1" d="M 422.122,364.659 425.146,372.22 z" id="boundary" inkscape:connector-curvature="0" />
	<path style="fill:none;stroke:red;stroke-width:1px;stroke-linecap:butt;stroke-linejoin:miter;stroke-opacity:1" d="M 438,381.293 432.707,375.244 z" id="boundary" inkscape:connector-curvature="0" />
	<path style="fill:none;stroke:red;stroke-width:1px;stroke-linecap:butt;stroke-linejoin:miter;stroke-opacity:1" d="M 438,381.293 444.049,385.829 z" id="boundary" inkscape:connector-curvature="0" />
	<path style="fill:none;stroke:red;stroke-width:1px;stroke-linecap:butt;stroke-linejoin:miter;stroke-opacity:1" d="M 473.537,329.122 479.585,333.659 z" id="boundary" inkscape:connector-curvature="0" />
	<path style="fill:none;stroke:red;stroke-width:1px;stroke-linecap:butt;stroke-linejoin:miter;stroke-opacity:1" d="M 444.049,385.829 450.098,390.366 z" id="boundary" inkscape:connector-curvature="0" />
	<path style="fill:none;stroke:red;stroke-width:1px;stroke-linecap:butt;stroke-linejoin:miter;stroke-opacity:1" d="M 456.902,394.146 450.098,390.366 z" id="boundary" inkscape:connector-curvature="0" />
	<path style="fill:none;stroke:red;stroke-width:1px;stroke-linecap:butt;stroke-linejoin:miter;stroke-opacity:1" d="M 461.439,400.195 456.902,394.146 z" id="boundary" inkscape:connector-curvature="0" />
	<path style="fill:none;stroke:red;stroke-width:1px;stroke-linecap:butt;stroke-linejoin:miter;stroke-opacity:1" d="M 461.439,400.195 465.22,407 z" id="boundary" inkscape:connector-curvature="0" />
	<path style="fill:none;stroke:red;stroke-width:1px;stroke-linecap:butt;stroke-linejoin:miter;stroke-opacity:1" d="M 471.268,411.537 478.073,415.317 z" id="boundary" inkscape:connector-curvature="0" />
	<path style="fill:none;stroke:red;stroke-width:1px;stroke-linecap:butt;stroke-linejoin:miter;stroke-opacity:1" d="M 484.878,419.098 478.073,415.317 z" id="boundary" inkscape:connector-curvature="0" />
	<path style="fill:none;stroke:red;stroke-width:1px;stroke-linecap:butt;stroke-linejoin:miter;stroke-opacity:1" d="M 471.268,411.537 465.22,407 z" id="boundary" inkscape:connector-curvature="0" />
	<path style="fill:none;stroke:red;stroke-width:1px;stroke-linecap:butt;stroke-linejoin:miter;stroke-opacity:1" d="M 484.878,419.098 488.659,425.902 z" id="boundary" inkscape:connector-curvature="0" />
	<path style="fill:none;stroke:red;stroke-width:1px;stroke-linecap:butt;stroke-linejoin:miter;stroke-opacity:1" d="M 479.585,333.659 487.146,336.683 z" id="boundary" inkscape:connector-curvature="0" />
	<path style="fill:none;stroke:red;stroke-width:1px;stroke-linecap:butt;stroke-linejoin:miter;stroke-opacity:1" d="M 491.683,342.732 499.244,345.756 z" id="boundary" inkscape:connector-curvature="0" />
	<path style="fill:none;stroke:red;stroke-width:1px;stroke-linecap:butt;stroke-linejoin:miter;stroke-opacity:1" d="M 491.683,342.732 487.146,336.683 z" id="boundary" inkscape:connector-curvature="0" />
	<path style="fill:none;stroke:red;stroke-width:1px;stroke-linecap:butt;stroke-linejoin:miter;stroke-opacity:1" d="M 505.293,350.293 499.244,345.756 z" id="boundary" inkscape:connector-curvature="0" />
	<path style="fill:none;stroke:red;stroke-width:1px;stroke-linecap:butt;stroke-linejoin:miter;stroke-opacity:1" d="M 531,367.683 524.195,363.902 z" id="boundary" inkscape:connector-curvature="0" />
	<path style="fill:none;stroke:red;stroke-width:1px;stroke-linecap:butt;stroke-linejoin:miter;stroke-opacity:1" d="M 505.293,350.293 511.341,355.585 z" id="boundary" inkscape:connector-curvature="0" />
	<path style="fill:none;stroke:red;stroke-width:1px;stroke-linecap:butt;stroke-linejoin:miter;stroke-opacity:1" d="M 511.341,355.585 518.146,359.366 z" id="boundary" inkscape:connector-curvature="0" />
	<path style="fill:none;stroke:red;stroke-width:1px;stroke-linecap:butt;stroke-linejoin:miter;stroke-opacity:1" d="M 524.195,363.902 518.146,359.366 z" id="boundary" inkscape:connector-curvature="0" />
	<path style="fill:none;stroke:red;stroke-width:1px;stroke-linecap:butt;stroke-linejoin:miter;stroke-opacity:1" d="M 531,367.683 537.049,372.22 z" id="boundary" inkscape:connector-curvature="0" />
	<path style="fill:none;stroke:red;stroke-width:1px;stroke-linecap:butt;stroke-linejoin:miter;stroke-opacity:1" d="M 537.049,372.22 543.098,376.756 z" id="boundary" inkscape:connector-curvature="0" />
	<path style="fill:none;stroke:red;stroke-width:1px;stroke-linecap:butt;stroke-linejoin:miter;stroke-opacity:1" d="M 543.098,376.756 549.902,380.537 z" id="boundary" inkscape:connector-curvature="0" />
	<path style="fill:none;stroke:red;stroke-width:1px;stroke-linecap:butt;stroke-linejoin:miter;stroke-opacity:1" d="M 556.707,384.317 549.902,380.537 z" id="boundary" inkscape:connector-curvature="0" />
	<path style="fill:none;stroke:red;stroke-width:1px;stroke-linecap:butt;stroke-linejoin:miter;stroke-opacity:1" d="M 562,390.366 556.707,384.317 z" id="boundary" inkscape:connector-curvature="0" />
	<path style="fill:none;stroke:red;stroke-width:1px;stroke-linecap:butt;stroke-linejoin:miter;stroke-opacity:1" d="M 562,390.366 568.805,394.146 z" id="boundary" inkscape:connector-curvature="0" />
	<path style="fill:none;stroke:red;stroke-width:1px;stroke-linecap:butt;stroke-linejoin:miter;stroke-opacity:1" d="M 574.854,398.683 581.659,402.463 z" id="boundary" inkscape:connector-curvature="0" />
	<path style="fill:none;stroke:red;stroke-width:1px;stroke-linecap:butt;stroke-linejoin:miter;stroke-opacity:1" d="M 574.854,398.683 568.805,394.146 z" id="boundary" inkscape:connector-curvature="0" />
	<path style="fill:none;stroke:red;stroke-width:1px;stroke-linecap:butt;stroke-linejoin:miter;stroke-opacity:1" d="M 587.707,407 581.659,402.463 z" id="boundary" inkscape:connector-curvature="0" />
	<path style="fill:none;stroke:red;stroke-width:1px;stroke-linecap:butt;stroke-linejoin:miter;stroke-opacity:1" d="M 587.707,407 593.756,411.537 z" id="boundary" inkscape:connector-curvature="0" />
	<path style="fill:none;stroke:red;stroke-width:1px;stroke-linecap:butt;stroke-linejoin:miter;stroke-opacity:1" d="M 593.756,411.537 599.805,416.073 z" id="boundary" inkscape:connector-curvature="0" />
	<path style="fill:none;stroke:red;stroke-width:1px;stroke-linecap:butt;stroke-linejoin:miter;stroke-opacity:1" d="M 605.854,421.366 599.805,416.073 z" id="boundary" inkscape:connector-curvature="0" />
	<path style="fill:none;stroke:red;stroke-width:1px;stroke-linecap:butt;stroke-linejoin:miter;stroke-opacity:1" d="M 612.659,425.146 605.854,421.366 z" id="boundary" inkscape:connector-curvature="0" />
	<path style="fill:none;stroke:red;stroke-width:1px;stroke-linecap:butt;stroke-linejoin:miter;stroke-opacity:1" d="M 494.707,430.439 500,436.488 z" id="boundary" inkscape:connector-curvature="0" />
	<path style="fill:none;stroke:red;stroke-width:1px;stroke-linecap:butt;stroke-linejoin:miter;stroke-opacity:1" d="M 506.805,440.268 500,436.488 z" id="boundary" inkscape:connector-curvature="0" />
	<path style="fill:none;stroke:red;stroke-width:1px;stroke-linecap:butt;stroke-linejoin:miter;stroke-opacity:1" d="M 518.902,449.341 512.854,444.805 z" id="boundary" inkscape:connector-curvature="0" />
	<path style="fill:none;stroke:red;stroke-width:1px;stroke-linecap:butt;stroke-linejoin:miter;stroke-opacity:1" d="M 518.902,449.341 525.707,453.122 z" id="boundary" inkscape:connector-curvature="0" />
	<path style="fill:none;stroke:red;stroke-width:1px;stroke-linecap:butt;stroke-linejoin:miter;stroke-opacity:1" d="M 512.854,444.805 506.805,440.268 z" id="boundary" inkscape:connector-curvature="0" />
	<path style="fill:none;stroke:red;stroke-width:1px;stroke-linecap:butt;stroke-linejoin:miter;stroke-opacity:1" d="M 494.707,430.439 488.659,425.902 z" id="boundary" inkscape:connector-curvature="0" />
	<path style="fill:none;stroke:red;stroke-width:1px;stroke-linecap:butt;stroke-linejoin:miter;stroke-opacity:1" d="M 531,459.171 525.707,453.122 z" id="boundary" inkscape:connector-curvature="0" />
	<path style="fill:none;stroke:red;stroke-width:1px;stroke-linecap:butt;stroke-linejoin:miter;stroke-opacity:1" d="M 543.854,467.488 537.049,463.707 z" id="boundary" inkscape:connector-curvature="0" />
	<path style="fill:none;stroke:red;stroke-width:1px;stroke-linecap:butt;stroke-linejoin:miter;stroke-opacity:1" d="M 537.049,463.707 531,459.171 z" id="boundary" inkscape:connector-curvature="0" />
	<path style="fill:none;stroke:red;stroke-width:1px;stroke-linecap:butt;stroke-linejoin:miter;stroke-opacity:1" d="M 543.854,467.488 548.39,473.537 z" id="boundary" inkscape:connector-curvature="0" />
	<path style="fill:none;stroke:red;stroke-width:1px;stroke-linecap:butt;stroke-linejoin:miter;stroke-opacity:1" d="M 554.439,478.073 560.488,482.61 z" id="boundary" inkscape:connector-curvature="0" />
	<path style="fill:none;stroke:red;stroke-width:1px;stroke-linecap:butt;stroke-linejoin:miter;stroke-opacity:1" d="M 554.439,478.073 548.39,473.537 z" id="boundary" inkscape:connector-curvature="0" />
	<path style="fill:none;stroke:red;stroke-width:1px;stroke-linecap:butt;stroke-linejoin:miter;stroke-opacity:1" d="M 566.537,487.902 560.488,482.61 z" id="boundary" inkscape:connector-curvature="0" />
	<path style="fill:none;stroke:red;stroke-width:1px;stroke-linecap:butt;stroke-linejoin:miter;stroke-opacity:1" d="M 566.537,487.902 571.073,493.951 z" id="boundary" inkscape:connector-curvature="0" />
	<path style="fill:none;stroke:red;stroke-width:1px;stroke-linecap:butt;stroke-linejoin:miter;stroke-opacity:1" d="M 571.073,493.951 577.878,497.732 z" id="boundary" inkscape:connector-curvature="0" />
	<path style="fill:none;stroke:red;stroke-width:1px;stroke-linecap:butt;stroke-linejoin:miter;stroke-opacity:1" d="M 612.659,425.146 620.22,427.415 z" id="boundary" inkscape:connector-curvature="0" />
	<path style="fill:none;stroke:red;stroke-width:1px;stroke-linecap:butt;stroke-linejoin:miter;stroke-opacity:1" d="M 620.22,427.415 626.268,431.951 z" id="boundary" inkscape:connector-curvature="0" />
	<path style="fill:none;stroke:red;stroke-width:1px;stroke-linecap:butt;stroke-linejoin:miter;stroke-opacity:1" d="M 583.171,503.78 577.878,497.732 z" id="boundary" inkscape:connector-curvature="0" />
	<path style="fill:none;stroke:red;stroke-width:1px;stroke-linecap:butt;stroke-linejoin:miter;stroke-opacity:1" d="M 589.976,507.561 583.171,503.78 z" id="boundary" inkscape:connector-curvature="0" />
	<path style="fill:none;stroke:red;stroke-width:1px;stroke-linecap:butt;stroke-linejoin:miter;stroke-opacity:1" d="M 589.976,507.561 596.024,512.098 z" id="boundary" inkscape:connector-curvature="0" />
	<path style="fill:none;stroke:red;stroke-width:1px;stroke-linecap:butt;stroke-linejoin:miter;stroke-opacity:1" d="M 596.024,512.098 600.561,518.146 z" id="boundary" inkscape:connector-curvature="0" />
	<path style="fill:none;stroke:red;stroke-width:1px;stroke-linecap:butt;stroke-linejoin:miter;stroke-opacity:1" d="M 600.561,518.146 606.61,522.683 z" id="boundary" inkscape:connector-curvature="0" />
	<path style="fill:none;stroke:red;stroke-width:1px;stroke-linecap:butt;stroke-linejoin:miter;stroke-opacity:1" d="M 613.415,526.463 606.61,522.683 z" id="boundary" inkscape:connector-curvature="0" />
	<path style="fill:none;stroke:red;stroke-width:1px;stroke-linecap:butt;stroke-linejoin:miter;stroke-opacity:1" d="M 613.415,526.463 619.463,531 z" id="boundary" inkscape:connector-curvature="0" />
	<path style="fill:none;stroke:red;stroke-width:1px;stroke-linecap:butt;stroke-linejoin:miter;stroke-opacity:1" d="M 625.512,535.537 619.463,531 z" id="boundary" inkscape:connector-curvature="0" />
	<path style="fill:none;stroke:red;stroke-width:1px;stroke-linecap:butt;stroke-linejoin:miter;stroke-opacity:1" d="M 626.268,431.951 632.317,436.488 z" id="boundary" inkscape:connector-curvature="0" />
	<path style="fill:none;stroke:red;stroke-width:1px;stroke-linecap:butt;stroke-linejoin:miter;stroke-opacity:1" d="M 639.122,440.268 632.317,436.488 z" id="boundary" inkscape:connector-curvature="0" />
	<path style="fill:none;stroke:red;stroke-width:1px;stroke-linecap:butt;stroke-linejoin:miter;stroke-opacity:1" d="M 645.171,444.805 639.122,440.268 z" id="boundary" inkscape:connector-curvature="0" />
	<path style="fill:none;stroke:red;stroke-width:1px;stroke-linecap:butt;stroke-linejoin:miter;stroke-opacity:1" d="M 658.78,452.366 651.22,449.341 z" id="boundary" inkscape:connector-curvature="0" />
	<path style="fill:none;stroke:red;stroke-width:1px;stroke-linecap:butt;stroke-linejoin:miter;stroke-opacity:1" d="M 664.829,456.902 658.78,452.366 z" id="boundary" inkscape:connector-curvature="0" />
	<path style="fill:none;stroke:red;stroke-width:1px;stroke-linecap:butt;stroke-linejoin:miter;stroke-opacity:1" d="M 651.22,449.341 645.171,444.805 z" id="boundary" inkscape:connector-curvature="0" />
	<path style="fill:none;stroke:red;stroke-width:1px;stroke-linecap:butt;stroke-linejoin:miter;stroke-opacity:1" d="M 671.634,460.683 664.829,456.902 z" id="boundary" inkscape:connector-curvature="0" />
	<path style="fill:none;stroke:red;stroke-width:1px;stroke-linecap:butt;stroke-linejoin:miter;stroke-opacity:1" d="M 677.683,465.22 671.634,460.683 z" id="boundary" inkscape:connector-curvature="0" />
	<path style="fill:none;stroke:red;stroke-width:1px;stroke-linecap:butt;stroke-linejoin:miter;stroke-opacity:1" d="M 677.683,465.22 684.488,469 z" id="boundary" inkscape:connector-curvature="0" />
	<path style="fill:none;stroke:red;stroke-width:1px;stroke-linecap:butt;stroke-linejoin:miter;stroke-opacity:1" d="M 696.585,478.829 690.537,474.293 z" id="boundary" inkscape:connector-curvature="0" />
	<path style="fill:none;stroke:red;stroke-width:1px;stroke-linecap:butt;stroke-linejoin:miter;stroke-opacity:1" d="M 684.488,469 690.537,474.293 z" id="boundary" inkscape:connector-curvature="0" />
	<path style="fill:none;stroke:red;stroke-width:1px;stroke-linecap:butt;stroke-linejoin:miter;stroke-opacity:1" d="M 696.585,478.829 703.39,482.61 z" id="boundary" inkscape:connector-curvature="0" />
	<path style="fill:none;stroke:red;stroke-width:1px;stroke-linecap:butt;stroke-linejoin:miter;stroke-opacity:1" d="M 708.683,488.659 703.39,482.61 z" id="boundary" inkscape:connector-curvature="0" />
	<path style="fill:none;stroke:red;stroke-width:1px;stroke-linecap:butt;stroke-linejoin:miter;stroke-opacity:1" d="M 625.512,535.537 631.561,540.829 z" id="boundary" inkscape:connector-curvature="0" />
	<path style="fill:none;stroke:red;stroke-width:1px;stroke-linecap:butt;stroke-linejoin:miter;stroke-opacity:1" d="M 638.366,544.61 631.561,540.829 z" id="boundary" inkscape:connector-curvature="0" />
	<path style="fill:none;stroke:red;stroke-width:1px;stroke-linecap:butt;stroke-linejoin:miter;stroke-opacity:1" d="M 642.902,550.659 638.366,544.61 z" id="boundary" inkscape:connector-curvature="0" />
	<path style="fill:none;stroke:red;stroke-width:1px;stroke-linecap:butt;stroke-linejoin:miter;stroke-opacity:1" d="M 708.683,488.659 716.244,491.683 z" id="boundary" inkscape:connector-curvature="0" />
	<path style="fill:none;stroke:red;stroke-width:1px;stroke-linecap:butt;stroke-linejoin:miter;stroke-opacity:1" d="M 722.293,496.976 716.244,491.683 z" id="boundary" inkscape:connector-curvature="0" />
	<path style="fill:none;stroke:red;stroke-width:1px;stroke-linecap:butt;stroke-linejoin:miter;stroke-opacity:1" d="M 722.293,496.976 729.854,498.488 z" id="boundary" inkscape:connector-curvature="0" />
	<path style="fill:none;stroke:red;stroke-width:1px;stroke-linecap:butt;stroke-linejoin:miter;stroke-opacity:1" d="M 729.854,498.488 734.39,504.537 z" id="boundary" inkscape:connector-curvature="0" />
	<path style="fill:none;stroke:red;stroke-width:1px;stroke-linecap:butt;stroke-linejoin:miter;stroke-opacity:1" d="M 741.195,508.317 734.39,504.537 z" id="boundary" inkscape:connector-curvature="0" />
	<path style="fill:none;stroke:red;stroke-width:1px;stroke-linecap:butt;stroke-linejoin:miter;stroke-opacity:1" d="M 741.195,508.317 746.488,514.366 z" id="boundary" inkscape:connector-curvature="0" />
	<path style="fill:none;stroke:red;stroke-width:1px;stroke-linecap:butt;stroke-linejoin:miter;stroke-opacity:1" d="M 746.488,514.366 753.293,518.146 z" id="boundary" inkscape:connector-curvature="0" />
	<path style="fill:none;stroke:red;stroke-width:1px;stroke-linecap:butt;stroke-linejoin:miter;stroke-opacity:1" d="M 759.341,522.683 753.293,518.146 z" id="boundary" inkscape:connector-curvature="0" />
	<path style="fill:none;stroke:red;stroke-width:1px;stroke-linecap:butt;stroke-linejoin:miter;stroke-opacity:1" d="M 766.146,526.463 759.341,522.683 z" id="boundary" inkscape:connector-curvature="0" />
	<path style="fill:none;stroke:red;stroke-width:1px;stroke-linecap:butt;stroke-linejoin:miter;stroke-opacity:1" d="M 772.195,531.756 766.146,526.463 z" id="boundary" inkscape:connector-curvature="0" />
	<path style="fill:none;stroke:red;stroke-width:1px;stroke-linecap:butt;stroke-linejoin:miter;stroke-opacity:1" d="M 785.049,540.073 778.244,536.293 z" id="boundary" inkscape:connector-curvature="0" />
	<path style="fill:none;stroke:red;stroke-width:1px;stroke-linecap:butt;stroke-linejoin:miter;stroke-opacity:1" d="M 778.244,536.293 772.195,531.756 z" id="boundary" inkscape:connector-curvature="0" />
	<path style="fill:none;stroke:red;stroke-width:1px;stroke-linecap:butt;stroke-linejoin:miter;stroke-opacity:1" d="M 792.61,542.341 785.049,540.073 z" id="boundary" inkscape:connector-curvature="0" />
	<path style="fill:none;stroke:red;stroke-width:1px;stroke-linecap:butt;stroke-linejoin:miter;stroke-opacity:1" d="M 798.659,547.634 792.61,542.341 z" id="boundary" inkscape:connector-curvature="0" />
	<path style="fill:none;stroke:red;stroke-width:1px;stroke-linecap:butt;stroke-linejoin:miter;stroke-opacity:1" d="M 646.683,557.463 642.902,550.659 z" id="boundary" inkscape:connector-curvature="0" />
	<path style="fill:none;stroke:red;stroke-width:1px;stroke-linecap:butt;stroke-linejoin:miter;stroke-opacity:1" d="M 652.732,562 646.683,557.463 z" id="boundary" inkscape:connector-curvature="0" />
	<path style="fill:none;stroke:red;stroke-width:1px;stroke-linecap:butt;stroke-linejoin:miter;stroke-opacity:1" d="M 652.732,562 660.293,563.512 z" id="boundary" inkscape:connector-curvature="0" />
	<path style="fill:none;stroke:red;stroke-width:1px;stroke-linecap:butt;stroke-linejoin:miter;stroke-opacity:1" d="M 660.293,563.512 662.561,571.073 z" id="boundary" inkscape:connector-curvature="0" />
	<path style="fill:none;stroke:red;stroke-width:1px;stroke-linecap:butt;stroke-linejoin:miter;stroke-opacity:1" d="M 669.366,574.854 662.561,571.073 z" id="boundary" inkscape:connector-curvature="0" />
	<path style="fill:none;stroke:red;stroke-width:1px;stroke-linecap:butt;stroke-linejoin:miter;stroke-opacity:1" d="M 675.415,579.39 669.366,574.854 z" id="boundary" inkscape:connector-curvature="0" />
	<path style="fill:none;stroke:red;stroke-width:1px;stroke-linecap:butt;stroke-linejoin:miter;stroke-opacity:1" d="M 682.976,581.659 689.024,586.951 z" id="boundary" inkscape:connector-curvature="0" />
	<path style="fill:none;stroke:red;stroke-width:1px;stroke-linecap:butt;stroke-linejoin:miter;stroke-opacity:1" d="M 675.415,579.39 682.976,581.659 z" id="boundary" inkscape:connector-curvature="0" />
	<path style="fill:none;stroke:red;stroke-width:1px;stroke-linecap:butt;stroke-linejoin:miter;stroke-opacity:1" d="M 689.024,586.951 692.805,593.756 z" id="boundary" inkscape:connector-curvature="0" />
	<path style="fill:none;stroke:red;stroke-width:1px;stroke-linecap:butt;stroke-linejoin:miter;stroke-opacity:1" d="M 698.098,599.805 692.805,593.756 z" id="boundary" inkscape:connector-curvature="0" />
	<path style="fill:none;stroke:red;stroke-width:1px;stroke-linecap:butt;stroke-linejoin:miter;stroke-opacity:1" d="M 698.098,599.805 704.146,604.341 z" id="boundary" inkscape:connector-curvature="0" />
	<path style="fill:none;stroke:red;stroke-width:1px;stroke-linecap:butt;stroke-linejoin:miter;stroke-opacity:1" d="M 704.146,604.341 710.195,609.634 z" id="boundary" inkscape:connector-curvature="0" />
	<path style="fill:none;stroke:red;stroke-width:1px;stroke-linecap:butt;stroke-linejoin:miter;stroke-opacity:1" d="M 717.756,611.902 710.195,609.634 z" id="boundary" inkscape:connector-curvature="0" />
	<path style="fill:none;stroke:red;stroke-width:1px;stroke-linecap:butt;stroke-linejoin:miter;stroke-opacity:1" d="M 798.659,547.634 804.707,552.927 z" id="boundary" inkscape:connector-curvature="0" />
	<path style="fill:none;stroke:red;stroke-width:1px;stroke-linecap:butt;stroke-linejoin:miter;stroke-opacity:1" d="M 824.366,565.024 817.561,561.244 z" id="boundary" inkscape:connector-curvature="0" />
	<path style="fill:none;stroke:red;stroke-width:1px;stroke-linecap:butt;stroke-linejoin:miter;stroke-opacity:1" d="M 817.561,561.244 811.512,556.707 z" id="boundary" inkscape:connector-curvature="0" />
	<path style="fill:none;stroke:red;stroke-width:1px;stroke-linecap:butt;stroke-linejoin:miter;stroke-opacity:1" d="M 837.976,572.585 830.415,569.561 z" id="boundary" inkscape:connector-curvature="0" />
	<path style="fill:none;stroke:red;stroke-width:1px;stroke-linecap:butt;stroke-linejoin:miter;stroke-opacity:1" d="M 843.268,578.634 837.976,572.585 z" id="boundary" inkscape:connector-curvature="0" />
	<path style="fill:none;stroke:red;stroke-width:1px;stroke-linecap:butt;stroke-linejoin:miter;stroke-opacity:1" d="M 830.415,569.561 824.366,565.024 z" id="boundary" inkscape:connector-curvature="0" />
	<path style="fill:none;stroke:red;stroke-width:1px;stroke-linecap:butt;stroke-linejoin:miter;stroke-opacity:1" d="M 811.512,556.707 804.707,552.927 z" id="boundary" inkscape:connector-curvature="0" />
	<path style="fill:none;stroke:red;stroke-width:1px;stroke-linecap:butt;stroke-linejoin:miter;stroke-opacity:1" d="M 721.537,618.707 717.756,611.902 z" id="boundary" inkscape:connector-curvature="0" />
	<path style="fill:none;stroke:red;stroke-width:1px;stroke-linecap:butt;stroke-linejoin:miter;stroke-opacity:1" d="M 721.537,618.707 727.585,623.244 z" id="boundary" inkscape:connector-curvature="0" />
	<path style="fill:none;stroke:red;stroke-width:1px;stroke-linecap:butt;stroke-linejoin:miter;stroke-opacity:1" d="M 732.878,629.293 727.585,623.244 z" id="boundary" inkscape:connector-curvature="0" />
	<path style="fill:none;stroke:red;stroke-width:1px;stroke-linecap:butt;stroke-linejoin:miter;stroke-opacity:1" d="M 739.683,633.073 747.244,635.341 z" id="boundary" inkscape:connector-curvature="0" />
	<path style="fill:none;stroke:red;stroke-width:1px;stroke-linecap:butt;stroke-linejoin:miter;stroke-opacity:1" d="M 739.683,633.073 732.878,629.293 z" id="boundary" inkscape:connector-curvature="0" />
	<path style="fill:none;stroke:red;stroke-width:1px;stroke-linecap:butt;stroke-linejoin:miter;stroke-opacity:1" d="M 751.024,642.146 757.073,647.439 z" id="boundary" inkscape:connector-curvature="0" />
	<path style="fill:none;stroke:red;stroke-width:1px;stroke-linecap:butt;stroke-linejoin:miter;stroke-opacity:1" d="M 747.244,635.341 751.024,642.146 z" id="boundary" inkscape:connector-curvature="0" />
	<path style="fill:none;stroke:red;stroke-width:1px;stroke-linecap:butt;stroke-linejoin:miter;stroke-opacity:1" d="M 763.122,652.732 757.073,647.439 z" id="boundary" inkscape:connector-curvature="0" />
	<path style="fill:none;stroke:red;stroke-width:1px;stroke-linecap:butt;stroke-linejoin:miter;stroke-opacity:1" d="M 763.122,652.732 769.927,656.512 z" id="boundary" inkscape:connector-curvature="0" />
	<path style="fill:none;stroke:red;stroke-width:1px;stroke-linecap:butt;stroke-linejoin:miter;stroke-opacity:1" d="M 780.512,667.098 776.732,660.293 z" id="boundary" inkscape:connector-curvature="0" />
	<path style="fill:none;stroke:red;stroke-width:1px;stroke-linecap:butt;stroke-linejoin:miter;stroke-opacity:1" d="M 776.732,660.293 769.927,656.512 z" id="boundary" inkscape:connector-curvature="0" />
	<path style="fill:none;stroke:red;stroke-width:1px;stroke-linecap:butt;stroke-linejoin:miter;stroke-opacity:1" d="M 780.512,667.098 787.317,670.878 z" id="boundary" inkscape:connector-curvature="0" />
	<path style="fill:none;stroke:red;stroke-width:1px;stroke-linecap:butt;stroke-linejoin:miter;stroke-opacity:1" d="M 787.317,670.878 793.366,675.415 z" id="boundary" inkscape:connector-curvature="0" />
	<path style="fill:none;stroke:red;stroke-width:1px;stroke-linecap:butt;stroke-linejoin:miter;stroke-opacity:1" d="M 803.951,686 797.902,681.463 z" id="boundary" inkscape:connector-curvature="0" />
	<path style="fill:none;stroke:red;stroke-width:1px;stroke-linecap:butt;stroke-linejoin:miter;stroke-opacity:1" d="M 793.366,675.415 797.902,681.463 z" id="boundary" inkscape:connector-curvature="0" />
	<path style="fill:none;stroke:red;stroke-width:1px;stroke-linecap:butt;stroke-linejoin:miter;stroke-opacity:1" d="M 803.951,686 810,691.293 z" id="boundary" inkscape:connector-curvature="0" />
	<path style="fill:none;stroke:red;stroke-width:1px;stroke-linecap:butt;stroke-linejoin:miter;stroke-opacity:1" d="M 816.049,695.829 822.098,700.366 z" id="boundary" inkscape:connector-curvature="0" />
	<path style="fill:none;stroke:red;stroke-width:1px;stroke-linecap:butt;stroke-linejoin:miter;stroke-opacity:1" d="M 816.049,695.829 810,691.293 z" id="boundary" inkscape:connector-curvature="0" />
	<path style="fill:none;stroke:red;stroke-width:1px;stroke-linecap:butt;stroke-linejoin:miter;stroke-opacity:1" d="M 822.098,700.366 828.146,705.659 z" id="boundary" inkscape:connector-curvature="0" />
	<path style="fill:none;stroke:red;stroke-width:1px;stroke-linecap:butt;stroke-linejoin:miter;stroke-opacity:1" d="M 834.195,710.195 839.488,716.244 z" id="boundary" inkscape:connector-curvature="0" />
	<path style="fill:none;stroke:red;stroke-width:1px;stroke-linecap:butt;stroke-linejoin:miter;stroke-opacity:1" d="M 828.146,705.659 834.195,710.195 z" id="boundary" inkscape:connector-curvature="0" />
	<path style="fill:none;stroke:red;stroke-width:1px;stroke-linecap:butt;stroke-linejoin:miter;stroke-opacity:1" d="M 839.488,716.244 845.537,720.78 z" id="boundary" inkscape:connector-curvature="0" />
	<path style="fill:none;stroke:red;stroke-width:1px;stroke-linecap:butt;stroke-linejoin:miter;stroke-opacity:1" d="M 843.268,578.634 850.073,582.415 z" id="boundary" inkscape:connector-curvature="0" />
	<path style="fill:none;stroke:red;stroke-width:1px;stroke-linecap:butt;stroke-linejoin:miter;stroke-opacity:1" d="M 856.122,586.951 850.073,582.415 z" id="boundary" inkscape:connector-curvature="0" />
	<path style="fill:none;stroke:red;stroke-width:1px;stroke-linecap:butt;stroke-linejoin:miter;stroke-opacity:1" d="M 862.171,591.488 856.122,586.951 z" id="boundary" inkscape:connector-curvature="0" />
	<path style="fill:none;stroke:red;stroke-width:1px;stroke-linecap:butt;stroke-linejoin:miter;stroke-opacity:1" d="M 862.171,591.488 868.976,595.268 z" id="boundary" inkscape:connector-curvature="0" />
	<path style="fill:none;stroke:red;stroke-width:1px;stroke-linecap:butt;stroke-linejoin:miter;stroke-opacity:1" d="M 875.78,599.049 881.073,605.098 z" id="boundary" inkscape:connector-curvature="0" />
	<path style="fill:none;stroke:red;stroke-width:1px;stroke-linecap:butt;stroke-linejoin:miter;stroke-opacity:1" d="M 875.78,599.049 868.976,595.268 z" id="boundary" inkscape:connector-curvature="0" />
	<path style="fill:none;stroke:red;stroke-width:1px;stroke-linecap:butt;stroke-linejoin:miter;stroke-opacity:1" d="M 888.634,608.122 881.073,605.098 z" id="boundary" inkscape:connector-curvature="0" />
	<path style="fill:none;stroke:red;stroke-width:1px;stroke-linecap:butt;stroke-linejoin:miter;stroke-opacity:1" d="M 888.634,608.122 895.439,611.902 z" id="boundary" inkscape:connector-curvature="0" />
	<path style="fill:none;stroke:red;stroke-width:1px;stroke-linecap:butt;stroke-linejoin:miter;stroke-opacity:1" d="M 895.439,611.902 901.488,616.439 z" id="boundary" inkscape:connector-curvature="0" />
	<path style="fill:none;stroke:red;stroke-width:1px;stroke-linecap:butt;stroke-linejoin:miter;stroke-opacity:1" d="M 901.488,616.439 907.537,620.976 z" id="boundary" inkscape:connector-curvature="0" />
	<path style="fill:none;stroke:red;stroke-width:1px;stroke-linecap:butt;stroke-linejoin:miter;stroke-opacity:1" d="M 914.341,624.756 907.537,620.976 z" id="boundary" inkscape:connector-curvature="0" />
	<path style="fill:none;stroke:red;stroke-width:1px;stroke-linecap:butt;stroke-linejoin:miter;stroke-opacity:1" d="M 920.39,629.293 925.683,635.341 z" id="boundary" inkscape:connector-curvature="0" />
	<path style="fill:none;stroke:red;stroke-width:1px;stroke-linecap:butt;stroke-linejoin:miter;stroke-opacity:1" d="M 920.39,629.293 914.341,624.756 z" id="boundary" inkscape:connector-curvature="0" />
	<path style="fill:none;stroke:red;stroke-width:1px;stroke-linecap:butt;stroke-linejoin:miter;stroke-opacity:1" d="M 925.683,635.341 933.244,638.366 z" id="boundary" inkscape:connector-curvature="0" />
	<path style="fill:none;stroke:red;stroke-width:1px;stroke-linecap:butt;stroke-linejoin:miter;stroke-opacity:1" d="M 939.293,642.902 933.244,638.366 z" id="boundary" inkscape:connector-curvature="0" />
	<path style="fill:none;stroke:red;stroke-width:1px;stroke-linecap:butt;stroke-linejoin:miter;stroke-opacity:1" d="M 945.341,648.195 939.293,642.902 z" id="boundary" inkscape:connector-curvature="0" />
	<path style="fill:none;stroke:red;stroke-width:1px;stroke-linecap:butt;stroke-linejoin:miter;stroke-opacity:1" d="M 970.293,666.341 964.244,661.805 z" id="boundary" inkscape:connector-curvature="0" />
	<path style="fill:none;stroke:red;stroke-width:1px;stroke-linecap:butt;stroke-linejoin:miter;stroke-opacity:1" d="M 951.39,652.732 945.341,648.195 z" id="boundary" inkscape:connector-curvature="0" />
	<path style="fill:none;stroke:red;stroke-width:1px;stroke-linecap:butt;stroke-linejoin:miter;stroke-opacity:1" d="M 951.39,652.732 958.195,656.512 z" id="boundary" inkscape:connector-curvature="0" />
	<path style="fill:none;stroke:red;stroke-width:1px;stroke-linecap:butt;stroke-linejoin:miter;stroke-opacity:1" d="M 964.244,661.805 958.195,656.512 z" id="boundary" inkscape:connector-curvature="0" />
	<path style="fill:none;stroke:red;stroke-width:1px;stroke-linecap:butt;stroke-linejoin:miter;stroke-opacity:1" d="M 970.293,666.341 976.341,670.878 z" id="boundary" inkscape:connector-curvature="0" />
	<path style="fill:none;stroke:red;stroke-width:1px;stroke-linecap:butt;stroke-linejoin:miter;stroke-opacity:1" d="M 976.341,670.878 982.39,676.171 z" id="boundary" inkscape:connector-curvature="0" />
	<path style="fill:none;stroke:red;stroke-width:1px;stroke-linecap:butt;stroke-linejoin:miter;stroke-opacity:1" d="M 987.683,682.22 982.39,676.171 z" id="boundary" inkscape:connector-curvature="0" />
	<path style="fill:none;stroke:red;stroke-width:1px;stroke-linecap:butt;stroke-linejoin:miter;stroke-opacity:1" d="M 992.22,688.268 994.488,696.585 z" id="boundary" inkscape:connector-curvature="0" />
	<path style="fill:none;stroke:red;stroke-width:1px;stroke-linecap:butt;stroke-linejoin:miter;stroke-opacity:1" d="M 987.683,682.22 992.22,688.268 z" id="boundary" inkscape:connector-curvature="0" />
	<path style="fill:none;stroke:red;stroke-width:1px;stroke-linecap:butt;stroke-linejoin:miter;stroke-opacity:1" d="M 994.488,696.585 995.244,704.146 z" id="boundary" inkscape:connector-curvature="0" />
	<path style="fill:none;stroke:red;stroke-width:1px;stroke-linecap:butt;stroke-linejoin:miter;stroke-opacity:1" d="M 845.537,720.78 851.585,725.317 z" id="boundary" inkscape:connector-curvature="0" />
	<path style="fill:none;stroke:red;stroke-width:1px;stroke-linecap:butt;stroke-linejoin:miter;stroke-opacity:1" d="M 857.634,729.854 851.585,725.317 z" id="boundary" inkscape:connector-curvature="0" />
	<path style="fill:none;stroke:red;stroke-width:1px;stroke-linecap:butt;stroke-linejoin:miter;stroke-opacity:1" d="M 857.634,729.854 863.683,735.146 z" id="boundary" inkscape:connector-curvature="0" />
	<path style="fill:none;stroke:red;stroke-width:1px;stroke-linecap:butt;stroke-linejoin:miter;stroke-opacity:1" d="M 867.463,741.951 863.683,735.146 z" id="boundary" inkscape:connector-curvature="0" />
	<path style="fill:none;stroke:red;stroke-width:1px;stroke-linecap:butt;stroke-linejoin:miter;stroke-opacity:1" d="M 875.024,744.22 867.463,741.951 z" id="boundary" inkscape:connector-curvature="0" />
	<path style="fill:none;stroke:red;stroke-width:1px;stroke-linecap:butt;stroke-linejoin:miter;stroke-opacity:1" d="M 881.073,749.512 875.024,744.22 z" id="boundary" inkscape:connector-curvature="0" />
	<path style="fill:none;stroke:red;stroke-width:1px;stroke-linecap:butt;stroke-linejoin:miter;stroke-opacity:1" d="M 886.366,755.561 881.073,749.512 z" id="boundary" inkscape:connector-curvature="0" />
	<path style="fill:none;stroke:red;stroke-width:1px;stroke-linecap:butt;stroke-linejoin:miter;stroke-opacity:1" d="M 900.732,762.366 893.171,759.341 z" id="boundary" inkscape:connector-curvature="0" />
	<path style="fill:none;stroke:red;stroke-width:1px;stroke-linecap:butt;stroke-linejoin:miter;stroke-opacity:1" d="M 886.366,755.561 893.171,759.341 z" id="boundary" inkscape:connector-curvature="0" />
	<path style="fill:none;stroke:red;stroke-width:1px;stroke-linecap:butt;stroke-linejoin:miter;stroke-opacity:1" d="M 900.732,762.366 905.268,768.415 z" id="boundary" inkscape:connector-curvature="0" />
	<path style="fill:none;stroke:red;stroke-width:1px;stroke-linecap:butt;stroke-linejoin:miter;stroke-opacity:1" d="M 912.829,768.415 905.268,768.415 z" id="boundary" inkscape:connector-curvature="0" />
	<path style="fill:none;stroke:red;stroke-width:1px;stroke-linecap:butt;stroke-linejoin:miter;stroke-opacity:1" d="M 920.39,770.683 912.829,768.415 z" id="boundary" inkscape:connector-curvature="0" />
	<path style="fill:none;stroke:red;stroke-width:1px;stroke-linecap:butt;stroke-linejoin:miter;stroke-opacity:1" d="M 927.951,771.439 920.39,770.683 z" id="boundary" inkscape:connector-curvature="0" />
	<path style="fill:none;stroke:red;stroke-width:1px;stroke-linecap:butt;stroke-linejoin:miter;stroke-opacity:1" d="M 927.951,771.439 934,775.976 z" id="boundary" inkscape:connector-curvature="0" />
	<path style="fill:none;stroke:red;stroke-width:1px;stroke-linecap:butt;stroke-linejoin:miter;stroke-opacity:1" d="M 995.244,704.146 996,711.707 z" id="boundary" inkscape:connector-curvature="0" />
	<path style="fill:none;stroke:red;stroke-width:1px;stroke-linecap:butt;stroke-linejoin:miter;stroke-opacity:1" d="M 988.439,732.122 982.39,737.415 z" id="boundary" inkscape:connector-curvature="0" />
	<path style="fill:none;stroke:red;stroke-width:1px;stroke-linecap:butt;stroke-linejoin:miter;stroke-opacity:1" d="M 988.439,732.122 992.976,723.049 z" id="boundary" inkscape:connector-curvature="0" />
	<path style="fill:none;stroke:red;stroke-width:1px;stroke-linecap:butt;stroke-linejoin:miter;stroke-opacity:1" d="M 996,711.707 992.976,723.049 z" id="boundary" inkscape:connector-curvature="0" />
	<path style="fill:none;stroke:red;stroke-width:1px;stroke-linecap:butt;stroke-linejoin:miter;stroke-opacity:1" d="M 982.39,737.415 977.098,746.488 z" id="boundary" inkscape:connector-curvature="0" />
	<path style="fill:none;stroke:red;stroke-width:1px;stroke-linecap:butt;stroke-linejoin:miter;stroke-opacity:1" d="M 941.561,775.22 934,775.976 z" id="boundary" inkscape:connector-curvature="0" />
	<path style="fill:none;stroke:red;stroke-width:1px;stroke-linecap:butt;stroke-linejoin:miter;stroke-opacity:1" d="M 941.561,775.22 949.122,772.195 z" id="boundary" inkscape:connector-curvature="0" />
	<path style="fill:none;stroke:red;stroke-width:1px;stroke-linecap:butt;stroke-linejoin:miter;stroke-opacity:1" d="M 956.683,770.683 949.122,772.195 z" id="boundary" inkscape:connector-curvature="0" />
	<path style="fill:none;stroke:red;stroke-width:1px;stroke-linecap:butt;stroke-linejoin:miter;stroke-opacity:1" d="M 962.732,765.39 956.683,770.683 z" id="boundary" inkscape:connector-curvature="0" />
	<path style="fill:none;stroke:red;stroke-width:1px;stroke-linecap:butt;stroke-linejoin:miter;stroke-opacity:1" d="M 966.512,758.585 972.561,753.293 z" id="boundary" inkscape:connector-curvature="0" />
	<path style="fill:none;stroke:red;stroke-width:1px;stroke-linecap:butt;stroke-linejoin:miter;stroke-opacity:1" d="M 972.561,753.293 977.098,746.488 z" id="boundary" inkscape:connector-curvature="0" />
	<path style="fill:none;stroke:red;stroke-width:1px;stroke-linecap:butt;stroke-linejoin:miter;stroke-opacity:1" d="M 962.732,765.39 966.512,758.585 z" id="boundary" inkscape:connector-curvature="0" />
	<circle cx="4" cy="103.805" r="4" fill="#0" id="circle0"/>
	<circle cx="5.5122" cy="89.439" r="4" fill="#0" id="circle1"/>
	<circle cx="7.02439" cy="81.122" r="4" fill="#0" id="circle2"/>
	<circle cx="7.02439" cy="111.366" r="4" fill="#0" id="circle3"/>
	<circle cx="10.0488" cy="73.561" r="4" fill="#0" id="circle4"/>
	<circle cx="10.0488" cy="118.927" r="4" fill="#0" id="circle5"/>
	<circle cx="11.561" cy="66" r="4" fill="#0" id="circle6"/>
	<circle cx="14.5854" cy="126.488" r="4" fill="#0" id="circle7"/>
	<circle cx="18.3659" cy="56.9268" r="4" fill="#0" id="circle8"/>
	<circle cx="19.122" cy="64.4878" r="4" fill="#0" id="circle9"/>
	<circle cx="20.6341" cy="131.78" r="4" fill="#0" id="circle10"/>
	<circle cx="23.6585" cy="139.341" r="4" fill="#0" id="circle11"/>
	<circle cx="24.4146" cy="50.878" r="4" fill="#0" id="circle12"/>
	<circle cx="29.7073" cy="144.634" r="4" fill="#0" id="circle13"/>
	<circle cx="29.7073" cy="152.195" r="4" fill="#0" id="circle14"/>
	<circle cx="30.4634" cy="44.8293" r="4" fill="#0" id="circle15"/>
	<circle cx="33.4878" cy="159" r="4" fill="#0" id="circle16"/>
	<circle cx="37.2683" cy="40.2927" r="4" fill="#0" id="circle17"/>
	<circle cx="38.7805" cy="165.049" r="4" fill="#0" id="circle18"/>
	<circle cx="41.8049" cy="31.9756" r="4" fill="#0" id="circle19"/>
	<circle cx="44.0732" cy="171.098" r="4" fill="#0" id="circle20"/>
	<circle cx="49.3659" cy="28.1951" r="4" fill="#0" id="circle21"/>
	<circle cx="50.878" cy="174.878" r="4" fill="#0" id="circle22"/>
	<circle cx="51.6341" cy="182.439" r="4" fill="#0" id="circle23"/>
	<circle cx="56.1707" cy="20.6341" r="4" fill="#0" id="circle24"/>
	<circle cx="58.439" cy="186.22" r="4" fill="#0" id="circle25"/>
	<circle cx="60.7073" cy="193.78" r="4" fill="#0" id="circle26"/>
	<circle cx="63.7317" cy="21.3902" r="4" fill="#0" id="circle27"/>
	<circle cx="66.7561" cy="199.073" r="4" fill="#0" id="circle28"/>
	<circle cx="69.7805" cy="15.3415" r="4" fill="#0" id="circle29"/>
	<circle cx="71.2927" cy="205.122" r="4" fill="#0" id="circle30"/>
	<circle cx="76.5854" cy="11.561" r="4" fill="#0" id="circle31"/>
	<circle cx="78.0976" cy="208.902" r="4" fill="#0" id="circle32"/>
	<circle cx="84.1463" cy="12.3171" r="4" fill="#0" id="circle33"/>
	<circle cx="84.1463" cy="213.439" r="4" fill="#0" id="circle34"/>
	<circle cx="87.9268" cy="195.293" r="4" fill="#0" id="circle35"/>
	<circle cx="88.6829" cy="219.488" r="4" fill="#0" id="circle36"/>
	<circle cx="90.1951" cy="7.78049" r="4" fill="#0" id="circle37"/>
	<circle cx="94.7317" cy="214.951" r="4" fill="#0" id="circle38"/>
	<circle cx="97.7561" cy="6.26829" r="4" fill="#0" id="circle39"/>
	<circle cx="97.7561" cy="222.512" r="4" fill="#0" id="circle40"/>
	<circle cx="105.317" cy="5.5122" r="4" fill="#0" id="circle41"/>
	<circle cx="105.317" cy="223.268" r="4" fill="#0" id="circle42"/>
	<circle cx="109.098" cy="233.854" r="4" fill="#0" id="circle43"/>
	<circle cx="112.878" cy="4" r="4" fill="#0" id="circle44"/>
	<circle cx="113.634" cy="239.902" r="4" fill="#0" id="circle45"/>
	<circle cx="120.439" cy="4" r="4" fill="#0" id="circle46"/>
	<circle cx="121.195" cy="242.171" r="4" fill="#0" id="circle47"/>
	<circle cx="127.244" cy="247.463" r="4" fill="#0" id="circle48"/>
	<circle cx="128" cy="6.26829" r="4" fill="#0" id="circle49"/>
	<circle cx="133.293" cy="252" r="4" fill="#0" id="circle50"/>
	<circle cx="135.561" cy="6.26829" r="4" fill="#0" id="circle51"/>
	<circle cx="137.829" cy="258.049" r="4" fill="#0" id="circle52"/>
	<circle cx="142.366" cy="264.098" r="4" fill="#0" id="circle53"/>
	<circle cx="143.122" cy="8.53659" r="4" fill="#0" id="circle54"/>
	<circle cx="149.171" cy="267.878" r="4" fill="#0" id="circle55"/>
	<circle cx="150.683" cy="10.8049" r="4" fill="#0" id="circle56"/>
	<circle cx="156.732" cy="270.902" r="4" fill="#0" id="circle57"/>
	<circle cx="158.244" cy="13.0732" r="4" fill="#0" id="circle58"/>
	<circle cx="162.78" cy="275.439" r="4" fill="#0" id="circle59"/>
	<circle cx="165.805" cy="14.5854" r="4" fill="#0" id="circle60"/>
	<circle cx="168.829" cy="279.976" r="4" fill="#0" id="circle61"/>
	<circle cx="171.854" cy="19.122" r="4" fill="#0" id="circle62"/>
	<circle cx="175.634" cy="283.756" r="4" fill="#0" id="circle63"/>
	<circle cx="179.415" cy="20.6341" r="4" fill="#0" id="circle64"/>
	<circle cx="183.195" cy="286.024" r="4" fill="#0" id="circle65"/>
	<circle cx="186.976" cy="22.1463" r="4" fill="#0" id="circle66"/>
	<circle cx="190.756" cy="288.293" r="4" fill="#0" id="circle67"/>
	<circle cx="194.537" cy="25.1707" r="4" fill="#0" id="circle68"/>
	<circle cx="198.317" cy="289.805" r="4" fill="#0" id="circle69"/>
	<circle cx="199.829" cy="31.2195" r="4" fill="#0" id="circle70"/>
	<circle cx="205.878" cy="290.561" r="4" fill="#0" id="circle71"/>
	<circle cx="207.39" cy="34.2439" r="4" fill="#0" id="circle72"/>
	<circle cx="213.439" cy="293.585" r="4" fill="#0" id="circle73"/>
	<circle cx="214.951" cy="36.5122" r="4" fill="#0" id="circle74"/>
	<circle cx="220.244" cy="297.366" r="4" fill="#0" id="circle75"/>
	<circle cx="222.512" cy="38.7805" r="4" fill="#0" id="circle76"/>
	<circle cx="226.293" cy="301.902" r="4" fill="#0" id="circle77"/>
	<circle cx="228.561" cy="44.0732" r="4" fill="#0" id="circle78"/>
	<circle cx="228.561" cy="51.6341" r="4" fill="#0" id="circle79"/>
	<circle cx="233.854" cy="301.902" r="4" fill="#0" id="circle80"/>
	<circle cx="236.122" cy="49.3659" r="4" fill="#0" id="circle81"/>
	<circle cx="241.415" cy="302.659" r="4" fill="#0" id="circle82"/>
	<circle cx="242.927" cy="53.1463" r="4" fill="#0" id="circle83"/>
	<circle cx="248.976" cy="57.6829" r="4" fill="#0" id="circle84"/>
	<circle cx="248.976" cy="304.927" r="4" fill="#0" id="circle85"/>
	<circle cx="251.244" cy="65.2439" r="4" fill="#0" id="circle86"/>
	<circle cx="256.537" cy="304.171" r="4" fill="#0" id="circle87"/>
	<circle cx="258.805" cy="66.7561" r="4" fill="#0" id="circle88"/>
	<circle cx="264.098" cy="304.171" r="4" fill="#0" id="circle89"/>
	<circle cx="266.366" cy="69.7805" r="4" fill="#0" id="circle90"/>
	<circle cx="271.659" cy="307.195" r="4" fill="#0" id="circle91"/>
	<circle cx="272.415" cy="74.3171" r="4" fill="#0" id="circle92"/>
	<circle cx="278.463" cy="78.8537" r="4" fill="#0" id="circle93"/>
	<circle cx="279.22" cy="305.683" r="4" fill="#0" id="circle94"/>
	<circle cx="284.512" cy="84.1463" r="4" fill="#0" id="circle95"/>
	<circle cx="286.78" cy="305.683" r="4" fill="#0" id="circle96"/>
	<circle cx="287.537" cy="91.7073" r="4" fill="#0" id="circle97"/>
	<circle cx="293.585" cy="96.2439" r="4" fill="#0" id="circle98"/>
	<circle cx="294.341" cy="304.927" r="4" fill="#0" id="circle99"/>
	<circle cx="299.634" cy="101.537" r="4" fill="#0" id="circle100"/>
	<circle cx="301.902" cy="306.439" r="4" fill="#0" id="circle101"/>
	<circle cx="307.195" cy="103.049" r="4" fill="#0" id="circle102"/>
	<circle cx="309.463" cy="306.439" r="4" fill="#0" id="circle103"/>
	<circle cx="313.244" cy="108.341" r="4" fill="#0" id="circle104"/>
	<circle cx="317.024" cy="301.902" r="4" fill="#0" id="circle105"/>
	<circle cx="317.78" cy="309.463" r="4" fill="#0" id="circle106"/>
	<circle cx="319.293" cy="112.878" r="4" fill="#0" id="circle107"/>
	<circle cx="323.073" cy="119.683" r="4" fill="#0" id="circle108"/>
	<circle cx="325.341" cy="310.976" r="4" fill="#0" id="circle109"/>
	<circle cx="326.854" cy="126.488" r="4" fill="#0" id="circle110"/>
	<circle cx="332.902" cy="311.732" r="4" fill="#0" id="circle111"/>
	<circle cx="333.659" cy="130.268" r="4" fill="#0" id="circle112"/>
	<circle cx="336.683" cy="137.829" r="4" fill="#0" id="circle113"/>
	<circle cx="340.463" cy="313.244" r="4" fill="#0" id="circle114"/>
	<circle cx="342.732" cy="143.122" r="4" fill="#0" id="circle115"/>
	<circle cx="345.756" cy="150.683" r="4" fill="#0" id="circle116"/>
	<circle cx="346.512" cy="317.78" r="4" fill="#0" id="circle117"/>
	<circle cx="349.537" cy="157.488" r="4" fill="#0" id="circle118"/>
	<circle cx="353.317" cy="164.293" r="4" fill="#0" id="circle119"/>
	<circle cx="354.073" cy="318.537" r="4" fill="#0" id="circle120"/>
	<circle cx="357.098" cy="171.098" r="4" fill="#0" id="circle121"/>
	<circle cx="359.366" cy="178.659" r="4" fill="#0" id="circle122"/>
	<circle cx="360.878" cy="186.22" r="4" fill="#0" id="circle123"/>
	<circle cx="361.634" cy="318.537" r="4" fill="#0" id="circle124"/>
	<circle cx="363.902" cy="193.78" r="4" fill="#0" id="circle125"/>
	<circle cx="366.927" cy="201.341" r="4" fill="#0" id="circle126"/>
	<circle cx="368.439" cy="322.317" r="4" fill="#0" id="circle127"/>
	<circle cx="369.195" cy="208.902" r="4" fill="#0" id="circle128"/>
	<circle cx="371.463" cy="216.463" r="4" fill="#0" id="circle129"/>
	<circle cx="372.22" cy="329.122" r="4" fill="#0" id="circle130"/>
	<circle cx="376" cy="222.512" r="4" fill="#0" id="circle131"/>
	<circle cx="379.024" cy="230.073" r="4" fill="#0" id="circle132"/>
	<circle cx="379.78" cy="331.39" r="4" fill="#0" id="circle133"/>
	<circle cx="383.561" cy="236.122" r="4" fill="#0" id="circle134"/>
	<circle cx="385.073" cy="337.439" r="4" fill="#0" id="circle135"/>
	<circle cx="386.585" cy="243.683" r="4" fill="#0" id="circle136"/>
	<circle cx="391.122" cy="341.976" r="4" fill="#0" id="circle137"/>
	<circle cx="391.878" cy="249.732" r="4" fill="#0" id="circle138"/>
	<circle cx="395.659" cy="256.537" r="4" fill="#0" id="circle139"/>
	<circle cx="397.171" cy="347.268" r="4" fill="#0" id="circle140"/>
	<circle cx="400.195" cy="262.585" r="4" fill="#0" id="circle141"/>
	<circle cx="403.22" cy="351.805" r="4" fill="#0" id="circle142"/>
	<circle cx="404.732" cy="268.634" r="4" fill="#0" id="circle143"/>
	<circle cx="408.512" cy="275.439" r="4" fill="#0" id="circle144"/>
	<circle cx="409.268" cy="356.341" r="4" fill="#0" id="circle145"/>
	<circle cx="414.561" cy="280.732" r="4" fill="#0" id="circle146"/>
	<circle cx="416.829" cy="358.61" r="4" fill="#0" id="circle147"/>
	<circle cx="422.122" cy="283" r="4" fill="#0" id="circle148"/>
	<circle cx="422.122" cy="364.659" r="4" fill="#0" id="circle149"/>
	<circle cx="425.146" cy="372.22" r="4" fill="#0" id="circle150"/>
	<circle cx="425.902" cy="289.805" r="4" fill="#0" id="circle151"/>
	<circle cx="431.195" cy="295.854" r="4" fill="#0" id="circle152"/>
	<circle cx="432.707" cy="375.244" r="4" fill="#0" id="circle153"/>
	<circle cx="437.244" cy="301.146" r="4" fill="#0" id="circle154"/>
	<circle cx="438" cy="381.293" r="4" fill="#0" id="circle155"/>
	<circle cx="444.049" cy="304.927" r="4" fill="#0" id="circle156"/>
	<circle cx="444.049" cy="385.829" r="4" fill="#0" id="circle157"/>
	<circle cx="448.585" cy="310.976" r="4" fill="#0" id="circle158"/>
	<circle cx="450.098" cy="390.366" r="4" fill="#0" id="circle159"/>
	<circle cx="455.39" cy="314.756" r="4" fill="#0" id="circle160"/>
	<circle cx="456.902" cy="394.146" r="4" fill="#0" id="circle161"/>
	<circle cx="461.439" cy="319.293" r="4" fill="#0" id="circle162"/>
	<circle cx="461.439" cy="400.195" r="4" fill="#0" id="circle163"/>
	<circle cx="465.22" cy="407" r="4" fill="#0" id="circle164"/>
	<circle cx="467.488" cy="324.585" r="4" fill="#0" id="circle165"/>
	<circle cx="471.268" cy="411.537" r="4" fill="#0" id="circle166"/>
	<circle cx="473.537" cy="329.122" r="4" fill="#0" id="circle167"/>
	<circle cx="478.073" cy="415.317" r="4" fill="#0" id="circle168"/>
	<circle cx="479.585" cy="333.659" r="4" fill="#0" id="circle169"/>
	<circle cx="484.878" cy="419.098" r="4" fill="#0" id="circle170"/>
	<circle cx="487.146" cy="336.683" r="4" fill="#0" id="circle171"/>
	<circle cx="488.659" cy="425.902" r="4" fill="#0" id="circle172"/>
	<circle cx="491.683" cy="342.732" r="4" fill="#0" id="circle173"/>
	<circle cx="494.707" cy="430.439" r="4" fill="#0" id="circle174"/>
	<circle cx="499.244" cy="345.756" r="4" fill="#0" id="circle175"/>
	<circle cx="500" cy="436.488" r="4" fill="#0" id="circle176"/>
	<circle cx="505.293" cy="350.293" r="4" fill="#0" id="circle177"/>
	<circle cx="506.805" cy="440.268" r="4" fill="#0" id="circle178"/>
	<circle cx="511.341" cy="355.585" r="4" fill="#0" id="circle179"/>
	<circle cx="512.854" cy="444.805" r="4" fill="#0" id="circle180"/>
	<circle cx="518.146" cy="359.366" r="4" fill="#0" id="circle181"/>
	<circle cx="518.902" cy="449.341" r="4" fill="#0" id="circle182"/>
	<circle cx="524.195" cy="363.902" r="4" fill="#0" id="circle183"/>
	<circle cx="525.707" cy="453.122" r="4" fill="#0" id="circle184"/>
	<circle cx="531" cy="367.683" r="4" fill="#0" id="circle185"/>
	<circle cx="531" cy="459.171" r="4" fill="#0" id="circle186"/>
	<circle cx="537.049" cy="372.22" r="4" fill="#0" id="circle187"/>
	<circle cx="537.049" cy="463.707" r="4" fill="#0" id="circle188"/>
	<circle cx="543.098" cy="376.756" r="4" fill="#0" id="circle189"/>
	<circle cx="543.854" cy="467.488" r="4" fill="#0" id="circle190"/>
	<circle cx="548.39" cy="473.537" r="4" fill="#0" id="circle191"/>
	<circle cx="549.902" cy="380.537" r="4" fill="#0" id="circle192"/>
	<circle cx="554.439" cy="478.073" r="4" fill="#0" id="circle193"/>
	<circle cx="556.707" cy="384.317" r="4" fill="#0" id="circle194"/>
	<circle cx="560.488" cy="482.61" r="4" fill="#0" id="circle195"/>
	<circle cx="562" cy="390.366" r="4" fill="#0" id="circle196"/>
	<circle cx="566.537" cy="487.902" r="4" fill="#0" id="circle197"/>
	<circle cx="568.805" cy="394.146" r="4" fill="#0" id="circle198"/>
	<circle cx="571.073" cy="493.951" r="4" fill="#0" id="circle199"/>
	<circle cx="574.854" cy="398.683" r="4" fill="#0" id="circle200"/>
	<circle cx="577.878" cy="497.732" r="4" fill="#0" id="circle201"/>
	<circle cx="581.659" cy="402.463" r="4" fill="#0" id="circle202"/>
	<circle cx="583.171" cy="503.78" r="4" fill="#0" id="circle203"/>
	<circle cx="587.707" cy="407" r="4" fill="#0" id="circle204"/>
	<circle cx="589.976" cy="507.561" r="4" fill="#0" id="circle205"/>
	<circle cx="593.756" cy="411.537" r="4" fill="#0" id="circle206"/>
	<circle cx="596.024" cy="512.098" r="4" fill="#0" id="circle207"/>
	<circle cx="599.805" cy="416.073" r="4" fill="#0" id="circle208"/>
	<circle cx="600.561" cy="518.146" r="4" fill="#0" id="circle209"/>
	<circle cx="605.854" cy="421.366" r="4" fill="#0" id="circle210"/>
	<circle cx="606.61" cy="522.683" r="4" fill="#0" id="circle211"/>
	<circle cx="612.659" cy="425.146" r="4" fill="#0" id="circle212"/>
	<circle cx="613.415" cy="526.463" r="4" fill="#0" id="circle213"/>
	<circle cx="619.463" cy="531" r="4" fill="#0" id="circle214"/>
	<circle cx="620.22" cy="427.415" r="4" fill="#0" id="circle215"/>
	<circle cx="625.512" cy="535.537" r="4" fill="#0" id="circle216"/>
	<circle cx="626.268" cy="431.951" r="4" fill="#0" id="circle217"/>
	<circle cx="631.561" cy="540.829" r="4" fill="#0" id="circle218"/>
	<circle cx="632.317" cy="436.488" r="4" fill="#0" id="circle219"/>
	<circle cx="638.366" cy="544.61" r="4" fill="#0" id="circle220"/>
	<circle cx="639.122" cy="440.268" r="4" fill="#0" id="circle221"/>
	<circle cx="642.902" cy="550.659" r="4" fill="#0" id="circle222"/>
	<circle cx="645.171" cy="444.805" r="4" fill="#0" id="circle223"/>
	<circle cx="646.683" cy="557.463" r="4" fill="#0" id="circle224"/>
	<circle cx="651.22" cy="449.341" r="4" fill="#0" id="circle225"/>
	<circle cx="652.732" cy="562" r="4" fill="#0" id="circle226"/>
	<circle cx="658.78" cy="452.366" r="4" fill="#0" id="circle227"/>
	<circle cx="660.293" cy="563.512" r="4" fill="#0" id="circle228"/>
	<circle cx="662.561" cy="571.073" r="4" fill="#0" id="circle229"/>
	<circle cx="664.829" cy="456.902" r="4" fill="#0" id="circle230"/>
	<circle cx="669.366" cy="574.854" r="4" fill="#0" id="circle231"/>
	<circle cx="671.634" cy="460.683" r="4" fill="#0" id="circle232"/>
	<circle cx="675.415" cy="579.39" r="4" fill="#0" id="circle233"/>
	<circle cx="677.683" cy="465.22" r="4" fill="#0" id="circle234"/>
	<circle cx="682.976" cy="581.659" r="4" fill="#0" id="circle235"/>
	<circle cx="684.488" cy="469" r="4" fill="#0" id="circle236"/>
	<circle cx="689.024" cy="586.951" r="4" fill="#0" id="circle237"/>
	<circle cx="690.537" cy="474.293" r="4" fill="#0" id="circle238"/>
	<circle cx="692.805" cy="593.756" r="4" fill="#0" id="circle239"/>
	<circle cx="696.585" cy="478.829" r="4" fill="#0" id="circle240"/>
	<circle cx="698.098" cy="599.805" r="4" fill="#0" id="circle241"/>
	<circle cx="703.39" cy="482.61" r="4" fill="#0" id="circle242"/>
	<circle cx="704.146" cy="604.341" r="4" fill="#0" id="circle243"/>
	<circle cx="708.683" cy="488.659" r="4" fill="#0" id="circle244"/>
	<circle cx="710.195" cy="609.634" r="4" fill="#0" id="circle245"/>
	<circle cx="716.244" cy="491.683" r="4" fill="#0" id="circle246"/>
	<circle cx="717.756" cy="611.902" r="4" fill="#0" id="circle247"/>
	<circle cx="721.537" cy="618.707" r="4" fill="#0" id="circle248"/>
	<circle cx="722.293" cy="496.976" r="4" fill="#0" id="circle249"/>
	<circle cx="727.585" cy="623.244" r="4" fill="#0" id="circle250"/>
	<circle cx="729.854" cy="498.488" r="4" fill="#0" id="circle251"/>
	<circle cx="732.878" cy="629.293" r="4" fill="#0" id="circle252"/>
	<circle cx="734.39" cy="504.537" r="4" fill="#0" id="circle253"/>
	<circle cx="739.683" cy="633.073" r="4" fill="#0" id="circle254"/>
	<circle cx="741.195" cy="508.317" r="4" fill="#0" id="circle255"/>
	<circle cx="746.488" cy="514.366" r="4" fill="#0" id="circle256"/>
	<circle cx="747.244" cy="635.341" r="4" fill="#0" id="circle257"/>
	<circle cx="751.024" cy="642.146" r="4" fill="#0" id="circle258"/>
	<circle cx="753.293" cy="518.146" r="4" fill="#0" id="circle259"/>
	<circle cx="757.073" cy="647.439" r="4" fill="#0" id="circle260"/>
	<circle cx="759.341" cy="522.683" r="4" fill="#0" id="circle261"/>
	<circle cx="763.122" cy="652.732" r="4" fill="#0" id="circle262"/>
	<circle cx="766.146" cy="526.463" r="4" fill="#0" id="circle263"/>
	<circle cx="769.927" cy="656.512" r="4" fill="#0" id="circle264"/>
	<circle cx="772.195" cy="531.756" r="4" fill="#0" id="circle265"/>
	<circle cx="776.732" cy="660.293" r="4" fill="#0" id="circle266"/>
	<circle cx="778.244" cy="536.293" r="4" fill="#0" id="circle267"/>
	<circle cx="780.512" cy="667.098" r="4" fill="#0" id="circle268"/>
	<circle cx="785.049" cy="540.073" r="4" fill="#0" id="circle269"/>
	<circle cx="787.317" cy="670.878" r="4" fill="#0" id="circle270"/>
	<circle cx="792.61" cy="542.341" r="4" fill="#0" id="circle271"/>
	<circle cx="793.366" cy="675.415" r="4" fill="#0" id="circle272"/>
	<circle cx="797.902" cy="681.463" r="4" fill="#0" id="circle273"/>
	<circle cx="798.659" cy="547.634" r="4" fill="#0" id="circle274"/>
	<circle cx="803.951" cy="686" r="4" fill="#0" id="circle275"/>
	<circle cx="804.707" cy="552.927" r="4" fill="#0" id="circle276"/>
	<circle cx="810" cy="691.293" r="4" fill="#0" id="circle277"/>
	<circle cx="811.512" cy="556.707" r="4" fill="#0" id="circle278"/>
	<circle cx="816.049" cy="695.829" r="4" fill="#0" id="circle279"/>
	<circle cx="817.561" cy="561.244" r="4" fill="#0" id="circle280"/>
	<circle cx="822.098" cy="700.366" r="4" fill="#0" id="circle281"/>
	<circle cx="824.366" cy="565.024" r="4" fill="#0" id="circle282"/>
	<circle cx="828.146" cy="705.659" r="4" fill="#0" id="circle283"/>
	<circle cx="830.415" cy="569.561" r="4" fill="#0" id="circle284"/>
	<circle cx="834.195" cy="710.195" r="4" fill="#0" id="circle285"/>
	<circle cx="837.976" cy="572.585" r="4" fill="#0" id="circle286"/>
	<circle cx="839.488" cy="716.244" r="4" fill="#0" id="circle287"/>
	<circle cx="843.268" cy="578.634" r="4" fill="#0" id="circle288"/>
	<circle cx="845.537" cy="720.78" r="4" fill="#0" id="circle289"/>
	<circle cx="850.073" cy="582.415" r="4" fill="#0" id="circle290"/>
	<circle cx="851.585" cy="725.317" r="4" fill="#0" id="circle291"/>
	<circle cx="856.122" cy="586.951" r="4" fill="#0" id="circle292"/>
	<circle cx="857.634" cy="729.854" r="4" fill="#0" id="circle293"/>
	<circle cx="862.171" cy="591.488" r="4" fill="#0" id="circle294"/>
	<circle cx="863.683" cy="735.146" r="4" fill="#0" id="circle295"/>
	<circle cx="867.463" cy="741.951" r="4" fill="#0" id="circle296"/>
	<circle cx="868.976" cy="595.268" r="4" fill="#0" id="circle297"/>
	<circle cx="875.024" cy="744.22" r="4" fill="#0" id="circle298"/>
	<circle cx="875.78" cy="599.049" r="4" fill="#0" id="circle299"/>
	<circle cx="881.073" cy="605.098" r="4" fill="#0" id="circle300"/>
	<circle cx="881.073" cy="749.512" r="4" fill="#0" id="circle301"/>
	<circle cx="886.366" cy="755.561" r="4" fill="#0" id="circle302"/>
	<circle cx="888.634" cy="608.122" r="4" fill="#0" id="circle303"/>
	<circle cx="893.171" cy="759.341" r="4" fill="#0" id="circle304"/>
	<circle cx="895.439" cy="611.902" r="4" fill="#0" id="circle305"/>
	<circle cx="900.732" cy="762.366" r="4" fill="#0" id="circle306"/>
	<circle cx="901.488" cy="616.439" r="4" fill="#0" id="circle307"/>
	<circle cx="905.268" cy="768.415" r="4" fill="#0" id="circle308"/>
	<circle cx="907.537" cy="620.976" r="4" fill="#0" id="circle309"/>
	<circle cx="912.829" cy="768.415" r="4" fill="#0" id="circle310"/>
	<circle cx="914.341" cy="624.756" r="4" fill="#0" id="circle311"/>
	<circle cx="920.39" cy="629.293" r="4" fill="#0" id="circle312"/>
	<circle cx="920.39" cy="770.683" r="4" fill="#0" id="circle313"/>
	<circle cx="925.683" cy="635.341" r="4" fill="#0" id="circle314"/>
	<circle cx="927.951" cy="771.439" r="4" fill="#0" id="circle315"/>
	<circle cx="933.244" cy="638.366" r="4" fill="#0" id="circle316"/>
	<circle cx="934" cy="775.976" r="4" fill="#0" id="circle317"/>
	<circle cx="939.293" cy="642.902" r="4" fill="#0" id="circle318"/>
	<circle cx="941.561" cy="775.22" r="4" fill="#0" id="circle319"/>
	<circle cx="945.341" cy="648.195" r="4" fill="#0" id="circle320"/>
	<circle cx="949.122" cy="772.195" r="4" fill="#0" id="circle321"/>
	<circle cx="951.39" cy="652.732" r="4" fill="#0" id="circle322"/>
	<circle cx="956.683" cy="770.683" r="4" fill="#0" id="circle323"/>
	<circle cx="958.195" cy="656.512" r="4" fill="#0" id="circle324"/>
	<circle cx="962.732" cy="765.39" r="4" fill="#0" id="circle325"/>
	<circle cx="964.244" cy="661.805" r="4" fill="#0" id="circle326"/>
	<circle cx="966.512" cy="758.585" r="4" fill="#0" id="circle327"/>
	<circle cx="970.293" cy="666.341" r="4" fill="#0" id="circle328"/>
	<circle cx="972.561" cy="753.293" r="4" fill="#0" id="circle329"/>
	<circle cx="976.341" cy="670.878" r="4" fill="#0" id="circle330"/>
	<circle cx="977.098" cy="746.488" r="4" fill="#0" id="circle331"/>
	<circle cx="982.39" cy="676.171" r="4" fill="#0" id="circle332"/>
	<circle cx="982.39" cy="737.415" r="4" fill="#0" id="circle333"/>
	<circle cx="987.683" cy="682.22" r="4" fill="#0" id="circle334"/>
	<circle cx="988.439" cy="732.122" r="4" fill="#0" id="circle335"/>
	<circle cx="992.22" cy="688.268" r="4" fill="#0" id="circle336"/>
	<circle cx="992.976" cy="723.049" r="4" fill="#0" id="circle337"/>
	<circle cx="994.488" cy="696.585" r="4" fill="#0" id="circle338"/>
	<circle cx="995.244" cy="704.146" r="4" fill="#0" id="circle339"/>
	<circle cx="996" cy="711.707" r="4" fill="#0" id="circle340"/>
	</g>
</svg>