<?xml version="1.0" encoding="UTF-8" standalone="no"?>
<!-- Created with CurveBenchmark -->
<svg
	xmlns:dc="http://purl.org/dc/elements/1.1/"
	xmlns:cc="http://creativecommons.org/ns#"
	xmlns:rdf="http://www.w3.org/1999/02/22-rdf-syntax-ns#"
	xmlns:svg="http://www.w3.org/2000/svg"
	xmlns="http://www.w3.org/2000/svg"
	xmlns:sodipodi="http://sodipodi.sourceforge.net/DTD/sodipodi-0.dtd"
	xmlns:inkscape="http://www.inkscape.org/namespaces/inkscape"
	width="1000"
	height="1000"
	id="svg2"
	version="1.1"
	sodipodi:docname="manifold/crust-tool17.png.txt">
<defs
	id="defs4" />
<metadata
	id="metadata7">
	<rdf:RDF>
		<cc:Work
			rdf:about="">
			<dc:format>image/svg+xml</dc:format>
			<dc:type
				rdf:resource="http://purl.org/dc/dcmitype/StillImage" />
			<dc:title></dc:title>
		</cc:Work>
	</rdf:RDF>
</metadata>
<g
	inkscape:label="Layer 1"
	inkscape:groupmode="layer"
	id="layer1">
	<path style="fill:none;stroke:red;stroke-width:1px;stroke-linecap:butt;stroke-linejoin:miter;stroke-opacity:1" d="M 134.526,4 97.2331,15.188 z" id="boundary" inkscape:connector-curvature="0" />
	<path style="fill:none;stroke:red;stroke-width:1px;stroke-linecap:butt;stroke-linejoin:miter;stroke-opacity:1" d="M 97.2331,15.188 97.2331,52.4812 z" id="boundary" inkscape:connector-curvature="0" />
	<path style="fill:none;stroke:red;stroke-width:1px;stroke-linecap:butt;stroke-linejoin:miter;stroke-opacity:1" d="M 59.9398,141.985 22.6466,145.714 z" id="boundary" inkscape:connector-curvature="0" />
	<path style="fill:none;stroke:red;stroke-width:1px;stroke-linecap:butt;stroke-linejoin:miter;stroke-opacity:1" d="M 97.2331,52.4812 134.526,63.6692 z" id="boundary" inkscape:connector-curvature="0" />
	<path style="fill:none;stroke:red;stroke-width:1px;stroke-linecap:butt;stroke-linejoin:miter;stroke-opacity:1" d="M 153.173,134.526 119.609,171.82 z" id="boundary" inkscape:connector-curvature="0" />
	<path style="fill:none;stroke:red;stroke-width:1px;stroke-linecap:butt;stroke-linejoin:miter;stroke-opacity:1" d="M 82.3158,171.82 59.9398,141.985 z" id="boundary" inkscape:connector-curvature="0" />
	<path style="fill:none;stroke:red;stroke-width:1px;stroke-linecap:butt;stroke-linejoin:miter;stroke-opacity:1" d="M 4,183.008 22.6466,145.714 z" id="boundary" inkscape:connector-curvature="0" />
	<path style="fill:none;stroke:red;stroke-width:1px;stroke-linecap:butt;stroke-linejoin:miter;stroke-opacity:1" d="M 4,183.008 22.6466,216.571 z" id="boundary" inkscape:connector-curvature="0" />
	<path style="fill:none;stroke:red;stroke-width:1px;stroke-linecap:butt;stroke-linejoin:miter;stroke-opacity:1" d="M 22.6466,216.571 22.6466,253.865 z" id="boundary" inkscape:connector-curvature="0" />
	<path style="fill:none;stroke:red;stroke-width:1px;stroke-linecap:butt;stroke-linejoin:miter;stroke-opacity:1" d="M 82.3158,171.82 119.609,171.82 z" id="boundary" inkscape:connector-curvature="0" />
	<path style="fill:none;stroke:red;stroke-width:1px;stroke-linecap:butt;stroke-linejoin:miter;stroke-opacity:1" d="M 134.526,63.6692 153.173,97.2331 z" id="boundary" inkscape:connector-curvature="0" />
	<path style="fill:none;stroke:red;stroke-width:1px;stroke-linecap:butt;stroke-linejoin:miter;stroke-opacity:1" d="M 134.526,4 171.82,4 z" id="boundary" inkscape:connector-curvature="0" />
	<path style="fill:none;stroke:red;stroke-width:1px;stroke-linecap:butt;stroke-linejoin:miter;stroke-opacity:1" d="M 209.113,4 171.82,4 z" id="boundary" inkscape:connector-curvature="0" />
	<path style="fill:none;stroke:red;stroke-width:1px;stroke-linecap:butt;stroke-linejoin:miter;stroke-opacity:1" d="M 209.113,4 238.947,26.3759 z" id="boundary" inkscape:connector-curvature="0" />
	<path style="fill:none;stroke:red;stroke-width:1px;stroke-linecap:butt;stroke-linejoin:miter;stroke-opacity:1" d="M 268.782,52.4812 238.947,26.3759 z" id="boundary" inkscape:connector-curvature="0" />
	<path style="fill:none;stroke:red;stroke-width:1px;stroke-linecap:butt;stroke-linejoin:miter;stroke-opacity:1" d="M 302.346,71.1278 268.782,52.4812 z" id="boundary" inkscape:connector-curvature="0" />
	<path style="fill:none;stroke:red;stroke-width:1px;stroke-linecap:butt;stroke-linejoin:miter;stroke-opacity:1" d="M 302.346,71.1278 306.075,108.421 z" id="boundary" inkscape:connector-curvature="0" />
	<path style="fill:none;stroke:red;stroke-width:1px;stroke-linecap:butt;stroke-linejoin:miter;stroke-opacity:1" d="M 153.173,134.526 153.173,97.2331 z" id="boundary" inkscape:connector-curvature="0" />
	<path style="fill:none;stroke:red;stroke-width:1px;stroke-linecap:butt;stroke-linejoin:miter;stroke-opacity:1" d="M 306.075,108.421 324.722,141.985 z" id="boundary" inkscape:connector-curvature="0" />
	<path style="fill:none;stroke:red;stroke-width:1px;stroke-linecap:butt;stroke-linejoin:miter;stroke-opacity:1" d="M 324.722,141.985 335.91,179.278 z" id="boundary" inkscape:connector-curvature="0" />
	<path style="fill:none;stroke:red;stroke-width:1px;stroke-linecap:butt;stroke-linejoin:miter;stroke-opacity:1" d="M 335.91,179.278 343.368,216.571 z" id="boundary" inkscape:connector-curvature="0" />
	<path style="fill:none;stroke:red;stroke-width:1px;stroke-linecap:butt;stroke-linejoin:miter;stroke-opacity:1" d="M 362.015,250.135 343.368,216.571 z" id="boundary" inkscape:connector-curvature="0" />
	<path style="fill:none;stroke:red;stroke-width:1px;stroke-linecap:butt;stroke-linejoin:miter;stroke-opacity:1" d="M 380.662,283.699 362.015,250.135 z" id="boundary" inkscape:connector-curvature="0" />
	<path style="fill:none;stroke:red;stroke-width:1px;stroke-linecap:butt;stroke-linejoin:miter;stroke-opacity:1" d="M 41.2932,287.429 22.6466,253.865 z" id="boundary" inkscape:connector-curvature="0" />
	<path style="fill:none;stroke:red;stroke-width:1px;stroke-linecap:butt;stroke-linejoin:miter;stroke-opacity:1" d="M 63.6692,317.263 41.2932,287.429 z" id="boundary" inkscape:connector-curvature="0" />
	<path style="fill:none;stroke:red;stroke-width:1px;stroke-linecap:butt;stroke-linejoin:miter;stroke-opacity:1" d="M 63.6692,317.263 100.962,324.722 z" id="boundary" inkscape:connector-curvature="0" />
	<path style="fill:none;stroke:red;stroke-width:1px;stroke-linecap:butt;stroke-linejoin:miter;stroke-opacity:1" d="M 134.526,343.368 100.962,324.722 z" id="boundary" inkscape:connector-curvature="0" />
	<path style="fill:none;stroke:red;stroke-width:1px;stroke-linecap:butt;stroke-linejoin:miter;stroke-opacity:1" d="M 205.383,362.015 168.09,362.015 z" id="boundary" inkscape:connector-curvature="0" />
	<path style="fill:none;stroke:red;stroke-width:1px;stroke-linecap:butt;stroke-linejoin:miter;stroke-opacity:1" d="M 168.09,362.015 134.526,343.368 z" id="boundary" inkscape:connector-curvature="0" />
	<path style="fill:none;stroke:red;stroke-width:1px;stroke-linecap:butt;stroke-linejoin:miter;stroke-opacity:1" d="M 238.947,380.662 205.383,362.015 z" id="boundary" inkscape:connector-curvature="0" />
	<path style="fill:none;stroke:red;stroke-width:1px;stroke-linecap:butt;stroke-linejoin:miter;stroke-opacity:1" d="M 268.782,406.767 238.947,380.662 z" id="boundary" inkscape:connector-curvature="0" />
	<path style="fill:none;stroke:red;stroke-width:1px;stroke-linecap:butt;stroke-linejoin:miter;stroke-opacity:1" d="M 268.782,406.767 294.887,436.602 z" id="boundary" inkscape:connector-curvature="0" />
	<path style="fill:none;stroke:red;stroke-width:1px;stroke-linecap:butt;stroke-linejoin:miter;stroke-opacity:1" d="M 294.887,436.602 313.534,470.165 z" id="boundary" inkscape:connector-curvature="0" />
	<path style="fill:none;stroke:red;stroke-width:1px;stroke-linecap:butt;stroke-linejoin:miter;stroke-opacity:1" d="M 399.308,317.263 380.662,283.699 z" id="boundary" inkscape:connector-curvature="0" />
	<path style="fill:none;stroke:red;stroke-width:1px;stroke-linecap:butt;stroke-linejoin:miter;stroke-opacity:1" d="M 417.955,350.827 399.308,317.263 z" id="boundary" inkscape:connector-curvature="0" />
	<path style="fill:none;stroke:red;stroke-width:1px;stroke-linecap:butt;stroke-linejoin:miter;stroke-opacity:1" d="M 313.534,470.165 347.098,488.812 z" id="boundary" inkscape:connector-curvature="0" />
	<path style="fill:none;stroke:red;stroke-width:1px;stroke-linecap:butt;stroke-linejoin:miter;stroke-opacity:1" d="M 376.932,511.188 347.098,488.812 z" id="boundary" inkscape:connector-curvature="0" />
	<path style="fill:none;stroke:red;stroke-width:1px;stroke-linecap:butt;stroke-linejoin:miter;stroke-opacity:1" d="M 376.932,511.188 399.308,541.023 z" id="boundary" inkscape:connector-curvature="0" />
	<path style="fill:none;stroke:red;stroke-width:1px;stroke-linecap:butt;stroke-linejoin:miter;stroke-opacity:1" d="M 414.226,578.316 432.872,611.88 z" id="boundary" inkscape:connector-curvature="0" />
	<path style="fill:none;stroke:red;stroke-width:1px;stroke-linecap:butt;stroke-linejoin:miter;stroke-opacity:1" d="M 399.308,541.023 414.226,578.316 z" id="boundary" inkscape:connector-curvature="0" />
	<path style="fill:none;stroke:red;stroke-width:1px;stroke-linecap:butt;stroke-linejoin:miter;stroke-opacity:1" d="M 417.955,350.827 436.602,384.391 z" id="boundary" inkscape:connector-curvature="0" />
	<path style="fill:none;stroke:red;stroke-width:1px;stroke-linecap:butt;stroke-linejoin:miter;stroke-opacity:1" d="M 458.977,414.226 436.602,384.391 z" id="boundary" inkscape:connector-curvature="0" />
	<path style="fill:none;stroke:red;stroke-width:1px;stroke-linecap:butt;stroke-linejoin:miter;stroke-opacity:1" d="M 458.977,414.226 488.812,440.331 z" id="boundary" inkscape:connector-curvature="0" />
	<path style="fill:none;stroke:red;stroke-width:1px;stroke-linecap:butt;stroke-linejoin:miter;stroke-opacity:1" d="M 582.045,552.211 563.398,518.647 z" id="boundary" inkscape:connector-curvature="0" />
	<path style="fill:none;stroke:red;stroke-width:1px;stroke-linecap:butt;stroke-linejoin:miter;stroke-opacity:1" d="M 511.188,470.165 488.812,440.331 z" id="boundary" inkscape:connector-curvature="0" />
	<path style="fill:none;stroke:red;stroke-width:1px;stroke-linecap:butt;stroke-linejoin:miter;stroke-opacity:1" d="M 511.188,470.165 548.481,481.353 z" id="boundary" inkscape:connector-curvature="0" />
	<path style="fill:none;stroke:red;stroke-width:1px;stroke-linecap:butt;stroke-linejoin:miter;stroke-opacity:1" d="M 548.481,481.353 563.398,518.647 z" id="boundary" inkscape:connector-curvature="0" />
	<path style="fill:none;stroke:red;stroke-width:1px;stroke-linecap:butt;stroke-linejoin:miter;stroke-opacity:1" d="M 462.707,637.985 432.872,611.88 z" id="boundary" inkscape:connector-curvature="0" />
	<path style="fill:none;stroke:red;stroke-width:1px;stroke-linecap:butt;stroke-linejoin:miter;stroke-opacity:1" d="M 496.271,656.632 462.707,637.985 z" id="boundary" inkscape:connector-curvature="0" />
	<path style="fill:none;stroke:red;stroke-width:1px;stroke-linecap:butt;stroke-linejoin:miter;stroke-opacity:1" d="M 596.962,589.504 582.045,552.211 z" id="boundary" inkscape:connector-curvature="0" />
	<path style="fill:none;stroke:red;stroke-width:1px;stroke-linecap:butt;stroke-linejoin:miter;stroke-opacity:1" d="M 526.105,679.008 496.271,656.632 z" id="boundary" inkscape:connector-curvature="0" />
	<path style="fill:none;stroke:red;stroke-width:1px;stroke-linecap:butt;stroke-linejoin:miter;stroke-opacity:1" d="M 596.962,589.504 623.068,619.338 z" id="boundary" inkscape:connector-curvature="0" />
	<path style="fill:none;stroke:red;stroke-width:1px;stroke-linecap:butt;stroke-linejoin:miter;stroke-opacity:1" d="M 652.902,641.714 623.068,619.338 z" id="boundary" inkscape:connector-curvature="0" />
	<path style="fill:none;stroke:red;stroke-width:1px;stroke-linecap:butt;stroke-linejoin:miter;stroke-opacity:1" d="M 679.008,671.549 652.902,641.714 z" id="boundary" inkscape:connector-curvature="0" />
	<path style="fill:none;stroke:red;stroke-width:1px;stroke-linecap:butt;stroke-linejoin:miter;stroke-opacity:1" d="M 708.842,693.925 679.008,671.549 z" id="boundary" inkscape:connector-curvature="0" />
	<path style="fill:none;stroke:red;stroke-width:1px;stroke-linecap:butt;stroke-linejoin:miter;stroke-opacity:1" d="M 548.481,708.842 526.105,679.008 z" id="boundary" inkscape:connector-curvature="0" />
	<path style="fill:none;stroke:red;stroke-width:1px;stroke-linecap:butt;stroke-linejoin:miter;stroke-opacity:1" d="M 578.316,734.947 548.481,708.842 z" id="boundary" inkscape:connector-curvature="0" />
	<path style="fill:none;stroke:red;stroke-width:1px;stroke-linecap:butt;stroke-linejoin:miter;stroke-opacity:1" d="M 593.233,772.241 578.316,734.947 z" id="boundary" inkscape:connector-curvature="0" />
	<path style="fill:none;stroke:red;stroke-width:1px;stroke-linecap:butt;stroke-linejoin:miter;stroke-opacity:1" d="M 734.947,723.759 708.842,693.925 z" id="boundary" inkscape:connector-curvature="0" />
	<path style="fill:none;stroke:red;stroke-width:1px;stroke-linecap:butt;stroke-linejoin:miter;stroke-opacity:1" d="M 626.797,790.887 593.233,772.241 z" id="boundary" inkscape:connector-curvature="0" />
	<path style="fill:none;stroke:red;stroke-width:1px;stroke-linecap:butt;stroke-linejoin:miter;stroke-opacity:1" d="M 656.632,813.263 626.797,790.887 z" id="boundary" inkscape:connector-curvature="0" />
	<path style="fill:none;stroke:red;stroke-width:1px;stroke-linecap:butt;stroke-linejoin:miter;stroke-opacity:1" d="M 656.632,813.263 682.737,843.098 z" id="boundary" inkscape:connector-curvature="0" />
	<path style="fill:none;stroke:red;stroke-width:1px;stroke-linecap:butt;stroke-linejoin:miter;stroke-opacity:1" d="M 712.571,865.474 734.947,895.308 z" id="boundary" inkscape:connector-curvature="0" />
	<path style="fill:none;stroke:red;stroke-width:1px;stroke-linecap:butt;stroke-linejoin:miter;stroke-opacity:1" d="M 712.571,865.474 682.737,843.098 z" id="boundary" inkscape:connector-curvature="0" />
	<path style="fill:none;stroke:red;stroke-width:1px;stroke-linecap:butt;stroke-linejoin:miter;stroke-opacity:1" d="M 734.947,895.308 749.865,932.602 z" id="boundary" inkscape:connector-curvature="0" />
	<path style="fill:none;stroke:red;stroke-width:1px;stroke-linecap:butt;stroke-linejoin:miter;stroke-opacity:1" d="M 734.947,723.759 761.053,753.594 z" id="boundary" inkscape:connector-curvature="0" />
	<path style="fill:none;stroke:red;stroke-width:1px;stroke-linecap:butt;stroke-linejoin:miter;stroke-opacity:1" d="M 761.053,753.594 790.887,779.699 z" id="boundary" inkscape:connector-curvature="0" />
	<path style="fill:none;stroke:red;stroke-width:1px;stroke-linecap:butt;stroke-linejoin:miter;stroke-opacity:1" d="M 790.887,779.699 805.805,816.992 z" id="boundary" inkscape:connector-curvature="0" />
	<path style="fill:none;stroke:red;stroke-width:1px;stroke-linecap:butt;stroke-linejoin:miter;stroke-opacity:1" d="M 843.098,831.91 805.805,816.992 z" id="boundary" inkscape:connector-curvature="0" />
	<path style="fill:none;stroke:red;stroke-width:1px;stroke-linecap:butt;stroke-linejoin:miter;stroke-opacity:1" d="M 843.098,831.91 865.474,861.744 z" id="boundary" inkscape:connector-curvature="0" />
	<path style="fill:none;stroke:red;stroke-width:1px;stroke-linecap:butt;stroke-linejoin:miter;stroke-opacity:1" d="M 895.308,884.12 865.474,861.744 z" id="boundary" inkscape:connector-curvature="0" />
	<path style="fill:none;stroke:red;stroke-width:1px;stroke-linecap:butt;stroke-linejoin:miter;stroke-opacity:1" d="M 921.414,913.955 895.308,884.12 z" id="boundary" inkscape:connector-curvature="0" />
	<path style="fill:none;stroke:red;stroke-width:1px;stroke-linecap:butt;stroke-linejoin:miter;stroke-opacity:1" d="M 749.865,932.602 779.699,958.707 z" id="boundary" inkscape:connector-curvature="0" />
	<path style="fill:none;stroke:red;stroke-width:1px;stroke-linecap:butt;stroke-linejoin:miter;stroke-opacity:1" d="M 846.827,996 809.534,984.812 z" id="boundary" inkscape:connector-curvature="0" />
	<path style="fill:none;stroke:red;stroke-width:1px;stroke-linecap:butt;stroke-linejoin:miter;stroke-opacity:1" d="M 809.534,984.812 779.699,958.707 z" id="boundary" inkscape:connector-curvature="0" />
	<path style="fill:none;stroke:red;stroke-width:1px;stroke-linecap:butt;stroke-linejoin:miter;stroke-opacity:1" d="M 921.414,913.955 921.414,951.248 z" id="boundary" inkscape:connector-curvature="0" />
	<path style="fill:none;stroke:red;stroke-width:1px;stroke-linecap:butt;stroke-linejoin:miter;stroke-opacity:1" d="M 884.12,996 846.827,996 z" id="boundary" inkscape:connector-curvature="0" />
	<path style="fill:none;stroke:red;stroke-width:1px;stroke-linecap:butt;stroke-linejoin:miter;stroke-opacity:1" d="M 884.12,996 921.414,951.248 z" id="boundary" inkscape:connector-curvature="0" />
	<circle cx="4" cy="183.008" r="4" fill="#0" id="circle0"/>
	<circle cx="22.6466" cy="145.714" r="4" fill="#0" id="circle1"/>
	<circle cx="22.6466" cy="216.571" r="4" fill="#0" id="circle2"/>
	<circle cx="22.6466" cy="253.865" r="4" fill="#0" id="circle3"/>
	<circle cx="41.2932" cy="287.429" r="4" fill="#0" id="circle4"/>
	<circle cx="59.9398" cy="141.985" r="4" fill="#0" id="circle5"/>
	<circle cx="63.6692" cy="317.263" r="4" fill="#0" id="circle6"/>
	<circle cx="82.3158" cy="171.82" r="4" fill="#0" id="circle7"/>
	<circle cx="97.2331" cy="15.188" r="4" fill="#0" id="circle8"/>
	<circle cx="97.2331" cy="52.4812" r="4" fill="#0" id="circle9"/>
	<circle cx="100.962" cy="324.722" r="4" fill="#0" id="circle10"/>
	<circle cx="119.609" cy="171.82" r="4" fill="#0" id="circle11"/>
	<circle cx="134.526" cy="4" r="4" fill="#0" id="circle12"/>
	<circle cx="134.526" cy="63.6692" r="4" fill="#0" id="circle13"/>
	<circle cx="134.526" cy="343.368" r="4" fill="#0" id="circle14"/>
	<circle cx="153.173" cy="97.2331" r="4" fill="#0" id="circle15"/>
	<circle cx="153.173" cy="134.526" r="4" fill="#0" id="circle16"/>
	<circle cx="168.09" cy="362.015" r="4" fill="#0" id="circle17"/>
	<circle cx="171.82" cy="4" r="4" fill="#0" id="circle18"/>
	<circle cx="205.383" cy="362.015" r="4" fill="#0" id="circle19"/>
	<circle cx="209.113" cy="4" r="4" fill="#0" id="circle20"/>
	<circle cx="238.947" cy="26.3759" r="4" fill="#0" id="circle21"/>
	<circle cx="238.947" cy="380.662" r="4" fill="#0" id="circle22"/>
	<circle cx="268.782" cy="52.4812" r="4" fill="#0" id="circle23"/>
	<circle cx="268.782" cy="406.767" r="4" fill="#0" id="circle24"/>
	<circle cx="294.887" cy="436.602" r="4" fill="#0" id="circle25"/>
	<circle cx="302.346" cy="71.1278" r="4" fill="#0" id="circle26"/>
	<circle cx="306.075" cy="108.421" r="4" fill="#0" id="circle27"/>
	<circle cx="313.534" cy="470.165" r="4" fill="#0" id="circle28"/>
	<circle cx="324.722" cy="141.985" r="4" fill="#0" id="circle29"/>
	<circle cx="335.91" cy="179.278" r="4" fill="#0" id="circle30"/>
	<circle cx="343.368" cy="216.571" r="4" fill="#0" id="circle31"/>
	<circle cx="347.098" cy="488.812" r="4" fill="#0" id="circle32"/>
	<circle cx="362.015" cy="250.135" r="4" fill="#0" id="circle33"/>
	<circle cx="376.932" cy="511.188" r="4" fill="#0" id="circle34"/>
	<circle cx="380.662" cy="283.699" r="4" fill="#0" id="circle35"/>
	<circle cx="399.308" cy="317.263" r="4" fill="#0" id="circle36"/>
	<circle cx="399.308" cy="541.023" r="4" fill="#0" id="circle37"/>
	<circle cx="414.226" cy="578.316" r="4" fill="#0" id="circle38"/>
	<circle cx="417.955" cy="350.827" r="4" fill="#0" id="circle39"/>
	<circle cx="432.872" cy="611.88" r="4" fill="#0" id="circle40"/>
	<circle cx="436.602" cy="384.391" r="4" fill="#0" id="circle41"/>
	<circle cx="458.977" cy="414.226" r="4" fill="#0" id="circle42"/>
	<circle cx="462.707" cy="637.985" r="4" fill="#0" id="circle43"/>
	<circle cx="488.812" cy="440.331" r="4" fill="#0" id="circle44"/>
	<circle cx="496.271" cy="656.632" r="4" fill="#0" id="circle45"/>
	<circle cx="511.188" cy="470.165" r="4" fill="#0" id="circle46"/>
	<circle cx="526.105" cy="679.008" r="4" fill="#0" id="circle47"/>
	<circle cx="548.481" cy="481.353" r="4" fill="#0" id="circle48"/>
	<circle cx="548.481" cy="708.842" r="4" fill="#0" id="circle49"/>
	<circle cx="563.398" cy="518.647" r="4" fill="#0" id="circle50"/>
	<circle cx="578.316" cy="734.947" r="4" fill="#0" id="circle51"/>
	<circle cx="582.045" cy="552.211" r="4" fill="#0" id="circle52"/>
	<circle cx="593.233" cy="772.241" r="4" fill="#0" id="circle53"/>
	<circle cx="596.962" cy="589.504" r="4" fill="#0" id="circle54"/>
	<circle cx="623.068" cy="619.338" r="4" fill="#0" id="circle55"/>
	<circle cx="626.797" cy="790.887" r="4" fill="#0" id="circle56"/>
	<circle cx="652.902" cy="641.714" r="4" fill="#0" id="circle57"/>
	<circle cx="656.632" cy="813.263" r="4" fill="#0" id="circle58"/>
	<circle cx="679.008" cy="671.549" r="4" fill="#0" id="circle59"/>
	<circle cx="682.737" cy="843.098" r="4" fill="#0" id="circle60"/>
	<circle cx="708.842" cy="693.925" r="4" fill="#0" id="circle61"/>
	<circle cx="712.571" cy="865.474" r="4" fill="#0" id="circle62"/>
	<circle cx="734.947" cy="723.759" r="4" fill="#0" id="circle63"/>
	<circle cx="734.947" cy="895.308" r="4" fill="#0" id="circle64"/>
	<circle cx="749.865" cy="932.602" r="4" fill="#0" id="circle65"/>
	<circle cx="761.053" cy="753.594" r="4" fill="#0" id="circle66"/>
	<circle cx="779.699" cy="958.707" r="4" fill="#0" id="circle67"/>
	<circle cx="790.887" cy="779.699" r="4" fill="#0" id="circle68"/>
	<circle cx="805.805" cy="816.992" r="4" fill="#0" id="circle69"/>
	<circle cx="809.534" cy="984.812" r="4" fill="#0" id="circle70"/>
	<circle cx="843.098" cy="831.91" r="4" fill="#0" id="circle71"/>
	<circle cx="846.827" cy="996" r="4" fill="#0" id="circle72"/>
	<circle cx="865.474" cy="861.744" r="4" fill="#0" id="circle73"/>
	<circle cx="884.12" cy="996" r="4" fill="#0" id="circle74"/>
	<circle cx="895.308" cy="884.12" r="4" fill="#0" id="circle75"/>
	<circle cx="921.414" cy="913.955" r="4" fill="#0" id="circle76"/>
	<circle cx="921.414" cy="951.248" r="4" fill="#0" id="circle77"/>
	</g>
</svg>