<?xml version="1.0" encoding="UTF-8" standalone="no"?>
<!-- Created with CurveBenchmark -->
<svg
	xmlns:dc="http://purl.org/dc/elements/1.1/"
	xmlns:cc="http://creativecommons.org/ns#"
	xmlns:rdf="http://www.w3.org/1999/02/22-rdf-syntax-ns#"
	xmlns:svg="http://www.w3.org/2000/svg"
	xmlns="http://www.w3.org/2000/svg"
	xmlns:sodipodi="http://sodipodi.sourceforge.net/DTD/sodipodi-0.dtd"
	xmlns:inkscape="http://www.inkscape.org/namespaces/inkscape"
	width="1000"
	height="1000"
	id="svg2"
	version="1.1"
	sodipodi:docname="manifold/crust-television305.png.txt">
<defs
	id="defs4" />
<metadata
	id="metadata7">
	<rdf:RDF>
		<cc:Work
			rdf:about="">
			<dc:format>image/svg+xml</dc:format>
			<dc:type
				rdf:resource="http://purl.org/dc/dcmitype/StillImage" />
			<dc:title></dc:title>
		</cc:Work>
	</rdf:RDF>
</metadata>
<g
	inkscape:label="Layer 1"
	inkscape:groupmode="layer"
	id="layer1">
	<path style="fill:none;stroke:red;stroke-width:1px;stroke-linecap:butt;stroke-linejoin:miter;stroke-opacity:1" d="M 192.206,51.0514 192.206,11.8419 z" id="boundary" inkscape:connector-curvature="0" />
	<path style="fill:none;stroke:red;stroke-width:1px;stroke-linecap:butt;stroke-linejoin:miter;stroke-opacity:1" d="M 231.415,4 192.206,11.8419 z" id="boundary" inkscape:connector-curvature="0" />
	<path style="fill:none;stroke:red;stroke-width:1px;stroke-linecap:butt;stroke-linejoin:miter;stroke-opacity:1" d="M 192.206,129.47 192.206,90.2609 z" id="boundary" inkscape:connector-curvature="0" />
	<path style="fill:none;stroke:red;stroke-width:1px;stroke-linecap:butt;stroke-linejoin:miter;stroke-opacity:1" d="M 192.206,90.2609 192.206,51.0514 z" id="boundary" inkscape:connector-curvature="0" />
	<path style="fill:none;stroke:red;stroke-width:1px;stroke-linecap:butt;stroke-linejoin:miter;stroke-opacity:1" d="M 231.415,4 270.625,4 z" id="boundary" inkscape:connector-curvature="0" />
	<path style="fill:none;stroke:red;stroke-width:1px;stroke-linecap:butt;stroke-linejoin:miter;stroke-opacity:1" d="M 192.206,325.518 192.206,286.308 z" id="boundary" inkscape:connector-curvature="0" />
	<path style="fill:none;stroke:red;stroke-width:1px;stroke-linecap:butt;stroke-linejoin:miter;stroke-opacity:1" d="M 192.206,168.68 192.206,129.47 z" id="boundary" inkscape:connector-curvature="0" />
	<path style="fill:none;stroke:red;stroke-width:1px;stroke-linecap:butt;stroke-linejoin:miter;stroke-opacity:1" d="M 192.206,207.889 192.206,168.68 z" id="boundary" inkscape:connector-curvature="0" />
	<path style="fill:none;stroke:red;stroke-width:1px;stroke-linecap:butt;stroke-linejoin:miter;stroke-opacity:1" d="M 192.206,207.889 192.206,247.099 z" id="boundary" inkscape:connector-curvature="0" />
	<path style="fill:none;stroke:red;stroke-width:1px;stroke-linecap:butt;stroke-linejoin:miter;stroke-opacity:1" d="M 192.206,286.308 192.206,247.099 z" id="boundary" inkscape:connector-curvature="0" />
	<path style="fill:none;stroke:red;stroke-width:1px;stroke-linecap:butt;stroke-linejoin:miter;stroke-opacity:1" d="M 192.206,403.937 192.206,364.727 z" id="boundary" inkscape:connector-curvature="0" />
	<path style="fill:none;stroke:red;stroke-width:1px;stroke-linecap:butt;stroke-linejoin:miter;stroke-opacity:1" d="M 192.206,443.146 192.206,403.937 z" id="boundary" inkscape:connector-curvature="0" />
	<path style="fill:none;stroke:red;stroke-width:1px;stroke-linecap:butt;stroke-linejoin:miter;stroke-opacity:1" d="M 192.206,325.518 192.206,364.727 z" id="boundary" inkscape:connector-curvature="0" />
	<path style="fill:none;stroke:red;stroke-width:1px;stroke-linecap:butt;stroke-linejoin:miter;stroke-opacity:1" d="M 192.206,482.356 196.126,521.565 z" id="boundary" inkscape:connector-curvature="0" />
	<path style="fill:none;stroke:red;stroke-width:1px;stroke-linecap:butt;stroke-linejoin:miter;stroke-opacity:1" d="M 196.126,521.565 235.336,525.486 z" id="boundary" inkscape:connector-curvature="0" />
	<path style="fill:none;stroke:red;stroke-width:1px;stroke-linecap:butt;stroke-linejoin:miter;stroke-opacity:1" d="M 192.206,443.146 192.206,482.356 z" id="boundary" inkscape:connector-curvature="0" />
	<path style="fill:none;stroke:red;stroke-width:1px;stroke-linecap:butt;stroke-linejoin:miter;stroke-opacity:1" d="M 172.601,690.166 137.312,670.561 z" id="boundary" inkscape:connector-curvature="0" />
	<path style="fill:none;stroke:red;stroke-width:1px;stroke-linecap:butt;stroke-linejoin:miter;stroke-opacity:1" d="M 192.206,654.877 231.415,654.877 z" id="boundary" inkscape:connector-curvature="0" />
	<path style="fill:none;stroke:red;stroke-width:1px;stroke-linecap:butt;stroke-linejoin:miter;stroke-opacity:1" d="M 211.81,690.166 172.601,690.166 z" id="boundary" inkscape:connector-curvature="0" />
	<path style="fill:none;stroke:red;stroke-width:1px;stroke-linecap:butt;stroke-linejoin:miter;stroke-opacity:1" d="M 274.545,525.486 235.336,525.486 z" id="boundary" inkscape:connector-curvature="0" />
	<path style="fill:none;stroke:red;stroke-width:1px;stroke-linecap:butt;stroke-linejoin:miter;stroke-opacity:1" d="M 313.755,525.486 274.545,525.486 z" id="boundary" inkscape:connector-curvature="0" />
	<path style="fill:none;stroke:red;stroke-width:1px;stroke-linecap:butt;stroke-linejoin:miter;stroke-opacity:1" d="M 251.02,690.166 211.81,690.166 z" id="boundary" inkscape:connector-curvature="0" />
	<path style="fill:none;stroke:red;stroke-width:1px;stroke-linecap:butt;stroke-linejoin:miter;stroke-opacity:1" d="M 270.625,654.877 231.415,654.877 z" id="boundary" inkscape:connector-curvature="0" />
	<path style="fill:none;stroke:red;stroke-width:1px;stroke-linecap:butt;stroke-linejoin:miter;stroke-opacity:1" d="M 290.229,690.166 251.02,690.166 z" id="boundary" inkscape:connector-curvature="0" />
	<path style="fill:none;stroke:red;stroke-width:1px;stroke-linecap:butt;stroke-linejoin:miter;stroke-opacity:1" d="M 270.625,4 309.834,4 z" id="boundary" inkscape:connector-curvature="0" />
	<path style="fill:none;stroke:red;stroke-width:1px;stroke-linecap:butt;stroke-linejoin:miter;stroke-opacity:1" d="M 309.834,4 349.043,4 z" id="boundary" inkscape:connector-curvature="0" />
	<path style="fill:none;stroke:red;stroke-width:1px;stroke-linecap:butt;stroke-linejoin:miter;stroke-opacity:1" d="M 349.043,4 388.253,4 z" id="boundary" inkscape:connector-curvature="0" />
	<path style="fill:none;stroke:red;stroke-width:1px;stroke-linecap:butt;stroke-linejoin:miter;stroke-opacity:1" d="M 388.253,4 427.462,4 z" id="boundary" inkscape:connector-curvature="0" />
	<path style="fill:none;stroke:red;stroke-width:1px;stroke-linecap:butt;stroke-linejoin:miter;stroke-opacity:1" d="M 466.672,4 505.881,4 z" id="boundary" inkscape:connector-curvature="0" />
	<path style="fill:none;stroke:red;stroke-width:1px;stroke-linecap:butt;stroke-linejoin:miter;stroke-opacity:1" d="M 427.462,4 466.672,4 z" id="boundary" inkscape:connector-curvature="0" />
	<path style="fill:none;stroke:red;stroke-width:1px;stroke-linecap:butt;stroke-linejoin:miter;stroke-opacity:1" d="M 325.518,603.905 309.834,654.877 z" id="boundary" inkscape:connector-curvature="0" />
	<path style="fill:none;stroke:red;stroke-width:1px;stroke-linecap:butt;stroke-linejoin:miter;stroke-opacity:1" d="M 270.625,654.877 309.834,654.877 z" id="boundary" inkscape:connector-curvature="0" />
	<path style="fill:none;stroke:red;stroke-width:1px;stroke-linecap:butt;stroke-linejoin:miter;stroke-opacity:1" d="M 325.518,564.696 313.755,525.486 z" id="boundary" inkscape:connector-curvature="0" />
	<path style="fill:none;stroke:red;stroke-width:1px;stroke-linecap:butt;stroke-linejoin:miter;stroke-opacity:1" d="M 325.518,564.696 325.518,603.905 z" id="boundary" inkscape:connector-curvature="0" />
	<path style="fill:none;stroke:red;stroke-width:1px;stroke-linecap:butt;stroke-linejoin:miter;stroke-opacity:1" d="M 325.518,709.771 290.229,690.166 z" id="boundary" inkscape:connector-curvature="0" />
	<path style="fill:none;stroke:red;stroke-width:1px;stroke-linecap:butt;stroke-linejoin:miter;stroke-opacity:1" d="M 509.802,568.617 509.802,529.407 z" id="boundary" inkscape:connector-curvature="0" />
	<path style="fill:none;stroke:red;stroke-width:1px;stroke-linecap:butt;stroke-linejoin:miter;stroke-opacity:1" d="M 509.802,529.407 549.012,525.486 z" id="boundary" inkscape:connector-curvature="0" />
	<path style="fill:none;stroke:red;stroke-width:1px;stroke-linecap:butt;stroke-linejoin:miter;stroke-opacity:1" d="M 509.802,568.617 509.802,607.826 z" id="boundary" inkscape:connector-curvature="0" />
	<path style="fill:none;stroke:red;stroke-width:1px;stroke-linecap:butt;stroke-linejoin:miter;stroke-opacity:1" d="M 509.802,647.036 509.802,694.087 z" id="boundary" inkscape:connector-curvature="0" />
	<path style="fill:none;stroke:red;stroke-width:1px;stroke-linecap:butt;stroke-linejoin:miter;stroke-opacity:1" d="M 509.802,607.826 509.802,647.036 z" id="boundary" inkscape:connector-curvature="0" />
	<path style="fill:none;stroke:red;stroke-width:1px;stroke-linecap:butt;stroke-linejoin:miter;stroke-opacity:1" d="M 509.802,694.087 509.802,733.296 z" id="boundary" inkscape:connector-curvature="0" />
	<path style="fill:none;stroke:red;stroke-width:1px;stroke-linecap:butt;stroke-linejoin:miter;stroke-opacity:1" d="M 509.802,647.036 549.012,654.877 z" id="boundary" inkscape:connector-curvature="0" />
	<path style="fill:none;stroke:red;stroke-width:1px;stroke-linecap:butt;stroke-linejoin:miter;stroke-opacity:1" d="M 168.68,815.636 137.312,788.19 z" id="boundary" inkscape:connector-curvature="0" />
	<path style="fill:none;stroke:red;stroke-width:1px;stroke-linecap:butt;stroke-linejoin:miter;stroke-opacity:1" d="M 82.419,897.976 43.2095,897.976 z" id="boundary" inkscape:connector-curvature="0" />
	<path style="fill:none;stroke:red;stroke-width:1px;stroke-linecap:butt;stroke-linejoin:miter;stroke-opacity:1" d="M 121.628,897.976 82.419,897.976 z" id="boundary" inkscape:connector-curvature="0" />
	<path style="fill:none;stroke:red;stroke-width:1px;stroke-linecap:butt;stroke-linejoin:miter;stroke-opacity:1" d="M 160.838,897.976 121.628,897.976 z" id="boundary" inkscape:connector-curvature="0" />
	<path style="fill:none;stroke:red;stroke-width:1px;stroke-linecap:butt;stroke-linejoin:miter;stroke-opacity:1" d="M 43.2095,897.976 4,913.66 z" id="boundary" inkscape:connector-curvature="0" />
	<path style="fill:none;stroke:red;stroke-width:1px;stroke-linecap:butt;stroke-linejoin:miter;stroke-opacity:1" d="M 227.494,780.348 188.285,780.348 z" id="boundary" inkscape:connector-curvature="0" />
	<path style="fill:none;stroke:red;stroke-width:1px;stroke-linecap:butt;stroke-linejoin:miter;stroke-opacity:1" d="M 227.494,780.348 266.704,780.348 z" id="boundary" inkscape:connector-curvature="0" />
	<path style="fill:none;stroke:red;stroke-width:1px;stroke-linecap:butt;stroke-linejoin:miter;stroke-opacity:1" d="M 168.68,815.636 207.889,815.636 z" id="boundary" inkscape:connector-curvature="0" />
	<path style="fill:none;stroke:red;stroke-width:1px;stroke-linecap:butt;stroke-linejoin:miter;stroke-opacity:1" d="M 207.889,815.636 247.099,815.636 z" id="boundary" inkscape:connector-curvature="0" />
	<path style="fill:none;stroke:red;stroke-width:1px;stroke-linecap:butt;stroke-linejoin:miter;stroke-opacity:1" d="M 4,952.87 4,913.66 z" id="boundary" inkscape:connector-curvature="0" />
	<path style="fill:none;stroke:red;stroke-width:1px;stroke-linecap:butt;stroke-linejoin:miter;stroke-opacity:1" d="M 149.075,980.316 109.866,980.316 z" id="boundary" inkscape:connector-curvature="0" />
	<path style="fill:none;stroke:red;stroke-width:1px;stroke-linecap:butt;stroke-linejoin:miter;stroke-opacity:1" d="M 31.4466,984.237 4,952.87 z" id="boundary" inkscape:connector-curvature="0" />
	<path style="fill:none;stroke:red;stroke-width:1px;stroke-linecap:butt;stroke-linejoin:miter;stroke-opacity:1" d="M 70.6561,992.079 31.4466,984.237 z" id="boundary" inkscape:connector-curvature="0" />
	<path style="fill:none;stroke:red;stroke-width:1px;stroke-linecap:butt;stroke-linejoin:miter;stroke-opacity:1" d="M 109.866,980.316 70.6561,992.079 z" id="boundary" inkscape:connector-curvature="0" />
	<path style="fill:none;stroke:red;stroke-width:1px;stroke-linecap:butt;stroke-linejoin:miter;stroke-opacity:1" d="M 160.838,897.976 200.047,897.976 z" id="boundary" inkscape:connector-curvature="0" />
	<path style="fill:none;stroke:red;stroke-width:1px;stroke-linecap:butt;stroke-linejoin:miter;stroke-opacity:1" d="M 200.047,897.976 239.257,897.976 z" id="boundary" inkscape:connector-curvature="0" />
	<path style="fill:none;stroke:red;stroke-width:1px;stroke-linecap:butt;stroke-linejoin:miter;stroke-opacity:1" d="M 188.285,980.316 149.075,980.316 z" id="boundary" inkscape:connector-curvature="0" />
	<path style="fill:none;stroke:red;stroke-width:1px;stroke-linecap:butt;stroke-linejoin:miter;stroke-opacity:1" d="M 227.494,980.316 266.704,980.316 z" id="boundary" inkscape:connector-curvature="0" />
	<path style="fill:none;stroke:red;stroke-width:1px;stroke-linecap:butt;stroke-linejoin:miter;stroke-opacity:1" d="M 227.494,980.316 188.285,980.316 z" id="boundary" inkscape:connector-curvature="0" />
	<path style="fill:none;stroke:red;stroke-width:1px;stroke-linecap:butt;stroke-linejoin:miter;stroke-opacity:1" d="M 286.308,815.636 247.099,815.636 z" id="boundary" inkscape:connector-curvature="0" />
	<path style="fill:none;stroke:red;stroke-width:1px;stroke-linecap:butt;stroke-linejoin:miter;stroke-opacity:1" d="M 266.704,780.348 305.913,780.348 z" id="boundary" inkscape:connector-curvature="0" />
	<path style="fill:none;stroke:red;stroke-width:1px;stroke-linecap:butt;stroke-linejoin:miter;stroke-opacity:1" d="M 325.518,709.771 305.913,780.348 z" id="boundary" inkscape:connector-curvature="0" />
	<path style="fill:none;stroke:red;stroke-width:1px;stroke-linecap:butt;stroke-linejoin:miter;stroke-opacity:1" d="M 305.913,780.348 325.518,819.557 z" id="boundary" inkscape:connector-curvature="0" />
	<path style="fill:none;stroke:red;stroke-width:1px;stroke-linecap:butt;stroke-linejoin:miter;stroke-opacity:1" d="M 509.802,772.506 509.802,733.296 z" id="boundary" inkscape:connector-curvature="0" />
	<path style="fill:none;stroke:red;stroke-width:1px;stroke-linecap:butt;stroke-linejoin:miter;stroke-opacity:1" d="M 509.802,772.506 509.802,819.557 z" id="boundary" inkscape:connector-curvature="0" />
	<path style="fill:none;stroke:red;stroke-width:1px;stroke-linecap:butt;stroke-linejoin:miter;stroke-opacity:1" d="M 509.802,772.506 549.012,780.348 z" id="boundary" inkscape:connector-curvature="0" />
	<path style="fill:none;stroke:red;stroke-width:1px;stroke-linecap:butt;stroke-linejoin:miter;stroke-opacity:1" d="M 325.518,858.767 325.518,819.557 z" id="boundary" inkscape:connector-curvature="0" />
	<path style="fill:none;stroke:red;stroke-width:1px;stroke-linecap:butt;stroke-linejoin:miter;stroke-opacity:1" d="M 509.802,819.557 509.802,858.767 z" id="boundary" inkscape:connector-curvature="0" />
	<path style="fill:none;stroke:red;stroke-width:1px;stroke-linecap:butt;stroke-linejoin:miter;stroke-opacity:1" d="M 325.518,858.767 317.676,897.976 z" id="boundary" inkscape:connector-curvature="0" />
	<path style="fill:none;stroke:red;stroke-width:1px;stroke-linecap:butt;stroke-linejoin:miter;stroke-opacity:1" d="M 239.257,897.976 278.466,897.976 z" id="boundary" inkscape:connector-curvature="0" />
	<path style="fill:none;stroke:red;stroke-width:1px;stroke-linecap:butt;stroke-linejoin:miter;stroke-opacity:1" d="M 278.466,897.976 317.676,897.976 z" id="boundary" inkscape:connector-curvature="0" />
	<path style="fill:none;stroke:red;stroke-width:1px;stroke-linecap:butt;stroke-linejoin:miter;stroke-opacity:1" d="M 423.542,980.316 384.332,980.316 z" id="boundary" inkscape:connector-curvature="0" />
	<path style="fill:none;stroke:red;stroke-width:1px;stroke-linecap:butt;stroke-linejoin:miter;stroke-opacity:1" d="M 305.913,996 266.704,980.316 z" id="boundary" inkscape:connector-curvature="0" />
	<path style="fill:none;stroke:red;stroke-width:1px;stroke-linecap:butt;stroke-linejoin:miter;stroke-opacity:1" d="M 345.123,980.316 305.913,996 z" id="boundary" inkscape:connector-curvature="0" />
	<path style="fill:none;stroke:red;stroke-width:1px;stroke-linecap:butt;stroke-linejoin:miter;stroke-opacity:1" d="M 345.123,980.316 384.332,980.316 z" id="boundary" inkscape:connector-curvature="0" />
	<path style="fill:none;stroke:red;stroke-width:1px;stroke-linecap:butt;stroke-linejoin:miter;stroke-opacity:1" d="M 513.723,897.976 552.933,897.976 z" id="boundary" inkscape:connector-curvature="0" />
	<path style="fill:none;stroke:red;stroke-width:1px;stroke-linecap:butt;stroke-linejoin:miter;stroke-opacity:1" d="M 509.802,858.767 513.723,897.976 z" id="boundary" inkscape:connector-curvature="0" />
	<path style="fill:none;stroke:red;stroke-width:1px;stroke-linecap:butt;stroke-linejoin:miter;stroke-opacity:1" d="M 462.751,980.316 501.96,980.316 z" id="boundary" inkscape:connector-curvature="0" />
	<path style="fill:none;stroke:red;stroke-width:1px;stroke-linecap:butt;stroke-linejoin:miter;stroke-opacity:1" d="M 462.751,980.316 423.542,980.316 z" id="boundary" inkscape:connector-curvature="0" />
	<path style="fill:none;stroke:red;stroke-width:1px;stroke-linecap:butt;stroke-linejoin:miter;stroke-opacity:1" d="M 501.96,980.316 541.17,980.316 z" id="boundary" inkscape:connector-curvature="0" />
	<path style="fill:none;stroke:red;stroke-width:1px;stroke-linecap:butt;stroke-linejoin:miter;stroke-opacity:1" d="M 541.17,980.316 580.379,980.316 z" id="boundary" inkscape:connector-curvature="0" />
	<path style="fill:none;stroke:red;stroke-width:1px;stroke-linecap:butt;stroke-linejoin:miter;stroke-opacity:1" d="M 545.091,4 584.3,4 z" id="boundary" inkscape:connector-curvature="0" />
	<path style="fill:none;stroke:red;stroke-width:1px;stroke-linecap:butt;stroke-linejoin:miter;stroke-opacity:1" d="M 549.012,525.486 588.221,525.486 z" id="boundary" inkscape:connector-curvature="0" />
	<path style="fill:none;stroke:red;stroke-width:1px;stroke-linecap:butt;stroke-linejoin:miter;stroke-opacity:1" d="M 588.221,525.486 627.431,525.486 z" id="boundary" inkscape:connector-curvature="0" />
	<path style="fill:none;stroke:red;stroke-width:1px;stroke-linecap:butt;stroke-linejoin:miter;stroke-opacity:1" d="M 623.51,4 662.719,4 z" id="boundary" inkscape:connector-curvature="0" />
	<path style="fill:none;stroke:red;stroke-width:1px;stroke-linecap:butt;stroke-linejoin:miter;stroke-opacity:1" d="M 701.929,4 741.138,7.92095 z" id="boundary" inkscape:connector-curvature="0" />
	<path style="fill:none;stroke:red;stroke-width:1px;stroke-linecap:butt;stroke-linejoin:miter;stroke-opacity:1" d="M 662.719,4 701.929,4 z" id="boundary" inkscape:connector-curvature="0" />
	<path style="fill:none;stroke:red;stroke-width:1px;stroke-linecap:butt;stroke-linejoin:miter;stroke-opacity:1" d="M 627.431,525.486 666.64,525.486 z" id="boundary" inkscape:connector-curvature="0" />
	<path style="fill:none;stroke:red;stroke-width:1px;stroke-linecap:butt;stroke-linejoin:miter;stroke-opacity:1" d="M 705.85,525.486 666.64,525.486 z" id="boundary" inkscape:connector-curvature="0" />
	<path style="fill:none;stroke:red;stroke-width:1px;stroke-linecap:butt;stroke-linejoin:miter;stroke-opacity:1" d="M 745.059,521.565 705.85,525.486 z" id="boundary" inkscape:connector-curvature="0" />
	<path style="fill:none;stroke:red;stroke-width:1px;stroke-linecap:butt;stroke-linejoin:miter;stroke-opacity:1" d="M 584.3,4 623.51,4 z" id="boundary" inkscape:connector-curvature="0" />
	<path style="fill:none;stroke:red;stroke-width:1px;stroke-linecap:butt;stroke-linejoin:miter;stroke-opacity:1" d="M 549.012,654.877 588.221,654.877 z" id="boundary" inkscape:connector-curvature="0" />
	<path style="fill:none;stroke:red;stroke-width:1px;stroke-linecap:butt;stroke-linejoin:miter;stroke-opacity:1" d="M 588.221,654.877 627.431,654.877 z" id="boundary" inkscape:connector-curvature="0" />
	<path style="fill:none;stroke:red;stroke-width:1px;stroke-linecap:butt;stroke-linejoin:miter;stroke-opacity:1" d="M 607.826,690.166 568.617,690.166 z" id="boundary" inkscape:connector-curvature="0" />
	<path style="fill:none;stroke:red;stroke-width:1px;stroke-linecap:butt;stroke-linejoin:miter;stroke-opacity:1" d="M 647.036,690.166 607.826,690.166 z" id="boundary" inkscape:connector-curvature="0" />
	<path style="fill:none;stroke:red;stroke-width:1px;stroke-linecap:butt;stroke-linejoin:miter;stroke-opacity:1" d="M 627.431,654.877 666.64,654.877 z" id="boundary" inkscape:connector-curvature="0" />
	<path style="fill:none;stroke:red;stroke-width:1px;stroke-linecap:butt;stroke-linejoin:miter;stroke-opacity:1" d="M 666.64,654.877 705.85,654.877 z" id="boundary" inkscape:connector-curvature="0" />
	<path style="fill:none;stroke:red;stroke-width:1px;stroke-linecap:butt;stroke-linejoin:miter;stroke-opacity:1" d="M 647.036,690.166 686.245,690.166 z" id="boundary" inkscape:connector-curvature="0" />
	<path style="fill:none;stroke:red;stroke-width:1px;stroke-linecap:butt;stroke-linejoin:miter;stroke-opacity:1" d="M 686.245,690.166 725.455,690.166 z" id="boundary" inkscape:connector-curvature="0" />
	<path style="fill:none;stroke:red;stroke-width:1px;stroke-linecap:butt;stroke-linejoin:miter;stroke-opacity:1" d="M 745.059,654.877 705.85,654.877 z" id="boundary" inkscape:connector-curvature="0" />
	<path style="fill:none;stroke:red;stroke-width:1px;stroke-linecap:butt;stroke-linejoin:miter;stroke-opacity:1" d="M 752.901,47.1304 752.901,86.3399 z" id="boundary" inkscape:connector-curvature="0" />
	<path style="fill:none;stroke:red;stroke-width:1px;stroke-linecap:butt;stroke-linejoin:miter;stroke-opacity:1" d="M 752.901,47.1304 741.138,7.92095 z" id="boundary" inkscape:connector-curvature="0" />
	<path style="fill:none;stroke:red;stroke-width:1px;stroke-linecap:butt;stroke-linejoin:miter;stroke-opacity:1" d="M 752.901,86.3399 752.901,125.549 z" id="boundary" inkscape:connector-curvature="0" />
	<path style="fill:none;stroke:red;stroke-width:1px;stroke-linecap:butt;stroke-linejoin:miter;stroke-opacity:1" d="M 752.901,125.549 752.901,164.759 z" id="boundary" inkscape:connector-curvature="0" />
	<path style="fill:none;stroke:red;stroke-width:1px;stroke-linecap:butt;stroke-linejoin:miter;stroke-opacity:1" d="M 752.901,203.968 752.901,243.178 z" id="boundary" inkscape:connector-curvature="0" />
	<path style="fill:none;stroke:red;stroke-width:1px;stroke-linecap:butt;stroke-linejoin:miter;stroke-opacity:1" d="M 752.901,203.968 752.901,164.759 z" id="boundary" inkscape:connector-curvature="0" />
	<path style="fill:none;stroke:red;stroke-width:1px;stroke-linecap:butt;stroke-linejoin:miter;stroke-opacity:1" d="M 752.901,243.178 752.901,282.387 z" id="boundary" inkscape:connector-curvature="0" />
	<path style="fill:none;stroke:red;stroke-width:1px;stroke-linecap:butt;stroke-linejoin:miter;stroke-opacity:1" d="M 752.901,321.597 752.901,360.806 z" id="boundary" inkscape:connector-curvature="0" />
	<path style="fill:none;stroke:red;stroke-width:1px;stroke-linecap:butt;stroke-linejoin:miter;stroke-opacity:1" d="M 752.901,282.387 752.901,321.597 z" id="boundary" inkscape:connector-curvature="0" />
	<path style="fill:none;stroke:red;stroke-width:1px;stroke-linecap:butt;stroke-linejoin:miter;stroke-opacity:1" d="M 752.901,360.806 752.901,400.016 z" id="boundary" inkscape:connector-curvature="0" />
	<path style="fill:none;stroke:red;stroke-width:1px;stroke-linecap:butt;stroke-linejoin:miter;stroke-opacity:1" d="M 752.901,400.016 752.901,439.225 z" id="boundary" inkscape:connector-curvature="0" />
	<path style="fill:none;stroke:red;stroke-width:1px;stroke-linecap:butt;stroke-linejoin:miter;stroke-opacity:1" d="M 752.901,478.435 745.059,521.565 z" id="boundary" inkscape:connector-curvature="0" />
	<path style="fill:none;stroke:red;stroke-width:1px;stroke-linecap:butt;stroke-linejoin:miter;stroke-opacity:1" d="M 752.901,478.435 752.901,439.225 z" id="boundary" inkscape:connector-curvature="0" />
	<path style="fill:none;stroke:red;stroke-width:1px;stroke-linecap:butt;stroke-linejoin:miter;stroke-opacity:1" d="M 745.059,654.877 784.269,654.877 z" id="boundary" inkscape:connector-curvature="0" />
	<path style="fill:none;stroke:red;stroke-width:1px;stroke-linecap:butt;stroke-linejoin:miter;stroke-opacity:1" d="M 784.269,654.877 823.478,654.877 z" id="boundary" inkscape:connector-curvature="0" />
	<path style="fill:none;stroke:red;stroke-width:1px;stroke-linecap:butt;stroke-linejoin:miter;stroke-opacity:1" d="M 764.664,690.166 725.455,690.166 z" id="boundary" inkscape:connector-curvature="0" />
	<path style="fill:none;stroke:red;stroke-width:1px;stroke-linecap:butt;stroke-linejoin:miter;stroke-opacity:1" d="M 764.664,690.166 803.874,690.166 z" id="boundary" inkscape:connector-curvature="0" />
	<path style="fill:none;stroke:red;stroke-width:1px;stroke-linecap:butt;stroke-linejoin:miter;stroke-opacity:1" d="M 823.478,654.877 862.688,654.877 z" id="boundary" inkscape:connector-curvature="0" />
	<path style="fill:none;stroke:red;stroke-width:1px;stroke-linecap:butt;stroke-linejoin:miter;stroke-opacity:1" d="M 862.688,654.877 901.897,654.877 z" id="boundary" inkscape:connector-curvature="0" />
	<path style="fill:none;stroke:red;stroke-width:1px;stroke-linecap:butt;stroke-linejoin:miter;stroke-opacity:1" d="M 921.502,690.166 901.897,654.877 z" id="boundary" inkscape:connector-curvature="0" />
	<path style="fill:none;stroke:red;stroke-width:1px;stroke-linecap:butt;stroke-linejoin:miter;stroke-opacity:1" d="M 843.083,690.166 882.292,690.166 z" id="boundary" inkscape:connector-curvature="0" />
	<path style="fill:none;stroke:red;stroke-width:1px;stroke-linecap:butt;stroke-linejoin:miter;stroke-opacity:1" d="M 803.874,690.166 843.083,690.166 z" id="boundary" inkscape:connector-curvature="0" />
	<path style="fill:none;stroke:red;stroke-width:1px;stroke-linecap:butt;stroke-linejoin:miter;stroke-opacity:1" d="M 921.502,690.166 882.292,690.166 z" id="boundary" inkscape:connector-curvature="0" />
	<path style="fill:none;stroke:red;stroke-width:1px;stroke-linecap:butt;stroke-linejoin:miter;stroke-opacity:1" d="M 549.012,780.348 588.221,780.348 z" id="boundary" inkscape:connector-curvature="0" />
	<path style="fill:none;stroke:red;stroke-width:1px;stroke-linecap:butt;stroke-linejoin:miter;stroke-opacity:1" d="M 588.221,780.348 627.431,780.348 z" id="boundary" inkscape:connector-curvature="0" />
	<path style="fill:none;stroke:red;stroke-width:1px;stroke-linecap:butt;stroke-linejoin:miter;stroke-opacity:1" d="M 568.617,815.636 607.826,815.636 z" id="boundary" inkscape:connector-curvature="0" />
	<path style="fill:none;stroke:red;stroke-width:1px;stroke-linecap:butt;stroke-linejoin:miter;stroke-opacity:1" d="M 607.826,815.636 647.036,815.636 z" id="boundary" inkscape:connector-curvature="0" />
	<path style="fill:none;stroke:red;stroke-width:1px;stroke-linecap:butt;stroke-linejoin:miter;stroke-opacity:1" d="M 627.431,780.348 666.64,780.348 z" id="boundary" inkscape:connector-curvature="0" />
	<path style="fill:none;stroke:red;stroke-width:1px;stroke-linecap:butt;stroke-linejoin:miter;stroke-opacity:1" d="M 666.64,780.348 705.85,780.348 z" id="boundary" inkscape:connector-curvature="0" />
	<path style="fill:none;stroke:red;stroke-width:1px;stroke-linecap:butt;stroke-linejoin:miter;stroke-opacity:1" d="M 745.059,780.348 705.85,780.348 z" id="boundary" inkscape:connector-curvature="0" />
	<path style="fill:none;stroke:red;stroke-width:1px;stroke-linecap:butt;stroke-linejoin:miter;stroke-opacity:1" d="M 686.245,815.636 647.036,815.636 z" id="boundary" inkscape:connector-curvature="0" />
	<path style="fill:none;stroke:red;stroke-width:1px;stroke-linecap:butt;stroke-linejoin:miter;stroke-opacity:1" d="M 686.245,815.636 725.455,815.636 z" id="boundary" inkscape:connector-curvature="0" />
	<path style="fill:none;stroke:red;stroke-width:1px;stroke-linecap:butt;stroke-linejoin:miter;stroke-opacity:1" d="M 552.933,897.976 592.142,897.976 z" id="boundary" inkscape:connector-curvature="0" />
	<path style="fill:none;stroke:red;stroke-width:1px;stroke-linecap:butt;stroke-linejoin:miter;stroke-opacity:1" d="M 592.142,897.976 631.352,897.976 z" id="boundary" inkscape:connector-curvature="0" />
	<path style="fill:none;stroke:red;stroke-width:1px;stroke-linecap:butt;stroke-linejoin:miter;stroke-opacity:1" d="M 619.589,980.316 580.379,980.316 z" id="boundary" inkscape:connector-curvature="0" />
	<path style="fill:none;stroke:red;stroke-width:1px;stroke-linecap:butt;stroke-linejoin:miter;stroke-opacity:1" d="M 658.798,980.316 619.589,980.316 z" id="boundary" inkscape:connector-curvature="0" />
	<path style="fill:none;stroke:red;stroke-width:1px;stroke-linecap:butt;stroke-linejoin:miter;stroke-opacity:1" d="M 631.352,897.976 670.561,897.976 z" id="boundary" inkscape:connector-curvature="0" />
	<path style="fill:none;stroke:red;stroke-width:1px;stroke-linecap:butt;stroke-linejoin:miter;stroke-opacity:1" d="M 670.561,897.976 709.771,897.976 z" id="boundary" inkscape:connector-curvature="0" />
	<path style="fill:none;stroke:red;stroke-width:1px;stroke-linecap:butt;stroke-linejoin:miter;stroke-opacity:1" d="M 709.771,897.976 748.98,897.976 z" id="boundary" inkscape:connector-curvature="0" />
	<path style="fill:none;stroke:red;stroke-width:1px;stroke-linecap:butt;stroke-linejoin:miter;stroke-opacity:1" d="M 698.008,980.316 658.798,980.316 z" id="boundary" inkscape:connector-curvature="0" />
	<path style="fill:none;stroke:red;stroke-width:1px;stroke-linecap:butt;stroke-linejoin:miter;stroke-opacity:1" d="M 698.008,980.316 737.217,980.316 z" id="boundary" inkscape:connector-curvature="0" />
	<path style="fill:none;stroke:red;stroke-width:1px;stroke-linecap:butt;stroke-linejoin:miter;stroke-opacity:1" d="M 764.664,815.636 725.455,815.636 z" id="boundary" inkscape:connector-curvature="0" />
	<path style="fill:none;stroke:red;stroke-width:1px;stroke-linecap:butt;stroke-linejoin:miter;stroke-opacity:1" d="M 745.059,780.348 784.269,780.348 z" id="boundary" inkscape:connector-curvature="0" />
	<path style="fill:none;stroke:red;stroke-width:1px;stroke-linecap:butt;stroke-linejoin:miter;stroke-opacity:1" d="M 784.269,780.348 823.478,780.348 z" id="boundary" inkscape:connector-curvature="0" />
	<path style="fill:none;stroke:red;stroke-width:1px;stroke-linecap:butt;stroke-linejoin:miter;stroke-opacity:1" d="M 803.874,815.636 764.664,815.636 z" id="boundary" inkscape:connector-curvature="0" />
	<path style="fill:none;stroke:red;stroke-width:1px;stroke-linecap:butt;stroke-linejoin:miter;stroke-opacity:1" d="M 803.874,815.636 843.083,815.636 z" id="boundary" inkscape:connector-curvature="0" />
	<path style="fill:none;stroke:red;stroke-width:1px;stroke-linecap:butt;stroke-linejoin:miter;stroke-opacity:1" d="M 862.688,780.348 823.478,780.348 z" id="boundary" inkscape:connector-curvature="0" />
	<path style="fill:none;stroke:red;stroke-width:1px;stroke-linecap:butt;stroke-linejoin:miter;stroke-opacity:1" d="M 862.688,780.348 901.897,780.348 z" id="boundary" inkscape:connector-curvature="0" />
	<path style="fill:none;stroke:red;stroke-width:1px;stroke-linecap:butt;stroke-linejoin:miter;stroke-opacity:1" d="M 933.265,803.874 901.897,780.348 z" id="boundary" inkscape:connector-curvature="0" />
	<path style="fill:none;stroke:red;stroke-width:1px;stroke-linecap:butt;stroke-linejoin:miter;stroke-opacity:1" d="M 882.292,815.636 843.083,815.636 z" id="boundary" inkscape:connector-curvature="0" />
	<path style="fill:none;stroke:red;stroke-width:1px;stroke-linecap:butt;stroke-linejoin:miter;stroke-opacity:1" d="M 933.265,803.874 945.028,897.976 z" id="boundary" inkscape:connector-curvature="0" />
	<path style="fill:none;stroke:red;stroke-width:1px;stroke-linecap:butt;stroke-linejoin:miter;stroke-opacity:1" d="M 748.98,897.976 788.19,897.976 z" id="boundary" inkscape:connector-curvature="0" />
	<path style="fill:none;stroke:red;stroke-width:1px;stroke-linecap:butt;stroke-linejoin:miter;stroke-opacity:1" d="M 827.399,897.976 788.19,897.976 z" id="boundary" inkscape:connector-curvature="0" />
	<path style="fill:none;stroke:red;stroke-width:1px;stroke-linecap:butt;stroke-linejoin:miter;stroke-opacity:1" d="M 737.217,980.316 776.427,980.316 z" id="boundary" inkscape:connector-curvature="0" />
	<path style="fill:none;stroke:red;stroke-width:1px;stroke-linecap:butt;stroke-linejoin:miter;stroke-opacity:1" d="M 815.636,980.316 776.427,980.316 z" id="boundary" inkscape:connector-curvature="0" />
	<path style="fill:none;stroke:red;stroke-width:1px;stroke-linecap:butt;stroke-linejoin:miter;stroke-opacity:1" d="M 815.636,980.316 854.846,980.316 z" id="boundary" inkscape:connector-curvature="0" />
	<path style="fill:none;stroke:red;stroke-width:1px;stroke-linecap:butt;stroke-linejoin:miter;stroke-opacity:1" d="M 905.818,897.976 866.609,897.976 z" id="boundary" inkscape:connector-curvature="0" />
	<path style="fill:none;stroke:red;stroke-width:1px;stroke-linecap:butt;stroke-linejoin:miter;stroke-opacity:1" d="M 827.399,897.976 866.609,897.976 z" id="boundary" inkscape:connector-curvature="0" />
	<path style="fill:none;stroke:red;stroke-width:1px;stroke-linecap:butt;stroke-linejoin:miter;stroke-opacity:1" d="M 905.818,897.976 945.028,897.976 z" id="boundary" inkscape:connector-curvature="0" />
	<path style="fill:none;stroke:red;stroke-width:1px;stroke-linecap:butt;stroke-linejoin:miter;stroke-opacity:1" d="M 945.028,897.976 964.632,933.265 z" id="boundary" inkscape:connector-curvature="0" />
	<path style="fill:none;stroke:red;stroke-width:1px;stroke-linecap:butt;stroke-linejoin:miter;stroke-opacity:1" d="M 894.055,988.158 854.846,980.316 z" id="boundary" inkscape:connector-curvature="0" />
	<path style="fill:none;stroke:red;stroke-width:1px;stroke-linecap:butt;stroke-linejoin:miter;stroke-opacity:1" d="M 894.055,988.158 933.265,984.237 z" id="boundary" inkscape:connector-curvature="0" />
	<path style="fill:none;stroke:red;stroke-width:1px;stroke-linecap:butt;stroke-linejoin:miter;stroke-opacity:1" d="M 964.632,933.265 933.265,984.237 z" id="boundary" inkscape:connector-curvature="0" />
	<path style="fill:none;stroke:red;stroke-width:1px;stroke-linecap:butt;stroke-linejoin:miter;stroke-opacity:1" d="M 505.881,4 545.091,4 z" id="boundary" inkscape:connector-curvature="0" />
	<circle cx="4" cy="913.66" r="4" fill="#0" id="circle0"/>
	<circle cx="4" cy="952.87" r="4" fill="#0" id="circle1"/>
	<circle cx="31.4466" cy="984.237" r="4" fill="#0" id="circle2"/>
	<circle cx="43.2095" cy="897.976" r="4" fill="#0" id="circle3"/>
	<circle cx="70.6561" cy="992.079" r="4" fill="#0" id="circle4"/>
	<circle cx="82.419" cy="897.976" r="4" fill="#0" id="circle5"/>
	<circle cx="109.866" cy="980.316" r="4" fill="#0" id="circle6"/>
	<circle cx="121.628" cy="897.976" r="4" fill="#0" id="circle7"/>
	<circle cx="137.312" cy="670.561" r="4" fill="#0" id="circle8"/>
	<circle cx="137.312" cy="788.19" r="4" fill="#0" id="circle9"/>
	<circle cx="149.075" cy="980.316" r="4" fill="#0" id="circle10"/>
	<circle cx="160.838" cy="897.976" r="4" fill="#0" id="circle11"/>
	<circle cx="168.68" cy="815.636" r="4" fill="#0" id="circle12"/>
	<circle cx="172.601" cy="690.166" r="4" fill="#0" id="circle13"/>
	<circle cx="188.285" cy="780.348" r="4" fill="#0" id="circle14"/>
	<circle cx="188.285" cy="980.316" r="4" fill="#0" id="circle15"/>
	<circle cx="192.206" cy="11.8419" r="4" fill="#0" id="circle16"/>
	<circle cx="192.206" cy="51.0514" r="4" fill="#0" id="circle17"/>
	<circle cx="192.206" cy="90.2609" r="4" fill="#0" id="circle18"/>
	<circle cx="192.206" cy="129.47" r="4" fill="#0" id="circle19"/>
	<circle cx="192.206" cy="168.68" r="4" fill="#0" id="circle20"/>
	<circle cx="192.206" cy="207.889" r="4" fill="#0" id="circle21"/>
	<circle cx="192.206" cy="247.099" r="4" fill="#0" id="circle22"/>
	<circle cx="192.206" cy="286.308" r="4" fill="#0" id="circle23"/>
	<circle cx="192.206" cy="325.518" r="4" fill="#0" id="circle24"/>
	<circle cx="192.206" cy="364.727" r="4" fill="#0" id="circle25"/>
	<circle cx="192.206" cy="403.937" r="4" fill="#0" id="circle26"/>
	<circle cx="192.206" cy="443.146" r="4" fill="#0" id="circle27"/>
	<circle cx="192.206" cy="482.356" r="4" fill="#0" id="circle28"/>
	<circle cx="192.206" cy="654.877" r="4" fill="#0" id="circle29"/>
	<circle cx="196.126" cy="521.565" r="4" fill="#0" id="circle30"/>
	<circle cx="200.047" cy="897.976" r="4" fill="#0" id="circle31"/>
	<circle cx="207.889" cy="815.636" r="4" fill="#0" id="circle32"/>
	<circle cx="211.81" cy="690.166" r="4" fill="#0" id="circle33"/>
	<circle cx="227.494" cy="780.348" r="4" fill="#0" id="circle34"/>
	<circle cx="227.494" cy="980.316" r="4" fill="#0" id="circle35"/>
	<circle cx="231.415" cy="4" r="4" fill="#0" id="circle36"/>
	<circle cx="231.415" cy="654.877" r="4" fill="#0" id="circle37"/>
	<circle cx="235.336" cy="525.486" r="4" fill="#0" id="circle38"/>
	<circle cx="239.257" cy="897.976" r="4" fill="#0" id="circle39"/>
	<circle cx="247.099" cy="815.636" r="4" fill="#0" id="circle40"/>
	<circle cx="251.02" cy="690.166" r="4" fill="#0" id="circle41"/>
	<circle cx="266.704" cy="780.348" r="4" fill="#0" id="circle42"/>
	<circle cx="266.704" cy="980.316" r="4" fill="#0" id="circle43"/>
	<circle cx="270.625" cy="4" r="4" fill="#0" id="circle44"/>
	<circle cx="270.625" cy="654.877" r="4" fill="#0" id="circle45"/>
	<circle cx="274.545" cy="525.486" r="4" fill="#0" id="circle46"/>
	<circle cx="278.466" cy="897.976" r="4" fill="#0" id="circle47"/>
	<circle cx="286.308" cy="815.636" r="4" fill="#0" id="circle48"/>
	<circle cx="290.229" cy="690.166" r="4" fill="#0" id="circle49"/>
	<circle cx="305.913" cy="780.348" r="4" fill="#0" id="circle50"/>
	<circle cx="305.913" cy="996" r="4" fill="#0" id="circle51"/>
	<circle cx="309.834" cy="4" r="4" fill="#0" id="circle52"/>
	<circle cx="309.834" cy="654.877" r="4" fill="#0" id="circle53"/>
	<circle cx="313.755" cy="525.486" r="4" fill="#0" id="circle54"/>
	<circle cx="317.676" cy="897.976" r="4" fill="#0" id="circle55"/>
	<circle cx="325.518" cy="564.696" r="4" fill="#0" id="circle56"/>
	<circle cx="325.518" cy="603.905" r="4" fill="#0" id="circle57"/>
	<circle cx="325.518" cy="709.771" r="4" fill="#0" id="circle58"/>
	<circle cx="325.518" cy="819.557" r="4" fill="#0" id="circle59"/>
	<circle cx="325.518" cy="858.767" r="4" fill="#0" id="circle60"/>
	<circle cx="345.123" cy="980.316" r="4" fill="#0" id="circle61"/>
	<circle cx="349.043" cy="4" r="4" fill="#0" id="circle62"/>
	<circle cx="384.332" cy="980.316" r="4" fill="#0" id="circle63"/>
	<circle cx="388.253" cy="4" r="4" fill="#0" id="circle64"/>
	<circle cx="423.542" cy="980.316" r="4" fill="#0" id="circle65"/>
	<circle cx="427.462" cy="4" r="4" fill="#0" id="circle66"/>
	<circle cx="462.751" cy="980.316" r="4" fill="#0" id="circle67"/>
	<circle cx="466.672" cy="4" r="4" fill="#0" id="circle68"/>
	<circle cx="501.96" cy="980.316" r="4" fill="#0" id="circle69"/>
	<circle cx="505.881" cy="4" r="4" fill="#0" id="circle70"/>
	<circle cx="509.802" cy="529.407" r="4" fill="#0" id="circle71"/>
	<circle cx="509.802" cy="568.617" r="4" fill="#0" id="circle72"/>
	<circle cx="509.802" cy="607.826" r="4" fill="#0" id="circle73"/>
	<circle cx="509.802" cy="647.036" r="4" fill="#0" id="circle74"/>
	<circle cx="509.802" cy="694.087" r="4" fill="#0" id="circle75"/>
	<circle cx="509.802" cy="733.296" r="4" fill="#0" id="circle76"/>
	<circle cx="509.802" cy="772.506" r="4" fill="#0" id="circle77"/>
	<circle cx="509.802" cy="819.557" r="4" fill="#0" id="circle78"/>
	<circle cx="509.802" cy="858.767" r="4" fill="#0" id="circle79"/>
	<circle cx="513.723" cy="897.976" r="4" fill="#0" id="circle80"/>
	<circle cx="541.17" cy="980.316" r="4" fill="#0" id="circle81"/>
	<circle cx="545.091" cy="4" r="4" fill="#0" id="circle82"/>
	<circle cx="549.012" cy="525.486" r="4" fill="#0" id="circle83"/>
	<circle cx="549.012" cy="654.877" r="4" fill="#0" id="circle84"/>
	<circle cx="549.012" cy="780.348" r="4" fill="#0" id="circle85"/>
	<circle cx="552.933" cy="897.976" r="4" fill="#0" id="circle86"/>
	<circle cx="568.617" cy="690.166" r="4" fill="#0" id="circle87"/>
	<circle cx="568.617" cy="815.636" r="4" fill="#0" id="circle88"/>
	<circle cx="580.379" cy="980.316" r="4" fill="#0" id="circle89"/>
	<circle cx="584.3" cy="4" r="4" fill="#0" id="circle90"/>
	<circle cx="588.221" cy="525.486" r="4" fill="#0" id="circle91"/>
	<circle cx="588.221" cy="654.877" r="4" fill="#0" id="circle92"/>
	<circle cx="588.221" cy="780.348" r="4" fill="#0" id="circle93"/>
	<circle cx="592.142" cy="897.976" r="4" fill="#0" id="circle94"/>
	<circle cx="607.826" cy="690.166" r="4" fill="#0" id="circle95"/>
	<circle cx="607.826" cy="815.636" r="4" fill="#0" id="circle96"/>
	<circle cx="619.589" cy="980.316" r="4" fill="#0" id="circle97"/>
	<circle cx="623.51" cy="4" r="4" fill="#0" id="circle98"/>
	<circle cx="627.431" cy="525.486" r="4" fill="#0" id="circle99"/>
	<circle cx="627.431" cy="654.877" r="4" fill="#0" id="circle100"/>
	<circle cx="627.431" cy="780.348" r="4" fill="#0" id="circle101"/>
	<circle cx="631.352" cy="897.976" r="4" fill="#0" id="circle102"/>
	<circle cx="647.036" cy="690.166" r="4" fill="#0" id="circle103"/>
	<circle cx="647.036" cy="815.636" r="4" fill="#0" id="circle104"/>
	<circle cx="658.798" cy="980.316" r="4" fill="#0" id="circle105"/>
	<circle cx="662.719" cy="4" r="4" fill="#0" id="circle106"/>
	<circle cx="666.64" cy="525.486" r="4" fill="#0" id="circle107"/>
	<circle cx="666.64" cy="654.877" r="4" fill="#0" id="circle108"/>
	<circle cx="666.64" cy="780.348" r="4" fill="#0" id="circle109"/>
	<circle cx="670.561" cy="897.976" r="4" fill="#0" id="circle110"/>
	<circle cx="686.245" cy="690.166" r="4" fill="#0" id="circle111"/>
	<circle cx="686.245" cy="815.636" r="4" fill="#0" id="circle112"/>
	<circle cx="698.008" cy="980.316" r="4" fill="#0" id="circle113"/>
	<circle cx="701.929" cy="4" r="4" fill="#0" id="circle114"/>
	<circle cx="705.85" cy="525.486" r="4" fill="#0" id="circle115"/>
	<circle cx="705.85" cy="654.877" r="4" fill="#0" id="circle116"/>
	<circle cx="705.85" cy="780.348" r="4" fill="#0" id="circle117"/>
	<circle cx="709.771" cy="897.976" r="4" fill="#0" id="circle118"/>
	<circle cx="725.455" cy="690.166" r="4" fill="#0" id="circle119"/>
	<circle cx="725.455" cy="815.636" r="4" fill="#0" id="circle120"/>
	<circle cx="737.217" cy="980.316" r="4" fill="#0" id="circle121"/>
	<circle cx="741.138" cy="7.92095" r="4" fill="#0" id="circle122"/>
	<circle cx="745.059" cy="521.565" r="4" fill="#0" id="circle123"/>
	<circle cx="745.059" cy="654.877" r="4" fill="#0" id="circle124"/>
	<circle cx="745.059" cy="780.348" r="4" fill="#0" id="circle125"/>
	<circle cx="748.98" cy="897.976" r="4" fill="#0" id="circle126"/>
	<circle cx="752.901" cy="47.1304" r="4" fill="#0" id="circle127"/>
	<circle cx="752.901" cy="86.3399" r="4" fill="#0" id="circle128"/>
	<circle cx="752.901" cy="125.549" r="4" fill="#0" id="circle129"/>
	<circle cx="752.901" cy="164.759" r="4" fill="#0" id="circle130"/>
	<circle cx="752.901" cy="203.968" r="4" fill="#0" id="circle131"/>
	<circle cx="752.901" cy="243.178" r="4" fill="#0" id="circle132"/>
	<circle cx="752.901" cy="282.387" r="4" fill="#0" id="circle133"/>
	<circle cx="752.901" cy="321.597" r="4" fill="#0" id="circle134"/>
	<circle cx="752.901" cy="360.806" r="4" fill="#0" id="circle135"/>
	<circle cx="752.901" cy="400.016" r="4" fill="#0" id="circle136"/>
	<circle cx="752.901" cy="439.225" r="4" fill="#0" id="circle137"/>
	<circle cx="752.901" cy="478.435" r="4" fill="#0" id="circle138"/>
	<circle cx="764.664" cy="690.166" r="4" fill="#0" id="circle139"/>
	<circle cx="764.664" cy="815.636" r="4" fill="#0" id="circle140"/>
	<circle cx="776.427" cy="980.316" r="4" fill="#0" id="circle141"/>
	<circle cx="784.269" cy="654.877" r="4" fill="#0" id="circle142"/>
	<circle cx="784.269" cy="780.348" r="4" fill="#0" id="circle143"/>
	<circle cx="788.19" cy="897.976" r="4" fill="#0" id="circle144"/>
	<circle cx="803.874" cy="690.166" r="4" fill="#0" id="circle145"/>
	<circle cx="803.874" cy="815.636" r="4" fill="#0" id="circle146"/>
	<circle cx="815.636" cy="980.316" r="4" fill="#0" id="circle147"/>
	<circle cx="823.478" cy="654.877" r="4" fill="#0" id="circle148"/>
	<circle cx="823.478" cy="780.348" r="4" fill="#0" id="circle149"/>
	<circle cx="827.399" cy="897.976" r="4" fill="#0" id="circle150"/>
	<circle cx="843.083" cy="690.166" r="4" fill="#0" id="circle151"/>
	<circle cx="843.083" cy="815.636" r="4" fill="#0" id="circle152"/>
	<circle cx="854.846" cy="980.316" r="4" fill="#0" id="circle153"/>
	<circle cx="862.688" cy="654.877" r="4" fill="#0" id="circle154"/>
	<circle cx="862.688" cy="780.348" r="4" fill="#0" id="circle155"/>
	<circle cx="866.609" cy="897.976" r="4" fill="#0" id="circle156"/>
	<circle cx="882.292" cy="690.166" r="4" fill="#0" id="circle157"/>
	<circle cx="882.292" cy="815.636" r="4" fill="#0" id="circle158"/>
	<circle cx="894.055" cy="988.158" r="4" fill="#0" id="circle159"/>
	<circle cx="901.897" cy="654.877" r="4" fill="#0" id="circle160"/>
	<circle cx="901.897" cy="780.348" r="4" fill="#0" id="circle161"/>
	<circle cx="905.818" cy="897.976" r="4" fill="#0" id="circle162"/>
	<circle cx="921.502" cy="690.166" r="4" fill="#0" id="circle163"/>
	<circle cx="933.265" cy="803.874" r="4" fill="#0" id="circle164"/>
	<circle cx="933.265" cy="984.237" r="4" fill="#0" id="circle165"/>
	<circle cx="945.028" cy="897.976" r="4" fill="#0" id="circle166"/>
	<circle cx="964.632" cy="933.265" r="4" fill="#0" id="circle167"/>
	</g>
</svg>