<?xml version="1.0" encoding="UTF-8" standalone="no"?>
<!-- Created with CurveBenchmark -->
<svg
	xmlns:dc="http://purl.org/dc/elements/1.1/"
	xmlns:cc="http://creativecommons.org/ns#"
	xmlns:rdf="http://www.w3.org/1999/02/22-rdf-syntax-ns#"
	xmlns:svg="http://www.w3.org/2000/svg"
	xmlns="http://www.w3.org/2000/svg"
	xmlns:sodipodi="http://sodipodi.sourceforge.net/DTD/sodipodi-0.dtd"
	xmlns:inkscape="http://www.inkscape.org/namespaces/inkscape"
	width="1000"
	height="1000"
	id="svg2"
	version="1.1"
	sodipodi:docname="manifold/crust-ray14.png.txt">
<defs
	id="defs4" />
<metadata
	id="metadata7">
	<rdf:RDF>
		<cc:Work
			rdf:about="">
			<dc:format>image/svg+xml</dc:format>
			<dc:type
				rdf:resource="http://purl.org/dc/dcmitype/StillImage" />
			<dc:title></dc:title>
		</cc:Work>
	</rdf:RDF>
</metadata>
<g
	inkscape:label="Layer 1"
	inkscape:groupmode="layer"
	id="layer1">
	<path style="fill:none;stroke:red;stroke-width:1px;stroke-linecap:butt;stroke-linejoin:miter;stroke-opacity:1" d="M 203.79,139.51 212.476,155.145 z" id="boundary" inkscape:connector-curvature="0" />
	<path style="fill:none;stroke:red;stroke-width:1px;stroke-linecap:butt;stroke-linejoin:miter;stroke-opacity:1" d="M 203.79,122.137 203.79,139.51 z" id="boundary" inkscape:connector-curvature="0" />
	<path style="fill:none;stroke:red;stroke-width:1px;stroke-linecap:butt;stroke-linejoin:miter;stroke-opacity:1" d="M 217.688,108.238 231.587,94.3398 z" id="boundary" inkscape:connector-curvature="0" />
	<path style="fill:none;stroke:red;stroke-width:1px;stroke-linecap:butt;stroke-linejoin:miter;stroke-opacity:1" d="M 203.79,122.137 217.688,108.238 z" id="boundary" inkscape:connector-curvature="0" />
	<path style="fill:none;stroke:red;stroke-width:1px;stroke-linecap:butt;stroke-linejoin:miter;stroke-opacity:1" d="M 212.476,172.518 212.476,155.145 z" id="boundary" inkscape:connector-curvature="0" />
	<path style="fill:none;stroke:red;stroke-width:1px;stroke-linecap:butt;stroke-linejoin:miter;stroke-opacity:1" d="M 212.476,189.891 212.476,172.518 z" id="boundary" inkscape:connector-curvature="0" />
	<path style="fill:none;stroke:red;stroke-width:1px;stroke-linecap:butt;stroke-linejoin:miter;stroke-opacity:1" d="M 221.163,205.527 212.476,189.891 z" id="boundary" inkscape:connector-curvature="0" />
	<path style="fill:none;stroke:red;stroke-width:1px;stroke-linecap:butt;stroke-linejoin:miter;stroke-opacity:1" d="M 221.163,205.527 226.375,222.9 z" id="boundary" inkscape:connector-curvature="0" />
	<path style="fill:none;stroke:red;stroke-width:1px;stroke-linecap:butt;stroke-linejoin:miter;stroke-opacity:1" d="M 248.96,85.6532 231.587,94.3398 z" id="boundary" inkscape:connector-curvature="0" />
	<path style="fill:none;stroke:red;stroke-width:1px;stroke-linecap:butt;stroke-linejoin:miter;stroke-opacity:1" d="M 266.333,82.1786 283.706,76.9667 z" id="boundary" inkscape:connector-curvature="0" />
	<path style="fill:none;stroke:red;stroke-width:1px;stroke-linecap:butt;stroke-linejoin:miter;stroke-opacity:1" d="M 266.333,82.1786 248.96,85.6532 z" id="boundary" inkscape:connector-curvature="0" />
	<path style="fill:none;stroke:red;stroke-width:1px;stroke-linecap:butt;stroke-linejoin:miter;stroke-opacity:1" d="M 238.536,236.799 238.536,254.172 z" id="boundary" inkscape:connector-curvature="0" />
	<path style="fill:none;stroke:red;stroke-width:1px;stroke-linecap:butt;stroke-linejoin:miter;stroke-opacity:1" d="M 238.536,236.799 226.375,222.9 z" id="boundary" inkscape:connector-curvature="0" />
	<path style="fill:none;stroke:red;stroke-width:1px;stroke-linecap:butt;stroke-linejoin:miter;stroke-opacity:1" d="M 255.909,304.553 247.222,288.918 z" id="boundary" inkscape:connector-curvature="0" />
	<path style="fill:none;stroke:red;stroke-width:1px;stroke-linecap:butt;stroke-linejoin:miter;stroke-opacity:1" d="M 247.222,288.918 240.273,271.545 z" id="boundary" inkscape:connector-curvature="0" />
	<path style="fill:none;stroke:red;stroke-width:1px;stroke-linecap:butt;stroke-linejoin:miter;stroke-opacity:1" d="M 238.536,254.172 240.273,271.545 z" id="boundary" inkscape:connector-curvature="0" />
	<path style="fill:none;stroke:red;stroke-width:1px;stroke-linecap:butt;stroke-linejoin:miter;stroke-opacity:1" d="M 264.595,337.562 255.909,321.926 z" id="boundary" inkscape:connector-curvature="0" />
	<path style="fill:none;stroke:red;stroke-width:1px;stroke-linecap:butt;stroke-linejoin:miter;stroke-opacity:1" d="M 255.909,321.926 255.909,304.553 z" id="boundary" inkscape:connector-curvature="0" />
	<path style="fill:none;stroke:red;stroke-width:1px;stroke-linecap:butt;stroke-linejoin:miter;stroke-opacity:1" d="M 273.282,353.198 264.595,337.562 z" id="boundary" inkscape:connector-curvature="0" />
	<path style="fill:none;stroke:red;stroke-width:1px;stroke-linecap:butt;stroke-linejoin:miter;stroke-opacity:1" d="M 301.079,73.4921 283.706,76.9667 z" id="boundary" inkscape:connector-curvature="0" />
	<path style="fill:none;stroke:red;stroke-width:1px;stroke-linecap:butt;stroke-linejoin:miter;stroke-opacity:1" d="M 278.494,370.571 273.282,353.198 z" id="boundary" inkscape:connector-curvature="0" />
	<path style="fill:none;stroke:red;stroke-width:1px;stroke-linecap:butt;stroke-linejoin:miter;stroke-opacity:1" d="M 278.494,370.571 281.968,387.944 z" id="boundary" inkscape:connector-curvature="0" />
	<path style="fill:none;stroke:red;stroke-width:1px;stroke-linecap:butt;stroke-linejoin:miter;stroke-opacity:1" d="M 290.655,403.58 294.13,420.953 z" id="boundary" inkscape:connector-curvature="0" />
	<path style="fill:none;stroke:red;stroke-width:1px;stroke-linecap:butt;stroke-linejoin:miter;stroke-opacity:1" d="M 290.655,403.58 281.968,387.944 z" id="boundary" inkscape:connector-curvature="0" />
	<path style="fill:none;stroke:red;stroke-width:1px;stroke-linecap:butt;stroke-linejoin:miter;stroke-opacity:1" d="M 299.342,438.326 299.342,455.699 z" id="boundary" inkscape:connector-curvature="0" />
	<path style="fill:none;stroke:red;stroke-width:1px;stroke-linecap:butt;stroke-linejoin:miter;stroke-opacity:1" d="M 299.342,438.326 294.13,420.953 z" id="boundary" inkscape:connector-curvature="0" />
	<path style="fill:none;stroke:red;stroke-width:1px;stroke-linecap:butt;stroke-linejoin:miter;stroke-opacity:1" d="M 299.342,455.699 302.816,473.072 z" id="boundary" inkscape:connector-curvature="0" />
	<path style="fill:none;stroke:red;stroke-width:1px;stroke-linecap:butt;stroke-linejoin:miter;stroke-opacity:1" d="M 318.452,73.4921 301.079,73.4921 z" id="boundary" inkscape:connector-curvature="0" />
	<path style="fill:none;stroke:red;stroke-width:1px;stroke-linecap:butt;stroke-linejoin:miter;stroke-opacity:1" d="M 318.452,73.4921 335.825,73.4921 z" id="boundary" inkscape:connector-curvature="0" />
	<path style="fill:none;stroke:red;stroke-width:1px;stroke-linecap:butt;stroke-linejoin:miter;stroke-opacity:1" d="M 353.198,73.4921 335.825,73.4921 z" id="boundary" inkscape:connector-curvature="0" />
	<path style="fill:none;stroke:red;stroke-width:1px;stroke-linecap:butt;stroke-linejoin:miter;stroke-opacity:1" d="M 353.198,73.4921 370.571,73.4921 z" id="boundary" inkscape:connector-curvature="0" />
	<path style="fill:none;stroke:red;stroke-width:1px;stroke-linecap:butt;stroke-linejoin:miter;stroke-opacity:1" d="M 370.571,73.4921 387.944,73.4921 z" id="boundary" inkscape:connector-curvature="0" />
	<path style="fill:none;stroke:red;stroke-width:1px;stroke-linecap:butt;stroke-linejoin:miter;stroke-opacity:1" d="M 387.944,73.4921 405.317,73.4921 z" id="boundary" inkscape:connector-curvature="0" />
	<path style="fill:none;stroke:red;stroke-width:1px;stroke-linecap:butt;stroke-linejoin:miter;stroke-opacity:1" d="M 422.69,73.4921 440.063,73.4921 z" id="boundary" inkscape:connector-curvature="0" />
	<path style="fill:none;stroke:red;stroke-width:1px;stroke-linecap:butt;stroke-linejoin:miter;stroke-opacity:1" d="M 422.69,73.4921 405.317,73.4921 z" id="boundary" inkscape:connector-curvature="0" />
	<path style="fill:none;stroke:red;stroke-width:1px;stroke-linecap:butt;stroke-linejoin:miter;stroke-opacity:1" d="M 440.063,73.4921 457.436,73.4921 z" id="boundary" inkscape:connector-curvature="0" />
	<path style="fill:none;stroke:red;stroke-width:1px;stroke-linecap:butt;stroke-linejoin:miter;stroke-opacity:1" d="M 457.436,73.4921 474.809,73.4921 z" id="boundary" inkscape:connector-curvature="0" />
	<path style="fill:none;stroke:red;stroke-width:1px;stroke-linecap:butt;stroke-linejoin:miter;stroke-opacity:1" d="M 308.028,490.445 302.816,473.072 z" id="boundary" inkscape:connector-curvature="0" />
	<path style="fill:none;stroke:red;stroke-width:1px;stroke-linecap:butt;stroke-linejoin:miter;stroke-opacity:1" d="M 316.715,506.081 318.452,523.454 z" id="boundary" inkscape:connector-curvature="0" />
	<path style="fill:none;stroke:red;stroke-width:1px;stroke-linecap:butt;stroke-linejoin:miter;stroke-opacity:1" d="M 316.715,506.081 308.028,490.445 z" id="boundary" inkscape:connector-curvature="0" />
	<path style="fill:none;stroke:red;stroke-width:1px;stroke-linecap:butt;stroke-linejoin:miter;stroke-opacity:1" d="M 327.138,539.089 318.452,523.454 z" id="boundary" inkscape:connector-curvature="0" />
	<path style="fill:none;stroke:red;stroke-width:1px;stroke-linecap:butt;stroke-linejoin:miter;stroke-opacity:1" d="M 342.774,572.098 334.088,556.462 z" id="boundary" inkscape:connector-curvature="0" />
	<path style="fill:none;stroke:red;stroke-width:1px;stroke-linecap:butt;stroke-linejoin:miter;stroke-opacity:1" d="M 334.088,556.462 327.138,539.089 z" id="boundary" inkscape:connector-curvature="0" />
	<path style="fill:none;stroke:red;stroke-width:1px;stroke-linecap:butt;stroke-linejoin:miter;stroke-opacity:1" d="M 347.986,594.683 342.774,572.098 z" id="boundary" inkscape:connector-curvature="0" />
	<path style="fill:none;stroke:red;stroke-width:1px;stroke-linecap:butt;stroke-linejoin:miter;stroke-opacity:1" d="M 334.088,641.59 325.401,625.954 z" id="boundary" inkscape:connector-curvature="0" />
	<path style="fill:none;stroke:red;stroke-width:1px;stroke-linecap:butt;stroke-linejoin:miter;stroke-opacity:1" d="M 334.088,608.581 325.401,625.954 z" id="boundary" inkscape:connector-curvature="0" />
	<path style="fill:none;stroke:red;stroke-width:1px;stroke-linecap:butt;stroke-linejoin:miter;stroke-opacity:1" d="M 334.088,641.59 334.088,658.963 z" id="boundary" inkscape:connector-curvature="0" />
	<path style="fill:none;stroke:red;stroke-width:1px;stroke-linecap:butt;stroke-linejoin:miter;stroke-opacity:1" d="M 347.986,594.683 334.088,608.581 z" id="boundary" inkscape:connector-curvature="0" />
	<path style="fill:none;stroke:red;stroke-width:1px;stroke-linecap:butt;stroke-linejoin:miter;stroke-opacity:1" d="M 334.088,658.963 334.088,676.336 z" id="boundary" inkscape:connector-curvature="0" />
	<path style="fill:none;stroke:red;stroke-width:1px;stroke-linecap:butt;stroke-linejoin:miter;stroke-opacity:1" d="M 334.088,693.709 334.088,676.336 z" id="boundary" inkscape:connector-curvature="0" />
	<path style="fill:none;stroke:red;stroke-width:1px;stroke-linecap:butt;stroke-linejoin:miter;stroke-opacity:1" d="M 334.088,693.709 334.088,711.082 z" id="boundary" inkscape:connector-curvature="0" />
	<path style="fill:none;stroke:red;stroke-width:1px;stroke-linecap:butt;stroke-linejoin:miter;stroke-opacity:1" d="M 4,773.625 4,756.252 z" id="boundary" inkscape:connector-curvature="0" />
	<path style="fill:none;stroke:red;stroke-width:1px;stroke-linecap:butt;stroke-linejoin:miter;stroke-opacity:1" d="M 4,756.252 21.373,751.04 z" id="boundary" inkscape:connector-curvature="0" />
	<path style="fill:none;stroke:red;stroke-width:1px;stroke-linecap:butt;stroke-linejoin:miter;stroke-opacity:1" d="M 35.2715,761.464 21.373,751.04 z" id="boundary" inkscape:connector-curvature="0" />
	<path style="fill:none;stroke:red;stroke-width:1px;stroke-linecap:butt;stroke-linejoin:miter;stroke-opacity:1" d="M 35.2715,761.464 40.4834,778.837 z" id="boundary" inkscape:connector-curvature="0" />
	<path style="fill:none;stroke:red;stroke-width:1px;stroke-linecap:butt;stroke-linejoin:miter;stroke-opacity:1" d="M 12.6865,789.261 4,773.625 z" id="boundary" inkscape:connector-curvature="0" />
	<path style="fill:none;stroke:red;stroke-width:1px;stroke-linecap:butt;stroke-linejoin:miter;stroke-opacity:1" d="M 12.6865,789.261 12.6865,806.634 z" id="boundary" inkscape:connector-curvature="0" />
	<path style="fill:none;stroke:red;stroke-width:1px;stroke-linecap:butt;stroke-linejoin:miter;stroke-opacity:1" d="M 12.6865,806.634 21.373,822.27 z" id="boundary" inkscape:connector-curvature="0" />
	<path style="fill:none;stroke:red;stroke-width:1px;stroke-linecap:butt;stroke-linejoin:miter;stroke-opacity:1" d="M 31.7968,836.168 21.373,822.27 z" id="boundary" inkscape:connector-curvature="0" />
	<path style="fill:none;stroke:red;stroke-width:1px;stroke-linecap:butt;stroke-linejoin:miter;stroke-opacity:1" d="M 40.4834,778.837 43.958,796.21 z" id="boundary" inkscape:connector-curvature="0" />
	<path style="fill:none;stroke:red;stroke-width:1px;stroke-linecap:butt;stroke-linejoin:miter;stroke-opacity:1" d="M 70.0175,811.846 52.6445,811.846 z" id="boundary" inkscape:connector-curvature="0" />
	<path style="fill:none;stroke:red;stroke-width:1px;stroke-linecap:butt;stroke-linejoin:miter;stroke-opacity:1" d="M 52.6445,811.846 43.958,796.21 z" id="boundary" inkscape:connector-curvature="0" />
	<path style="fill:none;stroke:red;stroke-width:1px;stroke-linecap:butt;stroke-linejoin:miter;stroke-opacity:1" d="M 85.6532,820.532 70.0175,811.846 z" id="boundary" inkscape:connector-curvature="0" />
	<path style="fill:none;stroke:red;stroke-width:1px;stroke-linecap:butt;stroke-linejoin:miter;stroke-opacity:1" d="M 92.6025,837.905 85.6532,820.532 z" id="boundary" inkscape:connector-curvature="0" />
	<path style="fill:none;stroke:red;stroke-width:1px;stroke-linecap:butt;stroke-linejoin:miter;stroke-opacity:1" d="M 45.6953,848.329 31.7968,836.168 z" id="boundary" inkscape:connector-curvature="0" />
	<path style="fill:none;stroke:red;stroke-width:1px;stroke-linecap:butt;stroke-linejoin:miter;stroke-opacity:1" d="M 92.6025,837.905 101.289,853.541 z" id="boundary" inkscape:connector-curvature="0" />
	<path style="fill:none;stroke:red;stroke-width:1px;stroke-linecap:butt;stroke-linejoin:miter;stroke-opacity:1" d="M 57.8564,862.228 45.6953,848.329 z" id="boundary" inkscape:connector-curvature="0" />
	<path style="fill:none;stroke:red;stroke-width:1px;stroke-linecap:butt;stroke-linejoin:miter;stroke-opacity:1" d="M 57.8564,862.228 71.7548,874.389 z" id="boundary" inkscape:connector-curvature="0" />
	<path style="fill:none;stroke:red;stroke-width:1px;stroke-linecap:butt;stroke-linejoin:miter;stroke-opacity:1" d="M 71.7548,874.389 83.9159,888.287 z" id="boundary" inkscape:connector-curvature="0" />
	<path style="fill:none;stroke:red;stroke-width:1px;stroke-linecap:butt;stroke-linejoin:miter;stroke-opacity:1" d="M 101.289,895.236 83.9159,888.287 z" id="boundary" inkscape:connector-curvature="0" />
	<path style="fill:none;stroke:red;stroke-width:1px;stroke-linecap:butt;stroke-linejoin:miter;stroke-opacity:1" d="M 101.289,895.236 113.45,909.135 z" id="boundary" inkscape:connector-curvature="0" />
	<path style="fill:none;stroke:red;stroke-width:1px;stroke-linecap:butt;stroke-linejoin:miter;stroke-opacity:1" d="M 101.289,853.541 115.187,863.965 z" id="boundary" inkscape:connector-curvature="0" />
	<path style="fill:none;stroke:red;stroke-width:1px;stroke-linecap:butt;stroke-linejoin:miter;stroke-opacity:1" d="M 115.187,863.965 132.56,865.702 z" id="boundary" inkscape:connector-curvature="0" />
	<path style="fill:none;stroke:red;stroke-width:1px;stroke-linecap:butt;stroke-linejoin:miter;stroke-opacity:1" d="M 182.942,863.965 167.306,872.651 z" id="boundary" inkscape:connector-curvature="0" />
	<path style="fill:none;stroke:red;stroke-width:1px;stroke-linecap:butt;stroke-linejoin:miter;stroke-opacity:1" d="M 200.315,855.278 182.942,863.965 z" id="boundary" inkscape:connector-curvature="0" />
	<path style="fill:none;stroke:red;stroke-width:1px;stroke-linecap:butt;stroke-linejoin:miter;stroke-opacity:1" d="M 132.56,865.702 149.933,872.651 z" id="boundary" inkscape:connector-curvature="0" />
	<path style="fill:none;stroke:red;stroke-width:1px;stroke-linecap:butt;stroke-linejoin:miter;stroke-opacity:1" d="M 167.306,872.651 149.933,872.651 z" id="boundary" inkscape:connector-curvature="0" />
	<path style="fill:none;stroke:red;stroke-width:1px;stroke-linecap:butt;stroke-linejoin:miter;stroke-opacity:1" d="M 113.45,909.135 130.823,909.135 z" id="boundary" inkscape:connector-curvature="0" />
	<path style="fill:none;stroke:red;stroke-width:1px;stroke-linecap:butt;stroke-linejoin:miter;stroke-opacity:1" d="M 148.196,909.135 130.823,909.135 z" id="boundary" inkscape:connector-curvature="0" />
	<path style="fill:none;stroke:red;stroke-width:1px;stroke-linecap:butt;stroke-linejoin:miter;stroke-opacity:1" d="M 182.942,909.135 165.569,909.135 z" id="boundary" inkscape:connector-curvature="0" />
	<path style="fill:none;stroke:red;stroke-width:1px;stroke-linecap:butt;stroke-linejoin:miter;stroke-opacity:1" d="M 148.196,909.135 165.569,909.135 z" id="boundary" inkscape:connector-curvature="0" />
	<path style="fill:none;stroke:red;stroke-width:1px;stroke-linecap:butt;stroke-linejoin:miter;stroke-opacity:1" d="M 313.24,751.04 299.342,764.939 z" id="boundary" inkscape:connector-curvature="0" />
	<path style="fill:none;stroke:red;stroke-width:1px;stroke-linecap:butt;stroke-linejoin:miter;stroke-opacity:1" d="M 299.342,764.939 290.655,782.312 z" id="boundary" inkscape:connector-curvature="0" />
	<path style="fill:none;stroke:red;stroke-width:1px;stroke-linecap:butt;stroke-linejoin:miter;stroke-opacity:1" d="M 325.401,730.193 313.24,751.04 z" id="boundary" inkscape:connector-curvature="0" />
	<path style="fill:none;stroke:red;stroke-width:1px;stroke-linecap:butt;stroke-linejoin:miter;stroke-opacity:1" d="M 358.41,792.736 344.511,804.897 z" id="boundary" inkscape:connector-curvature="0" />
	<path style="fill:none;stroke:red;stroke-width:1px;stroke-linecap:butt;stroke-linejoin:miter;stroke-opacity:1" d="M 325.401,730.193 334.088,711.082 z" id="boundary" inkscape:connector-curvature="0" />
	<path style="fill:none;stroke:red;stroke-width:1px;stroke-linecap:butt;stroke-linejoin:miter;stroke-opacity:1" d="M 290.655,782.312 278.494,803.159 z" id="boundary" inkscape:connector-curvature="0" />
	<path style="fill:none;stroke:red;stroke-width:1px;stroke-linecap:butt;stroke-linejoin:miter;stroke-opacity:1" d="M 278.494,803.159 262.858,811.846 z" id="boundary" inkscape:connector-curvature="0" />
	<path style="fill:none;stroke:red;stroke-width:1px;stroke-linecap:butt;stroke-linejoin:miter;stroke-opacity:1" d="M 344.511,804.897 330.613,820.532 z" id="boundary" inkscape:connector-curvature="0" />
	<path style="fill:none;stroke:red;stroke-width:1px;stroke-linecap:butt;stroke-linejoin:miter;stroke-opacity:1" d="M 410.529,735.405 394.893,744.091 z" id="boundary" inkscape:connector-curvature="0" />
	<path style="fill:none;stroke:red;stroke-width:1px;stroke-linecap:butt;stroke-linejoin:miter;stroke-opacity:1" d="M 445.275,726.718 427.902,731.93 z" id="boundary" inkscape:connector-curvature="0" />
	<path style="fill:none;stroke:red;stroke-width:1px;stroke-linecap:butt;stroke-linejoin:miter;stroke-opacity:1" d="M 445.275,726.718 452.224,744.091 z" id="boundary" inkscape:connector-curvature="0" />
	<path style="fill:none;stroke:red;stroke-width:1px;stroke-linecap:butt;stroke-linejoin:miter;stroke-opacity:1" d="M 410.529,735.405 427.902,731.93 z" id="boundary" inkscape:connector-curvature="0" />
	<path style="fill:none;stroke:red;stroke-width:1px;stroke-linecap:butt;stroke-linejoin:miter;stroke-opacity:1" d="M 452.224,744.091 469.597,742.354 z" id="boundary" inkscape:connector-curvature="0" />
	<path style="fill:none;stroke:red;stroke-width:1px;stroke-linecap:butt;stroke-linejoin:miter;stroke-opacity:1" d="M 394.893,744.091 379.257,752.778 z" id="boundary" inkscape:connector-curvature="0" />
	<path style="fill:none;stroke:red;stroke-width:1px;stroke-linecap:butt;stroke-linejoin:miter;stroke-opacity:1" d="M 370.571,770.151 358.41,792.736 z" id="boundary" inkscape:connector-curvature="0" />
	<path style="fill:none;stroke:red;stroke-width:1px;stroke-linecap:butt;stroke-linejoin:miter;stroke-opacity:1" d="M 379.257,752.778 370.571,770.151 z" id="boundary" inkscape:connector-curvature="0" />
	<path style="fill:none;stroke:red;stroke-width:1px;stroke-linecap:butt;stroke-linejoin:miter;stroke-opacity:1" d="M 200.315,855.278 217.688,846.592 z" id="boundary" inkscape:connector-curvature="0" />
	<path style="fill:none;stroke:red;stroke-width:1px;stroke-linecap:butt;stroke-linejoin:miter;stroke-opacity:1" d="M 235.061,837.905 217.688,846.592 z" id="boundary" inkscape:connector-curvature="0" />
	<path style="fill:none;stroke:red;stroke-width:1px;stroke-linecap:butt;stroke-linejoin:miter;stroke-opacity:1" d="M 266.333,883.075 248.96,891.762 z" id="boundary" inkscape:connector-curvature="0" />
	<path style="fill:none;stroke:red;stroke-width:1px;stroke-linecap:butt;stroke-linejoin:miter;stroke-opacity:1" d="M 248.96,824.007 235.061,837.905 z" id="boundary" inkscape:connector-curvature="0" />
	<path style="fill:none;stroke:red;stroke-width:1px;stroke-linecap:butt;stroke-linejoin:miter;stroke-opacity:1" d="M 215.951,900.448 200.315,909.135 z" id="boundary" inkscape:connector-curvature="0" />
	<path style="fill:none;stroke:red;stroke-width:1px;stroke-linecap:butt;stroke-linejoin:miter;stroke-opacity:1" d="M 200.315,909.135 182.942,909.135 z" id="boundary" inkscape:connector-curvature="0" />
	<path style="fill:none;stroke:red;stroke-width:1px;stroke-linecap:butt;stroke-linejoin:miter;stroke-opacity:1" d="M 248.96,891.762 233.324,900.448 z" id="boundary" inkscape:connector-curvature="0" />
	<path style="fill:none;stroke:red;stroke-width:1px;stroke-linecap:butt;stroke-linejoin:miter;stroke-opacity:1" d="M 215.951,900.448 233.324,900.448 z" id="boundary" inkscape:connector-curvature="0" />
	<path style="fill:none;stroke:red;stroke-width:1px;stroke-linecap:butt;stroke-linejoin:miter;stroke-opacity:1" d="M 330.613,820.532 316.715,830.956 z" id="boundary" inkscape:connector-curvature="0" />
	<path style="fill:none;stroke:red;stroke-width:1px;stroke-linecap:butt;stroke-linejoin:miter;stroke-opacity:1" d="M 316.715,830.956 301.079,839.643 z" id="boundary" inkscape:connector-curvature="0" />
	<path style="fill:none;stroke:red;stroke-width:1px;stroke-linecap:butt;stroke-linejoin:miter;stroke-opacity:1" d="M 301.079,839.643 288.918,853.541 z" id="boundary" inkscape:connector-curvature="0" />
	<path style="fill:none;stroke:red;stroke-width:1px;stroke-linecap:butt;stroke-linejoin:miter;stroke-opacity:1" d="M 266.333,883.075 275.019,865.702 z" id="boundary" inkscape:connector-curvature="0" />
	<path style="fill:none;stroke:red;stroke-width:1px;stroke-linecap:butt;stroke-linejoin:miter;stroke-opacity:1" d="M 288.918,853.541 275.019,865.702 z" id="boundary" inkscape:connector-curvature="0" />
	<path style="fill:none;stroke:red;stroke-width:1px;stroke-linecap:butt;stroke-linejoin:miter;stroke-opacity:1" d="M 248.96,824.007 262.858,811.846 z" id="boundary" inkscape:connector-curvature="0" />
	<path style="fill:none;stroke:red;stroke-width:1px;stroke-linecap:butt;stroke-linejoin:miter;stroke-opacity:1" d="M 492.182,73.4921 474.809,73.4921 z" id="boundary" inkscape:connector-curvature="0" />
	<path style="fill:none;stroke:red;stroke-width:1px;stroke-linecap:butt;stroke-linejoin:miter;stroke-opacity:1" d="M 509.555,73.4921 492.182,73.4921 z" id="boundary" inkscape:connector-curvature="0" />
	<path style="fill:none;stroke:red;stroke-width:1px;stroke-linecap:butt;stroke-linejoin:miter;stroke-opacity:1" d="M 526.928,73.4921 509.555,73.4921 z" id="boundary" inkscape:connector-curvature="0" />
	<path style="fill:none;stroke:red;stroke-width:1px;stroke-linecap:butt;stroke-linejoin:miter;stroke-opacity:1" d="M 612.056,64.8056 596.42,73.4921 z" id="boundary" inkscape:connector-curvature="0" />
	<path style="fill:none;stroke:red;stroke-width:1px;stroke-linecap:butt;stroke-linejoin:miter;stroke-opacity:1" d="M 629.429,64.8056 612.056,64.8056 z" id="boundary" inkscape:connector-curvature="0" />
	<path style="fill:none;stroke:red;stroke-width:1px;stroke-linecap:butt;stroke-linejoin:miter;stroke-opacity:1" d="M 646.802,64.8056 629.429,64.8056 z" id="boundary" inkscape:connector-curvature="0" />
	<path style="fill:none;stroke:red;stroke-width:1px;stroke-linecap:butt;stroke-linejoin:miter;stroke-opacity:1" d="M 662.438,56.1191 646.802,64.8056 z" id="boundary" inkscape:connector-curvature="0" />
	<path style="fill:none;stroke:red;stroke-width:1px;stroke-linecap:butt;stroke-linejoin:miter;stroke-opacity:1" d="M 679.811,56.1191 662.438,56.1191 z" id="boundary" inkscape:connector-curvature="0" />
	<path style="fill:none;stroke:red;stroke-width:1px;stroke-linecap:butt;stroke-linejoin:miter;stroke-opacity:1" d="M 730.193,47.4326 714.557,56.1191 z" id="boundary" inkscape:connector-curvature="0" />
	<path style="fill:none;stroke:red;stroke-width:1px;stroke-linecap:butt;stroke-linejoin:miter;stroke-opacity:1" d="M 679.811,56.1191 697.184,56.1191 z" id="boundary" inkscape:connector-curvature="0" />
	<path style="fill:none;stroke:red;stroke-width:1px;stroke-linecap:butt;stroke-linejoin:miter;stroke-opacity:1" d="M 714.557,56.1191 697.184,56.1191 z" id="boundary" inkscape:connector-curvature="0" />
	<path style="fill:none;stroke:red;stroke-width:1px;stroke-linecap:butt;stroke-linejoin:miter;stroke-opacity:1" d="M 780.574,38.7461 797.947,38.7461 z" id="boundary" inkscape:connector-curvature="0" />
	<path style="fill:none;stroke:red;stroke-width:1px;stroke-linecap:butt;stroke-linejoin:miter;stroke-opacity:1" d="M 747.566,47.4326 764.939,47.4326 z" id="boundary" inkscape:connector-curvature="0" />
	<path style="fill:none;stroke:red;stroke-width:1px;stroke-linecap:butt;stroke-linejoin:miter;stroke-opacity:1" d="M 764.939,47.4326 780.574,38.7461 z" id="boundary" inkscape:connector-curvature="0" />
	<path style="fill:none;stroke:red;stroke-width:1px;stroke-linecap:butt;stroke-linejoin:miter;stroke-opacity:1" d="M 730.193,47.4326 747.566,47.4326 z" id="boundary" inkscape:connector-curvature="0" />
	<path style="fill:none;stroke:red;stroke-width:1px;stroke-linecap:butt;stroke-linejoin:miter;stroke-opacity:1" d="M 797.947,38.7461 815.32,38.7461 z" id="boundary" inkscape:connector-curvature="0" />
	<path style="fill:none;stroke:red;stroke-width:1px;stroke-linecap:butt;stroke-linejoin:miter;stroke-opacity:1" d="M 544.301,73.4921 561.674,73.4921 z" id="boundary" inkscape:connector-curvature="0" />
	<path style="fill:none;stroke:red;stroke-width:1px;stroke-linecap:butt;stroke-linejoin:miter;stroke-opacity:1" d="M 579.047,73.4921 596.42,73.4921 z" id="boundary" inkscape:connector-curvature="0" />
	<path style="fill:none;stroke:red;stroke-width:1px;stroke-linecap:butt;stroke-linejoin:miter;stroke-opacity:1" d="M 561.674,73.4921 579.047,73.4921 z" id="boundary" inkscape:connector-curvature="0" />
	<path style="fill:none;stroke:red;stroke-width:1px;stroke-linecap:butt;stroke-linejoin:miter;stroke-opacity:1" d="M 526.928,73.4921 544.301,73.4921 z" id="boundary" inkscape:connector-curvature="0" />
	<path style="fill:none;stroke:red;stroke-width:1px;stroke-linecap:butt;stroke-linejoin:miter;stroke-opacity:1" d="M 848.329,24.8476 830.956,30.0595 z" id="boundary" inkscape:connector-curvature="0" />
	<path style="fill:none;stroke:red;stroke-width:1px;stroke-linecap:butt;stroke-linejoin:miter;stroke-opacity:1" d="M 815.32,38.7461 830.956,30.0595 z" id="boundary" inkscape:connector-curvature="0" />
	<path style="fill:none;stroke:red;stroke-width:1px;stroke-linecap:butt;stroke-linejoin:miter;stroke-opacity:1" d="M 883.075,21.373 865.702,21.373 z" id="boundary" inkscape:connector-curvature="0" />
	<path style="fill:none;stroke:red;stroke-width:1px;stroke-linecap:butt;stroke-linejoin:miter;stroke-opacity:1" d="M 900.448,16.1611 883.075,21.373 z" id="boundary" inkscape:connector-curvature="0" />
	<path style="fill:none;stroke:red;stroke-width:1px;stroke-linecap:butt;stroke-linejoin:miter;stroke-opacity:1" d="M 848.329,24.8476 865.702,21.373 z" id="boundary" inkscape:connector-curvature="0" />
	<path style="fill:none;stroke:red;stroke-width:1px;stroke-linecap:butt;stroke-linejoin:miter;stroke-opacity:1" d="M 917.821,12.6865 900.448,16.1611 z" id="boundary" inkscape:connector-curvature="0" />
	<path style="fill:none;stroke:red;stroke-width:1px;stroke-linecap:butt;stroke-linejoin:miter;stroke-opacity:1" d="M 933.457,4 917.821,12.6865 z" id="boundary" inkscape:connector-curvature="0" />
	<path style="fill:none;stroke:red;stroke-width:1px;stroke-linecap:butt;stroke-linejoin:miter;stroke-opacity:1" d="M 950.83,7.47461 961.254,21.373 z" id="boundary" inkscape:connector-curvature="0" />
	<path style="fill:none;stroke:red;stroke-width:1px;stroke-linecap:butt;stroke-linejoin:miter;stroke-opacity:1" d="M 961.254,21.373 952.567,49.1699 z" id="boundary" inkscape:connector-curvature="0" />
	<path style="fill:none;stroke:red;stroke-width:1px;stroke-linecap:butt;stroke-linejoin:miter;stroke-opacity:1" d="M 933.457,4 950.83,7.47461 z" id="boundary" inkscape:connector-curvature="0" />
	<path style="fill:none;stroke:red;stroke-width:1px;stroke-linecap:butt;stroke-linejoin:miter;stroke-opacity:1" d="M 952.567,49.1699 952.567,66.5429 z" id="boundary" inkscape:connector-curvature="0" />
	<path style="fill:none;stroke:red;stroke-width:1px;stroke-linecap:butt;stroke-linejoin:miter;stroke-opacity:1" d="M 952.567,66.5429 952.567,83.9159 z" id="boundary" inkscape:connector-curvature="0" />
	<path style="fill:none;stroke:red;stroke-width:1px;stroke-linecap:butt;stroke-linejoin:miter;stroke-opacity:1" d="M 952.567,83.9159 952.567,101.289 z" id="boundary" inkscape:connector-curvature="0" />
	<path style="fill:none;stroke:red;stroke-width:1px;stroke-linecap:butt;stroke-linejoin:miter;stroke-opacity:1" d="M 952.567,118.662 952.567,101.289 z" id="boundary" inkscape:connector-curvature="0" />
	<path style="fill:none;stroke:red;stroke-width:1px;stroke-linecap:butt;stroke-linejoin:miter;stroke-opacity:1" d="M 952.567,136.035 952.567,118.662 z" id="boundary" inkscape:connector-curvature="0" />
	<path style="fill:none;stroke:red;stroke-width:1px;stroke-linecap:butt;stroke-linejoin:miter;stroke-opacity:1" d="M 952.567,136.035 952.567,153.408 z" id="boundary" inkscape:connector-curvature="0" />
	<path style="fill:none;stroke:red;stroke-width:1px;stroke-linecap:butt;stroke-linejoin:miter;stroke-opacity:1" d="M 952.567,153.408 952.567,170.781 z" id="boundary" inkscape:connector-curvature="0" />
	<path style="fill:none;stroke:red;stroke-width:1px;stroke-linecap:butt;stroke-linejoin:miter;stroke-opacity:1" d="M 952.567,188.154 952.567,170.781 z" id="boundary" inkscape:connector-curvature="0" />
	<path style="fill:none;stroke:red;stroke-width:1px;stroke-linecap:butt;stroke-linejoin:miter;stroke-opacity:1" d="M 956.042,222.9 952.567,205.527 z" id="boundary" inkscape:connector-curvature="0" />
	<path style="fill:none;stroke:red;stroke-width:1px;stroke-linecap:butt;stroke-linejoin:miter;stroke-opacity:1" d="M 952.567,205.527 952.567,188.154 z" id="boundary" inkscape:connector-curvature="0" />
	<path style="fill:none;stroke:red;stroke-width:1px;stroke-linecap:butt;stroke-linejoin:miter;stroke-opacity:1" d="M 952.567,266.333 952.567,283.706 z" id="boundary" inkscape:connector-curvature="0" />
	<path style="fill:none;stroke:red;stroke-width:1px;stroke-linecap:butt;stroke-linejoin:miter;stroke-opacity:1" d="M 952.567,301.079 952.567,283.706 z" id="boundary" inkscape:connector-curvature="0" />
	<path style="fill:none;stroke:red;stroke-width:1px;stroke-linecap:butt;stroke-linejoin:miter;stroke-opacity:1" d="M 961.254,240.273 952.567,266.333 z" id="boundary" inkscape:connector-curvature="0" />
	<path style="fill:none;stroke:red;stroke-width:1px;stroke-linecap:butt;stroke-linejoin:miter;stroke-opacity:1" d="M 952.567,301.079 952.567,318.452 z" id="boundary" inkscape:connector-curvature="0" />
	<path style="fill:none;stroke:red;stroke-width:1px;stroke-linecap:butt;stroke-linejoin:miter;stroke-opacity:1" d="M 952.567,318.452 952.567,335.825 z" id="boundary" inkscape:connector-curvature="0" />
	<path style="fill:none;stroke:red;stroke-width:1px;stroke-linecap:butt;stroke-linejoin:miter;stroke-opacity:1" d="M 952.567,353.198 952.567,335.825 z" id="boundary" inkscape:connector-curvature="0" />
	<path style="fill:none;stroke:red;stroke-width:1px;stroke-linecap:butt;stroke-linejoin:miter;stroke-opacity:1" d="M 956.042,387.944 952.567,370.571 z" id="boundary" inkscape:connector-curvature="0" />
	<path style="fill:none;stroke:red;stroke-width:1px;stroke-linecap:butt;stroke-linejoin:miter;stroke-opacity:1" d="M 952.567,370.571 952.567,353.198 z" id="boundary" inkscape:connector-curvature="0" />
	<path style="fill:none;stroke:red;stroke-width:1px;stroke-linecap:butt;stroke-linejoin:miter;stroke-opacity:1" d="M 956.042,222.9 961.254,240.273 z" id="boundary" inkscape:connector-curvature="0" />
	<path style="fill:none;stroke:red;stroke-width:1px;stroke-linecap:butt;stroke-linejoin:miter;stroke-opacity:1" d="M 961.254,405.317 956.042,387.944 z" id="boundary" inkscape:connector-curvature="0" />
	<path style="fill:none;stroke:red;stroke-width:1px;stroke-linecap:butt;stroke-linejoin:miter;stroke-opacity:1" d="M 483.496,718.032 499.131,709.345 z" id="boundary" inkscape:connector-curvature="0" />
	<path style="fill:none;stroke:red;stroke-width:1px;stroke-linecap:butt;stroke-linejoin:miter;stroke-opacity:1" d="M 516.504,709.345 499.131,709.345 z" id="boundary" inkscape:connector-curvature="0" />
	<path style="fill:none;stroke:red;stroke-width:1px;stroke-linecap:butt;stroke-linejoin:miter;stroke-opacity:1" d="M 516.504,709.345 533.877,709.345 z" id="boundary" inkscape:connector-curvature="0" />
	<path style="fill:none;stroke:red;stroke-width:1px;stroke-linecap:butt;stroke-linejoin:miter;stroke-opacity:1" d="M 568.623,709.345 551.25,709.345 z" id="boundary" inkscape:connector-curvature="0" />
	<path style="fill:none;stroke:red;stroke-width:1px;stroke-linecap:butt;stroke-linejoin:miter;stroke-opacity:1" d="M 551.25,709.345 533.877,709.345 z" id="boundary" inkscape:connector-curvature="0" />
	<path style="fill:none;stroke:red;stroke-width:1px;stroke-linecap:butt;stroke-linejoin:miter;stroke-opacity:1" d="M 568.623,709.345 585.996,709.345 z" id="boundary" inkscape:connector-curvature="0" />
	<path style="fill:none;stroke:red;stroke-width:1px;stroke-linecap:butt;stroke-linejoin:miter;stroke-opacity:1" d="M 601.632,718.032 585.996,709.345 z" id="boundary" inkscape:connector-curvature="0" />
	<path style="fill:none;stroke:red;stroke-width:1px;stroke-linecap:butt;stroke-linejoin:miter;stroke-opacity:1" d="M 619.005,718.032 601.632,718.032 z" id="boundary" inkscape:connector-curvature="0" />
	<path style="fill:none;stroke:red;stroke-width:1px;stroke-linecap:butt;stroke-linejoin:miter;stroke-opacity:1" d="M 483.496,718.032 469.597,742.354 z" id="boundary" inkscape:connector-curvature="0" />
	<path style="fill:none;stroke:red;stroke-width:1px;stroke-linecap:butt;stroke-linejoin:miter;stroke-opacity:1" d="M 636.378,718.032 619.005,718.032 z" id="boundary" inkscape:connector-curvature="0" />
	<path style="fill:none;stroke:red;stroke-width:1px;stroke-linecap:butt;stroke-linejoin:miter;stroke-opacity:1" d="M 804.897,744.091 787.524,744.091 z" id="boundary" inkscape:connector-curvature="0" />
	<path style="fill:none;stroke:red;stroke-width:1px;stroke-linecap:butt;stroke-linejoin:miter;stroke-opacity:1" d="M 636.378,718.032 652.014,726.718 z" id="boundary" inkscape:connector-curvature="0" />
	<path style="fill:none;stroke:red;stroke-width:1px;stroke-linecap:butt;stroke-linejoin:miter;stroke-opacity:1" d="M 652.014,726.718 669.387,726.718 z" id="boundary" inkscape:connector-curvature="0" />
	<path style="fill:none;stroke:red;stroke-width:1px;stroke-linecap:butt;stroke-linejoin:miter;stroke-opacity:1" d="M 669.387,726.718 686.76,726.718 z" id="boundary" inkscape:connector-curvature="0" />
	<path style="fill:none;stroke:red;stroke-width:1px;stroke-linecap:butt;stroke-linejoin:miter;stroke-opacity:1" d="M 702.396,735.405 686.76,726.718 z" id="boundary" inkscape:connector-curvature="0" />
	<path style="fill:none;stroke:red;stroke-width:1px;stroke-linecap:butt;stroke-linejoin:miter;stroke-opacity:1" d="M 719.769,735.405 737.142,735.405 z" id="boundary" inkscape:connector-curvature="0" />
	<path style="fill:none;stroke:red;stroke-width:1px;stroke-linecap:butt;stroke-linejoin:miter;stroke-opacity:1" d="M 719.769,735.405 702.396,735.405 z" id="boundary" inkscape:connector-curvature="0" />
	<path style="fill:none;stroke:red;stroke-width:1px;stroke-linecap:butt;stroke-linejoin:miter;stroke-opacity:1" d="M 752.778,744.091 770.151,744.091 z" id="boundary" inkscape:connector-curvature="0" />
	<path style="fill:none;stroke:red;stroke-width:1px;stroke-linecap:butt;stroke-linejoin:miter;stroke-opacity:1" d="M 752.778,744.091 737.142,735.405 z" id="boundary" inkscape:connector-curvature="0" />
	<path style="fill:none;stroke:red;stroke-width:1px;stroke-linecap:butt;stroke-linejoin:miter;stroke-opacity:1" d="M 787.524,744.091 770.151,744.091 z" id="boundary" inkscape:connector-curvature="0" />
	<path style="fill:none;stroke:red;stroke-width:1px;stroke-linecap:butt;stroke-linejoin:miter;stroke-opacity:1" d="M 961.254,405.317 961.254,422.69 z" id="boundary" inkscape:connector-curvature="0" />
	<path style="fill:none;stroke:red;stroke-width:1px;stroke-linecap:butt;stroke-linejoin:miter;stroke-opacity:1" d="M 961.254,422.69 961.254,440.063 z" id="boundary" inkscape:connector-curvature="0" />
	<path style="fill:none;stroke:red;stroke-width:1px;stroke-linecap:butt;stroke-linejoin:miter;stroke-opacity:1" d="M 961.254,457.436 961.254,440.063 z" id="boundary" inkscape:connector-curvature="0" />
	<path style="fill:none;stroke:red;stroke-width:1px;stroke-linecap:butt;stroke-linejoin:miter;stroke-opacity:1" d="M 969.94,473.072 969.94,490.445 z" id="boundary" inkscape:connector-curvature="0" />
	<path style="fill:none;stroke:red;stroke-width:1px;stroke-linecap:butt;stroke-linejoin:miter;stroke-opacity:1" d="M 969.94,473.072 961.254,457.436 z" id="boundary" inkscape:connector-curvature="0" />
	<path style="fill:none;stroke:red;stroke-width:1px;stroke-linecap:butt;stroke-linejoin:miter;stroke-opacity:1" d="M 969.94,490.445 969.94,507.818 z" id="boundary" inkscape:connector-curvature="0" />
	<path style="fill:none;stroke:red;stroke-width:1px;stroke-linecap:butt;stroke-linejoin:miter;stroke-opacity:1" d="M 969.94,507.818 978.627,523.454 z" id="boundary" inkscape:connector-curvature="0" />
	<path style="fill:none;stroke:red;stroke-width:1px;stroke-linecap:butt;stroke-linejoin:miter;stroke-opacity:1" d="M 978.627,523.454 978.627,540.827 z" id="boundary" inkscape:connector-curvature="0" />
	<path style="fill:none;stroke:red;stroke-width:1px;stroke-linecap:butt;stroke-linejoin:miter;stroke-opacity:1" d="M 978.627,558.2 978.627,575.573 z" id="boundary" inkscape:connector-curvature="0" />
	<path style="fill:none;stroke:red;stroke-width:1px;stroke-linecap:butt;stroke-linejoin:miter;stroke-opacity:1" d="M 978.627,592.946 978.627,575.573 z" id="boundary" inkscape:connector-curvature="0" />
	<path style="fill:none;stroke:red;stroke-width:1px;stroke-linecap:butt;stroke-linejoin:miter;stroke-opacity:1" d="M 987.313,608.581 987.313,625.954 z" id="boundary" inkscape:connector-curvature="0" />
	<path style="fill:none;stroke:red;stroke-width:1px;stroke-linecap:butt;stroke-linejoin:miter;stroke-opacity:1" d="M 987.313,608.581 978.627,592.946 z" id="boundary" inkscape:connector-curvature="0" />
	<path style="fill:none;stroke:red;stroke-width:1px;stroke-linecap:butt;stroke-linejoin:miter;stroke-opacity:1" d="M 978.627,558.2 978.627,540.827 z" id="boundary" inkscape:connector-curvature="0" />
	<path style="fill:none;stroke:red;stroke-width:1px;stroke-linecap:butt;stroke-linejoin:miter;stroke-opacity:1" d="M 987.313,625.954 987.313,643.327 z" id="boundary" inkscape:connector-curvature="0" />
	<path style="fill:none;stroke:red;stroke-width:1px;stroke-linecap:butt;stroke-linejoin:miter;stroke-opacity:1" d="M 822.27,744.091 804.897,744.091 z" id="boundary" inkscape:connector-curvature="0" />
	<path style="fill:none;stroke:red;stroke-width:1px;stroke-linecap:butt;stroke-linejoin:miter;stroke-opacity:1" d="M 822.27,744.091 837.905,752.778 z" id="boundary" inkscape:connector-curvature="0" />
	<path style="fill:none;stroke:red;stroke-width:1px;stroke-linecap:butt;stroke-linejoin:miter;stroke-opacity:1" d="M 837.905,752.778 855.278,752.778 z" id="boundary" inkscape:connector-curvature="0" />
	<path style="fill:none;stroke:red;stroke-width:1px;stroke-linecap:butt;stroke-linejoin:miter;stroke-opacity:1" d="M 855.278,752.778 870.914,761.464 z" id="boundary" inkscape:connector-curvature="0" />
	<path style="fill:none;stroke:red;stroke-width:1px;stroke-linecap:butt;stroke-linejoin:miter;stroke-opacity:1" d="M 888.287,761.464 905.66,761.464 z" id="boundary" inkscape:connector-curvature="0" />
	<path style="fill:none;stroke:red;stroke-width:1px;stroke-linecap:butt;stroke-linejoin:miter;stroke-opacity:1" d="M 888.287,761.464 870.914,761.464 z" id="boundary" inkscape:connector-curvature="0" />
	<path style="fill:none;stroke:red;stroke-width:1px;stroke-linecap:butt;stroke-linejoin:miter;stroke-opacity:1" d="M 996,658.963 987.313,683.285 z" id="boundary" inkscape:connector-curvature="0" />
	<path style="fill:none;stroke:red;stroke-width:1px;stroke-linecap:butt;stroke-linejoin:miter;stroke-opacity:1" d="M 996,658.963 987.313,643.327 z" id="boundary" inkscape:connector-curvature="0" />
	<path style="fill:none;stroke:red;stroke-width:1px;stroke-linecap:butt;stroke-linejoin:miter;stroke-opacity:1" d="M 987.313,700.658 987.313,683.285 z" id="boundary" inkscape:connector-curvature="0" />
	<path style="fill:none;stroke:red;stroke-width:1px;stroke-linecap:butt;stroke-linejoin:miter;stroke-opacity:1" d="M 982.102,724.981 987.313,700.658 z" id="boundary" inkscape:connector-curvature="0" />
	<path style="fill:none;stroke:red;stroke-width:1px;stroke-linecap:butt;stroke-linejoin:miter;stroke-opacity:1" d="M 938.669,752.778 923.033,761.464 z" id="boundary" inkscape:connector-curvature="0" />
	<path style="fill:none;stroke:red;stroke-width:1px;stroke-linecap:butt;stroke-linejoin:miter;stroke-opacity:1" d="M 905.66,761.464 923.033,761.464 z" id="boundary" inkscape:connector-curvature="0" />
	<path style="fill:none;stroke:red;stroke-width:1px;stroke-linecap:butt;stroke-linejoin:miter;stroke-opacity:1" d="M 938.669,752.778 956.042,751.04 z" id="boundary" inkscape:connector-curvature="0" />
	<path style="fill:none;stroke:red;stroke-width:1px;stroke-linecap:butt;stroke-linejoin:miter;stroke-opacity:1" d="M 982.102,724.981 973.415,742.354 z" id="boundary" inkscape:connector-curvature="0" />
	<path style="fill:none;stroke:red;stroke-width:1px;stroke-linecap:butt;stroke-linejoin:miter;stroke-opacity:1" d="M 973.415,742.354 956.042,751.04 z" id="boundary" inkscape:connector-curvature="0" />
	<circle cx="4" cy="756.252" r="4" fill="#0" id="circle0"/>
	<circle cx="4" cy="773.625" r="4" fill="#0" id="circle1"/>
	<circle cx="12.6865" cy="789.261" r="4" fill="#0" id="circle2"/>
	<circle cx="12.6865" cy="806.634" r="4" fill="#0" id="circle3"/>
	<circle cx="21.373" cy="751.04" r="4" fill="#0" id="circle4"/>
	<circle cx="21.373" cy="822.27" r="4" fill="#0" id="circle5"/>
	<circle cx="31.7968" cy="836.168" r="4" fill="#0" id="circle6"/>
	<circle cx="35.2715" cy="761.464" r="4" fill="#0" id="circle7"/>
	<circle cx="40.4834" cy="778.837" r="4" fill="#0" id="circle8"/>
	<circle cx="43.958" cy="796.21" r="4" fill="#0" id="circle9"/>
	<circle cx="45.6953" cy="848.329" r="4" fill="#0" id="circle10"/>
	<circle cx="52.6445" cy="811.846" r="4" fill="#0" id="circle11"/>
	<circle cx="57.8564" cy="862.228" r="4" fill="#0" id="circle12"/>
	<circle cx="70.0175" cy="811.846" r="4" fill="#0" id="circle13"/>
	<circle cx="71.7548" cy="874.389" r="4" fill="#0" id="circle14"/>
	<circle cx="83.9159" cy="888.287" r="4" fill="#0" id="circle15"/>
	<circle cx="85.6532" cy="820.532" r="4" fill="#0" id="circle16"/>
	<circle cx="92.6025" cy="837.905" r="4" fill="#0" id="circle17"/>
	<circle cx="101.289" cy="853.541" r="4" fill="#0" id="circle18"/>
	<circle cx="101.289" cy="895.236" r="4" fill="#0" id="circle19"/>
	<circle cx="113.45" cy="909.135" r="4" fill="#0" id="circle20"/>
	<circle cx="115.187" cy="863.965" r="4" fill="#0" id="circle21"/>
	<circle cx="130.823" cy="909.135" r="4" fill="#0" id="circle22"/>
	<circle cx="132.56" cy="865.702" r="4" fill="#0" id="circle23"/>
	<circle cx="148.196" cy="909.135" r="4" fill="#0" id="circle24"/>
	<circle cx="149.933" cy="872.651" r="4" fill="#0" id="circle25"/>
	<circle cx="165.569" cy="909.135" r="4" fill="#0" id="circle26"/>
	<circle cx="167.306" cy="872.651" r="4" fill="#0" id="circle27"/>
	<circle cx="182.942" cy="863.965" r="4" fill="#0" id="circle28"/>
	<circle cx="182.942" cy="909.135" r="4" fill="#0" id="circle29"/>
	<circle cx="200.315" cy="855.278" r="4" fill="#0" id="circle30"/>
	<circle cx="200.315" cy="909.135" r="4" fill="#0" id="circle31"/>
	<circle cx="203.79" cy="122.137" r="4" fill="#0" id="circle32"/>
	<circle cx="203.79" cy="139.51" r="4" fill="#0" id="circle33"/>
	<circle cx="212.476" cy="155.145" r="4" fill="#0" id="circle34"/>
	<circle cx="212.476" cy="172.518" r="4" fill="#0" id="circle35"/>
	<circle cx="212.476" cy="189.891" r="4" fill="#0" id="circle36"/>
	<circle cx="215.951" cy="900.448" r="4" fill="#0" id="circle37"/>
	<circle cx="217.688" cy="108.238" r="4" fill="#0" id="circle38"/>
	<circle cx="217.688" cy="846.592" r="4" fill="#0" id="circle39"/>
	<circle cx="221.163" cy="205.527" r="4" fill="#0" id="circle40"/>
	<circle cx="226.375" cy="222.9" r="4" fill="#0" id="circle41"/>
	<circle cx="231.587" cy="94.3398" r="4" fill="#0" id="circle42"/>
	<circle cx="233.324" cy="900.448" r="4" fill="#0" id="circle43"/>
	<circle cx="235.061" cy="837.905" r="4" fill="#0" id="circle44"/>
	<circle cx="238.536" cy="236.799" r="4" fill="#0" id="circle45"/>
	<circle cx="238.536" cy="254.172" r="4" fill="#0" id="circle46"/>
	<circle cx="240.273" cy="271.545" r="4" fill="#0" id="circle47"/>
	<circle cx="247.222" cy="288.918" r="4" fill="#0" id="circle48"/>
	<circle cx="248.96" cy="85.6532" r="4" fill="#0" id="circle49"/>
	<circle cx="248.96" cy="824.007" r="4" fill="#0" id="circle50"/>
	<circle cx="248.96" cy="891.762" r="4" fill="#0" id="circle51"/>
	<circle cx="255.909" cy="304.553" r="4" fill="#0" id="circle52"/>
	<circle cx="255.909" cy="321.926" r="4" fill="#0" id="circle53"/>
	<circle cx="262.858" cy="811.846" r="4" fill="#0" id="circle54"/>
	<circle cx="264.595" cy="337.562" r="4" fill="#0" id="circle55"/>
	<circle cx="266.333" cy="82.1786" r="4" fill="#0" id="circle56"/>
	<circle cx="266.333" cy="883.075" r="4" fill="#0" id="circle57"/>
	<circle cx="273.282" cy="353.198" r="4" fill="#0" id="circle58"/>
	<circle cx="275.019" cy="865.702" r="4" fill="#0" id="circle59"/>
	<circle cx="278.494" cy="370.571" r="4" fill="#0" id="circle60"/>
	<circle cx="278.494" cy="803.159" r="4" fill="#0" id="circle61"/>
	<circle cx="281.968" cy="387.944" r="4" fill="#0" id="circle62"/>
	<circle cx="283.706" cy="76.9667" r="4" fill="#0" id="circle63"/>
	<circle cx="288.918" cy="853.541" r="4" fill="#0" id="circle64"/>
	<circle cx="290.655" cy="403.58" r="4" fill="#0" id="circle65"/>
	<circle cx="290.655" cy="782.312" r="4" fill="#0" id="circle66"/>
	<circle cx="294.13" cy="420.953" r="4" fill="#0" id="circle67"/>
	<circle cx="299.342" cy="438.326" r="4" fill="#0" id="circle68"/>
	<circle cx="299.342" cy="455.699" r="4" fill="#0" id="circle69"/>
	<circle cx="299.342" cy="764.939" r="4" fill="#0" id="circle70"/>
	<circle cx="301.079" cy="73.4921" r="4" fill="#0" id="circle71"/>
	<circle cx="301.079" cy="839.643" r="4" fill="#0" id="circle72"/>
	<circle cx="302.816" cy="473.072" r="4" fill="#0" id="circle73"/>
	<circle cx="308.028" cy="490.445" r="4" fill="#0" id="circle74"/>
	<circle cx="313.24" cy="751.04" r="4" fill="#0" id="circle75"/>
	<circle cx="316.715" cy="506.081" r="4" fill="#0" id="circle76"/>
	<circle cx="316.715" cy="830.956" r="4" fill="#0" id="circle77"/>
	<circle cx="318.452" cy="73.4921" r="4" fill="#0" id="circle78"/>
	<circle cx="318.452" cy="523.454" r="4" fill="#0" id="circle79"/>
	<circle cx="325.401" cy="625.954" r="4" fill="#0" id="circle80"/>
	<circle cx="325.401" cy="730.193" r="4" fill="#0" id="circle81"/>
	<circle cx="327.138" cy="539.089" r="4" fill="#0" id="circle82"/>
	<circle cx="330.613" cy="820.532" r="4" fill="#0" id="circle83"/>
	<circle cx="334.088" cy="556.462" r="4" fill="#0" id="circle84"/>
	<circle cx="334.088" cy="608.581" r="4" fill="#0" id="circle85"/>
	<circle cx="334.088" cy="641.59" r="4" fill="#0" id="circle86"/>
	<circle cx="334.088" cy="658.963" r="4" fill="#0" id="circle87"/>
	<circle cx="334.088" cy="676.336" r="4" fill="#0" id="circle88"/>
	<circle cx="334.088" cy="693.709" r="4" fill="#0" id="circle89"/>
	<circle cx="334.088" cy="711.082" r="4" fill="#0" id="circle90"/>
	<circle cx="335.825" cy="73.4921" r="4" fill="#0" id="circle91"/>
	<circle cx="342.774" cy="572.098" r="4" fill="#0" id="circle92"/>
	<circle cx="344.511" cy="804.897" r="4" fill="#0" id="circle93"/>
	<circle cx="347.986" cy="594.683" r="4" fill="#0" id="circle94"/>
	<circle cx="353.198" cy="73.4921" r="4" fill="#0" id="circle95"/>
	<circle cx="358.41" cy="792.736" r="4" fill="#0" id="circle96"/>
	<circle cx="370.571" cy="73.4921" r="4" fill="#0" id="circle97"/>
	<circle cx="370.571" cy="770.151" r="4" fill="#0" id="circle98"/>
	<circle cx="379.257" cy="752.778" r="4" fill="#0" id="circle99"/>
	<circle cx="387.944" cy="73.4921" r="4" fill="#0" id="circle100"/>
	<circle cx="394.893" cy="744.091" r="4" fill="#0" id="circle101"/>
	<circle cx="405.317" cy="73.4921" r="4" fill="#0" id="circle102"/>
	<circle cx="410.529" cy="735.405" r="4" fill="#0" id="circle103"/>
	<circle cx="422.69" cy="73.4921" r="4" fill="#0" id="circle104"/>
	<circle cx="427.902" cy="731.93" r="4" fill="#0" id="circle105"/>
	<circle cx="440.063" cy="73.4921" r="4" fill="#0" id="circle106"/>
	<circle cx="445.275" cy="726.718" r="4" fill="#0" id="circle107"/>
	<circle cx="452.224" cy="744.091" r="4" fill="#0" id="circle108"/>
	<circle cx="457.436" cy="73.4921" r="4" fill="#0" id="circle109"/>
	<circle cx="469.597" cy="742.354" r="4" fill="#0" id="circle110"/>
	<circle cx="474.809" cy="73.4921" r="4" fill="#0" id="circle111"/>
	<circle cx="483.496" cy="718.032" r="4" fill="#0" id="circle112"/>
	<circle cx="492.182" cy="73.4921" r="4" fill="#0" id="circle113"/>
	<circle cx="499.131" cy="709.345" r="4" fill="#0" id="circle114"/>
	<circle cx="509.555" cy="73.4921" r="4" fill="#0" id="circle115"/>
	<circle cx="516.504" cy="709.345" r="4" fill="#0" id="circle116"/>
	<circle cx="526.928" cy="73.4921" r="4" fill="#0" id="circle117"/>
	<circle cx="533.877" cy="709.345" r="4" fill="#0" id="circle118"/>
	<circle cx="544.301" cy="73.4921" r="4" fill="#0" id="circle119"/>
	<circle cx="551.25" cy="709.345" r="4" fill="#0" id="circle120"/>
	<circle cx="561.674" cy="73.4921" r="4" fill="#0" id="circle121"/>
	<circle cx="568.623" cy="709.345" r="4" fill="#0" id="circle122"/>
	<circle cx="579.047" cy="73.4921" r="4" fill="#0" id="circle123"/>
	<circle cx="585.996" cy="709.345" r="4" fill="#0" id="circle124"/>
	<circle cx="596.42" cy="73.4921" r="4" fill="#0" id="circle125"/>
	<circle cx="601.632" cy="718.032" r="4" fill="#0" id="circle126"/>
	<circle cx="612.056" cy="64.8056" r="4" fill="#0" id="circle127"/>
	<circle cx="619.005" cy="718.032" r="4" fill="#0" id="circle128"/>
	<circle cx="629.429" cy="64.8056" r="4" fill="#0" id="circle129"/>
	<circle cx="636.378" cy="718.032" r="4" fill="#0" id="circle130"/>
	<circle cx="646.802" cy="64.8056" r="4" fill="#0" id="circle131"/>
	<circle cx="652.014" cy="726.718" r="4" fill="#0" id="circle132"/>
	<circle cx="662.438" cy="56.1191" r="4" fill="#0" id="circle133"/>
	<circle cx="669.387" cy="726.718" r="4" fill="#0" id="circle134"/>
	<circle cx="679.811" cy="56.1191" r="4" fill="#0" id="circle135"/>
	<circle cx="686.76" cy="726.718" r="4" fill="#0" id="circle136"/>
	<circle cx="697.184" cy="56.1191" r="4" fill="#0" id="circle137"/>
	<circle cx="702.396" cy="735.405" r="4" fill="#0" id="circle138"/>
	<circle cx="714.557" cy="56.1191" r="4" fill="#0" id="circle139"/>
	<circle cx="719.769" cy="735.405" r="4" fill="#0" id="circle140"/>
	<circle cx="730.193" cy="47.4326" r="4" fill="#0" id="circle141"/>
	<circle cx="737.142" cy="735.405" r="4" fill="#0" id="circle142"/>
	<circle cx="747.566" cy="47.4326" r="4" fill="#0" id="circle143"/>
	<circle cx="752.778" cy="744.091" r="4" fill="#0" id="circle144"/>
	<circle cx="764.939" cy="47.4326" r="4" fill="#0" id="circle145"/>
	<circle cx="770.151" cy="744.091" r="4" fill="#0" id="circle146"/>
	<circle cx="780.574" cy="38.7461" r="4" fill="#0" id="circle147"/>
	<circle cx="787.524" cy="744.091" r="4" fill="#0" id="circle148"/>
	<circle cx="797.947" cy="38.7461" r="4" fill="#0" id="circle149"/>
	<circle cx="804.897" cy="744.091" r="4" fill="#0" id="circle150"/>
	<circle cx="815.32" cy="38.7461" r="4" fill="#0" id="circle151"/>
	<circle cx="822.27" cy="744.091" r="4" fill="#0" id="circle152"/>
	<circle cx="830.956" cy="30.0595" r="4" fill="#0" id="circle153"/>
	<circle cx="837.905" cy="752.778" r="4" fill="#0" id="circle154"/>
	<circle cx="848.329" cy="24.8476" r="4" fill="#0" id="circle155"/>
	<circle cx="855.278" cy="752.778" r="4" fill="#0" id="circle156"/>
	<circle cx="865.702" cy="21.373" r="4" fill="#0" id="circle157"/>
	<circle cx="870.914" cy="761.464" r="4" fill="#0" id="circle158"/>
	<circle cx="883.075" cy="21.373" r="4" fill="#0" id="circle159"/>
	<circle cx="888.287" cy="761.464" r="4" fill="#0" id="circle160"/>
	<circle cx="900.448" cy="16.1611" r="4" fill="#0" id="circle161"/>
	<circle cx="905.66" cy="761.464" r="4" fill="#0" id="circle162"/>
	<circle cx="917.821" cy="12.6865" r="4" fill="#0" id="circle163"/>
	<circle cx="923.033" cy="761.464" r="4" fill="#0" id="circle164"/>
	<circle cx="933.457" cy="4" r="4" fill="#0" id="circle165"/>
	<circle cx="938.669" cy="752.778" r="4" fill="#0" id="circle166"/>
	<circle cx="950.83" cy="7.47461" r="4" fill="#0" id="circle167"/>
	<circle cx="952.567" cy="49.1699" r="4" fill="#0" id="circle168"/>
	<circle cx="952.567" cy="66.5429" r="4" fill="#0" id="circle169"/>
	<circle cx="952.567" cy="83.9159" r="4" fill="#0" id="circle170"/>
	<circle cx="952.567" cy="101.289" r="4" fill="#0" id="circle171"/>
	<circle cx="952.567" cy="118.662" r="4" fill="#0" id="circle172"/>
	<circle cx="952.567" cy="136.035" r="4" fill="#0" id="circle173"/>
	<circle cx="952.567" cy="153.408" r="4" fill="#0" id="circle174"/>
	<circle cx="952.567" cy="170.781" r="4" fill="#0" id="circle175"/>
	<circle cx="952.567" cy="188.154" r="4" fill="#0" id="circle176"/>
	<circle cx="952.567" cy="205.527" r="4" fill="#0" id="circle177"/>
	<circle cx="952.567" cy="266.333" r="4" fill="#0" id="circle178"/>
	<circle cx="952.567" cy="283.706" r="4" fill="#0" id="circle179"/>
	<circle cx="952.567" cy="301.079" r="4" fill="#0" id="circle180"/>
	<circle cx="952.567" cy="318.452" r="4" fill="#0" id="circle181"/>
	<circle cx="952.567" cy="335.825" r="4" fill="#0" id="circle182"/>
	<circle cx="952.567" cy="353.198" r="4" fill="#0" id="circle183"/>
	<circle cx="952.567" cy="370.571" r="4" fill="#0" id="circle184"/>
	<circle cx="956.042" cy="222.9" r="4" fill="#0" id="circle185"/>
	<circle cx="956.042" cy="387.944" r="4" fill="#0" id="circle186"/>
	<circle cx="956.042" cy="751.04" r="4" fill="#0" id="circle187"/>
	<circle cx="961.254" cy="21.373" r="4" fill="#0" id="circle188"/>
	<circle cx="961.254" cy="240.273" r="4" fill="#0" id="circle189"/>
	<circle cx="961.254" cy="405.317" r="4" fill="#0" id="circle190"/>
	<circle cx="961.254" cy="422.69" r="4" fill="#0" id="circle191"/>
	<circle cx="961.254" cy="440.063" r="4" fill="#0" id="circle192"/>
	<circle cx="961.254" cy="457.436" r="4" fill="#0" id="circle193"/>
	<circle cx="969.94" cy="473.072" r="4" fill="#0" id="circle194"/>
	<circle cx="969.94" cy="490.445" r="4" fill="#0" id="circle195"/>
	<circle cx="969.94" cy="507.818" r="4" fill="#0" id="circle196"/>
	<circle cx="973.415" cy="742.354" r="4" fill="#0" id="circle197"/>
	<circle cx="978.627" cy="523.454" r="4" fill="#0" id="circle198"/>
	<circle cx="978.627" cy="540.827" r="4" fill="#0" id="circle199"/>
	<circle cx="978.627" cy="558.2" r="4" fill="#0" id="circle200"/>
	<circle cx="978.627" cy="575.573" r="4" fill="#0" id="circle201"/>
	<circle cx="978.627" cy="592.946" r="4" fill="#0" id="circle202"/>
	<circle cx="982.102" cy="724.981" r="4" fill="#0" id="circle203"/>
	<circle cx="987.313" cy="608.581" r="4" fill="#0" id="circle204"/>
	<circle cx="987.313" cy="625.954" r="4" fill="#0" id="circle205"/>
	<circle cx="987.313" cy="643.327" r="4" fill="#0" id="circle206"/>
	<circle cx="987.313" cy="683.285" r="4" fill="#0" id="circle207"/>
	<circle cx="987.313" cy="700.658" r="4" fill="#0" id="circle208"/>
	<circle cx="996" cy="658.963" r="4" fill="#0" id="circle209"/>
	</g>
</svg>