<?xml version="1.0" encoding="UTF-8" standalone="no"?>
<!-- Created with CurveBenchmark -->
<svg
	xmlns:dc="http://purl.org/dc/elements/1.1/"
	xmlns:cc="http://creativecommons.org/ns#"
	xmlns:rdf="http://www.w3.org/1999/02/22-rdf-syntax-ns#"
	xmlns:svg="http://www.w3.org/2000/svg"
	xmlns="http://www.w3.org/2000/svg"
	xmlns:sodipodi="http://sodipodi.sourceforge.net/DTD/sodipodi-0.dtd"
	xmlns:inkscape="http://www.inkscape.org/namespaces/inkscape"
	width="1000"
	height="1000"
	id="svg2"
	version="1.1"
	sodipodi:docname="manifold/crust-textbox25.png.txt">
<defs
	id="defs4" />
<metadata
	id="metadata7">
	<rdf:RDF>
		<cc:Work
			rdf:about="">
			<dc:format>image/svg+xml</dc:format>
			<dc:type
				rdf:resource="http://purl.org/dc/dcmitype/StillImage" />
			<dc:title></dc:title>
		</cc:Work>
	</rdf:RDF>
</metadata>
<g
	inkscape:label="Layer 1"
	inkscape:groupmode="layer"
	id="layer1">
	<path style="fill:none;stroke:red;stroke-width:1px;stroke-linecap:butt;stroke-linejoin:miter;stroke-opacity:1" d="M 160.632,95.8185 151.63,112.022 z" id="boundary" inkscape:connector-curvature="0" />
	<path style="fill:none;stroke:red;stroke-width:1px;stroke-linecap:butt;stroke-linejoin:miter;stroke-opacity:1" d="M 122.824,130.025 104.82,133.626 z" id="boundary" inkscape:connector-curvature="0" />
	<path style="fill:none;stroke:red;stroke-width:1px;stroke-linecap:butt;stroke-linejoin:miter;stroke-opacity:1" d="M 104.82,133.626 90.4174,148.029 z" id="boundary" inkscape:connector-curvature="0" />
	<path style="fill:none;stroke:red;stroke-width:1px;stroke-linecap:butt;stroke-linejoin:miter;stroke-opacity:1" d="M 133.626,113.822 151.63,112.022 z" id="boundary" inkscape:connector-curvature="0" />
	<path style="fill:none;stroke:red;stroke-width:1px;stroke-linecap:butt;stroke-linejoin:miter;stroke-opacity:1" d="M 133.626,113.822 122.824,130.025 z" id="boundary" inkscape:connector-curvature="0" />
	<path style="fill:none;stroke:red;stroke-width:1px;stroke-linecap:butt;stroke-linejoin:miter;stroke-opacity:1" d="M 238.047,58.0109 223.644,68.8131 z" id="boundary" inkscape:connector-curvature="0" />
	<path style="fill:none;stroke:red;stroke-width:1px;stroke-linecap:butt;stroke-linejoin:miter;stroke-opacity:1" d="M 223.644,68.8131 214.642,85.0163 z" id="boundary" inkscape:connector-curvature="0" />
	<path style="fill:none;stroke:red;stroke-width:1px;stroke-linecap:butt;stroke-linejoin:miter;stroke-opacity:1" d="M 256.051,58.0109 238.047,58.0109 z" id="boundary" inkscape:connector-curvature="0" />
	<path style="fill:none;stroke:red;stroke-width:1px;stroke-linecap:butt;stroke-linejoin:miter;stroke-opacity:1" d="M 160.632,95.8185 178.635,94.0181 z" id="boundary" inkscape:connector-curvature="0" />
	<path style="fill:none;stroke:red;stroke-width:1px;stroke-linecap:butt;stroke-linejoin:miter;stroke-opacity:1" d="M 178.635,94.0181 196.639,86.8167 z" id="boundary" inkscape:connector-curvature="0" />
	<path style="fill:none;stroke:red;stroke-width:1px;stroke-linecap:butt;stroke-linejoin:miter;stroke-opacity:1" d="M 196.639,86.8167 214.642,85.0163 z" id="boundary" inkscape:connector-curvature="0" />
	<path style="fill:none;stroke:red;stroke-width:1px;stroke-linecap:butt;stroke-linejoin:miter;stroke-opacity:1" d="M 31.0054,234.446 31.0054,216.443 z" id="boundary" inkscape:connector-curvature="0" />
	<path style="fill:none;stroke:red;stroke-width:1px;stroke-linecap:butt;stroke-linejoin:miter;stroke-opacity:1" d="M 49.0091,198.439 31.0054,216.443 z" id="boundary" inkscape:connector-curvature="0" />
	<path style="fill:none;stroke:red;stroke-width:1px;stroke-linecap:butt;stroke-linejoin:miter;stroke-opacity:1" d="M 22.0036,252.45 31.0054,234.446 z" id="boundary" inkscape:connector-curvature="0" />
	<path style="fill:none;stroke:red;stroke-width:1px;stroke-linecap:butt;stroke-linejoin:miter;stroke-opacity:1" d="M 58.0109,171.434 49.0091,198.439 z" id="boundary" inkscape:connector-curvature="0" />
	<path style="fill:none;stroke:red;stroke-width:1px;stroke-linecap:butt;stroke-linejoin:miter;stroke-opacity:1" d="M 22.0036,270.454 4,279.456 z" id="boundary" inkscape:connector-curvature="0" />
	<path style="fill:none;stroke:red;stroke-width:1px;stroke-linecap:butt;stroke-linejoin:miter;stroke-opacity:1" d="M 4,279.456 13.0018,295.659 z" id="boundary" inkscape:connector-curvature="0" />
	<path style="fill:none;stroke:red;stroke-width:1px;stroke-linecap:butt;stroke-linejoin:miter;stroke-opacity:1" d="M 22.0036,270.454 22.0036,252.45 z" id="boundary" inkscape:connector-curvature="0" />
	<path style="fill:none;stroke:red;stroke-width:1px;stroke-linecap:butt;stroke-linejoin:miter;stroke-opacity:1" d="M 13.0018,295.659 4,315.463 z" id="boundary" inkscape:connector-curvature="0" />
	<path style="fill:none;stroke:red;stroke-width:1px;stroke-linecap:butt;stroke-linejoin:miter;stroke-opacity:1" d="M 76.0145,162.432 58.0109,171.434 z" id="boundary" inkscape:connector-curvature="0" />
	<path style="fill:none;stroke:red;stroke-width:1px;stroke-linecap:butt;stroke-linejoin:miter;stroke-opacity:1" d="M 76.0145,162.432 90.4174,148.029 z" id="boundary" inkscape:connector-curvature="0" />
	<path style="fill:none;stroke:red;stroke-width:1px;stroke-linecap:butt;stroke-linejoin:miter;stroke-opacity:1" d="M 367.673,22.0036 349.67,22.0036 z" id="boundary" inkscape:connector-curvature="0" />
	<path style="fill:none;stroke:red;stroke-width:1px;stroke-linecap:butt;stroke-linejoin:miter;stroke-opacity:1" d="M 349.67,22.0036 333.466,31.0054 z" id="boundary" inkscape:connector-curvature="0" />
	<path style="fill:none;stroke:red;stroke-width:1px;stroke-linecap:butt;stroke-linejoin:miter;stroke-opacity:1" d="M 272.254,49.0091 290.258,49.0091 z" id="boundary" inkscape:connector-curvature="0" />
	<path style="fill:none;stroke:red;stroke-width:1px;stroke-linecap:butt;stroke-linejoin:miter;stroke-opacity:1" d="M 308.261,49.0091 290.258,49.0091 z" id="boundary" inkscape:connector-curvature="0" />
	<path style="fill:none;stroke:red;stroke-width:1px;stroke-linecap:butt;stroke-linejoin:miter;stroke-opacity:1" d="M 326.265,49.0091 333.466,31.0054 z" id="boundary" inkscape:connector-curvature="0" />
	<path style="fill:none;stroke:red;stroke-width:1px;stroke-linecap:butt;stroke-linejoin:miter;stroke-opacity:1" d="M 326.265,49.0091 308.261,49.0091 z" id="boundary" inkscape:connector-curvature="0" />
	<path style="fill:none;stroke:red;stroke-width:1px;stroke-linecap:butt;stroke-linejoin:miter;stroke-opacity:1" d="M 272.254,49.0091 256.051,58.0109 z" id="boundary" inkscape:connector-curvature="0" />
	<path style="fill:none;stroke:red;stroke-width:1px;stroke-linecap:butt;stroke-linejoin:miter;stroke-opacity:1" d="M 454.091,4 436.087,9.40109 z" id="boundary" inkscape:connector-curvature="0" />
	<path style="fill:none;stroke:red;stroke-width:1px;stroke-linecap:butt;stroke-linejoin:miter;stroke-opacity:1" d="M 385.677,22.0036 367.673,22.0036 z" id="boundary" inkscape:connector-curvature="0" />
	<path style="fill:none;stroke:red;stroke-width:1px;stroke-linecap:butt;stroke-linejoin:miter;stroke-opacity:1" d="M 490.098,4 472.094,4 z" id="boundary" inkscape:connector-curvature="0" />
	<path style="fill:none;stroke:red;stroke-width:1px;stroke-linecap:butt;stroke-linejoin:miter;stroke-opacity:1" d="M 472.094,4 454.091,4 z" id="boundary" inkscape:connector-curvature="0" />
	<path style="fill:none;stroke:red;stroke-width:1px;stroke-linecap:butt;stroke-linejoin:miter;stroke-opacity:1" d="M 508.102,4 490.098,4 z" id="boundary" inkscape:connector-curvature="0" />
	<path style="fill:none;stroke:red;stroke-width:1px;stroke-linecap:butt;stroke-linejoin:miter;stroke-opacity:1" d="M 385.677,22.0036 403.681,22.0036 z" id="boundary" inkscape:connector-curvature="0" />
	<path style="fill:none;stroke:red;stroke-width:1px;stroke-linecap:butt;stroke-linejoin:miter;stroke-opacity:1" d="M 421.684,22.0036 403.681,22.0036 z" id="boundary" inkscape:connector-curvature="0" />
	<path style="fill:none;stroke:red;stroke-width:1px;stroke-linecap:butt;stroke-linejoin:miter;stroke-opacity:1" d="M 526.105,7.60073 508.102,4 z" id="boundary" inkscape:connector-curvature="0" />
	<path style="fill:none;stroke:red;stroke-width:1px;stroke-linecap:butt;stroke-linejoin:miter;stroke-opacity:1" d="M 421.684,22.0036 436.087,9.40109 z" id="boundary" inkscape:connector-curvature="0" />
	<path style="fill:none;stroke:red;stroke-width:1px;stroke-linecap:butt;stroke-linejoin:miter;stroke-opacity:1" d="M 544.109,4 526.105,7.60073 z" id="boundary" inkscape:connector-curvature="0" />
	<path style="fill:none;stroke:red;stroke-width:1px;stroke-linecap:butt;stroke-linejoin:miter;stroke-opacity:1" d="M 4,333.466 4,315.463 z" id="boundary" inkscape:connector-curvature="0" />
	<path style="fill:none;stroke:red;stroke-width:1px;stroke-linecap:butt;stroke-linejoin:miter;stroke-opacity:1" d="M 4,333.466 4,351.47 z" id="boundary" inkscape:connector-curvature="0" />
	<path style="fill:none;stroke:red;stroke-width:1px;stroke-linecap:butt;stroke-linejoin:miter;stroke-opacity:1" d="M 13.0018,367.673 4,351.47 z" id="boundary" inkscape:connector-curvature="0" />
	<path style="fill:none;stroke:red;stroke-width:1px;stroke-linecap:butt;stroke-linejoin:miter;stroke-opacity:1" d="M 13.0018,367.673 13.0018,385.677 z" id="boundary" inkscape:connector-curvature="0" />
	<path style="fill:none;stroke:red;stroke-width:1px;stroke-linecap:butt;stroke-linejoin:miter;stroke-opacity:1" d="M 13.0018,385.677 25.6044,400.08 z" id="boundary" inkscape:connector-curvature="0" />
	<path style="fill:none;stroke:red;stroke-width:1px;stroke-linecap:butt;stroke-linejoin:miter;stroke-opacity:1" d="M 25.6044,400.08 40.0073,410.882 z" id="boundary" inkscape:connector-curvature="0" />
	<path style="fill:none;stroke:red;stroke-width:1px;stroke-linecap:butt;stroke-linejoin:miter;stroke-opacity:1" d="M 45.4083,428.886 40.0073,410.882 z" id="boundary" inkscape:connector-curvature="0" />
	<path style="fill:none;stroke:red;stroke-width:1px;stroke-linecap:butt;stroke-linejoin:miter;stroke-opacity:1" d="M 61.6116,437.887 45.4083,428.886 z" id="boundary" inkscape:connector-curvature="0" />
	<path style="fill:none;stroke:red;stroke-width:1px;stroke-linecap:butt;stroke-linejoin:miter;stroke-opacity:1" d="M 61.6116,437.887 67.0127,455.891 z" id="boundary" inkscape:connector-curvature="0" />
	<path style="fill:none;stroke:red;stroke-width:1px;stroke-linecap:butt;stroke-linejoin:miter;stroke-opacity:1" d="M 67.0127,455.891 77.8149,470.294 z" id="boundary" inkscape:connector-curvature="0" />
	<path style="fill:none;stroke:red;stroke-width:1px;stroke-linecap:butt;stroke-linejoin:miter;stroke-opacity:1" d="M 92.2178,482.897 77.8149,470.294 z" id="boundary" inkscape:connector-curvature="0" />
	<path style="fill:none;stroke:red;stroke-width:1px;stroke-linecap:butt;stroke-linejoin:miter;stroke-opacity:1" d="M 108.421,491.898 92.2178,482.897 z" id="boundary" inkscape:connector-curvature="0" />
	<path style="fill:none;stroke:red;stroke-width:1px;stroke-linecap:butt;stroke-linejoin:miter;stroke-opacity:1" d="M 124.624,500.9 108.421,491.898 z" id="boundary" inkscape:connector-curvature="0" />
	<path style="fill:none;stroke:red;stroke-width:1px;stroke-linecap:butt;stroke-linejoin:miter;stroke-opacity:1" d="M 160.632,509.902 142.628,506.301 z" id="boundary" inkscape:connector-curvature="0" />
	<path style="fill:none;stroke:red;stroke-width:1px;stroke-linecap:butt;stroke-linejoin:miter;stroke-opacity:1" d="M 124.624,500.9 142.628,506.301 z" id="boundary" inkscape:connector-curvature="0" />
	<path style="fill:none;stroke:red;stroke-width:1px;stroke-linecap:butt;stroke-linejoin:miter;stroke-opacity:1" d="M 194.838,522.505 176.835,518.904 z" id="boundary" inkscape:connector-curvature="0" />
	<path style="fill:none;stroke:red;stroke-width:1px;stroke-linecap:butt;stroke-linejoin:miter;stroke-opacity:1" d="M 176.835,518.904 160.632,509.902 z" id="boundary" inkscape:connector-curvature="0" />
	<path style="fill:none;stroke:red;stroke-width:1px;stroke-linecap:butt;stroke-linejoin:miter;stroke-opacity:1" d="M 212.842,527.906 194.838,522.505 z" id="boundary" inkscape:connector-curvature="0" />
	<path style="fill:none;stroke:red;stroke-width:1px;stroke-linecap:butt;stroke-linejoin:miter;stroke-opacity:1" d="M 212.842,527.906 229.045,536.907 z" id="boundary" inkscape:connector-curvature="0" />
	<path style="fill:none;stroke:red;stroke-width:1px;stroke-linecap:butt;stroke-linejoin:miter;stroke-opacity:1" d="M 229.045,536.907 245.249,545.909 z" id="boundary" inkscape:connector-curvature="0" />
	<path style="fill:none;stroke:red;stroke-width:1px;stroke-linecap:butt;stroke-linejoin:miter;stroke-opacity:1" d="M 263.252,545.909 245.249,545.909 z" id="boundary" inkscape:connector-curvature="0" />
	<path style="fill:none;stroke:red;stroke-width:1px;stroke-linecap:butt;stroke-linejoin:miter;stroke-opacity:1" d="M 281.256,545.909 263.252,545.909 z" id="boundary" inkscape:connector-curvature="0" />
	<path style="fill:none;stroke:red;stroke-width:1px;stroke-linecap:butt;stroke-linejoin:miter;stroke-opacity:1" d="M 293.858,560.312 281.256,545.909 z" id="boundary" inkscape:connector-curvature="0" />
	<path style="fill:none;stroke:red;stroke-width:1px;stroke-linecap:butt;stroke-linejoin:miter;stroke-opacity:1" d="M 311.862,563.913 293.858,560.312 z" id="boundary" inkscape:connector-curvature="0" />
	<path style="fill:none;stroke:red;stroke-width:1px;stroke-linecap:butt;stroke-linejoin:miter;stroke-opacity:1" d="M 329.866,563.913 311.862,563.913 z" id="boundary" inkscape:connector-curvature="0" />
	<path style="fill:none;stroke:red;stroke-width:1px;stroke-linecap:butt;stroke-linejoin:miter;stroke-opacity:1" d="M 329.866,563.913 347.869,563.913 z" id="boundary" inkscape:connector-curvature="0" />
	<path style="fill:none;stroke:red;stroke-width:1px;stroke-linecap:butt;stroke-linejoin:miter;stroke-opacity:1" d="M 365.873,563.913 347.869,563.913 z" id="boundary" inkscape:connector-curvature="0" />
	<path style="fill:none;stroke:red;stroke-width:1px;stroke-linecap:butt;stroke-linejoin:miter;stroke-opacity:1" d="M 383.877,563.913 401.88,563.913 z" id="boundary" inkscape:connector-curvature="0" />
	<path style="fill:none;stroke:red;stroke-width:1px;stroke-linecap:butt;stroke-linejoin:miter;stroke-opacity:1" d="M 419.884,563.913 437.887,563.913 z" id="boundary" inkscape:connector-curvature="0" />
	<path style="fill:none;stroke:red;stroke-width:1px;stroke-linecap:butt;stroke-linejoin:miter;stroke-opacity:1" d="M 419.884,563.913 401.88,563.913 z" id="boundary" inkscape:connector-curvature="0" />
	<path style="fill:none;stroke:red;stroke-width:1px;stroke-linecap:butt;stroke-linejoin:miter;stroke-opacity:1" d="M 383.877,563.913 365.873,563.913 z" id="boundary" inkscape:connector-curvature="0" />
	<path style="fill:none;stroke:red;stroke-width:1px;stroke-linecap:butt;stroke-linejoin:miter;stroke-opacity:1" d="M 455.891,567.514 437.887,563.913 z" id="boundary" inkscape:connector-curvature="0" />
	<path style="fill:none;stroke:red;stroke-width:1px;stroke-linecap:butt;stroke-linejoin:miter;stroke-opacity:1" d="M 473.895,572.915 455.891,567.514 z" id="boundary" inkscape:connector-curvature="0" />
	<path style="fill:none;stroke:red;stroke-width:1px;stroke-linecap:butt;stroke-linejoin:miter;stroke-opacity:1" d="M 491.898,572.915 473.895,572.915 z" id="boundary" inkscape:connector-curvature="0" />
	<path style="fill:none;stroke:red;stroke-width:1px;stroke-linecap:butt;stroke-linejoin:miter;stroke-opacity:1" d="M 509.902,576.515 517.103,594.519 z" id="boundary" inkscape:connector-curvature="0" />
	<path style="fill:none;stroke:red;stroke-width:1px;stroke-linecap:butt;stroke-linejoin:miter;stroke-opacity:1" d="M 491.898,572.915 509.902,576.515 z" id="boundary" inkscape:connector-curvature="0" />
	<path style="fill:none;stroke:red;stroke-width:1px;stroke-linecap:butt;stroke-linejoin:miter;stroke-opacity:1" d="M 531.506,607.122 517.103,594.519 z" id="boundary" inkscape:connector-curvature="0" />
	<path style="fill:none;stroke:red;stroke-width:1px;stroke-linecap:butt;stroke-linejoin:miter;stroke-opacity:1" d="M 531.506,607.122 544.109,621.525 z" id="boundary" inkscape:connector-curvature="0" />
	<path style="fill:none;stroke:red;stroke-width:1px;stroke-linecap:butt;stroke-linejoin:miter;stroke-opacity:1" d="M 544.109,4 562.113,4 z" id="boundary" inkscape:connector-curvature="0" />
	<path style="fill:none;stroke:red;stroke-width:1px;stroke-linecap:butt;stroke-linejoin:miter;stroke-opacity:1" d="M 580.116,4 562.113,4 z" id="boundary" inkscape:connector-curvature="0" />
	<path style="fill:none;stroke:red;stroke-width:1px;stroke-linecap:butt;stroke-linejoin:miter;stroke-opacity:1" d="M 616.123,7.60073 598.12,4 z" id="boundary" inkscape:connector-curvature="0" />
	<path style="fill:none;stroke:red;stroke-width:1px;stroke-linecap:butt;stroke-linejoin:miter;stroke-opacity:1" d="M 598.12,4 580.116,4 z" id="boundary" inkscape:connector-curvature="0" />
	<path style="fill:none;stroke:red;stroke-width:1px;stroke-linecap:butt;stroke-linejoin:miter;stroke-opacity:1" d="M 616.123,7.60073 626.926,22.0036 z" id="boundary" inkscape:connector-curvature="0" />
	<path style="fill:none;stroke:red;stroke-width:1px;stroke-linecap:butt;stroke-linejoin:miter;stroke-opacity:1" d="M 644.929,16.6025 662.933,13.0018 z" id="boundary" inkscape:connector-curvature="0" />
	<path style="fill:none;stroke:red;stroke-width:1px;stroke-linecap:butt;stroke-linejoin:miter;stroke-opacity:1" d="M 644.929,16.6025 626.926,22.0036 z" id="boundary" inkscape:connector-curvature="0" />
	<path style="fill:none;stroke:red;stroke-width:1px;stroke-linecap:butt;stroke-linejoin:miter;stroke-opacity:1" d="M 680.936,18.4029 662.933,13.0018 z" id="boundary" inkscape:connector-curvature="0" />
	<path style="fill:none;stroke:red;stroke-width:1px;stroke-linecap:butt;stroke-linejoin:miter;stroke-opacity:1" d="M 698.94,22.0036 680.936,18.4029 z" id="boundary" inkscape:connector-curvature="0" />
	<path style="fill:none;stroke:red;stroke-width:1px;stroke-linecap:butt;stroke-linejoin:miter;stroke-opacity:1" d="M 698.94,22.0036 716.944,22.0036 z" id="boundary" inkscape:connector-curvature="0" />
	<path style="fill:none;stroke:red;stroke-width:1px;stroke-linecap:butt;stroke-linejoin:miter;stroke-opacity:1" d="M 731.347,32.8058 716.944,22.0036 z" id="boundary" inkscape:connector-curvature="0" />
	<path style="fill:none;stroke:red;stroke-width:1px;stroke-linecap:butt;stroke-linejoin:miter;stroke-opacity:1" d="M 731.347,32.8058 749.35,31.0054 z" id="boundary" inkscape:connector-curvature="0" />
	<path style="fill:none;stroke:red;stroke-width:1px;stroke-linecap:butt;stroke-linejoin:miter;stroke-opacity:1" d="M 765.554,40.0073 749.35,31.0054 z" id="boundary" inkscape:connector-curvature="0" />
	<path style="fill:none;stroke:red;stroke-width:1px;stroke-linecap:butt;stroke-linejoin:miter;stroke-opacity:1" d="M 783.557,40.0073 801.561,40.0073 z" id="boundary" inkscape:connector-curvature="0" />
	<path style="fill:none;stroke:red;stroke-width:1px;stroke-linecap:butt;stroke-linejoin:miter;stroke-opacity:1" d="M 783.557,40.0073 765.554,40.0073 z" id="boundary" inkscape:connector-curvature="0" />
	<path style="fill:none;stroke:red;stroke-width:1px;stroke-linecap:butt;stroke-linejoin:miter;stroke-opacity:1" d="M 801.561,40.0073 815.964,50.8094 z" id="boundary" inkscape:connector-curvature="0" />
	<path style="fill:none;stroke:red;stroke-width:1px;stroke-linecap:butt;stroke-linejoin:miter;stroke-opacity:1" d="M 848.37,67.0127 830.367,61.6116 z" id="boundary" inkscape:connector-curvature="0" />
	<path style="fill:none;stroke:red;stroke-width:1px;stroke-linecap:butt;stroke-linejoin:miter;stroke-opacity:1" d="M 830.367,61.6116 815.964,50.8094 z" id="boundary" inkscape:connector-curvature="0" />
	<path style="fill:none;stroke:red;stroke-width:1px;stroke-linecap:butt;stroke-linejoin:miter;stroke-opacity:1" d="M 864.574,76.0145 848.37,67.0127 z" id="boundary" inkscape:connector-curvature="0" />
	<path style="fill:none;stroke:red;stroke-width:1px;stroke-linecap:butt;stroke-linejoin:miter;stroke-opacity:1" d="M 882.577,76.0145 898.78,85.0163 z" id="boundary" inkscape:connector-curvature="0" />
	<path style="fill:none;stroke:red;stroke-width:1px;stroke-linecap:butt;stroke-linejoin:miter;stroke-opacity:1" d="M 898.78,85.0163 913.183,97.6189 z" id="boundary" inkscape:connector-curvature="0" />
	<path style="fill:none;stroke:red;stroke-width:1px;stroke-linecap:butt;stroke-linejoin:miter;stroke-opacity:1" d="M 864.574,76.0145 882.577,76.0145 z" id="boundary" inkscape:connector-curvature="0" />
	<path style="fill:none;stroke:red;stroke-width:1px;stroke-linecap:butt;stroke-linejoin:miter;stroke-opacity:1" d="M 913.183,97.6189 914.984,115.623 z" id="boundary" inkscape:connector-curvature="0" />
	<path style="fill:none;stroke:red;stroke-width:1px;stroke-linecap:butt;stroke-linejoin:miter;stroke-opacity:1" d="M 914.984,115.623 931.187,124.624 z" id="boundary" inkscape:connector-curvature="0" />
	<path style="fill:none;stroke:red;stroke-width:1px;stroke-linecap:butt;stroke-linejoin:miter;stroke-opacity:1" d="M 931.187,124.624 941.989,139.027 z" id="boundary" inkscape:connector-curvature="0" />
	<path style="fill:none;stroke:red;stroke-width:1px;stroke-linecap:butt;stroke-linejoin:miter;stroke-opacity:1" d="M 950.991,155.23 941.989,139.027 z" id="boundary" inkscape:connector-curvature="0" />
	<path style="fill:none;stroke:red;stroke-width:1px;stroke-linecap:butt;stroke-linejoin:miter;stroke-opacity:1" d="M 959.993,171.434 950.991,155.23 z" id="boundary" inkscape:connector-curvature="0" />
	<path style="fill:none;stroke:red;stroke-width:1px;stroke-linecap:butt;stroke-linejoin:miter;stroke-opacity:1" d="M 959.993,171.434 972.595,185.837 z" id="boundary" inkscape:connector-curvature="0" />
	<path style="fill:none;stroke:red;stroke-width:1px;stroke-linecap:butt;stroke-linejoin:miter;stroke-opacity:1" d="M 977.996,203.84 981.597,221.844 z" id="boundary" inkscape:connector-curvature="0" />
	<path style="fill:none;stroke:red;stroke-width:1px;stroke-linecap:butt;stroke-linejoin:miter;stroke-opacity:1" d="M 977.996,203.84 972.595,185.837 z" id="boundary" inkscape:connector-curvature="0" />
	<path style="fill:none;stroke:red;stroke-width:1px;stroke-linecap:butt;stroke-linejoin:miter;stroke-opacity:1" d="M 996,234.446 981.597,221.844 z" id="boundary" inkscape:connector-curvature="0" />
	<path style="fill:none;stroke:red;stroke-width:1px;stroke-linecap:butt;stroke-linejoin:miter;stroke-opacity:1" d="M 996,234.446 986.998,257.851 z" id="boundary" inkscape:connector-curvature="0" />
	<path style="fill:none;stroke:red;stroke-width:1px;stroke-linecap:butt;stroke-linejoin:miter;stroke-opacity:1" d="M 977.996,320.864 968.995,347.869 z" id="boundary" inkscape:connector-curvature="0" />
	<path style="fill:none;stroke:red;stroke-width:1px;stroke-linecap:butt;stroke-linejoin:miter;stroke-opacity:1" d="M 986.998,257.851 986.998,275.855 z" id="boundary" inkscape:connector-curvature="0" />
	<path style="fill:none;stroke:red;stroke-width:1px;stroke-linecap:butt;stroke-linejoin:miter;stroke-opacity:1" d="M 986.998,275.855 986.998,293.858 z" id="boundary" inkscape:connector-curvature="0" />
	<path style="fill:none;stroke:red;stroke-width:1px;stroke-linecap:butt;stroke-linejoin:miter;stroke-opacity:1" d="M 977.996,320.864 986.998,293.858 z" id="boundary" inkscape:connector-curvature="0" />
	<path style="fill:none;stroke:red;stroke-width:1px;stroke-linecap:butt;stroke-linejoin:miter;stroke-opacity:1" d="M 968.995,347.869 959.993,365.873 z" id="boundary" inkscape:connector-curvature="0" />
	<path style="fill:none;stroke:red;stroke-width:1px;stroke-linecap:butt;stroke-linejoin:miter;stroke-opacity:1" d="M 565.713,652.131 553.111,637.728 z" id="boundary" inkscape:connector-curvature="0" />
	<path style="fill:none;stroke:red;stroke-width:1px;stroke-linecap:butt;stroke-linejoin:miter;stroke-opacity:1" d="M 553.111,637.728 544.109,621.525 z" id="boundary" inkscape:connector-curvature="0" />
	<path style="fill:none;stroke:red;stroke-width:1px;stroke-linecap:butt;stroke-linejoin:miter;stroke-opacity:1" d="M 580.116,662.933 565.713,652.131 z" id="boundary" inkscape:connector-curvature="0" />
	<path style="fill:none;stroke:red;stroke-width:1px;stroke-linecap:butt;stroke-linejoin:miter;stroke-opacity:1" d="M 585.517,680.936 580.116,662.933 z" id="boundary" inkscape:connector-curvature="0" />
	<path style="fill:none;stroke:red;stroke-width:1px;stroke-linecap:butt;stroke-linejoin:miter;stroke-opacity:1" d="M 689.938,536.907 689.938,554.911 z" id="boundary" inkscape:connector-curvature="0" />
	<path style="fill:none;stroke:red;stroke-width:1px;stroke-linecap:butt;stroke-linejoin:miter;stroke-opacity:1" d="M 689.938,554.911 689.938,572.915 z" id="boundary" inkscape:connector-curvature="0" />
	<path style="fill:none;stroke:red;stroke-width:1px;stroke-linecap:butt;stroke-linejoin:miter;stroke-opacity:1" d="M 689.938,590.918 689.938,572.915 z" id="boundary" inkscape:connector-curvature="0" />
	<path style="fill:none;stroke:red;stroke-width:1px;stroke-linecap:butt;stroke-linejoin:miter;stroke-opacity:1" d="M 686.338,641.328 671.935,653.931 z" id="boundary" inkscape:connector-curvature="0" />
	<path style="fill:none;stroke:red;stroke-width:1px;stroke-linecap:butt;stroke-linejoin:miter;stroke-opacity:1" d="M 689.938,608.922 686.338,641.328 z" id="boundary" inkscape:connector-curvature="0" />
	<path style="fill:none;stroke:red;stroke-width:1px;stroke-linecap:butt;stroke-linejoin:miter;stroke-opacity:1" d="M 680.936,670.134 671.935,653.931 z" id="boundary" inkscape:connector-curvature="0" />
	<path style="fill:none;stroke:red;stroke-width:1px;stroke-linecap:butt;stroke-linejoin:miter;stroke-opacity:1" d="M 689.938,590.918 689.938,608.922 z" id="boundary" inkscape:connector-curvature="0" />
	<path style="fill:none;stroke:red;stroke-width:1px;stroke-linecap:butt;stroke-linejoin:miter;stroke-opacity:1" d="M 601.721,689.938 585.517,680.936 z" id="boundary" inkscape:connector-curvature="0" />
	<path style="fill:none;stroke:red;stroke-width:1px;stroke-linecap:butt;stroke-linejoin:miter;stroke-opacity:1" d="M 625.125,716.944 616.123,700.74 z" id="boundary" inkscape:connector-curvature="0" />
	<path style="fill:none;stroke:red;stroke-width:1px;stroke-linecap:butt;stroke-linejoin:miter;stroke-opacity:1" d="M 616.123,700.74 601.721,689.938 z" id="boundary" inkscape:connector-curvature="0" />
	<path style="fill:none;stroke:red;stroke-width:1px;stroke-linecap:butt;stroke-linejoin:miter;stroke-opacity:1" d="M 644.929,747.55 630.526,734.947 z" id="boundary" inkscape:connector-curvature="0" />
	<path style="fill:none;stroke:red;stroke-width:1px;stroke-linecap:butt;stroke-linejoin:miter;stroke-opacity:1" d="M 644.929,747.55 652.131,765.554 z" id="boundary" inkscape:connector-curvature="0" />
	<path style="fill:none;stroke:red;stroke-width:1px;stroke-linecap:butt;stroke-linejoin:miter;stroke-opacity:1" d="M 630.526,734.947 625.125,716.944 z" id="boundary" inkscape:connector-curvature="0" />
	<path style="fill:none;stroke:red;stroke-width:1px;stroke-linecap:butt;stroke-linejoin:miter;stroke-opacity:1" d="M 680.936,688.138 680.936,670.134 z" id="boundary" inkscape:connector-curvature="0" />
	<path style="fill:none;stroke:red;stroke-width:1px;stroke-linecap:butt;stroke-linejoin:miter;stroke-opacity:1" d="M 680.936,706.142 680.936,688.138 z" id="boundary" inkscape:connector-curvature="0" />
	<path style="fill:none;stroke:red;stroke-width:1px;stroke-linecap:butt;stroke-linejoin:miter;stroke-opacity:1" d="M 680.936,706.142 671.935,734.947 z" id="boundary" inkscape:connector-curvature="0" />
	<path style="fill:none;stroke:red;stroke-width:1px;stroke-linecap:butt;stroke-linejoin:miter;stroke-opacity:1" d="M 671.935,734.947 670.134,765.554 z" id="boundary" inkscape:connector-curvature="0" />
	<path style="fill:none;stroke:red;stroke-width:1px;stroke-linecap:butt;stroke-linejoin:miter;stroke-opacity:1" d="M 670.134,765.554 652.131,765.554 z" id="boundary" inkscape:connector-curvature="0" />
	<path style="fill:none;stroke:red;stroke-width:1px;stroke-linecap:butt;stroke-linejoin:miter;stroke-opacity:1" d="M 824.966,473.895 814.163,491.898 z" id="boundary" inkscape:connector-curvature="0" />
	<path style="fill:none;stroke:red;stroke-width:1px;stroke-linecap:butt;stroke-linejoin:miter;stroke-opacity:1" d="M 842.969,473.895 851.971,446.889 z" id="boundary" inkscape:connector-curvature="0" />
	<path style="fill:none;stroke:red;stroke-width:1px;stroke-linecap:butt;stroke-linejoin:miter;stroke-opacity:1" d="M 842.969,473.895 824.966,473.895 z" id="boundary" inkscape:connector-curvature="0" />
	<path style="fill:none;stroke:red;stroke-width:1px;stroke-linecap:butt;stroke-linejoin:miter;stroke-opacity:1" d="M 778.156,500.9 761.953,509.902 z" id="boundary" inkscape:connector-curvature="0" />
	<path style="fill:none;stroke:red;stroke-width:1px;stroke-linecap:butt;stroke-linejoin:miter;stroke-opacity:1" d="M 796.16,495.499 814.163,491.898 z" id="boundary" inkscape:connector-curvature="0" />
	<path style="fill:none;stroke:red;stroke-width:1px;stroke-linecap:butt;stroke-linejoin:miter;stroke-opacity:1" d="M 796.16,495.499 778.156,500.9 z" id="boundary" inkscape:connector-curvature="0" />
	<path style="fill:none;stroke:red;stroke-width:1px;stroke-linecap:butt;stroke-linejoin:miter;stroke-opacity:1" d="M 869.975,446.889 851.971,446.889 z" id="boundary" inkscape:connector-curvature="0" />
	<path style="fill:none;stroke:red;stroke-width:1px;stroke-linecap:butt;stroke-linejoin:miter;stroke-opacity:1" d="M 941.989,374.875 929.387,398.279 z" id="boundary" inkscape:connector-curvature="0" />
	<path style="fill:none;stroke:red;stroke-width:1px;stroke-linecap:butt;stroke-linejoin:miter;stroke-opacity:1" d="M 929.387,398.279 911.383,407.281 z" id="boundary" inkscape:connector-curvature="0" />
	<path style="fill:none;stroke:red;stroke-width:1px;stroke-linecap:butt;stroke-linejoin:miter;stroke-opacity:1" d="M 941.989,374.875 959.993,365.873 z" id="boundary" inkscape:connector-curvature="0" />
	<path style="fill:none;stroke:red;stroke-width:1px;stroke-linecap:butt;stroke-linejoin:miter;stroke-opacity:1" d="M 884.377,434.287 869.975,446.889 z" id="boundary" inkscape:connector-curvature="0" />
	<path style="fill:none;stroke:red;stroke-width:1px;stroke-linecap:butt;stroke-linejoin:miter;stroke-opacity:1" d="M 902.381,425.285 911.383,407.281 z" id="boundary" inkscape:connector-curvature="0" />
	<path style="fill:none;stroke:red;stroke-width:1px;stroke-linecap:butt;stroke-linejoin:miter;stroke-opacity:1" d="M 902.381,425.285 884.377,434.287 z" id="boundary" inkscape:connector-curvature="0" />
	<path style="fill:none;stroke:red;stroke-width:1px;stroke-linecap:butt;stroke-linejoin:miter;stroke-opacity:1" d="M 707.942,527.906 725.946,527.906 z" id="boundary" inkscape:connector-curvature="0" />
	<path style="fill:none;stroke:red;stroke-width:1px;stroke-linecap:butt;stroke-linejoin:miter;stroke-opacity:1" d="M 743.949,509.902 761.953,509.902 z" id="boundary" inkscape:connector-curvature="0" />
	<path style="fill:none;stroke:red;stroke-width:1px;stroke-linecap:butt;stroke-linejoin:miter;stroke-opacity:1" d="M 725.946,527.906 743.949,509.902 z" id="boundary" inkscape:connector-curvature="0" />
	<path style="fill:none;stroke:red;stroke-width:1px;stroke-linecap:butt;stroke-linejoin:miter;stroke-opacity:1" d="M 689.938,536.907 707.942,527.906 z" id="boundary" inkscape:connector-curvature="0" />
	<circle cx="4" cy="279.456" r="4" fill="#0" id="circle0"/>
	<circle cx="4" cy="315.463" r="4" fill="#0" id="circle1"/>
	<circle cx="4" cy="333.466" r="4" fill="#0" id="circle2"/>
	<circle cx="4" cy="351.47" r="4" fill="#0" id="circle3"/>
	<circle cx="13.0018" cy="295.659" r="4" fill="#0" id="circle4"/>
	<circle cx="13.0018" cy="367.673" r="4" fill="#0" id="circle5"/>
	<circle cx="13.0018" cy="385.677" r="4" fill="#0" id="circle6"/>
	<circle cx="22.0036" cy="252.45" r="4" fill="#0" id="circle7"/>
	<circle cx="22.0036" cy="270.454" r="4" fill="#0" id="circle8"/>
	<circle cx="25.6044" cy="400.08" r="4" fill="#0" id="circle9"/>
	<circle cx="31.0054" cy="216.443" r="4" fill="#0" id="circle10"/>
	<circle cx="31.0054" cy="234.446" r="4" fill="#0" id="circle11"/>
	<circle cx="40.0073" cy="410.882" r="4" fill="#0" id="circle12"/>
	<circle cx="45.4083" cy="428.886" r="4" fill="#0" id="circle13"/>
	<circle cx="49.0091" cy="198.439" r="4" fill="#0" id="circle14"/>
	<circle cx="58.0109" cy="171.434" r="4" fill="#0" id="circle15"/>
	<circle cx="61.6116" cy="437.887" r="4" fill="#0" id="circle16"/>
	<circle cx="67.0127" cy="455.891" r="4" fill="#0" id="circle17"/>
	<circle cx="76.0145" cy="162.432" r="4" fill="#0" id="circle18"/>
	<circle cx="77.8149" cy="470.294" r="4" fill="#0" id="circle19"/>
	<circle cx="90.4174" cy="148.029" r="4" fill="#0" id="circle20"/>
	<circle cx="92.2178" cy="482.897" r="4" fill="#0" id="circle21"/>
	<circle cx="104.82" cy="133.626" r="4" fill="#0" id="circle22"/>
	<circle cx="108.421" cy="491.898" r="4" fill="#0" id="circle23"/>
	<circle cx="122.824" cy="130.025" r="4" fill="#0" id="circle24"/>
	<circle cx="124.624" cy="500.9" r="4" fill="#0" id="circle25"/>
	<circle cx="133.626" cy="113.822" r="4" fill="#0" id="circle26"/>
	<circle cx="142.628" cy="506.301" r="4" fill="#0" id="circle27"/>
	<circle cx="151.63" cy="112.022" r="4" fill="#0" id="circle28"/>
	<circle cx="160.632" cy="95.8185" r="4" fill="#0" id="circle29"/>
	<circle cx="160.632" cy="509.902" r="4" fill="#0" id="circle30"/>
	<circle cx="176.835" cy="518.904" r="4" fill="#0" id="circle31"/>
	<circle cx="178.635" cy="94.0181" r="4" fill="#0" id="circle32"/>
	<circle cx="194.838" cy="522.505" r="4" fill="#0" id="circle33"/>
	<circle cx="196.639" cy="86.8167" r="4" fill="#0" id="circle34"/>
	<circle cx="212.842" cy="527.906" r="4" fill="#0" id="circle35"/>
	<circle cx="214.642" cy="85.0163" r="4" fill="#0" id="circle36"/>
	<circle cx="223.644" cy="68.8131" r="4" fill="#0" id="circle37"/>
	<circle cx="229.045" cy="536.907" r="4" fill="#0" id="circle38"/>
	<circle cx="238.047" cy="58.0109" r="4" fill="#0" id="circle39"/>
	<circle cx="245.249" cy="545.909" r="4" fill="#0" id="circle40"/>
	<circle cx="256.051" cy="58.0109" r="4" fill="#0" id="circle41"/>
	<circle cx="263.252" cy="545.909" r="4" fill="#0" id="circle42"/>
	<circle cx="272.254" cy="49.0091" r="4" fill="#0" id="circle43"/>
	<circle cx="281.256" cy="545.909" r="4" fill="#0" id="circle44"/>
	<circle cx="290.258" cy="49.0091" r="4" fill="#0" id="circle45"/>
	<circle cx="293.858" cy="560.312" r="4" fill="#0" id="circle46"/>
	<circle cx="308.261" cy="49.0091" r="4" fill="#0" id="circle47"/>
	<circle cx="311.862" cy="563.913" r="4" fill="#0" id="circle48"/>
	<circle cx="326.265" cy="49.0091" r="4" fill="#0" id="circle49"/>
	<circle cx="329.866" cy="563.913" r="4" fill="#0" id="circle50"/>
	<circle cx="333.466" cy="31.0054" r="4" fill="#0" id="circle51"/>
	<circle cx="347.869" cy="563.913" r="4" fill="#0" id="circle52"/>
	<circle cx="349.67" cy="22.0036" r="4" fill="#0" id="circle53"/>
	<circle cx="365.873" cy="563.913" r="4" fill="#0" id="circle54"/>
	<circle cx="367.673" cy="22.0036" r="4" fill="#0" id="circle55"/>
	<circle cx="383.877" cy="563.913" r="4" fill="#0" id="circle56"/>
	<circle cx="385.677" cy="22.0036" r="4" fill="#0" id="circle57"/>
	<circle cx="401.88" cy="563.913" r="4" fill="#0" id="circle58"/>
	<circle cx="403.681" cy="22.0036" r="4" fill="#0" id="circle59"/>
	<circle cx="419.884" cy="563.913" r="4" fill="#0" id="circle60"/>
	<circle cx="421.684" cy="22.0036" r="4" fill="#0" id="circle61"/>
	<circle cx="436.087" cy="9.40109" r="4" fill="#0" id="circle62"/>
	<circle cx="437.887" cy="563.913" r="4" fill="#0" id="circle63"/>
	<circle cx="454.091" cy="4" r="4" fill="#0" id="circle64"/>
	<circle cx="455.891" cy="567.514" r="4" fill="#0" id="circle65"/>
	<circle cx="472.094" cy="4" r="4" fill="#0" id="circle66"/>
	<circle cx="473.895" cy="572.915" r="4" fill="#0" id="circle67"/>
	<circle cx="490.098" cy="4" r="4" fill="#0" id="circle68"/>
	<circle cx="491.898" cy="572.915" r="4" fill="#0" id="circle69"/>
	<circle cx="508.102" cy="4" r="4" fill="#0" id="circle70"/>
	<circle cx="509.902" cy="576.515" r="4" fill="#0" id="circle71"/>
	<circle cx="517.103" cy="594.519" r="4" fill="#0" id="circle72"/>
	<circle cx="526.105" cy="7.60073" r="4" fill="#0" id="circle73"/>
	<circle cx="531.506" cy="607.122" r="4" fill="#0" id="circle74"/>
	<circle cx="544.109" cy="4" r="4" fill="#0" id="circle75"/>
	<circle cx="544.109" cy="621.525" r="4" fill="#0" id="circle76"/>
	<circle cx="553.111" cy="637.728" r="4" fill="#0" id="circle77"/>
	<circle cx="562.113" cy="4" r="4" fill="#0" id="circle78"/>
	<circle cx="565.713" cy="652.131" r="4" fill="#0" id="circle79"/>
	<circle cx="580.116" cy="4" r="4" fill="#0" id="circle80"/>
	<circle cx="580.116" cy="662.933" r="4" fill="#0" id="circle81"/>
	<circle cx="585.517" cy="680.936" r="4" fill="#0" id="circle82"/>
	<circle cx="598.12" cy="4" r="4" fill="#0" id="circle83"/>
	<circle cx="601.721" cy="689.938" r="4" fill="#0" id="circle84"/>
	<circle cx="616.123" cy="7.60073" r="4" fill="#0" id="circle85"/>
	<circle cx="616.123" cy="700.74" r="4" fill="#0" id="circle86"/>
	<circle cx="625.125" cy="716.944" r="4" fill="#0" id="circle87"/>
	<circle cx="626.926" cy="22.0036" r="4" fill="#0" id="circle88"/>
	<circle cx="630.526" cy="734.947" r="4" fill="#0" id="circle89"/>
	<circle cx="644.929" cy="16.6025" r="4" fill="#0" id="circle90"/>
	<circle cx="644.929" cy="747.55" r="4" fill="#0" id="circle91"/>
	<circle cx="652.131" cy="765.554" r="4" fill="#0" id="circle92"/>
	<circle cx="662.933" cy="13.0018" r="4" fill="#0" id="circle93"/>
	<circle cx="670.134" cy="765.554" r="4" fill="#0" id="circle94"/>
	<circle cx="671.935" cy="653.931" r="4" fill="#0" id="circle95"/>
	<circle cx="671.935" cy="734.947" r="4" fill="#0" id="circle96"/>
	<circle cx="680.936" cy="18.4029" r="4" fill="#0" id="circle97"/>
	<circle cx="680.936" cy="670.134" r="4" fill="#0" id="circle98"/>
	<circle cx="680.936" cy="688.138" r="4" fill="#0" id="circle99"/>
	<circle cx="680.936" cy="706.142" r="4" fill="#0" id="circle100"/>
	<circle cx="686.338" cy="641.328" r="4" fill="#0" id="circle101"/>
	<circle cx="689.938" cy="536.907" r="4" fill="#0" id="circle102"/>
	<circle cx="689.938" cy="554.911" r="4" fill="#0" id="circle103"/>
	<circle cx="689.938" cy="572.915" r="4" fill="#0" id="circle104"/>
	<circle cx="689.938" cy="590.918" r="4" fill="#0" id="circle105"/>
	<circle cx="689.938" cy="608.922" r="4" fill="#0" id="circle106"/>
	<circle cx="698.94" cy="22.0036" r="4" fill="#0" id="circle107"/>
	<circle cx="707.942" cy="527.906" r="4" fill="#0" id="circle108"/>
	<circle cx="716.944" cy="22.0036" r="4" fill="#0" id="circle109"/>
	<circle cx="725.946" cy="527.906" r="4" fill="#0" id="circle110"/>
	<circle cx="731.347" cy="32.8058" r="4" fill="#0" id="circle111"/>
	<circle cx="743.949" cy="509.902" r="4" fill="#0" id="circle112"/>
	<circle cx="749.35" cy="31.0054" r="4" fill="#0" id="circle113"/>
	<circle cx="761.953" cy="509.902" r="4" fill="#0" id="circle114"/>
	<circle cx="765.554" cy="40.0073" r="4" fill="#0" id="circle115"/>
	<circle cx="778.156" cy="500.9" r="4" fill="#0" id="circle116"/>
	<circle cx="783.557" cy="40.0073" r="4" fill="#0" id="circle117"/>
	<circle cx="796.16" cy="495.499" r="4" fill="#0" id="circle118"/>
	<circle cx="801.561" cy="40.0073" r="4" fill="#0" id="circle119"/>
	<circle cx="814.163" cy="491.898" r="4" fill="#0" id="circle120"/>
	<circle cx="815.964" cy="50.8094" r="4" fill="#0" id="circle121"/>
	<circle cx="824.966" cy="473.895" r="4" fill="#0" id="circle122"/>
	<circle cx="830.367" cy="61.6116" r="4" fill="#0" id="circle123"/>
	<circle cx="842.969" cy="473.895" r="4" fill="#0" id="circle124"/>
	<circle cx="848.37" cy="67.0127" r="4" fill="#0" id="circle125"/>
	<circle cx="851.971" cy="446.889" r="4" fill="#0" id="circle126"/>
	<circle cx="864.574" cy="76.0145" r="4" fill="#0" id="circle127"/>
	<circle cx="869.975" cy="446.889" r="4" fill="#0" id="circle128"/>
	<circle cx="882.577" cy="76.0145" r="4" fill="#0" id="circle129"/>
	<circle cx="884.377" cy="434.287" r="4" fill="#0" id="circle130"/>
	<circle cx="898.78" cy="85.0163" r="4" fill="#0" id="circle131"/>
	<circle cx="902.381" cy="425.285" r="4" fill="#0" id="circle132"/>
	<circle cx="911.383" cy="407.281" r="4" fill="#0" id="circle133"/>
	<circle cx="913.183" cy="97.6189" r="4" fill="#0" id="circle134"/>
	<circle cx="914.984" cy="115.623" r="4" fill="#0" id="circle135"/>
	<circle cx="929.387" cy="398.279" r="4" fill="#0" id="circle136"/>
	<circle cx="931.187" cy="124.624" r="4" fill="#0" id="circle137"/>
	<circle cx="941.989" cy="139.027" r="4" fill="#0" id="circle138"/>
	<circle cx="941.989" cy="374.875" r="4" fill="#0" id="circle139"/>
	<circle cx="950.991" cy="155.23" r="4" fill="#0" id="circle140"/>
	<circle cx="959.993" cy="171.434" r="4" fill="#0" id="circle141"/>
	<circle cx="959.993" cy="365.873" r="4" fill="#0" id="circle142"/>
	<circle cx="968.995" cy="347.869" r="4" fill="#0" id="circle143"/>
	<circle cx="972.595" cy="185.837" r="4" fill="#0" id="circle144"/>
	<circle cx="977.996" cy="203.84" r="4" fill="#0" id="circle145"/>
	<circle cx="977.996" cy="320.864" r="4" fill="#0" id="circle146"/>
	<circle cx="981.597" cy="221.844" r="4" fill="#0" id="circle147"/>
	<circle cx="986.998" cy="257.851" r="4" fill="#0" id="circle148"/>
	<circle cx="986.998" cy="275.855" r="4" fill="#0" id="circle149"/>
	<circle cx="986.998" cy="293.858" r="4" fill="#0" id="circle150"/>
	<circle cx="996" cy="234.446" r="4" fill="#0" id="circle151"/>
	</g>
</svg>