<?xml version="1.0" encoding="UTF-8" standalone="no"?>
<!-- Created with CurveBenchmark -->
<svg
	xmlns:dc="http://purl.org/dc/elements/1.1/"
	xmlns:cc="http://creativecommons.org/ns#"
	xmlns:rdf="http://www.w3.org/1999/02/22-rdf-syntax-ns#"
	xmlns:svg="http://www.w3.org/2000/svg"
	xmlns="http://www.w3.org/2000/svg"
	xmlns:sodipodi="http://sodipodi.sourceforge.net/DTD/sodipodi-0.dtd"
	xmlns:inkscape="http://www.inkscape.org/namespaces/inkscape"
	width="1000"
	height="1000"
	id="svg2"
	version="1.1"
	sodipodi:docname="manifold/crust-guitar030.png.txt">
<defs
	id="defs4" />
<metadata
	id="metadata7">
	<rdf:RDF>
		<cc:Work
			rdf:about="">
			<dc:format>image/svg+xml</dc:format>
			<dc:type
				rdf:resource="http://purl.org/dc/dcmitype/StillImage" />
			<dc:title></dc:title>
		</cc:Work>
	</rdf:RDF>
</metadata>
<g
	inkscape:label="Layer 1"
	inkscape:groupmode="layer"
	id="layer1">
	<path style="fill:none;stroke:red;stroke-width:1px;stroke-linecap:butt;stroke-linejoin:miter;stroke-opacity:1" d="M 188.229,7.54286 159.886,28.8 z" id="boundary" inkscape:connector-curvature="0" />
	<path style="fill:none;stroke:red;stroke-width:1px;stroke-linecap:butt;stroke-linejoin:miter;stroke-opacity:1" d="M 92.5714,510.629 64.2286,535.429 z" id="boundary" inkscape:connector-curvature="0" />
	<path style="fill:none;stroke:red;stroke-width:1px;stroke-linecap:butt;stroke-linejoin:miter;stroke-opacity:1" d="M 128,503.543 92.5714,510.629 z" id="boundary" inkscape:connector-curvature="0" />
	<path style="fill:none;stroke:red;stroke-width:1px;stroke-linecap:butt;stroke-linejoin:miter;stroke-opacity:1" d="M 163.429,489.371 128,503.543 z" id="boundary" inkscape:connector-curvature="0" />
	<path style="fill:none;stroke:red;stroke-width:1px;stroke-linecap:butt;stroke-linejoin:miter;stroke-opacity:1" d="M 159.886,28.8 166.971,64.2286 z" id="boundary" inkscape:connector-curvature="0" />
	<path style="fill:none;stroke:red;stroke-width:1px;stroke-linecap:butt;stroke-linejoin:miter;stroke-opacity:1" d="M 64.2286,535.429 46.5143,567.314 z" id="boundary" inkscape:connector-curvature="0" />
	<path style="fill:none;stroke:red;stroke-width:1px;stroke-linecap:butt;stroke-linejoin:miter;stroke-opacity:1" d="M 174.057,99.6571 166.971,64.2286 z" id="boundary" inkscape:connector-curvature="0" />
	<path style="fill:none;stroke:red;stroke-width:1px;stroke-linecap:butt;stroke-linejoin:miter;stroke-opacity:1" d="M 198.857,128 174.057,99.6571 z" id="boundary" inkscape:connector-curvature="0" />
	<path style="fill:none;stroke:red;stroke-width:1px;stroke-linecap:butt;stroke-linejoin:miter;stroke-opacity:1" d="M 198.857,128 202.4,163.429 z" id="boundary" inkscape:connector-curvature="0" />
	<path style="fill:none;stroke:red;stroke-width:1px;stroke-linecap:butt;stroke-linejoin:miter;stroke-opacity:1" d="M 202.4,198.857 202.4,163.429 z" id="boundary" inkscape:connector-curvature="0" />
	<path style="fill:none;stroke:red;stroke-width:1px;stroke-linecap:butt;stroke-linejoin:miter;stroke-opacity:1" d="M 188.229,7.54286 223.657,4 z" id="boundary" inkscape:connector-curvature="0" />
	<path style="fill:none;stroke:red;stroke-width:1px;stroke-linecap:butt;stroke-linejoin:miter;stroke-opacity:1" d="M 195.314,376 195.314,411.429 z" id="boundary" inkscape:connector-curvature="0" />
	<path style="fill:none;stroke:red;stroke-width:1px;stroke-linecap:butt;stroke-linejoin:miter;stroke-opacity:1" d="M 195.314,376 195.314,340.571 z" id="boundary" inkscape:connector-curvature="0" />
	<path style="fill:none;stroke:red;stroke-width:1px;stroke-linecap:butt;stroke-linejoin:miter;stroke-opacity:1" d="M 191.771,464.571 163.429,489.371 z" id="boundary" inkscape:connector-curvature="0" />
	<path style="fill:none;stroke:red;stroke-width:1px;stroke-linecap:butt;stroke-linejoin:miter;stroke-opacity:1" d="M 195.314,411.429 191.771,464.571 z" id="boundary" inkscape:connector-curvature="0" />
	<path style="fill:none;stroke:red;stroke-width:1px;stroke-linecap:butt;stroke-linejoin:miter;stroke-opacity:1" d="M 202.4,234.286 202.4,269.714 z" id="boundary" inkscape:connector-curvature="0" />
	<path style="fill:none;stroke:red;stroke-width:1px;stroke-linecap:butt;stroke-linejoin:miter;stroke-opacity:1" d="M 202.4,234.286 202.4,198.857 z" id="boundary" inkscape:connector-curvature="0" />
	<path style="fill:none;stroke:red;stroke-width:1px;stroke-linecap:butt;stroke-linejoin:miter;stroke-opacity:1" d="M 202.4,269.714 202.4,305.143 z" id="boundary" inkscape:connector-curvature="0" />
	<path style="fill:none;stroke:red;stroke-width:1px;stroke-linecap:butt;stroke-linejoin:miter;stroke-opacity:1" d="M 195.314,340.571 202.4,305.143 z" id="boundary" inkscape:connector-curvature="0" />
	<path style="fill:none;stroke:red;stroke-width:1px;stroke-linecap:butt;stroke-linejoin:miter;stroke-opacity:1" d="M 46.5143,602.743 46.5143,567.314 z" id="boundary" inkscape:connector-curvature="0" />
	<path style="fill:none;stroke:red;stroke-width:1px;stroke-linecap:butt;stroke-linejoin:miter;stroke-opacity:1" d="M 60.6857,638.171 64.2286,691.314 z" id="boundary" inkscape:connector-curvature="0" />
	<path style="fill:none;stroke:red;stroke-width:1px;stroke-linecap:butt;stroke-linejoin:miter;stroke-opacity:1" d="M 60.6857,638.171 46.5143,602.743 z" id="boundary" inkscape:connector-curvature="0" />
	<path style="fill:none;stroke:red;stroke-width:1px;stroke-linecap:butt;stroke-linejoin:miter;stroke-opacity:1" d="M 46.5143,723.2 64.2286,691.314 z" id="boundary" inkscape:connector-curvature="0" />
	<path style="fill:none;stroke:red;stroke-width:1px;stroke-linecap:butt;stroke-linejoin:miter;stroke-opacity:1" d="M 4,822.4 11.0857,786.971 z" id="boundary" inkscape:connector-curvature="0" />
	<path style="fill:none;stroke:red;stroke-width:1px;stroke-linecap:butt;stroke-linejoin:miter;stroke-opacity:1" d="M 28.8,755.086 11.0857,786.971 z" id="boundary" inkscape:connector-curvature="0" />
	<path style="fill:none;stroke:red;stroke-width:1px;stroke-linecap:butt;stroke-linejoin:miter;stroke-opacity:1" d="M 4,857.829 4,822.4 z" id="boundary" inkscape:connector-curvature="0" />
	<path style="fill:none;stroke:red;stroke-width:1px;stroke-linecap:butt;stroke-linejoin:miter;stroke-opacity:1" d="M 11.0857,893.257 4,857.829 z" id="boundary" inkscape:connector-curvature="0" />
	<path style="fill:none;stroke:red;stroke-width:1px;stroke-linecap:butt;stroke-linejoin:miter;stroke-opacity:1" d="M 28.8,925.143 11.0857,893.257 z" id="boundary" inkscape:connector-curvature="0" />
	<path style="fill:none;stroke:red;stroke-width:1px;stroke-linecap:butt;stroke-linejoin:miter;stroke-opacity:1" d="M 28.8,755.086 46.5143,723.2 z" id="boundary" inkscape:connector-curvature="0" />
	<path style="fill:none;stroke:red;stroke-width:1px;stroke-linecap:butt;stroke-linejoin:miter;stroke-opacity:1" d="M 50.0571,953.486 28.8,925.143 z" id="boundary" inkscape:connector-curvature="0" />
	<path style="fill:none;stroke:red;stroke-width:1px;stroke-linecap:butt;stroke-linejoin:miter;stroke-opacity:1" d="M 78.4,974.743 50.0571,953.486 z" id="boundary" inkscape:connector-curvature="0" />
	<path style="fill:none;stroke:red;stroke-width:1px;stroke-linecap:butt;stroke-linejoin:miter;stroke-opacity:1" d="M 113.829,988.914 78.4,974.743 z" id="boundary" inkscape:connector-curvature="0" />
	<path style="fill:none;stroke:red;stroke-width:1px;stroke-linecap:butt;stroke-linejoin:miter;stroke-opacity:1" d="M 184.686,996 149.257,996 z" id="boundary" inkscape:connector-curvature="0" />
	<path style="fill:none;stroke:red;stroke-width:1px;stroke-linecap:butt;stroke-linejoin:miter;stroke-opacity:1" d="M 149.257,996 113.829,988.914 z" id="boundary" inkscape:connector-curvature="0" />
	<path style="fill:none;stroke:red;stroke-width:1px;stroke-linecap:butt;stroke-linejoin:miter;stroke-opacity:1" d="M 223.657,4 241.371,42.9714 z" id="boundary" inkscape:connector-curvature="0" />
	<path style="fill:none;stroke:red;stroke-width:1px;stroke-linecap:butt;stroke-linejoin:miter;stroke-opacity:1" d="M 241.371,42.9714 248.457,78.4 z" id="boundary" inkscape:connector-curvature="0" />
	<path style="fill:none;stroke:red;stroke-width:1px;stroke-linecap:butt;stroke-linejoin:miter;stroke-opacity:1" d="M 248.457,78.4 248.457,113.829 z" id="boundary" inkscape:connector-curvature="0" />
	<path style="fill:none;stroke:red;stroke-width:1px;stroke-linecap:butt;stroke-linejoin:miter;stroke-opacity:1" d="M 248.457,113.829 248.457,149.257 z" id="boundary" inkscape:connector-curvature="0" />
	<path style="fill:none;stroke:red;stroke-width:1px;stroke-linecap:butt;stroke-linejoin:miter;stroke-opacity:1" d="M 248.457,184.686 248.457,220.114 z" id="boundary" inkscape:connector-curvature="0" />
	<path style="fill:none;stroke:red;stroke-width:1px;stroke-linecap:butt;stroke-linejoin:miter;stroke-opacity:1" d="M 248.457,255.543 248.457,220.114 z" id="boundary" inkscape:connector-curvature="0" />
	<path style="fill:none;stroke:red;stroke-width:1px;stroke-linecap:butt;stroke-linejoin:miter;stroke-opacity:1" d="M 248.457,184.686 248.457,149.257 z" id="boundary" inkscape:connector-curvature="0" />
	<path style="fill:none;stroke:red;stroke-width:1px;stroke-linecap:butt;stroke-linejoin:miter;stroke-opacity:1" d="M 248.457,290.971 248.457,326.4 z" id="boundary" inkscape:connector-curvature="0" />
	<path style="fill:none;stroke:red;stroke-width:1px;stroke-linecap:butt;stroke-linejoin:miter;stroke-opacity:1" d="M 248.457,404.343 248.457,368.914 z" id="boundary" inkscape:connector-curvature="0" />
	<path style="fill:none;stroke:red;stroke-width:1px;stroke-linecap:butt;stroke-linejoin:miter;stroke-opacity:1" d="M 248.457,368.914 248.457,326.4 z" id="boundary" inkscape:connector-curvature="0" />
	<path style="fill:none;stroke:red;stroke-width:1px;stroke-linecap:butt;stroke-linejoin:miter;stroke-opacity:1" d="M 248.457,290.971 248.457,255.543 z" id="boundary" inkscape:connector-curvature="0" />
	<path style="fill:none;stroke:red;stroke-width:1px;stroke-linecap:butt;stroke-linejoin:miter;stroke-opacity:1" d="M 248.457,404.343 255.543,439.771 z" id="boundary" inkscape:connector-curvature="0" />
	<path style="fill:none;stroke:red;stroke-width:1px;stroke-linecap:butt;stroke-linejoin:miter;stroke-opacity:1" d="M 255.543,439.771 255.543,475.2 z" id="boundary" inkscape:connector-curvature="0" />
	<path style="fill:none;stroke:red;stroke-width:1px;stroke-linecap:butt;stroke-linejoin:miter;stroke-opacity:1" d="M 255.543,475.2 255.543,510.629 z" id="boundary" inkscape:connector-curvature="0" />
	<path style="fill:none;stroke:red;stroke-width:1px;stroke-linecap:butt;stroke-linejoin:miter;stroke-opacity:1" d="M 255.543,546.057 255.543,510.629 z" id="boundary" inkscape:connector-curvature="0" />
	<path style="fill:none;stroke:red;stroke-width:1px;stroke-linecap:butt;stroke-linejoin:miter;stroke-opacity:1" d="M 290.971,546.057 255.543,546.057 z" id="boundary" inkscape:connector-curvature="0" />
	<path style="fill:none;stroke:red;stroke-width:1px;stroke-linecap:butt;stroke-linejoin:miter;stroke-opacity:1" d="M 333.486,687.771 347.657,723.2 z" id="boundary" inkscape:connector-curvature="0" />
	<path style="fill:none;stroke:red;stroke-width:1px;stroke-linecap:butt;stroke-linejoin:miter;stroke-opacity:1" d="M 220.114,996 184.686,996 z" id="boundary" inkscape:connector-curvature="0" />
	<path style="fill:none;stroke:red;stroke-width:1px;stroke-linecap:butt;stroke-linejoin:miter;stroke-opacity:1" d="M 290.971,985.371 255.543,996 z" id="boundary" inkscape:connector-curvature="0" />
	<path style="fill:none;stroke:red;stroke-width:1px;stroke-linecap:butt;stroke-linejoin:miter;stroke-opacity:1" d="M 255.543,996 220.114,996 z" id="boundary" inkscape:connector-curvature="0" />
	<path style="fill:none;stroke:red;stroke-width:1px;stroke-linecap:butt;stroke-linejoin:miter;stroke-opacity:1" d="M 290.971,546.057 326.4,546.057 z" id="boundary" inkscape:connector-curvature="0" />
	<path style="fill:none;stroke:red;stroke-width:1px;stroke-linecap:butt;stroke-linejoin:miter;stroke-opacity:1" d="M 347.657,616.914 333.486,652.343 z" id="boundary" inkscape:connector-curvature="0" />
	<path style="fill:none;stroke:red;stroke-width:1px;stroke-linecap:butt;stroke-linejoin:miter;stroke-opacity:1" d="M 333.486,652.343 333.486,687.771 z" id="boundary" inkscape:connector-curvature="0" />
	<path style="fill:none;stroke:red;stroke-width:1px;stroke-linecap:butt;stroke-linejoin:miter;stroke-opacity:1" d="M 326.4,546.057 354.743,567.314 z" id="boundary" inkscape:connector-curvature="0" />
	<path style="fill:none;stroke:red;stroke-width:1px;stroke-linecap:butt;stroke-linejoin:miter;stroke-opacity:1" d="M 354.743,567.314 347.657,616.914 z" id="boundary" inkscape:connector-curvature="0" />
	<path style="fill:none;stroke:red;stroke-width:1px;stroke-linecap:butt;stroke-linejoin:miter;stroke-opacity:1" d="M 347.657,723.2 368.914,751.543 z" id="boundary" inkscape:connector-curvature="0" />
	<path style="fill:none;stroke:red;stroke-width:1px;stroke-linecap:butt;stroke-linejoin:miter;stroke-opacity:1" d="M 322.857,967.657 290.971,985.371 z" id="boundary" inkscape:connector-curvature="0" />
	<path style="fill:none;stroke:red;stroke-width:1px;stroke-linecap:butt;stroke-linejoin:miter;stroke-opacity:1" d="M 351.2,946.4 322.857,967.657 z" id="boundary" inkscape:connector-curvature="0" />
	<path style="fill:none;stroke:red;stroke-width:1px;stroke-linecap:butt;stroke-linejoin:miter;stroke-opacity:1" d="M 383.086,786.971 390.171,822.4 z" id="boundary" inkscape:connector-curvature="0" />
	<path style="fill:none;stroke:red;stroke-width:1px;stroke-linecap:butt;stroke-linejoin:miter;stroke-opacity:1" d="M 383.086,786.971 368.914,751.543 z" id="boundary" inkscape:connector-curvature="0" />
	<path style="fill:none;stroke:red;stroke-width:1px;stroke-linecap:butt;stroke-linejoin:miter;stroke-opacity:1" d="M 390.171,822.4 390.171,857.829 z" id="boundary" inkscape:connector-curvature="0" />
	<path style="fill:none;stroke:red;stroke-width:1px;stroke-linecap:butt;stroke-linejoin:miter;stroke-opacity:1" d="M 372.457,918.057 351.2,946.4 z" id="boundary" inkscape:connector-curvature="0" />
	<path style="fill:none;stroke:red;stroke-width:1px;stroke-linecap:butt;stroke-linejoin:miter;stroke-opacity:1" d="M 390.171,857.829 372.457,918.057 z" id="boundary" inkscape:connector-curvature="0" />
	<circle cx="4" cy="822.4" r="4" fill="#0" id="circle0"/>
	<circle cx="4" cy="857.829" r="4" fill="#0" id="circle1"/>
	<circle cx="11.0857" cy="786.971" r="4" fill="#0" id="circle2"/>
	<circle cx="11.0857" cy="893.257" r="4" fill="#0" id="circle3"/>
	<circle cx="28.8" cy="755.086" r="4" fill="#0" id="circle4"/>
	<circle cx="28.8" cy="925.143" r="4" fill="#0" id="circle5"/>
	<circle cx="46.5143" cy="567.314" r="4" fill="#0" id="circle6"/>
	<circle cx="46.5143" cy="602.743" r="4" fill="#0" id="circle7"/>
	<circle cx="46.5143" cy="723.2" r="4" fill="#0" id="circle8"/>
	<circle cx="50.0571" cy="953.486" r="4" fill="#0" id="circle9"/>
	<circle cx="60.6857" cy="638.171" r="4" fill="#0" id="circle10"/>
	<circle cx="64.2286" cy="535.429" r="4" fill="#0" id="circle11"/>
	<circle cx="64.2286" cy="691.314" r="4" fill="#0" id="circle12"/>
	<circle cx="78.4" cy="974.743" r="4" fill="#0" id="circle13"/>
	<circle cx="92.5714" cy="510.629" r="4" fill="#0" id="circle14"/>
	<circle cx="113.829" cy="988.914" r="4" fill="#0" id="circle15"/>
	<circle cx="128" cy="503.543" r="4" fill="#0" id="circle16"/>
	<circle cx="149.257" cy="996" r="4" fill="#0" id="circle17"/>
	<circle cx="159.886" cy="28.8" r="4" fill="#0" id="circle18"/>
	<circle cx="163.429" cy="489.371" r="4" fill="#0" id="circle19"/>
	<circle cx="166.971" cy="64.2286" r="4" fill="#0" id="circle20"/>
	<circle cx="174.057" cy="99.6571" r="4" fill="#0" id="circle21"/>
	<circle cx="184.686" cy="996" r="4" fill="#0" id="circle22"/>
	<circle cx="188.229" cy="7.54286" r="4" fill="#0" id="circle23"/>
	<circle cx="191.771" cy="464.571" r="4" fill="#0" id="circle24"/>
	<circle cx="195.314" cy="340.571" r="4" fill="#0" id="circle25"/>
	<circle cx="195.314" cy="376" r="4" fill="#0" id="circle26"/>
	<circle cx="195.314" cy="411.429" r="4" fill="#0" id="circle27"/>
	<circle cx="198.857" cy="128" r="4" fill="#0" id="circle28"/>
	<circle cx="202.4" cy="163.429" r="4" fill="#0" id="circle29"/>
	<circle cx="202.4" cy="198.857" r="4" fill="#0" id="circle30"/>
	<circle cx="202.4" cy="234.286" r="4" fill="#0" id="circle31"/>
	<circle cx="202.4" cy="269.714" r="4" fill="#0" id="circle32"/>
	<circle cx="202.4" cy="305.143" r="4" fill="#0" id="circle33"/>
	<circle cx="220.114" cy="996" r="4" fill="#0" id="circle34"/>
	<circle cx="223.657" cy="4" r="4" fill="#0" id="circle35"/>
	<circle cx="241.371" cy="42.9714" r="4" fill="#0" id="circle36"/>
	<circle cx="248.457" cy="78.4" r="4" fill="#0" id="circle37"/>
	<circle cx="248.457" cy="113.829" r="4" fill="#0" id="circle38"/>
	<circle cx="248.457" cy="149.257" r="4" fill="#0" id="circle39"/>
	<circle cx="248.457" cy="184.686" r="4" fill="#0" id="circle40"/>
	<circle cx="248.457" cy="220.114" r="4" fill="#0" id="circle41"/>
	<circle cx="248.457" cy="255.543" r="4" fill="#0" id="circle42"/>
	<circle cx="248.457" cy="290.971" r="4" fill="#0" id="circle43"/>
	<circle cx="248.457" cy="326.4" r="4" fill="#0" id="circle44"/>
	<circle cx="248.457" cy="368.914" r="4" fill="#0" id="circle45"/>
	<circle cx="248.457" cy="404.343" r="4" fill="#0" id="circle46"/>
	<circle cx="255.543" cy="439.771" r="4" fill="#0" id="circle47"/>
	<circle cx="255.543" cy="475.2" r="4" fill="#0" id="circle48"/>
	<circle cx="255.543" cy="510.629" r="4" fill="#0" id="circle49"/>
	<circle cx="255.543" cy="546.057" r="4" fill="#0" id="circle50"/>
	<circle cx="255.543" cy="996" r="4" fill="#0" id="circle51"/>
	<circle cx="290.971" cy="546.057" r="4" fill="#0" id="circle52"/>
	<circle cx="290.971" cy="985.371" r="4" fill="#0" id="circle53"/>
	<circle cx="322.857" cy="967.657" r="4" fill="#0" id="circle54"/>
	<circle cx="326.4" cy="546.057" r="4" fill="#0" id="circle55"/>
	<circle cx="333.486" cy="652.343" r="4" fill="#0" id="circle56"/>
	<circle cx="333.486" cy="687.771" r="4" fill="#0" id="circle57"/>
	<circle cx="347.657" cy="616.914" r="4" fill="#0" id="circle58"/>
	<circle cx="347.657" cy="723.2" r="4" fill="#0" id="circle59"/>
	<circle cx="351.2" cy="946.4" r="4" fill="#0" id="circle60"/>
	<circle cx="354.743" cy="567.314" r="4" fill="#0" id="circle61"/>
	<circle cx="368.914" cy="751.543" r="4" fill="#0" id="circle62"/>
	<circle cx="372.457" cy="918.057" r="4" fill="#0" id="circle63"/>
	<circle cx="383.086" cy="786.971" r="4" fill="#0" id="circle64"/>
	<circle cx="390.171" cy="822.4" r="4" fill="#0" id="circle65"/>
	<circle cx="390.171" cy="857.829" r="4" fill="#0" id="circle66"/>
	</g>
</svg>