<?xml version="1.0" encoding="UTF-8" standalone="no"?>
<!-- Created with CurveBenchmark -->
<svg
	xmlns:dc="http://purl.org/dc/elements/1.1/"
	xmlns:cc="http://creativecommons.org/ns#"
	xmlns:rdf="http://www.w3.org/1999/02/22-rdf-syntax-ns#"
	xmlns:svg="http://www.w3.org/2000/svg"
	xmlns="http://www.w3.org/2000/svg"
	xmlns:sodipodi="http://sodipodi.sourceforge.net/DTD/sodipodi-0.dtd"
	xmlns:inkscape="http://www.inkscape.org/namespaces/inkscape"
	width="1000"
	height="1000"
	id="svg2"
	version="1.1"
	sodipodi:docname="manifold/crust-teddy180.png.txt">
<defs
	id="defs4" />
<metadata
	id="metadata7">
	<rdf:RDF>
		<cc:Work
			rdf:about="">
			<dc:format>image/svg+xml</dc:format>
			<dc:type
				rdf:resource="http://purl.org/dc/dcmitype/StillImage" />
			<dc:title></dc:title>
		</cc:Work>
	</rdf:RDF>
</metadata>
<g
	inkscape:label="Layer 1"
	inkscape:groupmode="layer"
	id="layer1">
	<path style="fill:none;stroke:red;stroke-width:1px;stroke-linecap:butt;stroke-linejoin:miter;stroke-opacity:1" d="M 77.4815,32.2621 60.5242,60.5242 z" id="boundary" inkscape:connector-curvature="0" />
	<path style="fill:none;stroke:red;stroke-width:1px;stroke-linecap:butt;stroke-linejoin:miter;stroke-opacity:1" d="M 69.0028,117.048 66.1766,88.7863 z" id="boundary" inkscape:connector-curvature="0" />
	<path style="fill:none;stroke:red;stroke-width:1px;stroke-linecap:butt;stroke-linejoin:miter;stroke-opacity:1" d="M 66.1766,88.7863 60.5242,60.5242 z" id="boundary" inkscape:connector-curvature="0" />
	<path style="fill:none;stroke:red;stroke-width:1px;stroke-linecap:butt;stroke-linejoin:miter;stroke-opacity:1" d="M 77.4815,145.311 69.0028,117.048 z" id="boundary" inkscape:connector-curvature="0" />
	<path style="fill:none;stroke:red;stroke-width:1px;stroke-linecap:butt;stroke-linejoin:miter;stroke-opacity:1" d="M 102.917,18.1311 77.4815,32.2621 z" id="boundary" inkscape:connector-curvature="0" />
	<path style="fill:none;stroke:red;stroke-width:1px;stroke-linecap:butt;stroke-linejoin:miter;stroke-opacity:1" d="M 88.7863,173.573 77.4815,201.835 z" id="boundary" inkscape:connector-curvature="0" />
	<path style="fill:none;stroke:red;stroke-width:1px;stroke-linecap:butt;stroke-linejoin:miter;stroke-opacity:1" d="M 77.4815,145.311 88.7863,173.573 z" id="boundary" inkscape:connector-curvature="0" />
	<path style="fill:none;stroke:red;stroke-width:1px;stroke-linecap:butt;stroke-linejoin:miter;stroke-opacity:1" d="M 77.4815,201.835 77.4815,230.097 z" id="boundary" inkscape:connector-curvature="0" />
	<path style="fill:none;stroke:red;stroke-width:1px;stroke-linecap:butt;stroke-linejoin:miter;stroke-opacity:1" d="M 102.917,18.1311 131.179,6.82621 z" id="boundary" inkscape:connector-curvature="0" />
	<path style="fill:none;stroke:red;stroke-width:1px;stroke-linecap:butt;stroke-linejoin:miter;stroke-opacity:1" d="M 159.442,4 131.179,6.82621 z" id="boundary" inkscape:connector-curvature="0" />
	<path style="fill:none;stroke:red;stroke-width:1px;stroke-linecap:butt;stroke-linejoin:miter;stroke-opacity:1" d="M 159.442,4 187.704,9.65242 z" id="boundary" inkscape:connector-curvature="0" />
	<path style="fill:none;stroke:red;stroke-width:1px;stroke-linecap:butt;stroke-linejoin:miter;stroke-opacity:1" d="M 77.4815,258.359 83.1339,286.621 z" id="boundary" inkscape:connector-curvature="0" />
	<path style="fill:none;stroke:red;stroke-width:1px;stroke-linecap:butt;stroke-linejoin:miter;stroke-opacity:1" d="M 77.4815,258.359 77.4815,230.097 z" id="boundary" inkscape:connector-curvature="0" />
	<path style="fill:none;stroke:red;stroke-width:1px;stroke-linecap:butt;stroke-linejoin:miter;stroke-opacity:1" d="M 94.4387,314.883 83.1339,286.621 z" id="boundary" inkscape:connector-curvature="0" />
	<path style="fill:none;stroke:red;stroke-width:1px;stroke-linecap:butt;stroke-linejoin:miter;stroke-opacity:1" d="M 108.57,340.319 94.4387,314.883 z" id="boundary" inkscape:connector-curvature="0" />
	<path style="fill:none;stroke:red;stroke-width:1px;stroke-linecap:butt;stroke-linejoin:miter;stroke-opacity:1" d="M 100.091,388.365 77.4815,405.322 z" id="boundary" inkscape:connector-curvature="0" />
	<path style="fill:none;stroke:red;stroke-width:1px;stroke-linecap:butt;stroke-linejoin:miter;stroke-opacity:1" d="M 122.701,371.407 100.091,388.365 z" id="boundary" inkscape:connector-curvature="0" />
	<path style="fill:none;stroke:red;stroke-width:1px;stroke-linecap:butt;stroke-linejoin:miter;stroke-opacity:1" d="M 108.57,340.319 122.701,371.407 z" id="boundary" inkscape:connector-curvature="0" />
	<path style="fill:none;stroke:red;stroke-width:1px;stroke-linecap:butt;stroke-linejoin:miter;stroke-opacity:1" d="M 77.4815,405.322 54.8718,422.279 z" id="boundary" inkscape:connector-curvature="0" />
	<path style="fill:none;stroke:red;stroke-width:1px;stroke-linecap:butt;stroke-linejoin:miter;stroke-opacity:1" d="M 215.966,20.9573 187.704,9.65242 z" id="boundary" inkscape:connector-curvature="0" />
	<path style="fill:none;stroke:red;stroke-width:1px;stroke-linecap:butt;stroke-linejoin:miter;stroke-opacity:1" d="M 266.838,43.567 238.575,37.9145 z" id="boundary" inkscape:connector-curvature="0" />
	<path style="fill:none;stroke:red;stroke-width:1px;stroke-linecap:butt;stroke-linejoin:miter;stroke-opacity:1" d="M 238.575,37.9145 215.966,20.9573 z" id="boundary" inkscape:connector-curvature="0" />
	<path style="fill:none;stroke:red;stroke-width:1px;stroke-linecap:butt;stroke-linejoin:miter;stroke-opacity:1" d="M 295.1,43.567 266.838,43.567 z" id="boundary" inkscape:connector-curvature="0" />
	<path style="fill:none;stroke:red;stroke-width:1px;stroke-linecap:butt;stroke-linejoin:miter;stroke-opacity:1" d="M 374.234,18.1311 402.496,9.65242 z" id="boundary" inkscape:connector-curvature="0" />
	<path style="fill:none;stroke:red;stroke-width:1px;stroke-linecap:butt;stroke-linejoin:miter;stroke-opacity:1" d="M 430.758,4 402.496,9.65242 z" id="boundary" inkscape:connector-curvature="0" />
	<path style="fill:none;stroke:red;stroke-width:1px;stroke-linecap:butt;stroke-linejoin:miter;stroke-opacity:1" d="M 374.234,18.1311 351.624,35.0883 z" id="boundary" inkscape:connector-curvature="0" />
	<path style="fill:none;stroke:red;stroke-width:1px;stroke-linecap:butt;stroke-linejoin:miter;stroke-opacity:1" d="M 295.1,43.567 323.362,37.9145 z" id="boundary" inkscape:connector-curvature="0" />
	<path style="fill:none;stroke:red;stroke-width:1px;stroke-linecap:butt;stroke-linejoin:miter;stroke-opacity:1" d="M 351.624,35.0883 323.362,37.9145 z" id="boundary" inkscape:connector-curvature="0" />
	<path style="fill:none;stroke:red;stroke-width:1px;stroke-linecap:butt;stroke-linejoin:miter;stroke-opacity:1" d="M 459.02,9.65242 430.758,4 z" id="boundary" inkscape:connector-curvature="0" />
	<path style="fill:none;stroke:red;stroke-width:1px;stroke-linecap:butt;stroke-linejoin:miter;stroke-opacity:1" d="M 4,524.023 4,495.761 z" id="boundary" inkscape:connector-curvature="0" />
	<path style="fill:none;stroke:red;stroke-width:1px;stroke-linecap:butt;stroke-linejoin:miter;stroke-opacity:1" d="M 18.1311,470.325 32.2621,444.889 z" id="boundary" inkscape:connector-curvature="0" />
	<path style="fill:none;stroke:red;stroke-width:1px;stroke-linecap:butt;stroke-linejoin:miter;stroke-opacity:1" d="M 18.1311,470.325 4,495.761 z" id="boundary" inkscape:connector-curvature="0" />
	<path style="fill:none;stroke:red;stroke-width:1px;stroke-linecap:butt;stroke-linejoin:miter;stroke-opacity:1" d="M 6.82621,552.285 4,524.023 z" id="boundary" inkscape:connector-curvature="0" />
	<path style="fill:none;stroke:red;stroke-width:1px;stroke-linecap:butt;stroke-linejoin:miter;stroke-opacity:1" d="M 6.82621,552.285 18.1311,580.547 z" id="boundary" inkscape:connector-curvature="0" />
	<path style="fill:none;stroke:red;stroke-width:1px;stroke-linecap:butt;stroke-linejoin:miter;stroke-opacity:1" d="M 35.0883,603.157 54.8718,625.766 z" id="boundary" inkscape:connector-curvature="0" />
	<path style="fill:none;stroke:red;stroke-width:1px;stroke-linecap:butt;stroke-linejoin:miter;stroke-opacity:1" d="M 18.1311,580.547 35.0883,603.157 z" id="boundary" inkscape:connector-curvature="0" />
	<path style="fill:none;stroke:red;stroke-width:1px;stroke-linecap:butt;stroke-linejoin:miter;stroke-opacity:1" d="M 32.2621,444.889 54.8718,422.279 z" id="boundary" inkscape:connector-curvature="0" />
	<path style="fill:none;stroke:red;stroke-width:1px;stroke-linecap:butt;stroke-linejoin:miter;stroke-opacity:1" d="M 54.8718,625.766 80.3077,639.897 z" id="boundary" inkscape:connector-curvature="0" />
	<path style="fill:none;stroke:red;stroke-width:1px;stroke-linecap:butt;stroke-linejoin:miter;stroke-opacity:1" d="M 80.3077,639.897 102.917,656.855 z" id="boundary" inkscape:connector-curvature="0" />
	<path style="fill:none;stroke:red;stroke-width:1px;stroke-linecap:butt;stroke-linejoin:miter;stroke-opacity:1" d="M 117.048,682.291 102.917,656.855 z" id="boundary" inkscape:connector-curvature="0" />
	<path style="fill:none;stroke:red;stroke-width:1px;stroke-linecap:butt;stroke-linejoin:miter;stroke-opacity:1" d="M 117.048,710.553 117.048,682.291 z" id="boundary" inkscape:connector-curvature="0" />
	<path style="fill:none;stroke:red;stroke-width:1px;stroke-linecap:butt;stroke-linejoin:miter;stroke-opacity:1" d="M 100.091,767.077 105.744,738.815 z" id="boundary" inkscape:connector-curvature="0" />
	<path style="fill:none;stroke:red;stroke-width:1px;stroke-linecap:butt;stroke-linejoin:miter;stroke-opacity:1" d="M 117.048,789.687 100.091,767.077 z" id="boundary" inkscape:connector-curvature="0" />
	<path style="fill:none;stroke:red;stroke-width:1px;stroke-linecap:butt;stroke-linejoin:miter;stroke-opacity:1" d="M 117.048,817.949 117.048,789.687 z" id="boundary" inkscape:connector-curvature="0" />
	<path style="fill:none;stroke:red;stroke-width:1px;stroke-linecap:butt;stroke-linejoin:miter;stroke-opacity:1" d="M 105.744,738.815 117.048,710.553 z" id="boundary" inkscape:connector-curvature="0" />
	<path style="fill:none;stroke:red;stroke-width:1px;stroke-linecap:butt;stroke-linejoin:miter;stroke-opacity:1" d="M 117.048,817.949 117.048,846.211 z" id="boundary" inkscape:connector-curvature="0" />
	<path style="fill:none;stroke:red;stroke-width:1px;stroke-linecap:butt;stroke-linejoin:miter;stroke-opacity:1" d="M 117.048,846.211 117.048,874.473 z" id="boundary" inkscape:connector-curvature="0" />
	<path style="fill:none;stroke:red;stroke-width:1px;stroke-linecap:butt;stroke-linejoin:miter;stroke-opacity:1" d="M 117.048,874.473 122.701,902.735 z" id="boundary" inkscape:connector-curvature="0" />
	<path style="fill:none;stroke:red;stroke-width:1px;stroke-linecap:butt;stroke-linejoin:miter;stroke-opacity:1" d="M 122.701,902.735 128.353,930.997 z" id="boundary" inkscape:connector-curvature="0" />
	<path style="fill:none;stroke:red;stroke-width:1px;stroke-linecap:butt;stroke-linejoin:miter;stroke-opacity:1" d="M 128.353,930.997 136.832,959.259 z" id="boundary" inkscape:connector-curvature="0" />
	<path style="fill:none;stroke:red;stroke-width:1px;stroke-linecap:butt;stroke-linejoin:miter;stroke-opacity:1" d="M 266.838,996 238.575,996 z" id="boundary" inkscape:connector-curvature="0" />
	<path style="fill:none;stroke:red;stroke-width:1px;stroke-linecap:butt;stroke-linejoin:miter;stroke-opacity:1" d="M 182.051,996 159.442,979.043 z" id="boundary" inkscape:connector-curvature="0" />
	<path style="fill:none;stroke:red;stroke-width:1px;stroke-linecap:butt;stroke-linejoin:miter;stroke-opacity:1" d="M 159.442,979.043 136.832,959.259 z" id="boundary" inkscape:connector-curvature="0" />
	<path style="fill:none;stroke:red;stroke-width:1px;stroke-linecap:butt;stroke-linejoin:miter;stroke-opacity:1" d="M 238.575,996 210.313,996 z" id="boundary" inkscape:connector-curvature="0" />
	<path style="fill:none;stroke:red;stroke-width:1px;stroke-linecap:butt;stroke-linejoin:miter;stroke-opacity:1" d="M 210.313,996 182.051,996 z" id="boundary" inkscape:connector-curvature="0" />
	<path style="fill:none;stroke:red;stroke-width:1px;stroke-linecap:butt;stroke-linejoin:miter;stroke-opacity:1" d="M 408.148,984.695 379.886,984.695 z" id="boundary" inkscape:connector-curvature="0" />
	<path style="fill:none;stroke:red;stroke-width:1px;stroke-linecap:butt;stroke-linejoin:miter;stroke-opacity:1" d="M 464.672,973.39 436.41,979.043 z" id="boundary" inkscape:connector-curvature="0" />
	<path style="fill:none;stroke:red;stroke-width:1px;stroke-linecap:butt;stroke-linejoin:miter;stroke-opacity:1" d="M 436.41,979.043 408.148,984.695 z" id="boundary" inkscape:connector-curvature="0" />
	<path style="fill:none;stroke:red;stroke-width:1px;stroke-linecap:butt;stroke-linejoin:miter;stroke-opacity:1" d="M 379.886,984.695 351.624,990.348 z" id="boundary" inkscape:connector-curvature="0" />
	<path style="fill:none;stroke:red;stroke-width:1px;stroke-linecap:butt;stroke-linejoin:miter;stroke-opacity:1" d="M 295.1,996 266.838,996 z" id="boundary" inkscape:connector-curvature="0" />
	<path style="fill:none;stroke:red;stroke-width:1px;stroke-linecap:butt;stroke-linejoin:miter;stroke-opacity:1" d="M 323.362,993.174 295.1,996 z" id="boundary" inkscape:connector-curvature="0" />
	<path style="fill:none;stroke:red;stroke-width:1px;stroke-linecap:butt;stroke-linejoin:miter;stroke-opacity:1" d="M 351.624,990.348 323.362,993.174 z" id="boundary" inkscape:connector-curvature="0" />
	<path style="fill:none;stroke:red;stroke-width:1px;stroke-linecap:butt;stroke-linejoin:miter;stroke-opacity:1" d="M 459.02,9.65242 487.282,20.9573 z" id="boundary" inkscape:connector-curvature="0" />
	<path style="fill:none;stroke:red;stroke-width:1px;stroke-linecap:butt;stroke-linejoin:miter;stroke-opacity:1" d="M 487.282,20.9573 507.066,43.567 z" id="boundary" inkscape:connector-curvature="0" />
	<path style="fill:none;stroke:red;stroke-width:1px;stroke-linecap:butt;stroke-linejoin:miter;stroke-opacity:1" d="M 521.197,97.265 509.892,139.658 z" id="boundary" inkscape:connector-curvature="0" />
	<path style="fill:none;stroke:red;stroke-width:1px;stroke-linecap:butt;stroke-linejoin:miter;stroke-opacity:1" d="M 498.587,167.92 509.892,196.182 z" id="boundary" inkscape:connector-curvature="0" />
	<path style="fill:none;stroke:red;stroke-width:1px;stroke-linecap:butt;stroke-linejoin:miter;stroke-opacity:1" d="M 509.892,139.658 498.587,167.92 z" id="boundary" inkscape:connector-curvature="0" />
	<path style="fill:none;stroke:red;stroke-width:1px;stroke-linecap:butt;stroke-linejoin:miter;stroke-opacity:1" d="M 507.066,43.567 521.197,69.0028 z" id="boundary" inkscape:connector-curvature="0" />
	<path style="fill:none;stroke:red;stroke-width:1px;stroke-linecap:butt;stroke-linejoin:miter;stroke-opacity:1" d="M 521.197,69.0028 521.197,97.265 z" id="boundary" inkscape:connector-curvature="0" />
	<path style="fill:none;stroke:red;stroke-width:1px;stroke-linecap:butt;stroke-linejoin:miter;stroke-opacity:1" d="M 526.849,218.792 509.892,196.182 z" id="boundary" inkscape:connector-curvature="0" />
	<path style="fill:none;stroke:red;stroke-width:1px;stroke-linecap:butt;stroke-linejoin:miter;stroke-opacity:1" d="M 532.501,247.054 538.154,275.316 z" id="boundary" inkscape:connector-curvature="0" />
	<path style="fill:none;stroke:red;stroke-width:1px;stroke-linecap:butt;stroke-linejoin:miter;stroke-opacity:1" d="M 526.849,218.792 532.501,247.054 z" id="boundary" inkscape:connector-curvature="0" />
	<path style="fill:none;stroke:red;stroke-width:1px;stroke-linecap:butt;stroke-linejoin:miter;stroke-opacity:1" d="M 538.154,275.316 532.501,320.536 z" id="boundary" inkscape:connector-curvature="0" />
	<path style="fill:none;stroke:red;stroke-width:1px;stroke-linecap:butt;stroke-linejoin:miter;stroke-opacity:1" d="M 532.501,320.536 515.544,348.798 z" id="boundary" inkscape:connector-curvature="0" />
	<path style="fill:none;stroke:red;stroke-width:1px;stroke-linecap:butt;stroke-linejoin:miter;stroke-opacity:1" d="M 515.544,348.798 498.587,371.407 z" id="boundary" inkscape:connector-curvature="0" />
	<path style="fill:none;stroke:red;stroke-width:1px;stroke-linecap:butt;stroke-linejoin:miter;stroke-opacity:1" d="M 526.849,382.712 498.587,371.407 z" id="boundary" inkscape:connector-curvature="0" />
	<path style="fill:none;stroke:red;stroke-width:1px;stroke-linecap:butt;stroke-linejoin:miter;stroke-opacity:1" d="M 555.111,388.365 526.849,382.712 z" id="boundary" inkscape:connector-curvature="0" />
	<path style="fill:none;stroke:red;stroke-width:1px;stroke-linecap:butt;stroke-linejoin:miter;stroke-opacity:1" d="M 555.111,388.365 580.547,402.496 z" id="boundary" inkscape:connector-curvature="0" />
	<path style="fill:none;stroke:red;stroke-width:1px;stroke-linecap:butt;stroke-linejoin:miter;stroke-opacity:1" d="M 603.157,422.279 580.547,402.496 z" id="boundary" inkscape:connector-curvature="0" />
	<path style="fill:none;stroke:red;stroke-width:1px;stroke-linecap:butt;stroke-linejoin:miter;stroke-opacity:1" d="M 603.157,422.279 631.419,427.932 z" id="boundary" inkscape:connector-curvature="0" />
	<path style="fill:none;stroke:red;stroke-width:1px;stroke-linecap:butt;stroke-linejoin:miter;stroke-opacity:1" d="M 659.681,433.584 631.419,427.932 z" id="boundary" inkscape:connector-curvature="0" />
	<path style="fill:none;stroke:red;stroke-width:1px;stroke-linecap:butt;stroke-linejoin:miter;stroke-opacity:1" d="M 645.55,648.376 617.288,656.855 z" id="boundary" inkscape:connector-curvature="0" />
	<path style="fill:none;stroke:red;stroke-width:1px;stroke-linecap:butt;stroke-linejoin:miter;stroke-opacity:1" d="M 617.288,656.855 589.026,662.507 z" id="boundary" inkscape:connector-curvature="0" />
	<path style="fill:none;stroke:red;stroke-width:1px;stroke-linecap:butt;stroke-linejoin:miter;stroke-opacity:1" d="M 659.681,433.584 687.943,433.584 z" id="boundary" inkscape:connector-curvature="0" />
	<path style="fill:none;stroke:red;stroke-width:1px;stroke-linecap:butt;stroke-linejoin:miter;stroke-opacity:1" d="M 716.205,442.063 687.943,433.584 z" id="boundary" inkscape:connector-curvature="0" />
	<path style="fill:none;stroke:red;stroke-width:1px;stroke-linecap:butt;stroke-linejoin:miter;stroke-opacity:1" d="M 744.467,450.541 716.205,442.063 z" id="boundary" inkscape:connector-curvature="0" />
	<path style="fill:none;stroke:red;stroke-width:1px;stroke-linecap:butt;stroke-linejoin:miter;stroke-opacity:1" d="M 767.077,467.499 744.467,450.541 z" id="boundary" inkscape:connector-curvature="0" />
	<path style="fill:none;stroke:red;stroke-width:1px;stroke-linecap:butt;stroke-linejoin:miter;stroke-opacity:1" d="M 778.382,495.761 767.077,467.499 z" id="boundary" inkscape:connector-curvature="0" />
	<path style="fill:none;stroke:red;stroke-width:1px;stroke-linecap:butt;stroke-linejoin:miter;stroke-opacity:1" d="M 673.812,639.897 645.55,648.376 z" id="boundary" inkscape:connector-curvature="0" />
	<path style="fill:none;stroke:red;stroke-width:1px;stroke-linecap:butt;stroke-linejoin:miter;stroke-opacity:1" d="M 702.074,628.593 673.812,639.897 z" id="boundary" inkscape:connector-curvature="0" />
	<path style="fill:none;stroke:red;stroke-width:1px;stroke-linecap:butt;stroke-linejoin:miter;stroke-opacity:1" d="M 769.903,574.895 784.034,524.023 z" id="boundary" inkscape:connector-curvature="0" />
	<path style="fill:none;stroke:red;stroke-width:1px;stroke-linecap:butt;stroke-linejoin:miter;stroke-opacity:1" d="M 778.382,495.761 784.034,524.023 z" id="boundary" inkscape:connector-curvature="0" />
	<path style="fill:none;stroke:red;stroke-width:1px;stroke-linecap:butt;stroke-linejoin:miter;stroke-opacity:1" d="M 769.903,574.895 755.772,600.33 z" id="boundary" inkscape:connector-curvature="0" />
	<path style="fill:none;stroke:red;stroke-width:1px;stroke-linecap:butt;stroke-linejoin:miter;stroke-opacity:1" d="M 730.336,614.462 755.772,600.33 z" id="boundary" inkscape:connector-curvature="0" />
	<path style="fill:none;stroke:red;stroke-width:1px;stroke-linecap:butt;stroke-linejoin:miter;stroke-opacity:1" d="M 702.074,628.593 730.336,614.462 z" id="boundary" inkscape:connector-curvature="0" />
	<path style="fill:none;stroke:red;stroke-width:1px;stroke-linecap:butt;stroke-linejoin:miter;stroke-opacity:1" d="M 566.416,687.943 569.242,716.205 z" id="boundary" inkscape:connector-curvature="0" />
	<path style="fill:none;stroke:red;stroke-width:1px;stroke-linecap:butt;stroke-linejoin:miter;stroke-opacity:1" d="M 566.416,687.943 560.764,659.681 z" id="boundary" inkscape:connector-curvature="0" />
	<path style="fill:none;stroke:red;stroke-width:1px;stroke-linecap:butt;stroke-linejoin:miter;stroke-opacity:1" d="M 569.242,716.205 597.504,721.858 z" id="boundary" inkscape:connector-curvature="0" />
	<path style="fill:none;stroke:red;stroke-width:1px;stroke-linecap:butt;stroke-linejoin:miter;stroke-opacity:1" d="M 560.764,659.681 589.026,662.507 z" id="boundary" inkscape:connector-curvature="0" />
	<path style="fill:none;stroke:red;stroke-width:1px;stroke-linecap:butt;stroke-linejoin:miter;stroke-opacity:1" d="M 597.504,721.858 625.766,733.162 z" id="boundary" inkscape:connector-curvature="0" />
	<path style="fill:none;stroke:red;stroke-width:1px;stroke-linecap:butt;stroke-linejoin:miter;stroke-opacity:1" d="M 654.028,733.162 625.766,733.162 z" id="boundary" inkscape:connector-curvature="0" />
	<path style="fill:none;stroke:red;stroke-width:1px;stroke-linecap:butt;stroke-linejoin:miter;stroke-opacity:1" d="M 521.197,973.39 492.934,973.39 z" id="boundary" inkscape:connector-curvature="0" />
	<path style="fill:none;stroke:red;stroke-width:1px;stroke-linecap:butt;stroke-linejoin:miter;stroke-opacity:1" d="M 464.672,973.39 492.934,973.39 z" id="boundary" inkscape:connector-curvature="0" />
	<path style="fill:none;stroke:red;stroke-width:1px;stroke-linecap:butt;stroke-linejoin:miter;stroke-opacity:1" d="M 549.459,967.738 577.721,973.39 z" id="boundary" inkscape:connector-curvature="0" />
	<path style="fill:none;stroke:red;stroke-width:1px;stroke-linecap:butt;stroke-linejoin:miter;stroke-opacity:1" d="M 605.983,979.043 577.721,973.39 z" id="boundary" inkscape:connector-curvature="0" />
	<path style="fill:none;stroke:red;stroke-width:1px;stroke-linecap:butt;stroke-linejoin:miter;stroke-opacity:1" d="M 549.459,967.738 521.197,973.39 z" id="boundary" inkscape:connector-curvature="0" />
	<path style="fill:none;stroke:red;stroke-width:1px;stroke-linecap:butt;stroke-linejoin:miter;stroke-opacity:1" d="M 634.245,990.348 605.983,979.043 z" id="boundary" inkscape:connector-curvature="0" />
	<path style="fill:none;stroke:red;stroke-width:1px;stroke-linecap:butt;stroke-linejoin:miter;stroke-opacity:1" d="M 662.507,996 634.245,990.348 z" id="boundary" inkscape:connector-curvature="0" />
	<path style="fill:none;stroke:red;stroke-width:1px;stroke-linecap:butt;stroke-linejoin:miter;stroke-opacity:1" d="M 662.507,996 690.769,996 z" id="boundary" inkscape:connector-curvature="0" />
	<path style="fill:none;stroke:red;stroke-width:1px;stroke-linecap:butt;stroke-linejoin:miter;stroke-opacity:1" d="M 682.291,727.51 654.028,733.162 z" id="boundary" inkscape:connector-curvature="0" />
	<path style="fill:none;stroke:red;stroke-width:1px;stroke-linecap:butt;stroke-linejoin:miter;stroke-opacity:1" d="M 710.553,727.51 682.291,727.51 z" id="boundary" inkscape:connector-curvature="0" />
	<path style="fill:none;stroke:red;stroke-width:1px;stroke-linecap:butt;stroke-linejoin:miter;stroke-opacity:1" d="M 710.553,727.51 738.815,727.51 z" id="boundary" inkscape:connector-curvature="0" />
	<path style="fill:none;stroke:red;stroke-width:1px;stroke-linecap:butt;stroke-linejoin:miter;stroke-opacity:1" d="M 738.815,727.51 767.077,727.51 z" id="boundary" inkscape:connector-curvature="0" />
	<path style="fill:none;stroke:red;stroke-width:1px;stroke-linecap:butt;stroke-linejoin:miter;stroke-opacity:1" d="M 815.123,761.425 792.513,741.641 z" id="boundary" inkscape:connector-curvature="0" />
	<path style="fill:none;stroke:red;stroke-width:1px;stroke-linecap:butt;stroke-linejoin:miter;stroke-opacity:1" d="M 767.077,727.51 792.513,741.641 z" id="boundary" inkscape:connector-curvature="0" />
	<path style="fill:none;stroke:red;stroke-width:1px;stroke-linecap:butt;stroke-linejoin:miter;stroke-opacity:1" d="M 826.427,789.687 832.08,817.949 z" id="boundary" inkscape:connector-curvature="0" />
	<path style="fill:none;stroke:red;stroke-width:1px;stroke-linecap:butt;stroke-linejoin:miter;stroke-opacity:1" d="M 837.732,846.211 832.08,817.949 z" id="boundary" inkscape:connector-curvature="0" />
	<path style="fill:none;stroke:red;stroke-width:1px;stroke-linecap:butt;stroke-linejoin:miter;stroke-opacity:1" d="M 815.123,761.425 826.427,789.687 z" id="boundary" inkscape:connector-curvature="0" />
	<path style="fill:none;stroke:red;stroke-width:1px;stroke-linecap:butt;stroke-linejoin:miter;stroke-opacity:1" d="M 719.031,996 690.769,996 z" id="boundary" inkscape:connector-curvature="0" />
	<path style="fill:none;stroke:red;stroke-width:1px;stroke-linecap:butt;stroke-linejoin:miter;stroke-opacity:1" d="M 832.08,891.43 832.08,919.692 z" id="boundary" inkscape:connector-curvature="0" />
	<path style="fill:none;stroke:red;stroke-width:1px;stroke-linecap:butt;stroke-linejoin:miter;stroke-opacity:1" d="M 837.732,846.211 832.08,891.43 z" id="boundary" inkscape:connector-curvature="0" />
	<path style="fill:none;stroke:red;stroke-width:1px;stroke-linecap:butt;stroke-linejoin:miter;stroke-opacity:1" d="M 775.556,981.869 747.293,990.348 z" id="boundary" inkscape:connector-curvature="0" />
	<path style="fill:none;stroke:red;stroke-width:1px;stroke-linecap:butt;stroke-linejoin:miter;stroke-opacity:1" d="M 747.293,990.348 719.031,996 z" id="boundary" inkscape:connector-curvature="0" />
	<path style="fill:none;stroke:red;stroke-width:1px;stroke-linecap:butt;stroke-linejoin:miter;stroke-opacity:1" d="M 800.991,967.738 775.556,981.869 z" id="boundary" inkscape:connector-curvature="0" />
	<path style="fill:none;stroke:red;stroke-width:1px;stroke-linecap:butt;stroke-linejoin:miter;stroke-opacity:1" d="M 817.949,945.128 800.991,967.738 z" id="boundary" inkscape:connector-curvature="0" />
	<path style="fill:none;stroke:red;stroke-width:1px;stroke-linecap:butt;stroke-linejoin:miter;stroke-opacity:1" d="M 817.949,945.128 832.08,919.692 z" id="boundary" inkscape:connector-curvature="0" />
	<circle cx="4" cy="495.761" r="4" fill="#0" id="circle0"/>
	<circle cx="4" cy="524.023" r="4" fill="#0" id="circle1"/>
	<circle cx="6.82621" cy="552.285" r="4" fill="#0" id="circle2"/>
	<circle cx="18.1311" cy="470.325" r="4" fill="#0" id="circle3"/>
	<circle cx="18.1311" cy="580.547" r="4" fill="#0" id="circle4"/>
	<circle cx="32.2621" cy="444.889" r="4" fill="#0" id="circle5"/>
	<circle cx="35.0883" cy="603.157" r="4" fill="#0" id="circle6"/>
	<circle cx="54.8718" cy="422.279" r="4" fill="#0" id="circle7"/>
	<circle cx="54.8718" cy="625.766" r="4" fill="#0" id="circle8"/>
	<circle cx="60.5242" cy="60.5242" r="4" fill="#0" id="circle9"/>
	<circle cx="66.1766" cy="88.7863" r="4" fill="#0" id="circle10"/>
	<circle cx="69.0028" cy="117.048" r="4" fill="#0" id="circle11"/>
	<circle cx="77.4815" cy="32.2621" r="4" fill="#0" id="circle12"/>
	<circle cx="77.4815" cy="145.311" r="4" fill="#0" id="circle13"/>
	<circle cx="77.4815" cy="201.835" r="4" fill="#0" id="circle14"/>
	<circle cx="77.4815" cy="230.097" r="4" fill="#0" id="circle15"/>
	<circle cx="77.4815" cy="258.359" r="4" fill="#0" id="circle16"/>
	<circle cx="77.4815" cy="405.322" r="4" fill="#0" id="circle17"/>
	<circle cx="80.3077" cy="639.897" r="4" fill="#0" id="circle18"/>
	<circle cx="83.1339" cy="286.621" r="4" fill="#0" id="circle19"/>
	<circle cx="88.7863" cy="173.573" r="4" fill="#0" id="circle20"/>
	<circle cx="94.4387" cy="314.883" r="4" fill="#0" id="circle21"/>
	<circle cx="100.091" cy="388.365" r="4" fill="#0" id="circle22"/>
	<circle cx="100.091" cy="767.077" r="4" fill="#0" id="circle23"/>
	<circle cx="102.917" cy="18.1311" r="4" fill="#0" id="circle24"/>
	<circle cx="102.917" cy="656.855" r="4" fill="#0" id="circle25"/>
	<circle cx="105.744" cy="738.815" r="4" fill="#0" id="circle26"/>
	<circle cx="108.57" cy="340.319" r="4" fill="#0" id="circle27"/>
	<circle cx="117.048" cy="682.291" r="4" fill="#0" id="circle28"/>
	<circle cx="117.048" cy="710.553" r="4" fill="#0" id="circle29"/>
	<circle cx="117.048" cy="789.687" r="4" fill="#0" id="circle30"/>
	<circle cx="117.048" cy="817.949" r="4" fill="#0" id="circle31"/>
	<circle cx="117.048" cy="846.211" r="4" fill="#0" id="circle32"/>
	<circle cx="117.048" cy="874.473" r="4" fill="#0" id="circle33"/>
	<circle cx="122.701" cy="371.407" r="4" fill="#0" id="circle34"/>
	<circle cx="122.701" cy="902.735" r="4" fill="#0" id="circle35"/>
	<circle cx="128.353" cy="930.997" r="4" fill="#0" id="circle36"/>
	<circle cx="131.179" cy="6.82621" r="4" fill="#0" id="circle37"/>
	<circle cx="136.832" cy="959.259" r="4" fill="#0" id="circle38"/>
	<circle cx="159.442" cy="4" r="4" fill="#0" id="circle39"/>
	<circle cx="159.442" cy="979.043" r="4" fill="#0" id="circle40"/>
	<circle cx="182.051" cy="996" r="4" fill="#0" id="circle41"/>
	<circle cx="187.704" cy="9.65242" r="4" fill="#0" id="circle42"/>
	<circle cx="210.313" cy="996" r="4" fill="#0" id="circle43"/>
	<circle cx="215.966" cy="20.9573" r="4" fill="#0" id="circle44"/>
	<circle cx="238.575" cy="37.9145" r="4" fill="#0" id="circle45"/>
	<circle cx="238.575" cy="996" r="4" fill="#0" id="circle46"/>
	<circle cx="266.838" cy="43.567" r="4" fill="#0" id="circle47"/>
	<circle cx="266.838" cy="996" r="4" fill="#0" id="circle48"/>
	<circle cx="295.1" cy="43.567" r="4" fill="#0" id="circle49"/>
	<circle cx="295.1" cy="996" r="4" fill="#0" id="circle50"/>
	<circle cx="323.362" cy="37.9145" r="4" fill="#0" id="circle51"/>
	<circle cx="323.362" cy="993.174" r="4" fill="#0" id="circle52"/>
	<circle cx="351.624" cy="35.0883" r="4" fill="#0" id="circle53"/>
	<circle cx="351.624" cy="990.348" r="4" fill="#0" id="circle54"/>
	<circle cx="374.234" cy="18.1311" r="4" fill="#0" id="circle55"/>
	<circle cx="379.886" cy="984.695" r="4" fill="#0" id="circle56"/>
	<circle cx="402.496" cy="9.65242" r="4" fill="#0" id="circle57"/>
	<circle cx="408.148" cy="984.695" r="4" fill="#0" id="circle58"/>
	<circle cx="430.758" cy="4" r="4" fill="#0" id="circle59"/>
	<circle cx="436.41" cy="979.043" r="4" fill="#0" id="circle60"/>
	<circle cx="459.02" cy="9.65242" r="4" fill="#0" id="circle61"/>
	<circle cx="464.672" cy="973.39" r="4" fill="#0" id="circle62"/>
	<circle cx="487.282" cy="20.9573" r="4" fill="#0" id="circle63"/>
	<circle cx="492.934" cy="973.39" r="4" fill="#0" id="circle64"/>
	<circle cx="498.587" cy="167.92" r="4" fill="#0" id="circle65"/>
	<circle cx="498.587" cy="371.407" r="4" fill="#0" id="circle66"/>
	<circle cx="507.066" cy="43.567" r="4" fill="#0" id="circle67"/>
	<circle cx="509.892" cy="139.658" r="4" fill="#0" id="circle68"/>
	<circle cx="509.892" cy="196.182" r="4" fill="#0" id="circle69"/>
	<circle cx="515.544" cy="348.798" r="4" fill="#0" id="circle70"/>
	<circle cx="521.197" cy="69.0028" r="4" fill="#0" id="circle71"/>
	<circle cx="521.197" cy="97.265" r="4" fill="#0" id="circle72"/>
	<circle cx="521.197" cy="973.39" r="4" fill="#0" id="circle73"/>
	<circle cx="526.849" cy="218.792" r="4" fill="#0" id="circle74"/>
	<circle cx="526.849" cy="382.712" r="4" fill="#0" id="circle75"/>
	<circle cx="532.501" cy="247.054" r="4" fill="#0" id="circle76"/>
	<circle cx="532.501" cy="320.536" r="4" fill="#0" id="circle77"/>
	<circle cx="538.154" cy="275.316" r="4" fill="#0" id="circle78"/>
	<circle cx="549.459" cy="967.738" r="4" fill="#0" id="circle79"/>
	<circle cx="555.111" cy="388.365" r="4" fill="#0" id="circle80"/>
	<circle cx="560.764" cy="659.681" r="4" fill="#0" id="circle81"/>
	<circle cx="566.416" cy="687.943" r="4" fill="#0" id="circle82"/>
	<circle cx="569.242" cy="716.205" r="4" fill="#0" id="circle83"/>
	<circle cx="577.721" cy="973.39" r="4" fill="#0" id="circle84"/>
	<circle cx="580.547" cy="402.496" r="4" fill="#0" id="circle85"/>
	<circle cx="589.026" cy="662.507" r="4" fill="#0" id="circle86"/>
	<circle cx="597.504" cy="721.858" r="4" fill="#0" id="circle87"/>
	<circle cx="603.157" cy="422.279" r="4" fill="#0" id="circle88"/>
	<circle cx="605.983" cy="979.043" r="4" fill="#0" id="circle89"/>
	<circle cx="617.288" cy="656.855" r="4" fill="#0" id="circle90"/>
	<circle cx="625.766" cy="733.162" r="4" fill="#0" id="circle91"/>
	<circle cx="631.419" cy="427.932" r="4" fill="#0" id="circle92"/>
	<circle cx="634.245" cy="990.348" r="4" fill="#0" id="circle93"/>
	<circle cx="645.55" cy="648.376" r="4" fill="#0" id="circle94"/>
	<circle cx="654.028" cy="733.162" r="4" fill="#0" id="circle95"/>
	<circle cx="659.681" cy="433.584" r="4" fill="#0" id="circle96"/>
	<circle cx="662.507" cy="996" r="4" fill="#0" id="circle97"/>
	<circle cx="673.812" cy="639.897" r="4" fill="#0" id="circle98"/>
	<circle cx="682.291" cy="727.51" r="4" fill="#0" id="circle99"/>
	<circle cx="687.943" cy="433.584" r="4" fill="#0" id="circle100"/>
	<circle cx="690.769" cy="996" r="4" fill="#0" id="circle101"/>
	<circle cx="702.074" cy="628.593" r="4" fill="#0" id="circle102"/>
	<circle cx="710.553" cy="727.51" r="4" fill="#0" id="circle103"/>
	<circle cx="716.205" cy="442.063" r="4" fill="#0" id="circle104"/>
	<circle cx="719.031" cy="996" r="4" fill="#0" id="circle105"/>
	<circle cx="730.336" cy="614.462" r="4" fill="#0" id="circle106"/>
	<circle cx="738.815" cy="727.51" r="4" fill="#0" id="circle107"/>
	<circle cx="744.467" cy="450.541" r="4" fill="#0" id="circle108"/>
	<circle cx="747.293" cy="990.348" r="4" fill="#0" id="circle109"/>
	<circle cx="755.772" cy="600.33" r="4" fill="#0" id="circle110"/>
	<circle cx="767.077" cy="467.499" r="4" fill="#0" id="circle111"/>
	<circle cx="767.077" cy="727.51" r="4" fill="#0" id="circle112"/>
	<circle cx="769.903" cy="574.895" r="4" fill="#0" id="circle113"/>
	<circle cx="775.556" cy="981.869" r="4" fill="#0" id="circle114"/>
	<circle cx="778.382" cy="495.761" r="4" fill="#0" id="circle115"/>
	<circle cx="784.034" cy="524.023" r="4" fill="#0" id="circle116"/>
	<circle cx="792.513" cy="741.641" r="4" fill="#0" id="circle117"/>
	<circle cx="800.991" cy="967.738" r="4" fill="#0" id="circle118"/>
	<circle cx="815.123" cy="761.425" r="4" fill="#0" id="circle119"/>
	<circle cx="817.949" cy="945.128" r="4" fill="#0" id="circle120"/>
	<circle cx="826.427" cy="789.687" r="4" fill="#0" id="circle121"/>
	<circle cx="832.08" cy="817.949" r="4" fill="#0" id="circle122"/>
	<circle cx="832.08" cy="891.43" r="4" fill="#0" id="circle123"/>
	<circle cx="832.08" cy="919.692" r="4" fill="#0" id="circle124"/>
	<circle cx="837.732" cy="846.211" r="4" fill="#0" id="circle125"/>
	</g>
</svg>