<?xml version="1.0" encoding="UTF-8" standalone="no"?>
<!-- Created with CurveBenchmark -->
<svg
	xmlns:dc="http://purl.org/dc/elements/1.1/"
	xmlns:cc="http://creativecommons.org/ns#"
	xmlns:rdf="http://www.w3.org/1999/02/22-rdf-syntax-ns#"
	xmlns:svg="http://www.w3.org/2000/svg"
	xmlns="http://www.w3.org/2000/svg"
	xmlns:sodipodi="http://sodipodi.sourceforge.net/DTD/sodipodi-0.dtd"
	xmlns:inkscape="http://www.inkscape.org/namespaces/inkscape"
	width="1000"
	height="1000"
	id="svg2"
	version="1.1"
	sodipodi:docname="manifold/crust-tool40.png.txt">
<defs
	id="defs4" />
<metadata
	id="metadata7">
	<rdf:RDF>
		<cc:Work
			rdf:about="">
			<dc:format>image/svg+xml</dc:format>
			<dc:type
				rdf:resource="http://purl.org/dc/dcmitype/StillImage" />
			<dc:title></dc:title>
		</cc:Work>
	</rdf:RDF>
</metadata>
<g
	inkscape:label="Layer 1"
	inkscape:groupmode="layer"
	id="layer1">
	<path style="fill:none;stroke:red;stroke-width:1px;stroke-linecap:butt;stroke-linejoin:miter;stroke-opacity:1" d="M 35,4 4,35 z" id="boundary" inkscape:connector-curvature="0" />
	<path style="fill:none;stroke:red;stroke-width:1px;stroke-linecap:butt;stroke-linejoin:miter;stroke-opacity:1" d="M 4,73.75 4,35 z" id="boundary" inkscape:connector-curvature="0" />
	<path style="fill:none;stroke:red;stroke-width:1px;stroke-linecap:butt;stroke-linejoin:miter;stroke-opacity:1" d="M 73.75,4 100.875,35 z" id="boundary" inkscape:connector-curvature="0" />
	<path style="fill:none;stroke:red;stroke-width:1px;stroke-linecap:butt;stroke-linejoin:miter;stroke-opacity:1" d="M 35,4 73.75,4 z" id="boundary" inkscape:connector-curvature="0" />
	<path style="fill:none;stroke:red;stroke-width:1px;stroke-linecap:butt;stroke-linejoin:miter;stroke-opacity:1" d="M 100.875,35 124.125,66 z" id="boundary" inkscape:connector-curvature="0" />
	<path style="fill:none;stroke:red;stroke-width:1px;stroke-linecap:butt;stroke-linejoin:miter;stroke-opacity:1" d="M 23.375,108.625 4,73.75 z" id="boundary" inkscape:connector-curvature="0" />
	<path style="fill:none;stroke:red;stroke-width:1px;stroke-linecap:butt;stroke-linejoin:miter;stroke-opacity:1" d="M 42.75,143.5 23.375,108.625 z" id="boundary" inkscape:connector-curvature="0" />
	<path style="fill:none;stroke:red;stroke-width:1px;stroke-linecap:butt;stroke-linejoin:miter;stroke-opacity:1" d="M 66,174.5 42.75,143.5 z" id="boundary" inkscape:connector-curvature="0" />
	<path style="fill:none;stroke:red;stroke-width:1px;stroke-linecap:butt;stroke-linejoin:miter;stroke-opacity:1" d="M 112.5,240.375 85.375,209.375 z" id="boundary" inkscape:connector-curvature="0" />
	<path style="fill:none;stroke:red;stroke-width:1px;stroke-linecap:butt;stroke-linejoin:miter;stroke-opacity:1" d="M 85.375,209.375 66,174.5 z" id="boundary" inkscape:connector-curvature="0" />
	<path style="fill:none;stroke:red;stroke-width:1px;stroke-linecap:butt;stroke-linejoin:miter;stroke-opacity:1" d="M 124.125,66 143.5,100.875 z" id="boundary" inkscape:connector-curvature="0" />
	<path style="fill:none;stroke:red;stroke-width:1px;stroke-linecap:butt;stroke-linejoin:miter;stroke-opacity:1" d="M 162.875,135.75 143.5,100.875 z" id="boundary" inkscape:connector-curvature="0" />
	<path style="fill:none;stroke:red;stroke-width:1px;stroke-linecap:butt;stroke-linejoin:miter;stroke-opacity:1" d="M 162.875,135.75 193.875,162.875 z" id="boundary" inkscape:connector-curvature="0" />
	<path style="fill:none;stroke:red;stroke-width:1px;stroke-linecap:butt;stroke-linejoin:miter;stroke-opacity:1" d="M 221,193.875 193.875,162.875 z" id="boundary" inkscape:connector-curvature="0" />
	<path style="fill:none;stroke:red;stroke-width:1px;stroke-linecap:butt;stroke-linejoin:miter;stroke-opacity:1" d="M 240.375,228.75 221,193.875 z" id="boundary" inkscape:connector-curvature="0" />
	<path style="fill:none;stroke:red;stroke-width:1px;stroke-linecap:butt;stroke-linejoin:miter;stroke-opacity:1" d="M 255.875,267.5 240.375,228.75 z" id="boundary" inkscape:connector-curvature="0" />
	<path style="fill:none;stroke:red;stroke-width:1px;stroke-linecap:butt;stroke-linejoin:miter;stroke-opacity:1" d="M 131.875,275.25 112.5,240.375 z" id="boundary" inkscape:connector-curvature="0" />
	<path style="fill:none;stroke:red;stroke-width:1px;stroke-linecap:butt;stroke-linejoin:miter;stroke-opacity:1" d="M 159,306.25 131.875,275.25 z" id="boundary" inkscape:connector-curvature="0" />
	<path style="fill:none;stroke:red;stroke-width:1px;stroke-linecap:butt;stroke-linejoin:miter;stroke-opacity:1" d="M 178.375,341.125 159,306.25 z" id="boundary" inkscape:connector-curvature="0" />
	<path style="fill:none;stroke:red;stroke-width:1px;stroke-linecap:butt;stroke-linejoin:miter;stroke-opacity:1" d="M 255.875,267.5 279.125,298.5 z" id="boundary" inkscape:connector-curvature="0" />
	<path style="fill:none;stroke:red;stroke-width:1px;stroke-linecap:butt;stroke-linejoin:miter;stroke-opacity:1" d="M 279.125,298.5 298.5,333.375 z" id="boundary" inkscape:connector-curvature="0" />
	<path style="fill:none;stroke:red;stroke-width:1px;stroke-linecap:butt;stroke-linejoin:miter;stroke-opacity:1" d="M 197.75,376 178.375,341.125 z" id="boundary" inkscape:connector-curvature="0" />
	<path style="fill:none;stroke:red;stroke-width:1px;stroke-linecap:butt;stroke-linejoin:miter;stroke-opacity:1" d="M 317.875,368.25 298.5,333.375 z" id="boundary" inkscape:connector-curvature="0" />
	<path style="fill:none;stroke:red;stroke-width:1px;stroke-linecap:butt;stroke-linejoin:miter;stroke-opacity:1" d="M 240.375,441.875 217.125,410.875 z" id="boundary" inkscape:connector-curvature="0" />
	<path style="fill:none;stroke:red;stroke-width:1px;stroke-linecap:butt;stroke-linejoin:miter;stroke-opacity:1" d="M 217.125,410.875 197.75,376 z" id="boundary" inkscape:connector-curvature="0" />
	<path style="fill:none;stroke:red;stroke-width:1px;stroke-linecap:butt;stroke-linejoin:miter;stroke-opacity:1" d="M 240.375,441.875 255.875,480.625 z" id="boundary" inkscape:connector-curvature="0" />
	<path style="fill:none;stroke:red;stroke-width:1px;stroke-linecap:butt;stroke-linejoin:miter;stroke-opacity:1" d="M 255.875,480.625 286.875,507.75 z" id="boundary" inkscape:connector-curvature="0" />
	<path style="fill:none;stroke:red;stroke-width:1px;stroke-linecap:butt;stroke-linejoin:miter;stroke-opacity:1" d="M 348.875,395.375 317.875,368.25 z" id="boundary" inkscape:connector-curvature="0" />
	<path style="fill:none;stroke:red;stroke-width:1px;stroke-linecap:butt;stroke-linejoin:miter;stroke-opacity:1" d="M 364.375,434.125 348.875,395.375 z" id="boundary" inkscape:connector-curvature="0" />
	<path style="fill:none;stroke:red;stroke-width:1px;stroke-linecap:butt;stroke-linejoin:miter;stroke-opacity:1" d="M 302.375,546.5 286.875,507.75 z" id="boundary" inkscape:connector-curvature="0" />
	<path style="fill:none;stroke:red;stroke-width:1px;stroke-linecap:butt;stroke-linejoin:miter;stroke-opacity:1" d="M 333.375,569.75 302.375,546.5 z" id="boundary" inkscape:connector-curvature="0" />
	<path style="fill:none;stroke:red;stroke-width:1px;stroke-linecap:butt;stroke-linejoin:miter;stroke-opacity:1" d="M 333.375,569.75 345,608.5 z" id="boundary" inkscape:connector-curvature="0" />
	<path style="fill:none;stroke:red;stroke-width:1px;stroke-linecap:butt;stroke-linejoin:miter;stroke-opacity:1" d="M 364.375,643.375 345,608.5 z" id="boundary" inkscape:connector-curvature="0" />
	<path style="fill:none;stroke:red;stroke-width:1px;stroke-linecap:butt;stroke-linejoin:miter;stroke-opacity:1" d="M 364.375,434.125 395.375,461.25 z" id="boundary" inkscape:connector-curvature="0" />
	<path style="fill:none;stroke:red;stroke-width:1px;stroke-linecap:butt;stroke-linejoin:miter;stroke-opacity:1" d="M 364.375,643.375 391.5,674.375 z" id="boundary" inkscape:connector-curvature="0" />
	<path style="fill:none;stroke:red;stroke-width:1px;stroke-linecap:butt;stroke-linejoin:miter;stroke-opacity:1" d="M 395.375,461.25 410.875,500 z" id="boundary" inkscape:connector-curvature="0" />
	<path style="fill:none;stroke:red;stroke-width:1px;stroke-linecap:butt;stroke-linejoin:miter;stroke-opacity:1" d="M 410.875,500 434.125,531 z" id="boundary" inkscape:connector-curvature="0" />
	<path style="fill:none;stroke:red;stroke-width:1px;stroke-linecap:butt;stroke-linejoin:miter;stroke-opacity:1" d="M 472.875,600.75 453.5,565.875 z" id="boundary" inkscape:connector-curvature="0" />
	<path style="fill:none;stroke:red;stroke-width:1px;stroke-linecap:butt;stroke-linejoin:miter;stroke-opacity:1" d="M 434.125,531 453.5,565.875 z" id="boundary" inkscape:connector-curvature="0" />
	<path style="fill:none;stroke:red;stroke-width:1px;stroke-linecap:butt;stroke-linejoin:miter;stroke-opacity:1" d="M 410.875,709.25 430.25,744.125 z" id="boundary" inkscape:connector-curvature="0" />
	<path style="fill:none;stroke:red;stroke-width:1px;stroke-linecap:butt;stroke-linejoin:miter;stroke-opacity:1" d="M 410.875,709.25 391.5,674.375 z" id="boundary" inkscape:connector-curvature="0" />
	<path style="fill:none;stroke:red;stroke-width:1px;stroke-linecap:butt;stroke-linejoin:miter;stroke-opacity:1" d="M 430.25,744.125 441.875,782.875 z" id="boundary" inkscape:connector-curvature="0" />
	<path style="fill:none;stroke:red;stroke-width:1px;stroke-linecap:butt;stroke-linejoin:miter;stroke-opacity:1" d="M 472.875,600.75 503.875,627.875 z" id="boundary" inkscape:connector-curvature="0" />
	<path style="fill:none;stroke:red;stroke-width:1px;stroke-linecap:butt;stroke-linejoin:miter;stroke-opacity:1" d="M 503.875,627.875 531,658.875 z" id="boundary" inkscape:connector-curvature="0" />
	<path style="fill:none;stroke:red;stroke-width:1px;stroke-linecap:butt;stroke-linejoin:miter;stroke-opacity:1" d="M 531,658.875 562,682.125 z" id="boundary" inkscape:connector-curvature="0" />
	<path style="fill:none;stroke:red;stroke-width:1px;stroke-linecap:butt;stroke-linejoin:miter;stroke-opacity:1" d="M 600.75,686 562,682.125 z" id="boundary" inkscape:connector-curvature="0" />
	<path style="fill:none;stroke:red;stroke-width:1px;stroke-linecap:butt;stroke-linejoin:miter;stroke-opacity:1" d="M 600.75,686 639.5,701.5 z" id="boundary" inkscape:connector-curvature="0" />
	<path style="fill:none;stroke:red;stroke-width:1px;stroke-linecap:butt;stroke-linejoin:miter;stroke-opacity:1" d="M 666.625,732.5 639.5,701.5 z" id="boundary" inkscape:connector-curvature="0" />
	<path style="fill:none;stroke:red;stroke-width:1px;stroke-linecap:butt;stroke-linejoin:miter;stroke-opacity:1" d="M 449.625,821.625 449.625,860.375 z" id="boundary" inkscape:connector-curvature="0" />
	<path style="fill:none;stroke:red;stroke-width:1px;stroke-linecap:butt;stroke-linejoin:miter;stroke-opacity:1" d="M 449.625,899.125 449.625,860.375 z" id="boundary" inkscape:connector-curvature="0" />
	<path style="fill:none;stroke:red;stroke-width:1px;stroke-linecap:butt;stroke-linejoin:miter;stroke-opacity:1" d="M 449.625,821.625 441.875,782.875 z" id="boundary" inkscape:connector-curvature="0" />
	<path style="fill:none;stroke:red;stroke-width:1px;stroke-linecap:butt;stroke-linejoin:miter;stroke-opacity:1" d="M 469,934 449.625,899.125 z" id="boundary" inkscape:connector-curvature="0" />
	<path style="fill:none;stroke:red;stroke-width:1px;stroke-linecap:butt;stroke-linejoin:miter;stroke-opacity:1" d="M 492.25,965 469,934 z" id="boundary" inkscape:connector-curvature="0" />
	<path style="fill:none;stroke:red;stroke-width:1px;stroke-linecap:butt;stroke-linejoin:miter;stroke-opacity:1" d="M 519.375,996 492.25,965 z" id="boundary" inkscape:connector-curvature="0" />
	<path style="fill:none;stroke:red;stroke-width:1px;stroke-linecap:butt;stroke-linejoin:miter;stroke-opacity:1" d="M 596.875,996 558.125,996 z" id="boundary" inkscape:connector-curvature="0" />
	<path style="fill:none;stroke:red;stroke-width:1px;stroke-linecap:butt;stroke-linejoin:miter;stroke-opacity:1" d="M 558.125,996 519.375,996 z" id="boundary" inkscape:connector-curvature="0" />
	<path style="fill:none;stroke:red;stroke-width:1px;stroke-linecap:butt;stroke-linejoin:miter;stroke-opacity:1" d="M 589.125,899.125 596.875,937.875 z" id="boundary" inkscape:connector-curvature="0" />
	<path style="fill:none;stroke:red;stroke-width:1px;stroke-linecap:butt;stroke-linejoin:miter;stroke-opacity:1" d="M 627.875,906.875 589.125,899.125 z" id="boundary" inkscape:connector-curvature="0" />
	<path style="fill:none;stroke:red;stroke-width:1px;stroke-linecap:butt;stroke-linejoin:miter;stroke-opacity:1" d="M 686,806.125 686,767.375 z" id="boundary" inkscape:connector-curvature="0" />
	<path style="fill:none;stroke:red;stroke-width:1px;stroke-linecap:butt;stroke-linejoin:miter;stroke-opacity:1" d="M 686,767.375 666.625,732.5 z" id="boundary" inkscape:connector-curvature="0" />
	<path style="fill:none;stroke:red;stroke-width:1px;stroke-linecap:butt;stroke-linejoin:miter;stroke-opacity:1" d="M 705.375,879.75 686,844.875 z" id="boundary" inkscape:connector-curvature="0" />
	<path style="fill:none;stroke:red;stroke-width:1px;stroke-linecap:butt;stroke-linejoin:miter;stroke-opacity:1" d="M 686,844.875 686,806.125 z" id="boundary" inkscape:connector-curvature="0" />
	<path style="fill:none;stroke:red;stroke-width:1px;stroke-linecap:butt;stroke-linejoin:miter;stroke-opacity:1" d="M 705.375,918.5 705.375,879.75 z" id="boundary" inkscape:connector-curvature="0" />
	<path style="fill:none;stroke:red;stroke-width:1px;stroke-linecap:butt;stroke-linejoin:miter;stroke-opacity:1" d="M 682.125,961.125 596.875,996 z" id="boundary" inkscape:connector-curvature="0" />
	<path style="fill:none;stroke:red;stroke-width:1px;stroke-linecap:butt;stroke-linejoin:miter;stroke-opacity:1" d="M 627.875,906.875 662.75,926.25 z" id="boundary" inkscape:connector-curvature="0" />
	<path style="fill:none;stroke:red;stroke-width:1px;stroke-linecap:butt;stroke-linejoin:miter;stroke-opacity:1" d="M 662.75,926.25 682.125,961.125 z" id="boundary" inkscape:connector-curvature="0" />
	<path style="fill:none;stroke:red;stroke-width:1px;stroke-linecap:butt;stroke-linejoin:miter;stroke-opacity:1" d="M 705.375,918.5 682.125,961.125 z" id="boundary" inkscape:connector-curvature="0" />
	<circle cx="4" cy="35" r="4" fill="#0" id="circle0"/>
	<circle cx="4" cy="73.75" r="4" fill="#0" id="circle1"/>
	<circle cx="23.375" cy="108.625" r="4" fill="#0" id="circle2"/>
	<circle cx="35" cy="4" r="4" fill="#0" id="circle3"/>
	<circle cx="42.75" cy="143.5" r="4" fill="#0" id="circle4"/>
	<circle cx="66" cy="174.5" r="4" fill="#0" id="circle5"/>
	<circle cx="73.75" cy="4" r="4" fill="#0" id="circle6"/>
	<circle cx="85.375" cy="209.375" r="4" fill="#0" id="circle7"/>
	<circle cx="100.875" cy="35" r="4" fill="#0" id="circle8"/>
	<circle cx="112.5" cy="240.375" r="4" fill="#0" id="circle9"/>
	<circle cx="124.125" cy="66" r="4" fill="#0" id="circle10"/>
	<circle cx="131.875" cy="275.25" r="4" fill="#0" id="circle11"/>
	<circle cx="143.5" cy="100.875" r="4" fill="#0" id="circle12"/>
	<circle cx="159" cy="306.25" r="4" fill="#0" id="circle13"/>
	<circle cx="162.875" cy="135.75" r="4" fill="#0" id="circle14"/>
	<circle cx="178.375" cy="341.125" r="4" fill="#0" id="circle15"/>
	<circle cx="193.875" cy="162.875" r="4" fill="#0" id="circle16"/>
	<circle cx="197.75" cy="376" r="4" fill="#0" id="circle17"/>
	<circle cx="217.125" cy="410.875" r="4" fill="#0" id="circle18"/>
	<circle cx="221" cy="193.875" r="4" fill="#0" id="circle19"/>
	<circle cx="240.375" cy="228.75" r="4" fill="#0" id="circle20"/>
	<circle cx="240.375" cy="441.875" r="4" fill="#0" id="circle21"/>
	<circle cx="255.875" cy="267.5" r="4" fill="#0" id="circle22"/>
	<circle cx="255.875" cy="480.625" r="4" fill="#0" id="circle23"/>
	<circle cx="279.125" cy="298.5" r="4" fill="#0" id="circle24"/>
	<circle cx="286.875" cy="507.75" r="4" fill="#0" id="circle25"/>
	<circle cx="298.5" cy="333.375" r="4" fill="#0" id="circle26"/>
	<circle cx="302.375" cy="546.5" r="4" fill="#0" id="circle27"/>
	<circle cx="317.875" cy="368.25" r="4" fill="#0" id="circle28"/>
	<circle cx="333.375" cy="569.75" r="4" fill="#0" id="circle29"/>
	<circle cx="345" cy="608.5" r="4" fill="#0" id="circle30"/>
	<circle cx="348.875" cy="395.375" r="4" fill="#0" id="circle31"/>
	<circle cx="364.375" cy="434.125" r="4" fill="#0" id="circle32"/>
	<circle cx="364.375" cy="643.375" r="4" fill="#0" id="circle33"/>
	<circle cx="391.5" cy="674.375" r="4" fill="#0" id="circle34"/>
	<circle cx="395.375" cy="461.25" r="4" fill="#0" id="circle35"/>
	<circle cx="410.875" cy="500" r="4" fill="#0" id="circle36"/>
	<circle cx="410.875" cy="709.25" r="4" fill="#0" id="circle37"/>
	<circle cx="430.25" cy="744.125" r="4" fill="#0" id="circle38"/>
	<circle cx="434.125" cy="531" r="4" fill="#0" id="circle39"/>
	<circle cx="441.875" cy="782.875" r="4" fill="#0" id="circle40"/>
	<circle cx="449.625" cy="821.625" r="4" fill="#0" id="circle41"/>
	<circle cx="449.625" cy="860.375" r="4" fill="#0" id="circle42"/>
	<circle cx="449.625" cy="899.125" r="4" fill="#0" id="circle43"/>
	<circle cx="453.5" cy="565.875" r="4" fill="#0" id="circle44"/>
	<circle cx="469" cy="934" r="4" fill="#0" id="circle45"/>
	<circle cx="472.875" cy="600.75" r="4" fill="#0" id="circle46"/>
	<circle cx="492.25" cy="965" r="4" fill="#0" id="circle47"/>
	<circle cx="503.875" cy="627.875" r="4" fill="#0" id="circle48"/>
	<circle cx="519.375" cy="996" r="4" fill="#0" id="circle49"/>
	<circle cx="531" cy="658.875" r="4" fill="#0" id="circle50"/>
	<circle cx="558.125" cy="996" r="4" fill="#0" id="circle51"/>
	<circle cx="562" cy="682.125" r="4" fill="#0" id="circle52"/>
	<circle cx="589.125" cy="899.125" r="4" fill="#0" id="circle53"/>
	<circle cx="596.875" cy="937.875" r="4" fill="#0" id="circle54"/>
	<circle cx="596.875" cy="996" r="4" fill="#0" id="circle55"/>
	<circle cx="600.75" cy="686" r="4" fill="#0" id="circle56"/>
	<circle cx="627.875" cy="906.875" r="4" fill="#0" id="circle57"/>
	<circle cx="639.5" cy="701.5" r="4" fill="#0" id="circle58"/>
	<circle cx="662.75" cy="926.25" r="4" fill="#0" id="circle59"/>
	<circle cx="666.625" cy="732.5" r="4" fill="#0" id="circle60"/>
	<circle cx="682.125" cy="961.125" r="4" fill="#0" id="circle61"/>
	<circle cx="686" cy="767.375" r="4" fill="#0" id="circle62"/>
	<circle cx="686" cy="806.125" r="4" fill="#0" id="circle63"/>
	<circle cx="686" cy="844.875" r="4" fill="#0" id="circle64"/>
	<circle cx="705.375" cy="879.75" r="4" fill="#0" id="circle65"/>
	<circle cx="705.375" cy="918.5" r="4" fill="#0" id="circle66"/>
	</g>
</svg>