<?xml version="1.0" encoding="UTF-8" standalone="no"?>
<!-- Created with CurveBenchmark -->
<svg
	xmlns:dc="http://purl.org/dc/elements/1.1/"
	xmlns:cc="http://creativecommons.org/ns#"
	xmlns:rdf="http://www.w3.org/1999/02/22-rdf-syntax-ns#"
	xmlns:svg="http://www.w3.org/2000/svg"
	xmlns="http://www.w3.org/2000/svg"
	xmlns:sodipodi="http://sodipodi.sourceforge.net/DTD/sodipodi-0.dtd"
	xmlns:inkscape="http://www.inkscape.org/namespaces/inkscape"
	width="1000"
	height="1000"
	id="svg2"
	version="1.1"
	sodipodi:docname="manifold/discur-elephant07.png.txt">
<defs
	id="defs4" />
<metadata
	id="metadata7">
	<rdf:RDF>
		<cc:Work
			rdf:about="">
			<dc:format>image/svg+xml</dc:format>
			<dc:type
				rdf:resource="http://purl.org/dc/dcmitype/StillImage" />
			<dc:title></dc:title>
		</cc:Work>
	</rdf:RDF>
</metadata>
<g
	inkscape:label="Layer 1"
	inkscape:groupmode="layer"
	id="layer1">
	<path style="fill:none;stroke:red;stroke-width:1px;stroke-linecap:butt;stroke-linejoin:miter;stroke-opacity:1" d="M 4,773.145 4,792.867 z" id="boundary" inkscape:connector-curvature="0" />
	<path style="fill:none;stroke:red;stroke-width:1px;stroke-linecap:butt;stroke-linejoin:miter;stroke-opacity:1" d="M 4,773.145 19.7773,757.368 z" id="boundary" inkscape:connector-curvature="0" />
	<path style="fill:none;stroke:red;stroke-width:1px;stroke-linecap:butt;stroke-linejoin:miter;stroke-opacity:1" d="M 4,792.867 4,812.588 z" id="boundary" inkscape:connector-curvature="0" />
	<path style="fill:none;stroke:red;stroke-width:1px;stroke-linecap:butt;stroke-linejoin:miter;stroke-opacity:1" d="M 4,812.588 4,832.31 z" id="boundary" inkscape:connector-curvature="0" />
	<path style="fill:none;stroke:red;stroke-width:1px;stroke-linecap:butt;stroke-linejoin:miter;stroke-opacity:1" d="M 4,832.31 13.8608,850.06 z" id="boundary" inkscape:connector-curvature="0" />
	<path style="fill:none;stroke:red;stroke-width:1px;stroke-linecap:butt;stroke-linejoin:miter;stroke-opacity:1" d="M 13.8608,850.06 23.7217,867.809 z" id="boundary" inkscape:connector-curvature="0" />
	<path style="fill:none;stroke:red;stroke-width:1px;stroke-linecap:butt;stroke-linejoin:miter;stroke-opacity:1" d="M 23.7217,477.32 33.5825,447.738 z" id="boundary" inkscape:connector-curvature="0" />
	<path style="fill:none;stroke:red;stroke-width:1px;stroke-linecap:butt;stroke-linejoin:miter;stroke-opacity:1" d="M 23.7217,477.32 33.5825,495.07 z" id="boundary" inkscape:connector-curvature="0" />
	<path style="fill:none;stroke:red;stroke-width:1px;stroke-linecap:butt;stroke-linejoin:miter;stroke-opacity:1" d="M 23.7217,867.809 23.7217,887.531 z" id="boundary" inkscape:connector-curvature="0" />
	<path style="fill:none;stroke:red;stroke-width:1px;stroke-linecap:butt;stroke-linejoin:miter;stroke-opacity:1" d="M 23.7217,887.531 29.6382,907.252 z" id="boundary" inkscape:connector-curvature="0" />
	<path style="fill:none;stroke:red;stroke-width:1px;stroke-linecap:butt;stroke-linejoin:miter;stroke-opacity:1" d="M 29.6382,907.252 43.4433,923.03 z" id="boundary" inkscape:connector-curvature="0" />
	<path style="fill:none;stroke:red;stroke-width:1px;stroke-linecap:butt;stroke-linejoin:miter;stroke-opacity:1" d="M 33.5825,408.294 33.5825,428.016 z" id="boundary" inkscape:connector-curvature="0" />
	<path style="fill:none;stroke:red;stroke-width:1px;stroke-linecap:butt;stroke-linejoin:miter;stroke-opacity:1" d="M 33.5825,408.294 43.4433,388.573 z" id="boundary" inkscape:connector-curvature="0" />
	<path style="fill:none;stroke:red;stroke-width:1px;stroke-linecap:butt;stroke-linejoin:miter;stroke-opacity:1" d="M 33.5825,428.016 33.5825,447.738 z" id="boundary" inkscape:connector-curvature="0" />
	<path style="fill:none;stroke:red;stroke-width:1px;stroke-linecap:butt;stroke-linejoin:miter;stroke-opacity:1" d="M 33.5825,495.07 33.5825,514.791 z" id="boundary" inkscape:connector-curvature="0" />
	<path style="fill:none;stroke:red;stroke-width:1px;stroke-linecap:butt;stroke-linejoin:miter;stroke-opacity:1" d="M 33.5825,514.791 43.4433,532.541 z" id="boundary" inkscape:connector-curvature="0" />
	<path style="fill:none;stroke:red;stroke-width:1px;stroke-linecap:butt;stroke-linejoin:miter;stroke-opacity:1" d="M 35.5547,741.59 51.332,729.757 z" id="boundary" inkscape:connector-curvature="0" />
	<path style="fill:none;stroke:red;stroke-width:1px;stroke-linecap:butt;stroke-linejoin:miter;stroke-opacity:1" d="M 35.5547,741.59 55.2763,749.479 z" id="boundary" inkscape:connector-curvature="0" />
	<path style="fill:none;stroke:red;stroke-width:1px;stroke-linecap:butt;stroke-linejoin:miter;stroke-opacity:1" d="M 35.5547,808.644 45.4155,779.062 z" id="boundary" inkscape:connector-curvature="0" />
	<path style="fill:none;stroke:red;stroke-width:1px;stroke-linecap:butt;stroke-linejoin:miter;stroke-opacity:1" d="M 35.5547,808.644 45.4155,826.394 z" id="boundary" inkscape:connector-curvature="0" />
	<path style="fill:none;stroke:red;stroke-width:1px;stroke-linecap:butt;stroke-linejoin:miter;stroke-opacity:1" d="M 43.4433,388.573 59.2207,372.795 z" id="boundary" inkscape:connector-curvature="0" />
	<path style="fill:none;stroke:red;stroke-width:1px;stroke-linecap:butt;stroke-linejoin:miter;stroke-opacity:1" d="M 43.4433,532.541 49.3598,552.262 z" id="boundary" inkscape:connector-curvature="0" />
	<path style="fill:none;stroke:red;stroke-width:1px;stroke-linecap:butt;stroke-linejoin:miter;stroke-opacity:1" d="M 43.4433,923.03 53.3042,940.779 z" id="boundary" inkscape:connector-curvature="0" />
	<path style="fill:none;stroke:red;stroke-width:1px;stroke-linecap:butt;stroke-linejoin:miter;stroke-opacity:1" d="M 45.4155,779.062 65.1372,773.145 z" id="boundary" inkscape:connector-curvature="0" />
	<path style="fill:none;stroke:red;stroke-width:1px;stroke-linecap:butt;stroke-linejoin:miter;stroke-opacity:1" d="M 45.4155,826.394 55.2763,844.143 z" id="boundary" inkscape:connector-curvature="0" />
	<path style="fill:none;stroke:red;stroke-width:1px;stroke-linecap:butt;stroke-linejoin:miter;stroke-opacity:1" d="M 49.3598,552.262 53.3042,571.984 z" id="boundary" inkscape:connector-curvature="0" />
	<path style="fill:none;stroke:red;stroke-width:1px;stroke-linecap:butt;stroke-linejoin:miter;stroke-opacity:1" d="M 51.332,729.757 55.2763,749.479 z" id="boundary" inkscape:connector-curvature="0" />
	<path style="fill:none;stroke:red;stroke-width:1px;stroke-linecap:butt;stroke-linejoin:miter;stroke-opacity:1" d="M 53.3042,571.984 59.2207,591.706 z" id="boundary" inkscape:connector-curvature="0" />
	<path style="fill:none;stroke:red;stroke-width:1px;stroke-linecap:butt;stroke-linejoin:miter;stroke-opacity:1" d="M 53.3042,940.779 63.165,958.529 z" id="boundary" inkscape:connector-curvature="0" />
	<path style="fill:none;stroke:red;stroke-width:1px;stroke-linecap:butt;stroke-linejoin:miter;stroke-opacity:1" d="M 55.2763,844.143 55.2763,863.865 z" id="boundary" inkscape:connector-curvature="0" />
	<path style="fill:none;stroke:red;stroke-width:1px;stroke-linecap:butt;stroke-linejoin:miter;stroke-opacity:1" d="M 55.2763,863.865 65.1372,881.614 z" id="boundary" inkscape:connector-curvature="0" />
	<path style="fill:none;stroke:red;stroke-width:1px;stroke-linecap:butt;stroke-linejoin:miter;stroke-opacity:1" d="M 59.2207,372.795 74.998,357.018 z" id="boundary" inkscape:connector-curvature="0" />
	<path style="fill:none;stroke:red;stroke-width:1px;stroke-linecap:butt;stroke-linejoin:miter;stroke-opacity:1" d="M 59.2207,591.706 69.0815,609.455 z" id="boundary" inkscape:connector-curvature="0" />
	<path style="fill:none;stroke:red;stroke-width:1px;stroke-linecap:butt;stroke-linejoin:miter;stroke-opacity:1" d="M 63.165,958.529 82.8867,966.417 z" id="boundary" inkscape:connector-curvature="0" />
	<path style="fill:none;stroke:red;stroke-width:1px;stroke-linecap:butt;stroke-linejoin:miter;stroke-opacity:1" d="M 65.1372,881.614 74.998,899.364 z" id="boundary" inkscape:connector-curvature="0" />
	<path style="fill:none;stroke:red;stroke-width:1px;stroke-linecap:butt;stroke-linejoin:miter;stroke-opacity:1" d="M 69.0815,609.455 73.0258,629.177 z" id="boundary" inkscape:connector-curvature="0" />
	<path style="fill:none;stroke:red;stroke-width:1px;stroke-linecap:butt;stroke-linejoin:miter;stroke-opacity:1" d="M 73.0258,629.177 82.8867,646.926 z" id="boundary" inkscape:connector-curvature="0" />
	<path style="fill:none;stroke:red;stroke-width:1px;stroke-linecap:butt;stroke-linejoin:miter;stroke-opacity:1" d="M 74.998,357.018 94.7197,347.157 z" id="boundary" inkscape:connector-curvature="0" />
	<path style="fill:none;stroke:red;stroke-width:1px;stroke-linecap:butt;stroke-linejoin:miter;stroke-opacity:1" d="M 74.998,899.364 92.7475,909.225 z" id="boundary" inkscape:connector-curvature="0" />
	<path style="fill:none;stroke:red;stroke-width:1px;stroke-linecap:butt;stroke-linejoin:miter;stroke-opacity:1" d="M 82.8867,646.926 82.8867,666.648 z" id="boundary" inkscape:connector-curvature="0" />
	<path style="fill:none;stroke:red;stroke-width:1px;stroke-linecap:butt;stroke-linejoin:miter;stroke-opacity:1" d="M 82.8867,666.648 82.8867,686.37 z" id="boundary" inkscape:connector-curvature="0" />
	<path style="fill:none;stroke:red;stroke-width:1px;stroke-linecap:butt;stroke-linejoin:miter;stroke-opacity:1" d="M 82.8867,686.37 84.8588,706.091 z" id="boundary" inkscape:connector-curvature="0" />
	<path style="fill:none;stroke:red;stroke-width:1px;stroke-linecap:butt;stroke-linejoin:miter;stroke-opacity:1" d="M 82.8867,966.417 100.636,976.278 z" id="boundary" inkscape:connector-curvature="0" />
	<path style="fill:none;stroke:red;stroke-width:1px;stroke-linecap:butt;stroke-linejoin:miter;stroke-opacity:1" d="M 84.8588,706.091 92.7475,725.813 z" id="boundary" inkscape:connector-curvature="0" />
	<path style="fill:none;stroke:red;stroke-width:1px;stroke-linecap:butt;stroke-linejoin:miter;stroke-opacity:1" d="M 92.7475,725.813 102.608,743.563 z" id="boundary" inkscape:connector-curvature="0" />
	<path style="fill:none;stroke:red;stroke-width:1px;stroke-linecap:butt;stroke-linejoin:miter;stroke-opacity:1" d="M 92.7475,909.225 112.469,911.197 z" id="boundary" inkscape:connector-curvature="0" />
	<path style="fill:none;stroke:red;stroke-width:1px;stroke-linecap:butt;stroke-linejoin:miter;stroke-opacity:1" d="M 94.7197,347.157 114.441,337.296 z" id="boundary" inkscape:connector-curvature="0" />
	<path style="fill:none;stroke:red;stroke-width:1px;stroke-linecap:butt;stroke-linejoin:miter;stroke-opacity:1" d="M 100.636,976.278 120.358,972.334 z" id="boundary" inkscape:connector-curvature="0" />
	<path style="fill:none;stroke:red;stroke-width:1px;stroke-linecap:butt;stroke-linejoin:miter;stroke-opacity:1" d="M 102.608,743.563 102.608,763.284 z" id="boundary" inkscape:connector-curvature="0" />
	<path style="fill:none;stroke:red;stroke-width:1px;stroke-linecap:butt;stroke-linejoin:miter;stroke-opacity:1" d="M 102.608,763.284 118.386,777.089 z" id="boundary" inkscape:connector-curvature="0" />
	<path style="fill:none;stroke:red;stroke-width:1px;stroke-linecap:butt;stroke-linejoin:miter;stroke-opacity:1" d="M 112.469,911.197 128.247,895.419 z" id="boundary" inkscape:connector-curvature="0" />
	<path style="fill:none;stroke:red;stroke-width:1px;stroke-linecap:butt;stroke-linejoin:miter;stroke-opacity:1" d="M 114.441,337.296 130.219,323.491 z" id="boundary" inkscape:connector-curvature="0" />
	<path style="fill:none;stroke:red;stroke-width:1px;stroke-linecap:butt;stroke-linejoin:miter;stroke-opacity:1" d="M 118.386,777.089 126.274,796.811 z" id="boundary" inkscape:connector-curvature="0" />
	<path style="fill:none;stroke:red;stroke-width:1px;stroke-linecap:butt;stroke-linejoin:miter;stroke-opacity:1" d="M 120.358,972.334 134.163,956.557 z" id="boundary" inkscape:connector-curvature="0" />
	<path style="fill:none;stroke:red;stroke-width:1px;stroke-linecap:butt;stroke-linejoin:miter;stroke-opacity:1" d="M 126.274,796.811 132.191,816.533 z" id="boundary" inkscape:connector-curvature="0" />
	<path style="fill:none;stroke:red;stroke-width:1px;stroke-linecap:butt;stroke-linejoin:miter;stroke-opacity:1" d="M 128.247,895.419 142.052,873.726 z" id="boundary" inkscape:connector-curvature="0" />
	<path style="fill:none;stroke:red;stroke-width:1px;stroke-linecap:butt;stroke-linejoin:miter;stroke-opacity:1" d="M 130.219,323.491 142.052,299.825 z" id="boundary" inkscape:connector-curvature="0" />
	<path style="fill:none;stroke:red;stroke-width:1px;stroke-linecap:butt;stroke-linejoin:miter;stroke-opacity:1" d="M 132.191,816.533 142.052,834.282 z" id="boundary" inkscape:connector-curvature="0" />
	<path style="fill:none;stroke:red;stroke-width:1px;stroke-linecap:butt;stroke-linejoin:miter;stroke-opacity:1" d="M 134.163,956.557 153.885,946.696 z" id="boundary" inkscape:connector-curvature="0" />
	<path style="fill:none;stroke:red;stroke-width:1px;stroke-linecap:butt;stroke-linejoin:miter;stroke-opacity:1" d="M 142.052,299.825 157.829,284.048 z" id="boundary" inkscape:connector-curvature="0" />
	<path style="fill:none;stroke:red;stroke-width:1px;stroke-linecap:butt;stroke-linejoin:miter;stroke-opacity:1" d="M 142.052,834.282 142.052,854.004 z" id="boundary" inkscape:connector-curvature="0" />
	<path style="fill:none;stroke:red;stroke-width:1px;stroke-linecap:butt;stroke-linejoin:miter;stroke-opacity:1" d="M 142.052,854.004 142.052,873.726 z" id="boundary" inkscape:connector-curvature="0" />
	<path style="fill:none;stroke:red;stroke-width:1px;stroke-linecap:butt;stroke-linejoin:miter;stroke-opacity:1" d="M 153.885,946.696 163.746,926.974 z" id="boundary" inkscape:connector-curvature="0" />
	<path style="fill:none;stroke:red;stroke-width:1px;stroke-linecap:butt;stroke-linejoin:miter;stroke-opacity:1" d="M 157.829,284.048 161.773,250.521 z" id="boundary" inkscape:connector-curvature="0" />
	<path style="fill:none;stroke:red;stroke-width:1px;stroke-linecap:butt;stroke-linejoin:miter;stroke-opacity:1" d="M 161.773,250.521 171.634,230.799 z" id="boundary" inkscape:connector-curvature="0" />
	<path style="fill:none;stroke:red;stroke-width:1px;stroke-linecap:butt;stroke-linejoin:miter;stroke-opacity:1" d="M 163.746,926.974 173.606,907.252 z" id="boundary" inkscape:connector-curvature="0" />
	<path style="fill:none;stroke:red;stroke-width:1px;stroke-linecap:butt;stroke-linejoin:miter;stroke-opacity:1" d="M 171.634,211.078 171.634,230.799 z" id="boundary" inkscape:connector-curvature="0" />
	<path style="fill:none;stroke:red;stroke-width:1px;stroke-linecap:butt;stroke-linejoin:miter;stroke-opacity:1" d="M 171.634,211.078 181.495,181.495 z" id="boundary" inkscape:connector-curvature="0" />
	<path style="fill:none;stroke:red;stroke-width:1px;stroke-linecap:butt;stroke-linejoin:miter;stroke-opacity:1" d="M 173.606,710.036 173.606,729.757 z" id="boundary" inkscape:connector-curvature="0" />
	<path style="fill:none;stroke:red;stroke-width:1px;stroke-linecap:butt;stroke-linejoin:miter;stroke-opacity:1" d="M 173.606,710.036 191.356,719.897 z" id="boundary" inkscape:connector-curvature="0" />
	<path style="fill:none;stroke:red;stroke-width:1px;stroke-linecap:butt;stroke-linejoin:miter;stroke-opacity:1" d="M 173.606,729.757 173.606,749.479 z" id="boundary" inkscape:connector-curvature="0" />
	<path style="fill:none;stroke:red;stroke-width:1px;stroke-linecap:butt;stroke-linejoin:miter;stroke-opacity:1" d="M 173.606,749.479 183.467,767.229 z" id="boundary" inkscape:connector-curvature="0" />
	<path style="fill:none;stroke:red;stroke-width:1px;stroke-linecap:butt;stroke-linejoin:miter;stroke-opacity:1" d="M 173.606,907.252 183.467,877.67 z" id="boundary" inkscape:connector-curvature="0" />
	<path style="fill:none;stroke:red;stroke-width:1px;stroke-linecap:butt;stroke-linejoin:miter;stroke-opacity:1" d="M 181.495,181.495 191.356,161.773 z" id="boundary" inkscape:connector-curvature="0" />
	<path style="fill:none;stroke:red;stroke-width:1px;stroke-linecap:butt;stroke-linejoin:miter;stroke-opacity:1" d="M 183.467,767.229 183.467,786.95 z" id="boundary" inkscape:connector-curvature="0" />
	<path style="fill:none;stroke:red;stroke-width:1px;stroke-linecap:butt;stroke-linejoin:miter;stroke-opacity:1" d="M 183.467,786.95 183.467,806.672 z" id="boundary" inkscape:connector-curvature="0" />
	<path style="fill:none;stroke:red;stroke-width:1px;stroke-linecap:butt;stroke-linejoin:miter;stroke-opacity:1" d="M 183.467,806.672 193.328,824.421 z" id="boundary" inkscape:connector-curvature="0" />
	<path style="fill:none;stroke:red;stroke-width:1px;stroke-linecap:butt;stroke-linejoin:miter;stroke-opacity:1" d="M 183.467,877.67 193.328,844.143 z" id="boundary" inkscape:connector-curvature="0" />
	<path style="fill:none;stroke:red;stroke-width:1px;stroke-linecap:butt;stroke-linejoin:miter;stroke-opacity:1" d="M 191.356,161.773 201.217,142.052 z" id="boundary" inkscape:connector-curvature="0" />
	<path style="fill:none;stroke:red;stroke-width:1px;stroke-linecap:butt;stroke-linejoin:miter;stroke-opacity:1" d="M 191.356,719.897 197.272,739.618 z" id="boundary" inkscape:connector-curvature="0" />
	<path style="fill:none;stroke:red;stroke-width:1px;stroke-linecap:butt;stroke-linejoin:miter;stroke-opacity:1" d="M 193.328,824.421 193.328,844.143 z" id="boundary" inkscape:connector-curvature="0" />
	<path style="fill:none;stroke:red;stroke-width:1px;stroke-linecap:butt;stroke-linejoin:miter;stroke-opacity:1" d="M 197.272,739.618 207.133,757.368 z" id="boundary" inkscape:connector-curvature="0" />
	<path style="fill:none;stroke:red;stroke-width:1px;stroke-linecap:butt;stroke-linejoin:miter;stroke-opacity:1" d="M 201.217,142.052 216.994,126.274 z" id="boundary" inkscape:connector-curvature="0" />
	<path style="fill:none;stroke:red;stroke-width:1px;stroke-linecap:butt;stroke-linejoin:miter;stroke-opacity:1" d="M 207.133,757.368 222.911,739.618 z" id="boundary" inkscape:connector-curvature="0" />
	<path style="fill:none;stroke:red;stroke-width:1px;stroke-linecap:butt;stroke-linejoin:miter;stroke-opacity:1" d="M 216.994,126.274 230.799,102.608 z" id="boundary" inkscape:connector-curvature="0" />
	<path style="fill:none;stroke:red;stroke-width:1px;stroke-linecap:butt;stroke-linejoin:miter;stroke-opacity:1" d="M 222.911,739.618 232.771,719.897 z" id="boundary" inkscape:connector-curvature="0" />
	<path style="fill:none;stroke:red;stroke-width:1px;stroke-linecap:butt;stroke-linejoin:miter;stroke-opacity:1" d="M 230.799,102.608 246.577,86.831 z" id="boundary" inkscape:connector-curvature="0" />
	<path style="fill:none;stroke:red;stroke-width:1px;stroke-linecap:butt;stroke-linejoin:miter;stroke-opacity:1" d="M 232.771,680.453 232.771,700.175 z" id="boundary" inkscape:connector-curvature="0" />
	<path style="fill:none;stroke:red;stroke-width:1px;stroke-linecap:butt;stroke-linejoin:miter;stroke-opacity:1" d="M 232.771,680.453 242.632,650.871 z" id="boundary" inkscape:connector-curvature="0" />
	<path style="fill:none;stroke:red;stroke-width:1px;stroke-linecap:butt;stroke-linejoin:miter;stroke-opacity:1" d="M 232.771,700.175 232.771,719.897 z" id="boundary" inkscape:connector-curvature="0" />
	<path style="fill:none;stroke:red;stroke-width:1px;stroke-linecap:butt;stroke-linejoin:miter;stroke-opacity:1" d="M 242.632,650.871 258.41,637.066 z" id="boundary" inkscape:connector-curvature="0" />
	<path style="fill:none;stroke:red;stroke-width:1px;stroke-linecap:butt;stroke-linejoin:miter;stroke-opacity:1" d="M 246.577,86.831 262.354,71.0537 z" id="boundary" inkscape:connector-curvature="0" />
	<path style="fill:none;stroke:red;stroke-width:1px;stroke-linecap:butt;stroke-linejoin:miter;stroke-opacity:1" d="M 258.41,637.066 270.243,621.288 z" id="boundary" inkscape:connector-curvature="0" />
	<path style="fill:none;stroke:red;stroke-width:1px;stroke-linecap:butt;stroke-linejoin:miter;stroke-opacity:1" d="M 262.354,71.0537 278.131,57.2485 z" id="boundary" inkscape:connector-curvature="0" />
	<path style="fill:none;stroke:red;stroke-width:1px;stroke-linecap:butt;stroke-linejoin:miter;stroke-opacity:1" d="M 270.243,621.288 289.964,621.288 z" id="boundary" inkscape:connector-curvature="0" />
	<path style="fill:none;stroke:red;stroke-width:1px;stroke-linecap:butt;stroke-linejoin:miter;stroke-opacity:1" d="M 278.131,57.2485 295.881,47.3877 z" id="boundary" inkscape:connector-curvature="0" />
	<path style="fill:none;stroke:red;stroke-width:1px;stroke-linecap:butt;stroke-linejoin:miter;stroke-opacity:1" d="M 289.964,621.288 295.881,641.01 z" id="boundary" inkscape:connector-curvature="0" />
	<path style="fill:none;stroke:red;stroke-width:1px;stroke-linecap:butt;stroke-linejoin:miter;stroke-opacity:1" d="M 295.881,47.3877 313.63,37.5268 z" id="boundary" inkscape:connector-curvature="0" />
	<path style="fill:none;stroke:red;stroke-width:1px;stroke-linecap:butt;stroke-linejoin:miter;stroke-opacity:1" d="M 295.881,641.01 311.658,654.815 z" id="boundary" inkscape:connector-curvature="0" />
	<path style="fill:none;stroke:red;stroke-width:1px;stroke-linecap:butt;stroke-linejoin:miter;stroke-opacity:1" d="M 311.658,654.815 325.463,670.592 z" id="boundary" inkscape:connector-curvature="0" />
	<path style="fill:none;stroke:red;stroke-width:1px;stroke-linecap:butt;stroke-linejoin:miter;stroke-opacity:1" d="M 313.63,37.5268 331.38,27.666 z" id="boundary" inkscape:connector-curvature="0" />
	<path style="fill:none;stroke:red;stroke-width:1px;stroke-linecap:butt;stroke-linejoin:miter;stroke-opacity:1" d="M 325.463,670.592 329.408,690.314 z" id="boundary" inkscape:connector-curvature="0" />
	<path style="fill:none;stroke:red;stroke-width:1px;stroke-linecap:butt;stroke-linejoin:miter;stroke-opacity:1" d="M 329.408,690.314 339.268,708.064 z" id="boundary" inkscape:connector-curvature="0" />
	<path style="fill:none;stroke:red;stroke-width:1px;stroke-linecap:butt;stroke-linejoin:miter;stroke-opacity:1" d="M 331.38,27.666 349.129,17.8052 z" id="boundary" inkscape:connector-curvature="0" />
	<path style="fill:none;stroke:red;stroke-width:1px;stroke-linecap:butt;stroke-linejoin:miter;stroke-opacity:1" d="M 339.268,708.064 343.213,727.785 z" id="boundary" inkscape:connector-curvature="0" />
	<path style="fill:none;stroke:red;stroke-width:1px;stroke-linecap:butt;stroke-linejoin:miter;stroke-opacity:1" d="M 343.213,727.785 353.074,745.535 z" id="boundary" inkscape:connector-curvature="0" />
	<path style="fill:none;stroke:red;stroke-width:1px;stroke-linecap:butt;stroke-linejoin:miter;stroke-opacity:1" d="M 349.129,17.8052 368.851,13.8608 z" id="boundary" inkscape:connector-curvature="0" />
	<path style="fill:none;stroke:red;stroke-width:1px;stroke-linecap:butt;stroke-linejoin:miter;stroke-opacity:1" d="M 353.074,745.535 360.962,765.256 z" id="boundary" inkscape:connector-curvature="0" />
	<path style="fill:none;stroke:red;stroke-width:1px;stroke-linecap:butt;stroke-linejoin:miter;stroke-opacity:1" d="M 360.962,765.256 376.74,779.062 z" id="boundary" inkscape:connector-curvature="0" />
	<path style="fill:none;stroke:red;stroke-width:1px;stroke-linecap:butt;stroke-linejoin:miter;stroke-opacity:1" d="M 368.851,13.8608 388.573,7.94433 z" id="boundary" inkscape:connector-curvature="0" />
	<path style="fill:none;stroke:red;stroke-width:1px;stroke-linecap:butt;stroke-linejoin:miter;stroke-opacity:1" d="M 376.74,779.062 384.628,798.783 z" id="boundary" inkscape:connector-curvature="0" />
	<path style="fill:none;stroke:red;stroke-width:1px;stroke-linecap:butt;stroke-linejoin:miter;stroke-opacity:1" d="M 384.628,798.783 394.489,816.533 z" id="boundary" inkscape:connector-curvature="0" />
	<path style="fill:none;stroke:red;stroke-width:1px;stroke-linecap:butt;stroke-linejoin:miter;stroke-opacity:1" d="M 388.573,7.94433 408.294,7.94433 z" id="boundary" inkscape:connector-curvature="0" />
	<path style="fill:none;stroke:red;stroke-width:1px;stroke-linecap:butt;stroke-linejoin:miter;stroke-opacity:1" d="M 394.489,816.533 398.433,836.254 z" id="boundary" inkscape:connector-curvature="0" />
	<path style="fill:none;stroke:red;stroke-width:1px;stroke-linecap:butt;stroke-linejoin:miter;stroke-opacity:1" d="M 398.433,836.254 410.266,852.032 z" id="boundary" inkscape:connector-curvature="0" />
	<path style="fill:none;stroke:red;stroke-width:1px;stroke-linecap:butt;stroke-linejoin:miter;stroke-opacity:1" d="M 408.294,7.94433 428.016,7.94433 z" id="boundary" inkscape:connector-curvature="0" />
	<path style="fill:none;stroke:red;stroke-width:1px;stroke-linecap:butt;stroke-linejoin:miter;stroke-opacity:1" d="M 410.266,852.032 418.155,871.753 z" id="boundary" inkscape:connector-curvature="0" />
	<path style="fill:none;stroke:red;stroke-width:1px;stroke-linecap:butt;stroke-linejoin:miter;stroke-opacity:1" d="M 418.155,871.753 428.016,889.503 z" id="boundary" inkscape:connector-curvature="0" />
	<path style="fill:none;stroke:red;stroke-width:1px;stroke-linecap:butt;stroke-linejoin:miter;stroke-opacity:1" d="M 418.155,940.779 418.155,960.501 z" id="boundary" inkscape:connector-curvature="0" />
	<path style="fill:none;stroke:red;stroke-width:1px;stroke-linecap:butt;stroke-linejoin:miter;stroke-opacity:1" d="M 418.155,940.779 428.016,909.225 z" id="boundary" inkscape:connector-curvature="0" />
	<path style="fill:none;stroke:red;stroke-width:1px;stroke-linecap:butt;stroke-linejoin:miter;stroke-opacity:1" d="M 418.155,960.501 418.155,980.223 z" id="boundary" inkscape:connector-curvature="0" />
	<path style="fill:none;stroke:red;stroke-width:1px;stroke-linecap:butt;stroke-linejoin:miter;stroke-opacity:1" d="M 418.155,980.223 429.988,996 z" id="boundary" inkscape:connector-curvature="0" />
	<path style="fill:none;stroke:red;stroke-width:1px;stroke-linecap:butt;stroke-linejoin:miter;stroke-opacity:1" d="M 428.016,7.94433 447.738,7.94433 z" id="boundary" inkscape:connector-curvature="0" />
	<path style="fill:none;stroke:red;stroke-width:1px;stroke-linecap:butt;stroke-linejoin:miter;stroke-opacity:1" d="M 428.016,889.503 428.016,909.225 z" id="boundary" inkscape:connector-curvature="0" />
	<path style="fill:none;stroke:red;stroke-width:1px;stroke-linecap:butt;stroke-linejoin:miter;stroke-opacity:1" d="M 429.988,996 449.71,996 z" id="boundary" inkscape:connector-curvature="0" />
	<path style="fill:none;stroke:red;stroke-width:1px;stroke-linecap:butt;stroke-linejoin:miter;stroke-opacity:1" d="M 447.738,7.94433 467.459,4 z" id="boundary" inkscape:connector-curvature="0" />
	<path style="fill:none;stroke:red;stroke-width:1px;stroke-linecap:butt;stroke-linejoin:miter;stroke-opacity:1" d="M 449.71,996 469.431,986.139 z" id="boundary" inkscape:connector-curvature="0" />
	<path style="fill:none;stroke:red;stroke-width:1px;stroke-linecap:butt;stroke-linejoin:miter;stroke-opacity:1" d="M 459.571,670.592 459.571,690.314 z" id="boundary" inkscape:connector-curvature="0" />
	<path style="fill:none;stroke:red;stroke-width:1px;stroke-linecap:butt;stroke-linejoin:miter;stroke-opacity:1" d="M 459.571,670.592 477.32,660.732 z" id="boundary" inkscape:connector-curvature="0" />
	<path style="fill:none;stroke:red;stroke-width:1px;stroke-linecap:butt;stroke-linejoin:miter;stroke-opacity:1" d="M 459.571,690.314 469.431,708.064 z" id="boundary" inkscape:connector-curvature="0" />
	<path style="fill:none;stroke:red;stroke-width:1px;stroke-linecap:butt;stroke-linejoin:miter;stroke-opacity:1" d="M 467.459,4 487.181,4 z" id="boundary" inkscape:connector-curvature="0" />
	<path style="fill:none;stroke:red;stroke-width:1px;stroke-linecap:butt;stroke-linejoin:miter;stroke-opacity:1" d="M 469.431,708.064 469.431,727.785 z" id="boundary" inkscape:connector-curvature="0" />
	<path style="fill:none;stroke:red;stroke-width:1px;stroke-linecap:butt;stroke-linejoin:miter;stroke-opacity:1" d="M 469.431,727.785 479.292,745.535 z" id="boundary" inkscape:connector-curvature="0" />
	<path style="fill:none;stroke:red;stroke-width:1px;stroke-linecap:butt;stroke-linejoin:miter;stroke-opacity:1" d="M 469.431,986.139 485.209,972.334 z" id="boundary" inkscape:connector-curvature="0" />
	<path style="fill:none;stroke:red;stroke-width:1px;stroke-linecap:butt;stroke-linejoin:miter;stroke-opacity:1" d="M 477.32,660.732 489.153,676.509 z" id="boundary" inkscape:connector-curvature="0" />
	<path style="fill:none;stroke:red;stroke-width:1px;stroke-linecap:butt;stroke-linejoin:miter;stroke-opacity:1" d="M 479.292,745.535 479.292,765.256 z" id="boundary" inkscape:connector-curvature="0" />
	<path style="fill:none;stroke:red;stroke-width:1px;stroke-linecap:butt;stroke-linejoin:miter;stroke-opacity:1" d="M 479.292,765.256 489.153,783.006 z" id="boundary" inkscape:connector-curvature="0" />
	<path style="fill:none;stroke:red;stroke-width:1px;stroke-linecap:butt;stroke-linejoin:miter;stroke-opacity:1" d="M 485.209,972.334 499.014,956.557 z" id="boundary" inkscape:connector-curvature="0" />
	<path style="fill:none;stroke:red;stroke-width:1px;stroke-linecap:butt;stroke-linejoin:miter;stroke-opacity:1" d="M 487.181,4 506.903,7.94433 z" id="boundary" inkscape:connector-curvature="0" />
	<path style="fill:none;stroke:red;stroke-width:1px;stroke-linecap:butt;stroke-linejoin:miter;stroke-opacity:1" d="M 489.153,676.509 508.875,684.398 z" id="boundary" inkscape:connector-curvature="0" />
	<path style="fill:none;stroke:red;stroke-width:1px;stroke-linecap:butt;stroke-linejoin:miter;stroke-opacity:1" d="M 489.153,783.006 497.042,802.728 z" id="boundary" inkscape:connector-curvature="0" />
	<path style="fill:none;stroke:red;stroke-width:1px;stroke-linecap:butt;stroke-linejoin:miter;stroke-opacity:1" d="M 497.042,802.728 499.014,822.449 z" id="boundary" inkscape:connector-curvature="0" />
	<path style="fill:none;stroke:red;stroke-width:1px;stroke-linecap:butt;stroke-linejoin:miter;stroke-opacity:1" d="M 499.014,822.449 508.875,840.199 z" id="boundary" inkscape:connector-curvature="0" />
	<path style="fill:none;stroke:red;stroke-width:1px;stroke-linecap:butt;stroke-linejoin:miter;stroke-opacity:1" d="M 499.014,956.557 508.875,936.835 z" id="boundary" inkscape:connector-curvature="0" />
	<path style="fill:none;stroke:red;stroke-width:1px;stroke-linecap:butt;stroke-linejoin:miter;stroke-opacity:1" d="M 506.903,7.94433 526.624,11.8887 z" id="boundary" inkscape:connector-curvature="0" />
	<path style="fill:none;stroke:red;stroke-width:1px;stroke-linecap:butt;stroke-linejoin:miter;stroke-opacity:1" d="M 508.875,684.398 522.68,700.175 z" id="boundary" inkscape:connector-curvature="0" />
	<path style="fill:none;stroke:red;stroke-width:1px;stroke-linecap:butt;stroke-linejoin:miter;stroke-opacity:1" d="M 508.875,840.199 508.875,859.92 z" id="boundary" inkscape:connector-curvature="0" />
	<path style="fill:none;stroke:red;stroke-width:1px;stroke-linecap:butt;stroke-linejoin:miter;stroke-opacity:1" d="M 508.875,859.92 518.736,877.67 z" id="boundary" inkscape:connector-curvature="0" />
	<path style="fill:none;stroke:red;stroke-width:1px;stroke-linecap:butt;stroke-linejoin:miter;stroke-opacity:1" d="M 508.875,936.835 518.736,917.113 z" id="boundary" inkscape:connector-curvature="0" />
	<path style="fill:none;stroke:red;stroke-width:1px;stroke-linecap:butt;stroke-linejoin:miter;stroke-opacity:1" d="M 518.736,877.67 518.736,897.392 z" id="boundary" inkscape:connector-curvature="0" />
	<path style="fill:none;stroke:red;stroke-width:1px;stroke-linecap:butt;stroke-linejoin:miter;stroke-opacity:1" d="M 518.736,897.392 518.736,917.113 z" id="boundary" inkscape:connector-curvature="0" />
	<path style="fill:none;stroke:red;stroke-width:1px;stroke-linecap:butt;stroke-linejoin:miter;stroke-opacity:1" d="M 522.68,700.175 538.457,713.98 z" id="boundary" inkscape:connector-curvature="0" />
	<path style="fill:none;stroke:red;stroke-width:1px;stroke-linecap:butt;stroke-linejoin:miter;stroke-opacity:1" d="M 526.624,11.8887 544.374,21.7495 z" id="boundary" inkscape:connector-curvature="0" />
	<path style="fill:none;stroke:red;stroke-width:1px;stroke-linecap:butt;stroke-linejoin:miter;stroke-opacity:1" d="M 538.457,713.98 552.262,729.757 z" id="boundary" inkscape:connector-curvature="0" />
	<path style="fill:none;stroke:red;stroke-width:1px;stroke-linecap:butt;stroke-linejoin:miter;stroke-opacity:1" d="M 544.374,21.7495 564.095,29.6382 z" id="boundary" inkscape:connector-curvature="0" />
	<path style="fill:none;stroke:red;stroke-width:1px;stroke-linecap:butt;stroke-linejoin:miter;stroke-opacity:1" d="M 552.262,729.757 566.068,745.535 z" id="boundary" inkscape:connector-curvature="0" />
	<path style="fill:none;stroke:red;stroke-width:1px;stroke-linecap:butt;stroke-linejoin:miter;stroke-opacity:1" d="M 564.095,29.6382 581.845,39.499 z" id="boundary" inkscape:connector-curvature="0" />
	<path style="fill:none;stroke:red;stroke-width:1px;stroke-linecap:butt;stroke-linejoin:miter;stroke-opacity:1" d="M 566.068,745.535 581.845,759.34 z" id="boundary" inkscape:connector-curvature="0" />
	<path style="fill:none;stroke:red;stroke-width:1px;stroke-linecap:butt;stroke-linejoin:miter;stroke-opacity:1" d="M 568.04,532.541 571.984,552.262 z" id="boundary" inkscape:connector-curvature="0" />
	<path style="fill:none;stroke:red;stroke-width:1px;stroke-linecap:butt;stroke-linejoin:miter;stroke-opacity:1" d="M 568.04,532.541 585.789,522.68 z" id="boundary" inkscape:connector-curvature="0" />
	<path style="fill:none;stroke:red;stroke-width:1px;stroke-linecap:butt;stroke-linejoin:miter;stroke-opacity:1" d="M 571.984,552.262 581.845,570.012 z" id="boundary" inkscape:connector-curvature="0" />
	<path style="fill:none;stroke:red;stroke-width:1px;stroke-linecap:butt;stroke-linejoin:miter;stroke-opacity:1" d="M 581.845,39.499 601.567,47.3877 z" id="boundary" inkscape:connector-curvature="0" />
	<path style="fill:none;stroke:red;stroke-width:1px;stroke-linecap:butt;stroke-linejoin:miter;stroke-opacity:1" d="M 581.845,570.012 587.761,589.734 z" id="boundary" inkscape:connector-curvature="0" />
	<path style="fill:none;stroke:red;stroke-width:1px;stroke-linecap:butt;stroke-linejoin:miter;stroke-opacity:1" d="M 581.845,759.34 597.622,773.145 z" id="boundary" inkscape:connector-curvature="0" />
	<path style="fill:none;stroke:red;stroke-width:1px;stroke-linecap:butt;stroke-linejoin:miter;stroke-opacity:1" d="M 585.789,522.68 603.539,532.541 z" id="boundary" inkscape:connector-curvature="0" />
	<path style="fill:none;stroke:red;stroke-width:1px;stroke-linecap:butt;stroke-linejoin:miter;stroke-opacity:1" d="M 587.761,589.734 597.622,607.483 z" id="boundary" inkscape:connector-curvature="0" />
	<path style="fill:none;stroke:red;stroke-width:1px;stroke-linecap:butt;stroke-linejoin:miter;stroke-opacity:1" d="M 597.622,607.483 613.4,621.288 z" id="boundary" inkscape:connector-curvature="0" />
	<path style="fill:none;stroke:red;stroke-width:1px;stroke-linecap:butt;stroke-linejoin:miter;stroke-opacity:1" d="M 597.622,773.145 605.511,792.867 z" id="boundary" inkscape:connector-curvature="0" />
	<path style="fill:none;stroke:red;stroke-width:1px;stroke-linecap:butt;stroke-linejoin:miter;stroke-opacity:1" d="M 601.567,47.3877 619.316,57.2485 z" id="boundary" inkscape:connector-curvature="0" />
	<path style="fill:none;stroke:red;stroke-width:1px;stroke-linecap:butt;stroke-linejoin:miter;stroke-opacity:1" d="M 603.539,532.541 617.344,548.318 z" id="boundary" inkscape:connector-curvature="0" />
	<path style="fill:none;stroke:red;stroke-width:1px;stroke-linecap:butt;stroke-linejoin:miter;stroke-opacity:1" d="M 605.511,792.867 605.511,812.588 z" id="boundary" inkscape:connector-curvature="0" />
	<path style="fill:none;stroke:red;stroke-width:1px;stroke-linecap:butt;stroke-linejoin:miter;stroke-opacity:1" d="M 605.511,812.588 605.511,832.31 z" id="boundary" inkscape:connector-curvature="0" />
	<path style="fill:none;stroke:red;stroke-width:1px;stroke-linecap:butt;stroke-linejoin:miter;stroke-opacity:1" d="M 605.511,832.31 605.511,852.032 z" id="boundary" inkscape:connector-curvature="0" />
	<path style="fill:none;stroke:red;stroke-width:1px;stroke-linecap:butt;stroke-linejoin:miter;stroke-opacity:1" d="M 605.511,852.032 621.288,865.837 z" id="boundary" inkscape:connector-curvature="0" />
	<path style="fill:none;stroke:red;stroke-width:1px;stroke-linecap:butt;stroke-linejoin:miter;stroke-opacity:1" d="M 613.4,621.288 627.205,637.066 z" id="boundary" inkscape:connector-curvature="0" />
	<path style="fill:none;stroke:red;stroke-width:1px;stroke-linecap:butt;stroke-linejoin:miter;stroke-opacity:1" d="M 617.344,548.318 627.205,566.068 z" id="boundary" inkscape:connector-curvature="0" />
	<path style="fill:none;stroke:red;stroke-width:1px;stroke-linecap:butt;stroke-linejoin:miter;stroke-opacity:1" d="M 619.316,57.2485 637.066,67.1093 z" id="boundary" inkscape:connector-curvature="0" />
	<path style="fill:none;stroke:red;stroke-width:1px;stroke-linecap:butt;stroke-linejoin:miter;stroke-opacity:1" d="M 621.288,865.837 641.01,865.837 z" id="boundary" inkscape:connector-curvature="0" />
	<path style="fill:none;stroke:red;stroke-width:1px;stroke-linecap:butt;stroke-linejoin:miter;stroke-opacity:1" d="M 627.205,566.068 644.954,575.928 z" id="boundary" inkscape:connector-curvature="0" />
	<path style="fill:none;stroke:red;stroke-width:1px;stroke-linecap:butt;stroke-linejoin:miter;stroke-opacity:1" d="M 627.205,637.066 637.066,654.815 z" id="boundary" inkscape:connector-curvature="0" />
	<path style="fill:none;stroke:red;stroke-width:1px;stroke-linecap:butt;stroke-linejoin:miter;stroke-opacity:1" d="M 637.066,67.1093 652.843,78.9423 z" id="boundary" inkscape:connector-curvature="0" />
	<path style="fill:none;stroke:red;stroke-width:1px;stroke-linecap:butt;stroke-linejoin:miter;stroke-opacity:1" d="M 637.066,654.815 644.954,674.537 z" id="boundary" inkscape:connector-curvature="0" />
	<path style="fill:none;stroke:red;stroke-width:1px;stroke-linecap:butt;stroke-linejoin:miter;stroke-opacity:1" d="M 641.01,865.837 660.732,855.976 z" id="boundary" inkscape:connector-curvature="0" />
	<path style="fill:none;stroke:red;stroke-width:1px;stroke-linecap:butt;stroke-linejoin:miter;stroke-opacity:1" d="M 644.954,575.928 660.732,589.734 z" id="boundary" inkscape:connector-curvature="0" />
	<path style="fill:none;stroke:red;stroke-width:1px;stroke-linecap:butt;stroke-linejoin:miter;stroke-opacity:1" d="M 644.954,674.537 656.787,690.314 z" id="boundary" inkscape:connector-curvature="0" />
	<path style="fill:none;stroke:red;stroke-width:1px;stroke-linecap:butt;stroke-linejoin:miter;stroke-opacity:1" d="M 652.843,78.9423 670.592,88.8032 z" id="boundary" inkscape:connector-curvature="0" />
	<path style="fill:none;stroke:red;stroke-width:1px;stroke-linecap:butt;stroke-linejoin:miter;stroke-opacity:1" d="M 656.787,690.314 666.648,708.064 z" id="boundary" inkscape:connector-curvature="0" />
	<path style="fill:none;stroke:red;stroke-width:1px;stroke-linecap:butt;stroke-linejoin:miter;stroke-opacity:1" d="M 660.732,589.734 674.537,605.511 z" id="boundary" inkscape:connector-curvature="0" />
	<path style="fill:none;stroke:red;stroke-width:1px;stroke-linecap:butt;stroke-linejoin:miter;stroke-opacity:1" d="M 660.732,855.976 676.509,838.227 z" id="boundary" inkscape:connector-curvature="0" />
	<path style="fill:none;stroke:red;stroke-width:1px;stroke-linecap:butt;stroke-linejoin:miter;stroke-opacity:1" d="M 666.648,708.064 682.425,719.897 z" id="boundary" inkscape:connector-curvature="0" />
	<path style="fill:none;stroke:red;stroke-width:1px;stroke-linecap:butt;stroke-linejoin:miter;stroke-opacity:1" d="M 670.592,88.8032 686.37,102.608 z" id="boundary" inkscape:connector-curvature="0" />
	<path style="fill:none;stroke:red;stroke-width:1px;stroke-linecap:butt;stroke-linejoin:miter;stroke-opacity:1" d="M 674.537,605.511 684.398,623.26 z" id="boundary" inkscape:connector-curvature="0" />
	<path style="fill:none;stroke:red;stroke-width:1px;stroke-linecap:butt;stroke-linejoin:miter;stroke-opacity:1" d="M 676.509,838.227 686.37,818.505 z" id="boundary" inkscape:connector-curvature="0" />
	<path style="fill:none;stroke:red;stroke-width:1px;stroke-linecap:butt;stroke-linejoin:miter;stroke-opacity:1" d="M 682.425,719.897 690.314,739.618 z" id="boundary" inkscape:connector-curvature="0" />
	<path style="fill:none;stroke:red;stroke-width:1px;stroke-linecap:butt;stroke-linejoin:miter;stroke-opacity:1" d="M 684.398,623.26 698.203,639.038 z" id="boundary" inkscape:connector-curvature="0" />
	<path style="fill:none;stroke:red;stroke-width:1px;stroke-linecap:butt;stroke-linejoin:miter;stroke-opacity:1" d="M 686.37,102.608 700.175,118.386 z" id="boundary" inkscape:connector-curvature="0" />
	<path style="fill:none;stroke:red;stroke-width:1px;stroke-linecap:butt;stroke-linejoin:miter;stroke-opacity:1" d="M 686.37,157.829 690.314,177.551 z" id="boundary" inkscape:connector-curvature="0" />
	<path style="fill:none;stroke:red;stroke-width:1px;stroke-linecap:butt;stroke-linejoin:miter;stroke-opacity:1" d="M 686.37,157.829 706.091,161.773 z" id="boundary" inkscape:connector-curvature="0" />
	<path style="fill:none;stroke:red;stroke-width:1px;stroke-linecap:butt;stroke-linejoin:miter;stroke-opacity:1" d="M 686.37,463.515 696.231,481.264 z" id="boundary" inkscape:connector-curvature="0" />
	<path style="fill:none;stroke:red;stroke-width:1px;stroke-linecap:butt;stroke-linejoin:miter;stroke-opacity:1" d="M 686.37,463.515 706.091,463.515 z" id="boundary" inkscape:connector-curvature="0" />
	<path style="fill:none;stroke:red;stroke-width:1px;stroke-linecap:butt;stroke-linejoin:miter;stroke-opacity:1" d="M 686.37,818.505 696.231,798.783 z" id="boundary" inkscape:connector-curvature="0" />
	<path style="fill:none;stroke:red;stroke-width:1px;stroke-linecap:butt;stroke-linejoin:miter;stroke-opacity:1" d="M 690.314,177.551 706.091,191.356 z" id="boundary" inkscape:connector-curvature="0" />
	<path style="fill:none;stroke:red;stroke-width:1px;stroke-linecap:butt;stroke-linejoin:miter;stroke-opacity:1" d="M 690.314,739.618 700.175,757.368 z" id="boundary" inkscape:connector-curvature="0" />
	<path style="fill:none;stroke:red;stroke-width:1px;stroke-linecap:butt;stroke-linejoin:miter;stroke-opacity:1" d="M 696.231,481.264 696.231,500.986 z" id="boundary" inkscape:connector-curvature="0" />
	<path style="fill:none;stroke:red;stroke-width:1px;stroke-linecap:butt;stroke-linejoin:miter;stroke-opacity:1" d="M 696.231,500.986 712.008,512.819 z" id="boundary" inkscape:connector-curvature="0" />
	<path style="fill:none;stroke:red;stroke-width:1px;stroke-linecap:butt;stroke-linejoin:miter;stroke-opacity:1" d="M 696.231,798.783 706.091,777.089 z" id="boundary" inkscape:connector-curvature="0" />
	<path style="fill:none;stroke:red;stroke-width:1px;stroke-linecap:butt;stroke-linejoin:miter;stroke-opacity:1" d="M 698.203,639.038 704.119,664.676 z" id="boundary" inkscape:connector-curvature="0" />
	<path style="fill:none;stroke:red;stroke-width:1px;stroke-linecap:butt;stroke-linejoin:miter;stroke-opacity:1" d="M 700.175,118.386 715.952,132.191 z" id="boundary" inkscape:connector-curvature="0" />
	<path style="fill:none;stroke:red;stroke-width:1px;stroke-linecap:butt;stroke-linejoin:miter;stroke-opacity:1" d="M 700.175,757.368 706.091,777.089 z" id="boundary" inkscape:connector-curvature="0" />
	<path style="fill:none;stroke:red;stroke-width:1px;stroke-linecap:butt;stroke-linejoin:miter;stroke-opacity:1" d="M 704.119,664.676 713.98,682.425 z" id="boundary" inkscape:connector-curvature="0" />
	<path style="fill:none;stroke:red;stroke-width:1px;stroke-linecap:butt;stroke-linejoin:miter;stroke-opacity:1" d="M 706.091,161.773 723.841,151.913 z" id="boundary" inkscape:connector-curvature="0" />
	<path style="fill:none;stroke:red;stroke-width:1px;stroke-linecap:butt;stroke-linejoin:miter;stroke-opacity:1" d="M 706.091,191.356 713.98,211.078 z" id="boundary" inkscape:connector-curvature="0" />
	<path style="fill:none;stroke:red;stroke-width:1px;stroke-linecap:butt;stroke-linejoin:miter;stroke-opacity:1" d="M 706.091,463.515 725.813,463.515 z" id="boundary" inkscape:connector-curvature="0" />
	<path style="fill:none;stroke:red;stroke-width:1px;stroke-linecap:butt;stroke-linejoin:miter;stroke-opacity:1" d="M 712.008,512.819 719.897,532.541 z" id="boundary" inkscape:connector-curvature="0" />
	<path style="fill:none;stroke:red;stroke-width:1px;stroke-linecap:butt;stroke-linejoin:miter;stroke-opacity:1" d="M 713.98,211.078 723.841,228.827 z" id="boundary" inkscape:connector-curvature="0" />
	<path style="fill:none;stroke:red;stroke-width:1px;stroke-linecap:butt;stroke-linejoin:miter;stroke-opacity:1" d="M 713.98,682.425 733.702,684.398 z" id="boundary" inkscape:connector-curvature="0" />
	<path style="fill:none;stroke:red;stroke-width:1px;stroke-linecap:butt;stroke-linejoin:miter;stroke-opacity:1" d="M 715.952,132.191 723.841,151.913 z" id="boundary" inkscape:connector-curvature="0" />
	<path style="fill:none;stroke:red;stroke-width:1px;stroke-linecap:butt;stroke-linejoin:miter;stroke-opacity:1" d="M 719.897,532.541 735.674,546.346 z" id="boundary" inkscape:connector-curvature="0" />
	<path style="fill:none;stroke:red;stroke-width:1px;stroke-linecap:butt;stroke-linejoin:miter;stroke-opacity:1" d="M 721.869,177.551 733.702,193.328 z" id="boundary" inkscape:connector-curvature="0" />
	<path style="fill:none;stroke:red;stroke-width:1px;stroke-linecap:butt;stroke-linejoin:miter;stroke-opacity:1" d="M 721.869,177.551 739.618,165.718 z" id="boundary" inkscape:connector-curvature="0" />
	<path style="fill:none;stroke:red;stroke-width:1px;stroke-linecap:butt;stroke-linejoin:miter;stroke-opacity:1" d="M 723.841,228.827 731.73,248.549 z" id="boundary" inkscape:connector-curvature="0" />
	<path style="fill:none;stroke:red;stroke-width:1px;stroke-linecap:butt;stroke-linejoin:miter;stroke-opacity:1" d="M 725.813,463.515 743.563,473.376 z" id="boundary" inkscape:connector-curvature="0" />
	<path style="fill:none;stroke:red;stroke-width:1px;stroke-linecap:butt;stroke-linejoin:miter;stroke-opacity:1" d="M 731.73,248.549 741.59,266.298 z" id="boundary" inkscape:connector-curvature="0" />
	<path style="fill:none;stroke:red;stroke-width:1px;stroke-linecap:butt;stroke-linejoin:miter;stroke-opacity:1" d="M 733.702,193.328 743.563,211.078 z" id="boundary" inkscape:connector-curvature="0" />
	<path style="fill:none;stroke:red;stroke-width:1px;stroke-linecap:butt;stroke-linejoin:miter;stroke-opacity:1" d="M 733.702,684.398 749.479,668.62 z" id="boundary" inkscape:connector-curvature="0" />
	<path style="fill:none;stroke:red;stroke-width:1px;stroke-linecap:butt;stroke-linejoin:miter;stroke-opacity:1" d="M 735.674,546.346 749.479,562.123 z" id="boundary" inkscape:connector-curvature="0" />
	<path style="fill:none;stroke:red;stroke-width:1px;stroke-linecap:butt;stroke-linejoin:miter;stroke-opacity:1" d="M 739.618,165.718 753.423,181.495 z" id="boundary" inkscape:connector-curvature="0" />
	<path style="fill:none;stroke:red;stroke-width:1px;stroke-linecap:butt;stroke-linejoin:miter;stroke-opacity:1" d="M 741.59,266.298 749.479,286.02 z" id="boundary" inkscape:connector-curvature="0" />
	<path style="fill:none;stroke:red;stroke-width:1px;stroke-linecap:butt;stroke-linejoin:miter;stroke-opacity:1" d="M 743.563,211.078 753.423,228.827 z" id="boundary" inkscape:connector-curvature="0" />
	<path style="fill:none;stroke:red;stroke-width:1px;stroke-linecap:butt;stroke-linejoin:miter;stroke-opacity:1" d="M 743.563,473.376 763.284,473.376 z" id="boundary" inkscape:connector-curvature="0" />
	<path style="fill:none;stroke:red;stroke-width:1px;stroke-linecap:butt;stroke-linejoin:miter;stroke-opacity:1" d="M 749.479,286.02 755.396,305.742 z" id="boundary" inkscape:connector-curvature="0" />
	<path style="fill:none;stroke:red;stroke-width:1px;stroke-linecap:butt;stroke-linejoin:miter;stroke-opacity:1" d="M 749.479,562.123 765.256,575.928 z" id="boundary" inkscape:connector-curvature="0" />
	<path style="fill:none;stroke:red;stroke-width:1px;stroke-linecap:butt;stroke-linejoin:miter;stroke-opacity:1" d="M 749.479,668.62 759.34,648.899 z" id="boundary" inkscape:connector-curvature="0" />
	<path style="fill:none;stroke:red;stroke-width:1px;stroke-linecap:butt;stroke-linejoin:miter;stroke-opacity:1" d="M 753.423,181.495 763.284,199.245 z" id="boundary" inkscape:connector-curvature="0" />
	<path style="fill:none;stroke:red;stroke-width:1px;stroke-linecap:butt;stroke-linejoin:miter;stroke-opacity:1" d="M 753.423,228.827 763.284,246.577 z" id="boundary" inkscape:connector-curvature="0" />
	<path style="fill:none;stroke:red;stroke-width:1px;stroke-linecap:butt;stroke-linejoin:miter;stroke-opacity:1" d="M 755.396,305.742 765.256,323.491 z" id="boundary" inkscape:connector-curvature="0" />
	<path style="fill:none;stroke:red;stroke-width:1px;stroke-linecap:butt;stroke-linejoin:miter;stroke-opacity:1" d="M 759.34,648.899 775.117,621.288 z" id="boundary" inkscape:connector-curvature="0" />
	<path style="fill:none;stroke:red;stroke-width:1px;stroke-linecap:butt;stroke-linejoin:miter;stroke-opacity:1" d="M 763.284,199.245 775.117,215.022 z" id="boundary" inkscape:connector-curvature="0" />
	<path style="fill:none;stroke:red;stroke-width:1px;stroke-linecap:butt;stroke-linejoin:miter;stroke-opacity:1" d="M 763.284,246.577 773.145,264.326 z" id="boundary" inkscape:connector-curvature="0" />
	<path style="fill:none;stroke:red;stroke-width:1px;stroke-linecap:butt;stroke-linejoin:miter;stroke-opacity:1" d="M 763.284,473.376 769.201,493.097 z" id="boundary" inkscape:connector-curvature="0" />
	<path style="fill:none;stroke:red;stroke-width:1px;stroke-linecap:butt;stroke-linejoin:miter;stroke-opacity:1" d="M 765.256,323.491 765.256,343.213 z" id="boundary" inkscape:connector-curvature="0" />
	<path style="fill:none;stroke:red;stroke-width:1px;stroke-linecap:butt;stroke-linejoin:miter;stroke-opacity:1" d="M 765.256,343.213 781.034,355.046 z" id="boundary" inkscape:connector-curvature="0" />
	<path style="fill:none;stroke:red;stroke-width:1px;stroke-linecap:butt;stroke-linejoin:miter;stroke-opacity:1" d="M 765.256,575.928 775.117,593.678 z" id="boundary" inkscape:connector-curvature="0" />
	<path style="fill:none;stroke:red;stroke-width:1px;stroke-linecap:butt;stroke-linejoin:miter;stroke-opacity:1" d="M 769.201,493.097 784.978,506.903 z" id="boundary" inkscape:connector-curvature="0" />
	<path style="fill:none;stroke:red;stroke-width:1px;stroke-linecap:butt;stroke-linejoin:miter;stroke-opacity:1" d="M 773.145,264.326 783.006,282.076 z" id="boundary" inkscape:connector-curvature="0" />
	<path style="fill:none;stroke:red;stroke-width:1px;stroke-linecap:butt;stroke-linejoin:miter;stroke-opacity:1" d="M 775.117,215.022 784.978,232.771 z" id="boundary" inkscape:connector-curvature="0" />
	<path style="fill:none;stroke:red;stroke-width:1px;stroke-linecap:butt;stroke-linejoin:miter;stroke-opacity:1" d="M 775.117,593.678 775.117,621.288 z" id="boundary" inkscape:connector-curvature="0" />
	<path style="fill:none;stroke:red;stroke-width:1px;stroke-linecap:butt;stroke-linejoin:miter;stroke-opacity:1" d="M 781.034,355.046 794.839,370.823 z" id="boundary" inkscape:connector-curvature="0" />
	<path style="fill:none;stroke:red;stroke-width:1px;stroke-linecap:butt;stroke-linejoin:miter;stroke-opacity:1" d="M 783.006,282.076 784.978,301.797 z" id="boundary" inkscape:connector-curvature="0" />
	<path style="fill:none;stroke:red;stroke-width:1px;stroke-linecap:butt;stroke-linejoin:miter;stroke-opacity:1" d="M 784.978,232.771 794.839,250.521 z" id="boundary" inkscape:connector-curvature="0" />
	<path style="fill:none;stroke:red;stroke-width:1px;stroke-linecap:butt;stroke-linejoin:miter;stroke-opacity:1" d="M 784.978,301.797 794.839,319.547 z" id="boundary" inkscape:connector-curvature="0" />
	<path style="fill:none;stroke:red;stroke-width:1px;stroke-linecap:butt;stroke-linejoin:miter;stroke-opacity:1" d="M 784.978,506.903 792.867,526.624 z" id="boundary" inkscape:connector-curvature="0" />
	<path style="fill:none;stroke:red;stroke-width:1px;stroke-linecap:butt;stroke-linejoin:miter;stroke-opacity:1" d="M 792.867,526.624 792.867,546.346 z" id="boundary" inkscape:connector-curvature="0" />
	<path style="fill:none;stroke:red;stroke-width:1px;stroke-linecap:butt;stroke-linejoin:miter;stroke-opacity:1" d="M 792.867,546.346 792.867,566.068 z" id="boundary" inkscape:connector-curvature="0" />
	<path style="fill:none;stroke:red;stroke-width:1px;stroke-linecap:butt;stroke-linejoin:miter;stroke-opacity:1" d="M 792.867,566.068 802.728,583.817 z" id="boundary" inkscape:connector-curvature="0" />
	<path style="fill:none;stroke:red;stroke-width:1px;stroke-linecap:butt;stroke-linejoin:miter;stroke-opacity:1" d="M 794.839,250.521 802.728,270.243 z" id="boundary" inkscape:connector-curvature="0" />
	<path style="fill:none;stroke:red;stroke-width:1px;stroke-linecap:butt;stroke-linejoin:miter;stroke-opacity:1" d="M 794.839,319.547 814.561,307.714 z" id="boundary" inkscape:connector-curvature="0" />
	<path style="fill:none;stroke:red;stroke-width:1px;stroke-linecap:butt;stroke-linejoin:miter;stroke-opacity:1" d="M 794.839,370.823 810.616,384.628 z" id="boundary" inkscape:connector-curvature="0" />
	<path style="fill:none;stroke:red;stroke-width:1px;stroke-linecap:butt;stroke-linejoin:miter;stroke-opacity:1" d="M 802.728,270.243 812.588,287.992 z" id="boundary" inkscape:connector-curvature="0" />
	<path style="fill:none;stroke:red;stroke-width:1px;stroke-linecap:butt;stroke-linejoin:miter;stroke-opacity:1" d="M 802.728,583.817 822.449,591.706 z" id="boundary" inkscape:connector-curvature="0" />
	<path style="fill:none;stroke:red;stroke-width:1px;stroke-linecap:butt;stroke-linejoin:miter;stroke-opacity:1" d="M 810.616,384.628 824.421,400.406 z" id="boundary" inkscape:connector-curvature="0" />
	<path style="fill:none;stroke:red;stroke-width:1px;stroke-linecap:butt;stroke-linejoin:miter;stroke-opacity:1" d="M 812.588,287.992 814.561,307.714 z" id="boundary" inkscape:connector-curvature="0" />
	<path style="fill:none;stroke:red;stroke-width:1px;stroke-linecap:butt;stroke-linejoin:miter;stroke-opacity:1" d="M 822.449,591.706 840.199,581.845 z" id="boundary" inkscape:connector-curvature="0" />
	<path style="fill:none;stroke:red;stroke-width:1px;stroke-linecap:butt;stroke-linejoin:miter;stroke-opacity:1" d="M 824.421,400.406 840.199,412.239 z" id="boundary" inkscape:connector-curvature="0" />
	<path style="fill:none;stroke:red;stroke-width:1px;stroke-linecap:butt;stroke-linejoin:miter;stroke-opacity:1" d="M 840.199,412.239 857.948,422.099 z" id="boundary" inkscape:connector-curvature="0" />
	<path style="fill:none;stroke:red;stroke-width:1px;stroke-linecap:butt;stroke-linejoin:miter;stroke-opacity:1" d="M 840.199,581.845 854.004,562.123 z" id="boundary" inkscape:connector-curvature="0" />
	<path style="fill:none;stroke:red;stroke-width:1px;stroke-linecap:butt;stroke-linejoin:miter;stroke-opacity:1" d="M 854.004,562.123 873.726,542.402 z" id="boundary" inkscape:connector-curvature="0" />
	<path style="fill:none;stroke:red;stroke-width:1px;stroke-linecap:butt;stroke-linejoin:miter;stroke-opacity:1" d="M 857.948,422.099 871.753,437.877 z" id="boundary" inkscape:connector-curvature="0" />
	<path style="fill:none;stroke:red;stroke-width:1px;stroke-linecap:butt;stroke-linejoin:miter;stroke-opacity:1" d="M 871.753,437.877 881.614,455.626 z" id="boundary" inkscape:connector-curvature="0" />
	<path style="fill:none;stroke:red;stroke-width:1px;stroke-linecap:butt;stroke-linejoin:miter;stroke-opacity:1" d="M 873.726,542.402 883.586,522.68 z" id="boundary" inkscape:connector-curvature="0" />
	<path style="fill:none;stroke:red;stroke-width:1px;stroke-linecap:butt;stroke-linejoin:miter;stroke-opacity:1" d="M 881.614,455.626 889.503,475.348 z" id="boundary" inkscape:connector-curvature="0" />
	<path style="fill:none;stroke:red;stroke-width:1px;stroke-linecap:butt;stroke-linejoin:miter;stroke-opacity:1" d="M 883.586,522.68 893.447,495.07 z" id="boundary" inkscape:connector-curvature="0" />
	<path style="fill:none;stroke:red;stroke-width:1px;stroke-linecap:butt;stroke-linejoin:miter;stroke-opacity:1" d="M 889.503,475.348 893.447,495.07 z" id="boundary" inkscape:connector-curvature="0" />
	<circle cx="4" cy="773.145" r="4" fill="#0" id="circle0"/>
	<circle cx="4" cy="792.867" r="4" fill="#0" id="circle1"/>
	<circle cx="4" cy="812.588" r="4" fill="#0" id="circle2"/>
	<circle cx="4" cy="832.31" r="4" fill="#0" id="circle3"/>
	<circle cx="13.8608" cy="850.06" r="4" fill="#0" id="circle4"/>
	<circle cx="19.7773" cy="757.368" r="4" fill="#0" id="circle5"/>
	<circle cx="23.7217" cy="477.32" r="4" fill="#0" id="circle6"/>
	<circle cx="23.7217" cy="867.809" r="4" fill="#0" id="circle7"/>
	<circle cx="23.7217" cy="887.531" r="4" fill="#0" id="circle8"/>
	<circle cx="29.6382" cy="907.252" r="4" fill="#0" id="circle9"/>
	<circle cx="33.5825" cy="408.294" r="4" fill="#0" id="circle10"/>
	<circle cx="33.5825" cy="428.016" r="4" fill="#0" id="circle11"/>
	<circle cx="33.5825" cy="447.738" r="4" fill="#0" id="circle12"/>
	<circle cx="33.5825" cy="495.07" r="4" fill="#0" id="circle13"/>
	<circle cx="33.5825" cy="514.791" r="4" fill="#0" id="circle14"/>
	<circle cx="35.5547" cy="741.59" r="4" fill="#0" id="circle15"/>
	<circle cx="35.5547" cy="808.644" r="4" fill="#0" id="circle16"/>
	<circle cx="43.4433" cy="388.573" r="4" fill="#0" id="circle17"/>
	<circle cx="43.4433" cy="532.541" r="4" fill="#0" id="circle18"/>
	<circle cx="43.4433" cy="923.03" r="4" fill="#0" id="circle19"/>
	<circle cx="45.4155" cy="779.062" r="4" fill="#0" id="circle20"/>
	<circle cx="45.4155" cy="826.394" r="4" fill="#0" id="circle21"/>
	<circle cx="49.3598" cy="552.262" r="4" fill="#0" id="circle22"/>
	<circle cx="51.332" cy="729.757" r="4" fill="#0" id="circle23"/>
	<circle cx="53.3042" cy="571.984" r="4" fill="#0" id="circle24"/>
	<circle cx="53.3042" cy="940.779" r="4" fill="#0" id="circle25"/>
	<circle cx="55.2763" cy="749.479" r="4" fill="#0" id="circle26"/>
	<circle cx="55.2763" cy="844.143" r="4" fill="#0" id="circle27"/>
	<circle cx="55.2763" cy="863.865" r="4" fill="#0" id="circle28"/>
	<circle cx="59.2207" cy="372.795" r="4" fill="#0" id="circle29"/>
	<circle cx="59.2207" cy="591.706" r="4" fill="#0" id="circle30"/>
	<circle cx="63.165" cy="958.529" r="4" fill="#0" id="circle31"/>
	<circle cx="65.1372" cy="773.145" r="4" fill="#0" id="circle32"/>
	<circle cx="65.1372" cy="881.614" r="4" fill="#0" id="circle33"/>
	<circle cx="69.0815" cy="609.455" r="4" fill="#0" id="circle34"/>
	<circle cx="73.0258" cy="629.177" r="4" fill="#0" id="circle35"/>
	<circle cx="74.998" cy="357.018" r="4" fill="#0" id="circle36"/>
	<circle cx="74.998" cy="899.364" r="4" fill="#0" id="circle37"/>
	<circle cx="82.8867" cy="646.926" r="4" fill="#0" id="circle38"/>
	<circle cx="82.8867" cy="666.648" r="4" fill="#0" id="circle39"/>
	<circle cx="82.8867" cy="686.37" r="4" fill="#0" id="circle40"/>
	<circle cx="82.8867" cy="966.417" r="4" fill="#0" id="circle41"/>
	<circle cx="84.8588" cy="706.091" r="4" fill="#0" id="circle42"/>
	<circle cx="92.7475" cy="725.813" r="4" fill="#0" id="circle43"/>
	<circle cx="92.7475" cy="909.225" r="4" fill="#0" id="circle44"/>
	<circle cx="94.7197" cy="347.157" r="4" fill="#0" id="circle45"/>
	<circle cx="100.636" cy="976.278" r="4" fill="#0" id="circle46"/>
	<circle cx="102.608" cy="743.563" r="4" fill="#0" id="circle47"/>
	<circle cx="102.608" cy="763.284" r="4" fill="#0" id="circle48"/>
	<circle cx="112.469" cy="911.197" r="4" fill="#0" id="circle49"/>
	<circle cx="114.441" cy="337.296" r="4" fill="#0" id="circle50"/>
	<circle cx="118.386" cy="777.089" r="4" fill="#0" id="circle51"/>
	<circle cx="120.358" cy="972.334" r="4" fill="#0" id="circle52"/>
	<circle cx="126.274" cy="796.811" r="4" fill="#0" id="circle53"/>
	<circle cx="128.247" cy="895.419" r="4" fill="#0" id="circle54"/>
	<circle cx="130.219" cy="323.491" r="4" fill="#0" id="circle55"/>
	<circle cx="132.191" cy="816.533" r="4" fill="#0" id="circle56"/>
	<circle cx="134.163" cy="956.557" r="4" fill="#0" id="circle57"/>
	<circle cx="142.052" cy="299.825" r="4" fill="#0" id="circle58"/>
	<circle cx="142.052" cy="834.282" r="4" fill="#0" id="circle59"/>
	<circle cx="142.052" cy="854.004" r="4" fill="#0" id="circle60"/>
	<circle cx="142.052" cy="873.726" r="4" fill="#0" id="circle61"/>
	<circle cx="153.885" cy="946.696" r="4" fill="#0" id="circle62"/>
	<circle cx="157.829" cy="284.048" r="4" fill="#0" id="circle63"/>
	<circle cx="161.773" cy="250.521" r="4" fill="#0" id="circle64"/>
	<circle cx="163.746" cy="926.974" r="4" fill="#0" id="circle65"/>
	<circle cx="171.634" cy="211.078" r="4" fill="#0" id="circle66"/>
	<circle cx="171.634" cy="230.799" r="4" fill="#0" id="circle67"/>
	<circle cx="173.606" cy="710.036" r="4" fill="#0" id="circle68"/>
	<circle cx="173.606" cy="729.757" r="4" fill="#0" id="circle69"/>
	<circle cx="173.606" cy="749.479" r="4" fill="#0" id="circle70"/>
	<circle cx="173.606" cy="907.252" r="4" fill="#0" id="circle71"/>
	<circle cx="181.495" cy="181.495" r="4" fill="#0" id="circle72"/>
	<circle cx="183.467" cy="767.229" r="4" fill="#0" id="circle73"/>
	<circle cx="183.467" cy="786.95" r="4" fill="#0" id="circle74"/>
	<circle cx="183.467" cy="806.672" r="4" fill="#0" id="circle75"/>
	<circle cx="183.467" cy="877.67" r="4" fill="#0" id="circle76"/>
	<circle cx="191.356" cy="161.773" r="4" fill="#0" id="circle77"/>
	<circle cx="191.356" cy="719.897" r="4" fill="#0" id="circle78"/>
	<circle cx="193.328" cy="824.421" r="4" fill="#0" id="circle79"/>
	<circle cx="193.328" cy="844.143" r="4" fill="#0" id="circle80"/>
	<circle cx="197.272" cy="739.618" r="4" fill="#0" id="circle81"/>
	<circle cx="201.217" cy="142.052" r="4" fill="#0" id="circle82"/>
	<circle cx="207.133" cy="757.368" r="4" fill="#0" id="circle83"/>
	<circle cx="216.994" cy="126.274" r="4" fill="#0" id="circle84"/>
	<circle cx="222.911" cy="739.618" r="4" fill="#0" id="circle85"/>
	<circle cx="230.799" cy="102.608" r="4" fill="#0" id="circle86"/>
	<circle cx="232.771" cy="680.453" r="4" fill="#0" id="circle87"/>
	<circle cx="232.771" cy="700.175" r="4" fill="#0" id="circle88"/>
	<circle cx="232.771" cy="719.897" r="4" fill="#0" id="circle89"/>
	<circle cx="242.632" cy="650.871" r="4" fill="#0" id="circle90"/>
	<circle cx="246.577" cy="86.831" r="4" fill="#0" id="circle91"/>
	<circle cx="258.41" cy="637.066" r="4" fill="#0" id="circle92"/>
	<circle cx="262.354" cy="71.0537" r="4" fill="#0" id="circle93"/>
	<circle cx="270.243" cy="621.288" r="4" fill="#0" id="circle94"/>
	<circle cx="278.131" cy="57.2485" r="4" fill="#0" id="circle95"/>
	<circle cx="289.964" cy="621.288" r="4" fill="#0" id="circle96"/>
	<circle cx="295.881" cy="47.3877" r="4" fill="#0" id="circle97"/>
	<circle cx="295.881" cy="641.01" r="4" fill="#0" id="circle98"/>
	<circle cx="311.658" cy="654.815" r="4" fill="#0" id="circle99"/>
	<circle cx="313.63" cy="37.5268" r="4" fill="#0" id="circle100"/>
	<circle cx="325.463" cy="670.592" r="4" fill="#0" id="circle101"/>
	<circle cx="329.408" cy="690.314" r="4" fill="#0" id="circle102"/>
	<circle cx="331.38" cy="27.666" r="4" fill="#0" id="circle103"/>
	<circle cx="339.268" cy="708.064" r="4" fill="#0" id="circle104"/>
	<circle cx="343.213" cy="727.785" r="4" fill="#0" id="circle105"/>
	<circle cx="349.129" cy="17.8052" r="4" fill="#0" id="circle106"/>
	<circle cx="353.074" cy="745.535" r="4" fill="#0" id="circle107"/>
	<circle cx="360.962" cy="765.256" r="4" fill="#0" id="circle108"/>
	<circle cx="368.851" cy="13.8608" r="4" fill="#0" id="circle109"/>
	<circle cx="376.74" cy="779.062" r="4" fill="#0" id="circle110"/>
	<circle cx="384.628" cy="798.783" r="4" fill="#0" id="circle111"/>
	<circle cx="388.573" cy="7.94433" r="4" fill="#0" id="circle112"/>
	<circle cx="394.489" cy="816.533" r="4" fill="#0" id="circle113"/>
	<circle cx="398.433" cy="836.254" r="4" fill="#0" id="circle114"/>
	<circle cx="408.294" cy="7.94433" r="4" fill="#0" id="circle115"/>
	<circle cx="410.266" cy="852.032" r="4" fill="#0" id="circle116"/>
	<circle cx="418.155" cy="871.753" r="4" fill="#0" id="circle117"/>
	<circle cx="418.155" cy="940.779" r="4" fill="#0" id="circle118"/>
	<circle cx="418.155" cy="960.501" r="4" fill="#0" id="circle119"/>
	<circle cx="418.155" cy="980.223" r="4" fill="#0" id="circle120"/>
	<circle cx="428.016" cy="7.94433" r="4" fill="#0" id="circle121"/>
	<circle cx="428.016" cy="889.503" r="4" fill="#0" id="circle122"/>
	<circle cx="428.016" cy="909.225" r="4" fill="#0" id="circle123"/>
	<circle cx="429.988" cy="996" r="4" fill="#0" id="circle124"/>
	<circle cx="447.738" cy="7.94433" r="4" fill="#0" id="circle125"/>
	<circle cx="449.71" cy="996" r="4" fill="#0" id="circle126"/>
	<circle cx="459.571" cy="670.592" r="4" fill="#0" id="circle127"/>
	<circle cx="459.571" cy="690.314" r="4" fill="#0" id="circle128"/>
	<circle cx="467.459" cy="4" r="4" fill="#0" id="circle129"/>
	<circle cx="469.431" cy="708.064" r="4" fill="#0" id="circle130"/>
	<circle cx="469.431" cy="727.785" r="4" fill="#0" id="circle131"/>
	<circle cx="469.431" cy="986.139" r="4" fill="#0" id="circle132"/>
	<circle cx="477.32" cy="660.732" r="4" fill="#0" id="circle133"/>
	<circle cx="479.292" cy="745.535" r="4" fill="#0" id="circle134"/>
	<circle cx="479.292" cy="765.256" r="4" fill="#0" id="circle135"/>
	<circle cx="485.209" cy="972.334" r="4" fill="#0" id="circle136"/>
	<circle cx="487.181" cy="4" r="4" fill="#0" id="circle137"/>
	<circle cx="489.153" cy="676.509" r="4" fill="#0" id="circle138"/>
	<circle cx="489.153" cy="783.006" r="4" fill="#0" id="circle139"/>
	<circle cx="497.042" cy="802.728" r="4" fill="#0" id="circle140"/>
	<circle cx="499.014" cy="822.449" r="4" fill="#0" id="circle141"/>
	<circle cx="499.014" cy="956.557" r="4" fill="#0" id="circle142"/>
	<circle cx="506.903" cy="7.94433" r="4" fill="#0" id="circle143"/>
	<circle cx="508.875" cy="684.398" r="4" fill="#0" id="circle144"/>
	<circle cx="508.875" cy="840.199" r="4" fill="#0" id="circle145"/>
	<circle cx="508.875" cy="859.92" r="4" fill="#0" id="circle146"/>
	<circle cx="508.875" cy="936.835" r="4" fill="#0" id="circle147"/>
	<circle cx="518.736" cy="877.67" r="4" fill="#0" id="circle148"/>
	<circle cx="518.736" cy="897.392" r="4" fill="#0" id="circle149"/>
	<circle cx="518.736" cy="917.113" r="4" fill="#0" id="circle150"/>
	<circle cx="522.68" cy="700.175" r="4" fill="#0" id="circle151"/>
	<circle cx="526.624" cy="11.8887" r="4" fill="#0" id="circle152"/>
	<circle cx="538.457" cy="713.98" r="4" fill="#0" id="circle153"/>
	<circle cx="544.374" cy="21.7495" r="4" fill="#0" id="circle154"/>
	<circle cx="552.262" cy="729.757" r="4" fill="#0" id="circle155"/>
	<circle cx="564.095" cy="29.6382" r="4" fill="#0" id="circle156"/>
	<circle cx="566.068" cy="745.535" r="4" fill="#0" id="circle157"/>
	<circle cx="568.04" cy="532.541" r="4" fill="#0" id="circle158"/>
	<circle cx="571.984" cy="552.262" r="4" fill="#0" id="circle159"/>
	<circle cx="581.845" cy="39.499" r="4" fill="#0" id="circle160"/>
	<circle cx="581.845" cy="570.012" r="4" fill="#0" id="circle161"/>
	<circle cx="581.845" cy="759.34" r="4" fill="#0" id="circle162"/>
	<circle cx="585.789" cy="522.68" r="4" fill="#0" id="circle163"/>
	<circle cx="587.761" cy="589.734" r="4" fill="#0" id="circle164"/>
	<circle cx="597.622" cy="607.483" r="4" fill="#0" id="circle165"/>
	<circle cx="597.622" cy="773.145" r="4" fill="#0" id="circle166"/>
	<circle cx="601.567" cy="47.3877" r="4" fill="#0" id="circle167"/>
	<circle cx="603.539" cy="532.541" r="4" fill="#0" id="circle168"/>
	<circle cx="605.511" cy="792.867" r="4" fill="#0" id="circle169"/>
	<circle cx="605.511" cy="812.588" r="4" fill="#0" id="circle170"/>
	<circle cx="605.511" cy="832.31" r="4" fill="#0" id="circle171"/>
	<circle cx="605.511" cy="852.032" r="4" fill="#0" id="circle172"/>
	<circle cx="613.4" cy="621.288" r="4" fill="#0" id="circle173"/>
	<circle cx="617.344" cy="548.318" r="4" fill="#0" id="circle174"/>
	<circle cx="619.316" cy="57.2485" r="4" fill="#0" id="circle175"/>
	<circle cx="621.288" cy="865.837" r="4" fill="#0" id="circle176"/>
	<circle cx="627.205" cy="566.068" r="4" fill="#0" id="circle177"/>
	<circle cx="627.205" cy="637.066" r="4" fill="#0" id="circle178"/>
	<circle cx="637.066" cy="67.1093" r="4" fill="#0" id="circle179"/>
	<circle cx="637.066" cy="654.815" r="4" fill="#0" id="circle180"/>
	<circle cx="641.01" cy="865.837" r="4" fill="#0" id="circle181"/>
	<circle cx="644.954" cy="575.928" r="4" fill="#0" id="circle182"/>
	<circle cx="644.954" cy="674.537" r="4" fill="#0" id="circle183"/>
	<circle cx="652.843" cy="78.9423" r="4" fill="#0" id="circle184"/>
	<circle cx="656.787" cy="690.314" r="4" fill="#0" id="circle185"/>
	<circle cx="660.732" cy="589.734" r="4" fill="#0" id="circle186"/>
	<circle cx="660.732" cy="855.976" r="4" fill="#0" id="circle187"/>
	<circle cx="666.648" cy="708.064" r="4" fill="#0" id="circle188"/>
	<circle cx="670.592" cy="88.8032" r="4" fill="#0" id="circle189"/>
	<circle cx="674.537" cy="605.511" r="4" fill="#0" id="circle190"/>
	<circle cx="676.509" cy="838.227" r="4" fill="#0" id="circle191"/>
	<circle cx="682.425" cy="719.897" r="4" fill="#0" id="circle192"/>
	<circle cx="684.398" cy="623.26" r="4" fill="#0" id="circle193"/>
	<circle cx="686.37" cy="102.608" r="4" fill="#0" id="circle194"/>
	<circle cx="686.37" cy="157.829" r="4" fill="#0" id="circle195"/>
	<circle cx="686.37" cy="463.515" r="4" fill="#0" id="circle196"/>
	<circle cx="686.37" cy="818.505" r="4" fill="#0" id="circle197"/>
	<circle cx="690.314" cy="177.551" r="4" fill="#0" id="circle198"/>
	<circle cx="690.314" cy="739.618" r="4" fill="#0" id="circle199"/>
	<circle cx="696.231" cy="481.264" r="4" fill="#0" id="circle200"/>
	<circle cx="696.231" cy="500.986" r="4" fill="#0" id="circle201"/>
	<circle cx="696.231" cy="798.783" r="4" fill="#0" id="circle202"/>
	<circle cx="698.203" cy="639.038" r="4" fill="#0" id="circle203"/>
	<circle cx="700.175" cy="118.386" r="4" fill="#0" id="circle204"/>
	<circle cx="700.175" cy="757.368" r="4" fill="#0" id="circle205"/>
	<circle cx="704.119" cy="664.676" r="4" fill="#0" id="circle206"/>
	<circle cx="706.091" cy="161.773" r="4" fill="#0" id="circle207"/>
	<circle cx="706.091" cy="191.356" r="4" fill="#0" id="circle208"/>
	<circle cx="706.091" cy="463.515" r="4" fill="#0" id="circle209"/>
	<circle cx="706.091" cy="777.089" r="4" fill="#0" id="circle210"/>
	<circle cx="712.008" cy="512.819" r="4" fill="#0" id="circle211"/>
	<circle cx="713.98" cy="211.078" r="4" fill="#0" id="circle212"/>
	<circle cx="713.98" cy="682.425" r="4" fill="#0" id="circle213"/>
	<circle cx="715.952" cy="132.191" r="4" fill="#0" id="circle214"/>
	<circle cx="719.897" cy="532.541" r="4" fill="#0" id="circle215"/>
	<circle cx="721.869" cy="177.551" r="4" fill="#0" id="circle216"/>
	<circle cx="723.841" cy="151.913" r="4" fill="#0" id="circle217"/>
	<circle cx="723.841" cy="228.827" r="4" fill="#0" id="circle218"/>
	<circle cx="725.813" cy="463.515" r="4" fill="#0" id="circle219"/>
	<circle cx="731.73" cy="248.549" r="4" fill="#0" id="circle220"/>
	<circle cx="733.702" cy="193.328" r="4" fill="#0" id="circle221"/>
	<circle cx="733.702" cy="684.398" r="4" fill="#0" id="circle222"/>
	<circle cx="735.674" cy="546.346" r="4" fill="#0" id="circle223"/>
	<circle cx="739.618" cy="165.718" r="4" fill="#0" id="circle224"/>
	<circle cx="741.59" cy="266.298" r="4" fill="#0" id="circle225"/>
	<circle cx="743.563" cy="211.078" r="4" fill="#0" id="circle226"/>
	<circle cx="743.563" cy="473.376" r="4" fill="#0" id="circle227"/>
	<circle cx="749.479" cy="286.02" r="4" fill="#0" id="circle228"/>
	<circle cx="749.479" cy="562.123" r="4" fill="#0" id="circle229"/>
	<circle cx="749.479" cy="668.62" r="4" fill="#0" id="circle230"/>
	<circle cx="753.423" cy="181.495" r="4" fill="#0" id="circle231"/>
	<circle cx="753.423" cy="228.827" r="4" fill="#0" id="circle232"/>
	<circle cx="755.396" cy="305.742" r="4" fill="#0" id="circle233"/>
	<circle cx="759.34" cy="648.899" r="4" fill="#0" id="circle234"/>
	<circle cx="763.284" cy="199.245" r="4" fill="#0" id="circle235"/>
	<circle cx="763.284" cy="246.577" r="4" fill="#0" id="circle236"/>
	<circle cx="763.284" cy="473.376" r="4" fill="#0" id="circle237"/>
	<circle cx="765.256" cy="323.491" r="4" fill="#0" id="circle238"/>
	<circle cx="765.256" cy="343.213" r="4" fill="#0" id="circle239"/>
	<circle cx="765.256" cy="575.928" r="4" fill="#0" id="circle240"/>
	<circle cx="769.201" cy="493.097" r="4" fill="#0" id="circle241"/>
	<circle cx="773.145" cy="264.326" r="4" fill="#0" id="circle242"/>
	<circle cx="775.117" cy="215.022" r="4" fill="#0" id="circle243"/>
	<circle cx="775.117" cy="593.678" r="4" fill="#0" id="circle244"/>
	<circle cx="775.117" cy="621.288" r="4" fill="#0" id="circle245"/>
	<circle cx="781.034" cy="355.046" r="4" fill="#0" id="circle246"/>
	<circle cx="783.006" cy="282.076" r="4" fill="#0" id="circle247"/>
	<circle cx="784.978" cy="232.771" r="4" fill="#0" id="circle248"/>
	<circle cx="784.978" cy="301.797" r="4" fill="#0" id="circle249"/>
	<circle cx="784.978" cy="506.903" r="4" fill="#0" id="circle250"/>
	<circle cx="792.867" cy="526.624" r="4" fill="#0" id="circle251"/>
	<circle cx="792.867" cy="546.346" r="4" fill="#0" id="circle252"/>
	<circle cx="792.867" cy="566.068" r="4" fill="#0" id="circle253"/>
	<circle cx="794.839" cy="250.521" r="4" fill="#0" id="circle254"/>
	<circle cx="794.839" cy="319.547" r="4" fill="#0" id="circle255"/>
	<circle cx="794.839" cy="370.823" r="4" fill="#0" id="circle256"/>
	<circle cx="802.728" cy="270.243" r="4" fill="#0" id="circle257"/>
	<circle cx="802.728" cy="583.817" r="4" fill="#0" id="circle258"/>
	<circle cx="810.616" cy="384.628" r="4" fill="#0" id="circle259"/>
	<circle cx="812.588" cy="287.992" r="4" fill="#0" id="circle260"/>
	<circle cx="814.561" cy="307.714" r="4" fill="#0" id="circle261"/>
	<circle cx="822.449" cy="591.706" r="4" fill="#0" id="circle262"/>
	<circle cx="824.421" cy="400.406" r="4" fill="#0" id="circle263"/>
	<circle cx="840.199" cy="412.239" r="4" fill="#0" id="circle264"/>
	<circle cx="840.199" cy="581.845" r="4" fill="#0" id="circle265"/>
	<circle cx="854.004" cy="562.123" r="4" fill="#0" id="circle266"/>
	<circle cx="857.948" cy="422.099" r="4" fill="#0" id="circle267"/>
	<circle cx="871.753" cy="437.877" r="4" fill="#0" id="circle268"/>
	<circle cx="873.726" cy="542.402" r="4" fill="#0" id="circle269"/>
	<circle cx="881.614" cy="455.626" r="4" fill="#0" id="circle270"/>
	<circle cx="883.586" cy="522.68" r="4" fill="#0" id="circle271"/>
	<circle cx="889.503" cy="475.348" r="4" fill="#0" id="circle272"/>
	<circle cx="893.447" cy="495.07" r="4" fill="#0" id="circle273"/>
	</g>
</svg>