<?xml version="1.0" encoding="UTF-8" standalone="no"?>
<!-- Created with CurveBenchmark -->
<svg
	xmlns:dc="http://purl.org/dc/elements/1.1/"
	xmlns:cc="http://creativecommons.org/ns#"
	xmlns:rdf="http://www.w3.org/1999/02/22-rdf-syntax-ns#"
	xmlns:svg="http://www.w3.org/2000/svg"
	xmlns="http://www.w3.org/2000/svg"
	xmlns:sodipodi="http://sodipodi.sourceforge.net/DTD/sodipodi-0.dtd"
	xmlns:inkscape="http://www.inkscape.org/namespaces/inkscape"
	width="1000"
	height="1000"
	id="svg2"
	version="1.1"
	sodipodi:docname="manifold/discur-chopper-18.png.txt">
<defs
	id="defs4" />
<metadata
	id="metadata7">
	<rdf:RDF>
		<cc:Work
			rdf:about="">
			<dc:format>image/svg+xml</dc:format>
			<dc:type
				rdf:resource="http://purl.org/dc/dcmitype/StillImage" />
			<dc:title></dc:title>
		</cc:Work>
	</rdf:RDF>
</metadata>
<g
	inkscape:label="Layer 1"
	inkscape:groupmode="layer"
	id="layer1">
	<path style="fill:none;stroke:red;stroke-width:1px;stroke-linecap:butt;stroke-linejoin:miter;stroke-opacity:1" d="M 4,339.728 4,348.163 z" id="boundary" inkscape:connector-curvature="0" />
	<path style="fill:none;stroke:red;stroke-width:1px;stroke-linecap:butt;stroke-linejoin:miter;stroke-opacity:1" d="M 4,339.728 8.21769,314.422 z" id="boundary" inkscape:connector-curvature="0" />
	<path style="fill:none;stroke:red;stroke-width:1px;stroke-linecap:butt;stroke-linejoin:miter;stroke-opacity:1" d="M 4,348.163 4,365.034 z" id="boundary" inkscape:connector-curvature="0" />
	<path style="fill:none;stroke:red;stroke-width:1px;stroke-linecap:butt;stroke-linejoin:miter;stroke-opacity:1" d="M 4,365.034 4,381.905 z" id="boundary" inkscape:connector-curvature="0" />
	<path style="fill:none;stroke:red;stroke-width:1px;stroke-linecap:butt;stroke-linejoin:miter;stroke-opacity:1" d="M 4,381.905 4,398.776 z" id="boundary" inkscape:connector-curvature="0" />
	<path style="fill:none;stroke:red;stroke-width:1px;stroke-linecap:butt;stroke-linejoin:miter;stroke-opacity:1" d="M 4,398.776 8.21769,406.367 z" id="boundary" inkscape:connector-curvature="0" />
	<path style="fill:none;stroke:red;stroke-width:1px;stroke-linecap:butt;stroke-linejoin:miter;stroke-opacity:1" d="M 8.21769,314.422 12.4354,301.769 z" id="boundary" inkscape:connector-curvature="0" />
	<path style="fill:none;stroke:red;stroke-width:1px;stroke-linecap:butt;stroke-linejoin:miter;stroke-opacity:1" d="M 8.21769,406.367 12.4354,413.959 z" id="boundary" inkscape:connector-curvature="0" />
	<path style="fill:none;stroke:red;stroke-width:1px;stroke-linecap:butt;stroke-linejoin:miter;stroke-opacity:1" d="M 12.4354,301.769 20.8707,284.898 z" id="boundary" inkscape:connector-curvature="0" />
	<path style="fill:none;stroke:red;stroke-width:1px;stroke-linecap:butt;stroke-linejoin:miter;stroke-opacity:1" d="M 12.4354,413.959 17.4966,420.707 z" id="boundary" inkscape:connector-curvature="0" />
	<path style="fill:none;stroke:red;stroke-width:1px;stroke-linecap:butt;stroke-linejoin:miter;stroke-opacity:1" d="M 17.4966,420.707 24.2449,426.612 z" id="boundary" inkscape:connector-curvature="0" />
	<path style="fill:none;stroke:red;stroke-width:1px;stroke-linecap:butt;stroke-linejoin:miter;stroke-opacity:1" d="M 20.8707,284.898 25.0884,276.463 z" id="boundary" inkscape:connector-curvature="0" />
	<path style="fill:none;stroke:red;stroke-width:1px;stroke-linecap:butt;stroke-linejoin:miter;stroke-opacity:1" d="M 24.2449,426.612 30.1497,433.361 z" id="boundary" inkscape:connector-curvature="0" />
	<path style="fill:none;stroke:red;stroke-width:1px;stroke-linecap:butt;stroke-linejoin:miter;stroke-opacity:1" d="M 25.0884,276.463 37.7415,259.592 z" id="boundary" inkscape:connector-curvature="0" />
	<path style="fill:none;stroke:red;stroke-width:1px;stroke-linecap:butt;stroke-linejoin:miter;stroke-opacity:1" d="M 30.1497,433.361 36.898,439.265 z" id="boundary" inkscape:connector-curvature="0" />
	<path style="fill:none;stroke:red;stroke-width:1px;stroke-linecap:butt;stroke-linejoin:miter;stroke-opacity:1" d="M 36.898,439.265 52.9252,443.483 z" id="boundary" inkscape:connector-curvature="0" />
	<path style="fill:none;stroke:red;stroke-width:1px;stroke-linecap:butt;stroke-linejoin:miter;stroke-opacity:1" d="M 37.7415,259.592 44.4898,252.844 z" id="boundary" inkscape:connector-curvature="0" />
	<path style="fill:none;stroke:red;stroke-width:1px;stroke-linecap:butt;stroke-linejoin:miter;stroke-opacity:1" d="M 44.4898,252.844 51.2381,246.095 z" id="boundary" inkscape:connector-curvature="0" />
	<path style="fill:none;stroke:red;stroke-width:1px;stroke-linecap:butt;stroke-linejoin:miter;stroke-opacity:1" d="M 51.2381,246.095 61.3605,231.755 z" id="boundary" inkscape:connector-curvature="0" />
	<path style="fill:none;stroke:red;stroke-width:1px;stroke-linecap:butt;stroke-linejoin:miter;stroke-opacity:1" d="M 52.9252,443.483 60.517,447.701 z" id="boundary" inkscape:connector-curvature="0" />
	<path style="fill:none;stroke:red;stroke-width:1px;stroke-linecap:butt;stroke-linejoin:miter;stroke-opacity:1" d="M 54.6122,529.524 67.2653,540.49 z" id="boundary" inkscape:connector-curvature="0" />
	<path style="fill:none;stroke:red;stroke-width:1px;stroke-linecap:butt;stroke-linejoin:miter;stroke-opacity:1" d="M 54.6122,529.524 69.7959,522.776 z" id="boundary" inkscape:connector-curvature="0" />
	<path style="fill:none;stroke:red;stroke-width:1px;stroke-linecap:butt;stroke-linejoin:miter;stroke-opacity:1" d="M 60.517,447.701 68.1088,451.918 z" id="boundary" inkscape:connector-curvature="0" />
	<path style="fill:none;stroke:red;stroke-width:1px;stroke-linecap:butt;stroke-linejoin:miter;stroke-opacity:1" d="M 61.3605,231.755 68.1088,225.007 z" id="boundary" inkscape:connector-curvature="0" />
	<path style="fill:none;stroke:red;stroke-width:1px;stroke-linecap:butt;stroke-linejoin:miter;stroke-opacity:1" d="M 67.2653,540.49 74.8571,544.707 z" id="boundary" inkscape:connector-curvature="0" />
	<path style="fill:none;stroke:red;stroke-width:1px;stroke-linecap:butt;stroke-linejoin:miter;stroke-opacity:1" d="M 68.1088,225.007 74.8571,219.102 z" id="boundary" inkscape:connector-curvature="0" />
	<path style="fill:none;stroke:red;stroke-width:1px;stroke-linecap:butt;stroke-linejoin:miter;stroke-opacity:1" d="M 68.1088,451.918 75.7007,456.136 z" id="boundary" inkscape:connector-curvature="0" />
	<path style="fill:none;stroke:red;stroke-width:1px;stroke-linecap:butt;stroke-linejoin:miter;stroke-opacity:1" d="M 69.7959,522.776 86.6667,522.776 z" id="boundary" inkscape:connector-curvature="0" />
	<path style="fill:none;stroke:red;stroke-width:1px;stroke-linecap:butt;stroke-linejoin:miter;stroke-opacity:1" d="M 74.8571,219.102 82.449,214.884 z" id="boundary" inkscape:connector-curvature="0" />
	<path style="fill:none;stroke:red;stroke-width:1px;stroke-linecap:butt;stroke-linejoin:miter;stroke-opacity:1" d="M 74.8571,544.707 91.7279,544.707 z" id="boundary" inkscape:connector-curvature="0" />
	<path style="fill:none;stroke:red;stroke-width:1px;stroke-linecap:butt;stroke-linejoin:miter;stroke-opacity:1" d="M 75.7007,456.136 91.7279,460.354 z" id="boundary" inkscape:connector-curvature="0" />
	<path style="fill:none;stroke:red;stroke-width:1px;stroke-linecap:butt;stroke-linejoin:miter;stroke-opacity:1" d="M 82.449,214.884 89.1973,208.136 z" id="boundary" inkscape:connector-curvature="0" />
	<path style="fill:none;stroke:red;stroke-width:1px;stroke-linecap:butt;stroke-linejoin:miter;stroke-opacity:1" d="M 86.6667,522.776 103.537,522.776 z" id="boundary" inkscape:connector-curvature="0" />
	<path style="fill:none;stroke:red;stroke-width:1px;stroke-linecap:butt;stroke-linejoin:miter;stroke-opacity:1" d="M 89.1973,208.136 95.9456,202.231 z" id="boundary" inkscape:connector-curvature="0" />
	<path style="fill:none;stroke:red;stroke-width:1px;stroke-linecap:butt;stroke-linejoin:miter;stroke-opacity:1" d="M 91.7279,544.707 108.599,544.707 z" id="boundary" inkscape:connector-curvature="0" />
	<path style="fill:none;stroke:red;stroke-width:1px;stroke-linecap:butt;stroke-linejoin:miter;stroke-opacity:1" d="M 95.9456,202.231 103.537,198.014 z" id="boundary" inkscape:connector-curvature="0" />
	<path style="fill:none;stroke:red;stroke-width:1px;stroke-linecap:butt;stroke-linejoin:miter;stroke-opacity:1" d="M 103.537,198.014 110.286,191.265 z" id="boundary" inkscape:connector-curvature="0" />
	<path style="fill:none;stroke:red;stroke-width:1px;stroke-linecap:butt;stroke-linejoin:miter;stroke-opacity:1" d="M 103.537,522.776 120.408,522.776 z" id="boundary" inkscape:connector-curvature="0" />
	<path style="fill:none;stroke:red;stroke-width:1px;stroke-linecap:butt;stroke-linejoin:miter;stroke-opacity:1" d="M 108.599,460.354 117.034,460.354 z" id="boundary" inkscape:connector-curvature="0" />
	<path style="fill:none;stroke:red;stroke-width:1px;stroke-linecap:butt;stroke-linejoin:miter;stroke-opacity:1" d="M 108.599,460.354 124.626,464.571 z" id="boundary" inkscape:connector-curvature="0" />
	<path style="fill:none;stroke:red;stroke-width:1px;stroke-linecap:butt;stroke-linejoin:miter;stroke-opacity:1" d="M 108.599,544.707 125.469,544.707 z" id="boundary" inkscape:connector-curvature="0" />
	<path style="fill:none;stroke:red;stroke-width:1px;stroke-linecap:butt;stroke-linejoin:miter;stroke-opacity:1" d="M 110.286,191.265 118.721,187.048 z" id="boundary" inkscape:connector-curvature="0" />
	<path style="fill:none;stroke:red;stroke-width:1px;stroke-linecap:butt;stroke-linejoin:miter;stroke-opacity:1" d="M 117.034,460.354 124.626,464.571 z" id="boundary" inkscape:connector-curvature="0" />
	<path style="fill:none;stroke:red;stroke-width:1px;stroke-linecap:butt;stroke-linejoin:miter;stroke-opacity:1" d="M 118.721,187.048 125.469,181.143 z" id="boundary" inkscape:connector-curvature="0" />
	<path style="fill:none;stroke:red;stroke-width:1px;stroke-linecap:butt;stroke-linejoin:miter;stroke-opacity:1" d="M 120.408,522.776 137.279,522.776 z" id="boundary" inkscape:connector-curvature="0" />
	<path style="fill:none;stroke:red;stroke-width:1px;stroke-linecap:butt;stroke-linejoin:miter;stroke-opacity:1" d="M 125.469,181.143 133.061,176.925 z" id="boundary" inkscape:connector-curvature="0" />
	<path style="fill:none;stroke:red;stroke-width:1px;stroke-linecap:butt;stroke-linejoin:miter;stroke-opacity:1" d="M 125.469,544.707 142.34,544.707 z" id="boundary" inkscape:connector-curvature="0" />
	<path style="fill:none;stroke:red;stroke-width:1px;stroke-linecap:butt;stroke-linejoin:miter;stroke-opacity:1" d="M 133.061,176.925 140.653,172.707 z" id="boundary" inkscape:connector-curvature="0" />
	<path style="fill:none;stroke:red;stroke-width:1px;stroke-linecap:butt;stroke-linejoin:miter;stroke-opacity:1" d="M 137.279,522.776 145.714,518.558 z" id="boundary" inkscape:connector-curvature="0" />
	<path style="fill:none;stroke:red;stroke-width:1px;stroke-linecap:butt;stroke-linejoin:miter;stroke-opacity:1" d="M 140.653,172.707 148.245,168.49 z" id="boundary" inkscape:connector-curvature="0" />
	<path style="fill:none;stroke:red;stroke-width:1px;stroke-linecap:butt;stroke-linejoin:miter;stroke-opacity:1" d="M 141.497,464.571 158.367,464.571 z" id="boundary" inkscape:connector-curvature="0" />
	<path style="fill:none;stroke:red;stroke-width:1px;stroke-linecap:butt;stroke-linejoin:miter;stroke-opacity:1" d="M 142.34,544.707 158.367,540.49 z" id="boundary" inkscape:connector-curvature="0" />
	<path style="fill:none;stroke:red;stroke-width:1px;stroke-linecap:butt;stroke-linejoin:miter;stroke-opacity:1" d="M 145.714,518.558 153.306,514.34 z" id="boundary" inkscape:connector-curvature="0" />
	<path style="fill:none;stroke:red;stroke-width:1px;stroke-linecap:butt;stroke-linejoin:miter;stroke-opacity:1" d="M 148.245,168.49 155.837,162.585 z" id="boundary" inkscape:connector-curvature="0" />
	<path style="fill:none;stroke:red;stroke-width:1px;stroke-linecap:butt;stroke-linejoin:miter;stroke-opacity:1" d="M 153.306,514.34 160.898,510.122 z" id="boundary" inkscape:connector-curvature="0" />
	<path style="fill:none;stroke:red;stroke-width:1px;stroke-linecap:butt;stroke-linejoin:miter;stroke-opacity:1" d="M 155.837,162.585 172.707,154.15 z" id="boundary" inkscape:connector-curvature="0" />
	<path style="fill:none;stroke:red;stroke-width:1px;stroke-linecap:butt;stroke-linejoin:miter;stroke-opacity:1" d="M 158.367,464.571 175.238,464.571 z" id="boundary" inkscape:connector-curvature="0" />
	<path style="fill:none;stroke:red;stroke-width:1px;stroke-linecap:butt;stroke-linejoin:miter;stroke-opacity:1" d="M 158.367,540.49 175.238,536.272 z" id="boundary" inkscape:connector-curvature="0" />
	<path style="fill:none;stroke:red;stroke-width:1px;stroke-linecap:butt;stroke-linejoin:miter;stroke-opacity:1" d="M 160.898,510.122 168.49,505.905 z" id="boundary" inkscape:connector-curvature="0" />
	<path style="fill:none;stroke:red;stroke-width:1px;stroke-linecap:butt;stroke-linejoin:miter;stroke-opacity:1" d="M 168.49,505.905 176.082,501.687 z" id="boundary" inkscape:connector-curvature="0" />
	<path style="fill:none;stroke:red;stroke-width:1px;stroke-linecap:butt;stroke-linejoin:miter;stroke-opacity:1" d="M 172.707,154.15 187.891,143.184 z" id="boundary" inkscape:connector-curvature="0" />
	<path style="fill:none;stroke:red;stroke-width:1px;stroke-linecap:butt;stroke-linejoin:miter;stroke-opacity:1" d="M 175.238,464.571 192.109,464.571 z" id="boundary" inkscape:connector-curvature="0" />
	<path style="fill:none;stroke:red;stroke-width:1px;stroke-linecap:butt;stroke-linejoin:miter;stroke-opacity:1" d="M 175.238,536.272 182.83,532.054 z" id="boundary" inkscape:connector-curvature="0" />
	<path style="fill:none;stroke:red;stroke-width:1px;stroke-linecap:butt;stroke-linejoin:miter;stroke-opacity:1" d="M 176.082,501.687 192.109,493.252 z" id="boundary" inkscape:connector-curvature="0" />
	<path style="fill:none;stroke:red;stroke-width:1px;stroke-linecap:butt;stroke-linejoin:miter;stroke-opacity:1" d="M 182.83,532.054 191.265,532.054 z" id="boundary" inkscape:connector-curvature="0" />
	<path style="fill:none;stroke:red;stroke-width:1px;stroke-linecap:butt;stroke-linejoin:miter;stroke-opacity:1" d="M 187.891,143.184 196.327,143.184 z" id="boundary" inkscape:connector-curvature="0" />
	<path style="fill:none;stroke:red;stroke-width:1px;stroke-linecap:butt;stroke-linejoin:miter;stroke-opacity:1" d="M 191.265,532.054 207.293,527.837 z" id="boundary" inkscape:connector-curvature="0" />
	<path style="fill:none;stroke:red;stroke-width:1px;stroke-linecap:butt;stroke-linejoin:miter;stroke-opacity:1" d="M 192.109,464.571 208.98,464.571 z" id="boundary" inkscape:connector-curvature="0" />
	<path style="fill:none;stroke:red;stroke-width:1px;stroke-linecap:butt;stroke-linejoin:miter;stroke-opacity:1" d="M 192.109,493.252 208.98,489.034 z" id="boundary" inkscape:connector-curvature="0" />
	<path style="fill:none;stroke:red;stroke-width:1px;stroke-linecap:butt;stroke-linejoin:miter;stroke-opacity:1" d="M 196.327,143.184 203.918,138.966 z" id="boundary" inkscape:connector-curvature="0" />
	<path style="fill:none;stroke:red;stroke-width:1px;stroke-linecap:butt;stroke-linejoin:miter;stroke-opacity:1" d="M 203.918,138.966 211.51,134.748 z" id="boundary" inkscape:connector-curvature="0" />
	<path style="fill:none;stroke:red;stroke-width:1px;stroke-linecap:butt;stroke-linejoin:miter;stroke-opacity:1" d="M 207.293,527.837 223.32,523.619 z" id="boundary" inkscape:connector-curvature="0" />
	<path style="fill:none;stroke:red;stroke-width:1px;stroke-linecap:butt;stroke-linejoin:miter;stroke-opacity:1" d="M 208.98,464.571 210.667,478.912 z" id="boundary" inkscape:connector-curvature="0" />
	<path style="fill:none;stroke:red;stroke-width:1px;stroke-linecap:butt;stroke-linejoin:miter;stroke-opacity:1" d="M 208.98,489.034 210.667,478.912 z" id="boundary" inkscape:connector-curvature="0" />
	<path style="fill:none;stroke:red;stroke-width:1px;stroke-linecap:butt;stroke-linejoin:miter;stroke-opacity:1" d="M 211.51,134.748 219.102,130.531 z" id="boundary" inkscape:connector-curvature="0" />
	<path style="fill:none;stroke:red;stroke-width:1px;stroke-linecap:butt;stroke-linejoin:miter;stroke-opacity:1" d="M 219.102,130.531 235.129,126.313 z" id="boundary" inkscape:connector-curvature="0" />
	<path style="fill:none;stroke:red;stroke-width:1px;stroke-linecap:butt;stroke-linejoin:miter;stroke-opacity:1" d="M 223.32,523.619 240.19,523.619 z" id="boundary" inkscape:connector-curvature="0" />
	<path style="fill:none;stroke:red;stroke-width:1px;stroke-linecap:butt;stroke-linejoin:miter;stroke-opacity:1" d="M 235.129,126.313 252,126.313 z" id="boundary" inkscape:connector-curvature="0" />
	<path style="fill:none;stroke:red;stroke-width:1px;stroke-linecap:butt;stroke-linejoin:miter;stroke-opacity:1" d="M 240.19,523.619 257.061,523.619 z" id="boundary" inkscape:connector-curvature="0" />
	<path style="fill:none;stroke:red;stroke-width:1px;stroke-linecap:butt;stroke-linejoin:miter;stroke-opacity:1" d="M 252,126.313 268.871,126.313 z" id="boundary" inkscape:connector-curvature="0" />
	<path style="fill:none;stroke:red;stroke-width:1px;stroke-linecap:butt;stroke-linejoin:miter;stroke-opacity:1" d="M 257.061,523.619 273.932,523.619 z" id="boundary" inkscape:connector-curvature="0" />
	<path style="fill:none;stroke:red;stroke-width:1px;stroke-linecap:butt;stroke-linejoin:miter;stroke-opacity:1" d="M 268.871,126.313 285.741,126.313 z" id="boundary" inkscape:connector-curvature="0" />
	<path style="fill:none;stroke:red;stroke-width:1px;stroke-linecap:butt;stroke-linejoin:miter;stroke-opacity:1" d="M 285.741,126.313 302.612,126.313 z" id="boundary" inkscape:connector-curvature="0" />
	<path style="fill:none;stroke:red;stroke-width:1px;stroke-linecap:butt;stroke-linejoin:miter;stroke-opacity:1" d="M 290.803,523.619 298.395,519.401 z" id="boundary" inkscape:connector-curvature="0" />
	<path style="fill:none;stroke:red;stroke-width:1px;stroke-linecap:butt;stroke-linejoin:miter;stroke-opacity:1" d="M 290.803,523.619 306.83,519.401 z" id="boundary" inkscape:connector-curvature="0" />
	<path style="fill:none;stroke:red;stroke-width:1px;stroke-linecap:butt;stroke-linejoin:miter;stroke-opacity:1" d="M 298.395,519.401 306.83,519.401 z" id="boundary" inkscape:connector-curvature="0" />
	<path style="fill:none;stroke:red;stroke-width:1px;stroke-linecap:butt;stroke-linejoin:miter;stroke-opacity:1" d="M 302.612,126.313 319.483,126.313 z" id="boundary" inkscape:connector-curvature="0" />
	<path style="fill:none;stroke:red;stroke-width:1px;stroke-linecap:butt;stroke-linejoin:miter;stroke-opacity:1" d="M 311.891,14.966 311.891,23.4014 z" id="boundary" inkscape:connector-curvature="0" />
	<path style="fill:none;stroke:red;stroke-width:1px;stroke-linecap:butt;stroke-linejoin:miter;stroke-opacity:1" d="M 311.891,14.966 318.639,8.21769 z" id="boundary" inkscape:connector-curvature="0" />
	<path style="fill:none;stroke:red;stroke-width:1px;stroke-linecap:butt;stroke-linejoin:miter;stroke-opacity:1" d="M 311.891,23.4014 324.544,34.3673 z" id="boundary" inkscape:connector-curvature="0" />
	<path style="fill:none;stroke:red;stroke-width:1px;stroke-linecap:butt;stroke-linejoin:miter;stroke-opacity:1" d="M 318.639,8.21769 326.231,4 z" id="boundary" inkscape:connector-curvature="0" />
	<path style="fill:none;stroke:red;stroke-width:1px;stroke-linecap:butt;stroke-linejoin:miter;stroke-opacity:1" d="M 319.483,126.313 336.354,126.313 z" id="boundary" inkscape:connector-curvature="0" />
	<path style="fill:none;stroke:red;stroke-width:1px;stroke-linecap:butt;stroke-linejoin:miter;stroke-opacity:1" d="M 323.701,519.401 331.293,515.184 z" id="boundary" inkscape:connector-curvature="0" />
	<path style="fill:none;stroke:red;stroke-width:1px;stroke-linecap:butt;stroke-linejoin:miter;stroke-opacity:1" d="M 324.544,34.3673 332.136,38.585 z" id="boundary" inkscape:connector-curvature="0" />
	<path style="fill:none;stroke:red;stroke-width:1px;stroke-linecap:butt;stroke-linejoin:miter;stroke-opacity:1" d="M 326.231,4 343.102,4 z" id="boundary" inkscape:connector-curvature="0" />
	<path style="fill:none;stroke:red;stroke-width:1px;stroke-linecap:butt;stroke-linejoin:miter;stroke-opacity:1" d="M 331.293,515.184 348.163,515.184 z" id="boundary" inkscape:connector-curvature="0" />
	<path style="fill:none;stroke:red;stroke-width:1px;stroke-linecap:butt;stroke-linejoin:miter;stroke-opacity:1" d="M 332.136,38.585 339.728,42.8027 z" id="boundary" inkscape:connector-curvature="0" />
	<path style="fill:none;stroke:red;stroke-width:1px;stroke-linecap:butt;stroke-linejoin:miter;stroke-opacity:1" d="M 336.354,126.313 353.224,126.313 z" id="boundary" inkscape:connector-curvature="0" />
	<path style="fill:none;stroke:red;stroke-width:1px;stroke-linecap:butt;stroke-linejoin:miter;stroke-opacity:1" d="M 339.728,42.8027 347.32,47.0204 z" id="boundary" inkscape:connector-curvature="0" />
	<path style="fill:none;stroke:red;stroke-width:1px;stroke-linecap:butt;stroke-linejoin:miter;stroke-opacity:1" d="M 343.102,4 359.973,4 z" id="boundary" inkscape:connector-curvature="0" />
	<path style="fill:none;stroke:red;stroke-width:1px;stroke-linecap:butt;stroke-linejoin:miter;stroke-opacity:1" d="M 347.32,47.0204 354.912,51.2381 z" id="boundary" inkscape:connector-curvature="0" />
	<path style="fill:none;stroke:red;stroke-width:1px;stroke-linecap:butt;stroke-linejoin:miter;stroke-opacity:1" d="M 348.163,515.184 365.034,515.184 z" id="boundary" inkscape:connector-curvature="0" />
	<path style="fill:none;stroke:red;stroke-width:1px;stroke-linecap:butt;stroke-linejoin:miter;stroke-opacity:1" d="M 353.224,126.313 370.095,126.313 z" id="boundary" inkscape:connector-curvature="0" />
	<path style="fill:none;stroke:red;stroke-width:1px;stroke-linecap:butt;stroke-linejoin:miter;stroke-opacity:1" d="M 354.912,51.2381 358.286,68.1088 z" id="boundary" inkscape:connector-curvature="0" />
	<path style="fill:none;stroke:red;stroke-width:1px;stroke-linecap:butt;stroke-linejoin:miter;stroke-opacity:1" d="M 358.286,68.1088 358.286,76.5442 z" id="boundary" inkscape:connector-curvature="0" />
	<path style="fill:none;stroke:red;stroke-width:1px;stroke-linecap:butt;stroke-linejoin:miter;stroke-opacity:1" d="M 358.286,76.5442 358.286,93.415 z" id="boundary" inkscape:connector-curvature="0" />
	<path style="fill:none;stroke:red;stroke-width:1px;stroke-linecap:butt;stroke-linejoin:miter;stroke-opacity:1" d="M 358.286,93.415 360.816,101.85 z" id="boundary" inkscape:connector-curvature="0" />
	<path style="fill:none;stroke:red;stroke-width:1px;stroke-linecap:butt;stroke-linejoin:miter;stroke-opacity:1" d="M 359.973,4 376.844,4 z" id="boundary" inkscape:connector-curvature="0" />
	<path style="fill:none;stroke:red;stroke-width:1px;stroke-linecap:butt;stroke-linejoin:miter;stroke-opacity:1" d="M 360.816,101.85 367.565,107.755 z" id="boundary" inkscape:connector-curvature="0" />
	<path style="fill:none;stroke:red;stroke-width:1px;stroke-linecap:butt;stroke-linejoin:miter;stroke-opacity:1" d="M 365.034,515.184 372.626,510.966 z" id="boundary" inkscape:connector-curvature="0" />
	<path style="fill:none;stroke:red;stroke-width:1px;stroke-linecap:butt;stroke-linejoin:miter;stroke-opacity:1" d="M 367.565,107.755 370.095,126.313 z" id="boundary" inkscape:connector-curvature="0" />
	<path style="fill:none;stroke:red;stroke-width:1px;stroke-linecap:butt;stroke-linejoin:miter;stroke-opacity:1" d="M 376.844,4 393.714,4 z" id="boundary" inkscape:connector-curvature="0" />
	<path style="fill:none;stroke:red;stroke-width:1px;stroke-linecap:butt;stroke-linejoin:miter;stroke-opacity:1" d="M 389.497,510.966 397.932,510.966 z" id="boundary" inkscape:connector-curvature="0" />
	<path style="fill:none;stroke:red;stroke-width:1px;stroke-linecap:butt;stroke-linejoin:miter;stroke-opacity:1" d="M 389.497,510.966 406.367,510.966 z" id="boundary" inkscape:connector-curvature="0" />
	<path style="fill:none;stroke:red;stroke-width:1px;stroke-linecap:butt;stroke-linejoin:miter;stroke-opacity:1" d="M 393.714,4 402.15,4 z" id="boundary" inkscape:connector-curvature="0" />
	<path style="fill:none;stroke:red;stroke-width:1px;stroke-linecap:butt;stroke-linejoin:miter;stroke-opacity:1" d="M 397.932,510.966 406.367,510.966 z" id="boundary" inkscape:connector-curvature="0" />
	<path style="fill:none;stroke:red;stroke-width:1px;stroke-linecap:butt;stroke-linejoin:miter;stroke-opacity:1" d="M 402.15,4 418.177,10.7483 z" id="boundary" inkscape:connector-curvature="0" />
	<path style="fill:none;stroke:red;stroke-width:1px;stroke-linecap:butt;stroke-linejoin:miter;stroke-opacity:1" d="M 409.741,42.8027 409.741,51.2381 z" id="boundary" inkscape:connector-curvature="0" />
	<path style="fill:none;stroke:red;stroke-width:1px;stroke-linecap:butt;stroke-linejoin:miter;stroke-opacity:1" d="M 409.741,42.8027 418.177,38.585 z" id="boundary" inkscape:connector-curvature="0" />
	<path style="fill:none;stroke:red;stroke-width:1px;stroke-linecap:butt;stroke-linejoin:miter;stroke-opacity:1" d="M 409.741,51.2381 411.429,59.6735 z" id="boundary" inkscape:connector-curvature="0" />
	<path style="fill:none;stroke:red;stroke-width:1px;stroke-linecap:butt;stroke-linejoin:miter;stroke-opacity:1" d="M 411.429,59.6735 418.177,65.5782 z" id="boundary" inkscape:connector-curvature="0" />
	<path style="fill:none;stroke:red;stroke-width:1px;stroke-linecap:butt;stroke-linejoin:miter;stroke-opacity:1" d="M 418.177,10.7483 425.769,14.966 z" id="boundary" inkscape:connector-curvature="0" />
	<path style="fill:none;stroke:red;stroke-width:1px;stroke-linecap:butt;stroke-linejoin:miter;stroke-opacity:1" d="M 418.177,38.585 426.612,34.3673 z" id="boundary" inkscape:connector-curvature="0" />
	<path style="fill:none;stroke:red;stroke-width:1px;stroke-linecap:butt;stroke-linejoin:miter;stroke-opacity:1" d="M 418.177,65.5782 418.177,89.1973 z" id="boundary" inkscape:connector-curvature="0" />
	<path style="fill:none;stroke:red;stroke-width:1px;stroke-linecap:butt;stroke-linejoin:miter;stroke-opacity:1" d="M 418.177,89.1973 418.177,106.068 z" id="boundary" inkscape:connector-curvature="0" />
	<path style="fill:none;stroke:red;stroke-width:1px;stroke-linecap:butt;stroke-linejoin:miter;stroke-opacity:1" d="M 418.177,106.068 418.177,122.939 z" id="boundary" inkscape:connector-curvature="0" />
	<path style="fill:none;stroke:red;stroke-width:1px;stroke-linecap:butt;stroke-linejoin:miter;stroke-opacity:1" d="M 418.177,122.939 418.177,131.374 z" id="boundary" inkscape:connector-curvature="0" />
	<path style="fill:none;stroke:red;stroke-width:1px;stroke-linecap:butt;stroke-linejoin:miter;stroke-opacity:1" d="M 418.177,131.374 435.048,134.748 z" id="boundary" inkscape:connector-curvature="0" />
	<path style="fill:none;stroke:red;stroke-width:1px;stroke-linecap:butt;stroke-linejoin:miter;stroke-opacity:1" d="M 422.395,506.748 439.265,506.748 z" id="boundary" inkscape:connector-curvature="0" />
	<path style="fill:none;stroke:red;stroke-width:1px;stroke-linecap:butt;stroke-linejoin:miter;stroke-opacity:1" d="M 425.769,14.966 426.612,34.3673 z" id="boundary" inkscape:connector-curvature="0" />
	<path style="fill:none;stroke:red;stroke-width:1px;stroke-linecap:butt;stroke-linejoin:miter;stroke-opacity:1" d="M 435.048,134.748 451.075,124.626 z" id="boundary" inkscape:connector-curvature="0" />
	<path style="fill:none;stroke:red;stroke-width:1px;stroke-linecap:butt;stroke-linejoin:miter;stroke-opacity:1" d="M 439.265,506.748 456.136,494.095 z" id="boundary" inkscape:connector-curvature="0" />
	<path style="fill:none;stroke:red;stroke-width:1px;stroke-linecap:butt;stroke-linejoin:miter;stroke-opacity:1" d="M 451.075,124.626 457.823,117.878 z" id="boundary" inkscape:connector-curvature="0" />
	<path style="fill:none;stroke:red;stroke-width:1px;stroke-linecap:butt;stroke-linejoin:miter;stroke-opacity:1" d="M 456.136,494.095 460.354,473.007 z" id="boundary" inkscape:connector-curvature="0" />
	<path style="fill:none;stroke:red;stroke-width:1px;stroke-linecap:butt;stroke-linejoin:miter;stroke-opacity:1" d="M 457.823,117.878 465.415,113.66 z" id="boundary" inkscape:connector-curvature="0" />
	<path style="fill:none;stroke:red;stroke-width:1px;stroke-linecap:butt;stroke-linejoin:miter;stroke-opacity:1" d="M 460.354,447.701 460.354,456.136 z" id="boundary" inkscape:connector-curvature="0" />
	<path style="fill:none;stroke:red;stroke-width:1px;stroke-linecap:butt;stroke-linejoin:miter;stroke-opacity:1" d="M 460.354,447.701 477.224,443.483 z" id="boundary" inkscape:connector-curvature="0" />
	<path style="fill:none;stroke:red;stroke-width:1px;stroke-linecap:butt;stroke-linejoin:miter;stroke-opacity:1" d="M 460.354,456.136 460.354,473.007 z" id="boundary" inkscape:connector-curvature="0" />
	<path style="fill:none;stroke:red;stroke-width:1px;stroke-linecap:butt;stroke-linejoin:miter;stroke-opacity:1" d="M 465.415,113.66 482.286,113.66 z" id="boundary" inkscape:connector-curvature="0" />
	<path style="fill:none;stroke:red;stroke-width:1px;stroke-linecap:butt;stroke-linejoin:miter;stroke-opacity:1" d="M 477.224,443.483 485.66,443.483 z" id="boundary" inkscape:connector-curvature="0" />
	<path style="fill:none;stroke:red;stroke-width:1px;stroke-linecap:butt;stroke-linejoin:miter;stroke-opacity:1" d="M 482.286,113.66 499.156,113.66 z" id="boundary" inkscape:connector-curvature="0" />
	<path style="fill:none;stroke:red;stroke-width:1px;stroke-linecap:butt;stroke-linejoin:miter;stroke-opacity:1" d="M 485.66,443.483 501.687,436.735 z" id="boundary" inkscape:connector-curvature="0" />
	<path style="fill:none;stroke:red;stroke-width:1px;stroke-linecap:butt;stroke-linejoin:miter;stroke-opacity:1" d="M 499.156,113.66 516.027,113.66 z" id="boundary" inkscape:connector-curvature="0" />
	<path style="fill:none;stroke:red;stroke-width:1px;stroke-linecap:butt;stroke-linejoin:miter;stroke-opacity:1" d="M 501.687,436.735 510.122,435.048 z" id="boundary" inkscape:connector-curvature="0" />
	<path style="fill:none;stroke:red;stroke-width:1px;stroke-linecap:butt;stroke-linejoin:miter;stroke-opacity:1" d="M 526.15,430.83 534.585,430.83 z" id="boundary" inkscape:connector-curvature="0" />
	<path style="fill:none;stroke:red;stroke-width:1px;stroke-linecap:butt;stroke-linejoin:miter;stroke-opacity:1" d="M 532.898,113.66 540.49,117.878 z" id="boundary" inkscape:connector-curvature="0" />
	<path style="fill:none;stroke:red;stroke-width:1px;stroke-linecap:butt;stroke-linejoin:miter;stroke-opacity:1" d="M 532.898,113.66 548.925,117.878 z" id="boundary" inkscape:connector-curvature="0" />
	<path style="fill:none;stroke:red;stroke-width:1px;stroke-linecap:butt;stroke-linejoin:miter;stroke-opacity:1" d="M 540.49,117.878 548.925,117.878 z" id="boundary" inkscape:connector-curvature="0" />
	<path style="fill:none;stroke:red;stroke-width:1px;stroke-linecap:butt;stroke-linejoin:miter;stroke-opacity:1" d="M 565.796,122.095 574.231,122.095 z" id="boundary" inkscape:connector-curvature="0" />
	<path style="fill:none;stroke:red;stroke-width:1px;stroke-linecap:butt;stroke-linejoin:miter;stroke-opacity:1" d="M 568.327,430.83 576.762,430.83 z" id="boundary" inkscape:connector-curvature="0" />
	<path style="fill:none;stroke:red;stroke-width:1px;stroke-linecap:butt;stroke-linejoin:miter;stroke-opacity:1" d="M 574.231,122.095 590.259,126.313 z" id="boundary" inkscape:connector-curvature="0" />
	<path style="fill:none;stroke:red;stroke-width:1px;stroke-linecap:butt;stroke-linejoin:miter;stroke-opacity:1" d="M 578.449,190.422 585.197,195.483 z" id="boundary" inkscape:connector-curvature="0" />
	<path style="fill:none;stroke:red;stroke-width:1px;stroke-linecap:butt;stroke-linejoin:miter;stroke-opacity:1" d="M 585.197,195.483 591.946,190.422 z" id="boundary" inkscape:connector-curvature="0" />
	<path style="fill:none;stroke:red;stroke-width:1px;stroke-linecap:butt;stroke-linejoin:miter;stroke-opacity:1" d="M 590.259,126.313 607.129,126.313 z" id="boundary" inkscape:connector-curvature="0" />
	<path style="fill:none;stroke:red;stroke-width:1px;stroke-linecap:butt;stroke-linejoin:miter;stroke-opacity:1" d="M 591.946,190.422 599.537,186.204 z" id="boundary" inkscape:connector-curvature="0" />
	<path style="fill:none;stroke:red;stroke-width:1px;stroke-linecap:butt;stroke-linejoin:miter;stroke-opacity:1" d="M 592.789,426.612 601.224,426.612 z" id="boundary" inkscape:connector-curvature="0" />
	<path style="fill:none;stroke:red;stroke-width:1px;stroke-linecap:butt;stroke-linejoin:miter;stroke-opacity:1" d="M 593.633,198.857 599.537,186.204 z" id="boundary" inkscape:connector-curvature="0" />
	<path style="fill:none;stroke:red;stroke-width:1px;stroke-linecap:butt;stroke-linejoin:miter;stroke-opacity:1" d="M 593.633,198.857 601.224,203.075 z" id="boundary" inkscape:connector-curvature="0" />
	<path style="fill:none;stroke:red;stroke-width:1px;stroke-linecap:butt;stroke-linejoin:miter;stroke-opacity:1" d="M 601.224,203.075 607.973,208.98 z" id="boundary" inkscape:connector-curvature="0" />
	<path style="fill:none;stroke:red;stroke-width:1px;stroke-linecap:butt;stroke-linejoin:miter;stroke-opacity:1" d="M 601.224,426.612 617.252,422.395 z" id="boundary" inkscape:connector-curvature="0" />
	<path style="fill:none;stroke:red;stroke-width:1px;stroke-linecap:butt;stroke-linejoin:miter;stroke-opacity:1" d="M 603.755,354.912 607.973,362.503 z" id="boundary" inkscape:connector-curvature="0" />
	<path style="fill:none;stroke:red;stroke-width:1px;stroke-linecap:butt;stroke-linejoin:miter;stroke-opacity:1" d="M 603.755,354.912 611.347,350.694 z" id="boundary" inkscape:connector-curvature="0" />
	<path style="fill:none;stroke:red;stroke-width:1px;stroke-linecap:butt;stroke-linejoin:miter;stroke-opacity:1" d="M 607.129,126.313 624,130.531 z" id="boundary" inkscape:connector-curvature="0" />
	<path style="fill:none;stroke:red;stroke-width:1px;stroke-linecap:butt;stroke-linejoin:miter;stroke-opacity:1" d="M 607.973,208.98 614.721,214.884 z" id="boundary" inkscape:connector-curvature="0" />
	<path style="fill:none;stroke:red;stroke-width:1px;stroke-linecap:butt;stroke-linejoin:miter;stroke-opacity:1" d="M 607.973,362.503 611.347,350.694 z" id="boundary" inkscape:connector-curvature="0" />
	<path style="fill:none;stroke:red;stroke-width:1px;stroke-linecap:butt;stroke-linejoin:miter;stroke-opacity:1" d="M 614.721,214.884 631.592,214.884 z" id="boundary" inkscape:connector-curvature="0" />
	<path style="fill:none;stroke:red;stroke-width:1px;stroke-linecap:butt;stroke-linejoin:miter;stroke-opacity:1" d="M 616.408,181.986 633.279,181.986 z" id="boundary" inkscape:connector-curvature="0" />
	<path style="fill:none;stroke:red;stroke-width:1px;stroke-linecap:butt;stroke-linejoin:miter;stroke-opacity:1" d="M 617.252,422.395 625.687,422.395 z" id="boundary" inkscape:connector-curvature="0" />
	<path style="fill:none;stroke:red;stroke-width:1px;stroke-linecap:butt;stroke-linejoin:miter;stroke-opacity:1" d="M 624,130.531 640.871,130.531 z" id="boundary" inkscape:connector-curvature="0" />
	<path style="fill:none;stroke:red;stroke-width:1px;stroke-linecap:butt;stroke-linejoin:miter;stroke-opacity:1" d="M 624,359.973 628.218,346.476 z" id="boundary" inkscape:connector-curvature="0" />
	<path style="fill:none;stroke:red;stroke-width:1px;stroke-linecap:butt;stroke-linejoin:miter;stroke-opacity:1" d="M 624,359.973 629.061,366.721 z" id="boundary" inkscape:connector-curvature="0" />
	<path style="fill:none;stroke:red;stroke-width:1px;stroke-linecap:butt;stroke-linejoin:miter;stroke-opacity:1" d="M 625.687,422.395 633.279,418.177 z" id="boundary" inkscape:connector-curvature="0" />
	<path style="fill:none;stroke:red;stroke-width:1px;stroke-linecap:butt;stroke-linejoin:miter;stroke-opacity:1" d="M 628.218,346.476 635.81,342.259 z" id="boundary" inkscape:connector-curvature="0" />
	<path style="fill:none;stroke:red;stroke-width:1px;stroke-linecap:butt;stroke-linejoin:miter;stroke-opacity:1" d="M 629.061,366.721 633.279,374.313 z" id="boundary" inkscape:connector-curvature="0" />
	<path style="fill:none;stroke:red;stroke-width:1px;stroke-linecap:butt;stroke-linejoin:miter;stroke-opacity:1" d="M 631.592,214.884 640.027,214.884 z" id="boundary" inkscape:connector-curvature="0" />
	<path style="fill:none;stroke:red;stroke-width:1px;stroke-linecap:butt;stroke-linejoin:miter;stroke-opacity:1" d="M 633.279,181.986 640.871,177.769 z" id="boundary" inkscape:connector-curvature="0" />
	<path style="fill:none;stroke:red;stroke-width:1px;stroke-linecap:butt;stroke-linejoin:miter;stroke-opacity:1" d="M 633.279,374.313 637.497,381.905 z" id="boundary" inkscape:connector-curvature="0" />
	<path style="fill:none;stroke:red;stroke-width:1px;stroke-linecap:butt;stroke-linejoin:miter;stroke-opacity:1" d="M 633.279,418.177 640.027,412.272 z" id="boundary" inkscape:connector-curvature="0" />
	<path style="fill:none;stroke:red;stroke-width:1px;stroke-linecap:butt;stroke-linejoin:miter;stroke-opacity:1" d="M 635.81,342.259 652.68,336.354 z" id="boundary" inkscape:connector-curvature="0" />
	<path style="fill:none;stroke:red;stroke-width:1px;stroke-linecap:butt;stroke-linejoin:miter;stroke-opacity:1" d="M 637.497,381.905 637.497,390.34 z" id="boundary" inkscape:connector-curvature="0" />
	<path style="fill:none;stroke:red;stroke-width:1px;stroke-linecap:butt;stroke-linejoin:miter;stroke-opacity:1" d="M 637.497,390.34 640.027,412.272 z" id="boundary" inkscape:connector-curvature="0" />
	<path style="fill:none;stroke:red;stroke-width:1px;stroke-linecap:butt;stroke-linejoin:miter;stroke-opacity:1" d="M 640.027,214.884 656.898,214.884 z" id="boundary" inkscape:connector-curvature="0" />
	<path style="fill:none;stroke:red;stroke-width:1px;stroke-linecap:butt;stroke-linejoin:miter;stroke-opacity:1" d="M 640.871,130.531 657.741,132.218 z" id="boundary" inkscape:connector-curvature="0" />
	<path style="fill:none;stroke:red;stroke-width:1px;stroke-linecap:butt;stroke-linejoin:miter;stroke-opacity:1" d="M 640.871,177.769 657.741,175.238 z" id="boundary" inkscape:connector-curvature="0" />
	<path style="fill:none;stroke:red;stroke-width:1px;stroke-linecap:butt;stroke-linejoin:miter;stroke-opacity:1" d="M 652.68,336.354 667.02,325.388 z" id="boundary" inkscape:connector-curvature="0" />
	<path style="fill:none;stroke:red;stroke-width:1px;stroke-linecap:butt;stroke-linejoin:miter;stroke-opacity:1" d="M 656.898,214.884 665.333,214.884 z" id="boundary" inkscape:connector-curvature="0" />
	<path style="fill:none;stroke:red;stroke-width:1px;stroke-linecap:butt;stroke-linejoin:miter;stroke-opacity:1" d="M 657.741,132.218 665.333,136.435 z" id="boundary" inkscape:connector-curvature="0" />
	<path style="fill:none;stroke:red;stroke-width:1px;stroke-linecap:butt;stroke-linejoin:miter;stroke-opacity:1" d="M 657.741,175.238 668.707,160.054 z" id="boundary" inkscape:connector-curvature="0" />
	<path style="fill:none;stroke:red;stroke-width:1px;stroke-linecap:butt;stroke-linejoin:miter;stroke-opacity:1" d="M 665.333,136.435 668.707,160.054 z" id="boundary" inkscape:connector-curvature="0" />
	<path style="fill:none;stroke:red;stroke-width:1px;stroke-linecap:butt;stroke-linejoin:miter;stroke-opacity:1" d="M 665.333,214.884 681.361,210.667 z" id="boundary" inkscape:connector-curvature="0" />
	<path style="fill:none;stroke:red;stroke-width:1px;stroke-linecap:butt;stroke-linejoin:miter;stroke-opacity:1" d="M 667.02,325.388 675.456,325.388 z" id="boundary" inkscape:connector-curvature="0" />
	<path style="fill:none;stroke:red;stroke-width:1px;stroke-linecap:butt;stroke-linejoin:miter;stroke-opacity:1" d="M 675.456,325.388 683.048,321.17 z" id="boundary" inkscape:connector-curvature="0" />
	<path style="fill:none;stroke:red;stroke-width:1px;stroke-linecap:butt;stroke-linejoin:miter;stroke-opacity:1" d="M 681.361,210.667 698.231,210.667 z" id="boundary" inkscape:connector-curvature="0" />
	<path style="fill:none;stroke:red;stroke-width:1px;stroke-linecap:butt;stroke-linejoin:miter;stroke-opacity:1" d="M 683.048,321.17 690.639,316.952 z" id="boundary" inkscape:connector-curvature="0" />
	<path style="fill:none;stroke:red;stroke-width:1px;stroke-linecap:butt;stroke-linejoin:miter;stroke-opacity:1" d="M 690.639,316.952 698.231,312.735 z" id="boundary" inkscape:connector-curvature="0" />
	<path style="fill:none;stroke:red;stroke-width:1px;stroke-linecap:butt;stroke-linejoin:miter;stroke-opacity:1" d="M 698.231,210.667 715.102,210.667 z" id="boundary" inkscape:connector-curvature="0" />
	<path style="fill:none;stroke:red;stroke-width:1px;stroke-linecap:butt;stroke-linejoin:miter;stroke-opacity:1" d="M 698.231,312.735 705.823,308.517 z" id="boundary" inkscape:connector-curvature="0" />
	<path style="fill:none;stroke:red;stroke-width:1px;stroke-linecap:butt;stroke-linejoin:miter;stroke-opacity:1" d="M 705.823,308.517 721.85,304.299 z" id="boundary" inkscape:connector-curvature="0" />
	<path style="fill:none;stroke:red;stroke-width:1px;stroke-linecap:butt;stroke-linejoin:miter;stroke-opacity:1" d="M 715.102,210.667 731.973,210.667 z" id="boundary" inkscape:connector-curvature="0" />
	<path style="fill:none;stroke:red;stroke-width:1px;stroke-linecap:butt;stroke-linejoin:miter;stroke-opacity:1" d="M 721.85,304.299 730.286,304.299 z" id="boundary" inkscape:connector-curvature="0" />
	<path style="fill:none;stroke:red;stroke-width:1px;stroke-linecap:butt;stroke-linejoin:miter;stroke-opacity:1" d="M 730.286,304.299 746.313,297.551 z" id="boundary" inkscape:connector-curvature="0" />
	<path style="fill:none;stroke:red;stroke-width:1px;stroke-linecap:butt;stroke-linejoin:miter;stroke-opacity:1" d="M 731.973,210.667 748,206.449 z" id="boundary" inkscape:connector-curvature="0" />
	<path style="fill:none;stroke:red;stroke-width:1px;stroke-linecap:butt;stroke-linejoin:miter;stroke-opacity:1" d="M 746.313,297.551 763.184,293.333 z" id="boundary" inkscape:connector-curvature="0" />
	<path style="fill:none;stroke:red;stroke-width:1px;stroke-linecap:butt;stroke-linejoin:miter;stroke-opacity:1" d="M 748,206.449 764.871,206.449 z" id="boundary" inkscape:connector-curvature="0" />
	<path style="fill:none;stroke:red;stroke-width:1px;stroke-linecap:butt;stroke-linejoin:miter;stroke-opacity:1" d="M 763.184,293.333 771.619,291.646 z" id="boundary" inkscape:connector-curvature="0" />
	<path style="fill:none;stroke:red;stroke-width:1px;stroke-linecap:butt;stroke-linejoin:miter;stroke-opacity:1" d="M 764.871,206.449 781.741,206.449 z" id="boundary" inkscape:connector-curvature="0" />
	<path style="fill:none;stroke:red;stroke-width:1px;stroke-linecap:butt;stroke-linejoin:miter;stroke-opacity:1" d="M 771.619,291.646 779.211,287.429 z" id="boundary" inkscape:connector-curvature="0" />
	<path style="fill:none;stroke:red;stroke-width:1px;stroke-linecap:butt;stroke-linejoin:miter;stroke-opacity:1" d="M 779.211,287.429 786.803,283.211 z" id="boundary" inkscape:connector-curvature="0" />
	<path style="fill:none;stroke:red;stroke-width:1px;stroke-linecap:butt;stroke-linejoin:miter;stroke-opacity:1" d="M 781.741,206.449 789.333,202.231 z" id="boundary" inkscape:connector-curvature="0" />
	<path style="fill:none;stroke:red;stroke-width:1px;stroke-linecap:butt;stroke-linejoin:miter;stroke-opacity:1" d="M 786.803,283.211 795.238,283.211 z" id="boundary" inkscape:connector-curvature="0" />
	<path style="fill:none;stroke:red;stroke-width:1px;stroke-linecap:butt;stroke-linejoin:miter;stroke-opacity:1" d="M 789.333,202.231 806.204,202.231 z" id="boundary" inkscape:connector-curvature="0" />
	<path style="fill:none;stroke:red;stroke-width:1px;stroke-linecap:butt;stroke-linejoin:miter;stroke-opacity:1" d="M 795.238,283.211 811.265,278.993 z" id="boundary" inkscape:connector-curvature="0" />
	<path style="fill:none;stroke:red;stroke-width:1px;stroke-linecap:butt;stroke-linejoin:miter;stroke-opacity:1" d="M 806.204,202.231 823.075,198.014 z" id="boundary" inkscape:connector-curvature="0" />
	<path style="fill:none;stroke:red;stroke-width:1px;stroke-linecap:butt;stroke-linejoin:miter;stroke-opacity:1" d="M 811.265,278.993 827.293,274.776 z" id="boundary" inkscape:connector-curvature="0" />
	<path style="fill:none;stroke:red;stroke-width:1px;stroke-linecap:butt;stroke-linejoin:miter;stroke-opacity:1" d="M 823.075,198.014 839.946,193.796 z" id="boundary" inkscape:connector-curvature="0" />
	<path style="fill:none;stroke:red;stroke-width:1px;stroke-linecap:butt;stroke-linejoin:miter;stroke-opacity:1" d="M 827.293,274.776 834.884,270.558 z" id="boundary" inkscape:connector-curvature="0" />
	<path style="fill:none;stroke:red;stroke-width:1px;stroke-linecap:butt;stroke-linejoin:miter;stroke-opacity:1" d="M 834.884,270.558 851.755,263.81 z" id="boundary" inkscape:connector-curvature="0" />
	<path style="fill:none;stroke:red;stroke-width:1px;stroke-linecap:butt;stroke-linejoin:miter;stroke-opacity:1" d="M 839.946,193.796 856.816,187.048 z" id="boundary" inkscape:connector-curvature="0" />
	<path style="fill:none;stroke:red;stroke-width:1px;stroke-linecap:butt;stroke-linejoin:miter;stroke-opacity:1" d="M 851.755,263.81 868.626,255.374 z" id="boundary" inkscape:connector-curvature="0" />
	<path style="fill:none;stroke:red;stroke-width:1px;stroke-linecap:butt;stroke-linejoin:miter;stroke-opacity:1" d="M 873.687,182.83 882.122,181.143 z" id="boundary" inkscape:connector-curvature="0" />
	<path style="fill:none;stroke:red;stroke-width:1px;stroke-linecap:butt;stroke-linejoin:miter;stroke-opacity:1" d="M 873.687,182.83 890.558,181.143 z" id="boundary" inkscape:connector-curvature="0" />
	<path style="fill:none;stroke:red;stroke-width:1px;stroke-linecap:butt;stroke-linejoin:miter;stroke-opacity:1" d="M 882.122,181.143 890.558,181.143 z" id="boundary" inkscape:connector-curvature="0" />
	<path style="fill:none;stroke:red;stroke-width:1px;stroke-linecap:butt;stroke-linejoin:miter;stroke-opacity:1" d="M 885.497,249.469 893.088,245.252 z" id="boundary" inkscape:connector-curvature="0" />
	<path style="fill:none;stroke:red;stroke-width:1px;stroke-linecap:butt;stroke-linejoin:miter;stroke-opacity:1" d="M 893.088,245.252 909.116,240.19 z" id="boundary" inkscape:connector-curvature="0" />
	<path style="fill:none;stroke:red;stroke-width:1px;stroke-linecap:butt;stroke-linejoin:miter;stroke-opacity:1" d="M 906.585,176.925 923.456,176.925 z" id="boundary" inkscape:connector-curvature="0" />
	<path style="fill:none;stroke:red;stroke-width:1px;stroke-linecap:butt;stroke-linejoin:miter;stroke-opacity:1" d="M 909.116,240.19 925.986,236.816 z" id="boundary" inkscape:connector-curvature="0" />
	<path style="fill:none;stroke:red;stroke-width:1px;stroke-linecap:butt;stroke-linejoin:miter;stroke-opacity:1" d="M 923.456,176.925 940.327,176.925 z" id="boundary" inkscape:connector-curvature="0" />
	<path style="fill:none;stroke:red;stroke-width:1px;stroke-linecap:butt;stroke-linejoin:miter;stroke-opacity:1" d="M 925.986,236.816 942.857,232.599 z" id="boundary" inkscape:connector-curvature="0" />
	<path style="fill:none;stroke:red;stroke-width:1px;stroke-linecap:butt;stroke-linejoin:miter;stroke-opacity:1" d="M 940.327,176.925 957.197,176.925 z" id="boundary" inkscape:connector-curvature="0" />
	<path style="fill:none;stroke:red;stroke-width:1px;stroke-linecap:butt;stroke-linejoin:miter;stroke-opacity:1" d="M 942.857,232.599 950.449,228.381 z" id="boundary" inkscape:connector-curvature="0" />
	<path style="fill:none;stroke:red;stroke-width:1px;stroke-linecap:butt;stroke-linejoin:miter;stroke-opacity:1" d="M 950.449,228.381 958.884,228.381 z" id="boundary" inkscape:connector-curvature="0" />
	<path style="fill:none;stroke:red;stroke-width:1px;stroke-linecap:butt;stroke-linejoin:miter;stroke-opacity:1" d="M 957.197,176.925 974.068,176.925 z" id="boundary" inkscape:connector-curvature="0" />
	<path style="fill:none;stroke:red;stroke-width:1px;stroke-linecap:butt;stroke-linejoin:miter;stroke-opacity:1" d="M 958.884,228.381 967.32,228.381 z" id="boundary" inkscape:connector-curvature="0" />
	<path style="fill:none;stroke:red;stroke-width:1px;stroke-linecap:butt;stroke-linejoin:miter;stroke-opacity:1" d="M 967.32,228.381 983.347,224.163 z" id="boundary" inkscape:connector-curvature="0" />
	<path style="fill:none;stroke:red;stroke-width:1px;stroke-linecap:butt;stroke-linejoin:miter;stroke-opacity:1" d="M 974.068,176.925 981.66,181.143 z" id="boundary" inkscape:connector-curvature="0" />
	<path style="fill:none;stroke:red;stroke-width:1px;stroke-linecap:butt;stroke-linejoin:miter;stroke-opacity:1" d="M 981.66,181.143 989.252,185.361 z" id="boundary" inkscape:connector-curvature="0" />
	<path style="fill:none;stroke:red;stroke-width:1px;stroke-linecap:butt;stroke-linejoin:miter;stroke-opacity:1" d="M 983.347,224.163 996,208.98 z" id="boundary" inkscape:connector-curvature="0" />
	<path style="fill:none;stroke:red;stroke-width:1px;stroke-linecap:butt;stroke-linejoin:miter;stroke-opacity:1" d="M 989.252,185.361 995.156,192.109 z" id="boundary" inkscape:connector-curvature="0" />
	<path style="fill:none;stroke:red;stroke-width:1px;stroke-linecap:butt;stroke-linejoin:miter;stroke-opacity:1" d="M 995.156,192.109 996,208.98 z" id="boundary" inkscape:connector-curvature="0" />
	<circle cx="4" cy="339.728" r="4" fill="#0" id="circle0"/>
	<circle cx="4" cy="348.163" r="4" fill="#0" id="circle1"/>
	<circle cx="4" cy="356.599" r="4" fill="#0" id="circle2"/>
	<circle cx="4" cy="365.034" r="4" fill="#0" id="circle3"/>
	<circle cx="4" cy="373.469" r="4" fill="#0" id="circle4"/>
	<circle cx="4" cy="381.905" r="4" fill="#0" id="circle5"/>
	<circle cx="4" cy="390.34" r="4" fill="#0" id="circle6"/>
	<circle cx="4" cy="398.776" r="4" fill="#0" id="circle7"/>
	<circle cx="8.21769" cy="314.422" r="4" fill="#0" id="circle8"/>
	<circle cx="8.21769" cy="322.857" r="4" fill="#0" id="circle9"/>
	<circle cx="8.21769" cy="331.293" r="4" fill="#0" id="circle10"/>
	<circle cx="8.21769" cy="406.367" r="4" fill="#0" id="circle11"/>
	<circle cx="12.4354" cy="301.769" r="4" fill="#0" id="circle12"/>
	<circle cx="12.4354" cy="413.959" r="4" fill="#0" id="circle13"/>
	<circle cx="16.6531" cy="293.333" r="4" fill="#0" id="circle14"/>
	<circle cx="17.4966" cy="420.707" r="4" fill="#0" id="circle15"/>
	<circle cx="20.8707" cy="284.898" r="4" fill="#0" id="circle16"/>
	<circle cx="24.2449" cy="426.612" r="4" fill="#0" id="circle17"/>
	<circle cx="25.0884" cy="276.463" r="4" fill="#0" id="circle18"/>
	<circle cx="30.1497" cy="433.361" r="4" fill="#0" id="circle19"/>
	<circle cx="31.8367" cy="269.714" r="4" fill="#0" id="circle20"/>
	<circle cx="36.898" cy="439.265" r="4" fill="#0" id="circle21"/>
	<circle cx="37.7415" cy="259.592" r="4" fill="#0" id="circle22"/>
	<circle cx="44.4898" cy="252.844" r="4" fill="#0" id="circle23"/>
	<circle cx="44.4898" cy="443.483" r="4" fill="#0" id="circle24"/>
	<circle cx="51.2381" cy="246.095" r="4" fill="#0" id="circle25"/>
	<circle cx="52.9252" cy="443.483" r="4" fill="#0" id="circle26"/>
	<circle cx="54.6122" cy="529.524" r="4" fill="#0" id="circle27"/>
	<circle cx="57.9864" cy="240.19" r="4" fill="#0" id="circle28"/>
	<circle cx="58.8299" cy="537.116" r="4" fill="#0" id="circle29"/>
	<circle cx="60.517" cy="447.701" r="4" fill="#0" id="circle30"/>
	<circle cx="61.3605" cy="231.755" r="4" fill="#0" id="circle31"/>
	<circle cx="61.3605" cy="522.776" r="4" fill="#0" id="circle32"/>
	<circle cx="67.2653" cy="540.49" r="4" fill="#0" id="circle33"/>
	<circle cx="68.1088" cy="225.007" r="4" fill="#0" id="circle34"/>
	<circle cx="68.1088" cy="451.918" r="4" fill="#0" id="circle35"/>
	<circle cx="69.7959" cy="522.776" r="4" fill="#0" id="circle36"/>
	<circle cx="74.8571" cy="219.102" r="4" fill="#0" id="circle37"/>
	<circle cx="74.8571" cy="544.707" r="4" fill="#0" id="circle38"/>
	<circle cx="75.7007" cy="456.136" r="4" fill="#0" id="circle39"/>
	<circle cx="78.2313" cy="522.776" r="4" fill="#0" id="circle40"/>
	<circle cx="82.449" cy="214.884" r="4" fill="#0" id="circle41"/>
	<circle cx="83.2925" cy="460.354" r="4" fill="#0" id="circle42"/>
	<circle cx="83.2925" cy="544.707" r="4" fill="#0" id="circle43"/>
	<circle cx="86.6667" cy="522.776" r="4" fill="#0" id="circle44"/>
	<circle cx="89.1973" cy="208.136" r="4" fill="#0" id="circle45"/>
	<circle cx="91.7279" cy="460.354" r="4" fill="#0" id="circle46"/>
	<circle cx="91.7279" cy="544.707" r="4" fill="#0" id="circle47"/>
	<circle cx="95.102" cy="522.776" r="4" fill="#0" id="circle48"/>
	<circle cx="95.9456" cy="202.231" r="4" fill="#0" id="circle49"/>
	<circle cx="100.163" cy="460.354" r="4" fill="#0" id="circle50"/>
	<circle cx="100.163" cy="544.707" r="4" fill="#0" id="circle51"/>
	<circle cx="103.537" cy="198.014" r="4" fill="#0" id="circle52"/>
	<circle cx="103.537" cy="522.776" r="4" fill="#0" id="circle53"/>
	<circle cx="108.599" cy="460.354" r="4" fill="#0" id="circle54"/>
	<circle cx="108.599" cy="544.707" r="4" fill="#0" id="circle55"/>
	<circle cx="110.286" cy="191.265" r="4" fill="#0" id="circle56"/>
	<circle cx="111.973" cy="522.776" r="4" fill="#0" id="circle57"/>
	<circle cx="117.034" cy="460.354" r="4" fill="#0" id="circle58"/>
	<circle cx="117.034" cy="544.707" r="4" fill="#0" id="circle59"/>
	<circle cx="118.721" cy="187.048" r="4" fill="#0" id="circle60"/>
	<circle cx="120.408" cy="522.776" r="4" fill="#0" id="circle61"/>
	<circle cx="124.626" cy="464.571" r="4" fill="#0" id="circle62"/>
	<circle cx="125.469" cy="181.143" r="4" fill="#0" id="circle63"/>
	<circle cx="125.469" cy="544.707" r="4" fill="#0" id="circle64"/>
	<circle cx="128.844" cy="522.776" r="4" fill="#0" id="circle65"/>
	<circle cx="133.061" cy="176.925" r="4" fill="#0" id="circle66"/>
	<circle cx="133.061" cy="464.571" r="4" fill="#0" id="circle67"/>
	<circle cx="133.905" cy="544.707" r="4" fill="#0" id="circle68"/>
	<circle cx="137.279" cy="522.776" r="4" fill="#0" id="circle69"/>
	<circle cx="140.653" cy="172.707" r="4" fill="#0" id="circle70"/>
	<circle cx="141.497" cy="464.571" r="4" fill="#0" id="circle71"/>
	<circle cx="142.34" cy="544.707" r="4" fill="#0" id="circle72"/>
	<circle cx="145.714" cy="518.558" r="4" fill="#0" id="circle73"/>
	<circle cx="148.245" cy="168.49" r="4" fill="#0" id="circle74"/>
	<circle cx="149.932" cy="464.571" r="4" fill="#0" id="circle75"/>
	<circle cx="149.932" cy="540.49" r="4" fill="#0" id="circle76"/>
	<circle cx="153.306" cy="514.34" r="4" fill="#0" id="circle77"/>
	<circle cx="155.837" cy="162.585" r="4" fill="#0" id="circle78"/>
	<circle cx="158.367" cy="464.571" r="4" fill="#0" id="circle79"/>
	<circle cx="158.367" cy="540.49" r="4" fill="#0" id="circle80"/>
	<circle cx="160.898" cy="510.122" r="4" fill="#0" id="circle81"/>
	<circle cx="164.272" cy="158.367" r="4" fill="#0" id="circle82"/>
	<circle cx="166.803" cy="464.571" r="4" fill="#0" id="circle83"/>
	<circle cx="166.803" cy="539.646" r="4" fill="#0" id="circle84"/>
	<circle cx="168.49" cy="505.905" r="4" fill="#0" id="circle85"/>
	<circle cx="172.707" cy="154.15" r="4" fill="#0" id="circle86"/>
	<circle cx="175.238" cy="464.571" r="4" fill="#0" id="circle87"/>
	<circle cx="175.238" cy="536.272" r="4" fill="#0" id="circle88"/>
	<circle cx="176.082" cy="501.687" r="4" fill="#0" id="circle89"/>
	<circle cx="179.456" cy="147.401" r="4" fill="#0" id="circle90"/>
	<circle cx="182.83" cy="532.054" r="4" fill="#0" id="circle91"/>
	<circle cx="183.673" cy="464.571" r="4" fill="#0" id="circle92"/>
	<circle cx="183.673" cy="497.469" r="4" fill="#0" id="circle93"/>
	<circle cx="187.891" cy="143.184" r="4" fill="#0" id="circle94"/>
	<circle cx="191.265" cy="532.054" r="4" fill="#0" id="circle95"/>
	<circle cx="192.109" cy="464.571" r="4" fill="#0" id="circle96"/>
	<circle cx="192.109" cy="493.252" r="4" fill="#0" id="circle97"/>
	<circle cx="196.327" cy="143.184" r="4" fill="#0" id="circle98"/>
	<circle cx="198.857" cy="527.837" r="4" fill="#0" id="circle99"/>
	<circle cx="200.544" cy="464.571" r="4" fill="#0" id="circle100"/>
	<circle cx="200.544" cy="493.252" r="4" fill="#0" id="circle101"/>
	<circle cx="203.918" cy="138.966" r="4" fill="#0" id="circle102"/>
	<circle cx="207.293" cy="527.837" r="4" fill="#0" id="circle103"/>
	<circle cx="208.98" cy="464.571" r="4" fill="#0" id="circle104"/>
	<circle cx="208.98" cy="489.034" r="4" fill="#0" id="circle105"/>
	<circle cx="210.667" cy="478.912" r="4" fill="#0" id="circle106"/>
	<circle cx="211.51" cy="134.748" r="4" fill="#0" id="circle107"/>
	<circle cx="214.884" cy="471.32" r="4" fill="#0" id="circle108"/>
	<circle cx="214.884" cy="523.619" r="4" fill="#0" id="circle109"/>
	<circle cx="219.102" cy="130.531" r="4" fill="#0" id="circle110"/>
	<circle cx="223.32" cy="523.619" r="4" fill="#0" id="circle111"/>
	<circle cx="226.694" cy="126.313" r="4" fill="#0" id="circle112"/>
	<circle cx="231.755" cy="523.619" r="4" fill="#0" id="circle113"/>
	<circle cx="235.129" cy="126.313" r="4" fill="#0" id="circle114"/>
	<circle cx="240.19" cy="523.619" r="4" fill="#0" id="circle115"/>
	<circle cx="243.565" cy="126.313" r="4" fill="#0" id="circle116"/>
	<circle cx="248.626" cy="523.619" r="4" fill="#0" id="circle117"/>
	<circle cx="252" cy="126.313" r="4" fill="#0" id="circle118"/>
	<circle cx="257.061" cy="523.619" r="4" fill="#0" id="circle119"/>
	<circle cx="260.435" cy="126.313" r="4" fill="#0" id="circle120"/>
	<circle cx="265.497" cy="523.619" r="4" fill="#0" id="circle121"/>
	<circle cx="268.871" cy="126.313" r="4" fill="#0" id="circle122"/>
	<circle cx="273.932" cy="523.619" r="4" fill="#0" id="circle123"/>
	<circle cx="277.306" cy="126.313" r="4" fill="#0" id="circle124"/>
	<circle cx="282.367" cy="523.619" r="4" fill="#0" id="circle125"/>
	<circle cx="285.741" cy="126.313" r="4" fill="#0" id="circle126"/>
	<circle cx="290.803" cy="523.619" r="4" fill="#0" id="circle127"/>
	<circle cx="294.177" cy="126.313" r="4" fill="#0" id="circle128"/>
	<circle cx="298.395" cy="519.401" r="4" fill="#0" id="circle129"/>
	<circle cx="302.612" cy="126.313" r="4" fill="#0" id="circle130"/>
	<circle cx="306.83" cy="519.401" r="4" fill="#0" id="circle131"/>
	<circle cx="311.048" cy="126.313" r="4" fill="#0" id="circle132"/>
	<circle cx="311.891" cy="14.966" r="4" fill="#0" id="circle133"/>
	<circle cx="311.891" cy="23.4014" r="4" fill="#0" id="circle134"/>
	<circle cx="315.265" cy="519.401" r="4" fill="#0" id="circle135"/>
	<circle cx="316.109" cy="30.9932" r="4" fill="#0" id="circle136"/>
	<circle cx="318.639" cy="8.21769" r="4" fill="#0" id="circle137"/>
	<circle cx="319.483" cy="126.313" r="4" fill="#0" id="circle138"/>
	<circle cx="323.701" cy="519.401" r="4" fill="#0" id="circle139"/>
	<circle cx="324.544" cy="34.3673" r="4" fill="#0" id="circle140"/>
	<circle cx="326.231" cy="4" r="4" fill="#0" id="circle141"/>
	<circle cx="327.918" cy="126.313" r="4" fill="#0" id="circle142"/>
	<circle cx="331.293" cy="515.184" r="4" fill="#0" id="circle143"/>
	<circle cx="332.136" cy="38.585" r="4" fill="#0" id="circle144"/>
	<circle cx="334.667" cy="4" r="4" fill="#0" id="circle145"/>
	<circle cx="336.354" cy="126.313" r="4" fill="#0" id="circle146"/>
	<circle cx="339.728" cy="42.8027" r="4" fill="#0" id="circle147"/>
	<circle cx="339.728" cy="515.184" r="4" fill="#0" id="circle148"/>
	<circle cx="343.102" cy="4" r="4" fill="#0" id="circle149"/>
	<circle cx="344.789" cy="126.313" r="4" fill="#0" id="circle150"/>
	<circle cx="347.32" cy="47.0204" r="4" fill="#0" id="circle151"/>
	<circle cx="348.163" cy="515.184" r="4" fill="#0" id="circle152"/>
	<circle cx="351.537" cy="4" r="4" fill="#0" id="circle153"/>
	<circle cx="353.224" cy="126.313" r="4" fill="#0" id="circle154"/>
	<circle cx="354.912" cy="51.2381" r="4" fill="#0" id="circle155"/>
	<circle cx="356.599" cy="515.184" r="4" fill="#0" id="circle156"/>
	<circle cx="358.286" cy="59.6735" r="4" fill="#0" id="circle157"/>
	<circle cx="358.286" cy="68.1088" r="4" fill="#0" id="circle158"/>
	<circle cx="358.286" cy="76.5442" r="4" fill="#0" id="circle159"/>
	<circle cx="358.286" cy="84.9796" r="4" fill="#0" id="circle160"/>
	<circle cx="358.286" cy="93.415" r="4" fill="#0" id="circle161"/>
	<circle cx="359.973" cy="4" r="4" fill="#0" id="circle162"/>
	<circle cx="360.816" cy="101.85" r="4" fill="#0" id="circle163"/>
	<circle cx="361.66" cy="126.313" r="4" fill="#0" id="circle164"/>
	<circle cx="365.034" cy="515.184" r="4" fill="#0" id="circle165"/>
	<circle cx="367.565" cy="107.755" r="4" fill="#0" id="circle166"/>
	<circle cx="368.408" cy="4" r="4" fill="#0" id="circle167"/>
	<circle cx="370.095" cy="126.313" r="4" fill="#0" id="circle168"/>
	<circle cx="372.626" cy="510.966" r="4" fill="#0" id="circle169"/>
	<circle cx="376" cy="110.286" r="4" fill="#0" id="circle170"/>
	<circle cx="376" cy="119.565" r="4" fill="#0" id="circle171"/>
	<circle cx="376.844" cy="4" r="4" fill="#0" id="circle172"/>
	<circle cx="381.061" cy="510.966" r="4" fill="#0" id="circle173"/>
	<circle cx="385.279" cy="4" r="4" fill="#0" id="circle174"/>
	<circle cx="389.497" cy="510.966" r="4" fill="#0" id="circle175"/>
	<circle cx="393.714" cy="4" r="4" fill="#0" id="circle176"/>
	<circle cx="397.932" cy="510.966" r="4" fill="#0" id="circle177"/>
	<circle cx="402.15" cy="4" r="4" fill="#0" id="circle178"/>
	<circle cx="406.367" cy="510.966" r="4" fill="#0" id="circle179"/>
	<circle cx="409.741" cy="8.21769" r="4" fill="#0" id="circle180"/>
	<circle cx="409.741" cy="42.8027" r="4" fill="#0" id="circle181"/>
	<circle cx="409.741" cy="51.2381" r="4" fill="#0" id="circle182"/>
	<circle cx="411.429" cy="59.6735" r="4" fill="#0" id="circle183"/>
	<circle cx="413.959" cy="506.748" r="4" fill="#0" id="circle184"/>
	<circle cx="418.177" cy="10.7483" r="4" fill="#0" id="circle185"/>
	<circle cx="418.177" cy="38.585" r="4" fill="#0" id="circle186"/>
	<circle cx="418.177" cy="65.5782" r="4" fill="#0" id="circle187"/>
	<circle cx="418.177" cy="89.1973" r="4" fill="#0" id="circle188"/>
	<circle cx="418.177" cy="97.6327" r="4" fill="#0" id="circle189"/>
	<circle cx="418.177" cy="106.068" r="4" fill="#0" id="circle190"/>
	<circle cx="418.177" cy="114.503" r="4" fill="#0" id="circle191"/>
	<circle cx="418.177" cy="122.939" r="4" fill="#0" id="circle192"/>
	<circle cx="418.177" cy="131.374" r="4" fill="#0" id="circle193"/>
	<circle cx="421.551" cy="74.0136" r="4" fill="#0" id="circle194"/>
	<circle cx="422.395" cy="506.748" r="4" fill="#0" id="circle195"/>
	<circle cx="425.769" cy="14.966" r="4" fill="#0" id="circle196"/>
	<circle cx="426.612" cy="34.3673" r="4" fill="#0" id="circle197"/>
	<circle cx="426.612" cy="134.748" r="4" fill="#0" id="circle198"/>
	<circle cx="430.83" cy="506.748" r="4" fill="#0" id="circle199"/>
	<circle cx="432.517" cy="20.8707" r="4" fill="#0" id="circle200"/>
	<circle cx="433.361" cy="29.3061" r="4" fill="#0" id="circle201"/>
	<circle cx="435.048" cy="134.748" r="4" fill="#0" id="circle202"/>
	<circle cx="439.265" cy="506.748" r="4" fill="#0" id="circle203"/>
	<circle cx="443.483" cy="134.748" r="4" fill="#0" id="circle204"/>
	<circle cx="447.701" cy="502.531" r="4" fill="#0" id="circle205"/>
	<circle cx="451.075" cy="124.626" r="4" fill="#0" id="circle206"/>
	<circle cx="456.136" cy="494.095" r="4" fill="#0" id="circle207"/>
	<circle cx="457.823" cy="117.878" r="4" fill="#0" id="circle208"/>
	<circle cx="460.354" cy="447.701" r="4" fill="#0" id="circle209"/>
	<circle cx="460.354" cy="456.136" r="4" fill="#0" id="circle210"/>
	<circle cx="460.354" cy="464.571" r="4" fill="#0" id="circle211"/>
	<circle cx="460.354" cy="473.007" r="4" fill="#0" id="circle212"/>
	<circle cx="460.354" cy="481.442" r="4" fill="#0" id="circle213"/>
	<circle cx="465.415" cy="113.66" r="4" fill="#0" id="circle214"/>
	<circle cx="468.789" cy="443.483" r="4" fill="#0" id="circle215"/>
	<circle cx="473.85" cy="113.66" r="4" fill="#0" id="circle216"/>
	<circle cx="477.224" cy="443.483" r="4" fill="#0" id="circle217"/>
	<circle cx="482.286" cy="113.66" r="4" fill="#0" id="circle218"/>
	<circle cx="485.66" cy="443.483" r="4" fill="#0" id="circle219"/>
	<circle cx="490.721" cy="113.66" r="4" fill="#0" id="circle220"/>
	<circle cx="493.252" cy="439.265" r="4" fill="#0" id="circle221"/>
	<circle cx="499.156" cy="113.66" r="4" fill="#0" id="circle222"/>
	<circle cx="501.687" cy="436.735" r="4" fill="#0" id="circle223"/>
	<circle cx="507.592" cy="113.66" r="4" fill="#0" id="circle224"/>
	<circle cx="510.122" cy="435.048" r="4" fill="#0" id="circle225"/>
	<circle cx="516.027" cy="113.66" r="4" fill="#0" id="circle226"/>
	<circle cx="517.714" cy="430.83" r="4" fill="#0" id="circle227"/>
	<circle cx="524.463" cy="113.66" r="4" fill="#0" id="circle228"/>
	<circle cx="526.15" cy="430.83" r="4" fill="#0" id="circle229"/>
	<circle cx="532.898" cy="113.66" r="4" fill="#0" id="circle230"/>
	<circle cx="534.585" cy="430.83" r="4" fill="#0" id="circle231"/>
	<circle cx="540.49" cy="117.878" r="4" fill="#0" id="circle232"/>
	<circle cx="543.02" cy="430.83" r="4" fill="#0" id="circle233"/>
	<circle cx="548.925" cy="117.878" r="4" fill="#0" id="circle234"/>
	<circle cx="551.456" cy="430.83" r="4" fill="#0" id="circle235"/>
	<circle cx="557.361" cy="120.408" r="4" fill="#0" id="circle236"/>
	<circle cx="559.891" cy="430.83" r="4" fill="#0" id="circle237"/>
	<circle cx="565.796" cy="122.095" r="4" fill="#0" id="circle238"/>
	<circle cx="568.327" cy="430.83" r="4" fill="#0" id="circle239"/>
	<circle cx="574.231" cy="122.095" r="4" fill="#0" id="circle240"/>
	<circle cx="576.762" cy="430.83" r="4" fill="#0" id="circle241"/>
	<circle cx="578.449" cy="190.422" r="4" fill="#0" id="circle242"/>
	<circle cx="581.823" cy="126.313" r="4" fill="#0" id="circle243"/>
	<circle cx="584.354" cy="426.612" r="4" fill="#0" id="circle244"/>
	<circle cx="585.197" cy="195.483" r="4" fill="#0" id="circle245"/>
	<circle cx="590.259" cy="126.313" r="4" fill="#0" id="circle246"/>
	<circle cx="591.946" cy="190.422" r="4" fill="#0" id="circle247"/>
	<circle cx="592.789" cy="426.612" r="4" fill="#0" id="circle248"/>
	<circle cx="593.633" cy="198.857" r="4" fill="#0" id="circle249"/>
	<circle cx="598.694" cy="126.313" r="4" fill="#0" id="circle250"/>
	<circle cx="599.537" cy="186.204" r="4" fill="#0" id="circle251"/>
	<circle cx="601.224" cy="203.075" r="4" fill="#0" id="circle252"/>
	<circle cx="601.224" cy="426.612" r="4" fill="#0" id="circle253"/>
	<circle cx="603.755" cy="354.912" r="4" fill="#0" id="circle254"/>
	<circle cx="607.129" cy="126.313" r="4" fill="#0" id="circle255"/>
	<circle cx="607.973" cy="186.204" r="4" fill="#0" id="circle256"/>
	<circle cx="607.973" cy="208.98" r="4" fill="#0" id="circle257"/>
	<circle cx="607.973" cy="362.503" r="4" fill="#0" id="circle258"/>
	<circle cx="608.816" cy="422.395" r="4" fill="#0" id="circle259"/>
	<circle cx="611.347" cy="350.694" r="4" fill="#0" id="circle260"/>
	<circle cx="614.721" cy="214.884" r="4" fill="#0" id="circle261"/>
	<circle cx="615.565" cy="128" r="4" fill="#0" id="circle262"/>
	<circle cx="615.565" cy="358.286" r="4" fill="#0" id="circle263"/>
	<circle cx="616.408" cy="181.986" r="4" fill="#0" id="circle264"/>
	<circle cx="617.252" cy="422.395" r="4" fill="#0" id="circle265"/>
	<circle cx="619.782" cy="348.163" r="4" fill="#0" id="circle266"/>
	<circle cx="623.156" cy="214.884" r="4" fill="#0" id="circle267"/>
	<circle cx="624" cy="130.531" r="4" fill="#0" id="circle268"/>
	<circle cx="624" cy="359.973" r="4" fill="#0" id="circle269"/>
	<circle cx="624.844" cy="181.986" r="4" fill="#0" id="circle270"/>
	<circle cx="625.687" cy="422.395" r="4" fill="#0" id="circle271"/>
	<circle cx="628.218" cy="346.476" r="4" fill="#0" id="circle272"/>
	<circle cx="629.061" cy="366.721" r="4" fill="#0" id="circle273"/>
	<circle cx="631.592" cy="214.884" r="4" fill="#0" id="circle274"/>
	<circle cx="632.435" cy="130.531" r="4" fill="#0" id="circle275"/>
	<circle cx="633.279" cy="181.986" r="4" fill="#0" id="circle276"/>
	<circle cx="633.279" cy="374.313" r="4" fill="#0" id="circle277"/>
	<circle cx="633.279" cy="418.177" r="4" fill="#0" id="circle278"/>
	<circle cx="635.81" cy="342.259" r="4" fill="#0" id="circle279"/>
	<circle cx="637.497" cy="381.905" r="4" fill="#0" id="circle280"/>
	<circle cx="637.497" cy="390.34" r="4" fill="#0" id="circle281"/>
	<circle cx="640.027" cy="214.884" r="4" fill="#0" id="circle282"/>
	<circle cx="640.027" cy="412.272" r="4" fill="#0" id="circle283"/>
	<circle cx="640.871" cy="130.531" r="4" fill="#0" id="circle284"/>
	<circle cx="640.871" cy="177.769" r="4" fill="#0" id="circle285"/>
	<circle cx="641.714" cy="397.932" r="4" fill="#0" id="circle286"/>
	<circle cx="644.245" cy="340.571" r="4" fill="#0" id="circle287"/>
	<circle cx="645.932" cy="405.524" r="4" fill="#0" id="circle288"/>
	<circle cx="648.463" cy="214.884" r="4" fill="#0" id="circle289"/>
	<circle cx="649.306" cy="130.531" r="4" fill="#0" id="circle290"/>
	<circle cx="649.306" cy="177.769" r="4" fill="#0" id="circle291"/>
	<circle cx="652.68" cy="336.354" r="4" fill="#0" id="circle292"/>
	<circle cx="656.898" cy="214.884" r="4" fill="#0" id="circle293"/>
	<circle cx="657.741" cy="132.218" r="4" fill="#0" id="circle294"/>
	<circle cx="657.741" cy="175.238" r="4" fill="#0" id="circle295"/>
	<circle cx="658.585" cy="329.605" r="4" fill="#0" id="circle296"/>
	<circle cx="664.49" cy="168.49" r="4" fill="#0" id="circle297"/>
	<circle cx="665.333" cy="136.435" r="4" fill="#0" id="circle298"/>
	<circle cx="665.333" cy="214.884" r="4" fill="#0" id="circle299"/>
	<circle cx="667.02" cy="325.388" r="4" fill="#0" id="circle300"/>
	<circle cx="668.707" cy="160.054" r="4" fill="#0" id="circle301"/>
	<circle cx="669.551" cy="144.027" r="4" fill="#0" id="circle302"/>
	<circle cx="672.925" cy="210.667" r="4" fill="#0" id="circle303"/>
	<circle cx="675.456" cy="325.388" r="4" fill="#0" id="circle304"/>
	<circle cx="681.361" cy="210.667" r="4" fill="#0" id="circle305"/>
	<circle cx="683.048" cy="321.17" r="4" fill="#0" id="circle306"/>
	<circle cx="689.796" cy="210.667" r="4" fill="#0" id="circle307"/>
	<circle cx="690.639" cy="316.952" r="4" fill="#0" id="circle308"/>
	<circle cx="698.231" cy="210.667" r="4" fill="#0" id="circle309"/>
	<circle cx="698.231" cy="312.735" r="4" fill="#0" id="circle310"/>
	<circle cx="705.823" cy="308.517" r="4" fill="#0" id="circle311"/>
	<circle cx="706.667" cy="210.667" r="4" fill="#0" id="circle312"/>
	<circle cx="713.415" cy="304.299" r="4" fill="#0" id="circle313"/>
	<circle cx="715.102" cy="210.667" r="4" fill="#0" id="circle314"/>
	<circle cx="721.85" cy="304.299" r="4" fill="#0" id="circle315"/>
	<circle cx="723.537" cy="210.667" r="4" fill="#0" id="circle316"/>
	<circle cx="730.286" cy="304.299" r="4" fill="#0" id="circle317"/>
	<circle cx="731.973" cy="210.667" r="4" fill="#0" id="circle318"/>
	<circle cx="737.878" cy="300.082" r="4" fill="#0" id="circle319"/>
	<circle cx="739.565" cy="206.449" r="4" fill="#0" id="circle320"/>
	<circle cx="746.313" cy="297.551" r="4" fill="#0" id="circle321"/>
	<circle cx="748" cy="206.449" r="4" fill="#0" id="circle322"/>
	<circle cx="754.748" cy="295.864" r="4" fill="#0" id="circle323"/>
	<circle cx="756.435" cy="206.449" r="4" fill="#0" id="circle324"/>
	<circle cx="763.184" cy="293.333" r="4" fill="#0" id="circle325"/>
	<circle cx="764.871" cy="206.449" r="4" fill="#0" id="circle326"/>
	<circle cx="771.619" cy="291.646" r="4" fill="#0" id="circle327"/>
	<circle cx="773.306" cy="206.449" r="4" fill="#0" id="circle328"/>
	<circle cx="779.211" cy="287.429" r="4" fill="#0" id="circle329"/>
	<circle cx="781.741" cy="206.449" r="4" fill="#0" id="circle330"/>
	<circle cx="786.803" cy="283.211" r="4" fill="#0" id="circle331"/>
	<circle cx="789.333" cy="202.231" r="4" fill="#0" id="circle332"/>
	<circle cx="795.238" cy="283.211" r="4" fill="#0" id="circle333"/>
	<circle cx="797.769" cy="202.231" r="4" fill="#0" id="circle334"/>
	<circle cx="802.83" cy="278.993" r="4" fill="#0" id="circle335"/>
	<circle cx="806.204" cy="202.231" r="4" fill="#0" id="circle336"/>
	<circle cx="811.265" cy="278.993" r="4" fill="#0" id="circle337"/>
	<circle cx="814.639" cy="199.701" r="4" fill="#0" id="circle338"/>
	<circle cx="818.857" cy="274.776" r="4" fill="#0" id="circle339"/>
	<circle cx="823.075" cy="198.014" r="4" fill="#0" id="circle340"/>
	<circle cx="827.293" cy="274.776" r="4" fill="#0" id="circle341"/>
	<circle cx="831.51" cy="195.483" r="4" fill="#0" id="circle342"/>
	<circle cx="834.884" cy="270.558" r="4" fill="#0" id="circle343"/>
	<circle cx="839.946" cy="193.796" r="4" fill="#0" id="circle344"/>
	<circle cx="843.32" cy="268.027" r="4" fill="#0" id="circle345"/>
	<circle cx="848.381" cy="191.265" r="4" fill="#0" id="circle346"/>
	<circle cx="851.755" cy="263.81" r="4" fill="#0" id="circle347"/>
	<circle cx="856.816" cy="187.048" r="4" fill="#0" id="circle348"/>
	<circle cx="860.19" cy="259.592" r="4" fill="#0" id="circle349"/>
	<circle cx="865.252" cy="185.361" r="4" fill="#0" id="circle350"/>
	<circle cx="868.626" cy="255.374" r="4" fill="#0" id="circle351"/>
	<circle cx="873.687" cy="182.83" r="4" fill="#0" id="circle352"/>
	<circle cx="877.061" cy="251.156" r="4" fill="#0" id="circle353"/>
	<circle cx="882.122" cy="181.143" r="4" fill="#0" id="circle354"/>
	<circle cx="885.497" cy="249.469" r="4" fill="#0" id="circle355"/>
	<circle cx="890.558" cy="181.143" r="4" fill="#0" id="circle356"/>
	<circle cx="893.088" cy="245.252" r="4" fill="#0" id="circle357"/>
	<circle cx="898.15" cy="176.925" r="4" fill="#0" id="circle358"/>
	<circle cx="900.68" cy="241.034" r="4" fill="#0" id="circle359"/>
	<circle cx="906.585" cy="176.925" r="4" fill="#0" id="circle360"/>
	<circle cx="909.116" cy="240.19" r="4" fill="#0" id="circle361"/>
	<circle cx="915.02" cy="176.925" r="4" fill="#0" id="circle362"/>
	<circle cx="917.551" cy="236.816" r="4" fill="#0" id="circle363"/>
	<circle cx="923.456" cy="176.925" r="4" fill="#0" id="circle364"/>
	<circle cx="925.986" cy="236.816" r="4" fill="#0" id="circle365"/>
	<circle cx="931.891" cy="176.925" r="4" fill="#0" id="circle366"/>
	<circle cx="934.422" cy="235.973" r="4" fill="#0" id="circle367"/>
	<circle cx="940.327" cy="176.925" r="4" fill="#0" id="circle368"/>
	<circle cx="942.857" cy="232.599" r="4" fill="#0" id="circle369"/>
	<circle cx="948.762" cy="176.925" r="4" fill="#0" id="circle370"/>
	<circle cx="950.449" cy="228.381" r="4" fill="#0" id="circle371"/>
	<circle cx="957.197" cy="176.925" r="4" fill="#0" id="circle372"/>
	<circle cx="958.884" cy="228.381" r="4" fill="#0" id="circle373"/>
	<circle cx="965.633" cy="176.925" r="4" fill="#0" id="circle374"/>
	<circle cx="967.32" cy="228.381" r="4" fill="#0" id="circle375"/>
	<circle cx="974.068" cy="176.925" r="4" fill="#0" id="circle376"/>
	<circle cx="974.912" cy="224.163" r="4" fill="#0" id="circle377"/>
	<circle cx="981.66" cy="181.143" r="4" fill="#0" id="circle378"/>
	<circle cx="983.347" cy="224.163" r="4" fill="#0" id="circle379"/>
	<circle cx="989.252" cy="185.361" r="4" fill="#0" id="circle380"/>
	<circle cx="990.095" cy="218.259" r="4" fill="#0" id="circle381"/>
	<circle cx="995.156" cy="192.109" r="4" fill="#0" id="circle382"/>
	<circle cx="996" cy="200.544" r="4" fill="#0" id="circle383"/>
	<circle cx="996" cy="208.98" r="4" fill="#0" id="circle384"/>
	</g>
</svg>