<?xml version="1.0" encoding="UTF-8" standalone="no"?>
<!-- Created with CurveBenchmark -->
<svg
	xmlns:dc="http://purl.org/dc/elements/1.1/"
	xmlns:cc="http://creativecommons.org/ns#"
	xmlns:rdf="http://www.w3.org/1999/02/22-rdf-syntax-ns#"
	xmlns:svg="http://www.w3.org/2000/svg"
	xmlns="http://www.w3.org/2000/svg"
	xmlns:sodipodi="http://sodipodi.sourceforge.net/DTD/sodipodi-0.dtd"
	xmlns:inkscape="http://www.inkscape.org/namespaces/inkscape"
	width="1000"
	height="1000"
	id="svg2"
	version="1.1"
	sodipodi:docname="manifold/discur-lmfish-20.png.txt">
<defs
	id="defs4" />
<metadata
	id="metadata7">
	<rdf:RDF>
		<cc:Work
			rdf:about="">
			<dc:format>image/svg+xml</dc:format>
			<dc:type
				rdf:resource="http://purl.org/dc/dcmitype/StillImage" />
			<dc:title></dc:title>
		</cc:Work>
	</rdf:RDF>
</metadata>
<g
	inkscape:label="Layer 1"
	inkscape:groupmode="layer"
	id="layer1">
	<path style="fill:none;stroke:red;stroke-width:1px;stroke-linecap:butt;stroke-linejoin:miter;stroke-opacity:1" d="M 4,132.259 4,142.279 z" id="boundary" inkscape:connector-curvature="0" />
	<path style="fill:none;stroke:red;stroke-width:1px;stroke-linecap:butt;stroke-linejoin:miter;stroke-opacity:1" d="M 4,132.259 12.0162,124.242 z" id="boundary" inkscape:connector-curvature="0" />
	<path style="fill:none;stroke:red;stroke-width:1px;stroke-linecap:butt;stroke-linejoin:miter;stroke-opacity:1" d="M 4,142.279 9.0101,151.297 z" id="boundary" inkscape:connector-curvature="0" />
	<path style="fill:none;stroke:red;stroke-width:1px;stroke-linecap:butt;stroke-linejoin:miter;stroke-opacity:1" d="M 9.0101,151.297 9.0101,161.317 z" id="boundary" inkscape:connector-curvature="0" />
	<path style="fill:none;stroke:red;stroke-width:1px;stroke-linecap:butt;stroke-linejoin:miter;stroke-opacity:1" d="M 9.0101,161.317 14.0202,170.335 z" id="boundary" inkscape:connector-curvature="0" />
	<path style="fill:none;stroke:red;stroke-width:1px;stroke-linecap:butt;stroke-linejoin:miter;stroke-opacity:1" d="M 12.0162,124.242 20.0323,116.226 z" id="boundary" inkscape:connector-curvature="0" />
	<path style="fill:none;stroke:red;stroke-width:1px;stroke-linecap:butt;stroke-linejoin:miter;stroke-opacity:1" d="M 14.0202,170.335 14.0202,180.356 z" id="boundary" inkscape:connector-curvature="0" />
	<path style="fill:none;stroke:red;stroke-width:1px;stroke-linecap:butt;stroke-linejoin:miter;stroke-opacity:1" d="M 14.0202,180.356 20.0323,188.372 z" id="boundary" inkscape:connector-curvature="0" />
	<path style="fill:none;stroke:red;stroke-width:1px;stroke-linecap:butt;stroke-linejoin:miter;stroke-opacity:1" d="M 20.0323,116.226 30.0525,111.216 z" id="boundary" inkscape:connector-curvature="0" />
	<path style="fill:none;stroke:red;stroke-width:1px;stroke-linecap:butt;stroke-linejoin:miter;stroke-opacity:1" d="M 20.0323,188.372 30.0525,192.38 z" id="boundary" inkscape:connector-curvature="0" />
	<path style="fill:none;stroke:red;stroke-width:1px;stroke-linecap:butt;stroke-linejoin:miter;stroke-opacity:1" d="M 30.0525,111.216 38.0687,104.202 z" id="boundary" inkscape:connector-curvature="0" />
	<path style="fill:none;stroke:red;stroke-width:1px;stroke-linecap:butt;stroke-linejoin:miter;stroke-opacity:1" d="M 30.0525,192.38 37.0667,200.396 z" id="boundary" inkscape:connector-curvature="0" />
	<path style="fill:none;stroke:red;stroke-width:1px;stroke-linecap:butt;stroke-linejoin:miter;stroke-opacity:1" d="M 37.0667,200.396 45.0828,207.41 z" id="boundary" inkscape:connector-curvature="0" />
	<path style="fill:none;stroke:red;stroke-width:1px;stroke-linecap:butt;stroke-linejoin:miter;stroke-opacity:1" d="M 38.0687,104.202 45.0828,96.1859 z" id="boundary" inkscape:connector-curvature="0" />
	<path style="fill:none;stroke:red;stroke-width:1px;stroke-linecap:butt;stroke-linejoin:miter;stroke-opacity:1" d="M 45.0828,96.1859 53.099,89.1717 z" id="boundary" inkscape:connector-curvature="0" />
	<path style="fill:none;stroke:red;stroke-width:1px;stroke-linecap:butt;stroke-linejoin:miter;stroke-opacity:1" d="M 45.0828,207.41 52.097,215.426 z" id="boundary" inkscape:connector-curvature="0" />
	<path style="fill:none;stroke:red;stroke-width:1px;stroke-linecap:butt;stroke-linejoin:miter;stroke-opacity:1" d="M 52.097,215.426 62.1172,215.426 z" id="boundary" inkscape:connector-curvature="0" />
	<path style="fill:none;stroke:red;stroke-width:1px;stroke-linecap:butt;stroke-linejoin:miter;stroke-opacity:1" d="M 53.099,89.1717 62.1172,84.1616 z" id="boundary" inkscape:connector-curvature="0" />
	<path style="fill:none;stroke:red;stroke-width:1px;stroke-linecap:butt;stroke-linejoin:miter;stroke-opacity:1" d="M 62.1172,84.1616 72.1374,79.1515 z" id="boundary" inkscape:connector-curvature="0" />
	<path style="fill:none;stroke:red;stroke-width:1px;stroke-linecap:butt;stroke-linejoin:miter;stroke-opacity:1" d="M 62.1172,215.426 72.1374,219.434 z" id="boundary" inkscape:connector-curvature="0" />
	<path style="fill:none;stroke:red;stroke-width:1px;stroke-linecap:butt;stroke-linejoin:miter;stroke-opacity:1" d="M 72.1374,79.1515 82.1576,79.1515 z" id="boundary" inkscape:connector-curvature="0" />
	<path style="fill:none;stroke:red;stroke-width:1px;stroke-linecap:butt;stroke-linejoin:miter;stroke-opacity:1" d="M 72.1374,219.434 80.1535,225.446 z" id="boundary" inkscape:connector-curvature="0" />
	<path style="fill:none;stroke:red;stroke-width:1px;stroke-linecap:butt;stroke-linejoin:miter;stroke-opacity:1" d="M 80.1535,225.446 90.1737,225.446 z" id="boundary" inkscape:connector-curvature="0" />
	<path style="fill:none;stroke:red;stroke-width:1px;stroke-linecap:butt;stroke-linejoin:miter;stroke-opacity:1" d="M 82.1576,79.1515 91.1758,74.1414 z" id="boundary" inkscape:connector-curvature="0" />
	<path style="fill:none;stroke:red;stroke-width:1px;stroke-linecap:butt;stroke-linejoin:miter;stroke-opacity:1" d="M 90.1737,225.446 100.194,227.451 z" id="boundary" inkscape:connector-curvature="0" />
	<path style="fill:none;stroke:red;stroke-width:1px;stroke-linecap:butt;stroke-linejoin:miter;stroke-opacity:1" d="M 91.1758,74.1414 101.196,70.1333 z" id="boundary" inkscape:connector-curvature="0" />
	<path style="fill:none;stroke:red;stroke-width:1px;stroke-linecap:butt;stroke-linejoin:miter;stroke-opacity:1" d="M 100.194,227.451 107.208,235.467 z" id="boundary" inkscape:connector-curvature="0" />
	<path style="fill:none;stroke:red;stroke-width:1px;stroke-linecap:butt;stroke-linejoin:miter;stroke-opacity:1" d="M 101.196,70.1333 111.216,69.1313 z" id="boundary" inkscape:connector-curvature="0" />
	<path style="fill:none;stroke:red;stroke-width:1px;stroke-linecap:butt;stroke-linejoin:miter;stroke-opacity:1" d="M 107.208,235.467 117.228,235.467 z" id="boundary" inkscape:connector-curvature="0" />
	<path style="fill:none;stroke:red;stroke-width:1px;stroke-linecap:butt;stroke-linejoin:miter;stroke-opacity:1" d="M 111.216,69.1313 121.236,69.1313 z" id="boundary" inkscape:connector-curvature="0" />
	<path style="fill:none;stroke:red;stroke-width:1px;stroke-linecap:butt;stroke-linejoin:miter;stroke-opacity:1" d="M 117.228,235.467 127.248,239.475 z" id="boundary" inkscape:connector-curvature="0" />
	<path style="fill:none;stroke:red;stroke-width:1px;stroke-linecap:butt;stroke-linejoin:miter;stroke-opacity:1" d="M 121.236,69.1313 131.257,69.1313 z" id="boundary" inkscape:connector-curvature="0" />
	<path style="fill:none;stroke:red;stroke-width:1px;stroke-linecap:butt;stroke-linejoin:miter;stroke-opacity:1" d="M 127.248,239.475 135.265,245.487 z" id="boundary" inkscape:connector-curvature="0" />
	<path style="fill:none;stroke:red;stroke-width:1px;stroke-linecap:butt;stroke-linejoin:miter;stroke-opacity:1" d="M 131.257,69.1313 141.277,69.1313 z" id="boundary" inkscape:connector-curvature="0" />
	<path style="fill:none;stroke:red;stroke-width:1px;stroke-linecap:butt;stroke-linejoin:miter;stroke-opacity:1" d="M 135.265,245.487 145.285,245.487 z" id="boundary" inkscape:connector-curvature="0" />
	<path style="fill:none;stroke:red;stroke-width:1px;stroke-linecap:butt;stroke-linejoin:miter;stroke-opacity:1" d="M 141.277,69.1313 151.297,69.1313 z" id="boundary" inkscape:connector-curvature="0" />
	<path style="fill:none;stroke:red;stroke-width:1px;stroke-linecap:butt;stroke-linejoin:miter;stroke-opacity:1" d="M 145.285,245.487 155.305,247.491 z" id="boundary" inkscape:connector-curvature="0" />
	<path style="fill:none;stroke:red;stroke-width:1px;stroke-linecap:butt;stroke-linejoin:miter;stroke-opacity:1" d="M 151.297,69.1313 161.317,65.1232 z" id="boundary" inkscape:connector-curvature="0" />
	<path style="fill:none;stroke:red;stroke-width:1px;stroke-linecap:butt;stroke-linejoin:miter;stroke-opacity:1" d="M 155.305,247.491 165.325,250.497 z" id="boundary" inkscape:connector-curvature="0" />
	<path style="fill:none;stroke:red;stroke-width:1px;stroke-linecap:butt;stroke-linejoin:miter;stroke-opacity:1" d="M 161.317,65.1232 171.337,69.1313 z" id="boundary" inkscape:connector-curvature="0" />
	<path style="fill:none;stroke:red;stroke-width:1px;stroke-linecap:butt;stroke-linejoin:miter;stroke-opacity:1" d="M 165.325,250.497 174.343,255.507 z" id="boundary" inkscape:connector-curvature="0" />
	<path style="fill:none;stroke:red;stroke-width:1px;stroke-linecap:butt;stroke-linejoin:miter;stroke-opacity:1" d="M 171.337,69.1313 181.358,69.1313 z" id="boundary" inkscape:connector-curvature="0" />
	<path style="fill:none;stroke:red;stroke-width:1px;stroke-linecap:butt;stroke-linejoin:miter;stroke-opacity:1" d="M 174.343,255.507 184.364,255.507 z" id="boundary" inkscape:connector-curvature="0" />
	<path style="fill:none;stroke:red;stroke-width:1px;stroke-linecap:butt;stroke-linejoin:miter;stroke-opacity:1" d="M 181.358,69.1313 191.378,69.1313 z" id="boundary" inkscape:connector-curvature="0" />
	<path style="fill:none;stroke:red;stroke-width:1px;stroke-linecap:butt;stroke-linejoin:miter;stroke-opacity:1" d="M 184.364,255.507 193.382,260.517 z" id="boundary" inkscape:connector-curvature="0" />
	<path style="fill:none;stroke:red;stroke-width:1px;stroke-linecap:butt;stroke-linejoin:miter;stroke-opacity:1" d="M 191.378,69.1313 201.398,69.1313 z" id="boundary" inkscape:connector-curvature="0" />
	<path style="fill:none;stroke:red;stroke-width:1px;stroke-linecap:butt;stroke-linejoin:miter;stroke-opacity:1" d="M 193.382,260.517 203.402,260.517 z" id="boundary" inkscape:connector-curvature="0" />
	<path style="fill:none;stroke:red;stroke-width:1px;stroke-linecap:butt;stroke-linejoin:miter;stroke-opacity:1" d="M 201.398,69.1313 211.418,69.1313 z" id="boundary" inkscape:connector-curvature="0" />
	<path style="fill:none;stroke:red;stroke-width:1px;stroke-linecap:butt;stroke-linejoin:miter;stroke-opacity:1" d="M 203.402,260.517 212.42,265.527 z" id="boundary" inkscape:connector-curvature="0" />
	<path style="fill:none;stroke:red;stroke-width:1px;stroke-linecap:butt;stroke-linejoin:miter;stroke-opacity:1" d="M 211.418,69.1313 221.438,69.1313 z" id="boundary" inkscape:connector-curvature="0" />
	<path style="fill:none;stroke:red;stroke-width:1px;stroke-linecap:butt;stroke-linejoin:miter;stroke-opacity:1" d="M 212.42,265.527 221.438,270.537 z" id="boundary" inkscape:connector-curvature="0" />
	<path style="fill:none;stroke:red;stroke-width:1px;stroke-linecap:butt;stroke-linejoin:miter;stroke-opacity:1" d="M 221.438,69.1313 231.459,69.1313 z" id="boundary" inkscape:connector-curvature="0" />
	<path style="fill:none;stroke:red;stroke-width:1px;stroke-linecap:butt;stroke-linejoin:miter;stroke-opacity:1" d="M 221.438,270.537 229.455,276.549 z" id="boundary" inkscape:connector-curvature="0" />
	<path style="fill:none;stroke:red;stroke-width:1px;stroke-linecap:butt;stroke-linejoin:miter;stroke-opacity:1" d="M 229.455,276.549 236.469,284.566 z" id="boundary" inkscape:connector-curvature="0" />
	<path style="fill:none;stroke:red;stroke-width:1px;stroke-linecap:butt;stroke-linejoin:miter;stroke-opacity:1" d="M 231.459,69.1313 241.479,69.1313 z" id="boundary" inkscape:connector-curvature="0" />
	<path style="fill:none;stroke:red;stroke-width:1px;stroke-linecap:butt;stroke-linejoin:miter;stroke-opacity:1" d="M 236.469,284.566 244.485,290.578 z" id="boundary" inkscape:connector-curvature="0" />
	<path style="fill:none;stroke:red;stroke-width:1px;stroke-linecap:butt;stroke-linejoin:miter;stroke-opacity:1" d="M 241.479,69.1313 251.499,69.1313 z" id="boundary" inkscape:connector-curvature="0" />
	<path style="fill:none;stroke:red;stroke-width:1px;stroke-linecap:butt;stroke-linejoin:miter;stroke-opacity:1" d="M 244.485,290.578 250.497,298.594 z" id="boundary" inkscape:connector-curvature="0" />
	<path style="fill:none;stroke:red;stroke-width:1px;stroke-linecap:butt;stroke-linejoin:miter;stroke-opacity:1" d="M 250.497,298.594 260.517,300.598 z" id="boundary" inkscape:connector-curvature="0" />
	<path style="fill:none;stroke:red;stroke-width:1px;stroke-linecap:butt;stroke-linejoin:miter;stroke-opacity:1" d="M 251.499,69.1313 260.517,74.1414 z" id="boundary" inkscape:connector-curvature="0" />
	<path style="fill:none;stroke:red;stroke-width:1px;stroke-linecap:butt;stroke-linejoin:miter;stroke-opacity:1" d="M 260.517,74.1414 270.537,74.1414 z" id="boundary" inkscape:connector-curvature="0" />
	<path style="fill:none;stroke:red;stroke-width:1px;stroke-linecap:butt;stroke-linejoin:miter;stroke-opacity:1" d="M 260.517,300.598 269.535,305.608 z" id="boundary" inkscape:connector-curvature="0" />
	<path style="fill:none;stroke:red;stroke-width:1px;stroke-linecap:butt;stroke-linejoin:miter;stroke-opacity:1" d="M 269.535,305.608 279.556,305.608 z" id="boundary" inkscape:connector-curvature="0" />
	<path style="fill:none;stroke:red;stroke-width:1px;stroke-linecap:butt;stroke-linejoin:miter;stroke-opacity:1" d="M 270.537,74.1414 280.558,74.1414 z" id="boundary" inkscape:connector-curvature="0" />
	<path style="fill:none;stroke:red;stroke-width:1px;stroke-linecap:butt;stroke-linejoin:miter;stroke-opacity:1" d="M 279.556,305.608 289.576,305.608 z" id="boundary" inkscape:connector-curvature="0" />
	<path style="fill:none;stroke:red;stroke-width:1px;stroke-linecap:butt;stroke-linejoin:miter;stroke-opacity:1" d="M 280.558,74.1414 289.576,69.1313 z" id="boundary" inkscape:connector-curvature="0" />
	<path style="fill:none;stroke:red;stroke-width:1px;stroke-linecap:butt;stroke-linejoin:miter;stroke-opacity:1" d="M 289.576,69.1313 298.594,64.1212 z" id="boundary" inkscape:connector-curvature="0" />
	<path style="fill:none;stroke:red;stroke-width:1px;stroke-linecap:butt;stroke-linejoin:miter;stroke-opacity:1" d="M 289.576,305.608 298.594,310.618 z" id="boundary" inkscape:connector-curvature="0" />
	<path style="fill:none;stroke:red;stroke-width:1px;stroke-linecap:butt;stroke-linejoin:miter;stroke-opacity:1" d="M 298.594,64.1212 305.608,56.1051 z" id="boundary" inkscape:connector-curvature="0" />
	<path style="fill:none;stroke:red;stroke-width:1px;stroke-linecap:butt;stroke-linejoin:miter;stroke-opacity:1" d="M 298.594,310.618 308.614,310.618 z" id="boundary" inkscape:connector-curvature="0" />
	<path style="fill:none;stroke:red;stroke-width:1px;stroke-linecap:butt;stroke-linejoin:miter;stroke-opacity:1" d="M 300.598,275.547 305.608,284.566 z" id="boundary" inkscape:connector-curvature="0" />
	<path style="fill:none;stroke:red;stroke-width:1px;stroke-linecap:butt;stroke-linejoin:miter;stroke-opacity:1" d="M 300.598,275.547 310.618,275.547 z" id="boundary" inkscape:connector-curvature="0" />
	<path style="fill:none;stroke:red;stroke-width:1px;stroke-linecap:butt;stroke-linejoin:miter;stroke-opacity:1" d="M 305.608,56.1051 313.624,49.0909 z" id="boundary" inkscape:connector-curvature="0" />
	<path style="fill:none;stroke:red;stroke-width:1px;stroke-linecap:butt;stroke-linejoin:miter;stroke-opacity:1" d="M 305.608,284.566 315.628,284.566 z" id="boundary" inkscape:connector-curvature="0" />
	<path style="fill:none;stroke:red;stroke-width:1px;stroke-linecap:butt;stroke-linejoin:miter;stroke-opacity:1" d="M 308.614,310.618 317.632,315.628 z" id="boundary" inkscape:connector-curvature="0" />
	<path style="fill:none;stroke:red;stroke-width:1px;stroke-linecap:butt;stroke-linejoin:miter;stroke-opacity:1" d="M 310.618,275.547 320.638,275.547 z" id="boundary" inkscape:connector-curvature="0" />
	<path style="fill:none;stroke:red;stroke-width:1px;stroke-linecap:butt;stroke-linejoin:miter;stroke-opacity:1" d="M 313.624,49.0909 322.642,44.0808 z" id="boundary" inkscape:connector-curvature="0" />
	<path style="fill:none;stroke:red;stroke-width:1px;stroke-linecap:butt;stroke-linejoin:miter;stroke-opacity:1" d="M 315.628,284.566 323.644,290.578 z" id="boundary" inkscape:connector-curvature="0" />
	<path style="fill:none;stroke:red;stroke-width:1px;stroke-linecap:butt;stroke-linejoin:miter;stroke-opacity:1" d="M 317.632,315.628 327.653,319.636 z" id="boundary" inkscape:connector-curvature="0" />
	<path style="fill:none;stroke:red;stroke-width:1px;stroke-linecap:butt;stroke-linejoin:miter;stroke-opacity:1" d="M 320.638,275.547 330.659,277.552 z" id="boundary" inkscape:connector-curvature="0" />
	<path style="fill:none;stroke:red;stroke-width:1px;stroke-linecap:butt;stroke-linejoin:miter;stroke-opacity:1" d="M 322.642,44.0808 332.663,39.0707 z" id="boundary" inkscape:connector-curvature="0" />
	<path style="fill:none;stroke:red;stroke-width:1px;stroke-linecap:butt;stroke-linejoin:miter;stroke-opacity:1" d="M 323.644,290.578 327.653,300.598 z" id="boundary" inkscape:connector-curvature="0" />
	<path style="fill:none;stroke:red;stroke-width:1px;stroke-linecap:butt;stroke-linejoin:miter;stroke-opacity:1" d="M 327.653,300.598 337.673,304.606 z" id="boundary" inkscape:connector-curvature="0" />
	<path style="fill:none;stroke:red;stroke-width:1px;stroke-linecap:butt;stroke-linejoin:miter;stroke-opacity:1" d="M 327.653,319.636 335.669,325.648 z" id="boundary" inkscape:connector-curvature="0" />
	<path style="fill:none;stroke:red;stroke-width:1px;stroke-linecap:butt;stroke-linejoin:miter;stroke-opacity:1" d="M 330.659,277.552 340.679,280.558 z" id="boundary" inkscape:connector-curvature="0" />
	<path style="fill:none;stroke:red;stroke-width:1px;stroke-linecap:butt;stroke-linejoin:miter;stroke-opacity:1" d="M 332.663,39.0707 339.677,27.0465 z" id="boundary" inkscape:connector-curvature="0" />
	<path style="fill:none;stroke:red;stroke-width:1px;stroke-linecap:butt;stroke-linejoin:miter;stroke-opacity:1" d="M 335.669,325.648 345.689,327.653 z" id="boundary" inkscape:connector-curvature="0" />
	<path style="fill:none;stroke:red;stroke-width:1px;stroke-linecap:butt;stroke-linejoin:miter;stroke-opacity:1" d="M 337.673,304.606 346.691,309.616 z" id="boundary" inkscape:connector-curvature="0" />
	<path style="fill:none;stroke:red;stroke-width:1px;stroke-linecap:butt;stroke-linejoin:miter;stroke-opacity:1" d="M 339.677,27.0465 347.693,19.0303 z" id="boundary" inkscape:connector-curvature="0" />
	<path style="fill:none;stroke:red;stroke-width:1px;stroke-linecap:butt;stroke-linejoin:miter;stroke-opacity:1" d="M 340.679,280.558 350.699,280.558 z" id="boundary" inkscape:connector-curvature="0" />
	<path style="fill:none;stroke:red;stroke-width:1px;stroke-linecap:butt;stroke-linejoin:miter;stroke-opacity:1" d="M 345.689,327.653 354.707,332.663 z" id="boundary" inkscape:connector-curvature="0" />
	<path style="fill:none;stroke:red;stroke-width:1px;stroke-linecap:butt;stroke-linejoin:miter;stroke-opacity:1" d="M 346.691,309.616 355.709,314.626 z" id="boundary" inkscape:connector-curvature="0" />
	<path style="fill:none;stroke:red;stroke-width:1px;stroke-linecap:butt;stroke-linejoin:miter;stroke-opacity:1" d="M 347.693,19.0303 357.713,19.0303 z" id="boundary" inkscape:connector-curvature="0" />
	<path style="fill:none;stroke:red;stroke-width:1px;stroke-linecap:butt;stroke-linejoin:miter;stroke-opacity:1" d="M 350.699,280.558 359.717,285.568 z" id="boundary" inkscape:connector-curvature="0" />
	<path style="fill:none;stroke:red;stroke-width:1px;stroke-linecap:butt;stroke-linejoin:miter;stroke-opacity:1" d="M 354.707,332.663 364.727,335.669 z" id="boundary" inkscape:connector-curvature="0" />
	<path style="fill:none;stroke:red;stroke-width:1px;stroke-linecap:butt;stroke-linejoin:miter;stroke-opacity:1" d="M 355.709,314.626 364.727,319.636 z" id="boundary" inkscape:connector-curvature="0" />
	<path style="fill:none;stroke:red;stroke-width:1px;stroke-linecap:butt;stroke-linejoin:miter;stroke-opacity:1" d="M 357.713,19.0303 365.729,11.0141 z" id="boundary" inkscape:connector-curvature="0" />
	<path style="fill:none;stroke:red;stroke-width:1px;stroke-linecap:butt;stroke-linejoin:miter;stroke-opacity:1" d="M 359.717,285.568 368.735,280.558 z" id="boundary" inkscape:connector-curvature="0" />
	<path style="fill:none;stroke:red;stroke-width:1px;stroke-linecap:butt;stroke-linejoin:miter;stroke-opacity:1" d="M 364.727,319.636 374.747,321.64 z" id="boundary" inkscape:connector-curvature="0" />
	<path style="fill:none;stroke:red;stroke-width:1px;stroke-linecap:butt;stroke-linejoin:miter;stroke-opacity:1" d="M 364.727,335.669 373.745,340.679 z" id="boundary" inkscape:connector-curvature="0" />
	<path style="fill:none;stroke:red;stroke-width:1px;stroke-linecap:butt;stroke-linejoin:miter;stroke-opacity:1" d="M 365.729,11.0141 375.749,9.0101 z" id="boundary" inkscape:connector-curvature="0" />
	<path style="fill:none;stroke:red;stroke-width:1px;stroke-linecap:butt;stroke-linejoin:miter;stroke-opacity:1" d="M 368.735,280.558 378.756,280.558 z" id="boundary" inkscape:connector-curvature="0" />
	<path style="fill:none;stroke:red;stroke-width:1px;stroke-linecap:butt;stroke-linejoin:miter;stroke-opacity:1" d="M 373.745,340.679 382.764,345.689 z" id="boundary" inkscape:connector-curvature="0" />
	<path style="fill:none;stroke:red;stroke-width:1px;stroke-linecap:butt;stroke-linejoin:miter;stroke-opacity:1" d="M 374.747,321.64 380.76,329.657 z" id="boundary" inkscape:connector-curvature="0" />
	<path style="fill:none;stroke:red;stroke-width:1px;stroke-linecap:butt;stroke-linejoin:miter;stroke-opacity:1" d="M 375.749,9.0101 385.77,6.00404 z" id="boundary" inkscape:connector-curvature="0" />
	<path style="fill:none;stroke:red;stroke-width:1px;stroke-linecap:butt;stroke-linejoin:miter;stroke-opacity:1" d="M 378.756,280.558 387.774,285.568 z" id="boundary" inkscape:connector-curvature="0" />
	<path style="fill:none;stroke:red;stroke-width:1px;stroke-linecap:butt;stroke-linejoin:miter;stroke-opacity:1" d="M 380.76,329.657 390.78,329.657 z" id="boundary" inkscape:connector-curvature="0" />
	<path style="fill:none;stroke:red;stroke-width:1px;stroke-linecap:butt;stroke-linejoin:miter;stroke-opacity:1" d="M 382.764,345.689 392.784,344.687 z" id="boundary" inkscape:connector-curvature="0" />
	<path style="fill:none;stroke:red;stroke-width:1px;stroke-linecap:butt;stroke-linejoin:miter;stroke-opacity:1" d="M 385.77,6.00404 395.79,4 z" id="boundary" inkscape:connector-curvature="0" />
	<path style="fill:none;stroke:red;stroke-width:1px;stroke-linecap:butt;stroke-linejoin:miter;stroke-opacity:1" d="M 387.774,285.568 397.794,285.568 z" id="boundary" inkscape:connector-curvature="0" />
	<path style="fill:none;stroke:red;stroke-width:1px;stroke-linecap:butt;stroke-linejoin:miter;stroke-opacity:1" d="M 390.78,329.657 392.784,344.687 z" id="boundary" inkscape:connector-curvature="0" />
	<path style="fill:none;stroke:red;stroke-width:1px;stroke-linecap:butt;stroke-linejoin:miter;stroke-opacity:1" d="M 395.79,4 405.81,7.00606 z" id="boundary" inkscape:connector-curvature="0" />
	<path style="fill:none;stroke:red;stroke-width:1px;stroke-linecap:butt;stroke-linejoin:miter;stroke-opacity:1" d="M 397.794,285.568 407.814,285.568 z" id="boundary" inkscape:connector-curvature="0" />
	<path style="fill:none;stroke:red;stroke-width:1px;stroke-linecap:butt;stroke-linejoin:miter;stroke-opacity:1" d="M 405.81,7.00606 415.83,9.0101 z" id="boundary" inkscape:connector-curvature="0" />
	<path style="fill:none;stroke:red;stroke-width:1px;stroke-linecap:butt;stroke-linejoin:miter;stroke-opacity:1" d="M 407.814,285.568 417.834,285.568 z" id="boundary" inkscape:connector-curvature="0" />
	<path style="fill:none;stroke:red;stroke-width:1px;stroke-linecap:butt;stroke-linejoin:miter;stroke-opacity:1" d="M 415.83,9.0101 425.851,9.0101 z" id="boundary" inkscape:connector-curvature="0" />
	<path style="fill:none;stroke:red;stroke-width:1px;stroke-linecap:butt;stroke-linejoin:miter;stroke-opacity:1" d="M 417.834,285.568 427.855,285.568 z" id="boundary" inkscape:connector-curvature="0" />
	<path style="fill:none;stroke:red;stroke-width:1px;stroke-linecap:butt;stroke-linejoin:miter;stroke-opacity:1" d="M 425.851,9.0101 435.871,12.0162 z" id="boundary" inkscape:connector-curvature="0" />
	<path style="fill:none;stroke:red;stroke-width:1px;stroke-linecap:butt;stroke-linejoin:miter;stroke-opacity:1" d="M 427.855,285.568 437.875,285.568 z" id="boundary" inkscape:connector-curvature="0" />
	<path style="fill:none;stroke:red;stroke-width:1px;stroke-linecap:butt;stroke-linejoin:miter;stroke-opacity:1" d="M 435.871,12.0162 445.891,14.0202 z" id="boundary" inkscape:connector-curvature="0" />
	<path style="fill:none;stroke:red;stroke-width:1px;stroke-linecap:butt;stroke-linejoin:miter;stroke-opacity:1" d="M 437.875,285.568 446.893,290.578 z" id="boundary" inkscape:connector-curvature="0" />
	<path style="fill:none;stroke:red;stroke-width:1px;stroke-linecap:butt;stroke-linejoin:miter;stroke-opacity:1" d="M 445.891,14.0202 453.907,20.0323 z" id="boundary" inkscape:connector-curvature="0" />
	<path style="fill:none;stroke:red;stroke-width:1px;stroke-linecap:butt;stroke-linejoin:miter;stroke-opacity:1" d="M 445.891,75.1434 445.891,85.1636 z" id="boundary" inkscape:connector-curvature="0" />
	<path style="fill:none;stroke:red;stroke-width:1px;stroke-linecap:butt;stroke-linejoin:miter;stroke-opacity:1" d="M 445.891,75.1434 453.907,68.1293 z" id="boundary" inkscape:connector-curvature="0" />
	<path style="fill:none;stroke:red;stroke-width:1px;stroke-linecap:butt;stroke-linejoin:miter;stroke-opacity:1" d="M 445.891,85.1636 450.901,94.1818 z" id="boundary" inkscape:connector-curvature="0" />
	<path style="fill:none;stroke:red;stroke-width:1px;stroke-linecap:butt;stroke-linejoin:miter;stroke-opacity:1" d="M 446.893,290.578 454.909,296.59 z" id="boundary" inkscape:connector-curvature="0" />
	<path style="fill:none;stroke:red;stroke-width:1px;stroke-linecap:butt;stroke-linejoin:miter;stroke-opacity:1" d="M 450.901,94.1818 460.921,94.1818 z" id="boundary" inkscape:connector-curvature="0" />
	<path style="fill:none;stroke:red;stroke-width:1px;stroke-linecap:butt;stroke-linejoin:miter;stroke-opacity:1" d="M 453.907,20.0323 460.921,28.0485 z" id="boundary" inkscape:connector-curvature="0" />
	<path style="fill:none;stroke:red;stroke-width:1px;stroke-linecap:butt;stroke-linejoin:miter;stroke-opacity:1" d="M 453.907,68.1293 458.917,58.1091 z" id="boundary" inkscape:connector-curvature="0" />
	<path style="fill:none;stroke:red;stroke-width:1px;stroke-linecap:butt;stroke-linejoin:miter;stroke-opacity:1" d="M 454.909,296.59 459.919,305.608 z" id="boundary" inkscape:connector-curvature="0" />
	<path style="fill:none;stroke:red;stroke-width:1px;stroke-linecap:butt;stroke-linejoin:miter;stroke-opacity:1" d="M 458.917,58.1091 465.931,47.0869 z" id="boundary" inkscape:connector-curvature="0" />
	<path style="fill:none;stroke:red;stroke-width:1px;stroke-linecap:butt;stroke-linejoin:miter;stroke-opacity:1" d="M 459.919,305.608 465.931,313.624 z" id="boundary" inkscape:connector-curvature="0" />
	<path style="fill:none;stroke:red;stroke-width:1px;stroke-linecap:butt;stroke-linejoin:miter;stroke-opacity:1" d="M 460.921,28.0485 460.921,38.0687 z" id="boundary" inkscape:connector-curvature="0" />
	<path style="fill:none;stroke:red;stroke-width:1px;stroke-linecap:butt;stroke-linejoin:miter;stroke-opacity:1" d="M 460.921,38.0687 465.931,47.0869 z" id="boundary" inkscape:connector-curvature="0" />
	<path style="fill:none;stroke:red;stroke-width:1px;stroke-linecap:butt;stroke-linejoin:miter;stroke-opacity:1" d="M 460.921,94.1818 470.941,91.1758 z" id="boundary" inkscape:connector-curvature="0" />
	<path style="fill:none;stroke:red;stroke-width:1px;stroke-linecap:butt;stroke-linejoin:miter;stroke-opacity:1" d="M 465.931,313.624 470.941,322.642 z" id="boundary" inkscape:connector-curvature="0" />
	<path style="fill:none;stroke:red;stroke-width:1px;stroke-linecap:butt;stroke-linejoin:miter;stroke-opacity:1" d="M 470.941,91.1758 478.958,84.1616 z" id="boundary" inkscape:connector-curvature="0" />
	<path style="fill:none;stroke:red;stroke-width:1px;stroke-linecap:butt;stroke-linejoin:miter;stroke-opacity:1" d="M 470.941,322.642 477.956,330.659 z" id="boundary" inkscape:connector-curvature="0" />
	<path style="fill:none;stroke:red;stroke-width:1px;stroke-linecap:butt;stroke-linejoin:miter;stroke-opacity:1" d="M 477.956,330.659 487.976,334.667 z" id="boundary" inkscape:connector-curvature="0" />
	<path style="fill:none;stroke:red;stroke-width:1px;stroke-linecap:butt;stroke-linejoin:miter;stroke-opacity:1" d="M 478.958,84.1616 487.976,79.1515 z" id="boundary" inkscape:connector-curvature="0" />
	<path style="fill:none;stroke:red;stroke-width:1px;stroke-linecap:butt;stroke-linejoin:miter;stroke-opacity:1" d="M 487.976,79.1515 497.996,74.1414 z" id="boundary" inkscape:connector-curvature="0" />
	<path style="fill:none;stroke:red;stroke-width:1px;stroke-linecap:butt;stroke-linejoin:miter;stroke-opacity:1" d="M 487.976,334.667 494.99,342.683 z" id="boundary" inkscape:connector-curvature="0" />
	<path style="fill:none;stroke:red;stroke-width:1px;stroke-linecap:butt;stroke-linejoin:miter;stroke-opacity:1" d="M 494.99,342.683 505.01,345.689 z" id="boundary" inkscape:connector-curvature="0" />
	<path style="fill:none;stroke:red;stroke-width:1px;stroke-linecap:butt;stroke-linejoin:miter;stroke-opacity:1" d="M 497.996,74.1414 506.012,66.1253 z" id="boundary" inkscape:connector-curvature="0" />
	<path style="fill:none;stroke:red;stroke-width:1px;stroke-linecap:butt;stroke-linejoin:miter;stroke-opacity:1" d="M 505.01,345.689 514.028,350.699 z" id="boundary" inkscape:connector-curvature="0" />
	<path style="fill:none;stroke:red;stroke-width:1px;stroke-linecap:butt;stroke-linejoin:miter;stroke-opacity:1" d="M 506.012,66.1253 514.028,59.1111 z" id="boundary" inkscape:connector-curvature="0" />
	<path style="fill:none;stroke:red;stroke-width:1px;stroke-linecap:butt;stroke-linejoin:miter;stroke-opacity:1" d="M 514.028,59.1111 524.048,59.1111 z" id="boundary" inkscape:connector-curvature="0" />
	<path style="fill:none;stroke:red;stroke-width:1px;stroke-linecap:butt;stroke-linejoin:miter;stroke-opacity:1" d="M 514.028,350.699 521.042,358.715 z" id="boundary" inkscape:connector-curvature="0" />
	<path style="fill:none;stroke:red;stroke-width:1px;stroke-linecap:butt;stroke-linejoin:miter;stroke-opacity:1" d="M 521.042,358.715 531.063,360.719 z" id="boundary" inkscape:connector-curvature="0" />
	<path style="fill:none;stroke:red;stroke-width:1px;stroke-linecap:butt;stroke-linejoin:miter;stroke-opacity:1" d="M 524.048,59.1111 531.063,51.0949 z" id="boundary" inkscape:connector-curvature="0" />
	<path style="fill:none;stroke:red;stroke-width:1px;stroke-linecap:butt;stroke-linejoin:miter;stroke-opacity:1" d="M 531.063,51.0949 541.083,46.0848 z" id="boundary" inkscape:connector-curvature="0" />
	<path style="fill:none;stroke:red;stroke-width:1px;stroke-linecap:butt;stroke-linejoin:miter;stroke-opacity:1" d="M 531.063,360.719 541.083,360.719 z" id="boundary" inkscape:connector-curvature="0" />
	<path style="fill:none;stroke:red;stroke-width:1px;stroke-linecap:butt;stroke-linejoin:miter;stroke-opacity:1" d="M 541.083,46.0848 551.103,47.0869 z" id="boundary" inkscape:connector-curvature="0" />
	<path style="fill:none;stroke:red;stroke-width:1px;stroke-linecap:butt;stroke-linejoin:miter;stroke-opacity:1" d="M 541.083,360.719 551.103,362.723 z" id="boundary" inkscape:connector-curvature="0" />
	<path style="fill:none;stroke:red;stroke-width:1px;stroke-linecap:butt;stroke-linejoin:miter;stroke-opacity:1" d="M 551.103,47.0869 561.123,49.0909 z" id="boundary" inkscape:connector-curvature="0" />
	<path style="fill:none;stroke:red;stroke-width:1px;stroke-linecap:butt;stroke-linejoin:miter;stroke-opacity:1" d="M 551.103,362.723 561.123,365.729 z" id="boundary" inkscape:connector-curvature="0" />
	<path style="fill:none;stroke:red;stroke-width:1px;stroke-linecap:butt;stroke-linejoin:miter;stroke-opacity:1" d="M 561.123,49.0909 570.141,44.0808 z" id="boundary" inkscape:connector-curvature="0" />
	<path style="fill:none;stroke:red;stroke-width:1px;stroke-linecap:butt;stroke-linejoin:miter;stroke-opacity:1" d="M 561.123,365.729 571.143,365.729 z" id="boundary" inkscape:connector-curvature="0" />
	<path style="fill:none;stroke:red;stroke-width:1px;stroke-linecap:butt;stroke-linejoin:miter;stroke-opacity:1" d="M 570.141,44.0808 580.162,46.0848 z" id="boundary" inkscape:connector-curvature="0" />
	<path style="fill:none;stroke:red;stroke-width:1px;stroke-linecap:butt;stroke-linejoin:miter;stroke-opacity:1" d="M 571.143,365.729 580.162,370.739 z" id="boundary" inkscape:connector-curvature="0" />
	<path style="fill:none;stroke:red;stroke-width:1px;stroke-linecap:butt;stroke-linejoin:miter;stroke-opacity:1" d="M 580.162,46.0848 590.182,49.0909 z" id="boundary" inkscape:connector-curvature="0" />
	<path style="fill:none;stroke:red;stroke-width:1px;stroke-linecap:butt;stroke-linejoin:miter;stroke-opacity:1" d="M 580.162,370.739 590.182,370.739 z" id="boundary" inkscape:connector-curvature="0" />
	<path style="fill:none;stroke:red;stroke-width:1px;stroke-linecap:butt;stroke-linejoin:miter;stroke-opacity:1" d="M 590.182,49.0909 600.202,51.0949 z" id="boundary" inkscape:connector-curvature="0" />
	<path style="fill:none;stroke:red;stroke-width:1px;stroke-linecap:butt;stroke-linejoin:miter;stroke-opacity:1" d="M 590.182,370.739 600.202,370.739 z" id="boundary" inkscape:connector-curvature="0" />
	<path style="fill:none;stroke:red;stroke-width:1px;stroke-linecap:butt;stroke-linejoin:miter;stroke-opacity:1" d="M 600.202,51.0949 609.22,56.1051 z" id="boundary" inkscape:connector-curvature="0" />
	<path style="fill:none;stroke:red;stroke-width:1px;stroke-linecap:butt;stroke-linejoin:miter;stroke-opacity:1" d="M 600.202,370.739 610.222,370.739 z" id="boundary" inkscape:connector-curvature="0" />
	<path style="fill:none;stroke:red;stroke-width:1px;stroke-linecap:butt;stroke-linejoin:miter;stroke-opacity:1" d="M 609.22,56.1051 619.24,59.1111 z" id="boundary" inkscape:connector-curvature="0" />
	<path style="fill:none;stroke:red;stroke-width:1px;stroke-linecap:butt;stroke-linejoin:miter;stroke-opacity:1" d="M 610.222,370.739 620.242,370.739 z" id="boundary" inkscape:connector-curvature="0" />
	<path style="fill:none;stroke:red;stroke-width:1px;stroke-linecap:butt;stroke-linejoin:miter;stroke-opacity:1" d="M 619.24,59.1111 628.259,64.1212 z" id="boundary" inkscape:connector-curvature="0" />
	<path style="fill:none;stroke:red;stroke-width:1px;stroke-linecap:butt;stroke-linejoin:miter;stroke-opacity:1" d="M 620.242,370.739 630.263,370.739 z" id="boundary" inkscape:connector-curvature="0" />
	<path style="fill:none;stroke:red;stroke-width:1px;stroke-linecap:butt;stroke-linejoin:miter;stroke-opacity:1" d="M 621.244,305.608 623.248,315.628 z" id="boundary" inkscape:connector-curvature="0" />
	<path style="fill:none;stroke:red;stroke-width:1px;stroke-linecap:butt;stroke-linejoin:miter;stroke-opacity:1" d="M 621.244,305.608 631.265,305.608 z" id="boundary" inkscape:connector-curvature="0" />
	<path style="fill:none;stroke:red;stroke-width:1px;stroke-linecap:butt;stroke-linejoin:miter;stroke-opacity:1" d="M 623.248,315.628 633.269,319.636 z" id="boundary" inkscape:connector-curvature="0" />
	<path style="fill:none;stroke:red;stroke-width:1px;stroke-linecap:butt;stroke-linejoin:miter;stroke-opacity:1" d="M 628.259,64.1212 637.277,69.1313 z" id="boundary" inkscape:connector-curvature="0" />
	<path style="fill:none;stroke:red;stroke-width:1px;stroke-linecap:butt;stroke-linejoin:miter;stroke-opacity:1" d="M 630.263,370.739 640.283,370.739 z" id="boundary" inkscape:connector-curvature="0" />
	<path style="fill:none;stroke:red;stroke-width:1px;stroke-linecap:butt;stroke-linejoin:miter;stroke-opacity:1" d="M 631.265,305.608 641.285,307.612 z" id="boundary" inkscape:connector-curvature="0" />
	<path style="fill:none;stroke:red;stroke-width:1px;stroke-linecap:butt;stroke-linejoin:miter;stroke-opacity:1" d="M 633.269,319.636 640.283,327.653 z" id="boundary" inkscape:connector-curvature="0" />
	<path style="fill:none;stroke:red;stroke-width:1px;stroke-linecap:butt;stroke-linejoin:miter;stroke-opacity:1" d="M 637.277,69.1313 646.295,74.1414 z" id="boundary" inkscape:connector-curvature="0" />
	<path style="fill:none;stroke:red;stroke-width:1px;stroke-linecap:butt;stroke-linejoin:miter;stroke-opacity:1" d="M 640.283,327.653 648.299,334.667 z" id="boundary" inkscape:connector-curvature="0" />
	<path style="fill:none;stroke:red;stroke-width:1px;stroke-linecap:butt;stroke-linejoin:miter;stroke-opacity:1" d="M 640.283,370.739 650.303,370.739 z" id="boundary" inkscape:connector-curvature="0" />
	<path style="fill:none;stroke:red;stroke-width:1px;stroke-linecap:butt;stroke-linejoin:miter;stroke-opacity:1" d="M 641.285,307.612 651.305,310.618 z" id="boundary" inkscape:connector-curvature="0" />
	<path style="fill:none;stroke:red;stroke-width:1px;stroke-linecap:butt;stroke-linejoin:miter;stroke-opacity:1" d="M 646.295,74.1414 656.315,77.1475 z" id="boundary" inkscape:connector-curvature="0" />
	<path style="fill:none;stroke:red;stroke-width:1px;stroke-linecap:butt;stroke-linejoin:miter;stroke-opacity:1" d="M 648.299,334.667 658.319,334.667 z" id="boundary" inkscape:connector-curvature="0" />
	<path style="fill:none;stroke:red;stroke-width:1px;stroke-linecap:butt;stroke-linejoin:miter;stroke-opacity:1" d="M 650.303,370.739 660.323,370.739 z" id="boundary" inkscape:connector-curvature="0" />
	<path style="fill:none;stroke:red;stroke-width:1px;stroke-linecap:butt;stroke-linejoin:miter;stroke-opacity:1" d="M 651.305,310.618 661.325,310.618 z" id="boundary" inkscape:connector-curvature="0" />
	<path style="fill:none;stroke:red;stroke-width:1px;stroke-linecap:butt;stroke-linejoin:miter;stroke-opacity:1" d="M 656.315,77.1475 661.325,86.1657 z" id="boundary" inkscape:connector-curvature="0" />
	<path style="fill:none;stroke:red;stroke-width:1px;stroke-linecap:butt;stroke-linejoin:miter;stroke-opacity:1" d="M 658.319,334.667 667.337,339.677 z" id="boundary" inkscape:connector-curvature="0" />
	<path style="fill:none;stroke:red;stroke-width:1px;stroke-linecap:butt;stroke-linejoin:miter;stroke-opacity:1" d="M 660.323,370.739 670.343,370.739 z" id="boundary" inkscape:connector-curvature="0" />
	<path style="fill:none;stroke:red;stroke-width:1px;stroke-linecap:butt;stroke-linejoin:miter;stroke-opacity:1" d="M 661.325,86.1657 667.337,94.1818 z" id="boundary" inkscape:connector-curvature="0" />
	<path style="fill:none;stroke:red;stroke-width:1px;stroke-linecap:butt;stroke-linejoin:miter;stroke-opacity:1" d="M 661.325,310.618 671.345,312.622 z" id="boundary" inkscape:connector-curvature="0" />
	<path style="fill:none;stroke:red;stroke-width:1px;stroke-linecap:butt;stroke-linejoin:miter;stroke-opacity:1" d="M 667.337,94.1818 677.358,94.1818 z" id="boundary" inkscape:connector-curvature="0" />
	<path style="fill:none;stroke:red;stroke-width:1px;stroke-linecap:butt;stroke-linejoin:miter;stroke-opacity:1" d="M 667.337,339.677 675.354,346.691 z" id="boundary" inkscape:connector-curvature="0" />
	<path style="fill:none;stroke:red;stroke-width:1px;stroke-linecap:butt;stroke-linejoin:miter;stroke-opacity:1" d="M 670.343,370.739 680.364,367.733 z" id="boundary" inkscape:connector-curvature="0" />
	<path style="fill:none;stroke:red;stroke-width:1px;stroke-linecap:butt;stroke-linejoin:miter;stroke-opacity:1" d="M 671.345,312.622 681.366,315.628 z" id="boundary" inkscape:connector-curvature="0" />
	<path style="fill:none;stroke:red;stroke-width:1px;stroke-linecap:butt;stroke-linejoin:miter;stroke-opacity:1" d="M 675.354,346.691 681.366,354.707 z" id="boundary" inkscape:connector-curvature="0" />
	<path style="fill:none;stroke:red;stroke-width:1px;stroke-linecap:butt;stroke-linejoin:miter;stroke-opacity:1" d="M 676.356,165.325 678.36,175.345 z" id="boundary" inkscape:connector-curvature="0" />
	<path style="fill:none;stroke:red;stroke-width:1px;stroke-linecap:butt;stroke-linejoin:miter;stroke-opacity:1" d="M 676.356,165.325 686.376,160.315 z" id="boundary" inkscape:connector-curvature="0" />
	<path style="fill:none;stroke:red;stroke-width:1px;stroke-linecap:butt;stroke-linejoin:miter;stroke-opacity:1" d="M 677.358,94.1818 685.374,101.196 z" id="boundary" inkscape:connector-curvature="0" />
	<path style="fill:none;stroke:red;stroke-width:1px;stroke-linecap:butt;stroke-linejoin:miter;stroke-opacity:1" d="M 678.36,175.345 688.38,179.354 z" id="boundary" inkscape:connector-curvature="0" />
	<path style="fill:none;stroke:red;stroke-width:1px;stroke-linecap:butt;stroke-linejoin:miter;stroke-opacity:1" d="M 680.364,367.733 681.366,354.707 z" id="boundary" inkscape:connector-curvature="0" />
	<path style="fill:none;stroke:red;stroke-width:1px;stroke-linecap:butt;stroke-linejoin:miter;stroke-opacity:1" d="M 681.366,315.628 690.384,310.618 z" id="boundary" inkscape:connector-curvature="0" />
	<path style="fill:none;stroke:red;stroke-width:1px;stroke-linecap:butt;stroke-linejoin:miter;stroke-opacity:1" d="M 685.374,101.196 694.392,106.206 z" id="boundary" inkscape:connector-curvature="0" />
	<path style="fill:none;stroke:red;stroke-width:1px;stroke-linecap:butt;stroke-linejoin:miter;stroke-opacity:1" d="M 686.376,160.315 696.396,160.315 z" id="boundary" inkscape:connector-curvature="0" />
	<path style="fill:none;stroke:red;stroke-width:1px;stroke-linecap:butt;stroke-linejoin:miter;stroke-opacity:1" d="M 688.38,179.354 697.398,184.364 z" id="boundary" inkscape:connector-curvature="0" />
	<path style="fill:none;stroke:red;stroke-width:1px;stroke-linecap:butt;stroke-linejoin:miter;stroke-opacity:1" d="M 690.384,310.618 699.402,315.628 z" id="boundary" inkscape:connector-curvature="0" />
	<path style="fill:none;stroke:red;stroke-width:1px;stroke-linecap:butt;stroke-linejoin:miter;stroke-opacity:1" d="M 694.392,106.206 701.406,114.222 z" id="boundary" inkscape:connector-curvature="0" />
	<path style="fill:none;stroke:red;stroke-width:1px;stroke-linecap:butt;stroke-linejoin:miter;stroke-opacity:1" d="M 696.396,160.315 706.416,160.315 z" id="boundary" inkscape:connector-curvature="0" />
	<path style="fill:none;stroke:red;stroke-width:1px;stroke-linecap:butt;stroke-linejoin:miter;stroke-opacity:1" d="M 697.398,184.364 706.416,189.374 z" id="boundary" inkscape:connector-curvature="0" />
	<path style="fill:none;stroke:red;stroke-width:1px;stroke-linecap:butt;stroke-linejoin:miter;stroke-opacity:1" d="M 699.402,315.628 709.422,315.628 z" id="boundary" inkscape:connector-curvature="0" />
	<path style="fill:none;stroke:red;stroke-width:1px;stroke-linecap:butt;stroke-linejoin:miter;stroke-opacity:1" d="M 701.406,114.222 711.426,117.228 z" id="boundary" inkscape:connector-curvature="0" />
	<path style="fill:none;stroke:red;stroke-width:1px;stroke-linecap:butt;stroke-linejoin:miter;stroke-opacity:1" d="M 706.416,160.315 716.436,160.315 z" id="boundary" inkscape:connector-curvature="0" />
	<path style="fill:none;stroke:red;stroke-width:1px;stroke-linecap:butt;stroke-linejoin:miter;stroke-opacity:1" d="M 706.416,189.374 716.436,189.374 z" id="boundary" inkscape:connector-curvature="0" />
	<path style="fill:none;stroke:red;stroke-width:1px;stroke-linecap:butt;stroke-linejoin:miter;stroke-opacity:1" d="M 709.422,315.628 719.442,315.628 z" id="boundary" inkscape:connector-curvature="0" />
	<path style="fill:none;stroke:red;stroke-width:1px;stroke-linecap:butt;stroke-linejoin:miter;stroke-opacity:1" d="M 711.426,117.228 720.444,122.238 z" id="boundary" inkscape:connector-curvature="0" />
	<path style="fill:none;stroke:red;stroke-width:1px;stroke-linecap:butt;stroke-linejoin:miter;stroke-opacity:1" d="M 716.436,160.315 725.455,155.305 z" id="boundary" inkscape:connector-curvature="0" />
	<path style="fill:none;stroke:red;stroke-width:1px;stroke-linecap:butt;stroke-linejoin:miter;stroke-opacity:1" d="M 716.436,189.374 726.457,189.374 z" id="boundary" inkscape:connector-curvature="0" />
	<path style="fill:none;stroke:red;stroke-width:1px;stroke-linecap:butt;stroke-linejoin:miter;stroke-opacity:1" d="M 719.442,315.628 728.461,320.638 z" id="boundary" inkscape:connector-curvature="0" />
	<path style="fill:none;stroke:red;stroke-width:1px;stroke-linecap:butt;stroke-linejoin:miter;stroke-opacity:1" d="M 720.444,122.238 728.461,129.253 z" id="boundary" inkscape:connector-curvature="0" />
	<path style="fill:none;stroke:red;stroke-width:1px;stroke-linecap:butt;stroke-linejoin:miter;stroke-opacity:1" d="M 725.455,155.305 735.475,155.305 z" id="boundary" inkscape:connector-curvature="0" />
	<path style="fill:none;stroke:red;stroke-width:1px;stroke-linecap:butt;stroke-linejoin:miter;stroke-opacity:1" d="M 726.457,189.374 736.477,192.38 z" id="boundary" inkscape:connector-curvature="0" />
	<path style="fill:none;stroke:red;stroke-width:1px;stroke-linecap:butt;stroke-linejoin:miter;stroke-opacity:1" d="M 728.461,129.253 737.479,134.263 z" id="boundary" inkscape:connector-curvature="0" />
	<path style="fill:none;stroke:red;stroke-width:1px;stroke-linecap:butt;stroke-linejoin:miter;stroke-opacity:1" d="M 728.461,320.638 738.481,320.638 z" id="boundary" inkscape:connector-curvature="0" />
	<path style="fill:none;stroke:red;stroke-width:1px;stroke-linecap:butt;stroke-linejoin:miter;stroke-opacity:1" d="M 735.475,155.305 745.495,152.299 z" id="boundary" inkscape:connector-curvature="0" />
	<path style="fill:none;stroke:red;stroke-width:1px;stroke-linecap:butt;stroke-linejoin:miter;stroke-opacity:1" d="M 736.477,192.38 744.493,199.394 z" id="boundary" inkscape:connector-curvature="0" />
	<path style="fill:none;stroke:red;stroke-width:1px;stroke-linecap:butt;stroke-linejoin:miter;stroke-opacity:1" d="M 737.479,134.263 746.497,139.273 z" id="boundary" inkscape:connector-curvature="0" />
	<path style="fill:none;stroke:red;stroke-width:1px;stroke-linecap:butt;stroke-linejoin:miter;stroke-opacity:1" d="M 738.481,320.638 747.499,315.628 z" id="boundary" inkscape:connector-curvature="0" />
	<path style="fill:none;stroke:red;stroke-width:1px;stroke-linecap:butt;stroke-linejoin:miter;stroke-opacity:1" d="M 744.493,199.394 753.511,194.384 z" id="boundary" inkscape:connector-curvature="0" />
	<path style="fill:none;stroke:red;stroke-width:1px;stroke-linecap:butt;stroke-linejoin:miter;stroke-opacity:1" d="M 745.495,152.299 746.497,139.273 z" id="boundary" inkscape:connector-curvature="0" />
	<path style="fill:none;stroke:red;stroke-width:1px;stroke-linecap:butt;stroke-linejoin:miter;stroke-opacity:1" d="M 747.499,315.628 757.519,318.634 z" id="boundary" inkscape:connector-curvature="0" />
	<path style="fill:none;stroke:red;stroke-width:1px;stroke-linecap:butt;stroke-linejoin:miter;stroke-opacity:1" d="M 753.511,194.384 763.531,194.384 z" id="boundary" inkscape:connector-curvature="0" />
	<path style="fill:none;stroke:red;stroke-width:1px;stroke-linecap:butt;stroke-linejoin:miter;stroke-opacity:1" d="M 757.519,318.634 767.539,320.638 z" id="boundary" inkscape:connector-curvature="0" />
	<path style="fill:none;stroke:red;stroke-width:1px;stroke-linecap:butt;stroke-linejoin:miter;stroke-opacity:1" d="M 763.531,194.384 772.549,199.394 z" id="boundary" inkscape:connector-curvature="0" />
	<path style="fill:none;stroke:red;stroke-width:1px;stroke-linecap:butt;stroke-linejoin:miter;stroke-opacity:1" d="M 767.539,320.638 777.56,320.638 z" id="boundary" inkscape:connector-curvature="0" />
	<path style="fill:none;stroke:red;stroke-width:1px;stroke-linecap:butt;stroke-linejoin:miter;stroke-opacity:1" d="M 772.549,199.394 782.57,199.394 z" id="boundary" inkscape:connector-curvature="0" />
	<path style="fill:none;stroke:red;stroke-width:1px;stroke-linecap:butt;stroke-linejoin:miter;stroke-opacity:1" d="M 777.56,320.638 787.58,323.644 z" id="boundary" inkscape:connector-curvature="0" />
	<path style="fill:none;stroke:red;stroke-width:1px;stroke-linecap:butt;stroke-linejoin:miter;stroke-opacity:1" d="M 782.57,199.394 791.588,194.384 z" id="boundary" inkscape:connector-curvature="0" />
	<path style="fill:none;stroke:red;stroke-width:1px;stroke-linecap:butt;stroke-linejoin:miter;stroke-opacity:1" d="M 787.58,323.644 796.598,328.655 z" id="boundary" inkscape:connector-curvature="0" />
	<path style="fill:none;stroke:red;stroke-width:1px;stroke-linecap:butt;stroke-linejoin:miter;stroke-opacity:1" d="M 791.588,194.384 801.608,194.384 z" id="boundary" inkscape:connector-curvature="0" />
	<path style="fill:none;stroke:red;stroke-width:1px;stroke-linecap:butt;stroke-linejoin:miter;stroke-opacity:1" d="M 796.598,328.655 806.618,332.663 z" id="boundary" inkscape:connector-curvature="0" />
	<path style="fill:none;stroke:red;stroke-width:1px;stroke-linecap:butt;stroke-linejoin:miter;stroke-opacity:1" d="M 801.608,194.384 811.628,194.384 z" id="boundary" inkscape:connector-curvature="0" />
	<path style="fill:none;stroke:red;stroke-width:1px;stroke-linecap:butt;stroke-linejoin:miter;stroke-opacity:1" d="M 806.618,332.663 815.636,337.673 z" id="boundary" inkscape:connector-curvature="0" />
	<path style="fill:none;stroke:red;stroke-width:1px;stroke-linecap:butt;stroke-linejoin:miter;stroke-opacity:1" d="M 811.628,194.384 820.646,189.374 z" id="boundary" inkscape:connector-curvature="0" />
	<path style="fill:none;stroke:red;stroke-width:1px;stroke-linecap:butt;stroke-linejoin:miter;stroke-opacity:1" d="M 815.636,337.673 823.653,344.687 z" id="boundary" inkscape:connector-curvature="0" />
	<path style="fill:none;stroke:red;stroke-width:1px;stroke-linecap:butt;stroke-linejoin:miter;stroke-opacity:1" d="M 820.646,189.374 829.665,194.384 z" id="boundary" inkscape:connector-curvature="0" />
	<path style="fill:none;stroke:red;stroke-width:1px;stroke-linecap:butt;stroke-linejoin:miter;stroke-opacity:1" d="M 823.653,344.687 833.673,345.689 z" id="boundary" inkscape:connector-curvature="0" />
	<path style="fill:none;stroke:red;stroke-width:1px;stroke-linecap:butt;stroke-linejoin:miter;stroke-opacity:1" d="M 829.665,194.384 839.685,194.384 z" id="boundary" inkscape:connector-curvature="0" />
	<path style="fill:none;stroke:red;stroke-width:1px;stroke-linecap:butt;stroke-linejoin:miter;stroke-opacity:1" d="M 833.673,345.689 841.689,352.703 z" id="boundary" inkscape:connector-curvature="0" />
	<path style="fill:none;stroke:red;stroke-width:1px;stroke-linecap:butt;stroke-linejoin:miter;stroke-opacity:1" d="M 839.685,194.384 849.705,195.386 z" id="boundary" inkscape:connector-curvature="0" />
	<path style="fill:none;stroke:red;stroke-width:1px;stroke-linecap:butt;stroke-linejoin:miter;stroke-opacity:1" d="M 841.689,352.703 851.709,355.709 z" id="boundary" inkscape:connector-curvature="0" />
	<path style="fill:none;stroke:red;stroke-width:1px;stroke-linecap:butt;stroke-linejoin:miter;stroke-opacity:1" d="M 849.705,195.386 859.725,199.394 z" id="boundary" inkscape:connector-curvature="0" />
	<path style="fill:none;stroke:red;stroke-width:1px;stroke-linecap:butt;stroke-linejoin:miter;stroke-opacity:1" d="M 851.709,355.709 861.729,355.709 z" id="boundary" inkscape:connector-curvature="0" />
	<path style="fill:none;stroke:red;stroke-width:1px;stroke-linecap:butt;stroke-linejoin:miter;stroke-opacity:1" d="M 859.725,199.394 869.745,199.394 z" id="boundary" inkscape:connector-curvature="0" />
	<path style="fill:none;stroke:red;stroke-width:1px;stroke-linecap:butt;stroke-linejoin:miter;stroke-opacity:1" d="M 861.729,355.709 870.747,360.719 z" id="boundary" inkscape:connector-curvature="0" />
	<path style="fill:none;stroke:red;stroke-width:1px;stroke-linecap:butt;stroke-linejoin:miter;stroke-opacity:1" d="M 869.745,199.394 878.764,194.384 z" id="boundary" inkscape:connector-curvature="0" />
	<path style="fill:none;stroke:red;stroke-width:1px;stroke-linecap:butt;stroke-linejoin:miter;stroke-opacity:1" d="M 870.747,360.719 880.768,360.719 z" id="boundary" inkscape:connector-curvature="0" />
	<path style="fill:none;stroke:red;stroke-width:1px;stroke-linecap:butt;stroke-linejoin:miter;stroke-opacity:1" d="M 878.764,194.384 887.782,199.394 z" id="boundary" inkscape:connector-curvature="0" />
	<path style="fill:none;stroke:red;stroke-width:1px;stroke-linecap:butt;stroke-linejoin:miter;stroke-opacity:1" d="M 880.768,360.719 890.788,360.719 z" id="boundary" inkscape:connector-curvature="0" />
	<path style="fill:none;stroke:red;stroke-width:1px;stroke-linecap:butt;stroke-linejoin:miter;stroke-opacity:1" d="M 887.782,199.394 897.802,199.394 z" id="boundary" inkscape:connector-curvature="0" />
	<path style="fill:none;stroke:red;stroke-width:1px;stroke-linecap:butt;stroke-linejoin:miter;stroke-opacity:1" d="M 890.788,360.719 900.808,360.719 z" id="boundary" inkscape:connector-curvature="0" />
	<path style="fill:none;stroke:red;stroke-width:1px;stroke-linecap:butt;stroke-linejoin:miter;stroke-opacity:1" d="M 897.802,199.394 907.822,199.394 z" id="boundary" inkscape:connector-curvature="0" />
	<path style="fill:none;stroke:red;stroke-width:1px;stroke-linecap:butt;stroke-linejoin:miter;stroke-opacity:1" d="M 900.808,360.719 910.828,360.719 z" id="boundary" inkscape:connector-curvature="0" />
	<path style="fill:none;stroke:red;stroke-width:1px;stroke-linecap:butt;stroke-linejoin:miter;stroke-opacity:1" d="M 907.822,199.394 916.84,204.404 z" id="boundary" inkscape:connector-curvature="0" />
	<path style="fill:none;stroke:red;stroke-width:1px;stroke-linecap:butt;stroke-linejoin:miter;stroke-opacity:1" d="M 910.828,360.719 920.848,357.713 z" id="boundary" inkscape:connector-curvature="0" />
	<path style="fill:none;stroke:red;stroke-width:1px;stroke-linecap:butt;stroke-linejoin:miter;stroke-opacity:1" d="M 916.84,204.404 926.861,204.404 z" id="boundary" inkscape:connector-curvature="0" />
	<path style="fill:none;stroke:red;stroke-width:1px;stroke-linecap:butt;stroke-linejoin:miter;stroke-opacity:1" d="M 920.848,357.713 930.869,352.703 z" id="boundary" inkscape:connector-curvature="0" />
	<path style="fill:none;stroke:red;stroke-width:1px;stroke-linecap:butt;stroke-linejoin:miter;stroke-opacity:1" d="M 926.861,204.404 936.881,207.41 z" id="boundary" inkscape:connector-curvature="0" />
	<path style="fill:none;stroke:red;stroke-width:1px;stroke-linecap:butt;stroke-linejoin:miter;stroke-opacity:1" d="M 930.869,352.703 940.889,350.699 z" id="boundary" inkscape:connector-curvature="0" />
	<path style="fill:none;stroke:red;stroke-width:1px;stroke-linecap:butt;stroke-linejoin:miter;stroke-opacity:1" d="M 936.881,207.41 944.897,214.424 z" id="boundary" inkscape:connector-curvature="0" />
	<path style="fill:none;stroke:red;stroke-width:1px;stroke-linecap:butt;stroke-linejoin:miter;stroke-opacity:1" d="M 940.889,350.699 949.907,345.689 z" id="boundary" inkscape:connector-curvature="0" />
	<path style="fill:none;stroke:red;stroke-width:1px;stroke-linecap:butt;stroke-linejoin:miter;stroke-opacity:1" d="M 944.897,214.424 954.917,214.424 z" id="boundary" inkscape:connector-curvature="0" />
	<path style="fill:none;stroke:red;stroke-width:1px;stroke-linecap:butt;stroke-linejoin:miter;stroke-opacity:1" d="M 949.907,345.689 959.927,345.689 z" id="boundary" inkscape:connector-curvature="0" />
	<path style="fill:none;stroke:red;stroke-width:1px;stroke-linecap:butt;stroke-linejoin:miter;stroke-opacity:1" d="M 954.917,214.424 964.937,215.426 z" id="boundary" inkscape:connector-curvature="0" />
	<path style="fill:none;stroke:red;stroke-width:1px;stroke-linecap:butt;stroke-linejoin:miter;stroke-opacity:1" d="M 959.927,345.689 968.945,339.677 z" id="boundary" inkscape:connector-curvature="0" />
	<path style="fill:none;stroke:red;stroke-width:1px;stroke-linecap:butt;stroke-linejoin:miter;stroke-opacity:1" d="M 964.937,215.426 971.952,223.442 z" id="boundary" inkscape:connector-curvature="0" />
	<path style="fill:none;stroke:red;stroke-width:1px;stroke-linecap:butt;stroke-linejoin:miter;stroke-opacity:1" d="M 968.945,339.677 976.962,330.659 z" id="boundary" inkscape:connector-curvature="0" />
	<path style="fill:none;stroke:red;stroke-width:1px;stroke-linecap:butt;stroke-linejoin:miter;stroke-opacity:1" d="M 971.952,223.442 971.952,233.463 z" id="boundary" inkscape:connector-curvature="0" />
	<path style="fill:none;stroke:red;stroke-width:1px;stroke-linecap:butt;stroke-linejoin:miter;stroke-opacity:1" d="M 971.952,233.463 979.968,240.477 z" id="boundary" inkscape:connector-curvature="0" />
	<path style="fill:none;stroke:red;stroke-width:1px;stroke-linecap:butt;stroke-linejoin:miter;stroke-opacity:1" d="M 976.962,330.659 984.978,323.644 z" id="boundary" inkscape:connector-curvature="0" />
	<path style="fill:none;stroke:red;stroke-width:1px;stroke-linecap:butt;stroke-linejoin:miter;stroke-opacity:1" d="M 979.968,240.477 986.982,248.493 z" id="boundary" inkscape:connector-curvature="0" />
	<path style="fill:none;stroke:red;stroke-width:1px;stroke-linecap:butt;stroke-linejoin:miter;stroke-opacity:1" d="M 984.978,323.644 989.988,313.624 z" id="boundary" inkscape:connector-curvature="0" />
	<path style="fill:none;stroke:red;stroke-width:1px;stroke-linecap:butt;stroke-linejoin:miter;stroke-opacity:1" d="M 986.982,248.493 991.992,257.511 z" id="boundary" inkscape:connector-curvature="0" />
	<path style="fill:none;stroke:red;stroke-width:1px;stroke-linecap:butt;stroke-linejoin:miter;stroke-opacity:1" d="M 989.988,313.624 991.992,295.588 z" id="boundary" inkscape:connector-curvature="0" />
	<path style="fill:none;stroke:red;stroke-width:1px;stroke-linecap:butt;stroke-linejoin:miter;stroke-opacity:1" d="M 991.992,257.511 996,267.531 z" id="boundary" inkscape:connector-curvature="0" />
	<path style="fill:none;stroke:red;stroke-width:1px;stroke-linecap:butt;stroke-linejoin:miter;stroke-opacity:1" d="M 991.992,285.568 991.992,295.588 z" id="boundary" inkscape:connector-curvature="0" />
	<path style="fill:none;stroke:red;stroke-width:1px;stroke-linecap:butt;stroke-linejoin:miter;stroke-opacity:1" d="M 991.992,285.568 996,267.531 z" id="boundary" inkscape:connector-curvature="0" />
	<circle cx="4" cy="132.259" r="4" fill="#0" id="circle0"/>
	<circle cx="4" cy="142.279" r="4" fill="#0" id="circle1"/>
	<circle cx="9.0101" cy="151.297" r="4" fill="#0" id="circle2"/>
	<circle cx="9.0101" cy="161.317" r="4" fill="#0" id="circle3"/>
	<circle cx="12.0162" cy="124.242" r="4" fill="#0" id="circle4"/>
	<circle cx="14.0202" cy="170.335" r="4" fill="#0" id="circle5"/>
	<circle cx="14.0202" cy="180.356" r="4" fill="#0" id="circle6"/>
	<circle cx="20.0323" cy="116.226" r="4" fill="#0" id="circle7"/>
	<circle cx="20.0323" cy="188.372" r="4" fill="#0" id="circle8"/>
	<circle cx="30.0525" cy="111.216" r="4" fill="#0" id="circle9"/>
	<circle cx="30.0525" cy="192.38" r="4" fill="#0" id="circle10"/>
	<circle cx="37.0667" cy="200.396" r="4" fill="#0" id="circle11"/>
	<circle cx="38.0687" cy="104.202" r="4" fill="#0" id="circle12"/>
	<circle cx="45.0828" cy="96.1859" r="4" fill="#0" id="circle13"/>
	<circle cx="45.0828" cy="207.41" r="4" fill="#0" id="circle14"/>
	<circle cx="52.097" cy="215.426" r="4" fill="#0" id="circle15"/>
	<circle cx="53.099" cy="89.1717" r="4" fill="#0" id="circle16"/>
	<circle cx="62.1172" cy="84.1616" r="4" fill="#0" id="circle17"/>
	<circle cx="62.1172" cy="215.426" r="4" fill="#0" id="circle18"/>
	<circle cx="72.1374" cy="79.1515" r="4" fill="#0" id="circle19"/>
	<circle cx="72.1374" cy="219.434" r="4" fill="#0" id="circle20"/>
	<circle cx="80.1535" cy="225.446" r="4" fill="#0" id="circle21"/>
	<circle cx="82.1576" cy="79.1515" r="4" fill="#0" id="circle22"/>
	<circle cx="90.1737" cy="225.446" r="4" fill="#0" id="circle23"/>
	<circle cx="91.1758" cy="74.1414" r="4" fill="#0" id="circle24"/>
	<circle cx="100.194" cy="227.451" r="4" fill="#0" id="circle25"/>
	<circle cx="101.196" cy="70.1333" r="4" fill="#0" id="circle26"/>
	<circle cx="107.208" cy="235.467" r="4" fill="#0" id="circle27"/>
	<circle cx="111.216" cy="69.1313" r="4" fill="#0" id="circle28"/>
	<circle cx="117.228" cy="235.467" r="4" fill="#0" id="circle29"/>
	<circle cx="121.236" cy="69.1313" r="4" fill="#0" id="circle30"/>
	<circle cx="127.248" cy="239.475" r="4" fill="#0" id="circle31"/>
	<circle cx="131.257" cy="69.1313" r="4" fill="#0" id="circle32"/>
	<circle cx="135.265" cy="245.487" r="4" fill="#0" id="circle33"/>
	<circle cx="141.277" cy="69.1313" r="4" fill="#0" id="circle34"/>
	<circle cx="145.285" cy="245.487" r="4" fill="#0" id="circle35"/>
	<circle cx="151.297" cy="69.1313" r="4" fill="#0" id="circle36"/>
	<circle cx="155.305" cy="247.491" r="4" fill="#0" id="circle37"/>
	<circle cx="161.317" cy="65.1232" r="4" fill="#0" id="circle38"/>
	<circle cx="165.325" cy="250.497" r="4" fill="#0" id="circle39"/>
	<circle cx="171.337" cy="69.1313" r="4" fill="#0" id="circle40"/>
	<circle cx="174.343" cy="255.507" r="4" fill="#0" id="circle41"/>
	<circle cx="181.358" cy="69.1313" r="4" fill="#0" id="circle42"/>
	<circle cx="184.364" cy="255.507" r="4" fill="#0" id="circle43"/>
	<circle cx="191.378" cy="69.1313" r="4" fill="#0" id="circle44"/>
	<circle cx="193.382" cy="260.517" r="4" fill="#0" id="circle45"/>
	<circle cx="201.398" cy="69.1313" r="4" fill="#0" id="circle46"/>
	<circle cx="203.402" cy="260.517" r="4" fill="#0" id="circle47"/>
	<circle cx="211.418" cy="69.1313" r="4" fill="#0" id="circle48"/>
	<circle cx="212.42" cy="265.527" r="4" fill="#0" id="circle49"/>
	<circle cx="221.438" cy="69.1313" r="4" fill="#0" id="circle50"/>
	<circle cx="221.438" cy="270.537" r="4" fill="#0" id="circle51"/>
	<circle cx="229.455" cy="276.549" r="4" fill="#0" id="circle52"/>
	<circle cx="231.459" cy="69.1313" r="4" fill="#0" id="circle53"/>
	<circle cx="236.469" cy="284.566" r="4" fill="#0" id="circle54"/>
	<circle cx="241.479" cy="69.1313" r="4" fill="#0" id="circle55"/>
	<circle cx="244.485" cy="290.578" r="4" fill="#0" id="circle56"/>
	<circle cx="250.497" cy="298.594" r="4" fill="#0" id="circle57"/>
	<circle cx="251.499" cy="69.1313" r="4" fill="#0" id="circle58"/>
	<circle cx="260.517" cy="74.1414" r="4" fill="#0" id="circle59"/>
	<circle cx="260.517" cy="300.598" r="4" fill="#0" id="circle60"/>
	<circle cx="269.535" cy="305.608" r="4" fill="#0" id="circle61"/>
	<circle cx="270.537" cy="74.1414" r="4" fill="#0" id="circle62"/>
	<circle cx="279.556" cy="305.608" r="4" fill="#0" id="circle63"/>
	<circle cx="280.558" cy="74.1414" r="4" fill="#0" id="circle64"/>
	<circle cx="289.576" cy="69.1313" r="4" fill="#0" id="circle65"/>
	<circle cx="289.576" cy="305.608" r="4" fill="#0" id="circle66"/>
	<circle cx="298.594" cy="64.1212" r="4" fill="#0" id="circle67"/>
	<circle cx="298.594" cy="310.618" r="4" fill="#0" id="circle68"/>
	<circle cx="300.598" cy="275.547" r="4" fill="#0" id="circle69"/>
	<circle cx="305.608" cy="56.1051" r="4" fill="#0" id="circle70"/>
	<circle cx="305.608" cy="284.566" r="4" fill="#0" id="circle71"/>
	<circle cx="308.614" cy="310.618" r="4" fill="#0" id="circle72"/>
	<circle cx="310.618" cy="275.547" r="4" fill="#0" id="circle73"/>
	<circle cx="313.624" cy="49.0909" r="4" fill="#0" id="circle74"/>
	<circle cx="315.628" cy="284.566" r="4" fill="#0" id="circle75"/>
	<circle cx="317.632" cy="315.628" r="4" fill="#0" id="circle76"/>
	<circle cx="320.638" cy="275.547" r="4" fill="#0" id="circle77"/>
	<circle cx="322.642" cy="44.0808" r="4" fill="#0" id="circle78"/>
	<circle cx="323.644" cy="290.578" r="4" fill="#0" id="circle79"/>
	<circle cx="327.653" cy="300.598" r="4" fill="#0" id="circle80"/>
	<circle cx="327.653" cy="319.636" r="4" fill="#0" id="circle81"/>
	<circle cx="330.659" cy="277.552" r="4" fill="#0" id="circle82"/>
	<circle cx="332.663" cy="39.0707" r="4" fill="#0" id="circle83"/>
	<circle cx="335.669" cy="325.648" r="4" fill="#0" id="circle84"/>
	<circle cx="337.673" cy="304.606" r="4" fill="#0" id="circle85"/>
	<circle cx="339.677" cy="27.0465" r="4" fill="#0" id="circle86"/>
	<circle cx="340.679" cy="280.558" r="4" fill="#0" id="circle87"/>
	<circle cx="345.689" cy="327.653" r="4" fill="#0" id="circle88"/>
	<circle cx="346.691" cy="309.616" r="4" fill="#0" id="circle89"/>
	<circle cx="347.693" cy="19.0303" r="4" fill="#0" id="circle90"/>
	<circle cx="350.699" cy="280.558" r="4" fill="#0" id="circle91"/>
	<circle cx="354.707" cy="332.663" r="4" fill="#0" id="circle92"/>
	<circle cx="355.709" cy="314.626" r="4" fill="#0" id="circle93"/>
	<circle cx="357.713" cy="19.0303" r="4" fill="#0" id="circle94"/>
	<circle cx="359.717" cy="285.568" r="4" fill="#0" id="circle95"/>
	<circle cx="364.727" cy="319.636" r="4" fill="#0" id="circle96"/>
	<circle cx="364.727" cy="335.669" r="4" fill="#0" id="circle97"/>
	<circle cx="365.729" cy="11.0141" r="4" fill="#0" id="circle98"/>
	<circle cx="368.735" cy="280.558" r="4" fill="#0" id="circle99"/>
	<circle cx="373.745" cy="340.679" r="4" fill="#0" id="circle100"/>
	<circle cx="374.747" cy="321.64" r="4" fill="#0" id="circle101"/>
	<circle cx="375.749" cy="9.0101" r="4" fill="#0" id="circle102"/>
	<circle cx="378.756" cy="280.558" r="4" fill="#0" id="circle103"/>
	<circle cx="380.76" cy="329.657" r="4" fill="#0" id="circle104"/>
	<circle cx="382.764" cy="345.689" r="4" fill="#0" id="circle105"/>
	<circle cx="385.77" cy="6.00404" r="4" fill="#0" id="circle106"/>
	<circle cx="387.774" cy="285.568" r="4" fill="#0" id="circle107"/>
	<circle cx="390.78" cy="329.657" r="4" fill="#0" id="circle108"/>
	<circle cx="392.784" cy="344.687" r="4" fill="#0" id="circle109"/>
	<circle cx="395.79" cy="4" r="4" fill="#0" id="circle110"/>
	<circle cx="397.794" cy="285.568" r="4" fill="#0" id="circle111"/>
	<circle cx="405.81" cy="7.00606" r="4" fill="#0" id="circle112"/>
	<circle cx="407.814" cy="285.568" r="4" fill="#0" id="circle113"/>
	<circle cx="415.83" cy="9.0101" r="4" fill="#0" id="circle114"/>
	<circle cx="417.834" cy="285.568" r="4" fill="#0" id="circle115"/>
	<circle cx="425.851" cy="9.0101" r="4" fill="#0" id="circle116"/>
	<circle cx="427.855" cy="285.568" r="4" fill="#0" id="circle117"/>
	<circle cx="435.871" cy="12.0162" r="4" fill="#0" id="circle118"/>
	<circle cx="437.875" cy="285.568" r="4" fill="#0" id="circle119"/>
	<circle cx="445.891" cy="14.0202" r="4" fill="#0" id="circle120"/>
	<circle cx="445.891" cy="75.1434" r="4" fill="#0" id="circle121"/>
	<circle cx="445.891" cy="85.1636" r="4" fill="#0" id="circle122"/>
	<circle cx="446.893" cy="290.578" r="4" fill="#0" id="circle123"/>
	<circle cx="450.901" cy="94.1818" r="4" fill="#0" id="circle124"/>
	<circle cx="453.907" cy="20.0323" r="4" fill="#0" id="circle125"/>
	<circle cx="453.907" cy="68.1293" r="4" fill="#0" id="circle126"/>
	<circle cx="454.909" cy="296.59" r="4" fill="#0" id="circle127"/>
	<circle cx="458.917" cy="58.1091" r="4" fill="#0" id="circle128"/>
	<circle cx="459.919" cy="305.608" r="4" fill="#0" id="circle129"/>
	<circle cx="460.921" cy="28.0485" r="4" fill="#0" id="circle130"/>
	<circle cx="460.921" cy="38.0687" r="4" fill="#0" id="circle131"/>
	<circle cx="460.921" cy="94.1818" r="4" fill="#0" id="circle132"/>
	<circle cx="465.931" cy="47.0869" r="4" fill="#0" id="circle133"/>
	<circle cx="465.931" cy="313.624" r="4" fill="#0" id="circle134"/>
	<circle cx="470.941" cy="91.1758" r="4" fill="#0" id="circle135"/>
	<circle cx="470.941" cy="322.642" r="4" fill="#0" id="circle136"/>
	<circle cx="477.956" cy="330.659" r="4" fill="#0" id="circle137"/>
	<circle cx="478.958" cy="84.1616" r="4" fill="#0" id="circle138"/>
	<circle cx="487.976" cy="79.1515" r="4" fill="#0" id="circle139"/>
	<circle cx="487.976" cy="334.667" r="4" fill="#0" id="circle140"/>
	<circle cx="494.99" cy="342.683" r="4" fill="#0" id="circle141"/>
	<circle cx="497.996" cy="74.1414" r="4" fill="#0" id="circle142"/>
	<circle cx="505.01" cy="345.689" r="4" fill="#0" id="circle143"/>
	<circle cx="506.012" cy="66.1253" r="4" fill="#0" id="circle144"/>
	<circle cx="514.028" cy="59.1111" r="4" fill="#0" id="circle145"/>
	<circle cx="514.028" cy="350.699" r="4" fill="#0" id="circle146"/>
	<circle cx="521.042" cy="358.715" r="4" fill="#0" id="circle147"/>
	<circle cx="524.048" cy="59.1111" r="4" fill="#0" id="circle148"/>
	<circle cx="531.063" cy="51.0949" r="4" fill="#0" id="circle149"/>
	<circle cx="531.063" cy="360.719" r="4" fill="#0" id="circle150"/>
	<circle cx="541.083" cy="46.0848" r="4" fill="#0" id="circle151"/>
	<circle cx="541.083" cy="360.719" r="4" fill="#0" id="circle152"/>
	<circle cx="551.103" cy="47.0869" r="4" fill="#0" id="circle153"/>
	<circle cx="551.103" cy="362.723" r="4" fill="#0" id="circle154"/>
	<circle cx="561.123" cy="49.0909" r="4" fill="#0" id="circle155"/>
	<circle cx="561.123" cy="365.729" r="4" fill="#0" id="circle156"/>
	<circle cx="570.141" cy="44.0808" r="4" fill="#0" id="circle157"/>
	<circle cx="571.143" cy="365.729" r="4" fill="#0" id="circle158"/>
	<circle cx="580.162" cy="46.0848" r="4" fill="#0" id="circle159"/>
	<circle cx="580.162" cy="370.739" r="4" fill="#0" id="circle160"/>
	<circle cx="590.182" cy="49.0909" r="4" fill="#0" id="circle161"/>
	<circle cx="590.182" cy="370.739" r="4" fill="#0" id="circle162"/>
	<circle cx="600.202" cy="51.0949" r="4" fill="#0" id="circle163"/>
	<circle cx="600.202" cy="370.739" r="4" fill="#0" id="circle164"/>
	<circle cx="609.22" cy="56.1051" r="4" fill="#0" id="circle165"/>
	<circle cx="610.222" cy="370.739" r="4" fill="#0" id="circle166"/>
	<circle cx="619.24" cy="59.1111" r="4" fill="#0" id="circle167"/>
	<circle cx="620.242" cy="370.739" r="4" fill="#0" id="circle168"/>
	<circle cx="621.244" cy="305.608" r="4" fill="#0" id="circle169"/>
	<circle cx="623.248" cy="315.628" r="4" fill="#0" id="circle170"/>
	<circle cx="628.259" cy="64.1212" r="4" fill="#0" id="circle171"/>
	<circle cx="630.263" cy="370.739" r="4" fill="#0" id="circle172"/>
	<circle cx="631.265" cy="305.608" r="4" fill="#0" id="circle173"/>
	<circle cx="633.269" cy="319.636" r="4" fill="#0" id="circle174"/>
	<circle cx="637.277" cy="69.1313" r="4" fill="#0" id="circle175"/>
	<circle cx="640.283" cy="327.653" r="4" fill="#0" id="circle176"/>
	<circle cx="640.283" cy="370.739" r="4" fill="#0" id="circle177"/>
	<circle cx="641.285" cy="307.612" r="4" fill="#0" id="circle178"/>
	<circle cx="646.295" cy="74.1414" r="4" fill="#0" id="circle179"/>
	<circle cx="648.299" cy="334.667" r="4" fill="#0" id="circle180"/>
	<circle cx="650.303" cy="370.739" r="4" fill="#0" id="circle181"/>
	<circle cx="651.305" cy="310.618" r="4" fill="#0" id="circle182"/>
	<circle cx="656.315" cy="77.1475" r="4" fill="#0" id="circle183"/>
	<circle cx="658.319" cy="334.667" r="4" fill="#0" id="circle184"/>
	<circle cx="660.323" cy="370.739" r="4" fill="#0" id="circle185"/>
	<circle cx="661.325" cy="86.1657" r="4" fill="#0" id="circle186"/>
	<circle cx="661.325" cy="310.618" r="4" fill="#0" id="circle187"/>
	<circle cx="667.337" cy="94.1818" r="4" fill="#0" id="circle188"/>
	<circle cx="667.337" cy="339.677" r="4" fill="#0" id="circle189"/>
	<circle cx="670.343" cy="370.739" r="4" fill="#0" id="circle190"/>
	<circle cx="671.345" cy="312.622" r="4" fill="#0" id="circle191"/>
	<circle cx="675.354" cy="346.691" r="4" fill="#0" id="circle192"/>
	<circle cx="676.356" cy="165.325" r="4" fill="#0" id="circle193"/>
	<circle cx="677.358" cy="94.1818" r="4" fill="#0" id="circle194"/>
	<circle cx="678.36" cy="175.345" r="4" fill="#0" id="circle195"/>
	<circle cx="680.364" cy="367.733" r="4" fill="#0" id="circle196"/>
	<circle cx="681.366" cy="315.628" r="4" fill="#0" id="circle197"/>
	<circle cx="681.366" cy="354.707" r="4" fill="#0" id="circle198"/>
	<circle cx="685.374" cy="101.196" r="4" fill="#0" id="circle199"/>
	<circle cx="686.376" cy="160.315" r="4" fill="#0" id="circle200"/>
	<circle cx="688.38" cy="179.354" r="4" fill="#0" id="circle201"/>
	<circle cx="690.384" cy="310.618" r="4" fill="#0" id="circle202"/>
	<circle cx="694.392" cy="106.206" r="4" fill="#0" id="circle203"/>
	<circle cx="696.396" cy="160.315" r="4" fill="#0" id="circle204"/>
	<circle cx="697.398" cy="184.364" r="4" fill="#0" id="circle205"/>
	<circle cx="699.402" cy="315.628" r="4" fill="#0" id="circle206"/>
	<circle cx="701.406" cy="114.222" r="4" fill="#0" id="circle207"/>
	<circle cx="706.416" cy="160.315" r="4" fill="#0" id="circle208"/>
	<circle cx="706.416" cy="189.374" r="4" fill="#0" id="circle209"/>
	<circle cx="709.422" cy="315.628" r="4" fill="#0" id="circle210"/>
	<circle cx="711.426" cy="117.228" r="4" fill="#0" id="circle211"/>
	<circle cx="716.436" cy="160.315" r="4" fill="#0" id="circle212"/>
	<circle cx="716.436" cy="189.374" r="4" fill="#0" id="circle213"/>
	<circle cx="719.442" cy="315.628" r="4" fill="#0" id="circle214"/>
	<circle cx="720.444" cy="122.238" r="4" fill="#0" id="circle215"/>
	<circle cx="725.455" cy="155.305" r="4" fill="#0" id="circle216"/>
	<circle cx="726.457" cy="189.374" r="4" fill="#0" id="circle217"/>
	<circle cx="728.461" cy="129.253" r="4" fill="#0" id="circle218"/>
	<circle cx="728.461" cy="320.638" r="4" fill="#0" id="circle219"/>
	<circle cx="735.475" cy="155.305" r="4" fill="#0" id="circle220"/>
	<circle cx="736.477" cy="192.38" r="4" fill="#0" id="circle221"/>
	<circle cx="737.479" cy="134.263" r="4" fill="#0" id="circle222"/>
	<circle cx="738.481" cy="320.638" r="4" fill="#0" id="circle223"/>
	<circle cx="744.493" cy="199.394" r="4" fill="#0" id="circle224"/>
	<circle cx="745.495" cy="152.299" r="4" fill="#0" id="circle225"/>
	<circle cx="746.497" cy="139.273" r="4" fill="#0" id="circle226"/>
	<circle cx="747.499" cy="315.628" r="4" fill="#0" id="circle227"/>
	<circle cx="753.511" cy="194.384" r="4" fill="#0" id="circle228"/>
	<circle cx="757.519" cy="318.634" r="4" fill="#0" id="circle229"/>
	<circle cx="763.531" cy="194.384" r="4" fill="#0" id="circle230"/>
	<circle cx="767.539" cy="320.638" r="4" fill="#0" id="circle231"/>
	<circle cx="772.549" cy="199.394" r="4" fill="#0" id="circle232"/>
	<circle cx="777.56" cy="320.638" r="4" fill="#0" id="circle233"/>
	<circle cx="782.57" cy="199.394" r="4" fill="#0" id="circle234"/>
	<circle cx="787.58" cy="323.644" r="4" fill="#0" id="circle235"/>
	<circle cx="791.588" cy="194.384" r="4" fill="#0" id="circle236"/>
	<circle cx="796.598" cy="328.655" r="4" fill="#0" id="circle237"/>
	<circle cx="801.608" cy="194.384" r="4" fill="#0" id="circle238"/>
	<circle cx="806.618" cy="332.663" r="4" fill="#0" id="circle239"/>
	<circle cx="811.628" cy="194.384" r="4" fill="#0" id="circle240"/>
	<circle cx="815.636" cy="337.673" r="4" fill="#0" id="circle241"/>
	<circle cx="820.646" cy="189.374" r="4" fill="#0" id="circle242"/>
	<circle cx="823.653" cy="344.687" r="4" fill="#0" id="circle243"/>
	<circle cx="829.665" cy="194.384" r="4" fill="#0" id="circle244"/>
	<circle cx="833.673" cy="345.689" r="4" fill="#0" id="circle245"/>
	<circle cx="839.685" cy="194.384" r="4" fill="#0" id="circle246"/>
	<circle cx="841.689" cy="352.703" r="4" fill="#0" id="circle247"/>
	<circle cx="849.705" cy="195.386" r="4" fill="#0" id="circle248"/>
	<circle cx="851.709" cy="355.709" r="4" fill="#0" id="circle249"/>
	<circle cx="859.725" cy="199.394" r="4" fill="#0" id="circle250"/>
	<circle cx="861.729" cy="355.709" r="4" fill="#0" id="circle251"/>
	<circle cx="869.745" cy="199.394" r="4" fill="#0" id="circle252"/>
	<circle cx="870.747" cy="360.719" r="4" fill="#0" id="circle253"/>
	<circle cx="878.764" cy="194.384" r="4" fill="#0" id="circle254"/>
	<circle cx="880.768" cy="360.719" r="4" fill="#0" id="circle255"/>
	<circle cx="887.782" cy="199.394" r="4" fill="#0" id="circle256"/>
	<circle cx="890.788" cy="360.719" r="4" fill="#0" id="circle257"/>
	<circle cx="897.802" cy="199.394" r="4" fill="#0" id="circle258"/>
	<circle cx="900.808" cy="360.719" r="4" fill="#0" id="circle259"/>
	<circle cx="907.822" cy="199.394" r="4" fill="#0" id="circle260"/>
	<circle cx="910.828" cy="360.719" r="4" fill="#0" id="circle261"/>
	<circle cx="916.84" cy="204.404" r="4" fill="#0" id="circle262"/>
	<circle cx="920.848" cy="357.713" r="4" fill="#0" id="circle263"/>
	<circle cx="926.861" cy="204.404" r="4" fill="#0" id="circle264"/>
	<circle cx="930.869" cy="352.703" r="4" fill="#0" id="circle265"/>
	<circle cx="936.881" cy="207.41" r="4" fill="#0" id="circle266"/>
	<circle cx="940.889" cy="350.699" r="4" fill="#0" id="circle267"/>
	<circle cx="944.897" cy="214.424" r="4" fill="#0" id="circle268"/>
	<circle cx="949.907" cy="345.689" r="4" fill="#0" id="circle269"/>
	<circle cx="954.917" cy="214.424" r="4" fill="#0" id="circle270"/>
	<circle cx="959.927" cy="345.689" r="4" fill="#0" id="circle271"/>
	<circle cx="964.937" cy="215.426" r="4" fill="#0" id="circle272"/>
	<circle cx="968.945" cy="339.677" r="4" fill="#0" id="circle273"/>
	<circle cx="971.952" cy="223.442" r="4" fill="#0" id="circle274"/>
	<circle cx="971.952" cy="233.463" r="4" fill="#0" id="circle275"/>
	<circle cx="976.962" cy="330.659" r="4" fill="#0" id="circle276"/>
	<circle cx="979.968" cy="240.477" r="4" fill="#0" id="circle277"/>
	<circle cx="984.978" cy="323.644" r="4" fill="#0" id="circle278"/>
	<circle cx="986.982" cy="248.493" r="4" fill="#0" id="circle279"/>
	<circle cx="989.988" cy="313.624" r="4" fill="#0" id="circle280"/>
	<circle cx="991.992" cy="257.511" r="4" fill="#0" id="circle281"/>
	<circle cx="991.992" cy="285.568" r="4" fill="#0" id="circle282"/>
	<circle cx="991.992" cy="295.588" r="4" fill="#0" id="circle283"/>
	<circle cx="996" cy="267.531" r="4" fill="#0" id="circle284"/>
	</g>
</svg>