<?xml version="1.0" encoding="UTF-8" standalone="no"?>
<!-- Created with CurveBenchmark -->
<svg
	xmlns:dc="http://purl.org/dc/elements/1.1/"
	xmlns:cc="http://creativecommons.org/ns#"
	xmlns:rdf="http://www.w3.org/1999/02/22-rdf-syntax-ns#"
	xmlns:svg="http://www.w3.org/2000/svg"
	xmlns="http://www.w3.org/2000/svg"
	xmlns:sodipodi="http://sodipodi.sourceforge.net/DTD/sodipodi-0.dtd"
	xmlns:inkscape="http://www.inkscape.org/namespaces/inkscape"
	width="1000"
	height="1000"
	id="svg2"
	version="1.1"
	sodipodi:docname="manifold/discur-television255.png.txt">
<defs
	id="defs4" />
<metadata
	id="metadata7">
	<rdf:RDF>
		<cc:Work
			rdf:about="">
			<dc:format>image/svg+xml</dc:format>
			<dc:type
				rdf:resource="http://purl.org/dc/dcmitype/StillImage" />
			<dc:title></dc:title>
		</cc:Work>
	</rdf:RDF>
</metadata>
<g
	inkscape:label="Layer 1"
	inkscape:groupmode="layer"
	id="layer1">
	<path style="fill:none;stroke:red;stroke-width:1px;stroke-linecap:butt;stroke-linejoin:miter;stroke-opacity:1" d="M 4,905.818 4,945.028 z" id="boundary" inkscape:connector-curvature="0" />
	<path style="fill:none;stroke:red;stroke-width:1px;stroke-linecap:butt;stroke-linejoin:miter;stroke-opacity:1" d="M 4,905.818 43.2095,897.976 z" id="boundary" inkscape:connector-curvature="0" />
	<path style="fill:none;stroke:red;stroke-width:1px;stroke-linecap:butt;stroke-linejoin:miter;stroke-opacity:1" d="M 4,945.028 23.6047,980.316 z" id="boundary" inkscape:connector-curvature="0" />
	<path style="fill:none;stroke:red;stroke-width:1px;stroke-linecap:butt;stroke-linejoin:miter;stroke-opacity:1" d="M 23.6047,980.316 62.8142,980.316 z" id="boundary" inkscape:connector-curvature="0" />
	<path style="fill:none;stroke:red;stroke-width:1px;stroke-linecap:butt;stroke-linejoin:miter;stroke-opacity:1" d="M 43.2095,897.976 74.5771,921.502 z" id="boundary" inkscape:connector-curvature="0" />
	<path style="fill:none;stroke:red;stroke-width:1px;stroke-linecap:butt;stroke-linejoin:miter;stroke-opacity:1" d="M 62.8142,980.316 102.024,980.316 z" id="boundary" inkscape:connector-curvature="0" />
	<path style="fill:none;stroke:red;stroke-width:1px;stroke-linecap:butt;stroke-linejoin:miter;stroke-opacity:1" d="M 74.5771,921.502 105.945,897.976 z" id="boundary" inkscape:connector-curvature="0" />
	<path style="fill:none;stroke:red;stroke-width:1px;stroke-linecap:butt;stroke-linejoin:miter;stroke-opacity:1" d="M 102.024,980.316 141.233,980.316 z" id="boundary" inkscape:connector-curvature="0" />
	<path style="fill:none;stroke:red;stroke-width:1px;stroke-linecap:butt;stroke-linejoin:miter;stroke-opacity:1" d="M 105.945,897.976 137.312,921.502 z" id="boundary" inkscape:connector-curvature="0" />
	<path style="fill:none;stroke:red;stroke-width:1px;stroke-linecap:butt;stroke-linejoin:miter;stroke-opacity:1" d="M 137.312,662.719 168.68,690.166 z" id="boundary" inkscape:connector-curvature="0" />
	<path style="fill:none;stroke:red;stroke-width:1px;stroke-linecap:butt;stroke-linejoin:miter;stroke-opacity:1" d="M 137.312,662.719 180.443,650.957 z" id="boundary" inkscape:connector-curvature="0" />
	<path style="fill:none;stroke:red;stroke-width:1px;stroke-linecap:butt;stroke-linejoin:miter;stroke-opacity:1" d="M 137.312,780.348 156.917,815.636 z" id="boundary" inkscape:connector-curvature="0" />
	<path style="fill:none;stroke:red;stroke-width:1px;stroke-linecap:butt;stroke-linejoin:miter;stroke-opacity:1" d="M 137.312,780.348 176.522,780.348 z" id="boundary" inkscape:connector-curvature="0" />
	<path style="fill:none;stroke:red;stroke-width:1px;stroke-linecap:butt;stroke-linejoin:miter;stroke-opacity:1" d="M 137.312,921.502 168.68,897.976 z" id="boundary" inkscape:connector-curvature="0" />
	<path style="fill:none;stroke:red;stroke-width:1px;stroke-linecap:butt;stroke-linejoin:miter;stroke-opacity:1" d="M 141.233,980.316 180.443,980.316 z" id="boundary" inkscape:connector-curvature="0" />
	<path style="fill:none;stroke:red;stroke-width:1px;stroke-linecap:butt;stroke-linejoin:miter;stroke-opacity:1" d="M 156.917,815.636 176.522,780.348 z" id="boundary" inkscape:connector-curvature="0" />
	<path style="fill:none;stroke:red;stroke-width:1px;stroke-linecap:butt;stroke-linejoin:miter;stroke-opacity:1" d="M 160.838,82.419 160.838,121.628 z" id="boundary" inkscape:connector-curvature="0" />
	<path style="fill:none;stroke:red;stroke-width:1px;stroke-linecap:butt;stroke-linejoin:miter;stroke-opacity:1" d="M 160.838,82.419 184.364,51.0514 z" id="boundary" inkscape:connector-curvature="0" />
	<path style="fill:none;stroke:red;stroke-width:1px;stroke-linecap:butt;stroke-linejoin:miter;stroke-opacity:1" d="M 160.838,121.628 160.838,160.838 z" id="boundary" inkscape:connector-curvature="0" />
	<path style="fill:none;stroke:red;stroke-width:1px;stroke-linecap:butt;stroke-linejoin:miter;stroke-opacity:1" d="M 160.838,160.838 160.838,200.047 z" id="boundary" inkscape:connector-curvature="0" />
	<path style="fill:none;stroke:red;stroke-width:1px;stroke-linecap:butt;stroke-linejoin:miter;stroke-opacity:1" d="M 160.838,200.047 180.443,235.336 z" id="boundary" inkscape:connector-curvature="0" />
	<path style="fill:none;stroke:red;stroke-width:1px;stroke-linecap:butt;stroke-linejoin:miter;stroke-opacity:1" d="M 168.68,690.166 180.443,650.957 z" id="boundary" inkscape:connector-curvature="0" />
	<path style="fill:none;stroke:red;stroke-width:1px;stroke-linecap:butt;stroke-linejoin:miter;stroke-opacity:1" d="M 168.68,897.976 184.364,847.004 z" id="boundary" inkscape:connector-curvature="0" />
	<path style="fill:none;stroke:red;stroke-width:1px;stroke-linecap:butt;stroke-linejoin:miter;stroke-opacity:1" d="M 180.443,235.336 184.364,274.545 z" id="boundary" inkscape:connector-curvature="0" />
	<path style="fill:none;stroke:red;stroke-width:1px;stroke-linecap:butt;stroke-linejoin:miter;stroke-opacity:1" d="M 180.443,980.316 219.652,980.316 z" id="boundary" inkscape:connector-curvature="0" />
	<path style="fill:none;stroke:red;stroke-width:1px;stroke-linecap:butt;stroke-linejoin:miter;stroke-opacity:1" d="M 184.364,11.8419 184.364,51.0514 z" id="boundary" inkscape:connector-curvature="0" />
	<path style="fill:none;stroke:red;stroke-width:1px;stroke-linecap:butt;stroke-linejoin:miter;stroke-opacity:1" d="M 184.364,11.8419 223.573,4 z" id="boundary" inkscape:connector-curvature="0" />
	<path style="fill:none;stroke:red;stroke-width:1px;stroke-linecap:butt;stroke-linejoin:miter;stroke-opacity:1" d="M 184.364,274.545 184.364,313.755 z" id="boundary" inkscape:connector-curvature="0" />
	<path style="fill:none;stroke:red;stroke-width:1px;stroke-linecap:butt;stroke-linejoin:miter;stroke-opacity:1" d="M 184.364,313.755 184.364,352.964 z" id="boundary" inkscape:connector-curvature="0" />
	<path style="fill:none;stroke:red;stroke-width:1px;stroke-linecap:butt;stroke-linejoin:miter;stroke-opacity:1" d="M 184.364,352.964 184.364,392.174 z" id="boundary" inkscape:connector-curvature="0" />
	<path style="fill:none;stroke:red;stroke-width:1px;stroke-linecap:butt;stroke-linejoin:miter;stroke-opacity:1" d="M 184.364,392.174 184.364,431.383 z" id="boundary" inkscape:connector-curvature="0" />
	<path style="fill:none;stroke:red;stroke-width:1px;stroke-linecap:butt;stroke-linejoin:miter;stroke-opacity:1" d="M 184.364,431.383 184.364,470.593 z" id="boundary" inkscape:connector-curvature="0" />
	<path style="fill:none;stroke:red;stroke-width:1px;stroke-linecap:butt;stroke-linejoin:miter;stroke-opacity:1" d="M 184.364,470.593 184.364,509.802 z" id="boundary" inkscape:connector-curvature="0" />
	<path style="fill:none;stroke:red;stroke-width:1px;stroke-linecap:butt;stroke-linejoin:miter;stroke-opacity:1" d="M 184.364,509.802 184.364,549.012 z" id="boundary" inkscape:connector-curvature="0" />
	<path style="fill:none;stroke:red;stroke-width:1px;stroke-linecap:butt;stroke-linejoin:miter;stroke-opacity:1" d="M 184.364,549.012 184.364,588.221 z" id="boundary" inkscape:connector-curvature="0" />
	<path style="fill:none;stroke:red;stroke-width:1px;stroke-linecap:butt;stroke-linejoin:miter;stroke-opacity:1" d="M 219.652,980.316 258.862,980.316 z" id="boundary" inkscape:connector-curvature="0" />
	<path style="fill:none;stroke:red;stroke-width:1px;stroke-linecap:butt;stroke-linejoin:miter;stroke-opacity:1" d="M 223.573,4 262.783,4 z" id="boundary" inkscape:connector-curvature="0" />
	<path style="fill:none;stroke:red;stroke-width:1px;stroke-linecap:butt;stroke-linejoin:miter;stroke-opacity:1" d="M 258.862,980.316 298.071,980.316 z" id="boundary" inkscape:connector-curvature="0" />
	<path style="fill:none;stroke:red;stroke-width:1px;stroke-linecap:butt;stroke-linejoin:miter;stroke-opacity:1" d="M 262.783,4 301.992,4 z" id="boundary" inkscape:connector-curvature="0" />
	<path style="fill:none;stroke:red;stroke-width:1px;stroke-linecap:butt;stroke-linejoin:miter;stroke-opacity:1" d="M 298.071,980.316 337.281,996 z" id="boundary" inkscape:connector-curvature="0" />
	<path style="fill:none;stroke:red;stroke-width:1px;stroke-linecap:butt;stroke-linejoin:miter;stroke-opacity:1" d="M 301.992,4 341.202,4 z" id="boundary" inkscape:connector-curvature="0" />
	<path style="fill:none;stroke:red;stroke-width:1px;stroke-linecap:butt;stroke-linejoin:miter;stroke-opacity:1" d="M 313.755,529.407 313.755,568.617 z" id="boundary" inkscape:connector-curvature="0" />
	<path style="fill:none;stroke:red;stroke-width:1px;stroke-linecap:butt;stroke-linejoin:miter;stroke-opacity:1" d="M 313.755,529.407 352.964,525.486 z" id="boundary" inkscape:connector-curvature="0" />
	<path style="fill:none;stroke:red;stroke-width:1px;stroke-linecap:butt;stroke-linejoin:miter;stroke-opacity:1" d="M 313.755,568.617 313.755,607.826 z" id="boundary" inkscape:connector-curvature="0" />
	<path style="fill:none;stroke:red;stroke-width:1px;stroke-linecap:butt;stroke-linejoin:miter;stroke-opacity:1" d="M 313.755,607.826 313.755,647.036 z" id="boundary" inkscape:connector-curvature="0" />
	<path style="fill:none;stroke:red;stroke-width:1px;stroke-linecap:butt;stroke-linejoin:miter;stroke-opacity:1" d="M 313.755,647.036 352.964,654.877 z" id="boundary" inkscape:connector-curvature="0" />
	<path style="fill:none;stroke:red;stroke-width:1px;stroke-linecap:butt;stroke-linejoin:miter;stroke-opacity:1" d="M 313.755,701.929 313.755,741.138 z" id="boundary" inkscape:connector-curvature="0" />
	<path style="fill:none;stroke:red;stroke-width:1px;stroke-linecap:butt;stroke-linejoin:miter;stroke-opacity:1" d="M 313.755,701.929 372.569,690.166 z" id="boundary" inkscape:connector-curvature="0" />
	<path style="fill:none;stroke:red;stroke-width:1px;stroke-linecap:butt;stroke-linejoin:miter;stroke-opacity:1" d="M 313.755,741.138 317.676,780.348 z" id="boundary" inkscape:connector-curvature="0" />
	<path style="fill:none;stroke:red;stroke-width:1px;stroke-linecap:butt;stroke-linejoin:miter;stroke-opacity:1" d="M 313.755,819.557 313.755,858.767 z" id="boundary" inkscape:connector-curvature="0" />
	<path style="fill:none;stroke:red;stroke-width:1px;stroke-linecap:butt;stroke-linejoin:miter;stroke-opacity:1" d="M 313.755,819.557 317.676,780.348 z" id="boundary" inkscape:connector-curvature="0" />
	<path style="fill:none;stroke:red;stroke-width:1px;stroke-linecap:butt;stroke-linejoin:miter;stroke-opacity:1" d="M 313.755,858.767 317.676,897.976 z" id="boundary" inkscape:connector-curvature="0" />
	<path style="fill:none;stroke:red;stroke-width:1px;stroke-linecap:butt;stroke-linejoin:miter;stroke-opacity:1" d="M 317.676,897.976 356.885,897.976 z" id="boundary" inkscape:connector-curvature="0" />
	<path style="fill:none;stroke:red;stroke-width:1px;stroke-linecap:butt;stroke-linejoin:miter;stroke-opacity:1" d="M 337.281,996 376.49,980.316 z" id="boundary" inkscape:connector-curvature="0" />
	<path style="fill:none;stroke:red;stroke-width:1px;stroke-linecap:butt;stroke-linejoin:miter;stroke-opacity:1" d="M 341.202,4 380.411,4 z" id="boundary" inkscape:connector-curvature="0" />
	<path style="fill:none;stroke:red;stroke-width:1px;stroke-linecap:butt;stroke-linejoin:miter;stroke-opacity:1" d="M 352.964,525.486 392.174,525.486 z" id="boundary" inkscape:connector-curvature="0" />
	<path style="fill:none;stroke:red;stroke-width:1px;stroke-linecap:butt;stroke-linejoin:miter;stroke-opacity:1" d="M 352.964,654.877 392.174,654.877 z" id="boundary" inkscape:connector-curvature="0" />
	<path style="fill:none;stroke:red;stroke-width:1px;stroke-linecap:butt;stroke-linejoin:miter;stroke-opacity:1" d="M 352.964,815.636 372.569,780.348 z" id="boundary" inkscape:connector-curvature="0" />
	<path style="fill:none;stroke:red;stroke-width:1px;stroke-linecap:butt;stroke-linejoin:miter;stroke-opacity:1" d="M 352.964,815.636 392.174,815.636 z" id="boundary" inkscape:connector-curvature="0" />
	<path style="fill:none;stroke:red;stroke-width:1px;stroke-linecap:butt;stroke-linejoin:miter;stroke-opacity:1" d="M 356.885,897.976 396.095,897.976 z" id="boundary" inkscape:connector-curvature="0" />
	<path style="fill:none;stroke:red;stroke-width:1px;stroke-linecap:butt;stroke-linejoin:miter;stroke-opacity:1" d="M 372.569,690.166 411.779,690.166 z" id="boundary" inkscape:connector-curvature="0" />
	<path style="fill:none;stroke:red;stroke-width:1px;stroke-linecap:butt;stroke-linejoin:miter;stroke-opacity:1" d="M 372.569,780.348 411.779,780.348 z" id="boundary" inkscape:connector-curvature="0" />
	<path style="fill:none;stroke:red;stroke-width:1px;stroke-linecap:butt;stroke-linejoin:miter;stroke-opacity:1" d="M 376.49,980.316 415.7,980.316 z" id="boundary" inkscape:connector-curvature="0" />
	<path style="fill:none;stroke:red;stroke-width:1px;stroke-linecap:butt;stroke-linejoin:miter;stroke-opacity:1" d="M 380.411,4 419.621,4 z" id="boundary" inkscape:connector-curvature="0" />
	<path style="fill:none;stroke:red;stroke-width:1px;stroke-linecap:butt;stroke-linejoin:miter;stroke-opacity:1" d="M 392.174,525.486 431.383,525.486 z" id="boundary" inkscape:connector-curvature="0" />
	<path style="fill:none;stroke:red;stroke-width:1px;stroke-linecap:butt;stroke-linejoin:miter;stroke-opacity:1" d="M 392.174,654.877 431.383,654.877 z" id="boundary" inkscape:connector-curvature="0" />
	<path style="fill:none;stroke:red;stroke-width:1px;stroke-linecap:butt;stroke-linejoin:miter;stroke-opacity:1" d="M 392.174,815.636 431.383,815.636 z" id="boundary" inkscape:connector-curvature="0" />
	<path style="fill:none;stroke:red;stroke-width:1px;stroke-linecap:butt;stroke-linejoin:miter;stroke-opacity:1" d="M 396.095,897.976 435.304,897.976 z" id="boundary" inkscape:connector-curvature="0" />
	<path style="fill:none;stroke:red;stroke-width:1px;stroke-linecap:butt;stroke-linejoin:miter;stroke-opacity:1" d="M 411.779,690.166 450.988,690.166 z" id="boundary" inkscape:connector-curvature="0" />
	<path style="fill:none;stroke:red;stroke-width:1px;stroke-linecap:butt;stroke-linejoin:miter;stroke-opacity:1" d="M 411.779,780.348 450.988,780.348 z" id="boundary" inkscape:connector-curvature="0" />
	<path style="fill:none;stroke:red;stroke-width:1px;stroke-linecap:butt;stroke-linejoin:miter;stroke-opacity:1" d="M 415.7,980.316 454.909,980.316 z" id="boundary" inkscape:connector-curvature="0" />
	<path style="fill:none;stroke:red;stroke-width:1px;stroke-linecap:butt;stroke-linejoin:miter;stroke-opacity:1" d="M 419.621,4 458.83,15.7628 z" id="boundary" inkscape:connector-curvature="0" />
	<path style="fill:none;stroke:red;stroke-width:1px;stroke-linecap:butt;stroke-linejoin:miter;stroke-opacity:1" d="M 431.383,525.486 462.751,486.277 z" id="boundary" inkscape:connector-curvature="0" />
	<path style="fill:none;stroke:red;stroke-width:1px;stroke-linecap:butt;stroke-linejoin:miter;stroke-opacity:1" d="M 431.383,654.877 470.593,654.877 z" id="boundary" inkscape:connector-curvature="0" />
	<path style="fill:none;stroke:red;stroke-width:1px;stroke-linecap:butt;stroke-linejoin:miter;stroke-opacity:1" d="M 431.383,815.636 470.593,815.636 z" id="boundary" inkscape:connector-curvature="0" />
	<path style="fill:none;stroke:red;stroke-width:1px;stroke-linecap:butt;stroke-linejoin:miter;stroke-opacity:1" d="M 435.304,897.976 466.672,921.502 z" id="boundary" inkscape:connector-curvature="0" />
	<path style="fill:none;stroke:red;stroke-width:1px;stroke-linecap:butt;stroke-linejoin:miter;stroke-opacity:1" d="M 450.988,690.166 490.198,690.166 z" id="boundary" inkscape:connector-curvature="0" />
	<path style="fill:none;stroke:red;stroke-width:1px;stroke-linecap:butt;stroke-linejoin:miter;stroke-opacity:1" d="M 450.988,780.348 490.198,780.348 z" id="boundary" inkscape:connector-curvature="0" />
	<path style="fill:none;stroke:red;stroke-width:1px;stroke-linecap:butt;stroke-linejoin:miter;stroke-opacity:1" d="M 454.909,980.316 494.119,980.316 z" id="boundary" inkscape:connector-curvature="0" />
	<path style="fill:none;stroke:red;stroke-width:1px;stroke-linecap:butt;stroke-linejoin:miter;stroke-opacity:1" d="M 458.83,15.7628 462.751,54.9723 z" id="boundary" inkscape:connector-curvature="0" />
	<path style="fill:none;stroke:red;stroke-width:1px;stroke-linecap:butt;stroke-linejoin:miter;stroke-opacity:1" d="M 462.751,54.9723 462.751,94.1818 z" id="boundary" inkscape:connector-curvature="0" />
	<path style="fill:none;stroke:red;stroke-width:1px;stroke-linecap:butt;stroke-linejoin:miter;stroke-opacity:1" d="M 462.751,94.1818 462.751,133.391 z" id="boundary" inkscape:connector-curvature="0" />
	<path style="fill:none;stroke:red;stroke-width:1px;stroke-linecap:butt;stroke-linejoin:miter;stroke-opacity:1" d="M 462.751,133.391 462.751,172.601 z" id="boundary" inkscape:connector-curvature="0" />
	<path style="fill:none;stroke:red;stroke-width:1px;stroke-linecap:butt;stroke-linejoin:miter;stroke-opacity:1" d="M 462.751,172.601 462.751,211.81 z" id="boundary" inkscape:connector-curvature="0" />
	<path style="fill:none;stroke:red;stroke-width:1px;stroke-linecap:butt;stroke-linejoin:miter;stroke-opacity:1" d="M 462.751,211.81 462.751,251.02 z" id="boundary" inkscape:connector-curvature="0" />
	<path style="fill:none;stroke:red;stroke-width:1px;stroke-linecap:butt;stroke-linejoin:miter;stroke-opacity:1" d="M 462.751,251.02 462.751,290.229 z" id="boundary" inkscape:connector-curvature="0" />
	<path style="fill:none;stroke:red;stroke-width:1px;stroke-linecap:butt;stroke-linejoin:miter;stroke-opacity:1" d="M 462.751,290.229 462.751,329.439 z" id="boundary" inkscape:connector-curvature="0" />
	<path style="fill:none;stroke:red;stroke-width:1px;stroke-linecap:butt;stroke-linejoin:miter;stroke-opacity:1" d="M 462.751,329.439 462.751,368.648 z" id="boundary" inkscape:connector-curvature="0" />
	<path style="fill:none;stroke:red;stroke-width:1px;stroke-linecap:butt;stroke-linejoin:miter;stroke-opacity:1" d="M 462.751,368.648 462.751,407.858 z" id="boundary" inkscape:connector-curvature="0" />
	<path style="fill:none;stroke:red;stroke-width:1px;stroke-linecap:butt;stroke-linejoin:miter;stroke-opacity:1" d="M 462.751,407.858 462.751,447.067 z" id="boundary" inkscape:connector-curvature="0" />
	<path style="fill:none;stroke:red;stroke-width:1px;stroke-linecap:butt;stroke-linejoin:miter;stroke-opacity:1" d="M 462.751,447.067 462.751,486.277 z" id="boundary" inkscape:connector-curvature="0" />
	<path style="fill:none;stroke:red;stroke-width:1px;stroke-linecap:butt;stroke-linejoin:miter;stroke-opacity:1" d="M 466.672,921.502 498.04,897.976 z" id="boundary" inkscape:connector-curvature="0" />
	<path style="fill:none;stroke:red;stroke-width:1px;stroke-linecap:butt;stroke-linejoin:miter;stroke-opacity:1" d="M 470.593,654.877 509.802,654.877 z" id="boundary" inkscape:connector-curvature="0" />
	<path style="fill:none;stroke:red;stroke-width:1px;stroke-linecap:butt;stroke-linejoin:miter;stroke-opacity:1" d="M 470.593,815.636 509.802,815.636 z" id="boundary" inkscape:connector-curvature="0" />
	<path style="fill:none;stroke:red;stroke-width:1px;stroke-linecap:butt;stroke-linejoin:miter;stroke-opacity:1" d="M 490.198,690.166 529.407,690.166 z" id="boundary" inkscape:connector-curvature="0" />
	<path style="fill:none;stroke:red;stroke-width:1px;stroke-linecap:butt;stroke-linejoin:miter;stroke-opacity:1" d="M 490.198,780.348 529.407,780.348 z" id="boundary" inkscape:connector-curvature="0" />
	<path style="fill:none;stroke:red;stroke-width:1px;stroke-linecap:butt;stroke-linejoin:miter;stroke-opacity:1" d="M 494.119,980.316 533.328,980.316 z" id="boundary" inkscape:connector-curvature="0" />
	<path style="fill:none;stroke:red;stroke-width:1px;stroke-linecap:butt;stroke-linejoin:miter;stroke-opacity:1" d="M 498.04,897.976 529.407,921.502 z" id="boundary" inkscape:connector-curvature="0" />
	<path style="fill:none;stroke:red;stroke-width:1px;stroke-linecap:butt;stroke-linejoin:miter;stroke-opacity:1" d="M 509.802,654.877 549.012,654.877 z" id="boundary" inkscape:connector-curvature="0" />
	<path style="fill:none;stroke:red;stroke-width:1px;stroke-linecap:butt;stroke-linejoin:miter;stroke-opacity:1" d="M 509.802,815.636 549.012,815.636 z" id="boundary" inkscape:connector-curvature="0" />
	<path style="fill:none;stroke:red;stroke-width:1px;stroke-linecap:butt;stroke-linejoin:miter;stroke-opacity:1" d="M 529.407,690.166 568.617,690.166 z" id="boundary" inkscape:connector-curvature="0" />
	<path style="fill:none;stroke:red;stroke-width:1px;stroke-linecap:butt;stroke-linejoin:miter;stroke-opacity:1" d="M 529.407,780.348 568.617,780.348 z" id="boundary" inkscape:connector-curvature="0" />
	<path style="fill:none;stroke:red;stroke-width:1px;stroke-linecap:butt;stroke-linejoin:miter;stroke-opacity:1" d="M 529.407,921.502 560.775,897.976 z" id="boundary" inkscape:connector-curvature="0" />
	<path style="fill:none;stroke:red;stroke-width:1px;stroke-linecap:butt;stroke-linejoin:miter;stroke-opacity:1" d="M 533.328,980.316 572.538,980.316 z" id="boundary" inkscape:connector-curvature="0" />
	<path style="fill:none;stroke:red;stroke-width:1px;stroke-linecap:butt;stroke-linejoin:miter;stroke-opacity:1" d="M 549.012,654.877 588.221,654.877 z" id="boundary" inkscape:connector-curvature="0" />
	<path style="fill:none;stroke:red;stroke-width:1px;stroke-linecap:butt;stroke-linejoin:miter;stroke-opacity:1" d="M 549.012,815.636 588.221,815.636 z" id="boundary" inkscape:connector-curvature="0" />
	<path style="fill:none;stroke:red;stroke-width:1px;stroke-linecap:butt;stroke-linejoin:miter;stroke-opacity:1" d="M 560.775,897.976 599.984,897.976 z" id="boundary" inkscape:connector-curvature="0" />
	<path style="fill:none;stroke:red;stroke-width:1px;stroke-linecap:butt;stroke-linejoin:miter;stroke-opacity:1" d="M 568.617,690.166 607.826,690.166 z" id="boundary" inkscape:connector-curvature="0" />
	<path style="fill:none;stroke:red;stroke-width:1px;stroke-linecap:butt;stroke-linejoin:miter;stroke-opacity:1" d="M 568.617,780.348 607.826,780.348 z" id="boundary" inkscape:connector-curvature="0" />
	<path style="fill:none;stroke:red;stroke-width:1px;stroke-linecap:butt;stroke-linejoin:miter;stroke-opacity:1" d="M 572.538,980.316 611.747,996 z" id="boundary" inkscape:connector-curvature="0" />
	<path style="fill:none;stroke:red;stroke-width:1px;stroke-linecap:butt;stroke-linejoin:miter;stroke-opacity:1" d="M 588.221,654.877 627.431,654.877 z" id="boundary" inkscape:connector-curvature="0" />
	<path style="fill:none;stroke:red;stroke-width:1px;stroke-linecap:butt;stroke-linejoin:miter;stroke-opacity:1" d="M 588.221,815.636 627.431,815.636 z" id="boundary" inkscape:connector-curvature="0" />
	<path style="fill:none;stroke:red;stroke-width:1px;stroke-linecap:butt;stroke-linejoin:miter;stroke-opacity:1" d="M 599.984,897.976 639.194,897.976 z" id="boundary" inkscape:connector-curvature="0" />
	<path style="fill:none;stroke:red;stroke-width:1px;stroke-linecap:butt;stroke-linejoin:miter;stroke-opacity:1" d="M 607.826,690.166 627.431,654.877 z" id="boundary" inkscape:connector-curvature="0" />
	<path style="fill:none;stroke:red;stroke-width:1px;stroke-linecap:butt;stroke-linejoin:miter;stroke-opacity:1" d="M 607.826,780.348 647.036,780.348 z" id="boundary" inkscape:connector-curvature="0" />
	<path style="fill:none;stroke:red;stroke-width:1px;stroke-linecap:butt;stroke-linejoin:miter;stroke-opacity:1" d="M 611.747,996 650.957,980.316 z" id="boundary" inkscape:connector-curvature="0" />
	<path style="fill:none;stroke:red;stroke-width:1px;stroke-linecap:butt;stroke-linejoin:miter;stroke-opacity:1" d="M 627.431,815.636 647.036,780.348 z" id="boundary" inkscape:connector-curvature="0" />
	<path style="fill:none;stroke:red;stroke-width:1px;stroke-linecap:butt;stroke-linejoin:miter;stroke-opacity:1" d="M 639.194,897.976 666.64,929.344 z" id="boundary" inkscape:connector-curvature="0" />
	<path style="fill:none;stroke:red;stroke-width:1px;stroke-linecap:butt;stroke-linejoin:miter;stroke-opacity:1" d="M 650.957,980.316 666.64,929.344 z" id="boundary" inkscape:connector-curvature="0" />
	<circle cx="4" cy="905.818" r="4" fill="#0" id="circle0"/>
	<circle cx="4" cy="945.028" r="4" fill="#0" id="circle1"/>
	<circle cx="23.6047" cy="980.316" r="4" fill="#0" id="circle2"/>
	<circle cx="43.2095" cy="897.976" r="4" fill="#0" id="circle3"/>
	<circle cx="62.8142" cy="980.316" r="4" fill="#0" id="circle4"/>
	<circle cx="74.5771" cy="921.502" r="4" fill="#0" id="circle5"/>
	<circle cx="102.024" cy="980.316" r="4" fill="#0" id="circle6"/>
	<circle cx="105.945" cy="897.976" r="4" fill="#0" id="circle7"/>
	<circle cx="137.312" cy="662.719" r="4" fill="#0" id="circle8"/>
	<circle cx="137.312" cy="780.348" r="4" fill="#0" id="circle9"/>
	<circle cx="137.312" cy="921.502" r="4" fill="#0" id="circle10"/>
	<circle cx="141.233" cy="980.316" r="4" fill="#0" id="circle11"/>
	<circle cx="156.917" cy="815.636" r="4" fill="#0" id="circle12"/>
	<circle cx="160.838" cy="82.419" r="4" fill="#0" id="circle13"/>
	<circle cx="160.838" cy="121.628" r="4" fill="#0" id="circle14"/>
	<circle cx="160.838" cy="160.838" r="4" fill="#0" id="circle15"/>
	<circle cx="160.838" cy="200.047" r="4" fill="#0" id="circle16"/>
	<circle cx="168.68" cy="690.166" r="4" fill="#0" id="circle17"/>
	<circle cx="168.68" cy="897.976" r="4" fill="#0" id="circle18"/>
	<circle cx="176.522" cy="780.348" r="4" fill="#0" id="circle19"/>
	<circle cx="180.443" cy="235.336" r="4" fill="#0" id="circle20"/>
	<circle cx="180.443" cy="650.957" r="4" fill="#0" id="circle21"/>
	<circle cx="180.443" cy="980.316" r="4" fill="#0" id="circle22"/>
	<circle cx="184.364" cy="11.8419" r="4" fill="#0" id="circle23"/>
	<circle cx="184.364" cy="51.0514" r="4" fill="#0" id="circle24"/>
	<circle cx="184.364" cy="274.545" r="4" fill="#0" id="circle25"/>
	<circle cx="184.364" cy="313.755" r="4" fill="#0" id="circle26"/>
	<circle cx="184.364" cy="352.964" r="4" fill="#0" id="circle27"/>
	<circle cx="184.364" cy="392.174" r="4" fill="#0" id="circle28"/>
	<circle cx="184.364" cy="431.383" r="4" fill="#0" id="circle29"/>
	<circle cx="184.364" cy="470.593" r="4" fill="#0" id="circle30"/>
	<circle cx="184.364" cy="509.802" r="4" fill="#0" id="circle31"/>
	<circle cx="184.364" cy="549.012" r="4" fill="#0" id="circle32"/>
	<circle cx="184.364" cy="588.221" r="4" fill="#0" id="circle33"/>
	<circle cx="184.364" cy="729.375" r="4" fill="#0" id="circle34"/>
	<circle cx="184.364" cy="847.004" r="4" fill="#0" id="circle35"/>
	<circle cx="219.652" cy="980.316" r="4" fill="#0" id="circle36"/>
	<circle cx="223.573" cy="4" r="4" fill="#0" id="circle37"/>
	<circle cx="258.862" cy="980.316" r="4" fill="#0" id="circle38"/>
	<circle cx="262.783" cy="4" r="4" fill="#0" id="circle39"/>
	<circle cx="298.071" cy="980.316" r="4" fill="#0" id="circle40"/>
	<circle cx="301.992" cy="4" r="4" fill="#0" id="circle41"/>
	<circle cx="313.755" cy="529.407" r="4" fill="#0" id="circle42"/>
	<circle cx="313.755" cy="568.617" r="4" fill="#0" id="circle43"/>
	<circle cx="313.755" cy="607.826" r="4" fill="#0" id="circle44"/>
	<circle cx="313.755" cy="647.036" r="4" fill="#0" id="circle45"/>
	<circle cx="313.755" cy="701.929" r="4" fill="#0" id="circle46"/>
	<circle cx="313.755" cy="741.138" r="4" fill="#0" id="circle47"/>
	<circle cx="313.755" cy="819.557" r="4" fill="#0" id="circle48"/>
	<circle cx="313.755" cy="858.767" r="4" fill="#0" id="circle49"/>
	<circle cx="317.676" cy="780.348" r="4" fill="#0" id="circle50"/>
	<circle cx="317.676" cy="897.976" r="4" fill="#0" id="circle51"/>
	<circle cx="337.281" cy="996" r="4" fill="#0" id="circle52"/>
	<circle cx="341.202" cy="4" r="4" fill="#0" id="circle53"/>
	<circle cx="352.964" cy="525.486" r="4" fill="#0" id="circle54"/>
	<circle cx="352.964" cy="654.877" r="4" fill="#0" id="circle55"/>
	<circle cx="352.964" cy="815.636" r="4" fill="#0" id="circle56"/>
	<circle cx="356.885" cy="897.976" r="4" fill="#0" id="circle57"/>
	<circle cx="372.569" cy="690.166" r="4" fill="#0" id="circle58"/>
	<circle cx="372.569" cy="780.348" r="4" fill="#0" id="circle59"/>
	<circle cx="376.49" cy="980.316" r="4" fill="#0" id="circle60"/>
	<circle cx="380.411" cy="4" r="4" fill="#0" id="circle61"/>
	<circle cx="392.174" cy="525.486" r="4" fill="#0" id="circle62"/>
	<circle cx="392.174" cy="654.877" r="4" fill="#0" id="circle63"/>
	<circle cx="392.174" cy="815.636" r="4" fill="#0" id="circle64"/>
	<circle cx="396.095" cy="897.976" r="4" fill="#0" id="circle65"/>
	<circle cx="411.779" cy="690.166" r="4" fill="#0" id="circle66"/>
	<circle cx="411.779" cy="780.348" r="4" fill="#0" id="circle67"/>
	<circle cx="415.7" cy="980.316" r="4" fill="#0" id="circle68"/>
	<circle cx="419.621" cy="4" r="4" fill="#0" id="circle69"/>
	<circle cx="431.383" cy="525.486" r="4" fill="#0" id="circle70"/>
	<circle cx="431.383" cy="654.877" r="4" fill="#0" id="circle71"/>
	<circle cx="431.383" cy="815.636" r="4" fill="#0" id="circle72"/>
	<circle cx="435.304" cy="897.976" r="4" fill="#0" id="circle73"/>
	<circle cx="450.988" cy="690.166" r="4" fill="#0" id="circle74"/>
	<circle cx="450.988" cy="780.348" r="4" fill="#0" id="circle75"/>
	<circle cx="454.909" cy="980.316" r="4" fill="#0" id="circle76"/>
	<circle cx="458.83" cy="15.7628" r="4" fill="#0" id="circle77"/>
	<circle cx="462.751" cy="54.9723" r="4" fill="#0" id="circle78"/>
	<circle cx="462.751" cy="94.1818" r="4" fill="#0" id="circle79"/>
	<circle cx="462.751" cy="133.391" r="4" fill="#0" id="circle80"/>
	<circle cx="462.751" cy="172.601" r="4" fill="#0" id="circle81"/>
	<circle cx="462.751" cy="211.81" r="4" fill="#0" id="circle82"/>
	<circle cx="462.751" cy="251.02" r="4" fill="#0" id="circle83"/>
	<circle cx="462.751" cy="290.229" r="4" fill="#0" id="circle84"/>
	<circle cx="462.751" cy="329.439" r="4" fill="#0" id="circle85"/>
	<circle cx="462.751" cy="368.648" r="4" fill="#0" id="circle86"/>
	<circle cx="462.751" cy="407.858" r="4" fill="#0" id="circle87"/>
	<circle cx="462.751" cy="447.067" r="4" fill="#0" id="circle88"/>
	<circle cx="462.751" cy="486.277" r="4" fill="#0" id="circle89"/>
	<circle cx="466.672" cy="921.502" r="4" fill="#0" id="circle90"/>
	<circle cx="470.593" cy="654.877" r="4" fill="#0" id="circle91"/>
	<circle cx="470.593" cy="815.636" r="4" fill="#0" id="circle92"/>
	<circle cx="490.198" cy="690.166" r="4" fill="#0" id="circle93"/>
	<circle cx="490.198" cy="780.348" r="4" fill="#0" id="circle94"/>
	<circle cx="494.119" cy="980.316" r="4" fill="#0" id="circle95"/>
	<circle cx="498.04" cy="897.976" r="4" fill="#0" id="circle96"/>
	<circle cx="509.802" cy="654.877" r="4" fill="#0" id="circle97"/>
	<circle cx="509.802" cy="815.636" r="4" fill="#0" id="circle98"/>
	<circle cx="529.407" cy="690.166" r="4" fill="#0" id="circle99"/>
	<circle cx="529.407" cy="780.348" r="4" fill="#0" id="circle100"/>
	<circle cx="529.407" cy="921.502" r="4" fill="#0" id="circle101"/>
	<circle cx="533.328" cy="980.316" r="4" fill="#0" id="circle102"/>
	<circle cx="549.012" cy="654.877" r="4" fill="#0" id="circle103"/>
	<circle cx="549.012" cy="815.636" r="4" fill="#0" id="circle104"/>
	<circle cx="560.775" cy="897.976" r="4" fill="#0" id="circle105"/>
	<circle cx="568.617" cy="690.166" r="4" fill="#0" id="circle106"/>
	<circle cx="568.617" cy="780.348" r="4" fill="#0" id="circle107"/>
	<circle cx="572.538" cy="980.316" r="4" fill="#0" id="circle108"/>
	<circle cx="588.221" cy="654.877" r="4" fill="#0" id="circle109"/>
	<circle cx="588.221" cy="815.636" r="4" fill="#0" id="circle110"/>
	<circle cx="599.984" cy="897.976" r="4" fill="#0" id="circle111"/>
	<circle cx="607.826" cy="690.166" r="4" fill="#0" id="circle112"/>
	<circle cx="607.826" cy="780.348" r="4" fill="#0" id="circle113"/>
	<circle cx="611.747" cy="996" r="4" fill="#0" id="circle114"/>
	<circle cx="627.431" cy="654.877" r="4" fill="#0" id="circle115"/>
	<circle cx="627.431" cy="815.636" r="4" fill="#0" id="circle116"/>
	<circle cx="639.194" cy="897.976" r="4" fill="#0" id="circle117"/>
	<circle cx="647.036" cy="780.348" r="4" fill="#0" id="circle118"/>
	<circle cx="650.957" cy="980.316" r="4" fill="#0" id="circle119"/>
	<circle cx="666.64" cy="929.344" r="4" fill="#0" id="circle120"/>
	</g>
</svg>