<?xml version="1.0" encoding="UTF-8" standalone="no"?>
<!-- Created with CurveBenchmark -->
<svg
	xmlns:dc="http://purl.org/dc/elements/1.1/"
	xmlns:cc="http://creativecommons.org/ns#"
	xmlns:rdf="http://www.w3.org/1999/02/22-rdf-syntax-ns#"
	xmlns:svg="http://www.w3.org/2000/svg"
	xmlns="http://www.w3.org/2000/svg"
	xmlns:sodipodi="http://sodipodi.sourceforge.net/DTD/sodipodi-0.dtd"
	xmlns:inkscape="http://www.inkscape.org/namespaces/inkscape"
	width="1000"
	height="1000"
	id="svg2"
	version="1.1"
	sodipodi:docname="manifold/discur-car18.png.txt">
<defs
	id="defs4" />
<metadata
	id="metadata7">
	<rdf:RDF>
		<cc:Work
			rdf:about="">
			<dc:format>image/svg+xml</dc:format>
			<dc:type
				rdf:resource="http://purl.org/dc/dcmitype/StillImage" />
			<dc:title></dc:title>
		</cc:Work>
	</rdf:RDF>
</metadata>
<g
	inkscape:label="Layer 1"
	inkscape:groupmode="layer"
	id="layer1">
	<path style="fill:none;stroke:red;stroke-width:1px;stroke-linecap:butt;stroke-linejoin:miter;stroke-opacity:1" d="M 4,230.339 4,248.021 z" id="boundary" inkscape:connector-curvature="0" />
	<path style="fill:none;stroke:red;stroke-width:1px;stroke-linecap:butt;stroke-linejoin:miter;stroke-opacity:1" d="M 4,230.339 18.1462,216.193 z" id="boundary" inkscape:connector-curvature="0" />
	<path style="fill:none;stroke:red;stroke-width:1px;stroke-linecap:butt;stroke-linejoin:miter;stroke-opacity:1" d="M 4,248.021 12.8414,263.936 z" id="boundary" inkscape:connector-curvature="0" />
	<path style="fill:none;stroke:red;stroke-width:1px;stroke-linecap:butt;stroke-linejoin:miter;stroke-opacity:1" d="M 12.8414,263.936 12.8414,281.619 z" id="boundary" inkscape:connector-curvature="0" />
	<path style="fill:none;stroke:red;stroke-width:1px;stroke-linecap:butt;stroke-linejoin:miter;stroke-opacity:1" d="M 12.8414,281.619 25.2193,295.765 z" id="boundary" inkscape:connector-curvature="0" />
	<path style="fill:none;stroke:red;stroke-width:1px;stroke-linecap:butt;stroke-linejoin:miter;stroke-opacity:1" d="M 18.1462,216.193 35.8289,207.351 z" id="boundary" inkscape:connector-curvature="0" />
	<path style="fill:none;stroke:red;stroke-width:1px;stroke-linecap:butt;stroke-linejoin:miter;stroke-opacity:1" d="M 25.2193,295.765 30.5241,313.447 z" id="boundary" inkscape:connector-curvature="0" />
	<path style="fill:none;stroke:red;stroke-width:1px;stroke-linecap:butt;stroke-linejoin:miter;stroke-opacity:1" d="M 30.5241,313.447 30.5241,331.13 z" id="boundary" inkscape:connector-curvature="0" />
	<path style="fill:none;stroke:red;stroke-width:1px;stroke-linecap:butt;stroke-linejoin:miter;stroke-opacity:1" d="M 30.5241,331.13 30.5241,348.813 z" id="boundary" inkscape:connector-curvature="0" />
	<path style="fill:none;stroke:red;stroke-width:1px;stroke-linecap:butt;stroke-linejoin:miter;stroke-opacity:1" d="M 30.5241,348.813 30.5241,366.496 z" id="boundary" inkscape:connector-curvature="0" />
	<path style="fill:none;stroke:red;stroke-width:1px;stroke-linecap:butt;stroke-linejoin:miter;stroke-opacity:1" d="M 30.5241,366.496 39.3654,382.41 z" id="boundary" inkscape:connector-curvature="0" />
	<path style="fill:none;stroke:red;stroke-width:1px;stroke-linecap:butt;stroke-linejoin:miter;stroke-opacity:1" d="M 35.8289,207.351 49.975,193.205 z" id="boundary" inkscape:connector-curvature="0" />
	<path style="fill:none;stroke:red;stroke-width:1px;stroke-linecap:butt;stroke-linejoin:miter;stroke-opacity:1" d="M 39.3654,382.41 39.3654,400.093 z" id="boundary" inkscape:connector-curvature="0" />
	<path style="fill:none;stroke:red;stroke-width:1px;stroke-linecap:butt;stroke-linejoin:miter;stroke-opacity:1" d="M 39.3654,400.093 39.3654,417.775 z" id="boundary" inkscape:connector-curvature="0" />
	<path style="fill:none;stroke:red;stroke-width:1px;stroke-linecap:butt;stroke-linejoin:miter;stroke-opacity:1" d="M 39.3654,417.775 48.2068,433.69 z" id="boundary" inkscape:connector-curvature="0" />
	<path style="fill:none;stroke:red;stroke-width:1px;stroke-linecap:butt;stroke-linejoin:miter;stroke-opacity:1" d="M 48.2068,433.69 48.2068,451.373 z" id="boundary" inkscape:connector-curvature="0" />
	<path style="fill:none;stroke:red;stroke-width:1px;stroke-linecap:butt;stroke-linejoin:miter;stroke-opacity:1" d="M 48.2068,451.373 65.8895,456.677 z" id="boundary" inkscape:connector-curvature="0" />
	<path style="fill:none;stroke:red;stroke-width:1px;stroke-linecap:butt;stroke-linejoin:miter;stroke-opacity:1" d="M 49.975,193.205 67.6578,189.668 z" id="boundary" inkscape:connector-curvature="0" />
	<path style="fill:none;stroke:red;stroke-width:1px;stroke-linecap:butt;stroke-linejoin:miter;stroke-opacity:1" d="M 65.8895,456.677 81.8039,465.519 z" id="boundary" inkscape:connector-curvature="0" />
	<path style="fill:none;stroke:red;stroke-width:1px;stroke-linecap:butt;stroke-linejoin:miter;stroke-opacity:1" d="M 67.6578,189.668 83.5722,180.827 z" id="boundary" inkscape:connector-curvature="0" />
	<path style="fill:none;stroke:red;stroke-width:1px;stroke-linecap:butt;stroke-linejoin:miter;stroke-opacity:1" d="M 81.8039,465.519 99.4866,465.519 z" id="boundary" inkscape:connector-curvature="0" />
	<path style="fill:none;stroke:red;stroke-width:1px;stroke-linecap:butt;stroke-linejoin:miter;stroke-opacity:1" d="M 83.5722,180.827 101.255,180.827 z" id="boundary" inkscape:connector-curvature="0" />
	<path style="fill:none;stroke:red;stroke-width:1px;stroke-linecap:butt;stroke-linejoin:miter;stroke-opacity:1" d="M 99.4866,465.519 117.169,465.519 z" id="boundary" inkscape:connector-curvature="0" />
	<path style="fill:none;stroke:red;stroke-width:1px;stroke-linecap:butt;stroke-linejoin:miter;stroke-opacity:1" d="M 101.255,180.827 118.938,180.827 z" id="boundary" inkscape:connector-curvature="0" />
	<path style="fill:none;stroke:red;stroke-width:1px;stroke-linecap:butt;stroke-linejoin:miter;stroke-opacity:1" d="M 117.169,465.519 134.852,465.519 z" id="boundary" inkscape:connector-curvature="0" />
	<path style="fill:none;stroke:red;stroke-width:1px;stroke-linecap:butt;stroke-linejoin:miter;stroke-opacity:1" d="M 118.938,180.827 136.62,180.827 z" id="boundary" inkscape:connector-curvature="0" />
	<path style="fill:none;stroke:red;stroke-width:1px;stroke-linecap:butt;stroke-linejoin:miter;stroke-opacity:1" d="M 134.852,465.519 147.23,447.836 z" id="boundary" inkscape:connector-curvature="0" />
	<path style="fill:none;stroke:red;stroke-width:1px;stroke-linecap:butt;stroke-linejoin:miter;stroke-opacity:1" d="M 136.62,180.827 152.535,171.986 z" id="boundary" inkscape:connector-curvature="0" />
	<path style="fill:none;stroke:red;stroke-width:1px;stroke-linecap:butt;stroke-linejoin:miter;stroke-opacity:1" d="M 147.23,447.836 163.144,438.995 z" id="boundary" inkscape:connector-curvature="0" />
	<path style="fill:none;stroke:red;stroke-width:1px;stroke-linecap:butt;stroke-linejoin:miter;stroke-opacity:1" d="M 152.535,171.986 170.217,171.986 z" id="boundary" inkscape:connector-curvature="0" />
	<path style="fill:none;stroke:red;stroke-width:1px;stroke-linecap:butt;stroke-linejoin:miter;stroke-opacity:1" d="M 163.144,438.995 180.827,438.995 z" id="boundary" inkscape:connector-curvature="0" />
	<path style="fill:none;stroke:red;stroke-width:1px;stroke-linecap:butt;stroke-linejoin:miter;stroke-opacity:1" d="M 170.217,171.986 187.9,171.986 z" id="boundary" inkscape:connector-curvature="0" />
	<path style="fill:none;stroke:red;stroke-width:1px;stroke-linecap:butt;stroke-linejoin:miter;stroke-opacity:1" d="M 180.827,438.995 198.51,433.69 z" id="boundary" inkscape:connector-curvature="0" />
	<path style="fill:none;stroke:red;stroke-width:1px;stroke-linecap:butt;stroke-linejoin:miter;stroke-opacity:1" d="M 187.9,171.986 205.583,171.986 z" id="boundary" inkscape:connector-curvature="0" />
	<path style="fill:none;stroke:red;stroke-width:1px;stroke-linecap:butt;stroke-linejoin:miter;stroke-opacity:1" d="M 198.51,433.69 216.193,438.995 z" id="boundary" inkscape:connector-curvature="0" />
	<path style="fill:none;stroke:red;stroke-width:1px;stroke-linecap:butt;stroke-linejoin:miter;stroke-opacity:1" d="M 205.583,171.986 221.497,163.144 z" id="boundary" inkscape:connector-curvature="0" />
	<path style="fill:none;stroke:red;stroke-width:1px;stroke-linecap:butt;stroke-linejoin:miter;stroke-opacity:1" d="M 216.193,438.995 233.875,438.995 z" id="boundary" inkscape:connector-curvature="0" />
	<path style="fill:none;stroke:red;stroke-width:1px;stroke-linecap:butt;stroke-linejoin:miter;stroke-opacity:1" d="M 221.497,163.144 239.18,163.144 z" id="boundary" inkscape:connector-curvature="0" />
	<path style="fill:none;stroke:red;stroke-width:1px;stroke-linecap:butt;stroke-linejoin:miter;stroke-opacity:1" d="M 233.875,438.995 251.558,438.995 z" id="boundary" inkscape:connector-curvature="0" />
	<path style="fill:none;stroke:red;stroke-width:1px;stroke-linecap:butt;stroke-linejoin:miter;stroke-opacity:1" d="M 239.18,163.144 255.094,154.303 z" id="boundary" inkscape:connector-curvature="0" />
	<path style="fill:none;stroke:red;stroke-width:1px;stroke-linecap:butt;stroke-linejoin:miter;stroke-opacity:1" d="M 251.558,438.995 269.241,438.995 z" id="boundary" inkscape:connector-curvature="0" />
	<path style="fill:none;stroke:red;stroke-width:1px;stroke-linecap:butt;stroke-linejoin:miter;stroke-opacity:1" d="M 255.094,154.303 260.399,133.084 z" id="boundary" inkscape:connector-curvature="0" />
	<path style="fill:none;stroke:red;stroke-width:1px;stroke-linecap:butt;stroke-linejoin:miter;stroke-opacity:1" d="M 260.399,133.084 274.545,118.938 z" id="boundary" inkscape:connector-curvature="0" />
	<path style="fill:none;stroke:red;stroke-width:1px;stroke-linecap:butt;stroke-linejoin:miter;stroke-opacity:1" d="M 269.241,438.995 286.923,438.995 z" id="boundary" inkscape:connector-curvature="0" />
	<path style="fill:none;stroke:red;stroke-width:1px;stroke-linecap:butt;stroke-linejoin:miter;stroke-opacity:1" d="M 274.545,118.938 292.228,118.938 z" id="boundary" inkscape:connector-curvature="0" />
	<path style="fill:none;stroke:red;stroke-width:1px;stroke-linecap:butt;stroke-linejoin:miter;stroke-opacity:1" d="M 286.923,438.995 304.606,438.995 z" id="boundary" inkscape:connector-curvature="0" />
	<path style="fill:none;stroke:red;stroke-width:1px;stroke-linecap:butt;stroke-linejoin:miter;stroke-opacity:1" d="M 292.228,118.938 309.911,118.938 z" id="boundary" inkscape:connector-curvature="0" />
	<path style="fill:none;stroke:red;stroke-width:1px;stroke-linecap:butt;stroke-linejoin:miter;stroke-opacity:1" d="M 304.606,438.995 322.289,438.995 z" id="boundary" inkscape:connector-curvature="0" />
	<path style="fill:none;stroke:red;stroke-width:1px;stroke-linecap:butt;stroke-linejoin:miter;stroke-opacity:1" d="M 309.911,118.938 324.057,104.791 z" id="boundary" inkscape:connector-curvature="0" />
	<path style="fill:none;stroke:red;stroke-width:1px;stroke-linecap:butt;stroke-linejoin:miter;stroke-opacity:1" d="M 322.289,438.995 339.971,438.995 z" id="boundary" inkscape:connector-curvature="0" />
	<path style="fill:none;stroke:red;stroke-width:1px;stroke-linecap:butt;stroke-linejoin:miter;stroke-opacity:1" d="M 324.057,104.791 332.898,87.1087 z" id="boundary" inkscape:connector-curvature="0" />
	<path style="fill:none;stroke:red;stroke-width:1px;stroke-linecap:butt;stroke-linejoin:miter;stroke-opacity:1" d="M 332.898,87.1087 350.581,78.2674 z" id="boundary" inkscape:connector-curvature="0" />
	<path style="fill:none;stroke:red;stroke-width:1px;stroke-linecap:butt;stroke-linejoin:miter;stroke-opacity:1" d="M 339.971,438.995 357.654,438.995 z" id="boundary" inkscape:connector-curvature="0" />
	<path style="fill:none;stroke:red;stroke-width:1px;stroke-linecap:butt;stroke-linejoin:miter;stroke-opacity:1" d="M 350.581,78.2674 368.264,74.7308 z" id="boundary" inkscape:connector-curvature="0" />
	<path style="fill:none;stroke:red;stroke-width:1px;stroke-linecap:butt;stroke-linejoin:miter;stroke-opacity:1" d="M 357.654,438.995 375.337,438.995 z" id="boundary" inkscape:connector-curvature="0" />
	<path style="fill:none;stroke:red;stroke-width:1px;stroke-linecap:butt;stroke-linejoin:miter;stroke-opacity:1" d="M 368.264,74.7308 385.947,80.0357 z" id="boundary" inkscape:connector-curvature="0" />
	<path style="fill:none;stroke:red;stroke-width:1px;stroke-linecap:butt;stroke-linejoin:miter;stroke-opacity:1" d="M 375.337,438.995 393.02,438.995 z" id="boundary" inkscape:connector-curvature="0" />
	<path style="fill:none;stroke:red;stroke-width:1px;stroke-linecap:butt;stroke-linejoin:miter;stroke-opacity:1" d="M 385.947,80.0357 401.861,88.877 z" id="boundary" inkscape:connector-curvature="0" />
	<path style="fill:none;stroke:red;stroke-width:1px;stroke-linecap:butt;stroke-linejoin:miter;stroke-opacity:1" d="M 393.02,438.995 407.166,428.385 z" id="boundary" inkscape:connector-curvature="0" />
	<path style="fill:none;stroke:red;stroke-width:1px;stroke-linecap:butt;stroke-linejoin:miter;stroke-opacity:1" d="M 401.861,88.877 412.471,103.023 z" id="boundary" inkscape:connector-curvature="0" />
	<path style="fill:none;stroke:red;stroke-width:1px;stroke-linecap:butt;stroke-linejoin:miter;stroke-opacity:1" d="M 407.166,428.385 424.848,419.544 z" id="boundary" inkscape:connector-curvature="0" />
	<path style="fill:none;stroke:red;stroke-width:1px;stroke-linecap:butt;stroke-linejoin:miter;stroke-opacity:1" d="M 412.471,103.023 421.312,118.938 z" id="boundary" inkscape:connector-curvature="0" />
	<path style="fill:none;stroke:red;stroke-width:1px;stroke-linecap:butt;stroke-linejoin:miter;stroke-opacity:1" d="M 421.312,118.938 437.226,127.779 z" id="boundary" inkscape:connector-curvature="0" />
	<path style="fill:none;stroke:red;stroke-width:1px;stroke-linecap:butt;stroke-linejoin:miter;stroke-opacity:1" d="M 424.848,419.544 433.69,403.629 z" id="boundary" inkscape:connector-curvature="0" />
	<path style="fill:none;stroke:red;stroke-width:1px;stroke-linecap:butt;stroke-linejoin:miter;stroke-opacity:1" d="M 433.69,403.629 446.068,417.775 z" id="boundary" inkscape:connector-curvature="0" />
	<path style="fill:none;stroke:red;stroke-width:1px;stroke-linecap:butt;stroke-linejoin:miter;stroke-opacity:1" d="M 437.226,127.779 442.531,110.096 z" id="boundary" inkscape:connector-curvature="0" />
	<path style="fill:none;stroke:red;stroke-width:1px;stroke-linecap:butt;stroke-linejoin:miter;stroke-opacity:1" d="M 442.531,110.096 446.068,88.877 z" id="boundary" inkscape:connector-curvature="0" />
	<path style="fill:none;stroke:red;stroke-width:1px;stroke-linecap:butt;stroke-linejoin:miter;stroke-opacity:1" d="M 446.068,88.877 460.214,74.7308 z" id="boundary" inkscape:connector-curvature="0" />
	<path style="fill:none;stroke:red;stroke-width:1px;stroke-linecap:butt;stroke-linejoin:miter;stroke-opacity:1" d="M 446.068,417.775 446.068,435.458 z" id="boundary" inkscape:connector-curvature="0" />
	<path style="fill:none;stroke:red;stroke-width:1px;stroke-linecap:butt;stroke-linejoin:miter;stroke-opacity:1" d="M 446.068,435.458 446.068,453.141 z" id="boundary" inkscape:connector-curvature="0" />
	<path style="fill:none;stroke:red;stroke-width:1px;stroke-linecap:butt;stroke-linejoin:miter;stroke-opacity:1" d="M 446.068,453.141 454.909,469.055 z" id="boundary" inkscape:connector-curvature="0" />
	<path style="fill:none;stroke:red;stroke-width:1px;stroke-linecap:butt;stroke-linejoin:miter;stroke-opacity:1" d="M 454.909,469.055 472.592,474.36 z" id="boundary" inkscape:connector-curvature="0" />
	<path style="fill:none;stroke:red;stroke-width:1px;stroke-linecap:butt;stroke-linejoin:miter;stroke-opacity:1" d="M 460.214,74.7308 463.75,53.5116 z" id="boundary" inkscape:connector-curvature="0" />
	<path style="fill:none;stroke:red;stroke-width:1px;stroke-linecap:butt;stroke-linejoin:miter;stroke-opacity:1" d="M 463.75,53.5116 472.592,35.8289 z" id="boundary" inkscape:connector-curvature="0" />
	<path style="fill:none;stroke:red;stroke-width:1px;stroke-linecap:butt;stroke-linejoin:miter;stroke-opacity:1" d="M 472.592,35.8289 486.738,21.6827 z" id="boundary" inkscape:connector-curvature="0" />
	<path style="fill:none;stroke:red;stroke-width:1px;stroke-linecap:butt;stroke-linejoin:miter;stroke-opacity:1" d="M 472.592,474.36 490.275,474.36 z" id="boundary" inkscape:connector-curvature="0" />
	<path style="fill:none;stroke:red;stroke-width:1px;stroke-linecap:butt;stroke-linejoin:miter;stroke-opacity:1" d="M 486.738,21.6827 502.652,12.8414 z" id="boundary" inkscape:connector-curvature="0" />
	<path style="fill:none;stroke:red;stroke-width:1px;stroke-linecap:butt;stroke-linejoin:miter;stroke-opacity:1" d="M 490.275,474.36 507.957,474.36 z" id="boundary" inkscape:connector-curvature="0" />
	<path style="fill:none;stroke:red;stroke-width:1px;stroke-linecap:butt;stroke-linejoin:miter;stroke-opacity:1" d="M 502.652,12.8414 520.335,12.8414 z" id="boundary" inkscape:connector-curvature="0" />
	<path style="fill:none;stroke:red;stroke-width:1px;stroke-linecap:butt;stroke-linejoin:miter;stroke-opacity:1" d="M 507.957,474.36 525.64,474.36 z" id="boundary" inkscape:connector-curvature="0" />
	<path style="fill:none;stroke:red;stroke-width:1px;stroke-linecap:butt;stroke-linejoin:miter;stroke-opacity:1" d="M 520.335,12.8414 536.25,4 z" id="boundary" inkscape:connector-curvature="0" />
	<path style="fill:none;stroke:red;stroke-width:1px;stroke-linecap:butt;stroke-linejoin:miter;stroke-opacity:1" d="M 525.64,474.36 543.323,474.36 z" id="boundary" inkscape:connector-curvature="0" />
	<path style="fill:none;stroke:red;stroke-width:1px;stroke-linecap:butt;stroke-linejoin:miter;stroke-opacity:1" d="M 536.25,4 553.932,4 z" id="boundary" inkscape:connector-curvature="0" />
	<path style="fill:none;stroke:red;stroke-width:1px;stroke-linecap:butt;stroke-linejoin:miter;stroke-opacity:1" d="M 543.323,474.36 557.469,463.75 z" id="boundary" inkscape:connector-curvature="0" />
	<path style="fill:none;stroke:red;stroke-width:1px;stroke-linecap:butt;stroke-linejoin:miter;stroke-opacity:1" d="M 553.932,4 571.615,4 z" id="boundary" inkscape:connector-curvature="0" />
	<path style="fill:none;stroke:red;stroke-width:1px;stroke-linecap:butt;stroke-linejoin:miter;stroke-opacity:1" d="M 557.469,463.75 571.615,438.995 z" id="boundary" inkscape:connector-curvature="0" />
	<path style="fill:none;stroke:red;stroke-width:1px;stroke-linecap:butt;stroke-linejoin:miter;stroke-opacity:1" d="M 571.615,4 589.298,4 z" id="boundary" inkscape:connector-curvature="0" />
	<path style="fill:none;stroke:red;stroke-width:1px;stroke-linecap:butt;stroke-linejoin:miter;stroke-opacity:1" d="M 571.615,438.995 585.761,426.617 z" id="boundary" inkscape:connector-curvature="0" />
	<path style="fill:none;stroke:red;stroke-width:1px;stroke-linecap:butt;stroke-linejoin:miter;stroke-opacity:1" d="M 585.761,426.617 589.298,403.629 z" id="boundary" inkscape:connector-curvature="0" />
	<path style="fill:none;stroke:red;stroke-width:1px;stroke-linecap:butt;stroke-linejoin:miter;stroke-opacity:1" d="M 589.298,4 606.98,4 z" id="boundary" inkscape:connector-curvature="0" />
	<path style="fill:none;stroke:red;stroke-width:1px;stroke-linecap:butt;stroke-linejoin:miter;stroke-opacity:1" d="M 589.298,403.629 606.98,403.629 z" id="boundary" inkscape:connector-curvature="0" />
	<path style="fill:none;stroke:red;stroke-width:1px;stroke-linecap:butt;stroke-linejoin:miter;stroke-opacity:1" d="M 606.98,4 624.663,9.30481 z" id="boundary" inkscape:connector-curvature="0" />
	<path style="fill:none;stroke:red;stroke-width:1px;stroke-linecap:butt;stroke-linejoin:miter;stroke-opacity:1" d="M 606.98,403.629 622.895,394.788 z" id="boundary" inkscape:connector-curvature="0" />
	<path style="fill:none;stroke:red;stroke-width:1px;stroke-linecap:butt;stroke-linejoin:miter;stroke-opacity:1" d="M 622.895,394.788 640.578,394.788 z" id="boundary" inkscape:connector-curvature="0" />
	<path style="fill:none;stroke:red;stroke-width:1px;stroke-linecap:butt;stroke-linejoin:miter;stroke-opacity:1" d="M 624.663,9.30481 642.346,12.8414 z" id="boundary" inkscape:connector-curvature="0" />
	<path style="fill:none;stroke:red;stroke-width:1px;stroke-linecap:butt;stroke-linejoin:miter;stroke-opacity:1" d="M 640.578,394.788 658.26,394.788 z" id="boundary" inkscape:connector-curvature="0" />
	<path style="fill:none;stroke:red;stroke-width:1px;stroke-linecap:butt;stroke-linejoin:miter;stroke-opacity:1" d="M 642.346,12.8414 660.029,12.8414 z" id="boundary" inkscape:connector-curvature="0" />
	<path style="fill:none;stroke:red;stroke-width:1px;stroke-linecap:butt;stroke-linejoin:miter;stroke-opacity:1" d="M 658.26,394.788 675.943,394.788 z" id="boundary" inkscape:connector-curvature="0" />
	<path style="fill:none;stroke:red;stroke-width:1px;stroke-linecap:butt;stroke-linejoin:miter;stroke-opacity:1" d="M 660.029,12.8414 677.711,12.8414 z" id="boundary" inkscape:connector-curvature="0" />
	<path style="fill:none;stroke:red;stroke-width:1px;stroke-linecap:butt;stroke-linejoin:miter;stroke-opacity:1" d="M 675.943,394.788 693.626,394.788 z" id="boundary" inkscape:connector-curvature="0" />
	<path style="fill:none;stroke:red;stroke-width:1px;stroke-linecap:butt;stroke-linejoin:miter;stroke-opacity:1" d="M 677.711,12.8414 693.626,21.6827 z" id="boundary" inkscape:connector-curvature="0" />
	<path style="fill:none;stroke:red;stroke-width:1px;stroke-linecap:butt;stroke-linejoin:miter;stroke-opacity:1" d="M 693.626,21.6827 711.308,21.6827 z" id="boundary" inkscape:connector-curvature="0" />
	<path style="fill:none;stroke:red;stroke-width:1px;stroke-linecap:butt;stroke-linejoin:miter;stroke-opacity:1" d="M 693.626,394.788 711.308,394.788 z" id="boundary" inkscape:connector-curvature="0" />
	<path style="fill:none;stroke:red;stroke-width:1px;stroke-linecap:butt;stroke-linejoin:miter;stroke-opacity:1" d="M 711.308,21.6827 728.991,25.2193 z" id="boundary" inkscape:connector-curvature="0" />
	<path style="fill:none;stroke:red;stroke-width:1px;stroke-linecap:butt;stroke-linejoin:miter;stroke-opacity:1" d="M 711.308,394.788 728.991,394.788 z" id="boundary" inkscape:connector-curvature="0" />
	<path style="fill:none;stroke:red;stroke-width:1px;stroke-linecap:butt;stroke-linejoin:miter;stroke-opacity:1" d="M 728.991,25.2193 746.674,25.2193 z" id="boundary" inkscape:connector-curvature="0" />
	<path style="fill:none;stroke:red;stroke-width:1px;stroke-linecap:butt;stroke-linejoin:miter;stroke-opacity:1" d="M 728.991,394.788 746.674,394.788 z" id="boundary" inkscape:connector-curvature="0" />
	<path style="fill:none;stroke:red;stroke-width:1px;stroke-linecap:butt;stroke-linejoin:miter;stroke-opacity:1" d="M 746.674,25.2193 757.283,39.3654 z" id="boundary" inkscape:connector-curvature="0" />
	<path style="fill:none;stroke:red;stroke-width:1px;stroke-linecap:butt;stroke-linejoin:miter;stroke-opacity:1" d="M 746.674,394.788 764.357,394.788 z" id="boundary" inkscape:connector-curvature="0" />
	<path style="fill:none;stroke:red;stroke-width:1px;stroke-linecap:butt;stroke-linejoin:miter;stroke-opacity:1" d="M 757.283,39.3654 766.125,55.2799 z" id="boundary" inkscape:connector-curvature="0" />
	<path style="fill:none;stroke:red;stroke-width:1px;stroke-linecap:butt;stroke-linejoin:miter;stroke-opacity:1" d="M 764.357,394.788 782.039,394.788 z" id="boundary" inkscape:connector-curvature="0" />
	<path style="fill:none;stroke:red;stroke-width:1px;stroke-linecap:butt;stroke-linejoin:miter;stroke-opacity:1" d="M 766.125,55.2799 766.125,72.9626 z" id="boundary" inkscape:connector-curvature="0" />
	<path style="fill:none;stroke:red;stroke-width:1px;stroke-linecap:butt;stroke-linejoin:miter;stroke-opacity:1" d="M 766.125,72.9626 774.966,88.877 z" id="boundary" inkscape:connector-curvature="0" />
	<path style="fill:none;stroke:red;stroke-width:1px;stroke-linecap:butt;stroke-linejoin:miter;stroke-opacity:1" d="M 774.966,88.877 774.966,106.56 z" id="boundary" inkscape:connector-curvature="0" />
	<path style="fill:none;stroke:red;stroke-width:1px;stroke-linecap:butt;stroke-linejoin:miter;stroke-opacity:1" d="M 774.966,106.56 789.112,118.938 z" id="boundary" inkscape:connector-curvature="0" />
	<path style="fill:none;stroke:red;stroke-width:1px;stroke-linecap:butt;stroke-linejoin:miter;stroke-opacity:1" d="M 782.039,394.788 797.954,403.629 z" id="boundary" inkscape:connector-curvature="0" />
	<path style="fill:none;stroke:red;stroke-width:1px;stroke-linecap:butt;stroke-linejoin:miter;stroke-opacity:1" d="M 789.112,118.938 805.027,127.779 z" id="boundary" inkscape:connector-curvature="0" />
	<path style="fill:none;stroke:red;stroke-width:1px;stroke-linecap:butt;stroke-linejoin:miter;stroke-opacity:1" d="M 797.954,403.629 810.332,417.775 z" id="boundary" inkscape:connector-curvature="0" />
	<path style="fill:none;stroke:red;stroke-width:1px;stroke-linecap:butt;stroke-linejoin:miter;stroke-opacity:1" d="M 805.027,127.779 817.405,141.925 z" id="boundary" inkscape:connector-curvature="0" />
	<path style="fill:none;stroke:red;stroke-width:1px;stroke-linecap:butt;stroke-linejoin:miter;stroke-opacity:1" d="M 810.332,417.775 824.478,430.153 z" id="boundary" inkscape:connector-curvature="0" />
	<path style="fill:none;stroke:red;stroke-width:1px;stroke-linecap:butt;stroke-linejoin:miter;stroke-opacity:1" d="M 817.405,141.925 831.551,154.303 z" id="boundary" inkscape:connector-curvature="0" />
	<path style="fill:none;stroke:red;stroke-width:1px;stroke-linecap:butt;stroke-linejoin:miter;stroke-opacity:1" d="M 824.478,430.153 840.392,438.995 z" id="boundary" inkscape:connector-curvature="0" />
	<path style="fill:none;stroke:red;stroke-width:1px;stroke-linecap:butt;stroke-linejoin:miter;stroke-opacity:1" d="M 831.551,154.303 847.465,163.144 z" id="boundary" inkscape:connector-curvature="0" />
	<path style="fill:none;stroke:red;stroke-width:1px;stroke-linecap:butt;stroke-linejoin:miter;stroke-opacity:1" d="M 840.392,438.995 856.307,430.153 z" id="boundary" inkscape:connector-curvature="0" />
	<path style="fill:none;stroke:red;stroke-width:1px;stroke-linecap:butt;stroke-linejoin:miter;stroke-opacity:1" d="M 847.465,163.144 865.148,163.144 z" id="boundary" inkscape:connector-curvature="0" />
	<path style="fill:none;stroke:red;stroke-width:1px;stroke-linecap:butt;stroke-linejoin:miter;stroke-opacity:1" d="M 856.307,430.153 872.221,421.312 z" id="boundary" inkscape:connector-curvature="0" />
	<path style="fill:none;stroke:red;stroke-width:1px;stroke-linecap:butt;stroke-linejoin:miter;stroke-opacity:1" d="M 865.148,163.144 882.831,163.144 z" id="boundary" inkscape:connector-curvature="0" />
	<path style="fill:none;stroke:red;stroke-width:1px;stroke-linecap:butt;stroke-linejoin:miter;stroke-opacity:1" d="M 872.221,421.312 888.135,412.471 z" id="boundary" inkscape:connector-curvature="0" />
	<path style="fill:none;stroke:red;stroke-width:1px;stroke-linecap:butt;stroke-linejoin:miter;stroke-opacity:1" d="M 882.831,163.144 900.513,163.144 z" id="boundary" inkscape:connector-curvature="0" />
	<path style="fill:none;stroke:red;stroke-width:1px;stroke-linecap:butt;stroke-linejoin:miter;stroke-opacity:1" d="M 888.135,412.471 898.745,394.788 z" id="boundary" inkscape:connector-curvature="0" />
	<path style="fill:none;stroke:red;stroke-width:1px;stroke-linecap:butt;stroke-linejoin:miter;stroke-opacity:1" d="M 898.745,394.788 907.586,377.105 z" id="boundary" inkscape:connector-curvature="0" />
	<path style="fill:none;stroke:red;stroke-width:1px;stroke-linecap:butt;stroke-linejoin:miter;stroke-opacity:1" d="M 900.513,163.144 918.196,163.144 z" id="boundary" inkscape:connector-curvature="0" />
	<path style="fill:none;stroke:red;stroke-width:1px;stroke-linecap:butt;stroke-linejoin:miter;stroke-opacity:1" d="M 907.586,377.105 916.428,359.422 z" id="boundary" inkscape:connector-curvature="0" />
	<path style="fill:none;stroke:red;stroke-width:1px;stroke-linecap:butt;stroke-linejoin:miter;stroke-opacity:1" d="M 916.428,359.422 925.269,341.74 z" id="boundary" inkscape:connector-curvature="0" />
	<path style="fill:none;stroke:red;stroke-width:1px;stroke-linecap:butt;stroke-linejoin:miter;stroke-opacity:1" d="M 918.196,163.144 935.879,163.144 z" id="boundary" inkscape:connector-curvature="0" />
	<path style="fill:none;stroke:red;stroke-width:1px;stroke-linecap:butt;stroke-linejoin:miter;stroke-opacity:1" d="M 925.269,341.74 942.952,341.74 z" id="boundary" inkscape:connector-curvature="0" />
	<path style="fill:none;stroke:red;stroke-width:1px;stroke-linecap:butt;stroke-linejoin:miter;stroke-opacity:1" d="M 935.879,163.144 953.561,163.144 z" id="boundary" inkscape:connector-curvature="0" />
	<path style="fill:none;stroke:red;stroke-width:1px;stroke-linecap:butt;stroke-linejoin:miter;stroke-opacity:1" d="M 942.952,341.74 957.098,329.362 z" id="boundary" inkscape:connector-curvature="0" />
	<path style="fill:none;stroke:red;stroke-width:1px;stroke-linecap:butt;stroke-linejoin:miter;stroke-opacity:1" d="M 953.561,163.144 969.476,171.986 z" id="boundary" inkscape:connector-curvature="0" />
	<path style="fill:none;stroke:red;stroke-width:1px;stroke-linecap:butt;stroke-linejoin:miter;stroke-opacity:1" d="M 957.098,329.362 965.939,311.679 z" id="boundary" inkscape:connector-curvature="0" />
	<path style="fill:none;stroke:red;stroke-width:1px;stroke-linecap:butt;stroke-linejoin:miter;stroke-opacity:1" d="M 965.939,311.679 978.317,288.692 z" id="boundary" inkscape:connector-curvature="0" />
	<path style="fill:none;stroke:red;stroke-width:1px;stroke-linecap:butt;stroke-linejoin:miter;stroke-opacity:1" d="M 969.476,171.986 987.159,171.986 z" id="boundary" inkscape:connector-curvature="0" />
	<path style="fill:none;stroke:red;stroke-width:1px;stroke-linecap:butt;stroke-linejoin:miter;stroke-opacity:1" d="M 978.317,271.009 978.317,288.692 z" id="boundary" inkscape:connector-curvature="0" />
	<path style="fill:none;stroke:red;stroke-width:1px;stroke-linecap:butt;stroke-linejoin:miter;stroke-opacity:1" d="M 978.317,271.009 987.159,253.326 z" id="boundary" inkscape:connector-curvature="0" />
	<path style="fill:none;stroke:red;stroke-width:1px;stroke-linecap:butt;stroke-linejoin:miter;stroke-opacity:1" d="M 987.159,171.986 996,187.9 z" id="boundary" inkscape:connector-curvature="0" />
	<path style="fill:none;stroke:red;stroke-width:1px;stroke-linecap:butt;stroke-linejoin:miter;stroke-opacity:1" d="M 987.159,253.326 996,223.266 z" id="boundary" inkscape:connector-curvature="0" />
	<path style="fill:none;stroke:red;stroke-width:1px;stroke-linecap:butt;stroke-linejoin:miter;stroke-opacity:1" d="M 996,187.9 996,205.583 z" id="boundary" inkscape:connector-curvature="0" />
	<path style="fill:none;stroke:red;stroke-width:1px;stroke-linecap:butt;stroke-linejoin:miter;stroke-opacity:1" d="M 996,205.583 996,223.266 z" id="boundary" inkscape:connector-curvature="0" />
	<circle cx="4" cy="230.339" r="4" fill="#0" id="circle0"/>
	<circle cx="4" cy="248.021" r="4" fill="#0" id="circle1"/>
	<circle cx="12.8414" cy="263.936" r="4" fill="#0" id="circle2"/>
	<circle cx="12.8414" cy="281.619" r="4" fill="#0" id="circle3"/>
	<circle cx="18.1462" cy="216.193" r="4" fill="#0" id="circle4"/>
	<circle cx="25.2193" cy="295.765" r="4" fill="#0" id="circle5"/>
	<circle cx="30.5241" cy="313.447" r="4" fill="#0" id="circle6"/>
	<circle cx="30.5241" cy="331.13" r="4" fill="#0" id="circle7"/>
	<circle cx="30.5241" cy="348.813" r="4" fill="#0" id="circle8"/>
	<circle cx="30.5241" cy="366.496" r="4" fill="#0" id="circle9"/>
	<circle cx="35.8289" cy="207.351" r="4" fill="#0" id="circle10"/>
	<circle cx="39.3654" cy="382.41" r="4" fill="#0" id="circle11"/>
	<circle cx="39.3654" cy="400.093" r="4" fill="#0" id="circle12"/>
	<circle cx="39.3654" cy="417.775" r="4" fill="#0" id="circle13"/>
	<circle cx="48.2068" cy="433.69" r="4" fill="#0" id="circle14"/>
	<circle cx="48.2068" cy="451.373" r="4" fill="#0" id="circle15"/>
	<circle cx="49.975" cy="193.205" r="4" fill="#0" id="circle16"/>
	<circle cx="65.8895" cy="456.677" r="4" fill="#0" id="circle17"/>
	<circle cx="67.6578" cy="189.668" r="4" fill="#0" id="circle18"/>
	<circle cx="81.8039" cy="465.519" r="4" fill="#0" id="circle19"/>
	<circle cx="83.5722" cy="180.827" r="4" fill="#0" id="circle20"/>
	<circle cx="99.4866" cy="465.519" r="4" fill="#0" id="circle21"/>
	<circle cx="101.255" cy="180.827" r="4" fill="#0" id="circle22"/>
	<circle cx="117.169" cy="465.519" r="4" fill="#0" id="circle23"/>
	<circle cx="118.938" cy="180.827" r="4" fill="#0" id="circle24"/>
	<circle cx="134.852" cy="465.519" r="4" fill="#0" id="circle25"/>
	<circle cx="136.62" cy="180.827" r="4" fill="#0" id="circle26"/>
	<circle cx="147.23" cy="447.836" r="4" fill="#0" id="circle27"/>
	<circle cx="152.535" cy="171.986" r="4" fill="#0" id="circle28"/>
	<circle cx="163.144" cy="438.995" r="4" fill="#0" id="circle29"/>
	<circle cx="170.217" cy="171.986" r="4" fill="#0" id="circle30"/>
	<circle cx="180.827" cy="438.995" r="4" fill="#0" id="circle31"/>
	<circle cx="187.9" cy="171.986" r="4" fill="#0" id="circle32"/>
	<circle cx="198.51" cy="433.69" r="4" fill="#0" id="circle33"/>
	<circle cx="205.583" cy="171.986" r="4" fill="#0" id="circle34"/>
	<circle cx="216.193" cy="438.995" r="4" fill="#0" id="circle35"/>
	<circle cx="221.497" cy="163.144" r="4" fill="#0" id="circle36"/>
	<circle cx="233.875" cy="438.995" r="4" fill="#0" id="circle37"/>
	<circle cx="239.18" cy="163.144" r="4" fill="#0" id="circle38"/>
	<circle cx="251.558" cy="438.995" r="4" fill="#0" id="circle39"/>
	<circle cx="255.094" cy="154.303" r="4" fill="#0" id="circle40"/>
	<circle cx="260.399" cy="133.084" r="4" fill="#0" id="circle41"/>
	<circle cx="269.241" cy="438.995" r="4" fill="#0" id="circle42"/>
	<circle cx="274.545" cy="118.938" r="4" fill="#0" id="circle43"/>
	<circle cx="286.923" cy="438.995" r="4" fill="#0" id="circle44"/>
	<circle cx="292.228" cy="118.938" r="4" fill="#0" id="circle45"/>
	<circle cx="304.606" cy="438.995" r="4" fill="#0" id="circle46"/>
	<circle cx="309.911" cy="118.938" r="4" fill="#0" id="circle47"/>
	<circle cx="322.289" cy="438.995" r="4" fill="#0" id="circle48"/>
	<circle cx="324.057" cy="104.791" r="4" fill="#0" id="circle49"/>
	<circle cx="332.898" cy="87.1087" r="4" fill="#0" id="circle50"/>
	<circle cx="339.971" cy="438.995" r="4" fill="#0" id="circle51"/>
	<circle cx="350.581" cy="78.2674" r="4" fill="#0" id="circle52"/>
	<circle cx="357.654" cy="438.995" r="4" fill="#0" id="circle53"/>
	<circle cx="368.264" cy="74.7308" r="4" fill="#0" id="circle54"/>
	<circle cx="375.337" cy="438.995" r="4" fill="#0" id="circle55"/>
	<circle cx="385.947" cy="80.0357" r="4" fill="#0" id="circle56"/>
	<circle cx="393.02" cy="438.995" r="4" fill="#0" id="circle57"/>
	<circle cx="401.861" cy="88.877" r="4" fill="#0" id="circle58"/>
	<circle cx="407.166" cy="428.385" r="4" fill="#0" id="circle59"/>
	<circle cx="412.471" cy="103.023" r="4" fill="#0" id="circle60"/>
	<circle cx="421.312" cy="118.938" r="4" fill="#0" id="circle61"/>
	<circle cx="424.848" cy="419.544" r="4" fill="#0" id="circle62"/>
	<circle cx="433.69" cy="403.629" r="4" fill="#0" id="circle63"/>
	<circle cx="437.226" cy="127.779" r="4" fill="#0" id="circle64"/>
	<circle cx="442.531" cy="110.096" r="4" fill="#0" id="circle65"/>
	<circle cx="446.068" cy="88.877" r="4" fill="#0" id="circle66"/>
	<circle cx="446.068" cy="417.775" r="4" fill="#0" id="circle67"/>
	<circle cx="446.068" cy="435.458" r="4" fill="#0" id="circle68"/>
	<circle cx="446.068" cy="453.141" r="4" fill="#0" id="circle69"/>
	<circle cx="454.909" cy="469.055" r="4" fill="#0" id="circle70"/>
	<circle cx="460.214" cy="74.7308" r="4" fill="#0" id="circle71"/>
	<circle cx="463.75" cy="53.5116" r="4" fill="#0" id="circle72"/>
	<circle cx="472.592" cy="35.8289" r="4" fill="#0" id="circle73"/>
	<circle cx="472.592" cy="474.36" r="4" fill="#0" id="circle74"/>
	<circle cx="486.738" cy="21.6827" r="4" fill="#0" id="circle75"/>
	<circle cx="490.275" cy="474.36" r="4" fill="#0" id="circle76"/>
	<circle cx="502.652" cy="12.8414" r="4" fill="#0" id="circle77"/>
	<circle cx="507.957" cy="474.36" r="4" fill="#0" id="circle78"/>
	<circle cx="520.335" cy="12.8414" r="4" fill="#0" id="circle79"/>
	<circle cx="525.64" cy="474.36" r="4" fill="#0" id="circle80"/>
	<circle cx="536.25" cy="4" r="4" fill="#0" id="circle81"/>
	<circle cx="543.323" cy="474.36" r="4" fill="#0" id="circle82"/>
	<circle cx="553.932" cy="4" r="4" fill="#0" id="circle83"/>
	<circle cx="557.469" cy="463.75" r="4" fill="#0" id="circle84"/>
	<circle cx="571.615" cy="4" r="4" fill="#0" id="circle85"/>
	<circle cx="571.615" cy="438.995" r="4" fill="#0" id="circle86"/>
	<circle cx="585.761" cy="426.617" r="4" fill="#0" id="circle87"/>
	<circle cx="589.298" cy="4" r="4" fill="#0" id="circle88"/>
	<circle cx="589.298" cy="403.629" r="4" fill="#0" id="circle89"/>
	<circle cx="606.98" cy="4" r="4" fill="#0" id="circle90"/>
	<circle cx="606.98" cy="403.629" r="4" fill="#0" id="circle91"/>
	<circle cx="622.895" cy="394.788" r="4" fill="#0" id="circle92"/>
	<circle cx="624.663" cy="9.30481" r="4" fill="#0" id="circle93"/>
	<circle cx="640.578" cy="394.788" r="4" fill="#0" id="circle94"/>
	<circle cx="642.346" cy="12.8414" r="4" fill="#0" id="circle95"/>
	<circle cx="658.26" cy="394.788" r="4" fill="#0" id="circle96"/>
	<circle cx="660.029" cy="12.8414" r="4" fill="#0" id="circle97"/>
	<circle cx="675.943" cy="394.788" r="4" fill="#0" id="circle98"/>
	<circle cx="677.711" cy="12.8414" r="4" fill="#0" id="circle99"/>
	<circle cx="693.626" cy="21.6827" r="4" fill="#0" id="circle100"/>
	<circle cx="693.626" cy="394.788" r="4" fill="#0" id="circle101"/>
	<circle cx="711.308" cy="21.6827" r="4" fill="#0" id="circle102"/>
	<circle cx="711.308" cy="394.788" r="4" fill="#0" id="circle103"/>
	<circle cx="728.991" cy="25.2193" r="4" fill="#0" id="circle104"/>
	<circle cx="728.991" cy="394.788" r="4" fill="#0" id="circle105"/>
	<circle cx="746.674" cy="25.2193" r="4" fill="#0" id="circle106"/>
	<circle cx="746.674" cy="394.788" r="4" fill="#0" id="circle107"/>
	<circle cx="757.283" cy="39.3654" r="4" fill="#0" id="circle108"/>
	<circle cx="764.357" cy="394.788" r="4" fill="#0" id="circle109"/>
	<circle cx="766.125" cy="55.2799" r="4" fill="#0" id="circle110"/>
	<circle cx="766.125" cy="72.9626" r="4" fill="#0" id="circle111"/>
	<circle cx="774.966" cy="88.877" r="4" fill="#0" id="circle112"/>
	<circle cx="774.966" cy="106.56" r="4" fill="#0" id="circle113"/>
	<circle cx="782.039" cy="394.788" r="4" fill="#0" id="circle114"/>
	<circle cx="789.112" cy="118.938" r="4" fill="#0" id="circle115"/>
	<circle cx="797.954" cy="403.629" r="4" fill="#0" id="circle116"/>
	<circle cx="805.027" cy="127.779" r="4" fill="#0" id="circle117"/>
	<circle cx="810.332" cy="417.775" r="4" fill="#0" id="circle118"/>
	<circle cx="817.405" cy="141.925" r="4" fill="#0" id="circle119"/>
	<circle cx="824.478" cy="430.153" r="4" fill="#0" id="circle120"/>
	<circle cx="831.551" cy="154.303" r="4" fill="#0" id="circle121"/>
	<circle cx="840.392" cy="438.995" r="4" fill="#0" id="circle122"/>
	<circle cx="847.465" cy="163.144" r="4" fill="#0" id="circle123"/>
	<circle cx="856.307" cy="430.153" r="4" fill="#0" id="circle124"/>
	<circle cx="865.148" cy="163.144" r="4" fill="#0" id="circle125"/>
	<circle cx="872.221" cy="421.312" r="4" fill="#0" id="circle126"/>
	<circle cx="882.831" cy="163.144" r="4" fill="#0" id="circle127"/>
	<circle cx="888.135" cy="412.471" r="4" fill="#0" id="circle128"/>
	<circle cx="898.745" cy="394.788" r="4" fill="#0" id="circle129"/>
	<circle cx="900.513" cy="163.144" r="4" fill="#0" id="circle130"/>
	<circle cx="907.586" cy="377.105" r="4" fill="#0" id="circle131"/>
	<circle cx="916.428" cy="359.422" r="4" fill="#0" id="circle132"/>
	<circle cx="918.196" cy="163.144" r="4" fill="#0" id="circle133"/>
	<circle cx="925.269" cy="341.74" r="4" fill="#0" id="circle134"/>
	<circle cx="935.879" cy="163.144" r="4" fill="#0" id="circle135"/>
	<circle cx="942.952" cy="341.74" r="4" fill="#0" id="circle136"/>
	<circle cx="953.561" cy="163.144" r="4" fill="#0" id="circle137"/>
	<circle cx="957.098" cy="329.362" r="4" fill="#0" id="circle138"/>
	<circle cx="965.939" cy="311.679" r="4" fill="#0" id="circle139"/>
	<circle cx="969.476" cy="171.986" r="4" fill="#0" id="circle140"/>
	<circle cx="978.317" cy="271.009" r="4" fill="#0" id="circle141"/>
	<circle cx="978.317" cy="288.692" r="4" fill="#0" id="circle142"/>
	<circle cx="987.159" cy="171.986" r="4" fill="#0" id="circle143"/>
	<circle cx="987.159" cy="253.326" r="4" fill="#0" id="circle144"/>
	<circle cx="996" cy="187.9" r="4" fill="#0" id="circle145"/>
	<circle cx="996" cy="205.583" r="4" fill="#0" id="circle146"/>
	<circle cx="996" cy="223.266" r="4" fill="#0" id="circle147"/>
	</g>
</svg>