<?xml version="1.0" encoding="UTF-8" standalone="no"?>
<!-- Created with CurveBenchmark -->
<svg
	xmlns:dc="http://purl.org/dc/elements/1.1/"
	xmlns:cc="http://creativecommons.org/ns#"
	xmlns:rdf="http://www.w3.org/1999/02/22-rdf-syntax-ns#"
	xmlns:svg="http://www.w3.org/2000/svg"
	xmlns="http://www.w3.org/2000/svg"
	xmlns:sodipodi="http://sodipodi.sourceforge.net/DTD/sodipodi-0.dtd"
	xmlns:inkscape="http://www.inkscape.org/namespaces/inkscape"
	width="1000"
	height="1000"
	id="svg2"
	version="1.1"
	sodipodi:docname="manifold/discur-bird255.png.txt">
<defs
	id="defs4" />
<metadata
	id="metadata7">
	<rdf:RDF>
		<cc:Work
			rdf:about="">
			<dc:format>image/svg+xml</dc:format>
			<dc:type
				rdf:resource="http://purl.org/dc/dcmitype/StillImage" />
			<dc:title></dc:title>
		</cc:Work>
	</rdf:RDF>
</metadata>
<g
	inkscape:label="Layer 1"
	inkscape:groupmode="layer"
	id="layer1">
	<path style="fill:none;stroke:red;stroke-width:1px;stroke-linecap:butt;stroke-linejoin:miter;stroke-opacity:1" d="M 4,214.071 4,252.973 z" id="boundary" inkscape:connector-curvature="0" />
	<path style="fill:none;stroke:red;stroke-width:1px;stroke-linecap:butt;stroke-linejoin:miter;stroke-opacity:1" d="M 4,214.071 11.7804,175.169 z" id="boundary" inkscape:connector-curvature="0" />
	<path style="fill:none;stroke:red;stroke-width:1px;stroke-linecap:butt;stroke-linejoin:miter;stroke-opacity:1" d="M 4,252.973 11.7804,291.875 z" id="boundary" inkscape:connector-curvature="0" />
	<path style="fill:none;stroke:red;stroke-width:1px;stroke-linecap:butt;stroke-linejoin:miter;stroke-opacity:1" d="M 11.7804,175.169 19.5608,120.706 z" id="boundary" inkscape:connector-curvature="0" />
	<path style="fill:none;stroke:red;stroke-width:1px;stroke-linecap:butt;stroke-linejoin:miter;stroke-opacity:1" d="M 11.7804,291.875 50.6824,284.094 z" id="boundary" inkscape:connector-curvature="0" />
	<path style="fill:none;stroke:red;stroke-width:1px;stroke-linecap:butt;stroke-linejoin:miter;stroke-opacity:1" d="M 19.5608,120.706 42.902,66.2431 z" id="boundary" inkscape:connector-curvature="0" />
	<path style="fill:none;stroke:red;stroke-width:1px;stroke-linecap:butt;stroke-linejoin:miter;stroke-opacity:1" d="M 42.902,66.2431 74.0235,35.1216 z" id="boundary" inkscape:connector-curvature="0" />
	<path style="fill:none;stroke:red;stroke-width:1px;stroke-linecap:butt;stroke-linejoin:miter;stroke-opacity:1" d="M 50.6824,284.094 66.2431,322.996 z" id="boundary" inkscape:connector-curvature="0" />
	<path style="fill:none;stroke:red;stroke-width:1px;stroke-linecap:butt;stroke-linejoin:miter;stroke-opacity:1" d="M 66.2431,322.996 81.8039,361.898 z" id="boundary" inkscape:connector-curvature="0" />
	<path style="fill:none;stroke:red;stroke-width:1px;stroke-linecap:butt;stroke-linejoin:miter;stroke-opacity:1" d="M 74.0235,35.1216 112.925,19.5608 z" id="boundary" inkscape:connector-curvature="0" />
	<path style="fill:none;stroke:red;stroke-width:1px;stroke-linecap:butt;stroke-linejoin:miter;stroke-opacity:1" d="M 81.8039,361.898 89.5843,400.8 z" id="boundary" inkscape:connector-curvature="0" />
	<path style="fill:none;stroke:red;stroke-width:1px;stroke-linecap:butt;stroke-linejoin:miter;stroke-opacity:1" d="M 85.6941,988.22 93.4745,949.318 z" id="boundary" inkscape:connector-curvature="0" />
	<path style="fill:none;stroke:red;stroke-width:1px;stroke-linecap:butt;stroke-linejoin:miter;stroke-opacity:1" d="M 85.6941,988.22 124.596,996 z" id="boundary" inkscape:connector-curvature="0" />
	<path style="fill:none;stroke:red;stroke-width:1px;stroke-linecap:butt;stroke-linejoin:miter;stroke-opacity:1" d="M 89.5843,400.8 93.4745,439.702 z" id="boundary" inkscape:connector-curvature="0" />
	<path style="fill:none;stroke:red;stroke-width:1px;stroke-linecap:butt;stroke-linejoin:miter;stroke-opacity:1" d="M 93.4745,439.702 97.3647,478.604 z" id="boundary" inkscape:connector-curvature="0" />
	<path style="fill:none;stroke:red;stroke-width:1px;stroke-linecap:butt;stroke-linejoin:miter;stroke-opacity:1" d="M 93.4745,949.318 112.925,914.306 z" id="boundary" inkscape:connector-curvature="0" />
	<path style="fill:none;stroke:red;stroke-width:1px;stroke-linecap:butt;stroke-linejoin:miter;stroke-opacity:1" d="M 97.3647,478.604 105.145,517.506 z" id="boundary" inkscape:connector-curvature="0" />
	<path style="fill:none;stroke:red;stroke-width:1px;stroke-linecap:butt;stroke-linejoin:miter;stroke-opacity:1" d="M 105.145,517.506 109.035,556.408 z" id="boundary" inkscape:connector-curvature="0" />
	<path style="fill:none;stroke:red;stroke-width:1px;stroke-linecap:butt;stroke-linejoin:miter;stroke-opacity:1" d="M 109.035,556.408 112.925,595.31 z" id="boundary" inkscape:connector-curvature="0" />
	<path style="fill:none;stroke:red;stroke-width:1px;stroke-linecap:butt;stroke-linejoin:miter;stroke-opacity:1" d="M 112.925,19.5608 151.827,4 z" id="boundary" inkscape:connector-curvature="0" />
	<path style="fill:none;stroke:red;stroke-width:1px;stroke-linecap:butt;stroke-linejoin:miter;stroke-opacity:1" d="M 112.925,595.31 120.706,634.212 z" id="boundary" inkscape:connector-curvature="0" />
	<path style="fill:none;stroke:red;stroke-width:1px;stroke-linecap:butt;stroke-linejoin:miter;stroke-opacity:1" d="M 112.925,797.6 112.925,836.502 z" id="boundary" inkscape:connector-curvature="0" />
	<path style="fill:none;stroke:red;stroke-width:1px;stroke-linecap:butt;stroke-linejoin:miter;stroke-opacity:1" d="M 112.925,797.6 155.718,805.38 z" id="boundary" inkscape:connector-curvature="0" />
	<path style="fill:none;stroke:red;stroke-width:1px;stroke-linecap:butt;stroke-linejoin:miter;stroke-opacity:1" d="M 112.925,836.502 112.925,875.404 z" id="boundary" inkscape:connector-curvature="0" />
	<path style="fill:none;stroke:red;stroke-width:1px;stroke-linecap:butt;stroke-linejoin:miter;stroke-opacity:1" d="M 112.925,875.404 112.925,914.306 z" id="boundary" inkscape:connector-curvature="0" />
	<path style="fill:none;stroke:red;stroke-width:1px;stroke-linecap:butt;stroke-linejoin:miter;stroke-opacity:1" d="M 120.706,634.212 120.706,673.114 z" id="boundary" inkscape:connector-curvature="0" />
	<path style="fill:none;stroke:red;stroke-width:1px;stroke-linecap:butt;stroke-linejoin:miter;stroke-opacity:1" d="M 120.706,673.114 120.706,712.016 z" id="boundary" inkscape:connector-curvature="0" />
	<path style="fill:none;stroke:red;stroke-width:1px;stroke-linecap:butt;stroke-linejoin:miter;stroke-opacity:1" d="M 120.706,712.016 120.706,750.918 z" id="boundary" inkscape:connector-curvature="0" />
	<path style="fill:none;stroke:red;stroke-width:1px;stroke-linecap:butt;stroke-linejoin:miter;stroke-opacity:1" d="M 120.706,750.918 163.498,743.137 z" id="boundary" inkscape:connector-curvature="0" />
	<path style="fill:none;stroke:red;stroke-width:1px;stroke-linecap:butt;stroke-linejoin:miter;stroke-opacity:1" d="M 151.827,4 190.729,4 z" id="boundary" inkscape:connector-curvature="0" />
	<path style="fill:none;stroke:red;stroke-width:1px;stroke-linecap:butt;stroke-linejoin:miter;stroke-opacity:1" d="M 155.718,805.38 155.718,844.282 z" id="boundary" inkscape:connector-curvature="0" />
	<path style="fill:none;stroke:red;stroke-width:1px;stroke-linecap:butt;stroke-linejoin:miter;stroke-opacity:1" d="M 155.718,844.282 155.718,883.184 z" id="boundary" inkscape:connector-curvature="0" />
	<path style="fill:none;stroke:red;stroke-width:1px;stroke-linecap:butt;stroke-linejoin:miter;stroke-opacity:1" d="M 155.718,883.184 155.718,922.086 z" id="boundary" inkscape:connector-curvature="0" />
	<path style="fill:none;stroke:red;stroke-width:1px;stroke-linecap:butt;stroke-linejoin:miter;stroke-opacity:1" d="M 155.718,922.086 155.718,960.988 z" id="boundary" inkscape:connector-curvature="0" />
	<path style="fill:none;stroke:red;stroke-width:1px;stroke-linecap:butt;stroke-linejoin:miter;stroke-opacity:1" d="M 155.718,960.988 186.839,984.329 z" id="boundary" inkscape:connector-curvature="0" />
	<path style="fill:none;stroke:red;stroke-width:1px;stroke-linecap:butt;stroke-linejoin:miter;stroke-opacity:1" d="M 163.498,431.922 163.498,470.824 z" id="boundary" inkscape:connector-curvature="0" />
	<path style="fill:none;stroke:red;stroke-width:1px;stroke-linecap:butt;stroke-linejoin:miter;stroke-opacity:1" d="M 163.498,431.922 202.4,428.031 z" id="boundary" inkscape:connector-curvature="0" />
	<path style="fill:none;stroke:red;stroke-width:1px;stroke-linecap:butt;stroke-linejoin:miter;stroke-opacity:1" d="M 163.498,470.824 163.498,509.725 z" id="boundary" inkscape:connector-curvature="0" />
	<path style="fill:none;stroke:red;stroke-width:1px;stroke-linecap:butt;stroke-linejoin:miter;stroke-opacity:1" d="M 163.498,509.725 163.498,548.627 z" id="boundary" inkscape:connector-curvature="0" />
	<path style="fill:none;stroke:red;stroke-width:1px;stroke-linecap:butt;stroke-linejoin:miter;stroke-opacity:1" d="M 163.498,548.627 163.498,587.529 z" id="boundary" inkscape:connector-curvature="0" />
	<path style="fill:none;stroke:red;stroke-width:1px;stroke-linecap:butt;stroke-linejoin:miter;stroke-opacity:1" d="M 163.498,587.529 163.498,626.431 z" id="boundary" inkscape:connector-curvature="0" />
	<path style="fill:none;stroke:red;stroke-width:1px;stroke-linecap:butt;stroke-linejoin:miter;stroke-opacity:1" d="M 163.498,626.431 163.498,665.333 z" id="boundary" inkscape:connector-curvature="0" />
	<path style="fill:none;stroke:red;stroke-width:1px;stroke-linecap:butt;stroke-linejoin:miter;stroke-opacity:1" d="M 163.498,665.333 163.498,704.235 z" id="boundary" inkscape:connector-curvature="0" />
	<path style="fill:none;stroke:red;stroke-width:1px;stroke-linecap:butt;stroke-linejoin:miter;stroke-opacity:1" d="M 163.498,704.235 163.498,743.137 z" id="boundary" inkscape:connector-curvature="0" />
	<path style="fill:none;stroke:red;stroke-width:1px;stroke-linecap:butt;stroke-linejoin:miter;stroke-opacity:1" d="M 186.839,984.329 225.741,996 z" id="boundary" inkscape:connector-curvature="0" />
	<path style="fill:none;stroke:red;stroke-width:1px;stroke-linecap:butt;stroke-linejoin:miter;stroke-opacity:1" d="M 190.729,4 229.631,15.6706 z" id="boundary" inkscape:connector-curvature="0" />
	<path style="fill:none;stroke:red;stroke-width:1px;stroke-linecap:butt;stroke-linejoin:miter;stroke-opacity:1" d="M 202.4,428.031 214.071,466.933 z" id="boundary" inkscape:connector-curvature="0" />
	<path style="fill:none;stroke:red;stroke-width:1px;stroke-linecap:butt;stroke-linejoin:miter;stroke-opacity:1" d="M 206.29,914.306 214.071,855.953 z" id="boundary" inkscape:connector-curvature="0" />
	<path style="fill:none;stroke:red;stroke-width:1px;stroke-linecap:butt;stroke-linejoin:miter;stroke-opacity:1" d="M 214.071,466.933 214.071,505.835 z" id="boundary" inkscape:connector-curvature="0" />
	<path style="fill:none;stroke:red;stroke-width:1px;stroke-linecap:butt;stroke-linejoin:miter;stroke-opacity:1" d="M 214.071,505.835 214.071,544.737 z" id="boundary" inkscape:connector-curvature="0" />
	<path style="fill:none;stroke:red;stroke-width:1px;stroke-linecap:butt;stroke-linejoin:miter;stroke-opacity:1" d="M 214.071,544.737 214.071,583.639 z" id="boundary" inkscape:connector-curvature="0" />
	<path style="fill:none;stroke:red;stroke-width:1px;stroke-linecap:butt;stroke-linejoin:miter;stroke-opacity:1" d="M 214.071,583.639 214.071,622.541 z" id="boundary" inkscape:connector-curvature="0" />
	<path style="fill:none;stroke:red;stroke-width:1px;stroke-linecap:butt;stroke-linejoin:miter;stroke-opacity:1" d="M 214.071,622.541 214.071,661.443 z" id="boundary" inkscape:connector-curvature="0" />
	<path style="fill:none;stroke:red;stroke-width:1px;stroke-linecap:butt;stroke-linejoin:miter;stroke-opacity:1" d="M 214.071,661.443 214.071,700.345 z" id="boundary" inkscape:connector-curvature="0" />
	<path style="fill:none;stroke:red;stroke-width:1px;stroke-linecap:butt;stroke-linejoin:miter;stroke-opacity:1" d="M 214.071,700.345 214.071,739.247 z" id="boundary" inkscape:connector-curvature="0" />
	<path style="fill:none;stroke:red;stroke-width:1px;stroke-linecap:butt;stroke-linejoin:miter;stroke-opacity:1" d="M 214.071,739.247 214.071,778.149 z" id="boundary" inkscape:connector-curvature="0" />
	<path style="fill:none;stroke:red;stroke-width:1px;stroke-linecap:butt;stroke-linejoin:miter;stroke-opacity:1" d="M 214.071,778.149 214.071,817.051 z" id="boundary" inkscape:connector-curvature="0" />
	<path style="fill:none;stroke:red;stroke-width:1px;stroke-linecap:butt;stroke-linejoin:miter;stroke-opacity:1" d="M 214.071,817.051 214.071,855.953 z" id="boundary" inkscape:connector-curvature="0" />
	<path style="fill:none;stroke:red;stroke-width:1px;stroke-linecap:butt;stroke-linejoin:miter;stroke-opacity:1" d="M 225.741,996 256.863,968.769 z" id="boundary" inkscape:connector-curvature="0" />
	<path style="fill:none;stroke:red;stroke-width:1px;stroke-linecap:butt;stroke-linejoin:miter;stroke-opacity:1" d="M 229.631,15.6706 264.643,35.1216 z" id="boundary" inkscape:connector-curvature="0" />
	<path style="fill:none;stroke:red;stroke-width:1px;stroke-linecap:butt;stroke-linejoin:miter;stroke-opacity:1" d="M 256.863,696.455 256.863,735.357 z" id="boundary" inkscape:connector-curvature="0" />
	<path style="fill:none;stroke:red;stroke-width:1px;stroke-linecap:butt;stroke-linejoin:miter;stroke-opacity:1" d="M 256.863,696.455 264.643,641.992 z" id="boundary" inkscape:connector-curvature="0" />
	<path style="fill:none;stroke:red;stroke-width:1px;stroke-linecap:butt;stroke-linejoin:miter;stroke-opacity:1" d="M 256.863,735.357 256.863,774.259 z" id="boundary" inkscape:connector-curvature="0" />
	<path style="fill:none;stroke:red;stroke-width:1px;stroke-linecap:butt;stroke-linejoin:miter;stroke-opacity:1" d="M 256.863,774.259 256.863,813.161 z" id="boundary" inkscape:connector-curvature="0" />
	<path style="fill:none;stroke:red;stroke-width:1px;stroke-linecap:butt;stroke-linejoin:miter;stroke-opacity:1" d="M 256.863,813.161 256.863,852.063 z" id="boundary" inkscape:connector-curvature="0" />
	<path style="fill:none;stroke:red;stroke-width:1px;stroke-linecap:butt;stroke-linejoin:miter;stroke-opacity:1" d="M 256.863,852.063 256.863,890.965 z" id="boundary" inkscape:connector-curvature="0" />
	<path style="fill:none;stroke:red;stroke-width:1px;stroke-linecap:butt;stroke-linejoin:miter;stroke-opacity:1" d="M 256.863,890.965 256.863,929.867 z" id="boundary" inkscape:connector-curvature="0" />
	<path style="fill:none;stroke:red;stroke-width:1px;stroke-linecap:butt;stroke-linejoin:miter;stroke-opacity:1" d="M 256.863,929.867 256.863,968.769 z" id="boundary" inkscape:connector-curvature="0" />
	<path style="fill:none;stroke:red;stroke-width:1px;stroke-linecap:butt;stroke-linejoin:miter;stroke-opacity:1" d="M 264.643,35.1216 291.875,66.2431 z" id="boundary" inkscape:connector-curvature="0" />
	<path style="fill:none;stroke:red;stroke-width:1px;stroke-linecap:butt;stroke-linejoin:miter;stroke-opacity:1" d="M 264.643,525.286 264.643,564.188 z" id="boundary" inkscape:connector-curvature="0" />
	<path style="fill:none;stroke:red;stroke-width:1px;stroke-linecap:butt;stroke-linejoin:miter;stroke-opacity:1" d="M 264.643,525.286 272.424,478.604 z" id="boundary" inkscape:connector-curvature="0" />
	<path style="fill:none;stroke:red;stroke-width:1px;stroke-linecap:butt;stroke-linejoin:miter;stroke-opacity:1" d="M 264.643,564.188 264.643,603.09 z" id="boundary" inkscape:connector-curvature="0" />
	<path style="fill:none;stroke:red;stroke-width:1px;stroke-linecap:butt;stroke-linejoin:miter;stroke-opacity:1" d="M 264.643,603.09 264.643,641.992 z" id="boundary" inkscape:connector-curvature="0" />
	<path style="fill:none;stroke:red;stroke-width:1px;stroke-linecap:butt;stroke-linejoin:miter;stroke-opacity:1" d="M 272.424,439.702 272.424,478.604 z" id="boundary" inkscape:connector-curvature="0" />
	<path style="fill:none;stroke:red;stroke-width:1px;stroke-linecap:butt;stroke-linejoin:miter;stroke-opacity:1" d="M 272.424,439.702 311.325,431.922 z" id="boundary" inkscape:connector-curvature="0" />
	<path style="fill:none;stroke:red;stroke-width:1px;stroke-linecap:butt;stroke-linejoin:miter;stroke-opacity:1" d="M 291.875,66.2431 311.325,101.255 z" id="boundary" inkscape:connector-curvature="0" />
	<path style="fill:none;stroke:red;stroke-width:1px;stroke-linecap:butt;stroke-linejoin:miter;stroke-opacity:1" d="M 311.325,101.255 319.106,140.157 z" id="boundary" inkscape:connector-curvature="0" />
	<path style="fill:none;stroke:red;stroke-width:1px;stroke-linecap:butt;stroke-linejoin:miter;stroke-opacity:1" d="M 311.325,431.922 326.886,369.678 z" id="boundary" inkscape:connector-curvature="0" />
	<path style="fill:none;stroke:red;stroke-width:1px;stroke-linecap:butt;stroke-linejoin:miter;stroke-opacity:1" d="M 319.106,140.157 326.886,179.059 z" id="boundary" inkscape:connector-curvature="0" />
	<path style="fill:none;stroke:red;stroke-width:1px;stroke-linecap:butt;stroke-linejoin:miter;stroke-opacity:1" d="M 326.886,179.059 334.667,217.961 z" id="boundary" inkscape:connector-curvature="0" />
	<path style="fill:none;stroke:red;stroke-width:1px;stroke-linecap:butt;stroke-linejoin:miter;stroke-opacity:1" d="M 326.886,369.678 342.447,295.765 z" id="boundary" inkscape:connector-curvature="0" />
	<path style="fill:none;stroke:red;stroke-width:1px;stroke-linecap:butt;stroke-linejoin:miter;stroke-opacity:1" d="M 334.667,217.961 342.447,256.863 z" id="boundary" inkscape:connector-curvature="0" />
	<path style="fill:none;stroke:red;stroke-width:1px;stroke-linecap:butt;stroke-linejoin:miter;stroke-opacity:1" d="M 342.447,256.863 342.447,295.765 z" id="boundary" inkscape:connector-curvature="0" />
	<circle cx="4" cy="214.071" r="4" fill="#0" id="circle0"/>
	<circle cx="4" cy="252.973" r="4" fill="#0" id="circle1"/>
	<circle cx="11.7804" cy="175.169" r="4" fill="#0" id="circle2"/>
	<circle cx="11.7804" cy="291.875" r="4" fill="#0" id="circle3"/>
	<circle cx="19.5608" cy="120.706" r="4" fill="#0" id="circle4"/>
	<circle cx="42.902" cy="66.2431" r="4" fill="#0" id="circle5"/>
	<circle cx="50.6824" cy="284.094" r="4" fill="#0" id="circle6"/>
	<circle cx="50.6824" cy="968.769" r="4" fill="#0" id="circle7"/>
	<circle cx="66.2431" cy="322.996" r="4" fill="#0" id="circle8"/>
	<circle cx="74.0235" cy="35.1216" r="4" fill="#0" id="circle9"/>
	<circle cx="81.8039" cy="361.898" r="4" fill="#0" id="circle10"/>
	<circle cx="85.6941" cy="988.22" r="4" fill="#0" id="circle11"/>
	<circle cx="89.5843" cy="400.8" r="4" fill="#0" id="circle12"/>
	<circle cx="93.4745" cy="439.702" r="4" fill="#0" id="circle13"/>
	<circle cx="93.4745" cy="949.318" r="4" fill="#0" id="circle14"/>
	<circle cx="97.3647" cy="478.604" r="4" fill="#0" id="circle15"/>
	<circle cx="105.145" cy="517.506" r="4" fill="#0" id="circle16"/>
	<circle cx="109.035" cy="556.408" r="4" fill="#0" id="circle17"/>
	<circle cx="112.925" cy="19.5608" r="4" fill="#0" id="circle18"/>
	<circle cx="112.925" cy="595.31" r="4" fill="#0" id="circle19"/>
	<circle cx="112.925" cy="797.6" r="4" fill="#0" id="circle20"/>
	<circle cx="112.925" cy="836.502" r="4" fill="#0" id="circle21"/>
	<circle cx="112.925" cy="875.404" r="4" fill="#0" id="circle22"/>
	<circle cx="112.925" cy="914.306" r="4" fill="#0" id="circle23"/>
	<circle cx="120.706" cy="634.212" r="4" fill="#0" id="circle24"/>
	<circle cx="120.706" cy="673.114" r="4" fill="#0" id="circle25"/>
	<circle cx="120.706" cy="712.016" r="4" fill="#0" id="circle26"/>
	<circle cx="120.706" cy="750.918" r="4" fill="#0" id="circle27"/>
	<circle cx="124.596" cy="996" r="4" fill="#0" id="circle28"/>
	<circle cx="151.827" cy="4" r="4" fill="#0" id="circle29"/>
	<circle cx="155.718" cy="805.38" r="4" fill="#0" id="circle30"/>
	<circle cx="155.718" cy="844.282" r="4" fill="#0" id="circle31"/>
	<circle cx="155.718" cy="883.184" r="4" fill="#0" id="circle32"/>
	<circle cx="155.718" cy="922.086" r="4" fill="#0" id="circle33"/>
	<circle cx="155.718" cy="960.988" r="4" fill="#0" id="circle34"/>
	<circle cx="163.498" cy="393.02" r="4" fill="#0" id="circle35"/>
	<circle cx="163.498" cy="431.922" r="4" fill="#0" id="circle36"/>
	<circle cx="163.498" cy="470.824" r="4" fill="#0" id="circle37"/>
	<circle cx="163.498" cy="509.725" r="4" fill="#0" id="circle38"/>
	<circle cx="163.498" cy="548.627" r="4" fill="#0" id="circle39"/>
	<circle cx="163.498" cy="587.529" r="4" fill="#0" id="circle40"/>
	<circle cx="163.498" cy="626.431" r="4" fill="#0" id="circle41"/>
	<circle cx="163.498" cy="665.333" r="4" fill="#0" id="circle42"/>
	<circle cx="163.498" cy="704.235" r="4" fill="#0" id="circle43"/>
	<circle cx="163.498" cy="743.137" r="4" fill="#0" id="circle44"/>
	<circle cx="186.839" cy="984.329" r="4" fill="#0" id="circle45"/>
	<circle cx="190.729" cy="4" r="4" fill="#0" id="circle46"/>
	<circle cx="202.4" cy="428.031" r="4" fill="#0" id="circle47"/>
	<circle cx="206.29" cy="914.306" r="4" fill="#0" id="circle48"/>
	<circle cx="214.071" cy="466.933" r="4" fill="#0" id="circle49"/>
	<circle cx="214.071" cy="505.835" r="4" fill="#0" id="circle50"/>
	<circle cx="214.071" cy="544.737" r="4" fill="#0" id="circle51"/>
	<circle cx="214.071" cy="583.639" r="4" fill="#0" id="circle52"/>
	<circle cx="214.071" cy="622.541" r="4" fill="#0" id="circle53"/>
	<circle cx="214.071" cy="661.443" r="4" fill="#0" id="circle54"/>
	<circle cx="214.071" cy="700.345" r="4" fill="#0" id="circle55"/>
	<circle cx="214.071" cy="739.247" r="4" fill="#0" id="circle56"/>
	<circle cx="214.071" cy="778.149" r="4" fill="#0" id="circle57"/>
	<circle cx="214.071" cy="817.051" r="4" fill="#0" id="circle58"/>
	<circle cx="214.071" cy="855.953" r="4" fill="#0" id="circle59"/>
	<circle cx="225.741" cy="996" r="4" fill="#0" id="circle60"/>
	<circle cx="229.631" cy="15.6706" r="4" fill="#0" id="circle61"/>
	<circle cx="256.863" cy="696.455" r="4" fill="#0" id="circle62"/>
	<circle cx="256.863" cy="735.357" r="4" fill="#0" id="circle63"/>
	<circle cx="256.863" cy="774.259" r="4" fill="#0" id="circle64"/>
	<circle cx="256.863" cy="813.161" r="4" fill="#0" id="circle65"/>
	<circle cx="256.863" cy="852.063" r="4" fill="#0" id="circle66"/>
	<circle cx="256.863" cy="890.965" r="4" fill="#0" id="circle67"/>
	<circle cx="256.863" cy="929.867" r="4" fill="#0" id="circle68"/>
	<circle cx="256.863" cy="968.769" r="4" fill="#0" id="circle69"/>
	<circle cx="264.643" cy="35.1216" r="4" fill="#0" id="circle70"/>
	<circle cx="264.643" cy="525.286" r="4" fill="#0" id="circle71"/>
	<circle cx="264.643" cy="564.188" r="4" fill="#0" id="circle72"/>
	<circle cx="264.643" cy="603.09" r="4" fill="#0" id="circle73"/>
	<circle cx="264.643" cy="641.992" r="4" fill="#0" id="circle74"/>
	<circle cx="272.424" cy="439.702" r="4" fill="#0" id="circle75"/>
	<circle cx="272.424" cy="478.604" r="4" fill="#0" id="circle76"/>
	<circle cx="291.875" cy="66.2431" r="4" fill="#0" id="circle77"/>
	<circle cx="311.325" cy="101.255" r="4" fill="#0" id="circle78"/>
	<circle cx="311.325" cy="431.922" r="4" fill="#0" id="circle79"/>
	<circle cx="319.106" cy="140.157" r="4" fill="#0" id="circle80"/>
	<circle cx="326.886" cy="179.059" r="4" fill="#0" id="circle81"/>
	<circle cx="326.886" cy="369.678" r="4" fill="#0" id="circle82"/>
	<circle cx="334.667" cy="217.961" r="4" fill="#0" id="circle83"/>
	<circle cx="342.447" cy="256.863" r="4" fill="#0" id="circle84"/>
	<circle cx="342.447" cy="295.765" r="4" fill="#0" id="circle85"/>
	</g>
</svg>