<?xml version="1.0" encoding="UTF-8" standalone="no"?>
<!-- Created with CurveBenchmark -->
<svg
	xmlns:dc="http://purl.org/dc/elements/1.1/"
	xmlns:cc="http://creativecommons.org/ns#"
	xmlns:rdf="http://www.w3.org/1999/02/22-rdf-syntax-ns#"
	xmlns:svg="http://www.w3.org/2000/svg"
	xmlns="http://www.w3.org/2000/svg"
	xmlns:sodipodi="http://sodipodi.sourceforge.net/DTD/sodipodi-0.dtd"
	xmlns:inkscape="http://www.inkscape.org/namespaces/inkscape"
	width="1000"
	height="1000"
	id="svg2"
	version="1.1"
	sodipodi:docname="manifold/discur-tool05.png.txt">
<defs
	id="defs4" />
<metadata
	id="metadata7">
	<rdf:RDF>
		<cc:Work
			rdf:about="">
			<dc:format>image/svg+xml</dc:format>
			<dc:type
				rdf:resource="http://purl.org/dc/dcmitype/StillImage" />
			<dc:title></dc:title>
		</cc:Work>
	</rdf:RDF>
</metadata>
<g
	inkscape:label="Layer 1"
	inkscape:groupmode="layer"
	id="layer1">
	<path style="fill:none;stroke:red;stroke-width:1px;stroke-linecap:butt;stroke-linejoin:miter;stroke-opacity:1" d="M 4,68.6346 4,96.7365 z" id="boundary" inkscape:connector-curvature="0" />
	<path style="fill:none;stroke:red;stroke-width:1px;stroke-linecap:butt;stroke-linejoin:miter;stroke-opacity:1" d="M 4,68.6346 32.102,65.8244 z" id="boundary" inkscape:connector-curvature="0" />
	<path style="fill:none;stroke:red;stroke-width:1px;stroke-linecap:butt;stroke-linejoin:miter;stroke-opacity:1" d="M 4,96.7365 4,124.839 z" id="boundary" inkscape:connector-curvature="0" />
	<path style="fill:none;stroke:red;stroke-width:1px;stroke-linecap:butt;stroke-linejoin:miter;stroke-opacity:1" d="M 4,124.839 4,152.941 z" id="boundary" inkscape:connector-curvature="0" />
	<path style="fill:none;stroke:red;stroke-width:1px;stroke-linecap:butt;stroke-linejoin:miter;stroke-opacity:1" d="M 4,152.941 4,181.042 z" id="boundary" inkscape:connector-curvature="0" />
	<path style="fill:none;stroke:red;stroke-width:1px;stroke-linecap:butt;stroke-linejoin:miter;stroke-opacity:1" d="M 4,181.042 18.051,206.334 z" id="boundary" inkscape:connector-curvature="0" />
	<path style="fill:none;stroke:red;stroke-width:1px;stroke-linecap:butt;stroke-linejoin:miter;stroke-opacity:1" d="M 18.051,206.334 37.7224,228.816 z" id="boundary" inkscape:connector-curvature="0" />
	<path style="fill:none;stroke:red;stroke-width:1px;stroke-linecap:butt;stroke-linejoin:miter;stroke-opacity:1" d="M 32.102,65.8244 57.3938,79.8754 z" id="boundary" inkscape:connector-curvature="0" />
	<path style="fill:none;stroke:red;stroke-width:1px;stroke-linecap:butt;stroke-linejoin:miter;stroke-opacity:1" d="M 37.7224,228.816 60.204,245.677 z" id="boundary" inkscape:connector-curvature="0" />
	<path style="fill:none;stroke:red;stroke-width:1px;stroke-linecap:butt;stroke-linejoin:miter;stroke-opacity:1" d="M 57.3938,79.8754 63.0142,107.977 z" id="boundary" inkscape:connector-curvature="0" />
	<path style="fill:none;stroke:red;stroke-width:1px;stroke-linecap:butt;stroke-linejoin:miter;stroke-opacity:1" d="M 60.204,245.677 77.0652,268.159 z" id="boundary" inkscape:connector-curvature="0" />
	<path style="fill:none;stroke:red;stroke-width:1px;stroke-linecap:butt;stroke-linejoin:miter;stroke-opacity:1" d="M 63.0142,107.977 79.8754,130.459 z" id="boundary" inkscape:connector-curvature="0" />
	<path style="fill:none;stroke:red;stroke-width:1px;stroke-linecap:butt;stroke-linejoin:miter;stroke-opacity:1" d="M 77.0652,268.159 99.5467,287.83 z" id="boundary" inkscape:connector-curvature="0" />
	<path style="fill:none;stroke:red;stroke-width:1px;stroke-linecap:butt;stroke-linejoin:miter;stroke-opacity:1" d="M 79.8754,130.459 105.167,144.51 z" id="boundary" inkscape:connector-curvature="0" />
	<path style="fill:none;stroke:red;stroke-width:1px;stroke-linecap:butt;stroke-linejoin:miter;stroke-opacity:1" d="M 99.5467,287.83 116.408,310.312 z" id="boundary" inkscape:connector-curvature="0" />
	<path style="fill:none;stroke:red;stroke-width:1px;stroke-linecap:butt;stroke-linejoin:miter;stroke-opacity:1" d="M 105.167,144.51 133.269,136.079 z" id="boundary" inkscape:connector-curvature="0" />
	<path style="fill:none;stroke:red;stroke-width:1px;stroke-linecap:butt;stroke-linejoin:miter;stroke-opacity:1" d="M 116.408,310.312 130.459,335.603 z" id="boundary" inkscape:connector-curvature="0" />
	<path style="fill:none;stroke:red;stroke-width:1px;stroke-linecap:butt;stroke-linejoin:miter;stroke-opacity:1" d="M 130.459,12.4306 130.459,40.5326 z" id="boundary" inkscape:connector-curvature="0" />
	<path style="fill:none;stroke:red;stroke-width:1px;stroke-linecap:butt;stroke-linejoin:miter;stroke-opacity:1" d="M 130.459,12.4306 158.561,4 z" id="boundary" inkscape:connector-curvature="0" />
	<path style="fill:none;stroke:red;stroke-width:1px;stroke-linecap:butt;stroke-linejoin:miter;stroke-opacity:1" d="M 130.459,40.5326 152.941,60.204 z" id="boundary" inkscape:connector-curvature="0" />
	<path style="fill:none;stroke:red;stroke-width:1px;stroke-linecap:butt;stroke-linejoin:miter;stroke-opacity:1" d="M 130.459,335.603 130.459,363.705 z" id="boundary" inkscape:connector-curvature="0" />
	<path style="fill:none;stroke:red;stroke-width:1px;stroke-linecap:butt;stroke-linejoin:miter;stroke-opacity:1" d="M 130.459,363.705 130.459,391.807 z" id="boundary" inkscape:connector-curvature="0" />
	<path style="fill:none;stroke:red;stroke-width:1px;stroke-linecap:butt;stroke-linejoin:miter;stroke-opacity:1" d="M 130.459,391.807 144.51,417.099 z" id="boundary" inkscape:connector-curvature="0" />
	<path style="fill:none;stroke:red;stroke-width:1px;stroke-linecap:butt;stroke-linejoin:miter;stroke-opacity:1" d="M 133.269,136.079 155.751,116.408 z" id="boundary" inkscape:connector-curvature="0" />
	<path style="fill:none;stroke:red;stroke-width:1px;stroke-linecap:butt;stroke-linejoin:miter;stroke-opacity:1" d="M 144.51,417.099 144.51,445.201 z" id="boundary" inkscape:connector-curvature="0" />
	<path style="fill:none;stroke:red;stroke-width:1px;stroke-linecap:butt;stroke-linejoin:miter;stroke-opacity:1" d="M 144.51,445.201 158.561,470.493 z" id="boundary" inkscape:connector-curvature="0" />
	<path style="fill:none;stroke:red;stroke-width:1px;stroke-linecap:butt;stroke-linejoin:miter;stroke-opacity:1" d="M 152.941,60.204 164.181,88.3059 z" id="boundary" inkscape:connector-curvature="0" />
	<path style="fill:none;stroke:red;stroke-width:1px;stroke-linecap:butt;stroke-linejoin:miter;stroke-opacity:1" d="M 155.751,116.408 164.181,88.3059 z" id="boundary" inkscape:connector-curvature="0" />
	<path style="fill:none;stroke:red;stroke-width:1px;stroke-linecap:butt;stroke-linejoin:miter;stroke-opacity:1" d="M 158.561,4 181.042,20.8612 z" id="boundary" inkscape:connector-curvature="0" />
	<path style="fill:none;stroke:red;stroke-width:1px;stroke-linecap:butt;stroke-linejoin:miter;stroke-opacity:1" d="M 158.561,470.493 166.992,498.595 z" id="boundary" inkscape:connector-curvature="0" />
	<path style="fill:none;stroke:red;stroke-width:1px;stroke-linecap:butt;stroke-linejoin:miter;stroke-opacity:1" d="M 166.992,498.595 172.612,526.697 z" id="boundary" inkscape:connector-curvature="0" />
	<path style="fill:none;stroke:red;stroke-width:1px;stroke-linecap:butt;stroke-linejoin:miter;stroke-opacity:1" d="M 172.612,526.697 186.663,551.989 z" id="boundary" inkscape:connector-curvature="0" />
	<path style="fill:none;stroke:red;stroke-width:1px;stroke-linecap:butt;stroke-linejoin:miter;stroke-opacity:1" d="M 181.042,20.8612 209.144,32.102 z" id="boundary" inkscape:connector-curvature="0" />
	<path style="fill:none;stroke:red;stroke-width:1px;stroke-linecap:butt;stroke-linejoin:miter;stroke-opacity:1" d="M 186.663,551.989 186.663,580.091 z" id="boundary" inkscape:connector-curvature="0" />
	<path style="fill:none;stroke:red;stroke-width:1px;stroke-linecap:butt;stroke-linejoin:miter;stroke-opacity:1" d="M 186.663,580.091 200.714,605.382 z" id="boundary" inkscape:connector-curvature="0" />
	<path style="fill:none;stroke:red;stroke-width:1px;stroke-linecap:butt;stroke-linejoin:miter;stroke-opacity:1" d="M 200.714,605.382 203.524,633.484 z" id="boundary" inkscape:connector-curvature="0" />
	<path style="fill:none;stroke:red;stroke-width:1px;stroke-linecap:butt;stroke-linejoin:miter;stroke-opacity:1" d="M 203.524,633.484 226.006,653.156 z" id="boundary" inkscape:connector-curvature="0" />
	<path style="fill:none;stroke:red;stroke-width:1px;stroke-linecap:butt;stroke-linejoin:miter;stroke-opacity:1" d="M 209.144,32.102 234.436,46.153 z" id="boundary" inkscape:connector-curvature="0" />
	<path style="fill:none;stroke:red;stroke-width:1px;stroke-linecap:butt;stroke-linejoin:miter;stroke-opacity:1" d="M 226.006,653.156 228.816,681.258 z" id="boundary" inkscape:connector-curvature="0" />
	<path style="fill:none;stroke:red;stroke-width:1px;stroke-linecap:butt;stroke-linejoin:miter;stroke-opacity:1" d="M 228.816,681.258 242.867,706.55 z" id="boundary" inkscape:connector-curvature="0" />
	<path style="fill:none;stroke:red;stroke-width:1px;stroke-linecap:butt;stroke-linejoin:miter;stroke-opacity:1" d="M 234.436,46.153 256.918,65.8244 z" id="boundary" inkscape:connector-curvature="0" />
	<path style="fill:none;stroke:red;stroke-width:1px;stroke-linecap:butt;stroke-linejoin:miter;stroke-opacity:1" d="M 242.867,706.55 242.867,734.652 z" id="boundary" inkscape:connector-curvature="0" />
	<path style="fill:none;stroke:red;stroke-width:1px;stroke-linecap:butt;stroke-linejoin:miter;stroke-opacity:1" d="M 242.867,734.652 259.728,757.133 z" id="boundary" inkscape:connector-curvature="0" />
	<path style="fill:none;stroke:red;stroke-width:1px;stroke-linecap:butt;stroke-linejoin:miter;stroke-opacity:1" d="M 245.677,231.626 245.677,259.728 z" id="boundary" inkscape:connector-curvature="0" />
	<path style="fill:none;stroke:red;stroke-width:1px;stroke-linecap:butt;stroke-linejoin:miter;stroke-opacity:1" d="M 245.677,231.626 259.728,203.524 z" id="boundary" inkscape:connector-curvature="0" />
	<path style="fill:none;stroke:red;stroke-width:1px;stroke-linecap:butt;stroke-linejoin:miter;stroke-opacity:1" d="M 245.677,259.728 245.677,287.83 z" id="boundary" inkscape:connector-curvature="0" />
	<path style="fill:none;stroke:red;stroke-width:1px;stroke-linecap:butt;stroke-linejoin:miter;stroke-opacity:1" d="M 245.677,287.83 259.728,313.122 z" id="boundary" inkscape:connector-curvature="0" />
	<path style="fill:none;stroke:red;stroke-width:1px;stroke-linecap:butt;stroke-linejoin:miter;stroke-opacity:1" d="M 256.918,65.8244 268.159,93.9263 z" id="boundary" inkscape:connector-curvature="0" />
	<path style="fill:none;stroke:red;stroke-width:1px;stroke-linecap:butt;stroke-linejoin:miter;stroke-opacity:1" d="M 259.728,203.524 282.21,183.853 z" id="boundary" inkscape:connector-curvature="0" />
	<path style="fill:none;stroke:red;stroke-width:1px;stroke-linecap:butt;stroke-linejoin:miter;stroke-opacity:1" d="M 259.728,313.122 273.779,338.414 z" id="boundary" inkscape:connector-curvature="0" />
	<path style="fill:none;stroke:red;stroke-width:1px;stroke-linecap:butt;stroke-linejoin:miter;stroke-opacity:1" d="M 259.728,757.133 270.969,785.235 z" id="boundary" inkscape:connector-curvature="0" />
	<path style="fill:none;stroke:red;stroke-width:1px;stroke-linecap:butt;stroke-linejoin:miter;stroke-opacity:1" d="M 268.159,93.9263 282.21,119.218 z" id="boundary" inkscape:connector-curvature="0" />
	<path style="fill:none;stroke:red;stroke-width:1px;stroke-linecap:butt;stroke-linejoin:miter;stroke-opacity:1" d="M 270.969,785.235 285.02,810.527 z" id="boundary" inkscape:connector-curvature="0" />
	<path style="fill:none;stroke:red;stroke-width:1px;stroke-linecap:butt;stroke-linejoin:miter;stroke-opacity:1" d="M 273.779,338.414 273.779,366.516 z" id="boundary" inkscape:connector-curvature="0" />
	<path style="fill:none;stroke:red;stroke-width:1px;stroke-linecap:butt;stroke-linejoin:miter;stroke-opacity:1" d="M 273.779,366.516 287.83,391.807 z" id="boundary" inkscape:connector-curvature="0" />
	<path style="fill:none;stroke:red;stroke-width:1px;stroke-linecap:butt;stroke-linejoin:miter;stroke-opacity:1" d="M 282.21,119.218 287.83,147.32 z" id="boundary" inkscape:connector-curvature="0" />
	<path style="fill:none;stroke:red;stroke-width:1px;stroke-linecap:butt;stroke-linejoin:miter;stroke-opacity:1" d="M 282.21,183.853 287.83,147.32 z" id="boundary" inkscape:connector-curvature="0" />
	<path style="fill:none;stroke:red;stroke-width:1px;stroke-linecap:butt;stroke-linejoin:miter;stroke-opacity:1" d="M 285.02,810.527 299.071,835.819 z" id="boundary" inkscape:connector-curvature="0" />
	<path style="fill:none;stroke:red;stroke-width:1px;stroke-linecap:butt;stroke-linejoin:miter;stroke-opacity:1" d="M 287.83,391.807 299.071,419.909 z" id="boundary" inkscape:connector-curvature="0" />
	<path style="fill:none;stroke:red;stroke-width:1px;stroke-linecap:butt;stroke-linejoin:miter;stroke-opacity:1" d="M 299.071,419.909 301.881,448.011 z" id="boundary" inkscape:connector-curvature="0" />
	<path style="fill:none;stroke:red;stroke-width:1px;stroke-linecap:butt;stroke-linejoin:miter;stroke-opacity:1" d="M 299.071,835.819 299.071,863.921 z" id="boundary" inkscape:connector-curvature="0" />
	<path style="fill:none;stroke:red;stroke-width:1px;stroke-linecap:butt;stroke-linejoin:miter;stroke-opacity:1" d="M 299.071,863.921 313.122,889.212 z" id="boundary" inkscape:connector-curvature="0" />
	<path style="fill:none;stroke:red;stroke-width:1px;stroke-linecap:butt;stroke-linejoin:miter;stroke-opacity:1" d="M 301.881,448.011 313.122,476.113 z" id="boundary" inkscape:connector-curvature="0" />
	<path style="fill:none;stroke:red;stroke-width:1px;stroke-linecap:butt;stroke-linejoin:miter;stroke-opacity:1" d="M 313.122,476.113 315.932,504.215 z" id="boundary" inkscape:connector-curvature="0" />
	<path style="fill:none;stroke:red;stroke-width:1px;stroke-linecap:butt;stroke-linejoin:miter;stroke-opacity:1" d="M 313.122,889.212 327.173,914.504 z" id="boundary" inkscape:connector-curvature="0" />
	<path style="fill:none;stroke:red;stroke-width:1px;stroke-linecap:butt;stroke-linejoin:miter;stroke-opacity:1" d="M 315.932,504.215 335.603,526.697 z" id="boundary" inkscape:connector-curvature="0" />
	<path style="fill:none;stroke:red;stroke-width:1px;stroke-linecap:butt;stroke-linejoin:miter;stroke-opacity:1" d="M 327.173,914.504 341.224,939.796 z" id="boundary" inkscape:connector-curvature="0" />
	<path style="fill:none;stroke:red;stroke-width:1px;stroke-linecap:butt;stroke-linejoin:miter;stroke-opacity:1" d="M 335.603,526.697 344.034,554.799 z" id="boundary" inkscape:connector-curvature="0" />
	<path style="fill:none;stroke:red;stroke-width:1px;stroke-linecap:butt;stroke-linejoin:miter;stroke-opacity:1" d="M 341.224,939.796 363.705,959.467 z" id="boundary" inkscape:connector-curvature="0" />
	<path style="fill:none;stroke:red;stroke-width:1px;stroke-linecap:butt;stroke-linejoin:miter;stroke-opacity:1" d="M 344.034,554.799 358.085,580.091 z" id="boundary" inkscape:connector-curvature="0" />
	<path style="fill:none;stroke:red;stroke-width:1px;stroke-linecap:butt;stroke-linejoin:miter;stroke-opacity:1" d="M 358.085,580.091 358.085,608.193 z" id="boundary" inkscape:connector-curvature="0" />
	<path style="fill:none;stroke:red;stroke-width:1px;stroke-linecap:butt;stroke-linejoin:miter;stroke-opacity:1" d="M 358.085,608.193 358.085,636.295 z" id="boundary" inkscape:connector-curvature="0" />
	<path style="fill:none;stroke:red;stroke-width:1px;stroke-linecap:butt;stroke-linejoin:miter;stroke-opacity:1" d="M 358.085,636.295 380.567,653.156 z" id="boundary" inkscape:connector-curvature="0" />
	<path style="fill:none;stroke:red;stroke-width:1px;stroke-linecap:butt;stroke-linejoin:miter;stroke-opacity:1" d="M 363.705,959.467 383.377,981.949 z" id="boundary" inkscape:connector-curvature="0" />
	<path style="fill:none;stroke:red;stroke-width:1px;stroke-linecap:butt;stroke-linejoin:miter;stroke-opacity:1" d="M 380.567,653.156 386.187,681.258 z" id="boundary" inkscape:connector-curvature="0" />
	<path style="fill:none;stroke:red;stroke-width:1px;stroke-linecap:butt;stroke-linejoin:miter;stroke-opacity:1" d="M 383.377,981.949 411.479,990.38 z" id="boundary" inkscape:connector-curvature="0" />
	<path style="fill:none;stroke:red;stroke-width:1px;stroke-linecap:butt;stroke-linejoin:miter;stroke-opacity:1" d="M 386.187,681.258 400.238,706.55 z" id="boundary" inkscape:connector-curvature="0" />
	<path style="fill:none;stroke:red;stroke-width:1px;stroke-linecap:butt;stroke-linejoin:miter;stroke-opacity:1" d="M 400.238,706.55 414.289,731.841 z" id="boundary" inkscape:connector-curvature="0" />
	<path style="fill:none;stroke:red;stroke-width:1px;stroke-linecap:butt;stroke-linejoin:miter;stroke-opacity:1" d="M 411.479,990.38 439.581,996 z" id="boundary" inkscape:connector-curvature="0" />
	<path style="fill:none;stroke:red;stroke-width:1px;stroke-linecap:butt;stroke-linejoin:miter;stroke-opacity:1" d="M 414.289,731.841 414.289,759.943 z" id="boundary" inkscape:connector-curvature="0" />
	<path style="fill:none;stroke:red;stroke-width:1px;stroke-linecap:butt;stroke-linejoin:miter;stroke-opacity:1" d="M 414.289,759.943 442.391,771.184 z" id="boundary" inkscape:connector-curvature="0" />
	<path style="fill:none;stroke:red;stroke-width:1px;stroke-linecap:butt;stroke-linejoin:miter;stroke-opacity:1" d="M 439.581,996 467.683,990.38 z" id="boundary" inkscape:connector-curvature="0" />
	<path style="fill:none;stroke:red;stroke-width:1px;stroke-linecap:butt;stroke-linejoin:miter;stroke-opacity:1" d="M 442.391,771.184 462.062,793.666 z" id="boundary" inkscape:connector-curvature="0" />
	<path style="fill:none;stroke:red;stroke-width:1px;stroke-linecap:butt;stroke-linejoin:miter;stroke-opacity:1" d="M 462.062,793.666 476.113,818.958 z" id="boundary" inkscape:connector-curvature="0" />
	<path style="fill:none;stroke:red;stroke-width:1px;stroke-linecap:butt;stroke-linejoin:miter;stroke-opacity:1" d="M 467.683,990.38 495.785,981.949 z" id="boundary" inkscape:connector-curvature="0" />
	<path style="fill:none;stroke:red;stroke-width:1px;stroke-linecap:butt;stroke-linejoin:miter;stroke-opacity:1" d="M 476.113,818.958 504.215,818.958 z" id="boundary" inkscape:connector-curvature="0" />
	<path style="fill:none;stroke:red;stroke-width:1px;stroke-linecap:butt;stroke-linejoin:miter;stroke-opacity:1" d="M 484.544,877.972 484.544,906.074 z" id="boundary" inkscape:connector-curvature="0" />
	<path style="fill:none;stroke:red;stroke-width:1px;stroke-linecap:butt;stroke-linejoin:miter;stroke-opacity:1" d="M 484.544,877.972 512.646,883.592 z" id="boundary" inkscape:connector-curvature="0" />
	<path style="fill:none;stroke:red;stroke-width:1px;stroke-linecap:butt;stroke-linejoin:miter;stroke-opacity:1" d="M 484.544,906.074 498.595,931.365 z" id="boundary" inkscape:connector-curvature="0" />
	<path style="fill:none;stroke:red;stroke-width:1px;stroke-linecap:butt;stroke-linejoin:miter;stroke-opacity:1" d="M 495.785,981.949 512.646,956.657 z" id="boundary" inkscape:connector-curvature="0" />
	<path style="fill:none;stroke:red;stroke-width:1px;stroke-linecap:butt;stroke-linejoin:miter;stroke-opacity:1" d="M 498.595,931.365 512.646,956.657 z" id="boundary" inkscape:connector-curvature="0" />
	<path style="fill:none;stroke:red;stroke-width:1px;stroke-linecap:butt;stroke-linejoin:miter;stroke-opacity:1" d="M 504.215,818.958 523.887,841.439 z" id="boundary" inkscape:connector-curvature="0" />
	<path style="fill:none;stroke:red;stroke-width:1px;stroke-linecap:butt;stroke-linejoin:miter;stroke-opacity:1" d="M 512.646,883.592 523.887,911.694 z" id="boundary" inkscape:connector-curvature="0" />
	<path style="fill:none;stroke:red;stroke-width:1px;stroke-linecap:butt;stroke-linejoin:miter;stroke-opacity:1" d="M 523.887,841.439 551.989,852.68 z" id="boundary" inkscape:connector-curvature="0" />
	<path style="fill:none;stroke:red;stroke-width:1px;stroke-linecap:butt;stroke-linejoin:miter;stroke-opacity:1" d="M 523.887,911.694 546.368,931.365 z" id="boundary" inkscape:connector-curvature="0" />
	<path style="fill:none;stroke:red;stroke-width:1px;stroke-linecap:butt;stroke-linejoin:miter;stroke-opacity:1" d="M 546.368,931.365 574.47,931.365 z" id="boundary" inkscape:connector-curvature="0" />
	<path style="fill:none;stroke:red;stroke-width:1px;stroke-linecap:butt;stroke-linejoin:miter;stroke-opacity:1" d="M 551.989,852.68 568.85,875.161 z" id="boundary" inkscape:connector-curvature="0" />
	<path style="fill:none;stroke:red;stroke-width:1px;stroke-linecap:butt;stroke-linejoin:miter;stroke-opacity:1" d="M 568.85,875.161 582.901,900.453 z" id="boundary" inkscape:connector-curvature="0" />
	<path style="fill:none;stroke:red;stroke-width:1px;stroke-linecap:butt;stroke-linejoin:miter;stroke-opacity:1" d="M 574.47,931.365 582.901,900.453 z" id="boundary" inkscape:connector-curvature="0" />
	<circle cx="4" cy="68.6346" r="4" fill="#0" id="circle0"/>
	<circle cx="4" cy="96.7365" r="4" fill="#0" id="circle1"/>
	<circle cx="4" cy="124.839" r="4" fill="#0" id="circle2"/>
	<circle cx="4" cy="152.941" r="4" fill="#0" id="circle3"/>
	<circle cx="4" cy="181.042" r="4" fill="#0" id="circle4"/>
	<circle cx="18.051" cy="206.334" r="4" fill="#0" id="circle5"/>
	<circle cx="32.102" cy="65.8244" r="4" fill="#0" id="circle6"/>
	<circle cx="37.7224" cy="228.816" r="4" fill="#0" id="circle7"/>
	<circle cx="57.3938" cy="79.8754" r="4" fill="#0" id="circle8"/>
	<circle cx="60.204" cy="245.677" r="4" fill="#0" id="circle9"/>
	<circle cx="63.0142" cy="107.977" r="4" fill="#0" id="circle10"/>
	<circle cx="77.0652" cy="268.159" r="4" fill="#0" id="circle11"/>
	<circle cx="79.8754" cy="130.459" r="4" fill="#0" id="circle12"/>
	<circle cx="99.5467" cy="287.83" r="4" fill="#0" id="circle13"/>
	<circle cx="105.167" cy="144.51" r="4" fill="#0" id="circle14"/>
	<circle cx="116.408" cy="310.312" r="4" fill="#0" id="circle15"/>
	<circle cx="130.459" cy="12.4306" r="4" fill="#0" id="circle16"/>
	<circle cx="130.459" cy="40.5326" r="4" fill="#0" id="circle17"/>
	<circle cx="130.459" cy="335.603" r="4" fill="#0" id="circle18"/>
	<circle cx="130.459" cy="363.705" r="4" fill="#0" id="circle19"/>
	<circle cx="130.459" cy="391.807" r="4" fill="#0" id="circle20"/>
	<circle cx="133.269" cy="136.079" r="4" fill="#0" id="circle21"/>
	<circle cx="144.51" cy="417.099" r="4" fill="#0" id="circle22"/>
	<circle cx="144.51" cy="445.201" r="4" fill="#0" id="circle23"/>
	<circle cx="152.941" cy="60.204" r="4" fill="#0" id="circle24"/>
	<circle cx="155.751" cy="116.408" r="4" fill="#0" id="circle25"/>
	<circle cx="158.561" cy="4" r="4" fill="#0" id="circle26"/>
	<circle cx="158.561" cy="470.493" r="4" fill="#0" id="circle27"/>
	<circle cx="164.181" cy="88.3059" r="4" fill="#0" id="circle28"/>
	<circle cx="166.992" cy="498.595" r="4" fill="#0" id="circle29"/>
	<circle cx="172.612" cy="526.697" r="4" fill="#0" id="circle30"/>
	<circle cx="181.042" cy="20.8612" r="4" fill="#0" id="circle31"/>
	<circle cx="186.663" cy="551.989" r="4" fill="#0" id="circle32"/>
	<circle cx="186.663" cy="580.091" r="4" fill="#0" id="circle33"/>
	<circle cx="200.714" cy="605.382" r="4" fill="#0" id="circle34"/>
	<circle cx="203.524" cy="633.484" r="4" fill="#0" id="circle35"/>
	<circle cx="209.144" cy="32.102" r="4" fill="#0" id="circle36"/>
	<circle cx="226.006" cy="653.156" r="4" fill="#0" id="circle37"/>
	<circle cx="228.816" cy="681.258" r="4" fill="#0" id="circle38"/>
	<circle cx="234.436" cy="46.153" r="4" fill="#0" id="circle39"/>
	<circle cx="242.867" cy="706.55" r="4" fill="#0" id="circle40"/>
	<circle cx="242.867" cy="734.652" r="4" fill="#0" id="circle41"/>
	<circle cx="245.677" cy="231.626" r="4" fill="#0" id="circle42"/>
	<circle cx="245.677" cy="259.728" r="4" fill="#0" id="circle43"/>
	<circle cx="245.677" cy="287.83" r="4" fill="#0" id="circle44"/>
	<circle cx="256.918" cy="65.8244" r="4" fill="#0" id="circle45"/>
	<circle cx="259.728" cy="203.524" r="4" fill="#0" id="circle46"/>
	<circle cx="259.728" cy="313.122" r="4" fill="#0" id="circle47"/>
	<circle cx="259.728" cy="757.133" r="4" fill="#0" id="circle48"/>
	<circle cx="268.159" cy="93.9263" r="4" fill="#0" id="circle49"/>
	<circle cx="270.969" cy="785.235" r="4" fill="#0" id="circle50"/>
	<circle cx="273.779" cy="338.414" r="4" fill="#0" id="circle51"/>
	<circle cx="273.779" cy="366.516" r="4" fill="#0" id="circle52"/>
	<circle cx="282.21" cy="119.218" r="4" fill="#0" id="circle53"/>
	<circle cx="282.21" cy="183.853" r="4" fill="#0" id="circle54"/>
	<circle cx="285.02" cy="810.527" r="4" fill="#0" id="circle55"/>
	<circle cx="287.83" cy="147.32" r="4" fill="#0" id="circle56"/>
	<circle cx="287.83" cy="391.807" r="4" fill="#0" id="circle57"/>
	<circle cx="299.071" cy="419.909" r="4" fill="#0" id="circle58"/>
	<circle cx="299.071" cy="835.819" r="4" fill="#0" id="circle59"/>
	<circle cx="299.071" cy="863.921" r="4" fill="#0" id="circle60"/>
	<circle cx="301.881" cy="448.011" r="4" fill="#0" id="circle61"/>
	<circle cx="313.122" cy="476.113" r="4" fill="#0" id="circle62"/>
	<circle cx="313.122" cy="889.212" r="4" fill="#0" id="circle63"/>
	<circle cx="315.932" cy="504.215" r="4" fill="#0" id="circle64"/>
	<circle cx="327.173" cy="914.504" r="4" fill="#0" id="circle65"/>
	<circle cx="335.603" cy="526.697" r="4" fill="#0" id="circle66"/>
	<circle cx="341.224" cy="939.796" r="4" fill="#0" id="circle67"/>
	<circle cx="344.034" cy="554.799" r="4" fill="#0" id="circle68"/>
	<circle cx="358.085" cy="580.091" r="4" fill="#0" id="circle69"/>
	<circle cx="358.085" cy="608.193" r="4" fill="#0" id="circle70"/>
	<circle cx="358.085" cy="636.295" r="4" fill="#0" id="circle71"/>
	<circle cx="363.705" cy="959.467" r="4" fill="#0" id="circle72"/>
	<circle cx="380.567" cy="653.156" r="4" fill="#0" id="circle73"/>
	<circle cx="383.377" cy="981.949" r="4" fill="#0" id="circle74"/>
	<circle cx="386.187" cy="681.258" r="4" fill="#0" id="circle75"/>
	<circle cx="400.238" cy="706.55" r="4" fill="#0" id="circle76"/>
	<circle cx="411.479" cy="990.38" r="4" fill="#0" id="circle77"/>
	<circle cx="414.289" cy="731.841" r="4" fill="#0" id="circle78"/>
	<circle cx="414.289" cy="759.943" r="4" fill="#0" id="circle79"/>
	<circle cx="439.581" cy="996" r="4" fill="#0" id="circle80"/>
	<circle cx="442.391" cy="771.184" r="4" fill="#0" id="circle81"/>
	<circle cx="462.062" cy="793.666" r="4" fill="#0" id="circle82"/>
	<circle cx="467.683" cy="990.38" r="4" fill="#0" id="circle83"/>
	<circle cx="476.113" cy="818.958" r="4" fill="#0" id="circle84"/>
	<circle cx="484.544" cy="877.972" r="4" fill="#0" id="circle85"/>
	<circle cx="484.544" cy="906.074" r="4" fill="#0" id="circle86"/>
	<circle cx="495.785" cy="981.949" r="4" fill="#0" id="circle87"/>
	<circle cx="498.595" cy="931.365" r="4" fill="#0" id="circle88"/>
	<circle cx="504.215" cy="818.958" r="4" fill="#0" id="circle89"/>
	<circle cx="512.646" cy="883.592" r="4" fill="#0" id="circle90"/>
	<circle cx="512.646" cy="956.657" r="4" fill="#0" id="circle91"/>
	<circle cx="523.887" cy="841.439" r="4" fill="#0" id="circle92"/>
	<circle cx="523.887" cy="911.694" r="4" fill="#0" id="circle93"/>
	<circle cx="546.368" cy="931.365" r="4" fill="#0" id="circle94"/>
	<circle cx="551.989" cy="852.68" r="4" fill="#0" id="circle95"/>
	<circle cx="568.85" cy="875.161" r="4" fill="#0" id="circle96"/>
	<circle cx="574.47" cy="931.365" r="4" fill="#0" id="circle97"/>
	<circle cx="582.901" cy="900.453" r="4" fill="#0" id="circle98"/>
	</g>
</svg>