<?xml version="1.0" encoding="UTF-8" standalone="no"?>
<!-- Created with CurveBenchmark -->
<svg
	xmlns:dc="http://purl.org/dc/elements/1.1/"
	xmlns:cc="http://creativecommons.org/ns#"
	xmlns:rdf="http://www.w3.org/1999/02/22-rdf-syntax-ns#"
	xmlns:svg="http://www.w3.org/2000/svg"
	xmlns="http://www.w3.org/2000/svg"
	xmlns:sodipodi="http://sodipodi.sourceforge.net/DTD/sodipodi-0.dtd"
	xmlns:inkscape="http://www.inkscape.org/namespaces/inkscape"
	width="1000"
	height="1000"
	id="svg2"
	version="1.1"
	sodipodi:docname="manifold/discur-tool21.png.txt">
<defs
	id="defs4" />
<metadata
	id="metadata7">
	<rdf:RDF>
		<cc:Work
			rdf:about="">
			<dc:format>image/svg+xml</dc:format>
			<dc:type
				rdf:resource="http://purl.org/dc/dcmitype/StillImage" />
			<dc:title></dc:title>
		</cc:Work>
	</rdf:RDF>
</metadata>
<g
	inkscape:label="Layer 1"
	inkscape:groupmode="layer"
	id="layer1">
	<path style="fill:none;stroke:red;stroke-width:1px;stroke-linecap:butt;stroke-linejoin:miter;stroke-opacity:1" d="M 4,54.1573 17.9326,79.236 z" id="boundary" inkscape:connector-curvature="0" />
	<path style="fill:none;stroke:red;stroke-width:1px;stroke-linecap:butt;stroke-linejoin:miter;stroke-opacity:1" d="M 4,54.1573 26.2921,31.8652 z" id="boundary" inkscape:connector-curvature="0" />
	<path style="fill:none;stroke:red;stroke-width:1px;stroke-linecap:butt;stroke-linejoin:miter;stroke-opacity:1" d="M 17.9326,79.236 31.8652,104.315 z" id="boundary" inkscape:connector-curvature="0" />
	<path style="fill:none;stroke:red;stroke-width:1px;stroke-linecap:butt;stroke-linejoin:miter;stroke-opacity:1" d="M 26.2921,31.8652 51.3708,17.9326 z" id="boundary" inkscape:connector-curvature="0" />
	<path style="fill:none;stroke:red;stroke-width:1px;stroke-linecap:butt;stroke-linejoin:miter;stroke-opacity:1" d="M 31.8652,104.315 56.9438,118.247 z" id="boundary" inkscape:connector-curvature="0" />
	<path style="fill:none;stroke:red;stroke-width:1px;stroke-linecap:butt;stroke-linejoin:miter;stroke-opacity:1" d="M 51.3708,17.9326 79.236,17.9326 z" id="boundary" inkscape:connector-curvature="0" />
	<path style="fill:none;stroke:red;stroke-width:1px;stroke-linecap:butt;stroke-linejoin:miter;stroke-opacity:1" d="M 56.9438,118.247 84.809,118.247 z" id="boundary" inkscape:connector-curvature="0" />
	<path style="fill:none;stroke:red;stroke-width:1px;stroke-linecap:butt;stroke-linejoin:miter;stroke-opacity:1" d="M 79.236,17.9326 107.101,17.9326 z" id="boundary" inkscape:connector-curvature="0" />
	<path style="fill:none;stroke:red;stroke-width:1px;stroke-linecap:butt;stroke-linejoin:miter;stroke-opacity:1" d="M 84.809,118.247 112.674,118.247 z" id="boundary" inkscape:connector-curvature="0" />
	<path style="fill:none;stroke:red;stroke-width:1px;stroke-linecap:butt;stroke-linejoin:miter;stroke-opacity:1" d="M 107.101,17.9326 134.966,17.9326 z" id="boundary" inkscape:connector-curvature="0" />
	<path style="fill:none;stroke:red;stroke-width:1px;stroke-linecap:butt;stroke-linejoin:miter;stroke-opacity:1" d="M 112.674,118.247 140.539,118.247 z" id="boundary" inkscape:connector-curvature="0" />
	<path style="fill:none;stroke:red;stroke-width:1px;stroke-linecap:butt;stroke-linejoin:miter;stroke-opacity:1" d="M 134.966,17.9326 162.831,17.9326 z" id="boundary" inkscape:connector-curvature="0" />
	<path style="fill:none;stroke:red;stroke-width:1px;stroke-linecap:butt;stroke-linejoin:miter;stroke-opacity:1" d="M 140.539,118.247 168.404,118.247 z" id="boundary" inkscape:connector-curvature="0" />
	<path style="fill:none;stroke:red;stroke-width:1px;stroke-linecap:butt;stroke-linejoin:miter;stroke-opacity:1" d="M 162.831,17.9326 187.91,31.8652 z" id="boundary" inkscape:connector-curvature="0" />
	<path style="fill:none;stroke:red;stroke-width:1px;stroke-linecap:butt;stroke-linejoin:miter;stroke-opacity:1" d="M 168.404,118.247 196.27,118.247 z" id="boundary" inkscape:connector-curvature="0" />
	<path style="fill:none;stroke:red;stroke-width:1px;stroke-linecap:butt;stroke-linejoin:miter;stroke-opacity:1" d="M 187.91,31.8652 215.775,31.8652 z" id="boundary" inkscape:connector-curvature="0" />
	<path style="fill:none;stroke:red;stroke-width:1px;stroke-linecap:butt;stroke-linejoin:miter;stroke-opacity:1" d="M 196.27,118.247 221.348,132.18 z" id="boundary" inkscape:connector-curvature="0" />
	<path style="fill:none;stroke:red;stroke-width:1px;stroke-linecap:butt;stroke-linejoin:miter;stroke-opacity:1" d="M 215.775,31.8652 243.64,31.8652 z" id="boundary" inkscape:connector-curvature="0" />
	<path style="fill:none;stroke:red;stroke-width:1px;stroke-linecap:butt;stroke-linejoin:miter;stroke-opacity:1" d="M 221.348,132.18 249.213,132.18 z" id="boundary" inkscape:connector-curvature="0" />
	<path style="fill:none;stroke:red;stroke-width:1px;stroke-linecap:butt;stroke-linejoin:miter;stroke-opacity:1" d="M 243.64,31.8652 271.506,31.8652 z" id="boundary" inkscape:connector-curvature="0" />
	<path style="fill:none;stroke:red;stroke-width:1px;stroke-linecap:butt;stroke-linejoin:miter;stroke-opacity:1" d="M 249.213,132.18 277.079,132.18 z" id="boundary" inkscape:connector-curvature="0" />
	<path style="fill:none;stroke:red;stroke-width:1px;stroke-linecap:butt;stroke-linejoin:miter;stroke-opacity:1" d="M 271.506,31.8652 299.371,31.8652 z" id="boundary" inkscape:connector-curvature="0" />
	<path style="fill:none;stroke:red;stroke-width:1px;stroke-linecap:butt;stroke-linejoin:miter;stroke-opacity:1" d="M 277.079,132.18 304.944,132.18 z" id="boundary" inkscape:connector-curvature="0" />
	<path style="fill:none;stroke:red;stroke-width:1px;stroke-linecap:butt;stroke-linejoin:miter;stroke-opacity:1" d="M 299.371,31.8652 327.236,23.5056 z" id="boundary" inkscape:connector-curvature="0" />
	<path style="fill:none;stroke:red;stroke-width:1px;stroke-linecap:butt;stroke-linejoin:miter;stroke-opacity:1" d="M 304.944,132.18 332.809,132.18 z" id="boundary" inkscape:connector-curvature="0" />
	<path style="fill:none;stroke:red;stroke-width:1px;stroke-linecap:butt;stroke-linejoin:miter;stroke-opacity:1" d="M 327.236,23.5056 355.101,17.9326 z" id="boundary" inkscape:connector-curvature="0" />
	<path style="fill:none;stroke:red;stroke-width:1px;stroke-linecap:butt;stroke-linejoin:miter;stroke-opacity:1" d="M 332.809,132.18 360.674,132.18 z" id="boundary" inkscape:connector-curvature="0" />
	<path style="fill:none;stroke:red;stroke-width:1px;stroke-linecap:butt;stroke-linejoin:miter;stroke-opacity:1" d="M 355.101,17.9326 382.966,17.9326 z" id="boundary" inkscape:connector-curvature="0" />
	<path style="fill:none;stroke:red;stroke-width:1px;stroke-linecap:butt;stroke-linejoin:miter;stroke-opacity:1" d="M 360.674,132.18 388.539,132.18 z" id="boundary" inkscape:connector-curvature="0" />
	<path style="fill:none;stroke:red;stroke-width:1px;stroke-linecap:butt;stroke-linejoin:miter;stroke-opacity:1" d="M 382.966,17.9326 410.831,17.9326 z" id="boundary" inkscape:connector-curvature="0" />
	<path style="fill:none;stroke:red;stroke-width:1px;stroke-linecap:butt;stroke-linejoin:miter;stroke-opacity:1" d="M 388.539,132.18 416.404,132.18 z" id="boundary" inkscape:connector-curvature="0" />
	<path style="fill:none;stroke:red;stroke-width:1px;stroke-linecap:butt;stroke-linejoin:miter;stroke-opacity:1" d="M 410.831,17.9326 438.697,17.9326 z" id="boundary" inkscape:connector-curvature="0" />
	<path style="fill:none;stroke:red;stroke-width:1px;stroke-linecap:butt;stroke-linejoin:miter;stroke-opacity:1" d="M 416.404,132.18 444.27,132.18 z" id="boundary" inkscape:connector-curvature="0" />
	<path style="fill:none;stroke:red;stroke-width:1px;stroke-linecap:butt;stroke-linejoin:miter;stroke-opacity:1" d="M 438.697,17.9326 463.775,4 z" id="boundary" inkscape:connector-curvature="0" />
	<path style="fill:none;stroke:red;stroke-width:1px;stroke-linecap:butt;stroke-linejoin:miter;stroke-opacity:1" d="M 444.27,132.18 472.135,132.18 z" id="boundary" inkscape:connector-curvature="0" />
	<path style="fill:none;stroke:red;stroke-width:1px;stroke-linecap:butt;stroke-linejoin:miter;stroke-opacity:1" d="M 463.775,4 491.64,4 z" id="boundary" inkscape:connector-curvature="0" />
	<path style="fill:none;stroke:red;stroke-width:1px;stroke-linecap:butt;stroke-linejoin:miter;stroke-opacity:1" d="M 472.135,132.18 500,132.18 z" id="boundary" inkscape:connector-curvature="0" />
	<path style="fill:none;stroke:red;stroke-width:1px;stroke-linecap:butt;stroke-linejoin:miter;stroke-opacity:1" d="M 491.64,4 519.506,4 z" id="boundary" inkscape:connector-curvature="0" />
	<path style="fill:none;stroke:red;stroke-width:1px;stroke-linecap:butt;stroke-linejoin:miter;stroke-opacity:1" d="M 500,132.18 527.865,132.18 z" id="boundary" inkscape:connector-curvature="0" />
	<path style="fill:none;stroke:red;stroke-width:1px;stroke-linecap:butt;stroke-linejoin:miter;stroke-opacity:1" d="M 519.506,4 547.371,4 z" id="boundary" inkscape:connector-curvature="0" />
	<path style="fill:none;stroke:red;stroke-width:1px;stroke-linecap:butt;stroke-linejoin:miter;stroke-opacity:1" d="M 527.865,132.18 555.73,132.18 z" id="boundary" inkscape:connector-curvature="0" />
	<path style="fill:none;stroke:red;stroke-width:1px;stroke-linecap:butt;stroke-linejoin:miter;stroke-opacity:1" d="M 547.371,4 572.449,17.9326 z" id="boundary" inkscape:connector-curvature="0" />
	<path style="fill:none;stroke:red;stroke-width:1px;stroke-linecap:butt;stroke-linejoin:miter;stroke-opacity:1" d="M 555.73,132.18 583.596,132.18 z" id="boundary" inkscape:connector-curvature="0" />
	<path style="fill:none;stroke:red;stroke-width:1px;stroke-linecap:butt;stroke-linejoin:miter;stroke-opacity:1" d="M 572.449,17.9326 600.315,20.7191 z" id="boundary" inkscape:connector-curvature="0" />
	<path style="fill:none;stroke:red;stroke-width:1px;stroke-linecap:butt;stroke-linejoin:miter;stroke-opacity:1" d="M 583.596,132.18 611.461,132.18 z" id="boundary" inkscape:connector-curvature="0" />
	<path style="fill:none;stroke:red;stroke-width:1px;stroke-linecap:butt;stroke-linejoin:miter;stroke-opacity:1" d="M 600.315,20.7191 628.18,31.8652 z" id="boundary" inkscape:connector-curvature="0" />
	<path style="fill:none;stroke:red;stroke-width:1px;stroke-linecap:butt;stroke-linejoin:miter;stroke-opacity:1" d="M 611.461,132.18 636.539,146.112 z" id="boundary" inkscape:connector-curvature="0" />
	<path style="fill:none;stroke:red;stroke-width:1px;stroke-linecap:butt;stroke-linejoin:miter;stroke-opacity:1" d="M 628.18,31.8652 653.258,45.7978 z" id="boundary" inkscape:connector-curvature="0" />
	<path style="fill:none;stroke:red;stroke-width:1px;stroke-linecap:butt;stroke-linejoin:miter;stroke-opacity:1" d="M 636.539,146.112 664.404,146.112 z" id="boundary" inkscape:connector-curvature="0" />
	<path style="fill:none;stroke:red;stroke-width:1px;stroke-linecap:butt;stroke-linejoin:miter;stroke-opacity:1" d="M 653.258,45.7978 681.124,45.7978 z" id="boundary" inkscape:connector-curvature="0" />
	<path style="fill:none;stroke:red;stroke-width:1px;stroke-linecap:butt;stroke-linejoin:miter;stroke-opacity:1" d="M 664.404,146.112 689.483,160.045 z" id="boundary" inkscape:connector-curvature="0" />
	<path style="fill:none;stroke:red;stroke-width:1px;stroke-linecap:butt;stroke-linejoin:miter;stroke-opacity:1" d="M 681.124,45.7978 708.989,45.7978 z" id="boundary" inkscape:connector-curvature="0" />
	<path style="fill:none;stroke:red;stroke-width:1px;stroke-linecap:butt;stroke-linejoin:miter;stroke-opacity:1" d="M 689.483,160.045 714.562,173.978 z" id="boundary" inkscape:connector-curvature="0" />
	<path style="fill:none;stroke:red;stroke-width:1px;stroke-linecap:butt;stroke-linejoin:miter;stroke-opacity:1" d="M 708.989,45.7978 736.854,45.7978 z" id="boundary" inkscape:connector-curvature="0" />
	<path style="fill:none;stroke:red;stroke-width:1px;stroke-linecap:butt;stroke-linejoin:miter;stroke-opacity:1" d="M 714.562,173.978 742.427,173.978 z" id="boundary" inkscape:connector-curvature="0" />
	<path style="fill:none;stroke:red;stroke-width:1px;stroke-linecap:butt;stroke-linejoin:miter;stroke-opacity:1" d="M 736.854,45.7978 764.719,45.7978 z" id="boundary" inkscape:connector-curvature="0" />
	<path style="fill:none;stroke:red;stroke-width:1px;stroke-linecap:butt;stroke-linejoin:miter;stroke-opacity:1" d="M 742.427,173.978 767.506,187.91 z" id="boundary" inkscape:connector-curvature="0" />
	<path style="fill:none;stroke:red;stroke-width:1px;stroke-linecap:butt;stroke-linejoin:miter;stroke-opacity:1" d="M 764.719,45.7978 792.584,45.7978 z" id="boundary" inkscape:connector-curvature="0" />
	<path style="fill:none;stroke:red;stroke-width:1px;stroke-linecap:butt;stroke-linejoin:miter;stroke-opacity:1" d="M 767.506,187.91 787.011,210.202 z" id="boundary" inkscape:connector-curvature="0" />
	<path style="fill:none;stroke:red;stroke-width:1px;stroke-linecap:butt;stroke-linejoin:miter;stroke-opacity:1" d="M 787.011,210.202 809.303,229.708 z" id="boundary" inkscape:connector-curvature="0" />
	<path style="fill:none;stroke:red;stroke-width:1px;stroke-linecap:butt;stroke-linejoin:miter;stroke-opacity:1" d="M 792.584,45.7978 814.876,23.5056 z" id="boundary" inkscape:connector-curvature="0" />
	<path style="fill:none;stroke:red;stroke-width:1px;stroke-linecap:butt;stroke-linejoin:miter;stroke-opacity:1" d="M 809.303,229.708 828.809,252 z" id="boundary" inkscape:connector-curvature="0" />
	<path style="fill:none;stroke:red;stroke-width:1px;stroke-linecap:butt;stroke-linejoin:miter;stroke-opacity:1" d="M 814.876,23.5056 842.742,17.9326 z" id="boundary" inkscape:connector-curvature="0" />
	<path style="fill:none;stroke:red;stroke-width:1px;stroke-linecap:butt;stroke-linejoin:miter;stroke-opacity:1" d="M 828.809,252 851.101,271.506 z" id="boundary" inkscape:connector-curvature="0" />
	<path style="fill:none;stroke:red;stroke-width:1px;stroke-linecap:butt;stroke-linejoin:miter;stroke-opacity:1" d="M 842.742,17.9326 867.82,4 z" id="boundary" inkscape:connector-curvature="0" />
	<path style="fill:none;stroke:red;stroke-width:1px;stroke-linecap:butt;stroke-linejoin:miter;stroke-opacity:1" d="M 851.101,271.506 876.18,285.438 z" id="boundary" inkscape:connector-curvature="0" />
	<path style="fill:none;stroke:red;stroke-width:1px;stroke-linecap:butt;stroke-linejoin:miter;stroke-opacity:1" d="M 867.82,4 895.685,4 z" id="boundary" inkscape:connector-curvature="0" />
	<path style="fill:none;stroke:red;stroke-width:1px;stroke-linecap:butt;stroke-linejoin:miter;stroke-opacity:1" d="M 876.18,285.438 904.045,285.438 z" id="boundary" inkscape:connector-curvature="0" />
	<path style="fill:none;stroke:red;stroke-width:1px;stroke-linecap:butt;stroke-linejoin:miter;stroke-opacity:1" d="M 895.685,4 923.551,9.57303 z" id="boundary" inkscape:connector-curvature="0" />
	<path style="fill:none;stroke:red;stroke-width:1px;stroke-linecap:butt;stroke-linejoin:miter;stroke-opacity:1" d="M 898.472,132.18 904.045,160.045 z" id="boundary" inkscape:connector-curvature="0" />
	<path style="fill:none;stroke:red;stroke-width:1px;stroke-linecap:butt;stroke-linejoin:miter;stroke-opacity:1" d="M 898.472,132.18 912.404,104.315 z" id="boundary" inkscape:connector-curvature="0" />
	<path style="fill:none;stroke:red;stroke-width:1px;stroke-linecap:butt;stroke-linejoin:miter;stroke-opacity:1" d="M 904.045,160.045 926.337,179.551 z" id="boundary" inkscape:connector-curvature="0" />
	<path style="fill:none;stroke:red;stroke-width:1px;stroke-linecap:butt;stroke-linejoin:miter;stroke-opacity:1" d="M 904.045,285.438 931.91,285.438 z" id="boundary" inkscape:connector-curvature="0" />
	<path style="fill:none;stroke:red;stroke-width:1px;stroke-linecap:butt;stroke-linejoin:miter;stroke-opacity:1" d="M 912.404,104.315 940.27,104.315 z" id="boundary" inkscape:connector-curvature="0" />
	<path style="fill:none;stroke:red;stroke-width:1px;stroke-linecap:butt;stroke-linejoin:miter;stroke-opacity:1" d="M 923.551,9.57303 948.629,23.5056 z" id="boundary" inkscape:connector-curvature="0" />
	<path style="fill:none;stroke:red;stroke-width:1px;stroke-linecap:butt;stroke-linejoin:miter;stroke-opacity:1" d="M 926.337,179.551 951.416,193.483 z" id="boundary" inkscape:connector-curvature="0" />
	<path style="fill:none;stroke:red;stroke-width:1px;stroke-linecap:butt;stroke-linejoin:miter;stroke-opacity:1" d="M 931.91,285.438 956.989,271.506 z" id="boundary" inkscape:connector-curvature="0" />
	<path style="fill:none;stroke:red;stroke-width:1px;stroke-linecap:butt;stroke-linejoin:miter;stroke-opacity:1" d="M 940.27,104.315 968.135,104.315 z" id="boundary" inkscape:connector-curvature="0" />
	<path style="fill:none;stroke:red;stroke-width:1px;stroke-linecap:butt;stroke-linejoin:miter;stroke-opacity:1" d="M 948.629,23.5056 976.494,34.6517 z" id="boundary" inkscape:connector-curvature="0" />
	<path style="fill:none;stroke:red;stroke-width:1px;stroke-linecap:butt;stroke-linejoin:miter;stroke-opacity:1" d="M 951.416,193.483 979.281,199.056 z" id="boundary" inkscape:connector-curvature="0" />
	<path style="fill:none;stroke:red;stroke-width:1px;stroke-linecap:butt;stroke-linejoin:miter;stroke-opacity:1" d="M 956.989,271.506 982.067,257.573 z" id="boundary" inkscape:connector-curvature="0" />
	<path style="fill:none;stroke:red;stroke-width:1px;stroke-linecap:butt;stroke-linejoin:miter;stroke-opacity:1" d="M 968.135,104.315 996,84.809 z" id="boundary" inkscape:connector-curvature="0" />
	<path style="fill:none;stroke:red;stroke-width:1px;stroke-linecap:butt;stroke-linejoin:miter;stroke-opacity:1" d="M 976.494,34.6517 996,56.9438 z" id="boundary" inkscape:connector-curvature="0" />
	<path style="fill:none;stroke:red;stroke-width:1px;stroke-linecap:butt;stroke-linejoin:miter;stroke-opacity:1" d="M 979.281,199.056 996,229.708 z" id="boundary" inkscape:connector-curvature="0" />
	<path style="fill:none;stroke:red;stroke-width:1px;stroke-linecap:butt;stroke-linejoin:miter;stroke-opacity:1" d="M 982.067,257.573 996,229.708 z" id="boundary" inkscape:connector-curvature="0" />
	<path style="fill:none;stroke:red;stroke-width:1px;stroke-linecap:butt;stroke-linejoin:miter;stroke-opacity:1" d="M 996,56.9438 996,84.809 z" id="boundary" inkscape:connector-curvature="0" />
	<circle cx="4" cy="54.1573" r="4" fill="#0" id="circle0"/>
	<circle cx="17.9326" cy="79.236" r="4" fill="#0" id="circle1"/>
	<circle cx="26.2921" cy="31.8652" r="4" fill="#0" id="circle2"/>
	<circle cx="31.8652" cy="104.315" r="4" fill="#0" id="circle3"/>
	<circle cx="51.3708" cy="17.9326" r="4" fill="#0" id="circle4"/>
	<circle cx="56.9438" cy="118.247" r="4" fill="#0" id="circle5"/>
	<circle cx="79.236" cy="17.9326" r="4" fill="#0" id="circle6"/>
	<circle cx="84.809" cy="118.247" r="4" fill="#0" id="circle7"/>
	<circle cx="107.101" cy="17.9326" r="4" fill="#0" id="circle8"/>
	<circle cx="112.674" cy="118.247" r="4" fill="#0" id="circle9"/>
	<circle cx="134.966" cy="17.9326" r="4" fill="#0" id="circle10"/>
	<circle cx="140.539" cy="118.247" r="4" fill="#0" id="circle11"/>
	<circle cx="162.831" cy="17.9326" r="4" fill="#0" id="circle12"/>
	<circle cx="168.404" cy="118.247" r="4" fill="#0" id="circle13"/>
	<circle cx="187.91" cy="31.8652" r="4" fill="#0" id="circle14"/>
	<circle cx="196.27" cy="118.247" r="4" fill="#0" id="circle15"/>
	<circle cx="215.775" cy="31.8652" r="4" fill="#0" id="circle16"/>
	<circle cx="221.348" cy="132.18" r="4" fill="#0" id="circle17"/>
	<circle cx="243.64" cy="31.8652" r="4" fill="#0" id="circle18"/>
	<circle cx="249.213" cy="132.18" r="4" fill="#0" id="circle19"/>
	<circle cx="271.506" cy="31.8652" r="4" fill="#0" id="circle20"/>
	<circle cx="277.079" cy="132.18" r="4" fill="#0" id="circle21"/>
	<circle cx="299.371" cy="31.8652" r="4" fill="#0" id="circle22"/>
	<circle cx="304.944" cy="132.18" r="4" fill="#0" id="circle23"/>
	<circle cx="327.236" cy="23.5056" r="4" fill="#0" id="circle24"/>
	<circle cx="332.809" cy="132.18" r="4" fill="#0" id="circle25"/>
	<circle cx="355.101" cy="17.9326" r="4" fill="#0" id="circle26"/>
	<circle cx="360.674" cy="132.18" r="4" fill="#0" id="circle27"/>
	<circle cx="382.966" cy="17.9326" r="4" fill="#0" id="circle28"/>
	<circle cx="388.539" cy="132.18" r="4" fill="#0" id="circle29"/>
	<circle cx="410.831" cy="17.9326" r="4" fill="#0" id="circle30"/>
	<circle cx="416.404" cy="132.18" r="4" fill="#0" id="circle31"/>
	<circle cx="438.697" cy="17.9326" r="4" fill="#0" id="circle32"/>
	<circle cx="444.27" cy="132.18" r="4" fill="#0" id="circle33"/>
	<circle cx="463.775" cy="4" r="4" fill="#0" id="circle34"/>
	<circle cx="472.135" cy="132.18" r="4" fill="#0" id="circle35"/>
	<circle cx="491.64" cy="4" r="4" fill="#0" id="circle36"/>
	<circle cx="500" cy="132.18" r="4" fill="#0" id="circle37"/>
	<circle cx="519.506" cy="4" r="4" fill="#0" id="circle38"/>
	<circle cx="527.865" cy="132.18" r="4" fill="#0" id="circle39"/>
	<circle cx="547.371" cy="4" r="4" fill="#0" id="circle40"/>
	<circle cx="555.73" cy="132.18" r="4" fill="#0" id="circle41"/>
	<circle cx="572.449" cy="17.9326" r="4" fill="#0" id="circle42"/>
	<circle cx="583.596" cy="132.18" r="4" fill="#0" id="circle43"/>
	<circle cx="600.315" cy="20.7191" r="4" fill="#0" id="circle44"/>
	<circle cx="611.461" cy="132.18" r="4" fill="#0" id="circle45"/>
	<circle cx="628.18" cy="31.8652" r="4" fill="#0" id="circle46"/>
	<circle cx="636.539" cy="146.112" r="4" fill="#0" id="circle47"/>
	<circle cx="653.258" cy="45.7978" r="4" fill="#0" id="circle48"/>
	<circle cx="664.404" cy="146.112" r="4" fill="#0" id="circle49"/>
	<circle cx="681.124" cy="45.7978" r="4" fill="#0" id="circle50"/>
	<circle cx="689.483" cy="160.045" r="4" fill="#0" id="circle51"/>
	<circle cx="708.989" cy="45.7978" r="4" fill="#0" id="circle52"/>
	<circle cx="714.562" cy="173.978" r="4" fill="#0" id="circle53"/>
	<circle cx="736.854" cy="45.7978" r="4" fill="#0" id="circle54"/>
	<circle cx="742.427" cy="173.978" r="4" fill="#0" id="circle55"/>
	<circle cx="764.719" cy="45.7978" r="4" fill="#0" id="circle56"/>
	<circle cx="767.506" cy="187.91" r="4" fill="#0" id="circle57"/>
	<circle cx="787.011" cy="210.202" r="4" fill="#0" id="circle58"/>
	<circle cx="792.584" cy="45.7978" r="4" fill="#0" id="circle59"/>
	<circle cx="809.303" cy="229.708" r="4" fill="#0" id="circle60"/>
	<circle cx="814.876" cy="23.5056" r="4" fill="#0" id="circle61"/>
	<circle cx="828.809" cy="252" r="4" fill="#0" id="circle62"/>
	<circle cx="842.742" cy="17.9326" r="4" fill="#0" id="circle63"/>
	<circle cx="851.101" cy="271.506" r="4" fill="#0" id="circle64"/>
	<circle cx="867.82" cy="4" r="4" fill="#0" id="circle65"/>
	<circle cx="876.18" cy="285.438" r="4" fill="#0" id="circle66"/>
	<circle cx="895.685" cy="4" r="4" fill="#0" id="circle67"/>
	<circle cx="898.472" cy="132.18" r="4" fill="#0" id="circle68"/>
	<circle cx="904.045" cy="160.045" r="4" fill="#0" id="circle69"/>
	<circle cx="904.045" cy="285.438" r="4" fill="#0" id="circle70"/>
	<circle cx="912.404" cy="104.315" r="4" fill="#0" id="circle71"/>
	<circle cx="923.551" cy="9.57303" r="4" fill="#0" id="circle72"/>
	<circle cx="926.337" cy="179.551" r="4" fill="#0" id="circle73"/>
	<circle cx="931.91" cy="285.438" r="4" fill="#0" id="circle74"/>
	<circle cx="940.27" cy="104.315" r="4" fill="#0" id="circle75"/>
	<circle cx="948.629" cy="23.5056" r="4" fill="#0" id="circle76"/>
	<circle cx="951.416" cy="193.483" r="4" fill="#0" id="circle77"/>
	<circle cx="956.989" cy="271.506" r="4" fill="#0" id="circle78"/>
	<circle cx="968.135" cy="104.315" r="4" fill="#0" id="circle79"/>
	<circle cx="976.494" cy="34.6517" r="4" fill="#0" id="circle80"/>
	<circle cx="979.281" cy="199.056" r="4" fill="#0" id="circle81"/>
	<circle cx="982.067" cy="257.573" r="4" fill="#0" id="circle82"/>
	<circle cx="996" cy="56.9438" r="4" fill="#0" id="circle83"/>
	<circle cx="996" cy="84.809" r="4" fill="#0" id="circle84"/>
	<circle cx="996" cy="229.708" r="4" fill="#0" id="circle85"/>
	</g>
</svg>