<?xml version="1.0" encoding="UTF-8" standalone="no"?>
<!-- Created with CurveBenchmark -->
<svg
	xmlns:dc="http://purl.org/dc/elements/1.1/"
	xmlns:cc="http://creativecommons.org/ns#"
	xmlns:rdf="http://www.w3.org/1999/02/22-rdf-syntax-ns#"
	xmlns:svg="http://www.w3.org/2000/svg"
	xmlns="http://www.w3.org/2000/svg"
	xmlns:sodipodi="http://sodipodi.sourceforge.net/DTD/sodipodi-0.dtd"
	xmlns:inkscape="http://www.inkscape.org/namespaces/inkscape"
	width="1000"
	height="1000"
	id="svg2"
	version="1.1"
	sodipodi:docname="manifold/discur-fountain20.png.txt">
<defs
	id="defs4" />
<metadata
	id="metadata7">
	<rdf:RDF>
		<cc:Work
			rdf:about="">
			<dc:format>image/svg+xml</dc:format>
			<dc:type
				rdf:resource="http://purl.org/dc/dcmitype/StillImage" />
			<dc:title></dc:title>
		</cc:Work>
	</rdf:RDF>
</metadata>
<g
	inkscape:label="Layer 1"
	inkscape:groupmode="layer"
	id="layer1">
	<path style="fill:none;stroke:red;stroke-width:1px;stroke-linecap:butt;stroke-linejoin:miter;stroke-opacity:1" d="M 4,554.451 4,574.251 z" id="boundary" inkscape:connector-curvature="0" />
	<path style="fill:none;stroke:red;stroke-width:1px;stroke-linecap:butt;stroke-linejoin:miter;stroke-opacity:1" d="M 4,554.451 13.9002,534.651 z" id="boundary" inkscape:connector-curvature="0" />
	<path style="fill:none;stroke:red;stroke-width:1px;stroke-linecap:butt;stroke-linejoin:miter;stroke-opacity:1" d="M 4,574.251 4,594.052 z" id="boundary" inkscape:connector-curvature="0" />
	<path style="fill:none;stroke:red;stroke-width:1px;stroke-linecap:butt;stroke-linejoin:miter;stroke-opacity:1" d="M 4,594.052 13.9002,611.872 z" id="boundary" inkscape:connector-curvature="0" />
	<path style="fill:none;stroke:red;stroke-width:1px;stroke-linecap:butt;stroke-linejoin:miter;stroke-opacity:1" d="M 13.9002,534.651 29.7405,518.81 z" id="boundary" inkscape:connector-curvature="0" />
	<path style="fill:none;stroke:red;stroke-width:1px;stroke-linecap:butt;stroke-linejoin:miter;stroke-opacity:1" d="M 13.9002,611.872 23.8004,629.693 z" id="boundary" inkscape:connector-curvature="0" />
	<path style="fill:none;stroke:red;stroke-width:1px;stroke-linecap:butt;stroke-linejoin:miter;stroke-opacity:1" d="M 23.8004,629.693 35.6806,645.533 z" id="boundary" inkscape:connector-curvature="0" />
	<path style="fill:none;stroke:red;stroke-width:1px;stroke-linecap:butt;stroke-linejoin:miter;stroke-opacity:1" d="M 29.7405,518.81 45.5808,502.97 z" id="boundary" inkscape:connector-curvature="0" />
	<path style="fill:none;stroke:red;stroke-width:1px;stroke-linecap:butt;stroke-linejoin:miter;stroke-opacity:1" d="M 35.6806,645.533 55.481,653.453 z" id="boundary" inkscape:connector-curvature="0" />
	<path style="fill:none;stroke:red;stroke-width:1px;stroke-linecap:butt;stroke-linejoin:miter;stroke-opacity:1" d="M 45.5808,502.97 65.3812,493.07 z" id="boundary" inkscape:connector-curvature="0" />
	<path style="fill:none;stroke:red;stroke-width:1px;stroke-linecap:butt;stroke-linejoin:miter;stroke-opacity:1" d="M 55.481,653.453 73.3014,663.353 z" id="boundary" inkscape:connector-curvature="0" />
	<path style="fill:none;stroke:red;stroke-width:1px;stroke-linecap:butt;stroke-linejoin:miter;stroke-opacity:1" d="M 65.3812,493.07 85.1816,483.17 z" id="boundary" inkscape:connector-curvature="0" />
	<path style="fill:none;stroke:red;stroke-width:1px;stroke-linecap:butt;stroke-linejoin:miter;stroke-opacity:1" d="M 73.3014,663.353 93.1018,669.293 z" id="boundary" inkscape:connector-curvature="0" />
	<path style="fill:none;stroke:red;stroke-width:1px;stroke-linecap:butt;stroke-linejoin:miter;stroke-opacity:1" d="M 85.1816,483.17 101.022,469.309 z" id="boundary" inkscape:connector-curvature="0" />
	<path style="fill:none;stroke:red;stroke-width:1px;stroke-linecap:butt;stroke-linejoin:miter;stroke-opacity:1" d="M 93.1018,669.293 110.922,679.194 z" id="boundary" inkscape:connector-curvature="0" />
	<path style="fill:none;stroke:red;stroke-width:1px;stroke-linecap:butt;stroke-linejoin:miter;stroke-opacity:1" d="M 101.022,469.309 118.842,459.409 z" id="boundary" inkscape:connector-curvature="0" />
	<path style="fill:none;stroke:red;stroke-width:1px;stroke-linecap:butt;stroke-linejoin:miter;stroke-opacity:1" d="M 110.922,679.194 124.782,695.034 z" id="boundary" inkscape:connector-curvature="0" />
	<path style="fill:none;stroke:red;stroke-width:1px;stroke-linecap:butt;stroke-linejoin:miter;stroke-opacity:1" d="M 118.842,459.409 138.643,449.509 z" id="boundary" inkscape:connector-curvature="0" />
	<path style="fill:none;stroke:red;stroke-width:1px;stroke-linecap:butt;stroke-linejoin:miter;stroke-opacity:1" d="M 124.782,695.034 144.583,698.994 z" id="boundary" inkscape:connector-curvature="0" />
	<path style="fill:none;stroke:red;stroke-width:1px;stroke-linecap:butt;stroke-linejoin:miter;stroke-opacity:1" d="M 138.643,449.509 158.443,439.609 z" id="boundary" inkscape:connector-curvature="0" />
	<path style="fill:none;stroke:red;stroke-width:1px;stroke-linecap:butt;stroke-linejoin:miter;stroke-opacity:1" d="M 144.583,698.994 164.383,702.954 z" id="boundary" inkscape:connector-curvature="0" />
	<path style="fill:none;stroke:red;stroke-width:1px;stroke-linecap:butt;stroke-linejoin:miter;stroke-opacity:1" d="M 158.443,439.609 172.303,405.948 z" id="boundary" inkscape:connector-curvature="0" />
	<path style="fill:none;stroke:red;stroke-width:1px;stroke-linecap:butt;stroke-linejoin:miter;stroke-opacity:1" d="M 164.383,702.954 182.204,712.854 z" id="boundary" inkscape:connector-curvature="0" />
	<path style="fill:none;stroke:red;stroke-width:1px;stroke-linecap:butt;stroke-linejoin:miter;stroke-opacity:1" d="M 172.303,405.948 188.144,390.108 z" id="boundary" inkscape:connector-curvature="0" />
	<path style="fill:none;stroke:red;stroke-width:1px;stroke-linecap:butt;stroke-linejoin:miter;stroke-opacity:1" d="M 182.204,712.854 202.004,718.794 z" id="boundary" inkscape:connector-curvature="0" />
	<path style="fill:none;stroke:red;stroke-width:1px;stroke-linecap:butt;stroke-linejoin:miter;stroke-opacity:1" d="M 188.144,390.108 203.984,374.267 z" id="boundary" inkscape:connector-curvature="0" />
	<path style="fill:none;stroke:red;stroke-width:1px;stroke-linecap:butt;stroke-linejoin:miter;stroke-opacity:1" d="M 202.004,718.794 221.804,718.794 z" id="boundary" inkscape:connector-curvature="0" />
	<path style="fill:none;stroke:red;stroke-width:1px;stroke-linecap:butt;stroke-linejoin:miter;stroke-opacity:1" d="M 203.984,374.267 223.784,364.367 z" id="boundary" inkscape:connector-curvature="0" />
	<path style="fill:none;stroke:red;stroke-width:1px;stroke-linecap:butt;stroke-linejoin:miter;stroke-opacity:1" d="M 221.804,718.794 239.625,728.695 z" id="boundary" inkscape:connector-curvature="0" />
	<path style="fill:none;stroke:red;stroke-width:1px;stroke-linecap:butt;stroke-linejoin:miter;stroke-opacity:1" d="M 223.784,364.367 243.585,354.467 z" id="boundary" inkscape:connector-curvature="0" />
	<path style="fill:none;stroke:red;stroke-width:1px;stroke-linecap:butt;stroke-linejoin:miter;stroke-opacity:1" d="M 239.625,728.695 259.425,728.695 z" id="boundary" inkscape:connector-curvature="0" />
	<path style="fill:none;stroke:red;stroke-width:1px;stroke-linecap:butt;stroke-linejoin:miter;stroke-opacity:1" d="M 243.585,354.467 263.385,344.567 z" id="boundary" inkscape:connector-curvature="0" />
	<path style="fill:none;stroke:red;stroke-width:1px;stroke-linecap:butt;stroke-linejoin:miter;stroke-opacity:1" d="M 259.425,728.695 277.246,738.595 z" id="boundary" inkscape:connector-curvature="0" />
	<path style="fill:none;stroke:red;stroke-width:1px;stroke-linecap:butt;stroke-linejoin:miter;stroke-opacity:1" d="M 263.385,344.567 283.186,334.667 z" id="boundary" inkscape:connector-curvature="0" />
	<path style="fill:none;stroke:red;stroke-width:1px;stroke-linecap:butt;stroke-linejoin:miter;stroke-opacity:1" d="M 277.246,738.595 297.046,738.595 z" id="boundary" inkscape:connector-curvature="0" />
	<path style="fill:none;stroke:red;stroke-width:1px;stroke-linecap:butt;stroke-linejoin:miter;stroke-opacity:1" d="M 283.186,334.667 302.986,330.707 z" id="boundary" inkscape:connector-curvature="0" />
	<path style="fill:none;stroke:red;stroke-width:1px;stroke-linecap:butt;stroke-linejoin:miter;stroke-opacity:1" d="M 297.046,738.595 316.846,738.595 z" id="boundary" inkscape:connector-curvature="0" />
	<path style="fill:none;stroke:red;stroke-width:1px;stroke-linecap:butt;stroke-linejoin:miter;stroke-opacity:1" d="M 302.986,330.707 322.786,324.766 z" id="boundary" inkscape:connector-curvature="0" />
	<path style="fill:none;stroke:red;stroke-width:1px;stroke-linecap:butt;stroke-linejoin:miter;stroke-opacity:1" d="M 316.846,738.595 336.647,746.515 z" id="boundary" inkscape:connector-curvature="0" />
	<path style="fill:none;stroke:red;stroke-width:1px;stroke-linecap:butt;stroke-linejoin:miter;stroke-opacity:1" d="M 322.786,324.766 342.587,320.806 z" id="boundary" inkscape:connector-curvature="0" />
	<path style="fill:none;stroke:red;stroke-width:1px;stroke-linecap:butt;stroke-linejoin:miter;stroke-opacity:1" d="M 336.647,746.515 356.447,748.495 z" id="boundary" inkscape:connector-curvature="0" />
	<path style="fill:none;stroke:red;stroke-width:1px;stroke-linecap:butt;stroke-linejoin:miter;stroke-opacity:1" d="M 342.587,320.806 362.387,320.806 z" id="boundary" inkscape:connector-curvature="0" />
	<path style="fill:none;stroke:red;stroke-width:1px;stroke-linecap:butt;stroke-linejoin:miter;stroke-opacity:1" d="M 356.447,748.495 376.248,748.495 z" id="boundary" inkscape:connector-curvature="0" />
	<path style="fill:none;stroke:red;stroke-width:1px;stroke-linecap:butt;stroke-linejoin:miter;stroke-opacity:1" d="M 362.387,320.806 382.188,320.806 z" id="boundary" inkscape:connector-curvature="0" />
	<path style="fill:none;stroke:red;stroke-width:1px;stroke-linecap:butt;stroke-linejoin:miter;stroke-opacity:1" d="M 376.248,748.495 396.048,748.495 z" id="boundary" inkscape:connector-curvature="0" />
	<path style="fill:none;stroke:red;stroke-width:1px;stroke-linecap:butt;stroke-linejoin:miter;stroke-opacity:1" d="M 382.188,320.806 401.988,320.806 z" id="boundary" inkscape:connector-curvature="0" />
	<path style="fill:none;stroke:red;stroke-width:1px;stroke-linecap:butt;stroke-linejoin:miter;stroke-opacity:1" d="M 390.108,128.743 390.108,148.543 z" id="boundary" inkscape:connector-curvature="0" />
	<path style="fill:none;stroke:red;stroke-width:1px;stroke-linecap:butt;stroke-linejoin:miter;stroke-opacity:1" d="M 390.108,128.743 409.908,118.842 z" id="boundary" inkscape:connector-curvature="0" />
	<path style="fill:none;stroke:red;stroke-width:1px;stroke-linecap:butt;stroke-linejoin:miter;stroke-opacity:1" d="M 390.108,148.543 405.948,162.403 z" id="boundary" inkscape:connector-curvature="0" />
	<path style="fill:none;stroke:red;stroke-width:1px;stroke-linecap:butt;stroke-linejoin:miter;stroke-opacity:1" d="M 396.048,748.495 415.848,748.495 z" id="boundary" inkscape:connector-curvature="0" />
	<path style="fill:none;stroke:red;stroke-width:1px;stroke-linecap:butt;stroke-linejoin:miter;stroke-opacity:1" d="M 401.988,320.806 421.788,320.806 z" id="boundary" inkscape:connector-curvature="0" />
	<path style="fill:none;stroke:red;stroke-width:1px;stroke-linecap:butt;stroke-linejoin:miter;stroke-opacity:1" d="M 405.948,162.403 421.788,174.283 z" id="boundary" inkscape:connector-curvature="0" />
	<path style="fill:none;stroke:red;stroke-width:1px;stroke-linecap:butt;stroke-linejoin:miter;stroke-opacity:1" d="M 409.908,118.842 429.709,108.942 z" id="boundary" inkscape:connector-curvature="0" />
	<path style="fill:none;stroke:red;stroke-width:1px;stroke-linecap:butt;stroke-linejoin:miter;stroke-opacity:1" d="M 415.848,748.495 435.649,748.495 z" id="boundary" inkscape:connector-curvature="0" />
	<path style="fill:none;stroke:red;stroke-width:1px;stroke-linecap:butt;stroke-linejoin:miter;stroke-opacity:1" d="M 421.788,174.283 439.609,184.184 z" id="boundary" inkscape:connector-curvature="0" />
	<path style="fill:none;stroke:red;stroke-width:1px;stroke-linecap:butt;stroke-linejoin:miter;stroke-opacity:1" d="M 421.788,320.806 439.609,306.946 z" id="boundary" inkscape:connector-curvature="0" />
	<path style="fill:none;stroke:red;stroke-width:1px;stroke-linecap:butt;stroke-linejoin:miter;stroke-opacity:1" d="M 429.709,108.942 449.509,103.002 z" id="boundary" inkscape:connector-curvature="0" />
	<path style="fill:none;stroke:red;stroke-width:1px;stroke-linecap:butt;stroke-linejoin:miter;stroke-opacity:1" d="M 435.649,748.495 455.449,748.495 z" id="boundary" inkscape:connector-curvature="0" />
	<path style="fill:none;stroke:red;stroke-width:1px;stroke-linecap:butt;stroke-linejoin:miter;stroke-opacity:1" d="M 439.609,184.184 449.509,202.004 z" id="boundary" inkscape:connector-curvature="0" />
	<path style="fill:none;stroke:red;stroke-width:1px;stroke-linecap:butt;stroke-linejoin:miter;stroke-opacity:1" d="M 439.609,287.146 439.609,306.946 z" id="boundary" inkscape:connector-curvature="0" />
	<path style="fill:none;stroke:red;stroke-width:1px;stroke-linecap:butt;stroke-linejoin:miter;stroke-opacity:1" d="M 439.609,287.146 449.509,261.405 z" id="boundary" inkscape:connector-curvature="0" />
	<path style="fill:none;stroke:red;stroke-width:1px;stroke-linecap:butt;stroke-linejoin:miter;stroke-opacity:1" d="M 449.509,103.002 469.309,103.002 z" id="boundary" inkscape:connector-curvature="0" />
	<path style="fill:none;stroke:red;stroke-width:1px;stroke-linecap:butt;stroke-linejoin:miter;stroke-opacity:1" d="M 449.509,202.004 449.509,221.804 z" id="boundary" inkscape:connector-curvature="0" />
	<path style="fill:none;stroke:red;stroke-width:1px;stroke-linecap:butt;stroke-linejoin:miter;stroke-opacity:1" d="M 449.509,221.804 449.509,241.605 z" id="boundary" inkscape:connector-curvature="0" />
	<path style="fill:none;stroke:red;stroke-width:1px;stroke-linecap:butt;stroke-linejoin:miter;stroke-opacity:1" d="M 449.509,241.605 449.509,261.405 z" id="boundary" inkscape:connector-curvature="0" />
	<path style="fill:none;stroke:red;stroke-width:1px;stroke-linecap:butt;stroke-linejoin:miter;stroke-opacity:1" d="M 455.449,748.495 475.25,748.495 z" id="boundary" inkscape:connector-curvature="0" />
	<path style="fill:none;stroke:red;stroke-width:1px;stroke-linecap:butt;stroke-linejoin:miter;stroke-opacity:1" d="M 469.309,19.8403 469.309,39.6407 z" id="boundary" inkscape:connector-curvature="0" />
	<path style="fill:none;stroke:red;stroke-width:1px;stroke-linecap:butt;stroke-linejoin:miter;stroke-opacity:1" d="M 469.309,19.8403 489.11,9.94012 z" id="boundary" inkscape:connector-curvature="0" />
	<path style="fill:none;stroke:red;stroke-width:1px;stroke-linecap:butt;stroke-linejoin:miter;stroke-opacity:1" d="M 469.309,39.6407 479.21,57.4611 z" id="boundary" inkscape:connector-curvature="0" />
	<path style="fill:none;stroke:red;stroke-width:1px;stroke-linecap:butt;stroke-linejoin:miter;stroke-opacity:1" d="M 469.309,103.002 489.11,95.0818 z" id="boundary" inkscape:connector-curvature="0" />
	<path style="fill:none;stroke:red;stroke-width:1px;stroke-linecap:butt;stroke-linejoin:miter;stroke-opacity:1" d="M 475.25,748.495 495.05,748.495 z" id="boundary" inkscape:connector-curvature="0" />
	<path style="fill:none;stroke:red;stroke-width:1px;stroke-linecap:butt;stroke-linejoin:miter;stroke-opacity:1" d="M 479.21,57.4611 489.11,75.2814 z" id="boundary" inkscape:connector-curvature="0" />
	<path style="fill:none;stroke:red;stroke-width:1px;stroke-linecap:butt;stroke-linejoin:miter;stroke-opacity:1" d="M 489.11,9.94012 508.91,4 z" id="boundary" inkscape:connector-curvature="0" />
	<path style="fill:none;stroke:red;stroke-width:1px;stroke-linecap:butt;stroke-linejoin:miter;stroke-opacity:1" d="M 489.11,75.2814 489.11,95.0818 z" id="boundary" inkscape:connector-curvature="0" />
	<path style="fill:none;stroke:red;stroke-width:1px;stroke-linecap:butt;stroke-linejoin:miter;stroke-opacity:1" d="M 495.05,748.495 514.85,748.495 z" id="boundary" inkscape:connector-curvature="0" />
	<path style="fill:none;stroke:red;stroke-width:1px;stroke-linecap:butt;stroke-linejoin:miter;stroke-opacity:1" d="M 508.91,4 528.711,7.96008 z" id="boundary" inkscape:connector-curvature="0" />
	<path style="fill:none;stroke:red;stroke-width:1px;stroke-linecap:butt;stroke-linejoin:miter;stroke-opacity:1" d="M 514.85,748.495 534.651,748.495 z" id="boundary" inkscape:connector-curvature="0" />
	<path style="fill:none;stroke:red;stroke-width:1px;stroke-linecap:butt;stroke-linejoin:miter;stroke-opacity:1" d="M 528.711,7.96008 530.691,27.7605 z" id="boundary" inkscape:connector-curvature="0" />
	<path style="fill:none;stroke:red;stroke-width:1px;stroke-linecap:butt;stroke-linejoin:miter;stroke-opacity:1" d="M 530.691,27.7605 530.691,47.5609 z" id="boundary" inkscape:connector-curvature="0" />
	<path style="fill:none;stroke:red;stroke-width:1px;stroke-linecap:butt;stroke-linejoin:miter;stroke-opacity:1" d="M 530.691,47.5609 530.691,67.3613 z" id="boundary" inkscape:connector-curvature="0" />
	<path style="fill:none;stroke:red;stroke-width:1px;stroke-linecap:butt;stroke-linejoin:miter;stroke-opacity:1" d="M 530.691,67.3613 540.591,85.1816 z" id="boundary" inkscape:connector-curvature="0" />
	<path style="fill:none;stroke:red;stroke-width:1px;stroke-linecap:butt;stroke-linejoin:miter;stroke-opacity:1" d="M 534.651,748.495 554.451,748.495 z" id="boundary" inkscape:connector-curvature="0" />
	<path style="fill:none;stroke:red;stroke-width:1px;stroke-linecap:butt;stroke-linejoin:miter;stroke-opacity:1" d="M 540.591,85.1816 540.591,104.982 z" id="boundary" inkscape:connector-curvature="0" />
	<path style="fill:none;stroke:red;stroke-width:1px;stroke-linecap:butt;stroke-linejoin:miter;stroke-opacity:1" d="M 540.591,104.982 550.491,122.802 z" id="boundary" inkscape:connector-curvature="0" />
	<path style="fill:none;stroke:red;stroke-width:1px;stroke-linecap:butt;stroke-linejoin:miter;stroke-opacity:1" d="M 540.591,194.084 540.591,213.884 z" id="boundary" inkscape:connector-curvature="0" />
	<path style="fill:none;stroke:red;stroke-width:1px;stroke-linecap:butt;stroke-linejoin:miter;stroke-opacity:1" d="M 540.591,194.084 556.431,180.224 z" id="boundary" inkscape:connector-curvature="0" />
	<path style="fill:none;stroke:red;stroke-width:1px;stroke-linecap:butt;stroke-linejoin:miter;stroke-opacity:1" d="M 540.591,213.884 540.591,233.685 z" id="boundary" inkscape:connector-curvature="0" />
	<path style="fill:none;stroke:red;stroke-width:1px;stroke-linecap:butt;stroke-linejoin:miter;stroke-opacity:1" d="M 540.591,233.685 540.591,253.485 z" id="boundary" inkscape:connector-curvature="0" />
	<path style="fill:none;stroke:red;stroke-width:1px;stroke-linecap:butt;stroke-linejoin:miter;stroke-opacity:1" d="M 540.591,253.485 540.591,273.285 z" id="boundary" inkscape:connector-curvature="0" />
	<path style="fill:none;stroke:red;stroke-width:1px;stroke-linecap:butt;stroke-linejoin:miter;stroke-opacity:1" d="M 540.591,273.285 540.591,293.086 z" id="boundary" inkscape:connector-curvature="0" />
	<path style="fill:none;stroke:red;stroke-width:1px;stroke-linecap:butt;stroke-linejoin:miter;stroke-opacity:1" d="M 540.591,293.086 544.551,312.886 z" id="boundary" inkscape:connector-curvature="0" />
	<path style="fill:none;stroke:red;stroke-width:1px;stroke-linecap:butt;stroke-linejoin:miter;stroke-opacity:1" d="M 544.551,312.886 564.351,320.806 z" id="boundary" inkscape:connector-curvature="0" />
	<path style="fill:none;stroke:red;stroke-width:1px;stroke-linecap:butt;stroke-linejoin:miter;stroke-opacity:1" d="M 550.491,122.802 570.291,122.802 z" id="boundary" inkscape:connector-curvature="0" />
	<path style="fill:none;stroke:red;stroke-width:1px;stroke-linecap:butt;stroke-linejoin:miter;stroke-opacity:1" d="M 554.451,748.495 574.251,748.495 z" id="boundary" inkscape:connector-curvature="0" />
	<path style="fill:none;stroke:red;stroke-width:1px;stroke-linecap:butt;stroke-linejoin:miter;stroke-opacity:1" d="M 556.431,180.224 576.232,170.323 z" id="boundary" inkscape:connector-curvature="0" />
	<path style="fill:none;stroke:red;stroke-width:1px;stroke-linecap:butt;stroke-linejoin:miter;stroke-opacity:1" d="M 564.351,320.806 584.152,320.806 z" id="boundary" inkscape:connector-curvature="0" />
	<path style="fill:none;stroke:red;stroke-width:1px;stroke-linecap:butt;stroke-linejoin:miter;stroke-opacity:1" d="M 570.291,122.802 590.092,122.802 z" id="boundary" inkscape:connector-curvature="0" />
	<path style="fill:none;stroke:red;stroke-width:1px;stroke-linecap:butt;stroke-linejoin:miter;stroke-opacity:1" d="M 574.251,748.495 594.052,748.495 z" id="boundary" inkscape:connector-curvature="0" />
	<path style="fill:none;stroke:red;stroke-width:1px;stroke-linecap:butt;stroke-linejoin:miter;stroke-opacity:1" d="M 576.232,170.323 596.032,164.383 z" id="boundary" inkscape:connector-curvature="0" />
	<path style="fill:none;stroke:red;stroke-width:1px;stroke-linecap:butt;stroke-linejoin:miter;stroke-opacity:1" d="M 584.152,320.806 601.972,330.707 z" id="boundary" inkscape:connector-curvature="0" />
	<path style="fill:none;stroke:red;stroke-width:1px;stroke-linecap:butt;stroke-linejoin:miter;stroke-opacity:1" d="M 590.092,122.802 609.892,122.802 z" id="boundary" inkscape:connector-curvature="0" />
	<path style="fill:none;stroke:red;stroke-width:1px;stroke-linecap:butt;stroke-linejoin:miter;stroke-opacity:1" d="M 594.052,748.495 613.852,748.495 z" id="boundary" inkscape:connector-curvature="0" />
	<path style="fill:none;stroke:red;stroke-width:1px;stroke-linecap:butt;stroke-linejoin:miter;stroke-opacity:1" d="M 596.032,164.383 615.832,160.423 z" id="boundary" inkscape:connector-curvature="0" />
	<path style="fill:none;stroke:red;stroke-width:1px;stroke-linecap:butt;stroke-linejoin:miter;stroke-opacity:1" d="M 601.972,330.707 621.772,330.707 z" id="boundary" inkscape:connector-curvature="0" />
	<path style="fill:none;stroke:red;stroke-width:1px;stroke-linecap:butt;stroke-linejoin:miter;stroke-opacity:1" d="M 609.892,122.802 629.693,122.802 z" id="boundary" inkscape:connector-curvature="0" />
	<path style="fill:none;stroke:red;stroke-width:1px;stroke-linecap:butt;stroke-linejoin:miter;stroke-opacity:1" d="M 613.852,748.495 633.653,748.495 z" id="boundary" inkscape:connector-curvature="0" />
	<path style="fill:none;stroke:red;stroke-width:1px;stroke-linecap:butt;stroke-linejoin:miter;stroke-opacity:1" d="M 615.832,160.423 635.633,150.523 z" id="boundary" inkscape:connector-curvature="0" />
	<path style="fill:none;stroke:red;stroke-width:1px;stroke-linecap:butt;stroke-linejoin:miter;stroke-opacity:1" d="M 621.772,330.707 639.593,340.607 z" id="boundary" inkscape:connector-curvature="0" />
	<path style="fill:none;stroke:red;stroke-width:1px;stroke-linecap:butt;stroke-linejoin:miter;stroke-opacity:1" d="M 629.693,122.802 635.633,150.523 z" id="boundary" inkscape:connector-curvature="0" />
	<path style="fill:none;stroke:red;stroke-width:1px;stroke-linecap:butt;stroke-linejoin:miter;stroke-opacity:1" d="M 633.653,748.495 653.453,748.495 z" id="boundary" inkscape:connector-curvature="0" />
	<path style="fill:none;stroke:red;stroke-width:1px;stroke-linecap:butt;stroke-linejoin:miter;stroke-opacity:1" d="M 639.593,340.607 659.393,340.607 z" id="boundary" inkscape:connector-curvature="0" />
	<path style="fill:none;stroke:red;stroke-width:1px;stroke-linecap:butt;stroke-linejoin:miter;stroke-opacity:1" d="M 653.453,748.495 673.253,748.495 z" id="boundary" inkscape:connector-curvature="0" />
	<path style="fill:none;stroke:red;stroke-width:1px;stroke-linecap:butt;stroke-linejoin:miter;stroke-opacity:1" d="M 659.393,340.607 679.194,340.607 z" id="boundary" inkscape:connector-curvature="0" />
	<path style="fill:none;stroke:red;stroke-width:1px;stroke-linecap:butt;stroke-linejoin:miter;stroke-opacity:1" d="M 673.253,748.495 693.054,748.495 z" id="boundary" inkscape:connector-curvature="0" />
	<path style="fill:none;stroke:red;stroke-width:1px;stroke-linecap:butt;stroke-linejoin:miter;stroke-opacity:1" d="M 679.194,340.607 698.994,340.607 z" id="boundary" inkscape:connector-curvature="0" />
	<path style="fill:none;stroke:red;stroke-width:1px;stroke-linecap:butt;stroke-linejoin:miter;stroke-opacity:1" d="M 693.054,748.495 712.854,746.515 z" id="boundary" inkscape:connector-curvature="0" />
	<path style="fill:none;stroke:red;stroke-width:1px;stroke-linecap:butt;stroke-linejoin:miter;stroke-opacity:1" d="M 698.994,340.607 718.794,346.547 z" id="boundary" inkscape:connector-curvature="0" />
	<path style="fill:none;stroke:red;stroke-width:1px;stroke-linecap:butt;stroke-linejoin:miter;stroke-opacity:1" d="M 712.854,746.515 732.655,738.595 z" id="boundary" inkscape:connector-curvature="0" />
	<path style="fill:none;stroke:red;stroke-width:1px;stroke-linecap:butt;stroke-linejoin:miter;stroke-opacity:1" d="M 718.794,346.547 738.595,350.507 z" id="boundary" inkscape:connector-curvature="0" />
	<path style="fill:none;stroke:red;stroke-width:1px;stroke-linecap:butt;stroke-linejoin:miter;stroke-opacity:1" d="M 732.655,738.595 752.455,738.595 z" id="boundary" inkscape:connector-curvature="0" />
	<path style="fill:none;stroke:red;stroke-width:1px;stroke-linecap:butt;stroke-linejoin:miter;stroke-opacity:1" d="M 738.595,350.507 758.395,350.507 z" id="boundary" inkscape:connector-curvature="0" />
	<path style="fill:none;stroke:red;stroke-width:1px;stroke-linecap:butt;stroke-linejoin:miter;stroke-opacity:1" d="M 752.455,738.595 770.275,728.695 z" id="boundary" inkscape:connector-curvature="0" />
	<path style="fill:none;stroke:red;stroke-width:1px;stroke-linecap:butt;stroke-linejoin:miter;stroke-opacity:1" d="M 758.395,350.507 776.216,360.407 z" id="boundary" inkscape:connector-curvature="0" />
	<path style="fill:none;stroke:red;stroke-width:1px;stroke-linecap:butt;stroke-linejoin:miter;stroke-opacity:1" d="M 770.275,728.695 790.076,728.695 z" id="boundary" inkscape:connector-curvature="0" />
	<path style="fill:none;stroke:red;stroke-width:1px;stroke-linecap:butt;stroke-linejoin:miter;stroke-opacity:1" d="M 776.216,360.407 796.016,364.367 z" id="boundary" inkscape:connector-curvature="0" />
	<path style="fill:none;stroke:red;stroke-width:1px;stroke-linecap:butt;stroke-linejoin:miter;stroke-opacity:1" d="M 790.076,728.695 807.896,718.794 z" id="boundary" inkscape:connector-curvature="0" />
	<path style="fill:none;stroke:red;stroke-width:1px;stroke-linecap:butt;stroke-linejoin:miter;stroke-opacity:1" d="M 796.016,364.367 807.896,380.208 z" id="boundary" inkscape:connector-curvature="0" />
	<path style="fill:none;stroke:red;stroke-width:1px;stroke-linecap:butt;stroke-linejoin:miter;stroke-opacity:1" d="M 807.896,380.208 807.896,400.008 z" id="boundary" inkscape:connector-curvature="0" />
	<path style="fill:none;stroke:red;stroke-width:1px;stroke-linecap:butt;stroke-linejoin:miter;stroke-opacity:1" d="M 807.896,400.008 817.796,417.828 z" id="boundary" inkscape:connector-curvature="0" />
	<path style="fill:none;stroke:red;stroke-width:1px;stroke-linecap:butt;stroke-linejoin:miter;stroke-opacity:1" d="M 807.896,718.794 827.697,708.894 z" id="boundary" inkscape:connector-curvature="0" />
	<path style="fill:none;stroke:red;stroke-width:1px;stroke-linecap:butt;stroke-linejoin:miter;stroke-opacity:1" d="M 817.796,417.828 833.637,429.709 z" id="boundary" inkscape:connector-curvature="0" />
	<path style="fill:none;stroke:red;stroke-width:1px;stroke-linecap:butt;stroke-linejoin:miter;stroke-opacity:1" d="M 827.697,708.894 847.497,698.994 z" id="boundary" inkscape:connector-curvature="0" />
	<path style="fill:none;stroke:red;stroke-width:1px;stroke-linecap:butt;stroke-linejoin:miter;stroke-opacity:1" d="M 833.637,429.709 851.457,439.609 z" id="boundary" inkscape:connector-curvature="0" />
	<path style="fill:none;stroke:red;stroke-width:1px;stroke-linecap:butt;stroke-linejoin:miter;stroke-opacity:1" d="M 847.497,698.994 867.297,689.094 z" id="boundary" inkscape:connector-curvature="0" />
	<path style="fill:none;stroke:red;stroke-width:1px;stroke-linecap:butt;stroke-linejoin:miter;stroke-opacity:1" d="M 851.457,439.609 869.277,449.509 z" id="boundary" inkscape:connector-curvature="0" />
	<path style="fill:none;stroke:red;stroke-width:1px;stroke-linecap:butt;stroke-linejoin:miter;stroke-opacity:1" d="M 867.297,689.094 887.098,679.194 z" id="boundary" inkscape:connector-curvature="0" />
	<path style="fill:none;stroke:red;stroke-width:1px;stroke-linecap:butt;stroke-linejoin:miter;stroke-opacity:1" d="M 869.277,449.509 887.098,459.409 z" id="boundary" inkscape:connector-curvature="0" />
	<path style="fill:none;stroke:red;stroke-width:1px;stroke-linecap:butt;stroke-linejoin:miter;stroke-opacity:1" d="M 887.098,459.409 906.898,465.349 z" id="boundary" inkscape:connector-curvature="0" />
	<path style="fill:none;stroke:red;stroke-width:1px;stroke-linecap:butt;stroke-linejoin:miter;stroke-opacity:1" d="M 887.098,679.194 906.898,669.293 z" id="boundary" inkscape:connector-curvature="0" />
	<path style="fill:none;stroke:red;stroke-width:1px;stroke-linecap:butt;stroke-linejoin:miter;stroke-opacity:1" d="M 906.898,465.349 920.758,481.19 z" id="boundary" inkscape:connector-curvature="0" />
	<path style="fill:none;stroke:red;stroke-width:1px;stroke-linecap:butt;stroke-linejoin:miter;stroke-opacity:1" d="M 906.898,669.293 922.739,655.433 z" id="boundary" inkscape:connector-curvature="0" />
	<path style="fill:none;stroke:red;stroke-width:1px;stroke-linecap:butt;stroke-linejoin:miter;stroke-opacity:1" d="M 920.758,481.19 940.559,489.11 z" id="boundary" inkscape:connector-curvature="0" />
	<path style="fill:none;stroke:red;stroke-width:1px;stroke-linecap:butt;stroke-linejoin:miter;stroke-opacity:1" d="M 922.739,655.433 936.599,639.593 z" id="boundary" inkscape:connector-curvature="0" />
	<path style="fill:none;stroke:red;stroke-width:1px;stroke-linecap:butt;stroke-linejoin:miter;stroke-opacity:1" d="M 936.599,639.593 952.439,625.733 z" id="boundary" inkscape:connector-curvature="0" />
	<path style="fill:none;stroke:red;stroke-width:1px;stroke-linecap:butt;stroke-linejoin:miter;stroke-opacity:1" d="M 940.559,489.11 958.379,499.01 z" id="boundary" inkscape:connector-curvature="0" />
	<path style="fill:none;stroke:red;stroke-width:1px;stroke-linecap:butt;stroke-linejoin:miter;stroke-opacity:1" d="M 952.439,625.733 966.299,599.992 z" id="boundary" inkscape:connector-curvature="0" />
	<path style="fill:none;stroke:red;stroke-width:1px;stroke-linecap:butt;stroke-linejoin:miter;stroke-opacity:1" d="M 958.379,499.01 978.18,499.01 z" id="boundary" inkscape:connector-curvature="0" />
	<path style="fill:none;stroke:red;stroke-width:1px;stroke-linecap:butt;stroke-linejoin:miter;stroke-opacity:1" d="M 966.299,599.992 976.2,580.192 z" id="boundary" inkscape:connector-curvature="0" />
	<path style="fill:none;stroke:red;stroke-width:1px;stroke-linecap:butt;stroke-linejoin:miter;stroke-opacity:1" d="M 976.2,580.192 986.1,560.391 z" id="boundary" inkscape:connector-curvature="0" />
	<path style="fill:none;stroke:red;stroke-width:1px;stroke-linecap:butt;stroke-linejoin:miter;stroke-opacity:1" d="M 978.18,499.01 986.1,518.81 z" id="boundary" inkscape:connector-curvature="0" />
	<path style="fill:none;stroke:red;stroke-width:1px;stroke-linecap:butt;stroke-linejoin:miter;stroke-opacity:1" d="M 986.1,518.81 996,536.631 z" id="boundary" inkscape:connector-curvature="0" />
	<path style="fill:none;stroke:red;stroke-width:1px;stroke-linecap:butt;stroke-linejoin:miter;stroke-opacity:1" d="M 986.1,560.391 996,536.631 z" id="boundary" inkscape:connector-curvature="0" />
	<circle cx="4" cy="554.451" r="4" fill="#0" id="circle0"/>
	<circle cx="4" cy="574.251" r="4" fill="#0" id="circle1"/>
	<circle cx="4" cy="594.052" r="4" fill="#0" id="circle2"/>
	<circle cx="13.9002" cy="534.651" r="4" fill="#0" id="circle3"/>
	<circle cx="13.9002" cy="611.872" r="4" fill="#0" id="circle4"/>
	<circle cx="23.8004" cy="629.693" r="4" fill="#0" id="circle5"/>
	<circle cx="29.7405" cy="518.81" r="4" fill="#0" id="circle6"/>
	<circle cx="35.6806" cy="645.533" r="4" fill="#0" id="circle7"/>
	<circle cx="45.5808" cy="502.97" r="4" fill="#0" id="circle8"/>
	<circle cx="55.481" cy="653.453" r="4" fill="#0" id="circle9"/>
	<circle cx="65.3812" cy="493.07" r="4" fill="#0" id="circle10"/>
	<circle cx="73.3014" cy="663.353" r="4" fill="#0" id="circle11"/>
	<circle cx="85.1816" cy="483.17" r="4" fill="#0" id="circle12"/>
	<circle cx="93.1018" cy="669.293" r="4" fill="#0" id="circle13"/>
	<circle cx="101.022" cy="469.309" r="4" fill="#0" id="circle14"/>
	<circle cx="110.922" cy="679.194" r="4" fill="#0" id="circle15"/>
	<circle cx="118.842" cy="459.409" r="4" fill="#0" id="circle16"/>
	<circle cx="124.782" cy="695.034" r="4" fill="#0" id="circle17"/>
	<circle cx="138.643" cy="449.509" r="4" fill="#0" id="circle18"/>
	<circle cx="144.583" cy="698.994" r="4" fill="#0" id="circle19"/>
	<circle cx="158.443" cy="439.609" r="4" fill="#0" id="circle20"/>
	<circle cx="164.383" cy="702.954" r="4" fill="#0" id="circle21"/>
	<circle cx="172.303" cy="405.948" r="4" fill="#0" id="circle22"/>
	<circle cx="182.204" cy="712.854" r="4" fill="#0" id="circle23"/>
	<circle cx="188.144" cy="390.108" r="4" fill="#0" id="circle24"/>
	<circle cx="202.004" cy="718.794" r="4" fill="#0" id="circle25"/>
	<circle cx="203.984" cy="374.267" r="4" fill="#0" id="circle26"/>
	<circle cx="221.804" cy="718.794" r="4" fill="#0" id="circle27"/>
	<circle cx="223.784" cy="364.367" r="4" fill="#0" id="circle28"/>
	<circle cx="239.625" cy="728.695" r="4" fill="#0" id="circle29"/>
	<circle cx="243.585" cy="354.467" r="4" fill="#0" id="circle30"/>
	<circle cx="259.425" cy="728.695" r="4" fill="#0" id="circle31"/>
	<circle cx="263.385" cy="344.567" r="4" fill="#0" id="circle32"/>
	<circle cx="277.246" cy="738.595" r="4" fill="#0" id="circle33"/>
	<circle cx="283.186" cy="334.667" r="4" fill="#0" id="circle34"/>
	<circle cx="297.046" cy="738.595" r="4" fill="#0" id="circle35"/>
	<circle cx="302.986" cy="330.707" r="4" fill="#0" id="circle36"/>
	<circle cx="316.846" cy="738.595" r="4" fill="#0" id="circle37"/>
	<circle cx="322.786" cy="324.766" r="4" fill="#0" id="circle38"/>
	<circle cx="336.647" cy="746.515" r="4" fill="#0" id="circle39"/>
	<circle cx="342.587" cy="320.806" r="4" fill="#0" id="circle40"/>
	<circle cx="356.447" cy="748.495" r="4" fill="#0" id="circle41"/>
	<circle cx="362.387" cy="320.806" r="4" fill="#0" id="circle42"/>
	<circle cx="376.248" cy="748.495" r="4" fill="#0" id="circle43"/>
	<circle cx="382.188" cy="320.806" r="4" fill="#0" id="circle44"/>
	<circle cx="390.108" cy="128.743" r="4" fill="#0" id="circle45"/>
	<circle cx="390.108" cy="148.543" r="4" fill="#0" id="circle46"/>
	<circle cx="396.048" cy="748.495" r="4" fill="#0" id="circle47"/>
	<circle cx="401.988" cy="320.806" r="4" fill="#0" id="circle48"/>
	<circle cx="405.948" cy="162.403" r="4" fill="#0" id="circle49"/>
	<circle cx="409.908" cy="118.842" r="4" fill="#0" id="circle50"/>
	<circle cx="415.848" cy="748.495" r="4" fill="#0" id="circle51"/>
	<circle cx="421.788" cy="174.283" r="4" fill="#0" id="circle52"/>
	<circle cx="421.788" cy="320.806" r="4" fill="#0" id="circle53"/>
	<circle cx="429.709" cy="108.942" r="4" fill="#0" id="circle54"/>
	<circle cx="435.649" cy="748.495" r="4" fill="#0" id="circle55"/>
	<circle cx="439.609" cy="184.184" r="4" fill="#0" id="circle56"/>
	<circle cx="439.609" cy="287.146" r="4" fill="#0" id="circle57"/>
	<circle cx="439.609" cy="306.946" r="4" fill="#0" id="circle58"/>
	<circle cx="449.509" cy="103.002" r="4" fill="#0" id="circle59"/>
	<circle cx="449.509" cy="202.004" r="4" fill="#0" id="circle60"/>
	<circle cx="449.509" cy="221.804" r="4" fill="#0" id="circle61"/>
	<circle cx="449.509" cy="241.605" r="4" fill="#0" id="circle62"/>
	<circle cx="449.509" cy="261.405" r="4" fill="#0" id="circle63"/>
	<circle cx="455.449" cy="748.495" r="4" fill="#0" id="circle64"/>
	<circle cx="469.309" cy="19.8403" r="4" fill="#0" id="circle65"/>
	<circle cx="469.309" cy="39.6407" r="4" fill="#0" id="circle66"/>
	<circle cx="469.309" cy="103.002" r="4" fill="#0" id="circle67"/>
	<circle cx="475.25" cy="748.495" r="4" fill="#0" id="circle68"/>
	<circle cx="479.21" cy="57.4611" r="4" fill="#0" id="circle69"/>
	<circle cx="489.11" cy="9.94012" r="4" fill="#0" id="circle70"/>
	<circle cx="489.11" cy="75.2814" r="4" fill="#0" id="circle71"/>
	<circle cx="489.11" cy="95.0818" r="4" fill="#0" id="circle72"/>
	<circle cx="495.05" cy="748.495" r="4" fill="#0" id="circle73"/>
	<circle cx="508.91" cy="4" r="4" fill="#0" id="circle74"/>
	<circle cx="514.85" cy="748.495" r="4" fill="#0" id="circle75"/>
	<circle cx="528.711" cy="7.96008" r="4" fill="#0" id="circle76"/>
	<circle cx="530.691" cy="27.7605" r="4" fill="#0" id="circle77"/>
	<circle cx="530.691" cy="47.5609" r="4" fill="#0" id="circle78"/>
	<circle cx="530.691" cy="67.3613" r="4" fill="#0" id="circle79"/>
	<circle cx="534.651" cy="748.495" r="4" fill="#0" id="circle80"/>
	<circle cx="540.591" cy="85.1816" r="4" fill="#0" id="circle81"/>
	<circle cx="540.591" cy="104.982" r="4" fill="#0" id="circle82"/>
	<circle cx="540.591" cy="194.084" r="4" fill="#0" id="circle83"/>
	<circle cx="540.591" cy="213.884" r="4" fill="#0" id="circle84"/>
	<circle cx="540.591" cy="233.685" r="4" fill="#0" id="circle85"/>
	<circle cx="540.591" cy="253.485" r="4" fill="#0" id="circle86"/>
	<circle cx="540.591" cy="273.285" r="4" fill="#0" id="circle87"/>
	<circle cx="540.591" cy="293.086" r="4" fill="#0" id="circle88"/>
	<circle cx="544.551" cy="312.886" r="4" fill="#0" id="circle89"/>
	<circle cx="550.491" cy="122.802" r="4" fill="#0" id="circle90"/>
	<circle cx="554.451" cy="748.495" r="4" fill="#0" id="circle91"/>
	<circle cx="556.431" cy="180.224" r="4" fill="#0" id="circle92"/>
	<circle cx="564.351" cy="320.806" r="4" fill="#0" id="circle93"/>
	<circle cx="570.291" cy="122.802" r="4" fill="#0" id="circle94"/>
	<circle cx="574.251" cy="748.495" r="4" fill="#0" id="circle95"/>
	<circle cx="576.232" cy="170.323" r="4" fill="#0" id="circle96"/>
	<circle cx="584.152" cy="320.806" r="4" fill="#0" id="circle97"/>
	<circle cx="590.092" cy="122.802" r="4" fill="#0" id="circle98"/>
	<circle cx="594.052" cy="748.495" r="4" fill="#0" id="circle99"/>
	<circle cx="596.032" cy="164.383" r="4" fill="#0" id="circle100"/>
	<circle cx="601.972" cy="330.707" r="4" fill="#0" id="circle101"/>
	<circle cx="609.892" cy="122.802" r="4" fill="#0" id="circle102"/>
	<circle cx="613.852" cy="748.495" r="4" fill="#0" id="circle103"/>
	<circle cx="615.832" cy="160.423" r="4" fill="#0" id="circle104"/>
	<circle cx="621.772" cy="330.707" r="4" fill="#0" id="circle105"/>
	<circle cx="629.693" cy="122.802" r="4" fill="#0" id="circle106"/>
	<circle cx="633.653" cy="748.495" r="4" fill="#0" id="circle107"/>
	<circle cx="635.633" cy="150.523" r="4" fill="#0" id="circle108"/>
	<circle cx="639.593" cy="340.607" r="4" fill="#0" id="circle109"/>
	<circle cx="653.453" cy="748.495" r="4" fill="#0" id="circle110"/>
	<circle cx="659.393" cy="340.607" r="4" fill="#0" id="circle111"/>
	<circle cx="673.253" cy="748.495" r="4" fill="#0" id="circle112"/>
	<circle cx="679.194" cy="340.607" r="4" fill="#0" id="circle113"/>
	<circle cx="693.054" cy="748.495" r="4" fill="#0" id="circle114"/>
	<circle cx="698.994" cy="340.607" r="4" fill="#0" id="circle115"/>
	<circle cx="712.854" cy="746.515" r="4" fill="#0" id="circle116"/>
	<circle cx="718.794" cy="346.547" r="4" fill="#0" id="circle117"/>
	<circle cx="732.655" cy="738.595" r="4" fill="#0" id="circle118"/>
	<circle cx="738.595" cy="350.507" r="4" fill="#0" id="circle119"/>
	<circle cx="752.455" cy="738.595" r="4" fill="#0" id="circle120"/>
	<circle cx="758.395" cy="350.507" r="4" fill="#0" id="circle121"/>
	<circle cx="770.275" cy="728.695" r="4" fill="#0" id="circle122"/>
	<circle cx="776.216" cy="360.407" r="4" fill="#0" id="circle123"/>
	<circle cx="790.076" cy="728.695" r="4" fill="#0" id="circle124"/>
	<circle cx="796.016" cy="364.367" r="4" fill="#0" id="circle125"/>
	<circle cx="807.896" cy="380.208" r="4" fill="#0" id="circle126"/>
	<circle cx="807.896" cy="400.008" r="4" fill="#0" id="circle127"/>
	<circle cx="807.896" cy="718.794" r="4" fill="#0" id="circle128"/>
	<circle cx="817.796" cy="417.828" r="4" fill="#0" id="circle129"/>
	<circle cx="827.697" cy="708.894" r="4" fill="#0" id="circle130"/>
	<circle cx="833.637" cy="429.709" r="4" fill="#0" id="circle131"/>
	<circle cx="847.497" cy="698.994" r="4" fill="#0" id="circle132"/>
	<circle cx="851.457" cy="439.609" r="4" fill="#0" id="circle133"/>
	<circle cx="867.297" cy="689.094" r="4" fill="#0" id="circle134"/>
	<circle cx="869.277" cy="449.509" r="4" fill="#0" id="circle135"/>
	<circle cx="887.098" cy="459.409" r="4" fill="#0" id="circle136"/>
	<circle cx="887.098" cy="679.194" r="4" fill="#0" id="circle137"/>
	<circle cx="906.898" cy="465.349" r="4" fill="#0" id="circle138"/>
	<circle cx="906.898" cy="669.293" r="4" fill="#0" id="circle139"/>
	<circle cx="920.758" cy="481.19" r="4" fill="#0" id="circle140"/>
	<circle cx="922.739" cy="655.433" r="4" fill="#0" id="circle141"/>
	<circle cx="936.599" cy="639.593" r="4" fill="#0" id="circle142"/>
	<circle cx="940.559" cy="489.11" r="4" fill="#0" id="circle143"/>
	<circle cx="952.439" cy="625.733" r="4" fill="#0" id="circle144"/>
	<circle cx="958.379" cy="499.01" r="4" fill="#0" id="circle145"/>
	<circle cx="966.299" cy="599.992" r="4" fill="#0" id="circle146"/>
	<circle cx="976.2" cy="580.192" r="4" fill="#0" id="circle147"/>
	<circle cx="978.18" cy="499.01" r="4" fill="#0" id="circle148"/>
	<circle cx="986.1" cy="518.81" r="4" fill="#0" id="circle149"/>
	<circle cx="986.1" cy="560.391" r="4" fill="#0" id="circle150"/>
	<circle cx="996" cy="536.631" r="4" fill="#0" id="circle151"/>
	</g>
</svg>