<?xml version="1.0" encoding="UTF-8" standalone="no"?>
<!-- Created with CurveBenchmark -->
<svg
	xmlns:dc="http://purl.org/dc/elements/1.1/"
	xmlns:cc="http://creativecommons.org/ns#"
	xmlns:rdf="http://www.w3.org/1999/02/22-rdf-syntax-ns#"
	xmlns:svg="http://www.w3.org/2000/svg"
	xmlns="http://www.w3.org/2000/svg"
	xmlns:sodipodi="http://sodipodi.sourceforge.net/DTD/sodipodi-0.dtd"
	xmlns:inkscape="http://www.inkscape.org/namespaces/inkscape"
	width="1000"
	height="1000"
	id="svg2"
	version="1.1"
	sodipodi:docname="manifold/discur-bird44.png.txt">
<defs
	id="defs4" />
<metadata
	id="metadata7">
	<rdf:RDF>
		<cc:Work
			rdf:about="">
			<dc:format>image/svg+xml</dc:format>
			<dc:type
				rdf:resource="http://purl.org/dc/dcmitype/StillImage" />
			<dc:title></dc:title>
		</cc:Work>
	</rdf:RDF>
</metadata>
<g
	inkscape:label="Layer 1"
	inkscape:groupmode="layer"
	id="layer1">
	<path style="fill:none;stroke:red;stroke-width:1px;stroke-linecap:butt;stroke-linejoin:miter;stroke-opacity:1" d="M 4,296.418 4,314.925 z" id="boundary" inkscape:connector-curvature="0" />
	<path style="fill:none;stroke:red;stroke-width:1px;stroke-linecap:butt;stroke-linejoin:miter;stroke-opacity:1" d="M 4,296.418 18.806,281.612 z" id="boundary" inkscape:connector-curvature="0" />
	<path style="fill:none;stroke:red;stroke-width:1px;stroke-linecap:butt;stroke-linejoin:miter;stroke-opacity:1" d="M 4,314.925 4,333.433 z" id="boundary" inkscape:connector-curvature="0" />
	<path style="fill:none;stroke:red;stroke-width:1px;stroke-linecap:butt;stroke-linejoin:miter;stroke-opacity:1" d="M 4,333.433 4,351.94 z" id="boundary" inkscape:connector-curvature="0" />
	<path style="fill:none;stroke:red;stroke-width:1px;stroke-linecap:butt;stroke-linejoin:miter;stroke-opacity:1" d="M 4,351.94 4,370.448 z" id="boundary" inkscape:connector-curvature="0" />
	<path style="fill:none;stroke:red;stroke-width:1px;stroke-linecap:butt;stroke-linejoin:miter;stroke-opacity:1" d="M 4,370.448 4,388.955 z" id="boundary" inkscape:connector-curvature="0" />
	<path style="fill:none;stroke:red;stroke-width:1px;stroke-linecap:butt;stroke-linejoin:miter;stroke-opacity:1" d="M 4,388.955 4,407.463 z" id="boundary" inkscape:connector-curvature="0" />
	<path style="fill:none;stroke:red;stroke-width:1px;stroke-linecap:butt;stroke-linejoin:miter;stroke-opacity:1" d="M 4,407.463 4,425.97 z" id="boundary" inkscape:connector-curvature="0" />
	<path style="fill:none;stroke:red;stroke-width:1px;stroke-linecap:butt;stroke-linejoin:miter;stroke-opacity:1" d="M 4,425.97 13.2537,442.627 z" id="boundary" inkscape:connector-curvature="0" />
	<path style="fill:none;stroke:red;stroke-width:1px;stroke-linecap:butt;stroke-linejoin:miter;stroke-opacity:1" d="M 13.2537,442.627 13.2537,461.134 z" id="boundary" inkscape:connector-curvature="0" />
	<path style="fill:none;stroke:red;stroke-width:1px;stroke-linecap:butt;stroke-linejoin:miter;stroke-opacity:1" d="M 13.2537,461.134 13.2537,479.642 z" id="boundary" inkscape:connector-curvature="0" />
	<path style="fill:none;stroke:red;stroke-width:1px;stroke-linecap:butt;stroke-linejoin:miter;stroke-opacity:1" d="M 13.2537,479.642 22.5075,496.299 z" id="boundary" inkscape:connector-curvature="0" />
	<path style="fill:none;stroke:red;stroke-width:1px;stroke-linecap:butt;stroke-linejoin:miter;stroke-opacity:1" d="M 18.806,281.612 22.5075,250.149 z" id="boundary" inkscape:connector-curvature="0" />
	<path style="fill:none;stroke:red;stroke-width:1px;stroke-linecap:butt;stroke-linejoin:miter;stroke-opacity:1" d="M 22.5075,120.597 22.5075,139.104 z" id="boundary" inkscape:connector-curvature="0" />
	<path style="fill:none;stroke:red;stroke-width:1px;stroke-linecap:butt;stroke-linejoin:miter;stroke-opacity:1" d="M 22.5075,120.597 37.3134,105.791 z" id="boundary" inkscape:connector-curvature="0" />
	<path style="fill:none;stroke:red;stroke-width:1px;stroke-linecap:butt;stroke-linejoin:miter;stroke-opacity:1" d="M 22.5075,139.104 31.7612,155.761 z" id="boundary" inkscape:connector-curvature="0" />
	<path style="fill:none;stroke:red;stroke-width:1px;stroke-linecap:butt;stroke-linejoin:miter;stroke-opacity:1" d="M 22.5075,250.149 37.3134,235.343 z" id="boundary" inkscape:connector-curvature="0" />
	<path style="fill:none;stroke:red;stroke-width:1px;stroke-linecap:butt;stroke-linejoin:miter;stroke-opacity:1" d="M 22.5075,496.299 22.5075,514.806 z" id="boundary" inkscape:connector-curvature="0" />
	<path style="fill:none;stroke:red;stroke-width:1px;stroke-linecap:butt;stroke-linejoin:miter;stroke-opacity:1" d="M 22.5075,514.806 31.7612,531.463 z" id="boundary" inkscape:connector-curvature="0" />
	<path style="fill:none;stroke:red;stroke-width:1px;stroke-linecap:butt;stroke-linejoin:miter;stroke-opacity:1" d="M 31.7612,155.761 44.7164,170.567 z" id="boundary" inkscape:connector-curvature="0" />
	<path style="fill:none;stroke:red;stroke-width:1px;stroke-linecap:butt;stroke-linejoin:miter;stroke-opacity:1" d="M 31.7612,531.463 41.0149,548.119 z" id="boundary" inkscape:connector-curvature="0" />
	<path style="fill:none;stroke:red;stroke-width:1px;stroke-linecap:butt;stroke-linejoin:miter;stroke-opacity:1" d="M 37.3134,105.791 41.0149,83.5821 z" id="boundary" inkscape:connector-curvature="0" />
	<path style="fill:none;stroke:red;stroke-width:1px;stroke-linecap:butt;stroke-linejoin:miter;stroke-opacity:1" d="M 37.3134,235.343 46.5672,216.836 z" id="boundary" inkscape:connector-curvature="0" />
	<path style="fill:none;stroke:red;stroke-width:1px;stroke-linecap:butt;stroke-linejoin:miter;stroke-opacity:1" d="M 41.0149,83.5821 55.8209,68.7761 z" id="boundary" inkscape:connector-curvature="0" />
	<path style="fill:none;stroke:red;stroke-width:1px;stroke-linecap:butt;stroke-linejoin:miter;stroke-opacity:1" d="M 41.0149,548.119 41.0149,566.627 z" id="boundary" inkscape:connector-curvature="0" />
	<path style="fill:none;stroke:red;stroke-width:1px;stroke-linecap:butt;stroke-linejoin:miter;stroke-opacity:1" d="M 41.0149,566.627 50.2687,583.284 z" id="boundary" inkscape:connector-curvature="0" />
	<path style="fill:none;stroke:red;stroke-width:1px;stroke-linecap:butt;stroke-linejoin:miter;stroke-opacity:1" d="M 44.7164,170.567 50.2687,189.075 z" id="boundary" inkscape:connector-curvature="0" />
	<path style="fill:none;stroke:red;stroke-width:1px;stroke-linecap:butt;stroke-linejoin:miter;stroke-opacity:1" d="M 46.5672,216.836 50.2687,189.075 z" id="boundary" inkscape:connector-curvature="0" />
	<path style="fill:none;stroke:red;stroke-width:1px;stroke-linecap:butt;stroke-linejoin:miter;stroke-opacity:1" d="M 50.2687,583.284 59.5224,599.94 z" id="boundary" inkscape:connector-curvature="0" />
	<path style="fill:none;stroke:red;stroke-width:1px;stroke-linecap:butt;stroke-linejoin:miter;stroke-opacity:1" d="M 55.8209,68.7761 65.0746,50.2687 z" id="boundary" inkscape:connector-curvature="0" />
	<path style="fill:none;stroke:red;stroke-width:1px;stroke-linecap:butt;stroke-linejoin:miter;stroke-opacity:1" d="M 59.5224,599.94 72.4776,614.746 z" id="boundary" inkscape:connector-curvature="0" />
	<path style="fill:none;stroke:red;stroke-width:1px;stroke-linecap:butt;stroke-linejoin:miter;stroke-opacity:1" d="M 65.0746,50.2687 74.3284,31.7612 z" id="boundary" inkscape:connector-curvature="0" />
	<path style="fill:none;stroke:red;stroke-width:1px;stroke-linecap:butt;stroke-linejoin:miter;stroke-opacity:1" d="M 72.4776,614.746 87.2836,625.851 z" id="boundary" inkscape:connector-curvature="0" />
	<path style="fill:none;stroke:red;stroke-width:1px;stroke-linecap:butt;stroke-linejoin:miter;stroke-opacity:1" d="M 74.3284,31.7612 87.2836,9.55224 z" id="boundary" inkscape:connector-curvature="0" />
	<path style="fill:none;stroke:red;stroke-width:1px;stroke-linecap:butt;stroke-linejoin:miter;stroke-opacity:1" d="M 87.2836,9.55224 105.791,4 z" id="boundary" inkscape:connector-curvature="0" />
	<path style="fill:none;stroke:red;stroke-width:1px;stroke-linecap:butt;stroke-linejoin:miter;stroke-opacity:1" d="M 87.2836,625.851 92.8358,644.358 z" id="boundary" inkscape:connector-curvature="0" />
	<path style="fill:none;stroke:red;stroke-width:1px;stroke-linecap:butt;stroke-linejoin:miter;stroke-opacity:1" d="M 92.8358,644.358 107.642,657.313 z" id="boundary" inkscape:connector-curvature="0" />
	<path style="fill:none;stroke:red;stroke-width:1px;stroke-linecap:butt;stroke-linejoin:miter;stroke-opacity:1" d="M 105.791,4 124.299,4 z" id="boundary" inkscape:connector-curvature="0" />
	<path style="fill:none;stroke:red;stroke-width:1px;stroke-linecap:butt;stroke-linejoin:miter;stroke-opacity:1" d="M 107.642,657.313 120.597,672.119 z" id="boundary" inkscape:connector-curvature="0" />
	<path style="fill:none;stroke:red;stroke-width:1px;stroke-linecap:butt;stroke-linejoin:miter;stroke-opacity:1" d="M 120.597,672.119 137.254,681.373 z" id="boundary" inkscape:connector-curvature="0" />
	<path style="fill:none;stroke:red;stroke-width:1px;stroke-linecap:butt;stroke-linejoin:miter;stroke-opacity:1" d="M 124.299,4 139.104,15.1045 z" id="boundary" inkscape:connector-curvature="0" />
	<path style="fill:none;stroke:red;stroke-width:1px;stroke-linecap:butt;stroke-linejoin:miter;stroke-opacity:1" d="M 137.254,681.373 146.507,698.03 z" id="boundary" inkscape:connector-curvature="0" />
	<path style="fill:none;stroke:red;stroke-width:1px;stroke-linecap:butt;stroke-linejoin:miter;stroke-opacity:1" d="M 139.104,15.1045 153.91,28.0597 z" id="boundary" inkscape:connector-curvature="0" />
	<path style="fill:none;stroke:red;stroke-width:1px;stroke-linecap:butt;stroke-linejoin:miter;stroke-opacity:1" d="M 146.507,698.03 165.015,705.433 z" id="boundary" inkscape:connector-curvature="0" />
	<path style="fill:none;stroke:red;stroke-width:1px;stroke-linecap:butt;stroke-linejoin:miter;stroke-opacity:1" d="M 153.91,28.0597 163.164,44.7164 z" id="boundary" inkscape:connector-curvature="0" />
	<path style="fill:none;stroke:red;stroke-width:1px;stroke-linecap:butt;stroke-linejoin:miter;stroke-opacity:1" d="M 163.164,44.7164 168.716,63.2239 z" id="boundary" inkscape:connector-curvature="0" />
	<path style="fill:none;stroke:red;stroke-width:1px;stroke-linecap:butt;stroke-linejoin:miter;stroke-opacity:1" d="M 165.015,705.433 179.821,718.388 z" id="boundary" inkscape:connector-curvature="0" />
	<path style="fill:none;stroke:red;stroke-width:1px;stroke-linecap:butt;stroke-linejoin:miter;stroke-opacity:1" d="M 168.716,63.2239 181.672,78.0299 z" id="boundary" inkscape:connector-curvature="0" />
	<path style="fill:none;stroke:red;stroke-width:1px;stroke-linecap:butt;stroke-linejoin:miter;stroke-opacity:1" d="M 179.821,718.388 190.925,733.194 z" id="boundary" inkscape:connector-curvature="0" />
	<path style="fill:none;stroke:red;stroke-width:1px;stroke-linecap:butt;stroke-linejoin:miter;stroke-opacity:1" d="M 181.672,78.0299 190.925,94.6866 z" id="boundary" inkscape:connector-curvature="0" />
	<path style="fill:none;stroke:red;stroke-width:1px;stroke-linecap:butt;stroke-linejoin:miter;stroke-opacity:1" d="M 189.075,870.149 200.179,884.955 z" id="boundary" inkscape:connector-curvature="0" />
	<path style="fill:none;stroke:red;stroke-width:1px;stroke-linecap:butt;stroke-linejoin:miter;stroke-opacity:1" d="M 189.075,870.149 207.582,860.896 z" id="boundary" inkscape:connector-curvature="0" />
	<path style="fill:none;stroke:red;stroke-width:1px;stroke-linecap:butt;stroke-linejoin:miter;stroke-opacity:1" d="M 190.925,94.6866 200.179,111.343 z" id="boundary" inkscape:connector-curvature="0" />
	<path style="fill:none;stroke:red;stroke-width:1px;stroke-linecap:butt;stroke-linejoin:miter;stroke-opacity:1" d="M 190.925,733.194 209.433,736.896 z" id="boundary" inkscape:connector-curvature="0" />
	<path style="fill:none;stroke:red;stroke-width:1px;stroke-linecap:butt;stroke-linejoin:miter;stroke-opacity:1" d="M 200.179,111.343 209.433,128 z" id="boundary" inkscape:connector-curvature="0" />
	<path style="fill:none;stroke:red;stroke-width:1px;stroke-linecap:butt;stroke-linejoin:miter;stroke-opacity:1" d="M 200.179,884.955 218.687,884.955 z" id="boundary" inkscape:connector-curvature="0" />
	<path style="fill:none;stroke:red;stroke-width:1px;stroke-linecap:butt;stroke-linejoin:miter;stroke-opacity:1" d="M 207.582,860.896 226.09,842.388 z" id="boundary" inkscape:connector-curvature="0" />
	<path style="fill:none;stroke:red;stroke-width:1px;stroke-linecap:butt;stroke-linejoin:miter;stroke-opacity:1" d="M 209.433,128 209.433,146.507 z" id="boundary" inkscape:connector-curvature="0" />
	<path style="fill:none;stroke:red;stroke-width:1px;stroke-linecap:butt;stroke-linejoin:miter;stroke-opacity:1" d="M 209.433,146.507 220.537,161.313 z" id="boundary" inkscape:connector-curvature="0" />
	<path style="fill:none;stroke:red;stroke-width:1px;stroke-linecap:butt;stroke-linejoin:miter;stroke-opacity:1" d="M 209.433,736.896 226.09,746.149 z" id="boundary" inkscape:connector-curvature="0" />
	<path style="fill:none;stroke:red;stroke-width:1px;stroke-linecap:butt;stroke-linejoin:miter;stroke-opacity:1" d="M 218.687,884.955 237.194,884.955 z" id="boundary" inkscape:connector-curvature="0" />
	<path style="fill:none;stroke:red;stroke-width:1px;stroke-linecap:butt;stroke-linejoin:miter;stroke-opacity:1" d="M 220.537,161.313 227.94,179.821 z" id="boundary" inkscape:connector-curvature="0" />
	<path style="fill:none;stroke:red;stroke-width:1px;stroke-linecap:butt;stroke-linejoin:miter;stroke-opacity:1" d="M 226.09,746.149 235.343,762.806 z" id="boundary" inkscape:connector-curvature="0" />
	<path style="fill:none;stroke:red;stroke-width:1px;stroke-linecap:butt;stroke-linejoin:miter;stroke-opacity:1" d="M 226.09,842.388 240.896,827.582 z" id="boundary" inkscape:connector-curvature="0" />
	<path style="fill:none;stroke:red;stroke-width:1px;stroke-linecap:butt;stroke-linejoin:miter;stroke-opacity:1" d="M 227.94,179.821 227.94,198.328 z" id="boundary" inkscape:connector-curvature="0" />
	<path style="fill:none;stroke:red;stroke-width:1px;stroke-linecap:butt;stroke-linejoin:miter;stroke-opacity:1" d="M 227.94,198.328 246.448,203.881 z" id="boundary" inkscape:connector-curvature="0" />
	<path style="fill:none;stroke:red;stroke-width:1px;stroke-linecap:butt;stroke-linejoin:miter;stroke-opacity:1" d="M 235.343,762.806 244.597,779.463 z" id="boundary" inkscape:connector-curvature="0" />
	<path style="fill:none;stroke:red;stroke-width:1px;stroke-linecap:butt;stroke-linejoin:miter;stroke-opacity:1" d="M 237.194,884.955 255.701,884.955 z" id="boundary" inkscape:connector-curvature="0" />
	<path style="fill:none;stroke:red;stroke-width:1px;stroke-linecap:butt;stroke-linejoin:miter;stroke-opacity:1" d="M 240.896,827.582 255.701,838.687 z" id="boundary" inkscape:connector-curvature="0" />
	<path style="fill:none;stroke:red;stroke-width:1px;stroke-linecap:butt;stroke-linejoin:miter;stroke-opacity:1" d="M 244.597,779.463 244.597,797.97 z" id="boundary" inkscape:connector-curvature="0" />
	<path style="fill:none;stroke:red;stroke-width:1px;stroke-linecap:butt;stroke-linejoin:miter;stroke-opacity:1" d="M 244.597,797.97 264.955,820.179 z" id="boundary" inkscape:connector-curvature="0" />
	<path style="fill:none;stroke:red;stroke-width:1px;stroke-linecap:butt;stroke-linejoin:miter;stroke-opacity:1" d="M 246.448,203.881 259.403,218.687 z" id="boundary" inkscape:connector-curvature="0" />
	<path style="fill:none;stroke:red;stroke-width:1px;stroke-linecap:butt;stroke-linejoin:miter;stroke-opacity:1" d="M 255.701,838.687 259.403,857.194 z" id="boundary" inkscape:connector-curvature="0" />
	<path style="fill:none;stroke:red;stroke-width:1px;stroke-linecap:butt;stroke-linejoin:miter;stroke-opacity:1" d="M 255.701,884.955 259.403,857.194 z" id="boundary" inkscape:connector-curvature="0" />
	<path style="fill:none;stroke:red;stroke-width:1px;stroke-linecap:butt;stroke-linejoin:miter;stroke-opacity:1" d="M 259.403,218.687 268.657,235.343 z" id="boundary" inkscape:connector-curvature="0" />
	<path style="fill:none;stroke:red;stroke-width:1px;stroke-linecap:butt;stroke-linejoin:miter;stroke-opacity:1" d="M 264.955,820.179 274.209,801.672 z" id="boundary" inkscape:connector-curvature="0" />
	<path style="fill:none;stroke:red;stroke-width:1px;stroke-linecap:butt;stroke-linejoin:miter;stroke-opacity:1" d="M 268.657,235.343 285.313,244.597 z" id="boundary" inkscape:connector-curvature="0" />
	<path style="fill:none;stroke:red;stroke-width:1px;stroke-linecap:butt;stroke-linejoin:miter;stroke-opacity:1" d="M 274.209,801.672 290.866,792.418 z" id="boundary" inkscape:connector-curvature="0" />
	<path style="fill:none;stroke:red;stroke-width:1px;stroke-linecap:butt;stroke-linejoin:miter;stroke-opacity:1" d="M 285.313,244.597 300.119,257.552 z" id="boundary" inkscape:connector-curvature="0" />
	<path style="fill:none;stroke:red;stroke-width:1px;stroke-linecap:butt;stroke-linejoin:miter;stroke-opacity:1" d="M 290.866,792.418 309.373,792.418 z" id="boundary" inkscape:connector-curvature="0" />
	<path style="fill:none;stroke:red;stroke-width:1px;stroke-linecap:butt;stroke-linejoin:miter;stroke-opacity:1" d="M 300.119,257.552 316.776,266.806 z" id="boundary" inkscape:connector-curvature="0" />
	<path style="fill:none;stroke:red;stroke-width:1px;stroke-linecap:butt;stroke-linejoin:miter;stroke-opacity:1" d="M 309.373,792.418 327.881,792.418 z" id="boundary" inkscape:connector-curvature="0" />
	<path style="fill:none;stroke:red;stroke-width:1px;stroke-linecap:butt;stroke-linejoin:miter;stroke-opacity:1" d="M 316.776,266.806 329.731,281.612 z" id="boundary" inkscape:connector-curvature="0" />
	<path style="fill:none;stroke:red;stroke-width:1px;stroke-linecap:butt;stroke-linejoin:miter;stroke-opacity:1" d="M 318.627,879.403 327.881,860.896 z" id="boundary" inkscape:connector-curvature="0" />
	<path style="fill:none;stroke:red;stroke-width:1px;stroke-linecap:butt;stroke-linejoin:miter;stroke-opacity:1" d="M 318.627,879.403 337.134,884.955 z" id="boundary" inkscape:connector-curvature="0" />
	<path style="fill:none;stroke:red;stroke-width:1px;stroke-linecap:butt;stroke-linejoin:miter;stroke-opacity:1" d="M 327.881,792.418 344.537,801.672 z" id="boundary" inkscape:connector-curvature="0" />
	<path style="fill:none;stroke:red;stroke-width:1px;stroke-linecap:butt;stroke-linejoin:miter;stroke-opacity:1" d="M 329.731,281.612 348.239,287.164 z" id="boundary" inkscape:connector-curvature="0" />
	<path style="fill:none;stroke:red;stroke-width:1px;stroke-linecap:butt;stroke-linejoin:miter;stroke-opacity:1" d="M 337.134,884.955 355.642,884.955 z" id="boundary" inkscape:connector-curvature="0" />
	<path style="fill:none;stroke:red;stroke-width:1px;stroke-linecap:butt;stroke-linejoin:miter;stroke-opacity:1" d="M 344.537,801.672 346.388,820.179 z" id="boundary" inkscape:connector-curvature="0" />
	<path style="fill:none;stroke:red;stroke-width:1px;stroke-linecap:butt;stroke-linejoin:miter;stroke-opacity:1" d="M 346.388,820.179 346.388,838.687 z" id="boundary" inkscape:connector-curvature="0" />
	<path style="fill:none;stroke:red;stroke-width:1px;stroke-linecap:butt;stroke-linejoin:miter;stroke-opacity:1" d="M 346.388,838.687 366.746,847.94 z" id="boundary" inkscape:connector-curvature="0" />
	<path style="fill:none;stroke:red;stroke-width:1px;stroke-linecap:butt;stroke-linejoin:miter;stroke-opacity:1" d="M 348.239,287.164 363.045,300.119 z" id="boundary" inkscape:connector-curvature="0" />
	<path style="fill:none;stroke:red;stroke-width:1px;stroke-linecap:butt;stroke-linejoin:miter;stroke-opacity:1" d="M 355.642,884.955 374.149,879.403 z" id="boundary" inkscape:connector-curvature="0" />
	<path style="fill:none;stroke:red;stroke-width:1px;stroke-linecap:butt;stroke-linejoin:miter;stroke-opacity:1" d="M 363.045,300.119 379.701,309.373 z" id="boundary" inkscape:connector-curvature="0" />
	<path style="fill:none;stroke:red;stroke-width:1px;stroke-linecap:butt;stroke-linejoin:miter;stroke-opacity:1" d="M 366.746,829.433 366.746,847.94 z" id="boundary" inkscape:connector-curvature="0" />
	<path style="fill:none;stroke:red;stroke-width:1px;stroke-linecap:butt;stroke-linejoin:miter;stroke-opacity:1" d="M 366.746,829.433 381.552,816.478 z" id="boundary" inkscape:connector-curvature="0" />
	<path style="fill:none;stroke:red;stroke-width:1px;stroke-linecap:butt;stroke-linejoin:miter;stroke-opacity:1" d="M 379.701,309.373 392.657,324.179 z" id="boundary" inkscape:connector-curvature="0" />
	<path style="fill:none;stroke:red;stroke-width:1px;stroke-linecap:butt;stroke-linejoin:miter;stroke-opacity:1" d="M 381.552,816.478 392.657,801.672 z" id="boundary" inkscape:connector-curvature="0" />
	<path style="fill:none;stroke:red;stroke-width:1px;stroke-linecap:butt;stroke-linejoin:miter;stroke-opacity:1" d="M 392.657,324.179 411.164,331.582 z" id="boundary" inkscape:connector-curvature="0" />
	<path style="fill:none;stroke:red;stroke-width:1px;stroke-linecap:butt;stroke-linejoin:miter;stroke-opacity:1" d="M 392.657,801.672 403.761,773.91 z" id="boundary" inkscape:connector-curvature="0" />
	<path style="fill:none;stroke:red;stroke-width:1px;stroke-linecap:butt;stroke-linejoin:miter;stroke-opacity:1" d="M 403.761,773.91 420.418,764.657 z" id="boundary" inkscape:connector-curvature="0" />
	<path style="fill:none;stroke:red;stroke-width:1px;stroke-linecap:butt;stroke-linejoin:miter;stroke-opacity:1" d="M 411.164,331.582 422.269,346.388 z" id="boundary" inkscape:connector-curvature="0" />
	<path style="fill:none;stroke:red;stroke-width:1px;stroke-linecap:butt;stroke-linejoin:miter;stroke-opacity:1" d="M 420.418,764.657 437.075,773.91 z" id="boundary" inkscape:connector-curvature="0" />
	<path style="fill:none;stroke:red;stroke-width:1px;stroke-linecap:butt;stroke-linejoin:miter;stroke-opacity:1" d="M 422.269,346.388 437.075,357.493 z" id="boundary" inkscape:connector-curvature="0" />
	<path style="fill:none;stroke:red;stroke-width:1px;stroke-linecap:butt;stroke-linejoin:miter;stroke-opacity:1" d="M 437.075,357.493 450.03,372.299 z" id="boundary" inkscape:connector-curvature="0" />
	<path style="fill:none;stroke:red;stroke-width:1px;stroke-linecap:butt;stroke-linejoin:miter;stroke-opacity:1" d="M 437.075,773.91 453.731,783.164 z" id="boundary" inkscape:connector-curvature="0" />
	<path style="fill:none;stroke:red;stroke-width:1px;stroke-linecap:butt;stroke-linejoin:miter;stroke-opacity:1" d="M 450.03,372.299 464.836,385.254 z" id="boundary" inkscape:connector-curvature="0" />
	<path style="fill:none;stroke:red;stroke-width:1px;stroke-linecap:butt;stroke-linejoin:miter;stroke-opacity:1" d="M 453.731,783.164 466.687,797.97 z" id="boundary" inkscape:connector-curvature="0" />
	<path style="fill:none;stroke:red;stroke-width:1px;stroke-linecap:butt;stroke-linejoin:miter;stroke-opacity:1" d="M 464.836,385.254 472.239,403.761 z" id="boundary" inkscape:connector-curvature="0" />
	<path style="fill:none;stroke:red;stroke-width:1px;stroke-linecap:butt;stroke-linejoin:miter;stroke-opacity:1" d="M 466.687,797.97 475.94,814.627 z" id="boundary" inkscape:connector-curvature="0" />
	<path style="fill:none;stroke:red;stroke-width:1px;stroke-linecap:butt;stroke-linejoin:miter;stroke-opacity:1" d="M 472.239,403.761 487.045,416.716 z" id="boundary" inkscape:connector-curvature="0" />
	<path style="fill:none;stroke:red;stroke-width:1px;stroke-linecap:butt;stroke-linejoin:miter;stroke-opacity:1" d="M 475.94,814.627 494.448,820.179 z" id="boundary" inkscape:connector-curvature="0" />
	<path style="fill:none;stroke:red;stroke-width:1px;stroke-linecap:butt;stroke-linejoin:miter;stroke-opacity:1" d="M 487.045,416.716 500,431.522 z" id="boundary" inkscape:connector-curvature="0" />
	<path style="fill:none;stroke:red;stroke-width:1px;stroke-linecap:butt;stroke-linejoin:miter;stroke-opacity:1" d="M 494.448,820.179 505.552,834.985 z" id="boundary" inkscape:connector-curvature="0" />
	<path style="fill:none;stroke:red;stroke-width:1px;stroke-linecap:butt;stroke-linejoin:miter;stroke-opacity:1" d="M 500,431.522 509.254,448.179 z" id="boundary" inkscape:connector-curvature="0" />
	<path style="fill:none;stroke:red;stroke-width:1px;stroke-linecap:butt;stroke-linejoin:miter;stroke-opacity:1" d="M 505.552,834.985 514.806,851.642 z" id="boundary" inkscape:connector-curvature="0" />
	<path style="fill:none;stroke:red;stroke-width:1px;stroke-linecap:butt;stroke-linejoin:miter;stroke-opacity:1" d="M 509.254,448.179 522.209,462.985 z" id="boundary" inkscape:connector-curvature="0" />
	<path style="fill:none;stroke:red;stroke-width:1px;stroke-linecap:butt;stroke-linejoin:miter;stroke-opacity:1" d="M 514.806,851.642 522.209,870.149 z" id="boundary" inkscape:connector-curvature="0" />
	<path style="fill:none;stroke:red;stroke-width:1px;stroke-linecap:butt;stroke-linejoin:miter;stroke-opacity:1" d="M 522.209,462.985 531.463,479.642 z" id="boundary" inkscape:connector-curvature="0" />
	<path style="fill:none;stroke:red;stroke-width:1px;stroke-linecap:butt;stroke-linejoin:miter;stroke-opacity:1" d="M 522.209,870.149 540.716,875.701 z" id="boundary" inkscape:connector-curvature="0" />
	<path style="fill:none;stroke:red;stroke-width:1px;stroke-linecap:butt;stroke-linejoin:miter;stroke-opacity:1" d="M 531.463,479.642 538.866,498.149 z" id="boundary" inkscape:connector-curvature="0" />
	<path style="fill:none;stroke:red;stroke-width:1px;stroke-linecap:butt;stroke-linejoin:miter;stroke-opacity:1" d="M 538.866,498.149 551.821,512.955 z" id="boundary" inkscape:connector-curvature="0" />
	<path style="fill:none;stroke:red;stroke-width:1px;stroke-linecap:butt;stroke-linejoin:miter;stroke-opacity:1" d="M 540.716,875.701 546.269,894.209 z" id="boundary" inkscape:connector-curvature="0" />
	<path style="fill:none;stroke:red;stroke-width:1px;stroke-linecap:butt;stroke-linejoin:miter;stroke-opacity:1" d="M 546.269,894.209 561.075,907.164 z" id="boundary" inkscape:connector-curvature="0" />
	<path style="fill:none;stroke:red;stroke-width:1px;stroke-linecap:butt;stroke-linejoin:miter;stroke-opacity:1" d="M 551.821,512.955 561.075,529.612 z" id="boundary" inkscape:connector-curvature="0" />
	<path style="fill:none;stroke:red;stroke-width:1px;stroke-linecap:butt;stroke-linejoin:miter;stroke-opacity:1" d="M 561.075,529.612 570.328,546.269 z" id="boundary" inkscape:connector-curvature="0" />
	<path style="fill:none;stroke:red;stroke-width:1px;stroke-linecap:butt;stroke-linejoin:miter;stroke-opacity:1" d="M 561.075,907.164 574.03,921.97 z" id="boundary" inkscape:connector-curvature="0" />
	<path style="fill:none;stroke:red;stroke-width:1px;stroke-linecap:butt;stroke-linejoin:miter;stroke-opacity:1" d="M 570.328,546.269 577.731,564.776 z" id="boundary" inkscape:connector-curvature="0" />
	<path style="fill:none;stroke:red;stroke-width:1px;stroke-linecap:butt;stroke-linejoin:miter;stroke-opacity:1" d="M 574.03,921.97 583.284,938.627 z" id="boundary" inkscape:connector-curvature="0" />
	<path style="fill:none;stroke:red;stroke-width:1px;stroke-linecap:butt;stroke-linejoin:miter;stroke-opacity:1" d="M 577.731,564.776 586.985,581.433 z" id="boundary" inkscape:connector-curvature="0" />
	<path style="fill:none;stroke:red;stroke-width:1px;stroke-linecap:butt;stroke-linejoin:miter;stroke-opacity:1" d="M 583.284,938.627 590.687,957.134 z" id="boundary" inkscape:connector-curvature="0" />
	<path style="fill:none;stroke:red;stroke-width:1px;stroke-linecap:butt;stroke-linejoin:miter;stroke-opacity:1" d="M 586.985,581.433 588.836,599.94 z" id="boundary" inkscape:connector-curvature="0" />
	<path style="fill:none;stroke:red;stroke-width:1px;stroke-linecap:butt;stroke-linejoin:miter;stroke-opacity:1" d="M 588.836,599.94 598.09,616.597 z" id="boundary" inkscape:connector-curvature="0" />
	<path style="fill:none;stroke:red;stroke-width:1px;stroke-linecap:butt;stroke-linejoin:miter;stroke-opacity:1" d="M 590.687,957.134 605.493,968.239 z" id="boundary" inkscape:connector-curvature="0" />
	<path style="fill:none;stroke:red;stroke-width:1px;stroke-linecap:butt;stroke-linejoin:miter;stroke-opacity:1" d="M 598.09,616.597 607.343,633.254 z" id="boundary" inkscape:connector-curvature="0" />
	<path style="fill:none;stroke:red;stroke-width:1px;stroke-linecap:butt;stroke-linejoin:miter;stroke-opacity:1" d="M 605.493,968.239 616.597,983.045 z" id="boundary" inkscape:connector-curvature="0" />
	<path style="fill:none;stroke:red;stroke-width:1px;stroke-linecap:butt;stroke-linejoin:miter;stroke-opacity:1" d="M 607.343,633.254 616.597,649.91 z" id="boundary" inkscape:connector-curvature="0" />
	<path style="fill:none;stroke:red;stroke-width:1px;stroke-linecap:butt;stroke-linejoin:miter;stroke-opacity:1" d="M 616.597,649.91 625.851,666.567 z" id="boundary" inkscape:connector-curvature="0" />
	<path style="fill:none;stroke:red;stroke-width:1px;stroke-linecap:butt;stroke-linejoin:miter;stroke-opacity:1" d="M 616.597,983.045 631.403,996 z" id="boundary" inkscape:connector-curvature="0" />
	<path style="fill:none;stroke:red;stroke-width:1px;stroke-linecap:butt;stroke-linejoin:miter;stroke-opacity:1" d="M 625.851,666.567 625.851,685.075 z" id="boundary" inkscape:connector-curvature="0" />
	<path style="fill:none;stroke:red;stroke-width:1px;stroke-linecap:butt;stroke-linejoin:miter;stroke-opacity:1" d="M 625.851,685.075 642.507,694.328 z" id="boundary" inkscape:connector-curvature="0" />
	<path style="fill:none;stroke:red;stroke-width:1px;stroke-linecap:butt;stroke-linejoin:miter;stroke-opacity:1" d="M 631.403,996 649.91,996 z" id="boundary" inkscape:connector-curvature="0" />
	<path style="fill:none;stroke:red;stroke-width:1px;stroke-linecap:butt;stroke-linejoin:miter;stroke-opacity:1" d="M 642.507,694.328 651.761,710.985 z" id="boundary" inkscape:connector-curvature="0" />
	<path style="fill:none;stroke:red;stroke-width:1px;stroke-linecap:butt;stroke-linejoin:miter;stroke-opacity:1" d="M 649.91,996 668.418,996 z" id="boundary" inkscape:connector-curvature="0" />
	<path style="fill:none;stroke:red;stroke-width:1px;stroke-linecap:butt;stroke-linejoin:miter;stroke-opacity:1" d="M 651.761,710.985 662.866,725.791 z" id="boundary" inkscape:connector-curvature="0" />
	<path style="fill:none;stroke:red;stroke-width:1px;stroke-linecap:butt;stroke-linejoin:miter;stroke-opacity:1" d="M 662.866,725.791 677.672,736.896 z" id="boundary" inkscape:connector-curvature="0" />
	<path style="fill:none;stroke:red;stroke-width:1px;stroke-linecap:butt;stroke-linejoin:miter;stroke-opacity:1" d="M 668.418,996 686.925,996 z" id="boundary" inkscape:connector-curvature="0" />
	<path style="fill:none;stroke:red;stroke-width:1px;stroke-linecap:butt;stroke-linejoin:miter;stroke-opacity:1" d="M 677.672,736.896 690.627,751.701 z" id="boundary" inkscape:connector-curvature="0" />
	<path style="fill:none;stroke:red;stroke-width:1px;stroke-linecap:butt;stroke-linejoin:miter;stroke-opacity:1" d="M 686.925,996 703.582,984.896 z" id="boundary" inkscape:connector-curvature="0" />
	<path style="fill:none;stroke:red;stroke-width:1px;stroke-linecap:butt;stroke-linejoin:miter;stroke-opacity:1" d="M 690.627,751.701 705.433,762.806 z" id="boundary" inkscape:connector-curvature="0" />
	<path style="fill:none;stroke:red;stroke-width:1px;stroke-linecap:butt;stroke-linejoin:miter;stroke-opacity:1" d="M 703.582,984.896 722.09,977.493 z" id="boundary" inkscape:connector-curvature="0" />
	<path style="fill:none;stroke:red;stroke-width:1px;stroke-linecap:butt;stroke-linejoin:miter;stroke-opacity:1" d="M 705.433,762.806 722.09,772.06 z" id="boundary" inkscape:connector-curvature="0" />
	<path style="fill:none;stroke:red;stroke-width:1px;stroke-linecap:butt;stroke-linejoin:miter;stroke-opacity:1" d="M 722.09,772.06 738.746,781.313 z" id="boundary" inkscape:connector-curvature="0" />
	<path style="fill:none;stroke:red;stroke-width:1px;stroke-linecap:butt;stroke-linejoin:miter;stroke-opacity:1" d="M 722.09,977.493 738.746,968.239 z" id="boundary" inkscape:connector-curvature="0" />
	<path style="fill:none;stroke:red;stroke-width:1px;stroke-linecap:butt;stroke-linejoin:miter;stroke-opacity:1" d="M 738.746,781.313 746.149,799.821 z" id="boundary" inkscape:connector-curvature="0" />
	<path style="fill:none;stroke:red;stroke-width:1px;stroke-linecap:butt;stroke-linejoin:miter;stroke-opacity:1" d="M 738.746,968.239 757.254,973.791 z" id="boundary" inkscape:connector-curvature="0" />
	<path style="fill:none;stroke:red;stroke-width:1px;stroke-linecap:butt;stroke-linejoin:miter;stroke-opacity:1" d="M 746.149,799.821 764.657,805.373 z" id="boundary" inkscape:connector-curvature="0" />
	<path style="fill:none;stroke:red;stroke-width:1px;stroke-linecap:butt;stroke-linejoin:miter;stroke-opacity:1" d="M 757.254,973.791 775.761,977.493 z" id="boundary" inkscape:connector-curvature="0" />
	<path style="fill:none;stroke:red;stroke-width:1px;stroke-linecap:butt;stroke-linejoin:miter;stroke-opacity:1" d="M 764.657,805.373 777.612,820.179 z" id="boundary" inkscape:connector-curvature="0" />
	<path style="fill:none;stroke:red;stroke-width:1px;stroke-linecap:butt;stroke-linejoin:miter;stroke-opacity:1" d="M 775.761,977.493 794.269,977.493 z" id="boundary" inkscape:connector-curvature="0" />
	<path style="fill:none;stroke:red;stroke-width:1px;stroke-linecap:butt;stroke-linejoin:miter;stroke-opacity:1" d="M 777.612,820.179 796.119,827.582 z" id="boundary" inkscape:connector-curvature="0" />
	<path style="fill:none;stroke:red;stroke-width:1px;stroke-linecap:butt;stroke-linejoin:miter;stroke-opacity:1" d="M 794.269,977.493 810.925,968.239 z" id="boundary" inkscape:connector-curvature="0" />
	<path style="fill:none;stroke:red;stroke-width:1px;stroke-linecap:butt;stroke-linejoin:miter;stroke-opacity:1" d="M 796.119,827.582 812.776,836.836 z" id="boundary" inkscape:connector-curvature="0" />
	<path style="fill:none;stroke:red;stroke-width:1px;stroke-linecap:butt;stroke-linejoin:miter;stroke-opacity:1" d="M 810.925,968.239 827.582,958.985 z" id="boundary" inkscape:connector-curvature="0" />
	<path style="fill:none;stroke:red;stroke-width:1px;stroke-linecap:butt;stroke-linejoin:miter;stroke-opacity:1" d="M 812.776,836.836 820.179,855.343 z" id="boundary" inkscape:connector-curvature="0" />
	<path style="fill:none;stroke:red;stroke-width:1px;stroke-linecap:butt;stroke-linejoin:miter;stroke-opacity:1" d="M 820.179,855.343 838.687,860.896 z" id="boundary" inkscape:connector-curvature="0" />
	<path style="fill:none;stroke:red;stroke-width:1px;stroke-linecap:butt;stroke-linejoin:miter;stroke-opacity:1" d="M 827.582,958.985 846.09,958.985 z" id="boundary" inkscape:connector-curvature="0" />
	<path style="fill:none;stroke:red;stroke-width:1px;stroke-linecap:butt;stroke-linejoin:miter;stroke-opacity:1" d="M 838.687,860.896 853.493,873.851 z" id="boundary" inkscape:connector-curvature="0" />
	<path style="fill:none;stroke:red;stroke-width:1px;stroke-linecap:butt;stroke-linejoin:miter;stroke-opacity:1" d="M 846.09,958.985 864.597,953.433 z" id="boundary" inkscape:connector-curvature="0" />
	<path style="fill:none;stroke:red;stroke-width:1px;stroke-linecap:butt;stroke-linejoin:miter;stroke-opacity:1" d="M 853.493,873.851 866.448,888.657 z" id="boundary" inkscape:connector-curvature="0" />
	<path style="fill:none;stroke:red;stroke-width:1px;stroke-linecap:butt;stroke-linejoin:miter;stroke-opacity:1" d="M 864.597,953.433 879.403,938.627 z" id="boundary" inkscape:connector-curvature="0" />
	<path style="fill:none;stroke:red;stroke-width:1px;stroke-linecap:butt;stroke-linejoin:miter;stroke-opacity:1" d="M 866.448,888.657 883.104,897.91 z" id="boundary" inkscape:connector-curvature="0" />
	<path style="fill:none;stroke:red;stroke-width:1px;stroke-linecap:butt;stroke-linejoin:miter;stroke-opacity:1" d="M 879.403,938.627 884.955,916.418 z" id="boundary" inkscape:connector-curvature="0" />
	<path style="fill:none;stroke:red;stroke-width:1px;stroke-linecap:butt;stroke-linejoin:miter;stroke-opacity:1" d="M 883.104,897.91 884.955,916.418 z" id="boundary" inkscape:connector-curvature="0" />
	<circle cx="4" cy="296.418" r="4" fill="#0" id="circle0"/>
	<circle cx="4" cy="314.925" r="4" fill="#0" id="circle1"/>
	<circle cx="4" cy="333.433" r="4" fill="#0" id="circle2"/>
	<circle cx="4" cy="351.94" r="4" fill="#0" id="circle3"/>
	<circle cx="4" cy="370.448" r="4" fill="#0" id="circle4"/>
	<circle cx="4" cy="388.955" r="4" fill="#0" id="circle5"/>
	<circle cx="4" cy="407.463" r="4" fill="#0" id="circle6"/>
	<circle cx="4" cy="425.97" r="4" fill="#0" id="circle7"/>
	<circle cx="13.2537" cy="442.627" r="4" fill="#0" id="circle8"/>
	<circle cx="13.2537" cy="461.134" r="4" fill="#0" id="circle9"/>
	<circle cx="13.2537" cy="479.642" r="4" fill="#0" id="circle10"/>
	<circle cx="18.806" cy="281.612" r="4" fill="#0" id="circle11"/>
	<circle cx="22.5075" cy="120.597" r="4" fill="#0" id="circle12"/>
	<circle cx="22.5075" cy="139.104" r="4" fill="#0" id="circle13"/>
	<circle cx="22.5075" cy="250.149" r="4" fill="#0" id="circle14"/>
	<circle cx="22.5075" cy="496.299" r="4" fill="#0" id="circle15"/>
	<circle cx="22.5075" cy="514.806" r="4" fill="#0" id="circle16"/>
	<circle cx="31.7612" cy="155.761" r="4" fill="#0" id="circle17"/>
	<circle cx="31.7612" cy="531.463" r="4" fill="#0" id="circle18"/>
	<circle cx="37.3134" cy="105.791" r="4" fill="#0" id="circle19"/>
	<circle cx="37.3134" cy="235.343" r="4" fill="#0" id="circle20"/>
	<circle cx="41.0149" cy="83.5821" r="4" fill="#0" id="circle21"/>
	<circle cx="41.0149" cy="548.119" r="4" fill="#0" id="circle22"/>
	<circle cx="41.0149" cy="566.627" r="4" fill="#0" id="circle23"/>
	<circle cx="44.7164" cy="170.567" r="4" fill="#0" id="circle24"/>
	<circle cx="46.5672" cy="216.836" r="4" fill="#0" id="circle25"/>
	<circle cx="50.2687" cy="189.075" r="4" fill="#0" id="circle26"/>
	<circle cx="50.2687" cy="583.284" r="4" fill="#0" id="circle27"/>
	<circle cx="55.8209" cy="68.7761" r="4" fill="#0" id="circle28"/>
	<circle cx="59.5224" cy="599.94" r="4" fill="#0" id="circle29"/>
	<circle cx="65.0746" cy="50.2687" r="4" fill="#0" id="circle30"/>
	<circle cx="72.4776" cy="614.746" r="4" fill="#0" id="circle31"/>
	<circle cx="74.3284" cy="31.7612" r="4" fill="#0" id="circle32"/>
	<circle cx="87.2836" cy="9.55224" r="4" fill="#0" id="circle33"/>
	<circle cx="87.2836" cy="625.851" r="4" fill="#0" id="circle34"/>
	<circle cx="92.8358" cy="644.358" r="4" fill="#0" id="circle35"/>
	<circle cx="105.791" cy="4" r="4" fill="#0" id="circle36"/>
	<circle cx="107.642" cy="657.313" r="4" fill="#0" id="circle37"/>
	<circle cx="120.597" cy="672.119" r="4" fill="#0" id="circle38"/>
	<circle cx="124.299" cy="4" r="4" fill="#0" id="circle39"/>
	<circle cx="137.254" cy="681.373" r="4" fill="#0" id="circle40"/>
	<circle cx="139.104" cy="15.1045" r="4" fill="#0" id="circle41"/>
	<circle cx="146.507" cy="698.03" r="4" fill="#0" id="circle42"/>
	<circle cx="153.91" cy="28.0597" r="4" fill="#0" id="circle43"/>
	<circle cx="163.164" cy="44.7164" r="4" fill="#0" id="circle44"/>
	<circle cx="165.015" cy="705.433" r="4" fill="#0" id="circle45"/>
	<circle cx="168.716" cy="63.2239" r="4" fill="#0" id="circle46"/>
	<circle cx="179.821" cy="718.388" r="4" fill="#0" id="circle47"/>
	<circle cx="181.672" cy="78.0299" r="4" fill="#0" id="circle48"/>
	<circle cx="189.075" cy="870.149" r="4" fill="#0" id="circle49"/>
	<circle cx="190.925" cy="94.6866" r="4" fill="#0" id="circle50"/>
	<circle cx="190.925" cy="733.194" r="4" fill="#0" id="circle51"/>
	<circle cx="200.179" cy="111.343" r="4" fill="#0" id="circle52"/>
	<circle cx="200.179" cy="884.955" r="4" fill="#0" id="circle53"/>
	<circle cx="207.582" cy="860.896" r="4" fill="#0" id="circle54"/>
	<circle cx="209.433" cy="128" r="4" fill="#0" id="circle55"/>
	<circle cx="209.433" cy="146.507" r="4" fill="#0" id="circle56"/>
	<circle cx="209.433" cy="736.896" r="4" fill="#0" id="circle57"/>
	<circle cx="218.687" cy="884.955" r="4" fill="#0" id="circle58"/>
	<circle cx="220.537" cy="161.313" r="4" fill="#0" id="circle59"/>
	<circle cx="226.09" cy="746.149" r="4" fill="#0" id="circle60"/>
	<circle cx="226.09" cy="842.388" r="4" fill="#0" id="circle61"/>
	<circle cx="227.94" cy="179.821" r="4" fill="#0" id="circle62"/>
	<circle cx="227.94" cy="198.328" r="4" fill="#0" id="circle63"/>
	<circle cx="235.343" cy="762.806" r="4" fill="#0" id="circle64"/>
	<circle cx="237.194" cy="884.955" r="4" fill="#0" id="circle65"/>
	<circle cx="240.896" cy="827.582" r="4" fill="#0" id="circle66"/>
	<circle cx="244.597" cy="779.463" r="4" fill="#0" id="circle67"/>
	<circle cx="244.597" cy="797.97" r="4" fill="#0" id="circle68"/>
	<circle cx="246.448" cy="203.881" r="4" fill="#0" id="circle69"/>
	<circle cx="255.701" cy="838.687" r="4" fill="#0" id="circle70"/>
	<circle cx="255.701" cy="884.955" r="4" fill="#0" id="circle71"/>
	<circle cx="259.403" cy="218.687" r="4" fill="#0" id="circle72"/>
	<circle cx="259.403" cy="857.194" r="4" fill="#0" id="circle73"/>
	<circle cx="264.955" cy="820.179" r="4" fill="#0" id="circle74"/>
	<circle cx="268.657" cy="235.343" r="4" fill="#0" id="circle75"/>
	<circle cx="274.209" cy="801.672" r="4" fill="#0" id="circle76"/>
	<circle cx="285.313" cy="244.597" r="4" fill="#0" id="circle77"/>
	<circle cx="290.866" cy="792.418" r="4" fill="#0" id="circle78"/>
	<circle cx="300.119" cy="257.552" r="4" fill="#0" id="circle79"/>
	<circle cx="309.373" cy="792.418" r="4" fill="#0" id="circle80"/>
	<circle cx="316.776" cy="266.806" r="4" fill="#0" id="circle81"/>
	<circle cx="318.627" cy="879.403" r="4" fill="#0" id="circle82"/>
	<circle cx="327.881" cy="792.418" r="4" fill="#0" id="circle83"/>
	<circle cx="327.881" cy="860.896" r="4" fill="#0" id="circle84"/>
	<circle cx="329.731" cy="281.612" r="4" fill="#0" id="circle85"/>
	<circle cx="337.134" cy="884.955" r="4" fill="#0" id="circle86"/>
	<circle cx="344.537" cy="801.672" r="4" fill="#0" id="circle87"/>
	<circle cx="346.388" cy="820.179" r="4" fill="#0" id="circle88"/>
	<circle cx="346.388" cy="838.687" r="4" fill="#0" id="circle89"/>
	<circle cx="348.239" cy="287.164" r="4" fill="#0" id="circle90"/>
	<circle cx="355.642" cy="884.955" r="4" fill="#0" id="circle91"/>
	<circle cx="363.045" cy="300.119" r="4" fill="#0" id="circle92"/>
	<circle cx="366.746" cy="829.433" r="4" fill="#0" id="circle93"/>
	<circle cx="366.746" cy="847.94" r="4" fill="#0" id="circle94"/>
	<circle cx="374.149" cy="879.403" r="4" fill="#0" id="circle95"/>
	<circle cx="379.701" cy="309.373" r="4" fill="#0" id="circle96"/>
	<circle cx="381.552" cy="816.478" r="4" fill="#0" id="circle97"/>
	<circle cx="392.657" cy="324.179" r="4" fill="#0" id="circle98"/>
	<circle cx="392.657" cy="801.672" r="4" fill="#0" id="circle99"/>
	<circle cx="403.761" cy="773.91" r="4" fill="#0" id="circle100"/>
	<circle cx="411.164" cy="331.582" r="4" fill="#0" id="circle101"/>
	<circle cx="420.418" cy="764.657" r="4" fill="#0" id="circle102"/>
	<circle cx="422.269" cy="346.388" r="4" fill="#0" id="circle103"/>
	<circle cx="437.075" cy="357.493" r="4" fill="#0" id="circle104"/>
	<circle cx="437.075" cy="773.91" r="4" fill="#0" id="circle105"/>
	<circle cx="450.03" cy="372.299" r="4" fill="#0" id="circle106"/>
	<circle cx="453.731" cy="783.164" r="4" fill="#0" id="circle107"/>
	<circle cx="464.836" cy="385.254" r="4" fill="#0" id="circle108"/>
	<circle cx="466.687" cy="797.97" r="4" fill="#0" id="circle109"/>
	<circle cx="472.239" cy="403.761" r="4" fill="#0" id="circle110"/>
	<circle cx="475.94" cy="814.627" r="4" fill="#0" id="circle111"/>
	<circle cx="487.045" cy="416.716" r="4" fill="#0" id="circle112"/>
	<circle cx="494.448" cy="820.179" r="4" fill="#0" id="circle113"/>
	<circle cx="500" cy="431.522" r="4" fill="#0" id="circle114"/>
	<circle cx="505.552" cy="834.985" r="4" fill="#0" id="circle115"/>
	<circle cx="509.254" cy="448.179" r="4" fill="#0" id="circle116"/>
	<circle cx="514.806" cy="851.642" r="4" fill="#0" id="circle117"/>
	<circle cx="522.209" cy="462.985" r="4" fill="#0" id="circle118"/>
	<circle cx="522.209" cy="870.149" r="4" fill="#0" id="circle119"/>
	<circle cx="531.463" cy="479.642" r="4" fill="#0" id="circle120"/>
	<circle cx="538.866" cy="498.149" r="4" fill="#0" id="circle121"/>
	<circle cx="540.716" cy="875.701" r="4" fill="#0" id="circle122"/>
	<circle cx="546.269" cy="894.209" r="4" fill="#0" id="circle123"/>
	<circle cx="551.821" cy="512.955" r="4" fill="#0" id="circle124"/>
	<circle cx="561.075" cy="529.612" r="4" fill="#0" id="circle125"/>
	<circle cx="561.075" cy="907.164" r="4" fill="#0" id="circle126"/>
	<circle cx="570.328" cy="546.269" r="4" fill="#0" id="circle127"/>
	<circle cx="574.03" cy="921.97" r="4" fill="#0" id="circle128"/>
	<circle cx="577.731" cy="564.776" r="4" fill="#0" id="circle129"/>
	<circle cx="583.284" cy="938.627" r="4" fill="#0" id="circle130"/>
	<circle cx="586.985" cy="581.433" r="4" fill="#0" id="circle131"/>
	<circle cx="588.836" cy="599.94" r="4" fill="#0" id="circle132"/>
	<circle cx="590.687" cy="957.134" r="4" fill="#0" id="circle133"/>
	<circle cx="598.09" cy="616.597" r="4" fill="#0" id="circle134"/>
	<circle cx="605.493" cy="968.239" r="4" fill="#0" id="circle135"/>
	<circle cx="607.343" cy="633.254" r="4" fill="#0" id="circle136"/>
	<circle cx="616.597" cy="649.91" r="4" fill="#0" id="circle137"/>
	<circle cx="616.597" cy="983.045" r="4" fill="#0" id="circle138"/>
	<circle cx="625.851" cy="666.567" r="4" fill="#0" id="circle139"/>
	<circle cx="625.851" cy="685.075" r="4" fill="#0" id="circle140"/>
	<circle cx="631.403" cy="996" r="4" fill="#0" id="circle141"/>
	<circle cx="642.507" cy="694.328" r="4" fill="#0" id="circle142"/>
	<circle cx="649.91" cy="996" r="4" fill="#0" id="circle143"/>
	<circle cx="651.761" cy="710.985" r="4" fill="#0" id="circle144"/>
	<circle cx="662.866" cy="725.791" r="4" fill="#0" id="circle145"/>
	<circle cx="668.418" cy="996" r="4" fill="#0" id="circle146"/>
	<circle cx="677.672" cy="736.896" r="4" fill="#0" id="circle147"/>
	<circle cx="686.925" cy="996" r="4" fill="#0" id="circle148"/>
	<circle cx="690.627" cy="751.701" r="4" fill="#0" id="circle149"/>
	<circle cx="703.582" cy="984.896" r="4" fill="#0" id="circle150"/>
	<circle cx="705.433" cy="762.806" r="4" fill="#0" id="circle151"/>
	<circle cx="722.09" cy="772.06" r="4" fill="#0" id="circle152"/>
	<circle cx="722.09" cy="977.493" r="4" fill="#0" id="circle153"/>
	<circle cx="738.746" cy="781.313" r="4" fill="#0" id="circle154"/>
	<circle cx="738.746" cy="968.239" r="4" fill="#0" id="circle155"/>
	<circle cx="746.149" cy="799.821" r="4" fill="#0" id="circle156"/>
	<circle cx="757.254" cy="973.791" r="4" fill="#0" id="circle157"/>
	<circle cx="764.657" cy="805.373" r="4" fill="#0" id="circle158"/>
	<circle cx="775.761" cy="977.493" r="4" fill="#0" id="circle159"/>
	<circle cx="777.612" cy="820.179" r="4" fill="#0" id="circle160"/>
	<circle cx="794.269" cy="977.493" r="4" fill="#0" id="circle161"/>
	<circle cx="796.119" cy="827.582" r="4" fill="#0" id="circle162"/>
	<circle cx="810.925" cy="968.239" r="4" fill="#0" id="circle163"/>
	<circle cx="812.776" cy="836.836" r="4" fill="#0" id="circle164"/>
	<circle cx="820.179" cy="855.343" r="4" fill="#0" id="circle165"/>
	<circle cx="827.582" cy="958.985" r="4" fill="#0" id="circle166"/>
	<circle cx="838.687" cy="860.896" r="4" fill="#0" id="circle167"/>
	<circle cx="846.09" cy="958.985" r="4" fill="#0" id="circle168"/>
	<circle cx="853.493" cy="873.851" r="4" fill="#0" id="circle169"/>
	<circle cx="864.597" cy="953.433" r="4" fill="#0" id="circle170"/>
	<circle cx="866.448" cy="888.657" r="4" fill="#0" id="circle171"/>
	<circle cx="879.403" cy="938.627" r="4" fill="#0" id="circle172"/>
	<circle cx="883.104" cy="897.91" r="4" fill="#0" id="circle173"/>
	<circle cx="884.955" cy="916.418" r="4" fill="#0" id="circle174"/>
	</g>
</svg>