<?xml version="1.0" encoding="UTF-8" standalone="no"?>
<!-- Created with CurveBenchmark -->
<svg
	xmlns:dc="http://purl.org/dc/elements/1.1/"
	xmlns:cc="http://creativecommons.org/ns#"
	xmlns:rdf="http://www.w3.org/1999/02/22-rdf-syntax-ns#"
	xmlns:svg="http://www.w3.org/2000/svg"
	xmlns="http://www.w3.org/2000/svg"
	xmlns:sodipodi="http://sodipodi.sourceforge.net/DTD/sodipodi-0.dtd"
	xmlns:inkscape="http://www.inkscape.org/namespaces/inkscape"
	width="1000"
	height="1000"
	id="svg2"
	version="1.1"
	sodipodi:docname="manifold/discur-dino15.png.txt">
<defs
	id="defs4" />
<metadata
	id="metadata7">
	<rdf:RDF>
		<cc:Work
			rdf:about="">
			<dc:format>image/svg+xml</dc:format>
			<dc:type
				rdf:resource="http://purl.org/dc/dcmitype/StillImage" />
			<dc:title></dc:title>
		</cc:Work>
	</rdf:RDF>
</metadata>
<g
	inkscape:label="Layer 1"
	inkscape:groupmode="layer"
	id="layer1">
	<path style="fill:none;stroke:red;stroke-width:1px;stroke-linecap:butt;stroke-linejoin:miter;stroke-opacity:1" d="M 4,142.263 4,155.686 z" id="boundary" inkscape:connector-curvature="0" />
	<path style="fill:none;stroke:red;stroke-width:1px;stroke-linecap:butt;stroke-linejoin:miter;stroke-opacity:1" d="M 4,142.263 10.7118,128.839 z" id="boundary" inkscape:connector-curvature="0" />
	<path style="fill:none;stroke:red;stroke-width:1px;stroke-linecap:butt;stroke-linejoin:miter;stroke-opacity:1" d="M 4,155.686 4,169.11 z" id="boundary" inkscape:connector-curvature="0" />
	<path style="fill:none;stroke:red;stroke-width:1px;stroke-linecap:butt;stroke-linejoin:miter;stroke-opacity:1" d="M 4,169.11 4,182.533 z" id="boundary" inkscape:connector-curvature="0" />
	<path style="fill:none;stroke:red;stroke-width:1px;stroke-linecap:butt;stroke-linejoin:miter;stroke-opacity:1" d="M 4,182.533 4,195.957 z" id="boundary" inkscape:connector-curvature="0" />
	<path style="fill:none;stroke:red;stroke-width:1px;stroke-linecap:butt;stroke-linejoin:miter;stroke-opacity:1" d="M 4,195.957 4,209.38 z" id="boundary" inkscape:connector-curvature="0" />
	<path style="fill:none;stroke:red;stroke-width:1px;stroke-linecap:butt;stroke-linejoin:miter;stroke-opacity:1" d="M 4,209.38 4,222.804 z" id="boundary" inkscape:connector-curvature="0" />
	<path style="fill:none;stroke:red;stroke-width:1px;stroke-linecap:butt;stroke-linejoin:miter;stroke-opacity:1" d="M 4,222.804 4,236.227 z" id="boundary" inkscape:connector-curvature="0" />
	<path style="fill:none;stroke:red;stroke-width:1px;stroke-linecap:butt;stroke-linejoin:miter;stroke-opacity:1" d="M 4,236.227 4,249.651 z" id="boundary" inkscape:connector-curvature="0" />
	<path style="fill:none;stroke:red;stroke-width:1px;stroke-linecap:butt;stroke-linejoin:miter;stroke-opacity:1" d="M 4,249.651 4,263.074 z" id="boundary" inkscape:connector-curvature="0" />
	<path style="fill:none;stroke:red;stroke-width:1px;stroke-linecap:butt;stroke-linejoin:miter;stroke-opacity:1" d="M 4,263.074 14.7388,272.471 z" id="boundary" inkscape:connector-curvature="0" />
	<path style="fill:none;stroke:red;stroke-width:1px;stroke-linecap:butt;stroke-linejoin:miter;stroke-opacity:1" d="M 10.7118,115.415 10.7118,128.839 z" id="boundary" inkscape:connector-curvature="0" />
	<path style="fill:none;stroke:red;stroke-width:1px;stroke-linecap:butt;stroke-linejoin:miter;stroke-opacity:1" d="M 10.7118,115.415 21.4506,104.677 z" id="boundary" inkscape:connector-curvature="0" />
	<path style="fill:none;stroke:red;stroke-width:1px;stroke-linecap:butt;stroke-linejoin:miter;stroke-opacity:1" d="M 14.7388,272.471 26.82,279.183 z" id="boundary" inkscape:connector-curvature="0" />
	<path style="fill:none;stroke:red;stroke-width:1px;stroke-linecap:butt;stroke-linejoin:miter;stroke-opacity:1" d="M 21.4506,104.677 24.1353,88.5683 z" id="boundary" inkscape:connector-curvature="0" />
	<path style="fill:none;stroke:red;stroke-width:1px;stroke-linecap:butt;stroke-linejoin:miter;stroke-opacity:1" d="M 24.1353,88.5683 34.8742,77.8295 z" id="boundary" inkscape:connector-curvature="0" />
	<path style="fill:none;stroke:red;stroke-width:1px;stroke-linecap:butt;stroke-linejoin:miter;stroke-opacity:1" d="M 26.82,279.183 37.5589,287.237 z" id="boundary" inkscape:connector-curvature="0" />
	<path style="fill:none;stroke:red;stroke-width:1px;stroke-linecap:butt;stroke-linejoin:miter;stroke-opacity:1" d="M 34.8742,77.8295 41.5859,64.406 z" id="boundary" inkscape:connector-curvature="0" />
	<path style="fill:none;stroke:red;stroke-width:1px;stroke-linecap:butt;stroke-linejoin:miter;stroke-opacity:1" d="M 37.5589,287.237 49.6401,293.949 z" id="boundary" inkscape:connector-curvature="0" />
	<path style="fill:none;stroke:red;stroke-width:1px;stroke-linecap:butt;stroke-linejoin:miter;stroke-opacity:1" d="M 41.5859,64.406 52.3248,53.6671 z" id="boundary" inkscape:connector-curvature="0" />
	<path style="fill:none;stroke:red;stroke-width:1px;stroke-linecap:butt;stroke-linejoin:miter;stroke-opacity:1" d="M 49.6401,293.949 63.0636,291.264 z" id="boundary" inkscape:connector-curvature="0" />
	<path style="fill:none;stroke:red;stroke-width:1px;stroke-linecap:butt;stroke-linejoin:miter;stroke-opacity:1" d="M 52.3248,53.6671 63.0636,44.2706 z" id="boundary" inkscape:connector-curvature="0" />
	<path style="fill:none;stroke:red;stroke-width:1px;stroke-linecap:butt;stroke-linejoin:miter;stroke-opacity:1" d="M 63.0636,44.2706 72.4601,33.5318 z" id="boundary" inkscape:connector-curvature="0" />
	<path style="fill:none;stroke:red;stroke-width:1px;stroke-linecap:butt;stroke-linejoin:miter;stroke-opacity:1" d="M 63.0636,291.264 71.1177,280.525 z" id="boundary" inkscape:connector-curvature="0" />
	<path style="fill:none;stroke:red;stroke-width:1px;stroke-linecap:butt;stroke-linejoin:miter;stroke-opacity:1" d="M 71.1177,280.525 79.1719,260.39 z" id="boundary" inkscape:connector-curvature="0" />
	<path style="fill:none;stroke:red;stroke-width:1px;stroke-linecap:butt;stroke-linejoin:miter;stroke-opacity:1" d="M 72.4601,33.5318 85.8836,26.82 z" id="boundary" inkscape:connector-curvature="0" />
	<path style="fill:none;stroke:red;stroke-width:1px;stroke-linecap:butt;stroke-linejoin:miter;stroke-opacity:1" d="M 79.1719,260.39 89.9107,250.993 z" id="boundary" inkscape:connector-curvature="0" />
	<path style="fill:none;stroke:red;stroke-width:1px;stroke-linecap:butt;stroke-linejoin:miter;stroke-opacity:1" d="M 85.8836,26.82 96.6225,17.4235 z" id="boundary" inkscape:connector-curvature="0" />
	<path style="fill:none;stroke:red;stroke-width:1px;stroke-linecap:butt;stroke-linejoin:miter;stroke-opacity:1" d="M 89.9107,250.993 92.5954,233.543 z" id="boundary" inkscape:connector-curvature="0" />
	<path style="fill:none;stroke:red;stroke-width:1px;stroke-linecap:butt;stroke-linejoin:miter;stroke-opacity:1" d="M 92.5954,233.543 99.3072,220.119 z" id="boundary" inkscape:connector-curvature="0" />
	<path style="fill:none;stroke:red;stroke-width:1px;stroke-linecap:butt;stroke-linejoin:miter;stroke-opacity:1" d="M 96.6225,17.4235 108.704,10.7118 z" id="boundary" inkscape:connector-curvature="0" />
	<path style="fill:none;stroke:red;stroke-width:1px;stroke-linecap:butt;stroke-linejoin:miter;stroke-opacity:1" d="M 99.3072,220.119 106.019,206.696 z" id="boundary" inkscape:connector-curvature="0" />
	<path style="fill:none;stroke:red;stroke-width:1px;stroke-linecap:butt;stroke-linejoin:miter;stroke-opacity:1" d="M 106.019,206.696 118.1,213.407 z" id="boundary" inkscape:connector-curvature="0" />
	<path style="fill:none;stroke:red;stroke-width:1px;stroke-linecap:butt;stroke-linejoin:miter;stroke-opacity:1" d="M 108.704,10.7118 122.127,10.7118 z" id="boundary" inkscape:connector-curvature="0" />
	<path style="fill:none;stroke:red;stroke-width:1px;stroke-linecap:butt;stroke-linejoin:miter;stroke-opacity:1" d="M 118.1,213.407 118.1,226.831 z" id="boundary" inkscape:connector-curvature="0" />
	<path style="fill:none;stroke:red;stroke-width:1px;stroke-linecap:butt;stroke-linejoin:miter;stroke-opacity:1" d="M 118.1,226.831 118.1,249.651 z" id="boundary" inkscape:connector-curvature="0" />
	<path style="fill:none;stroke:red;stroke-width:1px;stroke-linecap:butt;stroke-linejoin:miter;stroke-opacity:1" d="M 118.1,249.651 128.839,259.047 z" id="boundary" inkscape:connector-curvature="0" />
	<path style="fill:none;stroke:red;stroke-width:1px;stroke-linecap:butt;stroke-linejoin:miter;stroke-opacity:1" d="M 122.127,10.7118 134.208,4 z" id="boundary" inkscape:connector-curvature="0" />
	<path style="fill:none;stroke:red;stroke-width:1px;stroke-linecap:butt;stroke-linejoin:miter;stroke-opacity:1" d="M 124.812,276.498 128.839,259.047 z" id="boundary" inkscape:connector-curvature="0" />
	<path style="fill:none;stroke:red;stroke-width:1px;stroke-linecap:butt;stroke-linejoin:miter;stroke-opacity:1" d="M 124.812,276.498 131.524,288.579 z" id="boundary" inkscape:connector-curvature="0" />
	<path style="fill:none;stroke:red;stroke-width:1px;stroke-linecap:butt;stroke-linejoin:miter;stroke-opacity:1" d="M 131.524,288.579 138.235,300.66 z" id="boundary" inkscape:connector-curvature="0" />
	<path style="fill:none;stroke:red;stroke-width:1px;stroke-linecap:butt;stroke-linejoin:miter;stroke-opacity:1" d="M 134.208,4 147.632,4 z" id="boundary" inkscape:connector-curvature="0" />
	<path style="fill:none;stroke:red;stroke-width:1px;stroke-linecap:butt;stroke-linejoin:miter;stroke-opacity:1" d="M 138.235,300.66 146.29,311.399 z" id="boundary" inkscape:connector-curvature="0" />
	<path style="fill:none;stroke:red;stroke-width:1px;stroke-linecap:butt;stroke-linejoin:miter;stroke-opacity:1" d="M 146.29,311.399 159.713,314.084 z" id="boundary" inkscape:connector-curvature="0" />
	<path style="fill:none;stroke:red;stroke-width:1px;stroke-linecap:butt;stroke-linejoin:miter;stroke-opacity:1" d="M 147.632,4 161.055,4 z" id="boundary" inkscape:connector-curvature="0" />
	<path style="fill:none;stroke:red;stroke-width:1px;stroke-linecap:butt;stroke-linejoin:miter;stroke-opacity:1" d="M 159.713,314.084 171.794,307.372 z" id="boundary" inkscape:connector-curvature="0" />
	<path style="fill:none;stroke:red;stroke-width:1px;stroke-linecap:butt;stroke-linejoin:miter;stroke-opacity:1" d="M 161.055,4 173.137,10.7118 z" id="boundary" inkscape:connector-curvature="0" />
	<path style="fill:none;stroke:red;stroke-width:1px;stroke-linecap:butt;stroke-linejoin:miter;stroke-opacity:1" d="M 165.083,343.616 171.794,355.697 z" id="boundary" inkscape:connector-curvature="0" />
	<path style="fill:none;stroke:red;stroke-width:1px;stroke-linecap:butt;stroke-linejoin:miter;stroke-opacity:1" d="M 165.083,343.616 175.821,332.877 z" id="boundary" inkscape:connector-curvature="0" />
	<path style="fill:none;stroke:red;stroke-width:1px;stroke-linecap:butt;stroke-linejoin:miter;stroke-opacity:1" d="M 171.794,307.372 185.218,303.345 z" id="boundary" inkscape:connector-curvature="0" />
	<path style="fill:none;stroke:red;stroke-width:1px;stroke-linecap:butt;stroke-linejoin:miter;stroke-opacity:1" d="M 171.794,355.697 185.218,357.039 z" id="boundary" inkscape:connector-curvature="0" />
	<path style="fill:none;stroke:red;stroke-width:1px;stroke-linecap:butt;stroke-linejoin:miter;stroke-opacity:1" d="M 173.137,10.7118 186.56,10.7118 z" id="boundary" inkscape:connector-curvature="0" />
	<path style="fill:none;stroke:red;stroke-width:1px;stroke-linecap:butt;stroke-linejoin:miter;stroke-opacity:1" d="M 175.821,332.877 187.903,326.165 z" id="boundary" inkscape:connector-curvature="0" />
	<path style="fill:none;stroke:red;stroke-width:1px;stroke-linecap:butt;stroke-linejoin:miter;stroke-opacity:1" d="M 185.218,303.345 195.957,293.949 z" id="boundary" inkscape:connector-curvature="0" />
	<path style="fill:none;stroke:red;stroke-width:1px;stroke-linecap:butt;stroke-linejoin:miter;stroke-opacity:1" d="M 185.218,357.039 195.957,347.643 z" id="boundary" inkscape:connector-curvature="0" />
	<path style="fill:none;stroke:red;stroke-width:1px;stroke-linecap:butt;stroke-linejoin:miter;stroke-opacity:1" d="M 185.218,430.869 185.218,444.292 z" id="boundary" inkscape:connector-curvature="0" />
	<path style="fill:none;stroke:red;stroke-width:1px;stroke-linecap:butt;stroke-linejoin:miter;stroke-opacity:1" d="M 185.218,430.869 191.93,417.445 z" id="boundary" inkscape:connector-curvature="0" />
	<path style="fill:none;stroke:red;stroke-width:1px;stroke-linecap:butt;stroke-linejoin:miter;stroke-opacity:1" d="M 185.218,444.292 209.38,448.319 z" id="boundary" inkscape:connector-curvature="0" />
	<path style="fill:none;stroke:red;stroke-width:1px;stroke-linecap:butt;stroke-linejoin:miter;stroke-opacity:1" d="M 186.56,10.7118 198.641,17.4235 z" id="boundary" inkscape:connector-curvature="0" />
	<path style="fill:none;stroke:red;stroke-width:1px;stroke-linecap:butt;stroke-linejoin:miter;stroke-opacity:1" d="M 187.903,326.165 199.984,319.453 z" id="boundary" inkscape:connector-curvature="0" />
	<path style="fill:none;stroke:red;stroke-width:1px;stroke-linecap:butt;stroke-linejoin:miter;stroke-opacity:1" d="M 191.93,417.445 205.353,410.733 z" id="boundary" inkscape:connector-curvature="0" />
	<path style="fill:none;stroke:red;stroke-width:1px;stroke-linecap:butt;stroke-linejoin:miter;stroke-opacity:1" d="M 195.957,293.949 208.038,287.237 z" id="boundary" inkscape:connector-curvature="0" />
	<path style="fill:none;stroke:red;stroke-width:1px;stroke-linecap:butt;stroke-linejoin:miter;stroke-opacity:1" d="M 195.957,347.643 198.641,363.751 z" id="boundary" inkscape:connector-curvature="0" />
	<path style="fill:none;stroke:red;stroke-width:1px;stroke-linecap:butt;stroke-linejoin:miter;stroke-opacity:1" d="M 195.957,453.689 205.353,464.428 z" id="boundary" inkscape:connector-curvature="0" />
	<path style="fill:none;stroke:red;stroke-width:1px;stroke-linecap:butt;stroke-linejoin:miter;stroke-opacity:1" d="M 195.957,453.689 209.38,448.319 z" id="boundary" inkscape:connector-curvature="0" />
	<path style="fill:none;stroke:red;stroke-width:1px;stroke-linecap:butt;stroke-linejoin:miter;stroke-opacity:1" d="M 198.641,17.4235 210.723,24.1353 z" id="boundary" inkscape:connector-curvature="0" />
	<path style="fill:none;stroke:red;stroke-width:1px;stroke-linecap:butt;stroke-linejoin:miter;stroke-opacity:1" d="M 198.641,363.751 198.641,377.175 z" id="boundary" inkscape:connector-curvature="0" />
	<path style="fill:none;stroke:red;stroke-width:1px;stroke-linecap:butt;stroke-linejoin:miter;stroke-opacity:1" d="M 198.641,377.175 206.696,387.913 z" id="boundary" inkscape:connector-curvature="0" />
	<path style="fill:none;stroke:red;stroke-width:1px;stroke-linecap:butt;stroke-linejoin:miter;stroke-opacity:1" d="M 199.984,319.453 213.407,319.453 z" id="boundary" inkscape:connector-curvature="0" />
	<path style="fill:none;stroke:red;stroke-width:1px;stroke-linecap:butt;stroke-linejoin:miter;stroke-opacity:1" d="M 205.353,410.733 216.092,399.995 z" id="boundary" inkscape:connector-curvature="0" />
	<path style="fill:none;stroke:red;stroke-width:1px;stroke-linecap:butt;stroke-linejoin:miter;stroke-opacity:1" d="M 205.353,464.428 205.353,477.851 z" id="boundary" inkscape:connector-curvature="0" />
	<path style="fill:none;stroke:red;stroke-width:1px;stroke-linecap:butt;stroke-linejoin:miter;stroke-opacity:1" d="M 205.353,477.851 212.065,489.932 z" id="boundary" inkscape:connector-curvature="0" />
	<path style="fill:none;stroke:red;stroke-width:1px;stroke-linecap:butt;stroke-linejoin:miter;stroke-opacity:1" d="M 206.696,387.913 217.434,378.517 z" id="boundary" inkscape:connector-curvature="0" />
	<path style="fill:none;stroke:red;stroke-width:1px;stroke-linecap:butt;stroke-linejoin:miter;stroke-opacity:1" d="M 208.038,287.237 213.407,273.813 z" id="boundary" inkscape:connector-curvature="0" />
	<path style="fill:none;stroke:red;stroke-width:1px;stroke-linecap:butt;stroke-linejoin:miter;stroke-opacity:1" d="M 210.723,24.1353 222.804,30.8471 z" id="boundary" inkscape:connector-curvature="0" />
	<path style="fill:none;stroke:red;stroke-width:1px;stroke-linecap:butt;stroke-linejoin:miter;stroke-opacity:1" d="M 212.065,489.932 221.461,500.671 z" id="boundary" inkscape:connector-curvature="0" />
	<path style="fill:none;stroke:red;stroke-width:1px;stroke-linecap:butt;stroke-linejoin:miter;stroke-opacity:1" d="M 213.407,273.813 220.119,260.39 z" id="boundary" inkscape:connector-curvature="0" />
	<path style="fill:none;stroke:red;stroke-width:1px;stroke-linecap:butt;stroke-linejoin:miter;stroke-opacity:1" d="M 213.407,319.453 226.831,319.453 z" id="boundary" inkscape:connector-curvature="0" />
	<path style="fill:none;stroke:red;stroke-width:1px;stroke-linecap:butt;stroke-linejoin:miter;stroke-opacity:1" d="M 216.092,399.995 229.516,399.995 z" id="boundary" inkscape:connector-curvature="0" />
	<path style="fill:none;stroke:red;stroke-width:1px;stroke-linecap:butt;stroke-linejoin:miter;stroke-opacity:1" d="M 217.434,378.517 226.831,367.778 z" id="boundary" inkscape:connector-curvature="0" />
	<path style="fill:none;stroke:red;stroke-width:1px;stroke-linecap:butt;stroke-linejoin:miter;stroke-opacity:1" d="M 220.119,260.39 226.831,240.254 z" id="boundary" inkscape:connector-curvature="0" />
	<path style="fill:none;stroke:red;stroke-width:1px;stroke-linecap:butt;stroke-linejoin:miter;stroke-opacity:1" d="M 222.804,30.8471 234.885,37.5589 z" id="boundary" inkscape:connector-curvature="0" />
	<path style="fill:none;stroke:red;stroke-width:1px;stroke-linecap:butt;stroke-linejoin:miter;stroke-opacity:1" d="M 226.831,240.254 240.254,240.254 z" id="boundary" inkscape:connector-curvature="0" />
	<path style="fill:none;stroke:red;stroke-width:1px;stroke-linecap:butt;stroke-linejoin:miter;stroke-opacity:1" d="M 226.831,319.453 240.254,319.453 z" id="boundary" inkscape:connector-curvature="0" />
	<path style="fill:none;stroke:red;stroke-width:1px;stroke-linecap:butt;stroke-linejoin:miter;stroke-opacity:1" d="M 226.831,367.778 237.57,358.382 z" id="boundary" inkscape:connector-curvature="0" />
	<path style="fill:none;stroke:red;stroke-width:1px;stroke-linecap:butt;stroke-linejoin:miter;stroke-opacity:1" d="M 226.831,461.743 226.831,475.166 z" id="boundary" inkscape:connector-curvature="0" />
	<path style="fill:none;stroke:red;stroke-width:1px;stroke-linecap:butt;stroke-linejoin:miter;stroke-opacity:1" d="M 226.831,461.743 238.912,455.031 z" id="boundary" inkscape:connector-curvature="0" />
	<path style="fill:none;stroke:red;stroke-width:1px;stroke-linecap:butt;stroke-linejoin:miter;stroke-opacity:1" d="M 226.831,475.166 233.543,487.248 z" id="boundary" inkscape:connector-curvature="0" />
	<path style="fill:none;stroke:red;stroke-width:1px;stroke-linecap:butt;stroke-linejoin:miter;stroke-opacity:1" d="M 229.516,399.995 241.597,393.283 z" id="boundary" inkscape:connector-curvature="0" />
	<path style="fill:none;stroke:red;stroke-width:1px;stroke-linecap:butt;stroke-linejoin:miter;stroke-opacity:1" d="M 233.543,487.248 246.966,484.563 z" id="boundary" inkscape:connector-curvature="0" />
	<path style="fill:none;stroke:red;stroke-width:1px;stroke-linecap:butt;stroke-linejoin:miter;stroke-opacity:1" d="M 234.885,37.5589 245.624,46.9553 z" id="boundary" inkscape:connector-curvature="0" />
	<path style="fill:none;stroke:red;stroke-width:1px;stroke-linecap:butt;stroke-linejoin:miter;stroke-opacity:1" d="M 237.57,358.382 250.993,354.355 z" id="boundary" inkscape:connector-curvature="0" />
	<path style="fill:none;stroke:red;stroke-width:1px;stroke-linecap:butt;stroke-linejoin:miter;stroke-opacity:1" d="M 238.912,455.031 242.939,468.455 z" id="boundary" inkscape:connector-curvature="0" />
	<path style="fill:none;stroke:red;stroke-width:1px;stroke-linecap:butt;stroke-linejoin:miter;stroke-opacity:1" d="M 240.254,240.254 252.336,246.966 z" id="boundary" inkscape:connector-curvature="0" />
	<path style="fill:none;stroke:red;stroke-width:1px;stroke-linecap:butt;stroke-linejoin:miter;stroke-opacity:1" d="M 240.254,319.453 253.678,319.453 z" id="boundary" inkscape:connector-curvature="0" />
	<path style="fill:none;stroke:red;stroke-width:1px;stroke-linecap:butt;stroke-linejoin:miter;stroke-opacity:1" d="M 241.597,393.283 253.678,386.571 z" id="boundary" inkscape:connector-curvature="0" />
	<path style="fill:none;stroke:red;stroke-width:1px;stroke-linecap:butt;stroke-linejoin:miter;stroke-opacity:1" d="M 245.624,46.9553 253.678,57.6942 z" id="boundary" inkscape:connector-curvature="0" />
	<path style="fill:none;stroke:red;stroke-width:1px;stroke-linecap:butt;stroke-linejoin:miter;stroke-opacity:1" d="M 246.966,484.563 256.363,495.302 z" id="boundary" inkscape:connector-curvature="0" />
	<path style="fill:none;stroke:red;stroke-width:1px;stroke-linecap:butt;stroke-linejoin:miter;stroke-opacity:1" d="M 250.993,354.355 264.417,354.355 z" id="boundary" inkscape:connector-curvature="0" />
	<path style="fill:none;stroke:red;stroke-width:1px;stroke-linecap:butt;stroke-linejoin:miter;stroke-opacity:1" d="M 252.336,246.966 264.417,253.678 z" id="boundary" inkscape:connector-curvature="0" />
	<path style="fill:none;stroke:red;stroke-width:1px;stroke-linecap:butt;stroke-linejoin:miter;stroke-opacity:1" d="M 253.678,57.6942 264.417,65.7483 z" id="boundary" inkscape:connector-curvature="0" />
	<path style="fill:none;stroke:red;stroke-width:1px;stroke-linecap:butt;stroke-linejoin:miter;stroke-opacity:1" d="M 253.678,319.453 267.101,319.453 z" id="boundary" inkscape:connector-curvature="0" />
	<path style="fill:none;stroke:red;stroke-width:1px;stroke-linecap:butt;stroke-linejoin:miter;stroke-opacity:1" d="M 253.678,386.571 267.101,382.544 z" id="boundary" inkscape:connector-curvature="0" />
	<path style="fill:none;stroke:red;stroke-width:1px;stroke-linecap:butt;stroke-linejoin:miter;stroke-opacity:1" d="M 256.363,495.302 269.786,493.959 z" id="boundary" inkscape:connector-curvature="0" />
	<path style="fill:none;stroke:red;stroke-width:1px;stroke-linecap:butt;stroke-linejoin:miter;stroke-opacity:1" d="M 260.39,428.184 260.39,441.608 z" id="boundary" inkscape:connector-curvature="0" />
	<path style="fill:none;stroke:red;stroke-width:1px;stroke-linecap:butt;stroke-linejoin:miter;stroke-opacity:1" d="M 260.39,428.184 267.101,414.76 z" id="boundary" inkscape:connector-curvature="0" />
	<path style="fill:none;stroke:red;stroke-width:1px;stroke-linecap:butt;stroke-linejoin:miter;stroke-opacity:1" d="M 260.39,441.608 263.074,455.031 z" id="boundary" inkscape:connector-curvature="0" />
	<path style="fill:none;stroke:red;stroke-width:1px;stroke-linecap:butt;stroke-linejoin:miter;stroke-opacity:1" d="M 263.074,455.031 269.786,467.112 z" id="boundary" inkscape:connector-curvature="0" />
	<path style="fill:none;stroke:red;stroke-width:1px;stroke-linecap:butt;stroke-linejoin:miter;stroke-opacity:1" d="M 264.417,65.7483 273.813,76.4871 z" id="boundary" inkscape:connector-curvature="0" />
	<path style="fill:none;stroke:red;stroke-width:1px;stroke-linecap:butt;stroke-linejoin:miter;stroke-opacity:1" d="M 264.417,253.678 273.813,264.417 z" id="boundary" inkscape:connector-curvature="0" />
	<path style="fill:none;stroke:red;stroke-width:1px;stroke-linecap:butt;stroke-linejoin:miter;stroke-opacity:1" d="M 264.417,354.355 277.84,354.355 z" id="boundary" inkscape:connector-curvature="0" />
	<path style="fill:none;stroke:red;stroke-width:1px;stroke-linecap:butt;stroke-linejoin:miter;stroke-opacity:1" d="M 267.101,319.453 280.525,319.453 z" id="boundary" inkscape:connector-curvature="0" />
	<path style="fill:none;stroke:red;stroke-width:1px;stroke-linecap:butt;stroke-linejoin:miter;stroke-opacity:1" d="M 267.101,382.544 280.525,379.859 z" id="boundary" inkscape:connector-curvature="0" />
	<path style="fill:none;stroke:red;stroke-width:1px;stroke-linecap:butt;stroke-linejoin:miter;stroke-opacity:1" d="M 267.101,414.76 280.525,408.049 z" id="boundary" inkscape:connector-curvature="0" />
	<path style="fill:none;stroke:red;stroke-width:1px;stroke-linecap:butt;stroke-linejoin:miter;stroke-opacity:1" d="M 269.786,467.112 273.813,480.536 z" id="boundary" inkscape:connector-curvature="0" />
	<path style="fill:none;stroke:red;stroke-width:1px;stroke-linecap:butt;stroke-linejoin:miter;stroke-opacity:1" d="M 269.786,493.959 273.813,480.536 z" id="boundary" inkscape:connector-curvature="0" />
	<path style="fill:none;stroke:red;stroke-width:1px;stroke-linecap:butt;stroke-linejoin:miter;stroke-opacity:1" d="M 273.813,76.4871 280.525,88.5683 z" id="boundary" inkscape:connector-curvature="0" />
	<path style="fill:none;stroke:red;stroke-width:1px;stroke-linecap:butt;stroke-linejoin:miter;stroke-opacity:1" d="M 273.813,264.417 284.552,273.813 z" id="boundary" inkscape:connector-curvature="0" />
	<path style="fill:none;stroke:red;stroke-width:1px;stroke-linecap:butt;stroke-linejoin:miter;stroke-opacity:1" d="M 277.84,354.355 291.264,354.355 z" id="boundary" inkscape:connector-curvature="0" />
	<path style="fill:none;stroke:red;stroke-width:1px;stroke-linecap:butt;stroke-linejoin:miter;stroke-opacity:1" d="M 280.525,88.5683 289.922,99.3072 z" id="boundary" inkscape:connector-curvature="0" />
	<path style="fill:none;stroke:red;stroke-width:1px;stroke-linecap:butt;stroke-linejoin:miter;stroke-opacity:1" d="M 280.525,319.453 292.606,311.399 z" id="boundary" inkscape:connector-curvature="0" />
	<path style="fill:none;stroke:red;stroke-width:1px;stroke-linecap:butt;stroke-linejoin:miter;stroke-opacity:1" d="M 280.525,379.859 292.606,367.778 z" id="boundary" inkscape:connector-curvature="0" />
	<path style="fill:none;stroke:red;stroke-width:1px;stroke-linecap:butt;stroke-linejoin:miter;stroke-opacity:1" d="M 280.525,408.049 293.949,408.049 z" id="boundary" inkscape:connector-curvature="0" />
	<path style="fill:none;stroke:red;stroke-width:1px;stroke-linecap:butt;stroke-linejoin:miter;stroke-opacity:1" d="M 284.552,273.813 292.606,284.552 z" id="boundary" inkscape:connector-curvature="0" />
	<path style="fill:none;stroke:red;stroke-width:1px;stroke-linecap:butt;stroke-linejoin:miter;stroke-opacity:1" d="M 289.922,99.3072 300.66,108.704 z" id="boundary" inkscape:connector-curvature="0" />
	<path style="fill:none;stroke:red;stroke-width:1px;stroke-linecap:butt;stroke-linejoin:miter;stroke-opacity:1" d="M 291.264,354.355 292.606,367.778 z" id="boundary" inkscape:connector-curvature="0" />
	<path style="fill:none;stroke:red;stroke-width:1px;stroke-linecap:butt;stroke-linejoin:miter;stroke-opacity:1" d="M 292.606,284.552 292.606,297.976 z" id="boundary" inkscape:connector-curvature="0" />
	<path style="fill:none;stroke:red;stroke-width:1px;stroke-linecap:butt;stroke-linejoin:miter;stroke-opacity:1" d="M 292.606,297.976 292.606,311.399 z" id="boundary" inkscape:connector-curvature="0" />
	<path style="fill:none;stroke:red;stroke-width:1px;stroke-linecap:butt;stroke-linejoin:miter;stroke-opacity:1" d="M 293.949,408.049 299.318,421.472 z" id="boundary" inkscape:connector-curvature="0" />
	<path style="fill:none;stroke:red;stroke-width:1px;stroke-linecap:butt;stroke-linejoin:miter;stroke-opacity:1" d="M 299.318,421.472 303.345,434.896 z" id="boundary" inkscape:connector-curvature="0" />
	<path style="fill:none;stroke:red;stroke-width:1px;stroke-linecap:butt;stroke-linejoin:miter;stroke-opacity:1" d="M 300.66,108.704 307.372,120.785 z" id="boundary" inkscape:connector-curvature="0" />
	<path style="fill:none;stroke:red;stroke-width:1px;stroke-linecap:butt;stroke-linejoin:miter;stroke-opacity:1" d="M 303.345,434.896 306.03,448.319 z" id="boundary" inkscape:connector-curvature="0" />
	<path style="fill:none;stroke:red;stroke-width:1px;stroke-linecap:butt;stroke-linejoin:miter;stroke-opacity:1" d="M 306.03,448.319 306.03,461.743 z" id="boundary" inkscape:connector-curvature="0" />
	<path style="fill:none;stroke:red;stroke-width:1px;stroke-linecap:butt;stroke-linejoin:miter;stroke-opacity:1" d="M 306.03,461.743 306.03,475.166 z" id="boundary" inkscape:connector-curvature="0" />
	<path style="fill:none;stroke:red;stroke-width:1px;stroke-linecap:butt;stroke-linejoin:miter;stroke-opacity:1" d="M 306.03,475.166 306.03,488.59 z" id="boundary" inkscape:connector-curvature="0" />
	<path style="fill:none;stroke:red;stroke-width:1px;stroke-linecap:butt;stroke-linejoin:miter;stroke-opacity:1" d="M 306.03,488.59 306.03,502.014 z" id="boundary" inkscape:connector-curvature="0" />
	<path style="fill:none;stroke:red;stroke-width:1px;stroke-linecap:butt;stroke-linejoin:miter;stroke-opacity:1" d="M 306.03,502.014 312.742,514.095 z" id="boundary" inkscape:connector-curvature="0" />
	<path style="fill:none;stroke:red;stroke-width:1px;stroke-linecap:butt;stroke-linejoin:miter;stroke-opacity:1" d="M 307.372,120.785 315.426,131.524 z" id="boundary" inkscape:connector-curvature="0" />
	<path style="fill:none;stroke:red;stroke-width:1px;stroke-linecap:butt;stroke-linejoin:miter;stroke-opacity:1" d="M 312.742,514.095 312.742,527.518 z" id="boundary" inkscape:connector-curvature="0" />
	<path style="fill:none;stroke:red;stroke-width:1px;stroke-linecap:butt;stroke-linejoin:miter;stroke-opacity:1" d="M 312.742,527.518 319.453,539.599 z" id="boundary" inkscape:connector-curvature="0" />
	<path style="fill:none;stroke:red;stroke-width:1px;stroke-linecap:butt;stroke-linejoin:miter;stroke-opacity:1" d="M 315.426,131.524 326.165,140.92 z" id="boundary" inkscape:connector-curvature="0" />
	<path style="fill:none;stroke:red;stroke-width:1px;stroke-linecap:butt;stroke-linejoin:miter;stroke-opacity:1" d="M 319.453,539.599 326.165,551.681 z" id="boundary" inkscape:connector-curvature="0" />
	<path style="fill:none;stroke:red;stroke-width:1px;stroke-linecap:butt;stroke-linejoin:miter;stroke-opacity:1" d="M 326.165,140.92 334.219,151.659 z" id="boundary" inkscape:connector-curvature="0" />
	<path style="fill:none;stroke:red;stroke-width:1px;stroke-linecap:butt;stroke-linejoin:miter;stroke-opacity:1" d="M 326.165,551.681 326.165,565.104 z" id="boundary" inkscape:connector-curvature="0" />
	<path style="fill:none;stroke:red;stroke-width:1px;stroke-linecap:butt;stroke-linejoin:miter;stroke-opacity:1" d="M 326.165,565.104 336.904,574.501 z" id="boundary" inkscape:connector-curvature="0" />
	<path style="fill:none;stroke:red;stroke-width:1px;stroke-linecap:butt;stroke-linejoin:miter;stroke-opacity:1" d="M 332.877,706.051 332.877,719.475 z" id="boundary" inkscape:connector-curvature="0" />
	<path style="fill:none;stroke:red;stroke-width:1px;stroke-linecap:butt;stroke-linejoin:miter;stroke-opacity:1" d="M 332.877,706.051 339.589,692.628 z" id="boundary" inkscape:connector-curvature="0" />
	<path style="fill:none;stroke:red;stroke-width:1px;stroke-linecap:butt;stroke-linejoin:miter;stroke-opacity:1" d="M 332.877,719.475 339.589,731.556 z" id="boundary" inkscape:connector-curvature="0" />
	<path style="fill:none;stroke:red;stroke-width:1px;stroke-linecap:butt;stroke-linejoin:miter;stroke-opacity:1" d="M 334.219,151.659 340.931,163.74 z" id="boundary" inkscape:connector-curvature="0" />
	<path style="fill:none;stroke:red;stroke-width:1px;stroke-linecap:butt;stroke-linejoin:miter;stroke-opacity:1" d="M 336.904,574.501 342.273,587.924 z" id="boundary" inkscape:connector-curvature="0" />
	<path style="fill:none;stroke:red;stroke-width:1px;stroke-linecap:butt;stroke-linejoin:miter;stroke-opacity:1" d="M 339.589,692.628 346.3,672.493 z" id="boundary" inkscape:connector-curvature="0" />
	<path style="fill:none;stroke:red;stroke-width:1px;stroke-linecap:butt;stroke-linejoin:miter;stroke-opacity:1" d="M 339.589,731.556 346.3,743.637 z" id="boundary" inkscape:connector-curvature="0" />
	<path style="fill:none;stroke:red;stroke-width:1px;stroke-linecap:butt;stroke-linejoin:miter;stroke-opacity:1" d="M 340.931,163.74 351.67,173.137 z" id="boundary" inkscape:connector-curvature="0" />
	<path style="fill:none;stroke:red;stroke-width:1px;stroke-linecap:butt;stroke-linejoin:miter;stroke-opacity:1" d="M 342.273,587.924 348.985,600.005 z" id="boundary" inkscape:connector-curvature="0" />
	<path style="fill:none;stroke:red;stroke-width:1px;stroke-linecap:butt;stroke-linejoin:miter;stroke-opacity:1" d="M 346.3,672.493 357.039,661.754 z" id="boundary" inkscape:connector-curvature="0" />
	<path style="fill:none;stroke:red;stroke-width:1px;stroke-linecap:butt;stroke-linejoin:miter;stroke-opacity:1" d="M 346.3,743.637 353.012,755.719 z" id="boundary" inkscape:connector-curvature="0" />
	<path style="fill:none;stroke:red;stroke-width:1px;stroke-linecap:butt;stroke-linejoin:miter;stroke-opacity:1" d="M 348.985,600.005 359.724,609.402 z" id="boundary" inkscape:connector-curvature="0" />
	<path style="fill:none;stroke:red;stroke-width:1px;stroke-linecap:butt;stroke-linejoin:miter;stroke-opacity:1" d="M 351.67,173.137 361.066,183.876 z" id="boundary" inkscape:connector-curvature="0" />
	<path style="fill:none;stroke:red;stroke-width:1px;stroke-linecap:butt;stroke-linejoin:miter;stroke-opacity:1" d="M 353.012,755.719 361.066,766.457 z" id="boundary" inkscape:connector-curvature="0" />
	<path style="fill:none;stroke:red;stroke-width:1px;stroke-linecap:butt;stroke-linejoin:miter;stroke-opacity:1" d="M 357.039,661.754 363.751,648.33 z" id="boundary" inkscape:connector-curvature="0" />
	<path style="fill:none;stroke:red;stroke-width:1px;stroke-linecap:butt;stroke-linejoin:miter;stroke-opacity:1" d="M 359.724,609.402 366.436,621.483 z" id="boundary" inkscape:connector-curvature="0" />
	<path style="fill:none;stroke:red;stroke-width:1px;stroke-linecap:butt;stroke-linejoin:miter;stroke-opacity:1" d="M 361.066,183.876 367.778,195.957 z" id="boundary" inkscape:connector-curvature="0" />
	<path style="fill:none;stroke:red;stroke-width:1px;stroke-linecap:butt;stroke-linejoin:miter;stroke-opacity:1" d="M 361.066,766.457 373.147,773.169 z" id="boundary" inkscape:connector-curvature="0" />
	<path style="fill:none;stroke:red;stroke-width:1px;stroke-linecap:butt;stroke-linejoin:miter;stroke-opacity:1" d="M 363.751,648.33 373.147,633.564 z" id="boundary" inkscape:connector-curvature="0" />
	<path style="fill:none;stroke:red;stroke-width:1px;stroke-linecap:butt;stroke-linejoin:miter;stroke-opacity:1" d="M 366.436,621.483 373.147,633.564 z" id="boundary" inkscape:connector-curvature="0" />
	<path style="fill:none;stroke:red;stroke-width:1px;stroke-linecap:butt;stroke-linejoin:miter;stroke-opacity:1" d="M 367.778,195.957 377.175,206.696 z" id="boundary" inkscape:connector-curvature="0" />
	<path style="fill:none;stroke:red;stroke-width:1px;stroke-linecap:butt;stroke-linejoin:miter;stroke-opacity:1" d="M 373.147,773.169 383.886,782.566 z" id="boundary" inkscape:connector-curvature="0" />
	<path style="fill:none;stroke:red;stroke-width:1px;stroke-linecap:butt;stroke-linejoin:miter;stroke-opacity:1" d="M 377.175,206.696 387.913,216.092 z" id="boundary" inkscape:connector-curvature="0" />
	<path style="fill:none;stroke:red;stroke-width:1px;stroke-linecap:butt;stroke-linejoin:miter;stroke-opacity:1" d="M 383.886,782.566 393.283,793.304 z" id="boundary" inkscape:connector-curvature="0" />
	<path style="fill:none;stroke:red;stroke-width:1px;stroke-linecap:butt;stroke-linejoin:miter;stroke-opacity:1" d="M 387.913,216.092 393.283,229.516 z" id="boundary" inkscape:connector-curvature="0" />
	<path style="fill:none;stroke:red;stroke-width:1px;stroke-linecap:butt;stroke-linejoin:miter;stroke-opacity:1" d="M 393.283,229.516 406.706,234.885 z" id="boundary" inkscape:connector-curvature="0" />
	<path style="fill:none;stroke:red;stroke-width:1px;stroke-linecap:butt;stroke-linejoin:miter;stroke-opacity:1" d="M 393.283,793.304 404.022,802.701 z" id="boundary" inkscape:connector-curvature="0" />
	<path style="fill:none;stroke:red;stroke-width:1px;stroke-linecap:butt;stroke-linejoin:miter;stroke-opacity:1" d="M 404.022,802.701 413.418,813.44 z" id="boundary" inkscape:connector-curvature="0" />
	<path style="fill:none;stroke:red;stroke-width:1px;stroke-linecap:butt;stroke-linejoin:miter;stroke-opacity:1" d="M 406.706,234.885 412.076,248.309 z" id="boundary" inkscape:connector-curvature="0" />
	<path style="fill:none;stroke:red;stroke-width:1px;stroke-linecap:butt;stroke-linejoin:miter;stroke-opacity:1" d="M 412.076,248.309 421.472,259.047 z" id="boundary" inkscape:connector-curvature="0" />
	<path style="fill:none;stroke:red;stroke-width:1px;stroke-linecap:butt;stroke-linejoin:miter;stroke-opacity:1" d="M 413.418,813.44 420.13,825.521 z" id="boundary" inkscape:connector-curvature="0" />
	<path style="fill:none;stroke:red;stroke-width:1px;stroke-linecap:butt;stroke-linejoin:miter;stroke-opacity:1" d="M 413.418,853.71 413.418,867.134 z" id="boundary" inkscape:connector-curvature="0" />
	<path style="fill:none;stroke:red;stroke-width:1px;stroke-linecap:butt;stroke-linejoin:miter;stroke-opacity:1" d="M 413.418,853.71 420.13,838.945 z" id="boundary" inkscape:connector-curvature="0" />
	<path style="fill:none;stroke:red;stroke-width:1px;stroke-linecap:butt;stroke-linejoin:miter;stroke-opacity:1" d="M 413.418,867.134 413.418,880.558 z" id="boundary" inkscape:connector-curvature="0" />
	<path style="fill:none;stroke:red;stroke-width:1px;stroke-linecap:butt;stroke-linejoin:miter;stroke-opacity:1" d="M 413.418,880.558 420.13,892.639 z" id="boundary" inkscape:connector-curvature="0" />
	<path style="fill:none;stroke:red;stroke-width:1px;stroke-linecap:butt;stroke-linejoin:miter;stroke-opacity:1" d="M 420.13,825.521 420.13,838.945 z" id="boundary" inkscape:connector-curvature="0" />
	<path style="fill:none;stroke:red;stroke-width:1px;stroke-linecap:butt;stroke-linejoin:miter;stroke-opacity:1" d="M 420.13,892.639 433.553,898.008 z" id="boundary" inkscape:connector-curvature="0" />
	<path style="fill:none;stroke:red;stroke-width:1px;stroke-linecap:butt;stroke-linejoin:miter;stroke-opacity:1" d="M 421.472,259.047 432.211,267.101 z" id="boundary" inkscape:connector-curvature="0" />
	<path style="fill:none;stroke:red;stroke-width:1px;stroke-linecap:butt;stroke-linejoin:miter;stroke-opacity:1" d="M 432.211,267.101 441.608,277.84 z" id="boundary" inkscape:connector-curvature="0" />
	<path style="fill:none;stroke:red;stroke-width:1px;stroke-linecap:butt;stroke-linejoin:miter;stroke-opacity:1" d="M 433.553,898.008 445.635,904.72 z" id="boundary" inkscape:connector-curvature="0" />
	<path style="fill:none;stroke:red;stroke-width:1px;stroke-linecap:butt;stroke-linejoin:miter;stroke-opacity:1" d="M 441.608,277.84 452.346,287.237 z" id="boundary" inkscape:connector-curvature="0" />
	<path style="fill:none;stroke:red;stroke-width:1px;stroke-linecap:butt;stroke-linejoin:miter;stroke-opacity:1" d="M 445.635,904.72 459.058,904.72 z" id="boundary" inkscape:connector-curvature="0" />
	<path style="fill:none;stroke:red;stroke-width:1px;stroke-linecap:butt;stroke-linejoin:miter;stroke-opacity:1" d="M 452.346,287.237 457.716,300.66 z" id="boundary" inkscape:connector-curvature="0" />
	<path style="fill:none;stroke:red;stroke-width:1px;stroke-linecap:butt;stroke-linejoin:miter;stroke-opacity:1" d="M 455.031,703.367 457.716,716.79 z" id="boundary" inkscape:connector-curvature="0" />
	<path style="fill:none;stroke:red;stroke-width:1px;stroke-linecap:butt;stroke-linejoin:miter;stroke-opacity:1" d="M 455.031,703.367 467.112,696.655 z" id="boundary" inkscape:connector-curvature="0" />
	<path style="fill:none;stroke:red;stroke-width:1px;stroke-linecap:butt;stroke-linejoin:miter;stroke-opacity:1" d="M 457.716,300.66 468.455,310.057 z" id="boundary" inkscape:connector-curvature="0" />
	<path style="fill:none;stroke:red;stroke-width:1px;stroke-linecap:butt;stroke-linejoin:miter;stroke-opacity:1" d="M 457.716,716.79 468.455,726.187 z" id="boundary" inkscape:connector-curvature="0" />
	<path style="fill:none;stroke:red;stroke-width:1px;stroke-linecap:butt;stroke-linejoin:miter;stroke-opacity:1" d="M 459.058,904.72 471.139,911.432 z" id="boundary" inkscape:connector-curvature="0" />
	<path style="fill:none;stroke:red;stroke-width:1px;stroke-linecap:butt;stroke-linejoin:miter;stroke-opacity:1" d="M 467.112,696.655 479.194,689.943 z" id="boundary" inkscape:connector-curvature="0" />
	<path style="fill:none;stroke:red;stroke-width:1px;stroke-linecap:butt;stroke-linejoin:miter;stroke-opacity:1" d="M 468.455,310.057 477.851,320.796 z" id="boundary" inkscape:connector-curvature="0" />
	<path style="fill:none;stroke:red;stroke-width:1px;stroke-linecap:butt;stroke-linejoin:miter;stroke-opacity:1" d="M 468.455,726.187 479.194,735.583 z" id="boundary" inkscape:connector-curvature="0" />
	<path style="fill:none;stroke:red;stroke-width:1px;stroke-linecap:butt;stroke-linejoin:miter;stroke-opacity:1" d="M 471.139,911.432 484.563,911.432 z" id="boundary" inkscape:connector-curvature="0" />
	<path style="fill:none;stroke:red;stroke-width:1px;stroke-linecap:butt;stroke-linejoin:miter;stroke-opacity:1" d="M 477.851,320.796 488.59,330.192 z" id="boundary" inkscape:connector-curvature="0" />
	<path style="fill:none;stroke:red;stroke-width:1px;stroke-linecap:butt;stroke-linejoin:miter;stroke-opacity:1" d="M 479.194,689.943 492.617,689.943 z" id="boundary" inkscape:connector-curvature="0" />
	<path style="fill:none;stroke:red;stroke-width:1px;stroke-linecap:butt;stroke-linejoin:miter;stroke-opacity:1" d="M 479.194,735.583 491.275,742.295 z" id="boundary" inkscape:connector-curvature="0" />
	<path style="fill:none;stroke:red;stroke-width:1px;stroke-linecap:butt;stroke-linejoin:miter;stroke-opacity:1" d="M 484.563,911.432 496.644,904.72 z" id="boundary" inkscape:connector-curvature="0" />
	<path style="fill:none;stroke:red;stroke-width:1px;stroke-linecap:butt;stroke-linejoin:miter;stroke-opacity:1" d="M 488.59,330.192 497.986,340.931 z" id="boundary" inkscape:connector-curvature="0" />
	<path style="fill:none;stroke:red;stroke-width:1px;stroke-linecap:butt;stroke-linejoin:miter;stroke-opacity:1" d="M 491.275,742.295 503.356,749.007 z" id="boundary" inkscape:connector-curvature="0" />
	<path style="fill:none;stroke:red;stroke-width:1px;stroke-linecap:butt;stroke-linejoin:miter;stroke-opacity:1" d="M 492.617,689.943 506.041,689.943 z" id="boundary" inkscape:connector-curvature="0" />
	<path style="fill:none;stroke:red;stroke-width:1px;stroke-linecap:butt;stroke-linejoin:miter;stroke-opacity:1" d="M 496.644,904.72 507.383,893.981 z" id="boundary" inkscape:connector-curvature="0" />
	<path style="fill:none;stroke:red;stroke-width:1px;stroke-linecap:butt;stroke-linejoin:miter;stroke-opacity:1" d="M 497.986,340.931 508.725,350.327 z" id="boundary" inkscape:connector-curvature="0" />
	<path style="fill:none;stroke:red;stroke-width:1px;stroke-linecap:butt;stroke-linejoin:miter;stroke-opacity:1" d="M 503.356,749.007 514.095,758.403 z" id="boundary" inkscape:connector-curvature="0" />
	<path style="fill:none;stroke:red;stroke-width:1px;stroke-linecap:butt;stroke-linejoin:miter;stroke-opacity:1" d="M 506.041,689.943 519.464,689.943 z" id="boundary" inkscape:connector-curvature="0" />
	<path style="fill:none;stroke:red;stroke-width:1px;stroke-linecap:butt;stroke-linejoin:miter;stroke-opacity:1" d="M 507.383,893.981 514.095,880.558 z" id="boundary" inkscape:connector-curvature="0" />
	<path style="fill:none;stroke:red;stroke-width:1px;stroke-linecap:butt;stroke-linejoin:miter;stroke-opacity:1" d="M 508.725,350.327 518.122,361.066 z" id="boundary" inkscape:connector-curvature="0" />
	<path style="fill:none;stroke:red;stroke-width:1px;stroke-linecap:butt;stroke-linejoin:miter;stroke-opacity:1" d="M 514.095,758.403 522.149,769.142 z" id="boundary" inkscape:connector-curvature="0" />
	<path style="fill:none;stroke:red;stroke-width:1px;stroke-linecap:butt;stroke-linejoin:miter;stroke-opacity:1" d="M 514.095,880.558 520.806,867.134 z" id="boundary" inkscape:connector-curvature="0" />
	<path style="fill:none;stroke:red;stroke-width:1px;stroke-linecap:butt;stroke-linejoin:miter;stroke-opacity:1" d="M 518.122,361.066 528.861,370.463 z" id="boundary" inkscape:connector-curvature="0" />
	<path style="fill:none;stroke:red;stroke-width:1px;stroke-linecap:butt;stroke-linejoin:miter;stroke-opacity:1" d="M 519.464,689.943 532.888,689.943 z" id="boundary" inkscape:connector-curvature="0" />
	<path style="fill:none;stroke:red;stroke-width:1px;stroke-linecap:butt;stroke-linejoin:miter;stroke-opacity:1" d="M 520.806,867.134 522.149,844.314 z" id="boundary" inkscape:connector-curvature="0" />
	<path style="fill:none;stroke:red;stroke-width:1px;stroke-linecap:butt;stroke-linejoin:miter;stroke-opacity:1" d="M 522.149,769.142 528.861,781.223 z" id="boundary" inkscape:connector-curvature="0" />
	<path style="fill:none;stroke:red;stroke-width:1px;stroke-linecap:butt;stroke-linejoin:miter;stroke-opacity:1" d="M 522.149,830.89 522.149,844.314 z" id="boundary" inkscape:connector-curvature="0" />
	<path style="fill:none;stroke:red;stroke-width:1px;stroke-linecap:butt;stroke-linejoin:miter;stroke-opacity:1" d="M 522.149,830.89 528.861,808.07 z" id="boundary" inkscape:connector-curvature="0" />
	<path style="fill:none;stroke:red;stroke-width:1px;stroke-linecap:butt;stroke-linejoin:miter;stroke-opacity:1" d="M 528.861,370.463 534.23,383.886 z" id="boundary" inkscape:connector-curvature="0" />
	<path style="fill:none;stroke:red;stroke-width:1px;stroke-linecap:butt;stroke-linejoin:miter;stroke-opacity:1" d="M 528.861,781.223 528.861,794.647 z" id="boundary" inkscape:connector-curvature="0" />
	<path style="fill:none;stroke:red;stroke-width:1px;stroke-linecap:butt;stroke-linejoin:miter;stroke-opacity:1" d="M 528.861,794.647 528.861,808.07 z" id="boundary" inkscape:connector-curvature="0" />
	<path style="fill:none;stroke:red;stroke-width:1px;stroke-linecap:butt;stroke-linejoin:miter;stroke-opacity:1" d="M 532.888,689.943 546.311,689.943 z" id="boundary" inkscape:connector-curvature="0" />
	<path style="fill:none;stroke:red;stroke-width:1px;stroke-linecap:butt;stroke-linejoin:miter;stroke-opacity:1" d="M 534.23,383.886 544.969,393.283 z" id="boundary" inkscape:connector-curvature="0" />
	<path style="fill:none;stroke:red;stroke-width:1px;stroke-linecap:butt;stroke-linejoin:miter;stroke-opacity:1" d="M 544.969,393.283 555.708,401.337 z" id="boundary" inkscape:connector-curvature="0" />
	<path style="fill:none;stroke:red;stroke-width:1px;stroke-linecap:butt;stroke-linejoin:miter;stroke-opacity:1" d="M 546.311,689.943 559.735,689.943 z" id="boundary" inkscape:connector-curvature="0" />
	<path style="fill:none;stroke:red;stroke-width:1px;stroke-linecap:butt;stroke-linejoin:miter;stroke-opacity:1" d="M 555.708,401.337 562.419,413.418 z" id="boundary" inkscape:connector-curvature="0" />
	<path style="fill:none;stroke:red;stroke-width:1px;stroke-linecap:butt;stroke-linejoin:miter;stroke-opacity:1" d="M 559.735,689.943 573.158,689.943 z" id="boundary" inkscape:connector-curvature="0" />
	<path style="fill:none;stroke:red;stroke-width:1px;stroke-linecap:butt;stroke-linejoin:miter;stroke-opacity:1" d="M 562.419,413.418 573.158,421.472 z" id="boundary" inkscape:connector-curvature="0" />
	<path style="fill:none;stroke:red;stroke-width:1px;stroke-linecap:butt;stroke-linejoin:miter;stroke-opacity:1" d="M 573.158,421.472 582.555,432.211 z" id="boundary" inkscape:connector-curvature="0" />
	<path style="fill:none;stroke:red;stroke-width:1px;stroke-linecap:butt;stroke-linejoin:miter;stroke-opacity:1" d="M 573.158,689.943 585.24,696.655 z" id="boundary" inkscape:connector-curvature="0" />
	<path style="fill:none;stroke:red;stroke-width:1px;stroke-linecap:butt;stroke-linejoin:miter;stroke-opacity:1" d="M 582.555,432.211 595.978,437.581 z" id="boundary" inkscape:connector-curvature="0" />
	<path style="fill:none;stroke:red;stroke-width:1px;stroke-linecap:butt;stroke-linejoin:miter;stroke-opacity:1" d="M 585.24,696.655 598.663,696.655 z" id="boundary" inkscape:connector-curvature="0" />
	<path style="fill:none;stroke:red;stroke-width:1px;stroke-linecap:butt;stroke-linejoin:miter;stroke-opacity:1" d="M 595.978,437.581 605.375,448.319 z" id="boundary" inkscape:connector-curvature="0" />
	<path style="fill:none;stroke:red;stroke-width:1px;stroke-linecap:butt;stroke-linejoin:miter;stroke-opacity:1" d="M 598.663,696.655 612.087,702.024 z" id="boundary" inkscape:connector-curvature="0" />
	<path style="fill:none;stroke:red;stroke-width:1px;stroke-linecap:butt;stroke-linejoin:miter;stroke-opacity:1" d="M 605.375,448.319 616.114,457.716 z" id="boundary" inkscape:connector-curvature="0" />
	<path style="fill:none;stroke:red;stroke-width:1px;stroke-linecap:butt;stroke-linejoin:miter;stroke-opacity:1" d="M 612.087,702.024 621.483,712.763 z" id="boundary" inkscape:connector-curvature="0" />
	<path style="fill:none;stroke:red;stroke-width:1px;stroke-linecap:butt;stroke-linejoin:miter;stroke-opacity:1" d="M 616.114,457.716 626.853,467.112 z" id="boundary" inkscape:connector-curvature="0" />
	<path style="fill:none;stroke:red;stroke-width:1px;stroke-linecap:butt;stroke-linejoin:miter;stroke-opacity:1" d="M 621.483,712.763 628.195,724.844 z" id="boundary" inkscape:connector-curvature="0" />
	<path style="fill:none;stroke:red;stroke-width:1px;stroke-linecap:butt;stroke-linejoin:miter;stroke-opacity:1" d="M 621.483,833.575 621.483,846.999 z" id="boundary" inkscape:connector-curvature="0" />
	<path style="fill:none;stroke:red;stroke-width:1px;stroke-linecap:butt;stroke-linejoin:miter;stroke-opacity:1" d="M 621.483,833.575 628.195,818.809 z" id="boundary" inkscape:connector-curvature="0" />
	<path style="fill:none;stroke:red;stroke-width:1px;stroke-linecap:butt;stroke-linejoin:miter;stroke-opacity:1" d="M 621.483,846.999 621.483,860.422 z" id="boundary" inkscape:connector-curvature="0" />
	<path style="fill:none;stroke:red;stroke-width:1px;stroke-linecap:butt;stroke-linejoin:miter;stroke-opacity:1" d="M 621.483,860.422 621.483,873.846 z" id="boundary" inkscape:connector-curvature="0" />
	<path style="fill:none;stroke:red;stroke-width:1px;stroke-linecap:butt;stroke-linejoin:miter;stroke-opacity:1" d="M 621.483,873.846 628.195,885.927 z" id="boundary" inkscape:connector-curvature="0" />
	<path style="fill:none;stroke:red;stroke-width:1px;stroke-linecap:butt;stroke-linejoin:miter;stroke-opacity:1" d="M 626.853,467.112 638.934,473.824 z" id="boundary" inkscape:connector-curvature="0" />
	<path style="fill:none;stroke:red;stroke-width:1px;stroke-linecap:butt;stroke-linejoin:miter;stroke-opacity:1" d="M 628.195,724.844 628.195,738.268 z" id="boundary" inkscape:connector-curvature="0" />
	<path style="fill:none;stroke:red;stroke-width:1px;stroke-linecap:butt;stroke-linejoin:miter;stroke-opacity:1" d="M 628.195,738.268 628.195,751.691 z" id="boundary" inkscape:connector-curvature="0" />
	<path style="fill:none;stroke:red;stroke-width:1px;stroke-linecap:butt;stroke-linejoin:miter;stroke-opacity:1" d="M 628.195,751.691 628.195,765.115 z" id="boundary" inkscape:connector-curvature="0" />
	<path style="fill:none;stroke:red;stroke-width:1px;stroke-linecap:butt;stroke-linejoin:miter;stroke-opacity:1" d="M 628.195,765.115 628.195,778.539 z" id="boundary" inkscape:connector-curvature="0" />
	<path style="fill:none;stroke:red;stroke-width:1px;stroke-linecap:butt;stroke-linejoin:miter;stroke-opacity:1" d="M 628.195,778.539 628.195,791.962 z" id="boundary" inkscape:connector-curvature="0" />
	<path style="fill:none;stroke:red;stroke-width:1px;stroke-linecap:butt;stroke-linejoin:miter;stroke-opacity:1" d="M 628.195,791.962 628.195,805.386 z" id="boundary" inkscape:connector-curvature="0" />
	<path style="fill:none;stroke:red;stroke-width:1px;stroke-linecap:butt;stroke-linejoin:miter;stroke-opacity:1" d="M 628.195,805.386 628.195,818.809 z" id="boundary" inkscape:connector-curvature="0" />
	<path style="fill:none;stroke:red;stroke-width:1px;stroke-linecap:butt;stroke-linejoin:miter;stroke-opacity:1" d="M 628.195,885.927 637.591,896.666 z" id="boundary" inkscape:connector-curvature="0" />
	<path style="fill:none;stroke:red;stroke-width:1px;stroke-linecap:butt;stroke-linejoin:miter;stroke-opacity:1" d="M 637.591,896.666 651.015,902.035 z" id="boundary" inkscape:connector-curvature="0" />
	<path style="fill:none;stroke:red;stroke-width:1px;stroke-linecap:butt;stroke-linejoin:miter;stroke-opacity:1" d="M 638.934,473.824 648.33,484.563 z" id="boundary" inkscape:connector-curvature="0" />
	<path style="fill:none;stroke:red;stroke-width:1px;stroke-linecap:butt;stroke-linejoin:miter;stroke-opacity:1" d="M 648.33,484.563 659.069,493.959 z" id="boundary" inkscape:connector-curvature="0" />
	<path style="fill:none;stroke:red;stroke-width:1px;stroke-linecap:butt;stroke-linejoin:miter;stroke-opacity:1" d="M 651.015,902.035 664.438,904.72 z" id="boundary" inkscape:connector-curvature="0" />
	<path style="fill:none;stroke:red;stroke-width:1px;stroke-linecap:butt;stroke-linejoin:miter;stroke-opacity:1" d="M 659.069,493.959 671.15,500.671 z" id="boundary" inkscape:connector-curvature="0" />
	<path style="fill:none;stroke:red;stroke-width:1px;stroke-linecap:butt;stroke-linejoin:miter;stroke-opacity:1" d="M 664.438,904.72 677.862,904.72 z" id="boundary" inkscape:connector-curvature="0" />
	<path style="fill:none;stroke:red;stroke-width:1px;stroke-linecap:butt;stroke-linejoin:miter;stroke-opacity:1" d="M 671.15,500.671 683.231,507.383 z" id="boundary" inkscape:connector-curvature="0" />
	<path style="fill:none;stroke:red;stroke-width:1px;stroke-linecap:butt;stroke-linejoin:miter;stroke-opacity:1" d="M 677.862,904.72 691.286,904.72 z" id="boundary" inkscape:connector-curvature="0" />
	<path style="fill:none;stroke:red;stroke-width:1px;stroke-linecap:butt;stroke-linejoin:miter;stroke-opacity:1" d="M 683.231,507.383 695.313,514.095 z" id="boundary" inkscape:connector-curvature="0" />
	<path style="fill:none;stroke:red;stroke-width:1px;stroke-linecap:butt;stroke-linejoin:miter;stroke-opacity:1" d="M 691.286,904.72 703.367,898.008 z" id="boundary" inkscape:connector-curvature="0" />
	<path style="fill:none;stroke:red;stroke-width:1px;stroke-linecap:butt;stroke-linejoin:miter;stroke-opacity:1" d="M 695.313,514.095 707.394,520.806 z" id="boundary" inkscape:connector-curvature="0" />
	<path style="fill:none;stroke:red;stroke-width:1px;stroke-linecap:butt;stroke-linejoin:miter;stroke-opacity:1" d="M 703.367,898.008 714.106,888.612 z" id="boundary" inkscape:connector-curvature="0" />
	<path style="fill:none;stroke:red;stroke-width:1px;stroke-linecap:butt;stroke-linejoin:miter;stroke-opacity:1" d="M 707.394,520.806 719.475,527.518 z" id="boundary" inkscape:connector-curvature="0" />
	<path style="fill:none;stroke:red;stroke-width:1px;stroke-linecap:butt;stroke-linejoin:miter;stroke-opacity:1" d="M 714.106,888.612 723.502,877.873 z" id="boundary" inkscape:connector-curvature="0" />
	<path style="fill:none;stroke:red;stroke-width:1px;stroke-linecap:butt;stroke-linejoin:miter;stroke-opacity:1" d="M 719.475,527.518 732.899,527.518 z" id="boundary" inkscape:connector-curvature="0" />
	<path style="fill:none;stroke:red;stroke-width:1px;stroke-linecap:butt;stroke-linejoin:miter;stroke-opacity:1" d="M 723.502,877.873 730.214,864.449 z" id="boundary" inkscape:connector-curvature="0" />
	<path style="fill:none;stroke:red;stroke-width:1px;stroke-linecap:butt;stroke-linejoin:miter;stroke-opacity:1" d="M 730.214,750.349 730.214,763.773 z" id="boundary" inkscape:connector-curvature="0" />
	<path style="fill:none;stroke:red;stroke-width:1px;stroke-linecap:butt;stroke-linejoin:miter;stroke-opacity:1" d="M 730.214,750.349 736.926,730.214 z" id="boundary" inkscape:connector-curvature="0" />
	<path style="fill:none;stroke:red;stroke-width:1px;stroke-linecap:butt;stroke-linejoin:miter;stroke-opacity:1" d="M 730.214,763.773 730.214,777.196 z" id="boundary" inkscape:connector-curvature="0" />
	<path style="fill:none;stroke:red;stroke-width:1px;stroke-linecap:butt;stroke-linejoin:miter;stroke-opacity:1" d="M 730.214,777.196 730.214,790.62 z" id="boundary" inkscape:connector-curvature="0" />
	<path style="fill:none;stroke:red;stroke-width:1px;stroke-linecap:butt;stroke-linejoin:miter;stroke-opacity:1" d="M 730.214,790.62 730.214,804.043 z" id="boundary" inkscape:connector-curvature="0" />
	<path style="fill:none;stroke:red;stroke-width:1px;stroke-linecap:butt;stroke-linejoin:miter;stroke-opacity:1" d="M 730.214,804.043 736.926,816.124 z" id="boundary" inkscape:connector-curvature="0" />
	<path style="fill:none;stroke:red;stroke-width:1px;stroke-linecap:butt;stroke-linejoin:miter;stroke-opacity:1" d="M 730.214,851.026 730.214,864.449 z" id="boundary" inkscape:connector-curvature="0" />
	<path style="fill:none;stroke:red;stroke-width:1px;stroke-linecap:butt;stroke-linejoin:miter;stroke-opacity:1" d="M 730.214,851.026 736.926,829.548 z" id="boundary" inkscape:connector-curvature="0" />
	<path style="fill:none;stroke:red;stroke-width:1px;stroke-linecap:butt;stroke-linejoin:miter;stroke-opacity:1" d="M 732.899,527.518 744.98,534.23 z" id="boundary" inkscape:connector-curvature="0" />
	<path style="fill:none;stroke:red;stroke-width:1px;stroke-linecap:butt;stroke-linejoin:miter;stroke-opacity:1" d="M 736.926,656.384 736.926,669.808 z" id="boundary" inkscape:connector-curvature="0" />
	<path style="fill:none;stroke:red;stroke-width:1px;stroke-linecap:butt;stroke-linejoin:miter;stroke-opacity:1" d="M 736.926,656.384 750.349,656.384 z" id="boundary" inkscape:connector-curvature="0" />
	<path style="fill:none;stroke:red;stroke-width:1px;stroke-linecap:butt;stroke-linejoin:miter;stroke-opacity:1" d="M 736.926,669.808 736.926,683.231 z" id="boundary" inkscape:connector-curvature="0" />
	<path style="fill:none;stroke:red;stroke-width:1px;stroke-linecap:butt;stroke-linejoin:miter;stroke-opacity:1" d="M 736.926,683.231 743.637,695.313 z" id="boundary" inkscape:connector-curvature="0" />
	<path style="fill:none;stroke:red;stroke-width:1px;stroke-linecap:butt;stroke-linejoin:miter;stroke-opacity:1" d="M 736.926,730.214 743.637,708.736 z" id="boundary" inkscape:connector-curvature="0" />
	<path style="fill:none;stroke:red;stroke-width:1px;stroke-linecap:butt;stroke-linejoin:miter;stroke-opacity:1" d="M 736.926,816.124 736.926,829.548 z" id="boundary" inkscape:connector-curvature="0" />
	<path style="fill:none;stroke:red;stroke-width:1px;stroke-linecap:butt;stroke-linejoin:miter;stroke-opacity:1" d="M 743.637,695.313 743.637,708.736 z" id="boundary" inkscape:connector-curvature="0" />
	<path style="fill:none;stroke:red;stroke-width:1px;stroke-linecap:butt;stroke-linejoin:miter;stroke-opacity:1" d="M 744.98,534.23 758.403,534.23 z" id="boundary" inkscape:connector-curvature="0" />
	<path style="fill:none;stroke:red;stroke-width:1px;stroke-linecap:butt;stroke-linejoin:miter;stroke-opacity:1" d="M 750.349,656.384 763.773,656.384 z" id="boundary" inkscape:connector-curvature="0" />
	<path style="fill:none;stroke:red;stroke-width:1px;stroke-linecap:butt;stroke-linejoin:miter;stroke-opacity:1" d="M 758.403,534.23 771.827,534.23 z" id="boundary" inkscape:connector-curvature="0" />
	<path style="fill:none;stroke:red;stroke-width:1px;stroke-linecap:butt;stroke-linejoin:miter;stroke-opacity:1" d="M 763.773,656.384 777.196,656.384 z" id="boundary" inkscape:connector-curvature="0" />
	<path style="fill:none;stroke:red;stroke-width:1px;stroke-linecap:butt;stroke-linejoin:miter;stroke-opacity:1" d="M 771.827,534.23 783.908,540.942 z" id="boundary" inkscape:connector-curvature="0" />
	<path style="fill:none;stroke:red;stroke-width:1px;stroke-linecap:butt;stroke-linejoin:miter;stroke-opacity:1" d="M 777.196,656.384 790.62,656.384 z" id="boundary" inkscape:connector-curvature="0" />
	<path style="fill:none;stroke:red;stroke-width:1px;stroke-linecap:butt;stroke-linejoin:miter;stroke-opacity:1" d="M 783.908,540.942 797.332,540.942 z" id="boundary" inkscape:connector-curvature="0" />
	<path style="fill:none;stroke:red;stroke-width:1px;stroke-linecap:butt;stroke-linejoin:miter;stroke-opacity:1" d="M 790.62,656.384 804.043,656.384 z" id="boundary" inkscape:connector-curvature="0" />
	<path style="fill:none;stroke:red;stroke-width:1px;stroke-linecap:butt;stroke-linejoin:miter;stroke-opacity:1" d="M 797.332,540.942 810.755,540.942 z" id="boundary" inkscape:connector-curvature="0" />
	<path style="fill:none;stroke:red;stroke-width:1px;stroke-linecap:butt;stroke-linejoin:miter;stroke-opacity:1" d="M 804.043,656.384 816.124,649.673 z" id="boundary" inkscape:connector-curvature="0" />
	<path style="fill:none;stroke:red;stroke-width:1px;stroke-linecap:butt;stroke-linejoin:miter;stroke-opacity:1" d="M 810.755,540.942 824.179,540.942 z" id="boundary" inkscape:connector-curvature="0" />
	<path style="fill:none;stroke:red;stroke-width:1px;stroke-linecap:butt;stroke-linejoin:miter;stroke-opacity:1" d="M 816.124,649.673 829.548,649.673 z" id="boundary" inkscape:connector-curvature="0" />
	<path style="fill:none;stroke:red;stroke-width:1px;stroke-linecap:butt;stroke-linejoin:miter;stroke-opacity:1" d="M 824.179,540.942 836.26,547.654 z" id="boundary" inkscape:connector-curvature="0" />
	<path style="fill:none;stroke:red;stroke-width:1px;stroke-linecap:butt;stroke-linejoin:miter;stroke-opacity:1" d="M 829.548,649.673 842.972,649.673 z" id="boundary" inkscape:connector-curvature="0" />
	<path style="fill:none;stroke:red;stroke-width:1px;stroke-linecap:butt;stroke-linejoin:miter;stroke-opacity:1" d="M 836.26,547.654 849.683,547.654 z" id="boundary" inkscape:connector-curvature="0" />
	<path style="fill:none;stroke:red;stroke-width:1px;stroke-linecap:butt;stroke-linejoin:miter;stroke-opacity:1" d="M 842.972,649.673 855.053,642.961 z" id="boundary" inkscape:connector-curvature="0" />
	<path style="fill:none;stroke:red;stroke-width:1px;stroke-linecap:butt;stroke-linejoin:miter;stroke-opacity:1" d="M 849.683,547.654 863.107,547.654 z" id="boundary" inkscape:connector-curvature="0" />
	<path style="fill:none;stroke:red;stroke-width:1px;stroke-linecap:butt;stroke-linejoin:miter;stroke-opacity:1" d="M 855.053,642.961 868.476,642.961 z" id="boundary" inkscape:connector-curvature="0" />
	<path style="fill:none;stroke:red;stroke-width:1px;stroke-linecap:butt;stroke-linejoin:miter;stroke-opacity:1" d="M 863.107,547.654 876.53,547.654 z" id="boundary" inkscape:connector-curvature="0" />
	<path style="fill:none;stroke:red;stroke-width:1px;stroke-linecap:butt;stroke-linejoin:miter;stroke-opacity:1" d="M 868.476,642.961 881.9,640.276 z" id="boundary" inkscape:connector-curvature="0" />
	<path style="fill:none;stroke:red;stroke-width:1px;stroke-linecap:butt;stroke-linejoin:miter;stroke-opacity:1" d="M 876.53,547.654 889.954,547.654 z" id="boundary" inkscape:connector-curvature="0" />
	<path style="fill:none;stroke:red;stroke-width:1px;stroke-linecap:butt;stroke-linejoin:miter;stroke-opacity:1" d="M 881.9,640.276 895.323,636.249 z" id="boundary" inkscape:connector-curvature="0" />
	<path style="fill:none;stroke:red;stroke-width:1px;stroke-linecap:butt;stroke-linejoin:miter;stroke-opacity:1" d="M 889.954,547.654 903.378,547.654 z" id="boundary" inkscape:connector-curvature="0" />
	<path style="fill:none;stroke:red;stroke-width:1px;stroke-linecap:butt;stroke-linejoin:miter;stroke-opacity:1" d="M 895.323,636.249 907.405,629.537 z" id="boundary" inkscape:connector-curvature="0" />
	<path style="fill:none;stroke:red;stroke-width:1px;stroke-linecap:butt;stroke-linejoin:miter;stroke-opacity:1" d="M 903.378,547.654 916.801,547.654 z" id="boundary" inkscape:connector-curvature="0" />
	<path style="fill:none;stroke:red;stroke-width:1px;stroke-linecap:butt;stroke-linejoin:miter;stroke-opacity:1" d="M 907.405,629.537 919.486,622.825 z" id="boundary" inkscape:connector-curvature="0" />
	<path style="fill:none;stroke:red;stroke-width:1px;stroke-linecap:butt;stroke-linejoin:miter;stroke-opacity:1" d="M 916.801,547.654 928.882,554.365 z" id="boundary" inkscape:connector-curvature="0" />
	<path style="fill:none;stroke:red;stroke-width:1px;stroke-linecap:butt;stroke-linejoin:miter;stroke-opacity:1" d="M 919.486,622.825 932.909,622.825 z" id="boundary" inkscape:connector-curvature="0" />
	<path style="fill:none;stroke:red;stroke-width:1px;stroke-linecap:butt;stroke-linejoin:miter;stroke-opacity:1" d="M 928.882,554.365 942.306,554.365 z" id="boundary" inkscape:connector-curvature="0" />
	<path style="fill:none;stroke:red;stroke-width:1px;stroke-linecap:butt;stroke-linejoin:miter;stroke-opacity:1" d="M 932.909,622.825 943.648,612.087 z" id="boundary" inkscape:connector-curvature="0" />
	<path style="fill:none;stroke:red;stroke-width:1px;stroke-linecap:butt;stroke-linejoin:miter;stroke-opacity:1" d="M 942.306,554.365 955.729,554.365 z" id="boundary" inkscape:connector-curvature="0" />
	<path style="fill:none;stroke:red;stroke-width:1px;stroke-linecap:butt;stroke-linejoin:miter;stroke-opacity:1" d="M 943.648,612.087 957.072,605.375 z" id="boundary" inkscape:connector-curvature="0" />
	<path style="fill:none;stroke:red;stroke-width:1px;stroke-linecap:butt;stroke-linejoin:miter;stroke-opacity:1" d="M 955.729,554.365 969.153,554.365 z" id="boundary" inkscape:connector-curvature="0" />
	<path style="fill:none;stroke:red;stroke-width:1px;stroke-linecap:butt;stroke-linejoin:miter;stroke-opacity:1" d="M 957.072,605.375 967.811,594.636 z" id="boundary" inkscape:connector-curvature="0" />
	<path style="fill:none;stroke:red;stroke-width:1px;stroke-linecap:butt;stroke-linejoin:miter;stroke-opacity:1" d="M 967.811,594.636 978.549,582.555 z" id="boundary" inkscape:connector-curvature="0" />
	<path style="fill:none;stroke:red;stroke-width:1px;stroke-linecap:butt;stroke-linejoin:miter;stroke-opacity:1" d="M 969.153,554.365 982.576,554.365 z" id="boundary" inkscape:connector-curvature="0" />
	<path style="fill:none;stroke:red;stroke-width:1px;stroke-linecap:butt;stroke-linejoin:miter;stroke-opacity:1" d="M 978.549,582.555 989.288,573.158 z" id="boundary" inkscape:connector-curvature="0" />
	<path style="fill:none;stroke:red;stroke-width:1px;stroke-linecap:butt;stroke-linejoin:miter;stroke-opacity:1" d="M 982.576,554.365 996,555.708 z" id="boundary" inkscape:connector-curvature="0" />
	<path style="fill:none;stroke:red;stroke-width:1px;stroke-linecap:butt;stroke-linejoin:miter;stroke-opacity:1" d="M 989.288,573.158 996,555.708 z" id="boundary" inkscape:connector-curvature="0" />
	<circle cx="4" cy="142.263" r="4" fill="#0" id="circle0"/>
	<circle cx="4" cy="155.686" r="4" fill="#0" id="circle1"/>
	<circle cx="4" cy="169.11" r="4" fill="#0" id="circle2"/>
	<circle cx="4" cy="182.533" r="4" fill="#0" id="circle3"/>
	<circle cx="4" cy="195.957" r="4" fill="#0" id="circle4"/>
	<circle cx="4" cy="209.38" r="4" fill="#0" id="circle5"/>
	<circle cx="4" cy="222.804" r="4" fill="#0" id="circle6"/>
	<circle cx="4" cy="236.227" r="4" fill="#0" id="circle7"/>
	<circle cx="4" cy="249.651" r="4" fill="#0" id="circle8"/>
	<circle cx="4" cy="263.074" r="4" fill="#0" id="circle9"/>
	<circle cx="10.7118" cy="115.415" r="4" fill="#0" id="circle10"/>
	<circle cx="10.7118" cy="128.839" r="4" fill="#0" id="circle11"/>
	<circle cx="14.7388" cy="272.471" r="4" fill="#0" id="circle12"/>
	<circle cx="21.4506" cy="104.677" r="4" fill="#0" id="circle13"/>
	<circle cx="24.1353" cy="88.5683" r="4" fill="#0" id="circle14"/>
	<circle cx="26.82" cy="279.183" r="4" fill="#0" id="circle15"/>
	<circle cx="34.8742" cy="77.8295" r="4" fill="#0" id="circle16"/>
	<circle cx="37.5589" cy="287.237" r="4" fill="#0" id="circle17"/>
	<circle cx="41.5859" cy="64.406" r="4" fill="#0" id="circle18"/>
	<circle cx="49.6401" cy="293.949" r="4" fill="#0" id="circle19"/>
	<circle cx="52.3248" cy="53.6671" r="4" fill="#0" id="circle20"/>
	<circle cx="63.0636" cy="44.2706" r="4" fill="#0" id="circle21"/>
	<circle cx="63.0636" cy="291.264" r="4" fill="#0" id="circle22"/>
	<circle cx="71.1177" cy="280.525" r="4" fill="#0" id="circle23"/>
	<circle cx="72.4601" cy="33.5318" r="4" fill="#0" id="circle24"/>
	<circle cx="79.1719" cy="260.39" r="4" fill="#0" id="circle25"/>
	<circle cx="85.8836" cy="26.82" r="4" fill="#0" id="circle26"/>
	<circle cx="89.9107" cy="250.993" r="4" fill="#0" id="circle27"/>
	<circle cx="92.5954" cy="233.543" r="4" fill="#0" id="circle28"/>
	<circle cx="96.6225" cy="17.4235" r="4" fill="#0" id="circle29"/>
	<circle cx="99.3072" cy="220.119" r="4" fill="#0" id="circle30"/>
	<circle cx="106.019" cy="206.696" r="4" fill="#0" id="circle31"/>
	<circle cx="108.704" cy="10.7118" r="4" fill="#0" id="circle32"/>
	<circle cx="118.1" cy="213.407" r="4" fill="#0" id="circle33"/>
	<circle cx="118.1" cy="226.831" r="4" fill="#0" id="circle34"/>
	<circle cx="118.1" cy="249.651" r="4" fill="#0" id="circle35"/>
	<circle cx="122.127" cy="10.7118" r="4" fill="#0" id="circle36"/>
	<circle cx="124.812" cy="276.498" r="4" fill="#0" id="circle37"/>
	<circle cx="128.839" cy="259.047" r="4" fill="#0" id="circle38"/>
	<circle cx="131.524" cy="288.579" r="4" fill="#0" id="circle39"/>
	<circle cx="134.208" cy="4" r="4" fill="#0" id="circle40"/>
	<circle cx="138.235" cy="300.66" r="4" fill="#0" id="circle41"/>
	<circle cx="146.29" cy="311.399" r="4" fill="#0" id="circle42"/>
	<circle cx="147.632" cy="4" r="4" fill="#0" id="circle43"/>
	<circle cx="159.713" cy="314.084" r="4" fill="#0" id="circle44"/>
	<circle cx="161.055" cy="4" r="4" fill="#0" id="circle45"/>
	<circle cx="165.083" cy="343.616" r="4" fill="#0" id="circle46"/>
	<circle cx="171.794" cy="307.372" r="4" fill="#0" id="circle47"/>
	<circle cx="171.794" cy="355.697" r="4" fill="#0" id="circle48"/>
	<circle cx="173.137" cy="10.7118" r="4" fill="#0" id="circle49"/>
	<circle cx="175.821" cy="332.877" r="4" fill="#0" id="circle50"/>
	<circle cx="185.218" cy="303.345" r="4" fill="#0" id="circle51"/>
	<circle cx="185.218" cy="357.039" r="4" fill="#0" id="circle52"/>
	<circle cx="185.218" cy="430.869" r="4" fill="#0" id="circle53"/>
	<circle cx="185.218" cy="444.292" r="4" fill="#0" id="circle54"/>
	<circle cx="186.56" cy="10.7118" r="4" fill="#0" id="circle55"/>
	<circle cx="187.903" cy="326.165" r="4" fill="#0" id="circle56"/>
	<circle cx="191.93" cy="417.445" r="4" fill="#0" id="circle57"/>
	<circle cx="195.957" cy="293.949" r="4" fill="#0" id="circle58"/>
	<circle cx="195.957" cy="347.643" r="4" fill="#0" id="circle59"/>
	<circle cx="195.957" cy="453.689" r="4" fill="#0" id="circle60"/>
	<circle cx="198.641" cy="17.4235" r="4" fill="#0" id="circle61"/>
	<circle cx="198.641" cy="363.751" r="4" fill="#0" id="circle62"/>
	<circle cx="198.641" cy="377.175" r="4" fill="#0" id="circle63"/>
	<circle cx="199.984" cy="319.453" r="4" fill="#0" id="circle64"/>
	<circle cx="205.353" cy="410.733" r="4" fill="#0" id="circle65"/>
	<circle cx="205.353" cy="464.428" r="4" fill="#0" id="circle66"/>
	<circle cx="205.353" cy="477.851" r="4" fill="#0" id="circle67"/>
	<circle cx="206.696" cy="387.913" r="4" fill="#0" id="circle68"/>
	<circle cx="208.038" cy="287.237" r="4" fill="#0" id="circle69"/>
	<circle cx="209.38" cy="448.319" r="4" fill="#0" id="circle70"/>
	<circle cx="210.723" cy="24.1353" r="4" fill="#0" id="circle71"/>
	<circle cx="212.065" cy="489.932" r="4" fill="#0" id="circle72"/>
	<circle cx="213.407" cy="273.813" r="4" fill="#0" id="circle73"/>
	<circle cx="213.407" cy="319.453" r="4" fill="#0" id="circle74"/>
	<circle cx="216.092" cy="399.995" r="4" fill="#0" id="circle75"/>
	<circle cx="217.434" cy="378.517" r="4" fill="#0" id="circle76"/>
	<circle cx="220.119" cy="260.39" r="4" fill="#0" id="circle77"/>
	<circle cx="221.461" cy="500.671" r="4" fill="#0" id="circle78"/>
	<circle cx="222.804" cy="30.8471" r="4" fill="#0" id="circle79"/>
	<circle cx="226.831" cy="240.254" r="4" fill="#0" id="circle80"/>
	<circle cx="226.831" cy="319.453" r="4" fill="#0" id="circle81"/>
	<circle cx="226.831" cy="367.778" r="4" fill="#0" id="circle82"/>
	<circle cx="226.831" cy="461.743" r="4" fill="#0" id="circle83"/>
	<circle cx="226.831" cy="475.166" r="4" fill="#0" id="circle84"/>
	<circle cx="229.516" cy="399.995" r="4" fill="#0" id="circle85"/>
	<circle cx="233.543" cy="487.248" r="4" fill="#0" id="circle86"/>
	<circle cx="234.885" cy="37.5589" r="4" fill="#0" id="circle87"/>
	<circle cx="237.57" cy="358.382" r="4" fill="#0" id="circle88"/>
	<circle cx="238.912" cy="455.031" r="4" fill="#0" id="circle89"/>
	<circle cx="240.254" cy="240.254" r="4" fill="#0" id="circle90"/>
	<circle cx="240.254" cy="319.453" r="4" fill="#0" id="circle91"/>
	<circle cx="241.597" cy="393.283" r="4" fill="#0" id="circle92"/>
	<circle cx="242.939" cy="468.455" r="4" fill="#0" id="circle93"/>
	<circle cx="245.624" cy="46.9553" r="4" fill="#0" id="circle94"/>
	<circle cx="246.966" cy="484.563" r="4" fill="#0" id="circle95"/>
	<circle cx="250.993" cy="354.355" r="4" fill="#0" id="circle96"/>
	<circle cx="252.336" cy="246.966" r="4" fill="#0" id="circle97"/>
	<circle cx="253.678" cy="57.6942" r="4" fill="#0" id="circle98"/>
	<circle cx="253.678" cy="319.453" r="4" fill="#0" id="circle99"/>
	<circle cx="253.678" cy="386.571" r="4" fill="#0" id="circle100"/>
	<circle cx="256.363" cy="495.302" r="4" fill="#0" id="circle101"/>
	<circle cx="260.39" cy="428.184" r="4" fill="#0" id="circle102"/>
	<circle cx="260.39" cy="441.608" r="4" fill="#0" id="circle103"/>
	<circle cx="263.074" cy="455.031" r="4" fill="#0" id="circle104"/>
	<circle cx="264.417" cy="65.7483" r="4" fill="#0" id="circle105"/>
	<circle cx="264.417" cy="253.678" r="4" fill="#0" id="circle106"/>
	<circle cx="264.417" cy="354.355" r="4" fill="#0" id="circle107"/>
	<circle cx="267.101" cy="319.453" r="4" fill="#0" id="circle108"/>
	<circle cx="267.101" cy="382.544" r="4" fill="#0" id="circle109"/>
	<circle cx="267.101" cy="414.76" r="4" fill="#0" id="circle110"/>
	<circle cx="269.786" cy="467.112" r="4" fill="#0" id="circle111"/>
	<circle cx="269.786" cy="493.959" r="4" fill="#0" id="circle112"/>
	<circle cx="273.813" cy="76.4871" r="4" fill="#0" id="circle113"/>
	<circle cx="273.813" cy="264.417" r="4" fill="#0" id="circle114"/>
	<circle cx="273.813" cy="480.536" r="4" fill="#0" id="circle115"/>
	<circle cx="277.84" cy="354.355" r="4" fill="#0" id="circle116"/>
	<circle cx="280.525" cy="88.5683" r="4" fill="#0" id="circle117"/>
	<circle cx="280.525" cy="319.453" r="4" fill="#0" id="circle118"/>
	<circle cx="280.525" cy="379.859" r="4" fill="#0" id="circle119"/>
	<circle cx="280.525" cy="408.049" r="4" fill="#0" id="circle120"/>
	<circle cx="284.552" cy="273.813" r="4" fill="#0" id="circle121"/>
	<circle cx="289.922" cy="99.3072" r="4" fill="#0" id="circle122"/>
	<circle cx="291.264" cy="354.355" r="4" fill="#0" id="circle123"/>
	<circle cx="292.606" cy="284.552" r="4" fill="#0" id="circle124"/>
	<circle cx="292.606" cy="297.976" r="4" fill="#0" id="circle125"/>
	<circle cx="292.606" cy="311.399" r="4" fill="#0" id="circle126"/>
	<circle cx="292.606" cy="367.778" r="4" fill="#0" id="circle127"/>
	<circle cx="293.949" cy="408.049" r="4" fill="#0" id="circle128"/>
	<circle cx="299.318" cy="421.472" r="4" fill="#0" id="circle129"/>
	<circle cx="300.66" cy="108.704" r="4" fill="#0" id="circle130"/>
	<circle cx="303.345" cy="434.896" r="4" fill="#0" id="circle131"/>
	<circle cx="306.03" cy="448.319" r="4" fill="#0" id="circle132"/>
	<circle cx="306.03" cy="461.743" r="4" fill="#0" id="circle133"/>
	<circle cx="306.03" cy="475.166" r="4" fill="#0" id="circle134"/>
	<circle cx="306.03" cy="488.59" r="4" fill="#0" id="circle135"/>
	<circle cx="306.03" cy="502.014" r="4" fill="#0" id="circle136"/>
	<circle cx="307.372" cy="120.785" r="4" fill="#0" id="circle137"/>
	<circle cx="312.742" cy="514.095" r="4" fill="#0" id="circle138"/>
	<circle cx="312.742" cy="527.518" r="4" fill="#0" id="circle139"/>
	<circle cx="315.426" cy="131.524" r="4" fill="#0" id="circle140"/>
	<circle cx="319.453" cy="539.599" r="4" fill="#0" id="circle141"/>
	<circle cx="326.165" cy="140.92" r="4" fill="#0" id="circle142"/>
	<circle cx="326.165" cy="551.681" r="4" fill="#0" id="circle143"/>
	<circle cx="326.165" cy="565.104" r="4" fill="#0" id="circle144"/>
	<circle cx="332.877" cy="706.051" r="4" fill="#0" id="circle145"/>
	<circle cx="332.877" cy="719.475" r="4" fill="#0" id="circle146"/>
	<circle cx="334.219" cy="151.659" r="4" fill="#0" id="circle147"/>
	<circle cx="336.904" cy="574.501" r="4" fill="#0" id="circle148"/>
	<circle cx="339.589" cy="692.628" r="4" fill="#0" id="circle149"/>
	<circle cx="339.589" cy="731.556" r="4" fill="#0" id="circle150"/>
	<circle cx="340.931" cy="163.74" r="4" fill="#0" id="circle151"/>
	<circle cx="342.273" cy="587.924" r="4" fill="#0" id="circle152"/>
	<circle cx="346.3" cy="672.493" r="4" fill="#0" id="circle153"/>
	<circle cx="346.3" cy="743.637" r="4" fill="#0" id="circle154"/>
	<circle cx="348.985" cy="600.005" r="4" fill="#0" id="circle155"/>
	<circle cx="351.67" cy="173.137" r="4" fill="#0" id="circle156"/>
	<circle cx="353.012" cy="755.719" r="4" fill="#0" id="circle157"/>
	<circle cx="357.039" cy="661.754" r="4" fill="#0" id="circle158"/>
	<circle cx="359.724" cy="609.402" r="4" fill="#0" id="circle159"/>
	<circle cx="361.066" cy="183.876" r="4" fill="#0" id="circle160"/>
	<circle cx="361.066" cy="766.457" r="4" fill="#0" id="circle161"/>
	<circle cx="363.751" cy="648.33" r="4" fill="#0" id="circle162"/>
	<circle cx="366.436" cy="621.483" r="4" fill="#0" id="circle163"/>
	<circle cx="367.778" cy="195.957" r="4" fill="#0" id="circle164"/>
	<circle cx="373.147" cy="633.564" r="4" fill="#0" id="circle165"/>
	<circle cx="373.147" cy="773.169" r="4" fill="#0" id="circle166"/>
	<circle cx="377.175" cy="206.696" r="4" fill="#0" id="circle167"/>
	<circle cx="383.886" cy="782.566" r="4" fill="#0" id="circle168"/>
	<circle cx="387.913" cy="216.092" r="4" fill="#0" id="circle169"/>
	<circle cx="393.283" cy="229.516" r="4" fill="#0" id="circle170"/>
	<circle cx="393.283" cy="793.304" r="4" fill="#0" id="circle171"/>
	<circle cx="404.022" cy="802.701" r="4" fill="#0" id="circle172"/>
	<circle cx="406.706" cy="234.885" r="4" fill="#0" id="circle173"/>
	<circle cx="412.076" cy="248.309" r="4" fill="#0" id="circle174"/>
	<circle cx="413.418" cy="813.44" r="4" fill="#0" id="circle175"/>
	<circle cx="413.418" cy="853.71" r="4" fill="#0" id="circle176"/>
	<circle cx="413.418" cy="867.134" r="4" fill="#0" id="circle177"/>
	<circle cx="413.418" cy="880.558" r="4" fill="#0" id="circle178"/>
	<circle cx="420.13" cy="825.521" r="4" fill="#0" id="circle179"/>
	<circle cx="420.13" cy="838.945" r="4" fill="#0" id="circle180"/>
	<circle cx="420.13" cy="892.639" r="4" fill="#0" id="circle181"/>
	<circle cx="421.472" cy="259.047" r="4" fill="#0" id="circle182"/>
	<circle cx="432.211" cy="267.101" r="4" fill="#0" id="circle183"/>
	<circle cx="433.553" cy="898.008" r="4" fill="#0" id="circle184"/>
	<circle cx="441.608" cy="277.84" r="4" fill="#0" id="circle185"/>
	<circle cx="445.635" cy="904.72" r="4" fill="#0" id="circle186"/>
	<circle cx="452.346" cy="287.237" r="4" fill="#0" id="circle187"/>
	<circle cx="455.031" cy="703.367" r="4" fill="#0" id="circle188"/>
	<circle cx="457.716" cy="300.66" r="4" fill="#0" id="circle189"/>
	<circle cx="457.716" cy="716.79" r="4" fill="#0" id="circle190"/>
	<circle cx="459.058" cy="904.72" r="4" fill="#0" id="circle191"/>
	<circle cx="467.112" cy="696.655" r="4" fill="#0" id="circle192"/>
	<circle cx="468.455" cy="310.057" r="4" fill="#0" id="circle193"/>
	<circle cx="468.455" cy="726.187" r="4" fill="#0" id="circle194"/>
	<circle cx="471.139" cy="911.432" r="4" fill="#0" id="circle195"/>
	<circle cx="477.851" cy="320.796" r="4" fill="#0" id="circle196"/>
	<circle cx="479.194" cy="689.943" r="4" fill="#0" id="circle197"/>
	<circle cx="479.194" cy="735.583" r="4" fill="#0" id="circle198"/>
	<circle cx="484.563" cy="911.432" r="4" fill="#0" id="circle199"/>
	<circle cx="488.59" cy="330.192" r="4" fill="#0" id="circle200"/>
	<circle cx="491.275" cy="742.295" r="4" fill="#0" id="circle201"/>
	<circle cx="492.617" cy="689.943" r="4" fill="#0" id="circle202"/>
	<circle cx="496.644" cy="904.72" r="4" fill="#0" id="circle203"/>
	<circle cx="497.986" cy="340.931" r="4" fill="#0" id="circle204"/>
	<circle cx="503.356" cy="749.007" r="4" fill="#0" id="circle205"/>
	<circle cx="506.041" cy="689.943" r="4" fill="#0" id="circle206"/>
	<circle cx="507.383" cy="893.981" r="4" fill="#0" id="circle207"/>
	<circle cx="508.725" cy="350.327" r="4" fill="#0" id="circle208"/>
	<circle cx="514.095" cy="758.403" r="4" fill="#0" id="circle209"/>
	<circle cx="514.095" cy="880.558" r="4" fill="#0" id="circle210"/>
	<circle cx="518.122" cy="361.066" r="4" fill="#0" id="circle211"/>
	<circle cx="519.464" cy="689.943" r="4" fill="#0" id="circle212"/>
	<circle cx="520.806" cy="867.134" r="4" fill="#0" id="circle213"/>
	<circle cx="522.149" cy="769.142" r="4" fill="#0" id="circle214"/>
	<circle cx="522.149" cy="830.89" r="4" fill="#0" id="circle215"/>
	<circle cx="522.149" cy="844.314" r="4" fill="#0" id="circle216"/>
	<circle cx="528.861" cy="370.463" r="4" fill="#0" id="circle217"/>
	<circle cx="528.861" cy="781.223" r="4" fill="#0" id="circle218"/>
	<circle cx="528.861" cy="794.647" r="4" fill="#0" id="circle219"/>
	<circle cx="528.861" cy="808.07" r="4" fill="#0" id="circle220"/>
	<circle cx="532.888" cy="689.943" r="4" fill="#0" id="circle221"/>
	<circle cx="534.23" cy="383.886" r="4" fill="#0" id="circle222"/>
	<circle cx="544.969" cy="393.283" r="4" fill="#0" id="circle223"/>
	<circle cx="546.311" cy="689.943" r="4" fill="#0" id="circle224"/>
	<circle cx="555.708" cy="401.337" r="4" fill="#0" id="circle225"/>
	<circle cx="559.735" cy="689.943" r="4" fill="#0" id="circle226"/>
	<circle cx="562.419" cy="413.418" r="4" fill="#0" id="circle227"/>
	<circle cx="573.158" cy="421.472" r="4" fill="#0" id="circle228"/>
	<circle cx="573.158" cy="689.943" r="4" fill="#0" id="circle229"/>
	<circle cx="582.555" cy="432.211" r="4" fill="#0" id="circle230"/>
	<circle cx="585.24" cy="696.655" r="4" fill="#0" id="circle231"/>
	<circle cx="595.978" cy="437.581" r="4" fill="#0" id="circle232"/>
	<circle cx="598.663" cy="696.655" r="4" fill="#0" id="circle233"/>
	<circle cx="605.375" cy="448.319" r="4" fill="#0" id="circle234"/>
	<circle cx="612.087" cy="702.024" r="4" fill="#0" id="circle235"/>
	<circle cx="616.114" cy="457.716" r="4" fill="#0" id="circle236"/>
	<circle cx="621.483" cy="712.763" r="4" fill="#0" id="circle237"/>
	<circle cx="621.483" cy="833.575" r="4" fill="#0" id="circle238"/>
	<circle cx="621.483" cy="846.999" r="4" fill="#0" id="circle239"/>
	<circle cx="621.483" cy="860.422" r="4" fill="#0" id="circle240"/>
	<circle cx="621.483" cy="873.846" r="4" fill="#0" id="circle241"/>
	<circle cx="626.853" cy="467.112" r="4" fill="#0" id="circle242"/>
	<circle cx="628.195" cy="724.844" r="4" fill="#0" id="circle243"/>
	<circle cx="628.195" cy="738.268" r="4" fill="#0" id="circle244"/>
	<circle cx="628.195" cy="751.691" r="4" fill="#0" id="circle245"/>
	<circle cx="628.195" cy="765.115" r="4" fill="#0" id="circle246"/>
	<circle cx="628.195" cy="778.539" r="4" fill="#0" id="circle247"/>
	<circle cx="628.195" cy="791.962" r="4" fill="#0" id="circle248"/>
	<circle cx="628.195" cy="805.386" r="4" fill="#0" id="circle249"/>
	<circle cx="628.195" cy="818.809" r="4" fill="#0" id="circle250"/>
	<circle cx="628.195" cy="885.927" r="4" fill="#0" id="circle251"/>
	<circle cx="637.591" cy="896.666" r="4" fill="#0" id="circle252"/>
	<circle cx="638.934" cy="473.824" r="4" fill="#0" id="circle253"/>
	<circle cx="648.33" cy="484.563" r="4" fill="#0" id="circle254"/>
	<circle cx="651.015" cy="902.035" r="4" fill="#0" id="circle255"/>
	<circle cx="659.069" cy="493.959" r="4" fill="#0" id="circle256"/>
	<circle cx="664.438" cy="904.72" r="4" fill="#0" id="circle257"/>
	<circle cx="671.15" cy="500.671" r="4" fill="#0" id="circle258"/>
	<circle cx="677.862" cy="904.72" r="4" fill="#0" id="circle259"/>
	<circle cx="683.231" cy="507.383" r="4" fill="#0" id="circle260"/>
	<circle cx="691.286" cy="904.72" r="4" fill="#0" id="circle261"/>
	<circle cx="695.313" cy="514.095" r="4" fill="#0" id="circle262"/>
	<circle cx="703.367" cy="898.008" r="4" fill="#0" id="circle263"/>
	<circle cx="707.394" cy="520.806" r="4" fill="#0" id="circle264"/>
	<circle cx="714.106" cy="888.612" r="4" fill="#0" id="circle265"/>
	<circle cx="719.475" cy="527.518" r="4" fill="#0" id="circle266"/>
	<circle cx="723.502" cy="877.873" r="4" fill="#0" id="circle267"/>
	<circle cx="730.214" cy="750.349" r="4" fill="#0" id="circle268"/>
	<circle cx="730.214" cy="763.773" r="4" fill="#0" id="circle269"/>
	<circle cx="730.214" cy="777.196" r="4" fill="#0" id="circle270"/>
	<circle cx="730.214" cy="790.62" r="4" fill="#0" id="circle271"/>
	<circle cx="730.214" cy="804.043" r="4" fill="#0" id="circle272"/>
	<circle cx="730.214" cy="851.026" r="4" fill="#0" id="circle273"/>
	<circle cx="730.214" cy="864.449" r="4" fill="#0" id="circle274"/>
	<circle cx="732.899" cy="527.518" r="4" fill="#0" id="circle275"/>
	<circle cx="736.926" cy="656.384" r="4" fill="#0" id="circle276"/>
	<circle cx="736.926" cy="669.808" r="4" fill="#0" id="circle277"/>
	<circle cx="736.926" cy="683.231" r="4" fill="#0" id="circle278"/>
	<circle cx="736.926" cy="730.214" r="4" fill="#0" id="circle279"/>
	<circle cx="736.926" cy="816.124" r="4" fill="#0" id="circle280"/>
	<circle cx="736.926" cy="829.548" r="4" fill="#0" id="circle281"/>
	<circle cx="743.637" cy="695.313" r="4" fill="#0" id="circle282"/>
	<circle cx="743.637" cy="708.736" r="4" fill="#0" id="circle283"/>
	<circle cx="744.98" cy="534.23" r="4" fill="#0" id="circle284"/>
	<circle cx="750.349" cy="656.384" r="4" fill="#0" id="circle285"/>
	<circle cx="758.403" cy="534.23" r="4" fill="#0" id="circle286"/>
	<circle cx="763.773" cy="656.384" r="4" fill="#0" id="circle287"/>
	<circle cx="771.827" cy="534.23" r="4" fill="#0" id="circle288"/>
	<circle cx="777.196" cy="656.384" r="4" fill="#0" id="circle289"/>
	<circle cx="783.908" cy="540.942" r="4" fill="#0" id="circle290"/>
	<circle cx="790.62" cy="656.384" r="4" fill="#0" id="circle291"/>
	<circle cx="797.332" cy="540.942" r="4" fill="#0" id="circle292"/>
	<circle cx="804.043" cy="656.384" r="4" fill="#0" id="circle293"/>
	<circle cx="810.755" cy="540.942" r="4" fill="#0" id="circle294"/>
	<circle cx="816.124" cy="649.673" r="4" fill="#0" id="circle295"/>
	<circle cx="824.179" cy="540.942" r="4" fill="#0" id="circle296"/>
	<circle cx="829.548" cy="649.673" r="4" fill="#0" id="circle297"/>
	<circle cx="836.26" cy="547.654" r="4" fill="#0" id="circle298"/>
	<circle cx="842.972" cy="649.673" r="4" fill="#0" id="circle299"/>
	<circle cx="849.683" cy="547.654" r="4" fill="#0" id="circle300"/>
	<circle cx="855.053" cy="642.961" r="4" fill="#0" id="circle301"/>
	<circle cx="863.107" cy="547.654" r="4" fill="#0" id="circle302"/>
	<circle cx="868.476" cy="642.961" r="4" fill="#0" id="circle303"/>
	<circle cx="876.53" cy="547.654" r="4" fill="#0" id="circle304"/>
	<circle cx="881.9" cy="640.276" r="4" fill="#0" id="circle305"/>
	<circle cx="889.954" cy="547.654" r="4" fill="#0" id="circle306"/>
	<circle cx="895.323" cy="636.249" r="4" fill="#0" id="circle307"/>
	<circle cx="903.378" cy="547.654" r="4" fill="#0" id="circle308"/>
	<circle cx="907.405" cy="629.537" r="4" fill="#0" id="circle309"/>
	<circle cx="916.801" cy="547.654" r="4" fill="#0" id="circle310"/>
	<circle cx="919.486" cy="622.825" r="4" fill="#0" id="circle311"/>
	<circle cx="928.882" cy="554.365" r="4" fill="#0" id="circle312"/>
	<circle cx="932.909" cy="622.825" r="4" fill="#0" id="circle313"/>
	<circle cx="942.306" cy="554.365" r="4" fill="#0" id="circle314"/>
	<circle cx="943.648" cy="612.087" r="4" fill="#0" id="circle315"/>
	<circle cx="955.729" cy="554.365" r="4" fill="#0" id="circle316"/>
	<circle cx="957.072" cy="605.375" r="4" fill="#0" id="circle317"/>
	<circle cx="967.811" cy="594.636" r="4" fill="#0" id="circle318"/>
	<circle cx="969.153" cy="554.365" r="4" fill="#0" id="circle319"/>
	<circle cx="978.549" cy="582.555" r="4" fill="#0" id="circle320"/>
	<circle cx="982.576" cy="554.365" r="4" fill="#0" id="circle321"/>
	<circle cx="989.288" cy="573.158" r="4" fill="#0" id="circle322"/>
	<circle cx="996" cy="555.708" r="4" fill="#0" id="circle323"/>
	</g>
</svg>