<?xml version="1.0" encoding="UTF-8" standalone="no"?>
<!-- Created with CurveBenchmark -->
<svg
	xmlns:dc="http://purl.org/dc/elements/1.1/"
	xmlns:cc="http://creativecommons.org/ns#"
	xmlns:rdf="http://www.w3.org/1999/02/22-rdf-syntax-ns#"
	xmlns:svg="http://www.w3.org/2000/svg"
	xmlns="http://www.w3.org/2000/svg"
	xmlns:sodipodi="http://sodipodi.sourceforge.net/DTD/sodipodi-0.dtd"
	xmlns:inkscape="http://www.inkscape.org/namespaces/inkscape"
	width="1000"
	height="1000"
	id="svg2"
	version="1.1"
	sodipodi:docname="manifold/discur-bird250.png.txt">
<defs
	id="defs4" />
<metadata
	id="metadata7">
	<rdf:RDF>
		<cc:Work
			rdf:about="">
			<dc:format>image/svg+xml</dc:format>
			<dc:type
				rdf:resource="http://purl.org/dc/dcmitype/StillImage" />
			<dc:title></dc:title>
		</cc:Work>
	</rdf:RDF>
</metadata>
<g
	inkscape:label="Layer 1"
	inkscape:groupmode="layer"
	id="layer1">
	<path style="fill:none;stroke:red;stroke-width:1px;stroke-linecap:butt;stroke-linejoin:miter;stroke-opacity:1" d="M 4,221.851 4,260.753 z" id="boundary" inkscape:connector-curvature="0" />
	<path style="fill:none;stroke:red;stroke-width:1px;stroke-linecap:butt;stroke-linejoin:miter;stroke-opacity:1" d="M 4,221.851 19.5608,151.827 z" id="boundary" inkscape:connector-curvature="0" />
	<path style="fill:none;stroke:red;stroke-width:1px;stroke-linecap:butt;stroke-linejoin:miter;stroke-opacity:1" d="M 4,260.753 23.451,295.765 z" id="boundary" inkscape:connector-curvature="0" />
	<path style="fill:none;stroke:red;stroke-width:1px;stroke-linecap:butt;stroke-linejoin:miter;stroke-opacity:1" d="M 19.5608,151.827 35.1216,105.145 z" id="boundary" inkscape:connector-curvature="0" />
	<path style="fill:none;stroke:red;stroke-width:1px;stroke-linecap:butt;stroke-linejoin:miter;stroke-opacity:1" d="M 23.451,295.765 54.5725,268.533 z" id="boundary" inkscape:connector-curvature="0" />
	<path style="fill:none;stroke:red;stroke-width:1px;stroke-linecap:butt;stroke-linejoin:miter;stroke-opacity:1" d="M 35.1216,105.145 66.2431,81.8039 z" id="boundary" inkscape:connector-curvature="0" />
	<path style="fill:none;stroke:red;stroke-width:1px;stroke-linecap:butt;stroke-linejoin:miter;stroke-opacity:1" d="M 54.5725,268.533 81.8039,299.655 z" id="boundary" inkscape:connector-curvature="0" />
	<path style="fill:none;stroke:red;stroke-width:1px;stroke-linecap:butt;stroke-linejoin:miter;stroke-opacity:1" d="M 66.2431,81.8039 97.3647,58.4627 z" id="boundary" inkscape:connector-curvature="0" />
	<path style="fill:none;stroke:red;stroke-width:1px;stroke-linecap:butt;stroke-linejoin:miter;stroke-opacity:1" d="M 81.8039,299.655 89.5843,338.557 z" id="boundary" inkscape:connector-curvature="0" />
	<path style="fill:none;stroke:red;stroke-width:1px;stroke-linecap:butt;stroke-linejoin:miter;stroke-opacity:1" d="M 89.5843,338.557 116.816,369.678 z" id="boundary" inkscape:connector-curvature="0" />
	<path style="fill:none;stroke:red;stroke-width:1px;stroke-linecap:butt;stroke-linejoin:miter;stroke-opacity:1" d="M 97.3647,58.4627 128.486,27.3412 z" id="boundary" inkscape:connector-curvature="0" />
	<path style="fill:none;stroke:red;stroke-width:1px;stroke-linecap:butt;stroke-linejoin:miter;stroke-opacity:1" d="M 97.3647,960.988 128.486,988.22 z" id="boundary" inkscape:connector-curvature="0" />
	<path style="fill:none;stroke:red;stroke-width:1px;stroke-linecap:butt;stroke-linejoin:miter;stroke-opacity:1" d="M 97.3647,960.988 136.267,945.427 z" id="boundary" inkscape:connector-curvature="0" />
	<path style="fill:none;stroke:red;stroke-width:1px;stroke-linecap:butt;stroke-linejoin:miter;stroke-opacity:1" d="M 116.816,369.678 136.267,404.69 z" id="boundary" inkscape:connector-curvature="0" />
	<path style="fill:none;stroke:red;stroke-width:1px;stroke-linecap:butt;stroke-linejoin:miter;stroke-opacity:1" d="M 128.486,27.3412 167.388,11.7804 z" id="boundary" inkscape:connector-curvature="0" />
	<path style="fill:none;stroke:red;stroke-width:1px;stroke-linecap:butt;stroke-linejoin:miter;stroke-opacity:1" d="M 128.486,988.22 167.388,996 z" id="boundary" inkscape:connector-curvature="0" />
	<path style="fill:none;stroke:red;stroke-width:1px;stroke-linecap:butt;stroke-linejoin:miter;stroke-opacity:1" d="M 136.267,404.69 144.047,443.592 z" id="boundary" inkscape:connector-curvature="0" />
	<path style="fill:none;stroke:red;stroke-width:1px;stroke-linecap:butt;stroke-linejoin:miter;stroke-opacity:1" d="M 136.267,945.427 159.608,890.965 z" id="boundary" inkscape:connector-curvature="0" />
	<path style="fill:none;stroke:red;stroke-width:1px;stroke-linecap:butt;stroke-linejoin:miter;stroke-opacity:1" d="M 144.047,443.592 151.827,482.494 z" id="boundary" inkscape:connector-curvature="0" />
	<path style="fill:none;stroke:red;stroke-width:1px;stroke-linecap:butt;stroke-linejoin:miter;stroke-opacity:1" d="M 151.827,482.494 151.827,521.396 z" id="boundary" inkscape:connector-curvature="0" />
	<path style="fill:none;stroke:red;stroke-width:1px;stroke-linecap:butt;stroke-linejoin:miter;stroke-opacity:1" d="M 151.827,521.396 159.608,560.298 z" id="boundary" inkscape:connector-curvature="0" />
	<path style="fill:none;stroke:red;stroke-width:1px;stroke-linecap:butt;stroke-linejoin:miter;stroke-opacity:1" d="M 159.608,560.298 167.388,599.2 z" id="boundary" inkscape:connector-curvature="0" />
	<path style="fill:none;stroke:red;stroke-width:1px;stroke-linecap:butt;stroke-linejoin:miter;stroke-opacity:1" d="M 159.608,852.063 159.608,890.965 z" id="boundary" inkscape:connector-curvature="0" />
	<path style="fill:none;stroke:red;stroke-width:1px;stroke-linecap:butt;stroke-linejoin:miter;stroke-opacity:1" d="M 159.608,852.063 167.388,813.161 z" id="boundary" inkscape:connector-curvature="0" />
	<path style="fill:none;stroke:red;stroke-width:1px;stroke-linecap:butt;stroke-linejoin:miter;stroke-opacity:1" d="M 167.388,11.7804 206.29,4 z" id="boundary" inkscape:connector-curvature="0" />
	<path style="fill:none;stroke:red;stroke-width:1px;stroke-linecap:butt;stroke-linejoin:miter;stroke-opacity:1" d="M 167.388,599.2 167.388,638.102 z" id="boundary" inkscape:connector-curvature="0" />
	<path style="fill:none;stroke:red;stroke-width:1px;stroke-linecap:butt;stroke-linejoin:miter;stroke-opacity:1" d="M 167.388,638.102 175.169,677.004 z" id="boundary" inkscape:connector-curvature="0" />
	<path style="fill:none;stroke:red;stroke-width:1px;stroke-linecap:butt;stroke-linejoin:miter;stroke-opacity:1" d="M 167.388,735.357 167.388,774.259 z" id="boundary" inkscape:connector-curvature="0" />
	<path style="fill:none;stroke:red;stroke-width:1px;stroke-linecap:butt;stroke-linejoin:miter;stroke-opacity:1" d="M 167.388,735.357 210.18,750.918 z" id="boundary" inkscape:connector-curvature="0" />
	<path style="fill:none;stroke:red;stroke-width:1px;stroke-linecap:butt;stroke-linejoin:miter;stroke-opacity:1" d="M 167.388,774.259 167.388,813.161 z" id="boundary" inkscape:connector-curvature="0" />
	<path style="fill:none;stroke:red;stroke-width:1px;stroke-linecap:butt;stroke-linejoin:miter;stroke-opacity:1" d="M 175.169,677.004 217.961,696.455 z" id="boundary" inkscape:connector-curvature="0" />
	<path style="fill:none;stroke:red;stroke-width:1px;stroke-linecap:butt;stroke-linejoin:miter;stroke-opacity:1" d="M 202.4,867.624 202.4,906.525 z" id="boundary" inkscape:connector-curvature="0" />
	<path style="fill:none;stroke:red;stroke-width:1px;stroke-linecap:butt;stroke-linejoin:miter;stroke-opacity:1" d="M 202.4,867.624 210.18,828.722 z" id="boundary" inkscape:connector-curvature="0" />
	<path style="fill:none;stroke:red;stroke-width:1px;stroke-linecap:butt;stroke-linejoin:miter;stroke-opacity:1" d="M 202.4,906.525 202.4,945.427 z" id="boundary" inkscape:connector-curvature="0" />
	<path style="fill:none;stroke:red;stroke-width:1px;stroke-linecap:butt;stroke-linejoin:miter;stroke-opacity:1" d="M 202.4,945.427 241.302,949.318 z" id="boundary" inkscape:connector-curvature="0" />
	<path style="fill:none;stroke:red;stroke-width:1px;stroke-linecap:butt;stroke-linejoin:miter;stroke-opacity:1" d="M 206.29,4 245.192,4 z" id="boundary" inkscape:connector-curvature="0" />
	<path style="fill:none;stroke:red;stroke-width:1px;stroke-linecap:butt;stroke-linejoin:miter;stroke-opacity:1" d="M 210.18,750.918 210.18,789.82 z" id="boundary" inkscape:connector-curvature="0" />
	<path style="fill:none;stroke:red;stroke-width:1px;stroke-linecap:butt;stroke-linejoin:miter;stroke-opacity:1" d="M 210.18,789.82 210.18,828.722 z" id="boundary" inkscape:connector-curvature="0" />
	<path style="fill:none;stroke:red;stroke-width:1px;stroke-linecap:butt;stroke-linejoin:miter;stroke-opacity:1" d="M 217.961,385.239 217.961,424.141 z" id="boundary" inkscape:connector-curvature="0" />
	<path style="fill:none;stroke:red;stroke-width:1px;stroke-linecap:butt;stroke-linejoin:miter;stroke-opacity:1" d="M 217.961,385.239 252.973,443.592 z" id="boundary" inkscape:connector-curvature="0" />
	<path style="fill:none;stroke:red;stroke-width:1px;stroke-linecap:butt;stroke-linejoin:miter;stroke-opacity:1" d="M 217.961,424.141 217.961,463.043 z" id="boundary" inkscape:connector-curvature="0" />
	<path style="fill:none;stroke:red;stroke-width:1px;stroke-linecap:butt;stroke-linejoin:miter;stroke-opacity:1" d="M 217.961,463.043 217.961,501.945 z" id="boundary" inkscape:connector-curvature="0" />
	<path style="fill:none;stroke:red;stroke-width:1px;stroke-linecap:butt;stroke-linejoin:miter;stroke-opacity:1" d="M 217.961,501.945 217.961,540.847 z" id="boundary" inkscape:connector-curvature="0" />
	<path style="fill:none;stroke:red;stroke-width:1px;stroke-linecap:butt;stroke-linejoin:miter;stroke-opacity:1" d="M 217.961,540.847 217.961,579.749 z" id="boundary" inkscape:connector-curvature="0" />
	<path style="fill:none;stroke:red;stroke-width:1px;stroke-linecap:butt;stroke-linejoin:miter;stroke-opacity:1" d="M 217.961,579.749 217.961,618.651 z" id="boundary" inkscape:connector-curvature="0" />
	<path style="fill:none;stroke:red;stroke-width:1px;stroke-linecap:butt;stroke-linejoin:miter;stroke-opacity:1" d="M 217.961,618.651 217.961,657.553 z" id="boundary" inkscape:connector-curvature="0" />
	<path style="fill:none;stroke:red;stroke-width:1px;stroke-linecap:butt;stroke-linejoin:miter;stroke-opacity:1" d="M 217.961,657.553 217.961,696.455 z" id="boundary" inkscape:connector-curvature="0" />
	<path style="fill:none;stroke:red;stroke-width:1px;stroke-linecap:butt;stroke-linejoin:miter;stroke-opacity:1" d="M 217.961,984.329 241.302,949.318 z" id="boundary" inkscape:connector-curvature="0" />
	<path style="fill:none;stroke:red;stroke-width:1px;stroke-linecap:butt;stroke-linejoin:miter;stroke-opacity:1" d="M 217.961,984.329 256.863,996 z" id="boundary" inkscape:connector-curvature="0" />
	<path style="fill:none;stroke:red;stroke-width:1px;stroke-linecap:butt;stroke-linejoin:miter;stroke-opacity:1" d="M 245.192,4 284.094,19.5608 z" id="boundary" inkscape:connector-curvature="0" />
	<path style="fill:none;stroke:red;stroke-width:1px;stroke-linecap:butt;stroke-linejoin:miter;stroke-opacity:1" d="M 252.973,443.592 260.753,482.494 z" id="boundary" inkscape:connector-curvature="0" />
	<path style="fill:none;stroke:red;stroke-width:1px;stroke-linecap:butt;stroke-linejoin:miter;stroke-opacity:1" d="M 252.973,906.525 260.753,852.063 z" id="boundary" inkscape:connector-curvature="0" />
	<path style="fill:none;stroke:red;stroke-width:1px;stroke-linecap:butt;stroke-linejoin:miter;stroke-opacity:1" d="M 252.973,906.525 303.545,906.525 z" id="boundary" inkscape:connector-curvature="0" />
	<path style="fill:none;stroke:red;stroke-width:1px;stroke-linecap:butt;stroke-linejoin:miter;stroke-opacity:1" d="M 256.863,996 295.765,968.769 z" id="boundary" inkscape:connector-curvature="0" />
	<path style="fill:none;stroke:red;stroke-width:1px;stroke-linecap:butt;stroke-linejoin:miter;stroke-opacity:1" d="M 260.753,482.494 260.753,521.396 z" id="boundary" inkscape:connector-curvature="0" />
	<path style="fill:none;stroke:red;stroke-width:1px;stroke-linecap:butt;stroke-linejoin:miter;stroke-opacity:1" d="M 260.753,521.396 260.753,560.298 z" id="boundary" inkscape:connector-curvature="0" />
	<path style="fill:none;stroke:red;stroke-width:1px;stroke-linecap:butt;stroke-linejoin:miter;stroke-opacity:1" d="M 260.753,560.298 260.753,599.2 z" id="boundary" inkscape:connector-curvature="0" />
	<path style="fill:none;stroke:red;stroke-width:1px;stroke-linecap:butt;stroke-linejoin:miter;stroke-opacity:1" d="M 260.753,599.2 260.753,657.553 z" id="boundary" inkscape:connector-curvature="0" />
	<path style="fill:none;stroke:red;stroke-width:1px;stroke-linecap:butt;stroke-linejoin:miter;stroke-opacity:1" d="M 260.753,657.553 268.533,696.455 z" id="boundary" inkscape:connector-curvature="0" />
	<path style="fill:none;stroke:red;stroke-width:1px;stroke-linecap:butt;stroke-linejoin:miter;stroke-opacity:1" d="M 260.753,735.357 260.753,774.259 z" id="boundary" inkscape:connector-curvature="0" />
	<path style="fill:none;stroke:red;stroke-width:1px;stroke-linecap:butt;stroke-linejoin:miter;stroke-opacity:1" d="M 260.753,735.357 268.533,696.455 z" id="boundary" inkscape:connector-curvature="0" />
	<path style="fill:none;stroke:red;stroke-width:1px;stroke-linecap:butt;stroke-linejoin:miter;stroke-opacity:1" d="M 260.753,774.259 260.753,813.161 z" id="boundary" inkscape:connector-curvature="0" />
	<path style="fill:none;stroke:red;stroke-width:1px;stroke-linecap:butt;stroke-linejoin:miter;stroke-opacity:1" d="M 260.753,813.161 260.753,852.063 z" id="boundary" inkscape:connector-curvature="0" />
	<path style="fill:none;stroke:red;stroke-width:1px;stroke-linecap:butt;stroke-linejoin:miter;stroke-opacity:1" d="M 284.094,19.5608 315.216,42.902 z" id="boundary" inkscape:connector-curvature="0" />
	<path style="fill:none;stroke:red;stroke-width:1px;stroke-linecap:butt;stroke-linejoin:miter;stroke-opacity:1" d="M 303.545,750.918 303.545,789.82 z" id="boundary" inkscape:connector-curvature="0" />
	<path style="fill:none;stroke:red;stroke-width:1px;stroke-linecap:butt;stroke-linejoin:miter;stroke-opacity:1" d="M 303.545,750.918 311.325,712.016 z" id="boundary" inkscape:connector-curvature="0" />
	<path style="fill:none;stroke:red;stroke-width:1px;stroke-linecap:butt;stroke-linejoin:miter;stroke-opacity:1" d="M 303.545,789.82 303.545,828.722 z" id="boundary" inkscape:connector-curvature="0" />
	<path style="fill:none;stroke:red;stroke-width:1px;stroke-linecap:butt;stroke-linejoin:miter;stroke-opacity:1" d="M 303.545,828.722 303.545,867.624 z" id="boundary" inkscape:connector-curvature="0" />
	<path style="fill:none;stroke:red;stroke-width:1px;stroke-linecap:butt;stroke-linejoin:miter;stroke-opacity:1" d="M 303.545,867.624 303.545,906.525 z" id="boundary" inkscape:connector-curvature="0" />
	<path style="fill:none;stroke:red;stroke-width:1px;stroke-linecap:butt;stroke-linejoin:miter;stroke-opacity:1" d="M 311.325,556.408 311.325,595.31 z" id="boundary" inkscape:connector-curvature="0" />
	<path style="fill:none;stroke:red;stroke-width:1px;stroke-linecap:butt;stroke-linejoin:miter;stroke-opacity:1" d="M 311.325,556.408 319.106,517.506 z" id="boundary" inkscape:connector-curvature="0" />
	<path style="fill:none;stroke:red;stroke-width:1px;stroke-linecap:butt;stroke-linejoin:miter;stroke-opacity:1" d="M 311.325,595.31 311.325,634.212 z" id="boundary" inkscape:connector-curvature="0" />
	<path style="fill:none;stroke:red;stroke-width:1px;stroke-linecap:butt;stroke-linejoin:miter;stroke-opacity:1" d="M 311.325,634.212 311.325,673.114 z" id="boundary" inkscape:connector-curvature="0" />
	<path style="fill:none;stroke:red;stroke-width:1px;stroke-linecap:butt;stroke-linejoin:miter;stroke-opacity:1" d="M 311.325,673.114 311.325,712.016 z" id="boundary" inkscape:connector-curvature="0" />
	<path style="fill:none;stroke:red;stroke-width:1px;stroke-linecap:butt;stroke-linejoin:miter;stroke-opacity:1" d="M 315.216,42.902 342.447,74.0235 z" id="boundary" inkscape:connector-curvature="0" />
	<path style="fill:none;stroke:red;stroke-width:1px;stroke-linecap:butt;stroke-linejoin:miter;stroke-opacity:1" d="M 319.106,400.8 319.106,439.702 z" id="boundary" inkscape:connector-curvature="0" />
	<path style="fill:none;stroke:red;stroke-width:1px;stroke-linecap:butt;stroke-linejoin:miter;stroke-opacity:1" d="M 319.106,400.8 358.008,428.031 z" id="boundary" inkscape:connector-curvature="0" />
	<path style="fill:none;stroke:red;stroke-width:1px;stroke-linecap:butt;stroke-linejoin:miter;stroke-opacity:1" d="M 319.106,439.702 319.106,478.604 z" id="boundary" inkscape:connector-curvature="0" />
	<path style="fill:none;stroke:red;stroke-width:1px;stroke-linecap:butt;stroke-linejoin:miter;stroke-opacity:1" d="M 319.106,478.604 319.106,517.506 z" id="boundary" inkscape:connector-curvature="0" />
	<path style="fill:none;stroke:red;stroke-width:1px;stroke-linecap:butt;stroke-linejoin:miter;stroke-opacity:1" d="M 342.447,74.0235 361.898,109.035 z" id="boundary" inkscape:connector-curvature="0" />
	<path style="fill:none;stroke:red;stroke-width:1px;stroke-linecap:butt;stroke-linejoin:miter;stroke-opacity:1" d="M 358.008,428.031 396.91,428.031 z" id="boundary" inkscape:connector-curvature="0" />
	<path style="fill:none;stroke:red;stroke-width:1px;stroke-linecap:butt;stroke-linejoin:miter;stroke-opacity:1" d="M 361.898,109.035 373.569,147.937 z" id="boundary" inkscape:connector-curvature="0" />
	<path style="fill:none;stroke:red;stroke-width:1px;stroke-linecap:butt;stroke-linejoin:miter;stroke-opacity:1" d="M 373.569,147.937 389.129,186.839 z" id="boundary" inkscape:connector-curvature="0" />
	<path style="fill:none;stroke:red;stroke-width:1px;stroke-linecap:butt;stroke-linejoin:miter;stroke-opacity:1" d="M 389.129,186.839 396.91,225.741 z" id="boundary" inkscape:connector-curvature="0" />
	<path style="fill:none;stroke:red;stroke-width:1px;stroke-linecap:butt;stroke-linejoin:miter;stroke-opacity:1" d="M 396.91,225.741 404.69,264.643 z" id="boundary" inkscape:connector-curvature="0" />
	<path style="fill:none;stroke:red;stroke-width:1px;stroke-linecap:butt;stroke-linejoin:miter;stroke-opacity:1" d="M 396.91,428.031 412.471,381.349 z" id="boundary" inkscape:connector-curvature="0" />
	<path style="fill:none;stroke:red;stroke-width:1px;stroke-linecap:butt;stroke-linejoin:miter;stroke-opacity:1" d="M 404.69,264.643 412.471,303.545 z" id="boundary" inkscape:connector-curvature="0" />
	<path style="fill:none;stroke:red;stroke-width:1px;stroke-linecap:butt;stroke-linejoin:miter;stroke-opacity:1" d="M 412.471,303.545 412.471,342.447 z" id="boundary" inkscape:connector-curvature="0" />
	<path style="fill:none;stroke:red;stroke-width:1px;stroke-linecap:butt;stroke-linejoin:miter;stroke-opacity:1" d="M 412.471,342.447 412.471,381.349 z" id="boundary" inkscape:connector-curvature="0" />
	<circle cx="4" cy="221.851" r="4" fill="#0" id="circle0"/>
	<circle cx="4" cy="260.753" r="4" fill="#0" id="circle1"/>
	<circle cx="19.5608" cy="151.827" r="4" fill="#0" id="circle2"/>
	<circle cx="23.451" cy="295.765" r="4" fill="#0" id="circle3"/>
	<circle cx="35.1216" cy="105.145" r="4" fill="#0" id="circle4"/>
	<circle cx="54.5725" cy="268.533" r="4" fill="#0" id="circle5"/>
	<circle cx="66.2431" cy="81.8039" r="4" fill="#0" id="circle6"/>
	<circle cx="81.8039" cy="299.655" r="4" fill="#0" id="circle7"/>
	<circle cx="89.5843" cy="338.557" r="4" fill="#0" id="circle8"/>
	<circle cx="97.3647" cy="58.4627" r="4" fill="#0" id="circle9"/>
	<circle cx="97.3647" cy="960.988" r="4" fill="#0" id="circle10"/>
	<circle cx="116.816" cy="369.678" r="4" fill="#0" id="circle11"/>
	<circle cx="128.486" cy="27.3412" r="4" fill="#0" id="circle12"/>
	<circle cx="128.486" cy="988.22" r="4" fill="#0" id="circle13"/>
	<circle cx="136.267" cy="404.69" r="4" fill="#0" id="circle14"/>
	<circle cx="136.267" cy="945.427" r="4" fill="#0" id="circle15"/>
	<circle cx="144.047" cy="443.592" r="4" fill="#0" id="circle16"/>
	<circle cx="151.827" cy="482.494" r="4" fill="#0" id="circle17"/>
	<circle cx="151.827" cy="521.396" r="4" fill="#0" id="circle18"/>
	<circle cx="159.608" cy="560.298" r="4" fill="#0" id="circle19"/>
	<circle cx="159.608" cy="852.063" r="4" fill="#0" id="circle20"/>
	<circle cx="159.608" cy="890.965" r="4" fill="#0" id="circle21"/>
	<circle cx="167.388" cy="11.7804" r="4" fill="#0" id="circle22"/>
	<circle cx="167.388" cy="599.2" r="4" fill="#0" id="circle23"/>
	<circle cx="167.388" cy="638.102" r="4" fill="#0" id="circle24"/>
	<circle cx="167.388" cy="735.357" r="4" fill="#0" id="circle25"/>
	<circle cx="167.388" cy="774.259" r="4" fill="#0" id="circle26"/>
	<circle cx="167.388" cy="813.161" r="4" fill="#0" id="circle27"/>
	<circle cx="167.388" cy="996" r="4" fill="#0" id="circle28"/>
	<circle cx="175.169" cy="677.004" r="4" fill="#0" id="circle29"/>
	<circle cx="202.4" cy="867.624" r="4" fill="#0" id="circle30"/>
	<circle cx="202.4" cy="906.525" r="4" fill="#0" id="circle31"/>
	<circle cx="202.4" cy="945.427" r="4" fill="#0" id="circle32"/>
	<circle cx="206.29" cy="4" r="4" fill="#0" id="circle33"/>
	<circle cx="210.18" cy="750.918" r="4" fill="#0" id="circle34"/>
	<circle cx="210.18" cy="789.82" r="4" fill="#0" id="circle35"/>
	<circle cx="210.18" cy="828.722" r="4" fill="#0" id="circle36"/>
	<circle cx="217.961" cy="385.239" r="4" fill="#0" id="circle37"/>
	<circle cx="217.961" cy="424.141" r="4" fill="#0" id="circle38"/>
	<circle cx="217.961" cy="463.043" r="4" fill="#0" id="circle39"/>
	<circle cx="217.961" cy="501.945" r="4" fill="#0" id="circle40"/>
	<circle cx="217.961" cy="540.847" r="4" fill="#0" id="circle41"/>
	<circle cx="217.961" cy="579.749" r="4" fill="#0" id="circle42"/>
	<circle cx="217.961" cy="618.651" r="4" fill="#0" id="circle43"/>
	<circle cx="217.961" cy="657.553" r="4" fill="#0" id="circle44"/>
	<circle cx="217.961" cy="696.455" r="4" fill="#0" id="circle45"/>
	<circle cx="217.961" cy="984.329" r="4" fill="#0" id="circle46"/>
	<circle cx="241.302" cy="949.318" r="4" fill="#0" id="circle47"/>
	<circle cx="245.192" cy="4" r="4" fill="#0" id="circle48"/>
	<circle cx="252.973" cy="443.592" r="4" fill="#0" id="circle49"/>
	<circle cx="252.973" cy="906.525" r="4" fill="#0" id="circle50"/>
	<circle cx="256.863" cy="996" r="4" fill="#0" id="circle51"/>
	<circle cx="260.753" cy="482.494" r="4" fill="#0" id="circle52"/>
	<circle cx="260.753" cy="521.396" r="4" fill="#0" id="circle53"/>
	<circle cx="260.753" cy="560.298" r="4" fill="#0" id="circle54"/>
	<circle cx="260.753" cy="599.2" r="4" fill="#0" id="circle55"/>
	<circle cx="260.753" cy="657.553" r="4" fill="#0" id="circle56"/>
	<circle cx="260.753" cy="735.357" r="4" fill="#0" id="circle57"/>
	<circle cx="260.753" cy="774.259" r="4" fill="#0" id="circle58"/>
	<circle cx="260.753" cy="813.161" r="4" fill="#0" id="circle59"/>
	<circle cx="260.753" cy="852.063" r="4" fill="#0" id="circle60"/>
	<circle cx="268.533" cy="696.455" r="4" fill="#0" id="circle61"/>
	<circle cx="284.094" cy="19.5608" r="4" fill="#0" id="circle62"/>
	<circle cx="295.765" cy="968.769" r="4" fill="#0" id="circle63"/>
	<circle cx="303.545" cy="750.918" r="4" fill="#0" id="circle64"/>
	<circle cx="303.545" cy="789.82" r="4" fill="#0" id="circle65"/>
	<circle cx="303.545" cy="828.722" r="4" fill="#0" id="circle66"/>
	<circle cx="303.545" cy="867.624" r="4" fill="#0" id="circle67"/>
	<circle cx="303.545" cy="906.525" r="4" fill="#0" id="circle68"/>
	<circle cx="311.325" cy="556.408" r="4" fill="#0" id="circle69"/>
	<circle cx="311.325" cy="595.31" r="4" fill="#0" id="circle70"/>
	<circle cx="311.325" cy="634.212" r="4" fill="#0" id="circle71"/>
	<circle cx="311.325" cy="673.114" r="4" fill="#0" id="circle72"/>
	<circle cx="311.325" cy="712.016" r="4" fill="#0" id="circle73"/>
	<circle cx="315.216" cy="42.902" r="4" fill="#0" id="circle74"/>
	<circle cx="319.106" cy="400.8" r="4" fill="#0" id="circle75"/>
	<circle cx="319.106" cy="439.702" r="4" fill="#0" id="circle76"/>
	<circle cx="319.106" cy="478.604" r="4" fill="#0" id="circle77"/>
	<circle cx="319.106" cy="517.506" r="4" fill="#0" id="circle78"/>
	<circle cx="342.447" cy="74.0235" r="4" fill="#0" id="circle79"/>
	<circle cx="358.008" cy="428.031" r="4" fill="#0" id="circle80"/>
	<circle cx="361.898" cy="109.035" r="4" fill="#0" id="circle81"/>
	<circle cx="373.569" cy="147.937" r="4" fill="#0" id="circle82"/>
	<circle cx="389.129" cy="186.839" r="4" fill="#0" id="circle83"/>
	<circle cx="396.91" cy="225.741" r="4" fill="#0" id="circle84"/>
	<circle cx="396.91" cy="428.031" r="4" fill="#0" id="circle85"/>
	<circle cx="404.69" cy="264.643" r="4" fill="#0" id="circle86"/>
	<circle cx="412.471" cy="303.545" r="4" fill="#0" id="circle87"/>
	<circle cx="412.471" cy="342.447" r="4" fill="#0" id="circle88"/>
	<circle cx="412.471" cy="381.349" r="4" fill="#0" id="circle89"/>
	</g>
</svg>