<?xml version="1.0" encoding="UTF-8" standalone="no"?>
<!-- Created with CurveBenchmark -->
<svg
	xmlns:dc="http://purl.org/dc/elements/1.1/"
	xmlns:cc="http://creativecommons.org/ns#"
	xmlns:rdf="http://www.w3.org/1999/02/22-rdf-syntax-ns#"
	xmlns:svg="http://www.w3.org/2000/svg"
	xmlns="http://www.w3.org/2000/svg"
	xmlns:sodipodi="http://sodipodi.sourceforge.net/DTD/sodipodi-0.dtd"
	xmlns:inkscape="http://www.inkscape.org/namespaces/inkscape"
	width="1000"
	height="1000"
	id="svg2"
	version="1.1"
	sodipodi:docname="manifold/discur-ray-18.png.txt">
<defs
	id="defs4" />
<metadata
	id="metadata7">
	<rdf:RDF>
		<cc:Work
			rdf:about="">
			<dc:format>image/svg+xml</dc:format>
			<dc:type
				rdf:resource="http://purl.org/dc/dcmitype/StillImage" />
			<dc:title></dc:title>
		</cc:Work>
	</rdf:RDF>
</metadata>
<g
	inkscape:label="Layer 1"
	inkscape:groupmode="layer"
	id="layer1">
	<path style="fill:none;stroke:red;stroke-width:1px;stroke-linecap:butt;stroke-linejoin:miter;stroke-opacity:1" d="M 4,331.605 4,339.259 z" id="boundary" inkscape:connector-curvature="0" />
	<path style="fill:none;stroke:red;stroke-width:1px;stroke-linecap:butt;stroke-linejoin:miter;stroke-opacity:1" d="M 4,331.605 7.82716,323.951 z" id="boundary" inkscape:connector-curvature="0" />
	<path style="fill:none;stroke:red;stroke-width:1px;stroke-linecap:butt;stroke-linejoin:miter;stroke-opacity:1" d="M 4,339.259 4,346.914 z" id="boundary" inkscape:connector-curvature="0" />
	<path style="fill:none;stroke:red;stroke-width:1px;stroke-linecap:butt;stroke-linejoin:miter;stroke-opacity:1" d="M 4,346.914 7.82716,361.457 z" id="boundary" inkscape:connector-curvature="0" />
	<path style="fill:none;stroke:red;stroke-width:1px;stroke-linecap:butt;stroke-linejoin:miter;stroke-opacity:1" d="M 7.82716,323.951 13.9506,317.827 z" id="boundary" inkscape:connector-curvature="0" />
	<path style="fill:none;stroke:red;stroke-width:1px;stroke-linecap:butt;stroke-linejoin:miter;stroke-opacity:1" d="M 7.82716,361.457 7.82716,369.111 z" id="boundary" inkscape:connector-curvature="0" />
	<path style="fill:none;stroke:red;stroke-width:1px;stroke-linecap:butt;stroke-linejoin:miter;stroke-opacity:1" d="M 7.82716,369.111 7.82716,376.765 z" id="boundary" inkscape:connector-curvature="0" />
	<path style="fill:none;stroke:red;stroke-width:1px;stroke-linecap:butt;stroke-linejoin:miter;stroke-opacity:1" d="M 7.82716,376.765 11.6543,391.309 z" id="boundary" inkscape:connector-curvature="0" />
	<path style="fill:none;stroke:red;stroke-width:1px;stroke-linecap:butt;stroke-linejoin:miter;stroke-opacity:1" d="M 11.6543,391.309 17.0123,405.852 z" id="boundary" inkscape:connector-curvature="0" />
	<path style="fill:none;stroke:red;stroke-width:1px;stroke-linecap:butt;stroke-linejoin:miter;stroke-opacity:1" d="M 13.9506,317.827 23.9012,304.049 z" id="boundary" inkscape:connector-curvature="0" />
	<path style="fill:none;stroke:red;stroke-width:1px;stroke-linecap:butt;stroke-linejoin:miter;stroke-opacity:1" d="M 17.0123,405.852 23.9012,420.395 z" id="boundary" inkscape:connector-curvature="0" />
	<path style="fill:none;stroke:red;stroke-width:1px;stroke-linecap:butt;stroke-linejoin:miter;stroke-opacity:1" d="M 23.9012,304.049 38.4444,289.506 z" id="boundary" inkscape:connector-curvature="0" />
	<path style="fill:none;stroke:red;stroke-width:1px;stroke-linecap:butt;stroke-linejoin:miter;stroke-opacity:1" d="M 23.9012,420.395 31.5556,423.457 z" id="boundary" inkscape:connector-curvature="0" />
	<path style="fill:none;stroke:red;stroke-width:1px;stroke-linecap:butt;stroke-linejoin:miter;stroke-opacity:1" d="M 31.5556,423.457 36.9136,429.58 z" id="boundary" inkscape:connector-curvature="0" />
	<path style="fill:none;stroke:red;stroke-width:1px;stroke-linecap:butt;stroke-linejoin:miter;stroke-opacity:1" d="M 36.9136,429.58 40.7407,436.469 z" id="boundary" inkscape:connector-curvature="0" />
	<path style="fill:none;stroke:red;stroke-width:1px;stroke-linecap:butt;stroke-linejoin:miter;stroke-opacity:1" d="M 38.4444,289.506 44.5679,283.383 z" id="boundary" inkscape:connector-curvature="0" />
	<path style="fill:none;stroke:red;stroke-width:1px;stroke-linecap:butt;stroke-linejoin:miter;stroke-opacity:1" d="M 40.7407,436.469 46.0988,442.593 z" id="boundary" inkscape:connector-curvature="0" />
	<path style="fill:none;stroke:red;stroke-width:1px;stroke-linecap:butt;stroke-linejoin:miter;stroke-opacity:1" d="M 44.5679,283.383 50.6914,277.259 z" id="boundary" inkscape:connector-curvature="0" />
	<path style="fill:none;stroke:red;stroke-width:1px;stroke-linecap:butt;stroke-linejoin:miter;stroke-opacity:1" d="M 46.0988,442.593 52.2222,447.951 z" id="boundary" inkscape:connector-curvature="0" />
	<path style="fill:none;stroke:red;stroke-width:1px;stroke-linecap:butt;stroke-linejoin:miter;stroke-opacity:1" d="M 50.6914,277.259 56.8148,271.901 z" id="boundary" inkscape:connector-curvature="0" />
	<path style="fill:none;stroke:red;stroke-width:1px;stroke-linecap:butt;stroke-linejoin:miter;stroke-opacity:1" d="M 52.2222,447.951 57.5802,454.074 z" id="boundary" inkscape:connector-curvature="0" />
	<path style="fill:none;stroke:red;stroke-width:1px;stroke-linecap:butt;stroke-linejoin:miter;stroke-opacity:1" d="M 56.8148,271.901 69.0617,258.889 z" id="boundary" inkscape:connector-curvature="0" />
	<path style="fill:none;stroke:red;stroke-width:1px;stroke-linecap:butt;stroke-linejoin:miter;stroke-opacity:1" d="M 57.5802,454.074 63.7037,459.432 z" id="boundary" inkscape:connector-curvature="0" />
	<path style="fill:none;stroke:red;stroke-width:1px;stroke-linecap:butt;stroke-linejoin:miter;stroke-opacity:1" d="M 63.7037,459.432 70.5926,463.259 z" id="boundary" inkscape:connector-curvature="0" />
	<path style="fill:none;stroke:red;stroke-width:1px;stroke-linecap:butt;stroke-linejoin:miter;stroke-opacity:1" d="M 69.0617,258.889 76.716,251.235 z" id="boundary" inkscape:connector-curvature="0" />
	<path style="fill:none;stroke:red;stroke-width:1px;stroke-linecap:butt;stroke-linejoin:miter;stroke-opacity:1" d="M 70.5926,463.259 76.716,467.852 z" id="boundary" inkscape:connector-curvature="0" />
	<path style="fill:none;stroke:red;stroke-width:1px;stroke-linecap:butt;stroke-linejoin:miter;stroke-opacity:1" d="M 76.716,251.235 84.3704,243.58 z" id="boundary" inkscape:connector-curvature="0" />
	<path style="fill:none;stroke:red;stroke-width:1px;stroke-linecap:butt;stroke-linejoin:miter;stroke-opacity:1" d="M 76.716,467.852 81.3086,473.975 z" id="boundary" inkscape:connector-curvature="0" />
	<path style="fill:none;stroke:red;stroke-width:1px;stroke-linecap:butt;stroke-linejoin:miter;stroke-opacity:1" d="M 81.3086,473.975 87.4321,479.333 z" id="boundary" inkscape:connector-curvature="0" />
	<path style="fill:none;stroke:red;stroke-width:1px;stroke-linecap:butt;stroke-linejoin:miter;stroke-opacity:1" d="M 84.3704,243.58 92.0247,239.753 z" id="boundary" inkscape:connector-curvature="0" />
	<path style="fill:none;stroke:red;stroke-width:1px;stroke-linecap:butt;stroke-linejoin:miter;stroke-opacity:1" d="M 87.4321,479.333 92.7901,485.457 z" id="boundary" inkscape:connector-curvature="0" />
	<path style="fill:none;stroke:red;stroke-width:1px;stroke-linecap:butt;stroke-linejoin:miter;stroke-opacity:1" d="M 92.0247,239.753 98.1481,233.63 z" id="boundary" inkscape:connector-curvature="0" />
	<path style="fill:none;stroke:red;stroke-width:1px;stroke-linecap:butt;stroke-linejoin:miter;stroke-opacity:1" d="M 92.7901,485.457 99.679,489.284 z" id="boundary" inkscape:connector-curvature="0" />
	<path style="fill:none;stroke:red;stroke-width:1px;stroke-linecap:butt;stroke-linejoin:miter;stroke-opacity:1" d="M 98.1481,233.63 111.926,223.679 z" id="boundary" inkscape:connector-curvature="0" />
	<path style="fill:none;stroke:red;stroke-width:1px;stroke-linecap:butt;stroke-linejoin:miter;stroke-opacity:1" d="M 99.679,489.284 105.802,494.642 z" id="boundary" inkscape:connector-curvature="0" />
	<path style="fill:none;stroke:red;stroke-width:1px;stroke-linecap:butt;stroke-linejoin:miter;stroke-opacity:1" d="M 105.802,494.642 112.691,498.469 z" id="boundary" inkscape:connector-curvature="0" />
	<path style="fill:none;stroke:red;stroke-width:1px;stroke-linecap:butt;stroke-linejoin:miter;stroke-opacity:1" d="M 111.926,223.679 118.049,218.321 z" id="boundary" inkscape:connector-curvature="0" />
	<path style="fill:none;stroke:red;stroke-width:1px;stroke-linecap:butt;stroke-linejoin:miter;stroke-opacity:1" d="M 112.691,498.469 118.815,503.062 z" id="boundary" inkscape:connector-curvature="0" />
	<path style="fill:none;stroke:red;stroke-width:1px;stroke-linecap:butt;stroke-linejoin:miter;stroke-opacity:1" d="M 118.049,218.321 131.062,208.37 z" id="boundary" inkscape:connector-curvature="0" />
	<path style="fill:none;stroke:red;stroke-width:1px;stroke-linecap:butt;stroke-linejoin:miter;stroke-opacity:1" d="M 118.815,503.062 131.827,512.247 z" id="boundary" inkscape:connector-curvature="0" />
	<path style="fill:none;stroke:red;stroke-width:1px;stroke-linecap:butt;stroke-linejoin:miter;stroke-opacity:1" d="M 131.062,208.37 137.185,203.012 z" id="boundary" inkscape:connector-curvature="0" />
	<path style="fill:none;stroke:red;stroke-width:1px;stroke-linecap:butt;stroke-linejoin:miter;stroke-opacity:1" d="M 131.827,512.247 137.951,517.605 z" id="boundary" inkscape:connector-curvature="0" />
	<path style="fill:none;stroke:red;stroke-width:1px;stroke-linecap:butt;stroke-linejoin:miter;stroke-opacity:1" d="M 137.185,203.012 144.074,199.185 z" id="boundary" inkscape:connector-curvature="0" />
	<path style="fill:none;stroke:red;stroke-width:1px;stroke-linecap:butt;stroke-linejoin:miter;stroke-opacity:1" d="M 137.951,517.605 144.84,521.432 z" id="boundary" inkscape:connector-curvature="0" />
	<path style="fill:none;stroke:red;stroke-width:1px;stroke-linecap:butt;stroke-linejoin:miter;stroke-opacity:1" d="M 144.074,199.185 150.198,193.062 z" id="boundary" inkscape:connector-curvature="0" />
	<path style="fill:none;stroke:red;stroke-width:1px;stroke-linecap:butt;stroke-linejoin:miter;stroke-opacity:1" d="M 144.84,521.432 151.728,525.259 z" id="boundary" inkscape:connector-curvature="0" />
	<path style="fill:none;stroke:red;stroke-width:1px;stroke-linecap:butt;stroke-linejoin:miter;stroke-opacity:1" d="M 150.198,193.062 156.321,187.704 z" id="boundary" inkscape:connector-curvature="0" />
	<path style="fill:none;stroke:red;stroke-width:1px;stroke-linecap:butt;stroke-linejoin:miter;stroke-opacity:1" d="M 151.728,525.259 165.506,532.914 z" id="boundary" inkscape:connector-curvature="0" />
	<path style="fill:none;stroke:red;stroke-width:1px;stroke-linecap:butt;stroke-linejoin:miter;stroke-opacity:1" d="M 156.321,187.704 163.21,183.877 z" id="boundary" inkscape:connector-curvature="0" />
	<path style="fill:none;stroke:red;stroke-width:1px;stroke-linecap:butt;stroke-linejoin:miter;stroke-opacity:1" d="M 163.21,183.877 169.333,177.753 z" id="boundary" inkscape:connector-curvature="0" />
	<path style="fill:none;stroke:red;stroke-width:1px;stroke-linecap:butt;stroke-linejoin:miter;stroke-opacity:1" d="M 165.506,532.914 179.284,540.568 z" id="boundary" inkscape:connector-curvature="0" />
	<path style="fill:none;stroke:red;stroke-width:1px;stroke-linecap:butt;stroke-linejoin:miter;stroke-opacity:1" d="M 169.333,177.753 175.457,172.395 z" id="boundary" inkscape:connector-curvature="0" />
	<path style="fill:none;stroke:red;stroke-width:1px;stroke-linecap:butt;stroke-linejoin:miter;stroke-opacity:1" d="M 175.457,172.395 190,168.568 z" id="boundary" inkscape:connector-curvature="0" />
	<path style="fill:none;stroke:red;stroke-width:1px;stroke-linecap:butt;stroke-linejoin:miter;stroke-opacity:1" d="M 179.284,540.568 184.642,546.691 z" id="boundary" inkscape:connector-curvature="0" />
	<path style="fill:none;stroke:red;stroke-width:1px;stroke-linecap:butt;stroke-linejoin:miter;stroke-opacity:1" d="M 184.642,546.691 190.765,552.049 z" id="boundary" inkscape:connector-curvature="0" />
	<path style="fill:none;stroke:red;stroke-width:1px;stroke-linecap:butt;stroke-linejoin:miter;stroke-opacity:1" d="M 190,168.568 203.778,160.914 z" id="boundary" inkscape:connector-curvature="0" />
	<path style="fill:none;stroke:red;stroke-width:1px;stroke-linecap:butt;stroke-linejoin:miter;stroke-opacity:1" d="M 190.765,552.049 197.654,555.877 z" id="boundary" inkscape:connector-curvature="0" />
	<path style="fill:none;stroke:red;stroke-width:1px;stroke-linecap:butt;stroke-linejoin:miter;stroke-opacity:1" d="M 197.654,555.877 204.543,559.704 z" id="boundary" inkscape:connector-curvature="0" />
	<path style="fill:none;stroke:red;stroke-width:1px;stroke-linecap:butt;stroke-linejoin:miter;stroke-opacity:1" d="M 203.778,160.914 218.321,157.086 z" id="boundary" inkscape:connector-curvature="0" />
	<path style="fill:none;stroke:red;stroke-width:1px;stroke-linecap:butt;stroke-linejoin:miter;stroke-opacity:1" d="M 204.543,559.704 211.432,563.531 z" id="boundary" inkscape:connector-curvature="0" />
	<path style="fill:none;stroke:red;stroke-width:1px;stroke-linecap:butt;stroke-linejoin:miter;stroke-opacity:1" d="M 211.432,563.531 216.025,569.654 z" id="boundary" inkscape:connector-curvature="0" />
	<path style="fill:none;stroke:red;stroke-width:1px;stroke-linecap:butt;stroke-linejoin:miter;stroke-opacity:1" d="M 218.321,157.086 225.21,153.259 z" id="boundary" inkscape:connector-curvature="0" />
	<path style="fill:none;stroke:red;stroke-width:1px;stroke-linecap:butt;stroke-linejoin:miter;stroke-opacity:1" d="M 225.21,153.259 232.099,149.432 z" id="boundary" inkscape:connector-curvature="0" />
	<path style="fill:none;stroke:red;stroke-width:1px;stroke-linecap:butt;stroke-linejoin:miter;stroke-opacity:1" d="M 230.568,575.012 237.457,578.84 z" id="boundary" inkscape:connector-curvature="0" />
	<path style="fill:none;stroke:red;stroke-width:1px;stroke-linecap:butt;stroke-linejoin:miter;stroke-opacity:1" d="M 230.568,575.012 244.346,582.667 z" id="boundary" inkscape:connector-curvature="0" />
	<path style="fill:none;stroke:red;stroke-width:1px;stroke-linecap:butt;stroke-linejoin:miter;stroke-opacity:1" d="M 232.099,149.432 238.222,143.309 z" id="boundary" inkscape:connector-curvature="0" />
	<path style="fill:none;stroke:red;stroke-width:1px;stroke-linecap:butt;stroke-linejoin:miter;stroke-opacity:1" d="M 237.457,578.84 244.346,582.667 z" id="boundary" inkscape:connector-curvature="0" />
	<path style="fill:none;stroke:red;stroke-width:1px;stroke-linecap:butt;stroke-linejoin:miter;stroke-opacity:1" d="M 238.222,143.309 245.877,139.481 z" id="boundary" inkscape:connector-curvature="0" />
	<path style="fill:none;stroke:red;stroke-width:1px;stroke-linecap:butt;stroke-linejoin:miter;stroke-opacity:1" d="M 245.877,139.481 252,134.123 z" id="boundary" inkscape:connector-curvature="0" />
	<path style="fill:none;stroke:red;stroke-width:1px;stroke-linecap:butt;stroke-linejoin:miter;stroke-opacity:1" d="M 252,134.123 257.358,128 z" id="boundary" inkscape:connector-curvature="0" />
	<path style="fill:none;stroke:red;stroke-width:1px;stroke-linecap:butt;stroke-linejoin:miter;stroke-opacity:1" d="M 257.358,128 263.481,122.642 z" id="boundary" inkscape:connector-curvature="0" />
	<path style="fill:none;stroke:red;stroke-width:1px;stroke-linecap:butt;stroke-linejoin:miter;stroke-opacity:1" d="M 258.889,589.556 269.605,597.975 z" id="boundary" inkscape:connector-curvature="0" />
	<path style="fill:none;stroke:red;stroke-width:1px;stroke-linecap:butt;stroke-linejoin:miter;stroke-opacity:1" d="M 263.481,122.642 277.259,114.988 z" id="boundary" inkscape:connector-curvature="0" />
	<path style="fill:none;stroke:red;stroke-width:1px;stroke-linecap:butt;stroke-linejoin:miter;stroke-opacity:1" d="M 269.605,597.975 276.494,601.802 z" id="boundary" inkscape:connector-curvature="0" />
	<path style="fill:none;stroke:red;stroke-width:1px;stroke-linecap:butt;stroke-linejoin:miter;stroke-opacity:1" d="M 276.494,601.802 291.037,605.63 z" id="boundary" inkscape:connector-curvature="0" />
	<path style="fill:none;stroke:red;stroke-width:1px;stroke-linecap:butt;stroke-linejoin:miter;stroke-opacity:1" d="M 277.259,114.988 284.148,111.16 z" id="boundary" inkscape:connector-curvature="0" />
	<path style="fill:none;stroke:red;stroke-width:1px;stroke-linecap:butt;stroke-linejoin:miter;stroke-opacity:1" d="M 284.148,111.16 291.037,105.802 z" id="boundary" inkscape:connector-curvature="0" />
	<path style="fill:none;stroke:red;stroke-width:1px;stroke-linecap:butt;stroke-linejoin:miter;stroke-opacity:1" d="M 291.037,605.63 297.926,609.457 z" id="boundary" inkscape:connector-curvature="0" />
	<path style="fill:none;stroke:red;stroke-width:1px;stroke-linecap:butt;stroke-linejoin:miter;stroke-opacity:1" d="M 297.926,609.457 311.704,617.111 z" id="boundary" inkscape:connector-curvature="0" />
	<path style="fill:none;stroke:red;stroke-width:1px;stroke-linecap:butt;stroke-linejoin:miter;stroke-opacity:1" d="M 300.988,92.0247 307.877,88.1975 z" id="boundary" inkscape:connector-curvature="0" />
	<path style="fill:none;stroke:red;stroke-width:1px;stroke-linecap:butt;stroke-linejoin:miter;stroke-opacity:1" d="M 300.988,92.0247 314,82.8395 z" id="boundary" inkscape:connector-curvature="0" />
	<path style="fill:none;stroke:red;stroke-width:1px;stroke-linecap:butt;stroke-linejoin:miter;stroke-opacity:1" d="M 307.877,88.1975 314,82.8395 z" id="boundary" inkscape:connector-curvature="0" />
	<path style="fill:none;stroke:red;stroke-width:1px;stroke-linecap:butt;stroke-linejoin:miter;stroke-opacity:1" d="M 311.704,617.111 327.012,617.111 z" id="boundary" inkscape:connector-curvature="0" />
	<path style="fill:none;stroke:red;stroke-width:1px;stroke-linecap:butt;stroke-linejoin:miter;stroke-opacity:1" d="M 323.951,69.0617 333.901,55.284 z" id="boundary" inkscape:connector-curvature="0" />
	<path style="fill:none;stroke:red;stroke-width:1px;stroke-linecap:butt;stroke-linejoin:miter;stroke-opacity:1" d="M 327.012,617.111 344.617,645.432 z" id="boundary" inkscape:connector-curvature="0" />
	<path style="fill:none;stroke:red;stroke-width:1px;stroke-linecap:butt;stroke-linejoin:miter;stroke-opacity:1" d="M 333.901,55.284 340.025,49.9259 z" id="boundary" inkscape:connector-curvature="0" />
	<path style="fill:none;stroke:red;stroke-width:1px;stroke-linecap:butt;stroke-linejoin:miter;stroke-opacity:1" d="M 340.025,49.9259 345.383,43.8025 z" id="boundary" inkscape:connector-curvature="0" />
	<path style="fill:none;stroke:red;stroke-width:1px;stroke-linecap:butt;stroke-linejoin:miter;stroke-opacity:1" d="M 341.556,620.938 348.444,617.111 z" id="boundary" inkscape:connector-curvature="0" />
	<path style="fill:none;stroke:red;stroke-width:1px;stroke-linecap:butt;stroke-linejoin:miter;stroke-opacity:1" d="M 341.556,620.938 348.444,626.296 z" id="boundary" inkscape:connector-curvature="0" />
	<path style="fill:none;stroke:red;stroke-width:1px;stroke-linecap:butt;stroke-linejoin:miter;stroke-opacity:1" d="M 344.617,645.432 344.617,653.086 z" id="boundary" inkscape:connector-curvature="0" />
	<path style="fill:none;stroke:red;stroke-width:1px;stroke-linecap:butt;stroke-linejoin:miter;stroke-opacity:1" d="M 344.617,653.086 344.617,668.395 z" id="boundary" inkscape:connector-curvature="0" />
	<path style="fill:none;stroke:red;stroke-width:1px;stroke-linecap:butt;stroke-linejoin:miter;stroke-opacity:1" d="M 344.617,668.395 344.617,676.049 z" id="boundary" inkscape:connector-curvature="0" />
	<path style="fill:none;stroke:red;stroke-width:1px;stroke-linecap:butt;stroke-linejoin:miter;stroke-opacity:1" d="M 344.617,676.049 344.617,683.704 z" id="boundary" inkscape:connector-curvature="0" />
	<path style="fill:none;stroke:red;stroke-width:1px;stroke-linecap:butt;stroke-linejoin:miter;stroke-opacity:1" d="M 344.617,683.704 356.864,689.827 z" id="boundary" inkscape:connector-curvature="0" />
	<path style="fill:none;stroke:red;stroke-width:1px;stroke-linecap:butt;stroke-linejoin:miter;stroke-opacity:1" d="M 345.383,43.8025 351.506,38.4444 z" id="boundary" inkscape:connector-curvature="0" />
	<path style="fill:none;stroke:red;stroke-width:1px;stroke-linecap:butt;stroke-linejoin:miter;stroke-opacity:1" d="M 348.444,617.111 348.444,626.296 z" id="boundary" inkscape:connector-curvature="0" />
	<path style="fill:none;stroke:red;stroke-width:1px;stroke-linecap:butt;stroke-linejoin:miter;stroke-opacity:1" d="M 351.506,38.4444 365.284,30.7901 z" id="boundary" inkscape:connector-curvature="0" />
	<path style="fill:none;stroke:red;stroke-width:1px;stroke-linecap:butt;stroke-linejoin:miter;stroke-opacity:1" d="M 356.864,689.827 364.519,691.358 z" id="boundary" inkscape:connector-curvature="0" />
	<path style="fill:none;stroke:red;stroke-width:1px;stroke-linecap:butt;stroke-linejoin:miter;stroke-opacity:1" d="M 364.519,691.358 372.173,693.654 z" id="boundary" inkscape:connector-curvature="0" />
	<path style="fill:none;stroke:red;stroke-width:1px;stroke-linecap:butt;stroke-linejoin:miter;stroke-opacity:1" d="M 365.284,30.7901 371.407,25.4321 z" id="boundary" inkscape:connector-curvature="0" />
	<path style="fill:none;stroke:red;stroke-width:1px;stroke-linecap:butt;stroke-linejoin:miter;stroke-opacity:1" d="M 371.407,25.4321 377.531,19.3086 z" id="boundary" inkscape:connector-curvature="0" />
	<path style="fill:none;stroke:red;stroke-width:1px;stroke-linecap:butt;stroke-linejoin:miter;stroke-opacity:1" d="M 372.173,693.654 376.765,699.778 z" id="boundary" inkscape:connector-curvature="0" />
	<path style="fill:none;stroke:red;stroke-width:1px;stroke-linecap:butt;stroke-linejoin:miter;stroke-opacity:1" d="M 376.765,699.778 389.778,708.963 z" id="boundary" inkscape:connector-curvature="0" />
	<path style="fill:none;stroke:red;stroke-width:1px;stroke-linecap:butt;stroke-linejoin:miter;stroke-opacity:1" d="M 377.531,19.3086 391.309,9.35802 z" id="boundary" inkscape:connector-curvature="0" />
	<path style="fill:none;stroke:red;stroke-width:1px;stroke-linecap:butt;stroke-linejoin:miter;stroke-opacity:1" d="M 389.778,708.963 395.136,722.741 z" id="boundary" inkscape:connector-curvature="0" />
	<path style="fill:none;stroke:red;stroke-width:1px;stroke-linecap:butt;stroke-linejoin:miter;stroke-opacity:1" d="M 391.309,9.35802 398.963,7.82716 z" id="boundary" inkscape:connector-curvature="0" />
	<path style="fill:none;stroke:red;stroke-width:1px;stroke-linecap:butt;stroke-linejoin:miter;stroke-opacity:1" d="M 395.136,722.741 402.025,735.753 z" id="boundary" inkscape:connector-curvature="0" />
	<path style="fill:none;stroke:red;stroke-width:1px;stroke-linecap:butt;stroke-linejoin:miter;stroke-opacity:1" d="M 398.963,7.82716 413.506,4 z" id="boundary" inkscape:connector-curvature="0" />
	<path style="fill:none;stroke:red;stroke-width:1px;stroke-linecap:butt;stroke-linejoin:miter;stroke-opacity:1" d="M 402.025,735.753 402.025,752.593 z" id="boundary" inkscape:connector-curvature="0" />
	<path style="fill:none;stroke:red;stroke-width:1px;stroke-linecap:butt;stroke-linejoin:miter;stroke-opacity:1" d="M 402.025,752.593 402.025,760.247 z" id="boundary" inkscape:connector-curvature="0" />
	<path style="fill:none;stroke:red;stroke-width:1px;stroke-linecap:butt;stroke-linejoin:miter;stroke-opacity:1" d="M 402.025,760.247 405.852,774.79 z" id="boundary" inkscape:connector-curvature="0" />
	<path style="fill:none;stroke:red;stroke-width:1px;stroke-linecap:butt;stroke-linejoin:miter;stroke-opacity:1" d="M 405.852,774.79 405.852,782.444 z" id="boundary" inkscape:connector-curvature="0" />
	<path style="fill:none;stroke:red;stroke-width:1px;stroke-linecap:butt;stroke-linejoin:miter;stroke-opacity:1" d="M 405.852,782.444 405.852,790.099 z" id="boundary" inkscape:connector-curvature="0" />
	<path style="fill:none;stroke:red;stroke-width:1px;stroke-linecap:butt;stroke-linejoin:miter;stroke-opacity:1" d="M 405.852,790.099 405.852,797.753 z" id="boundary" inkscape:connector-curvature="0" />
	<path style="fill:none;stroke:red;stroke-width:1px;stroke-linecap:butt;stroke-linejoin:miter;stroke-opacity:1" d="M 405.852,797.753 405.852,813.062 z" id="boundary" inkscape:connector-curvature="0" />
	<path style="fill:none;stroke:red;stroke-width:1px;stroke-linecap:butt;stroke-linejoin:miter;stroke-opacity:1" d="M 405.852,813.062 405.852,820.716 z" id="boundary" inkscape:connector-curvature="0" />
	<path style="fill:none;stroke:red;stroke-width:1px;stroke-linecap:butt;stroke-linejoin:miter;stroke-opacity:1" d="M 405.852,820.716 405.852,828.37 z" id="boundary" inkscape:connector-curvature="0" />
	<path style="fill:none;stroke:red;stroke-width:1px;stroke-linecap:butt;stroke-linejoin:miter;stroke-opacity:1" d="M 405.852,828.37 405.852,836.025 z" id="boundary" inkscape:connector-curvature="0" />
	<path style="fill:none;stroke:red;stroke-width:1px;stroke-linecap:butt;stroke-linejoin:miter;stroke-opacity:1" d="M 405.852,836.025 405.852,843.679 z" id="boundary" inkscape:connector-curvature="0" />
	<path style="fill:none;stroke:red;stroke-width:1px;stroke-linecap:butt;stroke-linejoin:miter;stroke-opacity:1" d="M 405.852,843.679 409.679,858.222 z" id="boundary" inkscape:connector-curvature="0" />
	<path style="fill:none;stroke:red;stroke-width:1px;stroke-linecap:butt;stroke-linejoin:miter;stroke-opacity:1" d="M 409.679,858.222 409.679,865.877 z" id="boundary" inkscape:connector-curvature="0" />
	<path style="fill:none;stroke:red;stroke-width:1px;stroke-linecap:butt;stroke-linejoin:miter;stroke-opacity:1" d="M 409.679,865.877 409.679,886.543 z" id="boundary" inkscape:connector-curvature="0" />
	<path style="fill:none;stroke:red;stroke-width:1px;stroke-linecap:butt;stroke-linejoin:miter;stroke-opacity:1" d="M 409.679,886.543 409.679,894.198 z" id="boundary" inkscape:connector-curvature="0" />
	<path style="fill:none;stroke:red;stroke-width:1px;stroke-linecap:butt;stroke-linejoin:miter;stroke-opacity:1" d="M 409.679,894.198 413.506,901.086 z" id="boundary" inkscape:connector-curvature="0" />
	<path style="fill:none;stroke:red;stroke-width:1px;stroke-linecap:butt;stroke-linejoin:miter;stroke-opacity:1" d="M 413.506,4 421.16,4 z" id="boundary" inkscape:connector-curvature="0" />
	<path style="fill:none;stroke:red;stroke-width:1px;stroke-linecap:butt;stroke-linejoin:miter;stroke-opacity:1" d="M 413.506,901.086 418.864,907.21 z" id="boundary" inkscape:connector-curvature="0" />
	<path style="fill:none;stroke:red;stroke-width:1px;stroke-linecap:butt;stroke-linejoin:miter;stroke-opacity:1" d="M 418.864,907.21 427.284,919.457 z" id="boundary" inkscape:connector-curvature="0" />
	<path style="fill:none;stroke:red;stroke-width:1px;stroke-linecap:butt;stroke-linejoin:miter;stroke-opacity:1" d="M 421.16,4 428.815,4 z" id="boundary" inkscape:connector-curvature="0" />
	<path style="fill:none;stroke:red;stroke-width:1px;stroke-linecap:butt;stroke-linejoin:miter;stroke-opacity:1" d="M 427.284,919.457 434.173,934 z" id="boundary" inkscape:connector-curvature="0" />
	<path style="fill:none;stroke:red;stroke-width:1px;stroke-linecap:butt;stroke-linejoin:miter;stroke-opacity:1" d="M 428.815,4 436.469,4 z" id="boundary" inkscape:connector-curvature="0" />
	<path style="fill:none;stroke:red;stroke-width:1px;stroke-linecap:butt;stroke-linejoin:miter;stroke-opacity:1" d="M 429.58,624.765 429.58,632.42 z" id="boundary" inkscape:connector-curvature="0" />
	<path style="fill:none;stroke:red;stroke-width:1px;stroke-linecap:butt;stroke-linejoin:miter;stroke-opacity:1" d="M 429.58,624.765 437.235,626.296 z" id="boundary" inkscape:connector-curvature="0" />
	<path style="fill:none;stroke:red;stroke-width:1px;stroke-linecap:butt;stroke-linejoin:miter;stroke-opacity:1" d="M 429.58,632.42 429.58,640.074 z" id="boundary" inkscape:connector-curvature="0" />
	<path style="fill:none;stroke:red;stroke-width:1px;stroke-linecap:butt;stroke-linejoin:miter;stroke-opacity:1" d="M 429.58,640.074 437.235,640.84 z" id="boundary" inkscape:connector-curvature="0" />
	<path style="fill:none;stroke:red;stroke-width:1px;stroke-linecap:butt;stroke-linejoin:miter;stroke-opacity:1" d="M 434.173,934 438,940.889 z" id="boundary" inkscape:connector-curvature="0" />
	<path style="fill:none;stroke:red;stroke-width:1px;stroke-linecap:butt;stroke-linejoin:miter;stroke-opacity:1" d="M 436.469,4 444.123,5.53086 z" id="boundary" inkscape:connector-curvature="0" />
	<path style="fill:none;stroke:red;stroke-width:1px;stroke-linecap:butt;stroke-linejoin:miter;stroke-opacity:1" d="M 437.235,626.296 437.235,640.84 z" id="boundary" inkscape:connector-curvature="0" />
	<path style="fill:none;stroke:red;stroke-width:1px;stroke-linecap:butt;stroke-linejoin:miter;stroke-opacity:1" d="M 438,940.889 444.123,946.247 z" id="boundary" inkscape:connector-curvature="0" />
	<path style="fill:none;stroke:red;stroke-width:1px;stroke-linecap:butt;stroke-linejoin:miter;stroke-opacity:1" d="M 444.123,5.53086 448.716,11.6543 z" id="boundary" inkscape:connector-curvature="0" />
	<path style="fill:none;stroke:red;stroke-width:1px;stroke-linecap:butt;stroke-linejoin:miter;stroke-opacity:1" d="M 444.123,946.247 447.951,953.136 z" id="boundary" inkscape:connector-curvature="0" />
	<path style="fill:none;stroke:red;stroke-width:1px;stroke-linecap:butt;stroke-linejoin:miter;stroke-opacity:1" d="M 447.951,953.136 452.543,959.259 z" id="boundary" inkscape:connector-curvature="0" />
	<path style="fill:none;stroke:red;stroke-width:1px;stroke-linecap:butt;stroke-linejoin:miter;stroke-opacity:1" d="M 448.716,11.6543 455.605,15.4815 z" id="boundary" inkscape:connector-curvature="0" />
	<path style="fill:none;stroke:red;stroke-width:1px;stroke-linecap:butt;stroke-linejoin:miter;stroke-opacity:1" d="M 452.543,959.259 463.259,969.21 z" id="boundary" inkscape:connector-curvature="0" />
	<path style="fill:none;stroke:red;stroke-width:1px;stroke-linecap:butt;stroke-linejoin:miter;stroke-opacity:1" d="M 455.605,15.4815 462.494,19.3086 z" id="boundary" inkscape:connector-curvature="0" />
	<path style="fill:none;stroke:red;stroke-width:1px;stroke-linecap:butt;stroke-linejoin:miter;stroke-opacity:1" d="M 460.198,789.333 461.728,796.988 z" id="boundary" inkscape:connector-curvature="0" />
	<path style="fill:none;stroke:red;stroke-width:1px;stroke-linecap:butt;stroke-linejoin:miter;stroke-opacity:1" d="M 460.198,789.333 464.025,781.679 z" id="boundary" inkscape:connector-curvature="0" />
	<path style="fill:none;stroke:red;stroke-width:1px;stroke-linecap:butt;stroke-linejoin:miter;stroke-opacity:1" d="M 461.728,796.988 464.025,804.642 z" id="boundary" inkscape:connector-curvature="0" />
	<path style="fill:none;stroke:red;stroke-width:1px;stroke-linecap:butt;stroke-linejoin:miter;stroke-opacity:1" d="M 462.494,19.3086 469.383,23.1358 z" id="boundary" inkscape:connector-curvature="0" />
	<path style="fill:none;stroke:red;stroke-width:1px;stroke-linecap:butt;stroke-linejoin:miter;stroke-opacity:1" d="M 463.259,969.21 465.556,976.864 z" id="boundary" inkscape:connector-curvature="0" />
	<path style="fill:none;stroke:red;stroke-width:1px;stroke-linecap:butt;stroke-linejoin:miter;stroke-opacity:1" d="M 464.025,751.062 464.025,766.37 z" id="boundary" inkscape:connector-curvature="0" />
	<path style="fill:none;stroke:red;stroke-width:1px;stroke-linecap:butt;stroke-linejoin:miter;stroke-opacity:1" d="M 464.025,751.062 467.852,739.58 z" id="boundary" inkscape:connector-curvature="0" />
	<path style="fill:none;stroke:red;stroke-width:1px;stroke-linecap:butt;stroke-linejoin:miter;stroke-opacity:1" d="M 464.025,766.37 464.025,774.025 z" id="boundary" inkscape:connector-curvature="0" />
	<path style="fill:none;stroke:red;stroke-width:1px;stroke-linecap:butt;stroke-linejoin:miter;stroke-opacity:1" d="M 464.025,774.025 464.025,781.679 z" id="boundary" inkscape:connector-curvature="0" />
	<path style="fill:none;stroke:red;stroke-width:1px;stroke-linecap:butt;stroke-linejoin:miter;stroke-opacity:1" d="M 464.025,804.642 464.025,812.296 z" id="boundary" inkscape:connector-curvature="0" />
	<path style="fill:none;stroke:red;stroke-width:1px;stroke-linecap:butt;stroke-linejoin:miter;stroke-opacity:1" d="M 464.025,812.296 464.025,827.605 z" id="boundary" inkscape:connector-curvature="0" />
	<path style="fill:none;stroke:red;stroke-width:1px;stroke-linecap:butt;stroke-linejoin:miter;stroke-opacity:1" d="M 464.025,827.605 464.025,835.259 z" id="boundary" inkscape:connector-curvature="0" />
	<path style="fill:none;stroke:red;stroke-width:1px;stroke-linecap:butt;stroke-linejoin:miter;stroke-opacity:1" d="M 464.025,835.259 464.025,842.914 z" id="boundary" inkscape:connector-curvature="0" />
	<path style="fill:none;stroke:red;stroke-width:1px;stroke-linecap:butt;stroke-linejoin:miter;stroke-opacity:1" d="M 464.025,842.914 465.556,850.568 z" id="boundary" inkscape:connector-curvature="0" />
	<path style="fill:none;stroke:red;stroke-width:1px;stroke-linecap:butt;stroke-linejoin:miter;stroke-opacity:1" d="M 465.556,850.568 467.852,858.222 z" id="boundary" inkscape:connector-curvature="0" />
	<path style="fill:none;stroke:red;stroke-width:1px;stroke-linecap:butt;stroke-linejoin:miter;stroke-opacity:1" d="M 465.556,976.864 473.21,979.926 z" id="boundary" inkscape:connector-curvature="0" />
	<path style="fill:none;stroke:red;stroke-width:1px;stroke-linecap:butt;stroke-linejoin:miter;stroke-opacity:1" d="M 467.852,739.58 473.975,734.222 z" id="boundary" inkscape:connector-curvature="0" />
	<path style="fill:none;stroke:red;stroke-width:1px;stroke-linecap:butt;stroke-linejoin:miter;stroke-opacity:1" d="M 467.852,858.222 467.852,865.877 z" id="boundary" inkscape:connector-curvature="0" />
	<path style="fill:none;stroke:red;stroke-width:1px;stroke-linecap:butt;stroke-linejoin:miter;stroke-opacity:1" d="M 467.852,865.877 469.383,873.531 z" id="boundary" inkscape:connector-curvature="0" />
	<path style="fill:none;stroke:red;stroke-width:1px;stroke-linecap:butt;stroke-linejoin:miter;stroke-opacity:1" d="M 469.383,23.1358 474.741,29.2593 z" id="boundary" inkscape:connector-curvature="0" />
	<path style="fill:none;stroke:red;stroke-width:1px;stroke-linecap:butt;stroke-linejoin:miter;stroke-opacity:1" d="M 469.383,873.531 473.21,888.84 z" id="boundary" inkscape:connector-curvature="0" />
	<path style="fill:none;stroke:red;stroke-width:1px;stroke-linecap:butt;stroke-linejoin:miter;stroke-opacity:1" d="M 473.21,888.84 479.333,903.383 z" id="boundary" inkscape:connector-curvature="0" />
	<path style="fill:none;stroke:red;stroke-width:1px;stroke-linecap:butt;stroke-linejoin:miter;stroke-opacity:1" d="M 473.21,979.926 486.222,988.346 z" id="boundary" inkscape:connector-curvature="0" />
	<path style="fill:none;stroke:red;stroke-width:1px;stroke-linecap:butt;stroke-linejoin:miter;stroke-opacity:1" d="M 473.975,734.222 483.16,716.617 z" id="boundary" inkscape:connector-curvature="0" />
	<path style="fill:none;stroke:red;stroke-width:1px;stroke-linecap:butt;stroke-linejoin:miter;stroke-opacity:1" d="M 474.741,29.2593 487.753,38.4444 z" id="boundary" inkscape:connector-curvature="0" />
	<path style="fill:none;stroke:red;stroke-width:1px;stroke-linecap:butt;stroke-linejoin:miter;stroke-opacity:1" d="M 479.333,903.383 479.333,911.037 z" id="boundary" inkscape:connector-curvature="0" />
	<path style="fill:none;stroke:red;stroke-width:1px;stroke-linecap:butt;stroke-linejoin:miter;stroke-opacity:1" d="M 479.333,911.037 488.519,923.284 z" id="boundary" inkscape:connector-curvature="0" />
	<path style="fill:none;stroke:red;stroke-width:1px;stroke-linecap:butt;stroke-linejoin:miter;stroke-opacity:1" d="M 483.16,716.617 490.049,712.79 z" id="boundary" inkscape:connector-curvature="0" />
	<path style="fill:none;stroke:red;stroke-width:1px;stroke-linecap:butt;stroke-linejoin:miter;stroke-opacity:1" d="M 486.222,988.346 498.469,996 z" id="boundary" inkscape:connector-curvature="0" />
	<path style="fill:none;stroke:red;stroke-width:1px;stroke-linecap:butt;stroke-linejoin:miter;stroke-opacity:1" d="M 487.753,38.4444 493.877,43.8025 z" id="boundary" inkscape:connector-curvature="0" />
	<path style="fill:none;stroke:red;stroke-width:1px;stroke-linecap:butt;stroke-linejoin:miter;stroke-opacity:1" d="M 488.519,923.284 490.815,930.938 z" id="boundary" inkscape:connector-curvature="0" />
	<path style="fill:none;stroke:red;stroke-width:1px;stroke-linecap:butt;stroke-linejoin:miter;stroke-opacity:1" d="M 490.049,712.79 502.296,697.481 z" id="boundary" inkscape:connector-curvature="0" />
	<path style="fill:none;stroke:red;stroke-width:1px;stroke-linecap:butt;stroke-linejoin:miter;stroke-opacity:1" d="M 490.815,930.938 496.938,935.531 z" id="boundary" inkscape:connector-curvature="0" />
	<path style="fill:none;stroke:red;stroke-width:1px;stroke-linecap:butt;stroke-linejoin:miter;stroke-opacity:1" d="M 493.877,43.8025 500.765,47.6296 z" id="boundary" inkscape:connector-curvature="0" />
	<path style="fill:none;stroke:red;stroke-width:1px;stroke-linecap:butt;stroke-linejoin:miter;stroke-opacity:1" d="M 496.938,935.531 500.765,942.42 z" id="boundary" inkscape:connector-curvature="0" />
	<path style="fill:none;stroke:red;stroke-width:1px;stroke-linecap:butt;stroke-linejoin:miter;stroke-opacity:1" d="M 498.469,996 513.012,989.877 z" id="boundary" inkscape:connector-curvature="0" />
	<path style="fill:none;stroke:red;stroke-width:1px;stroke-linecap:butt;stroke-linejoin:miter;stroke-opacity:1" d="M 500.765,47.6296 506.123,53.7531 z" id="boundary" inkscape:connector-curvature="0" />
	<path style="fill:none;stroke:red;stroke-width:1px;stroke-linecap:butt;stroke-linejoin:miter;stroke-opacity:1" d="M 500.765,942.42 506.123,948.543 z" id="boundary" inkscape:connector-curvature="0" />
	<path style="fill:none;stroke:red;stroke-width:1px;stroke-linecap:butt;stroke-linejoin:miter;stroke-opacity:1" d="M 502.296,697.481 509.951,682.173 z" id="boundary" inkscape:connector-curvature="0" />
	<path style="fill:none;stroke:red;stroke-width:1px;stroke-linecap:butt;stroke-linejoin:miter;stroke-opacity:1" d="M 506.123,53.7531 512.247,58.3457 z" id="boundary" inkscape:connector-curvature="0" />
	<path style="fill:none;stroke:red;stroke-width:1px;stroke-linecap:butt;stroke-linejoin:miter;stroke-opacity:1" d="M 506.123,948.543 513.778,961.556 z" id="boundary" inkscape:connector-curvature="0" />
	<path style="fill:none;stroke:red;stroke-width:1px;stroke-linecap:butt;stroke-linejoin:miter;stroke-opacity:1" d="M 509.951,682.173 525.259,686 z" id="boundary" inkscape:connector-curvature="0" />
	<path style="fill:none;stroke:red;stroke-width:1px;stroke-linecap:butt;stroke-linejoin:miter;stroke-opacity:1" d="M 512.247,58.3457 525.259,67.5309 z" id="boundary" inkscape:connector-curvature="0" />
	<path style="fill:none;stroke:red;stroke-width:1px;stroke-linecap:butt;stroke-linejoin:miter;stroke-opacity:1" d="M 513.012,989.877 520.667,986.049 z" id="boundary" inkscape:connector-curvature="0" />
	<path style="fill:none;stroke:red;stroke-width:1px;stroke-linecap:butt;stroke-linejoin:miter;stroke-opacity:1" d="M 513.778,961.556 517.605,968.444 z" id="boundary" inkscape:connector-curvature="0" />
	<path style="fill:none;stroke:red;stroke-width:1px;stroke-linecap:butt;stroke-linejoin:miter;stroke-opacity:1" d="M 517.605,968.444 520.667,986.049 z" id="boundary" inkscape:connector-curvature="0" />
	<path style="fill:none;stroke:red;stroke-width:1px;stroke-linecap:butt;stroke-linejoin:miter;stroke-opacity:1" d="M 525.259,67.5309 538.272,76.716 z" id="boundary" inkscape:connector-curvature="0" />
	<path style="fill:none;stroke:red;stroke-width:1px;stroke-linecap:butt;stroke-linejoin:miter;stroke-opacity:1" d="M 525.259,686 532.914,682.173 z" id="boundary" inkscape:connector-curvature="0" />
	<path style="fill:none;stroke:red;stroke-width:1px;stroke-linecap:butt;stroke-linejoin:miter;stroke-opacity:1" d="M 529.086,613.284 529.086,620.938 z" id="boundary" inkscape:connector-curvature="0" />
	<path style="fill:none;stroke:red;stroke-width:1px;stroke-linecap:butt;stroke-linejoin:miter;stroke-opacity:1" d="M 529.086,613.284 536.741,614.815 z" id="boundary" inkscape:connector-curvature="0" />
	<path style="fill:none;stroke:red;stroke-width:1px;stroke-linecap:butt;stroke-linejoin:miter;stroke-opacity:1" d="M 529.086,620.938 529.086,628.593 z" id="boundary" inkscape:connector-curvature="0" />
	<path style="fill:none;stroke:red;stroke-width:1px;stroke-linecap:butt;stroke-linejoin:miter;stroke-opacity:1" d="M 529.086,628.593 532.914,643.901 z" id="boundary" inkscape:connector-curvature="0" />
	<path style="fill:none;stroke:red;stroke-width:1px;stroke-linecap:butt;stroke-linejoin:miter;stroke-opacity:1" d="M 532.914,643.901 534.444,651.556 z" id="boundary" inkscape:connector-curvature="0" />
	<path style="fill:none;stroke:red;stroke-width:1px;stroke-linecap:butt;stroke-linejoin:miter;stroke-opacity:1" d="M 532.914,682.173 536.741,674.519 z" id="boundary" inkscape:connector-curvature="0" />
	<path style="fill:none;stroke:red;stroke-width:1px;stroke-linecap:butt;stroke-linejoin:miter;stroke-opacity:1" d="M 534.444,651.556 536.741,659.21 z" id="boundary" inkscape:connector-curvature="0" />
	<path style="fill:none;stroke:red;stroke-width:1px;stroke-linecap:butt;stroke-linejoin:miter;stroke-opacity:1" d="M 536.741,614.815 552.049,617.111 z" id="boundary" inkscape:connector-curvature="0" />
	<path style="fill:none;stroke:red;stroke-width:1px;stroke-linecap:butt;stroke-linejoin:miter;stroke-opacity:1" d="M 536.741,659.21 536.741,666.864 z" id="boundary" inkscape:connector-curvature="0" />
	<path style="fill:none;stroke:red;stroke-width:1px;stroke-linecap:butt;stroke-linejoin:miter;stroke-opacity:1" d="M 536.741,666.864 536.741,674.519 z" id="boundary" inkscape:connector-curvature="0" />
	<path style="fill:none;stroke:red;stroke-width:1px;stroke-linecap:butt;stroke-linejoin:miter;stroke-opacity:1" d="M 538.272,76.716 552.815,80.5432 z" id="boundary" inkscape:connector-curvature="0" />
	<path style="fill:none;stroke:red;stroke-width:1px;stroke-linecap:butt;stroke-linejoin:miter;stroke-opacity:1" d="M 552.049,617.111 559.704,617.111 z" id="boundary" inkscape:connector-curvature="0" />
	<path style="fill:none;stroke:red;stroke-width:1px;stroke-linecap:butt;stroke-linejoin:miter;stroke-opacity:1" d="M 552.815,80.5432 567.358,86.6667 z" id="boundary" inkscape:connector-curvature="0" />
	<path style="fill:none;stroke:red;stroke-width:1px;stroke-linecap:butt;stroke-linejoin:miter;stroke-opacity:1" d="M 559.704,617.111 574.247,610.988 z" id="boundary" inkscape:connector-curvature="0" />
	<path style="fill:none;stroke:red;stroke-width:1px;stroke-linecap:butt;stroke-linejoin:miter;stroke-opacity:1" d="M 567.358,86.6667 574.247,90.4938 z" id="boundary" inkscape:connector-curvature="0" />
	<path style="fill:none;stroke:red;stroke-width:1px;stroke-linecap:butt;stroke-linejoin:miter;stroke-opacity:1" d="M 574.247,90.4938 580.37,95.8519 z" id="boundary" inkscape:connector-curvature="0" />
	<path style="fill:none;stroke:red;stroke-width:1px;stroke-linecap:butt;stroke-linejoin:miter;stroke-opacity:1" d="M 574.247,610.988 581.901,609.457 z" id="boundary" inkscape:connector-curvature="0" />
	<path style="fill:none;stroke:red;stroke-width:1px;stroke-linecap:butt;stroke-linejoin:miter;stroke-opacity:1" d="M 580.37,95.8519 587.259,99.679 z" id="boundary" inkscape:connector-curvature="0" />
	<path style="fill:none;stroke:red;stroke-width:1px;stroke-linecap:butt;stroke-linejoin:miter;stroke-opacity:1" d="M 581.901,609.457 596.444,604.099 z" id="boundary" inkscape:connector-curvature="0" />
	<path style="fill:none;stroke:red;stroke-width:1px;stroke-linecap:butt;stroke-linejoin:miter;stroke-opacity:1" d="M 587.259,99.679 593.383,105.037 z" id="boundary" inkscape:connector-curvature="0" />
	<path style="fill:none;stroke:red;stroke-width:1px;stroke-linecap:butt;stroke-linejoin:miter;stroke-opacity:1" d="M 593.383,105.037 597.975,111.16 z" id="boundary" inkscape:connector-curvature="0" />
	<path style="fill:none;stroke:red;stroke-width:1px;stroke-linecap:butt;stroke-linejoin:miter;stroke-opacity:1" d="M 596.444,604.099 604.099,600.272 z" id="boundary" inkscape:connector-curvature="0" />
	<path style="fill:none;stroke:red;stroke-width:1px;stroke-linecap:butt;stroke-linejoin:miter;stroke-opacity:1" d="M 597.975,111.16 613.284,114.988 z" id="boundary" inkscape:connector-curvature="0" />
	<path style="fill:none;stroke:red;stroke-width:1px;stroke-linecap:butt;stroke-linejoin:miter;stroke-opacity:1" d="M 604.099,600.272 609.457,594.148 z" id="boundary" inkscape:connector-curvature="0" />
	<path style="fill:none;stroke:red;stroke-width:1px;stroke-linecap:butt;stroke-linejoin:miter;stroke-opacity:1" d="M 609.457,594.148 616.346,590.321 z" id="boundary" inkscape:connector-curvature="0" />
	<path style="fill:none;stroke:red;stroke-width:1px;stroke-linecap:butt;stroke-linejoin:miter;stroke-opacity:1" d="M 613.284,114.988 627.062,122.642 z" id="boundary" inkscape:connector-curvature="0" />
	<path style="fill:none;stroke:red;stroke-width:1px;stroke-linecap:butt;stroke-linejoin:miter;stroke-opacity:1" d="M 616.346,590.321 622.469,585.728 z" id="boundary" inkscape:connector-curvature="0" />
	<path style="fill:none;stroke:red;stroke-width:1px;stroke-linecap:butt;stroke-linejoin:miter;stroke-opacity:1" d="M 622.469,585.728 630.123,581.901 z" id="boundary" inkscape:connector-curvature="0" />
	<path style="fill:none;stroke:red;stroke-width:1px;stroke-linecap:butt;stroke-linejoin:miter;stroke-opacity:1" d="M 627.062,122.642 641.605,126.469 z" id="boundary" inkscape:connector-curvature="0" />
	<path style="fill:none;stroke:red;stroke-width:1px;stroke-linecap:butt;stroke-linejoin:miter;stroke-opacity:1" d="M 630.123,581.901 643.901,571.185 z" id="boundary" inkscape:connector-curvature="0" />
	<path style="fill:none;stroke:red;stroke-width:1px;stroke-linecap:butt;stroke-linejoin:miter;stroke-opacity:1" d="M 641.605,126.469 648.494,130.296 z" id="boundary" inkscape:connector-curvature="0" />
	<path style="fill:none;stroke:red;stroke-width:1px;stroke-linecap:butt;stroke-linejoin:miter;stroke-opacity:1" d="M 643.901,571.185 650.025,565.827 z" id="boundary" inkscape:connector-curvature="0" />
	<path style="fill:none;stroke:red;stroke-width:1px;stroke-linecap:butt;stroke-linejoin:miter;stroke-opacity:1" d="M 648.494,130.296 654.617,135.654 z" id="boundary" inkscape:connector-curvature="0" />
	<path style="fill:none;stroke:red;stroke-width:1px;stroke-linecap:butt;stroke-linejoin:miter;stroke-opacity:1" d="M 654.617,135.654 659.21,141.778 z" id="boundary" inkscape:connector-curvature="0" />
	<path style="fill:none;stroke:red;stroke-width:1px;stroke-linecap:butt;stroke-linejoin:miter;stroke-opacity:1" d="M 659.21,141.778 666.864,144.074 z" id="boundary" inkscape:connector-curvature="0" />
	<path style="fill:none;stroke:red;stroke-width:1px;stroke-linecap:butt;stroke-linejoin:miter;stroke-opacity:1" d="M 663.037,552.049 670.691,548.222 z" id="boundary" inkscape:connector-curvature="0" />
	<path style="fill:none;stroke:red;stroke-width:1px;stroke-linecap:butt;stroke-linejoin:miter;stroke-opacity:1" d="M 663.037,552.049 676.815,542.864 z" id="boundary" inkscape:connector-curvature="0" />
	<path style="fill:none;stroke:red;stroke-width:1px;stroke-linecap:butt;stroke-linejoin:miter;stroke-opacity:1" d="M 666.864,144.074 672.988,149.432 z" id="boundary" inkscape:connector-curvature="0" />
	<path style="fill:none;stroke:red;stroke-width:1px;stroke-linecap:butt;stroke-linejoin:miter;stroke-opacity:1" d="M 670.691,548.222 676.815,542.864 z" id="boundary" inkscape:connector-curvature="0" />
	<path style="fill:none;stroke:red;stroke-width:1px;stroke-linecap:butt;stroke-linejoin:miter;stroke-opacity:1" d="M 672.988,149.432 679.877,153.259 z" id="boundary" inkscape:connector-curvature="0" />
	<path style="fill:none;stroke:red;stroke-width:1px;stroke-linecap:butt;stroke-linejoin:miter;stroke-opacity:1" d="M 679.877,153.259 686.765,157.086 z" id="boundary" inkscape:connector-curvature="0" />
	<path style="fill:none;stroke:red;stroke-width:1px;stroke-linecap:butt;stroke-linejoin:miter;stroke-opacity:1" d="M 686.765,157.086 693.654,160.914 z" id="boundary" inkscape:connector-curvature="0" />
	<path style="fill:none;stroke:red;stroke-width:1px;stroke-linecap:butt;stroke-linejoin:miter;stroke-opacity:1" d="M 689.827,532.914 695.951,527.556 z" id="boundary" inkscape:connector-curvature="0" />
	<path style="fill:none;stroke:red;stroke-width:1px;stroke-linecap:butt;stroke-linejoin:miter;stroke-opacity:1" d="M 693.654,160.914 699.778,165.506 z" id="boundary" inkscape:connector-curvature="0" />
	<path style="fill:none;stroke:red;stroke-width:1px;stroke-linecap:butt;stroke-linejoin:miter;stroke-opacity:1" d="M 695.951,527.556 703.605,523.728 z" id="boundary" inkscape:connector-curvature="0" />
	<path style="fill:none;stroke:red;stroke-width:1px;stroke-linecap:butt;stroke-linejoin:miter;stroke-opacity:1" d="M 699.778,165.506 714.321,172.395 z" id="boundary" inkscape:connector-curvature="0" />
	<path style="fill:none;stroke:red;stroke-width:1px;stroke-linecap:butt;stroke-linejoin:miter;stroke-opacity:1" d="M 703.605,523.728 708.963,517.605 z" id="boundary" inkscape:connector-curvature="0" />
	<path style="fill:none;stroke:red;stroke-width:1px;stroke-linecap:butt;stroke-linejoin:miter;stroke-opacity:1" d="M 708.963,517.605 720.444,506.123 z" id="boundary" inkscape:connector-curvature="0" />
	<path style="fill:none;stroke:red;stroke-width:1px;stroke-linecap:butt;stroke-linejoin:miter;stroke-opacity:1" d="M 714.321,172.395 721.21,176.222 z" id="boundary" inkscape:connector-curvature="0" />
	<path style="fill:none;stroke:red;stroke-width:1px;stroke-linecap:butt;stroke-linejoin:miter;stroke-opacity:1" d="M 720.444,506.123 728.099,498.469 z" id="boundary" inkscape:connector-curvature="0" />
	<path style="fill:none;stroke:red;stroke-width:1px;stroke-linecap:butt;stroke-linejoin:miter;stroke-opacity:1" d="M 721.21,176.222 727.333,181.58 z" id="boundary" inkscape:connector-curvature="0" />
	<path style="fill:none;stroke:red;stroke-width:1px;stroke-linecap:butt;stroke-linejoin:miter;stroke-opacity:1" d="M 727.333,181.58 734.222,185.407 z" id="boundary" inkscape:connector-curvature="0" />
	<path style="fill:none;stroke:red;stroke-width:1px;stroke-linecap:butt;stroke-linejoin:miter;stroke-opacity:1" d="M 728.099,498.469 734.222,493.111 z" id="boundary" inkscape:connector-curvature="0" />
	<path style="fill:none;stroke:red;stroke-width:1px;stroke-linecap:butt;stroke-linejoin:miter;stroke-opacity:1" d="M 734.222,185.407 747.235,193.827 z" id="boundary" inkscape:connector-curvature="0" />
	<path style="fill:none;stroke:red;stroke-width:1px;stroke-linecap:butt;stroke-linejoin:miter;stroke-opacity:1" d="M 734.222,493.111 747.235,483.16 z" id="boundary" inkscape:connector-curvature="0" />
	<path style="fill:none;stroke:red;stroke-width:1px;stroke-linecap:butt;stroke-linejoin:miter;stroke-opacity:1" d="M 747.235,193.827 754.123,197.654 z" id="boundary" inkscape:connector-curvature="0" />
	<path style="fill:none;stroke:red;stroke-width:1px;stroke-linecap:butt;stroke-linejoin:miter;stroke-opacity:1" d="M 747.235,483.16 753.358,477.802 z" id="boundary" inkscape:connector-curvature="0" />
	<path style="fill:none;stroke:red;stroke-width:1px;stroke-linecap:butt;stroke-linejoin:miter;stroke-opacity:1" d="M 753.358,477.802 758.716,471.679 z" id="boundary" inkscape:connector-curvature="0" />
	<path style="fill:none;stroke:red;stroke-width:1px;stroke-linecap:butt;stroke-linejoin:miter;stroke-opacity:1" d="M 754.123,197.654 760.247,203.012 z" id="boundary" inkscape:connector-curvature="0" />
	<path style="fill:none;stroke:red;stroke-width:1px;stroke-linecap:butt;stroke-linejoin:miter;stroke-opacity:1" d="M 758.716,471.679 764.84,466.321 z" id="boundary" inkscape:connector-curvature="0" />
	<path style="fill:none;stroke:red;stroke-width:1px;stroke-linecap:butt;stroke-linejoin:miter;stroke-opacity:1" d="M 760.247,203.012 774.025,210.667 z" id="boundary" inkscape:connector-curvature="0" />
	<path style="fill:none;stroke:red;stroke-width:1px;stroke-linecap:butt;stroke-linejoin:miter;stroke-opacity:1" d="M 764.84,466.321 770.198,460.198 z" id="boundary" inkscape:connector-curvature="0" />
	<path style="fill:none;stroke:red;stroke-width:1px;stroke-linecap:butt;stroke-linejoin:miter;stroke-opacity:1" d="M 774.025,210.667 780.148,215.259 z" id="boundary" inkscape:connector-curvature="0" />
	<path style="fill:none;stroke:red;stroke-width:1px;stroke-linecap:butt;stroke-linejoin:miter;stroke-opacity:1" d="M 780.148,215.259 787.037,219.086 z" id="boundary" inkscape:connector-curvature="0" />
	<path style="fill:none;stroke:red;stroke-width:1px;stroke-linecap:butt;stroke-linejoin:miter;stroke-opacity:1" d="M 783.975,451.012 789.333,444.889 z" id="boundary" inkscape:connector-curvature="0" />
	<path style="fill:none;stroke:red;stroke-width:1px;stroke-linecap:butt;stroke-linejoin:miter;stroke-opacity:1" d="M 783.975,451.012 795.457,439.531 z" id="boundary" inkscape:connector-curvature="0" />
	<path style="fill:none;stroke:red;stroke-width:1px;stroke-linecap:butt;stroke-linejoin:miter;stroke-opacity:1" d="M 787.037,219.086 793.16,224.444 z" id="boundary" inkscape:connector-curvature="0" />
	<path style="fill:none;stroke:red;stroke-width:1px;stroke-linecap:butt;stroke-linejoin:miter;stroke-opacity:1" d="M 789.333,444.889 795.457,439.531 z" id="boundary" inkscape:connector-curvature="0" />
	<path style="fill:none;stroke:red;stroke-width:1px;stroke-linecap:butt;stroke-linejoin:miter;stroke-opacity:1" d="M 793.16,224.444 800.049,228.272 z" id="boundary" inkscape:connector-curvature="0" />
	<path style="fill:none;stroke:red;stroke-width:1px;stroke-linecap:butt;stroke-linejoin:miter;stroke-opacity:1" d="M 800.049,228.272 813.062,237.457 z" id="boundary" inkscape:connector-curvature="0" />
	<path style="fill:none;stroke:red;stroke-width:1px;stroke-linecap:butt;stroke-linejoin:miter;stroke-opacity:1" d="M 808.469,425.753 819.951,414.272 z" id="boundary" inkscape:connector-curvature="0" />
	<path style="fill:none;stroke:red;stroke-width:1px;stroke-linecap:butt;stroke-linejoin:miter;stroke-opacity:1" d="M 813.062,237.457 819.185,242.815 z" id="boundary" inkscape:connector-curvature="0" />
	<path style="fill:none;stroke:red;stroke-width:1px;stroke-linecap:butt;stroke-linejoin:miter;stroke-opacity:1" d="M 819.185,242.815 831.432,251.235 z" id="boundary" inkscape:connector-curvature="0" />
	<path style="fill:none;stroke:red;stroke-width:1px;stroke-linecap:butt;stroke-linejoin:miter;stroke-opacity:1" d="M 819.951,414.272 826.84,410.444 z" id="boundary" inkscape:connector-curvature="0" />
	<path style="fill:none;stroke:red;stroke-width:1px;stroke-linecap:butt;stroke-linejoin:miter;stroke-opacity:1" d="M 826.84,410.444 839.086,398.963 z" id="boundary" inkscape:connector-curvature="0" />
	<path style="fill:none;stroke:red;stroke-width:1px;stroke-linecap:butt;stroke-linejoin:miter;stroke-opacity:1" d="M 831.432,251.235 836.79,257.358 z" id="boundary" inkscape:connector-curvature="0" />
	<path style="fill:none;stroke:red;stroke-width:1px;stroke-linecap:butt;stroke-linejoin:miter;stroke-opacity:1" d="M 836.79,257.358 842.914,262.716 z" id="boundary" inkscape:connector-curvature="0" />
	<path style="fill:none;stroke:red;stroke-width:1px;stroke-linecap:butt;stroke-linejoin:miter;stroke-opacity:1" d="M 839.086,398.963 846.741,383.654 z" id="boundary" inkscape:connector-curvature="0" />
	<path style="fill:none;stroke:red;stroke-width:1px;stroke-linecap:butt;stroke-linejoin:miter;stroke-opacity:1" d="M 842.914,262.716 848.272,268.84 z" id="boundary" inkscape:connector-curvature="0" />
	<path style="fill:none;stroke:red;stroke-width:1px;stroke-linecap:butt;stroke-linejoin:miter;stroke-opacity:1" d="M 846.741,383.654 850.568,372.173 z" id="boundary" inkscape:connector-curvature="0" />
	<path style="fill:none;stroke:red;stroke-width:1px;stroke-linecap:butt;stroke-linejoin:miter;stroke-opacity:1" d="M 848.272,268.84 858.222,281.086 z" id="boundary" inkscape:connector-curvature="0" />
	<path style="fill:none;stroke:red;stroke-width:1px;stroke-linecap:butt;stroke-linejoin:miter;stroke-opacity:1" d="M 850.568,372.173 858.222,356.864 z" id="boundary" inkscape:connector-curvature="0" />
	<path style="fill:none;stroke:red;stroke-width:1px;stroke-linecap:butt;stroke-linejoin:miter;stroke-opacity:1" d="M 858.222,281.086 862.815,287.21 z" id="boundary" inkscape:connector-curvature="0" />
	<path style="fill:none;stroke:red;stroke-width:1px;stroke-linecap:butt;stroke-linejoin:miter;stroke-opacity:1" d="M 858.222,349.21 858.222,356.864 z" id="boundary" inkscape:connector-curvature="0" />
	<path style="fill:none;stroke:red;stroke-width:1px;stroke-linecap:butt;stroke-linejoin:miter;stroke-opacity:1" d="M 858.222,349.21 865.877,330.074 z" id="boundary" inkscape:connector-curvature="0" />
	<path style="fill:none;stroke:red;stroke-width:1px;stroke-linecap:butt;stroke-linejoin:miter;stroke-opacity:1" d="M 862.815,287.21 869.704,300.222 z" id="boundary" inkscape:connector-curvature="0" />
	<path style="fill:none;stroke:red;stroke-width:1px;stroke-linecap:butt;stroke-linejoin:miter;stroke-opacity:1" d="M 865.877,322.42 865.877,330.074 z" id="boundary" inkscape:connector-curvature="0" />
	<path style="fill:none;stroke:red;stroke-width:1px;stroke-linecap:butt;stroke-linejoin:miter;stroke-opacity:1" d="M 865.877,322.42 869.704,307.877 z" id="boundary" inkscape:connector-curvature="0" />
	<path style="fill:none;stroke:red;stroke-width:1px;stroke-linecap:butt;stroke-linejoin:miter;stroke-opacity:1" d="M 869.704,300.222 869.704,307.877 z" id="boundary" inkscape:connector-curvature="0" />
	<circle cx="4" cy="331.605" r="4" fill="#0" id="circle0"/>
	<circle cx="4" cy="339.259" r="4" fill="#0" id="circle1"/>
	<circle cx="4" cy="346.914" r="4" fill="#0" id="circle2"/>
	<circle cx="7.82716" cy="323.951" r="4" fill="#0" id="circle3"/>
	<circle cx="7.82716" cy="353.802" r="4" fill="#0" id="circle4"/>
	<circle cx="7.82716" cy="361.457" r="4" fill="#0" id="circle5"/>
	<circle cx="7.82716" cy="369.111" r="4" fill="#0" id="circle6"/>
	<circle cx="7.82716" cy="376.765" r="4" fill="#0" id="circle7"/>
	<circle cx="11.6543" cy="383.654" r="4" fill="#0" id="circle8"/>
	<circle cx="11.6543" cy="391.309" r="4" fill="#0" id="circle9"/>
	<circle cx="13.9506" cy="317.827" r="4" fill="#0" id="circle10"/>
	<circle cx="15.4815" cy="398.198" r="4" fill="#0" id="circle11"/>
	<circle cx="17.0123" cy="405.852" r="4" fill="#0" id="circle12"/>
	<circle cx="20.0741" cy="311.704" r="4" fill="#0" id="circle13"/>
	<circle cx="20.8395" cy="412.741" r="4" fill="#0" id="circle14"/>
	<circle cx="23.9012" cy="304.049" r="4" fill="#0" id="circle15"/>
	<circle cx="23.9012" cy="420.395" r="4" fill="#0" id="circle16"/>
	<circle cx="30.7901" cy="297.16" r="4" fill="#0" id="circle17"/>
	<circle cx="31.5556" cy="423.457" r="4" fill="#0" id="circle18"/>
	<circle cx="36.9136" cy="429.58" r="4" fill="#0" id="circle19"/>
	<circle cx="38.4444" cy="289.506" r="4" fill="#0" id="circle20"/>
	<circle cx="40.7407" cy="436.469" r="4" fill="#0" id="circle21"/>
	<circle cx="44.5679" cy="283.383" r="4" fill="#0" id="circle22"/>
	<circle cx="46.0988" cy="442.593" r="4" fill="#0" id="circle23"/>
	<circle cx="50.6914" cy="277.259" r="4" fill="#0" id="circle24"/>
	<circle cx="52.2222" cy="447.951" r="4" fill="#0" id="circle25"/>
	<circle cx="56.8148" cy="271.901" r="4" fill="#0" id="circle26"/>
	<circle cx="57.5802" cy="454.074" r="4" fill="#0" id="circle27"/>
	<circle cx="62.1728" cy="265.778" r="4" fill="#0" id="circle28"/>
	<circle cx="63.7037" cy="459.432" r="4" fill="#0" id="circle29"/>
	<circle cx="69.0617" cy="258.889" r="4" fill="#0" id="circle30"/>
	<circle cx="70.5926" cy="463.259" r="4" fill="#0" id="circle31"/>
	<circle cx="76.716" cy="251.235" r="4" fill="#0" id="circle32"/>
	<circle cx="76.716" cy="467.852" r="4" fill="#0" id="circle33"/>
	<circle cx="81.3086" cy="473.975" r="4" fill="#0" id="circle34"/>
	<circle cx="84.3704" cy="243.58" r="4" fill="#0" id="circle35"/>
	<circle cx="87.4321" cy="479.333" r="4" fill="#0" id="circle36"/>
	<circle cx="92.0247" cy="239.753" r="4" fill="#0" id="circle37"/>
	<circle cx="92.7901" cy="485.457" r="4" fill="#0" id="circle38"/>
	<circle cx="98.1481" cy="233.63" r="4" fill="#0" id="circle39"/>
	<circle cx="99.679" cy="489.284" r="4" fill="#0" id="circle40"/>
	<circle cx="104.272" cy="227.506" r="4" fill="#0" id="circle41"/>
	<circle cx="105.802" cy="494.642" r="4" fill="#0" id="circle42"/>
	<circle cx="111.926" cy="223.679" r="4" fill="#0" id="circle43"/>
	<circle cx="112.691" cy="498.469" r="4" fill="#0" id="circle44"/>
	<circle cx="118.049" cy="218.321" r="4" fill="#0" id="circle45"/>
	<circle cx="118.815" cy="503.062" r="4" fill="#0" id="circle46"/>
	<circle cx="123.407" cy="212.198" r="4" fill="#0" id="circle47"/>
	<circle cx="124.173" cy="509.185" r="4" fill="#0" id="circle48"/>
	<circle cx="131.062" cy="208.37" r="4" fill="#0" id="circle49"/>
	<circle cx="131.827" cy="512.247" r="4" fill="#0" id="circle50"/>
	<circle cx="137.185" cy="203.012" r="4" fill="#0" id="circle51"/>
	<circle cx="137.951" cy="517.605" r="4" fill="#0" id="circle52"/>
	<circle cx="144.074" cy="199.185" r="4" fill="#0" id="circle53"/>
	<circle cx="144.84" cy="521.432" r="4" fill="#0" id="circle54"/>
	<circle cx="150.198" cy="193.062" r="4" fill="#0" id="circle55"/>
	<circle cx="151.728" cy="525.259" r="4" fill="#0" id="circle56"/>
	<circle cx="156.321" cy="187.704" r="4" fill="#0" id="circle57"/>
	<circle cx="157.852" cy="530.617" r="4" fill="#0" id="circle58"/>
	<circle cx="163.21" cy="183.877" r="4" fill="#0" id="circle59"/>
	<circle cx="165.506" cy="532.914" r="4" fill="#0" id="circle60"/>
	<circle cx="169.333" cy="177.753" r="4" fill="#0" id="circle61"/>
	<circle cx="172.395" cy="536.741" r="4" fill="#0" id="circle62"/>
	<circle cx="175.457" cy="172.395" r="4" fill="#0" id="circle63"/>
	<circle cx="179.284" cy="540.568" r="4" fill="#0" id="circle64"/>
	<circle cx="182.346" cy="168.568" r="4" fill="#0" id="circle65"/>
	<circle cx="184.642" cy="546.691" r="4" fill="#0" id="circle66"/>
	<circle cx="190" cy="168.568" r="4" fill="#0" id="circle67"/>
	<circle cx="190.765" cy="552.049" r="4" fill="#0" id="circle68"/>
	<circle cx="196.889" cy="164.741" r="4" fill="#0" id="circle69"/>
	<circle cx="197.654" cy="555.877" r="4" fill="#0" id="circle70"/>
	<circle cx="203.778" cy="160.914" r="4" fill="#0" id="circle71"/>
	<circle cx="204.543" cy="559.704" r="4" fill="#0" id="circle72"/>
	<circle cx="210.667" cy="157.086" r="4" fill="#0" id="circle73"/>
	<circle cx="211.432" cy="563.531" r="4" fill="#0" id="circle74"/>
	<circle cx="216.025" cy="569.654" r="4" fill="#0" id="circle75"/>
	<circle cx="218.321" cy="157.086" r="4" fill="#0" id="circle76"/>
	<circle cx="222.914" cy="573.481" r="4" fill="#0" id="circle77"/>
	<circle cx="225.21" cy="153.259" r="4" fill="#0" id="circle78"/>
	<circle cx="230.568" cy="575.012" r="4" fill="#0" id="circle79"/>
	<circle cx="232.099" cy="149.432" r="4" fill="#0" id="circle80"/>
	<circle cx="237.457" cy="578.84" r="4" fill="#0" id="circle81"/>
	<circle cx="238.222" cy="143.309" r="4" fill="#0" id="circle82"/>
	<circle cx="244.346" cy="582.667" r="4" fill="#0" id="circle83"/>
	<circle cx="245.877" cy="139.481" r="4" fill="#0" id="circle84"/>
	<circle cx="251.235" cy="586.494" r="4" fill="#0" id="circle85"/>
	<circle cx="252" cy="134.123" r="4" fill="#0" id="circle86"/>
	<circle cx="257.358" cy="128" r="4" fill="#0" id="circle87"/>
	<circle cx="258.889" cy="589.556" r="4" fill="#0" id="circle88"/>
	<circle cx="261.951" cy="597.21" r="4" fill="#0" id="circle89"/>
	<circle cx="263.481" cy="122.642" r="4" fill="#0" id="circle90"/>
	<circle cx="269.605" cy="597.975" r="4" fill="#0" id="circle91"/>
	<circle cx="270.37" cy="118.815" r="4" fill="#0" id="circle92"/>
	<circle cx="276.494" cy="601.802" r="4" fill="#0" id="circle93"/>
	<circle cx="277.259" cy="114.988" r="4" fill="#0" id="circle94"/>
	<circle cx="283.383" cy="605.63" r="4" fill="#0" id="circle95"/>
	<circle cx="284.148" cy="111.16" r="4" fill="#0" id="circle96"/>
	<circle cx="291.037" cy="105.802" r="4" fill="#0" id="circle97"/>
	<circle cx="291.037" cy="605.63" r="4" fill="#0" id="circle98"/>
	<circle cx="297.16" cy="99.679" r="4" fill="#0" id="circle99"/>
	<circle cx="297.926" cy="609.457" r="4" fill="#0" id="circle100"/>
	<circle cx="300.988" cy="92.0247" r="4" fill="#0" id="circle101"/>
	<circle cx="304.815" cy="613.284" r="4" fill="#0" id="circle102"/>
	<circle cx="307.877" cy="88.1975" r="4" fill="#0" id="circle103"/>
	<circle cx="311.704" cy="617.111" r="4" fill="#0" id="circle104"/>
	<circle cx="314" cy="82.8395" r="4" fill="#0" id="circle105"/>
	<circle cx="319.358" cy="617.111" r="4" fill="#0" id="circle106"/>
	<circle cx="320.123" cy="76.716" r="4" fill="#0" id="circle107"/>
	<circle cx="323.951" cy="69.0617" r="4" fill="#0" id="circle108"/>
	<circle cx="327.012" cy="617.111" r="4" fill="#0" id="circle109"/>
	<circle cx="330.074" cy="62.9383" r="4" fill="#0" id="circle110"/>
	<circle cx="333.901" cy="55.284" r="4" fill="#0" id="circle111"/>
	<circle cx="333.901" cy="620.938" r="4" fill="#0" id="circle112"/>
	<circle cx="340.025" cy="49.9259" r="4" fill="#0" id="circle113"/>
	<circle cx="341.556" cy="620.938" r="4" fill="#0" id="circle114"/>
	<circle cx="344.617" cy="645.432" r="4" fill="#0" id="circle115"/>
	<circle cx="344.617" cy="653.086" r="4" fill="#0" id="circle116"/>
	<circle cx="344.617" cy="660.741" r="4" fill="#0" id="circle117"/>
	<circle cx="344.617" cy="668.395" r="4" fill="#0" id="circle118"/>
	<circle cx="344.617" cy="676.049" r="4" fill="#0" id="circle119"/>
	<circle cx="344.617" cy="683.704" r="4" fill="#0" id="circle120"/>
	<circle cx="345.383" cy="43.8025" r="4" fill="#0" id="circle121"/>
	<circle cx="348.444" cy="617.111" r="4" fill="#0" id="circle122"/>
	<circle cx="348.444" cy="626.296" r="4" fill="#0" id="circle123"/>
	<circle cx="348.444" cy="633.951" r="4" fill="#0" id="circle124"/>
	<circle cx="349.21" cy="689.827" r="4" fill="#0" id="circle125"/>
	<circle cx="351.506" cy="38.4444" r="4" fill="#0" id="circle126"/>
	<circle cx="356.864" cy="689.827" r="4" fill="#0" id="circle127"/>
	<circle cx="358.395" cy="34.6173" r="4" fill="#0" id="circle128"/>
	<circle cx="364.519" cy="691.358" r="4" fill="#0" id="circle129"/>
	<circle cx="365.284" cy="30.7901" r="4" fill="#0" id="circle130"/>
	<circle cx="371.407" cy="25.4321" r="4" fill="#0" id="circle131"/>
	<circle cx="372.173" cy="693.654" r="4" fill="#0" id="circle132"/>
	<circle cx="376.765" cy="699.778" r="4" fill="#0" id="circle133"/>
	<circle cx="377.531" cy="19.3086" r="4" fill="#0" id="circle134"/>
	<circle cx="382.889" cy="705.136" r="4" fill="#0" id="circle135"/>
	<circle cx="383.654" cy="13.1852" r="4" fill="#0" id="circle136"/>
	<circle cx="389.778" cy="708.963" r="4" fill="#0" id="circle137"/>
	<circle cx="391.309" cy="9.35802" r="4" fill="#0" id="circle138"/>
	<circle cx="394.37" cy="715.086" r="4" fill="#0" id="circle139"/>
	<circle cx="395.136" cy="722.741" r="4" fill="#0" id="circle140"/>
	<circle cx="398.963" cy="7.82716" r="4" fill="#0" id="circle141"/>
	<circle cx="401.259" cy="728.099" r="4" fill="#0" id="circle142"/>
	<circle cx="402.025" cy="735.753" r="4" fill="#0" id="circle143"/>
	<circle cx="402.025" cy="752.593" r="4" fill="#0" id="circle144"/>
	<circle cx="402.025" cy="760.247" r="4" fill="#0" id="circle145"/>
	<circle cx="405.852" cy="4" r="4" fill="#0" id="circle146"/>
	<circle cx="405.852" cy="742.642" r="4" fill="#0" id="circle147"/>
	<circle cx="405.852" cy="767.136" r="4" fill="#0" id="circle148"/>
	<circle cx="405.852" cy="774.79" r="4" fill="#0" id="circle149"/>
	<circle cx="405.852" cy="782.444" r="4" fill="#0" id="circle150"/>
	<circle cx="405.852" cy="790.099" r="4" fill="#0" id="circle151"/>
	<circle cx="405.852" cy="797.753" r="4" fill="#0" id="circle152"/>
	<circle cx="405.852" cy="805.407" r="4" fill="#0" id="circle153"/>
	<circle cx="405.852" cy="813.062" r="4" fill="#0" id="circle154"/>
	<circle cx="405.852" cy="820.716" r="4" fill="#0" id="circle155"/>
	<circle cx="405.852" cy="828.37" r="4" fill="#0" id="circle156"/>
	<circle cx="405.852" cy="836.025" r="4" fill="#0" id="circle157"/>
	<circle cx="405.852" cy="843.679" r="4" fill="#0" id="circle158"/>
	<circle cx="409.679" cy="850.568" r="4" fill="#0" id="circle159"/>
	<circle cx="409.679" cy="858.222" r="4" fill="#0" id="circle160"/>
	<circle cx="409.679" cy="865.877" r="4" fill="#0" id="circle161"/>
	<circle cx="409.679" cy="886.543" r="4" fill="#0" id="circle162"/>
	<circle cx="409.679" cy="894.198" r="4" fill="#0" id="circle163"/>
	<circle cx="413.506" cy="4" r="4" fill="#0" id="circle164"/>
	<circle cx="413.506" cy="872.765" r="4" fill="#0" id="circle165"/>
	<circle cx="413.506" cy="901.086" r="4" fill="#0" id="circle166"/>
	<circle cx="418.864" cy="907.21" r="4" fill="#0" id="circle167"/>
	<circle cx="421.16" cy="4" r="4" fill="#0" id="circle168"/>
	<circle cx="424.988" cy="911.802" r="4" fill="#0" id="circle169"/>
	<circle cx="427.284" cy="919.457" r="4" fill="#0" id="circle170"/>
	<circle cx="428.815" cy="4" r="4" fill="#0" id="circle171"/>
	<circle cx="429.58" cy="624.765" r="4" fill="#0" id="circle172"/>
	<circle cx="429.58" cy="632.42" r="4" fill="#0" id="circle173"/>
	<circle cx="429.58" cy="640.074" r="4" fill="#0" id="circle174"/>
	<circle cx="431.111" cy="926.346" r="4" fill="#0" id="circle175"/>
	<circle cx="434.173" cy="934" r="4" fill="#0" id="circle176"/>
	<circle cx="436.469" cy="4" r="4" fill="#0" id="circle177"/>
	<circle cx="437.235" cy="626.296" r="4" fill="#0" id="circle178"/>
	<circle cx="437.235" cy="640.84" r="4" fill="#0" id="circle179"/>
	<circle cx="438" cy="940.889" r="4" fill="#0" id="circle180"/>
	<circle cx="442.593" cy="632.42" r="4" fill="#0" id="circle181"/>
	<circle cx="444.123" cy="5.53086" r="4" fill="#0" id="circle182"/>
	<circle cx="444.123" cy="946.247" r="4" fill="#0" id="circle183"/>
	<circle cx="447.951" cy="953.136" r="4" fill="#0" id="circle184"/>
	<circle cx="448.716" cy="11.6543" r="4" fill="#0" id="circle185"/>
	<circle cx="452.543" cy="959.259" r="4" fill="#0" id="circle186"/>
	<circle cx="455.605" cy="15.4815" r="4" fill="#0" id="circle187"/>
	<circle cx="455.605" cy="966.914" r="4" fill="#0" id="circle188"/>
	<circle cx="460.198" cy="789.333" r="4" fill="#0" id="circle189"/>
	<circle cx="461.728" cy="796.988" r="4" fill="#0" id="circle190"/>
	<circle cx="462.494" cy="19.3086" r="4" fill="#0" id="circle191"/>
	<circle cx="463.259" cy="969.21" r="4" fill="#0" id="circle192"/>
	<circle cx="464.025" cy="751.062" r="4" fill="#0" id="circle193"/>
	<circle cx="464.025" cy="758.716" r="4" fill="#0" id="circle194"/>
	<circle cx="464.025" cy="766.37" r="4" fill="#0" id="circle195"/>
	<circle cx="464.025" cy="774.025" r="4" fill="#0" id="circle196"/>
	<circle cx="464.025" cy="781.679" r="4" fill="#0" id="circle197"/>
	<circle cx="464.025" cy="804.642" r="4" fill="#0" id="circle198"/>
	<circle cx="464.025" cy="812.296" r="4" fill="#0" id="circle199"/>
	<circle cx="464.025" cy="819.951" r="4" fill="#0" id="circle200"/>
	<circle cx="464.025" cy="827.605" r="4" fill="#0" id="circle201"/>
	<circle cx="464.025" cy="835.259" r="4" fill="#0" id="circle202"/>
	<circle cx="464.025" cy="842.914" r="4" fill="#0" id="circle203"/>
	<circle cx="465.556" cy="850.568" r="4" fill="#0" id="circle204"/>
	<circle cx="465.556" cy="976.864" r="4" fill="#0" id="circle205"/>
	<circle cx="467.852" cy="739.58" r="4" fill="#0" id="circle206"/>
	<circle cx="467.852" cy="858.222" r="4" fill="#0" id="circle207"/>
	<circle cx="467.852" cy="865.877" r="4" fill="#0" id="circle208"/>
	<circle cx="469.383" cy="23.1358" r="4" fill="#0" id="circle209"/>
	<circle cx="469.383" cy="873.531" r="4" fill="#0" id="circle210"/>
	<circle cx="471.679" cy="881.185" r="4" fill="#0" id="circle211"/>
	<circle cx="473.21" cy="888.84" r="4" fill="#0" id="circle212"/>
	<circle cx="473.21" cy="979.926" r="4" fill="#0" id="circle213"/>
	<circle cx="473.975" cy="734.222" r="4" fill="#0" id="circle214"/>
	<circle cx="474.741" cy="29.2593" r="4" fill="#0" id="circle215"/>
	<circle cx="477.037" cy="895.728" r="4" fill="#0" id="circle216"/>
	<circle cx="478.568" cy="986.049" r="4" fill="#0" id="circle217"/>
	<circle cx="479.333" cy="728.099" r="4" fill="#0" id="circle218"/>
	<circle cx="479.333" cy="903.383" r="4" fill="#0" id="circle219"/>
	<circle cx="479.333" cy="911.037" r="4" fill="#0" id="circle220"/>
	<circle cx="480.864" cy="34.6173" r="4" fill="#0" id="circle221"/>
	<circle cx="483.16" cy="716.617" r="4" fill="#0" id="circle222"/>
	<circle cx="485.457" cy="915.63" r="4" fill="#0" id="circle223"/>
	<circle cx="486.222" cy="988.346" r="4" fill="#0" id="circle224"/>
	<circle cx="487.753" cy="38.4444" r="4" fill="#0" id="circle225"/>
	<circle cx="488.519" cy="923.284" r="4" fill="#0" id="circle226"/>
	<circle cx="490.049" cy="712.79" r="4" fill="#0" id="circle227"/>
	<circle cx="490.815" cy="930.938" r="4" fill="#0" id="circle228"/>
	<circle cx="490.815" cy="994.469" r="4" fill="#0" id="circle229"/>
	<circle cx="493.877" cy="43.8025" r="4" fill="#0" id="circle230"/>
	<circle cx="496.173" cy="708.198" r="4" fill="#0" id="circle231"/>
	<circle cx="496.938" cy="935.531" r="4" fill="#0" id="circle232"/>
	<circle cx="498.469" cy="996" r="4" fill="#0" id="circle233"/>
	<circle cx="500.765" cy="47.6296" r="4" fill="#0" id="circle234"/>
	<circle cx="500.765" cy="942.42" r="4" fill="#0" id="circle235"/>
	<circle cx="502.296" cy="697.481" r="4" fill="#0" id="circle236"/>
	<circle cx="505.358" cy="992.173" r="4" fill="#0" id="circle237"/>
	<circle cx="506.123" cy="53.7531" r="4" fill="#0" id="circle238"/>
	<circle cx="506.123" cy="689.827" r="4" fill="#0" id="circle239"/>
	<circle cx="506.123" cy="948.543" r="4" fill="#0" id="circle240"/>
	<circle cx="509.951" cy="682.173" r="4" fill="#0" id="circle241"/>
	<circle cx="512.247" cy="58.3457" r="4" fill="#0" id="circle242"/>
	<circle cx="512.247" cy="953.901" r="4" fill="#0" id="circle243"/>
	<circle cx="513.012" cy="989.877" r="4" fill="#0" id="circle244"/>
	<circle cx="513.778" cy="961.556" r="4" fill="#0" id="circle245"/>
	<circle cx="517.605" cy="64.4691" r="4" fill="#0" id="circle246"/>
	<circle cx="517.605" cy="683.704" r="4" fill="#0" id="circle247"/>
	<circle cx="517.605" cy="968.444" r="4" fill="#0" id="circle248"/>
	<circle cx="520.667" cy="986.049" r="4" fill="#0" id="circle249"/>
	<circle cx="521.432" cy="975.333" r="4" fill="#0" id="circle250"/>
	<circle cx="525.259" cy="67.5309" r="4" fill="#0" id="circle251"/>
	<circle cx="525.259" cy="686" r="4" fill="#0" id="circle252"/>
	<circle cx="529.086" cy="613.284" r="4" fill="#0" id="circle253"/>
	<circle cx="529.086" cy="620.938" r="4" fill="#0" id="circle254"/>
	<circle cx="529.086" cy="628.593" r="4" fill="#0" id="circle255"/>
	<circle cx="530.617" cy="73.6543" r="4" fill="#0" id="circle256"/>
	<circle cx="530.617" cy="636.247" r="4" fill="#0" id="circle257"/>
	<circle cx="532.914" cy="643.901" r="4" fill="#0" id="circle258"/>
	<circle cx="532.914" cy="682.173" r="4" fill="#0" id="circle259"/>
	<circle cx="534.444" cy="651.556" r="4" fill="#0" id="circle260"/>
	<circle cx="536.741" cy="614.815" r="4" fill="#0" id="circle261"/>
	<circle cx="536.741" cy="659.21" r="4" fill="#0" id="circle262"/>
	<circle cx="536.741" cy="666.864" r="4" fill="#0" id="circle263"/>
	<circle cx="536.741" cy="674.519" r="4" fill="#0" id="circle264"/>
	<circle cx="538.272" cy="76.716" r="4" fill="#0" id="circle265"/>
	<circle cx="544.395" cy="617.111" r="4" fill="#0" id="circle266"/>
	<circle cx="545.16" cy="80.5432" r="4" fill="#0" id="circle267"/>
	<circle cx="552.049" cy="617.111" r="4" fill="#0" id="circle268"/>
	<circle cx="552.815" cy="80.5432" r="4" fill="#0" id="circle269"/>
	<circle cx="559.704" cy="84.3704" r="4" fill="#0" id="circle270"/>
	<circle cx="559.704" cy="617.111" r="4" fill="#0" id="circle271"/>
	<circle cx="566.593" cy="613.284" r="4" fill="#0" id="circle272"/>
	<circle cx="567.358" cy="86.6667" r="4" fill="#0" id="circle273"/>
	<circle cx="574.247" cy="90.4938" r="4" fill="#0" id="circle274"/>
	<circle cx="574.247" cy="610.988" r="4" fill="#0" id="circle275"/>
	<circle cx="580.37" cy="95.8519" r="4" fill="#0" id="circle276"/>
	<circle cx="581.901" cy="609.457" r="4" fill="#0" id="circle277"/>
	<circle cx="587.259" cy="99.679" r="4" fill="#0" id="circle278"/>
	<circle cx="588.79" cy="605.63" r="4" fill="#0" id="circle279"/>
	<circle cx="593.383" cy="105.037" r="4" fill="#0" id="circle280"/>
	<circle cx="596.444" cy="604.099" r="4" fill="#0" id="circle281"/>
	<circle cx="597.975" cy="111.16" r="4" fill="#0" id="circle282"/>
	<circle cx="604.099" cy="600.272" r="4" fill="#0" id="circle283"/>
	<circle cx="605.63" cy="113.457" r="4" fill="#0" id="circle284"/>
	<circle cx="609.457" cy="594.148" r="4" fill="#0" id="circle285"/>
	<circle cx="613.284" cy="114.988" r="4" fill="#0" id="circle286"/>
	<circle cx="616.346" cy="590.321" r="4" fill="#0" id="circle287"/>
	<circle cx="620.173" cy="118.815" r="4" fill="#0" id="circle288"/>
	<circle cx="622.469" cy="585.728" r="4" fill="#0" id="circle289"/>
	<circle cx="627.062" cy="122.642" r="4" fill="#0" id="circle290"/>
	<circle cx="630.123" cy="581.901" r="4" fill="#0" id="circle291"/>
	<circle cx="633.951" cy="126.469" r="4" fill="#0" id="circle292"/>
	<circle cx="636.247" cy="575.012" r="4" fill="#0" id="circle293"/>
	<circle cx="641.605" cy="126.469" r="4" fill="#0" id="circle294"/>
	<circle cx="643.901" cy="571.185" r="4" fill="#0" id="circle295"/>
	<circle cx="648.494" cy="130.296" r="4" fill="#0" id="circle296"/>
	<circle cx="650.025" cy="565.827" r="4" fill="#0" id="circle297"/>
	<circle cx="654.617" cy="135.654" r="4" fill="#0" id="circle298"/>
	<circle cx="655.383" cy="559.704" r="4" fill="#0" id="circle299"/>
	<circle cx="659.21" cy="141.778" r="4" fill="#0" id="circle300"/>
	<circle cx="663.037" cy="552.049" r="4" fill="#0" id="circle301"/>
	<circle cx="666.864" cy="144.074" r="4" fill="#0" id="circle302"/>
	<circle cx="670.691" cy="548.222" r="4" fill="#0" id="circle303"/>
	<circle cx="672.988" cy="149.432" r="4" fill="#0" id="circle304"/>
	<circle cx="676.815" cy="542.864" r="4" fill="#0" id="circle305"/>
	<circle cx="679.877" cy="153.259" r="4" fill="#0" id="circle306"/>
	<circle cx="682.173" cy="536.741" r="4" fill="#0" id="circle307"/>
	<circle cx="686.765" cy="157.086" r="4" fill="#0" id="circle308"/>
	<circle cx="689.827" cy="532.914" r="4" fill="#0" id="circle309"/>
	<circle cx="693.654" cy="160.914" r="4" fill="#0" id="circle310"/>
	<circle cx="695.951" cy="527.556" r="4" fill="#0" id="circle311"/>
	<circle cx="699.778" cy="165.506" r="4" fill="#0" id="circle312"/>
	<circle cx="703.605" cy="523.728" r="4" fill="#0" id="circle313"/>
	<circle cx="706.667" cy="169.333" r="4" fill="#0" id="circle314"/>
	<circle cx="708.963" cy="517.605" r="4" fill="#0" id="circle315"/>
	<circle cx="714.321" cy="172.395" r="4" fill="#0" id="circle316"/>
	<circle cx="715.852" cy="513.778" r="4" fill="#0" id="circle317"/>
	<circle cx="720.444" cy="506.123" r="4" fill="#0" id="circle318"/>
	<circle cx="721.21" cy="176.222" r="4" fill="#0" id="circle319"/>
	<circle cx="727.333" cy="181.58" r="4" fill="#0" id="circle320"/>
	<circle cx="728.099" cy="498.469" r="4" fill="#0" id="circle321"/>
	<circle cx="734.222" cy="185.407" r="4" fill="#0" id="circle322"/>
	<circle cx="734.222" cy="493.111" r="4" fill="#0" id="circle323"/>
	<circle cx="739.58" cy="191.531" r="4" fill="#0" id="circle324"/>
	<circle cx="739.58" cy="486.988" r="4" fill="#0" id="circle325"/>
	<circle cx="747.235" cy="193.827" r="4" fill="#0" id="circle326"/>
	<circle cx="747.235" cy="483.16" r="4" fill="#0" id="circle327"/>
	<circle cx="753.358" cy="477.802" r="4" fill="#0" id="circle328"/>
	<circle cx="754.123" cy="197.654" r="4" fill="#0" id="circle329"/>
	<circle cx="758.716" cy="471.679" r="4" fill="#0" id="circle330"/>
	<circle cx="760.247" cy="203.012" r="4" fill="#0" id="circle331"/>
	<circle cx="764.84" cy="466.321" r="4" fill="#0" id="circle332"/>
	<circle cx="767.136" cy="206.84" r="4" fill="#0" id="circle333"/>
	<circle cx="770.198" cy="460.198" r="4" fill="#0" id="circle334"/>
	<circle cx="774.025" cy="210.667" r="4" fill="#0" id="circle335"/>
	<circle cx="776.321" cy="454.84" r="4" fill="#0" id="circle336"/>
	<circle cx="780.148" cy="215.259" r="4" fill="#0" id="circle337"/>
	<circle cx="783.975" cy="451.012" r="4" fill="#0" id="circle338"/>
	<circle cx="787.037" cy="219.086" r="4" fill="#0" id="circle339"/>
	<circle cx="789.333" cy="444.889" r="4" fill="#0" id="circle340"/>
	<circle cx="793.16" cy="224.444" r="4" fill="#0" id="circle341"/>
	<circle cx="795.457" cy="439.531" r="4" fill="#0" id="circle342"/>
	<circle cx="800.049" cy="228.272" r="4" fill="#0" id="circle343"/>
	<circle cx="800.815" cy="433.407" r="4" fill="#0" id="circle344"/>
	<circle cx="806.173" cy="233.63" r="4" fill="#0" id="circle345"/>
	<circle cx="808.469" cy="425.753" r="4" fill="#0" id="circle346"/>
	<circle cx="813.062" cy="237.457" r="4" fill="#0" id="circle347"/>
	<circle cx="815.358" cy="421.926" r="4" fill="#0" id="circle348"/>
	<circle cx="819.185" cy="242.815" r="4" fill="#0" id="circle349"/>
	<circle cx="819.951" cy="414.272" r="4" fill="#0" id="circle350"/>
	<circle cx="823.778" cy="248.938" r="4" fill="#0" id="circle351"/>
	<circle cx="826.84" cy="410.444" r="4" fill="#0" id="circle352"/>
	<circle cx="831.432" cy="251.235" r="4" fill="#0" id="circle353"/>
	<circle cx="832.963" cy="405.852" r="4" fill="#0" id="circle354"/>
	<circle cx="836.79" cy="257.358" r="4" fill="#0" id="circle355"/>
	<circle cx="839.086" cy="398.963" r="4" fill="#0" id="circle356"/>
	<circle cx="842.914" cy="262.716" r="4" fill="#0" id="circle357"/>
	<circle cx="842.914" cy="391.309" r="4" fill="#0" id="circle358"/>
	<circle cx="846.741" cy="383.654" r="4" fill="#0" id="circle359"/>
	<circle cx="848.272" cy="268.84" r="4" fill="#0" id="circle360"/>
	<circle cx="850.568" cy="372.173" r="4" fill="#0" id="circle361"/>
	<circle cx="854.395" cy="274.198" r="4" fill="#0" id="circle362"/>
	<circle cx="854.395" cy="364.519" r="4" fill="#0" id="circle363"/>
	<circle cx="858.222" cy="281.086" r="4" fill="#0" id="circle364"/>
	<circle cx="858.222" cy="349.21" r="4" fill="#0" id="circle365"/>
	<circle cx="858.222" cy="356.864" r="4" fill="#0" id="circle366"/>
	<circle cx="862.815" cy="287.21" r="4" fill="#0" id="circle367"/>
	<circle cx="864.346" cy="343.852" r="4" fill="#0" id="circle368"/>
	<circle cx="865.877" cy="322.42" r="4" fill="#0" id="circle369"/>
	<circle cx="865.877" cy="330.074" r="4" fill="#0" id="circle370"/>
	<circle cx="868.938" cy="292.568" r="4" fill="#0" id="circle371"/>
	<circle cx="869.704" cy="300.222" r="4" fill="#0" id="circle372"/>
	<circle cx="869.704" cy="307.877" r="4" fill="#0" id="circle373"/>
	<circle cx="869.704" cy="315.531" r="4" fill="#0" id="circle374"/>
	</g>
</svg>