<?xml version="1.0" encoding="UTF-8" standalone="no"?>
<!-- Created with CurveBenchmark -->
<svg
	xmlns:dc="http://purl.org/dc/elements/1.1/"
	xmlns:cc="http://creativecommons.org/ns#"
	xmlns:rdf="http://www.w3.org/1999/02/22-rdf-syntax-ns#"
	xmlns:svg="http://www.w3.org/2000/svg"
	xmlns="http://www.w3.org/2000/svg"
	xmlns:sodipodi="http://sodipodi.sourceforge.net/DTD/sodipodi-0.dtd"
	xmlns:inkscape="http://www.inkscape.org/namespaces/inkscape"
	width="1000"
	height="1000"
	id="svg2"
	version="1.1"
	sodipodi:docname="manifold/discur-dino09.png.txt">
<defs
	id="defs4" />
<metadata
	id="metadata7">
	<rdf:RDF>
		<cc:Work
			rdf:about="">
			<dc:format>image/svg+xml</dc:format>
			<dc:type
				rdf:resource="http://purl.org/dc/dcmitype/StillImage" />
			<dc:title></dc:title>
		</cc:Work>
	</rdf:RDF>
</metadata>
<g
	inkscape:label="Layer 1"
	inkscape:groupmode="layer"
	id="layer1">
	<path style="fill:none;stroke:red;stroke-width:1px;stroke-linecap:butt;stroke-linejoin:miter;stroke-opacity:1" d="M 4,57.4411 4,68.5746 z" id="boundary" inkscape:connector-curvature="0" />
	<path style="fill:none;stroke:red;stroke-width:1px;stroke-linecap:butt;stroke-linejoin:miter;stroke-opacity:1" d="M 4,57.4411 9.56678,46.3075 z" id="boundary" inkscape:connector-curvature="0" />
	<path style="fill:none;stroke:red;stroke-width:1px;stroke-linecap:butt;stroke-linejoin:miter;stroke-opacity:1" d="M 4,68.5746 9.56678,78.5948 z" id="boundary" inkscape:connector-curvature="0" />
	<path style="fill:none;stroke:red;stroke-width:1px;stroke-linecap:butt;stroke-linejoin:miter;stroke-opacity:1" d="M 9.56678,46.3075 20.7003,40.7407 z" id="boundary" inkscape:connector-curvature="0" />
	<path style="fill:none;stroke:red;stroke-width:1px;stroke-linecap:butt;stroke-linejoin:miter;stroke-opacity:1" d="M 9.56678,78.5948 15.1336,88.615 z" id="boundary" inkscape:connector-curvature="0" />
	<path style="fill:none;stroke:red;stroke-width:1px;stroke-linecap:butt;stroke-linejoin:miter;stroke-opacity:1" d="M 9.56678,124.242 9.56678,135.376 z" id="boundary" inkscape:connector-curvature="0" />
	<path style="fill:none;stroke:red;stroke-width:1px;stroke-linecap:butt;stroke-linejoin:miter;stroke-opacity:1" d="M 9.56678,124.242 20.7003,120.902 z" id="boundary" inkscape:connector-curvature="0" />
	<path style="fill:none;stroke:red;stroke-width:1px;stroke-linecap:butt;stroke-linejoin:miter;stroke-opacity:1" d="M 9.56678,135.376 15.1336,145.396 z" id="boundary" inkscape:connector-curvature="0" />
	<path style="fill:none;stroke:red;stroke-width:1px;stroke-linecap:butt;stroke-linejoin:miter;stroke-opacity:1" d="M 15.1336,88.615 26.2671,90.8418 z" id="boundary" inkscape:connector-curvature="0" />
	<path style="fill:none;stroke:red;stroke-width:1px;stroke-linecap:butt;stroke-linejoin:miter;stroke-opacity:1" d="M 15.1336,145.396 20.7003,155.416 z" id="boundary" inkscape:connector-curvature="0" />
	<path style="fill:none;stroke:red;stroke-width:1px;stroke-linecap:butt;stroke-linejoin:miter;stroke-opacity:1" d="M 20.7003,40.7407 29.6072,31.8339 z" id="boundary" inkscape:connector-curvature="0" />
	<path style="fill:none;stroke:red;stroke-width:1px;stroke-linecap:butt;stroke-linejoin:miter;stroke-opacity:1" d="M 20.7003,120.902 30.7205,115.336 z" id="boundary" inkscape:connector-curvature="0" />
	<path style="fill:none;stroke:red;stroke-width:1px;stroke-linecap:butt;stroke-linejoin:miter;stroke-opacity:1" d="M 20.7003,155.416 30.7205,160.983 z" id="boundary" inkscape:connector-curvature="0" />
	<path style="fill:none;stroke:red;stroke-width:1px;stroke-linecap:butt;stroke-linejoin:miter;stroke-opacity:1" d="M 26.2671,90.8418 37.4007,94.1818 z" id="boundary" inkscape:connector-curvature="0" />
	<path style="fill:none;stroke:red;stroke-width:1px;stroke-linecap:butt;stroke-linejoin:miter;stroke-opacity:1" d="M 29.6072,31.8339 40.7407,26.2671 z" id="boundary" inkscape:connector-curvature="0" />
	<path style="fill:none;stroke:red;stroke-width:1px;stroke-linecap:butt;stroke-linejoin:miter;stroke-opacity:1" d="M 30.7205,115.336 41.8541,115.336 z" id="boundary" inkscape:connector-curvature="0" />
	<path style="fill:none;stroke:red;stroke-width:1px;stroke-linecap:butt;stroke-linejoin:miter;stroke-opacity:1" d="M 30.7205,160.983 40.7407,166.55 z" id="boundary" inkscape:connector-curvature="0" />
	<path style="fill:none;stroke:red;stroke-width:1px;stroke-linecap:butt;stroke-linejoin:miter;stroke-opacity:1" d="M 37.4007,94.1818 47.4209,88.615 z" id="boundary" inkscape:connector-curvature="0" />
	<path style="fill:none;stroke:red;stroke-width:1px;stroke-linecap:butt;stroke-linejoin:miter;stroke-opacity:1" d="M 40.7407,26.2671 51.8743,26.2671 z" id="boundary" inkscape:connector-curvature="0" />
	<path style="fill:none;stroke:red;stroke-width:1px;stroke-linecap:butt;stroke-linejoin:miter;stroke-opacity:1" d="M 40.7407,166.55 51.8743,166.55 z" id="boundary" inkscape:connector-curvature="0" />
	<path style="fill:none;stroke:red;stroke-width:1px;stroke-linecap:butt;stroke-linejoin:miter;stroke-opacity:1" d="M 41.8541,115.336 52.9877,115.336 z" id="boundary" inkscape:connector-curvature="0" />
	<path style="fill:none;stroke:red;stroke-width:1px;stroke-linecap:butt;stroke-linejoin:miter;stroke-opacity:1" d="M 47.4209,88.615 57.4411,94.1818 z" id="boundary" inkscape:connector-curvature="0" />
	<path style="fill:none;stroke:red;stroke-width:1px;stroke-linecap:butt;stroke-linejoin:miter;stroke-opacity:1" d="M 51.8743,26.2671 63.0079,26.2671 z" id="boundary" inkscape:connector-curvature="0" />
	<path style="fill:none;stroke:red;stroke-width:1px;stroke-linecap:butt;stroke-linejoin:miter;stroke-opacity:1" d="M 51.8743,166.55 63.0079,166.55 z" id="boundary" inkscape:connector-curvature="0" />
	<path style="fill:none;stroke:red;stroke-width:1px;stroke-linecap:butt;stroke-linejoin:miter;stroke-opacity:1" d="M 52.9877,115.336 64.1212,115.336 z" id="boundary" inkscape:connector-curvature="0" />
	<path style="fill:none;stroke:red;stroke-width:1px;stroke-linecap:butt;stroke-linejoin:miter;stroke-opacity:1" d="M 57.4411,94.1818 67.4613,99.7486 z" id="boundary" inkscape:connector-curvature="0" />
	<path style="fill:none;stroke:red;stroke-width:1px;stroke-linecap:butt;stroke-linejoin:miter;stroke-opacity:1" d="M 63.0079,26.2671 74.1414,26.2671 z" id="boundary" inkscape:connector-curvature="0" />
	<path style="fill:none;stroke:red;stroke-width:1px;stroke-linecap:butt;stroke-linejoin:miter;stroke-opacity:1" d="M 63.0079,166.55 74.1414,171.003 z" id="boundary" inkscape:connector-curvature="0" />
	<path style="fill:none;stroke:red;stroke-width:1px;stroke-linecap:butt;stroke-linejoin:miter;stroke-opacity:1" d="M 64.1212,115.336 75.2548,115.336 z" id="boundary" inkscape:connector-curvature="0" />
	<path style="fill:none;stroke:red;stroke-width:1px;stroke-linecap:butt;stroke-linejoin:miter;stroke-opacity:1" d="M 67.4613,99.7486 78.5948,99.7486 z" id="boundary" inkscape:connector-curvature="0" />
	<path style="fill:none;stroke:red;stroke-width:1px;stroke-linecap:butt;stroke-linejoin:miter;stroke-opacity:1" d="M 74.1414,26.2671 84.1616,31.8339 z" id="boundary" inkscape:connector-curvature="0" />
	<path style="fill:none;stroke:red;stroke-width:1px;stroke-linecap:butt;stroke-linejoin:miter;stroke-opacity:1" d="M 74.1414,171.003 85.275,172.117 z" id="boundary" inkscape:connector-curvature="0" />
	<path style="fill:none;stroke:red;stroke-width:1px;stroke-linecap:butt;stroke-linejoin:miter;stroke-opacity:1" d="M 75.2548,115.336 86.3883,115.336 z" id="boundary" inkscape:connector-curvature="0" />
	<path style="fill:none;stroke:red;stroke-width:1px;stroke-linecap:butt;stroke-linejoin:miter;stroke-opacity:1" d="M 78.5948,99.7486 91.9551,105.315 z" id="boundary" inkscape:connector-curvature="0" />
	<path style="fill:none;stroke:red;stroke-width:1px;stroke-linecap:butt;stroke-linejoin:miter;stroke-opacity:1" d="M 84.1616,31.8339 94.1818,37.4007 z" id="boundary" inkscape:connector-curvature="0" />
	<path style="fill:none;stroke:red;stroke-width:1px;stroke-linecap:butt;stroke-linejoin:miter;stroke-opacity:1" d="M 85.275,172.117 94.1818,179.91 z" id="boundary" inkscape:connector-curvature="0" />
	<path style="fill:none;stroke:red;stroke-width:1px;stroke-linecap:butt;stroke-linejoin:miter;stroke-opacity:1" d="M 86.3883,115.336 97.5219,115.336 z" id="boundary" inkscape:connector-curvature="0" />
	<path style="fill:none;stroke:red;stroke-width:1px;stroke-linecap:butt;stroke-linejoin:miter;stroke-opacity:1" d="M 91.9551,105.315 97.5219,115.336 z" id="boundary" inkscape:connector-curvature="0" />
	<path style="fill:none;stroke:red;stroke-width:1px;stroke-linecap:butt;stroke-linejoin:miter;stroke-opacity:1" d="M 94.1818,37.4007 104.202,42.9675 z" id="boundary" inkscape:connector-curvature="0" />
	<path style="fill:none;stroke:red;stroke-width:1px;stroke-linecap:butt;stroke-linejoin:miter;stroke-opacity:1" d="M 94.1818,179.91 101.975,188.817 z" id="boundary" inkscape:connector-curvature="0" />
	<path style="fill:none;stroke:red;stroke-width:1px;stroke-linecap:butt;stroke-linejoin:miter;stroke-opacity:1" d="M 101.975,188.817 113.109,193.27 z" id="boundary" inkscape:connector-curvature="0" />
	<path style="fill:none;stroke:red;stroke-width:1px;stroke-linecap:butt;stroke-linejoin:miter;stroke-opacity:1" d="M 104.202,42.9675 115.336,42.9675 z" id="boundary" inkscape:connector-curvature="0" />
	<path style="fill:none;stroke:red;stroke-width:1px;stroke-linecap:butt;stroke-linejoin:miter;stroke-opacity:1" d="M 113.109,193.27 120.902,202.177 z" id="boundary" inkscape:connector-curvature="0" />
	<path style="fill:none;stroke:red;stroke-width:1px;stroke-linecap:butt;stroke-linejoin:miter;stroke-opacity:1" d="M 115.336,42.9675 125.356,37.4007 z" id="boundary" inkscape:connector-curvature="0" />
	<path style="fill:none;stroke:red;stroke-width:1px;stroke-linecap:butt;stroke-linejoin:miter;stroke-opacity:1" d="M 120.902,202.177 129.809,209.971 z" id="boundary" inkscape:connector-curvature="0" />
	<path style="fill:none;stroke:red;stroke-width:1px;stroke-linecap:butt;stroke-linejoin:miter;stroke-opacity:1" d="M 125.356,37.4007 136.489,37.4007 z" id="boundary" inkscape:connector-curvature="0" />
	<path style="fill:none;stroke:red;stroke-width:1px;stroke-linecap:butt;stroke-linejoin:miter;stroke-opacity:1" d="M 129.809,209.971 139.829,215.538 z" id="boundary" inkscape:connector-curvature="0" />
	<path style="fill:none;stroke:red;stroke-width:1px;stroke-linecap:butt;stroke-linejoin:miter;stroke-opacity:1" d="M 136.489,37.4007 146.51,31.8339 z" id="boundary" inkscape:connector-curvature="0" />
	<path style="fill:none;stroke:red;stroke-width:1px;stroke-linecap:butt;stroke-linejoin:miter;stroke-opacity:1" d="M 139.829,215.538 148.736,222.218 z" id="boundary" inkscape:connector-curvature="0" />
	<path style="fill:none;stroke:red;stroke-width:1px;stroke-linecap:butt;stroke-linejoin:miter;stroke-opacity:1" d="M 146.51,31.8339 157.643,31.8339 z" id="boundary" inkscape:connector-curvature="0" />
	<path style="fill:none;stroke:red;stroke-width:1px;stroke-linecap:butt;stroke-linejoin:miter;stroke-opacity:1" d="M 148.736,222.218 158.756,227.785 z" id="boundary" inkscape:connector-curvature="0" />
	<path style="fill:none;stroke:red;stroke-width:1px;stroke-linecap:butt;stroke-linejoin:miter;stroke-opacity:1" d="M 157.643,31.8339 168.777,26.2671 z" id="boundary" inkscape:connector-curvature="0" />
	<path style="fill:none;stroke:red;stroke-width:1px;stroke-linecap:butt;stroke-linejoin:miter;stroke-opacity:1" d="M 158.756,227.785 166.55,236.691 z" id="boundary" inkscape:connector-curvature="0" />
	<path style="fill:none;stroke:red;stroke-width:1px;stroke-linecap:butt;stroke-linejoin:miter;stroke-opacity:1" d="M 166.55,236.691 175.457,244.485 z" id="boundary" inkscape:connector-curvature="0" />
	<path style="fill:none;stroke:red;stroke-width:1px;stroke-linecap:butt;stroke-linejoin:miter;stroke-opacity:1" d="M 168.777,26.2671 179.91,26.2671 z" id="boundary" inkscape:connector-curvature="0" />
	<path style="fill:none;stroke:red;stroke-width:1px;stroke-linecap:butt;stroke-linejoin:miter;stroke-opacity:1" d="M 175.457,244.485 185.477,250.052 z" id="boundary" inkscape:connector-curvature="0" />
	<path style="fill:none;stroke:red;stroke-width:1px;stroke-linecap:butt;stroke-linejoin:miter;stroke-opacity:1" d="M 179.91,26.2671 189.93,31.8339 z" id="boundary" inkscape:connector-curvature="0" />
	<path style="fill:none;stroke:red;stroke-width:1px;stroke-linecap:butt;stroke-linejoin:miter;stroke-opacity:1" d="M 185.477,250.052 194.384,257.845 z" id="boundary" inkscape:connector-curvature="0" />
	<path style="fill:none;stroke:red;stroke-width:1px;stroke-linecap:butt;stroke-linejoin:miter;stroke-opacity:1" d="M 189.93,31.8339 199.951,37.4007 z" id="boundary" inkscape:connector-curvature="0" />
	<path style="fill:none;stroke:red;stroke-width:1px;stroke-linecap:butt;stroke-linejoin:miter;stroke-opacity:1" d="M 194.384,257.845 205.517,261.185 z" id="boundary" inkscape:connector-curvature="0" />
	<path style="fill:none;stroke:red;stroke-width:1px;stroke-linecap:butt;stroke-linejoin:miter;stroke-opacity:1" d="M 199.951,37.4007 208.857,44.0808 z" id="boundary" inkscape:connector-curvature="0" />
	<path style="fill:none;stroke:red;stroke-width:1px;stroke-linecap:butt;stroke-linejoin:miter;stroke-opacity:1" d="M 205.517,261.185 216.651,261.185 z" id="boundary" inkscape:connector-curvature="0" />
	<path style="fill:none;stroke:red;stroke-width:1px;stroke-linecap:butt;stroke-linejoin:miter;stroke-opacity:1" d="M 208.857,44.0808 216.651,52.9877 z" id="boundary" inkscape:connector-curvature="0" />
	<path style="fill:none;stroke:red;stroke-width:1px;stroke-linecap:butt;stroke-linejoin:miter;stroke-opacity:1" d="M 216.651,52.9877 225.558,60.7811 z" id="boundary" inkscape:connector-curvature="0" />
	<path style="fill:none;stroke:red;stroke-width:1px;stroke-linecap:butt;stroke-linejoin:miter;stroke-opacity:1" d="M 216.651,261.185 227.785,261.185 z" id="boundary" inkscape:connector-curvature="0" />
	<path style="fill:none;stroke:red;stroke-width:1px;stroke-linecap:butt;stroke-linejoin:miter;stroke-opacity:1" d="M 225.558,60.7811 233.351,69.688 z" id="boundary" inkscape:connector-curvature="0" />
	<path style="fill:none;stroke:red;stroke-width:1px;stroke-linecap:butt;stroke-linejoin:miter;stroke-opacity:1" d="M 227.785,261.185 238.918,261.185 z" id="boundary" inkscape:connector-curvature="0" />
	<path style="fill:none;stroke:red;stroke-width:1px;stroke-linecap:butt;stroke-linejoin:miter;stroke-opacity:1" d="M 233.351,69.688 238.918,79.7082 z" id="boundary" inkscape:connector-curvature="0" />
	<path style="fill:none;stroke:red;stroke-width:1px;stroke-linecap:butt;stroke-linejoin:miter;stroke-opacity:1" d="M 238.918,79.7082 244.485,89.7284 z" id="boundary" inkscape:connector-curvature="0" />
	<path style="fill:none;stroke:red;stroke-width:1px;stroke-linecap:butt;stroke-linejoin:miter;stroke-opacity:1" d="M 238.918,261.185 250.052,263.412 z" id="boundary" inkscape:connector-curvature="0" />
	<path style="fill:none;stroke:red;stroke-width:1px;stroke-linecap:butt;stroke-linejoin:miter;stroke-opacity:1" d="M 243.371,330.213 243.371,341.347 z" id="boundary" inkscape:connector-curvature="0" />
	<path style="fill:none;stroke:red;stroke-width:1px;stroke-linecap:butt;stroke-linejoin:miter;stroke-opacity:1" d="M 243.371,330.213 248.938,319.08 z" id="boundary" inkscape:connector-curvature="0" />
	<path style="fill:none;stroke:red;stroke-width:1px;stroke-linecap:butt;stroke-linejoin:miter;stroke-opacity:1" d="M 243.371,341.347 254.505,339.12 z" id="boundary" inkscape:connector-curvature="0" />
	<path style="fill:none;stroke:red;stroke-width:1px;stroke-linecap:butt;stroke-linejoin:miter;stroke-opacity:1" d="M 244.485,89.7284 244.485,100.862 z" id="boundary" inkscape:connector-curvature="0" />
	<path style="fill:none;stroke:red;stroke-width:1px;stroke-linecap:butt;stroke-linejoin:miter;stroke-opacity:1" d="M 244.485,100.862 250.052,110.882 z" id="boundary" inkscape:connector-curvature="0" />
	<path style="fill:none;stroke:red;stroke-width:1px;stroke-linecap:butt;stroke-linejoin:miter;stroke-opacity:1" d="M 248.938,319.08 257.845,310.173 z" id="boundary" inkscape:connector-curvature="0" />
	<path style="fill:none;stroke:red;stroke-width:1px;stroke-linecap:butt;stroke-linejoin:miter;stroke-opacity:1" d="M 250.052,110.882 250.052,122.016 z" id="boundary" inkscape:connector-curvature="0" />
	<path style="fill:none;stroke:red;stroke-width:1px;stroke-linecap:butt;stroke-linejoin:miter;stroke-opacity:1" d="M 250.052,122.016 250.052,133.149 z" id="boundary" inkscape:connector-curvature="0" />
	<path style="fill:none;stroke:red;stroke-width:1px;stroke-linecap:butt;stroke-linejoin:miter;stroke-opacity:1" d="M 250.052,133.149 258.958,139.829 z" id="boundary" inkscape:connector-curvature="0" />
	<path style="fill:none;stroke:red;stroke-width:1px;stroke-linecap:butt;stroke-linejoin:miter;stroke-opacity:1" d="M 250.052,263.412 261.185,266.752 z" id="boundary" inkscape:connector-curvature="0" />
	<path style="fill:none;stroke:red;stroke-width:1px;stroke-linecap:butt;stroke-linejoin:miter;stroke-opacity:1" d="M 254.505,339.12 265.639,335.78 z" id="boundary" inkscape:connector-curvature="0" />
	<path style="fill:none;stroke:red;stroke-width:1px;stroke-linecap:butt;stroke-linejoin:miter;stroke-opacity:1" d="M 257.845,310.173 267.865,304.606 z" id="boundary" inkscape:connector-curvature="0" />
	<path style="fill:none;stroke:red;stroke-width:1px;stroke-linecap:butt;stroke-linejoin:miter;stroke-opacity:1" d="M 258.958,139.829 270.092,143.169 z" id="boundary" inkscape:connector-curvature="0" />
	<path style="fill:none;stroke:red;stroke-width:1px;stroke-linecap:butt;stroke-linejoin:miter;stroke-opacity:1" d="M 261.185,266.752 271.205,272.319 z" id="boundary" inkscape:connector-curvature="0" />
	<path style="fill:none;stroke:red;stroke-width:1px;stroke-linecap:butt;stroke-linejoin:miter;stroke-opacity:1" d="M 265.639,335.78 266.752,322.42 z" id="boundary" inkscape:connector-curvature="0" />
	<path style="fill:none;stroke:red;stroke-width:1px;stroke-linecap:butt;stroke-linejoin:miter;stroke-opacity:1" d="M 266.752,322.42 276.772,316.853 z" id="boundary" inkscape:connector-curvature="0" />
	<path style="fill:none;stroke:red;stroke-width:1px;stroke-linecap:butt;stroke-linejoin:miter;stroke-opacity:1" d="M 267.865,304.606 276.772,293.473 z" id="boundary" inkscape:connector-curvature="0" />
	<path style="fill:none;stroke:red;stroke-width:1px;stroke-linecap:butt;stroke-linejoin:miter;stroke-opacity:1" d="M 270.092,143.169 280.112,137.603 z" id="boundary" inkscape:connector-curvature="0" />
	<path style="fill:none;stroke:red;stroke-width:1px;stroke-linecap:butt;stroke-linejoin:miter;stroke-opacity:1" d="M 271.205,272.319 276.772,282.339 z" id="boundary" inkscape:connector-curvature="0" />
	<path style="fill:none;stroke:red;stroke-width:1px;stroke-linecap:butt;stroke-linejoin:miter;stroke-opacity:1" d="M 276.772,282.339 276.772,293.473 z" id="boundary" inkscape:connector-curvature="0" />
	<path style="fill:none;stroke:red;stroke-width:1px;stroke-linecap:butt;stroke-linejoin:miter;stroke-opacity:1" d="M 276.772,316.853 282.339,326.873 z" id="boundary" inkscape:connector-curvature="0" />
	<path style="fill:none;stroke:red;stroke-width:1px;stroke-linecap:butt;stroke-linejoin:miter;stroke-opacity:1" d="M 280.112,137.603 290.132,132.036 z" id="boundary" inkscape:connector-curvature="0" />
	<path style="fill:none;stroke:red;stroke-width:1px;stroke-linecap:butt;stroke-linejoin:miter;stroke-opacity:1" d="M 282.339,326.873 284.566,338.007 z" id="boundary" inkscape:connector-curvature="0" />
	<path style="fill:none;stroke:red;stroke-width:1px;stroke-linecap:butt;stroke-linejoin:miter;stroke-opacity:1" d="M 284.566,338.007 294.586,327.987 z" id="boundary" inkscape:connector-curvature="0" />
	<path style="fill:none;stroke:red;stroke-width:1px;stroke-linecap:butt;stroke-linejoin:miter;stroke-opacity:1" d="M 290.132,132.036 300.153,126.469 z" id="boundary" inkscape:connector-curvature="0" />
	<path style="fill:none;stroke:red;stroke-width:1px;stroke-linecap:butt;stroke-linejoin:miter;stroke-opacity:1" d="M 294.586,327.987 304.606,333.553 z" id="boundary" inkscape:connector-curvature="0" />
	<path style="fill:none;stroke:red;stroke-width:1px;stroke-linecap:butt;stroke-linejoin:miter;stroke-opacity:1" d="M 300.153,126.469 310.173,118.676 z" id="boundary" inkscape:connector-curvature="0" />
	<path style="fill:none;stroke:red;stroke-width:1px;stroke-linecap:butt;stroke-linejoin:miter;stroke-opacity:1" d="M 304.606,333.553 315.74,335.78 z" id="boundary" inkscape:connector-curvature="0" />
	<path style="fill:none;stroke:red;stroke-width:1px;stroke-linecap:butt;stroke-linejoin:miter;stroke-opacity:1" d="M 310.173,118.676 321.306,115.336 z" id="boundary" inkscape:connector-curvature="0" />
	<path style="fill:none;stroke:red;stroke-width:1px;stroke-linecap:butt;stroke-linejoin:miter;stroke-opacity:1" d="M 311.286,322.42 315.74,335.78 z" id="boundary" inkscape:connector-curvature="0" />
	<path style="fill:none;stroke:red;stroke-width:1px;stroke-linecap:butt;stroke-linejoin:miter;stroke-opacity:1" d="M 311.286,322.42 321.306,316.853 z" id="boundary" inkscape:connector-curvature="0" />
	<path style="fill:none;stroke:red;stroke-width:1px;stroke-linecap:butt;stroke-linejoin:miter;stroke-opacity:1" d="M 321.306,115.336 331.327,109.769 z" id="boundary" inkscape:connector-curvature="0" />
	<path style="fill:none;stroke:red;stroke-width:1px;stroke-linecap:butt;stroke-linejoin:miter;stroke-opacity:1" d="M 321.306,316.853 331.327,322.42 z" id="boundary" inkscape:connector-curvature="0" />
	<path style="fill:none;stroke:red;stroke-width:1px;stroke-linecap:butt;stroke-linejoin:miter;stroke-opacity:1" d="M 331.327,109.769 342.46,109.769 z" id="boundary" inkscape:connector-curvature="0" />
	<path style="fill:none;stroke:red;stroke-width:1px;stroke-linecap:butt;stroke-linejoin:miter;stroke-opacity:1" d="M 331.327,322.42 341.347,327.987 z" id="boundary" inkscape:connector-curvature="0" />
	<path style="fill:none;stroke:red;stroke-width:1px;stroke-linecap:butt;stroke-linejoin:miter;stroke-opacity:1" d="M 341.347,327.987 352.48,332.44 z" id="boundary" inkscape:connector-curvature="0" />
	<path style="fill:none;stroke:red;stroke-width:1px;stroke-linecap:butt;stroke-linejoin:miter;stroke-opacity:1" d="M 342.46,109.769 353.594,109.769 z" id="boundary" inkscape:connector-curvature="0" />
	<path style="fill:none;stroke:red;stroke-width:1px;stroke-linecap:butt;stroke-linejoin:miter;stroke-opacity:1" d="M 352.48,332.44 362.501,338.007 z" id="boundary" inkscape:connector-curvature="0" />
	<path style="fill:none;stroke:red;stroke-width:1px;stroke-linecap:butt;stroke-linejoin:miter;stroke-opacity:1" d="M 353.594,109.769 363.614,104.202 z" id="boundary" inkscape:connector-curvature="0" />
	<path style="fill:none;stroke:red;stroke-width:1px;stroke-linecap:butt;stroke-linejoin:miter;stroke-opacity:1" d="M 362.501,338.007 373.634,339.12 z" id="boundary" inkscape:connector-curvature="0" />
	<path style="fill:none;stroke:red;stroke-width:1px;stroke-linecap:butt;stroke-linejoin:miter;stroke-opacity:1" d="M 363.614,104.202 373.634,98.6352 z" id="boundary" inkscape:connector-curvature="0" />
	<path style="fill:none;stroke:red;stroke-width:1px;stroke-linecap:butt;stroke-linejoin:miter;stroke-opacity:1" d="M 365.841,569.585 372.521,578.492 z" id="boundary" inkscape:connector-curvature="0" />
	<path style="fill:none;stroke:red;stroke-width:1px;stroke-linecap:butt;stroke-linejoin:miter;stroke-opacity:1" d="M 365.841,569.585 374.747,560.678 z" id="boundary" inkscape:connector-curvature="0" />
	<path style="fill:none;stroke:red;stroke-width:1px;stroke-linecap:butt;stroke-linejoin:miter;stroke-opacity:1" d="M 372.521,578.492 383.654,578.492 z" id="boundary" inkscape:connector-curvature="0" />
	<path style="fill:none;stroke:red;stroke-width:1px;stroke-linecap:butt;stroke-linejoin:miter;stroke-opacity:1" d="M 373.634,98.6352 384.768,98.6352 z" id="boundary" inkscape:connector-curvature="0" />
	<path style="fill:none;stroke:red;stroke-width:1px;stroke-linecap:butt;stroke-linejoin:miter;stroke-opacity:1" d="M 373.634,339.12 384.768,339.12 z" id="boundary" inkscape:connector-curvature="0" />
	<path style="fill:none;stroke:red;stroke-width:1px;stroke-linecap:butt;stroke-linejoin:miter;stroke-opacity:1" d="M 374.747,560.678 385.881,560.678 z" id="boundary" inkscape:connector-curvature="0" />
	<path style="fill:none;stroke:red;stroke-width:1px;stroke-linecap:butt;stroke-linejoin:miter;stroke-opacity:1" d="M 383.654,578.492 393.675,584.058 z" id="boundary" inkscape:connector-curvature="0" />
	<path style="fill:none;stroke:red;stroke-width:1px;stroke-linecap:butt;stroke-linejoin:miter;stroke-opacity:1" d="M 384.768,98.6352 394.788,93.0685 z" id="boundary" inkscape:connector-curvature="0" />
	<path style="fill:none;stroke:red;stroke-width:1px;stroke-linecap:butt;stroke-linejoin:miter;stroke-opacity:1" d="M 384.768,339.12 395.901,342.46 z" id="boundary" inkscape:connector-curvature="0" />
	<path style="fill:none;stroke:red;stroke-width:1px;stroke-linecap:butt;stroke-linejoin:miter;stroke-opacity:1" d="M 385.881,560.678 397.015,555.111 z" id="boundary" inkscape:connector-curvature="0" />
	<path style="fill:none;stroke:red;stroke-width:1px;stroke-linecap:butt;stroke-linejoin:miter;stroke-opacity:1" d="M 393.675,584.058 397.015,595.192 z" id="boundary" inkscape:connector-curvature="0" />
	<path style="fill:none;stroke:red;stroke-width:1px;stroke-linecap:butt;stroke-linejoin:miter;stroke-opacity:1" d="M 394.788,93.0685 405.921,93.0685 z" id="boundary" inkscape:connector-curvature="0" />
	<path style="fill:none;stroke:red;stroke-width:1px;stroke-linecap:butt;stroke-linejoin:miter;stroke-opacity:1" d="M 395.901,342.46 407.035,344.687 z" id="boundary" inkscape:connector-curvature="0" />
	<path style="fill:none;stroke:red;stroke-width:1px;stroke-linecap:butt;stroke-linejoin:miter;stroke-opacity:1" d="M 397.015,555.111 408.148,555.111 z" id="boundary" inkscape:connector-curvature="0" />
	<path style="fill:none;stroke:red;stroke-width:1px;stroke-linecap:butt;stroke-linejoin:miter;stroke-opacity:1" d="M 397.015,595.192 408.148,594.079 z" id="boundary" inkscape:connector-curvature="0" />
	<path style="fill:none;stroke:red;stroke-width:1px;stroke-linecap:butt;stroke-linejoin:miter;stroke-opacity:1" d="M 405.921,93.0685 415.942,87.5017 z" id="boundary" inkscape:connector-curvature="0" />
	<path style="fill:none;stroke:red;stroke-width:1px;stroke-linecap:butt;stroke-linejoin:miter;stroke-opacity:1" d="M 407.035,344.687 418.168,344.687 z" id="boundary" inkscape:connector-curvature="0" />
	<path style="fill:none;stroke:red;stroke-width:1px;stroke-linecap:butt;stroke-linejoin:miter;stroke-opacity:1" d="M 408.148,555.111 418.168,549.544 z" id="boundary" inkscape:connector-curvature="0" />
	<path style="fill:none;stroke:red;stroke-width:1px;stroke-linecap:butt;stroke-linejoin:miter;stroke-opacity:1" d="M 408.148,594.079 419.282,589.625 z" id="boundary" inkscape:connector-curvature="0" />
	<path style="fill:none;stroke:red;stroke-width:1px;stroke-linecap:butt;stroke-linejoin:miter;stroke-opacity:1" d="M 415.942,87.5017 427.075,85.275 z" id="boundary" inkscape:connector-curvature="0" />
	<path style="fill:none;stroke:red;stroke-width:1px;stroke-linecap:butt;stroke-linejoin:miter;stroke-opacity:1" d="M 418.168,344.687 429.302,348.027 z" id="boundary" inkscape:connector-curvature="0" />
	<path style="fill:none;stroke:red;stroke-width:1px;stroke-linecap:butt;stroke-linejoin:miter;stroke-opacity:1" d="M 418.168,549.544 427.075,541.751 z" id="boundary" inkscape:connector-curvature="0" />
	<path style="fill:none;stroke:red;stroke-width:1px;stroke-linecap:butt;stroke-linejoin:miter;stroke-opacity:1" d="M 419.282,589.625 429.302,584.058 z" id="boundary" inkscape:connector-curvature="0" />
	<path style="fill:none;stroke:red;stroke-width:1px;stroke-linecap:butt;stroke-linejoin:miter;stroke-opacity:1" d="M 427.075,85.275 438.209,81.9349 z" id="boundary" inkscape:connector-curvature="0" />
	<path style="fill:none;stroke:red;stroke-width:1px;stroke-linecap:butt;stroke-linejoin:miter;stroke-opacity:1" d="M 427.075,541.751 432.642,525.051 z" id="boundary" inkscape:connector-curvature="0" />
	<path style="fill:none;stroke:red;stroke-width:1px;stroke-linecap:butt;stroke-linejoin:miter;stroke-opacity:1" d="M 429.302,348.027 433.755,359.16 z" id="boundary" inkscape:connector-curvature="0" />
	<path style="fill:none;stroke:red;stroke-width:1px;stroke-linecap:butt;stroke-linejoin:miter;stroke-opacity:1" d="M 429.302,584.058 440.435,584.058 z" id="boundary" inkscape:connector-curvature="0" />
	<path style="fill:none;stroke:red;stroke-width:1px;stroke-linecap:butt;stroke-linejoin:miter;stroke-opacity:1" d="M 432.642,525.051 438.209,508.35 z" id="boundary" inkscape:connector-curvature="0" />
	<path style="fill:none;stroke:red;stroke-width:1px;stroke-linecap:butt;stroke-linejoin:miter;stroke-opacity:1" d="M 433.755,359.16 438.209,370.294 z" id="boundary" inkscape:connector-curvature="0" />
	<path style="fill:none;stroke:red;stroke-width:1px;stroke-linecap:butt;stroke-linejoin:miter;stroke-opacity:1" d="M 438.209,81.9349 448.229,76.3681 z" id="boundary" inkscape:connector-curvature="0" />
	<path style="fill:none;stroke:red;stroke-width:1px;stroke-linecap:butt;stroke-linejoin:miter;stroke-opacity:1" d="M 438.209,370.294 438.209,381.428 z" id="boundary" inkscape:connector-curvature="0" />
	<path style="fill:none;stroke:red;stroke-width:1px;stroke-linecap:butt;stroke-linejoin:miter;stroke-opacity:1" d="M 438.209,381.428 439.322,392.561 z" id="boundary" inkscape:connector-curvature="0" />
	<path style="fill:none;stroke:red;stroke-width:1px;stroke-linecap:butt;stroke-linejoin:miter;stroke-opacity:1" d="M 438.209,508.35 443.776,497.217 z" id="boundary" inkscape:connector-curvature="0" />
	<path style="fill:none;stroke:red;stroke-width:1px;stroke-linecap:butt;stroke-linejoin:miter;stroke-opacity:1" d="M 439.322,392.561 443.776,403.695 z" id="boundary" inkscape:connector-curvature="0" />
	<path style="fill:none;stroke:red;stroke-width:1px;stroke-linecap:butt;stroke-linejoin:miter;stroke-opacity:1" d="M 440.435,584.058 450.456,578.492 z" id="boundary" inkscape:connector-curvature="0" />
	<path style="fill:none;stroke:red;stroke-width:1px;stroke-linecap:butt;stroke-linejoin:miter;stroke-opacity:1" d="M 443.776,403.695 443.776,414.828 z" id="boundary" inkscape:connector-curvature="0" />
	<path style="fill:none;stroke:red;stroke-width:1px;stroke-linecap:butt;stroke-linejoin:miter;stroke-opacity:1" d="M 443.776,414.828 449.342,424.848 z" id="boundary" inkscape:connector-curvature="0" />
	<path style="fill:none;stroke:red;stroke-width:1px;stroke-linecap:butt;stroke-linejoin:miter;stroke-opacity:1" d="M 443.776,486.083 443.776,497.217 z" id="boundary" inkscape:connector-curvature="0" />
	<path style="fill:none;stroke:red;stroke-width:1px;stroke-linecap:butt;stroke-linejoin:miter;stroke-opacity:1" d="M 443.776,486.083 449.342,474.949 z" id="boundary" inkscape:connector-curvature="0" />
	<path style="fill:none;stroke:red;stroke-width:1px;stroke-linecap:butt;stroke-linejoin:miter;stroke-opacity:1" d="M 448.229,76.3681 459.363,76.3681 z" id="boundary" inkscape:connector-curvature="0" />
	<path style="fill:none;stroke:red;stroke-width:1px;stroke-linecap:butt;stroke-linejoin:miter;stroke-opacity:1" d="M 449.342,424.848 449.342,435.982 z" id="boundary" inkscape:connector-curvature="0" />
	<path style="fill:none;stroke:red;stroke-width:1px;stroke-linecap:butt;stroke-linejoin:miter;stroke-opacity:1" d="M 449.342,435.982 454.909,446.002 z" id="boundary" inkscape:connector-curvature="0" />
	<path style="fill:none;stroke:red;stroke-width:1px;stroke-linecap:butt;stroke-linejoin:miter;stroke-opacity:1" d="M 449.342,463.816 449.342,474.949 z" id="boundary" inkscape:connector-curvature="0" />
	<path style="fill:none;stroke:red;stroke-width:1px;stroke-linecap:butt;stroke-linejoin:miter;stroke-opacity:1" d="M 449.342,463.816 454.909,446.002 z" id="boundary" inkscape:connector-curvature="0" />
	<path style="fill:none;stroke:red;stroke-width:1px;stroke-linecap:butt;stroke-linejoin:miter;stroke-opacity:1" d="M 450.456,578.492 459.363,570.698 z" id="boundary" inkscape:connector-curvature="0" />
	<path style="fill:none;stroke:red;stroke-width:1px;stroke-linecap:butt;stroke-linejoin:miter;stroke-opacity:1" d="M 459.363,76.3681 469.383,70.8013 z" id="boundary" inkscape:connector-curvature="0" />
	<path style="fill:none;stroke:red;stroke-width:1px;stroke-linecap:butt;stroke-linejoin:miter;stroke-opacity:1" d="M 459.363,570.698 467.156,556.224 z" id="boundary" inkscape:connector-curvature="0" />
	<path style="fill:none;stroke:red;stroke-width:1px;stroke-linecap:butt;stroke-linejoin:miter;stroke-opacity:1" d="M 467.156,533.957 467.156,545.091 z" id="boundary" inkscape:connector-curvature="0" />
	<path style="fill:none;stroke:red;stroke-width:1px;stroke-linecap:butt;stroke-linejoin:miter;stroke-opacity:1" d="M 467.156,533.957 472.723,517.257 z" id="boundary" inkscape:connector-curvature="0" />
	<path style="fill:none;stroke:red;stroke-width:1px;stroke-linecap:butt;stroke-linejoin:miter;stroke-opacity:1" d="M 467.156,545.091 467.156,556.224 z" id="boundary" inkscape:connector-curvature="0" />
	<path style="fill:none;stroke:red;stroke-width:1px;stroke-linecap:butt;stroke-linejoin:miter;stroke-opacity:1" d="M 469.383,70.8013 480.516,65.2346 z" id="boundary" inkscape:connector-curvature="0" />
	<path style="fill:none;stroke:red;stroke-width:1px;stroke-linecap:butt;stroke-linejoin:miter;stroke-opacity:1" d="M 472.723,517.257 478.29,506.123 z" id="boundary" inkscape:connector-curvature="0" />
	<path style="fill:none;stroke:red;stroke-width:1px;stroke-linecap:butt;stroke-linejoin:miter;stroke-opacity:1" d="M 478.29,506.123 487.196,498.33 z" id="boundary" inkscape:connector-curvature="0" />
	<path style="fill:none;stroke:red;stroke-width:1px;stroke-linecap:butt;stroke-linejoin:miter;stroke-opacity:1" d="M 480.516,65.2346 491.65,65.2346 z" id="boundary" inkscape:connector-curvature="0" />
	<path style="fill:none;stroke:red;stroke-width:1px;stroke-linecap:butt;stroke-linejoin:miter;stroke-opacity:1" d="M 487.196,498.33 492.763,487.196 z" id="boundary" inkscape:connector-curvature="0" />
	<path style="fill:none;stroke:red;stroke-width:1px;stroke-linecap:butt;stroke-linejoin:miter;stroke-opacity:1" d="M 491.65,65.2346 501.67,59.6678 z" id="boundary" inkscape:connector-curvature="0" />
	<path style="fill:none;stroke:red;stroke-width:1px;stroke-linecap:butt;stroke-linejoin:miter;stroke-opacity:1" d="M 492.763,487.196 498.33,476.063 z" id="boundary" inkscape:connector-curvature="0" />
	<path style="fill:none;stroke:red;stroke-width:1px;stroke-linecap:butt;stroke-linejoin:miter;stroke-opacity:1" d="M 498.33,476.063 500.557,456.022 z" id="boundary" inkscape:connector-curvature="0" />
	<path style="fill:none;stroke:red;stroke-width:1px;stroke-linecap:butt;stroke-linejoin:miter;stroke-opacity:1" d="M 500.557,456.022 506.123,444.889 z" id="boundary" inkscape:connector-curvature="0" />
	<path style="fill:none;stroke:red;stroke-width:1px;stroke-linecap:butt;stroke-linejoin:miter;stroke-opacity:1" d="M 501.67,59.6678 512.804,59.6678 z" id="boundary" inkscape:connector-curvature="0" />
	<path style="fill:none;stroke:red;stroke-width:1px;stroke-linecap:butt;stroke-linejoin:miter;stroke-opacity:1" d="M 506.123,411.488 506.123,422.622 z" id="boundary" inkscape:connector-curvature="0" />
	<path style="fill:none;stroke:red;stroke-width:1px;stroke-linecap:butt;stroke-linejoin:miter;stroke-opacity:1" d="M 506.123,411.488 517.257,413.715 z" id="boundary" inkscape:connector-curvature="0" />
	<path style="fill:none;stroke:red;stroke-width:1px;stroke-linecap:butt;stroke-linejoin:miter;stroke-opacity:1" d="M 506.123,422.622 506.123,433.755 z" id="boundary" inkscape:connector-curvature="0" />
	<path style="fill:none;stroke:red;stroke-width:1px;stroke-linecap:butt;stroke-linejoin:miter;stroke-opacity:1" d="M 506.123,433.755 506.123,444.889 z" id="boundary" inkscape:connector-curvature="0" />
	<path style="fill:none;stroke:red;stroke-width:1px;stroke-linecap:butt;stroke-linejoin:miter;stroke-opacity:1" d="M 512.804,59.6678 522.824,54.101 z" id="boundary" inkscape:connector-curvature="0" />
	<path style="fill:none;stroke:red;stroke-width:1px;stroke-linecap:butt;stroke-linejoin:miter;stroke-opacity:1" d="M 517.257,413.715 525.051,422.622 z" id="boundary" inkscape:connector-curvature="0" />
	<path style="fill:none;stroke:red;stroke-width:1px;stroke-linecap:butt;stroke-linejoin:miter;stroke-opacity:1" d="M 522.824,54.101 533.957,54.101 z" id="boundary" inkscape:connector-curvature="0" />
	<path style="fill:none;stroke:red;stroke-width:1px;stroke-linecap:butt;stroke-linejoin:miter;stroke-opacity:1" d="M 525.051,422.622 533.957,430.415 z" id="boundary" inkscape:connector-curvature="0" />
	<path style="fill:none;stroke:red;stroke-width:1px;stroke-linecap:butt;stroke-linejoin:miter;stroke-opacity:1" d="M 533.957,54.101 545.091,57.4411 z" id="boundary" inkscape:connector-curvature="0" />
	<path style="fill:none;stroke:red;stroke-width:1px;stroke-linecap:butt;stroke-linejoin:miter;stroke-opacity:1" d="M 533.957,430.415 541.751,439.322 z" id="boundary" inkscape:connector-curvature="0" />
	<path style="fill:none;stroke:red;stroke-width:1px;stroke-linecap:butt;stroke-linejoin:miter;stroke-opacity:1" d="M 541.751,439.322 552.884,443.776 z" id="boundary" inkscape:connector-curvature="0" />
	<path style="fill:none;stroke:red;stroke-width:1px;stroke-linecap:butt;stroke-linejoin:miter;stroke-opacity:1" d="M 543.978,586.285 550.658,595.192 z" id="boundary" inkscape:connector-curvature="0" />
	<path style="fill:none;stroke:red;stroke-width:1px;stroke-linecap:butt;stroke-linejoin:miter;stroke-opacity:1" d="M 543.978,586.285 555.111,580.718 z" id="boundary" inkscape:connector-curvature="0" />
	<path style="fill:none;stroke:red;stroke-width:1px;stroke-linecap:butt;stroke-linejoin:miter;stroke-opacity:1" d="M 545.091,57.4411 555.111,63.0079 z" id="boundary" inkscape:connector-curvature="0" />
	<path style="fill:none;stroke:red;stroke-width:1px;stroke-linecap:butt;stroke-linejoin:miter;stroke-opacity:1" d="M 545.091,327.987 545.091,339.12 z" id="boundary" inkscape:connector-curvature="0" />
	<path style="fill:none;stroke:red;stroke-width:1px;stroke-linecap:butt;stroke-linejoin:miter;stroke-opacity:1" d="M 545.091,327.987 556.224,322.42 z" id="boundary" inkscape:connector-curvature="0" />
	<path style="fill:none;stroke:red;stroke-width:1px;stroke-linecap:butt;stroke-linejoin:miter;stroke-opacity:1" d="M 545.091,339.12 550.658,349.14 z" id="boundary" inkscape:connector-curvature="0" />
	<path style="fill:none;stroke:red;stroke-width:1px;stroke-linecap:butt;stroke-linejoin:miter;stroke-opacity:1" d="M 550.658,349.14 559.565,355.82 z" id="boundary" inkscape:connector-curvature="0" />
	<path style="fill:none;stroke:red;stroke-width:1px;stroke-linecap:butt;stroke-linejoin:miter;stroke-opacity:1" d="M 550.658,595.192 561.791,595.192 z" id="boundary" inkscape:connector-curvature="0" />
	<path style="fill:none;stroke:red;stroke-width:1px;stroke-linecap:butt;stroke-linejoin:miter;stroke-opacity:1" d="M 552.884,443.776 560.678,452.682 z" id="boundary" inkscape:connector-curvature="0" />
	<path style="fill:none;stroke:red;stroke-width:1px;stroke-linecap:butt;stroke-linejoin:miter;stroke-opacity:1" d="M 555.111,63.0079 566.245,65.2346 z" id="boundary" inkscape:connector-curvature="0" />
	<path style="fill:none;stroke:red;stroke-width:1px;stroke-linecap:butt;stroke-linejoin:miter;stroke-opacity:1" d="M 555.111,580.718 564.018,571.811 z" id="boundary" inkscape:connector-curvature="0" />
	<path style="fill:none;stroke:red;stroke-width:1px;stroke-linecap:butt;stroke-linejoin:miter;stroke-opacity:1" d="M 556.224,322.42 567.358,322.42 z" id="boundary" inkscape:connector-curvature="0" />
	<path style="fill:none;stroke:red;stroke-width:1px;stroke-linecap:butt;stroke-linejoin:miter;stroke-opacity:1" d="M 559.565,355.82 569.585,361.387 z" id="boundary" inkscape:connector-curvature="0" />
	<path style="fill:none;stroke:red;stroke-width:1px;stroke-linecap:butt;stroke-linejoin:miter;stroke-opacity:1" d="M 560.678,452.682 566.245,462.703 z" id="boundary" inkscape:connector-curvature="0" />
	<path style="fill:none;stroke:red;stroke-width:1px;stroke-linecap:butt;stroke-linejoin:miter;stroke-opacity:1" d="M 561.791,595.192 572.925,595.192 z" id="boundary" inkscape:connector-curvature="0" />
	<path style="fill:none;stroke:red;stroke-width:1px;stroke-linecap:butt;stroke-linejoin:miter;stroke-opacity:1" d="M 564.018,571.811 574.038,566.245 z" id="boundary" inkscape:connector-curvature="0" />
	<path style="fill:none;stroke:red;stroke-width:1px;stroke-linecap:butt;stroke-linejoin:miter;stroke-opacity:1" d="M 566.245,65.2346 577.378,65.2346 z" id="boundary" inkscape:connector-curvature="0" />
	<path style="fill:none;stroke:red;stroke-width:1px;stroke-linecap:butt;stroke-linejoin:miter;stroke-opacity:1" d="M 566.245,462.703 571.811,472.723 z" id="boundary" inkscape:connector-curvature="0" />
	<path style="fill:none;stroke:red;stroke-width:1px;stroke-linecap:butt;stroke-linejoin:miter;stroke-opacity:1" d="M 567.358,322.42 577.378,316.853 z" id="boundary" inkscape:connector-curvature="0" />
	<path style="fill:none;stroke:red;stroke-width:1px;stroke-linecap:butt;stroke-linejoin:miter;stroke-opacity:1" d="M 569.585,361.387 578.492,369.181 z" id="boundary" inkscape:connector-curvature="0" />
	<path style="fill:none;stroke:red;stroke-width:1px;stroke-linecap:butt;stroke-linejoin:miter;stroke-opacity:1" d="M 571.811,472.723 575.152,483.856 z" id="boundary" inkscape:connector-curvature="0" />
	<path style="fill:none;stroke:red;stroke-width:1px;stroke-linecap:butt;stroke-linejoin:miter;stroke-opacity:1" d="M 572.925,595.192 582.945,600.759 z" id="boundary" inkscape:connector-curvature="0" />
	<path style="fill:none;stroke:red;stroke-width:1px;stroke-linecap:butt;stroke-linejoin:miter;stroke-opacity:1" d="M 574.038,566.245 582.945,549.544 z" id="boundary" inkscape:connector-curvature="0" />
	<path style="fill:none;stroke:red;stroke-width:1px;stroke-linecap:butt;stroke-linejoin:miter;stroke-opacity:1" d="M 575.152,483.856 580.718,493.877 z" id="boundary" inkscape:connector-curvature="0" />
	<path style="fill:none;stroke:red;stroke-width:1px;stroke-linecap:butt;stroke-linejoin:miter;stroke-opacity:1" d="M 577.378,65.2346 588.512,67.4613 z" id="boundary" inkscape:connector-curvature="0" />
	<path style="fill:none;stroke:red;stroke-width:1px;stroke-linecap:butt;stroke-linejoin:miter;stroke-opacity:1" d="M 577.378,316.853 588.512,313.513 z" id="boundary" inkscape:connector-curvature="0" />
	<path style="fill:none;stroke:red;stroke-width:1px;stroke-linecap:butt;stroke-linejoin:miter;stroke-opacity:1" d="M 578.492,369.181 584.058,379.201 z" id="boundary" inkscape:connector-curvature="0" />
	<path style="fill:none;stroke:red;stroke-width:1px;stroke-linecap:butt;stroke-linejoin:miter;stroke-opacity:1" d="M 580.718,493.877 582.945,505.01 z" id="boundary" inkscape:connector-curvature="0" />
	<path style="fill:none;stroke:red;stroke-width:1px;stroke-linecap:butt;stroke-linejoin:miter;stroke-opacity:1" d="M 582.945,505.01 582.945,516.144 z" id="boundary" inkscape:connector-curvature="0" />
	<path style="fill:none;stroke:red;stroke-width:1px;stroke-linecap:butt;stroke-linejoin:miter;stroke-opacity:1" d="M 582.945,516.144 582.945,527.277 z" id="boundary" inkscape:connector-curvature="0" />
	<path style="fill:none;stroke:red;stroke-width:1px;stroke-linecap:butt;stroke-linejoin:miter;stroke-opacity:1" d="M 582.945,527.277 582.945,538.411 z" id="boundary" inkscape:connector-curvature="0" />
	<path style="fill:none;stroke:red;stroke-width:1px;stroke-linecap:butt;stroke-linejoin:miter;stroke-opacity:1" d="M 582.945,538.411 582.945,549.544 z" id="boundary" inkscape:connector-curvature="0" />
	<path style="fill:none;stroke:red;stroke-width:1px;stroke-linecap:butt;stroke-linejoin:miter;stroke-opacity:1" d="M 582.945,600.759 592.965,606.325 z" id="boundary" inkscape:connector-curvature="0" />
	<path style="fill:none;stroke:red;stroke-width:1px;stroke-linecap:butt;stroke-linejoin:miter;stroke-opacity:1" d="M 584.058,379.201 587.398,390.334 z" id="boundary" inkscape:connector-curvature="0" />
	<path style="fill:none;stroke:red;stroke-width:1px;stroke-linecap:butt;stroke-linejoin:miter;stroke-opacity:1" d="M 587.398,390.334 589.625,401.468 z" id="boundary" inkscape:connector-curvature="0" />
	<path style="fill:none;stroke:red;stroke-width:1px;stroke-linecap:butt;stroke-linejoin:miter;stroke-opacity:1" d="M 588.512,67.4613 599.645,70.8013 z" id="boundary" inkscape:connector-curvature="0" />
	<path style="fill:none;stroke:red;stroke-width:1px;stroke-linecap:butt;stroke-linejoin:miter;stroke-opacity:1" d="M 588.512,313.513 597.419,304.606 z" id="boundary" inkscape:connector-curvature="0" />
	<path style="fill:none;stroke:red;stroke-width:1px;stroke-linecap:butt;stroke-linejoin:miter;stroke-opacity:1" d="M 589.625,401.468 595.192,411.488 z" id="boundary" inkscape:connector-curvature="0" />
	<path style="fill:none;stroke:red;stroke-width:1px;stroke-linecap:butt;stroke-linejoin:miter;stroke-opacity:1" d="M 592.965,606.325 602.985,600.759 z" id="boundary" inkscape:connector-curvature="0" />
	<path style="fill:none;stroke:red;stroke-width:1px;stroke-linecap:butt;stroke-linejoin:miter;stroke-opacity:1" d="M 595.192,411.488 597.419,422.622 z" id="boundary" inkscape:connector-curvature="0" />
	<path style="fill:none;stroke:red;stroke-width:1px;stroke-linecap:butt;stroke-linejoin:miter;stroke-opacity:1" d="M 597.419,304.606 608.552,299.039 z" id="boundary" inkscape:connector-curvature="0" />
	<path style="fill:none;stroke:red;stroke-width:1px;stroke-linecap:butt;stroke-linejoin:miter;stroke-opacity:1" d="M 597.419,422.622 606.325,430.415 z" id="boundary" inkscape:connector-curvature="0" />
	<path style="fill:none;stroke:red;stroke-width:1px;stroke-linecap:butt;stroke-linejoin:miter;stroke-opacity:1" d="M 599.645,70.8013 610.779,73.0281 z" id="boundary" inkscape:connector-curvature="0" />
	<path style="fill:none;stroke:red;stroke-width:1px;stroke-linecap:butt;stroke-linejoin:miter;stroke-opacity:1" d="M 602.985,600.759 613.006,595.192 z" id="boundary" inkscape:connector-curvature="0" />
	<path style="fill:none;stroke:red;stroke-width:1px;stroke-linecap:butt;stroke-linejoin:miter;stroke-opacity:1" d="M 606.325,430.415 614.119,439.322 z" id="boundary" inkscape:connector-curvature="0" />
	<path style="fill:none;stroke:red;stroke-width:1px;stroke-linecap:butt;stroke-linejoin:miter;stroke-opacity:1" d="M 608.552,299.039 617.459,289.019 z" id="boundary" inkscape:connector-curvature="0" />
	<path style="fill:none;stroke:red;stroke-width:1px;stroke-linecap:butt;stroke-linejoin:miter;stroke-opacity:1" d="M 610.779,73.0281 621.912,76.3681 z" id="boundary" inkscape:connector-curvature="0" />
	<path style="fill:none;stroke:red;stroke-width:1px;stroke-linecap:butt;stroke-linejoin:miter;stroke-opacity:1" d="M 613.006,595.192 624.139,595.192 z" id="boundary" inkscape:connector-curvature="0" />
	<path style="fill:none;stroke:red;stroke-width:1px;stroke-linecap:butt;stroke-linejoin:miter;stroke-opacity:1" d="M 614.119,439.322 623.026,447.116 z" id="boundary" inkscape:connector-curvature="0" />
	<path style="fill:none;stroke:red;stroke-width:1px;stroke-linecap:butt;stroke-linejoin:miter;stroke-opacity:1" d="M 617.459,289.019 627.479,283.452 z" id="boundary" inkscape:connector-curvature="0" />
	<path style="fill:none;stroke:red;stroke-width:1px;stroke-linecap:butt;stroke-linejoin:miter;stroke-opacity:1" d="M 621.912,76.3681 631.933,81.9349 z" id="boundary" inkscape:connector-curvature="0" />
	<path style="fill:none;stroke:red;stroke-width:1px;stroke-linecap:butt;stroke-linejoin:miter;stroke-opacity:1" d="M 623.026,447.116 623.026,458.249 z" id="boundary" inkscape:connector-curvature="0" />
	<path style="fill:none;stroke:red;stroke-width:1px;stroke-linecap:butt;stroke-linejoin:miter;stroke-opacity:1" d="M 623.026,458.249 623.026,469.383 z" id="boundary" inkscape:connector-curvature="0" />
	<path style="fill:none;stroke:red;stroke-width:1px;stroke-linecap:butt;stroke-linejoin:miter;stroke-opacity:1" d="M 623.026,469.383 628.593,479.403 z" id="boundary" inkscape:connector-curvature="0" />
	<path style="fill:none;stroke:red;stroke-width:1px;stroke-linecap:butt;stroke-linejoin:miter;stroke-opacity:1" d="M 624.139,595.192 634.159,589.625 z" id="boundary" inkscape:connector-curvature="0" />
	<path style="fill:none;stroke:red;stroke-width:1px;stroke-linecap:butt;stroke-linejoin:miter;stroke-opacity:1" d="M 627.479,283.452 638.613,280.112 z" id="boundary" inkscape:connector-curvature="0" />
	<path style="fill:none;stroke:red;stroke-width:1px;stroke-linecap:butt;stroke-linejoin:miter;stroke-opacity:1" d="M 628.593,479.403 628.593,490.536 z" id="boundary" inkscape:connector-curvature="0" />
	<path style="fill:none;stroke:red;stroke-width:1px;stroke-linecap:butt;stroke-linejoin:miter;stroke-opacity:1" d="M 628.593,490.536 628.593,501.67 z" id="boundary" inkscape:connector-curvature="0" />
	<path style="fill:none;stroke:red;stroke-width:1px;stroke-linecap:butt;stroke-linejoin:miter;stroke-opacity:1" d="M 628.593,501.67 628.593,512.804 z" id="boundary" inkscape:connector-curvature="0" />
	<path style="fill:none;stroke:red;stroke-width:1px;stroke-linecap:butt;stroke-linejoin:miter;stroke-opacity:1" d="M 628.593,512.804 631.933,523.937 z" id="boundary" inkscape:connector-curvature="0" />
	<path style="fill:none;stroke:red;stroke-width:1px;stroke-linecap:butt;stroke-linejoin:miter;stroke-opacity:1" d="M 631.933,81.9349 643.066,81.9349 z" id="boundary" inkscape:connector-curvature="0" />
	<path style="fill:none;stroke:red;stroke-width:1px;stroke-linecap:butt;stroke-linejoin:miter;stroke-opacity:1" d="M 631.933,523.937 634.159,535.071 z" id="boundary" inkscape:connector-curvature="0" />
	<path style="fill:none;stroke:red;stroke-width:1px;stroke-linecap:butt;stroke-linejoin:miter;stroke-opacity:1" d="M 634.159,535.071 639.726,545.091 z" id="boundary" inkscape:connector-curvature="0" />
	<path style="fill:none;stroke:red;stroke-width:1px;stroke-linecap:butt;stroke-linejoin:miter;stroke-opacity:1" d="M 634.159,589.625 639.726,578.492 z" id="boundary" inkscape:connector-curvature="0" />
	<path style="fill:none;stroke:red;stroke-width:1px;stroke-linecap:butt;stroke-linejoin:miter;stroke-opacity:1" d="M 638.613,280.112 649.746,277.886 z" id="boundary" inkscape:connector-curvature="0" />
	<path style="fill:none;stroke:red;stroke-width:1px;stroke-linecap:butt;stroke-linejoin:miter;stroke-opacity:1" d="M 639.726,545.091 641.953,556.224 z" id="boundary" inkscape:connector-curvature="0" />
	<path style="fill:none;stroke:red;stroke-width:1px;stroke-linecap:butt;stroke-linejoin:miter;stroke-opacity:1" d="M 639.726,578.492 645.293,567.358 z" id="boundary" inkscape:connector-curvature="0" />
	<path style="fill:none;stroke:red;stroke-width:1px;stroke-linecap:butt;stroke-linejoin:miter;stroke-opacity:1" d="M 641.953,556.224 645.293,567.358 z" id="boundary" inkscape:connector-curvature="0" />
	<path style="fill:none;stroke:red;stroke-width:1px;stroke-linecap:butt;stroke-linejoin:miter;stroke-opacity:1" d="M 643.066,81.9349 653.086,87.5017 z" id="boundary" inkscape:connector-curvature="0" />
	<path style="fill:none;stroke:red;stroke-width:1px;stroke-linecap:butt;stroke-linejoin:miter;stroke-opacity:1" d="M 649.746,277.886 660.88,277.886 z" id="boundary" inkscape:connector-curvature="0" />
	<path style="fill:none;stroke:red;stroke-width:1px;stroke-linecap:butt;stroke-linejoin:miter;stroke-opacity:1" d="M 653.086,87.5017 663.107,93.0685 z" id="boundary" inkscape:connector-curvature="0" />
	<path style="fill:none;stroke:red;stroke-width:1px;stroke-linecap:butt;stroke-linejoin:miter;stroke-opacity:1" d="M 660.88,277.886 672.013,277.886 z" id="boundary" inkscape:connector-curvature="0" />
	<path style="fill:none;stroke:red;stroke-width:1px;stroke-linecap:butt;stroke-linejoin:miter;stroke-opacity:1" d="M 663.107,93.0685 672.013,100.862 z" id="boundary" inkscape:connector-curvature="0" />
	<path style="fill:none;stroke:red;stroke-width:1px;stroke-linecap:butt;stroke-linejoin:miter;stroke-opacity:1" d="M 672.013,100.862 682.034,106.429 z" id="boundary" inkscape:connector-curvature="0" />
	<path style="fill:none;stroke:red;stroke-width:1px;stroke-linecap:butt;stroke-linejoin:miter;stroke-opacity:1" d="M 672.013,277.886 683.147,277.886 z" id="boundary" inkscape:connector-curvature="0" />
	<path style="fill:none;stroke:red;stroke-width:1px;stroke-linecap:butt;stroke-linejoin:miter;stroke-opacity:1" d="M 682.034,106.429 693.167,110.882 z" id="boundary" inkscape:connector-curvature="0" />
	<path style="fill:none;stroke:red;stroke-width:1px;stroke-linecap:butt;stroke-linejoin:miter;stroke-opacity:1" d="M 683.147,277.886 694.281,277.886 z" id="boundary" inkscape:connector-curvature="0" />
	<path style="fill:none;stroke:red;stroke-width:1px;stroke-linecap:butt;stroke-linejoin:miter;stroke-opacity:1" d="M 693.167,110.882 700.961,119.789 z" id="boundary" inkscape:connector-curvature="0" />
	<path style="fill:none;stroke:red;stroke-width:1px;stroke-linecap:butt;stroke-linejoin:miter;stroke-opacity:1" d="M 694.281,277.886 705.414,277.886 z" id="boundary" inkscape:connector-curvature="0" />
	<path style="fill:none;stroke:red;stroke-width:1px;stroke-linecap:butt;stroke-linejoin:miter;stroke-opacity:1" d="M 700.961,119.789 712.094,124.242 z" id="boundary" inkscape:connector-curvature="0" />
	<path style="fill:none;stroke:red;stroke-width:1px;stroke-linecap:butt;stroke-linejoin:miter;stroke-opacity:1" d="M 705.414,277.886 715.434,283.452 z" id="boundary" inkscape:connector-curvature="0" />
	<path style="fill:none;stroke:red;stroke-width:1px;stroke-linecap:butt;stroke-linejoin:miter;stroke-opacity:1" d="M 712.094,124.242 722.114,129.809 z" id="boundary" inkscape:connector-curvature="0" />
	<path style="fill:none;stroke:red;stroke-width:1px;stroke-linecap:butt;stroke-linejoin:miter;stroke-opacity:1" d="M 715.434,283.452 726.568,283.452 z" id="boundary" inkscape:connector-curvature="0" />
	<path style="fill:none;stroke:red;stroke-width:1px;stroke-linecap:butt;stroke-linejoin:miter;stroke-opacity:1" d="M 722.114,129.809 733.248,134.263 z" id="boundary" inkscape:connector-curvature="0" />
	<path style="fill:none;stroke:red;stroke-width:1px;stroke-linecap:butt;stroke-linejoin:miter;stroke-opacity:1" d="M 726.568,283.452 737.701,283.452 z" id="boundary" inkscape:connector-curvature="0" />
	<path style="fill:none;stroke:red;stroke-width:1px;stroke-linecap:butt;stroke-linejoin:miter;stroke-opacity:1" d="M 733.248,134.263 739.928,143.169 z" id="boundary" inkscape:connector-curvature="0" />
	<path style="fill:none;stroke:red;stroke-width:1px;stroke-linecap:butt;stroke-linejoin:miter;stroke-opacity:1" d="M 737.701,283.452 747.722,277.886 z" id="boundary" inkscape:connector-curvature="0" />
	<path style="fill:none;stroke:red;stroke-width:1px;stroke-linecap:butt;stroke-linejoin:miter;stroke-opacity:1" d="M 739.928,143.169 749.948,148.736 z" id="boundary" inkscape:connector-curvature="0" />
	<path style="fill:none;stroke:red;stroke-width:1px;stroke-linecap:butt;stroke-linejoin:miter;stroke-opacity:1" d="M 747.722,277.886 758.855,277.886 z" id="boundary" inkscape:connector-curvature="0" />
	<path style="fill:none;stroke:red;stroke-width:1px;stroke-linecap:butt;stroke-linejoin:miter;stroke-opacity:1" d="M 749.948,148.736 761.082,148.736 z" id="boundary" inkscape:connector-curvature="0" />
	<path style="fill:none;stroke:red;stroke-width:1px;stroke-linecap:butt;stroke-linejoin:miter;stroke-opacity:1" d="M 758.855,277.886 769.989,277.886 z" id="boundary" inkscape:connector-curvature="0" />
	<path style="fill:none;stroke:red;stroke-width:1px;stroke-linecap:butt;stroke-linejoin:miter;stroke-opacity:1" d="M 761.082,148.736 771.102,154.303 z" id="boundary" inkscape:connector-curvature="0" />
	<path style="fill:none;stroke:red;stroke-width:1px;stroke-linecap:butt;stroke-linejoin:miter;stroke-opacity:1" d="M 769.989,277.886 781.122,277.886 z" id="boundary" inkscape:connector-curvature="0" />
	<path style="fill:none;stroke:red;stroke-width:1px;stroke-linecap:butt;stroke-linejoin:miter;stroke-opacity:1" d="M 771.102,154.303 782.236,154.303 z" id="boundary" inkscape:connector-curvature="0" />
	<path style="fill:none;stroke:red;stroke-width:1px;stroke-linecap:butt;stroke-linejoin:miter;stroke-opacity:1" d="M 781.122,277.886 791.143,272.319 z" id="boundary" inkscape:connector-curvature="0" />
	<path style="fill:none;stroke:red;stroke-width:1px;stroke-linecap:butt;stroke-linejoin:miter;stroke-opacity:1" d="M 782.236,154.303 793.369,155.416 z" id="boundary" inkscape:connector-curvature="0" />
	<path style="fill:none;stroke:red;stroke-width:1px;stroke-linecap:butt;stroke-linejoin:miter;stroke-opacity:1" d="M 791.143,272.319 802.276,272.319 z" id="boundary" inkscape:connector-curvature="0" />
	<path style="fill:none;stroke:red;stroke-width:1px;stroke-linecap:butt;stroke-linejoin:miter;stroke-opacity:1" d="M 793.369,155.416 804.503,159.87 z" id="boundary" inkscape:connector-curvature="0" />
	<path style="fill:none;stroke:red;stroke-width:1px;stroke-linecap:butt;stroke-linejoin:miter;stroke-opacity:1" d="M 802.276,272.319 812.296,266.752 z" id="boundary" inkscape:connector-curvature="0" />
	<path style="fill:none;stroke:red;stroke-width:1px;stroke-linecap:butt;stroke-linejoin:miter;stroke-opacity:1" d="M 804.503,159.87 815.636,159.87 z" id="boundary" inkscape:connector-curvature="0" />
	<path style="fill:none;stroke:red;stroke-width:1px;stroke-linecap:butt;stroke-linejoin:miter;stroke-opacity:1" d="M 812.296,266.752 822.316,261.185 z" id="boundary" inkscape:connector-curvature="0" />
	<path style="fill:none;stroke:red;stroke-width:1px;stroke-linecap:butt;stroke-linejoin:miter;stroke-opacity:1" d="M 815.636,159.87 826.77,159.87 z" id="boundary" inkscape:connector-curvature="0" />
	<path style="fill:none;stroke:red;stroke-width:1px;stroke-linecap:butt;stroke-linejoin:miter;stroke-opacity:1" d="M 822.316,261.185 833.45,257.845 z" id="boundary" inkscape:connector-curvature="0" />
	<path style="fill:none;stroke:red;stroke-width:1px;stroke-linecap:butt;stroke-linejoin:miter;stroke-opacity:1" d="M 826.77,159.87 837.903,159.87 z" id="boundary" inkscape:connector-curvature="0" />
	<path style="fill:none;stroke:red;stroke-width:1px;stroke-linecap:butt;stroke-linejoin:miter;stroke-opacity:1" d="M 833.45,257.845 844.584,252.278 z" id="boundary" inkscape:connector-curvature="0" />
	<path style="fill:none;stroke:red;stroke-width:1px;stroke-linecap:butt;stroke-linejoin:miter;stroke-opacity:1" d="M 837.903,159.87 847.924,154.303 z" id="boundary" inkscape:connector-curvature="0" />
	<path style="fill:none;stroke:red;stroke-width:1px;stroke-linecap:butt;stroke-linejoin:miter;stroke-opacity:1" d="M 844.584,252.278 855.717,246.712 z" id="boundary" inkscape:connector-curvature="0" />
	<path style="fill:none;stroke:red;stroke-width:1px;stroke-linecap:butt;stroke-linejoin:miter;stroke-opacity:1" d="M 847.924,154.303 859.057,154.303 z" id="boundary" inkscape:connector-curvature="0" />
	<path style="fill:none;stroke:red;stroke-width:1px;stroke-linecap:butt;stroke-linejoin:miter;stroke-opacity:1" d="M 855.717,246.712 866.851,241.145 z" id="boundary" inkscape:connector-curvature="0" />
	<path style="fill:none;stroke:red;stroke-width:1px;stroke-linecap:butt;stroke-linejoin:miter;stroke-opacity:1" d="M 859.057,154.303 869.077,148.736 z" id="boundary" inkscape:connector-curvature="0" />
	<path style="fill:none;stroke:red;stroke-width:1px;stroke-linecap:butt;stroke-linejoin:miter;stroke-opacity:1" d="M 866.851,241.145 877.984,235.578 z" id="boundary" inkscape:connector-curvature="0" />
	<path style="fill:none;stroke:red;stroke-width:1px;stroke-linecap:butt;stroke-linejoin:miter;stroke-opacity:1" d="M 869.077,148.736 880.211,144.283 z" id="boundary" inkscape:connector-curvature="0" />
	<path style="fill:none;stroke:red;stroke-width:1px;stroke-linecap:butt;stroke-linejoin:miter;stroke-opacity:1" d="M 877.984,235.578 886.891,227.785 z" id="boundary" inkscape:connector-curvature="0" />
	<path style="fill:none;stroke:red;stroke-width:1px;stroke-linecap:butt;stroke-linejoin:miter;stroke-opacity:1" d="M 880.211,144.283 891.345,143.169 z" id="boundary" inkscape:connector-curvature="0" />
	<path style="fill:none;stroke:red;stroke-width:1px;stroke-linecap:butt;stroke-linejoin:miter;stroke-opacity:1" d="M 886.891,227.785 896.911,222.218 z" id="boundary" inkscape:connector-curvature="0" />
	<path style="fill:none;stroke:red;stroke-width:1px;stroke-linecap:butt;stroke-linejoin:miter;stroke-opacity:1" d="M 891.345,143.169 902.478,143.169 z" id="boundary" inkscape:connector-curvature="0" />
	<path style="fill:none;stroke:red;stroke-width:1px;stroke-linecap:butt;stroke-linejoin:miter;stroke-opacity:1" d="M 894.685,12.9068 900.251,22.927 z" id="boundary" inkscape:connector-curvature="0" />
	<path style="fill:none;stroke:red;stroke-width:1px;stroke-linecap:butt;stroke-linejoin:miter;stroke-opacity:1" d="M 894.685,12.9068 903.591,4 z" id="boundary" inkscape:connector-curvature="0" />
	<path style="fill:none;stroke:red;stroke-width:1px;stroke-linecap:butt;stroke-linejoin:miter;stroke-opacity:1" d="M 896.911,222.218 906.932,216.651 z" id="boundary" inkscape:connector-curvature="0" />
	<path style="fill:none;stroke:red;stroke-width:1px;stroke-linecap:butt;stroke-linejoin:miter;stroke-opacity:1" d="M 900.251,22.927 911.385,27.3805 z" id="boundary" inkscape:connector-curvature="0" />
	<path style="fill:none;stroke:red;stroke-width:1px;stroke-linecap:butt;stroke-linejoin:miter;stroke-opacity:1" d="M 902.478,143.169 911.385,135.376 z" id="boundary" inkscape:connector-curvature="0" />
	<path style="fill:none;stroke:red;stroke-width:1px;stroke-linecap:butt;stroke-linejoin:miter;stroke-opacity:1" d="M 903.591,4 914.725,4 z" id="boundary" inkscape:connector-curvature="0" />
	<path style="fill:none;stroke:red;stroke-width:1px;stroke-linecap:butt;stroke-linejoin:miter;stroke-opacity:1" d="M 906.932,216.651 916.952,211.084 z" id="boundary" inkscape:connector-curvature="0" />
	<path style="fill:none;stroke:red;stroke-width:1px;stroke-linecap:butt;stroke-linejoin:miter;stroke-opacity:1" d="M 911.385,27.3805 921.405,32.9473 z" id="boundary" inkscape:connector-curvature="0" />
	<path style="fill:none;stroke:red;stroke-width:1px;stroke-linecap:butt;stroke-linejoin:miter;stroke-opacity:1" d="M 911.385,135.376 920.292,126.469 z" id="boundary" inkscape:connector-curvature="0" />
	<path style="fill:none;stroke:red;stroke-width:1px;stroke-linecap:butt;stroke-linejoin:miter;stroke-opacity:1" d="M 914.725,4 924.745,9.56678 z" id="boundary" inkscape:connector-curvature="0" />
	<path style="fill:none;stroke:red;stroke-width:1px;stroke-linecap:butt;stroke-linejoin:miter;stroke-opacity:1" d="M 916.952,211.084 926.972,205.517 z" id="boundary" inkscape:connector-curvature="0" />
	<path style="fill:none;stroke:red;stroke-width:1px;stroke-linecap:butt;stroke-linejoin:miter;stroke-opacity:1" d="M 920.292,126.469 929.199,117.562 z" id="boundary" inkscape:connector-curvature="0" />
	<path style="fill:none;stroke:red;stroke-width:1px;stroke-linecap:butt;stroke-linejoin:miter;stroke-opacity:1" d="M 921.405,32.9473 931.425,38.514 z" id="boundary" inkscape:connector-curvature="0" />
	<path style="fill:none;stroke:red;stroke-width:1px;stroke-linecap:butt;stroke-linejoin:miter;stroke-opacity:1" d="M 924.745,9.56678 935.879,9.56678 z" id="boundary" inkscape:connector-curvature="0" />
	<path style="fill:none;stroke:red;stroke-width:1px;stroke-linecap:butt;stroke-linejoin:miter;stroke-opacity:1" d="M 926.972,205.517 936.992,198.837 z" id="boundary" inkscape:connector-curvature="0" />
	<path style="fill:none;stroke:red;stroke-width:1px;stroke-linecap:butt;stroke-linejoin:miter;stroke-opacity:1" d="M 929.199,117.562 938.105,109.769 z" id="boundary" inkscape:connector-curvature="0" />
	<path style="fill:none;stroke:red;stroke-width:1px;stroke-linecap:butt;stroke-linejoin:miter;stroke-opacity:1" d="M 931.425,38.514 940.332,46.3075 z" id="boundary" inkscape:connector-curvature="0" />
	<path style="fill:none;stroke:red;stroke-width:1px;stroke-linecap:butt;stroke-linejoin:miter;stroke-opacity:1" d="M 935.879,9.56678 945.899,15.1336 z" id="boundary" inkscape:connector-curvature="0" />
	<path style="fill:none;stroke:red;stroke-width:1px;stroke-linecap:butt;stroke-linejoin:miter;stroke-opacity:1" d="M 936.992,198.837 945.899,188.817 z" id="boundary" inkscape:connector-curvature="0" />
	<path style="fill:none;stroke:red;stroke-width:1px;stroke-linecap:butt;stroke-linejoin:miter;stroke-opacity:1" d="M 938.105,109.769 945.899,100.862 z" id="boundary" inkscape:connector-curvature="0" />
	<path style="fill:none;stroke:red;stroke-width:1px;stroke-linecap:butt;stroke-linejoin:miter;stroke-opacity:1" d="M 940.332,46.3075 948.126,55.2144 z" id="boundary" inkscape:connector-curvature="0" />
	<path style="fill:none;stroke:red;stroke-width:1px;stroke-linecap:butt;stroke-linejoin:miter;stroke-opacity:1" d="M 945.899,15.1336 955.919,20.7003 z" id="boundary" inkscape:connector-curvature="0" />
	<path style="fill:none;stroke:red;stroke-width:1px;stroke-linecap:butt;stroke-linejoin:miter;stroke-opacity:1" d="M 945.899,100.862 951.466,89.7284 z" id="boundary" inkscape:connector-curvature="0" />
	<path style="fill:none;stroke:red;stroke-width:1px;stroke-linecap:butt;stroke-linejoin:miter;stroke-opacity:1" d="M 945.899,188.817 954.806,181.024 z" id="boundary" inkscape:connector-curvature="0" />
	<path style="fill:none;stroke:red;stroke-width:1px;stroke-linecap:butt;stroke-linejoin:miter;stroke-opacity:1" d="M 948.126,55.2144 955.919,64.1212 z" id="boundary" inkscape:connector-curvature="0" />
	<path style="fill:none;stroke:red;stroke-width:1px;stroke-linecap:butt;stroke-linejoin:miter;stroke-opacity:1" d="M 951.466,89.7284 955.919,75.2548 z" id="boundary" inkscape:connector-curvature="0" />
	<path style="fill:none;stroke:red;stroke-width:1px;stroke-linecap:butt;stroke-linejoin:miter;stroke-opacity:1" d="M 954.806,181.024 962.599,172.117 z" id="boundary" inkscape:connector-curvature="0" />
	<path style="fill:none;stroke:red;stroke-width:1px;stroke-linecap:butt;stroke-linejoin:miter;stroke-opacity:1" d="M 955.919,20.7003 962.599,29.6072 z" id="boundary" inkscape:connector-curvature="0" />
	<path style="fill:none;stroke:red;stroke-width:1px;stroke-linecap:butt;stroke-linejoin:miter;stroke-opacity:1" d="M 955.919,64.1212 955.919,75.2548 z" id="boundary" inkscape:connector-curvature="0" />
	<path style="fill:none;stroke:red;stroke-width:1px;stroke-linecap:butt;stroke-linejoin:miter;stroke-opacity:1" d="M 962.599,29.6072 970.393,38.514 z" id="boundary" inkscape:connector-curvature="0" />
	<path style="fill:none;stroke:red;stroke-width:1px;stroke-linecap:butt;stroke-linejoin:miter;stroke-opacity:1" d="M 962.599,172.117 973.733,160.983 z" id="boundary" inkscape:connector-curvature="0" />
	<path style="fill:none;stroke:red;stroke-width:1px;stroke-linecap:butt;stroke-linejoin:miter;stroke-opacity:1" d="M 970.393,38.514 979.3,46.3075 z" id="boundary" inkscape:connector-curvature="0" />
	<path style="fill:none;stroke:red;stroke-width:1px;stroke-linecap:butt;stroke-linejoin:miter;stroke-opacity:1" d="M 973.733,160.983 979.3,149.85 z" id="boundary" inkscape:connector-curvature="0" />
	<path style="fill:none;stroke:red;stroke-width:1px;stroke-linecap:butt;stroke-linejoin:miter;stroke-opacity:1" d="M 979.3,46.3075 983.753,57.4411 z" id="boundary" inkscape:connector-curvature="0" />
	<path style="fill:none;stroke:red;stroke-width:1px;stroke-linecap:butt;stroke-linejoin:miter;stroke-opacity:1" d="M 979.3,149.85 988.207,142.056 z" id="boundary" inkscape:connector-curvature="0" />
	<path style="fill:none;stroke:red;stroke-width:1px;stroke-linecap:butt;stroke-linejoin:miter;stroke-opacity:1" d="M 983.753,57.4411 990.433,66.3479 z" id="boundary" inkscape:connector-curvature="0" />
	<path style="fill:none;stroke:red;stroke-width:1px;stroke-linecap:butt;stroke-linejoin:miter;stroke-opacity:1" d="M 988.207,142.056 996,127.582 z" id="boundary" inkscape:connector-curvature="0" />
	<path style="fill:none;stroke:red;stroke-width:1px;stroke-linecap:butt;stroke-linejoin:miter;stroke-opacity:1" d="M 990.433,66.3479 996,76.3681 z" id="boundary" inkscape:connector-curvature="0" />
	<path style="fill:none;stroke:red;stroke-width:1px;stroke-linecap:butt;stroke-linejoin:miter;stroke-opacity:1" d="M 996,76.3681 996,87.5017 z" id="boundary" inkscape:connector-curvature="0" />
	<path style="fill:none;stroke:red;stroke-width:1px;stroke-linecap:butt;stroke-linejoin:miter;stroke-opacity:1" d="M 996,87.5017 996,105.315 z" id="boundary" inkscape:connector-curvature="0" />
	<path style="fill:none;stroke:red;stroke-width:1px;stroke-linecap:butt;stroke-linejoin:miter;stroke-opacity:1" d="M 996,105.315 996,116.449 z" id="boundary" inkscape:connector-curvature="0" />
	<path style="fill:none;stroke:red;stroke-width:1px;stroke-linecap:butt;stroke-linejoin:miter;stroke-opacity:1" d="M 996,116.449 996,127.582 z" id="boundary" inkscape:connector-curvature="0" />
	<circle cx="4" cy="57.4411" r="4" fill="#0" id="circle0"/>
	<circle cx="4" cy="68.5746" r="4" fill="#0" id="circle1"/>
	<circle cx="9.56678" cy="46.3075" r="4" fill="#0" id="circle2"/>
	<circle cx="9.56678" cy="78.5948" r="4" fill="#0" id="circle3"/>
	<circle cx="9.56678" cy="124.242" r="4" fill="#0" id="circle4"/>
	<circle cx="9.56678" cy="135.376" r="4" fill="#0" id="circle5"/>
	<circle cx="15.1336" cy="88.615" r="4" fill="#0" id="circle6"/>
	<circle cx="15.1336" cy="145.396" r="4" fill="#0" id="circle7"/>
	<circle cx="20.7003" cy="40.7407" r="4" fill="#0" id="circle8"/>
	<circle cx="20.7003" cy="120.902" r="4" fill="#0" id="circle9"/>
	<circle cx="20.7003" cy="155.416" r="4" fill="#0" id="circle10"/>
	<circle cx="26.2671" cy="90.8418" r="4" fill="#0" id="circle11"/>
	<circle cx="29.6072" cy="31.8339" r="4" fill="#0" id="circle12"/>
	<circle cx="30.7205" cy="115.336" r="4" fill="#0" id="circle13"/>
	<circle cx="30.7205" cy="160.983" r="4" fill="#0" id="circle14"/>
	<circle cx="37.4007" cy="94.1818" r="4" fill="#0" id="circle15"/>
	<circle cx="40.7407" cy="26.2671" r="4" fill="#0" id="circle16"/>
	<circle cx="40.7407" cy="166.55" r="4" fill="#0" id="circle17"/>
	<circle cx="41.8541" cy="115.336" r="4" fill="#0" id="circle18"/>
	<circle cx="47.4209" cy="88.615" r="4" fill="#0" id="circle19"/>
	<circle cx="51.8743" cy="26.2671" r="4" fill="#0" id="circle20"/>
	<circle cx="51.8743" cy="166.55" r="4" fill="#0" id="circle21"/>
	<circle cx="52.9877" cy="115.336" r="4" fill="#0" id="circle22"/>
	<circle cx="57.4411" cy="94.1818" r="4" fill="#0" id="circle23"/>
	<circle cx="63.0079" cy="26.2671" r="4" fill="#0" id="circle24"/>
	<circle cx="63.0079" cy="166.55" r="4" fill="#0" id="circle25"/>
	<circle cx="64.1212" cy="115.336" r="4" fill="#0" id="circle26"/>
	<circle cx="67.4613" cy="99.7486" r="4" fill="#0" id="circle27"/>
	<circle cx="74.1414" cy="26.2671" r="4" fill="#0" id="circle28"/>
	<circle cx="74.1414" cy="171.003" r="4" fill="#0" id="circle29"/>
	<circle cx="75.2548" cy="115.336" r="4" fill="#0" id="circle30"/>
	<circle cx="78.5948" cy="99.7486" r="4" fill="#0" id="circle31"/>
	<circle cx="84.1616" cy="31.8339" r="4" fill="#0" id="circle32"/>
	<circle cx="85.275" cy="172.117" r="4" fill="#0" id="circle33"/>
	<circle cx="86.3883" cy="115.336" r="4" fill="#0" id="circle34"/>
	<circle cx="91.9551" cy="105.315" r="4" fill="#0" id="circle35"/>
	<circle cx="94.1818" cy="37.4007" r="4" fill="#0" id="circle36"/>
	<circle cx="94.1818" cy="179.91" r="4" fill="#0" id="circle37"/>
	<circle cx="97.5219" cy="115.336" r="4" fill="#0" id="circle38"/>
	<circle cx="101.975" cy="188.817" r="4" fill="#0" id="circle39"/>
	<circle cx="104.202" cy="42.9675" r="4" fill="#0" id="circle40"/>
	<circle cx="113.109" cy="193.27" r="4" fill="#0" id="circle41"/>
	<circle cx="115.336" cy="42.9675" r="4" fill="#0" id="circle42"/>
	<circle cx="120.902" cy="202.177" r="4" fill="#0" id="circle43"/>
	<circle cx="125.356" cy="37.4007" r="4" fill="#0" id="circle44"/>
	<circle cx="129.809" cy="209.971" r="4" fill="#0" id="circle45"/>
	<circle cx="136.489" cy="37.4007" r="4" fill="#0" id="circle46"/>
	<circle cx="139.829" cy="215.538" r="4" fill="#0" id="circle47"/>
	<circle cx="146.51" cy="31.8339" r="4" fill="#0" id="circle48"/>
	<circle cx="148.736" cy="222.218" r="4" fill="#0" id="circle49"/>
	<circle cx="157.643" cy="31.8339" r="4" fill="#0" id="circle50"/>
	<circle cx="158.756" cy="227.785" r="4" fill="#0" id="circle51"/>
	<circle cx="166.55" cy="236.691" r="4" fill="#0" id="circle52"/>
	<circle cx="168.777" cy="26.2671" r="4" fill="#0" id="circle53"/>
	<circle cx="175.457" cy="244.485" r="4" fill="#0" id="circle54"/>
	<circle cx="179.91" cy="26.2671" r="4" fill="#0" id="circle55"/>
	<circle cx="185.477" cy="250.052" r="4" fill="#0" id="circle56"/>
	<circle cx="189.93" cy="31.8339" r="4" fill="#0" id="circle57"/>
	<circle cx="194.384" cy="257.845" r="4" fill="#0" id="circle58"/>
	<circle cx="199.951" cy="37.4007" r="4" fill="#0" id="circle59"/>
	<circle cx="205.517" cy="261.185" r="4" fill="#0" id="circle60"/>
	<circle cx="208.857" cy="44.0808" r="4" fill="#0" id="circle61"/>
	<circle cx="216.651" cy="52.9877" r="4" fill="#0" id="circle62"/>
	<circle cx="216.651" cy="261.185" r="4" fill="#0" id="circle63"/>
	<circle cx="225.558" cy="60.7811" r="4" fill="#0" id="circle64"/>
	<circle cx="227.785" cy="261.185" r="4" fill="#0" id="circle65"/>
	<circle cx="233.351" cy="69.688" r="4" fill="#0" id="circle66"/>
	<circle cx="238.918" cy="79.7082" r="4" fill="#0" id="circle67"/>
	<circle cx="238.918" cy="261.185" r="4" fill="#0" id="circle68"/>
	<circle cx="243.371" cy="330.213" r="4" fill="#0" id="circle69"/>
	<circle cx="243.371" cy="341.347" r="4" fill="#0" id="circle70"/>
	<circle cx="244.485" cy="89.7284" r="4" fill="#0" id="circle71"/>
	<circle cx="244.485" cy="100.862" r="4" fill="#0" id="circle72"/>
	<circle cx="248.938" cy="319.08" r="4" fill="#0" id="circle73"/>
	<circle cx="250.052" cy="110.882" r="4" fill="#0" id="circle74"/>
	<circle cx="250.052" cy="122.016" r="4" fill="#0" id="circle75"/>
	<circle cx="250.052" cy="133.149" r="4" fill="#0" id="circle76"/>
	<circle cx="250.052" cy="263.412" r="4" fill="#0" id="circle77"/>
	<circle cx="254.505" cy="339.12" r="4" fill="#0" id="circle78"/>
	<circle cx="257.845" cy="310.173" r="4" fill="#0" id="circle79"/>
	<circle cx="258.958" cy="139.829" r="4" fill="#0" id="circle80"/>
	<circle cx="261.185" cy="266.752" r="4" fill="#0" id="circle81"/>
	<circle cx="265.639" cy="335.78" r="4" fill="#0" id="circle82"/>
	<circle cx="266.752" cy="322.42" r="4" fill="#0" id="circle83"/>
	<circle cx="267.865" cy="304.606" r="4" fill="#0" id="circle84"/>
	<circle cx="270.092" cy="143.169" r="4" fill="#0" id="circle85"/>
	<circle cx="271.205" cy="272.319" r="4" fill="#0" id="circle86"/>
	<circle cx="276.772" cy="282.339" r="4" fill="#0" id="circle87"/>
	<circle cx="276.772" cy="293.473" r="4" fill="#0" id="circle88"/>
	<circle cx="276.772" cy="316.853" r="4" fill="#0" id="circle89"/>
	<circle cx="280.112" cy="137.603" r="4" fill="#0" id="circle90"/>
	<circle cx="282.339" cy="326.873" r="4" fill="#0" id="circle91"/>
	<circle cx="284.566" cy="338.007" r="4" fill="#0" id="circle92"/>
	<circle cx="290.132" cy="132.036" r="4" fill="#0" id="circle93"/>
	<circle cx="294.586" cy="327.987" r="4" fill="#0" id="circle94"/>
	<circle cx="300.153" cy="126.469" r="4" fill="#0" id="circle95"/>
	<circle cx="304.606" cy="333.553" r="4" fill="#0" id="circle96"/>
	<circle cx="310.173" cy="118.676" r="4" fill="#0" id="circle97"/>
	<circle cx="311.286" cy="322.42" r="4" fill="#0" id="circle98"/>
	<circle cx="315.74" cy="335.78" r="4" fill="#0" id="circle99"/>
	<circle cx="321.306" cy="115.336" r="4" fill="#0" id="circle100"/>
	<circle cx="321.306" cy="316.853" r="4" fill="#0" id="circle101"/>
	<circle cx="331.327" cy="109.769" r="4" fill="#0" id="circle102"/>
	<circle cx="331.327" cy="322.42" r="4" fill="#0" id="circle103"/>
	<circle cx="341.347" cy="327.987" r="4" fill="#0" id="circle104"/>
	<circle cx="342.46" cy="109.769" r="4" fill="#0" id="circle105"/>
	<circle cx="352.48" cy="332.44" r="4" fill="#0" id="circle106"/>
	<circle cx="353.594" cy="109.769" r="4" fill="#0" id="circle107"/>
	<circle cx="362.501" cy="338.007" r="4" fill="#0" id="circle108"/>
	<circle cx="363.614" cy="104.202" r="4" fill="#0" id="circle109"/>
	<circle cx="365.841" cy="569.585" r="4" fill="#0" id="circle110"/>
	<circle cx="372.521" cy="578.492" r="4" fill="#0" id="circle111"/>
	<circle cx="373.634" cy="98.6352" r="4" fill="#0" id="circle112"/>
	<circle cx="373.634" cy="339.12" r="4" fill="#0" id="circle113"/>
	<circle cx="374.747" cy="560.678" r="4" fill="#0" id="circle114"/>
	<circle cx="383.654" cy="578.492" r="4" fill="#0" id="circle115"/>
	<circle cx="384.768" cy="98.6352" r="4" fill="#0" id="circle116"/>
	<circle cx="384.768" cy="339.12" r="4" fill="#0" id="circle117"/>
	<circle cx="385.881" cy="560.678" r="4" fill="#0" id="circle118"/>
	<circle cx="393.675" cy="584.058" r="4" fill="#0" id="circle119"/>
	<circle cx="394.788" cy="93.0685" r="4" fill="#0" id="circle120"/>
	<circle cx="395.901" cy="342.46" r="4" fill="#0" id="circle121"/>
	<circle cx="397.015" cy="555.111" r="4" fill="#0" id="circle122"/>
	<circle cx="397.015" cy="595.192" r="4" fill="#0" id="circle123"/>
	<circle cx="405.921" cy="93.0685" r="4" fill="#0" id="circle124"/>
	<circle cx="407.035" cy="344.687" r="4" fill="#0" id="circle125"/>
	<circle cx="408.148" cy="555.111" r="4" fill="#0" id="circle126"/>
	<circle cx="408.148" cy="594.079" r="4" fill="#0" id="circle127"/>
	<circle cx="415.942" cy="87.5017" r="4" fill="#0" id="circle128"/>
	<circle cx="418.168" cy="344.687" r="4" fill="#0" id="circle129"/>
	<circle cx="418.168" cy="549.544" r="4" fill="#0" id="circle130"/>
	<circle cx="419.282" cy="589.625" r="4" fill="#0" id="circle131"/>
	<circle cx="427.075" cy="85.275" r="4" fill="#0" id="circle132"/>
	<circle cx="427.075" cy="541.751" r="4" fill="#0" id="circle133"/>
	<circle cx="429.302" cy="348.027" r="4" fill="#0" id="circle134"/>
	<circle cx="429.302" cy="584.058" r="4" fill="#0" id="circle135"/>
	<circle cx="432.642" cy="525.051" r="4" fill="#0" id="circle136"/>
	<circle cx="433.755" cy="359.16" r="4" fill="#0" id="circle137"/>
	<circle cx="438.209" cy="81.9349" r="4" fill="#0" id="circle138"/>
	<circle cx="438.209" cy="370.294" r="4" fill="#0" id="circle139"/>
	<circle cx="438.209" cy="381.428" r="4" fill="#0" id="circle140"/>
	<circle cx="438.209" cy="508.35" r="4" fill="#0" id="circle141"/>
	<circle cx="439.322" cy="392.561" r="4" fill="#0" id="circle142"/>
	<circle cx="440.435" cy="584.058" r="4" fill="#0" id="circle143"/>
	<circle cx="443.776" cy="403.695" r="4" fill="#0" id="circle144"/>
	<circle cx="443.776" cy="414.828" r="4" fill="#0" id="circle145"/>
	<circle cx="443.776" cy="486.083" r="4" fill="#0" id="circle146"/>
	<circle cx="443.776" cy="497.217" r="4" fill="#0" id="circle147"/>
	<circle cx="448.229" cy="76.3681" r="4" fill="#0" id="circle148"/>
	<circle cx="449.342" cy="424.848" r="4" fill="#0" id="circle149"/>
	<circle cx="449.342" cy="435.982" r="4" fill="#0" id="circle150"/>
	<circle cx="449.342" cy="463.816" r="4" fill="#0" id="circle151"/>
	<circle cx="449.342" cy="474.949" r="4" fill="#0" id="circle152"/>
	<circle cx="450.456" cy="578.492" r="4" fill="#0" id="circle153"/>
	<circle cx="454.909" cy="446.002" r="4" fill="#0" id="circle154"/>
	<circle cx="459.363" cy="76.3681" r="4" fill="#0" id="circle155"/>
	<circle cx="459.363" cy="570.698" r="4" fill="#0" id="circle156"/>
	<circle cx="467.156" cy="533.957" r="4" fill="#0" id="circle157"/>
	<circle cx="467.156" cy="545.091" r="4" fill="#0" id="circle158"/>
	<circle cx="467.156" cy="556.224" r="4" fill="#0" id="circle159"/>
	<circle cx="469.383" cy="70.8013" r="4" fill="#0" id="circle160"/>
	<circle cx="472.723" cy="517.257" r="4" fill="#0" id="circle161"/>
	<circle cx="478.29" cy="506.123" r="4" fill="#0" id="circle162"/>
	<circle cx="480.516" cy="65.2346" r="4" fill="#0" id="circle163"/>
	<circle cx="487.196" cy="498.33" r="4" fill="#0" id="circle164"/>
	<circle cx="491.65" cy="65.2346" r="4" fill="#0" id="circle165"/>
	<circle cx="492.763" cy="487.196" r="4" fill="#0" id="circle166"/>
	<circle cx="498.33" cy="476.063" r="4" fill="#0" id="circle167"/>
	<circle cx="500.557" cy="456.022" r="4" fill="#0" id="circle168"/>
	<circle cx="501.67" cy="59.6678" r="4" fill="#0" id="circle169"/>
	<circle cx="506.123" cy="411.488" r="4" fill="#0" id="circle170"/>
	<circle cx="506.123" cy="422.622" r="4" fill="#0" id="circle171"/>
	<circle cx="506.123" cy="433.755" r="4" fill="#0" id="circle172"/>
	<circle cx="506.123" cy="444.889" r="4" fill="#0" id="circle173"/>
	<circle cx="512.804" cy="59.6678" r="4" fill="#0" id="circle174"/>
	<circle cx="517.257" cy="413.715" r="4" fill="#0" id="circle175"/>
	<circle cx="522.824" cy="54.101" r="4" fill="#0" id="circle176"/>
	<circle cx="525.051" cy="422.622" r="4" fill="#0" id="circle177"/>
	<circle cx="533.957" cy="54.101" r="4" fill="#0" id="circle178"/>
	<circle cx="533.957" cy="430.415" r="4" fill="#0" id="circle179"/>
	<circle cx="541.751" cy="439.322" r="4" fill="#0" id="circle180"/>
	<circle cx="543.978" cy="586.285" r="4" fill="#0" id="circle181"/>
	<circle cx="545.091" cy="57.4411" r="4" fill="#0" id="circle182"/>
	<circle cx="545.091" cy="327.987" r="4" fill="#0" id="circle183"/>
	<circle cx="545.091" cy="339.12" r="4" fill="#0" id="circle184"/>
	<circle cx="550.658" cy="349.14" r="4" fill="#0" id="circle185"/>
	<circle cx="550.658" cy="595.192" r="4" fill="#0" id="circle186"/>
	<circle cx="552.884" cy="443.776" r="4" fill="#0" id="circle187"/>
	<circle cx="555.111" cy="63.0079" r="4" fill="#0" id="circle188"/>
	<circle cx="555.111" cy="580.718" r="4" fill="#0" id="circle189"/>
	<circle cx="556.224" cy="322.42" r="4" fill="#0" id="circle190"/>
	<circle cx="559.565" cy="355.82" r="4" fill="#0" id="circle191"/>
	<circle cx="560.678" cy="452.682" r="4" fill="#0" id="circle192"/>
	<circle cx="561.791" cy="595.192" r="4" fill="#0" id="circle193"/>
	<circle cx="564.018" cy="571.811" r="4" fill="#0" id="circle194"/>
	<circle cx="566.245" cy="65.2346" r="4" fill="#0" id="circle195"/>
	<circle cx="566.245" cy="462.703" r="4" fill="#0" id="circle196"/>
	<circle cx="567.358" cy="322.42" r="4" fill="#0" id="circle197"/>
	<circle cx="569.585" cy="361.387" r="4" fill="#0" id="circle198"/>
	<circle cx="571.811" cy="472.723" r="4" fill="#0" id="circle199"/>
	<circle cx="572.925" cy="595.192" r="4" fill="#0" id="circle200"/>
	<circle cx="574.038" cy="566.245" r="4" fill="#0" id="circle201"/>
	<circle cx="575.152" cy="483.856" r="4" fill="#0" id="circle202"/>
	<circle cx="577.378" cy="65.2346" r="4" fill="#0" id="circle203"/>
	<circle cx="577.378" cy="316.853" r="4" fill="#0" id="circle204"/>
	<circle cx="578.492" cy="369.181" r="4" fill="#0" id="circle205"/>
	<circle cx="580.718" cy="493.877" r="4" fill="#0" id="circle206"/>
	<circle cx="582.945" cy="505.01" r="4" fill="#0" id="circle207"/>
	<circle cx="582.945" cy="516.144" r="4" fill="#0" id="circle208"/>
	<circle cx="582.945" cy="527.277" r="4" fill="#0" id="circle209"/>
	<circle cx="582.945" cy="538.411" r="4" fill="#0" id="circle210"/>
	<circle cx="582.945" cy="549.544" r="4" fill="#0" id="circle211"/>
	<circle cx="582.945" cy="600.759" r="4" fill="#0" id="circle212"/>
	<circle cx="584.058" cy="379.201" r="4" fill="#0" id="circle213"/>
	<circle cx="587.398" cy="390.334" r="4" fill="#0" id="circle214"/>
	<circle cx="588.512" cy="67.4613" r="4" fill="#0" id="circle215"/>
	<circle cx="588.512" cy="313.513" r="4" fill="#0" id="circle216"/>
	<circle cx="589.625" cy="401.468" r="4" fill="#0" id="circle217"/>
	<circle cx="592.965" cy="606.325" r="4" fill="#0" id="circle218"/>
	<circle cx="595.192" cy="411.488" r="4" fill="#0" id="circle219"/>
	<circle cx="597.419" cy="304.606" r="4" fill="#0" id="circle220"/>
	<circle cx="597.419" cy="422.622" r="4" fill="#0" id="circle221"/>
	<circle cx="599.645" cy="70.8013" r="4" fill="#0" id="circle222"/>
	<circle cx="602.985" cy="600.759" r="4" fill="#0" id="circle223"/>
	<circle cx="606.325" cy="430.415" r="4" fill="#0" id="circle224"/>
	<circle cx="608.552" cy="299.039" r="4" fill="#0" id="circle225"/>
	<circle cx="610.779" cy="73.0281" r="4" fill="#0" id="circle226"/>
	<circle cx="613.006" cy="595.192" r="4" fill="#0" id="circle227"/>
	<circle cx="614.119" cy="439.322" r="4" fill="#0" id="circle228"/>
	<circle cx="617.459" cy="289.019" r="4" fill="#0" id="circle229"/>
	<circle cx="621.912" cy="76.3681" r="4" fill="#0" id="circle230"/>
	<circle cx="623.026" cy="447.116" r="4" fill="#0" id="circle231"/>
	<circle cx="623.026" cy="458.249" r="4" fill="#0" id="circle232"/>
	<circle cx="623.026" cy="469.383" r="4" fill="#0" id="circle233"/>
	<circle cx="624.139" cy="595.192" r="4" fill="#0" id="circle234"/>
	<circle cx="627.479" cy="283.452" r="4" fill="#0" id="circle235"/>
	<circle cx="628.593" cy="479.403" r="4" fill="#0" id="circle236"/>
	<circle cx="628.593" cy="490.536" r="4" fill="#0" id="circle237"/>
	<circle cx="628.593" cy="501.67" r="4" fill="#0" id="circle238"/>
	<circle cx="628.593" cy="512.804" r="4" fill="#0" id="circle239"/>
	<circle cx="631.933" cy="81.9349" r="4" fill="#0" id="circle240"/>
	<circle cx="631.933" cy="523.937" r="4" fill="#0" id="circle241"/>
	<circle cx="634.159" cy="535.071" r="4" fill="#0" id="circle242"/>
	<circle cx="634.159" cy="589.625" r="4" fill="#0" id="circle243"/>
	<circle cx="638.613" cy="280.112" r="4" fill="#0" id="circle244"/>
	<circle cx="639.726" cy="545.091" r="4" fill="#0" id="circle245"/>
	<circle cx="639.726" cy="578.492" r="4" fill="#0" id="circle246"/>
	<circle cx="641.953" cy="556.224" r="4" fill="#0" id="circle247"/>
	<circle cx="643.066" cy="81.9349" r="4" fill="#0" id="circle248"/>
	<circle cx="645.293" cy="567.358" r="4" fill="#0" id="circle249"/>
	<circle cx="649.746" cy="277.886" r="4" fill="#0" id="circle250"/>
	<circle cx="653.086" cy="87.5017" r="4" fill="#0" id="circle251"/>
	<circle cx="660.88" cy="277.886" r="4" fill="#0" id="circle252"/>
	<circle cx="663.107" cy="93.0685" r="4" fill="#0" id="circle253"/>
	<circle cx="672.013" cy="100.862" r="4" fill="#0" id="circle254"/>
	<circle cx="672.013" cy="277.886" r="4" fill="#0" id="circle255"/>
	<circle cx="682.034" cy="106.429" r="4" fill="#0" id="circle256"/>
	<circle cx="683.147" cy="277.886" r="4" fill="#0" id="circle257"/>
	<circle cx="693.167" cy="110.882" r="4" fill="#0" id="circle258"/>
	<circle cx="694.281" cy="277.886" r="4" fill="#0" id="circle259"/>
	<circle cx="700.961" cy="119.789" r="4" fill="#0" id="circle260"/>
	<circle cx="705.414" cy="277.886" r="4" fill="#0" id="circle261"/>
	<circle cx="712.094" cy="124.242" r="4" fill="#0" id="circle262"/>
	<circle cx="715.434" cy="283.452" r="4" fill="#0" id="circle263"/>
	<circle cx="722.114" cy="129.809" r="4" fill="#0" id="circle264"/>
	<circle cx="726.568" cy="283.452" r="4" fill="#0" id="circle265"/>
	<circle cx="733.248" cy="134.263" r="4" fill="#0" id="circle266"/>
	<circle cx="737.701" cy="283.452" r="4" fill="#0" id="circle267"/>
	<circle cx="739.928" cy="143.169" r="4" fill="#0" id="circle268"/>
	<circle cx="747.722" cy="277.886" r="4" fill="#0" id="circle269"/>
	<circle cx="749.948" cy="148.736" r="4" fill="#0" id="circle270"/>
	<circle cx="758.855" cy="277.886" r="4" fill="#0" id="circle271"/>
	<circle cx="761.082" cy="148.736" r="4" fill="#0" id="circle272"/>
	<circle cx="769.989" cy="277.886" r="4" fill="#0" id="circle273"/>
	<circle cx="771.102" cy="154.303" r="4" fill="#0" id="circle274"/>
	<circle cx="781.122" cy="277.886" r="4" fill="#0" id="circle275"/>
	<circle cx="782.236" cy="154.303" r="4" fill="#0" id="circle276"/>
	<circle cx="791.143" cy="272.319" r="4" fill="#0" id="circle277"/>
	<circle cx="793.369" cy="155.416" r="4" fill="#0" id="circle278"/>
	<circle cx="802.276" cy="272.319" r="4" fill="#0" id="circle279"/>
	<circle cx="804.503" cy="159.87" r="4" fill="#0" id="circle280"/>
	<circle cx="812.296" cy="266.752" r="4" fill="#0" id="circle281"/>
	<circle cx="815.636" cy="159.87" r="4" fill="#0" id="circle282"/>
	<circle cx="822.316" cy="261.185" r="4" fill="#0" id="circle283"/>
	<circle cx="826.77" cy="159.87" r="4" fill="#0" id="circle284"/>
	<circle cx="833.45" cy="257.845" r="4" fill="#0" id="circle285"/>
	<circle cx="837.903" cy="159.87" r="4" fill="#0" id="circle286"/>
	<circle cx="844.584" cy="252.278" r="4" fill="#0" id="circle287"/>
	<circle cx="847.924" cy="154.303" r="4" fill="#0" id="circle288"/>
	<circle cx="855.717" cy="246.712" r="4" fill="#0" id="circle289"/>
	<circle cx="859.057" cy="154.303" r="4" fill="#0" id="circle290"/>
	<circle cx="866.851" cy="241.145" r="4" fill="#0" id="circle291"/>
	<circle cx="869.077" cy="148.736" r="4" fill="#0" id="circle292"/>
	<circle cx="877.984" cy="235.578" r="4" fill="#0" id="circle293"/>
	<circle cx="880.211" cy="144.283" r="4" fill="#0" id="circle294"/>
	<circle cx="886.891" cy="227.785" r="4" fill="#0" id="circle295"/>
	<circle cx="891.345" cy="143.169" r="4" fill="#0" id="circle296"/>
	<circle cx="894.685" cy="12.9068" r="4" fill="#0" id="circle297"/>
	<circle cx="896.911" cy="222.218" r="4" fill="#0" id="circle298"/>
	<circle cx="900.251" cy="22.927" r="4" fill="#0" id="circle299"/>
	<circle cx="902.478" cy="143.169" r="4" fill="#0" id="circle300"/>
	<circle cx="903.591" cy="4" r="4" fill="#0" id="circle301"/>
	<circle cx="906.932" cy="216.651" r="4" fill="#0" id="circle302"/>
	<circle cx="911.385" cy="27.3805" r="4" fill="#0" id="circle303"/>
	<circle cx="911.385" cy="135.376" r="4" fill="#0" id="circle304"/>
	<circle cx="914.725" cy="4" r="4" fill="#0" id="circle305"/>
	<circle cx="916.952" cy="211.084" r="4" fill="#0" id="circle306"/>
	<circle cx="920.292" cy="126.469" r="4" fill="#0" id="circle307"/>
	<circle cx="921.405" cy="32.9473" r="4" fill="#0" id="circle308"/>
	<circle cx="924.745" cy="9.56678" r="4" fill="#0" id="circle309"/>
	<circle cx="926.972" cy="205.517" r="4" fill="#0" id="circle310"/>
	<circle cx="929.199" cy="117.562" r="4" fill="#0" id="circle311"/>
	<circle cx="931.425" cy="38.514" r="4" fill="#0" id="circle312"/>
	<circle cx="935.879" cy="9.56678" r="4" fill="#0" id="circle313"/>
	<circle cx="936.992" cy="198.837" r="4" fill="#0" id="circle314"/>
	<circle cx="938.105" cy="109.769" r="4" fill="#0" id="circle315"/>
	<circle cx="940.332" cy="46.3075" r="4" fill="#0" id="circle316"/>
	<circle cx="945.899" cy="15.1336" r="4" fill="#0" id="circle317"/>
	<circle cx="945.899" cy="100.862" r="4" fill="#0" id="circle318"/>
	<circle cx="945.899" cy="188.817" r="4" fill="#0" id="circle319"/>
	<circle cx="948.126" cy="55.2144" r="4" fill="#0" id="circle320"/>
	<circle cx="951.466" cy="89.7284" r="4" fill="#0" id="circle321"/>
	<circle cx="954.806" cy="181.024" r="4" fill="#0" id="circle322"/>
	<circle cx="955.919" cy="20.7003" r="4" fill="#0" id="circle323"/>
	<circle cx="955.919" cy="64.1212" r="4" fill="#0" id="circle324"/>
	<circle cx="955.919" cy="75.2548" r="4" fill="#0" id="circle325"/>
	<circle cx="962.599" cy="29.6072" r="4" fill="#0" id="circle326"/>
	<circle cx="962.599" cy="172.117" r="4" fill="#0" id="circle327"/>
	<circle cx="970.393" cy="38.514" r="4" fill="#0" id="circle328"/>
	<circle cx="973.733" cy="160.983" r="4" fill="#0" id="circle329"/>
	<circle cx="979.3" cy="46.3075" r="4" fill="#0" id="circle330"/>
	<circle cx="979.3" cy="149.85" r="4" fill="#0" id="circle331"/>
	<circle cx="983.753" cy="57.4411" r="4" fill="#0" id="circle332"/>
	<circle cx="988.207" cy="142.056" r="4" fill="#0" id="circle333"/>
	<circle cx="990.433" cy="66.3479" r="4" fill="#0" id="circle334"/>
	<circle cx="996" cy="76.3681" r="4" fill="#0" id="circle335"/>
	<circle cx="996" cy="87.5017" r="4" fill="#0" id="circle336"/>
	<circle cx="996" cy="105.315" r="4" fill="#0" id="circle337"/>
	<circle cx="996" cy="116.449" r="4" fill="#0" id="circle338"/>
	<circle cx="996" cy="127.582" r="4" fill="#0" id="circle339"/>
	</g>
</svg>