<?xml version="1.0" encoding="UTF-8" standalone="no"?>
<!-- Created with CurveBenchmark -->
<svg
	xmlns:dc="http://purl.org/dc/elements/1.1/"
	xmlns:cc="http://creativecommons.org/ns#"
	xmlns:rdf="http://www.w3.org/1999/02/22-rdf-syntax-ns#"
	xmlns:svg="http://www.w3.org/2000/svg"
	xmlns="http://www.w3.org/2000/svg"
	xmlns:sodipodi="http://sodipodi.sourceforge.net/DTD/sodipodi-0.dtd"
	xmlns:inkscape="http://www.inkscape.org/namespaces/inkscape"
	width="1000"
	height="1000"
	id="svg2"
	version="1.1"
	sodipodi:docname="manifold/discur-flatfish17.png.txt">
<defs
	id="defs4" />
<metadata
	id="metadata7">
	<rdf:RDF>
		<cc:Work
			rdf:about="">
			<dc:format>image/svg+xml</dc:format>
			<dc:type
				rdf:resource="http://purl.org/dc/dcmitype/StillImage" />
			<dc:title></dc:title>
		</cc:Work>
	</rdf:RDF>
</metadata>
<g
	inkscape:label="Layer 1"
	inkscape:groupmode="layer"
	id="layer1">
	<path style="fill:none;stroke:red;stroke-width:1px;stroke-linecap:butt;stroke-linejoin:miter;stroke-opacity:1" d="M 4,259.762 4,274.545 z" id="boundary" inkscape:connector-curvature="0" />
	<path style="fill:none;stroke:red;stroke-width:1px;stroke-linecap:butt;stroke-linejoin:miter;stroke-opacity:1" d="M 4,259.762 11.392,244.978 z" id="boundary" inkscape:connector-curvature="0" />
	<path style="fill:none;stroke:red;stroke-width:1px;stroke-linecap:butt;stroke-linejoin:miter;stroke-opacity:1" d="M 4,274.545 11.392,287.851 z" id="boundary" inkscape:connector-curvature="0" />
	<path style="fill:none;stroke:red;stroke-width:1px;stroke-linecap:butt;stroke-linejoin:miter;stroke-opacity:1" d="M 11.392,215.41 11.392,230.194 z" id="boundary" inkscape:connector-curvature="0" />
	<path style="fill:none;stroke:red;stroke-width:1px;stroke-linecap:butt;stroke-linejoin:miter;stroke-opacity:1" d="M 11.392,215.41 18.7839,200.626 z" id="boundary" inkscape:connector-curvature="0" />
	<path style="fill:none;stroke:red;stroke-width:1px;stroke-linecap:butt;stroke-linejoin:miter;stroke-opacity:1" d="M 11.392,230.194 11.392,244.978 z" id="boundary" inkscape:connector-curvature="0" />
	<path style="fill:none;stroke:red;stroke-width:1px;stroke-linecap:butt;stroke-linejoin:miter;stroke-opacity:1" d="M 11.392,287.851 18.7839,301.156 z" id="boundary" inkscape:connector-curvature="0" />
	<path style="fill:none;stroke:red;stroke-width:1px;stroke-linecap:butt;stroke-linejoin:miter;stroke-opacity:1" d="M 18.7839,200.626 30.611,188.799 z" id="boundary" inkscape:connector-curvature="0" />
	<path style="fill:none;stroke:red;stroke-width:1px;stroke-linecap:butt;stroke-linejoin:miter;stroke-opacity:1" d="M 18.7839,301.156 23.2191,315.94 z" id="boundary" inkscape:connector-curvature="0" />
	<path style="fill:none;stroke:red;stroke-width:1px;stroke-linecap:butt;stroke-linejoin:miter;stroke-opacity:1" d="M 23.2191,315.94 30.611,329.246 z" id="boundary" inkscape:connector-curvature="0" />
	<path style="fill:none;stroke:red;stroke-width:1px;stroke-linecap:butt;stroke-linejoin:miter;stroke-opacity:1" d="M 30.611,188.799 43.9165,181.407 z" id="boundary" inkscape:connector-curvature="0" />
	<path style="fill:none;stroke:red;stroke-width:1px;stroke-linecap:butt;stroke-linejoin:miter;stroke-opacity:1" d="M 30.611,329.246 40.9598,341.073 z" id="boundary" inkscape:connector-curvature="0" />
	<path style="fill:none;stroke:red;stroke-width:1px;stroke-linecap:butt;stroke-linejoin:miter;stroke-opacity:1" d="M 40.9598,341.073 55.7437,345.508 z" id="boundary" inkscape:connector-curvature="0" />
	<path style="fill:none;stroke:red;stroke-width:1px;stroke-linecap:butt;stroke-linejoin:miter;stroke-opacity:1" d="M 43.9165,181.407 58.7004,181.407 z" id="boundary" inkscape:connector-curvature="0" />
	<path style="fill:none;stroke:red;stroke-width:1px;stroke-linecap:butt;stroke-linejoin:miter;stroke-opacity:1" d="M 55.7437,345.508 70.5276,345.508 z" id="boundary" inkscape:connector-curvature="0" />
	<path style="fill:none;stroke:red;stroke-width:1px;stroke-linecap:butt;stroke-linejoin:miter;stroke-opacity:1" d="M 58.7004,181.407 72.006,188.799 z" id="boundary" inkscape:connector-curvature="0" />
	<path style="fill:none;stroke:red;stroke-width:1px;stroke-linecap:butt;stroke-linejoin:miter;stroke-opacity:1" d="M 70.5276,345.508 85.3115,341.073 z" id="boundary" inkscape:connector-curvature="0" />
	<path style="fill:none;stroke:red;stroke-width:1px;stroke-linecap:butt;stroke-linejoin:miter;stroke-opacity:1" d="M 72.006,188.799 86.7899,193.234 z" id="boundary" inkscape:connector-curvature="0" />
	<path style="fill:none;stroke:red;stroke-width:1px;stroke-linecap:butt;stroke-linejoin:miter;stroke-opacity:1" d="M 85.3115,341.073 100.095,333.681 z" id="boundary" inkscape:connector-curvature="0" />
	<path style="fill:none;stroke:red;stroke-width:1px;stroke-linecap:butt;stroke-linejoin:miter;stroke-opacity:1" d="M 86.7899,193.234 101.574,196.191 z" id="boundary" inkscape:connector-curvature="0" />
	<path style="fill:none;stroke:red;stroke-width:1px;stroke-linecap:butt;stroke-linejoin:miter;stroke-opacity:1" d="M 100.095,333.681 114.879,330.724 z" id="boundary" inkscape:connector-curvature="0" />
	<path style="fill:none;stroke:red;stroke-width:1px;stroke-linecap:butt;stroke-linejoin:miter;stroke-opacity:1" d="M 101.574,196.191 116.358,196.191 z" id="boundary" inkscape:connector-curvature="0" />
	<path style="fill:none;stroke:red;stroke-width:1px;stroke-linecap:butt;stroke-linejoin:miter;stroke-opacity:1" d="M 114.879,330.724 128.185,323.332 z" id="boundary" inkscape:connector-curvature="0" />
	<path style="fill:none;stroke:red;stroke-width:1px;stroke-linecap:butt;stroke-linejoin:miter;stroke-opacity:1" d="M 116.358,196.191 131.142,200.626 z" id="boundary" inkscape:connector-curvature="0" />
	<path style="fill:none;stroke:red;stroke-width:1px;stroke-linecap:butt;stroke-linejoin:miter;stroke-opacity:1" d="M 128.185,323.332 141.49,315.94 z" id="boundary" inkscape:connector-curvature="0" />
	<path style="fill:none;stroke:red;stroke-width:1px;stroke-linecap:butt;stroke-linejoin:miter;stroke-opacity:1" d="M 131.142,200.626 145.925,203.583 z" id="boundary" inkscape:connector-curvature="0" />
	<path style="fill:none;stroke:red;stroke-width:1px;stroke-linecap:butt;stroke-linejoin:miter;stroke-opacity:1" d="M 141.49,315.94 156.274,314.462 z" id="boundary" inkscape:connector-curvature="0" />
	<path style="fill:none;stroke:red;stroke-width:1px;stroke-linecap:butt;stroke-linejoin:miter;stroke-opacity:1" d="M 145.925,203.583 160.709,203.583 z" id="boundary" inkscape:connector-curvature="0" />
	<path style="fill:none;stroke:red;stroke-width:1px;stroke-linecap:butt;stroke-linejoin:miter;stroke-opacity:1" d="M 156.274,314.462 171.058,308.548 z" id="boundary" inkscape:connector-curvature="0" />
	<path style="fill:none;stroke:red;stroke-width:1px;stroke-linecap:butt;stroke-linejoin:miter;stroke-opacity:1" d="M 160.709,203.583 175.493,203.583 z" id="boundary" inkscape:connector-curvature="0" />
	<path style="fill:none;stroke:red;stroke-width:1px;stroke-linecap:butt;stroke-linejoin:miter;stroke-opacity:1" d="M 171.058,308.548 185.842,308.548 z" id="boundary" inkscape:connector-curvature="0" />
	<path style="fill:none;stroke:red;stroke-width:1px;stroke-linecap:butt;stroke-linejoin:miter;stroke-opacity:1" d="M 175.493,203.583 190.277,199.148 z" id="boundary" inkscape:connector-curvature="0" />
	<path style="fill:none;stroke:red;stroke-width:1px;stroke-linecap:butt;stroke-linejoin:miter;stroke-opacity:1" d="M 185.842,308.548 200.626,314.462 z" id="boundary" inkscape:connector-curvature="0" />
	<path style="fill:none;stroke:red;stroke-width:1px;stroke-linecap:butt;stroke-linejoin:miter;stroke-opacity:1" d="M 190.277,199.148 197.669,184.364 z" id="boundary" inkscape:connector-curvature="0" />
	<path style="fill:none;stroke:red;stroke-width:1px;stroke-linecap:butt;stroke-linejoin:miter;stroke-opacity:1" d="M 197.669,184.364 205.061,169.58 z" id="boundary" inkscape:connector-curvature="0" />
	<path style="fill:none;stroke:red;stroke-width:1px;stroke-linecap:butt;stroke-linejoin:miter;stroke-opacity:1" d="M 200.626,314.462 213.931,321.854 z" id="boundary" inkscape:connector-curvature="0" />
	<path style="fill:none;stroke:red;stroke-width:1px;stroke-linecap:butt;stroke-linejoin:miter;stroke-opacity:1" d="M 205.061,169.58 216.888,159.231 z" id="boundary" inkscape:connector-curvature="0" />
	<path style="fill:none;stroke:red;stroke-width:1px;stroke-linecap:butt;stroke-linejoin:miter;stroke-opacity:1" d="M 213.931,321.854 225.759,330.724 z" id="boundary" inkscape:connector-curvature="0" />
	<path style="fill:none;stroke:red;stroke-width:1px;stroke-linecap:butt;stroke-linejoin:miter;stroke-opacity:1" d="M 216.888,159.231 227.237,147.404 z" id="boundary" inkscape:connector-curvature="0" />
	<path style="fill:none;stroke:red;stroke-width:1px;stroke-linecap:butt;stroke-linejoin:miter;stroke-opacity:1" d="M 225.759,330.724 230.194,345.508 z" id="boundary" inkscape:connector-curvature="0" />
	<path style="fill:none;stroke:red;stroke-width:1px;stroke-linecap:butt;stroke-linejoin:miter;stroke-opacity:1" d="M 227.237,147.404 239.064,137.055 z" id="boundary" inkscape:connector-curvature="0" />
	<path style="fill:none;stroke:red;stroke-width:1px;stroke-linecap:butt;stroke-linejoin:miter;stroke-opacity:1" d="M 230.194,345.508 242.021,355.857 z" id="boundary" inkscape:connector-curvature="0" />
	<path style="fill:none;stroke:red;stroke-width:1px;stroke-linecap:butt;stroke-linejoin:miter;stroke-opacity:1" d="M 239.064,137.055 249.413,125.228 z" id="boundary" inkscape:connector-curvature="0" />
	<path style="fill:none;stroke:red;stroke-width:1px;stroke-linecap:butt;stroke-linejoin:miter;stroke-opacity:1" d="M 242.021,355.857 252.37,367.684 z" id="boundary" inkscape:connector-curvature="0" />
	<path style="fill:none;stroke:red;stroke-width:1px;stroke-linecap:butt;stroke-linejoin:miter;stroke-opacity:1" d="M 249.413,125.228 264.197,117.836 z" id="boundary" inkscape:connector-curvature="0" />
	<path style="fill:none;stroke:red;stroke-width:1px;stroke-linecap:butt;stroke-linejoin:miter;stroke-opacity:1" d="M 252.37,367.684 267.154,373.598 z" id="boundary" inkscape:connector-curvature="0" />
	<path style="fill:none;stroke:red;stroke-width:1px;stroke-linecap:butt;stroke-linejoin:miter;stroke-opacity:1" d="M 264.197,117.836 276.024,107.487 z" id="boundary" inkscape:connector-curvature="0" />
	<path style="fill:none;stroke:red;stroke-width:1px;stroke-linecap:butt;stroke-linejoin:miter;stroke-opacity:1" d="M 267.154,373.598 277.502,385.425 z" id="boundary" inkscape:connector-curvature="0" />
	<path style="fill:none;stroke:red;stroke-width:1px;stroke-linecap:butt;stroke-linejoin:miter;stroke-opacity:1" d="M 276.024,107.487 289.329,100.095 z" id="boundary" inkscape:connector-curvature="0" />
	<path style="fill:none;stroke:red;stroke-width:1px;stroke-linecap:butt;stroke-linejoin:miter;stroke-opacity:1" d="M 277.502,385.425 292.286,389.86 z" id="boundary" inkscape:connector-curvature="0" />
	<path style="fill:none;stroke:red;stroke-width:1px;stroke-linecap:butt;stroke-linejoin:miter;stroke-opacity:1" d="M 289.329,100.095 304.113,92.7034 z" id="boundary" inkscape:connector-curvature="0" />
	<path style="fill:none;stroke:red;stroke-width:1px;stroke-linecap:butt;stroke-linejoin:miter;stroke-opacity:1" d="M 292.286,389.86 305.592,397.252 z" id="boundary" inkscape:connector-curvature="0" />
	<path style="fill:none;stroke:red;stroke-width:1px;stroke-linecap:butt;stroke-linejoin:miter;stroke-opacity:1" d="M 304.113,92.7034 315.94,80.8763 z" id="boundary" inkscape:connector-curvature="0" />
	<path style="fill:none;stroke:red;stroke-width:1px;stroke-linecap:butt;stroke-linejoin:miter;stroke-opacity:1" d="M 305.592,397.252 318.897,404.644 z" id="boundary" inkscape:connector-curvature="0" />
	<path style="fill:none;stroke:red;stroke-width:1px;stroke-linecap:butt;stroke-linejoin:miter;stroke-opacity:1" d="M 315.94,80.8763 330.724,73.4844 z" id="boundary" inkscape:connector-curvature="0" />
	<path style="fill:none;stroke:red;stroke-width:1px;stroke-linecap:butt;stroke-linejoin:miter;stroke-opacity:1" d="M 318.897,404.644 333.681,410.557 z" id="boundary" inkscape:connector-curvature="0" />
	<path style="fill:none;stroke:red;stroke-width:1px;stroke-linecap:butt;stroke-linejoin:miter;stroke-opacity:1" d="M 330.724,73.4844 345.508,70.5276 z" id="boundary" inkscape:connector-curvature="0" />
	<path style="fill:none;stroke:red;stroke-width:1px;stroke-linecap:butt;stroke-linejoin:miter;stroke-opacity:1" d="M 333.681,410.557 348.465,412.036 z" id="boundary" inkscape:connector-curvature="0" />
	<path style="fill:none;stroke:red;stroke-width:1px;stroke-linecap:butt;stroke-linejoin:miter;stroke-opacity:1" d="M 345.508,70.5276 358.814,63.1356 z" id="boundary" inkscape:connector-curvature="0" />
	<path style="fill:none;stroke:red;stroke-width:1px;stroke-linecap:butt;stroke-linejoin:miter;stroke-opacity:1" d="M 348.465,412.036 361.77,419.428 z" id="boundary" inkscape:connector-curvature="0" />
	<path style="fill:none;stroke:red;stroke-width:1px;stroke-linecap:butt;stroke-linejoin:miter;stroke-opacity:1" d="M 358.814,63.1356 373.598,60.1788 z" id="boundary" inkscape:connector-curvature="0" />
	<path style="fill:none;stroke:red;stroke-width:1px;stroke-linecap:butt;stroke-linejoin:miter;stroke-opacity:1" d="M 361.77,419.428 376.554,419.428 z" id="boundary" inkscape:connector-curvature="0" />
	<path style="fill:none;stroke:red;stroke-width:1px;stroke-linecap:butt;stroke-linejoin:miter;stroke-opacity:1" d="M 373.598,60.1788 385.425,48.3517 z" id="boundary" inkscape:connector-curvature="0" />
	<path style="fill:none;stroke:red;stroke-width:1px;stroke-linecap:butt;stroke-linejoin:miter;stroke-opacity:1" d="M 376.554,419.428 391.338,423.863 z" id="boundary" inkscape:connector-curvature="0" />
	<path style="fill:none;stroke:red;stroke-width:1px;stroke-linecap:butt;stroke-linejoin:miter;stroke-opacity:1" d="M 385.425,48.3517 400.209,40.9598 z" id="boundary" inkscape:connector-curvature="0" />
	<path style="fill:none;stroke:red;stroke-width:1px;stroke-linecap:butt;stroke-linejoin:miter;stroke-opacity:1" d="M 391.338,423.863 406.122,426.82 z" id="boundary" inkscape:connector-curvature="0" />
	<path style="fill:none;stroke:red;stroke-width:1px;stroke-linecap:butt;stroke-linejoin:miter;stroke-opacity:1" d="M 400.209,40.9598 414.993,33.5678 z" id="boundary" inkscape:connector-curvature="0" />
	<path style="fill:none;stroke:red;stroke-width:1px;stroke-linecap:butt;stroke-linejoin:miter;stroke-opacity:1" d="M 406.122,426.82 420.906,426.82 z" id="boundary" inkscape:connector-curvature="0" />
	<path style="fill:none;stroke:red;stroke-width:1px;stroke-linecap:butt;stroke-linejoin:miter;stroke-opacity:1" d="M 414.993,33.5678 429.776,26.1759 z" id="boundary" inkscape:connector-curvature="0" />
	<path style="fill:none;stroke:red;stroke-width:1px;stroke-linecap:butt;stroke-linejoin:miter;stroke-opacity:1" d="M 420.906,426.82 435.69,426.82 z" id="boundary" inkscape:connector-curvature="0" />
	<path style="fill:none;stroke:red;stroke-width:1px;stroke-linecap:butt;stroke-linejoin:miter;stroke-opacity:1" d="M 429.776,26.1759 444.56,26.1759 z" id="boundary" inkscape:connector-curvature="0" />
	<path style="fill:none;stroke:red;stroke-width:1px;stroke-linecap:butt;stroke-linejoin:miter;stroke-opacity:1" d="M 435.69,426.82 450.474,426.82 z" id="boundary" inkscape:connector-curvature="0" />
	<path style="fill:none;stroke:red;stroke-width:1px;stroke-linecap:butt;stroke-linejoin:miter;stroke-opacity:1" d="M 444.56,26.1759 457.866,18.7839 z" id="boundary" inkscape:connector-curvature="0" />
	<path style="fill:none;stroke:red;stroke-width:1px;stroke-linecap:butt;stroke-linejoin:miter;stroke-opacity:1" d="M 450.474,426.82 463.779,434.212 z" id="boundary" inkscape:connector-curvature="0" />
	<path style="fill:none;stroke:red;stroke-width:1px;stroke-linecap:butt;stroke-linejoin:miter;stroke-opacity:1" d="M 457.866,18.7839 472.65,12.8703 z" id="boundary" inkscape:connector-curvature="0" />
	<path style="fill:none;stroke:red;stroke-width:1px;stroke-linecap:butt;stroke-linejoin:miter;stroke-opacity:1" d="M 463.779,434.212 478.563,434.212 z" id="boundary" inkscape:connector-curvature="0" />
	<path style="fill:none;stroke:red;stroke-width:1px;stroke-linecap:butt;stroke-linejoin:miter;stroke-opacity:1" d="M 472.65,12.8703 487.434,11.392 z" id="boundary" inkscape:connector-curvature="0" />
	<path style="fill:none;stroke:red;stroke-width:1px;stroke-linecap:butt;stroke-linejoin:miter;stroke-opacity:1" d="M 478.563,434.212 493.347,434.212 z" id="boundary" inkscape:connector-curvature="0" />
	<path style="fill:none;stroke:red;stroke-width:1px;stroke-linecap:butt;stroke-linejoin:miter;stroke-opacity:1" d="M 487.434,11.392 502.218,11.392 z" id="boundary" inkscape:connector-curvature="0" />
	<path style="fill:none;stroke:red;stroke-width:1px;stroke-linecap:butt;stroke-linejoin:miter;stroke-opacity:1" d="M 493.347,434.212 506.653,441.604 z" id="boundary" inkscape:connector-curvature="0" />
	<path style="fill:none;stroke:red;stroke-width:1px;stroke-linecap:butt;stroke-linejoin:miter;stroke-opacity:1" d="M 502.218,11.392 515.523,4 z" id="boundary" inkscape:connector-curvature="0" />
	<path style="fill:none;stroke:red;stroke-width:1px;stroke-linecap:butt;stroke-linejoin:miter;stroke-opacity:1" d="M 506.653,441.604 521.437,441.604 z" id="boundary" inkscape:connector-curvature="0" />
	<path style="fill:none;stroke:red;stroke-width:1px;stroke-linecap:butt;stroke-linejoin:miter;stroke-opacity:1" d="M 515.523,4 530.307,4 z" id="boundary" inkscape:connector-curvature="0" />
	<path style="fill:none;stroke:red;stroke-width:1px;stroke-linecap:butt;stroke-linejoin:miter;stroke-opacity:1" d="M 521.437,441.604 534.742,448.996 z" id="boundary" inkscape:connector-curvature="0" />
	<path style="fill:none;stroke:red;stroke-width:1px;stroke-linecap:butt;stroke-linejoin:miter;stroke-opacity:1" d="M 530.307,4 545.091,4 z" id="boundary" inkscape:connector-curvature="0" />
	<path style="fill:none;stroke:red;stroke-width:1px;stroke-linecap:butt;stroke-linejoin:miter;stroke-opacity:1" d="M 534.742,448.996 549.526,448.996 z" id="boundary" inkscape:connector-curvature="0" />
	<path style="fill:none;stroke:red;stroke-width:1px;stroke-linecap:butt;stroke-linejoin:miter;stroke-opacity:1" d="M 545.091,4 559.875,4 z" id="boundary" inkscape:connector-curvature="0" />
	<path style="fill:none;stroke:red;stroke-width:1px;stroke-linecap:butt;stroke-linejoin:miter;stroke-opacity:1" d="M 549.526,448.996 564.31,448.996 z" id="boundary" inkscape:connector-curvature="0" />
	<path style="fill:none;stroke:red;stroke-width:1px;stroke-linecap:butt;stroke-linejoin:miter;stroke-opacity:1" d="M 559.875,4 574.659,8.43517 z" id="boundary" inkscape:connector-curvature="0" />
	<path style="fill:none;stroke:red;stroke-width:1px;stroke-linecap:butt;stroke-linejoin:miter;stroke-opacity:1" d="M 564.31,448.996 579.094,448.996 z" id="boundary" inkscape:connector-curvature="0" />
	<path style="fill:none;stroke:red;stroke-width:1px;stroke-linecap:butt;stroke-linejoin:miter;stroke-opacity:1" d="M 574.659,8.43517 589.443,11.392 z" id="boundary" inkscape:connector-curvature="0" />
	<path style="fill:none;stroke:red;stroke-width:1px;stroke-linecap:butt;stroke-linejoin:miter;stroke-opacity:1" d="M 579.094,448.996 593.878,448.996 z" id="boundary" inkscape:connector-curvature="0" />
	<path style="fill:none;stroke:red;stroke-width:1px;stroke-linecap:butt;stroke-linejoin:miter;stroke-opacity:1" d="M 589.443,11.392 602.748,18.7839 z" id="boundary" inkscape:connector-curvature="0" />
	<path style="fill:none;stroke:red;stroke-width:1px;stroke-linecap:butt;stroke-linejoin:miter;stroke-opacity:1" d="M 593.878,448.996 608.662,448.996 z" id="boundary" inkscape:connector-curvature="0" />
	<path style="fill:none;stroke:red;stroke-width:1px;stroke-linecap:butt;stroke-linejoin:miter;stroke-opacity:1" d="M 602.748,18.7839 616.054,26.1759 z" id="boundary" inkscape:connector-curvature="0" />
	<path style="fill:none;stroke:red;stroke-width:1px;stroke-linecap:butt;stroke-linejoin:miter;stroke-opacity:1" d="M 608.662,448.996 623.446,448.996 z" id="boundary" inkscape:connector-curvature="0" />
	<path style="fill:none;stroke:red;stroke-width:1px;stroke-linecap:butt;stroke-linejoin:miter;stroke-opacity:1" d="M 616.054,26.1759 630.838,27.6542 z" id="boundary" inkscape:connector-curvature="0" />
	<path style="fill:none;stroke:red;stroke-width:1px;stroke-linecap:butt;stroke-linejoin:miter;stroke-opacity:1" d="M 623.446,448.996 638.23,448.996 z" id="boundary" inkscape:connector-curvature="0" />
	<path style="fill:none;stroke:red;stroke-width:1px;stroke-linecap:butt;stroke-linejoin:miter;stroke-opacity:1" d="M 630.838,27.6542 644.143,35.0462 z" id="boundary" inkscape:connector-curvature="0" />
	<path style="fill:none;stroke:red;stroke-width:1px;stroke-linecap:butt;stroke-linejoin:miter;stroke-opacity:1" d="M 638.23,448.996 651.535,441.604 z" id="boundary" inkscape:connector-curvature="0" />
	<path style="fill:none;stroke:red;stroke-width:1px;stroke-linecap:butt;stroke-linejoin:miter;stroke-opacity:1" d="M 644.143,35.0462 658.927,40.9598 z" id="boundary" inkscape:connector-curvature="0" />
	<path style="fill:none;stroke:red;stroke-width:1px;stroke-linecap:butt;stroke-linejoin:miter;stroke-opacity:1" d="M 651.535,441.604 666.319,441.604 z" id="boundary" inkscape:connector-curvature="0" />
	<path style="fill:none;stroke:red;stroke-width:1px;stroke-linecap:butt;stroke-linejoin:miter;stroke-opacity:1" d="M 658.927,40.9598 672.232,48.3517 z" id="boundary" inkscape:connector-curvature="0" />
	<path style="fill:none;stroke:red;stroke-width:1px;stroke-linecap:butt;stroke-linejoin:miter;stroke-opacity:1" d="M 666.319,441.604 681.103,440.125 z" id="boundary" inkscape:connector-curvature="0" />
	<path style="fill:none;stroke:red;stroke-width:1px;stroke-linecap:butt;stroke-linejoin:miter;stroke-opacity:1" d="M 672.232,48.3517 687.016,48.3517 z" id="boundary" inkscape:connector-curvature="0" />
	<path style="fill:none;stroke:red;stroke-width:1px;stroke-linecap:butt;stroke-linejoin:miter;stroke-opacity:1" d="M 681.103,440.125 695.887,434.212 z" id="boundary" inkscape:connector-curvature="0" />
	<path style="fill:none;stroke:red;stroke-width:1px;stroke-linecap:butt;stroke-linejoin:miter;stroke-opacity:1" d="M 687.016,48.3517 700.322,55.7437 z" id="boundary" inkscape:connector-curvature="0" />
	<path style="fill:none;stroke:red;stroke-width:1px;stroke-linecap:butt;stroke-linejoin:miter;stroke-opacity:1" d="M 695.887,434.212 710.671,432.733 z" id="boundary" inkscape:connector-curvature="0" />
	<path style="fill:none;stroke:red;stroke-width:1px;stroke-linecap:butt;stroke-linejoin:miter;stroke-opacity:1" d="M 700.322,55.7437 713.627,63.1356 z" id="boundary" inkscape:connector-curvature="0" />
	<path style="fill:none;stroke:red;stroke-width:1px;stroke-linecap:butt;stroke-linejoin:miter;stroke-opacity:1" d="M 710.671,432.733 725.455,425.341 z" id="boundary" inkscape:connector-curvature="0" />
	<path style="fill:none;stroke:red;stroke-width:1px;stroke-linecap:butt;stroke-linejoin:miter;stroke-opacity:1" d="M 713.627,63.1356 728.411,66.0924 z" id="boundary" inkscape:connector-curvature="0" />
	<path style="fill:none;stroke:red;stroke-width:1px;stroke-linecap:butt;stroke-linejoin:miter;stroke-opacity:1" d="M 725.455,425.341 737.282,412.036 z" id="boundary" inkscape:connector-curvature="0" />
	<path style="fill:none;stroke:red;stroke-width:1px;stroke-linecap:butt;stroke-linejoin:miter;stroke-opacity:1" d="M 728.411,66.0924 741.717,73.4844 z" id="boundary" inkscape:connector-curvature="0" />
	<path style="fill:none;stroke:red;stroke-width:1px;stroke-linecap:butt;stroke-linejoin:miter;stroke-opacity:1" d="M 737.282,412.036 750.587,404.644 z" id="boundary" inkscape:connector-curvature="0" />
	<path style="fill:none;stroke:red;stroke-width:1px;stroke-linecap:butt;stroke-linejoin:miter;stroke-opacity:1" d="M 741.717,73.4844 752.066,85.3115 z" id="boundary" inkscape:connector-curvature="0" />
	<path style="fill:none;stroke:red;stroke-width:1px;stroke-linecap:butt;stroke-linejoin:miter;stroke-opacity:1" d="M 750.587,404.644 765.371,404.644 z" id="boundary" inkscape:connector-curvature="0" />
	<path style="fill:none;stroke:red;stroke-width:1px;stroke-linecap:butt;stroke-linejoin:miter;stroke-opacity:1" d="M 752.066,85.3115 766.849,85.3115 z" id="boundary" inkscape:connector-curvature="0" />
	<path style="fill:none;stroke:red;stroke-width:1px;stroke-linecap:butt;stroke-linejoin:miter;stroke-opacity:1" d="M 765.371,404.644 780.155,404.644 z" id="boundary" inkscape:connector-curvature="0" />
	<path style="fill:none;stroke:red;stroke-width:1px;stroke-linecap:butt;stroke-linejoin:miter;stroke-opacity:1" d="M 766.849,85.3115 781.633,89.7466 z" id="boundary" inkscape:connector-curvature="0" />
	<path style="fill:none;stroke:red;stroke-width:1px;stroke-linecap:butt;stroke-linejoin:miter;stroke-opacity:1" d="M 780.155,404.644 794.939,404.644 z" id="boundary" inkscape:connector-curvature="0" />
	<path style="fill:none;stroke:red;stroke-width:1px;stroke-linecap:butt;stroke-linejoin:miter;stroke-opacity:1" d="M 781.633,89.7466 794.939,97.1386 z" id="boundary" inkscape:connector-curvature="0" />
	<path style="fill:none;stroke:red;stroke-width:1px;stroke-linecap:butt;stroke-linejoin:miter;stroke-opacity:1" d="M 794.939,97.1386 809.723,103.052 z" id="boundary" inkscape:connector-curvature="0" />
	<path style="fill:none;stroke:red;stroke-width:1px;stroke-linecap:butt;stroke-linejoin:miter;stroke-opacity:1" d="M 794.939,404.644 808.244,397.252 z" id="boundary" inkscape:connector-curvature="0" />
	<path style="fill:none;stroke:red;stroke-width:1px;stroke-linecap:butt;stroke-linejoin:miter;stroke-opacity:1" d="M 808.244,397.252 821.55,388.382 z" id="boundary" inkscape:connector-curvature="0" />
	<path style="fill:none;stroke:red;stroke-width:1px;stroke-linecap:butt;stroke-linejoin:miter;stroke-opacity:1" d="M 809.723,103.052 818.593,114.879 z" id="boundary" inkscape:connector-curvature="0" />
	<path style="fill:none;stroke:red;stroke-width:1px;stroke-linecap:butt;stroke-linejoin:miter;stroke-opacity:1" d="M 818.593,114.879 833.377,119.314 z" id="boundary" inkscape:connector-curvature="0" />
	<path style="fill:none;stroke:red;stroke-width:1px;stroke-linecap:butt;stroke-linejoin:miter;stroke-opacity:1" d="M 821.55,388.382 833.377,367.684 z" id="boundary" inkscape:connector-curvature="0" />
	<path style="fill:none;stroke:red;stroke-width:1px;stroke-linecap:butt;stroke-linejoin:miter;stroke-opacity:1" d="M 833.377,119.314 843.726,131.142 z" id="boundary" inkscape:connector-curvature="0" />
	<path style="fill:none;stroke:red;stroke-width:1px;stroke-linecap:butt;stroke-linejoin:miter;stroke-opacity:1" d="M 833.377,367.684 845.204,357.335 z" id="boundary" inkscape:connector-curvature="0" />
	<path style="fill:none;stroke:red;stroke-width:1px;stroke-linecap:butt;stroke-linejoin:miter;stroke-opacity:1" d="M 843.726,131.142 855.553,141.49 z" id="boundary" inkscape:connector-curvature="0" />
	<path style="fill:none;stroke:red;stroke-width:1px;stroke-linecap:butt;stroke-linejoin:miter;stroke-opacity:1" d="M 845.204,357.335 859.988,349.943 z" id="boundary" inkscape:connector-curvature="0" />
	<path style="fill:none;stroke:red;stroke-width:1px;stroke-linecap:butt;stroke-linejoin:miter;stroke-opacity:1" d="M 855.553,141.49 865.902,153.317 z" id="boundary" inkscape:connector-curvature="0" />
	<path style="fill:none;stroke:red;stroke-width:1px;stroke-linecap:butt;stroke-linejoin:miter;stroke-opacity:1" d="M 859.988,349.943 874.772,345.508 z" id="boundary" inkscape:connector-curvature="0" />
	<path style="fill:none;stroke:red;stroke-width:1px;stroke-linecap:butt;stroke-linejoin:miter;stroke-opacity:1" d="M 865.902,153.317 877.729,163.666 z" id="boundary" inkscape:connector-curvature="0" />
	<path style="fill:none;stroke:red;stroke-width:1px;stroke-linecap:butt;stroke-linejoin:miter;stroke-opacity:1" d="M 874.772,345.508 888.077,338.116 z" id="boundary" inkscape:connector-curvature="0" />
	<path style="fill:none;stroke:red;stroke-width:1px;stroke-linecap:butt;stroke-linejoin:miter;stroke-opacity:1" d="M 877.729,163.666 889.556,174.015 z" id="boundary" inkscape:connector-curvature="0" />
	<path style="fill:none;stroke:red;stroke-width:1px;stroke-linecap:butt;stroke-linejoin:miter;stroke-opacity:1" d="M 888.077,338.116 902.861,338.116 z" id="boundary" inkscape:connector-curvature="0" />
	<path style="fill:none;stroke:red;stroke-width:1px;stroke-linecap:butt;stroke-linejoin:miter;stroke-opacity:1" d="M 889.556,174.015 902.861,181.407 z" id="boundary" inkscape:connector-curvature="0" />
	<path style="fill:none;stroke:red;stroke-width:1px;stroke-linecap:butt;stroke-linejoin:miter;stroke-opacity:1" d="M 902.861,181.407 917.645,181.407 z" id="boundary" inkscape:connector-curvature="0" />
	<path style="fill:none;stroke:red;stroke-width:1px;stroke-linecap:butt;stroke-linejoin:miter;stroke-opacity:1" d="M 902.861,338.116 917.645,338.116 z" id="boundary" inkscape:connector-curvature="0" />
	<path style="fill:none;stroke:red;stroke-width:1px;stroke-linecap:butt;stroke-linejoin:miter;stroke-opacity:1" d="M 917.645,181.407 932.429,181.407 z" id="boundary" inkscape:connector-curvature="0" />
	<path style="fill:none;stroke:red;stroke-width:1px;stroke-linecap:butt;stroke-linejoin:miter;stroke-opacity:1" d="M 917.645,338.116 930.951,330.724 z" id="boundary" inkscape:connector-curvature="0" />
	<path style="fill:none;stroke:red;stroke-width:1px;stroke-linecap:butt;stroke-linejoin:miter;stroke-opacity:1" d="M 930.951,330.724 942.778,318.897 z" id="boundary" inkscape:connector-curvature="0" />
	<path style="fill:none;stroke:red;stroke-width:1px;stroke-linecap:butt;stroke-linejoin:miter;stroke-opacity:1" d="M 932.429,181.407 945.735,188.799 z" id="boundary" inkscape:connector-curvature="0" />
	<path style="fill:none;stroke:red;stroke-width:1px;stroke-linecap:butt;stroke-linejoin:miter;stroke-opacity:1" d="M 942.778,318.897 951.648,301.156 z" id="boundary" inkscape:connector-curvature="0" />
	<path style="fill:none;stroke:red;stroke-width:1px;stroke-linecap:butt;stroke-linejoin:miter;stroke-opacity:1" d="M 945.735,188.799 959.04,196.191 z" id="boundary" inkscape:connector-curvature="0" />
	<path style="fill:none;stroke:red;stroke-width:1px;stroke-linecap:butt;stroke-linejoin:miter;stroke-opacity:1" d="M 951.648,301.156 963.475,290.808 z" id="boundary" inkscape:connector-curvature="0" />
	<path style="fill:none;stroke:red;stroke-width:1px;stroke-linecap:butt;stroke-linejoin:miter;stroke-opacity:1" d="M 959.04,196.191 973.824,200.626 z" id="boundary" inkscape:connector-curvature="0" />
	<path style="fill:none;stroke:red;stroke-width:1px;stroke-linecap:butt;stroke-linejoin:miter;stroke-opacity:1" d="M 963.475,290.808 973.824,278.981 z" id="boundary" inkscape:connector-curvature="0" />
	<path style="fill:none;stroke:red;stroke-width:1px;stroke-linecap:butt;stroke-linejoin:miter;stroke-opacity:1" d="M 973.824,200.626 987.13,208.018 z" id="boundary" inkscape:connector-curvature="0" />
	<path style="fill:none;stroke:red;stroke-width:1px;stroke-linecap:butt;stroke-linejoin:miter;stroke-opacity:1" d="M 973.824,278.981 985.651,268.632 z" id="boundary" inkscape:connector-curvature="0" />
	<path style="fill:none;stroke:red;stroke-width:1px;stroke-linecap:butt;stroke-linejoin:miter;stroke-opacity:1" d="M 985.651,268.632 993.043,253.848 z" id="boundary" inkscape:connector-curvature="0" />
	<path style="fill:none;stroke:red;stroke-width:1px;stroke-linecap:butt;stroke-linejoin:miter;stroke-opacity:1" d="M 987.13,208.018 994.522,221.323 z" id="boundary" inkscape:connector-curvature="0" />
	<path style="fill:none;stroke:red;stroke-width:1px;stroke-linecap:butt;stroke-linejoin:miter;stroke-opacity:1" d="M 993.043,253.848 996,236.107 z" id="boundary" inkscape:connector-curvature="0" />
	<path style="fill:none;stroke:red;stroke-width:1px;stroke-linecap:butt;stroke-linejoin:miter;stroke-opacity:1" d="M 994.522,221.323 996,236.107 z" id="boundary" inkscape:connector-curvature="0" />
	<circle cx="4" cy="259.762" r="4" fill="#0" id="circle0"/>
	<circle cx="4" cy="274.545" r="4" fill="#0" id="circle1"/>
	<circle cx="11.392" cy="215.41" r="4" fill="#0" id="circle2"/>
	<circle cx="11.392" cy="230.194" r="4" fill="#0" id="circle3"/>
	<circle cx="11.392" cy="244.978" r="4" fill="#0" id="circle4"/>
	<circle cx="11.392" cy="287.851" r="4" fill="#0" id="circle5"/>
	<circle cx="18.7839" cy="200.626" r="4" fill="#0" id="circle6"/>
	<circle cx="18.7839" cy="301.156" r="4" fill="#0" id="circle7"/>
	<circle cx="23.2191" cy="315.94" r="4" fill="#0" id="circle8"/>
	<circle cx="30.611" cy="188.799" r="4" fill="#0" id="circle9"/>
	<circle cx="30.611" cy="329.246" r="4" fill="#0" id="circle10"/>
	<circle cx="40.9598" cy="341.073" r="4" fill="#0" id="circle11"/>
	<circle cx="43.9165" cy="181.407" r="4" fill="#0" id="circle12"/>
	<circle cx="55.7437" cy="345.508" r="4" fill="#0" id="circle13"/>
	<circle cx="58.7004" cy="181.407" r="4" fill="#0" id="circle14"/>
	<circle cx="70.5276" cy="345.508" r="4" fill="#0" id="circle15"/>
	<circle cx="72.006" cy="188.799" r="4" fill="#0" id="circle16"/>
	<circle cx="85.3115" cy="341.073" r="4" fill="#0" id="circle17"/>
	<circle cx="86.7899" cy="193.234" r="4" fill="#0" id="circle18"/>
	<circle cx="100.095" cy="333.681" r="4" fill="#0" id="circle19"/>
	<circle cx="101.574" cy="196.191" r="4" fill="#0" id="circle20"/>
	<circle cx="114.879" cy="330.724" r="4" fill="#0" id="circle21"/>
	<circle cx="116.358" cy="196.191" r="4" fill="#0" id="circle22"/>
	<circle cx="128.185" cy="323.332" r="4" fill="#0" id="circle23"/>
	<circle cx="131.142" cy="200.626" r="4" fill="#0" id="circle24"/>
	<circle cx="141.49" cy="315.94" r="4" fill="#0" id="circle25"/>
	<circle cx="145.925" cy="203.583" r="4" fill="#0" id="circle26"/>
	<circle cx="156.274" cy="314.462" r="4" fill="#0" id="circle27"/>
	<circle cx="160.709" cy="203.583" r="4" fill="#0" id="circle28"/>
	<circle cx="171.058" cy="308.548" r="4" fill="#0" id="circle29"/>
	<circle cx="175.493" cy="203.583" r="4" fill="#0" id="circle30"/>
	<circle cx="185.842" cy="308.548" r="4" fill="#0" id="circle31"/>
	<circle cx="190.277" cy="199.148" r="4" fill="#0" id="circle32"/>
	<circle cx="197.669" cy="184.364" r="4" fill="#0" id="circle33"/>
	<circle cx="200.626" cy="314.462" r="4" fill="#0" id="circle34"/>
	<circle cx="205.061" cy="169.58" r="4" fill="#0" id="circle35"/>
	<circle cx="213.931" cy="321.854" r="4" fill="#0" id="circle36"/>
	<circle cx="216.888" cy="159.231" r="4" fill="#0" id="circle37"/>
	<circle cx="225.759" cy="330.724" r="4" fill="#0" id="circle38"/>
	<circle cx="227.237" cy="147.404" r="4" fill="#0" id="circle39"/>
	<circle cx="230.194" cy="345.508" r="4" fill="#0" id="circle40"/>
	<circle cx="239.064" cy="137.055" r="4" fill="#0" id="circle41"/>
	<circle cx="242.021" cy="355.857" r="4" fill="#0" id="circle42"/>
	<circle cx="249.413" cy="125.228" r="4" fill="#0" id="circle43"/>
	<circle cx="252.37" cy="367.684" r="4" fill="#0" id="circle44"/>
	<circle cx="264.197" cy="117.836" r="4" fill="#0" id="circle45"/>
	<circle cx="267.154" cy="373.598" r="4" fill="#0" id="circle46"/>
	<circle cx="276.024" cy="107.487" r="4" fill="#0" id="circle47"/>
	<circle cx="277.502" cy="385.425" r="4" fill="#0" id="circle48"/>
	<circle cx="289.329" cy="100.095" r="4" fill="#0" id="circle49"/>
	<circle cx="292.286" cy="389.86" r="4" fill="#0" id="circle50"/>
	<circle cx="304.113" cy="92.7034" r="4" fill="#0" id="circle51"/>
	<circle cx="305.592" cy="397.252" r="4" fill="#0" id="circle52"/>
	<circle cx="315.94" cy="80.8763" r="4" fill="#0" id="circle53"/>
	<circle cx="318.897" cy="404.644" r="4" fill="#0" id="circle54"/>
	<circle cx="330.724" cy="73.4844" r="4" fill="#0" id="circle55"/>
	<circle cx="333.681" cy="410.557" r="4" fill="#0" id="circle56"/>
	<circle cx="345.508" cy="70.5276" r="4" fill="#0" id="circle57"/>
	<circle cx="348.465" cy="412.036" r="4" fill="#0" id="circle58"/>
	<circle cx="358.814" cy="63.1356" r="4" fill="#0" id="circle59"/>
	<circle cx="361.77" cy="419.428" r="4" fill="#0" id="circle60"/>
	<circle cx="373.598" cy="60.1788" r="4" fill="#0" id="circle61"/>
	<circle cx="376.554" cy="419.428" r="4" fill="#0" id="circle62"/>
	<circle cx="385.425" cy="48.3517" r="4" fill="#0" id="circle63"/>
	<circle cx="391.338" cy="423.863" r="4" fill="#0" id="circle64"/>
	<circle cx="400.209" cy="40.9598" r="4" fill="#0" id="circle65"/>
	<circle cx="406.122" cy="426.82" r="4" fill="#0" id="circle66"/>
	<circle cx="414.993" cy="33.5678" r="4" fill="#0" id="circle67"/>
	<circle cx="420.906" cy="426.82" r="4" fill="#0" id="circle68"/>
	<circle cx="429.776" cy="26.1759" r="4" fill="#0" id="circle69"/>
	<circle cx="435.69" cy="426.82" r="4" fill="#0" id="circle70"/>
	<circle cx="444.56" cy="26.1759" r="4" fill="#0" id="circle71"/>
	<circle cx="450.474" cy="426.82" r="4" fill="#0" id="circle72"/>
	<circle cx="457.866" cy="18.7839" r="4" fill="#0" id="circle73"/>
	<circle cx="463.779" cy="434.212" r="4" fill="#0" id="circle74"/>
	<circle cx="472.65" cy="12.8703" r="4" fill="#0" id="circle75"/>
	<circle cx="478.563" cy="434.212" r="4" fill="#0" id="circle76"/>
	<circle cx="487.434" cy="11.392" r="4" fill="#0" id="circle77"/>
	<circle cx="493.347" cy="434.212" r="4" fill="#0" id="circle78"/>
	<circle cx="502.218" cy="11.392" r="4" fill="#0" id="circle79"/>
	<circle cx="506.653" cy="441.604" r="4" fill="#0" id="circle80"/>
	<circle cx="515.523" cy="4" r="4" fill="#0" id="circle81"/>
	<circle cx="521.437" cy="441.604" r="4" fill="#0" id="circle82"/>
	<circle cx="530.307" cy="4" r="4" fill="#0" id="circle83"/>
	<circle cx="534.742" cy="448.996" r="4" fill="#0" id="circle84"/>
	<circle cx="545.091" cy="4" r="4" fill="#0" id="circle85"/>
	<circle cx="549.526" cy="448.996" r="4" fill="#0" id="circle86"/>
	<circle cx="559.875" cy="4" r="4" fill="#0" id="circle87"/>
	<circle cx="564.31" cy="448.996" r="4" fill="#0" id="circle88"/>
	<circle cx="574.659" cy="8.43517" r="4" fill="#0" id="circle89"/>
	<circle cx="579.094" cy="448.996" r="4" fill="#0" id="circle90"/>
	<circle cx="589.443" cy="11.392" r="4" fill="#0" id="circle91"/>
	<circle cx="593.878" cy="448.996" r="4" fill="#0" id="circle92"/>
	<circle cx="602.748" cy="18.7839" r="4" fill="#0" id="circle93"/>
	<circle cx="608.662" cy="448.996" r="4" fill="#0" id="circle94"/>
	<circle cx="616.054" cy="26.1759" r="4" fill="#0" id="circle95"/>
	<circle cx="623.446" cy="448.996" r="4" fill="#0" id="circle96"/>
	<circle cx="630.838" cy="27.6542" r="4" fill="#0" id="circle97"/>
	<circle cx="638.23" cy="448.996" r="4" fill="#0" id="circle98"/>
	<circle cx="644.143" cy="35.0462" r="4" fill="#0" id="circle99"/>
	<circle cx="651.535" cy="441.604" r="4" fill="#0" id="circle100"/>
	<circle cx="658.927" cy="40.9598" r="4" fill="#0" id="circle101"/>
	<circle cx="666.319" cy="441.604" r="4" fill="#0" id="circle102"/>
	<circle cx="672.232" cy="48.3517" r="4" fill="#0" id="circle103"/>
	<circle cx="681.103" cy="440.125" r="4" fill="#0" id="circle104"/>
	<circle cx="687.016" cy="48.3517" r="4" fill="#0" id="circle105"/>
	<circle cx="695.887" cy="434.212" r="4" fill="#0" id="circle106"/>
	<circle cx="700.322" cy="55.7437" r="4" fill="#0" id="circle107"/>
	<circle cx="710.671" cy="432.733" r="4" fill="#0" id="circle108"/>
	<circle cx="713.627" cy="63.1356" r="4" fill="#0" id="circle109"/>
	<circle cx="725.455" cy="425.341" r="4" fill="#0" id="circle110"/>
	<circle cx="728.411" cy="66.0924" r="4" fill="#0" id="circle111"/>
	<circle cx="737.282" cy="412.036" r="4" fill="#0" id="circle112"/>
	<circle cx="741.717" cy="73.4844" r="4" fill="#0" id="circle113"/>
	<circle cx="750.587" cy="404.644" r="4" fill="#0" id="circle114"/>
	<circle cx="752.066" cy="85.3115" r="4" fill="#0" id="circle115"/>
	<circle cx="765.371" cy="404.644" r="4" fill="#0" id="circle116"/>
	<circle cx="766.849" cy="85.3115" r="4" fill="#0" id="circle117"/>
	<circle cx="780.155" cy="404.644" r="4" fill="#0" id="circle118"/>
	<circle cx="781.633" cy="89.7466" r="4" fill="#0" id="circle119"/>
	<circle cx="794.939" cy="97.1386" r="4" fill="#0" id="circle120"/>
	<circle cx="794.939" cy="404.644" r="4" fill="#0" id="circle121"/>
	<circle cx="808.244" cy="397.252" r="4" fill="#0" id="circle122"/>
	<circle cx="809.723" cy="103.052" r="4" fill="#0" id="circle123"/>
	<circle cx="818.593" cy="114.879" r="4" fill="#0" id="circle124"/>
	<circle cx="821.55" cy="388.382" r="4" fill="#0" id="circle125"/>
	<circle cx="833.377" cy="119.314" r="4" fill="#0" id="circle126"/>
	<circle cx="833.377" cy="367.684" r="4" fill="#0" id="circle127"/>
	<circle cx="843.726" cy="131.142" r="4" fill="#0" id="circle128"/>
	<circle cx="845.204" cy="357.335" r="4" fill="#0" id="circle129"/>
	<circle cx="855.553" cy="141.49" r="4" fill="#0" id="circle130"/>
	<circle cx="859.988" cy="349.943" r="4" fill="#0" id="circle131"/>
	<circle cx="865.902" cy="153.317" r="4" fill="#0" id="circle132"/>
	<circle cx="874.772" cy="345.508" r="4" fill="#0" id="circle133"/>
	<circle cx="877.729" cy="163.666" r="4" fill="#0" id="circle134"/>
	<circle cx="888.077" cy="338.116" r="4" fill="#0" id="circle135"/>
	<circle cx="889.556" cy="174.015" r="4" fill="#0" id="circle136"/>
	<circle cx="902.861" cy="181.407" r="4" fill="#0" id="circle137"/>
	<circle cx="902.861" cy="338.116" r="4" fill="#0" id="circle138"/>
	<circle cx="917.645" cy="181.407" r="4" fill="#0" id="circle139"/>
	<circle cx="917.645" cy="338.116" r="4" fill="#0" id="circle140"/>
	<circle cx="930.951" cy="330.724" r="4" fill="#0" id="circle141"/>
	<circle cx="932.429" cy="181.407" r="4" fill="#0" id="circle142"/>
	<circle cx="942.778" cy="318.897" r="4" fill="#0" id="circle143"/>
	<circle cx="945.735" cy="188.799" r="4" fill="#0" id="circle144"/>
	<circle cx="951.648" cy="301.156" r="4" fill="#0" id="circle145"/>
	<circle cx="959.04" cy="196.191" r="4" fill="#0" id="circle146"/>
	<circle cx="963.475" cy="290.808" r="4" fill="#0" id="circle147"/>
	<circle cx="973.824" cy="200.626" r="4" fill="#0" id="circle148"/>
	<circle cx="973.824" cy="278.981" r="4" fill="#0" id="circle149"/>
	<circle cx="985.651" cy="268.632" r="4" fill="#0" id="circle150"/>
	<circle cx="987.13" cy="208.018" r="4" fill="#0" id="circle151"/>
	<circle cx="993.043" cy="253.848" r="4" fill="#0" id="circle152"/>
	<circle cx="994.522" cy="221.323" r="4" fill="#0" id="circle153"/>
	<circle cx="996" cy="236.107" r="4" fill="#0" id="circle154"/>
	</g>
</svg>