<?xml version="1.0" encoding="UTF-8" standalone="no"?>
<!-- Created with CurveBenchmark -->
<svg
	xmlns:dc="http://purl.org/dc/elements/1.1/"
	xmlns:cc="http://creativecommons.org/ns#"
	xmlns:rdf="http://www.w3.org/1999/02/22-rdf-syntax-ns#"
	xmlns:svg="http://www.w3.org/2000/svg"
	xmlns="http://www.w3.org/2000/svg"
	xmlns:sodipodi="http://sodipodi.sourceforge.net/DTD/sodipodi-0.dtd"
	xmlns:inkscape="http://www.inkscape.org/namespaces/inkscape"
	width="1000"
	height="1000"
	id="svg2"
	version="1.1"
	sodipodi:docname="manifold/discur-fish050.png.txt">
<defs
	id="defs4" />
<metadata
	id="metadata7">
	<rdf:RDF>
		<cc:Work
			rdf:about="">
			<dc:format>image/svg+xml</dc:format>
			<dc:type
				rdf:resource="http://purl.org/dc/dcmitype/StillImage" />
			<dc:title></dc:title>
		</cc:Work>
	</rdf:RDF>
</metadata>
<g
	inkscape:label="Layer 1"
	inkscape:groupmode="layer"
	id="layer1">
	<path style="fill:none;stroke:red;stroke-width:1px;stroke-linecap:butt;stroke-linejoin:miter;stroke-opacity:1" d="M 4,308.269 4,349.95 z" id="boundary" inkscape:connector-curvature="0" />
	<path style="fill:none;stroke:red;stroke-width:1px;stroke-linecap:butt;stroke-linejoin:miter;stroke-opacity:1" d="M 4,308.269 37.3445,283.261 z" id="boundary" inkscape:connector-curvature="0" />
	<path style="fill:none;stroke:red;stroke-width:1px;stroke-linecap:butt;stroke-linejoin:miter;stroke-opacity:1" d="M 4,349.95 24.8403,387.462 z" id="boundary" inkscape:connector-curvature="0" />
	<path style="fill:none;stroke:red;stroke-width:1px;stroke-linecap:butt;stroke-linejoin:miter;stroke-opacity:1" d="M 24.8403,387.462 45.6807,424.975 z" id="boundary" inkscape:connector-curvature="0" />
	<path style="fill:none;stroke:red;stroke-width:1px;stroke-linecap:butt;stroke-linejoin:miter;stroke-opacity:1" d="M 37.3445,283.261 70.6891,241.58 z" id="boundary" inkscape:connector-curvature="0" />
	<path style="fill:none;stroke:red;stroke-width:1px;stroke-linecap:butt;stroke-linejoin:miter;stroke-opacity:1" d="M 45.6807,424.975 70.6891,458.319 z" id="boundary" inkscape:connector-curvature="0" />
	<path style="fill:none;stroke:red;stroke-width:1px;stroke-linecap:butt;stroke-linejoin:miter;stroke-opacity:1" d="M 70.6891,241.58 104.034,216.571 z" id="boundary" inkscape:connector-curvature="0" />
	<path style="fill:none;stroke:red;stroke-width:1px;stroke-linecap:butt;stroke-linejoin:miter;stroke-opacity:1" d="M 70.6891,458.319 108.202,479.16 z" id="boundary" inkscape:connector-curvature="0" />
	<path style="fill:none;stroke:red;stroke-width:1px;stroke-linecap:butt;stroke-linejoin:miter;stroke-opacity:1" d="M 104.034,216.571 145.714,208.235 z" id="boundary" inkscape:connector-curvature="0" />
	<path style="fill:none;stroke:red;stroke-width:1px;stroke-linecap:butt;stroke-linejoin:miter;stroke-opacity:1" d="M 108.202,479.16 149.882,495.832 z" id="boundary" inkscape:connector-curvature="0" />
	<path style="fill:none;stroke:red;stroke-width:1px;stroke-linecap:butt;stroke-linejoin:miter;stroke-opacity:1" d="M 145.714,208.235 187.395,191.563 z" id="boundary" inkscape:connector-curvature="0" />
	<path style="fill:none;stroke:red;stroke-width:1px;stroke-linecap:butt;stroke-linejoin:miter;stroke-opacity:1" d="M 149.882,495.832 191.563,512.504 z" id="boundary" inkscape:connector-curvature="0" />
	<path style="fill:none;stroke:red;stroke-width:1px;stroke-linecap:butt;stroke-linejoin:miter;stroke-opacity:1" d="M 187.395,191.563 224.908,170.723 z" id="boundary" inkscape:connector-curvature="0" />
	<path style="fill:none;stroke:red;stroke-width:1px;stroke-linecap:butt;stroke-linejoin:miter;stroke-opacity:1" d="M 191.563,512.504 224.908,537.513 z" id="boundary" inkscape:connector-curvature="0" />
	<path style="fill:none;stroke:red;stroke-width:1px;stroke-linecap:butt;stroke-linejoin:miter;stroke-opacity:1" d="M 224.908,170.723 266.588,158.218 z" id="boundary" inkscape:connector-curvature="0" />
	<path style="fill:none;stroke:red;stroke-width:1px;stroke-linecap:butt;stroke-linejoin:miter;stroke-opacity:1" d="M 224.908,537.513 258.252,562.521 z" id="boundary" inkscape:connector-curvature="0" />
	<path style="fill:none;stroke:red;stroke-width:1px;stroke-linecap:butt;stroke-linejoin:miter;stroke-opacity:1" d="M 258.252,562.521 262.42,604.202 z" id="boundary" inkscape:connector-curvature="0" />
	<path style="fill:none;stroke:red;stroke-width:1px;stroke-linecap:butt;stroke-linejoin:miter;stroke-opacity:1" d="M 262.42,604.202 270.756,645.882 z" id="boundary" inkscape:connector-curvature="0" />
	<path style="fill:none;stroke:red;stroke-width:1px;stroke-linecap:butt;stroke-linejoin:miter;stroke-opacity:1" d="M 266.588,158.218 304.101,124.874 z" id="boundary" inkscape:connector-curvature="0" />
	<path style="fill:none;stroke:red;stroke-width:1px;stroke-linecap:butt;stroke-linejoin:miter;stroke-opacity:1" d="M 270.756,645.882 287.429,687.563 z" id="boundary" inkscape:connector-curvature="0" />
	<path style="fill:none;stroke:red;stroke-width:1px;stroke-linecap:butt;stroke-linejoin:miter;stroke-opacity:1" d="M 287.429,687.563 329.109,687.563 z" id="boundary" inkscape:connector-curvature="0" />
	<path style="fill:none;stroke:red;stroke-width:1px;stroke-linecap:butt;stroke-linejoin:miter;stroke-opacity:1" d="M 304.101,83.1933 304.101,124.874 z" id="boundary" inkscape:connector-curvature="0" />
	<path style="fill:none;stroke:red;stroke-width:1px;stroke-linecap:butt;stroke-linejoin:miter;stroke-opacity:1" d="M 304.101,83.1933 337.445,41.5126 z" id="boundary" inkscape:connector-curvature="0" />
	<path style="fill:none;stroke:red;stroke-width:1px;stroke-linecap:butt;stroke-linejoin:miter;stroke-opacity:1" d="M 329.109,687.563 362.454,654.218 z" id="boundary" inkscape:connector-curvature="0" />
	<path style="fill:none;stroke:red;stroke-width:1px;stroke-linecap:butt;stroke-linejoin:miter;stroke-opacity:1" d="M 337.445,41.5126 358.286,4 z" id="boundary" inkscape:connector-curvature="0" />
	<path style="fill:none;stroke:red;stroke-width:1px;stroke-linecap:butt;stroke-linejoin:miter;stroke-opacity:1" d="M 358.286,4 399.966,8.16807 z" id="boundary" inkscape:connector-curvature="0" />
	<path style="fill:none;stroke:red;stroke-width:1px;stroke-linecap:butt;stroke-linejoin:miter;stroke-opacity:1" d="M 362.454,654.218 383.294,608.37 z" id="boundary" inkscape:connector-curvature="0" />
	<path style="fill:none;stroke:red;stroke-width:1px;stroke-linecap:butt;stroke-linejoin:miter;stroke-opacity:1" d="M 383.294,608.37 416.639,637.546 z" id="boundary" inkscape:connector-curvature="0" />
	<path style="fill:none;stroke:red;stroke-width:1px;stroke-linecap:butt;stroke-linejoin:miter;stroke-opacity:1" d="M 399.966,8.16807 437.479,29.0084 z" id="boundary" inkscape:connector-curvature="0" />
	<path style="fill:none;stroke:red;stroke-width:1px;stroke-linecap:butt;stroke-linejoin:miter;stroke-opacity:1" d="M 416.639,637.546 449.983,662.555 z" id="boundary" inkscape:connector-curvature="0" />
	<path style="fill:none;stroke:red;stroke-width:1px;stroke-linecap:butt;stroke-linejoin:miter;stroke-opacity:1" d="M 437.479,29.0084 474.992,49.8487 z" id="boundary" inkscape:connector-curvature="0" />
	<path style="fill:none;stroke:red;stroke-width:1px;stroke-linecap:butt;stroke-linejoin:miter;stroke-opacity:1" d="M 449.983,662.555 483.328,687.563 z" id="boundary" inkscape:connector-curvature="0" />
	<path style="fill:none;stroke:red;stroke-width:1px;stroke-linecap:butt;stroke-linejoin:miter;stroke-opacity:1" d="M 474.992,49.8487 508.336,74.8571 z" id="boundary" inkscape:connector-curvature="0" />
	<path style="fill:none;stroke:red;stroke-width:1px;stroke-linecap:butt;stroke-linejoin:miter;stroke-opacity:1" d="M 483.328,687.563 525.008,658.387 z" id="boundary" inkscape:connector-curvature="0" />
	<path style="fill:none;stroke:red;stroke-width:1px;stroke-linecap:butt;stroke-linejoin:miter;stroke-opacity:1" d="M 491.664,533.345 508.336,575.025 z" id="boundary" inkscape:connector-curvature="0" />
	<path style="fill:none;stroke:red;stroke-width:1px;stroke-linecap:butt;stroke-linejoin:miter;stroke-opacity:1" d="M 491.664,533.345 533.345,529.176 z" id="boundary" inkscape:connector-curvature="0" />
	<path style="fill:none;stroke:red;stroke-width:1px;stroke-linecap:butt;stroke-linejoin:miter;stroke-opacity:1" d="M 508.336,74.8571 541.681,99.8655 z" id="boundary" inkscape:connector-curvature="0" />
	<path style="fill:none;stroke:red;stroke-width:1px;stroke-linecap:butt;stroke-linejoin:miter;stroke-opacity:1" d="M 508.336,575.025 525.008,616.706 z" id="boundary" inkscape:connector-curvature="0" />
	<path style="fill:none;stroke:red;stroke-width:1px;stroke-linecap:butt;stroke-linejoin:miter;stroke-opacity:1" d="M 525.008,616.706 525.008,658.387 z" id="boundary" inkscape:connector-curvature="0" />
	<path style="fill:none;stroke:red;stroke-width:1px;stroke-linecap:butt;stroke-linejoin:miter;stroke-opacity:1" d="M 533.345,529.176 575.025,529.176 z" id="boundary" inkscape:connector-curvature="0" />
	<path style="fill:none;stroke:red;stroke-width:1px;stroke-linecap:butt;stroke-linejoin:miter;stroke-opacity:1" d="M 541.681,99.8655 570.857,133.21 z" id="boundary" inkscape:connector-curvature="0" />
	<path style="fill:none;stroke:red;stroke-width:1px;stroke-linecap:butt;stroke-linejoin:miter;stroke-opacity:1" d="M 570.857,133.21 612.538,141.546 z" id="boundary" inkscape:connector-curvature="0" />
	<path style="fill:none;stroke:red;stroke-width:1px;stroke-linecap:butt;stroke-linejoin:miter;stroke-opacity:1" d="M 575.025,529.176 616.706,520.84 z" id="boundary" inkscape:connector-curvature="0" />
	<path style="fill:none;stroke:red;stroke-width:1px;stroke-linecap:butt;stroke-linejoin:miter;stroke-opacity:1" d="M 612.538,141.546 650.05,120.706 z" id="boundary" inkscape:connector-curvature="0" />
	<path style="fill:none;stroke:red;stroke-width:1px;stroke-linecap:butt;stroke-linejoin:miter;stroke-opacity:1" d="M 616.706,520.84 658.387,537.513 z" id="boundary" inkscape:connector-curvature="0" />
	<path style="fill:none;stroke:red;stroke-width:1px;stroke-linecap:butt;stroke-linejoin:miter;stroke-opacity:1" d="M 650.05,120.706 691.731,124.874 z" id="boundary" inkscape:connector-curvature="0" />
	<path style="fill:none;stroke:red;stroke-width:1px;stroke-linecap:butt;stroke-linejoin:miter;stroke-opacity:1" d="M 658.387,537.513 700.067,554.185 z" id="boundary" inkscape:connector-curvature="0" />
	<path style="fill:none;stroke:red;stroke-width:1px;stroke-linecap:butt;stroke-linejoin:miter;stroke-opacity:1" d="M 691.731,124.874 725.076,149.882 z" id="boundary" inkscape:connector-curvature="0" />
	<path style="fill:none;stroke:red;stroke-width:1px;stroke-linecap:butt;stroke-linejoin:miter;stroke-opacity:1" d="M 700.067,554.185 741.748,554.185 z" id="boundary" inkscape:connector-curvature="0" />
	<path style="fill:none;stroke:red;stroke-width:1px;stroke-linecap:butt;stroke-linejoin:miter;stroke-opacity:1" d="M 725.076,149.882 750.084,183.227 z" id="boundary" inkscape:connector-curvature="0" />
	<path style="fill:none;stroke:red;stroke-width:1px;stroke-linecap:butt;stroke-linejoin:miter;stroke-opacity:1" d="M 741.748,554.185 775.092,508.336 z" id="boundary" inkscape:connector-curvature="0" />
	<path style="fill:none;stroke:red;stroke-width:1px;stroke-linecap:butt;stroke-linejoin:miter;stroke-opacity:1" d="M 750.084,183.227 775.092,216.571 z" id="boundary" inkscape:connector-curvature="0" />
	<path style="fill:none;stroke:red;stroke-width:1px;stroke-linecap:butt;stroke-linejoin:miter;stroke-opacity:1" d="M 775.092,216.571 791.765,258.252 z" id="boundary" inkscape:connector-curvature="0" />
	<path style="fill:none;stroke:red;stroke-width:1px;stroke-linecap:butt;stroke-linejoin:miter;stroke-opacity:1" d="M 775.092,508.336 791.765,458.319 z" id="boundary" inkscape:connector-curvature="0" />
	<path style="fill:none;stroke:red;stroke-width:1px;stroke-linecap:butt;stroke-linejoin:miter;stroke-opacity:1" d="M 791.765,258.252 833.445,262.42 z" id="boundary" inkscape:connector-curvature="0" />
	<path style="fill:none;stroke:red;stroke-width:1px;stroke-linecap:butt;stroke-linejoin:miter;stroke-opacity:1" d="M 791.765,416.639 791.765,458.319 z" id="boundary" inkscape:connector-curvature="0" />
	<path style="fill:none;stroke:red;stroke-width:1px;stroke-linecap:butt;stroke-linejoin:miter;stroke-opacity:1" d="M 791.765,416.639 833.445,429.143 z" id="boundary" inkscape:connector-curvature="0" />
	<path style="fill:none;stroke:red;stroke-width:1px;stroke-linecap:butt;stroke-linejoin:miter;stroke-opacity:1" d="M 833.445,262.42 866.79,237.412 z" id="boundary" inkscape:connector-curvature="0" />
	<path style="fill:none;stroke:red;stroke-width:1px;stroke-linecap:butt;stroke-linejoin:miter;stroke-opacity:1" d="M 833.445,429.143 862.622,462.487 z" id="boundary" inkscape:connector-curvature="0" />
	<path style="fill:none;stroke:red;stroke-width:1px;stroke-linecap:butt;stroke-linejoin:miter;stroke-opacity:1" d="M 862.622,462.487 895.966,487.496 z" id="boundary" inkscape:connector-curvature="0" />
	<path style="fill:none;stroke:red;stroke-width:1px;stroke-linecap:butt;stroke-linejoin:miter;stroke-opacity:1" d="M 866.79,237.412 900.134,212.403 z" id="boundary" inkscape:connector-curvature="0" />
	<path style="fill:none;stroke:red;stroke-width:1px;stroke-linecap:butt;stroke-linejoin:miter;stroke-opacity:1" d="M 895.966,487.496 937.647,504.168 z" id="boundary" inkscape:connector-curvature="0" />
	<path style="fill:none;stroke:red;stroke-width:1px;stroke-linecap:butt;stroke-linejoin:miter;stroke-opacity:1" d="M 900.134,212.403 937.647,191.563 z" id="boundary" inkscape:connector-curvature="0" />
	<path style="fill:none;stroke:red;stroke-width:1px;stroke-linecap:butt;stroke-linejoin:miter;stroke-opacity:1" d="M 937.647,191.563 979.328,183.227 z" id="boundary" inkscape:connector-curvature="0" />
	<path style="fill:none;stroke:red;stroke-width:1px;stroke-linecap:butt;stroke-linejoin:miter;stroke-opacity:1" d="M 937.647,504.168 979.328,512.504 z" id="boundary" inkscape:connector-curvature="0" />
	<path style="fill:none;stroke:red;stroke-width:1px;stroke-linecap:butt;stroke-linejoin:miter;stroke-opacity:1" d="M 979.328,183.227 991.832,249.916 z" id="boundary" inkscape:connector-curvature="0" />
	<path style="fill:none;stroke:red;stroke-width:1px;stroke-linecap:butt;stroke-linejoin:miter;stroke-opacity:1" d="M 979.328,512.504 996,458.319 z" id="boundary" inkscape:connector-curvature="0" />
	<path style="fill:none;stroke:red;stroke-width:1px;stroke-linecap:butt;stroke-linejoin:miter;stroke-opacity:1" d="M 983.496,291.597 983.496,333.277 z" id="boundary" inkscape:connector-curvature="0" />
	<path style="fill:none;stroke:red;stroke-width:1px;stroke-linecap:butt;stroke-linejoin:miter;stroke-opacity:1" d="M 983.496,291.597 991.832,249.916 z" id="boundary" inkscape:connector-curvature="0" />
	<path style="fill:none;stroke:red;stroke-width:1px;stroke-linecap:butt;stroke-linejoin:miter;stroke-opacity:1" d="M 983.496,333.277 983.496,374.958 z" id="boundary" inkscape:connector-curvature="0" />
	<path style="fill:none;stroke:red;stroke-width:1px;stroke-linecap:butt;stroke-linejoin:miter;stroke-opacity:1" d="M 983.496,374.958 987.664,416.639 z" id="boundary" inkscape:connector-curvature="0" />
	<path style="fill:none;stroke:red;stroke-width:1px;stroke-linecap:butt;stroke-linejoin:miter;stroke-opacity:1" d="M 987.664,416.639 996,458.319 z" id="boundary" inkscape:connector-curvature="0" />
	<circle cx="4" cy="308.269" r="4" fill="#0" id="circle0"/>
	<circle cx="4" cy="349.95" r="4" fill="#0" id="circle1"/>
	<circle cx="24.8403" cy="387.462" r="4" fill="#0" id="circle2"/>
	<circle cx="37.3445" cy="283.261" r="4" fill="#0" id="circle3"/>
	<circle cx="45.6807" cy="424.975" r="4" fill="#0" id="circle4"/>
	<circle cx="70.6891" cy="241.58" r="4" fill="#0" id="circle5"/>
	<circle cx="70.6891" cy="458.319" r="4" fill="#0" id="circle6"/>
	<circle cx="104.034" cy="216.571" r="4" fill="#0" id="circle7"/>
	<circle cx="108.202" cy="479.16" r="4" fill="#0" id="circle8"/>
	<circle cx="145.714" cy="208.235" r="4" fill="#0" id="circle9"/>
	<circle cx="149.882" cy="495.832" r="4" fill="#0" id="circle10"/>
	<circle cx="187.395" cy="191.563" r="4" fill="#0" id="circle11"/>
	<circle cx="191.563" cy="512.504" r="4" fill="#0" id="circle12"/>
	<circle cx="224.908" cy="170.723" r="4" fill="#0" id="circle13"/>
	<circle cx="224.908" cy="537.513" r="4" fill="#0" id="circle14"/>
	<circle cx="258.252" cy="562.521" r="4" fill="#0" id="circle15"/>
	<circle cx="262.42" cy="604.202" r="4" fill="#0" id="circle16"/>
	<circle cx="266.588" cy="158.218" r="4" fill="#0" id="circle17"/>
	<circle cx="270.756" cy="645.882" r="4" fill="#0" id="circle18"/>
	<circle cx="287.429" cy="687.563" r="4" fill="#0" id="circle19"/>
	<circle cx="304.101" cy="83.1933" r="4" fill="#0" id="circle20"/>
	<circle cx="304.101" cy="124.874" r="4" fill="#0" id="circle21"/>
	<circle cx="329.109" cy="687.563" r="4" fill="#0" id="circle22"/>
	<circle cx="337.445" cy="41.5126" r="4" fill="#0" id="circle23"/>
	<circle cx="358.286" cy="4" r="4" fill="#0" id="circle24"/>
	<circle cx="362.454" cy="654.218" r="4" fill="#0" id="circle25"/>
	<circle cx="383.294" cy="608.37" r="4" fill="#0" id="circle26"/>
	<circle cx="399.966" cy="8.16807" r="4" fill="#0" id="circle27"/>
	<circle cx="416.639" cy="637.546" r="4" fill="#0" id="circle28"/>
	<circle cx="437.479" cy="29.0084" r="4" fill="#0" id="circle29"/>
	<circle cx="449.983" cy="662.555" r="4" fill="#0" id="circle30"/>
	<circle cx="474.992" cy="49.8487" r="4" fill="#0" id="circle31"/>
	<circle cx="483.328" cy="687.563" r="4" fill="#0" id="circle32"/>
	<circle cx="491.664" cy="533.345" r="4" fill="#0" id="circle33"/>
	<circle cx="508.336" cy="74.8571" r="4" fill="#0" id="circle34"/>
	<circle cx="508.336" cy="575.025" r="4" fill="#0" id="circle35"/>
	<circle cx="525.008" cy="616.706" r="4" fill="#0" id="circle36"/>
	<circle cx="525.008" cy="658.387" r="4" fill="#0" id="circle37"/>
	<circle cx="533.345" cy="529.176" r="4" fill="#0" id="circle38"/>
	<circle cx="541.681" cy="99.8655" r="4" fill="#0" id="circle39"/>
	<circle cx="570.857" cy="133.21" r="4" fill="#0" id="circle40"/>
	<circle cx="575.025" cy="529.176" r="4" fill="#0" id="circle41"/>
	<circle cx="612.538" cy="141.546" r="4" fill="#0" id="circle42"/>
	<circle cx="616.706" cy="520.84" r="4" fill="#0" id="circle43"/>
	<circle cx="650.05" cy="120.706" r="4" fill="#0" id="circle44"/>
	<circle cx="658.387" cy="537.513" r="4" fill="#0" id="circle45"/>
	<circle cx="691.731" cy="124.874" r="4" fill="#0" id="circle46"/>
	<circle cx="700.067" cy="554.185" r="4" fill="#0" id="circle47"/>
	<circle cx="725.076" cy="149.882" r="4" fill="#0" id="circle48"/>
	<circle cx="741.748" cy="554.185" r="4" fill="#0" id="circle49"/>
	<circle cx="750.084" cy="183.227" r="4" fill="#0" id="circle50"/>
	<circle cx="775.092" cy="216.571" r="4" fill="#0" id="circle51"/>
	<circle cx="775.092" cy="508.336" r="4" fill="#0" id="circle52"/>
	<circle cx="791.765" cy="258.252" r="4" fill="#0" id="circle53"/>
	<circle cx="791.765" cy="416.639" r="4" fill="#0" id="circle54"/>
	<circle cx="791.765" cy="458.319" r="4" fill="#0" id="circle55"/>
	<circle cx="833.445" cy="262.42" r="4" fill="#0" id="circle56"/>
	<circle cx="833.445" cy="429.143" r="4" fill="#0" id="circle57"/>
	<circle cx="862.622" cy="462.487" r="4" fill="#0" id="circle58"/>
	<circle cx="866.79" cy="237.412" r="4" fill="#0" id="circle59"/>
	<circle cx="895.966" cy="487.496" r="4" fill="#0" id="circle60"/>
	<circle cx="900.134" cy="212.403" r="4" fill="#0" id="circle61"/>
	<circle cx="937.647" cy="191.563" r="4" fill="#0" id="circle62"/>
	<circle cx="937.647" cy="504.168" r="4" fill="#0" id="circle63"/>
	<circle cx="979.328" cy="183.227" r="4" fill="#0" id="circle64"/>
	<circle cx="979.328" cy="512.504" r="4" fill="#0" id="circle65"/>
	<circle cx="983.496" cy="291.597" r="4" fill="#0" id="circle66"/>
	<circle cx="983.496" cy="333.277" r="4" fill="#0" id="circle67"/>
	<circle cx="983.496" cy="374.958" r="4" fill="#0" id="circle68"/>
	<circle cx="987.664" cy="416.639" r="4" fill="#0" id="circle69"/>
	<circle cx="991.832" cy="249.916" r="4" fill="#0" id="circle70"/>
	<circle cx="996" cy="458.319" r="4" fill="#0" id="circle71"/>
	</g>
</svg>