<?xml version="1.0" encoding="UTF-8" standalone="no"?>
<!-- Created with CurveBenchmark -->
<svg
	xmlns:dc="http://purl.org/dc/elements/1.1/"
	xmlns:cc="http://creativecommons.org/ns#"
	xmlns:rdf="http://www.w3.org/1999/02/22-rdf-syntax-ns#"
	xmlns:svg="http://www.w3.org/2000/svg"
	xmlns="http://www.w3.org/2000/svg"
	xmlns:sodipodi="http://sodipodi.sourceforge.net/DTD/sodipodi-0.dtd"
	xmlns:inkscape="http://www.inkscape.org/namespaces/inkscape"
	width="1000"
	height="1000"
	id="svg2"
	version="1.1"
	sodipodi:docname="manifold/discur-chicken-13.png.txt">
<defs
	id="defs4" />
<metadata
	id="metadata7">
	<rdf:RDF>
		<cc:Work
			rdf:about="">
			<dc:format>image/svg+xml</dc:format>
			<dc:type
				rdf:resource="http://purl.org/dc/dcmitype/StillImage" />
			<dc:title></dc:title>
		</cc:Work>
	</rdf:RDF>
</metadata>
<g
	inkscape:label="Layer 1"
	inkscape:groupmode="layer"
	id="layer1">
	<path style="fill:none;stroke:red;stroke-width:1px;stroke-linecap:butt;stroke-linejoin:miter;stroke-opacity:1" d="M 4,230.554 4,252.55 z" id="boundary" inkscape:connector-curvature="0" />
	<path style="fill:none;stroke:red;stroke-width:1px;stroke-linecap:butt;stroke-linejoin:miter;stroke-opacity:1" d="M 4,230.554 21.5965,212.958 z" id="boundary" inkscape:connector-curvature="0" />
	<path style="fill:none;stroke:red;stroke-width:1px;stroke-linecap:butt;stroke-linejoin:miter;stroke-opacity:1" d="M 4,252.55 14.9978,272.346 z" id="boundary" inkscape:connector-curvature="0" />
	<path style="fill:none;stroke:red;stroke-width:1px;stroke-linecap:butt;stroke-linejoin:miter;stroke-opacity:1" d="M 14.9978,272.346 36.9933,281.144 z" id="boundary" inkscape:connector-curvature="0" />
	<path style="fill:none;stroke:red;stroke-width:1px;stroke-linecap:butt;stroke-linejoin:miter;stroke-opacity:1" d="M 21.5965,212.958 36.9933,186.563 z" id="boundary" inkscape:connector-curvature="0" />
	<path style="fill:none;stroke:red;stroke-width:1px;stroke-linecap:butt;stroke-linejoin:miter;stroke-opacity:1" d="M 36.9933,164.568 36.9933,186.563 z" id="boundary" inkscape:connector-curvature="0" />
	<path style="fill:none;stroke:red;stroke-width:1px;stroke-linecap:butt;stroke-linejoin:miter;stroke-opacity:1" d="M 36.9933,164.568 47.9911,142.572 z" id="boundary" inkscape:connector-curvature="0" />
	<path style="fill:none;stroke:red;stroke-width:1px;stroke-linecap:butt;stroke-linejoin:miter;stroke-opacity:1" d="M 36.9933,281.144 50.1907,298.741 z" id="boundary" inkscape:connector-curvature="0" />
	<path style="fill:none;stroke:red;stroke-width:1px;stroke-linecap:butt;stroke-linejoin:miter;stroke-opacity:1" d="M 47.9911,142.572 65.5876,124.976 z" id="boundary" inkscape:connector-curvature="0" />
	<path style="fill:none;stroke:red;stroke-width:1px;stroke-linecap:butt;stroke-linejoin:miter;stroke-opacity:1" d="M 50.1907,298.741 61.1885,318.537 z" id="boundary" inkscape:connector-curvature="0" />
	<path style="fill:none;stroke:red;stroke-width:1px;stroke-linecap:butt;stroke-linejoin:miter;stroke-opacity:1" d="M 61.1885,318.537 76.5854,336.133 z" id="boundary" inkscape:connector-curvature="0" />
	<path style="fill:none;stroke:red;stroke-width:1px;stroke-linecap:butt;stroke-linejoin:miter;stroke-opacity:1" d="M 65.5876,124.976 80.9845,98.5809 z" id="boundary" inkscape:connector-curvature="0" />
	<path style="fill:none;stroke:red;stroke-width:1px;stroke-linecap:butt;stroke-linejoin:miter;stroke-opacity:1" d="M 76.5854,336.133 87.5831,355.929 z" id="boundary" inkscape:connector-curvature="0" />
	<path style="fill:none;stroke:red;stroke-width:1px;stroke-linecap:butt;stroke-linejoin:miter;stroke-opacity:1" d="M 80.9845,98.5809 98.5809,80.9845 z" id="boundary" inkscape:connector-curvature="0" />
	<path style="fill:none;stroke:red;stroke-width:1px;stroke-linecap:butt;stroke-linejoin:miter;stroke-opacity:1" d="M 87.5831,355.929 102.98,373.525 z" id="boundary" inkscape:connector-curvature="0" />
	<path style="fill:none;stroke:red;stroke-width:1px;stroke-linecap:butt;stroke-linejoin:miter;stroke-opacity:1" d="M 98.5809,80.9845 118.377,69.9867 z" id="boundary" inkscape:connector-curvature="0" />
	<path style="fill:none;stroke:red;stroke-width:1px;stroke-linecap:butt;stroke-linejoin:miter;stroke-opacity:1" d="M 102.98,373.525 113.978,393.322 z" id="boundary" inkscape:connector-curvature="0" />
	<path style="fill:none;stroke:red;stroke-width:1px;stroke-linecap:butt;stroke-linejoin:miter;stroke-opacity:1" d="M 113.978,393.322 124.976,413.118 z" id="boundary" inkscape:connector-curvature="0" />
	<path style="fill:none;stroke:red;stroke-width:1px;stroke-linecap:butt;stroke-linejoin:miter;stroke-opacity:1" d="M 118.377,69.9867 140.373,69.9867 z" id="boundary" inkscape:connector-curvature="0" />
	<path style="fill:none;stroke:red;stroke-width:1px;stroke-linecap:butt;stroke-linejoin:miter;stroke-opacity:1" d="M 124.976,413.118 124.976,435.113 z" id="boundary" inkscape:connector-curvature="0" />
	<path style="fill:none;stroke:red;stroke-width:1px;stroke-linecap:butt;stroke-linejoin:miter;stroke-opacity:1" d="M 124.976,435.113 135.973,454.909 z" id="boundary" inkscape:connector-curvature="0" />
	<path style="fill:none;stroke:red;stroke-width:1px;stroke-linecap:butt;stroke-linejoin:miter;stroke-opacity:1" d="M 135.973,454.909 135.973,476.905 z" id="boundary" inkscape:connector-curvature="0" />
	<path style="fill:none;stroke:red;stroke-width:1px;stroke-linecap:butt;stroke-linejoin:miter;stroke-opacity:1" d="M 135.973,476.905 135.973,498.9 z" id="boundary" inkscape:connector-curvature="0" />
	<path style="fill:none;stroke:red;stroke-width:1px;stroke-linecap:butt;stroke-linejoin:miter;stroke-opacity:1" d="M 135.973,498.9 135.973,520.896 z" id="boundary" inkscape:connector-curvature="0" />
	<path style="fill:none;stroke:red;stroke-width:1px;stroke-linecap:butt;stroke-linejoin:miter;stroke-opacity:1" d="M 135.973,520.896 135.973,542.891 z" id="boundary" inkscape:connector-curvature="0" />
	<path style="fill:none;stroke:red;stroke-width:1px;stroke-linecap:butt;stroke-linejoin:miter;stroke-opacity:1" d="M 135.973,542.891 135.973,564.887 z" id="boundary" inkscape:connector-curvature="0" />
	<path style="fill:none;stroke:red;stroke-width:1px;stroke-linecap:butt;stroke-linejoin:miter;stroke-opacity:1" d="M 135.973,564.887 140.373,586.882 z" id="boundary" inkscape:connector-curvature="0" />
	<path style="fill:none;stroke:red;stroke-width:1px;stroke-linecap:butt;stroke-linejoin:miter;stroke-opacity:1" d="M 140.373,69.9867 162.368,72.1863 z" id="boundary" inkscape:connector-curvature="0" />
	<path style="fill:none;stroke:red;stroke-width:1px;stroke-linecap:butt;stroke-linejoin:miter;stroke-opacity:1" d="M 140.373,586.882 151.37,606.678 z" id="boundary" inkscape:connector-curvature="0" />
	<path style="fill:none;stroke:red;stroke-width:1px;stroke-linecap:butt;stroke-linejoin:miter;stroke-opacity:1" d="M 151.37,606.678 168.967,622.075 z" id="boundary" inkscape:connector-curvature="0" />
	<path style="fill:none;stroke:red;stroke-width:1px;stroke-linecap:butt;stroke-linejoin:miter;stroke-opacity:1" d="M 162.368,72.1863 179.965,58.9889 z" id="boundary" inkscape:connector-curvature="0" />
	<path style="fill:none;stroke:red;stroke-width:1px;stroke-linecap:butt;stroke-linejoin:miter;stroke-opacity:1" d="M 168.967,622.075 182.164,639.672 z" id="boundary" inkscape:connector-curvature="0" />
	<path style="fill:none;stroke:red;stroke-width:1px;stroke-linecap:butt;stroke-linejoin:miter;stroke-opacity:1" d="M 179.965,58.9889 201.96,58.9889 z" id="boundary" inkscape:connector-curvature="0" />
	<path style="fill:none;stroke:red;stroke-width:1px;stroke-linecap:butt;stroke-linejoin:miter;stroke-opacity:1" d="M 182.164,639.672 199.761,655.069 z" id="boundary" inkscape:connector-curvature="0" />
	<path style="fill:none;stroke:red;stroke-width:1px;stroke-linecap:butt;stroke-linejoin:miter;stroke-opacity:1" d="M 199.761,655.069 215.157,672.665 z" id="boundary" inkscape:connector-curvature="0" />
	<path style="fill:none;stroke:red;stroke-width:1px;stroke-linecap:butt;stroke-linejoin:miter;stroke-opacity:1" d="M 201.96,58.9889 221.756,47.9911 z" id="boundary" inkscape:connector-curvature="0" />
	<path style="fill:none;stroke:red;stroke-width:1px;stroke-linecap:butt;stroke-linejoin:miter;stroke-opacity:1" d="M 215.157,672.665 237.153,681.463 z" id="boundary" inkscape:connector-curvature="0" />
	<path style="fill:none;stroke:red;stroke-width:1px;stroke-linecap:butt;stroke-linejoin:miter;stroke-opacity:1" d="M 221.756,47.9911 241.552,36.9933 z" id="boundary" inkscape:connector-curvature="0" />
	<path style="fill:none;stroke:red;stroke-width:1px;stroke-linecap:butt;stroke-linejoin:miter;stroke-opacity:1" d="M 237.153,681.463 259.149,688.062 z" id="boundary" inkscape:connector-curvature="0" />
	<path style="fill:none;stroke:red;stroke-width:1px;stroke-linecap:butt;stroke-linejoin:miter;stroke-opacity:1" d="M 241.552,36.9933 263.548,36.9933 z" id="boundary" inkscape:connector-curvature="0" />
	<path style="fill:none;stroke:red;stroke-width:1px;stroke-linecap:butt;stroke-linejoin:miter;stroke-opacity:1" d="M 259.149,688.062 278.945,699.06 z" id="boundary" inkscape:connector-curvature="0" />
	<path style="fill:none;stroke:red;stroke-width:1px;stroke-linecap:butt;stroke-linejoin:miter;stroke-opacity:1" d="M 263.548,36.9933 285.543,36.9933 z" id="boundary" inkscape:connector-curvature="0" />
	<path style="fill:none;stroke:red;stroke-width:1px;stroke-linecap:butt;stroke-linejoin:miter;stroke-opacity:1" d="M 278.945,699.06 298.741,710.058 z" id="boundary" inkscape:connector-curvature="0" />
	<path style="fill:none;stroke:red;stroke-width:1px;stroke-linecap:butt;stroke-linejoin:miter;stroke-opacity:1" d="M 285.543,36.9933 305.339,47.9911 z" id="boundary" inkscape:connector-curvature="0" />
	<path style="fill:none;stroke:red;stroke-width:1px;stroke-linecap:butt;stroke-linejoin:miter;stroke-opacity:1" d="M 298.741,710.058 318.537,721.055 z" id="boundary" inkscape:connector-curvature="0" />
	<path style="fill:none;stroke:red;stroke-width:1px;stroke-linecap:butt;stroke-linejoin:miter;stroke-opacity:1" d="M 305.339,47.9911 314.137,69.9867 z" id="boundary" inkscape:connector-curvature="0" />
	<path style="fill:none;stroke:red;stroke-width:1px;stroke-linecap:butt;stroke-linejoin:miter;stroke-opacity:1" d="M 314.137,69.9867 336.133,76.5854 z" id="boundary" inkscape:connector-curvature="0" />
	<path style="fill:none;stroke:red;stroke-width:1px;stroke-linecap:butt;stroke-linejoin:miter;stroke-opacity:1" d="M 318.537,721.055 340.532,729.854 z" id="boundary" inkscape:connector-curvature="0" />
	<path style="fill:none;stroke:red;stroke-width:1px;stroke-linecap:butt;stroke-linejoin:miter;stroke-opacity:1" d="M 336.133,76.5854 347.131,96.3814 z" id="boundary" inkscape:connector-curvature="0" />
	<path style="fill:none;stroke:red;stroke-width:1px;stroke-linecap:butt;stroke-linejoin:miter;stroke-opacity:1" d="M 340.532,729.854 358.129,743.051 z" id="boundary" inkscape:connector-curvature="0" />
	<path style="fill:none;stroke:red;stroke-width:1px;stroke-linecap:butt;stroke-linejoin:miter;stroke-opacity:1" d="M 347.131,96.3814 360.328,113.978 z" id="boundary" inkscape:connector-curvature="0" />
	<path style="fill:none;stroke:red;stroke-width:1px;stroke-linecap:butt;stroke-linejoin:miter;stroke-opacity:1" d="M 358.129,743.051 377.925,754.049 z" id="boundary" inkscape:connector-curvature="0" />
	<path style="fill:none;stroke:red;stroke-width:1px;stroke-linecap:butt;stroke-linejoin:miter;stroke-opacity:1" d="M 360.328,113.978 369.126,135.973 z" id="boundary" inkscape:connector-curvature="0" />
	<path style="fill:none;stroke:red;stroke-width:1px;stroke-linecap:butt;stroke-linejoin:miter;stroke-opacity:1" d="M 366.927,868.426 366.927,890.421 z" id="boundary" inkscape:connector-curvature="0" />
	<path style="fill:none;stroke:red;stroke-width:1px;stroke-linecap:butt;stroke-linejoin:miter;stroke-opacity:1" d="M 366.927,868.426 388.922,861.827 z" id="boundary" inkscape:connector-curvature="0" />
	<path style="fill:none;stroke:red;stroke-width:1px;stroke-linecap:butt;stroke-linejoin:miter;stroke-opacity:1" d="M 366.927,890.421 384.523,905.818 z" id="boundary" inkscape:connector-curvature="0" />
	<path style="fill:none;stroke:red;stroke-width:1px;stroke-linecap:butt;stroke-linejoin:miter;stroke-opacity:1" d="M 369.126,135.973 386.723,149.171 z" id="boundary" inkscape:connector-curvature="0" />
	<path style="fill:none;stroke:red;stroke-width:1px;stroke-linecap:butt;stroke-linejoin:miter;stroke-opacity:1" d="M 377.925,754.049 399.92,754.049 z" id="boundary" inkscape:connector-curvature="0" />
	<path style="fill:none;stroke:red;stroke-width:1px;stroke-linecap:butt;stroke-linejoin:miter;stroke-opacity:1" d="M 384.523,905.818 406.519,908.018 z" id="boundary" inkscape:connector-curvature="0" />
	<path style="fill:none;stroke:red;stroke-width:1px;stroke-linecap:butt;stroke-linejoin:miter;stroke-opacity:1" d="M 386.723,149.171 391.122,171.166 z" id="boundary" inkscape:connector-curvature="0" />
	<path style="fill:none;stroke:red;stroke-width:1px;stroke-linecap:butt;stroke-linejoin:miter;stroke-opacity:1" d="M 388.922,861.827 410.918,857.428 z" id="boundary" inkscape:connector-curvature="0" />
	<path style="fill:none;stroke:red;stroke-width:1px;stroke-linecap:butt;stroke-linejoin:miter;stroke-opacity:1" d="M 391.122,171.166 391.122,193.162 z" id="boundary" inkscape:connector-curvature="0" />
	<path style="fill:none;stroke:red;stroke-width:1px;stroke-linecap:butt;stroke-linejoin:miter;stroke-opacity:1" d="M 391.122,193.162 391.122,215.157 z" id="boundary" inkscape:connector-curvature="0" />
	<path style="fill:none;stroke:red;stroke-width:1px;stroke-linecap:butt;stroke-linejoin:miter;stroke-opacity:1" d="M 391.122,215.157 391.122,237.153 z" id="boundary" inkscape:connector-curvature="0" />
	<path style="fill:none;stroke:red;stroke-width:1px;stroke-linecap:butt;stroke-linejoin:miter;stroke-opacity:1" d="M 391.122,237.153 395.521,259.149 z" id="boundary" inkscape:connector-curvature="0" />
	<path style="fill:none;stroke:red;stroke-width:1px;stroke-linecap:butt;stroke-linejoin:miter;stroke-opacity:1" d="M 395.521,259.149 413.118,274.545 z" id="boundary" inkscape:connector-curvature="0" />
	<path style="fill:none;stroke:red;stroke-width:1px;stroke-linecap:butt;stroke-linejoin:miter;stroke-opacity:1" d="M 399.92,754.049 399.92,776.044 z" id="boundary" inkscape:connector-curvature="0" />
	<path style="fill:none;stroke:red;stroke-width:1px;stroke-linecap:butt;stroke-linejoin:miter;stroke-opacity:1" d="M 399.92,776.044 413.118,793.641 z" id="boundary" inkscape:connector-curvature="0" />
	<path style="fill:none;stroke:red;stroke-width:1px;stroke-linecap:butt;stroke-linejoin:miter;stroke-opacity:1" d="M 406.519,908.018 428.514,908.018 z" id="boundary" inkscape:connector-curvature="0" />
	<path style="fill:none;stroke:red;stroke-width:1px;stroke-linecap:butt;stroke-linejoin:miter;stroke-opacity:1" d="M 410.918,857.428 421.916,837.632 z" id="boundary" inkscape:connector-curvature="0" />
	<path style="fill:none;stroke:red;stroke-width:1px;stroke-linecap:butt;stroke-linejoin:miter;stroke-opacity:1" d="M 413.118,274.545 432.914,285.543 z" id="boundary" inkscape:connector-curvature="0" />
	<path style="fill:none;stroke:red;stroke-width:1px;stroke-linecap:butt;stroke-linejoin:miter;stroke-opacity:1" d="M 413.118,793.641 421.916,815.636 z" id="boundary" inkscape:connector-curvature="0" />
	<path style="fill:none;stroke:red;stroke-width:1px;stroke-linecap:butt;stroke-linejoin:miter;stroke-opacity:1" d="M 421.916,815.636 421.916,837.632 z" id="boundary" inkscape:connector-curvature="0" />
	<path style="fill:none;stroke:red;stroke-width:1px;stroke-linecap:butt;stroke-linejoin:miter;stroke-opacity:1" d="M 428.514,908.018 450.51,908.018 z" id="boundary" inkscape:connector-curvature="0" />
	<path style="fill:none;stroke:red;stroke-width:1px;stroke-linecap:butt;stroke-linejoin:miter;stroke-opacity:1" d="M 432.914,285.543 450.51,300.94 z" id="boundary" inkscape:connector-curvature="0" />
	<path style="fill:none;stroke:red;stroke-width:1px;stroke-linecap:butt;stroke-linejoin:miter;stroke-opacity:1" d="M 450.51,300.94 472.506,300.94 z" id="boundary" inkscape:connector-curvature="0" />
	<path style="fill:none;stroke:red;stroke-width:1px;stroke-linecap:butt;stroke-linejoin:miter;stroke-opacity:1" d="M 450.51,908.018 472.506,916.816 z" id="boundary" inkscape:connector-curvature="0" />
	<path style="fill:none;stroke:red;stroke-width:1px;stroke-linecap:butt;stroke-linejoin:miter;stroke-opacity:1" d="M 457.109,831.033 468.106,850.829 z" id="boundary" inkscape:connector-curvature="0" />
	<path style="fill:none;stroke:red;stroke-width:1px;stroke-linecap:butt;stroke-linejoin:miter;stroke-opacity:1" d="M 457.109,831.033 474.705,815.636 z" id="boundary" inkscape:connector-curvature="0" />
	<path style="fill:none;stroke:red;stroke-width:1px;stroke-linecap:butt;stroke-linejoin:miter;stroke-opacity:1" d="M 468.106,850.829 490.102,850.829 z" id="boundary" inkscape:connector-curvature="0" />
	<path style="fill:none;stroke:red;stroke-width:1px;stroke-linecap:butt;stroke-linejoin:miter;stroke-opacity:1" d="M 472.506,300.94 494.501,300.94 z" id="boundary" inkscape:connector-curvature="0" />
	<path style="fill:none;stroke:red;stroke-width:1px;stroke-linecap:butt;stroke-linejoin:miter;stroke-opacity:1" d="M 472.506,916.816 494.501,916.816 z" id="boundary" inkscape:connector-curvature="0" />
	<path style="fill:none;stroke:red;stroke-width:1px;stroke-linecap:butt;stroke-linejoin:miter;stroke-opacity:1" d="M 474.705,815.636 490.102,798.04 z" id="boundary" inkscape:connector-curvature="0" />
	<path style="fill:none;stroke:red;stroke-width:1px;stroke-linecap:butt;stroke-linejoin:miter;stroke-opacity:1" d="M 490.102,798.04 512.098,802.439 z" id="boundary" inkscape:connector-curvature="0" />
	<path style="fill:none;stroke:red;stroke-width:1px;stroke-linecap:butt;stroke-linejoin:miter;stroke-opacity:1" d="M 490.102,850.829 507.698,864.027 z" id="boundary" inkscape:connector-curvature="0" />
	<path style="fill:none;stroke:red;stroke-width:1px;stroke-linecap:butt;stroke-linejoin:miter;stroke-opacity:1" d="M 494.501,300.94 516.497,300.94 z" id="boundary" inkscape:connector-curvature="0" />
	<path style="fill:none;stroke:red;stroke-width:1px;stroke-linecap:butt;stroke-linejoin:miter;stroke-opacity:1" d="M 494.501,916.816 516.497,908.018 z" id="boundary" inkscape:connector-curvature="0" />
	<path style="fill:none;stroke:red;stroke-width:1px;stroke-linecap:butt;stroke-linejoin:miter;stroke-opacity:1" d="M 507.698,864.027 527.494,875.024 z" id="boundary" inkscape:connector-curvature="0" />
	<path style="fill:none;stroke:red;stroke-width:1px;stroke-linecap:butt;stroke-linejoin:miter;stroke-opacity:1" d="M 512.098,802.439 527.494,820.035 z" id="boundary" inkscape:connector-curvature="0" />
	<path style="fill:none;stroke:red;stroke-width:1px;stroke-linecap:butt;stroke-linejoin:miter;stroke-opacity:1" d="M 516.497,300.94 538.492,300.94 z" id="boundary" inkscape:connector-curvature="0" />
	<path style="fill:none;stroke:red;stroke-width:1px;stroke-linecap:butt;stroke-linejoin:miter;stroke-opacity:1" d="M 516.497,908.018 527.494,875.024 z" id="boundary" inkscape:connector-curvature="0" />
	<path style="fill:none;stroke:red;stroke-width:1px;stroke-linecap:butt;stroke-linejoin:miter;stroke-opacity:1" d="M 527.494,820.035 549.49,828.834 z" id="boundary" inkscape:connector-curvature="0" />
	<path style="fill:none;stroke:red;stroke-width:1px;stroke-linecap:butt;stroke-linejoin:miter;stroke-opacity:1" d="M 538.492,300.94 560.488,300.94 z" id="boundary" inkscape:connector-curvature="0" />
	<path style="fill:none;stroke:red;stroke-width:1px;stroke-linecap:butt;stroke-linejoin:miter;stroke-opacity:1" d="M 549.49,828.834 564.887,846.43 z" id="boundary" inkscape:connector-curvature="0" />
	<path style="fill:none;stroke:red;stroke-width:1px;stroke-linecap:butt;stroke-linejoin:miter;stroke-opacity:1" d="M 560.488,300.94 582.483,289.942 z" id="boundary" inkscape:connector-curvature="0" />
	<path style="fill:none;stroke:red;stroke-width:1px;stroke-linecap:butt;stroke-linejoin:miter;stroke-opacity:1" d="M 564.887,846.43 564.887,868.426 z" id="boundary" inkscape:connector-curvature="0" />
	<path style="fill:none;stroke:red;stroke-width:1px;stroke-linecap:butt;stroke-linejoin:miter;stroke-opacity:1" d="M 564.887,868.426 578.084,886.022 z" id="boundary" inkscape:connector-curvature="0" />
	<path style="fill:none;stroke:red;stroke-width:1px;stroke-linecap:butt;stroke-linejoin:miter;stroke-opacity:1" d="M 578.084,765.047 578.084,787.042 z" id="boundary" inkscape:connector-curvature="0" />
	<path style="fill:none;stroke:red;stroke-width:1px;stroke-linecap:butt;stroke-linejoin:miter;stroke-opacity:1" d="M 578.084,765.047 600.08,743.051 z" id="boundary" inkscape:connector-curvature="0" />
	<path style="fill:none;stroke:red;stroke-width:1px;stroke-linecap:butt;stroke-linejoin:miter;stroke-opacity:1" d="M 578.084,787.042 589.082,806.838 z" id="boundary" inkscape:connector-curvature="0" />
	<path style="fill:none;stroke:red;stroke-width:1px;stroke-linecap:butt;stroke-linejoin:miter;stroke-opacity:1" d="M 578.084,886.022 600.08,864.027 z" id="boundary" inkscape:connector-curvature="0" />
	<path style="fill:none;stroke:red;stroke-width:1px;stroke-linecap:butt;stroke-linejoin:miter;stroke-opacity:1" d="M 582.483,289.942 604.479,289.942 z" id="boundary" inkscape:connector-curvature="0" />
	<path style="fill:none;stroke:red;stroke-width:1px;stroke-linecap:butt;stroke-linejoin:miter;stroke-opacity:1" d="M 589.082,806.838 608.878,817.836 z" id="boundary" inkscape:connector-curvature="0" />
	<path style="fill:none;stroke:red;stroke-width:1px;stroke-linecap:butt;stroke-linejoin:miter;stroke-opacity:1" d="M 600.08,743.051 622.075,743.051 z" id="boundary" inkscape:connector-curvature="0" />
	<path style="fill:none;stroke:red;stroke-width:1px;stroke-linecap:butt;stroke-linejoin:miter;stroke-opacity:1" d="M 600.08,864.027 619.876,875.024 z" id="boundary" inkscape:connector-curvature="0" />
	<path style="fill:none;stroke:red;stroke-width:1px;stroke-linecap:butt;stroke-linejoin:miter;stroke-opacity:1" d="M 604.479,289.942 626.475,289.942 z" id="boundary" inkscape:connector-curvature="0" />
	<path style="fill:none;stroke:red;stroke-width:1px;stroke-linecap:butt;stroke-linejoin:miter;stroke-opacity:1" d="M 608.878,817.836 630.874,817.836 z" id="boundary" inkscape:connector-curvature="0" />
	<path style="fill:none;stroke:red;stroke-width:1px;stroke-linecap:butt;stroke-linejoin:miter;stroke-opacity:1" d="M 619.876,875.024 639.672,886.022 z" id="boundary" inkscape:connector-curvature="0" />
	<path style="fill:none;stroke:red;stroke-width:1px;stroke-linecap:butt;stroke-linejoin:miter;stroke-opacity:1" d="M 622.075,743.051 644.071,743.051 z" id="boundary" inkscape:connector-curvature="0" />
	<path style="fill:none;stroke:red;stroke-width:1px;stroke-linecap:butt;stroke-linejoin:miter;stroke-opacity:1" d="M 626.475,289.942 648.47,289.942 z" id="boundary" inkscape:connector-curvature="0" />
	<path style="fill:none;stroke:red;stroke-width:1px;stroke-linecap:butt;stroke-linejoin:miter;stroke-opacity:1" d="M 630.874,817.836 652.869,817.836 z" id="boundary" inkscape:connector-curvature="0" />
	<path style="fill:none;stroke:red;stroke-width:1px;stroke-linecap:butt;stroke-linejoin:miter;stroke-opacity:1" d="M 639.672,886.022 659.468,897.02 z" id="boundary" inkscape:connector-curvature="0" />
	<path style="fill:none;stroke:red;stroke-width:1px;stroke-linecap:butt;stroke-linejoin:miter;stroke-opacity:1" d="M 644.071,743.051 666.067,743.051 z" id="boundary" inkscape:connector-curvature="0" />
	<path style="fill:none;stroke:red;stroke-width:1px;stroke-linecap:butt;stroke-linejoin:miter;stroke-opacity:1" d="M 648.47,289.942 670.466,289.942 z" id="boundary" inkscape:connector-curvature="0" />
	<path style="fill:none;stroke:red;stroke-width:1px;stroke-linecap:butt;stroke-linejoin:miter;stroke-opacity:1" d="M 652.869,817.836 674.865,817.836 z" id="boundary" inkscape:connector-curvature="0" />
	<path style="fill:none;stroke:red;stroke-width:1px;stroke-linecap:butt;stroke-linejoin:miter;stroke-opacity:1" d="M 659.468,897.02 681.463,894.82 z" id="boundary" inkscape:connector-curvature="0" />
	<path style="fill:none;stroke:red;stroke-width:1px;stroke-linecap:butt;stroke-linejoin:miter;stroke-opacity:1" d="M 666.067,743.051 688.062,743.051 z" id="boundary" inkscape:connector-curvature="0" />
	<path style="fill:none;stroke:red;stroke-width:1px;stroke-linecap:butt;stroke-linejoin:miter;stroke-opacity:1" d="M 670.466,289.942 685.863,263.548 z" id="boundary" inkscape:connector-curvature="0" />
	<path style="fill:none;stroke:red;stroke-width:1px;stroke-linecap:butt;stroke-linejoin:miter;stroke-opacity:1" d="M 674.865,817.836 688.062,835.432 z" id="boundary" inkscape:connector-curvature="0" />
	<path style="fill:none;stroke:red;stroke-width:1px;stroke-linecap:butt;stroke-linejoin:miter;stroke-opacity:1" d="M 681.463,894.82 688.062,857.428 z" id="boundary" inkscape:connector-curvature="0" />
	<path style="fill:none;stroke:red;stroke-width:1px;stroke-linecap:butt;stroke-linejoin:miter;stroke-opacity:1" d="M 685.863,263.548 696.86,241.552 z" id="boundary" inkscape:connector-curvature="0" />
	<path style="fill:none;stroke:red;stroke-width:1px;stroke-linecap:butt;stroke-linejoin:miter;stroke-opacity:1" d="M 688.062,743.051 710.058,743.051 z" id="boundary" inkscape:connector-curvature="0" />
	<path style="fill:none;stroke:red;stroke-width:1px;stroke-linecap:butt;stroke-linejoin:miter;stroke-opacity:1" d="M 688.062,835.432 688.062,857.428 z" id="boundary" inkscape:connector-curvature="0" />
	<path style="fill:none;stroke:red;stroke-width:1px;stroke-linecap:butt;stroke-linejoin:miter;stroke-opacity:1" d="M 696.86,219.557 696.86,241.552 z" id="boundary" inkscape:connector-curvature="0" />
	<path style="fill:none;stroke:red;stroke-width:1px;stroke-linecap:butt;stroke-linejoin:miter;stroke-opacity:1" d="M 696.86,219.557 707.858,186.563 z" id="boundary" inkscape:connector-curvature="0" />
	<path style="fill:none;stroke:red;stroke-width:1px;stroke-linecap:butt;stroke-linejoin:miter;stroke-opacity:1" d="M 707.858,186.563 718.856,153.57 z" id="boundary" inkscape:connector-curvature="0" />
	<path style="fill:none;stroke:red;stroke-width:1px;stroke-linecap:butt;stroke-linejoin:miter;stroke-opacity:1" d="M 710.058,743.051 732.053,743.051 z" id="boundary" inkscape:connector-curvature="0" />
	<path style="fill:none;stroke:red;stroke-width:1px;stroke-linecap:butt;stroke-linejoin:miter;stroke-opacity:1" d="M 718.856,109.579 718.856,131.574 z" id="boundary" inkscape:connector-curvature="0" />
	<path style="fill:none;stroke:red;stroke-width:1px;stroke-linecap:butt;stroke-linejoin:miter;stroke-opacity:1" d="M 718.856,109.579 729.854,76.5854 z" id="boundary" inkscape:connector-curvature="0" />
	<path style="fill:none;stroke:red;stroke-width:1px;stroke-linecap:butt;stroke-linejoin:miter;stroke-opacity:1" d="M 718.856,131.574 718.856,153.57 z" id="boundary" inkscape:connector-curvature="0" />
	<path style="fill:none;stroke:red;stroke-width:1px;stroke-linecap:butt;stroke-linejoin:miter;stroke-opacity:1" d="M 729.854,76.5854 740.851,54.5898 z" id="boundary" inkscape:connector-curvature="0" />
	<path style="fill:none;stroke:red;stroke-width:1px;stroke-linecap:butt;stroke-linejoin:miter;stroke-opacity:1" d="M 732.053,743.051 754.049,732.053 z" id="boundary" inkscape:connector-curvature="0" />
	<path style="fill:none;stroke:red;stroke-width:1px;stroke-linecap:butt;stroke-linejoin:miter;stroke-opacity:1" d="M 740.851,54.5898 751.849,32.5942 z" id="boundary" inkscape:connector-curvature="0" />
	<path style="fill:none;stroke:red;stroke-width:1px;stroke-linecap:butt;stroke-linejoin:miter;stroke-opacity:1" d="M 751.849,32.5942 769.446,14.9978 z" id="boundary" inkscape:connector-curvature="0" />
	<path style="fill:none;stroke:red;stroke-width:1px;stroke-linecap:butt;stroke-linejoin:miter;stroke-opacity:1" d="M 754.049,732.053 776.044,732.053 z" id="boundary" inkscape:connector-curvature="0" />
	<path style="fill:none;stroke:red;stroke-width:1px;stroke-linecap:butt;stroke-linejoin:miter;stroke-opacity:1" d="M 769.446,14.9978 791.441,14.9978 z" id="boundary" inkscape:connector-curvature="0" />
	<path style="fill:none;stroke:red;stroke-width:1px;stroke-linecap:butt;stroke-linejoin:miter;stroke-opacity:1" d="M 776.044,732.053 795.84,721.055 z" id="boundary" inkscape:connector-curvature="0" />
	<path style="fill:none;stroke:red;stroke-width:1px;stroke-linecap:butt;stroke-linejoin:miter;stroke-opacity:1" d="M 791.441,14.9978 813.437,4 z" id="boundary" inkscape:connector-curvature="0" />
	<path style="fill:none;stroke:red;stroke-width:1px;stroke-linecap:butt;stroke-linejoin:miter;stroke-opacity:1" d="M 795.84,721.055 817.836,714.457 z" id="boundary" inkscape:connector-curvature="0" />
	<path style="fill:none;stroke:red;stroke-width:1px;stroke-linecap:butt;stroke-linejoin:miter;stroke-opacity:1" d="M 813.437,4 835.432,4 z" id="boundary" inkscape:connector-curvature="0" />
	<path style="fill:none;stroke:red;stroke-width:1px;stroke-linecap:butt;stroke-linejoin:miter;stroke-opacity:1" d="M 817.836,714.457 831.033,688.062 z" id="boundary" inkscape:connector-curvature="0" />
	<path style="fill:none;stroke:red;stroke-width:1px;stroke-linecap:butt;stroke-linejoin:miter;stroke-opacity:1" d="M 831.033,688.062 848.63,672.665 z" id="boundary" inkscape:connector-curvature="0" />
	<path style="fill:none;stroke:red;stroke-width:1px;stroke-linecap:butt;stroke-linejoin:miter;stroke-opacity:1" d="M 835.432,4 857.428,4 z" id="boundary" inkscape:connector-curvature="0" />
	<path style="fill:none;stroke:red;stroke-width:1px;stroke-linecap:butt;stroke-linejoin:miter;stroke-opacity:1" d="M 848.63,672.665 864.027,655.069 z" id="boundary" inkscape:connector-curvature="0" />
	<path style="fill:none;stroke:red;stroke-width:1px;stroke-linecap:butt;stroke-linejoin:miter;stroke-opacity:1" d="M 857.428,4 879.424,4 z" id="boundary" inkscape:connector-curvature="0" />
	<path style="fill:none;stroke:red;stroke-width:1px;stroke-linecap:butt;stroke-linejoin:miter;stroke-opacity:1" d="M 864.027,655.069 881.623,639.672 z" id="boundary" inkscape:connector-curvature="0" />
	<path style="fill:none;stroke:red;stroke-width:1px;stroke-linecap:butt;stroke-linejoin:miter;stroke-opacity:1" d="M 879.424,4 901.419,4 z" id="boundary" inkscape:connector-curvature="0" />
	<path style="fill:none;stroke:red;stroke-width:1px;stroke-linecap:butt;stroke-linejoin:miter;stroke-opacity:1" d="M 881.623,639.672 897.02,622.075 z" id="boundary" inkscape:connector-curvature="0" />
	<path style="fill:none;stroke:red;stroke-width:1px;stroke-linecap:butt;stroke-linejoin:miter;stroke-opacity:1" d="M 897.02,622.075 914.616,606.678 z" id="boundary" inkscape:connector-curvature="0" />
	<path style="fill:none;stroke:red;stroke-width:1px;stroke-linecap:butt;stroke-linejoin:miter;stroke-opacity:1" d="M 901.419,4 923.415,4 z" id="boundary" inkscape:connector-curvature="0" />
	<path style="fill:none;stroke:red;stroke-width:1px;stroke-linecap:butt;stroke-linejoin:miter;stroke-opacity:1" d="M 914.616,606.678 925.614,584.683 z" id="boundary" inkscape:connector-curvature="0" />
	<path style="fill:none;stroke:red;stroke-width:1px;stroke-linecap:butt;stroke-linejoin:miter;stroke-opacity:1" d="M 923.415,4 943.211,14.9978 z" id="boundary" inkscape:connector-curvature="0" />
	<path style="fill:none;stroke:red;stroke-width:1px;stroke-linecap:butt;stroke-linejoin:miter;stroke-opacity:1" d="M 925.614,584.683 941.011,567.086 z" id="boundary" inkscape:connector-curvature="0" />
	<path style="fill:none;stroke:red;stroke-width:1px;stroke-linecap:butt;stroke-linejoin:miter;stroke-opacity:1" d="M 930.013,160.169 930.013,182.164 z" id="boundary" inkscape:connector-curvature="0" />
	<path style="fill:none;stroke:red;stroke-width:1px;stroke-linecap:butt;stroke-linejoin:miter;stroke-opacity:1" d="M 930.013,160.169 947.61,144.772 z" id="boundary" inkscape:connector-curvature="0" />
	<path style="fill:none;stroke:red;stroke-width:1px;stroke-linecap:butt;stroke-linejoin:miter;stroke-opacity:1" d="M 930.013,182.164 930.013,204.16 z" id="boundary" inkscape:connector-curvature="0" />
	<path style="fill:none;stroke:red;stroke-width:1px;stroke-linecap:butt;stroke-linejoin:miter;stroke-opacity:1" d="M 930.013,204.16 941.011,223.956 z" id="boundary" inkscape:connector-curvature="0" />
	<path style="fill:none;stroke:red;stroke-width:1px;stroke-linecap:butt;stroke-linejoin:miter;stroke-opacity:1" d="M 941.011,50.1907 941.011,72.1863 z" id="boundary" inkscape:connector-curvature="0" />
	<path style="fill:none;stroke:red;stroke-width:1px;stroke-linecap:butt;stroke-linejoin:miter;stroke-opacity:1" d="M 941.011,50.1907 943.211,14.9978 z" id="boundary" inkscape:connector-curvature="0" />
	<path style="fill:none;stroke:red;stroke-width:1px;stroke-linecap:butt;stroke-linejoin:miter;stroke-opacity:1" d="M 941.011,72.1863 952.009,91.9823 z" id="boundary" inkscape:connector-curvature="0" />
	<path style="fill:none;stroke:red;stroke-width:1px;stroke-linecap:butt;stroke-linejoin:miter;stroke-opacity:1" d="M 941.011,223.956 941.011,245.951 z" id="boundary" inkscape:connector-curvature="0" />
	<path style="fill:none;stroke:red;stroke-width:1px;stroke-linecap:butt;stroke-linejoin:miter;stroke-opacity:1" d="M 941.011,245.951 958.608,259.149 z" id="boundary" inkscape:connector-curvature="0" />
	<path style="fill:none;stroke:red;stroke-width:1px;stroke-linecap:butt;stroke-linejoin:miter;stroke-opacity:1" d="M 941.011,567.086 958.608,551.69 z" id="boundary" inkscape:connector-curvature="0" />
	<path style="fill:none;stroke:red;stroke-width:1px;stroke-linecap:butt;stroke-linejoin:miter;stroke-opacity:1" d="M 947.61,144.772 980.603,124.976 z" id="boundary" inkscape:connector-curvature="0" />
	<path style="fill:none;stroke:red;stroke-width:1px;stroke-linecap:butt;stroke-linejoin:miter;stroke-opacity:1" d="M 952.009,91.9823 963.007,111.778 z" id="boundary" inkscape:connector-curvature="0" />
	<path style="fill:none;stroke:red;stroke-width:1px;stroke-linecap:butt;stroke-linejoin:miter;stroke-opacity:1" d="M 958.608,259.149 974.004,276.745 z" id="boundary" inkscape:connector-curvature="0" />
	<path style="fill:none;stroke:red;stroke-width:1px;stroke-linecap:butt;stroke-linejoin:miter;stroke-opacity:1" d="M 958.608,551.69 963.007,512.098 z" id="boundary" inkscape:connector-curvature="0" />
	<path style="fill:none;stroke:red;stroke-width:1px;stroke-linecap:butt;stroke-linejoin:miter;stroke-opacity:1" d="M 963.007,111.778 980.603,124.976 z" id="boundary" inkscape:connector-curvature="0" />
	<path style="fill:none;stroke:red;stroke-width:1px;stroke-linecap:butt;stroke-linejoin:miter;stroke-opacity:1" d="M 963.007,512.098 980.603,496.701 z" id="boundary" inkscape:connector-curvature="0" />
	<path style="fill:none;stroke:red;stroke-width:1px;stroke-linecap:butt;stroke-linejoin:miter;stroke-opacity:1" d="M 974.004,276.745 974.004,298.741 z" id="boundary" inkscape:connector-curvature="0" />
	<path style="fill:none;stroke:red;stroke-width:1px;stroke-linecap:butt;stroke-linejoin:miter;stroke-opacity:1" d="M 974.004,298.741 985.002,318.537 z" id="boundary" inkscape:connector-curvature="0" />
	<path style="fill:none;stroke:red;stroke-width:1px;stroke-linecap:butt;stroke-linejoin:miter;stroke-opacity:1" d="M 980.603,496.701 996,472.506 z" id="boundary" inkscape:connector-curvature="0" />
	<path style="fill:none;stroke:red;stroke-width:1px;stroke-linecap:butt;stroke-linejoin:miter;stroke-opacity:1" d="M 985.002,318.537 985.002,340.532 z" id="boundary" inkscape:connector-curvature="0" />
	<path style="fill:none;stroke:red;stroke-width:1px;stroke-linecap:butt;stroke-linejoin:miter;stroke-opacity:1" d="M 985.002,340.532 985.002,362.528 z" id="boundary" inkscape:connector-curvature="0" />
	<path style="fill:none;stroke:red;stroke-width:1px;stroke-linecap:butt;stroke-linejoin:miter;stroke-opacity:1" d="M 985.002,362.528 985.002,384.523 z" id="boundary" inkscape:connector-curvature="0" />
	<path style="fill:none;stroke:red;stroke-width:1px;stroke-linecap:butt;stroke-linejoin:miter;stroke-opacity:1" d="M 985.002,384.523 985.002,406.519 z" id="boundary" inkscape:connector-curvature="0" />
	<path style="fill:none;stroke:red;stroke-width:1px;stroke-linecap:butt;stroke-linejoin:miter;stroke-opacity:1" d="M 985.002,406.519 993.8,428.514 z" id="boundary" inkscape:connector-curvature="0" />
	<path style="fill:none;stroke:red;stroke-width:1px;stroke-linecap:butt;stroke-linejoin:miter;stroke-opacity:1" d="M 993.8,428.514 996,450.51 z" id="boundary" inkscape:connector-curvature="0" />
	<path style="fill:none;stroke:red;stroke-width:1px;stroke-linecap:butt;stroke-linejoin:miter;stroke-opacity:1" d="M 996,450.51 996,472.506 z" id="boundary" inkscape:connector-curvature="0" />
	<circle cx="4" cy="230.554" r="4" fill="#0" id="circle0"/>
	<circle cx="4" cy="252.55" r="4" fill="#0" id="circle1"/>
	<circle cx="14.9978" cy="272.346" r="4" fill="#0" id="circle2"/>
	<circle cx="21.5965" cy="212.958" r="4" fill="#0" id="circle3"/>
	<circle cx="36.9933" cy="164.568" r="4" fill="#0" id="circle4"/>
	<circle cx="36.9933" cy="186.563" r="4" fill="#0" id="circle5"/>
	<circle cx="36.9933" cy="281.144" r="4" fill="#0" id="circle6"/>
	<circle cx="47.9911" cy="142.572" r="4" fill="#0" id="circle7"/>
	<circle cx="50.1907" cy="298.741" r="4" fill="#0" id="circle8"/>
	<circle cx="61.1885" cy="318.537" r="4" fill="#0" id="circle9"/>
	<circle cx="65.5876" cy="124.976" r="4" fill="#0" id="circle10"/>
	<circle cx="76.5854" cy="336.133" r="4" fill="#0" id="circle11"/>
	<circle cx="80.9845" cy="98.5809" r="4" fill="#0" id="circle12"/>
	<circle cx="87.5831" cy="355.929" r="4" fill="#0" id="circle13"/>
	<circle cx="98.5809" cy="80.9845" r="4" fill="#0" id="circle14"/>
	<circle cx="102.98" cy="373.525" r="4" fill="#0" id="circle15"/>
	<circle cx="113.978" cy="393.322" r="4" fill="#0" id="circle16"/>
	<circle cx="118.377" cy="69.9867" r="4" fill="#0" id="circle17"/>
	<circle cx="124.976" cy="413.118" r="4" fill="#0" id="circle18"/>
	<circle cx="124.976" cy="435.113" r="4" fill="#0" id="circle19"/>
	<circle cx="135.973" cy="454.909" r="4" fill="#0" id="circle20"/>
	<circle cx="135.973" cy="476.905" r="4" fill="#0" id="circle21"/>
	<circle cx="135.973" cy="498.9" r="4" fill="#0" id="circle22"/>
	<circle cx="135.973" cy="520.896" r="4" fill="#0" id="circle23"/>
	<circle cx="135.973" cy="542.891" r="4" fill="#0" id="circle24"/>
	<circle cx="135.973" cy="564.887" r="4" fill="#0" id="circle25"/>
	<circle cx="140.373" cy="69.9867" r="4" fill="#0" id="circle26"/>
	<circle cx="140.373" cy="586.882" r="4" fill="#0" id="circle27"/>
	<circle cx="151.37" cy="606.678" r="4" fill="#0" id="circle28"/>
	<circle cx="162.368" cy="72.1863" r="4" fill="#0" id="circle29"/>
	<circle cx="168.967" cy="622.075" r="4" fill="#0" id="circle30"/>
	<circle cx="179.965" cy="58.9889" r="4" fill="#0" id="circle31"/>
	<circle cx="182.164" cy="639.672" r="4" fill="#0" id="circle32"/>
	<circle cx="199.761" cy="655.069" r="4" fill="#0" id="circle33"/>
	<circle cx="201.96" cy="58.9889" r="4" fill="#0" id="circle34"/>
	<circle cx="215.157" cy="672.665" r="4" fill="#0" id="circle35"/>
	<circle cx="221.756" cy="47.9911" r="4" fill="#0" id="circle36"/>
	<circle cx="237.153" cy="681.463" r="4" fill="#0" id="circle37"/>
	<circle cx="241.552" cy="36.9933" r="4" fill="#0" id="circle38"/>
	<circle cx="259.149" cy="688.062" r="4" fill="#0" id="circle39"/>
	<circle cx="263.548" cy="36.9933" r="4" fill="#0" id="circle40"/>
	<circle cx="278.945" cy="699.06" r="4" fill="#0" id="circle41"/>
	<circle cx="285.543" cy="36.9933" r="4" fill="#0" id="circle42"/>
	<circle cx="298.741" cy="710.058" r="4" fill="#0" id="circle43"/>
	<circle cx="305.339" cy="47.9911" r="4" fill="#0" id="circle44"/>
	<circle cx="314.137" cy="69.9867" r="4" fill="#0" id="circle45"/>
	<circle cx="318.537" cy="721.055" r="4" fill="#0" id="circle46"/>
	<circle cx="336.133" cy="76.5854" r="4" fill="#0" id="circle47"/>
	<circle cx="340.532" cy="729.854" r="4" fill="#0" id="circle48"/>
	<circle cx="347.131" cy="96.3814" r="4" fill="#0" id="circle49"/>
	<circle cx="358.129" cy="743.051" r="4" fill="#0" id="circle50"/>
	<circle cx="360.328" cy="113.978" r="4" fill="#0" id="circle51"/>
	<circle cx="366.927" cy="868.426" r="4" fill="#0" id="circle52"/>
	<circle cx="366.927" cy="890.421" r="4" fill="#0" id="circle53"/>
	<circle cx="369.126" cy="135.973" r="4" fill="#0" id="circle54"/>
	<circle cx="377.925" cy="754.049" r="4" fill="#0" id="circle55"/>
	<circle cx="384.523" cy="905.818" r="4" fill="#0" id="circle56"/>
	<circle cx="386.723" cy="149.171" r="4" fill="#0" id="circle57"/>
	<circle cx="388.922" cy="861.827" r="4" fill="#0" id="circle58"/>
	<circle cx="391.122" cy="171.166" r="4" fill="#0" id="circle59"/>
	<circle cx="391.122" cy="193.162" r="4" fill="#0" id="circle60"/>
	<circle cx="391.122" cy="215.157" r="4" fill="#0" id="circle61"/>
	<circle cx="391.122" cy="237.153" r="4" fill="#0" id="circle62"/>
	<circle cx="395.521" cy="259.149" r="4" fill="#0" id="circle63"/>
	<circle cx="399.92" cy="754.049" r="4" fill="#0" id="circle64"/>
	<circle cx="399.92" cy="776.044" r="4" fill="#0" id="circle65"/>
	<circle cx="406.519" cy="908.018" r="4" fill="#0" id="circle66"/>
	<circle cx="410.918" cy="857.428" r="4" fill="#0" id="circle67"/>
	<circle cx="413.118" cy="274.545" r="4" fill="#0" id="circle68"/>
	<circle cx="413.118" cy="793.641" r="4" fill="#0" id="circle69"/>
	<circle cx="421.916" cy="815.636" r="4" fill="#0" id="circle70"/>
	<circle cx="421.916" cy="837.632" r="4" fill="#0" id="circle71"/>
	<circle cx="428.514" cy="908.018" r="4" fill="#0" id="circle72"/>
	<circle cx="432.914" cy="285.543" r="4" fill="#0" id="circle73"/>
	<circle cx="450.51" cy="300.94" r="4" fill="#0" id="circle74"/>
	<circle cx="450.51" cy="908.018" r="4" fill="#0" id="circle75"/>
	<circle cx="457.109" cy="831.033" r="4" fill="#0" id="circle76"/>
	<circle cx="468.106" cy="850.829" r="4" fill="#0" id="circle77"/>
	<circle cx="472.506" cy="300.94" r="4" fill="#0" id="circle78"/>
	<circle cx="472.506" cy="916.816" r="4" fill="#0" id="circle79"/>
	<circle cx="474.705" cy="815.636" r="4" fill="#0" id="circle80"/>
	<circle cx="490.102" cy="798.04" r="4" fill="#0" id="circle81"/>
	<circle cx="490.102" cy="850.829" r="4" fill="#0" id="circle82"/>
	<circle cx="494.501" cy="300.94" r="4" fill="#0" id="circle83"/>
	<circle cx="494.501" cy="916.816" r="4" fill="#0" id="circle84"/>
	<circle cx="507.698" cy="864.027" r="4" fill="#0" id="circle85"/>
	<circle cx="512.098" cy="802.439" r="4" fill="#0" id="circle86"/>
	<circle cx="516.497" cy="300.94" r="4" fill="#0" id="circle87"/>
	<circle cx="516.497" cy="908.018" r="4" fill="#0" id="circle88"/>
	<circle cx="527.494" cy="820.035" r="4" fill="#0" id="circle89"/>
	<circle cx="527.494" cy="875.024" r="4" fill="#0" id="circle90"/>
	<circle cx="538.492" cy="300.94" r="4" fill="#0" id="circle91"/>
	<circle cx="549.49" cy="828.834" r="4" fill="#0" id="circle92"/>
	<circle cx="560.488" cy="300.94" r="4" fill="#0" id="circle93"/>
	<circle cx="564.887" cy="846.43" r="4" fill="#0" id="circle94"/>
	<circle cx="564.887" cy="868.426" r="4" fill="#0" id="circle95"/>
	<circle cx="578.084" cy="765.047" r="4" fill="#0" id="circle96"/>
	<circle cx="578.084" cy="787.042" r="4" fill="#0" id="circle97"/>
	<circle cx="578.084" cy="886.022" r="4" fill="#0" id="circle98"/>
	<circle cx="582.483" cy="289.942" r="4" fill="#0" id="circle99"/>
	<circle cx="589.082" cy="806.838" r="4" fill="#0" id="circle100"/>
	<circle cx="600.08" cy="743.051" r="4" fill="#0" id="circle101"/>
	<circle cx="600.08" cy="864.027" r="4" fill="#0" id="circle102"/>
	<circle cx="604.479" cy="289.942" r="4" fill="#0" id="circle103"/>
	<circle cx="608.878" cy="817.836" r="4" fill="#0" id="circle104"/>
	<circle cx="619.876" cy="875.024" r="4" fill="#0" id="circle105"/>
	<circle cx="622.075" cy="743.051" r="4" fill="#0" id="circle106"/>
	<circle cx="626.475" cy="289.942" r="4" fill="#0" id="circle107"/>
	<circle cx="630.874" cy="817.836" r="4" fill="#0" id="circle108"/>
	<circle cx="639.672" cy="886.022" r="4" fill="#0" id="circle109"/>
	<circle cx="644.071" cy="743.051" r="4" fill="#0" id="circle110"/>
	<circle cx="648.47" cy="289.942" r="4" fill="#0" id="circle111"/>
	<circle cx="652.869" cy="817.836" r="4" fill="#0" id="circle112"/>
	<circle cx="659.468" cy="897.02" r="4" fill="#0" id="circle113"/>
	<circle cx="666.067" cy="743.051" r="4" fill="#0" id="circle114"/>
	<circle cx="670.466" cy="289.942" r="4" fill="#0" id="circle115"/>
	<circle cx="674.865" cy="817.836" r="4" fill="#0" id="circle116"/>
	<circle cx="681.463" cy="894.82" r="4" fill="#0" id="circle117"/>
	<circle cx="685.863" cy="263.548" r="4" fill="#0" id="circle118"/>
	<circle cx="688.062" cy="743.051" r="4" fill="#0" id="circle119"/>
	<circle cx="688.062" cy="835.432" r="4" fill="#0" id="circle120"/>
	<circle cx="688.062" cy="857.428" r="4" fill="#0" id="circle121"/>
	<circle cx="696.86" cy="219.557" r="4" fill="#0" id="circle122"/>
	<circle cx="696.86" cy="241.552" r="4" fill="#0" id="circle123"/>
	<circle cx="707.858" cy="186.563" r="4" fill="#0" id="circle124"/>
	<circle cx="710.058" cy="743.051" r="4" fill="#0" id="circle125"/>
	<circle cx="718.856" cy="109.579" r="4" fill="#0" id="circle126"/>
	<circle cx="718.856" cy="131.574" r="4" fill="#0" id="circle127"/>
	<circle cx="718.856" cy="153.57" r="4" fill="#0" id="circle128"/>
	<circle cx="729.854" cy="76.5854" r="4" fill="#0" id="circle129"/>
	<circle cx="732.053" cy="743.051" r="4" fill="#0" id="circle130"/>
	<circle cx="740.851" cy="54.5898" r="4" fill="#0" id="circle131"/>
	<circle cx="751.849" cy="32.5942" r="4" fill="#0" id="circle132"/>
	<circle cx="754.049" cy="732.053" r="4" fill="#0" id="circle133"/>
	<circle cx="769.446" cy="14.9978" r="4" fill="#0" id="circle134"/>
	<circle cx="776.044" cy="732.053" r="4" fill="#0" id="circle135"/>
	<circle cx="791.441" cy="14.9978" r="4" fill="#0" id="circle136"/>
	<circle cx="795.84" cy="721.055" r="4" fill="#0" id="circle137"/>
	<circle cx="813.437" cy="4" r="4" fill="#0" id="circle138"/>
	<circle cx="817.836" cy="714.457" r="4" fill="#0" id="circle139"/>
	<circle cx="831.033" cy="688.062" r="4" fill="#0" id="circle140"/>
	<circle cx="835.432" cy="4" r="4" fill="#0" id="circle141"/>
	<circle cx="848.63" cy="672.665" r="4" fill="#0" id="circle142"/>
	<circle cx="857.428" cy="4" r="4" fill="#0" id="circle143"/>
	<circle cx="864.027" cy="655.069" r="4" fill="#0" id="circle144"/>
	<circle cx="879.424" cy="4" r="4" fill="#0" id="circle145"/>
	<circle cx="881.623" cy="639.672" r="4" fill="#0" id="circle146"/>
	<circle cx="897.02" cy="622.075" r="4" fill="#0" id="circle147"/>
	<circle cx="901.419" cy="4" r="4" fill="#0" id="circle148"/>
	<circle cx="914.616" cy="606.678" r="4" fill="#0" id="circle149"/>
	<circle cx="923.415" cy="4" r="4" fill="#0" id="circle150"/>
	<circle cx="925.614" cy="584.683" r="4" fill="#0" id="circle151"/>
	<circle cx="930.013" cy="160.169" r="4" fill="#0" id="circle152"/>
	<circle cx="930.013" cy="182.164" r="4" fill="#0" id="circle153"/>
	<circle cx="930.013" cy="204.16" r="4" fill="#0" id="circle154"/>
	<circle cx="941.011" cy="50.1907" r="4" fill="#0" id="circle155"/>
	<circle cx="941.011" cy="72.1863" r="4" fill="#0" id="circle156"/>
	<circle cx="941.011" cy="223.956" r="4" fill="#0" id="circle157"/>
	<circle cx="941.011" cy="245.951" r="4" fill="#0" id="circle158"/>
	<circle cx="941.011" cy="567.086" r="4" fill="#0" id="circle159"/>
	<circle cx="943.211" cy="14.9978" r="4" fill="#0" id="circle160"/>
	<circle cx="947.61" cy="144.772" r="4" fill="#0" id="circle161"/>
	<circle cx="952.009" cy="91.9823" r="4" fill="#0" id="circle162"/>
	<circle cx="958.608" cy="259.149" r="4" fill="#0" id="circle163"/>
	<circle cx="958.608" cy="551.69" r="4" fill="#0" id="circle164"/>
	<circle cx="963.007" cy="111.778" r="4" fill="#0" id="circle165"/>
	<circle cx="963.007" cy="512.098" r="4" fill="#0" id="circle166"/>
	<circle cx="974.004" cy="276.745" r="4" fill="#0" id="circle167"/>
	<circle cx="974.004" cy="298.741" r="4" fill="#0" id="circle168"/>
	<circle cx="980.603" cy="124.976" r="4" fill="#0" id="circle169"/>
	<circle cx="980.603" cy="496.701" r="4" fill="#0" id="circle170"/>
	<circle cx="985.002" cy="318.537" r="4" fill="#0" id="circle171"/>
	<circle cx="985.002" cy="340.532" r="4" fill="#0" id="circle172"/>
	<circle cx="985.002" cy="362.528" r="4" fill="#0" id="circle173"/>
	<circle cx="985.002" cy="384.523" r="4" fill="#0" id="circle174"/>
	<circle cx="985.002" cy="406.519" r="4" fill="#0" id="circle175"/>
	<circle cx="993.8" cy="428.514" r="4" fill="#0" id="circle176"/>
	<circle cx="996" cy="450.51" r="4" fill="#0" id="circle177"/>
	<circle cx="996" cy="472.506" r="4" fill="#0" id="circle178"/>
	</g>
</svg>