<?xml version="1.0" encoding="UTF-8" standalone="no"?>
<!-- Created with CurveBenchmark -->
<svg
	xmlns:dc="http://purl.org/dc/elements/1.1/"
	xmlns:cc="http://creativecommons.org/ns#"
	xmlns:rdf="http://www.w3.org/1999/02/22-rdf-syntax-ns#"
	xmlns:svg="http://www.w3.org/2000/svg"
	xmlns="http://www.w3.org/2000/svg"
	xmlns:sodipodi="http://sodipodi.sourceforge.net/DTD/sodipodi-0.dtd"
	xmlns:inkscape="http://www.inkscape.org/namespaces/inkscape"
	width="1000"
	height="1000"
	id="svg2"
	version="1.1"
	sodipodi:docname="manifold/discur-tool06.png.txt">
<defs
	id="defs4" />
<metadata
	id="metadata7">
	<rdf:RDF>
		<cc:Work
			rdf:about="">
			<dc:format>image/svg+xml</dc:format>
			<dc:type
				rdf:resource="http://purl.org/dc/dcmitype/StillImage" />
			<dc:title></dc:title>
		</cc:Work>
	</rdf:RDF>
</metadata>
<g
	inkscape:label="Layer 1"
	inkscape:groupmode="layer"
	id="layer1">
	<path style="fill:none;stroke:red;stroke-width:1px;stroke-linecap:butt;stroke-linejoin:miter;stroke-opacity:1" d="M 4,52.7869 4,79.8907 z" id="boundary" inkscape:connector-curvature="0" />
	<path style="fill:none;stroke:red;stroke-width:1px;stroke-linecap:butt;stroke-linejoin:miter;stroke-opacity:1" d="M 4,52.7869 17.5519,25.6831 z" id="boundary" inkscape:connector-curvature="0" />
	<path style="fill:none;stroke:red;stroke-width:1px;stroke-linecap:butt;stroke-linejoin:miter;stroke-opacity:1" d="M 4,79.8907 4,106.995 z" id="boundary" inkscape:connector-curvature="0" />
	<path style="fill:none;stroke:red;stroke-width:1px;stroke-linecap:butt;stroke-linejoin:miter;stroke-opacity:1" d="M 4,106.995 4,134.098 z" id="boundary" inkscape:connector-curvature="0" />
	<path style="fill:none;stroke:red;stroke-width:1px;stroke-linecap:butt;stroke-linejoin:miter;stroke-opacity:1" d="M 4,134.098 17.5519,158.492 z" id="boundary" inkscape:connector-curvature="0" />
	<path style="fill:none;stroke:red;stroke-width:1px;stroke-linecap:butt;stroke-linejoin:miter;stroke-opacity:1" d="M 17.5519,25.6831 44.6557,17.5519 z" id="boundary" inkscape:connector-curvature="0" />
	<path style="fill:none;stroke:red;stroke-width:1px;stroke-linecap:butt;stroke-linejoin:miter;stroke-opacity:1" d="M 17.5519,158.492 31.1038,182.885 z" id="boundary" inkscape:connector-curvature="0" />
	<path style="fill:none;stroke:red;stroke-width:1px;stroke-linecap:butt;stroke-linejoin:miter;stroke-opacity:1" d="M 31.1038,182.885 47.3661,204.568 z" id="boundary" inkscape:connector-curvature="0" />
	<path style="fill:none;stroke:red;stroke-width:1px;stroke-linecap:butt;stroke-linejoin:miter;stroke-opacity:1" d="M 44.6557,17.5519 69.0492,4 z" id="boundary" inkscape:connector-curvature="0" />
	<path style="fill:none;stroke:red;stroke-width:1px;stroke-linecap:butt;stroke-linejoin:miter;stroke-opacity:1" d="M 47.3661,204.568 69.0492,223.541 z" id="boundary" inkscape:connector-curvature="0" />
	<path style="fill:none;stroke:red;stroke-width:1px;stroke-linecap:butt;stroke-linejoin:miter;stroke-opacity:1" d="M 69.0492,4 88.0219,25.6831 z" id="boundary" inkscape:connector-curvature="0" />
	<path style="fill:none;stroke:red;stroke-width:1px;stroke-linecap:butt;stroke-linejoin:miter;stroke-opacity:1" d="M 69.0492,223.541 71.7596,250.645 z" id="boundary" inkscape:connector-curvature="0" />
	<path style="fill:none;stroke:red;stroke-width:1px;stroke-linecap:butt;stroke-linejoin:miter;stroke-opacity:1" d="M 71.7596,250.645 71.7596,277.749 z" id="boundary" inkscape:connector-curvature="0" />
	<path style="fill:none;stroke:red;stroke-width:1px;stroke-linecap:butt;stroke-linejoin:miter;stroke-opacity:1" d="M 71.7596,277.749 71.7596,304.852 z" id="boundary" inkscape:connector-curvature="0" />
	<path style="fill:none;stroke:red;stroke-width:1px;stroke-linecap:butt;stroke-linejoin:miter;stroke-opacity:1" d="M 71.7596,304.852 71.7596,331.956 z" id="boundary" inkscape:connector-curvature="0" />
	<path style="fill:none;stroke:red;stroke-width:1px;stroke-linecap:butt;stroke-linejoin:miter;stroke-opacity:1" d="M 71.7596,331.956 71.7596,359.06 z" id="boundary" inkscape:connector-curvature="0" />
	<path style="fill:none;stroke:red;stroke-width:1px;stroke-linecap:butt;stroke-linejoin:miter;stroke-opacity:1" d="M 71.7596,359.06 71.7596,386.164 z" id="boundary" inkscape:connector-curvature="0" />
	<path style="fill:none;stroke:red;stroke-width:1px;stroke-linecap:butt;stroke-linejoin:miter;stroke-opacity:1" d="M 71.7596,386.164 71.7596,413.268 z" id="boundary" inkscape:connector-curvature="0" />
	<path style="fill:none;stroke:red;stroke-width:1px;stroke-linecap:butt;stroke-linejoin:miter;stroke-opacity:1" d="M 71.7596,413.268 71.7596,440.372 z" id="boundary" inkscape:connector-curvature="0" />
	<path style="fill:none;stroke:red;stroke-width:1px;stroke-linecap:butt;stroke-linejoin:miter;stroke-opacity:1" d="M 71.7596,440.372 71.7596,467.475 z" id="boundary" inkscape:connector-curvature="0" />
	<path style="fill:none;stroke:red;stroke-width:1px;stroke-linecap:butt;stroke-linejoin:miter;stroke-opacity:1" d="M 71.7596,467.475 71.7596,494.579 z" id="boundary" inkscape:connector-curvature="0" />
	<path style="fill:none;stroke:red;stroke-width:1px;stroke-linecap:butt;stroke-linejoin:miter;stroke-opacity:1" d="M 71.7596,494.579 71.7596,521.683 z" id="boundary" inkscape:connector-curvature="0" />
	<path style="fill:none;stroke:red;stroke-width:1px;stroke-linecap:butt;stroke-linejoin:miter;stroke-opacity:1" d="M 71.7596,521.683 71.7596,548.787 z" id="boundary" inkscape:connector-curvature="0" />
	<path style="fill:none;stroke:red;stroke-width:1px;stroke-linecap:butt;stroke-linejoin:miter;stroke-opacity:1" d="M 71.7596,548.787 71.7596,575.891 z" id="boundary" inkscape:connector-curvature="0" />
	<path style="fill:none;stroke:red;stroke-width:1px;stroke-linecap:butt;stroke-linejoin:miter;stroke-opacity:1" d="M 71.7596,575.891 85.3115,600.284 z" id="boundary" inkscape:connector-curvature="0" />
	<path style="fill:none;stroke:red;stroke-width:1px;stroke-linecap:butt;stroke-linejoin:miter;stroke-opacity:1" d="M 71.7596,865.902 85.3115,825.246 z" id="boundary" inkscape:connector-curvature="0" />
	<path style="fill:none;stroke:red;stroke-width:1px;stroke-linecap:butt;stroke-linejoin:miter;stroke-opacity:1" d="M 71.7596,865.902 85.3115,890.295 z" id="boundary" inkscape:connector-curvature="0" />
	<path style="fill:none;stroke:red;stroke-width:1px;stroke-linecap:butt;stroke-linejoin:miter;stroke-opacity:1" d="M 74.4699,60.918 74.4699,88.0219 z" id="boundary" inkscape:connector-curvature="0" />
	<path style="fill:none;stroke:red;stroke-width:1px;stroke-linecap:butt;stroke-linejoin:miter;stroke-opacity:1" d="M 74.4699,60.918 88.0219,25.6831 z" id="boundary" inkscape:connector-curvature="0" />
	<path style="fill:none;stroke:red;stroke-width:1px;stroke-linecap:butt;stroke-linejoin:miter;stroke-opacity:1" d="M 74.4699,88.0219 96.153,104.284 z" id="boundary" inkscape:connector-curvature="0" />
	<path style="fill:none;stroke:red;stroke-width:1px;stroke-linecap:butt;stroke-linejoin:miter;stroke-opacity:1" d="M 85.3115,600.284 85.3115,627.388 z" id="boundary" inkscape:connector-curvature="0" />
	<path style="fill:none;stroke:red;stroke-width:1px;stroke-linecap:butt;stroke-linejoin:miter;stroke-opacity:1" d="M 85.3115,627.388 98.8634,651.781 z" id="boundary" inkscape:connector-curvature="0" />
	<path style="fill:none;stroke:red;stroke-width:1px;stroke-linecap:butt;stroke-linejoin:miter;stroke-opacity:1" d="M 85.3115,825.246 98.8634,798.142 z" id="boundary" inkscape:connector-curvature="0" />
	<path style="fill:none;stroke:red;stroke-width:1px;stroke-linecap:butt;stroke-linejoin:miter;stroke-opacity:1" d="M 85.3115,890.295 85.3115,917.399 z" id="boundary" inkscape:connector-curvature="0" />
	<path style="fill:none;stroke:red;stroke-width:1px;stroke-linecap:butt;stroke-linejoin:miter;stroke-opacity:1" d="M 85.3115,917.399 98.8634,941.792 z" id="boundary" inkscape:connector-curvature="0" />
	<path style="fill:none;stroke:red;stroke-width:1px;stroke-linecap:butt;stroke-linejoin:miter;stroke-opacity:1" d="M 96.153,104.284 115.126,125.967 z" id="boundary" inkscape:connector-curvature="0" />
	<path style="fill:none;stroke:red;stroke-width:1px;stroke-linecap:butt;stroke-linejoin:miter;stroke-opacity:1" d="M 98.8634,651.781 98.8634,678.885 z" id="boundary" inkscape:connector-curvature="0" />
	<path style="fill:none;stroke:red;stroke-width:1px;stroke-linecap:butt;stroke-linejoin:miter;stroke-opacity:1" d="M 98.8634,678.885 101.574,705.989 z" id="boundary" inkscape:connector-curvature="0" />
	<path style="fill:none;stroke:red;stroke-width:1px;stroke-linecap:butt;stroke-linejoin:miter;stroke-opacity:1" d="M 98.8634,798.142 112.415,760.197 z" id="boundary" inkscape:connector-curvature="0" />
	<path style="fill:none;stroke:red;stroke-width:1px;stroke-linecap:butt;stroke-linejoin:miter;stroke-opacity:1" d="M 98.8634,941.792 125.967,933.661 z" id="boundary" inkscape:connector-curvature="0" />
	<path style="fill:none;stroke:red;stroke-width:1px;stroke-linecap:butt;stroke-linejoin:miter;stroke-opacity:1" d="M 101.574,705.989 112.415,733.093 z" id="boundary" inkscape:connector-curvature="0" />
	<path style="fill:none;stroke:red;stroke-width:1px;stroke-linecap:butt;stroke-linejoin:miter;stroke-opacity:1" d="M 112.415,733.093 112.415,760.197 z" id="boundary" inkscape:connector-curvature="0" />
	<path style="fill:none;stroke:red;stroke-width:1px;stroke-linecap:butt;stroke-linejoin:miter;stroke-opacity:1" d="M 115.126,125.967 142.23,134.098 z" id="boundary" inkscape:connector-curvature="0" />
	<path style="fill:none;stroke:red;stroke-width:1px;stroke-linecap:butt;stroke-linejoin:miter;stroke-opacity:1" d="M 125.967,933.661 128.678,901.137 z" id="boundary" inkscape:connector-curvature="0" />
	<path style="fill:none;stroke:red;stroke-width:1px;stroke-linecap:butt;stroke-linejoin:miter;stroke-opacity:1" d="M 128.678,901.137 153.071,887.585 z" id="boundary" inkscape:connector-curvature="0" />
	<path style="fill:none;stroke:red;stroke-width:1px;stroke-linecap:butt;stroke-linejoin:miter;stroke-opacity:1" d="M 142.23,134.098 169.333,139.519 z" id="boundary" inkscape:connector-curvature="0" />
	<path style="fill:none;stroke:red;stroke-width:1px;stroke-linecap:butt;stroke-linejoin:miter;stroke-opacity:1" d="M 153.071,887.585 166.623,911.978 z" id="boundary" inkscape:connector-curvature="0" />
	<path style="fill:none;stroke:red;stroke-width:1px;stroke-linecap:butt;stroke-linejoin:miter;stroke-opacity:1" d="M 166.623,911.978 180.175,936.372 z" id="boundary" inkscape:connector-curvature="0" />
	<path style="fill:none;stroke:red;stroke-width:1px;stroke-linecap:butt;stroke-linejoin:miter;stroke-opacity:1" d="M 166.623,987.869 180.175,963.475 z" id="boundary" inkscape:connector-curvature="0" />
	<path style="fill:none;stroke:red;stroke-width:1px;stroke-linecap:butt;stroke-linejoin:miter;stroke-opacity:1" d="M 166.623,987.869 193.727,996 z" id="boundary" inkscape:connector-curvature="0" />
	<path style="fill:none;stroke:red;stroke-width:1px;stroke-linecap:butt;stroke-linejoin:miter;stroke-opacity:1" d="M 169.333,139.519 180.175,106.995 z" id="boundary" inkscape:connector-curvature="0" />
	<path style="fill:none;stroke:red;stroke-width:1px;stroke-linecap:butt;stroke-linejoin:miter;stroke-opacity:1" d="M 169.333,277.749 169.333,304.852 z" id="boundary" inkscape:connector-curvature="0" />
	<path style="fill:none;stroke:red;stroke-width:1px;stroke-linecap:butt;stroke-linejoin:miter;stroke-opacity:1" d="M 169.333,277.749 182.885,237.093 z" id="boundary" inkscape:connector-curvature="0" />
	<path style="fill:none;stroke:red;stroke-width:1px;stroke-linecap:butt;stroke-linejoin:miter;stroke-opacity:1" d="M 169.333,304.852 169.333,331.956 z" id="boundary" inkscape:connector-curvature="0" />
	<path style="fill:none;stroke:red;stroke-width:1px;stroke-linecap:butt;stroke-linejoin:miter;stroke-opacity:1" d="M 169.333,331.956 169.333,359.06 z" id="boundary" inkscape:connector-curvature="0" />
	<path style="fill:none;stroke:red;stroke-width:1px;stroke-linecap:butt;stroke-linejoin:miter;stroke-opacity:1" d="M 169.333,359.06 169.333,386.164 z" id="boundary" inkscape:connector-curvature="0" />
	<path style="fill:none;stroke:red;stroke-width:1px;stroke-linecap:butt;stroke-linejoin:miter;stroke-opacity:1" d="M 169.333,386.164 169.333,413.268 z" id="boundary" inkscape:connector-curvature="0" />
	<path style="fill:none;stroke:red;stroke-width:1px;stroke-linecap:butt;stroke-linejoin:miter;stroke-opacity:1" d="M 169.333,413.268 169.333,440.372 z" id="boundary" inkscape:connector-curvature="0" />
	<path style="fill:none;stroke:red;stroke-width:1px;stroke-linecap:butt;stroke-linejoin:miter;stroke-opacity:1" d="M 169.333,440.372 169.333,467.475 z" id="boundary" inkscape:connector-curvature="0" />
	<path style="fill:none;stroke:red;stroke-width:1px;stroke-linecap:butt;stroke-linejoin:miter;stroke-opacity:1" d="M 169.333,467.475 169.333,494.579 z" id="boundary" inkscape:connector-curvature="0" />
	<path style="fill:none;stroke:red;stroke-width:1px;stroke-linecap:butt;stroke-linejoin:miter;stroke-opacity:1" d="M 169.333,494.579 169.333,521.683 z" id="boundary" inkscape:connector-curvature="0" />
	<path style="fill:none;stroke:red;stroke-width:1px;stroke-linecap:butt;stroke-linejoin:miter;stroke-opacity:1" d="M 169.333,521.683 169.333,548.787 z" id="boundary" inkscape:connector-curvature="0" />
	<path style="fill:none;stroke:red;stroke-width:1px;stroke-linecap:butt;stroke-linejoin:miter;stroke-opacity:1" d="M 169.333,548.787 169.333,575.891 z" id="boundary" inkscape:connector-curvature="0" />
	<path style="fill:none;stroke:red;stroke-width:1px;stroke-linecap:butt;stroke-linejoin:miter;stroke-opacity:1" d="M 169.333,575.891 174.754,602.995 z" id="boundary" inkscape:connector-curvature="0" />
	<path style="fill:none;stroke:red;stroke-width:1px;stroke-linecap:butt;stroke-linejoin:miter;stroke-opacity:1" d="M 174.754,602.995 182.885,630.098 z" id="boundary" inkscape:connector-curvature="0" />
	<path style="fill:none;stroke:red;stroke-width:1px;stroke-linecap:butt;stroke-linejoin:miter;stroke-opacity:1" d="M 180.175,79.8907 180.175,106.995 z" id="boundary" inkscape:connector-curvature="0" />
	<path style="fill:none;stroke:red;stroke-width:1px;stroke-linecap:butt;stroke-linejoin:miter;stroke-opacity:1" d="M 180.175,79.8907 193.727,52.7869 z" id="boundary" inkscape:connector-curvature="0" />
	<path style="fill:none;stroke:red;stroke-width:1px;stroke-linecap:butt;stroke-linejoin:miter;stroke-opacity:1" d="M 180.175,936.372 180.175,963.475 z" id="boundary" inkscape:connector-curvature="0" />
	<path style="fill:none;stroke:red;stroke-width:1px;stroke-linecap:butt;stroke-linejoin:miter;stroke-opacity:1" d="M 182.885,237.093 196.437,209.989 z" id="boundary" inkscape:connector-curvature="0" />
	<path style="fill:none;stroke:red;stroke-width:1px;stroke-linecap:butt;stroke-linejoin:miter;stroke-opacity:1" d="M 182.885,630.098 182.885,657.202 z" id="boundary" inkscape:connector-curvature="0" />
	<path style="fill:none;stroke:red;stroke-width:1px;stroke-linecap:butt;stroke-linejoin:miter;stroke-opacity:1" d="M 182.885,657.202 182.885,684.306 z" id="boundary" inkscape:connector-curvature="0" />
	<path style="fill:none;stroke:red;stroke-width:1px;stroke-linecap:butt;stroke-linejoin:miter;stroke-opacity:1" d="M 182.885,684.306 182.885,711.41 z" id="boundary" inkscape:connector-curvature="0" />
	<path style="fill:none;stroke:red;stroke-width:1px;stroke-linecap:butt;stroke-linejoin:miter;stroke-opacity:1" d="M 182.885,711.41 182.885,738.514 z" id="boundary" inkscape:connector-curvature="0" />
	<path style="fill:none;stroke:red;stroke-width:1px;stroke-linecap:butt;stroke-linejoin:miter;stroke-opacity:1" d="M 182.885,738.514 196.437,762.907 z" id="boundary" inkscape:connector-curvature="0" />
	<path style="fill:none;stroke:red;stroke-width:1px;stroke-linecap:butt;stroke-linejoin:miter;stroke-opacity:1" d="M 193.727,52.7869 215.41,31.1038 z" id="boundary" inkscape:connector-curvature="0" />
	<path style="fill:none;stroke:red;stroke-width:1px;stroke-linecap:butt;stroke-linejoin:miter;stroke-opacity:1" d="M 193.727,996 220.831,987.869 z" id="boundary" inkscape:connector-curvature="0" />
	<path style="fill:none;stroke:red;stroke-width:1px;stroke-linecap:butt;stroke-linejoin:miter;stroke-opacity:1" d="M 196.437,209.989 220.831,196.437 z" id="boundary" inkscape:connector-curvature="0" />
	<path style="fill:none;stroke:red;stroke-width:1px;stroke-linecap:butt;stroke-linejoin:miter;stroke-opacity:1" d="M 196.437,762.907 209.989,787.301 z" id="boundary" inkscape:connector-curvature="0" />
	<path style="fill:none;stroke:red;stroke-width:1px;stroke-linecap:butt;stroke-linejoin:miter;stroke-opacity:1" d="M 209.989,787.301 209.989,814.404 z" id="boundary" inkscape:connector-curvature="0" />
	<path style="fill:none;stroke:red;stroke-width:1px;stroke-linecap:butt;stroke-linejoin:miter;stroke-opacity:1" d="M 209.989,814.404 223.541,838.798 z" id="boundary" inkscape:connector-curvature="0" />
	<path style="fill:none;stroke:red;stroke-width:1px;stroke-linecap:butt;stroke-linejoin:miter;stroke-opacity:1" d="M 215.41,31.1038 237.093,47.3661 z" id="boundary" inkscape:connector-curvature="0" />
	<path style="fill:none;stroke:red;stroke-width:1px;stroke-linecap:butt;stroke-linejoin:miter;stroke-opacity:1" d="M 220.831,196.437 237.093,169.333 z" id="boundary" inkscape:connector-curvature="0" />
	<path style="fill:none;stroke:red;stroke-width:1px;stroke-linecap:butt;stroke-linejoin:miter;stroke-opacity:1" d="M 220.831,987.869 237.093,944.503 z" id="boundary" inkscape:connector-curvature="0" />
	<path style="fill:none;stroke:red;stroke-width:1px;stroke-linecap:butt;stroke-linejoin:miter;stroke-opacity:1" d="M 223.541,838.798 223.541,865.902 z" id="boundary" inkscape:connector-curvature="0" />
	<path style="fill:none;stroke:red;stroke-width:1px;stroke-linecap:butt;stroke-linejoin:miter;stroke-opacity:1" d="M 223.541,865.902 237.093,890.295 z" id="boundary" inkscape:connector-curvature="0" />
	<path style="fill:none;stroke:red;stroke-width:1px;stroke-linecap:butt;stroke-linejoin:miter;stroke-opacity:1" d="M 237.093,47.3661 237.093,74.4699 z" id="boundary" inkscape:connector-curvature="0" />
	<path style="fill:none;stroke:red;stroke-width:1px;stroke-linecap:butt;stroke-linejoin:miter;stroke-opacity:1" d="M 237.093,74.4699 250.645,98.8634 z" id="boundary" inkscape:connector-curvature="0" />
	<path style="fill:none;stroke:red;stroke-width:1px;stroke-linecap:butt;stroke-linejoin:miter;stroke-opacity:1" d="M 237.093,142.23 237.093,169.333 z" id="boundary" inkscape:connector-curvature="0" />
	<path style="fill:none;stroke:red;stroke-width:1px;stroke-linecap:butt;stroke-linejoin:miter;stroke-opacity:1" d="M 237.093,142.23 250.645,98.8634 z" id="boundary" inkscape:connector-curvature="0" />
	<path style="fill:none;stroke:red;stroke-width:1px;stroke-linecap:butt;stroke-linejoin:miter;stroke-opacity:1" d="M 237.093,890.295 237.093,917.399 z" id="boundary" inkscape:connector-curvature="0" />
	<path style="fill:none;stroke:red;stroke-width:1px;stroke-linecap:butt;stroke-linejoin:miter;stroke-opacity:1" d="M 237.093,917.399 237.093,944.503 z" id="boundary" inkscape:connector-curvature="0" />
	<circle cx="4" cy="52.7869" r="4" fill="#0" id="circle0"/>
	<circle cx="4" cy="79.8907" r="4" fill="#0" id="circle1"/>
	<circle cx="4" cy="106.995" r="4" fill="#0" id="circle2"/>
	<circle cx="4" cy="134.098" r="4" fill="#0" id="circle3"/>
	<circle cx="17.5519" cy="25.6831" r="4" fill="#0" id="circle4"/>
	<circle cx="17.5519" cy="158.492" r="4" fill="#0" id="circle5"/>
	<circle cx="31.1038" cy="182.885" r="4" fill="#0" id="circle6"/>
	<circle cx="44.6557" cy="17.5519" r="4" fill="#0" id="circle7"/>
	<circle cx="47.3661" cy="204.568" r="4" fill="#0" id="circle8"/>
	<circle cx="69.0492" cy="4" r="4" fill="#0" id="circle9"/>
	<circle cx="69.0492" cy="223.541" r="4" fill="#0" id="circle10"/>
	<circle cx="71.7596" cy="250.645" r="4" fill="#0" id="circle11"/>
	<circle cx="71.7596" cy="277.749" r="4" fill="#0" id="circle12"/>
	<circle cx="71.7596" cy="304.852" r="4" fill="#0" id="circle13"/>
	<circle cx="71.7596" cy="331.956" r="4" fill="#0" id="circle14"/>
	<circle cx="71.7596" cy="359.06" r="4" fill="#0" id="circle15"/>
	<circle cx="71.7596" cy="386.164" r="4" fill="#0" id="circle16"/>
	<circle cx="71.7596" cy="413.268" r="4" fill="#0" id="circle17"/>
	<circle cx="71.7596" cy="440.372" r="4" fill="#0" id="circle18"/>
	<circle cx="71.7596" cy="467.475" r="4" fill="#0" id="circle19"/>
	<circle cx="71.7596" cy="494.579" r="4" fill="#0" id="circle20"/>
	<circle cx="71.7596" cy="521.683" r="4" fill="#0" id="circle21"/>
	<circle cx="71.7596" cy="548.787" r="4" fill="#0" id="circle22"/>
	<circle cx="71.7596" cy="575.891" r="4" fill="#0" id="circle23"/>
	<circle cx="71.7596" cy="865.902" r="4" fill="#0" id="circle24"/>
	<circle cx="74.4699" cy="60.918" r="4" fill="#0" id="circle25"/>
	<circle cx="74.4699" cy="88.0219" r="4" fill="#0" id="circle26"/>
	<circle cx="85.3115" cy="600.284" r="4" fill="#0" id="circle27"/>
	<circle cx="85.3115" cy="627.388" r="4" fill="#0" id="circle28"/>
	<circle cx="85.3115" cy="825.246" r="4" fill="#0" id="circle29"/>
	<circle cx="85.3115" cy="890.295" r="4" fill="#0" id="circle30"/>
	<circle cx="85.3115" cy="917.399" r="4" fill="#0" id="circle31"/>
	<circle cx="88.0219" cy="25.6831" r="4" fill="#0" id="circle32"/>
	<circle cx="96.153" cy="104.284" r="4" fill="#0" id="circle33"/>
	<circle cx="98.8634" cy="651.781" r="4" fill="#0" id="circle34"/>
	<circle cx="98.8634" cy="678.885" r="4" fill="#0" id="circle35"/>
	<circle cx="98.8634" cy="798.142" r="4" fill="#0" id="circle36"/>
	<circle cx="98.8634" cy="941.792" r="4" fill="#0" id="circle37"/>
	<circle cx="101.574" cy="705.989" r="4" fill="#0" id="circle38"/>
	<circle cx="112.415" cy="733.093" r="4" fill="#0" id="circle39"/>
	<circle cx="112.415" cy="760.197" r="4" fill="#0" id="circle40"/>
	<circle cx="115.126" cy="125.967" r="4" fill="#0" id="circle41"/>
	<circle cx="125.967" cy="933.661" r="4" fill="#0" id="circle42"/>
	<circle cx="128.678" cy="901.137" r="4" fill="#0" id="circle43"/>
	<circle cx="142.23" cy="134.098" r="4" fill="#0" id="circle44"/>
	<circle cx="153.071" cy="887.585" r="4" fill="#0" id="circle45"/>
	<circle cx="166.623" cy="911.978" r="4" fill="#0" id="circle46"/>
	<circle cx="166.623" cy="987.869" r="4" fill="#0" id="circle47"/>
	<circle cx="169.333" cy="139.519" r="4" fill="#0" id="circle48"/>
	<circle cx="169.333" cy="277.749" r="4" fill="#0" id="circle49"/>
	<circle cx="169.333" cy="304.852" r="4" fill="#0" id="circle50"/>
	<circle cx="169.333" cy="331.956" r="4" fill="#0" id="circle51"/>
	<circle cx="169.333" cy="359.06" r="4" fill="#0" id="circle52"/>
	<circle cx="169.333" cy="386.164" r="4" fill="#0" id="circle53"/>
	<circle cx="169.333" cy="413.268" r="4" fill="#0" id="circle54"/>
	<circle cx="169.333" cy="440.372" r="4" fill="#0" id="circle55"/>
	<circle cx="169.333" cy="467.475" r="4" fill="#0" id="circle56"/>
	<circle cx="169.333" cy="494.579" r="4" fill="#0" id="circle57"/>
	<circle cx="169.333" cy="521.683" r="4" fill="#0" id="circle58"/>
	<circle cx="169.333" cy="548.787" r="4" fill="#0" id="circle59"/>
	<circle cx="169.333" cy="575.891" r="4" fill="#0" id="circle60"/>
	<circle cx="174.754" cy="602.995" r="4" fill="#0" id="circle61"/>
	<circle cx="180.175" cy="79.8907" r="4" fill="#0" id="circle62"/>
	<circle cx="180.175" cy="106.995" r="4" fill="#0" id="circle63"/>
	<circle cx="180.175" cy="936.372" r="4" fill="#0" id="circle64"/>
	<circle cx="180.175" cy="963.475" r="4" fill="#0" id="circle65"/>
	<circle cx="182.885" cy="237.093" r="4" fill="#0" id="circle66"/>
	<circle cx="182.885" cy="630.098" r="4" fill="#0" id="circle67"/>
	<circle cx="182.885" cy="657.202" r="4" fill="#0" id="circle68"/>
	<circle cx="182.885" cy="684.306" r="4" fill="#0" id="circle69"/>
	<circle cx="182.885" cy="711.41" r="4" fill="#0" id="circle70"/>
	<circle cx="182.885" cy="738.514" r="4" fill="#0" id="circle71"/>
	<circle cx="193.727" cy="52.7869" r="4" fill="#0" id="circle72"/>
	<circle cx="193.727" cy="996" r="4" fill="#0" id="circle73"/>
	<circle cx="196.437" cy="209.989" r="4" fill="#0" id="circle74"/>
	<circle cx="196.437" cy="762.907" r="4" fill="#0" id="circle75"/>
	<circle cx="209.989" cy="787.301" r="4" fill="#0" id="circle76"/>
	<circle cx="209.989" cy="814.404" r="4" fill="#0" id="circle77"/>
	<circle cx="215.41" cy="31.1038" r="4" fill="#0" id="circle78"/>
	<circle cx="220.831" cy="196.437" r="4" fill="#0" id="circle79"/>
	<circle cx="220.831" cy="987.869" r="4" fill="#0" id="circle80"/>
	<circle cx="223.541" cy="838.798" r="4" fill="#0" id="circle81"/>
	<circle cx="223.541" cy="865.902" r="4" fill="#0" id="circle82"/>
	<circle cx="237.093" cy="47.3661" r="4" fill="#0" id="circle83"/>
	<circle cx="237.093" cy="74.4699" r="4" fill="#0" id="circle84"/>
	<circle cx="237.093" cy="142.23" r="4" fill="#0" id="circle85"/>
	<circle cx="237.093" cy="169.333" r="4" fill="#0" id="circle86"/>
	<circle cx="237.093" cy="890.295" r="4" fill="#0" id="circle87"/>
	<circle cx="237.093" cy="917.399" r="4" fill="#0" id="circle88"/>
	<circle cx="237.093" cy="944.503" r="4" fill="#0" id="circle89"/>
	<circle cx="250.645" cy="98.8634" r="4" fill="#0" id="circle90"/>
	</g>
</svg>