<?xml version="1.0" encoding="UTF-8" standalone="no"?>
<!-- Created with CurveBenchmark -->
<svg
	xmlns:dc="http://purl.org/dc/elements/1.1/"
	xmlns:cc="http://creativecommons.org/ns#"
	xmlns:rdf="http://www.w3.org/1999/02/22-rdf-syntax-ns#"
	xmlns:svg="http://www.w3.org/2000/svg"
	xmlns="http://www.w3.org/2000/svg"
	xmlns:sodipodi="http://sodipodi.sourceforge.net/DTD/sodipodi-0.dtd"
	xmlns:inkscape="http://www.inkscape.org/namespaces/inkscape"
	width="1000"
	height="1000"
	id="svg2"
	version="1.1"
	sodipodi:docname="manifold/discur-cat40.png.txt">
<defs
	id="defs4" />
<metadata
	id="metadata7">
	<rdf:RDF>
		<cc:Work
			rdf:about="">
			<dc:format>image/svg+xml</dc:format>
			<dc:type
				rdf:resource="http://purl.org/dc/dcmitype/StillImage" />
			<dc:title></dc:title>
		</cc:Work>
	</rdf:RDF>
</metadata>
<g
	inkscape:label="Layer 1"
	inkscape:groupmode="layer"
	id="layer1">
	<path style="fill:none;stroke:red;stroke-width:1px;stroke-linecap:butt;stroke-linejoin:miter;stroke-opacity:1" d="M 4,161.237 10.3918,172.742 z" id="boundary" inkscape:connector-curvature="0" />
	<path style="fill:none;stroke:red;stroke-width:1px;stroke-linecap:butt;stroke-linejoin:miter;stroke-opacity:1" d="M 4,161.237 16.7835,148.454 z" id="boundary" inkscape:connector-curvature="0" />
	<path style="fill:none;stroke:red;stroke-width:1px;stroke-linecap:butt;stroke-linejoin:miter;stroke-opacity:1" d="M 10.3918,172.742 16.7835,184.247 z" id="boundary" inkscape:connector-curvature="0" />
	<path style="fill:none;stroke:red;stroke-width:1px;stroke-linecap:butt;stroke-linejoin:miter;stroke-opacity:1" d="M 16.7835,148.454 29.567,144.619 z" id="boundary" inkscape:connector-curvature="0" />
	<path style="fill:none;stroke:red;stroke-width:1px;stroke-linecap:butt;stroke-linejoin:miter;stroke-opacity:1" d="M 16.7835,184.247 24.4536,194.474 z" id="boundary" inkscape:connector-curvature="0" />
	<path style="fill:none;stroke:red;stroke-width:1px;stroke-linecap:butt;stroke-linejoin:miter;stroke-opacity:1" d="M 24.4536,194.474 34.6804,203.423 z" id="boundary" inkscape:connector-curvature="0" />
	<path style="fill:none;stroke:red;stroke-width:1px;stroke-linecap:butt;stroke-linejoin:miter;stroke-opacity:1" d="M 29.567,144.619 42.3505,147.175 z" id="boundary" inkscape:connector-curvature="0" />
	<path style="fill:none;stroke:red;stroke-width:1px;stroke-linecap:butt;stroke-linejoin:miter;stroke-opacity:1" d="M 34.6804,203.423 46.1856,209.814 z" id="boundary" inkscape:connector-curvature="0" />
	<path style="fill:none;stroke:red;stroke-width:1px;stroke-linecap:butt;stroke-linejoin:miter;stroke-opacity:1" d="M 35.9588,52.5773 42.3505,39.7938 z" id="boundary" inkscape:connector-curvature="0" />
	<path style="fill:none;stroke:red;stroke-width:1px;stroke-linecap:butt;stroke-linejoin:miter;stroke-opacity:1" d="M 35.9588,52.5773 42.3505,64.0825 z" id="boundary" inkscape:connector-curvature="0" />
	<path style="fill:none;stroke:red;stroke-width:1px;stroke-linecap:butt;stroke-linejoin:miter;stroke-opacity:1" d="M 42.3505,39.7938 55.134,33.4021 z" id="boundary" inkscape:connector-curvature="0" />
	<path style="fill:none;stroke:red;stroke-width:1px;stroke-linecap:butt;stroke-linejoin:miter;stroke-opacity:1" d="M 42.3505,64.0825 48.7423,75.5876 z" id="boundary" inkscape:connector-curvature="0" />
	<path style="fill:none;stroke:red;stroke-width:1px;stroke-linecap:butt;stroke-linejoin:miter;stroke-opacity:1" d="M 42.3505,147.175 50.0206,157.402 z" id="boundary" inkscape:connector-curvature="0" />
	<path style="fill:none;stroke:red;stroke-width:1px;stroke-linecap:butt;stroke-linejoin:miter;stroke-opacity:1" d="M 46.1856,209.814 58.9691,214.928 z" id="boundary" inkscape:connector-curvature="0" />
	<path style="fill:none;stroke:red;stroke-width:1px;stroke-linecap:butt;stroke-linejoin:miter;stroke-opacity:1" d="M 48.7423,75.5876 60.2474,81.9794 z" id="boundary" inkscape:connector-curvature="0" />
	<path style="fill:none;stroke:red;stroke-width:1px;stroke-linecap:butt;stroke-linejoin:miter;stroke-opacity:1" d="M 50.0206,157.402 62.8041,157.402 z" id="boundary" inkscape:connector-curvature="0" />
	<path style="fill:none;stroke:red;stroke-width:1px;stroke-linecap:butt;stroke-linejoin:miter;stroke-opacity:1" d="M 55.134,33.4021 67.9175,35.9588 z" id="boundary" inkscape:connector-curvature="0" />
	<path style="fill:none;stroke:red;stroke-width:1px;stroke-linecap:butt;stroke-linejoin:miter;stroke-opacity:1" d="M 58.9691,214.928 67.9175,225.155 z" id="boundary" inkscape:connector-curvature="0" />
	<path style="fill:none;stroke:red;stroke-width:1px;stroke-linecap:butt;stroke-linejoin:miter;stroke-opacity:1" d="M 60.2474,81.9794 69.1959,92.2062 z" id="boundary" inkscape:connector-curvature="0" />
	<path style="fill:none;stroke:red;stroke-width:1px;stroke-linecap:butt;stroke-linejoin:miter;stroke-opacity:1" d="M 62.8041,157.402 69.1959,168.907 z" id="boundary" inkscape:connector-curvature="0" />
	<path style="fill:none;stroke:red;stroke-width:1px;stroke-linecap:butt;stroke-linejoin:miter;stroke-opacity:1" d="M 67.9175,35.9588 80.701,38.5155 z" id="boundary" inkscape:connector-curvature="0" />
	<path style="fill:none;stroke:red;stroke-width:1px;stroke-linecap:butt;stroke-linejoin:miter;stroke-opacity:1" d="M 67.9175,225.155 78.1443,234.103 z" id="boundary" inkscape:connector-curvature="0" />
	<path style="fill:none;stroke:red;stroke-width:1px;stroke-linecap:butt;stroke-linejoin:miter;stroke-opacity:1" d="M 67.9175,557.526 67.9175,570.309 z" id="boundary" inkscape:connector-curvature="0" />
	<path style="fill:none;stroke:red;stroke-width:1px;stroke-linecap:butt;stroke-linejoin:miter;stroke-opacity:1" d="M 67.9175,557.526 80.701,551.134 z" id="boundary" inkscape:connector-curvature="0" />
	<path style="fill:none;stroke:red;stroke-width:1px;stroke-linecap:butt;stroke-linejoin:miter;stroke-opacity:1" d="M 67.9175,570.309 78.1443,579.258 z" id="boundary" inkscape:connector-curvature="0" />
	<path style="fill:none;stroke:red;stroke-width:1px;stroke-linecap:butt;stroke-linejoin:miter;stroke-opacity:1" d="M 69.1959,92.2062 79.4227,101.155 z" id="boundary" inkscape:connector-curvature="0" />
	<path style="fill:none;stroke:red;stroke-width:1px;stroke-linecap:butt;stroke-linejoin:miter;stroke-opacity:1" d="M 69.1959,168.907 81.9794,174.021 z" id="boundary" inkscape:connector-curvature="0" />
	<path style="fill:none;stroke:red;stroke-width:1px;stroke-linecap:butt;stroke-linejoin:miter;stroke-opacity:1" d="M 78.1443,234.103 87.0928,244.33 z" id="boundary" inkscape:connector-curvature="0" />
	<path style="fill:none;stroke:red;stroke-width:1px;stroke-linecap:butt;stroke-linejoin:miter;stroke-opacity:1" d="M 78.1443,579.258 87.0928,589.485 z" id="boundary" inkscape:connector-curvature="0" />
	<path style="fill:none;stroke:red;stroke-width:1px;stroke-linecap:butt;stroke-linejoin:miter;stroke-opacity:1" d="M 79.4227,101.155 84.5361,113.938 z" id="boundary" inkscape:connector-curvature="0" />
	<path style="fill:none;stroke:red;stroke-width:1px;stroke-linecap:butt;stroke-linejoin:miter;stroke-opacity:1" d="M 80.701,38.5155 88.3711,48.7423 z" id="boundary" inkscape:connector-curvature="0" />
	<path style="fill:none;stroke:red;stroke-width:1px;stroke-linecap:butt;stroke-linejoin:miter;stroke-opacity:1" d="M 80.701,551.134 93.4845,553.691 z" id="boundary" inkscape:connector-curvature="0" />
	<path style="fill:none;stroke:red;stroke-width:1px;stroke-linecap:butt;stroke-linejoin:miter;stroke-opacity:1" d="M 81.9794,174.021 81.9794,186.804 z" id="boundary" inkscape:connector-curvature="0" />
	<path style="fill:none;stroke:red;stroke-width:1px;stroke-linecap:butt;stroke-linejoin:miter;stroke-opacity:1" d="M 81.9794,186.804 90.9278,197.031 z" id="boundary" inkscape:connector-curvature="0" />
	<path style="fill:none;stroke:red;stroke-width:1px;stroke-linecap:butt;stroke-linejoin:miter;stroke-opacity:1" d="M 84.5361,113.938 90.9278,125.443 z" id="boundary" inkscape:connector-curvature="0" />
	<path style="fill:none;stroke:red;stroke-width:1px;stroke-linecap:butt;stroke-linejoin:miter;stroke-opacity:1" d="M 87.0928,244.33 93.4845,255.835 z" id="boundary" inkscape:connector-curvature="0" />
	<path style="fill:none;stroke:red;stroke-width:1px;stroke-linecap:butt;stroke-linejoin:miter;stroke-opacity:1" d="M 87.0928,589.485 97.3196,598.433 z" id="boundary" inkscape:connector-curvature="0" />
	<path style="fill:none;stroke:red;stroke-width:1px;stroke-linecap:butt;stroke-linejoin:miter;stroke-opacity:1" d="M 88.3711,48.7423 94.7629,60.2474 z" id="boundary" inkscape:connector-curvature="0" />
	<path style="fill:none;stroke:red;stroke-width:1px;stroke-linecap:butt;stroke-linejoin:miter;stroke-opacity:1" d="M 90.9278,125.443 99.8763,135.67 z" id="boundary" inkscape:connector-curvature="0" />
	<path style="fill:none;stroke:red;stroke-width:1px;stroke-linecap:butt;stroke-linejoin:miter;stroke-opacity:1" d="M 90.9278,197.031 101.155,205.979 z" id="boundary" inkscape:connector-curvature="0" />
	<path style="fill:none;stroke:red;stroke-width:1px;stroke-linecap:butt;stroke-linejoin:miter;stroke-opacity:1" d="M 93.4845,255.835 102.433,266.062 z" id="boundary" inkscape:connector-curvature="0" />
	<path style="fill:none;stroke:red;stroke-width:1px;stroke-linecap:butt;stroke-linejoin:miter;stroke-opacity:1" d="M 93.4845,553.691 106.268,556.247 z" id="boundary" inkscape:connector-curvature="0" />
	<path style="fill:none;stroke:red;stroke-width:1px;stroke-linecap:butt;stroke-linejoin:miter;stroke-opacity:1" d="M 94.7629,60.2474 101.155,71.7526 z" id="boundary" inkscape:connector-curvature="0" />
	<path style="fill:none;stroke:red;stroke-width:1px;stroke-linecap:butt;stroke-linejoin:miter;stroke-opacity:1" d="M 97.3196,598.433 107.546,606.103 z" id="boundary" inkscape:connector-curvature="0" />
	<path style="fill:none;stroke:red;stroke-width:1px;stroke-linecap:butt;stroke-linejoin:miter;stroke-opacity:1" d="M 99.8763,135.67 106.268,147.175 z" id="boundary" inkscape:connector-curvature="0" />
	<path style="fill:none;stroke:red;stroke-width:1px;stroke-linecap:butt;stroke-linejoin:miter;stroke-opacity:1" d="M 101.155,71.7526 107.546,83.2577 z" id="boundary" inkscape:connector-curvature="0" />
	<path style="fill:none;stroke:red;stroke-width:1px;stroke-linecap:butt;stroke-linejoin:miter;stroke-opacity:1" d="M 101.155,205.979 110.103,216.206 z" id="boundary" inkscape:connector-curvature="0" />
	<path style="fill:none;stroke:red;stroke-width:1px;stroke-linecap:butt;stroke-linejoin:miter;stroke-opacity:1" d="M 102.433,266.062 108.825,277.567 z" id="boundary" inkscape:connector-curvature="0" />
	<path style="fill:none;stroke:red;stroke-width:1px;stroke-linecap:butt;stroke-linejoin:miter;stroke-opacity:1" d="M 106.268,147.175 112.66,158.68 z" id="boundary" inkscape:connector-curvature="0" />
	<path style="fill:none;stroke:red;stroke-width:1px;stroke-linecap:butt;stroke-linejoin:miter;stroke-opacity:1" d="M 106.268,556.247 113.938,566.474 z" id="boundary" inkscape:connector-curvature="0" />
	<path style="fill:none;stroke:red;stroke-width:1px;stroke-linecap:butt;stroke-linejoin:miter;stroke-opacity:1" d="M 107.546,83.2577 113.938,94.7629 z" id="boundary" inkscape:connector-curvature="0" />
	<path style="fill:none;stroke:red;stroke-width:1px;stroke-linecap:butt;stroke-linejoin:miter;stroke-opacity:1" d="M 107.546,606.103 120.33,608.66 z" id="boundary" inkscape:connector-curvature="0" />
	<path style="fill:none;stroke:red;stroke-width:1px;stroke-linecap:butt;stroke-linejoin:miter;stroke-opacity:1" d="M 108.825,277.567 112.66,290.351 z" id="boundary" inkscape:connector-curvature="0" />
	<path style="fill:none;stroke:red;stroke-width:1px;stroke-linecap:butt;stroke-linejoin:miter;stroke-opacity:1" d="M 110.103,216.206 120.33,225.155 z" id="boundary" inkscape:connector-curvature="0" />
	<path style="fill:none;stroke:red;stroke-width:1px;stroke-linecap:butt;stroke-linejoin:miter;stroke-opacity:1" d="M 112.66,158.68 116.495,171.464 z" id="boundary" inkscape:connector-curvature="0" />
	<path style="fill:none;stroke:red;stroke-width:1px;stroke-linecap:butt;stroke-linejoin:miter;stroke-opacity:1" d="M 112.66,290.351 112.66,303.134 z" id="boundary" inkscape:connector-curvature="0" />
	<path style="fill:none;stroke:red;stroke-width:1px;stroke-linecap:butt;stroke-linejoin:miter;stroke-opacity:1" d="M 112.66,303.134 122.887,312.082 z" id="boundary" inkscape:connector-curvature="0" />
	<path style="fill:none;stroke:red;stroke-width:1px;stroke-linecap:butt;stroke-linejoin:miter;stroke-opacity:1" d="M 113.938,94.7629 113.938,107.546 z" id="boundary" inkscape:connector-curvature="0" />
	<path style="fill:none;stroke:red;stroke-width:1px;stroke-linecap:butt;stroke-linejoin:miter;stroke-opacity:1" d="M 113.938,107.546 120.33,119.052 z" id="boundary" inkscape:connector-curvature="0" />
	<path style="fill:none;stroke:red;stroke-width:1px;stroke-linecap:butt;stroke-linejoin:miter;stroke-opacity:1" d="M 113.938,566.474 124.165,574.144 z" id="boundary" inkscape:connector-curvature="0" />
	<path style="fill:none;stroke:red;stroke-width:1px;stroke-linecap:butt;stroke-linejoin:miter;stroke-opacity:1" d="M 116.495,171.464 119.052,184.247 z" id="boundary" inkscape:connector-curvature="0" />
	<path style="fill:none;stroke:red;stroke-width:1px;stroke-linecap:butt;stroke-linejoin:miter;stroke-opacity:1" d="M 119.052,184.247 122.887,197.031 z" id="boundary" inkscape:connector-curvature="0" />
	<path style="fill:none;stroke:red;stroke-width:1px;stroke-linecap:butt;stroke-linejoin:miter;stroke-opacity:1" d="M 120.33,119.052 126.722,130.557 z" id="boundary" inkscape:connector-curvature="0" />
	<path style="fill:none;stroke:red;stroke-width:1px;stroke-linecap:butt;stroke-linejoin:miter;stroke-opacity:1" d="M 120.33,225.155 129.278,235.381 z" id="boundary" inkscape:connector-curvature="0" />
	<path style="fill:none;stroke:red;stroke-width:1px;stroke-linecap:butt;stroke-linejoin:miter;stroke-opacity:1" d="M 120.33,608.66 129.278,618.887 z" id="boundary" inkscape:connector-curvature="0" />
	<path style="fill:none;stroke:red;stroke-width:1px;stroke-linecap:butt;stroke-linejoin:miter;stroke-opacity:1" d="M 122.887,197.031 131.835,207.258 z" id="boundary" inkscape:connector-curvature="0" />
	<path style="fill:none;stroke:red;stroke-width:1px;stroke-linecap:butt;stroke-linejoin:miter;stroke-opacity:1" d="M 122.887,312.082 129.278,323.588 z" id="boundary" inkscape:connector-curvature="0" />
	<path style="fill:none;stroke:red;stroke-width:1px;stroke-linecap:butt;stroke-linejoin:miter;stroke-opacity:1" d="M 124.165,574.144 133.113,584.371 z" id="boundary" inkscape:connector-curvature="0" />
	<path style="fill:none;stroke:red;stroke-width:1px;stroke-linecap:butt;stroke-linejoin:miter;stroke-opacity:1" d="M 126.722,130.557 133.113,142.062 z" id="boundary" inkscape:connector-curvature="0" />
	<path style="fill:none;stroke:red;stroke-width:1px;stroke-linecap:butt;stroke-linejoin:miter;stroke-opacity:1" d="M 129.278,235.381 139.505,244.33 z" id="boundary" inkscape:connector-curvature="0" />
	<path style="fill:none;stroke:red;stroke-width:1px;stroke-linecap:butt;stroke-linejoin:miter;stroke-opacity:1" d="M 129.278,323.588 142.062,324.866 z" id="boundary" inkscape:connector-curvature="0" />
	<path style="fill:none;stroke:red;stroke-width:1px;stroke-linecap:butt;stroke-linejoin:miter;stroke-opacity:1" d="M 129.278,618.887 139.505,627.835 z" id="boundary" inkscape:connector-curvature="0" />
	<path style="fill:none;stroke:red;stroke-width:1px;stroke-linecap:butt;stroke-linejoin:miter;stroke-opacity:1" d="M 131.835,207.258 138.227,218.763 z" id="boundary" inkscape:connector-curvature="0" />
	<path style="fill:none;stroke:red;stroke-width:1px;stroke-linecap:butt;stroke-linejoin:miter;stroke-opacity:1" d="M 133.113,142.062 139.505,153.567 z" id="boundary" inkscape:connector-curvature="0" />
	<path style="fill:none;stroke:red;stroke-width:1px;stroke-linecap:butt;stroke-linejoin:miter;stroke-opacity:1" d="M 133.113,584.371 143.34,593.32 z" id="boundary" inkscape:connector-curvature="0" />
	<path style="fill:none;stroke:red;stroke-width:1px;stroke-linecap:butt;stroke-linejoin:miter;stroke-opacity:1" d="M 138.227,218.763 144.619,230.268 z" id="boundary" inkscape:connector-curvature="0" />
	<path style="fill:none;stroke:red;stroke-width:1px;stroke-linecap:butt;stroke-linejoin:miter;stroke-opacity:1" d="M 139.505,153.567 147.175,163.794 z" id="boundary" inkscape:connector-curvature="0" />
	<path style="fill:none;stroke:red;stroke-width:1px;stroke-linecap:butt;stroke-linejoin:miter;stroke-opacity:1" d="M 139.505,244.33 144.619,230.268 z" id="boundary" inkscape:connector-curvature="0" />
	<path style="fill:none;stroke:red;stroke-width:1px;stroke-linecap:butt;stroke-linejoin:miter;stroke-opacity:1" d="M 139.505,627.835 148.454,638.062 z" id="boundary" inkscape:connector-curvature="0" />
	<path style="fill:none;stroke:red;stroke-width:1px;stroke-linecap:butt;stroke-linejoin:miter;stroke-opacity:1" d="M 142.062,324.866 154.845,329.979 z" id="boundary" inkscape:connector-curvature="0" />
	<path style="fill:none;stroke:red;stroke-width:1px;stroke-linecap:butt;stroke-linejoin:miter;stroke-opacity:1" d="M 143.34,593.32 156.124,598.433 z" id="boundary" inkscape:connector-curvature="0" />
	<path style="fill:none;stroke:red;stroke-width:1px;stroke-linecap:butt;stroke-linejoin:miter;stroke-opacity:1" d="M 144.619,90.9278 144.619,103.711 z" id="boundary" inkscape:connector-curvature="0" />
	<path style="fill:none;stroke:red;stroke-width:1px;stroke-linecap:butt;stroke-linejoin:miter;stroke-opacity:1" d="M 144.619,90.9278 151.01,78.1443 z" id="boundary" inkscape:connector-curvature="0" />
	<path style="fill:none;stroke:red;stroke-width:1px;stroke-linecap:butt;stroke-linejoin:miter;stroke-opacity:1" d="M 144.619,103.711 144.619,116.495 z" id="boundary" inkscape:connector-curvature="0" />
	<path style="fill:none;stroke:red;stroke-width:1px;stroke-linecap:butt;stroke-linejoin:miter;stroke-opacity:1" d="M 144.619,116.495 144.619,129.278 z" id="boundary" inkscape:connector-curvature="0" />
	<path style="fill:none;stroke:red;stroke-width:1px;stroke-linecap:butt;stroke-linejoin:miter;stroke-opacity:1" d="M 144.619,129.278 154.845,138.227 z" id="boundary" inkscape:connector-curvature="0" />
	<path style="fill:none;stroke:red;stroke-width:1px;stroke-linecap:butt;stroke-linejoin:miter;stroke-opacity:1" d="M 147.175,163.794 157.402,172.742 z" id="boundary" inkscape:connector-curvature="0" />
	<path style="fill:none;stroke:red;stroke-width:1px;stroke-linecap:butt;stroke-linejoin:miter;stroke-opacity:1" d="M 148.454,638.062 158.68,647.01 z" id="boundary" inkscape:connector-curvature="0" />
	<path style="fill:none;stroke:red;stroke-width:1px;stroke-linecap:butt;stroke-linejoin:miter;stroke-opacity:1" d="M 151.01,78.1443 161.237,67.9175 z" id="boundary" inkscape:connector-curvature="0" />
	<path style="fill:none;stroke:red;stroke-width:1px;stroke-linecap:butt;stroke-linejoin:miter;stroke-opacity:1" d="M 154.845,138.227 159.959,151.01 z" id="boundary" inkscape:connector-curvature="0" />
	<path style="fill:none;stroke:red;stroke-width:1px;stroke-linecap:butt;stroke-linejoin:miter;stroke-opacity:1" d="M 154.845,329.979 163.794,340.206 z" id="boundary" inkscape:connector-curvature="0" />
	<path style="fill:none;stroke:red;stroke-width:1px;stroke-linecap:butt;stroke-linejoin:miter;stroke-opacity:1" d="M 156.124,598.433 163.794,576.701 z" id="boundary" inkscape:connector-curvature="0" />
	<path style="fill:none;stroke:red;stroke-width:1px;stroke-linecap:butt;stroke-linejoin:miter;stroke-opacity:1" d="M 157.402,172.742 165.072,182.969 z" id="boundary" inkscape:connector-curvature="0" />
	<path style="fill:none;stroke:red;stroke-width:1px;stroke-linecap:butt;stroke-linejoin:miter;stroke-opacity:1" d="M 158.68,647.01 167.629,657.237 z" id="boundary" inkscape:connector-curvature="0" />
	<path style="fill:none;stroke:red;stroke-width:1px;stroke-linecap:butt;stroke-linejoin:miter;stroke-opacity:1" d="M 159.959,151.01 170.186,158.68 z" id="boundary" inkscape:connector-curvature="0" />
	<path style="fill:none;stroke:red;stroke-width:1px;stroke-linecap:butt;stroke-linejoin:miter;stroke-opacity:1" d="M 161.237,67.9175 171.464,57.6907 z" id="boundary" inkscape:connector-curvature="0" />
	<path style="fill:none;stroke:red;stroke-width:1px;stroke-linecap:butt;stroke-linejoin:miter;stroke-opacity:1" d="M 163.794,340.206 170.186,351.711 z" id="boundary" inkscape:connector-curvature="0" />
	<path style="fill:none;stroke:red;stroke-width:1px;stroke-linecap:butt;stroke-linejoin:miter;stroke-opacity:1" d="M 163.794,487.216 163.794,500 z" id="boundary" inkscape:connector-curvature="0" />
	<path style="fill:none;stroke:red;stroke-width:1px;stroke-linecap:butt;stroke-linejoin:miter;stroke-opacity:1" d="M 163.794,487.216 174.021,476.99 z" id="boundary" inkscape:connector-curvature="0" />
	<path style="fill:none;stroke:red;stroke-width:1px;stroke-linecap:butt;stroke-linejoin:miter;stroke-opacity:1" d="M 163.794,500 163.794,512.784 z" id="boundary" inkscape:connector-curvature="0" />
	<path style="fill:none;stroke:red;stroke-width:1px;stroke-linecap:butt;stroke-linejoin:miter;stroke-opacity:1" d="M 163.794,512.784 163.794,525.567 z" id="boundary" inkscape:connector-curvature="0" />
	<path style="fill:none;stroke:red;stroke-width:1px;stroke-linecap:butt;stroke-linejoin:miter;stroke-opacity:1" d="M 163.794,525.567 163.794,538.351 z" id="boundary" inkscape:connector-curvature="0" />
	<path style="fill:none;stroke:red;stroke-width:1px;stroke-linecap:butt;stroke-linejoin:miter;stroke-opacity:1" d="M 163.794,538.351 163.794,551.134 z" id="boundary" inkscape:connector-curvature="0" />
	<path style="fill:none;stroke:red;stroke-width:1px;stroke-linecap:butt;stroke-linejoin:miter;stroke-opacity:1" d="M 163.794,551.134 163.794,563.918 z" id="boundary" inkscape:connector-curvature="0" />
	<path style="fill:none;stroke:red;stroke-width:1px;stroke-linecap:butt;stroke-linejoin:miter;stroke-opacity:1" d="M 163.794,563.918 163.794,576.701 z" id="boundary" inkscape:connector-curvature="0" />
	<path style="fill:none;stroke:red;stroke-width:1px;stroke-linecap:butt;stroke-linejoin:miter;stroke-opacity:1" d="M 165.072,182.969 170.186,158.68 z" id="boundary" inkscape:connector-curvature="0" />
	<path style="fill:none;stroke:red;stroke-width:1px;stroke-linecap:butt;stroke-linejoin:miter;stroke-opacity:1" d="M 167.629,657.237 180.412,657.237 z" id="boundary" inkscape:connector-curvature="0" />
	<path style="fill:none;stroke:red;stroke-width:1px;stroke-linecap:butt;stroke-linejoin:miter;stroke-opacity:1" d="M 170.186,351.711 176.577,363.216 z" id="boundary" inkscape:connector-curvature="0" />
	<path style="fill:none;stroke:red;stroke-width:1px;stroke-linecap:butt;stroke-linejoin:miter;stroke-opacity:1" d="M 171.464,57.6907 181.691,48.7423 z" id="boundary" inkscape:connector-curvature="0" />
	<path style="fill:none;stroke:red;stroke-width:1px;stroke-linecap:butt;stroke-linejoin:miter;stroke-opacity:1" d="M 174.021,476.99 184.247,466.763 z" id="boundary" inkscape:connector-curvature="0" />
	<path style="fill:none;stroke:red;stroke-width:1px;stroke-linecap:butt;stroke-linejoin:miter;stroke-opacity:1" d="M 176.577,363.216 182.969,374.722 z" id="boundary" inkscape:connector-curvature="0" />
	<path style="fill:none;stroke:red;stroke-width:1px;stroke-linecap:butt;stroke-linejoin:miter;stroke-opacity:1" d="M 180.412,657.237 193.196,655.959 z" id="boundary" inkscape:connector-curvature="0" />
	<path style="fill:none;stroke:red;stroke-width:1px;stroke-linecap:butt;stroke-linejoin:miter;stroke-opacity:1" d="M 181.691,48.7423 190.639,38.5155 z" id="boundary" inkscape:connector-curvature="0" />
	<path style="fill:none;stroke:red;stroke-width:1px;stroke-linecap:butt;stroke-linejoin:miter;stroke-opacity:1" d="M 182.969,374.722 189.361,386.227 z" id="boundary" inkscape:connector-curvature="0" />
	<path style="fill:none;stroke:red;stroke-width:1px;stroke-linecap:butt;stroke-linejoin:miter;stroke-opacity:1" d="M 184.247,466.763 194.474,457.814 z" id="boundary" inkscape:connector-curvature="0" />
	<path style="fill:none;stroke:red;stroke-width:1px;stroke-linecap:butt;stroke-linejoin:miter;stroke-opacity:1" d="M 189.361,386.227 195.753,397.732 z" id="boundary" inkscape:connector-curvature="0" />
	<path style="fill:none;stroke:red;stroke-width:1px;stroke-linecap:butt;stroke-linejoin:miter;stroke-opacity:1" d="M 190.639,38.5155 197.031,25.732 z" id="boundary" inkscape:connector-curvature="0" />
	<path style="fill:none;stroke:red;stroke-width:1px;stroke-linecap:butt;stroke-linejoin:miter;stroke-opacity:1" d="M 193.196,655.959 197.031,631.67 z" id="boundary" inkscape:connector-curvature="0" />
	<path style="fill:none;stroke:red;stroke-width:1px;stroke-linecap:butt;stroke-linejoin:miter;stroke-opacity:1" d="M 194.474,457.814 205.979,451.423 z" id="boundary" inkscape:connector-curvature="0" />
	<path style="fill:none;stroke:red;stroke-width:1px;stroke-linecap:butt;stroke-linejoin:miter;stroke-opacity:1" d="M 195.753,397.732 202.144,409.237 z" id="boundary" inkscape:connector-curvature="0" />
	<path style="fill:none;stroke:red;stroke-width:1px;stroke-linecap:butt;stroke-linejoin:miter;stroke-opacity:1" d="M 197.031,25.732 203.423,12.9485 z" id="boundary" inkscape:connector-curvature="0" />
	<path style="fill:none;stroke:red;stroke-width:1px;stroke-linecap:butt;stroke-linejoin:miter;stroke-opacity:1" d="M 197.031,593.32 197.031,606.103 z" id="boundary" inkscape:connector-curvature="0" />
	<path style="fill:none;stroke:red;stroke-width:1px;stroke-linecap:butt;stroke-linejoin:miter;stroke-opacity:1" d="M 197.031,593.32 203.423,580.536 z" id="boundary" inkscape:connector-curvature="0" />
	<path style="fill:none;stroke:red;stroke-width:1px;stroke-linecap:butt;stroke-linejoin:miter;stroke-opacity:1" d="M 197.031,606.103 197.031,618.887 z" id="boundary" inkscape:connector-curvature="0" />
	<path style="fill:none;stroke:red;stroke-width:1px;stroke-linecap:butt;stroke-linejoin:miter;stroke-opacity:1" d="M 197.031,618.887 197.031,631.67 z" id="boundary" inkscape:connector-curvature="0" />
	<path style="fill:none;stroke:red;stroke-width:1px;stroke-linecap:butt;stroke-linejoin:miter;stroke-opacity:1" d="M 202.144,409.237 211.093,419.464 z" id="boundary" inkscape:connector-curvature="0" />
	<path style="fill:none;stroke:red;stroke-width:1px;stroke-linecap:butt;stroke-linejoin:miter;stroke-opacity:1" d="M 202.144,832.371 208.536,843.876 z" id="boundary" inkscape:connector-curvature="0" />
	<path style="fill:none;stroke:red;stroke-width:1px;stroke-linecap:butt;stroke-linejoin:miter;stroke-opacity:1" d="M 202.144,832.371 212.371,822.144 z" id="boundary" inkscape:connector-curvature="0" />
	<path style="fill:none;stroke:red;stroke-width:1px;stroke-linecap:butt;stroke-linejoin:miter;stroke-opacity:1" d="M 203.423,12.9485 213.649,4 z" id="boundary" inkscape:connector-curvature="0" />
	<path style="fill:none;stroke:red;stroke-width:1px;stroke-linecap:butt;stroke-linejoin:miter;stroke-opacity:1" d="M 203.423,580.536 213.649,571.588 z" id="boundary" inkscape:connector-curvature="0" />
	<path style="fill:none;stroke:red;stroke-width:1px;stroke-linecap:butt;stroke-linejoin:miter;stroke-opacity:1" d="M 205.979,451.423 217.485,457.814 z" id="boundary" inkscape:connector-curvature="0" />
	<path style="fill:none;stroke:red;stroke-width:1px;stroke-linecap:butt;stroke-linejoin:miter;stroke-opacity:1" d="M 208.536,843.876 217.485,854.103 z" id="boundary" inkscape:connector-curvature="0" />
	<path style="fill:none;stroke:red;stroke-width:1px;stroke-linecap:butt;stroke-linejoin:miter;stroke-opacity:1" d="M 211.093,419.464 221.32,427.134 z" id="boundary" inkscape:connector-curvature="0" />
	<path style="fill:none;stroke:red;stroke-width:1px;stroke-linecap:butt;stroke-linejoin:miter;stroke-opacity:1" d="M 212.371,822.144 223.876,815.753 z" id="boundary" inkscape:connector-curvature="0" />
	<path style="fill:none;stroke:red;stroke-width:1px;stroke-linecap:butt;stroke-linejoin:miter;stroke-opacity:1" d="M 213.649,4 225.155,10.3918 z" id="boundary" inkscape:connector-curvature="0" />
	<path style="fill:none;stroke:red;stroke-width:1px;stroke-linecap:butt;stroke-linejoin:miter;stroke-opacity:1" d="M 213.649,571.588 226.433,567.753 z" id="boundary" inkscape:connector-curvature="0" />
	<path style="fill:none;stroke:red;stroke-width:1px;stroke-linecap:butt;stroke-linejoin:miter;stroke-opacity:1" d="M 217.485,457.814 227.711,438.639 z" id="boundary" inkscape:connector-curvature="0" />
	<path style="fill:none;stroke:red;stroke-width:1px;stroke-linecap:butt;stroke-linejoin:miter;stroke-opacity:1" d="M 217.485,854.103 227.711,861.773 z" id="boundary" inkscape:connector-curvature="0" />
	<path style="fill:none;stroke:red;stroke-width:1px;stroke-linecap:butt;stroke-linejoin:miter;stroke-opacity:1" d="M 221.32,427.134 227.711,438.639 z" id="boundary" inkscape:connector-curvature="0" />
	<path style="fill:none;stroke:red;stroke-width:1px;stroke-linecap:butt;stroke-linejoin:miter;stroke-opacity:1" d="M 223.876,815.753 235.381,809.361 z" id="boundary" inkscape:connector-curvature="0" />
	<path style="fill:none;stroke:red;stroke-width:1px;stroke-linecap:butt;stroke-linejoin:miter;stroke-opacity:1" d="M 225.155,10.3918 228.99,23.1753 z" id="boundary" inkscape:connector-curvature="0" />
	<path style="fill:none;stroke:red;stroke-width:1px;stroke-linecap:butt;stroke-linejoin:miter;stroke-opacity:1" d="M 226.433,567.753 239.216,567.753 z" id="boundary" inkscape:connector-curvature="0" />
	<path style="fill:none;stroke:red;stroke-width:1px;stroke-linecap:butt;stroke-linejoin:miter;stroke-opacity:1" d="M 227.711,627.835 227.711,640.619 z" id="boundary" inkscape:connector-curvature="0" />
	<path style="fill:none;stroke:red;stroke-width:1px;stroke-linecap:butt;stroke-linejoin:miter;stroke-opacity:1" d="M 227.711,627.835 240.495,621.443 z" id="boundary" inkscape:connector-curvature="0" />
	<path style="fill:none;stroke:red;stroke-width:1px;stroke-linecap:butt;stroke-linejoin:miter;stroke-opacity:1" d="M 227.711,640.619 227.711,653.402 z" id="boundary" inkscape:connector-curvature="0" />
	<path style="fill:none;stroke:red;stroke-width:1px;stroke-linecap:butt;stroke-linejoin:miter;stroke-opacity:1" d="M 227.711,653.402 227.711,666.186 z" id="boundary" inkscape:connector-curvature="0" />
	<path style="fill:none;stroke:red;stroke-width:1px;stroke-linecap:butt;stroke-linejoin:miter;stroke-opacity:1" d="M 227.711,666.186 234.103,677.691 z" id="boundary" inkscape:connector-curvature="0" />
	<path style="fill:none;stroke:red;stroke-width:1px;stroke-linecap:butt;stroke-linejoin:miter;stroke-opacity:1" d="M 227.711,861.773 240.495,861.773 z" id="boundary" inkscape:connector-curvature="0" />
	<path style="fill:none;stroke:red;stroke-width:1px;stroke-linecap:butt;stroke-linejoin:miter;stroke-opacity:1" d="M 228.99,23.1753 239.216,30.8454 z" id="boundary" inkscape:connector-curvature="0" />
	<path style="fill:none;stroke:red;stroke-width:1px;stroke-linecap:butt;stroke-linejoin:miter;stroke-opacity:1" d="M 234.103,677.691 240.495,689.196 z" id="boundary" inkscape:connector-curvature="0" />
	<path style="fill:none;stroke:red;stroke-width:1px;stroke-linecap:butt;stroke-linejoin:miter;stroke-opacity:1" d="M 235.381,809.361 248.165,809.361 z" id="boundary" inkscape:connector-curvature="0" />
	<path style="fill:none;stroke:red;stroke-width:1px;stroke-linecap:butt;stroke-linejoin:miter;stroke-opacity:1" d="M 239.216,30.8454 250.722,37.2371 z" id="boundary" inkscape:connector-curvature="0" />
	<path style="fill:none;stroke:red;stroke-width:1px;stroke-linecap:butt;stroke-linejoin:miter;stroke-opacity:1" d="M 239.216,567.753 248.165,577.979 z" id="boundary" inkscape:connector-curvature="0" />
	<path style="fill:none;stroke:red;stroke-width:1px;stroke-linecap:butt;stroke-linejoin:miter;stroke-opacity:1" d="M 240.495,621.443 253.278,615.052 z" id="boundary" inkscape:connector-curvature="0" />
	<path style="fill:none;stroke:red;stroke-width:1px;stroke-linecap:butt;stroke-linejoin:miter;stroke-opacity:1" d="M 240.495,689.196 246.887,700.701 z" id="boundary" inkscape:connector-curvature="0" />
	<path style="fill:none;stroke:red;stroke-width:1px;stroke-linecap:butt;stroke-linejoin:miter;stroke-opacity:1" d="M 240.495,861.773 253.278,857.938 z" id="boundary" inkscape:connector-curvature="0" />
	<path style="fill:none;stroke:red;stroke-width:1px;stroke-linecap:butt;stroke-linejoin:miter;stroke-opacity:1" d="M 246.887,700.701 253.278,712.206 z" id="boundary" inkscape:connector-curvature="0" />
	<path style="fill:none;stroke:red;stroke-width:1px;stroke-linecap:butt;stroke-linejoin:miter;stroke-opacity:1" d="M 248.165,577.979 260.948,580.536 z" id="boundary" inkscape:connector-curvature="0" />
	<path style="fill:none;stroke:red;stroke-width:1px;stroke-linecap:butt;stroke-linejoin:miter;stroke-opacity:1" d="M 248.165,809.361 255.835,797.856 z" id="boundary" inkscape:connector-curvature="0" />
	<path style="fill:none;stroke:red;stroke-width:1px;stroke-linecap:butt;stroke-linejoin:miter;stroke-opacity:1" d="M 250.722,37.2371 260.948,46.1856 z" id="boundary" inkscape:connector-curvature="0" />
	<path style="fill:none;stroke:red;stroke-width:1px;stroke-linecap:butt;stroke-linejoin:miter;stroke-opacity:1" d="M 253.278,615.052 263.505,604.825 z" id="boundary" inkscape:connector-curvature="0" />
	<path style="fill:none;stroke:red;stroke-width:1px;stroke-linecap:butt;stroke-linejoin:miter;stroke-opacity:1" d="M 253.278,712.206 259.67,723.711 z" id="boundary" inkscape:connector-curvature="0" />
	<path style="fill:none;stroke:red;stroke-width:1px;stroke-linecap:butt;stroke-linejoin:miter;stroke-opacity:1" d="M 253.278,857.938 266.062,851.546 z" id="boundary" inkscape:connector-curvature="0" />
	<path style="fill:none;stroke:red;stroke-width:1px;stroke-linecap:butt;stroke-linejoin:miter;stroke-opacity:1" d="M 255.835,797.856 266.062,787.629 z" id="boundary" inkscape:connector-curvature="0" />
	<path style="fill:none;stroke:red;stroke-width:1px;stroke-linecap:butt;stroke-linejoin:miter;stroke-opacity:1" d="M 259.67,723.711 266.062,735.216 z" id="boundary" inkscape:connector-curvature="0" />
	<path style="fill:none;stroke:red;stroke-width:1px;stroke-linecap:butt;stroke-linejoin:miter;stroke-opacity:1" d="M 260.948,46.1856 273.732,48.7423 z" id="boundary" inkscape:connector-curvature="0" />
	<path style="fill:none;stroke:red;stroke-width:1px;stroke-linecap:butt;stroke-linejoin:miter;stroke-opacity:1" d="M 260.948,580.536 263.505,604.825 z" id="boundary" inkscape:connector-curvature="0" />
	<path style="fill:none;stroke:red;stroke-width:1px;stroke-linecap:butt;stroke-linejoin:miter;stroke-opacity:1" d="M 266.062,735.216 272.454,746.722 z" id="boundary" inkscape:connector-curvature="0" />
	<path style="fill:none;stroke:red;stroke-width:1px;stroke-linecap:butt;stroke-linejoin:miter;stroke-opacity:1" d="M 266.062,787.629 272.454,772.289 z" id="boundary" inkscape:connector-curvature="0" />
	<path style="fill:none;stroke:red;stroke-width:1px;stroke-linecap:butt;stroke-linejoin:miter;stroke-opacity:1" d="M 266.062,851.546 276.289,841.32 z" id="boundary" inkscape:connector-curvature="0" />
	<path style="fill:none;stroke:red;stroke-width:1px;stroke-linecap:butt;stroke-linejoin:miter;stroke-opacity:1" d="M 272.454,746.722 272.454,759.505 z" id="boundary" inkscape:connector-curvature="0" />
	<path style="fill:none;stroke:red;stroke-width:1px;stroke-linecap:butt;stroke-linejoin:miter;stroke-opacity:1" d="M 272.454,759.505 272.454,772.289 z" id="boundary" inkscape:connector-curvature="0" />
	<path style="fill:none;stroke:red;stroke-width:1px;stroke-linecap:butt;stroke-linejoin:miter;stroke-opacity:1" d="M 273.732,48.7423 285.237,42.3505 z" id="boundary" inkscape:connector-curvature="0" />
	<path style="fill:none;stroke:red;stroke-width:1px;stroke-linecap:butt;stroke-linejoin:miter;stroke-opacity:1" d="M 276.289,841.32 286.515,829.814 z" id="boundary" inkscape:connector-curvature="0" />
	<path style="fill:none;stroke:red;stroke-width:1px;stroke-linecap:butt;stroke-linejoin:miter;stroke-opacity:1" d="M 285.237,42.3505 298.021,38.5155 z" id="boundary" inkscape:connector-curvature="0" />
	<path style="fill:none;stroke:red;stroke-width:1px;stroke-linecap:butt;stroke-linejoin:miter;stroke-opacity:1" d="M 286.515,829.814 296.742,820.866 z" id="boundary" inkscape:connector-curvature="0" />
	<path style="fill:none;stroke:red;stroke-width:1px;stroke-linecap:butt;stroke-linejoin:miter;stroke-opacity:1" d="M 296.742,820.866 305.691,810.639 z" id="boundary" inkscape:connector-curvature="0" />
	<path style="fill:none;stroke:red;stroke-width:1px;stroke-linecap:butt;stroke-linejoin:miter;stroke-opacity:1" d="M 298.021,38.5155 299.299,51.299 z" id="boundary" inkscape:connector-curvature="0" />
	<path style="fill:none;stroke:red;stroke-width:1px;stroke-linecap:butt;stroke-linejoin:miter;stroke-opacity:1" d="M 299.299,51.299 299.299,64.0825 z" id="boundary" inkscape:connector-curvature="0" />
	<path style="fill:none;stroke:red;stroke-width:1px;stroke-linecap:butt;stroke-linejoin:miter;stroke-opacity:1" d="M 299.299,64.0825 303.134,76.866 z" id="boundary" inkscape:connector-curvature="0" />
	<path style="fill:none;stroke:red;stroke-width:1px;stroke-linecap:butt;stroke-linejoin:miter;stroke-opacity:1" d="M 303.134,76.866 305.691,89.6495 z" id="boundary" inkscape:connector-curvature="0" />
	<path style="fill:none;stroke:red;stroke-width:1px;stroke-linecap:butt;stroke-linejoin:miter;stroke-opacity:1" d="M 305.691,89.6495 309.526,102.433 z" id="boundary" inkscape:connector-curvature="0" />
	<path style="fill:none;stroke:red;stroke-width:1px;stroke-linecap:butt;stroke-linejoin:miter;stroke-opacity:1" d="M 305.691,695.588 305.691,708.371 z" id="boundary" inkscape:connector-curvature="0" />
	<path style="fill:none;stroke:red;stroke-width:1px;stroke-linecap:butt;stroke-linejoin:miter;stroke-opacity:1" d="M 305.691,695.588 318.474,689.196 z" id="boundary" inkscape:connector-curvature="0" />
	<path style="fill:none;stroke:red;stroke-width:1px;stroke-linecap:butt;stroke-linejoin:miter;stroke-opacity:1" d="M 305.691,708.371 305.691,721.155 z" id="boundary" inkscape:connector-curvature="0" />
	<path style="fill:none;stroke:red;stroke-width:1px;stroke-linecap:butt;stroke-linejoin:miter;stroke-opacity:1" d="M 305.691,721.155 312.082,732.66 z" id="boundary" inkscape:connector-curvature="0" />
	<path style="fill:none;stroke:red;stroke-width:1px;stroke-linecap:butt;stroke-linejoin:miter;stroke-opacity:1" d="M 305.691,810.639 315.918,801.691 z" id="boundary" inkscape:connector-curvature="0" />
	<path style="fill:none;stroke:red;stroke-width:1px;stroke-linecap:butt;stroke-linejoin:miter;stroke-opacity:1" d="M 309.526,102.433 312.082,115.216 z" id="boundary" inkscape:connector-curvature="0" />
	<path style="fill:none;stroke:red;stroke-width:1px;stroke-linecap:butt;stroke-linejoin:miter;stroke-opacity:1" d="M 312.082,115.216 312.082,128 z" id="boundary" inkscape:connector-curvature="0" />
	<path style="fill:none;stroke:red;stroke-width:1px;stroke-linecap:butt;stroke-linejoin:miter;stroke-opacity:1" d="M 312.082,128 318.474,139.505 z" id="boundary" inkscape:connector-curvature="0" />
	<path style="fill:none;stroke:red;stroke-width:1px;stroke-linecap:butt;stroke-linejoin:miter;stroke-opacity:1" d="M 312.082,732.66 318.474,744.165 z" id="boundary" inkscape:connector-curvature="0" />
	<path style="fill:none;stroke:red;stroke-width:1px;stroke-linecap:butt;stroke-linejoin:miter;stroke-opacity:1" d="M 315.918,801.691 322.309,788.907 z" id="boundary" inkscape:connector-curvature="0" />
	<path style="fill:none;stroke:red;stroke-width:1px;stroke-linecap:butt;stroke-linejoin:miter;stroke-opacity:1" d="M 318.474,139.505 324.866,151.01 z" id="boundary" inkscape:connector-curvature="0" />
	<path style="fill:none;stroke:red;stroke-width:1px;stroke-linecap:butt;stroke-linejoin:miter;stroke-opacity:1" d="M 318.474,689.196 331.258,689.196 z" id="boundary" inkscape:connector-curvature="0" />
	<path style="fill:none;stroke:red;stroke-width:1px;stroke-linecap:butt;stroke-linejoin:miter;stroke-opacity:1" d="M 318.474,744.165 324.866,755.67 z" id="boundary" inkscape:connector-curvature="0" />
	<path style="fill:none;stroke:red;stroke-width:1px;stroke-linecap:butt;stroke-linejoin:miter;stroke-opacity:1" d="M 322.309,788.907 324.866,768.454 z" id="boundary" inkscape:connector-curvature="0" />
	<path style="fill:none;stroke:red;stroke-width:1px;stroke-linecap:butt;stroke-linejoin:miter;stroke-opacity:1" d="M 324.866,151.01 324.866,163.794 z" id="boundary" inkscape:connector-curvature="0" />
	<path style="fill:none;stroke:red;stroke-width:1px;stroke-linecap:butt;stroke-linejoin:miter;stroke-opacity:1" d="M 324.866,163.794 324.866,176.577 z" id="boundary" inkscape:connector-curvature="0" />
	<path style="fill:none;stroke:red;stroke-width:1px;stroke-linecap:butt;stroke-linejoin:miter;stroke-opacity:1" d="M 324.866,176.577 331.258,188.082 z" id="boundary" inkscape:connector-curvature="0" />
	<path style="fill:none;stroke:red;stroke-width:1px;stroke-linecap:butt;stroke-linejoin:miter;stroke-opacity:1" d="M 324.866,755.67 324.866,768.454 z" id="boundary" inkscape:connector-curvature="0" />
	<path style="fill:none;stroke:red;stroke-width:1px;stroke-linecap:butt;stroke-linejoin:miter;stroke-opacity:1" d="M 331.258,188.082 337.649,199.588 z" id="boundary" inkscape:connector-curvature="0" />
	<path style="fill:none;stroke:red;stroke-width:1px;stroke-linecap:butt;stroke-linejoin:miter;stroke-opacity:1" d="M 331.258,689.196 344.041,689.196 z" id="boundary" inkscape:connector-curvature="0" />
	<path style="fill:none;stroke:red;stroke-width:1px;stroke-linecap:butt;stroke-linejoin:miter;stroke-opacity:1" d="M 337.649,199.588 337.649,212.371 z" id="boundary" inkscape:connector-curvature="0" />
	<path style="fill:none;stroke:red;stroke-width:1px;stroke-linecap:butt;stroke-linejoin:miter;stroke-opacity:1" d="M 337.649,212.371 337.649,225.155 z" id="boundary" inkscape:connector-curvature="0" />
	<path style="fill:none;stroke:red;stroke-width:1px;stroke-linecap:butt;stroke-linejoin:miter;stroke-opacity:1" d="M 337.649,225.155 337.649,237.938 z" id="boundary" inkscape:connector-curvature="0" />
	<path style="fill:none;stroke:red;stroke-width:1px;stroke-linecap:butt;stroke-linejoin:miter;stroke-opacity:1" d="M 337.649,237.938 337.649,250.722 z" id="boundary" inkscape:connector-curvature="0" />
	<path style="fill:none;stroke:red;stroke-width:1px;stroke-linecap:butt;stroke-linejoin:miter;stroke-opacity:1" d="M 337.649,250.722 337.649,263.505 z" id="boundary" inkscape:connector-curvature="0" />
	<path style="fill:none;stroke:red;stroke-width:1px;stroke-linecap:butt;stroke-linejoin:miter;stroke-opacity:1" d="M 337.649,263.505 337.649,276.289 z" id="boundary" inkscape:connector-curvature="0" />
	<path style="fill:none;stroke:red;stroke-width:1px;stroke-linecap:butt;stroke-linejoin:miter;stroke-opacity:1" d="M 337.649,276.289 342.763,289.072 z" id="boundary" inkscape:connector-curvature="0" />
	<path style="fill:none;stroke:red;stroke-width:1px;stroke-linecap:butt;stroke-linejoin:miter;stroke-opacity:1" d="M 342.763,289.072 349.155,300.577 z" id="boundary" inkscape:connector-curvature="0" />
	<path style="fill:none;stroke:red;stroke-width:1px;stroke-linecap:butt;stroke-linejoin:miter;stroke-opacity:1" d="M 344.041,689.196 356.825,689.196 z" id="boundary" inkscape:connector-curvature="0" />
	<path style="fill:none;stroke:red;stroke-width:1px;stroke-linecap:butt;stroke-linejoin:miter;stroke-opacity:1" d="M 349.155,300.577 350.433,313.361 z" id="boundary" inkscape:connector-curvature="0" />
	<path style="fill:none;stroke:red;stroke-width:1px;stroke-linecap:butt;stroke-linejoin:miter;stroke-opacity:1" d="M 350.433,313.361 358.103,323.588 z" id="boundary" inkscape:connector-curvature="0" />
	<path style="fill:none;stroke:red;stroke-width:1px;stroke-linecap:butt;stroke-linejoin:miter;stroke-opacity:1" d="M 356.825,689.196 369.608,689.196 z" id="boundary" inkscape:connector-curvature="0" />
	<path style="fill:none;stroke:red;stroke-width:1px;stroke-linecap:butt;stroke-linejoin:miter;stroke-opacity:1" d="M 358.103,323.588 368.33,332.536 z" id="boundary" inkscape:connector-curvature="0" />
	<path style="fill:none;stroke:red;stroke-width:1px;stroke-linecap:butt;stroke-linejoin:miter;stroke-opacity:1" d="M 368.33,332.536 376,342.763 z" id="boundary" inkscape:connector-curvature="0" />
	<path style="fill:none;stroke:red;stroke-width:1px;stroke-linecap:butt;stroke-linejoin:miter;stroke-opacity:1" d="M 369.608,689.196 382.392,682.804 z" id="boundary" inkscape:connector-curvature="0" />
	<path style="fill:none;stroke:red;stroke-width:1px;stroke-linecap:butt;stroke-linejoin:miter;stroke-opacity:1" d="M 376,342.763 386.227,350.433 z" id="boundary" inkscape:connector-curvature="0" />
	<path style="fill:none;stroke:red;stroke-width:1px;stroke-linecap:butt;stroke-linejoin:miter;stroke-opacity:1" d="M 382.392,682.804 393.897,689.196 z" id="boundary" inkscape:connector-curvature="0" />
	<path style="fill:none;stroke:red;stroke-width:1px;stroke-linecap:butt;stroke-linejoin:miter;stroke-opacity:1" d="M 386.227,350.433 395.175,360.66 z" id="boundary" inkscape:connector-curvature="0" />
	<path style="fill:none;stroke:red;stroke-width:1px;stroke-linecap:butt;stroke-linejoin:miter;stroke-opacity:1" d="M 393.897,689.196 401.567,699.423 z" id="boundary" inkscape:connector-curvature="0" />
	<path style="fill:none;stroke:red;stroke-width:1px;stroke-linecap:butt;stroke-linejoin:miter;stroke-opacity:1" d="M 395.175,360.66 401.567,372.165 z" id="boundary" inkscape:connector-curvature="0" />
	<path style="fill:none;stroke:red;stroke-width:1px;stroke-linecap:butt;stroke-linejoin:miter;stroke-opacity:1" d="M 401.567,372.165 401.567,384.948 z" id="boundary" inkscape:connector-curvature="0" />
	<path style="fill:none;stroke:red;stroke-width:1px;stroke-linecap:butt;stroke-linejoin:miter;stroke-opacity:1" d="M 401.567,384.948 410.515,395.175 z" id="boundary" inkscape:connector-curvature="0" />
	<path style="fill:none;stroke:red;stroke-width:1px;stroke-linecap:butt;stroke-linejoin:miter;stroke-opacity:1" d="M 401.567,699.423 411.794,708.371 z" id="boundary" inkscape:connector-curvature="0" />
	<path style="fill:none;stroke:red;stroke-width:1px;stroke-linecap:butt;stroke-linejoin:miter;stroke-opacity:1" d="M 410.515,395.175 414.351,407.959 z" id="boundary" inkscape:connector-curvature="0" />
	<path style="fill:none;stroke:red;stroke-width:1px;stroke-linecap:butt;stroke-linejoin:miter;stroke-opacity:1" d="M 411.794,708.371 416.907,721.155 z" id="boundary" inkscape:connector-curvature="0" />
	<path style="fill:none;stroke:red;stroke-width:1px;stroke-linecap:butt;stroke-linejoin:miter;stroke-opacity:1" d="M 414.351,407.959 420.742,419.464 z" id="boundary" inkscape:connector-curvature="0" />
	<path style="fill:none;stroke:red;stroke-width:1px;stroke-linecap:butt;stroke-linejoin:miter;stroke-opacity:1" d="M 416.907,721.155 419.464,733.938 z" id="boundary" inkscape:connector-curvature="0" />
	<path style="fill:none;stroke:red;stroke-width:1px;stroke-linecap:butt;stroke-linejoin:miter;stroke-opacity:1" d="M 419.464,733.938 419.464,746.722 z" id="boundary" inkscape:connector-curvature="0" />
	<path style="fill:none;stroke:red;stroke-width:1px;stroke-linecap:butt;stroke-linejoin:miter;stroke-opacity:1" d="M 419.464,746.722 425.856,758.227 z" id="boundary" inkscape:connector-curvature="0" />
	<path style="fill:none;stroke:red;stroke-width:1px;stroke-linecap:butt;stroke-linejoin:miter;stroke-opacity:1" d="M 420.742,419.464 420.742,432.247 z" id="boundary" inkscape:connector-curvature="0" />
	<path style="fill:none;stroke:red;stroke-width:1px;stroke-linecap:butt;stroke-linejoin:miter;stroke-opacity:1" d="M 420.742,432.247 427.134,443.753 z" id="boundary" inkscape:connector-curvature="0" />
	<path style="fill:none;stroke:red;stroke-width:1px;stroke-linecap:butt;stroke-linejoin:miter;stroke-opacity:1" d="M 425.856,758.227 428.412,771.01 z" id="boundary" inkscape:connector-curvature="0" />
	<path style="fill:none;stroke:red;stroke-width:1px;stroke-linecap:butt;stroke-linejoin:miter;stroke-opacity:1" d="M 427.134,443.753 433.526,455.258 z" id="boundary" inkscape:connector-curvature="0" />
	<path style="fill:none;stroke:red;stroke-width:1px;stroke-linecap:butt;stroke-linejoin:miter;stroke-opacity:1" d="M 428.412,771.01 438.639,778.68 z" id="boundary" inkscape:connector-curvature="0" />
	<path style="fill:none;stroke:red;stroke-width:1px;stroke-linecap:butt;stroke-linejoin:miter;stroke-opacity:1" d="M 433.526,455.258 439.918,466.763 z" id="boundary" inkscape:connector-curvature="0" />
	<path style="fill:none;stroke:red;stroke-width:1px;stroke-linecap:butt;stroke-linejoin:miter;stroke-opacity:1" d="M 438.639,778.68 442.474,791.464 z" id="boundary" inkscape:connector-curvature="0" />
	<path style="fill:none;stroke:red;stroke-width:1px;stroke-linecap:butt;stroke-linejoin:miter;stroke-opacity:1" d="M 439.918,466.763 443.753,479.546 z" id="boundary" inkscape:connector-curvature="0" />
	<path style="fill:none;stroke:red;stroke-width:1px;stroke-linecap:butt;stroke-linejoin:miter;stroke-opacity:1" d="M 442.474,791.464 452.701,800.412 z" id="boundary" inkscape:connector-curvature="0" />
	<path style="fill:none;stroke:red;stroke-width:1px;stroke-linecap:butt;stroke-linejoin:miter;stroke-opacity:1" d="M 443.753,479.546 446.309,492.33 z" id="boundary" inkscape:connector-curvature="0" />
	<path style="fill:none;stroke:red;stroke-width:1px;stroke-linecap:butt;stroke-linejoin:miter;stroke-opacity:1" d="M 446.309,492.33 446.309,505.113 z" id="boundary" inkscape:connector-curvature="0" />
	<path style="fill:none;stroke:red;stroke-width:1px;stroke-linecap:butt;stroke-linejoin:miter;stroke-opacity:1" d="M 446.309,505.113 446.309,517.897 z" id="boundary" inkscape:connector-curvature="0" />
	<path style="fill:none;stroke:red;stroke-width:1px;stroke-linecap:butt;stroke-linejoin:miter;stroke-opacity:1" d="M 446.309,517.897 446.309,530.68 z" id="boundary" inkscape:connector-curvature="0" />
	<path style="fill:none;stroke:red;stroke-width:1px;stroke-linecap:butt;stroke-linejoin:miter;stroke-opacity:1" d="M 446.309,530.68 446.309,543.464 z" id="boundary" inkscape:connector-curvature="0" />
	<path style="fill:none;stroke:red;stroke-width:1px;stroke-linecap:butt;stroke-linejoin:miter;stroke-opacity:1" d="M 446.309,543.464 446.309,556.247 z" id="boundary" inkscape:connector-curvature="0" />
	<path style="fill:none;stroke:red;stroke-width:1px;stroke-linecap:butt;stroke-linejoin:miter;stroke-opacity:1" d="M 446.309,556.247 446.309,569.031 z" id="boundary" inkscape:connector-curvature="0" />
	<path style="fill:none;stroke:red;stroke-width:1px;stroke-linecap:butt;stroke-linejoin:miter;stroke-opacity:1" d="M 446.309,569.031 446.309,581.814 z" id="boundary" inkscape:connector-curvature="0" />
	<path style="fill:none;stroke:red;stroke-width:1px;stroke-linecap:butt;stroke-linejoin:miter;stroke-opacity:1" d="M 446.309,581.814 446.309,594.598 z" id="boundary" inkscape:connector-curvature="0" />
	<path style="fill:none;stroke:red;stroke-width:1px;stroke-linecap:butt;stroke-linejoin:miter;stroke-opacity:1" d="M 446.309,594.598 446.309,607.381 z" id="boundary" inkscape:connector-curvature="0" />
	<path style="fill:none;stroke:red;stroke-width:1px;stroke-linecap:butt;stroke-linejoin:miter;stroke-opacity:1" d="M 446.309,607.381 446.309,620.165 z" id="boundary" inkscape:connector-curvature="0" />
	<path style="fill:none;stroke:red;stroke-width:1px;stroke-linecap:butt;stroke-linejoin:miter;stroke-opacity:1" d="M 446.309,620.165 446.309,632.948 z" id="boundary" inkscape:connector-curvature="0" />
	<path style="fill:none;stroke:red;stroke-width:1px;stroke-linecap:butt;stroke-linejoin:miter;stroke-opacity:1" d="M 446.309,632.948 450.144,645.732 z" id="boundary" inkscape:connector-curvature="0" />
	<path style="fill:none;stroke:red;stroke-width:1px;stroke-linecap:butt;stroke-linejoin:miter;stroke-opacity:1" d="M 450.144,645.732 452.701,658.515 z" id="boundary" inkscape:connector-curvature="0" />
	<path style="fill:none;stroke:red;stroke-width:1px;stroke-linecap:butt;stroke-linejoin:miter;stroke-opacity:1" d="M 452.701,658.515 459.093,670.021 z" id="boundary" inkscape:connector-curvature="0" />
	<path style="fill:none;stroke:red;stroke-width:1px;stroke-linecap:butt;stroke-linejoin:miter;stroke-opacity:1" d="M 452.701,800.412 464.206,806.804 z" id="boundary" inkscape:connector-curvature="0" />
	<path style="fill:none;stroke:red;stroke-width:1px;stroke-linecap:butt;stroke-linejoin:miter;stroke-opacity:1" d="M 459.093,670.021 461.649,682.804 z" id="boundary" inkscape:connector-curvature="0" />
	<path style="fill:none;stroke:red;stroke-width:1px;stroke-linecap:butt;stroke-linejoin:miter;stroke-opacity:1" d="M 461.649,682.804 468.041,694.309 z" id="boundary" inkscape:connector-curvature="0" />
	<path style="fill:none;stroke:red;stroke-width:1px;stroke-linecap:butt;stroke-linejoin:miter;stroke-opacity:1" d="M 464.206,806.804 464.206,819.588 z" id="boundary" inkscape:connector-curvature="0" />
	<path style="fill:none;stroke:red;stroke-width:1px;stroke-linecap:butt;stroke-linejoin:miter;stroke-opacity:1" d="M 464.206,819.588 474.433,828.536 z" id="boundary" inkscape:connector-curvature="0" />
	<path style="fill:none;stroke:red;stroke-width:1px;stroke-linecap:butt;stroke-linejoin:miter;stroke-opacity:1" d="M 468.041,694.309 471.876,707.093 z" id="boundary" inkscape:connector-curvature="0" />
	<path style="fill:none;stroke:red;stroke-width:1px;stroke-linecap:butt;stroke-linejoin:miter;stroke-opacity:1" d="M 471.876,707.093 484.66,710.928 z" id="boundary" inkscape:connector-curvature="0" />
	<path style="fill:none;stroke:red;stroke-width:1px;stroke-linecap:butt;stroke-linejoin:miter;stroke-opacity:1" d="M 474.433,828.536 483.381,838.763 z" id="boundary" inkscape:connector-curvature="0" />
	<path style="fill:none;stroke:red;stroke-width:1px;stroke-linecap:butt;stroke-linejoin:miter;stroke-opacity:1" d="M 483.381,838.763 496.165,842.598 z" id="boundary" inkscape:connector-curvature="0" />
	<path style="fill:none;stroke:red;stroke-width:1px;stroke-linecap:butt;stroke-linejoin:miter;stroke-opacity:1" d="M 484.66,710.928 489.773,723.711 z" id="boundary" inkscape:connector-curvature="0" />
	<path style="fill:none;stroke:red;stroke-width:1px;stroke-linecap:butt;stroke-linejoin:miter;stroke-opacity:1" d="M 489.773,723.711 497.443,733.938 z" id="boundary" inkscape:connector-curvature="0" />
	<path style="fill:none;stroke:red;stroke-width:1px;stroke-linecap:butt;stroke-linejoin:miter;stroke-opacity:1" d="M 496.165,842.598 507.67,848.99 z" id="boundary" inkscape:connector-curvature="0" />
	<path style="fill:none;stroke:red;stroke-width:1px;stroke-linecap:butt;stroke-linejoin:miter;stroke-opacity:1" d="M 497.443,733.938 503.835,745.443 z" id="boundary" inkscape:connector-curvature="0" />
	<path style="fill:none;stroke:red;stroke-width:1px;stroke-linecap:butt;stroke-linejoin:miter;stroke-opacity:1" d="M 503.835,745.443 514.062,753.113 z" id="boundary" inkscape:connector-curvature="0" />
	<path style="fill:none;stroke:red;stroke-width:1px;stroke-linecap:butt;stroke-linejoin:miter;stroke-opacity:1" d="M 507.67,848.99 515.34,859.216 z" id="boundary" inkscape:connector-curvature="0" />
	<path style="fill:none;stroke:red;stroke-width:1px;stroke-linecap:butt;stroke-linejoin:miter;stroke-opacity:1" d="M 514.062,753.113 523.01,763.34 z" id="boundary" inkscape:connector-curvature="0" />
	<path style="fill:none;stroke:red;stroke-width:1px;stroke-linecap:butt;stroke-linejoin:miter;stroke-opacity:1" d="M 515.34,859.216 521.732,870.722 z" id="boundary" inkscape:connector-curvature="0" />
	<path style="fill:none;stroke:red;stroke-width:1px;stroke-linecap:butt;stroke-linejoin:miter;stroke-opacity:1" d="M 521.732,870.722 528.124,882.227 z" id="boundary" inkscape:connector-curvature="0" />
	<path style="fill:none;stroke:red;stroke-width:1px;stroke-linecap:butt;stroke-linejoin:miter;stroke-opacity:1" d="M 523.01,763.34 533.237,772.289 z" id="boundary" inkscape:connector-curvature="0" />
	<path style="fill:none;stroke:red;stroke-width:1px;stroke-linecap:butt;stroke-linejoin:miter;stroke-opacity:1" d="M 528.124,882.227 534.515,893.732 z" id="boundary" inkscape:connector-curvature="0" />
	<path style="fill:none;stroke:red;stroke-width:1px;stroke-linecap:butt;stroke-linejoin:miter;stroke-opacity:1" d="M 533.237,772.289 544.742,778.68 z" id="boundary" inkscape:connector-curvature="0" />
	<path style="fill:none;stroke:red;stroke-width:1px;stroke-linecap:butt;stroke-linejoin:miter;stroke-opacity:1" d="M 534.515,893.732 538.351,906.515 z" id="boundary" inkscape:connector-curvature="0" />
	<path style="fill:none;stroke:red;stroke-width:1px;stroke-linecap:butt;stroke-linejoin:miter;stroke-opacity:1" d="M 538.351,906.515 548.577,915.464 z" id="boundary" inkscape:connector-curvature="0" />
	<path style="fill:none;stroke:red;stroke-width:1px;stroke-linecap:butt;stroke-linejoin:miter;stroke-opacity:1" d="M 544.742,778.68 557.526,783.794 z" id="boundary" inkscape:connector-curvature="0" />
	<path style="fill:none;stroke:red;stroke-width:1px;stroke-linecap:butt;stroke-linejoin:miter;stroke-opacity:1" d="M 548.577,915.464 557.526,925.691 z" id="boundary" inkscape:connector-curvature="0" />
	<path style="fill:none;stroke:red;stroke-width:1px;stroke-linecap:butt;stroke-linejoin:miter;stroke-opacity:1" d="M 557.526,783.794 566.474,794.021 z" id="boundary" inkscape:connector-curvature="0" />
	<path style="fill:none;stroke:red;stroke-width:1px;stroke-linecap:butt;stroke-linejoin:miter;stroke-opacity:1" d="M 557.526,925.691 567.753,934.639 z" id="boundary" inkscape:connector-curvature="0" />
	<path style="fill:none;stroke:red;stroke-width:1px;stroke-linecap:butt;stroke-linejoin:miter;stroke-opacity:1" d="M 566.474,794.021 576.701,802.969 z" id="boundary" inkscape:connector-curvature="0" />
	<path style="fill:none;stroke:red;stroke-width:1px;stroke-linecap:butt;stroke-linejoin:miter;stroke-opacity:1" d="M 567.753,934.639 572.866,947.423 z" id="boundary" inkscape:connector-curvature="0" />
	<path style="fill:none;stroke:red;stroke-width:1px;stroke-linecap:butt;stroke-linejoin:miter;stroke-opacity:1" d="M 572.866,947.423 579.258,958.928 z" id="boundary" inkscape:connector-curvature="0" />
	<path style="fill:none;stroke:red;stroke-width:1px;stroke-linecap:butt;stroke-linejoin:miter;stroke-opacity:1" d="M 576.701,802.969 580.536,815.753 z" id="boundary" inkscape:connector-curvature="0" />
	<path style="fill:none;stroke:red;stroke-width:1px;stroke-linecap:butt;stroke-linejoin:miter;stroke-opacity:1" d="M 579.258,958.928 585.649,970.433 z" id="boundary" inkscape:connector-curvature="0" />
	<path style="fill:none;stroke:red;stroke-width:1px;stroke-linecap:butt;stroke-linejoin:miter;stroke-opacity:1" d="M 580.536,815.753 586.928,827.258 z" id="boundary" inkscape:connector-curvature="0" />
	<path style="fill:none;stroke:red;stroke-width:1px;stroke-linecap:butt;stroke-linejoin:miter;stroke-opacity:1" d="M 585.649,970.433 593.32,980.66 z" id="boundary" inkscape:connector-curvature="0" />
	<path style="fill:none;stroke:red;stroke-width:1px;stroke-linecap:butt;stroke-linejoin:miter;stroke-opacity:1" d="M 586.928,827.258 597.155,836.206 z" id="boundary" inkscape:connector-curvature="0" />
	<path style="fill:none;stroke:red;stroke-width:1px;stroke-linecap:butt;stroke-linejoin:miter;stroke-opacity:1" d="M 593.32,980.66 599.711,992.165 z" id="boundary" inkscape:connector-curvature="0" />
	<path style="fill:none;stroke:red;stroke-width:1px;stroke-linecap:butt;stroke-linejoin:miter;stroke-opacity:1" d="M 597.155,836.206 602.268,848.99 z" id="boundary" inkscape:connector-curvature="0" />
	<path style="fill:none;stroke:red;stroke-width:1px;stroke-linecap:butt;stroke-linejoin:miter;stroke-opacity:1" d="M 599.711,992.165 612.495,996 z" id="boundary" inkscape:connector-curvature="0" />
	<path style="fill:none;stroke:red;stroke-width:1px;stroke-linecap:butt;stroke-linejoin:miter;stroke-opacity:1" d="M 602.268,848.99 606.103,861.773 z" id="boundary" inkscape:connector-curvature="0" />
	<path style="fill:none;stroke:red;stroke-width:1px;stroke-linecap:butt;stroke-linejoin:miter;stroke-opacity:1" d="M 606.103,861.773 612.495,873.278 z" id="boundary" inkscape:connector-curvature="0" />
	<path style="fill:none;stroke:red;stroke-width:1px;stroke-linecap:butt;stroke-linejoin:miter;stroke-opacity:1" d="M 612.495,873.278 612.495,886.062 z" id="boundary" inkscape:connector-curvature="0" />
	<path style="fill:none;stroke:red;stroke-width:1px;stroke-linecap:butt;stroke-linejoin:miter;stroke-opacity:1" d="M 612.495,886.062 622.722,893.732 z" id="boundary" inkscape:connector-curvature="0" />
	<path style="fill:none;stroke:red;stroke-width:1px;stroke-linecap:butt;stroke-linejoin:miter;stroke-opacity:1" d="M 612.495,996 622.722,987.052 z" id="boundary" inkscape:connector-curvature="0" />
	<path style="fill:none;stroke:red;stroke-width:1px;stroke-linecap:butt;stroke-linejoin:miter;stroke-opacity:1" d="M 622.722,893.732 625.278,906.515 z" id="boundary" inkscape:connector-curvature="0" />
	<path style="fill:none;stroke:red;stroke-width:1px;stroke-linecap:butt;stroke-linejoin:miter;stroke-opacity:1" d="M 622.722,987.052 631.67,969.155 z" id="boundary" inkscape:connector-curvature="0" />
	<path style="fill:none;stroke:red;stroke-width:1px;stroke-linecap:butt;stroke-linejoin:miter;stroke-opacity:1" d="M 625.278,906.515 631.67,918.021 z" id="boundary" inkscape:connector-curvature="0" />
	<path style="fill:none;stroke:red;stroke-width:1px;stroke-linecap:butt;stroke-linejoin:miter;stroke-opacity:1" d="M 631.67,918.021 631.67,930.804 z" id="boundary" inkscape:connector-curvature="0" />
	<path style="fill:none;stroke:red;stroke-width:1px;stroke-linecap:butt;stroke-linejoin:miter;stroke-opacity:1" d="M 631.67,930.804 631.67,943.588 z" id="boundary" inkscape:connector-curvature="0" />
	<path style="fill:none;stroke:red;stroke-width:1px;stroke-linecap:butt;stroke-linejoin:miter;stroke-opacity:1" d="M 631.67,943.588 631.67,956.371 z" id="boundary" inkscape:connector-curvature="0" />
	<path style="fill:none;stroke:red;stroke-width:1px;stroke-linecap:butt;stroke-linejoin:miter;stroke-opacity:1" d="M 631.67,956.371 631.67,969.155 z" id="boundary" inkscape:connector-curvature="0" />
	<circle cx="4" cy="161.237" r="4" fill="#0" id="circle0"/>
	<circle cx="10.3918" cy="172.742" r="4" fill="#0" id="circle1"/>
	<circle cx="16.7835" cy="148.454" r="4" fill="#0" id="circle2"/>
	<circle cx="16.7835" cy="184.247" r="4" fill="#0" id="circle3"/>
	<circle cx="24.4536" cy="194.474" r="4" fill="#0" id="circle4"/>
	<circle cx="29.567" cy="144.619" r="4" fill="#0" id="circle5"/>
	<circle cx="34.6804" cy="203.423" r="4" fill="#0" id="circle6"/>
	<circle cx="35.9588" cy="52.5773" r="4" fill="#0" id="circle7"/>
	<circle cx="42.3505" cy="39.7938" r="4" fill="#0" id="circle8"/>
	<circle cx="42.3505" cy="64.0825" r="4" fill="#0" id="circle9"/>
	<circle cx="42.3505" cy="147.175" r="4" fill="#0" id="circle10"/>
	<circle cx="46.1856" cy="209.814" r="4" fill="#0" id="circle11"/>
	<circle cx="48.7423" cy="75.5876" r="4" fill="#0" id="circle12"/>
	<circle cx="50.0206" cy="157.402" r="4" fill="#0" id="circle13"/>
	<circle cx="55.134" cy="33.4021" r="4" fill="#0" id="circle14"/>
	<circle cx="58.9691" cy="214.928" r="4" fill="#0" id="circle15"/>
	<circle cx="60.2474" cy="81.9794" r="4" fill="#0" id="circle16"/>
	<circle cx="62.8041" cy="157.402" r="4" fill="#0" id="circle17"/>
	<circle cx="67.9175" cy="35.9588" r="4" fill="#0" id="circle18"/>
	<circle cx="67.9175" cy="225.155" r="4" fill="#0" id="circle19"/>
	<circle cx="67.9175" cy="557.526" r="4" fill="#0" id="circle20"/>
	<circle cx="67.9175" cy="570.309" r="4" fill="#0" id="circle21"/>
	<circle cx="69.1959" cy="92.2062" r="4" fill="#0" id="circle22"/>
	<circle cx="69.1959" cy="168.907" r="4" fill="#0" id="circle23"/>
	<circle cx="78.1443" cy="234.103" r="4" fill="#0" id="circle24"/>
	<circle cx="78.1443" cy="579.258" r="4" fill="#0" id="circle25"/>
	<circle cx="79.4227" cy="101.155" r="4" fill="#0" id="circle26"/>
	<circle cx="80.701" cy="38.5155" r="4" fill="#0" id="circle27"/>
	<circle cx="80.701" cy="551.134" r="4" fill="#0" id="circle28"/>
	<circle cx="81.9794" cy="174.021" r="4" fill="#0" id="circle29"/>
	<circle cx="81.9794" cy="186.804" r="4" fill="#0" id="circle30"/>
	<circle cx="84.5361" cy="113.938" r="4" fill="#0" id="circle31"/>
	<circle cx="87.0928" cy="244.33" r="4" fill="#0" id="circle32"/>
	<circle cx="87.0928" cy="589.485" r="4" fill="#0" id="circle33"/>
	<circle cx="88.3711" cy="48.7423" r="4" fill="#0" id="circle34"/>
	<circle cx="90.9278" cy="125.443" r="4" fill="#0" id="circle35"/>
	<circle cx="90.9278" cy="197.031" r="4" fill="#0" id="circle36"/>
	<circle cx="93.4845" cy="255.835" r="4" fill="#0" id="circle37"/>
	<circle cx="93.4845" cy="553.691" r="4" fill="#0" id="circle38"/>
	<circle cx="94.7629" cy="60.2474" r="4" fill="#0" id="circle39"/>
	<circle cx="97.3196" cy="598.433" r="4" fill="#0" id="circle40"/>
	<circle cx="99.8763" cy="135.67" r="4" fill="#0" id="circle41"/>
	<circle cx="101.155" cy="71.7526" r="4" fill="#0" id="circle42"/>
	<circle cx="101.155" cy="205.979" r="4" fill="#0" id="circle43"/>
	<circle cx="102.433" cy="266.062" r="4" fill="#0" id="circle44"/>
	<circle cx="106.268" cy="147.175" r="4" fill="#0" id="circle45"/>
	<circle cx="106.268" cy="556.247" r="4" fill="#0" id="circle46"/>
	<circle cx="107.546" cy="83.2577" r="4" fill="#0" id="circle47"/>
	<circle cx="107.546" cy="606.103" r="4" fill="#0" id="circle48"/>
	<circle cx="108.825" cy="277.567" r="4" fill="#0" id="circle49"/>
	<circle cx="110.103" cy="216.206" r="4" fill="#0" id="circle50"/>
	<circle cx="112.66" cy="158.68" r="4" fill="#0" id="circle51"/>
	<circle cx="112.66" cy="290.351" r="4" fill="#0" id="circle52"/>
	<circle cx="112.66" cy="303.134" r="4" fill="#0" id="circle53"/>
	<circle cx="113.938" cy="94.7629" r="4" fill="#0" id="circle54"/>
	<circle cx="113.938" cy="107.546" r="4" fill="#0" id="circle55"/>
	<circle cx="113.938" cy="566.474" r="4" fill="#0" id="circle56"/>
	<circle cx="116.495" cy="171.464" r="4" fill="#0" id="circle57"/>
	<circle cx="119.052" cy="184.247" r="4" fill="#0" id="circle58"/>
	<circle cx="120.33" cy="119.052" r="4" fill="#0" id="circle59"/>
	<circle cx="120.33" cy="225.155" r="4" fill="#0" id="circle60"/>
	<circle cx="120.33" cy="608.66" r="4" fill="#0" id="circle61"/>
	<circle cx="122.887" cy="197.031" r="4" fill="#0" id="circle62"/>
	<circle cx="122.887" cy="312.082" r="4" fill="#0" id="circle63"/>
	<circle cx="124.165" cy="574.144" r="4" fill="#0" id="circle64"/>
	<circle cx="126.722" cy="130.557" r="4" fill="#0" id="circle65"/>
	<circle cx="129.278" cy="235.381" r="4" fill="#0" id="circle66"/>
	<circle cx="129.278" cy="323.588" r="4" fill="#0" id="circle67"/>
	<circle cx="129.278" cy="618.887" r="4" fill="#0" id="circle68"/>
	<circle cx="131.835" cy="207.258" r="4" fill="#0" id="circle69"/>
	<circle cx="133.113" cy="142.062" r="4" fill="#0" id="circle70"/>
	<circle cx="133.113" cy="584.371" r="4" fill="#0" id="circle71"/>
	<circle cx="138.227" cy="218.763" r="4" fill="#0" id="circle72"/>
	<circle cx="139.505" cy="153.567" r="4" fill="#0" id="circle73"/>
	<circle cx="139.505" cy="244.33" r="4" fill="#0" id="circle74"/>
	<circle cx="139.505" cy="627.835" r="4" fill="#0" id="circle75"/>
	<circle cx="142.062" cy="324.866" r="4" fill="#0" id="circle76"/>
	<circle cx="143.34" cy="593.32" r="4" fill="#0" id="circle77"/>
	<circle cx="144.619" cy="90.9278" r="4" fill="#0" id="circle78"/>
	<circle cx="144.619" cy="103.711" r="4" fill="#0" id="circle79"/>
	<circle cx="144.619" cy="116.495" r="4" fill="#0" id="circle80"/>
	<circle cx="144.619" cy="129.278" r="4" fill="#0" id="circle81"/>
	<circle cx="144.619" cy="230.268" r="4" fill="#0" id="circle82"/>
	<circle cx="147.175" cy="163.794" r="4" fill="#0" id="circle83"/>
	<circle cx="148.454" cy="638.062" r="4" fill="#0" id="circle84"/>
	<circle cx="151.01" cy="78.1443" r="4" fill="#0" id="circle85"/>
	<circle cx="154.845" cy="138.227" r="4" fill="#0" id="circle86"/>
	<circle cx="154.845" cy="329.979" r="4" fill="#0" id="circle87"/>
	<circle cx="156.124" cy="598.433" r="4" fill="#0" id="circle88"/>
	<circle cx="157.402" cy="172.742" r="4" fill="#0" id="circle89"/>
	<circle cx="158.68" cy="647.01" r="4" fill="#0" id="circle90"/>
	<circle cx="159.959" cy="151.01" r="4" fill="#0" id="circle91"/>
	<circle cx="161.237" cy="67.9175" r="4" fill="#0" id="circle92"/>
	<circle cx="163.794" cy="340.206" r="4" fill="#0" id="circle93"/>
	<circle cx="163.794" cy="487.216" r="4" fill="#0" id="circle94"/>
	<circle cx="163.794" cy="500" r="4" fill="#0" id="circle95"/>
	<circle cx="163.794" cy="512.784" r="4" fill="#0" id="circle96"/>
	<circle cx="163.794" cy="525.567" r="4" fill="#0" id="circle97"/>
	<circle cx="163.794" cy="538.351" r="4" fill="#0" id="circle98"/>
	<circle cx="163.794" cy="551.134" r="4" fill="#0" id="circle99"/>
	<circle cx="163.794" cy="563.918" r="4" fill="#0" id="circle100"/>
	<circle cx="163.794" cy="576.701" r="4" fill="#0" id="circle101"/>
	<circle cx="165.072" cy="182.969" r="4" fill="#0" id="circle102"/>
	<circle cx="167.629" cy="657.237" r="4" fill="#0" id="circle103"/>
	<circle cx="170.186" cy="158.68" r="4" fill="#0" id="circle104"/>
	<circle cx="170.186" cy="351.711" r="4" fill="#0" id="circle105"/>
	<circle cx="171.464" cy="57.6907" r="4" fill="#0" id="circle106"/>
	<circle cx="174.021" cy="476.99" r="4" fill="#0" id="circle107"/>
	<circle cx="176.577" cy="363.216" r="4" fill="#0" id="circle108"/>
	<circle cx="180.412" cy="657.237" r="4" fill="#0" id="circle109"/>
	<circle cx="181.691" cy="48.7423" r="4" fill="#0" id="circle110"/>
	<circle cx="182.969" cy="374.722" r="4" fill="#0" id="circle111"/>
	<circle cx="184.247" cy="466.763" r="4" fill="#0" id="circle112"/>
	<circle cx="189.361" cy="386.227" r="4" fill="#0" id="circle113"/>
	<circle cx="190.639" cy="38.5155" r="4" fill="#0" id="circle114"/>
	<circle cx="193.196" cy="655.959" r="4" fill="#0" id="circle115"/>
	<circle cx="194.474" cy="457.814" r="4" fill="#0" id="circle116"/>
	<circle cx="195.753" cy="397.732" r="4" fill="#0" id="circle117"/>
	<circle cx="197.031" cy="25.732" r="4" fill="#0" id="circle118"/>
	<circle cx="197.031" cy="593.32" r="4" fill="#0" id="circle119"/>
	<circle cx="197.031" cy="606.103" r="4" fill="#0" id="circle120"/>
	<circle cx="197.031" cy="618.887" r="4" fill="#0" id="circle121"/>
	<circle cx="197.031" cy="631.67" r="4" fill="#0" id="circle122"/>
	<circle cx="202.144" cy="409.237" r="4" fill="#0" id="circle123"/>
	<circle cx="202.144" cy="832.371" r="4" fill="#0" id="circle124"/>
	<circle cx="203.423" cy="12.9485" r="4" fill="#0" id="circle125"/>
	<circle cx="203.423" cy="580.536" r="4" fill="#0" id="circle126"/>
	<circle cx="205.979" cy="451.423" r="4" fill="#0" id="circle127"/>
	<circle cx="208.536" cy="843.876" r="4" fill="#0" id="circle128"/>
	<circle cx="211.093" cy="419.464" r="4" fill="#0" id="circle129"/>
	<circle cx="212.371" cy="822.144" r="4" fill="#0" id="circle130"/>
	<circle cx="213.649" cy="4" r="4" fill="#0" id="circle131"/>
	<circle cx="213.649" cy="571.588" r="4" fill="#0" id="circle132"/>
	<circle cx="217.485" cy="457.814" r="4" fill="#0" id="circle133"/>
	<circle cx="217.485" cy="854.103" r="4" fill="#0" id="circle134"/>
	<circle cx="221.32" cy="427.134" r="4" fill="#0" id="circle135"/>
	<circle cx="223.876" cy="815.753" r="4" fill="#0" id="circle136"/>
	<circle cx="225.155" cy="10.3918" r="4" fill="#0" id="circle137"/>
	<circle cx="226.433" cy="567.753" r="4" fill="#0" id="circle138"/>
	<circle cx="227.711" cy="438.639" r="4" fill="#0" id="circle139"/>
	<circle cx="227.711" cy="627.835" r="4" fill="#0" id="circle140"/>
	<circle cx="227.711" cy="640.619" r="4" fill="#0" id="circle141"/>
	<circle cx="227.711" cy="653.402" r="4" fill="#0" id="circle142"/>
	<circle cx="227.711" cy="666.186" r="4" fill="#0" id="circle143"/>
	<circle cx="227.711" cy="861.773" r="4" fill="#0" id="circle144"/>
	<circle cx="228.99" cy="23.1753" r="4" fill="#0" id="circle145"/>
	<circle cx="234.103" cy="677.691" r="4" fill="#0" id="circle146"/>
	<circle cx="235.381" cy="809.361" r="4" fill="#0" id="circle147"/>
	<circle cx="239.216" cy="30.8454" r="4" fill="#0" id="circle148"/>
	<circle cx="239.216" cy="567.753" r="4" fill="#0" id="circle149"/>
	<circle cx="240.495" cy="621.443" r="4" fill="#0" id="circle150"/>
	<circle cx="240.495" cy="689.196" r="4" fill="#0" id="circle151"/>
	<circle cx="240.495" cy="861.773" r="4" fill="#0" id="circle152"/>
	<circle cx="246.887" cy="700.701" r="4" fill="#0" id="circle153"/>
	<circle cx="248.165" cy="577.979" r="4" fill="#0" id="circle154"/>
	<circle cx="248.165" cy="809.361" r="4" fill="#0" id="circle155"/>
	<circle cx="250.722" cy="37.2371" r="4" fill="#0" id="circle156"/>
	<circle cx="253.278" cy="615.052" r="4" fill="#0" id="circle157"/>
	<circle cx="253.278" cy="712.206" r="4" fill="#0" id="circle158"/>
	<circle cx="253.278" cy="857.938" r="4" fill="#0" id="circle159"/>
	<circle cx="255.835" cy="797.856" r="4" fill="#0" id="circle160"/>
	<circle cx="259.67" cy="723.711" r="4" fill="#0" id="circle161"/>
	<circle cx="260.948" cy="46.1856" r="4" fill="#0" id="circle162"/>
	<circle cx="260.948" cy="580.536" r="4" fill="#0" id="circle163"/>
	<circle cx="263.505" cy="604.825" r="4" fill="#0" id="circle164"/>
	<circle cx="266.062" cy="735.216" r="4" fill="#0" id="circle165"/>
	<circle cx="266.062" cy="787.629" r="4" fill="#0" id="circle166"/>
	<circle cx="266.062" cy="851.546" r="4" fill="#0" id="circle167"/>
	<circle cx="272.454" cy="746.722" r="4" fill="#0" id="circle168"/>
	<circle cx="272.454" cy="759.505" r="4" fill="#0" id="circle169"/>
	<circle cx="272.454" cy="772.289" r="4" fill="#0" id="circle170"/>
	<circle cx="273.732" cy="48.7423" r="4" fill="#0" id="circle171"/>
	<circle cx="276.289" cy="841.32" r="4" fill="#0" id="circle172"/>
	<circle cx="285.237" cy="42.3505" r="4" fill="#0" id="circle173"/>
	<circle cx="286.515" cy="829.814" r="4" fill="#0" id="circle174"/>
	<circle cx="296.742" cy="820.866" r="4" fill="#0" id="circle175"/>
	<circle cx="298.021" cy="38.5155" r="4" fill="#0" id="circle176"/>
	<circle cx="299.299" cy="51.299" r="4" fill="#0" id="circle177"/>
	<circle cx="299.299" cy="64.0825" r="4" fill="#0" id="circle178"/>
	<circle cx="303.134" cy="76.866" r="4" fill="#0" id="circle179"/>
	<circle cx="305.691" cy="89.6495" r="4" fill="#0" id="circle180"/>
	<circle cx="305.691" cy="695.588" r="4" fill="#0" id="circle181"/>
	<circle cx="305.691" cy="708.371" r="4" fill="#0" id="circle182"/>
	<circle cx="305.691" cy="721.155" r="4" fill="#0" id="circle183"/>
	<circle cx="305.691" cy="810.639" r="4" fill="#0" id="circle184"/>
	<circle cx="309.526" cy="102.433" r="4" fill="#0" id="circle185"/>
	<circle cx="312.082" cy="115.216" r="4" fill="#0" id="circle186"/>
	<circle cx="312.082" cy="128" r="4" fill="#0" id="circle187"/>
	<circle cx="312.082" cy="732.66" r="4" fill="#0" id="circle188"/>
	<circle cx="315.918" cy="801.691" r="4" fill="#0" id="circle189"/>
	<circle cx="318.474" cy="139.505" r="4" fill="#0" id="circle190"/>
	<circle cx="318.474" cy="689.196" r="4" fill="#0" id="circle191"/>
	<circle cx="318.474" cy="744.165" r="4" fill="#0" id="circle192"/>
	<circle cx="322.309" cy="788.907" r="4" fill="#0" id="circle193"/>
	<circle cx="324.866" cy="151.01" r="4" fill="#0" id="circle194"/>
	<circle cx="324.866" cy="163.794" r="4" fill="#0" id="circle195"/>
	<circle cx="324.866" cy="176.577" r="4" fill="#0" id="circle196"/>
	<circle cx="324.866" cy="755.67" r="4" fill="#0" id="circle197"/>
	<circle cx="324.866" cy="768.454" r="4" fill="#0" id="circle198"/>
	<circle cx="331.258" cy="188.082" r="4" fill="#0" id="circle199"/>
	<circle cx="331.258" cy="689.196" r="4" fill="#0" id="circle200"/>
	<circle cx="337.649" cy="199.588" r="4" fill="#0" id="circle201"/>
	<circle cx="337.649" cy="212.371" r="4" fill="#0" id="circle202"/>
	<circle cx="337.649" cy="225.155" r="4" fill="#0" id="circle203"/>
	<circle cx="337.649" cy="237.938" r="4" fill="#0" id="circle204"/>
	<circle cx="337.649" cy="250.722" r="4" fill="#0" id="circle205"/>
	<circle cx="337.649" cy="263.505" r="4" fill="#0" id="circle206"/>
	<circle cx="337.649" cy="276.289" r="4" fill="#0" id="circle207"/>
	<circle cx="342.763" cy="289.072" r="4" fill="#0" id="circle208"/>
	<circle cx="344.041" cy="689.196" r="4" fill="#0" id="circle209"/>
	<circle cx="349.155" cy="300.577" r="4" fill="#0" id="circle210"/>
	<circle cx="350.433" cy="313.361" r="4" fill="#0" id="circle211"/>
	<circle cx="356.825" cy="689.196" r="4" fill="#0" id="circle212"/>
	<circle cx="358.103" cy="323.588" r="4" fill="#0" id="circle213"/>
	<circle cx="368.33" cy="332.536" r="4" fill="#0" id="circle214"/>
	<circle cx="369.608" cy="689.196" r="4" fill="#0" id="circle215"/>
	<circle cx="376" cy="342.763" r="4" fill="#0" id="circle216"/>
	<circle cx="382.392" cy="682.804" r="4" fill="#0" id="circle217"/>
	<circle cx="386.227" cy="350.433" r="4" fill="#0" id="circle218"/>
	<circle cx="393.897" cy="689.196" r="4" fill="#0" id="circle219"/>
	<circle cx="395.175" cy="360.66" r="4" fill="#0" id="circle220"/>
	<circle cx="401.567" cy="372.165" r="4" fill="#0" id="circle221"/>
	<circle cx="401.567" cy="384.948" r="4" fill="#0" id="circle222"/>
	<circle cx="401.567" cy="699.423" r="4" fill="#0" id="circle223"/>
	<circle cx="410.515" cy="395.175" r="4" fill="#0" id="circle224"/>
	<circle cx="411.794" cy="708.371" r="4" fill="#0" id="circle225"/>
	<circle cx="414.351" cy="407.959" r="4" fill="#0" id="circle226"/>
	<circle cx="416.907" cy="721.155" r="4" fill="#0" id="circle227"/>
	<circle cx="419.464" cy="733.938" r="4" fill="#0" id="circle228"/>
	<circle cx="419.464" cy="746.722" r="4" fill="#0" id="circle229"/>
	<circle cx="420.742" cy="419.464" r="4" fill="#0" id="circle230"/>
	<circle cx="420.742" cy="432.247" r="4" fill="#0" id="circle231"/>
	<circle cx="425.856" cy="758.227" r="4" fill="#0" id="circle232"/>
	<circle cx="427.134" cy="443.753" r="4" fill="#0" id="circle233"/>
	<circle cx="428.412" cy="771.01" r="4" fill="#0" id="circle234"/>
	<circle cx="433.526" cy="455.258" r="4" fill="#0" id="circle235"/>
	<circle cx="438.639" cy="778.68" r="4" fill="#0" id="circle236"/>
	<circle cx="439.918" cy="466.763" r="4" fill="#0" id="circle237"/>
	<circle cx="442.474" cy="791.464" r="4" fill="#0" id="circle238"/>
	<circle cx="443.753" cy="479.546" r="4" fill="#0" id="circle239"/>
	<circle cx="446.309" cy="492.33" r="4" fill="#0" id="circle240"/>
	<circle cx="446.309" cy="505.113" r="4" fill="#0" id="circle241"/>
	<circle cx="446.309" cy="517.897" r="4" fill="#0" id="circle242"/>
	<circle cx="446.309" cy="530.68" r="4" fill="#0" id="circle243"/>
	<circle cx="446.309" cy="543.464" r="4" fill="#0" id="circle244"/>
	<circle cx="446.309" cy="556.247" r="4" fill="#0" id="circle245"/>
	<circle cx="446.309" cy="569.031" r="4" fill="#0" id="circle246"/>
	<circle cx="446.309" cy="581.814" r="4" fill="#0" id="circle247"/>
	<circle cx="446.309" cy="594.598" r="4" fill="#0" id="circle248"/>
	<circle cx="446.309" cy="607.381" r="4" fill="#0" id="circle249"/>
	<circle cx="446.309" cy="620.165" r="4" fill="#0" id="circle250"/>
	<circle cx="446.309" cy="632.948" r="4" fill="#0" id="circle251"/>
	<circle cx="450.144" cy="645.732" r="4" fill="#0" id="circle252"/>
	<circle cx="452.701" cy="658.515" r="4" fill="#0" id="circle253"/>
	<circle cx="452.701" cy="800.412" r="4" fill="#0" id="circle254"/>
	<circle cx="459.093" cy="670.021" r="4" fill="#0" id="circle255"/>
	<circle cx="461.649" cy="682.804" r="4" fill="#0" id="circle256"/>
	<circle cx="464.206" cy="806.804" r="4" fill="#0" id="circle257"/>
	<circle cx="464.206" cy="819.588" r="4" fill="#0" id="circle258"/>
	<circle cx="468.041" cy="694.309" r="4" fill="#0" id="circle259"/>
	<circle cx="471.876" cy="707.093" r="4" fill="#0" id="circle260"/>
	<circle cx="474.433" cy="828.536" r="4" fill="#0" id="circle261"/>
	<circle cx="483.381" cy="838.763" r="4" fill="#0" id="circle262"/>
	<circle cx="484.66" cy="710.928" r="4" fill="#0" id="circle263"/>
	<circle cx="489.773" cy="723.711" r="4" fill="#0" id="circle264"/>
	<circle cx="496.165" cy="842.598" r="4" fill="#0" id="circle265"/>
	<circle cx="497.443" cy="733.938" r="4" fill="#0" id="circle266"/>
	<circle cx="503.835" cy="745.443" r="4" fill="#0" id="circle267"/>
	<circle cx="507.67" cy="848.99" r="4" fill="#0" id="circle268"/>
	<circle cx="514.062" cy="753.113" r="4" fill="#0" id="circle269"/>
	<circle cx="515.34" cy="859.216" r="4" fill="#0" id="circle270"/>
	<circle cx="521.732" cy="870.722" r="4" fill="#0" id="circle271"/>
	<circle cx="523.01" cy="763.34" r="4" fill="#0" id="circle272"/>
	<circle cx="528.124" cy="882.227" r="4" fill="#0" id="circle273"/>
	<circle cx="533.237" cy="772.289" r="4" fill="#0" id="circle274"/>
	<circle cx="534.515" cy="893.732" r="4" fill="#0" id="circle275"/>
	<circle cx="538.351" cy="906.515" r="4" fill="#0" id="circle276"/>
	<circle cx="544.742" cy="778.68" r="4" fill="#0" id="circle277"/>
	<circle cx="548.577" cy="915.464" r="4" fill="#0" id="circle278"/>
	<circle cx="557.526" cy="783.794" r="4" fill="#0" id="circle279"/>
	<circle cx="557.526" cy="925.691" r="4" fill="#0" id="circle280"/>
	<circle cx="566.474" cy="794.021" r="4" fill="#0" id="circle281"/>
	<circle cx="567.753" cy="934.639" r="4" fill="#0" id="circle282"/>
	<circle cx="572.866" cy="947.423" r="4" fill="#0" id="circle283"/>
	<circle cx="576.701" cy="802.969" r="4" fill="#0" id="circle284"/>
	<circle cx="579.258" cy="958.928" r="4" fill="#0" id="circle285"/>
	<circle cx="580.536" cy="815.753" r="4" fill="#0" id="circle286"/>
	<circle cx="585.649" cy="970.433" r="4" fill="#0" id="circle287"/>
	<circle cx="586.928" cy="827.258" r="4" fill="#0" id="circle288"/>
	<circle cx="593.32" cy="980.66" r="4" fill="#0" id="circle289"/>
	<circle cx="597.155" cy="836.206" r="4" fill="#0" id="circle290"/>
	<circle cx="599.711" cy="992.165" r="4" fill="#0" id="circle291"/>
	<circle cx="602.268" cy="848.99" r="4" fill="#0" id="circle292"/>
	<circle cx="606.103" cy="861.773" r="4" fill="#0" id="circle293"/>
	<circle cx="612.495" cy="873.278" r="4" fill="#0" id="circle294"/>
	<circle cx="612.495" cy="886.062" r="4" fill="#0" id="circle295"/>
	<circle cx="612.495" cy="996" r="4" fill="#0" id="circle296"/>
	<circle cx="622.722" cy="893.732" r="4" fill="#0" id="circle297"/>
	<circle cx="622.722" cy="987.052" r="4" fill="#0" id="circle298"/>
	<circle cx="625.278" cy="906.515" r="4" fill="#0" id="circle299"/>
	<circle cx="631.67" cy="918.021" r="4" fill="#0" id="circle300"/>
	<circle cx="631.67" cy="930.804" r="4" fill="#0" id="circle301"/>
	<circle cx="631.67" cy="943.588" r="4" fill="#0" id="circle302"/>
	<circle cx="631.67" cy="956.371" r="4" fill="#0" id="circle303"/>
	<circle cx="631.67" cy="969.155" r="4" fill="#0" id="circle304"/>
	</g>
</svg>