<?xml version="1.0" encoding="UTF-8" standalone="no"?>
<!-- Created with CurveBenchmark -->
<svg
	xmlns:dc="http://purl.org/dc/elements/1.1/"
	xmlns:cc="http://creativecommons.org/ns#"
	xmlns:rdf="http://www.w3.org/1999/02/22-rdf-syntax-ns#"
	xmlns:svg="http://www.w3.org/2000/svg"
	xmlns="http://www.w3.org/2000/svg"
	xmlns:sodipodi="http://sodipodi.sourceforge.net/DTD/sodipodi-0.dtd"
	xmlns:inkscape="http://www.inkscape.org/namespaces/inkscape"
	width="1000"
	height="1000"
	id="svg2"
	version="1.1"
	sodipodi:docname="manifold/discur-tool26.png.txt">
<defs
	id="defs4" />
<metadata
	id="metadata7">
	<rdf:RDF>
		<cc:Work
			rdf:about="">
			<dc:format>image/svg+xml</dc:format>
			<dc:type
				rdf:resource="http://purl.org/dc/dcmitype/StillImage" />
			<dc:title></dc:title>
		</cc:Work>
	</rdf:RDF>
</metadata>
<g
	inkscape:label="Layer 1"
	inkscape:groupmode="layer"
	id="layer1">
	<path style="fill:none;stroke:red;stroke-width:1px;stroke-linecap:butt;stroke-linejoin:miter;stroke-opacity:1" d="M 4,255.024 4,285.268 z" id="boundary" inkscape:connector-curvature="0" />
	<path style="fill:none;stroke:red;stroke-width:1px;stroke-linecap:butt;stroke-linejoin:miter;stroke-opacity:1" d="M 4,255.024 28.1951,230.829 z" id="boundary" inkscape:connector-curvature="0" />
	<path style="fill:none;stroke:red;stroke-width:1px;stroke-linecap:butt;stroke-linejoin:miter;stroke-opacity:1" d="M 4,285.268 34.2439,294.341 z" id="boundary" inkscape:connector-curvature="0" />
	<path style="fill:none;stroke:red;stroke-width:1px;stroke-linecap:butt;stroke-linejoin:miter;stroke-opacity:1" d="M 19.122,391.122 19.122,421.366 z" id="boundary" inkscape:connector-curvature="0" />
	<path style="fill:none;stroke:red;stroke-width:1px;stroke-linecap:butt;stroke-linejoin:miter;stroke-opacity:1" d="M 19.122,391.122 49.3659,382.049 z" id="boundary" inkscape:connector-curvature="0" />
	<path style="fill:none;stroke:red;stroke-width:1px;stroke-linecap:butt;stroke-linejoin:miter;stroke-opacity:1" d="M 19.122,421.366 37.2683,445.561 z" id="boundary" inkscape:connector-curvature="0" />
	<path style="fill:none;stroke:red;stroke-width:1px;stroke-linecap:butt;stroke-linejoin:miter;stroke-opacity:1" d="M 28.1951,230.829 58.439,215.707 z" id="boundary" inkscape:connector-curvature="0" />
	<path style="fill:none;stroke:red;stroke-width:1px;stroke-linecap:butt;stroke-linejoin:miter;stroke-opacity:1" d="M 34.2439,294.341 64.4878,294.341 z" id="boundary" inkscape:connector-curvature="0" />
	<path style="fill:none;stroke:red;stroke-width:1px;stroke-linecap:butt;stroke-linejoin:miter;stroke-opacity:1" d="M 37.2683,445.561 64.4878,460.683 z" id="boundary" inkscape:connector-curvature="0" />
	<path style="fill:none;stroke:red;stroke-width:1px;stroke-linecap:butt;stroke-linejoin:miter;stroke-opacity:1" d="M 49.3659,382.049 79.6098,382.049 z" id="boundary" inkscape:connector-curvature="0" />
	<path style="fill:none;stroke:red;stroke-width:1px;stroke-linecap:butt;stroke-linejoin:miter;stroke-opacity:1" d="M 58.439,215.707 88.6829,215.707 z" id="boundary" inkscape:connector-curvature="0" />
	<path style="fill:none;stroke:red;stroke-width:1px;stroke-linecap:butt;stroke-linejoin:miter;stroke-opacity:1" d="M 64.4878,294.341 94.7317,294.341 z" id="boundary" inkscape:connector-curvature="0" />
	<path style="fill:none;stroke:red;stroke-width:1px;stroke-linecap:butt;stroke-linejoin:miter;stroke-opacity:1" d="M 64.4878,460.683 94.7317,460.683 z" id="boundary" inkscape:connector-curvature="0" />
	<path style="fill:none;stroke:red;stroke-width:1px;stroke-linecap:butt;stroke-linejoin:miter;stroke-opacity:1" d="M 79.6098,382.049 109.854,360.878 z" id="boundary" inkscape:connector-curvature="0" />
	<path style="fill:none;stroke:red;stroke-width:1px;stroke-linecap:butt;stroke-linejoin:miter;stroke-opacity:1" d="M 88.6829,215.707 118.927,215.707 z" id="boundary" inkscape:connector-curvature="0" />
	<path style="fill:none;stroke:red;stroke-width:1px;stroke-linecap:butt;stroke-linejoin:miter;stroke-opacity:1" d="M 94.7317,294.341 121.951,309.463 z" id="boundary" inkscape:connector-curvature="0" />
	<path style="fill:none;stroke:red;stroke-width:1px;stroke-linecap:butt;stroke-linejoin:miter;stroke-opacity:1" d="M 94.7317,460.683 124.976,466.732 z" id="boundary" inkscape:connector-curvature="0" />
	<path style="fill:none;stroke:red;stroke-width:1px;stroke-linecap:butt;stroke-linejoin:miter;stroke-opacity:1" d="M 109.854,360.878 121.951,309.463 z" id="boundary" inkscape:connector-curvature="0" />
	<path style="fill:none;stroke:red;stroke-width:1px;stroke-linecap:butt;stroke-linejoin:miter;stroke-opacity:1" d="M 118.927,215.707 149.171,215.707 z" id="boundary" inkscape:connector-curvature="0" />
	<path style="fill:none;stroke:red;stroke-width:1px;stroke-linecap:butt;stroke-linejoin:miter;stroke-opacity:1" d="M 124.976,466.732 155.22,460.683 z" id="boundary" inkscape:connector-curvature="0" />
	<path style="fill:none;stroke:red;stroke-width:1px;stroke-linecap:butt;stroke-linejoin:miter;stroke-opacity:1" d="M 149.171,215.707 176.39,230.829 z" id="boundary" inkscape:connector-curvature="0" />
	<path style="fill:none;stroke:red;stroke-width:1px;stroke-linecap:butt;stroke-linejoin:miter;stroke-opacity:1" d="M 155.22,460.683 179.415,442.537 z" id="boundary" inkscape:connector-curvature="0" />
	<path style="fill:none;stroke:red;stroke-width:1px;stroke-linecap:butt;stroke-linejoin:miter;stroke-opacity:1" d="M 176.39,230.829 203.61,245.951 z" id="boundary" inkscape:connector-curvature="0" />
	<path style="fill:none;stroke:red;stroke-width:1px;stroke-linecap:butt;stroke-linejoin:miter;stroke-opacity:1" d="M 179.415,442.537 203.61,415.317 z" id="boundary" inkscape:connector-curvature="0" />
	<path style="fill:none;stroke:red;stroke-width:1px;stroke-linecap:butt;stroke-linejoin:miter;stroke-opacity:1" d="M 203.61,245.951 233.854,245.951 z" id="boundary" inkscape:connector-curvature="0" />
	<path style="fill:none;stroke:red;stroke-width:1px;stroke-linecap:butt;stroke-linejoin:miter;stroke-opacity:1" d="M 203.61,415.317 218.732,385.073 z" id="boundary" inkscape:connector-curvature="0" />
	<path style="fill:none;stroke:red;stroke-width:1px;stroke-linecap:butt;stroke-linejoin:miter;stroke-opacity:1" d="M 218.732,385.073 242.927,363.902 z" id="boundary" inkscape:connector-curvature="0" />
	<path style="fill:none;stroke:red;stroke-width:1px;stroke-linecap:butt;stroke-linejoin:miter;stroke-opacity:1" d="M 233.854,245.951 264.098,245.951 z" id="boundary" inkscape:connector-curvature="0" />
	<path style="fill:none;stroke:red;stroke-width:1px;stroke-linecap:butt;stroke-linejoin:miter;stroke-opacity:1" d="M 242.927,363.902 264.098,339.707 z" id="boundary" inkscape:connector-curvature="0" />
	<path style="fill:none;stroke:red;stroke-width:1px;stroke-linecap:butt;stroke-linejoin:miter;stroke-opacity:1" d="M 264.098,245.951 291.317,230.829 z" id="boundary" inkscape:connector-curvature="0" />
	<path style="fill:none;stroke:red;stroke-width:1px;stroke-linecap:butt;stroke-linejoin:miter;stroke-opacity:1" d="M 264.098,339.707 294.341,324.585 z" id="boundary" inkscape:connector-curvature="0" />
	<path style="fill:none;stroke:red;stroke-width:1px;stroke-linecap:butt;stroke-linejoin:miter;stroke-opacity:1" d="M 291.317,230.829 321.561,230.829 z" id="boundary" inkscape:connector-curvature="0" />
	<path style="fill:none;stroke:red;stroke-width:1px;stroke-linecap:butt;stroke-linejoin:miter;stroke-opacity:1" d="M 294.341,324.585 324.585,324.585 z" id="boundary" inkscape:connector-curvature="0" />
	<path style="fill:none;stroke:red;stroke-width:1px;stroke-linecap:butt;stroke-linejoin:miter;stroke-opacity:1" d="M 321.561,230.829 348.78,215.707 z" id="boundary" inkscape:connector-curvature="0" />
	<path style="fill:none;stroke:red;stroke-width:1px;stroke-linecap:butt;stroke-linejoin:miter;stroke-opacity:1" d="M 324.585,324.585 351.805,309.463 z" id="boundary" inkscape:connector-curvature="0" />
	<path style="fill:none;stroke:red;stroke-width:1px;stroke-linecap:butt;stroke-linejoin:miter;stroke-opacity:1" d="M 348.78,215.707 379.024,215.707 z" id="boundary" inkscape:connector-curvature="0" />
	<path style="fill:none;stroke:red;stroke-width:1px;stroke-linecap:butt;stroke-linejoin:miter;stroke-opacity:1" d="M 351.805,309.463 382.049,309.463 z" id="boundary" inkscape:connector-curvature="0" />
	<path style="fill:none;stroke:red;stroke-width:1px;stroke-linecap:butt;stroke-linejoin:miter;stroke-opacity:1" d="M 379.024,215.707 406.244,200.585 z" id="boundary" inkscape:connector-curvature="0" />
	<path style="fill:none;stroke:red;stroke-width:1px;stroke-linecap:butt;stroke-linejoin:miter;stroke-opacity:1" d="M 382.049,309.463 409.268,294.341 z" id="boundary" inkscape:connector-curvature="0" />
	<path style="fill:none;stroke:red;stroke-width:1px;stroke-linecap:butt;stroke-linejoin:miter;stroke-opacity:1" d="M 406.244,200.585 436.488,200.585 z" id="boundary" inkscape:connector-curvature="0" />
	<path style="fill:none;stroke:red;stroke-width:1px;stroke-linecap:butt;stroke-linejoin:miter;stroke-opacity:1" d="M 409.268,294.341 439.512,288.293 z" id="boundary" inkscape:connector-curvature="0" />
	<path style="fill:none;stroke:red;stroke-width:1px;stroke-linecap:butt;stroke-linejoin:miter;stroke-opacity:1" d="M 436.488,200.585 463.707,185.463 z" id="boundary" inkscape:connector-curvature="0" />
	<path style="fill:none;stroke:red;stroke-width:1px;stroke-linecap:butt;stroke-linejoin:miter;stroke-opacity:1" d="M 439.512,288.293 469.756,279.22 z" id="boundary" inkscape:connector-curvature="0" />
	<path style="fill:none;stroke:red;stroke-width:1px;stroke-linecap:butt;stroke-linejoin:miter;stroke-opacity:1" d="M 463.707,185.463 493.951,185.463 z" id="boundary" inkscape:connector-curvature="0" />
	<path style="fill:none;stroke:red;stroke-width:1px;stroke-linecap:butt;stroke-linejoin:miter;stroke-opacity:1" d="M 469.756,279.22 500,273.171 z" id="boundary" inkscape:connector-curvature="0" />
	<path style="fill:none;stroke:red;stroke-width:1px;stroke-linecap:butt;stroke-linejoin:miter;stroke-opacity:1" d="M 493.951,185.463 521.171,170.341 z" id="boundary" inkscape:connector-curvature="0" />
	<path style="fill:none;stroke:red;stroke-width:1px;stroke-linecap:butt;stroke-linejoin:miter;stroke-opacity:1" d="M 500,273.171 530.244,264.098 z" id="boundary" inkscape:connector-curvature="0" />
	<path style="fill:none;stroke:red;stroke-width:1px;stroke-linecap:butt;stroke-linejoin:miter;stroke-opacity:1" d="M 521.171,170.341 551.415,161.268 z" id="boundary" inkscape:connector-curvature="0" />
	<path style="fill:none;stroke:red;stroke-width:1px;stroke-linecap:butt;stroke-linejoin:miter;stroke-opacity:1" d="M 530.244,264.098 560.488,258.049 z" id="boundary" inkscape:connector-curvature="0" />
	<path style="fill:none;stroke:red;stroke-width:1px;stroke-linecap:butt;stroke-linejoin:miter;stroke-opacity:1" d="M 551.415,161.268 581.659,155.22 z" id="boundary" inkscape:connector-curvature="0" />
	<path style="fill:none;stroke:red;stroke-width:1px;stroke-linecap:butt;stroke-linejoin:miter;stroke-opacity:1" d="M 560.488,258.049 590.732,248.976 z" id="boundary" inkscape:connector-curvature="0" />
	<path style="fill:none;stroke:red;stroke-width:1px;stroke-linecap:butt;stroke-linejoin:miter;stroke-opacity:1" d="M 581.659,155.22 611.902,146.146 z" id="boundary" inkscape:connector-curvature="0" />
	<path style="fill:none;stroke:red;stroke-width:1px;stroke-linecap:butt;stroke-linejoin:miter;stroke-opacity:1" d="M 590.732,248.976 617.951,233.854 z" id="boundary" inkscape:connector-curvature="0" />
	<path style="fill:none;stroke:red;stroke-width:1px;stroke-linecap:butt;stroke-linejoin:miter;stroke-opacity:1" d="M 611.902,146.146 642.146,140.098 z" id="boundary" inkscape:connector-curvature="0" />
	<path style="fill:none;stroke:red;stroke-width:1px;stroke-linecap:butt;stroke-linejoin:miter;stroke-opacity:1" d="M 617.951,233.854 648.195,233.854 z" id="boundary" inkscape:connector-curvature="0" />
	<path style="fill:none;stroke:red;stroke-width:1px;stroke-linecap:butt;stroke-linejoin:miter;stroke-opacity:1" d="M 642.146,140.098 672.39,131.024 z" id="boundary" inkscape:connector-curvature="0" />
	<path style="fill:none;stroke:red;stroke-width:1px;stroke-linecap:butt;stroke-linejoin:miter;stroke-opacity:1" d="M 648.195,233.854 678.439,230.829 z" id="boundary" inkscape:connector-curvature="0" />
	<path style="fill:none;stroke:red;stroke-width:1px;stroke-linecap:butt;stroke-linejoin:miter;stroke-opacity:1" d="M 672.39,131.024 702.634,124.976 z" id="boundary" inkscape:connector-curvature="0" />
	<path style="fill:none;stroke:red;stroke-width:1px;stroke-linecap:butt;stroke-linejoin:miter;stroke-opacity:1" d="M 678.439,230.829 708.683,218.732 z" id="boundary" inkscape:connector-curvature="0" />
	<path style="fill:none;stroke:red;stroke-width:1px;stroke-linecap:butt;stroke-linejoin:miter;stroke-opacity:1" d="M 702.634,124.976 732.878,115.902 z" id="boundary" inkscape:connector-curvature="0" />
	<path style="fill:none;stroke:red;stroke-width:1px;stroke-linecap:butt;stroke-linejoin:miter;stroke-opacity:1" d="M 708.683,218.732 738.927,218.732 z" id="boundary" inkscape:connector-curvature="0" />
	<path style="fill:none;stroke:red;stroke-width:1px;stroke-linecap:butt;stroke-linejoin:miter;stroke-opacity:1" d="M 732.878,115.902 763.122,109.854 z" id="boundary" inkscape:connector-curvature="0" />
	<path style="fill:none;stroke:red;stroke-width:1px;stroke-linecap:butt;stroke-linejoin:miter;stroke-opacity:1" d="M 738.927,218.732 766.146,203.61 z" id="boundary" inkscape:connector-curvature="0" />
	<path style="fill:none;stroke:red;stroke-width:1px;stroke-linecap:butt;stroke-linejoin:miter;stroke-opacity:1" d="M 763.122,109.854 790.341,88.6829 z" id="boundary" inkscape:connector-curvature="0" />
	<path style="fill:none;stroke:red;stroke-width:1px;stroke-linecap:butt;stroke-linejoin:miter;stroke-opacity:1" d="M 766.146,203.61 796.39,203.61 z" id="boundary" inkscape:connector-curvature="0" />
	<path style="fill:none;stroke:red;stroke-width:1px;stroke-linecap:butt;stroke-linejoin:miter;stroke-opacity:1" d="M 790.341,88.6829 814.537,64.4878 z" id="boundary" inkscape:connector-curvature="0" />
	<path style="fill:none;stroke:red;stroke-width:1px;stroke-linecap:butt;stroke-linejoin:miter;stroke-opacity:1" d="M 796.39,203.61 826.634,203.61 z" id="boundary" inkscape:connector-curvature="0" />
	<path style="fill:none;stroke:red;stroke-width:1px;stroke-linecap:butt;stroke-linejoin:miter;stroke-opacity:1" d="M 814.537,64.4878 835.707,28.1951 z" id="boundary" inkscape:connector-curvature="0" />
	<path style="fill:none;stroke:red;stroke-width:1px;stroke-linecap:butt;stroke-linejoin:miter;stroke-opacity:1" d="M 826.634,203.61 853.854,218.732 z" id="boundary" inkscape:connector-curvature="0" />
	<path style="fill:none;stroke:red;stroke-width:1px;stroke-linecap:butt;stroke-linejoin:miter;stroke-opacity:1" d="M 835.707,28.1951 865.951,13.0732 z" id="boundary" inkscape:connector-curvature="0" />
	<path style="fill:none;stroke:red;stroke-width:1px;stroke-linecap:butt;stroke-linejoin:miter;stroke-opacity:1" d="M 853.854,218.732 881.073,233.854 z" id="boundary" inkscape:connector-curvature="0" />
	<path style="fill:none;stroke:red;stroke-width:1px;stroke-linecap:butt;stroke-linejoin:miter;stroke-opacity:1" d="M 865.951,13.0732 896.195,4 z" id="boundary" inkscape:connector-curvature="0" />
	<path style="fill:none;stroke:red;stroke-width:1px;stroke-linecap:butt;stroke-linejoin:miter;stroke-opacity:1" d="M 881.073,233.854 911.317,233.854 z" id="boundary" inkscape:connector-curvature="0" />
	<path style="fill:none;stroke:red;stroke-width:1px;stroke-linecap:butt;stroke-linejoin:miter;stroke-opacity:1" d="M 884.098,112.878 899.22,140.098 z" id="boundary" inkscape:connector-curvature="0" />
	<path style="fill:none;stroke:red;stroke-width:1px;stroke-linecap:butt;stroke-linejoin:miter;stroke-opacity:1" d="M 884.098,112.878 914.341,112.878 z" id="boundary" inkscape:connector-curvature="0" />
	<path style="fill:none;stroke:red;stroke-width:1px;stroke-linecap:butt;stroke-linejoin:miter;stroke-opacity:1" d="M 896.195,4 926.439,10.0488 z" id="boundary" inkscape:connector-curvature="0" />
	<path style="fill:none;stroke:red;stroke-width:1px;stroke-linecap:butt;stroke-linejoin:miter;stroke-opacity:1" d="M 899.22,140.098 914.341,112.878 z" id="boundary" inkscape:connector-curvature="0" />
	<path style="fill:none;stroke:red;stroke-width:1px;stroke-linecap:butt;stroke-linejoin:miter;stroke-opacity:1" d="M 911.317,233.854 941.561,233.854 z" id="boundary" inkscape:connector-curvature="0" />
	<path style="fill:none;stroke:red;stroke-width:1px;stroke-linecap:butt;stroke-linejoin:miter;stroke-opacity:1" d="M 926.439,10.0488 956.683,19.122 z" id="boundary" inkscape:connector-curvature="0" />
	<path style="fill:none;stroke:red;stroke-width:1px;stroke-linecap:butt;stroke-linejoin:miter;stroke-opacity:1" d="M 926.439,155.22 941.561,97.7561 z" id="boundary" inkscape:connector-curvature="0" />
	<path style="fill:none;stroke:red;stroke-width:1px;stroke-linecap:butt;stroke-linejoin:miter;stroke-opacity:1" d="M 926.439,155.22 956.683,155.22 z" id="boundary" inkscape:connector-curvature="0" />
	<path style="fill:none;stroke:red;stroke-width:1px;stroke-linecap:butt;stroke-linejoin:miter;stroke-opacity:1" d="M 941.561,97.7561 971.805,97.7561 z" id="boundary" inkscape:connector-curvature="0" />
	<path style="fill:none;stroke:red;stroke-width:1px;stroke-linecap:butt;stroke-linejoin:miter;stroke-opacity:1" d="M 941.561,233.854 968.78,218.732 z" id="boundary" inkscape:connector-curvature="0" />
	<path style="fill:none;stroke:red;stroke-width:1px;stroke-linecap:butt;stroke-linejoin:miter;stroke-opacity:1" d="M 956.683,19.122 974.829,43.3171 z" id="boundary" inkscape:connector-curvature="0" />
	<path style="fill:none;stroke:red;stroke-width:1px;stroke-linecap:butt;stroke-linejoin:miter;stroke-opacity:1" d="M 956.683,155.22 986.927,161.268 z" id="boundary" inkscape:connector-curvature="0" />
	<path style="fill:none;stroke:red;stroke-width:1px;stroke-linecap:butt;stroke-linejoin:miter;stroke-opacity:1" d="M 968.78,218.732 996,200.585 z" id="boundary" inkscape:connector-curvature="0" />
	<path style="fill:none;stroke:red;stroke-width:1px;stroke-linecap:butt;stroke-linejoin:miter;stroke-opacity:1" d="M 971.805,97.7561 989.951,73.561 z" id="boundary" inkscape:connector-curvature="0" />
	<path style="fill:none;stroke:red;stroke-width:1px;stroke-linecap:butt;stroke-linejoin:miter;stroke-opacity:1" d="M 974.829,43.3171 989.951,73.561 z" id="boundary" inkscape:connector-curvature="0" />
	<path style="fill:none;stroke:red;stroke-width:1px;stroke-linecap:butt;stroke-linejoin:miter;stroke-opacity:1" d="M 986.927,161.268 996,200.585 z" id="boundary" inkscape:connector-curvature="0" />
	<circle cx="4" cy="255.024" r="4" fill="#0" id="circle0"/>
	<circle cx="4" cy="285.268" r="4" fill="#0" id="circle1"/>
	<circle cx="19.122" cy="391.122" r="4" fill="#0" id="circle2"/>
	<circle cx="19.122" cy="421.366" r="4" fill="#0" id="circle3"/>
	<circle cx="28.1951" cy="230.829" r="4" fill="#0" id="circle4"/>
	<circle cx="34.2439" cy="294.341" r="4" fill="#0" id="circle5"/>
	<circle cx="37.2683" cy="445.561" r="4" fill="#0" id="circle6"/>
	<circle cx="49.3659" cy="382.049" r="4" fill="#0" id="circle7"/>
	<circle cx="58.439" cy="215.707" r="4" fill="#0" id="circle8"/>
	<circle cx="64.4878" cy="294.341" r="4" fill="#0" id="circle9"/>
	<circle cx="64.4878" cy="460.683" r="4" fill="#0" id="circle10"/>
	<circle cx="79.6098" cy="382.049" r="4" fill="#0" id="circle11"/>
	<circle cx="88.6829" cy="215.707" r="4" fill="#0" id="circle12"/>
	<circle cx="94.7317" cy="294.341" r="4" fill="#0" id="circle13"/>
	<circle cx="94.7317" cy="460.683" r="4" fill="#0" id="circle14"/>
	<circle cx="109.854" cy="360.878" r="4" fill="#0" id="circle15"/>
	<circle cx="118.927" cy="215.707" r="4" fill="#0" id="circle16"/>
	<circle cx="121.951" cy="309.463" r="4" fill="#0" id="circle17"/>
	<circle cx="124.976" cy="466.732" r="4" fill="#0" id="circle18"/>
	<circle cx="149.171" cy="215.707" r="4" fill="#0" id="circle19"/>
	<circle cx="155.22" cy="460.683" r="4" fill="#0" id="circle20"/>
	<circle cx="176.39" cy="230.829" r="4" fill="#0" id="circle21"/>
	<circle cx="179.415" cy="442.537" r="4" fill="#0" id="circle22"/>
	<circle cx="203.61" cy="245.951" r="4" fill="#0" id="circle23"/>
	<circle cx="203.61" cy="415.317" r="4" fill="#0" id="circle24"/>
	<circle cx="218.732" cy="385.073" r="4" fill="#0" id="circle25"/>
	<circle cx="233.854" cy="245.951" r="4" fill="#0" id="circle26"/>
	<circle cx="242.927" cy="363.902" r="4" fill="#0" id="circle27"/>
	<circle cx="264.098" cy="245.951" r="4" fill="#0" id="circle28"/>
	<circle cx="264.098" cy="339.707" r="4" fill="#0" id="circle29"/>
	<circle cx="291.317" cy="230.829" r="4" fill="#0" id="circle30"/>
	<circle cx="294.341" cy="324.585" r="4" fill="#0" id="circle31"/>
	<circle cx="321.561" cy="230.829" r="4" fill="#0" id="circle32"/>
	<circle cx="324.585" cy="324.585" r="4" fill="#0" id="circle33"/>
	<circle cx="348.78" cy="215.707" r="4" fill="#0" id="circle34"/>
	<circle cx="351.805" cy="309.463" r="4" fill="#0" id="circle35"/>
	<circle cx="379.024" cy="215.707" r="4" fill="#0" id="circle36"/>
	<circle cx="382.049" cy="309.463" r="4" fill="#0" id="circle37"/>
	<circle cx="406.244" cy="200.585" r="4" fill="#0" id="circle38"/>
	<circle cx="409.268" cy="294.341" r="4" fill="#0" id="circle39"/>
	<circle cx="436.488" cy="200.585" r="4" fill="#0" id="circle40"/>
	<circle cx="439.512" cy="288.293" r="4" fill="#0" id="circle41"/>
	<circle cx="463.707" cy="185.463" r="4" fill="#0" id="circle42"/>
	<circle cx="469.756" cy="279.22" r="4" fill="#0" id="circle43"/>
	<circle cx="493.951" cy="185.463" r="4" fill="#0" id="circle44"/>
	<circle cx="500" cy="273.171" r="4" fill="#0" id="circle45"/>
	<circle cx="521.171" cy="170.341" r="4" fill="#0" id="circle46"/>
	<circle cx="530.244" cy="264.098" r="4" fill="#0" id="circle47"/>
	<circle cx="551.415" cy="161.268" r="4" fill="#0" id="circle48"/>
	<circle cx="560.488" cy="258.049" r="4" fill="#0" id="circle49"/>
	<circle cx="581.659" cy="155.22" r="4" fill="#0" id="circle50"/>
	<circle cx="590.732" cy="248.976" r="4" fill="#0" id="circle51"/>
	<circle cx="611.902" cy="146.146" r="4" fill="#0" id="circle52"/>
	<circle cx="617.951" cy="233.854" r="4" fill="#0" id="circle53"/>
	<circle cx="642.146" cy="140.098" r="4" fill="#0" id="circle54"/>
	<circle cx="648.195" cy="233.854" r="4" fill="#0" id="circle55"/>
	<circle cx="672.39" cy="131.024" r="4" fill="#0" id="circle56"/>
	<circle cx="678.439" cy="230.829" r="4" fill="#0" id="circle57"/>
	<circle cx="702.634" cy="124.976" r="4" fill="#0" id="circle58"/>
	<circle cx="708.683" cy="218.732" r="4" fill="#0" id="circle59"/>
	<circle cx="732.878" cy="115.902" r="4" fill="#0" id="circle60"/>
	<circle cx="738.927" cy="218.732" r="4" fill="#0" id="circle61"/>
	<circle cx="763.122" cy="109.854" r="4" fill="#0" id="circle62"/>
	<circle cx="766.146" cy="203.61" r="4" fill="#0" id="circle63"/>
	<circle cx="790.341" cy="88.6829" r="4" fill="#0" id="circle64"/>
	<circle cx="796.39" cy="203.61" r="4" fill="#0" id="circle65"/>
	<circle cx="814.537" cy="64.4878" r="4" fill="#0" id="circle66"/>
	<circle cx="826.634" cy="203.61" r="4" fill="#0" id="circle67"/>
	<circle cx="835.707" cy="28.1951" r="4" fill="#0" id="circle68"/>
	<circle cx="853.854" cy="218.732" r="4" fill="#0" id="circle69"/>
	<circle cx="865.951" cy="13.0732" r="4" fill="#0" id="circle70"/>
	<circle cx="881.073" cy="233.854" r="4" fill="#0" id="circle71"/>
	<circle cx="884.098" cy="112.878" r="4" fill="#0" id="circle72"/>
	<circle cx="896.195" cy="4" r="4" fill="#0" id="circle73"/>
	<circle cx="899.22" cy="140.098" r="4" fill="#0" id="circle74"/>
	<circle cx="911.317" cy="233.854" r="4" fill="#0" id="circle75"/>
	<circle cx="914.341" cy="112.878" r="4" fill="#0" id="circle76"/>
	<circle cx="926.439" cy="10.0488" r="4" fill="#0" id="circle77"/>
	<circle cx="926.439" cy="155.22" r="4" fill="#0" id="circle78"/>
	<circle cx="941.561" cy="97.7561" r="4" fill="#0" id="circle79"/>
	<circle cx="941.561" cy="233.854" r="4" fill="#0" id="circle80"/>
	<circle cx="956.683" cy="19.122" r="4" fill="#0" id="circle81"/>
	<circle cx="956.683" cy="155.22" r="4" fill="#0" id="circle82"/>
	<circle cx="968.78" cy="218.732" r="4" fill="#0" id="circle83"/>
	<circle cx="971.805" cy="97.7561" r="4" fill="#0" id="circle84"/>
	<circle cx="974.829" cy="43.3171" r="4" fill="#0" id="circle85"/>
	<circle cx="986.927" cy="161.268" r="4" fill="#0" id="circle86"/>
	<circle cx="989.951" cy="73.561" r="4" fill="#0" id="circle87"/>
	<circle cx="996" cy="200.585" r="4" fill="#0" id="circle88"/>
	</g>
</svg>