<?xml version="1.0" encoding="UTF-8" standalone="no"?>
<!-- Created with CurveBenchmark -->
<svg
	xmlns:dc="http://purl.org/dc/elements/1.1/"
	xmlns:cc="http://creativecommons.org/ns#"
	xmlns:rdf="http://www.w3.org/1999/02/22-rdf-syntax-ns#"
	xmlns:svg="http://www.w3.org/2000/svg"
	xmlns="http://www.w3.org/2000/svg"
	xmlns:sodipodi="http://sodipodi.sourceforge.net/DTD/sodipodi-0.dtd"
	xmlns:inkscape="http://www.inkscape.org/namespaces/inkscape"
	width="1000"
	height="1000"
	id="svg2"
	version="1.1"
	sodipodi:docname="manifold/discur-tree-18.png.txt">
<defs
	id="defs4" />
<metadata
	id="metadata7">
	<rdf:RDF>
		<cc:Work
			rdf:about="">
			<dc:format>image/svg+xml</dc:format>
			<dc:type
				rdf:resource="http://purl.org/dc/dcmitype/StillImage" />
			<dc:title></dc:title>
		</cc:Work>
	</rdf:RDF>
</metadata>
<g
	inkscape:label="Layer 1"
	inkscape:groupmode="layer"
	id="layer1">
	<path style="fill:none;stroke:red;stroke-width:1px;stroke-linecap:butt;stroke-linejoin:miter;stroke-opacity:1" d="M 4,508.732 4,517.465 z" id="boundary" inkscape:connector-curvature="0" />
	<path style="fill:none;stroke:red;stroke-width:1px;stroke-linecap:butt;stroke-linejoin:miter;stroke-opacity:1" d="M 4,508.732 8.3662,500 z" id="boundary" inkscape:connector-curvature="0" />
	<path style="fill:none;stroke:red;stroke-width:1px;stroke-linecap:butt;stroke-linejoin:miter;stroke-opacity:1" d="M 4,517.465 4,526.197 z" id="boundary" inkscape:connector-curvature="0" />
	<path style="fill:none;stroke:red;stroke-width:1px;stroke-linecap:butt;stroke-linejoin:miter;stroke-opacity:1" d="M 4,526.197 4,534.93 z" id="boundary" inkscape:connector-curvature="0" />
	<path style="fill:none;stroke:red;stroke-width:1px;stroke-linecap:butt;stroke-linejoin:miter;stroke-opacity:1" d="M 4,534.93 4,543.662 z" id="boundary" inkscape:connector-curvature="0" />
	<path style="fill:none;stroke:red;stroke-width:1px;stroke-linecap:butt;stroke-linejoin:miter;stroke-opacity:1" d="M 4,543.662 4,552.394 z" id="boundary" inkscape:connector-curvature="0" />
	<path style="fill:none;stroke:red;stroke-width:1px;stroke-linecap:butt;stroke-linejoin:miter;stroke-opacity:1" d="M 4,552.394 8.3662,560.254 z" id="boundary" inkscape:connector-curvature="0" />
	<path style="fill:none;stroke:red;stroke-width:1px;stroke-linecap:butt;stroke-linejoin:miter;stroke-opacity:1" d="M 8.3662,473.803 8.3662,482.535 z" id="boundary" inkscape:connector-curvature="0" />
	<path style="fill:none;stroke:red;stroke-width:1px;stroke-linecap:butt;stroke-linejoin:miter;stroke-opacity:1" d="M 8.3662,473.803 12.7324,460.704 z" id="boundary" inkscape:connector-curvature="0" />
	<path style="fill:none;stroke:red;stroke-width:1px;stroke-linecap:butt;stroke-linejoin:miter;stroke-opacity:1" d="M 8.3662,482.535 8.3662,491.268 z" id="boundary" inkscape:connector-curvature="0" />
	<path style="fill:none;stroke:red;stroke-width:1px;stroke-linecap:butt;stroke-linejoin:miter;stroke-opacity:1" d="M 8.3662,491.268 8.3662,500 z" id="boundary" inkscape:connector-curvature="0" />
	<path style="fill:none;stroke:red;stroke-width:1px;stroke-linecap:butt;stroke-linejoin:miter;stroke-opacity:1" d="M 8.3662,560.254 17.0986,563.746 z" id="boundary" inkscape:connector-curvature="0" />
	<path style="fill:none;stroke:red;stroke-width:1px;stroke-linecap:butt;stroke-linejoin:miter;stroke-opacity:1" d="M 12.7324,329.718 12.7324,338.451 z" id="boundary" inkscape:connector-curvature="0" />
	<path style="fill:none;stroke:red;stroke-width:1px;stroke-linecap:butt;stroke-linejoin:miter;stroke-opacity:1" d="M 12.7324,329.718 19.7183,322.732 z" id="boundary" inkscape:connector-curvature="0" />
	<path style="fill:none;stroke:red;stroke-width:1px;stroke-linecap:butt;stroke-linejoin:miter;stroke-opacity:1" d="M 12.7324,338.451 19.7183,344.563 z" id="boundary" inkscape:connector-curvature="0" />
	<path style="fill:none;stroke:red;stroke-width:1px;stroke-linecap:butt;stroke-linejoin:miter;stroke-opacity:1" d="M 12.7324,460.704 17.0986,451.972 z" id="boundary" inkscape:connector-curvature="0" />
	<path style="fill:none;stroke:red;stroke-width:1px;stroke-linecap:butt;stroke-linejoin:miter;stroke-opacity:1" d="M 12.7324,761.972 12.7324,770.704 z" id="boundary" inkscape:connector-curvature="0" />
	<path style="fill:none;stroke:red;stroke-width:1px;stroke-linecap:butt;stroke-linejoin:miter;stroke-opacity:1" d="M 12.7324,761.972 17.0986,753.239 z" id="boundary" inkscape:connector-curvature="0" />
	<path style="fill:none;stroke:red;stroke-width:1px;stroke-linecap:butt;stroke-linejoin:miter;stroke-opacity:1" d="M 12.7324,770.704 12.7324,779.437 z" id="boundary" inkscape:connector-curvature="0" />
	<path style="fill:none;stroke:red;stroke-width:1px;stroke-linecap:butt;stroke-linejoin:miter;stroke-opacity:1" d="M 12.7324,779.437 12.7324,788.169 z" id="boundary" inkscape:connector-curvature="0" />
	<path style="fill:none;stroke:red;stroke-width:1px;stroke-linecap:butt;stroke-linejoin:miter;stroke-opacity:1" d="M 12.7324,788.169 12.7324,796.901 z" id="boundary" inkscape:connector-curvature="0" />
	<path style="fill:none;stroke:red;stroke-width:1px;stroke-linecap:butt;stroke-linejoin:miter;stroke-opacity:1" d="M 12.7324,796.901 19.7183,803.014 z" id="boundary" inkscape:connector-curvature="0" />
	<path style="fill:none;stroke:red;stroke-width:1px;stroke-linecap:butt;stroke-linejoin:miter;stroke-opacity:1" d="M 17.0986,451.972 21.4648,443.239 z" id="boundary" inkscape:connector-curvature="0" />
	<path style="fill:none;stroke:red;stroke-width:1px;stroke-linecap:butt;stroke-linejoin:miter;stroke-opacity:1" d="M 17.0986,563.746 24.0845,558.507 z" id="boundary" inkscape:connector-curvature="0" />
	<path style="fill:none;stroke:red;stroke-width:1px;stroke-linecap:butt;stroke-linejoin:miter;stroke-opacity:1" d="M 17.0986,744.507 17.0986,753.239 z" id="boundary" inkscape:connector-curvature="0" />
	<path style="fill:none;stroke:red;stroke-width:1px;stroke-linecap:butt;stroke-linejoin:miter;stroke-opacity:1" d="M 17.0986,744.507 21.4648,735.775 z" id="boundary" inkscape:connector-curvature="0" />
	<path style="fill:none;stroke:red;stroke-width:1px;stroke-linecap:butt;stroke-linejoin:miter;stroke-opacity:1" d="M 19.7183,322.732 21.4648,312.254 z" id="boundary" inkscape:connector-curvature="0" />
	<path style="fill:none;stroke:red;stroke-width:1px;stroke-linecap:butt;stroke-linejoin:miter;stroke-opacity:1" d="M 19.7183,344.563 28.4507,344.563 z" id="boundary" inkscape:connector-curvature="0" />
	<path style="fill:none;stroke:red;stroke-width:1px;stroke-linecap:butt;stroke-linejoin:miter;stroke-opacity:1" d="M 19.7183,803.014 28.4507,803.014 z" id="boundary" inkscape:connector-curvature="0" />
	<path style="fill:none;stroke:red;stroke-width:1px;stroke-linecap:butt;stroke-linejoin:miter;stroke-opacity:1" d="M 21.4648,312.254 25.831,303.521 z" id="boundary" inkscape:connector-curvature="0" />
	<path style="fill:none;stroke:red;stroke-width:1px;stroke-linecap:butt;stroke-linejoin:miter;stroke-opacity:1" d="M 21.4648,443.239 25.831,430.141 z" id="boundary" inkscape:connector-curvature="0" />
	<path style="fill:none;stroke:red;stroke-width:1px;stroke-linecap:butt;stroke-linejoin:miter;stroke-opacity:1" d="M 21.4648,709.577 21.4648,718.31 z" id="boundary" inkscape:connector-curvature="0" />
	<path style="fill:none;stroke:red;stroke-width:1px;stroke-linecap:butt;stroke-linejoin:miter;stroke-opacity:1" d="M 21.4648,709.577 25.831,700.845 z" id="boundary" inkscape:connector-curvature="0" />
	<path style="fill:none;stroke:red;stroke-width:1px;stroke-linecap:butt;stroke-linejoin:miter;stroke-opacity:1" d="M 21.4648,718.31 21.4648,727.042 z" id="boundary" inkscape:connector-curvature="0" />
	<path style="fill:none;stroke:red;stroke-width:1px;stroke-linecap:butt;stroke-linejoin:miter;stroke-opacity:1" d="M 21.4648,727.042 21.4648,735.775 z" id="boundary" inkscape:connector-curvature="0" />
	<path style="fill:none;stroke:red;stroke-width:1px;stroke-linecap:butt;stroke-linejoin:miter;stroke-opacity:1" d="M 24.0845,558.507 31.0704,550.648 z" id="boundary" inkscape:connector-curvature="0" />
	<path style="fill:none;stroke:red;stroke-width:1px;stroke-linecap:butt;stroke-linejoin:miter;stroke-opacity:1" d="M 25.831,303.521 30.1972,294.789 z" id="boundary" inkscape:connector-curvature="0" />
	<path style="fill:none;stroke:red;stroke-width:1px;stroke-linecap:butt;stroke-linejoin:miter;stroke-opacity:1" d="M 25.831,430.141 32.8169,423.155 z" id="boundary" inkscape:connector-curvature="0" />
	<path style="fill:none;stroke:red;stroke-width:1px;stroke-linecap:butt;stroke-linejoin:miter;stroke-opacity:1" d="M 25.831,692.113 25.831,700.845 z" id="boundary" inkscape:connector-curvature="0" />
	<path style="fill:none;stroke:red;stroke-width:1px;stroke-linecap:butt;stroke-linejoin:miter;stroke-opacity:1" d="M 25.831,692.113 30.1972,683.38 z" id="boundary" inkscape:connector-curvature="0" />
	<path style="fill:none;stroke:red;stroke-width:1px;stroke-linecap:butt;stroke-linejoin:miter;stroke-opacity:1" d="M 28.4507,344.563 35.4366,336.704 z" id="boundary" inkscape:connector-curvature="0" />
	<path style="fill:none;stroke:red;stroke-width:1px;stroke-linecap:butt;stroke-linejoin:miter;stroke-opacity:1" d="M 28.4507,803.014 35.4366,795.155 z" id="boundary" inkscape:connector-curvature="0" />
	<path style="fill:none;stroke:red;stroke-width:1px;stroke-linecap:butt;stroke-linejoin:miter;stroke-opacity:1" d="M 30.1972,294.789 34.5634,286.056 z" id="boundary" inkscape:connector-curvature="0" />
	<path style="fill:none;stroke:red;stroke-width:1px;stroke-linecap:butt;stroke-linejoin:miter;stroke-opacity:1" d="M 30.1972,665.915 30.1972,674.648 z" id="boundary" inkscape:connector-curvature="0" />
	<path style="fill:none;stroke:red;stroke-width:1px;stroke-linecap:butt;stroke-linejoin:miter;stroke-opacity:1" d="M 30.1972,665.915 34.5634,657.183 z" id="boundary" inkscape:connector-curvature="0" />
	<path style="fill:none;stroke:red;stroke-width:1px;stroke-linecap:butt;stroke-linejoin:miter;stroke-opacity:1" d="M 30.1972,674.648 30.1972,683.38 z" id="boundary" inkscape:connector-curvature="0" />
	<path style="fill:none;stroke:red;stroke-width:1px;stroke-linecap:butt;stroke-linejoin:miter;stroke-opacity:1" d="M 31.0704,550.648 38.0563,544.535 z" id="boundary" inkscape:connector-curvature="0" />
	<path style="fill:none;stroke:red;stroke-width:1px;stroke-linecap:butt;stroke-linejoin:miter;stroke-opacity:1" d="M 32.8169,423.155 37.1831,414.423 z" id="boundary" inkscape:connector-curvature="0" />
	<path style="fill:none;stroke:red;stroke-width:1px;stroke-linecap:butt;stroke-linejoin:miter;stroke-opacity:1" d="M 34.5634,286.056 38.9296,277.324 z" id="boundary" inkscape:connector-curvature="0" />
	<path style="fill:none;stroke:red;stroke-width:1px;stroke-linecap:butt;stroke-linejoin:miter;stroke-opacity:1" d="M 34.5634,648.451 34.5634,657.183 z" id="boundary" inkscape:connector-curvature="0" />
	<path style="fill:none;stroke:red;stroke-width:1px;stroke-linecap:butt;stroke-linejoin:miter;stroke-opacity:1" d="M 34.5634,648.451 38.9296,635.352 z" id="boundary" inkscape:connector-curvature="0" />
	<path style="fill:none;stroke:red;stroke-width:1px;stroke-linecap:butt;stroke-linejoin:miter;stroke-opacity:1" d="M 35.4366,336.704 44.169,332.338 z" id="boundary" inkscape:connector-curvature="0" />
	<path style="fill:none;stroke:red;stroke-width:1px;stroke-linecap:butt;stroke-linejoin:miter;stroke-opacity:1" d="M 35.4366,795.155 44.169,795.155 z" id="boundary" inkscape:connector-curvature="0" />
	<path style="fill:none;stroke:red;stroke-width:1px;stroke-linecap:butt;stroke-linejoin:miter;stroke-opacity:1" d="M 37.1831,414.423 41.5493,405.69 z" id="boundary" inkscape:connector-curvature="0" />
	<path style="fill:none;stroke:red;stroke-width:1px;stroke-linecap:butt;stroke-linejoin:miter;stroke-opacity:1" d="M 38.0563,544.535 44.169,537.549 z" id="boundary" inkscape:connector-curvature="0" />
	<path style="fill:none;stroke:red;stroke-width:1px;stroke-linecap:butt;stroke-linejoin:miter;stroke-opacity:1" d="M 38.9296,277.324 43.2958,268.592 z" id="boundary" inkscape:connector-curvature="0" />
	<path style="fill:none;stroke:red;stroke-width:1px;stroke-linecap:butt;stroke-linejoin:miter;stroke-opacity:1" d="M 38.9296,626.62 38.9296,635.352 z" id="boundary" inkscape:connector-curvature="0" />
	<path style="fill:none;stroke:red;stroke-width:1px;stroke-linecap:butt;stroke-linejoin:miter;stroke-opacity:1" d="M 38.9296,626.62 43.2958,613.521 z" id="boundary" inkscape:connector-curvature="0" />
	<path style="fill:none;stroke:red;stroke-width:1px;stroke-linecap:butt;stroke-linejoin:miter;stroke-opacity:1" d="M 41.5493,405.69 45.9155,396.958 z" id="boundary" inkscape:connector-curvature="0" />
	<path style="fill:none;stroke:red;stroke-width:1px;stroke-linecap:butt;stroke-linejoin:miter;stroke-opacity:1" d="M 43.2958,268.592 47.662,255.493 z" id="boundary" inkscape:connector-curvature="0" />
	<path style="fill:none;stroke:red;stroke-width:1px;stroke-linecap:butt;stroke-linejoin:miter;stroke-opacity:1" d="M 43.2958,613.521 47.662,604.789 z" id="boundary" inkscape:connector-curvature="0" />
	<path style="fill:none;stroke:red;stroke-width:1px;stroke-linecap:butt;stroke-linejoin:miter;stroke-opacity:1" d="M 44.169,332.338 52.9014,327.972 z" id="boundary" inkscape:connector-curvature="0" />
	<path style="fill:none;stroke:red;stroke-width:1px;stroke-linecap:butt;stroke-linejoin:miter;stroke-opacity:1" d="M 44.169,537.549 51.1549,531.437 z" id="boundary" inkscape:connector-curvature="0" />
	<path style="fill:none;stroke:red;stroke-width:1px;stroke-linecap:butt;stroke-linejoin:miter;stroke-opacity:1" d="M 44.169,795.155 52.0282,790.789 z" id="boundary" inkscape:connector-curvature="0" />
	<path style="fill:none;stroke:red;stroke-width:1px;stroke-linecap:butt;stroke-linejoin:miter;stroke-opacity:1" d="M 45.9155,396.958 52.0282,382.113 z" id="boundary" inkscape:connector-curvature="0" />
	<path style="fill:none;stroke:red;stroke-width:1px;stroke-linecap:butt;stroke-linejoin:miter;stroke-opacity:1" d="M 47.662,255.493 52.0282,246.761 z" id="boundary" inkscape:connector-curvature="0" />
	<path style="fill:none;stroke:red;stroke-width:1px;stroke-linecap:butt;stroke-linejoin:miter;stroke-opacity:1" d="M 47.662,596.056 47.662,604.789 z" id="boundary" inkscape:connector-curvature="0" />
	<path style="fill:none;stroke:red;stroke-width:1px;stroke-linecap:butt;stroke-linejoin:miter;stroke-opacity:1" d="M 47.662,596.056 52.0282,582.958 z" id="boundary" inkscape:connector-curvature="0" />
	<path style="fill:none;stroke:red;stroke-width:1px;stroke-linecap:butt;stroke-linejoin:miter;stroke-opacity:1" d="M 51.1549,531.437 57.2676,524.451 z" id="boundary" inkscape:connector-curvature="0" />
	<path style="fill:none;stroke:red;stroke-width:1px;stroke-linecap:butt;stroke-linejoin:miter;stroke-opacity:1" d="M 52.0282,246.761 56.3944,238.028 z" id="boundary" inkscape:connector-curvature="0" />
	<path style="fill:none;stroke:red;stroke-width:1px;stroke-linecap:butt;stroke-linejoin:miter;stroke-opacity:1" d="M 52.0282,382.113 56.3944,373.38 z" id="boundary" inkscape:connector-curvature="0" />
	<path style="fill:none;stroke:red;stroke-width:1px;stroke-linecap:butt;stroke-linejoin:miter;stroke-opacity:1" d="M 52.0282,574.225 52.0282,582.958 z" id="boundary" inkscape:connector-curvature="0" />
	<path style="fill:none;stroke:red;stroke-width:1px;stroke-linecap:butt;stroke-linejoin:miter;stroke-opacity:1" d="M 52.0282,574.225 56.3944,565.493 z" id="boundary" inkscape:connector-curvature="0" />
	<path style="fill:none;stroke:red;stroke-width:1px;stroke-linecap:butt;stroke-linejoin:miter;stroke-opacity:1" d="M 52.0282,790.789 60.7606,790.789 z" id="boundary" inkscape:connector-curvature="0" />
	<path style="fill:none;stroke:red;stroke-width:1px;stroke-linecap:butt;stroke-linejoin:miter;stroke-opacity:1" d="M 52.9014,327.972 61.6338,323.606 z" id="boundary" inkscape:connector-curvature="0" />
	<path style="fill:none;stroke:red;stroke-width:1px;stroke-linecap:butt;stroke-linejoin:miter;stroke-opacity:1" d="M 56.3944,229.296 56.3944,238.028 z" id="boundary" inkscape:connector-curvature="0" />
	<path style="fill:none;stroke:red;stroke-width:1px;stroke-linecap:butt;stroke-linejoin:miter;stroke-opacity:1" d="M 56.3944,229.296 60.7606,220.563 z" id="boundary" inkscape:connector-curvature="0" />
	<path style="fill:none;stroke:red;stroke-width:1px;stroke-linecap:butt;stroke-linejoin:miter;stroke-opacity:1" d="M 56.3944,373.38 63.3803,366.394 z" id="boundary" inkscape:connector-curvature="0" />
	<path style="fill:none;stroke:red;stroke-width:1px;stroke-linecap:butt;stroke-linejoin:miter;stroke-opacity:1" d="M 56.3944,556.761 56.3944,565.493 z" id="boundary" inkscape:connector-curvature="0" />
	<path style="fill:none;stroke:red;stroke-width:1px;stroke-linecap:butt;stroke-linejoin:miter;stroke-opacity:1" d="M 56.3944,556.761 60.7606,548.028 z" id="boundary" inkscape:connector-curvature="0" />
	<path style="fill:none;stroke:red;stroke-width:1px;stroke-linecap:butt;stroke-linejoin:miter;stroke-opacity:1" d="M 57.2676,524.451 65.1268,528.817 z" id="boundary" inkscape:connector-curvature="0" />
	<path style="fill:none;stroke:red;stroke-width:1px;stroke-linecap:butt;stroke-linejoin:miter;stroke-opacity:1" d="M 60.7606,211.831 60.7606,220.563 z" id="boundary" inkscape:connector-curvature="0" />
	<path style="fill:none;stroke:red;stroke-width:1px;stroke-linecap:butt;stroke-linejoin:miter;stroke-opacity:1" d="M 60.7606,211.831 65.1268,203.099 z" id="boundary" inkscape:connector-curvature="0" />
	<path style="fill:none;stroke:red;stroke-width:1px;stroke-linecap:butt;stroke-linejoin:miter;stroke-opacity:1" d="M 60.7606,548.028 65.1268,537.549 z" id="boundary" inkscape:connector-curvature="0" />
	<path style="fill:none;stroke:red;stroke-width:1px;stroke-linecap:butt;stroke-linejoin:miter;stroke-opacity:1" d="M 60.7606,790.789 69.493,790.789 z" id="boundary" inkscape:connector-curvature="0" />
	<path style="fill:none;stroke:red;stroke-width:1px;stroke-linecap:butt;stroke-linejoin:miter;stroke-opacity:1" d="M 61.6338,323.606 68.6197,317.493 z" id="boundary" inkscape:connector-curvature="0" />
	<path style="fill:none;stroke:red;stroke-width:1px;stroke-linecap:butt;stroke-linejoin:miter;stroke-opacity:1" d="M 61.6338,515.718 69.493,511.352 z" id="boundary" inkscape:connector-curvature="0" />
	<path style="fill:none;stroke:red;stroke-width:1px;stroke-linecap:butt;stroke-linejoin:miter;stroke-opacity:1" d="M 63.3803,366.394 67.7465,357.662 z" id="boundary" inkscape:connector-curvature="0" />
	<path style="fill:none;stroke:red;stroke-width:1px;stroke-linecap:butt;stroke-linejoin:miter;stroke-opacity:1" d="M 65.1268,203.099 69.493,190 z" id="boundary" inkscape:connector-curvature="0" />
	<path style="fill:none;stroke:red;stroke-width:1px;stroke-linecap:butt;stroke-linejoin:miter;stroke-opacity:1" d="M 65.1268,528.817 65.1268,537.549 z" id="boundary" inkscape:connector-curvature="0" />
	<path style="fill:none;stroke:red;stroke-width:1px;stroke-linecap:butt;stroke-linejoin:miter;stroke-opacity:1" d="M 67.7465,357.662 69.493,342.817 z" id="boundary" inkscape:connector-curvature="0" />
	<path style="fill:none;stroke:red;stroke-width:1px;stroke-linecap:butt;stroke-linejoin:miter;stroke-opacity:1" d="M 68.6197,317.493 77.3521,314.873 z" id="boundary" inkscape:connector-curvature="0" />
	<path style="fill:none;stroke:red;stroke-width:1px;stroke-linecap:butt;stroke-linejoin:miter;stroke-opacity:1" d="M 69.493,181.268 69.493,190 z" id="boundary" inkscape:connector-curvature="0" />
	<path style="fill:none;stroke:red;stroke-width:1px;stroke-linecap:butt;stroke-linejoin:miter;stroke-opacity:1" d="M 69.493,181.268 73.8592,168.169 z" id="boundary" inkscape:connector-curvature="0" />
	<path style="fill:none;stroke:red;stroke-width:1px;stroke-linecap:butt;stroke-linejoin:miter;stroke-opacity:1" d="M 69.493,342.817 73.8592,329.718 z" id="boundary" inkscape:connector-curvature="0" />
	<path style="fill:none;stroke:red;stroke-width:1px;stroke-linecap:butt;stroke-linejoin:miter;stroke-opacity:1" d="M 69.493,790.789 77.3521,786.423 z" id="boundary" inkscape:connector-curvature="0" />
	<path style="fill:none;stroke:red;stroke-width:1px;stroke-linecap:butt;stroke-linejoin:miter;stroke-opacity:1" d="M 73.8592,159.437 73.8592,168.169 z" id="boundary" inkscape:connector-curvature="0" />
	<path style="fill:none;stroke:red;stroke-width:1px;stroke-linecap:butt;stroke-linejoin:miter;stroke-opacity:1" d="M 73.8592,159.437 78.2254,150.704 z" id="boundary" inkscape:connector-curvature="0" />
	<path style="fill:none;stroke:red;stroke-width:1px;stroke-linecap:butt;stroke-linejoin:miter;stroke-opacity:1" d="M 73.8592,329.718 77.3521,314.873 z" id="boundary" inkscape:connector-curvature="0" />
	<path style="fill:none;stroke:red;stroke-width:1px;stroke-linecap:butt;stroke-linejoin:miter;stroke-opacity:1" d="M 77.3521,786.423 86.0845,786.423 z" id="boundary" inkscape:connector-curvature="0" />
	<path style="fill:none;stroke:red;stroke-width:1px;stroke-linecap:butt;stroke-linejoin:miter;stroke-opacity:1" d="M 78.2254,141.972 78.2254,150.704 z" id="boundary" inkscape:connector-curvature="0" />
	<path style="fill:none;stroke:red;stroke-width:1px;stroke-linecap:butt;stroke-linejoin:miter;stroke-opacity:1" d="M 78.2254,141.972 82.5915,128.873 z" id="boundary" inkscape:connector-curvature="0" />
	<path style="fill:none;stroke:red;stroke-width:1px;stroke-linecap:butt;stroke-linejoin:miter;stroke-opacity:1" d="M 82.5915,120.141 82.5915,128.873 z" id="boundary" inkscape:connector-curvature="0" />
	<path style="fill:none;stroke:red;stroke-width:1px;stroke-linecap:butt;stroke-linejoin:miter;stroke-opacity:1" d="M 82.5915,120.141 86.9577,107.042 z" id="boundary" inkscape:connector-curvature="0" />
	<path style="fill:none;stroke:red;stroke-width:1px;stroke-linecap:butt;stroke-linejoin:miter;stroke-opacity:1" d="M 86.0845,786.423 94.8169,786.423 z" id="boundary" inkscape:connector-curvature="0" />
	<path style="fill:none;stroke:red;stroke-width:1px;stroke-linecap:butt;stroke-linejoin:miter;stroke-opacity:1" d="M 86.9577,107.042 91.3239,93.9437 z" id="boundary" inkscape:connector-curvature="0" />
	<path style="fill:none;stroke:red;stroke-width:1px;stroke-linecap:butt;stroke-linejoin:miter;stroke-opacity:1" d="M 91.3239,93.9437 95.6901,85.2113 z" id="boundary" inkscape:connector-curvature="0" />
	<path style="fill:none;stroke:red;stroke-width:1px;stroke-linecap:butt;stroke-linejoin:miter;stroke-opacity:1" d="M 94.8169,786.423 103.549,786.423 z" id="boundary" inkscape:connector-curvature="0" />
	<path style="fill:none;stroke:red;stroke-width:1px;stroke-linecap:butt;stroke-linejoin:miter;stroke-opacity:1" d="M 95.6901,85.2113 100.056,76.4789 z" id="boundary" inkscape:connector-curvature="0" />
	<path style="fill:none;stroke:red;stroke-width:1px;stroke-linecap:butt;stroke-linejoin:miter;stroke-opacity:1" d="M 100.056,76.4789 104.423,67.7465 z" id="boundary" inkscape:connector-curvature="0" />
	<path style="fill:none;stroke:red;stroke-width:1px;stroke-linecap:butt;stroke-linejoin:miter;stroke-opacity:1" d="M 103.549,786.423 112.282,786.423 z" id="boundary" inkscape:connector-curvature="0" />
	<path style="fill:none;stroke:red;stroke-width:1px;stroke-linecap:butt;stroke-linejoin:miter;stroke-opacity:1" d="M 104.423,59.0141 104.423,67.7465 z" id="boundary" inkscape:connector-curvature="0" />
	<path style="fill:none;stroke:red;stroke-width:1px;stroke-linecap:butt;stroke-linejoin:miter;stroke-opacity:1" d="M 104.423,59.0141 108.789,45.9155 z" id="boundary" inkscape:connector-curvature="0" />
	<path style="fill:none;stroke:red;stroke-width:1px;stroke-linecap:butt;stroke-linejoin:miter;stroke-opacity:1" d="M 108.789,45.9155 115.775,38.9296 z" id="boundary" inkscape:connector-curvature="0" />
	<path style="fill:none;stroke:red;stroke-width:1px;stroke-linecap:butt;stroke-linejoin:miter;stroke-opacity:1" d="M 112.282,786.423 117.521,793.408 z" id="boundary" inkscape:connector-curvature="0" />
	<path style="fill:none;stroke:red;stroke-width:1px;stroke-linecap:butt;stroke-linejoin:miter;stroke-opacity:1" d="M 115.775,38.9296 122.761,31.9437 z" id="boundary" inkscape:connector-curvature="0" />
	<path style="fill:none;stroke:red;stroke-width:1px;stroke-linecap:butt;stroke-linejoin:miter;stroke-opacity:1" d="M 117.521,793.408 121.887,801.268 z" id="boundary" inkscape:connector-curvature="0" />
	<path style="fill:none;stroke:red;stroke-width:1px;stroke-linecap:butt;stroke-linejoin:miter;stroke-opacity:1" d="M 121.887,801.268 121.887,810 z" id="boundary" inkscape:connector-curvature="0" />
	<path style="fill:none;stroke:red;stroke-width:1px;stroke-linecap:butt;stroke-linejoin:miter;stroke-opacity:1" d="M 121.887,810 121.887,818.732 z" id="boundary" inkscape:connector-curvature="0" />
	<path style="fill:none;stroke:red;stroke-width:1px;stroke-linecap:butt;stroke-linejoin:miter;stroke-opacity:1" d="M 121.887,818.732 121.887,827.465 z" id="boundary" inkscape:connector-curvature="0" />
	<path style="fill:none;stroke:red;stroke-width:1px;stroke-linecap:butt;stroke-linejoin:miter;stroke-opacity:1" d="M 121.887,827.465 121.887,836.197 z" id="boundary" inkscape:connector-curvature="0" />
	<path style="fill:none;stroke:red;stroke-width:1px;stroke-linecap:butt;stroke-linejoin:miter;stroke-opacity:1" d="M 121.887,836.197 126.254,844.056 z" id="boundary" inkscape:connector-curvature="0" />
	<path style="fill:none;stroke:red;stroke-width:1px;stroke-linecap:butt;stroke-linejoin:miter;stroke-opacity:1" d="M 122.761,31.9437 129.746,25.831 z" id="boundary" inkscape:connector-curvature="0" />
	<path style="fill:none;stroke:red;stroke-width:1px;stroke-linecap:butt;stroke-linejoin:miter;stroke-opacity:1" d="M 126.254,844.056 126.254,852.789 z" id="boundary" inkscape:connector-curvature="0" />
	<path style="fill:none;stroke:red;stroke-width:1px;stroke-linecap:butt;stroke-linejoin:miter;stroke-opacity:1" d="M 126.254,852.789 126.254,861.521 z" id="boundary" inkscape:connector-curvature="0" />
	<path style="fill:none;stroke:red;stroke-width:1px;stroke-linecap:butt;stroke-linejoin:miter;stroke-opacity:1" d="M 126.254,861.521 126.254,870.254 z" id="boundary" inkscape:connector-curvature="0" />
	<path style="fill:none;stroke:red;stroke-width:1px;stroke-linecap:butt;stroke-linejoin:miter;stroke-opacity:1" d="M 126.254,870.254 126.254,878.986 z" id="boundary" inkscape:connector-curvature="0" />
	<path style="fill:none;stroke:red;stroke-width:1px;stroke-linecap:butt;stroke-linejoin:miter;stroke-opacity:1" d="M 126.254,878.986 130.62,886.845 z" id="boundary" inkscape:connector-curvature="0" />
	<path style="fill:none;stroke:red;stroke-width:1px;stroke-linecap:butt;stroke-linejoin:miter;stroke-opacity:1" d="M 129.746,25.831 130.62,10.9859 z" id="boundary" inkscape:connector-curvature="0" />
	<path style="fill:none;stroke:red;stroke-width:1px;stroke-linecap:butt;stroke-linejoin:miter;stroke-opacity:1" d="M 130.62,10.9859 137.606,4 z" id="boundary" inkscape:connector-curvature="0" />
	<path style="fill:none;stroke:red;stroke-width:1px;stroke-linecap:butt;stroke-linejoin:miter;stroke-opacity:1" d="M 130.62,886.845 130.62,895.577 z" id="boundary" inkscape:connector-curvature="0" />
	<path style="fill:none;stroke:red;stroke-width:1px;stroke-linecap:butt;stroke-linejoin:miter;stroke-opacity:1" d="M 130.62,895.577 130.62,904.31 z" id="boundary" inkscape:connector-curvature="0" />
	<path style="fill:none;stroke:red;stroke-width:1px;stroke-linecap:butt;stroke-linejoin:miter;stroke-opacity:1" d="M 130.62,904.31 130.62,913.042 z" id="boundary" inkscape:connector-curvature="0" />
	<path style="fill:none;stroke:red;stroke-width:1px;stroke-linecap:butt;stroke-linejoin:miter;stroke-opacity:1" d="M 130.62,913.042 134.986,920.901 z" id="boundary" inkscape:connector-curvature="0" />
	<path style="fill:none;stroke:red;stroke-width:1px;stroke-linecap:butt;stroke-linejoin:miter;stroke-opacity:1" d="M 134.986,920.901 136.732,929.634 z" id="boundary" inkscape:connector-curvature="0" />
	<path style="fill:none;stroke:red;stroke-width:1px;stroke-linecap:butt;stroke-linejoin:miter;stroke-opacity:1" d="M 136.732,929.634 139.352,938.366 z" id="boundary" inkscape:connector-curvature="0" />
	<path style="fill:none;stroke:red;stroke-width:1px;stroke-linecap:butt;stroke-linejoin:miter;stroke-opacity:1" d="M 137.606,4 146.338,4 z" id="boundary" inkscape:connector-curvature="0" />
	<path style="fill:none;stroke:red;stroke-width:1px;stroke-linecap:butt;stroke-linejoin:miter;stroke-opacity:1" d="M 139.352,938.366 139.352,947.099 z" id="boundary" inkscape:connector-curvature="0" />
	<path style="fill:none;stroke:red;stroke-width:1px;stroke-linecap:butt;stroke-linejoin:miter;stroke-opacity:1" d="M 139.352,947.099 139.352,955.831 z" id="boundary" inkscape:connector-curvature="0" />
	<path style="fill:none;stroke:red;stroke-width:1px;stroke-linecap:butt;stroke-linejoin:miter;stroke-opacity:1" d="M 139.352,955.831 139.352,964.563 z" id="boundary" inkscape:connector-curvature="0" />
	<path style="fill:none;stroke:red;stroke-width:1px;stroke-linecap:butt;stroke-linejoin:miter;stroke-opacity:1" d="M 139.352,964.563 139.352,973.296 z" id="boundary" inkscape:connector-curvature="0" />
	<path style="fill:none;stroke:red;stroke-width:1px;stroke-linecap:butt;stroke-linejoin:miter;stroke-opacity:1" d="M 139.352,973.296 141.099,982.028 z" id="boundary" inkscape:connector-curvature="0" />
	<path style="fill:none;stroke:red;stroke-width:1px;stroke-linecap:butt;stroke-linejoin:miter;stroke-opacity:1" d="M 141.099,982.028 148.085,987.268 z" id="boundary" inkscape:connector-curvature="0" />
	<path style="fill:none;stroke:red;stroke-width:1px;stroke-linecap:butt;stroke-linejoin:miter;stroke-opacity:1" d="M 146.338,4 152.451,10.9859 z" id="boundary" inkscape:connector-curvature="0" />
	<path style="fill:none;stroke:red;stroke-width:1px;stroke-linecap:butt;stroke-linejoin:miter;stroke-opacity:1" d="M 148.085,987.268 153.324,994.254 z" id="boundary" inkscape:connector-curvature="0" />
	<path style="fill:none;stroke:red;stroke-width:1px;stroke-linecap:butt;stroke-linejoin:miter;stroke-opacity:1" d="M 152.451,10.9859 153.324,19.7183 z" id="boundary" inkscape:connector-curvature="0" />
	<path style="fill:none;stroke:red;stroke-width:1px;stroke-linecap:butt;stroke-linejoin:miter;stroke-opacity:1" d="M 153.324,19.7183 153.324,28.4507 z" id="boundary" inkscape:connector-curvature="0" />
	<path style="fill:none;stroke:red;stroke-width:1px;stroke-linecap:butt;stroke-linejoin:miter;stroke-opacity:1" d="M 153.324,28.4507 156.817,37.1831 z" id="boundary" inkscape:connector-curvature="0" />
	<path style="fill:none;stroke:red;stroke-width:1px;stroke-linecap:butt;stroke-linejoin:miter;stroke-opacity:1" d="M 153.324,994.254 162.056,996 z" id="boundary" inkscape:connector-curvature="0" />
	<path style="fill:none;stroke:red;stroke-width:1px;stroke-linecap:butt;stroke-linejoin:miter;stroke-opacity:1" d="M 156.817,37.1831 157.69,45.9155 z" id="boundary" inkscape:connector-curvature="0" />
	<path style="fill:none;stroke:red;stroke-width:1px;stroke-linecap:butt;stroke-linejoin:miter;stroke-opacity:1" d="M 157.69,45.9155 157.69,54.6479 z" id="boundary" inkscape:connector-curvature="0" />
	<path style="fill:none;stroke:red;stroke-width:1px;stroke-linecap:butt;stroke-linejoin:miter;stroke-opacity:1" d="M 157.69,54.6479 162.056,62.507 z" id="boundary" inkscape:connector-curvature="0" />
	<path style="fill:none;stroke:red;stroke-width:1px;stroke-linecap:butt;stroke-linejoin:miter;stroke-opacity:1" d="M 162.056,62.507 162.056,71.2394 z" id="boundary" inkscape:connector-curvature="0" />
	<path style="fill:none;stroke:red;stroke-width:1px;stroke-linecap:butt;stroke-linejoin:miter;stroke-opacity:1" d="M 162.056,71.2394 164.676,79.9718 z" id="boundary" inkscape:connector-curvature="0" />
	<path style="fill:none;stroke:red;stroke-width:1px;stroke-linecap:butt;stroke-linejoin:miter;stroke-opacity:1" d="M 162.056,996 170.789,996 z" id="boundary" inkscape:connector-curvature="0" />
	<path style="fill:none;stroke:red;stroke-width:1px;stroke-linecap:butt;stroke-linejoin:miter;stroke-opacity:1" d="M 164.676,79.9718 170.789,86.9577 z" id="boundary" inkscape:connector-curvature="0" />
	<path style="fill:none;stroke:red;stroke-width:1px;stroke-linecap:butt;stroke-linejoin:miter;stroke-opacity:1" d="M 170.789,86.9577 177.775,92.1972 z" id="boundary" inkscape:connector-curvature="0" />
	<path style="fill:none;stroke:red;stroke-width:1px;stroke-linecap:butt;stroke-linejoin:miter;stroke-opacity:1" d="M 170.789,996 179.521,996 z" id="boundary" inkscape:connector-curvature="0" />
	<path style="fill:none;stroke:red;stroke-width:1px;stroke-linecap:butt;stroke-linejoin:miter;stroke-opacity:1" d="M 177.775,92.1972 188.254,107.042 z" id="boundary" inkscape:connector-curvature="0" />
	<path style="fill:none;stroke:red;stroke-width:1px;stroke-linecap:butt;stroke-linejoin:miter;stroke-opacity:1" d="M 179.521,996 188.254,996 z" id="boundary" inkscape:connector-curvature="0" />
	<path style="fill:none;stroke:red;stroke-width:1px;stroke-linecap:butt;stroke-linejoin:miter;stroke-opacity:1" d="M 188.254,107.042 194.366,114.028 z" id="boundary" inkscape:connector-curvature="0" />
	<path style="fill:none;stroke:red;stroke-width:1px;stroke-linecap:butt;stroke-linejoin:miter;stroke-opacity:1" d="M 188.254,332.338 192.62,340.197 z" id="boundary" inkscape:connector-curvature="0" />
	<path style="fill:none;stroke:red;stroke-width:1px;stroke-linecap:butt;stroke-linejoin:miter;stroke-opacity:1" d="M 188.254,332.338 201.352,338.451 z" id="boundary" inkscape:connector-curvature="0" />
	<path style="fill:none;stroke:red;stroke-width:1px;stroke-linecap:butt;stroke-linejoin:miter;stroke-opacity:1" d="M 188.254,996 196.986,996 z" id="boundary" inkscape:connector-curvature="0" />
	<path style="fill:none;stroke:red;stroke-width:1px;stroke-linecap:butt;stroke-linejoin:miter;stroke-opacity:1" d="M 192.62,340.197 196.986,348.056 z" id="boundary" inkscape:connector-curvature="0" />
	<path style="fill:none;stroke:red;stroke-width:1px;stroke-linecap:butt;stroke-linejoin:miter;stroke-opacity:1" d="M 194.366,114.028 198.732,121.887 z" id="boundary" inkscape:connector-curvature="0" />
	<path style="fill:none;stroke:red;stroke-width:1px;stroke-linecap:butt;stroke-linejoin:miter;stroke-opacity:1" d="M 196.986,348.056 201.352,355.915 z" id="boundary" inkscape:connector-curvature="0" />
	<path style="fill:none;stroke:red;stroke-width:1px;stroke-linecap:butt;stroke-linejoin:miter;stroke-opacity:1" d="M 196.986,996 205.718,996 z" id="boundary" inkscape:connector-curvature="0" />
	<path style="fill:none;stroke:red;stroke-width:1px;stroke-linecap:butt;stroke-linejoin:miter;stroke-opacity:1" d="M 198.732,121.887 201.352,130.62 z" id="boundary" inkscape:connector-curvature="0" />
	<path style="fill:none;stroke:red;stroke-width:1px;stroke-linecap:butt;stroke-linejoin:miter;stroke-opacity:1" d="M 201.352,130.62 205.718,138.479 z" id="boundary" inkscape:connector-curvature="0" />
	<path style="fill:none;stroke:red;stroke-width:1px;stroke-linecap:butt;stroke-linejoin:miter;stroke-opacity:1" d="M 201.352,338.451 210.085,341.07 z" id="boundary" inkscape:connector-curvature="0" />
	<path style="fill:none;stroke:red;stroke-width:1px;stroke-linecap:butt;stroke-linejoin:miter;stroke-opacity:1" d="M 201.352,355.915 201.352,364.648 z" id="boundary" inkscape:connector-curvature="0" />
	<path style="fill:none;stroke:red;stroke-width:1px;stroke-linecap:butt;stroke-linejoin:miter;stroke-opacity:1" d="M 201.352,364.648 205.718,372.507 z" id="boundary" inkscape:connector-curvature="0" />
	<path style="fill:none;stroke:red;stroke-width:1px;stroke-linecap:butt;stroke-linejoin:miter;stroke-opacity:1" d="M 205.718,138.479 205.718,147.211 z" id="boundary" inkscape:connector-curvature="0" />
	<path style="fill:none;stroke:red;stroke-width:1px;stroke-linecap:butt;stroke-linejoin:miter;stroke-opacity:1" d="M 205.718,147.211 210.085,155.07 z" id="boundary" inkscape:connector-curvature="0" />
	<path style="fill:none;stroke:red;stroke-width:1px;stroke-linecap:butt;stroke-linejoin:miter;stroke-opacity:1" d="M 205.718,372.507 210.085,380.366 z" id="boundary" inkscape:connector-curvature="0" />
	<path style="fill:none;stroke:red;stroke-width:1px;stroke-linecap:butt;stroke-linejoin:miter;stroke-opacity:1" d="M 205.718,996 214.451,996 z" id="boundary" inkscape:connector-curvature="0" />
	<path style="fill:none;stroke:red;stroke-width:1px;stroke-linecap:butt;stroke-linejoin:miter;stroke-opacity:1" d="M 210.085,155.07 210.085,163.803 z" id="boundary" inkscape:connector-curvature="0" />
	<path style="fill:none;stroke:red;stroke-width:1px;stroke-linecap:butt;stroke-linejoin:miter;stroke-opacity:1" d="M 210.085,163.803 214.451,171.662 z" id="boundary" inkscape:connector-curvature="0" />
	<path style="fill:none;stroke:red;stroke-width:1px;stroke-linecap:butt;stroke-linejoin:miter;stroke-opacity:1" d="M 210.085,341.07 218.817,341.07 z" id="boundary" inkscape:connector-curvature="0" />
	<path style="fill:none;stroke:red;stroke-width:1px;stroke-linecap:butt;stroke-linejoin:miter;stroke-opacity:1" d="M 210.085,380.366 214.451,388.225 z" id="boundary" inkscape:connector-curvature="0" />
	<path style="fill:none;stroke:red;stroke-width:1px;stroke-linecap:butt;stroke-linejoin:miter;stroke-opacity:1" d="M 214.451,171.662 214.451,180.394 z" id="boundary" inkscape:connector-curvature="0" />
	<path style="fill:none;stroke:red;stroke-width:1px;stroke-linecap:butt;stroke-linejoin:miter;stroke-opacity:1" d="M 214.451,180.394 214.451,189.127 z" id="boundary" inkscape:connector-curvature="0" />
	<path style="fill:none;stroke:red;stroke-width:1px;stroke-linecap:butt;stroke-linejoin:miter;stroke-opacity:1" d="M 214.451,189.127 218.817,196.986 z" id="boundary" inkscape:connector-curvature="0" />
	<path style="fill:none;stroke:red;stroke-width:1px;stroke-linecap:butt;stroke-linejoin:miter;stroke-opacity:1" d="M 214.451,388.225 214.451,396.958 z" id="boundary" inkscape:connector-curvature="0" />
	<path style="fill:none;stroke:red;stroke-width:1px;stroke-linecap:butt;stroke-linejoin:miter;stroke-opacity:1" d="M 214.451,396.958 221.437,402.197 z" id="boundary" inkscape:connector-curvature="0" />
	<path style="fill:none;stroke:red;stroke-width:1px;stroke-linecap:butt;stroke-linejoin:miter;stroke-opacity:1" d="M 214.451,528.817 218.817,536.676 z" id="boundary" inkscape:connector-curvature="0" />
	<path style="fill:none;stroke:red;stroke-width:1px;stroke-linecap:butt;stroke-linejoin:miter;stroke-opacity:1" d="M 214.451,528.817 227.549,533.183 z" id="boundary" inkscape:connector-curvature="0" />
	<path style="fill:none;stroke:red;stroke-width:1px;stroke-linecap:butt;stroke-linejoin:miter;stroke-opacity:1" d="M 214.451,996 223.183,991.634 z" id="boundary" inkscape:connector-curvature="0" />
	<path style="fill:none;stroke:red;stroke-width:1px;stroke-linecap:butt;stroke-linejoin:miter;stroke-opacity:1" d="M 218.817,196.986 218.817,205.718 z" id="boundary" inkscape:connector-curvature="0" />
	<path style="fill:none;stroke:red;stroke-width:1px;stroke-linecap:butt;stroke-linejoin:miter;stroke-opacity:1" d="M 218.817,205.718 218.817,214.451 z" id="boundary" inkscape:connector-curvature="0" />
	<path style="fill:none;stroke:red;stroke-width:1px;stroke-linecap:butt;stroke-linejoin:miter;stroke-opacity:1" d="M 218.817,214.451 218.817,223.183 z" id="boundary" inkscape:connector-curvature="0" />
	<path style="fill:none;stroke:red;stroke-width:1px;stroke-linecap:butt;stroke-linejoin:miter;stroke-opacity:1" d="M 218.817,223.183 218.817,231.915 z" id="boundary" inkscape:connector-curvature="0" />
	<path style="fill:none;stroke:red;stroke-width:1px;stroke-linecap:butt;stroke-linejoin:miter;stroke-opacity:1" d="M 218.817,231.915 218.817,240.648 z" id="boundary" inkscape:connector-curvature="0" />
	<path style="fill:none;stroke:red;stroke-width:1px;stroke-linecap:butt;stroke-linejoin:miter;stroke-opacity:1" d="M 218.817,240.648 218.817,249.38 z" id="boundary" inkscape:connector-curvature="0" />
	<path style="fill:none;stroke:red;stroke-width:1px;stroke-linecap:butt;stroke-linejoin:miter;stroke-opacity:1" d="M 218.817,249.38 218.817,258.113 z" id="boundary" inkscape:connector-curvature="0" />
	<path style="fill:none;stroke:red;stroke-width:1px;stroke-linecap:butt;stroke-linejoin:miter;stroke-opacity:1" d="M 218.817,258.113 218.817,266.845 z" id="boundary" inkscape:connector-curvature="0" />
	<path style="fill:none;stroke:red;stroke-width:1px;stroke-linecap:butt;stroke-linejoin:miter;stroke-opacity:1" d="M 218.817,266.845 218.817,275.577 z" id="boundary" inkscape:connector-curvature="0" />
	<path style="fill:none;stroke:red;stroke-width:1px;stroke-linecap:butt;stroke-linejoin:miter;stroke-opacity:1" d="M 218.817,275.577 218.817,284.31 z" id="boundary" inkscape:connector-curvature="0" />
	<path style="fill:none;stroke:red;stroke-width:1px;stroke-linecap:butt;stroke-linejoin:miter;stroke-opacity:1" d="M 218.817,284.31 218.817,293.042 z" id="boundary" inkscape:connector-curvature="0" />
	<path style="fill:none;stroke:red;stroke-width:1px;stroke-linecap:butt;stroke-linejoin:miter;stroke-opacity:1" d="M 218.817,293.042 218.817,301.775 z" id="boundary" inkscape:connector-curvature="0" />
	<path style="fill:none;stroke:red;stroke-width:1px;stroke-linecap:butt;stroke-linejoin:miter;stroke-opacity:1" d="M 218.817,301.775 220.563,310.507 z" id="boundary" inkscape:connector-curvature="0" />
	<path style="fill:none;stroke:red;stroke-width:1px;stroke-linecap:butt;stroke-linejoin:miter;stroke-opacity:1" d="M 218.817,341.07 227.549,336.704 z" id="boundary" inkscape:connector-curvature="0" />
	<path style="fill:none;stroke:red;stroke-width:1px;stroke-linecap:butt;stroke-linejoin:miter;stroke-opacity:1" d="M 218.817,536.676 218.817,545.408 z" id="boundary" inkscape:connector-curvature="0" />
	<path style="fill:none;stroke:red;stroke-width:1px;stroke-linecap:butt;stroke-linejoin:miter;stroke-opacity:1" d="M 218.817,545.408 223.183,553.268 z" id="boundary" inkscape:connector-curvature="0" />
	<path style="fill:none;stroke:red;stroke-width:1px;stroke-linecap:butt;stroke-linejoin:miter;stroke-opacity:1" d="M 220.563,310.507 224.93,318.366 z" id="boundary" inkscape:connector-curvature="0" />
	<path style="fill:none;stroke:red;stroke-width:1px;stroke-linecap:butt;stroke-linejoin:miter;stroke-opacity:1" d="M 221.437,402.197 227.549,409.183 z" id="boundary" inkscape:connector-curvature="0" />
	<path style="fill:none;stroke:red;stroke-width:1px;stroke-linecap:butt;stroke-linejoin:miter;stroke-opacity:1" d="M 223.183,553.268 223.183,562 z" id="boundary" inkscape:connector-curvature="0" />
	<path style="fill:none;stroke:red;stroke-width:1px;stroke-linecap:butt;stroke-linejoin:miter;stroke-opacity:1" d="M 223.183,562 227.549,569.859 z" id="boundary" inkscape:connector-curvature="0" />
	<path style="fill:none;stroke:red;stroke-width:1px;stroke-linecap:butt;stroke-linejoin:miter;stroke-opacity:1" d="M 223.183,991.634 231.915,991.634 z" id="boundary" inkscape:connector-curvature="0" />
	<path style="fill:none;stroke:red;stroke-width:1px;stroke-linecap:butt;stroke-linejoin:miter;stroke-opacity:1" d="M 224.93,318.366 231.042,325.352 z" id="boundary" inkscape:connector-curvature="0" />
	<path style="fill:none;stroke:red;stroke-width:1px;stroke-linecap:butt;stroke-linejoin:miter;stroke-opacity:1" d="M 227.549,336.704 231.042,325.352 z" id="boundary" inkscape:connector-curvature="0" />
	<path style="fill:none;stroke:red;stroke-width:1px;stroke-linecap:butt;stroke-linejoin:miter;stroke-opacity:1" d="M 227.549,409.183 231.915,417.042 z" id="boundary" inkscape:connector-curvature="0" />
	<path style="fill:none;stroke:red;stroke-width:1px;stroke-linecap:butt;stroke-linejoin:miter;stroke-opacity:1" d="M 227.549,533.183 235.408,537.549 z" id="boundary" inkscape:connector-curvature="0" />
	<path style="fill:none;stroke:red;stroke-width:1px;stroke-linecap:butt;stroke-linejoin:miter;stroke-opacity:1" d="M 227.549,569.859 231.915,577.718 z" id="boundary" inkscape:connector-curvature="0" />
	<path style="fill:none;stroke:red;stroke-width:1px;stroke-linecap:butt;stroke-linejoin:miter;stroke-opacity:1" d="M 231.915,417.042 236.282,424.901 z" id="boundary" inkscape:connector-curvature="0" />
	<path style="fill:none;stroke:red;stroke-width:1px;stroke-linecap:butt;stroke-linejoin:miter;stroke-opacity:1" d="M 231.915,577.718 231.915,586.451 z" id="boundary" inkscape:connector-curvature="0" />
	<path style="fill:none;stroke:red;stroke-width:1px;stroke-linecap:butt;stroke-linejoin:miter;stroke-opacity:1" d="M 231.915,586.451 234.535,595.183 z" id="boundary" inkscape:connector-curvature="0" />
	<path style="fill:none;stroke:red;stroke-width:1px;stroke-linecap:butt;stroke-linejoin:miter;stroke-opacity:1" d="M 231.915,795.155 240.648,795.155 z" id="boundary" inkscape:connector-curvature="0" />
	<path style="fill:none;stroke:red;stroke-width:1px;stroke-linecap:butt;stroke-linejoin:miter;stroke-opacity:1" d="M 231.915,991.634 240.648,991.634 z" id="boundary" inkscape:connector-curvature="0" />
	<path style="fill:none;stroke:red;stroke-width:1px;stroke-linecap:butt;stroke-linejoin:miter;stroke-opacity:1" d="M 234.535,595.183 236.282,603.915 z" id="boundary" inkscape:connector-curvature="0" />
	<path style="fill:none;stroke:red;stroke-width:1px;stroke-linecap:butt;stroke-linejoin:miter;stroke-opacity:1" d="M 235.408,537.549 243.268,541.915 z" id="boundary" inkscape:connector-curvature="0" />
	<path style="fill:none;stroke:red;stroke-width:1px;stroke-linecap:butt;stroke-linejoin:miter;stroke-opacity:1" d="M 236.282,424.901 236.282,433.634 z" id="boundary" inkscape:connector-curvature="0" />
	<path style="fill:none;stroke:red;stroke-width:1px;stroke-linecap:butt;stroke-linejoin:miter;stroke-opacity:1" d="M 236.282,433.634 238.901,442.366 z" id="boundary" inkscape:connector-curvature="0" />
	<path style="fill:none;stroke:red;stroke-width:1px;stroke-linecap:butt;stroke-linejoin:miter;stroke-opacity:1" d="M 236.282,603.915 240.648,611.775 z" id="boundary" inkscape:connector-curvature="0" />
	<path style="fill:none;stroke:red;stroke-width:1px;stroke-linecap:butt;stroke-linejoin:miter;stroke-opacity:1" d="M 236.282,803.014 240.648,795.155 z" id="boundary" inkscape:connector-curvature="0" />
	<path style="fill:none;stroke:red;stroke-width:1px;stroke-linecap:butt;stroke-linejoin:miter;stroke-opacity:1" d="M 236.282,803.014 240.648,810.873 z" id="boundary" inkscape:connector-curvature="0" />
	<path style="fill:none;stroke:red;stroke-width:1px;stroke-linecap:butt;stroke-linejoin:miter;stroke-opacity:1" d="M 238.901,442.366 243.268,450.225 z" id="boundary" inkscape:connector-curvature="0" />
	<path style="fill:none;stroke:red;stroke-width:1px;stroke-linecap:butt;stroke-linejoin:miter;stroke-opacity:1" d="M 240.648,611.775 245.014,619.634 z" id="boundary" inkscape:connector-curvature="0" />
	<path style="fill:none;stroke:red;stroke-width:1px;stroke-linecap:butt;stroke-linejoin:miter;stroke-opacity:1" d="M 240.648,810.873 245.014,818.732 z" id="boundary" inkscape:connector-curvature="0" />
	<path style="fill:none;stroke:red;stroke-width:1px;stroke-linecap:butt;stroke-linejoin:miter;stroke-opacity:1" d="M 240.648,991.634 249.38,987.268 z" id="boundary" inkscape:connector-curvature="0" />
	<path style="fill:none;stroke:red;stroke-width:1px;stroke-linecap:butt;stroke-linejoin:miter;stroke-opacity:1" d="M 243.268,450.225 246.761,458.958 z" id="boundary" inkscape:connector-curvature="0" />
	<path style="fill:none;stroke:red;stroke-width:1px;stroke-linecap:butt;stroke-linejoin:miter;stroke-opacity:1" d="M 243.268,541.915 251.127,546.282 z" id="boundary" inkscape:connector-curvature="0" />
	<path style="fill:none;stroke:red;stroke-width:1px;stroke-linecap:butt;stroke-linejoin:miter;stroke-opacity:1" d="M 245.014,619.634 245.014,628.366 z" id="boundary" inkscape:connector-curvature="0" />
	<path style="fill:none;stroke:red;stroke-width:1px;stroke-linecap:butt;stroke-linejoin:miter;stroke-opacity:1" d="M 245.014,628.366 249.38,636.225 z" id="boundary" inkscape:connector-curvature="0" />
	<path style="fill:none;stroke:red;stroke-width:1px;stroke-linecap:butt;stroke-linejoin:miter;stroke-opacity:1" d="M 245.014,818.732 248.507,827.465 z" id="boundary" inkscape:connector-curvature="0" />
	<path style="fill:none;stroke:red;stroke-width:1px;stroke-linecap:butt;stroke-linejoin:miter;stroke-opacity:1" d="M 246.761,458.958 249.38,467.69 z" id="boundary" inkscape:connector-curvature="0" />
	<path style="fill:none;stroke:red;stroke-width:1px;stroke-linecap:butt;stroke-linejoin:miter;stroke-opacity:1" d="M 248.507,827.465 252.873,835.324 z" id="boundary" inkscape:connector-curvature="0" />
	<path style="fill:none;stroke:red;stroke-width:1px;stroke-linecap:butt;stroke-linejoin:miter;stroke-opacity:1" d="M 249.38,467.69 251.127,476.423 z" id="boundary" inkscape:connector-curvature="0" />
	<path style="fill:none;stroke:red;stroke-width:1px;stroke-linecap:butt;stroke-linejoin:miter;stroke-opacity:1" d="M 249.38,636.225 253.746,644.085 z" id="boundary" inkscape:connector-curvature="0" />
	<path style="fill:none;stroke:red;stroke-width:1px;stroke-linecap:butt;stroke-linejoin:miter;stroke-opacity:1" d="M 249.38,795.155 258.113,795.155 z" id="boundary" inkscape:connector-curvature="0" />
	<path style="fill:none;stroke:red;stroke-width:1px;stroke-linecap:butt;stroke-linejoin:miter;stroke-opacity:1" d="M 249.38,987.268 258.113,982.901 z" id="boundary" inkscape:connector-curvature="0" />
	<path style="fill:none;stroke:red;stroke-width:1px;stroke-linecap:butt;stroke-linejoin:miter;stroke-opacity:1" d="M 251.127,476.423 253.746,485.155 z" id="boundary" inkscape:connector-curvature="0" />
	<path style="fill:none;stroke:red;stroke-width:1px;stroke-linecap:butt;stroke-linejoin:miter;stroke-opacity:1" d="M 251.127,546.282 259.859,549.775 z" id="boundary" inkscape:connector-curvature="0" />
	<path style="fill:none;stroke:red;stroke-width:1px;stroke-linecap:butt;stroke-linejoin:miter;stroke-opacity:1" d="M 252.873,835.324 253.746,844.056 z" id="boundary" inkscape:connector-curvature="0" />
	<path style="fill:none;stroke:red;stroke-width:1px;stroke-linecap:butt;stroke-linejoin:miter;stroke-opacity:1" d="M 253.746,485.155 258.113,493.014 z" id="boundary" inkscape:connector-curvature="0" />
	<path style="fill:none;stroke:red;stroke-width:1px;stroke-linecap:butt;stroke-linejoin:miter;stroke-opacity:1" d="M 253.746,644.085 253.746,652.817 z" id="boundary" inkscape:connector-curvature="0" />
	<path style="fill:none;stroke:red;stroke-width:1px;stroke-linecap:butt;stroke-linejoin:miter;stroke-opacity:1" d="M 253.746,652.817 258.113,660.676 z" id="boundary" inkscape:connector-curvature="0" />
	<path style="fill:none;stroke:red;stroke-width:1px;stroke-linecap:butt;stroke-linejoin:miter;stroke-opacity:1" d="M 253.746,844.056 253.746,852.789 z" id="boundary" inkscape:connector-curvature="0" />
	<path style="fill:none;stroke:red;stroke-width:1px;stroke-linecap:butt;stroke-linejoin:miter;stroke-opacity:1" d="M 253.746,852.789 253.746,861.521 z" id="boundary" inkscape:connector-curvature="0" />
	<path style="fill:none;stroke:red;stroke-width:1px;stroke-linecap:butt;stroke-linejoin:miter;stroke-opacity:1" d="M 253.746,861.521 253.746,870.254 z" id="boundary" inkscape:connector-curvature="0" />
	<path style="fill:none;stroke:red;stroke-width:1px;stroke-linecap:butt;stroke-linejoin:miter;stroke-opacity:1" d="M 253.746,870.254 253.746,878.986 z" id="boundary" inkscape:connector-curvature="0" />
	<path style="fill:none;stroke:red;stroke-width:1px;stroke-linecap:butt;stroke-linejoin:miter;stroke-opacity:1" d="M 253.746,878.986 253.746,887.718 z" id="boundary" inkscape:connector-curvature="0" />
	<path style="fill:none;stroke:red;stroke-width:1px;stroke-linecap:butt;stroke-linejoin:miter;stroke-opacity:1" d="M 253.746,887.718 253.746,896.451 z" id="boundary" inkscape:connector-curvature="0" />
	<path style="fill:none;stroke:red;stroke-width:1px;stroke-linecap:butt;stroke-linejoin:miter;stroke-opacity:1" d="M 253.746,896.451 253.746,905.183 z" id="boundary" inkscape:connector-curvature="0" />
	<path style="fill:none;stroke:red;stroke-width:1px;stroke-linecap:butt;stroke-linejoin:miter;stroke-opacity:1" d="M 253.746,905.183 253.746,913.915 z" id="boundary" inkscape:connector-curvature="0" />
	<path style="fill:none;stroke:red;stroke-width:1px;stroke-linecap:butt;stroke-linejoin:miter;stroke-opacity:1" d="M 253.746,913.915 253.746,922.648 z" id="boundary" inkscape:connector-curvature="0" />
	<path style="fill:none;stroke:red;stroke-width:1px;stroke-linecap:butt;stroke-linejoin:miter;stroke-opacity:1" d="M 253.746,922.648 253.746,931.38 z" id="boundary" inkscape:connector-curvature="0" />
	<path style="fill:none;stroke:red;stroke-width:1px;stroke-linecap:butt;stroke-linejoin:miter;stroke-opacity:1" d="M 253.746,931.38 258.113,939.239 z" id="boundary" inkscape:connector-curvature="0" />
	<path style="fill:none;stroke:red;stroke-width:1px;stroke-linecap:butt;stroke-linejoin:miter;stroke-opacity:1" d="M 258.113,493.014 262.479,500.873 z" id="boundary" inkscape:connector-curvature="0" />
	<path style="fill:none;stroke:red;stroke-width:1px;stroke-linecap:butt;stroke-linejoin:miter;stroke-opacity:1" d="M 258.113,660.676 260.732,669.408 z" id="boundary" inkscape:connector-curvature="0" />
	<path style="fill:none;stroke:red;stroke-width:1px;stroke-linecap:butt;stroke-linejoin:miter;stroke-opacity:1" d="M 258.113,795.155 266.845,795.155 z" id="boundary" inkscape:connector-curvature="0" />
	<path style="fill:none;stroke:red;stroke-width:1px;stroke-linecap:butt;stroke-linejoin:miter;stroke-opacity:1" d="M 258.113,939.239 258.113,947.972 z" id="boundary" inkscape:connector-curvature="0" />
	<path style="fill:none;stroke:red;stroke-width:1px;stroke-linecap:butt;stroke-linejoin:miter;stroke-opacity:1" d="M 258.113,947.972 259.859,956.704 z" id="boundary" inkscape:connector-curvature="0" />
	<path style="fill:none;stroke:red;stroke-width:1px;stroke-linecap:butt;stroke-linejoin:miter;stroke-opacity:1" d="M 258.113,982.901 262.479,974.169 z" id="boundary" inkscape:connector-curvature="0" />
	<path style="fill:none;stroke:red;stroke-width:1px;stroke-linecap:butt;stroke-linejoin:miter;stroke-opacity:1" d="M 259.859,549.775 268.592,550.648 z" id="boundary" inkscape:connector-curvature="0" />
	<path style="fill:none;stroke:red;stroke-width:1px;stroke-linecap:butt;stroke-linejoin:miter;stroke-opacity:1" d="M 259.859,956.704 262.479,965.437 z" id="boundary" inkscape:connector-curvature="0" />
	<path style="fill:none;stroke:red;stroke-width:1px;stroke-linecap:butt;stroke-linejoin:miter;stroke-opacity:1" d="M 260.732,669.408 265.099,677.268 z" id="boundary" inkscape:connector-curvature="0" />
	<path style="fill:none;stroke:red;stroke-width:1px;stroke-linecap:butt;stroke-linejoin:miter;stroke-opacity:1" d="M 262.479,500.873 262.479,509.606 z" id="boundary" inkscape:connector-curvature="0" />
	<path style="fill:none;stroke:red;stroke-width:1px;stroke-linecap:butt;stroke-linejoin:miter;stroke-opacity:1" d="M 262.479,509.606 266.845,517.465 z" id="boundary" inkscape:connector-curvature="0" />
	<path style="fill:none;stroke:red;stroke-width:1px;stroke-linecap:butt;stroke-linejoin:miter;stroke-opacity:1" d="M 262.479,965.437 262.479,974.169 z" id="boundary" inkscape:connector-curvature="0" />
	<path style="fill:none;stroke:red;stroke-width:1px;stroke-linecap:butt;stroke-linejoin:miter;stroke-opacity:1" d="M 265.099,677.268 271.211,684.254 z" id="boundary" inkscape:connector-curvature="0" />
	<path style="fill:none;stroke:red;stroke-width:1px;stroke-linecap:butt;stroke-linejoin:miter;stroke-opacity:1" d="M 266.845,517.465 271.211,525.324 z" id="boundary" inkscape:connector-curvature="0" />
	<path style="fill:none;stroke:red;stroke-width:1px;stroke-linecap:butt;stroke-linejoin:miter;stroke-opacity:1" d="M 266.845,795.155 275.577,795.155 z" id="boundary" inkscape:connector-curvature="0" />
	<path style="fill:none;stroke:red;stroke-width:1px;stroke-linecap:butt;stroke-linejoin:miter;stroke-opacity:1" d="M 268.592,550.648 276.451,546.282 z" id="boundary" inkscape:connector-curvature="0" />
	<path style="fill:none;stroke:red;stroke-width:1px;stroke-linecap:butt;stroke-linejoin:miter;stroke-opacity:1" d="M 271.211,525.324 276.451,532.31 z" id="boundary" inkscape:connector-curvature="0" />
	<path style="fill:none;stroke:red;stroke-width:1px;stroke-linecap:butt;stroke-linejoin:miter;stroke-opacity:1" d="M 271.211,684.254 275.577,692.113 z" id="boundary" inkscape:connector-curvature="0" />
	<path style="fill:none;stroke:red;stroke-width:1px;stroke-linecap:butt;stroke-linejoin:miter;stroke-opacity:1" d="M 275.577,692.113 279.07,700.845 z" id="boundary" inkscape:connector-curvature="0" />
	<path style="fill:none;stroke:red;stroke-width:1px;stroke-linecap:butt;stroke-linejoin:miter;stroke-opacity:1" d="M 275.577,795.155 284.31,795.155 z" id="boundary" inkscape:connector-curvature="0" />
	<path style="fill:none;stroke:red;stroke-width:1px;stroke-linecap:butt;stroke-linejoin:miter;stroke-opacity:1" d="M 276.451,532.31 276.451,546.282 z" id="boundary" inkscape:connector-curvature="0" />
	<path style="fill:none;stroke:red;stroke-width:1px;stroke-linecap:butt;stroke-linejoin:miter;stroke-opacity:1" d="M 279.07,700.845 283.437,708.704 z" id="boundary" inkscape:connector-curvature="0" />
	<path style="fill:none;stroke:red;stroke-width:1px;stroke-linecap:butt;stroke-linejoin:miter;stroke-opacity:1" d="M 283.437,708.704 288.676,715.69 z" id="boundary" inkscape:connector-curvature="0" />
	<path style="fill:none;stroke:red;stroke-width:1px;stroke-linecap:butt;stroke-linejoin:miter;stroke-opacity:1" d="M 284.31,795.155 293.042,795.155 z" id="boundary" inkscape:connector-curvature="0" />
	<path style="fill:none;stroke:red;stroke-width:1px;stroke-linecap:butt;stroke-linejoin:miter;stroke-opacity:1" d="M 288.676,715.69 288.676,724.423 z" id="boundary" inkscape:connector-curvature="0" />
	<path style="fill:none;stroke:red;stroke-width:1px;stroke-linecap:butt;stroke-linejoin:miter;stroke-opacity:1" d="M 288.676,724.423 293.042,732.282 z" id="boundary" inkscape:connector-curvature="0" />
	<path style="fill:none;stroke:red;stroke-width:1px;stroke-linecap:butt;stroke-linejoin:miter;stroke-opacity:1" d="M 293.042,732.282 297.408,740.141 z" id="boundary" inkscape:connector-curvature="0" />
	<path style="fill:none;stroke:red;stroke-width:1px;stroke-linecap:butt;stroke-linejoin:miter;stroke-opacity:1" d="M 293.042,795.155 301.775,795.155 z" id="boundary" inkscape:connector-curvature="0" />
	<path style="fill:none;stroke:red;stroke-width:1px;stroke-linecap:butt;stroke-linejoin:miter;stroke-opacity:1" d="M 297.408,740.141 301.775,748 z" id="boundary" inkscape:connector-curvature="0" />
	<path style="fill:none;stroke:red;stroke-width:1px;stroke-linecap:butt;stroke-linejoin:miter;stroke-opacity:1" d="M 301.775,748 306.141,755.859 z" id="boundary" inkscape:connector-curvature="0" />
	<path style="fill:none;stroke:red;stroke-width:1px;stroke-linecap:butt;stroke-linejoin:miter;stroke-opacity:1" d="M 301.775,795.155 310.507,790.789 z" id="boundary" inkscape:connector-curvature="0" />
	<path style="fill:none;stroke:red;stroke-width:1px;stroke-linecap:butt;stroke-linejoin:miter;stroke-opacity:1" d="M 306.141,755.859 310.507,763.718 z" id="boundary" inkscape:connector-curvature="0" />
	<path style="fill:none;stroke:red;stroke-width:1px;stroke-linecap:butt;stroke-linejoin:miter;stroke-opacity:1" d="M 310.507,763.718 317.493,768.958 z" id="boundary" inkscape:connector-curvature="0" />
	<path style="fill:none;stroke:red;stroke-width:1px;stroke-linecap:butt;stroke-linejoin:miter;stroke-opacity:1" d="M 310.507,790.789 319.239,786.423 z" id="boundary" inkscape:connector-curvature="0" />
	<path style="fill:none;stroke:red;stroke-width:1px;stroke-linecap:butt;stroke-linejoin:miter;stroke-opacity:1" d="M 317.493,768.958 323.606,775.944 z" id="boundary" inkscape:connector-curvature="0" />
	<path style="fill:none;stroke:red;stroke-width:1px;stroke-linecap:butt;stroke-linejoin:miter;stroke-opacity:1" d="M 319.239,786.423 323.606,775.944 z" id="boundary" inkscape:connector-curvature="0" />
	<circle cx="4" cy="508.732" r="4" fill="#0" id="circle0"/>
	<circle cx="4" cy="517.465" r="4" fill="#0" id="circle1"/>
	<circle cx="4" cy="526.197" r="4" fill="#0" id="circle2"/>
	<circle cx="4" cy="534.93" r="4" fill="#0" id="circle3"/>
	<circle cx="4" cy="543.662" r="4" fill="#0" id="circle4"/>
	<circle cx="4" cy="552.394" r="4" fill="#0" id="circle5"/>
	<circle cx="8.3662" cy="473.803" r="4" fill="#0" id="circle6"/>
	<circle cx="8.3662" cy="482.535" r="4" fill="#0" id="circle7"/>
	<circle cx="8.3662" cy="491.268" r="4" fill="#0" id="circle8"/>
	<circle cx="8.3662" cy="500" r="4" fill="#0" id="circle9"/>
	<circle cx="8.3662" cy="560.254" r="4" fill="#0" id="circle10"/>
	<circle cx="12.7324" cy="329.718" r="4" fill="#0" id="circle11"/>
	<circle cx="12.7324" cy="338.451" r="4" fill="#0" id="circle12"/>
	<circle cx="12.7324" cy="460.704" r="4" fill="#0" id="circle13"/>
	<circle cx="12.7324" cy="761.972" r="4" fill="#0" id="circle14"/>
	<circle cx="12.7324" cy="770.704" r="4" fill="#0" id="circle15"/>
	<circle cx="12.7324" cy="779.437" r="4" fill="#0" id="circle16"/>
	<circle cx="12.7324" cy="788.169" r="4" fill="#0" id="circle17"/>
	<circle cx="12.7324" cy="796.901" r="4" fill="#0" id="circle18"/>
	<circle cx="17.0986" cy="451.972" r="4" fill="#0" id="circle19"/>
	<circle cx="17.0986" cy="563.746" r="4" fill="#0" id="circle20"/>
	<circle cx="17.0986" cy="744.507" r="4" fill="#0" id="circle21"/>
	<circle cx="17.0986" cy="753.239" r="4" fill="#0" id="circle22"/>
	<circle cx="19.7183" cy="322.732" r="4" fill="#0" id="circle23"/>
	<circle cx="19.7183" cy="344.563" r="4" fill="#0" id="circle24"/>
	<circle cx="19.7183" cy="803.014" r="4" fill="#0" id="circle25"/>
	<circle cx="21.4648" cy="312.254" r="4" fill="#0" id="circle26"/>
	<circle cx="21.4648" cy="443.239" r="4" fill="#0" id="circle27"/>
	<circle cx="21.4648" cy="709.577" r="4" fill="#0" id="circle28"/>
	<circle cx="21.4648" cy="718.31" r="4" fill="#0" id="circle29"/>
	<circle cx="21.4648" cy="727.042" r="4" fill="#0" id="circle30"/>
	<circle cx="21.4648" cy="735.775" r="4" fill="#0" id="circle31"/>
	<circle cx="24.0845" cy="558.507" r="4" fill="#0" id="circle32"/>
	<circle cx="25.831" cy="303.521" r="4" fill="#0" id="circle33"/>
	<circle cx="25.831" cy="430.141" r="4" fill="#0" id="circle34"/>
	<circle cx="25.831" cy="692.113" r="4" fill="#0" id="circle35"/>
	<circle cx="25.831" cy="700.845" r="4" fill="#0" id="circle36"/>
	<circle cx="26.7042" cy="515.718" r="4" fill="#0" id="circle37"/>
	<circle cx="28.4507" cy="344.563" r="4" fill="#0" id="circle38"/>
	<circle cx="28.4507" cy="803.014" r="4" fill="#0" id="circle39"/>
	<circle cx="30.1972" cy="294.789" r="4" fill="#0" id="circle40"/>
	<circle cx="30.1972" cy="665.915" r="4" fill="#0" id="circle41"/>
	<circle cx="30.1972" cy="674.648" r="4" fill="#0" id="circle42"/>
	<circle cx="30.1972" cy="683.38" r="4" fill="#0" id="circle43"/>
	<circle cx="31.0704" cy="550.648" r="4" fill="#0" id="circle44"/>
	<circle cx="32.8169" cy="423.155" r="4" fill="#0" id="circle45"/>
	<circle cx="34.5634" cy="286.056" r="4" fill="#0" id="circle46"/>
	<circle cx="34.5634" cy="648.451" r="4" fill="#0" id="circle47"/>
	<circle cx="34.5634" cy="657.183" r="4" fill="#0" id="circle48"/>
	<circle cx="35.4366" cy="336.704" r="4" fill="#0" id="circle49"/>
	<circle cx="35.4366" cy="795.155" r="4" fill="#0" id="circle50"/>
	<circle cx="37.1831" cy="414.423" r="4" fill="#0" id="circle51"/>
	<circle cx="38.0563" cy="544.535" r="4" fill="#0" id="circle52"/>
	<circle cx="38.9296" cy="277.324" r="4" fill="#0" id="circle53"/>
	<circle cx="38.9296" cy="626.62" r="4" fill="#0" id="circle54"/>
	<circle cx="38.9296" cy="635.352" r="4" fill="#0" id="circle55"/>
	<circle cx="41.5493" cy="405.69" r="4" fill="#0" id="circle56"/>
	<circle cx="43.2958" cy="268.592" r="4" fill="#0" id="circle57"/>
	<circle cx="43.2958" cy="613.521" r="4" fill="#0" id="circle58"/>
	<circle cx="44.169" cy="332.338" r="4" fill="#0" id="circle59"/>
	<circle cx="44.169" cy="537.549" r="4" fill="#0" id="circle60"/>
	<circle cx="44.169" cy="795.155" r="4" fill="#0" id="circle61"/>
	<circle cx="45.9155" cy="396.958" r="4" fill="#0" id="circle62"/>
	<circle cx="47.662" cy="255.493" r="4" fill="#0" id="circle63"/>
	<circle cx="47.662" cy="596.056" r="4" fill="#0" id="circle64"/>
	<circle cx="47.662" cy="604.789" r="4" fill="#0" id="circle65"/>
	<circle cx="51.1549" cy="531.437" r="4" fill="#0" id="circle66"/>
	<circle cx="52.0282" cy="246.761" r="4" fill="#0" id="circle67"/>
	<circle cx="52.0282" cy="382.113" r="4" fill="#0" id="circle68"/>
	<circle cx="52.0282" cy="574.225" r="4" fill="#0" id="circle69"/>
	<circle cx="52.0282" cy="582.958" r="4" fill="#0" id="circle70"/>
	<circle cx="52.0282" cy="790.789" r="4" fill="#0" id="circle71"/>
	<circle cx="52.9014" cy="327.972" r="4" fill="#0" id="circle72"/>
	<circle cx="56.3944" cy="229.296" r="4" fill="#0" id="circle73"/>
	<circle cx="56.3944" cy="238.028" r="4" fill="#0" id="circle74"/>
	<circle cx="56.3944" cy="373.38" r="4" fill="#0" id="circle75"/>
	<circle cx="56.3944" cy="556.761" r="4" fill="#0" id="circle76"/>
	<circle cx="56.3944" cy="565.493" r="4" fill="#0" id="circle77"/>
	<circle cx="57.2676" cy="524.451" r="4" fill="#0" id="circle78"/>
	<circle cx="60.7606" cy="211.831" r="4" fill="#0" id="circle79"/>
	<circle cx="60.7606" cy="220.563" r="4" fill="#0" id="circle80"/>
	<circle cx="60.7606" cy="548.028" r="4" fill="#0" id="circle81"/>
	<circle cx="60.7606" cy="790.789" r="4" fill="#0" id="circle82"/>
	<circle cx="61.6338" cy="323.606" r="4" fill="#0" id="circle83"/>
	<circle cx="61.6338" cy="515.718" r="4" fill="#0" id="circle84"/>
	<circle cx="63.3803" cy="366.394" r="4" fill="#0" id="circle85"/>
	<circle cx="65.1268" cy="203.099" r="4" fill="#0" id="circle86"/>
	<circle cx="65.1268" cy="528.817" r="4" fill="#0" id="circle87"/>
	<circle cx="65.1268" cy="537.549" r="4" fill="#0" id="circle88"/>
	<circle cx="67.7465" cy="357.662" r="4" fill="#0" id="circle89"/>
	<circle cx="68.6197" cy="317.493" r="4" fill="#0" id="circle90"/>
	<circle cx="69.493" cy="181.268" r="4" fill="#0" id="circle91"/>
	<circle cx="69.493" cy="190" r="4" fill="#0" id="circle92"/>
	<circle cx="69.493" cy="342.817" r="4" fill="#0" id="circle93"/>
	<circle cx="69.493" cy="511.352" r="4" fill="#0" id="circle94"/>
	<circle cx="69.493" cy="790.789" r="4" fill="#0" id="circle95"/>
	<circle cx="73.8592" cy="159.437" r="4" fill="#0" id="circle96"/>
	<circle cx="73.8592" cy="168.169" r="4" fill="#0" id="circle97"/>
	<circle cx="73.8592" cy="329.718" r="4" fill="#0" id="circle98"/>
	<circle cx="77.3521" cy="314.873" r="4" fill="#0" id="circle99"/>
	<circle cx="77.3521" cy="786.423" r="4" fill="#0" id="circle100"/>
	<circle cx="78.2254" cy="141.972" r="4" fill="#0" id="circle101"/>
	<circle cx="78.2254" cy="150.704" r="4" fill="#0" id="circle102"/>
	<circle cx="82.5915" cy="120.141" r="4" fill="#0" id="circle103"/>
	<circle cx="82.5915" cy="128.873" r="4" fill="#0" id="circle104"/>
	<circle cx="86.0845" cy="786.423" r="4" fill="#0" id="circle105"/>
	<circle cx="86.9577" cy="107.042" r="4" fill="#0" id="circle106"/>
	<circle cx="91.3239" cy="93.9437" r="4" fill="#0" id="circle107"/>
	<circle cx="94.8169" cy="786.423" r="4" fill="#0" id="circle108"/>
	<circle cx="95.6901" cy="85.2113" r="4" fill="#0" id="circle109"/>
	<circle cx="100.056" cy="76.4789" r="4" fill="#0" id="circle110"/>
	<circle cx="103.549" cy="786.423" r="4" fill="#0" id="circle111"/>
	<circle cx="104.423" cy="59.0141" r="4" fill="#0" id="circle112"/>
	<circle cx="104.423" cy="67.7465" r="4" fill="#0" id="circle113"/>
	<circle cx="108.789" cy="45.9155" r="4" fill="#0" id="circle114"/>
	<circle cx="112.282" cy="786.423" r="4" fill="#0" id="circle115"/>
	<circle cx="115.775" cy="38.9296" r="4" fill="#0" id="circle116"/>
	<circle cx="117.521" cy="793.408" r="4" fill="#0" id="circle117"/>
	<circle cx="121.887" cy="801.268" r="4" fill="#0" id="circle118"/>
	<circle cx="121.887" cy="810" r="4" fill="#0" id="circle119"/>
	<circle cx="121.887" cy="818.732" r="4" fill="#0" id="circle120"/>
	<circle cx="121.887" cy="827.465" r="4" fill="#0" id="circle121"/>
	<circle cx="121.887" cy="836.197" r="4" fill="#0" id="circle122"/>
	<circle cx="122.761" cy="31.9437" r="4" fill="#0" id="circle123"/>
	<circle cx="126.254" cy="844.056" r="4" fill="#0" id="circle124"/>
	<circle cx="126.254" cy="852.789" r="4" fill="#0" id="circle125"/>
	<circle cx="126.254" cy="861.521" r="4" fill="#0" id="circle126"/>
	<circle cx="126.254" cy="870.254" r="4" fill="#0" id="circle127"/>
	<circle cx="126.254" cy="878.986" r="4" fill="#0" id="circle128"/>
	<circle cx="129.746" cy="25.831" r="4" fill="#0" id="circle129"/>
	<circle cx="130.62" cy="10.9859" r="4" fill="#0" id="circle130"/>
	<circle cx="130.62" cy="886.845" r="4" fill="#0" id="circle131"/>
	<circle cx="130.62" cy="895.577" r="4" fill="#0" id="circle132"/>
	<circle cx="130.62" cy="904.31" r="4" fill="#0" id="circle133"/>
	<circle cx="130.62" cy="913.042" r="4" fill="#0" id="circle134"/>
	<circle cx="134.986" cy="920.901" r="4" fill="#0" id="circle135"/>
	<circle cx="136.732" cy="929.634" r="4" fill="#0" id="circle136"/>
	<circle cx="137.606" cy="4" r="4" fill="#0" id="circle137"/>
	<circle cx="139.352" cy="938.366" r="4" fill="#0" id="circle138"/>
	<circle cx="139.352" cy="947.099" r="4" fill="#0" id="circle139"/>
	<circle cx="139.352" cy="955.831" r="4" fill="#0" id="circle140"/>
	<circle cx="139.352" cy="964.563" r="4" fill="#0" id="circle141"/>
	<circle cx="139.352" cy="973.296" r="4" fill="#0" id="circle142"/>
	<circle cx="141.099" cy="982.028" r="4" fill="#0" id="circle143"/>
	<circle cx="146.338" cy="4" r="4" fill="#0" id="circle144"/>
	<circle cx="148.085" cy="987.268" r="4" fill="#0" id="circle145"/>
	<circle cx="152.451" cy="10.9859" r="4" fill="#0" id="circle146"/>
	<circle cx="153.324" cy="19.7183" r="4" fill="#0" id="circle147"/>
	<circle cx="153.324" cy="28.4507" r="4" fill="#0" id="circle148"/>
	<circle cx="153.324" cy="994.254" r="4" fill="#0" id="circle149"/>
	<circle cx="156.817" cy="37.1831" r="4" fill="#0" id="circle150"/>
	<circle cx="157.69" cy="45.9155" r="4" fill="#0" id="circle151"/>
	<circle cx="157.69" cy="54.6479" r="4" fill="#0" id="circle152"/>
	<circle cx="162.056" cy="62.507" r="4" fill="#0" id="circle153"/>
	<circle cx="162.056" cy="71.2394" r="4" fill="#0" id="circle154"/>
	<circle cx="162.056" cy="996" r="4" fill="#0" id="circle155"/>
	<circle cx="164.676" cy="79.9718" r="4" fill="#0" id="circle156"/>
	<circle cx="170.789" cy="86.9577" r="4" fill="#0" id="circle157"/>
	<circle cx="170.789" cy="996" r="4" fill="#0" id="circle158"/>
	<circle cx="177.775" cy="92.1972" r="4" fill="#0" id="circle159"/>
	<circle cx="179.521" cy="996" r="4" fill="#0" id="circle160"/>
	<circle cx="183.887" cy="99.1831" r="4" fill="#0" id="circle161"/>
	<circle cx="188.254" cy="107.042" r="4" fill="#0" id="circle162"/>
	<circle cx="188.254" cy="332.338" r="4" fill="#0" id="circle163"/>
	<circle cx="188.254" cy="996" r="4" fill="#0" id="circle164"/>
	<circle cx="192.62" cy="340.197" r="4" fill="#0" id="circle165"/>
	<circle cx="194.366" cy="114.028" r="4" fill="#0" id="circle166"/>
	<circle cx="196.986" cy="348.056" r="4" fill="#0" id="circle167"/>
	<circle cx="196.986" cy="996" r="4" fill="#0" id="circle168"/>
	<circle cx="198.732" cy="121.887" r="4" fill="#0" id="circle169"/>
	<circle cx="201.352" cy="130.62" r="4" fill="#0" id="circle170"/>
	<circle cx="201.352" cy="338.451" r="4" fill="#0" id="circle171"/>
	<circle cx="201.352" cy="355.915" r="4" fill="#0" id="circle172"/>
	<circle cx="201.352" cy="364.648" r="4" fill="#0" id="circle173"/>
	<circle cx="205.718" cy="138.479" r="4" fill="#0" id="circle174"/>
	<circle cx="205.718" cy="147.211" r="4" fill="#0" id="circle175"/>
	<circle cx="205.718" cy="372.507" r="4" fill="#0" id="circle176"/>
	<circle cx="205.718" cy="996" r="4" fill="#0" id="circle177"/>
	<circle cx="210.085" cy="155.07" r="4" fill="#0" id="circle178"/>
	<circle cx="210.085" cy="163.803" r="4" fill="#0" id="circle179"/>
	<circle cx="210.085" cy="341.07" r="4" fill="#0" id="circle180"/>
	<circle cx="210.085" cy="380.366" r="4" fill="#0" id="circle181"/>
	<circle cx="214.451" cy="171.662" r="4" fill="#0" id="circle182"/>
	<circle cx="214.451" cy="180.394" r="4" fill="#0" id="circle183"/>
	<circle cx="214.451" cy="189.127" r="4" fill="#0" id="circle184"/>
	<circle cx="214.451" cy="388.225" r="4" fill="#0" id="circle185"/>
	<circle cx="214.451" cy="396.958" r="4" fill="#0" id="circle186"/>
	<circle cx="214.451" cy="528.817" r="4" fill="#0" id="circle187"/>
	<circle cx="214.451" cy="996" r="4" fill="#0" id="circle188"/>
	<circle cx="218.817" cy="196.986" r="4" fill="#0" id="circle189"/>
	<circle cx="218.817" cy="205.718" r="4" fill="#0" id="circle190"/>
	<circle cx="218.817" cy="214.451" r="4" fill="#0" id="circle191"/>
	<circle cx="218.817" cy="223.183" r="4" fill="#0" id="circle192"/>
	<circle cx="218.817" cy="231.915" r="4" fill="#0" id="circle193"/>
	<circle cx="218.817" cy="240.648" r="4" fill="#0" id="circle194"/>
	<circle cx="218.817" cy="249.38" r="4" fill="#0" id="circle195"/>
	<circle cx="218.817" cy="258.113" r="4" fill="#0" id="circle196"/>
	<circle cx="218.817" cy="266.845" r="4" fill="#0" id="circle197"/>
	<circle cx="218.817" cy="275.577" r="4" fill="#0" id="circle198"/>
	<circle cx="218.817" cy="284.31" r="4" fill="#0" id="circle199"/>
	<circle cx="218.817" cy="293.042" r="4" fill="#0" id="circle200"/>
	<circle cx="218.817" cy="301.775" r="4" fill="#0" id="circle201"/>
	<circle cx="218.817" cy="341.07" r="4" fill="#0" id="circle202"/>
	<circle cx="218.817" cy="536.676" r="4" fill="#0" id="circle203"/>
	<circle cx="218.817" cy="545.408" r="4" fill="#0" id="circle204"/>
	<circle cx="220.563" cy="310.507" r="4" fill="#0" id="circle205"/>
	<circle cx="221.437" cy="402.197" r="4" fill="#0" id="circle206"/>
	<circle cx="223.183" cy="553.268" r="4" fill="#0" id="circle207"/>
	<circle cx="223.183" cy="562" r="4" fill="#0" id="circle208"/>
	<circle cx="223.183" cy="991.634" r="4" fill="#0" id="circle209"/>
	<circle cx="224.93" cy="318.366" r="4" fill="#0" id="circle210"/>
	<circle cx="227.549" cy="336.704" r="4" fill="#0" id="circle211"/>
	<circle cx="227.549" cy="409.183" r="4" fill="#0" id="circle212"/>
	<circle cx="227.549" cy="533.183" r="4" fill="#0" id="circle213"/>
	<circle cx="227.549" cy="569.859" r="4" fill="#0" id="circle214"/>
	<circle cx="231.042" cy="325.352" r="4" fill="#0" id="circle215"/>
	<circle cx="231.915" cy="417.042" r="4" fill="#0" id="circle216"/>
	<circle cx="231.915" cy="577.718" r="4" fill="#0" id="circle217"/>
	<circle cx="231.915" cy="586.451" r="4" fill="#0" id="circle218"/>
	<circle cx="231.915" cy="795.155" r="4" fill="#0" id="circle219"/>
	<circle cx="231.915" cy="991.634" r="4" fill="#0" id="circle220"/>
	<circle cx="234.535" cy="595.183" r="4" fill="#0" id="circle221"/>
	<circle cx="235.408" cy="537.549" r="4" fill="#0" id="circle222"/>
	<circle cx="236.282" cy="424.901" r="4" fill="#0" id="circle223"/>
	<circle cx="236.282" cy="433.634" r="4" fill="#0" id="circle224"/>
	<circle cx="236.282" cy="603.915" r="4" fill="#0" id="circle225"/>
	<circle cx="236.282" cy="803.014" r="4" fill="#0" id="circle226"/>
	<circle cx="238.901" cy="442.366" r="4" fill="#0" id="circle227"/>
	<circle cx="240.648" cy="611.775" r="4" fill="#0" id="circle228"/>
	<circle cx="240.648" cy="795.155" r="4" fill="#0" id="circle229"/>
	<circle cx="240.648" cy="810.873" r="4" fill="#0" id="circle230"/>
	<circle cx="240.648" cy="991.634" r="4" fill="#0" id="circle231"/>
	<circle cx="243.268" cy="450.225" r="4" fill="#0" id="circle232"/>
	<circle cx="243.268" cy="541.915" r="4" fill="#0" id="circle233"/>
	<circle cx="245.014" cy="619.634" r="4" fill="#0" id="circle234"/>
	<circle cx="245.014" cy="628.366" r="4" fill="#0" id="circle235"/>
	<circle cx="245.014" cy="818.732" r="4" fill="#0" id="circle236"/>
	<circle cx="246.761" cy="458.958" r="4" fill="#0" id="circle237"/>
	<circle cx="248.507" cy="827.465" r="4" fill="#0" id="circle238"/>
	<circle cx="249.38" cy="467.69" r="4" fill="#0" id="circle239"/>
	<circle cx="249.38" cy="636.225" r="4" fill="#0" id="circle240"/>
	<circle cx="249.38" cy="795.155" r="4" fill="#0" id="circle241"/>
	<circle cx="249.38" cy="987.268" r="4" fill="#0" id="circle242"/>
	<circle cx="251.127" cy="476.423" r="4" fill="#0" id="circle243"/>
	<circle cx="251.127" cy="546.282" r="4" fill="#0" id="circle244"/>
	<circle cx="252.873" cy="835.324" r="4" fill="#0" id="circle245"/>
	<circle cx="253.746" cy="485.155" r="4" fill="#0" id="circle246"/>
	<circle cx="253.746" cy="644.085" r="4" fill="#0" id="circle247"/>
	<circle cx="253.746" cy="652.817" r="4" fill="#0" id="circle248"/>
	<circle cx="253.746" cy="844.056" r="4" fill="#0" id="circle249"/>
	<circle cx="253.746" cy="852.789" r="4" fill="#0" id="circle250"/>
	<circle cx="253.746" cy="861.521" r="4" fill="#0" id="circle251"/>
	<circle cx="253.746" cy="870.254" r="4" fill="#0" id="circle252"/>
	<circle cx="253.746" cy="878.986" r="4" fill="#0" id="circle253"/>
	<circle cx="253.746" cy="887.718" r="4" fill="#0" id="circle254"/>
	<circle cx="253.746" cy="896.451" r="4" fill="#0" id="circle255"/>
	<circle cx="253.746" cy="905.183" r="4" fill="#0" id="circle256"/>
	<circle cx="253.746" cy="913.915" r="4" fill="#0" id="circle257"/>
	<circle cx="253.746" cy="922.648" r="4" fill="#0" id="circle258"/>
	<circle cx="253.746" cy="931.38" r="4" fill="#0" id="circle259"/>
	<circle cx="258.113" cy="493.014" r="4" fill="#0" id="circle260"/>
	<circle cx="258.113" cy="660.676" r="4" fill="#0" id="circle261"/>
	<circle cx="258.113" cy="795.155" r="4" fill="#0" id="circle262"/>
	<circle cx="258.113" cy="939.239" r="4" fill="#0" id="circle263"/>
	<circle cx="258.113" cy="947.972" r="4" fill="#0" id="circle264"/>
	<circle cx="258.113" cy="982.901" r="4" fill="#0" id="circle265"/>
	<circle cx="259.859" cy="549.775" r="4" fill="#0" id="circle266"/>
	<circle cx="259.859" cy="956.704" r="4" fill="#0" id="circle267"/>
	<circle cx="260.732" cy="669.408" r="4" fill="#0" id="circle268"/>
	<circle cx="262.479" cy="500.873" r="4" fill="#0" id="circle269"/>
	<circle cx="262.479" cy="509.606" r="4" fill="#0" id="circle270"/>
	<circle cx="262.479" cy="965.437" r="4" fill="#0" id="circle271"/>
	<circle cx="262.479" cy="974.169" r="4" fill="#0" id="circle272"/>
	<circle cx="265.099" cy="677.268" r="4" fill="#0" id="circle273"/>
	<circle cx="266.845" cy="517.465" r="4" fill="#0" id="circle274"/>
	<circle cx="266.845" cy="795.155" r="4" fill="#0" id="circle275"/>
	<circle cx="268.592" cy="550.648" r="4" fill="#0" id="circle276"/>
	<circle cx="271.211" cy="525.324" r="4" fill="#0" id="circle277"/>
	<circle cx="271.211" cy="684.254" r="4" fill="#0" id="circle278"/>
	<circle cx="275.577" cy="692.113" r="4" fill="#0" id="circle279"/>
	<circle cx="275.577" cy="795.155" r="4" fill="#0" id="circle280"/>
	<circle cx="276.451" cy="532.31" r="4" fill="#0" id="circle281"/>
	<circle cx="276.451" cy="546.282" r="4" fill="#0" id="circle282"/>
	<circle cx="279.07" cy="700.845" r="4" fill="#0" id="circle283"/>
	<circle cx="283.437" cy="708.704" r="4" fill="#0" id="circle284"/>
	<circle cx="284.31" cy="795.155" r="4" fill="#0" id="circle285"/>
	<circle cx="288.676" cy="715.69" r="4" fill="#0" id="circle286"/>
	<circle cx="288.676" cy="724.423" r="4" fill="#0" id="circle287"/>
	<circle cx="293.042" cy="732.282" r="4" fill="#0" id="circle288"/>
	<circle cx="293.042" cy="795.155" r="4" fill="#0" id="circle289"/>
	<circle cx="297.408" cy="740.141" r="4" fill="#0" id="circle290"/>
	<circle cx="301.775" cy="748" r="4" fill="#0" id="circle291"/>
	<circle cx="301.775" cy="795.155" r="4" fill="#0" id="circle292"/>
	<circle cx="306.141" cy="755.859" r="4" fill="#0" id="circle293"/>
	<circle cx="310.507" cy="763.718" r="4" fill="#0" id="circle294"/>
	<circle cx="310.507" cy="790.789" r="4" fill="#0" id="circle295"/>
	<circle cx="317.493" cy="768.958" r="4" fill="#0" id="circle296"/>
	<circle cx="319.239" cy="786.423" r="4" fill="#0" id="circle297"/>
	<circle cx="323.606" cy="775.944" r="4" fill="#0" id="circle298"/>
	</g>
</svg>