<?xml version="1.0" encoding="UTF-8" standalone="no"?>
<!-- Created with CurveBenchmark -->
<svg
	xmlns:dc="http://purl.org/dc/elements/1.1/"
	xmlns:cc="http://creativecommons.org/ns#"
	xmlns:rdf="http://www.w3.org/1999/02/22-rdf-syntax-ns#"
	xmlns:svg="http://www.w3.org/2000/svg"
	xmlns="http://www.w3.org/2000/svg"
	xmlns:sodipodi="http://sodipodi.sourceforge.net/DTD/sodipodi-0.dtd"
	xmlns:inkscape="http://www.inkscape.org/namespaces/inkscape"
	width="1000"
	height="1000"
	id="svg2"
	version="1.1"
	sodipodi:docname="manifold/discur-fountain12.png.txt">
<defs
	id="defs4" />
<metadata
	id="metadata7">
	<rdf:RDF>
		<cc:Work
			rdf:about="">
			<dc:format>image/svg+xml</dc:format>
			<dc:type
				rdf:resource="http://purl.org/dc/dcmitype/StillImage" />
			<dc:title></dc:title>
		</cc:Work>
	</rdf:RDF>
</metadata>
<g
	inkscape:label="Layer 1"
	inkscape:groupmode="layer"
	id="layer1">
	<path style="fill:none;stroke:red;stroke-width:1px;stroke-linecap:butt;stroke-linejoin:miter;stroke-opacity:1" d="M 4,574.251 13.9002,554.451 z" id="boundary" inkscape:connector-curvature="0" />
	<path style="fill:none;stroke:red;stroke-width:1px;stroke-linecap:butt;stroke-linejoin:miter;stroke-opacity:1" d="M 4,574.251 13.9002,592.072 z" id="boundary" inkscape:connector-curvature="0" />
	<path style="fill:none;stroke:red;stroke-width:1px;stroke-linecap:butt;stroke-linejoin:miter;stroke-opacity:1" d="M 13.9002,554.451 23.8004,534.651 z" id="boundary" inkscape:connector-curvature="0" />
	<path style="fill:none;stroke:red;stroke-width:1px;stroke-linecap:butt;stroke-linejoin:miter;stroke-opacity:1" d="M 13.9002,592.072 23.8004,609.892 z" id="boundary" inkscape:connector-curvature="0" />
	<path style="fill:none;stroke:red;stroke-width:1px;stroke-linecap:butt;stroke-linejoin:miter;stroke-opacity:1" d="M 23.8004,534.651 39.6407,518.81 z" id="boundary" inkscape:connector-curvature="0" />
	<path style="fill:none;stroke:red;stroke-width:1px;stroke-linecap:butt;stroke-linejoin:miter;stroke-opacity:1" d="M 23.8004,609.892 41.6208,619.792 z" id="boundary" inkscape:connector-curvature="0" />
	<path style="fill:none;stroke:red;stroke-width:1px;stroke-linecap:butt;stroke-linejoin:miter;stroke-opacity:1" d="M 39.6407,518.81 57.4611,508.91 z" id="boundary" inkscape:connector-curvature="0" />
	<path style="fill:none;stroke:red;stroke-width:1px;stroke-linecap:butt;stroke-linejoin:miter;stroke-opacity:1" d="M 41.6208,619.792 55.481,635.633 z" id="boundary" inkscape:connector-curvature="0" />
	<path style="fill:none;stroke:red;stroke-width:1px;stroke-linecap:butt;stroke-linejoin:miter;stroke-opacity:1" d="M 55.481,635.633 75.2814,639.593 z" id="boundary" inkscape:connector-curvature="0" />
	<path style="fill:none;stroke:red;stroke-width:1px;stroke-linecap:butt;stroke-linejoin:miter;stroke-opacity:1" d="M 57.4611,508.91 75.2814,499.01 z" id="boundary" inkscape:connector-curvature="0" />
	<path style="fill:none;stroke:red;stroke-width:1px;stroke-linecap:butt;stroke-linejoin:miter;stroke-opacity:1" d="M 75.2814,499.01 93.1018,475.25 z" id="boundary" inkscape:connector-curvature="0" />
	<path style="fill:none;stroke:red;stroke-width:1px;stroke-linecap:butt;stroke-linejoin:miter;stroke-opacity:1" d="M 75.2814,639.593 95.0818,639.593 z" id="boundary" inkscape:connector-curvature="0" />
	<path style="fill:none;stroke:red;stroke-width:1px;stroke-linecap:butt;stroke-linejoin:miter;stroke-opacity:1" d="M 93.1018,475.25 112.902,465.349 z" id="boundary" inkscape:connector-curvature="0" />
	<path style="fill:none;stroke:red;stroke-width:1px;stroke-linecap:butt;stroke-linejoin:miter;stroke-opacity:1" d="M 95.0818,639.593 112.902,649.493 z" id="boundary" inkscape:connector-curvature="0" />
	<path style="fill:none;stroke:red;stroke-width:1px;stroke-linecap:butt;stroke-linejoin:miter;stroke-opacity:1" d="M 112.902,465.349 132.703,459.409 z" id="boundary" inkscape:connector-curvature="0" />
	<path style="fill:none;stroke:red;stroke-width:1px;stroke-linecap:butt;stroke-linejoin:miter;stroke-opacity:1" d="M 112.902,649.493 132.703,649.493 z" id="boundary" inkscape:connector-curvature="0" />
	<path style="fill:none;stroke:red;stroke-width:1px;stroke-linecap:butt;stroke-linejoin:miter;stroke-opacity:1" d="M 132.703,459.409 152.503,455.449 z" id="boundary" inkscape:connector-curvature="0" />
	<path style="fill:none;stroke:red;stroke-width:1px;stroke-linecap:butt;stroke-linejoin:miter;stroke-opacity:1" d="M 132.703,649.493 152.503,649.493 z" id="boundary" inkscape:connector-curvature="0" />
	<path style="fill:none;stroke:red;stroke-width:1px;stroke-linecap:butt;stroke-linejoin:miter;stroke-opacity:1" d="M 152.503,455.449 172.303,445.549 z" id="boundary" inkscape:connector-curvature="0" />
	<path style="fill:none;stroke:red;stroke-width:1px;stroke-linecap:butt;stroke-linejoin:miter;stroke-opacity:1" d="M 152.503,649.493 172.303,649.493 z" id="boundary" inkscape:connector-curvature="0" />
	<path style="fill:none;stroke:red;stroke-width:1px;stroke-linecap:butt;stroke-linejoin:miter;stroke-opacity:1" d="M 172.303,445.549 182.204,425.749 z" id="boundary" inkscape:connector-curvature="0" />
	<path style="fill:none;stroke:red;stroke-width:1px;stroke-linecap:butt;stroke-linejoin:miter;stroke-opacity:1" d="M 172.303,649.493 192.104,649.493 z" id="boundary" inkscape:connector-curvature="0" />
	<path style="fill:none;stroke:red;stroke-width:1px;stroke-linecap:butt;stroke-linejoin:miter;stroke-opacity:1" d="M 182.204,425.749 192.104,405.948 z" id="boundary" inkscape:connector-curvature="0" />
	<path style="fill:none;stroke:red;stroke-width:1px;stroke-linecap:butt;stroke-linejoin:miter;stroke-opacity:1" d="M 192.104,405.948 211.904,396.048 z" id="boundary" inkscape:connector-curvature="0" />
	<path style="fill:none;stroke:red;stroke-width:1px;stroke-linecap:butt;stroke-linejoin:miter;stroke-opacity:1" d="M 192.104,649.493 209.924,659.393 z" id="boundary" inkscape:connector-curvature="0" />
	<path style="fill:none;stroke:red;stroke-width:1px;stroke-linecap:butt;stroke-linejoin:miter;stroke-opacity:1" d="M 209.924,659.393 223.784,675.234 z" id="boundary" inkscape:connector-curvature="0" />
	<path style="fill:none;stroke:red;stroke-width:1px;stroke-linecap:butt;stroke-linejoin:miter;stroke-opacity:1" d="M 211.904,396.048 221.804,376.248 z" id="boundary" inkscape:connector-curvature="0" />
	<path style="fill:none;stroke:red;stroke-width:1px;stroke-linecap:butt;stroke-linejoin:miter;stroke-opacity:1" d="M 221.804,376.248 241.605,366.347 z" id="boundary" inkscape:connector-curvature="0" />
	<path style="fill:none;stroke:red;stroke-width:1px;stroke-linecap:butt;stroke-linejoin:miter;stroke-opacity:1" d="M 223.784,675.234 243.585,683.154 z" id="boundary" inkscape:connector-curvature="0" />
	<path style="fill:none;stroke:red;stroke-width:1px;stroke-linecap:butt;stroke-linejoin:miter;stroke-opacity:1" d="M 241.605,366.347 261.405,356.447 z" id="boundary" inkscape:connector-curvature="0" />
	<path style="fill:none;stroke:red;stroke-width:1px;stroke-linecap:butt;stroke-linejoin:miter;stroke-opacity:1" d="M 243.585,683.154 261.405,693.054 z" id="boundary" inkscape:connector-curvature="0" />
	<path style="fill:none;stroke:red;stroke-width:1px;stroke-linecap:butt;stroke-linejoin:miter;stroke-opacity:1" d="M 261.405,356.447 281.206,350.507 z" id="boundary" inkscape:connector-curvature="0" />
	<path style="fill:none;stroke:red;stroke-width:1px;stroke-linecap:butt;stroke-linejoin:miter;stroke-opacity:1" d="M 261.405,693.054 281.206,698.994 z" id="boundary" inkscape:connector-curvature="0" />
	<path style="fill:none;stroke:red;stroke-width:1px;stroke-linecap:butt;stroke-linejoin:miter;stroke-opacity:1" d="M 281.206,350.507 301.006,350.507 z" id="boundary" inkscape:connector-curvature="0" />
	<path style="fill:none;stroke:red;stroke-width:1px;stroke-linecap:butt;stroke-linejoin:miter;stroke-opacity:1" d="M 281.206,698.994 301.006,698.994 z" id="boundary" inkscape:connector-curvature="0" />
	<path style="fill:none;stroke:red;stroke-width:1px;stroke-linecap:butt;stroke-linejoin:miter;stroke-opacity:1" d="M 301.006,350.507 320.806,350.507 z" id="boundary" inkscape:connector-curvature="0" />
	<path style="fill:none;stroke:red;stroke-width:1px;stroke-linecap:butt;stroke-linejoin:miter;stroke-opacity:1" d="M 301.006,698.994 318.826,708.894 z" id="boundary" inkscape:connector-curvature="0" />
	<path style="fill:none;stroke:red;stroke-width:1px;stroke-linecap:butt;stroke-linejoin:miter;stroke-opacity:1" d="M 318.826,708.894 336.647,718.794 z" id="boundary" inkscape:connector-curvature="0" />
	<path style="fill:none;stroke:red;stroke-width:1px;stroke-linecap:butt;stroke-linejoin:miter;stroke-opacity:1" d="M 320.806,350.507 340.607,350.507 z" id="boundary" inkscape:connector-curvature="0" />
	<path style="fill:none;stroke:red;stroke-width:1px;stroke-linecap:butt;stroke-linejoin:miter;stroke-opacity:1" d="M 336.647,718.794 356.447,718.794 z" id="boundary" inkscape:connector-curvature="0" />
	<path style="fill:none;stroke:red;stroke-width:1px;stroke-linecap:butt;stroke-linejoin:miter;stroke-opacity:1" d="M 340.607,350.507 358.427,340.607 z" id="boundary" inkscape:connector-curvature="0" />
	<path style="fill:none;stroke:red;stroke-width:1px;stroke-linecap:butt;stroke-linejoin:miter;stroke-opacity:1" d="M 356.447,718.794 376.248,726.715 z" id="boundary" inkscape:connector-curvature="0" />
	<path style="fill:none;stroke:red;stroke-width:1px;stroke-linecap:butt;stroke-linejoin:miter;stroke-opacity:1" d="M 358.427,340.607 376.248,330.707 z" id="boundary" inkscape:connector-curvature="0" />
	<path style="fill:none;stroke:red;stroke-width:1px;stroke-linecap:butt;stroke-linejoin:miter;stroke-opacity:1" d="M 376.248,330.707 396.048,330.707 z" id="boundary" inkscape:connector-curvature="0" />
	<path style="fill:none;stroke:red;stroke-width:1px;stroke-linecap:butt;stroke-linejoin:miter;stroke-opacity:1" d="M 376.248,726.715 396.048,728.695 z" id="boundary" inkscape:connector-curvature="0" />
	<path style="fill:none;stroke:red;stroke-width:1px;stroke-linecap:butt;stroke-linejoin:miter;stroke-opacity:1" d="M 380.208,118.842 380.208,138.643 z" id="boundary" inkscape:connector-curvature="0" />
	<path style="fill:none;stroke:red;stroke-width:1px;stroke-linecap:butt;stroke-linejoin:miter;stroke-opacity:1" d="M 380.208,118.842 400.008,108.942 z" id="boundary" inkscape:connector-curvature="0" />
	<path style="fill:none;stroke:red;stroke-width:1px;stroke-linecap:butt;stroke-linejoin:miter;stroke-opacity:1" d="M 380.208,138.643 400.008,144.583 z" id="boundary" inkscape:connector-curvature="0" />
	<path style="fill:none;stroke:red;stroke-width:1px;stroke-linecap:butt;stroke-linejoin:miter;stroke-opacity:1" d="M 396.048,330.707 415.848,320.806 z" id="boundary" inkscape:connector-curvature="0" />
	<path style="fill:none;stroke:red;stroke-width:1px;stroke-linecap:butt;stroke-linejoin:miter;stroke-opacity:1" d="M 396.048,728.695 415.848,728.695 z" id="boundary" inkscape:connector-curvature="0" />
	<path style="fill:none;stroke:red;stroke-width:1px;stroke-linecap:butt;stroke-linejoin:miter;stroke-opacity:1" d="M 400.008,108.942 419.808,103.002 z" id="boundary" inkscape:connector-curvature="0" />
	<path style="fill:none;stroke:red;stroke-width:1px;stroke-linecap:butt;stroke-linejoin:miter;stroke-opacity:1" d="M 400.008,144.583 417.828,154.483 z" id="boundary" inkscape:connector-curvature="0" />
	<path style="fill:none;stroke:red;stroke-width:1px;stroke-linecap:butt;stroke-linejoin:miter;stroke-opacity:1" d="M 415.848,320.806 435.649,320.806 z" id="boundary" inkscape:connector-curvature="0" />
	<path style="fill:none;stroke:red;stroke-width:1px;stroke-linecap:butt;stroke-linejoin:miter;stroke-opacity:1" d="M 415.848,728.695 435.649,728.695 z" id="boundary" inkscape:connector-curvature="0" />
	<path style="fill:none;stroke:red;stroke-width:1px;stroke-linecap:butt;stroke-linejoin:miter;stroke-opacity:1" d="M 417.828,154.483 437.629,154.483 z" id="boundary" inkscape:connector-curvature="0" />
	<path style="fill:none;stroke:red;stroke-width:1px;stroke-linecap:butt;stroke-linejoin:miter;stroke-opacity:1" d="M 419.808,103.002 439.609,103.002 z" id="boundary" inkscape:connector-curvature="0" />
	<path style="fill:none;stroke:red;stroke-width:1px;stroke-linecap:butt;stroke-linejoin:miter;stroke-opacity:1" d="M 435.649,320.806 455.449,310.906 z" id="boundary" inkscape:connector-curvature="0" />
	<path style="fill:none;stroke:red;stroke-width:1px;stroke-linecap:butt;stroke-linejoin:miter;stroke-opacity:1" d="M 435.649,728.695 455.449,728.695 z" id="boundary" inkscape:connector-curvature="0" />
	<path style="fill:none;stroke:red;stroke-width:1px;stroke-linecap:butt;stroke-linejoin:miter;stroke-opacity:1" d="M 437.629,154.483 457.429,154.483 z" id="boundary" inkscape:connector-curvature="0" />
	<path style="fill:none;stroke:red;stroke-width:1px;stroke-linecap:butt;stroke-linejoin:miter;stroke-opacity:1" d="M 439.609,103.002 459.409,103.002 z" id="boundary" inkscape:connector-curvature="0" />
	<path style="fill:none;stroke:red;stroke-width:1px;stroke-linecap:butt;stroke-linejoin:miter;stroke-opacity:1" d="M 455.449,310.906 465.349,291.106 z" id="boundary" inkscape:connector-curvature="0" />
	<path style="fill:none;stroke:red;stroke-width:1px;stroke-linecap:butt;stroke-linejoin:miter;stroke-opacity:1" d="M 455.449,728.695 475.25,728.695 z" id="boundary" inkscape:connector-curvature="0" />
	<path style="fill:none;stroke:red;stroke-width:1px;stroke-linecap:butt;stroke-linejoin:miter;stroke-opacity:1" d="M 457.429,154.483 477.23,154.483 z" id="boundary" inkscape:connector-curvature="0" />
	<path style="fill:none;stroke:red;stroke-width:1px;stroke-linecap:butt;stroke-linejoin:miter;stroke-opacity:1" d="M 459.409,103.002 479.21,103.002 z" id="boundary" inkscape:connector-curvature="0" />
	<path style="fill:none;stroke:red;stroke-width:1px;stroke-linecap:butt;stroke-linejoin:miter;stroke-opacity:1" d="M 465.349,291.106 475.25,271.305 z" id="boundary" inkscape:connector-curvature="0" />
	<path style="fill:none;stroke:red;stroke-width:1px;stroke-linecap:butt;stroke-linejoin:miter;stroke-opacity:1" d="M 475.25,271.305 479.21,233.685 z" id="boundary" inkscape:connector-curvature="0" />
	<path style="fill:none;stroke:red;stroke-width:1px;stroke-linecap:butt;stroke-linejoin:miter;stroke-opacity:1" d="M 475.25,728.695 495.05,728.695 z" id="boundary" inkscape:connector-curvature="0" />
	<path style="fill:none;stroke:red;stroke-width:1px;stroke-linecap:butt;stroke-linejoin:miter;stroke-opacity:1" d="M 477.23,154.483 479.21,174.283 z" id="boundary" inkscape:connector-curvature="0" />
	<path style="fill:none;stroke:red;stroke-width:1px;stroke-linecap:butt;stroke-linejoin:miter;stroke-opacity:1" d="M 479.21,9.94012 479.21,29.7405 z" id="boundary" inkscape:connector-curvature="0" />
	<path style="fill:none;stroke:red;stroke-width:1px;stroke-linecap:butt;stroke-linejoin:miter;stroke-opacity:1" d="M 479.21,9.94012 499.01,4 z" id="boundary" inkscape:connector-curvature="0" />
	<path style="fill:none;stroke:red;stroke-width:1px;stroke-linecap:butt;stroke-linejoin:miter;stroke-opacity:1" d="M 479.21,29.7405 489.11,47.5609 z" id="boundary" inkscape:connector-curvature="0" />
	<path style="fill:none;stroke:red;stroke-width:1px;stroke-linecap:butt;stroke-linejoin:miter;stroke-opacity:1" d="M 479.21,103.002 489.11,67.3613 z" id="boundary" inkscape:connector-curvature="0" />
	<path style="fill:none;stroke:red;stroke-width:1px;stroke-linecap:butt;stroke-linejoin:miter;stroke-opacity:1" d="M 479.21,174.283 479.21,194.084 z" id="boundary" inkscape:connector-curvature="0" />
	<path style="fill:none;stroke:red;stroke-width:1px;stroke-linecap:butt;stroke-linejoin:miter;stroke-opacity:1" d="M 479.21,194.084 479.21,213.884 z" id="boundary" inkscape:connector-curvature="0" />
	<path style="fill:none;stroke:red;stroke-width:1px;stroke-linecap:butt;stroke-linejoin:miter;stroke-opacity:1" d="M 479.21,213.884 479.21,233.685 z" id="boundary" inkscape:connector-curvature="0" />
	<path style="fill:none;stroke:red;stroke-width:1px;stroke-linecap:butt;stroke-linejoin:miter;stroke-opacity:1" d="M 489.11,47.5609 489.11,67.3613 z" id="boundary" inkscape:connector-curvature="0" />
	<path style="fill:none;stroke:red;stroke-width:1px;stroke-linecap:butt;stroke-linejoin:miter;stroke-opacity:1" d="M 495.05,728.695 514.85,728.695 z" id="boundary" inkscape:connector-curvature="0" />
	<path style="fill:none;stroke:red;stroke-width:1px;stroke-linecap:butt;stroke-linejoin:miter;stroke-opacity:1" d="M 499.01,4 518.81,4 z" id="boundary" inkscape:connector-curvature="0" />
	<path style="fill:none;stroke:red;stroke-width:1px;stroke-linecap:butt;stroke-linejoin:miter;stroke-opacity:1" d="M 514.85,728.695 534.651,728.695 z" id="boundary" inkscape:connector-curvature="0" />
	<path style="fill:none;stroke:red;stroke-width:1px;stroke-linecap:butt;stroke-linejoin:miter;stroke-opacity:1" d="M 518.81,4 530.691,19.8403 z" id="boundary" inkscape:connector-curvature="0" />
	<path style="fill:none;stroke:red;stroke-width:1px;stroke-linecap:butt;stroke-linejoin:miter;stroke-opacity:1" d="M 530.691,19.8403 530.691,39.6407 z" id="boundary" inkscape:connector-curvature="0" />
	<path style="fill:none;stroke:red;stroke-width:1px;stroke-linecap:butt;stroke-linejoin:miter;stroke-opacity:1" d="M 530.691,39.6407 530.691,59.4411 z" id="boundary" inkscape:connector-curvature="0" />
	<path style="fill:none;stroke:red;stroke-width:1px;stroke-linecap:butt;stroke-linejoin:miter;stroke-opacity:1" d="M 530.691,59.4411 530.691,79.2415 z" id="boundary" inkscape:connector-curvature="0" />
	<path style="fill:none;stroke:red;stroke-width:1px;stroke-linecap:butt;stroke-linejoin:miter;stroke-opacity:1" d="M 530.691,79.2415 540.591,97.0619 z" id="boundary" inkscape:connector-curvature="0" />
	<path style="fill:none;stroke:red;stroke-width:1px;stroke-linecap:butt;stroke-linejoin:miter;stroke-opacity:1" d="M 534.651,728.695 554.451,728.695 z" id="boundary" inkscape:connector-curvature="0" />
	<path style="fill:none;stroke:red;stroke-width:1px;stroke-linecap:butt;stroke-linejoin:miter;stroke-opacity:1" d="M 540.591,97.0619 552.471,112.902 z" id="boundary" inkscape:connector-curvature="0" />
	<path style="fill:none;stroke:red;stroke-width:1px;stroke-linecap:butt;stroke-linejoin:miter;stroke-opacity:1" d="M 540.591,174.283 544.551,194.084 z" id="boundary" inkscape:connector-curvature="0" />
	<path style="fill:none;stroke:red;stroke-width:1px;stroke-linecap:butt;stroke-linejoin:miter;stroke-opacity:1" d="M 540.591,174.283 556.431,160.423 z" id="boundary" inkscape:connector-curvature="0" />
	<path style="fill:none;stroke:red;stroke-width:1px;stroke-linecap:butt;stroke-linejoin:miter;stroke-opacity:1" d="M 544.551,194.084 550.491,213.884 z" id="boundary" inkscape:connector-curvature="0" />
	<path style="fill:none;stroke:red;stroke-width:1px;stroke-linecap:butt;stroke-linejoin:miter;stroke-opacity:1" d="M 550.491,213.884 550.491,233.685 z" id="boundary" inkscape:connector-curvature="0" />
	<path style="fill:none;stroke:red;stroke-width:1px;stroke-linecap:butt;stroke-linejoin:miter;stroke-opacity:1" d="M 550.491,233.685 550.491,253.485 z" id="boundary" inkscape:connector-curvature="0" />
	<path style="fill:none;stroke:red;stroke-width:1px;stroke-linecap:butt;stroke-linejoin:miter;stroke-opacity:1" d="M 550.491,253.485 550.491,273.285 z" id="boundary" inkscape:connector-curvature="0" />
	<path style="fill:none;stroke:red;stroke-width:1px;stroke-linecap:butt;stroke-linejoin:miter;stroke-opacity:1" d="M 550.491,273.285 560.391,291.106 z" id="boundary" inkscape:connector-curvature="0" />
	<path style="fill:none;stroke:red;stroke-width:1px;stroke-linecap:butt;stroke-linejoin:miter;stroke-opacity:1" d="M 552.471,112.902 572.271,112.902 z" id="boundary" inkscape:connector-curvature="0" />
	<path style="fill:none;stroke:red;stroke-width:1px;stroke-linecap:butt;stroke-linejoin:miter;stroke-opacity:1" d="M 554.451,728.695 574.251,728.695 z" id="boundary" inkscape:connector-curvature="0" />
	<path style="fill:none;stroke:red;stroke-width:1px;stroke-linecap:butt;stroke-linejoin:miter;stroke-opacity:1" d="M 556.431,160.423 576.232,150.523 z" id="boundary" inkscape:connector-curvature="0" />
	<path style="fill:none;stroke:red;stroke-width:1px;stroke-linecap:butt;stroke-linejoin:miter;stroke-opacity:1" d="M 560.391,291.106 560.391,310.906 z" id="boundary" inkscape:connector-curvature="0" />
	<path style="fill:none;stroke:red;stroke-width:1px;stroke-linecap:butt;stroke-linejoin:miter;stroke-opacity:1" d="M 560.391,310.906 560.391,330.707 z" id="boundary" inkscape:connector-curvature="0" />
	<path style="fill:none;stroke:red;stroke-width:1px;stroke-linecap:butt;stroke-linejoin:miter;stroke-opacity:1" d="M 560.391,330.707 576.232,342.587 z" id="boundary" inkscape:connector-curvature="0" />
	<path style="fill:none;stroke:red;stroke-width:1px;stroke-linecap:butt;stroke-linejoin:miter;stroke-opacity:1" d="M 572.271,112.902 592.072,112.902 z" id="boundary" inkscape:connector-curvature="0" />
	<path style="fill:none;stroke:red;stroke-width:1px;stroke-linecap:butt;stroke-linejoin:miter;stroke-opacity:1" d="M 574.251,728.695 592.072,738.595 z" id="boundary" inkscape:connector-curvature="0" />
	<path style="fill:none;stroke:red;stroke-width:1px;stroke-linecap:butt;stroke-linejoin:miter;stroke-opacity:1" d="M 576.232,150.523 596.032,144.583 z" id="boundary" inkscape:connector-curvature="0" />
	<path style="fill:none;stroke:red;stroke-width:1px;stroke-linecap:butt;stroke-linejoin:miter;stroke-opacity:1" d="M 576.232,342.587 596.032,350.507 z" id="boundary" inkscape:connector-curvature="0" />
	<path style="fill:none;stroke:red;stroke-width:1px;stroke-linecap:butt;stroke-linejoin:miter;stroke-opacity:1" d="M 592.072,112.902 611.872,104.982 z" id="boundary" inkscape:connector-curvature="0" />
	<path style="fill:none;stroke:red;stroke-width:1px;stroke-linecap:butt;stroke-linejoin:miter;stroke-opacity:1" d="M 592.072,738.595 611.872,738.595 z" id="boundary" inkscape:connector-curvature="0" />
	<path style="fill:none;stroke:red;stroke-width:1px;stroke-linecap:butt;stroke-linejoin:miter;stroke-opacity:1" d="M 596.032,144.583 615.832,140.623 z" id="boundary" inkscape:connector-curvature="0" />
	<path style="fill:none;stroke:red;stroke-width:1px;stroke-linecap:butt;stroke-linejoin:miter;stroke-opacity:1" d="M 596.032,350.507 615.832,352.487 z" id="boundary" inkscape:connector-curvature="0" />
	<path style="fill:none;stroke:red;stroke-width:1px;stroke-linecap:butt;stroke-linejoin:miter;stroke-opacity:1" d="M 611.872,104.982 631.673,103.002 z" id="boundary" inkscape:connector-curvature="0" />
	<path style="fill:none;stroke:red;stroke-width:1px;stroke-linecap:butt;stroke-linejoin:miter;stroke-opacity:1" d="M 611.872,738.595 631.673,738.595 z" id="boundary" inkscape:connector-curvature="0" />
	<path style="fill:none;stroke:red;stroke-width:1px;stroke-linecap:butt;stroke-linejoin:miter;stroke-opacity:1" d="M 615.832,140.623 635.633,134.683 z" id="boundary" inkscape:connector-curvature="0" />
	<path style="fill:none;stroke:red;stroke-width:1px;stroke-linecap:butt;stroke-linejoin:miter;stroke-opacity:1" d="M 615.832,352.487 635.633,360.407 z" id="boundary" inkscape:connector-curvature="0" />
	<path style="fill:none;stroke:red;stroke-width:1px;stroke-linecap:butt;stroke-linejoin:miter;stroke-opacity:1" d="M 631.673,103.002 647.513,116.862 z" id="boundary" inkscape:connector-curvature="0" />
	<path style="fill:none;stroke:red;stroke-width:1px;stroke-linecap:butt;stroke-linejoin:miter;stroke-opacity:1" d="M 631.673,738.595 651.473,738.595 z" id="boundary" inkscape:connector-curvature="0" />
	<path style="fill:none;stroke:red;stroke-width:1px;stroke-linecap:butt;stroke-linejoin:miter;stroke-opacity:1" d="M 635.633,134.683 647.513,116.862 z" id="boundary" inkscape:connector-curvature="0" />
	<path style="fill:none;stroke:red;stroke-width:1px;stroke-linecap:butt;stroke-linejoin:miter;stroke-opacity:1" d="M 635.633,360.407 655.433,362.387 z" id="boundary" inkscape:connector-curvature="0" />
	<path style="fill:none;stroke:red;stroke-width:1px;stroke-linecap:butt;stroke-linejoin:miter;stroke-opacity:1" d="M 651.473,738.595 671.273,738.595 z" id="boundary" inkscape:connector-curvature="0" />
	<path style="fill:none;stroke:red;stroke-width:1px;stroke-linecap:butt;stroke-linejoin:miter;stroke-opacity:1" d="M 655.433,362.387 675.234,370.307 z" id="boundary" inkscape:connector-curvature="0" />
	<path style="fill:none;stroke:red;stroke-width:1px;stroke-linecap:butt;stroke-linejoin:miter;stroke-opacity:1" d="M 671.273,738.595 691.074,738.595 z" id="boundary" inkscape:connector-curvature="0" />
	<path style="fill:none;stroke:red;stroke-width:1px;stroke-linecap:butt;stroke-linejoin:miter;stroke-opacity:1" d="M 675.234,370.307 695.034,372.287 z" id="boundary" inkscape:connector-curvature="0" />
	<path style="fill:none;stroke:red;stroke-width:1px;stroke-linecap:butt;stroke-linejoin:miter;stroke-opacity:1" d="M 691.074,738.595 708.894,728.695 z" id="boundary" inkscape:connector-curvature="0" />
	<path style="fill:none;stroke:red;stroke-width:1px;stroke-linecap:butt;stroke-linejoin:miter;stroke-opacity:1" d="M 695.034,372.287 714.834,380.208 z" id="boundary" inkscape:connector-curvature="0" />
	<path style="fill:none;stroke:red;stroke-width:1px;stroke-linecap:butt;stroke-linejoin:miter;stroke-opacity:1" d="M 708.894,728.695 728.695,728.695 z" id="boundary" inkscape:connector-curvature="0" />
	<path style="fill:none;stroke:red;stroke-width:1px;stroke-linecap:butt;stroke-linejoin:miter;stroke-opacity:1" d="M 714.834,380.208 734.635,380.208 z" id="boundary" inkscape:connector-curvature="0" />
	<path style="fill:none;stroke:red;stroke-width:1px;stroke-linecap:butt;stroke-linejoin:miter;stroke-opacity:1" d="M 728.695,728.695 748.495,718.794 z" id="boundary" inkscape:connector-curvature="0" />
	<path style="fill:none;stroke:red;stroke-width:1px;stroke-linecap:butt;stroke-linejoin:miter;stroke-opacity:1" d="M 734.635,380.208 754.435,380.208 z" id="boundary" inkscape:connector-curvature="0" />
	<path style="fill:none;stroke:red;stroke-width:1px;stroke-linecap:butt;stroke-linejoin:miter;stroke-opacity:1" d="M 748.495,718.794 766.315,708.894 z" id="boundary" inkscape:connector-curvature="0" />
	<path style="fill:none;stroke:red;stroke-width:1px;stroke-linecap:butt;stroke-linejoin:miter;stroke-opacity:1" d="M 754.435,380.208 774.236,380.208 z" id="boundary" inkscape:connector-curvature="0" />
	<path style="fill:none;stroke:red;stroke-width:1px;stroke-linecap:butt;stroke-linejoin:miter;stroke-opacity:1" d="M 766.315,708.894 786.116,708.894 z" id="boundary" inkscape:connector-curvature="0" />
	<path style="fill:none;stroke:red;stroke-width:1px;stroke-linecap:butt;stroke-linejoin:miter;stroke-opacity:1" d="M 774.236,380.208 794.036,380.208 z" id="boundary" inkscape:connector-curvature="0" />
	<path style="fill:none;stroke:red;stroke-width:1px;stroke-linecap:butt;stroke-linejoin:miter;stroke-opacity:1" d="M 786.116,708.894 803.936,698.994 z" id="boundary" inkscape:connector-curvature="0" />
	<path style="fill:none;stroke:red;stroke-width:1px;stroke-linecap:butt;stroke-linejoin:miter;stroke-opacity:1" d="M 794.036,380.208 811.856,390.108 z" id="boundary" inkscape:connector-curvature="0" />
	<path style="fill:none;stroke:red;stroke-width:1px;stroke-linecap:butt;stroke-linejoin:miter;stroke-opacity:1" d="M 803.936,698.994 823.737,698.994 z" id="boundary" inkscape:connector-curvature="0" />
	<path style="fill:none;stroke:red;stroke-width:1px;stroke-linecap:butt;stroke-linejoin:miter;stroke-opacity:1" d="M 811.856,390.108 827.697,401.988 z" id="boundary" inkscape:connector-curvature="0" />
	<path style="fill:none;stroke:red;stroke-width:1px;stroke-linecap:butt;stroke-linejoin:miter;stroke-opacity:1" d="M 823.737,698.994 841.557,689.094 z" id="boundary" inkscape:connector-curvature="0" />
	<path style="fill:none;stroke:red;stroke-width:1px;stroke-linecap:butt;stroke-linejoin:miter;stroke-opacity:1" d="M 827.697,401.988 837.597,419.808 z" id="boundary" inkscape:connector-curvature="0" />
	<path style="fill:none;stroke:red;stroke-width:1px;stroke-linecap:butt;stroke-linejoin:miter;stroke-opacity:1" d="M 837.597,419.808 837.597,439.609 z" id="boundary" inkscape:connector-curvature="0" />
	<path style="fill:none;stroke:red;stroke-width:1px;stroke-linecap:butt;stroke-linejoin:miter;stroke-opacity:1" d="M 837.597,439.609 847.497,457.429 z" id="boundary" inkscape:connector-curvature="0" />
	<path style="fill:none;stroke:red;stroke-width:1px;stroke-linecap:butt;stroke-linejoin:miter;stroke-opacity:1" d="M 841.557,689.094 859.377,679.194 z" id="boundary" inkscape:connector-curvature="0" />
	<path style="fill:none;stroke:red;stroke-width:1px;stroke-linecap:butt;stroke-linejoin:miter;stroke-opacity:1" d="M 847.497,457.429 867.297,459.409 z" id="boundary" inkscape:connector-curvature="0" />
	<path style="fill:none;stroke:red;stroke-width:1px;stroke-linecap:butt;stroke-linejoin:miter;stroke-opacity:1" d="M 859.377,679.194 875.218,663.353 z" id="boundary" inkscape:connector-curvature="0" />
	<path style="fill:none;stroke:red;stroke-width:1px;stroke-linecap:butt;stroke-linejoin:miter;stroke-opacity:1" d="M 867.297,459.409 887.098,465.349 z" id="boundary" inkscape:connector-curvature="0" />
	<path style="fill:none;stroke:red;stroke-width:1px;stroke-linecap:butt;stroke-linejoin:miter;stroke-opacity:1" d="M 875.218,663.353 895.018,653.453 z" id="boundary" inkscape:connector-curvature="0" />
	<path style="fill:none;stroke:red;stroke-width:1px;stroke-linecap:butt;stroke-linejoin:miter;stroke-opacity:1" d="M 887.098,465.349 904.918,475.25 z" id="boundary" inkscape:connector-curvature="0" />
	<path style="fill:none;stroke:red;stroke-width:1px;stroke-linecap:butt;stroke-linejoin:miter;stroke-opacity:1" d="M 895.018,653.453 914.818,649.493 z" id="boundary" inkscape:connector-curvature="0" />
	<path style="fill:none;stroke:red;stroke-width:1px;stroke-linecap:butt;stroke-linejoin:miter;stroke-opacity:1" d="M 904.918,475.25 924.719,483.17 z" id="boundary" inkscape:connector-curvature="0" />
	<path style="fill:none;stroke:red;stroke-width:1px;stroke-linecap:butt;stroke-linejoin:miter;stroke-opacity:1" d="M 914.818,649.493 934.619,643.553 z" id="boundary" inkscape:connector-curvature="0" />
	<path style="fill:none;stroke:red;stroke-width:1px;stroke-linecap:butt;stroke-linejoin:miter;stroke-opacity:1" d="M 924.719,483.17 936.599,499.01 z" id="boundary" inkscape:connector-curvature="0" />
	<path style="fill:none;stroke:red;stroke-width:1px;stroke-linecap:butt;stroke-linejoin:miter;stroke-opacity:1" d="M 934.619,643.553 954.419,633.653 z" id="boundary" inkscape:connector-curvature="0" />
	<path style="fill:none;stroke:red;stroke-width:1px;stroke-linecap:butt;stroke-linejoin:miter;stroke-opacity:1" d="M 936.599,499.01 954.419,508.91 z" id="boundary" inkscape:connector-curvature="0" />
	<path style="fill:none;stroke:red;stroke-width:1px;stroke-linecap:butt;stroke-linejoin:miter;stroke-opacity:1" d="M 954.419,508.91 970.259,520.79 z" id="boundary" inkscape:connector-curvature="0" />
	<path style="fill:none;stroke:red;stroke-width:1px;stroke-linecap:butt;stroke-linejoin:miter;stroke-opacity:1" d="M 954.419,633.653 974.22,623.752 z" id="boundary" inkscape:connector-curvature="0" />
	<path style="fill:none;stroke:red;stroke-width:1px;stroke-linecap:butt;stroke-linejoin:miter;stroke-opacity:1" d="M 970.259,520.79 986.1,534.651 z" id="boundary" inkscape:connector-curvature="0" />
	<path style="fill:none;stroke:red;stroke-width:1px;stroke-linecap:butt;stroke-linejoin:miter;stroke-opacity:1" d="M 974.22,623.752 986.1,599.992 z" id="boundary" inkscape:connector-curvature="0" />
	<path style="fill:none;stroke:red;stroke-width:1px;stroke-linecap:butt;stroke-linejoin:miter;stroke-opacity:1" d="M 986.1,534.651 996,552.471 z" id="boundary" inkscape:connector-curvature="0" />
	<path style="fill:none;stroke:red;stroke-width:1px;stroke-linecap:butt;stroke-linejoin:miter;stroke-opacity:1" d="M 986.1,599.992 996,572.271 z" id="boundary" inkscape:connector-curvature="0" />
	<path style="fill:none;stroke:red;stroke-width:1px;stroke-linecap:butt;stroke-linejoin:miter;stroke-opacity:1" d="M 996,552.471 996,572.271 z" id="boundary" inkscape:connector-curvature="0" />
	<circle cx="4" cy="574.251" r="4" fill="#0" id="circle0"/>
	<circle cx="13.9002" cy="554.451" r="4" fill="#0" id="circle1"/>
	<circle cx="13.9002" cy="592.072" r="4" fill="#0" id="circle2"/>
	<circle cx="23.8004" cy="534.651" r="4" fill="#0" id="circle3"/>
	<circle cx="23.8004" cy="609.892" r="4" fill="#0" id="circle4"/>
	<circle cx="39.6407" cy="518.81" r="4" fill="#0" id="circle5"/>
	<circle cx="41.6208" cy="619.792" r="4" fill="#0" id="circle6"/>
	<circle cx="55.481" cy="635.633" r="4" fill="#0" id="circle7"/>
	<circle cx="57.4611" cy="508.91" r="4" fill="#0" id="circle8"/>
	<circle cx="75.2814" cy="499.01" r="4" fill="#0" id="circle9"/>
	<circle cx="75.2814" cy="639.593" r="4" fill="#0" id="circle10"/>
	<circle cx="93.1018" cy="475.25" r="4" fill="#0" id="circle11"/>
	<circle cx="95.0818" cy="639.593" r="4" fill="#0" id="circle12"/>
	<circle cx="112.902" cy="465.349" r="4" fill="#0" id="circle13"/>
	<circle cx="112.902" cy="649.493" r="4" fill="#0" id="circle14"/>
	<circle cx="132.703" cy="459.409" r="4" fill="#0" id="circle15"/>
	<circle cx="132.703" cy="649.493" r="4" fill="#0" id="circle16"/>
	<circle cx="152.503" cy="455.449" r="4" fill="#0" id="circle17"/>
	<circle cx="152.503" cy="649.493" r="4" fill="#0" id="circle18"/>
	<circle cx="172.303" cy="445.549" r="4" fill="#0" id="circle19"/>
	<circle cx="172.303" cy="649.493" r="4" fill="#0" id="circle20"/>
	<circle cx="182.204" cy="425.749" r="4" fill="#0" id="circle21"/>
	<circle cx="192.104" cy="405.948" r="4" fill="#0" id="circle22"/>
	<circle cx="192.104" cy="649.493" r="4" fill="#0" id="circle23"/>
	<circle cx="209.924" cy="659.393" r="4" fill="#0" id="circle24"/>
	<circle cx="211.904" cy="396.048" r="4" fill="#0" id="circle25"/>
	<circle cx="221.804" cy="376.248" r="4" fill="#0" id="circle26"/>
	<circle cx="223.784" cy="675.234" r="4" fill="#0" id="circle27"/>
	<circle cx="241.605" cy="366.347" r="4" fill="#0" id="circle28"/>
	<circle cx="243.585" cy="683.154" r="4" fill="#0" id="circle29"/>
	<circle cx="261.405" cy="356.447" r="4" fill="#0" id="circle30"/>
	<circle cx="261.405" cy="693.054" r="4" fill="#0" id="circle31"/>
	<circle cx="281.206" cy="350.507" r="4" fill="#0" id="circle32"/>
	<circle cx="281.206" cy="698.994" r="4" fill="#0" id="circle33"/>
	<circle cx="301.006" cy="350.507" r="4" fill="#0" id="circle34"/>
	<circle cx="301.006" cy="698.994" r="4" fill="#0" id="circle35"/>
	<circle cx="318.826" cy="708.894" r="4" fill="#0" id="circle36"/>
	<circle cx="320.806" cy="350.507" r="4" fill="#0" id="circle37"/>
	<circle cx="336.647" cy="718.794" r="4" fill="#0" id="circle38"/>
	<circle cx="340.607" cy="350.507" r="4" fill="#0" id="circle39"/>
	<circle cx="356.447" cy="718.794" r="4" fill="#0" id="circle40"/>
	<circle cx="358.427" cy="340.607" r="4" fill="#0" id="circle41"/>
	<circle cx="376.248" cy="330.707" r="4" fill="#0" id="circle42"/>
	<circle cx="376.248" cy="726.715" r="4" fill="#0" id="circle43"/>
	<circle cx="380.208" cy="118.842" r="4" fill="#0" id="circle44"/>
	<circle cx="380.208" cy="138.643" r="4" fill="#0" id="circle45"/>
	<circle cx="396.048" cy="330.707" r="4" fill="#0" id="circle46"/>
	<circle cx="396.048" cy="728.695" r="4" fill="#0" id="circle47"/>
	<circle cx="400.008" cy="108.942" r="4" fill="#0" id="circle48"/>
	<circle cx="400.008" cy="144.583" r="4" fill="#0" id="circle49"/>
	<circle cx="415.848" cy="320.806" r="4" fill="#0" id="circle50"/>
	<circle cx="415.848" cy="728.695" r="4" fill="#0" id="circle51"/>
	<circle cx="417.828" cy="154.483" r="4" fill="#0" id="circle52"/>
	<circle cx="419.808" cy="103.002" r="4" fill="#0" id="circle53"/>
	<circle cx="435.649" cy="320.806" r="4" fill="#0" id="circle54"/>
	<circle cx="435.649" cy="728.695" r="4" fill="#0" id="circle55"/>
	<circle cx="437.629" cy="154.483" r="4" fill="#0" id="circle56"/>
	<circle cx="439.609" cy="103.002" r="4" fill="#0" id="circle57"/>
	<circle cx="455.449" cy="310.906" r="4" fill="#0" id="circle58"/>
	<circle cx="455.449" cy="728.695" r="4" fill="#0" id="circle59"/>
	<circle cx="457.429" cy="154.483" r="4" fill="#0" id="circle60"/>
	<circle cx="459.409" cy="103.002" r="4" fill="#0" id="circle61"/>
	<circle cx="465.349" cy="291.106" r="4" fill="#0" id="circle62"/>
	<circle cx="475.25" cy="271.305" r="4" fill="#0" id="circle63"/>
	<circle cx="475.25" cy="728.695" r="4" fill="#0" id="circle64"/>
	<circle cx="477.23" cy="154.483" r="4" fill="#0" id="circle65"/>
	<circle cx="479.21" cy="9.94012" r="4" fill="#0" id="circle66"/>
	<circle cx="479.21" cy="29.7405" r="4" fill="#0" id="circle67"/>
	<circle cx="479.21" cy="103.002" r="4" fill="#0" id="circle68"/>
	<circle cx="479.21" cy="174.283" r="4" fill="#0" id="circle69"/>
	<circle cx="479.21" cy="194.084" r="4" fill="#0" id="circle70"/>
	<circle cx="479.21" cy="213.884" r="4" fill="#0" id="circle71"/>
	<circle cx="479.21" cy="233.685" r="4" fill="#0" id="circle72"/>
	<circle cx="489.11" cy="47.5609" r="4" fill="#0" id="circle73"/>
	<circle cx="489.11" cy="67.3613" r="4" fill="#0" id="circle74"/>
	<circle cx="495.05" cy="728.695" r="4" fill="#0" id="circle75"/>
	<circle cx="499.01" cy="4" r="4" fill="#0" id="circle76"/>
	<circle cx="514.85" cy="728.695" r="4" fill="#0" id="circle77"/>
	<circle cx="518.81" cy="4" r="4" fill="#0" id="circle78"/>
	<circle cx="530.691" cy="19.8403" r="4" fill="#0" id="circle79"/>
	<circle cx="530.691" cy="39.6407" r="4" fill="#0" id="circle80"/>
	<circle cx="530.691" cy="59.4411" r="4" fill="#0" id="circle81"/>
	<circle cx="530.691" cy="79.2415" r="4" fill="#0" id="circle82"/>
	<circle cx="534.651" cy="728.695" r="4" fill="#0" id="circle83"/>
	<circle cx="540.591" cy="97.0619" r="4" fill="#0" id="circle84"/>
	<circle cx="540.591" cy="174.283" r="4" fill="#0" id="circle85"/>
	<circle cx="544.551" cy="194.084" r="4" fill="#0" id="circle86"/>
	<circle cx="550.491" cy="213.884" r="4" fill="#0" id="circle87"/>
	<circle cx="550.491" cy="233.685" r="4" fill="#0" id="circle88"/>
	<circle cx="550.491" cy="253.485" r="4" fill="#0" id="circle89"/>
	<circle cx="550.491" cy="273.285" r="4" fill="#0" id="circle90"/>
	<circle cx="552.471" cy="112.902" r="4" fill="#0" id="circle91"/>
	<circle cx="554.451" cy="728.695" r="4" fill="#0" id="circle92"/>
	<circle cx="556.431" cy="160.423" r="4" fill="#0" id="circle93"/>
	<circle cx="560.391" cy="291.106" r="4" fill="#0" id="circle94"/>
	<circle cx="560.391" cy="310.906" r="4" fill="#0" id="circle95"/>
	<circle cx="560.391" cy="330.707" r="4" fill="#0" id="circle96"/>
	<circle cx="572.271" cy="112.902" r="4" fill="#0" id="circle97"/>
	<circle cx="574.251" cy="728.695" r="4" fill="#0" id="circle98"/>
	<circle cx="576.232" cy="150.523" r="4" fill="#0" id="circle99"/>
	<circle cx="576.232" cy="342.587" r="4" fill="#0" id="circle100"/>
	<circle cx="592.072" cy="112.902" r="4" fill="#0" id="circle101"/>
	<circle cx="592.072" cy="738.595" r="4" fill="#0" id="circle102"/>
	<circle cx="596.032" cy="144.583" r="4" fill="#0" id="circle103"/>
	<circle cx="596.032" cy="350.507" r="4" fill="#0" id="circle104"/>
	<circle cx="611.872" cy="104.982" r="4" fill="#0" id="circle105"/>
	<circle cx="611.872" cy="738.595" r="4" fill="#0" id="circle106"/>
	<circle cx="615.832" cy="140.623" r="4" fill="#0" id="circle107"/>
	<circle cx="615.832" cy="352.487" r="4" fill="#0" id="circle108"/>
	<circle cx="631.673" cy="103.002" r="4" fill="#0" id="circle109"/>
	<circle cx="631.673" cy="738.595" r="4" fill="#0" id="circle110"/>
	<circle cx="635.633" cy="134.683" r="4" fill="#0" id="circle111"/>
	<circle cx="635.633" cy="360.407" r="4" fill="#0" id="circle112"/>
	<circle cx="647.513" cy="116.862" r="4" fill="#0" id="circle113"/>
	<circle cx="651.473" cy="738.595" r="4" fill="#0" id="circle114"/>
	<circle cx="655.433" cy="362.387" r="4" fill="#0" id="circle115"/>
	<circle cx="671.273" cy="738.595" r="4" fill="#0" id="circle116"/>
	<circle cx="675.234" cy="370.307" r="4" fill="#0" id="circle117"/>
	<circle cx="691.074" cy="738.595" r="4" fill="#0" id="circle118"/>
	<circle cx="695.034" cy="372.287" r="4" fill="#0" id="circle119"/>
	<circle cx="708.894" cy="728.695" r="4" fill="#0" id="circle120"/>
	<circle cx="714.834" cy="380.208" r="4" fill="#0" id="circle121"/>
	<circle cx="728.695" cy="728.695" r="4" fill="#0" id="circle122"/>
	<circle cx="734.635" cy="380.208" r="4" fill="#0" id="circle123"/>
	<circle cx="748.495" cy="718.794" r="4" fill="#0" id="circle124"/>
	<circle cx="754.435" cy="380.208" r="4" fill="#0" id="circle125"/>
	<circle cx="766.315" cy="708.894" r="4" fill="#0" id="circle126"/>
	<circle cx="774.236" cy="380.208" r="4" fill="#0" id="circle127"/>
	<circle cx="786.116" cy="708.894" r="4" fill="#0" id="circle128"/>
	<circle cx="794.036" cy="380.208" r="4" fill="#0" id="circle129"/>
	<circle cx="803.936" cy="698.994" r="4" fill="#0" id="circle130"/>
	<circle cx="811.856" cy="390.108" r="4" fill="#0" id="circle131"/>
	<circle cx="823.737" cy="698.994" r="4" fill="#0" id="circle132"/>
	<circle cx="827.697" cy="401.988" r="4" fill="#0" id="circle133"/>
	<circle cx="837.597" cy="419.808" r="4" fill="#0" id="circle134"/>
	<circle cx="837.597" cy="439.609" r="4" fill="#0" id="circle135"/>
	<circle cx="841.557" cy="689.094" r="4" fill="#0" id="circle136"/>
	<circle cx="847.497" cy="457.429" r="4" fill="#0" id="circle137"/>
	<circle cx="859.377" cy="679.194" r="4" fill="#0" id="circle138"/>
	<circle cx="867.297" cy="459.409" r="4" fill="#0" id="circle139"/>
	<circle cx="875.218" cy="663.353" r="4" fill="#0" id="circle140"/>
	<circle cx="887.098" cy="465.349" r="4" fill="#0" id="circle141"/>
	<circle cx="895.018" cy="653.453" r="4" fill="#0" id="circle142"/>
	<circle cx="904.918" cy="475.25" r="4" fill="#0" id="circle143"/>
	<circle cx="914.818" cy="649.493" r="4" fill="#0" id="circle144"/>
	<circle cx="924.719" cy="483.17" r="4" fill="#0" id="circle145"/>
	<circle cx="934.619" cy="643.553" r="4" fill="#0" id="circle146"/>
	<circle cx="936.599" cy="499.01" r="4" fill="#0" id="circle147"/>
	<circle cx="954.419" cy="508.91" r="4" fill="#0" id="circle148"/>
	<circle cx="954.419" cy="633.653" r="4" fill="#0" id="circle149"/>
	<circle cx="970.259" cy="520.79" r="4" fill="#0" id="circle150"/>
	<circle cx="974.22" cy="623.752" r="4" fill="#0" id="circle151"/>
	<circle cx="986.1" cy="534.651" r="4" fill="#0" id="circle152"/>
	<circle cx="986.1" cy="599.992" r="4" fill="#0" id="circle153"/>
	<circle cx="996" cy="552.471" r="4" fill="#0" id="circle154"/>
	<circle cx="996" cy="572.271" r="4" fill="#0" id="circle155"/>
	</g>
</svg>