<?xml version="1.0" encoding="UTF-8" standalone="no"?>
<!-- Created with CurveBenchmark -->
<svg
	xmlns:dc="http://purl.org/dc/elements/1.1/"
	xmlns:cc="http://creativecommons.org/ns#"
	xmlns:rdf="http://www.w3.org/1999/02/22-rdf-syntax-ns#"
	xmlns:svg="http://www.w3.org/2000/svg"
	xmlns="http://www.w3.org/2000/svg"
	xmlns:sodipodi="http://sodipodi.sourceforge.net/DTD/sodipodi-0.dtd"
	xmlns:inkscape="http://www.inkscape.org/namespaces/inkscape"
	width="1000"
	height="1000"
	id="svg2"
	version="1.1"
	sodipodi:docname="manifold/discur-tree-13.png.txt">
<defs
	id="defs4" />
<metadata
	id="metadata7">
	<rdf:RDF>
		<cc:Work
			rdf:about="">
			<dc:format>image/svg+xml</dc:format>
			<dc:type
				rdf:resource="http://purl.org/dc/dcmitype/StillImage" />
			<dc:title></dc:title>
		</cc:Work>
	</rdf:RDF>
</metadata>
<g
	inkscape:label="Layer 1"
	inkscape:groupmode="layer"
	id="layer1">
	<path style="fill:none;stroke:red;stroke-width:1px;stroke-linecap:butt;stroke-linejoin:miter;stroke-opacity:1" d="M 4,783.489 4,791.888 z" id="boundary" inkscape:connector-curvature="0" />
	<path style="fill:none;stroke:red;stroke-width:1px;stroke-linecap:butt;stroke-linejoin:miter;stroke-opacity:1" d="M 4,783.489 8.19983,775.089 z" id="boundary" inkscape:connector-curvature="0" />
	<path style="fill:none;stroke:red;stroke-width:1px;stroke-linecap:butt;stroke-linejoin:miter;stroke-opacity:1" d="M 4,791.888 8.19983,799.448 z" id="boundary" inkscape:connector-curvature="0" />
	<path style="fill:none;stroke:red;stroke-width:1px;stroke-linecap:butt;stroke-linejoin:miter;stroke-opacity:1" d="M 8.19983,775.089 14.9196,768.369 z" id="boundary" inkscape:connector-curvature="0" />
	<path style="fill:none;stroke:red;stroke-width:1px;stroke-linecap:butt;stroke-linejoin:miter;stroke-opacity:1" d="M 8.19983,799.448 14.0796,806.168 z" id="boundary" inkscape:connector-curvature="0" />
	<path style="fill:none;stroke:red;stroke-width:1px;stroke-linecap:butt;stroke-linejoin:miter;stroke-opacity:1" d="M 14.0796,806.168 22.4793,807.008 z" id="boundary" inkscape:connector-curvature="0" />
	<path style="fill:none;stroke:red;stroke-width:1px;stroke-linecap:butt;stroke-linejoin:miter;stroke-opacity:1" d="M 14.9196,768.369 16.5995,758.29 z" id="boundary" inkscape:connector-curvature="0" />
	<path style="fill:none;stroke:red;stroke-width:1px;stroke-linecap:butt;stroke-linejoin:miter;stroke-opacity:1" d="M 16.5995,758.29 23.3192,751.57 z" id="boundary" inkscape:connector-curvature="0" />
	<path style="fill:none;stroke:red;stroke-width:1px;stroke-linecap:butt;stroke-linejoin:miter;stroke-opacity:1" d="M 22.4793,807.008 30.8789,807.008 z" id="boundary" inkscape:connector-curvature="0" />
	<path style="fill:none;stroke:red;stroke-width:1px;stroke-linecap:butt;stroke-linejoin:miter;stroke-opacity:1" d="M 23.3192,751.57 27.5191,743.17 z" id="boundary" inkscape:connector-curvature="0" />
	<path style="fill:none;stroke:red;stroke-width:1px;stroke-linecap:butt;stroke-linejoin:miter;stroke-opacity:1" d="M 27.5191,743.17 33.3988,733.091 z" id="boundary" inkscape:connector-curvature="0" />
	<path style="fill:none;stroke:red;stroke-width:1px;stroke-linecap:butt;stroke-linejoin:miter;stroke-opacity:1" d="M 30.8789,807.008 39.2786,807.008 z" id="boundary" inkscape:connector-curvature="0" />
	<path style="fill:none;stroke:red;stroke-width:1px;stroke-linecap:butt;stroke-linejoin:miter;stroke-opacity:1" d="M 33.3988,733.091 40.1185,726.371 z" id="boundary" inkscape:connector-curvature="0" />
	<path style="fill:none;stroke:red;stroke-width:1px;stroke-linecap:butt;stroke-linejoin:miter;stroke-opacity:1" d="M 39.2786,807.008 47.6782,807.008 z" id="boundary" inkscape:connector-curvature="0" />
	<path style="fill:none;stroke:red;stroke-width:1px;stroke-linecap:butt;stroke-linejoin:miter;stroke-opacity:1" d="M 40.1185,726.371 44.3184,717.971 z" id="boundary" inkscape:connector-curvature="0" />
	<path style="fill:none;stroke:red;stroke-width:1px;stroke-linecap:butt;stroke-linejoin:miter;stroke-opacity:1" d="M 44.3184,717.971 51.0381,711.251 z" id="boundary" inkscape:connector-curvature="0" />
	<path style="fill:none;stroke:red;stroke-width:1px;stroke-linecap:butt;stroke-linejoin:miter;stroke-opacity:1" d="M 47.6782,807.008 56.0779,807.008 z" id="boundary" inkscape:connector-curvature="0" />
	<path style="fill:none;stroke:red;stroke-width:1px;stroke-linecap:butt;stroke-linejoin:miter;stroke-opacity:1" d="M 51.0381,711.251 55.2379,702.852 z" id="boundary" inkscape:connector-curvature="0" />
	<path style="fill:none;stroke:red;stroke-width:1px;stroke-linecap:butt;stroke-linejoin:miter;stroke-opacity:1" d="M 55.2379,702.852 61.9577,696.972 z" id="boundary" inkscape:connector-curvature="0" />
	<path style="fill:none;stroke:red;stroke-width:1px;stroke-linecap:butt;stroke-linejoin:miter;stroke-opacity:1" d="M 56.0779,807.008 64.4776,807.008 z" id="boundary" inkscape:connector-curvature="0" />
	<path style="fill:none;stroke:red;stroke-width:1px;stroke-linecap:butt;stroke-linejoin:miter;stroke-opacity:1" d="M 58.5978,594.496 58.5978,602.896 z" id="boundary" inkscape:connector-curvature="0" />
	<path style="fill:none;stroke:red;stroke-width:1px;stroke-linecap:butt;stroke-linejoin:miter;stroke-opacity:1" d="M 58.5978,594.496 65.3175,587.776 z" id="boundary" inkscape:connector-curvature="0" />
	<path style="fill:none;stroke:red;stroke-width:1px;stroke-linecap:butt;stroke-linejoin:miter;stroke-opacity:1" d="M 58.5978,602.896 58.5978,611.296 z" id="boundary" inkscape:connector-curvature="0" />
	<path style="fill:none;stroke:red;stroke-width:1px;stroke-linecap:butt;stroke-linejoin:miter;stroke-opacity:1" d="M 58.5978,611.296 62.7976,618.855 z" id="boundary" inkscape:connector-curvature="0" />
	<path style="fill:none;stroke:red;stroke-width:1px;stroke-linecap:butt;stroke-linejoin:miter;stroke-opacity:1" d="M 61.9577,696.972 67.8374,690.252 z" id="boundary" inkscape:connector-curvature="0" />
	<path style="fill:none;stroke:red;stroke-width:1px;stroke-linecap:butt;stroke-linejoin:miter;stroke-opacity:1" d="M 62.7976,618.855 68.6774,625.575 z" id="boundary" inkscape:connector-curvature="0" />
	<path style="fill:none;stroke:red;stroke-width:1px;stroke-linecap:butt;stroke-linejoin:miter;stroke-opacity:1" d="M 64.4776,807.008 72.8772,807.008 z" id="boundary" inkscape:connector-curvature="0" />
	<path style="fill:none;stroke:red;stroke-width:1px;stroke-linecap:butt;stroke-linejoin:miter;stroke-opacity:1" d="M 65.3175,587.776 71.1973,577.697 z" id="boundary" inkscape:connector-curvature="0" />
	<path style="fill:none;stroke:red;stroke-width:1px;stroke-linecap:butt;stroke-linejoin:miter;stroke-opacity:1" d="M 67.8374,690.252 74.5572,684.373 z" id="boundary" inkscape:connector-curvature="0" />
	<path style="fill:none;stroke:red;stroke-width:1px;stroke-linecap:butt;stroke-linejoin:miter;stroke-opacity:1" d="M 68.6774,625.575 77.0771,626.415 z" id="boundary" inkscape:connector-curvature="0" />
	<path style="fill:none;stroke:red;stroke-width:1px;stroke-linecap:butt;stroke-linejoin:miter;stroke-opacity:1" d="M 71.1973,577.697 77.917,570.977 z" id="boundary" inkscape:connector-curvature="0" />
	<path style="fill:none;stroke:red;stroke-width:1px;stroke-linecap:butt;stroke-linejoin:miter;stroke-opacity:1" d="M 72.8772,807.008 81.2769,807.008 z" id="boundary" inkscape:connector-curvature="0" />
	<path style="fill:none;stroke:red;stroke-width:1px;stroke-linecap:butt;stroke-linejoin:miter;stroke-opacity:1" d="M 74.5572,684.373 80.4369,677.653 z" id="boundary" inkscape:connector-curvature="0" />
	<path style="fill:none;stroke:red;stroke-width:1px;stroke-linecap:butt;stroke-linejoin:miter;stroke-opacity:1" d="M 77.0771,626.415 85.4767,626.415 z" id="boundary" inkscape:connector-curvature="0" />
	<path style="fill:none;stroke:red;stroke-width:1px;stroke-linecap:butt;stroke-linejoin:miter;stroke-opacity:1" d="M 77.917,570.977 82.1169,562.577 z" id="boundary" inkscape:connector-curvature="0" />
	<path style="fill:none;stroke:red;stroke-width:1px;stroke-linecap:butt;stroke-linejoin:miter;stroke-opacity:1" d="M 80.4369,677.653 87.1566,671.773 z" id="boundary" inkscape:connector-curvature="0" />
	<path style="fill:none;stroke:red;stroke-width:1px;stroke-linecap:butt;stroke-linejoin:miter;stroke-opacity:1" d="M 81.2769,807.008 89.6765,807.008 z" id="boundary" inkscape:connector-curvature="0" />
	<path style="fill:none;stroke:red;stroke-width:1px;stroke-linecap:butt;stroke-linejoin:miter;stroke-opacity:1" d="M 82.1169,562.577 87.9966,552.498 z" id="boundary" inkscape:connector-curvature="0" />
	<path style="fill:none;stroke:red;stroke-width:1px;stroke-linecap:butt;stroke-linejoin:miter;stroke-opacity:1" d="M 85.4767,626.415 93.0364,622.215 z" id="boundary" inkscape:connector-curvature="0" />
	<path style="fill:none;stroke:red;stroke-width:1px;stroke-linecap:butt;stroke-linejoin:miter;stroke-opacity:1" d="M 87.1566,671.773 90.5165,663.373 z" id="boundary" inkscape:connector-curvature="0" />
	<path style="fill:none;stroke:red;stroke-width:1px;stroke-linecap:butt;stroke-linejoin:miter;stroke-opacity:1" d="M 87.9966,552.498 94.7163,545.778 z" id="boundary" inkscape:connector-curvature="0" />
	<path style="fill:none;stroke:red;stroke-width:1px;stroke-linecap:butt;stroke-linejoin:miter;stroke-opacity:1" d="M 89.6765,807.008 97.2362,802.808 z" id="boundary" inkscape:connector-curvature="0" />
	<path style="fill:none;stroke:red;stroke-width:1px;stroke-linecap:butt;stroke-linejoin:miter;stroke-opacity:1" d="M 90.5165,663.373 97.2362,656.654 z" id="boundary" inkscape:connector-curvature="0" />
	<path style="fill:none;stroke:red;stroke-width:1px;stroke-linecap:butt;stroke-linejoin:miter;stroke-opacity:1" d="M 93.0364,622.215 101.436,622.215 z" id="boundary" inkscape:connector-curvature="0" />
	<path style="fill:none;stroke:red;stroke-width:1px;stroke-linecap:butt;stroke-linejoin:miter;stroke-opacity:1" d="M 94.7163,545.778 98.9162,537.378 z" id="boundary" inkscape:connector-curvature="0" />
	<path style="fill:none;stroke:red;stroke-width:1px;stroke-linecap:butt;stroke-linejoin:miter;stroke-opacity:1" d="M 97.2362,656.654 103.956,650.774 z" id="boundary" inkscape:connector-curvature="0" />
	<path style="fill:none;stroke:red;stroke-width:1px;stroke-linecap:butt;stroke-linejoin:miter;stroke-opacity:1" d="M 97.2362,802.808 105.636,802.808 z" id="boundary" inkscape:connector-curvature="0" />
	<path style="fill:none;stroke:red;stroke-width:1px;stroke-linecap:butt;stroke-linejoin:miter;stroke-opacity:1" d="M 98.9162,537.378 105.636,530.659 z" id="boundary" inkscape:connector-curvature="0" />
	<path style="fill:none;stroke:red;stroke-width:1px;stroke-linecap:butt;stroke-linejoin:miter;stroke-opacity:1" d="M 101.436,622.215 109.836,622.215 z" id="boundary" inkscape:connector-curvature="0" />
	<path style="fill:none;stroke:red;stroke-width:1px;stroke-linecap:butt;stroke-linejoin:miter;stroke-opacity:1" d="M 103.956,650.774 107.316,642.374 z" id="boundary" inkscape:connector-curvature="0" />
	<path style="fill:none;stroke:red;stroke-width:1px;stroke-linecap:butt;stroke-linejoin:miter;stroke-opacity:1" d="M 105.636,530.659 109.836,522.259 z" id="boundary" inkscape:connector-curvature="0" />
	<path style="fill:none;stroke:red;stroke-width:1px;stroke-linecap:butt;stroke-linejoin:miter;stroke-opacity:1" d="M 105.636,802.808 114.036,802.808 z" id="boundary" inkscape:connector-curvature="0" />
	<path style="fill:none;stroke:red;stroke-width:1px;stroke-linecap:butt;stroke-linejoin:miter;stroke-opacity:1" d="M 107.316,642.374 113.196,632.295 z" id="boundary" inkscape:connector-curvature="0" />
	<path style="fill:none;stroke:red;stroke-width:1px;stroke-linecap:butt;stroke-linejoin:miter;stroke-opacity:1" d="M 109.836,522.259 116.555,516.379 z" id="boundary" inkscape:connector-curvature="0" />
	<path style="fill:none;stroke:red;stroke-width:1px;stroke-linecap:butt;stroke-linejoin:miter;stroke-opacity:1" d="M 109.836,622.215 118.235,618.015 z" id="boundary" inkscape:connector-curvature="0" />
	<path style="fill:none;stroke:red;stroke-width:1px;stroke-linecap:butt;stroke-linejoin:miter;stroke-opacity:1" d="M 113.196,632.295 119.915,626.415 z" id="boundary" inkscape:connector-curvature="0" />
	<path style="fill:none;stroke:red;stroke-width:1px;stroke-linecap:butt;stroke-linejoin:miter;stroke-opacity:1" d="M 114.036,802.808 121.595,807.008 z" id="boundary" inkscape:connector-curvature="0" />
	<path style="fill:none;stroke:red;stroke-width:1px;stroke-linecap:butt;stroke-linejoin:miter;stroke-opacity:1" d="M 116.555,516.379 119.915,507.98 z" id="boundary" inkscape:connector-curvature="0" />
	<path style="fill:none;stroke:red;stroke-width:1px;stroke-linecap:butt;stroke-linejoin:miter;stroke-opacity:1" d="M 118.235,618.015 119.915,626.415 z" id="boundary" inkscape:connector-curvature="0" />
	<path style="fill:none;stroke:red;stroke-width:1px;stroke-linecap:butt;stroke-linejoin:miter;stroke-opacity:1" d="M 119.915,507.98 125.795,493.7 z" id="boundary" inkscape:connector-curvature="0" />
	<path style="fill:none;stroke:red;stroke-width:1px;stroke-linecap:butt;stroke-linejoin:miter;stroke-opacity:1" d="M 121.595,807.008 129.995,807.008 z" id="boundary" inkscape:connector-curvature="0" />
	<path style="fill:none;stroke:red;stroke-width:1px;stroke-linecap:butt;stroke-linejoin:miter;stroke-opacity:1" d="M 125.795,363.506 125.795,371.905 z" id="boundary" inkscape:connector-curvature="0" />
	<path style="fill:none;stroke:red;stroke-width:1px;stroke-linecap:butt;stroke-linejoin:miter;stroke-opacity:1" d="M 125.795,363.506 132.515,356.786 z" id="boundary" inkscape:connector-curvature="0" />
	<path style="fill:none;stroke:red;stroke-width:1px;stroke-linecap:butt;stroke-linejoin:miter;stroke-opacity:1" d="M 125.795,371.905 132.515,377.785 z" id="boundary" inkscape:connector-curvature="0" />
	<path style="fill:none;stroke:red;stroke-width:1px;stroke-linecap:butt;stroke-linejoin:miter;stroke-opacity:1" d="M 125.795,493.7 129.995,485.301 z" id="boundary" inkscape:connector-curvature="0" />
	<path style="fill:none;stroke:red;stroke-width:1px;stroke-linecap:butt;stroke-linejoin:miter;stroke-opacity:1" d="M 129.995,485.301 136.715,478.581 z" id="boundary" inkscape:connector-curvature="0" />
	<path style="fill:none;stroke:red;stroke-width:1px;stroke-linecap:butt;stroke-linejoin:miter;stroke-opacity:1" d="M 129.995,807.008 137.555,811.207 z" id="boundary" inkscape:connector-curvature="0" />
	<path style="fill:none;stroke:red;stroke-width:1px;stroke-linecap:butt;stroke-linejoin:miter;stroke-opacity:1" d="M 132.515,356.786 140.075,352.586 z" id="boundary" inkscape:connector-curvature="0" />
	<path style="fill:none;stroke:red;stroke-width:1px;stroke-linecap:butt;stroke-linejoin:miter;stroke-opacity:1" d="M 132.515,377.785 138.395,384.505 z" id="boundary" inkscape:connector-curvature="0" />
	<path style="fill:none;stroke:red;stroke-width:1px;stroke-linecap:butt;stroke-linejoin:miter;stroke-opacity:1" d="M 136.715,478.581 140.914,470.181 z" id="boundary" inkscape:connector-curvature="0" />
	<path style="fill:none;stroke:red;stroke-width:1px;stroke-linecap:butt;stroke-linejoin:miter;stroke-opacity:1" d="M 137.555,811.207 143.434,817.927 z" id="boundary" inkscape:connector-curvature="0" />
	<path style="fill:none;stroke:red;stroke-width:1px;stroke-linecap:butt;stroke-linejoin:miter;stroke-opacity:1" d="M 138.395,384.505 146.794,387.025 z" id="boundary" inkscape:connector-curvature="0" />
	<path style="fill:none;stroke:red;stroke-width:1px;stroke-linecap:butt;stroke-linejoin:miter;stroke-opacity:1" d="M 140.075,352.586 144.274,345.026 z" id="boundary" inkscape:connector-curvature="0" />
	<path style="fill:none;stroke:red;stroke-width:1px;stroke-linecap:butt;stroke-linejoin:miter;stroke-opacity:1" d="M 140.914,470.181 146.794,455.902 z" id="boundary" inkscape:connector-curvature="0" />
	<path style="fill:none;stroke:red;stroke-width:1px;stroke-linecap:butt;stroke-linejoin:miter;stroke-opacity:1" d="M 143.434,817.927 151.834,821.287 z" id="boundary" inkscape:connector-curvature="0" />
	<path style="fill:none;stroke:red;stroke-width:1px;stroke-linecap:butt;stroke-linejoin:miter;stroke-opacity:1" d="M 144.274,345.026 150.994,338.307 z" id="boundary" inkscape:connector-curvature="0" />
	<path style="fill:none;stroke:red;stroke-width:1px;stroke-linecap:butt;stroke-linejoin:miter;stroke-opacity:1" d="M 146.794,387.025 155.194,387.025 z" id="boundary" inkscape:connector-curvature="0" />
	<path style="fill:none;stroke:red;stroke-width:1px;stroke-linecap:butt;stroke-linejoin:miter;stroke-opacity:1" d="M 146.794,455.902 150.994,447.502 z" id="boundary" inkscape:connector-curvature="0" />
	<path style="fill:none;stroke:red;stroke-width:1px;stroke-linecap:butt;stroke-linejoin:miter;stroke-opacity:1" d="M 150.994,338.307 157.714,331.587 z" id="boundary" inkscape:connector-curvature="0" />
	<path style="fill:none;stroke:red;stroke-width:1px;stroke-linecap:butt;stroke-linejoin:miter;stroke-opacity:1" d="M 150.994,447.502 155.194,439.102 z" id="boundary" inkscape:connector-curvature="0" />
	<path style="fill:none;stroke:red;stroke-width:1px;stroke-linecap:butt;stroke-linejoin:miter;stroke-opacity:1" d="M 151.834,821.287 160.234,823.807 z" id="boundary" inkscape:connector-curvature="0" />
	<path style="fill:none;stroke:red;stroke-width:1px;stroke-linecap:butt;stroke-linejoin:miter;stroke-opacity:1" d="M 155.194,387.025 163.594,387.025 z" id="boundary" inkscape:connector-curvature="0" />
	<path style="fill:none;stroke:red;stroke-width:1px;stroke-linecap:butt;stroke-linejoin:miter;stroke-opacity:1" d="M 155.194,439.102 161.914,432.383 z" id="boundary" inkscape:connector-curvature="0" />
	<path style="fill:none;stroke:red;stroke-width:1px;stroke-linecap:butt;stroke-linejoin:miter;stroke-opacity:1" d="M 157.714,331.587 164.434,324.867 z" id="boundary" inkscape:connector-curvature="0" />
	<path style="fill:none;stroke:red;stroke-width:1px;stroke-linecap:butt;stroke-linejoin:miter;stroke-opacity:1" d="M 160.234,823.807 167.793,828.007 z" id="boundary" inkscape:connector-curvature="0" />
	<path style="fill:none;stroke:red;stroke-width:1px;stroke-linecap:butt;stroke-linejoin:miter;stroke-opacity:1" d="M 161.914,432.383 163.594,422.303 z" id="boundary" inkscape:connector-curvature="0" />
	<path style="fill:none;stroke:red;stroke-width:1px;stroke-linecap:butt;stroke-linejoin:miter;stroke-opacity:1" d="M 163.594,387.025 171.993,387.025 z" id="boundary" inkscape:connector-curvature="0" />
	<path style="fill:none;stroke:red;stroke-width:1px;stroke-linecap:butt;stroke-linejoin:miter;stroke-opacity:1" d="M 163.594,422.303 167.793,409.704 z" id="boundary" inkscape:connector-curvature="0" />
	<path style="fill:none;stroke:red;stroke-width:1px;stroke-linecap:butt;stroke-linejoin:miter;stroke-opacity:1" d="M 164.434,324.867 171.153,318.987 z" id="boundary" inkscape:connector-curvature="0" />
	<path style="fill:none;stroke:red;stroke-width:1px;stroke-linecap:butt;stroke-linejoin:miter;stroke-opacity:1" d="M 167.793,409.704 171.993,401.304 z" id="boundary" inkscape:connector-curvature="0" />
	<path style="fill:none;stroke:red;stroke-width:1px;stroke-linecap:butt;stroke-linejoin:miter;stroke-opacity:1" d="M 167.793,828.007 176.193,828.007 z" id="boundary" inkscape:connector-curvature="0" />
	<path style="fill:none;stroke:red;stroke-width:1px;stroke-linecap:butt;stroke-linejoin:miter;stroke-opacity:1" d="M 171.153,318.987 174.513,310.588 z" id="boundary" inkscape:connector-curvature="0" />
	<path style="fill:none;stroke:red;stroke-width:1px;stroke-linecap:butt;stroke-linejoin:miter;stroke-opacity:1" d="M 171.993,387.025 171.993,401.304 z" id="boundary" inkscape:connector-curvature="0" />
	<path style="fill:none;stroke:red;stroke-width:1px;stroke-linecap:butt;stroke-linejoin:miter;stroke-opacity:1" d="M 174.513,310.588 181.233,303.868 z" id="boundary" inkscape:connector-curvature="0" />
	<path style="fill:none;stroke:red;stroke-width:1px;stroke-linecap:butt;stroke-linejoin:miter;stroke-opacity:1" d="M 176.193,828.007 184.593,828.007 z" id="boundary" inkscape:connector-curvature="0" />
	<path style="fill:none;stroke:red;stroke-width:1px;stroke-linecap:butt;stroke-linejoin:miter;stroke-opacity:1" d="M 181.233,303.868 185.433,295.468 z" id="boundary" inkscape:connector-curvature="0" />
	<path style="fill:none;stroke:red;stroke-width:1px;stroke-linecap:butt;stroke-linejoin:miter;stroke-opacity:1" d="M 184.593,828.007 192.152,832.207 z" id="boundary" inkscape:connector-curvature="0" />
	<path style="fill:none;stroke:red;stroke-width:1px;stroke-linecap:butt;stroke-linejoin:miter;stroke-opacity:1" d="M 185.433,295.468 188.793,283.709 z" id="boundary" inkscape:connector-curvature="0" />
	<path style="fill:none;stroke:red;stroke-width:1px;stroke-linecap:butt;stroke-linejoin:miter;stroke-opacity:1" d="M 188.793,283.709 195.512,276.989 z" id="boundary" inkscape:connector-curvature="0" />
	<path style="fill:none;stroke:red;stroke-width:1px;stroke-linecap:butt;stroke-linejoin:miter;stroke-opacity:1" d="M 192.152,832.207 200.552,832.207 z" id="boundary" inkscape:connector-curvature="0" />
	<path style="fill:none;stroke:red;stroke-width:1px;stroke-linecap:butt;stroke-linejoin:miter;stroke-opacity:1" d="M 195.512,276.989 199.712,268.589 z" id="boundary" inkscape:connector-curvature="0" />
	<path style="fill:none;stroke:red;stroke-width:1px;stroke-linecap:butt;stroke-linejoin:miter;stroke-opacity:1" d="M 199.712,268.589 205.592,258.51 z" id="boundary" inkscape:connector-curvature="0" />
	<path style="fill:none;stroke:red;stroke-width:1px;stroke-linecap:butt;stroke-linejoin:miter;stroke-opacity:1" d="M 200.552,832.207 208.952,832.207 z" id="boundary" inkscape:connector-curvature="0" />
	<path style="fill:none;stroke:red;stroke-width:1px;stroke-linecap:butt;stroke-linejoin:miter;stroke-opacity:1" d="M 201.392,161.914 201.392,170.313 z" id="boundary" inkscape:connector-curvature="0" />
	<path style="fill:none;stroke:red;stroke-width:1px;stroke-linecap:butt;stroke-linejoin:miter;stroke-opacity:1" d="M 201.392,161.914 208.112,155.194 z" id="boundary" inkscape:connector-curvature="0" />
	<path style="fill:none;stroke:red;stroke-width:1px;stroke-linecap:butt;stroke-linejoin:miter;stroke-opacity:1" d="M 201.392,170.313 205.592,177.873 z" id="boundary" inkscape:connector-curvature="0" />
	<path style="fill:none;stroke:red;stroke-width:1px;stroke-linecap:butt;stroke-linejoin:miter;stroke-opacity:1" d="M 205.592,177.873 211.472,184.593 z" id="boundary" inkscape:connector-curvature="0" />
	<path style="fill:none;stroke:red;stroke-width:1px;stroke-linecap:butt;stroke-linejoin:miter;stroke-opacity:1" d="M 205.592,258.51 212.312,251.79 z" id="boundary" inkscape:connector-curvature="0" />
	<path style="fill:none;stroke:red;stroke-width:1px;stroke-linecap:butt;stroke-linejoin:miter;stroke-opacity:1" d="M 208.112,155.194 213.992,145.114 z" id="boundary" inkscape:connector-curvature="0" />
	<path style="fill:none;stroke:red;stroke-width:1px;stroke-linecap:butt;stroke-linejoin:miter;stroke-opacity:1" d="M 208.952,832.207 217.351,832.207 z" id="boundary" inkscape:connector-curvature="0" />
	<path style="fill:none;stroke:red;stroke-width:1px;stroke-linecap:butt;stroke-linejoin:miter;stroke-opacity:1" d="M 211.472,184.593 219.871,185.433 z" id="boundary" inkscape:connector-curvature="0" />
	<path style="fill:none;stroke:red;stroke-width:1px;stroke-linecap:butt;stroke-linejoin:miter;stroke-opacity:1" d="M 212.312,251.79 216.511,243.39 z" id="boundary" inkscape:connector-curvature="0" />
	<path style="fill:none;stroke:red;stroke-width:1px;stroke-linecap:butt;stroke-linejoin:miter;stroke-opacity:1" d="M 213.992,145.114 220.711,138.395 z" id="boundary" inkscape:connector-curvature="0" />
	<path style="fill:none;stroke:red;stroke-width:1px;stroke-linecap:butt;stroke-linejoin:miter;stroke-opacity:1" d="M 216.511,243.39 222.391,233.311 z" id="boundary" inkscape:connector-curvature="0" />
	<path style="fill:none;stroke:red;stroke-width:1px;stroke-linecap:butt;stroke-linejoin:miter;stroke-opacity:1" d="M 217.351,832.207 224.911,836.406 z" id="boundary" inkscape:connector-curvature="0" />
	<path style="fill:none;stroke:red;stroke-width:1px;stroke-linecap:butt;stroke-linejoin:miter;stroke-opacity:1" d="M 219.871,185.433 228.271,185.433 z" id="boundary" inkscape:connector-curvature="0" />
	<path style="fill:none;stroke:red;stroke-width:1px;stroke-linecap:butt;stroke-linejoin:miter;stroke-opacity:1" d="M 220.711,138.395 227.431,131.675 z" id="boundary" inkscape:connector-curvature="0" />
	<path style="fill:none;stroke:red;stroke-width:1px;stroke-linecap:butt;stroke-linejoin:miter;stroke-opacity:1" d="M 222.391,233.311 226.591,220.711 z" id="boundary" inkscape:connector-curvature="0" />
	<path style="fill:none;stroke:red;stroke-width:1px;stroke-linecap:butt;stroke-linejoin:miter;stroke-opacity:1" d="M 224.911,836.406 233.311,836.406 z" id="boundary" inkscape:connector-curvature="0" />
	<path style="fill:none;stroke:red;stroke-width:1px;stroke-linecap:butt;stroke-linejoin:miter;stroke-opacity:1" d="M 226.591,220.711 233.311,213.992 z" id="boundary" inkscape:connector-curvature="0" />
	<path style="fill:none;stroke:red;stroke-width:1px;stroke-linecap:butt;stroke-linejoin:miter;stroke-opacity:1" d="M 227.431,131.675 234.151,125.795 z" id="boundary" inkscape:connector-curvature="0" />
	<path style="fill:none;stroke:red;stroke-width:1px;stroke-linecap:butt;stroke-linejoin:miter;stroke-opacity:1" d="M 228.271,185.433 236.671,185.433 z" id="boundary" inkscape:connector-curvature="0" />
	<path style="fill:none;stroke:red;stroke-width:1px;stroke-linecap:butt;stroke-linejoin:miter;stroke-opacity:1" d="M 233.311,213.992 237.511,205.592 z" id="boundary" inkscape:connector-curvature="0" />
	<path style="fill:none;stroke:red;stroke-width:1px;stroke-linecap:butt;stroke-linejoin:miter;stroke-opacity:1" d="M 233.311,836.406 241.71,836.406 z" id="boundary" inkscape:connector-curvature="0" />
	<path style="fill:none;stroke:red;stroke-width:1px;stroke-linecap:butt;stroke-linejoin:miter;stroke-opacity:1" d="M 234.151,125.795 239.191,115.715 z" id="boundary" inkscape:connector-curvature="0" />
	<path style="fill:none;stroke:red;stroke-width:1px;stroke-linecap:butt;stroke-linejoin:miter;stroke-opacity:1" d="M 236.671,185.433 239.191,195.512 z" id="boundary" inkscape:connector-curvature="0" />
	<path style="fill:none;stroke:red;stroke-width:1px;stroke-linecap:butt;stroke-linejoin:miter;stroke-opacity:1" d="M 237.511,205.592 239.191,195.512 z" id="boundary" inkscape:connector-curvature="0" />
	<path style="fill:none;stroke:red;stroke-width:1px;stroke-linecap:butt;stroke-linejoin:miter;stroke-opacity:1" d="M 239.191,115.715 245.91,108.996 z" id="boundary" inkscape:connector-curvature="0" />
	<path style="fill:none;stroke:red;stroke-width:1px;stroke-linecap:butt;stroke-linejoin:miter;stroke-opacity:1" d="M 241.71,836.406 250.11,836.406 z" id="boundary" inkscape:connector-curvature="0" />
	<path style="fill:none;stroke:red;stroke-width:1px;stroke-linecap:butt;stroke-linejoin:miter;stroke-opacity:1" d="M 245.91,108.996 253.47,104.796 z" id="boundary" inkscape:connector-curvature="0" />
	<path style="fill:none;stroke:red;stroke-width:1px;stroke-linecap:butt;stroke-linejoin:miter;stroke-opacity:1" d="M 247.59,859.086 247.59,867.485 z" id="boundary" inkscape:connector-curvature="0" />
	<path style="fill:none;stroke:red;stroke-width:1px;stroke-linecap:butt;stroke-linejoin:miter;stroke-opacity:1" d="M 247.59,859.086 251.79,844.806 z" id="boundary" inkscape:connector-curvature="0" />
	<path style="fill:none;stroke:red;stroke-width:1px;stroke-linecap:butt;stroke-linejoin:miter;stroke-opacity:1" d="M 247.59,867.485 247.59,875.885 z" id="boundary" inkscape:connector-curvature="0" />
	<path style="fill:none;stroke:red;stroke-width:1px;stroke-linecap:butt;stroke-linejoin:miter;stroke-opacity:1" d="M 247.59,875.885 247.59,884.285 z" id="boundary" inkscape:connector-curvature="0" />
	<path style="fill:none;stroke:red;stroke-width:1px;stroke-linecap:butt;stroke-linejoin:miter;stroke-opacity:1" d="M 247.59,884.285 247.59,892.684 z" id="boundary" inkscape:connector-curvature="0" />
	<path style="fill:none;stroke:red;stroke-width:1px;stroke-linecap:butt;stroke-linejoin:miter;stroke-opacity:1" d="M 247.59,892.684 247.59,901.084 z" id="boundary" inkscape:connector-curvature="0" />
	<path style="fill:none;stroke:red;stroke-width:1px;stroke-linecap:butt;stroke-linejoin:miter;stroke-opacity:1" d="M 247.59,901.084 247.59,909.483 z" id="boundary" inkscape:connector-curvature="0" />
	<path style="fill:none;stroke:red;stroke-width:1px;stroke-linecap:butt;stroke-linejoin:miter;stroke-opacity:1" d="M 247.59,909.483 247.59,917.883 z" id="boundary" inkscape:connector-curvature="0" />
	<path style="fill:none;stroke:red;stroke-width:1px;stroke-linecap:butt;stroke-linejoin:miter;stroke-opacity:1" d="M 247.59,917.883 247.59,926.283 z" id="boundary" inkscape:connector-curvature="0" />
	<path style="fill:none;stroke:red;stroke-width:1px;stroke-linecap:butt;stroke-linejoin:miter;stroke-opacity:1" d="M 247.59,926.283 247.59,934.682 z" id="boundary" inkscape:connector-curvature="0" />
	<path style="fill:none;stroke:red;stroke-width:1px;stroke-linecap:butt;stroke-linejoin:miter;stroke-opacity:1" d="M 247.59,934.682 247.59,943.082 z" id="boundary" inkscape:connector-curvature="0" />
	<path style="fill:none;stroke:red;stroke-width:1px;stroke-linecap:butt;stroke-linejoin:miter;stroke-opacity:1" d="M 247.59,943.082 247.59,951.482 z" id="boundary" inkscape:connector-curvature="0" />
	<path style="fill:none;stroke:red;stroke-width:1px;stroke-linecap:butt;stroke-linejoin:miter;stroke-opacity:1" d="M 247.59,951.482 247.59,959.881 z" id="boundary" inkscape:connector-curvature="0" />
	<path style="fill:none;stroke:red;stroke-width:1px;stroke-linecap:butt;stroke-linejoin:miter;stroke-opacity:1" d="M 247.59,959.881 247.59,968.281 z" id="boundary" inkscape:connector-curvature="0" />
	<path style="fill:none;stroke:red;stroke-width:1px;stroke-linecap:butt;stroke-linejoin:miter;stroke-opacity:1" d="M 247.59,968.281 247.59,976.681 z" id="boundary" inkscape:connector-curvature="0" />
	<path style="fill:none;stroke:red;stroke-width:1px;stroke-linecap:butt;stroke-linejoin:miter;stroke-opacity:1" d="M 247.59,976.681 254.31,982.561 z" id="boundary" inkscape:connector-curvature="0" />
	<path style="fill:none;stroke:red;stroke-width:1px;stroke-linecap:butt;stroke-linejoin:miter;stroke-opacity:1" d="M 250.11,836.406 251.79,844.806 z" id="boundary" inkscape:connector-curvature="0" />
	<path style="fill:none;stroke:red;stroke-width:1px;stroke-linecap:butt;stroke-linejoin:miter;stroke-opacity:1" d="M 253.47,104.796 257.67,97.2362 z" id="boundary" inkscape:connector-curvature="0" />
	<path style="fill:none;stroke:red;stroke-width:1px;stroke-linecap:butt;stroke-linejoin:miter;stroke-opacity:1" d="M 254.31,982.561 261.03,987.6 z" id="boundary" inkscape:connector-curvature="0" />
	<path style="fill:none;stroke:red;stroke-width:1px;stroke-linecap:butt;stroke-linejoin:miter;stroke-opacity:1" d="M 257.67,97.2362 264.39,90.5165 z" id="boundary" inkscape:connector-curvature="0" />
	<path style="fill:none;stroke:red;stroke-width:1px;stroke-linecap:butt;stroke-linejoin:miter;stroke-opacity:1" d="M 261.03,987.6 269.429,987.6 z" id="boundary" inkscape:connector-curvature="0" />
	<path style="fill:none;stroke:red;stroke-width:1px;stroke-linecap:butt;stroke-linejoin:miter;stroke-opacity:1" d="M 264.39,90.5165 272.789,86.3167 z" id="boundary" inkscape:connector-curvature="0" />
	<path style="fill:none;stroke:red;stroke-width:1px;stroke-linecap:butt;stroke-linejoin:miter;stroke-opacity:1" d="M 269.429,987.6 276.989,991.8 z" id="boundary" inkscape:connector-curvature="0" />
	<path style="fill:none;stroke:red;stroke-width:1px;stroke-linecap:butt;stroke-linejoin:miter;stroke-opacity:1" d="M 272.789,86.3167 276.989,77.917 z" id="boundary" inkscape:connector-curvature="0" />
	<path style="fill:none;stroke:red;stroke-width:1px;stroke-linecap:butt;stroke-linejoin:miter;stroke-opacity:1" d="M 276.989,77.917 283.709,71.1973 z" id="boundary" inkscape:connector-curvature="0" />
	<path style="fill:none;stroke:red;stroke-width:1px;stroke-linecap:butt;stroke-linejoin:miter;stroke-opacity:1" d="M 276.989,991.8 285.389,991.8 z" id="boundary" inkscape:connector-curvature="0" />
	<path style="fill:none;stroke:red;stroke-width:1px;stroke-linecap:butt;stroke-linejoin:miter;stroke-opacity:1" d="M 283.709,71.1973 289.588,61.1177 z" id="boundary" inkscape:connector-curvature="0" />
	<path style="fill:none;stroke:red;stroke-width:1px;stroke-linecap:butt;stroke-linejoin:miter;stroke-opacity:1" d="M 285.389,991.8 293.788,991.8 z" id="boundary" inkscape:connector-curvature="0" />
	<path style="fill:none;stroke:red;stroke-width:1px;stroke-linecap:butt;stroke-linejoin:miter;stroke-opacity:1" d="M 289.588,61.1177 293.788,52.718 z" id="boundary" inkscape:connector-curvature="0" />
	<path style="fill:none;stroke:red;stroke-width:1px;stroke-linecap:butt;stroke-linejoin:miter;stroke-opacity:1" d="M 293.788,52.718 297.988,44.3184 z" id="boundary" inkscape:connector-curvature="0" />
	<path style="fill:none;stroke:red;stroke-width:1px;stroke-linecap:butt;stroke-linejoin:miter;stroke-opacity:1" d="M 293.788,991.8 301.348,996 z" id="boundary" inkscape:connector-curvature="0" />
	<path style="fill:none;stroke:red;stroke-width:1px;stroke-linecap:butt;stroke-linejoin:miter;stroke-opacity:1" d="M 297.988,44.3184 304.708,37.5986 z" id="boundary" inkscape:connector-curvature="0" />
	<path style="fill:none;stroke:red;stroke-width:1px;stroke-linecap:butt;stroke-linejoin:miter;stroke-opacity:1" d="M 301.348,996 309.748,996 z" id="boundary" inkscape:connector-curvature="0" />
	<path style="fill:none;stroke:red;stroke-width:1px;stroke-linecap:butt;stroke-linejoin:miter;stroke-opacity:1" d="M 304.708,37.5986 311.428,30.8789 z" id="boundary" inkscape:connector-curvature="0" />
	<path style="fill:none;stroke:red;stroke-width:1px;stroke-linecap:butt;stroke-linejoin:miter;stroke-opacity:1" d="M 309.748,996 318.147,996 z" id="boundary" inkscape:connector-curvature="0" />
	<path style="fill:none;stroke:red;stroke-width:1px;stroke-linecap:butt;stroke-linejoin:miter;stroke-opacity:1" d="M 311.428,30.8789 318.147,24.9992 z" id="boundary" inkscape:connector-curvature="0" />
	<path style="fill:none;stroke:red;stroke-width:1px;stroke-linecap:butt;stroke-linejoin:miter;stroke-opacity:1" d="M 318.147,24.9992 324.027,18.2794 z" id="boundary" inkscape:connector-curvature="0" />
	<path style="fill:none;stroke:red;stroke-width:1px;stroke-linecap:butt;stroke-linejoin:miter;stroke-opacity:1" d="M 318.147,996 326.547,996 z" id="boundary" inkscape:connector-curvature="0" />
	<path style="fill:none;stroke:red;stroke-width:1px;stroke-linecap:butt;stroke-linejoin:miter;stroke-opacity:1" d="M 324.027,18.2794 330.747,12.3997 z" id="boundary" inkscape:connector-curvature="0" />
	<path style="fill:none;stroke:red;stroke-width:1px;stroke-linecap:butt;stroke-linejoin:miter;stroke-opacity:1" d="M 326.547,996 334.947,996 z" id="boundary" inkscape:connector-curvature="0" />
	<path style="fill:none;stroke:red;stroke-width:1px;stroke-linecap:butt;stroke-linejoin:miter;stroke-opacity:1" d="M 330.747,12.3997 336.627,5.67993 z" id="boundary" inkscape:connector-curvature="0" />
	<path style="fill:none;stroke:red;stroke-width:1px;stroke-linecap:butt;stroke-linejoin:miter;stroke-opacity:1" d="M 334.947,996 343.346,996 z" id="boundary" inkscape:connector-curvature="0" />
	<path style="fill:none;stroke:red;stroke-width:1px;stroke-linecap:butt;stroke-linejoin:miter;stroke-opacity:1" d="M 336.627,5.67993 345.026,4 z" id="boundary" inkscape:connector-curvature="0" />
	<path style="fill:none;stroke:red;stroke-width:1px;stroke-linecap:butt;stroke-linejoin:miter;stroke-opacity:1" d="M 343.346,996 351.746,996 z" id="boundary" inkscape:connector-curvature="0" />
	<path style="fill:none;stroke:red;stroke-width:1px;stroke-linecap:butt;stroke-linejoin:miter;stroke-opacity:1" d="M 345.026,4 353.426,4 z" id="boundary" inkscape:connector-curvature="0" />
	<path style="fill:none;stroke:red;stroke-width:1px;stroke-linecap:butt;stroke-linejoin:miter;stroke-opacity:1" d="M 351.746,996 360.146,996 z" id="boundary" inkscape:connector-curvature="0" />
	<path style="fill:none;stroke:red;stroke-width:1px;stroke-linecap:butt;stroke-linejoin:miter;stroke-opacity:1" d="M 353.426,4 360.146,9.0398 z" id="boundary" inkscape:connector-curvature="0" />
	<path style="fill:none;stroke:red;stroke-width:1px;stroke-linecap:butt;stroke-linejoin:miter;stroke-opacity:1" d="M 360.146,9.0398 366.025,15.7595 z" id="boundary" inkscape:connector-curvature="0" />
	<path style="fill:none;stroke:red;stroke-width:1px;stroke-linecap:butt;stroke-linejoin:miter;stroke-opacity:1" d="M 360.146,996 368.545,994.32 z" id="boundary" inkscape:connector-curvature="0" />
	<path style="fill:none;stroke:red;stroke-width:1px;stroke-linecap:butt;stroke-linejoin:miter;stroke-opacity:1" d="M 366.025,15.7595 372.745,21.6393 z" id="boundary" inkscape:connector-curvature="0" />
	<path style="fill:none;stroke:red;stroke-width:1px;stroke-linecap:butt;stroke-linejoin:miter;stroke-opacity:1" d="M 368.545,994.32 376.945,990.12 z" id="boundary" inkscape:connector-curvature="0" />
	<path style="fill:none;stroke:red;stroke-width:1px;stroke-linecap:butt;stroke-linejoin:miter;stroke-opacity:1" d="M 372.745,21.6393 378.625,28.359 z" id="boundary" inkscape:connector-curvature="0" />
	<path style="fill:none;stroke:red;stroke-width:1px;stroke-linecap:butt;stroke-linejoin:miter;stroke-opacity:1" d="M 376.945,990.12 382.825,983.401 z" id="boundary" inkscape:connector-curvature="0" />
	<path style="fill:none;stroke:red;stroke-width:1px;stroke-linecap:butt;stroke-linejoin:miter;stroke-opacity:1" d="M 378.625,28.359 382.825,35.9187 z" id="boundary" inkscape:connector-curvature="0" />
	<path style="fill:none;stroke:red;stroke-width:1px;stroke-linecap:butt;stroke-linejoin:miter;stroke-opacity:1" d="M 382.825,35.9187 387.025,43.4784 z" id="boundary" inkscape:connector-curvature="0" />
	<path style="fill:none;stroke:red;stroke-width:1px;stroke-linecap:butt;stroke-linejoin:miter;stroke-opacity:1" d="M 387.025,43.4784 392.064,50.1981 z" id="boundary" inkscape:connector-curvature="0" />
	<path style="fill:none;stroke:red;stroke-width:1px;stroke-linecap:butt;stroke-linejoin:miter;stroke-opacity:1" d="M 387.025,853.206 391.224,860.765 z" id="boundary" inkscape:connector-curvature="0" />
	<path style="fill:none;stroke:red;stroke-width:1px;stroke-linecap:butt;stroke-linejoin:miter;stroke-opacity:1" d="M 387.025,853.206 395.424,853.206 z" id="boundary" inkscape:connector-curvature="0" />
	<path style="fill:none;stroke:red;stroke-width:1px;stroke-linecap:butt;stroke-linejoin:miter;stroke-opacity:1" d="M 391.224,860.765 395.424,853.206 z" id="boundary" inkscape:connector-curvature="0" />
	<path style="fill:none;stroke:red;stroke-width:1px;stroke-linecap:butt;stroke-linejoin:miter;stroke-opacity:1" d="M 391.224,869.165 391.224,877.565 z" id="boundary" inkscape:connector-curvature="0" />
	<path style="fill:none;stroke:red;stroke-width:1px;stroke-linecap:butt;stroke-linejoin:miter;stroke-opacity:1" d="M 391.224,877.565 391.224,885.964 z" id="boundary" inkscape:connector-curvature="0" />
	<path style="fill:none;stroke:red;stroke-width:1px;stroke-linecap:butt;stroke-linejoin:miter;stroke-opacity:1" d="M 391.224,885.964 391.224,894.364 z" id="boundary" inkscape:connector-curvature="0" />
	<path style="fill:none;stroke:red;stroke-width:1px;stroke-linecap:butt;stroke-linejoin:miter;stroke-opacity:1" d="M 391.224,894.364 391.224,902.764 z" id="boundary" inkscape:connector-curvature="0" />
	<path style="fill:none;stroke:red;stroke-width:1px;stroke-linecap:butt;stroke-linejoin:miter;stroke-opacity:1" d="M 391.224,902.764 391.224,911.163 z" id="boundary" inkscape:connector-curvature="0" />
	<path style="fill:none;stroke:red;stroke-width:1px;stroke-linecap:butt;stroke-linejoin:miter;stroke-opacity:1" d="M 391.224,911.163 391.224,919.563 z" id="boundary" inkscape:connector-curvature="0" />
	<path style="fill:none;stroke:red;stroke-width:1px;stroke-linecap:butt;stroke-linejoin:miter;stroke-opacity:1" d="M 391.224,919.563 391.224,927.963 z" id="boundary" inkscape:connector-curvature="0" />
	<path style="fill:none;stroke:red;stroke-width:1px;stroke-linecap:butt;stroke-linejoin:miter;stroke-opacity:1" d="M 391.224,927.963 391.224,936.362 z" id="boundary" inkscape:connector-curvature="0" />
	<path style="fill:none;stroke:red;stroke-width:1px;stroke-linecap:butt;stroke-linejoin:miter;stroke-opacity:1" d="M 391.224,936.362 391.224,944.762 z" id="boundary" inkscape:connector-curvature="0" />
	<path style="fill:none;stroke:red;stroke-width:1px;stroke-linecap:butt;stroke-linejoin:miter;stroke-opacity:1" d="M 391.224,944.762 395.424,952.322 z" id="boundary" inkscape:connector-curvature="0" />
	<path style="fill:none;stroke:red;stroke-width:1px;stroke-linecap:butt;stroke-linejoin:miter;stroke-opacity:1" d="M 391.224,962.401 395.424,952.322 z" id="boundary" inkscape:connector-curvature="0" />
	<path style="fill:none;stroke:red;stroke-width:1px;stroke-linecap:butt;stroke-linejoin:miter;stroke-opacity:1" d="M 392.064,50.1981 398.784,56.0779 z" id="boundary" inkscape:connector-curvature="0" />
	<path style="fill:none;stroke:red;stroke-width:1px;stroke-linecap:butt;stroke-linejoin:miter;stroke-opacity:1" d="M 398.784,56.0779 410.544,67.8374 z" id="boundary" inkscape:connector-curvature="0" />
	<path style="fill:none;stroke:red;stroke-width:1px;stroke-linecap:butt;stroke-linejoin:miter;stroke-opacity:1" d="M 403.824,849.006 412.224,849.006 z" id="boundary" inkscape:connector-curvature="0" />
	<path style="fill:none;stroke:red;stroke-width:1px;stroke-linecap:butt;stroke-linejoin:miter;stroke-opacity:1" d="M 410.544,67.8374 416.423,74.5572 z" id="boundary" inkscape:connector-curvature="0" />
	<path style="fill:none;stroke:red;stroke-width:1px;stroke-linecap:butt;stroke-linejoin:miter;stroke-opacity:1" d="M 412.224,849.006 420.623,844.806 z" id="boundary" inkscape:connector-curvature="0" />
	<path style="fill:none;stroke:red;stroke-width:1px;stroke-linecap:butt;stroke-linejoin:miter;stroke-opacity:1" d="M 416.423,74.5572 423.143,79.597 z" id="boundary" inkscape:connector-curvature="0" />
	<path style="fill:none;stroke:red;stroke-width:1px;stroke-linecap:butt;stroke-linejoin:miter;stroke-opacity:1" d="M 420.623,844.806 429.023,844.806 z" id="boundary" inkscape:connector-curvature="0" />
	<path style="fill:none;stroke:red;stroke-width:1px;stroke-linecap:butt;stroke-linejoin:miter;stroke-opacity:1" d="M 423.143,79.597 430.703,83.7968 z" id="boundary" inkscape:connector-curvature="0" />
	<path style="fill:none;stroke:red;stroke-width:1px;stroke-linecap:butt;stroke-linejoin:miter;stroke-opacity:1" d="M 429.023,844.806 436.583,840.606 z" id="boundary" inkscape:connector-curvature="0" />
	<path style="fill:none;stroke:red;stroke-width:1px;stroke-linecap:butt;stroke-linejoin:miter;stroke-opacity:1" d="M 430.703,83.7968 436.583,90.5165 z" id="boundary" inkscape:connector-curvature="0" />
	<path style="fill:none;stroke:red;stroke-width:1px;stroke-linecap:butt;stroke-linejoin:miter;stroke-opacity:1" d="M 436.583,90.5165 443.302,96.3963 z" id="boundary" inkscape:connector-curvature="0" />
	<path style="fill:none;stroke:red;stroke-width:1px;stroke-linecap:butt;stroke-linejoin:miter;stroke-opacity:1" d="M 436.583,840.606 443.302,835.566 z" id="boundary" inkscape:connector-curvature="0" />
	<path style="fill:none;stroke:red;stroke-width:1px;stroke-linecap:butt;stroke-linejoin:miter;stroke-opacity:1" d="M 443.302,96.3963 449.182,103.116 z" id="boundary" inkscape:connector-curvature="0" />
	<path style="fill:none;stroke:red;stroke-width:1px;stroke-linecap:butt;stroke-linejoin:miter;stroke-opacity:1" d="M 443.302,835.566 450.022,828.007 z" id="boundary" inkscape:connector-curvature="0" />
	<path style="fill:none;stroke:red;stroke-width:1px;stroke-linecap:butt;stroke-linejoin:miter;stroke-opacity:1" d="M 449.182,103.116 463.461,113.196 z" id="boundary" inkscape:connector-curvature="0" />
	<path style="fill:none;stroke:red;stroke-width:1px;stroke-linecap:butt;stroke-linejoin:miter;stroke-opacity:1" d="M 450.022,828.007 458.422,828.007 z" id="boundary" inkscape:connector-curvature="0" />
	<path style="fill:none;stroke:red;stroke-width:1px;stroke-linecap:butt;stroke-linejoin:miter;stroke-opacity:1" d="M 458.422,828.007 466.821,828.007 z" id="boundary" inkscape:connector-curvature="0" />
	<path style="fill:none;stroke:red;stroke-width:1px;stroke-linecap:butt;stroke-linejoin:miter;stroke-opacity:1" d="M 463.461,113.196 470.181,119.075 z" id="boundary" inkscape:connector-curvature="0" />
	<path style="fill:none;stroke:red;stroke-width:1px;stroke-linecap:butt;stroke-linejoin:miter;stroke-opacity:1" d="M 466.821,828.007 475.221,828.007 z" id="boundary" inkscape:connector-curvature="0" />
	<path style="fill:none;stroke:red;stroke-width:1px;stroke-linecap:butt;stroke-linejoin:miter;stroke-opacity:1" d="M 470.181,119.075 475.221,125.795 z" id="boundary" inkscape:connector-curvature="0" />
	<path style="fill:none;stroke:red;stroke-width:1px;stroke-linecap:butt;stroke-linejoin:miter;stroke-opacity:1" d="M 471.021,185.433 475.221,192.992 z" id="boundary" inkscape:connector-curvature="0" />
	<path style="fill:none;stroke:red;stroke-width:1px;stroke-linecap:butt;stroke-linejoin:miter;stroke-opacity:1" d="M 471.021,185.433 479.421,185.433 z" id="boundary" inkscape:connector-curvature="0" />
	<path style="fill:none;stroke:red;stroke-width:1px;stroke-linecap:butt;stroke-linejoin:miter;stroke-opacity:1" d="M 475.221,125.795 479.421,133.355 z" id="boundary" inkscape:connector-curvature="0" />
	<path style="fill:none;stroke:red;stroke-width:1px;stroke-linecap:butt;stroke-linejoin:miter;stroke-opacity:1" d="M 475.221,192.992 479.421,200.552 z" id="boundary" inkscape:connector-curvature="0" />
	<path style="fill:none;stroke:red;stroke-width:1px;stroke-linecap:butt;stroke-linejoin:miter;stroke-opacity:1" d="M 475.221,828.007 483.621,828.007 z" id="boundary" inkscape:connector-curvature="0" />
	<path style="fill:none;stroke:red;stroke-width:1px;stroke-linecap:butt;stroke-linejoin:miter;stroke-opacity:1" d="M 479.421,133.355 490.34,146.794 z" id="boundary" inkscape:connector-curvature="0" />
	<path style="fill:none;stroke:red;stroke-width:1px;stroke-linecap:butt;stroke-linejoin:miter;stroke-opacity:1" d="M 479.421,185.433 487.82,185.433 z" id="boundary" inkscape:connector-curvature="0" />
	<path style="fill:none;stroke:red;stroke-width:1px;stroke-linecap:butt;stroke-linejoin:miter;stroke-opacity:1" d="M 479.421,200.552 483.621,208.112 z" id="boundary" inkscape:connector-curvature="0" />
	<path style="fill:none;stroke:red;stroke-width:1px;stroke-linecap:butt;stroke-linejoin:miter;stroke-opacity:1" d="M 483.621,208.112 486.981,216.511 z" id="boundary" inkscape:connector-curvature="0" />
	<path style="fill:none;stroke:red;stroke-width:1px;stroke-linecap:butt;stroke-linejoin:miter;stroke-opacity:1" d="M 483.621,828.007 492.02,828.007 z" id="boundary" inkscape:connector-curvature="0" />
	<path style="fill:none;stroke:red;stroke-width:1px;stroke-linecap:butt;stroke-linejoin:miter;stroke-opacity:1" d="M 486.981,216.511 492.02,223.231 z" id="boundary" inkscape:connector-curvature="0" />
	<path style="fill:none;stroke:red;stroke-width:1px;stroke-linecap:butt;stroke-linejoin:miter;stroke-opacity:1" d="M 487.82,185.433 496.22,185.433 z" id="boundary" inkscape:connector-curvature="0" />
	<path style="fill:none;stroke:red;stroke-width:1px;stroke-linecap:butt;stroke-linejoin:miter;stroke-opacity:1" d="M 490.34,146.794 497.9,150.994 z" id="boundary" inkscape:connector-curvature="0" />
	<path style="fill:none;stroke:red;stroke-width:1px;stroke-linecap:butt;stroke-linejoin:miter;stroke-opacity:1" d="M 492.02,223.231 492.02,231.631 z" id="boundary" inkscape:connector-curvature="0" />
	<path style="fill:none;stroke:red;stroke-width:1px;stroke-linecap:butt;stroke-linejoin:miter;stroke-opacity:1" d="M 492.02,231.631 496.22,239.191 z" id="boundary" inkscape:connector-curvature="0" />
	<path style="fill:none;stroke:red;stroke-width:1px;stroke-linecap:butt;stroke-linejoin:miter;stroke-opacity:1" d="M 492.02,828.007 499.58,832.207 z" id="boundary" inkscape:connector-curvature="0" />
	<path style="fill:none;stroke:red;stroke-width:1px;stroke-linecap:butt;stroke-linejoin:miter;stroke-opacity:1" d="M 496.22,185.433 502.94,179.553 z" id="boundary" inkscape:connector-curvature="0" />
	<path style="fill:none;stroke:red;stroke-width:1px;stroke-linecap:butt;stroke-linejoin:miter;stroke-opacity:1" d="M 496.22,239.191 500.42,246.75 z" id="boundary" inkscape:connector-curvature="0" />
	<path style="fill:none;stroke:red;stroke-width:1px;stroke-linecap:butt;stroke-linejoin:miter;stroke-opacity:1" d="M 497.9,150.994 503.78,157.714 z" id="boundary" inkscape:connector-curvature="0" />
	<path style="fill:none;stroke:red;stroke-width:1px;stroke-linecap:butt;stroke-linejoin:miter;stroke-opacity:1" d="M 499.58,832.207 507.98,832.207 z" id="boundary" inkscape:connector-curvature="0" />
	<path style="fill:none;stroke:red;stroke-width:1px;stroke-linecap:butt;stroke-linejoin:miter;stroke-opacity:1" d="M 500.42,246.75 507.14,252.63 z" id="boundary" inkscape:connector-curvature="0" />
	<path style="fill:none;stroke:red;stroke-width:1px;stroke-linecap:butt;stroke-linejoin:miter;stroke-opacity:1" d="M 502.94,179.553 508.82,172.833 z" id="boundary" inkscape:connector-curvature="0" />
	<path style="fill:none;stroke:red;stroke-width:1px;stroke-linecap:butt;stroke-linejoin:miter;stroke-opacity:1" d="M 503.78,157.714 508.82,164.434 z" id="boundary" inkscape:connector-curvature="0" />
	<path style="fill:none;stroke:red;stroke-width:1px;stroke-linecap:butt;stroke-linejoin:miter;stroke-opacity:1" d="M 507.14,252.63 513.019,259.35 z" id="boundary" inkscape:connector-curvature="0" />
	<path style="fill:none;stroke:red;stroke-width:1px;stroke-linecap:butt;stroke-linejoin:miter;stroke-opacity:1" d="M 507.98,832.207 516.379,832.207 z" id="boundary" inkscape:connector-curvature="0" />
	<path style="fill:none;stroke:red;stroke-width:1px;stroke-linecap:butt;stroke-linejoin:miter;stroke-opacity:1" d="M 508.82,164.434 508.82,172.833 z" id="boundary" inkscape:connector-curvature="0" />
	<path style="fill:none;stroke:red;stroke-width:1px;stroke-linecap:butt;stroke-linejoin:miter;stroke-opacity:1" d="M 513.019,259.35 513.019,267.749 z" id="boundary" inkscape:connector-curvature="0" />
	<path style="fill:none;stroke:red;stroke-width:1px;stroke-linecap:butt;stroke-linejoin:miter;stroke-opacity:1" d="M 513.019,267.749 517.219,275.309 z" id="boundary" inkscape:connector-curvature="0" />
	<path style="fill:none;stroke:red;stroke-width:1px;stroke-linecap:butt;stroke-linejoin:miter;stroke-opacity:1" d="M 516.379,832.207 523.939,836.406 z" id="boundary" inkscape:connector-curvature="0" />
	<path style="fill:none;stroke:red;stroke-width:1px;stroke-linecap:butt;stroke-linejoin:miter;stroke-opacity:1" d="M 517.219,275.309 521.419,282.869 z" id="boundary" inkscape:connector-curvature="0" />
	<path style="fill:none;stroke:red;stroke-width:1px;stroke-linecap:butt;stroke-linejoin:miter;stroke-opacity:1" d="M 521.419,282.869 523.939,291.268 z" id="boundary" inkscape:connector-curvature="0" />
	<path style="fill:none;stroke:red;stroke-width:1px;stroke-linecap:butt;stroke-linejoin:miter;stroke-opacity:1" d="M 521.419,387.025 521.419,395.424 z" id="boundary" inkscape:connector-curvature="0" />
	<path style="fill:none;stroke:red;stroke-width:1px;stroke-linecap:butt;stroke-linejoin:miter;stroke-opacity:1" d="M 521.419,387.025 529.819,387.025 z" id="boundary" inkscape:connector-curvature="0" />
	<path style="fill:none;stroke:red;stroke-width:1px;stroke-linecap:butt;stroke-linejoin:miter;stroke-opacity:1" d="M 521.419,395.424 525.619,402.984 z" id="boundary" inkscape:connector-curvature="0" />
	<path style="fill:none;stroke:red;stroke-width:1px;stroke-linecap:butt;stroke-linejoin:miter;stroke-opacity:1" d="M 523.939,291.268 528.139,298.828 z" id="boundary" inkscape:connector-curvature="0" />
	<path style="fill:none;stroke:red;stroke-width:1px;stroke-linecap:butt;stroke-linejoin:miter;stroke-opacity:1" d="M 523.939,836.406 531.499,840.606 z" id="boundary" inkscape:connector-curvature="0" />
	<path style="fill:none;stroke:red;stroke-width:1px;stroke-linecap:butt;stroke-linejoin:miter;stroke-opacity:1" d="M 525.619,402.984 525.619,411.384 z" id="boundary" inkscape:connector-curvature="0" />
	<path style="fill:none;stroke:red;stroke-width:1px;stroke-linecap:butt;stroke-linejoin:miter;stroke-opacity:1" d="M 525.619,411.384 525.619,419.783 z" id="boundary" inkscape:connector-curvature="0" />
	<path style="fill:none;stroke:red;stroke-width:1px;stroke-linecap:butt;stroke-linejoin:miter;stroke-opacity:1" d="M 525.619,419.783 529.819,427.343 z" id="boundary" inkscape:connector-curvature="0" />
	<path style="fill:none;stroke:red;stroke-width:1px;stroke-linecap:butt;stroke-linejoin:miter;stroke-opacity:1" d="M 528.139,298.828 529.819,307.228 z" id="boundary" inkscape:connector-curvature="0" />
	<path style="fill:none;stroke:red;stroke-width:1px;stroke-linecap:butt;stroke-linejoin:miter;stroke-opacity:1" d="M 529.819,307.228 534.019,314.787 z" id="boundary" inkscape:connector-curvature="0" />
	<path style="fill:none;stroke:red;stroke-width:1px;stroke-linecap:butt;stroke-linejoin:miter;stroke-opacity:1" d="M 529.819,387.025 537.378,382.825 z" id="boundary" inkscape:connector-curvature="0" />
	<path style="fill:none;stroke:red;stroke-width:1px;stroke-linecap:butt;stroke-linejoin:miter;stroke-opacity:1" d="M 529.819,427.343 529.819,435.743 z" id="boundary" inkscape:connector-curvature="0" />
	<path style="fill:none;stroke:red;stroke-width:1px;stroke-linecap:butt;stroke-linejoin:miter;stroke-opacity:1" d="M 529.819,435.743 534.019,443.302 z" id="boundary" inkscape:connector-curvature="0" />
	<path style="fill:none;stroke:red;stroke-width:1px;stroke-linecap:butt;stroke-linejoin:miter;stroke-opacity:1" d="M 531.499,840.606 539.898,840.606 z" id="boundary" inkscape:connector-curvature="0" />
	<path style="fill:none;stroke:red;stroke-width:1px;stroke-linecap:butt;stroke-linejoin:miter;stroke-opacity:1" d="M 534.019,314.787 538.218,322.347 z" id="boundary" inkscape:connector-curvature="0" />
	<path style="fill:none;stroke:red;stroke-width:1px;stroke-linecap:butt;stroke-linejoin:miter;stroke-opacity:1" d="M 534.019,443.302 534.019,451.702 z" id="boundary" inkscape:connector-curvature="0" />
	<path style="fill:none;stroke:red;stroke-width:1px;stroke-linecap:butt;stroke-linejoin:miter;stroke-opacity:1" d="M 534.019,451.702 537.378,460.102 z" id="boundary" inkscape:connector-curvature="0" />
	<path style="fill:none;stroke:red;stroke-width:1px;stroke-linecap:butt;stroke-linejoin:miter;stroke-opacity:1" d="M 537.378,382.825 545.778,382.825 z" id="boundary" inkscape:connector-curvature="0" />
	<path style="fill:none;stroke:red;stroke-width:1px;stroke-linecap:butt;stroke-linejoin:miter;stroke-opacity:1" d="M 537.378,460.102 538.218,468.501 z" id="boundary" inkscape:connector-curvature="0" />
	<path style="fill:none;stroke:red;stroke-width:1px;stroke-linecap:butt;stroke-linejoin:miter;stroke-opacity:1" d="M 538.218,322.347 544.938,328.227 z" id="boundary" inkscape:connector-curvature="0" />
	<path style="fill:none;stroke:red;stroke-width:1px;stroke-linecap:butt;stroke-linejoin:miter;stroke-opacity:1" d="M 538.218,468.501 541.578,476.901 z" id="boundary" inkscape:connector-curvature="0" />
	<path style="fill:none;stroke:red;stroke-width:1px;stroke-linecap:butt;stroke-linejoin:miter;stroke-opacity:1" d="M 539.898,840.606 548.298,840.606 z" id="boundary" inkscape:connector-curvature="0" />
	<path style="fill:none;stroke:red;stroke-width:1px;stroke-linecap:butt;stroke-linejoin:miter;stroke-opacity:1" d="M 541.578,476.901 546.618,483.621 z" id="boundary" inkscape:connector-curvature="0" />
	<path style="fill:none;stroke:red;stroke-width:1px;stroke-linecap:butt;stroke-linejoin:miter;stroke-opacity:1" d="M 544.938,328.227 548.298,336.627 z" id="boundary" inkscape:connector-curvature="0" />
	<path style="fill:none;stroke:red;stroke-width:1px;stroke-linecap:butt;stroke-linejoin:miter;stroke-opacity:1" d="M 545.778,382.825 554.178,382.825 z" id="boundary" inkscape:connector-curvature="0" />
	<path style="fill:none;stroke:red;stroke-width:1px;stroke-linecap:butt;stroke-linejoin:miter;stroke-opacity:1" d="M 546.618,483.621 548.298,492.02 z" id="boundary" inkscape:connector-curvature="0" />
	<path style="fill:none;stroke:red;stroke-width:1px;stroke-linecap:butt;stroke-linejoin:miter;stroke-opacity:1" d="M 548.298,336.627 555.018,342.506 z" id="boundary" inkscape:connector-curvature="0" />
	<path style="fill:none;stroke:red;stroke-width:1px;stroke-linecap:butt;stroke-linejoin:miter;stroke-opacity:1" d="M 548.298,492.02 550.818,500.42 z" id="boundary" inkscape:connector-curvature="0" />
	<path style="fill:none;stroke:red;stroke-width:1px;stroke-linecap:butt;stroke-linejoin:miter;stroke-opacity:1" d="M 548.298,840.606 555.858,844.806 z" id="boundary" inkscape:connector-curvature="0" />
	<path style="fill:none;stroke:red;stroke-width:1px;stroke-linecap:butt;stroke-linejoin:miter;stroke-opacity:1" d="M 550.818,500.42 552.498,508.82 z" id="boundary" inkscape:connector-curvature="0" />
	<path style="fill:none;stroke:red;stroke-width:1px;stroke-linecap:butt;stroke-linejoin:miter;stroke-opacity:1" d="M 552.498,508.82 559.218,514.699 z" id="boundary" inkscape:connector-curvature="0" />
	<path style="fill:none;stroke:red;stroke-width:1px;stroke-linecap:butt;stroke-linejoin:miter;stroke-opacity:1" d="M 554.178,382.825 560.898,377.785 z" id="boundary" inkscape:connector-curvature="0" />
	<path style="fill:none;stroke:red;stroke-width:1px;stroke-linecap:butt;stroke-linejoin:miter;stroke-opacity:1" d="M 555.018,342.506 560.898,349.226 z" id="boundary" inkscape:connector-curvature="0" />
	<path style="fill:none;stroke:red;stroke-width:1px;stroke-linecap:butt;stroke-linejoin:miter;stroke-opacity:1" d="M 555.858,844.806 564.257,847.326 z" id="boundary" inkscape:connector-curvature="0" />
	<path style="fill:none;stroke:red;stroke-width:1px;stroke-linecap:butt;stroke-linejoin:miter;stroke-opacity:1" d="M 559.218,514.699 559.218,523.099 z" id="boundary" inkscape:connector-curvature="0" />
	<path style="fill:none;stroke:red;stroke-width:1px;stroke-linecap:butt;stroke-linejoin:miter;stroke-opacity:1" d="M 559.218,523.099 563.417,530.659 z" id="boundary" inkscape:connector-curvature="0" />
	<path style="fill:none;stroke:red;stroke-width:1px;stroke-linecap:butt;stroke-linejoin:miter;stroke-opacity:1" d="M 560.898,349.226 567.617,355.106 z" id="boundary" inkscape:connector-curvature="0" />
	<path style="fill:none;stroke:red;stroke-width:1px;stroke-linecap:butt;stroke-linejoin:miter;stroke-opacity:1" d="M 560.898,377.785 567.617,371.905 z" id="boundary" inkscape:connector-curvature="0" />
	<path style="fill:none;stroke:red;stroke-width:1px;stroke-linecap:butt;stroke-linejoin:miter;stroke-opacity:1" d="M 563.417,530.659 567.617,538.218 z" id="boundary" inkscape:connector-curvature="0" />
	<path style="fill:none;stroke:red;stroke-width:1px;stroke-linecap:butt;stroke-linejoin:miter;stroke-opacity:1" d="M 564.257,847.326 572.657,849.006 z" id="boundary" inkscape:connector-curvature="0" />
	<path style="fill:none;stroke:red;stroke-width:1px;stroke-linecap:butt;stroke-linejoin:miter;stroke-opacity:1" d="M 567.617,355.106 567.617,363.506 z" id="boundary" inkscape:connector-curvature="0" />
	<path style="fill:none;stroke:red;stroke-width:1px;stroke-linecap:butt;stroke-linejoin:miter;stroke-opacity:1" d="M 567.617,363.506 567.617,371.905 z" id="boundary" inkscape:connector-curvature="0" />
	<path style="fill:none;stroke:red;stroke-width:1px;stroke-linecap:butt;stroke-linejoin:miter;stroke-opacity:1" d="M 567.617,538.218 569.297,546.618 z" id="boundary" inkscape:connector-curvature="0" />
	<path style="fill:none;stroke:red;stroke-width:1px;stroke-linecap:butt;stroke-linejoin:miter;stroke-opacity:1" d="M 567.617,651.614 571.817,659.174 z" id="boundary" inkscape:connector-curvature="0" />
	<path style="fill:none;stroke:red;stroke-width:1px;stroke-linecap:butt;stroke-linejoin:miter;stroke-opacity:1" d="M 567.617,651.614 576.017,651.614 z" id="boundary" inkscape:connector-curvature="0" />
	<path style="fill:none;stroke:red;stroke-width:1px;stroke-linecap:butt;stroke-linejoin:miter;stroke-opacity:1" d="M 569.297,546.618 571.817,555.018 z" id="boundary" inkscape:connector-curvature="0" />
	<path style="fill:none;stroke:red;stroke-width:1px;stroke-linecap:butt;stroke-linejoin:miter;stroke-opacity:1" d="M 571.817,555.018 576.017,562.577 z" id="boundary" inkscape:connector-curvature="0" />
	<path style="fill:none;stroke:red;stroke-width:1px;stroke-linecap:butt;stroke-linejoin:miter;stroke-opacity:1" d="M 571.817,659.174 576.017,651.614 z" id="boundary" inkscape:connector-curvature="0" />
	<path style="fill:none;stroke:red;stroke-width:1px;stroke-linecap:butt;stroke-linejoin:miter;stroke-opacity:1" d="M 571.817,667.573 576.017,675.133 z" id="boundary" inkscape:connector-curvature="0" />
	<path style="fill:none;stroke:red;stroke-width:1px;stroke-linecap:butt;stroke-linejoin:miter;stroke-opacity:1" d="M 571.817,667.573 584.417,651.614 z" id="boundary" inkscape:connector-curvature="0" />
	<path style="fill:none;stroke:red;stroke-width:1px;stroke-linecap:butt;stroke-linejoin:miter;stroke-opacity:1" d="M 572.657,849.006 581.057,849.006 z" id="boundary" inkscape:connector-curvature="0" />
	<path style="fill:none;stroke:red;stroke-width:1px;stroke-linecap:butt;stroke-linejoin:miter;stroke-opacity:1" d="M 576.017,562.577 580.217,570.137 z" id="boundary" inkscape:connector-curvature="0" />
	<path style="fill:none;stroke:red;stroke-width:1px;stroke-linecap:butt;stroke-linejoin:miter;stroke-opacity:1" d="M 576.017,675.133 580.217,682.693 z" id="boundary" inkscape:connector-curvature="0" />
	<path style="fill:none;stroke:red;stroke-width:1px;stroke-linecap:butt;stroke-linejoin:miter;stroke-opacity:1" d="M 580.217,570.137 580.217,578.537 z" id="boundary" inkscape:connector-curvature="0" />
	<path style="fill:none;stroke:red;stroke-width:1px;stroke-linecap:butt;stroke-linejoin:miter;stroke-opacity:1" d="M 580.217,578.537 584.417,586.097 z" id="boundary" inkscape:connector-curvature="0" />
	<path style="fill:none;stroke:red;stroke-width:1px;stroke-linecap:butt;stroke-linejoin:miter;stroke-opacity:1" d="M 580.217,682.693 580.217,691.092 z" id="boundary" inkscape:connector-curvature="0" />
	<path style="fill:none;stroke:red;stroke-width:1px;stroke-linecap:butt;stroke-linejoin:miter;stroke-opacity:1" d="M 580.217,691.092 580.217,699.492 z" id="boundary" inkscape:connector-curvature="0" />
	<path style="fill:none;stroke:red;stroke-width:1px;stroke-linecap:butt;stroke-linejoin:miter;stroke-opacity:1" d="M 580.217,699.492 584.417,707.052 z" id="boundary" inkscape:connector-curvature="0" />
	<path style="fill:none;stroke:red;stroke-width:1px;stroke-linecap:butt;stroke-linejoin:miter;stroke-opacity:1" d="M 581.057,849.006 589.456,849.006 z" id="boundary" inkscape:connector-curvature="0" />
	<path style="fill:none;stroke:red;stroke-width:1px;stroke-linecap:butt;stroke-linejoin:miter;stroke-opacity:1" d="M 584.417,586.097 597.016,598.696 z" id="boundary" inkscape:connector-curvature="0" />
	<path style="fill:none;stroke:red;stroke-width:1px;stroke-linecap:butt;stroke-linejoin:miter;stroke-opacity:1" d="M 584.417,651.614 592.816,651.614 z" id="boundary" inkscape:connector-curvature="0" />
	<path style="fill:none;stroke:red;stroke-width:1px;stroke-linecap:butt;stroke-linejoin:miter;stroke-opacity:1" d="M 584.417,707.052 588.616,714.611 z" id="boundary" inkscape:connector-curvature="0" />
	<path style="fill:none;stroke:red;stroke-width:1px;stroke-linecap:butt;stroke-linejoin:miter;stroke-opacity:1" d="M 588.616,714.611 592.816,722.171 z" id="boundary" inkscape:connector-curvature="0" />
	<path style="fill:none;stroke:red;stroke-width:1px;stroke-linecap:butt;stroke-linejoin:miter;stroke-opacity:1" d="M 589.456,849.006 597.856,849.006 z" id="boundary" inkscape:connector-curvature="0" />
	<path style="fill:none;stroke:red;stroke-width:1px;stroke-linecap:butt;stroke-linejoin:miter;stroke-opacity:1" d="M 592.816,651.614 601.216,653.294 z" id="boundary" inkscape:connector-curvature="0" />
	<path style="fill:none;stroke:red;stroke-width:1px;stroke-linecap:butt;stroke-linejoin:miter;stroke-opacity:1" d="M 592.816,722.171 597.016,729.731 z" id="boundary" inkscape:connector-curvature="0" />
	<path style="fill:none;stroke:red;stroke-width:1px;stroke-linecap:butt;stroke-linejoin:miter;stroke-opacity:1" d="M 597.016,598.696 602.896,605.416 z" id="boundary" inkscape:connector-curvature="0" />
	<path style="fill:none;stroke:red;stroke-width:1px;stroke-linecap:butt;stroke-linejoin:miter;stroke-opacity:1" d="M 597.016,729.731 601.216,737.29 z" id="boundary" inkscape:connector-curvature="0" />
	<path style="fill:none;stroke:red;stroke-width:1px;stroke-linecap:butt;stroke-linejoin:miter;stroke-opacity:1" d="M 597.856,849.006 606.256,849.006 z" id="boundary" inkscape:connector-curvature="0" />
	<path style="fill:none;stroke:red;stroke-width:1px;stroke-linecap:butt;stroke-linejoin:miter;stroke-opacity:1" d="M 601.216,653.294 609.616,655.814 z" id="boundary" inkscape:connector-curvature="0" />
	<path style="fill:none;stroke:red;stroke-width:1px;stroke-linecap:butt;stroke-linejoin:miter;stroke-opacity:1" d="M 601.216,737.29 604.576,745.69 z" id="boundary" inkscape:connector-curvature="0" />
	<path style="fill:none;stroke:red;stroke-width:1px;stroke-linecap:butt;stroke-linejoin:miter;stroke-opacity:1" d="M 602.896,605.416 609.616,611.296 z" id="boundary" inkscape:connector-curvature="0" />
	<path style="fill:none;stroke:red;stroke-width:1px;stroke-linecap:butt;stroke-linejoin:miter;stroke-opacity:1" d="M 604.576,745.69 608.776,753.25 z" id="boundary" inkscape:connector-curvature="0" />
	<path style="fill:none;stroke:red;stroke-width:1px;stroke-linecap:butt;stroke-linejoin:miter;stroke-opacity:1" d="M 606.256,849.006 614.655,849.006 z" id="boundary" inkscape:connector-curvature="0" />
	<path style="fill:none;stroke:red;stroke-width:1px;stroke-linecap:butt;stroke-linejoin:miter;stroke-opacity:1" d="M 608.776,753.25 612.135,761.649 z" id="boundary" inkscape:connector-curvature="0" />
	<path style="fill:none;stroke:red;stroke-width:1px;stroke-linecap:butt;stroke-linejoin:miter;stroke-opacity:1" d="M 609.616,611.296 615.495,618.015 z" id="boundary" inkscape:connector-curvature="0" />
	<path style="fill:none;stroke:red;stroke-width:1px;stroke-linecap:butt;stroke-linejoin:miter;stroke-opacity:1" d="M 609.616,655.814 616.335,649.934 z" id="boundary" inkscape:connector-curvature="0" />
	<path style="fill:none;stroke:red;stroke-width:1px;stroke-linecap:butt;stroke-linejoin:miter;stroke-opacity:1" d="M 612.135,761.649 613.815,770.049 z" id="boundary" inkscape:connector-curvature="0" />
	<path style="fill:none;stroke:red;stroke-width:1px;stroke-linecap:butt;stroke-linejoin:miter;stroke-opacity:1" d="M 613.815,770.049 618.015,777.609 z" id="boundary" inkscape:connector-curvature="0" />
	<path style="fill:none;stroke:red;stroke-width:1px;stroke-linecap:butt;stroke-linejoin:miter;stroke-opacity:1" d="M 614.655,849.006 622.215,844.806 z" id="boundary" inkscape:connector-curvature="0" />
	<path style="fill:none;stroke:red;stroke-width:1px;stroke-linecap:butt;stroke-linejoin:miter;stroke-opacity:1" d="M 615.495,618.015 619.695,625.575 z" id="boundary" inkscape:connector-curvature="0" />
	<path style="fill:none;stroke:red;stroke-width:1px;stroke-linecap:butt;stroke-linejoin:miter;stroke-opacity:1" d="M 616.335,649.934 622.215,643.214 z" id="boundary" inkscape:connector-curvature="0" />
	<path style="fill:none;stroke:red;stroke-width:1px;stroke-linecap:butt;stroke-linejoin:miter;stroke-opacity:1" d="M 618.015,777.609 622.215,785.169 z" id="boundary" inkscape:connector-curvature="0" />
	<path style="fill:none;stroke:red;stroke-width:1px;stroke-linecap:butt;stroke-linejoin:miter;stroke-opacity:1" d="M 619.695,625.575 625.575,632.295 z" id="boundary" inkscape:connector-curvature="0" />
	<path style="fill:none;stroke:red;stroke-width:1px;stroke-linecap:butt;stroke-linejoin:miter;stroke-opacity:1" d="M 622.215,643.214 625.575,632.295 z" id="boundary" inkscape:connector-curvature="0" />
	<path style="fill:none;stroke:red;stroke-width:1px;stroke-linecap:butt;stroke-linejoin:miter;stroke-opacity:1" d="M 622.215,785.169 630.615,787.688 z" id="boundary" inkscape:connector-curvature="0" />
	<path style="fill:none;stroke:red;stroke-width:1px;stroke-linecap:butt;stroke-linejoin:miter;stroke-opacity:1" d="M 622.215,844.806 629.775,840.606 z" id="boundary" inkscape:connector-curvature="0" />
	<path style="fill:none;stroke:red;stroke-width:1px;stroke-linecap:butt;stroke-linejoin:miter;stroke-opacity:1" d="M 629.775,840.606 638.174,838.086 z" id="boundary" inkscape:connector-curvature="0" />
	<path style="fill:none;stroke:red;stroke-width:1px;stroke-linecap:butt;stroke-linejoin:miter;stroke-opacity:1" d="M 630.615,787.688 636.494,794.408 z" id="boundary" inkscape:connector-curvature="0" />
	<path style="fill:none;stroke:red;stroke-width:1px;stroke-linecap:butt;stroke-linejoin:miter;stroke-opacity:1" d="M 636.494,794.408 640.694,801.968 z" id="boundary" inkscape:connector-curvature="0" />
	<path style="fill:none;stroke:red;stroke-width:1px;stroke-linecap:butt;stroke-linejoin:miter;stroke-opacity:1" d="M 638.174,838.086 646.574,836.406 z" id="boundary" inkscape:connector-curvature="0" />
	<path style="fill:none;stroke:red;stroke-width:1px;stroke-linecap:butt;stroke-linejoin:miter;stroke-opacity:1" d="M 640.694,801.968 648.254,806.168 z" id="boundary" inkscape:connector-curvature="0" />
	<path style="fill:none;stroke:red;stroke-width:1px;stroke-linecap:butt;stroke-linejoin:miter;stroke-opacity:1" d="M 646.574,836.406 653.294,831.367 z" id="boundary" inkscape:connector-curvature="0" />
	<path style="fill:none;stroke:red;stroke-width:1px;stroke-linecap:butt;stroke-linejoin:miter;stroke-opacity:1" d="M 648.254,806.168 654.974,812.047 z" id="boundary" inkscape:connector-curvature="0" />
	<path style="fill:none;stroke:red;stroke-width:1px;stroke-linecap:butt;stroke-linejoin:miter;stroke-opacity:1" d="M 653.294,831.367 660.014,818.767 z" id="boundary" inkscape:connector-curvature="0" />
	<path style="fill:none;stroke:red;stroke-width:1px;stroke-linecap:butt;stroke-linejoin:miter;stroke-opacity:1" d="M 654.974,812.047 660.014,818.767 z" id="boundary" inkscape:connector-curvature="0" />
	<circle cx="4" cy="783.489" r="4" fill="#0" id="circle0"/>
	<circle cx="4" cy="791.888" r="4" fill="#0" id="circle1"/>
	<circle cx="8.19983" cy="775.089" r="4" fill="#0" id="circle2"/>
	<circle cx="8.19983" cy="799.448" r="4" fill="#0" id="circle3"/>
	<circle cx="14.0796" cy="806.168" r="4" fill="#0" id="circle4"/>
	<circle cx="14.9196" cy="768.369" r="4" fill="#0" id="circle5"/>
	<circle cx="16.5995" cy="758.29" r="4" fill="#0" id="circle6"/>
	<circle cx="22.4793" cy="807.008" r="4" fill="#0" id="circle7"/>
	<circle cx="23.3192" cy="751.57" r="4" fill="#0" id="circle8"/>
	<circle cx="27.5191" cy="743.17" r="4" fill="#0" id="circle9"/>
	<circle cx="30.8789" cy="807.008" r="4" fill="#0" id="circle10"/>
	<circle cx="33.3988" cy="733.091" r="4" fill="#0" id="circle11"/>
	<circle cx="39.2786" cy="807.008" r="4" fill="#0" id="circle12"/>
	<circle cx="40.1185" cy="726.371" r="4" fill="#0" id="circle13"/>
	<circle cx="44.3184" cy="717.971" r="4" fill="#0" id="circle14"/>
	<circle cx="47.6782" cy="807.008" r="4" fill="#0" id="circle15"/>
	<circle cx="51.0381" cy="711.251" r="4" fill="#0" id="circle16"/>
	<circle cx="55.2379" cy="702.852" r="4" fill="#0" id="circle17"/>
	<circle cx="56.0779" cy="807.008" r="4" fill="#0" id="circle18"/>
	<circle cx="58.5978" cy="594.496" r="4" fill="#0" id="circle19"/>
	<circle cx="58.5978" cy="602.896" r="4" fill="#0" id="circle20"/>
	<circle cx="58.5978" cy="611.296" r="4" fill="#0" id="circle21"/>
	<circle cx="61.9577" cy="696.972" r="4" fill="#0" id="circle22"/>
	<circle cx="62.7976" cy="618.855" r="4" fill="#0" id="circle23"/>
	<circle cx="64.4776" cy="807.008" r="4" fill="#0" id="circle24"/>
	<circle cx="65.3175" cy="587.776" r="4" fill="#0" id="circle25"/>
	<circle cx="67.8374" cy="690.252" r="4" fill="#0" id="circle26"/>
	<circle cx="68.6774" cy="625.575" r="4" fill="#0" id="circle27"/>
	<circle cx="71.1973" cy="577.697" r="4" fill="#0" id="circle28"/>
	<circle cx="72.8772" cy="807.008" r="4" fill="#0" id="circle29"/>
	<circle cx="74.5572" cy="684.373" r="4" fill="#0" id="circle30"/>
	<circle cx="77.0771" cy="626.415" r="4" fill="#0" id="circle31"/>
	<circle cx="77.917" cy="570.977" r="4" fill="#0" id="circle32"/>
	<circle cx="80.4369" cy="677.653" r="4" fill="#0" id="circle33"/>
	<circle cx="81.2769" cy="807.008" r="4" fill="#0" id="circle34"/>
	<circle cx="82.1169" cy="562.577" r="4" fill="#0" id="circle35"/>
	<circle cx="85.4767" cy="626.415" r="4" fill="#0" id="circle36"/>
	<circle cx="87.1566" cy="671.773" r="4" fill="#0" id="circle37"/>
	<circle cx="87.9966" cy="552.498" r="4" fill="#0" id="circle38"/>
	<circle cx="89.6765" cy="807.008" r="4" fill="#0" id="circle39"/>
	<circle cx="90.5165" cy="663.373" r="4" fill="#0" id="circle40"/>
	<circle cx="93.0364" cy="622.215" r="4" fill="#0" id="circle41"/>
	<circle cx="94.7163" cy="545.778" r="4" fill="#0" id="circle42"/>
	<circle cx="97.2362" cy="656.654" r="4" fill="#0" id="circle43"/>
	<circle cx="97.2362" cy="802.808" r="4" fill="#0" id="circle44"/>
	<circle cx="98.9162" cy="537.378" r="4" fill="#0" id="circle45"/>
	<circle cx="101.436" cy="622.215" r="4" fill="#0" id="circle46"/>
	<circle cx="103.956" cy="650.774" r="4" fill="#0" id="circle47"/>
	<circle cx="105.636" cy="530.659" r="4" fill="#0" id="circle48"/>
	<circle cx="105.636" cy="802.808" r="4" fill="#0" id="circle49"/>
	<circle cx="107.316" cy="642.374" r="4" fill="#0" id="circle50"/>
	<circle cx="109.836" cy="522.259" r="4" fill="#0" id="circle51"/>
	<circle cx="109.836" cy="622.215" r="4" fill="#0" id="circle52"/>
	<circle cx="113.196" cy="632.295" r="4" fill="#0" id="circle53"/>
	<circle cx="114.036" cy="802.808" r="4" fill="#0" id="circle54"/>
	<circle cx="116.555" cy="516.379" r="4" fill="#0" id="circle55"/>
	<circle cx="118.235" cy="618.015" r="4" fill="#0" id="circle56"/>
	<circle cx="119.915" cy="507.98" r="4" fill="#0" id="circle57"/>
	<circle cx="119.915" cy="626.415" r="4" fill="#0" id="circle58"/>
	<circle cx="121.595" cy="807.008" r="4" fill="#0" id="circle59"/>
	<circle cx="125.795" cy="363.506" r="4" fill="#0" id="circle60"/>
	<circle cx="125.795" cy="371.905" r="4" fill="#0" id="circle61"/>
	<circle cx="125.795" cy="493.7" r="4" fill="#0" id="circle62"/>
	<circle cx="129.995" cy="485.301" r="4" fill="#0" id="circle63"/>
	<circle cx="129.995" cy="807.008" r="4" fill="#0" id="circle64"/>
	<circle cx="132.515" cy="356.786" r="4" fill="#0" id="circle65"/>
	<circle cx="132.515" cy="377.785" r="4" fill="#0" id="circle66"/>
	<circle cx="136.715" cy="478.581" r="4" fill="#0" id="circle67"/>
	<circle cx="137.555" cy="811.207" r="4" fill="#0" id="circle68"/>
	<circle cx="138.395" cy="384.505" r="4" fill="#0" id="circle69"/>
	<circle cx="140.075" cy="352.586" r="4" fill="#0" id="circle70"/>
	<circle cx="140.914" cy="470.181" r="4" fill="#0" id="circle71"/>
	<circle cx="143.434" cy="817.927" r="4" fill="#0" id="circle72"/>
	<circle cx="144.274" cy="345.026" r="4" fill="#0" id="circle73"/>
	<circle cx="146.794" cy="387.025" r="4" fill="#0" id="circle74"/>
	<circle cx="146.794" cy="455.902" r="4" fill="#0" id="circle75"/>
	<circle cx="150.994" cy="338.307" r="4" fill="#0" id="circle76"/>
	<circle cx="150.994" cy="447.502" r="4" fill="#0" id="circle77"/>
	<circle cx="151.834" cy="821.287" r="4" fill="#0" id="circle78"/>
	<circle cx="155.194" cy="387.025" r="4" fill="#0" id="circle79"/>
	<circle cx="155.194" cy="439.102" r="4" fill="#0" id="circle80"/>
	<circle cx="157.714" cy="331.587" r="4" fill="#0" id="circle81"/>
	<circle cx="160.234" cy="823.807" r="4" fill="#0" id="circle82"/>
	<circle cx="161.914" cy="432.383" r="4" fill="#0" id="circle83"/>
	<circle cx="163.594" cy="387.025" r="4" fill="#0" id="circle84"/>
	<circle cx="163.594" cy="422.303" r="4" fill="#0" id="circle85"/>
	<circle cx="164.434" cy="324.867" r="4" fill="#0" id="circle86"/>
	<circle cx="167.793" cy="409.704" r="4" fill="#0" id="circle87"/>
	<circle cx="167.793" cy="828.007" r="4" fill="#0" id="circle88"/>
	<circle cx="171.153" cy="318.987" r="4" fill="#0" id="circle89"/>
	<circle cx="171.993" cy="387.025" r="4" fill="#0" id="circle90"/>
	<circle cx="171.993" cy="401.304" r="4" fill="#0" id="circle91"/>
	<circle cx="174.513" cy="310.588" r="4" fill="#0" id="circle92"/>
	<circle cx="176.193" cy="828.007" r="4" fill="#0" id="circle93"/>
	<circle cx="181.233" cy="303.868" r="4" fill="#0" id="circle94"/>
	<circle cx="184.593" cy="828.007" r="4" fill="#0" id="circle95"/>
	<circle cx="185.433" cy="295.468" r="4" fill="#0" id="circle96"/>
	<circle cx="188.793" cy="283.709" r="4" fill="#0" id="circle97"/>
	<circle cx="192.152" cy="832.207" r="4" fill="#0" id="circle98"/>
	<circle cx="195.512" cy="276.989" r="4" fill="#0" id="circle99"/>
	<circle cx="199.712" cy="268.589" r="4" fill="#0" id="circle100"/>
	<circle cx="200.552" cy="832.207" r="4" fill="#0" id="circle101"/>
	<circle cx="201.392" cy="161.914" r="4" fill="#0" id="circle102"/>
	<circle cx="201.392" cy="170.313" r="4" fill="#0" id="circle103"/>
	<circle cx="205.592" cy="177.873" r="4" fill="#0" id="circle104"/>
	<circle cx="205.592" cy="258.51" r="4" fill="#0" id="circle105"/>
	<circle cx="208.112" cy="155.194" r="4" fill="#0" id="circle106"/>
	<circle cx="208.952" cy="832.207" r="4" fill="#0" id="circle107"/>
	<circle cx="211.472" cy="184.593" r="4" fill="#0" id="circle108"/>
	<circle cx="212.312" cy="251.79" r="4" fill="#0" id="circle109"/>
	<circle cx="213.992" cy="145.114" r="4" fill="#0" id="circle110"/>
	<circle cx="216.511" cy="243.39" r="4" fill="#0" id="circle111"/>
	<circle cx="217.351" cy="832.207" r="4" fill="#0" id="circle112"/>
	<circle cx="219.871" cy="185.433" r="4" fill="#0" id="circle113"/>
	<circle cx="220.711" cy="138.395" r="4" fill="#0" id="circle114"/>
	<circle cx="222.391" cy="233.311" r="4" fill="#0" id="circle115"/>
	<circle cx="224.911" cy="836.406" r="4" fill="#0" id="circle116"/>
	<circle cx="226.591" cy="220.711" r="4" fill="#0" id="circle117"/>
	<circle cx="227.431" cy="131.675" r="4" fill="#0" id="circle118"/>
	<circle cx="228.271" cy="185.433" r="4" fill="#0" id="circle119"/>
	<circle cx="233.311" cy="213.992" r="4" fill="#0" id="circle120"/>
	<circle cx="233.311" cy="836.406" r="4" fill="#0" id="circle121"/>
	<circle cx="234.151" cy="125.795" r="4" fill="#0" id="circle122"/>
	<circle cx="236.671" cy="185.433" r="4" fill="#0" id="circle123"/>
	<circle cx="237.511" cy="205.592" r="4" fill="#0" id="circle124"/>
	<circle cx="239.191" cy="115.715" r="4" fill="#0" id="circle125"/>
	<circle cx="239.191" cy="195.512" r="4" fill="#0" id="circle126"/>
	<circle cx="241.71" cy="836.406" r="4" fill="#0" id="circle127"/>
	<circle cx="245.91" cy="108.996" r="4" fill="#0" id="circle128"/>
	<circle cx="247.59" cy="859.086" r="4" fill="#0" id="circle129"/>
	<circle cx="247.59" cy="867.485" r="4" fill="#0" id="circle130"/>
	<circle cx="247.59" cy="875.885" r="4" fill="#0" id="circle131"/>
	<circle cx="247.59" cy="884.285" r="4" fill="#0" id="circle132"/>
	<circle cx="247.59" cy="892.684" r="4" fill="#0" id="circle133"/>
	<circle cx="247.59" cy="901.084" r="4" fill="#0" id="circle134"/>
	<circle cx="247.59" cy="909.483" r="4" fill="#0" id="circle135"/>
	<circle cx="247.59" cy="917.883" r="4" fill="#0" id="circle136"/>
	<circle cx="247.59" cy="926.283" r="4" fill="#0" id="circle137"/>
	<circle cx="247.59" cy="934.682" r="4" fill="#0" id="circle138"/>
	<circle cx="247.59" cy="943.082" r="4" fill="#0" id="circle139"/>
	<circle cx="247.59" cy="951.482" r="4" fill="#0" id="circle140"/>
	<circle cx="247.59" cy="959.881" r="4" fill="#0" id="circle141"/>
	<circle cx="247.59" cy="968.281" r="4" fill="#0" id="circle142"/>
	<circle cx="247.59" cy="976.681" r="4" fill="#0" id="circle143"/>
	<circle cx="250.11" cy="836.406" r="4" fill="#0" id="circle144"/>
	<circle cx="251.79" cy="844.806" r="4" fill="#0" id="circle145"/>
	<circle cx="253.47" cy="104.796" r="4" fill="#0" id="circle146"/>
	<circle cx="254.31" cy="982.561" r="4" fill="#0" id="circle147"/>
	<circle cx="257.67" cy="97.2362" r="4" fill="#0" id="circle148"/>
	<circle cx="261.03" cy="987.6" r="4" fill="#0" id="circle149"/>
	<circle cx="264.39" cy="90.5165" r="4" fill="#0" id="circle150"/>
	<circle cx="269.429" cy="987.6" r="4" fill="#0" id="circle151"/>
	<circle cx="272.789" cy="86.3167" r="4" fill="#0" id="circle152"/>
	<circle cx="276.989" cy="77.917" r="4" fill="#0" id="circle153"/>
	<circle cx="276.989" cy="991.8" r="4" fill="#0" id="circle154"/>
	<circle cx="283.709" cy="71.1973" r="4" fill="#0" id="circle155"/>
	<circle cx="285.389" cy="991.8" r="4" fill="#0" id="circle156"/>
	<circle cx="289.588" cy="61.1177" r="4" fill="#0" id="circle157"/>
	<circle cx="293.788" cy="52.718" r="4" fill="#0" id="circle158"/>
	<circle cx="293.788" cy="991.8" r="4" fill="#0" id="circle159"/>
	<circle cx="297.988" cy="44.3184" r="4" fill="#0" id="circle160"/>
	<circle cx="301.348" cy="996" r="4" fill="#0" id="circle161"/>
	<circle cx="304.708" cy="37.5986" r="4" fill="#0" id="circle162"/>
	<circle cx="309.748" cy="996" r="4" fill="#0" id="circle163"/>
	<circle cx="311.428" cy="30.8789" r="4" fill="#0" id="circle164"/>
	<circle cx="318.147" cy="24.9992" r="4" fill="#0" id="circle165"/>
	<circle cx="318.147" cy="996" r="4" fill="#0" id="circle166"/>
	<circle cx="324.027" cy="18.2794" r="4" fill="#0" id="circle167"/>
	<circle cx="326.547" cy="996" r="4" fill="#0" id="circle168"/>
	<circle cx="330.747" cy="12.3997" r="4" fill="#0" id="circle169"/>
	<circle cx="334.947" cy="996" r="4" fill="#0" id="circle170"/>
	<circle cx="336.627" cy="5.67993" r="4" fill="#0" id="circle171"/>
	<circle cx="343.346" cy="996" r="4" fill="#0" id="circle172"/>
	<circle cx="345.026" cy="4" r="4" fill="#0" id="circle173"/>
	<circle cx="351.746" cy="996" r="4" fill="#0" id="circle174"/>
	<circle cx="353.426" cy="4" r="4" fill="#0" id="circle175"/>
	<circle cx="360.146" cy="9.0398" r="4" fill="#0" id="circle176"/>
	<circle cx="360.146" cy="996" r="4" fill="#0" id="circle177"/>
	<circle cx="366.025" cy="15.7595" r="4" fill="#0" id="circle178"/>
	<circle cx="368.545" cy="994.32" r="4" fill="#0" id="circle179"/>
	<circle cx="372.745" cy="21.6393" r="4" fill="#0" id="circle180"/>
	<circle cx="376.945" cy="990.12" r="4" fill="#0" id="circle181"/>
	<circle cx="378.625" cy="28.359" r="4" fill="#0" id="circle182"/>
	<circle cx="382.825" cy="35.9187" r="4" fill="#0" id="circle183"/>
	<circle cx="382.825" cy="983.401" r="4" fill="#0" id="circle184"/>
	<circle cx="387.025" cy="43.4784" r="4" fill="#0" id="circle185"/>
	<circle cx="387.025" cy="853.206" r="4" fill="#0" id="circle186"/>
	<circle cx="389.544" cy="977.521" r="4" fill="#0" id="circle187"/>
	<circle cx="391.224" cy="860.765" r="4" fill="#0" id="circle188"/>
	<circle cx="391.224" cy="869.165" r="4" fill="#0" id="circle189"/>
	<circle cx="391.224" cy="877.565" r="4" fill="#0" id="circle190"/>
	<circle cx="391.224" cy="885.964" r="4" fill="#0" id="circle191"/>
	<circle cx="391.224" cy="894.364" r="4" fill="#0" id="circle192"/>
	<circle cx="391.224" cy="902.764" r="4" fill="#0" id="circle193"/>
	<circle cx="391.224" cy="911.163" r="4" fill="#0" id="circle194"/>
	<circle cx="391.224" cy="919.563" r="4" fill="#0" id="circle195"/>
	<circle cx="391.224" cy="927.963" r="4" fill="#0" id="circle196"/>
	<circle cx="391.224" cy="936.362" r="4" fill="#0" id="circle197"/>
	<circle cx="391.224" cy="944.762" r="4" fill="#0" id="circle198"/>
	<circle cx="391.224" cy="962.401" r="4" fill="#0" id="circle199"/>
	<circle cx="392.064" cy="50.1981" r="4" fill="#0" id="circle200"/>
	<circle cx="395.424" cy="853.206" r="4" fill="#0" id="circle201"/>
	<circle cx="395.424" cy="952.322" r="4" fill="#0" id="circle202"/>
	<circle cx="398.784" cy="56.0779" r="4" fill="#0" id="circle203"/>
	<circle cx="403.824" cy="62.7976" r="4" fill="#0" id="circle204"/>
	<circle cx="403.824" cy="849.006" r="4" fill="#0" id="circle205"/>
	<circle cx="410.544" cy="67.8374" r="4" fill="#0" id="circle206"/>
	<circle cx="412.224" cy="849.006" r="4" fill="#0" id="circle207"/>
	<circle cx="416.423" cy="74.5572" r="4" fill="#0" id="circle208"/>
	<circle cx="420.623" cy="844.806" r="4" fill="#0" id="circle209"/>
	<circle cx="423.143" cy="79.597" r="4" fill="#0" id="circle210"/>
	<circle cx="429.023" cy="844.806" r="4" fill="#0" id="circle211"/>
	<circle cx="430.703" cy="83.7968" r="4" fill="#0" id="circle212"/>
	<circle cx="436.583" cy="90.5165" r="4" fill="#0" id="circle213"/>
	<circle cx="436.583" cy="840.606" r="4" fill="#0" id="circle214"/>
	<circle cx="443.302" cy="96.3963" r="4" fill="#0" id="circle215"/>
	<circle cx="443.302" cy="835.566" r="4" fill="#0" id="circle216"/>
	<circle cx="449.182" cy="103.116" r="4" fill="#0" id="circle217"/>
	<circle cx="450.022" cy="828.007" r="4" fill="#0" id="circle218"/>
	<circle cx="455.902" cy="108.996" r="4" fill="#0" id="circle219"/>
	<circle cx="458.422" cy="828.007" r="4" fill="#0" id="circle220"/>
	<circle cx="463.461" cy="113.196" r="4" fill="#0" id="circle221"/>
	<circle cx="466.821" cy="828.007" r="4" fill="#0" id="circle222"/>
	<circle cx="470.181" cy="119.075" r="4" fill="#0" id="circle223"/>
	<circle cx="471.021" cy="185.433" r="4" fill="#0" id="circle224"/>
	<circle cx="475.221" cy="125.795" r="4" fill="#0" id="circle225"/>
	<circle cx="475.221" cy="192.992" r="4" fill="#0" id="circle226"/>
	<circle cx="475.221" cy="828.007" r="4" fill="#0" id="circle227"/>
	<circle cx="479.421" cy="133.355" r="4" fill="#0" id="circle228"/>
	<circle cx="479.421" cy="185.433" r="4" fill="#0" id="circle229"/>
	<circle cx="479.421" cy="200.552" r="4" fill="#0" id="circle230"/>
	<circle cx="483.621" cy="208.112" r="4" fill="#0" id="circle231"/>
	<circle cx="483.621" cy="828.007" r="4" fill="#0" id="circle232"/>
	<circle cx="486.141" cy="139.235" r="4" fill="#0" id="circle233"/>
	<circle cx="486.981" cy="216.511" r="4" fill="#0" id="circle234"/>
	<circle cx="487.82" cy="185.433" r="4" fill="#0" id="circle235"/>
	<circle cx="490.34" cy="146.794" r="4" fill="#0" id="circle236"/>
	<circle cx="492.02" cy="223.231" r="4" fill="#0" id="circle237"/>
	<circle cx="492.02" cy="231.631" r="4" fill="#0" id="circle238"/>
	<circle cx="492.02" cy="828.007" r="4" fill="#0" id="circle239"/>
	<circle cx="496.22" cy="185.433" r="4" fill="#0" id="circle240"/>
	<circle cx="496.22" cy="239.191" r="4" fill="#0" id="circle241"/>
	<circle cx="497.9" cy="150.994" r="4" fill="#0" id="circle242"/>
	<circle cx="499.58" cy="832.207" r="4" fill="#0" id="circle243"/>
	<circle cx="500.42" cy="246.75" r="4" fill="#0" id="circle244"/>
	<circle cx="502.94" cy="179.553" r="4" fill="#0" id="circle245"/>
	<circle cx="503.78" cy="157.714" r="4" fill="#0" id="circle246"/>
	<circle cx="507.14" cy="252.63" r="4" fill="#0" id="circle247"/>
	<circle cx="507.98" cy="832.207" r="4" fill="#0" id="circle248"/>
	<circle cx="508.82" cy="164.434" r="4" fill="#0" id="circle249"/>
	<circle cx="508.82" cy="172.833" r="4" fill="#0" id="circle250"/>
	<circle cx="513.019" cy="259.35" r="4" fill="#0" id="circle251"/>
	<circle cx="513.019" cy="267.749" r="4" fill="#0" id="circle252"/>
	<circle cx="516.379" cy="832.207" r="4" fill="#0" id="circle253"/>
	<circle cx="517.219" cy="275.309" r="4" fill="#0" id="circle254"/>
	<circle cx="521.419" cy="282.869" r="4" fill="#0" id="circle255"/>
	<circle cx="521.419" cy="387.025" r="4" fill="#0" id="circle256"/>
	<circle cx="521.419" cy="395.424" r="4" fill="#0" id="circle257"/>
	<circle cx="523.939" cy="291.268" r="4" fill="#0" id="circle258"/>
	<circle cx="523.939" cy="836.406" r="4" fill="#0" id="circle259"/>
	<circle cx="525.619" cy="402.984" r="4" fill="#0" id="circle260"/>
	<circle cx="525.619" cy="411.384" r="4" fill="#0" id="circle261"/>
	<circle cx="525.619" cy="419.783" r="4" fill="#0" id="circle262"/>
	<circle cx="528.139" cy="298.828" r="4" fill="#0" id="circle263"/>
	<circle cx="529.819" cy="307.228" r="4" fill="#0" id="circle264"/>
	<circle cx="529.819" cy="387.025" r="4" fill="#0" id="circle265"/>
	<circle cx="529.819" cy="427.343" r="4" fill="#0" id="circle266"/>
	<circle cx="529.819" cy="435.743" r="4" fill="#0" id="circle267"/>
	<circle cx="531.499" cy="840.606" r="4" fill="#0" id="circle268"/>
	<circle cx="534.019" cy="314.787" r="4" fill="#0" id="circle269"/>
	<circle cx="534.019" cy="443.302" r="4" fill="#0" id="circle270"/>
	<circle cx="534.019" cy="451.702" r="4" fill="#0" id="circle271"/>
	<circle cx="537.378" cy="382.825" r="4" fill="#0" id="circle272"/>
	<circle cx="537.378" cy="460.102" r="4" fill="#0" id="circle273"/>
	<circle cx="538.218" cy="322.347" r="4" fill="#0" id="circle274"/>
	<circle cx="538.218" cy="468.501" r="4" fill="#0" id="circle275"/>
	<circle cx="539.898" cy="840.606" r="4" fill="#0" id="circle276"/>
	<circle cx="541.578" cy="476.901" r="4" fill="#0" id="circle277"/>
	<circle cx="544.938" cy="328.227" r="4" fill="#0" id="circle278"/>
	<circle cx="545.778" cy="382.825" r="4" fill="#0" id="circle279"/>
	<circle cx="546.618" cy="483.621" r="4" fill="#0" id="circle280"/>
	<circle cx="548.298" cy="336.627" r="4" fill="#0" id="circle281"/>
	<circle cx="548.298" cy="492.02" r="4" fill="#0" id="circle282"/>
	<circle cx="548.298" cy="840.606" r="4" fill="#0" id="circle283"/>
	<circle cx="550.818" cy="500.42" r="4" fill="#0" id="circle284"/>
	<circle cx="552.498" cy="508.82" r="4" fill="#0" id="circle285"/>
	<circle cx="554.178" cy="382.825" r="4" fill="#0" id="circle286"/>
	<circle cx="555.018" cy="342.506" r="4" fill="#0" id="circle287"/>
	<circle cx="555.858" cy="844.806" r="4" fill="#0" id="circle288"/>
	<circle cx="559.218" cy="514.699" r="4" fill="#0" id="circle289"/>
	<circle cx="559.218" cy="523.099" r="4" fill="#0" id="circle290"/>
	<circle cx="560.898" cy="349.226" r="4" fill="#0" id="circle291"/>
	<circle cx="560.898" cy="377.785" r="4" fill="#0" id="circle292"/>
	<circle cx="563.417" cy="530.659" r="4" fill="#0" id="circle293"/>
	<circle cx="564.257" cy="847.326" r="4" fill="#0" id="circle294"/>
	<circle cx="567.617" cy="355.106" r="4" fill="#0" id="circle295"/>
	<circle cx="567.617" cy="363.506" r="4" fill="#0" id="circle296"/>
	<circle cx="567.617" cy="371.905" r="4" fill="#0" id="circle297"/>
	<circle cx="567.617" cy="538.218" r="4" fill="#0" id="circle298"/>
	<circle cx="567.617" cy="651.614" r="4" fill="#0" id="circle299"/>
	<circle cx="569.297" cy="546.618" r="4" fill="#0" id="circle300"/>
	<circle cx="571.817" cy="555.018" r="4" fill="#0" id="circle301"/>
	<circle cx="571.817" cy="659.174" r="4" fill="#0" id="circle302"/>
	<circle cx="571.817" cy="667.573" r="4" fill="#0" id="circle303"/>
	<circle cx="572.657" cy="849.006" r="4" fill="#0" id="circle304"/>
	<circle cx="576.017" cy="562.577" r="4" fill="#0" id="circle305"/>
	<circle cx="576.017" cy="651.614" r="4" fill="#0" id="circle306"/>
	<circle cx="576.017" cy="675.133" r="4" fill="#0" id="circle307"/>
	<circle cx="580.217" cy="570.137" r="4" fill="#0" id="circle308"/>
	<circle cx="580.217" cy="578.537" r="4" fill="#0" id="circle309"/>
	<circle cx="580.217" cy="682.693" r="4" fill="#0" id="circle310"/>
	<circle cx="580.217" cy="691.092" r="4" fill="#0" id="circle311"/>
	<circle cx="580.217" cy="699.492" r="4" fill="#0" id="circle312"/>
	<circle cx="581.057" cy="849.006" r="4" fill="#0" id="circle313"/>
	<circle cx="584.417" cy="586.097" r="4" fill="#0" id="circle314"/>
	<circle cx="584.417" cy="651.614" r="4" fill="#0" id="circle315"/>
	<circle cx="584.417" cy="707.052" r="4" fill="#0" id="circle316"/>
	<circle cx="588.616" cy="714.611" r="4" fill="#0" id="circle317"/>
	<circle cx="589.456" cy="849.006" r="4" fill="#0" id="circle318"/>
	<circle cx="590.296" cy="592.816" r="4" fill="#0" id="circle319"/>
	<circle cx="592.816" cy="651.614" r="4" fill="#0" id="circle320"/>
	<circle cx="592.816" cy="722.171" r="4" fill="#0" id="circle321"/>
	<circle cx="597.016" cy="598.696" r="4" fill="#0" id="circle322"/>
	<circle cx="597.016" cy="729.731" r="4" fill="#0" id="circle323"/>
	<circle cx="597.856" cy="849.006" r="4" fill="#0" id="circle324"/>
	<circle cx="601.216" cy="653.294" r="4" fill="#0" id="circle325"/>
	<circle cx="601.216" cy="737.29" r="4" fill="#0" id="circle326"/>
	<circle cx="602.896" cy="605.416" r="4" fill="#0" id="circle327"/>
	<circle cx="604.576" cy="745.69" r="4" fill="#0" id="circle328"/>
	<circle cx="606.256" cy="849.006" r="4" fill="#0" id="circle329"/>
	<circle cx="608.776" cy="753.25" r="4" fill="#0" id="circle330"/>
	<circle cx="609.616" cy="611.296" r="4" fill="#0" id="circle331"/>
	<circle cx="609.616" cy="655.814" r="4" fill="#0" id="circle332"/>
	<circle cx="612.135" cy="761.649" r="4" fill="#0" id="circle333"/>
	<circle cx="613.815" cy="770.049" r="4" fill="#0" id="circle334"/>
	<circle cx="614.655" cy="849.006" r="4" fill="#0" id="circle335"/>
	<circle cx="615.495" cy="618.015" r="4" fill="#0" id="circle336"/>
	<circle cx="616.335" cy="649.934" r="4" fill="#0" id="circle337"/>
	<circle cx="618.015" cy="777.609" r="4" fill="#0" id="circle338"/>
	<circle cx="619.695" cy="625.575" r="4" fill="#0" id="circle339"/>
	<circle cx="622.215" cy="643.214" r="4" fill="#0" id="circle340"/>
	<circle cx="622.215" cy="785.169" r="4" fill="#0" id="circle341"/>
	<circle cx="622.215" cy="844.806" r="4" fill="#0" id="circle342"/>
	<circle cx="625.575" cy="632.295" r="4" fill="#0" id="circle343"/>
	<circle cx="629.775" cy="840.606" r="4" fill="#0" id="circle344"/>
	<circle cx="630.615" cy="787.688" r="4" fill="#0" id="circle345"/>
	<circle cx="636.494" cy="794.408" r="4" fill="#0" id="circle346"/>
	<circle cx="638.174" cy="838.086" r="4" fill="#0" id="circle347"/>
	<circle cx="640.694" cy="801.968" r="4" fill="#0" id="circle348"/>
	<circle cx="646.574" cy="836.406" r="4" fill="#0" id="circle349"/>
	<circle cx="648.254" cy="806.168" r="4" fill="#0" id="circle350"/>
	<circle cx="653.294" cy="831.367" r="4" fill="#0" id="circle351"/>
	<circle cx="654.974" cy="812.047" r="4" fill="#0" id="circle352"/>
	<circle cx="660.014" cy="818.767" r="4" fill="#0" id="circle353"/>
	</g>
</svg>