<?xml version="1.0" encoding="UTF-8" standalone="no"?>
<!-- Created with CurveBenchmark -->
<svg
	xmlns:dc="http://purl.org/dc/elements/1.1/"
	xmlns:cc="http://creativecommons.org/ns#"
	xmlns:rdf="http://www.w3.org/1999/02/22-rdf-syntax-ns#"
	xmlns:svg="http://www.w3.org/2000/svg"
	xmlns="http://www.w3.org/2000/svg"
	xmlns:sodipodi="http://sodipodi.sourceforge.net/DTD/sodipodi-0.dtd"
	xmlns:inkscape="http://www.inkscape.org/namespaces/inkscape"
	width="1000"
	height="1000"
	id="svg2"
	version="1.1"
	sodipodi:docname="manifold/discur-teddy295.png.txt">
<defs
	id="defs4" />
<metadata
	id="metadata7">
	<rdf:RDF>
		<cc:Work
			rdf:about="">
			<dc:format>image/svg+xml</dc:format>
			<dc:type
				rdf:resource="http://purl.org/dc/dcmitype/StillImage" />
			<dc:title></dc:title>
		</cc:Work>
	</rdf:RDF>
</metadata>
<g
	inkscape:label="Layer 1"
	inkscape:groupmode="layer"
	id="layer1">
	<path style="fill:none;stroke:red;stroke-width:1px;stroke-linecap:butt;stroke-linejoin:miter;stroke-opacity:1" d="M 4,845.783 9.66857,800.434 z" id="boundary" inkscape:connector-curvature="0" />
	<path style="fill:none;stroke:red;stroke-width:1px;stroke-linecap:butt;stroke-linejoin:miter;stroke-opacity:1" d="M 4,845.783 9.66857,874.126 z" id="boundary" inkscape:connector-curvature="0" />
	<path style="fill:none;stroke:red;stroke-width:1px;stroke-linecap:butt;stroke-linejoin:miter;stroke-opacity:1" d="M 9.66857,772.091 9.66857,800.434 z" id="boundary" inkscape:connector-curvature="0" />
	<path style="fill:none;stroke:red;stroke-width:1px;stroke-linecap:butt;stroke-linejoin:miter;stroke-opacity:1" d="M 9.66857,772.091 23.84,746.583 z" id="boundary" inkscape:connector-curvature="0" />
	<path style="fill:none;stroke:red;stroke-width:1px;stroke-linecap:butt;stroke-linejoin:miter;stroke-opacity:1" d="M 9.66857,874.126 9.66857,902.469 z" id="boundary" inkscape:connector-curvature="0" />
	<path style="fill:none;stroke:red;stroke-width:1px;stroke-linecap:butt;stroke-linejoin:miter;stroke-opacity:1" d="M 9.66857,902.469 15.3371,930.811 z" id="boundary" inkscape:connector-curvature="0" />
	<path style="fill:none;stroke:red;stroke-width:1px;stroke-linecap:butt;stroke-linejoin:miter;stroke-opacity:1" d="M 15.3371,930.811 26.6743,959.154 z" id="boundary" inkscape:connector-curvature="0" />
	<path style="fill:none;stroke:red;stroke-width:1px;stroke-linecap:butt;stroke-linejoin:miter;stroke-opacity:1" d="M 23.84,746.583 46.5143,729.577 z" id="boundary" inkscape:connector-curvature="0" />
	<path style="fill:none;stroke:red;stroke-width:1px;stroke-linecap:butt;stroke-linejoin:miter;stroke-opacity:1" d="M 26.6743,959.154 49.3486,976.16 z" id="boundary" inkscape:connector-curvature="0" />
	<path style="fill:none;stroke:red;stroke-width:1px;stroke-linecap:butt;stroke-linejoin:miter;stroke-opacity:1" d="M 46.5143,729.577 74.8571,726.743 z" id="boundary" inkscape:connector-curvature="0" />
	<path style="fill:none;stroke:red;stroke-width:1px;stroke-linecap:butt;stroke-linejoin:miter;stroke-opacity:1" d="M 49.3486,976.16 77.6914,987.497 z" id="boundary" inkscape:connector-curvature="0" />
	<path style="fill:none;stroke:red;stroke-width:1px;stroke-linecap:butt;stroke-linejoin:miter;stroke-opacity:1" d="M 74.8571,726.743 103.2,726.743 z" id="boundary" inkscape:connector-curvature="0" />
	<path style="fill:none;stroke:red;stroke-width:1px;stroke-linecap:butt;stroke-linejoin:miter;stroke-opacity:1" d="M 77.6914,987.497 106.034,996 z" id="boundary" inkscape:connector-curvature="0" />
	<path style="fill:none;stroke:red;stroke-width:1px;stroke-linecap:butt;stroke-linejoin:miter;stroke-opacity:1" d="M 89.0286,488.663 89.0286,517.006 z" id="boundary" inkscape:connector-curvature="0" />
	<path style="fill:none;stroke:red;stroke-width:1px;stroke-linecap:butt;stroke-linejoin:miter;stroke-opacity:1" d="M 89.0286,488.663 106.034,465.989 z" id="boundary" inkscape:connector-curvature="0" />
	<path style="fill:none;stroke:red;stroke-width:1px;stroke-linecap:butt;stroke-linejoin:miter;stroke-opacity:1" d="M 89.0286,517.006 94.6971,545.349 z" id="boundary" inkscape:connector-curvature="0" />
	<path style="fill:none;stroke:red;stroke-width:1px;stroke-linecap:butt;stroke-linejoin:miter;stroke-opacity:1" d="M 94.6971,545.349 100.366,573.691 z" id="boundary" inkscape:connector-curvature="0" />
	<path style="fill:none;stroke:red;stroke-width:1px;stroke-linecap:butt;stroke-linejoin:miter;stroke-opacity:1" d="M 100.366,573.691 117.371,596.366 z" id="boundary" inkscape:connector-curvature="0" />
	<path style="fill:none;stroke:red;stroke-width:1px;stroke-linecap:butt;stroke-linejoin:miter;stroke-opacity:1" d="M 103.2,726.743 131.543,726.743 z" id="boundary" inkscape:connector-curvature="0" />
	<path style="fill:none;stroke:red;stroke-width:1px;stroke-linecap:butt;stroke-linejoin:miter;stroke-opacity:1" d="M 106.034,465.989 128.709,448.983 z" id="boundary" inkscape:connector-curvature="0" />
	<path style="fill:none;stroke:red;stroke-width:1px;stroke-linecap:butt;stroke-linejoin:miter;stroke-opacity:1" d="M 106.034,996 134.377,996 z" id="boundary" inkscape:connector-curvature="0" />
	<path style="fill:none;stroke:red;stroke-width:1px;stroke-linecap:butt;stroke-linejoin:miter;stroke-opacity:1" d="M 117.371,596.366 140.046,613.371 z" id="boundary" inkscape:connector-curvature="0" />
	<path style="fill:none;stroke:red;stroke-width:1px;stroke-linecap:butt;stroke-linejoin:miter;stroke-opacity:1" d="M 128.709,448.983 157.051,443.314 z" id="boundary" inkscape:connector-curvature="0" />
	<path style="fill:none;stroke:red;stroke-width:1px;stroke-linecap:butt;stroke-linejoin:miter;stroke-opacity:1" d="M 131.543,726.743 159.886,738.08 z" id="boundary" inkscape:connector-curvature="0" />
	<path style="fill:none;stroke:red;stroke-width:1px;stroke-linecap:butt;stroke-linejoin:miter;stroke-opacity:1" d="M 134.377,996 162.72,990.331 z" id="boundary" inkscape:connector-curvature="0" />
	<path style="fill:none;stroke:red;stroke-width:1px;stroke-linecap:butt;stroke-linejoin:miter;stroke-opacity:1" d="M 140.046,613.371 165.554,627.543 z" id="boundary" inkscape:connector-curvature="0" />
	<path style="fill:none;stroke:red;stroke-width:1px;stroke-linecap:butt;stroke-linejoin:miter;stroke-opacity:1" d="M 157.051,443.314 185.394,431.977 z" id="boundary" inkscape:connector-curvature="0" />
	<path style="fill:none;stroke:red;stroke-width:1px;stroke-linecap:butt;stroke-linejoin:miter;stroke-opacity:1" d="M 159.886,738.08 179.726,704.069 z" id="boundary" inkscape:connector-curvature="0" />
	<path style="fill:none;stroke:red;stroke-width:1px;stroke-linecap:butt;stroke-linejoin:miter;stroke-opacity:1" d="M 162.72,990.331 191.063,978.994 z" id="boundary" inkscape:connector-curvature="0" />
	<path style="fill:none;stroke:red;stroke-width:1px;stroke-linecap:butt;stroke-linejoin:miter;stroke-opacity:1" d="M 165.554,627.543 185.394,650.217 z" id="boundary" inkscape:connector-curvature="0" />
	<path style="fill:none;stroke:red;stroke-width:1px;stroke-linecap:butt;stroke-linejoin:miter;stroke-opacity:1" d="M 179.726,704.069 185.394,650.217 z" id="boundary" inkscape:connector-curvature="0" />
	<path style="fill:none;stroke:red;stroke-width:1px;stroke-linecap:butt;stroke-linejoin:miter;stroke-opacity:1" d="M 185.394,239.246 188.229,267.589 z" id="boundary" inkscape:connector-curvature="0" />
	<path style="fill:none;stroke:red;stroke-width:1px;stroke-linecap:butt;stroke-linejoin:miter;stroke-opacity:1" d="M 185.394,239.246 202.4,216.571 z" id="boundary" inkscape:connector-curvature="0" />
	<path style="fill:none;stroke:red;stroke-width:1px;stroke-linecap:butt;stroke-linejoin:miter;stroke-opacity:1" d="M 185.394,431.977 213.737,431.977 z" id="boundary" inkscape:connector-curvature="0" />
	<path style="fill:none;stroke:red;stroke-width:1px;stroke-linecap:butt;stroke-linejoin:miter;stroke-opacity:1" d="M 188.229,267.589 196.731,295.931 z" id="boundary" inkscape:connector-curvature="0" />
	<path style="fill:none;stroke:red;stroke-width:1px;stroke-linecap:butt;stroke-linejoin:miter;stroke-opacity:1" d="M 191.063,978.994 219.406,973.326 z" id="boundary" inkscape:connector-curvature="0" />
	<path style="fill:none;stroke:red;stroke-width:1px;stroke-linecap:butt;stroke-linejoin:miter;stroke-opacity:1" d="M 196.731,295.931 202.4,324.274 z" id="boundary" inkscape:connector-curvature="0" />
	<path style="fill:none;stroke:red;stroke-width:1px;stroke-linecap:butt;stroke-linejoin:miter;stroke-opacity:1" d="M 202.4,216.571 225.074,199.566 z" id="boundary" inkscape:connector-curvature="0" />
	<path style="fill:none;stroke:red;stroke-width:1px;stroke-linecap:butt;stroke-linejoin:miter;stroke-opacity:1" d="M 202.4,324.274 216.571,349.783 z" id="boundary" inkscape:connector-curvature="0" />
	<path style="fill:none;stroke:red;stroke-width:1px;stroke-linecap:butt;stroke-linejoin:miter;stroke-opacity:1" d="M 213.737,431.977 242.08,426.309 z" id="boundary" inkscape:connector-curvature="0" />
	<path style="fill:none;stroke:red;stroke-width:1px;stroke-linecap:butt;stroke-linejoin:miter;stroke-opacity:1" d="M 216.571,349.783 244.914,361.12 z" id="boundary" inkscape:connector-curvature="0" />
	<path style="fill:none;stroke:red;stroke-width:1px;stroke-linecap:butt;stroke-linejoin:miter;stroke-opacity:1" d="M 219.406,973.326 247.749,976.16 z" id="boundary" inkscape:connector-curvature="0" />
	<path style="fill:none;stroke:red;stroke-width:1px;stroke-linecap:butt;stroke-linejoin:miter;stroke-opacity:1" d="M 225.074,199.566 253.417,188.229 z" id="boundary" inkscape:connector-curvature="0" />
	<path style="fill:none;stroke:red;stroke-width:1px;stroke-linecap:butt;stroke-linejoin:miter;stroke-opacity:1" d="M 242.08,426.309 270.423,414.971 z" id="boundary" inkscape:connector-curvature="0" />
	<path style="fill:none;stroke:red;stroke-width:1px;stroke-linecap:butt;stroke-linejoin:miter;stroke-opacity:1" d="M 244.914,361.12 267.589,378.126 z" id="boundary" inkscape:connector-curvature="0" />
	<path style="fill:none;stroke:red;stroke-width:1px;stroke-linecap:butt;stroke-linejoin:miter;stroke-opacity:1" d="M 247.749,976.16 270.423,996 z" id="boundary" inkscape:connector-curvature="0" />
	<path style="fill:none;stroke:red;stroke-width:1px;stroke-linecap:butt;stroke-linejoin:miter;stroke-opacity:1" d="M 253.417,188.229 281.76,182.56 z" id="boundary" inkscape:connector-curvature="0" />
	<path style="fill:none;stroke:red;stroke-width:1px;stroke-linecap:butt;stroke-linejoin:miter;stroke-opacity:1" d="M 267.589,378.126 270.423,414.971 z" id="boundary" inkscape:connector-curvature="0" />
	<path style="fill:none;stroke:red;stroke-width:1px;stroke-linecap:butt;stroke-linejoin:miter;stroke-opacity:1" d="M 270.423,996 298.766,996 z" id="boundary" inkscape:connector-curvature="0" />
	<path style="fill:none;stroke:red;stroke-width:1px;stroke-linecap:butt;stroke-linejoin:miter;stroke-opacity:1" d="M 281.76,182.56 304.434,159.886 z" id="boundary" inkscape:connector-curvature="0" />
	<path style="fill:none;stroke:red;stroke-width:1px;stroke-linecap:butt;stroke-linejoin:miter;stroke-opacity:1" d="M 298.766,996 327.109,996 z" id="boundary" inkscape:connector-curvature="0" />
	<path style="fill:none;stroke:red;stroke-width:1px;stroke-linecap:butt;stroke-linejoin:miter;stroke-opacity:1" d="M 304.434,159.886 321.44,137.211 z" id="boundary" inkscape:connector-curvature="0" />
	<path style="fill:none;stroke:red;stroke-width:1px;stroke-linecap:butt;stroke-linejoin:miter;stroke-opacity:1" d="M 321.44,137.211 338.446,114.537 z" id="boundary" inkscape:connector-curvature="0" />
	<path style="fill:none;stroke:red;stroke-width:1px;stroke-linecap:butt;stroke-linejoin:miter;stroke-opacity:1" d="M 327.109,996 355.451,996 z" id="boundary" inkscape:connector-curvature="0" />
	<path style="fill:none;stroke:red;stroke-width:1px;stroke-linecap:butt;stroke-linejoin:miter;stroke-opacity:1" d="M 338.446,114.537 349.783,69.1886 z" id="boundary" inkscape:connector-curvature="0" />
	<path style="fill:none;stroke:red;stroke-width:1px;stroke-linecap:butt;stroke-linejoin:miter;stroke-opacity:1" d="M 349.783,69.1886 361.12,40.8457 z" id="boundary" inkscape:connector-curvature="0" />
	<path style="fill:none;stroke:red;stroke-width:1px;stroke-linecap:butt;stroke-linejoin:miter;stroke-opacity:1" d="M 355.451,996 383.794,990.331 z" id="boundary" inkscape:connector-curvature="0" />
	<path style="fill:none;stroke:red;stroke-width:1px;stroke-linecap:butt;stroke-linejoin:miter;stroke-opacity:1" d="M 361.12,40.8457 378.126,18.1714 z" id="boundary" inkscape:connector-curvature="0" />
	<path style="fill:none;stroke:red;stroke-width:1px;stroke-linecap:butt;stroke-linejoin:miter;stroke-opacity:1" d="M 378.126,18.1714 406.469,6.83429 z" id="boundary" inkscape:connector-curvature="0" />
	<path style="fill:none;stroke:red;stroke-width:1px;stroke-linecap:butt;stroke-linejoin:miter;stroke-opacity:1" d="M 383.794,990.331 412.137,984.663 z" id="boundary" inkscape:connector-curvature="0" />
	<path style="fill:none;stroke:red;stroke-width:1px;stroke-linecap:butt;stroke-linejoin:miter;stroke-opacity:1" d="M 406.469,6.83429 434.811,4 z" id="boundary" inkscape:connector-curvature="0" />
	<path style="fill:none;stroke:red;stroke-width:1px;stroke-linecap:butt;stroke-linejoin:miter;stroke-opacity:1" d="M 412.137,984.663 440.48,990.331 z" id="boundary" inkscape:connector-curvature="0" />
	<path style="fill:none;stroke:red;stroke-width:1px;stroke-linecap:butt;stroke-linejoin:miter;stroke-opacity:1" d="M 434.811,4 463.154,12.5029 z" id="boundary" inkscape:connector-curvature="0" />
	<path style="fill:none;stroke:red;stroke-width:1px;stroke-linecap:butt;stroke-linejoin:miter;stroke-opacity:1" d="M 440.48,990.331 468.823,990.331 z" id="boundary" inkscape:connector-curvature="0" />
	<path style="fill:none;stroke:red;stroke-width:1px;stroke-linecap:butt;stroke-linejoin:miter;stroke-opacity:1" d="M 463.154,12.5029 485.829,32.3429 z" id="boundary" inkscape:connector-curvature="0" />
	<path style="fill:none;stroke:red;stroke-width:1px;stroke-linecap:butt;stroke-linejoin:miter;stroke-opacity:1" d="M 468.823,990.331 497.166,996 z" id="boundary" inkscape:connector-curvature="0" />
	<path style="fill:none;stroke:red;stroke-width:1px;stroke-linecap:butt;stroke-linejoin:miter;stroke-opacity:1" d="M 485.829,32.3429 511.337,15.3371 z" id="boundary" inkscape:connector-curvature="0" />
	<path style="fill:none;stroke:red;stroke-width:1px;stroke-linecap:butt;stroke-linejoin:miter;stroke-opacity:1" d="M 497.166,996 525.509,996 z" id="boundary" inkscape:connector-curvature="0" />
	<path style="fill:none;stroke:red;stroke-width:1px;stroke-linecap:butt;stroke-linejoin:miter;stroke-opacity:1" d="M 511.337,15.3371 539.68,4 z" id="boundary" inkscape:connector-curvature="0" />
	<path style="fill:none;stroke:red;stroke-width:1px;stroke-linecap:butt;stroke-linejoin:miter;stroke-opacity:1" d="M 525.509,996 553.851,990.331 z" id="boundary" inkscape:connector-curvature="0" />
	<path style="fill:none;stroke:red;stroke-width:1px;stroke-linecap:butt;stroke-linejoin:miter;stroke-opacity:1" d="M 539.68,4 568.023,6.83429 z" id="boundary" inkscape:connector-curvature="0" />
	<path style="fill:none;stroke:red;stroke-width:1px;stroke-linecap:butt;stroke-linejoin:miter;stroke-opacity:1" d="M 553.851,990.331 582.194,978.994 z" id="boundary" inkscape:connector-curvature="0" />
	<path style="fill:none;stroke:red;stroke-width:1px;stroke-linecap:butt;stroke-linejoin:miter;stroke-opacity:1" d="M 568.023,6.83429 596.366,12.5029 z" id="boundary" inkscape:connector-curvature="0" />
	<path style="fill:none;stroke:red;stroke-width:1px;stroke-linecap:butt;stroke-linejoin:miter;stroke-opacity:1" d="M 582.194,978.994 604.869,961.989 z" id="boundary" inkscape:connector-curvature="0" />
	<path style="fill:none;stroke:red;stroke-width:1px;stroke-linecap:butt;stroke-linejoin:miter;stroke-opacity:1" d="M 596.366,12.5029 613.371,35.1771 z" id="boundary" inkscape:connector-curvature="0" />
	<path style="fill:none;stroke:red;stroke-width:1px;stroke-linecap:butt;stroke-linejoin:miter;stroke-opacity:1" d="M 604.869,961.989 610.537,933.646 z" id="boundary" inkscape:connector-curvature="0" />
	<path style="fill:none;stroke:red;stroke-width:1px;stroke-linecap:butt;stroke-linejoin:miter;stroke-opacity:1" d="M 610.537,933.646 619.04,885.463 z" id="boundary" inkscape:connector-curvature="0" />
	<path style="fill:none;stroke:red;stroke-width:1px;stroke-linecap:butt;stroke-linejoin:miter;stroke-opacity:1" d="M 613.371,35.1771 613.371,63.52 z" id="boundary" inkscape:connector-curvature="0" />
	<path style="fill:none;stroke:red;stroke-width:1px;stroke-linecap:butt;stroke-linejoin:miter;stroke-opacity:1" d="M 613.371,63.52 616.206,91.8629 z" id="boundary" inkscape:connector-curvature="0" />
	<path style="fill:none;stroke:red;stroke-width:1px;stroke-linecap:butt;stroke-linejoin:miter;stroke-opacity:1" d="M 616.206,91.8629 638.88,108.869 z" id="boundary" inkscape:connector-curvature="0" />
	<path style="fill:none;stroke:red;stroke-width:1px;stroke-linecap:butt;stroke-linejoin:miter;stroke-opacity:1" d="M 619.04,885.463 624.709,851.451 z" id="boundary" inkscape:connector-curvature="0" />
	<path style="fill:none;stroke:red;stroke-width:1px;stroke-linecap:butt;stroke-linejoin:miter;stroke-opacity:1" d="M 624.709,392.297 633.211,420.64 z" id="boundary" inkscape:connector-curvature="0" />
	<path style="fill:none;stroke:red;stroke-width:1px;stroke-linecap:butt;stroke-linejoin:miter;stroke-opacity:1" d="M 624.709,392.297 636.046,363.954 z" id="boundary" inkscape:connector-curvature="0" />
	<path style="fill:none;stroke:red;stroke-width:1px;stroke-linecap:butt;stroke-linejoin:miter;stroke-opacity:1" d="M 624.709,794.766 624.709,823.109 z" id="boundary" inkscape:connector-curvature="0" />
	<path style="fill:none;stroke:red;stroke-width:1px;stroke-linecap:butt;stroke-linejoin:miter;stroke-opacity:1" d="M 624.709,794.766 636.046,755.086 z" id="boundary" inkscape:connector-curvature="0" />
	<path style="fill:none;stroke:red;stroke-width:1px;stroke-linecap:butt;stroke-linejoin:miter;stroke-opacity:1" d="M 624.709,823.109 624.709,851.451 z" id="boundary" inkscape:connector-curvature="0" />
	<path style="fill:none;stroke:red;stroke-width:1px;stroke-linecap:butt;stroke-linejoin:miter;stroke-opacity:1" d="M 633.211,420.64 641.714,448.983 z" id="boundary" inkscape:connector-curvature="0" />
	<path style="fill:none;stroke:red;stroke-width:1px;stroke-linecap:butt;stroke-linejoin:miter;stroke-opacity:1" d="M 636.046,363.954 653.051,335.611 z" id="boundary" inkscape:connector-curvature="0" />
	<path style="fill:none;stroke:red;stroke-width:1px;stroke-linecap:butt;stroke-linejoin:miter;stroke-opacity:1" d="M 636.046,585.029 636.046,613.371 z" id="boundary" inkscape:connector-curvature="0" />
	<path style="fill:none;stroke:red;stroke-width:1px;stroke-linecap:butt;stroke-linejoin:miter;stroke-opacity:1" d="M 636.046,585.029 641.714,545.349 z" id="boundary" inkscape:connector-curvature="0" />
	<path style="fill:none;stroke:red;stroke-width:1px;stroke-linecap:butt;stroke-linejoin:miter;stroke-opacity:1" d="M 636.046,613.371 636.046,641.714 z" id="boundary" inkscape:connector-curvature="0" />
	<path style="fill:none;stroke:red;stroke-width:1px;stroke-linecap:butt;stroke-linejoin:miter;stroke-opacity:1" d="M 636.046,641.714 636.046,670.057 z" id="boundary" inkscape:connector-curvature="0" />
	<path style="fill:none;stroke:red;stroke-width:1px;stroke-linecap:butt;stroke-linejoin:miter;stroke-opacity:1" d="M 636.046,670.057 636.046,698.4 z" id="boundary" inkscape:connector-curvature="0" />
	<path style="fill:none;stroke:red;stroke-width:1px;stroke-linecap:butt;stroke-linejoin:miter;stroke-opacity:1" d="M 636.046,698.4 636.046,726.743 z" id="boundary" inkscape:connector-curvature="0" />
	<path style="fill:none;stroke:red;stroke-width:1px;stroke-linecap:butt;stroke-linejoin:miter;stroke-opacity:1" d="M 636.046,726.743 636.046,755.086 z" id="boundary" inkscape:connector-curvature="0" />
	<path style="fill:none;stroke:red;stroke-width:1px;stroke-linecap:butt;stroke-linejoin:miter;stroke-opacity:1" d="M 638.88,108.869 653.051,134.377 z" id="boundary" inkscape:connector-curvature="0" />
	<path style="fill:none;stroke:red;stroke-width:1px;stroke-linecap:butt;stroke-linejoin:miter;stroke-opacity:1" d="M 641.714,448.983 647.383,477.326 z" id="boundary" inkscape:connector-curvature="0" />
	<path style="fill:none;stroke:red;stroke-width:1px;stroke-linecap:butt;stroke-linejoin:miter;stroke-opacity:1" d="M 641.714,545.349 653.051,505.669 z" id="boundary" inkscape:connector-curvature="0" />
	<path style="fill:none;stroke:red;stroke-width:1px;stroke-linecap:butt;stroke-linejoin:miter;stroke-opacity:1" d="M 647.383,477.326 653.051,505.669 z" id="boundary" inkscape:connector-curvature="0" />
	<path style="fill:none;stroke:red;stroke-width:1px;stroke-linecap:butt;stroke-linejoin:miter;stroke-opacity:1" d="M 653.051,134.377 664.389,162.72 z" id="boundary" inkscape:connector-curvature="0" />
	<path style="fill:none;stroke:red;stroke-width:1px;stroke-linecap:butt;stroke-linejoin:miter;stroke-opacity:1" d="M 653.051,335.611 667.223,310.103 z" id="boundary" inkscape:connector-curvature="0" />
	<path style="fill:none;stroke:red;stroke-width:1px;stroke-linecap:butt;stroke-linejoin:miter;stroke-opacity:1" d="M 664.389,162.72 675.726,191.063 z" id="boundary" inkscape:connector-curvature="0" />
	<path style="fill:none;stroke:red;stroke-width:1px;stroke-linecap:butt;stroke-linejoin:miter;stroke-opacity:1" d="M 667.223,310.103 675.726,278.926 z" id="boundary" inkscape:connector-curvature="0" />
	<path style="fill:none;stroke:red;stroke-width:1px;stroke-linecap:butt;stroke-linejoin:miter;stroke-opacity:1" d="M 675.726,191.063 681.394,219.406 z" id="boundary" inkscape:connector-curvature="0" />
	<path style="fill:none;stroke:red;stroke-width:1px;stroke-linecap:butt;stroke-linejoin:miter;stroke-opacity:1" d="M 675.726,278.926 681.394,247.749 z" id="boundary" inkscape:connector-curvature="0" />
	<path style="fill:none;stroke:red;stroke-width:1px;stroke-linecap:butt;stroke-linejoin:miter;stroke-opacity:1" d="M 681.394,219.406 681.394,247.749 z" id="boundary" inkscape:connector-curvature="0" />
	<circle cx="4" cy="845.783" r="4" fill="#0" id="circle0"/>
	<circle cx="9.66857" cy="772.091" r="4" fill="#0" id="circle1"/>
	<circle cx="9.66857" cy="800.434" r="4" fill="#0" id="circle2"/>
	<circle cx="9.66857" cy="874.126" r="4" fill="#0" id="circle3"/>
	<circle cx="9.66857" cy="902.469" r="4" fill="#0" id="circle4"/>
	<circle cx="15.3371" cy="930.811" r="4" fill="#0" id="circle5"/>
	<circle cx="23.84" cy="746.583" r="4" fill="#0" id="circle6"/>
	<circle cx="26.6743" cy="959.154" r="4" fill="#0" id="circle7"/>
	<circle cx="46.5143" cy="729.577" r="4" fill="#0" id="circle8"/>
	<circle cx="49.3486" cy="976.16" r="4" fill="#0" id="circle9"/>
	<circle cx="74.8571" cy="726.743" r="4" fill="#0" id="circle10"/>
	<circle cx="77.6914" cy="987.497" r="4" fill="#0" id="circle11"/>
	<circle cx="89.0286" cy="488.663" r="4" fill="#0" id="circle12"/>
	<circle cx="89.0286" cy="517.006" r="4" fill="#0" id="circle13"/>
	<circle cx="94.6971" cy="545.349" r="4" fill="#0" id="circle14"/>
	<circle cx="100.366" cy="573.691" r="4" fill="#0" id="circle15"/>
	<circle cx="103.2" cy="726.743" r="4" fill="#0" id="circle16"/>
	<circle cx="106.034" cy="465.989" r="4" fill="#0" id="circle17"/>
	<circle cx="106.034" cy="996" r="4" fill="#0" id="circle18"/>
	<circle cx="117.371" cy="596.366" r="4" fill="#0" id="circle19"/>
	<circle cx="128.709" cy="448.983" r="4" fill="#0" id="circle20"/>
	<circle cx="131.543" cy="726.743" r="4" fill="#0" id="circle21"/>
	<circle cx="134.377" cy="996" r="4" fill="#0" id="circle22"/>
	<circle cx="140.046" cy="613.371" r="4" fill="#0" id="circle23"/>
	<circle cx="157.051" cy="443.314" r="4" fill="#0" id="circle24"/>
	<circle cx="159.886" cy="738.08" r="4" fill="#0" id="circle25"/>
	<circle cx="162.72" cy="990.331" r="4" fill="#0" id="circle26"/>
	<circle cx="165.554" cy="627.543" r="4" fill="#0" id="circle27"/>
	<circle cx="179.726" cy="704.069" r="4" fill="#0" id="circle28"/>
	<circle cx="185.394" cy="239.246" r="4" fill="#0" id="circle29"/>
	<circle cx="185.394" cy="431.977" r="4" fill="#0" id="circle30"/>
	<circle cx="185.394" cy="650.217" r="4" fill="#0" id="circle31"/>
	<circle cx="188.229" cy="267.589" r="4" fill="#0" id="circle32"/>
	<circle cx="191.063" cy="978.994" r="4" fill="#0" id="circle33"/>
	<circle cx="196.731" cy="295.931" r="4" fill="#0" id="circle34"/>
	<circle cx="202.4" cy="216.571" r="4" fill="#0" id="circle35"/>
	<circle cx="202.4" cy="324.274" r="4" fill="#0" id="circle36"/>
	<circle cx="213.737" cy="431.977" r="4" fill="#0" id="circle37"/>
	<circle cx="216.571" cy="349.783" r="4" fill="#0" id="circle38"/>
	<circle cx="219.406" cy="973.326" r="4" fill="#0" id="circle39"/>
	<circle cx="225.074" cy="199.566" r="4" fill="#0" id="circle40"/>
	<circle cx="242.08" cy="426.309" r="4" fill="#0" id="circle41"/>
	<circle cx="244.914" cy="361.12" r="4" fill="#0" id="circle42"/>
	<circle cx="247.749" cy="976.16" r="4" fill="#0" id="circle43"/>
	<circle cx="253.417" cy="188.229" r="4" fill="#0" id="circle44"/>
	<circle cx="267.589" cy="378.126" r="4" fill="#0" id="circle45"/>
	<circle cx="270.423" cy="414.971" r="4" fill="#0" id="circle46"/>
	<circle cx="270.423" cy="996" r="4" fill="#0" id="circle47"/>
	<circle cx="281.76" cy="182.56" r="4" fill="#0" id="circle48"/>
	<circle cx="298.766" cy="996" r="4" fill="#0" id="circle49"/>
	<circle cx="304.434" cy="159.886" r="4" fill="#0" id="circle50"/>
	<circle cx="321.44" cy="137.211" r="4" fill="#0" id="circle51"/>
	<circle cx="327.109" cy="996" r="4" fill="#0" id="circle52"/>
	<circle cx="338.446" cy="114.537" r="4" fill="#0" id="circle53"/>
	<circle cx="349.783" cy="69.1886" r="4" fill="#0" id="circle54"/>
	<circle cx="355.451" cy="996" r="4" fill="#0" id="circle55"/>
	<circle cx="361.12" cy="40.8457" r="4" fill="#0" id="circle56"/>
	<circle cx="378.126" cy="18.1714" r="4" fill="#0" id="circle57"/>
	<circle cx="383.794" cy="990.331" r="4" fill="#0" id="circle58"/>
	<circle cx="406.469" cy="6.83429" r="4" fill="#0" id="circle59"/>
	<circle cx="412.137" cy="984.663" r="4" fill="#0" id="circle60"/>
	<circle cx="434.811" cy="4" r="4" fill="#0" id="circle61"/>
	<circle cx="440.48" cy="990.331" r="4" fill="#0" id="circle62"/>
	<circle cx="463.154" cy="12.5029" r="4" fill="#0" id="circle63"/>
	<circle cx="468.823" cy="990.331" r="4" fill="#0" id="circle64"/>
	<circle cx="485.829" cy="32.3429" r="4" fill="#0" id="circle65"/>
	<circle cx="497.166" cy="996" r="4" fill="#0" id="circle66"/>
	<circle cx="511.337" cy="15.3371" r="4" fill="#0" id="circle67"/>
	<circle cx="525.509" cy="996" r="4" fill="#0" id="circle68"/>
	<circle cx="539.68" cy="4" r="4" fill="#0" id="circle69"/>
	<circle cx="553.851" cy="990.331" r="4" fill="#0" id="circle70"/>
	<circle cx="568.023" cy="6.83429" r="4" fill="#0" id="circle71"/>
	<circle cx="582.194" cy="978.994" r="4" fill="#0" id="circle72"/>
	<circle cx="596.366" cy="12.5029" r="4" fill="#0" id="circle73"/>
	<circle cx="604.869" cy="961.989" r="4" fill="#0" id="circle74"/>
	<circle cx="610.537" cy="933.646" r="4" fill="#0" id="circle75"/>
	<circle cx="613.371" cy="35.1771" r="4" fill="#0" id="circle76"/>
	<circle cx="613.371" cy="63.52" r="4" fill="#0" id="circle77"/>
	<circle cx="616.206" cy="91.8629" r="4" fill="#0" id="circle78"/>
	<circle cx="619.04" cy="885.463" r="4" fill="#0" id="circle79"/>
	<circle cx="624.709" cy="392.297" r="4" fill="#0" id="circle80"/>
	<circle cx="624.709" cy="794.766" r="4" fill="#0" id="circle81"/>
	<circle cx="624.709" cy="823.109" r="4" fill="#0" id="circle82"/>
	<circle cx="624.709" cy="851.451" r="4" fill="#0" id="circle83"/>
	<circle cx="633.211" cy="420.64" r="4" fill="#0" id="circle84"/>
	<circle cx="636.046" cy="363.954" r="4" fill="#0" id="circle85"/>
	<circle cx="636.046" cy="585.029" r="4" fill="#0" id="circle86"/>
	<circle cx="636.046" cy="613.371" r="4" fill="#0" id="circle87"/>
	<circle cx="636.046" cy="641.714" r="4" fill="#0" id="circle88"/>
	<circle cx="636.046" cy="670.057" r="4" fill="#0" id="circle89"/>
	<circle cx="636.046" cy="698.4" r="4" fill="#0" id="circle90"/>
	<circle cx="636.046" cy="726.743" r="4" fill="#0" id="circle91"/>
	<circle cx="636.046" cy="755.086" r="4" fill="#0" id="circle92"/>
	<circle cx="638.88" cy="108.869" r="4" fill="#0" id="circle93"/>
	<circle cx="641.714" cy="448.983" r="4" fill="#0" id="circle94"/>
	<circle cx="641.714" cy="545.349" r="4" fill="#0" id="circle95"/>
	<circle cx="647.383" cy="477.326" r="4" fill="#0" id="circle96"/>
	<circle cx="653.051" cy="134.377" r="4" fill="#0" id="circle97"/>
	<circle cx="653.051" cy="335.611" r="4" fill="#0" id="circle98"/>
	<circle cx="653.051" cy="505.669" r="4" fill="#0" id="circle99"/>
	<circle cx="664.389" cy="162.72" r="4" fill="#0" id="circle100"/>
	<circle cx="667.223" cy="310.103" r="4" fill="#0" id="circle101"/>
	<circle cx="675.726" cy="191.063" r="4" fill="#0" id="circle102"/>
	<circle cx="675.726" cy="278.926" r="4" fill="#0" id="circle103"/>
	<circle cx="681.394" cy="219.406" r="4" fill="#0" id="circle104"/>
	<circle cx="681.394" cy="247.749" r="4" fill="#0" id="circle105"/>
	</g>
</svg>