<?xml version="1.0" encoding="UTF-8" standalone="no"?>
<!-- Created with CurveBenchmark -->
<svg
	xmlns:dc="http://purl.org/dc/elements/1.1/"
	xmlns:cc="http://creativecommons.org/ns#"
	xmlns:rdf="http://www.w3.org/1999/02/22-rdf-syntax-ns#"
	xmlns:svg="http://www.w3.org/2000/svg"
	xmlns="http://www.w3.org/2000/svg"
	xmlns:sodipodi="http://sodipodi.sourceforge.net/DTD/sodipodi-0.dtd"
	xmlns:inkscape="http://www.inkscape.org/namespaces/inkscape"
	width="1000"
	height="1000"
	id="svg2"
	version="1.1"
	sodipodi:docname="manifold/discur-bed025.png.txt">
<defs
	id="defs4" />
<metadata
	id="metadata7">
	<rdf:RDF>
		<cc:Work
			rdf:about="">
			<dc:format>image/svg+xml</dc:format>
			<dc:type
				rdf:resource="http://purl.org/dc/dcmitype/StillImage" />
			<dc:title></dc:title>
		</cc:Work>
	</rdf:RDF>
</metadata>
<g
	inkscape:label="Layer 1"
	inkscape:groupmode="layer"
	id="layer1">
	<path style="fill:none;stroke:red;stroke-width:1px;stroke-linecap:butt;stroke-linejoin:miter;stroke-opacity:1" d="M 4,143.615 5.83704,161.985 z" id="boundary" inkscape:connector-curvature="0" />
	<path style="fill:none;stroke:red;stroke-width:1px;stroke-linecap:butt;stroke-linejoin:miter;stroke-opacity:1" d="M 4,143.615 13.1852,127.081 z" id="boundary" inkscape:connector-curvature="0" />
	<path style="fill:none;stroke:red;stroke-width:1px;stroke-linecap:butt;stroke-linejoin:miter;stroke-opacity:1" d="M 5.83704,161.985 15.0222,178.519 z" id="boundary" inkscape:connector-curvature="0" />
	<path style="fill:none;stroke:red;stroke-width:1px;stroke-linecap:butt;stroke-linejoin:miter;stroke-opacity:1" d="M 7.67407,400.8 7.67407,419.17 z" id="boundary" inkscape:connector-curvature="0" />
	<path style="fill:none;stroke:red;stroke-width:1px;stroke-linecap:butt;stroke-linejoin:miter;stroke-opacity:1" d="M 7.67407,400.8 11.3481,371.407 z" id="boundary" inkscape:connector-curvature="0" />
	<path style="fill:none;stroke:red;stroke-width:1px;stroke-linecap:butt;stroke-linejoin:miter;stroke-opacity:1" d="M 7.67407,419.17 7.67407,437.541 z" id="boundary" inkscape:connector-curvature="0" />
	<path style="fill:none;stroke:red;stroke-width:1px;stroke-linecap:butt;stroke-linejoin:miter;stroke-opacity:1" d="M 7.67407,437.541 7.67407,455.911 z" id="boundary" inkscape:connector-curvature="0" />
	<path style="fill:none;stroke:red;stroke-width:1px;stroke-linecap:butt;stroke-linejoin:miter;stroke-opacity:1" d="M 7.67407,455.911 7.67407,474.281 z" id="boundary" inkscape:connector-curvature="0" />
	<path style="fill:none;stroke:red;stroke-width:1px;stroke-linecap:butt;stroke-linejoin:miter;stroke-opacity:1" d="M 7.67407,474.281 11.3481,492.652 z" id="boundary" inkscape:connector-curvature="0" />
	<path style="fill:none;stroke:red;stroke-width:1px;stroke-linecap:butt;stroke-linejoin:miter;stroke-opacity:1" d="M 11.3481,353.037 11.3481,371.407 z" id="boundary" inkscape:connector-curvature="0" />
	<path style="fill:none;stroke:red;stroke-width:1px;stroke-linecap:butt;stroke-linejoin:miter;stroke-opacity:1" d="M 11.3481,353.037 15.0222,327.319 z" id="boundary" inkscape:connector-curvature="0" />
	<path style="fill:none;stroke:red;stroke-width:1px;stroke-linecap:butt;stroke-linejoin:miter;stroke-opacity:1" d="M 11.3481,492.652 11.3481,511.022 z" id="boundary" inkscape:connector-curvature="0" />
	<path style="fill:none;stroke:red;stroke-width:1px;stroke-linecap:butt;stroke-linejoin:miter;stroke-opacity:1" d="M 11.3481,511.022 11.3481,529.393 z" id="boundary" inkscape:connector-curvature="0" />
	<path style="fill:none;stroke:red;stroke-width:1px;stroke-linecap:butt;stroke-linejoin:miter;stroke-opacity:1" d="M 11.3481,529.393 13.1852,547.763 z" id="boundary" inkscape:connector-curvature="0" />
	<path style="fill:none;stroke:red;stroke-width:1px;stroke-linecap:butt;stroke-linejoin:miter;stroke-opacity:1" d="M 13.1852,127.081 27.8815,116.059 z" id="boundary" inkscape:connector-curvature="0" />
	<path style="fill:none;stroke:red;stroke-width:1px;stroke-linecap:butt;stroke-linejoin:miter;stroke-opacity:1" d="M 13.1852,547.763 15.0222,566.133 z" id="boundary" inkscape:connector-curvature="0" />
	<path style="fill:none;stroke:red;stroke-width:1px;stroke-linecap:butt;stroke-linejoin:miter;stroke-opacity:1" d="M 15.0222,178.519 18.6963,196.889 z" id="boundary" inkscape:connector-curvature="0" />
	<path style="fill:none;stroke:red;stroke-width:1px;stroke-linecap:butt;stroke-linejoin:miter;stroke-opacity:1" d="M 15.0222,327.319 18.6963,294.252 z" id="boundary" inkscape:connector-curvature="0" />
	<path style="fill:none;stroke:red;stroke-width:1px;stroke-linecap:butt;stroke-linejoin:miter;stroke-opacity:1" d="M 15.0222,566.133 33.3926,567.97 z" id="boundary" inkscape:connector-curvature="0" />
	<path style="fill:none;stroke:red;stroke-width:1px;stroke-linecap:butt;stroke-linejoin:miter;stroke-opacity:1" d="M 18.6963,196.889 18.6963,215.259 z" id="boundary" inkscape:connector-curvature="0" />
	<path style="fill:none;stroke:red;stroke-width:1px;stroke-linecap:butt;stroke-linejoin:miter;stroke-opacity:1" d="M 18.6963,215.259 22.3704,233.63 z" id="boundary" inkscape:connector-curvature="0" />
	<path style="fill:none;stroke:red;stroke-width:1px;stroke-linecap:butt;stroke-linejoin:miter;stroke-opacity:1" d="M 18.6963,294.252 22.3704,270.37 z" id="boundary" inkscape:connector-curvature="0" />
	<path style="fill:none;stroke:red;stroke-width:1px;stroke-linecap:butt;stroke-linejoin:miter;stroke-opacity:1" d="M 22.3704,233.63 22.3704,252 z" id="boundary" inkscape:connector-curvature="0" />
	<path style="fill:none;stroke:red;stroke-width:1px;stroke-linecap:butt;stroke-linejoin:miter;stroke-opacity:1" d="M 22.3704,252 22.3704,270.37 z" id="boundary" inkscape:connector-curvature="0" />
	<path style="fill:none;stroke:red;stroke-width:1px;stroke-linecap:butt;stroke-linejoin:miter;stroke-opacity:1" d="M 27.8815,116.059 44.4148,106.874 z" id="boundary" inkscape:connector-curvature="0" />
	<path style="fill:none;stroke:red;stroke-width:1px;stroke-linecap:butt;stroke-linejoin:miter;stroke-opacity:1" d="M 33.3926,567.97 35.2296,540.415 z" id="boundary" inkscape:connector-curvature="0" />
	<path style="fill:none;stroke:red;stroke-width:1px;stroke-linecap:butt;stroke-linejoin:miter;stroke-opacity:1" d="M 35.2296,540.415 38.9037,514.696 z" id="boundary" inkscape:connector-curvature="0" />
	<path style="fill:none;stroke:red;stroke-width:1px;stroke-linecap:butt;stroke-linejoin:miter;stroke-opacity:1" d="M 38.9037,496.326 38.9037,514.696 z" id="boundary" inkscape:connector-curvature="0" />
	<path style="fill:none;stroke:red;stroke-width:1px;stroke-linecap:butt;stroke-linejoin:miter;stroke-opacity:1" d="M 38.9037,496.326 57.2741,494.489 z" id="boundary" inkscape:connector-curvature="0" />
	<path style="fill:none;stroke:red;stroke-width:1px;stroke-linecap:butt;stroke-linejoin:miter;stroke-opacity:1" d="M 44.4148,106.874 62.7852,99.5259 z" id="boundary" inkscape:connector-curvature="0" />
	<path style="fill:none;stroke:red;stroke-width:1px;stroke-linecap:butt;stroke-linejoin:miter;stroke-opacity:1" d="M 57.2741,494.489 75.6444,498.163 z" id="boundary" inkscape:connector-curvature="0" />
	<path style="fill:none;stroke:red;stroke-width:1px;stroke-linecap:butt;stroke-linejoin:miter;stroke-opacity:1" d="M 62.7852,99.5259 81.1556,95.8519 z" id="boundary" inkscape:connector-curvature="0" />
	<path style="fill:none;stroke:red;stroke-width:1px;stroke-linecap:butt;stroke-linejoin:miter;stroke-opacity:1" d="M 75.6444,498.163 94.0148,498.163 z" id="boundary" inkscape:connector-curvature="0" />
	<path style="fill:none;stroke:red;stroke-width:1px;stroke-linecap:butt;stroke-linejoin:miter;stroke-opacity:1" d="M 81.1556,95.8519 99.5259,88.5037 z" id="boundary" inkscape:connector-curvature="0" />
	<path style="fill:none;stroke:red;stroke-width:1px;stroke-linecap:butt;stroke-linejoin:miter;stroke-opacity:1" d="M 94.0148,498.163 112.385,498.163 z" id="boundary" inkscape:connector-curvature="0" />
	<path style="fill:none;stroke:red;stroke-width:1px;stroke-linecap:butt;stroke-linejoin:miter;stroke-opacity:1" d="M 99.5259,88.5037 117.896,84.8296 z" id="boundary" inkscape:connector-curvature="0" />
	<path style="fill:none;stroke:red;stroke-width:1px;stroke-linecap:butt;stroke-linejoin:miter;stroke-opacity:1" d="M 112.385,498.163 130.756,498.163 z" id="boundary" inkscape:connector-curvature="0" />
	<path style="fill:none;stroke:red;stroke-width:1px;stroke-linecap:butt;stroke-linejoin:miter;stroke-opacity:1" d="M 117.896,84.8296 136.267,81.1556 z" id="boundary" inkscape:connector-curvature="0" />
	<path style="fill:none;stroke:red;stroke-width:1px;stroke-linecap:butt;stroke-linejoin:miter;stroke-opacity:1" d="M 130.756,498.163 149.126,498.163 z" id="boundary" inkscape:connector-curvature="0" />
	<path style="fill:none;stroke:red;stroke-width:1px;stroke-linecap:butt;stroke-linejoin:miter;stroke-opacity:1" d="M 136.267,81.1556 154.637,73.8074 z" id="boundary" inkscape:connector-curvature="0" />
	<path style="fill:none;stroke:red;stroke-width:1px;stroke-linecap:butt;stroke-linejoin:miter;stroke-opacity:1" d="M 149.126,498.163 167.496,498.163 z" id="boundary" inkscape:connector-curvature="0" />
	<path style="fill:none;stroke:red;stroke-width:1px;stroke-linecap:butt;stroke-linejoin:miter;stroke-opacity:1" d="M 154.637,73.8074 173.007,70.1333 z" id="boundary" inkscape:connector-curvature="0" />
	<path style="fill:none;stroke:red;stroke-width:1px;stroke-linecap:butt;stroke-linejoin:miter;stroke-opacity:1" d="M 167.496,498.163 185.867,498.163 z" id="boundary" inkscape:connector-curvature="0" />
	<path style="fill:none;stroke:red;stroke-width:1px;stroke-linecap:butt;stroke-linejoin:miter;stroke-opacity:1" d="M 173.007,70.1333 191.378,70.1333 z" id="boundary" inkscape:connector-curvature="0" />
	<path style="fill:none;stroke:red;stroke-width:1px;stroke-linecap:butt;stroke-linejoin:miter;stroke-opacity:1" d="M 185.867,498.163 204.237,498.163 z" id="boundary" inkscape:connector-curvature="0" />
	<path style="fill:none;stroke:red;stroke-width:1px;stroke-linecap:butt;stroke-linejoin:miter;stroke-opacity:1" d="M 191.378,70.1333 209.748,62.7852 z" id="boundary" inkscape:connector-curvature="0" />
	<path style="fill:none;stroke:red;stroke-width:1px;stroke-linecap:butt;stroke-linejoin:miter;stroke-opacity:1" d="M 204.237,498.163 222.607,498.163 z" id="boundary" inkscape:connector-curvature="0" />
	<path style="fill:none;stroke:red;stroke-width:1px;stroke-linecap:butt;stroke-linejoin:miter;stroke-opacity:1" d="M 209.748,62.7852 224.444,48.0889 z" id="boundary" inkscape:connector-curvature="0" />
	<path style="fill:none;stroke:red;stroke-width:1px;stroke-linecap:butt;stroke-linejoin:miter;stroke-opacity:1" d="M 222.607,498.163 240.978,498.163 z" id="boundary" inkscape:connector-curvature="0" />
	<path style="fill:none;stroke:red;stroke-width:1px;stroke-linecap:butt;stroke-linejoin:miter;stroke-opacity:1" d="M 224.444,48.0889 242.815,44.4148 z" id="boundary" inkscape:connector-curvature="0" />
	<path style="fill:none;stroke:red;stroke-width:1px;stroke-linecap:butt;stroke-linejoin:miter;stroke-opacity:1" d="M 240.978,498.163 259.348,498.163 z" id="boundary" inkscape:connector-curvature="0" />
	<path style="fill:none;stroke:red;stroke-width:1px;stroke-linecap:butt;stroke-linejoin:miter;stroke-opacity:1" d="M 242.815,44.4148 261.185,37.0667 z" id="boundary" inkscape:connector-curvature="0" />
	<path style="fill:none;stroke:red;stroke-width:1px;stroke-linecap:butt;stroke-linejoin:miter;stroke-opacity:1" d="M 259.348,498.163 277.719,498.163 z" id="boundary" inkscape:connector-curvature="0" />
	<path style="fill:none;stroke:red;stroke-width:1px;stroke-linecap:butt;stroke-linejoin:miter;stroke-opacity:1" d="M 261.185,37.0667 272.207,18.6963 z" id="boundary" inkscape:connector-curvature="0" />
	<path style="fill:none;stroke:red;stroke-width:1px;stroke-linecap:butt;stroke-linejoin:miter;stroke-opacity:1" d="M 272.207,18.6963 286.904,4 z" id="boundary" inkscape:connector-curvature="0" />
	<path style="fill:none;stroke:red;stroke-width:1px;stroke-linecap:butt;stroke-linejoin:miter;stroke-opacity:1" d="M 277.719,498.163 296.089,498.163 z" id="boundary" inkscape:connector-curvature="0" />
	<path style="fill:none;stroke:red;stroke-width:1px;stroke-linecap:butt;stroke-linejoin:miter;stroke-opacity:1" d="M 286.904,4 305.274,4 z" id="boundary" inkscape:connector-curvature="0" />
	<path style="fill:none;stroke:red;stroke-width:1px;stroke-linecap:butt;stroke-linejoin:miter;stroke-opacity:1" d="M 296.089,498.163 314.459,498.163 z" id="boundary" inkscape:connector-curvature="0" />
	<path style="fill:none;stroke:red;stroke-width:1px;stroke-linecap:butt;stroke-linejoin:miter;stroke-opacity:1" d="M 305.274,4 321.807,13.1852 z" id="boundary" inkscape:connector-curvature="0" />
	<path style="fill:none;stroke:red;stroke-width:1px;stroke-linecap:butt;stroke-linejoin:miter;stroke-opacity:1" d="M 314.459,498.163 332.83,498.163 z" id="boundary" inkscape:connector-curvature="0" />
	<path style="fill:none;stroke:red;stroke-width:1px;stroke-linecap:butt;stroke-linejoin:miter;stroke-opacity:1" d="M 321.807,13.1852 336.504,26.0444 z" id="boundary" inkscape:connector-curvature="0" />
	<path style="fill:none;stroke:red;stroke-width:1px;stroke-linecap:butt;stroke-linejoin:miter;stroke-opacity:1" d="M 332.83,498.163 345.689,512.859 z" id="boundary" inkscape:connector-curvature="0" />
	<path style="fill:none;stroke:red;stroke-width:1px;stroke-linecap:butt;stroke-linejoin:miter;stroke-opacity:1" d="M 336.504,26.0444 351.2,37.0667 z" id="boundary" inkscape:connector-curvature="0" />
	<path style="fill:none;stroke:red;stroke-width:1px;stroke-linecap:butt;stroke-linejoin:miter;stroke-opacity:1" d="M 345.689,512.859 345.689,531.23 z" id="boundary" inkscape:connector-curvature="0" />
	<path style="fill:none;stroke:red;stroke-width:1px;stroke-linecap:butt;stroke-linejoin:miter;stroke-opacity:1" d="M 345.689,531.23 349.363,549.6 z" id="boundary" inkscape:connector-curvature="0" />
	<path style="fill:none;stroke:red;stroke-width:1px;stroke-linecap:butt;stroke-linejoin:miter;stroke-opacity:1" d="M 349.363,549.6 349.363,567.97 z" id="boundary" inkscape:connector-curvature="0" />
	<path style="fill:none;stroke:red;stroke-width:1px;stroke-linecap:butt;stroke-linejoin:miter;stroke-opacity:1" d="M 349.363,567.97 367.733,567.97 z" id="boundary" inkscape:connector-curvature="0" />
	<path style="fill:none;stroke:red;stroke-width:1px;stroke-linecap:butt;stroke-linejoin:miter;stroke-opacity:1" d="M 351.2,37.0667 369.57,44.4148 z" id="boundary" inkscape:connector-curvature="0" />
	<path style="fill:none;stroke:red;stroke-width:1px;stroke-linecap:butt;stroke-linejoin:miter;stroke-opacity:1" d="M 367.733,567.97 373.244,547.763 z" id="boundary" inkscape:connector-curvature="0" />
	<path style="fill:none;stroke:red;stroke-width:1px;stroke-linecap:butt;stroke-linejoin:miter;stroke-opacity:1" d="M 369.57,44.4148 386.104,53.6 z" id="boundary" inkscape:connector-curvature="0" />
	<path style="fill:none;stroke:red;stroke-width:1px;stroke-linecap:butt;stroke-linejoin:miter;stroke-opacity:1" d="M 373.244,547.763 376.919,518.37 z" id="boundary" inkscape:connector-curvature="0" />
	<path style="fill:none;stroke:red;stroke-width:1px;stroke-linecap:butt;stroke-linejoin:miter;stroke-opacity:1" d="M 376.919,518.37 391.615,505.511 z" id="boundary" inkscape:connector-curvature="0" />
	<path style="fill:none;stroke:red;stroke-width:1px;stroke-linecap:butt;stroke-linejoin:miter;stroke-opacity:1" d="M 386.104,53.6 397.126,68.2963 z" id="boundary" inkscape:connector-curvature="0" />
	<path style="fill:none;stroke:red;stroke-width:1px;stroke-linecap:butt;stroke-linejoin:miter;stroke-opacity:1" d="M 391.615,505.511 409.985,505.511 z" id="boundary" inkscape:connector-curvature="0" />
	<path style="fill:none;stroke:red;stroke-width:1px;stroke-linecap:butt;stroke-linejoin:miter;stroke-opacity:1" d="M 397.126,68.2963 415.496,70.1333 z" id="boundary" inkscape:connector-curvature="0" />
	<path style="fill:none;stroke:red;stroke-width:1px;stroke-linecap:butt;stroke-linejoin:miter;stroke-opacity:1" d="M 409.985,505.511 428.356,505.511 z" id="boundary" inkscape:connector-curvature="0" />
	<path style="fill:none;stroke:red;stroke-width:1px;stroke-linecap:butt;stroke-linejoin:miter;stroke-opacity:1" d="M 415.496,70.1333 433.867,73.8074 z" id="boundary" inkscape:connector-curvature="0" />
	<path style="fill:none;stroke:red;stroke-width:1px;stroke-linecap:butt;stroke-linejoin:miter;stroke-opacity:1" d="M 428.356,505.511 446.726,512.859 z" id="boundary" inkscape:connector-curvature="0" />
	<path style="fill:none;stroke:red;stroke-width:1px;stroke-linecap:butt;stroke-linejoin:miter;stroke-opacity:1" d="M 433.867,73.8074 452.237,77.4815 z" id="boundary" inkscape:connector-curvature="0" />
	<path style="fill:none;stroke:red;stroke-width:1px;stroke-linecap:butt;stroke-linejoin:miter;stroke-opacity:1" d="M 446.726,512.859 465.096,516.533 z" id="boundary" inkscape:connector-curvature="0" />
	<path style="fill:none;stroke:red;stroke-width:1px;stroke-linecap:butt;stroke-linejoin:miter;stroke-opacity:1" d="M 452.237,77.4815 470.607,82.9926 z" id="boundary" inkscape:connector-curvature="0" />
	<path style="fill:none;stroke:red;stroke-width:1px;stroke-linecap:butt;stroke-linejoin:miter;stroke-opacity:1" d="M 465.096,516.533 483.467,514.696 z" id="boundary" inkscape:connector-curvature="0" />
	<path style="fill:none;stroke:red;stroke-width:1px;stroke-linecap:butt;stroke-linejoin:miter;stroke-opacity:1" d="M 470.607,82.9926 488.978,88.5037 z" id="boundary" inkscape:connector-curvature="0" />
	<path style="fill:none;stroke:red;stroke-width:1px;stroke-linecap:butt;stroke-linejoin:miter;stroke-opacity:1" d="M 483.467,514.696 500,505.511 z" id="boundary" inkscape:connector-curvature="0" />
	<path style="fill:none;stroke:red;stroke-width:1px;stroke-linecap:butt;stroke-linejoin:miter;stroke-opacity:1" d="M 488.978,88.5037 507.348,92.1778 z" id="boundary" inkscape:connector-curvature="0" />
	<path style="fill:none;stroke:red;stroke-width:1px;stroke-linecap:butt;stroke-linejoin:miter;stroke-opacity:1" d="M 500,505.511 518.37,501.837 z" id="boundary" inkscape:connector-curvature="0" />
	<path style="fill:none;stroke:red;stroke-width:1px;stroke-linecap:butt;stroke-linejoin:miter;stroke-opacity:1" d="M 507.348,92.1778 525.719,99.5259 z" id="boundary" inkscape:connector-curvature="0" />
	<path style="fill:none;stroke:red;stroke-width:1px;stroke-linecap:butt;stroke-linejoin:miter;stroke-opacity:1" d="M 518.37,501.837 536.741,501.837 z" id="boundary" inkscape:connector-curvature="0" />
	<path style="fill:none;stroke:red;stroke-width:1px;stroke-linecap:butt;stroke-linejoin:miter;stroke-opacity:1" d="M 525.719,99.5259 544.089,105.037 z" id="boundary" inkscape:connector-curvature="0" />
	<path style="fill:none;stroke:red;stroke-width:1px;stroke-linecap:butt;stroke-linejoin:miter;stroke-opacity:1" d="M 536.741,501.837 555.111,507.348 z" id="boundary" inkscape:connector-curvature="0" />
	<path style="fill:none;stroke:red;stroke-width:1px;stroke-linecap:butt;stroke-linejoin:miter;stroke-opacity:1" d="M 544.089,105.037 560.622,114.222 z" id="boundary" inkscape:connector-curvature="0" />
	<path style="fill:none;stroke:red;stroke-width:1px;stroke-linecap:butt;stroke-linejoin:miter;stroke-opacity:1" d="M 555.111,507.348 562.459,525.719 z" id="boundary" inkscape:connector-curvature="0" />
	<path style="fill:none;stroke:red;stroke-width:1px;stroke-linecap:butt;stroke-linejoin:miter;stroke-opacity:1" d="M 560.622,114.222 577.156,123.407 z" id="boundary" inkscape:connector-curvature="0" />
	<path style="fill:none;stroke:red;stroke-width:1px;stroke-linecap:butt;stroke-linejoin:miter;stroke-opacity:1" d="M 562.459,525.719 562.459,544.089 z" id="boundary" inkscape:connector-curvature="0" />
	<path style="fill:none;stroke:red;stroke-width:1px;stroke-linecap:butt;stroke-linejoin:miter;stroke-opacity:1" d="M 562.459,544.089 562.459,562.459 z" id="boundary" inkscape:connector-curvature="0" />
	<path style="fill:none;stroke:red;stroke-width:1px;stroke-linecap:butt;stroke-linejoin:miter;stroke-opacity:1" d="M 562.459,562.459 578.993,571.644 z" id="boundary" inkscape:connector-curvature="0" />
	<path style="fill:none;stroke:red;stroke-width:1px;stroke-linecap:butt;stroke-linejoin:miter;stroke-opacity:1" d="M 571.644,198.726 571.644,217.096 z" id="boundary" inkscape:connector-curvature="0" />
	<path style="fill:none;stroke:red;stroke-width:1px;stroke-linecap:butt;stroke-linejoin:miter;stroke-opacity:1" d="M 571.644,198.726 575.319,180.356 z" id="boundary" inkscape:connector-curvature="0" />
	<path style="fill:none;stroke:red;stroke-width:1px;stroke-linecap:butt;stroke-linejoin:miter;stroke-opacity:1" d="M 571.644,217.096 571.644,235.467 z" id="boundary" inkscape:connector-curvature="0" />
	<path style="fill:none;stroke:red;stroke-width:1px;stroke-linecap:butt;stroke-linejoin:miter;stroke-opacity:1" d="M 571.644,235.467 580.83,252 z" id="boundary" inkscape:connector-curvature="0" />
	<path style="fill:none;stroke:red;stroke-width:1px;stroke-linecap:butt;stroke-linejoin:miter;stroke-opacity:1" d="M 575.319,180.356 586.341,165.659 z" id="boundary" inkscape:connector-curvature="0" />
	<path style="fill:none;stroke:red;stroke-width:1px;stroke-linecap:butt;stroke-linejoin:miter;stroke-opacity:1" d="M 577.156,123.407 588.178,138.104 z" id="boundary" inkscape:connector-curvature="0" />
	<path style="fill:none;stroke:red;stroke-width:1px;stroke-linecap:butt;stroke-linejoin:miter;stroke-opacity:1" d="M 578.993,571.644 582.667,544.089 z" id="boundary" inkscape:connector-curvature="0" />
	<path style="fill:none;stroke:red;stroke-width:1px;stroke-linecap:butt;stroke-linejoin:miter;stroke-opacity:1" d="M 580.83,252 591.852,266.696 z" id="boundary" inkscape:connector-curvature="0" />
	<path style="fill:none;stroke:red;stroke-width:1px;stroke-linecap:butt;stroke-linejoin:miter;stroke-opacity:1" d="M 582.667,544.089 588.178,520.207 z" id="boundary" inkscape:connector-curvature="0" />
	<path style="fill:none;stroke:red;stroke-width:1px;stroke-linecap:butt;stroke-linejoin:miter;stroke-opacity:1" d="M 586.341,165.659 588.178,138.104 z" id="boundary" inkscape:connector-curvature="0" />
	<path style="fill:none;stroke:red;stroke-width:1px;stroke-linecap:butt;stroke-linejoin:miter;stroke-opacity:1" d="M 588.178,520.207 606.548,525.719 z" id="boundary" inkscape:connector-curvature="0" />
	<path style="fill:none;stroke:red;stroke-width:1px;stroke-linecap:butt;stroke-linejoin:miter;stroke-opacity:1" d="M 591.852,266.696 610.222,272.207 z" id="boundary" inkscape:connector-curvature="0" />
	<path style="fill:none;stroke:red;stroke-width:1px;stroke-linecap:butt;stroke-linejoin:miter;stroke-opacity:1" d="M 606.548,525.719 624.919,531.23 z" id="boundary" inkscape:connector-curvature="0" />
	<path style="fill:none;stroke:red;stroke-width:1px;stroke-linecap:butt;stroke-linejoin:miter;stroke-opacity:1" d="M 610.222,272.207 626.756,263.022 z" id="boundary" inkscape:connector-curvature="0" />
	<path style="fill:none;stroke:red;stroke-width:1px;stroke-linecap:butt;stroke-linejoin:miter;stroke-opacity:1" d="M 624.919,531.23 643.289,536.741 z" id="boundary" inkscape:connector-curvature="0" />
	<path style="fill:none;stroke:red;stroke-width:1px;stroke-linecap:butt;stroke-linejoin:miter;stroke-opacity:1" d="M 626.756,263.022 645.126,255.674 z" id="boundary" inkscape:connector-curvature="0" />
	<path style="fill:none;stroke:red;stroke-width:1px;stroke-linecap:butt;stroke-linejoin:miter;stroke-opacity:1" d="M 643.289,536.741 661.659,538.578 z" id="boundary" inkscape:connector-curvature="0" />
	<path style="fill:none;stroke:red;stroke-width:1px;stroke-linecap:butt;stroke-linejoin:miter;stroke-opacity:1" d="M 645.126,255.674 661.659,246.489 z" id="boundary" inkscape:connector-curvature="0" />
	<path style="fill:none;stroke:red;stroke-width:1px;stroke-linecap:butt;stroke-linejoin:miter;stroke-opacity:1" d="M 661.659,246.489 680.03,248.326 z" id="boundary" inkscape:connector-curvature="0" />
	<path style="fill:none;stroke:red;stroke-width:1px;stroke-linecap:butt;stroke-linejoin:miter;stroke-opacity:1" d="M 661.659,538.578 680.03,538.578 z" id="boundary" inkscape:connector-curvature="0" />
	<path style="fill:none;stroke:red;stroke-width:1px;stroke-linecap:butt;stroke-linejoin:miter;stroke-opacity:1" d="M 680.03,248.326 696.563,257.511 z" id="boundary" inkscape:connector-curvature="0" />
	<path style="fill:none;stroke:red;stroke-width:1px;stroke-linecap:butt;stroke-linejoin:miter;stroke-opacity:1" d="M 680.03,538.578 698.4,534.904 z" id="boundary" inkscape:connector-curvature="0" />
	<path style="fill:none;stroke:red;stroke-width:1px;stroke-linecap:butt;stroke-linejoin:miter;stroke-opacity:1" d="M 696.563,257.511 714.933,264.859 z" id="boundary" inkscape:connector-curvature="0" />
	<path style="fill:none;stroke:red;stroke-width:1px;stroke-linecap:butt;stroke-linejoin:miter;stroke-opacity:1" d="M 698.4,534.904 716.77,531.23 z" id="boundary" inkscape:connector-curvature="0" />
	<path style="fill:none;stroke:red;stroke-width:1px;stroke-linecap:butt;stroke-linejoin:miter;stroke-opacity:1" d="M 714.933,264.859 731.467,274.044 z" id="boundary" inkscape:connector-curvature="0" />
	<path style="fill:none;stroke:red;stroke-width:1px;stroke-linecap:butt;stroke-linejoin:miter;stroke-opacity:1" d="M 716.77,531.23 735.141,527.556 z" id="boundary" inkscape:connector-curvature="0" />
	<path style="fill:none;stroke:red;stroke-width:1px;stroke-linecap:butt;stroke-linejoin:miter;stroke-opacity:1" d="M 731.467,274.044 749.837,281.393 z" id="boundary" inkscape:connector-curvature="0" />
	<path style="fill:none;stroke:red;stroke-width:1px;stroke-linecap:butt;stroke-linejoin:miter;stroke-opacity:1" d="M 735.141,527.556 753.511,520.207 z" id="boundary" inkscape:connector-curvature="0" />
	<path style="fill:none;stroke:red;stroke-width:1px;stroke-linecap:butt;stroke-linejoin:miter;stroke-opacity:1" d="M 749.837,281.393 766.37,290.578 z" id="boundary" inkscape:connector-curvature="0" />
	<path style="fill:none;stroke:red;stroke-width:1px;stroke-linecap:butt;stroke-linejoin:miter;stroke-opacity:1" d="M 753.511,520.207 771.881,512.859 z" id="boundary" inkscape:connector-curvature="0" />
	<path style="fill:none;stroke:red;stroke-width:1px;stroke-linecap:butt;stroke-linejoin:miter;stroke-opacity:1" d="M 766.37,290.578 784.741,294.252 z" id="boundary" inkscape:connector-curvature="0" />
	<path style="fill:none;stroke:red;stroke-width:1px;stroke-linecap:butt;stroke-linejoin:miter;stroke-opacity:1" d="M 771.881,512.859 790.252,505.511 z" id="boundary" inkscape:connector-curvature="0" />
	<path style="fill:none;stroke:red;stroke-width:1px;stroke-linecap:butt;stroke-linejoin:miter;stroke-opacity:1" d="M 784.741,294.252 803.111,294.252 z" id="boundary" inkscape:connector-curvature="0" />
	<path style="fill:none;stroke:red;stroke-width:1px;stroke-linecap:butt;stroke-linejoin:miter;stroke-opacity:1" d="M 790.252,505.511 808.622,501.837 z" id="boundary" inkscape:connector-curvature="0" />
	<path style="fill:none;stroke:red;stroke-width:1px;stroke-linecap:butt;stroke-linejoin:miter;stroke-opacity:1" d="M 803.111,294.252 821.481,294.252 z" id="boundary" inkscape:connector-curvature="0" />
	<path style="fill:none;stroke:red;stroke-width:1px;stroke-linecap:butt;stroke-linejoin:miter;stroke-opacity:1" d="M 808.622,501.837 826.993,501.837 z" id="boundary" inkscape:connector-curvature="0" />
	<path style="fill:none;stroke:red;stroke-width:1px;stroke-linecap:butt;stroke-linejoin:miter;stroke-opacity:1" d="M 821.481,294.252 839.852,297.926 z" id="boundary" inkscape:connector-curvature="0" />
	<path style="fill:none;stroke:red;stroke-width:1px;stroke-linecap:butt;stroke-linejoin:miter;stroke-opacity:1" d="M 826.993,501.837 845.363,509.185 z" id="boundary" inkscape:connector-curvature="0" />
	<path style="fill:none;stroke:red;stroke-width:1px;stroke-linecap:butt;stroke-linejoin:miter;stroke-opacity:1" d="M 839.852,297.926 858.222,301.6 z" id="boundary" inkscape:connector-curvature="0" />
	<path style="fill:none;stroke:red;stroke-width:1px;stroke-linecap:butt;stroke-linejoin:miter;stroke-opacity:1" d="M 845.363,509.185 860.059,520.207 z" id="boundary" inkscape:connector-curvature="0" />
	<path style="fill:none;stroke:red;stroke-width:1px;stroke-linecap:butt;stroke-linejoin:miter;stroke-opacity:1" d="M 858.222,301.6 876.593,301.6 z" id="boundary" inkscape:connector-curvature="0" />
	<path style="fill:none;stroke:red;stroke-width:1px;stroke-linecap:butt;stroke-linejoin:miter;stroke-opacity:1" d="M 860.059,520.207 878.43,516.533 z" id="boundary" inkscape:connector-curvature="0" />
	<path style="fill:none;stroke:red;stroke-width:1px;stroke-linecap:butt;stroke-linejoin:miter;stroke-opacity:1" d="M 876.593,301.6 894.963,305.274 z" id="boundary" inkscape:connector-curvature="0" />
	<path style="fill:none;stroke:red;stroke-width:1px;stroke-linecap:butt;stroke-linejoin:miter;stroke-opacity:1" d="M 878.43,516.533 896.8,509.185 z" id="boundary" inkscape:connector-curvature="0" />
	<path style="fill:none;stroke:red;stroke-width:1px;stroke-linecap:butt;stroke-linejoin:miter;stroke-opacity:1" d="M 894.963,305.274 913.333,308.948 z" id="boundary" inkscape:connector-curvature="0" />
	<path style="fill:none;stroke:red;stroke-width:1px;stroke-linecap:butt;stroke-linejoin:miter;stroke-opacity:1" d="M 896.8,509.185 915.17,505.511 z" id="boundary" inkscape:connector-curvature="0" />
	<path style="fill:none;stroke:red;stroke-width:1px;stroke-linecap:butt;stroke-linejoin:miter;stroke-opacity:1" d="M 913.333,308.948 931.704,316.296 z" id="boundary" inkscape:connector-curvature="0" />
	<path style="fill:none;stroke:red;stroke-width:1px;stroke-linecap:butt;stroke-linejoin:miter;stroke-opacity:1" d="M 915.17,505.511 933.541,505.511 z" id="boundary" inkscape:connector-curvature="0" />
	<path style="fill:none;stroke:red;stroke-width:1px;stroke-linecap:butt;stroke-linejoin:miter;stroke-opacity:1" d="M 931.704,316.296 950.074,319.97 z" id="boundary" inkscape:connector-curvature="0" />
	<path style="fill:none;stroke:red;stroke-width:1px;stroke-linecap:butt;stroke-linejoin:miter;stroke-opacity:1" d="M 933.541,505.511 951.911,505.511 z" id="boundary" inkscape:connector-curvature="0" />
	<path style="fill:none;stroke:red;stroke-width:1px;stroke-linecap:butt;stroke-linejoin:miter;stroke-opacity:1" d="M 950.074,319.97 968.444,327.319 z" id="boundary" inkscape:connector-curvature="0" />
	<path style="fill:none;stroke:red;stroke-width:1px;stroke-linecap:butt;stroke-linejoin:miter;stroke-opacity:1" d="M 951.911,505.511 959.259,523.881 z" id="boundary" inkscape:connector-curvature="0" />
	<path style="fill:none;stroke:red;stroke-width:1px;stroke-linecap:butt;stroke-linejoin:miter;stroke-opacity:1" d="M 959.259,523.881 959.259,542.252 z" id="boundary" inkscape:connector-curvature="0" />
	<path style="fill:none;stroke:red;stroke-width:1px;stroke-linecap:butt;stroke-linejoin:miter;stroke-opacity:1" d="M 959.259,542.252 959.259,560.622 z" id="boundary" inkscape:connector-curvature="0" />
	<path style="fill:none;stroke:red;stroke-width:1px;stroke-linecap:butt;stroke-linejoin:miter;stroke-opacity:1" d="M 959.259,560.622 973.956,571.644 z" id="boundary" inkscape:connector-curvature="0" />
	<path style="fill:none;stroke:red;stroke-width:1px;stroke-linecap:butt;stroke-linejoin:miter;stroke-opacity:1" d="M 968.444,327.319 984.978,336.504 z" id="boundary" inkscape:connector-curvature="0" />
	<path style="fill:none;stroke:red;stroke-width:1px;stroke-linecap:butt;stroke-linejoin:miter;stroke-opacity:1" d="M 973.956,571.644 979.467,544.089 z" id="boundary" inkscape:connector-curvature="0" />
	<path style="fill:none;stroke:red;stroke-width:1px;stroke-linecap:butt;stroke-linejoin:miter;stroke-opacity:1" d="M 975.793,437.541 975.793,455.911 z" id="boundary" inkscape:connector-curvature="0" />
	<path style="fill:none;stroke:red;stroke-width:1px;stroke-linecap:butt;stroke-linejoin:miter;stroke-opacity:1" d="M 975.793,437.541 979.467,411.822 z" id="boundary" inkscape:connector-curvature="0" />
	<path style="fill:none;stroke:red;stroke-width:1px;stroke-linecap:butt;stroke-linejoin:miter;stroke-opacity:1" d="M 975.793,455.911 975.793,474.281 z" id="boundary" inkscape:connector-curvature="0" />
	<path style="fill:none;stroke:red;stroke-width:1px;stroke-linecap:butt;stroke-linejoin:miter;stroke-opacity:1" d="M 975.793,474.281 977.63,492.652 z" id="boundary" inkscape:connector-curvature="0" />
	<path style="fill:none;stroke:red;stroke-width:1px;stroke-linecap:butt;stroke-linejoin:miter;stroke-opacity:1" d="M 977.63,492.652 983.141,511.022 z" id="boundary" inkscape:connector-curvature="0" />
	<path style="fill:none;stroke:red;stroke-width:1px;stroke-linecap:butt;stroke-linejoin:miter;stroke-opacity:1" d="M 979.467,393.452 979.467,411.822 z" id="boundary" inkscape:connector-curvature="0" />
	<path style="fill:none;stroke:red;stroke-width:1px;stroke-linecap:butt;stroke-linejoin:miter;stroke-opacity:1" d="M 979.467,393.452 994.163,378.756 z" id="boundary" inkscape:connector-curvature="0" />
	<path style="fill:none;stroke:red;stroke-width:1px;stroke-linecap:butt;stroke-linejoin:miter;stroke-opacity:1" d="M 979.467,544.089 983.141,511.022 z" id="boundary" inkscape:connector-curvature="0" />
	<path style="fill:none;stroke:red;stroke-width:1px;stroke-linecap:butt;stroke-linejoin:miter;stroke-opacity:1" d="M 984.978,336.504 996,351.2 z" id="boundary" inkscape:connector-curvature="0" />
	<path style="fill:none;stroke:red;stroke-width:1px;stroke-linecap:butt;stroke-linejoin:miter;stroke-opacity:1" d="M 994.163,378.756 996,351.2 z" id="boundary" inkscape:connector-curvature="0" />
	<circle cx="4" cy="143.615" r="4" fill="#0" id="circle0"/>
	<circle cx="5.83704" cy="161.985" r="4" fill="#0" id="circle1"/>
	<circle cx="7.67407" cy="400.8" r="4" fill="#0" id="circle2"/>
	<circle cx="7.67407" cy="419.17" r="4" fill="#0" id="circle3"/>
	<circle cx="7.67407" cy="437.541" r="4" fill="#0" id="circle4"/>
	<circle cx="7.67407" cy="455.911" r="4" fill="#0" id="circle5"/>
	<circle cx="7.67407" cy="474.281" r="4" fill="#0" id="circle6"/>
	<circle cx="11.3481" cy="353.037" r="4" fill="#0" id="circle7"/>
	<circle cx="11.3481" cy="371.407" r="4" fill="#0" id="circle8"/>
	<circle cx="11.3481" cy="492.652" r="4" fill="#0" id="circle9"/>
	<circle cx="11.3481" cy="511.022" r="4" fill="#0" id="circle10"/>
	<circle cx="11.3481" cy="529.393" r="4" fill="#0" id="circle11"/>
	<circle cx="13.1852" cy="127.081" r="4" fill="#0" id="circle12"/>
	<circle cx="13.1852" cy="547.763" r="4" fill="#0" id="circle13"/>
	<circle cx="15.0222" cy="178.519" r="4" fill="#0" id="circle14"/>
	<circle cx="15.0222" cy="327.319" r="4" fill="#0" id="circle15"/>
	<circle cx="15.0222" cy="566.133" r="4" fill="#0" id="circle16"/>
	<circle cx="18.6963" cy="196.889" r="4" fill="#0" id="circle17"/>
	<circle cx="18.6963" cy="215.259" r="4" fill="#0" id="circle18"/>
	<circle cx="18.6963" cy="294.252" r="4" fill="#0" id="circle19"/>
	<circle cx="22.3704" cy="233.63" r="4" fill="#0" id="circle20"/>
	<circle cx="22.3704" cy="252" r="4" fill="#0" id="circle21"/>
	<circle cx="22.3704" cy="270.37" r="4" fill="#0" id="circle22"/>
	<circle cx="27.8815" cy="116.059" r="4" fill="#0" id="circle23"/>
	<circle cx="33.3926" cy="567.97" r="4" fill="#0" id="circle24"/>
	<circle cx="35.2296" cy="540.415" r="4" fill="#0" id="circle25"/>
	<circle cx="38.9037" cy="496.326" r="4" fill="#0" id="circle26"/>
	<circle cx="38.9037" cy="514.696" r="4" fill="#0" id="circle27"/>
	<circle cx="44.4148" cy="106.874" r="4" fill="#0" id="circle28"/>
	<circle cx="57.2741" cy="494.489" r="4" fill="#0" id="circle29"/>
	<circle cx="62.7852" cy="99.5259" r="4" fill="#0" id="circle30"/>
	<circle cx="75.6444" cy="498.163" r="4" fill="#0" id="circle31"/>
	<circle cx="81.1556" cy="95.8519" r="4" fill="#0" id="circle32"/>
	<circle cx="94.0148" cy="498.163" r="4" fill="#0" id="circle33"/>
	<circle cx="99.5259" cy="88.5037" r="4" fill="#0" id="circle34"/>
	<circle cx="112.385" cy="498.163" r="4" fill="#0" id="circle35"/>
	<circle cx="117.896" cy="84.8296" r="4" fill="#0" id="circle36"/>
	<circle cx="130.756" cy="498.163" r="4" fill="#0" id="circle37"/>
	<circle cx="136.267" cy="81.1556" r="4" fill="#0" id="circle38"/>
	<circle cx="149.126" cy="498.163" r="4" fill="#0" id="circle39"/>
	<circle cx="154.637" cy="73.8074" r="4" fill="#0" id="circle40"/>
	<circle cx="167.496" cy="498.163" r="4" fill="#0" id="circle41"/>
	<circle cx="173.007" cy="70.1333" r="4" fill="#0" id="circle42"/>
	<circle cx="185.867" cy="498.163" r="4" fill="#0" id="circle43"/>
	<circle cx="191.378" cy="70.1333" r="4" fill="#0" id="circle44"/>
	<circle cx="204.237" cy="498.163" r="4" fill="#0" id="circle45"/>
	<circle cx="209.748" cy="62.7852" r="4" fill="#0" id="circle46"/>
	<circle cx="222.607" cy="498.163" r="4" fill="#0" id="circle47"/>
	<circle cx="224.444" cy="48.0889" r="4" fill="#0" id="circle48"/>
	<circle cx="240.978" cy="498.163" r="4" fill="#0" id="circle49"/>
	<circle cx="242.815" cy="44.4148" r="4" fill="#0" id="circle50"/>
	<circle cx="259.348" cy="498.163" r="4" fill="#0" id="circle51"/>
	<circle cx="261.185" cy="37.0667" r="4" fill="#0" id="circle52"/>
	<circle cx="272.207" cy="18.6963" r="4" fill="#0" id="circle53"/>
	<circle cx="277.719" cy="498.163" r="4" fill="#0" id="circle54"/>
	<circle cx="286.904" cy="4" r="4" fill="#0" id="circle55"/>
	<circle cx="296.089" cy="498.163" r="4" fill="#0" id="circle56"/>
	<circle cx="305.274" cy="4" r="4" fill="#0" id="circle57"/>
	<circle cx="314.459" cy="498.163" r="4" fill="#0" id="circle58"/>
	<circle cx="321.807" cy="13.1852" r="4" fill="#0" id="circle59"/>
	<circle cx="332.83" cy="498.163" r="4" fill="#0" id="circle60"/>
	<circle cx="336.504" cy="26.0444" r="4" fill="#0" id="circle61"/>
	<circle cx="345.689" cy="512.859" r="4" fill="#0" id="circle62"/>
	<circle cx="345.689" cy="531.23" r="4" fill="#0" id="circle63"/>
	<circle cx="349.363" cy="549.6" r="4" fill="#0" id="circle64"/>
	<circle cx="349.363" cy="567.97" r="4" fill="#0" id="circle65"/>
	<circle cx="351.2" cy="37.0667" r="4" fill="#0" id="circle66"/>
	<circle cx="367.733" cy="567.97" r="4" fill="#0" id="circle67"/>
	<circle cx="369.57" cy="44.4148" r="4" fill="#0" id="circle68"/>
	<circle cx="373.244" cy="547.763" r="4" fill="#0" id="circle69"/>
	<circle cx="376.919" cy="518.37" r="4" fill="#0" id="circle70"/>
	<circle cx="386.104" cy="53.6" r="4" fill="#0" id="circle71"/>
	<circle cx="391.615" cy="505.511" r="4" fill="#0" id="circle72"/>
	<circle cx="397.126" cy="68.2963" r="4" fill="#0" id="circle73"/>
	<circle cx="409.985" cy="505.511" r="4" fill="#0" id="circle74"/>
	<circle cx="415.496" cy="70.1333" r="4" fill="#0" id="circle75"/>
	<circle cx="428.356" cy="505.511" r="4" fill="#0" id="circle76"/>
	<circle cx="433.867" cy="73.8074" r="4" fill="#0" id="circle77"/>
	<circle cx="446.726" cy="512.859" r="4" fill="#0" id="circle78"/>
	<circle cx="452.237" cy="77.4815" r="4" fill="#0" id="circle79"/>
	<circle cx="465.096" cy="516.533" r="4" fill="#0" id="circle80"/>
	<circle cx="470.607" cy="82.9926" r="4" fill="#0" id="circle81"/>
	<circle cx="483.467" cy="514.696" r="4" fill="#0" id="circle82"/>
	<circle cx="488.978" cy="88.5037" r="4" fill="#0" id="circle83"/>
	<circle cx="500" cy="505.511" r="4" fill="#0" id="circle84"/>
	<circle cx="507.348" cy="92.1778" r="4" fill="#0" id="circle85"/>
	<circle cx="518.37" cy="501.837" r="4" fill="#0" id="circle86"/>
	<circle cx="525.719" cy="99.5259" r="4" fill="#0" id="circle87"/>
	<circle cx="536.741" cy="501.837" r="4" fill="#0" id="circle88"/>
	<circle cx="544.089" cy="105.037" r="4" fill="#0" id="circle89"/>
	<circle cx="555.111" cy="507.348" r="4" fill="#0" id="circle90"/>
	<circle cx="560.622" cy="114.222" r="4" fill="#0" id="circle91"/>
	<circle cx="562.459" cy="525.719" r="4" fill="#0" id="circle92"/>
	<circle cx="562.459" cy="544.089" r="4" fill="#0" id="circle93"/>
	<circle cx="562.459" cy="562.459" r="4" fill="#0" id="circle94"/>
	<circle cx="571.644" cy="198.726" r="4" fill="#0" id="circle95"/>
	<circle cx="571.644" cy="217.096" r="4" fill="#0" id="circle96"/>
	<circle cx="571.644" cy="235.467" r="4" fill="#0" id="circle97"/>
	<circle cx="575.319" cy="180.356" r="4" fill="#0" id="circle98"/>
	<circle cx="577.156" cy="123.407" r="4" fill="#0" id="circle99"/>
	<circle cx="578.993" cy="571.644" r="4" fill="#0" id="circle100"/>
	<circle cx="580.83" cy="252" r="4" fill="#0" id="circle101"/>
	<circle cx="582.667" cy="544.089" r="4" fill="#0" id="circle102"/>
	<circle cx="586.341" cy="165.659" r="4" fill="#0" id="circle103"/>
	<circle cx="588.178" cy="138.104" r="4" fill="#0" id="circle104"/>
	<circle cx="588.178" cy="520.207" r="4" fill="#0" id="circle105"/>
	<circle cx="591.852" cy="266.696" r="4" fill="#0" id="circle106"/>
	<circle cx="606.548" cy="525.719" r="4" fill="#0" id="circle107"/>
	<circle cx="610.222" cy="272.207" r="4" fill="#0" id="circle108"/>
	<circle cx="624.919" cy="531.23" r="4" fill="#0" id="circle109"/>
	<circle cx="626.756" cy="263.022" r="4" fill="#0" id="circle110"/>
	<circle cx="643.289" cy="536.741" r="4" fill="#0" id="circle111"/>
	<circle cx="645.126" cy="255.674" r="4" fill="#0" id="circle112"/>
	<circle cx="661.659" cy="246.489" r="4" fill="#0" id="circle113"/>
	<circle cx="661.659" cy="538.578" r="4" fill="#0" id="circle114"/>
	<circle cx="680.03" cy="248.326" r="4" fill="#0" id="circle115"/>
	<circle cx="680.03" cy="538.578" r="4" fill="#0" id="circle116"/>
	<circle cx="696.563" cy="257.511" r="4" fill="#0" id="circle117"/>
	<circle cx="698.4" cy="534.904" r="4" fill="#0" id="circle118"/>
	<circle cx="714.933" cy="264.859" r="4" fill="#0" id="circle119"/>
	<circle cx="716.77" cy="531.23" r="4" fill="#0" id="circle120"/>
	<circle cx="731.467" cy="274.044" r="4" fill="#0" id="circle121"/>
	<circle cx="735.141" cy="527.556" r="4" fill="#0" id="circle122"/>
	<circle cx="749.837" cy="281.393" r="4" fill="#0" id="circle123"/>
	<circle cx="753.511" cy="520.207" r="4" fill="#0" id="circle124"/>
	<circle cx="766.37" cy="290.578" r="4" fill="#0" id="circle125"/>
	<circle cx="771.881" cy="512.859" r="4" fill="#0" id="circle126"/>
	<circle cx="784.741" cy="294.252" r="4" fill="#0" id="circle127"/>
	<circle cx="790.252" cy="505.511" r="4" fill="#0" id="circle128"/>
	<circle cx="803.111" cy="294.252" r="4" fill="#0" id="circle129"/>
	<circle cx="808.622" cy="501.837" r="4" fill="#0" id="circle130"/>
	<circle cx="821.481" cy="294.252" r="4" fill="#0" id="circle131"/>
	<circle cx="826.993" cy="501.837" r="4" fill="#0" id="circle132"/>
	<circle cx="839.852" cy="297.926" r="4" fill="#0" id="circle133"/>
	<circle cx="845.363" cy="509.185" r="4" fill="#0" id="circle134"/>
	<circle cx="858.222" cy="301.6" r="4" fill="#0" id="circle135"/>
	<circle cx="860.059" cy="520.207" r="4" fill="#0" id="circle136"/>
	<circle cx="876.593" cy="301.6" r="4" fill="#0" id="circle137"/>
	<circle cx="878.43" cy="516.533" r="4" fill="#0" id="circle138"/>
	<circle cx="894.963" cy="305.274" r="4" fill="#0" id="circle139"/>
	<circle cx="896.8" cy="509.185" r="4" fill="#0" id="circle140"/>
	<circle cx="913.333" cy="308.948" r="4" fill="#0" id="circle141"/>
	<circle cx="915.17" cy="505.511" r="4" fill="#0" id="circle142"/>
	<circle cx="931.704" cy="316.296" r="4" fill="#0" id="circle143"/>
	<circle cx="933.541" cy="505.511" r="4" fill="#0" id="circle144"/>
	<circle cx="950.074" cy="319.97" r="4" fill="#0" id="circle145"/>
	<circle cx="951.911" cy="505.511" r="4" fill="#0" id="circle146"/>
	<circle cx="959.259" cy="523.881" r="4" fill="#0" id="circle147"/>
	<circle cx="959.259" cy="542.252" r="4" fill="#0" id="circle148"/>
	<circle cx="959.259" cy="560.622" r="4" fill="#0" id="circle149"/>
	<circle cx="968.444" cy="327.319" r="4" fill="#0" id="circle150"/>
	<circle cx="973.956" cy="571.644" r="4" fill="#0" id="circle151"/>
	<circle cx="975.793" cy="437.541" r="4" fill="#0" id="circle152"/>
	<circle cx="975.793" cy="455.911" r="4" fill="#0" id="circle153"/>
	<circle cx="975.793" cy="474.281" r="4" fill="#0" id="circle154"/>
	<circle cx="977.63" cy="492.652" r="4" fill="#0" id="circle155"/>
	<circle cx="979.467" cy="393.452" r="4" fill="#0" id="circle156"/>
	<circle cx="979.467" cy="411.822" r="4" fill="#0" id="circle157"/>
	<circle cx="979.467" cy="544.089" r="4" fill="#0" id="circle158"/>
	<circle cx="983.141" cy="511.022" r="4" fill="#0" id="circle159"/>
	<circle cx="984.978" cy="336.504" r="4" fill="#0" id="circle160"/>
	<circle cx="994.163" cy="378.756" r="4" fill="#0" id="circle161"/>
	<circle cx="996" cy="351.2" r="4" fill="#0" id="circle162"/>
	</g>
</svg>