<?xml version="1.0" encoding="UTF-8" standalone="no"?>
<!-- Created with CurveBenchmark -->
<svg
	xmlns:dc="http://purl.org/dc/elements/1.1/"
	xmlns:cc="http://creativecommons.org/ns#"
	xmlns:rdf="http://www.w3.org/1999/02/22-rdf-syntax-ns#"
	xmlns:svg="http://www.w3.org/2000/svg"
	xmlns="http://www.w3.org/2000/svg"
	xmlns:sodipodi="http://sodipodi.sourceforge.net/DTD/sodipodi-0.dtd"
	xmlns:inkscape="http://www.inkscape.org/namespaces/inkscape"
	width="1000"
	height="1000"
	id="svg2"
	version="1.1"
	sodipodi:docname="manifold/discur-flatfish18.png.txt">
<defs
	id="defs4" />
<metadata
	id="metadata7">
	<rdf:RDF>
		<cc:Work
			rdf:about="">
			<dc:format>image/svg+xml</dc:format>
			<dc:type
				rdf:resource="http://purl.org/dc/dcmitype/StillImage" />
			<dc:title></dc:title>
		</cc:Work>
	</rdf:RDF>
</metadata>
<g
	inkscape:label="Layer 1"
	inkscape:groupmode="layer"
	id="layer1">
	<path style="fill:none;stroke:red;stroke-width:1px;stroke-linecap:butt;stroke-linejoin:miter;stroke-opacity:1" d="M 4,222.802 4,237.586 z" id="boundary" inkscape:connector-curvature="0" />
	<path style="fill:none;stroke:red;stroke-width:1px;stroke-linecap:butt;stroke-linejoin:miter;stroke-opacity:1" d="M 4,222.802 11.392,208.018 z" id="boundary" inkscape:connector-curvature="0" />
	<path style="fill:none;stroke:red;stroke-width:1px;stroke-linecap:butt;stroke-linejoin:miter;stroke-opacity:1" d="M 4,237.586 4,252.37 z" id="boundary" inkscape:connector-curvature="0" />
	<path style="fill:none;stroke:red;stroke-width:1px;stroke-linecap:butt;stroke-linejoin:miter;stroke-opacity:1" d="M 4,252.37 11.392,265.675 z" id="boundary" inkscape:connector-curvature="0" />
	<path style="fill:none;stroke:red;stroke-width:1px;stroke-linecap:butt;stroke-linejoin:miter;stroke-opacity:1" d="M 11.392,208.018 18.7839,193.234 z" id="boundary" inkscape:connector-curvature="0" />
	<path style="fill:none;stroke:red;stroke-width:1px;stroke-linecap:butt;stroke-linejoin:miter;stroke-opacity:1" d="M 11.392,265.675 18.7839,278.981 z" id="boundary" inkscape:connector-curvature="0" />
	<path style="fill:none;stroke:red;stroke-width:1px;stroke-linecap:butt;stroke-linejoin:miter;stroke-opacity:1" d="M 18.7839,193.234 30.611,181.407 z" id="boundary" inkscape:connector-curvature="0" />
	<path style="fill:none;stroke:red;stroke-width:1px;stroke-linecap:butt;stroke-linejoin:miter;stroke-opacity:1" d="M 18.7839,278.981 26.1759,292.286 z" id="boundary" inkscape:connector-curvature="0" />
	<path style="fill:none;stroke:red;stroke-width:1px;stroke-linecap:butt;stroke-linejoin:miter;stroke-opacity:1" d="M 26.1759,292.286 35.0462,304.113 z" id="boundary" inkscape:connector-curvature="0" />
	<path style="fill:none;stroke:red;stroke-width:1px;stroke-linecap:butt;stroke-linejoin:miter;stroke-opacity:1" d="M 30.611,181.407 42.4382,169.58 z" id="boundary" inkscape:connector-curvature="0" />
	<path style="fill:none;stroke:red;stroke-width:1px;stroke-linecap:butt;stroke-linejoin:miter;stroke-opacity:1" d="M 35.0462,304.113 45.3949,315.94 z" id="boundary" inkscape:connector-curvature="0" />
	<path style="fill:none;stroke:red;stroke-width:1px;stroke-linecap:butt;stroke-linejoin:miter;stroke-opacity:1" d="M 42.4382,169.58 54.2653,159.231 z" id="boundary" inkscape:connector-curvature="0" />
	<path style="fill:none;stroke:red;stroke-width:1px;stroke-linecap:butt;stroke-linejoin:miter;stroke-opacity:1" d="M 45.3949,315.94 60.1788,321.854 z" id="boundary" inkscape:connector-curvature="0" />
	<path style="fill:none;stroke:red;stroke-width:1px;stroke-linecap:butt;stroke-linejoin:miter;stroke-opacity:1" d="M 54.2653,159.231 69.0492,159.231 z" id="boundary" inkscape:connector-curvature="0" />
	<path style="fill:none;stroke:red;stroke-width:1px;stroke-linecap:butt;stroke-linejoin:miter;stroke-opacity:1" d="M 60.1788,321.854 74.9627,323.332 z" id="boundary" inkscape:connector-curvature="0" />
	<path style="fill:none;stroke:red;stroke-width:1px;stroke-linecap:butt;stroke-linejoin:miter;stroke-opacity:1" d="M 69.0492,159.231 83.8331,160.709 z" id="boundary" inkscape:connector-curvature="0" />
	<path style="fill:none;stroke:red;stroke-width:1px;stroke-linecap:butt;stroke-linejoin:miter;stroke-opacity:1" d="M 74.9627,323.332 89.7466,323.332 z" id="boundary" inkscape:connector-curvature="0" />
	<path style="fill:none;stroke:red;stroke-width:1px;stroke-linecap:butt;stroke-linejoin:miter;stroke-opacity:1" d="M 83.8331,160.709 98.617,166.623 z" id="boundary" inkscape:connector-curvature="0" />
	<path style="fill:none;stroke:red;stroke-width:1px;stroke-linecap:butt;stroke-linejoin:miter;stroke-opacity:1" d="M 89.7466,323.332 103.052,315.94 z" id="boundary" inkscape:connector-curvature="0" />
	<path style="fill:none;stroke:red;stroke-width:1px;stroke-linecap:butt;stroke-linejoin:miter;stroke-opacity:1" d="M 98.617,166.623 113.401,166.623 z" id="boundary" inkscape:connector-curvature="0" />
	<path style="fill:none;stroke:red;stroke-width:1px;stroke-linecap:butt;stroke-linejoin:miter;stroke-opacity:1" d="M 103.052,315.94 117.836,315.94 z" id="boundary" inkscape:connector-curvature="0" />
	<path style="fill:none;stroke:red;stroke-width:1px;stroke-linecap:butt;stroke-linejoin:miter;stroke-opacity:1" d="M 113.401,166.623 128.185,166.623 z" id="boundary" inkscape:connector-curvature="0" />
	<path style="fill:none;stroke:red;stroke-width:1px;stroke-linecap:butt;stroke-linejoin:miter;stroke-opacity:1" d="M 117.836,315.94 132.62,315.94 z" id="boundary" inkscape:connector-curvature="0" />
	<path style="fill:none;stroke:red;stroke-width:1px;stroke-linecap:butt;stroke-linejoin:miter;stroke-opacity:1" d="M 128.185,166.623 142.969,168.101 z" id="boundary" inkscape:connector-curvature="0" />
	<path style="fill:none;stroke:red;stroke-width:1px;stroke-linecap:butt;stroke-linejoin:miter;stroke-opacity:1" d="M 132.62,315.94 147.404,315.94 z" id="boundary" inkscape:connector-curvature="0" />
	<path style="fill:none;stroke:red;stroke-width:1px;stroke-linecap:butt;stroke-linejoin:miter;stroke-opacity:1" d="M 142.969,168.101 157.753,174.015 z" id="boundary" inkscape:connector-curvature="0" />
	<path style="fill:none;stroke:red;stroke-width:1px;stroke-linecap:butt;stroke-linejoin:miter;stroke-opacity:1" d="M 147.404,315.94 160.709,308.548 z" id="boundary" inkscape:connector-curvature="0" />
	<path style="fill:none;stroke:red;stroke-width:1px;stroke-linecap:butt;stroke-linejoin:miter;stroke-opacity:1" d="M 157.753,174.015 171.058,181.407 z" id="boundary" inkscape:connector-curvature="0" />
	<path style="fill:none;stroke:red;stroke-width:1px;stroke-linecap:butt;stroke-linejoin:miter;stroke-opacity:1" d="M 160.709,308.548 175.493,301.156 z" id="boundary" inkscape:connector-curvature="0" />
	<path style="fill:none;stroke:red;stroke-width:1px;stroke-linecap:butt;stroke-linejoin:miter;stroke-opacity:1" d="M 171.058,181.407 185.842,181.407 z" id="boundary" inkscape:connector-curvature="0" />
	<path style="fill:none;stroke:red;stroke-width:1px;stroke-linecap:butt;stroke-linejoin:miter;stroke-opacity:1" d="M 175.493,301.156 190.277,293.765 z" id="boundary" inkscape:connector-curvature="0" />
	<path style="fill:none;stroke:red;stroke-width:1px;stroke-linecap:butt;stroke-linejoin:miter;stroke-opacity:1" d="M 185.842,181.407 200.626,181.407 z" id="boundary" inkscape:connector-curvature="0" />
	<path style="fill:none;stroke:red;stroke-width:1px;stroke-linecap:butt;stroke-linejoin:miter;stroke-opacity:1" d="M 190.277,293.765 205.061,293.765 z" id="boundary" inkscape:connector-curvature="0" />
	<path style="fill:none;stroke:red;stroke-width:1px;stroke-linecap:butt;stroke-linejoin:miter;stroke-opacity:1" d="M 200.626,181.407 213.931,188.799 z" id="boundary" inkscape:connector-curvature="0" />
	<path style="fill:none;stroke:red;stroke-width:1px;stroke-linecap:butt;stroke-linejoin:miter;stroke-opacity:1" d="M 205.061,293.765 219.845,286.373 z" id="boundary" inkscape:connector-curvature="0" />
	<path style="fill:none;stroke:red;stroke-width:1px;stroke-linecap:butt;stroke-linejoin:miter;stroke-opacity:1" d="M 213.931,188.799 228.715,188.799 z" id="boundary" inkscape:connector-curvature="0" />
	<path style="fill:none;stroke:red;stroke-width:1px;stroke-linecap:butt;stroke-linejoin:miter;stroke-opacity:1" d="M 219.845,286.373 234.629,286.373 z" id="boundary" inkscape:connector-curvature="0" />
	<path style="fill:none;stroke:red;stroke-width:1px;stroke-linecap:butt;stroke-linejoin:miter;stroke-opacity:1" d="M 228.715,188.799 243.499,182.885 z" id="boundary" inkscape:connector-curvature="0" />
	<path style="fill:none;stroke:red;stroke-width:1px;stroke-linecap:butt;stroke-linejoin:miter;stroke-opacity:1" d="M 234.629,286.373 249.413,286.373 z" id="boundary" inkscape:connector-curvature="0" />
	<path style="fill:none;stroke:red;stroke-width:1px;stroke-linecap:butt;stroke-linejoin:miter;stroke-opacity:1" d="M 243.499,182.885 255.326,163.666 z" id="boundary" inkscape:connector-curvature="0" />
	<path style="fill:none;stroke:red;stroke-width:1px;stroke-linecap:butt;stroke-linejoin:miter;stroke-opacity:1" d="M 249.413,286.373 262.718,293.765 z" id="boundary" inkscape:connector-curvature="0" />
	<path style="fill:none;stroke:red;stroke-width:1px;stroke-linecap:butt;stroke-linejoin:miter;stroke-opacity:1" d="M 255.326,163.666 267.154,151.839 z" id="boundary" inkscape:connector-curvature="0" />
	<path style="fill:none;stroke:red;stroke-width:1px;stroke-linecap:butt;stroke-linejoin:miter;stroke-opacity:1" d="M 262.718,293.765 271.589,305.592 z" id="boundary" inkscape:connector-curvature="0" />
	<path style="fill:none;stroke:red;stroke-width:1px;stroke-linecap:butt;stroke-linejoin:miter;stroke-opacity:1" d="M 267.154,151.839 278.981,140.012 z" id="boundary" inkscape:connector-curvature="0" />
	<path style="fill:none;stroke:red;stroke-width:1px;stroke-linecap:butt;stroke-linejoin:miter;stroke-opacity:1" d="M 271.589,305.592 283.416,315.94 z" id="boundary" inkscape:connector-curvature="0" />
	<path style="fill:none;stroke:red;stroke-width:1px;stroke-linecap:butt;stroke-linejoin:miter;stroke-opacity:1" d="M 278.981,140.012 290.808,129.663 z" id="boundary" inkscape:connector-curvature="0" />
	<path style="fill:none;stroke:red;stroke-width:1px;stroke-linecap:butt;stroke-linejoin:miter;stroke-opacity:1" d="M 283.416,315.94 293.765,327.768 z" id="boundary" inkscape:connector-curvature="0" />
	<path style="fill:none;stroke:red;stroke-width:1px;stroke-linecap:butt;stroke-linejoin:miter;stroke-opacity:1" d="M 290.808,129.663 304.113,122.271 z" id="boundary" inkscape:connector-curvature="0" />
	<path style="fill:none;stroke:red;stroke-width:1px;stroke-linecap:butt;stroke-linejoin:miter;stroke-opacity:1" d="M 293.765,327.768 305.592,338.116 z" id="boundary" inkscape:connector-curvature="0" />
	<path style="fill:none;stroke:red;stroke-width:1px;stroke-linecap:butt;stroke-linejoin:miter;stroke-opacity:1" d="M 304.113,122.271 314.462,104.531 z" id="boundary" inkscape:connector-curvature="0" />
	<path style="fill:none;stroke:red;stroke-width:1px;stroke-linecap:butt;stroke-linejoin:miter;stroke-opacity:1" d="M 305.592,338.116 318.897,345.508 z" id="boundary" inkscape:connector-curvature="0" />
	<path style="fill:none;stroke:red;stroke-width:1px;stroke-linecap:butt;stroke-linejoin:miter;stroke-opacity:1" d="M 314.462,104.531 326.289,92.7034 z" id="boundary" inkscape:connector-curvature="0" />
	<path style="fill:none;stroke:red;stroke-width:1px;stroke-linecap:butt;stroke-linejoin:miter;stroke-opacity:1" d="M 318.897,345.508 330.724,355.857 z" id="boundary" inkscape:connector-curvature="0" />
	<path style="fill:none;stroke:red;stroke-width:1px;stroke-linecap:butt;stroke-linejoin:miter;stroke-opacity:1" d="M 326.289,92.7034 341.073,85.3115 z" id="boundary" inkscape:connector-curvature="0" />
	<path style="fill:none;stroke:red;stroke-width:1px;stroke-linecap:butt;stroke-linejoin:miter;stroke-opacity:1" d="M 330.724,355.857 344.03,363.249 z" id="boundary" inkscape:connector-curvature="0" />
	<path style="fill:none;stroke:red;stroke-width:1px;stroke-linecap:butt;stroke-linejoin:miter;stroke-opacity:1" d="M 341.073,85.3115 355.857,77.9195 z" id="boundary" inkscape:connector-curvature="0" />
	<path style="fill:none;stroke:red;stroke-width:1px;stroke-linecap:butt;stroke-linejoin:miter;stroke-opacity:1" d="M 344.03,363.249 355.857,373.598 z" id="boundary" inkscape:connector-curvature="0" />
	<path style="fill:none;stroke:red;stroke-width:1px;stroke-linecap:butt;stroke-linejoin:miter;stroke-opacity:1" d="M 355.857,77.9195 370.641,70.5276 z" id="boundary" inkscape:connector-curvature="0" />
	<path style="fill:none;stroke:red;stroke-width:1px;stroke-linecap:butt;stroke-linejoin:miter;stroke-opacity:1" d="M 355.857,373.598 370.641,375.076 z" id="boundary" inkscape:connector-curvature="0" />
	<path style="fill:none;stroke:red;stroke-width:1px;stroke-linecap:butt;stroke-linejoin:miter;stroke-opacity:1" d="M 370.641,70.5276 383.946,63.1356 z" id="boundary" inkscape:connector-curvature="0" />
	<path style="fill:none;stroke:red;stroke-width:1px;stroke-linecap:butt;stroke-linejoin:miter;stroke-opacity:1" d="M 370.641,375.076 383.946,382.468 z" id="boundary" inkscape:connector-curvature="0" />
	<path style="fill:none;stroke:red;stroke-width:1px;stroke-linecap:butt;stroke-linejoin:miter;stroke-opacity:1" d="M 383.946,63.1356 397.252,55.7437 z" id="boundary" inkscape:connector-curvature="0" />
	<path style="fill:none;stroke:red;stroke-width:1px;stroke-linecap:butt;stroke-linejoin:miter;stroke-opacity:1" d="M 383.946,382.468 397.252,389.86 z" id="boundary" inkscape:connector-curvature="0" />
	<path style="fill:none;stroke:red;stroke-width:1px;stroke-linecap:butt;stroke-linejoin:miter;stroke-opacity:1" d="M 397.252,55.7437 410.557,45.3949 z" id="boundary" inkscape:connector-curvature="0" />
	<path style="fill:none;stroke:red;stroke-width:1px;stroke-linecap:butt;stroke-linejoin:miter;stroke-opacity:1" d="M 397.252,389.86 410.557,397.252 z" id="boundary" inkscape:connector-curvature="0" />
	<path style="fill:none;stroke:red;stroke-width:1px;stroke-linecap:butt;stroke-linejoin:miter;stroke-opacity:1" d="M 410.557,45.3949 425.341,38.003 z" id="boundary" inkscape:connector-curvature="0" />
	<path style="fill:none;stroke:red;stroke-width:1px;stroke-linecap:butt;stroke-linejoin:miter;stroke-opacity:1" d="M 410.557,397.252 423.863,404.644 z" id="boundary" inkscape:connector-curvature="0" />
	<path style="fill:none;stroke:red;stroke-width:1px;stroke-linecap:butt;stroke-linejoin:miter;stroke-opacity:1" d="M 423.863,404.644 437.168,412.036 z" id="boundary" inkscape:connector-curvature="0" />
	<path style="fill:none;stroke:red;stroke-width:1px;stroke-linecap:butt;stroke-linejoin:miter;stroke-opacity:1" d="M 425.341,38.003 437.168,26.1759 z" id="boundary" inkscape:connector-curvature="0" />
	<path style="fill:none;stroke:red;stroke-width:1px;stroke-linecap:butt;stroke-linejoin:miter;stroke-opacity:1" d="M 437.168,26.1759 451.952,18.7839 z" id="boundary" inkscape:connector-curvature="0" />
	<path style="fill:none;stroke:red;stroke-width:1px;stroke-linecap:butt;stroke-linejoin:miter;stroke-opacity:1" d="M 437.168,412.036 451.952,417.949 z" id="boundary" inkscape:connector-curvature="0" />
	<path style="fill:none;stroke:red;stroke-width:1px;stroke-linecap:butt;stroke-linejoin:miter;stroke-opacity:1" d="M 451.952,18.7839 466.736,18.7839 z" id="boundary" inkscape:connector-curvature="0" />
	<path style="fill:none;stroke:red;stroke-width:1px;stroke-linecap:butt;stroke-linejoin:miter;stroke-opacity:1" d="M 451.952,417.949 466.736,419.428 z" id="boundary" inkscape:connector-curvature="0" />
	<path style="fill:none;stroke:red;stroke-width:1px;stroke-linecap:butt;stroke-linejoin:miter;stroke-opacity:1" d="M 466.736,18.7839 481.52,18.7839 z" id="boundary" inkscape:connector-curvature="0" />
	<path style="fill:none;stroke:red;stroke-width:1px;stroke-linecap:butt;stroke-linejoin:miter;stroke-opacity:1" d="M 466.736,419.428 481.52,419.428 z" id="boundary" inkscape:connector-curvature="0" />
	<path style="fill:none;stroke:red;stroke-width:1px;stroke-linecap:butt;stroke-linejoin:miter;stroke-opacity:1" d="M 481.52,18.7839 496.304,11.392 z" id="boundary" inkscape:connector-curvature="0" />
	<path style="fill:none;stroke:red;stroke-width:1px;stroke-linecap:butt;stroke-linejoin:miter;stroke-opacity:1" d="M 481.52,419.428 494.826,426.82 z" id="boundary" inkscape:connector-curvature="0" />
	<path style="fill:none;stroke:red;stroke-width:1px;stroke-linecap:butt;stroke-linejoin:miter;stroke-opacity:1" d="M 494.826,426.82 506.653,435.69 z" id="boundary" inkscape:connector-curvature="0" />
	<path style="fill:none;stroke:red;stroke-width:1px;stroke-linecap:butt;stroke-linejoin:miter;stroke-opacity:1" d="M 496.304,11.392 509.61,4 z" id="boundary" inkscape:connector-curvature="0" />
	<path style="fill:none;stroke:red;stroke-width:1px;stroke-linecap:butt;stroke-linejoin:miter;stroke-opacity:1" d="M 506.653,435.69 517.001,447.517 z" id="boundary" inkscape:connector-curvature="0" />
	<path style="fill:none;stroke:red;stroke-width:1px;stroke-linecap:butt;stroke-linejoin:miter;stroke-opacity:1" d="M 509.61,4 524.393,4 z" id="boundary" inkscape:connector-curvature="0" />
	<path style="fill:none;stroke:red;stroke-width:1px;stroke-linecap:butt;stroke-linejoin:miter;stroke-opacity:1" d="M 517.001,447.517 531.785,448.996 z" id="boundary" inkscape:connector-curvature="0" />
	<path style="fill:none;stroke:red;stroke-width:1px;stroke-linecap:butt;stroke-linejoin:miter;stroke-opacity:1" d="M 524.393,4 539.177,4 z" id="boundary" inkscape:connector-curvature="0" />
	<path style="fill:none;stroke:red;stroke-width:1px;stroke-linecap:butt;stroke-linejoin:miter;stroke-opacity:1" d="M 531.785,448.996 546.569,448.996 z" id="boundary" inkscape:connector-curvature="0" />
	<path style="fill:none;stroke:red;stroke-width:1px;stroke-linecap:butt;stroke-linejoin:miter;stroke-opacity:1" d="M 539.177,4 553.961,4 z" id="boundary" inkscape:connector-curvature="0" />
	<path style="fill:none;stroke:red;stroke-width:1px;stroke-linecap:butt;stroke-linejoin:miter;stroke-opacity:1" d="M 546.569,448.996 561.353,448.996 z" id="boundary" inkscape:connector-curvature="0" />
	<path style="fill:none;stroke:red;stroke-width:1px;stroke-linecap:butt;stroke-linejoin:miter;stroke-opacity:1" d="M 553.961,4 568.745,4 z" id="boundary" inkscape:connector-curvature="0" />
	<path style="fill:none;stroke:red;stroke-width:1px;stroke-linecap:butt;stroke-linejoin:miter;stroke-opacity:1" d="M 561.353,448.996 576.137,448.996 z" id="boundary" inkscape:connector-curvature="0" />
	<path style="fill:none;stroke:red;stroke-width:1px;stroke-linecap:butt;stroke-linejoin:miter;stroke-opacity:1" d="M 568.745,4 583.529,4 z" id="boundary" inkscape:connector-curvature="0" />
	<path style="fill:none;stroke:red;stroke-width:1px;stroke-linecap:butt;stroke-linejoin:miter;stroke-opacity:1" d="M 576.137,448.996 589.443,441.604 z" id="boundary" inkscape:connector-curvature="0" />
	<path style="fill:none;stroke:red;stroke-width:1px;stroke-linecap:butt;stroke-linejoin:miter;stroke-opacity:1" d="M 583.529,4 596.835,11.392 z" id="boundary" inkscape:connector-curvature="0" />
	<path style="fill:none;stroke:red;stroke-width:1px;stroke-linecap:butt;stroke-linejoin:miter;stroke-opacity:1" d="M 589.443,441.604 604.227,441.604 z" id="boundary" inkscape:connector-curvature="0" />
	<path style="fill:none;stroke:red;stroke-width:1px;stroke-linecap:butt;stroke-linejoin:miter;stroke-opacity:1" d="M 596.835,11.392 611.618,11.392 z" id="boundary" inkscape:connector-curvature="0" />
	<path style="fill:none;stroke:red;stroke-width:1px;stroke-linecap:butt;stroke-linejoin:miter;stroke-opacity:1" d="M 604.227,441.604 619.01,441.604 z" id="boundary" inkscape:connector-curvature="0" />
	<path style="fill:none;stroke:red;stroke-width:1px;stroke-linecap:butt;stroke-linejoin:miter;stroke-opacity:1" d="M 611.618,11.392 626.402,11.392 z" id="boundary" inkscape:connector-curvature="0" />
	<path style="fill:none;stroke:red;stroke-width:1px;stroke-linecap:butt;stroke-linejoin:miter;stroke-opacity:1" d="M 619.01,441.604 633.794,441.604 z" id="boundary" inkscape:connector-curvature="0" />
	<path style="fill:none;stroke:red;stroke-width:1px;stroke-linecap:butt;stroke-linejoin:miter;stroke-opacity:1" d="M 626.402,11.392 641.186,11.392 z" id="boundary" inkscape:connector-curvature="0" />
	<path style="fill:none;stroke:red;stroke-width:1px;stroke-linecap:butt;stroke-linejoin:miter;stroke-opacity:1" d="M 633.794,441.604 648.578,441.604 z" id="boundary" inkscape:connector-curvature="0" />
	<path style="fill:none;stroke:red;stroke-width:1px;stroke-linecap:butt;stroke-linejoin:miter;stroke-opacity:1" d="M 641.186,11.392 655.97,15.8271 z" id="boundary" inkscape:connector-curvature="0" />
	<path style="fill:none;stroke:red;stroke-width:1px;stroke-linecap:butt;stroke-linejoin:miter;stroke-opacity:1" d="M 648.578,441.604 661.884,434.212 z" id="boundary" inkscape:connector-curvature="0" />
	<path style="fill:none;stroke:red;stroke-width:1px;stroke-linecap:butt;stroke-linejoin:miter;stroke-opacity:1" d="M 655.97,15.8271 670.754,18.7839 z" id="boundary" inkscape:connector-curvature="0" />
	<path style="fill:none;stroke:red;stroke-width:1px;stroke-linecap:butt;stroke-linejoin:miter;stroke-opacity:1" d="M 661.884,434.212 676.668,429.776 z" id="boundary" inkscape:connector-curvature="0" />
	<path style="fill:none;stroke:red;stroke-width:1px;stroke-linecap:butt;stroke-linejoin:miter;stroke-opacity:1" d="M 670.754,18.7839 684.06,26.1759 z" id="boundary" inkscape:connector-curvature="0" />
	<path style="fill:none;stroke:red;stroke-width:1px;stroke-linecap:butt;stroke-linejoin:miter;stroke-opacity:1" d="M 676.668,429.776 691.452,422.385 z" id="boundary" inkscape:connector-curvature="0" />
	<path style="fill:none;stroke:red;stroke-width:1px;stroke-linecap:butt;stroke-linejoin:miter;stroke-opacity:1" d="M 684.06,26.1759 698.844,29.1326 z" id="boundary" inkscape:connector-curvature="0" />
	<path style="fill:none;stroke:red;stroke-width:1px;stroke-linecap:butt;stroke-linejoin:miter;stroke-opacity:1" d="M 691.452,422.385 706.235,419.428 z" id="boundary" inkscape:connector-curvature="0" />
	<path style="fill:none;stroke:red;stroke-width:1px;stroke-linecap:butt;stroke-linejoin:miter;stroke-opacity:1" d="M 698.844,29.1326 713.627,33.5678 z" id="boundary" inkscape:connector-curvature="0" />
	<path style="fill:none;stroke:red;stroke-width:1px;stroke-linecap:butt;stroke-linejoin:miter;stroke-opacity:1" d="M 706.235,419.428 721.019,419.428 z" id="boundary" inkscape:connector-curvature="0" />
	<path style="fill:none;stroke:red;stroke-width:1px;stroke-linecap:butt;stroke-linejoin:miter;stroke-opacity:1" d="M 713.627,33.5678 728.411,33.5678 z" id="boundary" inkscape:connector-curvature="0" />
	<path style="fill:none;stroke:red;stroke-width:1px;stroke-linecap:butt;stroke-linejoin:miter;stroke-opacity:1" d="M 721.019,419.428 735.803,414.993 z" id="boundary" inkscape:connector-curvature="0" />
	<path style="fill:none;stroke:red;stroke-width:1px;stroke-linecap:butt;stroke-linejoin:miter;stroke-opacity:1" d="M 728.411,33.5678 741.717,40.9598 z" id="boundary" inkscape:connector-curvature="0" />
	<path style="fill:none;stroke:red;stroke-width:1px;stroke-linecap:butt;stroke-linejoin:miter;stroke-opacity:1" d="M 735.803,414.993 747.63,404.644 z" id="boundary" inkscape:connector-curvature="0" />
	<path style="fill:none;stroke:red;stroke-width:1px;stroke-linecap:butt;stroke-linejoin:miter;stroke-opacity:1" d="M 741.717,40.9598 756.501,42.4382 z" id="boundary" inkscape:connector-curvature="0" />
	<path style="fill:none;stroke:red;stroke-width:1px;stroke-linecap:butt;stroke-linejoin:miter;stroke-opacity:1" d="M 747.63,404.644 760.936,397.252 z" id="boundary" inkscape:connector-curvature="0" />
	<path style="fill:none;stroke:red;stroke-width:1px;stroke-linecap:butt;stroke-linejoin:miter;stroke-opacity:1" d="M 756.501,42.4382 769.806,49.8301 z" id="boundary" inkscape:connector-curvature="0" />
	<path style="fill:none;stroke:red;stroke-width:1px;stroke-linecap:butt;stroke-linejoin:miter;stroke-opacity:1" d="M 760.936,397.252 774.241,389.86 z" id="boundary" inkscape:connector-curvature="0" />
	<path style="fill:none;stroke:red;stroke-width:1px;stroke-linecap:butt;stroke-linejoin:miter;stroke-opacity:1" d="M 769.806,49.8301 784.59,55.7437 z" id="boundary" inkscape:connector-curvature="0" />
	<path style="fill:none;stroke:red;stroke-width:1px;stroke-linecap:butt;stroke-linejoin:miter;stroke-opacity:1" d="M 774.241,389.86 786.069,379.511 z" id="boundary" inkscape:connector-curvature="0" />
	<path style="fill:none;stroke:red;stroke-width:1px;stroke-linecap:butt;stroke-linejoin:miter;stroke-opacity:1" d="M 784.59,55.7437 797.896,63.1356 z" id="boundary" inkscape:connector-curvature="0" />
	<path style="fill:none;stroke:red;stroke-width:1px;stroke-linecap:butt;stroke-linejoin:miter;stroke-opacity:1" d="M 786.069,379.511 800.852,375.076 z" id="boundary" inkscape:connector-curvature="0" />
	<path style="fill:none;stroke:red;stroke-width:1px;stroke-linecap:butt;stroke-linejoin:miter;stroke-opacity:1" d="M 797.896,63.1356 811.201,70.5276 z" id="boundary" inkscape:connector-curvature="0" />
	<path style="fill:none;stroke:red;stroke-width:1px;stroke-linecap:butt;stroke-linejoin:miter;stroke-opacity:1" d="M 800.852,375.076 815.636,375.076 z" id="boundary" inkscape:connector-curvature="0" />
	<path style="fill:none;stroke:red;stroke-width:1px;stroke-linecap:butt;stroke-linejoin:miter;stroke-opacity:1" d="M 811.201,70.5276 824.507,77.9195 z" id="boundary" inkscape:connector-curvature="0" />
	<path style="fill:none;stroke:red;stroke-width:1px;stroke-linecap:butt;stroke-linejoin:miter;stroke-opacity:1" d="M 815.636,375.076 828.942,367.684 z" id="boundary" inkscape:connector-curvature="0" />
	<path style="fill:none;stroke:red;stroke-width:1px;stroke-linecap:butt;stroke-linejoin:miter;stroke-opacity:1" d="M 824.507,77.9195 837.812,85.3115 z" id="boundary" inkscape:connector-curvature="0" />
	<path style="fill:none;stroke:red;stroke-width:1px;stroke-linecap:butt;stroke-linejoin:miter;stroke-opacity:1" d="M 828.942,367.684 843.726,366.206 z" id="boundary" inkscape:connector-curvature="0" />
	<path style="fill:none;stroke:red;stroke-width:1px;stroke-linecap:butt;stroke-linejoin:miter;stroke-opacity:1" d="M 837.812,85.3115 852.596,86.7899 z" id="boundary" inkscape:connector-curvature="0" />
	<path style="fill:none;stroke:red;stroke-width:1px;stroke-linecap:butt;stroke-linejoin:miter;stroke-opacity:1" d="M 843.726,366.206 855.553,352.9 z" id="boundary" inkscape:connector-curvature="0" />
	<path style="fill:none;stroke:red;stroke-width:1px;stroke-linecap:butt;stroke-linejoin:miter;stroke-opacity:1" d="M 852.596,86.7899 865.902,94.1818 z" id="boundary" inkscape:connector-curvature="0" />
	<path style="fill:none;stroke:red;stroke-width:1px;stroke-linecap:butt;stroke-linejoin:miter;stroke-opacity:1" d="M 855.553,352.9 867.38,342.551 z" id="boundary" inkscape:connector-curvature="0" />
	<path style="fill:none;stroke:red;stroke-width:1px;stroke-linecap:butt;stroke-linejoin:miter;stroke-opacity:1" d="M 865.902,94.1818 873.294,107.487 z" id="boundary" inkscape:connector-curvature="0" />
	<path style="fill:none;stroke:red;stroke-width:1px;stroke-linecap:butt;stroke-linejoin:miter;stroke-opacity:1" d="M 867.38,342.551 874.772,327.768 z" id="boundary" inkscape:connector-curvature="0" />
	<path style="fill:none;stroke:red;stroke-width:1px;stroke-linecap:butt;stroke-linejoin:miter;stroke-opacity:1" d="M 873.294,107.487 883.642,119.314 z" id="boundary" inkscape:connector-curvature="0" />
	<path style="fill:none;stroke:red;stroke-width:1px;stroke-linecap:butt;stroke-linejoin:miter;stroke-opacity:1" d="M 874.772,327.768 885.121,315.94 z" id="boundary" inkscape:connector-curvature="0" />
	<path style="fill:none;stroke:red;stroke-width:1px;stroke-linecap:butt;stroke-linejoin:miter;stroke-opacity:1" d="M 883.642,119.314 895.469,129.663 z" id="boundary" inkscape:connector-curvature="0" />
	<path style="fill:none;stroke:red;stroke-width:1px;stroke-linecap:butt;stroke-linejoin:miter;stroke-opacity:1" d="M 885.121,315.94 896.948,305.592 z" id="boundary" inkscape:connector-curvature="0" />
	<path style="fill:none;stroke:red;stroke-width:1px;stroke-linecap:butt;stroke-linejoin:miter;stroke-opacity:1" d="M 895.469,129.663 899.905,144.447 z" id="boundary" inkscape:connector-curvature="0" />
	<path style="fill:none;stroke:red;stroke-width:1px;stroke-linecap:butt;stroke-linejoin:miter;stroke-opacity:1" d="M 896.948,305.592 907.297,293.765 z" id="boundary" inkscape:connector-curvature="0" />
	<path style="fill:none;stroke:red;stroke-width:1px;stroke-linecap:butt;stroke-linejoin:miter;stroke-opacity:1" d="M 899.905,144.447 911.732,153.317 z" id="boundary" inkscape:connector-curvature="0" />
	<path style="fill:none;stroke:red;stroke-width:1px;stroke-linecap:butt;stroke-linejoin:miter;stroke-opacity:1" d="M 907.297,293.765 922.08,286.373 z" id="boundary" inkscape:connector-curvature="0" />
	<path style="fill:none;stroke:red;stroke-width:1px;stroke-linecap:butt;stroke-linejoin:miter;stroke-opacity:1" d="M 911.732,153.317 922.08,165.145 z" id="boundary" inkscape:connector-curvature="0" />
	<path style="fill:none;stroke:red;stroke-width:1px;stroke-linecap:butt;stroke-linejoin:miter;stroke-opacity:1" d="M 922.08,165.145 933.908,174.015 z" id="boundary" inkscape:connector-curvature="0" />
	<path style="fill:none;stroke:red;stroke-width:1px;stroke-linecap:butt;stroke-linejoin:miter;stroke-opacity:1" d="M 922.08,286.373 933.908,276.024 z" id="boundary" inkscape:connector-curvature="0" />
	<path style="fill:none;stroke:red;stroke-width:1px;stroke-linecap:butt;stroke-linejoin:miter;stroke-opacity:1" d="M 933.908,174.015 947.213,181.407 z" id="boundary" inkscape:connector-curvature="0" />
	<path style="fill:none;stroke:red;stroke-width:1px;stroke-linecap:butt;stroke-linejoin:miter;stroke-opacity:1" d="M 933.908,276.024 948.692,268.632 z" id="boundary" inkscape:connector-curvature="0" />
	<path style="fill:none;stroke:red;stroke-width:1px;stroke-linecap:butt;stroke-linejoin:miter;stroke-opacity:1" d="M 947.213,181.407 961.997,181.407 z" id="boundary" inkscape:connector-curvature="0" />
	<path style="fill:none;stroke:red;stroke-width:1px;stroke-linecap:butt;stroke-linejoin:miter;stroke-opacity:1" d="M 948.692,268.632 963.475,261.24 z" id="boundary" inkscape:connector-curvature="0" />
	<path style="fill:none;stroke:red;stroke-width:1px;stroke-linecap:butt;stroke-linejoin:miter;stroke-opacity:1" d="M 961.997,181.407 976.781,181.407 z" id="boundary" inkscape:connector-curvature="0" />
	<path style="fill:none;stroke:red;stroke-width:1px;stroke-linecap:butt;stroke-linejoin:miter;stroke-opacity:1" d="M 963.475,261.24 973.824,249.413 z" id="boundary" inkscape:connector-curvature="0" />
	<path style="fill:none;stroke:red;stroke-width:1px;stroke-linecap:butt;stroke-linejoin:miter;stroke-opacity:1" d="M 973.824,249.413 985.651,239.064 z" id="boundary" inkscape:connector-curvature="0" />
	<path style="fill:none;stroke:red;stroke-width:1px;stroke-linecap:butt;stroke-linejoin:miter;stroke-opacity:1" d="M 976.781,181.407 990.086,188.799 z" id="boundary" inkscape:connector-curvature="0" />
	<path style="fill:none;stroke:red;stroke-width:1px;stroke-linecap:butt;stroke-linejoin:miter;stroke-opacity:1" d="M 985.651,239.064 996,218.367 z" id="boundary" inkscape:connector-curvature="0" />
	<path style="fill:none;stroke:red;stroke-width:1px;stroke-linecap:butt;stroke-linejoin:miter;stroke-opacity:1" d="M 990.086,188.799 996,203.583 z" id="boundary" inkscape:connector-curvature="0" />
	<path style="fill:none;stroke:red;stroke-width:1px;stroke-linecap:butt;stroke-linejoin:miter;stroke-opacity:1" d="M 996,203.583 996,218.367 z" id="boundary" inkscape:connector-curvature="0" />
	<circle cx="4" cy="222.802" r="4" fill="#0" id="circle0"/>
	<circle cx="4" cy="237.586" r="4" fill="#0" id="circle1"/>
	<circle cx="4" cy="252.37" r="4" fill="#0" id="circle2"/>
	<circle cx="11.392" cy="208.018" r="4" fill="#0" id="circle3"/>
	<circle cx="11.392" cy="265.675" r="4" fill="#0" id="circle4"/>
	<circle cx="18.7839" cy="193.234" r="4" fill="#0" id="circle5"/>
	<circle cx="18.7839" cy="278.981" r="4" fill="#0" id="circle6"/>
	<circle cx="26.1759" cy="292.286" r="4" fill="#0" id="circle7"/>
	<circle cx="30.611" cy="181.407" r="4" fill="#0" id="circle8"/>
	<circle cx="35.0462" cy="304.113" r="4" fill="#0" id="circle9"/>
	<circle cx="42.4382" cy="169.58" r="4" fill="#0" id="circle10"/>
	<circle cx="45.3949" cy="315.94" r="4" fill="#0" id="circle11"/>
	<circle cx="54.2653" cy="159.231" r="4" fill="#0" id="circle12"/>
	<circle cx="60.1788" cy="321.854" r="4" fill="#0" id="circle13"/>
	<circle cx="69.0492" cy="159.231" r="4" fill="#0" id="circle14"/>
	<circle cx="74.9627" cy="323.332" r="4" fill="#0" id="circle15"/>
	<circle cx="83.8331" cy="160.709" r="4" fill="#0" id="circle16"/>
	<circle cx="89.7466" cy="323.332" r="4" fill="#0" id="circle17"/>
	<circle cx="98.617" cy="166.623" r="4" fill="#0" id="circle18"/>
	<circle cx="103.052" cy="315.94" r="4" fill="#0" id="circle19"/>
	<circle cx="113.401" cy="166.623" r="4" fill="#0" id="circle20"/>
	<circle cx="117.836" cy="315.94" r="4" fill="#0" id="circle21"/>
	<circle cx="128.185" cy="166.623" r="4" fill="#0" id="circle22"/>
	<circle cx="132.62" cy="315.94" r="4" fill="#0" id="circle23"/>
	<circle cx="142.969" cy="168.101" r="4" fill="#0" id="circle24"/>
	<circle cx="147.404" cy="315.94" r="4" fill="#0" id="circle25"/>
	<circle cx="157.753" cy="174.015" r="4" fill="#0" id="circle26"/>
	<circle cx="160.709" cy="308.548" r="4" fill="#0" id="circle27"/>
	<circle cx="171.058" cy="181.407" r="4" fill="#0" id="circle28"/>
	<circle cx="175.493" cy="301.156" r="4" fill="#0" id="circle29"/>
	<circle cx="185.842" cy="181.407" r="4" fill="#0" id="circle30"/>
	<circle cx="190.277" cy="293.765" r="4" fill="#0" id="circle31"/>
	<circle cx="200.626" cy="181.407" r="4" fill="#0" id="circle32"/>
	<circle cx="205.061" cy="293.765" r="4" fill="#0" id="circle33"/>
	<circle cx="213.931" cy="188.799" r="4" fill="#0" id="circle34"/>
	<circle cx="219.845" cy="286.373" r="4" fill="#0" id="circle35"/>
	<circle cx="228.715" cy="188.799" r="4" fill="#0" id="circle36"/>
	<circle cx="234.629" cy="286.373" r="4" fill="#0" id="circle37"/>
	<circle cx="243.499" cy="182.885" r="4" fill="#0" id="circle38"/>
	<circle cx="249.413" cy="286.373" r="4" fill="#0" id="circle39"/>
	<circle cx="255.326" cy="163.666" r="4" fill="#0" id="circle40"/>
	<circle cx="262.718" cy="293.765" r="4" fill="#0" id="circle41"/>
	<circle cx="267.154" cy="151.839" r="4" fill="#0" id="circle42"/>
	<circle cx="271.589" cy="305.592" r="4" fill="#0" id="circle43"/>
	<circle cx="278.981" cy="140.012" r="4" fill="#0" id="circle44"/>
	<circle cx="283.416" cy="315.94" r="4" fill="#0" id="circle45"/>
	<circle cx="290.808" cy="129.663" r="4" fill="#0" id="circle46"/>
	<circle cx="293.765" cy="327.768" r="4" fill="#0" id="circle47"/>
	<circle cx="304.113" cy="122.271" r="4" fill="#0" id="circle48"/>
	<circle cx="305.592" cy="338.116" r="4" fill="#0" id="circle49"/>
	<circle cx="314.462" cy="104.531" r="4" fill="#0" id="circle50"/>
	<circle cx="318.897" cy="345.508" r="4" fill="#0" id="circle51"/>
	<circle cx="326.289" cy="92.7034" r="4" fill="#0" id="circle52"/>
	<circle cx="330.724" cy="355.857" r="4" fill="#0" id="circle53"/>
	<circle cx="341.073" cy="85.3115" r="4" fill="#0" id="circle54"/>
	<circle cx="344.03" cy="363.249" r="4" fill="#0" id="circle55"/>
	<circle cx="355.857" cy="77.9195" r="4" fill="#0" id="circle56"/>
	<circle cx="355.857" cy="373.598" r="4" fill="#0" id="circle57"/>
	<circle cx="370.641" cy="70.5276" r="4" fill="#0" id="circle58"/>
	<circle cx="370.641" cy="375.076" r="4" fill="#0" id="circle59"/>
	<circle cx="383.946" cy="63.1356" r="4" fill="#0" id="circle60"/>
	<circle cx="383.946" cy="382.468" r="4" fill="#0" id="circle61"/>
	<circle cx="397.252" cy="55.7437" r="4" fill="#0" id="circle62"/>
	<circle cx="397.252" cy="389.86" r="4" fill="#0" id="circle63"/>
	<circle cx="410.557" cy="45.3949" r="4" fill="#0" id="circle64"/>
	<circle cx="410.557" cy="397.252" r="4" fill="#0" id="circle65"/>
	<circle cx="423.863" cy="404.644" r="4" fill="#0" id="circle66"/>
	<circle cx="425.341" cy="38.003" r="4" fill="#0" id="circle67"/>
	<circle cx="437.168" cy="26.1759" r="4" fill="#0" id="circle68"/>
	<circle cx="437.168" cy="412.036" r="4" fill="#0" id="circle69"/>
	<circle cx="451.952" cy="18.7839" r="4" fill="#0" id="circle70"/>
	<circle cx="451.952" cy="417.949" r="4" fill="#0" id="circle71"/>
	<circle cx="466.736" cy="18.7839" r="4" fill="#0" id="circle72"/>
	<circle cx="466.736" cy="419.428" r="4" fill="#0" id="circle73"/>
	<circle cx="481.52" cy="18.7839" r="4" fill="#0" id="circle74"/>
	<circle cx="481.52" cy="419.428" r="4" fill="#0" id="circle75"/>
	<circle cx="494.826" cy="426.82" r="4" fill="#0" id="circle76"/>
	<circle cx="496.304" cy="11.392" r="4" fill="#0" id="circle77"/>
	<circle cx="506.653" cy="435.69" r="4" fill="#0" id="circle78"/>
	<circle cx="509.61" cy="4" r="4" fill="#0" id="circle79"/>
	<circle cx="517.001" cy="447.517" r="4" fill="#0" id="circle80"/>
	<circle cx="524.393" cy="4" r="4" fill="#0" id="circle81"/>
	<circle cx="531.785" cy="448.996" r="4" fill="#0" id="circle82"/>
	<circle cx="539.177" cy="4" r="4" fill="#0" id="circle83"/>
	<circle cx="546.569" cy="448.996" r="4" fill="#0" id="circle84"/>
	<circle cx="553.961" cy="4" r="4" fill="#0" id="circle85"/>
	<circle cx="561.353" cy="448.996" r="4" fill="#0" id="circle86"/>
	<circle cx="568.745" cy="4" r="4" fill="#0" id="circle87"/>
	<circle cx="576.137" cy="448.996" r="4" fill="#0" id="circle88"/>
	<circle cx="583.529" cy="4" r="4" fill="#0" id="circle89"/>
	<circle cx="589.443" cy="441.604" r="4" fill="#0" id="circle90"/>
	<circle cx="596.835" cy="11.392" r="4" fill="#0" id="circle91"/>
	<circle cx="604.227" cy="441.604" r="4" fill="#0" id="circle92"/>
	<circle cx="611.618" cy="11.392" r="4" fill="#0" id="circle93"/>
	<circle cx="619.01" cy="441.604" r="4" fill="#0" id="circle94"/>
	<circle cx="626.402" cy="11.392" r="4" fill="#0" id="circle95"/>
	<circle cx="633.794" cy="441.604" r="4" fill="#0" id="circle96"/>
	<circle cx="641.186" cy="11.392" r="4" fill="#0" id="circle97"/>
	<circle cx="648.578" cy="441.604" r="4" fill="#0" id="circle98"/>
	<circle cx="655.97" cy="15.8271" r="4" fill="#0" id="circle99"/>
	<circle cx="661.884" cy="434.212" r="4" fill="#0" id="circle100"/>
	<circle cx="670.754" cy="18.7839" r="4" fill="#0" id="circle101"/>
	<circle cx="676.668" cy="429.776" r="4" fill="#0" id="circle102"/>
	<circle cx="684.06" cy="26.1759" r="4" fill="#0" id="circle103"/>
	<circle cx="691.452" cy="422.385" r="4" fill="#0" id="circle104"/>
	<circle cx="698.844" cy="29.1326" r="4" fill="#0" id="circle105"/>
	<circle cx="706.235" cy="419.428" r="4" fill="#0" id="circle106"/>
	<circle cx="713.627" cy="33.5678" r="4" fill="#0" id="circle107"/>
	<circle cx="721.019" cy="419.428" r="4" fill="#0" id="circle108"/>
	<circle cx="728.411" cy="33.5678" r="4" fill="#0" id="circle109"/>
	<circle cx="735.803" cy="414.993" r="4" fill="#0" id="circle110"/>
	<circle cx="741.717" cy="40.9598" r="4" fill="#0" id="circle111"/>
	<circle cx="747.63" cy="404.644" r="4" fill="#0" id="circle112"/>
	<circle cx="756.501" cy="42.4382" r="4" fill="#0" id="circle113"/>
	<circle cx="760.936" cy="397.252" r="4" fill="#0" id="circle114"/>
	<circle cx="769.806" cy="49.8301" r="4" fill="#0" id="circle115"/>
	<circle cx="774.241" cy="389.86" r="4" fill="#0" id="circle116"/>
	<circle cx="784.59" cy="55.7437" r="4" fill="#0" id="circle117"/>
	<circle cx="786.069" cy="379.511" r="4" fill="#0" id="circle118"/>
	<circle cx="797.896" cy="63.1356" r="4" fill="#0" id="circle119"/>
	<circle cx="800.852" cy="375.076" r="4" fill="#0" id="circle120"/>
	<circle cx="811.201" cy="70.5276" r="4" fill="#0" id="circle121"/>
	<circle cx="815.636" cy="375.076" r="4" fill="#0" id="circle122"/>
	<circle cx="824.507" cy="77.9195" r="4" fill="#0" id="circle123"/>
	<circle cx="828.942" cy="367.684" r="4" fill="#0" id="circle124"/>
	<circle cx="837.812" cy="85.3115" r="4" fill="#0" id="circle125"/>
	<circle cx="843.726" cy="366.206" r="4" fill="#0" id="circle126"/>
	<circle cx="852.596" cy="86.7899" r="4" fill="#0" id="circle127"/>
	<circle cx="855.553" cy="352.9" r="4" fill="#0" id="circle128"/>
	<circle cx="865.902" cy="94.1818" r="4" fill="#0" id="circle129"/>
	<circle cx="867.38" cy="342.551" r="4" fill="#0" id="circle130"/>
	<circle cx="873.294" cy="107.487" r="4" fill="#0" id="circle131"/>
	<circle cx="874.772" cy="327.768" r="4" fill="#0" id="circle132"/>
	<circle cx="883.642" cy="119.314" r="4" fill="#0" id="circle133"/>
	<circle cx="885.121" cy="315.94" r="4" fill="#0" id="circle134"/>
	<circle cx="895.469" cy="129.663" r="4" fill="#0" id="circle135"/>
	<circle cx="896.948" cy="305.592" r="4" fill="#0" id="circle136"/>
	<circle cx="899.905" cy="144.447" r="4" fill="#0" id="circle137"/>
	<circle cx="907.297" cy="293.765" r="4" fill="#0" id="circle138"/>
	<circle cx="911.732" cy="153.317" r="4" fill="#0" id="circle139"/>
	<circle cx="922.08" cy="165.145" r="4" fill="#0" id="circle140"/>
	<circle cx="922.08" cy="286.373" r="4" fill="#0" id="circle141"/>
	<circle cx="933.908" cy="174.015" r="4" fill="#0" id="circle142"/>
	<circle cx="933.908" cy="276.024" r="4" fill="#0" id="circle143"/>
	<circle cx="947.213" cy="181.407" r="4" fill="#0" id="circle144"/>
	<circle cx="948.692" cy="268.632" r="4" fill="#0" id="circle145"/>
	<circle cx="961.997" cy="181.407" r="4" fill="#0" id="circle146"/>
	<circle cx="963.475" cy="261.24" r="4" fill="#0" id="circle147"/>
	<circle cx="973.824" cy="249.413" r="4" fill="#0" id="circle148"/>
	<circle cx="976.781" cy="181.407" r="4" fill="#0" id="circle149"/>
	<circle cx="985.651" cy="239.064" r="4" fill="#0" id="circle150"/>
	<circle cx="990.086" cy="188.799" r="4" fill="#0" id="circle151"/>
	<circle cx="996" cy="203.583" r="4" fill="#0" id="circle152"/>
	<circle cx="996" cy="218.367" r="4" fill="#0" id="circle153"/>
	</g>
</svg>