<?xml version="1.0" encoding="UTF-8" standalone="no"?>
<!-- Created with CurveBenchmark -->
<svg
	xmlns:dc="http://purl.org/dc/elements/1.1/"
	xmlns:cc="http://creativecommons.org/ns#"
	xmlns:rdf="http://www.w3.org/1999/02/22-rdf-syntax-ns#"
	xmlns:svg="http://www.w3.org/2000/svg"
	xmlns="http://www.w3.org/2000/svg"
	xmlns:sodipodi="http://sodipodi.sourceforge.net/DTD/sodipodi-0.dtd"
	xmlns:inkscape="http://www.inkscape.org/namespaces/inkscape"
	width="1000"
	height="1000"
	id="svg2"
	version="1.1"
	sodipodi:docname="manifold/discur-sink260.png.txt">
<defs
	id="defs4" />
<metadata
	id="metadata7">
	<rdf:RDF>
		<cc:Work
			rdf:about="">
			<dc:format>image/svg+xml</dc:format>
			<dc:type
				rdf:resource="http://purl.org/dc/dcmitype/StillImage" />
			<dc:title></dc:title>
		</cc:Work>
	</rdf:RDF>
</metadata>
<g
	inkscape:label="Layer 1"
	inkscape:groupmode="layer"
	id="layer1">
	<path style="fill:none;stroke:red;stroke-width:1px;stroke-linecap:butt;stroke-linejoin:miter;stroke-opacity:1" d="M 4,304.02 33.0341,265.307 z" id="boundary" inkscape:connector-curvature="0" />
	<path style="fill:none;stroke:red;stroke-width:1px;stroke-linecap:butt;stroke-linejoin:miter;stroke-opacity:1" d="M 4,304.02 52.3902,318.537 z" id="boundary" inkscape:connector-curvature="0" />
	<path style="fill:none;stroke:red;stroke-width:1px;stroke-linecap:butt;stroke-linejoin:miter;stroke-opacity:1" d="M 33.0341,265.307 81.4244,265.307 z" id="boundary" inkscape:connector-curvature="0" />
	<path style="fill:none;stroke:red;stroke-width:1px;stroke-linecap:butt;stroke-linejoin:miter;stroke-opacity:1" d="M 52.3902,318.537 100.78,318.537 z" id="boundary" inkscape:connector-curvature="0" />
	<path style="fill:none;stroke:red;stroke-width:1px;stroke-linecap:butt;stroke-linejoin:miter;stroke-opacity:1" d="M 81.4244,265.307 129.815,265.307 z" id="boundary" inkscape:connector-curvature="0" />
	<path style="fill:none;stroke:red;stroke-width:1px;stroke-linecap:butt;stroke-linejoin:miter;stroke-opacity:1" d="M 100.78,318.537 149.171,318.537 z" id="boundary" inkscape:connector-curvature="0" />
	<path style="fill:none;stroke:red;stroke-width:1px;stroke-linecap:butt;stroke-linejoin:miter;stroke-opacity:1" d="M 129.815,265.307 168.527,226.595 z" id="boundary" inkscape:connector-curvature="0" />
	<path style="fill:none;stroke:red;stroke-width:1px;stroke-linecap:butt;stroke-linejoin:miter;stroke-opacity:1" d="M 149.171,318.537 187.883,347.571 z" id="boundary" inkscape:connector-curvature="0" />
	<path style="fill:none;stroke:red;stroke-width:1px;stroke-linecap:butt;stroke-linejoin:miter;stroke-opacity:1" d="M 168.527,226.595 187.883,168.527 z" id="boundary" inkscape:connector-curvature="0" />
	<path style="fill:none;stroke:red;stroke-width:1px;stroke-linecap:butt;stroke-linejoin:miter;stroke-opacity:1" d="M 187.883,168.527 236.273,168.527 z" id="boundary" inkscape:connector-curvature="0" />
	<path style="fill:none;stroke:red;stroke-width:1px;stroke-linecap:butt;stroke-linejoin:miter;stroke-opacity:1" d="M 187.883,347.571 216.917,386.283 z" id="boundary" inkscape:connector-curvature="0" />
	<path style="fill:none;stroke:red;stroke-width:1px;stroke-linecap:butt;stroke-linejoin:miter;stroke-opacity:1" d="M 216.917,386.283 255.629,420.156 z" id="boundary" inkscape:connector-curvature="0" />
	<path style="fill:none;stroke:red;stroke-width:1px;stroke-linecap:butt;stroke-linejoin:miter;stroke-opacity:1" d="M 226.595,952.449 250.79,996 z" id="boundary" inkscape:connector-curvature="0" />
	<path style="fill:none;stroke:red;stroke-width:1px;stroke-linecap:butt;stroke-linejoin:miter;stroke-opacity:1" d="M 226.595,952.449 255.629,894.38 z" id="boundary" inkscape:connector-curvature="0" />
	<path style="fill:none;stroke:red;stroke-width:1px;stroke-linecap:butt;stroke-linejoin:miter;stroke-opacity:1" d="M 236.273,168.527 284.663,168.527 z" id="boundary" inkscape:connector-curvature="0" />
	<path style="fill:none;stroke:red;stroke-width:1px;stroke-linecap:butt;stroke-linejoin:miter;stroke-opacity:1" d="M 250.79,996 299.18,996 z" id="boundary" inkscape:connector-curvature="0" />
	<path style="fill:none;stroke:red;stroke-width:1px;stroke-linecap:butt;stroke-linejoin:miter;stroke-opacity:1" d="M 255.629,420.156 274.985,468.546 z" id="boundary" inkscape:connector-curvature="0" />
	<path style="fill:none;stroke:red;stroke-width:1px;stroke-linecap:butt;stroke-linejoin:miter;stroke-opacity:1" d="M 255.629,894.38 274.985,807.278 z" id="boundary" inkscape:connector-curvature="0" />
	<path style="fill:none;stroke:red;stroke-width:1px;stroke-linecap:butt;stroke-linejoin:miter;stroke-opacity:1" d="M 274.985,468.546 274.985,516.937 z" id="boundary" inkscape:connector-curvature="0" />
	<path style="fill:none;stroke:red;stroke-width:1px;stroke-linecap:butt;stroke-linejoin:miter;stroke-opacity:1" d="M 274.985,516.937 274.985,565.327 z" id="boundary" inkscape:connector-curvature="0" />
	<path style="fill:none;stroke:red;stroke-width:1px;stroke-linecap:butt;stroke-linejoin:miter;stroke-opacity:1" d="M 274.985,565.327 274.985,613.717 z" id="boundary" inkscape:connector-curvature="0" />
	<path style="fill:none;stroke:red;stroke-width:1px;stroke-linecap:butt;stroke-linejoin:miter;stroke-opacity:1" d="M 274.985,613.717 274.985,662.107 z" id="boundary" inkscape:connector-curvature="0" />
	<path style="fill:none;stroke:red;stroke-width:1px;stroke-linecap:butt;stroke-linejoin:miter;stroke-opacity:1" d="M 274.985,662.107 274.985,710.498 z" id="boundary" inkscape:connector-curvature="0" />
	<path style="fill:none;stroke:red;stroke-width:1px;stroke-linecap:butt;stroke-linejoin:miter;stroke-opacity:1" d="M 274.985,710.498 274.985,758.888 z" id="boundary" inkscape:connector-curvature="0" />
	<path style="fill:none;stroke:red;stroke-width:1px;stroke-linecap:butt;stroke-linejoin:miter;stroke-opacity:1" d="M 274.985,758.888 274.985,807.278 z" id="boundary" inkscape:connector-curvature="0" />
	<path style="fill:none;stroke:red;stroke-width:1px;stroke-linecap:butt;stroke-linejoin:miter;stroke-opacity:1" d="M 284.663,168.527 333.054,168.527 z" id="boundary" inkscape:connector-curvature="0" />
	<path style="fill:none;stroke:red;stroke-width:1px;stroke-linecap:butt;stroke-linejoin:miter;stroke-opacity:1" d="M 299.18,996 347.571,996 z" id="boundary" inkscape:connector-curvature="0" />
	<path style="fill:none;stroke:red;stroke-width:1px;stroke-linecap:butt;stroke-linejoin:miter;stroke-opacity:1" d="M 333.054,168.527 381.444,168.527 z" id="boundary" inkscape:connector-curvature="0" />
	<path style="fill:none;stroke:red;stroke-width:1px;stroke-linecap:butt;stroke-linejoin:miter;stroke-opacity:1" d="M 347.571,996 395.961,996 z" id="boundary" inkscape:connector-curvature="0" />
	<path style="fill:none;stroke:red;stroke-width:1px;stroke-linecap:butt;stroke-linejoin:miter;stroke-opacity:1" d="M 381.444,168.527 429.834,168.527 z" id="boundary" inkscape:connector-curvature="0" />
	<path style="fill:none;stroke:red;stroke-width:1px;stroke-linecap:butt;stroke-linejoin:miter;stroke-opacity:1" d="M 395.961,996 444.351,996 z" id="boundary" inkscape:connector-curvature="0" />
	<path style="fill:none;stroke:red;stroke-width:1px;stroke-linecap:butt;stroke-linejoin:miter;stroke-opacity:1" d="M 410.478,62.0683 434.673,18.5171 z" id="boundary" inkscape:connector-curvature="0" />
	<path style="fill:none;stroke:red;stroke-width:1px;stroke-linecap:butt;stroke-linejoin:miter;stroke-opacity:1" d="M 429.834,168.527 478.224,168.527 z" id="boundary" inkscape:connector-curvature="0" />
	<path style="fill:none;stroke:red;stroke-width:1px;stroke-linecap:butt;stroke-linejoin:miter;stroke-opacity:1" d="M 434.673,18.5171 483.063,4 z" id="boundary" inkscape:connector-curvature="0" />
	<path style="fill:none;stroke:red;stroke-width:1px;stroke-linecap:butt;stroke-linejoin:miter;stroke-opacity:1" d="M 444.351,468.546 444.351,516.937 z" id="boundary" inkscape:connector-curvature="0" />
	<path style="fill:none;stroke:red;stroke-width:1px;stroke-linecap:butt;stroke-linejoin:miter;stroke-opacity:1" d="M 444.351,468.546 492.741,454.029 z" id="boundary" inkscape:connector-curvature="0" />
	<path style="fill:none;stroke:red;stroke-width:1px;stroke-linecap:butt;stroke-linejoin:miter;stroke-opacity:1" d="M 444.351,516.937 444.351,565.327 z" id="boundary" inkscape:connector-curvature="0" />
	<path style="fill:none;stroke:red;stroke-width:1px;stroke-linecap:butt;stroke-linejoin:miter;stroke-opacity:1" d="M 444.351,565.327 444.351,613.717 z" id="boundary" inkscape:connector-curvature="0" />
	<path style="fill:none;stroke:red;stroke-width:1px;stroke-linecap:butt;stroke-linejoin:miter;stroke-opacity:1" d="M 444.351,613.717 444.351,662.107 z" id="boundary" inkscape:connector-curvature="0" />
	<path style="fill:none;stroke:red;stroke-width:1px;stroke-linecap:butt;stroke-linejoin:miter;stroke-opacity:1" d="M 444.351,662.107 444.351,710.498 z" id="boundary" inkscape:connector-curvature="0" />
	<path style="fill:none;stroke:red;stroke-width:1px;stroke-linecap:butt;stroke-linejoin:miter;stroke-opacity:1" d="M 444.351,710.498 444.351,758.888 z" id="boundary" inkscape:connector-curvature="0" />
	<path style="fill:none;stroke:red;stroke-width:1px;stroke-linecap:butt;stroke-linejoin:miter;stroke-opacity:1" d="M 444.351,758.888 444.351,807.278 z" id="boundary" inkscape:connector-curvature="0" />
	<path style="fill:none;stroke:red;stroke-width:1px;stroke-linecap:butt;stroke-linejoin:miter;stroke-opacity:1" d="M 444.351,807.278 444.351,855.668 z" id="boundary" inkscape:connector-curvature="0" />
	<path style="fill:none;stroke:red;stroke-width:1px;stroke-linecap:butt;stroke-linejoin:miter;stroke-opacity:1" d="M 444.351,855.668 468.546,899.22 z" id="boundary" inkscape:connector-curvature="0" />
	<path style="fill:none;stroke:red;stroke-width:1px;stroke-linecap:butt;stroke-linejoin:miter;stroke-opacity:1" d="M 444.351,996 492.741,996 z" id="boundary" inkscape:connector-curvature="0" />
	<path style="fill:none;stroke:red;stroke-width:1px;stroke-linecap:butt;stroke-linejoin:miter;stroke-opacity:1" d="M 468.546,899.22 492.741,942.771 z" id="boundary" inkscape:connector-curvature="0" />
	<path style="fill:none;stroke:red;stroke-width:1px;stroke-linecap:butt;stroke-linejoin:miter;stroke-opacity:1" d="M 483.063,4 502.42,52.3902 z" id="boundary" inkscape:connector-curvature="0" />
	<path style="fill:none;stroke:red;stroke-width:1px;stroke-linecap:butt;stroke-linejoin:miter;stroke-opacity:1" d="M 492.741,454.029 541.132,434.673 z" id="boundary" inkscape:connector-curvature="0" />
	<path style="fill:none;stroke:red;stroke-width:1px;stroke-linecap:butt;stroke-linejoin:miter;stroke-opacity:1" d="M 492.741,942.771 492.741,996 z" id="boundary" inkscape:connector-curvature="0" />
	<path style="fill:none;stroke:red;stroke-width:1px;stroke-linecap:butt;stroke-linejoin:miter;stroke-opacity:1" d="M 502.42,52.3902 516.937,100.78 z" id="boundary" inkscape:connector-curvature="0" />
	<path style="fill:none;stroke:red;stroke-width:1px;stroke-linecap:butt;stroke-linejoin:miter;stroke-opacity:1" d="M 516.937,100.78 550.81,139.493 z" id="boundary" inkscape:connector-curvature="0" />
	<path style="fill:none;stroke:red;stroke-width:1px;stroke-linecap:butt;stroke-linejoin:miter;stroke-opacity:1" d="M 541.132,434.673 584.683,405.639 z" id="boundary" inkscape:connector-curvature="0" />
	<path style="fill:none;stroke:red;stroke-width:1px;stroke-linecap:butt;stroke-linejoin:miter;stroke-opacity:1" d="M 550.81,139.493 589.522,168.527 z" id="boundary" inkscape:connector-curvature="0" />
	<path style="fill:none;stroke:red;stroke-width:1px;stroke-linecap:butt;stroke-linejoin:miter;stroke-opacity:1" d="M 584.683,405.639 613.717,366.927 z" id="boundary" inkscape:connector-curvature="0" />
	<path style="fill:none;stroke:red;stroke-width:1px;stroke-linecap:butt;stroke-linejoin:miter;stroke-opacity:1" d="M 589.522,168.527 637.912,168.527 z" id="boundary" inkscape:connector-curvature="0" />
	<path style="fill:none;stroke:red;stroke-width:1px;stroke-linecap:butt;stroke-linejoin:miter;stroke-opacity:1" d="M 613.717,366.927 633.073,318.537 z" id="boundary" inkscape:connector-curvature="0" />
	<path style="fill:none;stroke:red;stroke-width:1px;stroke-linecap:butt;stroke-linejoin:miter;stroke-opacity:1" d="M 633.073,318.537 681.463,318.537 z" id="boundary" inkscape:connector-curvature="0" />
	<path style="fill:none;stroke:red;stroke-width:1px;stroke-linecap:butt;stroke-linejoin:miter;stroke-opacity:1" d="M 637.912,168.527 686.302,168.527 z" id="boundary" inkscape:connector-curvature="0" />
	<path style="fill:none;stroke:red;stroke-width:1px;stroke-linecap:butt;stroke-linejoin:miter;stroke-opacity:1" d="M 681.463,318.537 729.854,318.537 z" id="boundary" inkscape:connector-curvature="0" />
	<path style="fill:none;stroke:red;stroke-width:1px;stroke-linecap:butt;stroke-linejoin:miter;stroke-opacity:1" d="M 686.302,168.527 734.693,168.527 z" id="boundary" inkscape:connector-curvature="0" />
	<path style="fill:none;stroke:red;stroke-width:1px;stroke-linecap:butt;stroke-linejoin:miter;stroke-opacity:1" d="M 729.854,318.537 778.244,318.537 z" id="boundary" inkscape:connector-curvature="0" />
	<path style="fill:none;stroke:red;stroke-width:1px;stroke-linecap:butt;stroke-linejoin:miter;stroke-opacity:1" d="M 734.693,168.527 783.083,168.527 z" id="boundary" inkscape:connector-curvature="0" />
	<path style="fill:none;stroke:red;stroke-width:1px;stroke-linecap:butt;stroke-linejoin:miter;stroke-opacity:1" d="M 778.244,318.537 826.634,318.537 z" id="boundary" inkscape:connector-curvature="0" />
	<path style="fill:none;stroke:red;stroke-width:1px;stroke-linecap:butt;stroke-linejoin:miter;stroke-opacity:1" d="M 783.083,168.527 826.634,192.722 z" id="boundary" inkscape:connector-curvature="0" />
	<path style="fill:none;stroke:red;stroke-width:1px;stroke-linecap:butt;stroke-linejoin:miter;stroke-opacity:1" d="M 826.634,192.722 831.473,241.112 z" id="boundary" inkscape:connector-curvature="0" />
	<path style="fill:none;stroke:red;stroke-width:1px;stroke-linecap:butt;stroke-linejoin:miter;stroke-opacity:1" d="M 826.634,318.537 831.473,241.112 z" id="boundary" inkscape:connector-curvature="0" />
	<circle cx="4" cy="304.02" r="4" fill="#0" id="circle0"/>
	<circle cx="33.0341" cy="265.307" r="4" fill="#0" id="circle1"/>
	<circle cx="52.3902" cy="318.537" r="4" fill="#0" id="circle2"/>
	<circle cx="81.4244" cy="265.307" r="4" fill="#0" id="circle3"/>
	<circle cx="100.78" cy="318.537" r="4" fill="#0" id="circle4"/>
	<circle cx="129.815" cy="265.307" r="4" fill="#0" id="circle5"/>
	<circle cx="149.171" cy="318.537" r="4" fill="#0" id="circle6"/>
	<circle cx="168.527" cy="226.595" r="4" fill="#0" id="circle7"/>
	<circle cx="187.883" cy="168.527" r="4" fill="#0" id="circle8"/>
	<circle cx="187.883" cy="347.571" r="4" fill="#0" id="circle9"/>
	<circle cx="216.917" cy="386.283" r="4" fill="#0" id="circle10"/>
	<circle cx="226.595" cy="952.449" r="4" fill="#0" id="circle11"/>
	<circle cx="236.273" cy="168.527" r="4" fill="#0" id="circle12"/>
	<circle cx="250.79" cy="996" r="4" fill="#0" id="circle13"/>
	<circle cx="255.629" cy="420.156" r="4" fill="#0" id="circle14"/>
	<circle cx="255.629" cy="894.38" r="4" fill="#0" id="circle15"/>
	<circle cx="274.985" cy="468.546" r="4" fill="#0" id="circle16"/>
	<circle cx="274.985" cy="516.937" r="4" fill="#0" id="circle17"/>
	<circle cx="274.985" cy="565.327" r="4" fill="#0" id="circle18"/>
	<circle cx="274.985" cy="613.717" r="4" fill="#0" id="circle19"/>
	<circle cx="274.985" cy="662.107" r="4" fill="#0" id="circle20"/>
	<circle cx="274.985" cy="710.498" r="4" fill="#0" id="circle21"/>
	<circle cx="274.985" cy="758.888" r="4" fill="#0" id="circle22"/>
	<circle cx="274.985" cy="807.278" r="4" fill="#0" id="circle23"/>
	<circle cx="284.663" cy="168.527" r="4" fill="#0" id="circle24"/>
	<circle cx="299.18" cy="996" r="4" fill="#0" id="circle25"/>
	<circle cx="333.054" cy="168.527" r="4" fill="#0" id="circle26"/>
	<circle cx="347.571" cy="996" r="4" fill="#0" id="circle27"/>
	<circle cx="381.444" cy="168.527" r="4" fill="#0" id="circle28"/>
	<circle cx="395.961" cy="996" r="4" fill="#0" id="circle29"/>
	<circle cx="410.478" cy="62.0683" r="4" fill="#0" id="circle30"/>
	<circle cx="429.834" cy="168.527" r="4" fill="#0" id="circle31"/>
	<circle cx="434.673" cy="18.5171" r="4" fill="#0" id="circle32"/>
	<circle cx="444.351" cy="468.546" r="4" fill="#0" id="circle33"/>
	<circle cx="444.351" cy="516.937" r="4" fill="#0" id="circle34"/>
	<circle cx="444.351" cy="565.327" r="4" fill="#0" id="circle35"/>
	<circle cx="444.351" cy="613.717" r="4" fill="#0" id="circle36"/>
	<circle cx="444.351" cy="662.107" r="4" fill="#0" id="circle37"/>
	<circle cx="444.351" cy="710.498" r="4" fill="#0" id="circle38"/>
	<circle cx="444.351" cy="758.888" r="4" fill="#0" id="circle39"/>
	<circle cx="444.351" cy="807.278" r="4" fill="#0" id="circle40"/>
	<circle cx="444.351" cy="855.668" r="4" fill="#0" id="circle41"/>
	<circle cx="444.351" cy="996" r="4" fill="#0" id="circle42"/>
	<circle cx="468.546" cy="899.22" r="4" fill="#0" id="circle43"/>
	<circle cx="478.224" cy="168.527" r="4" fill="#0" id="circle44"/>
	<circle cx="483.063" cy="4" r="4" fill="#0" id="circle45"/>
	<circle cx="492.741" cy="454.029" r="4" fill="#0" id="circle46"/>
	<circle cx="492.741" cy="942.771" r="4" fill="#0" id="circle47"/>
	<circle cx="492.741" cy="996" r="4" fill="#0" id="circle48"/>
	<circle cx="502.42" cy="52.3902" r="4" fill="#0" id="circle49"/>
	<circle cx="516.937" cy="100.78" r="4" fill="#0" id="circle50"/>
	<circle cx="541.132" cy="434.673" r="4" fill="#0" id="circle51"/>
	<circle cx="550.81" cy="139.493" r="4" fill="#0" id="circle52"/>
	<circle cx="584.683" cy="405.639" r="4" fill="#0" id="circle53"/>
	<circle cx="589.522" cy="168.527" r="4" fill="#0" id="circle54"/>
	<circle cx="613.717" cy="366.927" r="4" fill="#0" id="circle55"/>
	<circle cx="633.073" cy="318.537" r="4" fill="#0" id="circle56"/>
	<circle cx="637.912" cy="168.527" r="4" fill="#0" id="circle57"/>
	<circle cx="681.463" cy="318.537" r="4" fill="#0" id="circle58"/>
	<circle cx="686.302" cy="168.527" r="4" fill="#0" id="circle59"/>
	<circle cx="729.854" cy="318.537" r="4" fill="#0" id="circle60"/>
	<circle cx="734.693" cy="168.527" r="4" fill="#0" id="circle61"/>
	<circle cx="778.244" cy="318.537" r="4" fill="#0" id="circle62"/>
	<circle cx="783.083" cy="168.527" r="4" fill="#0" id="circle63"/>
	<circle cx="826.634" cy="192.722" r="4" fill="#0" id="circle64"/>
	<circle cx="826.634" cy="318.537" r="4" fill="#0" id="circle65"/>
	<circle cx="831.473" cy="241.112" r="4" fill="#0" id="circle66"/>
	</g>
</svg>