<?xml version="1.0" encoding="UTF-8" standalone="no"?>
<!-- Created with CurveBenchmark -->
<svg
	xmlns:dc="http://purl.org/dc/elements/1.1/"
	xmlns:cc="http://creativecommons.org/ns#"
	xmlns:rdf="http://www.w3.org/1999/02/22-rdf-syntax-ns#"
	xmlns:svg="http://www.w3.org/2000/svg"
	xmlns="http://www.w3.org/2000/svg"
	xmlns:sodipodi="http://sodipodi.sourceforge.net/DTD/sodipodi-0.dtd"
	xmlns:inkscape="http://www.inkscape.org/namespaces/inkscape"
	width="1000"
	height="1000"
	id="svg2"
	version="1.1"
	sodipodi:docname="manifold/discur-bird160.png.txt">
<defs
	id="defs4" />
<metadata
	id="metadata7">
	<rdf:RDF>
		<cc:Work
			rdf:about="">
			<dc:format>image/svg+xml</dc:format>
			<dc:type
				rdf:resource="http://purl.org/dc/dcmitype/StillImage" />
			<dc:title></dc:title>
		</cc:Work>
	</rdf:RDF>
</metadata>
<g
	inkscape:label="Layer 1"
	inkscape:groupmode="layer"
	id="layer1">
	<path style="fill:none;stroke:red;stroke-width:1px;stroke-linecap:butt;stroke-linejoin:miter;stroke-opacity:1" d="M 4,256.788 23.1506,291.259 z" id="boundary" inkscape:connector-curvature="0" />
	<path style="fill:none;stroke:red;stroke-width:1px;stroke-linecap:butt;stroke-linejoin:miter;stroke-opacity:1" d="M 4,256.788 26.9807,226.147 z" id="boundary" inkscape:connector-curvature="0" />
	<path style="fill:none;stroke:red;stroke-width:1px;stroke-linecap:butt;stroke-linejoin:miter;stroke-opacity:1" d="M 23.1506,291.259 61.4517,272.108 z" id="boundary" inkscape:connector-curvature="0" />
	<path style="fill:none;stroke:red;stroke-width:1px;stroke-linecap:butt;stroke-linejoin:miter;stroke-opacity:1" d="M 26.9807,226.147 57.6216,187.846 z" id="boundary" inkscape:connector-curvature="0" />
	<path style="fill:none;stroke:red;stroke-width:1px;stroke-linecap:butt;stroke-linejoin:miter;stroke-opacity:1" d="M 57.6216,187.846 80.6023,157.205 z" id="boundary" inkscape:connector-curvature="0" />
	<path style="fill:none;stroke:red;stroke-width:1px;stroke-linecap:butt;stroke-linejoin:miter;stroke-opacity:1" d="M 61.4517,272.108 92.0927,241.467 z" id="boundary" inkscape:connector-curvature="0" />
	<path style="fill:none;stroke:red;stroke-width:1px;stroke-linecap:butt;stroke-linejoin:miter;stroke-opacity:1" d="M 80.6023,157.205 95.9228,111.243 z" id="boundary" inkscape:connector-curvature="0" />
	<path style="fill:none;stroke:red;stroke-width:1px;stroke-linecap:butt;stroke-linejoin:miter;stroke-opacity:1" d="M 92.0927,241.467 126.564,222.317 z" id="boundary" inkscape:connector-curvature="0" />
	<path style="fill:none;stroke:red;stroke-width:1px;stroke-linecap:butt;stroke-linejoin:miter;stroke-opacity:1" d="M 95.9228,111.243 126.564,88.2625 z" id="boundary" inkscape:connector-curvature="0" />
	<path style="fill:none;stroke:red;stroke-width:1px;stroke-linecap:butt;stroke-linejoin:miter;stroke-opacity:1" d="M 126.564,88.2625 164.865,72.9421 z" id="boundary" inkscape:connector-curvature="0" />
	<path style="fill:none;stroke:red;stroke-width:1px;stroke-linecap:butt;stroke-linejoin:miter;stroke-opacity:1" d="M 126.564,222.317 164.865,206.996 z" id="boundary" inkscape:connector-curvature="0" />
	<path style="fill:none;stroke:red;stroke-width:1px;stroke-linecap:butt;stroke-linejoin:miter;stroke-opacity:1" d="M 164.865,72.9421 203.166,72.9421 z" id="boundary" inkscape:connector-curvature="0" />
	<path style="fill:none;stroke:red;stroke-width:1px;stroke-linecap:butt;stroke-linejoin:miter;stroke-opacity:1" d="M 164.865,206.996 195.506,184.015 z" id="boundary" inkscape:connector-curvature="0" />
	<path style="fill:none;stroke:red;stroke-width:1px;stroke-linecap:butt;stroke-linejoin:miter;stroke-opacity:1" d="M 195.506,184.015 233.807,180.185 z" id="boundary" inkscape:connector-curvature="0" />
	<path style="fill:none;stroke:red;stroke-width:1px;stroke-linecap:butt;stroke-linejoin:miter;stroke-opacity:1" d="M 203.166,72.9421 241.467,80.6023 z" id="boundary" inkscape:connector-curvature="0" />
	<path style="fill:none;stroke:red;stroke-width:1px;stroke-linecap:butt;stroke-linejoin:miter;stroke-opacity:1" d="M 226.147,272.108 233.807,218.486 z" id="boundary" inkscape:connector-curvature="0" />
	<path style="fill:none;stroke:red;stroke-width:1px;stroke-linecap:butt;stroke-linejoin:miter;stroke-opacity:1" d="M 226.147,272.108 233.807,310.409 z" id="boundary" inkscape:connector-curvature="0" />
	<path style="fill:none;stroke:red;stroke-width:1px;stroke-linecap:butt;stroke-linejoin:miter;stroke-opacity:1" d="M 233.807,180.185 233.807,218.486 z" id="boundary" inkscape:connector-curvature="0" />
	<path style="fill:none;stroke:red;stroke-width:1px;stroke-linecap:butt;stroke-linejoin:miter;stroke-opacity:1" d="M 233.807,310.409 256.788,341.05 z" id="boundary" inkscape:connector-curvature="0" />
	<path style="fill:none;stroke:red;stroke-width:1px;stroke-linecap:butt;stroke-linejoin:miter;stroke-opacity:1" d="M 241.467,80.6023 275.938,99.7529 z" id="boundary" inkscape:connector-curvature="0" />
	<path style="fill:none;stroke:red;stroke-width:1px;stroke-linecap:butt;stroke-linejoin:miter;stroke-opacity:1" d="M 256.788,341.05 291.259,360.201 z" id="boundary" inkscape:connector-curvature="0" />
	<path style="fill:none;stroke:red;stroke-width:1px;stroke-linecap:butt;stroke-linejoin:miter;stroke-opacity:1" d="M 275.938,99.7529 298.919,130.394 z" id="boundary" inkscape:connector-curvature="0" />
	<path style="fill:none;stroke:red;stroke-width:1px;stroke-linecap:butt;stroke-linejoin:miter;stroke-opacity:1" d="M 291.259,360.201 329.56,367.861 z" id="boundary" inkscape:connector-curvature="0" />
	<path style="fill:none;stroke:red;stroke-width:1px;stroke-linecap:butt;stroke-linejoin:miter;stroke-opacity:1" d="M 298.919,130.394 318.069,164.865 z" id="boundary" inkscape:connector-curvature="0" />
	<path style="fill:none;stroke:red;stroke-width:1px;stroke-linecap:butt;stroke-linejoin:miter;stroke-opacity:1" d="M 318.069,164.865 341.05,118.903 z" id="boundary" inkscape:connector-curvature="0" />
	<path style="fill:none;stroke:red;stroke-width:1px;stroke-linecap:butt;stroke-linejoin:miter;stroke-opacity:1" d="M 329.56,367.861 367.861,348.71 z" id="boundary" inkscape:connector-curvature="0" />
	<path style="fill:none;stroke:red;stroke-width:1px;stroke-linecap:butt;stroke-linejoin:miter;stroke-opacity:1" d="M 341.05,118.903 360.201,84.4324 z" id="boundary" inkscape:connector-curvature="0" />
	<path style="fill:none;stroke:red;stroke-width:1px;stroke-linecap:butt;stroke-linejoin:miter;stroke-opacity:1" d="M 360.201,84.4324 383.181,53.7915 z" id="boundary" inkscape:connector-curvature="0" />
	<path style="fill:none;stroke:red;stroke-width:1px;stroke-linecap:butt;stroke-linejoin:miter;stroke-opacity:1" d="M 367.861,348.71 390.842,302.749 z" id="boundary" inkscape:connector-curvature="0" />
	<path style="fill:none;stroke:red;stroke-width:1px;stroke-linecap:butt;stroke-linejoin:miter;stroke-opacity:1" d="M 383.181,53.7915 417.653,34.6409 z" id="boundary" inkscape:connector-curvature="0" />
	<path style="fill:none;stroke:red;stroke-width:1px;stroke-linecap:butt;stroke-linejoin:miter;stroke-opacity:1" d="M 390.842,302.749 398.502,249.127 z" id="boundary" inkscape:connector-curvature="0" />
	<path style="fill:none;stroke:red;stroke-width:1px;stroke-linecap:butt;stroke-linejoin:miter;stroke-opacity:1" d="M 398.502,249.127 421.483,218.486 z" id="boundary" inkscape:connector-curvature="0" />
	<path style="fill:none;stroke:red;stroke-width:1px;stroke-linecap:butt;stroke-linejoin:miter;stroke-opacity:1" d="M 417.653,34.6409 455.954,19.3205 z" id="boundary" inkscape:connector-curvature="0" />
	<path style="fill:none;stroke:red;stroke-width:1px;stroke-linecap:butt;stroke-linejoin:miter;stroke-opacity:1" d="M 421.483,218.486 455.954,237.637 z" id="boundary" inkscape:connector-curvature="0" />
	<path style="fill:none;stroke:red;stroke-width:1px;stroke-linecap:butt;stroke-linejoin:miter;stroke-opacity:1" d="M 440.633,973.019 459.784,938.548 z" id="boundary" inkscape:connector-curvature="0" />
	<path style="fill:none;stroke:red;stroke-width:1px;stroke-linecap:butt;stroke-linejoin:miter;stroke-opacity:1" d="M 440.633,973.019 478.934,980.68 z" id="boundary" inkscape:connector-curvature="0" />
	<path style="fill:none;stroke:red;stroke-width:1px;stroke-linecap:butt;stroke-linejoin:miter;stroke-opacity:1" d="M 455.954,19.3205 494.255,11.6602 z" id="boundary" inkscape:connector-curvature="0" />
	<path style="fill:none;stroke:red;stroke-width:1px;stroke-linecap:butt;stroke-linejoin:miter;stroke-opacity:1" d="M 455.954,237.637 486.595,264.448 z" id="boundary" inkscape:connector-curvature="0" />
	<path style="fill:none;stroke:red;stroke-width:1px;stroke-linecap:butt;stroke-linejoin:miter;stroke-opacity:1" d="M 459.784,938.548 498.085,930.888 z" id="boundary" inkscape:connector-curvature="0" />
	<path style="fill:none;stroke:red;stroke-width:1px;stroke-linecap:butt;stroke-linejoin:miter;stroke-opacity:1" d="M 478.934,980.68 517.236,980.68 z" id="boundary" inkscape:connector-curvature="0" />
	<path style="fill:none;stroke:red;stroke-width:1px;stroke-linecap:butt;stroke-linejoin:miter;stroke-opacity:1" d="M 486.595,264.448 501.915,302.749 z" id="boundary" inkscape:connector-curvature="0" />
	<path style="fill:none;stroke:red;stroke-width:1px;stroke-linecap:butt;stroke-linejoin:miter;stroke-opacity:1" d="M 494.255,11.6602 532.556,4 z" id="boundary" inkscape:connector-curvature="0" />
	<path style="fill:none;stroke:red;stroke-width:1px;stroke-linecap:butt;stroke-linejoin:miter;stroke-opacity:1" d="M 498.085,930.888 532.556,907.907 z" id="boundary" inkscape:connector-curvature="0" />
	<path style="fill:none;stroke:red;stroke-width:1px;stroke-linecap:butt;stroke-linejoin:miter;stroke-opacity:1" d="M 501.915,302.749 505.745,341.05 z" id="boundary" inkscape:connector-curvature="0" />
	<path style="fill:none;stroke:red;stroke-width:1px;stroke-linecap:butt;stroke-linejoin:miter;stroke-opacity:1" d="M 505.745,341.05 509.575,379.351 z" id="boundary" inkscape:connector-curvature="0" />
	<path style="fill:none;stroke:red;stroke-width:1px;stroke-linecap:butt;stroke-linejoin:miter;stroke-opacity:1" d="M 509.575,379.351 517.236,417.653 z" id="boundary" inkscape:connector-curvature="0" />
	<path style="fill:none;stroke:red;stroke-width:1px;stroke-linecap:butt;stroke-linejoin:miter;stroke-opacity:1" d="M 517.236,417.653 524.896,455.954 z" id="boundary" inkscape:connector-curvature="0" />
	<path style="fill:none;stroke:red;stroke-width:1px;stroke-linecap:butt;stroke-linejoin:miter;stroke-opacity:1" d="M 517.236,980.68 555.537,980.68 z" id="boundary" inkscape:connector-curvature="0" />
	<path style="fill:none;stroke:red;stroke-width:1px;stroke-linecap:butt;stroke-linejoin:miter;stroke-opacity:1" d="M 524.896,455.954 536.386,494.255 z" id="boundary" inkscape:connector-curvature="0" />
	<path style="fill:none;stroke:red;stroke-width:1px;stroke-linecap:butt;stroke-linejoin:miter;stroke-opacity:1" d="M 532.556,4 570.857,4 z" id="boundary" inkscape:connector-curvature="0" />
	<path style="fill:none;stroke:red;stroke-width:1px;stroke-linecap:butt;stroke-linejoin:miter;stroke-opacity:1" d="M 532.556,907.907 540.216,854.286 z" id="boundary" inkscape:connector-curvature="0" />
	<path style="fill:none;stroke:red;stroke-width:1px;stroke-linecap:butt;stroke-linejoin:miter;stroke-opacity:1" d="M 536.386,494.255 547.876,532.556 z" id="boundary" inkscape:connector-curvature="0" />
	<path style="fill:none;stroke:red;stroke-width:1px;stroke-linecap:butt;stroke-linejoin:miter;stroke-opacity:1" d="M 540.216,854.286 547.876,808.324 z" id="boundary" inkscape:connector-curvature="0" />
	<path style="fill:none;stroke:red;stroke-width:1px;stroke-linecap:butt;stroke-linejoin:miter;stroke-opacity:1" d="M 547.876,532.556 555.537,570.857 z" id="boundary" inkscape:connector-curvature="0" />
	<path style="fill:none;stroke:red;stroke-width:1px;stroke-linecap:butt;stroke-linejoin:miter;stroke-opacity:1" d="M 547.876,808.324 555.537,762.363 z" id="boundary" inkscape:connector-curvature="0" />
	<path style="fill:none;stroke:red;stroke-width:1px;stroke-linecap:butt;stroke-linejoin:miter;stroke-opacity:1" d="M 555.537,570.857 563.197,609.158 z" id="boundary" inkscape:connector-curvature="0" />
	<path style="fill:none;stroke:red;stroke-width:1px;stroke-linecap:butt;stroke-linejoin:miter;stroke-opacity:1" d="M 555.537,762.363 563.197,708.741 z" id="boundary" inkscape:connector-curvature="0" />
	<path style="fill:none;stroke:red;stroke-width:1px;stroke-linecap:butt;stroke-linejoin:miter;stroke-opacity:1" d="M 555.537,980.68 593.838,980.68 z" id="boundary" inkscape:connector-curvature="0" />
	<path style="fill:none;stroke:red;stroke-width:1px;stroke-linecap:butt;stroke-linejoin:miter;stroke-opacity:1" d="M 563.197,609.158 563.197,647.459 z" id="boundary" inkscape:connector-curvature="0" />
	<path style="fill:none;stroke:red;stroke-width:1px;stroke-linecap:butt;stroke-linejoin:miter;stroke-opacity:1" d="M 563.197,647.459 563.197,708.741 z" id="boundary" inkscape:connector-curvature="0" />
	<path style="fill:none;stroke:red;stroke-width:1px;stroke-linecap:butt;stroke-linejoin:miter;stroke-opacity:1" d="M 570.857,4 609.158,4 z" id="boundary" inkscape:connector-curvature="0" />
	<path style="fill:none;stroke:red;stroke-width:1px;stroke-linecap:butt;stroke-linejoin:miter;stroke-opacity:1" d="M 593.838,980.68 612.988,915.568 z" id="boundary" inkscape:connector-curvature="0" />
	<path style="fill:none;stroke:red;stroke-width:1px;stroke-linecap:butt;stroke-linejoin:miter;stroke-opacity:1" d="M 609.158,4 647.459,19.3205 z" id="boundary" inkscape:connector-curvature="0" />
	<path style="fill:none;stroke:red;stroke-width:1px;stroke-linecap:butt;stroke-linejoin:miter;stroke-opacity:1" d="M 612.988,915.568 620.649,861.946 z" id="boundary" inkscape:connector-curvature="0" />
	<path style="fill:none;stroke:red;stroke-width:1px;stroke-linecap:butt;stroke-linejoin:miter;stroke-opacity:1" d="M 620.649,861.946 628.309,808.324 z" id="boundary" inkscape:connector-curvature="0" />
	<path style="fill:none;stroke:red;stroke-width:1px;stroke-linecap:butt;stroke-linejoin:miter;stroke-opacity:1" d="M 628.309,808.324 635.969,754.703 z" id="boundary" inkscape:connector-curvature="0" />
	<path style="fill:none;stroke:red;stroke-width:1px;stroke-linecap:butt;stroke-linejoin:miter;stroke-opacity:1" d="M 635.969,754.703 643.629,701.081 z" id="boundary" inkscape:connector-curvature="0" />
	<path style="fill:none;stroke:red;stroke-width:1px;stroke-linecap:butt;stroke-linejoin:miter;stroke-opacity:1" d="M 643.629,701.081 651.29,632.139 z" id="boundary" inkscape:connector-curvature="0" />
	<path style="fill:none;stroke:red;stroke-width:1px;stroke-linecap:butt;stroke-linejoin:miter;stroke-opacity:1" d="M 647.459,19.3205 685.761,34.6409 z" id="boundary" inkscape:connector-curvature="0" />
	<path style="fill:none;stroke:red;stroke-width:1px;stroke-linecap:butt;stroke-linejoin:miter;stroke-opacity:1" d="M 651.29,364.031 651.29,402.332 z" id="boundary" inkscape:connector-curvature="0" />
	<path style="fill:none;stroke:red;stroke-width:1px;stroke-linecap:butt;stroke-linejoin:miter;stroke-opacity:1" d="M 651.29,364.031 689.591,367.861 z" id="boundary" inkscape:connector-curvature="0" />
	<path style="fill:none;stroke:red;stroke-width:1px;stroke-linecap:butt;stroke-linejoin:miter;stroke-opacity:1" d="M 651.29,402.332 651.29,440.633 z" id="boundary" inkscape:connector-curvature="0" />
	<path style="fill:none;stroke:red;stroke-width:1px;stroke-linecap:butt;stroke-linejoin:miter;stroke-opacity:1" d="M 651.29,440.633 651.29,478.934 z" id="boundary" inkscape:connector-curvature="0" />
	<path style="fill:none;stroke:red;stroke-width:1px;stroke-linecap:butt;stroke-linejoin:miter;stroke-opacity:1" d="M 651.29,478.934 651.29,517.236 z" id="boundary" inkscape:connector-curvature="0" />
	<path style="fill:none;stroke:red;stroke-width:1px;stroke-linecap:butt;stroke-linejoin:miter;stroke-opacity:1" d="M 651.29,517.236 651.29,555.537 z" id="boundary" inkscape:connector-curvature="0" />
	<path style="fill:none;stroke:red;stroke-width:1px;stroke-linecap:butt;stroke-linejoin:miter;stroke-opacity:1" d="M 651.29,555.537 651.29,593.838 z" id="boundary" inkscape:connector-curvature="0" />
	<path style="fill:none;stroke:red;stroke-width:1px;stroke-linecap:butt;stroke-linejoin:miter;stroke-opacity:1" d="M 651.29,593.838 651.29,632.139 z" id="boundary" inkscape:connector-curvature="0" />
	<path style="fill:none;stroke:red;stroke-width:1px;stroke-linecap:butt;stroke-linejoin:miter;stroke-opacity:1" d="M 685.761,34.6409 720.232,53.7915 z" id="boundary" inkscape:connector-curvature="0" />
	<path style="fill:none;stroke:red;stroke-width:1px;stroke-linecap:butt;stroke-linejoin:miter;stroke-opacity:1" d="M 689.591,367.861 724.062,387.012 z" id="boundary" inkscape:connector-curvature="0" />
	<path style="fill:none;stroke:red;stroke-width:1px;stroke-linecap:butt;stroke-linejoin:miter;stroke-opacity:1" d="M 720.232,53.7915 754.703,72.9421 z" id="boundary" inkscape:connector-curvature="0" />
	<path style="fill:none;stroke:red;stroke-width:1px;stroke-linecap:butt;stroke-linejoin:miter;stroke-opacity:1" d="M 724.062,387.012 762.363,398.502 z" id="boundary" inkscape:connector-curvature="0" />
	<path style="fill:none;stroke:red;stroke-width:1px;stroke-linecap:butt;stroke-linejoin:miter;stroke-opacity:1" d="M 754.703,72.9421 785.344,99.7529 z" id="boundary" inkscape:connector-curvature="0" />
	<path style="fill:none;stroke:red;stroke-width:1px;stroke-linecap:butt;stroke-linejoin:miter;stroke-opacity:1" d="M 762.363,398.502 800.664,413.822 z" id="boundary" inkscape:connector-curvature="0" />
	<path style="fill:none;stroke:red;stroke-width:1px;stroke-linecap:butt;stroke-linejoin:miter;stroke-opacity:1" d="M 785.344,99.7529 812.154,130.394 z" id="boundary" inkscape:connector-curvature="0" />
	<path style="fill:none;stroke:red;stroke-width:1px;stroke-linecap:butt;stroke-linejoin:miter;stroke-opacity:1" d="M 800.664,413.822 838.965,429.143 z" id="boundary" inkscape:connector-curvature="0" />
	<path style="fill:none;stroke:red;stroke-width:1px;stroke-linecap:butt;stroke-linejoin:miter;stroke-opacity:1" d="M 812.154,130.394 842.795,157.205 z" id="boundary" inkscape:connector-curvature="0" />
	<path style="fill:none;stroke:red;stroke-width:1px;stroke-linecap:butt;stroke-linejoin:miter;stroke-opacity:1" d="M 838.965,429.143 877.266,429.143 z" id="boundary" inkscape:connector-curvature="0" />
	<path style="fill:none;stroke:red;stroke-width:1px;stroke-linecap:butt;stroke-linejoin:miter;stroke-opacity:1" d="M 842.795,157.205 869.606,187.846 z" id="boundary" inkscape:connector-curvature="0" />
	<path style="fill:none;stroke:red;stroke-width:1px;stroke-linecap:butt;stroke-linejoin:miter;stroke-opacity:1" d="M 869.606,187.846 900.247,214.656 z" id="boundary" inkscape:connector-curvature="0" />
	<path style="fill:none;stroke:red;stroke-width:1px;stroke-linecap:butt;stroke-linejoin:miter;stroke-opacity:1" d="M 877.266,429.143 911.737,409.992 z" id="boundary" inkscape:connector-curvature="0" />
	<path style="fill:none;stroke:red;stroke-width:1px;stroke-linecap:butt;stroke-linejoin:miter;stroke-opacity:1" d="M 900.247,214.656 923.228,245.297 z" id="boundary" inkscape:connector-curvature="0" />
	<path style="fill:none;stroke:red;stroke-width:1px;stroke-linecap:butt;stroke-linejoin:miter;stroke-opacity:1" d="M 911.737,409.992 946.208,429.143 z" id="boundary" inkscape:connector-curvature="0" />
	<path style="fill:none;stroke:red;stroke-width:1px;stroke-linecap:butt;stroke-linejoin:miter;stroke-opacity:1" d="M 923.228,245.297 946.208,275.938 z" id="boundary" inkscape:connector-curvature="0" />
	<path style="fill:none;stroke:red;stroke-width:1px;stroke-linecap:butt;stroke-linejoin:miter;stroke-opacity:1" d="M 946.208,275.938 965.359,310.409 z" id="boundary" inkscape:connector-curvature="0" />
	<path style="fill:none;stroke:red;stroke-width:1px;stroke-linecap:butt;stroke-linejoin:miter;stroke-opacity:1" d="M 946.208,429.143 984.51,421.483 z" id="boundary" inkscape:connector-curvature="0" />
	<path style="fill:none;stroke:red;stroke-width:1px;stroke-linecap:butt;stroke-linejoin:miter;stroke-opacity:1" d="M 965.359,310.409 984.51,344.88 z" id="boundary" inkscape:connector-curvature="0" />
	<path style="fill:none;stroke:red;stroke-width:1px;stroke-linecap:butt;stroke-linejoin:miter;stroke-opacity:1" d="M 984.51,344.88 996,383.181 z" id="boundary" inkscape:connector-curvature="0" />
	<path style="fill:none;stroke:red;stroke-width:1px;stroke-linecap:butt;stroke-linejoin:miter;stroke-opacity:1" d="M 984.51,421.483 996,383.181 z" id="boundary" inkscape:connector-curvature="0" />
	<circle cx="4" cy="256.788" r="4" fill="#0" id="circle0"/>
	<circle cx="23.1506" cy="291.259" r="4" fill="#0" id="circle1"/>
	<circle cx="26.9807" cy="226.147" r="4" fill="#0" id="circle2"/>
	<circle cx="57.6216" cy="187.846" r="4" fill="#0" id="circle3"/>
	<circle cx="61.4517" cy="272.108" r="4" fill="#0" id="circle4"/>
	<circle cx="80.6023" cy="157.205" r="4" fill="#0" id="circle5"/>
	<circle cx="92.0927" cy="241.467" r="4" fill="#0" id="circle6"/>
	<circle cx="95.9228" cy="111.243" r="4" fill="#0" id="circle7"/>
	<circle cx="126.564" cy="88.2625" r="4" fill="#0" id="circle8"/>
	<circle cx="126.564" cy="222.317" r="4" fill="#0" id="circle9"/>
	<circle cx="164.865" cy="72.9421" r="4" fill="#0" id="circle10"/>
	<circle cx="164.865" cy="206.996" r="4" fill="#0" id="circle11"/>
	<circle cx="195.506" cy="184.015" r="4" fill="#0" id="circle12"/>
	<circle cx="203.166" cy="72.9421" r="4" fill="#0" id="circle13"/>
	<circle cx="226.147" cy="272.108" r="4" fill="#0" id="circle14"/>
	<circle cx="233.807" cy="180.185" r="4" fill="#0" id="circle15"/>
	<circle cx="233.807" cy="218.486" r="4" fill="#0" id="circle16"/>
	<circle cx="233.807" cy="310.409" r="4" fill="#0" id="circle17"/>
	<circle cx="241.467" cy="80.6023" r="4" fill="#0" id="circle18"/>
	<circle cx="256.788" cy="341.05" r="4" fill="#0" id="circle19"/>
	<circle cx="275.938" cy="99.7529" r="4" fill="#0" id="circle20"/>
	<circle cx="291.259" cy="360.201" r="4" fill="#0" id="circle21"/>
	<circle cx="298.919" cy="130.394" r="4" fill="#0" id="circle22"/>
	<circle cx="318.069" cy="164.865" r="4" fill="#0" id="circle23"/>
	<circle cx="329.56" cy="367.861" r="4" fill="#0" id="circle24"/>
	<circle cx="341.05" cy="118.903" r="4" fill="#0" id="circle25"/>
	<circle cx="360.201" cy="84.4324" r="4" fill="#0" id="circle26"/>
	<circle cx="367.861" cy="348.71" r="4" fill="#0" id="circle27"/>
	<circle cx="383.181" cy="53.7915" r="4" fill="#0" id="circle28"/>
	<circle cx="390.842" cy="302.749" r="4" fill="#0" id="circle29"/>
	<circle cx="398.502" cy="249.127" r="4" fill="#0" id="circle30"/>
	<circle cx="409.992" cy="946.208" r="4" fill="#0" id="circle31"/>
	<circle cx="417.653" cy="34.6409" r="4" fill="#0" id="circle32"/>
	<circle cx="421.483" cy="218.486" r="4" fill="#0" id="circle33"/>
	<circle cx="440.633" cy="973.019" r="4" fill="#0" id="circle34"/>
	<circle cx="455.954" cy="19.3205" r="4" fill="#0" id="circle35"/>
	<circle cx="455.954" cy="237.637" r="4" fill="#0" id="circle36"/>
	<circle cx="459.784" cy="938.548" r="4" fill="#0" id="circle37"/>
	<circle cx="478.934" cy="980.68" r="4" fill="#0" id="circle38"/>
	<circle cx="486.595" cy="264.448" r="4" fill="#0" id="circle39"/>
	<circle cx="494.255" cy="11.6602" r="4" fill="#0" id="circle40"/>
	<circle cx="498.085" cy="930.888" r="4" fill="#0" id="circle41"/>
	<circle cx="501.915" cy="302.749" r="4" fill="#0" id="circle42"/>
	<circle cx="505.745" cy="341.05" r="4" fill="#0" id="circle43"/>
	<circle cx="509.575" cy="379.351" r="4" fill="#0" id="circle44"/>
	<circle cx="517.236" cy="417.653" r="4" fill="#0" id="circle45"/>
	<circle cx="517.236" cy="980.68" r="4" fill="#0" id="circle46"/>
	<circle cx="524.896" cy="455.954" r="4" fill="#0" id="circle47"/>
	<circle cx="532.556" cy="4" r="4" fill="#0" id="circle48"/>
	<circle cx="532.556" cy="907.907" r="4" fill="#0" id="circle49"/>
	<circle cx="536.386" cy="494.255" r="4" fill="#0" id="circle50"/>
	<circle cx="540.216" cy="854.286" r="4" fill="#0" id="circle51"/>
	<circle cx="547.876" cy="532.556" r="4" fill="#0" id="circle52"/>
	<circle cx="547.876" cy="808.324" r="4" fill="#0" id="circle53"/>
	<circle cx="555.537" cy="570.857" r="4" fill="#0" id="circle54"/>
	<circle cx="555.537" cy="762.363" r="4" fill="#0" id="circle55"/>
	<circle cx="555.537" cy="980.68" r="4" fill="#0" id="circle56"/>
	<circle cx="563.197" cy="609.158" r="4" fill="#0" id="circle57"/>
	<circle cx="563.197" cy="647.459" r="4" fill="#0" id="circle58"/>
	<circle cx="563.197" cy="708.741" r="4" fill="#0" id="circle59"/>
	<circle cx="570.857" cy="4" r="4" fill="#0" id="circle60"/>
	<circle cx="593.838" cy="980.68" r="4" fill="#0" id="circle61"/>
	<circle cx="609.158" cy="4" r="4" fill="#0" id="circle62"/>
	<circle cx="612.988" cy="915.568" r="4" fill="#0" id="circle63"/>
	<circle cx="620.649" cy="861.946" r="4" fill="#0" id="circle64"/>
	<circle cx="628.309" cy="808.324" r="4" fill="#0" id="circle65"/>
	<circle cx="635.969" cy="754.703" r="4" fill="#0" id="circle66"/>
	<circle cx="643.629" cy="701.081" r="4" fill="#0" id="circle67"/>
	<circle cx="647.459" cy="19.3205" r="4" fill="#0" id="circle68"/>
	<circle cx="651.29" cy="364.031" r="4" fill="#0" id="circle69"/>
	<circle cx="651.29" cy="402.332" r="4" fill="#0" id="circle70"/>
	<circle cx="651.29" cy="440.633" r="4" fill="#0" id="circle71"/>
	<circle cx="651.29" cy="478.934" r="4" fill="#0" id="circle72"/>
	<circle cx="651.29" cy="517.236" r="4" fill="#0" id="circle73"/>
	<circle cx="651.29" cy="555.537" r="4" fill="#0" id="circle74"/>
	<circle cx="651.29" cy="593.838" r="4" fill="#0" id="circle75"/>
	<circle cx="651.29" cy="632.139" r="4" fill="#0" id="circle76"/>
	<circle cx="685.761" cy="34.6409" r="4" fill="#0" id="circle77"/>
	<circle cx="689.591" cy="367.861" r="4" fill="#0" id="circle78"/>
	<circle cx="720.232" cy="53.7915" r="4" fill="#0" id="circle79"/>
	<circle cx="724.062" cy="387.012" r="4" fill="#0" id="circle80"/>
	<circle cx="754.703" cy="72.9421" r="4" fill="#0" id="circle81"/>
	<circle cx="762.363" cy="398.502" r="4" fill="#0" id="circle82"/>
	<circle cx="785.344" cy="99.7529" r="4" fill="#0" id="circle83"/>
	<circle cx="800.664" cy="413.822" r="4" fill="#0" id="circle84"/>
	<circle cx="812.154" cy="130.394" r="4" fill="#0" id="circle85"/>
	<circle cx="838.965" cy="429.143" r="4" fill="#0" id="circle86"/>
	<circle cx="842.795" cy="157.205" r="4" fill="#0" id="circle87"/>
	<circle cx="869.606" cy="187.846" r="4" fill="#0" id="circle88"/>
	<circle cx="877.266" cy="429.143" r="4" fill="#0" id="circle89"/>
	<circle cx="900.247" cy="214.656" r="4" fill="#0" id="circle90"/>
	<circle cx="911.737" cy="409.992" r="4" fill="#0" id="circle91"/>
	<circle cx="923.228" cy="245.297" r="4" fill="#0" id="circle92"/>
	<circle cx="946.208" cy="275.938" r="4" fill="#0" id="circle93"/>
	<circle cx="946.208" cy="429.143" r="4" fill="#0" id="circle94"/>
	<circle cx="965.359" cy="310.409" r="4" fill="#0" id="circle95"/>
	<circle cx="984.51" cy="344.88" r="4" fill="#0" id="circle96"/>
	<circle cx="984.51" cy="421.483" r="4" fill="#0" id="circle97"/>
	<circle cx="996" cy="383.181" r="4" fill="#0" id="circle98"/>
	</g>
</svg>