<?xml version="1.0" encoding="UTF-8" standalone="no"?>
<!-- Created with CurveBenchmark -->
<svg
	xmlns:dc="http://purl.org/dc/elements/1.1/"
	xmlns:cc="http://creativecommons.org/ns#"
	xmlns:rdf="http://www.w3.org/1999/02/22-rdf-syntax-ns#"
	xmlns:svg="http://www.w3.org/2000/svg"
	xmlns="http://www.w3.org/2000/svg"
	xmlns:sodipodi="http://sodipodi.sourceforge.net/DTD/sodipodi-0.dtd"
	xmlns:inkscape="http://www.inkscape.org/namespaces/inkscape"
	width="1000"
	height="1000"
	id="svg2"
	version="1.1"
	sodipodi:docname="manifold/discur-bird355.png.txt">
<defs
	id="defs4" />
<metadata
	id="metadata7">
	<rdf:RDF>
		<cc:Work
			rdf:about="">
			<dc:format>image/svg+xml</dc:format>
			<dc:type
				rdf:resource="http://purl.org/dc/dcmitype/StillImage" />
			<dc:title></dc:title>
		</cc:Work>
	</rdf:RDF>
</metadata>
<g
	inkscape:label="Layer 1"
	inkscape:groupmode="layer"
	id="layer1">
	<path style="fill:none;stroke:red;stroke-width:1px;stroke-linecap:butt;stroke-linejoin:miter;stroke-opacity:1" d="M 4,379.156 18.4291,328.655 z" id="boundary" inkscape:connector-curvature="0" />
	<path style="fill:none;stroke:red;stroke-width:1px;stroke-linecap:butt;stroke-linejoin:miter;stroke-opacity:1" d="M 4,379.156 36.4655,397.193 z" id="boundary" inkscape:connector-curvature="0" />
	<path style="fill:none;stroke:red;stroke-width:1px;stroke-linecap:butt;stroke-linejoin:miter;stroke-opacity:1" d="M 18.4291,328.655 36.4655,296.189 z" id="boundary" inkscape:connector-curvature="0" />
	<path style="fill:none;stroke:red;stroke-width:1px;stroke-linecap:butt;stroke-linejoin:miter;stroke-opacity:1" d="M 36.4655,296.189 58.1091,267.331 z" id="boundary" inkscape:connector-curvature="0" />
	<path style="fill:none;stroke:red;stroke-width:1px;stroke-linecap:butt;stroke-linejoin:miter;stroke-opacity:1" d="M 36.4655,397.193 72.5382,397.193 z" id="boundary" inkscape:connector-curvature="0" />
	<path style="fill:none;stroke:red;stroke-width:1px;stroke-linecap:butt;stroke-linejoin:miter;stroke-opacity:1" d="M 58.1091,267.331 76.1455,234.865 z" id="boundary" inkscape:connector-curvature="0" />
	<path style="fill:none;stroke:red;stroke-width:1px;stroke-linecap:butt;stroke-linejoin:miter;stroke-opacity:1" d="M 72.5382,397.193 108.611,382.764 z" id="boundary" inkscape:connector-curvature="0" />
	<path style="fill:none;stroke:red;stroke-width:1px;stroke-linecap:butt;stroke-linejoin:miter;stroke-opacity:1" d="M 76.1455,234.865 105.004,206.007 z" id="boundary" inkscape:connector-curvature="0" />
	<path style="fill:none;stroke:red;stroke-width:1px;stroke-linecap:butt;stroke-linejoin:miter;stroke-opacity:1" d="M 105.004,206.007 133.862,177.149 z" id="boundary" inkscape:connector-curvature="0" />
	<path style="fill:none;stroke:red;stroke-width:1px;stroke-linecap:butt;stroke-linejoin:miter;stroke-opacity:1" d="M 108.611,382.764 137.469,404.407 z" id="boundary" inkscape:connector-curvature="0" />
	<path style="fill:none;stroke:red;stroke-width:1px;stroke-linecap:butt;stroke-linejoin:miter;stroke-opacity:1" d="M 133.862,177.149 162.72,155.505 z" id="boundary" inkscape:connector-curvature="0" />
	<path style="fill:none;stroke:red;stroke-width:1px;stroke-linecap:butt;stroke-linejoin:miter;stroke-opacity:1" d="M 137.469,404.407 173.542,397.193 z" id="boundary" inkscape:connector-curvature="0" />
	<path style="fill:none;stroke:red;stroke-width:1px;stroke-linecap:butt;stroke-linejoin:miter;stroke-opacity:1" d="M 162.72,155.505 184.364,126.647 z" id="boundary" inkscape:connector-curvature="0" />
	<path style="fill:none;stroke:red;stroke-width:1px;stroke-linecap:butt;stroke-linejoin:miter;stroke-opacity:1" d="M 173.542,397.193 209.615,382.764 z" id="boundary" inkscape:connector-curvature="0" />
	<path style="fill:none;stroke:red;stroke-width:1px;stroke-linecap:butt;stroke-linejoin:miter;stroke-opacity:1" d="M 184.364,126.647 213.222,105.004 z" id="boundary" inkscape:connector-curvature="0" />
	<path style="fill:none;stroke:red;stroke-width:1px;stroke-linecap:butt;stroke-linejoin:miter;stroke-opacity:1" d="M 209.615,382.764 245.687,375.549 z" id="boundary" inkscape:connector-curvature="0" />
	<path style="fill:none;stroke:red;stroke-width:1px;stroke-linecap:butt;stroke-linejoin:miter;stroke-opacity:1" d="M 213.222,105.004 242.08,76.1455 z" id="boundary" inkscape:connector-curvature="0" />
	<path style="fill:none;stroke:red;stroke-width:1px;stroke-linecap:butt;stroke-linejoin:miter;stroke-opacity:1" d="M 242.08,76.1455 270.938,54.5018 z" id="boundary" inkscape:connector-curvature="0" />
	<path style="fill:none;stroke:red;stroke-width:1px;stroke-linecap:butt;stroke-linejoin:miter;stroke-opacity:1" d="M 245.687,375.549 281.76,357.513 z" id="boundary" inkscape:connector-curvature="0" />
	<path style="fill:none;stroke:red;stroke-width:1px;stroke-linecap:butt;stroke-linejoin:miter;stroke-opacity:1" d="M 270.938,54.5018 307.011,40.0727 z" id="boundary" inkscape:connector-curvature="0" />
	<path style="fill:none;stroke:red;stroke-width:1px;stroke-linecap:butt;stroke-linejoin:miter;stroke-opacity:1" d="M 281.76,357.513 317.833,343.084 z" id="boundary" inkscape:connector-curvature="0" />
	<path style="fill:none;stroke:red;stroke-width:1px;stroke-linecap:butt;stroke-linejoin:miter;stroke-opacity:1" d="M 307.011,40.0727 343.084,25.6436 z" id="boundary" inkscape:connector-curvature="0" />
	<path style="fill:none;stroke:red;stroke-width:1px;stroke-linecap:butt;stroke-linejoin:miter;stroke-opacity:1" d="M 317.833,343.084 353.905,332.262 z" id="boundary" inkscape:connector-curvature="0" />
	<path style="fill:none;stroke:red;stroke-width:1px;stroke-linecap:butt;stroke-linejoin:miter;stroke-opacity:1" d="M 343.084,25.6436 379.156,11.2145 z" id="boundary" inkscape:connector-curvature="0" />
	<path style="fill:none;stroke:red;stroke-width:1px;stroke-linecap:butt;stroke-linejoin:miter;stroke-opacity:1" d="M 353.905,332.262 371.942,364.727 z" id="boundary" inkscape:connector-curvature="0" />
	<path style="fill:none;stroke:red;stroke-width:1px;stroke-linecap:butt;stroke-linejoin:miter;stroke-opacity:1" d="M 364.727,610.022 371.942,646.095 z" id="boundary" inkscape:connector-curvature="0" />
	<path style="fill:none;stroke:red;stroke-width:1px;stroke-linecap:butt;stroke-linejoin:miter;stroke-opacity:1" d="M 371.942,364.727 371.942,400.8 z" id="boundary" inkscape:connector-curvature="0" />
	<path style="fill:none;stroke:red;stroke-width:1px;stroke-linecap:butt;stroke-linejoin:miter;stroke-opacity:1" d="M 371.942,400.8 371.942,436.873 z" id="boundary" inkscape:connector-curvature="0" />
	<path style="fill:none;stroke:red;stroke-width:1px;stroke-linecap:butt;stroke-linejoin:miter;stroke-opacity:1" d="M 371.942,436.873 371.942,472.945 z" id="boundary" inkscape:connector-curvature="0" />
	<path style="fill:none;stroke:red;stroke-width:1px;stroke-linecap:butt;stroke-linejoin:miter;stroke-opacity:1" d="M 371.942,472.945 371.942,509.018 z" id="boundary" inkscape:connector-curvature="0" />
	<path style="fill:none;stroke:red;stroke-width:1px;stroke-linecap:butt;stroke-linejoin:miter;stroke-opacity:1" d="M 371.942,509.018 371.942,545.091 z" id="boundary" inkscape:connector-curvature="0" />
	<path style="fill:none;stroke:red;stroke-width:1px;stroke-linecap:butt;stroke-linejoin:miter;stroke-opacity:1" d="M 371.942,545.091 433.265,537.876 z" id="boundary" inkscape:connector-curvature="0" />
	<path style="fill:none;stroke:red;stroke-width:1px;stroke-linecap:butt;stroke-linejoin:miter;stroke-opacity:1" d="M 371.942,646.095 375.549,682.167 z" id="boundary" inkscape:connector-curvature="0" />
	<path style="fill:none;stroke:red;stroke-width:1px;stroke-linecap:butt;stroke-linejoin:miter;stroke-opacity:1" d="M 375.549,682.167 379.156,718.24 z" id="boundary" inkscape:connector-curvature="0" />
	<path style="fill:none;stroke:red;stroke-width:1px;stroke-linecap:butt;stroke-linejoin:miter;stroke-opacity:1" d="M 379.156,11.2145 415.229,4 z" id="boundary" inkscape:connector-curvature="0" />
	<path style="fill:none;stroke:red;stroke-width:1px;stroke-linecap:butt;stroke-linejoin:miter;stroke-opacity:1" d="M 379.156,718.24 386.371,754.313 z" id="boundary" inkscape:connector-curvature="0" />
	<path style="fill:none;stroke:red;stroke-width:1px;stroke-linecap:butt;stroke-linejoin:miter;stroke-opacity:1" d="M 386.371,754.313 393.585,790.385 z" id="boundary" inkscape:connector-curvature="0" />
	<path style="fill:none;stroke:red;stroke-width:1px;stroke-linecap:butt;stroke-linejoin:miter;stroke-opacity:1" d="M 393.585,790.385 400.8,826.458 z" id="boundary" inkscape:connector-curvature="0" />
	<path style="fill:none;stroke:red;stroke-width:1px;stroke-linecap:butt;stroke-linejoin:miter;stroke-opacity:1" d="M 400.8,826.458 400.8,862.531 z" id="boundary" inkscape:connector-curvature="0" />
	<path style="fill:none;stroke:red;stroke-width:1px;stroke-linecap:butt;stroke-linejoin:miter;stroke-opacity:1" d="M 400.8,862.531 408.015,898.604 z" id="boundary" inkscape:connector-curvature="0" />
	<path style="fill:none;stroke:red;stroke-width:1px;stroke-linecap:butt;stroke-linejoin:miter;stroke-opacity:1" d="M 408.015,898.604 436.873,923.855 z" id="boundary" inkscape:connector-curvature="0" />
	<path style="fill:none;stroke:red;stroke-width:1px;stroke-linecap:butt;stroke-linejoin:miter;stroke-opacity:1" d="M 415.229,4 451.302,4 z" id="boundary" inkscape:connector-curvature="0" />
	<path style="fill:none;stroke:red;stroke-width:1px;stroke-linecap:butt;stroke-linejoin:miter;stroke-opacity:1" d="M 426.051,573.949 426.051,610.022 z" id="boundary" inkscape:connector-curvature="0" />
	<path style="fill:none;stroke:red;stroke-width:1px;stroke-linecap:butt;stroke-linejoin:miter;stroke-opacity:1" d="M 426.051,573.949 433.265,537.876 z" id="boundary" inkscape:connector-curvature="0" />
	<path style="fill:none;stroke:red;stroke-width:1px;stroke-linecap:butt;stroke-linejoin:miter;stroke-opacity:1" d="M 426.051,610.022 426.051,646.095 z" id="boundary" inkscape:connector-curvature="0" />
	<path style="fill:none;stroke:red;stroke-width:1px;stroke-linecap:butt;stroke-linejoin:miter;stroke-opacity:1" d="M 426.051,646.095 426.051,682.167 z" id="boundary" inkscape:connector-curvature="0" />
	<path style="fill:none;stroke:red;stroke-width:1px;stroke-linecap:butt;stroke-linejoin:miter;stroke-opacity:1" d="M 426.051,682.167 433.265,718.24 z" id="boundary" inkscape:connector-curvature="0" />
	<path style="fill:none;stroke:red;stroke-width:1px;stroke-linecap:butt;stroke-linejoin:miter;stroke-opacity:1" d="M 433.265,718.24 440.48,754.313 z" id="boundary" inkscape:connector-curvature="0" />
	<path style="fill:none;stroke:red;stroke-width:1px;stroke-linecap:butt;stroke-linejoin:miter;stroke-opacity:1" d="M 436.873,923.855 472.945,923.855 z" id="boundary" inkscape:connector-curvature="0" />
	<path style="fill:none;stroke:red;stroke-width:1px;stroke-linecap:butt;stroke-linejoin:miter;stroke-opacity:1" d="M 440.48,754.313 447.695,790.385 z" id="boundary" inkscape:connector-curvature="0" />
	<path style="fill:none;stroke:red;stroke-width:1px;stroke-linecap:butt;stroke-linejoin:miter;stroke-opacity:1" d="M 447.695,472.945 462.124,415.229 z" id="boundary" inkscape:connector-curvature="0" />
	<path style="fill:none;stroke:red;stroke-width:1px;stroke-linecap:butt;stroke-linejoin:miter;stroke-opacity:1" d="M 447.695,790.385 451.302,826.458 z" id="boundary" inkscape:connector-curvature="0" />
	<path style="fill:none;stroke:red;stroke-width:1px;stroke-linecap:butt;stroke-linejoin:miter;stroke-opacity:1" d="M 451.302,4 487.375,4 z" id="boundary" inkscape:connector-curvature="0" />
	<path style="fill:none;stroke:red;stroke-width:1px;stroke-linecap:butt;stroke-linejoin:miter;stroke-opacity:1" d="M 451.302,826.458 454.909,862.531 z" id="boundary" inkscape:connector-curvature="0" />
	<path style="fill:none;stroke:red;stroke-width:1px;stroke-linecap:butt;stroke-linejoin:miter;stroke-opacity:1" d="M 454.909,862.531 490.982,876.96 z" id="boundary" inkscape:connector-curvature="0" />
	<path style="fill:none;stroke:red;stroke-width:1px;stroke-linecap:butt;stroke-linejoin:miter;stroke-opacity:1" d="M 462.124,415.229 469.338,379.156 z" id="boundary" inkscape:connector-curvature="0" />
	<path style="fill:none;stroke:red;stroke-width:1px;stroke-linecap:butt;stroke-linejoin:miter;stroke-opacity:1" d="M 469.338,379.156 476.553,328.655 z" id="boundary" inkscape:connector-curvature="0" />
	<path style="fill:none;stroke:red;stroke-width:1px;stroke-linecap:butt;stroke-linejoin:miter;stroke-opacity:1" d="M 472.945,923.855 509.018,923.855 z" id="boundary" inkscape:connector-curvature="0" />
	<path style="fill:none;stroke:red;stroke-width:1px;stroke-linecap:butt;stroke-linejoin:miter;stroke-opacity:1" d="M 476.553,328.655 483.767,278.153 z" id="boundary" inkscape:connector-curvature="0" />
	<path style="fill:none;stroke:red;stroke-width:1px;stroke-linecap:butt;stroke-linejoin:miter;stroke-opacity:1" d="M 483.767,278.153 512.625,249.295 z" id="boundary" inkscape:connector-curvature="0" />
	<path style="fill:none;stroke:red;stroke-width:1px;stroke-linecap:butt;stroke-linejoin:miter;stroke-opacity:1" d="M 487.375,4 523.447,11.2145 z" id="boundary" inkscape:connector-curvature="0" />
	<path style="fill:none;stroke:red;stroke-width:1px;stroke-linecap:butt;stroke-linejoin:miter;stroke-opacity:1" d="M 490.982,876.96 527.055,884.175 z" id="boundary" inkscape:connector-curvature="0" />
	<path style="fill:none;stroke:red;stroke-width:1px;stroke-linecap:butt;stroke-linejoin:miter;stroke-opacity:1" d="M 509.018,923.855 545.091,916.64 z" id="boundary" inkscape:connector-curvature="0" />
	<path style="fill:none;stroke:red;stroke-width:1px;stroke-linecap:butt;stroke-linejoin:miter;stroke-opacity:1" d="M 512.625,249.295 541.484,224.044 z" id="boundary" inkscape:connector-curvature="0" />
	<path style="fill:none;stroke:red;stroke-width:1px;stroke-linecap:butt;stroke-linejoin:miter;stroke-opacity:1" d="M 523.447,11.2145 559.52,22.0364 z" id="boundary" inkscape:connector-curvature="0" />
	<path style="fill:none;stroke:red;stroke-width:1px;stroke-linecap:butt;stroke-linejoin:miter;stroke-opacity:1" d="M 527.055,884.175 563.127,884.175 z" id="boundary" inkscape:connector-curvature="0" />
	<path style="fill:none;stroke:red;stroke-width:1px;stroke-linecap:butt;stroke-linejoin:miter;stroke-opacity:1" d="M 541.484,224.044 573.949,206.007 z" id="boundary" inkscape:connector-curvature="0" />
	<path style="fill:none;stroke:red;stroke-width:1px;stroke-linecap:butt;stroke-linejoin:miter;stroke-opacity:1" d="M 545.091,916.64 563.127,884.175 z" id="boundary" inkscape:connector-curvature="0" />
	<path style="fill:none;stroke:red;stroke-width:1px;stroke-linecap:butt;stroke-linejoin:miter;stroke-opacity:1" d="M 559.52,22.0364 595.593,36.4655 z" id="boundary" inkscape:connector-curvature="0" />
	<path style="fill:none;stroke:red;stroke-width:1px;stroke-linecap:butt;stroke-linejoin:miter;stroke-opacity:1" d="M 573.949,206.007 602.807,227.651 z" id="boundary" inkscape:connector-curvature="0" />
	<path style="fill:none;stroke:red;stroke-width:1px;stroke-linecap:butt;stroke-linejoin:miter;stroke-opacity:1" d="M 595.593,36.4655 624.451,58.1091 z" id="boundary" inkscape:connector-curvature="0" />
	<path style="fill:none;stroke:red;stroke-width:1px;stroke-linecap:butt;stroke-linejoin:miter;stroke-opacity:1" d="M 602.807,227.651 610.022,263.724 z" id="boundary" inkscape:connector-curvature="0" />
	<path style="fill:none;stroke:red;stroke-width:1px;stroke-linecap:butt;stroke-linejoin:miter;stroke-opacity:1" d="M 610.022,263.724 617.236,299.796 z" id="boundary" inkscape:connector-curvature="0" />
	<path style="fill:none;stroke:red;stroke-width:1px;stroke-linecap:butt;stroke-linejoin:miter;stroke-opacity:1" d="M 617.236,299.796 638.88,328.655 z" id="boundary" inkscape:connector-curvature="0" />
	<path style="fill:none;stroke:red;stroke-width:1px;stroke-linecap:butt;stroke-linejoin:miter;stroke-opacity:1" d="M 624.451,58.1091 649.702,86.9673 z" id="boundary" inkscape:connector-curvature="0" />
	<path style="fill:none;stroke:red;stroke-width:1px;stroke-linecap:butt;stroke-linejoin:miter;stroke-opacity:1" d="M 638.88,328.655 671.345,346.691 z" id="boundary" inkscape:connector-curvature="0" />
	<path style="fill:none;stroke:red;stroke-width:1px;stroke-linecap:butt;stroke-linejoin:miter;stroke-opacity:1" d="M 664.131,123.04 678.56,159.113 z" id="boundary" inkscape:connector-curvature="0" />
	<path style="fill:none;stroke:red;stroke-width:1px;stroke-linecap:butt;stroke-linejoin:miter;stroke-opacity:1" d="M 664.131,123.04 700.204,123.04 z" id="boundary" inkscape:connector-curvature="0" />
	<path style="fill:none;stroke:red;stroke-width:1px;stroke-linecap:butt;stroke-linejoin:miter;stroke-opacity:1" d="M 671.345,346.691 707.418,343.084 z" id="boundary" inkscape:connector-curvature="0" />
	<path style="fill:none;stroke:red;stroke-width:1px;stroke-linecap:butt;stroke-linejoin:miter;stroke-opacity:1" d="M 700.204,123.04 721.847,94.1818 z" id="boundary" inkscape:connector-curvature="0" />
	<path style="fill:none;stroke:red;stroke-width:1px;stroke-linecap:butt;stroke-linejoin:miter;stroke-opacity:1" d="M 707.418,343.084 743.491,328.655 z" id="boundary" inkscape:connector-curvature="0" />
	<path style="fill:none;stroke:red;stroke-width:1px;stroke-linecap:butt;stroke-linejoin:miter;stroke-opacity:1" d="M 721.847,94.1818 754.313,76.1455 z" id="boundary" inkscape:connector-curvature="0" />
	<path style="fill:none;stroke:red;stroke-width:1px;stroke-linecap:butt;stroke-linejoin:miter;stroke-opacity:1" d="M 743.491,328.655 765.135,292.582 z" id="boundary" inkscape:connector-curvature="0" />
	<path style="fill:none;stroke:red;stroke-width:1px;stroke-linecap:butt;stroke-linejoin:miter;stroke-opacity:1" d="M 754.313,76.1455 790.385,68.9309 z" id="boundary" inkscape:connector-curvature="0" />
	<path style="fill:none;stroke:red;stroke-width:1px;stroke-linecap:butt;stroke-linejoin:miter;stroke-opacity:1" d="M 765.135,184.364 765.135,220.436 z" id="boundary" inkscape:connector-curvature="0" />
	<path style="fill:none;stroke:red;stroke-width:1px;stroke-linecap:butt;stroke-linejoin:miter;stroke-opacity:1" d="M 765.135,184.364 801.207,173.542 z" id="boundary" inkscape:connector-curvature="0" />
	<path style="fill:none;stroke:red;stroke-width:1px;stroke-linecap:butt;stroke-linejoin:miter;stroke-opacity:1" d="M 765.135,220.436 772.349,256.509 z" id="boundary" inkscape:connector-curvature="0" />
	<path style="fill:none;stroke:red;stroke-width:1px;stroke-linecap:butt;stroke-linejoin:miter;stroke-opacity:1" d="M 765.135,292.582 772.349,256.509 z" id="boundary" inkscape:connector-curvature="0" />
	<path style="fill:none;stroke:red;stroke-width:1px;stroke-linecap:butt;stroke-linejoin:miter;stroke-opacity:1" d="M 790.385,68.9309 826.458,68.9309 z" id="boundary" inkscape:connector-curvature="0" />
	<path style="fill:none;stroke:red;stroke-width:1px;stroke-linecap:butt;stroke-linejoin:miter;stroke-opacity:1" d="M 801.207,173.542 837.28,187.971 z" id="boundary" inkscape:connector-curvature="0" />
	<path style="fill:none;stroke:red;stroke-width:1px;stroke-linecap:butt;stroke-linejoin:miter;stroke-opacity:1" d="M 826.458,68.9309 862.531,76.1455 z" id="boundary" inkscape:connector-curvature="0" />
	<path style="fill:none;stroke:red;stroke-width:1px;stroke-linecap:butt;stroke-linejoin:miter;stroke-opacity:1" d="M 837.28,187.971 873.353,202.4 z" id="boundary" inkscape:connector-curvature="0" />
	<path style="fill:none;stroke:red;stroke-width:1px;stroke-linecap:butt;stroke-linejoin:miter;stroke-opacity:1" d="M 862.531,76.1455 894.996,94.1818 z" id="boundary" inkscape:connector-curvature="0" />
	<path style="fill:none;stroke:red;stroke-width:1px;stroke-linecap:butt;stroke-linejoin:miter;stroke-opacity:1" d="M 873.353,202.4 902.211,224.044 z" id="boundary" inkscape:connector-curvature="0" />
	<path style="fill:none;stroke:red;stroke-width:1px;stroke-linecap:butt;stroke-linejoin:miter;stroke-opacity:1" d="M 894.996,94.1818 916.64,123.04 z" id="boundary" inkscape:connector-curvature="0" />
	<path style="fill:none;stroke:red;stroke-width:1px;stroke-linecap:butt;stroke-linejoin:miter;stroke-opacity:1" d="M 902.211,224.044 931.069,245.687 z" id="boundary" inkscape:connector-curvature="0" />
	<path style="fill:none;stroke:red;stroke-width:1px;stroke-linecap:butt;stroke-linejoin:miter;stroke-opacity:1" d="M 916.64,123.04 923.855,159.113 z" id="boundary" inkscape:connector-curvature="0" />
	<path style="fill:none;stroke:red;stroke-width:1px;stroke-linecap:butt;stroke-linejoin:miter;stroke-opacity:1" d="M 923.855,159.113 945.498,187.971 z" id="boundary" inkscape:connector-curvature="0" />
	<path style="fill:none;stroke:red;stroke-width:1px;stroke-linecap:butt;stroke-linejoin:miter;stroke-opacity:1" d="M 931.069,245.687 959.927,267.331 z" id="boundary" inkscape:connector-curvature="0" />
	<path style="fill:none;stroke:red;stroke-width:1px;stroke-linecap:butt;stroke-linejoin:miter;stroke-opacity:1" d="M 945.498,187.971 974.356,213.222 z" id="boundary" inkscape:connector-curvature="0" />
	<path style="fill:none;stroke:red;stroke-width:1px;stroke-linecap:butt;stroke-linejoin:miter;stroke-opacity:1" d="M 959.927,267.331 996,242.08 z" id="boundary" inkscape:connector-curvature="0" />
	<path style="fill:none;stroke:red;stroke-width:1px;stroke-linecap:butt;stroke-linejoin:miter;stroke-opacity:1" d="M 974.356,213.222 996,242.08 z" id="boundary" inkscape:connector-curvature="0" />
	<circle cx="4" cy="379.156" r="4" fill="#0" id="circle0"/>
	<circle cx="18.4291" cy="328.655" r="4" fill="#0" id="circle1"/>
	<circle cx="36.4655" cy="296.189" r="4" fill="#0" id="circle2"/>
	<circle cx="36.4655" cy="397.193" r="4" fill="#0" id="circle3"/>
	<circle cx="58.1091" cy="267.331" r="4" fill="#0" id="circle4"/>
	<circle cx="72.5382" cy="397.193" r="4" fill="#0" id="circle5"/>
	<circle cx="76.1455" cy="234.865" r="4" fill="#0" id="circle6"/>
	<circle cx="105.004" cy="206.007" r="4" fill="#0" id="circle7"/>
	<circle cx="108.611" cy="382.764" r="4" fill="#0" id="circle8"/>
	<circle cx="133.862" cy="177.149" r="4" fill="#0" id="circle9"/>
	<circle cx="137.469" cy="404.407" r="4" fill="#0" id="circle10"/>
	<circle cx="162.72" cy="155.505" r="4" fill="#0" id="circle11"/>
	<circle cx="173.542" cy="397.193" r="4" fill="#0" id="circle12"/>
	<circle cx="184.364" cy="126.647" r="4" fill="#0" id="circle13"/>
	<circle cx="209.615" cy="382.764" r="4" fill="#0" id="circle14"/>
	<circle cx="213.222" cy="105.004" r="4" fill="#0" id="circle15"/>
	<circle cx="242.08" cy="76.1455" r="4" fill="#0" id="circle16"/>
	<circle cx="245.687" cy="375.549" r="4" fill="#0" id="circle17"/>
	<circle cx="270.938" cy="54.5018" r="4" fill="#0" id="circle18"/>
	<circle cx="281.76" cy="357.513" r="4" fill="#0" id="circle19"/>
	<circle cx="307.011" cy="40.0727" r="4" fill="#0" id="circle20"/>
	<circle cx="317.833" cy="343.084" r="4" fill="#0" id="circle21"/>
	<circle cx="343.084" cy="25.6436" r="4" fill="#0" id="circle22"/>
	<circle cx="353.905" cy="332.262" r="4" fill="#0" id="circle23"/>
	<circle cx="364.727" cy="610.022" r="4" fill="#0" id="circle24"/>
	<circle cx="371.942" cy="364.727" r="4" fill="#0" id="circle25"/>
	<circle cx="371.942" cy="400.8" r="4" fill="#0" id="circle26"/>
	<circle cx="371.942" cy="436.873" r="4" fill="#0" id="circle27"/>
	<circle cx="371.942" cy="472.945" r="4" fill="#0" id="circle28"/>
	<circle cx="371.942" cy="509.018" r="4" fill="#0" id="circle29"/>
	<circle cx="371.942" cy="545.091" r="4" fill="#0" id="circle30"/>
	<circle cx="371.942" cy="646.095" r="4" fill="#0" id="circle31"/>
	<circle cx="375.549" cy="682.167" r="4" fill="#0" id="circle32"/>
	<circle cx="379.156" cy="11.2145" r="4" fill="#0" id="circle33"/>
	<circle cx="379.156" cy="718.24" r="4" fill="#0" id="circle34"/>
	<circle cx="386.371" cy="754.313" r="4" fill="#0" id="circle35"/>
	<circle cx="393.585" cy="790.385" r="4" fill="#0" id="circle36"/>
	<circle cx="400.8" cy="826.458" r="4" fill="#0" id="circle37"/>
	<circle cx="400.8" cy="862.531" r="4" fill="#0" id="circle38"/>
	<circle cx="408.015" cy="898.604" r="4" fill="#0" id="circle39"/>
	<circle cx="415.229" cy="4" r="4" fill="#0" id="circle40"/>
	<circle cx="426.051" cy="573.949" r="4" fill="#0" id="circle41"/>
	<circle cx="426.051" cy="610.022" r="4" fill="#0" id="circle42"/>
	<circle cx="426.051" cy="646.095" r="4" fill="#0" id="circle43"/>
	<circle cx="426.051" cy="682.167" r="4" fill="#0" id="circle44"/>
	<circle cx="433.265" cy="537.876" r="4" fill="#0" id="circle45"/>
	<circle cx="433.265" cy="718.24" r="4" fill="#0" id="circle46"/>
	<circle cx="436.873" cy="923.855" r="4" fill="#0" id="circle47"/>
	<circle cx="440.48" cy="754.313" r="4" fill="#0" id="circle48"/>
	<circle cx="447.695" cy="472.945" r="4" fill="#0" id="circle49"/>
	<circle cx="447.695" cy="790.385" r="4" fill="#0" id="circle50"/>
	<circle cx="451.302" cy="4" r="4" fill="#0" id="circle51"/>
	<circle cx="451.302" cy="826.458" r="4" fill="#0" id="circle52"/>
	<circle cx="454.909" cy="862.531" r="4" fill="#0" id="circle53"/>
	<circle cx="462.124" cy="415.229" r="4" fill="#0" id="circle54"/>
	<circle cx="469.338" cy="379.156" r="4" fill="#0" id="circle55"/>
	<circle cx="472.945" cy="923.855" r="4" fill="#0" id="circle56"/>
	<circle cx="476.553" cy="328.655" r="4" fill="#0" id="circle57"/>
	<circle cx="483.767" cy="278.153" r="4" fill="#0" id="circle58"/>
	<circle cx="487.375" cy="4" r="4" fill="#0" id="circle59"/>
	<circle cx="490.982" cy="876.96" r="4" fill="#0" id="circle60"/>
	<circle cx="509.018" cy="923.855" r="4" fill="#0" id="circle61"/>
	<circle cx="512.625" cy="249.295" r="4" fill="#0" id="circle62"/>
	<circle cx="523.447" cy="11.2145" r="4" fill="#0" id="circle63"/>
	<circle cx="527.055" cy="884.175" r="4" fill="#0" id="circle64"/>
	<circle cx="541.484" cy="224.044" r="4" fill="#0" id="circle65"/>
	<circle cx="545.091" cy="916.64" r="4" fill="#0" id="circle66"/>
	<circle cx="559.52" cy="22.0364" r="4" fill="#0" id="circle67"/>
	<circle cx="563.127" cy="884.175" r="4" fill="#0" id="circle68"/>
	<circle cx="573.949" cy="206.007" r="4" fill="#0" id="circle69"/>
	<circle cx="595.593" cy="36.4655" r="4" fill="#0" id="circle70"/>
	<circle cx="602.807" cy="227.651" r="4" fill="#0" id="circle71"/>
	<circle cx="610.022" cy="263.724" r="4" fill="#0" id="circle72"/>
	<circle cx="617.236" cy="299.796" r="4" fill="#0" id="circle73"/>
	<circle cx="624.451" cy="58.1091" r="4" fill="#0" id="circle74"/>
	<circle cx="638.88" cy="328.655" r="4" fill="#0" id="circle75"/>
	<circle cx="649.702" cy="86.9673" r="4" fill="#0" id="circle76"/>
	<circle cx="664.131" cy="123.04" r="4" fill="#0" id="circle77"/>
	<circle cx="671.345" cy="346.691" r="4" fill="#0" id="circle78"/>
	<circle cx="678.56" cy="159.113" r="4" fill="#0" id="circle79"/>
	<circle cx="700.204" cy="123.04" r="4" fill="#0" id="circle80"/>
	<circle cx="707.418" cy="343.084" r="4" fill="#0" id="circle81"/>
	<circle cx="721.847" cy="94.1818" r="4" fill="#0" id="circle82"/>
	<circle cx="743.491" cy="328.655" r="4" fill="#0" id="circle83"/>
	<circle cx="754.313" cy="76.1455" r="4" fill="#0" id="circle84"/>
	<circle cx="765.135" cy="184.364" r="4" fill="#0" id="circle85"/>
	<circle cx="765.135" cy="220.436" r="4" fill="#0" id="circle86"/>
	<circle cx="765.135" cy="292.582" r="4" fill="#0" id="circle87"/>
	<circle cx="772.349" cy="256.509" r="4" fill="#0" id="circle88"/>
	<circle cx="790.385" cy="68.9309" r="4" fill="#0" id="circle89"/>
	<circle cx="801.207" cy="173.542" r="4" fill="#0" id="circle90"/>
	<circle cx="826.458" cy="68.9309" r="4" fill="#0" id="circle91"/>
	<circle cx="837.28" cy="187.971" r="4" fill="#0" id="circle92"/>
	<circle cx="862.531" cy="76.1455" r="4" fill="#0" id="circle93"/>
	<circle cx="873.353" cy="202.4" r="4" fill="#0" id="circle94"/>
	<circle cx="894.996" cy="94.1818" r="4" fill="#0" id="circle95"/>
	<circle cx="902.211" cy="224.044" r="4" fill="#0" id="circle96"/>
	<circle cx="916.64" cy="123.04" r="4" fill="#0" id="circle97"/>
	<circle cx="923.855" cy="159.113" r="4" fill="#0" id="circle98"/>
	<circle cx="931.069" cy="245.687" r="4" fill="#0" id="circle99"/>
	<circle cx="945.498" cy="187.971" r="4" fill="#0" id="circle100"/>
	<circle cx="959.927" cy="267.331" r="4" fill="#0" id="circle101"/>
	<circle cx="974.356" cy="213.222" r="4" fill="#0" id="circle102"/>
	<circle cx="996" cy="242.08" r="4" fill="#0" id="circle103"/>
	</g>
</svg>