<?xml version="1.0" encoding="UTF-8" standalone="no"?>
<!-- Created with CurveBenchmark -->
<svg
	xmlns:dc="http://purl.org/dc/elements/1.1/"
	xmlns:cc="http://creativecommons.org/ns#"
	xmlns:rdf="http://www.w3.org/1999/02/22-rdf-syntax-ns#"
	xmlns:svg="http://www.w3.org/2000/svg"
	xmlns="http://www.w3.org/2000/svg"
	xmlns:sodipodi="http://sodipodi.sourceforge.net/DTD/sodipodi-0.dtd"
	xmlns:inkscape="http://www.inkscape.org/namespaces/inkscape"
	width="1000"
	height="1000"
	id="svg2"
	version="1.1"
	sodipodi:docname="manifold/discur-television150.png.txt">
<defs
	id="defs4" />
<metadata
	id="metadata7">
	<rdf:RDF>
		<cc:Work
			rdf:about="">
			<dc:format>image/svg+xml</dc:format>
			<dc:type
				rdf:resource="http://purl.org/dc/dcmitype/StillImage" />
			<dc:title></dc:title>
		</cc:Work>
	</rdf:RDF>
</metadata>
<g
	inkscape:label="Layer 1"
	inkscape:groupmode="layer"
	id="layer1">
	<path style="fill:none;stroke:red;stroke-width:1px;stroke-linecap:butt;stroke-linejoin:miter;stroke-opacity:1" d="M 4,767.077 4,800.254 z" id="boundary" inkscape:connector-curvature="0" />
	<path style="fill:none;stroke:red;stroke-width:1px;stroke-linecap:butt;stroke-linejoin:miter;stroke-opacity:1" d="M 4,767.077 37.1773,760.441 z" id="boundary" inkscape:connector-curvature="0" />
	<path style="fill:none;stroke:red;stroke-width:1px;stroke-linecap:butt;stroke-linejoin:miter;stroke-opacity:1" d="M 4,800.254 20.5886,830.114 z" id="boundary" inkscape:connector-curvature="0" />
	<path style="fill:none;stroke:red;stroke-width:1px;stroke-linecap:butt;stroke-linejoin:miter;stroke-opacity:1" d="M 20.5886,830.114 53.7659,843.385 z" id="boundary" inkscape:connector-curvature="0" />
	<path style="fill:none;stroke:red;stroke-width:1px;stroke-linecap:butt;stroke-linejoin:miter;stroke-opacity:1" d="M 37.1773,760.441 70.3545,760.441 z" id="boundary" inkscape:connector-curvature="0" />
	<path style="fill:none;stroke:red;stroke-width:1px;stroke-linecap:butt;stroke-linejoin:miter;stroke-opacity:1" d="M 43.8127,568.013 43.8127,667.545 z" id="boundary" inkscape:connector-curvature="0" />
	<path style="fill:none;stroke:red;stroke-width:1px;stroke-linecap:butt;stroke-linejoin:miter;stroke-opacity:1" d="M 53.7659,843.385 86.9431,830.114 z" id="boundary" inkscape:connector-curvature="0" />
	<path style="fill:none;stroke:red;stroke-width:1px;stroke-linecap:butt;stroke-linejoin:miter;stroke-opacity:1" d="M 70.3545,690.769 86.9431,660.91 z" id="boundary" inkscape:connector-curvature="0" />
	<path style="fill:none;stroke:red;stroke-width:1px;stroke-linecap:butt;stroke-linejoin:miter;stroke-opacity:1" d="M 70.3545,690.769 103.532,690.769 z" id="boundary" inkscape:connector-curvature="0" />
	<path style="fill:none;stroke:red;stroke-width:1px;stroke-linecap:butt;stroke-linejoin:miter;stroke-opacity:1" d="M 70.3545,760.441 103.532,760.441 z" id="boundary" inkscape:connector-curvature="0" />
	<path style="fill:none;stroke:red;stroke-width:1px;stroke-linecap:butt;stroke-linejoin:miter;stroke-opacity:1" d="M 73.6722,584.602 90.2609,554.742 z" id="boundary" inkscape:connector-curvature="0" />
	<path style="fill:none;stroke:red;stroke-width:1px;stroke-linecap:butt;stroke-linejoin:miter;stroke-opacity:1" d="M 73.6722,584.602 106.849,584.602 z" id="boundary" inkscape:connector-curvature="0" />
	<path style="fill:none;stroke:red;stroke-width:1px;stroke-linecap:butt;stroke-linejoin:miter;stroke-opacity:1" d="M 86.9431,660.91 120.12,660.91 z" id="boundary" inkscape:connector-curvature="0" />
	<path style="fill:none;stroke:red;stroke-width:1px;stroke-linecap:butt;stroke-linejoin:miter;stroke-opacity:1" d="M 86.9431,830.114 120.12,830.114 z" id="boundary" inkscape:connector-curvature="0" />
	<path style="fill:none;stroke:red;stroke-width:1px;stroke-linecap:butt;stroke-linejoin:miter;stroke-opacity:1" d="M 90.2609,554.742 123.438,554.742 z" id="boundary" inkscape:connector-curvature="0" />
	<path style="fill:none;stroke:red;stroke-width:1px;stroke-linecap:butt;stroke-linejoin:miter;stroke-opacity:1" d="M 103.532,690.769 136.709,690.769 z" id="boundary" inkscape:connector-curvature="0" />
	<path style="fill:none;stroke:red;stroke-width:1px;stroke-linecap:butt;stroke-linejoin:miter;stroke-opacity:1" d="M 103.532,760.441 136.709,760.441 z" id="boundary" inkscape:connector-curvature="0" />
	<path style="fill:none;stroke:red;stroke-width:1px;stroke-linecap:butt;stroke-linejoin:miter;stroke-opacity:1" d="M 106.849,584.602 140.027,584.602 z" id="boundary" inkscape:connector-curvature="0" />
	<path style="fill:none;stroke:red;stroke-width:1px;stroke-linecap:butt;stroke-linejoin:miter;stroke-opacity:1" d="M 120.12,660.91 153.298,660.91 z" id="boundary" inkscape:connector-curvature="0" />
	<path style="fill:none;stroke:red;stroke-width:1px;stroke-linecap:butt;stroke-linejoin:miter;stroke-opacity:1" d="M 120.12,830.114 153.298,830.114 z" id="boundary" inkscape:connector-curvature="0" />
	<path style="fill:none;stroke:red;stroke-width:1px;stroke-linecap:butt;stroke-linejoin:miter;stroke-opacity:1" d="M 123.438,554.742 156.615,554.742 z" id="boundary" inkscape:connector-curvature="0" />
	<path style="fill:none;stroke:red;stroke-width:1px;stroke-linecap:butt;stroke-linejoin:miter;stroke-opacity:1" d="M 136.709,690.769 169.886,690.769 z" id="boundary" inkscape:connector-curvature="0" />
	<path style="fill:none;stroke:red;stroke-width:1px;stroke-linecap:butt;stroke-linejoin:miter;stroke-opacity:1" d="M 136.709,760.441 169.886,760.441 z" id="boundary" inkscape:connector-curvature="0" />
	<path style="fill:none;stroke:red;stroke-width:1px;stroke-linecap:butt;stroke-linejoin:miter;stroke-opacity:1" d="M 140.027,584.602 173.204,584.602 z" id="boundary" inkscape:connector-curvature="0" />
	<path style="fill:none;stroke:red;stroke-width:1px;stroke-linecap:butt;stroke-linejoin:miter;stroke-opacity:1" d="M 153.298,660.91 186.475,660.91 z" id="boundary" inkscape:connector-curvature="0" />
	<path style="fill:none;stroke:red;stroke-width:1px;stroke-linecap:butt;stroke-linejoin:miter;stroke-opacity:1" d="M 153.298,830.114 186.475,830.114 z" id="boundary" inkscape:connector-curvature="0" />
	<path style="fill:none;stroke:red;stroke-width:1px;stroke-linecap:butt;stroke-linejoin:miter;stroke-opacity:1" d="M 156.615,10.6355 156.615,43.8127 z" id="boundary" inkscape:connector-curvature="0" />
	<path style="fill:none;stroke:red;stroke-width:1px;stroke-linecap:butt;stroke-linejoin:miter;stroke-opacity:1" d="M 156.615,10.6355 189.793,4 z" id="boundary" inkscape:connector-curvature="0" />
	<path style="fill:none;stroke:red;stroke-width:1px;stroke-linecap:butt;stroke-linejoin:miter;stroke-opacity:1" d="M 156.615,43.8127 156.615,76.99 z" id="boundary" inkscape:connector-curvature="0" />
	<path style="fill:none;stroke:red;stroke-width:1px;stroke-linecap:butt;stroke-linejoin:miter;stroke-opacity:1" d="M 156.615,76.99 156.615,110.167 z" id="boundary" inkscape:connector-curvature="0" />
	<path style="fill:none;stroke:red;stroke-width:1px;stroke-linecap:butt;stroke-linejoin:miter;stroke-opacity:1" d="M 156.615,110.167 156.615,143.344 z" id="boundary" inkscape:connector-curvature="0" />
	<path style="fill:none;stroke:red;stroke-width:1px;stroke-linecap:butt;stroke-linejoin:miter;stroke-opacity:1" d="M 156.615,143.344 156.615,176.522 z" id="boundary" inkscape:connector-curvature="0" />
	<path style="fill:none;stroke:red;stroke-width:1px;stroke-linecap:butt;stroke-linejoin:miter;stroke-opacity:1" d="M 156.615,176.522 156.615,209.699 z" id="boundary" inkscape:connector-curvature="0" />
	<path style="fill:none;stroke:red;stroke-width:1px;stroke-linecap:butt;stroke-linejoin:miter;stroke-opacity:1" d="M 156.615,209.699 156.615,242.876 z" id="boundary" inkscape:connector-curvature="0" />
	<path style="fill:none;stroke:red;stroke-width:1px;stroke-linecap:butt;stroke-linejoin:miter;stroke-opacity:1" d="M 156.615,242.876 156.615,276.054 z" id="boundary" inkscape:connector-curvature="0" />
	<path style="fill:none;stroke:red;stroke-width:1px;stroke-linecap:butt;stroke-linejoin:miter;stroke-opacity:1" d="M 156.615,276.054 156.615,309.231 z" id="boundary" inkscape:connector-curvature="0" />
	<path style="fill:none;stroke:red;stroke-width:1px;stroke-linecap:butt;stroke-linejoin:miter;stroke-opacity:1" d="M 156.615,309.231 156.615,342.408 z" id="boundary" inkscape:connector-curvature="0" />
	<path style="fill:none;stroke:red;stroke-width:1px;stroke-linecap:butt;stroke-linejoin:miter;stroke-opacity:1" d="M 156.615,342.408 156.615,375.585 z" id="boundary" inkscape:connector-curvature="0" />
	<path style="fill:none;stroke:red;stroke-width:1px;stroke-linecap:butt;stroke-linejoin:miter;stroke-opacity:1" d="M 156.615,375.585 156.615,408.763 z" id="boundary" inkscape:connector-curvature="0" />
	<path style="fill:none;stroke:red;stroke-width:1px;stroke-linecap:butt;stroke-linejoin:miter;stroke-opacity:1" d="M 156.615,408.763 163.251,441.94 z" id="boundary" inkscape:connector-curvature="0" />
	<path style="fill:none;stroke:red;stroke-width:1px;stroke-linecap:butt;stroke-linejoin:miter;stroke-opacity:1" d="M 156.615,554.742 189.793,554.742 z" id="boundary" inkscape:connector-curvature="0" />
	<path style="fill:none;stroke:red;stroke-width:1px;stroke-linecap:butt;stroke-linejoin:miter;stroke-opacity:1" d="M 163.251,441.94 196.428,445.258 z" id="boundary" inkscape:connector-curvature="0" />
	<path style="fill:none;stroke:red;stroke-width:1px;stroke-linecap:butt;stroke-linejoin:miter;stroke-opacity:1" d="M 169.886,690.769 203.064,690.769 z" id="boundary" inkscape:connector-curvature="0" />
	<path style="fill:none;stroke:red;stroke-width:1px;stroke-linecap:butt;stroke-linejoin:miter;stroke-opacity:1" d="M 169.886,760.441 203.064,760.441 z" id="boundary" inkscape:connector-curvature="0" />
	<path style="fill:none;stroke:red;stroke-width:1px;stroke-linecap:butt;stroke-linejoin:miter;stroke-opacity:1" d="M 173.204,584.602 206.381,584.602 z" id="boundary" inkscape:connector-curvature="0" />
	<path style="fill:none;stroke:red;stroke-width:1px;stroke-linecap:butt;stroke-linejoin:miter;stroke-opacity:1" d="M 186.475,660.91 219.652,660.91 z" id="boundary" inkscape:connector-curvature="0" />
	<path style="fill:none;stroke:red;stroke-width:1px;stroke-linecap:butt;stroke-linejoin:miter;stroke-opacity:1" d="M 186.475,830.114 219.652,830.114 z" id="boundary" inkscape:connector-curvature="0" />
	<path style="fill:none;stroke:red;stroke-width:1px;stroke-linecap:butt;stroke-linejoin:miter;stroke-opacity:1" d="M 189.793,4 222.97,4 z" id="boundary" inkscape:connector-curvature="0" />
	<path style="fill:none;stroke:red;stroke-width:1px;stroke-linecap:butt;stroke-linejoin:miter;stroke-opacity:1" d="M 189.793,554.742 222.97,554.742 z" id="boundary" inkscape:connector-curvature="0" />
	<path style="fill:none;stroke:red;stroke-width:1px;stroke-linecap:butt;stroke-linejoin:miter;stroke-opacity:1" d="M 196.428,445.258 229.605,445.258 z" id="boundary" inkscape:connector-curvature="0" />
	<path style="fill:none;stroke:red;stroke-width:1px;stroke-linecap:butt;stroke-linejoin:miter;stroke-opacity:1" d="M 203.064,690.769 236.241,690.769 z" id="boundary" inkscape:connector-curvature="0" />
	<path style="fill:none;stroke:red;stroke-width:1px;stroke-linecap:butt;stroke-linejoin:miter;stroke-opacity:1" d="M 203.064,760.441 236.241,760.441 z" id="boundary" inkscape:connector-curvature="0" />
	<path style="fill:none;stroke:red;stroke-width:1px;stroke-linecap:butt;stroke-linejoin:miter;stroke-opacity:1" d="M 206.381,584.602 239.559,584.602 z" id="boundary" inkscape:connector-curvature="0" />
	<path style="fill:none;stroke:red;stroke-width:1px;stroke-linecap:butt;stroke-linejoin:miter;stroke-opacity:1" d="M 219.652,660.91 252.829,660.91 z" id="boundary" inkscape:connector-curvature="0" />
	<path style="fill:none;stroke:red;stroke-width:1px;stroke-linecap:butt;stroke-linejoin:miter;stroke-opacity:1" d="M 219.652,830.114 252.829,830.114 z" id="boundary" inkscape:connector-curvature="0" />
	<path style="fill:none;stroke:red;stroke-width:1px;stroke-linecap:butt;stroke-linejoin:miter;stroke-opacity:1" d="M 222.97,4 256.147,4 z" id="boundary" inkscape:connector-curvature="0" />
	<path style="fill:none;stroke:red;stroke-width:1px;stroke-linecap:butt;stroke-linejoin:miter;stroke-opacity:1" d="M 222.97,554.742 256.147,554.742 z" id="boundary" inkscape:connector-curvature="0" />
	<path style="fill:none;stroke:red;stroke-width:1px;stroke-linecap:butt;stroke-linejoin:miter;stroke-opacity:1" d="M 229.605,445.258 262.783,445.258 z" id="boundary" inkscape:connector-curvature="0" />
	<path style="fill:none;stroke:red;stroke-width:1px;stroke-linecap:butt;stroke-linejoin:miter;stroke-opacity:1" d="M 236.241,690.769 269.418,690.769 z" id="boundary" inkscape:connector-curvature="0" />
	<path style="fill:none;stroke:red;stroke-width:1px;stroke-linecap:butt;stroke-linejoin:miter;stroke-opacity:1" d="M 236.241,760.441 269.418,760.441 z" id="boundary" inkscape:connector-curvature="0" />
	<path style="fill:none;stroke:red;stroke-width:1px;stroke-linecap:butt;stroke-linejoin:miter;stroke-opacity:1" d="M 239.559,584.602 272.736,584.602 z" id="boundary" inkscape:connector-curvature="0" />
	<path style="fill:none;stroke:red;stroke-width:1px;stroke-linecap:butt;stroke-linejoin:miter;stroke-opacity:1" d="M 252.829,660.91 286.007,660.91 z" id="boundary" inkscape:connector-curvature="0" />
	<path style="fill:none;stroke:red;stroke-width:1px;stroke-linecap:butt;stroke-linejoin:miter;stroke-opacity:1" d="M 252.829,830.114 286.007,830.114 z" id="boundary" inkscape:connector-curvature="0" />
	<path style="fill:none;stroke:red;stroke-width:1px;stroke-linecap:butt;stroke-linejoin:miter;stroke-opacity:1" d="M 256.147,4 289.324,4 z" id="boundary" inkscape:connector-curvature="0" />
	<path style="fill:none;stroke:red;stroke-width:1px;stroke-linecap:butt;stroke-linejoin:miter;stroke-opacity:1" d="M 256.147,554.742 289.324,554.742 z" id="boundary" inkscape:connector-curvature="0" />
	<path style="fill:none;stroke:red;stroke-width:1px;stroke-linecap:butt;stroke-linejoin:miter;stroke-opacity:1" d="M 262.783,445.258 295.96,445.258 z" id="boundary" inkscape:connector-curvature="0" />
	<path style="fill:none;stroke:red;stroke-width:1px;stroke-linecap:butt;stroke-linejoin:miter;stroke-opacity:1" d="M 269.418,690.769 302.595,690.769 z" id="boundary" inkscape:connector-curvature="0" />
	<path style="fill:none;stroke:red;stroke-width:1px;stroke-linecap:butt;stroke-linejoin:miter;stroke-opacity:1" d="M 269.418,760.441 295.96,780.348 z" id="boundary" inkscape:connector-curvature="0" />
	<path style="fill:none;stroke:red;stroke-width:1px;stroke-linecap:butt;stroke-linejoin:miter;stroke-opacity:1" d="M 272.736,584.602 305.913,584.602 z" id="boundary" inkscape:connector-curvature="0" />
	<path style="fill:none;stroke:red;stroke-width:1px;stroke-linecap:butt;stroke-linejoin:miter;stroke-opacity:1" d="M 286.007,660.91 319.184,660.91 z" id="boundary" inkscape:connector-curvature="0" />
	<path style="fill:none;stroke:red;stroke-width:1px;stroke-linecap:butt;stroke-linejoin:miter;stroke-opacity:1" d="M 286.007,830.114 319.184,830.114 z" id="boundary" inkscape:connector-curvature="0" />
	<path style="fill:none;stroke:red;stroke-width:1px;stroke-linecap:butt;stroke-linejoin:miter;stroke-opacity:1" d="M 289.324,4 322.502,4 z" id="boundary" inkscape:connector-curvature="0" />
	<path style="fill:none;stroke:red;stroke-width:1px;stroke-linecap:butt;stroke-linejoin:miter;stroke-opacity:1" d="M 289.324,554.742 322.502,554.742 z" id="boundary" inkscape:connector-curvature="0" />
	<path style="fill:none;stroke:red;stroke-width:1px;stroke-linecap:butt;stroke-linejoin:miter;stroke-opacity:1" d="M 295.96,445.258 329.137,445.258 z" id="boundary" inkscape:connector-curvature="0" />
	<path style="fill:none;stroke:red;stroke-width:1px;stroke-linecap:butt;stroke-linejoin:miter;stroke-opacity:1" d="M 295.96,780.348 322.502,760.441 z" id="boundary" inkscape:connector-curvature="0" />
	<path style="fill:none;stroke:red;stroke-width:1px;stroke-linecap:butt;stroke-linejoin:miter;stroke-opacity:1" d="M 302.595,690.769 335.773,690.769 z" id="boundary" inkscape:connector-curvature="0" />
	<path style="fill:none;stroke:red;stroke-width:1px;stroke-linecap:butt;stroke-linejoin:miter;stroke-opacity:1" d="M 305.913,584.602 339.09,584.602 z" id="boundary" inkscape:connector-curvature="0" />
	<path style="fill:none;stroke:red;stroke-width:1px;stroke-linecap:butt;stroke-linejoin:miter;stroke-opacity:1" d="M 319.184,660.91 352.361,660.91 z" id="boundary" inkscape:connector-curvature="0" />
	<path style="fill:none;stroke:red;stroke-width:1px;stroke-linecap:butt;stroke-linejoin:miter;stroke-opacity:1" d="M 319.184,830.114 352.361,830.114 z" id="boundary" inkscape:connector-curvature="0" />
	<path style="fill:none;stroke:red;stroke-width:1px;stroke-linecap:butt;stroke-linejoin:miter;stroke-opacity:1" d="M 322.502,4 355.679,4 z" id="boundary" inkscape:connector-curvature="0" />
	<path style="fill:none;stroke:red;stroke-width:1px;stroke-linecap:butt;stroke-linejoin:miter;stroke-opacity:1" d="M 322.502,554.742 355.679,554.742 z" id="boundary" inkscape:connector-curvature="0" />
	<path style="fill:none;stroke:red;stroke-width:1px;stroke-linecap:butt;stroke-linejoin:miter;stroke-opacity:1" d="M 322.502,760.441 349.043,780.348 z" id="boundary" inkscape:connector-curvature="0" />
	<path style="fill:none;stroke:red;stroke-width:1px;stroke-linecap:butt;stroke-linejoin:miter;stroke-opacity:1" d="M 329.137,445.258 362.314,445.258 z" id="boundary" inkscape:connector-curvature="0" />
	<path style="fill:none;stroke:red;stroke-width:1px;stroke-linecap:butt;stroke-linejoin:miter;stroke-opacity:1" d="M 335.773,690.769 368.95,690.769 z" id="boundary" inkscape:connector-curvature="0" />
	<path style="fill:none;stroke:red;stroke-width:1px;stroke-linecap:butt;stroke-linejoin:miter;stroke-opacity:1" d="M 339.09,584.602 372.268,584.602 z" id="boundary" inkscape:connector-curvature="0" />
	<path style="fill:none;stroke:red;stroke-width:1px;stroke-linecap:butt;stroke-linejoin:miter;stroke-opacity:1" d="M 349.043,780.348 375.585,760.441 z" id="boundary" inkscape:connector-curvature="0" />
	<path style="fill:none;stroke:red;stroke-width:1px;stroke-linecap:butt;stroke-linejoin:miter;stroke-opacity:1" d="M 352.361,660.91 385.538,660.91 z" id="boundary" inkscape:connector-curvature="0" />
	<path style="fill:none;stroke:red;stroke-width:1px;stroke-linecap:butt;stroke-linejoin:miter;stroke-opacity:1" d="M 352.361,830.114 385.538,830.114 z" id="boundary" inkscape:connector-curvature="0" />
	<path style="fill:none;stroke:red;stroke-width:1px;stroke-linecap:butt;stroke-linejoin:miter;stroke-opacity:1" d="M 355.679,4 388.856,4 z" id="boundary" inkscape:connector-curvature="0" />
	<path style="fill:none;stroke:red;stroke-width:1px;stroke-linecap:butt;stroke-linejoin:miter;stroke-opacity:1" d="M 355.679,554.742 388.856,554.742 z" id="boundary" inkscape:connector-curvature="0" />
	<path style="fill:none;stroke:red;stroke-width:1px;stroke-linecap:butt;stroke-linejoin:miter;stroke-opacity:1" d="M 362.314,445.258 395.492,445.258 z" id="boundary" inkscape:connector-curvature="0" />
	<path style="fill:none;stroke:red;stroke-width:1px;stroke-linecap:butt;stroke-linejoin:miter;stroke-opacity:1" d="M 368.95,690.769 402.127,690.769 z" id="boundary" inkscape:connector-curvature="0" />
	<path style="fill:none;stroke:red;stroke-width:1px;stroke-linecap:butt;stroke-linejoin:miter;stroke-opacity:1" d="M 372.268,584.602 405.445,584.602 z" id="boundary" inkscape:connector-curvature="0" />
	<path style="fill:none;stroke:red;stroke-width:1px;stroke-linecap:butt;stroke-linejoin:miter;stroke-opacity:1" d="M 375.585,760.441 402.127,780.348 z" id="boundary" inkscape:connector-curvature="0" />
	<path style="fill:none;stroke:red;stroke-width:1px;stroke-linecap:butt;stroke-linejoin:miter;stroke-opacity:1" d="M 385.538,660.91 418.716,660.91 z" id="boundary" inkscape:connector-curvature="0" />
	<path style="fill:none;stroke:red;stroke-width:1px;stroke-linecap:butt;stroke-linejoin:miter;stroke-opacity:1" d="M 385.538,830.114 418.716,830.114 z" id="boundary" inkscape:connector-curvature="0" />
	<path style="fill:none;stroke:red;stroke-width:1px;stroke-linecap:butt;stroke-linejoin:miter;stroke-opacity:1" d="M 388.856,4 422.033,4 z" id="boundary" inkscape:connector-curvature="0" />
	<path style="fill:none;stroke:red;stroke-width:1px;stroke-linecap:butt;stroke-linejoin:miter;stroke-opacity:1" d="M 388.856,554.742 422.033,554.742 z" id="boundary" inkscape:connector-curvature="0" />
	<path style="fill:none;stroke:red;stroke-width:1px;stroke-linecap:butt;stroke-linejoin:miter;stroke-opacity:1" d="M 395.492,445.258 428.669,445.258 z" id="boundary" inkscape:connector-curvature="0" />
	<path style="fill:none;stroke:red;stroke-width:1px;stroke-linecap:butt;stroke-linejoin:miter;stroke-opacity:1" d="M 402.127,690.769 435.304,690.769 z" id="boundary" inkscape:connector-curvature="0" />
	<path style="fill:none;stroke:red;stroke-width:1px;stroke-linecap:butt;stroke-linejoin:miter;stroke-opacity:1" d="M 402.127,780.348 428.669,760.441 z" id="boundary" inkscape:connector-curvature="0" />
	<path style="fill:none;stroke:red;stroke-width:1px;stroke-linecap:butt;stroke-linejoin:miter;stroke-opacity:1" d="M 405.445,584.602 438.622,584.602 z" id="boundary" inkscape:connector-curvature="0" />
	<path style="fill:none;stroke:red;stroke-width:1px;stroke-linecap:butt;stroke-linejoin:miter;stroke-opacity:1" d="M 418.716,660.91 441.94,617.779 z" id="boundary" inkscape:connector-curvature="0" />
	<path style="fill:none;stroke:red;stroke-width:1px;stroke-linecap:butt;stroke-linejoin:miter;stroke-opacity:1" d="M 418.716,830.114 451.893,830.114 z" id="boundary" inkscape:connector-curvature="0" />
	<path style="fill:none;stroke:red;stroke-width:1px;stroke-linecap:butt;stroke-linejoin:miter;stroke-opacity:1" d="M 422.033,4 455.211,4 z" id="boundary" inkscape:connector-curvature="0" />
	<path style="fill:none;stroke:red;stroke-width:1px;stroke-linecap:butt;stroke-linejoin:miter;stroke-opacity:1" d="M 422.033,554.742 441.94,511.612 z" id="boundary" inkscape:connector-curvature="0" />
	<path style="fill:none;stroke:red;stroke-width:1px;stroke-linecap:butt;stroke-linejoin:miter;stroke-opacity:1" d="M 428.669,445.258 441.94,478.435 z" id="boundary" inkscape:connector-curvature="0" />
	<path style="fill:none;stroke:red;stroke-width:1px;stroke-linecap:butt;stroke-linejoin:miter;stroke-opacity:1" d="M 428.669,760.441 441.94,723.946 z" id="boundary" inkscape:connector-curvature="0" />
	<path style="fill:none;stroke:red;stroke-width:1px;stroke-linecap:butt;stroke-linejoin:miter;stroke-opacity:1" d="M 435.304,690.769 441.94,723.946 z" id="boundary" inkscape:connector-curvature="0" />
	<path style="fill:none;stroke:red;stroke-width:1px;stroke-linecap:butt;stroke-linejoin:miter;stroke-opacity:1" d="M 438.622,584.602 441.94,617.779 z" id="boundary" inkscape:connector-curvature="0" />
	<path style="fill:none;stroke:red;stroke-width:1px;stroke-linecap:butt;stroke-linejoin:miter;stroke-opacity:1" d="M 441.94,478.435 441.94,511.612 z" id="boundary" inkscape:connector-curvature="0" />
	<path style="fill:none;stroke:red;stroke-width:1px;stroke-linecap:butt;stroke-linejoin:miter;stroke-opacity:1" d="M 451.893,830.114 485.07,830.114 z" id="boundary" inkscape:connector-curvature="0" />
	<path style="fill:none;stroke:red;stroke-width:1px;stroke-linecap:butt;stroke-linejoin:miter;stroke-opacity:1" d="M 455.211,4 488.388,4 z" id="boundary" inkscape:connector-curvature="0" />
	<path style="fill:none;stroke:red;stroke-width:1px;stroke-linecap:butt;stroke-linejoin:miter;stroke-opacity:1" d="M 485.07,830.114 518.247,830.114 z" id="boundary" inkscape:connector-curvature="0" />
	<path style="fill:none;stroke:red;stroke-width:1px;stroke-linecap:butt;stroke-linejoin:miter;stroke-opacity:1" d="M 488.388,4 521.565,4 z" id="boundary" inkscape:connector-curvature="0" />
	<path style="fill:none;stroke:red;stroke-width:1px;stroke-linecap:butt;stroke-linejoin:miter;stroke-opacity:1" d="M 518.247,830.114 551.425,830.114 z" id="boundary" inkscape:connector-curvature="0" />
	<path style="fill:none;stroke:red;stroke-width:1px;stroke-linecap:butt;stroke-linejoin:miter;stroke-opacity:1" d="M 521.565,4 554.742,4 z" id="boundary" inkscape:connector-curvature="0" />
	<path style="fill:none;stroke:red;stroke-width:1px;stroke-linecap:butt;stroke-linejoin:miter;stroke-opacity:1" d="M 551.425,830.114 584.602,830.114 z" id="boundary" inkscape:connector-curvature="0" />
	<path style="fill:none;stroke:red;stroke-width:1px;stroke-linecap:butt;stroke-linejoin:miter;stroke-opacity:1" d="M 554.742,4 587.92,4 z" id="boundary" inkscape:connector-curvature="0" />
	<path style="fill:none;stroke:red;stroke-width:1px;stroke-linecap:butt;stroke-linejoin:miter;stroke-opacity:1" d="M 584.602,830.114 617.779,830.114 z" id="boundary" inkscape:connector-curvature="0" />
	<path style="fill:none;stroke:red;stroke-width:1px;stroke-linecap:butt;stroke-linejoin:miter;stroke-opacity:1" d="M 587.92,4 621.097,4 z" id="boundary" inkscape:connector-curvature="0" />
	<path style="fill:none;stroke:red;stroke-width:1px;stroke-linecap:butt;stroke-linejoin:miter;stroke-opacity:1" d="M 617.779,830.114 650.957,830.114 z" id="boundary" inkscape:connector-curvature="0" />
	<path style="fill:none;stroke:red;stroke-width:1px;stroke-linecap:butt;stroke-linejoin:miter;stroke-opacity:1" d="M 621.097,4 654.274,4 z" id="boundary" inkscape:connector-curvature="0" />
	<path style="fill:none;stroke:red;stroke-width:1px;stroke-linecap:butt;stroke-linejoin:miter;stroke-opacity:1" d="M 631.05,448.575 631.05,481.753 z" id="boundary" inkscape:connector-curvature="0" />
	<path style="fill:none;stroke:red;stroke-width:1px;stroke-linecap:butt;stroke-linejoin:miter;stroke-opacity:1" d="M 631.05,448.575 664.227,445.258 z" id="boundary" inkscape:connector-curvature="0" />
	<path style="fill:none;stroke:red;stroke-width:1px;stroke-linecap:butt;stroke-linejoin:miter;stroke-opacity:1" d="M 631.05,481.753 631.05,514.93 z" id="boundary" inkscape:connector-curvature="0" />
	<path style="fill:none;stroke:red;stroke-width:1px;stroke-linecap:butt;stroke-linejoin:miter;stroke-opacity:1" d="M 631.05,514.93 631.05,548.107 z" id="boundary" inkscape:connector-curvature="0" />
	<path style="fill:none;stroke:red;stroke-width:1px;stroke-linecap:butt;stroke-linejoin:miter;stroke-opacity:1" d="M 631.05,548.107 664.227,554.742 z" id="boundary" inkscape:connector-curvature="0" />
	<path style="fill:none;stroke:red;stroke-width:1px;stroke-linecap:butt;stroke-linejoin:miter;stroke-opacity:1" d="M 631.05,587.92 631.05,621.097 z" id="boundary" inkscape:connector-curvature="0" />
	<path style="fill:none;stroke:red;stroke-width:1px;stroke-linecap:butt;stroke-linejoin:miter;stroke-opacity:1" d="M 631.05,587.92 680.816,584.602 z" id="boundary" inkscape:connector-curvature="0" />
	<path style="fill:none;stroke:red;stroke-width:1px;stroke-linecap:butt;stroke-linejoin:miter;stroke-opacity:1" d="M 631.05,621.097 631.05,654.274 z" id="boundary" inkscape:connector-curvature="0" />
	<path style="fill:none;stroke:red;stroke-width:1px;stroke-linecap:butt;stroke-linejoin:miter;stroke-opacity:1" d="M 631.05,654.274 664.227,660.91 z" id="boundary" inkscape:connector-curvature="0" />
	<path style="fill:none;stroke:red;stroke-width:1px;stroke-linecap:butt;stroke-linejoin:miter;stroke-opacity:1" d="M 631.05,694.087 631.05,727.264 z" id="boundary" inkscape:connector-curvature="0" />
	<path style="fill:none;stroke:red;stroke-width:1px;stroke-linecap:butt;stroke-linejoin:miter;stroke-opacity:1" d="M 631.05,694.087 680.816,690.769 z" id="boundary" inkscape:connector-curvature="0" />
	<path style="fill:none;stroke:red;stroke-width:1px;stroke-linecap:butt;stroke-linejoin:miter;stroke-opacity:1" d="M 631.05,727.264 634.368,760.441 z" id="boundary" inkscape:connector-curvature="0" />
	<path style="fill:none;stroke:red;stroke-width:1px;stroke-linecap:butt;stroke-linejoin:miter;stroke-opacity:1" d="M 634.368,760.441 660.91,780.348 z" id="boundary" inkscape:connector-curvature="0" />
	<path style="fill:none;stroke:red;stroke-width:1px;stroke-linecap:butt;stroke-linejoin:miter;stroke-opacity:1" d="M 650.957,830.114 684.134,830.114 z" id="boundary" inkscape:connector-curvature="0" />
	<path style="fill:none;stroke:red;stroke-width:1px;stroke-linecap:butt;stroke-linejoin:miter;stroke-opacity:1" d="M 654.274,4 687.452,4 z" id="boundary" inkscape:connector-curvature="0" />
	<path style="fill:none;stroke:red;stroke-width:1px;stroke-linecap:butt;stroke-linejoin:miter;stroke-opacity:1" d="M 660.91,780.348 687.452,760.441 z" id="boundary" inkscape:connector-curvature="0" />
	<path style="fill:none;stroke:red;stroke-width:1px;stroke-linecap:butt;stroke-linejoin:miter;stroke-opacity:1" d="M 664.227,445.258 697.405,445.258 z" id="boundary" inkscape:connector-curvature="0" />
	<path style="fill:none;stroke:red;stroke-width:1px;stroke-linecap:butt;stroke-linejoin:miter;stroke-opacity:1" d="M 664.227,554.742 697.405,554.742 z" id="boundary" inkscape:connector-curvature="0" />
	<path style="fill:none;stroke:red;stroke-width:1px;stroke-linecap:butt;stroke-linejoin:miter;stroke-opacity:1" d="M 664.227,660.91 697.405,660.91 z" id="boundary" inkscape:connector-curvature="0" />
	<path style="fill:none;stroke:red;stroke-width:1px;stroke-linecap:butt;stroke-linejoin:miter;stroke-opacity:1" d="M 680.816,584.602 713.993,584.602 z" id="boundary" inkscape:connector-curvature="0" />
	<path style="fill:none;stroke:red;stroke-width:1px;stroke-linecap:butt;stroke-linejoin:miter;stroke-opacity:1" d="M 680.816,690.769 713.993,690.769 z" id="boundary" inkscape:connector-curvature="0" />
	<path style="fill:none;stroke:red;stroke-width:1px;stroke-linecap:butt;stroke-linejoin:miter;stroke-opacity:1" d="M 684.134,830.114 717.311,830.114 z" id="boundary" inkscape:connector-curvature="0" />
	<path style="fill:none;stroke:red;stroke-width:1px;stroke-linecap:butt;stroke-linejoin:miter;stroke-opacity:1" d="M 687.452,4 720.629,4 z" id="boundary" inkscape:connector-curvature="0" />
	<path style="fill:none;stroke:red;stroke-width:1px;stroke-linecap:butt;stroke-linejoin:miter;stroke-opacity:1" d="M 687.452,760.441 713.993,780.348 z" id="boundary" inkscape:connector-curvature="0" />
	<path style="fill:none;stroke:red;stroke-width:1px;stroke-linecap:butt;stroke-linejoin:miter;stroke-opacity:1" d="M 697.405,445.258 730.582,445.258 z" id="boundary" inkscape:connector-curvature="0" />
	<path style="fill:none;stroke:red;stroke-width:1px;stroke-linecap:butt;stroke-linejoin:miter;stroke-opacity:1" d="M 697.405,554.742 730.582,554.742 z" id="boundary" inkscape:connector-curvature="0" />
	<path style="fill:none;stroke:red;stroke-width:1px;stroke-linecap:butt;stroke-linejoin:miter;stroke-opacity:1" d="M 697.405,660.91 730.582,660.91 z" id="boundary" inkscape:connector-curvature="0" />
	<path style="fill:none;stroke:red;stroke-width:1px;stroke-linecap:butt;stroke-linejoin:miter;stroke-opacity:1" d="M 713.993,584.602 747.171,584.602 z" id="boundary" inkscape:connector-curvature="0" />
	<path style="fill:none;stroke:red;stroke-width:1px;stroke-linecap:butt;stroke-linejoin:miter;stroke-opacity:1" d="M 713.993,690.769 747.171,690.769 z" id="boundary" inkscape:connector-curvature="0" />
	<path style="fill:none;stroke:red;stroke-width:1px;stroke-linecap:butt;stroke-linejoin:miter;stroke-opacity:1" d="M 713.993,780.348 740.535,760.441 z" id="boundary" inkscape:connector-curvature="0" />
	<path style="fill:none;stroke:red;stroke-width:1px;stroke-linecap:butt;stroke-linejoin:miter;stroke-opacity:1" d="M 717.311,830.114 750.488,830.114 z" id="boundary" inkscape:connector-curvature="0" />
	<path style="fill:none;stroke:red;stroke-width:1px;stroke-linecap:butt;stroke-linejoin:miter;stroke-opacity:1" d="M 720.629,4 753.806,4 z" id="boundary" inkscape:connector-curvature="0" />
	<path style="fill:none;stroke:red;stroke-width:1px;stroke-linecap:butt;stroke-linejoin:miter;stroke-opacity:1" d="M 730.582,445.258 763.759,445.258 z" id="boundary" inkscape:connector-curvature="0" />
	<path style="fill:none;stroke:red;stroke-width:1px;stroke-linecap:butt;stroke-linejoin:miter;stroke-opacity:1" d="M 730.582,554.742 763.759,554.742 z" id="boundary" inkscape:connector-curvature="0" />
	<path style="fill:none;stroke:red;stroke-width:1px;stroke-linecap:butt;stroke-linejoin:miter;stroke-opacity:1" d="M 730.582,660.91 763.759,660.91 z" id="boundary" inkscape:connector-curvature="0" />
	<path style="fill:none;stroke:red;stroke-width:1px;stroke-linecap:butt;stroke-linejoin:miter;stroke-opacity:1" d="M 740.535,760.441 773.712,760.441 z" id="boundary" inkscape:connector-curvature="0" />
	<path style="fill:none;stroke:red;stroke-width:1px;stroke-linecap:butt;stroke-linejoin:miter;stroke-opacity:1" d="M 747.171,584.602 780.348,584.602 z" id="boundary" inkscape:connector-curvature="0" />
	<path style="fill:none;stroke:red;stroke-width:1px;stroke-linecap:butt;stroke-linejoin:miter;stroke-opacity:1" d="M 747.171,690.769 780.348,690.769 z" id="boundary" inkscape:connector-curvature="0" />
	<path style="fill:none;stroke:red;stroke-width:1px;stroke-linecap:butt;stroke-linejoin:miter;stroke-opacity:1" d="M 750.488,830.114 783.666,830.114 z" id="boundary" inkscape:connector-curvature="0" />
	<path style="fill:none;stroke:red;stroke-width:1px;stroke-linecap:butt;stroke-linejoin:miter;stroke-opacity:1" d="M 753.806,4 786.983,4 z" id="boundary" inkscape:connector-curvature="0" />
	<path style="fill:none;stroke:red;stroke-width:1px;stroke-linecap:butt;stroke-linejoin:miter;stroke-opacity:1" d="M 763.759,445.258 796.936,445.258 z" id="boundary" inkscape:connector-curvature="0" />
	<path style="fill:none;stroke:red;stroke-width:1px;stroke-linecap:butt;stroke-linejoin:miter;stroke-opacity:1" d="M 763.759,554.742 796.936,554.742 z" id="boundary" inkscape:connector-curvature="0" />
	<path style="fill:none;stroke:red;stroke-width:1px;stroke-linecap:butt;stroke-linejoin:miter;stroke-opacity:1" d="M 763.759,660.91 796.936,660.91 z" id="boundary" inkscape:connector-curvature="0" />
	<path style="fill:none;stroke:red;stroke-width:1px;stroke-linecap:butt;stroke-linejoin:miter;stroke-opacity:1" d="M 773.712,760.441 806.89,760.441 z" id="boundary" inkscape:connector-curvature="0" />
	<path style="fill:none;stroke:red;stroke-width:1px;stroke-linecap:butt;stroke-linejoin:miter;stroke-opacity:1" d="M 780.348,584.602 813.525,584.602 z" id="boundary" inkscape:connector-curvature="0" />
	<path style="fill:none;stroke:red;stroke-width:1px;stroke-linecap:butt;stroke-linejoin:miter;stroke-opacity:1" d="M 780.348,690.769 813.525,690.769 z" id="boundary" inkscape:connector-curvature="0" />
	<path style="fill:none;stroke:red;stroke-width:1px;stroke-linecap:butt;stroke-linejoin:miter;stroke-opacity:1" d="M 783.666,830.114 816.843,843.385 z" id="boundary" inkscape:connector-curvature="0" />
	<path style="fill:none;stroke:red;stroke-width:1px;stroke-linecap:butt;stroke-linejoin:miter;stroke-opacity:1" d="M 786.983,4 820.161,4 z" id="boundary" inkscape:connector-curvature="0" />
	<path style="fill:none;stroke:red;stroke-width:1px;stroke-linecap:butt;stroke-linejoin:miter;stroke-opacity:1" d="M 796.936,445.258 830.114,445.258 z" id="boundary" inkscape:connector-curvature="0" />
	<path style="fill:none;stroke:red;stroke-width:1px;stroke-linecap:butt;stroke-linejoin:miter;stroke-opacity:1" d="M 796.936,554.742 830.114,554.742 z" id="boundary" inkscape:connector-curvature="0" />
	<path style="fill:none;stroke:red;stroke-width:1px;stroke-linecap:butt;stroke-linejoin:miter;stroke-opacity:1" d="M 796.936,660.91 830.114,660.91 z" id="boundary" inkscape:connector-curvature="0" />
	<path style="fill:none;stroke:red;stroke-width:1px;stroke-linecap:butt;stroke-linejoin:miter;stroke-opacity:1" d="M 806.89,760.441 840.067,760.441 z" id="boundary" inkscape:connector-curvature="0" />
	<path style="fill:none;stroke:red;stroke-width:1px;stroke-linecap:butt;stroke-linejoin:miter;stroke-opacity:1" d="M 813.525,584.602 846.702,584.602 z" id="boundary" inkscape:connector-curvature="0" />
	<path style="fill:none;stroke:red;stroke-width:1px;stroke-linecap:butt;stroke-linejoin:miter;stroke-opacity:1" d="M 813.525,690.769 846.702,690.769 z" id="boundary" inkscape:connector-curvature="0" />
	<path style="fill:none;stroke:red;stroke-width:1px;stroke-linecap:butt;stroke-linejoin:miter;stroke-opacity:1" d="M 816.843,843.385 850.02,830.114 z" id="boundary" inkscape:connector-curvature="0" />
	<path style="fill:none;stroke:red;stroke-width:1px;stroke-linecap:butt;stroke-linejoin:miter;stroke-opacity:1" d="M 820.161,4 853.338,7.31773 z" id="boundary" inkscape:connector-curvature="0" />
	<path style="fill:none;stroke:red;stroke-width:1px;stroke-linecap:butt;stroke-linejoin:miter;stroke-opacity:1" d="M 830.114,445.258 856.656,405.445 z" id="boundary" inkscape:connector-curvature="0" />
	<path style="fill:none;stroke:red;stroke-width:1px;stroke-linecap:butt;stroke-linejoin:miter;stroke-opacity:1" d="M 830.114,554.742 863.291,554.742 z" id="boundary" inkscape:connector-curvature="0" />
	<path style="fill:none;stroke:red;stroke-width:1px;stroke-linecap:butt;stroke-linejoin:miter;stroke-opacity:1" d="M 830.114,660.91 863.291,660.91 z" id="boundary" inkscape:connector-curvature="0" />
	<path style="fill:none;stroke:red;stroke-width:1px;stroke-linecap:butt;stroke-linejoin:miter;stroke-opacity:1" d="M 840.067,760.441 873.244,760.441 z" id="boundary" inkscape:connector-curvature="0" />
	<path style="fill:none;stroke:red;stroke-width:1px;stroke-linecap:butt;stroke-linejoin:miter;stroke-opacity:1" d="M 846.702,584.602 879.88,584.602 z" id="boundary" inkscape:connector-curvature="0" />
	<path style="fill:none;stroke:red;stroke-width:1px;stroke-linecap:butt;stroke-linejoin:miter;stroke-opacity:1" d="M 846.702,690.769 879.88,690.769 z" id="boundary" inkscape:connector-curvature="0" />
	<path style="fill:none;stroke:red;stroke-width:1px;stroke-linecap:butt;stroke-linejoin:miter;stroke-opacity:1" d="M 850.02,830.114 883.197,830.114 z" id="boundary" inkscape:connector-curvature="0" />
	<path style="fill:none;stroke:red;stroke-width:1px;stroke-linecap:butt;stroke-linejoin:miter;stroke-opacity:1" d="M 853.338,7.31773 856.656,40.495 z" id="boundary" inkscape:connector-curvature="0" />
	<path style="fill:none;stroke:red;stroke-width:1px;stroke-linecap:butt;stroke-linejoin:miter;stroke-opacity:1" d="M 856.656,40.495 856.656,73.6722 z" id="boundary" inkscape:connector-curvature="0" />
	<path style="fill:none;stroke:red;stroke-width:1px;stroke-linecap:butt;stroke-linejoin:miter;stroke-opacity:1" d="M 856.656,73.6722 856.656,106.849 z" id="boundary" inkscape:connector-curvature="0" />
	<path style="fill:none;stroke:red;stroke-width:1px;stroke-linecap:butt;stroke-linejoin:miter;stroke-opacity:1" d="M 856.656,106.849 856.656,140.027 z" id="boundary" inkscape:connector-curvature="0" />
	<path style="fill:none;stroke:red;stroke-width:1px;stroke-linecap:butt;stroke-linejoin:miter;stroke-opacity:1" d="M 856.656,140.027 856.656,173.204 z" id="boundary" inkscape:connector-curvature="0" />
	<path style="fill:none;stroke:red;stroke-width:1px;stroke-linecap:butt;stroke-linejoin:miter;stroke-opacity:1" d="M 856.656,173.204 856.656,206.381 z" id="boundary" inkscape:connector-curvature="0" />
	<path style="fill:none;stroke:red;stroke-width:1px;stroke-linecap:butt;stroke-linejoin:miter;stroke-opacity:1" d="M 856.656,206.381 856.656,239.559 z" id="boundary" inkscape:connector-curvature="0" />
	<path style="fill:none;stroke:red;stroke-width:1px;stroke-linecap:butt;stroke-linejoin:miter;stroke-opacity:1" d="M 856.656,239.559 856.656,272.736 z" id="boundary" inkscape:connector-curvature="0" />
	<path style="fill:none;stroke:red;stroke-width:1px;stroke-linecap:butt;stroke-linejoin:miter;stroke-opacity:1" d="M 856.656,272.736 856.656,305.913 z" id="boundary" inkscape:connector-curvature="0" />
	<path style="fill:none;stroke:red;stroke-width:1px;stroke-linecap:butt;stroke-linejoin:miter;stroke-opacity:1" d="M 856.656,305.913 856.656,339.09 z" id="boundary" inkscape:connector-curvature="0" />
	<path style="fill:none;stroke:red;stroke-width:1px;stroke-linecap:butt;stroke-linejoin:miter;stroke-opacity:1" d="M 856.656,339.09 856.656,372.268 z" id="boundary" inkscape:connector-curvature="0" />
	<path style="fill:none;stroke:red;stroke-width:1px;stroke-linecap:butt;stroke-linejoin:miter;stroke-opacity:1" d="M 856.656,372.268 856.656,405.445 z" id="boundary" inkscape:connector-curvature="0" />
	<path style="fill:none;stroke:red;stroke-width:1px;stroke-linecap:butt;stroke-linejoin:miter;stroke-opacity:1" d="M 863.291,554.742 879.88,584.602 z" id="boundary" inkscape:connector-curvature="0" />
	<path style="fill:none;stroke:red;stroke-width:1px;stroke-linecap:butt;stroke-linejoin:miter;stroke-opacity:1" d="M 863.291,660.91 896.468,660.91 z" id="boundary" inkscape:connector-curvature="0" />
	<path style="fill:none;stroke:red;stroke-width:1px;stroke-linecap:butt;stroke-linejoin:miter;stroke-opacity:1" d="M 873.244,760.441 906.421,760.441 z" id="boundary" inkscape:connector-curvature="0" />
	<path style="fill:none;stroke:red;stroke-width:1px;stroke-linecap:butt;stroke-linejoin:miter;stroke-opacity:1" d="M 879.88,690.769 896.468,660.91 z" id="boundary" inkscape:connector-curvature="0" />
	<path style="fill:none;stroke:red;stroke-width:1px;stroke-linecap:butt;stroke-linejoin:miter;stroke-opacity:1" d="M 883.197,830.114 916.375,830.114 z" id="boundary" inkscape:connector-curvature="0" />
	<path style="fill:none;stroke:red;stroke-width:1px;stroke-linecap:butt;stroke-linejoin:miter;stroke-opacity:1" d="M 906.421,760.441 939.599,760.441 z" id="boundary" inkscape:connector-curvature="0" />
	<path style="fill:none;stroke:red;stroke-width:1px;stroke-linecap:butt;stroke-linejoin:miter;stroke-opacity:1" d="M 916.375,830.114 949.552,843.385 z" id="boundary" inkscape:connector-curvature="0" />
	<path style="fill:none;stroke:red;stroke-width:1px;stroke-linecap:butt;stroke-linejoin:miter;stroke-opacity:1" d="M 939.599,760.441 972.776,760.441 z" id="boundary" inkscape:connector-curvature="0" />
	<path style="fill:none;stroke:red;stroke-width:1px;stroke-linecap:butt;stroke-linejoin:miter;stroke-opacity:1" d="M 949.552,843.385 982.729,830.114 z" id="boundary" inkscape:connector-curvature="0" />
	<path style="fill:none;stroke:red;stroke-width:1px;stroke-linecap:butt;stroke-linejoin:miter;stroke-opacity:1" d="M 972.776,760.441 996,786.983 z" id="boundary" inkscape:connector-curvature="0" />
	<path style="fill:none;stroke:red;stroke-width:1px;stroke-linecap:butt;stroke-linejoin:miter;stroke-opacity:1" d="M 982.729,830.114 996,786.983 z" id="boundary" inkscape:connector-curvature="0" />
	<circle cx="4" cy="767.077" r="4" fill="#0" id="circle0"/>
	<circle cx="4" cy="800.254" r="4" fill="#0" id="circle1"/>
	<circle cx="20.5886" cy="830.114" r="4" fill="#0" id="circle2"/>
	<circle cx="37.1773" cy="760.441" r="4" fill="#0" id="circle3"/>
	<circle cx="43.8127" cy="568.013" r="4" fill="#0" id="circle4"/>
	<circle cx="43.8127" cy="667.545" r="4" fill="#0" id="circle5"/>
	<circle cx="53.7659" cy="843.385" r="4" fill="#0" id="circle6"/>
	<circle cx="70.3545" cy="690.769" r="4" fill="#0" id="circle7"/>
	<circle cx="70.3545" cy="760.441" r="4" fill="#0" id="circle8"/>
	<circle cx="73.6722" cy="584.602" r="4" fill="#0" id="circle9"/>
	<circle cx="86.9431" cy="660.91" r="4" fill="#0" id="circle10"/>
	<circle cx="86.9431" cy="830.114" r="4" fill="#0" id="circle11"/>
	<circle cx="90.2609" cy="554.742" r="4" fill="#0" id="circle12"/>
	<circle cx="103.532" cy="690.769" r="4" fill="#0" id="circle13"/>
	<circle cx="103.532" cy="760.441" r="4" fill="#0" id="circle14"/>
	<circle cx="106.849" cy="584.602" r="4" fill="#0" id="circle15"/>
	<circle cx="120.12" cy="660.91" r="4" fill="#0" id="circle16"/>
	<circle cx="120.12" cy="830.114" r="4" fill="#0" id="circle17"/>
	<circle cx="123.438" cy="554.742" r="4" fill="#0" id="circle18"/>
	<circle cx="136.709" cy="690.769" r="4" fill="#0" id="circle19"/>
	<circle cx="136.709" cy="760.441" r="4" fill="#0" id="circle20"/>
	<circle cx="140.027" cy="584.602" r="4" fill="#0" id="circle21"/>
	<circle cx="153.298" cy="660.91" r="4" fill="#0" id="circle22"/>
	<circle cx="153.298" cy="830.114" r="4" fill="#0" id="circle23"/>
	<circle cx="156.615" cy="10.6355" r="4" fill="#0" id="circle24"/>
	<circle cx="156.615" cy="43.8127" r="4" fill="#0" id="circle25"/>
	<circle cx="156.615" cy="76.99" r="4" fill="#0" id="circle26"/>
	<circle cx="156.615" cy="110.167" r="4" fill="#0" id="circle27"/>
	<circle cx="156.615" cy="143.344" r="4" fill="#0" id="circle28"/>
	<circle cx="156.615" cy="176.522" r="4" fill="#0" id="circle29"/>
	<circle cx="156.615" cy="209.699" r="4" fill="#0" id="circle30"/>
	<circle cx="156.615" cy="242.876" r="4" fill="#0" id="circle31"/>
	<circle cx="156.615" cy="276.054" r="4" fill="#0" id="circle32"/>
	<circle cx="156.615" cy="309.231" r="4" fill="#0" id="circle33"/>
	<circle cx="156.615" cy="342.408" r="4" fill="#0" id="circle34"/>
	<circle cx="156.615" cy="375.585" r="4" fill="#0" id="circle35"/>
	<circle cx="156.615" cy="408.763" r="4" fill="#0" id="circle36"/>
	<circle cx="156.615" cy="554.742" r="4" fill="#0" id="circle37"/>
	<circle cx="163.251" cy="441.94" r="4" fill="#0" id="circle38"/>
	<circle cx="169.886" cy="690.769" r="4" fill="#0" id="circle39"/>
	<circle cx="169.886" cy="760.441" r="4" fill="#0" id="circle40"/>
	<circle cx="173.204" cy="584.602" r="4" fill="#0" id="circle41"/>
	<circle cx="186.475" cy="660.91" r="4" fill="#0" id="circle42"/>
	<circle cx="186.475" cy="830.114" r="4" fill="#0" id="circle43"/>
	<circle cx="189.793" cy="4" r="4" fill="#0" id="circle44"/>
	<circle cx="189.793" cy="554.742" r="4" fill="#0" id="circle45"/>
	<circle cx="196.428" cy="445.258" r="4" fill="#0" id="circle46"/>
	<circle cx="203.064" cy="690.769" r="4" fill="#0" id="circle47"/>
	<circle cx="203.064" cy="760.441" r="4" fill="#0" id="circle48"/>
	<circle cx="206.381" cy="584.602" r="4" fill="#0" id="circle49"/>
	<circle cx="219.652" cy="660.91" r="4" fill="#0" id="circle50"/>
	<circle cx="219.652" cy="830.114" r="4" fill="#0" id="circle51"/>
	<circle cx="222.97" cy="4" r="4" fill="#0" id="circle52"/>
	<circle cx="222.97" cy="554.742" r="4" fill="#0" id="circle53"/>
	<circle cx="229.605" cy="445.258" r="4" fill="#0" id="circle54"/>
	<circle cx="236.241" cy="690.769" r="4" fill="#0" id="circle55"/>
	<circle cx="236.241" cy="760.441" r="4" fill="#0" id="circle56"/>
	<circle cx="239.559" cy="584.602" r="4" fill="#0" id="circle57"/>
	<circle cx="252.829" cy="660.91" r="4" fill="#0" id="circle58"/>
	<circle cx="252.829" cy="830.114" r="4" fill="#0" id="circle59"/>
	<circle cx="256.147" cy="4" r="4" fill="#0" id="circle60"/>
	<circle cx="256.147" cy="554.742" r="4" fill="#0" id="circle61"/>
	<circle cx="262.783" cy="445.258" r="4" fill="#0" id="circle62"/>
	<circle cx="269.418" cy="690.769" r="4" fill="#0" id="circle63"/>
	<circle cx="269.418" cy="760.441" r="4" fill="#0" id="circle64"/>
	<circle cx="272.736" cy="584.602" r="4" fill="#0" id="circle65"/>
	<circle cx="286.007" cy="660.91" r="4" fill="#0" id="circle66"/>
	<circle cx="286.007" cy="830.114" r="4" fill="#0" id="circle67"/>
	<circle cx="289.324" cy="4" r="4" fill="#0" id="circle68"/>
	<circle cx="289.324" cy="554.742" r="4" fill="#0" id="circle69"/>
	<circle cx="295.96" cy="445.258" r="4" fill="#0" id="circle70"/>
	<circle cx="295.96" cy="780.348" r="4" fill="#0" id="circle71"/>
	<circle cx="302.595" cy="690.769" r="4" fill="#0" id="circle72"/>
	<circle cx="305.913" cy="584.602" r="4" fill="#0" id="circle73"/>
	<circle cx="319.184" cy="660.91" r="4" fill="#0" id="circle74"/>
	<circle cx="319.184" cy="830.114" r="4" fill="#0" id="circle75"/>
	<circle cx="322.502" cy="4" r="4" fill="#0" id="circle76"/>
	<circle cx="322.502" cy="554.742" r="4" fill="#0" id="circle77"/>
	<circle cx="322.502" cy="760.441" r="4" fill="#0" id="circle78"/>
	<circle cx="329.137" cy="445.258" r="4" fill="#0" id="circle79"/>
	<circle cx="335.773" cy="690.769" r="4" fill="#0" id="circle80"/>
	<circle cx="339.09" cy="584.602" r="4" fill="#0" id="circle81"/>
	<circle cx="349.043" cy="780.348" r="4" fill="#0" id="circle82"/>
	<circle cx="352.361" cy="660.91" r="4" fill="#0" id="circle83"/>
	<circle cx="352.361" cy="830.114" r="4" fill="#0" id="circle84"/>
	<circle cx="355.679" cy="4" r="4" fill="#0" id="circle85"/>
	<circle cx="355.679" cy="554.742" r="4" fill="#0" id="circle86"/>
	<circle cx="362.314" cy="445.258" r="4" fill="#0" id="circle87"/>
	<circle cx="368.95" cy="690.769" r="4" fill="#0" id="circle88"/>
	<circle cx="372.268" cy="584.602" r="4" fill="#0" id="circle89"/>
	<circle cx="375.585" cy="760.441" r="4" fill="#0" id="circle90"/>
	<circle cx="385.538" cy="660.91" r="4" fill="#0" id="circle91"/>
	<circle cx="385.538" cy="830.114" r="4" fill="#0" id="circle92"/>
	<circle cx="388.856" cy="4" r="4" fill="#0" id="circle93"/>
	<circle cx="388.856" cy="554.742" r="4" fill="#0" id="circle94"/>
	<circle cx="395.492" cy="445.258" r="4" fill="#0" id="circle95"/>
	<circle cx="402.127" cy="690.769" r="4" fill="#0" id="circle96"/>
	<circle cx="402.127" cy="780.348" r="4" fill="#0" id="circle97"/>
	<circle cx="405.445" cy="584.602" r="4" fill="#0" id="circle98"/>
	<circle cx="418.716" cy="660.91" r="4" fill="#0" id="circle99"/>
	<circle cx="418.716" cy="830.114" r="4" fill="#0" id="circle100"/>
	<circle cx="422.033" cy="4" r="4" fill="#0" id="circle101"/>
	<circle cx="422.033" cy="554.742" r="4" fill="#0" id="circle102"/>
	<circle cx="428.669" cy="445.258" r="4" fill="#0" id="circle103"/>
	<circle cx="428.669" cy="760.441" r="4" fill="#0" id="circle104"/>
	<circle cx="435.304" cy="690.769" r="4" fill="#0" id="circle105"/>
	<circle cx="438.622" cy="584.602" r="4" fill="#0" id="circle106"/>
	<circle cx="441.94" cy="478.435" r="4" fill="#0" id="circle107"/>
	<circle cx="441.94" cy="511.612" r="4" fill="#0" id="circle108"/>
	<circle cx="441.94" cy="617.779" r="4" fill="#0" id="circle109"/>
	<circle cx="441.94" cy="723.946" r="4" fill="#0" id="circle110"/>
	<circle cx="451.893" cy="830.114" r="4" fill="#0" id="circle111"/>
	<circle cx="455.211" cy="4" r="4" fill="#0" id="circle112"/>
	<circle cx="485.07" cy="830.114" r="4" fill="#0" id="circle113"/>
	<circle cx="488.388" cy="4" r="4" fill="#0" id="circle114"/>
	<circle cx="518.247" cy="830.114" r="4" fill="#0" id="circle115"/>
	<circle cx="521.565" cy="4" r="4" fill="#0" id="circle116"/>
	<circle cx="551.425" cy="830.114" r="4" fill="#0" id="circle117"/>
	<circle cx="554.742" cy="4" r="4" fill="#0" id="circle118"/>
	<circle cx="584.602" cy="830.114" r="4" fill="#0" id="circle119"/>
	<circle cx="587.92" cy="4" r="4" fill="#0" id="circle120"/>
	<circle cx="617.779" cy="830.114" r="4" fill="#0" id="circle121"/>
	<circle cx="621.097" cy="4" r="4" fill="#0" id="circle122"/>
	<circle cx="631.05" cy="448.575" r="4" fill="#0" id="circle123"/>
	<circle cx="631.05" cy="481.753" r="4" fill="#0" id="circle124"/>
	<circle cx="631.05" cy="514.93" r="4" fill="#0" id="circle125"/>
	<circle cx="631.05" cy="548.107" r="4" fill="#0" id="circle126"/>
	<circle cx="631.05" cy="587.92" r="4" fill="#0" id="circle127"/>
	<circle cx="631.05" cy="621.097" r="4" fill="#0" id="circle128"/>
	<circle cx="631.05" cy="654.274" r="4" fill="#0" id="circle129"/>
	<circle cx="631.05" cy="694.087" r="4" fill="#0" id="circle130"/>
	<circle cx="631.05" cy="727.264" r="4" fill="#0" id="circle131"/>
	<circle cx="634.368" cy="760.441" r="4" fill="#0" id="circle132"/>
	<circle cx="650.957" cy="830.114" r="4" fill="#0" id="circle133"/>
	<circle cx="654.274" cy="4" r="4" fill="#0" id="circle134"/>
	<circle cx="660.91" cy="780.348" r="4" fill="#0" id="circle135"/>
	<circle cx="664.227" cy="445.258" r="4" fill="#0" id="circle136"/>
	<circle cx="664.227" cy="554.742" r="4" fill="#0" id="circle137"/>
	<circle cx="664.227" cy="660.91" r="4" fill="#0" id="circle138"/>
	<circle cx="680.816" cy="584.602" r="4" fill="#0" id="circle139"/>
	<circle cx="680.816" cy="690.769" r="4" fill="#0" id="circle140"/>
	<circle cx="684.134" cy="830.114" r="4" fill="#0" id="circle141"/>
	<circle cx="687.452" cy="4" r="4" fill="#0" id="circle142"/>
	<circle cx="687.452" cy="760.441" r="4" fill="#0" id="circle143"/>
	<circle cx="697.405" cy="445.258" r="4" fill="#0" id="circle144"/>
	<circle cx="697.405" cy="554.742" r="4" fill="#0" id="circle145"/>
	<circle cx="697.405" cy="660.91" r="4" fill="#0" id="circle146"/>
	<circle cx="713.993" cy="584.602" r="4" fill="#0" id="circle147"/>
	<circle cx="713.993" cy="690.769" r="4" fill="#0" id="circle148"/>
	<circle cx="713.993" cy="780.348" r="4" fill="#0" id="circle149"/>
	<circle cx="717.311" cy="830.114" r="4" fill="#0" id="circle150"/>
	<circle cx="720.629" cy="4" r="4" fill="#0" id="circle151"/>
	<circle cx="730.582" cy="445.258" r="4" fill="#0" id="circle152"/>
	<circle cx="730.582" cy="554.742" r="4" fill="#0" id="circle153"/>
	<circle cx="730.582" cy="660.91" r="4" fill="#0" id="circle154"/>
	<circle cx="740.535" cy="760.441" r="4" fill="#0" id="circle155"/>
	<circle cx="747.171" cy="584.602" r="4" fill="#0" id="circle156"/>
	<circle cx="747.171" cy="690.769" r="4" fill="#0" id="circle157"/>
	<circle cx="750.488" cy="830.114" r="4" fill="#0" id="circle158"/>
	<circle cx="753.806" cy="4" r="4" fill="#0" id="circle159"/>
	<circle cx="763.759" cy="445.258" r="4" fill="#0" id="circle160"/>
	<circle cx="763.759" cy="554.742" r="4" fill="#0" id="circle161"/>
	<circle cx="763.759" cy="660.91" r="4" fill="#0" id="circle162"/>
	<circle cx="773.712" cy="760.441" r="4" fill="#0" id="circle163"/>
	<circle cx="780.348" cy="584.602" r="4" fill="#0" id="circle164"/>
	<circle cx="780.348" cy="690.769" r="4" fill="#0" id="circle165"/>
	<circle cx="783.666" cy="830.114" r="4" fill="#0" id="circle166"/>
	<circle cx="786.983" cy="4" r="4" fill="#0" id="circle167"/>
	<circle cx="796.936" cy="445.258" r="4" fill="#0" id="circle168"/>
	<circle cx="796.936" cy="554.742" r="4" fill="#0" id="circle169"/>
	<circle cx="796.936" cy="660.91" r="4" fill="#0" id="circle170"/>
	<circle cx="806.89" cy="760.441" r="4" fill="#0" id="circle171"/>
	<circle cx="813.525" cy="584.602" r="4" fill="#0" id="circle172"/>
	<circle cx="813.525" cy="690.769" r="4" fill="#0" id="circle173"/>
	<circle cx="816.843" cy="843.385" r="4" fill="#0" id="circle174"/>
	<circle cx="820.161" cy="4" r="4" fill="#0" id="circle175"/>
	<circle cx="830.114" cy="445.258" r="4" fill="#0" id="circle176"/>
	<circle cx="830.114" cy="554.742" r="4" fill="#0" id="circle177"/>
	<circle cx="830.114" cy="660.91" r="4" fill="#0" id="circle178"/>
	<circle cx="840.067" cy="760.441" r="4" fill="#0" id="circle179"/>
	<circle cx="846.702" cy="584.602" r="4" fill="#0" id="circle180"/>
	<circle cx="846.702" cy="690.769" r="4" fill="#0" id="circle181"/>
	<circle cx="850.02" cy="830.114" r="4" fill="#0" id="circle182"/>
	<circle cx="853.338" cy="7.31773" r="4" fill="#0" id="circle183"/>
	<circle cx="856.656" cy="40.495" r="4" fill="#0" id="circle184"/>
	<circle cx="856.656" cy="73.6722" r="4" fill="#0" id="circle185"/>
	<circle cx="856.656" cy="106.849" r="4" fill="#0" id="circle186"/>
	<circle cx="856.656" cy="140.027" r="4" fill="#0" id="circle187"/>
	<circle cx="856.656" cy="173.204" r="4" fill="#0" id="circle188"/>
	<circle cx="856.656" cy="206.381" r="4" fill="#0" id="circle189"/>
	<circle cx="856.656" cy="239.559" r="4" fill="#0" id="circle190"/>
	<circle cx="856.656" cy="272.736" r="4" fill="#0" id="circle191"/>
	<circle cx="856.656" cy="305.913" r="4" fill="#0" id="circle192"/>
	<circle cx="856.656" cy="339.09" r="4" fill="#0" id="circle193"/>
	<circle cx="856.656" cy="372.268" r="4" fill="#0" id="circle194"/>
	<circle cx="856.656" cy="405.445" r="4" fill="#0" id="circle195"/>
	<circle cx="863.291" cy="554.742" r="4" fill="#0" id="circle196"/>
	<circle cx="863.291" cy="660.91" r="4" fill="#0" id="circle197"/>
	<circle cx="873.244" cy="760.441" r="4" fill="#0" id="circle198"/>
	<circle cx="879.88" cy="584.602" r="4" fill="#0" id="circle199"/>
	<circle cx="879.88" cy="690.769" r="4" fill="#0" id="circle200"/>
	<circle cx="883.197" cy="830.114" r="4" fill="#0" id="circle201"/>
	<circle cx="896.468" cy="660.91" r="4" fill="#0" id="circle202"/>
	<circle cx="906.421" cy="760.441" r="4" fill="#0" id="circle203"/>
	<circle cx="916.375" cy="830.114" r="4" fill="#0" id="circle204"/>
	<circle cx="939.599" cy="760.441" r="4" fill="#0" id="circle205"/>
	<circle cx="949.552" cy="843.385" r="4" fill="#0" id="circle206"/>
	<circle cx="972.776" cy="760.441" r="4" fill="#0" id="circle207"/>
	<circle cx="982.729" cy="830.114" r="4" fill="#0" id="circle208"/>
	<circle cx="996" cy="786.983" r="4" fill="#0" id="circle209"/>
	</g>
</svg>