<?xml version="1.0" encoding="UTF-8" standalone="no"?>
<!-- Created with CurveBenchmark -->
<svg
	xmlns:dc="http://purl.org/dc/elements/1.1/"
	xmlns:cc="http://creativecommons.org/ns#"
	xmlns:rdf="http://www.w3.org/1999/02/22-rdf-syntax-ns#"
	xmlns:svg="http://www.w3.org/2000/svg"
	xmlns="http://www.w3.org/2000/svg"
	xmlns:sodipodi="http://sodipodi.sourceforge.net/DTD/sodipodi-0.dtd"
	xmlns:inkscape="http://www.inkscape.org/namespaces/inkscape"
	width="1000"
	height="1000"
	id="svg2"
	version="1.1"
	sodipodi:docname="manifold/discur-tool22.png.txt">
<defs
	id="defs4" />
<metadata
	id="metadata7">
	<rdf:RDF>
		<cc:Work
			rdf:about="">
			<dc:format>image/svg+xml</dc:format>
			<dc:type
				rdf:resource="http://purl.org/dc/dcmitype/StillImage" />
			<dc:title></dc:title>
		</cc:Work>
	</rdf:RDF>
</metadata>
<g
	inkscape:label="Layer 1"
	inkscape:groupmode="layer"
	id="layer1">
	<path style="fill:none;stroke:red;stroke-width:1px;stroke-linecap:butt;stroke-linejoin:miter;stroke-opacity:1" d="M 4,29.1139 4,60.5063 z" id="boundary" inkscape:connector-curvature="0" />
	<path style="fill:none;stroke:red;stroke-width:1px;stroke-linecap:butt;stroke-linejoin:miter;stroke-opacity:1" d="M 4,29.1139 35.3924,19.6962 z" id="boundary" inkscape:connector-curvature="0" />
	<path style="fill:none;stroke:red;stroke-width:1px;stroke-linecap:butt;stroke-linejoin:miter;stroke-opacity:1" d="M 4,60.5063 19.6962,88.7595 z" id="boundary" inkscape:connector-curvature="0" />
	<path style="fill:none;stroke:red;stroke-width:1px;stroke-linecap:butt;stroke-linejoin:miter;stroke-opacity:1" d="M 19.6962,88.7595 35.3924,117.013 z" id="boundary" inkscape:connector-curvature="0" />
	<path style="fill:none;stroke:red;stroke-width:1px;stroke-linecap:butt;stroke-linejoin:miter;stroke-opacity:1" d="M 35.3924,19.6962 63.6456,4 z" id="boundary" inkscape:connector-curvature="0" />
	<path style="fill:none;stroke:red;stroke-width:1px;stroke-linecap:butt;stroke-linejoin:miter;stroke-opacity:1" d="M 35.3924,117.013 44.8101,148.405 z" id="boundary" inkscape:connector-curvature="0" />
	<path style="fill:none;stroke:red;stroke-width:1px;stroke-linecap:butt;stroke-linejoin:miter;stroke-opacity:1" d="M 44.8101,148.405 69.9241,170.38 z" id="boundary" inkscape:connector-curvature="0" />
	<path style="fill:none;stroke:red;stroke-width:1px;stroke-linecap:butt;stroke-linejoin:miter;stroke-opacity:1" d="M 63.6456,4 91.8987,19.6962 z" id="boundary" inkscape:connector-curvature="0" />
	<path style="fill:none;stroke:red;stroke-width:1px;stroke-linecap:butt;stroke-linejoin:miter;stroke-opacity:1" d="M 69.9241,170.38 82.481,201.772 z" id="boundary" inkscape:connector-curvature="0" />
	<path style="fill:none;stroke:red;stroke-width:1px;stroke-linecap:butt;stroke-linejoin:miter;stroke-opacity:1" d="M 82.481,201.772 98.1772,230.025 z" id="boundary" inkscape:connector-curvature="0" />
	<path style="fill:none;stroke:red;stroke-width:1px;stroke-linecap:butt;stroke-linejoin:miter;stroke-opacity:1" d="M 91.8987,19.6962 113.873,44.8101 z" id="boundary" inkscape:connector-curvature="0" />
	<path style="fill:none;stroke:red;stroke-width:1px;stroke-linecap:butt;stroke-linejoin:miter;stroke-opacity:1" d="M 98.1772,230.025 98.1772,261.418 z" id="boundary" inkscape:connector-curvature="0" />
	<path style="fill:none;stroke:red;stroke-width:1px;stroke-linecap:butt;stroke-linejoin:miter;stroke-opacity:1" d="M 98.1772,261.418 120.152,286.532 z" id="boundary" inkscape:connector-curvature="0" />
	<path style="fill:none;stroke:red;stroke-width:1px;stroke-linecap:butt;stroke-linejoin:miter;stroke-opacity:1" d="M 113.873,44.8101 132.709,69.9241 z" id="boundary" inkscape:connector-curvature="0" />
	<path style="fill:none;stroke:red;stroke-width:1px;stroke-linecap:butt;stroke-linejoin:miter;stroke-opacity:1" d="M 120.152,286.532 135.848,314.785 z" id="boundary" inkscape:connector-curvature="0" />
	<path style="fill:none;stroke:red;stroke-width:1px;stroke-linecap:butt;stroke-linejoin:miter;stroke-opacity:1" d="M 132.709,69.9241 148.405,98.1772 z" id="boundary" inkscape:connector-curvature="0" />
	<path style="fill:none;stroke:red;stroke-width:1px;stroke-linecap:butt;stroke-linejoin:miter;stroke-opacity:1" d="M 135.848,314.785 160.962,336.759 z" id="boundary" inkscape:connector-curvature="0" />
	<path style="fill:none;stroke:red;stroke-width:1px;stroke-linecap:butt;stroke-linejoin:miter;stroke-opacity:1" d="M 148.405,98.1772 164.101,126.43 z" id="boundary" inkscape:connector-curvature="0" />
	<path style="fill:none;stroke:red;stroke-width:1px;stroke-linecap:butt;stroke-linejoin:miter;stroke-opacity:1" d="M 160.962,336.759 176.658,365.013 z" id="boundary" inkscape:connector-curvature="0" />
	<path style="fill:none;stroke:red;stroke-width:1px;stroke-linecap:butt;stroke-linejoin:miter;stroke-opacity:1" d="M 164.101,126.43 189.215,148.405 z" id="boundary" inkscape:connector-curvature="0" />
	<path style="fill:none;stroke:red;stroke-width:1px;stroke-linecap:butt;stroke-linejoin:miter;stroke-opacity:1" d="M 176.658,365.013 192.354,393.266 z" id="boundary" inkscape:connector-curvature="0" />
	<path style="fill:none;stroke:red;stroke-width:1px;stroke-linecap:butt;stroke-linejoin:miter;stroke-opacity:1" d="M 189.215,148.405 211.19,173.519 z" id="boundary" inkscape:connector-curvature="0" />
	<path style="fill:none;stroke:red;stroke-width:1px;stroke-linecap:butt;stroke-linejoin:miter;stroke-opacity:1" d="M 192.354,393.266 208.051,421.519 z" id="boundary" inkscape:connector-curvature="0" />
	<path style="fill:none;stroke:red;stroke-width:1px;stroke-linecap:butt;stroke-linejoin:miter;stroke-opacity:1" d="M 208.051,421.519 208.051,452.911 z" id="boundary" inkscape:connector-curvature="0" />
	<path style="fill:none;stroke:red;stroke-width:1px;stroke-linecap:butt;stroke-linejoin:miter;stroke-opacity:1" d="M 208.051,452.911 223.747,481.165 z" id="boundary" inkscape:connector-curvature="0" />
	<path style="fill:none;stroke:red;stroke-width:1px;stroke-linecap:butt;stroke-linejoin:miter;stroke-opacity:1" d="M 211.19,173.519 211.19,204.911 z" id="boundary" inkscape:connector-curvature="0" />
	<path style="fill:none;stroke:red;stroke-width:1px;stroke-linecap:butt;stroke-linejoin:miter;stroke-opacity:1" d="M 211.19,204.911 236.304,226.886 z" id="boundary" inkscape:connector-curvature="0" />
	<path style="fill:none;stroke:red;stroke-width:1px;stroke-linecap:butt;stroke-linejoin:miter;stroke-opacity:1" d="M 223.747,481.165 239.443,509.418 z" id="boundary" inkscape:connector-curvature="0" />
	<path style="fill:none;stroke:red;stroke-width:1px;stroke-linecap:butt;stroke-linejoin:miter;stroke-opacity:1" d="M 236.304,226.886 242.582,258.278 z" id="boundary" inkscape:connector-curvature="0" />
	<path style="fill:none;stroke:red;stroke-width:1px;stroke-linecap:butt;stroke-linejoin:miter;stroke-opacity:1" d="M 239.443,509.418 255.139,537.671 z" id="boundary" inkscape:connector-curvature="0" />
	<path style="fill:none;stroke:red;stroke-width:1px;stroke-linecap:butt;stroke-linejoin:miter;stroke-opacity:1" d="M 242.582,258.278 258.278,286.532 z" id="boundary" inkscape:connector-curvature="0" />
	<path style="fill:none;stroke:red;stroke-width:1px;stroke-linecap:butt;stroke-linejoin:miter;stroke-opacity:1" d="M 255.139,537.671 270.835,565.924 z" id="boundary" inkscape:connector-curvature="0" />
	<path style="fill:none;stroke:red;stroke-width:1px;stroke-linecap:butt;stroke-linejoin:miter;stroke-opacity:1" d="M 258.278,286.532 273.975,314.785 z" id="boundary" inkscape:connector-curvature="0" />
	<path style="fill:none;stroke:red;stroke-width:1px;stroke-linecap:butt;stroke-linejoin:miter;stroke-opacity:1" d="M 270.835,565.924 286.532,594.177 z" id="boundary" inkscape:connector-curvature="0" />
	<path style="fill:none;stroke:red;stroke-width:1px;stroke-linecap:butt;stroke-linejoin:miter;stroke-opacity:1" d="M 273.975,314.785 299.089,336.759 z" id="boundary" inkscape:connector-curvature="0" />
	<path style="fill:none;stroke:red;stroke-width:1px;stroke-linecap:butt;stroke-linejoin:miter;stroke-opacity:1" d="M 286.532,594.177 302.228,622.43 z" id="boundary" inkscape:connector-curvature="0" />
	<path style="fill:none;stroke:red;stroke-width:1px;stroke-linecap:butt;stroke-linejoin:miter;stroke-opacity:1" d="M 299.089,336.759 311.646,368.152 z" id="boundary" inkscape:connector-curvature="0" />
	<path style="fill:none;stroke:red;stroke-width:1px;stroke-linecap:butt;stroke-linejoin:miter;stroke-opacity:1" d="M 302.228,622.43 324.203,647.544 z" id="boundary" inkscape:connector-curvature="0" />
	<path style="fill:none;stroke:red;stroke-width:1px;stroke-linecap:butt;stroke-linejoin:miter;stroke-opacity:1" d="M 311.646,368.152 327.342,396.405 z" id="boundary" inkscape:connector-curvature="0" />
	<path style="fill:none;stroke:red;stroke-width:1px;stroke-linecap:butt;stroke-linejoin:miter;stroke-opacity:1" d="M 324.203,647.544 333.62,678.937 z" id="boundary" inkscape:connector-curvature="0" />
	<path style="fill:none;stroke:red;stroke-width:1px;stroke-linecap:butt;stroke-linejoin:miter;stroke-opacity:1" d="M 327.342,396.405 336.759,427.797 z" id="boundary" inkscape:connector-curvature="0" />
	<path style="fill:none;stroke:red;stroke-width:1px;stroke-linecap:butt;stroke-linejoin:miter;stroke-opacity:1" d="M 333.62,678.937 352.456,704.051 z" id="boundary" inkscape:connector-curvature="0" />
	<path style="fill:none;stroke:red;stroke-width:1px;stroke-linecap:butt;stroke-linejoin:miter;stroke-opacity:1" d="M 336.759,427.797 361.873,446.633 z" id="boundary" inkscape:connector-curvature="0" />
	<path style="fill:none;stroke:red;stroke-width:1px;stroke-linecap:butt;stroke-linejoin:miter;stroke-opacity:1" d="M 352.456,704.051 365.013,735.443 z" id="boundary" inkscape:connector-curvature="0" />
	<path style="fill:none;stroke:red;stroke-width:1px;stroke-linecap:butt;stroke-linejoin:miter;stroke-opacity:1" d="M 361.873,446.633 374.43,478.025 z" id="boundary" inkscape:connector-curvature="0" />
	<path style="fill:none;stroke:red;stroke-width:1px;stroke-linecap:butt;stroke-linejoin:miter;stroke-opacity:1" d="M 365.013,735.443 390.127,757.418 z" id="boundary" inkscape:connector-curvature="0" />
	<path style="fill:none;stroke:red;stroke-width:1px;stroke-linecap:butt;stroke-linejoin:miter;stroke-opacity:1" d="M 374.43,478.025 390.127,506.278 z" id="boundary" inkscape:connector-curvature="0" />
	<path style="fill:none;stroke:red;stroke-width:1px;stroke-linecap:butt;stroke-linejoin:miter;stroke-opacity:1" d="M 390.127,506.278 412.101,531.392 z" id="boundary" inkscape:connector-curvature="0" />
	<path style="fill:none;stroke:red;stroke-width:1px;stroke-linecap:butt;stroke-linejoin:miter;stroke-opacity:1" d="M 390.127,757.418 412.101,782.532 z" id="boundary" inkscape:connector-curvature="0" />
	<path style="fill:none;stroke:red;stroke-width:1px;stroke-linecap:butt;stroke-linejoin:miter;stroke-opacity:1" d="M 412.101,531.392 430.937,556.506 z" id="boundary" inkscape:connector-curvature="0" />
	<path style="fill:none;stroke:red;stroke-width:1px;stroke-linecap:butt;stroke-linejoin:miter;stroke-opacity:1" d="M 412.101,782.532 427.797,810.785 z" id="boundary" inkscape:connector-curvature="0" />
	<path style="fill:none;stroke:red;stroke-width:1px;stroke-linecap:butt;stroke-linejoin:miter;stroke-opacity:1" d="M 412.101,845.316 412.101,876.709 z" id="boundary" inkscape:connector-curvature="0" />
	<path style="fill:none;stroke:red;stroke-width:1px;stroke-linecap:butt;stroke-linejoin:miter;stroke-opacity:1" d="M 412.101,845.316 427.797,810.785 z" id="boundary" inkscape:connector-curvature="0" />
	<path style="fill:none;stroke:red;stroke-width:1px;stroke-linecap:butt;stroke-linejoin:miter;stroke-opacity:1" d="M 412.101,876.709 427.797,904.962 z" id="boundary" inkscape:connector-curvature="0" />
	<path style="fill:none;stroke:red;stroke-width:1px;stroke-linecap:butt;stroke-linejoin:miter;stroke-opacity:1" d="M 427.797,904.962 443.494,933.215 z" id="boundary" inkscape:connector-curvature="0" />
	<path style="fill:none;stroke:red;stroke-width:1px;stroke-linecap:butt;stroke-linejoin:miter;stroke-opacity:1" d="M 430.937,556.506 446.633,584.759 z" id="boundary" inkscape:connector-curvature="0" />
	<path style="fill:none;stroke:red;stroke-width:1px;stroke-linecap:butt;stroke-linejoin:miter;stroke-opacity:1" d="M 443.494,933.215 462.329,958.329 z" id="boundary" inkscape:connector-curvature="0" />
	<path style="fill:none;stroke:red;stroke-width:1px;stroke-linecap:butt;stroke-linejoin:miter;stroke-opacity:1" d="M 446.633,584.759 462.329,613.013 z" id="boundary" inkscape:connector-curvature="0" />
	<path style="fill:none;stroke:red;stroke-width:1px;stroke-linecap:butt;stroke-linejoin:miter;stroke-opacity:1" d="M 462.329,613.013 487.443,634.987 z" id="boundary" inkscape:connector-curvature="0" />
	<path style="fill:none;stroke:red;stroke-width:1px;stroke-linecap:butt;stroke-linejoin:miter;stroke-opacity:1" d="M 462.329,958.329 487.443,980.304 z" id="boundary" inkscape:connector-curvature="0" />
	<path style="fill:none;stroke:red;stroke-width:1px;stroke-linecap:butt;stroke-linejoin:miter;stroke-opacity:1" d="M 487.443,634.987 515.696,650.684 z" id="boundary" inkscape:connector-curvature="0" />
	<path style="fill:none;stroke:red;stroke-width:1px;stroke-linecap:butt;stroke-linejoin:miter;stroke-opacity:1" d="M 487.443,980.304 515.696,996 z" id="boundary" inkscape:connector-curvature="0" />
	<path style="fill:none;stroke:red;stroke-width:1px;stroke-linecap:butt;stroke-linejoin:miter;stroke-opacity:1" d="M 515.696,650.684 540.81,672.658 z" id="boundary" inkscape:connector-curvature="0" />
	<path style="fill:none;stroke:red;stroke-width:1px;stroke-linecap:butt;stroke-linejoin:miter;stroke-opacity:1" d="M 515.696,996 547.089,996 z" id="boundary" inkscape:connector-curvature="0" />
	<path style="fill:none;stroke:red;stroke-width:1px;stroke-linecap:butt;stroke-linejoin:miter;stroke-opacity:1" d="M 540.81,672.658 562.785,697.772 z" id="boundary" inkscape:connector-curvature="0" />
	<path style="fill:none;stroke:red;stroke-width:1px;stroke-linecap:butt;stroke-linejoin:miter;stroke-opacity:1" d="M 540.81,901.823 556.506,930.076 z" id="boundary" inkscape:connector-curvature="0" />
	<path style="fill:none;stroke:red;stroke-width:1px;stroke-linecap:butt;stroke-linejoin:miter;stroke-opacity:1" d="M 540.81,901.823 572.203,886.127 z" id="boundary" inkscape:connector-curvature="0" />
	<path style="fill:none;stroke:red;stroke-width:1px;stroke-linecap:butt;stroke-linejoin:miter;stroke-opacity:1" d="M 547.089,996 572.203,958.329 z" id="boundary" inkscape:connector-curvature="0" />
	<path style="fill:none;stroke:red;stroke-width:1px;stroke-linecap:butt;stroke-linejoin:miter;stroke-opacity:1" d="M 556.506,930.076 572.203,958.329 z" id="boundary" inkscape:connector-curvature="0" />
	<path style="fill:none;stroke:red;stroke-width:1px;stroke-linecap:butt;stroke-linejoin:miter;stroke-opacity:1" d="M 562.785,697.772 587.899,719.747 z" id="boundary" inkscape:connector-curvature="0" />
	<path style="fill:none;stroke:red;stroke-width:1px;stroke-linecap:butt;stroke-linejoin:miter;stroke-opacity:1" d="M 572.203,886.127 603.595,886.127 z" id="boundary" inkscape:connector-curvature="0" />
	<path style="fill:none;stroke:red;stroke-width:1px;stroke-linecap:butt;stroke-linejoin:miter;stroke-opacity:1" d="M 587.899,719.747 616.152,735.443 z" id="boundary" inkscape:connector-curvature="0" />
	<path style="fill:none;stroke:red;stroke-width:1px;stroke-linecap:butt;stroke-linejoin:miter;stroke-opacity:1" d="M 603.595,886.127 634.987,886.127 z" id="boundary" inkscape:connector-curvature="0" />
	<path style="fill:none;stroke:red;stroke-width:1px;stroke-linecap:butt;stroke-linejoin:miter;stroke-opacity:1" d="M 616.152,735.443 647.544,741.722 z" id="boundary" inkscape:connector-curvature="0" />
	<path style="fill:none;stroke:red;stroke-width:1px;stroke-linecap:butt;stroke-linejoin:miter;stroke-opacity:1" d="M 634.987,886.127 663.241,901.823 z" id="boundary" inkscape:connector-curvature="0" />
	<path style="fill:none;stroke:red;stroke-width:1px;stroke-linecap:butt;stroke-linejoin:miter;stroke-opacity:1" d="M 647.544,741.722 675.797,757.418 z" id="boundary" inkscape:connector-curvature="0" />
	<path style="fill:none;stroke:red;stroke-width:1px;stroke-linecap:butt;stroke-linejoin:miter;stroke-opacity:1" d="M 663.241,901.823 682.076,926.937 z" id="boundary" inkscape:connector-curvature="0" />
	<path style="fill:none;stroke:red;stroke-width:1px;stroke-linecap:butt;stroke-linejoin:miter;stroke-opacity:1" d="M 675.797,757.418 697.772,782.532 z" id="boundary" inkscape:connector-curvature="0" />
	<path style="fill:none;stroke:red;stroke-width:1px;stroke-linecap:butt;stroke-linejoin:miter;stroke-opacity:1" d="M 682.076,926.937 710.329,908.101 z" id="boundary" inkscape:connector-curvature="0" />
	<path style="fill:none;stroke:red;stroke-width:1px;stroke-linecap:butt;stroke-linejoin:miter;stroke-opacity:1" d="M 697.772,782.532 713.468,810.785 z" id="boundary" inkscape:connector-curvature="0" />
	<path style="fill:none;stroke:red;stroke-width:1px;stroke-linecap:butt;stroke-linejoin:miter;stroke-opacity:1" d="M 710.329,908.101 726.025,876.709 z" id="boundary" inkscape:connector-curvature="0" />
	<path style="fill:none;stroke:red;stroke-width:1px;stroke-linecap:butt;stroke-linejoin:miter;stroke-opacity:1" d="M 713.468,810.785 713.468,842.177 z" id="boundary" inkscape:connector-curvature="0" />
	<path style="fill:none;stroke:red;stroke-width:1px;stroke-linecap:butt;stroke-linejoin:miter;stroke-opacity:1" d="M 713.468,842.177 726.025,876.709 z" id="boundary" inkscape:connector-curvature="0" />
	<circle cx="4" cy="29.1139" r="4" fill="#0" id="circle0"/>
	<circle cx="4" cy="60.5063" r="4" fill="#0" id="circle1"/>
	<circle cx="19.6962" cy="88.7595" r="4" fill="#0" id="circle2"/>
	<circle cx="35.3924" cy="19.6962" r="4" fill="#0" id="circle3"/>
	<circle cx="35.3924" cy="117.013" r="4" fill="#0" id="circle4"/>
	<circle cx="44.8101" cy="148.405" r="4" fill="#0" id="circle5"/>
	<circle cx="63.6456" cy="4" r="4" fill="#0" id="circle6"/>
	<circle cx="69.9241" cy="170.38" r="4" fill="#0" id="circle7"/>
	<circle cx="82.481" cy="201.772" r="4" fill="#0" id="circle8"/>
	<circle cx="91.8987" cy="19.6962" r="4" fill="#0" id="circle9"/>
	<circle cx="98.1772" cy="230.025" r="4" fill="#0" id="circle10"/>
	<circle cx="98.1772" cy="261.418" r="4" fill="#0" id="circle11"/>
	<circle cx="113.873" cy="44.8101" r="4" fill="#0" id="circle12"/>
	<circle cx="120.152" cy="286.532" r="4" fill="#0" id="circle13"/>
	<circle cx="132.709" cy="69.9241" r="4" fill="#0" id="circle14"/>
	<circle cx="135.848" cy="314.785" r="4" fill="#0" id="circle15"/>
	<circle cx="148.405" cy="98.1772" r="4" fill="#0" id="circle16"/>
	<circle cx="160.962" cy="336.759" r="4" fill="#0" id="circle17"/>
	<circle cx="164.101" cy="126.43" r="4" fill="#0" id="circle18"/>
	<circle cx="176.658" cy="365.013" r="4" fill="#0" id="circle19"/>
	<circle cx="189.215" cy="148.405" r="4" fill="#0" id="circle20"/>
	<circle cx="192.354" cy="393.266" r="4" fill="#0" id="circle21"/>
	<circle cx="208.051" cy="421.519" r="4" fill="#0" id="circle22"/>
	<circle cx="208.051" cy="452.911" r="4" fill="#0" id="circle23"/>
	<circle cx="211.19" cy="173.519" r="4" fill="#0" id="circle24"/>
	<circle cx="211.19" cy="204.911" r="4" fill="#0" id="circle25"/>
	<circle cx="223.747" cy="481.165" r="4" fill="#0" id="circle26"/>
	<circle cx="236.304" cy="226.886" r="4" fill="#0" id="circle27"/>
	<circle cx="239.443" cy="509.418" r="4" fill="#0" id="circle28"/>
	<circle cx="242.582" cy="258.278" r="4" fill="#0" id="circle29"/>
	<circle cx="255.139" cy="537.671" r="4" fill="#0" id="circle30"/>
	<circle cx="258.278" cy="286.532" r="4" fill="#0" id="circle31"/>
	<circle cx="270.835" cy="565.924" r="4" fill="#0" id="circle32"/>
	<circle cx="273.975" cy="314.785" r="4" fill="#0" id="circle33"/>
	<circle cx="286.532" cy="594.177" r="4" fill="#0" id="circle34"/>
	<circle cx="299.089" cy="336.759" r="4" fill="#0" id="circle35"/>
	<circle cx="302.228" cy="622.43" r="4" fill="#0" id="circle36"/>
	<circle cx="311.646" cy="368.152" r="4" fill="#0" id="circle37"/>
	<circle cx="324.203" cy="647.544" r="4" fill="#0" id="circle38"/>
	<circle cx="327.342" cy="396.405" r="4" fill="#0" id="circle39"/>
	<circle cx="333.62" cy="678.937" r="4" fill="#0" id="circle40"/>
	<circle cx="336.759" cy="427.797" r="4" fill="#0" id="circle41"/>
	<circle cx="352.456" cy="704.051" r="4" fill="#0" id="circle42"/>
	<circle cx="361.873" cy="446.633" r="4" fill="#0" id="circle43"/>
	<circle cx="365.013" cy="735.443" r="4" fill="#0" id="circle44"/>
	<circle cx="374.43" cy="478.025" r="4" fill="#0" id="circle45"/>
	<circle cx="390.127" cy="506.278" r="4" fill="#0" id="circle46"/>
	<circle cx="390.127" cy="757.418" r="4" fill="#0" id="circle47"/>
	<circle cx="412.101" cy="531.392" r="4" fill="#0" id="circle48"/>
	<circle cx="412.101" cy="782.532" r="4" fill="#0" id="circle49"/>
	<circle cx="412.101" cy="845.316" r="4" fill="#0" id="circle50"/>
	<circle cx="412.101" cy="876.709" r="4" fill="#0" id="circle51"/>
	<circle cx="427.797" cy="810.785" r="4" fill="#0" id="circle52"/>
	<circle cx="427.797" cy="904.962" r="4" fill="#0" id="circle53"/>
	<circle cx="430.937" cy="556.506" r="4" fill="#0" id="circle54"/>
	<circle cx="443.494" cy="933.215" r="4" fill="#0" id="circle55"/>
	<circle cx="446.633" cy="584.759" r="4" fill="#0" id="circle56"/>
	<circle cx="462.329" cy="613.013" r="4" fill="#0" id="circle57"/>
	<circle cx="462.329" cy="958.329" r="4" fill="#0" id="circle58"/>
	<circle cx="487.443" cy="634.987" r="4" fill="#0" id="circle59"/>
	<circle cx="487.443" cy="980.304" r="4" fill="#0" id="circle60"/>
	<circle cx="515.696" cy="650.684" r="4" fill="#0" id="circle61"/>
	<circle cx="515.696" cy="996" r="4" fill="#0" id="circle62"/>
	<circle cx="540.81" cy="672.658" r="4" fill="#0" id="circle63"/>
	<circle cx="540.81" cy="901.823" r="4" fill="#0" id="circle64"/>
	<circle cx="547.089" cy="996" r="4" fill="#0" id="circle65"/>
	<circle cx="556.506" cy="930.076" r="4" fill="#0" id="circle66"/>
	<circle cx="562.785" cy="697.772" r="4" fill="#0" id="circle67"/>
	<circle cx="572.203" cy="886.127" r="4" fill="#0" id="circle68"/>
	<circle cx="572.203" cy="958.329" r="4" fill="#0" id="circle69"/>
	<circle cx="587.899" cy="719.747" r="4" fill="#0" id="circle70"/>
	<circle cx="603.595" cy="886.127" r="4" fill="#0" id="circle71"/>
	<circle cx="616.152" cy="735.443" r="4" fill="#0" id="circle72"/>
	<circle cx="634.987" cy="886.127" r="4" fill="#0" id="circle73"/>
	<circle cx="647.544" cy="741.722" r="4" fill="#0" id="circle74"/>
	<circle cx="663.241" cy="901.823" r="4" fill="#0" id="circle75"/>
	<circle cx="675.797" cy="757.418" r="4" fill="#0" id="circle76"/>
	<circle cx="682.076" cy="926.937" r="4" fill="#0" id="circle77"/>
	<circle cx="697.772" cy="782.532" r="4" fill="#0" id="circle78"/>
	<circle cx="710.329" cy="908.101" r="4" fill="#0" id="circle79"/>
	<circle cx="713.468" cy="810.785" r="4" fill="#0" id="circle80"/>
	<circle cx="713.468" cy="842.177" r="4" fill="#0" id="circle81"/>
	<circle cx="726.025" cy="876.709" r="4" fill="#0" id="circle82"/>
	</g>
</svg>