<?xml version="1.0" encoding="UTF-8" standalone="no"?>
<!-- Created with CurveBenchmark -->
<svg
	xmlns:dc="http://purl.org/dc/elements/1.1/"
	xmlns:cc="http://creativecommons.org/ns#"
	xmlns:rdf="http://www.w3.org/1999/02/22-rdf-syntax-ns#"
	xmlns:svg="http://www.w3.org/2000/svg"
	xmlns="http://www.w3.org/2000/svg"
	xmlns:sodipodi="http://sodipodi.sourceforge.net/DTD/sodipodi-0.dtd"
	xmlns:inkscape="http://www.inkscape.org/namespaces/inkscape"
	width="1000"
	height="1000"
	id="svg2"
	version="1.1"
	sodipodi:docname="manifold/discur-lmfish-9.png.txt">
<defs
	id="defs4" />
<metadata
	id="metadata7">
	<rdf:RDF>
		<cc:Work
			rdf:about="">
			<dc:format>image/svg+xml</dc:format>
			<dc:type
				rdf:resource="http://purl.org/dc/dcmitype/StillImage" />
			<dc:title></dc:title>
		</cc:Work>
	</rdf:RDF>
</metadata>
<g
	inkscape:label="Layer 1"
	inkscape:groupmode="layer"
	id="layer1">
	<path style="fill:none;stroke:red;stroke-width:1px;stroke-linecap:butt;stroke-linejoin:miter;stroke-opacity:1" d="M 4,23.1471 4,32.2647 z" id="boundary" inkscape:connector-curvature="0" />
	<path style="fill:none;stroke:red;stroke-width:1px;stroke-linecap:butt;stroke-linejoin:miter;stroke-opacity:1" d="M 4,23.1471 11.2941,15.8529 z" id="boundary" inkscape:connector-curvature="0" />
	<path style="fill:none;stroke:red;stroke-width:1px;stroke-linecap:butt;stroke-linejoin:miter;stroke-opacity:1" d="M 4,32.2647 4,41.3824 z" id="boundary" inkscape:connector-curvature="0" />
	<path style="fill:none;stroke:red;stroke-width:1px;stroke-linecap:butt;stroke-linejoin:miter;stroke-opacity:1" d="M 4,41.3824 4,50.5 z" id="boundary" inkscape:connector-curvature="0" />
	<path style="fill:none;stroke:red;stroke-width:1px;stroke-linecap:butt;stroke-linejoin:miter;stroke-opacity:1" d="M 4,50.5 4,59.6176 z" id="boundary" inkscape:connector-curvature="0" />
	<path style="fill:none;stroke:red;stroke-width:1px;stroke-linecap:butt;stroke-linejoin:miter;stroke-opacity:1" d="M 4,59.6176 4,68.7353 z" id="boundary" inkscape:connector-curvature="0" />
	<path style="fill:none;stroke:red;stroke-width:1px;stroke-linecap:butt;stroke-linejoin:miter;stroke-opacity:1" d="M 4,68.7353 4,77.8529 z" id="boundary" inkscape:connector-curvature="0" />
	<path style="fill:none;stroke:red;stroke-width:1px;stroke-linecap:butt;stroke-linejoin:miter;stroke-opacity:1" d="M 4,77.8529 8.55882,86.0588 z" id="boundary" inkscape:connector-curvature="0" />
	<path style="fill:none;stroke:red;stroke-width:1px;stroke-linecap:butt;stroke-linejoin:miter;stroke-opacity:1" d="M 8.55882,86.0588 8.55882,95.1765 z" id="boundary" inkscape:connector-curvature="0" />
	<path style="fill:none;stroke:red;stroke-width:1px;stroke-linecap:butt;stroke-linejoin:miter;stroke-opacity:1" d="M 8.55882,95.1765 13.1176,103.382 z" id="boundary" inkscape:connector-curvature="0" />
	<path style="fill:none;stroke:red;stroke-width:1px;stroke-linecap:butt;stroke-linejoin:miter;stroke-opacity:1" d="M 11.2941,15.8529 18.5882,8.55882 z" id="boundary" inkscape:connector-curvature="0" />
	<path style="fill:none;stroke:red;stroke-width:1px;stroke-linecap:butt;stroke-linejoin:miter;stroke-opacity:1" d="M 13.1176,103.382 17.6765,111.588 z" id="boundary" inkscape:connector-curvature="0" />
	<path style="fill:none;stroke:red;stroke-width:1px;stroke-linecap:butt;stroke-linejoin:miter;stroke-opacity:1" d="M 17.6765,111.588 19.5,120.706 z" id="boundary" inkscape:connector-curvature="0" />
	<path style="fill:none;stroke:red;stroke-width:1px;stroke-linecap:butt;stroke-linejoin:miter;stroke-opacity:1" d="M 18.5882,8.55882 27.7059,4 z" id="boundary" inkscape:connector-curvature="0" />
	<path style="fill:none;stroke:red;stroke-width:1px;stroke-linecap:butt;stroke-linejoin:miter;stroke-opacity:1" d="M 19.5,120.706 22.2353,129.824 z" id="boundary" inkscape:connector-curvature="0" />
	<path style="fill:none;stroke:red;stroke-width:1px;stroke-linecap:butt;stroke-linejoin:miter;stroke-opacity:1" d="M 22.2353,129.824 27.7059,137.118 z" id="boundary" inkscape:connector-curvature="0" />
	<path style="fill:none;stroke:red;stroke-width:1px;stroke-linecap:butt;stroke-linejoin:miter;stroke-opacity:1" d="M 27.7059,4 36.8235,6.73529 z" id="boundary" inkscape:connector-curvature="0" />
	<path style="fill:none;stroke:red;stroke-width:1px;stroke-linecap:butt;stroke-linejoin:miter;stroke-opacity:1" d="M 27.7059,137.118 31.3529,146.235 z" id="boundary" inkscape:connector-curvature="0" />
	<path style="fill:none;stroke:red;stroke-width:1px;stroke-linecap:butt;stroke-linejoin:miter;stroke-opacity:1" d="M 31.3529,146.235 31.3529,155.353 z" id="boundary" inkscape:connector-curvature="0" />
	<path style="fill:none;stroke:red;stroke-width:1px;stroke-linecap:butt;stroke-linejoin:miter;stroke-opacity:1" d="M 31.3529,155.353 35.9118,163.559 z" id="boundary" inkscape:connector-curvature="0" />
	<path style="fill:none;stroke:red;stroke-width:1px;stroke-linecap:butt;stroke-linejoin:miter;stroke-opacity:1" d="M 35.9118,163.559 42.2941,170.853 z" id="boundary" inkscape:connector-curvature="0" />
	<path style="fill:none;stroke:red;stroke-width:1px;stroke-linecap:butt;stroke-linejoin:miter;stroke-opacity:1" d="M 36.8235,6.73529 45.9412,9.47059 z" id="boundary" inkscape:connector-curvature="0" />
	<path style="fill:none;stroke:red;stroke-width:1px;stroke-linecap:butt;stroke-linejoin:miter;stroke-opacity:1" d="M 42.2941,170.853 46.8529,179.059 z" id="boundary" inkscape:connector-curvature="0" />
	<path style="fill:none;stroke:red;stroke-width:1px;stroke-linecap:butt;stroke-linejoin:miter;stroke-opacity:1" d="M 45.9412,9.47059 55.0588,6.73529 z" id="boundary" inkscape:connector-curvature="0" />
	<path style="fill:none;stroke:red;stroke-width:1px;stroke-linecap:butt;stroke-linejoin:miter;stroke-opacity:1" d="M 46.8529,179.059 54.1471,185.441 z" id="boundary" inkscape:connector-curvature="0" />
	<path style="fill:none;stroke:red;stroke-width:1px;stroke-linecap:butt;stroke-linejoin:miter;stroke-opacity:1" d="M 54.1471,185.441 58.7059,193.647 z" id="boundary" inkscape:connector-curvature="0" />
	<path style="fill:none;stroke:red;stroke-width:1px;stroke-linecap:butt;stroke-linejoin:miter;stroke-opacity:1" d="M 55.0588,6.73529 64.1765,6.73529 z" id="boundary" inkscape:connector-curvature="0" />
	<path style="fill:none;stroke:red;stroke-width:1px;stroke-linecap:butt;stroke-linejoin:miter;stroke-opacity:1" d="M 58.7059,193.647 63.2647,201.853 z" id="boundary" inkscape:connector-curvature="0" />
	<path style="fill:none;stroke:red;stroke-width:1px;stroke-linecap:butt;stroke-linejoin:miter;stroke-opacity:1" d="M 63.2647,201.853 67.8235,210.059 z" id="boundary" inkscape:connector-curvature="0" />
	<path style="fill:none;stroke:red;stroke-width:1px;stroke-linecap:butt;stroke-linejoin:miter;stroke-opacity:1" d="M 64.1765,6.73529 73.2941,6.73529 z" id="boundary" inkscape:connector-curvature="0" />
	<path style="fill:none;stroke:red;stroke-width:1px;stroke-linecap:butt;stroke-linejoin:miter;stroke-opacity:1" d="M 67.8235,210.059 72.3824,218.265 z" id="boundary" inkscape:connector-curvature="0" />
	<path style="fill:none;stroke:red;stroke-width:1px;stroke-linecap:butt;stroke-linejoin:miter;stroke-opacity:1" d="M 72.3824,218.265 76.9412,226.471 z" id="boundary" inkscape:connector-curvature="0" />
	<path style="fill:none;stroke:red;stroke-width:1px;stroke-linecap:butt;stroke-linejoin:miter;stroke-opacity:1" d="M 73.2941,6.73529 82.4118,9.47059 z" id="boundary" inkscape:connector-curvature="0" />
	<path style="fill:none;stroke:red;stroke-width:1px;stroke-linecap:butt;stroke-linejoin:miter;stroke-opacity:1" d="M 76.9412,226.471 81.5,234.676 z" id="boundary" inkscape:connector-curvature="0" />
	<path style="fill:none;stroke:red;stroke-width:1px;stroke-linecap:butt;stroke-linejoin:miter;stroke-opacity:1" d="M 81.5,234.676 86.9706,241.971 z" id="boundary" inkscape:connector-curvature="0" />
	<path style="fill:none;stroke:red;stroke-width:1px;stroke-linecap:butt;stroke-linejoin:miter;stroke-opacity:1" d="M 82.4118,9.47059 91.5294,11.2941 z" id="boundary" inkscape:connector-curvature="0" />
	<path style="fill:none;stroke:red;stroke-width:1px;stroke-linecap:butt;stroke-linejoin:miter;stroke-opacity:1" d="M 86.9706,241.971 93.3529,249.265 z" id="boundary" inkscape:connector-curvature="0" />
	<path style="fill:none;stroke:red;stroke-width:1px;stroke-linecap:butt;stroke-linejoin:miter;stroke-opacity:1" d="M 91.5294,11.2941 99.7353,15.8529 z" id="boundary" inkscape:connector-curvature="0" />
	<path style="fill:none;stroke:red;stroke-width:1px;stroke-linecap:butt;stroke-linejoin:miter;stroke-opacity:1" d="M 93.3529,249.265 97.9118,257.471 z" id="boundary" inkscape:connector-curvature="0" />
	<path style="fill:none;stroke:red;stroke-width:1px;stroke-linecap:butt;stroke-linejoin:miter;stroke-opacity:1" d="M 97.9118,257.471 101.559,266.588 z" id="boundary" inkscape:connector-curvature="0" />
	<path style="fill:none;stroke:red;stroke-width:1px;stroke-linecap:butt;stroke-linejoin:miter;stroke-opacity:1" d="M 99.7353,15.8529 107.941,20.4118 z" id="boundary" inkscape:connector-curvature="0" />
	<path style="fill:none;stroke:red;stroke-width:1px;stroke-linecap:butt;stroke-linejoin:miter;stroke-opacity:1" d="M 101.559,266.588 110.676,270.235 z" id="boundary" inkscape:connector-curvature="0" />
	<path style="fill:none;stroke:red;stroke-width:1px;stroke-linecap:butt;stroke-linejoin:miter;stroke-opacity:1" d="M 107.941,20.4118 117.059,20.4118 z" id="boundary" inkscape:connector-curvature="0" />
	<path style="fill:none;stroke:red;stroke-width:1px;stroke-linecap:butt;stroke-linejoin:miter;stroke-opacity:1" d="M 110.676,270.235 117.971,276.618 z" id="boundary" inkscape:connector-curvature="0" />
	<path style="fill:none;stroke:red;stroke-width:1px;stroke-linecap:butt;stroke-linejoin:miter;stroke-opacity:1" d="M 117.059,20.4118 125.265,24.9706 z" id="boundary" inkscape:connector-curvature="0" />
	<path style="fill:none;stroke:red;stroke-width:1px;stroke-linecap:butt;stroke-linejoin:miter;stroke-opacity:1" d="M 117.971,276.618 123.441,283.912 z" id="boundary" inkscape:connector-curvature="0" />
	<path style="fill:none;stroke:red;stroke-width:1px;stroke-linecap:butt;stroke-linejoin:miter;stroke-opacity:1" d="M 123.441,283.912 132.559,287.559 z" id="boundary" inkscape:connector-curvature="0" />
	<path style="fill:none;stroke:red;stroke-width:1px;stroke-linecap:butt;stroke-linejoin:miter;stroke-opacity:1" d="M 125.265,24.9706 133.471,29.5294 z" id="boundary" inkscape:connector-curvature="0" />
	<path style="fill:none;stroke:red;stroke-width:1px;stroke-linecap:butt;stroke-linejoin:miter;stroke-opacity:1" d="M 132.559,287.559 136.206,296.676 z" id="boundary" inkscape:connector-curvature="0" />
	<path style="fill:none;stroke:red;stroke-width:1px;stroke-linecap:butt;stroke-linejoin:miter;stroke-opacity:1" d="M 133.471,29.5294 141.676,34.0882 z" id="boundary" inkscape:connector-curvature="0" />
	<path style="fill:none;stroke:red;stroke-width:1px;stroke-linecap:butt;stroke-linejoin:miter;stroke-opacity:1" d="M 136.206,296.676 143.5,303.059 z" id="boundary" inkscape:connector-curvature="0" />
	<path style="fill:none;stroke:red;stroke-width:1px;stroke-linecap:butt;stroke-linejoin:miter;stroke-opacity:1" d="M 141.676,34.0882 150.794,36.8235 z" id="boundary" inkscape:connector-curvature="0" />
	<path style="fill:none;stroke:red;stroke-width:1px;stroke-linecap:butt;stroke-linejoin:miter;stroke-opacity:1" d="M 143.5,303.059 149.882,310.353 z" id="boundary" inkscape:connector-curvature="0" />
	<path style="fill:none;stroke:red;stroke-width:1px;stroke-linecap:butt;stroke-linejoin:miter;stroke-opacity:1" d="M 149.882,310.353 154.441,318.559 z" id="boundary" inkscape:connector-curvature="0" />
	<path style="fill:none;stroke:red;stroke-width:1px;stroke-linecap:butt;stroke-linejoin:miter;stroke-opacity:1" d="M 150.794,36.8235 157.176,44.1176 z" id="boundary" inkscape:connector-curvature="0" />
	<path style="fill:none;stroke:red;stroke-width:1px;stroke-linecap:butt;stroke-linejoin:miter;stroke-opacity:1" d="M 154.441,318.559 159,326.765 z" id="boundary" inkscape:connector-curvature="0" />
	<path style="fill:none;stroke:red;stroke-width:1px;stroke-linecap:butt;stroke-linejoin:miter;stroke-opacity:1" d="M 157.176,44.1176 161.735,52.3235 z" id="boundary" inkscape:connector-curvature="0" />
	<path style="fill:none;stroke:red;stroke-width:1px;stroke-linecap:butt;stroke-linejoin:miter;stroke-opacity:1" d="M 159,326.765 161.735,335.882 z" id="boundary" inkscape:connector-curvature="0" />
	<path style="fill:none;stroke:red;stroke-width:1px;stroke-linecap:butt;stroke-linejoin:miter;stroke-opacity:1" d="M 161.735,52.3235 169.941,56.8824 z" id="boundary" inkscape:connector-curvature="0" />
	<path style="fill:none;stroke:red;stroke-width:1px;stroke-linecap:butt;stroke-linejoin:miter;stroke-opacity:1" d="M 161.735,335.882 163.559,345 z" id="boundary" inkscape:connector-curvature="0" />
	<path style="fill:none;stroke:red;stroke-width:1px;stroke-linecap:butt;stroke-linejoin:miter;stroke-opacity:1" d="M 163.559,345 168.118,353.206 z" id="boundary" inkscape:connector-curvature="0" />
	<path style="fill:none;stroke:red;stroke-width:1px;stroke-linecap:butt;stroke-linejoin:miter;stroke-opacity:1" d="M 168.118,353.206 172.676,361.412 z" id="boundary" inkscape:connector-curvature="0" />
	<path style="fill:none;stroke:red;stroke-width:1px;stroke-linecap:butt;stroke-linejoin:miter;stroke-opacity:1" d="M 169.941,56.8824 177.235,63.2647 z" id="boundary" inkscape:connector-curvature="0" />
	<path style="fill:none;stroke:red;stroke-width:1px;stroke-linecap:butt;stroke-linejoin:miter;stroke-opacity:1" d="M 172.676,361.412 172.676,370.529 z" id="boundary" inkscape:connector-curvature="0" />
	<path style="fill:none;stroke:red;stroke-width:1px;stroke-linecap:butt;stroke-linejoin:miter;stroke-opacity:1" d="M 172.676,370.529 177.235,378.735 z" id="boundary" inkscape:connector-curvature="0" />
	<path style="fill:none;stroke:red;stroke-width:1px;stroke-linecap:butt;stroke-linejoin:miter;stroke-opacity:1" d="M 177.235,63.2647 191.824,73.2941 z" id="boundary" inkscape:connector-curvature="0" />
	<path style="fill:none;stroke:red;stroke-width:1px;stroke-linecap:butt;stroke-linejoin:miter;stroke-opacity:1" d="M 177.235,378.735 181.794,386.941 z" id="boundary" inkscape:connector-curvature="0" />
	<path style="fill:none;stroke:red;stroke-width:1px;stroke-linecap:butt;stroke-linejoin:miter;stroke-opacity:1" d="M 181.794,386.941 188.176,394.235 z" id="boundary" inkscape:connector-curvature="0" />
	<path style="fill:none;stroke:red;stroke-width:1px;stroke-linecap:butt;stroke-linejoin:miter;stroke-opacity:1" d="M 188.176,394.235 195.471,399.706 z" id="boundary" inkscape:connector-curvature="0" />
	<path style="fill:none;stroke:red;stroke-width:1px;stroke-linecap:butt;stroke-linejoin:miter;stroke-opacity:1" d="M 191.824,73.2941 198.206,80.5882 z" id="boundary" inkscape:connector-curvature="0" />
	<path style="fill:none;stroke:red;stroke-width:1px;stroke-linecap:butt;stroke-linejoin:miter;stroke-opacity:1" d="M 195.471,399.706 200.029,407.912 z" id="boundary" inkscape:connector-curvature="0" />
	<path style="fill:none;stroke:red;stroke-width:1px;stroke-linecap:butt;stroke-linejoin:miter;stroke-opacity:1" d="M 198.206,80.5882 205.5,86.9706 z" id="boundary" inkscape:connector-curvature="0" />
	<path style="fill:none;stroke:red;stroke-width:1px;stroke-linecap:butt;stroke-linejoin:miter;stroke-opacity:1" d="M 200.029,407.912 204.588,416.118 z" id="boundary" inkscape:connector-curvature="0" />
	<path style="fill:none;stroke:red;stroke-width:1px;stroke-linecap:butt;stroke-linejoin:miter;stroke-opacity:1" d="M 204.588,416.118 209.147,424.324 z" id="boundary" inkscape:connector-curvature="0" />
	<path style="fill:none;stroke:red;stroke-width:1px;stroke-linecap:butt;stroke-linejoin:miter;stroke-opacity:1" d="M 205.5,86.9706 213.706,91.5294 z" id="boundary" inkscape:connector-curvature="0" />
	<path style="fill:none;stroke:red;stroke-width:1px;stroke-linecap:butt;stroke-linejoin:miter;stroke-opacity:1" d="M 209.147,424.324 216.441,430.706 z" id="boundary" inkscape:connector-curvature="0" />
	<path style="fill:none;stroke:red;stroke-width:1px;stroke-linecap:butt;stroke-linejoin:miter;stroke-opacity:1" d="M 213.706,91.5294 221,97.9118 z" id="boundary" inkscape:connector-curvature="0" />
	<path style="fill:none;stroke:red;stroke-width:1px;stroke-linecap:butt;stroke-linejoin:miter;stroke-opacity:1" d="M 216.441,430.706 223.735,436.176 z" id="boundary" inkscape:connector-curvature="0" />
	<path style="fill:none;stroke:red;stroke-width:1px;stroke-linecap:butt;stroke-linejoin:miter;stroke-opacity:1" d="M 221,97.9118 234.676,111.588 z" id="boundary" inkscape:connector-curvature="0" />
	<path style="fill:none;stroke:red;stroke-width:1px;stroke-linecap:butt;stroke-linejoin:miter;stroke-opacity:1" d="M 223.735,436.176 232.853,452.588 z" id="boundary" inkscape:connector-curvature="0" />
	<path style="fill:none;stroke:red;stroke-width:1px;stroke-linecap:butt;stroke-linejoin:miter;stroke-opacity:1" d="M 232.853,452.588 240.147,458.971 z" id="boundary" inkscape:connector-curvature="0" />
	<path style="fill:none;stroke:red;stroke-width:1px;stroke-linecap:butt;stroke-linejoin:miter;stroke-opacity:1" d="M 234.676,111.588 241.059,118.882 z" id="boundary" inkscape:connector-curvature="0" />
	<path style="fill:none;stroke:red;stroke-width:1px;stroke-linecap:butt;stroke-linejoin:miter;stroke-opacity:1" d="M 240.147,458.971 246.529,466.265 z" id="boundary" inkscape:connector-curvature="0" />
	<path style="fill:none;stroke:red;stroke-width:1px;stroke-linecap:butt;stroke-linejoin:miter;stroke-opacity:1" d="M 241.059,118.882 248.353,125.265 z" id="boundary" inkscape:connector-curvature="0" />
	<path style="fill:none;stroke:red;stroke-width:1px;stroke-linecap:butt;stroke-linejoin:miter;stroke-opacity:1" d="M 246.529,466.265 260.206,479.941 z" id="boundary" inkscape:connector-curvature="0" />
	<path style="fill:none;stroke:red;stroke-width:1px;stroke-linecap:butt;stroke-linejoin:miter;stroke-opacity:1" d="M 248.353,125.265 262.029,138.941 z" id="boundary" inkscape:connector-curvature="0" />
	<path style="fill:none;stroke:red;stroke-width:1px;stroke-linecap:butt;stroke-linejoin:miter;stroke-opacity:1" d="M 260.206,479.941 267.5,486.324 z" id="boundary" inkscape:connector-curvature="0" />
	<path style="fill:none;stroke:red;stroke-width:1px;stroke-linecap:butt;stroke-linejoin:miter;stroke-opacity:1" d="M 262.029,138.941 268.412,146.235 z" id="boundary" inkscape:connector-curvature="0" />
	<path style="fill:none;stroke:red;stroke-width:1px;stroke-linecap:butt;stroke-linejoin:miter;stroke-opacity:1" d="M 267.5,486.324 281.176,500 z" id="boundary" inkscape:connector-curvature="0" />
	<path style="fill:none;stroke:red;stroke-width:1px;stroke-linecap:butt;stroke-linejoin:miter;stroke-opacity:1" d="M 268.412,146.235 275.706,152.618 z" id="boundary" inkscape:connector-curvature="0" />
	<path style="fill:none;stroke:red;stroke-width:1px;stroke-linecap:butt;stroke-linejoin:miter;stroke-opacity:1" d="M 269.324,449.853 273.882,458.059 z" id="boundary" inkscape:connector-curvature="0" />
	<path style="fill:none;stroke:red;stroke-width:1px;stroke-linecap:butt;stroke-linejoin:miter;stroke-opacity:1" d="M 269.324,449.853 277.529,445.294 z" id="boundary" inkscape:connector-curvature="0" />
	<path style="fill:none;stroke:red;stroke-width:1px;stroke-linecap:butt;stroke-linejoin:miter;stroke-opacity:1" d="M 273.882,458.059 278.441,466.265 z" id="boundary" inkscape:connector-curvature="0" />
	<path style="fill:none;stroke:red;stroke-width:1px;stroke-linecap:butt;stroke-linejoin:miter;stroke-opacity:1" d="M 275.706,152.618 282.088,159.912 z" id="boundary" inkscape:connector-curvature="0" />
	<path style="fill:none;stroke:red;stroke-width:1px;stroke-linecap:butt;stroke-linejoin:miter;stroke-opacity:1" d="M 277.529,445.294 283,452.588 z" id="boundary" inkscape:connector-curvature="0" />
	<path style="fill:none;stroke:red;stroke-width:1px;stroke-linecap:butt;stroke-linejoin:miter;stroke-opacity:1" d="M 278.441,466.265 283,474.471 z" id="boundary" inkscape:connector-curvature="0" />
	<path style="fill:none;stroke:red;stroke-width:1px;stroke-linecap:butt;stroke-linejoin:miter;stroke-opacity:1" d="M 281.176,500 287.559,492.706 z" id="boundary" inkscape:connector-curvature="0" />
	<path style="fill:none;stroke:red;stroke-width:1px;stroke-linecap:butt;stroke-linejoin:miter;stroke-opacity:1" d="M 282.088,159.912 289.382,166.294 z" id="boundary" inkscape:connector-curvature="0" />
	<path style="fill:none;stroke:red;stroke-width:1px;stroke-linecap:butt;stroke-linejoin:miter;stroke-opacity:1" d="M 283,452.588 290.294,458.971 z" id="boundary" inkscape:connector-curvature="0" />
	<path style="fill:none;stroke:red;stroke-width:1px;stroke-linecap:butt;stroke-linejoin:miter;stroke-opacity:1" d="M 283,474.471 286.647,483.588 z" id="boundary" inkscape:connector-curvature="0" />
	<path style="fill:none;stroke:red;stroke-width:1px;stroke-linecap:butt;stroke-linejoin:miter;stroke-opacity:1" d="M 286.647,483.588 287.559,492.706 z" id="boundary" inkscape:connector-curvature="0" />
	<path style="fill:none;stroke:red;stroke-width:1px;stroke-linecap:butt;stroke-linejoin:miter;stroke-opacity:1" d="M 289.382,166.294 295.765,173.588 z" id="boundary" inkscape:connector-curvature="0" />
	<path style="fill:none;stroke:red;stroke-width:1px;stroke-linecap:butt;stroke-linejoin:miter;stroke-opacity:1" d="M 290.294,458.971 295.765,466.265 z" id="boundary" inkscape:connector-curvature="0" />
	<path style="fill:none;stroke:red;stroke-width:1px;stroke-linecap:butt;stroke-linejoin:miter;stroke-opacity:1" d="M 295.765,173.588 300.324,181.794 z" id="boundary" inkscape:connector-curvature="0" />
	<path style="fill:none;stroke:red;stroke-width:1px;stroke-linecap:butt;stroke-linejoin:miter;stroke-opacity:1" d="M 295.765,466.265 296.676,475.382 z" id="boundary" inkscape:connector-curvature="0" />
	<path style="fill:none;stroke:red;stroke-width:1px;stroke-linecap:butt;stroke-linejoin:miter;stroke-opacity:1" d="M 296.676,475.382 307.618,490.882 z" id="boundary" inkscape:connector-curvature="0" />
	<path style="fill:none;stroke:red;stroke-width:1px;stroke-linecap:butt;stroke-linejoin:miter;stroke-opacity:1" d="M 300.324,181.794 313.088,194.559 z" id="boundary" inkscape:connector-curvature="0" />
	<path style="fill:none;stroke:red;stroke-width:1px;stroke-linecap:butt;stroke-linejoin:miter;stroke-opacity:1" d="M 307.618,490.882 312.176,499.088 z" id="boundary" inkscape:connector-curvature="0" />
	<path style="fill:none;stroke:red;stroke-width:1px;stroke-linecap:butt;stroke-linejoin:miter;stroke-opacity:1" d="M 312.176,499.088 318.559,506.382 z" id="boundary" inkscape:connector-curvature="0" />
	<path style="fill:none;stroke:red;stroke-width:1px;stroke-linecap:butt;stroke-linejoin:miter;stroke-opacity:1" d="M 313.088,194.559 317.647,202.765 z" id="boundary" inkscape:connector-curvature="0" />
	<path style="fill:none;stroke:red;stroke-width:1px;stroke-linecap:butt;stroke-linejoin:miter;stroke-opacity:1" d="M 317.647,202.765 324.029,210.059 z" id="boundary" inkscape:connector-curvature="0" />
	<path style="fill:none;stroke:red;stroke-width:1px;stroke-linecap:butt;stroke-linejoin:miter;stroke-opacity:1" d="M 318.559,506.382 323.118,514.588 z" id="boundary" inkscape:connector-curvature="0" />
	<path style="fill:none;stroke:red;stroke-width:1px;stroke-linecap:butt;stroke-linejoin:miter;stroke-opacity:1" d="M 323.118,514.588 334.059,530.088 z" id="boundary" inkscape:connector-curvature="0" />
	<path style="fill:none;stroke:red;stroke-width:1px;stroke-linecap:butt;stroke-linejoin:miter;stroke-opacity:1" d="M 324.029,210.059 332.235,214.618 z" id="boundary" inkscape:connector-curvature="0" />
	<path style="fill:none;stroke:red;stroke-width:1px;stroke-linecap:butt;stroke-linejoin:miter;stroke-opacity:1" d="M 332.235,214.618 341.353,218.265 z" id="boundary" inkscape:connector-curvature="0" />
	<path style="fill:none;stroke:red;stroke-width:1px;stroke-linecap:butt;stroke-linejoin:miter;stroke-opacity:1" d="M 334.059,530.088 341.353,536.471 z" id="boundary" inkscape:connector-curvature="0" />
	<path style="fill:none;stroke:red;stroke-width:1px;stroke-linecap:butt;stroke-linejoin:miter;stroke-opacity:1" d="M 341.353,218.265 350.471,221 z" id="boundary" inkscape:connector-curvature="0" />
	<path style="fill:none;stroke:red;stroke-width:1px;stroke-linecap:butt;stroke-linejoin:miter;stroke-opacity:1" d="M 341.353,536.471 355.941,545.588 z" id="boundary" inkscape:connector-curvature="0" />
	<path style="fill:none;stroke:red;stroke-width:1px;stroke-linecap:butt;stroke-linejoin:miter;stroke-opacity:1" d="M 350.471,221 359.588,221 z" id="boundary" inkscape:connector-curvature="0" />
	<path style="fill:none;stroke:red;stroke-width:1px;stroke-linecap:butt;stroke-linejoin:miter;stroke-opacity:1" d="M 355.941,545.588 364.147,550.147 z" id="boundary" inkscape:connector-curvature="0" />
	<path style="fill:none;stroke:red;stroke-width:1px;stroke-linecap:butt;stroke-linejoin:miter;stroke-opacity:1" d="M 359.588,221 367.794,225.559 z" id="boundary" inkscape:connector-curvature="0" />
	<path style="fill:none;stroke:red;stroke-width:1px;stroke-linecap:butt;stroke-linejoin:miter;stroke-opacity:1" d="M 364.147,550.147 368.706,558.353 z" id="boundary" inkscape:connector-curvature="0" />
	<path style="fill:none;stroke:red;stroke-width:1px;stroke-linecap:butt;stroke-linejoin:miter;stroke-opacity:1" d="M 367.794,225.559 376,230.118 z" id="boundary" inkscape:connector-curvature="0" />
	<path style="fill:none;stroke:red;stroke-width:1px;stroke-linecap:butt;stroke-linejoin:miter;stroke-opacity:1" d="M 368.706,558.353 368.706,567.471 z" id="boundary" inkscape:connector-curvature="0" />
	<path style="fill:none;stroke:red;stroke-width:1px;stroke-linecap:butt;stroke-linejoin:miter;stroke-opacity:1" d="M 368.706,567.471 373.265,575.676 z" id="boundary" inkscape:connector-curvature="0" />
	<path style="fill:none;stroke:red;stroke-width:1px;stroke-linecap:butt;stroke-linejoin:miter;stroke-opacity:1" d="M 373.265,575.676 374.176,584.794 z" id="boundary" inkscape:connector-curvature="0" />
	<path style="fill:none;stroke:red;stroke-width:1px;stroke-linecap:butt;stroke-linejoin:miter;stroke-opacity:1" d="M 374.176,584.794 378.735,593 z" id="boundary" inkscape:connector-curvature="0" />
	<path style="fill:none;stroke:red;stroke-width:1px;stroke-linecap:butt;stroke-linejoin:miter;stroke-opacity:1" d="M 376,230.118 385.118,230.118 z" id="boundary" inkscape:connector-curvature="0" />
	<path style="fill:none;stroke:red;stroke-width:1px;stroke-linecap:butt;stroke-linejoin:miter;stroke-opacity:1" d="M 378.735,593 382.382,602.118 z" id="boundary" inkscape:connector-curvature="0" />
	<path style="fill:none;stroke:red;stroke-width:1px;stroke-linecap:butt;stroke-linejoin:miter;stroke-opacity:1" d="M 382.382,602.118 393.324,617.618 z" id="boundary" inkscape:connector-curvature="0" />
	<path style="fill:none;stroke:red;stroke-width:1px;stroke-linecap:butt;stroke-linejoin:miter;stroke-opacity:1" d="M 385.118,230.118 394.235,230.118 z" id="boundary" inkscape:connector-curvature="0" />
	<path style="fill:none;stroke:red;stroke-width:1px;stroke-linecap:butt;stroke-linejoin:miter;stroke-opacity:1" d="M 393.324,617.618 403.353,632.206 z" id="boundary" inkscape:connector-curvature="0" />
	<path style="fill:none;stroke:red;stroke-width:1px;stroke-linecap:butt;stroke-linejoin:miter;stroke-opacity:1" d="M 394.235,230.118 403.353,230.118 z" id="boundary" inkscape:connector-curvature="0" />
	<path style="fill:none;stroke:red;stroke-width:1px;stroke-linecap:butt;stroke-linejoin:miter;stroke-opacity:1" d="M 403.353,230.118 411.559,234.676 z" id="boundary" inkscape:connector-curvature="0" />
	<path style="fill:none;stroke:red;stroke-width:1px;stroke-linecap:butt;stroke-linejoin:miter;stroke-opacity:1" d="M 403.353,632.206 405.176,641.324 z" id="boundary" inkscape:connector-curvature="0" />
	<path style="fill:none;stroke:red;stroke-width:1px;stroke-linecap:butt;stroke-linejoin:miter;stroke-opacity:1" d="M 405.176,641.324 409.735,649.529 z" id="boundary" inkscape:connector-curvature="0" />
	<path style="fill:none;stroke:red;stroke-width:1px;stroke-linecap:butt;stroke-linejoin:miter;stroke-opacity:1" d="M 409.735,649.529 414.294,657.735 z" id="boundary" inkscape:connector-curvature="0" />
	<path style="fill:none;stroke:red;stroke-width:1px;stroke-linecap:butt;stroke-linejoin:miter;stroke-opacity:1" d="M 411.559,234.676 419.765,239.235 z" id="boundary" inkscape:connector-curvature="0" />
	<path style="fill:none;stroke:red;stroke-width:1px;stroke-linecap:butt;stroke-linejoin:miter;stroke-opacity:1" d="M 414.294,657.735 418.853,665.941 z" id="boundary" inkscape:connector-curvature="0" />
	<path style="fill:none;stroke:red;stroke-width:1px;stroke-linecap:butt;stroke-linejoin:miter;stroke-opacity:1" d="M 418.853,665.941 426.147,672.324 z" id="boundary" inkscape:connector-curvature="0" />
	<path style="fill:none;stroke:red;stroke-width:1px;stroke-linecap:butt;stroke-linejoin:miter;stroke-opacity:1" d="M 419.765,239.235 428.882,241.971 z" id="boundary" inkscape:connector-curvature="0" />
	<path style="fill:none;stroke:red;stroke-width:1px;stroke-linecap:butt;stroke-linejoin:miter;stroke-opacity:1" d="M 426.147,672.324 433.441,677.794 z" id="boundary" inkscape:connector-curvature="0" />
	<path style="fill:none;stroke:red;stroke-width:1px;stroke-linecap:butt;stroke-linejoin:miter;stroke-opacity:1" d="M 428.882,241.971 437.088,246.529 z" id="boundary" inkscape:connector-curvature="0" />
	<path style="fill:none;stroke:red;stroke-width:1px;stroke-linecap:butt;stroke-linejoin:miter;stroke-opacity:1" d="M 433.441,677.794 438.912,685.088 z" id="boundary" inkscape:connector-curvature="0" />
	<path style="fill:none;stroke:red;stroke-width:1px;stroke-linecap:butt;stroke-linejoin:miter;stroke-opacity:1" d="M 437.088,246.529 446.206,250.176 z" id="boundary" inkscape:connector-curvature="0" />
	<path style="fill:none;stroke:red;stroke-width:1px;stroke-linecap:butt;stroke-linejoin:miter;stroke-opacity:1" d="M 438.912,685.088 451.676,698.765 z" id="boundary" inkscape:connector-curvature="0" />
	<path style="fill:none;stroke:red;stroke-width:1px;stroke-linecap:butt;stroke-linejoin:miter;stroke-opacity:1" d="M 446.206,250.176 454.412,254.735 z" id="boundary" inkscape:connector-curvature="0" />
	<path style="fill:none;stroke:red;stroke-width:1px;stroke-linecap:butt;stroke-linejoin:miter;stroke-opacity:1" d="M 451.676,698.765 460.794,702.412 z" id="boundary" inkscape:connector-curvature="0" />
	<path style="fill:none;stroke:red;stroke-width:1px;stroke-linecap:butt;stroke-linejoin:miter;stroke-opacity:1" d="M 454.412,254.735 469,266.588 z" id="boundary" inkscape:connector-curvature="0" />
	<path style="fill:none;stroke:red;stroke-width:1px;stroke-linecap:butt;stroke-linejoin:miter;stroke-opacity:1" d="M 460.794,702.412 469,706.971 z" id="boundary" inkscape:connector-curvature="0" />
	<path style="fill:none;stroke:red;stroke-width:1px;stroke-linecap:butt;stroke-linejoin:miter;stroke-opacity:1" d="M 469,266.588 476.294,272.059 z" id="boundary" inkscape:connector-curvature="0" />
	<path style="fill:none;stroke:red;stroke-width:1px;stroke-linecap:butt;stroke-linejoin:miter;stroke-opacity:1" d="M 469,706.971 476.294,713.353 z" id="boundary" inkscape:connector-curvature="0" />
	<path style="fill:none;stroke:red;stroke-width:1px;stroke-linecap:butt;stroke-linejoin:miter;stroke-opacity:1" d="M 474.471,367.794 479.029,376 z" id="boundary" inkscape:connector-curvature="0" />
	<path style="fill:none;stroke:red;stroke-width:1px;stroke-linecap:butt;stroke-linejoin:miter;stroke-opacity:1" d="M 474.471,367.794 492.706,363.235 z" id="boundary" inkscape:connector-curvature="0" />
	<path style="fill:none;stroke:red;stroke-width:1px;stroke-linecap:butt;stroke-linejoin:miter;stroke-opacity:1" d="M 476.294,272.059 483.588,278.441 z" id="boundary" inkscape:connector-curvature="0" />
	<path style="fill:none;stroke:red;stroke-width:1px;stroke-linecap:butt;stroke-linejoin:miter;stroke-opacity:1" d="M 476.294,713.353 485.412,714.265 z" id="boundary" inkscape:connector-curvature="0" />
	<path style="fill:none;stroke:red;stroke-width:1px;stroke-linecap:butt;stroke-linejoin:miter;stroke-opacity:1" d="M 479.029,376 483.588,367.794 z" id="boundary" inkscape:connector-curvature="0" />
	<path style="fill:none;stroke:red;stroke-width:1px;stroke-linecap:butt;stroke-linejoin:miter;stroke-opacity:1" d="M 483.588,278.441 483.588,287.559 z" id="boundary" inkscape:connector-curvature="0" />
	<path style="fill:none;stroke:red;stroke-width:1px;stroke-linecap:butt;stroke-linejoin:miter;stroke-opacity:1" d="M 483.588,287.559 489.971,294.853 z" id="boundary" inkscape:connector-curvature="0" />
	<path style="fill:none;stroke:red;stroke-width:1px;stroke-linecap:butt;stroke-linejoin:miter;stroke-opacity:1" d="M 483.588,367.794 488.147,376 z" id="boundary" inkscape:connector-curvature="0" />
	<path style="fill:none;stroke:red;stroke-width:1px;stroke-linecap:butt;stroke-linejoin:miter;stroke-opacity:1" d="M 485.412,714.265 493.618,718.824 z" id="boundary" inkscape:connector-curvature="0" />
	<path style="fill:none;stroke:red;stroke-width:1px;stroke-linecap:butt;stroke-linejoin:miter;stroke-opacity:1" d="M 488.147,376 496.353,380.559 z" id="boundary" inkscape:connector-curvature="0" />
	<path style="fill:none;stroke:red;stroke-width:1px;stroke-linecap:butt;stroke-linejoin:miter;stroke-opacity:1" d="M 489.971,294.853 494.529,303.059 z" id="boundary" inkscape:connector-curvature="0" />
	<path style="fill:none;stroke:red;stroke-width:1px;stroke-linecap:butt;stroke-linejoin:miter;stroke-opacity:1" d="M 492.706,363.235 501.824,358.676 z" id="boundary" inkscape:connector-curvature="0" />
	<path style="fill:none;stroke:red;stroke-width:1px;stroke-linecap:butt;stroke-linejoin:miter;stroke-opacity:1" d="M 493.618,718.824 507.294,731.588 z" id="boundary" inkscape:connector-curvature="0" />
	<path style="fill:none;stroke:red;stroke-width:1px;stroke-linecap:butt;stroke-linejoin:miter;stroke-opacity:1" d="M 494.529,303.059 497.265,312.176 z" id="boundary" inkscape:connector-curvature="0" />
	<path style="fill:none;stroke:red;stroke-width:1px;stroke-linecap:butt;stroke-linejoin:miter;stroke-opacity:1" d="M 496.353,380.559 504.559,385.118 z" id="boundary" inkscape:connector-curvature="0" />
	<path style="fill:none;stroke:red;stroke-width:1px;stroke-linecap:butt;stroke-linejoin:miter;stroke-opacity:1" d="M 497.265,312.176 504.559,317.647 z" id="boundary" inkscape:connector-curvature="0" />
	<path style="fill:none;stroke:red;stroke-width:1px;stroke-linecap:butt;stroke-linejoin:miter;stroke-opacity:1" d="M 501.824,358.676 506.382,349.559 z" id="boundary" inkscape:connector-curvature="0" />
	<path style="fill:none;stroke:red;stroke-width:1px;stroke-linecap:butt;stroke-linejoin:miter;stroke-opacity:1" d="M 504.559,317.647 510.941,334.059 z" id="boundary" inkscape:connector-curvature="0" />
	<path style="fill:none;stroke:red;stroke-width:1px;stroke-linecap:butt;stroke-linejoin:miter;stroke-opacity:1" d="M 504.559,385.118 513.676,385.118 z" id="boundary" inkscape:connector-curvature="0" />
	<path style="fill:none;stroke:red;stroke-width:1px;stroke-linecap:butt;stroke-linejoin:miter;stroke-opacity:1" d="M 506.382,349.559 510.941,334.059 z" id="boundary" inkscape:connector-curvature="0" />
	<path style="fill:none;stroke:red;stroke-width:1px;stroke-linecap:butt;stroke-linejoin:miter;stroke-opacity:1" d="M 507.294,731.588 514.588,737.059 z" id="boundary" inkscape:connector-curvature="0" />
	<path style="fill:none;stroke:red;stroke-width:1px;stroke-linecap:butt;stroke-linejoin:miter;stroke-opacity:1" d="M 513.676,385.118 522.794,386.029 z" id="boundary" inkscape:connector-curvature="0" />
	<path style="fill:none;stroke:red;stroke-width:1px;stroke-linecap:butt;stroke-linejoin:miter;stroke-opacity:1" d="M 514.588,737.059 522.794,741.618 z" id="boundary" inkscape:connector-curvature="0" />
	<path style="fill:none;stroke:red;stroke-width:1px;stroke-linecap:butt;stroke-linejoin:miter;stroke-opacity:1" d="M 522.794,386.029 531,390.588 z" id="boundary" inkscape:connector-curvature="0" />
	<path style="fill:none;stroke:red;stroke-width:1px;stroke-linecap:butt;stroke-linejoin:miter;stroke-opacity:1" d="M 522.794,741.618 529.176,748.912 z" id="boundary" inkscape:connector-curvature="0" />
	<path style="fill:none;stroke:red;stroke-width:1px;stroke-linecap:butt;stroke-linejoin:miter;stroke-opacity:1" d="M 529.176,748.912 536.471,755.294 z" id="boundary" inkscape:connector-curvature="0" />
	<path style="fill:none;stroke:red;stroke-width:1px;stroke-linecap:butt;stroke-linejoin:miter;stroke-opacity:1" d="M 531,390.588 540.118,394.235 z" id="boundary" inkscape:connector-curvature="0" />
	<path style="fill:none;stroke:red;stroke-width:1px;stroke-linecap:butt;stroke-linejoin:miter;stroke-opacity:1" d="M 536.471,755.294 544.676,759.853 z" id="boundary" inkscape:connector-curvature="0" />
	<path style="fill:none;stroke:red;stroke-width:1px;stroke-linecap:butt;stroke-linejoin:miter;stroke-opacity:1" d="M 540.118,394.235 548.324,398.794 z" id="boundary" inkscape:connector-curvature="0" />
	<path style="fill:none;stroke:red;stroke-width:1px;stroke-linecap:butt;stroke-linejoin:miter;stroke-opacity:1" d="M 544.676,759.853 552.882,764.412 z" id="boundary" inkscape:connector-curvature="0" />
	<path style="fill:none;stroke:red;stroke-width:1px;stroke-linecap:butt;stroke-linejoin:miter;stroke-opacity:1" d="M 548.324,398.794 556.529,403.353 z" id="boundary" inkscape:connector-curvature="0" />
	<path style="fill:none;stroke:red;stroke-width:1px;stroke-linecap:butt;stroke-linejoin:miter;stroke-opacity:1" d="M 552.882,764.412 560.176,769.882 z" id="boundary" inkscape:connector-curvature="0" />
	<path style="fill:none;stroke:red;stroke-width:1px;stroke-linecap:butt;stroke-linejoin:miter;stroke-opacity:1" d="M 556.529,403.353 564.735,407.912 z" id="boundary" inkscape:connector-curvature="0" />
	<path style="fill:none;stroke:red;stroke-width:1px;stroke-linecap:butt;stroke-linejoin:miter;stroke-opacity:1" d="M 560.176,769.882 569.294,773.529 z" id="boundary" inkscape:connector-curvature="0" />
	<path style="fill:none;stroke:red;stroke-width:1px;stroke-linecap:butt;stroke-linejoin:miter;stroke-opacity:1" d="M 564.735,407.912 572.941,412.471 z" id="boundary" inkscape:connector-curvature="0" />
	<path style="fill:none;stroke:red;stroke-width:1px;stroke-linecap:butt;stroke-linejoin:miter;stroke-opacity:1" d="M 569.294,773.529 583.882,784.471 z" id="boundary" inkscape:connector-curvature="0" />
	<path style="fill:none;stroke:red;stroke-width:1px;stroke-linecap:butt;stroke-linejoin:miter;stroke-opacity:1" d="M 572.941,412.471 582.059,413.382 z" id="boundary" inkscape:connector-curvature="0" />
	<path style="fill:none;stroke:red;stroke-width:1px;stroke-linecap:butt;stroke-linejoin:miter;stroke-opacity:1" d="M 582.059,413.382 590.265,417.941 z" id="boundary" inkscape:connector-curvature="0" />
	<path style="fill:none;stroke:red;stroke-width:1px;stroke-linecap:butt;stroke-linejoin:miter;stroke-opacity:1" d="M 583.882,784.471 592.088,789.029 z" id="boundary" inkscape:connector-curvature="0" />
	<path style="fill:none;stroke:red;stroke-width:1px;stroke-linecap:butt;stroke-linejoin:miter;stroke-opacity:1" d="M 590.265,417.941 597.559,424.324 z" id="boundary" inkscape:connector-curvature="0" />
	<path style="fill:none;stroke:red;stroke-width:1px;stroke-linecap:butt;stroke-linejoin:miter;stroke-opacity:1" d="M 592.088,789.029 599.382,795.412 z" id="boundary" inkscape:connector-curvature="0" />
	<path style="fill:none;stroke:red;stroke-width:1px;stroke-linecap:butt;stroke-linejoin:miter;stroke-opacity:1" d="M 597.559,424.324 613.059,435.265 z" id="boundary" inkscape:connector-curvature="0" />
	<path style="fill:none;stroke:red;stroke-width:1px;stroke-linecap:butt;stroke-linejoin:miter;stroke-opacity:1" d="M 599.382,795.412 607.588,799.971 z" id="boundary" inkscape:connector-curvature="0" />
	<path style="fill:none;stroke:red;stroke-width:1px;stroke-linecap:butt;stroke-linejoin:miter;stroke-opacity:1" d="M 607.588,799.971 616.706,803.618 z" id="boundary" inkscape:connector-curvature="0" />
	<path style="fill:none;stroke:red;stroke-width:1px;stroke-linecap:butt;stroke-linejoin:miter;stroke-opacity:1" d="M 613.059,435.265 615.794,444.382 z" id="boundary" inkscape:connector-curvature="0" />
	<path style="fill:none;stroke:red;stroke-width:1px;stroke-linecap:butt;stroke-linejoin:miter;stroke-opacity:1" d="M 615.794,444.382 623.088,449.853 z" id="boundary" inkscape:connector-curvature="0" />
	<path style="fill:none;stroke:red;stroke-width:1px;stroke-linecap:butt;stroke-linejoin:miter;stroke-opacity:1" d="M 616.706,803.618 624.912,808.176 z" id="boundary" inkscape:connector-curvature="0" />
	<path style="fill:none;stroke:red;stroke-width:1px;stroke-linecap:butt;stroke-linejoin:miter;stroke-opacity:1" d="M 623.088,449.853 629.471,457.147 z" id="boundary" inkscape:connector-curvature="0" />
	<path style="fill:none;stroke:red;stroke-width:1px;stroke-linecap:butt;stroke-linejoin:miter;stroke-opacity:1" d="M 624.912,808.176 634.029,811.824 z" id="boundary" inkscape:connector-curvature="0" />
	<path style="fill:none;stroke:red;stroke-width:1px;stroke-linecap:butt;stroke-linejoin:miter;stroke-opacity:1" d="M 629.471,457.147 636.765,463.529 z" id="boundary" inkscape:connector-curvature="0" />
	<path style="fill:none;stroke:red;stroke-width:1px;stroke-linecap:butt;stroke-linejoin:miter;stroke-opacity:1" d="M 634.029,811.824 643.147,814.559 z" id="boundary" inkscape:connector-curvature="0" />
	<path style="fill:none;stroke:red;stroke-width:1px;stroke-linecap:butt;stroke-linejoin:miter;stroke-opacity:1" d="M 636.765,463.529 647.706,479.029 z" id="boundary" inkscape:connector-curvature="0" />
	<path style="fill:none;stroke:red;stroke-width:1px;stroke-linecap:butt;stroke-linejoin:miter;stroke-opacity:1" d="M 643.147,814.559 651.353,819.118 z" id="boundary" inkscape:connector-curvature="0" />
	<path style="fill:none;stroke:red;stroke-width:1px;stroke-linecap:butt;stroke-linejoin:miter;stroke-opacity:1" d="M 647.706,479.029 652.265,487.235 z" id="boundary" inkscape:connector-curvature="0" />
	<path style="fill:none;stroke:red;stroke-width:1px;stroke-linecap:butt;stroke-linejoin:miter;stroke-opacity:1" d="M 651.353,819.118 656.824,826.412 z" id="boundary" inkscape:connector-curvature="0" />
	<path style="fill:none;stroke:red;stroke-width:1px;stroke-linecap:butt;stroke-linejoin:miter;stroke-opacity:1" d="M 652.265,487.235 656.824,495.441 z" id="boundary" inkscape:connector-curvature="0" />
	<path style="fill:none;stroke:red;stroke-width:1px;stroke-linecap:butt;stroke-linejoin:miter;stroke-opacity:1" d="M 656.824,495.441 670.5,508.206 z" id="boundary" inkscape:connector-curvature="0" />
	<path style="fill:none;stroke:red;stroke-width:1px;stroke-linecap:butt;stroke-linejoin:miter;stroke-opacity:1" d="M 656.824,826.412 665.941,828.235 z" id="boundary" inkscape:connector-curvature="0" />
	<path style="fill:none;stroke:red;stroke-width:1px;stroke-linecap:butt;stroke-linejoin:miter;stroke-opacity:1" d="M 665.941,828.235 674.147,832.794 z" id="boundary" inkscape:connector-curvature="0" />
	<path style="fill:none;stroke:red;stroke-width:1px;stroke-linecap:butt;stroke-linejoin:miter;stroke-opacity:1" d="M 670.5,508.206 675.059,516.412 z" id="boundary" inkscape:connector-curvature="0" />
	<path style="fill:none;stroke:red;stroke-width:1px;stroke-linecap:butt;stroke-linejoin:miter;stroke-opacity:1" d="M 670.5,787.206 672.324,796.324 z" id="boundary" inkscape:connector-curvature="0" />
	<path style="fill:none;stroke:red;stroke-width:1px;stroke-linecap:butt;stroke-linejoin:miter;stroke-opacity:1" d="M 670.5,787.206 679.618,789.029 z" id="boundary" inkscape:connector-curvature="0" />
	<path style="fill:none;stroke:red;stroke-width:1px;stroke-linecap:butt;stroke-linejoin:miter;stroke-opacity:1" d="M 672.324,796.324 679.618,802.706 z" id="boundary" inkscape:connector-curvature="0" />
	<path style="fill:none;stroke:red;stroke-width:1px;stroke-linecap:butt;stroke-linejoin:miter;stroke-opacity:1" d="M 674.147,832.794 683.265,830.059 z" id="boundary" inkscape:connector-curvature="0" />
	<path style="fill:none;stroke:red;stroke-width:1px;stroke-linecap:butt;stroke-linejoin:miter;stroke-opacity:1" d="M 675.059,516.412 679.618,524.618 z" id="boundary" inkscape:connector-curvature="0" />
	<path style="fill:none;stroke:red;stroke-width:1px;stroke-linecap:butt;stroke-linejoin:miter;stroke-opacity:1" d="M 679.618,524.618 686,531.912 z" id="boundary" inkscape:connector-curvature="0" />
	<path style="fill:none;stroke:red;stroke-width:1px;stroke-linecap:butt;stroke-linejoin:miter;stroke-opacity:1" d="M 679.618,802.706 686.912,796.324 z" id="boundary" inkscape:connector-curvature="0" />
	<path style="fill:none;stroke:red;stroke-width:1px;stroke-linecap:butt;stroke-linejoin:miter;stroke-opacity:1" d="M 679.618,811.824 683.265,820.941 z" id="boundary" inkscape:connector-curvature="0" />
	<path style="fill:none;stroke:red;stroke-width:1px;stroke-linecap:butt;stroke-linejoin:miter;stroke-opacity:1" d="M 679.618,811.824 686.912,796.324 z" id="boundary" inkscape:connector-curvature="0" />
	<path style="fill:none;stroke:red;stroke-width:1px;stroke-linecap:butt;stroke-linejoin:miter;stroke-opacity:1" d="M 683.265,820.941 683.265,830.059 z" id="boundary" inkscape:connector-curvature="0" />
	<path style="fill:none;stroke:red;stroke-width:1px;stroke-linecap:butt;stroke-linejoin:miter;stroke-opacity:1" d="M 686,531.912 697.853,546.5 z" id="boundary" inkscape:connector-curvature="0" />
	<path style="fill:none;stroke:red;stroke-width:1px;stroke-linecap:butt;stroke-linejoin:miter;stroke-opacity:1" d="M 697.853,546.5 703.324,553.794 z" id="boundary" inkscape:connector-curvature="0" />
	<path style="fill:none;stroke:red;stroke-width:1px;stroke-linecap:butt;stroke-linejoin:miter;stroke-opacity:1" d="M 700.588,810 706.971,817.294 z" id="boundary" inkscape:connector-curvature="0" />
	<path style="fill:none;stroke:red;stroke-width:1px;stroke-linecap:butt;stroke-linejoin:miter;stroke-opacity:1" d="M 703.324,553.794 706.971,562.912 z" id="boundary" inkscape:connector-curvature="0" />
	<path style="fill:none;stroke:red;stroke-width:1px;stroke-linecap:butt;stroke-linejoin:miter;stroke-opacity:1" d="M 706.971,562.912 714.265,568.382 z" id="boundary" inkscape:connector-curvature="0" />
	<path style="fill:none;stroke:red;stroke-width:1px;stroke-linecap:butt;stroke-linejoin:miter;stroke-opacity:1" d="M 706.971,817.294 714.265,823.676 z" id="boundary" inkscape:connector-curvature="0" />
	<path style="fill:none;stroke:red;stroke-width:1px;stroke-linecap:butt;stroke-linejoin:miter;stroke-opacity:1" d="M 714.265,568.382 717.912,577.5 z" id="boundary" inkscape:connector-curvature="0" />
	<path style="fill:none;stroke:red;stroke-width:1px;stroke-linecap:butt;stroke-linejoin:miter;stroke-opacity:1" d="M 714.265,823.676 727.941,837.353 z" id="boundary" inkscape:connector-curvature="0" />
	<path style="fill:none;stroke:red;stroke-width:1px;stroke-linecap:butt;stroke-linejoin:miter;stroke-opacity:1" d="M 717.912,577.5 725.206,583.882 z" id="boundary" inkscape:connector-curvature="0" />
	<path style="fill:none;stroke:red;stroke-width:1px;stroke-linecap:butt;stroke-linejoin:miter;stroke-opacity:1" d="M 725.206,583.882 728.853,593 z" id="boundary" inkscape:connector-curvature="0" />
	<path style="fill:none;stroke:red;stroke-width:1px;stroke-linecap:butt;stroke-linejoin:miter;stroke-opacity:1" d="M 727.941,837.353 733.412,844.647 z" id="boundary" inkscape:connector-curvature="0" />
	<path style="fill:none;stroke:red;stroke-width:1px;stroke-linecap:butt;stroke-linejoin:miter;stroke-opacity:1" d="M 728.853,593 736.147,599.382 z" id="boundary" inkscape:connector-curvature="0" />
	<path style="fill:none;stroke:red;stroke-width:1px;stroke-linecap:butt;stroke-linejoin:miter;stroke-opacity:1" d="M 733.412,844.647 737.971,852.853 z" id="boundary" inkscape:connector-curvature="0" />
	<path style="fill:none;stroke:red;stroke-width:1px;stroke-linecap:butt;stroke-linejoin:miter;stroke-opacity:1" d="M 736.147,599.382 747.088,614.882 z" id="boundary" inkscape:connector-curvature="0" />
	<path style="fill:none;stroke:red;stroke-width:1px;stroke-linecap:butt;stroke-linejoin:miter;stroke-opacity:1" d="M 737.971,852.853 745.265,859.235 z" id="boundary" inkscape:connector-curvature="0" />
	<path style="fill:none;stroke:red;stroke-width:1px;stroke-linecap:butt;stroke-linejoin:miter;stroke-opacity:1" d="M 745.265,859.235 752.559,864.706 z" id="boundary" inkscape:connector-curvature="0" />
	<path style="fill:none;stroke:red;stroke-width:1px;stroke-linecap:butt;stroke-linejoin:miter;stroke-opacity:1" d="M 747.088,614.882 757.118,630.382 z" id="boundary" inkscape:connector-curvature="0" />
	<path style="fill:none;stroke:red;stroke-width:1px;stroke-linecap:butt;stroke-linejoin:miter;stroke-opacity:1" d="M 752.559,864.706 760.765,869.265 z" id="boundary" inkscape:connector-curvature="0" />
	<path style="fill:none;stroke:red;stroke-width:1px;stroke-linecap:butt;stroke-linejoin:miter;stroke-opacity:1" d="M 757.118,630.382 764.412,636.765 z" id="boundary" inkscape:connector-curvature="0" />
	<path style="fill:none;stroke:red;stroke-width:1px;stroke-linecap:butt;stroke-linejoin:miter;stroke-opacity:1" d="M 760.765,869.265 773.529,882.941 z" id="boundary" inkscape:connector-curvature="0" />
	<path style="fill:none;stroke:red;stroke-width:1px;stroke-linecap:butt;stroke-linejoin:miter;stroke-opacity:1" d="M 764.412,636.765 770.794,644.059 z" id="boundary" inkscape:connector-curvature="0" />
	<path style="fill:none;stroke:red;stroke-width:1px;stroke-linecap:butt;stroke-linejoin:miter;stroke-opacity:1" d="M 770.794,644.059 775.353,652.265 z" id="boundary" inkscape:connector-curvature="0" />
	<path style="fill:none;stroke:red;stroke-width:1px;stroke-linecap:butt;stroke-linejoin:miter;stroke-opacity:1" d="M 773.529,882.941 779.912,890.235 z" id="boundary" inkscape:connector-curvature="0" />
	<path style="fill:none;stroke:red;stroke-width:1px;stroke-linecap:butt;stroke-linejoin:miter;stroke-opacity:1" d="M 775.353,652.265 779.912,660.471 z" id="boundary" inkscape:connector-curvature="0" />
	<path style="fill:none;stroke:red;stroke-width:1px;stroke-linecap:butt;stroke-linejoin:miter;stroke-opacity:1" d="M 779.912,660.471 784.471,668.676 z" id="boundary" inkscape:connector-curvature="0" />
	<path style="fill:none;stroke:red;stroke-width:1px;stroke-linecap:butt;stroke-linejoin:miter;stroke-opacity:1" d="M 779.912,890.235 787.206,896.618 z" id="boundary" inkscape:connector-curvature="0" />
	<path style="fill:none;stroke:red;stroke-width:1px;stroke-linecap:butt;stroke-linejoin:miter;stroke-opacity:1" d="M 784.471,668.676 789.029,676.882 z" id="boundary" inkscape:connector-curvature="0" />
	<path style="fill:none;stroke:red;stroke-width:1px;stroke-linecap:butt;stroke-linejoin:miter;stroke-opacity:1" d="M 787.206,896.618 800.882,910.294 z" id="boundary" inkscape:connector-curvature="0" />
	<path style="fill:none;stroke:red;stroke-width:1px;stroke-linecap:butt;stroke-linejoin:miter;stroke-opacity:1" d="M 789.029,676.882 793.588,685.088 z" id="boundary" inkscape:connector-curvature="0" />
	<path style="fill:none;stroke:red;stroke-width:1px;stroke-linecap:butt;stroke-linejoin:miter;stroke-opacity:1" d="M 793.588,685.088 800.882,691.471 z" id="boundary" inkscape:connector-curvature="0" />
	<path style="fill:none;stroke:red;stroke-width:1px;stroke-linecap:butt;stroke-linejoin:miter;stroke-opacity:1" d="M 793.588,714.265 795.412,723.382 z" id="boundary" inkscape:connector-curvature="0" />
	<path style="fill:none;stroke:red;stroke-width:1px;stroke-linecap:butt;stroke-linejoin:miter;stroke-opacity:1" d="M 793.588,714.265 807.265,698.765 z" id="boundary" inkscape:connector-curvature="0" />
	<path style="fill:none;stroke:red;stroke-width:1px;stroke-linecap:butt;stroke-linejoin:miter;stroke-opacity:1" d="M 795.412,723.382 803.618,718.824 z" id="boundary" inkscape:connector-curvature="0" />
	<path style="fill:none;stroke:red;stroke-width:1px;stroke-linecap:butt;stroke-linejoin:miter;stroke-opacity:1" d="M 800.882,691.471 807.265,698.765 z" id="boundary" inkscape:connector-curvature="0" />
	<path style="fill:none;stroke:red;stroke-width:1px;stroke-linecap:butt;stroke-linejoin:miter;stroke-opacity:1" d="M 800.882,910.294 807.265,917.588 z" id="boundary" inkscape:connector-curvature="0" />
	<path style="fill:none;stroke:red;stroke-width:1px;stroke-linecap:butt;stroke-linejoin:miter;stroke-opacity:1" d="M 803.618,718.824 804.529,727.941 z" id="boundary" inkscape:connector-curvature="0" />
	<path style="fill:none;stroke:red;stroke-width:1px;stroke-linecap:butt;stroke-linejoin:miter;stroke-opacity:1" d="M 804.529,727.941 813.647,731.588 z" id="boundary" inkscape:connector-curvature="0" />
	<path style="fill:none;stroke:red;stroke-width:1px;stroke-linecap:butt;stroke-linejoin:miter;stroke-opacity:1" d="M 807.265,917.588 814.559,923.971 z" id="boundary" inkscape:connector-curvature="0" />
	<path style="fill:none;stroke:red;stroke-width:1px;stroke-linecap:butt;stroke-linejoin:miter;stroke-opacity:1" d="M 813.647,731.588 820.029,738.882 z" id="boundary" inkscape:connector-curvature="0" />
	<path style="fill:none;stroke:red;stroke-width:1px;stroke-linecap:butt;stroke-linejoin:miter;stroke-opacity:1" d="M 814.559,923.971 822.765,928.529 z" id="boundary" inkscape:connector-curvature="0" />
	<path style="fill:none;stroke:red;stroke-width:1px;stroke-linecap:butt;stroke-linejoin:miter;stroke-opacity:1" d="M 820.029,738.882 829.147,742.529 z" id="boundary" inkscape:connector-curvature="0" />
	<path style="fill:none;stroke:red;stroke-width:1px;stroke-linecap:butt;stroke-linejoin:miter;stroke-opacity:1" d="M 822.765,928.529 830.971,933.088 z" id="boundary" inkscape:connector-curvature="0" />
	<path style="fill:none;stroke:red;stroke-width:1px;stroke-linecap:butt;stroke-linejoin:miter;stroke-opacity:1" d="M 829.147,742.529 837.353,747.088 z" id="boundary" inkscape:connector-curvature="0" />
	<path style="fill:none;stroke:red;stroke-width:1px;stroke-linecap:butt;stroke-linejoin:miter;stroke-opacity:1" d="M 830.971,933.088 838.265,938.559 z" id="boundary" inkscape:connector-curvature="0" />
	<path style="fill:none;stroke:red;stroke-width:1px;stroke-linecap:butt;stroke-linejoin:miter;stroke-opacity:1" d="M 837.353,747.088 843.735,754.382 z" id="boundary" inkscape:connector-curvature="0" />
	<path style="fill:none;stroke:red;stroke-width:1px;stroke-linecap:butt;stroke-linejoin:miter;stroke-opacity:1" d="M 838.265,938.559 844.647,945.853 z" id="boundary" inkscape:connector-curvature="0" />
	<path style="fill:none;stroke:red;stroke-width:1px;stroke-linecap:butt;stroke-linejoin:miter;stroke-opacity:1" d="M 843.735,754.382 851.941,758.941 z" id="boundary" inkscape:connector-curvature="0" />
	<path style="fill:none;stroke:red;stroke-width:1px;stroke-linecap:butt;stroke-linejoin:miter;stroke-opacity:1" d="M 844.647,945.853 853.765,949.5 z" id="boundary" inkscape:connector-curvature="0" />
	<path style="fill:none;stroke:red;stroke-width:1px;stroke-linecap:butt;stroke-linejoin:miter;stroke-opacity:1" d="M 851.941,758.941 859.235,764.412 z" id="boundary" inkscape:connector-curvature="0" />
	<path style="fill:none;stroke:red;stroke-width:1px;stroke-linecap:butt;stroke-linejoin:miter;stroke-opacity:1" d="M 853.765,949.5 866.529,963.176 z" id="boundary" inkscape:connector-curvature="0" />
	<path style="fill:none;stroke:red;stroke-width:1px;stroke-linecap:butt;stroke-linejoin:miter;stroke-opacity:1" d="M 859.235,764.412 868.353,768.059 z" id="boundary" inkscape:connector-curvature="0" />
	<path style="fill:none;stroke:red;stroke-width:1px;stroke-linecap:butt;stroke-linejoin:miter;stroke-opacity:1" d="M 866.529,963.176 882.941,969.559 z" id="boundary" inkscape:connector-curvature="0" />
	<path style="fill:none;stroke:red;stroke-width:1px;stroke-linecap:butt;stroke-linejoin:miter;stroke-opacity:1" d="M 868.353,768.059 876.559,772.618 z" id="boundary" inkscape:connector-curvature="0" />
	<path style="fill:none;stroke:red;stroke-width:1px;stroke-linecap:butt;stroke-linejoin:miter;stroke-opacity:1" d="M 876.559,772.618 892.059,783.559 z" id="boundary" inkscape:connector-curvature="0" />
	<path style="fill:none;stroke:red;stroke-width:1px;stroke-linecap:butt;stroke-linejoin:miter;stroke-opacity:1" d="M 882.941,969.559 898.441,978.676 z" id="boundary" inkscape:connector-curvature="0" />
	<path style="fill:none;stroke:red;stroke-width:1px;stroke-linecap:butt;stroke-linejoin:miter;stroke-opacity:1" d="M 892.059,783.559 905.735,796.324 z" id="boundary" inkscape:connector-curvature="0" />
	<path style="fill:none;stroke:red;stroke-width:1px;stroke-linecap:butt;stroke-linejoin:miter;stroke-opacity:1" d="M 898.441,978.676 907.559,978.676 z" id="boundary" inkscape:connector-curvature="0" />
	<path style="fill:none;stroke:red;stroke-width:1px;stroke-linecap:butt;stroke-linejoin:miter;stroke-opacity:1" d="M 905.735,796.324 921.235,807.265 z" id="boundary" inkscape:connector-curvature="0" />
	<path style="fill:none;stroke:red;stroke-width:1px;stroke-linecap:butt;stroke-linejoin:miter;stroke-opacity:1" d="M 907.559,978.676 915.765,974.118 z" id="boundary" inkscape:connector-curvature="0" />
	<path style="fill:none;stroke:red;stroke-width:1px;stroke-linecap:butt;stroke-linejoin:miter;stroke-opacity:1" d="M 915.765,974.118 924.882,971.382 z" id="boundary" inkscape:connector-curvature="0" />
	<path style="fill:none;stroke:red;stroke-width:1px;stroke-linecap:butt;stroke-linejoin:miter;stroke-opacity:1" d="M 921.235,807.265 929.441,811.824 z" id="boundary" inkscape:connector-curvature="0" />
	<path style="fill:none;stroke:red;stroke-width:1px;stroke-linecap:butt;stroke-linejoin:miter;stroke-opacity:1" d="M 924.882,971.382 934,966.824 z" id="boundary" inkscape:connector-curvature="0" />
	<path style="fill:none;stroke:red;stroke-width:1px;stroke-linecap:butt;stroke-linejoin:miter;stroke-opacity:1" d="M 929.441,811.824 936.735,818.206 z" id="boundary" inkscape:connector-curvature="0" />
	<path style="fill:none;stroke:red;stroke-width:1px;stroke-linecap:butt;stroke-linejoin:miter;stroke-opacity:1" d="M 934,966.824 943.118,962.265 z" id="boundary" inkscape:connector-curvature="0" />
	<path style="fill:none;stroke:red;stroke-width:1px;stroke-linecap:butt;stroke-linejoin:miter;stroke-opacity:1" d="M 936.735,818.206 950.412,831.882 z" id="boundary" inkscape:connector-curvature="0" />
	<path style="fill:none;stroke:red;stroke-width:1px;stroke-linecap:butt;stroke-linejoin:miter;stroke-opacity:1" d="M 943.118,962.265 950.412,954.971 z" id="boundary" inkscape:connector-curvature="0" />
	<path style="fill:none;stroke:red;stroke-width:1px;stroke-linecap:butt;stroke-linejoin:miter;stroke-opacity:1" d="M 950.412,831.882 958.618,836.441 z" id="boundary" inkscape:connector-curvature="0" />
	<path style="fill:none;stroke:red;stroke-width:1px;stroke-linecap:butt;stroke-linejoin:miter;stroke-opacity:1" d="M 950.412,954.971 957.706,946.765 z" id="boundary" inkscape:connector-curvature="0" />
	<path style="fill:none;stroke:red;stroke-width:1px;stroke-linecap:butt;stroke-linejoin:miter;stroke-opacity:1" d="M 957.706,946.765 965,940.382 z" id="boundary" inkscape:connector-curvature="0" />
	<path style="fill:none;stroke:red;stroke-width:1px;stroke-linecap:butt;stroke-linejoin:miter;stroke-opacity:1" d="M 958.618,836.441 965.912,842.824 z" id="boundary" inkscape:connector-curvature="0" />
	<path style="fill:none;stroke:red;stroke-width:1px;stroke-linecap:butt;stroke-linejoin:miter;stroke-opacity:1" d="M 965,940.382 971.382,933.088 z" id="boundary" inkscape:connector-curvature="0" />
	<path style="fill:none;stroke:red;stroke-width:1px;stroke-linecap:butt;stroke-linejoin:miter;stroke-opacity:1" d="M 965.912,842.824 971.382,850.118 z" id="boundary" inkscape:connector-curvature="0" />
	<path style="fill:none;stroke:red;stroke-width:1px;stroke-linecap:butt;stroke-linejoin:miter;stroke-opacity:1" d="M 971.382,850.118 978.676,855.588 z" id="boundary" inkscape:connector-curvature="0" />
	<path style="fill:none;stroke:red;stroke-width:1px;stroke-linecap:butt;stroke-linejoin:miter;stroke-opacity:1" d="M 971.382,933.088 975.941,923.971 z" id="boundary" inkscape:connector-curvature="0" />
	<path style="fill:none;stroke:red;stroke-width:1px;stroke-linecap:butt;stroke-linejoin:miter;stroke-opacity:1" d="M 975.941,923.971 980.5,914.853 z" id="boundary" inkscape:connector-curvature="0" />
	<path style="fill:none;stroke:red;stroke-width:1px;stroke-linecap:butt;stroke-linejoin:miter;stroke-opacity:1" d="M 978.676,855.588 985.059,862.882 z" id="boundary" inkscape:connector-curvature="0" />
	<path style="fill:none;stroke:red;stroke-width:1px;stroke-linecap:butt;stroke-linejoin:miter;stroke-opacity:1" d="M 980.5,914.853 985.059,905.735 z" id="boundary" inkscape:connector-curvature="0" />
	<path style="fill:none;stroke:red;stroke-width:1px;stroke-linecap:butt;stroke-linejoin:miter;stroke-opacity:1" d="M 985.059,862.882 992.353,869.265 z" id="boundary" inkscape:connector-curvature="0" />
	<path style="fill:none;stroke:red;stroke-width:1px;stroke-linecap:butt;stroke-linejoin:miter;stroke-opacity:1" d="M 985.059,905.735 989.618,896.618 z" id="boundary" inkscape:connector-curvature="0" />
	<path style="fill:none;stroke:red;stroke-width:1px;stroke-linecap:butt;stroke-linejoin:miter;stroke-opacity:1" d="M 989.618,896.618 994.176,887.5 z" id="boundary" inkscape:connector-curvature="0" />
	<path style="fill:none;stroke:red;stroke-width:1px;stroke-linecap:butt;stroke-linejoin:miter;stroke-opacity:1" d="M 992.353,869.265 996,878.382 z" id="boundary" inkscape:connector-curvature="0" />
	<path style="fill:none;stroke:red;stroke-width:1px;stroke-linecap:butt;stroke-linejoin:miter;stroke-opacity:1" d="M 994.176,887.5 996,878.382 z" id="boundary" inkscape:connector-curvature="0" />
	<circle cx="4" cy="23.1471" r="4" fill="#0" id="circle0"/>
	<circle cx="4" cy="32.2647" r="4" fill="#0" id="circle1"/>
	<circle cx="4" cy="41.3824" r="4" fill="#0" id="circle2"/>
	<circle cx="4" cy="50.5" r="4" fill="#0" id="circle3"/>
	<circle cx="4" cy="59.6176" r="4" fill="#0" id="circle4"/>
	<circle cx="4" cy="68.7353" r="4" fill="#0" id="circle5"/>
	<circle cx="4" cy="77.8529" r="4" fill="#0" id="circle6"/>
	<circle cx="8.55882" cy="86.0588" r="4" fill="#0" id="circle7"/>
	<circle cx="8.55882" cy="95.1765" r="4" fill="#0" id="circle8"/>
	<circle cx="11.2941" cy="15.8529" r="4" fill="#0" id="circle9"/>
	<circle cx="13.1176" cy="103.382" r="4" fill="#0" id="circle10"/>
	<circle cx="17.6765" cy="111.588" r="4" fill="#0" id="circle11"/>
	<circle cx="18.5882" cy="8.55882" r="4" fill="#0" id="circle12"/>
	<circle cx="19.5" cy="120.706" r="4" fill="#0" id="circle13"/>
	<circle cx="22.2353" cy="129.824" r="4" fill="#0" id="circle14"/>
	<circle cx="27.7059" cy="4" r="4" fill="#0" id="circle15"/>
	<circle cx="27.7059" cy="137.118" r="4" fill="#0" id="circle16"/>
	<circle cx="31.3529" cy="146.235" r="4" fill="#0" id="circle17"/>
	<circle cx="31.3529" cy="155.353" r="4" fill="#0" id="circle18"/>
	<circle cx="35.9118" cy="163.559" r="4" fill="#0" id="circle19"/>
	<circle cx="36.8235" cy="6.73529" r="4" fill="#0" id="circle20"/>
	<circle cx="42.2941" cy="170.853" r="4" fill="#0" id="circle21"/>
	<circle cx="45.9412" cy="9.47059" r="4" fill="#0" id="circle22"/>
	<circle cx="46.8529" cy="179.059" r="4" fill="#0" id="circle23"/>
	<circle cx="54.1471" cy="185.441" r="4" fill="#0" id="circle24"/>
	<circle cx="55.0588" cy="6.73529" r="4" fill="#0" id="circle25"/>
	<circle cx="58.7059" cy="193.647" r="4" fill="#0" id="circle26"/>
	<circle cx="63.2647" cy="201.853" r="4" fill="#0" id="circle27"/>
	<circle cx="64.1765" cy="6.73529" r="4" fill="#0" id="circle28"/>
	<circle cx="67.8235" cy="210.059" r="4" fill="#0" id="circle29"/>
	<circle cx="72.3824" cy="218.265" r="4" fill="#0" id="circle30"/>
	<circle cx="73.2941" cy="6.73529" r="4" fill="#0" id="circle31"/>
	<circle cx="76.9412" cy="226.471" r="4" fill="#0" id="circle32"/>
	<circle cx="81.5" cy="234.676" r="4" fill="#0" id="circle33"/>
	<circle cx="82.4118" cy="9.47059" r="4" fill="#0" id="circle34"/>
	<circle cx="86.9706" cy="241.971" r="4" fill="#0" id="circle35"/>
	<circle cx="91.5294" cy="11.2941" r="4" fill="#0" id="circle36"/>
	<circle cx="93.3529" cy="249.265" r="4" fill="#0" id="circle37"/>
	<circle cx="97.9118" cy="257.471" r="4" fill="#0" id="circle38"/>
	<circle cx="99.7353" cy="15.8529" r="4" fill="#0" id="circle39"/>
	<circle cx="101.559" cy="266.588" r="4" fill="#0" id="circle40"/>
	<circle cx="107.941" cy="20.4118" r="4" fill="#0" id="circle41"/>
	<circle cx="110.676" cy="270.235" r="4" fill="#0" id="circle42"/>
	<circle cx="117.059" cy="20.4118" r="4" fill="#0" id="circle43"/>
	<circle cx="117.971" cy="276.618" r="4" fill="#0" id="circle44"/>
	<circle cx="123.441" cy="283.912" r="4" fill="#0" id="circle45"/>
	<circle cx="125.265" cy="24.9706" r="4" fill="#0" id="circle46"/>
	<circle cx="132.559" cy="287.559" r="4" fill="#0" id="circle47"/>
	<circle cx="133.471" cy="29.5294" r="4" fill="#0" id="circle48"/>
	<circle cx="136.206" cy="296.676" r="4" fill="#0" id="circle49"/>
	<circle cx="141.676" cy="34.0882" r="4" fill="#0" id="circle50"/>
	<circle cx="143.5" cy="303.059" r="4" fill="#0" id="circle51"/>
	<circle cx="149.882" cy="310.353" r="4" fill="#0" id="circle52"/>
	<circle cx="150.794" cy="36.8235" r="4" fill="#0" id="circle53"/>
	<circle cx="154.441" cy="318.559" r="4" fill="#0" id="circle54"/>
	<circle cx="157.176" cy="44.1176" r="4" fill="#0" id="circle55"/>
	<circle cx="159" cy="326.765" r="4" fill="#0" id="circle56"/>
	<circle cx="161.735" cy="52.3235" r="4" fill="#0" id="circle57"/>
	<circle cx="161.735" cy="335.882" r="4" fill="#0" id="circle58"/>
	<circle cx="163.559" cy="345" r="4" fill="#0" id="circle59"/>
	<circle cx="168.118" cy="353.206" r="4" fill="#0" id="circle60"/>
	<circle cx="169.941" cy="56.8824" r="4" fill="#0" id="circle61"/>
	<circle cx="172.676" cy="361.412" r="4" fill="#0" id="circle62"/>
	<circle cx="172.676" cy="370.529" r="4" fill="#0" id="circle63"/>
	<circle cx="177.235" cy="63.2647" r="4" fill="#0" id="circle64"/>
	<circle cx="177.235" cy="378.735" r="4" fill="#0" id="circle65"/>
	<circle cx="181.794" cy="386.941" r="4" fill="#0" id="circle66"/>
	<circle cx="182.706" cy="70.5588" r="4" fill="#0" id="circle67"/>
	<circle cx="188.176" cy="394.235" r="4" fill="#0" id="circle68"/>
	<circle cx="191.824" cy="73.2941" r="4" fill="#0" id="circle69"/>
	<circle cx="195.471" cy="399.706" r="4" fill="#0" id="circle70"/>
	<circle cx="198.206" cy="80.5882" r="4" fill="#0" id="circle71"/>
	<circle cx="200.029" cy="407.912" r="4" fill="#0" id="circle72"/>
	<circle cx="204.588" cy="416.118" r="4" fill="#0" id="circle73"/>
	<circle cx="205.5" cy="86.9706" r="4" fill="#0" id="circle74"/>
	<circle cx="209.147" cy="424.324" r="4" fill="#0" id="circle75"/>
	<circle cx="213.706" cy="91.5294" r="4" fill="#0" id="circle76"/>
	<circle cx="216.441" cy="430.706" r="4" fill="#0" id="circle77"/>
	<circle cx="221" cy="97.9118" r="4" fill="#0" id="circle78"/>
	<circle cx="223.735" cy="436.176" r="4" fill="#0" id="circle79"/>
	<circle cx="227.382" cy="105.206" r="4" fill="#0" id="circle80"/>
	<circle cx="229.206" cy="443.471" r="4" fill="#0" id="circle81"/>
	<circle cx="232.853" cy="452.588" r="4" fill="#0" id="circle82"/>
	<circle cx="234.676" cy="111.588" r="4" fill="#0" id="circle83"/>
	<circle cx="240.147" cy="458.971" r="4" fill="#0" id="circle84"/>
	<circle cx="241.059" cy="118.882" r="4" fill="#0" id="circle85"/>
	<circle cx="246.529" cy="466.265" r="4" fill="#0" id="circle86"/>
	<circle cx="248.353" cy="125.265" r="4" fill="#0" id="circle87"/>
	<circle cx="253.824" cy="472.647" r="4" fill="#0" id="circle88"/>
	<circle cx="254.735" cy="132.559" r="4" fill="#0" id="circle89"/>
	<circle cx="260.206" cy="479.941" r="4" fill="#0" id="circle90"/>
	<circle cx="262.029" cy="138.941" r="4" fill="#0" id="circle91"/>
	<circle cx="267.5" cy="486.324" r="4" fill="#0" id="circle92"/>
	<circle cx="268.412" cy="146.235" r="4" fill="#0" id="circle93"/>
	<circle cx="269.324" cy="449.853" r="4" fill="#0" id="circle94"/>
	<circle cx="273.882" cy="458.059" r="4" fill="#0" id="circle95"/>
	<circle cx="273.882" cy="493.618" r="4" fill="#0" id="circle96"/>
	<circle cx="275.706" cy="152.618" r="4" fill="#0" id="circle97"/>
	<circle cx="277.529" cy="445.294" r="4" fill="#0" id="circle98"/>
	<circle cx="278.441" cy="466.265" r="4" fill="#0" id="circle99"/>
	<circle cx="281.176" cy="500" r="4" fill="#0" id="circle100"/>
	<circle cx="282.088" cy="159.912" r="4" fill="#0" id="circle101"/>
	<circle cx="283" cy="452.588" r="4" fill="#0" id="circle102"/>
	<circle cx="283" cy="474.471" r="4" fill="#0" id="circle103"/>
	<circle cx="286.647" cy="483.588" r="4" fill="#0" id="circle104"/>
	<circle cx="287.559" cy="492.706" r="4" fill="#0" id="circle105"/>
	<circle cx="289.382" cy="166.294" r="4" fill="#0" id="circle106"/>
	<circle cx="290.294" cy="458.971" r="4" fill="#0" id="circle107"/>
	<circle cx="295.765" cy="173.588" r="4" fill="#0" id="circle108"/>
	<circle cx="295.765" cy="466.265" r="4" fill="#0" id="circle109"/>
	<circle cx="296.676" cy="475.382" r="4" fill="#0" id="circle110"/>
	<circle cx="300.324" cy="181.794" r="4" fill="#0" id="circle111"/>
	<circle cx="303.971" cy="481.765" r="4" fill="#0" id="circle112"/>
	<circle cx="305.794" cy="189.088" r="4" fill="#0" id="circle113"/>
	<circle cx="307.618" cy="490.882" r="4" fill="#0" id="circle114"/>
	<circle cx="312.176" cy="499.088" r="4" fill="#0" id="circle115"/>
	<circle cx="313.088" cy="194.559" r="4" fill="#0" id="circle116"/>
	<circle cx="317.647" cy="202.765" r="4" fill="#0" id="circle117"/>
	<circle cx="318.559" cy="506.382" r="4" fill="#0" id="circle118"/>
	<circle cx="323.118" cy="514.588" r="4" fill="#0" id="circle119"/>
	<circle cx="324.029" cy="210.059" r="4" fill="#0" id="circle120"/>
	<circle cx="329.5" cy="521.882" r="4" fill="#0" id="circle121"/>
	<circle cx="332.235" cy="214.618" r="4" fill="#0" id="circle122"/>
	<circle cx="334.059" cy="530.088" r="4" fill="#0" id="circle123"/>
	<circle cx="341.353" cy="218.265" r="4" fill="#0" id="circle124"/>
	<circle cx="341.353" cy="536.471" r="4" fill="#0" id="circle125"/>
	<circle cx="346.824" cy="543.765" r="4" fill="#0" id="circle126"/>
	<circle cx="350.471" cy="221" r="4" fill="#0" id="circle127"/>
	<circle cx="355.941" cy="545.588" r="4" fill="#0" id="circle128"/>
	<circle cx="359.588" cy="221" r="4" fill="#0" id="circle129"/>
	<circle cx="364.147" cy="550.147" r="4" fill="#0" id="circle130"/>
	<circle cx="367.794" cy="225.559" r="4" fill="#0" id="circle131"/>
	<circle cx="368.706" cy="558.353" r="4" fill="#0" id="circle132"/>
	<circle cx="368.706" cy="567.471" r="4" fill="#0" id="circle133"/>
	<circle cx="373.265" cy="575.676" r="4" fill="#0" id="circle134"/>
	<circle cx="374.176" cy="584.794" r="4" fill="#0" id="circle135"/>
	<circle cx="376" cy="230.118" r="4" fill="#0" id="circle136"/>
	<circle cx="378.735" cy="593" r="4" fill="#0" id="circle137"/>
	<circle cx="382.382" cy="602.118" r="4" fill="#0" id="circle138"/>
	<circle cx="385.118" cy="230.118" r="4" fill="#0" id="circle139"/>
	<circle cx="389.676" cy="608.5" r="4" fill="#0" id="circle140"/>
	<circle cx="393.324" cy="617.618" r="4" fill="#0" id="circle141"/>
	<circle cx="394.235" cy="230.118" r="4" fill="#0" id="circle142"/>
	<circle cx="400.618" cy="623.088" r="4" fill="#0" id="circle143"/>
	<circle cx="403.353" cy="230.118" r="4" fill="#0" id="circle144"/>
	<circle cx="403.353" cy="632.206" r="4" fill="#0" id="circle145"/>
	<circle cx="405.176" cy="641.324" r="4" fill="#0" id="circle146"/>
	<circle cx="409.735" cy="649.529" r="4" fill="#0" id="circle147"/>
	<circle cx="411.559" cy="234.676" r="4" fill="#0" id="circle148"/>
	<circle cx="414.294" cy="657.735" r="4" fill="#0" id="circle149"/>
	<circle cx="418.853" cy="665.941" r="4" fill="#0" id="circle150"/>
	<circle cx="419.765" cy="239.235" r="4" fill="#0" id="circle151"/>
	<circle cx="426.147" cy="672.324" r="4" fill="#0" id="circle152"/>
	<circle cx="428.882" cy="241.971" r="4" fill="#0" id="circle153"/>
	<circle cx="433.441" cy="677.794" r="4" fill="#0" id="circle154"/>
	<circle cx="437.088" cy="246.529" r="4" fill="#0" id="circle155"/>
	<circle cx="438.912" cy="685.088" r="4" fill="#0" id="circle156"/>
	<circle cx="446.206" cy="250.176" r="4" fill="#0" id="circle157"/>
	<circle cx="446.206" cy="691.471" r="4" fill="#0" id="circle158"/>
	<circle cx="451.676" cy="698.765" r="4" fill="#0" id="circle159"/>
	<circle cx="454.412" cy="254.735" r="4" fill="#0" id="circle160"/>
	<circle cx="460.794" cy="262.029" r="4" fill="#0" id="circle161"/>
	<circle cx="460.794" cy="702.412" r="4" fill="#0" id="circle162"/>
	<circle cx="469" cy="266.588" r="4" fill="#0" id="circle163"/>
	<circle cx="469" cy="706.971" r="4" fill="#0" id="circle164"/>
	<circle cx="474.471" cy="367.794" r="4" fill="#0" id="circle165"/>
	<circle cx="476.294" cy="272.059" r="4" fill="#0" id="circle166"/>
	<circle cx="476.294" cy="713.353" r="4" fill="#0" id="circle167"/>
	<circle cx="479.029" cy="376" r="4" fill="#0" id="circle168"/>
	<circle cx="483.588" cy="278.441" r="4" fill="#0" id="circle169"/>
	<circle cx="483.588" cy="287.559" r="4" fill="#0" id="circle170"/>
	<circle cx="483.588" cy="367.794" r="4" fill="#0" id="circle171"/>
	<circle cx="485.412" cy="714.265" r="4" fill="#0" id="circle172"/>
	<circle cx="488.147" cy="376" r="4" fill="#0" id="circle173"/>
	<circle cx="489.971" cy="294.853" r="4" fill="#0" id="circle174"/>
	<circle cx="492.706" cy="363.235" r="4" fill="#0" id="circle175"/>
	<circle cx="493.618" cy="718.824" r="4" fill="#0" id="circle176"/>
	<circle cx="494.529" cy="303.059" r="4" fill="#0" id="circle177"/>
	<circle cx="496.353" cy="380.559" r="4" fill="#0" id="circle178"/>
	<circle cx="497.265" cy="312.176" r="4" fill="#0" id="circle179"/>
	<circle cx="500.912" cy="724.294" r="4" fill="#0" id="circle180"/>
	<circle cx="501.824" cy="358.676" r="4" fill="#0" id="circle181"/>
	<circle cx="504.559" cy="317.647" r="4" fill="#0" id="circle182"/>
	<circle cx="504.559" cy="385.118" r="4" fill="#0" id="circle183"/>
	<circle cx="506.382" cy="349.559" r="4" fill="#0" id="circle184"/>
	<circle cx="507.294" cy="731.588" r="4" fill="#0" id="circle185"/>
	<circle cx="510.941" cy="324.941" r="4" fill="#0" id="circle186"/>
	<circle cx="510.941" cy="334.059" r="4" fill="#0" id="circle187"/>
	<circle cx="513.676" cy="385.118" r="4" fill="#0" id="circle188"/>
	<circle cx="514.588" cy="737.059" r="4" fill="#0" id="circle189"/>
	<circle cx="522.794" cy="386.029" r="4" fill="#0" id="circle190"/>
	<circle cx="522.794" cy="741.618" r="4" fill="#0" id="circle191"/>
	<circle cx="529.176" cy="748.912" r="4" fill="#0" id="circle192"/>
	<circle cx="531" cy="390.588" r="4" fill="#0" id="circle193"/>
	<circle cx="536.471" cy="755.294" r="4" fill="#0" id="circle194"/>
	<circle cx="540.118" cy="394.235" r="4" fill="#0" id="circle195"/>
	<circle cx="544.676" cy="759.853" r="4" fill="#0" id="circle196"/>
	<circle cx="548.324" cy="398.794" r="4" fill="#0" id="circle197"/>
	<circle cx="552.882" cy="764.412" r="4" fill="#0" id="circle198"/>
	<circle cx="556.529" cy="403.353" r="4" fill="#0" id="circle199"/>
	<circle cx="560.176" cy="769.882" r="4" fill="#0" id="circle200"/>
	<circle cx="564.735" cy="407.912" r="4" fill="#0" id="circle201"/>
	<circle cx="569.294" cy="773.529" r="4" fill="#0" id="circle202"/>
	<circle cx="572.941" cy="412.471" r="4" fill="#0" id="circle203"/>
	<circle cx="574.765" cy="780.824" r="4" fill="#0" id="circle204"/>
	<circle cx="582.059" cy="413.382" r="4" fill="#0" id="circle205"/>
	<circle cx="583.882" cy="784.471" r="4" fill="#0" id="circle206"/>
	<circle cx="590.265" cy="417.941" r="4" fill="#0" id="circle207"/>
	<circle cx="592.088" cy="789.029" r="4" fill="#0" id="circle208"/>
	<circle cx="597.559" cy="424.324" r="4" fill="#0" id="circle209"/>
	<circle cx="599.382" cy="795.412" r="4" fill="#0" id="circle210"/>
	<circle cx="603.941" cy="431.618" r="4" fill="#0" id="circle211"/>
	<circle cx="607.588" cy="799.971" r="4" fill="#0" id="circle212"/>
	<circle cx="613.059" cy="435.265" r="4" fill="#0" id="circle213"/>
	<circle cx="615.794" cy="444.382" r="4" fill="#0" id="circle214"/>
	<circle cx="616.706" cy="803.618" r="4" fill="#0" id="circle215"/>
	<circle cx="623.088" cy="449.853" r="4" fill="#0" id="circle216"/>
	<circle cx="624.912" cy="808.176" r="4" fill="#0" id="circle217"/>
	<circle cx="629.471" cy="457.147" r="4" fill="#0" id="circle218"/>
	<circle cx="634.029" cy="811.824" r="4" fill="#0" id="circle219"/>
	<circle cx="636.765" cy="463.529" r="4" fill="#0" id="circle220"/>
	<circle cx="643.147" cy="470.824" r="4" fill="#0" id="circle221"/>
	<circle cx="643.147" cy="814.559" r="4" fill="#0" id="circle222"/>
	<circle cx="647.706" cy="479.029" r="4" fill="#0" id="circle223"/>
	<circle cx="651.353" cy="819.118" r="4" fill="#0" id="circle224"/>
	<circle cx="652.265" cy="487.235" r="4" fill="#0" id="circle225"/>
	<circle cx="656.824" cy="495.441" r="4" fill="#0" id="circle226"/>
	<circle cx="656.824" cy="826.412" r="4" fill="#0" id="circle227"/>
	<circle cx="664.118" cy="500.912" r="4" fill="#0" id="circle228"/>
	<circle cx="665.941" cy="828.235" r="4" fill="#0" id="circle229"/>
	<circle cx="670.5" cy="508.206" r="4" fill="#0" id="circle230"/>
	<circle cx="670.5" cy="787.206" r="4" fill="#0" id="circle231"/>
	<circle cx="672.324" cy="796.324" r="4" fill="#0" id="circle232"/>
	<circle cx="674.147" cy="832.794" r="4" fill="#0" id="circle233"/>
	<circle cx="675.059" cy="516.412" r="4" fill="#0" id="circle234"/>
	<circle cx="679.618" cy="524.618" r="4" fill="#0" id="circle235"/>
	<circle cx="679.618" cy="789.029" r="4" fill="#0" id="circle236"/>
	<circle cx="679.618" cy="802.706" r="4" fill="#0" id="circle237"/>
	<circle cx="679.618" cy="811.824" r="4" fill="#0" id="circle238"/>
	<circle cx="683.265" cy="820.941" r="4" fill="#0" id="circle239"/>
	<circle cx="683.265" cy="830.059" r="4" fill="#0" id="circle240"/>
	<circle cx="686" cy="531.912" r="4" fill="#0" id="circle241"/>
	<circle cx="686.912" cy="796.324" r="4" fill="#0" id="circle242"/>
	<circle cx="693.294" cy="538.294" r="4" fill="#0" id="circle243"/>
	<circle cx="693.294" cy="803.618" r="4" fill="#0" id="circle244"/>
	<circle cx="697.853" cy="546.5" r="4" fill="#0" id="circle245"/>
	<circle cx="700.588" cy="810" r="4" fill="#0" id="circle246"/>
	<circle cx="703.324" cy="553.794" r="4" fill="#0" id="circle247"/>
	<circle cx="706.971" cy="562.912" r="4" fill="#0" id="circle248"/>
	<circle cx="706.971" cy="817.294" r="4" fill="#0" id="circle249"/>
	<circle cx="714.265" cy="568.382" r="4" fill="#0" id="circle250"/>
	<circle cx="714.265" cy="823.676" r="4" fill="#0" id="circle251"/>
	<circle cx="717.912" cy="577.5" r="4" fill="#0" id="circle252"/>
	<circle cx="720.647" cy="830.971" r="4" fill="#0" id="circle253"/>
	<circle cx="725.206" cy="583.882" r="4" fill="#0" id="circle254"/>
	<circle cx="727.941" cy="837.353" r="4" fill="#0" id="circle255"/>
	<circle cx="728.853" cy="593" r="4" fill="#0" id="circle256"/>
	<circle cx="733.412" cy="844.647" r="4" fill="#0" id="circle257"/>
	<circle cx="736.147" cy="599.382" r="4" fill="#0" id="circle258"/>
	<circle cx="737.971" cy="852.853" r="4" fill="#0" id="circle259"/>
	<circle cx="742.529" cy="606.676" r="4" fill="#0" id="circle260"/>
	<circle cx="745.265" cy="859.235" r="4" fill="#0" id="circle261"/>
	<circle cx="747.088" cy="614.882" r="4" fill="#0" id="circle262"/>
	<circle cx="752.559" cy="622.176" r="4" fill="#0" id="circle263"/>
	<circle cx="752.559" cy="864.706" r="4" fill="#0" id="circle264"/>
	<circle cx="757.118" cy="630.382" r="4" fill="#0" id="circle265"/>
	<circle cx="760.765" cy="869.265" r="4" fill="#0" id="circle266"/>
	<circle cx="764.412" cy="636.765" r="4" fill="#0" id="circle267"/>
	<circle cx="766.235" cy="876.559" r="4" fill="#0" id="circle268"/>
	<circle cx="770.794" cy="644.059" r="4" fill="#0" id="circle269"/>
	<circle cx="773.529" cy="882.941" r="4" fill="#0" id="circle270"/>
	<circle cx="775.353" cy="652.265" r="4" fill="#0" id="circle271"/>
	<circle cx="779.912" cy="660.471" r="4" fill="#0" id="circle272"/>
	<circle cx="779.912" cy="890.235" r="4" fill="#0" id="circle273"/>
	<circle cx="784.471" cy="668.676" r="4" fill="#0" id="circle274"/>
	<circle cx="787.206" cy="896.618" r="4" fill="#0" id="circle275"/>
	<circle cx="789.029" cy="676.882" r="4" fill="#0" id="circle276"/>
	<circle cx="793.588" cy="685.088" r="4" fill="#0" id="circle277"/>
	<circle cx="793.588" cy="714.265" r="4" fill="#0" id="circle278"/>
	<circle cx="793.588" cy="903.912" r="4" fill="#0" id="circle279"/>
	<circle cx="795.412" cy="723.382" r="4" fill="#0" id="circle280"/>
	<circle cx="800.882" cy="691.471" r="4" fill="#0" id="circle281"/>
	<circle cx="800.882" cy="910.294" r="4" fill="#0" id="circle282"/>
	<circle cx="803.618" cy="718.824" r="4" fill="#0" id="circle283"/>
	<circle cx="804.529" cy="727.941" r="4" fill="#0" id="circle284"/>
	<circle cx="807.265" cy="698.765" r="4" fill="#0" id="circle285"/>
	<circle cx="807.265" cy="917.588" r="4" fill="#0" id="circle286"/>
	<circle cx="810.912" cy="711.529" r="4" fill="#0" id="circle287"/>
	<circle cx="813.647" cy="731.588" r="4" fill="#0" id="circle288"/>
	<circle cx="814.559" cy="923.971" r="4" fill="#0" id="circle289"/>
	<circle cx="820.029" cy="738.882" r="4" fill="#0" id="circle290"/>
	<circle cx="822.765" cy="928.529" r="4" fill="#0" id="circle291"/>
	<circle cx="829.147" cy="742.529" r="4" fill="#0" id="circle292"/>
	<circle cx="830.971" cy="933.088" r="4" fill="#0" id="circle293"/>
	<circle cx="837.353" cy="747.088" r="4" fill="#0" id="circle294"/>
	<circle cx="838.265" cy="938.559" r="4" fill="#0" id="circle295"/>
	<circle cx="843.735" cy="754.382" r="4" fill="#0" id="circle296"/>
	<circle cx="844.647" cy="945.853" r="4" fill="#0" id="circle297"/>
	<circle cx="851.941" cy="758.941" r="4" fill="#0" id="circle298"/>
	<circle cx="853.765" cy="949.5" r="4" fill="#0" id="circle299"/>
	<circle cx="859.235" cy="764.412" r="4" fill="#0" id="circle300"/>
	<circle cx="861.059" cy="955.882" r="4" fill="#0" id="circle301"/>
	<circle cx="866.529" cy="963.176" r="4" fill="#0" id="circle302"/>
	<circle cx="868.353" cy="768.059" r="4" fill="#0" id="circle303"/>
	<circle cx="873.824" cy="969.559" r="4" fill="#0" id="circle304"/>
	<circle cx="876.559" cy="772.618" r="4" fill="#0" id="circle305"/>
	<circle cx="882.941" cy="969.559" r="4" fill="#0" id="circle306"/>
	<circle cx="883.853" cy="779" r="4" fill="#0" id="circle307"/>
	<circle cx="889.324" cy="976.853" r="4" fill="#0" id="circle308"/>
	<circle cx="892.059" cy="783.559" r="4" fill="#0" id="circle309"/>
	<circle cx="898.441" cy="790.853" r="4" fill="#0" id="circle310"/>
	<circle cx="898.441" cy="978.676" r="4" fill="#0" id="circle311"/>
	<circle cx="905.735" cy="796.324" r="4" fill="#0" id="circle312"/>
	<circle cx="907.559" cy="978.676" r="4" fill="#0" id="circle313"/>
	<circle cx="912.118" cy="803.618" r="4" fill="#0" id="circle314"/>
	<circle cx="915.765" cy="974.118" r="4" fill="#0" id="circle315"/>
	<circle cx="921.235" cy="807.265" r="4" fill="#0" id="circle316"/>
	<circle cx="924.882" cy="971.382" r="4" fill="#0" id="circle317"/>
	<circle cx="929.441" cy="811.824" r="4" fill="#0" id="circle318"/>
	<circle cx="934" cy="966.824" r="4" fill="#0" id="circle319"/>
	<circle cx="936.735" cy="818.206" r="4" fill="#0" id="circle320"/>
	<circle cx="943.118" cy="825.5" r="4" fill="#0" id="circle321"/>
	<circle cx="943.118" cy="962.265" r="4" fill="#0" id="circle322"/>
	<circle cx="950.412" cy="831.882" r="4" fill="#0" id="circle323"/>
	<circle cx="950.412" cy="954.971" r="4" fill="#0" id="circle324"/>
	<circle cx="957.706" cy="946.765" r="4" fill="#0" id="circle325"/>
	<circle cx="958.618" cy="836.441" r="4" fill="#0" id="circle326"/>
	<circle cx="965" cy="940.382" r="4" fill="#0" id="circle327"/>
	<circle cx="965.912" cy="842.824" r="4" fill="#0" id="circle328"/>
	<circle cx="971.382" cy="850.118" r="4" fill="#0" id="circle329"/>
	<circle cx="971.382" cy="933.088" r="4" fill="#0" id="circle330"/>
	<circle cx="975.941" cy="923.971" r="4" fill="#0" id="circle331"/>
	<circle cx="978.676" cy="855.588" r="4" fill="#0" id="circle332"/>
	<circle cx="980.5" cy="914.853" r="4" fill="#0" id="circle333"/>
	<circle cx="985.059" cy="862.882" r="4" fill="#0" id="circle334"/>
	<circle cx="985.059" cy="905.735" r="4" fill="#0" id="circle335"/>
	<circle cx="989.618" cy="896.618" r="4" fill="#0" id="circle336"/>
	<circle cx="992.353" cy="869.265" r="4" fill="#0" id="circle337"/>
	<circle cx="994.176" cy="887.5" r="4" fill="#0" id="circle338"/>
	<circle cx="996" cy="878.382" r="4" fill="#0" id="circle339"/>
	</g>
</svg>