<?xml version="1.0" encoding="UTF-8" standalone="no"?>
<!-- Created with CurveBenchmark -->
<svg
	xmlns:dc="http://purl.org/dc/elements/1.1/"
	xmlns:cc="http://creativecommons.org/ns#"
	xmlns:rdf="http://www.w3.org/1999/02/22-rdf-syntax-ns#"
	xmlns:svg="http://www.w3.org/2000/svg"
	xmlns="http://www.w3.org/2000/svg"
	xmlns:sodipodi="http://sodipodi.sourceforge.net/DTD/sodipodi-0.dtd"
	xmlns:inkscape="http://www.inkscape.org/namespaces/inkscape"
	width="1000"
	height="1000"
	id="svg2"
	version="1.1"
	sodipodi:docname="manifold/discur-fork14.png.txt">
<defs
	id="defs4" />
<metadata
	id="metadata7">
	<rdf:RDF>
		<cc:Work
			rdf:about="">
			<dc:format>image/svg+xml</dc:format>
			<dc:type
				rdf:resource="http://purl.org/dc/dcmitype/StillImage" />
			<dc:title></dc:title>
		</cc:Work>
	</rdf:RDF>
</metadata>
<g
	inkscape:label="Layer 1"
	inkscape:groupmode="layer"
	id="layer1">
	<path style="fill:none;stroke:red;stroke-width:1px;stroke-linecap:butt;stroke-linejoin:miter;stroke-opacity:1" d="M 4,213.134 15.1045,227.94 z" id="boundary" inkscape:connector-curvature="0" />
	<path style="fill:none;stroke:red;stroke-width:1px;stroke-linecap:butt;stroke-linejoin:miter;stroke-opacity:1" d="M 4,213.134 22.5075,207.582 z" id="boundary" inkscape:connector-curvature="0" />
	<path style="fill:none;stroke:red;stroke-width:1px;stroke-linecap:butt;stroke-linejoin:miter;stroke-opacity:1" d="M 4,277.91 15.1045,292.716 z" id="boundary" inkscape:connector-curvature="0" />
	<path style="fill:none;stroke:red;stroke-width:1px;stroke-linecap:butt;stroke-linejoin:miter;stroke-opacity:1" d="M 4,277.91 22.5075,272.358 z" id="boundary" inkscape:connector-curvature="0" />
	<path style="fill:none;stroke:red;stroke-width:1px;stroke-linecap:butt;stroke-linejoin:miter;stroke-opacity:1" d="M 13.2537,111.343 28.0597,96.5373 z" id="boundary" inkscape:connector-curvature="0" />
	<path style="fill:none;stroke:red;stroke-width:1px;stroke-linecap:butt;stroke-linejoin:miter;stroke-opacity:1" d="M 13.2537,111.343 28.0597,124.299 z" id="boundary" inkscape:connector-curvature="0" />
	<path style="fill:none;stroke:red;stroke-width:1px;stroke-linecap:butt;stroke-linejoin:miter;stroke-opacity:1" d="M 15.1045,227.94 33.6119,227.94 z" id="boundary" inkscape:connector-curvature="0" />
	<path style="fill:none;stroke:red;stroke-width:1px;stroke-linecap:butt;stroke-linejoin:miter;stroke-opacity:1" d="M 15.1045,292.716 31.7612,301.97 z" id="boundary" inkscape:connector-curvature="0" />
	<path style="fill:none;stroke:red;stroke-width:1px;stroke-linecap:butt;stroke-linejoin:miter;stroke-opacity:1" d="M 22.5075,207.582 41.0149,207.582 z" id="boundary" inkscape:connector-curvature="0" />
	<path style="fill:none;stroke:red;stroke-width:1px;stroke-linecap:butt;stroke-linejoin:miter;stroke-opacity:1" d="M 22.5075,272.358 39.1642,281.612 z" id="boundary" inkscape:connector-curvature="0" />
	<path style="fill:none;stroke:red;stroke-width:1px;stroke-linecap:butt;stroke-linejoin:miter;stroke-opacity:1" d="M 28.0597,96.5373 46.5672,96.5373 z" id="boundary" inkscape:connector-curvature="0" />
	<path style="fill:none;stroke:red;stroke-width:1px;stroke-linecap:butt;stroke-linejoin:miter;stroke-opacity:1" d="M 28.0597,124.299 46.5672,124.299 z" id="boundary" inkscape:connector-curvature="0" />
	<path style="fill:none;stroke:red;stroke-width:1px;stroke-linecap:butt;stroke-linejoin:miter;stroke-opacity:1" d="M 31.7612,301.97 50.2687,301.97 z" id="boundary" inkscape:connector-curvature="0" />
	<path style="fill:none;stroke:red;stroke-width:1px;stroke-linecap:butt;stroke-linejoin:miter;stroke-opacity:1" d="M 33.6119,227.94 50.2687,237.194 z" id="boundary" inkscape:connector-curvature="0" />
	<path style="fill:none;stroke:red;stroke-width:1px;stroke-linecap:butt;stroke-linejoin:miter;stroke-opacity:1" d="M 39.1642,281.612 57.6716,281.612 z" id="boundary" inkscape:connector-curvature="0" />
	<path style="fill:none;stroke:red;stroke-width:1px;stroke-linecap:butt;stroke-linejoin:miter;stroke-opacity:1" d="M 41.0149,18.806 55.8209,4 z" id="boundary" inkscape:connector-curvature="0" />
	<path style="fill:none;stroke:red;stroke-width:1px;stroke-linecap:butt;stroke-linejoin:miter;stroke-opacity:1" d="M 41.0149,18.806 55.8209,31.7612 z" id="boundary" inkscape:connector-curvature="0" />
	<path style="fill:none;stroke:red;stroke-width:1px;stroke-linecap:butt;stroke-linejoin:miter;stroke-opacity:1" d="M 41.0149,207.582 57.6716,216.836 z" id="boundary" inkscape:connector-curvature="0" />
	<path style="fill:none;stroke:red;stroke-width:1px;stroke-linecap:butt;stroke-linejoin:miter;stroke-opacity:1" d="M 46.5672,124.299 65.0746,124.299 z" id="boundary" inkscape:connector-curvature="0" />
	<path style="fill:none;stroke:red;stroke-width:1px;stroke-linecap:butt;stroke-linejoin:miter;stroke-opacity:1" d="M 50.2687,237.194 68.7761,237.194 z" id="boundary" inkscape:connector-curvature="0" />
	<path style="fill:none;stroke:red;stroke-width:1px;stroke-linecap:butt;stroke-linejoin:miter;stroke-opacity:1" d="M 50.2687,301.97 68.7761,301.97 z" id="boundary" inkscape:connector-curvature="0" />
	<path style="fill:none;stroke:red;stroke-width:1px;stroke-linecap:butt;stroke-linejoin:miter;stroke-opacity:1" d="M 55.8209,4 74.3284,4 z" id="boundary" inkscape:connector-curvature="0" />
	<path style="fill:none;stroke:red;stroke-width:1px;stroke-linecap:butt;stroke-linejoin:miter;stroke-opacity:1" d="M 55.8209,31.7612 74.3284,24.3582 z" id="boundary" inkscape:connector-curvature="0" />
	<path style="fill:none;stroke:red;stroke-width:1px;stroke-linecap:butt;stroke-linejoin:miter;stroke-opacity:1" d="M 57.6716,216.836 76.1791,216.836 z" id="boundary" inkscape:connector-curvature="0" />
	<path style="fill:none;stroke:red;stroke-width:1px;stroke-linecap:butt;stroke-linejoin:miter;stroke-opacity:1" d="M 57.6716,281.612 76.1791,281.612 z" id="boundary" inkscape:connector-curvature="0" />
	<path style="fill:none;stroke:red;stroke-width:1px;stroke-linecap:butt;stroke-linejoin:miter;stroke-opacity:1" d="M 63.2239,105.791 65.0746,124.299 z" id="boundary" inkscape:connector-curvature="0" />
	<path style="fill:none;stroke:red;stroke-width:1px;stroke-linecap:butt;stroke-linejoin:miter;stroke-opacity:1" d="M 63.2239,105.791 81.7313,105.791 z" id="boundary" inkscape:connector-curvature="0" />
	<path style="fill:none;stroke:red;stroke-width:1px;stroke-linecap:butt;stroke-linejoin:miter;stroke-opacity:1" d="M 68.7761,237.194 87.2836,237.194 z" id="boundary" inkscape:connector-curvature="0" />
	<path style="fill:none;stroke:red;stroke-width:1px;stroke-linecap:butt;stroke-linejoin:miter;stroke-opacity:1" d="M 68.7761,301.97 85.4328,311.224 z" id="boundary" inkscape:connector-curvature="0" />
	<path style="fill:none;stroke:red;stroke-width:1px;stroke-linecap:butt;stroke-linejoin:miter;stroke-opacity:1" d="M 74.3284,4 92.8358,4 z" id="boundary" inkscape:connector-curvature="0" />
	<path style="fill:none;stroke:red;stroke-width:1px;stroke-linecap:butt;stroke-linejoin:miter;stroke-opacity:1" d="M 74.3284,24.3582 92.8358,24.3582 z" id="boundary" inkscape:connector-curvature="0" />
	<path style="fill:none;stroke:red;stroke-width:1px;stroke-linecap:butt;stroke-linejoin:miter;stroke-opacity:1" d="M 76.1791,216.836 94.6866,216.836 z" id="boundary" inkscape:connector-curvature="0" />
	<path style="fill:none;stroke:red;stroke-width:1px;stroke-linecap:butt;stroke-linejoin:miter;stroke-opacity:1" d="M 76.1791,281.612 92.8358,290.866 z" id="boundary" inkscape:connector-curvature="0" />
	<path style="fill:none;stroke:red;stroke-width:1px;stroke-linecap:butt;stroke-linejoin:miter;stroke-opacity:1" d="M 81.7313,105.791 100.239,105.791 z" id="boundary" inkscape:connector-curvature="0" />
	<path style="fill:none;stroke:red;stroke-width:1px;stroke-linecap:butt;stroke-linejoin:miter;stroke-opacity:1" d="M 83.5821,126.149 100.239,135.403 z" id="boundary" inkscape:connector-curvature="0" />
	<path style="fill:none;stroke:red;stroke-width:1px;stroke-linecap:butt;stroke-linejoin:miter;stroke-opacity:1" d="M 85.4328,311.224 103.94,311.224 z" id="boundary" inkscape:connector-curvature="0" />
	<path style="fill:none;stroke:red;stroke-width:1px;stroke-linecap:butt;stroke-linejoin:miter;stroke-opacity:1" d="M 87.2836,237.194 105.791,237.194 z" id="boundary" inkscape:connector-curvature="0" />
	<path style="fill:none;stroke:red;stroke-width:1px;stroke-linecap:butt;stroke-linejoin:miter;stroke-opacity:1" d="M 92.8358,4 111.343,4 z" id="boundary" inkscape:connector-curvature="0" />
	<path style="fill:none;stroke:red;stroke-width:1px;stroke-linecap:butt;stroke-linejoin:miter;stroke-opacity:1" d="M 92.8358,24.3582 111.343,24.3582 z" id="boundary" inkscape:connector-curvature="0" />
	<path style="fill:none;stroke:red;stroke-width:1px;stroke-linecap:butt;stroke-linejoin:miter;stroke-opacity:1" d="M 92.8358,290.866 111.343,290.866 z" id="boundary" inkscape:connector-curvature="0" />
	<path style="fill:none;stroke:red;stroke-width:1px;stroke-linecap:butt;stroke-linejoin:miter;stroke-opacity:1" d="M 94.6866,216.836 113.194,216.836 z" id="boundary" inkscape:connector-curvature="0" />
	<path style="fill:none;stroke:red;stroke-width:1px;stroke-linecap:butt;stroke-linejoin:miter;stroke-opacity:1" d="M 100.239,105.791 118.746,105.791 z" id="boundary" inkscape:connector-curvature="0" />
	<path style="fill:none;stroke:red;stroke-width:1px;stroke-linecap:butt;stroke-linejoin:miter;stroke-opacity:1" d="M 100.239,135.403 118.746,135.403 z" id="boundary" inkscape:connector-curvature="0" />
	<path style="fill:none;stroke:red;stroke-width:1px;stroke-linecap:butt;stroke-linejoin:miter;stroke-opacity:1" d="M 103.94,311.224 120.597,320.478 z" id="boundary" inkscape:connector-curvature="0" />
	<path style="fill:none;stroke:red;stroke-width:1px;stroke-linecap:butt;stroke-linejoin:miter;stroke-opacity:1" d="M 105.791,237.194 124.299,237.194 z" id="boundary" inkscape:connector-curvature="0" />
	<path style="fill:none;stroke:red;stroke-width:1px;stroke-linecap:butt;stroke-linejoin:miter;stroke-opacity:1" d="M 111.343,4 128,13.2537 z" id="boundary" inkscape:connector-curvature="0" />
	<path style="fill:none;stroke:red;stroke-width:1px;stroke-linecap:butt;stroke-linejoin:miter;stroke-opacity:1" d="M 111.343,24.3582 128,33.6119 z" id="boundary" inkscape:connector-curvature="0" />
	<path style="fill:none;stroke:red;stroke-width:1px;stroke-linecap:butt;stroke-linejoin:miter;stroke-opacity:1" d="M 111.343,290.866 128,300.119 z" id="boundary" inkscape:connector-curvature="0" />
	<path style="fill:none;stroke:red;stroke-width:1px;stroke-linecap:butt;stroke-linejoin:miter;stroke-opacity:1" d="M 113.194,216.836 131.701,216.836 z" id="boundary" inkscape:connector-curvature="0" />
	<path style="fill:none;stroke:red;stroke-width:1px;stroke-linecap:butt;stroke-linejoin:miter;stroke-opacity:1" d="M 118.746,105.791 135.403,115.045 z" id="boundary" inkscape:connector-curvature="0" />
	<path style="fill:none;stroke:red;stroke-width:1px;stroke-linecap:butt;stroke-linejoin:miter;stroke-opacity:1" d="M 118.746,135.403 137.254,140.955 z" id="boundary" inkscape:connector-curvature="0" />
	<path style="fill:none;stroke:red;stroke-width:1px;stroke-linecap:butt;stroke-linejoin:miter;stroke-opacity:1" d="M 120.597,320.478 139.104,320.478 z" id="boundary" inkscape:connector-curvature="0" />
	<path style="fill:none;stroke:red;stroke-width:1px;stroke-linecap:butt;stroke-linejoin:miter;stroke-opacity:1" d="M 124.299,237.194 140.955,246.448 z" id="boundary" inkscape:connector-curvature="0" />
	<path style="fill:none;stroke:red;stroke-width:1px;stroke-linecap:butt;stroke-linejoin:miter;stroke-opacity:1" d="M 128,13.2537 146.507,13.2537 z" id="boundary" inkscape:connector-curvature="0" />
	<path style="fill:none;stroke:red;stroke-width:1px;stroke-linecap:butt;stroke-linejoin:miter;stroke-opacity:1" d="M 128,33.6119 146.507,33.6119 z" id="boundary" inkscape:connector-curvature="0" />
	<path style="fill:none;stroke:red;stroke-width:1px;stroke-linecap:butt;stroke-linejoin:miter;stroke-opacity:1" d="M 128,300.119 146.507,300.119 z" id="boundary" inkscape:connector-curvature="0" />
	<path style="fill:none;stroke:red;stroke-width:1px;stroke-linecap:butt;stroke-linejoin:miter;stroke-opacity:1" d="M 131.701,216.836 148.358,226.09 z" id="boundary" inkscape:connector-curvature="0" />
	<path style="fill:none;stroke:red;stroke-width:1px;stroke-linecap:butt;stroke-linejoin:miter;stroke-opacity:1" d="M 135.403,115.045 153.91,115.045 z" id="boundary" inkscape:connector-curvature="0" />
	<path style="fill:none;stroke:red;stroke-width:1px;stroke-linecap:butt;stroke-linejoin:miter;stroke-opacity:1" d="M 137.254,140.955 155.761,144.657 z" id="boundary" inkscape:connector-curvature="0" />
	<path style="fill:none;stroke:red;stroke-width:1px;stroke-linecap:butt;stroke-linejoin:miter;stroke-opacity:1" d="M 139.104,320.478 157.612,320.478 z" id="boundary" inkscape:connector-curvature="0" />
	<path style="fill:none;stroke:red;stroke-width:1px;stroke-linecap:butt;stroke-linejoin:miter;stroke-opacity:1" d="M 140.955,246.448 159.463,246.448 z" id="boundary" inkscape:connector-curvature="0" />
	<path style="fill:none;stroke:red;stroke-width:1px;stroke-linecap:butt;stroke-linejoin:miter;stroke-opacity:1" d="M 146.507,13.2537 165.015,13.2537 z" id="boundary" inkscape:connector-curvature="0" />
	<path style="fill:none;stroke:red;stroke-width:1px;stroke-linecap:butt;stroke-linejoin:miter;stroke-opacity:1" d="M 146.507,33.6119 165.015,39.1642 z" id="boundary" inkscape:connector-curvature="0" />
	<path style="fill:none;stroke:red;stroke-width:1px;stroke-linecap:butt;stroke-linejoin:miter;stroke-opacity:1" d="M 146.507,300.119 165.015,300.119 z" id="boundary" inkscape:connector-curvature="0" />
	<path style="fill:none;stroke:red;stroke-width:1px;stroke-linecap:butt;stroke-linejoin:miter;stroke-opacity:1" d="M 148.358,226.09 166.866,226.09 z" id="boundary" inkscape:connector-curvature="0" />
	<path style="fill:none;stroke:red;stroke-width:1px;stroke-linecap:butt;stroke-linejoin:miter;stroke-opacity:1" d="M 153.91,115.045 170.567,124.299 z" id="boundary" inkscape:connector-curvature="0" />
	<path style="fill:none;stroke:red;stroke-width:1px;stroke-linecap:butt;stroke-linejoin:miter;stroke-opacity:1" d="M 155.761,144.657 174.269,144.657 z" id="boundary" inkscape:connector-curvature="0" />
	<path style="fill:none;stroke:red;stroke-width:1px;stroke-linecap:butt;stroke-linejoin:miter;stroke-opacity:1" d="M 157.612,320.478 165.015,300.119 z" id="boundary" inkscape:connector-curvature="0" />
	<path style="fill:none;stroke:red;stroke-width:1px;stroke-linecap:butt;stroke-linejoin:miter;stroke-opacity:1" d="M 159.463,246.448 177.97,246.448 z" id="boundary" inkscape:connector-curvature="0" />
	<path style="fill:none;stroke:red;stroke-width:1px;stroke-linecap:butt;stroke-linejoin:miter;stroke-opacity:1" d="M 165.015,13.2537 183.522,13.2537 z" id="boundary" inkscape:connector-curvature="0" />
	<path style="fill:none;stroke:red;stroke-width:1px;stroke-linecap:butt;stroke-linejoin:miter;stroke-opacity:1" d="M 165.015,39.1642 183.522,42.8657 z" id="boundary" inkscape:connector-curvature="0" />
	<path style="fill:none;stroke:red;stroke-width:1px;stroke-linecap:butt;stroke-linejoin:miter;stroke-opacity:1" d="M 166.866,226.09 185.373,226.09 z" id="boundary" inkscape:connector-curvature="0" />
	<path style="fill:none;stroke:red;stroke-width:1px;stroke-linecap:butt;stroke-linejoin:miter;stroke-opacity:1" d="M 170.567,124.299 189.075,124.299 z" id="boundary" inkscape:connector-curvature="0" />
	<path style="fill:none;stroke:red;stroke-width:1px;stroke-linecap:butt;stroke-linejoin:miter;stroke-opacity:1" d="M 174.269,144.657 192.776,144.657 z" id="boundary" inkscape:connector-curvature="0" />
	<path style="fill:none;stroke:red;stroke-width:1px;stroke-linecap:butt;stroke-linejoin:miter;stroke-opacity:1" d="M 176.119,327.881 181.672,309.373 z" id="boundary" inkscape:connector-curvature="0" />
	<path style="fill:none;stroke:red;stroke-width:1px;stroke-linecap:butt;stroke-linejoin:miter;stroke-opacity:1" d="M 176.119,327.881 194.627,329.731 z" id="boundary" inkscape:connector-curvature="0" />
	<path style="fill:none;stroke:red;stroke-width:1px;stroke-linecap:butt;stroke-linejoin:miter;stroke-opacity:1" d="M 177.97,246.448 194.627,255.701 z" id="boundary" inkscape:connector-curvature="0" />
	<path style="fill:none;stroke:red;stroke-width:1px;stroke-linecap:butt;stroke-linejoin:miter;stroke-opacity:1" d="M 181.672,309.373 200.179,305.672 z" id="boundary" inkscape:connector-curvature="0" />
	<path style="fill:none;stroke:red;stroke-width:1px;stroke-linecap:butt;stroke-linejoin:miter;stroke-opacity:1" d="M 183.522,13.2537 200.179,22.5075 z" id="boundary" inkscape:connector-curvature="0" />
	<path style="fill:none;stroke:red;stroke-width:1px;stroke-linecap:butt;stroke-linejoin:miter;stroke-opacity:1" d="M 183.522,42.8657 202.03,48.4179 z" id="boundary" inkscape:connector-curvature="0" />
	<path style="fill:none;stroke:red;stroke-width:1px;stroke-linecap:butt;stroke-linejoin:miter;stroke-opacity:1" d="M 185.373,226.09 202.03,235.343 z" id="boundary" inkscape:connector-curvature="0" />
	<path style="fill:none;stroke:red;stroke-width:1px;stroke-linecap:butt;stroke-linejoin:miter;stroke-opacity:1" d="M 189.075,124.299 207.582,124.299 z" id="boundary" inkscape:connector-curvature="0" />
	<path style="fill:none;stroke:red;stroke-width:1px;stroke-linecap:butt;stroke-linejoin:miter;stroke-opacity:1" d="M 192.776,144.657 211.284,144.657 z" id="boundary" inkscape:connector-curvature="0" />
	<path style="fill:none;stroke:red;stroke-width:1px;stroke-linecap:butt;stroke-linejoin:miter;stroke-opacity:1" d="M 194.627,255.701 213.134,255.701 z" id="boundary" inkscape:connector-curvature="0" />
	<path style="fill:none;stroke:red;stroke-width:1px;stroke-linecap:butt;stroke-linejoin:miter;stroke-opacity:1" d="M 194.627,329.731 213.134,329.731 z" id="boundary" inkscape:connector-curvature="0" />
	<path style="fill:none;stroke:red;stroke-width:1px;stroke-linecap:butt;stroke-linejoin:miter;stroke-opacity:1" d="M 200.179,22.5075 218.687,28.0597 z" id="boundary" inkscape:connector-curvature="0" />
	<path style="fill:none;stroke:red;stroke-width:1px;stroke-linecap:butt;stroke-linejoin:miter;stroke-opacity:1" d="M 200.179,305.672 218.687,303.821 z" id="boundary" inkscape:connector-curvature="0" />
	<path style="fill:none;stroke:red;stroke-width:1px;stroke-linecap:butt;stroke-linejoin:miter;stroke-opacity:1" d="M 202.03,48.4179 220.537,52.1194 z" id="boundary" inkscape:connector-curvature="0" />
	<path style="fill:none;stroke:red;stroke-width:1px;stroke-linecap:butt;stroke-linejoin:miter;stroke-opacity:1" d="M 202.03,235.343 220.537,235.343 z" id="boundary" inkscape:connector-curvature="0" />
	<path style="fill:none;stroke:red;stroke-width:1px;stroke-linecap:butt;stroke-linejoin:miter;stroke-opacity:1" d="M 207.582,124.299 226.09,124.299 z" id="boundary" inkscape:connector-curvature="0" />
	<path style="fill:none;stroke:red;stroke-width:1px;stroke-linecap:butt;stroke-linejoin:miter;stroke-opacity:1" d="M 211.284,144.657 229.791,144.657 z" id="boundary" inkscape:connector-curvature="0" />
	<path style="fill:none;stroke:red;stroke-width:1px;stroke-linecap:butt;stroke-linejoin:miter;stroke-opacity:1" d="M 213.134,255.701 231.642,255.701 z" id="boundary" inkscape:connector-curvature="0" />
	<path style="fill:none;stroke:red;stroke-width:1px;stroke-linecap:butt;stroke-linejoin:miter;stroke-opacity:1" d="M 213.134,329.731 231.642,329.731 z" id="boundary" inkscape:connector-curvature="0" />
	<path style="fill:none;stroke:red;stroke-width:1px;stroke-linecap:butt;stroke-linejoin:miter;stroke-opacity:1" d="M 218.687,28.0597 237.194,31.7612 z" id="boundary" inkscape:connector-curvature="0" />
	<path style="fill:none;stroke:red;stroke-width:1px;stroke-linecap:butt;stroke-linejoin:miter;stroke-opacity:1" d="M 218.687,303.821 237.194,294.567 z" id="boundary" inkscape:connector-curvature="0" />
	<path style="fill:none;stroke:red;stroke-width:1px;stroke-linecap:butt;stroke-linejoin:miter;stroke-opacity:1" d="M 220.537,52.1194 239.045,57.6716 z" id="boundary" inkscape:connector-curvature="0" />
	<path style="fill:none;stroke:red;stroke-width:1px;stroke-linecap:butt;stroke-linejoin:miter;stroke-opacity:1" d="M 220.537,235.343 239.045,235.343 z" id="boundary" inkscape:connector-curvature="0" />
	<path style="fill:none;stroke:red;stroke-width:1px;stroke-linecap:butt;stroke-linejoin:miter;stroke-opacity:1" d="M 226.09,124.299 244.597,124.299 z" id="boundary" inkscape:connector-curvature="0" />
	<path style="fill:none;stroke:red;stroke-width:1px;stroke-linecap:butt;stroke-linejoin:miter;stroke-opacity:1" d="M 229.791,144.657 248.299,150.209 z" id="boundary" inkscape:connector-curvature="0" />
	<path style="fill:none;stroke:red;stroke-width:1px;stroke-linecap:butt;stroke-linejoin:miter;stroke-opacity:1" d="M 231.642,255.701 244.597,270.507 z" id="boundary" inkscape:connector-curvature="0" />
	<path style="fill:none;stroke:red;stroke-width:1px;stroke-linecap:butt;stroke-linejoin:miter;stroke-opacity:1" d="M 231.642,329.731 248.299,320.478 z" id="boundary" inkscape:connector-curvature="0" />
	<path style="fill:none;stroke:red;stroke-width:1px;stroke-linecap:butt;stroke-linejoin:miter;stroke-opacity:1" d="M 237.194,31.7612 255.701,37.3134 z" id="boundary" inkscape:connector-curvature="0" />
	<path style="fill:none;stroke:red;stroke-width:1px;stroke-linecap:butt;stroke-linejoin:miter;stroke-opacity:1" d="M 237.194,294.567 244.597,270.507 z" id="boundary" inkscape:connector-curvature="0" />
	<path style="fill:none;stroke:red;stroke-width:1px;stroke-linecap:butt;stroke-linejoin:miter;stroke-opacity:1" d="M 239.045,57.6716 255.701,66.9254 z" id="boundary" inkscape:connector-curvature="0" />
	<path style="fill:none;stroke:red;stroke-width:1px;stroke-linecap:butt;stroke-linejoin:miter;stroke-opacity:1" d="M 239.045,235.343 255.701,226.09 z" id="boundary" inkscape:connector-curvature="0" />
	<path style="fill:none;stroke:red;stroke-width:1px;stroke-linecap:butt;stroke-linejoin:miter;stroke-opacity:1" d="M 244.597,124.299 263.104,120.597 z" id="boundary" inkscape:connector-curvature="0" />
	<path style="fill:none;stroke:red;stroke-width:1px;stroke-linecap:butt;stroke-linejoin:miter;stroke-opacity:1" d="M 248.299,150.209 255.701,168.716 z" id="boundary" inkscape:connector-curvature="0" />
	<path style="fill:none;stroke:red;stroke-width:1px;stroke-linecap:butt;stroke-linejoin:miter;stroke-opacity:1" d="M 248.299,320.478 263.104,305.672 z" id="boundary" inkscape:connector-curvature="0" />
	<path style="fill:none;stroke:red;stroke-width:1px;stroke-linecap:butt;stroke-linejoin:miter;stroke-opacity:1" d="M 255.701,37.3134 272.358,46.5672 z" id="boundary" inkscape:connector-curvature="0" />
	<path style="fill:none;stroke:red;stroke-width:1px;stroke-linecap:butt;stroke-linejoin:miter;stroke-opacity:1" d="M 255.701,66.9254 272.358,76.1791 z" id="boundary" inkscape:connector-curvature="0" />
	<path style="fill:none;stroke:red;stroke-width:1px;stroke-linecap:butt;stroke-linejoin:miter;stroke-opacity:1" d="M 255.701,168.716 264.955,185.373 z" id="boundary" inkscape:connector-curvature="0" />
	<path style="fill:none;stroke:red;stroke-width:1px;stroke-linecap:butt;stroke-linejoin:miter;stroke-opacity:1" d="M 255.701,226.09 266.806,209.433 z" id="boundary" inkscape:connector-curvature="0" />
	<path style="fill:none;stroke:red;stroke-width:1px;stroke-linecap:butt;stroke-linejoin:miter;stroke-opacity:1" d="M 263.104,120.597 272.358,102.09 z" id="boundary" inkscape:connector-curvature="0" />
	<path style="fill:none;stroke:red;stroke-width:1px;stroke-linecap:butt;stroke-linejoin:miter;stroke-opacity:1" d="M 263.104,305.672 274.209,283.463 z" id="boundary" inkscape:connector-curvature="0" />
	<path style="fill:none;stroke:red;stroke-width:1px;stroke-linecap:butt;stroke-linejoin:miter;stroke-opacity:1" d="M 264.955,185.373 266.806,209.433 z" id="boundary" inkscape:connector-curvature="0" />
	<path style="fill:none;stroke:red;stroke-width:1px;stroke-linecap:butt;stroke-linejoin:miter;stroke-opacity:1" d="M 272.358,46.5672 287.164,59.5224 z" id="boundary" inkscape:connector-curvature="0" />
	<path style="fill:none;stroke:red;stroke-width:1px;stroke-linecap:butt;stroke-linejoin:miter;stroke-opacity:1" d="M 272.358,76.1791 272.358,102.09 z" id="boundary" inkscape:connector-curvature="0" />
	<path style="fill:none;stroke:red;stroke-width:1px;stroke-linecap:butt;stroke-linejoin:miter;stroke-opacity:1" d="M 274.209,283.463 283.463,264.955 z" id="boundary" inkscape:connector-curvature="0" />
	<path style="fill:none;stroke:red;stroke-width:1px;stroke-linecap:butt;stroke-linejoin:miter;stroke-opacity:1" d="M 283.463,264.955 292.716,237.194 z" id="boundary" inkscape:connector-curvature="0" />
	<path style="fill:none;stroke:red;stroke-width:1px;stroke-linecap:butt;stroke-linejoin:miter;stroke-opacity:1" d="M 287.164,59.5224 300.119,74.3284 z" id="boundary" inkscape:connector-curvature="0" />
	<path style="fill:none;stroke:red;stroke-width:1px;stroke-linecap:butt;stroke-linejoin:miter;stroke-opacity:1" d="M 292.716,218.687 292.716,237.194 z" id="boundary" inkscape:connector-curvature="0" />
	<path style="fill:none;stroke:red;stroke-width:1px;stroke-linecap:butt;stroke-linejoin:miter;stroke-opacity:1" d="M 292.716,218.687 307.522,205.731 z" id="boundary" inkscape:connector-curvature="0" />
	<path style="fill:none;stroke:red;stroke-width:1px;stroke-linecap:butt;stroke-linejoin:miter;stroke-opacity:1" d="M 300.119,74.3284 301.97,92.8358 z" id="boundary" inkscape:connector-curvature="0" />
	<path style="fill:none;stroke:red;stroke-width:1px;stroke-linecap:butt;stroke-linejoin:miter;stroke-opacity:1" d="M 301.97,92.8358 311.224,109.493 z" id="boundary" inkscape:connector-curvature="0" />
	<path style="fill:none;stroke:red;stroke-width:1px;stroke-linecap:butt;stroke-linejoin:miter;stroke-opacity:1" d="M 307.522,205.731 318.627,190.925 z" id="boundary" inkscape:connector-curvature="0" />
	<path style="fill:none;stroke:red;stroke-width:1px;stroke-linecap:butt;stroke-linejoin:miter;stroke-opacity:1" d="M 311.224,109.493 322.328,124.299 z" id="boundary" inkscape:connector-curvature="0" />
	<path style="fill:none;stroke:red;stroke-width:1px;stroke-linecap:butt;stroke-linejoin:miter;stroke-opacity:1" d="M 318.627,190.925 337.134,190.925 z" id="boundary" inkscape:connector-curvature="0" />
	<path style="fill:none;stroke:red;stroke-width:1px;stroke-linecap:butt;stroke-linejoin:miter;stroke-opacity:1" d="M 322.328,124.299 340.836,116.896 z" id="boundary" inkscape:connector-curvature="0" />
	<path style="fill:none;stroke:red;stroke-width:1px;stroke-linecap:butt;stroke-linejoin:miter;stroke-opacity:1" d="M 337.134,190.925 355.642,190.925 z" id="boundary" inkscape:connector-curvature="0" />
	<path style="fill:none;stroke:red;stroke-width:1px;stroke-linecap:butt;stroke-linejoin:miter;stroke-opacity:1" d="M 340.836,116.896 359.343,124.299 z" id="boundary" inkscape:connector-curvature="0" />
	<path style="fill:none;stroke:red;stroke-width:1px;stroke-linecap:butt;stroke-linejoin:miter;stroke-opacity:1" d="M 355.642,190.925 374.149,190.925 z" id="boundary" inkscape:connector-curvature="0" />
	<path style="fill:none;stroke:red;stroke-width:1px;stroke-linecap:butt;stroke-linejoin:miter;stroke-opacity:1" d="M 359.343,124.299 377.851,124.299 z" id="boundary" inkscape:connector-curvature="0" />
	<path style="fill:none;stroke:red;stroke-width:1px;stroke-linecap:butt;stroke-linejoin:miter;stroke-opacity:1" d="M 374.149,190.925 390.806,200.179 z" id="boundary" inkscape:connector-curvature="0" />
	<path style="fill:none;stroke:red;stroke-width:1px;stroke-linecap:butt;stroke-linejoin:miter;stroke-opacity:1" d="M 377.851,124.299 396.358,124.299 z" id="boundary" inkscape:connector-curvature="0" />
	<path style="fill:none;stroke:red;stroke-width:1px;stroke-linecap:butt;stroke-linejoin:miter;stroke-opacity:1" d="M 390.806,200.179 409.313,200.179 z" id="boundary" inkscape:connector-curvature="0" />
	<path style="fill:none;stroke:red;stroke-width:1px;stroke-linecap:butt;stroke-linejoin:miter;stroke-opacity:1" d="M 396.358,124.299 413.015,133.552 z" id="boundary" inkscape:connector-curvature="0" />
	<path style="fill:none;stroke:red;stroke-width:1px;stroke-linecap:butt;stroke-linejoin:miter;stroke-opacity:1" d="M 409.313,200.179 425.97,209.433 z" id="boundary" inkscape:connector-curvature="0" />
	<path style="fill:none;stroke:red;stroke-width:1px;stroke-linecap:butt;stroke-linejoin:miter;stroke-opacity:1" d="M 413.015,133.552 431.522,133.552 z" id="boundary" inkscape:connector-curvature="0" />
	<path style="fill:none;stroke:red;stroke-width:1px;stroke-linecap:butt;stroke-linejoin:miter;stroke-opacity:1" d="M 425.97,209.433 444.478,216.836 z" id="boundary" inkscape:connector-curvature="0" />
	<path style="fill:none;stroke:red;stroke-width:1px;stroke-linecap:butt;stroke-linejoin:miter;stroke-opacity:1" d="M 431.522,133.552 448.179,142.806 z" id="boundary" inkscape:connector-curvature="0" />
	<path style="fill:none;stroke:red;stroke-width:1px;stroke-linecap:butt;stroke-linejoin:miter;stroke-opacity:1" d="M 444.478,216.836 462.985,216.836 z" id="boundary" inkscape:connector-curvature="0" />
	<path style="fill:none;stroke:red;stroke-width:1px;stroke-linecap:butt;stroke-linejoin:miter;stroke-opacity:1" d="M 448.179,142.806 466.687,142.806 z" id="boundary" inkscape:connector-curvature="0" />
	<path style="fill:none;stroke:red;stroke-width:1px;stroke-linecap:butt;stroke-linejoin:miter;stroke-opacity:1" d="M 462.985,216.836 479.642,226.09 z" id="boundary" inkscape:connector-curvature="0" />
	<path style="fill:none;stroke:red;stroke-width:1px;stroke-linecap:butt;stroke-linejoin:miter;stroke-opacity:1" d="M 466.687,142.806 483.343,152.06 z" id="boundary" inkscape:connector-curvature="0" />
	<path style="fill:none;stroke:red;stroke-width:1px;stroke-linecap:butt;stroke-linejoin:miter;stroke-opacity:1" d="M 479.642,226.09 498.149,227.94 z" id="boundary" inkscape:connector-curvature="0" />
	<path style="fill:none;stroke:red;stroke-width:1px;stroke-linecap:butt;stroke-linejoin:miter;stroke-opacity:1" d="M 483.343,152.06 500,161.313 z" id="boundary" inkscape:connector-curvature="0" />
	<path style="fill:none;stroke:red;stroke-width:1px;stroke-linecap:butt;stroke-linejoin:miter;stroke-opacity:1" d="M 498.149,227.94 514.806,237.194 z" id="boundary" inkscape:connector-curvature="0" />
	<path style="fill:none;stroke:red;stroke-width:1px;stroke-linecap:butt;stroke-linejoin:miter;stroke-opacity:1" d="M 500,161.313 518.507,161.313 z" id="boundary" inkscape:connector-curvature="0" />
	<path style="fill:none;stroke:red;stroke-width:1px;stroke-linecap:butt;stroke-linejoin:miter;stroke-opacity:1" d="M 514.806,237.194 533.313,240.896 z" id="boundary" inkscape:connector-curvature="0" />
	<path style="fill:none;stroke:red;stroke-width:1px;stroke-linecap:butt;stroke-linejoin:miter;stroke-opacity:1" d="M 518.507,161.313 535.164,170.567 z" id="boundary" inkscape:connector-curvature="0" />
	<path style="fill:none;stroke:red;stroke-width:1px;stroke-linecap:butt;stroke-linejoin:miter;stroke-opacity:1" d="M 533.313,240.896 551.821,240.896 z" id="boundary" inkscape:connector-curvature="0" />
	<path style="fill:none;stroke:red;stroke-width:1px;stroke-linecap:butt;stroke-linejoin:miter;stroke-opacity:1" d="M 535.164,170.567 553.672,170.567 z" id="boundary" inkscape:connector-curvature="0" />
	<path style="fill:none;stroke:red;stroke-width:1px;stroke-linecap:butt;stroke-linejoin:miter;stroke-opacity:1" d="M 551.821,240.896 570.328,246.448 z" id="boundary" inkscape:connector-curvature="0" />
	<path style="fill:none;stroke:red;stroke-width:1px;stroke-linecap:butt;stroke-linejoin:miter;stroke-opacity:1" d="M 553.672,170.567 570.328,179.821 z" id="boundary" inkscape:connector-curvature="0" />
	<path style="fill:none;stroke:red;stroke-width:1px;stroke-linecap:butt;stroke-linejoin:miter;stroke-opacity:1" d="M 570.328,179.821 588.836,185.373 z" id="boundary" inkscape:connector-curvature="0" />
	<path style="fill:none;stroke:red;stroke-width:1px;stroke-linecap:butt;stroke-linejoin:miter;stroke-opacity:1" d="M 570.328,246.448 586.985,255.701 z" id="boundary" inkscape:connector-curvature="0" />
	<path style="fill:none;stroke:red;stroke-width:1px;stroke-linecap:butt;stroke-linejoin:miter;stroke-opacity:1" d="M 586.985,255.701 605.493,255.701 z" id="boundary" inkscape:connector-curvature="0" />
	<path style="fill:none;stroke:red;stroke-width:1px;stroke-linecap:butt;stroke-linejoin:miter;stroke-opacity:1" d="M 588.836,185.373 607.343,189.075 z" id="boundary" inkscape:connector-curvature="0" />
	<path style="fill:none;stroke:red;stroke-width:1px;stroke-linecap:butt;stroke-linejoin:miter;stroke-opacity:1" d="M 605.493,255.701 622.149,264.955 z" id="boundary" inkscape:connector-curvature="0" />
	<path style="fill:none;stroke:red;stroke-width:1px;stroke-linecap:butt;stroke-linejoin:miter;stroke-opacity:1" d="M 607.343,189.075 625.851,189.075 z" id="boundary" inkscape:connector-curvature="0" />
	<path style="fill:none;stroke:red;stroke-width:1px;stroke-linecap:butt;stroke-linejoin:miter;stroke-opacity:1" d="M 622.149,264.955 640.657,264.955 z" id="boundary" inkscape:connector-curvature="0" />
	<path style="fill:none;stroke:red;stroke-width:1px;stroke-linecap:butt;stroke-linejoin:miter;stroke-opacity:1" d="M 625.851,189.075 642.507,198.328 z" id="boundary" inkscape:connector-curvature="0" />
	<path style="fill:none;stroke:red;stroke-width:1px;stroke-linecap:butt;stroke-linejoin:miter;stroke-opacity:1" d="M 640.657,264.955 657.313,274.209 z" id="boundary" inkscape:connector-curvature="0" />
	<path style="fill:none;stroke:red;stroke-width:1px;stroke-linecap:butt;stroke-linejoin:miter;stroke-opacity:1" d="M 642.507,198.328 661.015,198.328 z" id="boundary" inkscape:connector-curvature="0" />
	<path style="fill:none;stroke:red;stroke-width:1px;stroke-linecap:butt;stroke-linejoin:miter;stroke-opacity:1" d="M 657.313,274.209 675.821,274.209 z" id="boundary" inkscape:connector-curvature="0" />
	<path style="fill:none;stroke:red;stroke-width:1px;stroke-linecap:butt;stroke-linejoin:miter;stroke-opacity:1" d="M 661.015,198.328 679.522,202.03 z" id="boundary" inkscape:connector-curvature="0" />
	<path style="fill:none;stroke:red;stroke-width:1px;stroke-linecap:butt;stroke-linejoin:miter;stroke-opacity:1" d="M 675.821,274.209 692.478,283.463 z" id="boundary" inkscape:connector-curvature="0" />
	<path style="fill:none;stroke:red;stroke-width:1px;stroke-linecap:butt;stroke-linejoin:miter;stroke-opacity:1" d="M 679.522,202.03 698.03,207.582 z" id="boundary" inkscape:connector-curvature="0" />
	<path style="fill:none;stroke:red;stroke-width:1px;stroke-linecap:butt;stroke-linejoin:miter;stroke-opacity:1" d="M 692.478,283.463 710.985,279.761 z" id="boundary" inkscape:connector-curvature="0" />
	<path style="fill:none;stroke:red;stroke-width:1px;stroke-linecap:butt;stroke-linejoin:miter;stroke-opacity:1" d="M 698.03,207.582 716.537,207.582 z" id="boundary" inkscape:connector-curvature="0" />
	<path style="fill:none;stroke:red;stroke-width:1px;stroke-linecap:butt;stroke-linejoin:miter;stroke-opacity:1" d="M 710.985,279.761 729.493,283.463 z" id="boundary" inkscape:connector-curvature="0" />
	<path style="fill:none;stroke:red;stroke-width:1px;stroke-linecap:butt;stroke-linejoin:miter;stroke-opacity:1" d="M 716.537,207.582 733.194,216.836 z" id="boundary" inkscape:connector-curvature="0" />
	<path style="fill:none;stroke:red;stroke-width:1px;stroke-linecap:butt;stroke-linejoin:miter;stroke-opacity:1" d="M 729.493,283.463 746.149,292.716 z" id="boundary" inkscape:connector-curvature="0" />
	<path style="fill:none;stroke:red;stroke-width:1px;stroke-linecap:butt;stroke-linejoin:miter;stroke-opacity:1" d="M 733.194,216.836 751.701,216.836 z" id="boundary" inkscape:connector-curvature="0" />
	<path style="fill:none;stroke:red;stroke-width:1px;stroke-linecap:butt;stroke-linejoin:miter;stroke-opacity:1" d="M 746.149,292.716 764.657,292.716 z" id="boundary" inkscape:connector-curvature="0" />
	<path style="fill:none;stroke:red;stroke-width:1px;stroke-linecap:butt;stroke-linejoin:miter;stroke-opacity:1" d="M 751.701,216.836 770.209,216.836 z" id="boundary" inkscape:connector-curvature="0" />
	<path style="fill:none;stroke:red;stroke-width:1px;stroke-linecap:butt;stroke-linejoin:miter;stroke-opacity:1" d="M 764.657,292.716 781.313,301.97 z" id="boundary" inkscape:connector-curvature="0" />
	<path style="fill:none;stroke:red;stroke-width:1px;stroke-linecap:butt;stroke-linejoin:miter;stroke-opacity:1" d="M 770.209,216.836 788.716,218.687 z" id="boundary" inkscape:connector-curvature="0" />
	<path style="fill:none;stroke:red;stroke-width:1px;stroke-linecap:butt;stroke-linejoin:miter;stroke-opacity:1" d="M 781.313,301.97 799.821,301.97 z" id="boundary" inkscape:connector-curvature="0" />
	<path style="fill:none;stroke:red;stroke-width:1px;stroke-linecap:butt;stroke-linejoin:miter;stroke-opacity:1" d="M 788.716,218.687 807.224,218.687 z" id="boundary" inkscape:connector-curvature="0" />
	<path style="fill:none;stroke:red;stroke-width:1px;stroke-linecap:butt;stroke-linejoin:miter;stroke-opacity:1" d="M 799.821,301.97 816.478,311.224 z" id="boundary" inkscape:connector-curvature="0" />
	<path style="fill:none;stroke:red;stroke-width:1px;stroke-linecap:butt;stroke-linejoin:miter;stroke-opacity:1" d="M 807.224,218.687 825.731,216.836 z" id="boundary" inkscape:connector-curvature="0" />
	<path style="fill:none;stroke:red;stroke-width:1px;stroke-linecap:butt;stroke-linejoin:miter;stroke-opacity:1" d="M 816.478,311.224 834.985,311.224 z" id="boundary" inkscape:connector-curvature="0" />
	<path style="fill:none;stroke:red;stroke-width:1px;stroke-linecap:butt;stroke-linejoin:miter;stroke-opacity:1" d="M 825.731,216.836 842.388,226.09 z" id="boundary" inkscape:connector-curvature="0" />
	<path style="fill:none;stroke:red;stroke-width:1px;stroke-linecap:butt;stroke-linejoin:miter;stroke-opacity:1" d="M 834.985,311.224 851.642,320.478 z" id="boundary" inkscape:connector-curvature="0" />
	<path style="fill:none;stroke:red;stroke-width:1px;stroke-linecap:butt;stroke-linejoin:miter;stroke-opacity:1" d="M 842.388,226.09 860.896,226.09 z" id="boundary" inkscape:connector-curvature="0" />
	<path style="fill:none;stroke:red;stroke-width:1px;stroke-linecap:butt;stroke-linejoin:miter;stroke-opacity:1" d="M 851.642,320.478 870.149,318.627 z" id="boundary" inkscape:connector-curvature="0" />
	<path style="fill:none;stroke:red;stroke-width:1px;stroke-linecap:butt;stroke-linejoin:miter;stroke-opacity:1" d="M 860.896,226.09 879.403,226.09 z" id="boundary" inkscape:connector-curvature="0" />
	<path style="fill:none;stroke:red;stroke-width:1px;stroke-linecap:butt;stroke-linejoin:miter;stroke-opacity:1" d="M 870.149,318.627 888.657,320.478 z" id="boundary" inkscape:connector-curvature="0" />
	<path style="fill:none;stroke:red;stroke-width:1px;stroke-linecap:butt;stroke-linejoin:miter;stroke-opacity:1" d="M 879.403,226.09 897.91,226.09 z" id="boundary" inkscape:connector-curvature="0" />
	<path style="fill:none;stroke:red;stroke-width:1px;stroke-linecap:butt;stroke-linejoin:miter;stroke-opacity:1" d="M 888.657,320.478 907.164,320.478 z" id="boundary" inkscape:connector-curvature="0" />
	<path style="fill:none;stroke:red;stroke-width:1px;stroke-linecap:butt;stroke-linejoin:miter;stroke-opacity:1" d="M 897.91,226.09 914.567,235.343 z" id="boundary" inkscape:connector-curvature="0" />
	<path style="fill:none;stroke:red;stroke-width:1px;stroke-linecap:butt;stroke-linejoin:miter;stroke-opacity:1" d="M 907.164,320.478 925.672,320.478 z" id="boundary" inkscape:connector-curvature="0" />
	<path style="fill:none;stroke:red;stroke-width:1px;stroke-linecap:butt;stroke-linejoin:miter;stroke-opacity:1" d="M 914.567,235.343 933.075,235.343 z" id="boundary" inkscape:connector-curvature="0" />
	<path style="fill:none;stroke:red;stroke-width:1px;stroke-linecap:butt;stroke-linejoin:miter;stroke-opacity:1" d="M 925.672,320.478 944.179,320.478 z" id="boundary" inkscape:connector-curvature="0" />
	<path style="fill:none;stroke:red;stroke-width:1px;stroke-linecap:butt;stroke-linejoin:miter;stroke-opacity:1" d="M 933.075,235.343 951.582,235.343 z" id="boundary" inkscape:connector-curvature="0" />
	<path style="fill:none;stroke:red;stroke-width:1px;stroke-linecap:butt;stroke-linejoin:miter;stroke-opacity:1" d="M 944.179,320.478 962.687,318.627 z" id="boundary" inkscape:connector-curvature="0" />
	<path style="fill:none;stroke:red;stroke-width:1px;stroke-linecap:butt;stroke-linejoin:miter;stroke-opacity:1" d="M 951.582,235.343 968.239,244.597 z" id="boundary" inkscape:connector-curvature="0" />
	<path style="fill:none;stroke:red;stroke-width:1px;stroke-linecap:butt;stroke-linejoin:miter;stroke-opacity:1" d="M 962.687,318.627 981.194,309.373 z" id="boundary" inkscape:connector-curvature="0" />
	<path style="fill:none;stroke:red;stroke-width:1px;stroke-linecap:butt;stroke-linejoin:miter;stroke-opacity:1" d="M 968.239,244.597 983.045,255.701 z" id="boundary" inkscape:connector-curvature="0" />
	<path style="fill:none;stroke:red;stroke-width:1px;stroke-linecap:butt;stroke-linejoin:miter;stroke-opacity:1" d="M 981.194,309.373 996,292.716 z" id="boundary" inkscape:connector-curvature="0" />
	<path style="fill:none;stroke:red;stroke-width:1px;stroke-linecap:butt;stroke-linejoin:miter;stroke-opacity:1" d="M 983.045,255.701 996,270.507 z" id="boundary" inkscape:connector-curvature="0" />
	<path style="fill:none;stroke:red;stroke-width:1px;stroke-linecap:butt;stroke-linejoin:miter;stroke-opacity:1" d="M 996,270.507 996,292.716 z" id="boundary" inkscape:connector-curvature="0" />
	<circle cx="4" cy="213.134" r="4" fill="#0" id="circle0"/>
	<circle cx="4" cy="277.91" r="4" fill="#0" id="circle1"/>
	<circle cx="13.2537" cy="111.343" r="4" fill="#0" id="circle2"/>
	<circle cx="15.1045" cy="227.94" r="4" fill="#0" id="circle3"/>
	<circle cx="15.1045" cy="292.716" r="4" fill="#0" id="circle4"/>
	<circle cx="22.5075" cy="207.582" r="4" fill="#0" id="circle5"/>
	<circle cx="22.5075" cy="272.358" r="4" fill="#0" id="circle6"/>
	<circle cx="28.0597" cy="96.5373" r="4" fill="#0" id="circle7"/>
	<circle cx="28.0597" cy="124.299" r="4" fill="#0" id="circle8"/>
	<circle cx="31.7612" cy="301.97" r="4" fill="#0" id="circle9"/>
	<circle cx="33.6119" cy="227.94" r="4" fill="#0" id="circle10"/>
	<circle cx="39.1642" cy="281.612" r="4" fill="#0" id="circle11"/>
	<circle cx="41.0149" cy="18.806" r="4" fill="#0" id="circle12"/>
	<circle cx="41.0149" cy="207.582" r="4" fill="#0" id="circle13"/>
	<circle cx="46.5672" cy="96.5373" r="4" fill="#0" id="circle14"/>
	<circle cx="46.5672" cy="124.299" r="4" fill="#0" id="circle15"/>
	<circle cx="50.2687" cy="237.194" r="4" fill="#0" id="circle16"/>
	<circle cx="50.2687" cy="301.97" r="4" fill="#0" id="circle17"/>
	<circle cx="55.8209" cy="4" r="4" fill="#0" id="circle18"/>
	<circle cx="55.8209" cy="31.7612" r="4" fill="#0" id="circle19"/>
	<circle cx="57.6716" cy="216.836" r="4" fill="#0" id="circle20"/>
	<circle cx="57.6716" cy="281.612" r="4" fill="#0" id="circle21"/>
	<circle cx="63.2239" cy="105.791" r="4" fill="#0" id="circle22"/>
	<circle cx="65.0746" cy="124.299" r="4" fill="#0" id="circle23"/>
	<circle cx="68.7761" cy="237.194" r="4" fill="#0" id="circle24"/>
	<circle cx="68.7761" cy="301.97" r="4" fill="#0" id="circle25"/>
	<circle cx="74.3284" cy="4" r="4" fill="#0" id="circle26"/>
	<circle cx="74.3284" cy="24.3582" r="4" fill="#0" id="circle27"/>
	<circle cx="76.1791" cy="216.836" r="4" fill="#0" id="circle28"/>
	<circle cx="76.1791" cy="281.612" r="4" fill="#0" id="circle29"/>
	<circle cx="81.7313" cy="105.791" r="4" fill="#0" id="circle30"/>
	<circle cx="83.5821" cy="126.149" r="4" fill="#0" id="circle31"/>
	<circle cx="85.4328" cy="311.224" r="4" fill="#0" id="circle32"/>
	<circle cx="87.2836" cy="237.194" r="4" fill="#0" id="circle33"/>
	<circle cx="92.8358" cy="4" r="4" fill="#0" id="circle34"/>
	<circle cx="92.8358" cy="24.3582" r="4" fill="#0" id="circle35"/>
	<circle cx="92.8358" cy="290.866" r="4" fill="#0" id="circle36"/>
	<circle cx="94.6866" cy="216.836" r="4" fill="#0" id="circle37"/>
	<circle cx="100.239" cy="105.791" r="4" fill="#0" id="circle38"/>
	<circle cx="100.239" cy="135.403" r="4" fill="#0" id="circle39"/>
	<circle cx="103.94" cy="311.224" r="4" fill="#0" id="circle40"/>
	<circle cx="105.791" cy="237.194" r="4" fill="#0" id="circle41"/>
	<circle cx="111.343" cy="4" r="4" fill="#0" id="circle42"/>
	<circle cx="111.343" cy="24.3582" r="4" fill="#0" id="circle43"/>
	<circle cx="111.343" cy="290.866" r="4" fill="#0" id="circle44"/>
	<circle cx="113.194" cy="216.836" r="4" fill="#0" id="circle45"/>
	<circle cx="118.746" cy="105.791" r="4" fill="#0" id="circle46"/>
	<circle cx="118.746" cy="135.403" r="4" fill="#0" id="circle47"/>
	<circle cx="120.597" cy="320.478" r="4" fill="#0" id="circle48"/>
	<circle cx="124.299" cy="237.194" r="4" fill="#0" id="circle49"/>
	<circle cx="128" cy="13.2537" r="4" fill="#0" id="circle50"/>
	<circle cx="128" cy="33.6119" r="4" fill="#0" id="circle51"/>
	<circle cx="128" cy="300.119" r="4" fill="#0" id="circle52"/>
	<circle cx="131.701" cy="216.836" r="4" fill="#0" id="circle53"/>
	<circle cx="135.403" cy="115.045" r="4" fill="#0" id="circle54"/>
	<circle cx="137.254" cy="140.955" r="4" fill="#0" id="circle55"/>
	<circle cx="139.104" cy="320.478" r="4" fill="#0" id="circle56"/>
	<circle cx="140.955" cy="246.448" r="4" fill="#0" id="circle57"/>
	<circle cx="146.507" cy="13.2537" r="4" fill="#0" id="circle58"/>
	<circle cx="146.507" cy="33.6119" r="4" fill="#0" id="circle59"/>
	<circle cx="146.507" cy="300.119" r="4" fill="#0" id="circle60"/>
	<circle cx="148.358" cy="226.09" r="4" fill="#0" id="circle61"/>
	<circle cx="153.91" cy="115.045" r="4" fill="#0" id="circle62"/>
	<circle cx="155.761" cy="144.657" r="4" fill="#0" id="circle63"/>
	<circle cx="157.612" cy="320.478" r="4" fill="#0" id="circle64"/>
	<circle cx="159.463" cy="246.448" r="4" fill="#0" id="circle65"/>
	<circle cx="165.015" cy="13.2537" r="4" fill="#0" id="circle66"/>
	<circle cx="165.015" cy="39.1642" r="4" fill="#0" id="circle67"/>
	<circle cx="165.015" cy="300.119" r="4" fill="#0" id="circle68"/>
	<circle cx="166.866" cy="226.09" r="4" fill="#0" id="circle69"/>
	<circle cx="170.567" cy="124.299" r="4" fill="#0" id="circle70"/>
	<circle cx="174.269" cy="144.657" r="4" fill="#0" id="circle71"/>
	<circle cx="176.119" cy="327.881" r="4" fill="#0" id="circle72"/>
	<circle cx="177.97" cy="246.448" r="4" fill="#0" id="circle73"/>
	<circle cx="181.672" cy="309.373" r="4" fill="#0" id="circle74"/>
	<circle cx="183.522" cy="13.2537" r="4" fill="#0" id="circle75"/>
	<circle cx="183.522" cy="42.8657" r="4" fill="#0" id="circle76"/>
	<circle cx="185.373" cy="226.09" r="4" fill="#0" id="circle77"/>
	<circle cx="189.075" cy="124.299" r="4" fill="#0" id="circle78"/>
	<circle cx="192.776" cy="144.657" r="4" fill="#0" id="circle79"/>
	<circle cx="194.627" cy="255.701" r="4" fill="#0" id="circle80"/>
	<circle cx="194.627" cy="329.731" r="4" fill="#0" id="circle81"/>
	<circle cx="200.179" cy="22.5075" r="4" fill="#0" id="circle82"/>
	<circle cx="200.179" cy="305.672" r="4" fill="#0" id="circle83"/>
	<circle cx="202.03" cy="48.4179" r="4" fill="#0" id="circle84"/>
	<circle cx="202.03" cy="235.343" r="4" fill="#0" id="circle85"/>
	<circle cx="207.582" cy="124.299" r="4" fill="#0" id="circle86"/>
	<circle cx="211.284" cy="144.657" r="4" fill="#0" id="circle87"/>
	<circle cx="213.134" cy="255.701" r="4" fill="#0" id="circle88"/>
	<circle cx="213.134" cy="329.731" r="4" fill="#0" id="circle89"/>
	<circle cx="218.687" cy="28.0597" r="4" fill="#0" id="circle90"/>
	<circle cx="218.687" cy="303.821" r="4" fill="#0" id="circle91"/>
	<circle cx="220.537" cy="52.1194" r="4" fill="#0" id="circle92"/>
	<circle cx="220.537" cy="235.343" r="4" fill="#0" id="circle93"/>
	<circle cx="226.09" cy="124.299" r="4" fill="#0" id="circle94"/>
	<circle cx="229.791" cy="144.657" r="4" fill="#0" id="circle95"/>
	<circle cx="231.642" cy="255.701" r="4" fill="#0" id="circle96"/>
	<circle cx="231.642" cy="329.731" r="4" fill="#0" id="circle97"/>
	<circle cx="237.194" cy="31.7612" r="4" fill="#0" id="circle98"/>
	<circle cx="237.194" cy="294.567" r="4" fill="#0" id="circle99"/>
	<circle cx="239.045" cy="57.6716" r="4" fill="#0" id="circle100"/>
	<circle cx="239.045" cy="235.343" r="4" fill="#0" id="circle101"/>
	<circle cx="244.597" cy="124.299" r="4" fill="#0" id="circle102"/>
	<circle cx="244.597" cy="270.507" r="4" fill="#0" id="circle103"/>
	<circle cx="248.299" cy="150.209" r="4" fill="#0" id="circle104"/>
	<circle cx="248.299" cy="320.478" r="4" fill="#0" id="circle105"/>
	<circle cx="255.701" cy="37.3134" r="4" fill="#0" id="circle106"/>
	<circle cx="255.701" cy="66.9254" r="4" fill="#0" id="circle107"/>
	<circle cx="255.701" cy="168.716" r="4" fill="#0" id="circle108"/>
	<circle cx="255.701" cy="226.09" r="4" fill="#0" id="circle109"/>
	<circle cx="263.104" cy="120.597" r="4" fill="#0" id="circle110"/>
	<circle cx="263.104" cy="305.672" r="4" fill="#0" id="circle111"/>
	<circle cx="264.955" cy="185.373" r="4" fill="#0" id="circle112"/>
	<circle cx="266.806" cy="209.433" r="4" fill="#0" id="circle113"/>
	<circle cx="272.358" cy="46.5672" r="4" fill="#0" id="circle114"/>
	<circle cx="272.358" cy="76.1791" r="4" fill="#0" id="circle115"/>
	<circle cx="272.358" cy="102.09" r="4" fill="#0" id="circle116"/>
	<circle cx="274.209" cy="283.463" r="4" fill="#0" id="circle117"/>
	<circle cx="283.463" cy="264.955" r="4" fill="#0" id="circle118"/>
	<circle cx="287.164" cy="59.5224" r="4" fill="#0" id="circle119"/>
	<circle cx="292.716" cy="218.687" r="4" fill="#0" id="circle120"/>
	<circle cx="292.716" cy="237.194" r="4" fill="#0" id="circle121"/>
	<circle cx="300.119" cy="74.3284" r="4" fill="#0" id="circle122"/>
	<circle cx="301.97" cy="92.8358" r="4" fill="#0" id="circle123"/>
	<circle cx="307.522" cy="205.731" r="4" fill="#0" id="circle124"/>
	<circle cx="311.224" cy="109.493" r="4" fill="#0" id="circle125"/>
	<circle cx="318.627" cy="190.925" r="4" fill="#0" id="circle126"/>
	<circle cx="322.328" cy="124.299" r="4" fill="#0" id="circle127"/>
	<circle cx="337.134" cy="190.925" r="4" fill="#0" id="circle128"/>
	<circle cx="340.836" cy="116.896" r="4" fill="#0" id="circle129"/>
	<circle cx="355.642" cy="190.925" r="4" fill="#0" id="circle130"/>
	<circle cx="359.343" cy="124.299" r="4" fill="#0" id="circle131"/>
	<circle cx="374.149" cy="190.925" r="4" fill="#0" id="circle132"/>
	<circle cx="377.851" cy="124.299" r="4" fill="#0" id="circle133"/>
	<circle cx="390.806" cy="200.179" r="4" fill="#0" id="circle134"/>
	<circle cx="396.358" cy="124.299" r="4" fill="#0" id="circle135"/>
	<circle cx="409.313" cy="200.179" r="4" fill="#0" id="circle136"/>
	<circle cx="413.015" cy="133.552" r="4" fill="#0" id="circle137"/>
	<circle cx="425.97" cy="209.433" r="4" fill="#0" id="circle138"/>
	<circle cx="431.522" cy="133.552" r="4" fill="#0" id="circle139"/>
	<circle cx="444.478" cy="216.836" r="4" fill="#0" id="circle140"/>
	<circle cx="448.179" cy="142.806" r="4" fill="#0" id="circle141"/>
	<circle cx="462.985" cy="216.836" r="4" fill="#0" id="circle142"/>
	<circle cx="466.687" cy="142.806" r="4" fill="#0" id="circle143"/>
	<circle cx="479.642" cy="226.09" r="4" fill="#0" id="circle144"/>
	<circle cx="483.343" cy="152.06" r="4" fill="#0" id="circle145"/>
	<circle cx="498.149" cy="227.94" r="4" fill="#0" id="circle146"/>
	<circle cx="500" cy="161.313" r="4" fill="#0" id="circle147"/>
	<circle cx="514.806" cy="237.194" r="4" fill="#0" id="circle148"/>
	<circle cx="518.507" cy="161.313" r="4" fill="#0" id="circle149"/>
	<circle cx="533.313" cy="240.896" r="4" fill="#0" id="circle150"/>
	<circle cx="535.164" cy="170.567" r="4" fill="#0" id="circle151"/>
	<circle cx="551.821" cy="240.896" r="4" fill="#0" id="circle152"/>
	<circle cx="553.672" cy="170.567" r="4" fill="#0" id="circle153"/>
	<circle cx="570.328" cy="179.821" r="4" fill="#0" id="circle154"/>
	<circle cx="570.328" cy="246.448" r="4" fill="#0" id="circle155"/>
	<circle cx="586.985" cy="255.701" r="4" fill="#0" id="circle156"/>
	<circle cx="588.836" cy="185.373" r="4" fill="#0" id="circle157"/>
	<circle cx="605.493" cy="255.701" r="4" fill="#0" id="circle158"/>
	<circle cx="607.343" cy="189.075" r="4" fill="#0" id="circle159"/>
	<circle cx="622.149" cy="264.955" r="4" fill="#0" id="circle160"/>
	<circle cx="625.851" cy="189.075" r="4" fill="#0" id="circle161"/>
	<circle cx="640.657" cy="264.955" r="4" fill="#0" id="circle162"/>
	<circle cx="642.507" cy="198.328" r="4" fill="#0" id="circle163"/>
	<circle cx="657.313" cy="274.209" r="4" fill="#0" id="circle164"/>
	<circle cx="661.015" cy="198.328" r="4" fill="#0" id="circle165"/>
	<circle cx="675.821" cy="274.209" r="4" fill="#0" id="circle166"/>
	<circle cx="679.522" cy="202.03" r="4" fill="#0" id="circle167"/>
	<circle cx="692.478" cy="283.463" r="4" fill="#0" id="circle168"/>
	<circle cx="698.03" cy="207.582" r="4" fill="#0" id="circle169"/>
	<circle cx="710.985" cy="279.761" r="4" fill="#0" id="circle170"/>
	<circle cx="716.537" cy="207.582" r="4" fill="#0" id="circle171"/>
	<circle cx="729.493" cy="283.463" r="4" fill="#0" id="circle172"/>
	<circle cx="733.194" cy="216.836" r="4" fill="#0" id="circle173"/>
	<circle cx="746.149" cy="292.716" r="4" fill="#0" id="circle174"/>
	<circle cx="751.701" cy="216.836" r="4" fill="#0" id="circle175"/>
	<circle cx="764.657" cy="292.716" r="4" fill="#0" id="circle176"/>
	<circle cx="770.209" cy="216.836" r="4" fill="#0" id="circle177"/>
	<circle cx="781.313" cy="301.97" r="4" fill="#0" id="circle178"/>
	<circle cx="788.716" cy="218.687" r="4" fill="#0" id="circle179"/>
	<circle cx="799.821" cy="301.97" r="4" fill="#0" id="circle180"/>
	<circle cx="807.224" cy="218.687" r="4" fill="#0" id="circle181"/>
	<circle cx="816.478" cy="311.224" r="4" fill="#0" id="circle182"/>
	<circle cx="825.731" cy="216.836" r="4" fill="#0" id="circle183"/>
	<circle cx="834.985" cy="311.224" r="4" fill="#0" id="circle184"/>
	<circle cx="842.388" cy="226.09" r="4" fill="#0" id="circle185"/>
	<circle cx="851.642" cy="320.478" r="4" fill="#0" id="circle186"/>
	<circle cx="860.896" cy="226.09" r="4" fill="#0" id="circle187"/>
	<circle cx="870.149" cy="318.627" r="4" fill="#0" id="circle188"/>
	<circle cx="879.403" cy="226.09" r="4" fill="#0" id="circle189"/>
	<circle cx="888.657" cy="320.478" r="4" fill="#0" id="circle190"/>
	<circle cx="897.91" cy="226.09" r="4" fill="#0" id="circle191"/>
	<circle cx="907.164" cy="320.478" r="4" fill="#0" id="circle192"/>
	<circle cx="914.567" cy="235.343" r="4" fill="#0" id="circle193"/>
	<circle cx="925.672" cy="320.478" r="4" fill="#0" id="circle194"/>
	<circle cx="933.075" cy="235.343" r="4" fill="#0" id="circle195"/>
	<circle cx="944.179" cy="320.478" r="4" fill="#0" id="circle196"/>
	<circle cx="951.582" cy="235.343" r="4" fill="#0" id="circle197"/>
	<circle cx="962.687" cy="318.627" r="4" fill="#0" id="circle198"/>
	<circle cx="968.239" cy="244.597" r="4" fill="#0" id="circle199"/>
	<circle cx="981.194" cy="309.373" r="4" fill="#0" id="circle200"/>
	<circle cx="983.045" cy="255.701" r="4" fill="#0" id="circle201"/>
	<circle cx="996" cy="270.507" r="4" fill="#0" id="circle202"/>
	<circle cx="996" cy="292.716" r="4" fill="#0" id="circle203"/>
	</g>
</svg>