<?xml version="1.0" encoding="UTF-8" standalone="no"?>
<!-- Created with CurveBenchmark -->
<svg
	xmlns:dc="http://purl.org/dc/elements/1.1/"
	xmlns:cc="http://creativecommons.org/ns#"
	xmlns:rdf="http://www.w3.org/1999/02/22-rdf-syntax-ns#"
	xmlns:svg="http://www.w3.org/2000/svg"
	xmlns="http://www.w3.org/2000/svg"
	xmlns:sodipodi="http://sodipodi.sourceforge.net/DTD/sodipodi-0.dtd"
	xmlns:inkscape="http://www.inkscape.org/namespaces/inkscape"
	width="1000"
	height="1000"
	id="svg2"
	version="1.1"
	sodipodi:docname="manifold/discur-elephant08.png.txt">
<defs
	id="defs4" />
<metadata
	id="metadata7">
	<rdf:RDF>
		<cc:Work
			rdf:about="">
			<dc:format>image/svg+xml</dc:format>
			<dc:type
				rdf:resource="http://purl.org/dc/dcmitype/StillImage" />
			<dc:title></dc:title>
		</cc:Work>
	</rdf:RDF>
</metadata>
<g
	inkscape:label="Layer 1"
	inkscape:groupmode="layer"
	id="layer1">
	<path style="fill:none;stroke:red;stroke-width:1px;stroke-linecap:butt;stroke-linejoin:miter;stroke-opacity:1" d="M 4,486.497 14.8022,500.9 z" id="boundary" inkscape:connector-curvature="0" />
	<path style="fill:none;stroke:red;stroke-width:1px;stroke-linecap:butt;stroke-linejoin:miter;stroke-opacity:1" d="M 4,486.497 18.4029,472.094 z" id="boundary" inkscape:connector-curvature="0" />
	<path style="fill:none;stroke:red;stroke-width:1px;stroke-linecap:butt;stroke-linejoin:miter;stroke-opacity:1" d="M 14.8022,500.9 29.2051,488.298 z" id="boundary" inkscape:connector-curvature="0" />
	<path style="fill:none;stroke:red;stroke-width:1px;stroke-linecap:butt;stroke-linejoin:miter;stroke-opacity:1" d="M 18.4029,472.094 29.2051,488.298 z" id="boundary" inkscape:connector-curvature="0" />
	<path style="fill:none;stroke:red;stroke-width:1px;stroke-linecap:butt;stroke-linejoin:miter;stroke-opacity:1" d="M 32.8058,457.691 47.2087,445.089 z" id="boundary" inkscape:connector-curvature="0" />
	<path style="fill:none;stroke:red;stroke-width:1px;stroke-linecap:butt;stroke-linejoin:miter;stroke-opacity:1" d="M 32.8058,457.691 47.2087,479.296 z" id="boundary" inkscape:connector-curvature="0" />
	<path style="fill:none;stroke:red;stroke-width:1px;stroke-linecap:butt;stroke-linejoin:miter;stroke-opacity:1" d="M 47.2087,445.089 58.0109,423.485 z" id="boundary" inkscape:connector-curvature="0" />
	<path style="fill:none;stroke:red;stroke-width:1px;stroke-linecap:butt;stroke-linejoin:miter;stroke-opacity:1" d="M 47.2087,479.296 59.8113,464.893 z" id="boundary" inkscape:connector-curvature="0" />
	<path style="fill:none;stroke:red;stroke-width:1px;stroke-linecap:butt;stroke-linejoin:miter;stroke-opacity:1" d="M 58.0109,297.459 58.0109,315.463 z" id="boundary" inkscape:connector-curvature="0" />
	<path style="fill:none;stroke:red;stroke-width:1px;stroke-linecap:butt;stroke-linejoin:miter;stroke-opacity:1" d="M 58.0109,297.459 67.0127,279.456 z" id="boundary" inkscape:connector-curvature="0" />
	<path style="fill:none;stroke:red;stroke-width:1px;stroke-linecap:butt;stroke-linejoin:miter;stroke-opacity:1" d="M 58.0109,315.463 58.0109,333.466 z" id="boundary" inkscape:connector-curvature="0" />
	<path style="fill:none;stroke:red;stroke-width:1px;stroke-linecap:butt;stroke-linejoin:miter;stroke-opacity:1" d="M 58.0109,333.466 58.0109,351.47 z" id="boundary" inkscape:connector-curvature="0" />
	<path style="fill:none;stroke:red;stroke-width:1px;stroke-linecap:butt;stroke-linejoin:miter;stroke-opacity:1" d="M 58.0109,351.47 58.0109,369.474 z" id="boundary" inkscape:connector-curvature="0" />
	<path style="fill:none;stroke:red;stroke-width:1px;stroke-linecap:butt;stroke-linejoin:miter;stroke-opacity:1" d="M 58.0109,369.474 58.0109,387.477 z" id="boundary" inkscape:connector-curvature="0" />
	<path style="fill:none;stroke:red;stroke-width:1px;stroke-linecap:butt;stroke-linejoin:miter;stroke-opacity:1" d="M 58.0109,387.477 58.0109,405.481 z" id="boundary" inkscape:connector-curvature="0" />
	<path style="fill:none;stroke:red;stroke-width:1px;stroke-linecap:butt;stroke-linejoin:miter;stroke-opacity:1" d="M 58.0109,405.481 58.0109,423.485 z" id="boundary" inkscape:connector-curvature="0" />
	<path style="fill:none;stroke:red;stroke-width:1px;stroke-linecap:butt;stroke-linejoin:miter;stroke-opacity:1" d="M 59.8113,464.893 70.6134,479.296 z" id="boundary" inkscape:connector-curvature="0" />
	<path style="fill:none;stroke:red;stroke-width:1px;stroke-linecap:butt;stroke-linejoin:miter;stroke-opacity:1" d="M 67.0127,243.448 67.0127,261.452 z" id="boundary" inkscape:connector-curvature="0" />
	<path style="fill:none;stroke:red;stroke-width:1px;stroke-linecap:butt;stroke-linejoin:miter;stroke-opacity:1" d="M 67.0127,243.448 76.0145,216.443 z" id="boundary" inkscape:connector-curvature="0" />
	<path style="fill:none;stroke:red;stroke-width:1px;stroke-linecap:butt;stroke-linejoin:miter;stroke-opacity:1" d="M 67.0127,261.452 67.0127,279.456 z" id="boundary" inkscape:connector-curvature="0" />
	<path style="fill:none;stroke:red;stroke-width:1px;stroke-linecap:butt;stroke-linejoin:miter;stroke-opacity:1" d="M 70.6134,479.296 76.0145,497.299 z" id="boundary" inkscape:connector-curvature="0" />
	<path style="fill:none;stroke:red;stroke-width:1px;stroke-linecap:butt;stroke-linejoin:miter;stroke-opacity:1" d="M 76.0145,216.443 85.0163,198.439 z" id="boundary" inkscape:connector-curvature="0" />
	<path style="fill:none;stroke:red;stroke-width:1px;stroke-linecap:butt;stroke-linejoin:miter;stroke-opacity:1" d="M 76.0145,497.299 76.0145,515.303 z" id="boundary" inkscape:connector-curvature="0" />
	<path style="fill:none;stroke:red;stroke-width:1px;stroke-linecap:butt;stroke-linejoin:miter;stroke-opacity:1" d="M 76.0145,515.303 85.0163,531.506 z" id="boundary" inkscape:connector-curvature="0" />
	<path style="fill:none;stroke:red;stroke-width:1px;stroke-linecap:butt;stroke-linejoin:miter;stroke-opacity:1" d="M 85.0163,180.436 85.0163,198.439 z" id="boundary" inkscape:connector-curvature="0" />
	<path style="fill:none;stroke:red;stroke-width:1px;stroke-linecap:butt;stroke-linejoin:miter;stroke-opacity:1" d="M 85.0163,180.436 94.0181,162.432 z" id="boundary" inkscape:connector-curvature="0" />
	<path style="fill:none;stroke:red;stroke-width:1px;stroke-linecap:butt;stroke-linejoin:miter;stroke-opacity:1" d="M 85.0163,531.506 85.0163,549.51 z" id="boundary" inkscape:connector-curvature="0" />
	<path style="fill:none;stroke:red;stroke-width:1px;stroke-linecap:butt;stroke-linejoin:miter;stroke-opacity:1" d="M 85.0163,549.51 99.4192,562.113 z" id="boundary" inkscape:connector-curvature="0" />
	<path style="fill:none;stroke:red;stroke-width:1px;stroke-linecap:butt;stroke-linejoin:miter;stroke-opacity:1" d="M 94.0181,144.428 94.0181,162.432 z" id="boundary" inkscape:connector-curvature="0" />
	<path style="fill:none;stroke:red;stroke-width:1px;stroke-linecap:butt;stroke-linejoin:miter;stroke-opacity:1" d="M 94.0181,144.428 103.02,126.425 z" id="boundary" inkscape:connector-curvature="0" />
	<path style="fill:none;stroke:red;stroke-width:1px;stroke-linecap:butt;stroke-linejoin:miter;stroke-opacity:1" d="M 99.4192,562.113 112.022,576.515 z" id="boundary" inkscape:connector-curvature="0" />
	<path style="fill:none;stroke:red;stroke-width:1px;stroke-linecap:butt;stroke-linejoin:miter;stroke-opacity:1" d="M 103.02,126.425 112.022,108.421 z" id="boundary" inkscape:connector-curvature="0" />
	<path style="fill:none;stroke:red;stroke-width:1px;stroke-linecap:butt;stroke-linejoin:miter;stroke-opacity:1" d="M 112.022,108.421 121.024,90.4174 z" id="boundary" inkscape:connector-curvature="0" />
	<path style="fill:none;stroke:red;stroke-width:1px;stroke-linecap:butt;stroke-linejoin:miter;stroke-opacity:1" d="M 112.022,576.515 126.425,589.118 z" id="boundary" inkscape:connector-curvature="0" />
	<path style="fill:none;stroke:red;stroke-width:1px;stroke-linecap:butt;stroke-linejoin:miter;stroke-opacity:1" d="M 121.024,90.4174 130.025,72.4138 z" id="boundary" inkscape:connector-curvature="0" />
	<path style="fill:none;stroke:red;stroke-width:1px;stroke-linecap:butt;stroke-linejoin:miter;stroke-opacity:1" d="M 126.425,589.118 140.828,599.92 z" id="boundary" inkscape:connector-curvature="0" />
	<path style="fill:none;stroke:red;stroke-width:1px;stroke-linecap:butt;stroke-linejoin:miter;stroke-opacity:1" d="M 130.025,72.4138 139.027,54.4102 z" id="boundary" inkscape:connector-curvature="0" />
	<path style="fill:none;stroke:red;stroke-width:1px;stroke-linecap:butt;stroke-linejoin:miter;stroke-opacity:1" d="M 131.826,374.875 131.826,392.878 z" id="boundary" inkscape:connector-curvature="0" />
	<path style="fill:none;stroke:red;stroke-width:1px;stroke-linecap:butt;stroke-linejoin:miter;stroke-opacity:1" d="M 131.826,374.875 140.828,356.871 z" id="boundary" inkscape:connector-curvature="0" />
	<path style="fill:none;stroke:red;stroke-width:1px;stroke-linecap:butt;stroke-linejoin:miter;stroke-opacity:1" d="M 131.826,392.878 131.826,410.882 z" id="boundary" inkscape:connector-curvature="0" />
	<path style="fill:none;stroke:red;stroke-width:1px;stroke-linecap:butt;stroke-linejoin:miter;stroke-opacity:1" d="M 131.826,410.882 131.826,428.886 z" id="boundary" inkscape:connector-curvature="0" />
	<path style="fill:none;stroke:red;stroke-width:1px;stroke-linecap:butt;stroke-linejoin:miter;stroke-opacity:1" d="M 131.826,428.886 131.826,446.889 z" id="boundary" inkscape:connector-curvature="0" />
	<path style="fill:none;stroke:red;stroke-width:1px;stroke-linecap:butt;stroke-linejoin:miter;stroke-opacity:1" d="M 131.826,446.889 131.826,464.893 z" id="boundary" inkscape:connector-curvature="0" />
	<path style="fill:none;stroke:red;stroke-width:1px;stroke-linecap:butt;stroke-linejoin:miter;stroke-opacity:1" d="M 131.826,464.893 131.826,482.897 z" id="boundary" inkscape:connector-curvature="0" />
	<path style="fill:none;stroke:red;stroke-width:1px;stroke-linecap:butt;stroke-linejoin:miter;stroke-opacity:1" d="M 131.826,482.897 131.826,500.9 z" id="boundary" inkscape:connector-curvature="0" />
	<path style="fill:none;stroke:red;stroke-width:1px;stroke-linecap:butt;stroke-linejoin:miter;stroke-opacity:1" d="M 131.826,500.9 135.426,518.904 z" id="boundary" inkscape:connector-curvature="0" />
	<path style="fill:none;stroke:red;stroke-width:1px;stroke-linecap:butt;stroke-linejoin:miter;stroke-opacity:1" d="M 135.426,518.904 153.43,526.105 z" id="boundary" inkscape:connector-curvature="0" />
	<path style="fill:none;stroke:red;stroke-width:1px;stroke-linecap:butt;stroke-linejoin:miter;stroke-opacity:1" d="M 139.027,54.4102 153.43,40.0073 z" id="boundary" inkscape:connector-curvature="0" />
	<path style="fill:none;stroke:red;stroke-width:1px;stroke-linecap:butt;stroke-linejoin:miter;stroke-opacity:1" d="M 140.828,356.871 149.829,338.868 z" id="boundary" inkscape:connector-curvature="0" />
	<path style="fill:none;stroke:red;stroke-width:1px;stroke-linecap:butt;stroke-linejoin:miter;stroke-opacity:1" d="M 140.828,599.92 158.831,599.92 z" id="boundary" inkscape:connector-curvature="0" />
	<path style="fill:none;stroke:red;stroke-width:1px;stroke-linecap:butt;stroke-linejoin:miter;stroke-opacity:1" d="M 149.829,338.868 167.833,342.468 z" id="boundary" inkscape:connector-curvature="0" />
	<path style="fill:none;stroke:red;stroke-width:1px;stroke-linecap:butt;stroke-linejoin:miter;stroke-opacity:1" d="M 153.43,40.0073 167.833,25.6044 z" id="boundary" inkscape:connector-curvature="0" />
	<path style="fill:none;stroke:red;stroke-width:1px;stroke-linecap:butt;stroke-linejoin:miter;stroke-opacity:1" d="M 153.43,526.105 171.434,526.105 z" id="boundary" inkscape:connector-curvature="0" />
	<path style="fill:none;stroke:red;stroke-width:1px;stroke-linecap:butt;stroke-linejoin:miter;stroke-opacity:1" d="M 158.831,599.92 176.835,599.92 z" id="boundary" inkscape:connector-curvature="0" />
	<path style="fill:none;stroke:red;stroke-width:1px;stroke-linecap:butt;stroke-linejoin:miter;stroke-opacity:1" d="M 167.833,25.6044 182.236,13.0018 z" id="boundary" inkscape:connector-curvature="0" />
	<path style="fill:none;stroke:red;stroke-width:1px;stroke-linecap:butt;stroke-linejoin:miter;stroke-opacity:1" d="M 167.833,342.468 185.837,338.868 z" id="boundary" inkscape:connector-curvature="0" />
	<path style="fill:none;stroke:red;stroke-width:1px;stroke-linecap:butt;stroke-linejoin:miter;stroke-opacity:1" d="M 171.434,526.105 187.637,535.107 z" id="boundary" inkscape:connector-curvature="0" />
	<path style="fill:none;stroke:red;stroke-width:1px;stroke-linecap:butt;stroke-linejoin:miter;stroke-opacity:1" d="M 176.835,599.92 191.238,587.318 z" id="boundary" inkscape:connector-curvature="0" />
	<path style="fill:none;stroke:red;stroke-width:1px;stroke-linecap:butt;stroke-linejoin:miter;stroke-opacity:1" d="M 182.236,13.0018 198.439,4 z" id="boundary" inkscape:connector-curvature="0" />
	<path style="fill:none;stroke:red;stroke-width:1px;stroke-linecap:butt;stroke-linejoin:miter;stroke-opacity:1" d="M 185.837,338.868 194.838,320.864 z" id="boundary" inkscape:connector-curvature="0" />
	<path style="fill:none;stroke:red;stroke-width:1px;stroke-linecap:butt;stroke-linejoin:miter;stroke-opacity:1" d="M 187.637,535.107 194.838,553.111 z" id="boundary" inkscape:connector-curvature="0" />
	<path style="fill:none;stroke:red;stroke-width:1px;stroke-linecap:butt;stroke-linejoin:miter;stroke-opacity:1" d="M 191.238,587.318 200.24,571.114 z" id="boundary" inkscape:connector-curvature="0" />
	<path style="fill:none;stroke:red;stroke-width:1px;stroke-linecap:butt;stroke-linejoin:miter;stroke-opacity:1" d="M 194.838,320.864 203.84,302.86 z" id="boundary" inkscape:connector-curvature="0" />
	<path style="fill:none;stroke:red;stroke-width:1px;stroke-linecap:butt;stroke-linejoin:miter;stroke-opacity:1" d="M 194.838,553.111 200.24,571.114 z" id="boundary" inkscape:connector-curvature="0" />
	<path style="fill:none;stroke:red;stroke-width:1px;stroke-linecap:butt;stroke-linejoin:miter;stroke-opacity:1" d="M 198.439,4 216.443,4 z" id="boundary" inkscape:connector-curvature="0" />
	<path style="fill:none;stroke:red;stroke-width:1px;stroke-linecap:butt;stroke-linejoin:miter;stroke-opacity:1" d="M 203.84,302.86 220.044,293.858 z" id="boundary" inkscape:connector-curvature="0" />
	<path style="fill:none;stroke:red;stroke-width:1px;stroke-linecap:butt;stroke-linejoin:miter;stroke-opacity:1" d="M 216.443,4 234.446,4 z" id="boundary" inkscape:connector-curvature="0" />
	<path style="fill:none;stroke:red;stroke-width:1px;stroke-linecap:butt;stroke-linejoin:miter;stroke-opacity:1" d="M 220.044,293.858 238.047,288.457 z" id="boundary" inkscape:connector-curvature="0" />
	<path style="fill:none;stroke:red;stroke-width:1px;stroke-linecap:butt;stroke-linejoin:miter;stroke-opacity:1" d="M 234.446,4 252.45,4 z" id="boundary" inkscape:connector-curvature="0" />
	<path style="fill:none;stroke:red;stroke-width:1px;stroke-linecap:butt;stroke-linejoin:miter;stroke-opacity:1" d="M 238.047,288.457 256.051,279.456 z" id="boundary" inkscape:connector-curvature="0" />
	<path style="fill:none;stroke:red;stroke-width:1px;stroke-linecap:butt;stroke-linejoin:miter;stroke-opacity:1" d="M 252.45,4 268.653,13.0018 z" id="boundary" inkscape:connector-curvature="0" />
	<path style="fill:none;stroke:red;stroke-width:1px;stroke-linecap:butt;stroke-linejoin:miter;stroke-opacity:1" d="M 256.051,279.456 274.054,284.857 z" id="boundary" inkscape:connector-curvature="0" />
	<path style="fill:none;stroke:red;stroke-width:1px;stroke-linecap:butt;stroke-linejoin:miter;stroke-opacity:1" d="M 268.653,13.0018 284.857,22.0036 z" id="boundary" inkscape:connector-curvature="0" />
	<path style="fill:none;stroke:red;stroke-width:1px;stroke-linecap:butt;stroke-linejoin:miter;stroke-opacity:1" d="M 274.054,284.857 290.258,293.858 z" id="boundary" inkscape:connector-curvature="0" />
	<path style="fill:none;stroke:red;stroke-width:1px;stroke-linecap:butt;stroke-linejoin:miter;stroke-opacity:1" d="M 284.857,22.0036 302.86,22.0036 z" id="boundary" inkscape:connector-curvature="0" />
	<path style="fill:none;stroke:red;stroke-width:1px;stroke-linecap:butt;stroke-linejoin:miter;stroke-opacity:1" d="M 290.258,293.858 308.261,293.858 z" id="boundary" inkscape:connector-curvature="0" />
	<path style="fill:none;stroke:red;stroke-width:1px;stroke-linecap:butt;stroke-linejoin:miter;stroke-opacity:1" d="M 302.86,22.0036 320.864,22.0036 z" id="boundary" inkscape:connector-curvature="0" />
	<path style="fill:none;stroke:red;stroke-width:1px;stroke-linecap:butt;stroke-linejoin:miter;stroke-opacity:1" d="M 308.261,293.858 310.062,311.862 z" id="boundary" inkscape:connector-curvature="0" />
	<path style="fill:none;stroke:red;stroke-width:1px;stroke-linecap:butt;stroke-linejoin:miter;stroke-opacity:1" d="M 310.062,311.862 319.064,328.065 z" id="boundary" inkscape:connector-curvature="0" />
	<path style="fill:none;stroke:red;stroke-width:1px;stroke-linecap:butt;stroke-linejoin:miter;stroke-opacity:1" d="M 319.064,328.065 328.065,344.269 z" id="boundary" inkscape:connector-curvature="0" />
	<path style="fill:none;stroke:red;stroke-width:1px;stroke-linecap:butt;stroke-linejoin:miter;stroke-opacity:1" d="M 320.864,22.0036 338.868,22.0036 z" id="boundary" inkscape:connector-curvature="0" />
	<path style="fill:none;stroke:red;stroke-width:1px;stroke-linecap:butt;stroke-linejoin:miter;stroke-opacity:1" d="M 328.065,344.269 328.065,362.272 z" id="boundary" inkscape:connector-curvature="0" />
	<path style="fill:none;stroke:red;stroke-width:1px;stroke-linecap:butt;stroke-linejoin:miter;stroke-opacity:1" d="M 328.065,362.272 328.065,380.276 z" id="boundary" inkscape:connector-curvature="0" />
	<path style="fill:none;stroke:red;stroke-width:1px;stroke-linecap:butt;stroke-linejoin:miter;stroke-opacity:1" d="M 328.065,380.276 337.067,396.479 z" id="boundary" inkscape:connector-curvature="0" />
	<path style="fill:none;stroke:red;stroke-width:1px;stroke-linecap:butt;stroke-linejoin:miter;stroke-opacity:1" d="M 337.067,396.479 337.067,414.483 z" id="boundary" inkscape:connector-curvature="0" />
	<path style="fill:none;stroke:red;stroke-width:1px;stroke-linecap:butt;stroke-linejoin:miter;stroke-opacity:1" d="M 337.067,414.483 337.067,432.486 z" id="boundary" inkscape:connector-curvature="0" />
	<path style="fill:none;stroke:red;stroke-width:1px;stroke-linecap:butt;stroke-linejoin:miter;stroke-opacity:1" d="M 337.067,432.486 346.069,448.69 z" id="boundary" inkscape:connector-curvature="0" />
	<path style="fill:none;stroke:red;stroke-width:1px;stroke-linecap:butt;stroke-linejoin:miter;stroke-opacity:1" d="M 338.868,22.0036 356.871,22.0036 z" id="boundary" inkscape:connector-curvature="0" />
	<path style="fill:none;stroke:red;stroke-width:1px;stroke-linecap:butt;stroke-linejoin:miter;stroke-opacity:1" d="M 346.069,448.69 346.069,466.693 z" id="boundary" inkscape:connector-curvature="0" />
	<path style="fill:none;stroke:red;stroke-width:1px;stroke-linecap:butt;stroke-linejoin:miter;stroke-opacity:1" d="M 346.069,466.693 355.071,482.897 z" id="boundary" inkscape:connector-curvature="0" />
	<path style="fill:none;stroke:red;stroke-width:1px;stroke-linecap:butt;stroke-linejoin:miter;stroke-opacity:1" d="M 346.069,711.543 360.472,697.14 z" id="boundary" inkscape:connector-curvature="0" />
	<path style="fill:none;stroke:red;stroke-width:1px;stroke-linecap:butt;stroke-linejoin:miter;stroke-opacity:1" d="M 346.069,711.543 364.073,716.944 z" id="boundary" inkscape:connector-curvature="0" />
	<path style="fill:none;stroke:red;stroke-width:1px;stroke-linecap:butt;stroke-linejoin:miter;stroke-opacity:1" d="M 355.071,482.897 355.071,500.9 z" id="boundary" inkscape:connector-curvature="0" />
	<path style="fill:none;stroke:red;stroke-width:1px;stroke-linecap:butt;stroke-linejoin:miter;stroke-opacity:1" d="M 355.071,500.9 360.472,518.904 z" id="boundary" inkscape:connector-curvature="0" />
	<path style="fill:none;stroke:red;stroke-width:1px;stroke-linecap:butt;stroke-linejoin:miter;stroke-opacity:1" d="M 356.871,22.0036 373.074,13.0018 z" id="boundary" inkscape:connector-curvature="0" />
	<path style="fill:none;stroke:red;stroke-width:1px;stroke-linecap:butt;stroke-linejoin:miter;stroke-opacity:1" d="M 360.472,518.904 364.073,536.907 z" id="boundary" inkscape:connector-curvature="0" />
	<path style="fill:none;stroke:red;stroke-width:1px;stroke-linecap:butt;stroke-linejoin:miter;stroke-opacity:1" d="M 360.472,697.14 369.474,679.136 z" id="boundary" inkscape:connector-curvature="0" />
	<path style="fill:none;stroke:red;stroke-width:1px;stroke-linecap:butt;stroke-linejoin:miter;stroke-opacity:1" d="M 364.073,536.907 364.073,554.911 z" id="boundary" inkscape:connector-curvature="0" />
	<path style="fill:none;stroke:red;stroke-width:1px;stroke-linecap:butt;stroke-linejoin:miter;stroke-opacity:1" d="M 364.073,554.911 364.073,572.915 z" id="boundary" inkscape:connector-curvature="0" />
	<path style="fill:none;stroke:red;stroke-width:1px;stroke-linecap:butt;stroke-linejoin:miter;stroke-opacity:1" d="M 364.073,572.915 373.074,589.118 z" id="boundary" inkscape:connector-curvature="0" />
	<path style="fill:none;stroke:red;stroke-width:1px;stroke-linecap:butt;stroke-linejoin:miter;stroke-opacity:1" d="M 364.073,716.944 380.276,725.946 z" id="boundary" inkscape:connector-curvature="0" />
	<path style="fill:none;stroke:red;stroke-width:1px;stroke-linecap:butt;stroke-linejoin:miter;stroke-opacity:1" d="M 369.474,679.136 387.477,670.134 z" id="boundary" inkscape:connector-curvature="0" />
	<path style="fill:none;stroke:red;stroke-width:1px;stroke-linecap:butt;stroke-linejoin:miter;stroke-opacity:1" d="M 373.074,13.0018 391.078,13.0018 z" id="boundary" inkscape:connector-curvature="0" />
	<path style="fill:none;stroke:red;stroke-width:1px;stroke-linecap:butt;stroke-linejoin:miter;stroke-opacity:1" d="M 373.074,589.118 373.074,607.122 z" id="boundary" inkscape:connector-curvature="0" />
	<path style="fill:none;stroke:red;stroke-width:1px;stroke-linecap:butt;stroke-linejoin:miter;stroke-opacity:1" d="M 373.074,607.122 376.675,625.125 z" id="boundary" inkscape:connector-curvature="0" />
	<path style="fill:none;stroke:red;stroke-width:1px;stroke-linecap:butt;stroke-linejoin:miter;stroke-opacity:1" d="M 376.675,625.125 382.076,643.129 z" id="boundary" inkscape:connector-curvature="0" />
	<path style="fill:none;stroke:red;stroke-width:1px;stroke-linecap:butt;stroke-linejoin:miter;stroke-opacity:1" d="M 380.276,725.946 398.279,725.946 z" id="boundary" inkscape:connector-curvature="0" />
	<path style="fill:none;stroke:red;stroke-width:1px;stroke-linecap:butt;stroke-linejoin:miter;stroke-opacity:1" d="M 382.076,643.129 387.477,670.134 z" id="boundary" inkscape:connector-curvature="0" />
	<path style="fill:none;stroke:red;stroke-width:1px;stroke-linecap:butt;stroke-linejoin:miter;stroke-opacity:1" d="M 391.078,13.0018 409.082,9.40109 z" id="boundary" inkscape:connector-curvature="0" />
	<path style="fill:none;stroke:red;stroke-width:1px;stroke-linecap:butt;stroke-linejoin:miter;stroke-opacity:1" d="M 398.279,725.946 416.283,725.946 z" id="boundary" inkscape:connector-curvature="0" />
	<path style="fill:none;stroke:red;stroke-width:1px;stroke-linecap:butt;stroke-linejoin:miter;stroke-opacity:1" d="M 409.082,9.40109 427.085,13.0018 z" id="boundary" inkscape:connector-curvature="0" />
	<path style="fill:none;stroke:red;stroke-width:1px;stroke-linecap:butt;stroke-linejoin:miter;stroke-opacity:1" d="M 416.283,725.946 434.287,725.946 z" id="boundary" inkscape:connector-curvature="0" />
	<path style="fill:none;stroke:red;stroke-width:1px;stroke-linecap:butt;stroke-linejoin:miter;stroke-opacity:1" d="M 427.085,13.0018 445.089,13.0018 z" id="boundary" inkscape:connector-curvature="0" />
	<path style="fill:none;stroke:red;stroke-width:1px;stroke-linecap:butt;stroke-linejoin:miter;stroke-opacity:1" d="M 434.287,725.946 450.49,716.944 z" id="boundary" inkscape:connector-curvature="0" />
	<path style="fill:none;stroke:red;stroke-width:1px;stroke-linecap:butt;stroke-linejoin:miter;stroke-opacity:1" d="M 445.089,13.0018 463.093,13.0018 z" id="boundary" inkscape:connector-curvature="0" />
	<path style="fill:none;stroke:red;stroke-width:1px;stroke-linecap:butt;stroke-linejoin:miter;stroke-opacity:1" d="M 450.49,716.944 466.693,707.942 z" id="boundary" inkscape:connector-curvature="0" />
	<path style="fill:none;stroke:red;stroke-width:1px;stroke-linecap:butt;stroke-linejoin:miter;stroke-opacity:1" d="M 463.093,13.0018 481.096,9.40109 z" id="boundary" inkscape:connector-curvature="0" />
	<path style="fill:none;stroke:red;stroke-width:1px;stroke-linecap:butt;stroke-linejoin:miter;stroke-opacity:1" d="M 464.893,581.917 464.893,599.92 z" id="boundary" inkscape:connector-curvature="0" />
	<path style="fill:none;stroke:red;stroke-width:1px;stroke-linecap:butt;stroke-linejoin:miter;stroke-opacity:1" d="M 464.893,581.917 481.096,590.918 z" id="boundary" inkscape:connector-curvature="0" />
	<path style="fill:none;stroke:red;stroke-width:1px;stroke-linecap:butt;stroke-linejoin:miter;stroke-opacity:1" d="M 464.893,599.92 481.096,590.918 z" id="boundary" inkscape:connector-curvature="0" />
	<path style="fill:none;stroke:red;stroke-width:1px;stroke-linecap:butt;stroke-linejoin:miter;stroke-opacity:1" d="M 466.693,707.942 482.897,689.938 z" id="boundary" inkscape:connector-curvature="0" />
	<path style="fill:none;stroke:red;stroke-width:1px;stroke-linecap:butt;stroke-linejoin:miter;stroke-opacity:1" d="M 468.494,617.924 473.895,635.927 z" id="boundary" inkscape:connector-curvature="0" />
	<path style="fill:none;stroke:red;stroke-width:1px;stroke-linecap:butt;stroke-linejoin:miter;stroke-opacity:1" d="M 468.494,617.924 490.098,607.122 z" id="boundary" inkscape:connector-curvature="0" />
	<path style="fill:none;stroke:red;stroke-width:1px;stroke-linecap:butt;stroke-linejoin:miter;stroke-opacity:1" d="M 473.895,635.927 473.895,653.931 z" id="boundary" inkscape:connector-curvature="0" />
	<path style="fill:none;stroke:red;stroke-width:1px;stroke-linecap:butt;stroke-linejoin:miter;stroke-opacity:1" d="M 473.895,653.931 477.495,671.935 z" id="boundary" inkscape:connector-curvature="0" />
	<path style="fill:none;stroke:red;stroke-width:1px;stroke-linecap:butt;stroke-linejoin:miter;stroke-opacity:1" d="M 477.495,671.935 482.897,689.938 z" id="boundary" inkscape:connector-curvature="0" />
	<path style="fill:none;stroke:red;stroke-width:1px;stroke-linecap:butt;stroke-linejoin:miter;stroke-opacity:1" d="M 481.096,9.40109 499.1,4 z" id="boundary" inkscape:connector-curvature="0" />
	<path style="fill:none;stroke:red;stroke-width:1px;stroke-linecap:butt;stroke-linejoin:miter;stroke-opacity:1" d="M 490.098,607.122 493.699,625.125 z" id="boundary" inkscape:connector-curvature="0" />
	<path style="fill:none;stroke:red;stroke-width:1px;stroke-linecap:butt;stroke-linejoin:miter;stroke-opacity:1" d="M 493.699,625.125 502.701,641.328 z" id="boundary" inkscape:connector-curvature="0" />
	<path style="fill:none;stroke:red;stroke-width:1px;stroke-linecap:butt;stroke-linejoin:miter;stroke-opacity:1" d="M 499.1,4 517.103,4 z" id="boundary" inkscape:connector-curvature="0" />
	<path style="fill:none;stroke:red;stroke-width:1px;stroke-linecap:butt;stroke-linejoin:miter;stroke-opacity:1" d="M 502.701,641.328 517.103,653.931 z" id="boundary" inkscape:connector-curvature="0" />
	<path style="fill:none;stroke:red;stroke-width:1px;stroke-linecap:butt;stroke-linejoin:miter;stroke-opacity:1" d="M 517.103,4 535.107,4 z" id="boundary" inkscape:connector-curvature="0" />
	<path style="fill:none;stroke:red;stroke-width:1px;stroke-linecap:butt;stroke-linejoin:miter;stroke-opacity:1" d="M 517.103,653.931 533.307,662.933 z" id="boundary" inkscape:connector-curvature="0" />
	<path style="fill:none;stroke:red;stroke-width:1px;stroke-linecap:butt;stroke-linejoin:miter;stroke-opacity:1" d="M 533.307,662.933 544.109,677.336 z" id="boundary" inkscape:connector-curvature="0" />
	<path style="fill:none;stroke:red;stroke-width:1px;stroke-linecap:butt;stroke-linejoin:miter;stroke-opacity:1" d="M 535.107,4 553.111,4 z" id="boundary" inkscape:connector-curvature="0" />
	<path style="fill:none;stroke:red;stroke-width:1px;stroke-linecap:butt;stroke-linejoin:miter;stroke-opacity:1" d="M 544.109,677.336 544.109,695.339 z" id="boundary" inkscape:connector-curvature="0" />
	<path style="fill:none;stroke:red;stroke-width:1px;stroke-linecap:butt;stroke-linejoin:miter;stroke-opacity:1" d="M 544.109,695.339 553.111,711.543 z" id="boundary" inkscape:connector-curvature="0" />
	<path style="fill:none;stroke:red;stroke-width:1px;stroke-linecap:butt;stroke-linejoin:miter;stroke-opacity:1" d="M 545.909,428.886 545.909,446.889 z" id="boundary" inkscape:connector-curvature="0" />
	<path style="fill:none;stroke:red;stroke-width:1px;stroke-linecap:butt;stroke-linejoin:miter;stroke-opacity:1" d="M 545.909,428.886 563.913,428.886 z" id="boundary" inkscape:connector-curvature="0" />
	<path style="fill:none;stroke:red;stroke-width:1px;stroke-linecap:butt;stroke-linejoin:miter;stroke-opacity:1" d="M 545.909,446.889 554.911,463.093 z" id="boundary" inkscape:connector-curvature="0" />
	<path style="fill:none;stroke:red;stroke-width:1px;stroke-linecap:butt;stroke-linejoin:miter;stroke-opacity:1" d="M 553.111,4 571.114,4 z" id="boundary" inkscape:connector-curvature="0" />
	<path style="fill:none;stroke:red;stroke-width:1px;stroke-linecap:butt;stroke-linejoin:miter;stroke-opacity:1" d="M 553.111,711.543 571.114,702.541 z" id="boundary" inkscape:connector-curvature="0" />
	<path style="fill:none;stroke:red;stroke-width:1px;stroke-linecap:butt;stroke-linejoin:miter;stroke-opacity:1" d="M 554.911,463.093 554.911,481.096 z" id="boundary" inkscape:connector-curvature="0" />
	<path style="fill:none;stroke:red;stroke-width:1px;stroke-linecap:butt;stroke-linejoin:miter;stroke-opacity:1" d="M 554.911,481.096 554.911,499.1 z" id="boundary" inkscape:connector-curvature="0" />
	<path style="fill:none;stroke:red;stroke-width:1px;stroke-linecap:butt;stroke-linejoin:miter;stroke-opacity:1" d="M 554.911,499.1 563.913,515.303 z" id="boundary" inkscape:connector-curvature="0" />
	<path style="fill:none;stroke:red;stroke-width:1px;stroke-linecap:butt;stroke-linejoin:miter;stroke-opacity:1" d="M 563.913,428.886 581.917,432.486 z" id="boundary" inkscape:connector-curvature="0" />
	<path style="fill:none;stroke:red;stroke-width:1px;stroke-linecap:butt;stroke-linejoin:miter;stroke-opacity:1" d="M 563.913,515.303 563.913,533.307 z" id="boundary" inkscape:connector-curvature="0" />
	<path style="fill:none;stroke:red;stroke-width:1px;stroke-linecap:butt;stroke-linejoin:miter;stroke-opacity:1" d="M 563.913,533.307 563.913,551.31 z" id="boundary" inkscape:connector-curvature="0" />
	<path style="fill:none;stroke:red;stroke-width:1px;stroke-linecap:butt;stroke-linejoin:miter;stroke-opacity:1" d="M 563.913,551.31 563.913,569.314 z" id="boundary" inkscape:connector-curvature="0" />
	<path style="fill:none;stroke:red;stroke-width:1px;stroke-linecap:butt;stroke-linejoin:miter;stroke-opacity:1" d="M 563.913,569.314 572.915,585.517 z" id="boundary" inkscape:connector-curvature="0" />
	<path style="fill:none;stroke:red;stroke-width:1px;stroke-linecap:butt;stroke-linejoin:miter;stroke-opacity:1" d="M 571.114,4 589.118,4 z" id="boundary" inkscape:connector-curvature="0" />
	<path style="fill:none;stroke:red;stroke-width:1px;stroke-linecap:butt;stroke-linejoin:miter;stroke-opacity:1" d="M 571.114,702.541 585.517,688.138 z" id="boundary" inkscape:connector-curvature="0" />
	<path style="fill:none;stroke:red;stroke-width:1px;stroke-linecap:butt;stroke-linejoin:miter;stroke-opacity:1" d="M 572.915,585.517 580.116,603.521 z" id="boundary" inkscape:connector-curvature="0" />
	<path style="fill:none;stroke:red;stroke-width:1px;stroke-linecap:butt;stroke-linejoin:miter;stroke-opacity:1" d="M 580.116,603.521 598.12,610.722 z" id="boundary" inkscape:connector-curvature="0" />
	<path style="fill:none;stroke:red;stroke-width:1px;stroke-linecap:butt;stroke-linejoin:miter;stroke-opacity:1" d="M 581.917,432.486 599.92,437.887 z" id="boundary" inkscape:connector-curvature="0" />
	<path style="fill:none;stroke:red;stroke-width:1px;stroke-linecap:butt;stroke-linejoin:miter;stroke-opacity:1" d="M 585.517,688.138 599.92,662.933 z" id="boundary" inkscape:connector-curvature="0" />
	<path style="fill:none;stroke:red;stroke-width:1px;stroke-linecap:butt;stroke-linejoin:miter;stroke-opacity:1" d="M 589.118,4 607.122,4 z" id="boundary" inkscape:connector-curvature="0" />
	<path style="fill:none;stroke:red;stroke-width:1px;stroke-linecap:butt;stroke-linejoin:miter;stroke-opacity:1" d="M 598.12,610.722 614.323,619.724 z" id="boundary" inkscape:connector-curvature="0" />
	<path style="fill:none;stroke:red;stroke-width:1px;stroke-linecap:butt;stroke-linejoin:miter;stroke-opacity:1" d="M 599.92,437.887 617.924,437.887 z" id="boundary" inkscape:connector-curvature="0" />
	<path style="fill:none;stroke:red;stroke-width:1px;stroke-linecap:butt;stroke-linejoin:miter;stroke-opacity:1" d="M 599.92,662.933 614.323,650.33 z" id="boundary" inkscape:connector-curvature="0" />
	<path style="fill:none;stroke:red;stroke-width:1px;stroke-linecap:butt;stroke-linejoin:miter;stroke-opacity:1" d="M 607.122,4 625.125,4 z" id="boundary" inkscape:connector-curvature="0" />
	<path style="fill:none;stroke:red;stroke-width:1px;stroke-linecap:butt;stroke-linejoin:miter;stroke-opacity:1" d="M 614.323,619.724 614.323,650.33 z" id="boundary" inkscape:connector-curvature="0" />
	<path style="fill:none;stroke:red;stroke-width:1px;stroke-linecap:butt;stroke-linejoin:miter;stroke-opacity:1" d="M 617.924,437.887 634.127,446.889 z" id="boundary" inkscape:connector-curvature="0" />
	<path style="fill:none;stroke:red;stroke-width:1px;stroke-linecap:butt;stroke-linejoin:miter;stroke-opacity:1" d="M 625.125,4 643.129,4 z" id="boundary" inkscape:connector-curvature="0" />
	<path style="fill:none;stroke:red;stroke-width:1px;stroke-linecap:butt;stroke-linejoin:miter;stroke-opacity:1" d="M 634.127,446.889 652.131,441.488 z" id="boundary" inkscape:connector-curvature="0" />
	<path style="fill:none;stroke:red;stroke-width:1px;stroke-linecap:butt;stroke-linejoin:miter;stroke-opacity:1" d="M 643.129,4 661.132,4 z" id="boundary" inkscape:connector-curvature="0" />
	<path style="fill:none;stroke:red;stroke-width:1px;stroke-linecap:butt;stroke-linejoin:miter;stroke-opacity:1" d="M 643.129,666.534 643.129,684.537 z" id="boundary" inkscape:connector-curvature="0" />
	<path style="fill:none;stroke:red;stroke-width:1px;stroke-linecap:butt;stroke-linejoin:miter;stroke-opacity:1" d="M 643.129,666.534 652.131,648.53 z" id="boundary" inkscape:connector-curvature="0" />
	<path style="fill:none;stroke:red;stroke-width:1px;stroke-linecap:butt;stroke-linejoin:miter;stroke-opacity:1" d="M 643.129,684.537 657.532,697.14 z" id="boundary" inkscape:connector-curvature="0" />
	<path style="fill:none;stroke:red;stroke-width:1px;stroke-linecap:butt;stroke-linejoin:miter;stroke-opacity:1" d="M 652.131,441.488 670.134,437.887 z" id="boundary" inkscape:connector-curvature="0" />
	<path style="fill:none;stroke:red;stroke-width:1px;stroke-linecap:butt;stroke-linejoin:miter;stroke-opacity:1" d="M 652.131,648.53 661.132,621.525 z" id="boundary" inkscape:connector-curvature="0" />
	<path style="fill:none;stroke:red;stroke-width:1px;stroke-linecap:butt;stroke-linejoin:miter;stroke-opacity:1" d="M 657.532,697.14 675.535,698.94 z" id="boundary" inkscape:connector-curvature="0" />
	<path style="fill:none;stroke:red;stroke-width:1px;stroke-linecap:butt;stroke-linejoin:miter;stroke-opacity:1" d="M 661.132,4 679.136,4 z" id="boundary" inkscape:connector-curvature="0" />
	<path style="fill:none;stroke:red;stroke-width:1px;stroke-linecap:butt;stroke-linejoin:miter;stroke-opacity:1" d="M 661.132,621.525 670.134,603.521 z" id="boundary" inkscape:connector-curvature="0" />
	<path style="fill:none;stroke:red;stroke-width:1px;stroke-linecap:butt;stroke-linejoin:miter;stroke-opacity:1" d="M 670.134,437.887 688.138,437.887 z" id="boundary" inkscape:connector-curvature="0" />
	<path style="fill:none;stroke:red;stroke-width:1px;stroke-linecap:butt;stroke-linejoin:miter;stroke-opacity:1" d="M 670.134,603.521 679.136,576.515 z" id="boundary" inkscape:connector-curvature="0" />
	<path style="fill:none;stroke:red;stroke-width:1px;stroke-linecap:butt;stroke-linejoin:miter;stroke-opacity:1" d="M 675.535,698.94 693.539,698.94 z" id="boundary" inkscape:connector-curvature="0" />
	<path style="fill:none;stroke:red;stroke-width:1px;stroke-linecap:butt;stroke-linejoin:miter;stroke-opacity:1" d="M 679.136,4 697.14,7.60073 z" id="boundary" inkscape:connector-curvature="0" />
	<path style="fill:none;stroke:red;stroke-width:1px;stroke-linecap:butt;stroke-linejoin:miter;stroke-opacity:1" d="M 679.136,558.512 679.136,576.515 z" id="boundary" inkscape:connector-curvature="0" />
	<path style="fill:none;stroke:red;stroke-width:1px;stroke-linecap:butt;stroke-linejoin:miter;stroke-opacity:1" d="M 679.136,558.512 688.138,540.508 z" id="boundary" inkscape:connector-curvature="0" />
	<path style="fill:none;stroke:red;stroke-width:1px;stroke-linecap:butt;stroke-linejoin:miter;stroke-opacity:1" d="M 688.138,437.887 697.14,454.091 z" id="boundary" inkscape:connector-curvature="0" />
	<path style="fill:none;stroke:red;stroke-width:1px;stroke-linecap:butt;stroke-linejoin:miter;stroke-opacity:1" d="M 688.138,504.501 688.138,522.505 z" id="boundary" inkscape:connector-curvature="0" />
	<path style="fill:none;stroke:red;stroke-width:1px;stroke-linecap:butt;stroke-linejoin:miter;stroke-opacity:1" d="M 688.138,504.501 697.14,472.094 z" id="boundary" inkscape:connector-curvature="0" />
	<path style="fill:none;stroke:red;stroke-width:1px;stroke-linecap:butt;stroke-linejoin:miter;stroke-opacity:1" d="M 688.138,522.505 688.138,540.508 z" id="boundary" inkscape:connector-curvature="0" />
	<path style="fill:none;stroke:red;stroke-width:1px;stroke-linecap:butt;stroke-linejoin:miter;stroke-opacity:1" d="M 693.539,698.94 711.543,706.142 z" id="boundary" inkscape:connector-curvature="0" />
	<path style="fill:none;stroke:red;stroke-width:1px;stroke-linecap:butt;stroke-linejoin:miter;stroke-opacity:1" d="M 697.14,7.60073 715.143,13.0018 z" id="boundary" inkscape:connector-curvature="0" />
	<path style="fill:none;stroke:red;stroke-width:1px;stroke-linecap:butt;stroke-linejoin:miter;stroke-opacity:1" d="M 697.14,454.091 697.14,472.094 z" id="boundary" inkscape:connector-curvature="0" />
	<path style="fill:none;stroke:red;stroke-width:1px;stroke-linecap:butt;stroke-linejoin:miter;stroke-opacity:1" d="M 711.543,706.142 729.546,707.942 z" id="boundary" inkscape:connector-curvature="0" />
	<path style="fill:none;stroke:red;stroke-width:1px;stroke-linecap:butt;stroke-linejoin:miter;stroke-opacity:1" d="M 715.143,13.0018 731.347,22.0036 z" id="boundary" inkscape:connector-curvature="0" />
	<path style="fill:none;stroke:red;stroke-width:1px;stroke-linecap:butt;stroke-linejoin:miter;stroke-opacity:1" d="M 729.546,707.942 745.75,698.94 z" id="boundary" inkscape:connector-curvature="0" />
	<path style="fill:none;stroke:red;stroke-width:1px;stroke-linecap:butt;stroke-linejoin:miter;stroke-opacity:1" d="M 731.347,22.0036 749.35,23.804 z" id="boundary" inkscape:connector-curvature="0" />
	<path style="fill:none;stroke:red;stroke-width:1px;stroke-linecap:butt;stroke-linejoin:miter;stroke-opacity:1" d="M 745.75,698.94 752.951,671.935 z" id="boundary" inkscape:connector-curvature="0" />
	<path style="fill:none;stroke:red;stroke-width:1px;stroke-linecap:butt;stroke-linejoin:miter;stroke-opacity:1" d="M 749.35,23.804 767.354,31.0054 z" id="boundary" inkscape:connector-curvature="0" />
	<path style="fill:none;stroke:red;stroke-width:1px;stroke-linecap:butt;stroke-linejoin:miter;stroke-opacity:1" d="M 752.951,671.935 761.953,653.931 z" id="boundary" inkscape:connector-curvature="0" />
	<path style="fill:none;stroke:red;stroke-width:1px;stroke-linecap:butt;stroke-linejoin:miter;stroke-opacity:1" d="M 761.953,635.927 761.953,653.931 z" id="boundary" inkscape:connector-curvature="0" />
	<path style="fill:none;stroke:red;stroke-width:1px;stroke-linecap:butt;stroke-linejoin:miter;stroke-opacity:1" d="M 761.953,635.927 770.955,608.922 z" id="boundary" inkscape:connector-curvature="0" />
	<path style="fill:none;stroke:red;stroke-width:1px;stroke-linecap:butt;stroke-linejoin:miter;stroke-opacity:1" d="M 767.354,31.0054 785.358,32.8058 z" id="boundary" inkscape:connector-curvature="0" />
	<path style="fill:none;stroke:red;stroke-width:1px;stroke-linecap:butt;stroke-linejoin:miter;stroke-opacity:1" d="M 769.154,702.541 778.156,718.744 z" id="boundary" inkscape:connector-curvature="0" />
	<path style="fill:none;stroke:red;stroke-width:1px;stroke-linecap:butt;stroke-linejoin:miter;stroke-opacity:1" d="M 769.154,702.541 783.557,688.138 z" id="boundary" inkscape:connector-curvature="0" />
	<path style="fill:none;stroke:red;stroke-width:1px;stroke-linecap:butt;stroke-linejoin:miter;stroke-opacity:1" d="M 770.955,572.915 770.955,590.918 z" id="boundary" inkscape:connector-curvature="0" />
	<path style="fill:none;stroke:red;stroke-width:1px;stroke-linecap:butt;stroke-linejoin:miter;stroke-opacity:1" d="M 770.955,572.915 788.958,572.915 z" id="boundary" inkscape:connector-curvature="0" />
	<path style="fill:none;stroke:red;stroke-width:1px;stroke-linecap:butt;stroke-linejoin:miter;stroke-opacity:1" d="M 770.955,590.918 770.955,608.922 z" id="boundary" inkscape:connector-curvature="0" />
	<path style="fill:none;stroke:red;stroke-width:1px;stroke-linecap:butt;stroke-linejoin:miter;stroke-opacity:1" d="M 778.156,718.744 796.16,725.946 z" id="boundary" inkscape:connector-curvature="0" />
	<path style="fill:none;stroke:red;stroke-width:1px;stroke-linecap:butt;stroke-linejoin:miter;stroke-opacity:1" d="M 783.557,688.138 796.16,666.534 z" id="boundary" inkscape:connector-curvature="0" />
	<path style="fill:none;stroke:red;stroke-width:1px;stroke-linecap:butt;stroke-linejoin:miter;stroke-opacity:1" d="M 785.358,32.8058 801.561,41.8076 z" id="boundary" inkscape:connector-curvature="0" />
	<path style="fill:none;stroke:red;stroke-width:1px;stroke-linecap:butt;stroke-linejoin:miter;stroke-opacity:1" d="M 788.958,572.915 796.16,590.918 z" id="boundary" inkscape:connector-curvature="0" />
	<path style="fill:none;stroke:red;stroke-width:1px;stroke-linecap:butt;stroke-linejoin:miter;stroke-opacity:1" d="M 796.16,590.918 796.16,612.523 z" id="boundary" inkscape:connector-curvature="0" />
	<path style="fill:none;stroke:red;stroke-width:1px;stroke-linecap:butt;stroke-linejoin:miter;stroke-opacity:1" d="M 796.16,612.523 796.16,630.526 z" id="boundary" inkscape:connector-curvature="0" />
	<path style="fill:none;stroke:red;stroke-width:1px;stroke-linecap:butt;stroke-linejoin:miter;stroke-opacity:1" d="M 796.16,630.526 796.16,648.53 z" id="boundary" inkscape:connector-curvature="0" />
	<path style="fill:none;stroke:red;stroke-width:1px;stroke-linecap:butt;stroke-linejoin:miter;stroke-opacity:1" d="M 796.16,648.53 796.16,666.534 z" id="boundary" inkscape:connector-curvature="0" />
	<path style="fill:none;stroke:red;stroke-width:1px;stroke-linecap:butt;stroke-linejoin:miter;stroke-opacity:1" d="M 796.16,725.946 814.163,725.946 z" id="boundary" inkscape:connector-curvature="0" />
	<path style="fill:none;stroke:red;stroke-width:1px;stroke-linecap:butt;stroke-linejoin:miter;stroke-opacity:1" d="M 801.561,41.8076 819.564,49.0091 z" id="boundary" inkscape:connector-curvature="0" />
	<path style="fill:none;stroke:red;stroke-width:1px;stroke-linecap:butt;stroke-linejoin:miter;stroke-opacity:1" d="M 814.163,725.946 832.167,725.946 z" id="boundary" inkscape:connector-curvature="0" />
	<path style="fill:none;stroke:red;stroke-width:1px;stroke-linecap:butt;stroke-linejoin:miter;stroke-opacity:1" d="M 819.564,49.0091 835.768,58.0109 z" id="boundary" inkscape:connector-curvature="0" />
	<path style="fill:none;stroke:red;stroke-width:1px;stroke-linecap:butt;stroke-linejoin:miter;stroke-opacity:1" d="M 832.167,725.946 850.171,725.946 z" id="boundary" inkscape:connector-curvature="0" />
	<path style="fill:none;stroke:red;stroke-width:1px;stroke-linecap:butt;stroke-linejoin:miter;stroke-opacity:1" d="M 835.768,58.0109 851.971,67.0127 z" id="boundary" inkscape:connector-curvature="0" />
	<path style="fill:none;stroke:red;stroke-width:1px;stroke-linecap:butt;stroke-linejoin:miter;stroke-opacity:1" d="M 850.171,725.946 868.174,725.946 z" id="boundary" inkscape:connector-curvature="0" />
	<path style="fill:none;stroke:red;stroke-width:1px;stroke-linecap:butt;stroke-linejoin:miter;stroke-opacity:1" d="M 851.971,67.0127 868.174,76.0145 z" id="boundary" inkscape:connector-curvature="0" />
	<path style="fill:none;stroke:red;stroke-width:1px;stroke-linecap:butt;stroke-linejoin:miter;stroke-opacity:1" d="M 868.174,76.0145 882.577,86.8167 z" id="boundary" inkscape:connector-curvature="0" />
	<path style="fill:none;stroke:red;stroke-width:1px;stroke-linecap:butt;stroke-linejoin:miter;stroke-opacity:1" d="M 868.174,725.946 886.178,720.544 z" id="boundary" inkscape:connector-curvature="0" />
	<path style="fill:none;stroke:red;stroke-width:1px;stroke-linecap:butt;stroke-linejoin:miter;stroke-opacity:1" d="M 882.577,86.8167 900.581,94.0181 z" id="boundary" inkscape:connector-curvature="0" />
	<path style="fill:none;stroke:red;stroke-width:1px;stroke-linecap:butt;stroke-linejoin:miter;stroke-opacity:1" d="M 886.178,720.544 895.18,702.541 z" id="boundary" inkscape:connector-curvature="0" />
	<path style="fill:none;stroke:red;stroke-width:1px;stroke-linecap:butt;stroke-linejoin:miter;stroke-opacity:1" d="M 895.18,702.541 896.98,680.936 z" id="boundary" inkscape:connector-curvature="0" />
	<path style="fill:none;stroke:red;stroke-width:1px;stroke-linecap:butt;stroke-linejoin:miter;stroke-opacity:1" d="M 896.98,491.898 896.98,509.902 z" id="boundary" inkscape:connector-curvature="0" />
	<path style="fill:none;stroke:red;stroke-width:1px;stroke-linecap:butt;stroke-linejoin:miter;stroke-opacity:1" d="M 896.98,491.898 905.982,473.895 z" id="boundary" inkscape:connector-curvature="0" />
	<path style="fill:none;stroke:red;stroke-width:1px;stroke-linecap:butt;stroke-linejoin:miter;stroke-opacity:1" d="M 896.98,509.902 896.98,527.906 z" id="boundary" inkscape:connector-curvature="0" />
	<path style="fill:none;stroke:red;stroke-width:1px;stroke-linecap:butt;stroke-linejoin:miter;stroke-opacity:1" d="M 896.98,527.906 896.98,545.909 z" id="boundary" inkscape:connector-curvature="0" />
	<path style="fill:none;stroke:red;stroke-width:1px;stroke-linecap:butt;stroke-linejoin:miter;stroke-opacity:1" d="M 896.98,545.909 896.98,563.913 z" id="boundary" inkscape:connector-curvature="0" />
	<path style="fill:none;stroke:red;stroke-width:1px;stroke-linecap:butt;stroke-linejoin:miter;stroke-opacity:1" d="M 896.98,563.913 896.98,581.917 z" id="boundary" inkscape:connector-curvature="0" />
	<path style="fill:none;stroke:red;stroke-width:1px;stroke-linecap:butt;stroke-linejoin:miter;stroke-opacity:1" d="M 896.98,581.917 896.98,599.92 z" id="boundary" inkscape:connector-curvature="0" />
	<path style="fill:none;stroke:red;stroke-width:1px;stroke-linecap:butt;stroke-linejoin:miter;stroke-opacity:1" d="M 896.98,599.92 900.581,617.924 z" id="boundary" inkscape:connector-curvature="0" />
	<path style="fill:none;stroke:red;stroke-width:1px;stroke-linecap:butt;stroke-linejoin:miter;stroke-opacity:1" d="M 896.98,644.929 896.98,662.933 z" id="boundary" inkscape:connector-curvature="0" />
	<path style="fill:none;stroke:red;stroke-width:1px;stroke-linecap:butt;stroke-linejoin:miter;stroke-opacity:1" d="M 896.98,644.929 900.581,617.924 z" id="boundary" inkscape:connector-curvature="0" />
	<path style="fill:none;stroke:red;stroke-width:1px;stroke-linecap:butt;stroke-linejoin:miter;stroke-opacity:1" d="M 896.98,662.933 896.98,680.936 z" id="boundary" inkscape:connector-curvature="0" />
	<path style="fill:none;stroke:red;stroke-width:1px;stroke-linecap:butt;stroke-linejoin:miter;stroke-opacity:1" d="M 900.581,94.0181 913.183,108.421 z" id="boundary" inkscape:connector-curvature="0" />
	<path style="fill:none;stroke:red;stroke-width:1px;stroke-linecap:butt;stroke-linejoin:miter;stroke-opacity:1" d="M 905.982,473.895 914.984,455.891 z" id="boundary" inkscape:connector-curvature="0" />
	<path style="fill:none;stroke:red;stroke-width:1px;stroke-linecap:butt;stroke-linejoin:miter;stroke-opacity:1" d="M 913.183,108.421 927.586,121.024 z" id="boundary" inkscape:connector-curvature="0" />
	<path style="fill:none;stroke:red;stroke-width:1px;stroke-linecap:butt;stroke-linejoin:miter;stroke-opacity:1" d="M 914.984,455.891 923.985,428.886 z" id="boundary" inkscape:connector-curvature="0" />
	<path style="fill:none;stroke:red;stroke-width:1px;stroke-linecap:butt;stroke-linejoin:miter;stroke-opacity:1" d="M 923.985,428.886 949.191,419.884 z" id="boundary" inkscape:connector-curvature="0" />
	<path style="fill:none;stroke:red;stroke-width:1px;stroke-linecap:butt;stroke-linejoin:miter;stroke-opacity:1" d="M 927.586,121.024 940.189,135.426 z" id="boundary" inkscape:connector-curvature="0" />
	<path style="fill:none;stroke:red;stroke-width:1px;stroke-linecap:butt;stroke-linejoin:miter;stroke-opacity:1" d="M 932.987,392.878 932.987,410.882 z" id="boundary" inkscape:connector-curvature="0" />
	<path style="fill:none;stroke:red;stroke-width:1px;stroke-linecap:butt;stroke-linejoin:miter;stroke-opacity:1" d="M 932.987,392.878 949.191,383.877 z" id="boundary" inkscape:connector-curvature="0" />
	<path style="fill:none;stroke:red;stroke-width:1px;stroke-linecap:butt;stroke-linejoin:miter;stroke-opacity:1" d="M 932.987,410.882 949.191,401.88 z" id="boundary" inkscape:connector-curvature="0" />
	<path style="fill:none;stroke:red;stroke-width:1px;stroke-linecap:butt;stroke-linejoin:miter;stroke-opacity:1" d="M 940.189,135.426 950.991,149.829 z" id="boundary" inkscape:connector-curvature="0" />
	<path style="fill:none;stroke:red;stroke-width:1px;stroke-linecap:butt;stroke-linejoin:miter;stroke-opacity:1" d="M 949.191,383.877 949.191,401.88 z" id="boundary" inkscape:connector-curvature="0" />
	<path style="fill:none;stroke:red;stroke-width:1px;stroke-linecap:butt;stroke-linejoin:miter;stroke-opacity:1" d="M 949.191,419.884 954.592,437.887 z" id="boundary" inkscape:connector-curvature="0" />
	<path style="fill:none;stroke:red;stroke-width:1px;stroke-linecap:butt;stroke-linejoin:miter;stroke-opacity:1" d="M 950.991,149.829 954.592,167.833 z" id="boundary" inkscape:connector-curvature="0" />
	<path style="fill:none;stroke:red;stroke-width:1px;stroke-linecap:butt;stroke-linejoin:miter;stroke-opacity:1" d="M 954.592,167.833 963.593,184.036 z" id="boundary" inkscape:connector-curvature="0" />
	<path style="fill:none;stroke:red;stroke-width:1px;stroke-linecap:butt;stroke-linejoin:miter;stroke-opacity:1" d="M 954.592,437.887 958.192,455.891 z" id="boundary" inkscape:connector-curvature="0" />
	<path style="fill:none;stroke:red;stroke-width:1px;stroke-linecap:butt;stroke-linejoin:miter;stroke-opacity:1" d="M 958.192,455.891 963.593,473.895 z" id="boundary" inkscape:connector-curvature="0" />
	<path style="fill:none;stroke:red;stroke-width:1px;stroke-linecap:butt;stroke-linejoin:miter;stroke-opacity:1" d="M 963.593,184.036 968.995,202.04 z" id="boundary" inkscape:connector-curvature="0" />
	<path style="fill:none;stroke:red;stroke-width:1px;stroke-linecap:butt;stroke-linejoin:miter;stroke-opacity:1" d="M 963.593,473.895 967.194,491.898 z" id="boundary" inkscape:connector-curvature="0" />
	<path style="fill:none;stroke:red;stroke-width:1px;stroke-linecap:butt;stroke-linejoin:miter;stroke-opacity:1" d="M 967.194,491.898 967.194,509.902 z" id="boundary" inkscape:connector-curvature="0" />
	<path style="fill:none;stroke:red;stroke-width:1px;stroke-linecap:butt;stroke-linejoin:miter;stroke-opacity:1" d="M 967.194,509.902 967.194,527.906 z" id="boundary" inkscape:connector-curvature="0" />
	<path style="fill:none;stroke:red;stroke-width:1px;stroke-linecap:butt;stroke-linejoin:miter;stroke-opacity:1" d="M 967.194,527.906 977.996,542.309 z" id="boundary" inkscape:connector-curvature="0" />
	<path style="fill:none;stroke:red;stroke-width:1px;stroke-linecap:butt;stroke-linejoin:miter;stroke-opacity:1" d="M 968.995,202.04 968.995,220.044 z" id="boundary" inkscape:connector-curvature="0" />
	<path style="fill:none;stroke:red;stroke-width:1px;stroke-linecap:butt;stroke-linejoin:miter;stroke-opacity:1" d="M 968.995,220.044 977.996,236.247 z" id="boundary" inkscape:connector-curvature="0" />
	<path style="fill:none;stroke:red;stroke-width:1px;stroke-linecap:butt;stroke-linejoin:miter;stroke-opacity:1" d="M 968.995,401.88 968.995,419.884 z" id="boundary" inkscape:connector-curvature="0" />
	<path style="fill:none;stroke:red;stroke-width:1px;stroke-linecap:butt;stroke-linejoin:miter;stroke-opacity:1" d="M 968.995,401.88 977.996,380.276 z" id="boundary" inkscape:connector-curvature="0" />
	<path style="fill:none;stroke:red;stroke-width:1px;stroke-linecap:butt;stroke-linejoin:miter;stroke-opacity:1" d="M 968.995,419.884 972.595,437.887 z" id="boundary" inkscape:connector-curvature="0" />
	<path style="fill:none;stroke:red;stroke-width:1px;stroke-linecap:butt;stroke-linejoin:miter;stroke-opacity:1" d="M 972.595,437.887 977.996,455.891 z" id="boundary" inkscape:connector-curvature="0" />
	<path style="fill:none;stroke:red;stroke-width:1px;stroke-linecap:butt;stroke-linejoin:miter;stroke-opacity:1" d="M 977.996,236.247 977.996,254.25 z" id="boundary" inkscape:connector-curvature="0" />
	<path style="fill:none;stroke:red;stroke-width:1px;stroke-linecap:butt;stroke-linejoin:miter;stroke-opacity:1" d="M 977.996,254.25 977.996,272.254 z" id="boundary" inkscape:connector-curvature="0" />
	<path style="fill:none;stroke:red;stroke-width:1px;stroke-linecap:butt;stroke-linejoin:miter;stroke-opacity:1" d="M 977.996,272.254 977.996,290.258 z" id="boundary" inkscape:connector-curvature="0" />
	<path style="fill:none;stroke:red;stroke-width:1px;stroke-linecap:butt;stroke-linejoin:miter;stroke-opacity:1" d="M 977.996,290.258 977.996,308.261 z" id="boundary" inkscape:connector-curvature="0" />
	<path style="fill:none;stroke:red;stroke-width:1px;stroke-linecap:butt;stroke-linejoin:miter;stroke-opacity:1" d="M 977.996,308.261 977.996,326.265 z" id="boundary" inkscape:connector-curvature="0" />
	<path style="fill:none;stroke:red;stroke-width:1px;stroke-linecap:butt;stroke-linejoin:miter;stroke-opacity:1" d="M 977.996,326.265 977.996,344.269 z" id="boundary" inkscape:connector-curvature="0" />
	<path style="fill:none;stroke:red;stroke-width:1px;stroke-linecap:butt;stroke-linejoin:miter;stroke-opacity:1" d="M 977.996,344.269 977.996,362.272 z" id="boundary" inkscape:connector-curvature="0" />
	<path style="fill:none;stroke:red;stroke-width:1px;stroke-linecap:butt;stroke-linejoin:miter;stroke-opacity:1" d="M 977.996,362.272 977.996,380.276 z" id="boundary" inkscape:connector-curvature="0" />
	<path style="fill:none;stroke:red;stroke-width:1px;stroke-linecap:butt;stroke-linejoin:miter;stroke-opacity:1" d="M 977.996,455.891 986.998,472.094 z" id="boundary" inkscape:connector-curvature="0" />
	<path style="fill:none;stroke:red;stroke-width:1px;stroke-linecap:butt;stroke-linejoin:miter;stroke-opacity:1" d="M 977.996,542.309 996,524.305 z" id="boundary" inkscape:connector-curvature="0" />
	<path style="fill:none;stroke:red;stroke-width:1px;stroke-linecap:butt;stroke-linejoin:miter;stroke-opacity:1" d="M 986.998,472.094 986.998,490.098 z" id="boundary" inkscape:connector-curvature="0" />
	<path style="fill:none;stroke:red;stroke-width:1px;stroke-linecap:butt;stroke-linejoin:miter;stroke-opacity:1" d="M 986.998,490.098 996,506.301 z" id="boundary" inkscape:connector-curvature="0" />
	<path style="fill:none;stroke:red;stroke-width:1px;stroke-linecap:butt;stroke-linejoin:miter;stroke-opacity:1" d="M 996,506.301 996,524.305 z" id="boundary" inkscape:connector-curvature="0" />
	<circle cx="4" cy="486.497" r="4" fill="#0" id="circle0"/>
	<circle cx="14.8022" cy="500.9" r="4" fill="#0" id="circle1"/>
	<circle cx="18.4029" cy="472.094" r="4" fill="#0" id="circle2"/>
	<circle cx="29.2051" cy="488.298" r="4" fill="#0" id="circle3"/>
	<circle cx="32.8058" cy="457.691" r="4" fill="#0" id="circle4"/>
	<circle cx="47.2087" cy="445.089" r="4" fill="#0" id="circle5"/>
	<circle cx="47.2087" cy="479.296" r="4" fill="#0" id="circle6"/>
	<circle cx="58.0109" cy="297.459" r="4" fill="#0" id="circle7"/>
	<circle cx="58.0109" cy="315.463" r="4" fill="#0" id="circle8"/>
	<circle cx="58.0109" cy="333.466" r="4" fill="#0" id="circle9"/>
	<circle cx="58.0109" cy="351.47" r="4" fill="#0" id="circle10"/>
	<circle cx="58.0109" cy="369.474" r="4" fill="#0" id="circle11"/>
	<circle cx="58.0109" cy="387.477" r="4" fill="#0" id="circle12"/>
	<circle cx="58.0109" cy="405.481" r="4" fill="#0" id="circle13"/>
	<circle cx="58.0109" cy="423.485" r="4" fill="#0" id="circle14"/>
	<circle cx="59.8113" cy="464.893" r="4" fill="#0" id="circle15"/>
	<circle cx="67.0127" cy="243.448" r="4" fill="#0" id="circle16"/>
	<circle cx="67.0127" cy="261.452" r="4" fill="#0" id="circle17"/>
	<circle cx="67.0127" cy="279.456" r="4" fill="#0" id="circle18"/>
	<circle cx="70.6134" cy="479.296" r="4" fill="#0" id="circle19"/>
	<circle cx="76.0145" cy="216.443" r="4" fill="#0" id="circle20"/>
	<circle cx="76.0145" cy="497.299" r="4" fill="#0" id="circle21"/>
	<circle cx="76.0145" cy="515.303" r="4" fill="#0" id="circle22"/>
	<circle cx="85.0163" cy="180.436" r="4" fill="#0" id="circle23"/>
	<circle cx="85.0163" cy="198.439" r="4" fill="#0" id="circle24"/>
	<circle cx="85.0163" cy="531.506" r="4" fill="#0" id="circle25"/>
	<circle cx="85.0163" cy="549.51" r="4" fill="#0" id="circle26"/>
	<circle cx="94.0181" cy="144.428" r="4" fill="#0" id="circle27"/>
	<circle cx="94.0181" cy="162.432" r="4" fill="#0" id="circle28"/>
	<circle cx="99.4192" cy="562.113" r="4" fill="#0" id="circle29"/>
	<circle cx="103.02" cy="126.425" r="4" fill="#0" id="circle30"/>
	<circle cx="112.022" cy="108.421" r="4" fill="#0" id="circle31"/>
	<circle cx="112.022" cy="576.515" r="4" fill="#0" id="circle32"/>
	<circle cx="121.024" cy="90.4174" r="4" fill="#0" id="circle33"/>
	<circle cx="126.425" cy="589.118" r="4" fill="#0" id="circle34"/>
	<circle cx="130.025" cy="72.4138" r="4" fill="#0" id="circle35"/>
	<circle cx="131.826" cy="374.875" r="4" fill="#0" id="circle36"/>
	<circle cx="131.826" cy="392.878" r="4" fill="#0" id="circle37"/>
	<circle cx="131.826" cy="410.882" r="4" fill="#0" id="circle38"/>
	<circle cx="131.826" cy="428.886" r="4" fill="#0" id="circle39"/>
	<circle cx="131.826" cy="446.889" r="4" fill="#0" id="circle40"/>
	<circle cx="131.826" cy="464.893" r="4" fill="#0" id="circle41"/>
	<circle cx="131.826" cy="482.897" r="4" fill="#0" id="circle42"/>
	<circle cx="131.826" cy="500.9" r="4" fill="#0" id="circle43"/>
	<circle cx="135.426" cy="518.904" r="4" fill="#0" id="circle44"/>
	<circle cx="139.027" cy="54.4102" r="4" fill="#0" id="circle45"/>
	<circle cx="140.828" cy="356.871" r="4" fill="#0" id="circle46"/>
	<circle cx="140.828" cy="599.92" r="4" fill="#0" id="circle47"/>
	<circle cx="149.829" cy="338.868" r="4" fill="#0" id="circle48"/>
	<circle cx="153.43" cy="40.0073" r="4" fill="#0" id="circle49"/>
	<circle cx="153.43" cy="526.105" r="4" fill="#0" id="circle50"/>
	<circle cx="158.831" cy="599.92" r="4" fill="#0" id="circle51"/>
	<circle cx="167.833" cy="25.6044" r="4" fill="#0" id="circle52"/>
	<circle cx="167.833" cy="342.468" r="4" fill="#0" id="circle53"/>
	<circle cx="171.434" cy="526.105" r="4" fill="#0" id="circle54"/>
	<circle cx="176.835" cy="599.92" r="4" fill="#0" id="circle55"/>
	<circle cx="182.236" cy="13.0018" r="4" fill="#0" id="circle56"/>
	<circle cx="185.837" cy="338.868" r="4" fill="#0" id="circle57"/>
	<circle cx="187.637" cy="535.107" r="4" fill="#0" id="circle58"/>
	<circle cx="191.238" cy="587.318" r="4" fill="#0" id="circle59"/>
	<circle cx="194.838" cy="320.864" r="4" fill="#0" id="circle60"/>
	<circle cx="194.838" cy="553.111" r="4" fill="#0" id="circle61"/>
	<circle cx="198.439" cy="4" r="4" fill="#0" id="circle62"/>
	<circle cx="200.24" cy="571.114" r="4" fill="#0" id="circle63"/>
	<circle cx="203.84" cy="302.86" r="4" fill="#0" id="circle64"/>
	<circle cx="216.443" cy="4" r="4" fill="#0" id="circle65"/>
	<circle cx="220.044" cy="293.858" r="4" fill="#0" id="circle66"/>
	<circle cx="234.446" cy="4" r="4" fill="#0" id="circle67"/>
	<circle cx="238.047" cy="288.457" r="4" fill="#0" id="circle68"/>
	<circle cx="252.45" cy="4" r="4" fill="#0" id="circle69"/>
	<circle cx="256.051" cy="279.456" r="4" fill="#0" id="circle70"/>
	<circle cx="268.653" cy="13.0018" r="4" fill="#0" id="circle71"/>
	<circle cx="274.054" cy="284.857" r="4" fill="#0" id="circle72"/>
	<circle cx="284.857" cy="22.0036" r="4" fill="#0" id="circle73"/>
	<circle cx="290.258" cy="293.858" r="4" fill="#0" id="circle74"/>
	<circle cx="302.86" cy="22.0036" r="4" fill="#0" id="circle75"/>
	<circle cx="308.261" cy="293.858" r="4" fill="#0" id="circle76"/>
	<circle cx="310.062" cy="311.862" r="4" fill="#0" id="circle77"/>
	<circle cx="319.064" cy="328.065" r="4" fill="#0" id="circle78"/>
	<circle cx="320.864" cy="22.0036" r="4" fill="#0" id="circle79"/>
	<circle cx="328.065" cy="344.269" r="4" fill="#0" id="circle80"/>
	<circle cx="328.065" cy="362.272" r="4" fill="#0" id="circle81"/>
	<circle cx="328.065" cy="380.276" r="4" fill="#0" id="circle82"/>
	<circle cx="337.067" cy="396.479" r="4" fill="#0" id="circle83"/>
	<circle cx="337.067" cy="414.483" r="4" fill="#0" id="circle84"/>
	<circle cx="337.067" cy="432.486" r="4" fill="#0" id="circle85"/>
	<circle cx="338.868" cy="22.0036" r="4" fill="#0" id="circle86"/>
	<circle cx="346.069" cy="448.69" r="4" fill="#0" id="circle87"/>
	<circle cx="346.069" cy="466.693" r="4" fill="#0" id="circle88"/>
	<circle cx="346.069" cy="711.543" r="4" fill="#0" id="circle89"/>
	<circle cx="355.071" cy="482.897" r="4" fill="#0" id="circle90"/>
	<circle cx="355.071" cy="500.9" r="4" fill="#0" id="circle91"/>
	<circle cx="356.871" cy="22.0036" r="4" fill="#0" id="circle92"/>
	<circle cx="360.472" cy="518.904" r="4" fill="#0" id="circle93"/>
	<circle cx="360.472" cy="697.14" r="4" fill="#0" id="circle94"/>
	<circle cx="364.073" cy="536.907" r="4" fill="#0" id="circle95"/>
	<circle cx="364.073" cy="554.911" r="4" fill="#0" id="circle96"/>
	<circle cx="364.073" cy="572.915" r="4" fill="#0" id="circle97"/>
	<circle cx="364.073" cy="716.944" r="4" fill="#0" id="circle98"/>
	<circle cx="369.474" cy="679.136" r="4" fill="#0" id="circle99"/>
	<circle cx="373.074" cy="13.0018" r="4" fill="#0" id="circle100"/>
	<circle cx="373.074" cy="589.118" r="4" fill="#0" id="circle101"/>
	<circle cx="373.074" cy="607.122" r="4" fill="#0" id="circle102"/>
	<circle cx="376.675" cy="625.125" r="4" fill="#0" id="circle103"/>
	<circle cx="380.276" cy="725.946" r="4" fill="#0" id="circle104"/>
	<circle cx="382.076" cy="643.129" r="4" fill="#0" id="circle105"/>
	<circle cx="387.477" cy="670.134" r="4" fill="#0" id="circle106"/>
	<circle cx="391.078" cy="13.0018" r="4" fill="#0" id="circle107"/>
	<circle cx="398.279" cy="725.946" r="4" fill="#0" id="circle108"/>
	<circle cx="409.082" cy="9.40109" r="4" fill="#0" id="circle109"/>
	<circle cx="416.283" cy="725.946" r="4" fill="#0" id="circle110"/>
	<circle cx="427.085" cy="13.0018" r="4" fill="#0" id="circle111"/>
	<circle cx="434.287" cy="725.946" r="4" fill="#0" id="circle112"/>
	<circle cx="445.089" cy="13.0018" r="4" fill="#0" id="circle113"/>
	<circle cx="450.49" cy="716.944" r="4" fill="#0" id="circle114"/>
	<circle cx="463.093" cy="13.0018" r="4" fill="#0" id="circle115"/>
	<circle cx="464.893" cy="581.917" r="4" fill="#0" id="circle116"/>
	<circle cx="464.893" cy="599.92" r="4" fill="#0" id="circle117"/>
	<circle cx="466.693" cy="707.942" r="4" fill="#0" id="circle118"/>
	<circle cx="468.494" cy="617.924" r="4" fill="#0" id="circle119"/>
	<circle cx="473.895" cy="635.927" r="4" fill="#0" id="circle120"/>
	<circle cx="473.895" cy="653.931" r="4" fill="#0" id="circle121"/>
	<circle cx="477.495" cy="671.935" r="4" fill="#0" id="circle122"/>
	<circle cx="481.096" cy="9.40109" r="4" fill="#0" id="circle123"/>
	<circle cx="481.096" cy="590.918" r="4" fill="#0" id="circle124"/>
	<circle cx="482.897" cy="689.938" r="4" fill="#0" id="circle125"/>
	<circle cx="490.098" cy="607.122" r="4" fill="#0" id="circle126"/>
	<circle cx="493.699" cy="625.125" r="4" fill="#0" id="circle127"/>
	<circle cx="499.1" cy="4" r="4" fill="#0" id="circle128"/>
	<circle cx="502.701" cy="641.328" r="4" fill="#0" id="circle129"/>
	<circle cx="517.103" cy="4" r="4" fill="#0" id="circle130"/>
	<circle cx="517.103" cy="653.931" r="4" fill="#0" id="circle131"/>
	<circle cx="533.307" cy="662.933" r="4" fill="#0" id="circle132"/>
	<circle cx="535.107" cy="4" r="4" fill="#0" id="circle133"/>
	<circle cx="544.109" cy="677.336" r="4" fill="#0" id="circle134"/>
	<circle cx="544.109" cy="695.339" r="4" fill="#0" id="circle135"/>
	<circle cx="545.909" cy="428.886" r="4" fill="#0" id="circle136"/>
	<circle cx="545.909" cy="446.889" r="4" fill="#0" id="circle137"/>
	<circle cx="553.111" cy="4" r="4" fill="#0" id="circle138"/>
	<circle cx="553.111" cy="711.543" r="4" fill="#0" id="circle139"/>
	<circle cx="554.911" cy="463.093" r="4" fill="#0" id="circle140"/>
	<circle cx="554.911" cy="481.096" r="4" fill="#0" id="circle141"/>
	<circle cx="554.911" cy="499.1" r="4" fill="#0" id="circle142"/>
	<circle cx="563.913" cy="428.886" r="4" fill="#0" id="circle143"/>
	<circle cx="563.913" cy="515.303" r="4" fill="#0" id="circle144"/>
	<circle cx="563.913" cy="533.307" r="4" fill="#0" id="circle145"/>
	<circle cx="563.913" cy="551.31" r="4" fill="#0" id="circle146"/>
	<circle cx="563.913" cy="569.314" r="4" fill="#0" id="circle147"/>
	<circle cx="571.114" cy="4" r="4" fill="#0" id="circle148"/>
	<circle cx="571.114" cy="702.541" r="4" fill="#0" id="circle149"/>
	<circle cx="572.915" cy="585.517" r="4" fill="#0" id="circle150"/>
	<circle cx="580.116" cy="603.521" r="4" fill="#0" id="circle151"/>
	<circle cx="581.917" cy="432.486" r="4" fill="#0" id="circle152"/>
	<circle cx="585.517" cy="688.138" r="4" fill="#0" id="circle153"/>
	<circle cx="589.118" cy="4" r="4" fill="#0" id="circle154"/>
	<circle cx="598.12" cy="610.722" r="4" fill="#0" id="circle155"/>
	<circle cx="599.92" cy="437.887" r="4" fill="#0" id="circle156"/>
	<circle cx="599.92" cy="662.933" r="4" fill="#0" id="circle157"/>
	<circle cx="607.122" cy="4" r="4" fill="#0" id="circle158"/>
	<circle cx="614.323" cy="619.724" r="4" fill="#0" id="circle159"/>
	<circle cx="614.323" cy="650.33" r="4" fill="#0" id="circle160"/>
	<circle cx="617.924" cy="437.887" r="4" fill="#0" id="circle161"/>
	<circle cx="625.125" cy="4" r="4" fill="#0" id="circle162"/>
	<circle cx="634.127" cy="446.889" r="4" fill="#0" id="circle163"/>
	<circle cx="643.129" cy="4" r="4" fill="#0" id="circle164"/>
	<circle cx="643.129" cy="666.534" r="4" fill="#0" id="circle165"/>
	<circle cx="643.129" cy="684.537" r="4" fill="#0" id="circle166"/>
	<circle cx="652.131" cy="441.488" r="4" fill="#0" id="circle167"/>
	<circle cx="652.131" cy="648.53" r="4" fill="#0" id="circle168"/>
	<circle cx="657.532" cy="697.14" r="4" fill="#0" id="circle169"/>
	<circle cx="661.132" cy="4" r="4" fill="#0" id="circle170"/>
	<circle cx="661.132" cy="621.525" r="4" fill="#0" id="circle171"/>
	<circle cx="670.134" cy="437.887" r="4" fill="#0" id="circle172"/>
	<circle cx="670.134" cy="603.521" r="4" fill="#0" id="circle173"/>
	<circle cx="675.535" cy="698.94" r="4" fill="#0" id="circle174"/>
	<circle cx="679.136" cy="4" r="4" fill="#0" id="circle175"/>
	<circle cx="679.136" cy="558.512" r="4" fill="#0" id="circle176"/>
	<circle cx="679.136" cy="576.515" r="4" fill="#0" id="circle177"/>
	<circle cx="688.138" cy="437.887" r="4" fill="#0" id="circle178"/>
	<circle cx="688.138" cy="504.501" r="4" fill="#0" id="circle179"/>
	<circle cx="688.138" cy="522.505" r="4" fill="#0" id="circle180"/>
	<circle cx="688.138" cy="540.508" r="4" fill="#0" id="circle181"/>
	<circle cx="693.539" cy="698.94" r="4" fill="#0" id="circle182"/>
	<circle cx="697.14" cy="7.60073" r="4" fill="#0" id="circle183"/>
	<circle cx="697.14" cy="454.091" r="4" fill="#0" id="circle184"/>
	<circle cx="697.14" cy="472.094" r="4" fill="#0" id="circle185"/>
	<circle cx="711.543" cy="706.142" r="4" fill="#0" id="circle186"/>
	<circle cx="715.143" cy="13.0018" r="4" fill="#0" id="circle187"/>
	<circle cx="729.546" cy="707.942" r="4" fill="#0" id="circle188"/>
	<circle cx="731.347" cy="22.0036" r="4" fill="#0" id="circle189"/>
	<circle cx="745.75" cy="698.94" r="4" fill="#0" id="circle190"/>
	<circle cx="749.35" cy="23.804" r="4" fill="#0" id="circle191"/>
	<circle cx="752.951" cy="671.935" r="4" fill="#0" id="circle192"/>
	<circle cx="761.953" cy="635.927" r="4" fill="#0" id="circle193"/>
	<circle cx="761.953" cy="653.931" r="4" fill="#0" id="circle194"/>
	<circle cx="767.354" cy="31.0054" r="4" fill="#0" id="circle195"/>
	<circle cx="769.154" cy="702.541" r="4" fill="#0" id="circle196"/>
	<circle cx="770.955" cy="572.915" r="4" fill="#0" id="circle197"/>
	<circle cx="770.955" cy="590.918" r="4" fill="#0" id="circle198"/>
	<circle cx="770.955" cy="608.922" r="4" fill="#0" id="circle199"/>
	<circle cx="778.156" cy="718.744" r="4" fill="#0" id="circle200"/>
	<circle cx="783.557" cy="688.138" r="4" fill="#0" id="circle201"/>
	<circle cx="785.358" cy="32.8058" r="4" fill="#0" id="circle202"/>
	<circle cx="788.958" cy="572.915" r="4" fill="#0" id="circle203"/>
	<circle cx="796.16" cy="590.918" r="4" fill="#0" id="circle204"/>
	<circle cx="796.16" cy="612.523" r="4" fill="#0" id="circle205"/>
	<circle cx="796.16" cy="630.526" r="4" fill="#0" id="circle206"/>
	<circle cx="796.16" cy="648.53" r="4" fill="#0" id="circle207"/>
	<circle cx="796.16" cy="666.534" r="4" fill="#0" id="circle208"/>
	<circle cx="796.16" cy="725.946" r="4" fill="#0" id="circle209"/>
	<circle cx="801.561" cy="41.8076" r="4" fill="#0" id="circle210"/>
	<circle cx="814.163" cy="725.946" r="4" fill="#0" id="circle211"/>
	<circle cx="819.564" cy="49.0091" r="4" fill="#0" id="circle212"/>
	<circle cx="832.167" cy="725.946" r="4" fill="#0" id="circle213"/>
	<circle cx="835.768" cy="58.0109" r="4" fill="#0" id="circle214"/>
	<circle cx="850.171" cy="725.946" r="4" fill="#0" id="circle215"/>
	<circle cx="851.971" cy="67.0127" r="4" fill="#0" id="circle216"/>
	<circle cx="868.174" cy="76.0145" r="4" fill="#0" id="circle217"/>
	<circle cx="868.174" cy="725.946" r="4" fill="#0" id="circle218"/>
	<circle cx="882.577" cy="86.8167" r="4" fill="#0" id="circle219"/>
	<circle cx="886.178" cy="720.544" r="4" fill="#0" id="circle220"/>
	<circle cx="895.18" cy="702.541" r="4" fill="#0" id="circle221"/>
	<circle cx="896.98" cy="491.898" r="4" fill="#0" id="circle222"/>
	<circle cx="896.98" cy="509.902" r="4" fill="#0" id="circle223"/>
	<circle cx="896.98" cy="527.906" r="4" fill="#0" id="circle224"/>
	<circle cx="896.98" cy="545.909" r="4" fill="#0" id="circle225"/>
	<circle cx="896.98" cy="563.913" r="4" fill="#0" id="circle226"/>
	<circle cx="896.98" cy="581.917" r="4" fill="#0" id="circle227"/>
	<circle cx="896.98" cy="599.92" r="4" fill="#0" id="circle228"/>
	<circle cx="896.98" cy="644.929" r="4" fill="#0" id="circle229"/>
	<circle cx="896.98" cy="662.933" r="4" fill="#0" id="circle230"/>
	<circle cx="896.98" cy="680.936" r="4" fill="#0" id="circle231"/>
	<circle cx="900.581" cy="94.0181" r="4" fill="#0" id="circle232"/>
	<circle cx="900.581" cy="617.924" r="4" fill="#0" id="circle233"/>
	<circle cx="905.982" cy="473.895" r="4" fill="#0" id="circle234"/>
	<circle cx="913.183" cy="108.421" r="4" fill="#0" id="circle235"/>
	<circle cx="914.984" cy="455.891" r="4" fill="#0" id="circle236"/>
	<circle cx="923.985" cy="428.886" r="4" fill="#0" id="circle237"/>
	<circle cx="927.586" cy="121.024" r="4" fill="#0" id="circle238"/>
	<circle cx="932.987" cy="392.878" r="4" fill="#0" id="circle239"/>
	<circle cx="932.987" cy="410.882" r="4" fill="#0" id="circle240"/>
	<circle cx="940.189" cy="135.426" r="4" fill="#0" id="circle241"/>
	<circle cx="949.191" cy="383.877" r="4" fill="#0" id="circle242"/>
	<circle cx="949.191" cy="401.88" r="4" fill="#0" id="circle243"/>
	<circle cx="949.191" cy="419.884" r="4" fill="#0" id="circle244"/>
	<circle cx="950.991" cy="149.829" r="4" fill="#0" id="circle245"/>
	<circle cx="954.592" cy="167.833" r="4" fill="#0" id="circle246"/>
	<circle cx="954.592" cy="437.887" r="4" fill="#0" id="circle247"/>
	<circle cx="958.192" cy="455.891" r="4" fill="#0" id="circle248"/>
	<circle cx="963.593" cy="184.036" r="4" fill="#0" id="circle249"/>
	<circle cx="963.593" cy="473.895" r="4" fill="#0" id="circle250"/>
	<circle cx="967.194" cy="491.898" r="4" fill="#0" id="circle251"/>
	<circle cx="967.194" cy="509.902" r="4" fill="#0" id="circle252"/>
	<circle cx="967.194" cy="527.906" r="4" fill="#0" id="circle253"/>
	<circle cx="968.995" cy="202.04" r="4" fill="#0" id="circle254"/>
	<circle cx="968.995" cy="220.044" r="4" fill="#0" id="circle255"/>
	<circle cx="968.995" cy="401.88" r="4" fill="#0" id="circle256"/>
	<circle cx="968.995" cy="419.884" r="4" fill="#0" id="circle257"/>
	<circle cx="972.595" cy="437.887" r="4" fill="#0" id="circle258"/>
	<circle cx="977.996" cy="236.247" r="4" fill="#0" id="circle259"/>
	<circle cx="977.996" cy="254.25" r="4" fill="#0" id="circle260"/>
	<circle cx="977.996" cy="272.254" r="4" fill="#0" id="circle261"/>
	<circle cx="977.996" cy="290.258" r="4" fill="#0" id="circle262"/>
	<circle cx="977.996" cy="308.261" r="4" fill="#0" id="circle263"/>
	<circle cx="977.996" cy="326.265" r="4" fill="#0" id="circle264"/>
	<circle cx="977.996" cy="344.269" r="4" fill="#0" id="circle265"/>
	<circle cx="977.996" cy="362.272" r="4" fill="#0" id="circle266"/>
	<circle cx="977.996" cy="380.276" r="4" fill="#0" id="circle267"/>
	<circle cx="977.996" cy="455.891" r="4" fill="#0" id="circle268"/>
	<circle cx="977.996" cy="542.309" r="4" fill="#0" id="circle269"/>
	<circle cx="986.998" cy="472.094" r="4" fill="#0" id="circle270"/>
	<circle cx="986.998" cy="490.098" r="4" fill="#0" id="circle271"/>
	<circle cx="996" cy="506.301" r="4" fill="#0" id="circle272"/>
	<circle cx="996" cy="524.305" r="4" fill="#0" id="circle273"/>
	</g>
</svg>