<?xml version="1.0" encoding="UTF-8" standalone="no"?>
<!-- Created with CurveBenchmark -->
<svg
	xmlns:dc="http://purl.org/dc/elements/1.1/"
	xmlns:cc="http://creativecommons.org/ns#"
	xmlns:rdf="http://www.w3.org/1999/02/22-rdf-syntax-ns#"
	xmlns:svg="http://www.w3.org/2000/svg"
	xmlns="http://www.w3.org/2000/svg"
	xmlns:sodipodi="http://sodipodi.sourceforge.net/DTD/sodipodi-0.dtd"
	xmlns:inkscape="http://www.inkscape.org/namespaces/inkscape"
	width="1000"
	height="1000"
	id="svg2"
	version="1.1"
	sodipodi:docname="manifold/discur-hammer005.png.txt">
<defs
	id="defs4" />
<metadata
	id="metadata7">
	<rdf:RDF>
		<cc:Work
			rdf:about="">
			<dc:format>image/svg+xml</dc:format>
			<dc:type
				rdf:resource="http://purl.org/dc/dcmitype/StillImage" />
			<dc:title></dc:title>
		</cc:Work>
	</rdf:RDF>
</metadata>
<g
	inkscape:label="Layer 1"
	inkscape:groupmode="layer"
	id="layer1">
	<path style="fill:none;stroke:red;stroke-width:1px;stroke-linecap:butt;stroke-linejoin:miter;stroke-opacity:1" d="M 15.5014,124.765 29.8783,98.887 z" id="boundary" inkscape:connector-curvature="0" />
	<path style="fill:none;stroke:red;stroke-width:1px;stroke-linecap:butt;stroke-linejoin:miter;stroke-opacity:1" d="M 15.5014,124.765 44.2551,127.641 z" id="boundary" inkscape:connector-curvature="0" />
	<path style="fill:none;stroke:red;stroke-width:1px;stroke-linecap:butt;stroke-linejoin:miter;stroke-opacity:1" d="M 29.8783,98.887 47.1304,75.8841 z" id="boundary" inkscape:connector-curvature="0" />
	<path style="fill:none;stroke:red;stroke-width:1px;stroke-linecap:butt;stroke-linejoin:miter;stroke-opacity:1" d="M 44.2551,127.641 67.258,104.638 z" id="boundary" inkscape:connector-curvature="0" />
	<path style="fill:none;stroke:red;stroke-width:1px;stroke-linecap:butt;stroke-linejoin:miter;stroke-opacity:1" d="M 47.1304,75.8841 64.3826,52.8812 z" id="boundary" inkscape:connector-curvature="0" />
	<path style="fill:none;stroke:red;stroke-width:1px;stroke-linecap:butt;stroke-linejoin:miter;stroke-opacity:1" d="M 64.3826,52.8812 87.3855,35.629 z" id="boundary" inkscape:connector-curvature="0" />
	<path style="fill:none;stroke:red;stroke-width:1px;stroke-linecap:butt;stroke-linejoin:miter;stroke-opacity:1" d="M 67.258,104.638 96.0116,93.1362 z" id="boundary" inkscape:connector-curvature="0" />
	<path style="fill:none;stroke:red;stroke-width:1px;stroke-linecap:butt;stroke-linejoin:miter;stroke-opacity:1" d="M 87.3855,35.629 110.388,18.3768 z" id="boundary" inkscape:connector-curvature="0" />
	<path style="fill:none;stroke:red;stroke-width:1px;stroke-linecap:butt;stroke-linejoin:miter;stroke-opacity:1" d="M 96.0116,93.1362 124.765,81.6348 z" id="boundary" inkscape:connector-curvature="0" />
	<path style="fill:none;stroke:red;stroke-width:1px;stroke-linecap:butt;stroke-linejoin:miter;stroke-opacity:1" d="M 110.388,18.3768 136.267,4 z" id="boundary" inkscape:connector-curvature="0" />
	<path style="fill:none;stroke:red;stroke-width:1px;stroke-linecap:butt;stroke-linejoin:miter;stroke-opacity:1" d="M 119.014,975.872 124.765,941.368 z" id="boundary" inkscape:connector-curvature="0" />
	<path style="fill:none;stroke:red;stroke-width:1px;stroke-linecap:butt;stroke-linejoin:miter;stroke-opacity:1" d="M 119.014,975.872 142.017,996 z" id="boundary" inkscape:connector-curvature="0" />
	<path style="fill:none;stroke:red;stroke-width:1px;stroke-linecap:butt;stroke-linejoin:miter;stroke-opacity:1" d="M 124.765,81.6348 136.267,110.388 z" id="boundary" inkscape:connector-curvature="0" />
	<path style="fill:none;stroke:red;stroke-width:1px;stroke-linecap:butt;stroke-linejoin:miter;stroke-opacity:1" d="M 124.765,912.614 124.765,941.368 z" id="boundary" inkscape:connector-curvature="0" />
	<path style="fill:none;stroke:red;stroke-width:1px;stroke-linecap:butt;stroke-linejoin:miter;stroke-opacity:1" d="M 124.765,912.614 130.516,860.858 z" id="boundary" inkscape:connector-curvature="0" />
	<path style="fill:none;stroke:red;stroke-width:1px;stroke-linecap:butt;stroke-linejoin:miter;stroke-opacity:1" d="M 130.516,515.814 130.516,544.568 z" id="boundary" inkscape:connector-curvature="0" />
	<path style="fill:none;stroke:red;stroke-width:1px;stroke-linecap:butt;stroke-linejoin:miter;stroke-opacity:1" d="M 130.516,515.814 136.267,469.809 z" id="boundary" inkscape:connector-curvature="0" />
	<path style="fill:none;stroke:red;stroke-width:1px;stroke-linecap:butt;stroke-linejoin:miter;stroke-opacity:1" d="M 130.516,544.568 130.516,573.322 z" id="boundary" inkscape:connector-curvature="0" />
	<path style="fill:none;stroke:red;stroke-width:1px;stroke-linecap:butt;stroke-linejoin:miter;stroke-opacity:1" d="M 130.516,573.322 130.516,602.075 z" id="boundary" inkscape:connector-curvature="0" />
	<path style="fill:none;stroke:red;stroke-width:1px;stroke-linecap:butt;stroke-linejoin:miter;stroke-opacity:1" d="M 130.516,602.075 130.516,630.829 z" id="boundary" inkscape:connector-curvature="0" />
	<path style="fill:none;stroke:red;stroke-width:1px;stroke-linecap:butt;stroke-linejoin:miter;stroke-opacity:1" d="M 130.516,630.829 130.516,659.583 z" id="boundary" inkscape:connector-curvature="0" />
	<path style="fill:none;stroke:red;stroke-width:1px;stroke-linecap:butt;stroke-linejoin:miter;stroke-opacity:1" d="M 130.516,659.583 130.516,688.336 z" id="boundary" inkscape:connector-curvature="0" />
	<path style="fill:none;stroke:red;stroke-width:1px;stroke-linecap:butt;stroke-linejoin:miter;stroke-opacity:1" d="M 130.516,688.336 130.516,717.09 z" id="boundary" inkscape:connector-curvature="0" />
	<path style="fill:none;stroke:red;stroke-width:1px;stroke-linecap:butt;stroke-linejoin:miter;stroke-opacity:1" d="M 130.516,717.09 130.516,745.843 z" id="boundary" inkscape:connector-curvature="0" />
	<path style="fill:none;stroke:red;stroke-width:1px;stroke-linecap:butt;stroke-linejoin:miter;stroke-opacity:1" d="M 130.516,745.843 130.516,774.597 z" id="boundary" inkscape:connector-curvature="0" />
	<path style="fill:none;stroke:red;stroke-width:1px;stroke-linecap:butt;stroke-linejoin:miter;stroke-opacity:1" d="M 130.516,774.597 130.516,803.351 z" id="boundary" inkscape:connector-curvature="0" />
	<path style="fill:none;stroke:red;stroke-width:1px;stroke-linecap:butt;stroke-linejoin:miter;stroke-opacity:1" d="M 130.516,803.351 130.516,832.104 z" id="boundary" inkscape:connector-curvature="0" />
	<path style="fill:none;stroke:red;stroke-width:1px;stroke-linecap:butt;stroke-linejoin:miter;stroke-opacity:1" d="M 130.516,832.104 130.516,860.858 z" id="boundary" inkscape:connector-curvature="0" />
	<path style="fill:none;stroke:red;stroke-width:1px;stroke-linecap:butt;stroke-linejoin:miter;stroke-opacity:1" d="M 136.267,4 165.02,4 z" id="boundary" inkscape:connector-curvature="0" />
	<path style="fill:none;stroke:red;stroke-width:1px;stroke-linecap:butt;stroke-linejoin:miter;stroke-opacity:1" d="M 136.267,110.388 142.017,139.142 z" id="boundary" inkscape:connector-curvature="0" />
	<path style="fill:none;stroke:red;stroke-width:1px;stroke-linecap:butt;stroke-linejoin:miter;stroke-opacity:1" d="M 136.267,469.809 159.27,429.554 z" id="boundary" inkscape:connector-curvature="0" />
	<path style="fill:none;stroke:red;stroke-width:1px;stroke-linecap:butt;stroke-linejoin:miter;stroke-opacity:1" d="M 142.017,139.142 153.519,167.896 z" id="boundary" inkscape:connector-curvature="0" />
	<path style="fill:none;stroke:red;stroke-width:1px;stroke-linecap:butt;stroke-linejoin:miter;stroke-opacity:1" d="M 142.017,996 170.771,996 z" id="boundary" inkscape:connector-curvature="0" />
	<path style="fill:none;stroke:red;stroke-width:1px;stroke-linecap:butt;stroke-linejoin:miter;stroke-opacity:1" d="M 153.519,167.896 159.27,196.649 z" id="boundary" inkscape:connector-curvature="0" />
	<path style="fill:none;stroke:red;stroke-width:1px;stroke-linecap:butt;stroke-linejoin:miter;stroke-opacity:1" d="M 159.27,196.649 159.27,225.403 z" id="boundary" inkscape:connector-curvature="0" />
	<path style="fill:none;stroke:red;stroke-width:1px;stroke-linecap:butt;stroke-linejoin:miter;stroke-opacity:1" d="M 159.27,225.403 165.02,254.157 z" id="boundary" inkscape:connector-curvature="0" />
	<path style="fill:none;stroke:red;stroke-width:1px;stroke-linecap:butt;stroke-linejoin:miter;stroke-opacity:1" d="M 159.27,429.554 165.02,397.925 z" id="boundary" inkscape:connector-curvature="0" />
	<path style="fill:none;stroke:red;stroke-width:1px;stroke-linecap:butt;stroke-linejoin:miter;stroke-opacity:1" d="M 165.02,4 193.774,4 z" id="boundary" inkscape:connector-curvature="0" />
	<path style="fill:none;stroke:red;stroke-width:1px;stroke-linecap:butt;stroke-linejoin:miter;stroke-opacity:1" d="M 165.02,254.157 165.02,282.91 z" id="boundary" inkscape:connector-curvature="0" />
	<path style="fill:none;stroke:red;stroke-width:1px;stroke-linecap:butt;stroke-linejoin:miter;stroke-opacity:1" d="M 165.02,282.91 165.02,311.664 z" id="boundary" inkscape:connector-curvature="0" />
	<path style="fill:none;stroke:red;stroke-width:1px;stroke-linecap:butt;stroke-linejoin:miter;stroke-opacity:1" d="M 165.02,311.664 165.02,340.417 z" id="boundary" inkscape:connector-curvature="0" />
	<path style="fill:none;stroke:red;stroke-width:1px;stroke-linecap:butt;stroke-linejoin:miter;stroke-opacity:1" d="M 165.02,340.417 165.02,369.171 z" id="boundary" inkscape:connector-curvature="0" />
	<path style="fill:none;stroke:red;stroke-width:1px;stroke-linecap:butt;stroke-linejoin:miter;stroke-opacity:1" d="M 165.02,369.171 165.02,397.925 z" id="boundary" inkscape:connector-curvature="0" />
	<path style="fill:none;stroke:red;stroke-width:1px;stroke-linecap:butt;stroke-linejoin:miter;stroke-opacity:1" d="M 170.771,996 199.525,996 z" id="boundary" inkscape:connector-curvature="0" />
	<path style="fill:none;stroke:red;stroke-width:1px;stroke-linecap:butt;stroke-linejoin:miter;stroke-opacity:1" d="M 193.774,4 222.528,4 z" id="boundary" inkscape:connector-curvature="0" />
	<path style="fill:none;stroke:red;stroke-width:1px;stroke-linecap:butt;stroke-linejoin:miter;stroke-opacity:1" d="M 199.525,996 228.278,996 z" id="boundary" inkscape:connector-curvature="0" />
	<path style="fill:none;stroke:red;stroke-width:1px;stroke-linecap:butt;stroke-linejoin:miter;stroke-opacity:1" d="M 222.528,4 251.281,4 z" id="boundary" inkscape:connector-curvature="0" />
	<path style="fill:none;stroke:red;stroke-width:1px;stroke-linecap:butt;stroke-linejoin:miter;stroke-opacity:1" d="M 228.278,996 257.032,996 z" id="boundary" inkscape:connector-curvature="0" />
	<path style="fill:none;stroke:red;stroke-width:1px;stroke-linecap:butt;stroke-linejoin:miter;stroke-opacity:1" d="M 236.904,234.029 236.904,262.783 z" id="boundary" inkscape:connector-curvature="0" />
	<path style="fill:none;stroke:red;stroke-width:1px;stroke-linecap:butt;stroke-linejoin:miter;stroke-opacity:1" d="M 236.904,234.029 242.655,193.774 z" id="boundary" inkscape:connector-curvature="0" />
	<path style="fill:none;stroke:red;stroke-width:1px;stroke-linecap:butt;stroke-linejoin:miter;stroke-opacity:1" d="M 236.904,262.783 236.904,291.536 z" id="boundary" inkscape:connector-curvature="0" />
	<path style="fill:none;stroke:red;stroke-width:1px;stroke-linecap:butt;stroke-linejoin:miter;stroke-opacity:1" d="M 236.904,291.536 236.904,320.29 z" id="boundary" inkscape:connector-curvature="0" />
	<path style="fill:none;stroke:red;stroke-width:1px;stroke-linecap:butt;stroke-linejoin:miter;stroke-opacity:1" d="M 236.904,320.29 236.904,349.043 z" id="boundary" inkscape:connector-curvature="0" />
	<path style="fill:none;stroke:red;stroke-width:1px;stroke-linecap:butt;stroke-linejoin:miter;stroke-opacity:1" d="M 236.904,349.043 236.904,377.797 z" id="boundary" inkscape:connector-curvature="0" />
	<path style="fill:none;stroke:red;stroke-width:1px;stroke-linecap:butt;stroke-linejoin:miter;stroke-opacity:1" d="M 236.904,377.797 236.904,406.551 z" id="boundary" inkscape:connector-curvature="0" />
	<path style="fill:none;stroke:red;stroke-width:1px;stroke-linecap:butt;stroke-linejoin:miter;stroke-opacity:1" d="M 236.904,406.551 242.655,435.304 z" id="boundary" inkscape:connector-curvature="0" />
	<path style="fill:none;stroke:red;stroke-width:1px;stroke-linecap:butt;stroke-linejoin:miter;stroke-opacity:1" d="M 242.655,193.774 254.157,159.27 z" id="boundary" inkscape:connector-curvature="0" />
	<path style="fill:none;stroke:red;stroke-width:1px;stroke-linecap:butt;stroke-linejoin:miter;stroke-opacity:1" d="M 242.655,435.304 248.406,464.058 z" id="boundary" inkscape:connector-curvature="0" />
	<path style="fill:none;stroke:red;stroke-width:1px;stroke-linecap:butt;stroke-linejoin:miter;stroke-opacity:1" d="M 248.406,464.058 265.658,487.061 z" id="boundary" inkscape:connector-curvature="0" />
	<path style="fill:none;stroke:red;stroke-width:1px;stroke-linecap:butt;stroke-linejoin:miter;stroke-opacity:1" d="M 251.281,4 280.035,15.5014 z" id="boundary" inkscape:connector-curvature="0" />
	<path style="fill:none;stroke:red;stroke-width:1px;stroke-linecap:butt;stroke-linejoin:miter;stroke-opacity:1" d="M 254.157,159.27 259.907,124.765 z" id="boundary" inkscape:connector-curvature="0" />
	<path style="fill:none;stroke:red;stroke-width:1px;stroke-linecap:butt;stroke-linejoin:miter;stroke-opacity:1" d="M 257.032,996 280.035,975.872 z" id="boundary" inkscape:connector-curvature="0" />
	<path style="fill:none;stroke:red;stroke-width:1px;stroke-linecap:butt;stroke-linejoin:miter;stroke-opacity:1" d="M 259.907,124.765 265.658,90.2609 z" id="boundary" inkscape:connector-curvature="0" />
	<path style="fill:none;stroke:red;stroke-width:1px;stroke-linecap:butt;stroke-linejoin:miter;stroke-opacity:1" d="M 265.658,90.2609 291.536,75.8841 z" id="boundary" inkscape:connector-curvature="0" />
	<path style="fill:none;stroke:red;stroke-width:1px;stroke-linecap:butt;stroke-linejoin:miter;stroke-opacity:1" d="M 265.658,487.061 271.409,515.814 z" id="boundary" inkscape:connector-curvature="0" />
	<path style="fill:none;stroke:red;stroke-width:1px;stroke-linecap:butt;stroke-linejoin:miter;stroke-opacity:1" d="M 271.409,515.814 271.409,544.568 z" id="boundary" inkscape:connector-curvature="0" />
	<path style="fill:none;stroke:red;stroke-width:1px;stroke-linecap:butt;stroke-linejoin:miter;stroke-opacity:1" d="M 271.409,544.568 271.409,573.322 z" id="boundary" inkscape:connector-curvature="0" />
	<path style="fill:none;stroke:red;stroke-width:1px;stroke-linecap:butt;stroke-linejoin:miter;stroke-opacity:1" d="M 271.409,573.322 271.409,602.075 z" id="boundary" inkscape:connector-curvature="0" />
	<path style="fill:none;stroke:red;stroke-width:1px;stroke-linecap:butt;stroke-linejoin:miter;stroke-opacity:1" d="M 271.409,602.075 271.409,630.829 z" id="boundary" inkscape:connector-curvature="0" />
	<path style="fill:none;stroke:red;stroke-width:1px;stroke-linecap:butt;stroke-linejoin:miter;stroke-opacity:1" d="M 271.409,630.829 271.409,659.583 z" id="boundary" inkscape:connector-curvature="0" />
	<path style="fill:none;stroke:red;stroke-width:1px;stroke-linecap:butt;stroke-linejoin:miter;stroke-opacity:1" d="M 271.409,659.583 271.409,688.336 z" id="boundary" inkscape:connector-curvature="0" />
	<path style="fill:none;stroke:red;stroke-width:1px;stroke-linecap:butt;stroke-linejoin:miter;stroke-opacity:1" d="M 271.409,688.336 271.409,717.09 z" id="boundary" inkscape:connector-curvature="0" />
	<path style="fill:none;stroke:red;stroke-width:1px;stroke-linecap:butt;stroke-linejoin:miter;stroke-opacity:1" d="M 271.409,717.09 271.409,745.843 z" id="boundary" inkscape:connector-curvature="0" />
	<path style="fill:none;stroke:red;stroke-width:1px;stroke-linecap:butt;stroke-linejoin:miter;stroke-opacity:1" d="M 271.409,745.843 271.409,774.597 z" id="boundary" inkscape:connector-curvature="0" />
	<path style="fill:none;stroke:red;stroke-width:1px;stroke-linecap:butt;stroke-linejoin:miter;stroke-opacity:1" d="M 271.409,774.597 271.409,803.351 z" id="boundary" inkscape:connector-curvature="0" />
	<path style="fill:none;stroke:red;stroke-width:1px;stroke-linecap:butt;stroke-linejoin:miter;stroke-opacity:1" d="M 271.409,803.351 271.409,832.104 z" id="boundary" inkscape:connector-curvature="0" />
	<path style="fill:none;stroke:red;stroke-width:1px;stroke-linecap:butt;stroke-linejoin:miter;stroke-opacity:1" d="M 271.409,832.104 271.409,860.858 z" id="boundary" inkscape:connector-curvature="0" />
	<path style="fill:none;stroke:red;stroke-width:1px;stroke-linecap:butt;stroke-linejoin:miter;stroke-opacity:1" d="M 271.409,860.858 271.409,889.612 z" id="boundary" inkscape:connector-curvature="0" />
	<path style="fill:none;stroke:red;stroke-width:1px;stroke-linecap:butt;stroke-linejoin:miter;stroke-opacity:1" d="M 271.409,889.612 277.159,918.365 z" id="boundary" inkscape:connector-curvature="0" />
	<path style="fill:none;stroke:red;stroke-width:1px;stroke-linecap:butt;stroke-linejoin:miter;stroke-opacity:1" d="M 277.159,918.365 277.159,947.119 z" id="boundary" inkscape:connector-curvature="0" />
	<path style="fill:none;stroke:red;stroke-width:1px;stroke-linecap:butt;stroke-linejoin:miter;stroke-opacity:1" d="M 277.159,947.119 280.035,975.872 z" id="boundary" inkscape:connector-curvature="0" />
	<path style="fill:none;stroke:red;stroke-width:1px;stroke-linecap:butt;stroke-linejoin:miter;stroke-opacity:1" d="M 280.035,15.5014 308.788,15.5014 z" id="boundary" inkscape:connector-curvature="0" />
	<path style="fill:none;stroke:red;stroke-width:1px;stroke-linecap:butt;stroke-linejoin:miter;stroke-opacity:1" d="M 291.536,75.8841 320.29,75.8841 z" id="boundary" inkscape:connector-curvature="0" />
	<path style="fill:none;stroke:red;stroke-width:1px;stroke-linecap:butt;stroke-linejoin:miter;stroke-opacity:1" d="M 308.788,15.5014 337.542,9.75072 z" id="boundary" inkscape:connector-curvature="0" />
	<path style="fill:none;stroke:red;stroke-width:1px;stroke-linecap:butt;stroke-linejoin:miter;stroke-opacity:1" d="M 320.29,75.8841 346.168,90.2609 z" id="boundary" inkscape:connector-curvature="0" />
	<path style="fill:none;stroke:red;stroke-width:1px;stroke-linecap:butt;stroke-linejoin:miter;stroke-opacity:1" d="M 337.542,9.75072 366.296,4 z" id="boundary" inkscape:connector-curvature="0" />
	<path style="fill:none;stroke:red;stroke-width:1px;stroke-linecap:butt;stroke-linejoin:miter;stroke-opacity:1" d="M 346.168,90.2609 374.922,93.1362 z" id="boundary" inkscape:connector-curvature="0" />
	<path style="fill:none;stroke:red;stroke-width:1px;stroke-linecap:butt;stroke-linejoin:miter;stroke-opacity:1" d="M 366.296,4 392.174,18.3768 z" id="boundary" inkscape:connector-curvature="0" />
	<path style="fill:none;stroke:red;stroke-width:1px;stroke-linecap:butt;stroke-linejoin:miter;stroke-opacity:1" d="M 374.922,93.1362 392.174,47.1304 z" id="boundary" inkscape:connector-curvature="0" />
	<path style="fill:none;stroke:red;stroke-width:1px;stroke-linecap:butt;stroke-linejoin:miter;stroke-opacity:1" d="M 392.174,18.3768 392.174,47.1304 z" id="boundary" inkscape:connector-curvature="0" />
	<circle cx="4" cy="153.519" r="4" fill="#0" id="circle0"/>
	<circle cx="15.5014" cy="124.765" r="4" fill="#0" id="circle1"/>
	<circle cx="29.8783" cy="98.887" r="4" fill="#0" id="circle2"/>
	<circle cx="44.2551" cy="127.641" r="4" fill="#0" id="circle3"/>
	<circle cx="47.1304" cy="75.8841" r="4" fill="#0" id="circle4"/>
	<circle cx="64.3826" cy="52.8812" r="4" fill="#0" id="circle5"/>
	<circle cx="67.258" cy="104.638" r="4" fill="#0" id="circle6"/>
	<circle cx="87.3855" cy="35.629" r="4" fill="#0" id="circle7"/>
	<circle cx="96.0116" cy="93.1362" r="4" fill="#0" id="circle8"/>
	<circle cx="110.388" cy="18.3768" r="4" fill="#0" id="circle9"/>
	<circle cx="119.014" cy="975.872" r="4" fill="#0" id="circle10"/>
	<circle cx="124.765" cy="81.6348" r="4" fill="#0" id="circle11"/>
	<circle cx="124.765" cy="912.614" r="4" fill="#0" id="circle12"/>
	<circle cx="124.765" cy="941.368" r="4" fill="#0" id="circle13"/>
	<circle cx="130.516" cy="515.814" r="4" fill="#0" id="circle14"/>
	<circle cx="130.516" cy="544.568" r="4" fill="#0" id="circle15"/>
	<circle cx="130.516" cy="573.322" r="4" fill="#0" id="circle16"/>
	<circle cx="130.516" cy="602.075" r="4" fill="#0" id="circle17"/>
	<circle cx="130.516" cy="630.829" r="4" fill="#0" id="circle18"/>
	<circle cx="130.516" cy="659.583" r="4" fill="#0" id="circle19"/>
	<circle cx="130.516" cy="688.336" r="4" fill="#0" id="circle20"/>
	<circle cx="130.516" cy="717.09" r="4" fill="#0" id="circle21"/>
	<circle cx="130.516" cy="745.843" r="4" fill="#0" id="circle22"/>
	<circle cx="130.516" cy="774.597" r="4" fill="#0" id="circle23"/>
	<circle cx="130.516" cy="803.351" r="4" fill="#0" id="circle24"/>
	<circle cx="130.516" cy="832.104" r="4" fill="#0" id="circle25"/>
	<circle cx="130.516" cy="860.858" r="4" fill="#0" id="circle26"/>
	<circle cx="136.267" cy="4" r="4" fill="#0" id="circle27"/>
	<circle cx="136.267" cy="110.388" r="4" fill="#0" id="circle28"/>
	<circle cx="136.267" cy="469.809" r="4" fill="#0" id="circle29"/>
	<circle cx="142.017" cy="139.142" r="4" fill="#0" id="circle30"/>
	<circle cx="142.017" cy="996" r="4" fill="#0" id="circle31"/>
	<circle cx="153.519" cy="167.896" r="4" fill="#0" id="circle32"/>
	<circle cx="159.27" cy="196.649" r="4" fill="#0" id="circle33"/>
	<circle cx="159.27" cy="225.403" r="4" fill="#0" id="circle34"/>
	<circle cx="159.27" cy="429.554" r="4" fill="#0" id="circle35"/>
	<circle cx="165.02" cy="4" r="4" fill="#0" id="circle36"/>
	<circle cx="165.02" cy="254.157" r="4" fill="#0" id="circle37"/>
	<circle cx="165.02" cy="282.91" r="4" fill="#0" id="circle38"/>
	<circle cx="165.02" cy="311.664" r="4" fill="#0" id="circle39"/>
	<circle cx="165.02" cy="340.417" r="4" fill="#0" id="circle40"/>
	<circle cx="165.02" cy="369.171" r="4" fill="#0" id="circle41"/>
	<circle cx="165.02" cy="397.925" r="4" fill="#0" id="circle42"/>
	<circle cx="170.771" cy="996" r="4" fill="#0" id="circle43"/>
	<circle cx="193.774" cy="4" r="4" fill="#0" id="circle44"/>
	<circle cx="199.525" cy="996" r="4" fill="#0" id="circle45"/>
	<circle cx="222.528" cy="4" r="4" fill="#0" id="circle46"/>
	<circle cx="228.278" cy="996" r="4" fill="#0" id="circle47"/>
	<circle cx="236.904" cy="234.029" r="4" fill="#0" id="circle48"/>
	<circle cx="236.904" cy="262.783" r="4" fill="#0" id="circle49"/>
	<circle cx="236.904" cy="291.536" r="4" fill="#0" id="circle50"/>
	<circle cx="236.904" cy="320.29" r="4" fill="#0" id="circle51"/>
	<circle cx="236.904" cy="349.043" r="4" fill="#0" id="circle52"/>
	<circle cx="236.904" cy="377.797" r="4" fill="#0" id="circle53"/>
	<circle cx="236.904" cy="406.551" r="4" fill="#0" id="circle54"/>
	<circle cx="242.655" cy="193.774" r="4" fill="#0" id="circle55"/>
	<circle cx="242.655" cy="435.304" r="4" fill="#0" id="circle56"/>
	<circle cx="248.406" cy="464.058" r="4" fill="#0" id="circle57"/>
	<circle cx="251.281" cy="4" r="4" fill="#0" id="circle58"/>
	<circle cx="254.157" cy="159.27" r="4" fill="#0" id="circle59"/>
	<circle cx="257.032" cy="996" r="4" fill="#0" id="circle60"/>
	<circle cx="259.907" cy="124.765" r="4" fill="#0" id="circle61"/>
	<circle cx="265.658" cy="90.2609" r="4" fill="#0" id="circle62"/>
	<circle cx="265.658" cy="487.061" r="4" fill="#0" id="circle63"/>
	<circle cx="271.409" cy="515.814" r="4" fill="#0" id="circle64"/>
	<circle cx="271.409" cy="544.568" r="4" fill="#0" id="circle65"/>
	<circle cx="271.409" cy="573.322" r="4" fill="#0" id="circle66"/>
	<circle cx="271.409" cy="602.075" r="4" fill="#0" id="circle67"/>
	<circle cx="271.409" cy="630.829" r="4" fill="#0" id="circle68"/>
	<circle cx="271.409" cy="659.583" r="4" fill="#0" id="circle69"/>
	<circle cx="271.409" cy="688.336" r="4" fill="#0" id="circle70"/>
	<circle cx="271.409" cy="717.09" r="4" fill="#0" id="circle71"/>
	<circle cx="271.409" cy="745.843" r="4" fill="#0" id="circle72"/>
	<circle cx="271.409" cy="774.597" r="4" fill="#0" id="circle73"/>
	<circle cx="271.409" cy="803.351" r="4" fill="#0" id="circle74"/>
	<circle cx="271.409" cy="832.104" r="4" fill="#0" id="circle75"/>
	<circle cx="271.409" cy="860.858" r="4" fill="#0" id="circle76"/>
	<circle cx="271.409" cy="889.612" r="4" fill="#0" id="circle77"/>
	<circle cx="277.159" cy="918.365" r="4" fill="#0" id="circle78"/>
	<circle cx="277.159" cy="947.119" r="4" fill="#0" id="circle79"/>
	<circle cx="280.035" cy="15.5014" r="4" fill="#0" id="circle80"/>
	<circle cx="280.035" cy="975.872" r="4" fill="#0" id="circle81"/>
	<circle cx="291.536" cy="75.8841" r="4" fill="#0" id="circle82"/>
	<circle cx="308.788" cy="15.5014" r="4" fill="#0" id="circle83"/>
	<circle cx="320.29" cy="75.8841" r="4" fill="#0" id="circle84"/>
	<circle cx="337.542" cy="9.75072" r="4" fill="#0" id="circle85"/>
	<circle cx="346.168" cy="90.2609" r="4" fill="#0" id="circle86"/>
	<circle cx="366.296" cy="4" r="4" fill="#0" id="circle87"/>
	<circle cx="374.922" cy="93.1362" r="4" fill="#0" id="circle88"/>
	<circle cx="392.174" cy="18.3768" r="4" fill="#0" id="circle89"/>
	<circle cx="392.174" cy="47.1304" r="4" fill="#0" id="circle90"/>
	</g>
</svg>