<?xml version="1.0" encoding="UTF-8" standalone="no"?>
<!-- Created with CurveBenchmark -->
<svg
	xmlns:dc="http://purl.org/dc/elements/1.1/"
	xmlns:cc="http://creativecommons.org/ns#"
	xmlns:rdf="http://www.w3.org/1999/02/22-rdf-syntax-ns#"
	xmlns:svg="http://www.w3.org/2000/svg"
	xmlns="http://www.w3.org/2000/svg"
	xmlns:sodipodi="http://sodipodi.sourceforge.net/DTD/sodipodi-0.dtd"
	xmlns:inkscape="http://www.inkscape.org/namespaces/inkscape"
	width="1000"
	height="1000"
	id="svg2"
	version="1.1"
	sodipodi:docname="manifold/discur-television040.png.txt">
<defs
	id="defs4" />
<metadata
	id="metadata7">
	<rdf:RDF>
		<cc:Work
			rdf:about="">
			<dc:format>image/svg+xml</dc:format>
			<dc:type
				rdf:resource="http://purl.org/dc/dcmitype/StillImage" />
			<dc:title></dc:title>
		</cc:Work>
	</rdf:RDF>
</metadata>
<g
	inkscape:label="Layer 1"
	inkscape:groupmode="layer"
	id="layer1">
	<path style="fill:none;stroke:red;stroke-width:1px;stroke-linecap:butt;stroke-linejoin:miter;stroke-opacity:1" d="M 4,811.523 4,846.33 z" id="boundary" inkscape:connector-curvature="0" />
	<path style="fill:none;stroke:red;stroke-width:1px;stroke-linecap:butt;stroke-linejoin:miter;stroke-opacity:1" d="M 4,811.523 38.807,797.6 z" id="boundary" inkscape:connector-curvature="0" />
	<path style="fill:none;stroke:red;stroke-width:1px;stroke-linecap:butt;stroke-linejoin:miter;stroke-opacity:1" d="M 4,846.33 31.8456,870.695 z" id="boundary" inkscape:connector-curvature="0" />
	<path style="fill:none;stroke:red;stroke-width:1px;stroke-linecap:butt;stroke-linejoin:miter;stroke-opacity:1" d="M 31.8456,870.695 66.6526,884.618 z" id="boundary" inkscape:connector-curvature="0" />
	<path style="fill:none;stroke:red;stroke-width:1px;stroke-linecap:butt;stroke-linejoin:miter;stroke-opacity:1" d="M 38.807,797.6 73.614,797.6 z" id="boundary" inkscape:connector-curvature="0" />
	<path style="fill:none;stroke:red;stroke-width:1px;stroke-linecap:butt;stroke-linejoin:miter;stroke-opacity:1" d="M 45.7684,595.719 77.0947,613.123 z" id="boundary" inkscape:connector-curvature="0" />
	<path style="fill:none;stroke:red;stroke-width:1px;stroke-linecap:butt;stroke-linejoin:miter;stroke-opacity:1" d="M 45.7684,595.719 94.4982,581.796 z" id="boundary" inkscape:connector-curvature="0" />
	<path style="fill:none;stroke:red;stroke-width:1px;stroke-linecap:butt;stroke-linejoin:miter;stroke-opacity:1" d="M 66.6526,884.618 101.46,870.695 z" id="boundary" inkscape:connector-curvature="0" />
	<path style="fill:none;stroke:red;stroke-width:1px;stroke-linecap:butt;stroke-linejoin:miter;stroke-opacity:1" d="M 73.614,724.505 91.0175,693.179 z" id="boundary" inkscape:connector-curvature="0" />
	<path style="fill:none;stroke:red;stroke-width:1px;stroke-linecap:butt;stroke-linejoin:miter;stroke-opacity:1" d="M 73.614,724.505 108.421,724.505 z" id="boundary" inkscape:connector-curvature="0" />
	<path style="fill:none;stroke:red;stroke-width:1px;stroke-linecap:butt;stroke-linejoin:miter;stroke-opacity:1" d="M 73.614,797.6 108.421,797.6 z" id="boundary" inkscape:connector-curvature="0" />
	<path style="fill:none;stroke:red;stroke-width:1px;stroke-linecap:butt;stroke-linejoin:miter;stroke-opacity:1" d="M 77.0947,613.123 111.902,613.123 z" id="boundary" inkscape:connector-curvature="0" />
	<path style="fill:none;stroke:red;stroke-width:1px;stroke-linecap:butt;stroke-linejoin:miter;stroke-opacity:1" d="M 91.0175,693.179 125.825,693.179 z" id="boundary" inkscape:connector-curvature="0" />
	<path style="fill:none;stroke:red;stroke-width:1px;stroke-linecap:butt;stroke-linejoin:miter;stroke-opacity:1" d="M 94.4982,581.796 129.305,581.796 z" id="boundary" inkscape:connector-curvature="0" />
	<path style="fill:none;stroke:red;stroke-width:1px;stroke-linecap:butt;stroke-linejoin:miter;stroke-opacity:1" d="M 101.46,870.695 136.267,870.695 z" id="boundary" inkscape:connector-curvature="0" />
	<path style="fill:none;stroke:red;stroke-width:1px;stroke-linecap:butt;stroke-linejoin:miter;stroke-opacity:1" d="M 108.421,724.505 143.228,724.505 z" id="boundary" inkscape:connector-curvature="0" />
	<path style="fill:none;stroke:red;stroke-width:1px;stroke-linecap:butt;stroke-linejoin:miter;stroke-opacity:1" d="M 108.421,797.6 143.228,797.6 z" id="boundary" inkscape:connector-curvature="0" />
	<path style="fill:none;stroke:red;stroke-width:1px;stroke-linecap:butt;stroke-linejoin:miter;stroke-opacity:1" d="M 111.902,613.123 146.709,613.123 z" id="boundary" inkscape:connector-curvature="0" />
	<path style="fill:none;stroke:red;stroke-width:1px;stroke-linecap:butt;stroke-linejoin:miter;stroke-opacity:1" d="M 125.825,693.179 160.632,693.179 z" id="boundary" inkscape:connector-curvature="0" />
	<path style="fill:none;stroke:red;stroke-width:1px;stroke-linecap:butt;stroke-linejoin:miter;stroke-opacity:1" d="M 129.305,581.796 164.112,581.796 z" id="boundary" inkscape:connector-curvature="0" />
	<path style="fill:none;stroke:red;stroke-width:1px;stroke-linecap:butt;stroke-linejoin:miter;stroke-opacity:1" d="M 136.267,870.695 171.074,870.695 z" id="boundary" inkscape:connector-curvature="0" />
	<path style="fill:none;stroke:red;stroke-width:1px;stroke-linecap:butt;stroke-linejoin:miter;stroke-opacity:1" d="M 143.228,724.505 178.035,724.505 z" id="boundary" inkscape:connector-curvature="0" />
	<path style="fill:none;stroke:red;stroke-width:1px;stroke-linecap:butt;stroke-linejoin:miter;stroke-opacity:1" d="M 143.228,797.6 178.035,797.6 z" id="boundary" inkscape:connector-curvature="0" />
	<path style="fill:none;stroke:red;stroke-width:1px;stroke-linecap:butt;stroke-linejoin:miter;stroke-opacity:1" d="M 146.709,613.123 181.516,613.123 z" id="boundary" inkscape:connector-curvature="0" />
	<path style="fill:none;stroke:red;stroke-width:1px;stroke-linecap:butt;stroke-linejoin:miter;stroke-opacity:1" d="M 160.632,693.179 195.439,693.179 z" id="boundary" inkscape:connector-curvature="0" />
	<path style="fill:none;stroke:red;stroke-width:1px;stroke-linecap:butt;stroke-linejoin:miter;stroke-opacity:1" d="M 164.112,581.796 198.919,581.796 z" id="boundary" inkscape:connector-curvature="0" />
	<path style="fill:none;stroke:red;stroke-width:1px;stroke-linecap:butt;stroke-linejoin:miter;stroke-opacity:1" d="M 171.074,870.695 205.881,870.695 z" id="boundary" inkscape:connector-curvature="0" />
	<path style="fill:none;stroke:red;stroke-width:1px;stroke-linecap:butt;stroke-linejoin:miter;stroke-opacity:1" d="M 178.035,17.9228 178.035,52.7298 z" id="boundary" inkscape:connector-curvature="0" />
	<path style="fill:none;stroke:red;stroke-width:1px;stroke-linecap:butt;stroke-linejoin:miter;stroke-opacity:1" d="M 178.035,17.9228 212.842,4 z" id="boundary" inkscape:connector-curvature="0" />
	<path style="fill:none;stroke:red;stroke-width:1px;stroke-linecap:butt;stroke-linejoin:miter;stroke-opacity:1" d="M 178.035,52.7298 178.035,87.5368 z" id="boundary" inkscape:connector-curvature="0" />
	<path style="fill:none;stroke:red;stroke-width:1px;stroke-linecap:butt;stroke-linejoin:miter;stroke-opacity:1" d="M 178.035,87.5368 178.035,122.344 z" id="boundary" inkscape:connector-curvature="0" />
	<path style="fill:none;stroke:red;stroke-width:1px;stroke-linecap:butt;stroke-linejoin:miter;stroke-opacity:1" d="M 178.035,122.344 178.035,157.151 z" id="boundary" inkscape:connector-curvature="0" />
	<path style="fill:none;stroke:red;stroke-width:1px;stroke-linecap:butt;stroke-linejoin:miter;stroke-opacity:1" d="M 178.035,157.151 178.035,191.958 z" id="boundary" inkscape:connector-curvature="0" />
	<path style="fill:none;stroke:red;stroke-width:1px;stroke-linecap:butt;stroke-linejoin:miter;stroke-opacity:1" d="M 178.035,191.958 178.035,226.765 z" id="boundary" inkscape:connector-curvature="0" />
	<path style="fill:none;stroke:red;stroke-width:1px;stroke-linecap:butt;stroke-linejoin:miter;stroke-opacity:1" d="M 178.035,226.765 178.035,261.572 z" id="boundary" inkscape:connector-curvature="0" />
	<path style="fill:none;stroke:red;stroke-width:1px;stroke-linecap:butt;stroke-linejoin:miter;stroke-opacity:1" d="M 178.035,261.572 178.035,296.379 z" id="boundary" inkscape:connector-curvature="0" />
	<path style="fill:none;stroke:red;stroke-width:1px;stroke-linecap:butt;stroke-linejoin:miter;stroke-opacity:1" d="M 178.035,296.379 178.035,331.186 z" id="boundary" inkscape:connector-curvature="0" />
	<path style="fill:none;stroke:red;stroke-width:1px;stroke-linecap:butt;stroke-linejoin:miter;stroke-opacity:1" d="M 178.035,331.186 178.035,365.993 z" id="boundary" inkscape:connector-curvature="0" />
	<path style="fill:none;stroke:red;stroke-width:1px;stroke-linecap:butt;stroke-linejoin:miter;stroke-opacity:1" d="M 178.035,365.993 178.035,400.8 z" id="boundary" inkscape:connector-curvature="0" />
	<path style="fill:none;stroke:red;stroke-width:1px;stroke-linecap:butt;stroke-linejoin:miter;stroke-opacity:1" d="M 178.035,400.8 178.035,435.607 z" id="boundary" inkscape:connector-curvature="0" />
	<path style="fill:none;stroke:red;stroke-width:1px;stroke-linecap:butt;stroke-linejoin:miter;stroke-opacity:1" d="M 178.035,435.607 195.439,466.933 z" id="boundary" inkscape:connector-curvature="0" />
	<path style="fill:none;stroke:red;stroke-width:1px;stroke-linecap:butt;stroke-linejoin:miter;stroke-opacity:1" d="M 178.035,724.505 212.842,724.505 z" id="boundary" inkscape:connector-curvature="0" />
	<path style="fill:none;stroke:red;stroke-width:1px;stroke-linecap:butt;stroke-linejoin:miter;stroke-opacity:1" d="M 178.035,797.6 212.842,797.6 z" id="boundary" inkscape:connector-curvature="0" />
	<path style="fill:none;stroke:red;stroke-width:1px;stroke-linecap:butt;stroke-linejoin:miter;stroke-opacity:1" d="M 181.516,613.123 216.323,613.123 z" id="boundary" inkscape:connector-curvature="0" />
	<path style="fill:none;stroke:red;stroke-width:1px;stroke-linecap:butt;stroke-linejoin:miter;stroke-opacity:1" d="M 195.439,466.933 230.246,466.933 z" id="boundary" inkscape:connector-curvature="0" />
	<path style="fill:none;stroke:red;stroke-width:1px;stroke-linecap:butt;stroke-linejoin:miter;stroke-opacity:1" d="M 195.439,693.179 230.246,693.179 z" id="boundary" inkscape:connector-curvature="0" />
	<path style="fill:none;stroke:red;stroke-width:1px;stroke-linecap:butt;stroke-linejoin:miter;stroke-opacity:1" d="M 198.919,581.796 233.726,581.796 z" id="boundary" inkscape:connector-curvature="0" />
	<path style="fill:none;stroke:red;stroke-width:1px;stroke-linecap:butt;stroke-linejoin:miter;stroke-opacity:1" d="M 205.881,870.695 240.688,884.618 z" id="boundary" inkscape:connector-curvature="0" />
	<path style="fill:none;stroke:red;stroke-width:1px;stroke-linecap:butt;stroke-linejoin:miter;stroke-opacity:1" d="M 212.842,4 247.649,4 z" id="boundary" inkscape:connector-curvature="0" />
	<path style="fill:none;stroke:red;stroke-width:1px;stroke-linecap:butt;stroke-linejoin:miter;stroke-opacity:1" d="M 212.842,724.505 247.649,724.505 z" id="boundary" inkscape:connector-curvature="0" />
	<path style="fill:none;stroke:red;stroke-width:1px;stroke-linecap:butt;stroke-linejoin:miter;stroke-opacity:1" d="M 212.842,797.6 247.649,797.6 z" id="boundary" inkscape:connector-curvature="0" />
	<path style="fill:none;stroke:red;stroke-width:1px;stroke-linecap:butt;stroke-linejoin:miter;stroke-opacity:1" d="M 216.323,613.123 251.13,613.123 z" id="boundary" inkscape:connector-curvature="0" />
	<path style="fill:none;stroke:red;stroke-width:1px;stroke-linecap:butt;stroke-linejoin:miter;stroke-opacity:1" d="M 230.246,466.933 265.053,466.933 z" id="boundary" inkscape:connector-curvature="0" />
	<path style="fill:none;stroke:red;stroke-width:1px;stroke-linecap:butt;stroke-linejoin:miter;stroke-opacity:1" d="M 230.246,693.179 265.053,693.179 z" id="boundary" inkscape:connector-curvature="0" />
	<path style="fill:none;stroke:red;stroke-width:1px;stroke-linecap:butt;stroke-linejoin:miter;stroke-opacity:1" d="M 233.726,581.796 268.533,581.796 z" id="boundary" inkscape:connector-curvature="0" />
	<path style="fill:none;stroke:red;stroke-width:1px;stroke-linecap:butt;stroke-linejoin:miter;stroke-opacity:1" d="M 240.688,884.618 275.495,870.695 z" id="boundary" inkscape:connector-curvature="0" />
	<path style="fill:none;stroke:red;stroke-width:1px;stroke-linecap:butt;stroke-linejoin:miter;stroke-opacity:1" d="M 247.649,4 282.456,4 z" id="boundary" inkscape:connector-curvature="0" />
	<path style="fill:none;stroke:red;stroke-width:1px;stroke-linecap:butt;stroke-linejoin:miter;stroke-opacity:1" d="M 247.649,724.505 282.456,724.505 z" id="boundary" inkscape:connector-curvature="0" />
	<path style="fill:none;stroke:red;stroke-width:1px;stroke-linecap:butt;stroke-linejoin:miter;stroke-opacity:1" d="M 247.649,797.6 282.456,797.6 z" id="boundary" inkscape:connector-curvature="0" />
	<path style="fill:none;stroke:red;stroke-width:1px;stroke-linecap:butt;stroke-linejoin:miter;stroke-opacity:1" d="M 251.13,613.123 285.937,613.123 z" id="boundary" inkscape:connector-curvature="0" />
	<path style="fill:none;stroke:red;stroke-width:1px;stroke-linecap:butt;stroke-linejoin:miter;stroke-opacity:1" d="M 265.053,466.933 299.86,466.933 z" id="boundary" inkscape:connector-curvature="0" />
	<path style="fill:none;stroke:red;stroke-width:1px;stroke-linecap:butt;stroke-linejoin:miter;stroke-opacity:1" d="M 265.053,693.179 299.86,693.179 z" id="boundary" inkscape:connector-curvature="0" />
	<path style="fill:none;stroke:red;stroke-width:1px;stroke-linecap:butt;stroke-linejoin:miter;stroke-opacity:1" d="M 268.533,581.796 303.34,581.796 z" id="boundary" inkscape:connector-curvature="0" />
	<path style="fill:none;stroke:red;stroke-width:1px;stroke-linecap:butt;stroke-linejoin:miter;stroke-opacity:1" d="M 275.495,870.695 310.302,870.695 z" id="boundary" inkscape:connector-curvature="0" />
	<path style="fill:none;stroke:red;stroke-width:1px;stroke-linecap:butt;stroke-linejoin:miter;stroke-opacity:1" d="M 282.456,4 317.263,4 z" id="boundary" inkscape:connector-curvature="0" />
	<path style="fill:none;stroke:red;stroke-width:1px;stroke-linecap:butt;stroke-linejoin:miter;stroke-opacity:1" d="M 282.456,724.505 317.263,724.505 z" id="boundary" inkscape:connector-curvature="0" />
	<path style="fill:none;stroke:red;stroke-width:1px;stroke-linecap:butt;stroke-linejoin:miter;stroke-opacity:1" d="M 282.456,797.6 317.263,797.6 z" id="boundary" inkscape:connector-curvature="0" />
	<path style="fill:none;stroke:red;stroke-width:1px;stroke-linecap:butt;stroke-linejoin:miter;stroke-opacity:1" d="M 285.937,613.123 320.744,613.123 z" id="boundary" inkscape:connector-curvature="0" />
	<path style="fill:none;stroke:red;stroke-width:1px;stroke-linecap:butt;stroke-linejoin:miter;stroke-opacity:1" d="M 299.86,466.933 334.667,466.933 z" id="boundary" inkscape:connector-curvature="0" />
	<path style="fill:none;stroke:red;stroke-width:1px;stroke-linecap:butt;stroke-linejoin:miter;stroke-opacity:1" d="M 299.86,693.179 334.667,693.179 z" id="boundary" inkscape:connector-curvature="0" />
	<path style="fill:none;stroke:red;stroke-width:1px;stroke-linecap:butt;stroke-linejoin:miter;stroke-opacity:1" d="M 303.34,581.796 338.147,581.796 z" id="boundary" inkscape:connector-curvature="0" />
	<path style="fill:none;stroke:red;stroke-width:1px;stroke-linecap:butt;stroke-linejoin:miter;stroke-opacity:1" d="M 310.302,870.695 345.109,870.695 z" id="boundary" inkscape:connector-curvature="0" />
	<path style="fill:none;stroke:red;stroke-width:1px;stroke-linecap:butt;stroke-linejoin:miter;stroke-opacity:1" d="M 317.263,4 352.07,4 z" id="boundary" inkscape:connector-curvature="0" />
	<path style="fill:none;stroke:red;stroke-width:1px;stroke-linecap:butt;stroke-linejoin:miter;stroke-opacity:1" d="M 317.263,724.505 352.07,724.505 z" id="boundary" inkscape:connector-curvature="0" />
	<path style="fill:none;stroke:red;stroke-width:1px;stroke-linecap:butt;stroke-linejoin:miter;stroke-opacity:1" d="M 317.263,797.6 352.07,797.6 z" id="boundary" inkscape:connector-curvature="0" />
	<path style="fill:none;stroke:red;stroke-width:1px;stroke-linecap:butt;stroke-linejoin:miter;stroke-opacity:1" d="M 320.744,613.123 355.551,613.123 z" id="boundary" inkscape:connector-curvature="0" />
	<path style="fill:none;stroke:red;stroke-width:1px;stroke-linecap:butt;stroke-linejoin:miter;stroke-opacity:1" d="M 334.667,466.933 369.474,466.933 z" id="boundary" inkscape:connector-curvature="0" />
	<path style="fill:none;stroke:red;stroke-width:1px;stroke-linecap:butt;stroke-linejoin:miter;stroke-opacity:1" d="M 334.667,693.179 369.474,693.179 z" id="boundary" inkscape:connector-curvature="0" />
	<path style="fill:none;stroke:red;stroke-width:1px;stroke-linecap:butt;stroke-linejoin:miter;stroke-opacity:1" d="M 338.147,581.796 372.954,581.796 z" id="boundary" inkscape:connector-curvature="0" />
	<path style="fill:none;stroke:red;stroke-width:1px;stroke-linecap:butt;stroke-linejoin:miter;stroke-opacity:1" d="M 345.109,870.695 379.916,870.695 z" id="boundary" inkscape:connector-curvature="0" />
	<path style="fill:none;stroke:red;stroke-width:1px;stroke-linecap:butt;stroke-linejoin:miter;stroke-opacity:1" d="M 352.07,4 386.877,4 z" id="boundary" inkscape:connector-curvature="0" />
	<path style="fill:none;stroke:red;stroke-width:1px;stroke-linecap:butt;stroke-linejoin:miter;stroke-opacity:1" d="M 352.07,724.505 386.877,724.505 z" id="boundary" inkscape:connector-curvature="0" />
	<path style="fill:none;stroke:red;stroke-width:1px;stroke-linecap:butt;stroke-linejoin:miter;stroke-opacity:1" d="M 352.07,797.6 386.877,797.6 z" id="boundary" inkscape:connector-curvature="0" />
	<path style="fill:none;stroke:red;stroke-width:1px;stroke-linecap:butt;stroke-linejoin:miter;stroke-opacity:1" d="M 355.551,613.123 390.358,613.123 z" id="boundary" inkscape:connector-curvature="0" />
	<path style="fill:none;stroke:red;stroke-width:1px;stroke-linecap:butt;stroke-linejoin:miter;stroke-opacity:1" d="M 369.474,466.933 404.281,466.933 z" id="boundary" inkscape:connector-curvature="0" />
	<path style="fill:none;stroke:red;stroke-width:1px;stroke-linecap:butt;stroke-linejoin:miter;stroke-opacity:1" d="M 369.474,693.179 404.281,693.179 z" id="boundary" inkscape:connector-curvature="0" />
	<path style="fill:none;stroke:red;stroke-width:1px;stroke-linecap:butt;stroke-linejoin:miter;stroke-opacity:1" d="M 372.954,581.796 407.761,581.796 z" id="boundary" inkscape:connector-curvature="0" />
	<path style="fill:none;stroke:red;stroke-width:1px;stroke-linecap:butt;stroke-linejoin:miter;stroke-opacity:1" d="M 379.916,870.695 414.723,870.695 z" id="boundary" inkscape:connector-curvature="0" />
	<path style="fill:none;stroke:red;stroke-width:1px;stroke-linecap:butt;stroke-linejoin:miter;stroke-opacity:1" d="M 386.877,4 421.684,4 z" id="boundary" inkscape:connector-curvature="0" />
	<path style="fill:none;stroke:red;stroke-width:1px;stroke-linecap:butt;stroke-linejoin:miter;stroke-opacity:1" d="M 386.877,724.505 421.684,724.505 z" id="boundary" inkscape:connector-curvature="0" />
	<path style="fill:none;stroke:red;stroke-width:1px;stroke-linecap:butt;stroke-linejoin:miter;stroke-opacity:1" d="M 386.877,797.6 421.684,797.6 z" id="boundary" inkscape:connector-curvature="0" />
	<path style="fill:none;stroke:red;stroke-width:1px;stroke-linecap:butt;stroke-linejoin:miter;stroke-opacity:1" d="M 390.358,613.123 425.165,613.123 z" id="boundary" inkscape:connector-curvature="0" />
	<path style="fill:none;stroke:red;stroke-width:1px;stroke-linecap:butt;stroke-linejoin:miter;stroke-opacity:1" d="M 404.281,466.933 439.088,466.933 z" id="boundary" inkscape:connector-curvature="0" />
	<path style="fill:none;stroke:red;stroke-width:1px;stroke-linecap:butt;stroke-linejoin:miter;stroke-opacity:1" d="M 404.281,693.179 439.088,693.179 z" id="boundary" inkscape:connector-curvature="0" />
	<path style="fill:none;stroke:red;stroke-width:1px;stroke-linecap:butt;stroke-linejoin:miter;stroke-opacity:1" d="M 407.761,581.796 442.568,581.796 z" id="boundary" inkscape:connector-curvature="0" />
	<path style="fill:none;stroke:red;stroke-width:1px;stroke-linecap:butt;stroke-linejoin:miter;stroke-opacity:1" d="M 414.723,870.695 449.53,870.695 z" id="boundary" inkscape:connector-curvature="0" />
	<path style="fill:none;stroke:red;stroke-width:1px;stroke-linecap:butt;stroke-linejoin:miter;stroke-opacity:1" d="M 421.684,4 456.491,4 z" id="boundary" inkscape:connector-curvature="0" />
	<path style="fill:none;stroke:red;stroke-width:1px;stroke-linecap:butt;stroke-linejoin:miter;stroke-opacity:1" d="M 421.684,724.505 456.491,727.986 z" id="boundary" inkscape:connector-curvature="0" />
	<path style="fill:none;stroke:red;stroke-width:1px;stroke-linecap:butt;stroke-linejoin:miter;stroke-opacity:1" d="M 421.684,797.6 456.491,762.793 z" id="boundary" inkscape:connector-curvature="0" />
	<path style="fill:none;stroke:red;stroke-width:1px;stroke-linecap:butt;stroke-linejoin:miter;stroke-opacity:1" d="M 425.165,613.123 442.568,581.796 z" id="boundary" inkscape:connector-curvature="0" />
	<path style="fill:none;stroke:red;stroke-width:1px;stroke-linecap:butt;stroke-linejoin:miter;stroke-opacity:1" d="M 439.088,466.933 456.491,498.26 z" id="boundary" inkscape:connector-curvature="0" />
	<path style="fill:none;stroke:red;stroke-width:1px;stroke-linecap:butt;stroke-linejoin:miter;stroke-opacity:1" d="M 439.088,693.179 456.491,630.526 z" id="boundary" inkscape:connector-curvature="0" />
	<path style="fill:none;stroke:red;stroke-width:1px;stroke-linecap:butt;stroke-linejoin:miter;stroke-opacity:1" d="M 449.53,870.695 484.337,870.695 z" id="boundary" inkscape:connector-curvature="0" />
	<path style="fill:none;stroke:red;stroke-width:1px;stroke-linecap:butt;stroke-linejoin:miter;stroke-opacity:1" d="M 456.491,4 491.298,4 z" id="boundary" inkscape:connector-curvature="0" />
	<path style="fill:none;stroke:red;stroke-width:1px;stroke-linecap:butt;stroke-linejoin:miter;stroke-opacity:1" d="M 456.491,498.26 456.491,533.067 z" id="boundary" inkscape:connector-curvature="0" />
	<path style="fill:none;stroke:red;stroke-width:1px;stroke-linecap:butt;stroke-linejoin:miter;stroke-opacity:1" d="M 456.491,533.067 456.491,630.526 z" id="boundary" inkscape:connector-curvature="0" />
	<path style="fill:none;stroke:red;stroke-width:1px;stroke-linecap:butt;stroke-linejoin:miter;stroke-opacity:1" d="M 456.491,727.986 456.491,762.793 z" id="boundary" inkscape:connector-curvature="0" />
	<path style="fill:none;stroke:red;stroke-width:1px;stroke-linecap:butt;stroke-linejoin:miter;stroke-opacity:1" d="M 484.337,870.695 519.144,870.695 z" id="boundary" inkscape:connector-curvature="0" />
	<path style="fill:none;stroke:red;stroke-width:1px;stroke-linecap:butt;stroke-linejoin:miter;stroke-opacity:1" d="M 491.298,4 526.105,4 z" id="boundary" inkscape:connector-curvature="0" />
	<path style="fill:none;stroke:red;stroke-width:1px;stroke-linecap:butt;stroke-linejoin:miter;stroke-opacity:1" d="M 519.144,870.695 553.951,870.695 z" id="boundary" inkscape:connector-curvature="0" />
	<path style="fill:none;stroke:red;stroke-width:1px;stroke-linecap:butt;stroke-linejoin:miter;stroke-opacity:1" d="M 526.105,4 560.912,4 z" id="boundary" inkscape:connector-curvature="0" />
	<path style="fill:none;stroke:red;stroke-width:1px;stroke-linecap:butt;stroke-linejoin:miter;stroke-opacity:1" d="M 553.951,870.695 588.758,870.695 z" id="boundary" inkscape:connector-curvature="0" />
	<path style="fill:none;stroke:red;stroke-width:1px;stroke-linecap:butt;stroke-linejoin:miter;stroke-opacity:1" d="M 560.912,4 595.719,4 z" id="boundary" inkscape:connector-curvature="0" />
	<path style="fill:none;stroke:red;stroke-width:1px;stroke-linecap:butt;stroke-linejoin:miter;stroke-opacity:1" d="M 588.758,870.695 623.565,870.695 z" id="boundary" inkscape:connector-curvature="0" />
	<path style="fill:none;stroke:red;stroke-width:1px;stroke-linecap:butt;stroke-linejoin:miter;stroke-opacity:1" d="M 595.719,4 630.526,4 z" id="boundary" inkscape:connector-curvature="0" />
	<path style="fill:none;stroke:red;stroke-width:1px;stroke-linecap:butt;stroke-linejoin:miter;stroke-opacity:1" d="M 623.565,870.695 658.372,870.695 z" id="boundary" inkscape:connector-curvature="0" />
	<path style="fill:none;stroke:red;stroke-width:1px;stroke-linecap:butt;stroke-linejoin:miter;stroke-opacity:1" d="M 630.526,4 665.333,4 z" id="boundary" inkscape:connector-curvature="0" />
	<path style="fill:none;stroke:red;stroke-width:1px;stroke-linecap:butt;stroke-linejoin:miter;stroke-opacity:1" d="M 647.93,470.414 647.93,505.221 z" id="boundary" inkscape:connector-curvature="0" />
	<path style="fill:none;stroke:red;stroke-width:1px;stroke-linecap:butt;stroke-linejoin:miter;stroke-opacity:1" d="M 647.93,470.414 682.737,466.933 z" id="boundary" inkscape:connector-curvature="0" />
	<path style="fill:none;stroke:red;stroke-width:1px;stroke-linecap:butt;stroke-linejoin:miter;stroke-opacity:1" d="M 647.93,505.221 647.93,540.028 z" id="boundary" inkscape:connector-curvature="0" />
	<path style="fill:none;stroke:red;stroke-width:1px;stroke-linecap:butt;stroke-linejoin:miter;stroke-opacity:1" d="M 647.93,540.028 647.93,574.835 z" id="boundary" inkscape:connector-curvature="0" />
	<path style="fill:none;stroke:red;stroke-width:1px;stroke-linecap:butt;stroke-linejoin:miter;stroke-opacity:1" d="M 647.93,574.835 682.737,581.796 z" id="boundary" inkscape:connector-curvature="0" />
	<path style="fill:none;stroke:red;stroke-width:1px;stroke-linecap:butt;stroke-linejoin:miter;stroke-opacity:1" d="M 647.93,616.604 647.93,651.411 z" id="boundary" inkscape:connector-curvature="0" />
	<path style="fill:none;stroke:red;stroke-width:1px;stroke-linecap:butt;stroke-linejoin:miter;stroke-opacity:1" d="M 647.93,616.604 700.14,613.123 z" id="boundary" inkscape:connector-curvature="0" />
	<path style="fill:none;stroke:red;stroke-width:1px;stroke-linecap:butt;stroke-linejoin:miter;stroke-opacity:1" d="M 647.93,651.411 647.93,686.218 z" id="boundary" inkscape:connector-curvature="0" />
	<path style="fill:none;stroke:red;stroke-width:1px;stroke-linecap:butt;stroke-linejoin:miter;stroke-opacity:1" d="M 647.93,686.218 682.737,693.179 z" id="boundary" inkscape:connector-curvature="0" />
	<path style="fill:none;stroke:red;stroke-width:1px;stroke-linecap:butt;stroke-linejoin:miter;stroke-opacity:1" d="M 647.93,727.986 647.93,762.793 z" id="boundary" inkscape:connector-curvature="0" />
	<path style="fill:none;stroke:red;stroke-width:1px;stroke-linecap:butt;stroke-linejoin:miter;stroke-opacity:1" d="M 647.93,727.986 700.14,724.505 z" id="boundary" inkscape:connector-curvature="0" />
	<path style="fill:none;stroke:red;stroke-width:1px;stroke-linecap:butt;stroke-linejoin:miter;stroke-opacity:1" d="M 647.93,762.793 651.411,797.6 z" id="boundary" inkscape:connector-curvature="0" />
	<path style="fill:none;stroke:red;stroke-width:1px;stroke-linecap:butt;stroke-linejoin:miter;stroke-opacity:1" d="M 651.411,797.6 686.218,797.6 z" id="boundary" inkscape:connector-curvature="0" />
	<path style="fill:none;stroke:red;stroke-width:1px;stroke-linecap:butt;stroke-linejoin:miter;stroke-opacity:1" d="M 658.372,870.695 693.179,870.695 z" id="boundary" inkscape:connector-curvature="0" />
	<path style="fill:none;stroke:red;stroke-width:1px;stroke-linecap:butt;stroke-linejoin:miter;stroke-opacity:1" d="M 665.333,4 700.14,4 z" id="boundary" inkscape:connector-curvature="0" />
	<path style="fill:none;stroke:red;stroke-width:1px;stroke-linecap:butt;stroke-linejoin:miter;stroke-opacity:1" d="M 682.737,466.933 717.544,466.933 z" id="boundary" inkscape:connector-curvature="0" />
	<path style="fill:none;stroke:red;stroke-width:1px;stroke-linecap:butt;stroke-linejoin:miter;stroke-opacity:1" d="M 682.737,581.796 717.544,581.796 z" id="boundary" inkscape:connector-curvature="0" />
	<path style="fill:none;stroke:red;stroke-width:1px;stroke-linecap:butt;stroke-linejoin:miter;stroke-opacity:1" d="M 682.737,693.179 717.544,693.179 z" id="boundary" inkscape:connector-curvature="0" />
	<path style="fill:none;stroke:red;stroke-width:1px;stroke-linecap:butt;stroke-linejoin:miter;stroke-opacity:1" d="M 686.218,797.6 721.025,797.6 z" id="boundary" inkscape:connector-curvature="0" />
	<path style="fill:none;stroke:red;stroke-width:1px;stroke-linecap:butt;stroke-linejoin:miter;stroke-opacity:1" d="M 693.179,870.695 727.986,870.695 z" id="boundary" inkscape:connector-curvature="0" />
	<path style="fill:none;stroke:red;stroke-width:1px;stroke-linecap:butt;stroke-linejoin:miter;stroke-opacity:1" d="M 700.14,4 734.947,4 z" id="boundary" inkscape:connector-curvature="0" />
	<path style="fill:none;stroke:red;stroke-width:1px;stroke-linecap:butt;stroke-linejoin:miter;stroke-opacity:1" d="M 700.14,613.123 734.947,613.123 z" id="boundary" inkscape:connector-curvature="0" />
	<path style="fill:none;stroke:red;stroke-width:1px;stroke-linecap:butt;stroke-linejoin:miter;stroke-opacity:1" d="M 700.14,724.505 734.947,724.505 z" id="boundary" inkscape:connector-curvature="0" />
	<path style="fill:none;stroke:red;stroke-width:1px;stroke-linecap:butt;stroke-linejoin:miter;stroke-opacity:1" d="M 717.544,466.933 752.351,466.933 z" id="boundary" inkscape:connector-curvature="0" />
	<path style="fill:none;stroke:red;stroke-width:1px;stroke-linecap:butt;stroke-linejoin:miter;stroke-opacity:1" d="M 717.544,581.796 752.351,581.796 z" id="boundary" inkscape:connector-curvature="0" />
	<path style="fill:none;stroke:red;stroke-width:1px;stroke-linecap:butt;stroke-linejoin:miter;stroke-opacity:1" d="M 717.544,693.179 752.351,693.179 z" id="boundary" inkscape:connector-curvature="0" />
	<path style="fill:none;stroke:red;stroke-width:1px;stroke-linecap:butt;stroke-linejoin:miter;stroke-opacity:1" d="M 721.025,797.6 755.832,797.6 z" id="boundary" inkscape:connector-curvature="0" />
	<path style="fill:none;stroke:red;stroke-width:1px;stroke-linecap:butt;stroke-linejoin:miter;stroke-opacity:1" d="M 727.986,870.695 762.793,874.175 z" id="boundary" inkscape:connector-curvature="0" />
	<path style="fill:none;stroke:red;stroke-width:1px;stroke-linecap:butt;stroke-linejoin:miter;stroke-opacity:1" d="M 734.947,4 769.754,4 z" id="boundary" inkscape:connector-curvature="0" />
	<path style="fill:none;stroke:red;stroke-width:1px;stroke-linecap:butt;stroke-linejoin:miter;stroke-opacity:1" d="M 734.947,613.123 769.754,613.123 z" id="boundary" inkscape:connector-curvature="0" />
	<path style="fill:none;stroke:red;stroke-width:1px;stroke-linecap:butt;stroke-linejoin:miter;stroke-opacity:1" d="M 734.947,724.505 769.754,724.505 z" id="boundary" inkscape:connector-curvature="0" />
	<path style="fill:none;stroke:red;stroke-width:1px;stroke-linecap:butt;stroke-linejoin:miter;stroke-opacity:1" d="M 752.351,466.933 787.158,466.933 z" id="boundary" inkscape:connector-curvature="0" />
	<path style="fill:none;stroke:red;stroke-width:1px;stroke-linecap:butt;stroke-linejoin:miter;stroke-opacity:1" d="M 752.351,581.796 787.158,581.796 z" id="boundary" inkscape:connector-curvature="0" />
	<path style="fill:none;stroke:red;stroke-width:1px;stroke-linecap:butt;stroke-linejoin:miter;stroke-opacity:1" d="M 752.351,693.179 787.158,693.179 z" id="boundary" inkscape:connector-curvature="0" />
	<path style="fill:none;stroke:red;stroke-width:1px;stroke-linecap:butt;stroke-linejoin:miter;stroke-opacity:1" d="M 755.832,797.6 790.639,797.6 z" id="boundary" inkscape:connector-curvature="0" />
	<path style="fill:none;stroke:red;stroke-width:1px;stroke-linecap:butt;stroke-linejoin:miter;stroke-opacity:1" d="M 762.793,874.175 797.6,870.695 z" id="boundary" inkscape:connector-curvature="0" />
	<path style="fill:none;stroke:red;stroke-width:1px;stroke-linecap:butt;stroke-linejoin:miter;stroke-opacity:1" d="M 769.754,4 804.561,4 z" id="boundary" inkscape:connector-curvature="0" />
	<path style="fill:none;stroke:red;stroke-width:1px;stroke-linecap:butt;stroke-linejoin:miter;stroke-opacity:1" d="M 769.754,613.123 804.561,613.123 z" id="boundary" inkscape:connector-curvature="0" />
	<path style="fill:none;stroke:red;stroke-width:1px;stroke-linecap:butt;stroke-linejoin:miter;stroke-opacity:1" d="M 769.754,724.505 804.561,724.505 z" id="boundary" inkscape:connector-curvature="0" />
	<path style="fill:none;stroke:red;stroke-width:1px;stroke-linecap:butt;stroke-linejoin:miter;stroke-opacity:1" d="M 787.158,466.933 821.965,466.933 z" id="boundary" inkscape:connector-curvature="0" />
	<path style="fill:none;stroke:red;stroke-width:1px;stroke-linecap:butt;stroke-linejoin:miter;stroke-opacity:1" d="M 787.158,581.796 821.965,581.796 z" id="boundary" inkscape:connector-curvature="0" />
	<path style="fill:none;stroke:red;stroke-width:1px;stroke-linecap:butt;stroke-linejoin:miter;stroke-opacity:1" d="M 787.158,693.179 821.965,693.179 z" id="boundary" inkscape:connector-curvature="0" />
	<path style="fill:none;stroke:red;stroke-width:1px;stroke-linecap:butt;stroke-linejoin:miter;stroke-opacity:1" d="M 790.639,797.6 825.446,797.6 z" id="boundary" inkscape:connector-curvature="0" />
	<path style="fill:none;stroke:red;stroke-width:1px;stroke-linecap:butt;stroke-linejoin:miter;stroke-opacity:1" d="M 797.6,870.695 832.407,870.695 z" id="boundary" inkscape:connector-curvature="0" />
	<path style="fill:none;stroke:red;stroke-width:1px;stroke-linecap:butt;stroke-linejoin:miter;stroke-opacity:1" d="M 804.561,4 835.888,21.4035 z" id="boundary" inkscape:connector-curvature="0" />
	<path style="fill:none;stroke:red;stroke-width:1px;stroke-linecap:butt;stroke-linejoin:miter;stroke-opacity:1" d="M 804.561,613.123 839.368,613.123 z" id="boundary" inkscape:connector-curvature="0" />
	<path style="fill:none;stroke:red;stroke-width:1px;stroke-linecap:butt;stroke-linejoin:miter;stroke-opacity:1" d="M 804.561,724.505 839.368,724.505 z" id="boundary" inkscape:connector-curvature="0" />
	<path style="fill:none;stroke:red;stroke-width:1px;stroke-linecap:butt;stroke-linejoin:miter;stroke-opacity:1" d="M 821.965,466.933 835.888,404.281 z" id="boundary" inkscape:connector-curvature="0" />
	<path style="fill:none;stroke:red;stroke-width:1px;stroke-linecap:butt;stroke-linejoin:miter;stroke-opacity:1" d="M 821.965,581.796 856.772,581.796 z" id="boundary" inkscape:connector-curvature="0" />
	<path style="fill:none;stroke:red;stroke-width:1px;stroke-linecap:butt;stroke-linejoin:miter;stroke-opacity:1" d="M 821.965,693.179 856.772,693.179 z" id="boundary" inkscape:connector-curvature="0" />
	<path style="fill:none;stroke:red;stroke-width:1px;stroke-linecap:butt;stroke-linejoin:miter;stroke-opacity:1" d="M 825.446,797.6 860.253,797.6 z" id="boundary" inkscape:connector-curvature="0" />
	<path style="fill:none;stroke:red;stroke-width:1px;stroke-linecap:butt;stroke-linejoin:miter;stroke-opacity:1" d="M 832.407,870.695 867.214,870.695 z" id="boundary" inkscape:connector-curvature="0" />
	<path style="fill:none;stroke:red;stroke-width:1px;stroke-linecap:butt;stroke-linejoin:miter;stroke-opacity:1" d="M 835.888,21.4035 835.888,56.2105 z" id="boundary" inkscape:connector-curvature="0" />
	<path style="fill:none;stroke:red;stroke-width:1px;stroke-linecap:butt;stroke-linejoin:miter;stroke-opacity:1" d="M 835.888,56.2105 835.888,91.0175 z" id="boundary" inkscape:connector-curvature="0" />
	<path style="fill:none;stroke:red;stroke-width:1px;stroke-linecap:butt;stroke-linejoin:miter;stroke-opacity:1" d="M 835.888,91.0175 835.888,125.825 z" id="boundary" inkscape:connector-curvature="0" />
	<path style="fill:none;stroke:red;stroke-width:1px;stroke-linecap:butt;stroke-linejoin:miter;stroke-opacity:1" d="M 835.888,125.825 835.888,160.632 z" id="boundary" inkscape:connector-curvature="0" />
	<path style="fill:none;stroke:red;stroke-width:1px;stroke-linecap:butt;stroke-linejoin:miter;stroke-opacity:1" d="M 835.888,160.632 835.888,195.439 z" id="boundary" inkscape:connector-curvature="0" />
	<path style="fill:none;stroke:red;stroke-width:1px;stroke-linecap:butt;stroke-linejoin:miter;stroke-opacity:1" d="M 835.888,195.439 835.888,230.246 z" id="boundary" inkscape:connector-curvature="0" />
	<path style="fill:none;stroke:red;stroke-width:1px;stroke-linecap:butt;stroke-linejoin:miter;stroke-opacity:1" d="M 835.888,230.246 835.888,265.053 z" id="boundary" inkscape:connector-curvature="0" />
	<path style="fill:none;stroke:red;stroke-width:1px;stroke-linecap:butt;stroke-linejoin:miter;stroke-opacity:1" d="M 835.888,265.053 835.888,299.86 z" id="boundary" inkscape:connector-curvature="0" />
	<path style="fill:none;stroke:red;stroke-width:1px;stroke-linecap:butt;stroke-linejoin:miter;stroke-opacity:1" d="M 835.888,299.86 835.888,334.667 z" id="boundary" inkscape:connector-curvature="0" />
	<path style="fill:none;stroke:red;stroke-width:1px;stroke-linecap:butt;stroke-linejoin:miter;stroke-opacity:1" d="M 835.888,334.667 835.888,369.474 z" id="boundary" inkscape:connector-curvature="0" />
	<path style="fill:none;stroke:red;stroke-width:1px;stroke-linecap:butt;stroke-linejoin:miter;stroke-opacity:1" d="M 835.888,369.474 835.888,404.281 z" id="boundary" inkscape:connector-curvature="0" />
	<path style="fill:none;stroke:red;stroke-width:1px;stroke-linecap:butt;stroke-linejoin:miter;stroke-opacity:1" d="M 839.368,613.123 874.175,613.123 z" id="boundary" inkscape:connector-curvature="0" />
	<path style="fill:none;stroke:red;stroke-width:1px;stroke-linecap:butt;stroke-linejoin:miter;stroke-opacity:1" d="M 839.368,724.505 884.618,714.063 z" id="boundary" inkscape:connector-curvature="0" />
	<path style="fill:none;stroke:red;stroke-width:1px;stroke-linecap:butt;stroke-linejoin:miter;stroke-opacity:1" d="M 856.772,581.796 874.175,613.123 z" id="boundary" inkscape:connector-curvature="0" />
	<path style="fill:none;stroke:red;stroke-width:1px;stroke-linecap:butt;stroke-linejoin:miter;stroke-opacity:1" d="M 856.772,693.179 884.618,714.063 z" id="boundary" inkscape:connector-curvature="0" />
	<path style="fill:none;stroke:red;stroke-width:1px;stroke-linecap:butt;stroke-linejoin:miter;stroke-opacity:1" d="M 860.253,797.6 895.06,797.6 z" id="boundary" inkscape:connector-curvature="0" />
	<path style="fill:none;stroke:red;stroke-width:1px;stroke-linecap:butt;stroke-linejoin:miter;stroke-opacity:1" d="M 867.214,870.695 902.021,870.695 z" id="boundary" inkscape:connector-curvature="0" />
	<path style="fill:none;stroke:red;stroke-width:1px;stroke-linecap:butt;stroke-linejoin:miter;stroke-opacity:1" d="M 895.06,797.6 929.867,797.6 z" id="boundary" inkscape:connector-curvature="0" />
	<path style="fill:none;stroke:red;stroke-width:1px;stroke-linecap:butt;stroke-linejoin:miter;stroke-opacity:1" d="M 902.021,870.695 936.828,870.695 z" id="boundary" inkscape:connector-curvature="0" />
	<path style="fill:none;stroke:red;stroke-width:1px;stroke-linecap:butt;stroke-linejoin:miter;stroke-opacity:1" d="M 929.867,797.6 964.674,797.6 z" id="boundary" inkscape:connector-curvature="0" />
	<path style="fill:none;stroke:red;stroke-width:1px;stroke-linecap:butt;stroke-linejoin:miter;stroke-opacity:1" d="M 936.828,870.695 971.635,870.695 z" id="boundary" inkscape:connector-curvature="0" />
	<path style="fill:none;stroke:red;stroke-width:1px;stroke-linecap:butt;stroke-linejoin:miter;stroke-opacity:1" d="M 964.674,797.6 996,815.004 z" id="boundary" inkscape:connector-curvature="0" />
	<path style="fill:none;stroke:red;stroke-width:1px;stroke-linecap:butt;stroke-linejoin:miter;stroke-opacity:1" d="M 971.635,870.695 996,815.004 z" id="boundary" inkscape:connector-curvature="0" />
	<circle cx="4" cy="811.523" r="4" fill="#0" id="circle0"/>
	<circle cx="4" cy="846.33" r="4" fill="#0" id="circle1"/>
	<circle cx="31.8456" cy="870.695" r="4" fill="#0" id="circle2"/>
	<circle cx="38.807" cy="797.6" r="4" fill="#0" id="circle3"/>
	<circle cx="45.7684" cy="595.719" r="4" fill="#0" id="circle4"/>
	<circle cx="45.7684" cy="700.14" r="4" fill="#0" id="circle5"/>
	<circle cx="66.6526" cy="884.618" r="4" fill="#0" id="circle6"/>
	<circle cx="73.614" cy="724.505" r="4" fill="#0" id="circle7"/>
	<circle cx="73.614" cy="797.6" r="4" fill="#0" id="circle8"/>
	<circle cx="77.0947" cy="613.123" r="4" fill="#0" id="circle9"/>
	<circle cx="91.0175" cy="693.179" r="4" fill="#0" id="circle10"/>
	<circle cx="94.4982" cy="581.796" r="4" fill="#0" id="circle11"/>
	<circle cx="101.46" cy="870.695" r="4" fill="#0" id="circle12"/>
	<circle cx="108.421" cy="724.505" r="4" fill="#0" id="circle13"/>
	<circle cx="108.421" cy="797.6" r="4" fill="#0" id="circle14"/>
	<circle cx="111.902" cy="613.123" r="4" fill="#0" id="circle15"/>
	<circle cx="125.825" cy="693.179" r="4" fill="#0" id="circle16"/>
	<circle cx="129.305" cy="581.796" r="4" fill="#0" id="circle17"/>
	<circle cx="136.267" cy="870.695" r="4" fill="#0" id="circle18"/>
	<circle cx="143.228" cy="724.505" r="4" fill="#0" id="circle19"/>
	<circle cx="143.228" cy="797.6" r="4" fill="#0" id="circle20"/>
	<circle cx="146.709" cy="613.123" r="4" fill="#0" id="circle21"/>
	<circle cx="160.632" cy="693.179" r="4" fill="#0" id="circle22"/>
	<circle cx="164.112" cy="581.796" r="4" fill="#0" id="circle23"/>
	<circle cx="171.074" cy="870.695" r="4" fill="#0" id="circle24"/>
	<circle cx="178.035" cy="17.9228" r="4" fill="#0" id="circle25"/>
	<circle cx="178.035" cy="52.7298" r="4" fill="#0" id="circle26"/>
	<circle cx="178.035" cy="87.5368" r="4" fill="#0" id="circle27"/>
	<circle cx="178.035" cy="122.344" r="4" fill="#0" id="circle28"/>
	<circle cx="178.035" cy="157.151" r="4" fill="#0" id="circle29"/>
	<circle cx="178.035" cy="191.958" r="4" fill="#0" id="circle30"/>
	<circle cx="178.035" cy="226.765" r="4" fill="#0" id="circle31"/>
	<circle cx="178.035" cy="261.572" r="4" fill="#0" id="circle32"/>
	<circle cx="178.035" cy="296.379" r="4" fill="#0" id="circle33"/>
	<circle cx="178.035" cy="331.186" r="4" fill="#0" id="circle34"/>
	<circle cx="178.035" cy="365.993" r="4" fill="#0" id="circle35"/>
	<circle cx="178.035" cy="400.8" r="4" fill="#0" id="circle36"/>
	<circle cx="178.035" cy="435.607" r="4" fill="#0" id="circle37"/>
	<circle cx="178.035" cy="724.505" r="4" fill="#0" id="circle38"/>
	<circle cx="178.035" cy="797.6" r="4" fill="#0" id="circle39"/>
	<circle cx="181.516" cy="613.123" r="4" fill="#0" id="circle40"/>
	<circle cx="195.439" cy="466.933" r="4" fill="#0" id="circle41"/>
	<circle cx="195.439" cy="693.179" r="4" fill="#0" id="circle42"/>
	<circle cx="198.919" cy="581.796" r="4" fill="#0" id="circle43"/>
	<circle cx="205.881" cy="870.695" r="4" fill="#0" id="circle44"/>
	<circle cx="212.842" cy="4" r="4" fill="#0" id="circle45"/>
	<circle cx="212.842" cy="724.505" r="4" fill="#0" id="circle46"/>
	<circle cx="212.842" cy="797.6" r="4" fill="#0" id="circle47"/>
	<circle cx="216.323" cy="613.123" r="4" fill="#0" id="circle48"/>
	<circle cx="230.246" cy="466.933" r="4" fill="#0" id="circle49"/>
	<circle cx="230.246" cy="693.179" r="4" fill="#0" id="circle50"/>
	<circle cx="233.726" cy="581.796" r="4" fill="#0" id="circle51"/>
	<circle cx="240.688" cy="884.618" r="4" fill="#0" id="circle52"/>
	<circle cx="247.649" cy="4" r="4" fill="#0" id="circle53"/>
	<circle cx="247.649" cy="724.505" r="4" fill="#0" id="circle54"/>
	<circle cx="247.649" cy="797.6" r="4" fill="#0" id="circle55"/>
	<circle cx="251.13" cy="613.123" r="4" fill="#0" id="circle56"/>
	<circle cx="265.053" cy="466.933" r="4" fill="#0" id="circle57"/>
	<circle cx="265.053" cy="693.179" r="4" fill="#0" id="circle58"/>
	<circle cx="268.533" cy="581.796" r="4" fill="#0" id="circle59"/>
	<circle cx="275.495" cy="870.695" r="4" fill="#0" id="circle60"/>
	<circle cx="282.456" cy="4" r="4" fill="#0" id="circle61"/>
	<circle cx="282.456" cy="724.505" r="4" fill="#0" id="circle62"/>
	<circle cx="282.456" cy="797.6" r="4" fill="#0" id="circle63"/>
	<circle cx="285.937" cy="613.123" r="4" fill="#0" id="circle64"/>
	<circle cx="299.86" cy="466.933" r="4" fill="#0" id="circle65"/>
	<circle cx="299.86" cy="693.179" r="4" fill="#0" id="circle66"/>
	<circle cx="303.34" cy="581.796" r="4" fill="#0" id="circle67"/>
	<circle cx="310.302" cy="870.695" r="4" fill="#0" id="circle68"/>
	<circle cx="317.263" cy="4" r="4" fill="#0" id="circle69"/>
	<circle cx="317.263" cy="724.505" r="4" fill="#0" id="circle70"/>
	<circle cx="317.263" cy="797.6" r="4" fill="#0" id="circle71"/>
	<circle cx="320.744" cy="613.123" r="4" fill="#0" id="circle72"/>
	<circle cx="334.667" cy="466.933" r="4" fill="#0" id="circle73"/>
	<circle cx="334.667" cy="693.179" r="4" fill="#0" id="circle74"/>
	<circle cx="338.147" cy="581.796" r="4" fill="#0" id="circle75"/>
	<circle cx="345.109" cy="870.695" r="4" fill="#0" id="circle76"/>
	<circle cx="352.07" cy="4" r="4" fill="#0" id="circle77"/>
	<circle cx="352.07" cy="724.505" r="4" fill="#0" id="circle78"/>
	<circle cx="352.07" cy="797.6" r="4" fill="#0" id="circle79"/>
	<circle cx="355.551" cy="613.123" r="4" fill="#0" id="circle80"/>
	<circle cx="369.474" cy="466.933" r="4" fill="#0" id="circle81"/>
	<circle cx="369.474" cy="693.179" r="4" fill="#0" id="circle82"/>
	<circle cx="372.954" cy="581.796" r="4" fill="#0" id="circle83"/>
	<circle cx="379.916" cy="870.695" r="4" fill="#0" id="circle84"/>
	<circle cx="386.877" cy="4" r="4" fill="#0" id="circle85"/>
	<circle cx="386.877" cy="724.505" r="4" fill="#0" id="circle86"/>
	<circle cx="386.877" cy="797.6" r="4" fill="#0" id="circle87"/>
	<circle cx="390.358" cy="613.123" r="4" fill="#0" id="circle88"/>
	<circle cx="404.281" cy="466.933" r="4" fill="#0" id="circle89"/>
	<circle cx="404.281" cy="693.179" r="4" fill="#0" id="circle90"/>
	<circle cx="407.761" cy="581.796" r="4" fill="#0" id="circle91"/>
	<circle cx="414.723" cy="870.695" r="4" fill="#0" id="circle92"/>
	<circle cx="421.684" cy="4" r="4" fill="#0" id="circle93"/>
	<circle cx="421.684" cy="724.505" r="4" fill="#0" id="circle94"/>
	<circle cx="421.684" cy="797.6" r="4" fill="#0" id="circle95"/>
	<circle cx="425.165" cy="613.123" r="4" fill="#0" id="circle96"/>
	<circle cx="439.088" cy="466.933" r="4" fill="#0" id="circle97"/>
	<circle cx="439.088" cy="693.179" r="4" fill="#0" id="circle98"/>
	<circle cx="442.568" cy="581.796" r="4" fill="#0" id="circle99"/>
	<circle cx="449.53" cy="870.695" r="4" fill="#0" id="circle100"/>
	<circle cx="456.491" cy="4" r="4" fill="#0" id="circle101"/>
	<circle cx="456.491" cy="498.26" r="4" fill="#0" id="circle102"/>
	<circle cx="456.491" cy="533.067" r="4" fill="#0" id="circle103"/>
	<circle cx="456.491" cy="630.526" r="4" fill="#0" id="circle104"/>
	<circle cx="456.491" cy="727.986" r="4" fill="#0" id="circle105"/>
	<circle cx="456.491" cy="762.793" r="4" fill="#0" id="circle106"/>
	<circle cx="484.337" cy="870.695" r="4" fill="#0" id="circle107"/>
	<circle cx="491.298" cy="4" r="4" fill="#0" id="circle108"/>
	<circle cx="519.144" cy="870.695" r="4" fill="#0" id="circle109"/>
	<circle cx="526.105" cy="4" r="4" fill="#0" id="circle110"/>
	<circle cx="553.951" cy="870.695" r="4" fill="#0" id="circle111"/>
	<circle cx="560.912" cy="4" r="4" fill="#0" id="circle112"/>
	<circle cx="588.758" cy="870.695" r="4" fill="#0" id="circle113"/>
	<circle cx="595.719" cy="4" r="4" fill="#0" id="circle114"/>
	<circle cx="623.565" cy="870.695" r="4" fill="#0" id="circle115"/>
	<circle cx="630.526" cy="4" r="4" fill="#0" id="circle116"/>
	<circle cx="647.93" cy="470.414" r="4" fill="#0" id="circle117"/>
	<circle cx="647.93" cy="505.221" r="4" fill="#0" id="circle118"/>
	<circle cx="647.93" cy="540.028" r="4" fill="#0" id="circle119"/>
	<circle cx="647.93" cy="574.835" r="4" fill="#0" id="circle120"/>
	<circle cx="647.93" cy="616.604" r="4" fill="#0" id="circle121"/>
	<circle cx="647.93" cy="651.411" r="4" fill="#0" id="circle122"/>
	<circle cx="647.93" cy="686.218" r="4" fill="#0" id="circle123"/>
	<circle cx="647.93" cy="727.986" r="4" fill="#0" id="circle124"/>
	<circle cx="647.93" cy="762.793" r="4" fill="#0" id="circle125"/>
	<circle cx="651.411" cy="797.6" r="4" fill="#0" id="circle126"/>
	<circle cx="658.372" cy="870.695" r="4" fill="#0" id="circle127"/>
	<circle cx="665.333" cy="4" r="4" fill="#0" id="circle128"/>
	<circle cx="682.737" cy="466.933" r="4" fill="#0" id="circle129"/>
	<circle cx="682.737" cy="581.796" r="4" fill="#0" id="circle130"/>
	<circle cx="682.737" cy="693.179" r="4" fill="#0" id="circle131"/>
	<circle cx="686.218" cy="797.6" r="4" fill="#0" id="circle132"/>
	<circle cx="693.179" cy="870.695" r="4" fill="#0" id="circle133"/>
	<circle cx="700.14" cy="4" r="4" fill="#0" id="circle134"/>
	<circle cx="700.14" cy="613.123" r="4" fill="#0" id="circle135"/>
	<circle cx="700.14" cy="724.505" r="4" fill="#0" id="circle136"/>
	<circle cx="717.544" cy="466.933" r="4" fill="#0" id="circle137"/>
	<circle cx="717.544" cy="581.796" r="4" fill="#0" id="circle138"/>
	<circle cx="717.544" cy="693.179" r="4" fill="#0" id="circle139"/>
	<circle cx="721.025" cy="797.6" r="4" fill="#0" id="circle140"/>
	<circle cx="727.986" cy="870.695" r="4" fill="#0" id="circle141"/>
	<circle cx="734.947" cy="4" r="4" fill="#0" id="circle142"/>
	<circle cx="734.947" cy="613.123" r="4" fill="#0" id="circle143"/>
	<circle cx="734.947" cy="724.505" r="4" fill="#0" id="circle144"/>
	<circle cx="752.351" cy="466.933" r="4" fill="#0" id="circle145"/>
	<circle cx="752.351" cy="581.796" r="4" fill="#0" id="circle146"/>
	<circle cx="752.351" cy="693.179" r="4" fill="#0" id="circle147"/>
	<circle cx="755.832" cy="797.6" r="4" fill="#0" id="circle148"/>
	<circle cx="762.793" cy="874.175" r="4" fill="#0" id="circle149"/>
	<circle cx="769.754" cy="4" r="4" fill="#0" id="circle150"/>
	<circle cx="769.754" cy="613.123" r="4" fill="#0" id="circle151"/>
	<circle cx="769.754" cy="724.505" r="4" fill="#0" id="circle152"/>
	<circle cx="787.158" cy="466.933" r="4" fill="#0" id="circle153"/>
	<circle cx="787.158" cy="581.796" r="4" fill="#0" id="circle154"/>
	<circle cx="787.158" cy="693.179" r="4" fill="#0" id="circle155"/>
	<circle cx="790.639" cy="797.6" r="4" fill="#0" id="circle156"/>
	<circle cx="797.6" cy="870.695" r="4" fill="#0" id="circle157"/>
	<circle cx="804.561" cy="4" r="4" fill="#0" id="circle158"/>
	<circle cx="804.561" cy="613.123" r="4" fill="#0" id="circle159"/>
	<circle cx="804.561" cy="724.505" r="4" fill="#0" id="circle160"/>
	<circle cx="821.965" cy="466.933" r="4" fill="#0" id="circle161"/>
	<circle cx="821.965" cy="581.796" r="4" fill="#0" id="circle162"/>
	<circle cx="821.965" cy="693.179" r="4" fill="#0" id="circle163"/>
	<circle cx="825.446" cy="797.6" r="4" fill="#0" id="circle164"/>
	<circle cx="832.407" cy="870.695" r="4" fill="#0" id="circle165"/>
	<circle cx="835.888" cy="21.4035" r="4" fill="#0" id="circle166"/>
	<circle cx="835.888" cy="56.2105" r="4" fill="#0" id="circle167"/>
	<circle cx="835.888" cy="91.0175" r="4" fill="#0" id="circle168"/>
	<circle cx="835.888" cy="125.825" r="4" fill="#0" id="circle169"/>
	<circle cx="835.888" cy="160.632" r="4" fill="#0" id="circle170"/>
	<circle cx="835.888" cy="195.439" r="4" fill="#0" id="circle171"/>
	<circle cx="835.888" cy="230.246" r="4" fill="#0" id="circle172"/>
	<circle cx="835.888" cy="265.053" r="4" fill="#0" id="circle173"/>
	<circle cx="835.888" cy="299.86" r="4" fill="#0" id="circle174"/>
	<circle cx="835.888" cy="334.667" r="4" fill="#0" id="circle175"/>
	<circle cx="835.888" cy="369.474" r="4" fill="#0" id="circle176"/>
	<circle cx="835.888" cy="404.281" r="4" fill="#0" id="circle177"/>
	<circle cx="839.368" cy="613.123" r="4" fill="#0" id="circle178"/>
	<circle cx="839.368" cy="724.505" r="4" fill="#0" id="circle179"/>
	<circle cx="856.772" cy="581.796" r="4" fill="#0" id="circle180"/>
	<circle cx="856.772" cy="693.179" r="4" fill="#0" id="circle181"/>
	<circle cx="860.253" cy="797.6" r="4" fill="#0" id="circle182"/>
	<circle cx="867.214" cy="870.695" r="4" fill="#0" id="circle183"/>
	<circle cx="874.175" cy="613.123" r="4" fill="#0" id="circle184"/>
	<circle cx="884.618" cy="714.063" r="4" fill="#0" id="circle185"/>
	<circle cx="895.06" cy="797.6" r="4" fill="#0" id="circle186"/>
	<circle cx="902.021" cy="870.695" r="4" fill="#0" id="circle187"/>
	<circle cx="929.867" cy="797.6" r="4" fill="#0" id="circle188"/>
	<circle cx="936.828" cy="870.695" r="4" fill="#0" id="circle189"/>
	<circle cx="964.674" cy="797.6" r="4" fill="#0" id="circle190"/>
	<circle cx="971.635" cy="870.695" r="4" fill="#0" id="circle191"/>
	<circle cx="996" cy="815.004" r="4" fill="#0" id="circle192"/>
	</g>
</svg>