<?xml version="1.0" encoding="UTF-8" standalone="no"?>
<!-- Created with CurveBenchmark -->
<svg
	xmlns:dc="http://purl.org/dc/elements/1.1/"
	xmlns:cc="http://creativecommons.org/ns#"
	xmlns:rdf="http://www.w3.org/1999/02/22-rdf-syntax-ns#"
	xmlns:svg="http://www.w3.org/2000/svg"
	xmlns="http://www.w3.org/2000/svg"
	xmlns:sodipodi="http://sodipodi.sourceforge.net/DTD/sodipodi-0.dtd"
	xmlns:inkscape="http://www.inkscape.org/namespaces/inkscape"
	width="1000"
	height="1000"
	id="svg2"
	version="1.1"
	sodipodi:docname="manifold/discur-dino06.png.txt">
<defs
	id="defs4" />
<metadata
	id="metadata7">
	<rdf:RDF>
		<cc:Work
			rdf:about="">
			<dc:format>image/svg+xml</dc:format>
			<dc:type
				rdf:resource="http://purl.org/dc/dcmitype/StillImage" />
			<dc:title></dc:title>
		</cc:Work>
	</rdf:RDF>
</metadata>
<g
	inkscape:label="Layer 1"
	inkscape:groupmode="layer"
	id="layer1">
	<path style="fill:none;stroke:red;stroke-width:1px;stroke-linecap:butt;stroke-linejoin:miter;stroke-opacity:1" d="M 4,57.1429 4,68.2143 z" id="boundary" inkscape:connector-curvature="0" />
	<path style="fill:none;stroke:red;stroke-width:1px;stroke-linecap:butt;stroke-linejoin:miter;stroke-opacity:1" d="M 4,57.1429 12.8571,48.2857 z" id="boundary" inkscape:connector-curvature="0" />
	<path style="fill:none;stroke:red;stroke-width:1px;stroke-linecap:butt;stroke-linejoin:miter;stroke-opacity:1" d="M 4,68.2143 10.6429,77.0714 z" id="boundary" inkscape:connector-curvature="0" />
	<path style="fill:none;stroke:red;stroke-width:1px;stroke-linecap:butt;stroke-linejoin:miter;stroke-opacity:1" d="M 9.53571,123.571 9.53571,134.643 z" id="boundary" inkscape:connector-curvature="0" />
	<path style="fill:none;stroke:red;stroke-width:1px;stroke-linecap:butt;stroke-linejoin:miter;stroke-opacity:1" d="M 9.53571,123.571 20.6071,118.036 z" id="boundary" inkscape:connector-curvature="0" />
	<path style="fill:none;stroke:red;stroke-width:1px;stroke-linecap:butt;stroke-linejoin:miter;stroke-opacity:1" d="M 9.53571,134.643 9.53571,145.714 z" id="boundary" inkscape:connector-curvature="0" />
	<path style="fill:none;stroke:red;stroke-width:1px;stroke-linecap:butt;stroke-linejoin:miter;stroke-opacity:1" d="M 9.53571,145.714 18.3929,153.464 z" id="boundary" inkscape:connector-curvature="0" />
	<path style="fill:none;stroke:red;stroke-width:1px;stroke-linecap:butt;stroke-linejoin:miter;stroke-opacity:1" d="M 10.6429,77.0714 17.2857,85.9286 z" id="boundary" inkscape:connector-curvature="0" />
	<path style="fill:none;stroke:red;stroke-width:1px;stroke-linecap:butt;stroke-linejoin:miter;stroke-opacity:1" d="M 12.8571,48.2857 21.7143,39.4286 z" id="boundary" inkscape:connector-curvature="0" />
	<path style="fill:none;stroke:red;stroke-width:1px;stroke-linecap:butt;stroke-linejoin:miter;stroke-opacity:1" d="M 17.2857,85.9286 28.3571,88.1429 z" id="boundary" inkscape:connector-curvature="0" />
	<path style="fill:none;stroke:red;stroke-width:1px;stroke-linecap:butt;stroke-linejoin:miter;stroke-opacity:1" d="M 18.3929,153.464 28.3571,159 z" id="boundary" inkscape:connector-curvature="0" />
	<path style="fill:none;stroke:red;stroke-width:1px;stroke-linecap:butt;stroke-linejoin:miter;stroke-opacity:1" d="M 20.6071,118.036 31.6786,114.714 z" id="boundary" inkscape:connector-curvature="0" />
	<path style="fill:none;stroke:red;stroke-width:1px;stroke-linecap:butt;stroke-linejoin:miter;stroke-opacity:1" d="M 21.7143,39.4286 30.5714,31.6786 z" id="boundary" inkscape:connector-curvature="0" />
	<path style="fill:none;stroke:red;stroke-width:1px;stroke-linecap:butt;stroke-linejoin:miter;stroke-opacity:1" d="M 28.3571,88.1429 38.3214,93.6786 z" id="boundary" inkscape:connector-curvature="0" />
	<path style="fill:none;stroke:red;stroke-width:1px;stroke-linecap:butt;stroke-linejoin:miter;stroke-opacity:1" d="M 28.3571,159 37.2143,165.643 z" id="boundary" inkscape:connector-curvature="0" />
	<path style="fill:none;stroke:red;stroke-width:1px;stroke-linecap:butt;stroke-linejoin:miter;stroke-opacity:1" d="M 30.5714,31.6786 40.5357,26.1429 z" id="boundary" inkscape:connector-curvature="0" />
	<path style="fill:none;stroke:red;stroke-width:1px;stroke-linecap:butt;stroke-linejoin:miter;stroke-opacity:1" d="M 31.6786,114.714 42.75,114.714 z" id="boundary" inkscape:connector-curvature="0" />
	<path style="fill:none;stroke:red;stroke-width:1px;stroke-linecap:butt;stroke-linejoin:miter;stroke-opacity:1" d="M 37.2143,165.643 48.2857,165.643 z" id="boundary" inkscape:connector-curvature="0" />
	<path style="fill:none;stroke:red;stroke-width:1px;stroke-linecap:butt;stroke-linejoin:miter;stroke-opacity:1" d="M 38.3214,93.6786 48.2857,88.1429 z" id="boundary" inkscape:connector-curvature="0" />
	<path style="fill:none;stroke:red;stroke-width:1px;stroke-linecap:butt;stroke-linejoin:miter;stroke-opacity:1" d="M 40.5357,26.1429 51.6071,26.1429 z" id="boundary" inkscape:connector-curvature="0" />
	<path style="fill:none;stroke:red;stroke-width:1px;stroke-linecap:butt;stroke-linejoin:miter;stroke-opacity:1" d="M 42.75,114.714 52.7143,109.179 z" id="boundary" inkscape:connector-curvature="0" />
	<path style="fill:none;stroke:red;stroke-width:1px;stroke-linecap:butt;stroke-linejoin:miter;stroke-opacity:1" d="M 48.2857,88.1429 58.25,93.6786 z" id="boundary" inkscape:connector-curvature="0" />
	<path style="fill:none;stroke:red;stroke-width:1px;stroke-linecap:butt;stroke-linejoin:miter;stroke-opacity:1" d="M 48.2857,165.643 59.3571,165.643 z" id="boundary" inkscape:connector-curvature="0" />
	<path style="fill:none;stroke:red;stroke-width:1px;stroke-linecap:butt;stroke-linejoin:miter;stroke-opacity:1" d="M 51.6071,26.1429 62.6786,26.1429 z" id="boundary" inkscape:connector-curvature="0" />
	<path style="fill:none;stroke:red;stroke-width:1px;stroke-linecap:butt;stroke-linejoin:miter;stroke-opacity:1" d="M 52.7143,109.179 63.7857,110.286 z" id="boundary" inkscape:connector-curvature="0" />
	<path style="fill:none;stroke:red;stroke-width:1px;stroke-linecap:butt;stroke-linejoin:miter;stroke-opacity:1" d="M 58.25,93.6786 69.3214,93.6786 z" id="boundary" inkscape:connector-curvature="0" />
	<path style="fill:none;stroke:red;stroke-width:1px;stroke-linecap:butt;stroke-linejoin:miter;stroke-opacity:1" d="M 59.3571,165.643 70.4286,165.643 z" id="boundary" inkscape:connector-curvature="0" />
	<path style="fill:none;stroke:red;stroke-width:1px;stroke-linecap:butt;stroke-linejoin:miter;stroke-opacity:1" d="M 62.6786,26.1429 73.75,26.1429 z" id="boundary" inkscape:connector-curvature="0" />
	<path style="fill:none;stroke:red;stroke-width:1px;stroke-linecap:butt;stroke-linejoin:miter;stroke-opacity:1" d="M 63.7857,110.286 74.8571,114.714 z" id="boundary" inkscape:connector-curvature="0" />
	<path style="fill:none;stroke:red;stroke-width:1px;stroke-linecap:butt;stroke-linejoin:miter;stroke-opacity:1" d="M 69.3214,93.6786 79.2857,99.2143 z" id="boundary" inkscape:connector-curvature="0" />
	<path style="fill:none;stroke:red;stroke-width:1px;stroke-linecap:butt;stroke-linejoin:miter;stroke-opacity:1" d="M 70.4286,165.643 80.3929,171.179 z" id="boundary" inkscape:connector-curvature="0" />
	<path style="fill:none;stroke:red;stroke-width:1px;stroke-linecap:butt;stroke-linejoin:miter;stroke-opacity:1" d="M 73.75,26.1429 83.7143,31.6786 z" id="boundary" inkscape:connector-curvature="0" />
	<path style="fill:none;stroke:red;stroke-width:1px;stroke-linecap:butt;stroke-linejoin:miter;stroke-opacity:1" d="M 74.8571,114.714 85.9286,115.821 z" id="boundary" inkscape:connector-curvature="0" />
	<path style="fill:none;stroke:red;stroke-width:1px;stroke-linecap:butt;stroke-linejoin:miter;stroke-opacity:1" d="M 79.2857,99.2143 90.3571,103.643 z" id="boundary" inkscape:connector-curvature="0" />
	<path style="fill:none;stroke:red;stroke-width:1px;stroke-linecap:butt;stroke-linejoin:miter;stroke-opacity:1" d="M 80.3929,171.179 90.3571,176.714 z" id="boundary" inkscape:connector-curvature="0" />
	<path style="fill:none;stroke:red;stroke-width:1px;stroke-linecap:butt;stroke-linejoin:miter;stroke-opacity:1" d="M 83.7143,31.6786 93.6786,37.2143 z" id="boundary" inkscape:connector-curvature="0" />
	<path style="fill:none;stroke:red;stroke-width:1px;stroke-linecap:butt;stroke-linejoin:miter;stroke-opacity:1" d="M 85.9286,115.821 97,120.25 z" id="boundary" inkscape:connector-curvature="0" />
	<path style="fill:none;stroke:red;stroke-width:1px;stroke-linecap:butt;stroke-linejoin:miter;stroke-opacity:1" d="M 90.3571,103.643 100.321,109.179 z" id="boundary" inkscape:connector-curvature="0" />
	<path style="fill:none;stroke:red;stroke-width:1px;stroke-linecap:butt;stroke-linejoin:miter;stroke-opacity:1" d="M 90.3571,176.714 101.429,181.143 z" id="boundary" inkscape:connector-curvature="0" />
	<path style="fill:none;stroke:red;stroke-width:1px;stroke-linecap:butt;stroke-linejoin:miter;stroke-opacity:1" d="M 93.6786,37.2143 103.643,42.75 z" id="boundary" inkscape:connector-curvature="0" />
	<path style="fill:none;stroke:red;stroke-width:1px;stroke-linecap:butt;stroke-linejoin:miter;stroke-opacity:1" d="M 97,120.25 100.321,109.179 z" id="boundary" inkscape:connector-curvature="0" />
	<path style="fill:none;stroke:red;stroke-width:1px;stroke-linecap:butt;stroke-linejoin:miter;stroke-opacity:1" d="M 101.429,181.143 109.179,190 z" id="boundary" inkscape:connector-curvature="0" />
	<path style="fill:none;stroke:red;stroke-width:1px;stroke-linecap:butt;stroke-linejoin:miter;stroke-opacity:1" d="M 103.643,42.75 114.714,42.75 z" id="boundary" inkscape:connector-curvature="0" />
	<path style="fill:none;stroke:red;stroke-width:1px;stroke-linecap:butt;stroke-linejoin:miter;stroke-opacity:1" d="M 109.179,190 118.036,197.75 z" id="boundary" inkscape:connector-curvature="0" />
	<path style="fill:none;stroke:red;stroke-width:1px;stroke-linecap:butt;stroke-linejoin:miter;stroke-opacity:1" d="M 114.714,42.75 124.679,37.2143 z" id="boundary" inkscape:connector-curvature="0" />
	<path style="fill:none;stroke:red;stroke-width:1px;stroke-linecap:butt;stroke-linejoin:miter;stroke-opacity:1" d="M 118.036,197.75 126.893,204.393 z" id="boundary" inkscape:connector-curvature="0" />
	<path style="fill:none;stroke:red;stroke-width:1px;stroke-linecap:butt;stroke-linejoin:miter;stroke-opacity:1" d="M 124.679,37.2143 135.75,37.2143 z" id="boundary" inkscape:connector-curvature="0" />
	<path style="fill:none;stroke:red;stroke-width:1px;stroke-linecap:butt;stroke-linejoin:miter;stroke-opacity:1" d="M 126.893,204.393 133.536,213.25 z" id="boundary" inkscape:connector-curvature="0" />
	<path style="fill:none;stroke:red;stroke-width:1px;stroke-linecap:butt;stroke-linejoin:miter;stroke-opacity:1" d="M 133.536,213.25 143.5,218.786 z" id="boundary" inkscape:connector-curvature="0" />
	<path style="fill:none;stroke:red;stroke-width:1px;stroke-linecap:butt;stroke-linejoin:miter;stroke-opacity:1" d="M 135.75,37.2143 145.714,31.6786 z" id="boundary" inkscape:connector-curvature="0" />
	<path style="fill:none;stroke:red;stroke-width:1px;stroke-linecap:butt;stroke-linejoin:miter;stroke-opacity:1" d="M 143.5,218.786 152.357,226.536 z" id="boundary" inkscape:connector-curvature="0" />
	<path style="fill:none;stroke:red;stroke-width:1px;stroke-linecap:butt;stroke-linejoin:miter;stroke-opacity:1" d="M 145.714,31.6786 156.786,31.6786 z" id="boundary" inkscape:connector-curvature="0" />
	<path style="fill:none;stroke:red;stroke-width:1px;stroke-linecap:butt;stroke-linejoin:miter;stroke-opacity:1" d="M 152.357,226.536 162.321,232.071 z" id="boundary" inkscape:connector-curvature="0" />
	<path style="fill:none;stroke:red;stroke-width:1px;stroke-linecap:butt;stroke-linejoin:miter;stroke-opacity:1" d="M 156.786,31.6786 167.857,26.1429 z" id="boundary" inkscape:connector-curvature="0" />
	<path style="fill:none;stroke:red;stroke-width:1px;stroke-linecap:butt;stroke-linejoin:miter;stroke-opacity:1" d="M 162.321,232.071 172.286,237.607 z" id="boundary" inkscape:connector-curvature="0" />
	<path style="fill:none;stroke:red;stroke-width:1px;stroke-linecap:butt;stroke-linejoin:miter;stroke-opacity:1" d="M 167.857,26.1429 178.929,26.1429 z" id="boundary" inkscape:connector-curvature="0" />
	<path style="fill:none;stroke:red;stroke-width:1px;stroke-linecap:butt;stroke-linejoin:miter;stroke-opacity:1" d="M 172.286,237.607 183.357,240.929 z" id="boundary" inkscape:connector-curvature="0" />
	<path style="fill:none;stroke:red;stroke-width:1px;stroke-linecap:butt;stroke-linejoin:miter;stroke-opacity:1" d="M 178.929,26.1429 188.893,31.6786 z" id="boundary" inkscape:connector-curvature="0" />
	<path style="fill:none;stroke:red;stroke-width:1px;stroke-linecap:butt;stroke-linejoin:miter;stroke-opacity:1" d="M 183.357,240.929 193.321,246.464 z" id="boundary" inkscape:connector-curvature="0" />
	<path style="fill:none;stroke:red;stroke-width:1px;stroke-linecap:butt;stroke-linejoin:miter;stroke-opacity:1" d="M 188.893,31.6786 198.857,37.2143 z" id="boundary" inkscape:connector-curvature="0" />
	<path style="fill:none;stroke:red;stroke-width:1px;stroke-linecap:butt;stroke-linejoin:miter;stroke-opacity:1" d="M 193.321,246.464 204.393,250.893 z" id="boundary" inkscape:connector-curvature="0" />
	<path style="fill:none;stroke:red;stroke-width:1px;stroke-linecap:butt;stroke-linejoin:miter;stroke-opacity:1" d="M 198.857,37.2143 207.714,43.8571 z" id="boundary" inkscape:connector-curvature="0" />
	<path style="fill:none;stroke:red;stroke-width:1px;stroke-linecap:butt;stroke-linejoin:miter;stroke-opacity:1" d="M 204.393,250.893 215.464,254.214 z" id="boundary" inkscape:connector-curvature="0" />
	<path style="fill:none;stroke:red;stroke-width:1px;stroke-linecap:butt;stroke-linejoin:miter;stroke-opacity:1" d="M 207.714,43.8571 215.464,52.7143 z" id="boundary" inkscape:connector-curvature="0" />
	<path style="fill:none;stroke:red;stroke-width:1px;stroke-linecap:butt;stroke-linejoin:miter;stroke-opacity:1" d="M 215.464,52.7143 224.321,60.4643 z" id="boundary" inkscape:connector-curvature="0" />
	<path style="fill:none;stroke:red;stroke-width:1px;stroke-linecap:butt;stroke-linejoin:miter;stroke-opacity:1" d="M 215.464,254.214 225.429,259.75 z" id="boundary" inkscape:connector-curvature="0" />
	<path style="fill:none;stroke:red;stroke-width:1px;stroke-linecap:butt;stroke-linejoin:miter;stroke-opacity:1" d="M 224.321,60.4643 232.071,69.3214 z" id="boundary" inkscape:connector-curvature="0" />
	<path style="fill:none;stroke:red;stroke-width:1px;stroke-linecap:butt;stroke-linejoin:miter;stroke-opacity:1" d="M 225.429,259.75 236.5,259.75 z" id="boundary" inkscape:connector-curvature="0" />
	<path style="fill:none;stroke:red;stroke-width:1px;stroke-linecap:butt;stroke-linejoin:miter;stroke-opacity:1" d="M 232.071,69.3214 237.607,79.2857 z" id="boundary" inkscape:connector-curvature="0" />
	<path style="fill:none;stroke:red;stroke-width:1px;stroke-linecap:butt;stroke-linejoin:miter;stroke-opacity:1" d="M 236.5,259.75 247.571,259.75 z" id="boundary" inkscape:connector-curvature="0" />
	<path style="fill:none;stroke:red;stroke-width:1px;stroke-linecap:butt;stroke-linejoin:miter;stroke-opacity:1" d="M 237.607,79.2857 243.143,89.25 z" id="boundary" inkscape:connector-curvature="0" />
	<path style="fill:none;stroke:red;stroke-width:1px;stroke-linecap:butt;stroke-linejoin:miter;stroke-opacity:1" d="M 242.036,328.393 242.036,339.464 z" id="boundary" inkscape:connector-curvature="0" />
	<path style="fill:none;stroke:red;stroke-width:1px;stroke-linecap:butt;stroke-linejoin:miter;stroke-opacity:1" d="M 242.036,328.393 247.571,317.321 z" id="boundary" inkscape:connector-curvature="0" />
	<path style="fill:none;stroke:red;stroke-width:1px;stroke-linecap:butt;stroke-linejoin:miter;stroke-opacity:1" d="M 242.036,339.464 253.107,337.25 z" id="boundary" inkscape:connector-curvature="0" />
	<path style="fill:none;stroke:red;stroke-width:1px;stroke-linecap:butt;stroke-linejoin:miter;stroke-opacity:1" d="M 243.143,89.25 243.143,100.321 z" id="boundary" inkscape:connector-curvature="0" />
	<path style="fill:none;stroke:red;stroke-width:1px;stroke-linecap:butt;stroke-linejoin:miter;stroke-opacity:1" d="M 243.143,100.321 243.143,111.393 z" id="boundary" inkscape:connector-curvature="0" />
	<path style="fill:none;stroke:red;stroke-width:1px;stroke-linecap:butt;stroke-linejoin:miter;stroke-opacity:1" d="M 243.143,111.393 248.679,121.357 z" id="boundary" inkscape:connector-curvature="0" />
	<path style="fill:none;stroke:red;stroke-width:1px;stroke-linecap:butt;stroke-linejoin:miter;stroke-opacity:1" d="M 247.571,259.75 257.536,265.286 z" id="boundary" inkscape:connector-curvature="0" />
	<path style="fill:none;stroke:red;stroke-width:1px;stroke-linecap:butt;stroke-linejoin:miter;stroke-opacity:1" d="M 247.571,317.321 256.429,308.464 z" id="boundary" inkscape:connector-curvature="0" />
	<path style="fill:none;stroke:red;stroke-width:1px;stroke-linecap:butt;stroke-linejoin:miter;stroke-opacity:1" d="M 248.679,121.357 248.679,132.429 z" id="boundary" inkscape:connector-curvature="0" />
	<path style="fill:none;stroke:red;stroke-width:1px;stroke-linecap:butt;stroke-linejoin:miter;stroke-opacity:1" d="M 248.679,132.429 254.214,142.393 z" id="boundary" inkscape:connector-curvature="0" />
	<path style="fill:none;stroke:red;stroke-width:1px;stroke-linecap:butt;stroke-linejoin:miter;stroke-opacity:1" d="M 253.107,337.25 259.75,326.179 z" id="boundary" inkscape:connector-curvature="0" />
	<path style="fill:none;stroke:red;stroke-width:1px;stroke-linecap:butt;stroke-linejoin:miter;stroke-opacity:1" d="M 254.214,142.393 265.286,142.393 z" id="boundary" inkscape:connector-curvature="0" />
	<path style="fill:none;stroke:red;stroke-width:1px;stroke-linecap:butt;stroke-linejoin:miter;stroke-opacity:1" d="M 256.429,308.464 265.286,299.607 z" id="boundary" inkscape:connector-curvature="0" />
	<path style="fill:none;stroke:red;stroke-width:1px;stroke-linecap:butt;stroke-linejoin:miter;stroke-opacity:1" d="M 257.536,265.286 267.5,270.821 z" id="boundary" inkscape:connector-curvature="0" />
	<path style="fill:none;stroke:red;stroke-width:1px;stroke-linecap:butt;stroke-linejoin:miter;stroke-opacity:1" d="M 259.75,326.179 268.607,318.429 z" id="boundary" inkscape:connector-curvature="0" />
	<path style="fill:none;stroke:red;stroke-width:1px;stroke-linecap:butt;stroke-linejoin:miter;stroke-opacity:1" d="M 265.286,142.393 275.25,136.857 z" id="boundary" inkscape:connector-curvature="0" />
	<path style="fill:none;stroke:red;stroke-width:1px;stroke-linecap:butt;stroke-linejoin:miter;stroke-opacity:1" d="M 265.286,299.607 275.25,290.75 z" id="boundary" inkscape:connector-curvature="0" />
	<path style="fill:none;stroke:red;stroke-width:1px;stroke-linecap:butt;stroke-linejoin:miter;stroke-opacity:1" d="M 267.5,270.821 275.25,279.679 z" id="boundary" inkscape:connector-curvature="0" />
	<path style="fill:none;stroke:red;stroke-width:1px;stroke-linecap:butt;stroke-linejoin:miter;stroke-opacity:1" d="M 268.607,318.429 279.679,315.107 z" id="boundary" inkscape:connector-curvature="0" />
	<path style="fill:none;stroke:red;stroke-width:1px;stroke-linecap:butt;stroke-linejoin:miter;stroke-opacity:1" d="M 275.25,136.857 285.214,131.321 z" id="boundary" inkscape:connector-curvature="0" />
	<path style="fill:none;stroke:red;stroke-width:1px;stroke-linecap:butt;stroke-linejoin:miter;stroke-opacity:1" d="M 275.25,279.679 275.25,290.75 z" id="boundary" inkscape:connector-curvature="0" />
	<path style="fill:none;stroke:red;stroke-width:1px;stroke-linecap:butt;stroke-linejoin:miter;stroke-opacity:1" d="M 279.679,315.107 280.786,326.179 z" id="boundary" inkscape:connector-curvature="0" />
	<path style="fill:none;stroke:red;stroke-width:1px;stroke-linecap:butt;stroke-linejoin:miter;stroke-opacity:1" d="M 280.786,326.179 284.107,337.25 z" id="boundary" inkscape:connector-curvature="0" />
	<path style="fill:none;stroke:red;stroke-width:1px;stroke-linecap:butt;stroke-linejoin:miter;stroke-opacity:1" d="M 284.107,337.25 294.071,331.714 z" id="boundary" inkscape:connector-curvature="0" />
	<path style="fill:none;stroke:red;stroke-width:1px;stroke-linecap:butt;stroke-linejoin:miter;stroke-opacity:1" d="M 285.214,131.321 296.286,131.321 z" id="boundary" inkscape:connector-curvature="0" />
	<path style="fill:none;stroke:red;stroke-width:1px;stroke-linecap:butt;stroke-linejoin:miter;stroke-opacity:1" d="M 294.071,331.714 305.143,335.036 z" id="boundary" inkscape:connector-curvature="0" />
	<path style="fill:none;stroke:red;stroke-width:1px;stroke-linecap:butt;stroke-linejoin:miter;stroke-opacity:1" d="M 296.286,131.321 304.036,122.464 z" id="boundary" inkscape:connector-curvature="0" />
	<path style="fill:none;stroke:red;stroke-width:1px;stroke-linecap:butt;stroke-linejoin:miter;stroke-opacity:1" d="M 304.036,122.464 315.107,116.929 z" id="boundary" inkscape:connector-curvature="0" />
	<path style="fill:none;stroke:red;stroke-width:1px;stroke-linecap:butt;stroke-linejoin:miter;stroke-opacity:1" d="M 305.143,335.036 309.571,320.643 z" id="boundary" inkscape:connector-curvature="0" />
	<path style="fill:none;stroke:red;stroke-width:1px;stroke-linecap:butt;stroke-linejoin:miter;stroke-opacity:1" d="M 309.571,320.643 319.536,315.107 z" id="boundary" inkscape:connector-curvature="0" />
	<path style="fill:none;stroke:red;stroke-width:1px;stroke-linecap:butt;stroke-linejoin:miter;stroke-opacity:1" d="M 315.107,116.929 326.179,114.714 z" id="boundary" inkscape:connector-curvature="0" />
	<path style="fill:none;stroke:red;stroke-width:1px;stroke-linecap:butt;stroke-linejoin:miter;stroke-opacity:1" d="M 319.536,315.107 329.5,320.643 z" id="boundary" inkscape:connector-curvature="0" />
	<path style="fill:none;stroke:red;stroke-width:1px;stroke-linecap:butt;stroke-linejoin:miter;stroke-opacity:1" d="M 326.179,114.714 336.143,109.179 z" id="boundary" inkscape:connector-curvature="0" />
	<path style="fill:none;stroke:red;stroke-width:1px;stroke-linecap:butt;stroke-linejoin:miter;stroke-opacity:1" d="M 329.5,320.643 339.464,326.179 z" id="boundary" inkscape:connector-curvature="0" />
	<path style="fill:none;stroke:red;stroke-width:1px;stroke-linecap:butt;stroke-linejoin:miter;stroke-opacity:1" d="M 336.143,109.179 347.214,106.964 z" id="boundary" inkscape:connector-curvature="0" />
	<path style="fill:none;stroke:red;stroke-width:1px;stroke-linecap:butt;stroke-linejoin:miter;stroke-opacity:1" d="M 339.464,326.179 350.536,330.607 z" id="boundary" inkscape:connector-curvature="0" />
	<path style="fill:none;stroke:red;stroke-width:1px;stroke-linecap:butt;stroke-linejoin:miter;stroke-opacity:1" d="M 347.214,106.964 358.286,103.643 z" id="boundary" inkscape:connector-curvature="0" />
	<path style="fill:none;stroke:red;stroke-width:1px;stroke-linecap:butt;stroke-linejoin:miter;stroke-opacity:1" d="M 350.536,330.607 360.5,336.143 z" id="boundary" inkscape:connector-curvature="0" />
	<path style="fill:none;stroke:red;stroke-width:1px;stroke-linecap:butt;stroke-linejoin:miter;stroke-opacity:1" d="M 358.286,103.643 368.25,98.1071 z" id="boundary" inkscape:connector-curvature="0" />
	<path style="fill:none;stroke:red;stroke-width:1px;stroke-linecap:butt;stroke-linejoin:miter;stroke-opacity:1" d="M 360.5,336.143 371.571,340.571 z" id="boundary" inkscape:connector-curvature="0" />
	<path style="fill:none;stroke:red;stroke-width:1px;stroke-linecap:butt;stroke-linejoin:miter;stroke-opacity:1" d="M 363.821,566.429 370.464,575.286 z" id="boundary" inkscape:connector-curvature="0" />
	<path style="fill:none;stroke:red;stroke-width:1px;stroke-linecap:butt;stroke-linejoin:miter;stroke-opacity:1" d="M 363.821,566.429 372.679,557.571 z" id="boundary" inkscape:connector-curvature="0" />
	<path style="fill:none;stroke:red;stroke-width:1px;stroke-linecap:butt;stroke-linejoin:miter;stroke-opacity:1" d="M 368.25,98.1071 379.321,98.1071 z" id="boundary" inkscape:connector-curvature="0" />
	<path style="fill:none;stroke:red;stroke-width:1px;stroke-linecap:butt;stroke-linejoin:miter;stroke-opacity:1" d="M 370.464,575.286 381.536,575.286 z" id="boundary" inkscape:connector-curvature="0" />
	<path style="fill:none;stroke:red;stroke-width:1px;stroke-linecap:butt;stroke-linejoin:miter;stroke-opacity:1" d="M 371.571,340.571 382.643,342.786 z" id="boundary" inkscape:connector-curvature="0" />
	<path style="fill:none;stroke:red;stroke-width:1px;stroke-linecap:butt;stroke-linejoin:miter;stroke-opacity:1" d="M 372.679,557.571 383.75,557.571 z" id="boundary" inkscape:connector-curvature="0" />
	<path style="fill:none;stroke:red;stroke-width:1px;stroke-linecap:butt;stroke-linejoin:miter;stroke-opacity:1" d="M 379.321,98.1071 389.286,92.5714 z" id="boundary" inkscape:connector-curvature="0" />
	<path style="fill:none;stroke:red;stroke-width:1px;stroke-linecap:butt;stroke-linejoin:miter;stroke-opacity:1" d="M 381.536,575.286 388.179,584.143 z" id="boundary" inkscape:connector-curvature="0" />
	<path style="fill:none;stroke:red;stroke-width:1px;stroke-linecap:butt;stroke-linejoin:miter;stroke-opacity:1" d="M 382.643,342.786 392.607,348.321 z" id="boundary" inkscape:connector-curvature="0" />
	<path style="fill:none;stroke:red;stroke-width:1px;stroke-linecap:butt;stroke-linejoin:miter;stroke-opacity:1" d="M 383.75,557.571 394.821,552.036 z" id="boundary" inkscape:connector-curvature="0" />
	<path style="fill:none;stroke:red;stroke-width:1px;stroke-linecap:butt;stroke-linejoin:miter;stroke-opacity:1" d="M 388.179,584.143 397.036,591.893 z" id="boundary" inkscape:connector-curvature="0" />
	<path style="fill:none;stroke:red;stroke-width:1px;stroke-linecap:butt;stroke-linejoin:miter;stroke-opacity:1" d="M 389.286,92.5714 400.357,92.5714 z" id="boundary" inkscape:connector-curvature="0" />
	<path style="fill:none;stroke:red;stroke-width:1px;stroke-linecap:butt;stroke-linejoin:miter;stroke-opacity:1" d="M 392.607,348.321 402.571,353.857 z" id="boundary" inkscape:connector-curvature="0" />
	<path style="fill:none;stroke:red;stroke-width:1px;stroke-linecap:butt;stroke-linejoin:miter;stroke-opacity:1" d="M 394.821,552.036 405.893,552.036 z" id="boundary" inkscape:connector-curvature="0" />
	<path style="fill:none;stroke:red;stroke-width:1px;stroke-linecap:butt;stroke-linejoin:miter;stroke-opacity:1" d="M 397.036,591.893 408.107,588.571 z" id="boundary" inkscape:connector-curvature="0" />
	<path style="fill:none;stroke:red;stroke-width:1px;stroke-linecap:butt;stroke-linejoin:miter;stroke-opacity:1" d="M 400.357,92.5714 411.429,87.0357 z" id="boundary" inkscape:connector-curvature="0" />
	<path style="fill:none;stroke:red;stroke-width:1px;stroke-linecap:butt;stroke-linejoin:miter;stroke-opacity:1" d="M 402.571,353.857 412.536,359.393 z" id="boundary" inkscape:connector-curvature="0" />
	<path style="fill:none;stroke:red;stroke-width:1px;stroke-linecap:butt;stroke-linejoin:miter;stroke-opacity:1" d="M 405.893,552.036 415.857,546.5 z" id="boundary" inkscape:connector-curvature="0" />
	<path style="fill:none;stroke:red;stroke-width:1px;stroke-linecap:butt;stroke-linejoin:miter;stroke-opacity:1" d="M 408.107,588.571 419.179,586.357 z" id="boundary" inkscape:connector-curvature="0" />
	<path style="fill:none;stroke:red;stroke-width:1px;stroke-linecap:butt;stroke-linejoin:miter;stroke-opacity:1" d="M 411.429,87.0357 422.5,87.0357 z" id="boundary" inkscape:connector-curvature="0" />
	<path style="fill:none;stroke:red;stroke-width:1px;stroke-linecap:butt;stroke-linejoin:miter;stroke-opacity:1" d="M 412.536,359.393 420.286,368.25 z" id="boundary" inkscape:connector-curvature="0" />
	<path style="fill:none;stroke:red;stroke-width:1px;stroke-linecap:butt;stroke-linejoin:miter;stroke-opacity:1" d="M 415.857,546.5 424.714,538.75 z" id="boundary" inkscape:connector-curvature="0" />
	<path style="fill:none;stroke:red;stroke-width:1px;stroke-linecap:butt;stroke-linejoin:miter;stroke-opacity:1" d="M 419.179,586.357 429.143,580.821 z" id="boundary" inkscape:connector-curvature="0" />
	<path style="fill:none;stroke:red;stroke-width:1px;stroke-linecap:butt;stroke-linejoin:miter;stroke-opacity:1" d="M 420.286,368.25 429.143,376 z" id="boundary" inkscape:connector-curvature="0" />
	<path style="fill:none;stroke:red;stroke-width:1px;stroke-linecap:butt;stroke-linejoin:miter;stroke-opacity:1" d="M 422.5,87.0357 432.464,81.5 z" id="boundary" inkscape:connector-curvature="0" />
	<path style="fill:none;stroke:red;stroke-width:1px;stroke-linecap:butt;stroke-linejoin:miter;stroke-opacity:1" d="M 424.714,538.75 430.25,522.143 z" id="boundary" inkscape:connector-curvature="0" />
	<path style="fill:none;stroke:red;stroke-width:1px;stroke-linecap:butt;stroke-linejoin:miter;stroke-opacity:1" d="M 429.143,376 430.25,387.071 z" id="boundary" inkscape:connector-curvature="0" />
	<path style="fill:none;stroke:red;stroke-width:1px;stroke-linecap:butt;stroke-linejoin:miter;stroke-opacity:1" d="M 429.143,580.821 440.214,580.821 z" id="boundary" inkscape:connector-curvature="0" />
	<path style="fill:none;stroke:red;stroke-width:1px;stroke-linecap:butt;stroke-linejoin:miter;stroke-opacity:1" d="M 430.25,387.071 435.786,397.036 z" id="boundary" inkscape:connector-curvature="0" />
	<path style="fill:none;stroke:red;stroke-width:1px;stroke-linecap:butt;stroke-linejoin:miter;stroke-opacity:1" d="M 430.25,522.143 435.786,511.071 z" id="boundary" inkscape:connector-curvature="0" />
	<path style="fill:none;stroke:red;stroke-width:1px;stroke-linecap:butt;stroke-linejoin:miter;stroke-opacity:1" d="M 432.464,81.5 443.536,81.5 z" id="boundary" inkscape:connector-curvature="0" />
	<path style="fill:none;stroke:red;stroke-width:1px;stroke-linecap:butt;stroke-linejoin:miter;stroke-opacity:1" d="M 435.786,397.036 441.321,407 z" id="boundary" inkscape:connector-curvature="0" />
	<path style="fill:none;stroke:red;stroke-width:1px;stroke-linecap:butt;stroke-linejoin:miter;stroke-opacity:1" d="M 435.786,500 435.786,511.071 z" id="boundary" inkscape:connector-curvature="0" />
	<path style="fill:none;stroke:red;stroke-width:1px;stroke-linecap:butt;stroke-linejoin:miter;stroke-opacity:1" d="M 435.786,500 441.321,488.929 z" id="boundary" inkscape:connector-curvature="0" />
	<path style="fill:none;stroke:red;stroke-width:1px;stroke-linecap:butt;stroke-linejoin:miter;stroke-opacity:1" d="M 440.214,580.821 450.179,575.286 z" id="boundary" inkscape:connector-curvature="0" />
	<path style="fill:none;stroke:red;stroke-width:1px;stroke-linecap:butt;stroke-linejoin:miter;stroke-opacity:1" d="M 441.321,407 442.429,418.071 z" id="boundary" inkscape:connector-curvature="0" />
	<path style="fill:none;stroke:red;stroke-width:1px;stroke-linecap:butt;stroke-linejoin:miter;stroke-opacity:1" d="M 441.321,477.857 441.321,488.929 z" id="boundary" inkscape:connector-curvature="0" />
	<path style="fill:none;stroke:red;stroke-width:1px;stroke-linecap:butt;stroke-linejoin:miter;stroke-opacity:1" d="M 441.321,477.857 446.857,461.25 z" id="boundary" inkscape:connector-curvature="0" />
	<path style="fill:none;stroke:red;stroke-width:1px;stroke-linecap:butt;stroke-linejoin:miter;stroke-opacity:1" d="M 442.429,418.071 446.857,429.143 z" id="boundary" inkscape:connector-curvature="0" />
	<path style="fill:none;stroke:red;stroke-width:1px;stroke-linecap:butt;stroke-linejoin:miter;stroke-opacity:1" d="M 443.536,81.5 453.5,75.9643 z" id="boundary" inkscape:connector-curvature="0" />
	<path style="fill:none;stroke:red;stroke-width:1px;stroke-linecap:butt;stroke-linejoin:miter;stroke-opacity:1" d="M 446.857,429.143 452.393,439.107 z" id="boundary" inkscape:connector-curvature="0" />
	<path style="fill:none;stroke:red;stroke-width:1px;stroke-linecap:butt;stroke-linejoin:miter;stroke-opacity:1" d="M 446.857,450.179 446.857,461.25 z" id="boundary" inkscape:connector-curvature="0" />
	<path style="fill:none;stroke:red;stroke-width:1px;stroke-linecap:butt;stroke-linejoin:miter;stroke-opacity:1" d="M 446.857,450.179 452.393,439.107 z" id="boundary" inkscape:connector-curvature="0" />
	<path style="fill:none;stroke:red;stroke-width:1px;stroke-linecap:butt;stroke-linejoin:miter;stroke-opacity:1" d="M 450.179,575.286 460.143,569.75 z" id="boundary" inkscape:connector-curvature="0" />
	<path style="fill:none;stroke:red;stroke-width:1px;stroke-linecap:butt;stroke-linejoin:miter;stroke-opacity:1" d="M 453.5,75.9643 464.571,72.6429 z" id="boundary" inkscape:connector-curvature="0" />
	<path style="fill:none;stroke:red;stroke-width:1px;stroke-linecap:butt;stroke-linejoin:miter;stroke-opacity:1" d="M 460.143,569.75 464.571,553.143 z" id="boundary" inkscape:connector-curvature="0" />
	<path style="fill:none;stroke:red;stroke-width:1px;stroke-linecap:butt;stroke-linejoin:miter;stroke-opacity:1" d="M 464.571,72.6429 475.643,70.4286 z" id="boundary" inkscape:connector-curvature="0" />
	<path style="fill:none;stroke:red;stroke-width:1px;stroke-linecap:butt;stroke-linejoin:miter;stroke-opacity:1" d="M 464.571,531 464.571,542.071 z" id="boundary" inkscape:connector-curvature="0" />
	<path style="fill:none;stroke:red;stroke-width:1px;stroke-linecap:butt;stroke-linejoin:miter;stroke-opacity:1" d="M 464.571,531 470.107,514.393 z" id="boundary" inkscape:connector-curvature="0" />
	<path style="fill:none;stroke:red;stroke-width:1px;stroke-linecap:butt;stroke-linejoin:miter;stroke-opacity:1" d="M 464.571,542.071 464.571,553.143 z" id="boundary" inkscape:connector-curvature="0" />
	<path style="fill:none;stroke:red;stroke-width:1px;stroke-linecap:butt;stroke-linejoin:miter;stroke-opacity:1" d="M 470.107,514.393 475.643,503.321 z" id="boundary" inkscape:connector-curvature="0" />
	<path style="fill:none;stroke:red;stroke-width:1px;stroke-linecap:butt;stroke-linejoin:miter;stroke-opacity:1" d="M 475.643,70.4286 485.607,64.8929 z" id="boundary" inkscape:connector-curvature="0" />
	<path style="fill:none;stroke:red;stroke-width:1px;stroke-linecap:butt;stroke-linejoin:miter;stroke-opacity:1" d="M 475.643,503.321 481.179,492.25 z" id="boundary" inkscape:connector-curvature="0" />
	<path style="fill:none;stroke:red;stroke-width:1px;stroke-linecap:butt;stroke-linejoin:miter;stroke-opacity:1" d="M 481.179,492.25 490.036,484.5 z" id="boundary" inkscape:connector-curvature="0" />
	<path style="fill:none;stroke:red;stroke-width:1px;stroke-linecap:butt;stroke-linejoin:miter;stroke-opacity:1" d="M 485.607,64.8929 496.679,62.6786 z" id="boundary" inkscape:connector-curvature="0" />
	<path style="fill:none;stroke:red;stroke-width:1px;stroke-linecap:butt;stroke-linejoin:miter;stroke-opacity:1" d="M 490.036,484.5 495.571,473.429 z" id="boundary" inkscape:connector-curvature="0" />
	<path style="fill:none;stroke:red;stroke-width:1px;stroke-linecap:butt;stroke-linejoin:miter;stroke-opacity:1" d="M 495.571,473.429 497.786,453.5 z" id="boundary" inkscape:connector-curvature="0" />
	<path style="fill:none;stroke:red;stroke-width:1px;stroke-linecap:butt;stroke-linejoin:miter;stroke-opacity:1" d="M 496.679,62.6786 507.75,59.3571 z" id="boundary" inkscape:connector-curvature="0" />
	<path style="fill:none;stroke:red;stroke-width:1px;stroke-linecap:butt;stroke-linejoin:miter;stroke-opacity:1" d="M 497.786,453.5 503.321,436.893 z" id="boundary" inkscape:connector-curvature="0" />
	<path style="fill:none;stroke:red;stroke-width:1px;stroke-linecap:butt;stroke-linejoin:miter;stroke-opacity:1" d="M 503.321,414.75 503.321,425.821 z" id="boundary" inkscape:connector-curvature="0" />
	<path style="fill:none;stroke:red;stroke-width:1px;stroke-linecap:butt;stroke-linejoin:miter;stroke-opacity:1" d="M 503.321,414.75 513.286,409.214 z" id="boundary" inkscape:connector-curvature="0" />
	<path style="fill:none;stroke:red;stroke-width:1px;stroke-linecap:butt;stroke-linejoin:miter;stroke-opacity:1" d="M 503.321,425.821 503.321,436.893 z" id="boundary" inkscape:connector-curvature="0" />
	<path style="fill:none;stroke:red;stroke-width:1px;stroke-linecap:butt;stroke-linejoin:miter;stroke-opacity:1" d="M 507.75,59.3571 517.714,53.8214 z" id="boundary" inkscape:connector-curvature="0" />
	<path style="fill:none;stroke:red;stroke-width:1px;stroke-linecap:butt;stroke-linejoin:miter;stroke-opacity:1" d="M 513.286,409.214 519.929,418.071 z" id="boundary" inkscape:connector-curvature="0" />
	<path style="fill:none;stroke:red;stroke-width:1px;stroke-linecap:butt;stroke-linejoin:miter;stroke-opacity:1" d="M 517.714,53.8214 528.786,53.8214 z" id="boundary" inkscape:connector-curvature="0" />
	<path style="fill:none;stroke:red;stroke-width:1px;stroke-linecap:butt;stroke-linejoin:miter;stroke-opacity:1" d="M 519.929,418.071 531,422.5 z" id="boundary" inkscape:connector-curvature="0" />
	<path style="fill:none;stroke:red;stroke-width:1px;stroke-linecap:butt;stroke-linejoin:miter;stroke-opacity:1" d="M 528.786,53.8214 539.857,54.9286 z" id="boundary" inkscape:connector-curvature="0" />
	<path style="fill:none;stroke:red;stroke-width:1px;stroke-linecap:butt;stroke-linejoin:miter;stroke-opacity:1" d="M 531,422.5 535.429,433.571 z" id="boundary" inkscape:connector-curvature="0" />
	<path style="fill:none;stroke:red;stroke-width:1px;stroke-linecap:butt;stroke-linejoin:miter;stroke-opacity:1" d="M 535.429,433.571 546.5,436.893 z" id="boundary" inkscape:connector-curvature="0" />
	<path style="fill:none;stroke:red;stroke-width:1px;stroke-linecap:butt;stroke-linejoin:miter;stroke-opacity:1" d="M 539.857,54.9286 549.821,60.4643 z" id="boundary" inkscape:connector-curvature="0" />
	<path style="fill:none;stroke:red;stroke-width:1px;stroke-linecap:butt;stroke-linejoin:miter;stroke-opacity:1" d="M 546.5,436.893 552.036,446.857 z" id="boundary" inkscape:connector-curvature="0" />
	<path style="fill:none;stroke:red;stroke-width:1px;stroke-linecap:butt;stroke-linejoin:miter;stroke-opacity:1" d="M 546.5,577.5 546.5,588.571 z" id="boundary" inkscape:connector-curvature="0" />
	<path style="fill:none;stroke:red;stroke-width:1px;stroke-linecap:butt;stroke-linejoin:miter;stroke-opacity:1" d="M 546.5,577.5 557.571,571.964 z" id="boundary" inkscape:connector-curvature="0" />
	<path style="fill:none;stroke:red;stroke-width:1px;stroke-linecap:butt;stroke-linejoin:miter;stroke-opacity:1" d="M 546.5,588.571 557.571,591.893 z" id="boundary" inkscape:connector-curvature="0" />
	<path style="fill:none;stroke:red;stroke-width:1px;stroke-linecap:butt;stroke-linejoin:miter;stroke-opacity:1" d="M 549.821,60.4643 560.893,64.8929 z" id="boundary" inkscape:connector-curvature="0" />
	<path style="fill:none;stroke:red;stroke-width:1px;stroke-linecap:butt;stroke-linejoin:miter;stroke-opacity:1" d="M 552.036,446.857 560.893,453.5 z" id="boundary" inkscape:connector-curvature="0" />
	<path style="fill:none;stroke:red;stroke-width:1px;stroke-linecap:butt;stroke-linejoin:miter;stroke-opacity:1" d="M 557.571,571.964 566.429,563.107 z" id="boundary" inkscape:connector-curvature="0" />
	<path style="fill:none;stroke:red;stroke-width:1px;stroke-linecap:butt;stroke-linejoin:miter;stroke-opacity:1" d="M 557.571,591.893 568.643,591.893 z" id="boundary" inkscape:connector-curvature="0" />
	<path style="fill:none;stroke:red;stroke-width:1px;stroke-linecap:butt;stroke-linejoin:miter;stroke-opacity:1" d="M 560.893,64.8929 571.964,64.8929 z" id="boundary" inkscape:connector-curvature="0" />
	<path style="fill:none;stroke:red;stroke-width:1px;stroke-linecap:butt;stroke-linejoin:miter;stroke-opacity:1" d="M 560.893,453.5 563.107,464.571 z" id="boundary" inkscape:connector-curvature="0" />
	<path style="fill:none;stroke:red;stroke-width:1px;stroke-linecap:butt;stroke-linejoin:miter;stroke-opacity:1" d="M 563.107,464.571 568.643,474.536 z" id="boundary" inkscape:connector-curvature="0" />
	<path style="fill:none;stroke:red;stroke-width:1px;stroke-linecap:butt;stroke-linejoin:miter;stroke-opacity:1" d="M 566.429,563.107 575.286,554.25 z" id="boundary" inkscape:connector-curvature="0" />
	<path style="fill:none;stroke:red;stroke-width:1px;stroke-linecap:butt;stroke-linejoin:miter;stroke-opacity:1" d="M 568.643,474.536 574.179,484.5 z" id="boundary" inkscape:connector-curvature="0" />
	<path style="fill:none;stroke:red;stroke-width:1px;stroke-linecap:butt;stroke-linejoin:miter;stroke-opacity:1" d="M 568.643,591.893 578.607,597.429 z" id="boundary" inkscape:connector-curvature="0" />
	<path style="fill:none;stroke:red;stroke-width:1px;stroke-linecap:butt;stroke-linejoin:miter;stroke-opacity:1" d="M 569.75,342.786 569.75,353.857 z" id="boundary" inkscape:connector-curvature="0" />
	<path style="fill:none;stroke:red;stroke-width:1px;stroke-linecap:butt;stroke-linejoin:miter;stroke-opacity:1" d="M 569.75,342.786 575.286,331.714 z" id="boundary" inkscape:connector-curvature="0" />
	<path style="fill:none;stroke:red;stroke-width:1px;stroke-linecap:butt;stroke-linejoin:miter;stroke-opacity:1" d="M 569.75,353.857 575.286,363.821 z" id="boundary" inkscape:connector-curvature="0" />
	<path style="fill:none;stroke:red;stroke-width:1px;stroke-linecap:butt;stroke-linejoin:miter;stroke-opacity:1" d="M 571.964,64.8929 583.036,64.8929 z" id="boundary" inkscape:connector-curvature="0" />
	<path style="fill:none;stroke:red;stroke-width:1px;stroke-linecap:butt;stroke-linejoin:miter;stroke-opacity:1" d="M 574.179,484.5 575.286,495.571 z" id="boundary" inkscape:connector-curvature="0" />
	<path style="fill:none;stroke:red;stroke-width:1px;stroke-linecap:butt;stroke-linejoin:miter;stroke-opacity:1" d="M 575.286,331.714 584.143,323.964 z" id="boundary" inkscape:connector-curvature="0" />
	<path style="fill:none;stroke:red;stroke-width:1px;stroke-linecap:butt;stroke-linejoin:miter;stroke-opacity:1" d="M 575.286,363.821 580.821,373.786 z" id="boundary" inkscape:connector-curvature="0" />
	<path style="fill:none;stroke:red;stroke-width:1px;stroke-linecap:butt;stroke-linejoin:miter;stroke-opacity:1" d="M 575.286,495.571 579.714,506.643 z" id="boundary" inkscape:connector-curvature="0" />
	<path style="fill:none;stroke:red;stroke-width:1px;stroke-linecap:butt;stroke-linejoin:miter;stroke-opacity:1" d="M 575.286,554.25 585.25,538.75 z" id="boundary" inkscape:connector-curvature="0" />
	<path style="fill:none;stroke:red;stroke-width:1px;stroke-linecap:butt;stroke-linejoin:miter;stroke-opacity:1" d="M 578.607,597.429 588.571,602.964 z" id="boundary" inkscape:connector-curvature="0" />
	<path style="fill:none;stroke:red;stroke-width:1px;stroke-linecap:butt;stroke-linejoin:miter;stroke-opacity:1" d="M 579.714,506.643 585.25,516.607 z" id="boundary" inkscape:connector-curvature="0" />
	<path style="fill:none;stroke:red;stroke-width:1px;stroke-linecap:butt;stroke-linejoin:miter;stroke-opacity:1" d="M 580.821,373.786 580.821,384.857 z" id="boundary" inkscape:connector-curvature="0" />
	<path style="fill:none;stroke:red;stroke-width:1px;stroke-linecap:butt;stroke-linejoin:miter;stroke-opacity:1" d="M 580.821,384.857 586.357,394.821 z" id="boundary" inkscape:connector-curvature="0" />
	<path style="fill:none;stroke:red;stroke-width:1px;stroke-linecap:butt;stroke-linejoin:miter;stroke-opacity:1" d="M 583.036,64.8929 593,70.4286 z" id="boundary" inkscape:connector-curvature="0" />
	<path style="fill:none;stroke:red;stroke-width:1px;stroke-linecap:butt;stroke-linejoin:miter;stroke-opacity:1" d="M 584.143,323.964 591.893,309.571 z" id="boundary" inkscape:connector-curvature="0" />
	<path style="fill:none;stroke:red;stroke-width:1px;stroke-linecap:butt;stroke-linejoin:miter;stroke-opacity:1" d="M 585.25,516.607 585.25,527.679 z" id="boundary" inkscape:connector-curvature="0" />
	<path style="fill:none;stroke:red;stroke-width:1px;stroke-linecap:butt;stroke-linejoin:miter;stroke-opacity:1" d="M 585.25,527.679 585.25,538.75 z" id="boundary" inkscape:connector-curvature="0" />
	<path style="fill:none;stroke:red;stroke-width:1px;stroke-linecap:butt;stroke-linejoin:miter;stroke-opacity:1" d="M 586.357,394.821 590.786,405.893 z" id="boundary" inkscape:connector-curvature="0" />
	<path style="fill:none;stroke:red;stroke-width:1px;stroke-linecap:butt;stroke-linejoin:miter;stroke-opacity:1" d="M 588.571,602.964 598.536,597.429 z" id="boundary" inkscape:connector-curvature="0" />
	<path style="fill:none;stroke:red;stroke-width:1px;stroke-linecap:butt;stroke-linejoin:miter;stroke-opacity:1" d="M 590.786,405.893 591.893,416.964 z" id="boundary" inkscape:connector-curvature="0" />
	<path style="fill:none;stroke:red;stroke-width:1px;stroke-linecap:butt;stroke-linejoin:miter;stroke-opacity:1" d="M 591.893,309.571 597.429,298.5 z" id="boundary" inkscape:connector-curvature="0" />
	<path style="fill:none;stroke:red;stroke-width:1px;stroke-linecap:butt;stroke-linejoin:miter;stroke-opacity:1" d="M 591.893,416.964 599.643,425.821 z" id="boundary" inkscape:connector-curvature="0" />
	<path style="fill:none;stroke:red;stroke-width:1px;stroke-linecap:butt;stroke-linejoin:miter;stroke-opacity:1" d="M 593,70.4286 604.071,70.4286 z" id="boundary" inkscape:connector-curvature="0" />
	<path style="fill:none;stroke:red;stroke-width:1px;stroke-linecap:butt;stroke-linejoin:miter;stroke-opacity:1" d="M 597.429,298.5 606.286,290.75 z" id="boundary" inkscape:connector-curvature="0" />
	<path style="fill:none;stroke:red;stroke-width:1px;stroke-linecap:butt;stroke-linejoin:miter;stroke-opacity:1" d="M 598.536,597.429 608.5,591.893 z" id="boundary" inkscape:connector-curvature="0" />
	<path style="fill:none;stroke:red;stroke-width:1px;stroke-linecap:butt;stroke-linejoin:miter;stroke-opacity:1" d="M 599.643,425.821 605.179,435.786 z" id="boundary" inkscape:connector-curvature="0" />
	<path style="fill:none;stroke:red;stroke-width:1px;stroke-linecap:butt;stroke-linejoin:miter;stroke-opacity:1" d="M 604.071,70.4286 614.036,75.9643 z" id="boundary" inkscape:connector-curvature="0" />
	<path style="fill:none;stroke:red;stroke-width:1px;stroke-linecap:butt;stroke-linejoin:miter;stroke-opacity:1" d="M 605.179,435.786 614.036,442.429 z" id="boundary" inkscape:connector-curvature="0" />
	<path style="fill:none;stroke:red;stroke-width:1px;stroke-linecap:butt;stroke-linejoin:miter;stroke-opacity:1" d="M 606.286,290.75 617.357,285.214 z" id="boundary" inkscape:connector-curvature="0" />
	<path style="fill:none;stroke:red;stroke-width:1px;stroke-linecap:butt;stroke-linejoin:miter;stroke-opacity:1" d="M 608.5,591.893 619.571,591.893 z" id="boundary" inkscape:connector-curvature="0" />
	<path style="fill:none;stroke:red;stroke-width:1px;stroke-linecap:butt;stroke-linejoin:miter;stroke-opacity:1" d="M 614.036,75.9643 624,81.5 z" id="boundary" inkscape:connector-curvature="0" />
	<path style="fill:none;stroke:red;stroke-width:1px;stroke-linecap:butt;stroke-linejoin:miter;stroke-opacity:1" d="M 614.036,442.429 619.571,452.393 z" id="boundary" inkscape:connector-curvature="0" />
	<path style="fill:none;stroke:red;stroke-width:1px;stroke-linecap:butt;stroke-linejoin:miter;stroke-opacity:1" d="M 617.357,285.214 628.429,279.679 z" id="boundary" inkscape:connector-curvature="0" />
	<path style="fill:none;stroke:red;stroke-width:1px;stroke-linecap:butt;stroke-linejoin:miter;stroke-opacity:1" d="M 619.571,452.393 619.571,463.464 z" id="boundary" inkscape:connector-curvature="0" />
	<path style="fill:none;stroke:red;stroke-width:1px;stroke-linecap:butt;stroke-linejoin:miter;stroke-opacity:1" d="M 619.571,463.464 625.107,473.429 z" id="boundary" inkscape:connector-curvature="0" />
	<path style="fill:none;stroke:red;stroke-width:1px;stroke-linecap:butt;stroke-linejoin:miter;stroke-opacity:1" d="M 619.571,591.893 630.643,586.357 z" id="boundary" inkscape:connector-curvature="0" />
	<path style="fill:none;stroke:red;stroke-width:1px;stroke-linecap:butt;stroke-linejoin:miter;stroke-opacity:1" d="M 624,81.5 635.071,81.5 z" id="boundary" inkscape:connector-curvature="0" />
	<path style="fill:none;stroke:red;stroke-width:1px;stroke-linecap:butt;stroke-linejoin:miter;stroke-opacity:1" d="M 625.107,473.429 625.107,484.5 z" id="boundary" inkscape:connector-curvature="0" />
	<path style="fill:none;stroke:red;stroke-width:1px;stroke-linecap:butt;stroke-linejoin:miter;stroke-opacity:1" d="M 625.107,484.5 625.107,495.571 z" id="boundary" inkscape:connector-curvature="0" />
	<path style="fill:none;stroke:red;stroke-width:1px;stroke-linecap:butt;stroke-linejoin:miter;stroke-opacity:1" d="M 625.107,495.571 625.107,506.643 z" id="boundary" inkscape:connector-curvature="0" />
	<path style="fill:none;stroke:red;stroke-width:1px;stroke-linecap:butt;stroke-linejoin:miter;stroke-opacity:1" d="M 625.107,506.643 625.107,517.714 z" id="boundary" inkscape:connector-curvature="0" />
	<path style="fill:none;stroke:red;stroke-width:1px;stroke-linecap:butt;stroke-linejoin:miter;stroke-opacity:1" d="M 625.107,517.714 630.643,527.679 z" id="boundary" inkscape:connector-curvature="0" />
	<path style="fill:none;stroke:red;stroke-width:1px;stroke-linecap:butt;stroke-linejoin:miter;stroke-opacity:1" d="M 628.429,279.679 639.5,276.357 z" id="boundary" inkscape:connector-curvature="0" />
	<path style="fill:none;stroke:red;stroke-width:1px;stroke-linecap:butt;stroke-linejoin:miter;stroke-opacity:1" d="M 630.643,527.679 635.071,538.75 z" id="boundary" inkscape:connector-curvature="0" />
	<path style="fill:none;stroke:red;stroke-width:1px;stroke-linecap:butt;stroke-linejoin:miter;stroke-opacity:1" d="M 630.643,586.357 636.179,575.286 z" id="boundary" inkscape:connector-curvature="0" />
	<path style="fill:none;stroke:red;stroke-width:1px;stroke-linecap:butt;stroke-linejoin:miter;stroke-opacity:1" d="M 635.071,81.5 646.143,83.7143 z" id="boundary" inkscape:connector-curvature="0" />
	<path style="fill:none;stroke:red;stroke-width:1px;stroke-linecap:butt;stroke-linejoin:miter;stroke-opacity:1" d="M 635.071,538.75 636.179,549.821 z" id="boundary" inkscape:connector-curvature="0" />
	<path style="fill:none;stroke:red;stroke-width:1px;stroke-linecap:butt;stroke-linejoin:miter;stroke-opacity:1" d="M 636.179,549.821 641.714,559.786 z" id="boundary" inkscape:connector-curvature="0" />
	<path style="fill:none;stroke:red;stroke-width:1px;stroke-linecap:butt;stroke-linejoin:miter;stroke-opacity:1" d="M 636.179,575.286 641.714,559.786 z" id="boundary" inkscape:connector-curvature="0" />
	<path style="fill:none;stroke:red;stroke-width:1px;stroke-linecap:butt;stroke-linejoin:miter;stroke-opacity:1" d="M 639.5,276.357 650.571,276.357 z" id="boundary" inkscape:connector-curvature="0" />
	<path style="fill:none;stroke:red;stroke-width:1px;stroke-linecap:butt;stroke-linejoin:miter;stroke-opacity:1" d="M 646.143,83.7143 656.107,89.25 z" id="boundary" inkscape:connector-curvature="0" />
	<path style="fill:none;stroke:red;stroke-width:1px;stroke-linecap:butt;stroke-linejoin:miter;stroke-opacity:1" d="M 650.571,276.357 661.643,276.357 z" id="boundary" inkscape:connector-curvature="0" />
	<path style="fill:none;stroke:red;stroke-width:1px;stroke-linecap:butt;stroke-linejoin:miter;stroke-opacity:1" d="M 656.107,89.25 663.857,98.1071 z" id="boundary" inkscape:connector-curvature="0" />
	<path style="fill:none;stroke:red;stroke-width:1px;stroke-linecap:butt;stroke-linejoin:miter;stroke-opacity:1" d="M 661.643,276.357 672.714,276.357 z" id="boundary" inkscape:connector-curvature="0" />
	<path style="fill:none;stroke:red;stroke-width:1px;stroke-linecap:butt;stroke-linejoin:miter;stroke-opacity:1" d="M 663.857,98.1071 673.821,103.643 z" id="boundary" inkscape:connector-curvature="0" />
	<path style="fill:none;stroke:red;stroke-width:1px;stroke-linecap:butt;stroke-linejoin:miter;stroke-opacity:1" d="M 672.714,276.357 683.786,276.357 z" id="boundary" inkscape:connector-curvature="0" />
	<path style="fill:none;stroke:red;stroke-width:1px;stroke-linecap:butt;stroke-linejoin:miter;stroke-opacity:1" d="M 673.821,103.643 683.786,109.179 z" id="boundary" inkscape:connector-curvature="0" />
	<path style="fill:none;stroke:red;stroke-width:1px;stroke-linecap:butt;stroke-linejoin:miter;stroke-opacity:1" d="M 683.786,109.179 693.75,114.714 z" id="boundary" inkscape:connector-curvature="0" />
	<path style="fill:none;stroke:red;stroke-width:1px;stroke-linecap:butt;stroke-linejoin:miter;stroke-opacity:1" d="M 683.786,276.357 694.857,276.357 z" id="boundary" inkscape:connector-curvature="0" />
	<path style="fill:none;stroke:red;stroke-width:1px;stroke-linecap:butt;stroke-linejoin:miter;stroke-opacity:1" d="M 693.75,114.714 703.714,120.25 z" id="boundary" inkscape:connector-curvature="0" />
	<path style="fill:none;stroke:red;stroke-width:1px;stroke-linecap:butt;stroke-linejoin:miter;stroke-opacity:1" d="M 694.857,276.357 704.821,281.893 z" id="boundary" inkscape:connector-curvature="0" />
	<path style="fill:none;stroke:red;stroke-width:1px;stroke-linecap:butt;stroke-linejoin:miter;stroke-opacity:1" d="M 703.714,120.25 713.679,125.786 z" id="boundary" inkscape:connector-curvature="0" />
	<path style="fill:none;stroke:red;stroke-width:1px;stroke-linecap:butt;stroke-linejoin:miter;stroke-opacity:1" d="M 704.821,281.893 715.893,281.893 z" id="boundary" inkscape:connector-curvature="0" />
	<path style="fill:none;stroke:red;stroke-width:1px;stroke-linecap:butt;stroke-linejoin:miter;stroke-opacity:1" d="M 713.679,125.786 722.536,132.429 z" id="boundary" inkscape:connector-curvature="0" />
	<path style="fill:none;stroke:red;stroke-width:1px;stroke-linecap:butt;stroke-linejoin:miter;stroke-opacity:1" d="M 715.893,281.893 726.964,281.893 z" id="boundary" inkscape:connector-curvature="0" />
	<path style="fill:none;stroke:red;stroke-width:1px;stroke-linecap:butt;stroke-linejoin:miter;stroke-opacity:1" d="M 722.536,132.429 732.5,137.964 z" id="boundary" inkscape:connector-curvature="0" />
	<path style="fill:none;stroke:red;stroke-width:1px;stroke-linecap:butt;stroke-linejoin:miter;stroke-opacity:1" d="M 726.964,281.893 738.036,281.893 z" id="boundary" inkscape:connector-curvature="0" />
	<path style="fill:none;stroke:red;stroke-width:1px;stroke-linecap:butt;stroke-linejoin:miter;stroke-opacity:1" d="M 732.5,137.964 741.357,145.714 z" id="boundary" inkscape:connector-curvature="0" />
	<path style="fill:none;stroke:red;stroke-width:1px;stroke-linecap:butt;stroke-linejoin:miter;stroke-opacity:1" d="M 738.036,281.893 748,276.357 z" id="boundary" inkscape:connector-curvature="0" />
	<path style="fill:none;stroke:red;stroke-width:1px;stroke-linecap:butt;stroke-linejoin:miter;stroke-opacity:1" d="M 741.357,145.714 752.429,147.929 z" id="boundary" inkscape:connector-curvature="0" />
	<path style="fill:none;stroke:red;stroke-width:1px;stroke-linecap:butt;stroke-linejoin:miter;stroke-opacity:1" d="M 748,276.357 759.071,276.357 z" id="boundary" inkscape:connector-curvature="0" />
	<path style="fill:none;stroke:red;stroke-width:1px;stroke-linecap:butt;stroke-linejoin:miter;stroke-opacity:1" d="M 752.429,147.929 763.5,151.25 z" id="boundary" inkscape:connector-curvature="0" />
	<path style="fill:none;stroke:red;stroke-width:1px;stroke-linecap:butt;stroke-linejoin:miter;stroke-opacity:1" d="M 759.071,276.357 770.143,276.357 z" id="boundary" inkscape:connector-curvature="0" />
	<path style="fill:none;stroke:red;stroke-width:1px;stroke-linecap:butt;stroke-linejoin:miter;stroke-opacity:1" d="M 763.5,151.25 774.571,153.464 z" id="boundary" inkscape:connector-curvature="0" />
	<path style="fill:none;stroke:red;stroke-width:1px;stroke-linecap:butt;stroke-linejoin:miter;stroke-opacity:1" d="M 770.143,276.357 781.214,276.357 z" id="boundary" inkscape:connector-curvature="0" />
	<path style="fill:none;stroke:red;stroke-width:1px;stroke-linecap:butt;stroke-linejoin:miter;stroke-opacity:1" d="M 774.571,153.464 785.643,153.464 z" id="boundary" inkscape:connector-curvature="0" />
	<path style="fill:none;stroke:red;stroke-width:1px;stroke-linecap:butt;stroke-linejoin:miter;stroke-opacity:1" d="M 781.214,276.357 791.179,270.821 z" id="boundary" inkscape:connector-curvature="0" />
	<path style="fill:none;stroke:red;stroke-width:1px;stroke-linecap:butt;stroke-linejoin:miter;stroke-opacity:1" d="M 785.643,153.464 795.607,159 z" id="boundary" inkscape:connector-curvature="0" />
	<path style="fill:none;stroke:red;stroke-width:1px;stroke-linecap:butt;stroke-linejoin:miter;stroke-opacity:1" d="M 791.179,270.821 801.143,265.286 z" id="boundary" inkscape:connector-curvature="0" />
	<path style="fill:none;stroke:red;stroke-width:1px;stroke-linecap:butt;stroke-linejoin:miter;stroke-opacity:1" d="M 795.607,159 804.464,165.643 z" id="boundary" inkscape:connector-curvature="0" />
	<path style="fill:none;stroke:red;stroke-width:1px;stroke-linecap:butt;stroke-linejoin:miter;stroke-opacity:1" d="M 801.143,265.286 812.214,261.964 z" id="boundary" inkscape:connector-curvature="0" />
	<path style="fill:none;stroke:red;stroke-width:1px;stroke-linecap:butt;stroke-linejoin:miter;stroke-opacity:1" d="M 804.464,165.643 815.536,170.071 z" id="boundary" inkscape:connector-curvature="0" />
	<path style="fill:none;stroke:red;stroke-width:1px;stroke-linecap:butt;stroke-linejoin:miter;stroke-opacity:1" d="M 812.214,261.964 823.286,256.429 z" id="boundary" inkscape:connector-curvature="0" />
	<path style="fill:none;stroke:red;stroke-width:1px;stroke-linecap:butt;stroke-linejoin:miter;stroke-opacity:1" d="M 815.536,170.071 825.5,164.536 z" id="boundary" inkscape:connector-curvature="0" />
	<path style="fill:none;stroke:red;stroke-width:1px;stroke-linecap:butt;stroke-linejoin:miter;stroke-opacity:1" d="M 823.286,256.429 834.357,250.893 z" id="boundary" inkscape:connector-curvature="0" />
	<path style="fill:none;stroke:red;stroke-width:1px;stroke-linecap:butt;stroke-linejoin:miter;stroke-opacity:1" d="M 825.5,164.536 835.464,159 z" id="boundary" inkscape:connector-curvature="0" />
	<path style="fill:none;stroke:red;stroke-width:1px;stroke-linecap:butt;stroke-linejoin:miter;stroke-opacity:1" d="M 834.357,250.893 845.429,245.357 z" id="boundary" inkscape:connector-curvature="0" />
	<path style="fill:none;stroke:red;stroke-width:1px;stroke-linecap:butt;stroke-linejoin:miter;stroke-opacity:1" d="M 835.464,159 845.429,153.464 z" id="boundary" inkscape:connector-curvature="0" />
	<path style="fill:none;stroke:red;stroke-width:1px;stroke-linecap:butt;stroke-linejoin:miter;stroke-opacity:1" d="M 845.429,153.464 855.393,147.929 z" id="boundary" inkscape:connector-curvature="0" />
	<path style="fill:none;stroke:red;stroke-width:1px;stroke-linecap:butt;stroke-linejoin:miter;stroke-opacity:1" d="M 845.429,245.357 856.5,243.143 z" id="boundary" inkscape:connector-curvature="0" />
	<path style="fill:none;stroke:red;stroke-width:1px;stroke-linecap:butt;stroke-linejoin:miter;stroke-opacity:1" d="M 855.393,147.929 866.464,147.929 z" id="boundary" inkscape:connector-curvature="0" />
	<path style="fill:none;stroke:red;stroke-width:1px;stroke-linecap:butt;stroke-linejoin:miter;stroke-opacity:1" d="M 856.5,243.143 865.357,236.5 z" id="boundary" inkscape:connector-curvature="0" />
	<path style="fill:none;stroke:red;stroke-width:1px;stroke-linecap:butt;stroke-linejoin:miter;stroke-opacity:1" d="M 865.357,236.5 876.429,230.964 z" id="boundary" inkscape:connector-curvature="0" />
	<path style="fill:none;stroke:red;stroke-width:1px;stroke-linecap:butt;stroke-linejoin:miter;stroke-opacity:1" d="M 866.464,147.929 876.429,142.393 z" id="boundary" inkscape:connector-curvature="0" />
	<path style="fill:none;stroke:red;stroke-width:1px;stroke-linecap:butt;stroke-linejoin:miter;stroke-opacity:1" d="M 876.429,142.393 887.5,142.393 z" id="boundary" inkscape:connector-curvature="0" />
	<path style="fill:none;stroke:red;stroke-width:1px;stroke-linecap:butt;stroke-linejoin:miter;stroke-opacity:1" d="M 876.429,230.964 887.5,225.429 z" id="boundary" inkscape:connector-curvature="0" />
	<path style="fill:none;stroke:red;stroke-width:1px;stroke-linecap:butt;stroke-linejoin:miter;stroke-opacity:1" d="M 887.5,142.393 898.571,136.857 z" id="boundary" inkscape:connector-curvature="0" />
	<path style="fill:none;stroke:red;stroke-width:1px;stroke-linecap:butt;stroke-linejoin:miter;stroke-opacity:1" d="M 887.5,225.429 896.357,215.464 z" id="boundary" inkscape:connector-curvature="0" />
	<path style="fill:none;stroke:red;stroke-width:1px;stroke-linecap:butt;stroke-linejoin:miter;stroke-opacity:1" d="M 889.714,7.32143 889.714,18.3929 z" id="boundary" inkscape:connector-curvature="0" />
	<path style="fill:none;stroke:red;stroke-width:1px;stroke-linecap:butt;stroke-linejoin:miter;stroke-opacity:1" d="M 889.714,7.32143 900.786,4 z" id="boundary" inkscape:connector-curvature="0" />
	<path style="fill:none;stroke:red;stroke-width:1px;stroke-linecap:butt;stroke-linejoin:miter;stroke-opacity:1" d="M 889.714,18.3929 898.571,26.1429 z" id="boundary" inkscape:connector-curvature="0" />
	<path style="fill:none;stroke:red;stroke-width:1px;stroke-linecap:butt;stroke-linejoin:miter;stroke-opacity:1" d="M 896.357,215.464 907.429,215.464 z" id="boundary" inkscape:connector-curvature="0" />
	<path style="fill:none;stroke:red;stroke-width:1px;stroke-linecap:butt;stroke-linejoin:miter;stroke-opacity:1" d="M 898.571,26.1429 909.643,27.25 z" id="boundary" inkscape:connector-curvature="0" />
	<path style="fill:none;stroke:red;stroke-width:1px;stroke-linecap:butt;stroke-linejoin:miter;stroke-opacity:1" d="M 898.571,136.857 909.643,131.321 z" id="boundary" inkscape:connector-curvature="0" />
	<path style="fill:none;stroke:red;stroke-width:1px;stroke-linecap:butt;stroke-linejoin:miter;stroke-opacity:1" d="M 900.786,4 911.857,6.21429 z" id="boundary" inkscape:connector-curvature="0" />
	<path style="fill:none;stroke:red;stroke-width:1px;stroke-linecap:butt;stroke-linejoin:miter;stroke-opacity:1" d="M 907.429,215.464 916.286,207.714 z" id="boundary" inkscape:connector-curvature="0" />
	<path style="fill:none;stroke:red;stroke-width:1px;stroke-linecap:butt;stroke-linejoin:miter;stroke-opacity:1" d="M 909.643,27.25 918.5,35 z" id="boundary" inkscape:connector-curvature="0" />
	<path style="fill:none;stroke:red;stroke-width:1px;stroke-linecap:butt;stroke-linejoin:miter;stroke-opacity:1" d="M 909.643,131.321 918.5,122.464 z" id="boundary" inkscape:connector-curvature="0" />
	<path style="fill:none;stroke:red;stroke-width:1px;stroke-linecap:butt;stroke-linejoin:miter;stroke-opacity:1" d="M 911.857,6.21429 922.929,9.53571 z" id="boundary" inkscape:connector-curvature="0" />
	<path style="fill:none;stroke:red;stroke-width:1px;stroke-linecap:butt;stroke-linejoin:miter;stroke-opacity:1" d="M 916.286,207.714 927.357,202.179 z" id="boundary" inkscape:connector-curvature="0" />
	<path style="fill:none;stroke:red;stroke-width:1px;stroke-linecap:butt;stroke-linejoin:miter;stroke-opacity:1" d="M 918.5,35 928.464,40.5357 z" id="boundary" inkscape:connector-curvature="0" />
	<path style="fill:none;stroke:red;stroke-width:1px;stroke-linecap:butt;stroke-linejoin:miter;stroke-opacity:1" d="M 918.5,122.464 928.464,112.5 z" id="boundary" inkscape:connector-curvature="0" />
	<path style="fill:none;stroke:red;stroke-width:1px;stroke-linecap:butt;stroke-linejoin:miter;stroke-opacity:1" d="M 922.929,9.53571 932.893,15.0714 z" id="boundary" inkscape:connector-curvature="0" />
	<path style="fill:none;stroke:red;stroke-width:1px;stroke-linecap:butt;stroke-linejoin:miter;stroke-opacity:1" d="M 927.357,202.179 935.107,193.321 z" id="boundary" inkscape:connector-curvature="0" />
	<path style="fill:none;stroke:red;stroke-width:1px;stroke-linecap:butt;stroke-linejoin:miter;stroke-opacity:1" d="M 928.464,40.5357 937.321,48.2857 z" id="boundary" inkscape:connector-curvature="0" />
	<path style="fill:none;stroke:red;stroke-width:1px;stroke-linecap:butt;stroke-linejoin:miter;stroke-opacity:1" d="M 928.464,112.5 937.321,103.643 z" id="boundary" inkscape:connector-curvature="0" />
	<path style="fill:none;stroke:red;stroke-width:1px;stroke-linecap:butt;stroke-linejoin:miter;stroke-opacity:1" d="M 932.893,15.0714 943.964,16.1786 z" id="boundary" inkscape:connector-curvature="0" />
	<path style="fill:none;stroke:red;stroke-width:1px;stroke-linecap:butt;stroke-linejoin:miter;stroke-opacity:1" d="M 935.107,193.321 943.964,185.571 z" id="boundary" inkscape:connector-curvature="0" />
	<path style="fill:none;stroke:red;stroke-width:1px;stroke-linecap:butt;stroke-linejoin:miter;stroke-opacity:1" d="M 937.321,48.2857 945.071,57.1429 z" id="boundary" inkscape:connector-curvature="0" />
	<path style="fill:none;stroke:red;stroke-width:1px;stroke-linecap:butt;stroke-linejoin:miter;stroke-opacity:1" d="M 937.321,103.643 945.071,90.3571 z" id="boundary" inkscape:connector-curvature="0" />
	<path style="fill:none;stroke:red;stroke-width:1px;stroke-linecap:butt;stroke-linejoin:miter;stroke-opacity:1" d="M 943.964,16.1786 951.714,25.0357 z" id="boundary" inkscape:connector-curvature="0" />
	<path style="fill:none;stroke:red;stroke-width:1px;stroke-linecap:butt;stroke-linejoin:miter;stroke-opacity:1" d="M 943.964,185.571 951.714,176.714 z" id="boundary" inkscape:connector-curvature="0" />
	<path style="fill:none;stroke:red;stroke-width:1px;stroke-linecap:butt;stroke-linejoin:miter;stroke-opacity:1" d="M 945.071,57.1429 950.607,67.1071 z" id="boundary" inkscape:connector-curvature="0" />
	<path style="fill:none;stroke:red;stroke-width:1px;stroke-linecap:butt;stroke-linejoin:miter;stroke-opacity:1" d="M 945.071,90.3571 950.607,78.1786 z" id="boundary" inkscape:connector-curvature="0" />
	<path style="fill:none;stroke:red;stroke-width:1px;stroke-linecap:butt;stroke-linejoin:miter;stroke-opacity:1" d="M 950.607,67.1071 950.607,78.1786 z" id="boundary" inkscape:connector-curvature="0" />
	<path style="fill:none;stroke:red;stroke-width:1px;stroke-linecap:butt;stroke-linejoin:miter;stroke-opacity:1" d="M 951.714,25.0357 960.571,32.7857 z" id="boundary" inkscape:connector-curvature="0" />
	<path style="fill:none;stroke:red;stroke-width:1px;stroke-linecap:butt;stroke-linejoin:miter;stroke-opacity:1" d="M 951.714,176.714 960.571,168.964 z" id="boundary" inkscape:connector-curvature="0" />
	<path style="fill:none;stroke:red;stroke-width:1px;stroke-linecap:butt;stroke-linejoin:miter;stroke-opacity:1" d="M 960.571,32.7857 968.321,41.6429 z" id="boundary" inkscape:connector-curvature="0" />
	<path style="fill:none;stroke:red;stroke-width:1px;stroke-linecap:butt;stroke-linejoin:miter;stroke-opacity:1" d="M 960.571,168.964 968.321,160.107 z" id="boundary" inkscape:connector-curvature="0" />
	<path style="fill:none;stroke:red;stroke-width:1px;stroke-linecap:butt;stroke-linejoin:miter;stroke-opacity:1" d="M 968.321,41.6429 973.857,51.6071 z" id="boundary" inkscape:connector-curvature="0" />
	<path style="fill:none;stroke:red;stroke-width:1px;stroke-linecap:butt;stroke-linejoin:miter;stroke-opacity:1" d="M 968.321,160.107 977.179,152.357 z" id="boundary" inkscape:connector-curvature="0" />
	<path style="fill:none;stroke:red;stroke-width:1px;stroke-linecap:butt;stroke-linejoin:miter;stroke-opacity:1" d="M 973.857,51.6071 979.393,61.5714 z" id="boundary" inkscape:connector-curvature="0" />
	<path style="fill:none;stroke:red;stroke-width:1px;stroke-linecap:butt;stroke-linejoin:miter;stroke-opacity:1" d="M 977.179,152.357 982.714,141.286 z" id="boundary" inkscape:connector-curvature="0" />
	<path style="fill:none;stroke:red;stroke-width:1px;stroke-linecap:butt;stroke-linejoin:miter;stroke-opacity:1" d="M 979.393,61.5714 986.036,70.4286 z" id="boundary" inkscape:connector-curvature="0" />
	<path style="fill:none;stroke:red;stroke-width:1px;stroke-linecap:butt;stroke-linejoin:miter;stroke-opacity:1" d="M 982.714,141.286 990.464,126.893 z" id="boundary" inkscape:connector-curvature="0" />
	<path style="fill:none;stroke:red;stroke-width:1px;stroke-linecap:butt;stroke-linejoin:miter;stroke-opacity:1" d="M 986.036,70.4286 990.464,81.5 z" id="boundary" inkscape:connector-curvature="0" />
	<path style="fill:none;stroke:red;stroke-width:1px;stroke-linecap:butt;stroke-linejoin:miter;stroke-opacity:1" d="M 990.464,81.5 996,91.4643 z" id="boundary" inkscape:connector-curvature="0" />
	<path style="fill:none;stroke:red;stroke-width:1px;stroke-linecap:butt;stroke-linejoin:miter;stroke-opacity:1" d="M 990.464,126.893 996,113.607 z" id="boundary" inkscape:connector-curvature="0" />
	<path style="fill:none;stroke:red;stroke-width:1px;stroke-linecap:butt;stroke-linejoin:miter;stroke-opacity:1" d="M 996,91.4643 996,102.536 z" id="boundary" inkscape:connector-curvature="0" />
	<path style="fill:none;stroke:red;stroke-width:1px;stroke-linecap:butt;stroke-linejoin:miter;stroke-opacity:1" d="M 996,102.536 996,113.607 z" id="boundary" inkscape:connector-curvature="0" />
	<circle cx="4" cy="57.1429" r="4" fill="#0" id="circle0"/>
	<circle cx="4" cy="68.2143" r="4" fill="#0" id="circle1"/>
	<circle cx="9.53571" cy="123.571" r="4" fill="#0" id="circle2"/>
	<circle cx="9.53571" cy="134.643" r="4" fill="#0" id="circle3"/>
	<circle cx="9.53571" cy="145.714" r="4" fill="#0" id="circle4"/>
	<circle cx="10.6429" cy="77.0714" r="4" fill="#0" id="circle5"/>
	<circle cx="12.8571" cy="48.2857" r="4" fill="#0" id="circle6"/>
	<circle cx="17.2857" cy="85.9286" r="4" fill="#0" id="circle7"/>
	<circle cx="18.3929" cy="153.464" r="4" fill="#0" id="circle8"/>
	<circle cx="20.6071" cy="118.036" r="4" fill="#0" id="circle9"/>
	<circle cx="21.7143" cy="39.4286" r="4" fill="#0" id="circle10"/>
	<circle cx="28.3571" cy="88.1429" r="4" fill="#0" id="circle11"/>
	<circle cx="28.3571" cy="159" r="4" fill="#0" id="circle12"/>
	<circle cx="30.5714" cy="31.6786" r="4" fill="#0" id="circle13"/>
	<circle cx="31.6786" cy="114.714" r="4" fill="#0" id="circle14"/>
	<circle cx="37.2143" cy="165.643" r="4" fill="#0" id="circle15"/>
	<circle cx="38.3214" cy="93.6786" r="4" fill="#0" id="circle16"/>
	<circle cx="40.5357" cy="26.1429" r="4" fill="#0" id="circle17"/>
	<circle cx="42.75" cy="114.714" r="4" fill="#0" id="circle18"/>
	<circle cx="48.2857" cy="88.1429" r="4" fill="#0" id="circle19"/>
	<circle cx="48.2857" cy="165.643" r="4" fill="#0" id="circle20"/>
	<circle cx="51.6071" cy="26.1429" r="4" fill="#0" id="circle21"/>
	<circle cx="52.7143" cy="109.179" r="4" fill="#0" id="circle22"/>
	<circle cx="58.25" cy="93.6786" r="4" fill="#0" id="circle23"/>
	<circle cx="59.3571" cy="165.643" r="4" fill="#0" id="circle24"/>
	<circle cx="62.6786" cy="26.1429" r="4" fill="#0" id="circle25"/>
	<circle cx="63.7857" cy="110.286" r="4" fill="#0" id="circle26"/>
	<circle cx="69.3214" cy="93.6786" r="4" fill="#0" id="circle27"/>
	<circle cx="70.4286" cy="165.643" r="4" fill="#0" id="circle28"/>
	<circle cx="73.75" cy="26.1429" r="4" fill="#0" id="circle29"/>
	<circle cx="74.8571" cy="114.714" r="4" fill="#0" id="circle30"/>
	<circle cx="79.2857" cy="99.2143" r="4" fill="#0" id="circle31"/>
	<circle cx="80.3929" cy="171.179" r="4" fill="#0" id="circle32"/>
	<circle cx="83.7143" cy="31.6786" r="4" fill="#0" id="circle33"/>
	<circle cx="85.9286" cy="115.821" r="4" fill="#0" id="circle34"/>
	<circle cx="90.3571" cy="103.643" r="4" fill="#0" id="circle35"/>
	<circle cx="90.3571" cy="176.714" r="4" fill="#0" id="circle36"/>
	<circle cx="93.6786" cy="37.2143" r="4" fill="#0" id="circle37"/>
	<circle cx="97" cy="120.25" r="4" fill="#0" id="circle38"/>
	<circle cx="100.321" cy="109.179" r="4" fill="#0" id="circle39"/>
	<circle cx="101.429" cy="181.143" r="4" fill="#0" id="circle40"/>
	<circle cx="103.643" cy="42.75" r="4" fill="#0" id="circle41"/>
	<circle cx="109.179" cy="190" r="4" fill="#0" id="circle42"/>
	<circle cx="114.714" cy="42.75" r="4" fill="#0" id="circle43"/>
	<circle cx="118.036" cy="197.75" r="4" fill="#0" id="circle44"/>
	<circle cx="124.679" cy="37.2143" r="4" fill="#0" id="circle45"/>
	<circle cx="126.893" cy="204.393" r="4" fill="#0" id="circle46"/>
	<circle cx="133.536" cy="213.25" r="4" fill="#0" id="circle47"/>
	<circle cx="135.75" cy="37.2143" r="4" fill="#0" id="circle48"/>
	<circle cx="143.5" cy="218.786" r="4" fill="#0" id="circle49"/>
	<circle cx="145.714" cy="31.6786" r="4" fill="#0" id="circle50"/>
	<circle cx="152.357" cy="226.536" r="4" fill="#0" id="circle51"/>
	<circle cx="156.786" cy="31.6786" r="4" fill="#0" id="circle52"/>
	<circle cx="162.321" cy="232.071" r="4" fill="#0" id="circle53"/>
	<circle cx="167.857" cy="26.1429" r="4" fill="#0" id="circle54"/>
	<circle cx="172.286" cy="237.607" r="4" fill="#0" id="circle55"/>
	<circle cx="178.929" cy="26.1429" r="4" fill="#0" id="circle56"/>
	<circle cx="183.357" cy="240.929" r="4" fill="#0" id="circle57"/>
	<circle cx="188.893" cy="31.6786" r="4" fill="#0" id="circle58"/>
	<circle cx="193.321" cy="246.464" r="4" fill="#0" id="circle59"/>
	<circle cx="198.857" cy="37.2143" r="4" fill="#0" id="circle60"/>
	<circle cx="204.393" cy="250.893" r="4" fill="#0" id="circle61"/>
	<circle cx="207.714" cy="43.8571" r="4" fill="#0" id="circle62"/>
	<circle cx="215.464" cy="52.7143" r="4" fill="#0" id="circle63"/>
	<circle cx="215.464" cy="254.214" r="4" fill="#0" id="circle64"/>
	<circle cx="224.321" cy="60.4643" r="4" fill="#0" id="circle65"/>
	<circle cx="225.429" cy="259.75" r="4" fill="#0" id="circle66"/>
	<circle cx="232.071" cy="69.3214" r="4" fill="#0" id="circle67"/>
	<circle cx="236.5" cy="259.75" r="4" fill="#0" id="circle68"/>
	<circle cx="237.607" cy="79.2857" r="4" fill="#0" id="circle69"/>
	<circle cx="242.036" cy="328.393" r="4" fill="#0" id="circle70"/>
	<circle cx="242.036" cy="339.464" r="4" fill="#0" id="circle71"/>
	<circle cx="243.143" cy="89.25" r="4" fill="#0" id="circle72"/>
	<circle cx="243.143" cy="100.321" r="4" fill="#0" id="circle73"/>
	<circle cx="243.143" cy="111.393" r="4" fill="#0" id="circle74"/>
	<circle cx="247.571" cy="259.75" r="4" fill="#0" id="circle75"/>
	<circle cx="247.571" cy="317.321" r="4" fill="#0" id="circle76"/>
	<circle cx="248.679" cy="121.357" r="4" fill="#0" id="circle77"/>
	<circle cx="248.679" cy="132.429" r="4" fill="#0" id="circle78"/>
	<circle cx="253.107" cy="337.25" r="4" fill="#0" id="circle79"/>
	<circle cx="254.214" cy="142.393" r="4" fill="#0" id="circle80"/>
	<circle cx="256.429" cy="308.464" r="4" fill="#0" id="circle81"/>
	<circle cx="257.536" cy="265.286" r="4" fill="#0" id="circle82"/>
	<circle cx="259.75" cy="326.179" r="4" fill="#0" id="circle83"/>
	<circle cx="265.286" cy="142.393" r="4" fill="#0" id="circle84"/>
	<circle cx="265.286" cy="299.607" r="4" fill="#0" id="circle85"/>
	<circle cx="267.5" cy="270.821" r="4" fill="#0" id="circle86"/>
	<circle cx="268.607" cy="318.429" r="4" fill="#0" id="circle87"/>
	<circle cx="275.25" cy="136.857" r="4" fill="#0" id="circle88"/>
	<circle cx="275.25" cy="279.679" r="4" fill="#0" id="circle89"/>
	<circle cx="275.25" cy="290.75" r="4" fill="#0" id="circle90"/>
	<circle cx="279.679" cy="315.107" r="4" fill="#0" id="circle91"/>
	<circle cx="280.786" cy="326.179" r="4" fill="#0" id="circle92"/>
	<circle cx="284.107" cy="337.25" r="4" fill="#0" id="circle93"/>
	<circle cx="285.214" cy="131.321" r="4" fill="#0" id="circle94"/>
	<circle cx="294.071" cy="331.714" r="4" fill="#0" id="circle95"/>
	<circle cx="296.286" cy="131.321" r="4" fill="#0" id="circle96"/>
	<circle cx="304.036" cy="122.464" r="4" fill="#0" id="circle97"/>
	<circle cx="305.143" cy="335.036" r="4" fill="#0" id="circle98"/>
	<circle cx="309.571" cy="320.643" r="4" fill="#0" id="circle99"/>
	<circle cx="315.107" cy="116.929" r="4" fill="#0" id="circle100"/>
	<circle cx="319.536" cy="315.107" r="4" fill="#0" id="circle101"/>
	<circle cx="326.179" cy="114.714" r="4" fill="#0" id="circle102"/>
	<circle cx="329.5" cy="320.643" r="4" fill="#0" id="circle103"/>
	<circle cx="336.143" cy="109.179" r="4" fill="#0" id="circle104"/>
	<circle cx="339.464" cy="326.179" r="4" fill="#0" id="circle105"/>
	<circle cx="347.214" cy="106.964" r="4" fill="#0" id="circle106"/>
	<circle cx="350.536" cy="330.607" r="4" fill="#0" id="circle107"/>
	<circle cx="358.286" cy="103.643" r="4" fill="#0" id="circle108"/>
	<circle cx="360.5" cy="336.143" r="4" fill="#0" id="circle109"/>
	<circle cx="363.821" cy="566.429" r="4" fill="#0" id="circle110"/>
	<circle cx="368.25" cy="98.1071" r="4" fill="#0" id="circle111"/>
	<circle cx="370.464" cy="575.286" r="4" fill="#0" id="circle112"/>
	<circle cx="371.571" cy="340.571" r="4" fill="#0" id="circle113"/>
	<circle cx="372.679" cy="557.571" r="4" fill="#0" id="circle114"/>
	<circle cx="379.321" cy="98.1071" r="4" fill="#0" id="circle115"/>
	<circle cx="381.536" cy="575.286" r="4" fill="#0" id="circle116"/>
	<circle cx="382.643" cy="342.786" r="4" fill="#0" id="circle117"/>
	<circle cx="383.75" cy="557.571" r="4" fill="#0" id="circle118"/>
	<circle cx="388.179" cy="584.143" r="4" fill="#0" id="circle119"/>
	<circle cx="389.286" cy="92.5714" r="4" fill="#0" id="circle120"/>
	<circle cx="392.607" cy="348.321" r="4" fill="#0" id="circle121"/>
	<circle cx="394.821" cy="552.036" r="4" fill="#0" id="circle122"/>
	<circle cx="397.036" cy="591.893" r="4" fill="#0" id="circle123"/>
	<circle cx="400.357" cy="92.5714" r="4" fill="#0" id="circle124"/>
	<circle cx="402.571" cy="353.857" r="4" fill="#0" id="circle125"/>
	<circle cx="405.893" cy="552.036" r="4" fill="#0" id="circle126"/>
	<circle cx="408.107" cy="588.571" r="4" fill="#0" id="circle127"/>
	<circle cx="411.429" cy="87.0357" r="4" fill="#0" id="circle128"/>
	<circle cx="412.536" cy="359.393" r="4" fill="#0" id="circle129"/>
	<circle cx="415.857" cy="546.5" r="4" fill="#0" id="circle130"/>
	<circle cx="419.179" cy="586.357" r="4" fill="#0" id="circle131"/>
	<circle cx="420.286" cy="368.25" r="4" fill="#0" id="circle132"/>
	<circle cx="422.5" cy="87.0357" r="4" fill="#0" id="circle133"/>
	<circle cx="424.714" cy="538.75" r="4" fill="#0" id="circle134"/>
	<circle cx="429.143" cy="376" r="4" fill="#0" id="circle135"/>
	<circle cx="429.143" cy="580.821" r="4" fill="#0" id="circle136"/>
	<circle cx="430.25" cy="387.071" r="4" fill="#0" id="circle137"/>
	<circle cx="430.25" cy="522.143" r="4" fill="#0" id="circle138"/>
	<circle cx="432.464" cy="81.5" r="4" fill="#0" id="circle139"/>
	<circle cx="435.786" cy="397.036" r="4" fill="#0" id="circle140"/>
	<circle cx="435.786" cy="500" r="4" fill="#0" id="circle141"/>
	<circle cx="435.786" cy="511.071" r="4" fill="#0" id="circle142"/>
	<circle cx="440.214" cy="580.821" r="4" fill="#0" id="circle143"/>
	<circle cx="441.321" cy="407" r="4" fill="#0" id="circle144"/>
	<circle cx="441.321" cy="477.857" r="4" fill="#0" id="circle145"/>
	<circle cx="441.321" cy="488.929" r="4" fill="#0" id="circle146"/>
	<circle cx="442.429" cy="418.071" r="4" fill="#0" id="circle147"/>
	<circle cx="443.536" cy="81.5" r="4" fill="#0" id="circle148"/>
	<circle cx="446.857" cy="429.143" r="4" fill="#0" id="circle149"/>
	<circle cx="446.857" cy="450.179" r="4" fill="#0" id="circle150"/>
	<circle cx="446.857" cy="461.25" r="4" fill="#0" id="circle151"/>
	<circle cx="450.179" cy="575.286" r="4" fill="#0" id="circle152"/>
	<circle cx="452.393" cy="439.107" r="4" fill="#0" id="circle153"/>
	<circle cx="453.5" cy="75.9643" r="4" fill="#0" id="circle154"/>
	<circle cx="460.143" cy="569.75" r="4" fill="#0" id="circle155"/>
	<circle cx="464.571" cy="72.6429" r="4" fill="#0" id="circle156"/>
	<circle cx="464.571" cy="531" r="4" fill="#0" id="circle157"/>
	<circle cx="464.571" cy="542.071" r="4" fill="#0" id="circle158"/>
	<circle cx="464.571" cy="553.143" r="4" fill="#0" id="circle159"/>
	<circle cx="470.107" cy="514.393" r="4" fill="#0" id="circle160"/>
	<circle cx="475.643" cy="70.4286" r="4" fill="#0" id="circle161"/>
	<circle cx="475.643" cy="503.321" r="4" fill="#0" id="circle162"/>
	<circle cx="481.179" cy="492.25" r="4" fill="#0" id="circle163"/>
	<circle cx="485.607" cy="64.8929" r="4" fill="#0" id="circle164"/>
	<circle cx="490.036" cy="484.5" r="4" fill="#0" id="circle165"/>
	<circle cx="495.571" cy="473.429" r="4" fill="#0" id="circle166"/>
	<circle cx="496.679" cy="62.6786" r="4" fill="#0" id="circle167"/>
	<circle cx="497.786" cy="453.5" r="4" fill="#0" id="circle168"/>
	<circle cx="503.321" cy="414.75" r="4" fill="#0" id="circle169"/>
	<circle cx="503.321" cy="425.821" r="4" fill="#0" id="circle170"/>
	<circle cx="503.321" cy="436.893" r="4" fill="#0" id="circle171"/>
	<circle cx="507.75" cy="59.3571" r="4" fill="#0" id="circle172"/>
	<circle cx="513.286" cy="409.214" r="4" fill="#0" id="circle173"/>
	<circle cx="517.714" cy="53.8214" r="4" fill="#0" id="circle174"/>
	<circle cx="519.929" cy="418.071" r="4" fill="#0" id="circle175"/>
	<circle cx="528.786" cy="53.8214" r="4" fill="#0" id="circle176"/>
	<circle cx="531" cy="422.5" r="4" fill="#0" id="circle177"/>
	<circle cx="535.429" cy="433.571" r="4" fill="#0" id="circle178"/>
	<circle cx="539.857" cy="54.9286" r="4" fill="#0" id="circle179"/>
	<circle cx="546.5" cy="436.893" r="4" fill="#0" id="circle180"/>
	<circle cx="546.5" cy="577.5" r="4" fill="#0" id="circle181"/>
	<circle cx="546.5" cy="588.571" r="4" fill="#0" id="circle182"/>
	<circle cx="549.821" cy="60.4643" r="4" fill="#0" id="circle183"/>
	<circle cx="552.036" cy="446.857" r="4" fill="#0" id="circle184"/>
	<circle cx="557.571" cy="571.964" r="4" fill="#0" id="circle185"/>
	<circle cx="557.571" cy="591.893" r="4" fill="#0" id="circle186"/>
	<circle cx="560.893" cy="64.8929" r="4" fill="#0" id="circle187"/>
	<circle cx="560.893" cy="453.5" r="4" fill="#0" id="circle188"/>
	<circle cx="563.107" cy="464.571" r="4" fill="#0" id="circle189"/>
	<circle cx="566.429" cy="563.107" r="4" fill="#0" id="circle190"/>
	<circle cx="568.643" cy="474.536" r="4" fill="#0" id="circle191"/>
	<circle cx="568.643" cy="591.893" r="4" fill="#0" id="circle192"/>
	<circle cx="569.75" cy="342.786" r="4" fill="#0" id="circle193"/>
	<circle cx="569.75" cy="353.857" r="4" fill="#0" id="circle194"/>
	<circle cx="571.964" cy="64.8929" r="4" fill="#0" id="circle195"/>
	<circle cx="574.179" cy="484.5" r="4" fill="#0" id="circle196"/>
	<circle cx="575.286" cy="331.714" r="4" fill="#0" id="circle197"/>
	<circle cx="575.286" cy="363.821" r="4" fill="#0" id="circle198"/>
	<circle cx="575.286" cy="495.571" r="4" fill="#0" id="circle199"/>
	<circle cx="575.286" cy="554.25" r="4" fill="#0" id="circle200"/>
	<circle cx="578.607" cy="597.429" r="4" fill="#0" id="circle201"/>
	<circle cx="579.714" cy="506.643" r="4" fill="#0" id="circle202"/>
	<circle cx="580.821" cy="373.786" r="4" fill="#0" id="circle203"/>
	<circle cx="580.821" cy="384.857" r="4" fill="#0" id="circle204"/>
	<circle cx="583.036" cy="64.8929" r="4" fill="#0" id="circle205"/>
	<circle cx="584.143" cy="323.964" r="4" fill="#0" id="circle206"/>
	<circle cx="585.25" cy="516.607" r="4" fill="#0" id="circle207"/>
	<circle cx="585.25" cy="527.679" r="4" fill="#0" id="circle208"/>
	<circle cx="585.25" cy="538.75" r="4" fill="#0" id="circle209"/>
	<circle cx="586.357" cy="394.821" r="4" fill="#0" id="circle210"/>
	<circle cx="588.571" cy="602.964" r="4" fill="#0" id="circle211"/>
	<circle cx="590.786" cy="405.893" r="4" fill="#0" id="circle212"/>
	<circle cx="591.893" cy="309.571" r="4" fill="#0" id="circle213"/>
	<circle cx="591.893" cy="416.964" r="4" fill="#0" id="circle214"/>
	<circle cx="593" cy="70.4286" r="4" fill="#0" id="circle215"/>
	<circle cx="597.429" cy="298.5" r="4" fill="#0" id="circle216"/>
	<circle cx="598.536" cy="597.429" r="4" fill="#0" id="circle217"/>
	<circle cx="599.643" cy="425.821" r="4" fill="#0" id="circle218"/>
	<circle cx="604.071" cy="70.4286" r="4" fill="#0" id="circle219"/>
	<circle cx="605.179" cy="435.786" r="4" fill="#0" id="circle220"/>
	<circle cx="606.286" cy="290.75" r="4" fill="#0" id="circle221"/>
	<circle cx="608.5" cy="591.893" r="4" fill="#0" id="circle222"/>
	<circle cx="614.036" cy="75.9643" r="4" fill="#0" id="circle223"/>
	<circle cx="614.036" cy="442.429" r="4" fill="#0" id="circle224"/>
	<circle cx="617.357" cy="285.214" r="4" fill="#0" id="circle225"/>
	<circle cx="619.571" cy="452.393" r="4" fill="#0" id="circle226"/>
	<circle cx="619.571" cy="463.464" r="4" fill="#0" id="circle227"/>
	<circle cx="619.571" cy="591.893" r="4" fill="#0" id="circle228"/>
	<circle cx="624" cy="81.5" r="4" fill="#0" id="circle229"/>
	<circle cx="625.107" cy="473.429" r="4" fill="#0" id="circle230"/>
	<circle cx="625.107" cy="484.5" r="4" fill="#0" id="circle231"/>
	<circle cx="625.107" cy="495.571" r="4" fill="#0" id="circle232"/>
	<circle cx="625.107" cy="506.643" r="4" fill="#0" id="circle233"/>
	<circle cx="625.107" cy="517.714" r="4" fill="#0" id="circle234"/>
	<circle cx="628.429" cy="279.679" r="4" fill="#0" id="circle235"/>
	<circle cx="630.643" cy="527.679" r="4" fill="#0" id="circle236"/>
	<circle cx="630.643" cy="586.357" r="4" fill="#0" id="circle237"/>
	<circle cx="635.071" cy="81.5" r="4" fill="#0" id="circle238"/>
	<circle cx="635.071" cy="538.75" r="4" fill="#0" id="circle239"/>
	<circle cx="636.179" cy="549.821" r="4" fill="#0" id="circle240"/>
	<circle cx="636.179" cy="575.286" r="4" fill="#0" id="circle241"/>
	<circle cx="639.5" cy="276.357" r="4" fill="#0" id="circle242"/>
	<circle cx="641.714" cy="559.786" r="4" fill="#0" id="circle243"/>
	<circle cx="646.143" cy="83.7143" r="4" fill="#0" id="circle244"/>
	<circle cx="650.571" cy="276.357" r="4" fill="#0" id="circle245"/>
	<circle cx="656.107" cy="89.25" r="4" fill="#0" id="circle246"/>
	<circle cx="661.643" cy="276.357" r="4" fill="#0" id="circle247"/>
	<circle cx="663.857" cy="98.1071" r="4" fill="#0" id="circle248"/>
	<circle cx="672.714" cy="276.357" r="4" fill="#0" id="circle249"/>
	<circle cx="673.821" cy="103.643" r="4" fill="#0" id="circle250"/>
	<circle cx="683.786" cy="109.179" r="4" fill="#0" id="circle251"/>
	<circle cx="683.786" cy="276.357" r="4" fill="#0" id="circle252"/>
	<circle cx="693.75" cy="114.714" r="4" fill="#0" id="circle253"/>
	<circle cx="694.857" cy="276.357" r="4" fill="#0" id="circle254"/>
	<circle cx="703.714" cy="120.25" r="4" fill="#0" id="circle255"/>
	<circle cx="704.821" cy="281.893" r="4" fill="#0" id="circle256"/>
	<circle cx="713.679" cy="125.786" r="4" fill="#0" id="circle257"/>
	<circle cx="715.893" cy="281.893" r="4" fill="#0" id="circle258"/>
	<circle cx="722.536" cy="132.429" r="4" fill="#0" id="circle259"/>
	<circle cx="726.964" cy="281.893" r="4" fill="#0" id="circle260"/>
	<circle cx="732.5" cy="137.964" r="4" fill="#0" id="circle261"/>
	<circle cx="738.036" cy="281.893" r="4" fill="#0" id="circle262"/>
	<circle cx="741.357" cy="145.714" r="4" fill="#0" id="circle263"/>
	<circle cx="748" cy="276.357" r="4" fill="#0" id="circle264"/>
	<circle cx="752.429" cy="147.929" r="4" fill="#0" id="circle265"/>
	<circle cx="759.071" cy="276.357" r="4" fill="#0" id="circle266"/>
	<circle cx="763.5" cy="151.25" r="4" fill="#0" id="circle267"/>
	<circle cx="770.143" cy="276.357" r="4" fill="#0" id="circle268"/>
	<circle cx="774.571" cy="153.464" r="4" fill="#0" id="circle269"/>
	<circle cx="781.214" cy="276.357" r="4" fill="#0" id="circle270"/>
	<circle cx="785.643" cy="153.464" r="4" fill="#0" id="circle271"/>
	<circle cx="791.179" cy="270.821" r="4" fill="#0" id="circle272"/>
	<circle cx="795.607" cy="159" r="4" fill="#0" id="circle273"/>
	<circle cx="801.143" cy="265.286" r="4" fill="#0" id="circle274"/>
	<circle cx="804.464" cy="165.643" r="4" fill="#0" id="circle275"/>
	<circle cx="812.214" cy="261.964" r="4" fill="#0" id="circle276"/>
	<circle cx="815.536" cy="170.071" r="4" fill="#0" id="circle277"/>
	<circle cx="823.286" cy="256.429" r="4" fill="#0" id="circle278"/>
	<circle cx="825.5" cy="164.536" r="4" fill="#0" id="circle279"/>
	<circle cx="834.357" cy="250.893" r="4" fill="#0" id="circle280"/>
	<circle cx="835.464" cy="159" r="4" fill="#0" id="circle281"/>
	<circle cx="845.429" cy="153.464" r="4" fill="#0" id="circle282"/>
	<circle cx="845.429" cy="245.357" r="4" fill="#0" id="circle283"/>
	<circle cx="855.393" cy="147.929" r="4" fill="#0" id="circle284"/>
	<circle cx="856.5" cy="243.143" r="4" fill="#0" id="circle285"/>
	<circle cx="865.357" cy="236.5" r="4" fill="#0" id="circle286"/>
	<circle cx="866.464" cy="147.929" r="4" fill="#0" id="circle287"/>
	<circle cx="876.429" cy="142.393" r="4" fill="#0" id="circle288"/>
	<circle cx="876.429" cy="230.964" r="4" fill="#0" id="circle289"/>
	<circle cx="887.5" cy="142.393" r="4" fill="#0" id="circle290"/>
	<circle cx="887.5" cy="225.429" r="4" fill="#0" id="circle291"/>
	<circle cx="889.714" cy="7.32143" r="4" fill="#0" id="circle292"/>
	<circle cx="889.714" cy="18.3929" r="4" fill="#0" id="circle293"/>
	<circle cx="896.357" cy="215.464" r="4" fill="#0" id="circle294"/>
	<circle cx="898.571" cy="26.1429" r="4" fill="#0" id="circle295"/>
	<circle cx="898.571" cy="136.857" r="4" fill="#0" id="circle296"/>
	<circle cx="900.786" cy="4" r="4" fill="#0" id="circle297"/>
	<circle cx="907.429" cy="215.464" r="4" fill="#0" id="circle298"/>
	<circle cx="909.643" cy="27.25" r="4" fill="#0" id="circle299"/>
	<circle cx="909.643" cy="131.321" r="4" fill="#0" id="circle300"/>
	<circle cx="911.857" cy="6.21429" r="4" fill="#0" id="circle301"/>
	<circle cx="916.286" cy="207.714" r="4" fill="#0" id="circle302"/>
	<circle cx="918.5" cy="35" r="4" fill="#0" id="circle303"/>
	<circle cx="918.5" cy="122.464" r="4" fill="#0" id="circle304"/>
	<circle cx="922.929" cy="9.53571" r="4" fill="#0" id="circle305"/>
	<circle cx="927.357" cy="202.179" r="4" fill="#0" id="circle306"/>
	<circle cx="928.464" cy="40.5357" r="4" fill="#0" id="circle307"/>
	<circle cx="928.464" cy="112.5" r="4" fill="#0" id="circle308"/>
	<circle cx="932.893" cy="15.0714" r="4" fill="#0" id="circle309"/>
	<circle cx="935.107" cy="193.321" r="4" fill="#0" id="circle310"/>
	<circle cx="937.321" cy="48.2857" r="4" fill="#0" id="circle311"/>
	<circle cx="937.321" cy="103.643" r="4" fill="#0" id="circle312"/>
	<circle cx="943.964" cy="16.1786" r="4" fill="#0" id="circle313"/>
	<circle cx="943.964" cy="185.571" r="4" fill="#0" id="circle314"/>
	<circle cx="945.071" cy="57.1429" r="4" fill="#0" id="circle315"/>
	<circle cx="945.071" cy="90.3571" r="4" fill="#0" id="circle316"/>
	<circle cx="950.607" cy="67.1071" r="4" fill="#0" id="circle317"/>
	<circle cx="950.607" cy="78.1786" r="4" fill="#0" id="circle318"/>
	<circle cx="951.714" cy="25.0357" r="4" fill="#0" id="circle319"/>
	<circle cx="951.714" cy="176.714" r="4" fill="#0" id="circle320"/>
	<circle cx="960.571" cy="32.7857" r="4" fill="#0" id="circle321"/>
	<circle cx="960.571" cy="168.964" r="4" fill="#0" id="circle322"/>
	<circle cx="968.321" cy="41.6429" r="4" fill="#0" id="circle323"/>
	<circle cx="968.321" cy="160.107" r="4" fill="#0" id="circle324"/>
	<circle cx="973.857" cy="51.6071" r="4" fill="#0" id="circle325"/>
	<circle cx="977.179" cy="152.357" r="4" fill="#0" id="circle326"/>
	<circle cx="979.393" cy="61.5714" r="4" fill="#0" id="circle327"/>
	<circle cx="982.714" cy="141.286" r="4" fill="#0" id="circle328"/>
	<circle cx="986.036" cy="70.4286" r="4" fill="#0" id="circle329"/>
	<circle cx="990.464" cy="81.5" r="4" fill="#0" id="circle330"/>
	<circle cx="990.464" cy="126.893" r="4" fill="#0" id="circle331"/>
	<circle cx="996" cy="91.4643" r="4" fill="#0" id="circle332"/>
	<circle cx="996" cy="102.536" r="4" fill="#0" id="circle333"/>
	<circle cx="996" cy="113.607" r="4" fill="#0" id="circle334"/>
	</g>
</svg>