<?xml version="1.0" encoding="UTF-8" standalone="no"?>
<!-- Created with CurveBenchmark -->
<svg
	xmlns:dc="http://purl.org/dc/elements/1.1/"
	xmlns:cc="http://creativecommons.org/ns#"
	xmlns:rdf="http://www.w3.org/1999/02/22-rdf-syntax-ns#"
	xmlns:svg="http://www.w3.org/2000/svg"
	xmlns="http://www.w3.org/2000/svg"
	xmlns:sodipodi="http://sodipodi.sourceforge.net/DTD/sodipodi-0.dtd"
	xmlns:inkscape="http://www.inkscape.org/namespaces/inkscape"
	width="1000"
	height="1000"
	id="svg2"
	version="1.1"
	sodipodi:docname="manifold/discur-bed325.png.txt">
<defs
	id="defs4" />
<metadata
	id="metadata7">
	<rdf:RDF>
		<cc:Work
			rdf:about="">
			<dc:format>image/svg+xml</dc:format>
			<dc:type
				rdf:resource="http://purl.org/dc/dcmitype/StillImage" />
			<dc:title></dc:title>
		</cc:Work>
	</rdf:RDF>
</metadata>
<g
	inkscape:label="Layer 1"
	inkscape:groupmode="layer"
	id="layer1">
	<path style="fill:none;stroke:red;stroke-width:1px;stroke-linecap:butt;stroke-linejoin:miter;stroke-opacity:1" d="M 4,335.236 7.4148,352.31 z" id="boundary" inkscape:connector-curvature="0" />
	<path style="fill:none;stroke:red;stroke-width:1px;stroke-linecap:butt;stroke-linejoin:miter;stroke-opacity:1" d="M 4,335.236 14.2444,321.577 z" id="boundary" inkscape:connector-curvature="0" />
	<path style="fill:none;stroke:red;stroke-width:1px;stroke-linecap:butt;stroke-linejoin:miter;stroke-opacity:1" d="M 7.4148,352.31 19.3666,365.969 z" id="boundary" inkscape:connector-curvature="0" />
	<path style="fill:none;stroke:red;stroke-width:1px;stroke-linecap:butt;stroke-linejoin:miter;stroke-opacity:1" d="M 10.8296,488.902 17.6592,505.976 z" id="boundary" inkscape:connector-curvature="0" />
	<path style="fill:none;stroke:red;stroke-width:1px;stroke-linecap:butt;stroke-linejoin:miter;stroke-opacity:1" d="M 10.8296,488.902 27.9036,490.609 z" id="boundary" inkscape:connector-curvature="0" />
	<path style="fill:none;stroke:red;stroke-width:1px;stroke-linecap:butt;stroke-linejoin:miter;stroke-opacity:1" d="M 14.2444,321.577 27.9036,311.332 z" id="boundary" inkscape:connector-curvature="0" />
	<path style="fill:none;stroke:red;stroke-width:1px;stroke-linecap:butt;stroke-linejoin:miter;stroke-opacity:1" d="M 14.2444,523.05 17.6592,505.976 z" id="boundary" inkscape:connector-curvature="0" />
	<path style="fill:none;stroke:red;stroke-width:1px;stroke-linecap:butt;stroke-linejoin:miter;stroke-opacity:1" d="M 14.2444,523.05 31.3184,524.757 z" id="boundary" inkscape:connector-curvature="0" />
	<path style="fill:none;stroke:red;stroke-width:1px;stroke-linecap:butt;stroke-linejoin:miter;stroke-opacity:1" d="M 19.3666,365.969 21.074,383.043 z" id="boundary" inkscape:connector-curvature="0" />
	<path style="fill:none;stroke:red;stroke-width:1px;stroke-linecap:butt;stroke-linejoin:miter;stroke-opacity:1" d="M 21.074,383.043 21.074,400.117 z" id="boundary" inkscape:connector-curvature="0" />
	<path style="fill:none;stroke:red;stroke-width:1px;stroke-linecap:butt;stroke-linejoin:miter;stroke-opacity:1" d="M 21.074,400.117 24.4888,417.191 z" id="boundary" inkscape:connector-curvature="0" />
	<path style="fill:none;stroke:red;stroke-width:1px;stroke-linecap:butt;stroke-linejoin:miter;stroke-opacity:1" d="M 21.074,464.998 24.4888,434.265 z" id="boundary" inkscape:connector-curvature="0" />
	<path style="fill:none;stroke:red;stroke-width:1px;stroke-linecap:butt;stroke-linejoin:miter;stroke-opacity:1" d="M 21.074,464.998 36.4406,475.243 z" id="boundary" inkscape:connector-curvature="0" />
	<path style="fill:none;stroke:red;stroke-width:1px;stroke-linecap:butt;stroke-linejoin:miter;stroke-opacity:1" d="M 24.4888,417.191 24.4888,434.265 z" id="boundary" inkscape:connector-curvature="0" />
	<path style="fill:none;stroke:red;stroke-width:1px;stroke-linecap:butt;stroke-linejoin:miter;stroke-opacity:1" d="M 27.9036,311.332 44.9776,304.503 z" id="boundary" inkscape:connector-curvature="0" />
	<path style="fill:none;stroke:red;stroke-width:1px;stroke-linecap:butt;stroke-linejoin:miter;stroke-opacity:1" d="M 27.9036,490.609 36.4406,475.243 z" id="boundary" inkscape:connector-curvature="0" />
	<path style="fill:none;stroke:red;stroke-width:1px;stroke-linecap:butt;stroke-linejoin:miter;stroke-opacity:1" d="M 44.9776,304.503 62.0516,297.673 z" id="boundary" inkscape:connector-curvature="0" />
	<path style="fill:none;stroke:red;stroke-width:1px;stroke-linecap:butt;stroke-linejoin:miter;stroke-opacity:1" d="M 53.5146,470.12 70.5886,470.12 z" id="boundary" inkscape:connector-curvature="0" />
	<path style="fill:none;stroke:red;stroke-width:1px;stroke-linecap:butt;stroke-linejoin:miter;stroke-opacity:1" d="M 62.0516,297.673 79.1256,294.258 z" id="boundary" inkscape:connector-curvature="0" />
	<path style="fill:none;stroke:red;stroke-width:1px;stroke-linecap:butt;stroke-linejoin:miter;stroke-opacity:1" d="M 70.5886,470.12 87.6627,473.535 z" id="boundary" inkscape:connector-curvature="0" />
	<path style="fill:none;stroke:red;stroke-width:1px;stroke-linecap:butt;stroke-linejoin:miter;stroke-opacity:1" d="M 79.1256,294.258 96.1997,290.843 z" id="boundary" inkscape:connector-curvature="0" />
	<path style="fill:none;stroke:red;stroke-width:1px;stroke-linecap:butt;stroke-linejoin:miter;stroke-opacity:1" d="M 87.6627,473.535 104.737,476.95 z" id="boundary" inkscape:connector-curvature="0" />
	<path style="fill:none;stroke:red;stroke-width:1px;stroke-linecap:butt;stroke-linejoin:miter;stroke-opacity:1" d="M 96.1997,290.843 113.274,284.014 z" id="boundary" inkscape:connector-curvature="0" />
	<path style="fill:none;stroke:red;stroke-width:1px;stroke-linecap:butt;stroke-linejoin:miter;stroke-opacity:1" d="M 104.737,476.95 121.811,480.365 z" id="boundary" inkscape:connector-curvature="0" />
	<path style="fill:none;stroke:red;stroke-width:1px;stroke-linecap:butt;stroke-linejoin:miter;stroke-opacity:1" d="M 113.274,284.014 130.348,284.014 z" id="boundary" inkscape:connector-curvature="0" />
	<path style="fill:none;stroke:red;stroke-width:1px;stroke-linecap:butt;stroke-linejoin:miter;stroke-opacity:1" d="M 121.811,480.365 137.177,470.12 z" id="boundary" inkscape:connector-curvature="0" />
	<path style="fill:none;stroke:red;stroke-width:1px;stroke-linecap:butt;stroke-linejoin:miter;stroke-opacity:1" d="M 130.348,284.014 147.422,280.599 z" id="boundary" inkscape:connector-curvature="0" />
	<path style="fill:none;stroke:red;stroke-width:1px;stroke-linecap:butt;stroke-linejoin:miter;stroke-opacity:1" d="M 137.177,470.12 154.251,463.291 z" id="boundary" inkscape:connector-curvature="0" />
	<path style="fill:none;stroke:red;stroke-width:1px;stroke-linecap:butt;stroke-linejoin:miter;stroke-opacity:1" d="M 147.422,280.599 164.496,280.599 z" id="boundary" inkscape:connector-curvature="0" />
	<path style="fill:none;stroke:red;stroke-width:1px;stroke-linecap:butt;stroke-linejoin:miter;stroke-opacity:1" d="M 154.251,463.291 171.325,464.998 z" id="boundary" inkscape:connector-curvature="0" />
	<path style="fill:none;stroke:red;stroke-width:1px;stroke-linecap:butt;stroke-linejoin:miter;stroke-opacity:1" d="M 164.496,280.599 181.57,277.184 z" id="boundary" inkscape:connector-curvature="0" />
	<path style="fill:none;stroke:red;stroke-width:1px;stroke-linecap:butt;stroke-linejoin:miter;stroke-opacity:1" d="M 171.325,464.998 186.692,473.535 z" id="boundary" inkscape:connector-curvature="0" />
	<path style="fill:none;stroke:red;stroke-width:1px;stroke-linecap:butt;stroke-linejoin:miter;stroke-opacity:1" d="M 181.57,277.184 198.644,277.184 z" id="boundary" inkscape:connector-curvature="0" />
	<path style="fill:none;stroke:red;stroke-width:1px;stroke-linecap:butt;stroke-linejoin:miter;stroke-opacity:1" d="M 186.692,473.535 203.766,476.95 z" id="boundary" inkscape:connector-curvature="0" />
	<path style="fill:none;stroke:red;stroke-width:1px;stroke-linecap:butt;stroke-linejoin:miter;stroke-opacity:1" d="M 198.644,277.184 214.01,268.647 z" id="boundary" inkscape:connector-curvature="0" />
	<path style="fill:none;stroke:red;stroke-width:1px;stroke-linecap:butt;stroke-linejoin:miter;stroke-opacity:1" d="M 203.766,476.95 220.84,483.78 z" id="boundary" inkscape:connector-curvature="0" />
	<path style="fill:none;stroke:red;stroke-width:1px;stroke-linecap:butt;stroke-linejoin:miter;stroke-opacity:1" d="M 214.01,268.647 229.377,260.11 z" id="boundary" inkscape:connector-curvature="0" />
	<path style="fill:none;stroke:red;stroke-width:1px;stroke-linecap:butt;stroke-linejoin:miter;stroke-opacity:1" d="M 220.84,483.78 237.914,490.609 z" id="boundary" inkscape:connector-curvature="0" />
	<path style="fill:none;stroke:red;stroke-width:1px;stroke-linecap:butt;stroke-linejoin:miter;stroke-opacity:1" d="M 229.377,260.11 246.451,253.281 z" id="boundary" inkscape:connector-curvature="0" />
	<path style="fill:none;stroke:red;stroke-width:1px;stroke-linecap:butt;stroke-linejoin:miter;stroke-opacity:1" d="M 237.914,490.609 254.988,497.439 z" id="boundary" inkscape:connector-curvature="0" />
	<path style="fill:none;stroke:red;stroke-width:1px;stroke-linecap:butt;stroke-linejoin:miter;stroke-opacity:1" d="M 246.451,253.281 260.11,243.036 z" id="boundary" inkscape:connector-curvature="0" />
	<path style="fill:none;stroke:red;stroke-width:1px;stroke-linecap:butt;stroke-linejoin:miter;stroke-opacity:1" d="M 254.988,497.439 272.062,500.854 z" id="boundary" inkscape:connector-curvature="0" />
	<path style="fill:none;stroke:red;stroke-width:1px;stroke-linecap:butt;stroke-linejoin:miter;stroke-opacity:1" d="M 260.11,243.036 277.184,236.207 z" id="boundary" inkscape:connector-curvature="0" />
	<path style="fill:none;stroke:red;stroke-width:1px;stroke-linecap:butt;stroke-linejoin:miter;stroke-opacity:1" d="M 272.062,500.854 289.136,500.854 z" id="boundary" inkscape:connector-curvature="0" />
	<path style="fill:none;stroke:red;stroke-width:1px;stroke-linecap:butt;stroke-linejoin:miter;stroke-opacity:1" d="M 277.184,236.207 294.258,239.621 z" id="boundary" inkscape:connector-curvature="0" />
	<path style="fill:none;stroke:red;stroke-width:1px;stroke-linecap:butt;stroke-linejoin:miter;stroke-opacity:1" d="M 289.136,500.854 306.21,497.439 z" id="boundary" inkscape:connector-curvature="0" />
	<path style="fill:none;stroke:red;stroke-width:1px;stroke-linecap:butt;stroke-linejoin:miter;stroke-opacity:1" d="M 294.258,239.621 311.332,244.744 z" id="boundary" inkscape:connector-curvature="0" />
	<path style="fill:none;stroke:red;stroke-width:1px;stroke-linecap:butt;stroke-linejoin:miter;stroke-opacity:1" d="M 306.21,497.439 323.284,494.024 z" id="boundary" inkscape:connector-curvature="0" />
	<path style="fill:none;stroke:red;stroke-width:1px;stroke-linecap:butt;stroke-linejoin:miter;stroke-opacity:1" d="M 311.332,244.744 326.699,253.281 z" id="boundary" inkscape:connector-curvature="0" />
	<path style="fill:none;stroke:red;stroke-width:1px;stroke-linecap:butt;stroke-linejoin:miter;stroke-opacity:1" d="M 323.284,494.024 340.358,490.609 z" id="boundary" inkscape:connector-curvature="0" />
	<path style="fill:none;stroke:red;stroke-width:1px;stroke-linecap:butt;stroke-linejoin:miter;stroke-opacity:1" d="M 326.699,253.281 343.773,260.11 z" id="boundary" inkscape:connector-curvature="0" />
	<path style="fill:none;stroke:red;stroke-width:1px;stroke-linecap:butt;stroke-linejoin:miter;stroke-opacity:1" d="M 340.358,490.609 354.017,480.365 z" id="boundary" inkscape:connector-curvature="0" />
	<path style="fill:none;stroke:red;stroke-width:1px;stroke-linecap:butt;stroke-linejoin:miter;stroke-opacity:1" d="M 343.773,260.11 357.432,270.355 z" id="boundary" inkscape:connector-curvature="0" />
	<path style="fill:none;stroke:red;stroke-width:1px;stroke-linecap:butt;stroke-linejoin:miter;stroke-opacity:1" d="M 354.017,480.365 371.091,475.243 z" id="boundary" inkscape:connector-curvature="0" />
	<path style="fill:none;stroke:red;stroke-width:1px;stroke-linecap:butt;stroke-linejoin:miter;stroke-opacity:1" d="M 357.432,270.355 374.506,277.184 z" id="boundary" inkscape:connector-curvature="0" />
	<path style="fill:none;stroke:red;stroke-width:1px;stroke-linecap:butt;stroke-linejoin:miter;stroke-opacity:1" d="M 371.091,475.243 388.165,470.12 z" id="boundary" inkscape:connector-curvature="0" />
	<path style="fill:none;stroke:red;stroke-width:1px;stroke-linecap:butt;stroke-linejoin:miter;stroke-opacity:1" d="M 374.506,277.184 391.58,280.599 z" id="boundary" inkscape:connector-curvature="0" />
	<path style="fill:none;stroke:red;stroke-width:1px;stroke-linecap:butt;stroke-linejoin:miter;stroke-opacity:1" d="M 388.165,470.12 405.239,463.291 z" id="boundary" inkscape:connector-curvature="0" />
	<path style="fill:none;stroke:red;stroke-width:1px;stroke-linecap:butt;stroke-linejoin:miter;stroke-opacity:1" d="M 391.58,280.599 408.654,280.599 z" id="boundary" inkscape:connector-curvature="0" />
	<path style="fill:none;stroke:red;stroke-width:1px;stroke-linecap:butt;stroke-linejoin:miter;stroke-opacity:1" d="M 405.239,463.291 422.313,466.706 z" id="boundary" inkscape:connector-curvature="0" />
	<path style="fill:none;stroke:red;stroke-width:1px;stroke-linecap:butt;stroke-linejoin:miter;stroke-opacity:1" d="M 408.654,280.599 425.728,280.599 z" id="boundary" inkscape:connector-curvature="0" />
	<path style="fill:none;stroke:red;stroke-width:1px;stroke-linecap:butt;stroke-linejoin:miter;stroke-opacity:1" d="M 422.313,466.706 437.68,475.243 z" id="boundary" inkscape:connector-curvature="0" />
	<path style="fill:none;stroke:red;stroke-width:1px;stroke-linecap:butt;stroke-linejoin:miter;stroke-opacity:1" d="M 425.728,280.599 442.802,275.477 z" id="boundary" inkscape:connector-curvature="0" />
	<path style="fill:none;stroke:red;stroke-width:1px;stroke-linecap:butt;stroke-linejoin:miter;stroke-opacity:1" d="M 437.68,475.243 454.754,480.365 z" id="boundary" inkscape:connector-curvature="0" />
	<path style="fill:none;stroke:red;stroke-width:1px;stroke-linecap:butt;stroke-linejoin:miter;stroke-opacity:1" d="M 442.802,275.477 453.046,261.818 z" id="boundary" inkscape:connector-curvature="0" />
	<path style="fill:none;stroke:red;stroke-width:1px;stroke-linecap:butt;stroke-linejoin:miter;stroke-opacity:1" d="M 453.046,261.818 466.706,248.158 z" id="boundary" inkscape:connector-curvature="0" />
	<path style="fill:none;stroke:red;stroke-width:1px;stroke-linecap:butt;stroke-linejoin:miter;stroke-opacity:1" d="M 454.754,480.365 471.828,473.535 z" id="boundary" inkscape:connector-curvature="0" />
	<path style="fill:none;stroke:red;stroke-width:1px;stroke-linecap:butt;stroke-linejoin:miter;stroke-opacity:1" d="M 466.706,248.158 480.365,237.914 z" id="boundary" inkscape:connector-curvature="0" />
	<path style="fill:none;stroke:red;stroke-width:1px;stroke-linecap:butt;stroke-linejoin:miter;stroke-opacity:1" d="M 471.828,473.535 488.902,470.12 z" id="boundary" inkscape:connector-curvature="0" />
	<path style="fill:none;stroke:red;stroke-width:1px;stroke-linecap:butt;stroke-linejoin:miter;stroke-opacity:1" d="M 480.365,237.914 495.731,229.377 z" id="boundary" inkscape:connector-curvature="0" />
	<path style="fill:none;stroke:red;stroke-width:1px;stroke-linecap:butt;stroke-linejoin:miter;stroke-opacity:1" d="M 488.902,470.12 505.976,470.12 z" id="boundary" inkscape:connector-curvature="0" />
	<path style="fill:none;stroke:red;stroke-width:1px;stroke-linecap:butt;stroke-linejoin:miter;stroke-opacity:1" d="M 495.731,229.377 512.806,222.547 z" id="boundary" inkscape:connector-curvature="0" />
	<path style="fill:none;stroke:red;stroke-width:1px;stroke-linecap:butt;stroke-linejoin:miter;stroke-opacity:1" d="M 505.976,133.762 507.683,150.836 z" id="boundary" inkscape:connector-curvature="0" />
	<path style="fill:none;stroke:red;stroke-width:1px;stroke-linecap:butt;stroke-linejoin:miter;stroke-opacity:1" d="M 505.976,133.762 516.22,120.103 z" id="boundary" inkscape:connector-curvature="0" />
	<path style="fill:none;stroke:red;stroke-width:1px;stroke-linecap:butt;stroke-linejoin:miter;stroke-opacity:1" d="M 505.976,470.12 509.391,487.194 z" id="boundary" inkscape:connector-curvature="0" />
	<path style="fill:none;stroke:red;stroke-width:1px;stroke-linecap:butt;stroke-linejoin:miter;stroke-opacity:1" d="M 507.683,150.836 521.343,162.788 z" id="boundary" inkscape:connector-curvature="0" />
	<path style="fill:none;stroke:red;stroke-width:1px;stroke-linecap:butt;stroke-linejoin:miter;stroke-opacity:1" d="M 509.391,487.194 526.465,485.487 z" id="boundary" inkscape:connector-curvature="0" />
	<path style="fill:none;stroke:red;stroke-width:1px;stroke-linecap:butt;stroke-linejoin:miter;stroke-opacity:1" d="M 509.391,526.465 512.806,504.269 z" id="boundary" inkscape:connector-curvature="0" />
	<path style="fill:none;stroke:red;stroke-width:1px;stroke-linecap:butt;stroke-linejoin:miter;stroke-opacity:1" d="M 509.391,526.465 524.757,517.928 z" id="boundary" inkscape:connector-curvature="0" />
	<path style="fill:none;stroke:red;stroke-width:1px;stroke-linecap:butt;stroke-linejoin:miter;stroke-opacity:1" d="M 512.806,222.547 523.05,196.936 z" id="boundary" inkscape:connector-curvature="0" />
	<path style="fill:none;stroke:red;stroke-width:1px;stroke-linecap:butt;stroke-linejoin:miter;stroke-opacity:1" d="M 512.806,504.269 526.465,485.487 z" id="boundary" inkscape:connector-curvature="0" />
	<path style="fill:none;stroke:red;stroke-width:1px;stroke-linecap:butt;stroke-linejoin:miter;stroke-opacity:1" d="M 516.22,120.103 529.88,109.859 z" id="boundary" inkscape:connector-curvature="0" />
	<path style="fill:none;stroke:red;stroke-width:1px;stroke-linecap:butt;stroke-linejoin:miter;stroke-opacity:1" d="M 521.343,162.788 523.05,179.862 z" id="boundary" inkscape:connector-curvature="0" />
	<path style="fill:none;stroke:red;stroke-width:1px;stroke-linecap:butt;stroke-linejoin:miter;stroke-opacity:1" d="M 523.05,179.862 523.05,196.936 z" id="boundary" inkscape:connector-curvature="0" />
	<path style="fill:none;stroke:red;stroke-width:1px;stroke-linecap:butt;stroke-linejoin:miter;stroke-opacity:1" d="M 524.757,517.928 535.002,531.587 z" id="boundary" inkscape:connector-curvature="0" />
	<path style="fill:none;stroke:red;stroke-width:1px;stroke-linecap:butt;stroke-linejoin:miter;stroke-opacity:1" d="M 529.88,109.859 546.954,99.6145 z" id="boundary" inkscape:connector-curvature="0" />
	<path style="fill:none;stroke:red;stroke-width:1px;stroke-linecap:butt;stroke-linejoin:miter;stroke-opacity:1" d="M 535.002,531.587 545.246,512.806 z" id="boundary" inkscape:connector-curvature="0" />
	<path style="fill:none;stroke:red;stroke-width:1px;stroke-linecap:butt;stroke-linejoin:miter;stroke-opacity:1" d="M 545.246,512.806 548.661,495.731 z" id="boundary" inkscape:connector-curvature="0" />
	<path style="fill:none;stroke:red;stroke-width:1px;stroke-linecap:butt;stroke-linejoin:miter;stroke-opacity:1" d="M 546.954,99.6145 564.028,92.7849 z" id="boundary" inkscape:connector-curvature="0" />
	<path style="fill:none;stroke:red;stroke-width:1px;stroke-linecap:butt;stroke-linejoin:miter;stroke-opacity:1" d="M 548.661,461.583 548.661,478.657 z" id="boundary" inkscape:connector-curvature="0" />
	<path style="fill:none;stroke:red;stroke-width:1px;stroke-linecap:butt;stroke-linejoin:miter;stroke-opacity:1" d="M 548.661,461.583 565.735,459.876 z" id="boundary" inkscape:connector-curvature="0" />
	<path style="fill:none;stroke:red;stroke-width:1px;stroke-linecap:butt;stroke-linejoin:miter;stroke-opacity:1" d="M 548.661,478.657 548.661,495.731 z" id="boundary" inkscape:connector-curvature="0" />
	<path style="fill:none;stroke:red;stroke-width:1px;stroke-linecap:butt;stroke-linejoin:miter;stroke-opacity:1" d="M 564.028,92.7849 581.102,89.3701 z" id="boundary" inkscape:connector-curvature="0" />
	<path style="fill:none;stroke:red;stroke-width:1px;stroke-linecap:butt;stroke-linejoin:miter;stroke-opacity:1" d="M 565.735,459.876 582.809,459.876 z" id="boundary" inkscape:connector-curvature="0" />
	<path style="fill:none;stroke:red;stroke-width:1px;stroke-linecap:butt;stroke-linejoin:miter;stroke-opacity:1" d="M 581.102,89.3701 598.176,82.5404 z" id="boundary" inkscape:connector-curvature="0" />
	<path style="fill:none;stroke:red;stroke-width:1px;stroke-linecap:butt;stroke-linejoin:miter;stroke-opacity:1" d="M 582.809,459.876 599.883,459.876 z" id="boundary" inkscape:connector-curvature="0" />
	<path style="fill:none;stroke:red;stroke-width:1px;stroke-linecap:butt;stroke-linejoin:miter;stroke-opacity:1" d="M 598.176,82.5404 615.25,79.1256 z" id="boundary" inkscape:connector-curvature="0" />
	<path style="fill:none;stroke:red;stroke-width:1px;stroke-linecap:butt;stroke-linejoin:miter;stroke-opacity:1" d="M 599.883,459.876 616.957,459.876 z" id="boundary" inkscape:connector-curvature="0" />
	<path style="fill:none;stroke:red;stroke-width:1px;stroke-linecap:butt;stroke-linejoin:miter;stroke-opacity:1" d="M 615.25,79.1256 632.324,75.7108 z" id="boundary" inkscape:connector-curvature="0" />
	<path style="fill:none;stroke:red;stroke-width:1px;stroke-linecap:butt;stroke-linejoin:miter;stroke-opacity:1" d="M 616.957,459.876 634.031,459.876 z" id="boundary" inkscape:connector-curvature="0" />
	<path style="fill:none;stroke:red;stroke-width:1px;stroke-linecap:butt;stroke-linejoin:miter;stroke-opacity:1" d="M 632.324,75.7108 649.398,72.296 z" id="boundary" inkscape:connector-curvature="0" />
	<path style="fill:none;stroke:red;stroke-width:1px;stroke-linecap:butt;stroke-linejoin:miter;stroke-opacity:1" d="M 634.031,459.876 651.105,459.876 z" id="boundary" inkscape:connector-curvature="0" />
	<path style="fill:none;stroke:red;stroke-width:1px;stroke-linecap:butt;stroke-linejoin:miter;stroke-opacity:1" d="M 649.398,72.296 666.472,65.4664 z" id="boundary" inkscape:connector-curvature="0" />
	<path style="fill:none;stroke:red;stroke-width:1px;stroke-linecap:butt;stroke-linejoin:miter;stroke-opacity:1" d="M 651.105,459.876 668.179,459.876 z" id="boundary" inkscape:connector-curvature="0" />
	<path style="fill:none;stroke:red;stroke-width:1px;stroke-linecap:butt;stroke-linejoin:miter;stroke-opacity:1" d="M 666.472,65.4664 680.131,51.8072 z" id="boundary" inkscape:connector-curvature="0" />
	<path style="fill:none;stroke:red;stroke-width:1px;stroke-linecap:butt;stroke-linejoin:miter;stroke-opacity:1" d="M 668.179,459.876 685.253,459.876 z" id="boundary" inkscape:connector-curvature="0" />
	<path style="fill:none;stroke:red;stroke-width:1px;stroke-linecap:butt;stroke-linejoin:miter;stroke-opacity:1" d="M 680.131,51.8072 697.205,44.9776 z" id="boundary" inkscape:connector-curvature="0" />
	<path style="fill:none;stroke:red;stroke-width:1px;stroke-linecap:butt;stroke-linejoin:miter;stroke-opacity:1" d="M 685.253,459.876 702.327,459.876 z" id="boundary" inkscape:connector-curvature="0" />
	<path style="fill:none;stroke:red;stroke-width:1px;stroke-linecap:butt;stroke-linejoin:miter;stroke-opacity:1" d="M 697.205,44.9776 714.279,38.148 z" id="boundary" inkscape:connector-curvature="0" />
	<path style="fill:none;stroke:red;stroke-width:1px;stroke-linecap:butt;stroke-linejoin:miter;stroke-opacity:1" d="M 702.327,459.876 719.401,459.876 z" id="boundary" inkscape:connector-curvature="0" />
	<path style="fill:none;stroke:red;stroke-width:1px;stroke-linecap:butt;stroke-linejoin:miter;stroke-opacity:1" d="M 714.279,38.148 724.523,24.4888 z" id="boundary" inkscape:connector-curvature="0" />
	<path style="fill:none;stroke:red;stroke-width:1px;stroke-linecap:butt;stroke-linejoin:miter;stroke-opacity:1" d="M 719.401,459.876 736.475,459.876 z" id="boundary" inkscape:connector-curvature="0" />
	<path style="fill:none;stroke:red;stroke-width:1px;stroke-linecap:butt;stroke-linejoin:miter;stroke-opacity:1" d="M 724.523,24.4888 738.182,7.4148 z" id="boundary" inkscape:connector-curvature="0" />
	<path style="fill:none;stroke:red;stroke-width:1px;stroke-linecap:butt;stroke-linejoin:miter;stroke-opacity:1" d="M 736.475,459.876 753.549,459.876 z" id="boundary" inkscape:connector-curvature="0" />
	<path style="fill:none;stroke:red;stroke-width:1px;stroke-linecap:butt;stroke-linejoin:miter;stroke-opacity:1" d="M 738.182,7.4148 755.256,4 z" id="boundary" inkscape:connector-curvature="0" />
	<path style="fill:none;stroke:red;stroke-width:1px;stroke-linecap:butt;stroke-linejoin:miter;stroke-opacity:1" d="M 753.549,459.876 770.623,459.876 z" id="boundary" inkscape:connector-curvature="0" />
	<path style="fill:none;stroke:red;stroke-width:1px;stroke-linecap:butt;stroke-linejoin:miter;stroke-opacity:1" d="M 755.256,4 763.793,19.3666 z" id="boundary" inkscape:connector-curvature="0" />
	<path style="fill:none;stroke:red;stroke-width:1px;stroke-linecap:butt;stroke-linejoin:miter;stroke-opacity:1" d="M 763.793,19.3666 774.038,33.0258 z" id="boundary" inkscape:connector-curvature="0" />
	<path style="fill:none;stroke:red;stroke-width:1px;stroke-linecap:butt;stroke-linejoin:miter;stroke-opacity:1" d="M 770.623,459.876 787.697,459.876 z" id="boundary" inkscape:connector-curvature="0" />
	<path style="fill:none;stroke:red;stroke-width:1px;stroke-linecap:butt;stroke-linejoin:miter;stroke-opacity:1" d="M 774.038,33.0258 789.404,41.5628 z" id="boundary" inkscape:connector-curvature="0" />
	<path style="fill:none;stroke:red;stroke-width:1px;stroke-linecap:butt;stroke-linejoin:miter;stroke-opacity:1" d="M 787.697,459.876 804.771,459.876 z" id="boundary" inkscape:connector-curvature="0" />
	<path style="fill:none;stroke:red;stroke-width:1px;stroke-linecap:butt;stroke-linejoin:miter;stroke-opacity:1" d="M 789.404,41.5628 806.478,44.9776 z" id="boundary" inkscape:connector-curvature="0" />
	<path style="fill:none;stroke:red;stroke-width:1px;stroke-linecap:butt;stroke-linejoin:miter;stroke-opacity:1" d="M 804.771,459.876 821.845,459.876 z" id="boundary" inkscape:connector-curvature="0" />
	<path style="fill:none;stroke:red;stroke-width:1px;stroke-linecap:butt;stroke-linejoin:miter;stroke-opacity:1" d="M 806.478,44.9776 820.138,56.9294 z" id="boundary" inkscape:connector-curvature="0" />
	<path style="fill:none;stroke:red;stroke-width:1px;stroke-linecap:butt;stroke-linejoin:miter;stroke-opacity:1" d="M 820.138,56.9294 835.504,65.4664 z" id="boundary" inkscape:connector-curvature="0" />
	<path style="fill:none;stroke:red;stroke-width:1px;stroke-linecap:butt;stroke-linejoin:miter;stroke-opacity:1" d="M 821.845,459.876 838.919,459.876 z" id="boundary" inkscape:connector-curvature="0" />
	<path style="fill:none;stroke:red;stroke-width:1px;stroke-linecap:butt;stroke-linejoin:miter;stroke-opacity:1" d="M 835.504,65.4664 852.578,72.296 z" id="boundary" inkscape:connector-curvature="0" />
	<path style="fill:none;stroke:red;stroke-width:1px;stroke-linecap:butt;stroke-linejoin:miter;stroke-opacity:1" d="M 838.919,459.876 855.993,459.876 z" id="boundary" inkscape:connector-curvature="0" />
	<path style="fill:none;stroke:red;stroke-width:1px;stroke-linecap:butt;stroke-linejoin:miter;stroke-opacity:1" d="M 852.578,72.296 869.652,75.7108 z" id="boundary" inkscape:connector-curvature="0" />
	<path style="fill:none;stroke:red;stroke-width:1px;stroke-linecap:butt;stroke-linejoin:miter;stroke-opacity:1" d="M 855.993,459.876 873.067,459.876 z" id="boundary" inkscape:connector-curvature="0" />
	<path style="fill:none;stroke:red;stroke-width:1px;stroke-linecap:butt;stroke-linejoin:miter;stroke-opacity:1" d="M 869.652,75.7108 886.726,79.1256 z" id="boundary" inkscape:connector-curvature="0" />
	<path style="fill:none;stroke:red;stroke-width:1px;stroke-linecap:butt;stroke-linejoin:miter;stroke-opacity:1" d="M 873.067,459.876 890.141,459.876 z" id="boundary" inkscape:connector-curvature="0" />
	<path style="fill:none;stroke:red;stroke-width:1px;stroke-linecap:butt;stroke-linejoin:miter;stroke-opacity:1" d="M 886.726,79.1256 903.8,82.5404 z" id="boundary" inkscape:connector-curvature="0" />
	<path style="fill:none;stroke:red;stroke-width:1px;stroke-linecap:butt;stroke-linejoin:miter;stroke-opacity:1" d="M 890.141,459.876 907.215,459.876 z" id="boundary" inkscape:connector-curvature="0" />
	<path style="fill:none;stroke:red;stroke-width:1px;stroke-linecap:butt;stroke-linejoin:miter;stroke-opacity:1" d="M 903.8,82.5404 920.874,89.3701 z" id="boundary" inkscape:connector-curvature="0" />
	<path style="fill:none;stroke:red;stroke-width:1px;stroke-linecap:butt;stroke-linejoin:miter;stroke-opacity:1" d="M 907.215,459.876 924.289,459.876 z" id="boundary" inkscape:connector-curvature="0" />
	<path style="fill:none;stroke:red;stroke-width:1px;stroke-linecap:butt;stroke-linejoin:miter;stroke-opacity:1" d="M 920.874,89.3701 937.948,92.7849 z" id="boundary" inkscape:connector-curvature="0" />
	<path style="fill:none;stroke:red;stroke-width:1px;stroke-linecap:butt;stroke-linejoin:miter;stroke-opacity:1" d="M 924.289,459.876 941.363,459.876 z" id="boundary" inkscape:connector-curvature="0" />
	<path style="fill:none;stroke:red;stroke-width:1px;stroke-linecap:butt;stroke-linejoin:miter;stroke-opacity:1" d="M 937.948,92.7849 953.315,101.322 z" id="boundary" inkscape:connector-curvature="0" />
	<path style="fill:none;stroke:red;stroke-width:1px;stroke-linecap:butt;stroke-linejoin:miter;stroke-opacity:1" d="M 941.363,459.876 958.437,459.876 z" id="boundary" inkscape:connector-curvature="0" />
	<path style="fill:none;stroke:red;stroke-width:1px;stroke-linecap:butt;stroke-linejoin:miter;stroke-opacity:1" d="M 953.315,101.322 970.389,108.151 z" id="boundary" inkscape:connector-curvature="0" />
	<path style="fill:none;stroke:red;stroke-width:1px;stroke-linecap:butt;stroke-linejoin:miter;stroke-opacity:1" d="M 958.437,459.876 973.804,475.243 z" id="boundary" inkscape:connector-curvature="0" />
	<path style="fill:none;stroke:red;stroke-width:1px;stroke-linecap:butt;stroke-linejoin:miter;stroke-opacity:1" d="M 970.389,108.151 984.048,118.396 z" id="boundary" inkscape:connector-curvature="0" />
	<path style="fill:none;stroke:red;stroke-width:1px;stroke-linecap:butt;stroke-linejoin:miter;stroke-opacity:1" d="M 973.804,475.243 973.804,492.317 z" id="boundary" inkscape:connector-curvature="0" />
	<path style="fill:none;stroke:red;stroke-width:1px;stroke-linecap:butt;stroke-linejoin:miter;stroke-opacity:1" d="M 973.804,492.317 977.219,509.391 z" id="boundary" inkscape:connector-curvature="0" />
	<path style="fill:none;stroke:red;stroke-width:1px;stroke-linecap:butt;stroke-linejoin:miter;stroke-opacity:1" d="M 977.219,509.391 977.219,526.465 z" id="boundary" inkscape:connector-curvature="0" />
	<path style="fill:none;stroke:red;stroke-width:1px;stroke-linecap:butt;stroke-linejoin:miter;stroke-opacity:1" d="M 977.219,526.465 992.585,495.731 z" id="boundary" inkscape:connector-curvature="0" />
	<path style="fill:none;stroke:red;stroke-width:1px;stroke-linecap:butt;stroke-linejoin:miter;stroke-opacity:1" d="M 982.341,181.57 982.341,198.644 z" id="boundary" inkscape:connector-curvature="0" />
	<path style="fill:none;stroke:red;stroke-width:1px;stroke-linecap:butt;stroke-linejoin:miter;stroke-opacity:1" d="M 982.341,181.57 989.17,157.666 z" id="boundary" inkscape:connector-curvature="0" />
	<path style="fill:none;stroke:red;stroke-width:1px;stroke-linecap:butt;stroke-linejoin:miter;stroke-opacity:1" d="M 982.341,198.644 982.341,215.718 z" id="boundary" inkscape:connector-curvature="0" />
	<path style="fill:none;stroke:red;stroke-width:1px;stroke-linecap:butt;stroke-linejoin:miter;stroke-opacity:1" d="M 982.341,215.718 982.341,232.792 z" id="boundary" inkscape:connector-curvature="0" />
	<path style="fill:none;stroke:red;stroke-width:1px;stroke-linecap:butt;stroke-linejoin:miter;stroke-opacity:1" d="M 982.341,232.792 982.341,249.866 z" id="boundary" inkscape:connector-curvature="0" />
	<path style="fill:none;stroke:red;stroke-width:1px;stroke-linecap:butt;stroke-linejoin:miter;stroke-opacity:1" d="M 982.341,249.866 982.341,266.94 z" id="boundary" inkscape:connector-curvature="0" />
	<path style="fill:none;stroke:red;stroke-width:1px;stroke-linecap:butt;stroke-linejoin:miter;stroke-opacity:1" d="M 982.341,266.94 982.341,284.014 z" id="boundary" inkscape:connector-curvature="0" />
	<path style="fill:none;stroke:red;stroke-width:1px;stroke-linecap:butt;stroke-linejoin:miter;stroke-opacity:1" d="M 982.341,284.014 989.17,301.088 z" id="boundary" inkscape:connector-curvature="0" />
	<path style="fill:none;stroke:red;stroke-width:1px;stroke-linecap:butt;stroke-linejoin:miter;stroke-opacity:1" d="M 984.048,118.396 996,132.055 z" id="boundary" inkscape:connector-curvature="0" />
	<path style="fill:none;stroke:red;stroke-width:1px;stroke-linecap:butt;stroke-linejoin:miter;stroke-opacity:1" d="M 989.17,157.666 996,132.055 z" id="boundary" inkscape:connector-curvature="0" />
	<path style="fill:none;stroke:red;stroke-width:1px;stroke-linecap:butt;stroke-linejoin:miter;stroke-opacity:1" d="M 989.17,301.088 989.17,318.162 z" id="boundary" inkscape:connector-curvature="0" />
	<path style="fill:none;stroke:red;stroke-width:1px;stroke-linecap:butt;stroke-linejoin:miter;stroke-opacity:1" d="M 989.17,318.162 992.585,335.236 z" id="boundary" inkscape:connector-curvature="0" />
	<path style="fill:none;stroke:red;stroke-width:1px;stroke-linecap:butt;stroke-linejoin:miter;stroke-opacity:1" d="M 992.585,335.236 992.585,352.31 z" id="boundary" inkscape:connector-curvature="0" />
	<path style="fill:none;stroke:red;stroke-width:1px;stroke-linecap:butt;stroke-linejoin:miter;stroke-opacity:1" d="M 992.585,352.31 992.585,369.384 z" id="boundary" inkscape:connector-curvature="0" />
	<path style="fill:none;stroke:red;stroke-width:1px;stroke-linecap:butt;stroke-linejoin:miter;stroke-opacity:1" d="M 992.585,369.384 996,386.458 z" id="boundary" inkscape:connector-curvature="0" />
	<path style="fill:none;stroke:red;stroke-width:1px;stroke-linecap:butt;stroke-linejoin:miter;stroke-opacity:1" d="M 992.585,444.509 992.585,461.583 z" id="boundary" inkscape:connector-curvature="0" />
	<path style="fill:none;stroke:red;stroke-width:1px;stroke-linecap:butt;stroke-linejoin:miter;stroke-opacity:1" d="M 992.585,444.509 996,420.606 z" id="boundary" inkscape:connector-curvature="0" />
	<path style="fill:none;stroke:red;stroke-width:1px;stroke-linecap:butt;stroke-linejoin:miter;stroke-opacity:1" d="M 992.585,461.583 992.585,478.657 z" id="boundary" inkscape:connector-curvature="0" />
	<path style="fill:none;stroke:red;stroke-width:1px;stroke-linecap:butt;stroke-linejoin:miter;stroke-opacity:1" d="M 992.585,478.657 992.585,495.731 z" id="boundary" inkscape:connector-curvature="0" />
	<path style="fill:none;stroke:red;stroke-width:1px;stroke-linecap:butt;stroke-linejoin:miter;stroke-opacity:1" d="M 996,386.458 996,403.532 z" id="boundary" inkscape:connector-curvature="0" />
	<path style="fill:none;stroke:red;stroke-width:1px;stroke-linecap:butt;stroke-linejoin:miter;stroke-opacity:1" d="M 996,403.532 996,420.606 z" id="boundary" inkscape:connector-curvature="0" />
	<circle cx="4" cy="335.236" r="4" fill="#0" id="circle0"/>
	<circle cx="7.4148" cy="352.31" r="4" fill="#0" id="circle1"/>
	<circle cx="10.8296" cy="488.902" r="4" fill="#0" id="circle2"/>
	<circle cx="14.2444" cy="321.577" r="4" fill="#0" id="circle3"/>
	<circle cx="14.2444" cy="523.05" r="4" fill="#0" id="circle4"/>
	<circle cx="17.6592" cy="505.976" r="4" fill="#0" id="circle5"/>
	<circle cx="19.3666" cy="365.969" r="4" fill="#0" id="circle6"/>
	<circle cx="21.074" cy="383.043" r="4" fill="#0" id="circle7"/>
	<circle cx="21.074" cy="400.117" r="4" fill="#0" id="circle8"/>
	<circle cx="21.074" cy="464.998" r="4" fill="#0" id="circle9"/>
	<circle cx="24.4888" cy="417.191" r="4" fill="#0" id="circle10"/>
	<circle cx="24.4888" cy="434.265" r="4" fill="#0" id="circle11"/>
	<circle cx="27.9036" cy="311.332" r="4" fill="#0" id="circle12"/>
	<circle cx="27.9036" cy="490.609" r="4" fill="#0" id="circle13"/>
	<circle cx="31.3184" cy="524.757" r="4" fill="#0" id="circle14"/>
	<circle cx="36.4406" cy="475.243" r="4" fill="#0" id="circle15"/>
	<circle cx="44.9776" cy="304.503" r="4" fill="#0" id="circle16"/>
	<circle cx="53.5146" cy="470.12" r="4" fill="#0" id="circle17"/>
	<circle cx="62.0516" cy="297.673" r="4" fill="#0" id="circle18"/>
	<circle cx="70.5886" cy="470.12" r="4" fill="#0" id="circle19"/>
	<circle cx="79.1256" cy="294.258" r="4" fill="#0" id="circle20"/>
	<circle cx="87.6627" cy="473.535" r="4" fill="#0" id="circle21"/>
	<circle cx="96.1997" cy="290.843" r="4" fill="#0" id="circle22"/>
	<circle cx="104.737" cy="476.95" r="4" fill="#0" id="circle23"/>
	<circle cx="113.274" cy="284.014" r="4" fill="#0" id="circle24"/>
	<circle cx="121.811" cy="480.365" r="4" fill="#0" id="circle25"/>
	<circle cx="130.348" cy="284.014" r="4" fill="#0" id="circle26"/>
	<circle cx="137.177" cy="470.12" r="4" fill="#0" id="circle27"/>
	<circle cx="147.422" cy="280.599" r="4" fill="#0" id="circle28"/>
	<circle cx="154.251" cy="463.291" r="4" fill="#0" id="circle29"/>
	<circle cx="164.496" cy="280.599" r="4" fill="#0" id="circle30"/>
	<circle cx="171.325" cy="464.998" r="4" fill="#0" id="circle31"/>
	<circle cx="181.57" cy="277.184" r="4" fill="#0" id="circle32"/>
	<circle cx="186.692" cy="473.535" r="4" fill="#0" id="circle33"/>
	<circle cx="198.644" cy="277.184" r="4" fill="#0" id="circle34"/>
	<circle cx="203.766" cy="476.95" r="4" fill="#0" id="circle35"/>
	<circle cx="214.01" cy="268.647" r="4" fill="#0" id="circle36"/>
	<circle cx="220.84" cy="483.78" r="4" fill="#0" id="circle37"/>
	<circle cx="229.377" cy="260.11" r="4" fill="#0" id="circle38"/>
	<circle cx="237.914" cy="490.609" r="4" fill="#0" id="circle39"/>
	<circle cx="246.451" cy="253.281" r="4" fill="#0" id="circle40"/>
	<circle cx="254.988" cy="497.439" r="4" fill="#0" id="circle41"/>
	<circle cx="260.11" cy="243.036" r="4" fill="#0" id="circle42"/>
	<circle cx="272.062" cy="500.854" r="4" fill="#0" id="circle43"/>
	<circle cx="277.184" cy="236.207" r="4" fill="#0" id="circle44"/>
	<circle cx="289.136" cy="500.854" r="4" fill="#0" id="circle45"/>
	<circle cx="294.258" cy="239.621" r="4" fill="#0" id="circle46"/>
	<circle cx="306.21" cy="497.439" r="4" fill="#0" id="circle47"/>
	<circle cx="311.332" cy="244.744" r="4" fill="#0" id="circle48"/>
	<circle cx="323.284" cy="494.024" r="4" fill="#0" id="circle49"/>
	<circle cx="326.699" cy="253.281" r="4" fill="#0" id="circle50"/>
	<circle cx="340.358" cy="490.609" r="4" fill="#0" id="circle51"/>
	<circle cx="343.773" cy="260.11" r="4" fill="#0" id="circle52"/>
	<circle cx="354.017" cy="480.365" r="4" fill="#0" id="circle53"/>
	<circle cx="357.432" cy="270.355" r="4" fill="#0" id="circle54"/>
	<circle cx="371.091" cy="475.243" r="4" fill="#0" id="circle55"/>
	<circle cx="374.506" cy="277.184" r="4" fill="#0" id="circle56"/>
	<circle cx="388.165" cy="470.12" r="4" fill="#0" id="circle57"/>
	<circle cx="391.58" cy="280.599" r="4" fill="#0" id="circle58"/>
	<circle cx="405.239" cy="463.291" r="4" fill="#0" id="circle59"/>
	<circle cx="408.654" cy="280.599" r="4" fill="#0" id="circle60"/>
	<circle cx="422.313" cy="466.706" r="4" fill="#0" id="circle61"/>
	<circle cx="425.728" cy="280.599" r="4" fill="#0" id="circle62"/>
	<circle cx="437.68" cy="475.243" r="4" fill="#0" id="circle63"/>
	<circle cx="442.802" cy="275.477" r="4" fill="#0" id="circle64"/>
	<circle cx="453.046" cy="261.818" r="4" fill="#0" id="circle65"/>
	<circle cx="454.754" cy="480.365" r="4" fill="#0" id="circle66"/>
	<circle cx="466.706" cy="248.158" r="4" fill="#0" id="circle67"/>
	<circle cx="471.828" cy="473.535" r="4" fill="#0" id="circle68"/>
	<circle cx="480.365" cy="237.914" r="4" fill="#0" id="circle69"/>
	<circle cx="488.902" cy="470.12" r="4" fill="#0" id="circle70"/>
	<circle cx="495.731" cy="229.377" r="4" fill="#0" id="circle71"/>
	<circle cx="505.976" cy="133.762" r="4" fill="#0" id="circle72"/>
	<circle cx="505.976" cy="470.12" r="4" fill="#0" id="circle73"/>
	<circle cx="507.683" cy="150.836" r="4" fill="#0" id="circle74"/>
	<circle cx="509.391" cy="487.194" r="4" fill="#0" id="circle75"/>
	<circle cx="509.391" cy="526.465" r="4" fill="#0" id="circle76"/>
	<circle cx="512.806" cy="222.547" r="4" fill="#0" id="circle77"/>
	<circle cx="512.806" cy="504.269" r="4" fill="#0" id="circle78"/>
	<circle cx="516.22" cy="120.103" r="4" fill="#0" id="circle79"/>
	<circle cx="521.343" cy="162.788" r="4" fill="#0" id="circle80"/>
	<circle cx="523.05" cy="179.862" r="4" fill="#0" id="circle81"/>
	<circle cx="523.05" cy="196.936" r="4" fill="#0" id="circle82"/>
	<circle cx="524.757" cy="517.928" r="4" fill="#0" id="circle83"/>
	<circle cx="526.465" cy="485.487" r="4" fill="#0" id="circle84"/>
	<circle cx="529.88" cy="109.859" r="4" fill="#0" id="circle85"/>
	<circle cx="535.002" cy="531.587" r="4" fill="#0" id="circle86"/>
	<circle cx="545.246" cy="512.806" r="4" fill="#0" id="circle87"/>
	<circle cx="546.954" cy="99.6145" r="4" fill="#0" id="circle88"/>
	<circle cx="548.661" cy="461.583" r="4" fill="#0" id="circle89"/>
	<circle cx="548.661" cy="478.657" r="4" fill="#0" id="circle90"/>
	<circle cx="548.661" cy="495.731" r="4" fill="#0" id="circle91"/>
	<circle cx="564.028" cy="92.7849" r="4" fill="#0" id="circle92"/>
	<circle cx="565.735" cy="459.876" r="4" fill="#0" id="circle93"/>
	<circle cx="581.102" cy="89.3701" r="4" fill="#0" id="circle94"/>
	<circle cx="582.809" cy="459.876" r="4" fill="#0" id="circle95"/>
	<circle cx="598.176" cy="82.5404" r="4" fill="#0" id="circle96"/>
	<circle cx="599.883" cy="459.876" r="4" fill="#0" id="circle97"/>
	<circle cx="615.25" cy="79.1256" r="4" fill="#0" id="circle98"/>
	<circle cx="616.957" cy="459.876" r="4" fill="#0" id="circle99"/>
	<circle cx="632.324" cy="75.7108" r="4" fill="#0" id="circle100"/>
	<circle cx="634.031" cy="459.876" r="4" fill="#0" id="circle101"/>
	<circle cx="649.398" cy="72.296" r="4" fill="#0" id="circle102"/>
	<circle cx="651.105" cy="459.876" r="4" fill="#0" id="circle103"/>
	<circle cx="666.472" cy="65.4664" r="4" fill="#0" id="circle104"/>
	<circle cx="668.179" cy="459.876" r="4" fill="#0" id="circle105"/>
	<circle cx="680.131" cy="51.8072" r="4" fill="#0" id="circle106"/>
	<circle cx="685.253" cy="459.876" r="4" fill="#0" id="circle107"/>
	<circle cx="697.205" cy="44.9776" r="4" fill="#0" id="circle108"/>
	<circle cx="702.327" cy="459.876" r="4" fill="#0" id="circle109"/>
	<circle cx="714.279" cy="38.148" r="4" fill="#0" id="circle110"/>
	<circle cx="719.401" cy="459.876" r="4" fill="#0" id="circle111"/>
	<circle cx="724.523" cy="24.4888" r="4" fill="#0" id="circle112"/>
	<circle cx="736.475" cy="459.876" r="4" fill="#0" id="circle113"/>
	<circle cx="738.182" cy="7.4148" r="4" fill="#0" id="circle114"/>
	<circle cx="753.549" cy="459.876" r="4" fill="#0" id="circle115"/>
	<circle cx="755.256" cy="4" r="4" fill="#0" id="circle116"/>
	<circle cx="763.793" cy="19.3666" r="4" fill="#0" id="circle117"/>
	<circle cx="770.623" cy="459.876" r="4" fill="#0" id="circle118"/>
	<circle cx="774.038" cy="33.0258" r="4" fill="#0" id="circle119"/>
	<circle cx="787.697" cy="459.876" r="4" fill="#0" id="circle120"/>
	<circle cx="789.404" cy="41.5628" r="4" fill="#0" id="circle121"/>
	<circle cx="804.771" cy="459.876" r="4" fill="#0" id="circle122"/>
	<circle cx="806.478" cy="44.9776" r="4" fill="#0" id="circle123"/>
	<circle cx="820.138" cy="56.9294" r="4" fill="#0" id="circle124"/>
	<circle cx="821.845" cy="459.876" r="4" fill="#0" id="circle125"/>
	<circle cx="835.504" cy="65.4664" r="4" fill="#0" id="circle126"/>
	<circle cx="838.919" cy="459.876" r="4" fill="#0" id="circle127"/>
	<circle cx="852.578" cy="72.296" r="4" fill="#0" id="circle128"/>
	<circle cx="855.993" cy="459.876" r="4" fill="#0" id="circle129"/>
	<circle cx="869.652" cy="75.7108" r="4" fill="#0" id="circle130"/>
	<circle cx="873.067" cy="459.876" r="4" fill="#0" id="circle131"/>
	<circle cx="886.726" cy="79.1256" r="4" fill="#0" id="circle132"/>
	<circle cx="890.141" cy="459.876" r="4" fill="#0" id="circle133"/>
	<circle cx="903.8" cy="82.5404" r="4" fill="#0" id="circle134"/>
	<circle cx="907.215" cy="459.876" r="4" fill="#0" id="circle135"/>
	<circle cx="920.874" cy="89.3701" r="4" fill="#0" id="circle136"/>
	<circle cx="924.289" cy="459.876" r="4" fill="#0" id="circle137"/>
	<circle cx="937.948" cy="92.7849" r="4" fill="#0" id="circle138"/>
	<circle cx="941.363" cy="459.876" r="4" fill="#0" id="circle139"/>
	<circle cx="953.315" cy="101.322" r="4" fill="#0" id="circle140"/>
	<circle cx="958.437" cy="459.876" r="4" fill="#0" id="circle141"/>
	<circle cx="970.389" cy="108.151" r="4" fill="#0" id="circle142"/>
	<circle cx="973.804" cy="475.243" r="4" fill="#0" id="circle143"/>
	<circle cx="973.804" cy="492.317" r="4" fill="#0" id="circle144"/>
	<circle cx="977.219" cy="509.391" r="4" fill="#0" id="circle145"/>
	<circle cx="977.219" cy="526.465" r="4" fill="#0" id="circle146"/>
	<circle cx="982.341" cy="181.57" r="4" fill="#0" id="circle147"/>
	<circle cx="982.341" cy="198.644" r="4" fill="#0" id="circle148"/>
	<circle cx="982.341" cy="215.718" r="4" fill="#0" id="circle149"/>
	<circle cx="982.341" cy="232.792" r="4" fill="#0" id="circle150"/>
	<circle cx="982.341" cy="249.866" r="4" fill="#0" id="circle151"/>
	<circle cx="982.341" cy="266.94" r="4" fill="#0" id="circle152"/>
	<circle cx="982.341" cy="284.014" r="4" fill="#0" id="circle153"/>
	<circle cx="984.048" cy="118.396" r="4" fill="#0" id="circle154"/>
	<circle cx="989.17" cy="157.666" r="4" fill="#0" id="circle155"/>
	<circle cx="989.17" cy="301.088" r="4" fill="#0" id="circle156"/>
	<circle cx="989.17" cy="318.162" r="4" fill="#0" id="circle157"/>
	<circle cx="992.585" cy="335.236" r="4" fill="#0" id="circle158"/>
	<circle cx="992.585" cy="352.31" r="4" fill="#0" id="circle159"/>
	<circle cx="992.585" cy="369.384" r="4" fill="#0" id="circle160"/>
	<circle cx="992.585" cy="444.509" r="4" fill="#0" id="circle161"/>
	<circle cx="992.585" cy="461.583" r="4" fill="#0" id="circle162"/>
	<circle cx="992.585" cy="478.657" r="4" fill="#0" id="circle163"/>
	<circle cx="992.585" cy="495.731" r="4" fill="#0" id="circle164"/>
	<circle cx="996" cy="132.055" r="4" fill="#0" id="circle165"/>
	<circle cx="996" cy="386.458" r="4" fill="#0" id="circle166"/>
	<circle cx="996" cy="403.532" r="4" fill="#0" id="circle167"/>
	<circle cx="996" cy="420.606" r="4" fill="#0" id="circle168"/>
	</g>
</svg>