<?xml version="1.0" encoding="UTF-8" standalone="no"?>
<!-- Created with CurveBenchmark -->
<svg
	xmlns:dc="http://purl.org/dc/elements/1.1/"
	xmlns:cc="http://creativecommons.org/ns#"
	xmlns:rdf="http://www.w3.org/1999/02/22-rdf-syntax-ns#"
	xmlns:svg="http://www.w3.org/2000/svg"
	xmlns="http://www.w3.org/2000/svg"
	xmlns:sodipodi="http://sodipodi.sourceforge.net/DTD/sodipodi-0.dtd"
	xmlns:inkscape="http://www.inkscape.org/namespaces/inkscape"
	width="1000"
	height="1000"
	id="svg2"
	version="1.1"
	sodipodi:docname="manifold/discur-spoon-1.png.txt">
<defs
	id="defs4" />
<metadata
	id="metadata7">
	<rdf:RDF>
		<cc:Work
			rdf:about="">
			<dc:format>image/svg+xml</dc:format>
			<dc:type
				rdf:resource="http://purl.org/dc/dcmitype/StillImage" />
			<dc:title></dc:title>
		</cc:Work>
	</rdf:RDF>
</metadata>
<g
	inkscape:label="Layer 1"
	inkscape:groupmode="layer"
	id="layer1">
	<path style="fill:none;stroke:red;stroke-width:1px;stroke-linecap:butt;stroke-linejoin:miter;stroke-opacity:1" d="M 4,31.7189 4,40.1185 z" id="boundary" inkscape:connector-curvature="0" />
	<path style="fill:none;stroke:red;stroke-width:1px;stroke-linecap:butt;stroke-linejoin:miter;stroke-opacity:1" d="M 4,31.7189 8.19983,23.3192 z" id="boundary" inkscape:connector-curvature="0" />
	<path style="fill:none;stroke:red;stroke-width:1px;stroke-linecap:butt;stroke-linejoin:miter;stroke-opacity:1" d="M 4,40.1185 4,48.5182 z" id="boundary" inkscape:connector-curvature="0" />
	<path style="fill:none;stroke:red;stroke-width:1px;stroke-linecap:butt;stroke-linejoin:miter;stroke-opacity:1" d="M 4,48.5182 4,56.9179 z" id="boundary" inkscape:connector-curvature="0" />
	<path style="fill:none;stroke:red;stroke-width:1px;stroke-linecap:butt;stroke-linejoin:miter;stroke-opacity:1" d="M 4,56.9179 8.19983,64.4776 z" id="boundary" inkscape:connector-curvature="0" />
	<path style="fill:none;stroke:red;stroke-width:1px;stroke-linecap:butt;stroke-linejoin:miter;stroke-opacity:1" d="M 8.19983,23.3192 21.6393,9.87976 z" id="boundary" inkscape:connector-curvature="0" />
	<path style="fill:none;stroke:red;stroke-width:1px;stroke-linecap:butt;stroke-linejoin:miter;stroke-opacity:1" d="M 8.19983,64.4776 20.7993,76.2371 z" id="boundary" inkscape:connector-curvature="0" />
	<path style="fill:none;stroke:red;stroke-width:1px;stroke-linecap:butt;stroke-linejoin:miter;stroke-opacity:1" d="M 20.7993,76.2371 28.359,80.4369 z" id="boundary" inkscape:connector-curvature="0" />
	<path style="fill:none;stroke:red;stroke-width:1px;stroke-linecap:butt;stroke-linejoin:miter;stroke-opacity:1" d="M 21.6393,9.87976 30.039,5.67993 z" id="boundary" inkscape:connector-curvature="0" />
	<path style="fill:none;stroke:red;stroke-width:1px;stroke-linecap:butt;stroke-linejoin:miter;stroke-opacity:1" d="M 28.359,80.4369 35.9187,84.6367 z" id="boundary" inkscape:connector-curvature="0" />
	<path style="fill:none;stroke:red;stroke-width:1px;stroke-linecap:butt;stroke-linejoin:miter;stroke-opacity:1" d="M 30.039,5.67993 38.4386,4 z" id="boundary" inkscape:connector-curvature="0" />
	<path style="fill:none;stroke:red;stroke-width:1px;stroke-linecap:butt;stroke-linejoin:miter;stroke-opacity:1" d="M 35.9187,84.6367 44.3184,84.6367 z" id="boundary" inkscape:connector-curvature="0" />
	<path style="fill:none;stroke:red;stroke-width:1px;stroke-linecap:butt;stroke-linejoin:miter;stroke-opacity:1" d="M 38.4386,4 46.8383,4 z" id="boundary" inkscape:connector-curvature="0" />
	<path style="fill:none;stroke:red;stroke-width:1px;stroke-linecap:butt;stroke-linejoin:miter;stroke-opacity:1" d="M 44.3184,84.6367 52.718,84.6367 z" id="boundary" inkscape:connector-curvature="0" />
	<path style="fill:none;stroke:red;stroke-width:1px;stroke-linecap:butt;stroke-linejoin:miter;stroke-opacity:1" d="M 46.8383,4 55.2379,4 z" id="boundary" inkscape:connector-curvature="0" />
	<path style="fill:none;stroke:red;stroke-width:1px;stroke-linecap:butt;stroke-linejoin:miter;stroke-opacity:1" d="M 52.718,84.6367 61.1177,84.6367 z" id="boundary" inkscape:connector-curvature="0" />
	<path style="fill:none;stroke:red;stroke-width:1px;stroke-linecap:butt;stroke-linejoin:miter;stroke-opacity:1" d="M 55.2379,4 63.6376,4 z" id="boundary" inkscape:connector-curvature="0" />
	<path style="fill:none;stroke:red;stroke-width:1px;stroke-linecap:butt;stroke-linejoin:miter;stroke-opacity:1" d="M 61.1177,84.6367 69.5174,87.9966 z" id="boundary" inkscape:connector-curvature="0" />
	<path style="fill:none;stroke:red;stroke-width:1px;stroke-linecap:butt;stroke-linejoin:miter;stroke-opacity:1" d="M 63.6376,4 72.0373,4 z" id="boundary" inkscape:connector-curvature="0" />
	<path style="fill:none;stroke:red;stroke-width:1px;stroke-linecap:butt;stroke-linejoin:miter;stroke-opacity:1" d="M 69.5174,87.9966 77.917,88.8366 z" id="boundary" inkscape:connector-curvature="0" />
	<path style="fill:none;stroke:red;stroke-width:1px;stroke-linecap:butt;stroke-linejoin:miter;stroke-opacity:1" d="M 72.0373,4 79.597,8.19983 z" id="boundary" inkscape:connector-curvature="0" />
	<path style="fill:none;stroke:red;stroke-width:1px;stroke-linecap:butt;stroke-linejoin:miter;stroke-opacity:1" d="M 77.917,88.8366 86.3167,92.1964 z" id="boundary" inkscape:connector-curvature="0" />
	<path style="fill:none;stroke:red;stroke-width:1px;stroke-linecap:butt;stroke-linejoin:miter;stroke-opacity:1" d="M 79.597,8.19983 87.9966,8.19983 z" id="boundary" inkscape:connector-curvature="0" />
	<path style="fill:none;stroke:red;stroke-width:1px;stroke-linecap:butt;stroke-linejoin:miter;stroke-opacity:1" d="M 86.3167,92.1964 94.7163,93.0364 z" id="boundary" inkscape:connector-curvature="0" />
	<path style="fill:none;stroke:red;stroke-width:1px;stroke-linecap:butt;stroke-linejoin:miter;stroke-opacity:1" d="M 87.9966,8.19983 96.3963,9.87976 z" id="boundary" inkscape:connector-curvature="0" />
	<path style="fill:none;stroke:red;stroke-width:1px;stroke-linecap:butt;stroke-linejoin:miter;stroke-opacity:1" d="M 94.7163,93.0364 103.116,96.3963 z" id="boundary" inkscape:connector-curvature="0" />
	<path style="fill:none;stroke:red;stroke-width:1px;stroke-linecap:butt;stroke-linejoin:miter;stroke-opacity:1" d="M 96.3963,9.87976 104.796,12.3997 z" id="boundary" inkscape:connector-curvature="0" />
	<path style="fill:none;stroke:red;stroke-width:1px;stroke-linecap:butt;stroke-linejoin:miter;stroke-opacity:1" d="M 103.116,96.3963 111.516,97.2362 z" id="boundary" inkscape:connector-curvature="0" />
	<path style="fill:none;stroke:red;stroke-width:1px;stroke-linecap:butt;stroke-linejoin:miter;stroke-opacity:1" d="M 104.796,12.3997 113.196,14.0796 z" id="boundary" inkscape:connector-curvature="0" />
	<path style="fill:none;stroke:red;stroke-width:1px;stroke-linecap:butt;stroke-linejoin:miter;stroke-opacity:1" d="M 111.516,97.2362 119.075,101.436 z" id="boundary" inkscape:connector-curvature="0" />
	<path style="fill:none;stroke:red;stroke-width:1px;stroke-linecap:butt;stroke-linejoin:miter;stroke-opacity:1" d="M 113.196,14.0796 121.595,16.5995 z" id="boundary" inkscape:connector-curvature="0" />
	<path style="fill:none;stroke:red;stroke-width:1px;stroke-linecap:butt;stroke-linejoin:miter;stroke-opacity:1" d="M 119.075,101.436 126.635,105.636 z" id="boundary" inkscape:connector-curvature="0" />
	<path style="fill:none;stroke:red;stroke-width:1px;stroke-linecap:butt;stroke-linejoin:miter;stroke-opacity:1" d="M 121.595,16.5995 129.995,18.2794 z" id="boundary" inkscape:connector-curvature="0" />
	<path style="fill:none;stroke:red;stroke-width:1px;stroke-linecap:butt;stroke-linejoin:miter;stroke-opacity:1" d="M 126.635,105.636 134.195,109.836 z" id="boundary" inkscape:connector-curvature="0" />
	<path style="fill:none;stroke:red;stroke-width:1px;stroke-linecap:butt;stroke-linejoin:miter;stroke-opacity:1" d="M 129.995,18.2794 137.555,22.4793 z" id="boundary" inkscape:connector-curvature="0" />
	<path style="fill:none;stroke:red;stroke-width:1px;stroke-linecap:butt;stroke-linejoin:miter;stroke-opacity:1" d="M 134.195,109.836 141.754,114.036 z" id="boundary" inkscape:connector-curvature="0" />
	<path style="fill:none;stroke:red;stroke-width:1px;stroke-linecap:butt;stroke-linejoin:miter;stroke-opacity:1" d="M 137.555,22.4793 145.954,24.9992 z" id="boundary" inkscape:connector-curvature="0" />
	<path style="fill:none;stroke:red;stroke-width:1px;stroke-linecap:butt;stroke-linejoin:miter;stroke-opacity:1" d="M 141.754,114.036 149.314,118.235 z" id="boundary" inkscape:connector-curvature="0" />
	<path style="fill:none;stroke:red;stroke-width:1px;stroke-linecap:butt;stroke-linejoin:miter;stroke-opacity:1" d="M 145.954,24.9992 153.514,29.199 z" id="boundary" inkscape:connector-curvature="0" />
	<path style="fill:none;stroke:red;stroke-width:1px;stroke-linecap:butt;stroke-linejoin:miter;stroke-opacity:1" d="M 149.314,118.235 157.714,121.595 z" id="boundary" inkscape:connector-curvature="0" />
	<path style="fill:none;stroke:red;stroke-width:1px;stroke-linecap:butt;stroke-linejoin:miter;stroke-opacity:1" d="M 153.514,29.199 161.074,33.3988 z" id="boundary" inkscape:connector-curvature="0" />
	<path style="fill:none;stroke:red;stroke-width:1px;stroke-linecap:butt;stroke-linejoin:miter;stroke-opacity:1" d="M 157.714,121.595 171.993,130.835 z" id="boundary" inkscape:connector-curvature="0" />
	<path style="fill:none;stroke:red;stroke-width:1px;stroke-linecap:butt;stroke-linejoin:miter;stroke-opacity:1" d="M 161.074,33.3988 168.633,37.5986 z" id="boundary" inkscape:connector-curvature="0" />
	<path style="fill:none;stroke:red;stroke-width:1px;stroke-linecap:butt;stroke-linejoin:miter;stroke-opacity:1" d="M 168.633,37.5986 177.033,40.1185 z" id="boundary" inkscape:connector-curvature="0" />
	<path style="fill:none;stroke:red;stroke-width:1px;stroke-linecap:butt;stroke-linejoin:miter;stroke-opacity:1" d="M 171.993,130.835 179.553,135.035 z" id="boundary" inkscape:connector-curvature="0" />
	<path style="fill:none;stroke:red;stroke-width:1px;stroke-linecap:butt;stroke-linejoin:miter;stroke-opacity:1" d="M 177.033,40.1185 184.593,44.3184 z" id="boundary" inkscape:connector-curvature="0" />
	<path style="fill:none;stroke:red;stroke-width:1px;stroke-linecap:butt;stroke-linejoin:miter;stroke-opacity:1" d="M 179.553,135.035 187.113,139.235 z" id="boundary" inkscape:connector-curvature="0" />
	<path style="fill:none;stroke:red;stroke-width:1px;stroke-linecap:butt;stroke-linejoin:miter;stroke-opacity:1" d="M 184.593,44.3184 192.992,47.6782 z" id="boundary" inkscape:connector-curvature="0" />
	<path style="fill:none;stroke:red;stroke-width:1px;stroke-linecap:butt;stroke-linejoin:miter;stroke-opacity:1" d="M 187.113,139.235 194.672,143.434 z" id="boundary" inkscape:connector-curvature="0" />
	<path style="fill:none;stroke:red;stroke-width:1px;stroke-linecap:butt;stroke-linejoin:miter;stroke-opacity:1" d="M 192.992,47.6782 205.592,58.5978 z" id="boundary" inkscape:connector-curvature="0" />
	<path style="fill:none;stroke:red;stroke-width:1px;stroke-linecap:butt;stroke-linejoin:miter;stroke-opacity:1" d="M 194.672,143.434 201.392,148.474 z" id="boundary" inkscape:connector-curvature="0" />
	<path style="fill:none;stroke:red;stroke-width:1px;stroke-linecap:butt;stroke-linejoin:miter;stroke-opacity:1" d="M 201.392,148.474 213.992,160.234 z" id="boundary" inkscape:connector-curvature="0" />
	<path style="fill:none;stroke:red;stroke-width:1px;stroke-linecap:butt;stroke-linejoin:miter;stroke-opacity:1" d="M 205.592,58.5978 213.152,62.7976 z" id="boundary" inkscape:connector-curvature="0" />
	<path style="fill:none;stroke:red;stroke-width:1px;stroke-linecap:butt;stroke-linejoin:miter;stroke-opacity:1" d="M 213.152,62.7976 220.711,66.9975 z" id="boundary" inkscape:connector-curvature="0" />
	<path style="fill:none;stroke:red;stroke-width:1px;stroke-linecap:butt;stroke-linejoin:miter;stroke-opacity:1" d="M 213.992,160.234 221.551,164.434 z" id="boundary" inkscape:connector-curvature="0" />
	<path style="fill:none;stroke:red;stroke-width:1px;stroke-linecap:butt;stroke-linejoin:miter;stroke-opacity:1" d="M 220.711,66.9975 228.271,71.1973 z" id="boundary" inkscape:connector-curvature="0" />
	<path style="fill:none;stroke:red;stroke-width:1px;stroke-linecap:butt;stroke-linejoin:miter;stroke-opacity:1" d="M 221.551,164.434 229.951,164.434 z" id="boundary" inkscape:connector-curvature="0" />
	<path style="fill:none;stroke:red;stroke-width:1px;stroke-linecap:butt;stroke-linejoin:miter;stroke-opacity:1" d="M 228.271,71.1973 235.831,75.3971 z" id="boundary" inkscape:connector-curvature="0" />
	<path style="fill:none;stroke:red;stroke-width:1px;stroke-linecap:butt;stroke-linejoin:miter;stroke-opacity:1" d="M 229.951,164.434 237.511,168.633 z" id="boundary" inkscape:connector-curvature="0" />
	<path style="fill:none;stroke:red;stroke-width:1px;stroke-linecap:butt;stroke-linejoin:miter;stroke-opacity:1" d="M 235.831,75.3971 244.23,77.917 z" id="boundary" inkscape:connector-curvature="0" />
	<path style="fill:none;stroke:red;stroke-width:1px;stroke-linecap:butt;stroke-linejoin:miter;stroke-opacity:1" d="M 237.511,168.633 245.07,172.833 z" id="boundary" inkscape:connector-curvature="0" />
	<path style="fill:none;stroke:red;stroke-width:1px;stroke-linecap:butt;stroke-linejoin:miter;stroke-opacity:1" d="M 244.23,77.917 250.11,84.6367 z" id="boundary" inkscape:connector-curvature="0" />
	<path style="fill:none;stroke:red;stroke-width:1px;stroke-linecap:butt;stroke-linejoin:miter;stroke-opacity:1" d="M 245.07,172.833 252.63,177.033 z" id="boundary" inkscape:connector-curvature="0" />
	<path style="fill:none;stroke:red;stroke-width:1px;stroke-linecap:butt;stroke-linejoin:miter;stroke-opacity:1" d="M 250.11,84.6367 265.229,92.1964 z" id="boundary" inkscape:connector-curvature="0" />
	<path style="fill:none;stroke:red;stroke-width:1px;stroke-linecap:butt;stroke-linejoin:miter;stroke-opacity:1" d="M 252.63,177.033 260.19,181.233 z" id="boundary" inkscape:connector-curvature="0" />
	<path style="fill:none;stroke:red;stroke-width:1px;stroke-linecap:butt;stroke-linejoin:miter;stroke-opacity:1" d="M 260.19,181.233 267.749,185.433 z" id="boundary" inkscape:connector-curvature="0" />
	<path style="fill:none;stroke:red;stroke-width:1px;stroke-linecap:butt;stroke-linejoin:miter;stroke-opacity:1" d="M 265.229,92.1964 272.789,96.3963 z" id="boundary" inkscape:connector-curvature="0" />
	<path style="fill:none;stroke:red;stroke-width:1px;stroke-linecap:butt;stroke-linejoin:miter;stroke-opacity:1" d="M 267.749,185.433 273.629,192.152 z" id="boundary" inkscape:connector-curvature="0" />
	<path style="fill:none;stroke:red;stroke-width:1px;stroke-linecap:butt;stroke-linejoin:miter;stroke-opacity:1" d="M 272.789,96.3963 280.349,100.596 z" id="boundary" inkscape:connector-curvature="0" />
	<path style="fill:none;stroke:red;stroke-width:1px;stroke-linecap:butt;stroke-linejoin:miter;stroke-opacity:1" d="M 273.629,192.152 280.349,198.032 z" id="boundary" inkscape:connector-curvature="0" />
	<path style="fill:none;stroke:red;stroke-width:1px;stroke-linecap:butt;stroke-linejoin:miter;stroke-opacity:1" d="M 280.349,100.596 287.909,104.796 z" id="boundary" inkscape:connector-curvature="0" />
	<path style="fill:none;stroke:red;stroke-width:1px;stroke-linecap:butt;stroke-linejoin:miter;stroke-opacity:1" d="M 280.349,198.032 287.909,202.232 z" id="boundary" inkscape:connector-curvature="0" />
	<path style="fill:none;stroke:red;stroke-width:1px;stroke-linecap:butt;stroke-linejoin:miter;stroke-opacity:1" d="M 287.909,104.796 295.468,108.996 z" id="boundary" inkscape:connector-curvature="0" />
	<path style="fill:none;stroke:red;stroke-width:1px;stroke-linecap:butt;stroke-linejoin:miter;stroke-opacity:1" d="M 287.909,202.232 294.628,208.112 z" id="boundary" inkscape:connector-curvature="0" />
	<path style="fill:none;stroke:red;stroke-width:1px;stroke-linecap:butt;stroke-linejoin:miter;stroke-opacity:1" d="M 294.628,208.112 300.508,214.831 z" id="boundary" inkscape:connector-curvature="0" />
	<path style="fill:none;stroke:red;stroke-width:1px;stroke-linecap:butt;stroke-linejoin:miter;stroke-opacity:1" d="M 295.468,108.996 303.028,113.196 z" id="boundary" inkscape:connector-curvature="0" />
	<path style="fill:none;stroke:red;stroke-width:1px;stroke-linecap:butt;stroke-linejoin:miter;stroke-opacity:1" d="M 300.508,214.831 307.228,220.711 z" id="boundary" inkscape:connector-curvature="0" />
	<path style="fill:none;stroke:red;stroke-width:1px;stroke-linecap:butt;stroke-linejoin:miter;stroke-opacity:1" d="M 303.028,113.196 309.748,118.235 z" id="boundary" inkscape:connector-curvature="0" />
	<path style="fill:none;stroke:red;stroke-width:1px;stroke-linecap:butt;stroke-linejoin:miter;stroke-opacity:1" d="M 307.228,220.711 314.787,224.911 z" id="boundary" inkscape:connector-curvature="0" />
	<path style="fill:none;stroke:red;stroke-width:1px;stroke-linecap:butt;stroke-linejoin:miter;stroke-opacity:1" d="M 309.748,118.235 324.027,128.315 z" id="boundary" inkscape:connector-curvature="0" />
	<path style="fill:none;stroke:red;stroke-width:1px;stroke-linecap:butt;stroke-linejoin:miter;stroke-opacity:1" d="M 314.787,224.911 328.227,235.831 z" id="boundary" inkscape:connector-curvature="0" />
	<path style="fill:none;stroke:red;stroke-width:1px;stroke-linecap:butt;stroke-linejoin:miter;stroke-opacity:1" d="M 324.027,128.315 329.907,135.035 z" id="boundary" inkscape:connector-curvature="0" />
	<path style="fill:none;stroke:red;stroke-width:1px;stroke-linecap:butt;stroke-linejoin:miter;stroke-opacity:1" d="M 328.227,235.831 335.787,240.03 z" id="boundary" inkscape:connector-curvature="0" />
	<path style="fill:none;stroke:red;stroke-width:1px;stroke-linecap:butt;stroke-linejoin:miter;stroke-opacity:1" d="M 329.907,135.035 338.307,138.395 z" id="boundary" inkscape:connector-curvature="0" />
	<path style="fill:none;stroke:red;stroke-width:1px;stroke-linecap:butt;stroke-linejoin:miter;stroke-opacity:1" d="M 335.787,240.03 343.346,244.23 z" id="boundary" inkscape:connector-curvature="0" />
	<path style="fill:none;stroke:red;stroke-width:1px;stroke-linecap:butt;stroke-linejoin:miter;stroke-opacity:1" d="M 338.307,138.395 344.186,145.114 z" id="boundary" inkscape:connector-curvature="0" />
	<path style="fill:none;stroke:red;stroke-width:1px;stroke-linecap:butt;stroke-linejoin:miter;stroke-opacity:1" d="M 343.346,244.23 350.906,248.43 z" id="boundary" inkscape:connector-curvature="0" />
	<path style="fill:none;stroke:red;stroke-width:1px;stroke-linecap:butt;stroke-linejoin:miter;stroke-opacity:1" d="M 344.186,145.114 350.906,150.994 z" id="boundary" inkscape:connector-curvature="0" />
	<path style="fill:none;stroke:red;stroke-width:1px;stroke-linecap:butt;stroke-linejoin:miter;stroke-opacity:1" d="M 350.906,150.994 356.786,157.714 z" id="boundary" inkscape:connector-curvature="0" />
	<path style="fill:none;stroke:red;stroke-width:1px;stroke-linecap:butt;stroke-linejoin:miter;stroke-opacity:1" d="M 356.786,157.714 363.506,163.594 z" id="boundary" inkscape:connector-curvature="0" />
	<path style="fill:none;stroke:red;stroke-width:1px;stroke-linecap:butt;stroke-linejoin:miter;stroke-opacity:1" d="M 363.506,163.594 371.065,167.793 z" id="boundary" inkscape:connector-curvature="0" />
	<path style="fill:none;stroke:red;stroke-width:1px;stroke-linecap:butt;stroke-linejoin:miter;stroke-opacity:1" d="M 365.185,258.51 373.585,261.03 z" id="boundary" inkscape:connector-curvature="0" />
	<path style="fill:none;stroke:red;stroke-width:1px;stroke-linecap:butt;stroke-linejoin:miter;stroke-opacity:1" d="M 365.185,258.51 378.625,267.749 z" id="boundary" inkscape:connector-curvature="0" />
	<path style="fill:none;stroke:red;stroke-width:1px;stroke-linecap:butt;stroke-linejoin:miter;stroke-opacity:1" d="M 371.065,167.793 378.625,171.993 z" id="boundary" inkscape:connector-curvature="0" />
	<path style="fill:none;stroke:red;stroke-width:1px;stroke-linecap:butt;stroke-linejoin:miter;stroke-opacity:1" d="M 373.585,261.03 378.625,267.749 z" id="boundary" inkscape:connector-curvature="0" />
	<path style="fill:none;stroke:red;stroke-width:1px;stroke-linecap:butt;stroke-linejoin:miter;stroke-opacity:1" d="M 378.625,171.993 387.025,174.513 z" id="boundary" inkscape:connector-curvature="0" />
	<path style="fill:none;stroke:red;stroke-width:1px;stroke-linecap:butt;stroke-linejoin:miter;stroke-opacity:1" d="M 387.025,174.513 401.304,184.593 z" id="boundary" inkscape:connector-curvature="0" />
	<path style="fill:none;stroke:red;stroke-width:1px;stroke-linecap:butt;stroke-linejoin:miter;stroke-opacity:1" d="M 392.904,277.829 399.624,283.709 z" id="boundary" inkscape:connector-curvature="0" />
	<path style="fill:none;stroke:red;stroke-width:1px;stroke-linecap:butt;stroke-linejoin:miter;stroke-opacity:1" d="M 399.624,283.709 405.504,290.428 z" id="boundary" inkscape:connector-curvature="0" />
	<path style="fill:none;stroke:red;stroke-width:1px;stroke-linecap:butt;stroke-linejoin:miter;stroke-opacity:1" d="M 401.304,184.593 408.864,188.793 z" id="boundary" inkscape:connector-curvature="0" />
	<path style="fill:none;stroke:red;stroke-width:1px;stroke-linecap:butt;stroke-linejoin:miter;stroke-opacity:1" d="M 405.504,290.428 413.903,293.788 z" id="boundary" inkscape:connector-curvature="0" />
	<path style="fill:none;stroke:red;stroke-width:1px;stroke-linecap:butt;stroke-linejoin:miter;stroke-opacity:1" d="M 408.864,188.793 416.423,192.992 z" id="boundary" inkscape:connector-curvature="0" />
	<path style="fill:none;stroke:red;stroke-width:1px;stroke-linecap:butt;stroke-linejoin:miter;stroke-opacity:1" d="M 416.423,192.992 423.143,198.032 z" id="boundary" inkscape:connector-curvature="0" />
	<path style="fill:none;stroke:red;stroke-width:1px;stroke-linecap:butt;stroke-linejoin:miter;stroke-opacity:1" d="M 423.143,198.032 435.743,210.632 z" id="boundary" inkscape:connector-curvature="0" />
	<path style="fill:none;stroke:red;stroke-width:1px;stroke-linecap:butt;stroke-linejoin:miter;stroke-opacity:1" d="M 423.983,308.068 429.863,314.787 z" id="boundary" inkscape:connector-curvature="0" />
	<path style="fill:none;stroke:red;stroke-width:1px;stroke-linecap:butt;stroke-linejoin:miter;stroke-opacity:1" d="M 423.983,308.068 436.583,319.827 z" id="boundary" inkscape:connector-curvature="0" />
	<path style="fill:none;stroke:red;stroke-width:1px;stroke-linecap:butt;stroke-linejoin:miter;stroke-opacity:1" d="M 429.863,314.787 436.583,319.827 z" id="boundary" inkscape:connector-curvature="0" />
	<path style="fill:none;stroke:red;stroke-width:1px;stroke-linecap:butt;stroke-linejoin:miter;stroke-opacity:1" d="M 435.743,210.632 450.022,220.711 z" id="boundary" inkscape:connector-curvature="0" />
	<path style="fill:none;stroke:red;stroke-width:1px;stroke-linecap:butt;stroke-linejoin:miter;stroke-opacity:1" d="M 448.342,332.427 454.222,339.146 z" id="boundary" inkscape:connector-curvature="0" />
	<path style="fill:none;stroke:red;stroke-width:1px;stroke-linecap:butt;stroke-linejoin:miter;stroke-opacity:1" d="M 450.022,220.711 455.902,227.431 z" id="boundary" inkscape:connector-curvature="0" />
	<path style="fill:none;stroke:red;stroke-width:1px;stroke-linecap:butt;stroke-linejoin:miter;stroke-opacity:1" d="M 454.222,339.146 460.942,345.026 z" id="boundary" inkscape:connector-curvature="0" />
	<path style="fill:none;stroke:red;stroke-width:1px;stroke-linecap:butt;stroke-linejoin:miter;stroke-opacity:1" d="M 455.902,227.431 464.301,230.791 z" id="boundary" inkscape:connector-curvature="0" />
	<path style="fill:none;stroke:red;stroke-width:1px;stroke-linecap:butt;stroke-linejoin:miter;stroke-opacity:1" d="M 460.942,345.026 466.821,351.746 z" id="boundary" inkscape:connector-curvature="0" />
	<path style="fill:none;stroke:red;stroke-width:1px;stroke-linecap:butt;stroke-linejoin:miter;stroke-opacity:1" d="M 464.301,230.791 470.181,237.511 z" id="boundary" inkscape:connector-curvature="0" />
	<path style="fill:none;stroke:red;stroke-width:1px;stroke-linecap:butt;stroke-linejoin:miter;stroke-opacity:1" d="M 466.821,351.746 479.421,364.345 z" id="boundary" inkscape:connector-curvature="0" />
	<path style="fill:none;stroke:red;stroke-width:1px;stroke-linecap:butt;stroke-linejoin:miter;stroke-opacity:1" d="M 470.181,237.511 479.421,251.79 z" id="boundary" inkscape:connector-curvature="0" />
	<path style="fill:none;stroke:red;stroke-width:1px;stroke-linecap:butt;stroke-linejoin:miter;stroke-opacity:1" d="M 479.421,251.79 492.02,263.55 z" id="boundary" inkscape:connector-curvature="0" />
	<path style="fill:none;stroke:red;stroke-width:1px;stroke-linecap:butt;stroke-linejoin:miter;stroke-opacity:1" d="M 479.421,364.345 486.141,370.225 z" id="boundary" inkscape:connector-curvature="0" />
	<path style="fill:none;stroke:red;stroke-width:1px;stroke-linecap:butt;stroke-linejoin:miter;stroke-opacity:1" d="M 486.141,370.225 492.02,376.945 z" id="boundary" inkscape:connector-curvature="0" />
	<path style="fill:none;stroke:red;stroke-width:1px;stroke-linecap:butt;stroke-linejoin:miter;stroke-opacity:1" d="M 492.02,263.55 504.62,276.149 z" id="boundary" inkscape:connector-curvature="0" />
	<path style="fill:none;stroke:red;stroke-width:1px;stroke-linecap:butt;stroke-linejoin:miter;stroke-opacity:1" d="M 492.02,376.945 502.1,391.224 z" id="boundary" inkscape:connector-curvature="0" />
	<path style="fill:none;stroke:red;stroke-width:1px;stroke-linecap:butt;stroke-linejoin:miter;stroke-opacity:1" d="M 502.1,391.224 514.699,403.824 z" id="boundary" inkscape:connector-curvature="0" />
	<path style="fill:none;stroke:red;stroke-width:1px;stroke-linecap:butt;stroke-linejoin:miter;stroke-opacity:1" d="M 504.62,276.149 511.34,282.029 z" id="boundary" inkscape:connector-curvature="0" />
	<path style="fill:none;stroke:red;stroke-width:1px;stroke-linecap:butt;stroke-linejoin:miter;stroke-opacity:1" d="M 511.34,282.029 523.939,294.628 z" id="boundary" inkscape:connector-curvature="0" />
	<path style="fill:none;stroke:red;stroke-width:1px;stroke-linecap:butt;stroke-linejoin:miter;stroke-opacity:1" d="M 514.699,403.824 523.099,407.184 z" id="boundary" inkscape:connector-curvature="0" />
	<path style="fill:none;stroke:red;stroke-width:1px;stroke-linecap:butt;stroke-linejoin:miter;stroke-opacity:1" d="M 523.099,407.184 528.979,413.903 z" id="boundary" inkscape:connector-curvature="0" />
	<path style="fill:none;stroke:red;stroke-width:1px;stroke-linecap:butt;stroke-linejoin:miter;stroke-opacity:1" d="M 523.939,294.628 536.539,307.228 z" id="boundary" inkscape:connector-curvature="0" />
	<path style="fill:none;stroke:red;stroke-width:1px;stroke-linecap:butt;stroke-linejoin:miter;stroke-opacity:1" d="M 528.979,413.903 533.179,421.463 z" id="boundary" inkscape:connector-curvature="0" />
	<path style="fill:none;stroke:red;stroke-width:1px;stroke-linecap:butt;stroke-linejoin:miter;stroke-opacity:1" d="M 533.179,421.463 537.378,429.023 z" id="boundary" inkscape:connector-curvature="0" />
	<path style="fill:none;stroke:red;stroke-width:1px;stroke-linecap:butt;stroke-linejoin:miter;stroke-opacity:1" d="M 536.539,307.228 549.138,319.827 z" id="boundary" inkscape:connector-curvature="0" />
	<path style="fill:none;stroke:red;stroke-width:1px;stroke-linecap:butt;stroke-linejoin:miter;stroke-opacity:1" d="M 537.378,429.023 542.418,435.743 z" id="boundary" inkscape:connector-curvature="0" />
	<path style="fill:none;stroke:red;stroke-width:1px;stroke-linecap:butt;stroke-linejoin:miter;stroke-opacity:1" d="M 542.418,435.743 549.138,441.622 z" id="boundary" inkscape:connector-curvature="0" />
	<path style="fill:none;stroke:red;stroke-width:1px;stroke-linecap:butt;stroke-linejoin:miter;stroke-opacity:1" d="M 549.138,319.827 559.218,334.107 z" id="boundary" inkscape:connector-curvature="0" />
	<path style="fill:none;stroke:red;stroke-width:1px;stroke-linecap:butt;stroke-linejoin:miter;stroke-opacity:1" d="M 549.138,441.622 555.018,448.342 z" id="boundary" inkscape:connector-curvature="0" />
	<path style="fill:none;stroke:red;stroke-width:1px;stroke-linecap:butt;stroke-linejoin:miter;stroke-opacity:1" d="M 555.018,448.342 569.297,458.422 z" id="boundary" inkscape:connector-curvature="0" />
	<path style="fill:none;stroke:red;stroke-width:1px;stroke-linecap:butt;stroke-linejoin:miter;stroke-opacity:1" d="M 559.218,334.107 573.497,344.186 z" id="boundary" inkscape:connector-curvature="0" />
	<path style="fill:none;stroke:red;stroke-width:1px;stroke-linecap:butt;stroke-linejoin:miter;stroke-opacity:1" d="M 569.297,458.422 576.017,464.301 z" id="boundary" inkscape:connector-curvature="0" />
	<path style="fill:none;stroke:red;stroke-width:1px;stroke-linecap:butt;stroke-linejoin:miter;stroke-opacity:1" d="M 573.497,344.186 579.377,350.906 z" id="boundary" inkscape:connector-curvature="0" />
	<path style="fill:none;stroke:red;stroke-width:1px;stroke-linecap:butt;stroke-linejoin:miter;stroke-opacity:1" d="M 576.017,464.301 581.897,471.021 z" id="boundary" inkscape:connector-curvature="0" />
	<path style="fill:none;stroke:red;stroke-width:1px;stroke-linecap:butt;stroke-linejoin:miter;stroke-opacity:1" d="M 579.377,350.906 586.097,356.786 z" id="boundary" inkscape:connector-curvature="0" />
	<path style="fill:none;stroke:red;stroke-width:1px;stroke-linecap:butt;stroke-linejoin:miter;stroke-opacity:1" d="M 581.897,471.021 589.456,475.221 z" id="boundary" inkscape:connector-curvature="0" />
	<path style="fill:none;stroke:red;stroke-width:1px;stroke-linecap:butt;stroke-linejoin:miter;stroke-opacity:1" d="M 586.097,356.786 598.696,369.385 z" id="boundary" inkscape:connector-curvature="0" />
	<path style="fill:none;stroke:red;stroke-width:1px;stroke-linecap:butt;stroke-linejoin:miter;stroke-opacity:1" d="M 589.456,475.221 591.976,483.621 z" id="boundary" inkscape:connector-curvature="0" />
	<path style="fill:none;stroke:red;stroke-width:1px;stroke-linecap:butt;stroke-linejoin:miter;stroke-opacity:1" d="M 591.976,483.621 591.976,492.02 z" id="boundary" inkscape:connector-curvature="0" />
	<path style="fill:none;stroke:red;stroke-width:1px;stroke-linecap:butt;stroke-linejoin:miter;stroke-opacity:1" d="M 591.976,492.02 594.496,500.42 z" id="boundary" inkscape:connector-curvature="0" />
	<path style="fill:none;stroke:red;stroke-width:1px;stroke-linecap:butt;stroke-linejoin:miter;stroke-opacity:1" d="M 594.496,500.42 596.176,508.82 z" id="boundary" inkscape:connector-curvature="0" />
	<path style="fill:none;stroke:red;stroke-width:1px;stroke-linecap:butt;stroke-linejoin:miter;stroke-opacity:1" d="M 596.176,508.82 598.696,517.219 z" id="boundary" inkscape:connector-curvature="0" />
	<path style="fill:none;stroke:red;stroke-width:1px;stroke-linecap:butt;stroke-linejoin:miter;stroke-opacity:1" d="M 598.696,369.385 601.216,377.785 z" id="boundary" inkscape:connector-curvature="0" />
	<path style="fill:none;stroke:red;stroke-width:1px;stroke-linecap:butt;stroke-linejoin:miter;stroke-opacity:1" d="M 598.696,517.219 600.376,525.619 z" id="boundary" inkscape:connector-curvature="0" />
	<path style="fill:none;stroke:red;stroke-width:1px;stroke-linecap:butt;stroke-linejoin:miter;stroke-opacity:1" d="M 600.376,525.619 600.376,534.019 z" id="boundary" inkscape:connector-curvature="0" />
	<path style="fill:none;stroke:red;stroke-width:1px;stroke-linecap:butt;stroke-linejoin:miter;stroke-opacity:1" d="M 600.376,534.019 600.376,542.418 z" id="boundary" inkscape:connector-curvature="0" />
	<path style="fill:none;stroke:red;stroke-width:1px;stroke-linecap:butt;stroke-linejoin:miter;stroke-opacity:1" d="M 600.376,542.418 600.376,550.818 z" id="boundary" inkscape:connector-curvature="0" />
	<path style="fill:none;stroke:red;stroke-width:1px;stroke-linecap:butt;stroke-linejoin:miter;stroke-opacity:1" d="M 600.376,550.818 604.576,558.378 z" id="boundary" inkscape:connector-curvature="0" />
	<path style="fill:none;stroke:red;stroke-width:1px;stroke-linecap:butt;stroke-linejoin:miter;stroke-opacity:1" d="M 601.216,377.785 605.416,385.345 z" id="boundary" inkscape:connector-curvature="0" />
	<path style="fill:none;stroke:red;stroke-width:1px;stroke-linecap:butt;stroke-linejoin:miter;stroke-opacity:1" d="M 604.576,558.378 604.576,566.777 z" id="boundary" inkscape:connector-curvature="0" />
	<path style="fill:none;stroke:red;stroke-width:1px;stroke-linecap:butt;stroke-linejoin:miter;stroke-opacity:1" d="M 604.576,566.777 606.256,575.177 z" id="boundary" inkscape:connector-curvature="0" />
	<path style="fill:none;stroke:red;stroke-width:1px;stroke-linecap:butt;stroke-linejoin:miter;stroke-opacity:1" d="M 605.416,385.345 613.815,386.185 z" id="boundary" inkscape:connector-curvature="0" />
	<path style="fill:none;stroke:red;stroke-width:1px;stroke-linecap:butt;stroke-linejoin:miter;stroke-opacity:1" d="M 606.256,575.177 608.776,583.577 z" id="boundary" inkscape:connector-curvature="0" />
	<path style="fill:none;stroke:red;stroke-width:1px;stroke-linecap:butt;stroke-linejoin:miter;stroke-opacity:1" d="M 608.776,583.577 608.776,591.976 z" id="boundary" inkscape:connector-curvature="0" />
	<path style="fill:none;stroke:red;stroke-width:1px;stroke-linecap:butt;stroke-linejoin:miter;stroke-opacity:1" d="M 608.776,591.976 612.975,599.536 z" id="boundary" inkscape:connector-curvature="0" />
	<path style="fill:none;stroke:red;stroke-width:1px;stroke-linecap:butt;stroke-linejoin:miter;stroke-opacity:1" d="M 612.975,599.536 612.975,607.936 z" id="boundary" inkscape:connector-curvature="0" />
	<path style="fill:none;stroke:red;stroke-width:1px;stroke-linecap:butt;stroke-linejoin:miter;stroke-opacity:1" d="M 612.975,607.936 617.175,615.495 z" id="boundary" inkscape:connector-curvature="0" />
	<path style="fill:none;stroke:red;stroke-width:1px;stroke-linecap:butt;stroke-linejoin:miter;stroke-opacity:1" d="M 613.815,386.185 621.375,390.384 z" id="boundary" inkscape:connector-curvature="0" />
	<path style="fill:none;stroke:red;stroke-width:1px;stroke-linecap:butt;stroke-linejoin:miter;stroke-opacity:1" d="M 617.175,615.495 617.175,623.895 z" id="boundary" inkscape:connector-curvature="0" />
	<path style="fill:none;stroke:red;stroke-width:1px;stroke-linecap:butt;stroke-linejoin:miter;stroke-opacity:1" d="M 617.175,623.895 617.175,632.295 z" id="boundary" inkscape:connector-curvature="0" />
	<path style="fill:none;stroke:red;stroke-width:1px;stroke-linecap:butt;stroke-linejoin:miter;stroke-opacity:1" d="M 617.175,632.295 621.375,639.854 z" id="boundary" inkscape:connector-curvature="0" />
	<path style="fill:none;stroke:red;stroke-width:1px;stroke-linecap:butt;stroke-linejoin:miter;stroke-opacity:1" d="M 621.375,390.384 628.095,395.424 z" id="boundary" inkscape:connector-curvature="0" />
	<path style="fill:none;stroke:red;stroke-width:1px;stroke-linecap:butt;stroke-linejoin:miter;stroke-opacity:1" d="M 621.375,639.854 625.575,647.414 z" id="boundary" inkscape:connector-curvature="0" />
	<path style="fill:none;stroke:red;stroke-width:1px;stroke-linecap:butt;stroke-linejoin:miter;stroke-opacity:1" d="M 625.575,647.414 629.775,654.974 z" id="boundary" inkscape:connector-curvature="0" />
	<path style="fill:none;stroke:red;stroke-width:1px;stroke-linecap:butt;stroke-linejoin:miter;stroke-opacity:1" d="M 628.095,395.424 639.014,408.864 z" id="boundary" inkscape:connector-curvature="0" />
	<path style="fill:none;stroke:red;stroke-width:1px;stroke-linecap:butt;stroke-linejoin:miter;stroke-opacity:1" d="M 629.775,654.974 640.694,668.413 z" id="boundary" inkscape:connector-curvature="0" />
	<path style="fill:none;stroke:red;stroke-width:1px;stroke-linecap:butt;stroke-linejoin:miter;stroke-opacity:1" d="M 639.014,408.864 650.774,421.463 z" id="boundary" inkscape:connector-curvature="0" />
	<path style="fill:none;stroke:red;stroke-width:1px;stroke-linecap:butt;stroke-linejoin:miter;stroke-opacity:1" d="M 640.694,668.413 644.894,675.973 z" id="boundary" inkscape:connector-curvature="0" />
	<path style="fill:none;stroke:red;stroke-width:1px;stroke-linecap:butt;stroke-linejoin:miter;stroke-opacity:1" d="M 644.894,675.973 650.774,682.693 z" id="boundary" inkscape:connector-curvature="0" />
	<path style="fill:none;stroke:red;stroke-width:1px;stroke-linecap:butt;stroke-linejoin:miter;stroke-opacity:1" d="M 650.774,421.463 663.373,432.383 z" id="boundary" inkscape:connector-curvature="0" />
	<path style="fill:none;stroke:red;stroke-width:1px;stroke-linecap:butt;stroke-linejoin:miter;stroke-opacity:1" d="M 650.774,682.693 663.373,695.292 z" id="boundary" inkscape:connector-curvature="0" />
	<path style="fill:none;stroke:red;stroke-width:1px;stroke-linecap:butt;stroke-linejoin:miter;stroke-opacity:1" d="M 663.373,432.383 676.813,443.302 z" id="boundary" inkscape:connector-curvature="0" />
	<path style="fill:none;stroke:red;stroke-width:1px;stroke-linecap:butt;stroke-linejoin:miter;stroke-opacity:1" d="M 663.373,695.292 670.093,701.172 z" id="boundary" inkscape:connector-curvature="0" />
	<path style="fill:none;stroke:red;stroke-width:1px;stroke-linecap:butt;stroke-linejoin:miter;stroke-opacity:1" d="M 670.093,701.172 682.693,713.771 z" id="boundary" inkscape:connector-curvature="0" />
	<path style="fill:none;stroke:red;stroke-width:1px;stroke-linecap:butt;stroke-linejoin:miter;stroke-opacity:1" d="M 676.813,443.302 682.693,450.022 z" id="boundary" inkscape:connector-curvature="0" />
	<path style="fill:none;stroke:red;stroke-width:1px;stroke-linecap:butt;stroke-linejoin:miter;stroke-opacity:1" d="M 682.693,450.022 696.972,460.102 z" id="boundary" inkscape:connector-curvature="0" />
	<path style="fill:none;stroke:red;stroke-width:1px;stroke-linecap:butt;stroke-linejoin:miter;stroke-opacity:1" d="M 682.693,713.771 692.772,728.051 z" id="boundary" inkscape:connector-curvature="0" />
	<path style="fill:none;stroke:red;stroke-width:1px;stroke-linecap:butt;stroke-linejoin:miter;stroke-opacity:1" d="M 692.772,728.051 698.652,734.771 z" id="boundary" inkscape:connector-curvature="0" />
	<path style="fill:none;stroke:red;stroke-width:1px;stroke-linecap:butt;stroke-linejoin:miter;stroke-opacity:1" d="M 696.972,460.102 703.692,465.981 z" id="boundary" inkscape:connector-curvature="0" />
	<path style="fill:none;stroke:red;stroke-width:1px;stroke-linecap:butt;stroke-linejoin:miter;stroke-opacity:1" d="M 698.652,734.771 712.931,744.01 z" id="boundary" inkscape:connector-curvature="0" />
	<path style="fill:none;stroke:red;stroke-width:1px;stroke-linecap:butt;stroke-linejoin:miter;stroke-opacity:1" d="M 703.692,465.981 713.771,480.261 z" id="boundary" inkscape:connector-curvature="0" />
	<path style="fill:none;stroke:red;stroke-width:1px;stroke-linecap:butt;stroke-linejoin:miter;stroke-opacity:1" d="M 712.931,744.01 720.491,748.21 z" id="boundary" inkscape:connector-curvature="0" />
	<path style="fill:none;stroke:red;stroke-width:1px;stroke-linecap:butt;stroke-linejoin:miter;stroke-opacity:1" d="M 713.771,480.261 725.531,492.02 z" id="boundary" inkscape:connector-curvature="0" />
	<path style="fill:none;stroke:red;stroke-width:1px;stroke-linecap:butt;stroke-linejoin:miter;stroke-opacity:1" d="M 720.491,748.21 734.771,758.29 z" id="boundary" inkscape:connector-curvature="0" />
	<path style="fill:none;stroke:red;stroke-width:1px;stroke-linecap:butt;stroke-linejoin:miter;stroke-opacity:1" d="M 725.531,492.02 739.81,502.1 z" id="boundary" inkscape:connector-curvature="0" />
	<path style="fill:none;stroke:red;stroke-width:1px;stroke-linecap:butt;stroke-linejoin:miter;stroke-opacity:1" d="M 734.771,758.29 748.21,769.209 z" id="boundary" inkscape:connector-curvature="0" />
	<path style="fill:none;stroke:red;stroke-width:1px;stroke-linecap:butt;stroke-linejoin:miter;stroke-opacity:1" d="M 739.81,502.1 752.41,514.699 z" id="boundary" inkscape:connector-curvature="0" />
	<path style="fill:none;stroke:red;stroke-width:1px;stroke-linecap:butt;stroke-linejoin:miter;stroke-opacity:1" d="M 748.21,769.209 755.77,773.409 z" id="boundary" inkscape:connector-curvature="0" />
	<path style="fill:none;stroke:red;stroke-width:1px;stroke-linecap:butt;stroke-linejoin:miter;stroke-opacity:1" d="M 752.41,514.699 765.009,527.299 z" id="boundary" inkscape:connector-curvature="0" />
	<path style="fill:none;stroke:red;stroke-width:1px;stroke-linecap:butt;stroke-linejoin:miter;stroke-opacity:1" d="M 755.77,773.409 763.329,777.609 z" id="boundary" inkscape:connector-curvature="0" />
	<path style="fill:none;stroke:red;stroke-width:1px;stroke-linecap:butt;stroke-linejoin:miter;stroke-opacity:1" d="M 763.329,777.609 770.889,781.809 z" id="boundary" inkscape:connector-curvature="0" />
	<path style="fill:none;stroke:red;stroke-width:1px;stroke-linecap:butt;stroke-linejoin:miter;stroke-opacity:1" d="M 765.009,527.299 768.369,535.699 z" id="boundary" inkscape:connector-curvature="0" />
	<path style="fill:none;stroke:red;stroke-width:1px;stroke-linecap:butt;stroke-linejoin:miter;stroke-opacity:1" d="M 768.369,535.699 775.089,541.578 z" id="boundary" inkscape:connector-curvature="0" />
	<path style="fill:none;stroke:red;stroke-width:1px;stroke-linecap:butt;stroke-linejoin:miter;stroke-opacity:1" d="M 770.889,781.809 785.169,791.888 z" id="boundary" inkscape:connector-curvature="0" />
	<path style="fill:none;stroke:red;stroke-width:1px;stroke-linecap:butt;stroke-linejoin:miter;stroke-opacity:1" d="M 775.089,541.578 782.649,545.778 z" id="boundary" inkscape:connector-curvature="0" />
	<path style="fill:none;stroke:red;stroke-width:1px;stroke-linecap:butt;stroke-linejoin:miter;stroke-opacity:1" d="M 782.649,545.778 794.408,558.378 z" id="boundary" inkscape:connector-curvature="0" />
	<path style="fill:none;stroke:red;stroke-width:1px;stroke-linecap:butt;stroke-linejoin:miter;stroke-opacity:1" d="M 785.169,791.888 793.568,794.408 z" id="boundary" inkscape:connector-curvature="0" />
	<path style="fill:none;stroke:red;stroke-width:1px;stroke-linecap:butt;stroke-linejoin:miter;stroke-opacity:1" d="M 793.568,794.408 798.608,801.128 z" id="boundary" inkscape:connector-curvature="0" />
	<path style="fill:none;stroke:red;stroke-width:1px;stroke-linecap:butt;stroke-linejoin:miter;stroke-opacity:1" d="M 794.408,558.378 801.968,562.577 z" id="boundary" inkscape:connector-curvature="0" />
	<path style="fill:none;stroke:red;stroke-width:1px;stroke-linecap:butt;stroke-linejoin:miter;stroke-opacity:1" d="M 798.608,801.128 805.328,807.008 z" id="boundary" inkscape:connector-curvature="0" />
	<path style="fill:none;stroke:red;stroke-width:1px;stroke-linecap:butt;stroke-linejoin:miter;stroke-opacity:1" d="M 801.968,562.577 808.688,567.617 z" id="boundary" inkscape:connector-curvature="0" />
	<path style="fill:none;stroke:red;stroke-width:1px;stroke-linecap:butt;stroke-linejoin:miter;stroke-opacity:1" d="M 805.328,807.008 812.887,811.207 z" id="boundary" inkscape:connector-curvature="0" />
	<path style="fill:none;stroke:red;stroke-width:1px;stroke-linecap:butt;stroke-linejoin:miter;stroke-opacity:1" d="M 808.688,567.617 821.287,580.217 z" id="boundary" inkscape:connector-curvature="0" />
	<path style="fill:none;stroke:red;stroke-width:1px;stroke-linecap:butt;stroke-linejoin:miter;stroke-opacity:1" d="M 812.887,811.207 820.447,815.407 z" id="boundary" inkscape:connector-curvature="0" />
	<path style="fill:none;stroke:red;stroke-width:1px;stroke-linecap:butt;stroke-linejoin:miter;stroke-opacity:1" d="M 820.447,815.407 828.007,819.607 z" id="boundary" inkscape:connector-curvature="0" />
	<path style="fill:none;stroke:red;stroke-width:1px;stroke-linecap:butt;stroke-linejoin:miter;stroke-opacity:1" d="M 821.287,580.217 828.007,586.097 z" id="boundary" inkscape:connector-curvature="0" />
	<path style="fill:none;stroke:red;stroke-width:1px;stroke-linecap:butt;stroke-linejoin:miter;stroke-opacity:1" d="M 828.007,586.097 840.606,598.696 z" id="boundary" inkscape:connector-curvature="0" />
	<path style="fill:none;stroke:red;stroke-width:1px;stroke-linecap:butt;stroke-linejoin:miter;stroke-opacity:1" d="M 828.007,819.607 835.566,823.807 z" id="boundary" inkscape:connector-curvature="0" />
	<path style="fill:none;stroke:red;stroke-width:1px;stroke-linecap:butt;stroke-linejoin:miter;stroke-opacity:1" d="M 835.566,823.807 849.006,833.887 z" id="boundary" inkscape:connector-curvature="0" />
	<path style="fill:none;stroke:red;stroke-width:1px;stroke-linecap:butt;stroke-linejoin:miter;stroke-opacity:1" d="M 840.606,598.696 848.166,602.896 z" id="boundary" inkscape:connector-curvature="0" />
	<path style="fill:none;stroke:red;stroke-width:1px;stroke-linecap:butt;stroke-linejoin:miter;stroke-opacity:1" d="M 848.166,602.896 854.886,608.776 z" id="boundary" inkscape:connector-curvature="0" />
	<path style="fill:none;stroke:red;stroke-width:1px;stroke-linecap:butt;stroke-linejoin:miter;stroke-opacity:1" d="M 849.006,833.887 857.406,836.406 z" id="boundary" inkscape:connector-curvature="0" />
	<path style="fill:none;stroke:red;stroke-width:1px;stroke-linecap:butt;stroke-linejoin:miter;stroke-opacity:1" d="M 854.886,608.776 862.445,612.975 z" id="boundary" inkscape:connector-curvature="0" />
	<path style="fill:none;stroke:red;stroke-width:1px;stroke-linecap:butt;stroke-linejoin:miter;stroke-opacity:1" d="M 857.406,836.406 865.805,838.086 z" id="boundary" inkscape:connector-curvature="0" />
	<path style="fill:none;stroke:red;stroke-width:1px;stroke-linecap:butt;stroke-linejoin:miter;stroke-opacity:1" d="M 862.445,612.975 874.205,625.575 z" id="boundary" inkscape:connector-curvature="0" />
	<path style="fill:none;stroke:red;stroke-width:1px;stroke-linecap:butt;stroke-linejoin:miter;stroke-opacity:1" d="M 865.805,838.086 873.365,842.286 z" id="boundary" inkscape:connector-curvature="0" />
	<path style="fill:none;stroke:red;stroke-width:1px;stroke-linecap:butt;stroke-linejoin:miter;stroke-opacity:1" d="M 873.365,842.286 881.765,844.806 z" id="boundary" inkscape:connector-curvature="0" />
	<path style="fill:none;stroke:red;stroke-width:1px;stroke-linecap:butt;stroke-linejoin:miter;stroke-opacity:1" d="M 874.205,625.575 880.925,630.615 z" id="boundary" inkscape:connector-curvature="0" />
	<path style="fill:none;stroke:red;stroke-width:1px;stroke-linecap:butt;stroke-linejoin:miter;stroke-opacity:1" d="M 880.925,630.615 891.004,644.894 z" id="boundary" inkscape:connector-curvature="0" />
	<path style="fill:none;stroke:red;stroke-width:1px;stroke-linecap:butt;stroke-linejoin:miter;stroke-opacity:1" d="M 881.765,844.806 889.324,849.006 z" id="boundary" inkscape:connector-curvature="0" />
	<path style="fill:none;stroke:red;stroke-width:1px;stroke-linecap:butt;stroke-linejoin:miter;stroke-opacity:1" d="M 889.324,849.006 896.884,853.206 z" id="boundary" inkscape:connector-curvature="0" />
	<path style="fill:none;stroke:red;stroke-width:1px;stroke-linecap:butt;stroke-linejoin:miter;stroke-opacity:1" d="M 891.004,644.894 896.884,651.614 z" id="boundary" inkscape:connector-curvature="0" />
	<path style="fill:none;stroke:red;stroke-width:1px;stroke-linecap:butt;stroke-linejoin:miter;stroke-opacity:1" d="M 896.884,651.614 906.964,665.893 z" id="boundary" inkscape:connector-curvature="0" />
	<path style="fill:none;stroke:red;stroke-width:1px;stroke-linecap:butt;stroke-linejoin:miter;stroke-opacity:1" d="M 896.884,853.206 904.444,857.406 z" id="boundary" inkscape:connector-curvature="0" />
	<path style="fill:none;stroke:red;stroke-width:1px;stroke-linecap:butt;stroke-linejoin:miter;stroke-opacity:1" d="M 904.444,857.406 912.843,857.406 z" id="boundary" inkscape:connector-curvature="0" />
	<path style="fill:none;stroke:red;stroke-width:1px;stroke-linecap:butt;stroke-linejoin:miter;stroke-opacity:1" d="M 906.964,665.893 916.203,680.173 z" id="boundary" inkscape:connector-curvature="0" />
	<path style="fill:none;stroke:red;stroke-width:1px;stroke-linecap:butt;stroke-linejoin:miter;stroke-opacity:1" d="M 912.843,857.406 920.403,861.605 z" id="boundary" inkscape:connector-curvature="0" />
	<path style="fill:none;stroke:red;stroke-width:1px;stroke-linecap:butt;stroke-linejoin:miter;stroke-opacity:1" d="M 916.203,680.173 916.203,688.572 z" id="boundary" inkscape:connector-curvature="0" />
	<path style="fill:none;stroke:red;stroke-width:1px;stroke-linecap:butt;stroke-linejoin:miter;stroke-opacity:1" d="M 916.203,688.572 928.803,700.332 z" id="boundary" inkscape:connector-curvature="0" />
	<path style="fill:none;stroke:red;stroke-width:1px;stroke-linecap:butt;stroke-linejoin:miter;stroke-opacity:1" d="M 920.403,861.605 928.803,861.605 z" id="boundary" inkscape:connector-curvature="0" />
	<path style="fill:none;stroke:red;stroke-width:1px;stroke-linecap:butt;stroke-linejoin:miter;stroke-opacity:1" d="M 928.803,700.332 933.003,707.892 z" id="boundary" inkscape:connector-curvature="0" />
	<path style="fill:none;stroke:red;stroke-width:1px;stroke-linecap:butt;stroke-linejoin:miter;stroke-opacity:1" d="M 928.803,861.605 937.202,863.285 z" id="boundary" inkscape:connector-curvature="0" />
	<path style="fill:none;stroke:red;stroke-width:1px;stroke-linecap:butt;stroke-linejoin:miter;stroke-opacity:1" d="M 933.003,707.892 943.082,722.171 z" id="boundary" inkscape:connector-curvature="0" />
	<path style="fill:none;stroke:red;stroke-width:1px;stroke-linecap:butt;stroke-linejoin:miter;stroke-opacity:1" d="M 937.202,863.285 945.602,865.805 z" id="boundary" inkscape:connector-curvature="0" />
	<path style="fill:none;stroke:red;stroke-width:1px;stroke-linecap:butt;stroke-linejoin:miter;stroke-opacity:1" d="M 943.082,722.171 945.602,730.571 z" id="boundary" inkscape:connector-curvature="0" />
	<path style="fill:none;stroke:red;stroke-width:1px;stroke-linecap:butt;stroke-linejoin:miter;stroke-opacity:1" d="M 945.602,730.571 949.802,738.13 z" id="boundary" inkscape:connector-curvature="0" />
	<path style="fill:none;stroke:red;stroke-width:1px;stroke-linecap:butt;stroke-linejoin:miter;stroke-opacity:1" d="M 945.602,865.805 954.002,865.805 z" id="boundary" inkscape:connector-curvature="0" />
	<path style="fill:none;stroke:red;stroke-width:1px;stroke-linecap:butt;stroke-linejoin:miter;stroke-opacity:1" d="M 949.802,738.13 956.522,744.01 z" id="boundary" inkscape:connector-curvature="0" />
	<path style="fill:none;stroke:red;stroke-width:1px;stroke-linecap:butt;stroke-linejoin:miter;stroke-opacity:1" d="M 954.002,865.805 962.401,865.805 z" id="boundary" inkscape:connector-curvature="0" />
	<path style="fill:none;stroke:red;stroke-width:1px;stroke-linecap:butt;stroke-linejoin:miter;stroke-opacity:1" d="M 956.522,744.01 966.601,758.29 z" id="boundary" inkscape:connector-curvature="0" />
	<path style="fill:none;stroke:red;stroke-width:1px;stroke-linecap:butt;stroke-linejoin:miter;stroke-opacity:1" d="M 962.401,865.805 969.961,861.605 z" id="boundary" inkscape:connector-curvature="0" />
	<path style="fill:none;stroke:red;stroke-width:1px;stroke-linecap:butt;stroke-linejoin:miter;stroke-opacity:1" d="M 966.601,758.29 969.961,766.689 z" id="boundary" inkscape:connector-curvature="0" />
	<path style="fill:none;stroke:red;stroke-width:1px;stroke-linecap:butt;stroke-linejoin:miter;stroke-opacity:1" d="M 969.961,766.689 976.681,772.569 z" id="boundary" inkscape:connector-curvature="0" />
	<path style="fill:none;stroke:red;stroke-width:1px;stroke-linecap:butt;stroke-linejoin:miter;stroke-opacity:1" d="M 969.961,861.605 976.681,856.566 z" id="boundary" inkscape:connector-curvature="0" />
	<path style="fill:none;stroke:red;stroke-width:1px;stroke-linecap:butt;stroke-linejoin:miter;stroke-opacity:1" d="M 976.681,772.569 979.201,780.969 z" id="boundary" inkscape:connector-curvature="0" />
	<path style="fill:none;stroke:red;stroke-width:1px;stroke-linecap:butt;stroke-linejoin:miter;stroke-opacity:1" d="M 976.681,856.566 983.401,849.006 z" id="boundary" inkscape:connector-curvature="0" />
	<path style="fill:none;stroke:red;stroke-width:1px;stroke-linecap:butt;stroke-linejoin:miter;stroke-opacity:1" d="M 979.201,780.969 983.401,788.528 z" id="boundary" inkscape:connector-curvature="0" />
	<path style="fill:none;stroke:red;stroke-width:1px;stroke-linecap:butt;stroke-linejoin:miter;stroke-opacity:1" d="M 983.401,788.528 990.12,794.408 z" id="boundary" inkscape:connector-curvature="0" />
	<path style="fill:none;stroke:red;stroke-width:1px;stroke-linecap:butt;stroke-linejoin:miter;stroke-opacity:1" d="M 983.401,849.006 987.6,840.606 z" id="boundary" inkscape:connector-curvature="0" />
	<path style="fill:none;stroke:red;stroke-width:1px;stroke-linecap:butt;stroke-linejoin:miter;stroke-opacity:1" d="M 987.6,840.606 991.8,832.207 z" id="boundary" inkscape:connector-curvature="0" />
	<path style="fill:none;stroke:red;stroke-width:1px;stroke-linecap:butt;stroke-linejoin:miter;stroke-opacity:1" d="M 990.12,794.408 993.48,802.808 z" id="boundary" inkscape:connector-curvature="0" />
	<path style="fill:none;stroke:red;stroke-width:1px;stroke-linecap:butt;stroke-linejoin:miter;stroke-opacity:1" d="M 991.8,832.207 996,819.607 z" id="boundary" inkscape:connector-curvature="0" />
	<path style="fill:none;stroke:red;stroke-width:1px;stroke-linecap:butt;stroke-linejoin:miter;stroke-opacity:1" d="M 993.48,802.808 996,811.207 z" id="boundary" inkscape:connector-curvature="0" />
	<path style="fill:none;stroke:red;stroke-width:1px;stroke-linecap:butt;stroke-linejoin:miter;stroke-opacity:1" d="M 996,811.207 996,819.607 z" id="boundary" inkscape:connector-curvature="0" />
	<circle cx="4" cy="31.7189" r="4" fill="#0" id="circle0"/>
	<circle cx="4" cy="40.1185" r="4" fill="#0" id="circle1"/>
	<circle cx="4" cy="48.5182" r="4" fill="#0" id="circle2"/>
	<circle cx="4" cy="56.9179" r="4" fill="#0" id="circle3"/>
	<circle cx="8.19983" cy="23.3192" r="4" fill="#0" id="circle4"/>
	<circle cx="8.19983" cy="64.4776" r="4" fill="#0" id="circle5"/>
	<circle cx="14.0796" cy="71.1973" r="4" fill="#0" id="circle6"/>
	<circle cx="14.9196" cy="16.5995" r="4" fill="#0" id="circle7"/>
	<circle cx="20.7993" cy="76.2371" r="4" fill="#0" id="circle8"/>
	<circle cx="21.6393" cy="9.87976" r="4" fill="#0" id="circle9"/>
	<circle cx="28.359" cy="80.4369" r="4" fill="#0" id="circle10"/>
	<circle cx="30.039" cy="5.67993" r="4" fill="#0" id="circle11"/>
	<circle cx="35.9187" cy="84.6367" r="4" fill="#0" id="circle12"/>
	<circle cx="38.4386" cy="4" r="4" fill="#0" id="circle13"/>
	<circle cx="44.3184" cy="84.6367" r="4" fill="#0" id="circle14"/>
	<circle cx="46.8383" cy="4" r="4" fill="#0" id="circle15"/>
	<circle cx="52.718" cy="84.6367" r="4" fill="#0" id="circle16"/>
	<circle cx="55.2379" cy="4" r="4" fill="#0" id="circle17"/>
	<circle cx="61.1177" cy="84.6367" r="4" fill="#0" id="circle18"/>
	<circle cx="63.6376" cy="4" r="4" fill="#0" id="circle19"/>
	<circle cx="69.5174" cy="87.9966" r="4" fill="#0" id="circle20"/>
	<circle cx="72.0373" cy="4" r="4" fill="#0" id="circle21"/>
	<circle cx="77.917" cy="88.8366" r="4" fill="#0" id="circle22"/>
	<circle cx="79.597" cy="8.19983" r="4" fill="#0" id="circle23"/>
	<circle cx="86.3167" cy="92.1964" r="4" fill="#0" id="circle24"/>
	<circle cx="87.9966" cy="8.19983" r="4" fill="#0" id="circle25"/>
	<circle cx="94.7163" cy="93.0364" r="4" fill="#0" id="circle26"/>
	<circle cx="96.3963" cy="9.87976" r="4" fill="#0" id="circle27"/>
	<circle cx="103.116" cy="96.3963" r="4" fill="#0" id="circle28"/>
	<circle cx="104.796" cy="12.3997" r="4" fill="#0" id="circle29"/>
	<circle cx="111.516" cy="97.2362" r="4" fill="#0" id="circle30"/>
	<circle cx="113.196" cy="14.0796" r="4" fill="#0" id="circle31"/>
	<circle cx="119.075" cy="101.436" r="4" fill="#0" id="circle32"/>
	<circle cx="121.595" cy="16.5995" r="4" fill="#0" id="circle33"/>
	<circle cx="126.635" cy="105.636" r="4" fill="#0" id="circle34"/>
	<circle cx="129.995" cy="18.2794" r="4" fill="#0" id="circle35"/>
	<circle cx="134.195" cy="109.836" r="4" fill="#0" id="circle36"/>
	<circle cx="137.555" cy="22.4793" r="4" fill="#0" id="circle37"/>
	<circle cx="141.754" cy="114.036" r="4" fill="#0" id="circle38"/>
	<circle cx="145.954" cy="24.9992" r="4" fill="#0" id="circle39"/>
	<circle cx="149.314" cy="118.235" r="4" fill="#0" id="circle40"/>
	<circle cx="153.514" cy="29.199" r="4" fill="#0" id="circle41"/>
	<circle cx="157.714" cy="121.595" r="4" fill="#0" id="circle42"/>
	<circle cx="161.074" cy="33.3988" r="4" fill="#0" id="circle43"/>
	<circle cx="163.594" cy="128.315" r="4" fill="#0" id="circle44"/>
	<circle cx="168.633" cy="37.5986" r="4" fill="#0" id="circle45"/>
	<circle cx="171.993" cy="130.835" r="4" fill="#0" id="circle46"/>
	<circle cx="177.033" cy="40.1185" r="4" fill="#0" id="circle47"/>
	<circle cx="179.553" cy="135.035" r="4" fill="#0" id="circle48"/>
	<circle cx="184.593" cy="44.3184" r="4" fill="#0" id="circle49"/>
	<circle cx="187.113" cy="139.235" r="4" fill="#0" id="circle50"/>
	<circle cx="192.992" cy="47.6782" r="4" fill="#0" id="circle51"/>
	<circle cx="194.672" cy="143.434" r="4" fill="#0" id="circle52"/>
	<circle cx="198.032" cy="54.398" r="4" fill="#0" id="circle53"/>
	<circle cx="201.392" cy="148.474" r="4" fill="#0" id="circle54"/>
	<circle cx="205.592" cy="58.5978" r="4" fill="#0" id="circle55"/>
	<circle cx="207.272" cy="155.194" r="4" fill="#0" id="circle56"/>
	<circle cx="213.152" cy="62.7976" r="4" fill="#0" id="circle57"/>
	<circle cx="213.992" cy="160.234" r="4" fill="#0" id="circle58"/>
	<circle cx="220.711" cy="66.9975" r="4" fill="#0" id="circle59"/>
	<circle cx="221.551" cy="164.434" r="4" fill="#0" id="circle60"/>
	<circle cx="228.271" cy="71.1973" r="4" fill="#0" id="circle61"/>
	<circle cx="229.951" cy="164.434" r="4" fill="#0" id="circle62"/>
	<circle cx="235.831" cy="75.3971" r="4" fill="#0" id="circle63"/>
	<circle cx="237.511" cy="168.633" r="4" fill="#0" id="circle64"/>
	<circle cx="244.23" cy="77.917" r="4" fill="#0" id="circle65"/>
	<circle cx="245.07" cy="172.833" r="4" fill="#0" id="circle66"/>
	<circle cx="250.11" cy="84.6367" r="4" fill="#0" id="circle67"/>
	<circle cx="252.63" cy="177.033" r="4" fill="#0" id="circle68"/>
	<circle cx="256.83" cy="90.5165" r="4" fill="#0" id="circle69"/>
	<circle cx="260.19" cy="181.233" r="4" fill="#0" id="circle70"/>
	<circle cx="265.229" cy="92.1964" r="4" fill="#0" id="circle71"/>
	<circle cx="267.749" cy="185.433" r="4" fill="#0" id="circle72"/>
	<circle cx="272.789" cy="96.3963" r="4" fill="#0" id="circle73"/>
	<circle cx="273.629" cy="192.152" r="4" fill="#0" id="circle74"/>
	<circle cx="280.349" cy="100.596" r="4" fill="#0" id="circle75"/>
	<circle cx="280.349" cy="198.032" r="4" fill="#0" id="circle76"/>
	<circle cx="287.909" cy="104.796" r="4" fill="#0" id="circle77"/>
	<circle cx="287.909" cy="202.232" r="4" fill="#0" id="circle78"/>
	<circle cx="294.628" cy="208.112" r="4" fill="#0" id="circle79"/>
	<circle cx="295.468" cy="108.996" r="4" fill="#0" id="circle80"/>
	<circle cx="300.508" cy="214.831" r="4" fill="#0" id="circle81"/>
	<circle cx="303.028" cy="113.196" r="4" fill="#0" id="circle82"/>
	<circle cx="307.228" cy="220.711" r="4" fill="#0" id="circle83"/>
	<circle cx="309.748" cy="118.235" r="4" fill="#0" id="circle84"/>
	<circle cx="314.787" cy="224.911" r="4" fill="#0" id="circle85"/>
	<circle cx="315.627" cy="124.955" r="4" fill="#0" id="circle86"/>
	<circle cx="321.507" cy="230.791" r="4" fill="#0" id="circle87"/>
	<circle cx="324.027" cy="128.315" r="4" fill="#0" id="circle88"/>
	<circle cx="328.227" cy="235.831" r="4" fill="#0" id="circle89"/>
	<circle cx="329.907" cy="135.035" r="4" fill="#0" id="circle90"/>
	<circle cx="335.787" cy="240.03" r="4" fill="#0" id="circle91"/>
	<circle cx="338.307" cy="138.395" r="4" fill="#0" id="circle92"/>
	<circle cx="343.346" cy="244.23" r="4" fill="#0" id="circle93"/>
	<circle cx="344.186" cy="145.114" r="4" fill="#0" id="circle94"/>
	<circle cx="350.906" cy="150.994" r="4" fill="#0" id="circle95"/>
	<circle cx="350.906" cy="248.43" r="4" fill="#0" id="circle96"/>
	<circle cx="356.786" cy="157.714" r="4" fill="#0" id="circle97"/>
	<circle cx="357.626" cy="254.31" r="4" fill="#0" id="circle98"/>
	<circle cx="363.506" cy="163.594" r="4" fill="#0" id="circle99"/>
	<circle cx="365.185" cy="258.51" r="4" fill="#0" id="circle100"/>
	<circle cx="371.065" cy="167.793" r="4" fill="#0" id="circle101"/>
	<circle cx="373.585" cy="261.03" r="4" fill="#0" id="circle102"/>
	<circle cx="378.625" cy="171.993" r="4" fill="#0" id="circle103"/>
	<circle cx="378.625" cy="267.749" r="4" fill="#0" id="circle104"/>
	<circle cx="385.345" cy="273.629" r="4" fill="#0" id="circle105"/>
	<circle cx="387.025" cy="174.513" r="4" fill="#0" id="circle106"/>
	<circle cx="392.904" cy="181.233" r="4" fill="#0" id="circle107"/>
	<circle cx="392.904" cy="277.829" r="4" fill="#0" id="circle108"/>
	<circle cx="399.624" cy="283.709" r="4" fill="#0" id="circle109"/>
	<circle cx="401.304" cy="184.593" r="4" fill="#0" id="circle110"/>
	<circle cx="405.504" cy="290.428" r="4" fill="#0" id="circle111"/>
	<circle cx="408.864" cy="188.793" r="4" fill="#0" id="circle112"/>
	<circle cx="413.903" cy="293.788" r="4" fill="#0" id="circle113"/>
	<circle cx="416.423" cy="192.992" r="4" fill="#0" id="circle114"/>
	<circle cx="419.783" cy="300.508" r="4" fill="#0" id="circle115"/>
	<circle cx="423.143" cy="198.032" r="4" fill="#0" id="circle116"/>
	<circle cx="423.983" cy="308.068" r="4" fill="#0" id="circle117"/>
	<circle cx="429.023" cy="204.752" r="4" fill="#0" id="circle118"/>
	<circle cx="429.863" cy="314.787" r="4" fill="#0" id="circle119"/>
	<circle cx="435.743" cy="210.632" r="4" fill="#0" id="circle120"/>
	<circle cx="436.583" cy="319.827" r="4" fill="#0" id="circle121"/>
	<circle cx="441.622" cy="217.351" r="4" fill="#0" id="circle122"/>
	<circle cx="441.622" cy="326.547" r="4" fill="#0" id="circle123"/>
	<circle cx="448.342" cy="332.427" r="4" fill="#0" id="circle124"/>
	<circle cx="450.022" cy="220.711" r="4" fill="#0" id="circle125"/>
	<circle cx="454.222" cy="339.146" r="4" fill="#0" id="circle126"/>
	<circle cx="455.902" cy="227.431" r="4" fill="#0" id="circle127"/>
	<circle cx="460.942" cy="345.026" r="4" fill="#0" id="circle128"/>
	<circle cx="464.301" cy="230.791" r="4" fill="#0" id="circle129"/>
	<circle cx="466.821" cy="351.746" r="4" fill="#0" id="circle130"/>
	<circle cx="470.181" cy="237.511" r="4" fill="#0" id="circle131"/>
	<circle cx="473.541" cy="357.626" r="4" fill="#0" id="circle132"/>
	<circle cx="476.901" cy="243.39" r="4" fill="#0" id="circle133"/>
	<circle cx="479.421" cy="251.79" r="4" fill="#0" id="circle134"/>
	<circle cx="479.421" cy="364.345" r="4" fill="#0" id="circle135"/>
	<circle cx="486.141" cy="256.83" r="4" fill="#0" id="circle136"/>
	<circle cx="486.141" cy="370.225" r="4" fill="#0" id="circle137"/>
	<circle cx="492.02" cy="263.55" r="4" fill="#0" id="circle138"/>
	<circle cx="492.02" cy="376.945" r="4" fill="#0" id="circle139"/>
	<circle cx="498.74" cy="269.429" r="4" fill="#0" id="circle140"/>
	<circle cx="498.74" cy="382.825" r="4" fill="#0" id="circle141"/>
	<circle cx="502.1" cy="391.224" r="4" fill="#0" id="circle142"/>
	<circle cx="504.62" cy="276.149" r="4" fill="#0" id="circle143"/>
	<circle cx="508.82" cy="397.104" r="4" fill="#0" id="circle144"/>
	<circle cx="511.34" cy="282.029" r="4" fill="#0" id="circle145"/>
	<circle cx="514.699" cy="403.824" r="4" fill="#0" id="circle146"/>
	<circle cx="517.219" cy="288.749" r="4" fill="#0" id="circle147"/>
	<circle cx="523.099" cy="407.184" r="4" fill="#0" id="circle148"/>
	<circle cx="523.939" cy="294.628" r="4" fill="#0" id="circle149"/>
	<circle cx="528.979" cy="413.903" r="4" fill="#0" id="circle150"/>
	<circle cx="529.819" cy="301.348" r="4" fill="#0" id="circle151"/>
	<circle cx="533.179" cy="421.463" r="4" fill="#0" id="circle152"/>
	<circle cx="536.539" cy="307.228" r="4" fill="#0" id="circle153"/>
	<circle cx="537.378" cy="429.023" r="4" fill="#0" id="circle154"/>
	<circle cx="542.418" cy="313.948" r="4" fill="#0" id="circle155"/>
	<circle cx="542.418" cy="435.743" r="4" fill="#0" id="circle156"/>
	<circle cx="549.138" cy="319.827" r="4" fill="#0" id="circle157"/>
	<circle cx="549.138" cy="441.622" r="4" fill="#0" id="circle158"/>
	<circle cx="555.018" cy="326.547" r="4" fill="#0" id="circle159"/>
	<circle cx="555.018" cy="448.342" r="4" fill="#0" id="circle160"/>
	<circle cx="559.218" cy="334.107" r="4" fill="#0" id="circle161"/>
	<circle cx="561.738" cy="454.222" r="4" fill="#0" id="circle162"/>
	<circle cx="565.097" cy="340.826" r="4" fill="#0" id="circle163"/>
	<circle cx="569.297" cy="458.422" r="4" fill="#0" id="circle164"/>
	<circle cx="573.497" cy="344.186" r="4" fill="#0" id="circle165"/>
	<circle cx="576.017" cy="464.301" r="4" fill="#0" id="circle166"/>
	<circle cx="579.377" cy="350.906" r="4" fill="#0" id="circle167"/>
	<circle cx="581.897" cy="471.021" r="4" fill="#0" id="circle168"/>
	<circle cx="586.097" cy="356.786" r="4" fill="#0" id="circle169"/>
	<circle cx="589.456" cy="475.221" r="4" fill="#0" id="circle170"/>
	<circle cx="591.976" cy="363.506" r="4" fill="#0" id="circle171"/>
	<circle cx="591.976" cy="483.621" r="4" fill="#0" id="circle172"/>
	<circle cx="591.976" cy="492.02" r="4" fill="#0" id="circle173"/>
	<circle cx="594.496" cy="500.42" r="4" fill="#0" id="circle174"/>
	<circle cx="596.176" cy="508.82" r="4" fill="#0" id="circle175"/>
	<circle cx="598.696" cy="369.385" r="4" fill="#0" id="circle176"/>
	<circle cx="598.696" cy="517.219" r="4" fill="#0" id="circle177"/>
	<circle cx="600.376" cy="525.619" r="4" fill="#0" id="circle178"/>
	<circle cx="600.376" cy="534.019" r="4" fill="#0" id="circle179"/>
	<circle cx="600.376" cy="542.418" r="4" fill="#0" id="circle180"/>
	<circle cx="600.376" cy="550.818" r="4" fill="#0" id="circle181"/>
	<circle cx="601.216" cy="377.785" r="4" fill="#0" id="circle182"/>
	<circle cx="604.576" cy="558.378" r="4" fill="#0" id="circle183"/>
	<circle cx="604.576" cy="566.777" r="4" fill="#0" id="circle184"/>
	<circle cx="605.416" cy="385.345" r="4" fill="#0" id="circle185"/>
	<circle cx="606.256" cy="575.177" r="4" fill="#0" id="circle186"/>
	<circle cx="608.776" cy="583.577" r="4" fill="#0" id="circle187"/>
	<circle cx="608.776" cy="591.976" r="4" fill="#0" id="circle188"/>
	<circle cx="612.975" cy="599.536" r="4" fill="#0" id="circle189"/>
	<circle cx="612.975" cy="607.936" r="4" fill="#0" id="circle190"/>
	<circle cx="613.815" cy="386.185" r="4" fill="#0" id="circle191"/>
	<circle cx="617.175" cy="615.495" r="4" fill="#0" id="circle192"/>
	<circle cx="617.175" cy="623.895" r="4" fill="#0" id="circle193"/>
	<circle cx="617.175" cy="632.295" r="4" fill="#0" id="circle194"/>
	<circle cx="621.375" cy="390.384" r="4" fill="#0" id="circle195"/>
	<circle cx="621.375" cy="639.854" r="4" fill="#0" id="circle196"/>
	<circle cx="625.575" cy="647.414" r="4" fill="#0" id="circle197"/>
	<circle cx="628.095" cy="395.424" r="4" fill="#0" id="circle198"/>
	<circle cx="629.775" cy="654.974" r="4" fill="#0" id="circle199"/>
	<circle cx="634.815" cy="401.304" r="4" fill="#0" id="circle200"/>
	<circle cx="634.815" cy="661.693" r="4" fill="#0" id="circle201"/>
	<circle cx="639.014" cy="408.864" r="4" fill="#0" id="circle202"/>
	<circle cx="640.694" cy="668.413" r="4" fill="#0" id="circle203"/>
	<circle cx="644.054" cy="415.583" r="4" fill="#0" id="circle204"/>
	<circle cx="644.894" cy="675.973" r="4" fill="#0" id="circle205"/>
	<circle cx="650.774" cy="421.463" r="4" fill="#0" id="circle206"/>
	<circle cx="650.774" cy="682.693" r="4" fill="#0" id="circle207"/>
	<circle cx="655.814" cy="428.183" r="4" fill="#0" id="circle208"/>
	<circle cx="657.494" cy="688.572" r="4" fill="#0" id="circle209"/>
	<circle cx="663.373" cy="432.383" r="4" fill="#0" id="circle210"/>
	<circle cx="663.373" cy="695.292" r="4" fill="#0" id="circle211"/>
	<circle cx="670.093" cy="437.423" r="4" fill="#0" id="circle212"/>
	<circle cx="670.093" cy="701.172" r="4" fill="#0" id="circle213"/>
	<circle cx="675.973" cy="707.892" r="4" fill="#0" id="circle214"/>
	<circle cx="676.813" cy="443.302" r="4" fill="#0" id="circle215"/>
	<circle cx="682.693" cy="450.022" r="4" fill="#0" id="circle216"/>
	<circle cx="682.693" cy="713.771" r="4" fill="#0" id="circle217"/>
	<circle cx="688.572" cy="720.491" r="4" fill="#0" id="circle218"/>
	<circle cx="689.412" cy="455.902" r="4" fill="#0" id="circle219"/>
	<circle cx="692.772" cy="728.051" r="4" fill="#0" id="circle220"/>
	<circle cx="696.972" cy="460.102" r="4" fill="#0" id="circle221"/>
	<circle cx="698.652" cy="734.771" r="4" fill="#0" id="circle222"/>
	<circle cx="703.692" cy="465.981" r="4" fill="#0" id="circle223"/>
	<circle cx="705.372" cy="739.81" r="4" fill="#0" id="circle224"/>
	<circle cx="709.572" cy="472.701" r="4" fill="#0" id="circle225"/>
	<circle cx="712.931" cy="744.01" r="4" fill="#0" id="circle226"/>
	<circle cx="713.771" cy="480.261" r="4" fill="#0" id="circle227"/>
	<circle cx="718.811" cy="486.981" r="4" fill="#0" id="circle228"/>
	<circle cx="720.491" cy="748.21" r="4" fill="#0" id="circle229"/>
	<circle cx="725.531" cy="492.02" r="4" fill="#0" id="circle230"/>
	<circle cx="727.211" cy="754.09" r="4" fill="#0" id="circle231"/>
	<circle cx="731.411" cy="498.74" r="4" fill="#0" id="circle232"/>
	<circle cx="734.771" cy="758.29" r="4" fill="#0" id="circle233"/>
	<circle cx="739.81" cy="502.1" r="4" fill="#0" id="circle234"/>
	<circle cx="741.49" cy="764.169" r="4" fill="#0" id="circle235"/>
	<circle cx="745.69" cy="508.82" r="4" fill="#0" id="circle236"/>
	<circle cx="748.21" cy="769.209" r="4" fill="#0" id="circle237"/>
	<circle cx="752.41" cy="514.699" r="4" fill="#0" id="circle238"/>
	<circle cx="755.77" cy="773.409" r="4" fill="#0" id="circle239"/>
	<circle cx="758.29" cy="521.419" r="4" fill="#0" id="circle240"/>
	<circle cx="763.329" cy="777.609" r="4" fill="#0" id="circle241"/>
	<circle cx="765.009" cy="527.299" r="4" fill="#0" id="circle242"/>
	<circle cx="768.369" cy="535.699" r="4" fill="#0" id="circle243"/>
	<circle cx="770.889" cy="781.809" r="4" fill="#0" id="circle244"/>
	<circle cx="775.089" cy="541.578" r="4" fill="#0" id="circle245"/>
	<circle cx="777.609" cy="787.688" r="4" fill="#0" id="circle246"/>
	<circle cx="782.649" cy="545.778" r="4" fill="#0" id="circle247"/>
	<circle cx="785.169" cy="791.888" r="4" fill="#0" id="circle248"/>
	<circle cx="789.368" cy="551.658" r="4" fill="#0" id="circle249"/>
	<circle cx="793.568" cy="794.408" r="4" fill="#0" id="circle250"/>
	<circle cx="794.408" cy="558.378" r="4" fill="#0" id="circle251"/>
	<circle cx="798.608" cy="801.128" r="4" fill="#0" id="circle252"/>
	<circle cx="801.968" cy="562.577" r="4" fill="#0" id="circle253"/>
	<circle cx="805.328" cy="807.008" r="4" fill="#0" id="circle254"/>
	<circle cx="808.688" cy="567.617" r="4" fill="#0" id="circle255"/>
	<circle cx="812.887" cy="811.207" r="4" fill="#0" id="circle256"/>
	<circle cx="815.407" cy="573.497" r="4" fill="#0" id="circle257"/>
	<circle cx="820.447" cy="815.407" r="4" fill="#0" id="circle258"/>
	<circle cx="821.287" cy="580.217" r="4" fill="#0" id="circle259"/>
	<circle cx="828.007" cy="586.097" r="4" fill="#0" id="circle260"/>
	<circle cx="828.007" cy="819.607" r="4" fill="#0" id="circle261"/>
	<circle cx="833.887" cy="592.816" r="4" fill="#0" id="circle262"/>
	<circle cx="835.566" cy="823.807" r="4" fill="#0" id="circle263"/>
	<circle cx="840.606" cy="598.696" r="4" fill="#0" id="circle264"/>
	<circle cx="840.606" cy="830.527" r="4" fill="#0" id="circle265"/>
	<circle cx="848.166" cy="602.896" r="4" fill="#0" id="circle266"/>
	<circle cx="849.006" cy="833.887" r="4" fill="#0" id="circle267"/>
	<circle cx="854.886" cy="608.776" r="4" fill="#0" id="circle268"/>
	<circle cx="857.406" cy="836.406" r="4" fill="#0" id="circle269"/>
	<circle cx="862.445" cy="612.975" r="4" fill="#0" id="circle270"/>
	<circle cx="865.805" cy="838.086" r="4" fill="#0" id="circle271"/>
	<circle cx="869.165" cy="618.855" r="4" fill="#0" id="circle272"/>
	<circle cx="873.365" cy="842.286" r="4" fill="#0" id="circle273"/>
	<circle cx="874.205" cy="625.575" r="4" fill="#0" id="circle274"/>
	<circle cx="880.925" cy="630.615" r="4" fill="#0" id="circle275"/>
	<circle cx="881.765" cy="844.806" r="4" fill="#0" id="circle276"/>
	<circle cx="886.804" cy="637.334" r="4" fill="#0" id="circle277"/>
	<circle cx="889.324" cy="849.006" r="4" fill="#0" id="circle278"/>
	<circle cx="891.004" cy="644.894" r="4" fill="#0" id="circle279"/>
	<circle cx="896.884" cy="651.614" r="4" fill="#0" id="circle280"/>
	<circle cx="896.884" cy="853.206" r="4" fill="#0" id="circle281"/>
	<circle cx="903.604" cy="657.494" r="4" fill="#0" id="circle282"/>
	<circle cx="904.444" cy="857.406" r="4" fill="#0" id="circle283"/>
	<circle cx="906.964" cy="665.893" r="4" fill="#0" id="circle284"/>
	<circle cx="912.003" cy="672.613" r="4" fill="#0" id="circle285"/>
	<circle cx="912.843" cy="857.406" r="4" fill="#0" id="circle286"/>
	<circle cx="916.203" cy="680.173" r="4" fill="#0" id="circle287"/>
	<circle cx="916.203" cy="688.572" r="4" fill="#0" id="circle288"/>
	<circle cx="920.403" cy="861.605" r="4" fill="#0" id="circle289"/>
	<circle cx="922.923" cy="693.612" r="4" fill="#0" id="circle290"/>
	<circle cx="928.803" cy="700.332" r="4" fill="#0" id="circle291"/>
	<circle cx="928.803" cy="861.605" r="4" fill="#0" id="circle292"/>
	<circle cx="933.003" cy="707.892" r="4" fill="#0" id="circle293"/>
	<circle cx="937.202" cy="863.285" r="4" fill="#0" id="circle294"/>
	<circle cx="938.882" cy="714.611" r="4" fill="#0" id="circle295"/>
	<circle cx="943.082" cy="722.171" r="4" fill="#0" id="circle296"/>
	<circle cx="945.602" cy="730.571" r="4" fill="#0" id="circle297"/>
	<circle cx="945.602" cy="865.805" r="4" fill="#0" id="circle298"/>
	<circle cx="949.802" cy="738.13" r="4" fill="#0" id="circle299"/>
	<circle cx="954.002" cy="865.805" r="4" fill="#0" id="circle300"/>
	<circle cx="956.522" cy="744.01" r="4" fill="#0" id="circle301"/>
	<circle cx="962.401" cy="750.73" r="4" fill="#0" id="circle302"/>
	<circle cx="962.401" cy="865.805" r="4" fill="#0" id="circle303"/>
	<circle cx="966.601" cy="758.29" r="4" fill="#0" id="circle304"/>
	<circle cx="969.961" cy="766.689" r="4" fill="#0" id="circle305"/>
	<circle cx="969.961" cy="861.605" r="4" fill="#0" id="circle306"/>
	<circle cx="976.681" cy="772.569" r="4" fill="#0" id="circle307"/>
	<circle cx="976.681" cy="856.566" r="4" fill="#0" id="circle308"/>
	<circle cx="979.201" cy="780.969" r="4" fill="#0" id="circle309"/>
	<circle cx="983.401" cy="788.528" r="4" fill="#0" id="circle310"/>
	<circle cx="983.401" cy="849.006" r="4" fill="#0" id="circle311"/>
	<circle cx="987.6" cy="840.606" r="4" fill="#0" id="circle312"/>
	<circle cx="990.12" cy="794.408" r="4" fill="#0" id="circle313"/>
	<circle cx="991.8" cy="832.207" r="4" fill="#0" id="circle314"/>
	<circle cx="993.48" cy="802.808" r="4" fill="#0" id="circle315"/>
	<circle cx="996" cy="811.207" r="4" fill="#0" id="circle316"/>
	<circle cx="996" cy="819.607" r="4" fill="#0" id="circle317"/>
	</g>
</svg>