<?xml version="1.0" encoding="UTF-8" standalone="no"?>
<!-- Created with CurveBenchmark -->
<svg
	xmlns:dc="http://purl.org/dc/elements/1.1/"
	xmlns:cc="http://creativecommons.org/ns#"
	xmlns:rdf="http://www.w3.org/1999/02/22-rdf-syntax-ns#"
	xmlns:svg="http://www.w3.org/2000/svg"
	xmlns="http://www.w3.org/2000/svg"
	xmlns:sodipodi="http://sodipodi.sourceforge.net/DTD/sodipodi-0.dtd"
	xmlns:inkscape="http://www.inkscape.org/namespaces/inkscape"
	width="1000"
	height="1000"
	id="svg2"
	version="1.1"
	sodipodi:docname="manifold/discur-cat25.png.txt">
<defs
	id="defs4" />
<metadata
	id="metadata7">
	<rdf:RDF>
		<cc:Work
			rdf:about="">
			<dc:format>image/svg+xml</dc:format>
			<dc:type
				rdf:resource="http://purl.org/dc/dcmitype/StillImage" />
			<dc:title></dc:title>
		</cc:Work>
	</rdf:RDF>
</metadata>
<g
	inkscape:label="Layer 1"
	inkscape:groupmode="layer"
	id="layer1">
	<path style="fill:none;stroke:red;stroke-width:1px;stroke-linecap:butt;stroke-linejoin:miter;stroke-opacity:1" d="M 4,208.57 4,224.805 z" id="boundary" inkscape:connector-curvature="0" />
	<path style="fill:none;stroke:red;stroke-width:1px;stroke-linecap:butt;stroke-linejoin:miter;stroke-opacity:1" d="M 4,208.57 16.9885,195.581 z" id="boundary" inkscape:connector-curvature="0" />
	<path style="fill:none;stroke:red;stroke-width:1px;stroke-linecap:butt;stroke-linejoin:miter;stroke-opacity:1" d="M 4,224.805 4,241.041 z" id="boundary" inkscape:connector-curvature="0" />
	<path style="fill:none;stroke:red;stroke-width:1px;stroke-linecap:butt;stroke-linejoin:miter;stroke-opacity:1" d="M 4,241.041 16.9885,252.406 z" id="boundary" inkscape:connector-curvature="0" />
	<path style="fill:none;stroke:red;stroke-width:1px;stroke-linecap:butt;stroke-linejoin:miter;stroke-opacity:1" d="M 16.9885,195.581 28.3535,176.098 z" id="boundary" inkscape:connector-curvature="0" />
	<path style="fill:none;stroke:red;stroke-width:1px;stroke-linecap:butt;stroke-linejoin:miter;stroke-opacity:1" d="M 16.9885,252.406 29.9771,262.147 z" id="boundary" inkscape:connector-curvature="0" />
	<path style="fill:none;stroke:red;stroke-width:1px;stroke-linecap:butt;stroke-linejoin:miter;stroke-opacity:1" d="M 28.3535,176.098 36.4714,159.863 z" id="boundary" inkscape:connector-curvature="0" />
	<path style="fill:none;stroke:red;stroke-width:1px;stroke-linecap:butt;stroke-linejoin:miter;stroke-opacity:1" d="M 29.9771,262.147 44.5892,270.265 z" id="boundary" inkscape:connector-curvature="0" />
	<path style="fill:none;stroke:red;stroke-width:1px;stroke-linecap:butt;stroke-linejoin:miter;stroke-opacity:1" d="M 36.4714,159.863 49.4599,146.874 z" id="boundary" inkscape:connector-curvature="0" />
	<path style="fill:none;stroke:red;stroke-width:1px;stroke-linecap:butt;stroke-linejoin:miter;stroke-opacity:1" d="M 44.5892,270.265 60.8249,270.265 z" id="boundary" inkscape:connector-curvature="0" />
	<path style="fill:none;stroke:red;stroke-width:1px;stroke-linecap:butt;stroke-linejoin:miter;stroke-opacity:1" d="M 49.4599,146.874 62.4484,133.885 z" id="boundary" inkscape:connector-curvature="0" />
	<path style="fill:none;stroke:red;stroke-width:1px;stroke-linecap:butt;stroke-linejoin:miter;stroke-opacity:1" d="M 60.8249,94.9198 60.8249,111.155 z" id="boundary" inkscape:connector-curvature="0" />
	<path style="fill:none;stroke:red;stroke-width:1px;stroke-linecap:butt;stroke-linejoin:miter;stroke-opacity:1" d="M 60.8249,94.9198 77.0606,93.2962 z" id="boundary" inkscape:connector-curvature="0" />
	<path style="fill:none;stroke:red;stroke-width:1px;stroke-linecap:butt;stroke-linejoin:miter;stroke-opacity:1" d="M 60.8249,111.155 62.4484,133.885 z" id="boundary" inkscape:connector-curvature="0" />
	<path style="fill:none;stroke:red;stroke-width:1px;stroke-linecap:butt;stroke-linejoin:miter;stroke-opacity:1" d="M 60.8249,270.265 75.437,278.383 z" id="boundary" inkscape:connector-curvature="0" />
	<path style="fill:none;stroke:red;stroke-width:1px;stroke-linecap:butt;stroke-linejoin:miter;stroke-opacity:1" d="M 75.437,278.383 90.0491,286.501 z" id="boundary" inkscape:connector-curvature="0" />
	<path style="fill:none;stroke:red;stroke-width:1px;stroke-linecap:butt;stroke-linejoin:miter;stroke-opacity:1" d="M 77.0606,93.2962 86.802,106.285 z" id="boundary" inkscape:connector-curvature="0" />
	<path style="fill:none;stroke:red;stroke-width:1px;stroke-linecap:butt;stroke-linejoin:miter;stroke-opacity:1" d="M 86.802,106.285 103.038,111.155 z" id="boundary" inkscape:connector-curvature="0" />
	<path style="fill:none;stroke:red;stroke-width:1px;stroke-linecap:butt;stroke-linejoin:miter;stroke-opacity:1" d="M 90.0491,286.501 106.285,292.995 z" id="boundary" inkscape:connector-curvature="0" />
	<path style="fill:none;stroke:red;stroke-width:1px;stroke-linecap:butt;stroke-linejoin:miter;stroke-opacity:1" d="M 103.038,111.155 116.026,122.52 z" id="boundary" inkscape:connector-curvature="0" />
	<path style="fill:none;stroke:red;stroke-width:1px;stroke-linecap:butt;stroke-linejoin:miter;stroke-opacity:1" d="M 106.285,292.995 117.65,305.984 z" id="boundary" inkscape:connector-curvature="0" />
	<path style="fill:none;stroke:red;stroke-width:1px;stroke-linecap:butt;stroke-linejoin:miter;stroke-opacity:1" d="M 116.026,122.52 130.638,130.638 z" id="boundary" inkscape:connector-curvature="0" />
	<path style="fill:none;stroke:red;stroke-width:1px;stroke-linecap:butt;stroke-linejoin:miter;stroke-opacity:1" d="M 117.65,305.984 130.638,317.349 z" id="boundary" inkscape:connector-curvature="0" />
	<path style="fill:none;stroke:red;stroke-width:1px;stroke-linecap:butt;stroke-linejoin:miter;stroke-opacity:1" d="M 130.638,130.638 145.25,138.756 z" id="boundary" inkscape:connector-curvature="0" />
	<path style="fill:none;stroke:red;stroke-width:1px;stroke-linecap:butt;stroke-linejoin:miter;stroke-opacity:1" d="M 130.638,317.349 137.133,333.584 z" id="boundary" inkscape:connector-curvature="0" />
	<path style="fill:none;stroke:red;stroke-width:1px;stroke-linecap:butt;stroke-linejoin:miter;stroke-opacity:1" d="M 137.133,333.584 150.121,343.326 z" id="boundary" inkscape:connector-curvature="0" />
	<path style="fill:none;stroke:red;stroke-width:1px;stroke-linecap:butt;stroke-linejoin:miter;stroke-opacity:1" d="M 145.25,138.756 159.863,146.874 z" id="boundary" inkscape:connector-curvature="0" />
	<path style="fill:none;stroke:red;stroke-width:1px;stroke-linecap:butt;stroke-linejoin:miter;stroke-opacity:1" d="M 150.121,343.326 164.733,351.444 z" id="boundary" inkscape:connector-curvature="0" />
	<path style="fill:none;stroke:red;stroke-width:1px;stroke-linecap:butt;stroke-linejoin:miter;stroke-opacity:1" d="M 158.239,541.401 166.357,556.013 z" id="boundary" inkscape:connector-curvature="0" />
	<path style="fill:none;stroke:red;stroke-width:1px;stroke-linecap:butt;stroke-linejoin:miter;stroke-opacity:1" d="M 158.239,541.401 171.227,528.412 z" id="boundary" inkscape:connector-curvature="0" />
	<path style="fill:none;stroke:red;stroke-width:1px;stroke-linecap:butt;stroke-linejoin:miter;stroke-opacity:1" d="M 159.863,146.874 167.98,161.486 z" id="boundary" inkscape:connector-curvature="0" />
	<path style="fill:none;stroke:red;stroke-width:1px;stroke-linecap:butt;stroke-linejoin:miter;stroke-opacity:1" d="M 164.733,351.444 176.098,364.432 z" id="boundary" inkscape:connector-curvature="0" />
	<path style="fill:none;stroke:red;stroke-width:1px;stroke-linecap:butt;stroke-linejoin:miter;stroke-opacity:1" d="M 166.357,556.013 182.592,562.507 z" id="boundary" inkscape:connector-curvature="0" />
	<path style="fill:none;stroke:red;stroke-width:1px;stroke-linecap:butt;stroke-linejoin:miter;stroke-opacity:1" d="M 167.98,161.486 184.216,167.98 z" id="boundary" inkscape:connector-curvature="0" />
	<path style="fill:none;stroke:red;stroke-width:1px;stroke-linecap:butt;stroke-linejoin:miter;stroke-opacity:1" d="M 171.227,528.412 187.463,520.295 z" id="boundary" inkscape:connector-curvature="0" />
	<path style="fill:none;stroke:red;stroke-width:1px;stroke-linecap:butt;stroke-linejoin:miter;stroke-opacity:1" d="M 176.098,364.432 189.087,375.797 z" id="boundary" inkscape:connector-curvature="0" />
	<path style="fill:none;stroke:red;stroke-width:1px;stroke-linecap:butt;stroke-linejoin:miter;stroke-opacity:1" d="M 182.592,562.507 197.205,570.625 z" id="boundary" inkscape:connector-curvature="0" />
	<path style="fill:none;stroke:red;stroke-width:1px;stroke-linecap:butt;stroke-linejoin:miter;stroke-opacity:1" d="M 184.216,167.98 198.828,176.098 z" id="boundary" inkscape:connector-curvature="0" />
	<path style="fill:none;stroke:red;stroke-width:1px;stroke-linecap:butt;stroke-linejoin:miter;stroke-opacity:1" d="M 187.463,520.295 195.581,504.059 z" id="boundary" inkscape:connector-curvature="0" />
	<path style="fill:none;stroke:red;stroke-width:1px;stroke-linecap:butt;stroke-linejoin:miter;stroke-opacity:1" d="M 189.087,375.797 203.699,383.915 z" id="boundary" inkscape:connector-curvature="0" />
	<path style="fill:none;stroke:red;stroke-width:1px;stroke-linecap:butt;stroke-linejoin:miter;stroke-opacity:1" d="M 195.581,504.059 198.828,484.576 z" id="boundary" inkscape:connector-curvature="0" />
	<path style="fill:none;stroke:red;stroke-width:1px;stroke-linecap:butt;stroke-linejoin:miter;stroke-opacity:1" d="M 197.205,570.625 211.817,562.507 z" id="boundary" inkscape:connector-curvature="0" />
	<path style="fill:none;stroke:red;stroke-width:1px;stroke-linecap:butt;stroke-linejoin:miter;stroke-opacity:1" d="M 198.828,176.098 215.064,182.592 z" id="boundary" inkscape:connector-curvature="0" />
	<path style="fill:none;stroke:red;stroke-width:1px;stroke-linecap:butt;stroke-linejoin:miter;stroke-opacity:1" d="M 198.828,484.576 206.946,460.223 z" id="boundary" inkscape:connector-curvature="0" />
	<path style="fill:none;stroke:red;stroke-width:1px;stroke-linecap:butt;stroke-linejoin:miter;stroke-opacity:1" d="M 203.699,383.915 211.817,398.527 z" id="boundary" inkscape:connector-curvature="0" />
	<path style="fill:none;stroke:red;stroke-width:1px;stroke-linecap:butt;stroke-linejoin:miter;stroke-opacity:1" d="M 206.946,460.223 215.064,430.998 z" id="boundary" inkscape:connector-curvature="0" />
	<path style="fill:none;stroke:red;stroke-width:1px;stroke-linecap:butt;stroke-linejoin:miter;stroke-opacity:1" d="M 211.817,398.527 215.064,414.763 z" id="boundary" inkscape:connector-curvature="0" />
	<path style="fill:none;stroke:red;stroke-width:1px;stroke-linecap:butt;stroke-linejoin:miter;stroke-opacity:1" d="M 211.817,562.507 226.429,554.39 z" id="boundary" inkscape:connector-curvature="0" />
	<path style="fill:none;stroke:red;stroke-width:1px;stroke-linecap:butt;stroke-linejoin:miter;stroke-opacity:1" d="M 215.064,182.592 231.3,187.463 z" id="boundary" inkscape:connector-curvature="0" />
	<path style="fill:none;stroke:red;stroke-width:1px;stroke-linecap:butt;stroke-linejoin:miter;stroke-opacity:1" d="M 215.064,414.763 215.064,430.998 z" id="boundary" inkscape:connector-curvature="0" />
	<path style="fill:none;stroke:red;stroke-width:1px;stroke-linecap:butt;stroke-linejoin:miter;stroke-opacity:1" d="M 223.182,598.226 223.182,614.462 z" id="boundary" inkscape:connector-curvature="0" />
	<path style="fill:none;stroke:red;stroke-width:1px;stroke-linecap:butt;stroke-linejoin:miter;stroke-opacity:1" d="M 223.182,598.226 236.17,585.237 z" id="boundary" inkscape:connector-curvature="0" />
	<path style="fill:none;stroke:red;stroke-width:1px;stroke-linecap:butt;stroke-linejoin:miter;stroke-opacity:1" d="M 223.182,614.462 239.417,619.332 z" id="boundary" inkscape:connector-curvature="0" />
	<path style="fill:none;stroke:red;stroke-width:1px;stroke-linecap:butt;stroke-linejoin:miter;stroke-opacity:1" d="M 226.429,554.39 232.923,538.154 z" id="boundary" inkscape:connector-curvature="0" />
	<path style="fill:none;stroke:red;stroke-width:1px;stroke-linecap:butt;stroke-linejoin:miter;stroke-opacity:1" d="M 231.3,187.463 247.535,187.463 z" id="boundary" inkscape:connector-curvature="0" />
	<path style="fill:none;stroke:red;stroke-width:1px;stroke-linecap:butt;stroke-linejoin:miter;stroke-opacity:1" d="M 232.923,538.154 241.041,521.918 z" id="boundary" inkscape:connector-curvature="0" />
	<path style="fill:none;stroke:red;stroke-width:1px;stroke-linecap:butt;stroke-linejoin:miter;stroke-opacity:1" d="M 236.17,585.237 252.406,577.119 z" id="boundary" inkscape:connector-curvature="0" />
	<path style="fill:none;stroke:red;stroke-width:1px;stroke-linecap:butt;stroke-linejoin:miter;stroke-opacity:1" d="M 239.417,619.332 255.653,619.332 z" id="boundary" inkscape:connector-curvature="0" />
	<path style="fill:none;stroke:red;stroke-width:1px;stroke-linecap:butt;stroke-linejoin:miter;stroke-opacity:1" d="M 241.041,521.918 249.159,497.565 z" id="boundary" inkscape:connector-curvature="0" />
	<path style="fill:none;stroke:red;stroke-width:1px;stroke-linecap:butt;stroke-linejoin:miter;stroke-opacity:1" d="M 247.535,187.463 263.771,187.463 z" id="boundary" inkscape:connector-curvature="0" />
	<path style="fill:none;stroke:red;stroke-width:1px;stroke-linecap:butt;stroke-linejoin:miter;stroke-opacity:1" d="M 249.159,497.565 257.277,473.211 z" id="boundary" inkscape:connector-curvature="0" />
	<path style="fill:none;stroke:red;stroke-width:1px;stroke-linecap:butt;stroke-linejoin:miter;stroke-opacity:1" d="M 252.406,577.119 263.771,549.519 z" id="boundary" inkscape:connector-curvature="0" />
	<path style="fill:none;stroke:red;stroke-width:1px;stroke-linecap:butt;stroke-linejoin:miter;stroke-opacity:1" d="M 255.653,619.332 271.889,619.332 z" id="boundary" inkscape:connector-curvature="0" />
	<path style="fill:none;stroke:red;stroke-width:1px;stroke-linecap:butt;stroke-linejoin:miter;stroke-opacity:1" d="M 257.277,473.211 265.394,448.858 z" id="boundary" inkscape:connector-curvature="0" />
	<path style="fill:none;stroke:red;stroke-width:1px;stroke-linecap:butt;stroke-linejoin:miter;stroke-opacity:1" d="M 263.771,187.463 280.007,187.463 z" id="boundary" inkscape:connector-curvature="0" />
	<path style="fill:none;stroke:red;stroke-width:1px;stroke-linecap:butt;stroke-linejoin:miter;stroke-opacity:1" d="M 263.771,549.519 271.889,525.165 z" id="boundary" inkscape:connector-curvature="0" />
	<path style="fill:none;stroke:red;stroke-width:1px;stroke-linecap:butt;stroke-linejoin:miter;stroke-opacity:1" d="M 265.394,448.858 280.007,456.975 z" id="boundary" inkscape:connector-curvature="0" />
	<path style="fill:none;stroke:red;stroke-width:1px;stroke-linecap:butt;stroke-linejoin:miter;stroke-opacity:1" d="M 271.889,492.694 271.889,508.93 z" id="boundary" inkscape:connector-curvature="0" />
	<path style="fill:none;stroke:red;stroke-width:1px;stroke-linecap:butt;stroke-linejoin:miter;stroke-opacity:1" d="M 271.889,492.694 280.007,473.211 z" id="boundary" inkscape:connector-curvature="0" />
	<path style="fill:none;stroke:red;stroke-width:1px;stroke-linecap:butt;stroke-linejoin:miter;stroke-opacity:1" d="M 271.889,508.93 271.889,525.165 z" id="boundary" inkscape:connector-curvature="0" />
	<path style="fill:none;stroke:red;stroke-width:1px;stroke-linecap:butt;stroke-linejoin:miter;stroke-opacity:1" d="M 271.889,619.332 288.124,614.462 z" id="boundary" inkscape:connector-curvature="0" />
	<path style="fill:none;stroke:red;stroke-width:1px;stroke-linecap:butt;stroke-linejoin:miter;stroke-opacity:1" d="M 280.007,187.463 296.242,190.71 z" id="boundary" inkscape:connector-curvature="0" />
	<path style="fill:none;stroke:red;stroke-width:1px;stroke-linecap:butt;stroke-linejoin:miter;stroke-opacity:1" d="M 280.007,456.975 280.007,473.211 z" id="boundary" inkscape:connector-curvature="0" />
	<path style="fill:none;stroke:red;stroke-width:1px;stroke-linecap:butt;stroke-linejoin:miter;stroke-opacity:1" d="M 288.124,614.462 297.866,594.979 z" id="boundary" inkscape:connector-curvature="0" />
	<path style="fill:none;stroke:red;stroke-width:1px;stroke-linecap:butt;stroke-linejoin:miter;stroke-opacity:1" d="M 296.242,190.71 312.478,195.581 z" id="boundary" inkscape:connector-curvature="0" />
	<path style="fill:none;stroke:red;stroke-width:1px;stroke-linecap:butt;stroke-linejoin:miter;stroke-opacity:1" d="M 297.866,594.979 305.984,578.743 z" id="boundary" inkscape:connector-curvature="0" />
	<path style="fill:none;stroke:red;stroke-width:1px;stroke-linecap:butt;stroke-linejoin:miter;stroke-opacity:1" d="M 305.984,578.743 314.101,554.39 z" id="boundary" inkscape:connector-curvature="0" />
	<path style="fill:none;stroke:red;stroke-width:1px;stroke-linecap:butt;stroke-linejoin:miter;stroke-opacity:1" d="M 312.478,195.581 328.714,195.581 z" id="boundary" inkscape:connector-curvature="0" />
	<path style="fill:none;stroke:red;stroke-width:1px;stroke-linecap:butt;stroke-linejoin:miter;stroke-opacity:1" d="M 314.101,538.154 314.101,554.39 z" id="boundary" inkscape:connector-curvature="0" />
	<path style="fill:none;stroke:red;stroke-width:1px;stroke-linecap:butt;stroke-linejoin:miter;stroke-opacity:1" d="M 314.101,538.154 322.219,521.918 z" id="boundary" inkscape:connector-curvature="0" />
	<path style="fill:none;stroke:red;stroke-width:1px;stroke-linecap:butt;stroke-linejoin:miter;stroke-opacity:1" d="M 322.219,521.918 330.337,497.565 z" id="boundary" inkscape:connector-curvature="0" />
	<path style="fill:none;stroke:red;stroke-width:1px;stroke-linecap:butt;stroke-linejoin:miter;stroke-opacity:1" d="M 328.714,195.581 343.326,187.463 z" id="boundary" inkscape:connector-curvature="0" />
	<path style="fill:none;stroke:red;stroke-width:1px;stroke-linecap:butt;stroke-linejoin:miter;stroke-opacity:1" d="M 330.337,481.329 330.337,497.565 z" id="boundary" inkscape:connector-curvature="0" />
	<path style="fill:none;stroke:red;stroke-width:1px;stroke-linecap:butt;stroke-linejoin:miter;stroke-opacity:1" d="M 330.337,481.329 338.455,456.975 z" id="boundary" inkscape:connector-curvature="0" />
	<path style="fill:none;stroke:red;stroke-width:1px;stroke-linecap:butt;stroke-linejoin:miter;stroke-opacity:1" d="M 338.455,456.975 346.573,432.622 z" id="boundary" inkscape:connector-curvature="0" />
	<path style="fill:none;stroke:red;stroke-width:1px;stroke-linecap:butt;stroke-linejoin:miter;stroke-opacity:1" d="M 343.326,187.463 359.561,187.463 z" id="boundary" inkscape:connector-curvature="0" />
	<path style="fill:none;stroke:red;stroke-width:1px;stroke-linecap:butt;stroke-linejoin:miter;stroke-opacity:1" d="M 346.573,432.622 362.809,432.622 z" id="boundary" inkscape:connector-curvature="0" />
	<path style="fill:none;stroke:red;stroke-width:1px;stroke-linecap:butt;stroke-linejoin:miter;stroke-opacity:1" d="M 359.561,187.463 375.797,187.463 z" id="boundary" inkscape:connector-curvature="0" />
	<path style="fill:none;stroke:red;stroke-width:1px;stroke-linecap:butt;stroke-linejoin:miter;stroke-opacity:1" d="M 362.809,432.622 379.044,432.622 z" id="boundary" inkscape:connector-curvature="0" />
	<path style="fill:none;stroke:red;stroke-width:1px;stroke-linecap:butt;stroke-linejoin:miter;stroke-opacity:1" d="M 375.797,187.463 392.033,187.463 z" id="boundary" inkscape:connector-curvature="0" />
	<path style="fill:none;stroke:red;stroke-width:1px;stroke-linecap:butt;stroke-linejoin:miter;stroke-opacity:1" d="M 379.044,432.622 395.28,424.504 z" id="boundary" inkscape:connector-curvature="0" />
	<path style="fill:none;stroke:red;stroke-width:1px;stroke-linecap:butt;stroke-linejoin:miter;stroke-opacity:1" d="M 392.033,187.463 408.268,187.463 z" id="boundary" inkscape:connector-curvature="0" />
	<path style="fill:none;stroke:red;stroke-width:1px;stroke-linecap:butt;stroke-linejoin:miter;stroke-opacity:1" d="M 395.28,424.504 409.892,432.622 z" id="boundary" inkscape:connector-curvature="0" />
	<path style="fill:none;stroke:red;stroke-width:1px;stroke-linecap:butt;stroke-linejoin:miter;stroke-opacity:1" d="M 408.268,187.463 424.504,187.463 z" id="boundary" inkscape:connector-curvature="0" />
	<path style="fill:none;stroke:red;stroke-width:1px;stroke-linecap:butt;stroke-linejoin:miter;stroke-opacity:1" d="M 409.892,432.622 426.128,432.622 z" id="boundary" inkscape:connector-curvature="0" />
	<path style="fill:none;stroke:red;stroke-width:1px;stroke-linecap:butt;stroke-linejoin:miter;stroke-opacity:1" d="M 424.504,187.463 440.74,187.463 z" id="boundary" inkscape:connector-curvature="0" />
	<path style="fill:none;stroke:red;stroke-width:1px;stroke-linecap:butt;stroke-linejoin:miter;stroke-opacity:1" d="M 426.128,432.622 440.74,424.504 z" id="boundary" inkscape:connector-curvature="0" />
	<path style="fill:none;stroke:red;stroke-width:1px;stroke-linecap:butt;stroke-linejoin:miter;stroke-opacity:1" d="M 440.74,187.463 456.975,187.463 z" id="boundary" inkscape:connector-curvature="0" />
	<path style="fill:none;stroke:red;stroke-width:1px;stroke-linecap:butt;stroke-linejoin:miter;stroke-opacity:1" d="M 440.74,424.504 456.975,424.504 z" id="boundary" inkscape:connector-curvature="0" />
	<path style="fill:none;stroke:red;stroke-width:1px;stroke-linecap:butt;stroke-linejoin:miter;stroke-opacity:1" d="M 456.975,187.463 473.211,187.463 z" id="boundary" inkscape:connector-curvature="0" />
	<path style="fill:none;stroke:red;stroke-width:1px;stroke-linecap:butt;stroke-linejoin:miter;stroke-opacity:1" d="M 456.975,424.504 473.211,424.504 z" id="boundary" inkscape:connector-curvature="0" />
	<path style="fill:none;stroke:red;stroke-width:1px;stroke-linecap:butt;stroke-linejoin:miter;stroke-opacity:1" d="M 473.211,187.463 489.447,187.463 z" id="boundary" inkscape:connector-curvature="0" />
	<path style="fill:none;stroke:red;stroke-width:1px;stroke-linecap:butt;stroke-linejoin:miter;stroke-opacity:1" d="M 473.211,424.504 489.447,424.504 z" id="boundary" inkscape:connector-curvature="0" />
	<path style="fill:none;stroke:red;stroke-width:1px;stroke-linecap:butt;stroke-linejoin:miter;stroke-opacity:1" d="M 489.447,187.463 504.059,179.345 z" id="boundary" inkscape:connector-curvature="0" />
	<path style="fill:none;stroke:red;stroke-width:1px;stroke-linecap:butt;stroke-linejoin:miter;stroke-opacity:1" d="M 489.447,424.504 505.682,421.257 z" id="boundary" inkscape:connector-curvature="0" />
	<path style="fill:none;stroke:red;stroke-width:1px;stroke-linecap:butt;stroke-linejoin:miter;stroke-opacity:1" d="M 499.188,549.519 499.188,565.755 z" id="boundary" inkscape:connector-curvature="0" />
	<path style="fill:none;stroke:red;stroke-width:1px;stroke-linecap:butt;stroke-linejoin:miter;stroke-opacity:1" d="M 499.188,549.519 512.177,536.53 z" id="boundary" inkscape:connector-curvature="0" />
	<path style="fill:none;stroke:red;stroke-width:1px;stroke-linecap:butt;stroke-linejoin:miter;stroke-opacity:1" d="M 499.188,565.755 512.177,577.119 z" id="boundary" inkscape:connector-curvature="0" />
	<path style="fill:none;stroke:red;stroke-width:1px;stroke-linecap:butt;stroke-linejoin:miter;stroke-opacity:1" d="M 504.059,179.345 520.295,179.345 z" id="boundary" inkscape:connector-curvature="0" />
	<path style="fill:none;stroke:red;stroke-width:1px;stroke-linecap:butt;stroke-linejoin:miter;stroke-opacity:1" d="M 505.682,421.257 521.918,416.386 z" id="boundary" inkscape:connector-curvature="0" />
	<path style="fill:none;stroke:red;stroke-width:1px;stroke-linecap:butt;stroke-linejoin:miter;stroke-opacity:1" d="M 512.177,536.53 528.412,536.53 z" id="boundary" inkscape:connector-curvature="0" />
	<path style="fill:none;stroke:red;stroke-width:1px;stroke-linecap:butt;stroke-linejoin:miter;stroke-opacity:1" d="M 512.177,577.119 528.412,578.743 z" id="boundary" inkscape:connector-curvature="0" />
	<path style="fill:none;stroke:red;stroke-width:1px;stroke-linecap:butt;stroke-linejoin:miter;stroke-opacity:1" d="M 520.295,179.345 536.53,179.345 z" id="boundary" inkscape:connector-curvature="0" />
	<path style="fill:none;stroke:red;stroke-width:1px;stroke-linecap:butt;stroke-linejoin:miter;stroke-opacity:1" d="M 521.918,416.386 538.154,416.386 z" id="boundary" inkscape:connector-curvature="0" />
	<path style="fill:none;stroke:red;stroke-width:1px;stroke-linecap:butt;stroke-linejoin:miter;stroke-opacity:1" d="M 528.412,536.53 541.401,523.542 z" id="boundary" inkscape:connector-curvature="0" />
	<path style="fill:none;stroke:red;stroke-width:1px;stroke-linecap:butt;stroke-linejoin:miter;stroke-opacity:1" d="M 528.412,578.743 543.025,570.625 z" id="boundary" inkscape:connector-curvature="0" />
	<path style="fill:none;stroke:red;stroke-width:1px;stroke-linecap:butt;stroke-linejoin:miter;stroke-opacity:1" d="M 536.53,179.345 552.766,171.227 z" id="boundary" inkscape:connector-curvature="0" />
	<path style="fill:none;stroke:red;stroke-width:1px;stroke-linecap:butt;stroke-linejoin:miter;stroke-opacity:1" d="M 538.154,416.386 554.39,416.386 z" id="boundary" inkscape:connector-curvature="0" />
	<path style="fill:none;stroke:red;stroke-width:1px;stroke-linecap:butt;stroke-linejoin:miter;stroke-opacity:1" d="M 541.401,523.542 549.519,507.306 z" id="boundary" inkscape:connector-curvature="0" />
	<path style="fill:none;stroke:red;stroke-width:1px;stroke-linecap:butt;stroke-linejoin:miter;stroke-opacity:1" d="M 543.025,570.625 559.26,570.625 z" id="boundary" inkscape:connector-curvature="0" />
	<path style="fill:none;stroke:red;stroke-width:1px;stroke-linecap:butt;stroke-linejoin:miter;stroke-opacity:1" d="M 549.519,507.306 562.507,495.941 z" id="boundary" inkscape:connector-curvature="0" />
	<path style="fill:none;stroke:red;stroke-width:1px;stroke-linecap:butt;stroke-linejoin:miter;stroke-opacity:1" d="M 552.766,171.227 569.002,171.227 z" id="boundary" inkscape:connector-curvature="0" />
	<path style="fill:none;stroke:red;stroke-width:1px;stroke-linecap:butt;stroke-linejoin:miter;stroke-opacity:1" d="M 554.39,416.386 569.002,424.504 z" id="boundary" inkscape:connector-curvature="0" />
	<path style="fill:none;stroke:red;stroke-width:1px;stroke-linecap:butt;stroke-linejoin:miter;stroke-opacity:1" d="M 559.26,570.625 572.249,557.637 z" id="boundary" inkscape:connector-curvature="0" />
	<path style="fill:none;stroke:red;stroke-width:1px;stroke-linecap:butt;stroke-linejoin:miter;stroke-opacity:1" d="M 562.507,495.941 569.002,479.705 z" id="boundary" inkscape:connector-curvature="0" />
	<path style="fill:none;stroke:red;stroke-width:1px;stroke-linecap:butt;stroke-linejoin:miter;stroke-opacity:1" d="M 569.002,171.227 585.237,171.227 z" id="boundary" inkscape:connector-curvature="0" />
	<path style="fill:none;stroke:red;stroke-width:1px;stroke-linecap:butt;stroke-linejoin:miter;stroke-opacity:1" d="M 569.002,424.504 572.249,440.74 z" id="boundary" inkscape:connector-curvature="0" />
	<path style="fill:none;stroke:red;stroke-width:1px;stroke-linecap:butt;stroke-linejoin:miter;stroke-opacity:1" d="M 569.002,479.705 572.249,456.975 z" id="boundary" inkscape:connector-curvature="0" />
	<path style="fill:none;stroke:red;stroke-width:1px;stroke-linecap:butt;stroke-linejoin:miter;stroke-opacity:1" d="M 572.249,440.74 572.249,456.975 z" id="boundary" inkscape:connector-curvature="0" />
	<path style="fill:none;stroke:red;stroke-width:1px;stroke-linecap:butt;stroke-linejoin:miter;stroke-opacity:1" d="M 572.249,557.637 581.99,538.154 z" id="boundary" inkscape:connector-curvature="0" />
	<path style="fill:none;stroke:red;stroke-width:1px;stroke-linecap:butt;stroke-linejoin:miter;stroke-opacity:1" d="M 581.99,538.154 598.226,521.918 z" id="boundary" inkscape:connector-curvature="0" />
	<path style="fill:none;stroke:red;stroke-width:1px;stroke-linecap:butt;stroke-linejoin:miter;stroke-opacity:1" d="M 585.237,171.227 601.473,171.227 z" id="boundary" inkscape:connector-curvature="0" />
	<path style="fill:none;stroke:red;stroke-width:1px;stroke-linecap:butt;stroke-linejoin:miter;stroke-opacity:1" d="M 598.226,521.918 606.344,505.682 z" id="boundary" inkscape:connector-curvature="0" />
	<path style="fill:none;stroke:red;stroke-width:1px;stroke-linecap:butt;stroke-linejoin:miter;stroke-opacity:1" d="M 601.473,171.227 617.709,171.227 z" id="boundary" inkscape:connector-curvature="0" />
	<path style="fill:none;stroke:red;stroke-width:1px;stroke-linecap:butt;stroke-linejoin:miter;stroke-opacity:1" d="M 604.72,606.344 612.838,620.956 z" id="boundary" inkscape:connector-curvature="0" />
	<path style="fill:none;stroke:red;stroke-width:1px;stroke-linecap:butt;stroke-linejoin:miter;stroke-opacity:1" d="M 604.72,606.344 617.709,593.355 z" id="boundary" inkscape:connector-curvature="0" />
	<path style="fill:none;stroke:red;stroke-width:1px;stroke-linecap:butt;stroke-linejoin:miter;stroke-opacity:1" d="M 606.344,505.682 619.332,494.318 z" id="boundary" inkscape:connector-curvature="0" />
	<path style="fill:none;stroke:red;stroke-width:1px;stroke-linecap:butt;stroke-linejoin:miter;stroke-opacity:1" d="M 612.838,620.956 624.203,633.944 z" id="boundary" inkscape:connector-curvature="0" />
	<path style="fill:none;stroke:red;stroke-width:1px;stroke-linecap:butt;stroke-linejoin:miter;stroke-opacity:1" d="M 617.709,171.227 633.944,171.227 z" id="boundary" inkscape:connector-curvature="0" />
	<path style="fill:none;stroke:red;stroke-width:1px;stroke-linecap:butt;stroke-linejoin:miter;stroke-opacity:1" d="M 617.709,593.355 633.944,585.237 z" id="boundary" inkscape:connector-curvature="0" />
	<path style="fill:none;stroke:red;stroke-width:1px;stroke-linecap:butt;stroke-linejoin:miter;stroke-opacity:1" d="M 619.332,494.318 630.697,481.329 z" id="boundary" inkscape:connector-curvature="0" />
	<path style="fill:none;stroke:red;stroke-width:1px;stroke-linecap:butt;stroke-linejoin:miter;stroke-opacity:1" d="M 624.203,633.944 640.439,635.568 z" id="boundary" inkscape:connector-curvature="0" />
	<path style="fill:none;stroke:red;stroke-width:1px;stroke-linecap:butt;stroke-linejoin:miter;stroke-opacity:1" d="M 630.697,481.329 643.686,469.964 z" id="boundary" inkscape:connector-curvature="0" />
	<path style="fill:none;stroke:red;stroke-width:1px;stroke-linecap:butt;stroke-linejoin:miter;stroke-opacity:1" d="M 633.944,171.227 650.18,171.227 z" id="boundary" inkscape:connector-curvature="0" />
	<path style="fill:none;stroke:red;stroke-width:1px;stroke-linecap:butt;stroke-linejoin:miter;stroke-opacity:1" d="M 633.944,585.237 650.18,585.237 z" id="boundary" inkscape:connector-curvature="0" />
	<path style="fill:none;stroke:red;stroke-width:1px;stroke-linecap:butt;stroke-linejoin:miter;stroke-opacity:1" d="M 640.439,635.568 655.051,627.45 z" id="boundary" inkscape:connector-curvature="0" />
	<path style="fill:none;stroke:red;stroke-width:1px;stroke-linecap:butt;stroke-linejoin:miter;stroke-opacity:1" d="M 643.686,469.964 659.921,465.093 z" id="boundary" inkscape:connector-curvature="0" />
	<path style="fill:none;stroke:red;stroke-width:1px;stroke-linecap:butt;stroke-linejoin:miter;stroke-opacity:1" d="M 650.18,171.227 666.416,171.227 z" id="boundary" inkscape:connector-curvature="0" />
	<path style="fill:none;stroke:red;stroke-width:1px;stroke-linecap:butt;stroke-linejoin:miter;stroke-opacity:1" d="M 650.18,585.237 661.545,557.637 z" id="boundary" inkscape:connector-curvature="0" />
	<path style="fill:none;stroke:red;stroke-width:1px;stroke-linecap:butt;stroke-linejoin:miter;stroke-opacity:1" d="M 655.051,627.45 668.039,616.085 z" id="boundary" inkscape:connector-curvature="0" />
	<path style="fill:none;stroke:red;stroke-width:1px;stroke-linecap:butt;stroke-linejoin:miter;stroke-opacity:1" d="M 659.921,465.093 671.286,478.082 z" id="boundary" inkscape:connector-curvature="0" />
	<path style="fill:none;stroke:red;stroke-width:1px;stroke-linecap:butt;stroke-linejoin:miter;stroke-opacity:1" d="M 661.545,557.637 669.663,533.283 z" id="boundary" inkscape:connector-curvature="0" />
	<path style="fill:none;stroke:red;stroke-width:1px;stroke-linecap:butt;stroke-linejoin:miter;stroke-opacity:1" d="M 666.416,171.227 682.651,171.227 z" id="boundary" inkscape:connector-curvature="0" />
	<path style="fill:none;stroke:red;stroke-width:1px;stroke-linecap:butt;stroke-linejoin:miter;stroke-opacity:1" d="M 668.039,616.085 679.404,603.097 z" id="boundary" inkscape:connector-curvature="0" />
	<path style="fill:none;stroke:red;stroke-width:1px;stroke-linecap:butt;stroke-linejoin:miter;stroke-opacity:1" d="M 669.663,533.283 677.781,508.93 z" id="boundary" inkscape:connector-curvature="0" />
	<path style="fill:none;stroke:red;stroke-width:1px;stroke-linecap:butt;stroke-linejoin:miter;stroke-opacity:1" d="M 671.286,478.082 679.404,492.694 z" id="boundary" inkscape:connector-curvature="0" />
	<path style="fill:none;stroke:red;stroke-width:1px;stroke-linecap:butt;stroke-linejoin:miter;stroke-opacity:1" d="M 677.781,508.93 679.404,492.694 z" id="boundary" inkscape:connector-curvature="0" />
	<path style="fill:none;stroke:red;stroke-width:1px;stroke-linecap:butt;stroke-linejoin:miter;stroke-opacity:1" d="M 679.404,603.097 692.393,591.732 z" id="boundary" inkscape:connector-curvature="0" />
	<path style="fill:none;stroke:red;stroke-width:1px;stroke-linecap:butt;stroke-linejoin:miter;stroke-opacity:1" d="M 682.651,171.227 697.264,179.345 z" id="boundary" inkscape:connector-curvature="0" />
	<path style="fill:none;stroke:red;stroke-width:1px;stroke-linecap:butt;stroke-linejoin:miter;stroke-opacity:1" d="M 692.393,591.732 703.758,570.625 z" id="boundary" inkscape:connector-curvature="0" />
	<path style="fill:none;stroke:red;stroke-width:1px;stroke-linecap:butt;stroke-linejoin:miter;stroke-opacity:1" d="M 697.264,179.345 711.876,187.463 z" id="boundary" inkscape:connector-curvature="0" />
	<path style="fill:none;stroke:red;stroke-width:1px;stroke-linecap:butt;stroke-linejoin:miter;stroke-opacity:1" d="M 703.758,570.625 716.746,559.26 z" id="boundary" inkscape:connector-curvature="0" />
	<path style="fill:none;stroke:red;stroke-width:1px;stroke-linecap:butt;stroke-linejoin:miter;stroke-opacity:1" d="M 711.876,187.463 728.111,192.334 z" id="boundary" inkscape:connector-curvature="0" />
	<path style="fill:none;stroke:red;stroke-width:1px;stroke-linecap:butt;stroke-linejoin:miter;stroke-opacity:1" d="M 716.746,559.26 724.864,543.025 z" id="boundary" inkscape:connector-curvature="0" />
	<path style="fill:none;stroke:red;stroke-width:1px;stroke-linecap:butt;stroke-linejoin:miter;stroke-opacity:1" d="M 724.864,543.025 732.982,526.789 z" id="boundary" inkscape:connector-curvature="0" />
	<path style="fill:none;stroke:red;stroke-width:1px;stroke-linecap:butt;stroke-linejoin:miter;stroke-opacity:1" d="M 728.111,192.334 742.723,200.452 z" id="boundary" inkscape:connector-curvature="0" />
	<path style="fill:none;stroke:red;stroke-width:1px;stroke-linecap:butt;stroke-linejoin:miter;stroke-opacity:1" d="M 732.982,526.789 744.347,505.682 z" id="boundary" inkscape:connector-curvature="0" />
	<path style="fill:none;stroke:red;stroke-width:1px;stroke-linecap:butt;stroke-linejoin:miter;stroke-opacity:1" d="M 742.723,200.452 758.959,206.946 z" id="boundary" inkscape:connector-curvature="0" />
	<path style="fill:none;stroke:red;stroke-width:1px;stroke-linecap:butt;stroke-linejoin:miter;stroke-opacity:1" d="M 744.347,408.268 744.347,424.504 z" id="boundary" inkscape:connector-curvature="0" />
	<path style="fill:none;stroke:red;stroke-width:1px;stroke-linecap:butt;stroke-linejoin:miter;stroke-opacity:1" d="M 744.347,408.268 752.465,383.915 z" id="boundary" inkscape:connector-curvature="0" />
	<path style="fill:none;stroke:red;stroke-width:1px;stroke-linecap:butt;stroke-linejoin:miter;stroke-opacity:1" d="M 744.347,424.504 744.347,440.74 z" id="boundary" inkscape:connector-curvature="0" />
	<path style="fill:none;stroke:red;stroke-width:1px;stroke-linecap:butt;stroke-linejoin:miter;stroke-opacity:1" d="M 744.347,440.74 744.347,456.975 z" id="boundary" inkscape:connector-curvature="0" />
	<path style="fill:none;stroke:red;stroke-width:1px;stroke-linecap:butt;stroke-linejoin:miter;stroke-opacity:1" d="M 744.347,456.975 747.594,473.211 z" id="boundary" inkscape:connector-curvature="0" />
	<path style="fill:none;stroke:red;stroke-width:1px;stroke-linecap:butt;stroke-linejoin:miter;stroke-opacity:1" d="M 744.347,505.682 752.465,489.447 z" id="boundary" inkscape:connector-curvature="0" />
	<path style="fill:none;stroke:red;stroke-width:1px;stroke-linecap:butt;stroke-linejoin:miter;stroke-opacity:1" d="M 747.594,473.211 752.465,489.447 z" id="boundary" inkscape:connector-curvature="0" />
	<path style="fill:none;stroke:red;stroke-width:1px;stroke-linecap:butt;stroke-linejoin:miter;stroke-opacity:1" d="M 752.465,383.915 760.583,359.561 z" id="boundary" inkscape:connector-curvature="0" />
	<path style="fill:none;stroke:red;stroke-width:1px;stroke-linecap:butt;stroke-linejoin:miter;stroke-opacity:1" d="M 758.959,206.946 768.7,219.935 z" id="boundary" inkscape:connector-curvature="0" />
	<path style="fill:none;stroke:red;stroke-width:1px;stroke-linecap:butt;stroke-linejoin:miter;stroke-opacity:1" d="M 760.583,359.561 768.7,335.208 z" id="boundary" inkscape:connector-curvature="0" />
	<path style="fill:none;stroke:red;stroke-width:1px;stroke-linecap:butt;stroke-linejoin:miter;stroke-opacity:1" d="M 768.7,219.935 784.936,219.935 z" id="boundary" inkscape:connector-curvature="0" />
	<path style="fill:none;stroke:red;stroke-width:1px;stroke-linecap:butt;stroke-linejoin:miter;stroke-opacity:1" d="M 768.7,335.208 776.818,310.854 z" id="boundary" inkscape:connector-curvature="0" />
	<path style="fill:none;stroke:red;stroke-width:1px;stroke-linecap:butt;stroke-linejoin:miter;stroke-opacity:1" d="M 776.818,310.854 789.807,299.489 z" id="boundary" inkscape:connector-curvature="0" />
	<path style="fill:none;stroke:red;stroke-width:1px;stroke-linecap:butt;stroke-linejoin:miter;stroke-opacity:1" d="M 784.936,219.935 799.548,228.052 z" id="boundary" inkscape:connector-curvature="0" />
	<path style="fill:none;stroke:red;stroke-width:1px;stroke-linecap:butt;stroke-linejoin:miter;stroke-opacity:1" d="M 789.807,299.489 797.925,283.254 z" id="boundary" inkscape:connector-curvature="0" />
	<path style="fill:none;stroke:red;stroke-width:1px;stroke-linecap:butt;stroke-linejoin:miter;stroke-opacity:1" d="M 797.925,283.254 814.16,275.136 z" id="boundary" inkscape:connector-curvature="0" />
	<path style="fill:none;stroke:red;stroke-width:1px;stroke-linecap:butt;stroke-linejoin:miter;stroke-opacity:1" d="M 799.548,228.052 809.29,215.064 z" id="boundary" inkscape:connector-curvature="0" />
	<path style="fill:none;stroke:red;stroke-width:1px;stroke-linecap:butt;stroke-linejoin:miter;stroke-opacity:1" d="M 809.29,215.064 825.525,206.946 z" id="boundary" inkscape:connector-curvature="0" />
	<path style="fill:none;stroke:red;stroke-width:1px;stroke-linecap:butt;stroke-linejoin:miter;stroke-opacity:1" d="M 814.16,275.136 830.396,267.018 z" id="boundary" inkscape:connector-curvature="0" />
	<path style="fill:none;stroke:red;stroke-width:1px;stroke-linecap:butt;stroke-linejoin:miter;stroke-opacity:1" d="M 825.525,206.946 841.761,198.828 z" id="boundary" inkscape:connector-curvature="0" />
	<path style="fill:none;stroke:red;stroke-width:1px;stroke-linecap:butt;stroke-linejoin:miter;stroke-opacity:1" d="M 830.396,267.018 841.761,254.029 z" id="boundary" inkscape:connector-curvature="0" />
	<path style="fill:none;stroke:red;stroke-width:1px;stroke-linecap:butt;stroke-linejoin:miter;stroke-opacity:1" d="M 841.761,198.828 854.75,187.463 z" id="boundary" inkscape:connector-curvature="0" />
	<path style="fill:none;stroke:red;stroke-width:1px;stroke-linecap:butt;stroke-linejoin:miter;stroke-opacity:1" d="M 841.761,254.029 856.373,245.912 z" id="boundary" inkscape:connector-curvature="0" />
	<path style="fill:none;stroke:red;stroke-width:1px;stroke-linecap:butt;stroke-linejoin:miter;stroke-opacity:1" d="M 854.75,187.463 869.362,179.345 z" id="boundary" inkscape:connector-curvature="0" />
	<path style="fill:none;stroke:red;stroke-width:1px;stroke-linecap:butt;stroke-linejoin:miter;stroke-opacity:1" d="M 856.373,245.912 869.362,236.17 z" id="boundary" inkscape:connector-curvature="0" />
	<path style="fill:none;stroke:red;stroke-width:1px;stroke-linecap:butt;stroke-linejoin:miter;stroke-opacity:1" d="M 869.362,179.345 880.727,159.863 z" id="boundary" inkscape:connector-curvature="0" />
	<path style="fill:none;stroke:red;stroke-width:1px;stroke-linecap:butt;stroke-linejoin:miter;stroke-opacity:1" d="M 869.362,236.17 882.35,221.558 z" id="boundary" inkscape:connector-curvature="0" />
	<path style="fill:none;stroke:red;stroke-width:1px;stroke-linecap:butt;stroke-linejoin:miter;stroke-opacity:1" d="M 880.727,159.863 896.962,151.745 z" id="boundary" inkscape:connector-curvature="0" />
	<path style="fill:none;stroke:red;stroke-width:1px;stroke-linecap:butt;stroke-linejoin:miter;stroke-opacity:1" d="M 882.35,221.558 898.586,213.44 z" id="boundary" inkscape:connector-curvature="0" />
	<path style="fill:none;stroke:red;stroke-width:1px;stroke-linecap:butt;stroke-linejoin:miter;stroke-opacity:1" d="M 896.962,151.745 909.951,138.756 z" id="boundary" inkscape:connector-curvature="0" />
	<path style="fill:none;stroke:red;stroke-width:1px;stroke-linecap:butt;stroke-linejoin:miter;stroke-opacity:1" d="M 898.586,213.44 911.574,202.075 z" id="boundary" inkscape:connector-curvature="0" />
	<path style="fill:none;stroke:red;stroke-width:1px;stroke-linecap:butt;stroke-linejoin:miter;stroke-opacity:1" d="M 909.951,138.756 921.316,119.273 z" id="boundary" inkscape:connector-curvature="0" />
	<path style="fill:none;stroke:red;stroke-width:1px;stroke-linecap:butt;stroke-linejoin:miter;stroke-opacity:1" d="M 911.574,202.075 922.939,189.087 z" id="boundary" inkscape:connector-curvature="0" />
	<path style="fill:none;stroke:red;stroke-width:1px;stroke-linecap:butt;stroke-linejoin:miter;stroke-opacity:1" d="M 921.316,119.273 934.304,106.285 z" id="boundary" inkscape:connector-curvature="0" />
	<path style="fill:none;stroke:red;stroke-width:1px;stroke-linecap:butt;stroke-linejoin:miter;stroke-opacity:1" d="M 922.939,189.087 931.057,172.851 z" id="boundary" inkscape:connector-curvature="0" />
	<path style="fill:none;stroke:red;stroke-width:1px;stroke-linecap:butt;stroke-linejoin:miter;stroke-opacity:1" d="M 931.057,172.851 944.046,161.486 z" id="boundary" inkscape:connector-curvature="0" />
	<path style="fill:none;stroke:red;stroke-width:1px;stroke-linecap:butt;stroke-linejoin:miter;stroke-opacity:1" d="M 934.304,106.285 942.422,90.0491 z" id="boundary" inkscape:connector-curvature="0" />
	<path style="fill:none;stroke:red;stroke-width:1px;stroke-linecap:butt;stroke-linejoin:miter;stroke-opacity:1" d="M 942.422,90.0491 950.54,73.8134 z" id="boundary" inkscape:connector-curvature="0" />
	<path style="fill:none;stroke:red;stroke-width:1px;stroke-linecap:butt;stroke-linejoin:miter;stroke-opacity:1" d="M 944.046,161.486 952.164,145.25 z" id="boundary" inkscape:connector-curvature="0" />
	<path style="fill:none;stroke:red;stroke-width:1px;stroke-linecap:butt;stroke-linejoin:miter;stroke-opacity:1" d="M 950.54,73.8134 961.905,46.2128 z" id="boundary" inkscape:connector-curvature="0" />
	<path style="fill:none;stroke:red;stroke-width:1px;stroke-linecap:butt;stroke-linejoin:miter;stroke-opacity:1" d="M 952.164,145.25 963.529,132.262 z" id="boundary" inkscape:connector-curvature="0" />
	<path style="fill:none;stroke:red;stroke-width:1px;stroke-linecap:butt;stroke-linejoin:miter;stroke-opacity:1" d="M 961.905,29.9771 961.905,46.2128 z" id="boundary" inkscape:connector-curvature="0" />
	<path style="fill:none;stroke:red;stroke-width:1px;stroke-linecap:butt;stroke-linejoin:miter;stroke-opacity:1" d="M 961.905,29.9771 970.023,5.62357 z" id="boundary" inkscape:connector-curvature="0" />
	<path style="fill:none;stroke:red;stroke-width:1px;stroke-linecap:butt;stroke-linejoin:miter;stroke-opacity:1" d="M 963.529,132.262 971.646,116.026 z" id="boundary" inkscape:connector-curvature="0" />
	<path style="fill:none;stroke:red;stroke-width:1px;stroke-linecap:butt;stroke-linejoin:miter;stroke-opacity:1" d="M 970.023,5.62357 986.259,4 z" id="boundary" inkscape:connector-curvature="0" />
	<path style="fill:none;stroke:red;stroke-width:1px;stroke-linecap:butt;stroke-linejoin:miter;stroke-opacity:1" d="M 971.646,116.026 979.764,99.7905 z" id="boundary" inkscape:connector-curvature="0" />
	<path style="fill:none;stroke:red;stroke-width:1px;stroke-linecap:butt;stroke-linejoin:miter;stroke-opacity:1" d="M 979.764,99.7905 987.882,83.5548 z" id="boundary" inkscape:connector-curvature="0" />
	<path style="fill:none;stroke:red;stroke-width:1px;stroke-linecap:butt;stroke-linejoin:miter;stroke-opacity:1" d="M 986.259,4 996,16.9885 z" id="boundary" inkscape:connector-curvature="0" />
	<path style="fill:none;stroke:red;stroke-width:1px;stroke-linecap:butt;stroke-linejoin:miter;stroke-opacity:1" d="M 987.882,83.5548 996,65.6956 z" id="boundary" inkscape:connector-curvature="0" />
	<path style="fill:none;stroke:red;stroke-width:1px;stroke-linecap:butt;stroke-linejoin:miter;stroke-opacity:1" d="M 996,16.9885 996,33.2242 z" id="boundary" inkscape:connector-curvature="0" />
	<path style="fill:none;stroke:red;stroke-width:1px;stroke-linecap:butt;stroke-linejoin:miter;stroke-opacity:1" d="M 996,33.2242 996,49.4599 z" id="boundary" inkscape:connector-curvature="0" />
	<path style="fill:none;stroke:red;stroke-width:1px;stroke-linecap:butt;stroke-linejoin:miter;stroke-opacity:1" d="M 996,49.4599 996,65.6956 z" id="boundary" inkscape:connector-curvature="0" />
	<circle cx="4" cy="208.57" r="4" fill="#0" id="circle0"/>
	<circle cx="4" cy="224.805" r="4" fill="#0" id="circle1"/>
	<circle cx="4" cy="241.041" r="4" fill="#0" id="circle2"/>
	<circle cx="16.9885" cy="195.581" r="4" fill="#0" id="circle3"/>
	<circle cx="16.9885" cy="252.406" r="4" fill="#0" id="circle4"/>
	<circle cx="28.3535" cy="176.098" r="4" fill="#0" id="circle5"/>
	<circle cx="29.9771" cy="262.147" r="4" fill="#0" id="circle6"/>
	<circle cx="36.4714" cy="159.863" r="4" fill="#0" id="circle7"/>
	<circle cx="44.5892" cy="270.265" r="4" fill="#0" id="circle8"/>
	<circle cx="49.4599" cy="146.874" r="4" fill="#0" id="circle9"/>
	<circle cx="60.8249" cy="94.9198" r="4" fill="#0" id="circle10"/>
	<circle cx="60.8249" cy="111.155" r="4" fill="#0" id="circle11"/>
	<circle cx="60.8249" cy="270.265" r="4" fill="#0" id="circle12"/>
	<circle cx="62.4484" cy="133.885" r="4" fill="#0" id="circle13"/>
	<circle cx="75.437" cy="278.383" r="4" fill="#0" id="circle14"/>
	<circle cx="77.0606" cy="93.2962" r="4" fill="#0" id="circle15"/>
	<circle cx="86.802" cy="106.285" r="4" fill="#0" id="circle16"/>
	<circle cx="90.0491" cy="286.501" r="4" fill="#0" id="circle17"/>
	<circle cx="103.038" cy="111.155" r="4" fill="#0" id="circle18"/>
	<circle cx="106.285" cy="292.995" r="4" fill="#0" id="circle19"/>
	<circle cx="116.026" cy="122.52" r="4" fill="#0" id="circle20"/>
	<circle cx="117.65" cy="305.984" r="4" fill="#0" id="circle21"/>
	<circle cx="130.638" cy="130.638" r="4" fill="#0" id="circle22"/>
	<circle cx="130.638" cy="317.349" r="4" fill="#0" id="circle23"/>
	<circle cx="137.133" cy="333.584" r="4" fill="#0" id="circle24"/>
	<circle cx="145.25" cy="138.756" r="4" fill="#0" id="circle25"/>
	<circle cx="150.121" cy="343.326" r="4" fill="#0" id="circle26"/>
	<circle cx="158.239" cy="541.401" r="4" fill="#0" id="circle27"/>
	<circle cx="159.863" cy="146.874" r="4" fill="#0" id="circle28"/>
	<circle cx="164.733" cy="351.444" r="4" fill="#0" id="circle29"/>
	<circle cx="166.357" cy="556.013" r="4" fill="#0" id="circle30"/>
	<circle cx="167.98" cy="161.486" r="4" fill="#0" id="circle31"/>
	<circle cx="171.227" cy="528.412" r="4" fill="#0" id="circle32"/>
	<circle cx="176.098" cy="364.432" r="4" fill="#0" id="circle33"/>
	<circle cx="182.592" cy="562.507" r="4" fill="#0" id="circle34"/>
	<circle cx="184.216" cy="167.98" r="4" fill="#0" id="circle35"/>
	<circle cx="187.463" cy="520.295" r="4" fill="#0" id="circle36"/>
	<circle cx="189.087" cy="375.797" r="4" fill="#0" id="circle37"/>
	<circle cx="195.581" cy="504.059" r="4" fill="#0" id="circle38"/>
	<circle cx="197.205" cy="570.625" r="4" fill="#0" id="circle39"/>
	<circle cx="198.828" cy="176.098" r="4" fill="#0" id="circle40"/>
	<circle cx="198.828" cy="484.576" r="4" fill="#0" id="circle41"/>
	<circle cx="203.699" cy="383.915" r="4" fill="#0" id="circle42"/>
	<circle cx="206.946" cy="460.223" r="4" fill="#0" id="circle43"/>
	<circle cx="211.817" cy="398.527" r="4" fill="#0" id="circle44"/>
	<circle cx="211.817" cy="562.507" r="4" fill="#0" id="circle45"/>
	<circle cx="215.064" cy="182.592" r="4" fill="#0" id="circle46"/>
	<circle cx="215.064" cy="414.763" r="4" fill="#0" id="circle47"/>
	<circle cx="215.064" cy="430.998" r="4" fill="#0" id="circle48"/>
	<circle cx="223.182" cy="598.226" r="4" fill="#0" id="circle49"/>
	<circle cx="223.182" cy="614.462" r="4" fill="#0" id="circle50"/>
	<circle cx="226.429" cy="554.39" r="4" fill="#0" id="circle51"/>
	<circle cx="231.3" cy="187.463" r="4" fill="#0" id="circle52"/>
	<circle cx="232.923" cy="538.154" r="4" fill="#0" id="circle53"/>
	<circle cx="236.17" cy="585.237" r="4" fill="#0" id="circle54"/>
	<circle cx="239.417" cy="619.332" r="4" fill="#0" id="circle55"/>
	<circle cx="241.041" cy="521.918" r="4" fill="#0" id="circle56"/>
	<circle cx="247.535" cy="187.463" r="4" fill="#0" id="circle57"/>
	<circle cx="249.159" cy="497.565" r="4" fill="#0" id="circle58"/>
	<circle cx="252.406" cy="577.119" r="4" fill="#0" id="circle59"/>
	<circle cx="255.653" cy="619.332" r="4" fill="#0" id="circle60"/>
	<circle cx="257.277" cy="473.211" r="4" fill="#0" id="circle61"/>
	<circle cx="263.771" cy="187.463" r="4" fill="#0" id="circle62"/>
	<circle cx="263.771" cy="549.519" r="4" fill="#0" id="circle63"/>
	<circle cx="265.394" cy="448.858" r="4" fill="#0" id="circle64"/>
	<circle cx="271.889" cy="492.694" r="4" fill="#0" id="circle65"/>
	<circle cx="271.889" cy="508.93" r="4" fill="#0" id="circle66"/>
	<circle cx="271.889" cy="525.165" r="4" fill="#0" id="circle67"/>
	<circle cx="271.889" cy="619.332" r="4" fill="#0" id="circle68"/>
	<circle cx="280.007" cy="187.463" r="4" fill="#0" id="circle69"/>
	<circle cx="280.007" cy="456.975" r="4" fill="#0" id="circle70"/>
	<circle cx="280.007" cy="473.211" r="4" fill="#0" id="circle71"/>
	<circle cx="288.124" cy="614.462" r="4" fill="#0" id="circle72"/>
	<circle cx="296.242" cy="190.71" r="4" fill="#0" id="circle73"/>
	<circle cx="297.866" cy="594.979" r="4" fill="#0" id="circle74"/>
	<circle cx="305.984" cy="578.743" r="4" fill="#0" id="circle75"/>
	<circle cx="312.478" cy="195.581" r="4" fill="#0" id="circle76"/>
	<circle cx="314.101" cy="538.154" r="4" fill="#0" id="circle77"/>
	<circle cx="314.101" cy="554.39" r="4" fill="#0" id="circle78"/>
	<circle cx="322.219" cy="521.918" r="4" fill="#0" id="circle79"/>
	<circle cx="328.714" cy="195.581" r="4" fill="#0" id="circle80"/>
	<circle cx="330.337" cy="481.329" r="4" fill="#0" id="circle81"/>
	<circle cx="330.337" cy="497.565" r="4" fill="#0" id="circle82"/>
	<circle cx="338.455" cy="456.975" r="4" fill="#0" id="circle83"/>
	<circle cx="343.326" cy="187.463" r="4" fill="#0" id="circle84"/>
	<circle cx="346.573" cy="432.622" r="4" fill="#0" id="circle85"/>
	<circle cx="359.561" cy="187.463" r="4" fill="#0" id="circle86"/>
	<circle cx="362.809" cy="432.622" r="4" fill="#0" id="circle87"/>
	<circle cx="375.797" cy="187.463" r="4" fill="#0" id="circle88"/>
	<circle cx="379.044" cy="432.622" r="4" fill="#0" id="circle89"/>
	<circle cx="392.033" cy="187.463" r="4" fill="#0" id="circle90"/>
	<circle cx="395.28" cy="424.504" r="4" fill="#0" id="circle91"/>
	<circle cx="408.268" cy="187.463" r="4" fill="#0" id="circle92"/>
	<circle cx="409.892" cy="432.622" r="4" fill="#0" id="circle93"/>
	<circle cx="424.504" cy="187.463" r="4" fill="#0" id="circle94"/>
	<circle cx="426.128" cy="432.622" r="4" fill="#0" id="circle95"/>
	<circle cx="440.74" cy="187.463" r="4" fill="#0" id="circle96"/>
	<circle cx="440.74" cy="424.504" r="4" fill="#0" id="circle97"/>
	<circle cx="456.975" cy="187.463" r="4" fill="#0" id="circle98"/>
	<circle cx="456.975" cy="424.504" r="4" fill="#0" id="circle99"/>
	<circle cx="473.211" cy="187.463" r="4" fill="#0" id="circle100"/>
	<circle cx="473.211" cy="424.504" r="4" fill="#0" id="circle101"/>
	<circle cx="489.447" cy="187.463" r="4" fill="#0" id="circle102"/>
	<circle cx="489.447" cy="424.504" r="4" fill="#0" id="circle103"/>
	<circle cx="499.188" cy="549.519" r="4" fill="#0" id="circle104"/>
	<circle cx="499.188" cy="565.755" r="4" fill="#0" id="circle105"/>
	<circle cx="504.059" cy="179.345" r="4" fill="#0" id="circle106"/>
	<circle cx="505.682" cy="421.257" r="4" fill="#0" id="circle107"/>
	<circle cx="512.177" cy="536.53" r="4" fill="#0" id="circle108"/>
	<circle cx="512.177" cy="577.119" r="4" fill="#0" id="circle109"/>
	<circle cx="520.295" cy="179.345" r="4" fill="#0" id="circle110"/>
	<circle cx="521.918" cy="416.386" r="4" fill="#0" id="circle111"/>
	<circle cx="528.412" cy="536.53" r="4" fill="#0" id="circle112"/>
	<circle cx="528.412" cy="578.743" r="4" fill="#0" id="circle113"/>
	<circle cx="536.53" cy="179.345" r="4" fill="#0" id="circle114"/>
	<circle cx="538.154" cy="416.386" r="4" fill="#0" id="circle115"/>
	<circle cx="541.401" cy="523.542" r="4" fill="#0" id="circle116"/>
	<circle cx="543.025" cy="570.625" r="4" fill="#0" id="circle117"/>
	<circle cx="549.519" cy="507.306" r="4" fill="#0" id="circle118"/>
	<circle cx="552.766" cy="171.227" r="4" fill="#0" id="circle119"/>
	<circle cx="554.39" cy="416.386" r="4" fill="#0" id="circle120"/>
	<circle cx="559.26" cy="570.625" r="4" fill="#0" id="circle121"/>
	<circle cx="562.507" cy="495.941" r="4" fill="#0" id="circle122"/>
	<circle cx="569.002" cy="171.227" r="4" fill="#0" id="circle123"/>
	<circle cx="569.002" cy="424.504" r="4" fill="#0" id="circle124"/>
	<circle cx="569.002" cy="479.705" r="4" fill="#0" id="circle125"/>
	<circle cx="572.249" cy="440.74" r="4" fill="#0" id="circle126"/>
	<circle cx="572.249" cy="456.975" r="4" fill="#0" id="circle127"/>
	<circle cx="572.249" cy="557.637" r="4" fill="#0" id="circle128"/>
	<circle cx="581.99" cy="538.154" r="4" fill="#0" id="circle129"/>
	<circle cx="585.237" cy="171.227" r="4" fill="#0" id="circle130"/>
	<circle cx="598.226" cy="521.918" r="4" fill="#0" id="circle131"/>
	<circle cx="601.473" cy="171.227" r="4" fill="#0" id="circle132"/>
	<circle cx="604.72" cy="606.344" r="4" fill="#0" id="circle133"/>
	<circle cx="606.344" cy="505.682" r="4" fill="#0" id="circle134"/>
	<circle cx="612.838" cy="620.956" r="4" fill="#0" id="circle135"/>
	<circle cx="617.709" cy="171.227" r="4" fill="#0" id="circle136"/>
	<circle cx="617.709" cy="593.355" r="4" fill="#0" id="circle137"/>
	<circle cx="619.332" cy="494.318" r="4" fill="#0" id="circle138"/>
	<circle cx="624.203" cy="633.944" r="4" fill="#0" id="circle139"/>
	<circle cx="630.697" cy="481.329" r="4" fill="#0" id="circle140"/>
	<circle cx="633.944" cy="171.227" r="4" fill="#0" id="circle141"/>
	<circle cx="633.944" cy="585.237" r="4" fill="#0" id="circle142"/>
	<circle cx="640.439" cy="635.568" r="4" fill="#0" id="circle143"/>
	<circle cx="643.686" cy="469.964" r="4" fill="#0" id="circle144"/>
	<circle cx="650.18" cy="171.227" r="4" fill="#0" id="circle145"/>
	<circle cx="650.18" cy="585.237" r="4" fill="#0" id="circle146"/>
	<circle cx="655.051" cy="627.45" r="4" fill="#0" id="circle147"/>
	<circle cx="659.921" cy="465.093" r="4" fill="#0" id="circle148"/>
	<circle cx="661.545" cy="557.637" r="4" fill="#0" id="circle149"/>
	<circle cx="666.416" cy="171.227" r="4" fill="#0" id="circle150"/>
	<circle cx="668.039" cy="616.085" r="4" fill="#0" id="circle151"/>
	<circle cx="669.663" cy="533.283" r="4" fill="#0" id="circle152"/>
	<circle cx="671.286" cy="478.082" r="4" fill="#0" id="circle153"/>
	<circle cx="677.781" cy="508.93" r="4" fill="#0" id="circle154"/>
	<circle cx="679.404" cy="492.694" r="4" fill="#0" id="circle155"/>
	<circle cx="679.404" cy="603.097" r="4" fill="#0" id="circle156"/>
	<circle cx="682.651" cy="171.227" r="4" fill="#0" id="circle157"/>
	<circle cx="692.393" cy="591.732" r="4" fill="#0" id="circle158"/>
	<circle cx="697.264" cy="179.345" r="4" fill="#0" id="circle159"/>
	<circle cx="703.758" cy="570.625" r="4" fill="#0" id="circle160"/>
	<circle cx="711.876" cy="187.463" r="4" fill="#0" id="circle161"/>
	<circle cx="716.746" cy="559.26" r="4" fill="#0" id="circle162"/>
	<circle cx="724.864" cy="543.025" r="4" fill="#0" id="circle163"/>
	<circle cx="728.111" cy="192.334" r="4" fill="#0" id="circle164"/>
	<circle cx="732.982" cy="526.789" r="4" fill="#0" id="circle165"/>
	<circle cx="742.723" cy="200.452" r="4" fill="#0" id="circle166"/>
	<circle cx="744.347" cy="408.268" r="4" fill="#0" id="circle167"/>
	<circle cx="744.347" cy="424.504" r="4" fill="#0" id="circle168"/>
	<circle cx="744.347" cy="440.74" r="4" fill="#0" id="circle169"/>
	<circle cx="744.347" cy="456.975" r="4" fill="#0" id="circle170"/>
	<circle cx="744.347" cy="505.682" r="4" fill="#0" id="circle171"/>
	<circle cx="747.594" cy="473.211" r="4" fill="#0" id="circle172"/>
	<circle cx="752.465" cy="383.915" r="4" fill="#0" id="circle173"/>
	<circle cx="752.465" cy="489.447" r="4" fill="#0" id="circle174"/>
	<circle cx="758.959" cy="206.946" r="4" fill="#0" id="circle175"/>
	<circle cx="760.583" cy="359.561" r="4" fill="#0" id="circle176"/>
	<circle cx="768.7" cy="219.935" r="4" fill="#0" id="circle177"/>
	<circle cx="768.7" cy="335.208" r="4" fill="#0" id="circle178"/>
	<circle cx="776.818" cy="310.854" r="4" fill="#0" id="circle179"/>
	<circle cx="784.936" cy="219.935" r="4" fill="#0" id="circle180"/>
	<circle cx="789.807" cy="299.489" r="4" fill="#0" id="circle181"/>
	<circle cx="797.925" cy="283.254" r="4" fill="#0" id="circle182"/>
	<circle cx="799.548" cy="228.052" r="4" fill="#0" id="circle183"/>
	<circle cx="809.29" cy="215.064" r="4" fill="#0" id="circle184"/>
	<circle cx="814.16" cy="275.136" r="4" fill="#0" id="circle185"/>
	<circle cx="825.525" cy="206.946" r="4" fill="#0" id="circle186"/>
	<circle cx="830.396" cy="267.018" r="4" fill="#0" id="circle187"/>
	<circle cx="841.761" cy="198.828" r="4" fill="#0" id="circle188"/>
	<circle cx="841.761" cy="254.029" r="4" fill="#0" id="circle189"/>
	<circle cx="854.75" cy="187.463" r="4" fill="#0" id="circle190"/>
	<circle cx="856.373" cy="245.912" r="4" fill="#0" id="circle191"/>
	<circle cx="869.362" cy="179.345" r="4" fill="#0" id="circle192"/>
	<circle cx="869.362" cy="236.17" r="4" fill="#0" id="circle193"/>
	<circle cx="880.727" cy="159.863" r="4" fill="#0" id="circle194"/>
	<circle cx="882.35" cy="221.558" r="4" fill="#0" id="circle195"/>
	<circle cx="896.962" cy="151.745" r="4" fill="#0" id="circle196"/>
	<circle cx="898.586" cy="213.44" r="4" fill="#0" id="circle197"/>
	<circle cx="909.951" cy="138.756" r="4" fill="#0" id="circle198"/>
	<circle cx="911.574" cy="202.075" r="4" fill="#0" id="circle199"/>
	<circle cx="921.316" cy="119.273" r="4" fill="#0" id="circle200"/>
	<circle cx="922.939" cy="189.087" r="4" fill="#0" id="circle201"/>
	<circle cx="931.057" cy="172.851" r="4" fill="#0" id="circle202"/>
	<circle cx="934.304" cy="106.285" r="4" fill="#0" id="circle203"/>
	<circle cx="942.422" cy="90.0491" r="4" fill="#0" id="circle204"/>
	<circle cx="944.046" cy="161.486" r="4" fill="#0" id="circle205"/>
	<circle cx="950.54" cy="73.8134" r="4" fill="#0" id="circle206"/>
	<circle cx="952.164" cy="145.25" r="4" fill="#0" id="circle207"/>
	<circle cx="961.905" cy="29.9771" r="4" fill="#0" id="circle208"/>
	<circle cx="961.905" cy="46.2128" r="4" fill="#0" id="circle209"/>
	<circle cx="963.529" cy="132.262" r="4" fill="#0" id="circle210"/>
	<circle cx="970.023" cy="5.62357" r="4" fill="#0" id="circle211"/>
	<circle cx="971.646" cy="116.026" r="4" fill="#0" id="circle212"/>
	<circle cx="979.764" cy="99.7905" r="4" fill="#0" id="circle213"/>
	<circle cx="986.259" cy="4" r="4" fill="#0" id="circle214"/>
	<circle cx="987.882" cy="83.5548" r="4" fill="#0" id="circle215"/>
	<circle cx="996" cy="16.9885" r="4" fill="#0" id="circle216"/>
	<circle cx="996" cy="33.2242" r="4" fill="#0" id="circle217"/>
	<circle cx="996" cy="49.4599" r="4" fill="#0" id="circle218"/>
	<circle cx="996" cy="65.6956" r="4" fill="#0" id="circle219"/>
	</g>
</svg>