<?xml version="1.0" encoding="UTF-8" standalone="no"?>
<!-- Created with CurveBenchmark -->
<svg
	xmlns:dc="http://purl.org/dc/elements/1.1/"
	xmlns:cc="http://creativecommons.org/ns#"
	xmlns:rdf="http://www.w3.org/1999/02/22-rdf-syntax-ns#"
	xmlns:svg="http://www.w3.org/2000/svg"
	xmlns="http://www.w3.org/2000/svg"
	xmlns:sodipodi="http://sodipodi.sourceforge.net/DTD/sodipodi-0.dtd"
	xmlns:inkscape="http://www.inkscape.org/namespaces/inkscape"
	width="1000"
	height="1000"
	id="svg2"
	version="1.1"
	sodipodi:docname="manifold/discur-pencil-5.png.txt">
<defs
	id="defs4" />
<metadata
	id="metadata7">
	<rdf:RDF>
		<cc:Work
			rdf:about="">
			<dc:format>image/svg+xml</dc:format>
			<dc:type
				rdf:resource="http://purl.org/dc/dcmitype/StillImage" />
			<dc:title></dc:title>
		</cc:Work>
	</rdf:RDF>
</metadata>
<g
	inkscape:label="Layer 1"
	inkscape:groupmode="layer"
	id="layer1">
	<path style="fill:none;stroke:red;stroke-width:1px;stroke-linecap:butt;stroke-linejoin:miter;stroke-opacity:1" d="M 4,94.6324 4,101.713 z" id="boundary" inkscape:connector-curvature="0" />
	<path style="fill:none;stroke:red;stroke-width:1px;stroke-linecap:butt;stroke-linejoin:miter;stroke-opacity:1" d="M 4,101.713 7.54033,108.086 z" id="boundary" inkscape:connector-curvature="0" />
	<path style="fill:none;stroke:red;stroke-width:1px;stroke-linecap:butt;stroke-linejoin:miter;stroke-opacity:1" d="M 7.54033,62.7695 7.54033,69.8501 z" id="boundary" inkscape:connector-curvature="0" />
	<path style="fill:none;stroke:red;stroke-width:1px;stroke-linecap:butt;stroke-linejoin:miter;stroke-opacity:1" d="M 7.54033,62.7695 11.0807,55.6888 z" id="boundary" inkscape:connector-curvature="0" />
	<path style="fill:none;stroke:red;stroke-width:1px;stroke-linecap:butt;stroke-linejoin:miter;stroke-opacity:1" d="M 7.54033,69.8501 7.54033,76.9308 z" id="boundary" inkscape:connector-curvature="0" />
	<path style="fill:none;stroke:red;stroke-width:1px;stroke-linecap:butt;stroke-linejoin:miter;stroke-opacity:1" d="M 7.54033,108.086 7.54033,115.166 z" id="boundary" inkscape:connector-curvature="0" />
	<path style="fill:none;stroke:red;stroke-width:1px;stroke-linecap:butt;stroke-linejoin:miter;stroke-opacity:1" d="M 7.54033,115.166 7.54033,122.247 z" id="boundary" inkscape:connector-curvature="0" />
	<path style="fill:none;stroke:red;stroke-width:1px;stroke-linecap:butt;stroke-linejoin:miter;stroke-opacity:1" d="M 7.54033,122.247 11.0807,128.62 z" id="boundary" inkscape:connector-curvature="0" />
	<path style="fill:none;stroke:red;stroke-width:1px;stroke-linecap:butt;stroke-linejoin:miter;stroke-opacity:1" d="M 11.0807,55.6888 14.621,48.6081 z" id="boundary" inkscape:connector-curvature="0" />
	<path style="fill:none;stroke:red;stroke-width:1px;stroke-linecap:butt;stroke-linejoin:miter;stroke-opacity:1" d="M 11.0807,128.62 11.0807,135.7 z" id="boundary" inkscape:connector-curvature="0" />
	<path style="fill:none;stroke:red;stroke-width:1px;stroke-linecap:butt;stroke-linejoin:miter;stroke-opacity:1" d="M 11.0807,135.7 11.0807,142.781 z" id="boundary" inkscape:connector-curvature="0" />
	<path style="fill:none;stroke:red;stroke-width:1px;stroke-linecap:butt;stroke-linejoin:miter;stroke-opacity:1" d="M 11.0807,142.781 14.621,149.153 z" id="boundary" inkscape:connector-curvature="0" />
	<path style="fill:none;stroke:red;stroke-width:1px;stroke-linecap:butt;stroke-linejoin:miter;stroke-opacity:1" d="M 14.621,48.6081 18.1613,41.5275 z" id="boundary" inkscape:connector-curvature="0" />
	<path style="fill:none;stroke:red;stroke-width:1px;stroke-linecap:butt;stroke-linejoin:miter;stroke-opacity:1" d="M 14.621,149.153 18.8694,154.818 z" id="boundary" inkscape:connector-curvature="0" />
	<path style="fill:none;stroke:red;stroke-width:1px;stroke-linecap:butt;stroke-linejoin:miter;stroke-opacity:1" d="M 18.1613,41.5275 23.8258,35.863 z" id="boundary" inkscape:connector-curvature="0" />
	<path style="fill:none;stroke:red;stroke-width:1px;stroke-linecap:butt;stroke-linejoin:miter;stroke-opacity:1" d="M 18.8694,154.818 23.8258,160.483 z" id="boundary" inkscape:connector-curvature="0" />
	<path style="fill:none;stroke:red;stroke-width:1px;stroke-linecap:butt;stroke-linejoin:miter;stroke-opacity:1" d="M 23.8258,35.863 29.4904,30.1984 z" id="boundary" inkscape:connector-curvature="0" />
	<path style="fill:none;stroke:red;stroke-width:1px;stroke-linecap:butt;stroke-linejoin:miter;stroke-opacity:1" d="M 23.8258,160.483 29.4904,165.439 z" id="boundary" inkscape:connector-curvature="0" />
	<path style="fill:none;stroke:red;stroke-width:1px;stroke-linecap:butt;stroke-linejoin:miter;stroke-opacity:1" d="M 29.4904,30.1984 36.571,26.6581 z" id="boundary" inkscape:connector-curvature="0" />
	<path style="fill:none;stroke:red;stroke-width:1px;stroke-linecap:butt;stroke-linejoin:miter;stroke-opacity:1" d="M 29.4904,165.439 34.4468,171.103 z" id="boundary" inkscape:connector-curvature="0" />
	<path style="fill:none;stroke:red;stroke-width:1px;stroke-linecap:butt;stroke-linejoin:miter;stroke-opacity:1" d="M 34.4468,171.103 41.5275,173.936 z" id="boundary" inkscape:connector-curvature="0" />
	<path style="fill:none;stroke:red;stroke-width:1px;stroke-linecap:butt;stroke-linejoin:miter;stroke-opacity:1" d="M 36.571,26.6581 43.6517,23.1178 z" id="boundary" inkscape:connector-curvature="0" />
	<path style="fill:none;stroke:red;stroke-width:1px;stroke-linecap:butt;stroke-linejoin:miter;stroke-opacity:1" d="M 41.5275,173.936 48.6081,174.644 z" id="boundary" inkscape:connector-curvature="0" />
	<path style="fill:none;stroke:red;stroke-width:1px;stroke-linecap:butt;stroke-linejoin:miter;stroke-opacity:1" d="M 43.6517,23.1178 50.7323,21.7016 z" id="boundary" inkscape:connector-curvature="0" />
	<path style="fill:none;stroke:red;stroke-width:1px;stroke-linecap:butt;stroke-linejoin:miter;stroke-opacity:1" d="M 48.6081,174.644 55.6888,174.644 z" id="boundary" inkscape:connector-curvature="0" />
	<path style="fill:none;stroke:red;stroke-width:1px;stroke-linecap:butt;stroke-linejoin:miter;stroke-opacity:1" d="M 50.7323,21.7016 57.1049,18.1613 z" id="boundary" inkscape:connector-curvature="0" />
	<path style="fill:none;stroke:red;stroke-width:1px;stroke-linecap:butt;stroke-linejoin:miter;stroke-opacity:1" d="M 55.6888,174.644 62.7695,174.644 z" id="boundary" inkscape:connector-curvature="0" />
	<path style="fill:none;stroke:red;stroke-width:1px;stroke-linecap:butt;stroke-linejoin:miter;stroke-opacity:1" d="M 57.1049,18.1613 64.1856,18.1613 z" id="boundary" inkscape:connector-curvature="0" />
	<path style="fill:none;stroke:red;stroke-width:1px;stroke-linecap:butt;stroke-linejoin:miter;stroke-opacity:1" d="M 62.7695,174.644 69.8501,174.644 z" id="boundary" inkscape:connector-curvature="0" />
	<path style="fill:none;stroke:red;stroke-width:1px;stroke-linecap:butt;stroke-linejoin:miter;stroke-opacity:1" d="M 64.1856,18.1613 71.2662,18.1613 z" id="boundary" inkscape:connector-curvature="0" />
	<path style="fill:none;stroke:red;stroke-width:1px;stroke-linecap:butt;stroke-linejoin:miter;stroke-opacity:1" d="M 69.8501,174.644 76.9308,174.644 z" id="boundary" inkscape:connector-curvature="0" />
	<path style="fill:none;stroke:red;stroke-width:1px;stroke-linecap:butt;stroke-linejoin:miter;stroke-opacity:1" d="M 71.2662,18.1613 78.3469,18.1613 z" id="boundary" inkscape:connector-curvature="0" />
	<path style="fill:none;stroke:red;stroke-width:1px;stroke-linecap:butt;stroke-linejoin:miter;stroke-opacity:1" d="M 76.9308,174.644 84.0114,174.644 z" id="boundary" inkscape:connector-curvature="0" />
	<path style="fill:none;stroke:red;stroke-width:1px;stroke-linecap:butt;stroke-linejoin:miter;stroke-opacity:1" d="M 78.3469,18.1613 85.4276,18.1613 z" id="boundary" inkscape:connector-curvature="0" />
	<path style="fill:none;stroke:red;stroke-width:1px;stroke-linecap:butt;stroke-linejoin:miter;stroke-opacity:1" d="M 84.0114,174.644 91.0921,174.644 z" id="boundary" inkscape:connector-curvature="0" />
	<path style="fill:none;stroke:red;stroke-width:1px;stroke-linecap:butt;stroke-linejoin:miter;stroke-opacity:1" d="M 85.4276,18.1613 92.5082,16.7452 z" id="boundary" inkscape:connector-curvature="0" />
	<path style="fill:none;stroke:red;stroke-width:1px;stroke-linecap:butt;stroke-linejoin:miter;stroke-opacity:1" d="M 91.0921,174.644 97.4647,178.184 z" id="boundary" inkscape:connector-curvature="0" />
	<path style="fill:none;stroke:red;stroke-width:1px;stroke-linecap:butt;stroke-linejoin:miter;stroke-opacity:1" d="M 92.5082,16.7452 99.5889,13.2049 z" id="boundary" inkscape:connector-curvature="0" />
	<path style="fill:none;stroke:red;stroke-width:1px;stroke-linecap:butt;stroke-linejoin:miter;stroke-opacity:1" d="M 97.4647,178.184 103.837,181.724 z" id="boundary" inkscape:connector-curvature="0" />
	<path style="fill:none;stroke:red;stroke-width:1px;stroke-linecap:butt;stroke-linejoin:miter;stroke-opacity:1" d="M 99.5889,13.2049 105.253,7.54033 z" id="boundary" inkscape:connector-curvature="0" />
	<path style="fill:none;stroke:red;stroke-width:1px;stroke-linecap:butt;stroke-linejoin:miter;stroke-opacity:1" d="M 103.837,181.724 110.21,185.265 z" id="boundary" inkscape:connector-curvature="0" />
	<path style="fill:none;stroke:red;stroke-width:1px;stroke-linecap:butt;stroke-linejoin:miter;stroke-opacity:1" d="M 105.253,7.54033 112.334,4 z" id="boundary" inkscape:connector-curvature="0" />
	<path style="fill:none;stroke:red;stroke-width:1px;stroke-linecap:butt;stroke-linejoin:miter;stroke-opacity:1" d="M 110.21,185.265 116.582,188.805 z" id="boundary" inkscape:connector-curvature="0" />
	<path style="fill:none;stroke:red;stroke-width:1px;stroke-linecap:butt;stroke-linejoin:miter;stroke-opacity:1" d="M 112.334,4 119.415,4 z" id="boundary" inkscape:connector-curvature="0" />
	<path style="fill:none;stroke:red;stroke-width:1px;stroke-linecap:butt;stroke-linejoin:miter;stroke-opacity:1" d="M 116.582,188.805 123.663,188.805 z" id="boundary" inkscape:connector-curvature="0" />
	<path style="fill:none;stroke:red;stroke-width:1px;stroke-linecap:butt;stroke-linejoin:miter;stroke-opacity:1" d="M 119.415,4 126.495,4 z" id="boundary" inkscape:connector-curvature="0" />
	<path style="fill:none;stroke:red;stroke-width:1px;stroke-linecap:butt;stroke-linejoin:miter;stroke-opacity:1" d="M 123.663,188.805 130.036,192.345 z" id="boundary" inkscape:connector-curvature="0" />
	<path style="fill:none;stroke:red;stroke-width:1px;stroke-linecap:butt;stroke-linejoin:miter;stroke-opacity:1" d="M 126.495,4 133.576,4 z" id="boundary" inkscape:connector-curvature="0" />
	<path style="fill:none;stroke:red;stroke-width:1px;stroke-linecap:butt;stroke-linejoin:miter;stroke-opacity:1" d="M 130.036,192.345 137.116,192.345 z" id="boundary" inkscape:connector-curvature="0" />
	<path style="fill:none;stroke:red;stroke-width:1px;stroke-linecap:butt;stroke-linejoin:miter;stroke-opacity:1" d="M 133.576,4 140.657,4 z" id="boundary" inkscape:connector-curvature="0" />
	<path style="fill:none;stroke:red;stroke-width:1px;stroke-linecap:butt;stroke-linejoin:miter;stroke-opacity:1" d="M 137.116,192.345 144.197,192.345 z" id="boundary" inkscape:connector-curvature="0" />
	<path style="fill:none;stroke:red;stroke-width:1px;stroke-linecap:butt;stroke-linejoin:miter;stroke-opacity:1" d="M 140.657,4 147.737,4 z" id="boundary" inkscape:connector-curvature="0" />
	<path style="fill:none;stroke:red;stroke-width:1px;stroke-linecap:butt;stroke-linejoin:miter;stroke-opacity:1" d="M 144.197,192.345 151.278,192.345 z" id="boundary" inkscape:connector-curvature="0" />
	<path style="fill:none;stroke:red;stroke-width:1px;stroke-linecap:butt;stroke-linejoin:miter;stroke-opacity:1" d="M 147.737,4 154.818,4 z" id="boundary" inkscape:connector-curvature="0" />
	<path style="fill:none;stroke:red;stroke-width:1px;stroke-linecap:butt;stroke-linejoin:miter;stroke-opacity:1" d="M 151.278,192.345 157.65,188.805 z" id="boundary" inkscape:connector-curvature="0" />
	<path style="fill:none;stroke:red;stroke-width:1px;stroke-linecap:butt;stroke-linejoin:miter;stroke-opacity:1" d="M 154.818,4 161.899,4 z" id="boundary" inkscape:connector-curvature="0" />
	<path style="fill:none;stroke:red;stroke-width:1px;stroke-linecap:butt;stroke-linejoin:miter;stroke-opacity:1" d="M 157.65,188.805 164.731,188.805 z" id="boundary" inkscape:connector-curvature="0" />
	<path style="fill:none;stroke:red;stroke-width:1px;stroke-linecap:butt;stroke-linejoin:miter;stroke-opacity:1" d="M 161.899,4 168.271,7.54033 z" id="boundary" inkscape:connector-curvature="0" />
	<path style="fill:none;stroke:red;stroke-width:1px;stroke-linecap:butt;stroke-linejoin:miter;stroke-opacity:1" d="M 164.731,188.805 170.395,183.141 z" id="boundary" inkscape:connector-curvature="0" />
	<path style="fill:none;stroke:red;stroke-width:1px;stroke-linecap:butt;stroke-linejoin:miter;stroke-opacity:1" d="M 168.271,7.54033 174.644,11.0807 z" id="boundary" inkscape:connector-curvature="0" />
	<path style="fill:none;stroke:red;stroke-width:1px;stroke-linecap:butt;stroke-linejoin:miter;stroke-opacity:1" d="M 170.395,183.141 177.476,181.724 z" id="boundary" inkscape:connector-curvature="0" />
	<path style="fill:none;stroke:red;stroke-width:1px;stroke-linecap:butt;stroke-linejoin:miter;stroke-opacity:1" d="M 174.644,11.0807 180.308,15.3291 z" id="boundary" inkscape:connector-curvature="0" />
	<path style="fill:none;stroke:red;stroke-width:1px;stroke-linecap:butt;stroke-linejoin:miter;stroke-opacity:1" d="M 177.476,181.724 184.557,179.6 z" id="boundary" inkscape:connector-curvature="0" />
	<path style="fill:none;stroke:red;stroke-width:1px;stroke-linecap:butt;stroke-linejoin:miter;stroke-opacity:1" d="M 180.308,15.3291 186.681,18.8694 z" id="boundary" inkscape:connector-curvature="0" />
	<path style="fill:none;stroke:red;stroke-width:1px;stroke-linecap:butt;stroke-linejoin:miter;stroke-opacity:1" d="M 184.557,179.6 191.637,178.184 z" id="boundary" inkscape:connector-curvature="0" />
	<path style="fill:none;stroke:red;stroke-width:1px;stroke-linecap:butt;stroke-linejoin:miter;stroke-opacity:1" d="M 186.681,18.8694 193.762,21.7016 z" id="boundary" inkscape:connector-curvature="0" />
	<path style="fill:none;stroke:red;stroke-width:1px;stroke-linecap:butt;stroke-linejoin:miter;stroke-opacity:1" d="M 191.637,178.184 198.718,178.184 z" id="boundary" inkscape:connector-curvature="0" />
	<path style="fill:none;stroke:red;stroke-width:1px;stroke-linecap:butt;stroke-linejoin:miter;stroke-opacity:1" d="M 193.762,21.7016 200.842,21.7016 z" id="boundary" inkscape:connector-curvature="0" />
	<path style="fill:none;stroke:red;stroke-width:1px;stroke-linecap:butt;stroke-linejoin:miter;stroke-opacity:1" d="M 198.718,178.184 205.799,178.184 z" id="boundary" inkscape:connector-curvature="0" />
	<path style="fill:none;stroke:red;stroke-width:1px;stroke-linecap:butt;stroke-linejoin:miter;stroke-opacity:1" d="M 200.842,21.7016 207.923,21.7016 z" id="boundary" inkscape:connector-curvature="0" />
	<path style="fill:none;stroke:red;stroke-width:1px;stroke-linecap:butt;stroke-linejoin:miter;stroke-opacity:1" d="M 205.799,178.184 212.879,178.184 z" id="boundary" inkscape:connector-curvature="0" />
	<path style="fill:none;stroke:red;stroke-width:1px;stroke-linecap:butt;stroke-linejoin:miter;stroke-opacity:1" d="M 207.923,21.7016 215.004,21.7016 z" id="boundary" inkscape:connector-curvature="0" />
	<path style="fill:none;stroke:red;stroke-width:1px;stroke-linecap:butt;stroke-linejoin:miter;stroke-opacity:1" d="M 212.879,178.184 219.96,178.184 z" id="boundary" inkscape:connector-curvature="0" />
	<path style="fill:none;stroke:red;stroke-width:1px;stroke-linecap:butt;stroke-linejoin:miter;stroke-opacity:1" d="M 215.004,21.7016 222.084,21.7016 z" id="boundary" inkscape:connector-curvature="0" />
	<path style="fill:none;stroke:red;stroke-width:1px;stroke-linecap:butt;stroke-linejoin:miter;stroke-opacity:1" d="M 219.96,178.184 226.333,181.724 z" id="boundary" inkscape:connector-curvature="0" />
	<path style="fill:none;stroke:red;stroke-width:1px;stroke-linecap:butt;stroke-linejoin:miter;stroke-opacity:1" d="M 222.084,21.7016 229.165,21.7016 z" id="boundary" inkscape:connector-curvature="0" />
	<path style="fill:none;stroke:red;stroke-width:1px;stroke-linecap:butt;stroke-linejoin:miter;stroke-opacity:1" d="M 226.333,181.724 233.413,180.308 z" id="boundary" inkscape:connector-curvature="0" />
	<path style="fill:none;stroke:red;stroke-width:1px;stroke-linecap:butt;stroke-linejoin:miter;stroke-opacity:1" d="M 229.165,21.7016 236.246,21.7016 z" id="boundary" inkscape:connector-curvature="0" />
	<path style="fill:none;stroke:red;stroke-width:1px;stroke-linecap:butt;stroke-linejoin:miter;stroke-opacity:1" d="M 233.413,180.308 240.494,178.184 z" id="boundary" inkscape:connector-curvature="0" />
	<path style="fill:none;stroke:red;stroke-width:1px;stroke-linecap:butt;stroke-linejoin:miter;stroke-opacity:1" d="M 236.246,21.7016 243.326,21.7016 z" id="boundary" inkscape:connector-curvature="0" />
	<path style="fill:none;stroke:red;stroke-width:1px;stroke-linecap:butt;stroke-linejoin:miter;stroke-opacity:1" d="M 240.494,178.184 247.575,178.184 z" id="boundary" inkscape:connector-curvature="0" />
	<path style="fill:none;stroke:red;stroke-width:1px;stroke-linecap:butt;stroke-linejoin:miter;stroke-opacity:1" d="M 243.326,21.7016 250.407,21.7016 z" id="boundary" inkscape:connector-curvature="0" />
	<path style="fill:none;stroke:red;stroke-width:1px;stroke-linecap:butt;stroke-linejoin:miter;stroke-opacity:1" d="M 247.575,178.184 254.655,178.184 z" id="boundary" inkscape:connector-curvature="0" />
	<path style="fill:none;stroke:red;stroke-width:1px;stroke-linecap:butt;stroke-linejoin:miter;stroke-opacity:1" d="M 250.407,21.7016 257.488,21.7016 z" id="boundary" inkscape:connector-curvature="0" />
	<path style="fill:none;stroke:red;stroke-width:1px;stroke-linecap:butt;stroke-linejoin:miter;stroke-opacity:1" d="M 254.655,178.184 261.736,178.184 z" id="boundary" inkscape:connector-curvature="0" />
	<path style="fill:none;stroke:red;stroke-width:1px;stroke-linecap:butt;stroke-linejoin:miter;stroke-opacity:1" d="M 257.488,21.7016 264.568,21.7016 z" id="boundary" inkscape:connector-curvature="0" />
	<path style="fill:none;stroke:red;stroke-width:1px;stroke-linecap:butt;stroke-linejoin:miter;stroke-opacity:1" d="M 261.736,178.184 268.817,178.184 z" id="boundary" inkscape:connector-curvature="0" />
	<path style="fill:none;stroke:red;stroke-width:1px;stroke-linecap:butt;stroke-linejoin:miter;stroke-opacity:1" d="M 264.568,21.7016 271.649,21.7016 z" id="boundary" inkscape:connector-curvature="0" />
	<path style="fill:none;stroke:red;stroke-width:1px;stroke-linecap:butt;stroke-linejoin:miter;stroke-opacity:1" d="M 268.817,178.184 275.897,178.184 z" id="boundary" inkscape:connector-curvature="0" />
	<path style="fill:none;stroke:red;stroke-width:1px;stroke-linecap:butt;stroke-linejoin:miter;stroke-opacity:1" d="M 271.649,21.7016 278.729,21.7016 z" id="boundary" inkscape:connector-curvature="0" />
	<path style="fill:none;stroke:red;stroke-width:1px;stroke-linecap:butt;stroke-linejoin:miter;stroke-opacity:1" d="M 275.897,178.184 282.978,178.184 z" id="boundary" inkscape:connector-curvature="0" />
	<path style="fill:none;stroke:red;stroke-width:1px;stroke-linecap:butt;stroke-linejoin:miter;stroke-opacity:1" d="M 278.729,21.7016 285.81,21.7016 z" id="boundary" inkscape:connector-curvature="0" />
	<path style="fill:none;stroke:red;stroke-width:1px;stroke-linecap:butt;stroke-linejoin:miter;stroke-opacity:1" d="M 282.978,178.184 290.059,178.184 z" id="boundary" inkscape:connector-curvature="0" />
	<path style="fill:none;stroke:red;stroke-width:1px;stroke-linecap:butt;stroke-linejoin:miter;stroke-opacity:1" d="M 285.81,21.7016 292.891,21.7016 z" id="boundary" inkscape:connector-curvature="0" />
	<path style="fill:none;stroke:red;stroke-width:1px;stroke-linecap:butt;stroke-linejoin:miter;stroke-opacity:1" d="M 290.059,178.184 297.139,178.184 z" id="boundary" inkscape:connector-curvature="0" />
	<path style="fill:none;stroke:red;stroke-width:1px;stroke-linecap:butt;stroke-linejoin:miter;stroke-opacity:1" d="M 292.891,21.7016 299.971,21.7016 z" id="boundary" inkscape:connector-curvature="0" />
	<path style="fill:none;stroke:red;stroke-width:1px;stroke-linecap:butt;stroke-linejoin:miter;stroke-opacity:1" d="M 297.139,178.184 304.22,178.184 z" id="boundary" inkscape:connector-curvature="0" />
	<path style="fill:none;stroke:red;stroke-width:1px;stroke-linecap:butt;stroke-linejoin:miter;stroke-opacity:1" d="M 299.971,21.7016 307.052,21.7016 z" id="boundary" inkscape:connector-curvature="0" />
	<path style="fill:none;stroke:red;stroke-width:1px;stroke-linecap:butt;stroke-linejoin:miter;stroke-opacity:1" d="M 304.22,178.184 311.3,178.184 z" id="boundary" inkscape:connector-curvature="0" />
	<path style="fill:none;stroke:red;stroke-width:1px;stroke-linecap:butt;stroke-linejoin:miter;stroke-opacity:1" d="M 307.052,21.7016 314.133,21.7016 z" id="boundary" inkscape:connector-curvature="0" />
	<path style="fill:none;stroke:red;stroke-width:1px;stroke-linecap:butt;stroke-linejoin:miter;stroke-opacity:1" d="M 311.3,178.184 318.381,178.184 z" id="boundary" inkscape:connector-curvature="0" />
	<path style="fill:none;stroke:red;stroke-width:1px;stroke-linecap:butt;stroke-linejoin:miter;stroke-opacity:1" d="M 314.133,21.7016 321.213,21.7016 z" id="boundary" inkscape:connector-curvature="0" />
	<path style="fill:none;stroke:red;stroke-width:1px;stroke-linecap:butt;stroke-linejoin:miter;stroke-opacity:1" d="M 318.381,178.184 325.462,178.184 z" id="boundary" inkscape:connector-curvature="0" />
	<path style="fill:none;stroke:red;stroke-width:1px;stroke-linecap:butt;stroke-linejoin:miter;stroke-opacity:1" d="M 321.213,21.7016 328.294,21.7016 z" id="boundary" inkscape:connector-curvature="0" />
	<path style="fill:none;stroke:red;stroke-width:1px;stroke-linecap:butt;stroke-linejoin:miter;stroke-opacity:1" d="M 325.462,178.184 332.542,178.184 z" id="boundary" inkscape:connector-curvature="0" />
	<path style="fill:none;stroke:red;stroke-width:1px;stroke-linecap:butt;stroke-linejoin:miter;stroke-opacity:1" d="M 328.294,21.7016 335.375,21.7016 z" id="boundary" inkscape:connector-curvature="0" />
	<path style="fill:none;stroke:red;stroke-width:1px;stroke-linecap:butt;stroke-linejoin:miter;stroke-opacity:1" d="M 332.542,178.184 339.623,178.184 z" id="boundary" inkscape:connector-curvature="0" />
	<path style="fill:none;stroke:red;stroke-width:1px;stroke-linecap:butt;stroke-linejoin:miter;stroke-opacity:1" d="M 335.375,21.7016 342.455,21.7016 z" id="boundary" inkscape:connector-curvature="0" />
	<path style="fill:none;stroke:red;stroke-width:1px;stroke-linecap:butt;stroke-linejoin:miter;stroke-opacity:1" d="M 339.623,178.184 346.704,178.184 z" id="boundary" inkscape:connector-curvature="0" />
	<path style="fill:none;stroke:red;stroke-width:1px;stroke-linecap:butt;stroke-linejoin:miter;stroke-opacity:1" d="M 342.455,21.7016 349.536,21.7016 z" id="boundary" inkscape:connector-curvature="0" />
	<path style="fill:none;stroke:red;stroke-width:1px;stroke-linecap:butt;stroke-linejoin:miter;stroke-opacity:1" d="M 346.704,178.184 353.784,178.184 z" id="boundary" inkscape:connector-curvature="0" />
	<path style="fill:none;stroke:red;stroke-width:1px;stroke-linecap:butt;stroke-linejoin:miter;stroke-opacity:1" d="M 349.536,21.7016 356.617,21.7016 z" id="boundary" inkscape:connector-curvature="0" />
	<path style="fill:none;stroke:red;stroke-width:1px;stroke-linecap:butt;stroke-linejoin:miter;stroke-opacity:1" d="M 353.784,178.184 360.865,178.184 z" id="boundary" inkscape:connector-curvature="0" />
	<path style="fill:none;stroke:red;stroke-width:1px;stroke-linecap:butt;stroke-linejoin:miter;stroke-opacity:1" d="M 356.617,21.7016 363.697,21.7016 z" id="boundary" inkscape:connector-curvature="0" />
	<path style="fill:none;stroke:red;stroke-width:1px;stroke-linecap:butt;stroke-linejoin:miter;stroke-opacity:1" d="M 360.865,178.184 367.946,178.184 z" id="boundary" inkscape:connector-curvature="0" />
	<path style="fill:none;stroke:red;stroke-width:1px;stroke-linecap:butt;stroke-linejoin:miter;stroke-opacity:1" d="M 363.697,21.7016 370.778,21.7016 z" id="boundary" inkscape:connector-curvature="0" />
	<path style="fill:none;stroke:red;stroke-width:1px;stroke-linecap:butt;stroke-linejoin:miter;stroke-opacity:1" d="M 367.946,178.184 375.026,178.184 z" id="boundary" inkscape:connector-curvature="0" />
	<path style="fill:none;stroke:red;stroke-width:1px;stroke-linecap:butt;stroke-linejoin:miter;stroke-opacity:1" d="M 370.778,21.7016 377.859,21.7016 z" id="boundary" inkscape:connector-curvature="0" />
	<path style="fill:none;stroke:red;stroke-width:1px;stroke-linecap:butt;stroke-linejoin:miter;stroke-opacity:1" d="M 375.026,178.184 382.107,178.184 z" id="boundary" inkscape:connector-curvature="0" />
	<path style="fill:none;stroke:red;stroke-width:1px;stroke-linecap:butt;stroke-linejoin:miter;stroke-opacity:1" d="M 377.859,21.7016 384.939,21.7016 z" id="boundary" inkscape:connector-curvature="0" />
	<path style="fill:none;stroke:red;stroke-width:1px;stroke-linecap:butt;stroke-linejoin:miter;stroke-opacity:1" d="M 382.107,178.184 389.188,178.184 z" id="boundary" inkscape:connector-curvature="0" />
	<path style="fill:none;stroke:red;stroke-width:1px;stroke-linecap:butt;stroke-linejoin:miter;stroke-opacity:1" d="M 384.939,21.7016 392.02,21.7016 z" id="boundary" inkscape:connector-curvature="0" />
	<path style="fill:none;stroke:red;stroke-width:1px;stroke-linecap:butt;stroke-linejoin:miter;stroke-opacity:1" d="M 389.188,178.184 396.268,178.184 z" id="boundary" inkscape:connector-curvature="0" />
	<path style="fill:none;stroke:red;stroke-width:1px;stroke-linecap:butt;stroke-linejoin:miter;stroke-opacity:1" d="M 392.02,21.7016 399.101,21.7016 z" id="boundary" inkscape:connector-curvature="0" />
	<path style="fill:none;stroke:red;stroke-width:1px;stroke-linecap:butt;stroke-linejoin:miter;stroke-opacity:1" d="M 396.268,178.184 403.349,178.184 z" id="boundary" inkscape:connector-curvature="0" />
	<path style="fill:none;stroke:red;stroke-width:1px;stroke-linecap:butt;stroke-linejoin:miter;stroke-opacity:1" d="M 399.101,21.7016 406.181,21.7016 z" id="boundary" inkscape:connector-curvature="0" />
	<path style="fill:none;stroke:red;stroke-width:1px;stroke-linecap:butt;stroke-linejoin:miter;stroke-opacity:1" d="M 403.349,178.184 410.43,178.184 z" id="boundary" inkscape:connector-curvature="0" />
	<path style="fill:none;stroke:red;stroke-width:1px;stroke-linecap:butt;stroke-linejoin:miter;stroke-opacity:1" d="M 406.181,21.7016 413.262,21.7016 z" id="boundary" inkscape:connector-curvature="0" />
	<path style="fill:none;stroke:red;stroke-width:1px;stroke-linecap:butt;stroke-linejoin:miter;stroke-opacity:1" d="M 410.43,178.184 417.51,178.184 z" id="boundary" inkscape:connector-curvature="0" />
	<path style="fill:none;stroke:red;stroke-width:1px;stroke-linecap:butt;stroke-linejoin:miter;stroke-opacity:1" d="M 413.262,21.7016 420.343,21.7016 z" id="boundary" inkscape:connector-curvature="0" />
	<path style="fill:none;stroke:red;stroke-width:1px;stroke-linecap:butt;stroke-linejoin:miter;stroke-opacity:1" d="M 417.51,178.184 423.883,174.644 z" id="boundary" inkscape:connector-curvature="0" />
	<path style="fill:none;stroke:red;stroke-width:1px;stroke-linecap:butt;stroke-linejoin:miter;stroke-opacity:1" d="M 420.343,21.7016 427.423,21.7016 z" id="boundary" inkscape:connector-curvature="0" />
	<path style="fill:none;stroke:red;stroke-width:1px;stroke-linecap:butt;stroke-linejoin:miter;stroke-opacity:1" d="M 423.883,174.644 430.964,174.644 z" id="boundary" inkscape:connector-curvature="0" />
	<path style="fill:none;stroke:red;stroke-width:1px;stroke-linecap:butt;stroke-linejoin:miter;stroke-opacity:1" d="M 427.423,21.7016 434.504,21.7016 z" id="boundary" inkscape:connector-curvature="0" />
	<path style="fill:none;stroke:red;stroke-width:1px;stroke-linecap:butt;stroke-linejoin:miter;stroke-opacity:1" d="M 430.964,174.644 438.044,174.644 z" id="boundary" inkscape:connector-curvature="0" />
	<path style="fill:none;stroke:red;stroke-width:1px;stroke-linecap:butt;stroke-linejoin:miter;stroke-opacity:1" d="M 434.504,21.7016 441.585,21.7016 z" id="boundary" inkscape:connector-curvature="0" />
	<path style="fill:none;stroke:red;stroke-width:1px;stroke-linecap:butt;stroke-linejoin:miter;stroke-opacity:1" d="M 438.044,174.644 445.125,174.644 z" id="boundary" inkscape:connector-curvature="0" />
	<path style="fill:none;stroke:red;stroke-width:1px;stroke-linecap:butt;stroke-linejoin:miter;stroke-opacity:1" d="M 441.585,21.7016 447.957,25.242 z" id="boundary" inkscape:connector-curvature="0" />
	<path style="fill:none;stroke:red;stroke-width:1px;stroke-linecap:butt;stroke-linejoin:miter;stroke-opacity:1" d="M 445.125,174.644 451.498,171.103 z" id="boundary" inkscape:connector-curvature="0" />
	<path style="fill:none;stroke:red;stroke-width:1px;stroke-linecap:butt;stroke-linejoin:miter;stroke-opacity:1" d="M 447.957,25.242 454.33,28.7823 z" id="boundary" inkscape:connector-curvature="0" />
	<path style="fill:none;stroke:red;stroke-width:1px;stroke-linecap:butt;stroke-linejoin:miter;stroke-opacity:1" d="M 451.498,171.103 457.87,167.563 z" id="boundary" inkscape:connector-curvature="0" />
	<path style="fill:none;stroke:red;stroke-width:1px;stroke-linecap:butt;stroke-linejoin:miter;stroke-opacity:1" d="M 454.33,28.7823 461.41,28.7823 z" id="boundary" inkscape:connector-curvature="0" />
	<path style="fill:none;stroke:red;stroke-width:1px;stroke-linecap:butt;stroke-linejoin:miter;stroke-opacity:1" d="M 457.87,167.563 464.951,164.023 z" id="boundary" inkscape:connector-curvature="0" />
	<path style="fill:none;stroke:red;stroke-width:1px;stroke-linecap:butt;stroke-linejoin:miter;stroke-opacity:1" d="M 461.41,28.7823 468.491,28.7823 z" id="boundary" inkscape:connector-curvature="0" />
	<path style="fill:none;stroke:red;stroke-width:1px;stroke-linecap:butt;stroke-linejoin:miter;stroke-opacity:1" d="M 464.951,164.023 472.031,164.023 z" id="boundary" inkscape:connector-curvature="0" />
	<path style="fill:none;stroke:red;stroke-width:1px;stroke-linecap:butt;stroke-linejoin:miter;stroke-opacity:1" d="M 468.491,28.7823 475.572,28.7823 z" id="boundary" inkscape:connector-curvature="0" />
	<path style="fill:none;stroke:red;stroke-width:1px;stroke-linecap:butt;stroke-linejoin:miter;stroke-opacity:1" d="M 472.031,164.023 479.112,164.023 z" id="boundary" inkscape:connector-curvature="0" />
	<path style="fill:none;stroke:red;stroke-width:1px;stroke-linecap:butt;stroke-linejoin:miter;stroke-opacity:1" d="M 475.572,28.7823 482.652,28.7823 z" id="boundary" inkscape:connector-curvature="0" />
	<path style="fill:none;stroke:red;stroke-width:1px;stroke-linecap:butt;stroke-linejoin:miter;stroke-opacity:1" d="M 479.112,164.023 486.193,164.023 z" id="boundary" inkscape:connector-curvature="0" />
	<path style="fill:none;stroke:red;stroke-width:1px;stroke-linecap:butt;stroke-linejoin:miter;stroke-opacity:1" d="M 482.652,28.7823 489.733,28.7823 z" id="boundary" inkscape:connector-curvature="0" />
	<path style="fill:none;stroke:red;stroke-width:1px;stroke-linecap:butt;stroke-linejoin:miter;stroke-opacity:1" d="M 486.193,164.023 493.273,164.023 z" id="boundary" inkscape:connector-curvature="0" />
	<path style="fill:none;stroke:red;stroke-width:1px;stroke-linecap:butt;stroke-linejoin:miter;stroke-opacity:1" d="M 489.733,28.7823 496.106,32.3226 z" id="boundary" inkscape:connector-curvature="0" />
	<path style="fill:none;stroke:red;stroke-width:1px;stroke-linecap:butt;stroke-linejoin:miter;stroke-opacity:1" d="M 493.273,164.023 500.354,164.023 z" id="boundary" inkscape:connector-curvature="0" />
	<path style="fill:none;stroke:red;stroke-width:1px;stroke-linecap:butt;stroke-linejoin:miter;stroke-opacity:1" d="M 496.106,32.3226 503.186,32.3226 z" id="boundary" inkscape:connector-curvature="0" />
	<path style="fill:none;stroke:red;stroke-width:1px;stroke-linecap:butt;stroke-linejoin:miter;stroke-opacity:1" d="M 500.354,164.023 507.435,164.023 z" id="boundary" inkscape:connector-curvature="0" />
	<path style="fill:none;stroke:red;stroke-width:1px;stroke-linecap:butt;stroke-linejoin:miter;stroke-opacity:1" d="M 503.186,32.3226 510.267,30.9065 z" id="boundary" inkscape:connector-curvature="0" />
	<path style="fill:none;stroke:red;stroke-width:1px;stroke-linecap:butt;stroke-linejoin:miter;stroke-opacity:1" d="M 507.435,164.023 514.515,160.483 z" id="boundary" inkscape:connector-curvature="0" />
	<path style="fill:none;stroke:red;stroke-width:1px;stroke-linecap:butt;stroke-linejoin:miter;stroke-opacity:1" d="M 510.267,30.9065 517.348,28.7823 z" id="boundary" inkscape:connector-curvature="0" />
	<path style="fill:none;stroke:red;stroke-width:1px;stroke-linecap:butt;stroke-linejoin:miter;stroke-opacity:1" d="M 514.515,160.483 521.596,160.483 z" id="boundary" inkscape:connector-curvature="0" />
	<path style="fill:none;stroke:red;stroke-width:1px;stroke-linecap:butt;stroke-linejoin:miter;stroke-opacity:1" d="M 517.348,28.7823 524.428,28.7823 z" id="boundary" inkscape:connector-curvature="0" />
	<path style="fill:none;stroke:red;stroke-width:1px;stroke-linecap:butt;stroke-linejoin:miter;stroke-opacity:1" d="M 521.596,160.483 528.677,160.483 z" id="boundary" inkscape:connector-curvature="0" />
	<path style="fill:none;stroke:red;stroke-width:1px;stroke-linecap:butt;stroke-linejoin:miter;stroke-opacity:1" d="M 524.428,28.7823 531.509,28.7823 z" id="boundary" inkscape:connector-curvature="0" />
	<path style="fill:none;stroke:red;stroke-width:1px;stroke-linecap:butt;stroke-linejoin:miter;stroke-opacity:1" d="M 528.677,160.483 535.757,160.483 z" id="boundary" inkscape:connector-curvature="0" />
	<path style="fill:none;stroke:red;stroke-width:1px;stroke-linecap:butt;stroke-linejoin:miter;stroke-opacity:1" d="M 531.509,28.7823 538.59,28.7823 z" id="boundary" inkscape:connector-curvature="0" />
	<path style="fill:none;stroke:red;stroke-width:1px;stroke-linecap:butt;stroke-linejoin:miter;stroke-opacity:1" d="M 535.757,160.483 542.838,160.483 z" id="boundary" inkscape:connector-curvature="0" />
	<path style="fill:none;stroke:red;stroke-width:1px;stroke-linecap:butt;stroke-linejoin:miter;stroke-opacity:1" d="M 538.59,28.7823 545.67,28.7823 z" id="boundary" inkscape:connector-curvature="0" />
	<path style="fill:none;stroke:red;stroke-width:1px;stroke-linecap:butt;stroke-linejoin:miter;stroke-opacity:1" d="M 542.838,160.483 549.919,160.483 z" id="boundary" inkscape:connector-curvature="0" />
	<path style="fill:none;stroke:red;stroke-width:1px;stroke-linecap:butt;stroke-linejoin:miter;stroke-opacity:1" d="M 545.67,28.7823 552.751,28.7823 z" id="boundary" inkscape:connector-curvature="0" />
	<path style="fill:none;stroke:red;stroke-width:1px;stroke-linecap:butt;stroke-linejoin:miter;stroke-opacity:1" d="M 549.919,160.483 556.999,160.483 z" id="boundary" inkscape:connector-curvature="0" />
	<path style="fill:none;stroke:red;stroke-width:1px;stroke-linecap:butt;stroke-linejoin:miter;stroke-opacity:1" d="M 552.751,28.7823 559.832,28.7823 z" id="boundary" inkscape:connector-curvature="0" />
	<path style="fill:none;stroke:red;stroke-width:1px;stroke-linecap:butt;stroke-linejoin:miter;stroke-opacity:1" d="M 556.999,160.483 564.08,160.483 z" id="boundary" inkscape:connector-curvature="0" />
	<path style="fill:none;stroke:red;stroke-width:1px;stroke-linecap:butt;stroke-linejoin:miter;stroke-opacity:1" d="M 559.832,28.7823 566.912,28.7823 z" id="boundary" inkscape:connector-curvature="0" />
	<path style="fill:none;stroke:red;stroke-width:1px;stroke-linecap:butt;stroke-linejoin:miter;stroke-opacity:1" d="M 564.08,160.483 571.161,160.483 z" id="boundary" inkscape:connector-curvature="0" />
	<path style="fill:none;stroke:red;stroke-width:1px;stroke-linecap:butt;stroke-linejoin:miter;stroke-opacity:1" d="M 566.912,28.7823 573.993,28.7823 z" id="boundary" inkscape:connector-curvature="0" />
	<path style="fill:none;stroke:red;stroke-width:1px;stroke-linecap:butt;stroke-linejoin:miter;stroke-opacity:1" d="M 571.161,160.483 578.241,160.483 z" id="boundary" inkscape:connector-curvature="0" />
	<path style="fill:none;stroke:red;stroke-width:1px;stroke-linecap:butt;stroke-linejoin:miter;stroke-opacity:1" d="M 573.993,28.7823 581.074,28.7823 z" id="boundary" inkscape:connector-curvature="0" />
	<path style="fill:none;stroke:red;stroke-width:1px;stroke-linecap:butt;stroke-linejoin:miter;stroke-opacity:1" d="M 578.241,160.483 585.322,160.483 z" id="boundary" inkscape:connector-curvature="0" />
	<path style="fill:none;stroke:red;stroke-width:1px;stroke-linecap:butt;stroke-linejoin:miter;stroke-opacity:1" d="M 581.074,28.7823 588.154,28.7823 z" id="boundary" inkscape:connector-curvature="0" />
	<path style="fill:none;stroke:red;stroke-width:1px;stroke-linecap:butt;stroke-linejoin:miter;stroke-opacity:1" d="M 585.322,160.483 592.403,160.483 z" id="boundary" inkscape:connector-curvature="0" />
	<path style="fill:none;stroke:red;stroke-width:1px;stroke-linecap:butt;stroke-linejoin:miter;stroke-opacity:1" d="M 588.154,28.7823 595.235,28.7823 z" id="boundary" inkscape:connector-curvature="0" />
	<path style="fill:none;stroke:red;stroke-width:1px;stroke-linecap:butt;stroke-linejoin:miter;stroke-opacity:1" d="M 592.403,160.483 599.483,160.483 z" id="boundary" inkscape:connector-curvature="0" />
	<path style="fill:none;stroke:red;stroke-width:1px;stroke-linecap:butt;stroke-linejoin:miter;stroke-opacity:1" d="M 595.235,28.7823 601.607,32.3226 z" id="boundary" inkscape:connector-curvature="0" />
	<path style="fill:none;stroke:red;stroke-width:1px;stroke-linecap:butt;stroke-linejoin:miter;stroke-opacity:1" d="M 599.483,160.483 606.564,160.483 z" id="boundary" inkscape:connector-curvature="0" />
	<path style="fill:none;stroke:red;stroke-width:1px;stroke-linecap:butt;stroke-linejoin:miter;stroke-opacity:1" d="M 601.607,32.3226 608.688,32.3226 z" id="boundary" inkscape:connector-curvature="0" />
	<path style="fill:none;stroke:red;stroke-width:1px;stroke-linecap:butt;stroke-linejoin:miter;stroke-opacity:1" d="M 606.564,160.483 613.645,160.483 z" id="boundary" inkscape:connector-curvature="0" />
	<path style="fill:none;stroke:red;stroke-width:1px;stroke-linecap:butt;stroke-linejoin:miter;stroke-opacity:1" d="M 608.688,32.3226 615.061,28.7823 z" id="boundary" inkscape:connector-curvature="0" />
	<path style="fill:none;stroke:red;stroke-width:1px;stroke-linecap:butt;stroke-linejoin:miter;stroke-opacity:1" d="M 613.645,160.483 620.725,160.483 z" id="boundary" inkscape:connector-curvature="0" />
	<path style="fill:none;stroke:red;stroke-width:1px;stroke-linecap:butt;stroke-linejoin:miter;stroke-opacity:1" d="M 615.061,28.7823 622.141,28.7823 z" id="boundary" inkscape:connector-curvature="0" />
	<path style="fill:none;stroke:red;stroke-width:1px;stroke-linecap:butt;stroke-linejoin:miter;stroke-opacity:1" d="M 620.725,160.483 627.806,160.483 z" id="boundary" inkscape:connector-curvature="0" />
	<path style="fill:none;stroke:red;stroke-width:1px;stroke-linecap:butt;stroke-linejoin:miter;stroke-opacity:1" d="M 622.141,28.7823 629.222,28.7823 z" id="boundary" inkscape:connector-curvature="0" />
	<path style="fill:none;stroke:red;stroke-width:1px;stroke-linecap:butt;stroke-linejoin:miter;stroke-opacity:1" d="M 627.806,160.483 634.887,160.483 z" id="boundary" inkscape:connector-curvature="0" />
	<path style="fill:none;stroke:red;stroke-width:1px;stroke-linecap:butt;stroke-linejoin:miter;stroke-opacity:1" d="M 629.222,28.7823 636.303,28.7823 z" id="boundary" inkscape:connector-curvature="0" />
	<path style="fill:none;stroke:red;stroke-width:1px;stroke-linecap:butt;stroke-linejoin:miter;stroke-opacity:1" d="M 634.887,160.483 641.967,160.483 z" id="boundary" inkscape:connector-curvature="0" />
	<path style="fill:none;stroke:red;stroke-width:1px;stroke-linecap:butt;stroke-linejoin:miter;stroke-opacity:1" d="M 636.303,28.7823 642.675,32.3226 z" id="boundary" inkscape:connector-curvature="0" />
	<path style="fill:none;stroke:red;stroke-width:1px;stroke-linecap:butt;stroke-linejoin:miter;stroke-opacity:1" d="M 641.967,160.483 649.048,160.483 z" id="boundary" inkscape:connector-curvature="0" />
	<path style="fill:none;stroke:red;stroke-width:1px;stroke-linecap:butt;stroke-linejoin:miter;stroke-opacity:1" d="M 642.675,32.3226 649.756,32.3226 z" id="boundary" inkscape:connector-curvature="0" />
	<path style="fill:none;stroke:red;stroke-width:1px;stroke-linecap:butt;stroke-linejoin:miter;stroke-opacity:1" d="M 649.048,160.483 655.42,156.942 z" id="boundary" inkscape:connector-curvature="0" />
	<path style="fill:none;stroke:red;stroke-width:1px;stroke-linecap:butt;stroke-linejoin:miter;stroke-opacity:1" d="M 649.756,32.3226 656.128,28.7823 z" id="boundary" inkscape:connector-curvature="0" />
	<path style="fill:none;stroke:red;stroke-width:1px;stroke-linecap:butt;stroke-linejoin:miter;stroke-opacity:1" d="M 655.42,156.942 662.501,156.942 z" id="boundary" inkscape:connector-curvature="0" />
	<path style="fill:none;stroke:red;stroke-width:1px;stroke-linecap:butt;stroke-linejoin:miter;stroke-opacity:1" d="M 656.128,28.7823 663.209,28.7823 z" id="boundary" inkscape:connector-curvature="0" />
	<path style="fill:none;stroke:red;stroke-width:1px;stroke-linecap:butt;stroke-linejoin:miter;stroke-opacity:1" d="M 662.501,156.942 669.582,156.942 z" id="boundary" inkscape:connector-curvature="0" />
	<path style="fill:none;stroke:red;stroke-width:1px;stroke-linecap:butt;stroke-linejoin:miter;stroke-opacity:1" d="M 663.209,28.7823 670.29,28.7823 z" id="boundary" inkscape:connector-curvature="0" />
	<path style="fill:none;stroke:red;stroke-width:1px;stroke-linecap:butt;stroke-linejoin:miter;stroke-opacity:1" d="M 669.582,156.942 676.662,156.942 z" id="boundary" inkscape:connector-curvature="0" />
	<path style="fill:none;stroke:red;stroke-width:1px;stroke-linecap:butt;stroke-linejoin:miter;stroke-opacity:1" d="M 670.29,28.7823 677.37,28.7823 z" id="boundary" inkscape:connector-curvature="0" />
	<path style="fill:none;stroke:red;stroke-width:1px;stroke-linecap:butt;stroke-linejoin:miter;stroke-opacity:1" d="M 676.662,156.942 683.743,156.942 z" id="boundary" inkscape:connector-curvature="0" />
	<path style="fill:none;stroke:red;stroke-width:1px;stroke-linecap:butt;stroke-linejoin:miter;stroke-opacity:1" d="M 677.37,28.7823 684.451,28.7823 z" id="boundary" inkscape:connector-curvature="0" />
	<path style="fill:none;stroke:red;stroke-width:1px;stroke-linecap:butt;stroke-linejoin:miter;stroke-opacity:1" d="M 683.743,156.942 690.824,156.942 z" id="boundary" inkscape:connector-curvature="0" />
	<path style="fill:none;stroke:red;stroke-width:1px;stroke-linecap:butt;stroke-linejoin:miter;stroke-opacity:1" d="M 684.451,28.7823 691.532,28.7823 z" id="boundary" inkscape:connector-curvature="0" />
	<path style="fill:none;stroke:red;stroke-width:1px;stroke-linecap:butt;stroke-linejoin:miter;stroke-opacity:1" d="M 690.824,156.942 697.904,156.942 z" id="boundary" inkscape:connector-curvature="0" />
	<path style="fill:none;stroke:red;stroke-width:1px;stroke-linecap:butt;stroke-linejoin:miter;stroke-opacity:1" d="M 691.532,28.7823 698.612,28.7823 z" id="boundary" inkscape:connector-curvature="0" />
	<path style="fill:none;stroke:red;stroke-width:1px;stroke-linecap:butt;stroke-linejoin:miter;stroke-opacity:1" d="M 697.904,156.942 704.985,156.942 z" id="boundary" inkscape:connector-curvature="0" />
	<path style="fill:none;stroke:red;stroke-width:1px;stroke-linecap:butt;stroke-linejoin:miter;stroke-opacity:1" d="M 698.612,28.7823 705.693,28.7823 z" id="boundary" inkscape:connector-curvature="0" />
	<path style="fill:none;stroke:red;stroke-width:1px;stroke-linecap:butt;stroke-linejoin:miter;stroke-opacity:1" d="M 704.985,156.942 712.066,156.942 z" id="boundary" inkscape:connector-curvature="0" />
	<path style="fill:none;stroke:red;stroke-width:1px;stroke-linecap:butt;stroke-linejoin:miter;stroke-opacity:1" d="M 705.693,28.7823 712.774,28.7823 z" id="boundary" inkscape:connector-curvature="0" />
	<path style="fill:none;stroke:red;stroke-width:1px;stroke-linecap:butt;stroke-linejoin:miter;stroke-opacity:1" d="M 712.066,156.942 719.146,156.942 z" id="boundary" inkscape:connector-curvature="0" />
	<path style="fill:none;stroke:red;stroke-width:1px;stroke-linecap:butt;stroke-linejoin:miter;stroke-opacity:1" d="M 712.774,28.7823 719.854,28.7823 z" id="boundary" inkscape:connector-curvature="0" />
	<path style="fill:none;stroke:red;stroke-width:1px;stroke-linecap:butt;stroke-linejoin:miter;stroke-opacity:1" d="M 719.146,156.942 726.227,156.942 z" id="boundary" inkscape:connector-curvature="0" />
	<path style="fill:none;stroke:red;stroke-width:1px;stroke-linecap:butt;stroke-linejoin:miter;stroke-opacity:1" d="M 719.854,28.7823 726.935,30.9065 z" id="boundary" inkscape:connector-curvature="0" />
	<path style="fill:none;stroke:red;stroke-width:1px;stroke-linecap:butt;stroke-linejoin:miter;stroke-opacity:1" d="M 726.227,156.942 733.308,156.942 z" id="boundary" inkscape:connector-curvature="0" />
	<path style="fill:none;stroke:red;stroke-width:1px;stroke-linecap:butt;stroke-linejoin:miter;stroke-opacity:1" d="M 726.935,30.9065 734.016,32.3226 z" id="boundary" inkscape:connector-curvature="0" />
	<path style="fill:none;stroke:red;stroke-width:1px;stroke-linecap:butt;stroke-linejoin:miter;stroke-opacity:1" d="M 733.308,156.942 740.388,156.942 z" id="boundary" inkscape:connector-curvature="0" />
	<path style="fill:none;stroke:red;stroke-width:1px;stroke-linecap:butt;stroke-linejoin:miter;stroke-opacity:1" d="M 734.016,32.3226 740.388,28.7823 z" id="boundary" inkscape:connector-curvature="0" />
	<path style="fill:none;stroke:red;stroke-width:1px;stroke-linecap:butt;stroke-linejoin:miter;stroke-opacity:1" d="M 740.388,28.7823 747.469,28.7823 z" id="boundary" inkscape:connector-curvature="0" />
	<path style="fill:none;stroke:red;stroke-width:1px;stroke-linecap:butt;stroke-linejoin:miter;stroke-opacity:1" d="M 740.388,156.942 747.469,156.942 z" id="boundary" inkscape:connector-curvature="0" />
	<path style="fill:none;stroke:red;stroke-width:1px;stroke-linecap:butt;stroke-linejoin:miter;stroke-opacity:1" d="M 747.469,28.7823 754.55,28.7823 z" id="boundary" inkscape:connector-curvature="0" />
	<path style="fill:none;stroke:red;stroke-width:1px;stroke-linecap:butt;stroke-linejoin:miter;stroke-opacity:1" d="M 747.469,156.942 754.55,156.942 z" id="boundary" inkscape:connector-curvature="0" />
	<path style="fill:none;stroke:red;stroke-width:1px;stroke-linecap:butt;stroke-linejoin:miter;stroke-opacity:1" d="M 754.55,28.7823 761.63,30.1984 z" id="boundary" inkscape:connector-curvature="0" />
	<path style="fill:none;stroke:red;stroke-width:1px;stroke-linecap:butt;stroke-linejoin:miter;stroke-opacity:1" d="M 754.55,156.942 761.63,156.942 z" id="boundary" inkscape:connector-curvature="0" />
	<path style="fill:none;stroke:red;stroke-width:1px;stroke-linecap:butt;stroke-linejoin:miter;stroke-opacity:1" d="M 761.63,30.1984 768.711,32.3226 z" id="boundary" inkscape:connector-curvature="0" />
	<path style="fill:none;stroke:red;stroke-width:1px;stroke-linecap:butt;stroke-linejoin:miter;stroke-opacity:1" d="M 761.63,156.942 768.711,154.818 z" id="boundary" inkscape:connector-curvature="0" />
	<path style="fill:none;stroke:red;stroke-width:1px;stroke-linecap:butt;stroke-linejoin:miter;stroke-opacity:1" d="M 768.711,32.3226 775.792,32.3226 z" id="boundary" inkscape:connector-curvature="0" />
	<path style="fill:none;stroke:red;stroke-width:1px;stroke-linecap:butt;stroke-linejoin:miter;stroke-opacity:1" d="M 768.711,154.818 775.792,153.402 z" id="boundary" inkscape:connector-curvature="0" />
	<path style="fill:none;stroke:red;stroke-width:1px;stroke-linecap:butt;stroke-linejoin:miter;stroke-opacity:1" d="M 775.792,32.3226 782.872,32.3226 z" id="boundary" inkscape:connector-curvature="0" />
	<path style="fill:none;stroke:red;stroke-width:1px;stroke-linecap:butt;stroke-linejoin:miter;stroke-opacity:1" d="M 775.792,153.402 782.872,153.402 z" id="boundary" inkscape:connector-curvature="0" />
	<path style="fill:none;stroke:red;stroke-width:1px;stroke-linecap:butt;stroke-linejoin:miter;stroke-opacity:1" d="M 782.872,32.3226 789.953,32.3226 z" id="boundary" inkscape:connector-curvature="0" />
	<path style="fill:none;stroke:red;stroke-width:1px;stroke-linecap:butt;stroke-linejoin:miter;stroke-opacity:1" d="M 782.872,153.402 789.245,156.942 z" id="boundary" inkscape:connector-curvature="0" />
	<path style="fill:none;stroke:red;stroke-width:1px;stroke-linecap:butt;stroke-linejoin:miter;stroke-opacity:1" d="M 789.245,156.942 795.617,153.402 z" id="boundary" inkscape:connector-curvature="0" />
	<path style="fill:none;stroke:red;stroke-width:1px;stroke-linecap:butt;stroke-linejoin:miter;stroke-opacity:1" d="M 789.953,32.3226 797.034,32.3226 z" id="boundary" inkscape:connector-curvature="0" />
	<path style="fill:none;stroke:red;stroke-width:1px;stroke-linecap:butt;stroke-linejoin:miter;stroke-opacity:1" d="M 795.617,153.402 802.698,153.402 z" id="boundary" inkscape:connector-curvature="0" />
	<path style="fill:none;stroke:red;stroke-width:1px;stroke-linecap:butt;stroke-linejoin:miter;stroke-opacity:1" d="M 797.034,32.3226 804.114,32.3226 z" id="boundary" inkscape:connector-curvature="0" />
	<path style="fill:none;stroke:red;stroke-width:1px;stroke-linecap:butt;stroke-linejoin:miter;stroke-opacity:1" d="M 802.698,153.402 809.779,153.402 z" id="boundary" inkscape:connector-curvature="0" />
	<path style="fill:none;stroke:red;stroke-width:1px;stroke-linecap:butt;stroke-linejoin:miter;stroke-opacity:1" d="M 804.114,32.3226 811.195,32.3226 z" id="boundary" inkscape:connector-curvature="0" />
	<path style="fill:none;stroke:red;stroke-width:1px;stroke-linecap:butt;stroke-linejoin:miter;stroke-opacity:1" d="M 809.779,153.402 816.859,153.402 z" id="boundary" inkscape:connector-curvature="0" />
	<path style="fill:none;stroke:red;stroke-width:1px;stroke-linecap:butt;stroke-linejoin:miter;stroke-opacity:1" d="M 811.195,32.3226 818.276,32.3226 z" id="boundary" inkscape:connector-curvature="0" />
	<path style="fill:none;stroke:red;stroke-width:1px;stroke-linecap:butt;stroke-linejoin:miter;stroke-opacity:1" d="M 816.859,153.402 823.94,153.402 z" id="boundary" inkscape:connector-curvature="0" />
	<path style="fill:none;stroke:red;stroke-width:1px;stroke-linecap:butt;stroke-linejoin:miter;stroke-opacity:1" d="M 818.276,32.3226 825.356,32.3226 z" id="boundary" inkscape:connector-curvature="0" />
	<path style="fill:none;stroke:red;stroke-width:1px;stroke-linecap:butt;stroke-linejoin:miter;stroke-opacity:1" d="M 823.94,153.402 831.021,153.402 z" id="boundary" inkscape:connector-curvature="0" />
	<path style="fill:none;stroke:red;stroke-width:1px;stroke-linecap:butt;stroke-linejoin:miter;stroke-opacity:1" d="M 825.356,32.3226 832.437,32.3226 z" id="boundary" inkscape:connector-curvature="0" />
	<path style="fill:none;stroke:red;stroke-width:1px;stroke-linecap:butt;stroke-linejoin:miter;stroke-opacity:1" d="M 831.021,153.402 838.101,153.402 z" id="boundary" inkscape:connector-curvature="0" />
	<path style="fill:none;stroke:red;stroke-width:1px;stroke-linecap:butt;stroke-linejoin:miter;stroke-opacity:1" d="M 832.437,32.3226 839.517,32.3226 z" id="boundary" inkscape:connector-curvature="0" />
	<path style="fill:none;stroke:red;stroke-width:1px;stroke-linecap:butt;stroke-linejoin:miter;stroke-opacity:1" d="M 838.101,153.402 845.182,152.694 z" id="boundary" inkscape:connector-curvature="0" />
	<path style="fill:none;stroke:red;stroke-width:1px;stroke-linecap:butt;stroke-linejoin:miter;stroke-opacity:1" d="M 839.517,32.3226 846.598,32.3226 z" id="boundary" inkscape:connector-curvature="0" />
	<path style="fill:none;stroke:red;stroke-width:1px;stroke-linecap:butt;stroke-linejoin:miter;stroke-opacity:1" d="M 845.182,152.694 852.263,149.862 z" id="boundary" inkscape:connector-curvature="0" />
	<path style="fill:none;stroke:red;stroke-width:1px;stroke-linecap:butt;stroke-linejoin:miter;stroke-opacity:1" d="M 846.598,32.3226 853.679,32.3226 z" id="boundary" inkscape:connector-curvature="0" />
	<path style="fill:none;stroke:red;stroke-width:1px;stroke-linecap:butt;stroke-linejoin:miter;stroke-opacity:1" d="M 852.263,149.862 859.343,149.862 z" id="boundary" inkscape:connector-curvature="0" />
	<path style="fill:none;stroke:red;stroke-width:1px;stroke-linecap:butt;stroke-linejoin:miter;stroke-opacity:1" d="M 853.679,32.3226 860.759,32.3226 z" id="boundary" inkscape:connector-curvature="0" />
	<path style="fill:none;stroke:red;stroke-width:1px;stroke-linecap:butt;stroke-linejoin:miter;stroke-opacity:1" d="M 859.343,149.862 866.424,149.862 z" id="boundary" inkscape:connector-curvature="0" />
	<path style="fill:none;stroke:red;stroke-width:1px;stroke-linecap:butt;stroke-linejoin:miter;stroke-opacity:1" d="M 860.759,32.3226 867.84,32.3226 z" id="boundary" inkscape:connector-curvature="0" />
	<path style="fill:none;stroke:red;stroke-width:1px;stroke-linecap:butt;stroke-linejoin:miter;stroke-opacity:1" d="M 866.424,149.862 873.505,149.862 z" id="boundary" inkscape:connector-curvature="0" />
	<path style="fill:none;stroke:red;stroke-width:1px;stroke-linecap:butt;stroke-linejoin:miter;stroke-opacity:1" d="M 867.84,32.3226 874.921,32.3226 z" id="boundary" inkscape:connector-curvature="0" />
	<path style="fill:none;stroke:red;stroke-width:1px;stroke-linecap:butt;stroke-linejoin:miter;stroke-opacity:1" d="M 873.505,149.862 880.585,149.862 z" id="boundary" inkscape:connector-curvature="0" />
	<path style="fill:none;stroke:red;stroke-width:1px;stroke-linecap:butt;stroke-linejoin:miter;stroke-opacity:1" d="M 874.921,32.3226 882.001,32.3226 z" id="boundary" inkscape:connector-curvature="0" />
	<path style="fill:none;stroke:red;stroke-width:1px;stroke-linecap:butt;stroke-linejoin:miter;stroke-opacity:1" d="M 880.585,149.862 887.666,149.862 z" id="boundary" inkscape:connector-curvature="0" />
	<path style="fill:none;stroke:red;stroke-width:1px;stroke-linecap:butt;stroke-linejoin:miter;stroke-opacity:1" d="M 882.001,32.3226 889.082,32.3226 z" id="boundary" inkscape:connector-curvature="0" />
	<path style="fill:none;stroke:red;stroke-width:1px;stroke-linecap:butt;stroke-linejoin:miter;stroke-opacity:1" d="M 887.666,149.862 894.747,149.153 z" id="boundary" inkscape:connector-curvature="0" />
	<path style="fill:none;stroke:red;stroke-width:1px;stroke-linecap:butt;stroke-linejoin:miter;stroke-opacity:1" d="M 889.082,32.3226 896.163,32.3226 z" id="boundary" inkscape:connector-curvature="0" />
	<path style="fill:none;stroke:red;stroke-width:1px;stroke-linecap:butt;stroke-linejoin:miter;stroke-opacity:1" d="M 894.747,149.153 901.827,146.321 z" id="boundary" inkscape:connector-curvature="0" />
	<path style="fill:none;stroke:red;stroke-width:1px;stroke-linecap:butt;stroke-linejoin:miter;stroke-opacity:1" d="M 896.163,32.3226 903.243,32.3226 z" id="boundary" inkscape:connector-curvature="0" />
	<path style="fill:none;stroke:red;stroke-width:1px;stroke-linecap:butt;stroke-linejoin:miter;stroke-opacity:1" d="M 901.827,146.321 908.908,146.321 z" id="boundary" inkscape:connector-curvature="0" />
	<path style="fill:none;stroke:red;stroke-width:1px;stroke-linecap:butt;stroke-linejoin:miter;stroke-opacity:1" d="M 903.243,32.3226 910.324,32.3226 z" id="boundary" inkscape:connector-curvature="0" />
	<path style="fill:none;stroke:red;stroke-width:1px;stroke-linecap:butt;stroke-linejoin:miter;stroke-opacity:1" d="M 908.908,146.321 915.989,146.321 z" id="boundary" inkscape:connector-curvature="0" />
	<path style="fill:none;stroke:red;stroke-width:1px;stroke-linecap:butt;stroke-linejoin:miter;stroke-opacity:1" d="M 910.324,32.3226 917.405,32.3226 z" id="boundary" inkscape:connector-curvature="0" />
	<path style="fill:none;stroke:red;stroke-width:1px;stroke-linecap:butt;stroke-linejoin:miter;stroke-opacity:1" d="M 915.989,146.321 923.069,146.321 z" id="boundary" inkscape:connector-curvature="0" />
	<path style="fill:none;stroke:red;stroke-width:1px;stroke-linecap:butt;stroke-linejoin:miter;stroke-opacity:1" d="M 917.405,32.3226 924.485,32.3226 z" id="boundary" inkscape:connector-curvature="0" />
	<path style="fill:none;stroke:red;stroke-width:1px;stroke-linecap:butt;stroke-linejoin:miter;stroke-opacity:1" d="M 923.069,146.321 930.15,146.321 z" id="boundary" inkscape:connector-curvature="0" />
	<path style="fill:none;stroke:red;stroke-width:1px;stroke-linecap:butt;stroke-linejoin:miter;stroke-opacity:1" d="M 924.485,32.3226 931.566,33.7388 z" id="boundary" inkscape:connector-curvature="0" />
	<path style="fill:none;stroke:red;stroke-width:1px;stroke-linecap:butt;stroke-linejoin:miter;stroke-opacity:1" d="M 930.15,146.321 937.231,146.321 z" id="boundary" inkscape:connector-curvature="0" />
	<path style="fill:none;stroke:red;stroke-width:1px;stroke-linecap:butt;stroke-linejoin:miter;stroke-opacity:1" d="M 931.566,33.7388 938.647,35.863 z" id="boundary" inkscape:connector-curvature="0" />
	<path style="fill:none;stroke:red;stroke-width:1px;stroke-linecap:butt;stroke-linejoin:miter;stroke-opacity:1" d="M 937.231,146.321 944.311,145.613 z" id="boundary" inkscape:connector-curvature="0" />
	<path style="fill:none;stroke:red;stroke-width:1px;stroke-linecap:butt;stroke-linejoin:miter;stroke-opacity:1" d="M 938.647,35.863 945.727,35.863 z" id="boundary" inkscape:connector-curvature="0" />
	<path style="fill:none;stroke:red;stroke-width:1px;stroke-linecap:butt;stroke-linejoin:miter;stroke-opacity:1" d="M 944.311,145.613 951.392,142.781 z" id="boundary" inkscape:connector-curvature="0" />
	<path style="fill:none;stroke:red;stroke-width:1px;stroke-linecap:butt;stroke-linejoin:miter;stroke-opacity:1" d="M 945.727,35.863 952.808,35.863 z" id="boundary" inkscape:connector-curvature="0" />
	<path style="fill:none;stroke:red;stroke-width:1px;stroke-linecap:butt;stroke-linejoin:miter;stroke-opacity:1" d="M 951.392,142.781 958.473,142.781 z" id="boundary" inkscape:connector-curvature="0" />
	<path style="fill:none;stroke:red;stroke-width:1px;stroke-linecap:butt;stroke-linejoin:miter;stroke-opacity:1" d="M 952.808,35.863 959.889,37.2791 z" id="boundary" inkscape:connector-curvature="0" />
	<path style="fill:none;stroke:red;stroke-width:1px;stroke-linecap:butt;stroke-linejoin:miter;stroke-opacity:1" d="M 958.473,142.781 965.553,142.073 z" id="boundary" inkscape:connector-curvature="0" />
	<path style="fill:none;stroke:red;stroke-width:1px;stroke-linecap:butt;stroke-linejoin:miter;stroke-opacity:1" d="M 959.889,37.2791 966.969,39.4033 z" id="boundary" inkscape:connector-curvature="0" />
	<path style="fill:none;stroke:red;stroke-width:1px;stroke-linecap:butt;stroke-linejoin:miter;stroke-opacity:1" d="M 965.553,142.073 972.634,138.532 z" id="boundary" inkscape:connector-curvature="0" />
	<path style="fill:none;stroke:red;stroke-width:1px;stroke-linecap:butt;stroke-linejoin:miter;stroke-opacity:1" d="M 966.969,39.4033 974.05,40.8194 z" id="boundary" inkscape:connector-curvature="0" />
	<path style="fill:none;stroke:red;stroke-width:1px;stroke-linecap:butt;stroke-linejoin:miter;stroke-opacity:1" d="M 972.634,138.532 978.298,132.16 z" id="boundary" inkscape:connector-curvature="0" />
	<path style="fill:none;stroke:red;stroke-width:1px;stroke-linecap:butt;stroke-linejoin:miter;stroke-opacity:1" d="M 974.05,40.8194 980.423,44.3597 z" id="boundary" inkscape:connector-curvature="0" />
	<path style="fill:none;stroke:red;stroke-width:1px;stroke-linecap:butt;stroke-linejoin:miter;stroke-opacity:1" d="M 978.298,132.16 988.919,117.999 z" id="boundary" inkscape:connector-curvature="0" />
	<path style="fill:none;stroke:red;stroke-width:1px;stroke-linecap:butt;stroke-linejoin:miter;stroke-opacity:1" d="M 980.423,44.3597 985.379,50.0243 z" id="boundary" inkscape:connector-curvature="0" />
	<path style="fill:none;stroke:red;stroke-width:1px;stroke-linecap:butt;stroke-linejoin:miter;stroke-opacity:1" d="M 985.379,50.0243 991.044,54.2727 z" id="boundary" inkscape:connector-curvature="0" />
	<path style="fill:none;stroke:red;stroke-width:1px;stroke-linecap:butt;stroke-linejoin:miter;stroke-opacity:1" d="M 988.919,117.999 992.46,107.378 z" id="boundary" inkscape:connector-curvature="0" />
	<path style="fill:none;stroke:red;stroke-width:1px;stroke-linecap:butt;stroke-linejoin:miter;stroke-opacity:1" d="M 991.044,54.2727 993.876,61.3533 z" id="boundary" inkscape:connector-curvature="0" />
	<path style="fill:none;stroke:red;stroke-width:1px;stroke-linecap:butt;stroke-linejoin:miter;stroke-opacity:1" d="M 992.46,107.378 996,89.6759 z" id="boundary" inkscape:connector-curvature="0" />
	<path style="fill:none;stroke:red;stroke-width:1px;stroke-linecap:butt;stroke-linejoin:miter;stroke-opacity:1" d="M 993.876,61.3533 996,68.434 z" id="boundary" inkscape:connector-curvature="0" />
	<path style="fill:none;stroke:red;stroke-width:1px;stroke-linecap:butt;stroke-linejoin:miter;stroke-opacity:1" d="M 996,68.434 996,75.5146 z" id="boundary" inkscape:connector-curvature="0" />
	<path style="fill:none;stroke:red;stroke-width:1px;stroke-linecap:butt;stroke-linejoin:miter;stroke-opacity:1" d="M 996,75.5146 996,82.5953 z" id="boundary" inkscape:connector-curvature="0" />
	<path style="fill:none;stroke:red;stroke-width:1px;stroke-linecap:butt;stroke-linejoin:miter;stroke-opacity:1" d="M 996,82.5953 996,89.6759 z" id="boundary" inkscape:connector-curvature="0" />
	<circle cx="4" cy="94.6324" r="4" fill="#0" id="circle0"/>
	<circle cx="4" cy="101.713" r="4" fill="#0" id="circle1"/>
	<circle cx="7.54033" cy="62.7695" r="4" fill="#0" id="circle2"/>
	<circle cx="7.54033" cy="69.8501" r="4" fill="#0" id="circle3"/>
	<circle cx="7.54033" cy="76.9308" r="4" fill="#0" id="circle4"/>
	<circle cx="7.54033" cy="84.0114" r="4" fill="#0" id="circle5"/>
	<circle cx="7.54033" cy="108.086" r="4" fill="#0" id="circle6"/>
	<circle cx="7.54033" cy="115.166" r="4" fill="#0" id="circle7"/>
	<circle cx="7.54033" cy="122.247" r="4" fill="#0" id="circle8"/>
	<circle cx="11.0807" cy="55.6888" r="4" fill="#0" id="circle9"/>
	<circle cx="11.0807" cy="128.62" r="4" fill="#0" id="circle10"/>
	<circle cx="11.0807" cy="135.7" r="4" fill="#0" id="circle11"/>
	<circle cx="11.0807" cy="142.781" r="4" fill="#0" id="circle12"/>
	<circle cx="14.621" cy="48.6081" r="4" fill="#0" id="circle13"/>
	<circle cx="14.621" cy="149.153" r="4" fill="#0" id="circle14"/>
	<circle cx="18.1613" cy="41.5275" r="4" fill="#0" id="circle15"/>
	<circle cx="18.8694" cy="154.818" r="4" fill="#0" id="circle16"/>
	<circle cx="23.8258" cy="35.863" r="4" fill="#0" id="circle17"/>
	<circle cx="23.8258" cy="160.483" r="4" fill="#0" id="circle18"/>
	<circle cx="29.4904" cy="30.1984" r="4" fill="#0" id="circle19"/>
	<circle cx="29.4904" cy="165.439" r="4" fill="#0" id="circle20"/>
	<circle cx="34.4468" cy="171.103" r="4" fill="#0" id="circle21"/>
	<circle cx="36.571" cy="26.6581" r="4" fill="#0" id="circle22"/>
	<circle cx="41.5275" cy="173.936" r="4" fill="#0" id="circle23"/>
	<circle cx="43.6517" cy="23.1178" r="4" fill="#0" id="circle24"/>
	<circle cx="48.6081" cy="174.644" r="4" fill="#0" id="circle25"/>
	<circle cx="50.7323" cy="21.7016" r="4" fill="#0" id="circle26"/>
	<circle cx="55.6888" cy="174.644" r="4" fill="#0" id="circle27"/>
	<circle cx="57.1049" cy="18.1613" r="4" fill="#0" id="circle28"/>
	<circle cx="62.7695" cy="174.644" r="4" fill="#0" id="circle29"/>
	<circle cx="64.1856" cy="18.1613" r="4" fill="#0" id="circle30"/>
	<circle cx="69.8501" cy="174.644" r="4" fill="#0" id="circle31"/>
	<circle cx="71.2662" cy="18.1613" r="4" fill="#0" id="circle32"/>
	<circle cx="76.9308" cy="174.644" r="4" fill="#0" id="circle33"/>
	<circle cx="78.3469" cy="18.1613" r="4" fill="#0" id="circle34"/>
	<circle cx="84.0114" cy="174.644" r="4" fill="#0" id="circle35"/>
	<circle cx="85.4276" cy="18.1613" r="4" fill="#0" id="circle36"/>
	<circle cx="91.0921" cy="174.644" r="4" fill="#0" id="circle37"/>
	<circle cx="92.5082" cy="16.7452" r="4" fill="#0" id="circle38"/>
	<circle cx="97.4647" cy="178.184" r="4" fill="#0" id="circle39"/>
	<circle cx="99.5889" cy="13.2049" r="4" fill="#0" id="circle40"/>
	<circle cx="103.837" cy="181.724" r="4" fill="#0" id="circle41"/>
	<circle cx="105.253" cy="7.54033" r="4" fill="#0" id="circle42"/>
	<circle cx="110.21" cy="185.265" r="4" fill="#0" id="circle43"/>
	<circle cx="112.334" cy="4" r="4" fill="#0" id="circle44"/>
	<circle cx="116.582" cy="188.805" r="4" fill="#0" id="circle45"/>
	<circle cx="119.415" cy="4" r="4" fill="#0" id="circle46"/>
	<circle cx="123.663" cy="188.805" r="4" fill="#0" id="circle47"/>
	<circle cx="126.495" cy="4" r="4" fill="#0" id="circle48"/>
	<circle cx="130.036" cy="192.345" r="4" fill="#0" id="circle49"/>
	<circle cx="133.576" cy="4" r="4" fill="#0" id="circle50"/>
	<circle cx="137.116" cy="192.345" r="4" fill="#0" id="circle51"/>
	<circle cx="140.657" cy="4" r="4" fill="#0" id="circle52"/>
	<circle cx="144.197" cy="192.345" r="4" fill="#0" id="circle53"/>
	<circle cx="147.737" cy="4" r="4" fill="#0" id="circle54"/>
	<circle cx="151.278" cy="192.345" r="4" fill="#0" id="circle55"/>
	<circle cx="154.818" cy="4" r="4" fill="#0" id="circle56"/>
	<circle cx="157.65" cy="188.805" r="4" fill="#0" id="circle57"/>
	<circle cx="161.899" cy="4" r="4" fill="#0" id="circle58"/>
	<circle cx="164.731" cy="188.805" r="4" fill="#0" id="circle59"/>
	<circle cx="168.271" cy="7.54033" r="4" fill="#0" id="circle60"/>
	<circle cx="170.395" cy="183.141" r="4" fill="#0" id="circle61"/>
	<circle cx="174.644" cy="11.0807" r="4" fill="#0" id="circle62"/>
	<circle cx="177.476" cy="181.724" r="4" fill="#0" id="circle63"/>
	<circle cx="180.308" cy="15.3291" r="4" fill="#0" id="circle64"/>
	<circle cx="184.557" cy="179.6" r="4" fill="#0" id="circle65"/>
	<circle cx="186.681" cy="18.8694" r="4" fill="#0" id="circle66"/>
	<circle cx="191.637" cy="178.184" r="4" fill="#0" id="circle67"/>
	<circle cx="193.762" cy="21.7016" r="4" fill="#0" id="circle68"/>
	<circle cx="198.718" cy="178.184" r="4" fill="#0" id="circle69"/>
	<circle cx="200.842" cy="21.7016" r="4" fill="#0" id="circle70"/>
	<circle cx="205.799" cy="178.184" r="4" fill="#0" id="circle71"/>
	<circle cx="207.923" cy="21.7016" r="4" fill="#0" id="circle72"/>
	<circle cx="212.879" cy="178.184" r="4" fill="#0" id="circle73"/>
	<circle cx="215.004" cy="21.7016" r="4" fill="#0" id="circle74"/>
	<circle cx="219.96" cy="178.184" r="4" fill="#0" id="circle75"/>
	<circle cx="222.084" cy="21.7016" r="4" fill="#0" id="circle76"/>
	<circle cx="226.333" cy="181.724" r="4" fill="#0" id="circle77"/>
	<circle cx="229.165" cy="21.7016" r="4" fill="#0" id="circle78"/>
	<circle cx="233.413" cy="180.308" r="4" fill="#0" id="circle79"/>
	<circle cx="236.246" cy="21.7016" r="4" fill="#0" id="circle80"/>
	<circle cx="240.494" cy="178.184" r="4" fill="#0" id="circle81"/>
	<circle cx="243.326" cy="21.7016" r="4" fill="#0" id="circle82"/>
	<circle cx="247.575" cy="178.184" r="4" fill="#0" id="circle83"/>
	<circle cx="250.407" cy="21.7016" r="4" fill="#0" id="circle84"/>
	<circle cx="254.655" cy="178.184" r="4" fill="#0" id="circle85"/>
	<circle cx="257.488" cy="21.7016" r="4" fill="#0" id="circle86"/>
	<circle cx="261.736" cy="178.184" r="4" fill="#0" id="circle87"/>
	<circle cx="264.568" cy="21.7016" r="4" fill="#0" id="circle88"/>
	<circle cx="268.817" cy="178.184" r="4" fill="#0" id="circle89"/>
	<circle cx="271.649" cy="21.7016" r="4" fill="#0" id="circle90"/>
	<circle cx="275.897" cy="178.184" r="4" fill="#0" id="circle91"/>
	<circle cx="278.729" cy="21.7016" r="4" fill="#0" id="circle92"/>
	<circle cx="282.978" cy="178.184" r="4" fill="#0" id="circle93"/>
	<circle cx="285.81" cy="21.7016" r="4" fill="#0" id="circle94"/>
	<circle cx="290.059" cy="178.184" r="4" fill="#0" id="circle95"/>
	<circle cx="292.891" cy="21.7016" r="4" fill="#0" id="circle96"/>
	<circle cx="297.139" cy="178.184" r="4" fill="#0" id="circle97"/>
	<circle cx="299.971" cy="21.7016" r="4" fill="#0" id="circle98"/>
	<circle cx="304.22" cy="178.184" r="4" fill="#0" id="circle99"/>
	<circle cx="307.052" cy="21.7016" r="4" fill="#0" id="circle100"/>
	<circle cx="311.3" cy="178.184" r="4" fill="#0" id="circle101"/>
	<circle cx="314.133" cy="21.7016" r="4" fill="#0" id="circle102"/>
	<circle cx="318.381" cy="178.184" r="4" fill="#0" id="circle103"/>
	<circle cx="321.213" cy="21.7016" r="4" fill="#0" id="circle104"/>
	<circle cx="325.462" cy="178.184" r="4" fill="#0" id="circle105"/>
	<circle cx="328.294" cy="21.7016" r="4" fill="#0" id="circle106"/>
	<circle cx="332.542" cy="178.184" r="4" fill="#0" id="circle107"/>
	<circle cx="335.375" cy="21.7016" r="4" fill="#0" id="circle108"/>
	<circle cx="339.623" cy="178.184" r="4" fill="#0" id="circle109"/>
	<circle cx="342.455" cy="21.7016" r="4" fill="#0" id="circle110"/>
	<circle cx="346.704" cy="178.184" r="4" fill="#0" id="circle111"/>
	<circle cx="349.536" cy="21.7016" r="4" fill="#0" id="circle112"/>
	<circle cx="353.784" cy="178.184" r="4" fill="#0" id="circle113"/>
	<circle cx="356.617" cy="21.7016" r="4" fill="#0" id="circle114"/>
	<circle cx="360.865" cy="178.184" r="4" fill="#0" id="circle115"/>
	<circle cx="363.697" cy="21.7016" r="4" fill="#0" id="circle116"/>
	<circle cx="367.946" cy="178.184" r="4" fill="#0" id="circle117"/>
	<circle cx="370.778" cy="21.7016" r="4" fill="#0" id="circle118"/>
	<circle cx="375.026" cy="178.184" r="4" fill="#0" id="circle119"/>
	<circle cx="377.859" cy="21.7016" r="4" fill="#0" id="circle120"/>
	<circle cx="382.107" cy="178.184" r="4" fill="#0" id="circle121"/>
	<circle cx="384.939" cy="21.7016" r="4" fill="#0" id="circle122"/>
	<circle cx="389.188" cy="178.184" r="4" fill="#0" id="circle123"/>
	<circle cx="392.02" cy="21.7016" r="4" fill="#0" id="circle124"/>
	<circle cx="396.268" cy="178.184" r="4" fill="#0" id="circle125"/>
	<circle cx="399.101" cy="21.7016" r="4" fill="#0" id="circle126"/>
	<circle cx="403.349" cy="178.184" r="4" fill="#0" id="circle127"/>
	<circle cx="406.181" cy="21.7016" r="4" fill="#0" id="circle128"/>
	<circle cx="410.43" cy="178.184" r="4" fill="#0" id="circle129"/>
	<circle cx="413.262" cy="21.7016" r="4" fill="#0" id="circle130"/>
	<circle cx="417.51" cy="178.184" r="4" fill="#0" id="circle131"/>
	<circle cx="420.343" cy="21.7016" r="4" fill="#0" id="circle132"/>
	<circle cx="423.883" cy="174.644" r="4" fill="#0" id="circle133"/>
	<circle cx="427.423" cy="21.7016" r="4" fill="#0" id="circle134"/>
	<circle cx="430.964" cy="174.644" r="4" fill="#0" id="circle135"/>
	<circle cx="434.504" cy="21.7016" r="4" fill="#0" id="circle136"/>
	<circle cx="438.044" cy="174.644" r="4" fill="#0" id="circle137"/>
	<circle cx="441.585" cy="21.7016" r="4" fill="#0" id="circle138"/>
	<circle cx="445.125" cy="174.644" r="4" fill="#0" id="circle139"/>
	<circle cx="447.957" cy="25.242" r="4" fill="#0" id="circle140"/>
	<circle cx="451.498" cy="171.103" r="4" fill="#0" id="circle141"/>
	<circle cx="454.33" cy="28.7823" r="4" fill="#0" id="circle142"/>
	<circle cx="457.87" cy="167.563" r="4" fill="#0" id="circle143"/>
	<circle cx="461.41" cy="28.7823" r="4" fill="#0" id="circle144"/>
	<circle cx="464.951" cy="164.023" r="4" fill="#0" id="circle145"/>
	<circle cx="468.491" cy="28.7823" r="4" fill="#0" id="circle146"/>
	<circle cx="472.031" cy="164.023" r="4" fill="#0" id="circle147"/>
	<circle cx="475.572" cy="28.7823" r="4" fill="#0" id="circle148"/>
	<circle cx="479.112" cy="164.023" r="4" fill="#0" id="circle149"/>
	<circle cx="482.652" cy="28.7823" r="4" fill="#0" id="circle150"/>
	<circle cx="486.193" cy="164.023" r="4" fill="#0" id="circle151"/>
	<circle cx="489.733" cy="28.7823" r="4" fill="#0" id="circle152"/>
	<circle cx="493.273" cy="164.023" r="4" fill="#0" id="circle153"/>
	<circle cx="496.106" cy="32.3226" r="4" fill="#0" id="circle154"/>
	<circle cx="500.354" cy="164.023" r="4" fill="#0" id="circle155"/>
	<circle cx="503.186" cy="32.3226" r="4" fill="#0" id="circle156"/>
	<circle cx="507.435" cy="164.023" r="4" fill="#0" id="circle157"/>
	<circle cx="510.267" cy="30.9065" r="4" fill="#0" id="circle158"/>
	<circle cx="514.515" cy="160.483" r="4" fill="#0" id="circle159"/>
	<circle cx="517.348" cy="28.7823" r="4" fill="#0" id="circle160"/>
	<circle cx="521.596" cy="160.483" r="4" fill="#0" id="circle161"/>
	<circle cx="524.428" cy="28.7823" r="4" fill="#0" id="circle162"/>
	<circle cx="528.677" cy="160.483" r="4" fill="#0" id="circle163"/>
	<circle cx="531.509" cy="28.7823" r="4" fill="#0" id="circle164"/>
	<circle cx="535.757" cy="160.483" r="4" fill="#0" id="circle165"/>
	<circle cx="538.59" cy="28.7823" r="4" fill="#0" id="circle166"/>
	<circle cx="542.838" cy="160.483" r="4" fill="#0" id="circle167"/>
	<circle cx="545.67" cy="28.7823" r="4" fill="#0" id="circle168"/>
	<circle cx="549.919" cy="160.483" r="4" fill="#0" id="circle169"/>
	<circle cx="552.751" cy="28.7823" r="4" fill="#0" id="circle170"/>
	<circle cx="556.999" cy="160.483" r="4" fill="#0" id="circle171"/>
	<circle cx="559.832" cy="28.7823" r="4" fill="#0" id="circle172"/>
	<circle cx="564.08" cy="160.483" r="4" fill="#0" id="circle173"/>
	<circle cx="566.912" cy="28.7823" r="4" fill="#0" id="circle174"/>
	<circle cx="571.161" cy="160.483" r="4" fill="#0" id="circle175"/>
	<circle cx="573.993" cy="28.7823" r="4" fill="#0" id="circle176"/>
	<circle cx="578.241" cy="160.483" r="4" fill="#0" id="circle177"/>
	<circle cx="581.074" cy="28.7823" r="4" fill="#0" id="circle178"/>
	<circle cx="585.322" cy="160.483" r="4" fill="#0" id="circle179"/>
	<circle cx="588.154" cy="28.7823" r="4" fill="#0" id="circle180"/>
	<circle cx="592.403" cy="160.483" r="4" fill="#0" id="circle181"/>
	<circle cx="595.235" cy="28.7823" r="4" fill="#0" id="circle182"/>
	<circle cx="599.483" cy="160.483" r="4" fill="#0" id="circle183"/>
	<circle cx="601.607" cy="32.3226" r="4" fill="#0" id="circle184"/>
	<circle cx="606.564" cy="160.483" r="4" fill="#0" id="circle185"/>
	<circle cx="608.688" cy="32.3226" r="4" fill="#0" id="circle186"/>
	<circle cx="613.645" cy="160.483" r="4" fill="#0" id="circle187"/>
	<circle cx="615.061" cy="28.7823" r="4" fill="#0" id="circle188"/>
	<circle cx="620.725" cy="160.483" r="4" fill="#0" id="circle189"/>
	<circle cx="622.141" cy="28.7823" r="4" fill="#0" id="circle190"/>
	<circle cx="627.806" cy="160.483" r="4" fill="#0" id="circle191"/>
	<circle cx="629.222" cy="28.7823" r="4" fill="#0" id="circle192"/>
	<circle cx="634.887" cy="160.483" r="4" fill="#0" id="circle193"/>
	<circle cx="636.303" cy="28.7823" r="4" fill="#0" id="circle194"/>
	<circle cx="641.967" cy="160.483" r="4" fill="#0" id="circle195"/>
	<circle cx="642.675" cy="32.3226" r="4" fill="#0" id="circle196"/>
	<circle cx="649.048" cy="160.483" r="4" fill="#0" id="circle197"/>
	<circle cx="649.756" cy="32.3226" r="4" fill="#0" id="circle198"/>
	<circle cx="655.42" cy="156.942" r="4" fill="#0" id="circle199"/>
	<circle cx="656.128" cy="28.7823" r="4" fill="#0" id="circle200"/>
	<circle cx="662.501" cy="156.942" r="4" fill="#0" id="circle201"/>
	<circle cx="663.209" cy="28.7823" r="4" fill="#0" id="circle202"/>
	<circle cx="669.582" cy="156.942" r="4" fill="#0" id="circle203"/>
	<circle cx="670.29" cy="28.7823" r="4" fill="#0" id="circle204"/>
	<circle cx="676.662" cy="156.942" r="4" fill="#0" id="circle205"/>
	<circle cx="677.37" cy="28.7823" r="4" fill="#0" id="circle206"/>
	<circle cx="683.743" cy="156.942" r="4" fill="#0" id="circle207"/>
	<circle cx="684.451" cy="28.7823" r="4" fill="#0" id="circle208"/>
	<circle cx="690.824" cy="156.942" r="4" fill="#0" id="circle209"/>
	<circle cx="691.532" cy="28.7823" r="4" fill="#0" id="circle210"/>
	<circle cx="697.904" cy="156.942" r="4" fill="#0" id="circle211"/>
	<circle cx="698.612" cy="28.7823" r="4" fill="#0" id="circle212"/>
	<circle cx="704.985" cy="156.942" r="4" fill="#0" id="circle213"/>
	<circle cx="705.693" cy="28.7823" r="4" fill="#0" id="circle214"/>
	<circle cx="712.066" cy="156.942" r="4" fill="#0" id="circle215"/>
	<circle cx="712.774" cy="28.7823" r="4" fill="#0" id="circle216"/>
	<circle cx="719.146" cy="156.942" r="4" fill="#0" id="circle217"/>
	<circle cx="719.854" cy="28.7823" r="4" fill="#0" id="circle218"/>
	<circle cx="726.227" cy="156.942" r="4" fill="#0" id="circle219"/>
	<circle cx="726.935" cy="30.9065" r="4" fill="#0" id="circle220"/>
	<circle cx="733.308" cy="156.942" r="4" fill="#0" id="circle221"/>
	<circle cx="734.016" cy="32.3226" r="4" fill="#0" id="circle222"/>
	<circle cx="740.388" cy="28.7823" r="4" fill="#0" id="circle223"/>
	<circle cx="740.388" cy="156.942" r="4" fill="#0" id="circle224"/>
	<circle cx="747.469" cy="28.7823" r="4" fill="#0" id="circle225"/>
	<circle cx="747.469" cy="156.942" r="4" fill="#0" id="circle226"/>
	<circle cx="754.55" cy="28.7823" r="4" fill="#0" id="circle227"/>
	<circle cx="754.55" cy="156.942" r="4" fill="#0" id="circle228"/>
	<circle cx="761.63" cy="30.1984" r="4" fill="#0" id="circle229"/>
	<circle cx="761.63" cy="156.942" r="4" fill="#0" id="circle230"/>
	<circle cx="768.711" cy="32.3226" r="4" fill="#0" id="circle231"/>
	<circle cx="768.711" cy="154.818" r="4" fill="#0" id="circle232"/>
	<circle cx="775.792" cy="32.3226" r="4" fill="#0" id="circle233"/>
	<circle cx="775.792" cy="153.402" r="4" fill="#0" id="circle234"/>
	<circle cx="782.872" cy="32.3226" r="4" fill="#0" id="circle235"/>
	<circle cx="782.872" cy="153.402" r="4" fill="#0" id="circle236"/>
	<circle cx="789.245" cy="156.942" r="4" fill="#0" id="circle237"/>
	<circle cx="789.953" cy="32.3226" r="4" fill="#0" id="circle238"/>
	<circle cx="795.617" cy="153.402" r="4" fill="#0" id="circle239"/>
	<circle cx="797.034" cy="32.3226" r="4" fill="#0" id="circle240"/>
	<circle cx="802.698" cy="153.402" r="4" fill="#0" id="circle241"/>
	<circle cx="804.114" cy="32.3226" r="4" fill="#0" id="circle242"/>
	<circle cx="809.779" cy="153.402" r="4" fill="#0" id="circle243"/>
	<circle cx="811.195" cy="32.3226" r="4" fill="#0" id="circle244"/>
	<circle cx="816.859" cy="153.402" r="4" fill="#0" id="circle245"/>
	<circle cx="818.276" cy="32.3226" r="4" fill="#0" id="circle246"/>
	<circle cx="823.94" cy="153.402" r="4" fill="#0" id="circle247"/>
	<circle cx="825.356" cy="32.3226" r="4" fill="#0" id="circle248"/>
	<circle cx="831.021" cy="153.402" r="4" fill="#0" id="circle249"/>
	<circle cx="832.437" cy="32.3226" r="4" fill="#0" id="circle250"/>
	<circle cx="838.101" cy="153.402" r="4" fill="#0" id="circle251"/>
	<circle cx="839.517" cy="32.3226" r="4" fill="#0" id="circle252"/>
	<circle cx="845.182" cy="152.694" r="4" fill="#0" id="circle253"/>
	<circle cx="846.598" cy="32.3226" r="4" fill="#0" id="circle254"/>
	<circle cx="852.263" cy="149.862" r="4" fill="#0" id="circle255"/>
	<circle cx="853.679" cy="32.3226" r="4" fill="#0" id="circle256"/>
	<circle cx="859.343" cy="149.862" r="4" fill="#0" id="circle257"/>
	<circle cx="860.759" cy="32.3226" r="4" fill="#0" id="circle258"/>
	<circle cx="866.424" cy="149.862" r="4" fill="#0" id="circle259"/>
	<circle cx="867.84" cy="32.3226" r="4" fill="#0" id="circle260"/>
	<circle cx="873.505" cy="149.862" r="4" fill="#0" id="circle261"/>
	<circle cx="874.921" cy="32.3226" r="4" fill="#0" id="circle262"/>
	<circle cx="880.585" cy="149.862" r="4" fill="#0" id="circle263"/>
	<circle cx="882.001" cy="32.3226" r="4" fill="#0" id="circle264"/>
	<circle cx="887.666" cy="149.862" r="4" fill="#0" id="circle265"/>
	<circle cx="889.082" cy="32.3226" r="4" fill="#0" id="circle266"/>
	<circle cx="894.747" cy="149.153" r="4" fill="#0" id="circle267"/>
	<circle cx="896.163" cy="32.3226" r="4" fill="#0" id="circle268"/>
	<circle cx="901.827" cy="146.321" r="4" fill="#0" id="circle269"/>
	<circle cx="903.243" cy="32.3226" r="4" fill="#0" id="circle270"/>
	<circle cx="908.908" cy="146.321" r="4" fill="#0" id="circle271"/>
	<circle cx="910.324" cy="32.3226" r="4" fill="#0" id="circle272"/>
	<circle cx="915.989" cy="146.321" r="4" fill="#0" id="circle273"/>
	<circle cx="917.405" cy="32.3226" r="4" fill="#0" id="circle274"/>
	<circle cx="923.069" cy="146.321" r="4" fill="#0" id="circle275"/>
	<circle cx="924.485" cy="32.3226" r="4" fill="#0" id="circle276"/>
	<circle cx="930.15" cy="146.321" r="4" fill="#0" id="circle277"/>
	<circle cx="931.566" cy="33.7388" r="4" fill="#0" id="circle278"/>
	<circle cx="937.231" cy="146.321" r="4" fill="#0" id="circle279"/>
	<circle cx="938.647" cy="35.863" r="4" fill="#0" id="circle280"/>
	<circle cx="944.311" cy="145.613" r="4" fill="#0" id="circle281"/>
	<circle cx="945.727" cy="35.863" r="4" fill="#0" id="circle282"/>
	<circle cx="951.392" cy="142.781" r="4" fill="#0" id="circle283"/>
	<circle cx="952.808" cy="35.863" r="4" fill="#0" id="circle284"/>
	<circle cx="958.473" cy="142.781" r="4" fill="#0" id="circle285"/>
	<circle cx="959.889" cy="37.2791" r="4" fill="#0" id="circle286"/>
	<circle cx="965.553" cy="142.073" r="4" fill="#0" id="circle287"/>
	<circle cx="966.969" cy="39.4033" r="4" fill="#0" id="circle288"/>
	<circle cx="972.634" cy="138.532" r="4" fill="#0" id="circle289"/>
	<circle cx="974.05" cy="40.8194" r="4" fill="#0" id="circle290"/>
	<circle cx="978.298" cy="132.16" r="4" fill="#0" id="circle291"/>
	<circle cx="980.423" cy="44.3597" r="4" fill="#0" id="circle292"/>
	<circle cx="983.963" cy="127.203" r="4" fill="#0" id="circle293"/>
	<circle cx="985.379" cy="50.0243" r="4" fill="#0" id="circle294"/>
	<circle cx="988.919" cy="117.999" r="4" fill="#0" id="circle295"/>
	<circle cx="991.044" cy="54.2727" r="4" fill="#0" id="circle296"/>
	<circle cx="992.46" cy="107.378" r="4" fill="#0" id="circle297"/>
	<circle cx="993.876" cy="61.3533" r="4" fill="#0" id="circle298"/>
	<circle cx="996" cy="68.434" r="4" fill="#0" id="circle299"/>
	<circle cx="996" cy="75.5146" r="4" fill="#0" id="circle300"/>
	<circle cx="996" cy="82.5953" r="4" fill="#0" id="circle301"/>
	<circle cx="996" cy="89.6759" r="4" fill="#0" id="circle302"/>
	<circle cx="996" cy="96.7566" r="4" fill="#0" id="circle303"/>
	</g>
</svg>