<?xml version="1.0" encoding="UTF-8" standalone="no"?>
<!-- Created with CurveBenchmark -->
<svg
	xmlns:dc="http://purl.org/dc/elements/1.1/"
	xmlns:cc="http://creativecommons.org/ns#"
	xmlns:rdf="http://www.w3.org/1999/02/22-rdf-syntax-ns#"
	xmlns:svg="http://www.w3.org/2000/svg"
	xmlns="http://www.w3.org/2000/svg"
	xmlns:sodipodi="http://sodipodi.sourceforge.net/DTD/sodipodi-0.dtd"
	xmlns:inkscape="http://www.inkscape.org/namespaces/inkscape"
	width="1000"
	height="1000"
	id="svg2"
	version="1.1"
	sodipodi:docname="manifold/discur-stef20.png.txt">
<defs
	id="defs4" />
<metadata
	id="metadata7">
	<rdf:RDF>
		<cc:Work
			rdf:about="">
			<dc:format>image/svg+xml</dc:format>
			<dc:type
				rdf:resource="http://purl.org/dc/dcmitype/StillImage" />
			<dc:title></dc:title>
		</cc:Work>
	</rdf:RDF>
</metadata>
<g
	inkscape:label="Layer 1"
	inkscape:groupmode="layer"
	id="layer1">
	<path style="fill:none;stroke:red;stroke-width:1px;stroke-linecap:butt;stroke-linejoin:miter;stroke-opacity:1" d="M 4,930.798 15.6432,907.512 z" id="boundary" inkscape:connector-curvature="0" />
	<path style="fill:none;stroke:red;stroke-width:1px;stroke-linecap:butt;stroke-linejoin:miter;stroke-opacity:1" d="M 4,930.798 22.6291,947.099 z" id="boundary" inkscape:connector-curvature="0" />
	<path style="fill:none;stroke:red;stroke-width:1px;stroke-linecap:butt;stroke-linejoin:miter;stroke-opacity:1" d="M 15.6432,907.512 27.2864,884.225 z" id="boundary" inkscape:connector-curvature="0" />
	<path style="fill:none;stroke:red;stroke-width:1px;stroke-linecap:butt;stroke-linejoin:miter;stroke-opacity:1" d="M 22.6291,947.099 31.9437,970.385 z" id="boundary" inkscape:connector-curvature="0" />
	<path style="fill:none;stroke:red;stroke-width:1px;stroke-linecap:butt;stroke-linejoin:miter;stroke-opacity:1" d="M 27.2864,884.225 50.5728,872.582 z" id="boundary" inkscape:connector-curvature="0" />
	<path style="fill:none;stroke:red;stroke-width:1px;stroke-linecap:butt;stroke-linejoin:miter;stroke-opacity:1" d="M 31.9437,970.385 55.23,972.714 z" id="boundary" inkscape:connector-curvature="0" />
	<path style="fill:none;stroke:red;stroke-width:1px;stroke-linecap:butt;stroke-linejoin:miter;stroke-opacity:1" d="M 50.5728,872.582 69.2019,853.953 z" id="boundary" inkscape:connector-curvature="0" />
	<path style="fill:none;stroke:red;stroke-width:1px;stroke-linecap:butt;stroke-linejoin:miter;stroke-opacity:1" d="M 55.23,972.714 76.1878,984.357 z" id="boundary" inkscape:connector-curvature="0" />
	<path style="fill:none;stroke:red;stroke-width:1px;stroke-linecap:butt;stroke-linejoin:miter;stroke-opacity:1" d="M 69.2019,853.953 85.5023,826.009 z" id="boundary" inkscape:connector-curvature="0" />
	<path style="fill:none;stroke:red;stroke-width:1px;stroke-linecap:butt;stroke-linejoin:miter;stroke-opacity:1" d="M 73.8592,57.5587 73.8592,80.8451 z" id="boundary" inkscape:connector-curvature="0" />
	<path style="fill:none;stroke:red;stroke-width:1px;stroke-linecap:butt;stroke-linejoin:miter;stroke-opacity:1" d="M 73.8592,57.5587 85.5023,34.2723 z" id="boundary" inkscape:connector-curvature="0" />
	<path style="fill:none;stroke:red;stroke-width:1px;stroke-linecap:butt;stroke-linejoin:miter;stroke-opacity:1" d="M 73.8592,80.8451 85.5023,101.803 z" id="boundary" inkscape:connector-curvature="0" />
	<path style="fill:none;stroke:red;stroke-width:1px;stroke-linecap:butt;stroke-linejoin:miter;stroke-opacity:1" d="M 76.1878,984.357 99.4742,989.014 z" id="boundary" inkscape:connector-curvature="0" />
	<path style="fill:none;stroke:red;stroke-width:1px;stroke-linecap:butt;stroke-linejoin:miter;stroke-opacity:1" d="M 85.5023,34.2723 104.131,15.6432 z" id="boundary" inkscape:connector-curvature="0" />
	<path style="fill:none;stroke:red;stroke-width:1px;stroke-linecap:butt;stroke-linejoin:miter;stroke-opacity:1" d="M 85.5023,101.803 97.1455,122.761 z" id="boundary" inkscape:connector-curvature="0" />
	<path style="fill:none;stroke:red;stroke-width:1px;stroke-linecap:butt;stroke-linejoin:miter;stroke-opacity:1" d="M 85.5023,826.009 104.131,807.38 z" id="boundary" inkscape:connector-curvature="0" />
	<path style="fill:none;stroke:red;stroke-width:1px;stroke-linecap:butt;stroke-linejoin:miter;stroke-opacity:1" d="M 97.1455,122.761 111.117,141.39 z" id="boundary" inkscape:connector-curvature="0" />
	<path style="fill:none;stroke:red;stroke-width:1px;stroke-linecap:butt;stroke-linejoin:miter;stroke-opacity:1" d="M 99.4742,989.014 122.761,996 z" id="boundary" inkscape:connector-curvature="0" />
	<path style="fill:none;stroke:red;stroke-width:1px;stroke-linecap:butt;stroke-linejoin:miter;stroke-opacity:1" d="M 104.131,15.6432 125.089,4 z" id="boundary" inkscape:connector-curvature="0" />
	<path style="fill:none;stroke:red;stroke-width:1px;stroke-linecap:butt;stroke-linejoin:miter;stroke-opacity:1" d="M 104.131,807.38 115.775,784.094 z" id="boundary" inkscape:connector-curvature="0" />
	<path style="fill:none;stroke:red;stroke-width:1px;stroke-linecap:butt;stroke-linejoin:miter;stroke-opacity:1" d="M 111.117,141.39 122.761,162.347 z" id="boundary" inkscape:connector-curvature="0" />
	<path style="fill:none;stroke:red;stroke-width:1px;stroke-linecap:butt;stroke-linejoin:miter;stroke-opacity:1" d="M 115.775,784.094 134.404,765.465 z" id="boundary" inkscape:connector-curvature="0" />
	<path style="fill:none;stroke:red;stroke-width:1px;stroke-linecap:butt;stroke-linejoin:miter;stroke-opacity:1" d="M 122.761,162.347 132.075,197.277 z" id="boundary" inkscape:connector-curvature="0" />
	<path style="fill:none;stroke:red;stroke-width:1px;stroke-linecap:butt;stroke-linejoin:miter;stroke-opacity:1" d="M 122.761,996 146.047,996 z" id="boundary" inkscape:connector-curvature="0" />
	<path style="fill:none;stroke:red;stroke-width:1px;stroke-linecap:butt;stroke-linejoin:miter;stroke-opacity:1" d="M 125.089,4 146.047,15.6432 z" id="boundary" inkscape:connector-curvature="0" />
	<path style="fill:none;stroke:red;stroke-width:1px;stroke-linecap:butt;stroke-linejoin:miter;stroke-opacity:1" d="M 132.075,197.277 132.075,220.563 z" id="boundary" inkscape:connector-curvature="0" />
	<path style="fill:none;stroke:red;stroke-width:1px;stroke-linecap:butt;stroke-linejoin:miter;stroke-opacity:1" d="M 132.075,220.563 150.704,236.864 z" id="boundary" inkscape:connector-curvature="0" />
	<path style="fill:none;stroke:red;stroke-width:1px;stroke-linecap:butt;stroke-linejoin:miter;stroke-opacity:1" d="M 134.404,765.465 146.047,742.178 z" id="boundary" inkscape:connector-curvature="0" />
	<path style="fill:none;stroke:red;stroke-width:1px;stroke-linecap:butt;stroke-linejoin:miter;stroke-opacity:1" d="M 146.047,15.6432 169.333,22.6291 z" id="boundary" inkscape:connector-curvature="0" />
	<path style="fill:none;stroke:red;stroke-width:1px;stroke-linecap:butt;stroke-linejoin:miter;stroke-opacity:1" d="M 146.047,742.178 164.676,725.878 z" id="boundary" inkscape:connector-curvature="0" />
	<path style="fill:none;stroke:red;stroke-width:1px;stroke-linecap:butt;stroke-linejoin:miter;stroke-opacity:1" d="M 146.047,996 169.333,996 z" id="boundary" inkscape:connector-curvature="0" />
	<path style="fill:none;stroke:red;stroke-width:1px;stroke-linecap:butt;stroke-linejoin:miter;stroke-opacity:1" d="M 150.704,236.864 160.019,260.15 z" id="boundary" inkscape:connector-curvature="0" />
	<path style="fill:none;stroke:red;stroke-width:1px;stroke-linecap:butt;stroke-linejoin:miter;stroke-opacity:1" d="M 160.019,260.15 171.662,281.108 z" id="boundary" inkscape:connector-curvature="0" />
	<path style="fill:none;stroke:red;stroke-width:1px;stroke-linecap:butt;stroke-linejoin:miter;stroke-opacity:1" d="M 164.676,725.878 173.991,702.592 z" id="boundary" inkscape:connector-curvature="0" />
	<path style="fill:none;stroke:red;stroke-width:1px;stroke-linecap:butt;stroke-linejoin:miter;stroke-opacity:1" d="M 169.333,22.6291 190.291,34.2723 z" id="boundary" inkscape:connector-curvature="0" />
	<path style="fill:none;stroke:red;stroke-width:1px;stroke-linecap:butt;stroke-linejoin:miter;stroke-opacity:1" d="M 169.333,996 190.291,984.357 z" id="boundary" inkscape:connector-curvature="0" />
	<path style="fill:none;stroke:red;stroke-width:1px;stroke-linecap:butt;stroke-linejoin:miter;stroke-opacity:1" d="M 171.662,281.108 192.62,292.751 z" id="boundary" inkscape:connector-curvature="0" />
	<path style="fill:none;stroke:red;stroke-width:1px;stroke-linecap:butt;stroke-linejoin:miter;stroke-opacity:1" d="M 173.991,702.592 178.648,674.648 z" id="boundary" inkscape:connector-curvature="0" />
	<path style="fill:none;stroke:red;stroke-width:1px;stroke-linecap:butt;stroke-linejoin:miter;stroke-opacity:1" d="M 178.648,674.648 197.277,656.019 z" id="boundary" inkscape:connector-curvature="0" />
	<path style="fill:none;stroke:red;stroke-width:1px;stroke-linecap:butt;stroke-linejoin:miter;stroke-opacity:1" d="M 190.291,34.2723 213.577,43.5869 z" id="boundary" inkscape:connector-curvature="0" />
	<path style="fill:none;stroke:red;stroke-width:1px;stroke-linecap:butt;stroke-linejoin:miter;stroke-opacity:1" d="M 190.291,984.357 192.62,961.07 z" id="boundary" inkscape:connector-curvature="0" />
	<path style="fill:none;stroke:red;stroke-width:1px;stroke-linecap:butt;stroke-linejoin:miter;stroke-opacity:1" d="M 192.62,292.751 211.249,309.052 z" id="boundary" inkscape:connector-curvature="0" />
	<path style="fill:none;stroke:red;stroke-width:1px;stroke-linecap:butt;stroke-linejoin:miter;stroke-opacity:1" d="M 192.62,961.07 204.263,926.141 z" id="boundary" inkscape:connector-curvature="0" />
	<path style="fill:none;stroke:red;stroke-width:1px;stroke-linecap:butt;stroke-linejoin:miter;stroke-opacity:1" d="M 197.277,656.019 208.92,632.732 z" id="boundary" inkscape:connector-curvature="0" />
	<path style="fill:none;stroke:red;stroke-width:1px;stroke-linecap:butt;stroke-linejoin:miter;stroke-opacity:1" d="M 204.263,832.995 204.263,856.282 z" id="boundary" inkscape:connector-curvature="0" />
	<path style="fill:none;stroke:red;stroke-width:1px;stroke-linecap:butt;stroke-linejoin:miter;stroke-opacity:1" d="M 204.263,832.995 215.906,809.709 z" id="boundary" inkscape:connector-curvature="0" />
	<path style="fill:none;stroke:red;stroke-width:1px;stroke-linecap:butt;stroke-linejoin:miter;stroke-opacity:1" d="M 204.263,856.282 204.263,879.568 z" id="boundary" inkscape:connector-curvature="0" />
	<path style="fill:none;stroke:red;stroke-width:1px;stroke-linecap:butt;stroke-linejoin:miter;stroke-opacity:1" d="M 204.263,879.568 204.263,902.854 z" id="boundary" inkscape:connector-curvature="0" />
	<path style="fill:none;stroke:red;stroke-width:1px;stroke-linecap:butt;stroke-linejoin:miter;stroke-opacity:1" d="M 204.263,902.854 204.263,926.141 z" id="boundary" inkscape:connector-curvature="0" />
	<path style="fill:none;stroke:red;stroke-width:1px;stroke-linecap:butt;stroke-linejoin:miter;stroke-opacity:1" d="M 208.92,632.732 225.221,604.789 z" id="boundary" inkscape:connector-curvature="0" />
	<path style="fill:none;stroke:red;stroke-width:1px;stroke-linecap:butt;stroke-linejoin:miter;stroke-opacity:1" d="M 211.249,309.052 232.207,320.695 z" id="boundary" inkscape:connector-curvature="0" />
	<path style="fill:none;stroke:red;stroke-width:1px;stroke-linecap:butt;stroke-linejoin:miter;stroke-opacity:1" d="M 213.577,43.5869 227.549,62.216 z" id="boundary" inkscape:connector-curvature="0" />
	<path style="fill:none;stroke:red;stroke-width:1px;stroke-linecap:butt;stroke-linejoin:miter;stroke-opacity:1" d="M 215.906,786.423 215.906,809.709 z" id="boundary" inkscape:connector-curvature="0" />
	<path style="fill:none;stroke:red;stroke-width:1px;stroke-linecap:butt;stroke-linejoin:miter;stroke-opacity:1" d="M 215.906,786.423 227.549,751.493 z" id="boundary" inkscape:connector-curvature="0" />
	<path style="fill:none;stroke:red;stroke-width:1px;stroke-linecap:butt;stroke-linejoin:miter;stroke-opacity:1" d="M 225.221,581.502 225.221,604.789 z" id="boundary" inkscape:connector-curvature="0" />
	<path style="fill:none;stroke:red;stroke-width:1px;stroke-linecap:butt;stroke-linejoin:miter;stroke-opacity:1" d="M 225.221,581.502 236.864,558.216 z" id="boundary" inkscape:connector-curvature="0" />
	<path style="fill:none;stroke:red;stroke-width:1px;stroke-linecap:butt;stroke-linejoin:miter;stroke-opacity:1" d="M 227.549,62.216 239.192,83.1737 z" id="boundary" inkscape:connector-curvature="0" />
	<path style="fill:none;stroke:red;stroke-width:1px;stroke-linecap:butt;stroke-linejoin:miter;stroke-opacity:1" d="M 227.549,751.493 246.178,735.192 z" id="boundary" inkscape:connector-curvature="0" />
	<path style="fill:none;stroke:red;stroke-width:1px;stroke-linecap:butt;stroke-linejoin:miter;stroke-opacity:1" d="M 232.207,320.695 250.836,336.995 z" id="boundary" inkscape:connector-curvature="0" />
	<path style="fill:none;stroke:red;stroke-width:1px;stroke-linecap:butt;stroke-linejoin:miter;stroke-opacity:1" d="M 236.864,558.216 248.507,534.93 z" id="boundary" inkscape:connector-curvature="0" />
	<path style="fill:none;stroke:red;stroke-width:1px;stroke-linecap:butt;stroke-linejoin:miter;stroke-opacity:1" d="M 239.192,83.1737 250.836,104.131 z" id="boundary" inkscape:connector-curvature="0" />
	<path style="fill:none;stroke:red;stroke-width:1px;stroke-linecap:butt;stroke-linejoin:miter;stroke-opacity:1" d="M 246.178,735.192 257.822,711.906 z" id="boundary" inkscape:connector-curvature="0" />
	<path style="fill:none;stroke:red;stroke-width:1px;stroke-linecap:butt;stroke-linejoin:miter;stroke-opacity:1" d="M 248.507,534.93 267.136,516.3 z" id="boundary" inkscape:connector-curvature="0" />
	<path style="fill:none;stroke:red;stroke-width:1px;stroke-linecap:butt;stroke-linejoin:miter;stroke-opacity:1" d="M 250.836,104.131 274.122,108.789 z" id="boundary" inkscape:connector-curvature="0" />
	<path style="fill:none;stroke:red;stroke-width:1px;stroke-linecap:butt;stroke-linejoin:miter;stroke-opacity:1" d="M 250.836,336.995 267.136,355.624 z" id="boundary" inkscape:connector-curvature="0" />
	<path style="fill:none;stroke:red;stroke-width:1px;stroke-linecap:butt;stroke-linejoin:miter;stroke-opacity:1" d="M 257.822,711.906 269.465,688.62 z" id="boundary" inkscape:connector-curvature="0" />
	<path style="fill:none;stroke:red;stroke-width:1px;stroke-linecap:butt;stroke-linejoin:miter;stroke-opacity:1" d="M 267.136,355.624 288.094,367.268 z" id="boundary" inkscape:connector-curvature="0" />
	<path style="fill:none;stroke:red;stroke-width:1px;stroke-linecap:butt;stroke-linejoin:miter;stroke-opacity:1" d="M 267.136,516.3 285.765,497.671 z" id="boundary" inkscape:connector-curvature="0" />
	<path style="fill:none;stroke:red;stroke-width:1px;stroke-linecap:butt;stroke-linejoin:miter;stroke-opacity:1" d="M 269.465,688.62 281.108,665.333 z" id="boundary" inkscape:connector-curvature="0" />
	<path style="fill:none;stroke:red;stroke-width:1px;stroke-linecap:butt;stroke-linejoin:miter;stroke-opacity:1" d="M 274.122,108.789 297.408,101.803 z" id="boundary" inkscape:connector-curvature="0" />
	<path style="fill:none;stroke:red;stroke-width:1px;stroke-linecap:butt;stroke-linejoin:miter;stroke-opacity:1" d="M 281.108,665.333 297.408,646.704 z" id="boundary" inkscape:connector-curvature="0" />
	<path style="fill:none;stroke:red;stroke-width:1px;stroke-linecap:butt;stroke-linejoin:miter;stroke-opacity:1" d="M 285.765,497.671 309.052,486.028 z" id="boundary" inkscape:connector-curvature="0" />
	<path style="fill:none;stroke:red;stroke-width:1px;stroke-linecap:butt;stroke-linejoin:miter;stroke-opacity:1" d="M 288.094,367.268 306.723,381.239 z" id="boundary" inkscape:connector-curvature="0" />
	<path style="fill:none;stroke:red;stroke-width:1px;stroke-linecap:butt;stroke-linejoin:miter;stroke-opacity:1" d="M 297.408,101.803 320.695,108.789 z" id="boundary" inkscape:connector-curvature="0" />
	<path style="fill:none;stroke:red;stroke-width:1px;stroke-linecap:butt;stroke-linejoin:miter;stroke-opacity:1" d="M 297.408,646.704 309.052,623.418 z" id="boundary" inkscape:connector-curvature="0" />
	<path style="fill:none;stroke:red;stroke-width:1px;stroke-linecap:butt;stroke-linejoin:miter;stroke-opacity:1" d="M 306.723,381.239 306.723,404.526 z" id="boundary" inkscape:connector-curvature="0" />
	<path style="fill:none;stroke:red;stroke-width:1px;stroke-linecap:butt;stroke-linejoin:miter;stroke-opacity:1" d="M 306.723,404.526 318.366,425.484 z" id="boundary" inkscape:connector-curvature="0" />
	<path style="fill:none;stroke:red;stroke-width:1px;stroke-linecap:butt;stroke-linejoin:miter;stroke-opacity:1" d="M 309.052,486.028 318.366,448.77 z" id="boundary" inkscape:connector-curvature="0" />
	<path style="fill:none;stroke:red;stroke-width:1px;stroke-linecap:butt;stroke-linejoin:miter;stroke-opacity:1" d="M 309.052,623.418 327.681,607.117 z" id="boundary" inkscape:connector-curvature="0" />
	<path style="fill:none;stroke:red;stroke-width:1px;stroke-linecap:butt;stroke-linejoin:miter;stroke-opacity:1" d="M 318.366,425.484 318.366,448.77 z" id="boundary" inkscape:connector-curvature="0" />
	<path style="fill:none;stroke:red;stroke-width:1px;stroke-linecap:butt;stroke-linejoin:miter;stroke-opacity:1" d="M 320.695,108.789 341.653,120.432 z" id="boundary" inkscape:connector-curvature="0" />
	<path style="fill:none;stroke:red;stroke-width:1px;stroke-linecap:butt;stroke-linejoin:miter;stroke-opacity:1" d="M 327.681,607.117 350.967,595.474 z" id="boundary" inkscape:connector-curvature="0" />
	<path style="fill:none;stroke:red;stroke-width:1px;stroke-linecap:butt;stroke-linejoin:miter;stroke-opacity:1" d="M 341.653,120.432 362.61,132.075 z" id="boundary" inkscape:connector-curvature="0" />
	<path style="fill:none;stroke:red;stroke-width:1px;stroke-linecap:butt;stroke-linejoin:miter;stroke-opacity:1" d="M 350.967,595.474 374.254,583.831 z" id="boundary" inkscape:connector-curvature="0" />
	<path style="fill:none;stroke:red;stroke-width:1px;stroke-linecap:butt;stroke-linejoin:miter;stroke-opacity:1" d="M 362.61,132.075 378.911,150.704 z" id="boundary" inkscape:connector-curvature="0" />
	<path style="fill:none;stroke:red;stroke-width:1px;stroke-linecap:butt;stroke-linejoin:miter;stroke-opacity:1" d="M 374.254,583.831 397.54,576.845 z" id="boundary" inkscape:connector-curvature="0" />
	<path style="fill:none;stroke:red;stroke-width:1px;stroke-linecap:butt;stroke-linejoin:miter;stroke-opacity:1" d="M 378.911,150.704 402.197,150.704 z" id="boundary" inkscape:connector-curvature="0" />
	<path style="fill:none;stroke:red;stroke-width:1px;stroke-linecap:butt;stroke-linejoin:miter;stroke-opacity:1" d="M 397.54,576.845 420.826,576.845 z" id="boundary" inkscape:connector-curvature="0" />
	<path style="fill:none;stroke:red;stroke-width:1px;stroke-linecap:butt;stroke-linejoin:miter;stroke-opacity:1" d="M 402.197,150.704 423.155,162.347 z" id="boundary" inkscape:connector-curvature="0" />
	<path style="fill:none;stroke:red;stroke-width:1px;stroke-linecap:butt;stroke-linejoin:miter;stroke-opacity:1" d="M 420.826,576.845 441.784,588.488 z" id="boundary" inkscape:connector-curvature="0" />
	<path style="fill:none;stroke:red;stroke-width:1px;stroke-linecap:butt;stroke-linejoin:miter;stroke-opacity:1" d="M 423.155,162.347 437.127,180.977 z" id="boundary" inkscape:connector-curvature="0" />
	<path style="fill:none;stroke:red;stroke-width:1px;stroke-linecap:butt;stroke-linejoin:miter;stroke-opacity:1" d="M 437.127,180.977 455.756,194.948 z" id="boundary" inkscape:connector-curvature="0" />
	<path style="fill:none;stroke:red;stroke-width:1px;stroke-linecap:butt;stroke-linejoin:miter;stroke-opacity:1" d="M 441.784,588.488 460.413,604.789 z" id="boundary" inkscape:connector-curvature="0" />
	<path style="fill:none;stroke:red;stroke-width:1px;stroke-linecap:butt;stroke-linejoin:miter;stroke-opacity:1" d="M 455.756,194.948 479.042,204.263 z" id="boundary" inkscape:connector-curvature="0" />
	<path style="fill:none;stroke:red;stroke-width:1px;stroke-linecap:butt;stroke-linejoin:miter;stroke-opacity:1" d="M 460.413,604.789 476.714,623.418 z" id="boundary" inkscape:connector-curvature="0" />
	<path style="fill:none;stroke:red;stroke-width:1px;stroke-linecap:butt;stroke-linejoin:miter;stroke-opacity:1" d="M 476.714,623.418 481.371,646.704 z" id="boundary" inkscape:connector-curvature="0" />
	<path style="fill:none;stroke:red;stroke-width:1px;stroke-linecap:butt;stroke-linejoin:miter;stroke-opacity:1" d="M 479.042,204.263 495.343,222.892 z" id="boundary" inkscape:connector-curvature="0" />
	<path style="fill:none;stroke:red;stroke-width:1px;stroke-linecap:butt;stroke-linejoin:miter;stroke-opacity:1" d="M 481.371,646.704 481.371,669.991 z" id="boundary" inkscape:connector-curvature="0" />
	<path style="fill:none;stroke:red;stroke-width:1px;stroke-linecap:butt;stroke-linejoin:miter;stroke-opacity:1" d="M 481.371,669.991 481.371,693.277 z" id="boundary" inkscape:connector-curvature="0" />
	<path style="fill:none;stroke:red;stroke-width:1px;stroke-linecap:butt;stroke-linejoin:miter;stroke-opacity:1" d="M 481.371,693.277 495.343,711.906 z" id="boundary" inkscape:connector-curvature="0" />
	<path style="fill:none;stroke:red;stroke-width:1px;stroke-linecap:butt;stroke-linejoin:miter;stroke-opacity:1" d="M 495.343,222.892 506.986,243.85 z" id="boundary" inkscape:connector-curvature="0" />
	<path style="fill:none;stroke:red;stroke-width:1px;stroke-linecap:butt;stroke-linejoin:miter;stroke-opacity:1" d="M 495.343,711.906 513.972,728.207 z" id="boundary" inkscape:connector-curvature="0" />
	<path style="fill:none;stroke:red;stroke-width:1px;stroke-linecap:butt;stroke-linejoin:miter;stroke-opacity:1" d="M 506.986,243.85 516.3,267.136 z" id="boundary" inkscape:connector-curvature="0" />
	<path style="fill:none;stroke:red;stroke-width:1px;stroke-linecap:butt;stroke-linejoin:miter;stroke-opacity:1" d="M 513.972,728.207 530.272,746.836 z" id="boundary" inkscape:connector-curvature="0" />
	<path style="fill:none;stroke:red;stroke-width:1px;stroke-linecap:butt;stroke-linejoin:miter;stroke-opacity:1" d="M 516.3,267.136 539.587,276.451 z" id="boundary" inkscape:connector-curvature="0" />
	<path style="fill:none;stroke:red;stroke-width:1px;stroke-linecap:butt;stroke-linejoin:miter;stroke-opacity:1" d="M 530.272,746.836 553.559,751.493 z" id="boundary" inkscape:connector-curvature="0" />
	<path style="fill:none;stroke:red;stroke-width:1px;stroke-linecap:butt;stroke-linejoin:miter;stroke-opacity:1" d="M 539.587,276.451 548.901,299.737 z" id="boundary" inkscape:connector-curvature="0" />
	<path style="fill:none;stroke:red;stroke-width:1px;stroke-linecap:butt;stroke-linejoin:miter;stroke-opacity:1" d="M 548.901,299.737 553.559,323.023 z" id="boundary" inkscape:connector-curvature="0" />
	<path style="fill:none;stroke:red;stroke-width:1px;stroke-linecap:butt;stroke-linejoin:miter;stroke-opacity:1" d="M 553.559,323.023 560.545,346.31 z" id="boundary" inkscape:connector-curvature="0" />
	<path style="fill:none;stroke:red;stroke-width:1px;stroke-linecap:butt;stroke-linejoin:miter;stroke-opacity:1" d="M 553.559,751.493 576.845,751.493 z" id="boundary" inkscape:connector-curvature="0" />
	<path style="fill:none;stroke:red;stroke-width:1px;stroke-linecap:butt;stroke-linejoin:miter;stroke-opacity:1" d="M 560.545,346.31 565.202,369.596 z" id="boundary" inkscape:connector-curvature="0" />
	<path style="fill:none;stroke:red;stroke-width:1px;stroke-linecap:butt;stroke-linejoin:miter;stroke-opacity:1" d="M 565.202,369.596 565.202,392.883 z" id="boundary" inkscape:connector-curvature="0" />
	<path style="fill:none;stroke:red;stroke-width:1px;stroke-linecap:butt;stroke-linejoin:miter;stroke-opacity:1" d="M 565.202,392.883 576.845,413.84 z" id="boundary" inkscape:connector-curvature="0" />
	<path style="fill:none;stroke:red;stroke-width:1px;stroke-linecap:butt;stroke-linejoin:miter;stroke-opacity:1" d="M 565.202,506.986 565.202,530.272 z" id="boundary" inkscape:connector-curvature="0" />
	<path style="fill:none;stroke:red;stroke-width:1px;stroke-linecap:butt;stroke-linejoin:miter;stroke-opacity:1" d="M 565.202,506.986 576.845,472.056 z" id="boundary" inkscape:connector-curvature="0" />
	<path style="fill:none;stroke:red;stroke-width:1px;stroke-linecap:butt;stroke-linejoin:miter;stroke-opacity:1" d="M 565.202,530.272 565.202,553.559 z" id="boundary" inkscape:connector-curvature="0" />
	<path style="fill:none;stroke:red;stroke-width:1px;stroke-linecap:butt;stroke-linejoin:miter;stroke-opacity:1" d="M 565.202,553.559 565.202,576.845 z" id="boundary" inkscape:connector-curvature="0" />
	<path style="fill:none;stroke:red;stroke-width:1px;stroke-linecap:butt;stroke-linejoin:miter;stroke-opacity:1" d="M 565.202,576.845 565.202,600.131 z" id="boundary" inkscape:connector-curvature="0" />
	<path style="fill:none;stroke:red;stroke-width:1px;stroke-linecap:butt;stroke-linejoin:miter;stroke-opacity:1" d="M 565.202,600.131 565.202,623.418 z" id="boundary" inkscape:connector-curvature="0" />
	<path style="fill:none;stroke:red;stroke-width:1px;stroke-linecap:butt;stroke-linejoin:miter;stroke-opacity:1" d="M 565.202,623.418 565.202,646.704 z" id="boundary" inkscape:connector-curvature="0" />
	<path style="fill:none;stroke:red;stroke-width:1px;stroke-linecap:butt;stroke-linejoin:miter;stroke-opacity:1" d="M 565.202,646.704 565.202,669.991 z" id="boundary" inkscape:connector-curvature="0" />
	<path style="fill:none;stroke:red;stroke-width:1px;stroke-linecap:butt;stroke-linejoin:miter;stroke-opacity:1" d="M 565.202,669.991 565.202,693.277 z" id="boundary" inkscape:connector-curvature="0" />
	<path style="fill:none;stroke:red;stroke-width:1px;stroke-linecap:butt;stroke-linejoin:miter;stroke-opacity:1" d="M 565.202,693.277 576.845,714.235 z" id="boundary" inkscape:connector-curvature="0" />
	<path style="fill:none;stroke:red;stroke-width:1px;stroke-linecap:butt;stroke-linejoin:miter;stroke-opacity:1" d="M 576.845,413.84 588.488,434.798 z" id="boundary" inkscape:connector-curvature="0" />
	<path style="fill:none;stroke:red;stroke-width:1px;stroke-linecap:butt;stroke-linejoin:miter;stroke-opacity:1" d="M 576.845,472.056 588.488,434.798 z" id="boundary" inkscape:connector-curvature="0" />
	<path style="fill:none;stroke:red;stroke-width:1px;stroke-linecap:butt;stroke-linejoin:miter;stroke-opacity:1" d="M 576.845,714.235 600.131,707.249 z" id="boundary" inkscape:connector-curvature="0" />
	<path style="fill:none;stroke:red;stroke-width:1px;stroke-linecap:butt;stroke-linejoin:miter;stroke-opacity:1" d="M 576.845,751.493 600.131,751.493 z" id="boundary" inkscape:connector-curvature="0" />
	<path style="fill:none;stroke:red;stroke-width:1px;stroke-linecap:butt;stroke-linejoin:miter;stroke-opacity:1" d="M 600.131,707.249 623.418,702.592 z" id="boundary" inkscape:connector-curvature="0" />
	<path style="fill:none;stroke:red;stroke-width:1px;stroke-linecap:butt;stroke-linejoin:miter;stroke-opacity:1" d="M 600.131,751.493 623.418,751.493 z" id="boundary" inkscape:connector-curvature="0" />
	<path style="fill:none;stroke:red;stroke-width:1px;stroke-linecap:butt;stroke-linejoin:miter;stroke-opacity:1" d="M 623.418,702.592 646.704,702.592 z" id="boundary" inkscape:connector-curvature="0" />
	<path style="fill:none;stroke:red;stroke-width:1px;stroke-linecap:butt;stroke-linejoin:miter;stroke-opacity:1" d="M 623.418,751.493 646.704,739.85 z" id="boundary" inkscape:connector-curvature="0" />
	<path style="fill:none;stroke:red;stroke-width:1px;stroke-linecap:butt;stroke-linejoin:miter;stroke-opacity:1" d="M 646.704,702.592 669.991,695.606 z" id="boundary" inkscape:connector-curvature="0" />
	<path style="fill:none;stroke:red;stroke-width:1px;stroke-linecap:butt;stroke-linejoin:miter;stroke-opacity:1" d="M 646.704,739.85 667.662,751.493 z" id="boundary" inkscape:connector-curvature="0" />
	<path style="fill:none;stroke:red;stroke-width:1px;stroke-linecap:butt;stroke-linejoin:miter;stroke-opacity:1" d="M 667.662,751.493 690.948,756.15 z" id="boundary" inkscape:connector-curvature="0" />
	<path style="fill:none;stroke:red;stroke-width:1px;stroke-linecap:butt;stroke-linejoin:miter;stroke-opacity:1" d="M 669.991,695.606 693.277,702.592 z" id="boundary" inkscape:connector-curvature="0" />
	<path style="fill:none;stroke:red;stroke-width:1px;stroke-linecap:butt;stroke-linejoin:miter;stroke-opacity:1" d="M 690.948,756.15 714.235,763.136 z" id="boundary" inkscape:connector-curvature="0" />
	<path style="fill:none;stroke:red;stroke-width:1px;stroke-linecap:butt;stroke-linejoin:miter;stroke-opacity:1" d="M 693.277,702.592 716.563,695.606 z" id="boundary" inkscape:connector-curvature="0" />
	<path style="fill:none;stroke:red;stroke-width:1px;stroke-linecap:butt;stroke-linejoin:miter;stroke-opacity:1" d="M 714.235,763.136 735.192,751.493 z" id="boundary" inkscape:connector-curvature="0" />
	<path style="fill:none;stroke:red;stroke-width:1px;stroke-linecap:butt;stroke-linejoin:miter;stroke-opacity:1" d="M 716.563,695.606 739.85,690.948 z" id="boundary" inkscape:connector-curvature="0" />
	<path style="fill:none;stroke:red;stroke-width:1px;stroke-linecap:butt;stroke-linejoin:miter;stroke-opacity:1" d="M 735.192,751.493 751.493,770.122 z" id="boundary" inkscape:connector-curvature="0" />
	<path style="fill:none;stroke:red;stroke-width:1px;stroke-linecap:butt;stroke-linejoin:miter;stroke-opacity:1" d="M 739.85,690.948 760.808,679.305 z" id="boundary" inkscape:connector-curvature="0" />
	<path style="fill:none;stroke:red;stroke-width:1px;stroke-linecap:butt;stroke-linejoin:miter;stroke-opacity:1" d="M 751.493,770.122 774.779,767.793 z" id="boundary" inkscape:connector-curvature="0" />
	<path style="fill:none;stroke:red;stroke-width:1px;stroke-linecap:butt;stroke-linejoin:miter;stroke-opacity:1" d="M 760.808,679.305 781.765,667.662 z" id="boundary" inkscape:connector-curvature="0" />
	<path style="fill:none;stroke:red;stroke-width:1px;stroke-linecap:butt;stroke-linejoin:miter;stroke-opacity:1" d="M 774.779,767.793 791.08,786.423 z" id="boundary" inkscape:connector-curvature="0" />
	<path style="fill:none;stroke:red;stroke-width:1px;stroke-linecap:butt;stroke-linejoin:miter;stroke-opacity:1" d="M 781.765,667.662 802.723,656.019 z" id="boundary" inkscape:connector-curvature="0" />
	<path style="fill:none;stroke:red;stroke-width:1px;stroke-linecap:butt;stroke-linejoin:miter;stroke-opacity:1" d="M 791.08,786.423 814.366,784.094 z" id="boundary" inkscape:connector-curvature="0" />
	<path style="fill:none;stroke:red;stroke-width:1px;stroke-linecap:butt;stroke-linejoin:miter;stroke-opacity:1" d="M 802.723,656.019 826.009,644.376 z" id="boundary" inkscape:connector-curvature="0" />
	<path style="fill:none;stroke:red;stroke-width:1px;stroke-linecap:butt;stroke-linejoin:miter;stroke-opacity:1" d="M 814.366,784.094 832.995,798.066 z" id="boundary" inkscape:connector-curvature="0" />
	<path style="fill:none;stroke:red;stroke-width:1px;stroke-linecap:butt;stroke-linejoin:miter;stroke-opacity:1" d="M 826.009,644.376 849.296,632.732 z" id="boundary" inkscape:connector-curvature="0" />
	<path style="fill:none;stroke:red;stroke-width:1px;stroke-linecap:butt;stroke-linejoin:miter;stroke-opacity:1" d="M 832.995,798.066 853.953,809.709 z" id="boundary" inkscape:connector-curvature="0" />
	<path style="fill:none;stroke:red;stroke-width:1px;stroke-linecap:butt;stroke-linejoin:miter;stroke-opacity:1" d="M 849.296,632.732 872.582,632.732 z" id="boundary" inkscape:connector-curvature="0" />
	<path style="fill:none;stroke:red;stroke-width:1px;stroke-linecap:butt;stroke-linejoin:miter;stroke-opacity:1" d="M 853.953,809.709 877.239,809.709 z" id="boundary" inkscape:connector-curvature="0" />
	<path style="fill:none;stroke:red;stroke-width:1px;stroke-linecap:butt;stroke-linejoin:miter;stroke-opacity:1" d="M 872.582,632.732 895.869,632.732 z" id="boundary" inkscape:connector-curvature="0" />
	<path style="fill:none;stroke:red;stroke-width:1px;stroke-linecap:butt;stroke-linejoin:miter;stroke-opacity:1" d="M 877.239,809.709 891.211,828.338 z" id="boundary" inkscape:connector-curvature="0" />
	<path style="fill:none;stroke:red;stroke-width:1px;stroke-linecap:butt;stroke-linejoin:miter;stroke-opacity:1" d="M 891.211,828.338 914.498,832.995 z" id="boundary" inkscape:connector-curvature="0" />
	<path style="fill:none;stroke:red;stroke-width:1px;stroke-linecap:butt;stroke-linejoin:miter;stroke-opacity:1" d="M 895.869,632.732 916.826,644.376 z" id="boundary" inkscape:connector-curvature="0" />
	<path style="fill:none;stroke:red;stroke-width:1px;stroke-linecap:butt;stroke-linejoin:miter;stroke-opacity:1" d="M 914.498,832.995 935.455,844.638 z" id="boundary" inkscape:connector-curvature="0" />
	<path style="fill:none;stroke:red;stroke-width:1px;stroke-linecap:butt;stroke-linejoin:miter;stroke-opacity:1" d="M 916.826,644.376 935.455,660.676 z" id="boundary" inkscape:connector-curvature="0" />
	<path style="fill:none;stroke:red;stroke-width:1px;stroke-linecap:butt;stroke-linejoin:miter;stroke-opacity:1" d="M 935.455,660.676 937.784,683.962 z" id="boundary" inkscape:connector-curvature="0" />
	<path style="fill:none;stroke:red;stroke-width:1px;stroke-linecap:butt;stroke-linejoin:miter;stroke-opacity:1" d="M 935.455,844.638 954.085,830.667 z" id="boundary" inkscape:connector-curvature="0" />
	<path style="fill:none;stroke:red;stroke-width:1px;stroke-linecap:butt;stroke-linejoin:miter;stroke-opacity:1" d="M 937.784,683.962 944.77,707.249 z" id="boundary" inkscape:connector-curvature="0" />
	<path style="fill:none;stroke:red;stroke-width:1px;stroke-linecap:butt;stroke-linejoin:miter;stroke-opacity:1" d="M 944.77,707.249 961.07,725.878 z" id="boundary" inkscape:connector-curvature="0" />
	<path style="fill:none;stroke:red;stroke-width:1px;stroke-linecap:butt;stroke-linejoin:miter;stroke-opacity:1" d="M 954.085,830.667 961.07,795.737 z" id="boundary" inkscape:connector-curvature="0" />
	<path style="fill:none;stroke:red;stroke-width:1px;stroke-linecap:butt;stroke-linejoin:miter;stroke-opacity:1" d="M 961.07,725.878 961.07,749.164 z" id="boundary" inkscape:connector-curvature="0" />
	<path style="fill:none;stroke:red;stroke-width:1px;stroke-linecap:butt;stroke-linejoin:miter;stroke-opacity:1" d="M 961.07,749.164 961.07,772.451 z" id="boundary" inkscape:connector-curvature="0" />
	<path style="fill:none;stroke:red;stroke-width:1px;stroke-linecap:butt;stroke-linejoin:miter;stroke-opacity:1" d="M 961.07,772.451 961.07,795.737 z" id="boundary" inkscape:connector-curvature="0" />
	<circle cx="4" cy="930.798" r="4" fill="#0" id="circle0"/>
	<circle cx="15.6432" cy="907.512" r="4" fill="#0" id="circle1"/>
	<circle cx="22.6291" cy="947.099" r="4" fill="#0" id="circle2"/>
	<circle cx="27.2864" cy="884.225" r="4" fill="#0" id="circle3"/>
	<circle cx="31.9437" cy="970.385" r="4" fill="#0" id="circle4"/>
	<circle cx="50.5728" cy="872.582" r="4" fill="#0" id="circle5"/>
	<circle cx="55.23" cy="972.714" r="4" fill="#0" id="circle6"/>
	<circle cx="69.2019" cy="853.953" r="4" fill="#0" id="circle7"/>
	<circle cx="73.8592" cy="57.5587" r="4" fill="#0" id="circle8"/>
	<circle cx="73.8592" cy="80.8451" r="4" fill="#0" id="circle9"/>
	<circle cx="76.1878" cy="984.357" r="4" fill="#0" id="circle10"/>
	<circle cx="85.5023" cy="34.2723" r="4" fill="#0" id="circle11"/>
	<circle cx="85.5023" cy="101.803" r="4" fill="#0" id="circle12"/>
	<circle cx="85.5023" cy="826.009" r="4" fill="#0" id="circle13"/>
	<circle cx="97.1455" cy="122.761" r="4" fill="#0" id="circle14"/>
	<circle cx="99.4742" cy="989.014" r="4" fill="#0" id="circle15"/>
	<circle cx="104.131" cy="15.6432" r="4" fill="#0" id="circle16"/>
	<circle cx="104.131" cy="807.38" r="4" fill="#0" id="circle17"/>
	<circle cx="111.117" cy="141.39" r="4" fill="#0" id="circle18"/>
	<circle cx="115.775" cy="784.094" r="4" fill="#0" id="circle19"/>
	<circle cx="122.761" cy="162.347" r="4" fill="#0" id="circle20"/>
	<circle cx="122.761" cy="996" r="4" fill="#0" id="circle21"/>
	<circle cx="125.089" cy="4" r="4" fill="#0" id="circle22"/>
	<circle cx="132.075" cy="197.277" r="4" fill="#0" id="circle23"/>
	<circle cx="132.075" cy="220.563" r="4" fill="#0" id="circle24"/>
	<circle cx="134.404" cy="765.465" r="4" fill="#0" id="circle25"/>
	<circle cx="146.047" cy="15.6432" r="4" fill="#0" id="circle26"/>
	<circle cx="146.047" cy="742.178" r="4" fill="#0" id="circle27"/>
	<circle cx="146.047" cy="996" r="4" fill="#0" id="circle28"/>
	<circle cx="150.704" cy="236.864" r="4" fill="#0" id="circle29"/>
	<circle cx="160.019" cy="260.15" r="4" fill="#0" id="circle30"/>
	<circle cx="164.676" cy="725.878" r="4" fill="#0" id="circle31"/>
	<circle cx="169.333" cy="22.6291" r="4" fill="#0" id="circle32"/>
	<circle cx="169.333" cy="996" r="4" fill="#0" id="circle33"/>
	<circle cx="171.662" cy="281.108" r="4" fill="#0" id="circle34"/>
	<circle cx="173.991" cy="702.592" r="4" fill="#0" id="circle35"/>
	<circle cx="178.648" cy="674.648" r="4" fill="#0" id="circle36"/>
	<circle cx="190.291" cy="34.2723" r="4" fill="#0" id="circle37"/>
	<circle cx="190.291" cy="984.357" r="4" fill="#0" id="circle38"/>
	<circle cx="192.62" cy="292.751" r="4" fill="#0" id="circle39"/>
	<circle cx="192.62" cy="961.07" r="4" fill="#0" id="circle40"/>
	<circle cx="197.277" cy="656.019" r="4" fill="#0" id="circle41"/>
	<circle cx="204.263" cy="832.995" r="4" fill="#0" id="circle42"/>
	<circle cx="204.263" cy="856.282" r="4" fill="#0" id="circle43"/>
	<circle cx="204.263" cy="879.568" r="4" fill="#0" id="circle44"/>
	<circle cx="204.263" cy="902.854" r="4" fill="#0" id="circle45"/>
	<circle cx="204.263" cy="926.141" r="4" fill="#0" id="circle46"/>
	<circle cx="208.92" cy="632.732" r="4" fill="#0" id="circle47"/>
	<circle cx="211.249" cy="309.052" r="4" fill="#0" id="circle48"/>
	<circle cx="213.577" cy="43.5869" r="4" fill="#0" id="circle49"/>
	<circle cx="215.906" cy="786.423" r="4" fill="#0" id="circle50"/>
	<circle cx="215.906" cy="809.709" r="4" fill="#0" id="circle51"/>
	<circle cx="225.221" cy="581.502" r="4" fill="#0" id="circle52"/>
	<circle cx="225.221" cy="604.789" r="4" fill="#0" id="circle53"/>
	<circle cx="227.549" cy="62.216" r="4" fill="#0" id="circle54"/>
	<circle cx="227.549" cy="751.493" r="4" fill="#0" id="circle55"/>
	<circle cx="232.207" cy="320.695" r="4" fill="#0" id="circle56"/>
	<circle cx="236.864" cy="558.216" r="4" fill="#0" id="circle57"/>
	<circle cx="239.192" cy="83.1737" r="4" fill="#0" id="circle58"/>
	<circle cx="246.178" cy="735.192" r="4" fill="#0" id="circle59"/>
	<circle cx="248.507" cy="534.93" r="4" fill="#0" id="circle60"/>
	<circle cx="250.836" cy="104.131" r="4" fill="#0" id="circle61"/>
	<circle cx="250.836" cy="336.995" r="4" fill="#0" id="circle62"/>
	<circle cx="257.822" cy="711.906" r="4" fill="#0" id="circle63"/>
	<circle cx="267.136" cy="355.624" r="4" fill="#0" id="circle64"/>
	<circle cx="267.136" cy="516.3" r="4" fill="#0" id="circle65"/>
	<circle cx="269.465" cy="688.62" r="4" fill="#0" id="circle66"/>
	<circle cx="274.122" cy="108.789" r="4" fill="#0" id="circle67"/>
	<circle cx="281.108" cy="665.333" r="4" fill="#0" id="circle68"/>
	<circle cx="285.765" cy="497.671" r="4" fill="#0" id="circle69"/>
	<circle cx="288.094" cy="367.268" r="4" fill="#0" id="circle70"/>
	<circle cx="297.408" cy="101.803" r="4" fill="#0" id="circle71"/>
	<circle cx="297.408" cy="646.704" r="4" fill="#0" id="circle72"/>
	<circle cx="306.723" cy="381.239" r="4" fill="#0" id="circle73"/>
	<circle cx="306.723" cy="404.526" r="4" fill="#0" id="circle74"/>
	<circle cx="309.052" cy="486.028" r="4" fill="#0" id="circle75"/>
	<circle cx="309.052" cy="623.418" r="4" fill="#0" id="circle76"/>
	<circle cx="318.366" cy="425.484" r="4" fill="#0" id="circle77"/>
	<circle cx="318.366" cy="448.77" r="4" fill="#0" id="circle78"/>
	<circle cx="320.695" cy="108.789" r="4" fill="#0" id="circle79"/>
	<circle cx="327.681" cy="607.117" r="4" fill="#0" id="circle80"/>
	<circle cx="341.653" cy="120.432" r="4" fill="#0" id="circle81"/>
	<circle cx="350.967" cy="595.474" r="4" fill="#0" id="circle82"/>
	<circle cx="362.61" cy="132.075" r="4" fill="#0" id="circle83"/>
	<circle cx="374.254" cy="583.831" r="4" fill="#0" id="circle84"/>
	<circle cx="378.911" cy="150.704" r="4" fill="#0" id="circle85"/>
	<circle cx="397.54" cy="576.845" r="4" fill="#0" id="circle86"/>
	<circle cx="402.197" cy="150.704" r="4" fill="#0" id="circle87"/>
	<circle cx="420.826" cy="576.845" r="4" fill="#0" id="circle88"/>
	<circle cx="423.155" cy="162.347" r="4" fill="#0" id="circle89"/>
	<circle cx="437.127" cy="180.977" r="4" fill="#0" id="circle90"/>
	<circle cx="441.784" cy="588.488" r="4" fill="#0" id="circle91"/>
	<circle cx="455.756" cy="194.948" r="4" fill="#0" id="circle92"/>
	<circle cx="460.413" cy="604.789" r="4" fill="#0" id="circle93"/>
	<circle cx="476.714" cy="623.418" r="4" fill="#0" id="circle94"/>
	<circle cx="479.042" cy="204.263" r="4" fill="#0" id="circle95"/>
	<circle cx="481.371" cy="646.704" r="4" fill="#0" id="circle96"/>
	<circle cx="481.371" cy="669.991" r="4" fill="#0" id="circle97"/>
	<circle cx="481.371" cy="693.277" r="4" fill="#0" id="circle98"/>
	<circle cx="495.343" cy="222.892" r="4" fill="#0" id="circle99"/>
	<circle cx="495.343" cy="711.906" r="4" fill="#0" id="circle100"/>
	<circle cx="506.986" cy="243.85" r="4" fill="#0" id="circle101"/>
	<circle cx="513.972" cy="728.207" r="4" fill="#0" id="circle102"/>
	<circle cx="516.3" cy="267.136" r="4" fill="#0" id="circle103"/>
	<circle cx="530.272" cy="746.836" r="4" fill="#0" id="circle104"/>
	<circle cx="539.587" cy="276.451" r="4" fill="#0" id="circle105"/>
	<circle cx="548.901" cy="299.737" r="4" fill="#0" id="circle106"/>
	<circle cx="553.559" cy="323.023" r="4" fill="#0" id="circle107"/>
	<circle cx="553.559" cy="751.493" r="4" fill="#0" id="circle108"/>
	<circle cx="560.545" cy="346.31" r="4" fill="#0" id="circle109"/>
	<circle cx="565.202" cy="369.596" r="4" fill="#0" id="circle110"/>
	<circle cx="565.202" cy="392.883" r="4" fill="#0" id="circle111"/>
	<circle cx="565.202" cy="506.986" r="4" fill="#0" id="circle112"/>
	<circle cx="565.202" cy="530.272" r="4" fill="#0" id="circle113"/>
	<circle cx="565.202" cy="553.559" r="4" fill="#0" id="circle114"/>
	<circle cx="565.202" cy="576.845" r="4" fill="#0" id="circle115"/>
	<circle cx="565.202" cy="600.131" r="4" fill="#0" id="circle116"/>
	<circle cx="565.202" cy="623.418" r="4" fill="#0" id="circle117"/>
	<circle cx="565.202" cy="646.704" r="4" fill="#0" id="circle118"/>
	<circle cx="565.202" cy="669.991" r="4" fill="#0" id="circle119"/>
	<circle cx="565.202" cy="693.277" r="4" fill="#0" id="circle120"/>
	<circle cx="576.845" cy="413.84" r="4" fill="#0" id="circle121"/>
	<circle cx="576.845" cy="472.056" r="4" fill="#0" id="circle122"/>
	<circle cx="576.845" cy="714.235" r="4" fill="#0" id="circle123"/>
	<circle cx="576.845" cy="751.493" r="4" fill="#0" id="circle124"/>
	<circle cx="588.488" cy="434.798" r="4" fill="#0" id="circle125"/>
	<circle cx="600.131" cy="707.249" r="4" fill="#0" id="circle126"/>
	<circle cx="600.131" cy="751.493" r="4" fill="#0" id="circle127"/>
	<circle cx="623.418" cy="702.592" r="4" fill="#0" id="circle128"/>
	<circle cx="623.418" cy="751.493" r="4" fill="#0" id="circle129"/>
	<circle cx="646.704" cy="702.592" r="4" fill="#0" id="circle130"/>
	<circle cx="646.704" cy="739.85" r="4" fill="#0" id="circle131"/>
	<circle cx="667.662" cy="751.493" r="4" fill="#0" id="circle132"/>
	<circle cx="669.991" cy="695.606" r="4" fill="#0" id="circle133"/>
	<circle cx="690.948" cy="756.15" r="4" fill="#0" id="circle134"/>
	<circle cx="693.277" cy="702.592" r="4" fill="#0" id="circle135"/>
	<circle cx="714.235" cy="763.136" r="4" fill="#0" id="circle136"/>
	<circle cx="716.563" cy="695.606" r="4" fill="#0" id="circle137"/>
	<circle cx="735.192" cy="751.493" r="4" fill="#0" id="circle138"/>
	<circle cx="739.85" cy="690.948" r="4" fill="#0" id="circle139"/>
	<circle cx="751.493" cy="770.122" r="4" fill="#0" id="circle140"/>
	<circle cx="760.808" cy="679.305" r="4" fill="#0" id="circle141"/>
	<circle cx="774.779" cy="767.793" r="4" fill="#0" id="circle142"/>
	<circle cx="781.765" cy="667.662" r="4" fill="#0" id="circle143"/>
	<circle cx="791.08" cy="786.423" r="4" fill="#0" id="circle144"/>
	<circle cx="802.723" cy="656.019" r="4" fill="#0" id="circle145"/>
	<circle cx="814.366" cy="784.094" r="4" fill="#0" id="circle146"/>
	<circle cx="826.009" cy="644.376" r="4" fill="#0" id="circle147"/>
	<circle cx="832.995" cy="798.066" r="4" fill="#0" id="circle148"/>
	<circle cx="849.296" cy="632.732" r="4" fill="#0" id="circle149"/>
	<circle cx="853.953" cy="809.709" r="4" fill="#0" id="circle150"/>
	<circle cx="872.582" cy="632.732" r="4" fill="#0" id="circle151"/>
	<circle cx="877.239" cy="809.709" r="4" fill="#0" id="circle152"/>
	<circle cx="891.211" cy="828.338" r="4" fill="#0" id="circle153"/>
	<circle cx="895.869" cy="632.732" r="4" fill="#0" id="circle154"/>
	<circle cx="914.498" cy="832.995" r="4" fill="#0" id="circle155"/>
	<circle cx="916.826" cy="644.376" r="4" fill="#0" id="circle156"/>
	<circle cx="935.455" cy="660.676" r="4" fill="#0" id="circle157"/>
	<circle cx="935.455" cy="844.638" r="4" fill="#0" id="circle158"/>
	<circle cx="937.784" cy="683.962" r="4" fill="#0" id="circle159"/>
	<circle cx="944.77" cy="707.249" r="4" fill="#0" id="circle160"/>
	<circle cx="954.085" cy="830.667" r="4" fill="#0" id="circle161"/>
	<circle cx="961.07" cy="725.878" r="4" fill="#0" id="circle162"/>
	<circle cx="961.07" cy="749.164" r="4" fill="#0" id="circle163"/>
	<circle cx="961.07" cy="772.451" r="4" fill="#0" id="circle164"/>
	<circle cx="961.07" cy="795.737" r="4" fill="#0" id="circle165"/>
	</g>
</svg>