<?xml version="1.0" encoding="UTF-8" standalone="no"?>
<!-- Created with CurveBenchmark -->
<svg
	xmlns:dc="http://purl.org/dc/elements/1.1/"
	xmlns:cc="http://creativecommons.org/ns#"
	xmlns:rdf="http://www.w3.org/1999/02/22-rdf-syntax-ns#"
	xmlns:svg="http://www.w3.org/2000/svg"
	xmlns="http://www.w3.org/2000/svg"
	xmlns:sodipodi="http://sodipodi.sourceforge.net/DTD/sodipodi-0.dtd"
	xmlns:inkscape="http://www.inkscape.org/namespaces/inkscape"
	width="1000"
	height="1000"
	id="svg2"
	version="1.1"
	sodipodi:docname="manifold/discur-truck-19.png.txt">
<defs
	id="defs4" />
<metadata
	id="metadata7">
	<rdf:RDF>
		<cc:Work
			rdf:about="">
			<dc:format>image/svg+xml</dc:format>
			<dc:type
				rdf:resource="http://purl.org/dc/dcmitype/StillImage" />
			<dc:title></dc:title>
		</cc:Work>
	</rdf:RDF>
</metadata>
<g
	inkscape:label="Layer 1"
	inkscape:groupmode="layer"
	id="layer1">
	<path style="fill:none;stroke:red;stroke-width:1px;stroke-linecap:butt;stroke-linejoin:miter;stroke-opacity:1" d="M 4,194.973 4,212.656 z" id="boundary" inkscape:connector-curvature="0" />
	<path style="fill:none;stroke:red;stroke-width:1px;stroke-linecap:butt;stroke-linejoin:miter;stroke-opacity:1" d="M 4,194.973 12.8414,177.291 z" id="boundary" inkscape:connector-curvature="0" />
	<path style="fill:none;stroke:red;stroke-width:1px;stroke-linecap:butt;stroke-linejoin:miter;stroke-opacity:1" d="M 4,212.656 4,230.339 z" id="boundary" inkscape:connector-curvature="0" />
	<path style="fill:none;stroke:red;stroke-width:1px;stroke-linecap:butt;stroke-linejoin:miter;stroke-opacity:1" d="M 4,230.339 4,248.021 z" id="boundary" inkscape:connector-curvature="0" />
	<path style="fill:none;stroke:red;stroke-width:1px;stroke-linecap:butt;stroke-linejoin:miter;stroke-opacity:1" d="M 4,248.021 4,265.704 z" id="boundary" inkscape:connector-curvature="0" />
	<path style="fill:none;stroke:red;stroke-width:1px;stroke-linecap:butt;stroke-linejoin:miter;stroke-opacity:1" d="M 4,265.704 12.8414,281.619 z" id="boundary" inkscape:connector-curvature="0" />
	<path style="fill:none;stroke:red;stroke-width:1px;stroke-linecap:butt;stroke-linejoin:miter;stroke-opacity:1" d="M 12.8414,177.291 26.9875,163.144 z" id="boundary" inkscape:connector-curvature="0" />
	<path style="fill:none;stroke:red;stroke-width:1px;stroke-linecap:butt;stroke-linejoin:miter;stroke-opacity:1" d="M 12.8414,281.619 25.2193,295.765 z" id="boundary" inkscape:connector-curvature="0" />
	<path style="fill:none;stroke:red;stroke-width:1px;stroke-linecap:butt;stroke-linejoin:miter;stroke-opacity:1" d="M 25.2193,295.765 42.902,297.533 z" id="boundary" inkscape:connector-curvature="0" />
	<path style="fill:none;stroke:red;stroke-width:1px;stroke-linecap:butt;stroke-linejoin:miter;stroke-opacity:1" d="M 26.9875,163.144 42.902,154.303 z" id="boundary" inkscape:connector-curvature="0" />
	<path style="fill:none;stroke:red;stroke-width:1px;stroke-linecap:butt;stroke-linejoin:miter;stroke-opacity:1" d="M 39.3654,407.166 39.3654,424.848 z" id="boundary" inkscape:connector-curvature="0" />
	<path style="fill:none;stroke:red;stroke-width:1px;stroke-linecap:butt;stroke-linejoin:miter;stroke-opacity:1" d="M 39.3654,407.166 48.2068,389.483 z" id="boundary" inkscape:connector-curvature="0" />
	<path style="fill:none;stroke:red;stroke-width:1px;stroke-linecap:butt;stroke-linejoin:miter;stroke-opacity:1" d="M 39.3654,424.848 39.3654,442.531 z" id="boundary" inkscape:connector-curvature="0" />
	<path style="fill:none;stroke:red;stroke-width:1px;stroke-linecap:butt;stroke-linejoin:miter;stroke-opacity:1" d="M 39.3654,442.531 39.3654,460.214 z" id="boundary" inkscape:connector-curvature="0" />
	<path style="fill:none;stroke:red;stroke-width:1px;stroke-linecap:butt;stroke-linejoin:miter;stroke-opacity:1" d="M 39.3654,460.214 48.2068,476.128 z" id="boundary" inkscape:connector-curvature="0" />
	<path style="fill:none;stroke:red;stroke-width:1px;stroke-linecap:butt;stroke-linejoin:miter;stroke-opacity:1" d="M 42.902,154.303 58.8164,145.462 z" id="boundary" inkscape:connector-curvature="0" />
	<path style="fill:none;stroke:red;stroke-width:1px;stroke-linecap:butt;stroke-linejoin:miter;stroke-opacity:1" d="M 42.902,297.533 60.5847,297.533 z" id="boundary" inkscape:connector-curvature="0" />
	<path style="fill:none;stroke:red;stroke-width:1px;stroke-linecap:butt;stroke-linejoin:miter;stroke-opacity:1" d="M 48.2068,389.483 57.0481,371.8 z" id="boundary" inkscape:connector-curvature="0" />
	<path style="fill:none;stroke:red;stroke-width:1px;stroke-linecap:butt;stroke-linejoin:miter;stroke-opacity:1" d="M 48.2068,476.128 57.0481,492.043 z" id="boundary" inkscape:connector-curvature="0" />
	<path style="fill:none;stroke:red;stroke-width:1px;stroke-linecap:butt;stroke-linejoin:miter;stroke-opacity:1" d="M 57.0481,371.8 71.1943,357.654 z" id="boundary" inkscape:connector-curvature="0" />
	<path style="fill:none;stroke:red;stroke-width:1px;stroke-linecap:butt;stroke-linejoin:miter;stroke-opacity:1" d="M 57.0481,492.043 72.9626,500.884 z" id="boundary" inkscape:connector-curvature="0" />
	<path style="fill:none;stroke:red;stroke-width:1px;stroke-linecap:butt;stroke-linejoin:miter;stroke-opacity:1" d="M 58.8164,145.462 76.4991,140.157 z" id="boundary" inkscape:connector-curvature="0" />
	<path style="fill:none;stroke:red;stroke-width:1px;stroke-linecap:butt;stroke-linejoin:miter;stroke-opacity:1" d="M 60.5847,297.533 78.2674,297.533 z" id="boundary" inkscape:connector-curvature="0" />
	<path style="fill:none;stroke:red;stroke-width:1px;stroke-linecap:butt;stroke-linejoin:miter;stroke-opacity:1" d="M 71.1943,357.654 85.3405,343.508 z" id="boundary" inkscape:connector-curvature="0" />
	<path style="fill:none;stroke:red;stroke-width:1px;stroke-linecap:butt;stroke-linejoin:miter;stroke-opacity:1" d="M 72.9626,500.884 88.877,509.725 z" id="boundary" inkscape:connector-curvature="0" />
	<path style="fill:none;stroke:red;stroke-width:1px;stroke-linecap:butt;stroke-linejoin:miter;stroke-opacity:1" d="M 76.4991,140.157 94.1818,136.62 z" id="boundary" inkscape:connector-curvature="0" />
	<path style="fill:none;stroke:red;stroke-width:1px;stroke-linecap:butt;stroke-linejoin:miter;stroke-opacity:1" d="M 78.2674,297.533 95.9501,297.533 z" id="boundary" inkscape:connector-curvature="0" />
	<path style="fill:none;stroke:red;stroke-width:1px;stroke-linecap:butt;stroke-linejoin:miter;stroke-opacity:1" d="M 85.3405,343.508 103.023,334.667 z" id="boundary" inkscape:connector-curvature="0" />
	<path style="fill:none;stroke:red;stroke-width:1px;stroke-linecap:butt;stroke-linejoin:miter;stroke-opacity:1" d="M 88.877,509.725 106.56,509.725 z" id="boundary" inkscape:connector-curvature="0" />
	<path style="fill:none;stroke:red;stroke-width:1px;stroke-linecap:butt;stroke-linejoin:miter;stroke-opacity:1" d="M 94.1818,136.62 111.865,131.316 z" id="boundary" inkscape:connector-curvature="0" />
	<path style="fill:none;stroke:red;stroke-width:1px;stroke-linecap:butt;stroke-linejoin:miter;stroke-opacity:1" d="M 95.9501,297.533 111.865,288.692 z" id="boundary" inkscape:connector-curvature="0" />
	<path style="fill:none;stroke:red;stroke-width:1px;stroke-linecap:butt;stroke-linejoin:miter;stroke-opacity:1" d="M 106.56,509.725 124.242,509.725 z" id="boundary" inkscape:connector-curvature="0" />
	<path style="fill:none;stroke:red;stroke-width:1px;stroke-linecap:butt;stroke-linejoin:miter;stroke-opacity:1" d="M 111.865,131.316 129.547,127.779 z" id="boundary" inkscape:connector-curvature="0" />
	<path style="fill:none;stroke:red;stroke-width:1px;stroke-linecap:butt;stroke-linejoin:miter;stroke-opacity:1" d="M 111.865,288.692 129.547,288.692 z" id="boundary" inkscape:connector-curvature="0" />
	<path style="fill:none;stroke:red;stroke-width:1px;stroke-linecap:butt;stroke-linejoin:miter;stroke-opacity:1" d="M 124.242,509.725 141.925,509.725 z" id="boundary" inkscape:connector-curvature="0" />
	<path style="fill:none;stroke:red;stroke-width:1px;stroke-linecap:butt;stroke-linejoin:miter;stroke-opacity:1" d="M 129.547,127.779 147.23,127.779 z" id="boundary" inkscape:connector-curvature="0" />
	<path style="fill:none;stroke:red;stroke-width:1px;stroke-linecap:butt;stroke-linejoin:miter;stroke-opacity:1" d="M 141.925,509.725 157.84,500.884 z" id="boundary" inkscape:connector-curvature="0" />
	<path style="fill:none;stroke:red;stroke-width:1px;stroke-linecap:butt;stroke-linejoin:miter;stroke-opacity:1" d="M 147.23,127.779 164.913,127.779 z" id="boundary" inkscape:connector-curvature="0" />
	<path style="fill:none;stroke:red;stroke-width:1px;stroke-linecap:butt;stroke-linejoin:miter;stroke-opacity:1" d="M 157.84,500.884 173.754,492.043 z" id="boundary" inkscape:connector-curvature="0" />
	<path style="fill:none;stroke:red;stroke-width:1px;stroke-linecap:butt;stroke-linejoin:miter;stroke-opacity:1" d="M 164.913,127.779 182.595,127.779 z" id="boundary" inkscape:connector-curvature="0" />
	<path style="fill:none;stroke:red;stroke-width:1px;stroke-linecap:butt;stroke-linejoin:miter;stroke-opacity:1" d="M 173.754,492.043 191.437,483.201 z" id="boundary" inkscape:connector-curvature="0" />
	<path style="fill:none;stroke:red;stroke-width:1px;stroke-linecap:butt;stroke-linejoin:miter;stroke-opacity:1" d="M 182.595,127.779 200.278,127.779 z" id="boundary" inkscape:connector-curvature="0" />
	<path style="fill:none;stroke:red;stroke-width:1px;stroke-linecap:butt;stroke-linejoin:miter;stroke-opacity:1" d="M 191.437,483.201 205.583,470.824 z" id="boundary" inkscape:connector-curvature="0" />
	<path style="fill:none;stroke:red;stroke-width:1px;stroke-linecap:butt;stroke-linejoin:miter;stroke-opacity:1" d="M 200.278,127.779 217.961,127.779 z" id="boundary" inkscape:connector-curvature="0" />
	<path style="fill:none;stroke:red;stroke-width:1px;stroke-linecap:butt;stroke-linejoin:miter;stroke-opacity:1" d="M 205.583,470.824 223.266,465.519 z" id="boundary" inkscape:connector-curvature="0" />
	<path style="fill:none;stroke:red;stroke-width:1px;stroke-linecap:butt;stroke-linejoin:miter;stroke-opacity:1" d="M 217.961,127.779 235.643,127.779 z" id="boundary" inkscape:connector-curvature="0" />
	<path style="fill:none;stroke:red;stroke-width:1px;stroke-linecap:butt;stroke-linejoin:miter;stroke-opacity:1" d="M 223.266,465.519 240.948,465.519 z" id="boundary" inkscape:connector-curvature="0" />
	<path style="fill:none;stroke:red;stroke-width:1px;stroke-linecap:butt;stroke-linejoin:miter;stroke-opacity:1" d="M 235.643,127.779 253.326,127.779 z" id="boundary" inkscape:connector-curvature="0" />
	<path style="fill:none;stroke:red;stroke-width:1px;stroke-linecap:butt;stroke-linejoin:miter;stroke-opacity:1" d="M 240.948,465.519 258.631,465.519 z" id="boundary" inkscape:connector-curvature="0" />
	<path style="fill:none;stroke:red;stroke-width:1px;stroke-linecap:butt;stroke-linejoin:miter;stroke-opacity:1" d="M 253.326,127.779 271.009,122.474 z" id="boundary" inkscape:connector-curvature="0" />
	<path style="fill:none;stroke:red;stroke-width:1px;stroke-linecap:butt;stroke-linejoin:miter;stroke-opacity:1" d="M 258.631,465.519 276.314,465.519 z" id="boundary" inkscape:connector-curvature="0" />
	<path style="fill:none;stroke:red;stroke-width:1px;stroke-linecap:butt;stroke-linejoin:miter;stroke-opacity:1" d="M 271.009,122.474 288.692,118.938 z" id="boundary" inkscape:connector-curvature="0" />
	<path style="fill:none;stroke:red;stroke-width:1px;stroke-linecap:butt;stroke-linejoin:miter;stroke-opacity:1" d="M 276.314,465.519 293.996,465.519 z" id="boundary" inkscape:connector-curvature="0" />
	<path style="fill:none;stroke:red;stroke-width:1px;stroke-linecap:butt;stroke-linejoin:miter;stroke-opacity:1" d="M 288.692,118.938 306.374,113.633 z" id="boundary" inkscape:connector-curvature="0" />
	<path style="fill:none;stroke:red;stroke-width:1px;stroke-linecap:butt;stroke-linejoin:miter;stroke-opacity:1" d="M 293.996,465.519 311.679,465.519 z" id="boundary" inkscape:connector-curvature="0" />
	<path style="fill:none;stroke:red;stroke-width:1px;stroke-linecap:butt;stroke-linejoin:miter;stroke-opacity:1" d="M 306.374,113.633 324.057,118.938 z" id="boundary" inkscape:connector-curvature="0" />
	<path style="fill:none;stroke:red;stroke-width:1px;stroke-linecap:butt;stroke-linejoin:miter;stroke-opacity:1" d="M 311.679,465.519 329.362,465.519 z" id="boundary" inkscape:connector-curvature="0" />
	<path style="fill:none;stroke:red;stroke-width:1px;stroke-linecap:butt;stroke-linejoin:miter;stroke-opacity:1" d="M 324.057,118.938 339.971,106.56 z" id="boundary" inkscape:connector-curvature="0" />
	<path style="fill:none;stroke:red;stroke-width:1px;stroke-linecap:butt;stroke-linejoin:miter;stroke-opacity:1" d="M 329.362,465.519 345.276,474.36 z" id="boundary" inkscape:connector-curvature="0" />
	<path style="fill:none;stroke:red;stroke-width:1px;stroke-linecap:butt;stroke-linejoin:miter;stroke-opacity:1" d="M 339.971,106.56 357.654,101.255 z" id="boundary" inkscape:connector-curvature="0" />
	<path style="fill:none;stroke:red;stroke-width:1px;stroke-linecap:butt;stroke-linejoin:miter;stroke-opacity:1" d="M 345.276,474.36 362.959,474.36 z" id="boundary" inkscape:connector-curvature="0" />
	<path style="fill:none;stroke:red;stroke-width:1px;stroke-linecap:butt;stroke-linejoin:miter;stroke-opacity:1" d="M 357.654,101.255 375.337,101.255 z" id="boundary" inkscape:connector-curvature="0" />
	<path style="fill:none;stroke:red;stroke-width:1px;stroke-linecap:butt;stroke-linejoin:miter;stroke-opacity:1" d="M 362.959,474.36 378.873,483.201 z" id="boundary" inkscape:connector-curvature="0" />
	<path style="fill:none;stroke:red;stroke-width:1px;stroke-linecap:butt;stroke-linejoin:miter;stroke-opacity:1" d="M 375.337,101.255 393.02,101.255 z" id="boundary" inkscape:connector-curvature="0" />
	<path style="fill:none;stroke:red;stroke-width:1px;stroke-linecap:butt;stroke-linejoin:miter;stroke-opacity:1" d="M 378.873,483.201 396.556,483.201 z" id="boundary" inkscape:connector-curvature="0" />
	<path style="fill:none;stroke:red;stroke-width:1px;stroke-linecap:butt;stroke-linejoin:miter;stroke-opacity:1" d="M 393.02,101.255 408.934,92.4135 z" id="boundary" inkscape:connector-curvature="0" />
	<path style="fill:none;stroke:red;stroke-width:1px;stroke-linecap:butt;stroke-linejoin:miter;stroke-opacity:1" d="M 396.556,483.201 414.239,483.201 z" id="boundary" inkscape:connector-curvature="0" />
	<path style="fill:none;stroke:red;stroke-width:1px;stroke-linecap:butt;stroke-linejoin:miter;stroke-opacity:1" d="M 408.934,92.4135 424.848,83.5722 z" id="boundary" inkscape:connector-curvature="0" />
	<path style="fill:none;stroke:red;stroke-width:1px;stroke-linecap:butt;stroke-linejoin:miter;stroke-opacity:1" d="M 414.239,483.201 430.153,492.043 z" id="boundary" inkscape:connector-curvature="0" />
	<path style="fill:none;stroke:red;stroke-width:1px;stroke-linecap:butt;stroke-linejoin:miter;stroke-opacity:1" d="M 424.848,83.5722 440.763,74.7308 z" id="boundary" inkscape:connector-curvature="0" />
	<path style="fill:none;stroke:red;stroke-width:1px;stroke-linecap:butt;stroke-linejoin:miter;stroke-opacity:1" d="M 430.153,492.043 447.836,492.043 z" id="boundary" inkscape:connector-curvature="0" />
	<path style="fill:none;stroke:red;stroke-width:1px;stroke-linecap:butt;stroke-linejoin:miter;stroke-opacity:1" d="M 440.763,74.7308 458.446,67.6578 z" id="boundary" inkscape:connector-curvature="0" />
	<path style="fill:none;stroke:red;stroke-width:1px;stroke-linecap:butt;stroke-linejoin:miter;stroke-opacity:1" d="M 447.836,492.043 465.519,492.043 z" id="boundary" inkscape:connector-curvature="0" />
	<path style="fill:none;stroke:red;stroke-width:1px;stroke-linecap:butt;stroke-linejoin:miter;stroke-opacity:1" d="M 465.519,492.043 483.201,495.579 z" id="boundary" inkscape:connector-curvature="0" />
	<path style="fill:none;stroke:red;stroke-width:1px;stroke-linecap:butt;stroke-linejoin:miter;stroke-opacity:1" d="M 483.201,495.579 500.884,500.884 z" id="boundary" inkscape:connector-curvature="0" />
	<path style="fill:none;stroke:red;stroke-width:1px;stroke-linecap:butt;stroke-linejoin:miter;stroke-opacity:1" d="M 490.275,35.8289 499.116,18.1462 z" id="boundary" inkscape:connector-curvature="0" />
	<path style="fill:none;stroke:red;stroke-width:1px;stroke-linecap:butt;stroke-linejoin:miter;stroke-opacity:1" d="M 499.116,18.1462 516.799,9.30481 z" id="boundary" inkscape:connector-curvature="0" />
	<path style="fill:none;stroke:red;stroke-width:1px;stroke-linecap:butt;stroke-linejoin:miter;stroke-opacity:1" d="M 500.884,500.884 518.567,500.884 z" id="boundary" inkscape:connector-curvature="0" />
	<path style="fill:none;stroke:red;stroke-width:1px;stroke-linecap:butt;stroke-linejoin:miter;stroke-opacity:1" d="M 516.799,9.30481 534.481,4 z" id="boundary" inkscape:connector-curvature="0" />
	<path style="fill:none;stroke:red;stroke-width:1px;stroke-linecap:butt;stroke-linejoin:miter;stroke-opacity:1" d="M 518.567,500.884 536.25,500.884 z" id="boundary" inkscape:connector-curvature="0" />
	<path style="fill:none;stroke:red;stroke-width:1px;stroke-linecap:butt;stroke-linejoin:miter;stroke-opacity:1" d="M 534.481,4 552.164,4 z" id="boundary" inkscape:connector-curvature="0" />
	<path style="fill:none;stroke:red;stroke-width:1px;stroke-linecap:butt;stroke-linejoin:miter;stroke-opacity:1" d="M 536.25,500.884 553.932,500.884 z" id="boundary" inkscape:connector-curvature="0" />
	<path style="fill:none;stroke:red;stroke-width:1px;stroke-linecap:butt;stroke-linejoin:miter;stroke-opacity:1" d="M 552.164,4 569.847,4 z" id="boundary" inkscape:connector-curvature="0" />
	<path style="fill:none;stroke:red;stroke-width:1px;stroke-linecap:butt;stroke-linejoin:miter;stroke-opacity:1" d="M 553.932,500.884 571.615,500.884 z" id="boundary" inkscape:connector-curvature="0" />
	<path style="fill:none;stroke:red;stroke-width:1px;stroke-linecap:butt;stroke-linejoin:miter;stroke-opacity:1" d="M 569.847,4 587.529,4 z" id="boundary" inkscape:connector-curvature="0" />
	<path style="fill:none;stroke:red;stroke-width:1px;stroke-linecap:butt;stroke-linejoin:miter;stroke-opacity:1" d="M 571.615,500.884 587.529,492.043 z" id="boundary" inkscape:connector-curvature="0" />
	<path style="fill:none;stroke:red;stroke-width:1px;stroke-linecap:butt;stroke-linejoin:miter;stroke-opacity:1" d="M 587.529,4 605.212,4 z" id="boundary" inkscape:connector-curvature="0" />
	<path style="fill:none;stroke:red;stroke-width:1px;stroke-linecap:butt;stroke-linejoin:miter;stroke-opacity:1" d="M 587.529,492.043 603.444,483.201 z" id="boundary" inkscape:connector-curvature="0" />
	<path style="fill:none;stroke:red;stroke-width:1px;stroke-linecap:butt;stroke-linejoin:miter;stroke-opacity:1" d="M 603.444,483.201 619.358,472.592 z" id="boundary" inkscape:connector-curvature="0" />
	<path style="fill:none;stroke:red;stroke-width:1px;stroke-linecap:butt;stroke-linejoin:miter;stroke-opacity:1" d="M 605.212,4 622.895,4 z" id="boundary" inkscape:connector-curvature="0" />
	<path style="fill:none;stroke:red;stroke-width:1px;stroke-linecap:butt;stroke-linejoin:miter;stroke-opacity:1" d="M 619.358,472.592 642.346,430.153 z" id="boundary" inkscape:connector-curvature="0" />
	<path style="fill:none;stroke:red;stroke-width:1px;stroke-linecap:butt;stroke-linejoin:miter;stroke-opacity:1" d="M 622.895,4 640.578,4 z" id="boundary" inkscape:connector-curvature="0" />
	<path style="fill:none;stroke:red;stroke-width:1px;stroke-linecap:butt;stroke-linejoin:miter;stroke-opacity:1" d="M 640.578,4 658.26,4 z" id="boundary" inkscape:connector-curvature="0" />
	<path style="fill:none;stroke:red;stroke-width:1px;stroke-linecap:butt;stroke-linejoin:miter;stroke-opacity:1" d="M 642.346,430.153 651.187,403.629 z" id="boundary" inkscape:connector-curvature="0" />
	<path style="fill:none;stroke:red;stroke-width:1px;stroke-linecap:butt;stroke-linejoin:miter;stroke-opacity:1" d="M 651.187,403.629 667.102,412.471 z" id="boundary" inkscape:connector-curvature="0" />
	<path style="fill:none;stroke:red;stroke-width:1px;stroke-linecap:butt;stroke-linejoin:miter;stroke-opacity:1" d="M 658.26,4 675.943,4 z" id="boundary" inkscape:connector-curvature="0" />
	<path style="fill:none;stroke:red;stroke-width:1px;stroke-linecap:butt;stroke-linejoin:miter;stroke-opacity:1" d="M 667.102,412.471 672.406,430.153 z" id="boundary" inkscape:connector-curvature="0" />
	<path style="fill:none;stroke:red;stroke-width:1px;stroke-linecap:butt;stroke-linejoin:miter;stroke-opacity:1" d="M 672.406,430.153 686.553,442.531 z" id="boundary" inkscape:connector-curvature="0" />
	<path style="fill:none;stroke:red;stroke-width:1px;stroke-linecap:butt;stroke-linejoin:miter;stroke-opacity:1" d="M 675.943,4 693.626,4 z" id="boundary" inkscape:connector-curvature="0" />
	<path style="fill:none;stroke:red;stroke-width:1px;stroke-linecap:butt;stroke-linejoin:miter;stroke-opacity:1" d="M 686.553,442.531 704.235,447.836 z" id="boundary" inkscape:connector-curvature="0" />
	<path style="fill:none;stroke:red;stroke-width:1px;stroke-linecap:butt;stroke-linejoin:miter;stroke-opacity:1" d="M 693.626,4 711.308,4 z" id="boundary" inkscape:connector-curvature="0" />
	<path style="fill:none;stroke:red;stroke-width:1px;stroke-linecap:butt;stroke-linejoin:miter;stroke-opacity:1" d="M 704.235,447.836 720.15,456.677 z" id="boundary" inkscape:connector-curvature="0" />
	<path style="fill:none;stroke:red;stroke-width:1px;stroke-linecap:butt;stroke-linejoin:miter;stroke-opacity:1" d="M 711.308,4 728.991,7.53654 z" id="boundary" inkscape:connector-curvature="0" />
	<path style="fill:none;stroke:red;stroke-width:1px;stroke-linecap:butt;stroke-linejoin:miter;stroke-opacity:1" d="M 720.15,456.677 737.832,456.677 z" id="boundary" inkscape:connector-curvature="0" />
	<path style="fill:none;stroke:red;stroke-width:1px;stroke-linecap:butt;stroke-linejoin:miter;stroke-opacity:1" d="M 728.991,7.53654 739.601,21.6827 z" id="boundary" inkscape:connector-curvature="0" />
	<path style="fill:none;stroke:red;stroke-width:1px;stroke-linecap:butt;stroke-linejoin:miter;stroke-opacity:1" d="M 737.832,456.677 755.515,456.677 z" id="boundary" inkscape:connector-curvature="0" />
	<path style="fill:none;stroke:red;stroke-width:1px;stroke-linecap:butt;stroke-linejoin:miter;stroke-opacity:1" d="M 739.601,21.6827 748.442,37.5971 z" id="boundary" inkscape:connector-curvature="0" />
	<path style="fill:none;stroke:red;stroke-width:1px;stroke-linecap:butt;stroke-linejoin:miter;stroke-opacity:1" d="M 748.442,37.5971 757.283,53.5116 z" id="boundary" inkscape:connector-curvature="0" />
	<path style="fill:none;stroke:red;stroke-width:1px;stroke-linecap:butt;stroke-linejoin:miter;stroke-opacity:1" d="M 755.515,456.677 773.198,456.677 z" id="boundary" inkscape:connector-curvature="0" />
	<path style="fill:none;stroke:red;stroke-width:1px;stroke-linecap:butt;stroke-linejoin:miter;stroke-opacity:1" d="M 757.283,53.5116 757.283,71.1943 z" id="boundary" inkscape:connector-curvature="0" />
	<path style="fill:none;stroke:red;stroke-width:1px;stroke-linecap:butt;stroke-linejoin:miter;stroke-opacity:1" d="M 757.283,71.1943 757.283,88.877 z" id="boundary" inkscape:connector-curvature="0" />
	<path style="fill:none;stroke:red;stroke-width:1px;stroke-linecap:butt;stroke-linejoin:miter;stroke-opacity:1" d="M 757.283,88.877 766.125,104.791 z" id="boundary" inkscape:connector-curvature="0" />
	<path style="fill:none;stroke:red;stroke-width:1px;stroke-linecap:butt;stroke-linejoin:miter;stroke-opacity:1" d="M 766.125,104.791 776.734,118.938 z" id="boundary" inkscape:connector-curvature="0" />
	<path style="fill:none;stroke:red;stroke-width:1px;stroke-linecap:butt;stroke-linejoin:miter;stroke-opacity:1" d="M 773.198,456.677 789.112,447.836 z" id="boundary" inkscape:connector-curvature="0" />
	<path style="fill:none;stroke:red;stroke-width:1px;stroke-linecap:butt;stroke-linejoin:miter;stroke-opacity:1" d="M 776.734,118.938 792.649,127.779 z" id="boundary" inkscape:connector-curvature="0" />
	<path style="fill:none;stroke:red;stroke-width:1px;stroke-linecap:butt;stroke-linejoin:miter;stroke-opacity:1" d="M 789.112,447.836 805.027,438.995 z" id="boundary" inkscape:connector-curvature="0" />
	<path style="fill:none;stroke:red;stroke-width:1px;stroke-linecap:butt;stroke-linejoin:miter;stroke-opacity:1" d="M 792.649,127.779 808.563,136.62 z" id="boundary" inkscape:connector-curvature="0" />
	<path style="fill:none;stroke:red;stroke-width:1px;stroke-linecap:butt;stroke-linejoin:miter;stroke-opacity:1" d="M 805.027,438.995 822.709,438.995 z" id="boundary" inkscape:connector-curvature="0" />
	<path style="fill:none;stroke:red;stroke-width:1px;stroke-linecap:butt;stroke-linejoin:miter;stroke-opacity:1" d="M 808.563,136.62 822.709,147.23 z" id="boundary" inkscape:connector-curvature="0" />
	<path style="fill:none;stroke:red;stroke-width:1px;stroke-linecap:butt;stroke-linejoin:miter;stroke-opacity:1" d="M 822.709,147.23 836.856,159.608 z" id="boundary" inkscape:connector-curvature="0" />
	<path style="fill:none;stroke:red;stroke-width:1px;stroke-linecap:butt;stroke-linejoin:miter;stroke-opacity:1" d="M 822.709,438.995 831.551,454.909 z" id="boundary" inkscape:connector-curvature="0" />
	<path style="fill:none;stroke:red;stroke-width:1px;stroke-linecap:butt;stroke-linejoin:miter;stroke-opacity:1" d="M 831.551,454.909 838.624,472.592 z" id="boundary" inkscape:connector-curvature="0" />
	<path style="fill:none;stroke:red;stroke-width:1px;stroke-linecap:butt;stroke-linejoin:miter;stroke-opacity:1" d="M 836.856,159.608 843.929,177.291 z" id="boundary" inkscape:connector-curvature="0" />
	<path style="fill:none;stroke:red;stroke-width:1px;stroke-linecap:butt;stroke-linejoin:miter;stroke-opacity:1" d="M 838.624,472.592 852.77,483.201 z" id="boundary" inkscape:connector-curvature="0" />
	<path style="fill:none;stroke:red;stroke-width:1px;stroke-linecap:butt;stroke-linejoin:miter;stroke-opacity:1" d="M 843.929,177.291 845.697,194.973 z" id="boundary" inkscape:connector-curvature="0" />
	<path style="fill:none;stroke:red;stroke-width:1px;stroke-linecap:butt;stroke-linejoin:miter;stroke-opacity:1" d="M 845.697,194.973 854.538,210.888 z" id="boundary" inkscape:connector-curvature="0" />
	<path style="fill:none;stroke:red;stroke-width:1px;stroke-linecap:butt;stroke-linejoin:miter;stroke-opacity:1" d="M 852.77,483.201 868.684,492.043 z" id="boundary" inkscape:connector-curvature="0" />
	<path style="fill:none;stroke:red;stroke-width:1px;stroke-linecap:butt;stroke-linejoin:miter;stroke-opacity:1" d="M 854.538,210.888 854.538,228.57 z" id="boundary" inkscape:connector-curvature="0" />
	<path style="fill:none;stroke:red;stroke-width:1px;stroke-linecap:butt;stroke-linejoin:miter;stroke-opacity:1" d="M 854.538,228.57 865.148,242.717 z" id="boundary" inkscape:connector-curvature="0" />
	<path style="fill:none;stroke:red;stroke-width:1px;stroke-linecap:butt;stroke-linejoin:miter;stroke-opacity:1" d="M 865.148,242.717 882.831,242.717 z" id="boundary" inkscape:connector-curvature="0" />
	<path style="fill:none;stroke:red;stroke-width:1px;stroke-linecap:butt;stroke-linejoin:miter;stroke-opacity:1" d="M 868.684,492.043 884.599,500.884 z" id="boundary" inkscape:connector-curvature="0" />
	<path style="fill:none;stroke:red;stroke-width:1px;stroke-linecap:butt;stroke-linejoin:miter;stroke-opacity:1" d="M 882.831,242.717 900.513,242.717 z" id="boundary" inkscape:connector-curvature="0" />
	<path style="fill:none;stroke:red;stroke-width:1px;stroke-linecap:butt;stroke-linejoin:miter;stroke-opacity:1" d="M 884.599,500.884 902.282,500.884 z" id="boundary" inkscape:connector-curvature="0" />
	<path style="fill:none;stroke:red;stroke-width:1px;stroke-linecap:butt;stroke-linejoin:miter;stroke-opacity:1" d="M 900.513,242.717 914.66,255.094 z" id="boundary" inkscape:connector-curvature="0" />
	<path style="fill:none;stroke:red;stroke-width:1px;stroke-linecap:butt;stroke-linejoin:miter;stroke-opacity:1" d="M 902.282,500.884 918.196,492.043 z" id="boundary" inkscape:connector-curvature="0" />
	<path style="fill:none;stroke:red;stroke-width:1px;stroke-linecap:butt;stroke-linejoin:miter;stroke-opacity:1" d="M 914.66,255.094 925.269,269.241 z" id="boundary" inkscape:connector-curvature="0" />
	<path style="fill:none;stroke:red;stroke-width:1px;stroke-linecap:butt;stroke-linejoin:miter;stroke-opacity:1" d="M 918.196,492.043 932.342,477.897 z" id="boundary" inkscape:connector-curvature="0" />
	<path style="fill:none;stroke:red;stroke-width:1px;stroke-linecap:butt;stroke-linejoin:miter;stroke-opacity:1" d="M 925.269,269.241 934.111,285.155 z" id="boundary" inkscape:connector-curvature="0" />
	<path style="fill:none;stroke:red;stroke-width:1px;stroke-linecap:butt;stroke-linejoin:miter;stroke-opacity:1" d="M 934.111,285.155 951.793,278.082 z" id="boundary" inkscape:connector-curvature="0" />
	<path style="fill:none;stroke:red;stroke-width:1px;stroke-linecap:butt;stroke-linejoin:miter;stroke-opacity:1" d="M 942.952,394.788 942.952,412.471 z" id="boundary" inkscape:connector-curvature="0" />
	<path style="fill:none;stroke:red;stroke-width:1px;stroke-linecap:butt;stroke-linejoin:miter;stroke-opacity:1" d="M 942.952,394.788 960.635,394.788 z" id="boundary" inkscape:connector-curvature="0" />
	<path style="fill:none;stroke:red;stroke-width:1px;stroke-linecap:butt;stroke-linejoin:miter;stroke-opacity:1" d="M 951.793,278.082 969.476,272.777 z" id="boundary" inkscape:connector-curvature="0" />
	<path style="fill:none;stroke:red;stroke-width:1px;stroke-linecap:butt;stroke-linejoin:miter;stroke-opacity:1" d="M 960.635,394.788 978.317,385.947 z" id="boundary" inkscape:connector-curvature="0" />
	<path style="fill:none;stroke:red;stroke-width:1px;stroke-linecap:butt;stroke-linejoin:miter;stroke-opacity:1" d="M 969.476,272.777 985.39,281.619 z" id="boundary" inkscape:connector-curvature="0" />
	<path style="fill:none;stroke:red;stroke-width:1px;stroke-linecap:butt;stroke-linejoin:miter;stroke-opacity:1" d="M 985.39,281.619 996,295.765 z" id="boundary" inkscape:connector-curvature="0" />
	<path style="fill:none;stroke:red;stroke-width:1px;stroke-linecap:butt;stroke-linejoin:miter;stroke-opacity:1" d="M 996,295.765 996,313.447 z" id="boundary" inkscape:connector-curvature="0" />
	<path style="fill:none;stroke:red;stroke-width:1px;stroke-linecap:butt;stroke-linejoin:miter;stroke-opacity:1" d="M 996,313.447 996,331.13 z" id="boundary" inkscape:connector-curvature="0" />
	<circle cx="4" cy="194.973" r="4" fill="#0" id="circle0"/>
	<circle cx="4" cy="212.656" r="4" fill="#0" id="circle1"/>
	<circle cx="4" cy="230.339" r="4" fill="#0" id="circle2"/>
	<circle cx="4" cy="248.021" r="4" fill="#0" id="circle3"/>
	<circle cx="4" cy="265.704" r="4" fill="#0" id="circle4"/>
	<circle cx="12.8414" cy="177.291" r="4" fill="#0" id="circle5"/>
	<circle cx="12.8414" cy="281.619" r="4" fill="#0" id="circle6"/>
	<circle cx="25.2193" cy="295.765" r="4" fill="#0" id="circle7"/>
	<circle cx="26.9875" cy="163.144" r="4" fill="#0" id="circle8"/>
	<circle cx="39.3654" cy="407.166" r="4" fill="#0" id="circle9"/>
	<circle cx="39.3654" cy="424.848" r="4" fill="#0" id="circle10"/>
	<circle cx="39.3654" cy="442.531" r="4" fill="#0" id="circle11"/>
	<circle cx="39.3654" cy="460.214" r="4" fill="#0" id="circle12"/>
	<circle cx="42.902" cy="154.303" r="4" fill="#0" id="circle13"/>
	<circle cx="42.902" cy="297.533" r="4" fill="#0" id="circle14"/>
	<circle cx="48.2068" cy="389.483" r="4" fill="#0" id="circle15"/>
	<circle cx="48.2068" cy="476.128" r="4" fill="#0" id="circle16"/>
	<circle cx="57.0481" cy="371.8" r="4" fill="#0" id="circle17"/>
	<circle cx="57.0481" cy="492.043" r="4" fill="#0" id="circle18"/>
	<circle cx="58.8164" cy="145.462" r="4" fill="#0" id="circle19"/>
	<circle cx="60.5847" cy="297.533" r="4" fill="#0" id="circle20"/>
	<circle cx="71.1943" cy="357.654" r="4" fill="#0" id="circle21"/>
	<circle cx="72.9626" cy="500.884" r="4" fill="#0" id="circle22"/>
	<circle cx="76.4991" cy="140.157" r="4" fill="#0" id="circle23"/>
	<circle cx="78.2674" cy="297.533" r="4" fill="#0" id="circle24"/>
	<circle cx="85.3405" cy="343.508" r="4" fill="#0" id="circle25"/>
	<circle cx="88.877" cy="509.725" r="4" fill="#0" id="circle26"/>
	<circle cx="94.1818" cy="136.62" r="4" fill="#0" id="circle27"/>
	<circle cx="95.9501" cy="297.533" r="4" fill="#0" id="circle28"/>
	<circle cx="103.023" cy="334.667" r="4" fill="#0" id="circle29"/>
	<circle cx="106.56" cy="509.725" r="4" fill="#0" id="circle30"/>
	<circle cx="111.865" cy="131.316" r="4" fill="#0" id="circle31"/>
	<circle cx="111.865" cy="288.692" r="4" fill="#0" id="circle32"/>
	<circle cx="120.706" cy="331.13" r="4" fill="#0" id="circle33"/>
	<circle cx="124.242" cy="509.725" r="4" fill="#0" id="circle34"/>
	<circle cx="129.547" cy="127.779" r="4" fill="#0" id="circle35"/>
	<circle cx="129.547" cy="288.692" r="4" fill="#0" id="circle36"/>
	<circle cx="136.62" cy="306.374" r="4" fill="#0" id="circle37"/>
	<circle cx="141.925" cy="509.725" r="4" fill="#0" id="circle38"/>
	<circle cx="147.23" cy="127.779" r="4" fill="#0" id="circle39"/>
	<circle cx="157.84" cy="500.884" r="4" fill="#0" id="circle40"/>
	<circle cx="164.913" cy="127.779" r="4" fill="#0" id="circle41"/>
	<circle cx="173.754" cy="492.043" r="4" fill="#0" id="circle42"/>
	<circle cx="182.595" cy="127.779" r="4" fill="#0" id="circle43"/>
	<circle cx="191.437" cy="483.201" r="4" fill="#0" id="circle44"/>
	<circle cx="200.278" cy="127.779" r="4" fill="#0" id="circle45"/>
	<circle cx="205.583" cy="470.824" r="4" fill="#0" id="circle46"/>
	<circle cx="217.961" cy="127.779" r="4" fill="#0" id="circle47"/>
	<circle cx="223.266" cy="465.519" r="4" fill="#0" id="circle48"/>
	<circle cx="235.643" cy="127.779" r="4" fill="#0" id="circle49"/>
	<circle cx="240.948" cy="465.519" r="4" fill="#0" id="circle50"/>
	<circle cx="253.326" cy="127.779" r="4" fill="#0" id="circle51"/>
	<circle cx="258.631" cy="465.519" r="4" fill="#0" id="circle52"/>
	<circle cx="271.009" cy="122.474" r="4" fill="#0" id="circle53"/>
	<circle cx="276.314" cy="465.519" r="4" fill="#0" id="circle54"/>
	<circle cx="288.692" cy="118.938" r="4" fill="#0" id="circle55"/>
	<circle cx="293.996" cy="465.519" r="4" fill="#0" id="circle56"/>
	<circle cx="306.374" cy="113.633" r="4" fill="#0" id="circle57"/>
	<circle cx="311.679" cy="465.519" r="4" fill="#0" id="circle58"/>
	<circle cx="324.057" cy="118.938" r="4" fill="#0" id="circle59"/>
	<circle cx="329.362" cy="465.519" r="4" fill="#0" id="circle60"/>
	<circle cx="339.971" cy="106.56" r="4" fill="#0" id="circle61"/>
	<circle cx="345.276" cy="474.36" r="4" fill="#0" id="circle62"/>
	<circle cx="357.654" cy="101.255" r="4" fill="#0" id="circle63"/>
	<circle cx="362.959" cy="474.36" r="4" fill="#0" id="circle64"/>
	<circle cx="375.337" cy="101.255" r="4" fill="#0" id="circle65"/>
	<circle cx="378.873" cy="483.201" r="4" fill="#0" id="circle66"/>
	<circle cx="393.02" cy="101.255" r="4" fill="#0" id="circle67"/>
	<circle cx="396.556" cy="483.201" r="4" fill="#0" id="circle68"/>
	<circle cx="408.934" cy="92.4135" r="4" fill="#0" id="circle69"/>
	<circle cx="414.239" cy="483.201" r="4" fill="#0" id="circle70"/>
	<circle cx="424.848" cy="83.5722" r="4" fill="#0" id="circle71"/>
	<circle cx="430.153" cy="492.043" r="4" fill="#0" id="circle72"/>
	<circle cx="440.763" cy="74.7308" r="4" fill="#0" id="circle73"/>
	<circle cx="447.836" cy="492.043" r="4" fill="#0" id="circle74"/>
	<circle cx="458.446" cy="67.6578" r="4" fill="#0" id="circle75"/>
	<circle cx="465.519" cy="492.043" r="4" fill="#0" id="circle76"/>
	<circle cx="476.128" cy="58.8164" r="4" fill="#0" id="circle77"/>
	<circle cx="483.201" cy="495.579" r="4" fill="#0" id="circle78"/>
	<circle cx="490.275" cy="35.8289" r="4" fill="#0" id="circle79"/>
	<circle cx="499.116" cy="18.1462" r="4" fill="#0" id="circle80"/>
	<circle cx="500.884" cy="500.884" r="4" fill="#0" id="circle81"/>
	<circle cx="516.799" cy="9.30481" r="4" fill="#0" id="circle82"/>
	<circle cx="518.567" cy="500.884" r="4" fill="#0" id="circle83"/>
	<circle cx="534.481" cy="4" r="4" fill="#0" id="circle84"/>
	<circle cx="536.25" cy="500.884" r="4" fill="#0" id="circle85"/>
	<circle cx="552.164" cy="4" r="4" fill="#0" id="circle86"/>
	<circle cx="553.932" cy="500.884" r="4" fill="#0" id="circle87"/>
	<circle cx="569.847" cy="4" r="4" fill="#0" id="circle88"/>
	<circle cx="571.615" cy="500.884" r="4" fill="#0" id="circle89"/>
	<circle cx="587.529" cy="4" r="4" fill="#0" id="circle90"/>
	<circle cx="587.529" cy="492.043" r="4" fill="#0" id="circle91"/>
	<circle cx="603.444" cy="483.201" r="4" fill="#0" id="circle92"/>
	<circle cx="605.212" cy="4" r="4" fill="#0" id="circle93"/>
	<circle cx="619.358" cy="472.592" r="4" fill="#0" id="circle94"/>
	<circle cx="622.895" cy="4" r="4" fill="#0" id="circle95"/>
	<circle cx="633.504" cy="456.677" r="4" fill="#0" id="circle96"/>
	<circle cx="640.578" cy="4" r="4" fill="#0" id="circle97"/>
	<circle cx="642.346" cy="430.153" r="4" fill="#0" id="circle98"/>
	<circle cx="651.187" cy="403.629" r="4" fill="#0" id="circle99"/>
	<circle cx="658.26" cy="4" r="4" fill="#0" id="circle100"/>
	<circle cx="667.102" cy="412.471" r="4" fill="#0" id="circle101"/>
	<circle cx="672.406" cy="430.153" r="4" fill="#0" id="circle102"/>
	<circle cx="675.943" cy="4" r="4" fill="#0" id="circle103"/>
	<circle cx="686.553" cy="442.531" r="4" fill="#0" id="circle104"/>
	<circle cx="693.626" cy="4" r="4" fill="#0" id="circle105"/>
	<circle cx="704.235" cy="447.836" r="4" fill="#0" id="circle106"/>
	<circle cx="711.308" cy="4" r="4" fill="#0" id="circle107"/>
	<circle cx="720.15" cy="456.677" r="4" fill="#0" id="circle108"/>
	<circle cx="728.991" cy="7.53654" r="4" fill="#0" id="circle109"/>
	<circle cx="737.832" cy="456.677" r="4" fill="#0" id="circle110"/>
	<circle cx="739.601" cy="21.6827" r="4" fill="#0" id="circle111"/>
	<circle cx="748.442" cy="37.5971" r="4" fill="#0" id="circle112"/>
	<circle cx="755.515" cy="456.677" r="4" fill="#0" id="circle113"/>
	<circle cx="757.283" cy="53.5116" r="4" fill="#0" id="circle114"/>
	<circle cx="757.283" cy="71.1943" r="4" fill="#0" id="circle115"/>
	<circle cx="757.283" cy="88.877" r="4" fill="#0" id="circle116"/>
	<circle cx="766.125" cy="104.791" r="4" fill="#0" id="circle117"/>
	<circle cx="773.198" cy="456.677" r="4" fill="#0" id="circle118"/>
	<circle cx="776.734" cy="118.938" r="4" fill="#0" id="circle119"/>
	<circle cx="789.112" cy="447.836" r="4" fill="#0" id="circle120"/>
	<circle cx="792.649" cy="127.779" r="4" fill="#0" id="circle121"/>
	<circle cx="805.027" cy="438.995" r="4" fill="#0" id="circle122"/>
	<circle cx="808.563" cy="136.62" r="4" fill="#0" id="circle123"/>
	<circle cx="822.709" cy="147.23" r="4" fill="#0" id="circle124"/>
	<circle cx="822.709" cy="438.995" r="4" fill="#0" id="circle125"/>
	<circle cx="831.551" cy="454.909" r="4" fill="#0" id="circle126"/>
	<circle cx="836.856" cy="159.608" r="4" fill="#0" id="circle127"/>
	<circle cx="838.624" cy="472.592" r="4" fill="#0" id="circle128"/>
	<circle cx="843.929" cy="177.291" r="4" fill="#0" id="circle129"/>
	<circle cx="845.697" cy="194.973" r="4" fill="#0" id="circle130"/>
	<circle cx="852.77" cy="483.201" r="4" fill="#0" id="circle131"/>
	<circle cx="854.538" cy="210.888" r="4" fill="#0" id="circle132"/>
	<circle cx="854.538" cy="228.57" r="4" fill="#0" id="circle133"/>
	<circle cx="865.148" cy="242.717" r="4" fill="#0" id="circle134"/>
	<circle cx="868.684" cy="492.043" r="4" fill="#0" id="circle135"/>
	<circle cx="882.831" cy="242.717" r="4" fill="#0" id="circle136"/>
	<circle cx="884.599" cy="500.884" r="4" fill="#0" id="circle137"/>
	<circle cx="900.513" cy="242.717" r="4" fill="#0" id="circle138"/>
	<circle cx="902.282" cy="500.884" r="4" fill="#0" id="circle139"/>
	<circle cx="914.66" cy="255.094" r="4" fill="#0" id="circle140"/>
	<circle cx="918.196" cy="492.043" r="4" fill="#0" id="circle141"/>
	<circle cx="925.269" cy="269.241" r="4" fill="#0" id="circle142"/>
	<circle cx="932.342" cy="477.897" r="4" fill="#0" id="circle143"/>
	<circle cx="934.111" cy="285.155" r="4" fill="#0" id="circle144"/>
	<circle cx="941.184" cy="460.214" r="4" fill="#0" id="circle145"/>
	<circle cx="942.952" cy="394.788" r="4" fill="#0" id="circle146"/>
	<circle cx="942.952" cy="412.471" r="4" fill="#0" id="circle147"/>
	<circle cx="942.952" cy="430.153" r="4" fill="#0" id="circle148"/>
	<circle cx="951.793" cy="278.082" r="4" fill="#0" id="circle149"/>
	<circle cx="960.635" cy="394.788" r="4" fill="#0" id="circle150"/>
	<circle cx="969.476" cy="272.777" r="4" fill="#0" id="circle151"/>
	<circle cx="978.317" cy="385.947" r="4" fill="#0" id="circle152"/>
	<circle cx="985.39" cy="281.619" r="4" fill="#0" id="circle153"/>
	<circle cx="992.463" cy="373.569" r="4" fill="#0" id="circle154"/>
	<circle cx="996" cy="295.765" r="4" fill="#0" id="circle155"/>
	<circle cx="996" cy="313.447" r="4" fill="#0" id="circle156"/>
	<circle cx="996" cy="331.13" r="4" fill="#0" id="circle157"/>
	<circle cx="996" cy="348.813" r="4" fill="#0" id="circle158"/>
	</g>
</svg>