<?xml version="1.0" encoding="UTF-8" standalone="no"?>
<!-- Created with CurveBenchmark -->
<svg
	xmlns:dc="http://purl.org/dc/elements/1.1/"
	xmlns:cc="http://creativecommons.org/ns#"
	xmlns:rdf="http://www.w3.org/1999/02/22-rdf-syntax-ns#"
	xmlns:svg="http://www.w3.org/2000/svg"
	xmlns="http://www.w3.org/2000/svg"
	xmlns:sodipodi="http://sodipodi.sourceforge.net/DTD/sodipodi-0.dtd"
	xmlns:inkscape="http://www.inkscape.org/namespaces/inkscape"
	width="1000"
	height="1000"
	id="svg2"
	version="1.1"
	sodipodi:docname="manifold/discur-cat10.png.txt">
<defs
	id="defs4" />
<metadata
	id="metadata7">
	<rdf:RDF>
		<cc:Work
			rdf:about="">
			<dc:format>image/svg+xml</dc:format>
			<dc:type
				rdf:resource="http://purl.org/dc/dcmitype/StillImage" />
			<dc:title></dc:title>
		</cc:Work>
	</rdf:RDF>
</metadata>
<g
	inkscape:label="Layer 1"
	inkscape:groupmode="layer"
	id="layer1">
	<path style="fill:none;stroke:red;stroke-width:1px;stroke-linecap:butt;stroke-linejoin:miter;stroke-opacity:1" d="M 4,111.757 4,127.604 z" id="boundary" inkscape:connector-curvature="0" />
	<path style="fill:none;stroke:red;stroke-width:1px;stroke-linecap:butt;stroke-linejoin:miter;stroke-opacity:1" d="M 4,111.757 16.6773,99.0799 z" id="boundary" inkscape:connector-curvature="0" />
	<path style="fill:none;stroke:red;stroke-width:1px;stroke-linecap:butt;stroke-linejoin:miter;stroke-opacity:1" d="M 4,127.604 16.6773,138.696 z" id="boundary" inkscape:connector-curvature="0" />
	<path style="fill:none;stroke:red;stroke-width:1px;stroke-linecap:butt;stroke-linejoin:miter;stroke-opacity:1" d="M 16.6773,99.0799 19.8466,80.0639 z" id="boundary" inkscape:connector-curvature="0" />
	<path style="fill:none;stroke:red;stroke-width:1px;stroke-linecap:butt;stroke-linejoin:miter;stroke-opacity:1" d="M 16.6773,138.696 27.77,151.374 z" id="boundary" inkscape:connector-curvature="0" />
	<path style="fill:none;stroke:red;stroke-width:1px;stroke-linecap:butt;stroke-linejoin:miter;stroke-opacity:1" d="M 19.8466,80.0639 32.524,67.3866 z" id="boundary" inkscape:connector-curvature="0" />
	<path style="fill:none;stroke:red;stroke-width:1px;stroke-linecap:butt;stroke-linejoin:miter;stroke-opacity:1" d="M 27.77,151.374 40.4473,162.466 z" id="boundary" inkscape:connector-curvature="0" />
	<path style="fill:none;stroke:red;stroke-width:1px;stroke-linecap:butt;stroke-linejoin:miter;stroke-opacity:1" d="M 32.524,67.3866 45.2013,54.7093 z" id="boundary" inkscape:connector-curvature="0" />
	<path style="fill:none;stroke:red;stroke-width:1px;stroke-linecap:butt;stroke-linejoin:miter;stroke-opacity:1" d="M 40.4473,162.466 56.2939,164.051 z" id="boundary" inkscape:connector-curvature="0" />
	<path style="fill:none;stroke:red;stroke-width:1px;stroke-linecap:butt;stroke-linejoin:miter;stroke-opacity:1" d="M 45.2013,54.7093 59.4633,40.4473 z" id="boundary" inkscape:connector-curvature="0" />
	<path style="fill:none;stroke:red;stroke-width:1px;stroke-linecap:butt;stroke-linejoin:miter;stroke-opacity:1" d="M 56.2939,164.051 72.1406,164.051 z" id="boundary" inkscape:connector-curvature="0" />
	<path style="fill:none;stroke:red;stroke-width:1px;stroke-linecap:butt;stroke-linejoin:miter;stroke-opacity:1" d="M 59.4633,8.75399 59.4633,24.6006 z" id="boundary" inkscape:connector-curvature="0" />
	<path style="fill:none;stroke:red;stroke-width:1px;stroke-linecap:butt;stroke-linejoin:miter;stroke-opacity:1" d="M 59.4633,8.75399 75.3099,4 z" id="boundary" inkscape:connector-curvature="0" />
	<path style="fill:none;stroke:red;stroke-width:1px;stroke-linecap:butt;stroke-linejoin:miter;stroke-opacity:1" d="M 59.4633,24.6006 59.4633,40.4473 z" id="boundary" inkscape:connector-curvature="0" />
	<path style="fill:none;stroke:red;stroke-width:1px;stroke-linecap:butt;stroke-linejoin:miter;stroke-opacity:1" d="M 72.1406,164.051 87.9872,164.051 z" id="boundary" inkscape:connector-curvature="0" />
	<path style="fill:none;stroke:red;stroke-width:1px;stroke-linecap:butt;stroke-linejoin:miter;stroke-opacity:1" d="M 75.3099,4 89.5719,11.9233 z" id="boundary" inkscape:connector-curvature="0" />
	<path style="fill:none;stroke:red;stroke-width:1px;stroke-linecap:butt;stroke-linejoin:miter;stroke-opacity:1" d="M 87.9872,164.051 103.834,164.051 z" id="boundary" inkscape:connector-curvature="0" />
	<path style="fill:none;stroke:red;stroke-width:1px;stroke-linecap:butt;stroke-linejoin:miter;stroke-opacity:1" d="M 89.5719,11.9233 103.834,19.8466 z" id="boundary" inkscape:connector-curvature="0" />
	<path style="fill:none;stroke:red;stroke-width:1px;stroke-linecap:butt;stroke-linejoin:miter;stroke-opacity:1" d="M 103.834,19.8466 118.096,27.77 z" id="boundary" inkscape:connector-curvature="0" />
	<path style="fill:none;stroke:red;stroke-width:1px;stroke-linecap:butt;stroke-linejoin:miter;stroke-opacity:1" d="M 103.834,164.051 119.681,164.051 z" id="boundary" inkscape:connector-curvature="0" />
	<path style="fill:none;stroke:red;stroke-width:1px;stroke-linecap:butt;stroke-linejoin:miter;stroke-opacity:1" d="M 118.096,27.77 133.942,27.77 z" id="boundary" inkscape:connector-curvature="0" />
	<path style="fill:none;stroke:red;stroke-width:1px;stroke-linecap:butt;stroke-linejoin:miter;stroke-opacity:1" d="M 119.681,164.051 135.527,164.051 z" id="boundary" inkscape:connector-curvature="0" />
	<path style="fill:none;stroke:red;stroke-width:1px;stroke-linecap:butt;stroke-linejoin:miter;stroke-opacity:1" d="M 133.942,27.77 148.204,35.6933 z" id="boundary" inkscape:connector-curvature="0" />
	<path style="fill:none;stroke:red;stroke-width:1px;stroke-linecap:butt;stroke-linejoin:miter;stroke-opacity:1" d="M 135.527,164.051 151.374,164.051 z" id="boundary" inkscape:connector-curvature="0" />
	<path style="fill:none;stroke:red;stroke-width:1px;stroke-linecap:butt;stroke-linejoin:miter;stroke-opacity:1" d="M 148.204,35.6933 164.051,35.6933 z" id="boundary" inkscape:connector-curvature="0" />
	<path style="fill:none;stroke:red;stroke-width:1px;stroke-linecap:butt;stroke-linejoin:miter;stroke-opacity:1" d="M 151.374,164.051 162.466,176.728 z" id="boundary" inkscape:connector-curvature="0" />
	<path style="fill:none;stroke:red;stroke-width:1px;stroke-linecap:butt;stroke-linejoin:miter;stroke-opacity:1" d="M 162.466,176.728 170.39,190.99 z" id="boundary" inkscape:connector-curvature="0" />
	<path style="fill:none;stroke:red;stroke-width:1px;stroke-linecap:butt;stroke-linejoin:miter;stroke-opacity:1" d="M 164.051,35.6933 179.898,40.4473 z" id="boundary" inkscape:connector-curvature="0" />
	<path style="fill:none;stroke:red;stroke-width:1px;stroke-linecap:butt;stroke-linejoin:miter;stroke-opacity:1" d="M 170.39,190.99 178.313,205.252 z" id="boundary" inkscape:connector-curvature="0" />
	<path style="fill:none;stroke:red;stroke-width:1px;stroke-linecap:butt;stroke-linejoin:miter;stroke-opacity:1" d="M 178.313,205.252 186.236,219.514 z" id="boundary" inkscape:connector-curvature="0" />
	<path style="fill:none;stroke:red;stroke-width:1px;stroke-linecap:butt;stroke-linejoin:miter;stroke-opacity:1" d="M 179.898,40.4473 195.744,43.6166 z" id="boundary" inkscape:connector-curvature="0" />
	<path style="fill:none;stroke:red;stroke-width:1px;stroke-linecap:butt;stroke-linejoin:miter;stroke-opacity:1" d="M 186.236,219.514 200.498,227.438 z" id="boundary" inkscape:connector-curvature="0" />
	<path style="fill:none;stroke:red;stroke-width:1px;stroke-linecap:butt;stroke-linejoin:miter;stroke-opacity:1" d="M 195.744,43.6166 210.006,35.6933 z" id="boundary" inkscape:connector-curvature="0" />
	<path style="fill:none;stroke:red;stroke-width:1px;stroke-linecap:butt;stroke-linejoin:miter;stroke-opacity:1" d="M 200.498,227.438 211.591,240.115 z" id="boundary" inkscape:connector-curvature="0" />
	<path style="fill:none;stroke:red;stroke-width:1px;stroke-linecap:butt;stroke-linejoin:miter;stroke-opacity:1" d="M 210.006,35.6933 225.853,35.6933 z" id="boundary" inkscape:connector-curvature="0" />
	<path style="fill:none;stroke:red;stroke-width:1px;stroke-linecap:butt;stroke-linejoin:miter;stroke-opacity:1" d="M 210.006,389.073 210.006,404.92 z" id="boundary" inkscape:connector-curvature="0" />
	<path style="fill:none;stroke:red;stroke-width:1px;stroke-linecap:butt;stroke-linejoin:miter;stroke-opacity:1" d="M 210.006,389.073 222.684,376.396 z" id="boundary" inkscape:connector-curvature="0" />
	<path style="fill:none;stroke:red;stroke-width:1px;stroke-linecap:butt;stroke-linejoin:miter;stroke-opacity:1" d="M 210.006,404.92 225.853,409.674 z" id="boundary" inkscape:connector-curvature="0" />
	<path style="fill:none;stroke:red;stroke-width:1px;stroke-linecap:butt;stroke-linejoin:miter;stroke-opacity:1" d="M 211.591,240.115 227.438,238.53 z" id="boundary" inkscape:connector-curvature="0" />
	<path style="fill:none;stroke:red;stroke-width:1px;stroke-linecap:butt;stroke-linejoin:miter;stroke-opacity:1" d="M 222.684,376.396 238.53,376.396 z" id="boundary" inkscape:connector-curvature="0" />
	<path style="fill:none;stroke:red;stroke-width:1px;stroke-linecap:butt;stroke-linejoin:miter;stroke-opacity:1" d="M 225.853,35.6933 241.7,35.6933 z" id="boundary" inkscape:connector-curvature="0" />
	<path style="fill:none;stroke:red;stroke-width:1px;stroke-linecap:butt;stroke-linejoin:miter;stroke-opacity:1" d="M 225.853,409.674 241.7,409.674 z" id="boundary" inkscape:connector-curvature="0" />
	<path style="fill:none;stroke:red;stroke-width:1px;stroke-linecap:butt;stroke-linejoin:miter;stroke-opacity:1" d="M 227.438,238.53 241.7,246.454 z" id="boundary" inkscape:connector-curvature="0" />
	<path style="fill:none;stroke:red;stroke-width:1px;stroke-linecap:butt;stroke-linejoin:miter;stroke-opacity:1" d="M 238.53,376.396 254.377,368.473 z" id="boundary" inkscape:connector-curvature="0" />
	<path style="fill:none;stroke:red;stroke-width:1px;stroke-linecap:butt;stroke-linejoin:miter;stroke-opacity:1" d="M 241.7,35.6933 257.546,35.6933 z" id="boundary" inkscape:connector-curvature="0" />
	<path style="fill:none;stroke:red;stroke-width:1px;stroke-linecap:butt;stroke-linejoin:miter;stroke-opacity:1" d="M 241.7,246.454 257.546,251.208 z" id="boundary" inkscape:connector-curvature="0" />
	<path style="fill:none;stroke:red;stroke-width:1px;stroke-linecap:butt;stroke-linejoin:miter;stroke-opacity:1" d="M 241.7,409.674 257.546,409.674 z" id="boundary" inkscape:connector-curvature="0" />
	<path style="fill:none;stroke:red;stroke-width:1px;stroke-linecap:butt;stroke-linejoin:miter;stroke-opacity:1" d="M 254.377,368.473 265.47,344.703 z" id="boundary" inkscape:connector-curvature="0" />
	<path style="fill:none;stroke:red;stroke-width:1px;stroke-linecap:butt;stroke-linejoin:miter;stroke-opacity:1" d="M 257.546,35.6933 273.393,35.6933 z" id="boundary" inkscape:connector-curvature="0" />
	<path style="fill:none;stroke:red;stroke-width:1px;stroke-linecap:butt;stroke-linejoin:miter;stroke-opacity:1" d="M 257.546,251.208 257.546,267.054 z" id="boundary" inkscape:connector-curvature="0" />
	<path style="fill:none;stroke:red;stroke-width:1px;stroke-linecap:butt;stroke-linejoin:miter;stroke-opacity:1" d="M 257.546,267.054 265.47,281.316 z" id="boundary" inkscape:connector-curvature="0" />
	<path style="fill:none;stroke:red;stroke-width:1px;stroke-linecap:butt;stroke-linejoin:miter;stroke-opacity:1" d="M 257.546,409.674 273.393,409.674 z" id="boundary" inkscape:connector-curvature="0" />
	<path style="fill:none;stroke:red;stroke-width:1px;stroke-linecap:butt;stroke-linejoin:miter;stroke-opacity:1" d="M 265.47,281.316 265.47,297.163 z" id="boundary" inkscape:connector-curvature="0" />
	<path style="fill:none;stroke:red;stroke-width:1px;stroke-linecap:butt;stroke-linejoin:miter;stroke-opacity:1" d="M 265.47,297.163 265.47,313.01 z" id="boundary" inkscape:connector-curvature="0" />
	<path style="fill:none;stroke:red;stroke-width:1px;stroke-linecap:butt;stroke-linejoin:miter;stroke-opacity:1" d="M 265.47,313.01 265.47,328.856 z" id="boundary" inkscape:connector-curvature="0" />
	<path style="fill:none;stroke:red;stroke-width:1px;stroke-linecap:butt;stroke-linejoin:miter;stroke-opacity:1" d="M 265.47,328.856 265.47,344.703 z" id="boundary" inkscape:connector-curvature="0" />
	<path style="fill:none;stroke:red;stroke-width:1px;stroke-linecap:butt;stroke-linejoin:miter;stroke-opacity:1" d="M 273.393,35.6933 289.24,35.6933 z" id="boundary" inkscape:connector-curvature="0" />
	<path style="fill:none;stroke:red;stroke-width:1px;stroke-linecap:butt;stroke-linejoin:miter;stroke-opacity:1" d="M 273.393,409.674 289.24,409.674 z" id="boundary" inkscape:connector-curvature="0" />
	<path style="fill:none;stroke:red;stroke-width:1px;stroke-linecap:butt;stroke-linejoin:miter;stroke-opacity:1" d="M 289.24,35.6933 305.086,35.6933 z" id="boundary" inkscape:connector-curvature="0" />
	<path style="fill:none;stroke:red;stroke-width:1px;stroke-linecap:butt;stroke-linejoin:miter;stroke-opacity:1" d="M 289.24,409.674 301.917,400.166 z" id="boundary" inkscape:connector-curvature="0" />
	<path style="fill:none;stroke:red;stroke-width:1px;stroke-linecap:butt;stroke-linejoin:miter;stroke-opacity:1" d="M 301.917,400.166 314.594,385.904 z" id="boundary" inkscape:connector-curvature="0" />
	<path style="fill:none;stroke:red;stroke-width:1px;stroke-linecap:butt;stroke-linejoin:miter;stroke-opacity:1" d="M 305.086,35.6933 320.933,38.8626 z" id="boundary" inkscape:connector-curvature="0" />
	<path style="fill:none;stroke:red;stroke-width:1px;stroke-linecap:butt;stroke-linejoin:miter;stroke-opacity:1" d="M 314.594,385.904 330.441,385.904 z" id="boundary" inkscape:connector-curvature="0" />
	<path style="fill:none;stroke:red;stroke-width:1px;stroke-linecap:butt;stroke-linejoin:miter;stroke-opacity:1" d="M 320.933,38.8626 336.78,43.6166 z" id="boundary" inkscape:connector-curvature="0" />
	<path style="fill:none;stroke:red;stroke-width:1px;stroke-linecap:butt;stroke-linejoin:miter;stroke-opacity:1" d="M 330.441,385.904 344.703,393.827 z" id="boundary" inkscape:connector-curvature="0" />
	<path style="fill:none;stroke:red;stroke-width:1px;stroke-linecap:butt;stroke-linejoin:miter;stroke-opacity:1" d="M 336.78,43.6166 352.626,43.6166 z" id="boundary" inkscape:connector-curvature="0" />
	<path style="fill:none;stroke:red;stroke-width:1px;stroke-linecap:butt;stroke-linejoin:miter;stroke-opacity:1" d="M 344.703,393.827 360.55,393.827 z" id="boundary" inkscape:connector-curvature="0" />
	<path style="fill:none;stroke:red;stroke-width:1px;stroke-linecap:butt;stroke-linejoin:miter;stroke-opacity:1" d="M 352.626,43.6166 368.473,46.7859 z" id="boundary" inkscape:connector-curvature="0" />
	<path style="fill:none;stroke:red;stroke-width:1px;stroke-linecap:butt;stroke-linejoin:miter;stroke-opacity:1" d="M 354.211,330.441 362.134,344.703 z" id="boundary" inkscape:connector-curvature="0" />
	<path style="fill:none;stroke:red;stroke-width:1px;stroke-linecap:butt;stroke-linejoin:miter;stroke-opacity:1" d="M 354.211,330.441 366.888,319.348 z" id="boundary" inkscape:connector-curvature="0" />
	<path style="fill:none;stroke:red;stroke-width:1px;stroke-linecap:butt;stroke-linejoin:miter;stroke-opacity:1" d="M 360.55,393.827 376.396,393.827 z" id="boundary" inkscape:connector-curvature="0" />
	<path style="fill:none;stroke:red;stroke-width:1px;stroke-linecap:butt;stroke-linejoin:miter;stroke-opacity:1" d="M 362.134,344.703 376.396,352.626 z" id="boundary" inkscape:connector-curvature="0" />
	<path style="fill:none;stroke:red;stroke-width:1px;stroke-linecap:butt;stroke-linejoin:miter;stroke-opacity:1" d="M 366.888,319.348 374.812,303.502 z" id="boundary" inkscape:connector-curvature="0" />
	<path style="fill:none;stroke:red;stroke-width:1px;stroke-linecap:butt;stroke-linejoin:miter;stroke-opacity:1" d="M 368.473,46.7859 384.319,51.5399 z" id="boundary" inkscape:connector-curvature="0" />
	<path style="fill:none;stroke:red;stroke-width:1px;stroke-linecap:butt;stroke-linejoin:miter;stroke-opacity:1" d="M 374.812,303.502 385.904,282.901 z" id="boundary" inkscape:connector-curvature="0" />
	<path style="fill:none;stroke:red;stroke-width:1px;stroke-linecap:butt;stroke-linejoin:miter;stroke-opacity:1" d="M 376.396,352.626 392.243,352.626 z" id="boundary" inkscape:connector-curvature="0" />
	<path style="fill:none;stroke:red;stroke-width:1px;stroke-linecap:butt;stroke-linejoin:miter;stroke-opacity:1" d="M 376.396,393.827 389.073,384.319 z" id="boundary" inkscape:connector-curvature="0" />
	<path style="fill:none;stroke:red;stroke-width:1px;stroke-linecap:butt;stroke-linejoin:miter;stroke-opacity:1" d="M 384.319,51.5399 400.166,51.5399 z" id="boundary" inkscape:connector-curvature="0" />
	<path style="fill:none;stroke:red;stroke-width:1px;stroke-linecap:butt;stroke-linejoin:miter;stroke-opacity:1" d="M 385.904,267.054 385.904,282.901 z" id="boundary" inkscape:connector-curvature="0" />
	<path style="fill:none;stroke:red;stroke-width:1px;stroke-linecap:butt;stroke-linejoin:miter;stroke-opacity:1" d="M 385.904,267.054 401.751,259.131 z" id="boundary" inkscape:connector-curvature="0" />
	<path style="fill:none;stroke:red;stroke-width:1px;stroke-linecap:butt;stroke-linejoin:miter;stroke-opacity:1" d="M 389.073,384.319 404.92,376.396 z" id="boundary" inkscape:connector-curvature="0" />
	<path style="fill:none;stroke:red;stroke-width:1px;stroke-linecap:butt;stroke-linejoin:miter;stroke-opacity:1" d="M 392.243,352.626 408.089,355.796 z" id="boundary" inkscape:connector-curvature="0" />
	<path style="fill:none;stroke:red;stroke-width:1px;stroke-linecap:butt;stroke-linejoin:miter;stroke-opacity:1" d="M 400.166,51.5399 416.013,51.5399 z" id="boundary" inkscape:connector-curvature="0" />
	<path style="fill:none;stroke:red;stroke-width:1px;stroke-linecap:butt;stroke-linejoin:miter;stroke-opacity:1" d="M 401.751,259.131 417.597,259.131 z" id="boundary" inkscape:connector-curvature="0" />
	<path style="fill:none;stroke:red;stroke-width:1px;stroke-linecap:butt;stroke-linejoin:miter;stroke-opacity:1" d="M 404.92,376.396 408.089,355.796 z" id="boundary" inkscape:connector-curvature="0" />
	<path style="fill:none;stroke:red;stroke-width:1px;stroke-linecap:butt;stroke-linejoin:miter;stroke-opacity:1" d="M 416.013,51.5399 431.859,51.5399 z" id="boundary" inkscape:connector-curvature="0" />
	<path style="fill:none;stroke:red;stroke-width:1px;stroke-linecap:butt;stroke-linejoin:miter;stroke-opacity:1" d="M 417.597,259.131 433.444,259.131 z" id="boundary" inkscape:connector-curvature="0" />
	<path style="fill:none;stroke:red;stroke-width:1px;stroke-linecap:butt;stroke-linejoin:miter;stroke-opacity:1" d="M 431.859,51.5399 447.706,51.5399 z" id="boundary" inkscape:connector-curvature="0" />
	<path style="fill:none;stroke:red;stroke-width:1px;stroke-linecap:butt;stroke-linejoin:miter;stroke-opacity:1" d="M 433.444,259.131 449.291,259.131 z" id="boundary" inkscape:connector-curvature="0" />
	<path style="fill:none;stroke:red;stroke-width:1px;stroke-linecap:butt;stroke-linejoin:miter;stroke-opacity:1" d="M 447.706,51.5399 463.553,51.5399 z" id="boundary" inkscape:connector-curvature="0" />
	<path style="fill:none;stroke:red;stroke-width:1px;stroke-linecap:butt;stroke-linejoin:miter;stroke-opacity:1" d="M 449.291,259.131 465.137,259.131 z" id="boundary" inkscape:connector-curvature="0" />
	<path style="fill:none;stroke:red;stroke-width:1px;stroke-linecap:butt;stroke-linejoin:miter;stroke-opacity:1" d="M 463.553,51.5399 479.399,51.5399 z" id="boundary" inkscape:connector-curvature="0" />
	<path style="fill:none;stroke:red;stroke-width:1px;stroke-linecap:butt;stroke-linejoin:miter;stroke-opacity:1" d="M 465.137,259.131 480.984,259.131 z" id="boundary" inkscape:connector-curvature="0" />
	<path style="fill:none;stroke:red;stroke-width:1px;stroke-linecap:butt;stroke-linejoin:miter;stroke-opacity:1" d="M 479.399,51.5399 495.246,48.3706 z" id="boundary" inkscape:connector-curvature="0" />
	<path style="fill:none;stroke:red;stroke-width:1px;stroke-linecap:butt;stroke-linejoin:miter;stroke-opacity:1" d="M 480.984,259.131 496.831,259.131 z" id="boundary" inkscape:connector-curvature="0" />
	<path style="fill:none;stroke:red;stroke-width:1px;stroke-linecap:butt;stroke-linejoin:miter;stroke-opacity:1" d="M 495.246,48.3706 511.093,43.6166 z" id="boundary" inkscape:connector-curvature="0" />
	<path style="fill:none;stroke:red;stroke-width:1px;stroke-linecap:butt;stroke-linejoin:miter;stroke-opacity:1" d="M 496.831,259.131 512.677,259.131 z" id="boundary" inkscape:connector-curvature="0" />
	<path style="fill:none;stroke:red;stroke-width:1px;stroke-linecap:butt;stroke-linejoin:miter;stroke-opacity:1" d="M 511.093,43.6166 526.939,43.6166 z" id="boundary" inkscape:connector-curvature="0" />
	<path style="fill:none;stroke:red;stroke-width:1px;stroke-linecap:butt;stroke-linejoin:miter;stroke-opacity:1" d="M 512.677,259.131 528.524,262.3 z" id="boundary" inkscape:connector-curvature="0" />
	<path style="fill:none;stroke:red;stroke-width:1px;stroke-linecap:butt;stroke-linejoin:miter;stroke-opacity:1" d="M 526.939,43.6166 542.786,43.6166 z" id="boundary" inkscape:connector-curvature="0" />
	<path style="fill:none;stroke:red;stroke-width:1px;stroke-linecap:butt;stroke-linejoin:miter;stroke-opacity:1" d="M 528.524,262.3 544.371,267.054 z" id="boundary" inkscape:connector-curvature="0" />
	<path style="fill:none;stroke:red;stroke-width:1px;stroke-linecap:butt;stroke-linejoin:miter;stroke-opacity:1" d="M 542.786,43.6166 558.633,40.4473 z" id="boundary" inkscape:connector-curvature="0" />
	<path style="fill:none;stroke:red;stroke-width:1px;stroke-linecap:butt;stroke-linejoin:miter;stroke-opacity:1" d="M 544.371,267.054 560.217,267.054 z" id="boundary" inkscape:connector-curvature="0" />
	<path style="fill:none;stroke:red;stroke-width:1px;stroke-linecap:butt;stroke-linejoin:miter;stroke-opacity:1" d="M 558.633,40.4473 574.479,43.6166 z" id="boundary" inkscape:connector-curvature="0" />
	<path style="fill:none;stroke:red;stroke-width:1px;stroke-linecap:butt;stroke-linejoin:miter;stroke-opacity:1" d="M 560.217,267.054 576.064,267.054 z" id="boundary" inkscape:connector-curvature="0" />
	<path style="fill:none;stroke:red;stroke-width:1px;stroke-linecap:butt;stroke-linejoin:miter;stroke-opacity:1" d="M 574.479,43.6166 590.326,43.6166 z" id="boundary" inkscape:connector-curvature="0" />
	<path style="fill:none;stroke:red;stroke-width:1px;stroke-linecap:butt;stroke-linejoin:miter;stroke-opacity:1" d="M 576.064,267.054 590.326,274.978 z" id="boundary" inkscape:connector-curvature="0" />
	<path style="fill:none;stroke:red;stroke-width:1px;stroke-linecap:butt;stroke-linejoin:miter;stroke-opacity:1" d="M 590.326,43.6166 604.588,35.6933 z" id="boundary" inkscape:connector-curvature="0" />
	<path style="fill:none;stroke:red;stroke-width:1px;stroke-linecap:butt;stroke-linejoin:miter;stroke-opacity:1" d="M 590.326,274.978 604.588,282.901 z" id="boundary" inkscape:connector-curvature="0" />
	<path style="fill:none;stroke:red;stroke-width:1px;stroke-linecap:butt;stroke-linejoin:miter;stroke-opacity:1" d="M 604.588,35.6933 620.435,35.6933 z" id="boundary" inkscape:connector-curvature="0" />
	<path style="fill:none;stroke:red;stroke-width:1px;stroke-linecap:butt;stroke-linejoin:miter;stroke-opacity:1" d="M 604.588,282.901 618.85,290.824 z" id="boundary" inkscape:connector-curvature="0" />
	<path style="fill:none;stroke:red;stroke-width:1px;stroke-linecap:butt;stroke-linejoin:miter;stroke-opacity:1" d="M 606.173,412.843 615.681,425.521 z" id="boundary" inkscape:connector-curvature="0" />
	<path style="fill:none;stroke:red;stroke-width:1px;stroke-linecap:butt;stroke-linejoin:miter;stroke-opacity:1" d="M 606.173,412.843 618.85,400.166 z" id="boundary" inkscape:connector-curvature="0" />
	<path style="fill:none;stroke:red;stroke-width:1px;stroke-linecap:butt;stroke-linejoin:miter;stroke-opacity:1" d="M 615.681,425.521 631.527,425.521 z" id="boundary" inkscape:connector-curvature="0" />
	<path style="fill:none;stroke:red;stroke-width:1px;stroke-linecap:butt;stroke-linejoin:miter;stroke-opacity:1" d="M 618.85,290.824 631.527,301.917 z" id="boundary" inkscape:connector-curvature="0" />
	<path style="fill:none;stroke:red;stroke-width:1px;stroke-linecap:butt;stroke-linejoin:miter;stroke-opacity:1" d="M 618.85,400.166 633.112,392.243 z" id="boundary" inkscape:connector-curvature="0" />
	<path style="fill:none;stroke:red;stroke-width:1px;stroke-linecap:butt;stroke-linejoin:miter;stroke-opacity:1" d="M 620.435,35.6933 636.281,35.6933 z" id="boundary" inkscape:connector-curvature="0" />
	<path style="fill:none;stroke:red;stroke-width:1px;stroke-linecap:butt;stroke-linejoin:miter;stroke-opacity:1" d="M 631.527,301.917 645.789,309.84 z" id="boundary" inkscape:connector-curvature="0" />
	<path style="fill:none;stroke:red;stroke-width:1px;stroke-linecap:butt;stroke-linejoin:miter;stroke-opacity:1" d="M 631.527,425.521 647.374,425.521 z" id="boundary" inkscape:connector-curvature="0" />
	<path style="fill:none;stroke:red;stroke-width:1px;stroke-linecap:butt;stroke-linejoin:miter;stroke-opacity:1" d="M 633.112,392.243 648.958,392.243 z" id="boundary" inkscape:connector-curvature="0" />
	<path style="fill:none;stroke:red;stroke-width:1px;stroke-linecap:butt;stroke-linejoin:miter;stroke-opacity:1" d="M 636.281,35.6933 652.128,35.6933 z" id="boundary" inkscape:connector-curvature="0" />
	<path style="fill:none;stroke:red;stroke-width:1px;stroke-linecap:butt;stroke-linejoin:miter;stroke-opacity:1" d="M 645.789,309.84 653.712,324.102 z" id="boundary" inkscape:connector-curvature="0" />
	<path style="fill:none;stroke:red;stroke-width:1px;stroke-linecap:butt;stroke-linejoin:miter;stroke-opacity:1" d="M 647.374,425.521 663.22,425.521 z" id="boundary" inkscape:connector-curvature="0" />
	<path style="fill:none;stroke:red;stroke-width:1px;stroke-linecap:butt;stroke-linejoin:miter;stroke-opacity:1" d="M 648.958,392.243 664.805,392.243 z" id="boundary" inkscape:connector-curvature="0" />
	<path style="fill:none;stroke:red;stroke-width:1px;stroke-linecap:butt;stroke-linejoin:miter;stroke-opacity:1" d="M 652.128,35.6933 667.974,35.6933 z" id="boundary" inkscape:connector-curvature="0" />
	<path style="fill:none;stroke:red;stroke-width:1px;stroke-linecap:butt;stroke-linejoin:miter;stroke-opacity:1" d="M 653.712,324.102 669.559,330.441 z" id="boundary" inkscape:connector-curvature="0" />
	<path style="fill:none;stroke:red;stroke-width:1px;stroke-linecap:butt;stroke-linejoin:miter;stroke-opacity:1" d="M 663.22,425.521 679.067,425.521 z" id="boundary" inkscape:connector-curvature="0" />
	<path style="fill:none;stroke:red;stroke-width:1px;stroke-linecap:butt;stroke-linejoin:miter;stroke-opacity:1" d="M 664.805,392.243 677.482,381.15 z" id="boundary" inkscape:connector-curvature="0" />
	<path style="fill:none;stroke:red;stroke-width:1px;stroke-linecap:butt;stroke-linejoin:miter;stroke-opacity:1" d="M 667.974,35.6933 682.236,43.6166 z" id="boundary" inkscape:connector-curvature="0" />
	<path style="fill:none;stroke:red;stroke-width:1px;stroke-linecap:butt;stroke-linejoin:miter;stroke-opacity:1" d="M 669.559,330.441 679.067,343.118 z" id="boundary" inkscape:connector-curvature="0" />
	<path style="fill:none;stroke:red;stroke-width:1px;stroke-linecap:butt;stroke-linejoin:miter;stroke-opacity:1" d="M 677.482,381.15 690.16,368.473 z" id="boundary" inkscape:connector-curvature="0" />
	<path style="fill:none;stroke:red;stroke-width:1px;stroke-linecap:butt;stroke-linejoin:miter;stroke-opacity:1" d="M 679.067,343.118 690.16,368.473 z" id="boundary" inkscape:connector-curvature="0" />
	<path style="fill:none;stroke:red;stroke-width:1px;stroke-linecap:butt;stroke-linejoin:miter;stroke-opacity:1" d="M 679.067,425.521 694.914,425.521 z" id="boundary" inkscape:connector-curvature="0" />
	<path style="fill:none;stroke:red;stroke-width:1px;stroke-linecap:butt;stroke-linejoin:miter;stroke-opacity:1" d="M 682.236,43.6166 698.083,35.6933 z" id="boundary" inkscape:connector-curvature="0" />
	<path style="fill:none;stroke:red;stroke-width:1px;stroke-linecap:butt;stroke-linejoin:miter;stroke-opacity:1" d="M 694.914,425.521 707.591,414.428 z" id="boundary" inkscape:connector-curvature="0" />
	<path style="fill:none;stroke:red;stroke-width:1px;stroke-linecap:butt;stroke-linejoin:miter;stroke-opacity:1" d="M 698.083,35.6933 712.345,43.6166 z" id="boundary" inkscape:connector-curvature="0" />
	<path style="fill:none;stroke:red;stroke-width:1px;stroke-linecap:butt;stroke-linejoin:miter;stroke-opacity:1" d="M 707.591,414.428 718.684,401.751 z" id="boundary" inkscape:connector-curvature="0" />
	<path style="fill:none;stroke:red;stroke-width:1px;stroke-linecap:butt;stroke-linejoin:miter;stroke-opacity:1" d="M 712.345,43.6166 726.607,51.5399 z" id="boundary" inkscape:connector-curvature="0" />
	<path style="fill:none;stroke:red;stroke-width:1px;stroke-linecap:butt;stroke-linejoin:miter;stroke-opacity:1" d="M 718.684,401.751 731.361,390.658 z" id="boundary" inkscape:connector-curvature="0" />
	<path style="fill:none;stroke:red;stroke-width:1px;stroke-linecap:butt;stroke-linejoin:miter;stroke-opacity:1" d="M 726.607,51.5399 740.869,59.4633 z" id="boundary" inkscape:connector-curvature="0" />
	<path style="fill:none;stroke:red;stroke-width:1px;stroke-linecap:butt;stroke-linejoin:miter;stroke-opacity:1" d="M 731.361,390.658 742.454,377.981 z" id="boundary" inkscape:connector-curvature="0" />
	<path style="fill:none;stroke:red;stroke-width:1px;stroke-linecap:butt;stroke-linejoin:miter;stroke-opacity:1" d="M 740.869,59.4633 756.716,62.6326 z" id="boundary" inkscape:connector-curvature="0" />
	<path style="fill:none;stroke:red;stroke-width:1px;stroke-linecap:butt;stroke-linejoin:miter;stroke-opacity:1" d="M 742.454,377.981 750.377,362.134 z" id="boundary" inkscape:connector-curvature="0" />
	<path style="fill:none;stroke:red;stroke-width:1px;stroke-linecap:butt;stroke-linejoin:miter;stroke-opacity:1" d="M 750.377,274.978 753.546,290.824 z" id="boundary" inkscape:connector-curvature="0" />
	<path style="fill:none;stroke:red;stroke-width:1px;stroke-linecap:butt;stroke-linejoin:miter;stroke-opacity:1" d="M 750.377,274.978 766.224,274.978 z" id="boundary" inkscape:connector-curvature="0" />
	<path style="fill:none;stroke:red;stroke-width:1px;stroke-linecap:butt;stroke-linejoin:miter;stroke-opacity:1" d="M 750.377,362.134 758.3,346.288 z" id="boundary" inkscape:connector-curvature="0" />
	<path style="fill:none;stroke:red;stroke-width:1px;stroke-linecap:butt;stroke-linejoin:miter;stroke-opacity:1" d="M 753.546,290.824 761.47,305.086 z" id="boundary" inkscape:connector-curvature="0" />
	<path style="fill:none;stroke:red;stroke-width:1px;stroke-linecap:butt;stroke-linejoin:miter;stroke-opacity:1" d="M 756.716,62.6326 772.562,67.3866 z" id="boundary" inkscape:connector-curvature="0" />
	<path style="fill:none;stroke:red;stroke-width:1px;stroke-linecap:butt;stroke-linejoin:miter;stroke-opacity:1" d="M 758.3,346.288 766.224,320.933 z" id="boundary" inkscape:connector-curvature="0" />
	<path style="fill:none;stroke:red;stroke-width:1px;stroke-linecap:butt;stroke-linejoin:miter;stroke-opacity:1" d="M 761.47,305.086 766.224,320.933 z" id="boundary" inkscape:connector-curvature="0" />
	<path style="fill:none;stroke:red;stroke-width:1px;stroke-linecap:butt;stroke-linejoin:miter;stroke-opacity:1" d="M 766.224,274.978 780.486,282.901 z" id="boundary" inkscape:connector-curvature="0" />
	<path style="fill:none;stroke:red;stroke-width:1px;stroke-linecap:butt;stroke-linejoin:miter;stroke-opacity:1" d="M 772.562,67.3866 786.824,75.3099 z" id="boundary" inkscape:connector-curvature="0" />
	<path style="fill:none;stroke:red;stroke-width:1px;stroke-linecap:butt;stroke-linejoin:miter;stroke-opacity:1" d="M 780.486,282.901 796.332,282.901 z" id="boundary" inkscape:connector-curvature="0" />
	<path style="fill:none;stroke:red;stroke-width:1px;stroke-linecap:butt;stroke-linejoin:miter;stroke-opacity:1" d="M 786.824,75.3099 802.671,75.3099 z" id="boundary" inkscape:connector-curvature="0" />
	<path style="fill:none;stroke:red;stroke-width:1px;stroke-linecap:butt;stroke-linejoin:miter;stroke-opacity:1" d="M 796.332,282.901 812.179,282.901 z" id="boundary" inkscape:connector-curvature="0" />
	<path style="fill:none;stroke:red;stroke-width:1px;stroke-linecap:butt;stroke-linejoin:miter;stroke-opacity:1" d="M 797.917,156.128 797.917,171.974 z" id="boundary" inkscape:connector-curvature="0" />
	<path style="fill:none;stroke:red;stroke-width:1px;stroke-linecap:butt;stroke-linejoin:miter;stroke-opacity:1" d="M 797.917,156.128 813.764,156.128 z" id="boundary" inkscape:connector-curvature="0" />
	<path style="fill:none;stroke:red;stroke-width:1px;stroke-linecap:butt;stroke-linejoin:miter;stroke-opacity:1" d="M 797.917,171.974 801.086,187.821 z" id="boundary" inkscape:connector-curvature="0" />
	<path style="fill:none;stroke:red;stroke-width:1px;stroke-linecap:butt;stroke-linejoin:miter;stroke-opacity:1" d="M 801.086,187.821 816.933,194.16 z" id="boundary" inkscape:connector-curvature="0" />
	<path style="fill:none;stroke:red;stroke-width:1px;stroke-linecap:butt;stroke-linejoin:miter;stroke-opacity:1" d="M 802.671,75.3099 816.933,83.2332 z" id="boundary" inkscape:connector-curvature="0" />
	<path style="fill:none;stroke:red;stroke-width:1px;stroke-linecap:butt;stroke-linejoin:miter;stroke-opacity:1" d="M 812.179,282.901 828.026,282.901 z" id="boundary" inkscape:connector-curvature="0" />
	<path style="fill:none;stroke:red;stroke-width:1px;stroke-linecap:butt;stroke-linejoin:miter;stroke-opacity:1" d="M 813.764,156.128 829.61,156.128 z" id="boundary" inkscape:connector-curvature="0" />
	<path style="fill:none;stroke:red;stroke-width:1px;stroke-linecap:butt;stroke-linejoin:miter;stroke-opacity:1" d="M 816.933,83.2332 832.78,83.2332 z" id="boundary" inkscape:connector-curvature="0" />
	<path style="fill:none;stroke:red;stroke-width:1px;stroke-linecap:butt;stroke-linejoin:miter;stroke-opacity:1" d="M 816.933,194.16 828.026,206.837 z" id="boundary" inkscape:connector-curvature="0" />
	<path style="fill:none;stroke:red;stroke-width:1px;stroke-linecap:butt;stroke-linejoin:miter;stroke-opacity:1" d="M 828.026,206.837 843.872,210.006 z" id="boundary" inkscape:connector-curvature="0" />
	<path style="fill:none;stroke:red;stroke-width:1px;stroke-linecap:butt;stroke-linejoin:miter;stroke-opacity:1" d="M 828.026,282.901 842.288,290.824 z" id="boundary" inkscape:connector-curvature="0" />
	<path style="fill:none;stroke:red;stroke-width:1px;stroke-linecap:butt;stroke-linejoin:miter;stroke-opacity:1" d="M 829.61,156.128 845.457,156.128 z" id="boundary" inkscape:connector-curvature="0" />
	<path style="fill:none;stroke:red;stroke-width:1px;stroke-linecap:butt;stroke-linejoin:miter;stroke-opacity:1" d="M 832.78,83.2332 847.042,91.1565 z" id="boundary" inkscape:connector-curvature="0" />
	<path style="fill:none;stroke:red;stroke-width:1px;stroke-linecap:butt;stroke-linejoin:miter;stroke-opacity:1" d="M 842.288,290.824 853.38,303.502 z" id="boundary" inkscape:connector-curvature="0" />
	<path style="fill:none;stroke:red;stroke-width:1px;stroke-linecap:butt;stroke-linejoin:miter;stroke-opacity:1" d="M 843.872,210.006 859.719,213.176 z" id="boundary" inkscape:connector-curvature="0" />
	<path style="fill:none;stroke:red;stroke-width:1px;stroke-linecap:butt;stroke-linejoin:miter;stroke-opacity:1" d="M 845.457,156.128 861.304,156.128 z" id="boundary" inkscape:connector-curvature="0" />
	<path style="fill:none;stroke:red;stroke-width:1px;stroke-linecap:butt;stroke-linejoin:miter;stroke-opacity:1" d="M 847.042,91.1565 862.888,91.1565 z" id="boundary" inkscape:connector-curvature="0" />
	<path style="fill:none;stroke:red;stroke-width:1px;stroke-linecap:butt;stroke-linejoin:miter;stroke-opacity:1" d="M 853.38,303.502 866.058,314.594 z" id="boundary" inkscape:connector-curvature="0" />
	<path style="fill:none;stroke:red;stroke-width:1px;stroke-linecap:butt;stroke-linejoin:miter;stroke-opacity:1" d="M 859.719,213.176 869.227,225.853 z" id="boundary" inkscape:connector-curvature="0" />
	<path style="fill:none;stroke:red;stroke-width:1px;stroke-linecap:butt;stroke-linejoin:miter;stroke-opacity:1" d="M 861.304,156.128 877.15,156.128 z" id="boundary" inkscape:connector-curvature="0" />
	<path style="fill:none;stroke:red;stroke-width:1px;stroke-linecap:butt;stroke-linejoin:miter;stroke-opacity:1" d="M 862.888,91.1565 878.735,91.1565 z" id="boundary" inkscape:connector-curvature="0" />
	<path style="fill:none;stroke:red;stroke-width:1px;stroke-linecap:butt;stroke-linejoin:miter;stroke-opacity:1" d="M 866.058,314.594 872.396,330.441 z" id="boundary" inkscape:connector-curvature="0" />
	<path style="fill:none;stroke:red;stroke-width:1px;stroke-linecap:butt;stroke-linejoin:miter;stroke-opacity:1" d="M 869.227,225.853 877.15,240.115 z" id="boundary" inkscape:connector-curvature="0" />
	<path style="fill:none;stroke:red;stroke-width:1px;stroke-linecap:butt;stroke-linejoin:miter;stroke-opacity:1" d="M 872.396,330.441 885.073,341.534 z" id="boundary" inkscape:connector-curvature="0" />
	<path style="fill:none;stroke:red;stroke-width:1px;stroke-linecap:butt;stroke-linejoin:miter;stroke-opacity:1" d="M 877.15,156.128 892.997,156.128 z" id="boundary" inkscape:connector-curvature="0" />
	<path style="fill:none;stroke:red;stroke-width:1px;stroke-linecap:butt;stroke-linejoin:miter;stroke-opacity:1" d="M 877.15,240.115 885.073,254.377 z" id="boundary" inkscape:connector-curvature="0" />
	<path style="fill:none;stroke:red;stroke-width:1px;stroke-linecap:butt;stroke-linejoin:miter;stroke-opacity:1" d="M 878.735,91.1565 894.581,91.1565 z" id="boundary" inkscape:connector-curvature="0" />
	<path style="fill:none;stroke:red;stroke-width:1px;stroke-linecap:butt;stroke-linejoin:miter;stroke-opacity:1" d="M 885.073,254.377 892.997,268.639 z" id="boundary" inkscape:connector-curvature="0" />
	<path style="fill:none;stroke:red;stroke-width:1px;stroke-linecap:butt;stroke-linejoin:miter;stroke-opacity:1" d="M 885.073,341.534 896.166,354.211 z" id="boundary" inkscape:connector-curvature="0" />
	<path style="fill:none;stroke:red;stroke-width:1px;stroke-linecap:butt;stroke-linejoin:miter;stroke-opacity:1" d="M 891.412,32.524 900.92,45.2013 z" id="boundary" inkscape:connector-curvature="0" />
	<path style="fill:none;stroke:red;stroke-width:1px;stroke-linecap:butt;stroke-linejoin:miter;stroke-opacity:1" d="M 891.412,32.524 907.259,24.6006 z" id="boundary" inkscape:connector-curvature="0" />
	<path style="fill:none;stroke:red;stroke-width:1px;stroke-linecap:butt;stroke-linejoin:miter;stroke-opacity:1" d="M 892.997,156.128 908.843,156.128 z" id="boundary" inkscape:connector-curvature="0" />
	<path style="fill:none;stroke:red;stroke-width:1px;stroke-linecap:butt;stroke-linejoin:miter;stroke-opacity:1" d="M 892.997,268.639 902.505,281.316 z" id="boundary" inkscape:connector-curvature="0" />
	<path style="fill:none;stroke:red;stroke-width:1px;stroke-linecap:butt;stroke-linejoin:miter;stroke-opacity:1" d="M 894.581,91.1565 910.428,91.1565 z" id="boundary" inkscape:connector-curvature="0" />
	<path style="fill:none;stroke:red;stroke-width:1px;stroke-linecap:butt;stroke-linejoin:miter;stroke-opacity:1" d="M 896.166,354.211 908.843,365.304 z" id="boundary" inkscape:connector-curvature="0" />
	<path style="fill:none;stroke:red;stroke-width:1px;stroke-linecap:butt;stroke-linejoin:miter;stroke-opacity:1" d="M 900.92,45.2013 916.767,48.3706 z" id="boundary" inkscape:connector-curvature="0" />
	<path style="fill:none;stroke:red;stroke-width:1px;stroke-linecap:butt;stroke-linejoin:miter;stroke-opacity:1" d="M 902.505,281.316 908.843,297.163 z" id="boundary" inkscape:connector-curvature="0" />
	<path style="fill:none;stroke:red;stroke-width:1px;stroke-linecap:butt;stroke-linejoin:miter;stroke-opacity:1" d="M 907.259,24.6006 923.105,19.8466 z" id="boundary" inkscape:connector-curvature="0" />
	<path style="fill:none;stroke:red;stroke-width:1px;stroke-linecap:butt;stroke-linejoin:miter;stroke-opacity:1" d="M 908.843,156.128 924.69,156.128 z" id="boundary" inkscape:connector-curvature="0" />
	<path style="fill:none;stroke:red;stroke-width:1px;stroke-linecap:butt;stroke-linejoin:miter;stroke-opacity:1" d="M 908.843,297.163 916.767,311.425 z" id="boundary" inkscape:connector-curvature="0" />
	<path style="fill:none;stroke:red;stroke-width:1px;stroke-linecap:butt;stroke-linejoin:miter;stroke-opacity:1" d="M 908.843,365.304 924.69,370.058 z" id="boundary" inkscape:connector-curvature="0" />
	<path style="fill:none;stroke:red;stroke-width:1px;stroke-linecap:butt;stroke-linejoin:miter;stroke-opacity:1" d="M 910.428,91.1565 926.275,91.1565 z" id="boundary" inkscape:connector-curvature="0" />
	<path style="fill:none;stroke:red;stroke-width:1px;stroke-linecap:butt;stroke-linejoin:miter;stroke-opacity:1" d="M 916.767,48.3706 931.029,56.2939 z" id="boundary" inkscape:connector-curvature="0" />
	<path style="fill:none;stroke:red;stroke-width:1px;stroke-linecap:butt;stroke-linejoin:miter;stroke-opacity:1" d="M 916.767,311.425 924.69,325.687 z" id="boundary" inkscape:connector-curvature="0" />
	<path style="fill:none;stroke:red;stroke-width:1px;stroke-linecap:butt;stroke-linejoin:miter;stroke-opacity:1" d="M 923.105,19.8466 938.952,23.016 z" id="boundary" inkscape:connector-curvature="0" />
	<path style="fill:none;stroke:red;stroke-width:1px;stroke-linecap:butt;stroke-linejoin:miter;stroke-opacity:1" d="M 924.69,156.128 938.952,148.204 z" id="boundary" inkscape:connector-curvature="0" />
	<path style="fill:none;stroke:red;stroke-width:1px;stroke-linecap:butt;stroke-linejoin:miter;stroke-opacity:1" d="M 924.69,325.687 938.952,333.61 z" id="boundary" inkscape:connector-curvature="0" />
	<path style="fill:none;stroke:red;stroke-width:1px;stroke-linecap:butt;stroke-linejoin:miter;stroke-opacity:1" d="M 924.69,370.058 940.537,362.134 z" id="boundary" inkscape:connector-curvature="0" />
	<path style="fill:none;stroke:red;stroke-width:1px;stroke-linecap:butt;stroke-linejoin:miter;stroke-opacity:1" d="M 926.275,91.1565 938.952,70.5559 z" id="boundary" inkscape:connector-curvature="0" />
	<path style="fill:none;stroke:red;stroke-width:1px;stroke-linecap:butt;stroke-linejoin:miter;stroke-opacity:1" d="M 931.029,56.2939 938.952,70.5559 z" id="boundary" inkscape:connector-curvature="0" />
	<path style="fill:none;stroke:red;stroke-width:1px;stroke-linecap:butt;stroke-linejoin:miter;stroke-opacity:1" d="M 938.952,23.016 953.214,30.9393 z" id="boundary" inkscape:connector-curvature="0" />
	<path style="fill:none;stroke:red;stroke-width:1px;stroke-linecap:butt;stroke-linejoin:miter;stroke-opacity:1" d="M 938.952,148.204 953.214,140.281 z" id="boundary" inkscape:connector-curvature="0" />
	<path style="fill:none;stroke:red;stroke-width:1px;stroke-linecap:butt;stroke-linejoin:miter;stroke-opacity:1" d="M 938.952,333.61 948.46,346.288 z" id="boundary" inkscape:connector-curvature="0" />
	<path style="fill:none;stroke:red;stroke-width:1px;stroke-linecap:butt;stroke-linejoin:miter;stroke-opacity:1" d="M 940.537,362.134 948.46,346.288 z" id="boundary" inkscape:connector-curvature="0" />
	<path style="fill:none;stroke:red;stroke-width:1px;stroke-linecap:butt;stroke-linejoin:miter;stroke-opacity:1" d="M 953.214,30.9393 969.061,37.278 z" id="boundary" inkscape:connector-curvature="0" />
	<path style="fill:none;stroke:red;stroke-width:1px;stroke-linecap:butt;stroke-linejoin:miter;stroke-opacity:1" d="M 953.214,140.281 967.476,132.358 z" id="boundary" inkscape:connector-curvature="0" />
	<path style="fill:none;stroke:red;stroke-width:1px;stroke-linecap:butt;stroke-linejoin:miter;stroke-opacity:1" d="M 967.476,132.358 981.738,124.435 z" id="boundary" inkscape:connector-curvature="0" />
	<path style="fill:none;stroke:red;stroke-width:1px;stroke-linecap:butt;stroke-linejoin:miter;stroke-opacity:1" d="M 969.061,37.278 980.153,49.9553 z" id="boundary" inkscape:connector-curvature="0" />
	<path style="fill:none;stroke:red;stroke-width:1px;stroke-linecap:butt;stroke-linejoin:miter;stroke-opacity:1" d="M 980.153,49.9553 988.077,64.2173 z" id="boundary" inkscape:connector-curvature="0" />
	<path style="fill:none;stroke:red;stroke-width:1px;stroke-linecap:butt;stroke-linejoin:miter;stroke-opacity:1" d="M 981.738,124.435 988.077,108.588 z" id="boundary" inkscape:connector-curvature="0" />
	<path style="fill:none;stroke:red;stroke-width:1px;stroke-linecap:butt;stroke-linejoin:miter;stroke-opacity:1" d="M 988.077,64.2173 996,78.4792 z" id="boundary" inkscape:connector-curvature="0" />
	<path style="fill:none;stroke:red;stroke-width:1px;stroke-linecap:butt;stroke-linejoin:miter;stroke-opacity:1" d="M 988.077,108.588 996,94.3259 z" id="boundary" inkscape:connector-curvature="0" />
	<path style="fill:none;stroke:red;stroke-width:1px;stroke-linecap:butt;stroke-linejoin:miter;stroke-opacity:1" d="M 996,78.4792 996,94.3259 z" id="boundary" inkscape:connector-curvature="0" />
	<circle cx="4" cy="111.757" r="4" fill="#0" id="circle0"/>
	<circle cx="4" cy="127.604" r="4" fill="#0" id="circle1"/>
	<circle cx="16.6773" cy="99.0799" r="4" fill="#0" id="circle2"/>
	<circle cx="16.6773" cy="138.696" r="4" fill="#0" id="circle3"/>
	<circle cx="19.8466" cy="80.0639" r="4" fill="#0" id="circle4"/>
	<circle cx="27.77" cy="151.374" r="4" fill="#0" id="circle5"/>
	<circle cx="32.524" cy="67.3866" r="4" fill="#0" id="circle6"/>
	<circle cx="40.4473" cy="162.466" r="4" fill="#0" id="circle7"/>
	<circle cx="45.2013" cy="54.7093" r="4" fill="#0" id="circle8"/>
	<circle cx="56.2939" cy="164.051" r="4" fill="#0" id="circle9"/>
	<circle cx="59.4633" cy="8.75399" r="4" fill="#0" id="circle10"/>
	<circle cx="59.4633" cy="24.6006" r="4" fill="#0" id="circle11"/>
	<circle cx="59.4633" cy="40.4473" r="4" fill="#0" id="circle12"/>
	<circle cx="72.1406" cy="164.051" r="4" fill="#0" id="circle13"/>
	<circle cx="75.3099" cy="4" r="4" fill="#0" id="circle14"/>
	<circle cx="87.9872" cy="164.051" r="4" fill="#0" id="circle15"/>
	<circle cx="89.5719" cy="11.9233" r="4" fill="#0" id="circle16"/>
	<circle cx="103.834" cy="19.8466" r="4" fill="#0" id="circle17"/>
	<circle cx="103.834" cy="164.051" r="4" fill="#0" id="circle18"/>
	<circle cx="118.096" cy="27.77" r="4" fill="#0" id="circle19"/>
	<circle cx="119.681" cy="164.051" r="4" fill="#0" id="circle20"/>
	<circle cx="133.942" cy="27.77" r="4" fill="#0" id="circle21"/>
	<circle cx="135.527" cy="164.051" r="4" fill="#0" id="circle22"/>
	<circle cx="148.204" cy="35.6933" r="4" fill="#0" id="circle23"/>
	<circle cx="151.374" cy="164.051" r="4" fill="#0" id="circle24"/>
	<circle cx="162.466" cy="176.728" r="4" fill="#0" id="circle25"/>
	<circle cx="164.051" cy="35.6933" r="4" fill="#0" id="circle26"/>
	<circle cx="170.39" cy="190.99" r="4" fill="#0" id="circle27"/>
	<circle cx="178.313" cy="205.252" r="4" fill="#0" id="circle28"/>
	<circle cx="179.898" cy="40.4473" r="4" fill="#0" id="circle29"/>
	<circle cx="186.236" cy="219.514" r="4" fill="#0" id="circle30"/>
	<circle cx="195.744" cy="43.6166" r="4" fill="#0" id="circle31"/>
	<circle cx="200.498" cy="227.438" r="4" fill="#0" id="circle32"/>
	<circle cx="210.006" cy="35.6933" r="4" fill="#0" id="circle33"/>
	<circle cx="210.006" cy="389.073" r="4" fill="#0" id="circle34"/>
	<circle cx="210.006" cy="404.92" r="4" fill="#0" id="circle35"/>
	<circle cx="211.591" cy="240.115" r="4" fill="#0" id="circle36"/>
	<circle cx="222.684" cy="376.396" r="4" fill="#0" id="circle37"/>
	<circle cx="225.853" cy="35.6933" r="4" fill="#0" id="circle38"/>
	<circle cx="225.853" cy="409.674" r="4" fill="#0" id="circle39"/>
	<circle cx="227.438" cy="238.53" r="4" fill="#0" id="circle40"/>
	<circle cx="238.53" cy="376.396" r="4" fill="#0" id="circle41"/>
	<circle cx="241.7" cy="35.6933" r="4" fill="#0" id="circle42"/>
	<circle cx="241.7" cy="246.454" r="4" fill="#0" id="circle43"/>
	<circle cx="241.7" cy="409.674" r="4" fill="#0" id="circle44"/>
	<circle cx="254.377" cy="368.473" r="4" fill="#0" id="circle45"/>
	<circle cx="257.546" cy="35.6933" r="4" fill="#0" id="circle46"/>
	<circle cx="257.546" cy="251.208" r="4" fill="#0" id="circle47"/>
	<circle cx="257.546" cy="267.054" r="4" fill="#0" id="circle48"/>
	<circle cx="257.546" cy="409.674" r="4" fill="#0" id="circle49"/>
	<circle cx="265.47" cy="281.316" r="4" fill="#0" id="circle50"/>
	<circle cx="265.47" cy="297.163" r="4" fill="#0" id="circle51"/>
	<circle cx="265.47" cy="313.01" r="4" fill="#0" id="circle52"/>
	<circle cx="265.47" cy="328.856" r="4" fill="#0" id="circle53"/>
	<circle cx="265.47" cy="344.703" r="4" fill="#0" id="circle54"/>
	<circle cx="273.393" cy="35.6933" r="4" fill="#0" id="circle55"/>
	<circle cx="273.393" cy="409.674" r="4" fill="#0" id="circle56"/>
	<circle cx="289.24" cy="35.6933" r="4" fill="#0" id="circle57"/>
	<circle cx="289.24" cy="409.674" r="4" fill="#0" id="circle58"/>
	<circle cx="301.917" cy="400.166" r="4" fill="#0" id="circle59"/>
	<circle cx="305.086" cy="35.6933" r="4" fill="#0" id="circle60"/>
	<circle cx="314.594" cy="385.904" r="4" fill="#0" id="circle61"/>
	<circle cx="320.933" cy="38.8626" r="4" fill="#0" id="circle62"/>
	<circle cx="330.441" cy="385.904" r="4" fill="#0" id="circle63"/>
	<circle cx="336.78" cy="43.6166" r="4" fill="#0" id="circle64"/>
	<circle cx="344.703" cy="393.827" r="4" fill="#0" id="circle65"/>
	<circle cx="352.626" cy="43.6166" r="4" fill="#0" id="circle66"/>
	<circle cx="354.211" cy="330.441" r="4" fill="#0" id="circle67"/>
	<circle cx="360.55" cy="393.827" r="4" fill="#0" id="circle68"/>
	<circle cx="362.134" cy="344.703" r="4" fill="#0" id="circle69"/>
	<circle cx="366.888" cy="319.348" r="4" fill="#0" id="circle70"/>
	<circle cx="368.473" cy="46.7859" r="4" fill="#0" id="circle71"/>
	<circle cx="374.812" cy="303.502" r="4" fill="#0" id="circle72"/>
	<circle cx="376.396" cy="352.626" r="4" fill="#0" id="circle73"/>
	<circle cx="376.396" cy="393.827" r="4" fill="#0" id="circle74"/>
	<circle cx="384.319" cy="51.5399" r="4" fill="#0" id="circle75"/>
	<circle cx="385.904" cy="267.054" r="4" fill="#0" id="circle76"/>
	<circle cx="385.904" cy="282.901" r="4" fill="#0" id="circle77"/>
	<circle cx="389.073" cy="384.319" r="4" fill="#0" id="circle78"/>
	<circle cx="392.243" cy="352.626" r="4" fill="#0" id="circle79"/>
	<circle cx="400.166" cy="51.5399" r="4" fill="#0" id="circle80"/>
	<circle cx="401.751" cy="259.131" r="4" fill="#0" id="circle81"/>
	<circle cx="404.92" cy="376.396" r="4" fill="#0" id="circle82"/>
	<circle cx="408.089" cy="355.796" r="4" fill="#0" id="circle83"/>
	<circle cx="416.013" cy="51.5399" r="4" fill="#0" id="circle84"/>
	<circle cx="417.597" cy="259.131" r="4" fill="#0" id="circle85"/>
	<circle cx="431.859" cy="51.5399" r="4" fill="#0" id="circle86"/>
	<circle cx="433.444" cy="259.131" r="4" fill="#0" id="circle87"/>
	<circle cx="447.706" cy="51.5399" r="4" fill="#0" id="circle88"/>
	<circle cx="449.291" cy="259.131" r="4" fill="#0" id="circle89"/>
	<circle cx="463.553" cy="51.5399" r="4" fill="#0" id="circle90"/>
	<circle cx="465.137" cy="259.131" r="4" fill="#0" id="circle91"/>
	<circle cx="479.399" cy="51.5399" r="4" fill="#0" id="circle92"/>
	<circle cx="480.984" cy="259.131" r="4" fill="#0" id="circle93"/>
	<circle cx="495.246" cy="48.3706" r="4" fill="#0" id="circle94"/>
	<circle cx="496.831" cy="259.131" r="4" fill="#0" id="circle95"/>
	<circle cx="511.093" cy="43.6166" r="4" fill="#0" id="circle96"/>
	<circle cx="512.677" cy="259.131" r="4" fill="#0" id="circle97"/>
	<circle cx="526.939" cy="43.6166" r="4" fill="#0" id="circle98"/>
	<circle cx="528.524" cy="262.3" r="4" fill="#0" id="circle99"/>
	<circle cx="542.786" cy="43.6166" r="4" fill="#0" id="circle100"/>
	<circle cx="544.371" cy="267.054" r="4" fill="#0" id="circle101"/>
	<circle cx="558.633" cy="40.4473" r="4" fill="#0" id="circle102"/>
	<circle cx="560.217" cy="267.054" r="4" fill="#0" id="circle103"/>
	<circle cx="574.479" cy="43.6166" r="4" fill="#0" id="circle104"/>
	<circle cx="576.064" cy="267.054" r="4" fill="#0" id="circle105"/>
	<circle cx="590.326" cy="43.6166" r="4" fill="#0" id="circle106"/>
	<circle cx="590.326" cy="274.978" r="4" fill="#0" id="circle107"/>
	<circle cx="604.588" cy="35.6933" r="4" fill="#0" id="circle108"/>
	<circle cx="604.588" cy="282.901" r="4" fill="#0" id="circle109"/>
	<circle cx="606.173" cy="412.843" r="4" fill="#0" id="circle110"/>
	<circle cx="615.681" cy="425.521" r="4" fill="#0" id="circle111"/>
	<circle cx="618.85" cy="290.824" r="4" fill="#0" id="circle112"/>
	<circle cx="618.85" cy="400.166" r="4" fill="#0" id="circle113"/>
	<circle cx="620.435" cy="35.6933" r="4" fill="#0" id="circle114"/>
	<circle cx="631.527" cy="301.917" r="4" fill="#0" id="circle115"/>
	<circle cx="631.527" cy="425.521" r="4" fill="#0" id="circle116"/>
	<circle cx="633.112" cy="392.243" r="4" fill="#0" id="circle117"/>
	<circle cx="636.281" cy="35.6933" r="4" fill="#0" id="circle118"/>
	<circle cx="645.789" cy="309.84" r="4" fill="#0" id="circle119"/>
	<circle cx="647.374" cy="425.521" r="4" fill="#0" id="circle120"/>
	<circle cx="648.958" cy="392.243" r="4" fill="#0" id="circle121"/>
	<circle cx="652.128" cy="35.6933" r="4" fill="#0" id="circle122"/>
	<circle cx="653.712" cy="324.102" r="4" fill="#0" id="circle123"/>
	<circle cx="663.22" cy="425.521" r="4" fill="#0" id="circle124"/>
	<circle cx="664.805" cy="392.243" r="4" fill="#0" id="circle125"/>
	<circle cx="667.974" cy="35.6933" r="4" fill="#0" id="circle126"/>
	<circle cx="669.559" cy="330.441" r="4" fill="#0" id="circle127"/>
	<circle cx="677.482" cy="381.15" r="4" fill="#0" id="circle128"/>
	<circle cx="679.067" cy="343.118" r="4" fill="#0" id="circle129"/>
	<circle cx="679.067" cy="425.521" r="4" fill="#0" id="circle130"/>
	<circle cx="682.236" cy="43.6166" r="4" fill="#0" id="circle131"/>
	<circle cx="690.16" cy="368.473" r="4" fill="#0" id="circle132"/>
	<circle cx="694.914" cy="425.521" r="4" fill="#0" id="circle133"/>
	<circle cx="698.083" cy="35.6933" r="4" fill="#0" id="circle134"/>
	<circle cx="707.591" cy="414.428" r="4" fill="#0" id="circle135"/>
	<circle cx="712.345" cy="43.6166" r="4" fill="#0" id="circle136"/>
	<circle cx="718.684" cy="401.751" r="4" fill="#0" id="circle137"/>
	<circle cx="726.607" cy="51.5399" r="4" fill="#0" id="circle138"/>
	<circle cx="731.361" cy="390.658" r="4" fill="#0" id="circle139"/>
	<circle cx="740.869" cy="59.4633" r="4" fill="#0" id="circle140"/>
	<circle cx="742.454" cy="377.981" r="4" fill="#0" id="circle141"/>
	<circle cx="750.377" cy="274.978" r="4" fill="#0" id="circle142"/>
	<circle cx="750.377" cy="362.134" r="4" fill="#0" id="circle143"/>
	<circle cx="753.546" cy="290.824" r="4" fill="#0" id="circle144"/>
	<circle cx="756.716" cy="62.6326" r="4" fill="#0" id="circle145"/>
	<circle cx="758.3" cy="346.288" r="4" fill="#0" id="circle146"/>
	<circle cx="761.47" cy="305.086" r="4" fill="#0" id="circle147"/>
	<circle cx="766.224" cy="274.978" r="4" fill="#0" id="circle148"/>
	<circle cx="766.224" cy="320.933" r="4" fill="#0" id="circle149"/>
	<circle cx="772.562" cy="67.3866" r="4" fill="#0" id="circle150"/>
	<circle cx="780.486" cy="282.901" r="4" fill="#0" id="circle151"/>
	<circle cx="786.824" cy="75.3099" r="4" fill="#0" id="circle152"/>
	<circle cx="796.332" cy="282.901" r="4" fill="#0" id="circle153"/>
	<circle cx="797.917" cy="156.128" r="4" fill="#0" id="circle154"/>
	<circle cx="797.917" cy="171.974" r="4" fill="#0" id="circle155"/>
	<circle cx="801.086" cy="187.821" r="4" fill="#0" id="circle156"/>
	<circle cx="802.671" cy="75.3099" r="4" fill="#0" id="circle157"/>
	<circle cx="812.179" cy="282.901" r="4" fill="#0" id="circle158"/>
	<circle cx="813.764" cy="156.128" r="4" fill="#0" id="circle159"/>
	<circle cx="816.933" cy="83.2332" r="4" fill="#0" id="circle160"/>
	<circle cx="816.933" cy="194.16" r="4" fill="#0" id="circle161"/>
	<circle cx="828.026" cy="206.837" r="4" fill="#0" id="circle162"/>
	<circle cx="828.026" cy="282.901" r="4" fill="#0" id="circle163"/>
	<circle cx="829.61" cy="156.128" r="4" fill="#0" id="circle164"/>
	<circle cx="832.78" cy="83.2332" r="4" fill="#0" id="circle165"/>
	<circle cx="842.288" cy="290.824" r="4" fill="#0" id="circle166"/>
	<circle cx="843.872" cy="210.006" r="4" fill="#0" id="circle167"/>
	<circle cx="845.457" cy="156.128" r="4" fill="#0" id="circle168"/>
	<circle cx="847.042" cy="91.1565" r="4" fill="#0" id="circle169"/>
	<circle cx="853.38" cy="303.502" r="4" fill="#0" id="circle170"/>
	<circle cx="859.719" cy="213.176" r="4" fill="#0" id="circle171"/>
	<circle cx="861.304" cy="156.128" r="4" fill="#0" id="circle172"/>
	<circle cx="862.888" cy="91.1565" r="4" fill="#0" id="circle173"/>
	<circle cx="866.058" cy="314.594" r="4" fill="#0" id="circle174"/>
	<circle cx="869.227" cy="225.853" r="4" fill="#0" id="circle175"/>
	<circle cx="872.396" cy="330.441" r="4" fill="#0" id="circle176"/>
	<circle cx="877.15" cy="156.128" r="4" fill="#0" id="circle177"/>
	<circle cx="877.15" cy="240.115" r="4" fill="#0" id="circle178"/>
	<circle cx="878.735" cy="91.1565" r="4" fill="#0" id="circle179"/>
	<circle cx="885.073" cy="254.377" r="4" fill="#0" id="circle180"/>
	<circle cx="885.073" cy="341.534" r="4" fill="#0" id="circle181"/>
	<circle cx="891.412" cy="32.524" r="4" fill="#0" id="circle182"/>
	<circle cx="892.997" cy="156.128" r="4" fill="#0" id="circle183"/>
	<circle cx="892.997" cy="268.639" r="4" fill="#0" id="circle184"/>
	<circle cx="894.581" cy="91.1565" r="4" fill="#0" id="circle185"/>
	<circle cx="896.166" cy="354.211" r="4" fill="#0" id="circle186"/>
	<circle cx="900.92" cy="45.2013" r="4" fill="#0" id="circle187"/>
	<circle cx="902.505" cy="281.316" r="4" fill="#0" id="circle188"/>
	<circle cx="907.259" cy="24.6006" r="4" fill="#0" id="circle189"/>
	<circle cx="908.843" cy="156.128" r="4" fill="#0" id="circle190"/>
	<circle cx="908.843" cy="297.163" r="4" fill="#0" id="circle191"/>
	<circle cx="908.843" cy="365.304" r="4" fill="#0" id="circle192"/>
	<circle cx="910.428" cy="91.1565" r="4" fill="#0" id="circle193"/>
	<circle cx="916.767" cy="48.3706" r="4" fill="#0" id="circle194"/>
	<circle cx="916.767" cy="311.425" r="4" fill="#0" id="circle195"/>
	<circle cx="923.105" cy="19.8466" r="4" fill="#0" id="circle196"/>
	<circle cx="924.69" cy="156.128" r="4" fill="#0" id="circle197"/>
	<circle cx="924.69" cy="325.687" r="4" fill="#0" id="circle198"/>
	<circle cx="924.69" cy="370.058" r="4" fill="#0" id="circle199"/>
	<circle cx="926.275" cy="91.1565" r="4" fill="#0" id="circle200"/>
	<circle cx="931.029" cy="56.2939" r="4" fill="#0" id="circle201"/>
	<circle cx="938.952" cy="23.016" r="4" fill="#0" id="circle202"/>
	<circle cx="938.952" cy="70.5559" r="4" fill="#0" id="circle203"/>
	<circle cx="938.952" cy="148.204" r="4" fill="#0" id="circle204"/>
	<circle cx="938.952" cy="333.61" r="4" fill="#0" id="circle205"/>
	<circle cx="940.537" cy="362.134" r="4" fill="#0" id="circle206"/>
	<circle cx="948.46" cy="346.288" r="4" fill="#0" id="circle207"/>
	<circle cx="953.214" cy="30.9393" r="4" fill="#0" id="circle208"/>
	<circle cx="953.214" cy="140.281" r="4" fill="#0" id="circle209"/>
	<circle cx="967.476" cy="132.358" r="4" fill="#0" id="circle210"/>
	<circle cx="969.061" cy="37.278" r="4" fill="#0" id="circle211"/>
	<circle cx="980.153" cy="49.9553" r="4" fill="#0" id="circle212"/>
	<circle cx="981.738" cy="124.435" r="4" fill="#0" id="circle213"/>
	<circle cx="988.077" cy="64.2173" r="4" fill="#0" id="circle214"/>
	<circle cx="988.077" cy="108.588" r="4" fill="#0" id="circle215"/>
	<circle cx="996" cy="78.4792" r="4" fill="#0" id="circle216"/>
	<circle cx="996" cy="94.3259" r="4" fill="#0" id="circle217"/>
	</g>
</svg>