<?xml version="1.0" encoding="UTF-8" standalone="no"?>
<!-- Created with CurveBenchmark -->
<svg
	xmlns:dc="http://purl.org/dc/elements/1.1/"
	xmlns:cc="http://creativecommons.org/ns#"
	xmlns:rdf="http://www.w3.org/1999/02/22-rdf-syntax-ns#"
	xmlns:svg="http://www.w3.org/2000/svg"
	xmlns="http://www.w3.org/2000/svg"
	xmlns:sodipodi="http://sodipodi.sourceforge.net/DTD/sodipodi-0.dtd"
	xmlns:inkscape="http://www.inkscape.org/namespaces/inkscape"
	width="1000"
	height="1000"
	id="svg2"
	version="1.1"
	sodipodi:docname="manifold/discur-television200.png.txt">
<defs
	id="defs4" />
<metadata
	id="metadata7">
	<rdf:RDF>
		<cc:Work
			rdf:about="">
			<dc:format>image/svg+xml</dc:format>
			<dc:type
				rdf:resource="http://purl.org/dc/dcmitype/StillImage" />
			<dc:title></dc:title>
		</cc:Work>
	</rdf:RDF>
</metadata>
<g
	inkscape:label="Layer 1"
	inkscape:groupmode="layer"
	id="layer1">
	<path style="fill:none;stroke:red;stroke-width:1px;stroke-linecap:butt;stroke-linejoin:miter;stroke-opacity:1" d="M 4,752.066 4,784.59 z" id="boundary" inkscape:connector-curvature="0" />
	<path style="fill:none;stroke:red;stroke-width:1px;stroke-linecap:butt;stroke-linejoin:miter;stroke-opacity:1" d="M 4,752.066 36.5246,745.561 z" id="boundary" inkscape:connector-curvature="0" />
	<path style="fill:none;stroke:red;stroke-width:1px;stroke-linecap:butt;stroke-linejoin:miter;stroke-opacity:1" d="M 4,784.59 20.2623,813.862 z" id="boundary" inkscape:connector-curvature="0" />
	<path style="fill:none;stroke:red;stroke-width:1px;stroke-linecap:butt;stroke-linejoin:miter;stroke-opacity:1" d="M 20.2623,813.862 52.7869,813.862 z" id="boundary" inkscape:connector-curvature="0" />
	<path style="fill:none;stroke:red;stroke-width:1px;stroke-linecap:butt;stroke-linejoin:miter;stroke-opacity:1" d="M 36.5246,745.561 62.5443,765.075 z" id="boundary" inkscape:connector-curvature="0" />
	<path style="fill:none;stroke:red;stroke-width:1px;stroke-linecap:butt;stroke-linejoin:miter;stroke-opacity:1" d="M 52.7869,813.862 85.3115,813.862 z" id="boundary" inkscape:connector-curvature="0" />
	<path style="fill:none;stroke:red;stroke-width:1px;stroke-linecap:butt;stroke-linejoin:miter;stroke-opacity:1" d="M 62.5443,765.075 88.5639,745.561 z" id="boundary" inkscape:connector-curvature="0" />
	<path style="fill:none;stroke:red;stroke-width:1px;stroke-linecap:butt;stroke-linejoin:miter;stroke-opacity:1" d="M 82.059,647.987 98.3213,677.259 z" id="boundary" inkscape:connector-curvature="0" />
	<path style="fill:none;stroke:red;stroke-width:1px;stroke-linecap:butt;stroke-linejoin:miter;stroke-opacity:1" d="M 82.059,647.987 114.584,647.987 z" id="boundary" inkscape:connector-curvature="0" />
	<path style="fill:none;stroke:red;stroke-width:1px;stroke-linecap:butt;stroke-linejoin:miter;stroke-opacity:1" d="M 85.3115,813.862 117.836,826.872 z" id="boundary" inkscape:connector-curvature="0" />
	<path style="fill:none;stroke:red;stroke-width:1px;stroke-linecap:butt;stroke-linejoin:miter;stroke-opacity:1" d="M 88.5639,745.561 121.089,745.561 z" id="boundary" inkscape:connector-curvature="0" />
	<path style="fill:none;stroke:red;stroke-width:1px;stroke-linecap:butt;stroke-linejoin:miter;stroke-opacity:1" d="M 98.3213,677.259 130.846,677.259 z" id="boundary" inkscape:connector-curvature="0" />
	<path style="fill:none;stroke:red;stroke-width:1px;stroke-linecap:butt;stroke-linejoin:miter;stroke-opacity:1" d="M 108.079,573.18 124.341,543.908 z" id="boundary" inkscape:connector-curvature="0" />
	<path style="fill:none;stroke:red;stroke-width:1px;stroke-linecap:butt;stroke-linejoin:miter;stroke-opacity:1" d="M 108.079,573.18 140.603,573.18 z" id="boundary" inkscape:connector-curvature="0" />
	<path style="fill:none;stroke:red;stroke-width:1px;stroke-linecap:butt;stroke-linejoin:miter;stroke-opacity:1" d="M 114.584,647.987 147.108,647.987 z" id="boundary" inkscape:connector-curvature="0" />
	<path style="fill:none;stroke:red;stroke-width:1px;stroke-linecap:butt;stroke-linejoin:miter;stroke-opacity:1" d="M 117.836,826.872 150.361,813.862 z" id="boundary" inkscape:connector-curvature="0" />
	<path style="fill:none;stroke:red;stroke-width:1px;stroke-linecap:butt;stroke-linejoin:miter;stroke-opacity:1" d="M 121.089,745.561 153.613,745.561 z" id="boundary" inkscape:connector-curvature="0" />
	<path style="fill:none;stroke:red;stroke-width:1px;stroke-linecap:butt;stroke-linejoin:miter;stroke-opacity:1" d="M 124.341,543.908 156.866,543.908 z" id="boundary" inkscape:connector-curvature="0" />
	<path style="fill:none;stroke:red;stroke-width:1px;stroke-linecap:butt;stroke-linejoin:miter;stroke-opacity:1" d="M 127.593,10.5049 127.593,43.0295 z" id="boundary" inkscape:connector-curvature="0" />
	<path style="fill:none;stroke:red;stroke-width:1px;stroke-linecap:butt;stroke-linejoin:miter;stroke-opacity:1" d="M 127.593,10.5049 160.118,4 z" id="boundary" inkscape:connector-curvature="0" />
	<path style="fill:none;stroke:red;stroke-width:1px;stroke-linecap:butt;stroke-linejoin:miter;stroke-opacity:1" d="M 127.593,43.0295 127.593,75.5541 z" id="boundary" inkscape:connector-curvature="0" />
	<path style="fill:none;stroke:red;stroke-width:1px;stroke-linecap:butt;stroke-linejoin:miter;stroke-opacity:1" d="M 127.593,75.5541 127.593,108.079 z" id="boundary" inkscape:connector-curvature="0" />
	<path style="fill:none;stroke:red;stroke-width:1px;stroke-linecap:butt;stroke-linejoin:miter;stroke-opacity:1" d="M 127.593,108.079 127.593,140.603 z" id="boundary" inkscape:connector-curvature="0" />
	<path style="fill:none;stroke:red;stroke-width:1px;stroke-linecap:butt;stroke-linejoin:miter;stroke-opacity:1" d="M 127.593,140.603 127.593,173.128 z" id="boundary" inkscape:connector-curvature="0" />
	<path style="fill:none;stroke:red;stroke-width:1px;stroke-linecap:butt;stroke-linejoin:miter;stroke-opacity:1" d="M 127.593,173.128 127.593,205.652 z" id="boundary" inkscape:connector-curvature="0" />
	<path style="fill:none;stroke:red;stroke-width:1px;stroke-linecap:butt;stroke-linejoin:miter;stroke-opacity:1" d="M 127.593,205.652 127.593,238.177 z" id="boundary" inkscape:connector-curvature="0" />
	<path style="fill:none;stroke:red;stroke-width:1px;stroke-linecap:butt;stroke-linejoin:miter;stroke-opacity:1" d="M 127.593,238.177 127.593,270.702 z" id="boundary" inkscape:connector-curvature="0" />
	<path style="fill:none;stroke:red;stroke-width:1px;stroke-linecap:butt;stroke-linejoin:miter;stroke-opacity:1" d="M 127.593,270.702 127.593,303.226 z" id="boundary" inkscape:connector-curvature="0" />
	<path style="fill:none;stroke:red;stroke-width:1px;stroke-linecap:butt;stroke-linejoin:miter;stroke-opacity:1" d="M 127.593,303.226 127.593,335.751 z" id="boundary" inkscape:connector-curvature="0" />
	<path style="fill:none;stroke:red;stroke-width:1px;stroke-linecap:butt;stroke-linejoin:miter;stroke-opacity:1" d="M 127.593,335.751 127.593,368.275 z" id="boundary" inkscape:connector-curvature="0" />
	<path style="fill:none;stroke:red;stroke-width:1px;stroke-linecap:butt;stroke-linejoin:miter;stroke-opacity:1" d="M 127.593,368.275 127.593,400.8 z" id="boundary" inkscape:connector-curvature="0" />
	<path style="fill:none;stroke:red;stroke-width:1px;stroke-linecap:butt;stroke-linejoin:miter;stroke-opacity:1" d="M 127.593,400.8 137.351,433.325 z" id="boundary" inkscape:connector-curvature="0" />
	<path style="fill:none;stroke:red;stroke-width:1px;stroke-linecap:butt;stroke-linejoin:miter;stroke-opacity:1" d="M 130.846,677.259 163.37,677.259 z" id="boundary" inkscape:connector-curvature="0" />
	<path style="fill:none;stroke:red;stroke-width:1px;stroke-linecap:butt;stroke-linejoin:miter;stroke-opacity:1" d="M 137.351,433.325 169.875,436.577 z" id="boundary" inkscape:connector-curvature="0" />
	<path style="fill:none;stroke:red;stroke-width:1px;stroke-linecap:butt;stroke-linejoin:miter;stroke-opacity:1" d="M 140.603,573.18 173.128,573.18 z" id="boundary" inkscape:connector-curvature="0" />
	<path style="fill:none;stroke:red;stroke-width:1px;stroke-linecap:butt;stroke-linejoin:miter;stroke-opacity:1" d="M 147.108,647.987 179.633,647.987 z" id="boundary" inkscape:connector-curvature="0" />
	<path style="fill:none;stroke:red;stroke-width:1px;stroke-linecap:butt;stroke-linejoin:miter;stroke-opacity:1" d="M 150.361,813.862 182.885,813.862 z" id="boundary" inkscape:connector-curvature="0" />
	<path style="fill:none;stroke:red;stroke-width:1px;stroke-linecap:butt;stroke-linejoin:miter;stroke-opacity:1" d="M 153.613,745.561 186.138,745.561 z" id="boundary" inkscape:connector-curvature="0" />
	<path style="fill:none;stroke:red;stroke-width:1px;stroke-linecap:butt;stroke-linejoin:miter;stroke-opacity:1" d="M 156.866,543.908 189.39,543.908 z" id="boundary" inkscape:connector-curvature="0" />
	<path style="fill:none;stroke:red;stroke-width:1px;stroke-linecap:butt;stroke-linejoin:miter;stroke-opacity:1" d="M 160.118,4 192.643,4 z" id="boundary" inkscape:connector-curvature="0" />
	<path style="fill:none;stroke:red;stroke-width:1px;stroke-linecap:butt;stroke-linejoin:miter;stroke-opacity:1" d="M 163.37,677.259 195.895,677.259 z" id="boundary" inkscape:connector-curvature="0" />
	<path style="fill:none;stroke:red;stroke-width:1px;stroke-linecap:butt;stroke-linejoin:miter;stroke-opacity:1" d="M 169.875,436.577 202.4,436.577 z" id="boundary" inkscape:connector-curvature="0" />
	<path style="fill:none;stroke:red;stroke-width:1px;stroke-linecap:butt;stroke-linejoin:miter;stroke-opacity:1" d="M 173.128,573.18 205.652,573.18 z" id="boundary" inkscape:connector-curvature="0" />
	<path style="fill:none;stroke:red;stroke-width:1px;stroke-linecap:butt;stroke-linejoin:miter;stroke-opacity:1" d="M 179.633,647.987 212.157,647.987 z" id="boundary" inkscape:connector-curvature="0" />
	<path style="fill:none;stroke:red;stroke-width:1px;stroke-linecap:butt;stroke-linejoin:miter;stroke-opacity:1" d="M 182.885,813.862 215.41,813.862 z" id="boundary" inkscape:connector-curvature="0" />
	<path style="fill:none;stroke:red;stroke-width:1px;stroke-linecap:butt;stroke-linejoin:miter;stroke-opacity:1" d="M 186.138,745.561 218.662,745.561 z" id="boundary" inkscape:connector-curvature="0" />
	<path style="fill:none;stroke:red;stroke-width:1px;stroke-linecap:butt;stroke-linejoin:miter;stroke-opacity:1" d="M 189.39,543.908 221.915,543.908 z" id="boundary" inkscape:connector-curvature="0" />
	<path style="fill:none;stroke:red;stroke-width:1px;stroke-linecap:butt;stroke-linejoin:miter;stroke-opacity:1" d="M 192.643,4 225.167,4 z" id="boundary" inkscape:connector-curvature="0" />
	<path style="fill:none;stroke:red;stroke-width:1px;stroke-linecap:butt;stroke-linejoin:miter;stroke-opacity:1" d="M 195.895,677.259 228.42,677.259 z" id="boundary" inkscape:connector-curvature="0" />
	<path style="fill:none;stroke:red;stroke-width:1px;stroke-linecap:butt;stroke-linejoin:miter;stroke-opacity:1" d="M 202.4,436.577 234.925,436.577 z" id="boundary" inkscape:connector-curvature="0" />
	<path style="fill:none;stroke:red;stroke-width:1px;stroke-linecap:butt;stroke-linejoin:miter;stroke-opacity:1" d="M 205.652,573.18 238.177,573.18 z" id="boundary" inkscape:connector-curvature="0" />
	<path style="fill:none;stroke:red;stroke-width:1px;stroke-linecap:butt;stroke-linejoin:miter;stroke-opacity:1" d="M 212.157,647.987 244.682,647.987 z" id="boundary" inkscape:connector-curvature="0" />
	<path style="fill:none;stroke:red;stroke-width:1px;stroke-linecap:butt;stroke-linejoin:miter;stroke-opacity:1" d="M 215.41,813.862 247.934,813.862 z" id="boundary" inkscape:connector-curvature="0" />
	<path style="fill:none;stroke:red;stroke-width:1px;stroke-linecap:butt;stroke-linejoin:miter;stroke-opacity:1" d="M 218.662,745.561 251.187,745.561 z" id="boundary" inkscape:connector-curvature="0" />
	<path style="fill:none;stroke:red;stroke-width:1px;stroke-linecap:butt;stroke-linejoin:miter;stroke-opacity:1" d="M 221.915,543.908 254.439,543.908 z" id="boundary" inkscape:connector-curvature="0" />
	<path style="fill:none;stroke:red;stroke-width:1px;stroke-linecap:butt;stroke-linejoin:miter;stroke-opacity:1" d="M 225.167,4 257.692,4 z" id="boundary" inkscape:connector-curvature="0" />
	<path style="fill:none;stroke:red;stroke-width:1px;stroke-linecap:butt;stroke-linejoin:miter;stroke-opacity:1" d="M 228.42,677.259 260.944,677.259 z" id="boundary" inkscape:connector-curvature="0" />
	<path style="fill:none;stroke:red;stroke-width:1px;stroke-linecap:butt;stroke-linejoin:miter;stroke-opacity:1" d="M 234.925,436.577 267.449,436.577 z" id="boundary" inkscape:connector-curvature="0" />
	<path style="fill:none;stroke:red;stroke-width:1px;stroke-linecap:butt;stroke-linejoin:miter;stroke-opacity:1" d="M 238.177,573.18 270.702,573.18 z" id="boundary" inkscape:connector-curvature="0" />
	<path style="fill:none;stroke:red;stroke-width:1px;stroke-linecap:butt;stroke-linejoin:miter;stroke-opacity:1" d="M 244.682,647.987 277.207,647.987 z" id="boundary" inkscape:connector-curvature="0" />
	<path style="fill:none;stroke:red;stroke-width:1px;stroke-linecap:butt;stroke-linejoin:miter;stroke-opacity:1" d="M 247.934,813.862 280.459,813.862 z" id="boundary" inkscape:connector-curvature="0" />
	<path style="fill:none;stroke:red;stroke-width:1px;stroke-linecap:butt;stroke-linejoin:miter;stroke-opacity:1" d="M 251.187,745.561 283.711,745.561 z" id="boundary" inkscape:connector-curvature="0" />
	<path style="fill:none;stroke:red;stroke-width:1px;stroke-linecap:butt;stroke-linejoin:miter;stroke-opacity:1" d="M 254.439,543.908 286.964,543.908 z" id="boundary" inkscape:connector-curvature="0" />
	<path style="fill:none;stroke:red;stroke-width:1px;stroke-linecap:butt;stroke-linejoin:miter;stroke-opacity:1" d="M 257.692,4 290.216,4 z" id="boundary" inkscape:connector-curvature="0" />
	<path style="fill:none;stroke:red;stroke-width:1px;stroke-linecap:butt;stroke-linejoin:miter;stroke-opacity:1" d="M 260.944,677.259 293.469,677.259 z" id="boundary" inkscape:connector-curvature="0" />
	<path style="fill:none;stroke:red;stroke-width:1px;stroke-linecap:butt;stroke-linejoin:miter;stroke-opacity:1" d="M 267.449,436.577 299.974,436.577 z" id="boundary" inkscape:connector-curvature="0" />
	<path style="fill:none;stroke:red;stroke-width:1px;stroke-linecap:butt;stroke-linejoin:miter;stroke-opacity:1" d="M 270.702,573.18 303.226,573.18 z" id="boundary" inkscape:connector-curvature="0" />
	<path style="fill:none;stroke:red;stroke-width:1px;stroke-linecap:butt;stroke-linejoin:miter;stroke-opacity:1" d="M 277.207,647.987 309.731,647.987 z" id="boundary" inkscape:connector-curvature="0" />
	<path style="fill:none;stroke:red;stroke-width:1px;stroke-linecap:butt;stroke-linejoin:miter;stroke-opacity:1" d="M 280.459,813.862 312.984,813.862 z" id="boundary" inkscape:connector-curvature="0" />
	<path style="fill:none;stroke:red;stroke-width:1px;stroke-linecap:butt;stroke-linejoin:miter;stroke-opacity:1" d="M 283.711,745.561 316.236,745.561 z" id="boundary" inkscape:connector-curvature="0" />
	<path style="fill:none;stroke:red;stroke-width:1px;stroke-linecap:butt;stroke-linejoin:miter;stroke-opacity:1" d="M 286.964,543.908 319.489,543.908 z" id="boundary" inkscape:connector-curvature="0" />
	<path style="fill:none;stroke:red;stroke-width:1px;stroke-linecap:butt;stroke-linejoin:miter;stroke-opacity:1" d="M 290.216,4 322.741,4 z" id="boundary" inkscape:connector-curvature="0" />
	<path style="fill:none;stroke:red;stroke-width:1px;stroke-linecap:butt;stroke-linejoin:miter;stroke-opacity:1" d="M 293.469,677.259 325.993,677.259 z" id="boundary" inkscape:connector-curvature="0" />
	<path style="fill:none;stroke:red;stroke-width:1px;stroke-linecap:butt;stroke-linejoin:miter;stroke-opacity:1" d="M 299.974,436.577 332.498,436.577 z" id="boundary" inkscape:connector-curvature="0" />
	<path style="fill:none;stroke:red;stroke-width:1px;stroke-linecap:butt;stroke-linejoin:miter;stroke-opacity:1" d="M 303.226,573.18 335.751,573.18 z" id="boundary" inkscape:connector-curvature="0" />
	<path style="fill:none;stroke:red;stroke-width:1px;stroke-linecap:butt;stroke-linejoin:miter;stroke-opacity:1" d="M 309.731,647.987 342.256,647.987 z" id="boundary" inkscape:connector-curvature="0" />
	<path style="fill:none;stroke:red;stroke-width:1px;stroke-linecap:butt;stroke-linejoin:miter;stroke-opacity:1" d="M 312.984,813.862 345.508,813.862 z" id="boundary" inkscape:connector-curvature="0" />
	<path style="fill:none;stroke:red;stroke-width:1px;stroke-linecap:butt;stroke-linejoin:miter;stroke-opacity:1" d="M 316.236,745.561 348.761,745.561 z" id="boundary" inkscape:connector-curvature="0" />
	<path style="fill:none;stroke:red;stroke-width:1px;stroke-linecap:butt;stroke-linejoin:miter;stroke-opacity:1" d="M 319.489,543.908 352.013,543.908 z" id="boundary" inkscape:connector-curvature="0" />
	<path style="fill:none;stroke:red;stroke-width:1px;stroke-linecap:butt;stroke-linejoin:miter;stroke-opacity:1" d="M 322.741,4 355.266,4 z" id="boundary" inkscape:connector-curvature="0" />
	<path style="fill:none;stroke:red;stroke-width:1px;stroke-linecap:butt;stroke-linejoin:miter;stroke-opacity:1" d="M 325.993,677.259 358.518,677.259 z" id="boundary" inkscape:connector-curvature="0" />
	<path style="fill:none;stroke:red;stroke-width:1px;stroke-linecap:butt;stroke-linejoin:miter;stroke-opacity:1" d="M 332.498,436.577 365.023,436.577 z" id="boundary" inkscape:connector-curvature="0" />
	<path style="fill:none;stroke:red;stroke-width:1px;stroke-linecap:butt;stroke-linejoin:miter;stroke-opacity:1" d="M 335.751,573.18 368.275,573.18 z" id="boundary" inkscape:connector-curvature="0" />
	<path style="fill:none;stroke:red;stroke-width:1px;stroke-linecap:butt;stroke-linejoin:miter;stroke-opacity:1" d="M 342.256,647.987 374.78,638.23 z" id="boundary" inkscape:connector-curvature="0" />
	<path style="fill:none;stroke:red;stroke-width:1px;stroke-linecap:butt;stroke-linejoin:miter;stroke-opacity:1" d="M 345.508,813.862 378.033,813.862 z" id="boundary" inkscape:connector-curvature="0" />
	<path style="fill:none;stroke:red;stroke-width:1px;stroke-linecap:butt;stroke-linejoin:miter;stroke-opacity:1" d="M 348.761,745.561 374.78,706.531 z" id="boundary" inkscape:connector-curvature="0" />
	<path style="fill:none;stroke:red;stroke-width:1px;stroke-linecap:butt;stroke-linejoin:miter;stroke-opacity:1" d="M 352.013,543.908 374.78,501.626 z" id="boundary" inkscape:connector-curvature="0" />
	<path style="fill:none;stroke:red;stroke-width:1px;stroke-linecap:butt;stroke-linejoin:miter;stroke-opacity:1" d="M 355.266,4 387.79,4 z" id="boundary" inkscape:connector-curvature="0" />
	<path style="fill:none;stroke:red;stroke-width:1px;stroke-linecap:butt;stroke-linejoin:miter;stroke-opacity:1" d="M 358.518,677.259 374.78,706.531 z" id="boundary" inkscape:connector-curvature="0" />
	<path style="fill:none;stroke:red;stroke-width:1px;stroke-linecap:butt;stroke-linejoin:miter;stroke-opacity:1" d="M 365.023,436.577 374.78,469.102 z" id="boundary" inkscape:connector-curvature="0" />
	<path style="fill:none;stroke:red;stroke-width:1px;stroke-linecap:butt;stroke-linejoin:miter;stroke-opacity:1" d="M 368.275,573.18 374.78,605.705 z" id="boundary" inkscape:connector-curvature="0" />
	<path style="fill:none;stroke:red;stroke-width:1px;stroke-linecap:butt;stroke-linejoin:miter;stroke-opacity:1" d="M 374.78,469.102 374.78,501.626 z" id="boundary" inkscape:connector-curvature="0" />
	<path style="fill:none;stroke:red;stroke-width:1px;stroke-linecap:butt;stroke-linejoin:miter;stroke-opacity:1" d="M 374.78,605.705 374.78,638.23 z" id="boundary" inkscape:connector-curvature="0" />
	<path style="fill:none;stroke:red;stroke-width:1px;stroke-linecap:butt;stroke-linejoin:miter;stroke-opacity:1" d="M 378.033,813.862 410.557,813.862 z" id="boundary" inkscape:connector-curvature="0" />
	<path style="fill:none;stroke:red;stroke-width:1px;stroke-linecap:butt;stroke-linejoin:miter;stroke-opacity:1" d="M 387.79,4 420.315,4 z" id="boundary" inkscape:connector-curvature="0" />
	<path style="fill:none;stroke:red;stroke-width:1px;stroke-linecap:butt;stroke-linejoin:miter;stroke-opacity:1" d="M 410.557,813.862 443.082,813.862 z" id="boundary" inkscape:connector-curvature="0" />
	<path style="fill:none;stroke:red;stroke-width:1px;stroke-linecap:butt;stroke-linejoin:miter;stroke-opacity:1" d="M 420.315,4 452.839,4 z" id="boundary" inkscape:connector-curvature="0" />
	<path style="fill:none;stroke:red;stroke-width:1px;stroke-linecap:butt;stroke-linejoin:miter;stroke-opacity:1" d="M 443.082,813.862 475.607,813.862 z" id="boundary" inkscape:connector-curvature="0" />
	<path style="fill:none;stroke:red;stroke-width:1px;stroke-linecap:butt;stroke-linejoin:miter;stroke-opacity:1" d="M 452.839,4 485.364,4 z" id="boundary" inkscape:connector-curvature="0" />
	<path style="fill:none;stroke:red;stroke-width:1px;stroke-linecap:butt;stroke-linejoin:miter;stroke-opacity:1" d="M 475.607,813.862 508.131,813.862 z" id="boundary" inkscape:connector-curvature="0" />
	<path style="fill:none;stroke:red;stroke-width:1px;stroke-linecap:butt;stroke-linejoin:miter;stroke-opacity:1" d="M 485.364,4 517.889,4 z" id="boundary" inkscape:connector-curvature="0" />
	<path style="fill:none;stroke:red;stroke-width:1px;stroke-linecap:butt;stroke-linejoin:miter;stroke-opacity:1" d="M 508.131,813.862 540.656,813.862 z" id="boundary" inkscape:connector-curvature="0" />
	<path style="fill:none;stroke:red;stroke-width:1px;stroke-linecap:butt;stroke-linejoin:miter;stroke-opacity:1" d="M 517.889,4 550.413,4 z" id="boundary" inkscape:connector-curvature="0" />
	<path style="fill:none;stroke:red;stroke-width:1px;stroke-linecap:butt;stroke-linejoin:miter;stroke-opacity:1" d="M 540.656,813.862 573.18,813.862 z" id="boundary" inkscape:connector-curvature="0" />
	<path style="fill:none;stroke:red;stroke-width:1px;stroke-linecap:butt;stroke-linejoin:miter;stroke-opacity:1" d="M 550.413,4 582.938,4 z" id="boundary" inkscape:connector-curvature="0" />
	<path style="fill:none;stroke:red;stroke-width:1px;stroke-linecap:butt;stroke-linejoin:miter;stroke-opacity:1" d="M 573.18,439.83 573.18,472.354 z" id="boundary" inkscape:connector-curvature="0" />
	<path style="fill:none;stroke:red;stroke-width:1px;stroke-linecap:butt;stroke-linejoin:miter;stroke-opacity:1" d="M 573.18,439.83 605.705,436.577 z" id="boundary" inkscape:connector-curvature="0" />
	<path style="fill:none;stroke:red;stroke-width:1px;stroke-linecap:butt;stroke-linejoin:miter;stroke-opacity:1" d="M 573.18,472.354 573.18,504.879 z" id="boundary" inkscape:connector-curvature="0" />
	<path style="fill:none;stroke:red;stroke-width:1px;stroke-linecap:butt;stroke-linejoin:miter;stroke-opacity:1" d="M 573.18,504.879 573.18,537.403 z" id="boundary" inkscape:connector-curvature="0" />
	<path style="fill:none;stroke:red;stroke-width:1px;stroke-linecap:butt;stroke-linejoin:miter;stroke-opacity:1" d="M 573.18,537.403 605.705,543.908 z" id="boundary" inkscape:connector-curvature="0" />
	<path style="fill:none;stroke:red;stroke-width:1px;stroke-linecap:butt;stroke-linejoin:miter;stroke-opacity:1" d="M 573.18,576.433 573.18,608.957 z" id="boundary" inkscape:connector-curvature="0" />
	<path style="fill:none;stroke:red;stroke-width:1px;stroke-linecap:butt;stroke-linejoin:miter;stroke-opacity:1" d="M 573.18,576.433 621.967,573.18 z" id="boundary" inkscape:connector-curvature="0" />
	<path style="fill:none;stroke:red;stroke-width:1px;stroke-linecap:butt;stroke-linejoin:miter;stroke-opacity:1" d="M 573.18,608.957 573.18,641.482 z" id="boundary" inkscape:connector-curvature="0" />
	<path style="fill:none;stroke:red;stroke-width:1px;stroke-linecap:butt;stroke-linejoin:miter;stroke-opacity:1" d="M 573.18,641.482 605.705,647.987 z" id="boundary" inkscape:connector-curvature="0" />
	<path style="fill:none;stroke:red;stroke-width:1px;stroke-linecap:butt;stroke-linejoin:miter;stroke-opacity:1" d="M 573.18,680.511 573.18,713.036 z" id="boundary" inkscape:connector-curvature="0" />
	<path style="fill:none;stroke:red;stroke-width:1px;stroke-linecap:butt;stroke-linejoin:miter;stroke-opacity:1" d="M 573.18,680.511 621.967,677.259 z" id="boundary" inkscape:connector-curvature="0" />
	<path style="fill:none;stroke:red;stroke-width:1px;stroke-linecap:butt;stroke-linejoin:miter;stroke-opacity:1" d="M 573.18,713.036 576.433,745.561 z" id="boundary" inkscape:connector-curvature="0" />
	<path style="fill:none;stroke:red;stroke-width:1px;stroke-linecap:butt;stroke-linejoin:miter;stroke-opacity:1" d="M 573.18,813.862 605.705,813.862 z" id="boundary" inkscape:connector-curvature="0" />
	<path style="fill:none;stroke:red;stroke-width:1px;stroke-linecap:butt;stroke-linejoin:miter;stroke-opacity:1" d="M 576.433,745.561 602.452,765.075 z" id="boundary" inkscape:connector-curvature="0" />
	<path style="fill:none;stroke:red;stroke-width:1px;stroke-linecap:butt;stroke-linejoin:miter;stroke-opacity:1" d="M 582.938,4 615.462,4 z" id="boundary" inkscape:connector-curvature="0" />
	<path style="fill:none;stroke:red;stroke-width:1px;stroke-linecap:butt;stroke-linejoin:miter;stroke-opacity:1" d="M 602.452,765.075 628.472,745.561 z" id="boundary" inkscape:connector-curvature="0" />
	<path style="fill:none;stroke:red;stroke-width:1px;stroke-linecap:butt;stroke-linejoin:miter;stroke-opacity:1" d="M 605.705,436.577 638.23,436.577 z" id="boundary" inkscape:connector-curvature="0" />
	<path style="fill:none;stroke:red;stroke-width:1px;stroke-linecap:butt;stroke-linejoin:miter;stroke-opacity:1" d="M 605.705,543.908 638.23,543.908 z" id="boundary" inkscape:connector-curvature="0" />
	<path style="fill:none;stroke:red;stroke-width:1px;stroke-linecap:butt;stroke-linejoin:miter;stroke-opacity:1" d="M 605.705,647.987 638.23,647.987 z" id="boundary" inkscape:connector-curvature="0" />
	<path style="fill:none;stroke:red;stroke-width:1px;stroke-linecap:butt;stroke-linejoin:miter;stroke-opacity:1" d="M 605.705,813.862 638.23,813.862 z" id="boundary" inkscape:connector-curvature="0" />
	<path style="fill:none;stroke:red;stroke-width:1px;stroke-linecap:butt;stroke-linejoin:miter;stroke-opacity:1" d="M 615.462,4 647.987,4 z" id="boundary" inkscape:connector-curvature="0" />
	<path style="fill:none;stroke:red;stroke-width:1px;stroke-linecap:butt;stroke-linejoin:miter;stroke-opacity:1" d="M 621.967,573.18 654.492,573.18 z" id="boundary" inkscape:connector-curvature="0" />
	<path style="fill:none;stroke:red;stroke-width:1px;stroke-linecap:butt;stroke-linejoin:miter;stroke-opacity:1" d="M 621.967,677.259 654.492,677.259 z" id="boundary" inkscape:connector-curvature="0" />
	<path style="fill:none;stroke:red;stroke-width:1px;stroke-linecap:butt;stroke-linejoin:miter;stroke-opacity:1" d="M 628.472,745.561 660.997,745.561 z" id="boundary" inkscape:connector-curvature="0" />
	<path style="fill:none;stroke:red;stroke-width:1px;stroke-linecap:butt;stroke-linejoin:miter;stroke-opacity:1" d="M 638.23,436.577 670.754,436.577 z" id="boundary" inkscape:connector-curvature="0" />
	<path style="fill:none;stroke:red;stroke-width:1px;stroke-linecap:butt;stroke-linejoin:miter;stroke-opacity:1" d="M 638.23,543.908 670.754,543.908 z" id="boundary" inkscape:connector-curvature="0" />
	<path style="fill:none;stroke:red;stroke-width:1px;stroke-linecap:butt;stroke-linejoin:miter;stroke-opacity:1" d="M 638.23,647.987 670.754,647.987 z" id="boundary" inkscape:connector-curvature="0" />
	<path style="fill:none;stroke:red;stroke-width:1px;stroke-linecap:butt;stroke-linejoin:miter;stroke-opacity:1" d="M 638.23,813.862 670.754,813.862 z" id="boundary" inkscape:connector-curvature="0" />
	<path style="fill:none;stroke:red;stroke-width:1px;stroke-linecap:butt;stroke-linejoin:miter;stroke-opacity:1" d="M 647.987,4 680.511,4 z" id="boundary" inkscape:connector-curvature="0" />
	<path style="fill:none;stroke:red;stroke-width:1px;stroke-linecap:butt;stroke-linejoin:miter;stroke-opacity:1" d="M 654.492,573.18 687.016,573.18 z" id="boundary" inkscape:connector-curvature="0" />
	<path style="fill:none;stroke:red;stroke-width:1px;stroke-linecap:butt;stroke-linejoin:miter;stroke-opacity:1" d="M 654.492,677.259 687.016,677.259 z" id="boundary" inkscape:connector-curvature="0" />
	<path style="fill:none;stroke:red;stroke-width:1px;stroke-linecap:butt;stroke-linejoin:miter;stroke-opacity:1" d="M 660.997,745.561 693.521,745.561 z" id="boundary" inkscape:connector-curvature="0" />
	<path style="fill:none;stroke:red;stroke-width:1px;stroke-linecap:butt;stroke-linejoin:miter;stroke-opacity:1" d="M 670.754,436.577 703.279,436.577 z" id="boundary" inkscape:connector-curvature="0" />
	<path style="fill:none;stroke:red;stroke-width:1px;stroke-linecap:butt;stroke-linejoin:miter;stroke-opacity:1" d="M 670.754,543.908 703.279,543.908 z" id="boundary" inkscape:connector-curvature="0" />
	<path style="fill:none;stroke:red;stroke-width:1px;stroke-linecap:butt;stroke-linejoin:miter;stroke-opacity:1" d="M 670.754,647.987 703.279,647.987 z" id="boundary" inkscape:connector-curvature="0" />
	<path style="fill:none;stroke:red;stroke-width:1px;stroke-linecap:butt;stroke-linejoin:miter;stroke-opacity:1" d="M 670.754,813.862 703.279,813.862 z" id="boundary" inkscape:connector-curvature="0" />
	<path style="fill:none;stroke:red;stroke-width:1px;stroke-linecap:butt;stroke-linejoin:miter;stroke-opacity:1" d="M 680.511,4 713.036,4 z" id="boundary" inkscape:connector-curvature="0" />
	<path style="fill:none;stroke:red;stroke-width:1px;stroke-linecap:butt;stroke-linejoin:miter;stroke-opacity:1" d="M 687.016,573.18 719.541,573.18 z" id="boundary" inkscape:connector-curvature="0" />
	<path style="fill:none;stroke:red;stroke-width:1px;stroke-linecap:butt;stroke-linejoin:miter;stroke-opacity:1" d="M 687.016,677.259 719.541,677.259 z" id="boundary" inkscape:connector-curvature="0" />
	<path style="fill:none;stroke:red;stroke-width:1px;stroke-linecap:butt;stroke-linejoin:miter;stroke-opacity:1" d="M 693.521,745.561 726.046,745.561 z" id="boundary" inkscape:connector-curvature="0" />
	<path style="fill:none;stroke:red;stroke-width:1px;stroke-linecap:butt;stroke-linejoin:miter;stroke-opacity:1" d="M 703.279,436.577 735.803,436.577 z" id="boundary" inkscape:connector-curvature="0" />
	<path style="fill:none;stroke:red;stroke-width:1px;stroke-linecap:butt;stroke-linejoin:miter;stroke-opacity:1" d="M 703.279,543.908 735.803,543.908 z" id="boundary" inkscape:connector-curvature="0" />
	<path style="fill:none;stroke:red;stroke-width:1px;stroke-linecap:butt;stroke-linejoin:miter;stroke-opacity:1" d="M 703.279,647.987 735.803,647.987 z" id="boundary" inkscape:connector-curvature="0" />
	<path style="fill:none;stroke:red;stroke-width:1px;stroke-linecap:butt;stroke-linejoin:miter;stroke-opacity:1" d="M 703.279,813.862 735.803,813.862 z" id="boundary" inkscape:connector-curvature="0" />
	<path style="fill:none;stroke:red;stroke-width:1px;stroke-linecap:butt;stroke-linejoin:miter;stroke-opacity:1" d="M 713.036,4 745.561,4 z" id="boundary" inkscape:connector-curvature="0" />
	<path style="fill:none;stroke:red;stroke-width:1px;stroke-linecap:butt;stroke-linejoin:miter;stroke-opacity:1" d="M 719.541,573.18 752.066,573.18 z" id="boundary" inkscape:connector-curvature="0" />
	<path style="fill:none;stroke:red;stroke-width:1px;stroke-linecap:butt;stroke-linejoin:miter;stroke-opacity:1" d="M 719.541,677.259 752.066,677.259 z" id="boundary" inkscape:connector-curvature="0" />
	<path style="fill:none;stroke:red;stroke-width:1px;stroke-linecap:butt;stroke-linejoin:miter;stroke-opacity:1" d="M 726.046,745.561 758.57,745.561 z" id="boundary" inkscape:connector-curvature="0" />
	<path style="fill:none;stroke:red;stroke-width:1px;stroke-linecap:butt;stroke-linejoin:miter;stroke-opacity:1" d="M 735.803,436.577 768.328,436.577 z" id="boundary" inkscape:connector-curvature="0" />
	<path style="fill:none;stroke:red;stroke-width:1px;stroke-linecap:butt;stroke-linejoin:miter;stroke-opacity:1" d="M 735.803,543.908 768.328,543.908 z" id="boundary" inkscape:connector-curvature="0" />
	<path style="fill:none;stroke:red;stroke-width:1px;stroke-linecap:butt;stroke-linejoin:miter;stroke-opacity:1" d="M 735.803,647.987 768.328,647.987 z" id="boundary" inkscape:connector-curvature="0" />
	<path style="fill:none;stroke:red;stroke-width:1px;stroke-linecap:butt;stroke-linejoin:miter;stroke-opacity:1" d="M 735.803,813.862 768.328,813.862 z" id="boundary" inkscape:connector-curvature="0" />
	<path style="fill:none;stroke:red;stroke-width:1px;stroke-linecap:butt;stroke-linejoin:miter;stroke-opacity:1" d="M 745.561,4 778.085,4 z" id="boundary" inkscape:connector-curvature="0" />
	<path style="fill:none;stroke:red;stroke-width:1px;stroke-linecap:butt;stroke-linejoin:miter;stroke-opacity:1" d="M 752.066,573.18 784.59,573.18 z" id="boundary" inkscape:connector-curvature="0" />
	<path style="fill:none;stroke:red;stroke-width:1px;stroke-linecap:butt;stroke-linejoin:miter;stroke-opacity:1" d="M 752.066,677.259 784.59,677.259 z" id="boundary" inkscape:connector-curvature="0" />
	<path style="fill:none;stroke:red;stroke-width:1px;stroke-linecap:butt;stroke-linejoin:miter;stroke-opacity:1" d="M 758.57,745.561 791.095,745.561 z" id="boundary" inkscape:connector-curvature="0" />
	<path style="fill:none;stroke:red;stroke-width:1px;stroke-linecap:butt;stroke-linejoin:miter;stroke-opacity:1" d="M 768.328,436.577 800.852,436.577 z" id="boundary" inkscape:connector-curvature="0" />
	<path style="fill:none;stroke:red;stroke-width:1px;stroke-linecap:butt;stroke-linejoin:miter;stroke-opacity:1" d="M 768.328,543.908 800.852,543.908 z" id="boundary" inkscape:connector-curvature="0" />
	<path style="fill:none;stroke:red;stroke-width:1px;stroke-linecap:butt;stroke-linejoin:miter;stroke-opacity:1" d="M 768.328,647.987 800.852,647.987 z" id="boundary" inkscape:connector-curvature="0" />
	<path style="fill:none;stroke:red;stroke-width:1px;stroke-linecap:butt;stroke-linejoin:miter;stroke-opacity:1" d="M 768.328,813.862 800.852,813.862 z" id="boundary" inkscape:connector-curvature="0" />
	<path style="fill:none;stroke:red;stroke-width:1px;stroke-linecap:butt;stroke-linejoin:miter;stroke-opacity:1" d="M 778.085,4 810.61,4 z" id="boundary" inkscape:connector-curvature="0" />
	<path style="fill:none;stroke:red;stroke-width:1px;stroke-linecap:butt;stroke-linejoin:miter;stroke-opacity:1" d="M 784.59,573.18 817.115,573.18 z" id="boundary" inkscape:connector-curvature="0" />
	<path style="fill:none;stroke:red;stroke-width:1px;stroke-linecap:butt;stroke-linejoin:miter;stroke-opacity:1" d="M 784.59,677.259 817.115,677.259 z" id="boundary" inkscape:connector-curvature="0" />
	<path style="fill:none;stroke:red;stroke-width:1px;stroke-linecap:butt;stroke-linejoin:miter;stroke-opacity:1" d="M 791.095,745.561 823.62,745.561 z" id="boundary" inkscape:connector-curvature="0" />
	<path style="fill:none;stroke:red;stroke-width:1px;stroke-linecap:butt;stroke-linejoin:miter;stroke-opacity:1" d="M 800.852,436.577 833.377,436.577 z" id="boundary" inkscape:connector-curvature="0" />
	<path style="fill:none;stroke:red;stroke-width:1px;stroke-linecap:butt;stroke-linejoin:miter;stroke-opacity:1" d="M 800.852,543.908 833.377,543.908 z" id="boundary" inkscape:connector-curvature="0" />
	<path style="fill:none;stroke:red;stroke-width:1px;stroke-linecap:butt;stroke-linejoin:miter;stroke-opacity:1" d="M 800.852,647.987 833.377,647.987 z" id="boundary" inkscape:connector-curvature="0" />
	<path style="fill:none;stroke:red;stroke-width:1px;stroke-linecap:butt;stroke-linejoin:miter;stroke-opacity:1" d="M 800.852,813.862 833.377,813.862 z" id="boundary" inkscape:connector-curvature="0" />
	<path style="fill:none;stroke:red;stroke-width:1px;stroke-linecap:butt;stroke-linejoin:miter;stroke-opacity:1" d="M 810.61,4 843.134,4 z" id="boundary" inkscape:connector-curvature="0" />
	<path style="fill:none;stroke:red;stroke-width:1px;stroke-linecap:butt;stroke-linejoin:miter;stroke-opacity:1" d="M 817.115,573.18 849.639,573.18 z" id="boundary" inkscape:connector-curvature="0" />
	<path style="fill:none;stroke:red;stroke-width:1px;stroke-linecap:butt;stroke-linejoin:miter;stroke-opacity:1" d="M 817.115,677.259 849.639,677.259 z" id="boundary" inkscape:connector-curvature="0" />
	<path style="fill:none;stroke:red;stroke-width:1px;stroke-linecap:butt;stroke-linejoin:miter;stroke-opacity:1" d="M 823.62,745.561 856.144,745.561 z" id="boundary" inkscape:connector-curvature="0" />
	<path style="fill:none;stroke:red;stroke-width:1px;stroke-linecap:butt;stroke-linejoin:miter;stroke-opacity:1" d="M 833.377,436.577 865.902,420.315 z" id="boundary" inkscape:connector-curvature="0" />
	<path style="fill:none;stroke:red;stroke-width:1px;stroke-linecap:butt;stroke-linejoin:miter;stroke-opacity:1" d="M 833.377,543.908 865.902,543.908 z" id="boundary" inkscape:connector-curvature="0" />
	<path style="fill:none;stroke:red;stroke-width:1px;stroke-linecap:butt;stroke-linejoin:miter;stroke-opacity:1" d="M 833.377,647.987 865.902,647.987 z" id="boundary" inkscape:connector-curvature="0" />
	<path style="fill:none;stroke:red;stroke-width:1px;stroke-linecap:butt;stroke-linejoin:miter;stroke-opacity:1" d="M 833.377,813.862 865.902,826.872 z" id="boundary" inkscape:connector-curvature="0" />
	<path style="fill:none;stroke:red;stroke-width:1px;stroke-linecap:butt;stroke-linejoin:miter;stroke-opacity:1" d="M 843.134,4 865.902,30.0197 z" id="boundary" inkscape:connector-curvature="0" />
	<path style="fill:none;stroke:red;stroke-width:1px;stroke-linecap:butt;stroke-linejoin:miter;stroke-opacity:1" d="M 849.639,573.18 882.164,573.18 z" id="boundary" inkscape:connector-curvature="0" />
	<path style="fill:none;stroke:red;stroke-width:1px;stroke-linecap:butt;stroke-linejoin:miter;stroke-opacity:1" d="M 849.639,677.259 882.164,677.259 z" id="boundary" inkscape:connector-curvature="0" />
	<path style="fill:none;stroke:red;stroke-width:1px;stroke-linecap:butt;stroke-linejoin:miter;stroke-opacity:1" d="M 856.144,745.561 888.669,745.561 z" id="boundary" inkscape:connector-curvature="0" />
	<path style="fill:none;stroke:red;stroke-width:1px;stroke-linecap:butt;stroke-linejoin:miter;stroke-opacity:1" d="M 865.902,30.0197 865.902,62.5443 z" id="boundary" inkscape:connector-curvature="0" />
	<path style="fill:none;stroke:red;stroke-width:1px;stroke-linecap:butt;stroke-linejoin:miter;stroke-opacity:1" d="M 865.902,62.5443 865.902,95.0689 z" id="boundary" inkscape:connector-curvature="0" />
	<path style="fill:none;stroke:red;stroke-width:1px;stroke-linecap:butt;stroke-linejoin:miter;stroke-opacity:1" d="M 865.902,95.0689 865.902,127.593 z" id="boundary" inkscape:connector-curvature="0" />
	<path style="fill:none;stroke:red;stroke-width:1px;stroke-linecap:butt;stroke-linejoin:miter;stroke-opacity:1" d="M 865.902,127.593 865.902,160.118 z" id="boundary" inkscape:connector-curvature="0" />
	<path style="fill:none;stroke:red;stroke-width:1px;stroke-linecap:butt;stroke-linejoin:miter;stroke-opacity:1" d="M 865.902,160.118 865.902,192.643 z" id="boundary" inkscape:connector-curvature="0" />
	<path style="fill:none;stroke:red;stroke-width:1px;stroke-linecap:butt;stroke-linejoin:miter;stroke-opacity:1" d="M 865.902,192.643 865.902,225.167 z" id="boundary" inkscape:connector-curvature="0" />
	<path style="fill:none;stroke:red;stroke-width:1px;stroke-linecap:butt;stroke-linejoin:miter;stroke-opacity:1" d="M 865.902,225.167 865.902,257.692 z" id="boundary" inkscape:connector-curvature="0" />
	<path style="fill:none;stroke:red;stroke-width:1px;stroke-linecap:butt;stroke-linejoin:miter;stroke-opacity:1" d="M 865.902,257.692 865.902,290.216 z" id="boundary" inkscape:connector-curvature="0" />
	<path style="fill:none;stroke:red;stroke-width:1px;stroke-linecap:butt;stroke-linejoin:miter;stroke-opacity:1" d="M 865.902,290.216 865.902,322.741 z" id="boundary" inkscape:connector-curvature="0" />
	<path style="fill:none;stroke:red;stroke-width:1px;stroke-linecap:butt;stroke-linejoin:miter;stroke-opacity:1" d="M 865.902,322.741 865.902,355.266 z" id="boundary" inkscape:connector-curvature="0" />
	<path style="fill:none;stroke:red;stroke-width:1px;stroke-linecap:butt;stroke-linejoin:miter;stroke-opacity:1" d="M 865.902,355.266 865.902,387.79 z" id="boundary" inkscape:connector-curvature="0" />
	<path style="fill:none;stroke:red;stroke-width:1px;stroke-linecap:butt;stroke-linejoin:miter;stroke-opacity:1" d="M 865.902,387.79 865.902,420.315 z" id="boundary" inkscape:connector-curvature="0" />
	<path style="fill:none;stroke:red;stroke-width:1px;stroke-linecap:butt;stroke-linejoin:miter;stroke-opacity:1" d="M 865.902,543.908 898.426,543.908 z" id="boundary" inkscape:connector-curvature="0" />
	<path style="fill:none;stroke:red;stroke-width:1px;stroke-linecap:butt;stroke-linejoin:miter;stroke-opacity:1" d="M 865.902,647.987 898.426,647.987 z" id="boundary" inkscape:connector-curvature="0" />
	<path style="fill:none;stroke:red;stroke-width:1px;stroke-linecap:butt;stroke-linejoin:miter;stroke-opacity:1" d="M 865.902,826.872 898.426,813.862 z" id="boundary" inkscape:connector-curvature="0" />
	<path style="fill:none;stroke:red;stroke-width:1px;stroke-linecap:butt;stroke-linejoin:miter;stroke-opacity:1" d="M 882.164,573.18 914.689,573.18 z" id="boundary" inkscape:connector-curvature="0" />
	<path style="fill:none;stroke:red;stroke-width:1px;stroke-linecap:butt;stroke-linejoin:miter;stroke-opacity:1" d="M 882.164,677.259 914.689,677.259 z" id="boundary" inkscape:connector-curvature="0" />
	<path style="fill:none;stroke:red;stroke-width:1px;stroke-linecap:butt;stroke-linejoin:miter;stroke-opacity:1" d="M 888.669,745.561 914.689,765.075 z" id="boundary" inkscape:connector-curvature="0" />
	<path style="fill:none;stroke:red;stroke-width:1px;stroke-linecap:butt;stroke-linejoin:miter;stroke-opacity:1" d="M 898.426,543.908 930.951,543.908 z" id="boundary" inkscape:connector-curvature="0" />
	<path style="fill:none;stroke:red;stroke-width:1px;stroke-linecap:butt;stroke-linejoin:miter;stroke-opacity:1" d="M 898.426,647.987 930.951,647.987 z" id="boundary" inkscape:connector-curvature="0" />
	<path style="fill:none;stroke:red;stroke-width:1px;stroke-linecap:butt;stroke-linejoin:miter;stroke-opacity:1" d="M 898.426,813.862 930.951,813.862 z" id="boundary" inkscape:connector-curvature="0" />
	<path style="fill:none;stroke:red;stroke-width:1px;stroke-linecap:butt;stroke-linejoin:miter;stroke-opacity:1" d="M 914.689,573.18 930.951,543.908 z" id="boundary" inkscape:connector-curvature="0" />
	<path style="fill:none;stroke:red;stroke-width:1px;stroke-linecap:butt;stroke-linejoin:miter;stroke-opacity:1" d="M 914.689,677.259 930.951,647.987 z" id="boundary" inkscape:connector-curvature="0" />
	<path style="fill:none;stroke:red;stroke-width:1px;stroke-linecap:butt;stroke-linejoin:miter;stroke-opacity:1" d="M 914.689,765.075 940.708,745.561 z" id="boundary" inkscape:connector-curvature="0" />
	<path style="fill:none;stroke:red;stroke-width:1px;stroke-linecap:butt;stroke-linejoin:miter;stroke-opacity:1" d="M 930.951,813.862 963.475,817.115 z" id="boundary" inkscape:connector-curvature="0" />
	<path style="fill:none;stroke:red;stroke-width:1px;stroke-linecap:butt;stroke-linejoin:miter;stroke-opacity:1" d="M 940.708,745.561 973.233,745.561 z" id="boundary" inkscape:connector-curvature="0" />
	<path style="fill:none;stroke:red;stroke-width:1px;stroke-linecap:butt;stroke-linejoin:miter;stroke-opacity:1" d="M 963.475,817.115 996,804.105 z" id="boundary" inkscape:connector-curvature="0" />
	<path style="fill:none;stroke:red;stroke-width:1px;stroke-linecap:butt;stroke-linejoin:miter;stroke-opacity:1" d="M 973.233,745.561 996,771.58 z" id="boundary" inkscape:connector-curvature="0" />
	<path style="fill:none;stroke:red;stroke-width:1px;stroke-linecap:butt;stroke-linejoin:miter;stroke-opacity:1" d="M 996,771.58 996,804.105 z" id="boundary" inkscape:connector-curvature="0" />
	<circle cx="4" cy="752.066" r="4" fill="#0" id="circle0"/>
	<circle cx="4" cy="784.59" r="4" fill="#0" id="circle1"/>
	<circle cx="20.2623" cy="813.862" r="4" fill="#0" id="circle2"/>
	<circle cx="36.5246" cy="745.561" r="4" fill="#0" id="circle3"/>
	<circle cx="52.7869" cy="813.862" r="4" fill="#0" id="circle4"/>
	<circle cx="62.5443" cy="765.075" r="4" fill="#0" id="circle5"/>
	<circle cx="82.059" cy="550.413" r="4" fill="#0" id="circle6"/>
	<circle cx="82.059" cy="647.987" r="4" fill="#0" id="circle7"/>
	<circle cx="85.3115" cy="813.862" r="4" fill="#0" id="circle8"/>
	<circle cx="88.5639" cy="745.561" r="4" fill="#0" id="circle9"/>
	<circle cx="98.3213" cy="677.259" r="4" fill="#0" id="circle10"/>
	<circle cx="108.079" cy="573.18" r="4" fill="#0" id="circle11"/>
	<circle cx="114.584" cy="647.987" r="4" fill="#0" id="circle12"/>
	<circle cx="117.836" cy="826.872" r="4" fill="#0" id="circle13"/>
	<circle cx="121.089" cy="745.561" r="4" fill="#0" id="circle14"/>
	<circle cx="124.341" cy="543.908" r="4" fill="#0" id="circle15"/>
	<circle cx="127.593" cy="10.5049" r="4" fill="#0" id="circle16"/>
	<circle cx="127.593" cy="43.0295" r="4" fill="#0" id="circle17"/>
	<circle cx="127.593" cy="75.5541" r="4" fill="#0" id="circle18"/>
	<circle cx="127.593" cy="108.079" r="4" fill="#0" id="circle19"/>
	<circle cx="127.593" cy="140.603" r="4" fill="#0" id="circle20"/>
	<circle cx="127.593" cy="173.128" r="4" fill="#0" id="circle21"/>
	<circle cx="127.593" cy="205.652" r="4" fill="#0" id="circle22"/>
	<circle cx="127.593" cy="238.177" r="4" fill="#0" id="circle23"/>
	<circle cx="127.593" cy="270.702" r="4" fill="#0" id="circle24"/>
	<circle cx="127.593" cy="303.226" r="4" fill="#0" id="circle25"/>
	<circle cx="127.593" cy="335.751" r="4" fill="#0" id="circle26"/>
	<circle cx="127.593" cy="368.275" r="4" fill="#0" id="circle27"/>
	<circle cx="127.593" cy="400.8" r="4" fill="#0" id="circle28"/>
	<circle cx="130.846" cy="677.259" r="4" fill="#0" id="circle29"/>
	<circle cx="137.351" cy="433.325" r="4" fill="#0" id="circle30"/>
	<circle cx="140.603" cy="573.18" r="4" fill="#0" id="circle31"/>
	<circle cx="147.108" cy="647.987" r="4" fill="#0" id="circle32"/>
	<circle cx="150.361" cy="813.862" r="4" fill="#0" id="circle33"/>
	<circle cx="153.613" cy="745.561" r="4" fill="#0" id="circle34"/>
	<circle cx="156.866" cy="543.908" r="4" fill="#0" id="circle35"/>
	<circle cx="160.118" cy="4" r="4" fill="#0" id="circle36"/>
	<circle cx="163.37" cy="677.259" r="4" fill="#0" id="circle37"/>
	<circle cx="169.875" cy="436.577" r="4" fill="#0" id="circle38"/>
	<circle cx="173.128" cy="573.18" r="4" fill="#0" id="circle39"/>
	<circle cx="179.633" cy="647.987" r="4" fill="#0" id="circle40"/>
	<circle cx="182.885" cy="813.862" r="4" fill="#0" id="circle41"/>
	<circle cx="186.138" cy="745.561" r="4" fill="#0" id="circle42"/>
	<circle cx="189.39" cy="543.908" r="4" fill="#0" id="circle43"/>
	<circle cx="192.643" cy="4" r="4" fill="#0" id="circle44"/>
	<circle cx="195.895" cy="677.259" r="4" fill="#0" id="circle45"/>
	<circle cx="202.4" cy="436.577" r="4" fill="#0" id="circle46"/>
	<circle cx="205.652" cy="573.18" r="4" fill="#0" id="circle47"/>
	<circle cx="212.157" cy="647.987" r="4" fill="#0" id="circle48"/>
	<circle cx="215.41" cy="813.862" r="4" fill="#0" id="circle49"/>
	<circle cx="218.662" cy="745.561" r="4" fill="#0" id="circle50"/>
	<circle cx="221.915" cy="543.908" r="4" fill="#0" id="circle51"/>
	<circle cx="225.167" cy="4" r="4" fill="#0" id="circle52"/>
	<circle cx="228.42" cy="677.259" r="4" fill="#0" id="circle53"/>
	<circle cx="234.925" cy="436.577" r="4" fill="#0" id="circle54"/>
	<circle cx="238.177" cy="573.18" r="4" fill="#0" id="circle55"/>
	<circle cx="244.682" cy="647.987" r="4" fill="#0" id="circle56"/>
	<circle cx="247.934" cy="813.862" r="4" fill="#0" id="circle57"/>
	<circle cx="251.187" cy="745.561" r="4" fill="#0" id="circle58"/>
	<circle cx="254.439" cy="543.908" r="4" fill="#0" id="circle59"/>
	<circle cx="257.692" cy="4" r="4" fill="#0" id="circle60"/>
	<circle cx="260.944" cy="677.259" r="4" fill="#0" id="circle61"/>
	<circle cx="267.449" cy="436.577" r="4" fill="#0" id="circle62"/>
	<circle cx="270.702" cy="573.18" r="4" fill="#0" id="circle63"/>
	<circle cx="277.207" cy="647.987" r="4" fill="#0" id="circle64"/>
	<circle cx="280.459" cy="813.862" r="4" fill="#0" id="circle65"/>
	<circle cx="283.711" cy="745.561" r="4" fill="#0" id="circle66"/>
	<circle cx="286.964" cy="543.908" r="4" fill="#0" id="circle67"/>
	<circle cx="290.216" cy="4" r="4" fill="#0" id="circle68"/>
	<circle cx="293.469" cy="677.259" r="4" fill="#0" id="circle69"/>
	<circle cx="299.974" cy="436.577" r="4" fill="#0" id="circle70"/>
	<circle cx="303.226" cy="573.18" r="4" fill="#0" id="circle71"/>
	<circle cx="309.731" cy="647.987" r="4" fill="#0" id="circle72"/>
	<circle cx="312.984" cy="813.862" r="4" fill="#0" id="circle73"/>
	<circle cx="316.236" cy="745.561" r="4" fill="#0" id="circle74"/>
	<circle cx="319.489" cy="543.908" r="4" fill="#0" id="circle75"/>
	<circle cx="322.741" cy="4" r="4" fill="#0" id="circle76"/>
	<circle cx="325.993" cy="677.259" r="4" fill="#0" id="circle77"/>
	<circle cx="332.498" cy="436.577" r="4" fill="#0" id="circle78"/>
	<circle cx="335.751" cy="573.18" r="4" fill="#0" id="circle79"/>
	<circle cx="342.256" cy="647.987" r="4" fill="#0" id="circle80"/>
	<circle cx="345.508" cy="813.862" r="4" fill="#0" id="circle81"/>
	<circle cx="348.761" cy="745.561" r="4" fill="#0" id="circle82"/>
	<circle cx="352.013" cy="543.908" r="4" fill="#0" id="circle83"/>
	<circle cx="355.266" cy="4" r="4" fill="#0" id="circle84"/>
	<circle cx="358.518" cy="677.259" r="4" fill="#0" id="circle85"/>
	<circle cx="365.023" cy="436.577" r="4" fill="#0" id="circle86"/>
	<circle cx="368.275" cy="573.18" r="4" fill="#0" id="circle87"/>
	<circle cx="374.78" cy="469.102" r="4" fill="#0" id="circle88"/>
	<circle cx="374.78" cy="501.626" r="4" fill="#0" id="circle89"/>
	<circle cx="374.78" cy="605.705" r="4" fill="#0" id="circle90"/>
	<circle cx="374.78" cy="638.23" r="4" fill="#0" id="circle91"/>
	<circle cx="374.78" cy="706.531" r="4" fill="#0" id="circle92"/>
	<circle cx="378.033" cy="813.862" r="4" fill="#0" id="circle93"/>
	<circle cx="387.79" cy="4" r="4" fill="#0" id="circle94"/>
	<circle cx="410.557" cy="813.862" r="4" fill="#0" id="circle95"/>
	<circle cx="420.315" cy="4" r="4" fill="#0" id="circle96"/>
	<circle cx="443.082" cy="813.862" r="4" fill="#0" id="circle97"/>
	<circle cx="452.839" cy="4" r="4" fill="#0" id="circle98"/>
	<circle cx="475.607" cy="813.862" r="4" fill="#0" id="circle99"/>
	<circle cx="485.364" cy="4" r="4" fill="#0" id="circle100"/>
	<circle cx="508.131" cy="813.862" r="4" fill="#0" id="circle101"/>
	<circle cx="517.889" cy="4" r="4" fill="#0" id="circle102"/>
	<circle cx="540.656" cy="813.862" r="4" fill="#0" id="circle103"/>
	<circle cx="550.413" cy="4" r="4" fill="#0" id="circle104"/>
	<circle cx="573.18" cy="439.83" r="4" fill="#0" id="circle105"/>
	<circle cx="573.18" cy="472.354" r="4" fill="#0" id="circle106"/>
	<circle cx="573.18" cy="504.879" r="4" fill="#0" id="circle107"/>
	<circle cx="573.18" cy="537.403" r="4" fill="#0" id="circle108"/>
	<circle cx="573.18" cy="576.433" r="4" fill="#0" id="circle109"/>
	<circle cx="573.18" cy="608.957" r="4" fill="#0" id="circle110"/>
	<circle cx="573.18" cy="641.482" r="4" fill="#0" id="circle111"/>
	<circle cx="573.18" cy="680.511" r="4" fill="#0" id="circle112"/>
	<circle cx="573.18" cy="713.036" r="4" fill="#0" id="circle113"/>
	<circle cx="573.18" cy="813.862" r="4" fill="#0" id="circle114"/>
	<circle cx="576.433" cy="745.561" r="4" fill="#0" id="circle115"/>
	<circle cx="582.938" cy="4" r="4" fill="#0" id="circle116"/>
	<circle cx="602.452" cy="765.075" r="4" fill="#0" id="circle117"/>
	<circle cx="605.705" cy="436.577" r="4" fill="#0" id="circle118"/>
	<circle cx="605.705" cy="543.908" r="4" fill="#0" id="circle119"/>
	<circle cx="605.705" cy="647.987" r="4" fill="#0" id="circle120"/>
	<circle cx="605.705" cy="813.862" r="4" fill="#0" id="circle121"/>
	<circle cx="615.462" cy="4" r="4" fill="#0" id="circle122"/>
	<circle cx="621.967" cy="573.18" r="4" fill="#0" id="circle123"/>
	<circle cx="621.967" cy="677.259" r="4" fill="#0" id="circle124"/>
	<circle cx="628.472" cy="745.561" r="4" fill="#0" id="circle125"/>
	<circle cx="638.23" cy="436.577" r="4" fill="#0" id="circle126"/>
	<circle cx="638.23" cy="543.908" r="4" fill="#0" id="circle127"/>
	<circle cx="638.23" cy="647.987" r="4" fill="#0" id="circle128"/>
	<circle cx="638.23" cy="813.862" r="4" fill="#0" id="circle129"/>
	<circle cx="647.987" cy="4" r="4" fill="#0" id="circle130"/>
	<circle cx="654.492" cy="573.18" r="4" fill="#0" id="circle131"/>
	<circle cx="654.492" cy="677.259" r="4" fill="#0" id="circle132"/>
	<circle cx="660.997" cy="745.561" r="4" fill="#0" id="circle133"/>
	<circle cx="670.754" cy="436.577" r="4" fill="#0" id="circle134"/>
	<circle cx="670.754" cy="543.908" r="4" fill="#0" id="circle135"/>
	<circle cx="670.754" cy="647.987" r="4" fill="#0" id="circle136"/>
	<circle cx="670.754" cy="813.862" r="4" fill="#0" id="circle137"/>
	<circle cx="680.511" cy="4" r="4" fill="#0" id="circle138"/>
	<circle cx="687.016" cy="573.18" r="4" fill="#0" id="circle139"/>
	<circle cx="687.016" cy="677.259" r="4" fill="#0" id="circle140"/>
	<circle cx="693.521" cy="745.561" r="4" fill="#0" id="circle141"/>
	<circle cx="703.279" cy="436.577" r="4" fill="#0" id="circle142"/>
	<circle cx="703.279" cy="543.908" r="4" fill="#0" id="circle143"/>
	<circle cx="703.279" cy="647.987" r="4" fill="#0" id="circle144"/>
	<circle cx="703.279" cy="813.862" r="4" fill="#0" id="circle145"/>
	<circle cx="713.036" cy="4" r="4" fill="#0" id="circle146"/>
	<circle cx="719.541" cy="573.18" r="4" fill="#0" id="circle147"/>
	<circle cx="719.541" cy="677.259" r="4" fill="#0" id="circle148"/>
	<circle cx="726.046" cy="745.561" r="4" fill="#0" id="circle149"/>
	<circle cx="735.803" cy="436.577" r="4" fill="#0" id="circle150"/>
	<circle cx="735.803" cy="543.908" r="4" fill="#0" id="circle151"/>
	<circle cx="735.803" cy="647.987" r="4" fill="#0" id="circle152"/>
	<circle cx="735.803" cy="813.862" r="4" fill="#0" id="circle153"/>
	<circle cx="745.561" cy="4" r="4" fill="#0" id="circle154"/>
	<circle cx="752.066" cy="573.18" r="4" fill="#0" id="circle155"/>
	<circle cx="752.066" cy="677.259" r="4" fill="#0" id="circle156"/>
	<circle cx="758.57" cy="745.561" r="4" fill="#0" id="circle157"/>
	<circle cx="768.328" cy="436.577" r="4" fill="#0" id="circle158"/>
	<circle cx="768.328" cy="543.908" r="4" fill="#0" id="circle159"/>
	<circle cx="768.328" cy="647.987" r="4" fill="#0" id="circle160"/>
	<circle cx="768.328" cy="813.862" r="4" fill="#0" id="circle161"/>
	<circle cx="778.085" cy="4" r="4" fill="#0" id="circle162"/>
	<circle cx="784.59" cy="573.18" r="4" fill="#0" id="circle163"/>
	<circle cx="784.59" cy="677.259" r="4" fill="#0" id="circle164"/>
	<circle cx="791.095" cy="745.561" r="4" fill="#0" id="circle165"/>
	<circle cx="800.852" cy="436.577" r="4" fill="#0" id="circle166"/>
	<circle cx="800.852" cy="543.908" r="4" fill="#0" id="circle167"/>
	<circle cx="800.852" cy="647.987" r="4" fill="#0" id="circle168"/>
	<circle cx="800.852" cy="813.862" r="4" fill="#0" id="circle169"/>
	<circle cx="810.61" cy="4" r="4" fill="#0" id="circle170"/>
	<circle cx="817.115" cy="573.18" r="4" fill="#0" id="circle171"/>
	<circle cx="817.115" cy="677.259" r="4" fill="#0" id="circle172"/>
	<circle cx="823.62" cy="745.561" r="4" fill="#0" id="circle173"/>
	<circle cx="833.377" cy="436.577" r="4" fill="#0" id="circle174"/>
	<circle cx="833.377" cy="543.908" r="4" fill="#0" id="circle175"/>
	<circle cx="833.377" cy="647.987" r="4" fill="#0" id="circle176"/>
	<circle cx="833.377" cy="813.862" r="4" fill="#0" id="circle177"/>
	<circle cx="843.134" cy="4" r="4" fill="#0" id="circle178"/>
	<circle cx="849.639" cy="573.18" r="4" fill="#0" id="circle179"/>
	<circle cx="849.639" cy="677.259" r="4" fill="#0" id="circle180"/>
	<circle cx="856.144" cy="745.561" r="4" fill="#0" id="circle181"/>
	<circle cx="865.902" cy="30.0197" r="4" fill="#0" id="circle182"/>
	<circle cx="865.902" cy="62.5443" r="4" fill="#0" id="circle183"/>
	<circle cx="865.902" cy="95.0689" r="4" fill="#0" id="circle184"/>
	<circle cx="865.902" cy="127.593" r="4" fill="#0" id="circle185"/>
	<circle cx="865.902" cy="160.118" r="4" fill="#0" id="circle186"/>
	<circle cx="865.902" cy="192.643" r="4" fill="#0" id="circle187"/>
	<circle cx="865.902" cy="225.167" r="4" fill="#0" id="circle188"/>
	<circle cx="865.902" cy="257.692" r="4" fill="#0" id="circle189"/>
	<circle cx="865.902" cy="290.216" r="4" fill="#0" id="circle190"/>
	<circle cx="865.902" cy="322.741" r="4" fill="#0" id="circle191"/>
	<circle cx="865.902" cy="355.266" r="4" fill="#0" id="circle192"/>
	<circle cx="865.902" cy="387.79" r="4" fill="#0" id="circle193"/>
	<circle cx="865.902" cy="420.315" r="4" fill="#0" id="circle194"/>
	<circle cx="865.902" cy="543.908" r="4" fill="#0" id="circle195"/>
	<circle cx="865.902" cy="647.987" r="4" fill="#0" id="circle196"/>
	<circle cx="865.902" cy="826.872" r="4" fill="#0" id="circle197"/>
	<circle cx="882.164" cy="573.18" r="4" fill="#0" id="circle198"/>
	<circle cx="882.164" cy="677.259" r="4" fill="#0" id="circle199"/>
	<circle cx="888.669" cy="745.561" r="4" fill="#0" id="circle200"/>
	<circle cx="898.426" cy="543.908" r="4" fill="#0" id="circle201"/>
	<circle cx="898.426" cy="647.987" r="4" fill="#0" id="circle202"/>
	<circle cx="898.426" cy="813.862" r="4" fill="#0" id="circle203"/>
	<circle cx="914.689" cy="573.18" r="4" fill="#0" id="circle204"/>
	<circle cx="914.689" cy="677.259" r="4" fill="#0" id="circle205"/>
	<circle cx="914.689" cy="765.075" r="4" fill="#0" id="circle206"/>
	<circle cx="930.951" cy="543.908" r="4" fill="#0" id="circle207"/>
	<circle cx="930.951" cy="647.987" r="4" fill="#0" id="circle208"/>
	<circle cx="930.951" cy="813.862" r="4" fill="#0" id="circle209"/>
	<circle cx="940.708" cy="745.561" r="4" fill="#0" id="circle210"/>
	<circle cx="963.475" cy="817.115" r="4" fill="#0" id="circle211"/>
	<circle cx="973.233" cy="745.561" r="4" fill="#0" id="circle212"/>
	<circle cx="996" cy="771.58" r="4" fill="#0" id="circle213"/>
	<circle cx="996" cy="804.105" r="4" fill="#0" id="circle214"/>
	</g>
</svg>