<?xml version="1.0" encoding="UTF-8" standalone="no"?>
<!-- Created with CurveBenchmark -->
<svg
	xmlns:dc="http://purl.org/dc/elements/1.1/"
	xmlns:cc="http://creativecommons.org/ns#"
	xmlns:rdf="http://www.w3.org/1999/02/22-rdf-syntax-ns#"
	xmlns:svg="http://www.w3.org/2000/svg"
	xmlns="http://www.w3.org/2000/svg"
	xmlns:sodipodi="http://sodipodi.sourceforge.net/DTD/sodipodi-0.dtd"
	xmlns:inkscape="http://www.inkscape.org/namespaces/inkscape"
	width="1000"
	height="1000"
	id="svg2"
	version="1.1"
	sodipodi:docname="manifold/discur-children-15.png.txt">
<defs
	id="defs4" />
<metadata
	id="metadata7">
	<rdf:RDF>
		<cc:Work
			rdf:about="">
			<dc:format>image/svg+xml</dc:format>
			<dc:type
				rdf:resource="http://purl.org/dc/dcmitype/StillImage" />
			<dc:title></dc:title>
		</cc:Work>
	</rdf:RDF>
</metadata>
<g
	inkscape:label="Layer 1"
	inkscape:groupmode="layer"
	id="layer1">
	<path style="fill:none;stroke:red;stroke-width:1px;stroke-linecap:butt;stroke-linejoin:miter;stroke-opacity:1" d="M 4,310.144 4,322.01 z" id="boundary" inkscape:connector-curvature="0" />
	<path style="fill:none;stroke:red;stroke-width:1px;stroke-linecap:butt;stroke-linejoin:miter;stroke-opacity:1" d="M 4,310.144 9.93301,298.278 z" id="boundary" inkscape:connector-curvature="0" />
	<path style="fill:none;stroke:red;stroke-width:1px;stroke-linecap:butt;stroke-linejoin:miter;stroke-opacity:1" d="M 4,322.01 4,333.876 z" id="boundary" inkscape:connector-curvature="0" />
	<path style="fill:none;stroke:red;stroke-width:1px;stroke-linecap:butt;stroke-linejoin:miter;stroke-opacity:1" d="M 4,333.876 4,345.742 z" id="boundary" inkscape:connector-curvature="0" />
	<path style="fill:none;stroke:red;stroke-width:1px;stroke-linecap:butt;stroke-linejoin:miter;stroke-opacity:1" d="M 4,345.742 4,357.608 z" id="boundary" inkscape:connector-curvature="0" />
	<path style="fill:none;stroke:red;stroke-width:1px;stroke-linecap:butt;stroke-linejoin:miter;stroke-opacity:1" d="M 4,357.608 9.93301,368.287 z" id="boundary" inkscape:connector-curvature="0" />
	<path style="fill:none;stroke:red;stroke-width:1px;stroke-linecap:butt;stroke-linejoin:miter;stroke-opacity:1" d="M 9.93301,298.278 15.866,286.411 z" id="boundary" inkscape:connector-curvature="0" />
	<path style="fill:none;stroke:red;stroke-width:1px;stroke-linecap:butt;stroke-linejoin:miter;stroke-opacity:1" d="M 9.93301,368.287 9.93301,380.153 z" id="boundary" inkscape:connector-curvature="0" />
	<path style="fill:none;stroke:red;stroke-width:1px;stroke-linecap:butt;stroke-linejoin:miter;stroke-opacity:1" d="M 9.93301,380.153 15.866,390.833 z" id="boundary" inkscape:connector-curvature="0" />
	<path style="fill:none;stroke:red;stroke-width:1px;stroke-linecap:butt;stroke-linejoin:miter;stroke-opacity:1" d="M 15.866,286.411 21.799,274.545 z" id="boundary" inkscape:connector-curvature="0" />
	<path style="fill:none;stroke:red;stroke-width:1px;stroke-linecap:butt;stroke-linejoin:miter;stroke-opacity:1" d="M 15.866,390.833 19.4258,402.699 z" id="boundary" inkscape:connector-curvature="0" />
	<path style="fill:none;stroke:red;stroke-width:1px;stroke-linecap:butt;stroke-linejoin:miter;stroke-opacity:1" d="M 19.4258,402.699 21.799,414.565 z" id="boundary" inkscape:connector-curvature="0" />
	<path style="fill:none;stroke:red;stroke-width:1px;stroke-linecap:butt;stroke-linejoin:miter;stroke-opacity:1" d="M 21.799,72.823 21.799,84.689 z" id="boundary" inkscape:connector-curvature="0" />
	<path style="fill:none;stroke:red;stroke-width:1px;stroke-linecap:butt;stroke-linejoin:miter;stroke-opacity:1" d="M 21.799,72.823 27.7321,60.9569 z" id="boundary" inkscape:connector-curvature="0" />
	<path style="fill:none;stroke:red;stroke-width:1px;stroke-linecap:butt;stroke-linejoin:miter;stroke-opacity:1" d="M 21.799,84.689 21.799,96.555 z" id="boundary" inkscape:connector-curvature="0" />
	<path style="fill:none;stroke:red;stroke-width:1px;stroke-linecap:butt;stroke-linejoin:miter;stroke-opacity:1" d="M 21.799,96.555 21.799,108.421 z" id="boundary" inkscape:connector-curvature="0" />
	<path style="fill:none;stroke:red;stroke-width:1px;stroke-linecap:butt;stroke-linejoin:miter;stroke-opacity:1" d="M 21.799,108.421 21.799,120.287 z" id="boundary" inkscape:connector-curvature="0" />
	<path style="fill:none;stroke:red;stroke-width:1px;stroke-linecap:butt;stroke-linejoin:miter;stroke-opacity:1" d="M 21.799,120.287 21.799,132.153 z" id="boundary" inkscape:connector-curvature="0" />
	<path style="fill:none;stroke:red;stroke-width:1px;stroke-linecap:butt;stroke-linejoin:miter;stroke-opacity:1" d="M 21.799,132.153 27.7321,142.833 z" id="boundary" inkscape:connector-curvature="0" />
	<path style="fill:none;stroke:red;stroke-width:1px;stroke-linecap:butt;stroke-linejoin:miter;stroke-opacity:1" d="M 21.799,274.545 31.2919,265.053 z" id="boundary" inkscape:connector-curvature="0" />
	<path style="fill:none;stroke:red;stroke-width:1px;stroke-linecap:butt;stroke-linejoin:miter;stroke-opacity:1" d="M 21.799,414.565 21.799,426.431 z" id="boundary" inkscape:connector-curvature="0" />
	<path style="fill:none;stroke:red;stroke-width:1px;stroke-linecap:butt;stroke-linejoin:miter;stroke-opacity:1" d="M 21.799,426.431 21.799,438.297 z" id="boundary" inkscape:connector-curvature="0" />
	<path style="fill:none;stroke:red;stroke-width:1px;stroke-linecap:butt;stroke-linejoin:miter;stroke-opacity:1" d="M 21.799,438.297 21.799,450.163 z" id="boundary" inkscape:connector-curvature="0" />
	<path style="fill:none;stroke:red;stroke-width:1px;stroke-linecap:butt;stroke-linejoin:miter;stroke-opacity:1" d="M 21.799,450.163 25.3589,462.029 z" id="boundary" inkscape:connector-curvature="0" />
	<path style="fill:none;stroke:red;stroke-width:1px;stroke-linecap:butt;stroke-linejoin:miter;stroke-opacity:1" d="M 25.3589,462.029 27.7321,473.895 z" id="boundary" inkscape:connector-curvature="0" />
	<path style="fill:none;stroke:red;stroke-width:1px;stroke-linecap:butt;stroke-linejoin:miter;stroke-opacity:1" d="M 27.7321,60.9569 37.2249,51.4641 z" id="boundary" inkscape:connector-curvature="0" />
	<path style="fill:none;stroke:red;stroke-width:1px;stroke-linecap:butt;stroke-linejoin:miter;stroke-opacity:1" d="M 27.7321,142.833 33.6651,153.512 z" id="boundary" inkscape:connector-curvature="0" />
	<path style="fill:none;stroke:red;stroke-width:1px;stroke-linecap:butt;stroke-linejoin:miter;stroke-opacity:1" d="M 27.7321,473.895 33.6651,484.574 z" id="boundary" inkscape:connector-curvature="0" />
	<path style="fill:none;stroke:red;stroke-width:1px;stroke-linecap:butt;stroke-linejoin:miter;stroke-opacity:1" d="M 31.2919,265.053 41.9713,259.12 z" id="boundary" inkscape:connector-curvature="0" />
	<path style="fill:none;stroke:red;stroke-width:1px;stroke-linecap:butt;stroke-linejoin:miter;stroke-opacity:1" d="M 33.6651,153.512 39.5981,164.191 z" id="boundary" inkscape:connector-curvature="0" />
	<path style="fill:none;stroke:red;stroke-width:1px;stroke-linecap:butt;stroke-linejoin:miter;stroke-opacity:1" d="M 33.6651,484.574 33.6651,496.44 z" id="boundary" inkscape:connector-curvature="0" />
	<path style="fill:none;stroke:red;stroke-width:1px;stroke-linecap:butt;stroke-linejoin:miter;stroke-opacity:1" d="M 33.6651,496.44 39.5981,507.12 z" id="boundary" inkscape:connector-curvature="0" />
	<path style="fill:none;stroke:red;stroke-width:1px;stroke-linecap:butt;stroke-linejoin:miter;stroke-opacity:1" d="M 33.6651,535.598 33.6651,547.464 z" id="boundary" inkscape:connector-curvature="0" />
	<path style="fill:none;stroke:red;stroke-width:1px;stroke-linecap:butt;stroke-linejoin:miter;stroke-opacity:1" d="M 33.6651,535.598 39.5981,518.986 z" id="boundary" inkscape:connector-curvature="0" />
	<path style="fill:none;stroke:red;stroke-width:1px;stroke-linecap:butt;stroke-linejoin:miter;stroke-opacity:1" d="M 33.6651,547.464 39.5981,558.144 z" id="boundary" inkscape:connector-curvature="0" />
	<path style="fill:none;stroke:red;stroke-width:1px;stroke-linecap:butt;stroke-linejoin:miter;stroke-opacity:1" d="M 37.2249,51.4641 46.7177,41.9713 z" id="boundary" inkscape:connector-curvature="0" />
	<path style="fill:none;stroke:red;stroke-width:1px;stroke-linecap:butt;stroke-linejoin:miter;stroke-opacity:1" d="M 39.5981,164.191 46.7177,173.684 z" id="boundary" inkscape:connector-curvature="0" />
	<path style="fill:none;stroke:red;stroke-width:1px;stroke-linecap:butt;stroke-linejoin:miter;stroke-opacity:1" d="M 39.5981,507.12 39.5981,518.986 z" id="boundary" inkscape:connector-curvature="0" />
	<path style="fill:none;stroke:red;stroke-width:1px;stroke-linecap:butt;stroke-linejoin:miter;stroke-opacity:1" d="M 39.5981,558.144 39.5981,570.01 z" id="boundary" inkscape:connector-curvature="0" />
	<path style="fill:none;stroke:red;stroke-width:1px;stroke-linecap:butt;stroke-linejoin:miter;stroke-opacity:1" d="M 39.5981,570.01 39.5981,581.876 z" id="boundary" inkscape:connector-curvature="0" />
	<path style="fill:none;stroke:red;stroke-width:1px;stroke-linecap:butt;stroke-linejoin:miter;stroke-opacity:1" d="M 39.5981,581.876 45.5311,592.555 z" id="boundary" inkscape:connector-curvature="0" />
	<path style="fill:none;stroke:red;stroke-width:1px;stroke-linecap:butt;stroke-linejoin:miter;stroke-opacity:1" d="M 41.9713,259.12 51.4641,250.813 z" id="boundary" inkscape:connector-curvature="0" />
	<path style="fill:none;stroke:red;stroke-width:1px;stroke-linecap:butt;stroke-linejoin:miter;stroke-opacity:1" d="M 45.5311,592.555 45.5311,604.421 z" id="boundary" inkscape:connector-curvature="0" />
	<path style="fill:none;stroke:red;stroke-width:1px;stroke-linecap:butt;stroke-linejoin:miter;stroke-opacity:1" d="M 45.5311,604.421 45.5311,616.287 z" id="boundary" inkscape:connector-curvature="0" />
	<path style="fill:none;stroke:red;stroke-width:1px;stroke-linecap:butt;stroke-linejoin:miter;stroke-opacity:1" d="M 45.5311,616.287 51.4641,626.967 z" id="boundary" inkscape:connector-curvature="0" />
	<path style="fill:none;stroke:red;stroke-width:1px;stroke-linecap:butt;stroke-linejoin:miter;stroke-opacity:1" d="M 46.7177,41.9713 56.2105,33.6651 z" id="boundary" inkscape:connector-curvature="0" />
	<path style="fill:none;stroke:red;stroke-width:1px;stroke-linecap:butt;stroke-linejoin:miter;stroke-opacity:1" d="M 46.7177,173.684 55.0239,183.177 z" id="boundary" inkscape:connector-curvature="0" />
	<path style="fill:none;stroke:red;stroke-width:1px;stroke-linecap:butt;stroke-linejoin:miter;stroke-opacity:1" d="M 51.4641,250.813 60.9569,241.321 z" id="boundary" inkscape:connector-curvature="0" />
	<path style="fill:none;stroke:red;stroke-width:1px;stroke-linecap:butt;stroke-linejoin:miter;stroke-opacity:1" d="M 51.4641,626.967 51.4641,638.833 z" id="boundary" inkscape:connector-curvature="0" />
	<path style="fill:none;stroke:red;stroke-width:1px;stroke-linecap:butt;stroke-linejoin:miter;stroke-opacity:1" d="M 51.4641,638.833 53.8373,650.699 z" id="boundary" inkscape:connector-curvature="0" />
	<path style="fill:none;stroke:red;stroke-width:1px;stroke-linecap:butt;stroke-linejoin:miter;stroke-opacity:1" d="M 53.8373,650.699 57.3971,662.565 z" id="boundary" inkscape:connector-curvature="0" />
	<path style="fill:none;stroke:red;stroke-width:1px;stroke-linecap:butt;stroke-linejoin:miter;stroke-opacity:1" d="M 55.0239,183.177 64.5167,191.483 z" id="boundary" inkscape:connector-curvature="0" />
	<path style="fill:none;stroke:red;stroke-width:1px;stroke-linecap:butt;stroke-linejoin:miter;stroke-opacity:1" d="M 56.2105,33.6651 66.89,27.7321 z" id="boundary" inkscape:connector-curvature="0" />
	<path style="fill:none;stroke:red;stroke-width:1px;stroke-linecap:butt;stroke-linejoin:miter;stroke-opacity:1" d="M 57.3971,662.565 64.5167,672.057 z" id="boundary" inkscape:connector-curvature="0" />
	<path style="fill:none;stroke:red;stroke-width:1px;stroke-linecap:butt;stroke-linejoin:miter;stroke-opacity:1" d="M 60.9569,241.321 70.4498,231.828 z" id="boundary" inkscape:connector-curvature="0" />
	<path style="fill:none;stroke:red;stroke-width:1px;stroke-linecap:butt;stroke-linejoin:miter;stroke-opacity:1" d="M 64.5167,191.483 72.823,200.976 z" id="boundary" inkscape:connector-curvature="0" />
	<path style="fill:none;stroke:red;stroke-width:1px;stroke-linecap:butt;stroke-linejoin:miter;stroke-opacity:1" d="M 64.5167,672.057 69.2632,683.923 z" id="boundary" inkscape:connector-curvature="0" />
	<path style="fill:none;stroke:red;stroke-width:1px;stroke-linecap:butt;stroke-linejoin:miter;stroke-opacity:1" d="M 66.89,27.7321 76.3828,18.2392 z" id="boundary" inkscape:connector-curvature="0" />
	<path style="fill:none;stroke:red;stroke-width:1px;stroke-linecap:butt;stroke-linejoin:miter;stroke-opacity:1" d="M 69.2632,683.923 78.756,692.23 z" id="boundary" inkscape:connector-curvature="0" />
	<path style="fill:none;stroke:red;stroke-width:1px;stroke-linecap:butt;stroke-linejoin:miter;stroke-opacity:1" d="M 70.4498,231.828 75.1962,212.842 z" id="boundary" inkscape:connector-curvature="0" />
	<path style="fill:none;stroke:red;stroke-width:1px;stroke-linecap:butt;stroke-linejoin:miter;stroke-opacity:1" d="M 72.823,200.976 75.1962,212.842 z" id="boundary" inkscape:connector-curvature="0" />
	<path style="fill:none;stroke:red;stroke-width:1px;stroke-linecap:butt;stroke-linejoin:miter;stroke-opacity:1" d="M 75.1962,802.584 75.1962,814.45 z" id="boundary" inkscape:connector-curvature="0" />
	<path style="fill:none;stroke:red;stroke-width:1px;stroke-linecap:butt;stroke-linejoin:miter;stroke-opacity:1" d="M 75.1962,802.584 81.1292,784.785 z" id="boundary" inkscape:connector-curvature="0" />
	<path style="fill:none;stroke:red;stroke-width:1px;stroke-linecap:butt;stroke-linejoin:miter;stroke-opacity:1" d="M 75.1962,814.45 75.1962,826.316 z" id="boundary" inkscape:connector-curvature="0" />
	<path style="fill:none;stroke:red;stroke-width:1px;stroke-linecap:butt;stroke-linejoin:miter;stroke-opacity:1" d="M 75.1962,826.316 81.1292,836.995 z" id="boundary" inkscape:connector-curvature="0" />
	<path style="fill:none;stroke:red;stroke-width:1px;stroke-linecap:butt;stroke-linejoin:miter;stroke-opacity:1" d="M 76.3828,18.2392 88.2488,12.3062 z" id="boundary" inkscape:connector-curvature="0" />
	<path style="fill:none;stroke:red;stroke-width:1px;stroke-linecap:butt;stroke-linejoin:miter;stroke-opacity:1" d="M 78.756,692.23 89.4354,698.163 z" id="boundary" inkscape:connector-curvature="0" />
	<path style="fill:none;stroke:red;stroke-width:1px;stroke-linecap:butt;stroke-linejoin:miter;stroke-opacity:1" d="M 81.1292,784.785 87.0622,772.919 z" id="boundary" inkscape:connector-curvature="0" />
	<path style="fill:none;stroke:red;stroke-width:1px;stroke-linecap:butt;stroke-linejoin:miter;stroke-opacity:1" d="M 81.1292,836.995 87.0622,847.675 z" id="boundary" inkscape:connector-curvature="0" />
	<path style="fill:none;stroke:red;stroke-width:1px;stroke-linecap:butt;stroke-linejoin:miter;stroke-opacity:1" d="M 87.0622,772.919 92.9952,755.12 z" id="boundary" inkscape:connector-curvature="0" />
	<path style="fill:none;stroke:red;stroke-width:1px;stroke-linecap:butt;stroke-linejoin:miter;stroke-opacity:1" d="M 87.0622,847.675 87.0622,859.541 z" id="boundary" inkscape:connector-curvature="0" />
	<path style="fill:none;stroke:red;stroke-width:1px;stroke-linecap:butt;stroke-linejoin:miter;stroke-opacity:1" d="M 87.0622,859.541 90.622,871.407 z" id="boundary" inkscape:connector-curvature="0" />
	<path style="fill:none;stroke:red;stroke-width:1px;stroke-linecap:butt;stroke-linejoin:miter;stroke-opacity:1" d="M 87.0622,933.11 87.0622,944.976 z" id="boundary" inkscape:connector-curvature="0" />
	<path style="fill:none;stroke:red;stroke-width:1px;stroke-linecap:butt;stroke-linejoin:miter;stroke-opacity:1" d="M 87.0622,933.11 92.9952,921.244 z" id="boundary" inkscape:connector-curvature="0" />
	<path style="fill:none;stroke:red;stroke-width:1px;stroke-linecap:butt;stroke-linejoin:miter;stroke-opacity:1" d="M 87.0622,944.976 87.0622,956.842 z" id="boundary" inkscape:connector-curvature="0" />
	<path style="fill:none;stroke:red;stroke-width:1px;stroke-linecap:butt;stroke-linejoin:miter;stroke-opacity:1" d="M 87.0622,956.842 92.9952,967.522 z" id="boundary" inkscape:connector-curvature="0" />
	<path style="fill:none;stroke:red;stroke-width:1px;stroke-linecap:butt;stroke-linejoin:miter;stroke-opacity:1" d="M 88.2488,12.3062 100.115,6.37321 z" id="boundary" inkscape:connector-curvature="0" />
	<path style="fill:none;stroke:red;stroke-width:1px;stroke-linecap:butt;stroke-linejoin:miter;stroke-opacity:1" d="M 89.4354,698.163 95.3684,708.842 z" id="boundary" inkscape:connector-curvature="0" />
	<path style="fill:none;stroke:red;stroke-width:1px;stroke-linecap:butt;stroke-linejoin:miter;stroke-opacity:1" d="M 90.622,871.407 92.9952,883.273 z" id="boundary" inkscape:connector-curvature="0" />
	<path style="fill:none;stroke:red;stroke-width:1px;stroke-linecap:butt;stroke-linejoin:miter;stroke-opacity:1" d="M 92.9952,755.12 98.9282,744.44 z" id="boundary" inkscape:connector-curvature="0" />
	<path style="fill:none;stroke:red;stroke-width:1px;stroke-linecap:butt;stroke-linejoin:miter;stroke-opacity:1" d="M 92.9952,883.273 98.9282,893.952 z" id="boundary" inkscape:connector-curvature="0" />
	<path style="fill:none;stroke:red;stroke-width:1px;stroke-linecap:butt;stroke-linejoin:miter;stroke-opacity:1" d="M 92.9952,909.378 92.9952,921.244 z" id="boundary" inkscape:connector-curvature="0" />
	<path style="fill:none;stroke:red;stroke-width:1px;stroke-linecap:butt;stroke-linejoin:miter;stroke-opacity:1" d="M 92.9952,909.378 98.9282,893.952 z" id="boundary" inkscape:connector-curvature="0" />
	<path style="fill:none;stroke:red;stroke-width:1px;stroke-linecap:butt;stroke-linejoin:miter;stroke-opacity:1" d="M 92.9952,967.522 101.301,977.014 z" id="boundary" inkscape:connector-curvature="0" />
	<path style="fill:none;stroke:red;stroke-width:1px;stroke-linecap:butt;stroke-linejoin:miter;stroke-opacity:1" d="M 95.3684,708.842 98.9282,720.708 z" id="boundary" inkscape:connector-curvature="0" />
	<path style="fill:none;stroke:red;stroke-width:1px;stroke-linecap:butt;stroke-linejoin:miter;stroke-opacity:1" d="M 98.9282,720.708 98.9282,732.574 z" id="boundary" inkscape:connector-curvature="0" />
	<path style="fill:none;stroke:red;stroke-width:1px;stroke-linecap:butt;stroke-linejoin:miter;stroke-opacity:1" d="M 98.9282,732.574 98.9282,744.44 z" id="boundary" inkscape:connector-curvature="0" />
	<path style="fill:none;stroke:red;stroke-width:1px;stroke-linecap:butt;stroke-linejoin:miter;stroke-opacity:1" d="M 100.115,6.37321 111.981,4 z" id="boundary" inkscape:connector-curvature="0" />
	<path style="fill:none;stroke:red;stroke-width:1px;stroke-linecap:butt;stroke-linejoin:miter;stroke-opacity:1" d="M 101.301,977.014 110.794,984.134 z" id="boundary" inkscape:connector-curvature="0" />
	<path style="fill:none;stroke:red;stroke-width:1px;stroke-linecap:butt;stroke-linejoin:miter;stroke-opacity:1" d="M 110.794,984.134 122.66,984.134 z" id="boundary" inkscape:connector-curvature="0" />
	<path style="fill:none;stroke:red;stroke-width:1px;stroke-linecap:butt;stroke-linejoin:miter;stroke-opacity:1" d="M 111.981,4 123.847,4 z" id="boundary" inkscape:connector-curvature="0" />
	<path style="fill:none;stroke:red;stroke-width:1px;stroke-linecap:butt;stroke-linejoin:miter;stroke-opacity:1" d="M 122.66,984.134 134.526,984.134 z" id="boundary" inkscape:connector-curvature="0" />
	<path style="fill:none;stroke:red;stroke-width:1px;stroke-linecap:butt;stroke-linejoin:miter;stroke-opacity:1" d="M 123.847,4 135.713,4 z" id="boundary" inkscape:connector-curvature="0" />
	<path style="fill:none;stroke:red;stroke-width:1px;stroke-linecap:butt;stroke-linejoin:miter;stroke-opacity:1" d="M 134.526,984.134 145.206,990.067 z" id="boundary" inkscape:connector-curvature="0" />
	<path style="fill:none;stroke:red;stroke-width:1px;stroke-linecap:butt;stroke-linejoin:miter;stroke-opacity:1" d="M 135.713,4 147.579,7.55981 z" id="boundary" inkscape:connector-curvature="0" />
	<path style="fill:none;stroke:red;stroke-width:1px;stroke-linecap:butt;stroke-linejoin:miter;stroke-opacity:1" d="M 145.206,990.067 157.072,990.067 z" id="boundary" inkscape:connector-curvature="0" />
	<path style="fill:none;stroke:red;stroke-width:1px;stroke-linecap:butt;stroke-linejoin:miter;stroke-opacity:1" d="M 147.579,7.55981 159.445,9.93301 z" id="boundary" inkscape:connector-curvature="0" />
	<path style="fill:none;stroke:red;stroke-width:1px;stroke-linecap:butt;stroke-linejoin:miter;stroke-opacity:1" d="M 157.072,990.067 167.751,996 z" id="boundary" inkscape:connector-curvature="0" />
	<path style="fill:none;stroke:red;stroke-width:1px;stroke-linecap:butt;stroke-linejoin:miter;stroke-opacity:1" d="M 159.445,9.93301 171.311,9.93301 z" id="boundary" inkscape:connector-curvature="0" />
	<path style="fill:none;stroke:red;stroke-width:1px;stroke-linecap:butt;stroke-linejoin:miter;stroke-opacity:1" d="M 167.751,996 179.617,996 z" id="boundary" inkscape:connector-curvature="0" />
	<path style="fill:none;stroke:red;stroke-width:1px;stroke-linecap:butt;stroke-linejoin:miter;stroke-opacity:1" d="M 171.311,9.93301 183.177,13.4928 z" id="boundary" inkscape:connector-curvature="0" />
	<path style="fill:none;stroke:red;stroke-width:1px;stroke-linecap:butt;stroke-linejoin:miter;stroke-opacity:1" d="M 179.617,996 191.483,996 z" id="boundary" inkscape:connector-curvature="0" />
	<path style="fill:none;stroke:red;stroke-width:1px;stroke-linecap:butt;stroke-linejoin:miter;stroke-opacity:1" d="M 183.177,13.4928 195.043,15.866 z" id="boundary" inkscape:connector-curvature="0" />
	<path style="fill:none;stroke:red;stroke-width:1px;stroke-linecap:butt;stroke-linejoin:miter;stroke-opacity:1" d="M 191.483,996 203.349,996 z" id="boundary" inkscape:connector-curvature="0" />
	<path style="fill:none;stroke:red;stroke-width:1px;stroke-linecap:butt;stroke-linejoin:miter;stroke-opacity:1" d="M 195.043,15.866 205.722,21.799 z" id="boundary" inkscape:connector-curvature="0" />
	<path style="fill:none;stroke:red;stroke-width:1px;stroke-linecap:butt;stroke-linejoin:miter;stroke-opacity:1" d="M 203.349,996 215.215,996 z" id="boundary" inkscape:connector-curvature="0" />
	<path style="fill:none;stroke:red;stroke-width:1px;stroke-linecap:butt;stroke-linejoin:miter;stroke-opacity:1" d="M 205.722,21.799 216.402,27.7321 z" id="boundary" inkscape:connector-curvature="0" />
	<path style="fill:none;stroke:red;stroke-width:1px;stroke-linecap:butt;stroke-linejoin:miter;stroke-opacity:1" d="M 215.215,996 227.081,996 z" id="boundary" inkscape:connector-curvature="0" />
	<path style="fill:none;stroke:red;stroke-width:1px;stroke-linecap:butt;stroke-linejoin:miter;stroke-opacity:1" d="M 216.402,27.7321 227.081,33.6651 z" id="boundary" inkscape:connector-curvature="0" />
	<path style="fill:none;stroke:red;stroke-width:1px;stroke-linecap:butt;stroke-linejoin:miter;stroke-opacity:1" d="M 227.081,33.6651 237.761,39.5981 z" id="boundary" inkscape:connector-curvature="0" />
	<path style="fill:none;stroke:red;stroke-width:1px;stroke-linecap:butt;stroke-linejoin:miter;stroke-opacity:1" d="M 227.081,996 238.947,996 z" id="boundary" inkscape:connector-curvature="0" />
	<path style="fill:none;stroke:red;stroke-width:1px;stroke-linecap:butt;stroke-linejoin:miter;stroke-opacity:1" d="M 230.641,889.206 236.574,877.34 z" id="boundary" inkscape:connector-curvature="0" />
	<path style="fill:none;stroke:red;stroke-width:1px;stroke-linecap:butt;stroke-linejoin:miter;stroke-opacity:1" d="M 230.641,889.206 236.574,899.885 z" id="boundary" inkscape:connector-curvature="0" />
	<path style="fill:none;stroke:red;stroke-width:1px;stroke-linecap:butt;stroke-linejoin:miter;stroke-opacity:1" d="M 236.574,865.474 236.574,877.34 z" id="boundary" inkscape:connector-curvature="0" />
	<path style="fill:none;stroke:red;stroke-width:1px;stroke-linecap:butt;stroke-linejoin:miter;stroke-opacity:1" d="M 236.574,865.474 242.507,847.675 z" id="boundary" inkscape:connector-curvature="0" />
	<path style="fill:none;stroke:red;stroke-width:1px;stroke-linecap:butt;stroke-linejoin:miter;stroke-opacity:1" d="M 236.574,899.885 247.254,905.818 z" id="boundary" inkscape:connector-curvature="0" />
	<path style="fill:none;stroke:red;stroke-width:1px;stroke-linecap:butt;stroke-linejoin:miter;stroke-opacity:1" d="M 237.761,39.5981 247.254,47.9043 z" id="boundary" inkscape:connector-curvature="0" />
	<path style="fill:none;stroke:red;stroke-width:1px;stroke-linecap:butt;stroke-linejoin:miter;stroke-opacity:1" d="M 238.947,996 250.813,994.813 z" id="boundary" inkscape:connector-curvature="0" />
	<path style="fill:none;stroke:red;stroke-width:1px;stroke-linecap:butt;stroke-linejoin:miter;stroke-opacity:1" d="M 242.507,847.675 248.44,829.876 z" id="boundary" inkscape:connector-curvature="0" />
	<path style="fill:none;stroke:red;stroke-width:1px;stroke-linecap:butt;stroke-linejoin:miter;stroke-opacity:1" d="M 247.254,47.9043 252,59.7703 z" id="boundary" inkscape:connector-curvature="0" />
	<path style="fill:none;stroke:red;stroke-width:1px;stroke-linecap:butt;stroke-linejoin:miter;stroke-opacity:1" d="M 247.254,905.818 257.933,911.751 z" id="boundary" inkscape:connector-curvature="0" />
	<path style="fill:none;stroke:red;stroke-width:1px;stroke-linecap:butt;stroke-linejoin:miter;stroke-opacity:1" d="M 248.44,230.641 248.44,242.507 z" id="boundary" inkscape:connector-curvature="0" />
	<path style="fill:none;stroke:red;stroke-width:1px;stroke-linecap:butt;stroke-linejoin:miter;stroke-opacity:1" d="M 248.44,230.641 254.373,218.775 z" id="boundary" inkscape:connector-curvature="0" />
	<path style="fill:none;stroke:red;stroke-width:1px;stroke-linecap:butt;stroke-linejoin:miter;stroke-opacity:1" d="M 248.44,242.507 254.373,253.187 z" id="boundary" inkscape:connector-curvature="0" />
	<path style="fill:none;stroke:red;stroke-width:1px;stroke-linecap:butt;stroke-linejoin:miter;stroke-opacity:1" d="M 248.44,818.01 248.44,829.876 z" id="boundary" inkscape:connector-curvature="0" />
	<path style="fill:none;stroke:red;stroke-width:1px;stroke-linecap:butt;stroke-linejoin:miter;stroke-opacity:1" d="M 248.44,818.01 254.373,800.211 z" id="boundary" inkscape:connector-curvature="0" />
	<path style="fill:none;stroke:red;stroke-width:1px;stroke-linecap:butt;stroke-linejoin:miter;stroke-opacity:1" d="M 250.813,994.813 262.679,990.067 z" id="boundary" inkscape:connector-curvature="0" />
	<path style="fill:none;stroke:red;stroke-width:1px;stroke-linecap:butt;stroke-linejoin:miter;stroke-opacity:1" d="M 252,59.7703 260.306,69.2632 z" id="boundary" inkscape:connector-curvature="0" />
	<path style="fill:none;stroke:red;stroke-width:1px;stroke-linecap:butt;stroke-linejoin:miter;stroke-opacity:1" d="M 254.373,206.909 254.373,218.775 z" id="boundary" inkscape:connector-curvature="0" />
	<path style="fill:none;stroke:red;stroke-width:1px;stroke-linecap:butt;stroke-linejoin:miter;stroke-opacity:1" d="M 254.373,206.909 260.306,189.11 z" id="boundary" inkscape:connector-curvature="0" />
	<path style="fill:none;stroke:red;stroke-width:1px;stroke-linecap:butt;stroke-linejoin:miter;stroke-opacity:1" d="M 254.373,253.187 263.866,260.306 z" id="boundary" inkscape:connector-curvature="0" />
	<path style="fill:none;stroke:red;stroke-width:1px;stroke-linecap:butt;stroke-linejoin:miter;stroke-opacity:1" d="M 254.373,764.612 254.373,776.478 z" id="boundary" inkscape:connector-curvature="0" />
	<path style="fill:none;stroke:red;stroke-width:1px;stroke-linecap:butt;stroke-linejoin:miter;stroke-opacity:1" d="M 254.373,764.612 260.306,752.746 z" id="boundary" inkscape:connector-curvature="0" />
	<path style="fill:none;stroke:red;stroke-width:1px;stroke-linecap:butt;stroke-linejoin:miter;stroke-opacity:1" d="M 254.373,776.478 254.373,788.344 z" id="boundary" inkscape:connector-curvature="0" />
	<path style="fill:none;stroke:red;stroke-width:1px;stroke-linecap:butt;stroke-linejoin:miter;stroke-opacity:1" d="M 254.373,788.344 254.373,800.211 z" id="boundary" inkscape:connector-curvature="0" />
	<path style="fill:none;stroke:red;stroke-width:1px;stroke-linecap:butt;stroke-linejoin:miter;stroke-opacity:1" d="M 257.933,911.751 268.612,917.684 z" id="boundary" inkscape:connector-curvature="0" />
	<path style="fill:none;stroke:red;stroke-width:1px;stroke-linecap:butt;stroke-linejoin:miter;stroke-opacity:1" d="M 260.306,69.2632 266.239,79.9426 z" id="boundary" inkscape:connector-curvature="0" />
	<path style="fill:none;stroke:red;stroke-width:1px;stroke-linecap:butt;stroke-linejoin:miter;stroke-opacity:1" d="M 260.306,189.11 266.239,171.311 z" id="boundary" inkscape:connector-curvature="0" />
	<path style="fill:none;stroke:red;stroke-width:1px;stroke-linecap:butt;stroke-linejoin:miter;stroke-opacity:1" d="M 260.306,752.746 266.239,740.88 z" id="boundary" inkscape:connector-curvature="0" />
	<path style="fill:none;stroke:red;stroke-width:1px;stroke-linecap:butt;stroke-linejoin:miter;stroke-opacity:1" d="M 262.679,990.067 273.359,984.134 z" id="boundary" inkscape:connector-curvature="0" />
	<path style="fill:none;stroke:red;stroke-width:1px;stroke-linecap:butt;stroke-linejoin:miter;stroke-opacity:1" d="M 263.866,260.306 272.172,269.799 z" id="boundary" inkscape:connector-curvature="0" />
	<path style="fill:none;stroke:red;stroke-width:1px;stroke-linecap:butt;stroke-linejoin:miter;stroke-opacity:1" d="M 266.239,79.9426 272.172,90.622 z" id="boundary" inkscape:connector-curvature="0" />
	<path style="fill:none;stroke:red;stroke-width:1px;stroke-linecap:butt;stroke-linejoin:miter;stroke-opacity:1" d="M 266.239,123.847 266.239,135.713 z" id="boundary" inkscape:connector-curvature="0" />
	<path style="fill:none;stroke:red;stroke-width:1px;stroke-linecap:butt;stroke-linejoin:miter;stroke-opacity:1" d="M 266.239,123.847 272.172,102.488 z" id="boundary" inkscape:connector-curvature="0" />
	<path style="fill:none;stroke:red;stroke-width:1px;stroke-linecap:butt;stroke-linejoin:miter;stroke-opacity:1" d="M 266.239,135.713 266.239,147.579 z" id="boundary" inkscape:connector-curvature="0" />
	<path style="fill:none;stroke:red;stroke-width:1px;stroke-linecap:butt;stroke-linejoin:miter;stroke-opacity:1" d="M 266.239,147.579 266.239,159.445 z" id="boundary" inkscape:connector-curvature="0" />
	<path style="fill:none;stroke:red;stroke-width:1px;stroke-linecap:butt;stroke-linejoin:miter;stroke-opacity:1" d="M 266.239,159.445 266.239,171.311 z" id="boundary" inkscape:connector-curvature="0" />
	<path style="fill:none;stroke:red;stroke-width:1px;stroke-linecap:butt;stroke-linejoin:miter;stroke-opacity:1" d="M 266.239,740.88 272.172,729.014 z" id="boundary" inkscape:connector-curvature="0" />
	<path style="fill:none;stroke:red;stroke-width:1px;stroke-linecap:butt;stroke-linejoin:miter;stroke-opacity:1" d="M 268.612,917.684 276.919,927.177 z" id="boundary" inkscape:connector-curvature="0" />
	<path style="fill:none;stroke:red;stroke-width:1px;stroke-linecap:butt;stroke-linejoin:miter;stroke-opacity:1" d="M 272.172,90.622 272.172,102.488 z" id="boundary" inkscape:connector-curvature="0" />
	<path style="fill:none;stroke:red;stroke-width:1px;stroke-linecap:butt;stroke-linejoin:miter;stroke-opacity:1" d="M 272.172,269.799 278.105,280.478 z" id="boundary" inkscape:connector-curvature="0" />
	<path style="fill:none;stroke:red;stroke-width:1px;stroke-linecap:butt;stroke-linejoin:miter;stroke-opacity:1" d="M 272.172,681.55 272.172,693.416 z" id="boundary" inkscape:connector-curvature="0" />
	<path style="fill:none;stroke:red;stroke-width:1px;stroke-linecap:butt;stroke-linejoin:miter;stroke-opacity:1" d="M 272.172,681.55 278.105,669.684 z" id="boundary" inkscape:connector-curvature="0" />
	<path style="fill:none;stroke:red;stroke-width:1px;stroke-linecap:butt;stroke-linejoin:miter;stroke-opacity:1" d="M 272.172,693.416 272.172,705.282 z" id="boundary" inkscape:connector-curvature="0" />
	<path style="fill:none;stroke:red;stroke-width:1px;stroke-linecap:butt;stroke-linejoin:miter;stroke-opacity:1" d="M 272.172,705.282 272.172,717.148 z" id="boundary" inkscape:connector-curvature="0" />
	<path style="fill:none;stroke:red;stroke-width:1px;stroke-linecap:butt;stroke-linejoin:miter;stroke-opacity:1" d="M 272.172,717.148 272.172,729.014 z" id="boundary" inkscape:connector-curvature="0" />
	<path style="fill:none;stroke:red;stroke-width:1px;stroke-linecap:butt;stroke-linejoin:miter;stroke-opacity:1" d="M 273.359,984.134 284.038,978.201 z" id="boundary" inkscape:connector-curvature="0" />
	<path style="fill:none;stroke:red;stroke-width:1px;stroke-linecap:butt;stroke-linejoin:miter;stroke-opacity:1" d="M 276.919,927.177 288.785,931.923 z" id="boundary" inkscape:connector-curvature="0" />
	<path style="fill:none;stroke:red;stroke-width:1px;stroke-linecap:butt;stroke-linejoin:miter;stroke-opacity:1" d="M 278.105,280.478 278.105,292.344 z" id="boundary" inkscape:connector-curvature="0" />
	<path style="fill:none;stroke:red;stroke-width:1px;stroke-linecap:butt;stroke-linejoin:miter;stroke-opacity:1" d="M 278.105,292.344 278.105,304.211 z" id="boundary" inkscape:connector-curvature="0" />
	<path style="fill:none;stroke:red;stroke-width:1px;stroke-linecap:butt;stroke-linejoin:miter;stroke-opacity:1" d="M 278.105,304.211 282.852,316.077 z" id="boundary" inkscape:connector-curvature="0" />
	<path style="fill:none;stroke:red;stroke-width:1px;stroke-linecap:butt;stroke-linejoin:miter;stroke-opacity:1" d="M 278.105,669.684 289.971,663.751 z" id="boundary" inkscape:connector-curvature="0" />
	<path style="fill:none;stroke:red;stroke-width:1px;stroke-linecap:butt;stroke-linejoin:miter;stroke-opacity:1" d="M 282.852,316.077 284.038,327.943 z" id="boundary" inkscape:connector-curvature="0" />
	<path style="fill:none;stroke:red;stroke-width:1px;stroke-linecap:butt;stroke-linejoin:miter;stroke-opacity:1" d="M 284.038,327.943 288.785,339.809 z" id="boundary" inkscape:connector-curvature="0" />
	<path style="fill:none;stroke:red;stroke-width:1px;stroke-linecap:butt;stroke-linejoin:miter;stroke-opacity:1" d="M 284.038,373.033 284.038,384.9 z" id="boundary" inkscape:connector-curvature="0" />
	<path style="fill:none;stroke:red;stroke-width:1px;stroke-linecap:butt;stroke-linejoin:miter;stroke-opacity:1" d="M 284.038,373.033 289.971,351.675 z" id="boundary" inkscape:connector-curvature="0" />
	<path style="fill:none;stroke:red;stroke-width:1px;stroke-linecap:butt;stroke-linejoin:miter;stroke-opacity:1" d="M 284.038,384.9 286.411,396.766 z" id="boundary" inkscape:connector-curvature="0" />
	<path style="fill:none;stroke:red;stroke-width:1px;stroke-linecap:butt;stroke-linejoin:miter;stroke-opacity:1" d="M 284.038,978.201 295.904,978.201 z" id="boundary" inkscape:connector-curvature="0" />
	<path style="fill:none;stroke:red;stroke-width:1px;stroke-linecap:butt;stroke-linejoin:miter;stroke-opacity:1" d="M 286.411,396.766 292.344,407.445 z" id="boundary" inkscape:connector-curvature="0" />
	<path style="fill:none;stroke:red;stroke-width:1px;stroke-linecap:butt;stroke-linejoin:miter;stroke-opacity:1" d="M 288.785,339.809 289.971,351.675 z" id="boundary" inkscape:connector-curvature="0" />
	<path style="fill:none;stroke:red;stroke-width:1px;stroke-linecap:butt;stroke-linejoin:miter;stroke-opacity:1" d="M 288.785,931.923 300.651,935.483 z" id="boundary" inkscape:connector-curvature="0" />
	<path style="fill:none;stroke:red;stroke-width:1px;stroke-linecap:butt;stroke-linejoin:miter;stroke-opacity:1" d="M 289.971,663.751 301.837,657.818 z" id="boundary" inkscape:connector-curvature="0" />
	<path style="fill:none;stroke:red;stroke-width:1px;stroke-linecap:butt;stroke-linejoin:miter;stroke-opacity:1" d="M 292.344,407.445 295.904,419.311 z" id="boundary" inkscape:connector-curvature="0" />
	<path style="fill:none;stroke:red;stroke-width:1px;stroke-linecap:butt;stroke-linejoin:miter;stroke-opacity:1" d="M 295.904,419.311 301.837,429.99 z" id="boundary" inkscape:connector-curvature="0" />
	<path style="fill:none;stroke:red;stroke-width:1px;stroke-linecap:butt;stroke-linejoin:miter;stroke-opacity:1" d="M 295.904,978.201 307.77,978.201 z" id="boundary" inkscape:connector-curvature="0" />
	<path style="fill:none;stroke:red;stroke-width:1px;stroke-linecap:butt;stroke-linejoin:miter;stroke-opacity:1" d="M 300.651,935.483 312.517,937.856 z" id="boundary" inkscape:connector-curvature="0" />
	<path style="fill:none;stroke:red;stroke-width:1px;stroke-linecap:butt;stroke-linejoin:miter;stroke-opacity:1" d="M 301.837,429.99 307.77,440.67 z" id="boundary" inkscape:connector-curvature="0" />
	<path style="fill:none;stroke:red;stroke-width:1px;stroke-linecap:butt;stroke-linejoin:miter;stroke-opacity:1" d="M 301.837,657.818 311.33,649.512 z" id="boundary" inkscape:connector-curvature="0" />
	<path style="fill:none;stroke:red;stroke-width:1px;stroke-linecap:butt;stroke-linejoin:miter;stroke-opacity:1" d="M 307.77,440.67 307.77,452.536 z" id="boundary" inkscape:connector-curvature="0" />
	<path style="fill:none;stroke:red;stroke-width:1px;stroke-linecap:butt;stroke-linejoin:miter;stroke-opacity:1" d="M 307.77,452.536 313.703,463.215 z" id="boundary" inkscape:connector-curvature="0" />
	<path style="fill:none;stroke:red;stroke-width:1px;stroke-linecap:butt;stroke-linejoin:miter;stroke-opacity:1" d="M 307.77,978.201 317.263,969.895 z" id="boundary" inkscape:connector-curvature="0" />
	<path style="fill:none;stroke:red;stroke-width:1px;stroke-linecap:butt;stroke-linejoin:miter;stroke-opacity:1" d="M 311.33,649.512 313.703,634.086 z" id="boundary" inkscape:connector-curvature="0" />
	<path style="fill:none;stroke:red;stroke-width:1px;stroke-linecap:butt;stroke-linejoin:miter;stroke-opacity:1" d="M 312.517,937.856 319.636,947.349 z" id="boundary" inkscape:connector-curvature="0" />
	<path style="fill:none;stroke:red;stroke-width:1px;stroke-linecap:butt;stroke-linejoin:miter;stroke-opacity:1" d="M 313.703,463.215 319.636,473.895 z" id="boundary" inkscape:connector-curvature="0" />
	<path style="fill:none;stroke:red;stroke-width:1px;stroke-linecap:butt;stroke-linejoin:miter;stroke-opacity:1" d="M 313.703,622.22 313.703,634.086 z" id="boundary" inkscape:connector-curvature="0" />
	<path style="fill:none;stroke:red;stroke-width:1px;stroke-linecap:butt;stroke-linejoin:miter;stroke-opacity:1" d="M 313.703,622.22 319.636,610.354 z" id="boundary" inkscape:connector-curvature="0" />
	<path style="fill:none;stroke:red;stroke-width:1px;stroke-linecap:butt;stroke-linejoin:miter;stroke-opacity:1" d="M 317.263,969.895 325.569,958.029 z" id="boundary" inkscape:connector-curvature="0" />
	<path style="fill:none;stroke:red;stroke-width:1px;stroke-linecap:butt;stroke-linejoin:miter;stroke-opacity:1" d="M 319.636,473.895 322.01,485.761 z" id="boundary" inkscape:connector-curvature="0" />
	<path style="fill:none;stroke:red;stroke-width:1px;stroke-linecap:butt;stroke-linejoin:miter;stroke-opacity:1" d="M 319.636,610.354 331.502,604.421 z" id="boundary" inkscape:connector-curvature="0" />
	<path style="fill:none;stroke:red;stroke-width:1px;stroke-linecap:butt;stroke-linejoin:miter;stroke-opacity:1" d="M 319.636,947.349 325.569,958.029 z" id="boundary" inkscape:connector-curvature="0" />
	<path style="fill:none;stroke:red;stroke-width:1px;stroke-linecap:butt;stroke-linejoin:miter;stroke-opacity:1" d="M 322.01,485.761 327.943,496.44 z" id="boundary" inkscape:connector-curvature="0" />
	<path style="fill:none;stroke:red;stroke-width:1px;stroke-linecap:butt;stroke-linejoin:miter;stroke-opacity:1" d="M 327.943,496.44 331.502,508.306 z" id="boundary" inkscape:connector-curvature="0" />
	<path style="fill:none;stroke:red;stroke-width:1px;stroke-linecap:butt;stroke-linejoin:miter;stroke-opacity:1" d="M 331.502,508.306 337.435,518.986 z" id="boundary" inkscape:connector-curvature="0" />
	<path style="fill:none;stroke:red;stroke-width:1px;stroke-linecap:butt;stroke-linejoin:miter;stroke-opacity:1" d="M 331.502,604.421 343.368,598.488 z" id="boundary" inkscape:connector-curvature="0" />
	<path style="fill:none;stroke:red;stroke-width:1px;stroke-linecap:butt;stroke-linejoin:miter;stroke-opacity:1" d="M 337.435,518.986 343.368,529.665 z" id="boundary" inkscape:connector-curvature="0" />
	<path style="fill:none;stroke:red;stroke-width:1px;stroke-linecap:butt;stroke-linejoin:miter;stroke-opacity:1" d="M 343.368,529.665 351.675,539.158 z" id="boundary" inkscape:connector-curvature="0" />
	<path style="fill:none;stroke:red;stroke-width:1px;stroke-linecap:butt;stroke-linejoin:miter;stroke-opacity:1" d="M 343.368,598.488 355.234,586.622 z" id="boundary" inkscape:connector-curvature="0" />
	<path style="fill:none;stroke:red;stroke-width:1px;stroke-linecap:butt;stroke-linejoin:miter;stroke-opacity:1" d="M 351.675,539.158 357.608,549.837 z" id="boundary" inkscape:connector-curvature="0" />
	<path style="fill:none;stroke:red;stroke-width:1px;stroke-linecap:butt;stroke-linejoin:miter;stroke-opacity:1" d="M 355.234,586.622 361.167,573.569 z" id="boundary" inkscape:connector-curvature="0" />
	<path style="fill:none;stroke:red;stroke-width:1px;stroke-linecap:butt;stroke-linejoin:miter;stroke-opacity:1" d="M 357.608,549.837 361.167,561.703 z" id="boundary" inkscape:connector-curvature="0" />
	<path style="fill:none;stroke:red;stroke-width:1px;stroke-linecap:butt;stroke-linejoin:miter;stroke-opacity:1" d="M 361.167,561.703 361.167,573.569 z" id="boundary" inkscape:connector-curvature="0" />
	<circle cx="4" cy="310.144" r="4" fill="#0" id="circle0"/>
	<circle cx="4" cy="322.01" r="4" fill="#0" id="circle1"/>
	<circle cx="4" cy="333.876" r="4" fill="#0" id="circle2"/>
	<circle cx="4" cy="345.742" r="4" fill="#0" id="circle3"/>
	<circle cx="4" cy="357.608" r="4" fill="#0" id="circle4"/>
	<circle cx="9.93301" cy="298.278" r="4" fill="#0" id="circle5"/>
	<circle cx="9.93301" cy="368.287" r="4" fill="#0" id="circle6"/>
	<circle cx="9.93301" cy="380.153" r="4" fill="#0" id="circle7"/>
	<circle cx="15.866" cy="286.411" r="4" fill="#0" id="circle8"/>
	<circle cx="15.866" cy="390.833" r="4" fill="#0" id="circle9"/>
	<circle cx="19.4258" cy="402.699" r="4" fill="#0" id="circle10"/>
	<circle cx="21.799" cy="72.823" r="4" fill="#0" id="circle11"/>
	<circle cx="21.799" cy="84.689" r="4" fill="#0" id="circle12"/>
	<circle cx="21.799" cy="96.555" r="4" fill="#0" id="circle13"/>
	<circle cx="21.799" cy="108.421" r="4" fill="#0" id="circle14"/>
	<circle cx="21.799" cy="120.287" r="4" fill="#0" id="circle15"/>
	<circle cx="21.799" cy="132.153" r="4" fill="#0" id="circle16"/>
	<circle cx="21.799" cy="274.545" r="4" fill="#0" id="circle17"/>
	<circle cx="21.799" cy="414.565" r="4" fill="#0" id="circle18"/>
	<circle cx="21.799" cy="426.431" r="4" fill="#0" id="circle19"/>
	<circle cx="21.799" cy="438.297" r="4" fill="#0" id="circle20"/>
	<circle cx="21.799" cy="450.163" r="4" fill="#0" id="circle21"/>
	<circle cx="25.3589" cy="462.029" r="4" fill="#0" id="circle22"/>
	<circle cx="27.7321" cy="60.9569" r="4" fill="#0" id="circle23"/>
	<circle cx="27.7321" cy="142.833" r="4" fill="#0" id="circle24"/>
	<circle cx="27.7321" cy="473.895" r="4" fill="#0" id="circle25"/>
	<circle cx="31.2919" cy="265.053" r="4" fill="#0" id="circle26"/>
	<circle cx="33.6651" cy="153.512" r="4" fill="#0" id="circle27"/>
	<circle cx="33.6651" cy="484.574" r="4" fill="#0" id="circle28"/>
	<circle cx="33.6651" cy="496.44" r="4" fill="#0" id="circle29"/>
	<circle cx="33.6651" cy="535.598" r="4" fill="#0" id="circle30"/>
	<circle cx="33.6651" cy="547.464" r="4" fill="#0" id="circle31"/>
	<circle cx="37.2249" cy="51.4641" r="4" fill="#0" id="circle32"/>
	<circle cx="39.5981" cy="164.191" r="4" fill="#0" id="circle33"/>
	<circle cx="39.5981" cy="507.12" r="4" fill="#0" id="circle34"/>
	<circle cx="39.5981" cy="518.986" r="4" fill="#0" id="circle35"/>
	<circle cx="39.5981" cy="558.144" r="4" fill="#0" id="circle36"/>
	<circle cx="39.5981" cy="570.01" r="4" fill="#0" id="circle37"/>
	<circle cx="39.5981" cy="581.876" r="4" fill="#0" id="circle38"/>
	<circle cx="41.9713" cy="259.12" r="4" fill="#0" id="circle39"/>
	<circle cx="45.5311" cy="592.555" r="4" fill="#0" id="circle40"/>
	<circle cx="45.5311" cy="604.421" r="4" fill="#0" id="circle41"/>
	<circle cx="45.5311" cy="616.287" r="4" fill="#0" id="circle42"/>
	<circle cx="46.7177" cy="41.9713" r="4" fill="#0" id="circle43"/>
	<circle cx="46.7177" cy="173.684" r="4" fill="#0" id="circle44"/>
	<circle cx="51.4641" cy="250.813" r="4" fill="#0" id="circle45"/>
	<circle cx="51.4641" cy="626.967" r="4" fill="#0" id="circle46"/>
	<circle cx="51.4641" cy="638.833" r="4" fill="#0" id="circle47"/>
	<circle cx="53.8373" cy="650.699" r="4" fill="#0" id="circle48"/>
	<circle cx="55.0239" cy="183.177" r="4" fill="#0" id="circle49"/>
	<circle cx="56.2105" cy="33.6651" r="4" fill="#0" id="circle50"/>
	<circle cx="57.3971" cy="662.565" r="4" fill="#0" id="circle51"/>
	<circle cx="60.9569" cy="241.321" r="4" fill="#0" id="circle52"/>
	<circle cx="64.5167" cy="191.483" r="4" fill="#0" id="circle53"/>
	<circle cx="64.5167" cy="672.057" r="4" fill="#0" id="circle54"/>
	<circle cx="66.89" cy="27.7321" r="4" fill="#0" id="circle55"/>
	<circle cx="69.2632" cy="683.923" r="4" fill="#0" id="circle56"/>
	<circle cx="70.4498" cy="231.828" r="4" fill="#0" id="circle57"/>
	<circle cx="72.823" cy="200.976" r="4" fill="#0" id="circle58"/>
	<circle cx="75.1962" cy="212.842" r="4" fill="#0" id="circle59"/>
	<circle cx="75.1962" cy="802.584" r="4" fill="#0" id="circle60"/>
	<circle cx="75.1962" cy="814.45" r="4" fill="#0" id="circle61"/>
	<circle cx="75.1962" cy="826.316" r="4" fill="#0" id="circle62"/>
	<circle cx="76.3828" cy="18.2392" r="4" fill="#0" id="circle63"/>
	<circle cx="78.756" cy="692.23" r="4" fill="#0" id="circle64"/>
	<circle cx="81.1292" cy="784.785" r="4" fill="#0" id="circle65"/>
	<circle cx="81.1292" cy="836.995" r="4" fill="#0" id="circle66"/>
	<circle cx="87.0622" cy="772.919" r="4" fill="#0" id="circle67"/>
	<circle cx="87.0622" cy="847.675" r="4" fill="#0" id="circle68"/>
	<circle cx="87.0622" cy="859.541" r="4" fill="#0" id="circle69"/>
	<circle cx="87.0622" cy="933.11" r="4" fill="#0" id="circle70"/>
	<circle cx="87.0622" cy="944.976" r="4" fill="#0" id="circle71"/>
	<circle cx="87.0622" cy="956.842" r="4" fill="#0" id="circle72"/>
	<circle cx="88.2488" cy="12.3062" r="4" fill="#0" id="circle73"/>
	<circle cx="89.4354" cy="698.163" r="4" fill="#0" id="circle74"/>
	<circle cx="90.622" cy="871.407" r="4" fill="#0" id="circle75"/>
	<circle cx="92.9952" cy="755.12" r="4" fill="#0" id="circle76"/>
	<circle cx="92.9952" cy="883.273" r="4" fill="#0" id="circle77"/>
	<circle cx="92.9952" cy="909.378" r="4" fill="#0" id="circle78"/>
	<circle cx="92.9952" cy="921.244" r="4" fill="#0" id="circle79"/>
	<circle cx="92.9952" cy="967.522" r="4" fill="#0" id="circle80"/>
	<circle cx="95.3684" cy="708.842" r="4" fill="#0" id="circle81"/>
	<circle cx="98.9282" cy="720.708" r="4" fill="#0" id="circle82"/>
	<circle cx="98.9282" cy="732.574" r="4" fill="#0" id="circle83"/>
	<circle cx="98.9282" cy="744.44" r="4" fill="#0" id="circle84"/>
	<circle cx="98.9282" cy="893.952" r="4" fill="#0" id="circle85"/>
	<circle cx="100.115" cy="6.37321" r="4" fill="#0" id="circle86"/>
	<circle cx="101.301" cy="977.014" r="4" fill="#0" id="circle87"/>
	<circle cx="110.794" cy="984.134" r="4" fill="#0" id="circle88"/>
	<circle cx="111.981" cy="4" r="4" fill="#0" id="circle89"/>
	<circle cx="122.66" cy="984.134" r="4" fill="#0" id="circle90"/>
	<circle cx="123.847" cy="4" r="4" fill="#0" id="circle91"/>
	<circle cx="134.526" cy="984.134" r="4" fill="#0" id="circle92"/>
	<circle cx="135.713" cy="4" r="4" fill="#0" id="circle93"/>
	<circle cx="145.206" cy="990.067" r="4" fill="#0" id="circle94"/>
	<circle cx="147.579" cy="7.55981" r="4" fill="#0" id="circle95"/>
	<circle cx="157.072" cy="990.067" r="4" fill="#0" id="circle96"/>
	<circle cx="159.445" cy="9.93301" r="4" fill="#0" id="circle97"/>
	<circle cx="167.751" cy="996" r="4" fill="#0" id="circle98"/>
	<circle cx="171.311" cy="9.93301" r="4" fill="#0" id="circle99"/>
	<circle cx="179.617" cy="996" r="4" fill="#0" id="circle100"/>
	<circle cx="183.177" cy="13.4928" r="4" fill="#0" id="circle101"/>
	<circle cx="191.483" cy="996" r="4" fill="#0" id="circle102"/>
	<circle cx="195.043" cy="15.866" r="4" fill="#0" id="circle103"/>
	<circle cx="203.349" cy="996" r="4" fill="#0" id="circle104"/>
	<circle cx="205.722" cy="21.799" r="4" fill="#0" id="circle105"/>
	<circle cx="215.215" cy="996" r="4" fill="#0" id="circle106"/>
	<circle cx="216.402" cy="27.7321" r="4" fill="#0" id="circle107"/>
	<circle cx="227.081" cy="33.6651" r="4" fill="#0" id="circle108"/>
	<circle cx="227.081" cy="996" r="4" fill="#0" id="circle109"/>
	<circle cx="230.641" cy="889.206" r="4" fill="#0" id="circle110"/>
	<circle cx="236.574" cy="865.474" r="4" fill="#0" id="circle111"/>
	<circle cx="236.574" cy="877.34" r="4" fill="#0" id="circle112"/>
	<circle cx="236.574" cy="899.885" r="4" fill="#0" id="circle113"/>
	<circle cx="237.761" cy="39.5981" r="4" fill="#0" id="circle114"/>
	<circle cx="238.947" cy="996" r="4" fill="#0" id="circle115"/>
	<circle cx="242.507" cy="847.675" r="4" fill="#0" id="circle116"/>
	<circle cx="247.254" cy="47.9043" r="4" fill="#0" id="circle117"/>
	<circle cx="247.254" cy="905.818" r="4" fill="#0" id="circle118"/>
	<circle cx="248.44" cy="230.641" r="4" fill="#0" id="circle119"/>
	<circle cx="248.44" cy="242.507" r="4" fill="#0" id="circle120"/>
	<circle cx="248.44" cy="818.01" r="4" fill="#0" id="circle121"/>
	<circle cx="248.44" cy="829.876" r="4" fill="#0" id="circle122"/>
	<circle cx="250.813" cy="994.813" r="4" fill="#0" id="circle123"/>
	<circle cx="252" cy="59.7703" r="4" fill="#0" id="circle124"/>
	<circle cx="254.373" cy="206.909" r="4" fill="#0" id="circle125"/>
	<circle cx="254.373" cy="218.775" r="4" fill="#0" id="circle126"/>
	<circle cx="254.373" cy="253.187" r="4" fill="#0" id="circle127"/>
	<circle cx="254.373" cy="764.612" r="4" fill="#0" id="circle128"/>
	<circle cx="254.373" cy="776.478" r="4" fill="#0" id="circle129"/>
	<circle cx="254.373" cy="788.344" r="4" fill="#0" id="circle130"/>
	<circle cx="254.373" cy="800.211" r="4" fill="#0" id="circle131"/>
	<circle cx="257.933" cy="911.751" r="4" fill="#0" id="circle132"/>
	<circle cx="260.306" cy="69.2632" r="4" fill="#0" id="circle133"/>
	<circle cx="260.306" cy="189.11" r="4" fill="#0" id="circle134"/>
	<circle cx="260.306" cy="752.746" r="4" fill="#0" id="circle135"/>
	<circle cx="262.679" cy="990.067" r="4" fill="#0" id="circle136"/>
	<circle cx="263.866" cy="260.306" r="4" fill="#0" id="circle137"/>
	<circle cx="266.239" cy="79.9426" r="4" fill="#0" id="circle138"/>
	<circle cx="266.239" cy="123.847" r="4" fill="#0" id="circle139"/>
	<circle cx="266.239" cy="135.713" r="4" fill="#0" id="circle140"/>
	<circle cx="266.239" cy="147.579" r="4" fill="#0" id="circle141"/>
	<circle cx="266.239" cy="159.445" r="4" fill="#0" id="circle142"/>
	<circle cx="266.239" cy="171.311" r="4" fill="#0" id="circle143"/>
	<circle cx="266.239" cy="740.88" r="4" fill="#0" id="circle144"/>
	<circle cx="268.612" cy="917.684" r="4" fill="#0" id="circle145"/>
	<circle cx="272.172" cy="90.622" r="4" fill="#0" id="circle146"/>
	<circle cx="272.172" cy="102.488" r="4" fill="#0" id="circle147"/>
	<circle cx="272.172" cy="269.799" r="4" fill="#0" id="circle148"/>
	<circle cx="272.172" cy="681.55" r="4" fill="#0" id="circle149"/>
	<circle cx="272.172" cy="693.416" r="4" fill="#0" id="circle150"/>
	<circle cx="272.172" cy="705.282" r="4" fill="#0" id="circle151"/>
	<circle cx="272.172" cy="717.148" r="4" fill="#0" id="circle152"/>
	<circle cx="272.172" cy="729.014" r="4" fill="#0" id="circle153"/>
	<circle cx="273.359" cy="984.134" r="4" fill="#0" id="circle154"/>
	<circle cx="276.919" cy="927.177" r="4" fill="#0" id="circle155"/>
	<circle cx="278.105" cy="280.478" r="4" fill="#0" id="circle156"/>
	<circle cx="278.105" cy="292.344" r="4" fill="#0" id="circle157"/>
	<circle cx="278.105" cy="304.211" r="4" fill="#0" id="circle158"/>
	<circle cx="278.105" cy="669.684" r="4" fill="#0" id="circle159"/>
	<circle cx="282.852" cy="316.077" r="4" fill="#0" id="circle160"/>
	<circle cx="284.038" cy="327.943" r="4" fill="#0" id="circle161"/>
	<circle cx="284.038" cy="373.033" r="4" fill="#0" id="circle162"/>
	<circle cx="284.038" cy="384.9" r="4" fill="#0" id="circle163"/>
	<circle cx="284.038" cy="978.201" r="4" fill="#0" id="circle164"/>
	<circle cx="286.411" cy="396.766" r="4" fill="#0" id="circle165"/>
	<circle cx="288.785" cy="339.809" r="4" fill="#0" id="circle166"/>
	<circle cx="288.785" cy="931.923" r="4" fill="#0" id="circle167"/>
	<circle cx="289.971" cy="351.675" r="4" fill="#0" id="circle168"/>
	<circle cx="289.971" cy="663.751" r="4" fill="#0" id="circle169"/>
	<circle cx="292.344" cy="407.445" r="4" fill="#0" id="circle170"/>
	<circle cx="295.904" cy="419.311" r="4" fill="#0" id="circle171"/>
	<circle cx="295.904" cy="978.201" r="4" fill="#0" id="circle172"/>
	<circle cx="300.651" cy="935.483" r="4" fill="#0" id="circle173"/>
	<circle cx="301.837" cy="429.99" r="4" fill="#0" id="circle174"/>
	<circle cx="301.837" cy="657.818" r="4" fill="#0" id="circle175"/>
	<circle cx="307.77" cy="440.67" r="4" fill="#0" id="circle176"/>
	<circle cx="307.77" cy="452.536" r="4" fill="#0" id="circle177"/>
	<circle cx="307.77" cy="978.201" r="4" fill="#0" id="circle178"/>
	<circle cx="311.33" cy="649.512" r="4" fill="#0" id="circle179"/>
	<circle cx="312.517" cy="937.856" r="4" fill="#0" id="circle180"/>
	<circle cx="313.703" cy="463.215" r="4" fill="#0" id="circle181"/>
	<circle cx="313.703" cy="622.22" r="4" fill="#0" id="circle182"/>
	<circle cx="313.703" cy="634.086" r="4" fill="#0" id="circle183"/>
	<circle cx="317.263" cy="969.895" r="4" fill="#0" id="circle184"/>
	<circle cx="319.636" cy="473.895" r="4" fill="#0" id="circle185"/>
	<circle cx="319.636" cy="610.354" r="4" fill="#0" id="circle186"/>
	<circle cx="319.636" cy="947.349" r="4" fill="#0" id="circle187"/>
	<circle cx="322.01" cy="485.761" r="4" fill="#0" id="circle188"/>
	<circle cx="325.569" cy="958.029" r="4" fill="#0" id="circle189"/>
	<circle cx="327.943" cy="496.44" r="4" fill="#0" id="circle190"/>
	<circle cx="331.502" cy="508.306" r="4" fill="#0" id="circle191"/>
	<circle cx="331.502" cy="604.421" r="4" fill="#0" id="circle192"/>
	<circle cx="337.435" cy="518.986" r="4" fill="#0" id="circle193"/>
	<circle cx="343.368" cy="529.665" r="4" fill="#0" id="circle194"/>
	<circle cx="343.368" cy="598.488" r="4" fill="#0" id="circle195"/>
	<circle cx="351.675" cy="539.158" r="4" fill="#0" id="circle196"/>
	<circle cx="355.234" cy="586.622" r="4" fill="#0" id="circle197"/>
	<circle cx="357.608" cy="549.837" r="4" fill="#0" id="circle198"/>
	<circle cx="361.167" cy="561.703" r="4" fill="#0" id="circle199"/>
	<circle cx="361.167" cy="573.569" r="4" fill="#0" id="circle200"/>
	</g>
</svg>