<?xml version="1.0" encoding="UTF-8" standalone="no"?>
<!-- Created with CurveBenchmark -->
<svg
	xmlns:dc="http://purl.org/dc/elements/1.1/"
	xmlns:cc="http://creativecommons.org/ns#"
	xmlns:rdf="http://www.w3.org/1999/02/22-rdf-syntax-ns#"
	xmlns:svg="http://www.w3.org/2000/svg"
	xmlns="http://www.w3.org/2000/svg"
	xmlns:sodipodi="http://sodipodi.sourceforge.net/DTD/sodipodi-0.dtd"
	xmlns:inkscape="http://www.inkscape.org/namespaces/inkscape"
	width="1000"
	height="1000"
	id="svg2"
	version="1.1"
	sodipodi:docname="manifold/discur-dude0.png.txt">
<defs
	id="defs4" />
<metadata
	id="metadata7">
	<rdf:RDF>
		<cc:Work
			rdf:about="">
			<dc:format>image/svg+xml</dc:format>
			<dc:type
				rdf:resource="http://purl.org/dc/dcmitype/StillImage" />
			<dc:title></dc:title>
		</cc:Work>
	</rdf:RDF>
</metadata>
<g
	inkscape:label="Layer 1"
	inkscape:groupmode="layer"
	id="layer1">
	<path style="fill:none;stroke:red;stroke-width:1px;stroke-linecap:butt;stroke-linejoin:miter;stroke-opacity:1" d="M 4,425.094 4,445.339 z" id="boundary" inkscape:connector-curvature="0" />
	<path style="fill:none;stroke:red;stroke-width:1px;stroke-linecap:butt;stroke-linejoin:miter;stroke-opacity:1" d="M 4,425.094 14.1224,404.849 z" id="boundary" inkscape:connector-curvature="0" />
	<path style="fill:none;stroke:red;stroke-width:1px;stroke-linecap:butt;stroke-linejoin:miter;stroke-opacity:1" d="M 4,445.339 4,465.584 z" id="boundary" inkscape:connector-curvature="0" />
	<path style="fill:none;stroke:red;stroke-width:1px;stroke-linecap:butt;stroke-linejoin:miter;stroke-opacity:1" d="M 4,465.584 20.1959,479.755 z" id="boundary" inkscape:connector-curvature="0" />
	<path style="fill:none;stroke:red;stroke-width:1px;stroke-linecap:butt;stroke-linejoin:miter;stroke-opacity:1" d="M 14.1224,404.849 30.3184,388.653 z" id="boundary" inkscape:connector-curvature="0" />
	<path style="fill:none;stroke:red;stroke-width:1px;stroke-linecap:butt;stroke-linejoin:miter;stroke-opacity:1" d="M 20.1959,479.755 40.4408,469.633 z" id="boundary" inkscape:connector-curvature="0" />
	<path style="fill:none;stroke:red;stroke-width:1px;stroke-linecap:butt;stroke-linejoin:miter;stroke-opacity:1" d="M 30.3184,388.653 46.5143,372.457 z" id="boundary" inkscape:connector-curvature="0" />
	<path style="fill:none;stroke:red;stroke-width:1px;stroke-linecap:butt;stroke-linejoin:miter;stroke-opacity:1" d="M 40.4408,469.633 56.6367,451.412 z" id="boundary" inkscape:connector-curvature="0" />
	<path style="fill:none;stroke:red;stroke-width:1px;stroke-linecap:butt;stroke-linejoin:miter;stroke-opacity:1" d="M 46.5143,372.457 62.7102,358.286 z" id="boundary" inkscape:connector-curvature="0" />
	<path style="fill:none;stroke:red;stroke-width:1px;stroke-linecap:butt;stroke-linejoin:miter;stroke-opacity:1" d="M 56.6367,451.412 72.8327,437.241 z" id="boundary" inkscape:connector-curvature="0" />
	<path style="fill:none;stroke:red;stroke-width:1px;stroke-linecap:butt;stroke-linejoin:miter;stroke-opacity:1" d="M 62.7102,358.286 70.8082,338.041 z" id="boundary" inkscape:connector-curvature="0" />
	<path style="fill:none;stroke:red;stroke-width:1px;stroke-linecap:butt;stroke-linejoin:miter;stroke-opacity:1" d="M 70.8082,338.041 84.9796,313.747 z" id="boundary" inkscape:connector-curvature="0" />
	<path style="fill:none;stroke:red;stroke-width:1px;stroke-linecap:butt;stroke-linejoin:miter;stroke-opacity:1" d="M 72.8327,437.241 93.0776,427.118 z" id="boundary" inkscape:connector-curvature="0" />
	<path style="fill:none;stroke:red;stroke-width:1px;stroke-linecap:butt;stroke-linejoin:miter;stroke-opacity:1" d="M 84.9796,313.747 101.176,297.551 z" id="boundary" inkscape:connector-curvature="0" />
	<path style="fill:none;stroke:red;stroke-width:1px;stroke-linecap:butt;stroke-linejoin:miter;stroke-opacity:1" d="M 84.9796,961.584 84.9796,981.829 z" id="boundary" inkscape:connector-curvature="0" />
	<path style="fill:none;stroke:red;stroke-width:1px;stroke-linecap:butt;stroke-linejoin:miter;stroke-opacity:1" d="M 84.9796,961.584 95.102,931.216 z" id="boundary" inkscape:connector-curvature="0" />
	<path style="fill:none;stroke:red;stroke-width:1px;stroke-linecap:butt;stroke-linejoin:miter;stroke-opacity:1" d="M 84.9796,981.829 101.176,996 z" id="boundary" inkscape:connector-curvature="0" />
	<path style="fill:none;stroke:red;stroke-width:1px;stroke-linecap:butt;stroke-linejoin:miter;stroke-opacity:1" d="M 93.0776,427.118 107.249,410.922 z" id="boundary" inkscape:connector-curvature="0" />
	<path style="fill:none;stroke:red;stroke-width:1px;stroke-linecap:butt;stroke-linejoin:miter;stroke-opacity:1" d="M 95.102,931.216 105.224,910.971 z" id="boundary" inkscape:connector-curvature="0" />
	<path style="fill:none;stroke:red;stroke-width:1px;stroke-linecap:butt;stroke-linejoin:miter;stroke-opacity:1" d="M 101.176,297.551 115.347,273.257 z" id="boundary" inkscape:connector-curvature="0" />
	<path style="fill:none;stroke:red;stroke-width:1px;stroke-linecap:butt;stroke-linejoin:miter;stroke-opacity:1" d="M 101.176,996 121.42,996 z" id="boundary" inkscape:connector-curvature="0" />
	<path style="fill:none;stroke:red;stroke-width:1px;stroke-linecap:butt;stroke-linejoin:miter;stroke-opacity:1" d="M 105.224,910.971 115.347,890.727 z" id="boundary" inkscape:connector-curvature="0" />
	<path style="fill:none;stroke:red;stroke-width:1px;stroke-linecap:butt;stroke-linejoin:miter;stroke-opacity:1" d="M 107.249,410.922 123.445,396.751 z" id="boundary" inkscape:connector-curvature="0" />
	<path style="fill:none;stroke:red;stroke-width:1px;stroke-linecap:butt;stroke-linejoin:miter;stroke-opacity:1" d="M 115.347,273.257 125.469,253.012 z" id="boundary" inkscape:connector-curvature="0" />
	<path style="fill:none;stroke:red;stroke-width:1px;stroke-linecap:butt;stroke-linejoin:miter;stroke-opacity:1" d="M 115.347,890.727 131.543,874.531 z" id="boundary" inkscape:connector-curvature="0" />
	<path style="fill:none;stroke:red;stroke-width:1px;stroke-linecap:butt;stroke-linejoin:miter;stroke-opacity:1" d="M 121.42,996 141.665,985.878 z" id="boundary" inkscape:connector-curvature="0" />
	<path style="fill:none;stroke:red;stroke-width:1px;stroke-linecap:butt;stroke-linejoin:miter;stroke-opacity:1" d="M 123.445,396.751 137.616,380.555 z" id="boundary" inkscape:connector-curvature="0" />
	<path style="fill:none;stroke:red;stroke-width:1px;stroke-linecap:butt;stroke-linejoin:miter;stroke-opacity:1" d="M 125.469,253.012 141.665,236.816 z" id="boundary" inkscape:connector-curvature="0" />
	<path style="fill:none;stroke:red;stroke-width:1px;stroke-linecap:butt;stroke-linejoin:miter;stroke-opacity:1" d="M 131.543,874.531 141.665,854.286 z" id="boundary" inkscape:connector-curvature="0" />
	<path style="fill:none;stroke:red;stroke-width:1px;stroke-linecap:butt;stroke-linejoin:miter;stroke-opacity:1" d="M 137.616,380.555 153.812,366.384 z" id="boundary" inkscape:connector-curvature="0" />
	<path style="fill:none;stroke:red;stroke-width:1px;stroke-linecap:butt;stroke-linejoin:miter;stroke-opacity:1" d="M 141.665,236.816 159.886,226.694 z" id="boundary" inkscape:connector-curvature="0" />
	<path style="fill:none;stroke:red;stroke-width:1px;stroke-linecap:butt;stroke-linejoin:miter;stroke-opacity:1" d="M 141.665,854.286 151.788,834.041 z" id="boundary" inkscape:connector-curvature="0" />
	<path style="fill:none;stroke:red;stroke-width:1px;stroke-linecap:butt;stroke-linejoin:miter;stroke-opacity:1" d="M 141.665,985.878 157.861,967.657 z" id="boundary" inkscape:connector-curvature="0" />
	<path style="fill:none;stroke:red;stroke-width:1px;stroke-linecap:butt;stroke-linejoin:miter;stroke-opacity:1" d="M 151.788,834.041 161.91,813.796 z" id="boundary" inkscape:connector-curvature="0" />
	<path style="fill:none;stroke:red;stroke-width:1px;stroke-linecap:butt;stroke-linejoin:miter;stroke-opacity:1" d="M 153.812,366.384 163.935,346.139 z" id="boundary" inkscape:connector-curvature="0" />
	<path style="fill:none;stroke:red;stroke-width:1px;stroke-linecap:butt;stroke-linejoin:miter;stroke-opacity:1" d="M 157.861,967.657 174.057,953.486 z" id="boundary" inkscape:connector-curvature="0" />
	<path style="fill:none;stroke:red;stroke-width:1px;stroke-linecap:butt;stroke-linejoin:miter;stroke-opacity:1" d="M 159.886,226.694 176.082,212.522 z" id="boundary" inkscape:connector-curvature="0" />
	<path style="fill:none;stroke:red;stroke-width:1px;stroke-linecap:butt;stroke-linejoin:miter;stroke-opacity:1" d="M 161.91,813.796 176.082,789.502 z" id="boundary" inkscape:connector-curvature="0" />
	<path style="fill:none;stroke:red;stroke-width:1px;stroke-linecap:butt;stroke-linejoin:miter;stroke-opacity:1" d="M 163.935,346.139 184.18,336.016 z" id="boundary" inkscape:connector-curvature="0" />
	<path style="fill:none;stroke:red;stroke-width:1px;stroke-linecap:butt;stroke-linejoin:miter;stroke-opacity:1" d="M 174.057,953.486 188.229,937.29 z" id="boundary" inkscape:connector-curvature="0" />
	<path style="fill:none;stroke:red;stroke-width:1px;stroke-linecap:butt;stroke-linejoin:miter;stroke-opacity:1" d="M 176.082,212.522 192.278,196.327 z" id="boundary" inkscape:connector-curvature="0" />
	<path style="fill:none;stroke:red;stroke-width:1px;stroke-linecap:butt;stroke-linejoin:miter;stroke-opacity:1" d="M 176.082,789.502 192.278,773.306 z" id="boundary" inkscape:connector-curvature="0" />
	<path style="fill:none;stroke:red;stroke-width:1px;stroke-linecap:butt;stroke-linejoin:miter;stroke-opacity:1" d="M 184.18,336.016 198.351,319.82 z" id="boundary" inkscape:connector-curvature="0" />
	<path style="fill:none;stroke:red;stroke-width:1px;stroke-linecap:butt;stroke-linejoin:miter;stroke-opacity:1" d="M 188.229,937.29 204.424,923.118 z" id="boundary" inkscape:connector-curvature="0" />
	<path style="fill:none;stroke:red;stroke-width:1px;stroke-linecap:butt;stroke-linejoin:miter;stroke-opacity:1" d="M 192.278,196.327 212.522,196.327 z" id="boundary" inkscape:connector-curvature="0" />
	<path style="fill:none;stroke:red;stroke-width:1px;stroke-linecap:butt;stroke-linejoin:miter;stroke-opacity:1" d="M 192.278,773.306 202.4,753.061 z" id="boundary" inkscape:connector-curvature="0" />
	<path style="fill:none;stroke:red;stroke-width:1px;stroke-linecap:butt;stroke-linejoin:miter;stroke-opacity:1" d="M 198.351,319.82 218.596,319.82 z" id="boundary" inkscape:connector-curvature="0" />
	<path style="fill:none;stroke:red;stroke-width:1px;stroke-linecap:butt;stroke-linejoin:miter;stroke-opacity:1" d="M 202.4,753.061 216.571,728.767 z" id="boundary" inkscape:connector-curvature="0" />
	<path style="fill:none;stroke:red;stroke-width:1px;stroke-linecap:butt;stroke-linejoin:miter;stroke-opacity:1" d="M 204.424,923.118 214.547,902.873 z" id="boundary" inkscape:connector-curvature="0" />
	<path style="fill:none;stroke:red;stroke-width:1px;stroke-linecap:butt;stroke-linejoin:miter;stroke-opacity:1" d="M 212.522,196.327 230.743,186.204 z" id="boundary" inkscape:connector-curvature="0" />
	<path style="fill:none;stroke:red;stroke-width:1px;stroke-linecap:butt;stroke-linejoin:miter;stroke-opacity:1" d="M 214.547,902.873 228.718,886.678 z" id="boundary" inkscape:connector-curvature="0" />
	<path style="fill:none;stroke:red;stroke-width:1px;stroke-linecap:butt;stroke-linejoin:miter;stroke-opacity:1" d="M 216.571,728.767 232.767,712.571 z" id="boundary" inkscape:connector-curvature="0" />
	<path style="fill:none;stroke:red;stroke-width:1px;stroke-linecap:butt;stroke-linejoin:miter;stroke-opacity:1" d="M 218.596,319.82 236.816,329.943 z" id="boundary" inkscape:connector-curvature="0" />
	<path style="fill:none;stroke:red;stroke-width:1px;stroke-linecap:butt;stroke-linejoin:miter;stroke-opacity:1" d="M 228.718,886.678 244.914,872.506 z" id="boundary" inkscape:connector-curvature="0" />
	<path style="fill:none;stroke:red;stroke-width:1px;stroke-linecap:butt;stroke-linejoin:miter;stroke-opacity:1" d="M 230.743,186.204 250.988,186.204 z" id="boundary" inkscape:connector-curvature="0" />
	<path style="fill:none;stroke:red;stroke-width:1px;stroke-linecap:butt;stroke-linejoin:miter;stroke-opacity:1" d="M 232.767,712.571 242.89,692.327 z" id="boundary" inkscape:connector-curvature="0" />
	<path style="fill:none;stroke:red;stroke-width:1px;stroke-linecap:butt;stroke-linejoin:miter;stroke-opacity:1" d="M 236.816,329.943 242.89,350.188 z" id="boundary" inkscape:connector-curvature="0" />
	<path style="fill:none;stroke:red;stroke-width:1px;stroke-linecap:butt;stroke-linejoin:miter;stroke-opacity:1" d="M 242.89,350.188 246.939,370.433 z" id="boundary" inkscape:connector-curvature="0" />
	<path style="fill:none;stroke:red;stroke-width:1px;stroke-linecap:butt;stroke-linejoin:miter;stroke-opacity:1" d="M 242.89,692.327 253.012,672.082 z" id="boundary" inkscape:connector-curvature="0" />
	<path style="fill:none;stroke:red;stroke-width:1px;stroke-linecap:butt;stroke-linejoin:miter;stroke-opacity:1" d="M 244.914,872.506 259.086,846.188 z" id="boundary" inkscape:connector-curvature="0" />
	<path style="fill:none;stroke:red;stroke-width:1px;stroke-linecap:butt;stroke-linejoin:miter;stroke-opacity:1" d="M 246.939,370.433 257.061,388.653 z" id="boundary" inkscape:connector-curvature="0" />
	<path style="fill:none;stroke:red;stroke-width:1px;stroke-linecap:butt;stroke-linejoin:miter;stroke-opacity:1" d="M 250.988,186.204 271.233,186.204 z" id="boundary" inkscape:connector-curvature="0" />
	<path style="fill:none;stroke:red;stroke-width:1px;stroke-linecap:butt;stroke-linejoin:miter;stroke-opacity:1" d="M 253.012,672.082 267.184,647.788 z" id="boundary" inkscape:connector-curvature="0" />
	<path style="fill:none;stroke:red;stroke-width:1px;stroke-linecap:butt;stroke-linejoin:miter;stroke-opacity:1" d="M 257.061,388.653 261.11,408.898 z" id="boundary" inkscape:connector-curvature="0" />
	<path style="fill:none;stroke:red;stroke-width:1px;stroke-linecap:butt;stroke-linejoin:miter;stroke-opacity:1" d="M 259.086,846.188 275.282,832.016 z" id="boundary" inkscape:connector-curvature="0" />
	<path style="fill:none;stroke:red;stroke-width:1px;stroke-linecap:butt;stroke-linejoin:miter;stroke-opacity:1" d="M 261.11,408.898 267.184,429.143 z" id="boundary" inkscape:connector-curvature="0" />
	<path style="fill:none;stroke:red;stroke-width:1px;stroke-linecap:butt;stroke-linejoin:miter;stroke-opacity:1" d="M 267.184,429.143 277.306,447.363 z" id="boundary" inkscape:connector-curvature="0" />
	<path style="fill:none;stroke:red;stroke-width:1px;stroke-linecap:butt;stroke-linejoin:miter;stroke-opacity:1" d="M 267.184,647.788 277.306,617.42 z" id="boundary" inkscape:connector-curvature="0" />
	<path style="fill:none;stroke:red;stroke-width:1px;stroke-linecap:butt;stroke-linejoin:miter;stroke-opacity:1" d="M 271.233,186.204 291.478,178.106 z" id="boundary" inkscape:connector-curvature="0" />
	<path style="fill:none;stroke:red;stroke-width:1px;stroke-linecap:butt;stroke-linejoin:miter;stroke-opacity:1" d="M 275.282,832.016 289.453,815.82 z" id="boundary" inkscape:connector-curvature="0" />
	<path style="fill:none;stroke:red;stroke-width:1px;stroke-linecap:butt;stroke-linejoin:miter;stroke-opacity:1" d="M 277.306,447.363 277.306,467.608 z" id="boundary" inkscape:connector-curvature="0" />
	<path style="fill:none;stroke:red;stroke-width:1px;stroke-linecap:butt;stroke-linejoin:miter;stroke-opacity:1" d="M 277.306,467.608 287.429,485.829 z" id="boundary" inkscape:connector-curvature="0" />
	<path style="fill:none;stroke:red;stroke-width:1px;stroke-linecap:butt;stroke-linejoin:miter;stroke-opacity:1" d="M 277.306,617.42 287.429,597.176 z" id="boundary" inkscape:connector-curvature="0" />
	<path style="fill:none;stroke:red;stroke-width:1px;stroke-linecap:butt;stroke-linejoin:miter;stroke-opacity:1" d="M 287.429,485.829 287.429,506.073 z" id="boundary" inkscape:connector-curvature="0" />
	<path style="fill:none;stroke:red;stroke-width:1px;stroke-linecap:butt;stroke-linejoin:miter;stroke-opacity:1" d="M 287.429,506.073 297.551,524.294 z" id="boundary" inkscape:connector-curvature="0" />
	<path style="fill:none;stroke:red;stroke-width:1px;stroke-linecap:butt;stroke-linejoin:miter;stroke-opacity:1" d="M 287.429,597.176 297.551,564.784 z" id="boundary" inkscape:connector-curvature="0" />
	<path style="fill:none;stroke:red;stroke-width:1px;stroke-linecap:butt;stroke-linejoin:miter;stroke-opacity:1" d="M 289.453,815.82 305.649,801.649 z" id="boundary" inkscape:connector-curvature="0" />
	<path style="fill:none;stroke:red;stroke-width:1px;stroke-linecap:butt;stroke-linejoin:miter;stroke-opacity:1" d="M 291.478,178.106 307.673,149.763 z" id="boundary" inkscape:connector-curvature="0" />
	<path style="fill:none;stroke:red;stroke-width:1px;stroke-linecap:butt;stroke-linejoin:miter;stroke-opacity:1" d="M 297.551,70.8082 297.551,91.0531 z" id="boundary" inkscape:connector-curvature="0" />
	<path style="fill:none;stroke:red;stroke-width:1px;stroke-linecap:butt;stroke-linejoin:miter;stroke-opacity:1" d="M 297.551,70.8082 313.747,54.6122 z" id="boundary" inkscape:connector-curvature="0" />
	<path style="fill:none;stroke:red;stroke-width:1px;stroke-linecap:butt;stroke-linejoin:miter;stroke-opacity:1" d="M 297.551,91.0531 297.551,111.298 z" id="boundary" inkscape:connector-curvature="0" />
	<path style="fill:none;stroke:red;stroke-width:1px;stroke-linecap:butt;stroke-linejoin:miter;stroke-opacity:1" d="M 297.551,111.298 297.551,131.543 z" id="boundary" inkscape:connector-curvature="0" />
	<path style="fill:none;stroke:red;stroke-width:1px;stroke-linecap:butt;stroke-linejoin:miter;stroke-opacity:1" d="M 297.551,131.543 307.673,149.763 z" id="boundary" inkscape:connector-curvature="0" />
	<path style="fill:none;stroke:red;stroke-width:1px;stroke-linecap:butt;stroke-linejoin:miter;stroke-opacity:1" d="M 297.551,524.294 297.551,544.539 z" id="boundary" inkscape:connector-curvature="0" />
	<path style="fill:none;stroke:red;stroke-width:1px;stroke-linecap:butt;stroke-linejoin:miter;stroke-opacity:1" d="M 297.551,544.539 297.551,564.784 z" id="boundary" inkscape:connector-curvature="0" />
	<path style="fill:none;stroke:red;stroke-width:1px;stroke-linecap:butt;stroke-linejoin:miter;stroke-opacity:1" d="M 305.649,801.649 315.771,781.404 z" id="boundary" inkscape:connector-curvature="0" />
	<path style="fill:none;stroke:red;stroke-width:1px;stroke-linecap:butt;stroke-linejoin:miter;stroke-opacity:1" d="M 313.747,54.6122 329.943,38.4163 z" id="boundary" inkscape:connector-curvature="0" />
	<path style="fill:none;stroke:red;stroke-width:1px;stroke-linecap:butt;stroke-linejoin:miter;stroke-opacity:1" d="M 315.771,781.404 329.943,765.208 z" id="boundary" inkscape:connector-curvature="0" />
	<path style="fill:none;stroke:red;stroke-width:1px;stroke-linecap:butt;stroke-linejoin:miter;stroke-opacity:1" d="M 329.943,38.4163 346.139,24.2449 z" id="boundary" inkscape:connector-curvature="0" />
	<path style="fill:none;stroke:red;stroke-width:1px;stroke-linecap:butt;stroke-linejoin:miter;stroke-opacity:1" d="M 329.943,765.208 346.139,751.037 z" id="boundary" inkscape:connector-curvature="0" />
	<path style="fill:none;stroke:red;stroke-width:1px;stroke-linecap:butt;stroke-linejoin:miter;stroke-opacity:1" d="M 346.139,24.2449 360.31,8.04898 z" id="boundary" inkscape:connector-curvature="0" />
	<path style="fill:none;stroke:red;stroke-width:1px;stroke-linecap:butt;stroke-linejoin:miter;stroke-opacity:1" d="M 346.139,751.037 356.261,730.792 z" id="boundary" inkscape:connector-curvature="0" />
	<path style="fill:none;stroke:red;stroke-width:1px;stroke-linecap:butt;stroke-linejoin:miter;stroke-opacity:1" d="M 356.261,730.792 370.433,714.596 z" id="boundary" inkscape:connector-curvature="0" />
	<path style="fill:none;stroke:red;stroke-width:1px;stroke-linecap:butt;stroke-linejoin:miter;stroke-opacity:1" d="M 360.31,8.04898 380.555,4 z" id="boundary" inkscape:connector-curvature="0" />
	<path style="fill:none;stroke:red;stroke-width:1px;stroke-linecap:butt;stroke-linejoin:miter;stroke-opacity:1" d="M 370.433,714.596 388.653,704.473 z" id="boundary" inkscape:connector-curvature="0" />
	<path style="fill:none;stroke:red;stroke-width:1px;stroke-linecap:butt;stroke-linejoin:miter;stroke-opacity:1" d="M 380.555,4 400.8,4 z" id="boundary" inkscape:connector-curvature="0" />
	<path style="fill:none;stroke:red;stroke-width:1px;stroke-linecap:butt;stroke-linejoin:miter;stroke-opacity:1" d="M 388.653,704.473 406.873,694.351 z" id="boundary" inkscape:connector-curvature="0" />
	<path style="fill:none;stroke:red;stroke-width:1px;stroke-linecap:butt;stroke-linejoin:miter;stroke-opacity:1" d="M 400.8,4 419.02,14.1224 z" id="boundary" inkscape:connector-curvature="0" />
	<path style="fill:none;stroke:red;stroke-width:1px;stroke-linecap:butt;stroke-linejoin:miter;stroke-opacity:1" d="M 406.873,694.351 421.045,710.547 z" id="boundary" inkscape:connector-curvature="0" />
	<path style="fill:none;stroke:red;stroke-width:1px;stroke-linecap:butt;stroke-linejoin:miter;stroke-opacity:1" d="M 419.02,14.1224 435.216,26.2694 z" id="boundary" inkscape:connector-curvature="0" />
	<path style="fill:none;stroke:red;stroke-width:1px;stroke-linecap:butt;stroke-linejoin:miter;stroke-opacity:1" d="M 421.045,710.547 437.241,724.718 z" id="boundary" inkscape:connector-curvature="0" />
	<path style="fill:none;stroke:red;stroke-width:1px;stroke-linecap:butt;stroke-linejoin:miter;stroke-opacity:1" d="M 435.216,26.2694 445.339,44.4898 z" id="boundary" inkscape:connector-curvature="0" />
	<path style="fill:none;stroke:red;stroke-width:1px;stroke-linecap:butt;stroke-linejoin:miter;stroke-opacity:1" d="M 437.241,724.718 445.339,744.963 z" id="boundary" inkscape:connector-curvature="0" />
	<path style="fill:none;stroke:red;stroke-width:1px;stroke-linecap:butt;stroke-linejoin:miter;stroke-opacity:1" d="M 445.339,44.4898 459.51,60.6857 z" id="boundary" inkscape:connector-curvature="0" />
	<path style="fill:none;stroke:red;stroke-width:1px;stroke-linecap:butt;stroke-linejoin:miter;stroke-opacity:1" d="M 445.339,744.963 459.51,761.159 z" id="boundary" inkscape:connector-curvature="0" />
	<path style="fill:none;stroke:red;stroke-width:1px;stroke-linecap:butt;stroke-linejoin:miter;stroke-opacity:1" d="M 459.51,60.6857 469.633,78.9061 z" id="boundary" inkscape:connector-curvature="0" />
	<path style="fill:none;stroke:red;stroke-width:1px;stroke-linecap:butt;stroke-linejoin:miter;stroke-opacity:1" d="M 459.51,761.159 469.633,779.38 z" id="boundary" inkscape:connector-curvature="0" />
	<path style="fill:none;stroke:red;stroke-width:1px;stroke-linecap:butt;stroke-linejoin:miter;stroke-opacity:1" d="M 461.535,147.739 465.584,167.984 z" id="boundary" inkscape:connector-curvature="0" />
	<path style="fill:none;stroke:red;stroke-width:1px;stroke-linecap:butt;stroke-linejoin:miter;stroke-opacity:1" d="M 461.535,147.739 471.657,119.396 z" id="boundary" inkscape:connector-curvature="0" />
	<path style="fill:none;stroke:red;stroke-width:1px;stroke-linecap:butt;stroke-linejoin:miter;stroke-opacity:1" d="M 465.584,167.984 481.78,182.155 z" id="boundary" inkscape:connector-curvature="0" />
	<path style="fill:none;stroke:red;stroke-width:1px;stroke-linecap:butt;stroke-linejoin:miter;stroke-opacity:1" d="M 469.633,78.9061 471.657,99.151 z" id="boundary" inkscape:connector-curvature="0" />
	<path style="fill:none;stroke:red;stroke-width:1px;stroke-linecap:butt;stroke-linejoin:miter;stroke-opacity:1" d="M 469.633,779.38 485.829,793.551 z" id="boundary" inkscape:connector-curvature="0" />
	<path style="fill:none;stroke:red;stroke-width:1px;stroke-linecap:butt;stroke-linejoin:miter;stroke-opacity:1" d="M 471.657,99.151 471.657,119.396 z" id="boundary" inkscape:connector-curvature="0" />
	<path style="fill:none;stroke:red;stroke-width:1px;stroke-linecap:butt;stroke-linejoin:miter;stroke-opacity:1" d="M 471.657,583.004 481.78,562.759 z" id="boundary" inkscape:connector-curvature="0" />
	<path style="fill:none;stroke:red;stroke-width:1px;stroke-linecap:butt;stroke-linejoin:miter;stroke-opacity:1" d="M 471.657,583.004 481.78,601.224 z" id="boundary" inkscape:connector-curvature="0" />
	<path style="fill:none;stroke:red;stroke-width:1px;stroke-linecap:butt;stroke-linejoin:miter;stroke-opacity:1" d="M 481.78,182.155 502.024,186.204 z" id="boundary" inkscape:connector-curvature="0" />
	<path style="fill:none;stroke:red;stroke-width:1px;stroke-linecap:butt;stroke-linejoin:miter;stroke-opacity:1" d="M 481.78,522.269 481.78,542.514 z" id="boundary" inkscape:connector-curvature="0" />
	<path style="fill:none;stroke:red;stroke-width:1px;stroke-linecap:butt;stroke-linejoin:miter;stroke-opacity:1" d="M 481.78,522.269 491.902,502.024 z" id="boundary" inkscape:connector-curvature="0" />
	<path style="fill:none;stroke:red;stroke-width:1px;stroke-linecap:butt;stroke-linejoin:miter;stroke-opacity:1" d="M 481.78,542.514 481.78,562.759 z" id="boundary" inkscape:connector-curvature="0" />
	<path style="fill:none;stroke:red;stroke-width:1px;stroke-linecap:butt;stroke-linejoin:miter;stroke-opacity:1" d="M 481.78,601.224 491.902,619.445 z" id="boundary" inkscape:connector-curvature="0" />
	<path style="fill:none;stroke:red;stroke-width:1px;stroke-linecap:butt;stroke-linejoin:miter;stroke-opacity:1" d="M 485.829,793.551 493.927,813.796 z" id="boundary" inkscape:connector-curvature="0" />
	<path style="fill:none;stroke:red;stroke-width:1px;stroke-linecap:butt;stroke-linejoin:miter;stroke-opacity:1" d="M 491.902,481.78 491.902,502.024 z" id="boundary" inkscape:connector-curvature="0" />
	<path style="fill:none;stroke:red;stroke-width:1px;stroke-linecap:butt;stroke-linejoin:miter;stroke-opacity:1" d="M 491.902,481.78 502.024,451.412 z" id="boundary" inkscape:connector-curvature="0" />
	<path style="fill:none;stroke:red;stroke-width:1px;stroke-linecap:butt;stroke-linejoin:miter;stroke-opacity:1" d="M 491.902,619.445 491.902,639.69 z" id="boundary" inkscape:connector-curvature="0" />
	<path style="fill:none;stroke:red;stroke-width:1px;stroke-linecap:butt;stroke-linejoin:miter;stroke-opacity:1" d="M 491.902,639.69 502.024,657.91 z" id="boundary" inkscape:connector-curvature="0" />
	<path style="fill:none;stroke:red;stroke-width:1px;stroke-linecap:butt;stroke-linejoin:miter;stroke-opacity:1" d="M 493.927,813.796 510.122,825.943 z" id="boundary" inkscape:connector-curvature="0" />
	<path style="fill:none;stroke:red;stroke-width:1px;stroke-linecap:butt;stroke-linejoin:miter;stroke-opacity:1" d="M 502.024,186.204 522.269,186.204 z" id="boundary" inkscape:connector-curvature="0" />
	<path style="fill:none;stroke:red;stroke-width:1px;stroke-linecap:butt;stroke-linejoin:miter;stroke-opacity:1" d="M 502.024,431.167 502.024,451.412 z" id="boundary" inkscape:connector-curvature="0" />
	<path style="fill:none;stroke:red;stroke-width:1px;stroke-linecap:butt;stroke-linejoin:miter;stroke-opacity:1" d="M 502.024,431.167 512.147,400.8 z" id="boundary" inkscape:connector-curvature="0" />
	<path style="fill:none;stroke:red;stroke-width:1px;stroke-linecap:butt;stroke-linejoin:miter;stroke-opacity:1" d="M 502.024,657.91 512.147,676.131 z" id="boundary" inkscape:connector-curvature="0" />
	<path style="fill:none;stroke:red;stroke-width:1px;stroke-linecap:butt;stroke-linejoin:miter;stroke-opacity:1" d="M 510.122,825.943 516.196,846.188 z" id="boundary" inkscape:connector-curvature="0" />
	<path style="fill:none;stroke:red;stroke-width:1px;stroke-linecap:butt;stroke-linejoin:miter;stroke-opacity:1" d="M 512.147,380.555 512.147,400.8 z" id="boundary" inkscape:connector-curvature="0" />
	<path style="fill:none;stroke:red;stroke-width:1px;stroke-linecap:butt;stroke-linejoin:miter;stroke-opacity:1" d="M 512.147,380.555 522.269,360.31 z" id="boundary" inkscape:connector-curvature="0" />
	<path style="fill:none;stroke:red;stroke-width:1px;stroke-linecap:butt;stroke-linejoin:miter;stroke-opacity:1" d="M 512.147,676.131 522.269,694.351 z" id="boundary" inkscape:connector-curvature="0" />
	<path style="fill:none;stroke:red;stroke-width:1px;stroke-linecap:butt;stroke-linejoin:miter;stroke-opacity:1" d="M 516.196,846.188 532.392,860.359 z" id="boundary" inkscape:connector-curvature="0" />
	<path style="fill:none;stroke:red;stroke-width:1px;stroke-linecap:butt;stroke-linejoin:miter;stroke-opacity:1" d="M 522.269,186.204 542.514,186.204 z" id="boundary" inkscape:connector-curvature="0" />
	<path style="fill:none;stroke:red;stroke-width:1px;stroke-linecap:butt;stroke-linejoin:miter;stroke-opacity:1" d="M 522.269,340.065 522.269,360.31 z" id="boundary" inkscape:connector-curvature="0" />
	<path style="fill:none;stroke:red;stroke-width:1px;stroke-linecap:butt;stroke-linejoin:miter;stroke-opacity:1" d="M 522.269,340.065 532.392,319.82 z" id="boundary" inkscape:connector-curvature="0" />
	<path style="fill:none;stroke:red;stroke-width:1px;stroke-linecap:butt;stroke-linejoin:miter;stroke-opacity:1" d="M 522.269,694.351 532.392,712.571 z" id="boundary" inkscape:connector-curvature="0" />
	<path style="fill:none;stroke:red;stroke-width:1px;stroke-linecap:butt;stroke-linejoin:miter;stroke-opacity:1" d="M 532.392,319.82 552.637,319.82 z" id="boundary" inkscape:connector-curvature="0" />
	<path style="fill:none;stroke:red;stroke-width:1px;stroke-linecap:butt;stroke-linejoin:miter;stroke-opacity:1" d="M 532.392,712.571 542.514,730.792 z" id="boundary" inkscape:connector-curvature="0" />
	<path style="fill:none;stroke:red;stroke-width:1px;stroke-linecap:butt;stroke-linejoin:miter;stroke-opacity:1" d="M 532.392,860.359 540.49,880.604 z" id="boundary" inkscape:connector-curvature="0" />
	<path style="fill:none;stroke:red;stroke-width:1px;stroke-linecap:butt;stroke-linejoin:miter;stroke-opacity:1" d="M 540.49,880.604 550.612,898.824 z" id="boundary" inkscape:connector-curvature="0" />
	<path style="fill:none;stroke:red;stroke-width:1px;stroke-linecap:butt;stroke-linejoin:miter;stroke-opacity:1" d="M 542.514,186.204 562.759,192.278 z" id="boundary" inkscape:connector-curvature="0" />
	<path style="fill:none;stroke:red;stroke-width:1px;stroke-linecap:butt;stroke-linejoin:miter;stroke-opacity:1" d="M 542.514,730.792 552.637,749.012 z" id="boundary" inkscape:connector-curvature="0" />
	<path style="fill:none;stroke:red;stroke-width:1px;stroke-linecap:butt;stroke-linejoin:miter;stroke-opacity:1" d="M 550.612,898.824 570.857,906.922 z" id="boundary" inkscape:connector-curvature="0" />
	<path style="fill:none;stroke:red;stroke-width:1px;stroke-linecap:butt;stroke-linejoin:miter;stroke-opacity:1" d="M 552.637,319.82 572.882,323.869 z" id="boundary" inkscape:connector-curvature="0" />
	<path style="fill:none;stroke:red;stroke-width:1px;stroke-linecap:butt;stroke-linejoin:miter;stroke-opacity:1" d="M 552.637,749.012 560.735,769.257 z" id="boundary" inkscape:connector-curvature="0" />
	<path style="fill:none;stroke:red;stroke-width:1px;stroke-linecap:butt;stroke-linejoin:miter;stroke-opacity:1" d="M 560.735,769.257 572.882,785.453 z" id="boundary" inkscape:connector-curvature="0" />
	<path style="fill:none;stroke:red;stroke-width:1px;stroke-linecap:butt;stroke-linejoin:miter;stroke-opacity:1" d="M 562.759,192.278 580.98,202.4 z" id="boundary" inkscape:connector-curvature="0" />
	<path style="fill:none;stroke:red;stroke-width:1px;stroke-linecap:butt;stroke-linejoin:miter;stroke-opacity:1" d="M 570.857,906.922 576.931,927.167 z" id="boundary" inkscape:connector-curvature="0" />
	<path style="fill:none;stroke:red;stroke-width:1px;stroke-linecap:butt;stroke-linejoin:miter;stroke-opacity:1" d="M 572.882,323.869 591.102,333.992 z" id="boundary" inkscape:connector-curvature="0" />
	<path style="fill:none;stroke:red;stroke-width:1px;stroke-linecap:butt;stroke-linejoin:miter;stroke-opacity:1" d="M 572.882,785.453 583.004,803.673 z" id="boundary" inkscape:connector-curvature="0" />
	<path style="fill:none;stroke:red;stroke-width:1px;stroke-linecap:butt;stroke-linejoin:miter;stroke-opacity:1" d="M 576.931,927.167 591.102,943.363 z" id="boundary" inkscape:connector-curvature="0" />
	<path style="fill:none;stroke:red;stroke-width:1px;stroke-linecap:butt;stroke-linejoin:miter;stroke-opacity:1" d="M 580.98,202.4 597.176,216.571 z" id="boundary" inkscape:connector-curvature="0" />
	<path style="fill:none;stroke:red;stroke-width:1px;stroke-linecap:butt;stroke-linejoin:miter;stroke-opacity:1" d="M 583.004,803.673 593.127,821.894 z" id="boundary" inkscape:connector-curvature="0" />
	<path style="fill:none;stroke:red;stroke-width:1px;stroke-linecap:butt;stroke-linejoin:miter;stroke-opacity:1" d="M 591.102,333.992 607.298,348.163 z" id="boundary" inkscape:connector-curvature="0" />
	<path style="fill:none;stroke:red;stroke-width:1px;stroke-linecap:butt;stroke-linejoin:miter;stroke-opacity:1" d="M 591.102,943.363 593.127,963.608 z" id="boundary" inkscape:connector-curvature="0" />
	<path style="fill:none;stroke:red;stroke-width:1px;stroke-linecap:butt;stroke-linejoin:miter;stroke-opacity:1" d="M 593.127,821.894 603.249,840.114 z" id="boundary" inkscape:connector-curvature="0" />
	<path style="fill:none;stroke:red;stroke-width:1px;stroke-linecap:butt;stroke-linejoin:miter;stroke-opacity:1" d="M 593.127,963.608 613.371,971.706 z" id="boundary" inkscape:connector-curvature="0" />
	<path style="fill:none;stroke:red;stroke-width:1px;stroke-linecap:butt;stroke-linejoin:miter;stroke-opacity:1" d="M 597.176,216.571 615.396,226.694 z" id="boundary" inkscape:connector-curvature="0" />
	<path style="fill:none;stroke:red;stroke-width:1px;stroke-linecap:butt;stroke-linejoin:miter;stroke-opacity:1" d="M 603.249,840.114 613.371,858.335 z" id="boundary" inkscape:connector-curvature="0" />
	<path style="fill:none;stroke:red;stroke-width:1px;stroke-linecap:butt;stroke-linejoin:miter;stroke-opacity:1" d="M 607.298,348.163 615.396,368.408 z" id="boundary" inkscape:connector-curvature="0" />
	<path style="fill:none;stroke:red;stroke-width:1px;stroke-linecap:butt;stroke-linejoin:miter;stroke-opacity:1" d="M 613.371,858.335 625.518,874.531 z" id="boundary" inkscape:connector-curvature="0" />
	<path style="fill:none;stroke:red;stroke-width:1px;stroke-linecap:butt;stroke-linejoin:miter;stroke-opacity:1" d="M 613.371,971.706 627.543,987.902 z" id="boundary" inkscape:connector-curvature="0" />
	<path style="fill:none;stroke:red;stroke-width:1px;stroke-linecap:butt;stroke-linejoin:miter;stroke-opacity:1" d="M 615.396,226.694 631.592,240.865 z" id="boundary" inkscape:connector-curvature="0" />
	<path style="fill:none;stroke:red;stroke-width:1px;stroke-linecap:butt;stroke-linejoin:miter;stroke-opacity:1" d="M 615.396,368.408 631.592,380.555 z" id="boundary" inkscape:connector-curvature="0" />
	<path style="fill:none;stroke:red;stroke-width:1px;stroke-linecap:butt;stroke-linejoin:miter;stroke-opacity:1" d="M 625.518,874.531 633.616,894.776 z" id="boundary" inkscape:connector-curvature="0" />
	<path style="fill:none;stroke:red;stroke-width:1px;stroke-linecap:butt;stroke-linejoin:miter;stroke-opacity:1" d="M 627.543,987.902 647.788,987.902 z" id="boundary" inkscape:connector-curvature="0" />
	<path style="fill:none;stroke:red;stroke-width:1px;stroke-linecap:butt;stroke-linejoin:miter;stroke-opacity:1" d="M 631.592,240.865 639.69,261.11 z" id="boundary" inkscape:connector-curvature="0" />
	<path style="fill:none;stroke:red;stroke-width:1px;stroke-linecap:butt;stroke-linejoin:miter;stroke-opacity:1" d="M 631.592,380.555 643.739,396.751 z" id="boundary" inkscape:connector-curvature="0" />
	<path style="fill:none;stroke:red;stroke-width:1px;stroke-linecap:butt;stroke-linejoin:miter;stroke-opacity:1" d="M 633.616,894.776 643.739,912.996 z" id="boundary" inkscape:connector-curvature="0" />
	<path style="fill:none;stroke:red;stroke-width:1px;stroke-linecap:butt;stroke-linejoin:miter;stroke-opacity:1" d="M 639.69,261.11 653.861,277.306 z" id="boundary" inkscape:connector-curvature="0" />
	<path style="fill:none;stroke:red;stroke-width:1px;stroke-linecap:butt;stroke-linejoin:miter;stroke-opacity:1" d="M 643.739,396.751 659.935,410.922 z" id="boundary" inkscape:connector-curvature="0" />
	<path style="fill:none;stroke:red;stroke-width:1px;stroke-linecap:butt;stroke-linejoin:miter;stroke-opacity:1" d="M 643.739,912.996 653.861,931.216 z" id="boundary" inkscape:connector-curvature="0" />
	<path style="fill:none;stroke:red;stroke-width:1px;stroke-linecap:butt;stroke-linejoin:miter;stroke-opacity:1" d="M 647.788,987.902 663.984,971.706 z" id="boundary" inkscape:connector-curvature="0" />
	<path style="fill:none;stroke:red;stroke-width:1px;stroke-linecap:butt;stroke-linejoin:miter;stroke-opacity:1" d="M 653.861,277.306 670.057,289.453 z" id="boundary" inkscape:connector-curvature="0" />
	<path style="fill:none;stroke:red;stroke-width:1px;stroke-linecap:butt;stroke-linejoin:miter;stroke-opacity:1" d="M 653.861,931.216 661.959,951.461 z" id="boundary" inkscape:connector-curvature="0" />
	<path style="fill:none;stroke:red;stroke-width:1px;stroke-linecap:butt;stroke-linejoin:miter;stroke-opacity:1" d="M 659.935,410.922 672.082,427.118 z" id="boundary" inkscape:connector-curvature="0" />
	<path style="fill:none;stroke:red;stroke-width:1px;stroke-linecap:butt;stroke-linejoin:miter;stroke-opacity:1" d="M 661.959,951.461 663.984,971.706 z" id="boundary" inkscape:connector-curvature="0" />
	<path style="fill:none;stroke:red;stroke-width:1px;stroke-linecap:butt;stroke-linejoin:miter;stroke-opacity:1" d="M 670.057,289.453 678.155,309.698 z" id="boundary" inkscape:connector-curvature="0" />
	<path style="fill:none;stroke:red;stroke-width:1px;stroke-linecap:butt;stroke-linejoin:miter;stroke-opacity:1" d="M 672.082,427.118 682.204,445.339 z" id="boundary" inkscape:connector-curvature="0" />
	<path style="fill:none;stroke:red;stroke-width:1px;stroke-linecap:butt;stroke-linejoin:miter;stroke-opacity:1" d="M 678.155,309.698 694.351,323.869 z" id="boundary" inkscape:connector-curvature="0" />
	<path style="fill:none;stroke:red;stroke-width:1px;stroke-linecap:butt;stroke-linejoin:miter;stroke-opacity:1" d="M 682.204,445.339 698.4,459.51 z" id="boundary" inkscape:connector-curvature="0" />
	<path style="fill:none;stroke:red;stroke-width:1px;stroke-linecap:butt;stroke-linejoin:miter;stroke-opacity:1" d="M 694.351,323.869 704.473,342.09 z" id="boundary" inkscape:connector-curvature="0" />
	<path style="fill:none;stroke:red;stroke-width:1px;stroke-linecap:butt;stroke-linejoin:miter;stroke-opacity:1" d="M 698.4,459.51 712.571,475.706 z" id="boundary" inkscape:connector-curvature="0" />
	<path style="fill:none;stroke:red;stroke-width:1px;stroke-linecap:butt;stroke-linejoin:miter;stroke-opacity:1" d="M 704.473,342.09 716.62,358.286 z" id="boundary" inkscape:connector-curvature="0" />
	<path style="fill:none;stroke:red;stroke-width:1px;stroke-linecap:butt;stroke-linejoin:miter;stroke-opacity:1" d="M 712.571,475.706 732.816,481.78 z" id="boundary" inkscape:connector-curvature="0" />
	<path style="fill:none;stroke:red;stroke-width:1px;stroke-linecap:butt;stroke-linejoin:miter;stroke-opacity:1" d="M 716.62,358.286 724.718,378.531 z" id="boundary" inkscape:connector-curvature="0" />
	<path style="fill:none;stroke:red;stroke-width:1px;stroke-linecap:butt;stroke-linejoin:miter;stroke-opacity:1" d="M 724.718,378.531 740.914,390.678 z" id="boundary" inkscape:connector-curvature="0" />
	<path style="fill:none;stroke:red;stroke-width:1px;stroke-linecap:butt;stroke-linejoin:miter;stroke-opacity:1" d="M 732.816,481.78 744.963,497.976 z" id="boundary" inkscape:connector-curvature="0" />
	<path style="fill:none;stroke:red;stroke-width:1px;stroke-linecap:butt;stroke-linejoin:miter;stroke-opacity:1" d="M 740.914,390.678 749.012,410.922 z" id="boundary" inkscape:connector-curvature="0" />
	<path style="fill:none;stroke:red;stroke-width:1px;stroke-linecap:butt;stroke-linejoin:miter;stroke-opacity:1" d="M 744.963,497.976 761.159,512.147 z" id="boundary" inkscape:connector-curvature="0" />
	<path style="fill:none;stroke:red;stroke-width:1px;stroke-linecap:butt;stroke-linejoin:miter;stroke-opacity:1" d="M 749.012,410.922 765.208,425.094 z" id="boundary" inkscape:connector-curvature="0" />
	<path style="fill:none;stroke:red;stroke-width:1px;stroke-linecap:butt;stroke-linejoin:miter;stroke-opacity:1" d="M 761.159,512.147 779.38,502.024 z" id="boundary" inkscape:connector-curvature="0" />
	<path style="fill:none;stroke:red;stroke-width:1px;stroke-linecap:butt;stroke-linejoin:miter;stroke-opacity:1" d="M 765.208,425.094 775.331,443.314 z" id="boundary" inkscape:connector-curvature="0" />
	<path style="fill:none;stroke:red;stroke-width:1px;stroke-linecap:butt;stroke-linejoin:miter;stroke-opacity:1" d="M 775.331,443.314 785.453,461.535 z" id="boundary" inkscape:connector-curvature="0" />
	<path style="fill:none;stroke:red;stroke-width:1px;stroke-linecap:butt;stroke-linejoin:miter;stroke-opacity:1" d="M 779.38,502.024 795.576,479.755 z" id="boundary" inkscape:connector-curvature="0" />
	<path style="fill:none;stroke:red;stroke-width:1px;stroke-linecap:butt;stroke-linejoin:miter;stroke-opacity:1" d="M 785.453,461.535 795.576,479.755 z" id="boundary" inkscape:connector-curvature="0" />
	<circle cx="4" cy="425.094" r="4" fill="#0" id="circle0"/>
	<circle cx="4" cy="445.339" r="4" fill="#0" id="circle1"/>
	<circle cx="4" cy="465.584" r="4" fill="#0" id="circle2"/>
	<circle cx="14.1224" cy="404.849" r="4" fill="#0" id="circle3"/>
	<circle cx="20.1959" cy="479.755" r="4" fill="#0" id="circle4"/>
	<circle cx="30.3184" cy="388.653" r="4" fill="#0" id="circle5"/>
	<circle cx="40.4408" cy="469.633" r="4" fill="#0" id="circle6"/>
	<circle cx="46.5143" cy="372.457" r="4" fill="#0" id="circle7"/>
	<circle cx="56.6367" cy="451.412" r="4" fill="#0" id="circle8"/>
	<circle cx="62.7102" cy="358.286" r="4" fill="#0" id="circle9"/>
	<circle cx="70.8082" cy="338.041" r="4" fill="#0" id="circle10"/>
	<circle cx="72.8327" cy="437.241" r="4" fill="#0" id="circle11"/>
	<circle cx="84.9796" cy="313.747" r="4" fill="#0" id="circle12"/>
	<circle cx="84.9796" cy="961.584" r="4" fill="#0" id="circle13"/>
	<circle cx="84.9796" cy="981.829" r="4" fill="#0" id="circle14"/>
	<circle cx="93.0776" cy="427.118" r="4" fill="#0" id="circle15"/>
	<circle cx="95.102" cy="931.216" r="4" fill="#0" id="circle16"/>
	<circle cx="101.176" cy="297.551" r="4" fill="#0" id="circle17"/>
	<circle cx="101.176" cy="996" r="4" fill="#0" id="circle18"/>
	<circle cx="105.224" cy="910.971" r="4" fill="#0" id="circle19"/>
	<circle cx="107.249" cy="410.922" r="4" fill="#0" id="circle20"/>
	<circle cx="115.347" cy="273.257" r="4" fill="#0" id="circle21"/>
	<circle cx="115.347" cy="890.727" r="4" fill="#0" id="circle22"/>
	<circle cx="121.42" cy="996" r="4" fill="#0" id="circle23"/>
	<circle cx="123.445" cy="396.751" r="4" fill="#0" id="circle24"/>
	<circle cx="125.469" cy="253.012" r="4" fill="#0" id="circle25"/>
	<circle cx="131.543" cy="874.531" r="4" fill="#0" id="circle26"/>
	<circle cx="137.616" cy="380.555" r="4" fill="#0" id="circle27"/>
	<circle cx="141.665" cy="236.816" r="4" fill="#0" id="circle28"/>
	<circle cx="141.665" cy="854.286" r="4" fill="#0" id="circle29"/>
	<circle cx="141.665" cy="985.878" r="4" fill="#0" id="circle30"/>
	<circle cx="151.788" cy="834.041" r="4" fill="#0" id="circle31"/>
	<circle cx="153.812" cy="366.384" r="4" fill="#0" id="circle32"/>
	<circle cx="157.861" cy="967.657" r="4" fill="#0" id="circle33"/>
	<circle cx="159.886" cy="226.694" r="4" fill="#0" id="circle34"/>
	<circle cx="161.91" cy="813.796" r="4" fill="#0" id="circle35"/>
	<circle cx="163.935" cy="346.139" r="4" fill="#0" id="circle36"/>
	<circle cx="174.057" cy="953.486" r="4" fill="#0" id="circle37"/>
	<circle cx="176.082" cy="212.522" r="4" fill="#0" id="circle38"/>
	<circle cx="176.082" cy="789.502" r="4" fill="#0" id="circle39"/>
	<circle cx="184.18" cy="336.016" r="4" fill="#0" id="circle40"/>
	<circle cx="188.229" cy="937.29" r="4" fill="#0" id="circle41"/>
	<circle cx="192.278" cy="196.327" r="4" fill="#0" id="circle42"/>
	<circle cx="192.278" cy="773.306" r="4" fill="#0" id="circle43"/>
	<circle cx="198.351" cy="319.82" r="4" fill="#0" id="circle44"/>
	<circle cx="202.4" cy="753.061" r="4" fill="#0" id="circle45"/>
	<circle cx="204.424" cy="923.118" r="4" fill="#0" id="circle46"/>
	<circle cx="212.522" cy="196.327" r="4" fill="#0" id="circle47"/>
	<circle cx="214.547" cy="902.873" r="4" fill="#0" id="circle48"/>
	<circle cx="216.571" cy="728.767" r="4" fill="#0" id="circle49"/>
	<circle cx="218.596" cy="319.82" r="4" fill="#0" id="circle50"/>
	<circle cx="228.718" cy="886.678" r="4" fill="#0" id="circle51"/>
	<circle cx="230.743" cy="186.204" r="4" fill="#0" id="circle52"/>
	<circle cx="232.767" cy="712.571" r="4" fill="#0" id="circle53"/>
	<circle cx="236.816" cy="329.943" r="4" fill="#0" id="circle54"/>
	<circle cx="242.89" cy="350.188" r="4" fill="#0" id="circle55"/>
	<circle cx="242.89" cy="692.327" r="4" fill="#0" id="circle56"/>
	<circle cx="244.914" cy="872.506" r="4" fill="#0" id="circle57"/>
	<circle cx="246.939" cy="370.433" r="4" fill="#0" id="circle58"/>
	<circle cx="250.988" cy="186.204" r="4" fill="#0" id="circle59"/>
	<circle cx="253.012" cy="672.082" r="4" fill="#0" id="circle60"/>
	<circle cx="257.061" cy="388.653" r="4" fill="#0" id="circle61"/>
	<circle cx="259.086" cy="846.188" r="4" fill="#0" id="circle62"/>
	<circle cx="261.11" cy="408.898" r="4" fill="#0" id="circle63"/>
	<circle cx="267.184" cy="429.143" r="4" fill="#0" id="circle64"/>
	<circle cx="267.184" cy="647.788" r="4" fill="#0" id="circle65"/>
	<circle cx="271.233" cy="186.204" r="4" fill="#0" id="circle66"/>
	<circle cx="275.282" cy="832.016" r="4" fill="#0" id="circle67"/>
	<circle cx="277.306" cy="447.363" r="4" fill="#0" id="circle68"/>
	<circle cx="277.306" cy="467.608" r="4" fill="#0" id="circle69"/>
	<circle cx="277.306" cy="617.42" r="4" fill="#0" id="circle70"/>
	<circle cx="287.429" cy="485.829" r="4" fill="#0" id="circle71"/>
	<circle cx="287.429" cy="506.073" r="4" fill="#0" id="circle72"/>
	<circle cx="287.429" cy="597.176" r="4" fill="#0" id="circle73"/>
	<circle cx="289.453" cy="815.82" r="4" fill="#0" id="circle74"/>
	<circle cx="291.478" cy="178.106" r="4" fill="#0" id="circle75"/>
	<circle cx="297.551" cy="70.8082" r="4" fill="#0" id="circle76"/>
	<circle cx="297.551" cy="91.0531" r="4" fill="#0" id="circle77"/>
	<circle cx="297.551" cy="111.298" r="4" fill="#0" id="circle78"/>
	<circle cx="297.551" cy="131.543" r="4" fill="#0" id="circle79"/>
	<circle cx="297.551" cy="524.294" r="4" fill="#0" id="circle80"/>
	<circle cx="297.551" cy="544.539" r="4" fill="#0" id="circle81"/>
	<circle cx="297.551" cy="564.784" r="4" fill="#0" id="circle82"/>
	<circle cx="305.649" cy="801.649" r="4" fill="#0" id="circle83"/>
	<circle cx="307.673" cy="149.763" r="4" fill="#0" id="circle84"/>
	<circle cx="313.747" cy="54.6122" r="4" fill="#0" id="circle85"/>
	<circle cx="315.771" cy="781.404" r="4" fill="#0" id="circle86"/>
	<circle cx="329.943" cy="38.4163" r="4" fill="#0" id="circle87"/>
	<circle cx="329.943" cy="765.208" r="4" fill="#0" id="circle88"/>
	<circle cx="346.139" cy="24.2449" r="4" fill="#0" id="circle89"/>
	<circle cx="346.139" cy="751.037" r="4" fill="#0" id="circle90"/>
	<circle cx="356.261" cy="730.792" r="4" fill="#0" id="circle91"/>
	<circle cx="360.31" cy="8.04898" r="4" fill="#0" id="circle92"/>
	<circle cx="370.433" cy="714.596" r="4" fill="#0" id="circle93"/>
	<circle cx="380.555" cy="4" r="4" fill="#0" id="circle94"/>
	<circle cx="388.653" cy="704.473" r="4" fill="#0" id="circle95"/>
	<circle cx="400.8" cy="4" r="4" fill="#0" id="circle96"/>
	<circle cx="406.873" cy="694.351" r="4" fill="#0" id="circle97"/>
	<circle cx="419.02" cy="14.1224" r="4" fill="#0" id="circle98"/>
	<circle cx="421.045" cy="710.547" r="4" fill="#0" id="circle99"/>
	<circle cx="435.216" cy="26.2694" r="4" fill="#0" id="circle100"/>
	<circle cx="437.241" cy="724.718" r="4" fill="#0" id="circle101"/>
	<circle cx="445.339" cy="44.4898" r="4" fill="#0" id="circle102"/>
	<circle cx="445.339" cy="744.963" r="4" fill="#0" id="circle103"/>
	<circle cx="459.51" cy="60.6857" r="4" fill="#0" id="circle104"/>
	<circle cx="459.51" cy="761.159" r="4" fill="#0" id="circle105"/>
	<circle cx="461.535" cy="147.739" r="4" fill="#0" id="circle106"/>
	<circle cx="465.584" cy="167.984" r="4" fill="#0" id="circle107"/>
	<circle cx="469.633" cy="78.9061" r="4" fill="#0" id="circle108"/>
	<circle cx="469.633" cy="779.38" r="4" fill="#0" id="circle109"/>
	<circle cx="471.657" cy="99.151" r="4" fill="#0" id="circle110"/>
	<circle cx="471.657" cy="119.396" r="4" fill="#0" id="circle111"/>
	<circle cx="471.657" cy="583.004" r="4" fill="#0" id="circle112"/>
	<circle cx="481.78" cy="182.155" r="4" fill="#0" id="circle113"/>
	<circle cx="481.78" cy="522.269" r="4" fill="#0" id="circle114"/>
	<circle cx="481.78" cy="542.514" r="4" fill="#0" id="circle115"/>
	<circle cx="481.78" cy="562.759" r="4" fill="#0" id="circle116"/>
	<circle cx="481.78" cy="601.224" r="4" fill="#0" id="circle117"/>
	<circle cx="485.829" cy="793.551" r="4" fill="#0" id="circle118"/>
	<circle cx="491.902" cy="481.78" r="4" fill="#0" id="circle119"/>
	<circle cx="491.902" cy="502.024" r="4" fill="#0" id="circle120"/>
	<circle cx="491.902" cy="619.445" r="4" fill="#0" id="circle121"/>
	<circle cx="491.902" cy="639.69" r="4" fill="#0" id="circle122"/>
	<circle cx="493.927" cy="813.796" r="4" fill="#0" id="circle123"/>
	<circle cx="502.024" cy="186.204" r="4" fill="#0" id="circle124"/>
	<circle cx="502.024" cy="431.167" r="4" fill="#0" id="circle125"/>
	<circle cx="502.024" cy="451.412" r="4" fill="#0" id="circle126"/>
	<circle cx="502.024" cy="657.91" r="4" fill="#0" id="circle127"/>
	<circle cx="510.122" cy="825.943" r="4" fill="#0" id="circle128"/>
	<circle cx="512.147" cy="380.555" r="4" fill="#0" id="circle129"/>
	<circle cx="512.147" cy="400.8" r="4" fill="#0" id="circle130"/>
	<circle cx="512.147" cy="676.131" r="4" fill="#0" id="circle131"/>
	<circle cx="516.196" cy="846.188" r="4" fill="#0" id="circle132"/>
	<circle cx="522.269" cy="186.204" r="4" fill="#0" id="circle133"/>
	<circle cx="522.269" cy="340.065" r="4" fill="#0" id="circle134"/>
	<circle cx="522.269" cy="360.31" r="4" fill="#0" id="circle135"/>
	<circle cx="522.269" cy="694.351" r="4" fill="#0" id="circle136"/>
	<circle cx="532.392" cy="319.82" r="4" fill="#0" id="circle137"/>
	<circle cx="532.392" cy="712.571" r="4" fill="#0" id="circle138"/>
	<circle cx="532.392" cy="860.359" r="4" fill="#0" id="circle139"/>
	<circle cx="540.49" cy="880.604" r="4" fill="#0" id="circle140"/>
	<circle cx="542.514" cy="186.204" r="4" fill="#0" id="circle141"/>
	<circle cx="542.514" cy="730.792" r="4" fill="#0" id="circle142"/>
	<circle cx="550.612" cy="898.824" r="4" fill="#0" id="circle143"/>
	<circle cx="552.637" cy="319.82" r="4" fill="#0" id="circle144"/>
	<circle cx="552.637" cy="749.012" r="4" fill="#0" id="circle145"/>
	<circle cx="560.735" cy="769.257" r="4" fill="#0" id="circle146"/>
	<circle cx="562.759" cy="192.278" r="4" fill="#0" id="circle147"/>
	<circle cx="570.857" cy="906.922" r="4" fill="#0" id="circle148"/>
	<circle cx="572.882" cy="323.869" r="4" fill="#0" id="circle149"/>
	<circle cx="572.882" cy="785.453" r="4" fill="#0" id="circle150"/>
	<circle cx="576.931" cy="927.167" r="4" fill="#0" id="circle151"/>
	<circle cx="580.98" cy="202.4" r="4" fill="#0" id="circle152"/>
	<circle cx="583.004" cy="803.673" r="4" fill="#0" id="circle153"/>
	<circle cx="591.102" cy="333.992" r="4" fill="#0" id="circle154"/>
	<circle cx="591.102" cy="943.363" r="4" fill="#0" id="circle155"/>
	<circle cx="593.127" cy="821.894" r="4" fill="#0" id="circle156"/>
	<circle cx="593.127" cy="963.608" r="4" fill="#0" id="circle157"/>
	<circle cx="597.176" cy="216.571" r="4" fill="#0" id="circle158"/>
	<circle cx="603.249" cy="840.114" r="4" fill="#0" id="circle159"/>
	<circle cx="607.298" cy="348.163" r="4" fill="#0" id="circle160"/>
	<circle cx="613.371" cy="858.335" r="4" fill="#0" id="circle161"/>
	<circle cx="613.371" cy="971.706" r="4" fill="#0" id="circle162"/>
	<circle cx="615.396" cy="226.694" r="4" fill="#0" id="circle163"/>
	<circle cx="615.396" cy="368.408" r="4" fill="#0" id="circle164"/>
	<circle cx="625.518" cy="874.531" r="4" fill="#0" id="circle165"/>
	<circle cx="627.543" cy="987.902" r="4" fill="#0" id="circle166"/>
	<circle cx="631.592" cy="240.865" r="4" fill="#0" id="circle167"/>
	<circle cx="631.592" cy="380.555" r="4" fill="#0" id="circle168"/>
	<circle cx="633.616" cy="894.776" r="4" fill="#0" id="circle169"/>
	<circle cx="639.69" cy="261.11" r="4" fill="#0" id="circle170"/>
	<circle cx="643.739" cy="396.751" r="4" fill="#0" id="circle171"/>
	<circle cx="643.739" cy="912.996" r="4" fill="#0" id="circle172"/>
	<circle cx="647.788" cy="987.902" r="4" fill="#0" id="circle173"/>
	<circle cx="653.861" cy="277.306" r="4" fill="#0" id="circle174"/>
	<circle cx="653.861" cy="931.216" r="4" fill="#0" id="circle175"/>
	<circle cx="659.935" cy="410.922" r="4" fill="#0" id="circle176"/>
	<circle cx="661.959" cy="951.461" r="4" fill="#0" id="circle177"/>
	<circle cx="663.984" cy="971.706" r="4" fill="#0" id="circle178"/>
	<circle cx="670.057" cy="289.453" r="4" fill="#0" id="circle179"/>
	<circle cx="672.082" cy="427.118" r="4" fill="#0" id="circle180"/>
	<circle cx="678.155" cy="309.698" r="4" fill="#0" id="circle181"/>
	<circle cx="682.204" cy="445.339" r="4" fill="#0" id="circle182"/>
	<circle cx="694.351" cy="323.869" r="4" fill="#0" id="circle183"/>
	<circle cx="698.4" cy="459.51" r="4" fill="#0" id="circle184"/>
	<circle cx="704.473" cy="342.09" r="4" fill="#0" id="circle185"/>
	<circle cx="712.571" cy="475.706" r="4" fill="#0" id="circle186"/>
	<circle cx="716.62" cy="358.286" r="4" fill="#0" id="circle187"/>
	<circle cx="724.718" cy="378.531" r="4" fill="#0" id="circle188"/>
	<circle cx="732.816" cy="481.78" r="4" fill="#0" id="circle189"/>
	<circle cx="740.914" cy="390.678" r="4" fill="#0" id="circle190"/>
	<circle cx="744.963" cy="497.976" r="4" fill="#0" id="circle191"/>
	<circle cx="749.012" cy="410.922" r="4" fill="#0" id="circle192"/>
	<circle cx="761.159" cy="512.147" r="4" fill="#0" id="circle193"/>
	<circle cx="765.208" cy="425.094" r="4" fill="#0" id="circle194"/>
	<circle cx="775.331" cy="443.314" r="4" fill="#0" id="circle195"/>
	<circle cx="779.38" cy="502.024" r="4" fill="#0" id="circle196"/>
	<circle cx="785.453" cy="461.535" r="4" fill="#0" id="circle197"/>
	<circle cx="795.576" cy="479.755" r="4" fill="#0" id="circle198"/>
	</g>
</svg>