<?xml version="1.0" encoding="UTF-8" standalone="no"?>
<!-- Created with CurveBenchmark -->
<svg
	xmlns:dc="http://purl.org/dc/elements/1.1/"
	xmlns:cc="http://creativecommons.org/ns#"
	xmlns:rdf="http://www.w3.org/1999/02/22-rdf-syntax-ns#"
	xmlns:svg="http://www.w3.org/2000/svg"
	xmlns="http://www.w3.org/2000/svg"
	xmlns:sodipodi="http://sodipodi.sourceforge.net/DTD/sodipodi-0.dtd"
	xmlns:inkscape="http://www.inkscape.org/namespaces/inkscape"
	width="1000"
	height="1000"
	id="svg2"
	version="1.1"
	sodipodi:docname="manifold/discur-teddy265.png.txt">
<defs
	id="defs4" />
<metadata
	id="metadata7">
	<rdf:RDF>
		<cc:Work
			rdf:about="">
			<dc:format>image/svg+xml</dc:format>
			<dc:type
				rdf:resource="http://purl.org/dc/dcmitype/StillImage" />
			<dc:title></dc:title>
		</cc:Work>
	</rdf:RDF>
</metadata>
<g
	inkscape:label="Layer 1"
	inkscape:groupmode="layer"
	id="layer1">
	<path style="fill:none;stroke:red;stroke-width:1px;stroke-linecap:butt;stroke-linejoin:miter;stroke-opacity:1" d="M 4,834.906 4,863.168 z" id="boundary" inkscape:connector-curvature="0" />
	<path style="fill:none;stroke:red;stroke-width:1px;stroke-linecap:butt;stroke-linejoin:miter;stroke-opacity:1" d="M 4,834.906 9.65242,800.991 z" id="boundary" inkscape:connector-curvature="0" />
	<path style="fill:none;stroke:red;stroke-width:1px;stroke-linecap:butt;stroke-linejoin:miter;stroke-opacity:1" d="M 4,863.168 4,891.43 z" id="boundary" inkscape:connector-curvature="0" />
	<path style="fill:none;stroke:red;stroke-width:1px;stroke-linecap:butt;stroke-linejoin:miter;stroke-opacity:1" d="M 4,891.43 9.65242,919.692 z" id="boundary" inkscape:connector-curvature="0" />
	<path style="fill:none;stroke:red;stroke-width:1px;stroke-linecap:butt;stroke-linejoin:miter;stroke-opacity:1" d="M 9.65242,800.991 15.3048,772.729 z" id="boundary" inkscape:connector-curvature="0" />
	<path style="fill:none;stroke:red;stroke-width:1px;stroke-linecap:butt;stroke-linejoin:miter;stroke-opacity:1" d="M 9.65242,919.692 20.9573,947.954 z" id="boundary" inkscape:connector-curvature="0" />
	<path style="fill:none;stroke:red;stroke-width:1px;stroke-linecap:butt;stroke-linejoin:miter;stroke-opacity:1" d="M 15.3048,772.729 37.9145,750.12 z" id="boundary" inkscape:connector-curvature="0" />
	<path style="fill:none;stroke:red;stroke-width:1px;stroke-linecap:butt;stroke-linejoin:miter;stroke-opacity:1" d="M 20.9573,947.954 40.7407,970.564 z" id="boundary" inkscape:connector-curvature="0" />
	<path style="fill:none;stroke:red;stroke-width:1px;stroke-linecap:butt;stroke-linejoin:miter;stroke-opacity:1" d="M 37.9145,750.12 60.5242,733.162 z" id="boundary" inkscape:connector-curvature="0" />
	<path style="fill:none;stroke:red;stroke-width:1px;stroke-linecap:butt;stroke-linejoin:miter;stroke-opacity:1" d="M 40.7407,970.564 66.1766,984.695 z" id="boundary" inkscape:connector-curvature="0" />
	<path style="fill:none;stroke:red;stroke-width:1px;stroke-linecap:butt;stroke-linejoin:miter;stroke-opacity:1" d="M 54.8718,512.718 54.8718,540.98 z" id="boundary" inkscape:connector-curvature="0" />
	<path style="fill:none;stroke:red;stroke-width:1px;stroke-linecap:butt;stroke-linejoin:miter;stroke-opacity:1" d="M 54.8718,512.718 66.1766,478.803 z" id="boundary" inkscape:connector-curvature="0" />
	<path style="fill:none;stroke:red;stroke-width:1px;stroke-linecap:butt;stroke-linejoin:miter;stroke-opacity:1" d="M 54.8718,540.98 66.1766,569.242 z" id="boundary" inkscape:connector-curvature="0" />
	<path style="fill:none;stroke:red;stroke-width:1px;stroke-linecap:butt;stroke-linejoin:miter;stroke-opacity:1" d="M 60.5242,733.162 88.7863,727.51 z" id="boundary" inkscape:connector-curvature="0" />
	<path style="fill:none;stroke:red;stroke-width:1px;stroke-linecap:butt;stroke-linejoin:miter;stroke-opacity:1" d="M 66.1766,478.803 83.1339,456.194 z" id="boundary" inkscape:connector-curvature="0" />
	<path style="fill:none;stroke:red;stroke-width:1px;stroke-linecap:butt;stroke-linejoin:miter;stroke-opacity:1" d="M 66.1766,569.242 83.1339,591.852 z" id="boundary" inkscape:connector-curvature="0" />
	<path style="fill:none;stroke:red;stroke-width:1px;stroke-linecap:butt;stroke-linejoin:miter;stroke-opacity:1" d="M 66.1766,984.695 94.4387,990.348 z" id="boundary" inkscape:connector-curvature="0" />
	<path style="fill:none;stroke:red;stroke-width:1px;stroke-linecap:butt;stroke-linejoin:miter;stroke-opacity:1" d="M 83.1339,456.194 111.396,444.889 z" id="boundary" inkscape:connector-curvature="0" />
	<path style="fill:none;stroke:red;stroke-width:1px;stroke-linecap:butt;stroke-linejoin:miter;stroke-opacity:1" d="M 83.1339,591.852 105.744,611.635 z" id="boundary" inkscape:connector-curvature="0" />
	<path style="fill:none;stroke:red;stroke-width:1px;stroke-linecap:butt;stroke-linejoin:miter;stroke-opacity:1" d="M 88.7863,727.51 117.048,727.51 z" id="boundary" inkscape:connector-curvature="0" />
	<path style="fill:none;stroke:red;stroke-width:1px;stroke-linecap:butt;stroke-linejoin:miter;stroke-opacity:1" d="M 94.4387,990.348 122.701,996 z" id="boundary" inkscape:connector-curvature="0" />
	<path style="fill:none;stroke:red;stroke-width:1px;stroke-linecap:butt;stroke-linejoin:miter;stroke-opacity:1" d="M 105.744,611.635 131.179,625.766 z" id="boundary" inkscape:connector-curvature="0" />
	<path style="fill:none;stroke:red;stroke-width:1px;stroke-linecap:butt;stroke-linejoin:miter;stroke-opacity:1" d="M 111.396,444.889 139.658,439.236 z" id="boundary" inkscape:connector-curvature="0" />
	<path style="fill:none;stroke:red;stroke-width:1px;stroke-linecap:butt;stroke-linejoin:miter;stroke-opacity:1" d="M 117.048,727.51 145.311,727.51 z" id="boundary" inkscape:connector-curvature="0" />
	<path style="fill:none;stroke:red;stroke-width:1px;stroke-linecap:butt;stroke-linejoin:miter;stroke-opacity:1" d="M 122.701,996 150.963,996 z" id="boundary" inkscape:connector-curvature="0" />
	<path style="fill:none;stroke:red;stroke-width:1px;stroke-linecap:butt;stroke-linejoin:miter;stroke-opacity:1" d="M 131.179,625.766 156.615,639.897 z" id="boundary" inkscape:connector-curvature="0" />
	<path style="fill:none;stroke:red;stroke-width:1px;stroke-linecap:butt;stroke-linejoin:miter;stroke-opacity:1" d="M 139.658,439.236 167.92,433.584 z" id="boundary" inkscape:connector-curvature="0" />
	<path style="fill:none;stroke:red;stroke-width:1px;stroke-linecap:butt;stroke-linejoin:miter;stroke-opacity:1" d="M 145.311,727.51 173.573,730.336 z" id="boundary" inkscape:connector-curvature="0" />
	<path style="fill:none;stroke:red;stroke-width:1px;stroke-linecap:butt;stroke-linejoin:miter;stroke-opacity:1" d="M 150.963,996 179.225,996 z" id="boundary" inkscape:connector-curvature="0" />
	<path style="fill:none;stroke:red;stroke-width:1px;stroke-linecap:butt;stroke-linejoin:miter;stroke-opacity:1" d="M 156.615,639.897 184.877,645.55 z" id="boundary" inkscape:connector-curvature="0" />
	<path style="fill:none;stroke:red;stroke-width:1px;stroke-linecap:butt;stroke-linejoin:miter;stroke-opacity:1" d="M 167.92,433.584 196.182,433.584 z" id="boundary" inkscape:connector-curvature="0" />
	<path style="fill:none;stroke:red;stroke-width:1px;stroke-linecap:butt;stroke-linejoin:miter;stroke-opacity:1" d="M 173.573,730.336 201.835,738.815 z" id="boundary" inkscape:connector-curvature="0" />
	<path style="fill:none;stroke:red;stroke-width:1px;stroke-linecap:butt;stroke-linejoin:miter;stroke-opacity:1" d="M 179.225,996 207.487,990.348 z" id="boundary" inkscape:connector-curvature="0" />
	<path style="fill:none;stroke:red;stroke-width:1px;stroke-linecap:butt;stroke-linejoin:miter;stroke-opacity:1" d="M 184.877,645.55 213.14,654.028 z" id="boundary" inkscape:connector-curvature="0" />
	<path style="fill:none;stroke:red;stroke-width:1px;stroke-linecap:butt;stroke-linejoin:miter;stroke-opacity:1" d="M 196.182,433.584 224.444,427.932 z" id="boundary" inkscape:connector-curvature="0" />
	<path style="fill:none;stroke:red;stroke-width:1px;stroke-linecap:butt;stroke-linejoin:miter;stroke-opacity:1" d="M 201.835,738.815 230.097,727.51 z" id="boundary" inkscape:connector-curvature="0" />
	<path style="fill:none;stroke:red;stroke-width:1px;stroke-linecap:butt;stroke-linejoin:miter;stroke-opacity:1" d="M 207.487,990.348 235.749,979.043 z" id="boundary" inkscape:connector-curvature="0" />
	<path style="fill:none;stroke:red;stroke-width:1px;stroke-linecap:butt;stroke-linejoin:miter;stroke-opacity:1" d="M 213.14,654.028 241.402,662.507 z" id="boundary" inkscape:connector-curvature="0" />
	<path style="fill:none;stroke:red;stroke-width:1px;stroke-linecap:butt;stroke-linejoin:miter;stroke-opacity:1" d="M 224.444,427.932 252.707,416.627 z" id="boundary" inkscape:connector-curvature="0" />
	<path style="fill:none;stroke:red;stroke-width:1px;stroke-linecap:butt;stroke-linejoin:miter;stroke-opacity:1" d="M 230.097,727.51 258.359,721.858 z" id="boundary" inkscape:connector-curvature="0" />
	<path style="fill:none;stroke:red;stroke-width:1px;stroke-linecap:butt;stroke-linejoin:miter;stroke-opacity:1" d="M 235.749,979.043 264.011,973.39 z" id="boundary" inkscape:connector-curvature="0" />
	<path style="fill:none;stroke:red;stroke-width:1px;stroke-linecap:butt;stroke-linejoin:miter;stroke-opacity:1" d="M 241.402,662.507 269.664,656.855 z" id="boundary" inkscape:connector-curvature="0" />
	<path style="fill:none;stroke:red;stroke-width:1px;stroke-linecap:butt;stroke-linejoin:miter;stroke-opacity:1" d="M 252.707,416.627 269.664,394.017 z" id="boundary" inkscape:connector-curvature="0" />
	<path style="fill:none;stroke:red;stroke-width:1px;stroke-linecap:butt;stroke-linejoin:miter;stroke-opacity:1" d="M 258.359,721.858 275.316,685.117 z" id="boundary" inkscape:connector-curvature="0" />
	<path style="fill:none;stroke:red;stroke-width:1px;stroke-linecap:butt;stroke-linejoin:miter;stroke-opacity:1" d="M 264.011,973.39 292.274,967.738 z" id="boundary" inkscape:connector-curvature="0" />
	<path style="fill:none;stroke:red;stroke-width:1px;stroke-linecap:butt;stroke-linejoin:miter;stroke-opacity:1" d="M 269.664,394.017 297.926,388.365 z" id="boundary" inkscape:connector-curvature="0" />
	<path style="fill:none;stroke:red;stroke-width:1px;stroke-linecap:butt;stroke-linejoin:miter;stroke-opacity:1" d="M 269.664,656.855 275.316,685.117 z" id="boundary" inkscape:connector-curvature="0" />
	<path style="fill:none;stroke:red;stroke-width:1px;stroke-linecap:butt;stroke-linejoin:miter;stroke-opacity:1" d="M 292.274,967.738 320.536,973.39 z" id="boundary" inkscape:connector-curvature="0" />
	<path style="fill:none;stroke:red;stroke-width:1px;stroke-linecap:butt;stroke-linejoin:miter;stroke-opacity:1" d="M 297.926,280.969 303.578,252.707 z" id="boundary" inkscape:connector-curvature="0" />
	<path style="fill:none;stroke:red;stroke-width:1px;stroke-linecap:butt;stroke-linejoin:miter;stroke-opacity:1" d="M 297.926,280.969 303.578,309.231 z" id="boundary" inkscape:connector-curvature="0" />
	<path style="fill:none;stroke:red;stroke-width:1px;stroke-linecap:butt;stroke-linejoin:miter;stroke-opacity:1" d="M 297.926,388.365 326.188,382.712 z" id="boundary" inkscape:connector-curvature="0" />
	<path style="fill:none;stroke:red;stroke-width:1px;stroke-linecap:butt;stroke-linejoin:miter;stroke-opacity:1" d="M 303.578,252.707 314.883,224.444 z" id="boundary" inkscape:connector-curvature="0" />
	<path style="fill:none;stroke:red;stroke-width:1px;stroke-linecap:butt;stroke-linejoin:miter;stroke-opacity:1" d="M 303.578,309.231 314.883,337.493 z" id="boundary" inkscape:connector-curvature="0" />
	<path style="fill:none;stroke:red;stroke-width:1px;stroke-linecap:butt;stroke-linejoin:miter;stroke-opacity:1" d="M 314.883,224.444 329.014,199.009 z" id="boundary" inkscape:connector-curvature="0" />
	<path style="fill:none;stroke:red;stroke-width:1px;stroke-linecap:butt;stroke-linejoin:miter;stroke-opacity:1" d="M 314.883,337.493 326.188,382.712 z" id="boundary" inkscape:connector-curvature="0" />
	<path style="fill:none;stroke:red;stroke-width:1px;stroke-linecap:butt;stroke-linejoin:miter;stroke-opacity:1" d="M 320.536,54.8718 320.536,83.1339 z" id="boundary" inkscape:connector-curvature="0" />
	<path style="fill:none;stroke:red;stroke-width:1px;stroke-linecap:butt;stroke-linejoin:miter;stroke-opacity:1" d="M 320.536,54.8718 343.145,32.2621 z" id="boundary" inkscape:connector-curvature="0" />
	<path style="fill:none;stroke:red;stroke-width:1px;stroke-linecap:butt;stroke-linejoin:miter;stroke-opacity:1" d="M 320.536,83.1339 320.536,111.396 z" id="boundary" inkscape:connector-curvature="0" />
	<path style="fill:none;stroke:red;stroke-width:1px;stroke-linecap:butt;stroke-linejoin:miter;stroke-opacity:1" d="M 320.536,111.396 329.014,139.658 z" id="boundary" inkscape:connector-curvature="0" />
	<path style="fill:none;stroke:red;stroke-width:1px;stroke-linecap:butt;stroke-linejoin:miter;stroke-opacity:1" d="M 320.536,973.39 348.798,973.39 z" id="boundary" inkscape:connector-curvature="0" />
	<path style="fill:none;stroke:red;stroke-width:1px;stroke-linecap:butt;stroke-linejoin:miter;stroke-opacity:1" d="M 329.014,139.658 337.493,167.92 z" id="boundary" inkscape:connector-curvature="0" />
	<path style="fill:none;stroke:red;stroke-width:1px;stroke-linecap:butt;stroke-linejoin:miter;stroke-opacity:1" d="M 329.014,199.009 337.493,167.92 z" id="boundary" inkscape:connector-curvature="0" />
	<path style="fill:none;stroke:red;stroke-width:1px;stroke-linecap:butt;stroke-linejoin:miter;stroke-opacity:1" d="M 343.145,32.2621 365.755,15.3048 z" id="boundary" inkscape:connector-curvature="0" />
	<path style="fill:none;stroke:red;stroke-width:1px;stroke-linecap:butt;stroke-linejoin:miter;stroke-opacity:1" d="M 348.798,973.39 377.06,973.39 z" id="boundary" inkscape:connector-curvature="0" />
	<path style="fill:none;stroke:red;stroke-width:1px;stroke-linecap:butt;stroke-linejoin:miter;stroke-opacity:1" d="M 365.755,15.3048 394.017,9.65242 z" id="boundary" inkscape:connector-curvature="0" />
	<path style="fill:none;stroke:red;stroke-width:1px;stroke-linecap:butt;stroke-linejoin:miter;stroke-opacity:1" d="M 377.06,973.39 405.322,979.043 z" id="boundary" inkscape:connector-curvature="0" />
	<path style="fill:none;stroke:red;stroke-width:1px;stroke-linecap:butt;stroke-linejoin:miter;stroke-opacity:1" d="M 394.017,9.65242 422.279,4 z" id="boundary" inkscape:connector-curvature="0" />
	<path style="fill:none;stroke:red;stroke-width:1px;stroke-linecap:butt;stroke-linejoin:miter;stroke-opacity:1" d="M 405.322,979.043 433.584,984.695 z" id="boundary" inkscape:connector-curvature="0" />
	<path style="fill:none;stroke:red;stroke-width:1px;stroke-linecap:butt;stroke-linejoin:miter;stroke-opacity:1" d="M 422.279,4 450.541,12.4786 z" id="boundary" inkscape:connector-curvature="0" />
	<path style="fill:none;stroke:red;stroke-width:1px;stroke-linecap:butt;stroke-linejoin:miter;stroke-opacity:1" d="M 433.584,984.695 461.846,987.521 z" id="boundary" inkscape:connector-curvature="0" />
	<path style="fill:none;stroke:red;stroke-width:1px;stroke-linecap:butt;stroke-linejoin:miter;stroke-opacity:1" d="M 450.541,12.4786 475.977,26.6097 z" id="boundary" inkscape:connector-curvature="0" />
	<path style="fill:none;stroke:red;stroke-width:1px;stroke-linecap:butt;stroke-linejoin:miter;stroke-opacity:1" d="M 461.846,987.521 490.108,990.348 z" id="boundary" inkscape:connector-curvature="0" />
	<path style="fill:none;stroke:red;stroke-width:1px;stroke-linecap:butt;stroke-linejoin:miter;stroke-opacity:1" d="M 475.977,26.6097 498.587,43.567 z" id="boundary" inkscape:connector-curvature="0" />
	<path style="fill:none;stroke:red;stroke-width:1px;stroke-linecap:butt;stroke-linejoin:miter;stroke-opacity:1" d="M 490.108,990.348 518.37,996 z" id="boundary" inkscape:connector-curvature="0" />
	<path style="fill:none;stroke:red;stroke-width:1px;stroke-linecap:butt;stroke-linejoin:miter;stroke-opacity:1" d="M 498.587,43.567 526.849,43.567 z" id="boundary" inkscape:connector-curvature="0" />
	<path style="fill:none;stroke:red;stroke-width:1px;stroke-linecap:butt;stroke-linejoin:miter;stroke-opacity:1" d="M 518.37,996 546.632,996 z" id="boundary" inkscape:connector-curvature="0" />
	<path style="fill:none;stroke:red;stroke-width:1px;stroke-linecap:butt;stroke-linejoin:miter;stroke-opacity:1" d="M 526.849,43.567 555.111,43.567 z" id="boundary" inkscape:connector-curvature="0" />
	<path style="fill:none;stroke:red;stroke-width:1px;stroke-linecap:butt;stroke-linejoin:miter;stroke-opacity:1" d="M 546.632,996 574.895,996 z" id="boundary" inkscape:connector-curvature="0" />
	<path style="fill:none;stroke:red;stroke-width:1px;stroke-linecap:butt;stroke-linejoin:miter;stroke-opacity:1" d="M 555.111,43.567 583.373,43.567 z" id="boundary" inkscape:connector-curvature="0" />
	<path style="fill:none;stroke:red;stroke-width:1px;stroke-linecap:butt;stroke-linejoin:miter;stroke-opacity:1" d="M 574.895,996 603.157,996 z" id="boundary" inkscape:connector-curvature="0" />
	<path style="fill:none;stroke:red;stroke-width:1px;stroke-linecap:butt;stroke-linejoin:miter;stroke-opacity:1" d="M 583.373,43.567 611.635,32.2621 z" id="boundary" inkscape:connector-curvature="0" />
	<path style="fill:none;stroke:red;stroke-width:1px;stroke-linecap:butt;stroke-linejoin:miter;stroke-opacity:1" d="M 603.157,996 631.419,996 z" id="boundary" inkscape:connector-curvature="0" />
	<path style="fill:none;stroke:red;stroke-width:1px;stroke-linecap:butt;stroke-linejoin:miter;stroke-opacity:1" d="M 611.635,32.2621 637.071,15.3048 z" id="boundary" inkscape:connector-curvature="0" />
	<path style="fill:none;stroke:red;stroke-width:1px;stroke-linecap:butt;stroke-linejoin:miter;stroke-opacity:1" d="M 631.419,996 659.681,996 z" id="boundary" inkscape:connector-curvature="0" />
	<path style="fill:none;stroke:red;stroke-width:1px;stroke-linecap:butt;stroke-linejoin:miter;stroke-opacity:1" d="M 637.071,15.3048 665.333,9.65242 z" id="boundary" inkscape:connector-curvature="0" />
	<path style="fill:none;stroke:red;stroke-width:1px;stroke-linecap:butt;stroke-linejoin:miter;stroke-opacity:1" d="M 659.681,996 682.291,979.043 z" id="boundary" inkscape:connector-curvature="0" />
	<path style="fill:none;stroke:red;stroke-width:1px;stroke-linecap:butt;stroke-linejoin:miter;stroke-opacity:1" d="M 665.333,9.65242 693.595,4 z" id="boundary" inkscape:connector-curvature="0" />
	<path style="fill:none;stroke:red;stroke-width:1px;stroke-linecap:butt;stroke-linejoin:miter;stroke-opacity:1" d="M 682.291,979.043 704.9,956.433 z" id="boundary" inkscape:connector-curvature="0" />
	<path style="fill:none;stroke:red;stroke-width:1px;stroke-linecap:butt;stroke-linejoin:miter;stroke-opacity:1" d="M 693.595,4 721.858,9.65242 z" id="boundary" inkscape:connector-curvature="0" />
	<path style="fill:none;stroke:red;stroke-width:1px;stroke-linecap:butt;stroke-linejoin:miter;stroke-opacity:1" d="M 704.9,956.433 713.379,914.04 z" id="boundary" inkscape:connector-curvature="0" />
	<path style="fill:none;stroke:red;stroke-width:1px;stroke-linecap:butt;stroke-linejoin:miter;stroke-opacity:1" d="M 713.379,914.04 719.031,880.125 z" id="boundary" inkscape:connector-curvature="0" />
	<path style="fill:none;stroke:red;stroke-width:1px;stroke-linecap:butt;stroke-linejoin:miter;stroke-opacity:1" d="M 719.031,365.755 733.162,340.319 z" id="boundary" inkscape:connector-curvature="0" />
	<path style="fill:none;stroke:red;stroke-width:1px;stroke-linecap:butt;stroke-linejoin:miter;stroke-opacity:1" d="M 719.031,365.755 735.989,388.365 z" id="boundary" inkscape:connector-curvature="0" />
	<path style="fill:none;stroke:red;stroke-width:1px;stroke-linecap:butt;stroke-linejoin:miter;stroke-opacity:1" d="M 719.031,800.991 724.684,829.254 z" id="boundary" inkscape:connector-curvature="0" />
	<path style="fill:none;stroke:red;stroke-width:1px;stroke-linecap:butt;stroke-linejoin:miter;stroke-opacity:1" d="M 719.031,800.991 733.162,775.556 z" id="boundary" inkscape:connector-curvature="0" />
	<path style="fill:none;stroke:red;stroke-width:1px;stroke-linecap:butt;stroke-linejoin:miter;stroke-opacity:1" d="M 719.031,880.125 724.684,829.254 z" id="boundary" inkscape:connector-curvature="0" />
	<path style="fill:none;stroke:red;stroke-width:1px;stroke-linecap:butt;stroke-linejoin:miter;stroke-opacity:1" d="M 721.858,9.65242 747.293,23.7835 z" id="boundary" inkscape:connector-curvature="0" />
	<path style="fill:none;stroke:red;stroke-width:1px;stroke-linecap:butt;stroke-linejoin:miter;stroke-opacity:1" d="M 724.684,665.333 724.684,693.595 z" id="boundary" inkscape:connector-curvature="0" />
	<path style="fill:none;stroke:red;stroke-width:1px;stroke-linecap:butt;stroke-linejoin:miter;stroke-opacity:1" d="M 724.684,665.333 747.293,648.376 z" id="boundary" inkscape:connector-curvature="0" />
	<path style="fill:none;stroke:red;stroke-width:1px;stroke-linecap:butt;stroke-linejoin:miter;stroke-opacity:1" d="M 724.684,693.595 727.51,721.858 z" id="boundary" inkscape:connector-curvature="0" />
	<path style="fill:none;stroke:red;stroke-width:1px;stroke-linecap:butt;stroke-linejoin:miter;stroke-opacity:1" d="M 727.51,721.858 733.162,775.556 z" id="boundary" inkscape:connector-curvature="0" />
	<path style="fill:none;stroke:red;stroke-width:1px;stroke-linecap:butt;stroke-linejoin:miter;stroke-opacity:1" d="M 733.162,340.319 744.467,312.057 z" id="boundary" inkscape:connector-curvature="0" />
	<path style="fill:none;stroke:red;stroke-width:1px;stroke-linecap:butt;stroke-linejoin:miter;stroke-opacity:1" d="M 735.989,388.365 761.425,402.496 z" id="boundary" inkscape:connector-curvature="0" />
	<path style="fill:none;stroke:red;stroke-width:1px;stroke-linecap:butt;stroke-linejoin:miter;stroke-opacity:1" d="M 744.467,312.057 758.598,269.664 z" id="boundary" inkscape:connector-curvature="0" />
	<path style="fill:none;stroke:red;stroke-width:1px;stroke-linecap:butt;stroke-linejoin:miter;stroke-opacity:1" d="M 747.293,23.7835 769.903,43.567 z" id="boundary" inkscape:connector-curvature="0" />
	<path style="fill:none;stroke:red;stroke-width:1px;stroke-linecap:butt;stroke-linejoin:miter;stroke-opacity:1" d="M 747.293,648.376 772.729,634.245 z" id="boundary" inkscape:connector-curvature="0" />
	<path style="fill:none;stroke:red;stroke-width:1px;stroke-linecap:butt;stroke-linejoin:miter;stroke-opacity:1" d="M 752.946,162.268 758.598,190.53 z" id="boundary" inkscape:connector-curvature="0" />
	<path style="fill:none;stroke:red;stroke-width:1px;stroke-linecap:butt;stroke-linejoin:miter;stroke-opacity:1" d="M 752.946,162.268 764.251,134.006 z" id="boundary" inkscape:connector-curvature="0" />
	<path style="fill:none;stroke:red;stroke-width:1px;stroke-linecap:butt;stroke-linejoin:miter;stroke-opacity:1" d="M 758.598,190.53 764.251,218.792 z" id="boundary" inkscape:connector-curvature="0" />
	<path style="fill:none;stroke:red;stroke-width:1px;stroke-linecap:butt;stroke-linejoin:miter;stroke-opacity:1" d="M 758.598,269.664 764.251,218.792 z" id="boundary" inkscape:connector-curvature="0" />
	<path style="fill:none;stroke:red;stroke-width:1px;stroke-linecap:butt;stroke-linejoin:miter;stroke-opacity:1" d="M 761.425,402.496 784.034,419.453 z" id="boundary" inkscape:connector-curvature="0" />
	<path style="fill:none;stroke:red;stroke-width:1px;stroke-linecap:butt;stroke-linejoin:miter;stroke-opacity:1" d="M 764.251,134.006 775.556,105.744 z" id="boundary" inkscape:connector-curvature="0" />
	<path style="fill:none;stroke:red;stroke-width:1px;stroke-linecap:butt;stroke-linejoin:miter;stroke-opacity:1" d="M 769.903,43.567 775.556,77.4815 z" id="boundary" inkscape:connector-curvature="0" />
	<path style="fill:none;stroke:red;stroke-width:1px;stroke-linecap:butt;stroke-linejoin:miter;stroke-opacity:1" d="M 772.729,634.245 795.339,611.635 z" id="boundary" inkscape:connector-curvature="0" />
	<path style="fill:none;stroke:red;stroke-width:1px;stroke-linecap:butt;stroke-linejoin:miter;stroke-opacity:1" d="M 775.556,77.4815 775.556,105.744 z" id="boundary" inkscape:connector-curvature="0" />
	<path style="fill:none;stroke:red;stroke-width:1px;stroke-linecap:butt;stroke-linejoin:miter;stroke-opacity:1" d="M 784.034,419.453 803.818,442.063 z" id="boundary" inkscape:connector-curvature="0" />
	<path style="fill:none;stroke:red;stroke-width:1px;stroke-linecap:butt;stroke-linejoin:miter;stroke-opacity:1" d="M 795.339,611.635 812.296,589.026 z" id="boundary" inkscape:connector-curvature="0" />
	<path style="fill:none;stroke:red;stroke-width:1px;stroke-linecap:butt;stroke-linejoin:miter;stroke-opacity:1" d="M 803.818,442.063 820.775,464.672 z" id="boundary" inkscape:connector-curvature="0" />
	<path style="fill:none;stroke:red;stroke-width:1px;stroke-linecap:butt;stroke-linejoin:miter;stroke-opacity:1" d="M 812.296,589.026 829.254,566.416 z" id="boundary" inkscape:connector-curvature="0" />
	<path style="fill:none;stroke:red;stroke-width:1px;stroke-linecap:butt;stroke-linejoin:miter;stroke-opacity:1" d="M 820.775,464.672 832.08,492.934 z" id="boundary" inkscape:connector-curvature="0" />
	<path style="fill:none;stroke:red;stroke-width:1px;stroke-linecap:butt;stroke-linejoin:miter;stroke-opacity:1" d="M 829.254,566.416 834.906,538.154 z" id="boundary" inkscape:connector-curvature="0" />
	<path style="fill:none;stroke:red;stroke-width:1px;stroke-linecap:butt;stroke-linejoin:miter;stroke-opacity:1" d="M 832.08,492.934 834.906,538.154 z" id="boundary" inkscape:connector-curvature="0" />
	<circle cx="4" cy="834.906" r="4" fill="#0" id="circle0"/>
	<circle cx="4" cy="863.168" r="4" fill="#0" id="circle1"/>
	<circle cx="4" cy="891.43" r="4" fill="#0" id="circle2"/>
	<circle cx="9.65242" cy="800.991" r="4" fill="#0" id="circle3"/>
	<circle cx="9.65242" cy="919.692" r="4" fill="#0" id="circle4"/>
	<circle cx="15.3048" cy="772.729" r="4" fill="#0" id="circle5"/>
	<circle cx="20.9573" cy="947.954" r="4" fill="#0" id="circle6"/>
	<circle cx="37.9145" cy="750.12" r="4" fill="#0" id="circle7"/>
	<circle cx="40.7407" cy="970.564" r="4" fill="#0" id="circle8"/>
	<circle cx="54.8718" cy="512.718" r="4" fill="#0" id="circle9"/>
	<circle cx="54.8718" cy="540.98" r="4" fill="#0" id="circle10"/>
	<circle cx="60.5242" cy="733.162" r="4" fill="#0" id="circle11"/>
	<circle cx="66.1766" cy="478.803" r="4" fill="#0" id="circle12"/>
	<circle cx="66.1766" cy="569.242" r="4" fill="#0" id="circle13"/>
	<circle cx="66.1766" cy="984.695" r="4" fill="#0" id="circle14"/>
	<circle cx="83.1339" cy="456.194" r="4" fill="#0" id="circle15"/>
	<circle cx="83.1339" cy="591.852" r="4" fill="#0" id="circle16"/>
	<circle cx="88.7863" cy="727.51" r="4" fill="#0" id="circle17"/>
	<circle cx="94.4387" cy="990.348" r="4" fill="#0" id="circle18"/>
	<circle cx="105.744" cy="611.635" r="4" fill="#0" id="circle19"/>
	<circle cx="111.396" cy="444.889" r="4" fill="#0" id="circle20"/>
	<circle cx="117.048" cy="727.51" r="4" fill="#0" id="circle21"/>
	<circle cx="122.701" cy="996" r="4" fill="#0" id="circle22"/>
	<circle cx="131.179" cy="625.766" r="4" fill="#0" id="circle23"/>
	<circle cx="139.658" cy="439.236" r="4" fill="#0" id="circle24"/>
	<circle cx="145.311" cy="727.51" r="4" fill="#0" id="circle25"/>
	<circle cx="150.963" cy="996" r="4" fill="#0" id="circle26"/>
	<circle cx="156.615" cy="639.897" r="4" fill="#0" id="circle27"/>
	<circle cx="167.92" cy="433.584" r="4" fill="#0" id="circle28"/>
	<circle cx="173.573" cy="730.336" r="4" fill="#0" id="circle29"/>
	<circle cx="179.225" cy="996" r="4" fill="#0" id="circle30"/>
	<circle cx="184.877" cy="645.55" r="4" fill="#0" id="circle31"/>
	<circle cx="196.182" cy="433.584" r="4" fill="#0" id="circle32"/>
	<circle cx="201.835" cy="738.815" r="4" fill="#0" id="circle33"/>
	<circle cx="207.487" cy="990.348" r="4" fill="#0" id="circle34"/>
	<circle cx="213.14" cy="654.028" r="4" fill="#0" id="circle35"/>
	<circle cx="224.444" cy="427.932" r="4" fill="#0" id="circle36"/>
	<circle cx="230.097" cy="727.51" r="4" fill="#0" id="circle37"/>
	<circle cx="235.749" cy="979.043" r="4" fill="#0" id="circle38"/>
	<circle cx="241.402" cy="662.507" r="4" fill="#0" id="circle39"/>
	<circle cx="252.707" cy="416.627" r="4" fill="#0" id="circle40"/>
	<circle cx="258.359" cy="721.858" r="4" fill="#0" id="circle41"/>
	<circle cx="264.011" cy="973.39" r="4" fill="#0" id="circle42"/>
	<circle cx="269.664" cy="394.017" r="4" fill="#0" id="circle43"/>
	<circle cx="269.664" cy="656.855" r="4" fill="#0" id="circle44"/>
	<circle cx="275.316" cy="685.117" r="4" fill="#0" id="circle45"/>
	<circle cx="292.274" cy="967.738" r="4" fill="#0" id="circle46"/>
	<circle cx="297.926" cy="280.969" r="4" fill="#0" id="circle47"/>
	<circle cx="297.926" cy="388.365" r="4" fill="#0" id="circle48"/>
	<circle cx="303.578" cy="252.707" r="4" fill="#0" id="circle49"/>
	<circle cx="303.578" cy="309.231" r="4" fill="#0" id="circle50"/>
	<circle cx="314.883" cy="224.444" r="4" fill="#0" id="circle51"/>
	<circle cx="314.883" cy="337.493" r="4" fill="#0" id="circle52"/>
	<circle cx="320.536" cy="54.8718" r="4" fill="#0" id="circle53"/>
	<circle cx="320.536" cy="83.1339" r="4" fill="#0" id="circle54"/>
	<circle cx="320.536" cy="111.396" r="4" fill="#0" id="circle55"/>
	<circle cx="320.536" cy="973.39" r="4" fill="#0" id="circle56"/>
	<circle cx="326.188" cy="382.712" r="4" fill="#0" id="circle57"/>
	<circle cx="329.014" cy="139.658" r="4" fill="#0" id="circle58"/>
	<circle cx="329.014" cy="199.009" r="4" fill="#0" id="circle59"/>
	<circle cx="337.493" cy="167.92" r="4" fill="#0" id="circle60"/>
	<circle cx="343.145" cy="32.2621" r="4" fill="#0" id="circle61"/>
	<circle cx="348.798" cy="973.39" r="4" fill="#0" id="circle62"/>
	<circle cx="365.755" cy="15.3048" r="4" fill="#0" id="circle63"/>
	<circle cx="377.06" cy="973.39" r="4" fill="#0" id="circle64"/>
	<circle cx="394.017" cy="9.65242" r="4" fill="#0" id="circle65"/>
	<circle cx="405.322" cy="979.043" r="4" fill="#0" id="circle66"/>
	<circle cx="422.279" cy="4" r="4" fill="#0" id="circle67"/>
	<circle cx="433.584" cy="984.695" r="4" fill="#0" id="circle68"/>
	<circle cx="450.541" cy="12.4786" r="4" fill="#0" id="circle69"/>
	<circle cx="461.846" cy="987.521" r="4" fill="#0" id="circle70"/>
	<circle cx="475.977" cy="26.6097" r="4" fill="#0" id="circle71"/>
	<circle cx="490.108" cy="990.348" r="4" fill="#0" id="circle72"/>
	<circle cx="498.587" cy="43.567" r="4" fill="#0" id="circle73"/>
	<circle cx="518.37" cy="996" r="4" fill="#0" id="circle74"/>
	<circle cx="526.849" cy="43.567" r="4" fill="#0" id="circle75"/>
	<circle cx="546.632" cy="996" r="4" fill="#0" id="circle76"/>
	<circle cx="555.111" cy="43.567" r="4" fill="#0" id="circle77"/>
	<circle cx="574.895" cy="996" r="4" fill="#0" id="circle78"/>
	<circle cx="583.373" cy="43.567" r="4" fill="#0" id="circle79"/>
	<circle cx="603.157" cy="996" r="4" fill="#0" id="circle80"/>
	<circle cx="611.635" cy="32.2621" r="4" fill="#0" id="circle81"/>
	<circle cx="631.419" cy="996" r="4" fill="#0" id="circle82"/>
	<circle cx="637.071" cy="15.3048" r="4" fill="#0" id="circle83"/>
	<circle cx="659.681" cy="996" r="4" fill="#0" id="circle84"/>
	<circle cx="665.333" cy="9.65242" r="4" fill="#0" id="circle85"/>
	<circle cx="682.291" cy="979.043" r="4" fill="#0" id="circle86"/>
	<circle cx="693.595" cy="4" r="4" fill="#0" id="circle87"/>
	<circle cx="704.9" cy="956.433" r="4" fill="#0" id="circle88"/>
	<circle cx="713.379" cy="914.04" r="4" fill="#0" id="circle89"/>
	<circle cx="719.031" cy="365.755" r="4" fill="#0" id="circle90"/>
	<circle cx="719.031" cy="800.991" r="4" fill="#0" id="circle91"/>
	<circle cx="719.031" cy="880.125" r="4" fill="#0" id="circle92"/>
	<circle cx="721.858" cy="9.65242" r="4" fill="#0" id="circle93"/>
	<circle cx="724.684" cy="665.333" r="4" fill="#0" id="circle94"/>
	<circle cx="724.684" cy="693.595" r="4" fill="#0" id="circle95"/>
	<circle cx="724.684" cy="829.254" r="4" fill="#0" id="circle96"/>
	<circle cx="727.51" cy="721.858" r="4" fill="#0" id="circle97"/>
	<circle cx="733.162" cy="340.319" r="4" fill="#0" id="circle98"/>
	<circle cx="733.162" cy="775.556" r="4" fill="#0" id="circle99"/>
	<circle cx="735.989" cy="388.365" r="4" fill="#0" id="circle100"/>
	<circle cx="744.467" cy="312.057" r="4" fill="#0" id="circle101"/>
	<circle cx="747.293" cy="23.7835" r="4" fill="#0" id="circle102"/>
	<circle cx="747.293" cy="648.376" r="4" fill="#0" id="circle103"/>
	<circle cx="752.946" cy="162.268" r="4" fill="#0" id="circle104"/>
	<circle cx="758.598" cy="190.53" r="4" fill="#0" id="circle105"/>
	<circle cx="758.598" cy="269.664" r="4" fill="#0" id="circle106"/>
	<circle cx="761.425" cy="402.496" r="4" fill="#0" id="circle107"/>
	<circle cx="764.251" cy="134.006" r="4" fill="#0" id="circle108"/>
	<circle cx="764.251" cy="218.792" r="4" fill="#0" id="circle109"/>
	<circle cx="769.903" cy="43.567" r="4" fill="#0" id="circle110"/>
	<circle cx="772.729" cy="634.245" r="4" fill="#0" id="circle111"/>
	<circle cx="775.556" cy="77.4815" r="4" fill="#0" id="circle112"/>
	<circle cx="775.556" cy="105.744" r="4" fill="#0" id="circle113"/>
	<circle cx="784.034" cy="419.453" r="4" fill="#0" id="circle114"/>
	<circle cx="795.339" cy="611.635" r="4" fill="#0" id="circle115"/>
	<circle cx="803.818" cy="442.063" r="4" fill="#0" id="circle116"/>
	<circle cx="812.296" cy="589.026" r="4" fill="#0" id="circle117"/>
	<circle cx="820.775" cy="464.672" r="4" fill="#0" id="circle118"/>
	<circle cx="829.254" cy="566.416" r="4" fill="#0" id="circle119"/>
	<circle cx="832.08" cy="492.934" r="4" fill="#0" id="circle120"/>
	<circle cx="834.906" cy="538.154" r="4" fill="#0" id="circle121"/>
	</g>
</svg>