<?xml version="1.0" encoding="UTF-8" standalone="no"?>
<!-- Created with CurveBenchmark -->
<svg
	xmlns:dc="http://purl.org/dc/elements/1.1/"
	xmlns:cc="http://creativecommons.org/ns#"
	xmlns:rdf="http://www.w3.org/1999/02/22-rdf-syntax-ns#"
	xmlns:svg="http://www.w3.org/2000/svg"
	xmlns="http://www.w3.org/2000/svg"
	xmlns:sodipodi="http://sodipodi.sourceforge.net/DTD/sodipodi-0.dtd"
	xmlns:inkscape="http://www.inkscape.org/namespaces/inkscape"
	width="1000"
	height="1000"
	id="svg2"
	version="1.1"
	sodipodi:docname="manifold/discur-dude12occ4.png.txt">
<defs
	id="defs4" />
<metadata
	id="metadata7">
	<rdf:RDF>
		<cc:Work
			rdf:about="">
			<dc:format>image/svg+xml</dc:format>
			<dc:type
				rdf:resource="http://purl.org/dc/dcmitype/StillImage" />
			<dc:title></dc:title>
		</cc:Work>
	</rdf:RDF>
</metadata>
<g
	inkscape:label="Layer 1"
	inkscape:groupmode="layer"
	id="layer1">
	<path style="fill:none;stroke:red;stroke-width:1px;stroke-linecap:butt;stroke-linejoin:miter;stroke-opacity:1" d="M 4,237.747 13.5019,218.743 z" id="boundary" inkscape:connector-curvature="0" />
	<path style="fill:none;stroke:red;stroke-width:1px;stroke-linecap:butt;stroke-linejoin:miter;stroke-opacity:1" d="M 4,237.747 15.4023,252.95 z" id="boundary" inkscape:connector-curvature="0" />
	<path style="fill:none;stroke:red;stroke-width:1px;stroke-linecap:butt;stroke-linejoin:miter;stroke-opacity:1" d="M 4,646.33 13.5019,617.824 z" id="boundary" inkscape:connector-curvature="0" />
	<path style="fill:none;stroke:red;stroke-width:1px;stroke-linecap:butt;stroke-linejoin:miter;stroke-opacity:1" d="M 4,646.33 23.0038,652.031 z" id="boundary" inkscape:connector-curvature="0" />
	<path style="fill:none;stroke:red;stroke-width:1px;stroke-linecap:butt;stroke-linejoin:miter;stroke-opacity:1" d="M 13.5019,142.728 13.5019,161.732 z" id="boundary" inkscape:connector-curvature="0" />
	<path style="fill:none;stroke:red;stroke-width:1px;stroke-linecap:butt;stroke-linejoin:miter;stroke-opacity:1" d="M 13.5019,142.728 32.5057,137.027 z" id="boundary" inkscape:connector-curvature="0" />
	<path style="fill:none;stroke:red;stroke-width:1px;stroke-linecap:butt;stroke-linejoin:miter;stroke-opacity:1" d="M 13.5019,161.732 13.5019,180.736 z" id="boundary" inkscape:connector-curvature="0" />
	<path style="fill:none;stroke:red;stroke-width:1px;stroke-linecap:butt;stroke-linejoin:miter;stroke-opacity:1" d="M 13.5019,180.736 13.5019,199.739 z" id="boundary" inkscape:connector-curvature="0" />
	<path style="fill:none;stroke:red;stroke-width:1px;stroke-linecap:butt;stroke-linejoin:miter;stroke-opacity:1" d="M 13.5019,199.739 13.5019,218.743 z" id="boundary" inkscape:connector-curvature="0" />
	<path style="fill:none;stroke:red;stroke-width:1px;stroke-linecap:butt;stroke-linejoin:miter;stroke-opacity:1" d="M 13.5019,560.812 13.5019,579.816 z" id="boundary" inkscape:connector-curvature="0" />
	<path style="fill:none;stroke:red;stroke-width:1px;stroke-linecap:butt;stroke-linejoin:miter;stroke-opacity:1" d="M 13.5019,560.812 32.5057,555.111 z" id="boundary" inkscape:connector-curvature="0" />
	<path style="fill:none;stroke:red;stroke-width:1px;stroke-linecap:butt;stroke-linejoin:miter;stroke-opacity:1" d="M 13.5019,579.816 13.5019,598.82 z" id="boundary" inkscape:connector-curvature="0" />
	<path style="fill:none;stroke:red;stroke-width:1px;stroke-linecap:butt;stroke-linejoin:miter;stroke-opacity:1" d="M 13.5019,598.82 13.5019,617.824 z" id="boundary" inkscape:connector-curvature="0" />
	<path style="fill:none;stroke:red;stroke-width:1px;stroke-linecap:butt;stroke-linejoin:miter;stroke-opacity:1" d="M 15.4023,252.95 34.4061,252.95 z" id="boundary" inkscape:connector-curvature="0" />
	<path style="fill:none;stroke:red;stroke-width:1px;stroke-linecap:butt;stroke-linejoin:miter;stroke-opacity:1" d="M 23.0038,652.031 42.0077,652.031 z" id="boundary" inkscape:connector-curvature="0" />
	<path style="fill:none;stroke:red;stroke-width:1px;stroke-linecap:butt;stroke-linejoin:miter;stroke-opacity:1" d="M 32.5057,137.027 51.5096,137.027 z" id="boundary" inkscape:connector-curvature="0" />
	<path style="fill:none;stroke:red;stroke-width:1px;stroke-linecap:butt;stroke-linejoin:miter;stroke-opacity:1" d="M 32.5057,555.111 51.5096,555.111 z" id="boundary" inkscape:connector-curvature="0" />
	<path style="fill:none;stroke:red;stroke-width:1px;stroke-linecap:butt;stroke-linejoin:miter;stroke-opacity:1" d="M 34.4061,252.95 53.41,252.95 z" id="boundary" inkscape:connector-curvature="0" />
	<path style="fill:none;stroke:red;stroke-width:1px;stroke-linecap:butt;stroke-linejoin:miter;stroke-opacity:1" d="M 42.0077,652.031 61.0115,652.031 z" id="boundary" inkscape:connector-curvature="0" />
	<path style="fill:none;stroke:red;stroke-width:1px;stroke-linecap:butt;stroke-linejoin:miter;stroke-opacity:1" d="M 51.5096,137.027 70.5134,137.027 z" id="boundary" inkscape:connector-curvature="0" />
	<path style="fill:none;stroke:red;stroke-width:1px;stroke-linecap:butt;stroke-linejoin:miter;stroke-opacity:1" d="M 51.5096,555.111 70.5134,555.111 z" id="boundary" inkscape:connector-curvature="0" />
	<path style="fill:none;stroke:red;stroke-width:1px;stroke-linecap:butt;stroke-linejoin:miter;stroke-opacity:1" d="M 53.41,252.95 72.4138,252.95 z" id="boundary" inkscape:connector-curvature="0" />
	<path style="fill:none;stroke:red;stroke-width:1px;stroke-linecap:butt;stroke-linejoin:miter;stroke-opacity:1" d="M 61.0115,652.031 78.1149,661.533 z" id="boundary" inkscape:connector-curvature="0" />
	<path style="fill:none;stroke:red;stroke-width:1px;stroke-linecap:butt;stroke-linejoin:miter;stroke-opacity:1" d="M 70.5134,137.027 89.5172,140.828 z" id="boundary" inkscape:connector-curvature="0" />
	<path style="fill:none;stroke:red;stroke-width:1px;stroke-linecap:butt;stroke-linejoin:miter;stroke-opacity:1" d="M 70.5134,555.111 87.6169,564.613 z" id="boundary" inkscape:connector-curvature="0" />
	<path style="fill:none;stroke:red;stroke-width:1px;stroke-linecap:butt;stroke-linejoin:miter;stroke-opacity:1" d="M 72.4138,252.95 91.4176,256.751 z" id="boundary" inkscape:connector-curvature="0" />
	<path style="fill:none;stroke:red;stroke-width:1px;stroke-linecap:butt;stroke-linejoin:miter;stroke-opacity:1" d="M 78.1149,661.533 97.1188,661.533 z" id="boundary" inkscape:connector-curvature="0" />
	<path style="fill:none;stroke:red;stroke-width:1px;stroke-linecap:butt;stroke-linejoin:miter;stroke-opacity:1" d="M 87.6169,564.613 106.621,564.613 z" id="boundary" inkscape:connector-curvature="0" />
	<path style="fill:none;stroke:red;stroke-width:1px;stroke-linecap:butt;stroke-linejoin:miter;stroke-opacity:1" d="M 89.5172,140.828 108.521,146.529 z" id="boundary" inkscape:connector-curvature="0" />
	<path style="fill:none;stroke:red;stroke-width:1px;stroke-linecap:butt;stroke-linejoin:miter;stroke-opacity:1" d="M 91.4176,256.751 110.421,262.452 z" id="boundary" inkscape:connector-curvature="0" />
	<path style="fill:none;stroke:red;stroke-width:1px;stroke-linecap:butt;stroke-linejoin:miter;stroke-opacity:1" d="M 97.1188,661.533 116.123,661.533 z" id="boundary" inkscape:connector-curvature="0" />
	<path style="fill:none;stroke:red;stroke-width:1px;stroke-linecap:butt;stroke-linejoin:miter;stroke-opacity:1" d="M 106.621,564.613 125.625,564.613 z" id="boundary" inkscape:connector-curvature="0" />
	<path style="fill:none;stroke:red;stroke-width:1px;stroke-linecap:butt;stroke-linejoin:miter;stroke-opacity:1" d="M 108.521,146.529 127.525,146.529 z" id="boundary" inkscape:connector-curvature="0" />
	<path style="fill:none;stroke:red;stroke-width:1px;stroke-linecap:butt;stroke-linejoin:miter;stroke-opacity:1" d="M 110.421,262.452 129.425,262.452 z" id="boundary" inkscape:connector-curvature="0" />
	<path style="fill:none;stroke:red;stroke-width:1px;stroke-linecap:butt;stroke-linejoin:miter;stroke-opacity:1" d="M 116.123,661.533 135.126,661.533 z" id="boundary" inkscape:connector-curvature="0" />
	<path style="fill:none;stroke:red;stroke-width:1px;stroke-linecap:butt;stroke-linejoin:miter;stroke-opacity:1" d="M 118.023,408.782 118.023,427.785 z" id="boundary" inkscape:connector-curvature="0" />
	<path style="fill:none;stroke:red;stroke-width:1px;stroke-linecap:butt;stroke-linejoin:miter;stroke-opacity:1" d="M 118.023,408.782 127.525,389.778 z" id="boundary" inkscape:connector-curvature="0" />
	<path style="fill:none;stroke:red;stroke-width:1px;stroke-linecap:butt;stroke-linejoin:miter;stroke-opacity:1" d="M 118.023,427.785 137.027,433.487 z" id="boundary" inkscape:connector-curvature="0" />
	<path style="fill:none;stroke:red;stroke-width:1px;stroke-linecap:butt;stroke-linejoin:miter;stroke-opacity:1" d="M 125.625,564.613 144.628,564.613 z" id="boundary" inkscape:connector-curvature="0" />
	<path style="fill:none;stroke:red;stroke-width:1px;stroke-linecap:butt;stroke-linejoin:miter;stroke-opacity:1" d="M 127.525,146.529 146.529,146.529 z" id="boundary" inkscape:connector-curvature="0" />
	<path style="fill:none;stroke:red;stroke-width:1px;stroke-linecap:butt;stroke-linejoin:miter;stroke-opacity:1" d="M 127.525,389.778 137.027,370.774 z" id="boundary" inkscape:connector-curvature="0" />
	<path style="fill:none;stroke:red;stroke-width:1px;stroke-linecap:butt;stroke-linejoin:miter;stroke-opacity:1" d="M 129.425,262.452 148.429,262.452 z" id="boundary" inkscape:connector-curvature="0" />
	<path style="fill:none;stroke:red;stroke-width:1px;stroke-linecap:butt;stroke-linejoin:miter;stroke-opacity:1" d="M 135.126,661.533 154.13,661.533 z" id="boundary" inkscape:connector-curvature="0" />
	<path style="fill:none;stroke:red;stroke-width:1px;stroke-linecap:butt;stroke-linejoin:miter;stroke-opacity:1" d="M 137.027,370.774 156.031,361.272 z" id="boundary" inkscape:connector-curvature="0" />
	<path style="fill:none;stroke:red;stroke-width:1px;stroke-linecap:butt;stroke-linejoin:miter;stroke-opacity:1" d="M 137.027,433.487 156.031,437.287 z" id="boundary" inkscape:connector-curvature="0" />
	<path style="fill:none;stroke:red;stroke-width:1px;stroke-linecap:butt;stroke-linejoin:miter;stroke-opacity:1" d="M 144.628,564.613 163.632,564.613 z" id="boundary" inkscape:connector-curvature="0" />
	<path style="fill:none;stroke:red;stroke-width:1px;stroke-linecap:butt;stroke-linejoin:miter;stroke-opacity:1" d="M 146.529,146.529 165.533,146.529 z" id="boundary" inkscape:connector-curvature="0" />
	<path style="fill:none;stroke:red;stroke-width:1px;stroke-linecap:butt;stroke-linejoin:miter;stroke-opacity:1" d="M 148.429,262.452 167.433,262.452 z" id="boundary" inkscape:connector-curvature="0" />
	<path style="fill:none;stroke:red;stroke-width:1px;stroke-linecap:butt;stroke-linejoin:miter;stroke-opacity:1" d="M 154.13,661.533 173.134,661.533 z" id="boundary" inkscape:connector-curvature="0" />
	<path style="fill:none;stroke:red;stroke-width:1px;stroke-linecap:butt;stroke-linejoin:miter;stroke-opacity:1" d="M 156.031,361.272 165.533,342.268 z" id="boundary" inkscape:connector-curvature="0" />
	<path style="fill:none;stroke:red;stroke-width:1px;stroke-linecap:butt;stroke-linejoin:miter;stroke-opacity:1" d="M 156.031,437.287 171.234,422.084 z" id="boundary" inkscape:connector-curvature="0" />
	<path style="fill:none;stroke:red;stroke-width:1px;stroke-linecap:butt;stroke-linejoin:miter;stroke-opacity:1" d="M 163.632,564.613 182.636,564.613 z" id="boundary" inkscape:connector-curvature="0" />
	<path style="fill:none;stroke:red;stroke-width:1px;stroke-linecap:butt;stroke-linejoin:miter;stroke-opacity:1" d="M 165.533,146.529 184.536,146.529 z" id="boundary" inkscape:connector-curvature="0" />
	<path style="fill:none;stroke:red;stroke-width:1px;stroke-linecap:butt;stroke-linejoin:miter;stroke-opacity:1" d="M 165.533,342.268 180.736,327.065 z" id="boundary" inkscape:connector-curvature="0" />
	<path style="fill:none;stroke:red;stroke-width:1px;stroke-linecap:butt;stroke-linejoin:miter;stroke-opacity:1" d="M 167.433,262.452 186.437,262.452 z" id="boundary" inkscape:connector-curvature="0" />
	<path style="fill:none;stroke:red;stroke-width:1px;stroke-linecap:butt;stroke-linejoin:miter;stroke-opacity:1" d="M 171.234,422.084 186.437,404.981 z" id="boundary" inkscape:connector-curvature="0" />
	<path style="fill:none;stroke:red;stroke-width:1px;stroke-linecap:butt;stroke-linejoin:miter;stroke-opacity:1" d="M 173.134,661.533 192.138,661.533 z" id="boundary" inkscape:connector-curvature="0" />
	<path style="fill:none;stroke:red;stroke-width:1px;stroke-linecap:butt;stroke-linejoin:miter;stroke-opacity:1" d="M 180.736,327.065 190.238,308.061 z" id="boundary" inkscape:connector-curvature="0" />
	<path style="fill:none;stroke:red;stroke-width:1px;stroke-linecap:butt;stroke-linejoin:miter;stroke-opacity:1" d="M 182.636,564.613 201.64,564.613 z" id="boundary" inkscape:connector-curvature="0" />
	<path style="fill:none;stroke:red;stroke-width:1px;stroke-linecap:butt;stroke-linejoin:miter;stroke-opacity:1" d="M 184.536,146.529 203.54,146.529 z" id="boundary" inkscape:connector-curvature="0" />
	<path style="fill:none;stroke:red;stroke-width:1px;stroke-linecap:butt;stroke-linejoin:miter;stroke-opacity:1" d="M 186.437,262.452 205.441,262.452 z" id="boundary" inkscape:connector-curvature="0" />
	<path style="fill:none;stroke:red;stroke-width:1px;stroke-linecap:butt;stroke-linejoin:miter;stroke-opacity:1" d="M 186.437,404.981 203.54,395.479 z" id="boundary" inkscape:connector-curvature="0" />
	<path style="fill:none;stroke:red;stroke-width:1px;stroke-linecap:butt;stroke-linejoin:miter;stroke-opacity:1" d="M 190.238,308.061 203.54,285.257 z" id="boundary" inkscape:connector-curvature="0" />
	<path style="fill:none;stroke:red;stroke-width:1px;stroke-linecap:butt;stroke-linejoin:miter;stroke-opacity:1" d="M 192.138,661.533 211.142,661.533 z" id="boundary" inkscape:connector-curvature="0" />
	<path style="fill:none;stroke:red;stroke-width:1px;stroke-linecap:butt;stroke-linejoin:miter;stroke-opacity:1" d="M 201.64,564.613 218.743,574.115 z" id="boundary" inkscape:connector-curvature="0" />
	<path style="fill:none;stroke:red;stroke-width:1px;stroke-linecap:butt;stroke-linejoin:miter;stroke-opacity:1" d="M 203.54,146.529 222.544,146.529 z" id="boundary" inkscape:connector-curvature="0" />
	<path style="fill:none;stroke:red;stroke-width:1px;stroke-linecap:butt;stroke-linejoin:miter;stroke-opacity:1" d="M 203.54,285.257 205.441,262.452 z" id="boundary" inkscape:connector-curvature="0" />
	<path style="fill:none;stroke:red;stroke-width:1px;stroke-linecap:butt;stroke-linejoin:miter;stroke-opacity:1" d="M 203.54,395.479 214.943,376.475 z" id="boundary" inkscape:connector-curvature="0" />
	<path style="fill:none;stroke:red;stroke-width:1px;stroke-linecap:butt;stroke-linejoin:miter;stroke-opacity:1" d="M 203.54,921.885 203.54,940.889 z" id="boundary" inkscape:connector-curvature="0" />
	<path style="fill:none;stroke:red;stroke-width:1px;stroke-linecap:butt;stroke-linejoin:miter;stroke-opacity:1" d="M 203.54,921.885 213.042,902.881 z" id="boundary" inkscape:connector-curvature="0" />
	<path style="fill:none;stroke:red;stroke-width:1px;stroke-linecap:butt;stroke-linejoin:miter;stroke-opacity:1" d="M 203.54,940.889 203.54,959.893 z" id="boundary" inkscape:connector-curvature="0" />
	<path style="fill:none;stroke:red;stroke-width:1px;stroke-linecap:butt;stroke-linejoin:miter;stroke-opacity:1" d="M 203.54,959.893 203.54,978.897 z" id="boundary" inkscape:connector-curvature="0" />
	<path style="fill:none;stroke:red;stroke-width:1px;stroke-linecap:butt;stroke-linejoin:miter;stroke-opacity:1" d="M 203.54,978.897 213.042,996 z" id="boundary" inkscape:connector-curvature="0" />
	<path style="fill:none;stroke:red;stroke-width:1px;stroke-linecap:butt;stroke-linejoin:miter;stroke-opacity:1" d="M 211.142,661.533 228.245,671.034 z" id="boundary" inkscape:connector-curvature="0" />
	<path style="fill:none;stroke:red;stroke-width:1px;stroke-linecap:butt;stroke-linejoin:miter;stroke-opacity:1" d="M 213.042,902.881 228.245,887.678 z" id="boundary" inkscape:connector-curvature="0" />
	<path style="fill:none;stroke:red;stroke-width:1px;stroke-linecap:butt;stroke-linejoin:miter;stroke-opacity:1" d="M 213.042,996 232.046,994.1 z" id="boundary" inkscape:connector-curvature="0" />
	<path style="fill:none;stroke:red;stroke-width:1px;stroke-linecap:butt;stroke-linejoin:miter;stroke-opacity:1" d="M 214.943,376.475 233.946,376.475 z" id="boundary" inkscape:connector-curvature="0" />
	<path style="fill:none;stroke:red;stroke-width:1px;stroke-linecap:butt;stroke-linejoin:miter;stroke-opacity:1" d="M 218.743,574.115 237.747,574.115 z" id="boundary" inkscape:connector-curvature="0" />
	<path style="fill:none;stroke:red;stroke-width:1px;stroke-linecap:butt;stroke-linejoin:miter;stroke-opacity:1" d="M 222.544,146.529 239.648,156.031 z" id="boundary" inkscape:connector-curvature="0" />
	<path style="fill:none;stroke:red;stroke-width:1px;stroke-linecap:butt;stroke-linejoin:miter;stroke-opacity:1" d="M 228.245,671.034 247.249,671.034 z" id="boundary" inkscape:connector-curvature="0" />
	<path style="fill:none;stroke:red;stroke-width:1px;stroke-linecap:butt;stroke-linejoin:miter;stroke-opacity:1" d="M 228.245,887.678 237.747,868.674 z" id="boundary" inkscape:connector-curvature="0" />
	<path style="fill:none;stroke:red;stroke-width:1px;stroke-linecap:butt;stroke-linejoin:miter;stroke-opacity:1" d="M 232.046,994.1 247.249,982.697 z" id="boundary" inkscape:connector-curvature="0" />
	<path style="fill:none;stroke:red;stroke-width:1px;stroke-linecap:butt;stroke-linejoin:miter;stroke-opacity:1" d="M 233.946,376.475 243.448,357.471 z" id="boundary" inkscape:connector-curvature="0" />
	<path style="fill:none;stroke:red;stroke-width:1px;stroke-linecap:butt;stroke-linejoin:miter;stroke-opacity:1" d="M 237.747,574.115 256.751,574.115 z" id="boundary" inkscape:connector-curvature="0" />
	<path style="fill:none;stroke:red;stroke-width:1px;stroke-linecap:butt;stroke-linejoin:miter;stroke-opacity:1" d="M 237.747,868.674 247.249,849.67 z" id="boundary" inkscape:connector-curvature="0" />
	<path style="fill:none;stroke:red;stroke-width:1px;stroke-linecap:butt;stroke-linejoin:miter;stroke-opacity:1" d="M 239.648,156.031 258.651,156.031 z" id="boundary" inkscape:connector-curvature="0" />
	<path style="fill:none;stroke:red;stroke-width:1px;stroke-linecap:butt;stroke-linejoin:miter;stroke-opacity:1" d="M 243.448,357.471 262.452,338.467 z" id="boundary" inkscape:connector-curvature="0" />
	<path style="fill:none;stroke:red;stroke-width:1px;stroke-linecap:butt;stroke-linejoin:miter;stroke-opacity:1" d="M 247.249,671.034 266.253,671.034 z" id="boundary" inkscape:connector-curvature="0" />
	<path style="fill:none;stroke:red;stroke-width:1px;stroke-linecap:butt;stroke-linejoin:miter;stroke-opacity:1" d="M 247.249,849.67 251.05,826.866 z" id="boundary" inkscape:connector-curvature="0" />
	<path style="fill:none;stroke:red;stroke-width:1px;stroke-linecap:butt;stroke-linejoin:miter;stroke-opacity:1" d="M 247.249,982.697 262.452,965.594 z" id="boundary" inkscape:connector-curvature="0" />
	<path style="fill:none;stroke:red;stroke-width:1px;stroke-linecap:butt;stroke-linejoin:miter;stroke-opacity:1" d="M 251.05,826.866 260.552,807.862 z" id="boundary" inkscape:connector-curvature="0" />
	<path style="fill:none;stroke:red;stroke-width:1px;stroke-linecap:butt;stroke-linejoin:miter;stroke-opacity:1" d="M 256.751,574.115 275.755,574.115 z" id="boundary" inkscape:connector-curvature="0" />
	<path style="fill:none;stroke:red;stroke-width:1px;stroke-linecap:butt;stroke-linejoin:miter;stroke-opacity:1" d="M 258.651,156.031 277.655,156.031 z" id="boundary" inkscape:connector-curvature="0" />
	<path style="fill:none;stroke:red;stroke-width:1px;stroke-linecap:butt;stroke-linejoin:miter;stroke-opacity:1" d="M 260.552,807.862 270.054,788.858 z" id="boundary" inkscape:connector-curvature="0" />
	<path style="fill:none;stroke:red;stroke-width:1px;stroke-linecap:butt;stroke-linejoin:miter;stroke-opacity:1" d="M 262.452,338.467 277.655,325.165 z" id="boundary" inkscape:connector-curvature="0" />
	<path style="fill:none;stroke:red;stroke-width:1px;stroke-linecap:butt;stroke-linejoin:miter;stroke-opacity:1" d="M 262.452,965.594 277.655,952.291 z" id="boundary" inkscape:connector-curvature="0" />
	<path style="fill:none;stroke:red;stroke-width:1px;stroke-linecap:butt;stroke-linejoin:miter;stroke-opacity:1" d="M 266.253,671.034 285.257,671.034 z" id="boundary" inkscape:connector-curvature="0" />
	<path style="fill:none;stroke:red;stroke-width:1px;stroke-linecap:butt;stroke-linejoin:miter;stroke-opacity:1" d="M 270.054,788.858 285.257,773.655 z" id="boundary" inkscape:connector-curvature="0" />
	<path style="fill:none;stroke:red;stroke-width:1px;stroke-linecap:butt;stroke-linejoin:miter;stroke-opacity:1" d="M 275.755,574.115 294.759,574.115 z" id="boundary" inkscape:connector-curvature="0" />
	<path style="fill:none;stroke:red;stroke-width:1px;stroke-linecap:butt;stroke-linejoin:miter;stroke-opacity:1" d="M 277.655,156.031 296.659,156.031 z" id="boundary" inkscape:connector-curvature="0" />
	<path style="fill:none;stroke:red;stroke-width:1px;stroke-linecap:butt;stroke-linejoin:miter;stroke-opacity:1" d="M 277.655,325.165 290.958,309.962 z" id="boundary" inkscape:connector-curvature="0" />
	<path style="fill:none;stroke:red;stroke-width:1px;stroke-linecap:butt;stroke-linejoin:miter;stroke-opacity:1" d="M 277.655,952.291 287.157,933.287 z" id="boundary" inkscape:connector-curvature="0" />
	<path style="fill:none;stroke:red;stroke-width:1px;stroke-linecap:butt;stroke-linejoin:miter;stroke-opacity:1" d="M 285.257,671.034 304.261,671.034 z" id="boundary" inkscape:connector-curvature="0" />
	<path style="fill:none;stroke:red;stroke-width:1px;stroke-linecap:butt;stroke-linejoin:miter;stroke-opacity:1" d="M 285.257,773.655 294.759,754.651 z" id="boundary" inkscape:connector-curvature="0" />
	<path style="fill:none;stroke:red;stroke-width:1px;stroke-linecap:butt;stroke-linejoin:miter;stroke-opacity:1" d="M 287.157,933.287 300.46,918.084 z" id="boundary" inkscape:connector-curvature="0" />
	<path style="fill:none;stroke:red;stroke-width:1px;stroke-linecap:butt;stroke-linejoin:miter;stroke-opacity:1" d="M 290.958,309.962 309.962,300.46 z" id="boundary" inkscape:connector-curvature="0" />
	<path style="fill:none;stroke:red;stroke-width:1px;stroke-linecap:butt;stroke-linejoin:miter;stroke-opacity:1" d="M 294.759,574.115 313.762,574.115 z" id="boundary" inkscape:connector-curvature="0" />
	<path style="fill:none;stroke:red;stroke-width:1px;stroke-linecap:butt;stroke-linejoin:miter;stroke-opacity:1" d="M 294.759,754.651 304.261,735.648 z" id="boundary" inkscape:connector-curvature="0" />
	<path style="fill:none;stroke:red;stroke-width:1px;stroke-linecap:butt;stroke-linejoin:miter;stroke-opacity:1" d="M 296.659,156.031 315.663,156.031 z" id="boundary" inkscape:connector-curvature="0" />
	<path style="fill:none;stroke:red;stroke-width:1px;stroke-linecap:butt;stroke-linejoin:miter;stroke-opacity:1" d="M 300.46,918.084 315.663,904.782 z" id="boundary" inkscape:connector-curvature="0" />
	<path style="fill:none;stroke:red;stroke-width:1px;stroke-linecap:butt;stroke-linejoin:miter;stroke-opacity:1" d="M 304.261,671.034 323.264,671.034 z" id="boundary" inkscape:connector-curvature="0" />
	<path style="fill:none;stroke:red;stroke-width:1px;stroke-linecap:butt;stroke-linejoin:miter;stroke-opacity:1" d="M 304.261,735.648 313.762,716.644 z" id="boundary" inkscape:connector-curvature="0" />
	<path style="fill:none;stroke:red;stroke-width:1px;stroke-linecap:butt;stroke-linejoin:miter;stroke-opacity:1" d="M 309.962,300.46 328.966,300.46 z" id="boundary" inkscape:connector-curvature="0" />
	<path style="fill:none;stroke:red;stroke-width:1px;stroke-linecap:butt;stroke-linejoin:miter;stroke-opacity:1" d="M 313.762,574.115 332.766,574.115 z" id="boundary" inkscape:connector-curvature="0" />
	<path style="fill:none;stroke:red;stroke-width:1px;stroke-linecap:butt;stroke-linejoin:miter;stroke-opacity:1" d="M 313.762,716.644 317.563,693.839 z" id="boundary" inkscape:connector-curvature="0" />
	<path style="fill:none;stroke:red;stroke-width:1px;stroke-linecap:butt;stroke-linejoin:miter;stroke-opacity:1" d="M 315.663,156.031 334.667,156.031 z" id="boundary" inkscape:connector-curvature="0" />
	<path style="fill:none;stroke:red;stroke-width:1px;stroke-linecap:butt;stroke-linejoin:miter;stroke-opacity:1" d="M 315.663,904.782 325.165,885.778 z" id="boundary" inkscape:connector-curvature="0" />
	<path style="fill:none;stroke:red;stroke-width:1px;stroke-linecap:butt;stroke-linejoin:miter;stroke-opacity:1" d="M 317.563,693.839 323.264,671.034 z" id="boundary" inkscape:connector-curvature="0" />
	<path style="fill:none;stroke:red;stroke-width:1px;stroke-linecap:butt;stroke-linejoin:miter;stroke-opacity:1" d="M 325.165,885.778 334.667,866.774 z" id="boundary" inkscape:connector-curvature="0" />
	<path style="fill:none;stroke:red;stroke-width:1px;stroke-linecap:butt;stroke-linejoin:miter;stroke-opacity:1" d="M 328.966,300.46 346.069,309.962 z" id="boundary" inkscape:connector-curvature="0" />
	<path style="fill:none;stroke:red;stroke-width:1px;stroke-linecap:butt;stroke-linejoin:miter;stroke-opacity:1" d="M 332.766,574.115 349.87,583.617 z" id="boundary" inkscape:connector-curvature="0" />
	<path style="fill:none;stroke:red;stroke-width:1px;stroke-linecap:butt;stroke-linejoin:miter;stroke-opacity:1" d="M 334.667,156.031 353.67,156.031 z" id="boundary" inkscape:connector-curvature="0" />
	<path style="fill:none;stroke:red;stroke-width:1px;stroke-linecap:butt;stroke-linejoin:miter;stroke-opacity:1" d="M 334.667,866.774 347.969,842.069 z" id="boundary" inkscape:connector-curvature="0" />
	<path style="fill:none;stroke:red;stroke-width:1px;stroke-linecap:butt;stroke-linejoin:miter;stroke-opacity:1" d="M 346.069,309.962 351.77,328.966 z" id="boundary" inkscape:connector-curvature="0" />
	<path style="fill:none;stroke:red;stroke-width:1px;stroke-linecap:butt;stroke-linejoin:miter;stroke-opacity:1" d="M 347.969,842.069 363.172,828.766 z" id="boundary" inkscape:connector-curvature="0" />
	<path style="fill:none;stroke:red;stroke-width:1px;stroke-linecap:butt;stroke-linejoin:miter;stroke-opacity:1" d="M 349.87,583.617 368.874,583.617 z" id="boundary" inkscape:connector-curvature="0" />
	<path style="fill:none;stroke:red;stroke-width:1px;stroke-linecap:butt;stroke-linejoin:miter;stroke-opacity:1" d="M 351.77,328.966 355.571,347.969 z" id="boundary" inkscape:connector-curvature="0" />
	<path style="fill:none;stroke:red;stroke-width:1px;stroke-linecap:butt;stroke-linejoin:miter;stroke-opacity:1" d="M 353.67,156.031 370.774,165.533 z" id="boundary" inkscape:connector-curvature="0" />
	<path style="fill:none;stroke:red;stroke-width:1px;stroke-linecap:butt;stroke-linejoin:miter;stroke-opacity:1" d="M 355.571,347.969 355.571,380.276 z" id="boundary" inkscape:connector-curvature="0" />
	<path style="fill:none;stroke:red;stroke-width:1px;stroke-linecap:butt;stroke-linejoin:miter;stroke-opacity:1" d="M 355.571,380.276 365.073,397.379 z" id="boundary" inkscape:connector-curvature="0" />
	<path style="fill:none;stroke:red;stroke-width:1px;stroke-linecap:butt;stroke-linejoin:miter;stroke-opacity:1" d="M 363.172,828.766 372.674,809.762 z" id="boundary" inkscape:connector-curvature="0" />
	<path style="fill:none;stroke:red;stroke-width:1px;stroke-linecap:butt;stroke-linejoin:miter;stroke-opacity:1" d="M 365.073,397.379 374.575,414.483 z" id="boundary" inkscape:connector-curvature="0" />
	<path style="fill:none;stroke:red;stroke-width:1px;stroke-linecap:butt;stroke-linejoin:miter;stroke-opacity:1" d="M 368.874,583.617 384.077,560.812 z" id="boundary" inkscape:connector-curvature="0" />
	<path style="fill:none;stroke:red;stroke-width:1px;stroke-linecap:butt;stroke-linejoin:miter;stroke-opacity:1" d="M 370.774,165.533 389.778,165.533 z" id="boundary" inkscape:connector-curvature="0" />
	<path style="fill:none;stroke:red;stroke-width:1px;stroke-linecap:butt;stroke-linejoin:miter;stroke-opacity:1" d="M 372.674,809.762 382.176,790.759 z" id="boundary" inkscape:connector-curvature="0" />
	<path style="fill:none;stroke:red;stroke-width:1px;stroke-linecap:butt;stroke-linejoin:miter;stroke-opacity:1" d="M 374.575,414.483 374.575,433.487 z" id="boundary" inkscape:connector-curvature="0" />
	<path style="fill:none;stroke:red;stroke-width:1px;stroke-linecap:butt;stroke-linejoin:miter;stroke-opacity:1" d="M 374.575,433.487 384.077,450.59 z" id="boundary" inkscape:connector-curvature="0" />
	<path style="fill:none;stroke:red;stroke-width:1px;stroke-linecap:butt;stroke-linejoin:miter;stroke-opacity:1" d="M 382.176,790.759 395.479,775.556 z" id="boundary" inkscape:connector-curvature="0" />
	<path style="fill:none;stroke:red;stroke-width:1px;stroke-linecap:butt;stroke-linejoin:miter;stroke-opacity:1" d="M 384.077,450.59 393.579,467.693 z" id="boundary" inkscape:connector-curvature="0" />
	<path style="fill:none;stroke:red;stroke-width:1px;stroke-linecap:butt;stroke-linejoin:miter;stroke-opacity:1" d="M 384.077,560.812 393.579,541.808 z" id="boundary" inkscape:connector-curvature="0" />
	<path style="fill:none;stroke:red;stroke-width:1px;stroke-linecap:butt;stroke-linejoin:miter;stroke-opacity:1" d="M 389.778,165.533 403.08,133.226 z" id="boundary" inkscape:connector-curvature="0" />
	<path style="fill:none;stroke:red;stroke-width:1px;stroke-linecap:butt;stroke-linejoin:miter;stroke-opacity:1" d="M 393.579,467.693 393.579,486.697 z" id="boundary" inkscape:connector-curvature="0" />
	<path style="fill:none;stroke:red;stroke-width:1px;stroke-linecap:butt;stroke-linejoin:miter;stroke-opacity:1" d="M 393.579,486.697 403.08,503.801 z" id="boundary" inkscape:connector-curvature="0" />
	<path style="fill:none;stroke:red;stroke-width:1px;stroke-linecap:butt;stroke-linejoin:miter;stroke-opacity:1" d="M 393.579,522.805 393.579,541.808 z" id="boundary" inkscape:connector-curvature="0" />
	<path style="fill:none;stroke:red;stroke-width:1px;stroke-linecap:butt;stroke-linejoin:miter;stroke-opacity:1" d="M 393.579,522.805 403.08,503.801 z" id="boundary" inkscape:connector-curvature="0" />
	<path style="fill:none;stroke:red;stroke-width:1px;stroke-linecap:butt;stroke-linejoin:miter;stroke-opacity:1" d="M 395.479,775.556 410.682,762.253 z" id="boundary" inkscape:connector-curvature="0" />
	<path style="fill:none;stroke:red;stroke-width:1px;stroke-linecap:butt;stroke-linejoin:miter;stroke-opacity:1" d="M 403.08,76.2146 403.08,95.2184 z" id="boundary" inkscape:connector-curvature="0" />
	<path style="fill:none;stroke:red;stroke-width:1px;stroke-linecap:butt;stroke-linejoin:miter;stroke-opacity:1" d="M 403.08,76.2146 412.582,57.2107 z" id="boundary" inkscape:connector-curvature="0" />
	<path style="fill:none;stroke:red;stroke-width:1px;stroke-linecap:butt;stroke-linejoin:miter;stroke-opacity:1" d="M 403.08,95.2184 403.08,114.222 z" id="boundary" inkscape:connector-curvature="0" />
	<path style="fill:none;stroke:red;stroke-width:1px;stroke-linecap:butt;stroke-linejoin:miter;stroke-opacity:1" d="M 403.08,114.222 403.08,133.226 z" id="boundary" inkscape:connector-curvature="0" />
	<path style="fill:none;stroke:red;stroke-width:1px;stroke-linecap:butt;stroke-linejoin:miter;stroke-opacity:1" d="M 410.682,762.253 420.184,743.249 z" id="boundary" inkscape:connector-curvature="0" />
	<path style="fill:none;stroke:red;stroke-width:1px;stroke-linecap:butt;stroke-linejoin:miter;stroke-opacity:1" d="M 412.582,57.2107 422.084,38.2069 z" id="boundary" inkscape:connector-curvature="0" />
	<path style="fill:none;stroke:red;stroke-width:1px;stroke-linecap:butt;stroke-linejoin:miter;stroke-opacity:1" d="M 420.184,743.249 429.686,724.245 z" id="boundary" inkscape:connector-curvature="0" />
	<path style="fill:none;stroke:red;stroke-width:1px;stroke-linecap:butt;stroke-linejoin:miter;stroke-opacity:1" d="M 422.084,38.2069 437.287,23.0038 z" id="boundary" inkscape:connector-curvature="0" />
	<path style="fill:none;stroke:red;stroke-width:1px;stroke-linecap:butt;stroke-linejoin:miter;stroke-opacity:1" d="M 429.686,724.245 439.188,705.241 z" id="boundary" inkscape:connector-curvature="0" />
	<path style="fill:none;stroke:red;stroke-width:1px;stroke-linecap:butt;stroke-linejoin:miter;stroke-opacity:1" d="M 437.287,23.0038 454.391,13.5019 z" id="boundary" inkscape:connector-curvature="0" />
	<path style="fill:none;stroke:red;stroke-width:1px;stroke-linecap:butt;stroke-linejoin:miter;stroke-opacity:1" d="M 439.188,705.241 448.69,686.238 z" id="boundary" inkscape:connector-curvature="0" />
	<path style="fill:none;stroke:red;stroke-width:1px;stroke-linecap:butt;stroke-linejoin:miter;stroke-opacity:1" d="M 448.69,686.238 467.693,680.536 z" id="boundary" inkscape:connector-curvature="0" />
	<path style="fill:none;stroke:red;stroke-width:1px;stroke-linecap:butt;stroke-linejoin:miter;stroke-opacity:1" d="M 454.391,13.5019 471.494,4 z" id="boundary" inkscape:connector-curvature="0" />
	<path style="fill:none;stroke:red;stroke-width:1px;stroke-linecap:butt;stroke-linejoin:miter;stroke-opacity:1" d="M 467.693,680.536 484.797,690.038 z" id="boundary" inkscape:connector-curvature="0" />
	<path style="fill:none;stroke:red;stroke-width:1px;stroke-linecap:butt;stroke-linejoin:miter;stroke-opacity:1" d="M 471.494,4 490.498,4 z" id="boundary" inkscape:connector-curvature="0" />
	<path style="fill:none;stroke:red;stroke-width:1px;stroke-linecap:butt;stroke-linejoin:miter;stroke-opacity:1" d="M 484.797,690.038 503.801,690.038 z" id="boundary" inkscape:connector-curvature="0" />
	<path style="fill:none;stroke:red;stroke-width:1px;stroke-linecap:butt;stroke-linejoin:miter;stroke-opacity:1" d="M 490.498,4 509.502,9.70115 z" id="boundary" inkscape:connector-curvature="0" />
	<path style="fill:none;stroke:red;stroke-width:1px;stroke-linecap:butt;stroke-linejoin:miter;stroke-opacity:1" d="M 503.801,690.038 522.805,697.64 z" id="boundary" inkscape:connector-curvature="0" />
	<path style="fill:none;stroke:red;stroke-width:1px;stroke-linecap:butt;stroke-linejoin:miter;stroke-opacity:1" d="M 509.502,9.70115 522.805,24.9042 z" id="boundary" inkscape:connector-curvature="0" />
	<path style="fill:none;stroke:red;stroke-width:1px;stroke-linecap:butt;stroke-linejoin:miter;stroke-opacity:1" d="M 522.805,24.9042 538.008,38.2069 z" id="boundary" inkscape:connector-curvature="0" />
	<path style="fill:none;stroke:red;stroke-width:1px;stroke-linecap:butt;stroke-linejoin:miter;stroke-opacity:1" d="M 522.805,697.64 536.107,712.843 z" id="boundary" inkscape:connector-curvature="0" />
	<path style="fill:none;stroke:red;stroke-width:1px;stroke-linecap:butt;stroke-linejoin:miter;stroke-opacity:1" d="M 536.107,712.843 555.111,718.544 z" id="boundary" inkscape:connector-curvature="0" />
	<path style="fill:none;stroke:red;stroke-width:1px;stroke-linecap:butt;stroke-linejoin:miter;stroke-opacity:1" d="M 538.008,38.2069 547.51,55.3103 z" id="boundary" inkscape:connector-curvature="0" />
	<path style="fill:none;stroke:red;stroke-width:1px;stroke-linecap:butt;stroke-linejoin:miter;stroke-opacity:1" d="M 547.51,55.3103 557.011,72.4138 z" id="boundary" inkscape:connector-curvature="0" />
	<path style="fill:none;stroke:red;stroke-width:1px;stroke-linecap:butt;stroke-linejoin:miter;stroke-opacity:1" d="M 547.51,129.425 557.011,110.421 z" id="boundary" inkscape:connector-curvature="0" />
	<path style="fill:none;stroke:red;stroke-width:1px;stroke-linecap:butt;stroke-linejoin:miter;stroke-opacity:1" d="M 547.51,129.425 557.011,146.529 z" id="boundary" inkscape:connector-curvature="0" />
	<path style="fill:none;stroke:red;stroke-width:1px;stroke-linecap:butt;stroke-linejoin:miter;stroke-opacity:1" d="M 555.111,718.544 566.513,733.747 z" id="boundary" inkscape:connector-curvature="0" />
	<path style="fill:none;stroke:red;stroke-width:1px;stroke-linecap:butt;stroke-linejoin:miter;stroke-opacity:1" d="M 557.011,72.4138 566.513,89.5172 z" id="boundary" inkscape:connector-curvature="0" />
	<path style="fill:none;stroke:red;stroke-width:1px;stroke-linecap:butt;stroke-linejoin:miter;stroke-opacity:1" d="M 557.011,110.421 566.513,89.5172 z" id="boundary" inkscape:connector-curvature="0" />
	<path style="fill:none;stroke:red;stroke-width:1px;stroke-linecap:butt;stroke-linejoin:miter;stroke-opacity:1" d="M 557.011,146.529 566.513,163.632 z" id="boundary" inkscape:connector-curvature="0" />
	<path style="fill:none;stroke:red;stroke-width:1px;stroke-linecap:butt;stroke-linejoin:miter;stroke-opacity:1" d="M 566.513,163.632 585.517,171.234 z" id="boundary" inkscape:connector-curvature="0" />
	<path style="fill:none;stroke:red;stroke-width:1px;stroke-linecap:butt;stroke-linejoin:miter;stroke-opacity:1" d="M 566.513,519.004 566.513,538.008 z" id="boundary" inkscape:connector-curvature="0" />
	<path style="fill:none;stroke:red;stroke-width:1px;stroke-linecap:butt;stroke-linejoin:miter;stroke-opacity:1" d="M 566.513,519.004 576.015,500 z" id="boundary" inkscape:connector-curvature="0" />
	<path style="fill:none;stroke:red;stroke-width:1px;stroke-linecap:butt;stroke-linejoin:miter;stroke-opacity:1" d="M 566.513,538.008 576.015,555.111 z" id="boundary" inkscape:connector-curvature="0" />
	<path style="fill:none;stroke:red;stroke-width:1px;stroke-linecap:butt;stroke-linejoin:miter;stroke-opacity:1" d="M 566.513,733.747 581.716,747.05 z" id="boundary" inkscape:connector-curvature="0" />
	<path style="fill:none;stroke:red;stroke-width:1px;stroke-linecap:butt;stroke-linejoin:miter;stroke-opacity:1" d="M 576.015,461.992 576.015,480.996 z" id="boundary" inkscape:connector-curvature="0" />
	<path style="fill:none;stroke:red;stroke-width:1px;stroke-linecap:butt;stroke-linejoin:miter;stroke-opacity:1" d="M 576.015,461.992 585.517,433.487 z" id="boundary" inkscape:connector-curvature="0" />
	<path style="fill:none;stroke:red;stroke-width:1px;stroke-linecap:butt;stroke-linejoin:miter;stroke-opacity:1" d="M 576.015,480.996 576.015,500 z" id="boundary" inkscape:connector-curvature="0" />
	<path style="fill:none;stroke:red;stroke-width:1px;stroke-linecap:butt;stroke-linejoin:miter;stroke-opacity:1" d="M 576.015,555.111 585.517,572.215 z" id="boundary" inkscape:connector-curvature="0" />
	<path style="fill:none;stroke:red;stroke-width:1px;stroke-linecap:butt;stroke-linejoin:miter;stroke-opacity:1" d="M 581.716,747.05 589.318,766.054 z" id="boundary" inkscape:connector-curvature="0" />
	<path style="fill:none;stroke:red;stroke-width:1px;stroke-linecap:butt;stroke-linejoin:miter;stroke-opacity:1" d="M 585.517,171.234 604.521,175.034 z" id="boundary" inkscape:connector-curvature="0" />
	<path style="fill:none;stroke:red;stroke-width:1px;stroke-linecap:butt;stroke-linejoin:miter;stroke-opacity:1" d="M 585.517,395.479 585.517,414.483 z" id="boundary" inkscape:connector-curvature="0" />
	<path style="fill:none;stroke:red;stroke-width:1px;stroke-linecap:butt;stroke-linejoin:miter;stroke-opacity:1" d="M 585.517,395.479 600.72,382.176 z" id="boundary" inkscape:connector-curvature="0" />
	<path style="fill:none;stroke:red;stroke-width:1px;stroke-linecap:butt;stroke-linejoin:miter;stroke-opacity:1" d="M 585.517,414.483 585.517,433.487 z" id="boundary" inkscape:connector-curvature="0" />
	<path style="fill:none;stroke:red;stroke-width:1px;stroke-linecap:butt;stroke-linejoin:miter;stroke-opacity:1" d="M 585.517,572.215 595.019,589.318 z" id="boundary" inkscape:connector-curvature="0" />
	<path style="fill:none;stroke:red;stroke-width:1px;stroke-linecap:butt;stroke-linejoin:miter;stroke-opacity:1" d="M 589.318,766.054 602.621,781.257 z" id="boundary" inkscape:connector-curvature="0" />
	<path style="fill:none;stroke:red;stroke-width:1px;stroke-linecap:butt;stroke-linejoin:miter;stroke-opacity:1" d="M 595.019,589.318 614.023,593.119 z" id="boundary" inkscape:connector-curvature="0" />
	<path style="fill:none;stroke:red;stroke-width:1px;stroke-linecap:butt;stroke-linejoin:miter;stroke-opacity:1" d="M 600.72,382.176 604.521,357.471 z" id="boundary" inkscape:connector-curvature="0" />
	<path style="fill:none;stroke:red;stroke-width:1px;stroke-linecap:butt;stroke-linejoin:miter;stroke-opacity:1" d="M 602.621,781.257 612.123,798.36 z" id="boundary" inkscape:connector-curvature="0" />
	<path style="fill:none;stroke:red;stroke-width:1px;stroke-linecap:butt;stroke-linejoin:miter;stroke-opacity:1" d="M 604.521,175.034 623.525,175.034 z" id="boundary" inkscape:connector-curvature="0" />
	<path style="fill:none;stroke:red;stroke-width:1px;stroke-linecap:butt;stroke-linejoin:miter;stroke-opacity:1" d="M 604.521,338.467 604.521,357.471 z" id="boundary" inkscape:connector-curvature="0" />
	<path style="fill:none;stroke:red;stroke-width:1px;stroke-linecap:butt;stroke-linejoin:miter;stroke-opacity:1" d="M 604.521,338.467 614.023,309.962 z" id="boundary" inkscape:connector-curvature="0" />
	<path style="fill:none;stroke:red;stroke-width:1px;stroke-linecap:butt;stroke-linejoin:miter;stroke-opacity:1" d="M 612.123,798.36 621.625,815.464 z" id="boundary" inkscape:connector-curvature="0" />
	<path style="fill:none;stroke:red;stroke-width:1px;stroke-linecap:butt;stroke-linejoin:miter;stroke-opacity:1" d="M 614.023,309.962 631.126,300.46 z" id="boundary" inkscape:connector-curvature="0" />
	<path style="fill:none;stroke:red;stroke-width:1px;stroke-linecap:butt;stroke-linejoin:miter;stroke-opacity:1" d="M 614.023,593.119 631.126,602.621 z" id="boundary" inkscape:connector-curvature="0" />
	<path style="fill:none;stroke:red;stroke-width:1px;stroke-linecap:butt;stroke-linejoin:miter;stroke-opacity:1" d="M 621.625,815.464 634.927,830.667 z" id="boundary" inkscape:connector-curvature="0" />
	<path style="fill:none;stroke:red;stroke-width:1px;stroke-linecap:butt;stroke-linejoin:miter;stroke-opacity:1" d="M 623.525,175.034 642.529,180.736 z" id="boundary" inkscape:connector-curvature="0" />
	<path style="fill:none;stroke:red;stroke-width:1px;stroke-linecap:butt;stroke-linejoin:miter;stroke-opacity:1" d="M 631.126,300.46 650.13,300.46 z" id="boundary" inkscape:connector-curvature="0" />
	<path style="fill:none;stroke:red;stroke-width:1px;stroke-linecap:butt;stroke-linejoin:miter;stroke-opacity:1" d="M 631.126,602.621 650.13,602.621 z" id="boundary" inkscape:connector-curvature="0" />
	<path style="fill:none;stroke:red;stroke-width:1px;stroke-linecap:butt;stroke-linejoin:miter;stroke-opacity:1" d="M 634.927,830.667 650.13,842.069 z" id="boundary" inkscape:connector-curvature="0" />
	<path style="fill:none;stroke:red;stroke-width:1px;stroke-linecap:butt;stroke-linejoin:miter;stroke-opacity:1" d="M 642.529,180.736 661.533,184.536 z" id="boundary" inkscape:connector-curvature="0" />
	<path style="fill:none;stroke:red;stroke-width:1px;stroke-linecap:butt;stroke-linejoin:miter;stroke-opacity:1" d="M 650.13,300.46 667.234,309.962 z" id="boundary" inkscape:connector-curvature="0" />
	<path style="fill:none;stroke:red;stroke-width:1px;stroke-linecap:butt;stroke-linejoin:miter;stroke-opacity:1" d="M 650.13,602.621 669.134,602.621 z" id="boundary" inkscape:connector-curvature="0" />
	<path style="fill:none;stroke:red;stroke-width:1px;stroke-linecap:butt;stroke-linejoin:miter;stroke-opacity:1" d="M 650.13,842.069 655.831,861.073 z" id="boundary" inkscape:connector-curvature="0" />
	<path style="fill:none;stroke:red;stroke-width:1px;stroke-linecap:butt;stroke-linejoin:miter;stroke-opacity:1" d="M 655.831,861.073 672.935,870.575 z" id="boundary" inkscape:connector-curvature="0" />
	<path style="fill:none;stroke:red;stroke-width:1px;stroke-linecap:butt;stroke-linejoin:miter;stroke-opacity:1" d="M 661.533,184.536 680.536,184.536 z" id="boundary" inkscape:connector-curvature="0" />
	<path style="fill:none;stroke:red;stroke-width:1px;stroke-linecap:butt;stroke-linejoin:miter;stroke-opacity:1" d="M 661.533,699.54 665.333,718.544 z" id="boundary" inkscape:connector-curvature="0" />
	<path style="fill:none;stroke:red;stroke-width:1px;stroke-linecap:butt;stroke-linejoin:miter;stroke-opacity:1" d="M 661.533,699.54 680.536,699.54 z" id="boundary" inkscape:connector-curvature="0" />
	<path style="fill:none;stroke:red;stroke-width:1px;stroke-linecap:butt;stroke-linejoin:miter;stroke-opacity:1" d="M 665.333,718.544 684.337,726.146 z" id="boundary" inkscape:connector-curvature="0" />
	<path style="fill:none;stroke:red;stroke-width:1px;stroke-linecap:butt;stroke-linejoin:miter;stroke-opacity:1" d="M 667.234,309.962 684.337,319.464 z" id="boundary" inkscape:connector-curvature="0" />
	<path style="fill:none;stroke:red;stroke-width:1px;stroke-linecap:butt;stroke-linejoin:miter;stroke-opacity:1" d="M 669.134,602.621 688.138,602.621 z" id="boundary" inkscape:connector-curvature="0" />
	<path style="fill:none;stroke:red;stroke-width:1px;stroke-linecap:butt;stroke-linejoin:miter;stroke-opacity:1" d="M 672.935,870.575 688.138,881.977 z" id="boundary" inkscape:connector-curvature="0" />
	<path style="fill:none;stroke:red;stroke-width:1px;stroke-linecap:butt;stroke-linejoin:miter;stroke-opacity:1" d="M 680.536,184.536 699.54,184.536 z" id="boundary" inkscape:connector-curvature="0" />
	<path style="fill:none;stroke:red;stroke-width:1px;stroke-linecap:butt;stroke-linejoin:miter;stroke-opacity:1" d="M 680.536,699.54 699.54,699.54 z" id="boundary" inkscape:connector-curvature="0" />
	<path style="fill:none;stroke:red;stroke-width:1px;stroke-linecap:butt;stroke-linejoin:miter;stroke-opacity:1" d="M 684.337,319.464 701.441,328.966 z" id="boundary" inkscape:connector-curvature="0" />
	<path style="fill:none;stroke:red;stroke-width:1px;stroke-linecap:butt;stroke-linejoin:miter;stroke-opacity:1" d="M 684.337,726.146 697.64,741.349 z" id="boundary" inkscape:connector-curvature="0" />
	<path style="fill:none;stroke:red;stroke-width:1px;stroke-linecap:butt;stroke-linejoin:miter;stroke-opacity:1" d="M 688.138,602.621 707.142,602.621 z" id="boundary" inkscape:connector-curvature="0" />
	<path style="fill:none;stroke:red;stroke-width:1px;stroke-linecap:butt;stroke-linejoin:miter;stroke-opacity:1" d="M 688.138,881.977 701.441,897.18 z" id="boundary" inkscape:connector-curvature="0" />
	<path style="fill:none;stroke:red;stroke-width:1px;stroke-linecap:butt;stroke-linejoin:miter;stroke-opacity:1" d="M 697.64,741.349 707.142,758.452 z" id="boundary" inkscape:connector-curvature="0" />
	<path style="fill:none;stroke:red;stroke-width:1px;stroke-linecap:butt;stroke-linejoin:miter;stroke-opacity:1" d="M 699.54,184.536 718.544,184.536 z" id="boundary" inkscape:connector-curvature="0" />
	<path style="fill:none;stroke:red;stroke-width:1px;stroke-linecap:butt;stroke-linejoin:miter;stroke-opacity:1" d="M 699.54,699.54 718.544,699.54 z" id="boundary" inkscape:connector-curvature="0" />
	<path style="fill:none;stroke:red;stroke-width:1px;stroke-linecap:butt;stroke-linejoin:miter;stroke-opacity:1" d="M 701.441,328.966 718.544,338.467 z" id="boundary" inkscape:connector-curvature="0" />
	<path style="fill:none;stroke:red;stroke-width:1px;stroke-linecap:butt;stroke-linejoin:miter;stroke-opacity:1" d="M 701.441,897.18 716.644,908.582 z" id="boundary" inkscape:connector-curvature="0" />
	<path style="fill:none;stroke:red;stroke-width:1px;stroke-linecap:butt;stroke-linejoin:miter;stroke-opacity:1" d="M 707.142,602.621 726.146,602.621 z" id="boundary" inkscape:connector-curvature="0" />
	<path style="fill:none;stroke:red;stroke-width:1px;stroke-linecap:butt;stroke-linejoin:miter;stroke-opacity:1" d="M 707.142,758.452 718.544,773.655 z" id="boundary" inkscape:connector-curvature="0" />
	<path style="fill:none;stroke:red;stroke-width:1px;stroke-linecap:butt;stroke-linejoin:miter;stroke-opacity:1" d="M 716.644,908.582 722.345,927.586 z" id="boundary" inkscape:connector-curvature="0" />
	<path style="fill:none;stroke:red;stroke-width:1px;stroke-linecap:butt;stroke-linejoin:miter;stroke-opacity:1" d="M 718.544,184.536 737.548,184.536 z" id="boundary" inkscape:connector-curvature="0" />
	<path style="fill:none;stroke:red;stroke-width:1px;stroke-linecap:butt;stroke-linejoin:miter;stroke-opacity:1" d="M 718.544,338.467 735.648,347.969 z" id="boundary" inkscape:connector-curvature="0" />
	<path style="fill:none;stroke:red;stroke-width:1px;stroke-linecap:butt;stroke-linejoin:miter;stroke-opacity:1" d="M 718.544,699.54 737.548,699.54 z" id="boundary" inkscape:connector-curvature="0" />
	<path style="fill:none;stroke:red;stroke-width:1px;stroke-linecap:butt;stroke-linejoin:miter;stroke-opacity:1" d="M 718.544,773.655 728.046,790.759 z" id="boundary" inkscape:connector-curvature="0" />
	<path style="fill:none;stroke:red;stroke-width:1px;stroke-linecap:butt;stroke-linejoin:miter;stroke-opacity:1" d="M 722.345,927.586 731.847,944.69 z" id="boundary" inkscape:connector-curvature="0" />
	<path style="fill:none;stroke:red;stroke-width:1px;stroke-linecap:butt;stroke-linejoin:miter;stroke-opacity:1" d="M 726.146,602.621 745.149,602.621 z" id="boundary" inkscape:connector-curvature="0" />
	<path style="fill:none;stroke:red;stroke-width:1px;stroke-linecap:butt;stroke-linejoin:miter;stroke-opacity:1" d="M 728.046,790.759 737.548,807.862 z" id="boundary" inkscape:connector-curvature="0" />
	<path style="fill:none;stroke:red;stroke-width:1px;stroke-linecap:butt;stroke-linejoin:miter;stroke-opacity:1" d="M 731.847,944.69 745.149,959.893 z" id="boundary" inkscape:connector-curvature="0" />
	<path style="fill:none;stroke:red;stroke-width:1px;stroke-linecap:butt;stroke-linejoin:miter;stroke-opacity:1" d="M 735.648,347.969 754.651,347.969 z" id="boundary" inkscape:connector-curvature="0" />
	<path style="fill:none;stroke:red;stroke-width:1px;stroke-linecap:butt;stroke-linejoin:miter;stroke-opacity:1" d="M 737.548,184.536 756.552,184.536 z" id="boundary" inkscape:connector-curvature="0" />
	<path style="fill:none;stroke:red;stroke-width:1px;stroke-linecap:butt;stroke-linejoin:miter;stroke-opacity:1" d="M 737.548,699.54 756.552,703.341 z" id="boundary" inkscape:connector-curvature="0" />
	<path style="fill:none;stroke:red;stroke-width:1px;stroke-linecap:butt;stroke-linejoin:miter;stroke-opacity:1" d="M 737.548,807.862 745.149,826.866 z" id="boundary" inkscape:connector-curvature="0" />
	<path style="fill:none;stroke:red;stroke-width:1px;stroke-linecap:butt;stroke-linejoin:miter;stroke-opacity:1" d="M 745.149,602.621 762.253,612.123 z" id="boundary" inkscape:connector-curvature="0" />
	<path style="fill:none;stroke:red;stroke-width:1px;stroke-linecap:butt;stroke-linejoin:miter;stroke-opacity:1" d="M 745.149,826.866 756.552,842.069 z" id="boundary" inkscape:connector-curvature="0" />
	<path style="fill:none;stroke:red;stroke-width:1px;stroke-linecap:butt;stroke-linejoin:miter;stroke-opacity:1" d="M 745.149,959.893 760.352,973.195 z" id="boundary" inkscape:connector-curvature="0" />
	<path style="fill:none;stroke:red;stroke-width:1px;stroke-linecap:butt;stroke-linejoin:miter;stroke-opacity:1" d="M 754.651,347.969 771.755,357.471 z" id="boundary" inkscape:connector-curvature="0" />
	<path style="fill:none;stroke:red;stroke-width:1px;stroke-linecap:butt;stroke-linejoin:miter;stroke-opacity:1" d="M 756.552,184.536 775.556,190.238 z" id="boundary" inkscape:connector-curvature="0" />
	<path style="fill:none;stroke:red;stroke-width:1px;stroke-linecap:butt;stroke-linejoin:miter;stroke-opacity:1" d="M 756.552,703.341 775.556,709.042 z" id="boundary" inkscape:connector-curvature="0" />
	<path style="fill:none;stroke:red;stroke-width:1px;stroke-linecap:butt;stroke-linejoin:miter;stroke-opacity:1" d="M 756.552,842.069 760.352,861.073 z" id="boundary" inkscape:connector-curvature="0" />
	<path style="fill:none;stroke:red;stroke-width:1px;stroke-linecap:butt;stroke-linejoin:miter;stroke-opacity:1" d="M 760.352,861.073 775.556,874.375 z" id="boundary" inkscape:connector-curvature="0" />
	<path style="fill:none;stroke:red;stroke-width:1px;stroke-linecap:butt;stroke-linejoin:miter;stroke-opacity:1" d="M 760.352,973.195 775.556,984.598 z" id="boundary" inkscape:connector-curvature="0" />
	<path style="fill:none;stroke:red;stroke-width:1px;stroke-linecap:butt;stroke-linejoin:miter;stroke-opacity:1" d="M 762.253,612.123 781.257,612.123 z" id="boundary" inkscape:connector-curvature="0" />
	<path style="fill:none;stroke:red;stroke-width:1px;stroke-linecap:butt;stroke-linejoin:miter;stroke-opacity:1" d="M 771.755,357.471 785.057,328.966 z" id="boundary" inkscape:connector-curvature="0" />
	<path style="fill:none;stroke:red;stroke-width:1px;stroke-linecap:butt;stroke-linejoin:miter;stroke-opacity:1" d="M 775.556,190.238 794.559,194.038 z" id="boundary" inkscape:connector-curvature="0" />
	<path style="fill:none;stroke:red;stroke-width:1px;stroke-linecap:butt;stroke-linejoin:miter;stroke-opacity:1" d="M 775.556,709.042 794.559,709.042 z" id="boundary" inkscape:connector-curvature="0" />
	<path style="fill:none;stroke:red;stroke-width:1px;stroke-linecap:butt;stroke-linejoin:miter;stroke-opacity:1" d="M 775.556,874.375 785.057,891.479 z" id="boundary" inkscape:connector-curvature="0" />
	<path style="fill:none;stroke:red;stroke-width:1px;stroke-linecap:butt;stroke-linejoin:miter;stroke-opacity:1" d="M 775.556,984.598 792.659,994.1 z" id="boundary" inkscape:connector-curvature="0" />
	<path style="fill:none;stroke:red;stroke-width:1px;stroke-linecap:butt;stroke-linejoin:miter;stroke-opacity:1" d="M 781.257,612.123 800.261,612.123 z" id="boundary" inkscape:connector-curvature="0" />
	<path style="fill:none;stroke:red;stroke-width:1px;stroke-linecap:butt;stroke-linejoin:miter;stroke-opacity:1" d="M 785.057,309.962 785.057,328.966 z" id="boundary" inkscape:connector-curvature="0" />
	<path style="fill:none;stroke:red;stroke-width:1px;stroke-linecap:butt;stroke-linejoin:miter;stroke-opacity:1" d="M 785.057,309.962 804.061,309.962 z" id="boundary" inkscape:connector-curvature="0" />
	<path style="fill:none;stroke:red;stroke-width:1px;stroke-linecap:butt;stroke-linejoin:miter;stroke-opacity:1" d="M 785.057,891.479 796.46,906.682 z" id="boundary" inkscape:connector-curvature="0" />
	<path style="fill:none;stroke:red;stroke-width:1px;stroke-linecap:butt;stroke-linejoin:miter;stroke-opacity:1" d="M 792.659,994.1 811.663,988.398 z" id="boundary" inkscape:connector-curvature="0" />
	<path style="fill:none;stroke:red;stroke-width:1px;stroke-linecap:butt;stroke-linejoin:miter;stroke-opacity:1" d="M 794.559,194.038 813.563,194.038 z" id="boundary" inkscape:connector-curvature="0" />
	<path style="fill:none;stroke:red;stroke-width:1px;stroke-linecap:butt;stroke-linejoin:miter;stroke-opacity:1" d="M 794.559,709.042 804.061,690.038 z" id="boundary" inkscape:connector-curvature="0" />
	<path style="fill:none;stroke:red;stroke-width:1px;stroke-linecap:butt;stroke-linejoin:miter;stroke-opacity:1" d="M 796.46,906.682 804.061,925.686 z" id="boundary" inkscape:connector-curvature="0" />
	<path style="fill:none;stroke:red;stroke-width:1px;stroke-linecap:butt;stroke-linejoin:miter;stroke-opacity:1" d="M 800.261,612.123 813.563,627.326 z" id="boundary" inkscape:connector-curvature="0" />
	<path style="fill:none;stroke:red;stroke-width:1px;stroke-linecap:butt;stroke-linejoin:miter;stroke-opacity:1" d="M 804.061,309.962 823.065,309.962 z" id="boundary" inkscape:connector-curvature="0" />
	<path style="fill:none;stroke:red;stroke-width:1px;stroke-linecap:butt;stroke-linejoin:miter;stroke-opacity:1" d="M 804.061,671.034 804.061,690.038 z" id="boundary" inkscape:connector-curvature="0" />
	<path style="fill:none;stroke:red;stroke-width:1px;stroke-linecap:butt;stroke-linejoin:miter;stroke-opacity:1" d="M 804.061,671.034 813.563,646.33 z" id="boundary" inkscape:connector-curvature="0" />
	<path style="fill:none;stroke:red;stroke-width:1px;stroke-linecap:butt;stroke-linejoin:miter;stroke-opacity:1" d="M 804.061,925.686 804.061,944.69 z" id="boundary" inkscape:connector-curvature="0" />
	<path style="fill:none;stroke:red;stroke-width:1px;stroke-linecap:butt;stroke-linejoin:miter;stroke-opacity:1" d="M 804.061,944.69 813.563,961.793 z" id="boundary" inkscape:connector-curvature="0" />
	<path style="fill:none;stroke:red;stroke-width:1px;stroke-linecap:butt;stroke-linejoin:miter;stroke-opacity:1" d="M 811.663,988.398 813.563,961.793 z" id="boundary" inkscape:connector-curvature="0" />
	<path style="fill:none;stroke:red;stroke-width:1px;stroke-linecap:butt;stroke-linejoin:miter;stroke-opacity:1" d="M 813.563,194.038 832.567,194.038 z" id="boundary" inkscape:connector-curvature="0" />
	<path style="fill:none;stroke:red;stroke-width:1px;stroke-linecap:butt;stroke-linejoin:miter;stroke-opacity:1" d="M 813.563,627.326 813.563,646.33 z" id="boundary" inkscape:connector-curvature="0" />
	<path style="fill:none;stroke:red;stroke-width:1px;stroke-linecap:butt;stroke-linejoin:miter;stroke-opacity:1" d="M 823.065,309.962 842.069,309.962 z" id="boundary" inkscape:connector-curvature="0" />
	<path style="fill:none;stroke:red;stroke-width:1px;stroke-linecap:butt;stroke-linejoin:miter;stroke-opacity:1" d="M 832.567,194.038 851.571,194.038 z" id="boundary" inkscape:connector-curvature="0" />
	<path style="fill:none;stroke:red;stroke-width:1px;stroke-linecap:butt;stroke-linejoin:miter;stroke-opacity:1" d="M 842.069,309.962 851.571,281.456 z" id="boundary" inkscape:connector-curvature="0" />
	<path style="fill:none;stroke:red;stroke-width:1px;stroke-linecap:butt;stroke-linejoin:miter;stroke-opacity:1" d="M 851.571,194.038 861.073,211.142 z" id="boundary" inkscape:connector-curvature="0" />
	<path style="fill:none;stroke:red;stroke-width:1px;stroke-linecap:butt;stroke-linejoin:miter;stroke-opacity:1" d="M 851.571,262.452 851.571,281.456 z" id="boundary" inkscape:connector-curvature="0" />
	<path style="fill:none;stroke:red;stroke-width:1px;stroke-linecap:butt;stroke-linejoin:miter;stroke-opacity:1" d="M 851.571,262.452 861.073,230.146 z" id="boundary" inkscape:connector-curvature="0" />
	<path style="fill:none;stroke:red;stroke-width:1px;stroke-linecap:butt;stroke-linejoin:miter;stroke-opacity:1" d="M 861.073,211.142 861.073,230.146 z" id="boundary" inkscape:connector-curvature="0" />
	<circle cx="4" cy="237.747" r="4" fill="#0" id="circle0"/>
	<circle cx="4" cy="646.33" r="4" fill="#0" id="circle1"/>
	<circle cx="13.5019" cy="142.728" r="4" fill="#0" id="circle2"/>
	<circle cx="13.5019" cy="161.732" r="4" fill="#0" id="circle3"/>
	<circle cx="13.5019" cy="180.736" r="4" fill="#0" id="circle4"/>
	<circle cx="13.5019" cy="199.739" r="4" fill="#0" id="circle5"/>
	<circle cx="13.5019" cy="218.743" r="4" fill="#0" id="circle6"/>
	<circle cx="13.5019" cy="560.812" r="4" fill="#0" id="circle7"/>
	<circle cx="13.5019" cy="579.816" r="4" fill="#0" id="circle8"/>
	<circle cx="13.5019" cy="598.82" r="4" fill="#0" id="circle9"/>
	<circle cx="13.5019" cy="617.824" r="4" fill="#0" id="circle10"/>
	<circle cx="15.4023" cy="252.95" r="4" fill="#0" id="circle11"/>
	<circle cx="23.0038" cy="652.031" r="4" fill="#0" id="circle12"/>
	<circle cx="32.5057" cy="137.027" r="4" fill="#0" id="circle13"/>
	<circle cx="32.5057" cy="555.111" r="4" fill="#0" id="circle14"/>
	<circle cx="34.4061" cy="252.95" r="4" fill="#0" id="circle15"/>
	<circle cx="42.0077" cy="652.031" r="4" fill="#0" id="circle16"/>
	<circle cx="51.5096" cy="137.027" r="4" fill="#0" id="circle17"/>
	<circle cx="51.5096" cy="555.111" r="4" fill="#0" id="circle18"/>
	<circle cx="53.41" cy="252.95" r="4" fill="#0" id="circle19"/>
	<circle cx="61.0115" cy="652.031" r="4" fill="#0" id="circle20"/>
	<circle cx="70.5134" cy="137.027" r="4" fill="#0" id="circle21"/>
	<circle cx="70.5134" cy="555.111" r="4" fill="#0" id="circle22"/>
	<circle cx="72.4138" cy="252.95" r="4" fill="#0" id="circle23"/>
	<circle cx="78.1149" cy="661.533" r="4" fill="#0" id="circle24"/>
	<circle cx="87.6169" cy="564.613" r="4" fill="#0" id="circle25"/>
	<circle cx="89.5172" cy="140.828" r="4" fill="#0" id="circle26"/>
	<circle cx="91.4176" cy="256.751" r="4" fill="#0" id="circle27"/>
	<circle cx="97.1188" cy="661.533" r="4" fill="#0" id="circle28"/>
	<circle cx="106.621" cy="564.613" r="4" fill="#0" id="circle29"/>
	<circle cx="108.521" cy="146.529" r="4" fill="#0" id="circle30"/>
	<circle cx="110.421" cy="262.452" r="4" fill="#0" id="circle31"/>
	<circle cx="116.123" cy="661.533" r="4" fill="#0" id="circle32"/>
	<circle cx="118.023" cy="408.782" r="4" fill="#0" id="circle33"/>
	<circle cx="118.023" cy="427.785" r="4" fill="#0" id="circle34"/>
	<circle cx="125.625" cy="564.613" r="4" fill="#0" id="circle35"/>
	<circle cx="127.525" cy="146.529" r="4" fill="#0" id="circle36"/>
	<circle cx="127.525" cy="389.778" r="4" fill="#0" id="circle37"/>
	<circle cx="129.425" cy="262.452" r="4" fill="#0" id="circle38"/>
	<circle cx="135.126" cy="661.533" r="4" fill="#0" id="circle39"/>
	<circle cx="137.027" cy="370.774" r="4" fill="#0" id="circle40"/>
	<circle cx="137.027" cy="433.487" r="4" fill="#0" id="circle41"/>
	<circle cx="144.628" cy="564.613" r="4" fill="#0" id="circle42"/>
	<circle cx="146.529" cy="146.529" r="4" fill="#0" id="circle43"/>
	<circle cx="148.429" cy="262.452" r="4" fill="#0" id="circle44"/>
	<circle cx="154.13" cy="661.533" r="4" fill="#0" id="circle45"/>
	<circle cx="156.031" cy="361.272" r="4" fill="#0" id="circle46"/>
	<circle cx="156.031" cy="437.287" r="4" fill="#0" id="circle47"/>
	<circle cx="163.632" cy="564.613" r="4" fill="#0" id="circle48"/>
	<circle cx="165.533" cy="146.529" r="4" fill="#0" id="circle49"/>
	<circle cx="165.533" cy="342.268" r="4" fill="#0" id="circle50"/>
	<circle cx="167.433" cy="262.452" r="4" fill="#0" id="circle51"/>
	<circle cx="171.234" cy="422.084" r="4" fill="#0" id="circle52"/>
	<circle cx="173.134" cy="661.533" r="4" fill="#0" id="circle53"/>
	<circle cx="180.736" cy="327.065" r="4" fill="#0" id="circle54"/>
	<circle cx="182.636" cy="564.613" r="4" fill="#0" id="circle55"/>
	<circle cx="184.536" cy="146.529" r="4" fill="#0" id="circle56"/>
	<circle cx="186.437" cy="262.452" r="4" fill="#0" id="circle57"/>
	<circle cx="186.437" cy="404.981" r="4" fill="#0" id="circle58"/>
	<circle cx="190.238" cy="308.061" r="4" fill="#0" id="circle59"/>
	<circle cx="192.138" cy="661.533" r="4" fill="#0" id="circle60"/>
	<circle cx="201.64" cy="564.613" r="4" fill="#0" id="circle61"/>
	<circle cx="203.54" cy="146.529" r="4" fill="#0" id="circle62"/>
	<circle cx="203.54" cy="285.257" r="4" fill="#0" id="circle63"/>
	<circle cx="203.54" cy="395.479" r="4" fill="#0" id="circle64"/>
	<circle cx="203.54" cy="921.885" r="4" fill="#0" id="circle65"/>
	<circle cx="203.54" cy="940.889" r="4" fill="#0" id="circle66"/>
	<circle cx="203.54" cy="959.893" r="4" fill="#0" id="circle67"/>
	<circle cx="203.54" cy="978.897" r="4" fill="#0" id="circle68"/>
	<circle cx="205.441" cy="262.452" r="4" fill="#0" id="circle69"/>
	<circle cx="211.142" cy="661.533" r="4" fill="#0" id="circle70"/>
	<circle cx="213.042" cy="902.881" r="4" fill="#0" id="circle71"/>
	<circle cx="213.042" cy="996" r="4" fill="#0" id="circle72"/>
	<circle cx="214.943" cy="376.475" r="4" fill="#0" id="circle73"/>
	<circle cx="218.743" cy="574.115" r="4" fill="#0" id="circle74"/>
	<circle cx="222.544" cy="146.529" r="4" fill="#0" id="circle75"/>
	<circle cx="228.245" cy="671.034" r="4" fill="#0" id="circle76"/>
	<circle cx="228.245" cy="887.678" r="4" fill="#0" id="circle77"/>
	<circle cx="232.046" cy="994.1" r="4" fill="#0" id="circle78"/>
	<circle cx="233.946" cy="376.475" r="4" fill="#0" id="circle79"/>
	<circle cx="237.747" cy="574.115" r="4" fill="#0" id="circle80"/>
	<circle cx="237.747" cy="868.674" r="4" fill="#0" id="circle81"/>
	<circle cx="239.648" cy="156.031" r="4" fill="#0" id="circle82"/>
	<circle cx="243.448" cy="357.471" r="4" fill="#0" id="circle83"/>
	<circle cx="247.249" cy="671.034" r="4" fill="#0" id="circle84"/>
	<circle cx="247.249" cy="849.67" r="4" fill="#0" id="circle85"/>
	<circle cx="247.249" cy="982.697" r="4" fill="#0" id="circle86"/>
	<circle cx="251.05" cy="826.866" r="4" fill="#0" id="circle87"/>
	<circle cx="256.751" cy="574.115" r="4" fill="#0" id="circle88"/>
	<circle cx="258.651" cy="156.031" r="4" fill="#0" id="circle89"/>
	<circle cx="260.552" cy="807.862" r="4" fill="#0" id="circle90"/>
	<circle cx="262.452" cy="338.467" r="4" fill="#0" id="circle91"/>
	<circle cx="262.452" cy="965.594" r="4" fill="#0" id="circle92"/>
	<circle cx="266.253" cy="671.034" r="4" fill="#0" id="circle93"/>
	<circle cx="270.054" cy="788.858" r="4" fill="#0" id="circle94"/>
	<circle cx="275.755" cy="574.115" r="4" fill="#0" id="circle95"/>
	<circle cx="277.655" cy="156.031" r="4" fill="#0" id="circle96"/>
	<circle cx="277.655" cy="325.165" r="4" fill="#0" id="circle97"/>
	<circle cx="277.655" cy="952.291" r="4" fill="#0" id="circle98"/>
	<circle cx="285.257" cy="671.034" r="4" fill="#0" id="circle99"/>
	<circle cx="285.257" cy="773.655" r="4" fill="#0" id="circle100"/>
	<circle cx="287.157" cy="933.287" r="4" fill="#0" id="circle101"/>
	<circle cx="290.958" cy="309.962" r="4" fill="#0" id="circle102"/>
	<circle cx="294.759" cy="574.115" r="4" fill="#0" id="circle103"/>
	<circle cx="294.759" cy="754.651" r="4" fill="#0" id="circle104"/>
	<circle cx="296.659" cy="156.031" r="4" fill="#0" id="circle105"/>
	<circle cx="300.46" cy="918.084" r="4" fill="#0" id="circle106"/>
	<circle cx="304.261" cy="671.034" r="4" fill="#0" id="circle107"/>
	<circle cx="304.261" cy="735.648" r="4" fill="#0" id="circle108"/>
	<circle cx="309.962" cy="300.46" r="4" fill="#0" id="circle109"/>
	<circle cx="313.762" cy="574.115" r="4" fill="#0" id="circle110"/>
	<circle cx="313.762" cy="716.644" r="4" fill="#0" id="circle111"/>
	<circle cx="315.663" cy="156.031" r="4" fill="#0" id="circle112"/>
	<circle cx="315.663" cy="904.782" r="4" fill="#0" id="circle113"/>
	<circle cx="317.563" cy="693.839" r="4" fill="#0" id="circle114"/>
	<circle cx="323.264" cy="671.034" r="4" fill="#0" id="circle115"/>
	<circle cx="325.165" cy="885.778" r="4" fill="#0" id="circle116"/>
	<circle cx="328.966" cy="300.46" r="4" fill="#0" id="circle117"/>
	<circle cx="332.766" cy="574.115" r="4" fill="#0" id="circle118"/>
	<circle cx="334.667" cy="156.031" r="4" fill="#0" id="circle119"/>
	<circle cx="334.667" cy="866.774" r="4" fill="#0" id="circle120"/>
	<circle cx="346.069" cy="309.962" r="4" fill="#0" id="circle121"/>
	<circle cx="347.969" cy="842.069" r="4" fill="#0" id="circle122"/>
	<circle cx="349.87" cy="583.617" r="4" fill="#0" id="circle123"/>
	<circle cx="351.77" cy="328.966" r="4" fill="#0" id="circle124"/>
	<circle cx="353.67" cy="156.031" r="4" fill="#0" id="circle125"/>
	<circle cx="355.571" cy="347.969" r="4" fill="#0" id="circle126"/>
	<circle cx="355.571" cy="380.276" r="4" fill="#0" id="circle127"/>
	<circle cx="363.172" cy="828.766" r="4" fill="#0" id="circle128"/>
	<circle cx="365.073" cy="397.379" r="4" fill="#0" id="circle129"/>
	<circle cx="368.874" cy="583.617" r="4" fill="#0" id="circle130"/>
	<circle cx="370.774" cy="165.533" r="4" fill="#0" id="circle131"/>
	<circle cx="372.674" cy="809.762" r="4" fill="#0" id="circle132"/>
	<circle cx="374.575" cy="414.483" r="4" fill="#0" id="circle133"/>
	<circle cx="374.575" cy="433.487" r="4" fill="#0" id="circle134"/>
	<circle cx="382.176" cy="790.759" r="4" fill="#0" id="circle135"/>
	<circle cx="384.077" cy="450.59" r="4" fill="#0" id="circle136"/>
	<circle cx="384.077" cy="560.812" r="4" fill="#0" id="circle137"/>
	<circle cx="389.778" cy="165.533" r="4" fill="#0" id="circle138"/>
	<circle cx="393.579" cy="467.693" r="4" fill="#0" id="circle139"/>
	<circle cx="393.579" cy="486.697" r="4" fill="#0" id="circle140"/>
	<circle cx="393.579" cy="522.805" r="4" fill="#0" id="circle141"/>
	<circle cx="393.579" cy="541.808" r="4" fill="#0" id="circle142"/>
	<circle cx="395.479" cy="775.556" r="4" fill="#0" id="circle143"/>
	<circle cx="403.08" cy="76.2146" r="4" fill="#0" id="circle144"/>
	<circle cx="403.08" cy="95.2184" r="4" fill="#0" id="circle145"/>
	<circle cx="403.08" cy="114.222" r="4" fill="#0" id="circle146"/>
	<circle cx="403.08" cy="133.226" r="4" fill="#0" id="circle147"/>
	<circle cx="403.08" cy="503.801" r="4" fill="#0" id="circle148"/>
	<circle cx="410.682" cy="762.253" r="4" fill="#0" id="circle149"/>
	<circle cx="412.582" cy="57.2107" r="4" fill="#0" id="circle150"/>
	<circle cx="420.184" cy="743.249" r="4" fill="#0" id="circle151"/>
	<circle cx="422.084" cy="38.2069" r="4" fill="#0" id="circle152"/>
	<circle cx="429.686" cy="724.245" r="4" fill="#0" id="circle153"/>
	<circle cx="437.287" cy="23.0038" r="4" fill="#0" id="circle154"/>
	<circle cx="439.188" cy="705.241" r="4" fill="#0" id="circle155"/>
	<circle cx="448.69" cy="686.238" r="4" fill="#0" id="circle156"/>
	<circle cx="454.391" cy="13.5019" r="4" fill="#0" id="circle157"/>
	<circle cx="467.693" cy="680.536" r="4" fill="#0" id="circle158"/>
	<circle cx="471.494" cy="4" r="4" fill="#0" id="circle159"/>
	<circle cx="484.797" cy="690.038" r="4" fill="#0" id="circle160"/>
	<circle cx="490.498" cy="4" r="4" fill="#0" id="circle161"/>
	<circle cx="503.801" cy="690.038" r="4" fill="#0" id="circle162"/>
	<circle cx="509.502" cy="9.70115" r="4" fill="#0" id="circle163"/>
	<circle cx="522.805" cy="24.9042" r="4" fill="#0" id="circle164"/>
	<circle cx="522.805" cy="697.64" r="4" fill="#0" id="circle165"/>
	<circle cx="536.107" cy="712.843" r="4" fill="#0" id="circle166"/>
	<circle cx="538.008" cy="38.2069" r="4" fill="#0" id="circle167"/>
	<circle cx="547.51" cy="55.3103" r="4" fill="#0" id="circle168"/>
	<circle cx="547.51" cy="129.425" r="4" fill="#0" id="circle169"/>
	<circle cx="555.111" cy="718.544" r="4" fill="#0" id="circle170"/>
	<circle cx="557.011" cy="72.4138" r="4" fill="#0" id="circle171"/>
	<circle cx="557.011" cy="110.421" r="4" fill="#0" id="circle172"/>
	<circle cx="557.011" cy="146.529" r="4" fill="#0" id="circle173"/>
	<circle cx="566.513" cy="89.5172" r="4" fill="#0" id="circle174"/>
	<circle cx="566.513" cy="163.632" r="4" fill="#0" id="circle175"/>
	<circle cx="566.513" cy="519.004" r="4" fill="#0" id="circle176"/>
	<circle cx="566.513" cy="538.008" r="4" fill="#0" id="circle177"/>
	<circle cx="566.513" cy="733.747" r="4" fill="#0" id="circle178"/>
	<circle cx="576.015" cy="461.992" r="4" fill="#0" id="circle179"/>
	<circle cx="576.015" cy="480.996" r="4" fill="#0" id="circle180"/>
	<circle cx="576.015" cy="500" r="4" fill="#0" id="circle181"/>
	<circle cx="576.015" cy="555.111" r="4" fill="#0" id="circle182"/>
	<circle cx="581.716" cy="747.05" r="4" fill="#0" id="circle183"/>
	<circle cx="585.517" cy="171.234" r="4" fill="#0" id="circle184"/>
	<circle cx="585.517" cy="395.479" r="4" fill="#0" id="circle185"/>
	<circle cx="585.517" cy="414.483" r="4" fill="#0" id="circle186"/>
	<circle cx="585.517" cy="433.487" r="4" fill="#0" id="circle187"/>
	<circle cx="585.517" cy="572.215" r="4" fill="#0" id="circle188"/>
	<circle cx="589.318" cy="766.054" r="4" fill="#0" id="circle189"/>
	<circle cx="595.019" cy="589.318" r="4" fill="#0" id="circle190"/>
	<circle cx="600.72" cy="382.176" r="4" fill="#0" id="circle191"/>
	<circle cx="602.621" cy="781.257" r="4" fill="#0" id="circle192"/>
	<circle cx="604.521" cy="175.034" r="4" fill="#0" id="circle193"/>
	<circle cx="604.521" cy="338.467" r="4" fill="#0" id="circle194"/>
	<circle cx="604.521" cy="357.471" r="4" fill="#0" id="circle195"/>
	<circle cx="612.123" cy="798.36" r="4" fill="#0" id="circle196"/>
	<circle cx="614.023" cy="309.962" r="4" fill="#0" id="circle197"/>
	<circle cx="614.023" cy="593.119" r="4" fill="#0" id="circle198"/>
	<circle cx="621.625" cy="815.464" r="4" fill="#0" id="circle199"/>
	<circle cx="623.525" cy="175.034" r="4" fill="#0" id="circle200"/>
	<circle cx="631.126" cy="300.46" r="4" fill="#0" id="circle201"/>
	<circle cx="631.126" cy="602.621" r="4" fill="#0" id="circle202"/>
	<circle cx="634.927" cy="830.667" r="4" fill="#0" id="circle203"/>
	<circle cx="642.529" cy="180.736" r="4" fill="#0" id="circle204"/>
	<circle cx="650.13" cy="300.46" r="4" fill="#0" id="circle205"/>
	<circle cx="650.13" cy="602.621" r="4" fill="#0" id="circle206"/>
	<circle cx="650.13" cy="842.069" r="4" fill="#0" id="circle207"/>
	<circle cx="655.831" cy="861.073" r="4" fill="#0" id="circle208"/>
	<circle cx="661.533" cy="184.536" r="4" fill="#0" id="circle209"/>
	<circle cx="661.533" cy="699.54" r="4" fill="#0" id="circle210"/>
	<circle cx="665.333" cy="718.544" r="4" fill="#0" id="circle211"/>
	<circle cx="667.234" cy="309.962" r="4" fill="#0" id="circle212"/>
	<circle cx="669.134" cy="602.621" r="4" fill="#0" id="circle213"/>
	<circle cx="672.935" cy="870.575" r="4" fill="#0" id="circle214"/>
	<circle cx="680.536" cy="184.536" r="4" fill="#0" id="circle215"/>
	<circle cx="680.536" cy="699.54" r="4" fill="#0" id="circle216"/>
	<circle cx="684.337" cy="319.464" r="4" fill="#0" id="circle217"/>
	<circle cx="684.337" cy="726.146" r="4" fill="#0" id="circle218"/>
	<circle cx="688.138" cy="602.621" r="4" fill="#0" id="circle219"/>
	<circle cx="688.138" cy="881.977" r="4" fill="#0" id="circle220"/>
	<circle cx="697.64" cy="741.349" r="4" fill="#0" id="circle221"/>
	<circle cx="699.54" cy="184.536" r="4" fill="#0" id="circle222"/>
	<circle cx="699.54" cy="699.54" r="4" fill="#0" id="circle223"/>
	<circle cx="701.441" cy="328.966" r="4" fill="#0" id="circle224"/>
	<circle cx="701.441" cy="897.18" r="4" fill="#0" id="circle225"/>
	<circle cx="707.142" cy="602.621" r="4" fill="#0" id="circle226"/>
	<circle cx="707.142" cy="758.452" r="4" fill="#0" id="circle227"/>
	<circle cx="716.644" cy="908.582" r="4" fill="#0" id="circle228"/>
	<circle cx="718.544" cy="184.536" r="4" fill="#0" id="circle229"/>
	<circle cx="718.544" cy="338.467" r="4" fill="#0" id="circle230"/>
	<circle cx="718.544" cy="699.54" r="4" fill="#0" id="circle231"/>
	<circle cx="718.544" cy="773.655" r="4" fill="#0" id="circle232"/>
	<circle cx="722.345" cy="927.586" r="4" fill="#0" id="circle233"/>
	<circle cx="726.146" cy="602.621" r="4" fill="#0" id="circle234"/>
	<circle cx="728.046" cy="790.759" r="4" fill="#0" id="circle235"/>
	<circle cx="731.847" cy="944.69" r="4" fill="#0" id="circle236"/>
	<circle cx="735.648" cy="347.969" r="4" fill="#0" id="circle237"/>
	<circle cx="737.548" cy="184.536" r="4" fill="#0" id="circle238"/>
	<circle cx="737.548" cy="699.54" r="4" fill="#0" id="circle239"/>
	<circle cx="737.548" cy="807.862" r="4" fill="#0" id="circle240"/>
	<circle cx="745.149" cy="602.621" r="4" fill="#0" id="circle241"/>
	<circle cx="745.149" cy="826.866" r="4" fill="#0" id="circle242"/>
	<circle cx="745.149" cy="959.893" r="4" fill="#0" id="circle243"/>
	<circle cx="754.651" cy="347.969" r="4" fill="#0" id="circle244"/>
	<circle cx="756.552" cy="184.536" r="4" fill="#0" id="circle245"/>
	<circle cx="756.552" cy="703.341" r="4" fill="#0" id="circle246"/>
	<circle cx="756.552" cy="842.069" r="4" fill="#0" id="circle247"/>
	<circle cx="760.352" cy="861.073" r="4" fill="#0" id="circle248"/>
	<circle cx="760.352" cy="973.195" r="4" fill="#0" id="circle249"/>
	<circle cx="762.253" cy="612.123" r="4" fill="#0" id="circle250"/>
	<circle cx="771.755" cy="357.471" r="4" fill="#0" id="circle251"/>
	<circle cx="775.556" cy="190.238" r="4" fill="#0" id="circle252"/>
	<circle cx="775.556" cy="709.042" r="4" fill="#0" id="circle253"/>
	<circle cx="775.556" cy="874.375" r="4" fill="#0" id="circle254"/>
	<circle cx="775.556" cy="984.598" r="4" fill="#0" id="circle255"/>
	<circle cx="781.257" cy="612.123" r="4" fill="#0" id="circle256"/>
	<circle cx="785.057" cy="309.962" r="4" fill="#0" id="circle257"/>
	<circle cx="785.057" cy="328.966" r="4" fill="#0" id="circle258"/>
	<circle cx="785.057" cy="891.479" r="4" fill="#0" id="circle259"/>
	<circle cx="792.659" cy="994.1" r="4" fill="#0" id="circle260"/>
	<circle cx="794.559" cy="194.038" r="4" fill="#0" id="circle261"/>
	<circle cx="794.559" cy="709.042" r="4" fill="#0" id="circle262"/>
	<circle cx="796.46" cy="906.682" r="4" fill="#0" id="circle263"/>
	<circle cx="800.261" cy="612.123" r="4" fill="#0" id="circle264"/>
	<circle cx="804.061" cy="309.962" r="4" fill="#0" id="circle265"/>
	<circle cx="804.061" cy="671.034" r="4" fill="#0" id="circle266"/>
	<circle cx="804.061" cy="690.038" r="4" fill="#0" id="circle267"/>
	<circle cx="804.061" cy="925.686" r="4" fill="#0" id="circle268"/>
	<circle cx="804.061" cy="944.69" r="4" fill="#0" id="circle269"/>
	<circle cx="811.663" cy="988.398" r="4" fill="#0" id="circle270"/>
	<circle cx="813.563" cy="194.038" r="4" fill="#0" id="circle271"/>
	<circle cx="813.563" cy="627.326" r="4" fill="#0" id="circle272"/>
	<circle cx="813.563" cy="646.33" r="4" fill="#0" id="circle273"/>
	<circle cx="813.563" cy="961.793" r="4" fill="#0" id="circle274"/>
	<circle cx="823.065" cy="309.962" r="4" fill="#0" id="circle275"/>
	<circle cx="832.567" cy="194.038" r="4" fill="#0" id="circle276"/>
	<circle cx="842.069" cy="309.962" r="4" fill="#0" id="circle277"/>
	<circle cx="851.571" cy="194.038" r="4" fill="#0" id="circle278"/>
	<circle cx="851.571" cy="262.452" r="4" fill="#0" id="circle279"/>
	<circle cx="851.571" cy="281.456" r="4" fill="#0" id="circle280"/>
	<circle cx="861.073" cy="211.142" r="4" fill="#0" id="circle281"/>
	<circle cx="861.073" cy="230.146" r="4" fill="#0" id="circle282"/>
	</g>
</svg>