<?xml version="1.0" encoding="UTF-8" standalone="no"?>
<!-- Created with CurveBenchmark -->
<svg
	xmlns:dc="http://purl.org/dc/elements/1.1/"
	xmlns:cc="http://creativecommons.org/ns#"
	xmlns:rdf="http://www.w3.org/1999/02/22-rdf-syntax-ns#"
	xmlns:svg="http://www.w3.org/2000/svg"
	xmlns="http://www.w3.org/2000/svg"
	xmlns:sodipodi="http://sodipodi.sourceforge.net/DTD/sodipodi-0.dtd"
	xmlns:inkscape="http://www.inkscape.org/namespaces/inkscape"
	width="1000"
	height="1000"
	id="svg2"
	version="1.1"
	sodipodi:docname="manifold/discur-bird40.png.txt">
<defs
	id="defs4" />
<metadata
	id="metadata7">
	<rdf:RDF>
		<cc:Work
			rdf:about="">
			<dc:format>image/svg+xml</dc:format>
			<dc:type
				rdf:resource="http://purl.org/dc/dcmitype/StillImage" />
			<dc:title></dc:title>
		</cc:Work>
	</rdf:RDF>
</metadata>
<g
	inkscape:label="Layer 1"
	inkscape:groupmode="layer"
	id="layer1">
	<path style="fill:none;stroke:red;stroke-width:1px;stroke-linecap:butt;stroke-linejoin:miter;stroke-opacity:1" d="M 4,211.104 4,226.112 z" id="boundary" inkscape:connector-curvature="0" />
	<path style="fill:none;stroke:red;stroke-width:1px;stroke-linecap:butt;stroke-linejoin:miter;stroke-opacity:1" d="M 4,211.104 11.5038,196.097 z" id="boundary" inkscape:connector-curvature="0" />
	<path style="fill:none;stroke:red;stroke-width:1px;stroke-linecap:butt;stroke-linejoin:miter;stroke-opacity:1" d="M 4,226.112 19.0076,226.112 z" id="boundary" inkscape:connector-curvature="0" />
	<path style="fill:none;stroke:red;stroke-width:1px;stroke-linecap:butt;stroke-linejoin:miter;stroke-opacity:1" d="M 11.5038,196.097 23.5098,184.091 z" id="boundary" inkscape:connector-curvature="0" />
	<path style="fill:none;stroke:red;stroke-width:1px;stroke-linecap:butt;stroke-linejoin:miter;stroke-opacity:1" d="M 19.0076,226.112 28.0121,208.103 z" id="boundary" inkscape:connector-curvature="0" />
	<path style="fill:none;stroke:red;stroke-width:1px;stroke-linecap:butt;stroke-linejoin:miter;stroke-opacity:1" d="M 23.5098,184.091 34.0151,166.082 z" id="boundary" inkscape:connector-curvature="0" />
	<path style="fill:none;stroke:red;stroke-width:1px;stroke-linecap:butt;stroke-linejoin:miter;stroke-opacity:1" d="M 28.0121,208.103 43.0197,193.095 z" id="boundary" inkscape:connector-curvature="0" />
	<path style="fill:none;stroke:red;stroke-width:1px;stroke-linecap:butt;stroke-linejoin:miter;stroke-opacity:1" d="M 34.0151,166.082 46.0212,154.076 z" id="boundary" inkscape:connector-curvature="0" />
	<path style="fill:none;stroke:red;stroke-width:1px;stroke-linecap:butt;stroke-linejoin:miter;stroke-opacity:1" d="M 43.0197,193.095 55.0257,182.59 z" id="boundary" inkscape:connector-curvature="0" />
	<path style="fill:none;stroke:red;stroke-width:1px;stroke-linecap:butt;stroke-linejoin:miter;stroke-opacity:1" d="M 46.0212,154.076 58.0272,142.07 z" id="boundary" inkscape:connector-curvature="0" />
	<path style="fill:none;stroke:red;stroke-width:1px;stroke-linecap:butt;stroke-linejoin:miter;stroke-opacity:1" d="M 55.0257,182.59 65.531,170.584 z" id="boundary" inkscape:connector-curvature="0" />
	<path style="fill:none;stroke:red;stroke-width:1px;stroke-linecap:butt;stroke-linejoin:miter;stroke-opacity:1" d="M 58.0272,142.07 65.531,127.062 z" id="boundary" inkscape:connector-curvature="0" />
	<path style="fill:none;stroke:red;stroke-width:1px;stroke-linecap:butt;stroke-linejoin:miter;stroke-opacity:1" d="M 65.531,127.062 77.5371,116.557 z" id="boundary" inkscape:connector-curvature="0" />
	<path style="fill:none;stroke:red;stroke-width:1px;stroke-linecap:butt;stroke-linejoin:miter;stroke-opacity:1" d="M 65.531,170.584 73.0348,155.576 z" id="boundary" inkscape:connector-curvature="0" />
	<path style="fill:none;stroke:red;stroke-width:1px;stroke-linecap:butt;stroke-linejoin:miter;stroke-opacity:1" d="M 73.0348,155.576 86.5416,148.073 z" id="boundary" inkscape:connector-curvature="0" />
	<path style="fill:none;stroke:red;stroke-width:1px;stroke-linecap:butt;stroke-linejoin:miter;stroke-opacity:1" d="M 77.5371,116.557 91.0439,109.053 z" id="boundary" inkscape:connector-curvature="0" />
	<path style="fill:none;stroke:red;stroke-width:1px;stroke-linecap:butt;stroke-linejoin:miter;stroke-opacity:1" d="M 86.5416,148.073 95.5461,133.065 z" id="boundary" inkscape:connector-curvature="0" />
	<path style="fill:none;stroke:red;stroke-width:1px;stroke-linecap:butt;stroke-linejoin:miter;stroke-opacity:1" d="M 91.0439,109.053 98.5477,94.0454 z" id="boundary" inkscape:connector-curvature="0" />
	<path style="fill:none;stroke:red;stroke-width:1px;stroke-linecap:butt;stroke-linejoin:miter;stroke-opacity:1" d="M 95.5461,133.065 109.053,125.561 z" id="boundary" inkscape:connector-curvature="0" />
	<path style="fill:none;stroke:red;stroke-width:1px;stroke-linecap:butt;stroke-linejoin:miter;stroke-opacity:1" d="M 98.5477,94.0454 106.051,79.0378 z" id="boundary" inkscape:connector-curvature="0" />
	<path style="fill:none;stroke:red;stroke-width:1px;stroke-linecap:butt;stroke-linejoin:miter;stroke-opacity:1" d="M 106.051,79.0378 118.057,67.0318 z" id="boundary" inkscape:connector-curvature="0" />
	<path style="fill:none;stroke:red;stroke-width:1px;stroke-linecap:butt;stroke-linejoin:miter;stroke-opacity:1" d="M 109.053,125.561 121.059,116.557 z" id="boundary" inkscape:connector-curvature="0" />
	<path style="fill:none;stroke:red;stroke-width:1px;stroke-linecap:butt;stroke-linejoin:miter;stroke-opacity:1" d="M 118.057,67.0318 130.064,56.5265 z" id="boundary" inkscape:connector-curvature="0" />
	<path style="fill:none;stroke:red;stroke-width:1px;stroke-linecap:butt;stroke-linejoin:miter;stroke-opacity:1" d="M 121.059,116.557 136.067,110.554 z" id="boundary" inkscape:connector-curvature="0" />
	<path style="fill:none;stroke:red;stroke-width:1px;stroke-linecap:butt;stroke-linejoin:miter;stroke-opacity:1" d="M 130.064,56.5265 139.068,38.5174 z" id="boundary" inkscape:connector-curvature="0" />
	<path style="fill:none;stroke:red;stroke-width:1px;stroke-linecap:butt;stroke-linejoin:miter;stroke-opacity:1" d="M 136.067,110.554 149.573,103.05 z" id="boundary" inkscape:connector-curvature="0" />
	<path style="fill:none;stroke:red;stroke-width:1px;stroke-linecap:butt;stroke-linejoin:miter;stroke-opacity:1" d="M 139.068,38.5174 151.074,26.5113 z" id="boundary" inkscape:connector-curvature="0" />
	<path style="fill:none;stroke:red;stroke-width:1px;stroke-linecap:butt;stroke-linejoin:miter;stroke-opacity:1" d="M 149.573,103.05 164.581,103.05 z" id="boundary" inkscape:connector-curvature="0" />
	<path style="fill:none;stroke:red;stroke-width:1px;stroke-linecap:butt;stroke-linejoin:miter;stroke-opacity:1" d="M 151.074,26.5113 164.581,19.0076 z" id="boundary" inkscape:connector-curvature="0" />
	<path style="fill:none;stroke:red;stroke-width:1px;stroke-linecap:butt;stroke-linejoin:miter;stroke-opacity:1" d="M 164.581,19.0076 178.088,11.5038 z" id="boundary" inkscape:connector-curvature="0" />
	<path style="fill:none;stroke:red;stroke-width:1px;stroke-linecap:butt;stroke-linejoin:miter;stroke-opacity:1" d="M 164.581,103.05 178.088,110.554 z" id="boundary" inkscape:connector-curvature="0" />
	<path style="fill:none;stroke:red;stroke-width:1px;stroke-linecap:butt;stroke-linejoin:miter;stroke-opacity:1" d="M 178.088,11.5038 191.595,4 z" id="boundary" inkscape:connector-curvature="0" />
	<path style="fill:none;stroke:red;stroke-width:1px;stroke-linecap:butt;stroke-linejoin:miter;stroke-opacity:1" d="M 178.088,110.554 193.095,113.555 z" id="boundary" inkscape:connector-curvature="0" />
	<path style="fill:none;stroke:red;stroke-width:1px;stroke-linecap:butt;stroke-linejoin:miter;stroke-opacity:1" d="M 191.595,4 206.602,4 z" id="boundary" inkscape:connector-curvature="0" />
	<path style="fill:none;stroke:red;stroke-width:1px;stroke-linecap:butt;stroke-linejoin:miter;stroke-opacity:1" d="M 193.095,113.555 206.602,121.059 z" id="boundary" inkscape:connector-curvature="0" />
	<path style="fill:none;stroke:red;stroke-width:1px;stroke-linecap:butt;stroke-linejoin:miter;stroke-opacity:1" d="M 206.602,4 221.61,4 z" id="boundary" inkscape:connector-curvature="0" />
	<path style="fill:none;stroke:red;stroke-width:1px;stroke-linecap:butt;stroke-linejoin:miter;stroke-opacity:1" d="M 206.602,121.059 214.106,134.566 z" id="boundary" inkscape:connector-curvature="0" />
	<path style="fill:none;stroke:red;stroke-width:1px;stroke-linecap:butt;stroke-linejoin:miter;stroke-opacity:1" d="M 214.106,134.566 221.61,148.073 z" id="boundary" inkscape:connector-curvature="0" />
	<path style="fill:none;stroke:red;stroke-width:1px;stroke-linecap:butt;stroke-linejoin:miter;stroke-opacity:1" d="M 221.61,4 236.617,7.00151 z" id="boundary" inkscape:connector-curvature="0" />
	<path style="fill:none;stroke:red;stroke-width:1px;stroke-linecap:butt;stroke-linejoin:miter;stroke-opacity:1" d="M 221.61,148.073 221.61,163.08 z" id="boundary" inkscape:connector-curvature="0" />
	<path style="fill:none;stroke:red;stroke-width:1px;stroke-linecap:butt;stroke-linejoin:miter;stroke-opacity:1" d="M 221.61,163.08 221.61,178.088 z" id="boundary" inkscape:connector-curvature="0" />
	<path style="fill:none;stroke:red;stroke-width:1px;stroke-linecap:butt;stroke-linejoin:miter;stroke-opacity:1" d="M 221.61,178.088 221.61,193.095 z" id="boundary" inkscape:connector-curvature="0" />
	<path style="fill:none;stroke:red;stroke-width:1px;stroke-linecap:butt;stroke-linejoin:miter;stroke-opacity:1" d="M 221.61,193.095 221.61,208.103 z" id="boundary" inkscape:connector-curvature="0" />
	<path style="fill:none;stroke:red;stroke-width:1px;stroke-linecap:butt;stroke-linejoin:miter;stroke-opacity:1" d="M 221.61,208.103 221.61,223.11 z" id="boundary" inkscape:connector-curvature="0" />
	<path style="fill:none;stroke:red;stroke-width:1px;stroke-linecap:butt;stroke-linejoin:miter;stroke-opacity:1" d="M 221.61,223.11 226.112,238.118 z" id="boundary" inkscape:connector-curvature="0" />
	<path style="fill:none;stroke:red;stroke-width:1px;stroke-linecap:butt;stroke-linejoin:miter;stroke-opacity:1" d="M 226.112,238.118 229.113,253.126 z" id="boundary" inkscape:connector-curvature="0" />
	<path style="fill:none;stroke:red;stroke-width:1px;stroke-linecap:butt;stroke-linejoin:miter;stroke-opacity:1" d="M 229.113,253.126 236.617,266.632 z" id="boundary" inkscape:connector-curvature="0" />
	<path style="fill:none;stroke:red;stroke-width:1px;stroke-linecap:butt;stroke-linejoin:miter;stroke-opacity:1" d="M 236.617,7.00151 245.622,19.0076 z" id="boundary" inkscape:connector-curvature="0" />
	<path style="fill:none;stroke:red;stroke-width:1px;stroke-linecap:butt;stroke-linejoin:miter;stroke-opacity:1" d="M 236.617,266.632 239.619,281.64 z" id="boundary" inkscape:connector-curvature="0" />
	<path style="fill:none;stroke:red;stroke-width:1px;stroke-linecap:butt;stroke-linejoin:miter;stroke-opacity:1" d="M 239.619,281.64 251.625,290.644 z" id="boundary" inkscape:connector-curvature="0" />
	<path style="fill:none;stroke:red;stroke-width:1px;stroke-linecap:butt;stroke-linejoin:miter;stroke-opacity:1" d="M 245.622,19.0076 257.628,28.0121 z" id="boundary" inkscape:connector-curvature="0" />
	<path style="fill:none;stroke:red;stroke-width:1px;stroke-linecap:butt;stroke-linejoin:miter;stroke-opacity:1" d="M 251.625,290.644 259.129,304.151 z" id="boundary" inkscape:connector-curvature="0" />
	<path style="fill:none;stroke:red;stroke-width:1px;stroke-linecap:butt;stroke-linejoin:miter;stroke-opacity:1" d="M 257.628,28.0121 260.629,43.0197 z" id="boundary" inkscape:connector-curvature="0" />
	<path style="fill:none;stroke:red;stroke-width:1px;stroke-linecap:butt;stroke-linejoin:miter;stroke-opacity:1" d="M 259.129,304.151 268.133,316.157 z" id="boundary" inkscape:connector-curvature="0" />
	<path style="fill:none;stroke:red;stroke-width:1px;stroke-linecap:butt;stroke-linejoin:miter;stroke-opacity:1" d="M 260.629,43.0197 268.133,56.5265 z" id="boundary" inkscape:connector-curvature="0" />
	<path style="fill:none;stroke:red;stroke-width:1px;stroke-linecap:butt;stroke-linejoin:miter;stroke-opacity:1" d="M 268.133,56.5265 275.637,70.0333 z" id="boundary" inkscape:connector-curvature="0" />
	<path style="fill:none;stroke:red;stroke-width:1px;stroke-linecap:butt;stroke-linejoin:miter;stroke-opacity:1" d="M 268.133,316.157 274.136,331.165 z" id="boundary" inkscape:connector-curvature="0" />
	<path style="fill:none;stroke:red;stroke-width:1px;stroke-linecap:butt;stroke-linejoin:miter;stroke-opacity:1" d="M 274.136,331.165 289.144,335.667 z" id="boundary" inkscape:connector-curvature="0" />
	<path style="fill:none;stroke:red;stroke-width:1px;stroke-linecap:butt;stroke-linejoin:miter;stroke-opacity:1" d="M 275.637,70.0333 275.637,85.0408 z" id="boundary" inkscape:connector-curvature="0" />
	<path style="fill:none;stroke:red;stroke-width:1px;stroke-linecap:butt;stroke-linejoin:miter;stroke-opacity:1" d="M 275.637,85.0408 275.637,100.048 z" id="boundary" inkscape:connector-curvature="0" />
	<path style="fill:none;stroke:red;stroke-width:1px;stroke-linecap:butt;stroke-linejoin:miter;stroke-opacity:1" d="M 275.637,100.048 275.637,115.056 z" id="boundary" inkscape:connector-curvature="0" />
	<path style="fill:none;stroke:red;stroke-width:1px;stroke-linecap:butt;stroke-linejoin:miter;stroke-opacity:1" d="M 275.637,115.056 275.637,130.064 z" id="boundary" inkscape:connector-curvature="0" />
	<path style="fill:none;stroke:red;stroke-width:1px;stroke-linecap:butt;stroke-linejoin:miter;stroke-opacity:1" d="M 275.637,130.064 283.141,143.57 z" id="boundary" inkscape:connector-curvature="0" />
	<path style="fill:none;stroke:red;stroke-width:1px;stroke-linecap:butt;stroke-linejoin:miter;stroke-opacity:1" d="M 283.141,143.57 283.141,158.578 z" id="boundary" inkscape:connector-curvature="0" />
	<path style="fill:none;stroke:red;stroke-width:1px;stroke-linecap:butt;stroke-linejoin:miter;stroke-opacity:1" d="M 283.141,158.578 283.141,173.585 z" id="boundary" inkscape:connector-curvature="0" />
	<path style="fill:none;stroke:red;stroke-width:1px;stroke-linecap:butt;stroke-linejoin:miter;stroke-opacity:1" d="M 283.141,173.585 289.144,188.593 z" id="boundary" inkscape:connector-curvature="0" />
	<path style="fill:none;stroke:red;stroke-width:1px;stroke-linecap:butt;stroke-linejoin:miter;stroke-opacity:1" d="M 289.144,188.593 296.648,202.1 z" id="boundary" inkscape:connector-curvature="0" />
	<path style="fill:none;stroke:red;stroke-width:1px;stroke-linecap:butt;stroke-linejoin:miter;stroke-opacity:1" d="M 289.144,335.667 302.651,343.171 z" id="boundary" inkscape:connector-curvature="0" />
	<path style="fill:none;stroke:red;stroke-width:1px;stroke-linecap:butt;stroke-linejoin:miter;stroke-opacity:1" d="M 296.648,202.1 302.651,217.107 z" id="boundary" inkscape:connector-curvature="0" />
	<path style="fill:none;stroke:red;stroke-width:1px;stroke-linecap:butt;stroke-linejoin:miter;stroke-opacity:1" d="M 302.651,217.107 313.156,229.113 z" id="boundary" inkscape:connector-curvature="0" />
	<path style="fill:none;stroke:red;stroke-width:1px;stroke-linecap:butt;stroke-linejoin:miter;stroke-opacity:1" d="M 302.651,343.171 313.156,355.177 z" id="boundary" inkscape:connector-curvature="0" />
	<path style="fill:none;stroke:red;stroke-width:1px;stroke-linecap:butt;stroke-linejoin:miter;stroke-opacity:1" d="M 313.156,229.113 328.163,233.616 z" id="boundary" inkscape:connector-curvature="0" />
	<path style="fill:none;stroke:red;stroke-width:1px;stroke-linecap:butt;stroke-linejoin:miter;stroke-opacity:1" d="M 313.156,355.177 320.66,368.684 z" id="boundary" inkscape:connector-curvature="0" />
	<path style="fill:none;stroke:red;stroke-width:1px;stroke-linecap:butt;stroke-linejoin:miter;stroke-opacity:1" d="M 320.66,368.684 331.165,380.69 z" id="boundary" inkscape:connector-curvature="0" />
	<path style="fill:none;stroke:red;stroke-width:1px;stroke-linecap:butt;stroke-linejoin:miter;stroke-opacity:1" d="M 328.163,233.616 334.166,248.623 z" id="boundary" inkscape:connector-curvature="0" />
	<path style="fill:none;stroke:red;stroke-width:1px;stroke-linecap:butt;stroke-linejoin:miter;stroke-opacity:1" d="M 331.165,380.69 341.67,392.696 z" id="boundary" inkscape:connector-curvature="0" />
	<path style="fill:none;stroke:red;stroke-width:1px;stroke-linecap:butt;stroke-linejoin:miter;stroke-opacity:1" d="M 334.166,248.623 346.172,259.129 z" id="boundary" inkscape:connector-curvature="0" />
	<path style="fill:none;stroke:red;stroke-width:1px;stroke-linecap:butt;stroke-linejoin:miter;stroke-opacity:1" d="M 341.67,392.696 349.174,406.203 z" id="boundary" inkscape:connector-curvature="0" />
	<path style="fill:none;stroke:red;stroke-width:1px;stroke-linecap:butt;stroke-linejoin:miter;stroke-opacity:1" d="M 346.172,259.129 361.18,259.129 z" id="boundary" inkscape:connector-curvature="0" />
	<path style="fill:none;stroke:red;stroke-width:1px;stroke-linecap:butt;stroke-linejoin:miter;stroke-opacity:1" d="M 349.174,406.203 356.678,419.71 z" id="boundary" inkscape:connector-curvature="0" />
	<path style="fill:none;stroke:red;stroke-width:1px;stroke-linecap:butt;stroke-linejoin:miter;stroke-opacity:1" d="M 356.678,419.71 367.183,431.716 z" id="boundary" inkscape:connector-curvature="0" />
	<path style="fill:none;stroke:red;stroke-width:1px;stroke-linecap:butt;stroke-linejoin:miter;stroke-opacity:1" d="M 361.18,259.129 376.188,259.129 z" id="boundary" inkscape:connector-curvature="0" />
	<path style="fill:none;stroke:red;stroke-width:1px;stroke-linecap:butt;stroke-linejoin:miter;stroke-opacity:1" d="M 367.183,431.716 382.191,437.719 z" id="boundary" inkscape:connector-curvature="0" />
	<path style="fill:none;stroke:red;stroke-width:1px;stroke-linecap:butt;stroke-linejoin:miter;stroke-opacity:1" d="M 376.188,259.129 389.694,251.625 z" id="boundary" inkscape:connector-curvature="0" />
	<path style="fill:none;stroke:red;stroke-width:1px;stroke-linecap:butt;stroke-linejoin:miter;stroke-opacity:1" d="M 379.189,878.941 379.189,893.949 z" id="boundary" inkscape:connector-curvature="0" />
	<path style="fill:none;stroke:red;stroke-width:1px;stroke-linecap:butt;stroke-linejoin:miter;stroke-opacity:1" d="M 379.189,878.941 391.195,866.935 z" id="boundary" inkscape:connector-curvature="0" />
	<path style="fill:none;stroke:red;stroke-width:1px;stroke-linecap:butt;stroke-linejoin:miter;stroke-opacity:1" d="M 379.189,893.949 386.693,907.455 z" id="boundary" inkscape:connector-curvature="0" />
	<path style="fill:none;stroke:red;stroke-width:1px;stroke-linecap:butt;stroke-linejoin:miter;stroke-opacity:1" d="M 382.191,437.719 394.197,448.224 z" id="boundary" inkscape:connector-curvature="0" />
	<path style="fill:none;stroke:red;stroke-width:1px;stroke-linecap:butt;stroke-linejoin:miter;stroke-opacity:1" d="M 386.693,907.455 401.7,913.458 z" id="boundary" inkscape:connector-curvature="0" />
	<path style="fill:none;stroke:red;stroke-width:1px;stroke-linecap:butt;stroke-linejoin:miter;stroke-opacity:1" d="M 389.694,251.625 404.702,251.625 z" id="boundary" inkscape:connector-curvature="0" />
	<path style="fill:none;stroke:red;stroke-width:1px;stroke-linecap:butt;stroke-linejoin:miter;stroke-opacity:1" d="M 391.195,866.935 406.203,866.935 z" id="boundary" inkscape:connector-curvature="0" />
	<path style="fill:none;stroke:red;stroke-width:1px;stroke-linecap:butt;stroke-linejoin:miter;stroke-opacity:1" d="M 394.197,448.224 407.703,455.728 z" id="boundary" inkscape:connector-curvature="0" />
	<path style="fill:none;stroke:red;stroke-width:1px;stroke-linecap:butt;stroke-linejoin:miter;stroke-opacity:1" d="M 401.7,913.458 416.708,908.956 z" id="boundary" inkscape:connector-curvature="0" />
	<path style="fill:none;stroke:red;stroke-width:1px;stroke-linecap:butt;stroke-linejoin:miter;stroke-opacity:1" d="M 404.702,251.625 419.71,245.622 z" id="boundary" inkscape:connector-curvature="0" />
	<path style="fill:none;stroke:red;stroke-width:1px;stroke-linecap:butt;stroke-linejoin:miter;stroke-opacity:1" d="M 406.203,866.935 419.71,874.439 z" id="boundary" inkscape:connector-curvature="0" />
	<path style="fill:none;stroke:red;stroke-width:1px;stroke-linecap:butt;stroke-linejoin:miter;stroke-opacity:1" d="M 407.703,455.728 421.21,463.231 z" id="boundary" inkscape:connector-curvature="0" />
	<path style="fill:none;stroke:red;stroke-width:1px;stroke-linecap:butt;stroke-linejoin:miter;stroke-opacity:1" d="M 416.708,908.956 431.716,905.955 z" id="boundary" inkscape:connector-curvature="0" />
	<path style="fill:none;stroke:red;stroke-width:1px;stroke-linecap:butt;stroke-linejoin:miter;stroke-opacity:1" d="M 419.71,245.622 434.717,244.121 z" id="boundary" inkscape:connector-curvature="0" />
	<path style="fill:none;stroke:red;stroke-width:1px;stroke-linecap:butt;stroke-linejoin:miter;stroke-opacity:1" d="M 419.71,874.439 434.717,874.439 z" id="boundary" inkscape:connector-curvature="0" />
	<path style="fill:none;stroke:red;stroke-width:1px;stroke-linecap:butt;stroke-linejoin:miter;stroke-opacity:1" d="M 421.21,463.231 434.717,470.735 z" id="boundary" inkscape:connector-curvature="0" />
	<path style="fill:none;stroke:red;stroke-width:1px;stroke-linecap:butt;stroke-linejoin:miter;stroke-opacity:1" d="M 431.716,905.955 445.222,898.451 z" id="boundary" inkscape:connector-curvature="0" />
	<path style="fill:none;stroke:red;stroke-width:1px;stroke-linecap:butt;stroke-linejoin:miter;stroke-opacity:1" d="M 434.717,244.121 449.725,244.121 z" id="boundary" inkscape:connector-curvature="0" />
	<path style="fill:none;stroke:red;stroke-width:1px;stroke-linecap:butt;stroke-linejoin:miter;stroke-opacity:1" d="M 434.717,470.735 449.725,475.238 z" id="boundary" inkscape:connector-curvature="0" />
	<path style="fill:none;stroke:red;stroke-width:1px;stroke-linecap:butt;stroke-linejoin:miter;stroke-opacity:1" d="M 434.717,874.439 449.725,868.436 z" id="boundary" inkscape:connector-curvature="0" />
	<path style="fill:none;stroke:red;stroke-width:1px;stroke-linecap:butt;stroke-linejoin:miter;stroke-opacity:1" d="M 445.222,898.451 460.23,895.449 z" id="boundary" inkscape:connector-curvature="0" />
	<path style="fill:none;stroke:red;stroke-width:1px;stroke-linecap:butt;stroke-linejoin:miter;stroke-opacity:1" d="M 449.725,244.121 464.732,244.121 z" id="boundary" inkscape:connector-curvature="0" />
	<path style="fill:none;stroke:red;stroke-width:1px;stroke-linecap:butt;stroke-linejoin:miter;stroke-opacity:1" d="M 449.725,475.238 464.732,478.239 z" id="boundary" inkscape:connector-curvature="0" />
	<path style="fill:none;stroke:red;stroke-width:1px;stroke-linecap:butt;stroke-linejoin:miter;stroke-opacity:1" d="M 449.725,868.436 464.732,866.935 z" id="boundary" inkscape:connector-curvature="0" />
	<path style="fill:none;stroke:red;stroke-width:1px;stroke-linecap:butt;stroke-linejoin:miter;stroke-opacity:1" d="M 460.23,895.449 475.238,890.947 z" id="boundary" inkscape:connector-curvature="0" />
	<path style="fill:none;stroke:red;stroke-width:1px;stroke-linecap:butt;stroke-linejoin:miter;stroke-opacity:1" d="M 464.732,244.121 479.74,244.121 z" id="boundary" inkscape:connector-curvature="0" />
	<path style="fill:none;stroke:red;stroke-width:1px;stroke-linecap:butt;stroke-linejoin:miter;stroke-opacity:1" d="M 464.732,478.239 478.239,485.743 z" id="boundary" inkscape:connector-curvature="0" />
	<path style="fill:none;stroke:red;stroke-width:1px;stroke-linecap:butt;stroke-linejoin:miter;stroke-opacity:1" d="M 464.732,866.935 476.738,856.43 z" id="boundary" inkscape:connector-curvature="0" />
	<path style="fill:none;stroke:red;stroke-width:1px;stroke-linecap:butt;stroke-linejoin:miter;stroke-opacity:1" d="M 475.238,890.947 490.245,887.946 z" id="boundary" inkscape:connector-curvature="0" />
	<path style="fill:none;stroke:red;stroke-width:1px;stroke-linecap:butt;stroke-linejoin:miter;stroke-opacity:1" d="M 476.738,811.407 476.738,826.415 z" id="boundary" inkscape:connector-curvature="0" />
	<path style="fill:none;stroke:red;stroke-width:1px;stroke-linecap:butt;stroke-linejoin:miter;stroke-opacity:1" d="M 476.738,811.407 484.242,788.896 z" id="boundary" inkscape:connector-curvature="0" />
	<path style="fill:none;stroke:red;stroke-width:1px;stroke-linecap:butt;stroke-linejoin:miter;stroke-opacity:1" d="M 476.738,826.415 476.738,841.422 z" id="boundary" inkscape:connector-curvature="0" />
	<path style="fill:none;stroke:red;stroke-width:1px;stroke-linecap:butt;stroke-linejoin:miter;stroke-opacity:1" d="M 476.738,841.422 476.738,856.43 z" id="boundary" inkscape:connector-curvature="0" />
	<path style="fill:none;stroke:red;stroke-width:1px;stroke-linecap:butt;stroke-linejoin:miter;stroke-opacity:1" d="M 478.239,485.743 491.746,493.247 z" id="boundary" inkscape:connector-curvature="0" />
	<path style="fill:none;stroke:red;stroke-width:1px;stroke-linecap:butt;stroke-linejoin:miter;stroke-opacity:1" d="M 479.74,244.121 494.747,238.118 z" id="boundary" inkscape:connector-curvature="0" />
	<path style="fill:none;stroke:red;stroke-width:1px;stroke-linecap:butt;stroke-linejoin:miter;stroke-opacity:1" d="M 484.242,788.896 491.746,773.888 z" id="boundary" inkscape:connector-curvature="0" />
	<path style="fill:none;stroke:red;stroke-width:1px;stroke-linecap:butt;stroke-linejoin:miter;stroke-opacity:1" d="M 490.245,887.946 497.749,872.938 z" id="boundary" inkscape:connector-curvature="0" />
	<path style="fill:none;stroke:red;stroke-width:1px;stroke-linecap:butt;stroke-linejoin:miter;stroke-opacity:1" d="M 491.746,493.247 505.253,500.75 z" id="boundary" inkscape:connector-curvature="0" />
	<path style="fill:none;stroke:red;stroke-width:1px;stroke-linecap:butt;stroke-linejoin:miter;stroke-opacity:1" d="M 491.746,758.88 491.746,773.888 z" id="boundary" inkscape:connector-curvature="0" />
	<path style="fill:none;stroke:red;stroke-width:1px;stroke-linecap:butt;stroke-linejoin:miter;stroke-opacity:1" d="M 491.746,758.88 499.25,736.369 z" id="boundary" inkscape:connector-curvature="0" />
	<path style="fill:none;stroke:red;stroke-width:1px;stroke-linecap:butt;stroke-linejoin:miter;stroke-opacity:1" d="M 494.747,238.118 509.755,236.617 z" id="boundary" inkscape:connector-curvature="0" />
	<path style="fill:none;stroke:red;stroke-width:1px;stroke-linecap:butt;stroke-linejoin:miter;stroke-opacity:1" d="M 497.749,872.938 500.75,853.428 z" id="boundary" inkscape:connector-curvature="0" />
	<path style="fill:none;stroke:red;stroke-width:1px;stroke-linecap:butt;stroke-linejoin:miter;stroke-opacity:1" d="M 499.25,736.369 506.753,713.858 z" id="boundary" inkscape:connector-curvature="0" />
	<path style="fill:none;stroke:red;stroke-width:1px;stroke-linecap:butt;stroke-linejoin:miter;stroke-opacity:1" d="M 500.75,823.413 500.75,838.421 z" id="boundary" inkscape:connector-curvature="0" />
	<path style="fill:none;stroke:red;stroke-width:1px;stroke-linecap:butt;stroke-linejoin:miter;stroke-opacity:1" d="M 500.75,823.413 508.254,808.405 z" id="boundary" inkscape:connector-curvature="0" />
	<path style="fill:none;stroke:red;stroke-width:1px;stroke-linecap:butt;stroke-linejoin:miter;stroke-opacity:1" d="M 500.75,838.421 500.75,853.428 z" id="boundary" inkscape:connector-curvature="0" />
	<path style="fill:none;stroke:red;stroke-width:1px;stroke-linecap:butt;stroke-linejoin:miter;stroke-opacity:1" d="M 505.253,500.75 511.256,515.758 z" id="boundary" inkscape:connector-curvature="0" />
	<path style="fill:none;stroke:red;stroke-width:1px;stroke-linecap:butt;stroke-linejoin:miter;stroke-opacity:1" d="M 506.753,713.858 514.257,691.346 z" id="boundary" inkscape:connector-curvature="0" />
	<path style="fill:none;stroke:red;stroke-width:1px;stroke-linecap:butt;stroke-linejoin:miter;stroke-opacity:1" d="M 508.254,793.398 508.254,808.405 z" id="boundary" inkscape:connector-curvature="0" />
	<path style="fill:none;stroke:red;stroke-width:1px;stroke-linecap:butt;stroke-linejoin:miter;stroke-opacity:1" d="M 508.254,793.398 515.758,770.887 z" id="boundary" inkscape:connector-curvature="0" />
	<path style="fill:none;stroke:red;stroke-width:1px;stroke-linecap:butt;stroke-linejoin:miter;stroke-opacity:1" d="M 509.755,236.617 524.762,236.617 z" id="boundary" inkscape:connector-curvature="0" />
	<path style="fill:none;stroke:red;stroke-width:1px;stroke-linecap:butt;stroke-linejoin:miter;stroke-opacity:1" d="M 511.256,515.758 514.257,530.766 z" id="boundary" inkscape:connector-curvature="0" />
	<path style="fill:none;stroke:red;stroke-width:1px;stroke-linecap:butt;stroke-linejoin:miter;stroke-opacity:1" d="M 514.257,530.766 514.257,545.773 z" id="boundary" inkscape:connector-curvature="0" />
	<path style="fill:none;stroke:red;stroke-width:1px;stroke-linecap:butt;stroke-linejoin:miter;stroke-opacity:1" d="M 514.257,545.773 521.761,559.28 z" id="boundary" inkscape:connector-curvature="0" />
	<path style="fill:none;stroke:red;stroke-width:1px;stroke-linecap:butt;stroke-linejoin:miter;stroke-opacity:1" d="M 514.257,691.346 521.761,676.339 z" id="boundary" inkscape:connector-curvature="0" />
	<path style="fill:none;stroke:red;stroke-width:1px;stroke-linecap:butt;stroke-linejoin:miter;stroke-opacity:1" d="M 515.758,755.879 515.758,770.887 z" id="boundary" inkscape:connector-curvature="0" />
	<path style="fill:none;stroke:red;stroke-width:1px;stroke-linecap:butt;stroke-linejoin:miter;stroke-opacity:1" d="M 515.758,755.879 523.262,733.368 z" id="boundary" inkscape:connector-curvature="0" />
	<path style="fill:none;stroke:red;stroke-width:1px;stroke-linecap:butt;stroke-linejoin:miter;stroke-opacity:1" d="M 521.761,559.28 521.761,574.287 z" id="boundary" inkscape:connector-curvature="0" />
	<path style="fill:none;stroke:red;stroke-width:1px;stroke-linecap:butt;stroke-linejoin:miter;stroke-opacity:1" d="M 521.761,574.287 529.265,587.794 z" id="boundary" inkscape:connector-curvature="0" />
	<path style="fill:none;stroke:red;stroke-width:1px;stroke-linecap:butt;stroke-linejoin:miter;stroke-opacity:1" d="M 521.761,661.331 521.761,676.339 z" id="boundary" inkscape:connector-curvature="0" />
	<path style="fill:none;stroke:red;stroke-width:1px;stroke-linecap:butt;stroke-linejoin:miter;stroke-opacity:1" d="M 521.761,661.331 529.265,647.825 z" id="boundary" inkscape:connector-curvature="0" />
	<path style="fill:none;stroke:red;stroke-width:1px;stroke-linecap:butt;stroke-linejoin:miter;stroke-opacity:1" d="M 523.262,733.368 530.766,718.36 z" id="boundary" inkscape:connector-curvature="0" />
	<path style="fill:none;stroke:red;stroke-width:1px;stroke-linecap:butt;stroke-linejoin:miter;stroke-opacity:1" d="M 524.762,236.617 538.269,244.121 z" id="boundary" inkscape:connector-curvature="0" />
	<path style="fill:none;stroke:red;stroke-width:1px;stroke-linecap:butt;stroke-linejoin:miter;stroke-opacity:1" d="M 529.265,587.794 529.265,602.802 z" id="boundary" inkscape:connector-curvature="0" />
	<path style="fill:none;stroke:red;stroke-width:1px;stroke-linecap:butt;stroke-linejoin:miter;stroke-opacity:1" d="M 529.265,602.802 529.265,617.809 z" id="boundary" inkscape:connector-curvature="0" />
	<path style="fill:none;stroke:red;stroke-width:1px;stroke-linecap:butt;stroke-linejoin:miter;stroke-opacity:1" d="M 529.265,617.809 529.265,632.817 z" id="boundary" inkscape:connector-curvature="0" />
	<path style="fill:none;stroke:red;stroke-width:1px;stroke-linecap:butt;stroke-linejoin:miter;stroke-opacity:1" d="M 529.265,632.817 529.265,647.825 z" id="boundary" inkscape:connector-curvature="0" />
	<path style="fill:none;stroke:red;stroke-width:1px;stroke-linecap:butt;stroke-linejoin:miter;stroke-opacity:1" d="M 530.766,718.36 538.269,703.352 z" id="boundary" inkscape:connector-curvature="0" />
	<path style="fill:none;stroke:red;stroke-width:1px;stroke-linecap:butt;stroke-linejoin:miter;stroke-opacity:1" d="M 538.269,244.121 553.277,244.121 z" id="boundary" inkscape:connector-curvature="0" />
	<path style="fill:none;stroke:red;stroke-width:1px;stroke-linecap:butt;stroke-linejoin:miter;stroke-opacity:1" d="M 538.269,523.262 538.269,538.269 z" id="boundary" inkscape:connector-curvature="0" />
	<path style="fill:none;stroke:red;stroke-width:1px;stroke-linecap:butt;stroke-linejoin:miter;stroke-opacity:1" d="M 538.269,523.262 550.275,512.756 z" id="boundary" inkscape:connector-curvature="0" />
	<path style="fill:none;stroke:red;stroke-width:1px;stroke-linecap:butt;stroke-linejoin:miter;stroke-opacity:1" d="M 538.269,538.269 545.773,551.776 z" id="boundary" inkscape:connector-curvature="0" />
	<path style="fill:none;stroke:red;stroke-width:1px;stroke-linecap:butt;stroke-linejoin:miter;stroke-opacity:1" d="M 538.269,688.345 538.269,703.352 z" id="boundary" inkscape:connector-curvature="0" />
	<path style="fill:none;stroke:red;stroke-width:1px;stroke-linecap:butt;stroke-linejoin:miter;stroke-opacity:1" d="M 538.269,688.345 545.773,673.337 z" id="boundary" inkscape:connector-curvature="0" />
	<path style="fill:none;stroke:red;stroke-width:1px;stroke-linecap:butt;stroke-linejoin:miter;stroke-opacity:1" d="M 545.773,551.776 545.773,566.784 z" id="boundary" inkscape:connector-curvature="0" />
	<path style="fill:none;stroke:red;stroke-width:1px;stroke-linecap:butt;stroke-linejoin:miter;stroke-opacity:1" d="M 545.773,566.784 545.773,581.791 z" id="boundary" inkscape:connector-curvature="0" />
	<path style="fill:none;stroke:red;stroke-width:1px;stroke-linecap:butt;stroke-linejoin:miter;stroke-opacity:1" d="M 545.773,581.791 553.277,595.298 z" id="boundary" inkscape:connector-curvature="0" />
	<path style="fill:none;stroke:red;stroke-width:1px;stroke-linecap:butt;stroke-linejoin:miter;stroke-opacity:1" d="M 545.773,673.337 553.277,658.33 z" id="boundary" inkscape:connector-curvature="0" />
	<path style="fill:none;stroke:red;stroke-width:1px;stroke-linecap:butt;stroke-linejoin:miter;stroke-opacity:1" d="M 550.275,512.756 557.779,497.749 z" id="boundary" inkscape:connector-curvature="0" />
	<path style="fill:none;stroke:red;stroke-width:1px;stroke-linecap:butt;stroke-linejoin:miter;stroke-opacity:1" d="M 553.277,244.121 568.284,244.121 z" id="boundary" inkscape:connector-curvature="0" />
	<path style="fill:none;stroke:red;stroke-width:1px;stroke-linecap:butt;stroke-linejoin:miter;stroke-opacity:1" d="M 553.277,595.298 553.277,610.306 z" id="boundary" inkscape:connector-curvature="0" />
	<path style="fill:none;stroke:red;stroke-width:1px;stroke-linecap:butt;stroke-linejoin:miter;stroke-opacity:1" d="M 553.277,610.306 560.781,623.812 z" id="boundary" inkscape:connector-curvature="0" />
	<path style="fill:none;stroke:red;stroke-width:1px;stroke-linecap:butt;stroke-linejoin:miter;stroke-opacity:1" d="M 553.277,643.322 553.277,658.33 z" id="boundary" inkscape:connector-curvature="0" />
	<path style="fill:none;stroke:red;stroke-width:1px;stroke-linecap:butt;stroke-linejoin:miter;stroke-opacity:1" d="M 553.277,643.322 560.781,623.812 z" id="boundary" inkscape:connector-curvature="0" />
	<path style="fill:none;stroke:red;stroke-width:1px;stroke-linecap:butt;stroke-linejoin:miter;stroke-opacity:1" d="M 557.779,497.749 572.787,500.75 z" id="boundary" inkscape:connector-curvature="0" />
	<path style="fill:none;stroke:red;stroke-width:1px;stroke-linecap:butt;stroke-linejoin:miter;stroke-opacity:1" d="M 568.284,244.121 583.292,248.623 z" id="boundary" inkscape:connector-curvature="0" />
	<path style="fill:none;stroke:red;stroke-width:1px;stroke-linecap:butt;stroke-linejoin:miter;stroke-opacity:1" d="M 572.787,500.75 583.292,512.756 z" id="boundary" inkscape:connector-curvature="0" />
	<path style="fill:none;stroke:red;stroke-width:1px;stroke-linecap:butt;stroke-linejoin:miter;stroke-opacity:1" d="M 581.791,856.43 590.796,868.436 z" id="boundary" inkscape:connector-curvature="0" />
	<path style="fill:none;stroke:red;stroke-width:1px;stroke-linecap:butt;stroke-linejoin:miter;stroke-opacity:1" d="M 581.791,856.43 596.799,851.927 z" id="boundary" inkscape:connector-curvature="0" />
	<path style="fill:none;stroke:red;stroke-width:1px;stroke-linecap:butt;stroke-linejoin:miter;stroke-opacity:1" d="M 583.292,248.623 598.3,251.625 z" id="boundary" inkscape:connector-curvature="0" />
	<path style="fill:none;stroke:red;stroke-width:1px;stroke-linecap:butt;stroke-linejoin:miter;stroke-opacity:1" d="M 583.292,512.756 595.298,523.262 z" id="boundary" inkscape:connector-curvature="0" />
	<path style="fill:none;stroke:red;stroke-width:1px;stroke-linecap:butt;stroke-linejoin:miter;stroke-opacity:1" d="M 590.796,868.436 604.303,875.939 z" id="boundary" inkscape:connector-curvature="0" />
	<path style="fill:none;stroke:red;stroke-width:1px;stroke-linecap:butt;stroke-linejoin:miter;stroke-opacity:1" d="M 595.298,523.262 604.303,535.268 z" id="boundary" inkscape:connector-curvature="0" />
	<path style="fill:none;stroke:red;stroke-width:1px;stroke-linecap:butt;stroke-linejoin:miter;stroke-opacity:1" d="M 596.799,851.927 611.806,851.927 z" id="boundary" inkscape:connector-curvature="0" />
	<path style="fill:none;stroke:red;stroke-width:1px;stroke-linecap:butt;stroke-linejoin:miter;stroke-opacity:1" d="M 598.3,251.625 613.307,251.625 z" id="boundary" inkscape:connector-curvature="0" />
	<path style="fill:none;stroke:red;stroke-width:1px;stroke-linecap:butt;stroke-linejoin:miter;stroke-opacity:1" d="M 604.303,535.268 611.806,548.775 z" id="boundary" inkscape:connector-curvature="0" />
	<path style="fill:none;stroke:red;stroke-width:1px;stroke-linecap:butt;stroke-linejoin:miter;stroke-opacity:1" d="M 604.303,875.939 611.806,889.446 z" id="boundary" inkscape:connector-curvature="0" />
	<path style="fill:none;stroke:red;stroke-width:1px;stroke-linecap:butt;stroke-linejoin:miter;stroke-opacity:1" d="M 611.806,548.775 619.31,562.281 z" id="boundary" inkscape:connector-curvature="0" />
	<path style="fill:none;stroke:red;stroke-width:1px;stroke-linecap:butt;stroke-linejoin:miter;stroke-opacity:1" d="M 611.806,851.927 625.313,859.431 z" id="boundary" inkscape:connector-curvature="0" />
	<path style="fill:none;stroke:red;stroke-width:1px;stroke-linecap:butt;stroke-linejoin:miter;stroke-opacity:1" d="M 611.806,889.446 614.808,904.454 z" id="boundary" inkscape:connector-curvature="0" />
	<path style="fill:none;stroke:red;stroke-width:1px;stroke-linecap:butt;stroke-linejoin:miter;stroke-opacity:1" d="M 613.307,251.625 626.814,259.129 z" id="boundary" inkscape:connector-curvature="0" />
	<path style="fill:none;stroke:red;stroke-width:1px;stroke-linecap:butt;stroke-linejoin:miter;stroke-opacity:1" d="M 614.808,904.454 629.815,905.955 z" id="boundary" inkscape:connector-curvature="0" />
	<path style="fill:none;stroke:red;stroke-width:1px;stroke-linecap:butt;stroke-linejoin:miter;stroke-opacity:1" d="M 619.31,562.281 629.815,574.287 z" id="boundary" inkscape:connector-curvature="0" />
	<path style="fill:none;stroke:red;stroke-width:1px;stroke-linecap:butt;stroke-linejoin:miter;stroke-opacity:1" d="M 620.811,493.247 620.811,508.254 z" id="boundary" inkscape:connector-curvature="0" />
	<path style="fill:none;stroke:red;stroke-width:1px;stroke-linecap:butt;stroke-linejoin:miter;stroke-opacity:1" d="M 620.811,493.247 635.818,485.743 z" id="boundary" inkscape:connector-curvature="0" />
	<path style="fill:none;stroke:red;stroke-width:1px;stroke-linecap:butt;stroke-linejoin:miter;stroke-opacity:1" d="M 620.811,508.254 623.812,523.262 z" id="boundary" inkscape:connector-curvature="0" />
	<path style="fill:none;stroke:red;stroke-width:1px;stroke-linecap:butt;stroke-linejoin:miter;stroke-opacity:1" d="M 623.812,523.262 628.315,538.269 z" id="boundary" inkscape:connector-curvature="0" />
	<path style="fill:none;stroke:red;stroke-width:1px;stroke-linecap:butt;stroke-linejoin:miter;stroke-opacity:1" d="M 625.313,859.431 640.321,859.431 z" id="boundary" inkscape:connector-curvature="0" />
	<path style="fill:none;stroke:red;stroke-width:1px;stroke-linecap:butt;stroke-linejoin:miter;stroke-opacity:1" d="M 626.814,259.129 641.821,259.129 z" id="boundary" inkscape:connector-curvature="0" />
	<path style="fill:none;stroke:red;stroke-width:1px;stroke-linecap:butt;stroke-linejoin:miter;stroke-opacity:1" d="M 628.315,538.269 640.321,547.274 z" id="boundary" inkscape:connector-curvature="0" />
	<path style="fill:none;stroke:red;stroke-width:1px;stroke-linecap:butt;stroke-linejoin:miter;stroke-opacity:1" d="M 629.815,574.287 641.821,583.292 z" id="boundary" inkscape:connector-curvature="0" />
	<path style="fill:none;stroke:red;stroke-width:1px;stroke-linecap:butt;stroke-linejoin:miter;stroke-opacity:1" d="M 629.815,905.955 643.322,898.451 z" id="boundary" inkscape:connector-curvature="0" />
	<path style="fill:none;stroke:red;stroke-width:1px;stroke-linecap:butt;stroke-linejoin:miter;stroke-opacity:1" d="M 635.818,485.743 650.826,485.743 z" id="boundary" inkscape:connector-curvature="0" />
	<path style="fill:none;stroke:red;stroke-width:1px;stroke-linecap:butt;stroke-linejoin:miter;stroke-opacity:1" d="M 640.321,547.274 650.826,559.28 z" id="boundary" inkscape:connector-curvature="0" />
	<path style="fill:none;stroke:red;stroke-width:1px;stroke-linecap:butt;stroke-linejoin:miter;stroke-opacity:1" d="M 640.321,859.431 650.826,847.425 z" id="boundary" inkscape:connector-curvature="0" />
	<path style="fill:none;stroke:red;stroke-width:1px;stroke-linecap:butt;stroke-linejoin:miter;stroke-opacity:1" d="M 641.821,259.129 655.328,266.632 z" id="boundary" inkscape:connector-curvature="0" />
	<path style="fill:none;stroke:red;stroke-width:1px;stroke-linecap:butt;stroke-linejoin:miter;stroke-opacity:1" d="M 641.821,583.292 641.821,598.3 z" id="boundary" inkscape:connector-curvature="0" />
	<path style="fill:none;stroke:red;stroke-width:1px;stroke-linecap:butt;stroke-linejoin:miter;stroke-opacity:1" d="M 641.821,598.3 649.325,611.806 z" id="boundary" inkscape:connector-curvature="0" />
	<path style="fill:none;stroke:red;stroke-width:1px;stroke-linecap:butt;stroke-linejoin:miter;stroke-opacity:1" d="M 643.322,898.451 658.33,890.947 z" id="boundary" inkscape:connector-curvature="0" />
	<path style="fill:none;stroke:red;stroke-width:1px;stroke-linecap:butt;stroke-linejoin:miter;stroke-opacity:1" d="M 649.325,611.806 649.325,626.814 z" id="boundary" inkscape:connector-curvature="0" />
	<path style="fill:none;stroke:red;stroke-width:1px;stroke-linecap:butt;stroke-linejoin:miter;stroke-opacity:1" d="M 649.325,626.814 649.325,641.821 z" id="boundary" inkscape:connector-curvature="0" />
	<path style="fill:none;stroke:red;stroke-width:1px;stroke-linecap:butt;stroke-linejoin:miter;stroke-opacity:1" d="M 649.325,641.821 649.325,656.829 z" id="boundary" inkscape:connector-curvature="0" />
	<path style="fill:none;stroke:red;stroke-width:1px;stroke-linecap:butt;stroke-linejoin:miter;stroke-opacity:1" d="M 649.325,656.829 652.327,671.837 z" id="boundary" inkscape:connector-curvature="0" />
	<path style="fill:none;stroke:red;stroke-width:1px;stroke-linecap:butt;stroke-linejoin:miter;stroke-opacity:1" d="M 650.826,485.743 665.834,485.743 z" id="boundary" inkscape:connector-curvature="0" />
	<path style="fill:none;stroke:red;stroke-width:1px;stroke-linecap:butt;stroke-linejoin:miter;stroke-opacity:1" d="M 650.826,559.28 658.33,572.787 z" id="boundary" inkscape:connector-curvature="0" />
	<path style="fill:none;stroke:red;stroke-width:1px;stroke-linecap:butt;stroke-linejoin:miter;stroke-opacity:1" d="M 650.826,847.425 656.829,821.912 z" id="boundary" inkscape:connector-curvature="0" />
	<path style="fill:none;stroke:red;stroke-width:1px;stroke-linecap:butt;stroke-linejoin:miter;stroke-opacity:1" d="M 652.327,671.837 656.829,686.844 z" id="boundary" inkscape:connector-curvature="0" />
	<path style="fill:none;stroke:red;stroke-width:1px;stroke-linecap:butt;stroke-linejoin:miter;stroke-opacity:1" d="M 655.328,266.632 670.336,268.133 z" id="boundary" inkscape:connector-curvature="0" />
	<path style="fill:none;stroke:red;stroke-width:1px;stroke-linecap:butt;stroke-linejoin:miter;stroke-opacity:1" d="M 656.829,686.844 656.829,701.852 z" id="boundary" inkscape:connector-curvature="0" />
	<path style="fill:none;stroke:red;stroke-width:1px;stroke-linecap:butt;stroke-linejoin:miter;stroke-opacity:1" d="M 656.829,701.852 656.829,716.859 z" id="boundary" inkscape:connector-curvature="0" />
	<path style="fill:none;stroke:red;stroke-width:1px;stroke-linecap:butt;stroke-linejoin:miter;stroke-opacity:1" d="M 656.829,716.859 656.829,731.867 z" id="boundary" inkscape:connector-curvature="0" />
	<path style="fill:none;stroke:red;stroke-width:1px;stroke-linecap:butt;stroke-linejoin:miter;stroke-opacity:1" d="M 656.829,731.867 656.829,746.874 z" id="boundary" inkscape:connector-curvature="0" />
	<path style="fill:none;stroke:red;stroke-width:1px;stroke-linecap:butt;stroke-linejoin:miter;stroke-opacity:1" d="M 656.829,746.874 656.829,761.882 z" id="boundary" inkscape:connector-curvature="0" />
	<path style="fill:none;stroke:red;stroke-width:1px;stroke-linecap:butt;stroke-linejoin:miter;stroke-opacity:1" d="M 656.829,761.882 656.829,776.89 z" id="boundary" inkscape:connector-curvature="0" />
	<path style="fill:none;stroke:red;stroke-width:1px;stroke-linecap:butt;stroke-linejoin:miter;stroke-opacity:1" d="M 656.829,776.89 656.829,791.897 z" id="boundary" inkscape:connector-curvature="0" />
	<path style="fill:none;stroke:red;stroke-width:1px;stroke-linecap:butt;stroke-linejoin:miter;stroke-opacity:1" d="M 656.829,791.897 656.829,806.905 z" id="boundary" inkscape:connector-curvature="0" />
	<path style="fill:none;stroke:red;stroke-width:1px;stroke-linecap:butt;stroke-linejoin:miter;stroke-opacity:1" d="M 656.829,806.905 656.829,821.912 z" id="boundary" inkscape:connector-curvature="0" />
	<path style="fill:none;stroke:red;stroke-width:1px;stroke-linecap:butt;stroke-linejoin:miter;stroke-opacity:1" d="M 658.33,572.787 665.834,586.293 z" id="boundary" inkscape:connector-curvature="0" />
	<path style="fill:none;stroke:red;stroke-width:1px;stroke-linecap:butt;stroke-linejoin:miter;stroke-opacity:1" d="M 658.33,890.947 665.834,875.939 z" id="boundary" inkscape:connector-curvature="0" />
	<path style="fill:none;stroke:red;stroke-width:1px;stroke-linecap:butt;stroke-linejoin:miter;stroke-opacity:1" d="M 665.834,485.743 680.841,485.743 z" id="boundary" inkscape:connector-curvature="0" />
	<path style="fill:none;stroke:red;stroke-width:1px;stroke-linecap:butt;stroke-linejoin:miter;stroke-opacity:1" d="M 665.834,586.293 665.834,601.301 z" id="boundary" inkscape:connector-curvature="0" />
	<path style="fill:none;stroke:red;stroke-width:1px;stroke-linecap:butt;stroke-linejoin:miter;stroke-opacity:1" d="M 665.834,601.301 673.337,614.808 z" id="boundary" inkscape:connector-curvature="0" />
	<path style="fill:none;stroke:red;stroke-width:1px;stroke-linecap:butt;stroke-linejoin:miter;stroke-opacity:1" d="M 665.834,875.939 673.337,860.932 z" id="boundary" inkscape:connector-curvature="0" />
	<path style="fill:none;stroke:red;stroke-width:1px;stroke-linecap:butt;stroke-linejoin:miter;stroke-opacity:1" d="M 670.336,268.133 685.343,274.136 z" id="boundary" inkscape:connector-curvature="0" />
	<path style="fill:none;stroke:red;stroke-width:1px;stroke-linecap:butt;stroke-linejoin:miter;stroke-opacity:1" d="M 673.337,614.808 680.841,628.315 z" id="boundary" inkscape:connector-curvature="0" />
	<path style="fill:none;stroke:red;stroke-width:1px;stroke-linecap:butt;stroke-linejoin:miter;stroke-opacity:1" d="M 673.337,658.33 673.337,673.337 z" id="boundary" inkscape:connector-curvature="0" />
	<path style="fill:none;stroke:red;stroke-width:1px;stroke-linecap:butt;stroke-linejoin:miter;stroke-opacity:1" d="M 673.337,658.33 680.841,643.322 z" id="boundary" inkscape:connector-curvature="0" />
	<path style="fill:none;stroke:red;stroke-width:1px;stroke-linecap:butt;stroke-linejoin:miter;stroke-opacity:1" d="M 673.337,673.337 676.339,688.345 z" id="boundary" inkscape:connector-curvature="0" />
	<path style="fill:none;stroke:red;stroke-width:1px;stroke-linecap:butt;stroke-linejoin:miter;stroke-opacity:1" d="M 673.337,860.932 688.345,860.932 z" id="boundary" inkscape:connector-curvature="0" />
	<path style="fill:none;stroke:red;stroke-width:1px;stroke-linecap:butt;stroke-linejoin:miter;stroke-opacity:1" d="M 676.339,688.345 680.841,703.352 z" id="boundary" inkscape:connector-curvature="0" />
	<path style="fill:none;stroke:red;stroke-width:1px;stroke-linecap:butt;stroke-linejoin:miter;stroke-opacity:1" d="M 680.841,485.743 695.849,485.743 z" id="boundary" inkscape:connector-curvature="0" />
	<path style="fill:none;stroke:red;stroke-width:1px;stroke-linecap:butt;stroke-linejoin:miter;stroke-opacity:1" d="M 680.841,628.315 680.841,643.322 z" id="boundary" inkscape:connector-curvature="0" />
	<path style="fill:none;stroke:red;stroke-width:1px;stroke-linecap:butt;stroke-linejoin:miter;stroke-opacity:1" d="M 680.841,703.352 680.841,718.36 z" id="boundary" inkscape:connector-curvature="0" />
	<path style="fill:none;stroke:red;stroke-width:1px;stroke-linecap:butt;stroke-linejoin:miter;stroke-opacity:1" d="M 680.841,718.36 680.841,733.368 z" id="boundary" inkscape:connector-curvature="0" />
	<path style="fill:none;stroke:red;stroke-width:1px;stroke-linecap:butt;stroke-linejoin:miter;stroke-opacity:1" d="M 680.841,733.368 680.841,748.375 z" id="boundary" inkscape:connector-curvature="0" />
	<path style="fill:none;stroke:red;stroke-width:1px;stroke-linecap:butt;stroke-linejoin:miter;stroke-opacity:1" d="M 680.841,748.375 680.841,763.383 z" id="boundary" inkscape:connector-curvature="0" />
	<path style="fill:none;stroke:red;stroke-width:1px;stroke-linecap:butt;stroke-linejoin:miter;stroke-opacity:1" d="M 680.841,763.383 680.841,778.39 z" id="boundary" inkscape:connector-curvature="0" />
	<path style="fill:none;stroke:red;stroke-width:1px;stroke-linecap:butt;stroke-linejoin:miter;stroke-opacity:1" d="M 680.841,778.39 680.841,793.398 z" id="boundary" inkscape:connector-curvature="0" />
	<path style="fill:none;stroke:red;stroke-width:1px;stroke-linecap:butt;stroke-linejoin:miter;stroke-opacity:1" d="M 680.841,793.398 680.841,808.405 z" id="boundary" inkscape:connector-curvature="0" />
	<path style="fill:none;stroke:red;stroke-width:1px;stroke-linecap:butt;stroke-linejoin:miter;stroke-opacity:1" d="M 680.841,808.405 680.841,823.413 z" id="boundary" inkscape:connector-curvature="0" />
	<path style="fill:none;stroke:red;stroke-width:1px;stroke-linecap:butt;stroke-linejoin:miter;stroke-opacity:1" d="M 680.841,823.413 688.345,836.92 z" id="boundary" inkscape:connector-curvature="0" />
	<path style="fill:none;stroke:red;stroke-width:1px;stroke-linecap:butt;stroke-linejoin:miter;stroke-opacity:1" d="M 685.343,274.136 698.85,281.64 z" id="boundary" inkscape:connector-curvature="0" />
	<path style="fill:none;stroke:red;stroke-width:1px;stroke-linecap:butt;stroke-linejoin:miter;stroke-opacity:1" d="M 688.345,836.92 688.345,860.932 z" id="boundary" inkscape:connector-curvature="0" />
	<path style="fill:none;stroke:red;stroke-width:1px;stroke-linecap:butt;stroke-linejoin:miter;stroke-opacity:1" d="M 695.849,485.743 710.856,485.743 z" id="boundary" inkscape:connector-curvature="0" />
	<path style="fill:none;stroke:red;stroke-width:1px;stroke-linecap:butt;stroke-linejoin:miter;stroke-opacity:1" d="M 698.85,281.64 713.858,281.64 z" id="boundary" inkscape:connector-curvature="0" />
	<path style="fill:none;stroke:red;stroke-width:1px;stroke-linecap:butt;stroke-linejoin:miter;stroke-opacity:1" d="M 710.856,485.743 725.864,485.743 z" id="boundary" inkscape:connector-curvature="0" />
	<path style="fill:none;stroke:red;stroke-width:1px;stroke-linecap:butt;stroke-linejoin:miter;stroke-opacity:1" d="M 713.858,281.64 727.365,289.144 z" id="boundary" inkscape:connector-curvature="0" />
	<path style="fill:none;stroke:red;stroke-width:1px;stroke-linecap:butt;stroke-linejoin:miter;stroke-opacity:1" d="M 725.864,485.743 740.871,485.743 z" id="boundary" inkscape:connector-curvature="0" />
	<path style="fill:none;stroke:red;stroke-width:1px;stroke-linecap:butt;stroke-linejoin:miter;stroke-opacity:1" d="M 727.365,289.144 740.871,296.648 z" id="boundary" inkscape:connector-curvature="0" />
	<path style="fill:none;stroke:red;stroke-width:1px;stroke-linecap:butt;stroke-linejoin:miter;stroke-opacity:1" d="M 740.871,296.648 755.879,296.648 z" id="boundary" inkscape:connector-curvature="0" />
	<path style="fill:none;stroke:red;stroke-width:1px;stroke-linecap:butt;stroke-linejoin:miter;stroke-opacity:1" d="M 740.871,485.743 755.879,478.239 z" id="boundary" inkscape:connector-curvature="0" />
	<path style="fill:none;stroke:red;stroke-width:1px;stroke-linecap:butt;stroke-linejoin:miter;stroke-opacity:1" d="M 755.879,296.648 769.386,304.151 z" id="boundary" inkscape:connector-curvature="0" />
	<path style="fill:none;stroke:red;stroke-width:1px;stroke-linecap:butt;stroke-linejoin:miter;stroke-opacity:1" d="M 755.879,478.239 770.887,478.239 z" id="boundary" inkscape:connector-curvature="0" />
	<path style="fill:none;stroke:red;stroke-width:1px;stroke-linecap:butt;stroke-linejoin:miter;stroke-opacity:1" d="M 769.386,304.151 784.393,307.153 z" id="boundary" inkscape:connector-curvature="0" />
	<path style="fill:none;stroke:red;stroke-width:1px;stroke-linecap:butt;stroke-linejoin:miter;stroke-opacity:1" d="M 770.887,478.239 785.894,470.735 z" id="boundary" inkscape:connector-curvature="0" />
	<path style="fill:none;stroke:red;stroke-width:1px;stroke-linecap:butt;stroke-linejoin:miter;stroke-opacity:1" d="M 784.393,307.153 797.9,314.657 z" id="boundary" inkscape:connector-curvature="0" />
	<path style="fill:none;stroke:red;stroke-width:1px;stroke-linecap:butt;stroke-linejoin:miter;stroke-opacity:1" d="M 785.894,470.735 800.902,470.735 z" id="boundary" inkscape:connector-curvature="0" />
	<path style="fill:none;stroke:red;stroke-width:1px;stroke-linecap:butt;stroke-linejoin:miter;stroke-opacity:1" d="M 797.9,314.657 812.908,319.159 z" id="boundary" inkscape:connector-curvature="0" />
	<path style="fill:none;stroke:red;stroke-width:1px;stroke-linecap:butt;stroke-linejoin:miter;stroke-opacity:1" d="M 800.902,470.735 815.909,470.735 z" id="boundary" inkscape:connector-curvature="0" />
	<path style="fill:none;stroke:red;stroke-width:1px;stroke-linecap:butt;stroke-linejoin:miter;stroke-opacity:1" d="M 812.908,319.159 826.415,326.663 z" id="boundary" inkscape:connector-curvature="0" />
	<path style="fill:none;stroke:red;stroke-width:1px;stroke-linecap:butt;stroke-linejoin:miter;stroke-opacity:1" d="M 815.909,470.735 830.917,470.735 z" id="boundary" inkscape:connector-curvature="0" />
	<path style="fill:none;stroke:red;stroke-width:1px;stroke-linecap:butt;stroke-linejoin:miter;stroke-opacity:1" d="M 826.415,326.663 839.921,334.166 z" id="boundary" inkscape:connector-curvature="0" />
	<path style="fill:none;stroke:red;stroke-width:1px;stroke-linecap:butt;stroke-linejoin:miter;stroke-opacity:1" d="M 830.917,470.735 845.924,470.735 z" id="boundary" inkscape:connector-curvature="0" />
	<path style="fill:none;stroke:red;stroke-width:1px;stroke-linecap:butt;stroke-linejoin:miter;stroke-opacity:1" d="M 839.921,334.166 853.428,341.67 z" id="boundary" inkscape:connector-curvature="0" />
	<path style="fill:none;stroke:red;stroke-width:1px;stroke-linecap:butt;stroke-linejoin:miter;stroke-opacity:1" d="M 845.924,470.735 860.932,470.735 z" id="boundary" inkscape:connector-curvature="0" />
	<path style="fill:none;stroke:red;stroke-width:1px;stroke-linecap:butt;stroke-linejoin:miter;stroke-opacity:1" d="M 853.428,341.67 866.935,349.174 z" id="boundary" inkscape:connector-curvature="0" />
	<path style="fill:none;stroke:red;stroke-width:1px;stroke-linecap:butt;stroke-linejoin:miter;stroke-opacity:1" d="M 860.932,470.735 875.939,470.735 z" id="boundary" inkscape:connector-curvature="0" />
	<path style="fill:none;stroke:red;stroke-width:1px;stroke-linecap:butt;stroke-linejoin:miter;stroke-opacity:1" d="M 866.935,349.174 881.943,352.175 z" id="boundary" inkscape:connector-curvature="0" />
	<path style="fill:none;stroke:red;stroke-width:1px;stroke-linecap:butt;stroke-linejoin:miter;stroke-opacity:1" d="M 875.939,470.735 890.947,470.735 z" id="boundary" inkscape:connector-curvature="0" />
	<path style="fill:none;stroke:red;stroke-width:1px;stroke-linecap:butt;stroke-linejoin:miter;stroke-opacity:1" d="M 881.943,352.175 895.449,359.679 z" id="boundary" inkscape:connector-curvature="0" />
	<path style="fill:none;stroke:red;stroke-width:1px;stroke-linecap:butt;stroke-linejoin:miter;stroke-opacity:1" d="M 890.947,470.735 905.955,473.737 z" id="boundary" inkscape:connector-curvature="0" />
	<path style="fill:none;stroke:red;stroke-width:1px;stroke-linecap:butt;stroke-linejoin:miter;stroke-opacity:1" d="M 895.449,359.679 905.955,371.685 z" id="boundary" inkscape:connector-curvature="0" />
	<path style="fill:none;stroke:red;stroke-width:1px;stroke-linecap:butt;stroke-linejoin:miter;stroke-opacity:1" d="M 905.955,371.685 920.962,376.188 z" id="boundary" inkscape:connector-curvature="0" />
	<path style="fill:none;stroke:red;stroke-width:1px;stroke-linecap:butt;stroke-linejoin:miter;stroke-opacity:1" d="M 905.955,473.737 920.962,478.239 z" id="boundary" inkscape:connector-curvature="0" />
	<path style="fill:none;stroke:red;stroke-width:1px;stroke-linecap:butt;stroke-linejoin:miter;stroke-opacity:1" d="M 920.962,376.188 934.469,383.691 z" id="boundary" inkscape:connector-curvature="0" />
	<path style="fill:none;stroke:red;stroke-width:1px;stroke-linecap:butt;stroke-linejoin:miter;stroke-opacity:1" d="M 920.962,478.239 935.97,478.239 z" id="boundary" inkscape:connector-curvature="0" />
	<path style="fill:none;stroke:red;stroke-width:1px;stroke-linecap:butt;stroke-linejoin:miter;stroke-opacity:1" d="M 934.469,383.691 946.475,394.197 z" id="boundary" inkscape:connector-curvature="0" />
	<path style="fill:none;stroke:red;stroke-width:1px;stroke-linecap:butt;stroke-linejoin:miter;stroke-opacity:1" d="M 935.97,478.239 950.977,478.239 z" id="boundary" inkscape:connector-curvature="0" />
	<path style="fill:none;stroke:red;stroke-width:1px;stroke-linecap:butt;stroke-linejoin:miter;stroke-opacity:1" d="M 946.475,394.197 959.982,401.7 z" id="boundary" inkscape:connector-curvature="0" />
	<path style="fill:none;stroke:red;stroke-width:1px;stroke-linecap:butt;stroke-linejoin:miter;stroke-opacity:1" d="M 950.977,478.239 965.985,478.239 z" id="boundary" inkscape:connector-curvature="0" />
	<path style="fill:none;stroke:red;stroke-width:1px;stroke-linecap:butt;stroke-linejoin:miter;stroke-opacity:1" d="M 959.982,401.7 965.985,416.708 z" id="boundary" inkscape:connector-curvature="0" />
	<path style="fill:none;stroke:red;stroke-width:1px;stroke-linecap:butt;stroke-linejoin:miter;stroke-opacity:1" d="M 965.985,416.708 977.991,425.713 z" id="boundary" inkscape:connector-curvature="0" />
	<path style="fill:none;stroke:red;stroke-width:1px;stroke-linecap:butt;stroke-linejoin:miter;stroke-opacity:1" d="M 965.985,478.239 980.992,478.239 z" id="boundary" inkscape:connector-curvature="0" />
	<path style="fill:none;stroke:red;stroke-width:1px;stroke-linecap:butt;stroke-linejoin:miter;stroke-opacity:1" d="M 977.991,425.713 991.498,433.216 z" id="boundary" inkscape:connector-curvature="0" />
	<path style="fill:none;stroke:red;stroke-width:1px;stroke-linecap:butt;stroke-linejoin:miter;stroke-opacity:1" d="M 980.992,478.239 996,470.735 z" id="boundary" inkscape:connector-curvature="0" />
	<path style="fill:none;stroke:red;stroke-width:1px;stroke-linecap:butt;stroke-linejoin:miter;stroke-opacity:1" d="M 991.498,433.216 996,448.224 z" id="boundary" inkscape:connector-curvature="0" />
	<path style="fill:none;stroke:red;stroke-width:1px;stroke-linecap:butt;stroke-linejoin:miter;stroke-opacity:1" d="M 996,448.224 996,470.735 z" id="boundary" inkscape:connector-curvature="0" />
	<circle cx="4" cy="211.104" r="4" fill="#0" id="circle0"/>
	<circle cx="4" cy="226.112" r="4" fill="#0" id="circle1"/>
	<circle cx="11.5038" cy="196.097" r="4" fill="#0" id="circle2"/>
	<circle cx="19.0076" cy="226.112" r="4" fill="#0" id="circle3"/>
	<circle cx="23.5098" cy="184.091" r="4" fill="#0" id="circle4"/>
	<circle cx="28.0121" cy="208.103" r="4" fill="#0" id="circle5"/>
	<circle cx="34.0151" cy="166.082" r="4" fill="#0" id="circle6"/>
	<circle cx="43.0197" cy="193.095" r="4" fill="#0" id="circle7"/>
	<circle cx="46.0212" cy="154.076" r="4" fill="#0" id="circle8"/>
	<circle cx="55.0257" cy="182.59" r="4" fill="#0" id="circle9"/>
	<circle cx="58.0272" cy="142.07" r="4" fill="#0" id="circle10"/>
	<circle cx="65.531" cy="127.062" r="4" fill="#0" id="circle11"/>
	<circle cx="65.531" cy="170.584" r="4" fill="#0" id="circle12"/>
	<circle cx="73.0348" cy="155.576" r="4" fill="#0" id="circle13"/>
	<circle cx="77.5371" cy="116.557" r="4" fill="#0" id="circle14"/>
	<circle cx="86.5416" cy="148.073" r="4" fill="#0" id="circle15"/>
	<circle cx="91.0439" cy="109.053" r="4" fill="#0" id="circle16"/>
	<circle cx="95.5461" cy="133.065" r="4" fill="#0" id="circle17"/>
	<circle cx="98.5477" cy="94.0454" r="4" fill="#0" id="circle18"/>
	<circle cx="106.051" cy="79.0378" r="4" fill="#0" id="circle19"/>
	<circle cx="109.053" cy="125.561" r="4" fill="#0" id="circle20"/>
	<circle cx="118.057" cy="67.0318" r="4" fill="#0" id="circle21"/>
	<circle cx="121.059" cy="116.557" r="4" fill="#0" id="circle22"/>
	<circle cx="130.064" cy="56.5265" r="4" fill="#0" id="circle23"/>
	<circle cx="136.067" cy="110.554" r="4" fill="#0" id="circle24"/>
	<circle cx="139.068" cy="38.5174" r="4" fill="#0" id="circle25"/>
	<circle cx="149.573" cy="103.05" r="4" fill="#0" id="circle26"/>
	<circle cx="151.074" cy="26.5113" r="4" fill="#0" id="circle27"/>
	<circle cx="164.581" cy="19.0076" r="4" fill="#0" id="circle28"/>
	<circle cx="164.581" cy="103.05" r="4" fill="#0" id="circle29"/>
	<circle cx="178.088" cy="11.5038" r="4" fill="#0" id="circle30"/>
	<circle cx="178.088" cy="110.554" r="4" fill="#0" id="circle31"/>
	<circle cx="191.595" cy="4" r="4" fill="#0" id="circle32"/>
	<circle cx="193.095" cy="113.555" r="4" fill="#0" id="circle33"/>
	<circle cx="206.602" cy="4" r="4" fill="#0" id="circle34"/>
	<circle cx="206.602" cy="121.059" r="4" fill="#0" id="circle35"/>
	<circle cx="214.106" cy="134.566" r="4" fill="#0" id="circle36"/>
	<circle cx="221.61" cy="4" r="4" fill="#0" id="circle37"/>
	<circle cx="221.61" cy="148.073" r="4" fill="#0" id="circle38"/>
	<circle cx="221.61" cy="163.08" r="4" fill="#0" id="circle39"/>
	<circle cx="221.61" cy="178.088" r="4" fill="#0" id="circle40"/>
	<circle cx="221.61" cy="193.095" r="4" fill="#0" id="circle41"/>
	<circle cx="221.61" cy="208.103" r="4" fill="#0" id="circle42"/>
	<circle cx="221.61" cy="223.11" r="4" fill="#0" id="circle43"/>
	<circle cx="226.112" cy="238.118" r="4" fill="#0" id="circle44"/>
	<circle cx="229.113" cy="253.126" r="4" fill="#0" id="circle45"/>
	<circle cx="236.617" cy="7.00151" r="4" fill="#0" id="circle46"/>
	<circle cx="236.617" cy="266.632" r="4" fill="#0" id="circle47"/>
	<circle cx="239.619" cy="281.64" r="4" fill="#0" id="circle48"/>
	<circle cx="245.622" cy="19.0076" r="4" fill="#0" id="circle49"/>
	<circle cx="251.625" cy="290.644" r="4" fill="#0" id="circle50"/>
	<circle cx="257.628" cy="28.0121" r="4" fill="#0" id="circle51"/>
	<circle cx="259.129" cy="304.151" r="4" fill="#0" id="circle52"/>
	<circle cx="260.629" cy="43.0197" r="4" fill="#0" id="circle53"/>
	<circle cx="268.133" cy="56.5265" r="4" fill="#0" id="circle54"/>
	<circle cx="268.133" cy="316.157" r="4" fill="#0" id="circle55"/>
	<circle cx="274.136" cy="331.165" r="4" fill="#0" id="circle56"/>
	<circle cx="275.637" cy="70.0333" r="4" fill="#0" id="circle57"/>
	<circle cx="275.637" cy="85.0408" r="4" fill="#0" id="circle58"/>
	<circle cx="275.637" cy="100.048" r="4" fill="#0" id="circle59"/>
	<circle cx="275.637" cy="115.056" r="4" fill="#0" id="circle60"/>
	<circle cx="275.637" cy="130.064" r="4" fill="#0" id="circle61"/>
	<circle cx="283.141" cy="143.57" r="4" fill="#0" id="circle62"/>
	<circle cx="283.141" cy="158.578" r="4" fill="#0" id="circle63"/>
	<circle cx="283.141" cy="173.585" r="4" fill="#0" id="circle64"/>
	<circle cx="289.144" cy="188.593" r="4" fill="#0" id="circle65"/>
	<circle cx="289.144" cy="335.667" r="4" fill="#0" id="circle66"/>
	<circle cx="296.648" cy="202.1" r="4" fill="#0" id="circle67"/>
	<circle cx="302.651" cy="217.107" r="4" fill="#0" id="circle68"/>
	<circle cx="302.651" cy="343.171" r="4" fill="#0" id="circle69"/>
	<circle cx="313.156" cy="229.113" r="4" fill="#0" id="circle70"/>
	<circle cx="313.156" cy="355.177" r="4" fill="#0" id="circle71"/>
	<circle cx="320.66" cy="368.684" r="4" fill="#0" id="circle72"/>
	<circle cx="328.163" cy="233.616" r="4" fill="#0" id="circle73"/>
	<circle cx="331.165" cy="380.69" r="4" fill="#0" id="circle74"/>
	<circle cx="334.166" cy="248.623" r="4" fill="#0" id="circle75"/>
	<circle cx="341.67" cy="392.696" r="4" fill="#0" id="circle76"/>
	<circle cx="346.172" cy="259.129" r="4" fill="#0" id="circle77"/>
	<circle cx="349.174" cy="406.203" r="4" fill="#0" id="circle78"/>
	<circle cx="356.678" cy="419.71" r="4" fill="#0" id="circle79"/>
	<circle cx="361.18" cy="259.129" r="4" fill="#0" id="circle80"/>
	<circle cx="367.183" cy="431.716" r="4" fill="#0" id="circle81"/>
	<circle cx="376.188" cy="259.129" r="4" fill="#0" id="circle82"/>
	<circle cx="379.189" cy="878.941" r="4" fill="#0" id="circle83"/>
	<circle cx="379.189" cy="893.949" r="4" fill="#0" id="circle84"/>
	<circle cx="382.191" cy="437.719" r="4" fill="#0" id="circle85"/>
	<circle cx="386.693" cy="907.455" r="4" fill="#0" id="circle86"/>
	<circle cx="389.694" cy="251.625" r="4" fill="#0" id="circle87"/>
	<circle cx="391.195" cy="866.935" r="4" fill="#0" id="circle88"/>
	<circle cx="394.197" cy="448.224" r="4" fill="#0" id="circle89"/>
	<circle cx="401.7" cy="913.458" r="4" fill="#0" id="circle90"/>
	<circle cx="404.702" cy="251.625" r="4" fill="#0" id="circle91"/>
	<circle cx="406.203" cy="866.935" r="4" fill="#0" id="circle92"/>
	<circle cx="407.703" cy="455.728" r="4" fill="#0" id="circle93"/>
	<circle cx="416.708" cy="908.956" r="4" fill="#0" id="circle94"/>
	<circle cx="419.71" cy="245.622" r="4" fill="#0" id="circle95"/>
	<circle cx="419.71" cy="874.439" r="4" fill="#0" id="circle96"/>
	<circle cx="421.21" cy="463.231" r="4" fill="#0" id="circle97"/>
	<circle cx="431.716" cy="905.955" r="4" fill="#0" id="circle98"/>
	<circle cx="434.717" cy="244.121" r="4" fill="#0" id="circle99"/>
	<circle cx="434.717" cy="470.735" r="4" fill="#0" id="circle100"/>
	<circle cx="434.717" cy="874.439" r="4" fill="#0" id="circle101"/>
	<circle cx="445.222" cy="898.451" r="4" fill="#0" id="circle102"/>
	<circle cx="449.725" cy="244.121" r="4" fill="#0" id="circle103"/>
	<circle cx="449.725" cy="475.238" r="4" fill="#0" id="circle104"/>
	<circle cx="449.725" cy="868.436" r="4" fill="#0" id="circle105"/>
	<circle cx="460.23" cy="895.449" r="4" fill="#0" id="circle106"/>
	<circle cx="464.732" cy="244.121" r="4" fill="#0" id="circle107"/>
	<circle cx="464.732" cy="478.239" r="4" fill="#0" id="circle108"/>
	<circle cx="464.732" cy="866.935" r="4" fill="#0" id="circle109"/>
	<circle cx="475.238" cy="890.947" r="4" fill="#0" id="circle110"/>
	<circle cx="476.738" cy="811.407" r="4" fill="#0" id="circle111"/>
	<circle cx="476.738" cy="826.415" r="4" fill="#0" id="circle112"/>
	<circle cx="476.738" cy="841.422" r="4" fill="#0" id="circle113"/>
	<circle cx="476.738" cy="856.43" r="4" fill="#0" id="circle114"/>
	<circle cx="478.239" cy="485.743" r="4" fill="#0" id="circle115"/>
	<circle cx="479.74" cy="244.121" r="4" fill="#0" id="circle116"/>
	<circle cx="484.242" cy="788.896" r="4" fill="#0" id="circle117"/>
	<circle cx="490.245" cy="887.946" r="4" fill="#0" id="circle118"/>
	<circle cx="491.746" cy="493.247" r="4" fill="#0" id="circle119"/>
	<circle cx="491.746" cy="758.88" r="4" fill="#0" id="circle120"/>
	<circle cx="491.746" cy="773.888" r="4" fill="#0" id="circle121"/>
	<circle cx="494.747" cy="238.118" r="4" fill="#0" id="circle122"/>
	<circle cx="497.749" cy="872.938" r="4" fill="#0" id="circle123"/>
	<circle cx="499.25" cy="736.369" r="4" fill="#0" id="circle124"/>
	<circle cx="500.75" cy="823.413" r="4" fill="#0" id="circle125"/>
	<circle cx="500.75" cy="838.421" r="4" fill="#0" id="circle126"/>
	<circle cx="500.75" cy="853.428" r="4" fill="#0" id="circle127"/>
	<circle cx="505.253" cy="500.75" r="4" fill="#0" id="circle128"/>
	<circle cx="506.753" cy="713.858" r="4" fill="#0" id="circle129"/>
	<circle cx="508.254" cy="793.398" r="4" fill="#0" id="circle130"/>
	<circle cx="508.254" cy="808.405" r="4" fill="#0" id="circle131"/>
	<circle cx="509.755" cy="236.617" r="4" fill="#0" id="circle132"/>
	<circle cx="511.256" cy="515.758" r="4" fill="#0" id="circle133"/>
	<circle cx="514.257" cy="530.766" r="4" fill="#0" id="circle134"/>
	<circle cx="514.257" cy="545.773" r="4" fill="#0" id="circle135"/>
	<circle cx="514.257" cy="691.346" r="4" fill="#0" id="circle136"/>
	<circle cx="515.758" cy="755.879" r="4" fill="#0" id="circle137"/>
	<circle cx="515.758" cy="770.887" r="4" fill="#0" id="circle138"/>
	<circle cx="521.761" cy="559.28" r="4" fill="#0" id="circle139"/>
	<circle cx="521.761" cy="574.287" r="4" fill="#0" id="circle140"/>
	<circle cx="521.761" cy="661.331" r="4" fill="#0" id="circle141"/>
	<circle cx="521.761" cy="676.339" r="4" fill="#0" id="circle142"/>
	<circle cx="523.262" cy="733.368" r="4" fill="#0" id="circle143"/>
	<circle cx="524.762" cy="236.617" r="4" fill="#0" id="circle144"/>
	<circle cx="529.265" cy="587.794" r="4" fill="#0" id="circle145"/>
	<circle cx="529.265" cy="602.802" r="4" fill="#0" id="circle146"/>
	<circle cx="529.265" cy="617.809" r="4" fill="#0" id="circle147"/>
	<circle cx="529.265" cy="632.817" r="4" fill="#0" id="circle148"/>
	<circle cx="529.265" cy="647.825" r="4" fill="#0" id="circle149"/>
	<circle cx="530.766" cy="718.36" r="4" fill="#0" id="circle150"/>
	<circle cx="538.269" cy="244.121" r="4" fill="#0" id="circle151"/>
	<circle cx="538.269" cy="523.262" r="4" fill="#0" id="circle152"/>
	<circle cx="538.269" cy="538.269" r="4" fill="#0" id="circle153"/>
	<circle cx="538.269" cy="688.345" r="4" fill="#0" id="circle154"/>
	<circle cx="538.269" cy="703.352" r="4" fill="#0" id="circle155"/>
	<circle cx="545.773" cy="551.776" r="4" fill="#0" id="circle156"/>
	<circle cx="545.773" cy="566.784" r="4" fill="#0" id="circle157"/>
	<circle cx="545.773" cy="581.791" r="4" fill="#0" id="circle158"/>
	<circle cx="545.773" cy="673.337" r="4" fill="#0" id="circle159"/>
	<circle cx="550.275" cy="512.756" r="4" fill="#0" id="circle160"/>
	<circle cx="553.277" cy="244.121" r="4" fill="#0" id="circle161"/>
	<circle cx="553.277" cy="595.298" r="4" fill="#0" id="circle162"/>
	<circle cx="553.277" cy="610.306" r="4" fill="#0" id="circle163"/>
	<circle cx="553.277" cy="643.322" r="4" fill="#0" id="circle164"/>
	<circle cx="553.277" cy="658.33" r="4" fill="#0" id="circle165"/>
	<circle cx="557.779" cy="497.749" r="4" fill="#0" id="circle166"/>
	<circle cx="560.781" cy="623.812" r="4" fill="#0" id="circle167"/>
	<circle cx="568.284" cy="244.121" r="4" fill="#0" id="circle168"/>
	<circle cx="572.787" cy="500.75" r="4" fill="#0" id="circle169"/>
	<circle cx="581.791" cy="856.43" r="4" fill="#0" id="circle170"/>
	<circle cx="583.292" cy="248.623" r="4" fill="#0" id="circle171"/>
	<circle cx="583.292" cy="512.756" r="4" fill="#0" id="circle172"/>
	<circle cx="590.796" cy="868.436" r="4" fill="#0" id="circle173"/>
	<circle cx="595.298" cy="523.262" r="4" fill="#0" id="circle174"/>
	<circle cx="596.799" cy="851.927" r="4" fill="#0" id="circle175"/>
	<circle cx="598.3" cy="251.625" r="4" fill="#0" id="circle176"/>
	<circle cx="604.303" cy="535.268" r="4" fill="#0" id="circle177"/>
	<circle cx="604.303" cy="875.939" r="4" fill="#0" id="circle178"/>
	<circle cx="611.806" cy="548.775" r="4" fill="#0" id="circle179"/>
	<circle cx="611.806" cy="851.927" r="4" fill="#0" id="circle180"/>
	<circle cx="611.806" cy="889.446" r="4" fill="#0" id="circle181"/>
	<circle cx="613.307" cy="251.625" r="4" fill="#0" id="circle182"/>
	<circle cx="614.808" cy="904.454" r="4" fill="#0" id="circle183"/>
	<circle cx="619.31" cy="562.281" r="4" fill="#0" id="circle184"/>
	<circle cx="620.811" cy="493.247" r="4" fill="#0" id="circle185"/>
	<circle cx="620.811" cy="508.254" r="4" fill="#0" id="circle186"/>
	<circle cx="623.812" cy="523.262" r="4" fill="#0" id="circle187"/>
	<circle cx="625.313" cy="859.431" r="4" fill="#0" id="circle188"/>
	<circle cx="626.814" cy="259.129" r="4" fill="#0" id="circle189"/>
	<circle cx="628.315" cy="538.269" r="4" fill="#0" id="circle190"/>
	<circle cx="629.815" cy="574.287" r="4" fill="#0" id="circle191"/>
	<circle cx="629.815" cy="905.955" r="4" fill="#0" id="circle192"/>
	<circle cx="635.818" cy="485.743" r="4" fill="#0" id="circle193"/>
	<circle cx="640.321" cy="547.274" r="4" fill="#0" id="circle194"/>
	<circle cx="640.321" cy="859.431" r="4" fill="#0" id="circle195"/>
	<circle cx="641.821" cy="259.129" r="4" fill="#0" id="circle196"/>
	<circle cx="641.821" cy="583.292" r="4" fill="#0" id="circle197"/>
	<circle cx="641.821" cy="598.3" r="4" fill="#0" id="circle198"/>
	<circle cx="643.322" cy="898.451" r="4" fill="#0" id="circle199"/>
	<circle cx="649.325" cy="611.806" r="4" fill="#0" id="circle200"/>
	<circle cx="649.325" cy="626.814" r="4" fill="#0" id="circle201"/>
	<circle cx="649.325" cy="641.821" r="4" fill="#0" id="circle202"/>
	<circle cx="649.325" cy="656.829" r="4" fill="#0" id="circle203"/>
	<circle cx="650.826" cy="485.743" r="4" fill="#0" id="circle204"/>
	<circle cx="650.826" cy="559.28" r="4" fill="#0" id="circle205"/>
	<circle cx="650.826" cy="847.425" r="4" fill="#0" id="circle206"/>
	<circle cx="652.327" cy="671.837" r="4" fill="#0" id="circle207"/>
	<circle cx="655.328" cy="266.632" r="4" fill="#0" id="circle208"/>
	<circle cx="656.829" cy="686.844" r="4" fill="#0" id="circle209"/>
	<circle cx="656.829" cy="701.852" r="4" fill="#0" id="circle210"/>
	<circle cx="656.829" cy="716.859" r="4" fill="#0" id="circle211"/>
	<circle cx="656.829" cy="731.867" r="4" fill="#0" id="circle212"/>
	<circle cx="656.829" cy="746.874" r="4" fill="#0" id="circle213"/>
	<circle cx="656.829" cy="761.882" r="4" fill="#0" id="circle214"/>
	<circle cx="656.829" cy="776.89" r="4" fill="#0" id="circle215"/>
	<circle cx="656.829" cy="791.897" r="4" fill="#0" id="circle216"/>
	<circle cx="656.829" cy="806.905" r="4" fill="#0" id="circle217"/>
	<circle cx="656.829" cy="821.912" r="4" fill="#0" id="circle218"/>
	<circle cx="658.33" cy="572.787" r="4" fill="#0" id="circle219"/>
	<circle cx="658.33" cy="890.947" r="4" fill="#0" id="circle220"/>
	<circle cx="665.834" cy="485.743" r="4" fill="#0" id="circle221"/>
	<circle cx="665.834" cy="586.293" r="4" fill="#0" id="circle222"/>
	<circle cx="665.834" cy="601.301" r="4" fill="#0" id="circle223"/>
	<circle cx="665.834" cy="875.939" r="4" fill="#0" id="circle224"/>
	<circle cx="670.336" cy="268.133" r="4" fill="#0" id="circle225"/>
	<circle cx="673.337" cy="614.808" r="4" fill="#0" id="circle226"/>
	<circle cx="673.337" cy="658.33" r="4" fill="#0" id="circle227"/>
	<circle cx="673.337" cy="673.337" r="4" fill="#0" id="circle228"/>
	<circle cx="673.337" cy="860.932" r="4" fill="#0" id="circle229"/>
	<circle cx="676.339" cy="688.345" r="4" fill="#0" id="circle230"/>
	<circle cx="680.841" cy="485.743" r="4" fill="#0" id="circle231"/>
	<circle cx="680.841" cy="628.315" r="4" fill="#0" id="circle232"/>
	<circle cx="680.841" cy="643.322" r="4" fill="#0" id="circle233"/>
	<circle cx="680.841" cy="703.352" r="4" fill="#0" id="circle234"/>
	<circle cx="680.841" cy="718.36" r="4" fill="#0" id="circle235"/>
	<circle cx="680.841" cy="733.368" r="4" fill="#0" id="circle236"/>
	<circle cx="680.841" cy="748.375" r="4" fill="#0" id="circle237"/>
	<circle cx="680.841" cy="763.383" r="4" fill="#0" id="circle238"/>
	<circle cx="680.841" cy="778.39" r="4" fill="#0" id="circle239"/>
	<circle cx="680.841" cy="793.398" r="4" fill="#0" id="circle240"/>
	<circle cx="680.841" cy="808.405" r="4" fill="#0" id="circle241"/>
	<circle cx="680.841" cy="823.413" r="4" fill="#0" id="circle242"/>
	<circle cx="685.343" cy="274.136" r="4" fill="#0" id="circle243"/>
	<circle cx="688.345" cy="836.92" r="4" fill="#0" id="circle244"/>
	<circle cx="688.345" cy="860.932" r="4" fill="#0" id="circle245"/>
	<circle cx="695.849" cy="485.743" r="4" fill="#0" id="circle246"/>
	<circle cx="698.85" cy="281.64" r="4" fill="#0" id="circle247"/>
	<circle cx="710.856" cy="485.743" r="4" fill="#0" id="circle248"/>
	<circle cx="713.858" cy="281.64" r="4" fill="#0" id="circle249"/>
	<circle cx="725.864" cy="485.743" r="4" fill="#0" id="circle250"/>
	<circle cx="727.365" cy="289.144" r="4" fill="#0" id="circle251"/>
	<circle cx="740.871" cy="296.648" r="4" fill="#0" id="circle252"/>
	<circle cx="740.871" cy="485.743" r="4" fill="#0" id="circle253"/>
	<circle cx="755.879" cy="296.648" r="4" fill="#0" id="circle254"/>
	<circle cx="755.879" cy="478.239" r="4" fill="#0" id="circle255"/>
	<circle cx="769.386" cy="304.151" r="4" fill="#0" id="circle256"/>
	<circle cx="770.887" cy="478.239" r="4" fill="#0" id="circle257"/>
	<circle cx="784.393" cy="307.153" r="4" fill="#0" id="circle258"/>
	<circle cx="785.894" cy="470.735" r="4" fill="#0" id="circle259"/>
	<circle cx="797.9" cy="314.657" r="4" fill="#0" id="circle260"/>
	<circle cx="800.902" cy="470.735" r="4" fill="#0" id="circle261"/>
	<circle cx="812.908" cy="319.159" r="4" fill="#0" id="circle262"/>
	<circle cx="815.909" cy="470.735" r="4" fill="#0" id="circle263"/>
	<circle cx="826.415" cy="326.663" r="4" fill="#0" id="circle264"/>
	<circle cx="830.917" cy="470.735" r="4" fill="#0" id="circle265"/>
	<circle cx="839.921" cy="334.166" r="4" fill="#0" id="circle266"/>
	<circle cx="845.924" cy="470.735" r="4" fill="#0" id="circle267"/>
	<circle cx="853.428" cy="341.67" r="4" fill="#0" id="circle268"/>
	<circle cx="860.932" cy="470.735" r="4" fill="#0" id="circle269"/>
	<circle cx="866.935" cy="349.174" r="4" fill="#0" id="circle270"/>
	<circle cx="875.939" cy="470.735" r="4" fill="#0" id="circle271"/>
	<circle cx="881.943" cy="352.175" r="4" fill="#0" id="circle272"/>
	<circle cx="890.947" cy="470.735" r="4" fill="#0" id="circle273"/>
	<circle cx="895.449" cy="359.679" r="4" fill="#0" id="circle274"/>
	<circle cx="905.955" cy="371.685" r="4" fill="#0" id="circle275"/>
	<circle cx="905.955" cy="473.737" r="4" fill="#0" id="circle276"/>
	<circle cx="920.962" cy="376.188" r="4" fill="#0" id="circle277"/>
	<circle cx="920.962" cy="478.239" r="4" fill="#0" id="circle278"/>
	<circle cx="934.469" cy="383.691" r="4" fill="#0" id="circle279"/>
	<circle cx="935.97" cy="478.239" r="4" fill="#0" id="circle280"/>
	<circle cx="946.475" cy="394.197" r="4" fill="#0" id="circle281"/>
	<circle cx="950.977" cy="478.239" r="4" fill="#0" id="circle282"/>
	<circle cx="959.982" cy="401.7" r="4" fill="#0" id="circle283"/>
	<circle cx="965.985" cy="416.708" r="4" fill="#0" id="circle284"/>
	<circle cx="965.985" cy="478.239" r="4" fill="#0" id="circle285"/>
	<circle cx="977.991" cy="425.713" r="4" fill="#0" id="circle286"/>
	<circle cx="980.992" cy="478.239" r="4" fill="#0" id="circle287"/>
	<circle cx="991.498" cy="433.216" r="4" fill="#0" id="circle288"/>
	<circle cx="996" cy="448.224" r="4" fill="#0" id="circle289"/>
	<circle cx="996" cy="470.735" r="4" fill="#0" id="circle290"/>
	</g>
</svg>