<?xml version="1.0" encoding="UTF-8" standalone="no"?>
<!-- Created with CurveBenchmark -->
<svg
	xmlns:dc="http://purl.org/dc/elements/1.1/"
	xmlns:cc="http://creativecommons.org/ns#"
	xmlns:rdf="http://www.w3.org/1999/02/22-rdf-syntax-ns#"
	xmlns:svg="http://www.w3.org/2000/svg"
	xmlns="http://www.w3.org/2000/svg"
	xmlns:sodipodi="http://sodipodi.sourceforge.net/DTD/sodipodi-0.dtd"
	xmlns:inkscape="http://www.inkscape.org/namespaces/inkscape"
	width="1000"
	height="1000"
	id="svg2"
	version="1.1"
	sodipodi:docname="manifold/discur-chopper-06.png.txt">
<defs
	id="defs4" />
<metadata
	id="metadata7">
	<rdf:RDF>
		<cc:Work
			rdf:about="">
			<dc:format>image/svg+xml</dc:format>
			<dc:type
				rdf:resource="http://purl.org/dc/dcmitype/StillImage" />
			<dc:title></dc:title>
		</cc:Work>
	</rdf:RDF>
</metadata>
<g
	inkscape:label="Layer 1"
	inkscape:groupmode="layer"
	id="layer1">
	<path style="fill:none;stroke:red;stroke-width:1px;stroke-linecap:butt;stroke-linejoin:miter;stroke-opacity:1" d="M 4,659.075 4,669.506 z" id="boundary" inkscape:connector-curvature="0" />
	<path style="fill:none;stroke:red;stroke-width:1px;stroke-linecap:butt;stroke-linejoin:miter;stroke-opacity:1" d="M 4,659.075 9.21556,648.644 z" id="boundary" inkscape:connector-curvature="0" />
	<path style="fill:none;stroke:red;stroke-width:1px;stroke-linecap:butt;stroke-linejoin:miter;stroke-opacity:1" d="M 4,669.506 14.4311,672.635 z" id="boundary" inkscape:connector-curvature="0" />
	<path style="fill:none;stroke:red;stroke-width:1px;stroke-linecap:butt;stroke-linejoin:miter;stroke-opacity:1" d="M 9.21556,648.644 19.6467,643.428 z" id="boundary" inkscape:connector-curvature="0" />
	<path style="fill:none;stroke:red;stroke-width:1px;stroke-linecap:butt;stroke-linejoin:miter;stroke-opacity:1" d="M 14.4311,672.635 20.6898,680.98 z" id="boundary" inkscape:connector-curvature="0" />
	<path style="fill:none;stroke:red;stroke-width:1px;stroke-linecap:butt;stroke-linejoin:miter;stroke-opacity:1" d="M 19.6467,455.668 19.6467,466.099 z" id="boundary" inkscape:connector-curvature="0" />
	<path style="fill:none;stroke:red;stroke-width:1px;stroke-linecap:butt;stroke-linejoin:miter;stroke-opacity:1" d="M 19.6467,455.668 24.8623,440.021 z" id="boundary" inkscape:connector-curvature="0" />
	<path style="fill:none;stroke:red;stroke-width:1px;stroke-linecap:butt;stroke-linejoin:miter;stroke-opacity:1" d="M 19.6467,466.099 19.6467,476.53 z" id="boundary" inkscape:connector-curvature="0" />
	<path style="fill:none;stroke:red;stroke-width:1px;stroke-linecap:butt;stroke-linejoin:miter;stroke-opacity:1" d="M 19.6467,476.53 19.6467,486.961 z" id="boundary" inkscape:connector-curvature="0" />
	<path style="fill:none;stroke:red;stroke-width:1px;stroke-linecap:butt;stroke-linejoin:miter;stroke-opacity:1" d="M 19.6467,486.961 19.6467,497.392 z" id="boundary" inkscape:connector-curvature="0" />
	<path style="fill:none;stroke:red;stroke-width:1px;stroke-linecap:butt;stroke-linejoin:miter;stroke-opacity:1" d="M 19.6467,497.392 19.6467,507.823 z" id="boundary" inkscape:connector-curvature="0" />
	<path style="fill:none;stroke:red;stroke-width:1px;stroke-linecap:butt;stroke-linejoin:miter;stroke-opacity:1" d="M 19.6467,507.823 19.6467,518.254 z" id="boundary" inkscape:connector-curvature="0" />
	<path style="fill:none;stroke:red;stroke-width:1px;stroke-linecap:butt;stroke-linejoin:miter;stroke-opacity:1" d="M 19.6467,518.254 19.6467,528.686 z" id="boundary" inkscape:connector-curvature="0" />
	<path style="fill:none;stroke:red;stroke-width:1px;stroke-linecap:butt;stroke-linejoin:miter;stroke-opacity:1" d="M 19.6467,528.686 19.6467,539.117 z" id="boundary" inkscape:connector-curvature="0" />
	<path style="fill:none;stroke:red;stroke-width:1px;stroke-linecap:butt;stroke-linejoin:miter;stroke-opacity:1" d="M 19.6467,539.117 19.6467,549.548 z" id="boundary" inkscape:connector-curvature="0" />
	<path style="fill:none;stroke:red;stroke-width:1px;stroke-linecap:butt;stroke-linejoin:miter;stroke-opacity:1" d="M 19.6467,549.548 24.8623,558.936 z" id="boundary" inkscape:connector-curvature="0" />
	<path style="fill:none;stroke:red;stroke-width:1px;stroke-linecap:butt;stroke-linejoin:miter;stroke-opacity:1" d="M 19.6467,643.428 30.0778,640.299 z" id="boundary" inkscape:connector-curvature="0" />
	<path style="fill:none;stroke:red;stroke-width:1px;stroke-linecap:butt;stroke-linejoin:miter;stroke-opacity:1" d="M 20.6898,680.98 38.4227,693.497 z" id="boundary" inkscape:connector-curvature="0" />
	<path style="fill:none;stroke:red;stroke-width:1px;stroke-linecap:butt;stroke-linejoin:miter;stroke-opacity:1" d="M 24.8623,429.59 24.8623,440.021 z" id="boundary" inkscape:connector-curvature="0" />
	<path style="fill:none;stroke:red;stroke-width:1px;stroke-linecap:butt;stroke-linejoin:miter;stroke-opacity:1" d="M 24.8623,429.59 30.0778,413.943 z" id="boundary" inkscape:connector-curvature="0" />
	<path style="fill:none;stroke:red;stroke-width:1px;stroke-linecap:butt;stroke-linejoin:miter;stroke-opacity:1" d="M 24.8623,558.936 30.0778,568.324 z" id="boundary" inkscape:connector-curvature="0" />
	<path style="fill:none;stroke:red;stroke-width:1px;stroke-linecap:butt;stroke-linejoin:miter;stroke-opacity:1" d="M 30.0778,413.943 35.2934,398.297 z" id="boundary" inkscape:connector-curvature="0" />
	<path style="fill:none;stroke:red;stroke-width:1px;stroke-linecap:butt;stroke-linejoin:miter;stroke-opacity:1" d="M 30.0778,568.324 48.8538,578.755 z" id="boundary" inkscape:connector-curvature="0" />
	<path style="fill:none;stroke:red;stroke-width:1px;stroke-linecap:butt;stroke-linejoin:miter;stroke-opacity:1" d="M 30.0778,640.299 39.4658,645.514 z" id="boundary" inkscape:connector-curvature="0" />
	<path style="fill:none;stroke:red;stroke-width:1px;stroke-linecap:butt;stroke-linejoin:miter;stroke-opacity:1" d="M 35.2934,398.297 40.5089,387.865 z" id="boundary" inkscape:connector-curvature="0" />
	<path style="fill:none;stroke:red;stroke-width:1px;stroke-linecap:butt;stroke-linejoin:miter;stroke-opacity:1" d="M 38.4227,693.497 48.8538,693.497 z" id="boundary" inkscape:connector-curvature="0" />
	<path style="fill:none;stroke:red;stroke-width:1px;stroke-linecap:butt;stroke-linejoin:miter;stroke-opacity:1" d="M 39.4658,645.514 46.7676,653.859 z" id="boundary" inkscape:connector-curvature="0" />
	<path style="fill:none;stroke:red;stroke-width:1px;stroke-linecap:butt;stroke-linejoin:miter;stroke-opacity:1" d="M 40.5089,387.865 45.7245,377.434 z" id="boundary" inkscape:connector-curvature="0" />
	<path style="fill:none;stroke:red;stroke-width:1px;stroke-linecap:butt;stroke-linejoin:miter;stroke-opacity:1" d="M 45.7245,367.003 45.7245,377.434 z" id="boundary" inkscape:connector-curvature="0" />
	<path style="fill:none;stroke:red;stroke-width:1px;stroke-linecap:butt;stroke-linejoin:miter;stroke-opacity:1" d="M 45.7245,367.003 50.9401,351.356 z" id="boundary" inkscape:connector-curvature="0" />
	<path style="fill:none;stroke:red;stroke-width:1px;stroke-linecap:butt;stroke-linejoin:miter;stroke-opacity:1" d="M 46.7676,653.859 51.9832,663.247 z" id="boundary" inkscape:connector-curvature="0" />
	<path style="fill:none;stroke:red;stroke-width:1px;stroke-linecap:butt;stroke-linejoin:miter;stroke-opacity:1" d="M 48.8538,578.755 68.673,583.971 z" id="boundary" inkscape:connector-curvature="0" />
	<path style="fill:none;stroke:red;stroke-width:1px;stroke-linecap:butt;stroke-linejoin:miter;stroke-opacity:1" d="M 48.8538,693.497 59.285,693.497 z" id="boundary" inkscape:connector-curvature="0" />
	<path style="fill:none;stroke:red;stroke-width:1px;stroke-linecap:butt;stroke-linejoin:miter;stroke-opacity:1" d="M 50.9401,351.356 56.1556,340.925 z" id="boundary" inkscape:connector-curvature="0" />
	<path style="fill:none;stroke:red;stroke-width:1px;stroke-linecap:butt;stroke-linejoin:miter;stroke-opacity:1" d="M 51.9832,663.247 68.673,671.592 z" id="boundary" inkscape:connector-curvature="0" />
	<path style="fill:none;stroke:red;stroke-width:1px;stroke-linecap:butt;stroke-linejoin:miter;stroke-opacity:1" d="M 56.1556,340.925 61.3712,330.494 z" id="boundary" inkscape:connector-curvature="0" />
	<path style="fill:none;stroke:red;stroke-width:1px;stroke-linecap:butt;stroke-linejoin:miter;stroke-opacity:1" d="M 59.285,693.497 69.7161,693.497 z" id="boundary" inkscape:connector-curvature="0" />
	<path style="fill:none;stroke:red;stroke-width:1px;stroke-linecap:butt;stroke-linejoin:miter;stroke-opacity:1" d="M 61.3712,330.494 66.5868,320.063 z" id="boundary" inkscape:connector-curvature="0" />
	<path style="fill:none;stroke:red;stroke-width:1px;stroke-linecap:butt;stroke-linejoin:miter;stroke-opacity:1" d="M 66.5868,320.063 71.8023,309.632 z" id="boundary" inkscape:connector-curvature="0" />
	<path style="fill:none;stroke:red;stroke-width:1px;stroke-linecap:butt;stroke-linejoin:miter;stroke-opacity:1" d="M 68.673,583.971 79.1041,583.971 z" id="boundary" inkscape:connector-curvature="0" />
	<path style="fill:none;stroke:red;stroke-width:1px;stroke-linecap:butt;stroke-linejoin:miter;stroke-opacity:1" d="M 68.673,671.592 79.1041,671.592 z" id="boundary" inkscape:connector-curvature="0" />
	<path style="fill:none;stroke:red;stroke-width:1px;stroke-linecap:butt;stroke-linejoin:miter;stroke-opacity:1" d="M 69.7161,693.497 80.1472,693.497 z" id="boundary" inkscape:connector-curvature="0" />
	<path style="fill:none;stroke:red;stroke-width:1px;stroke-linecap:butt;stroke-linejoin:miter;stroke-opacity:1" d="M 71.8023,309.632 77.0179,293.985 z" id="boundary" inkscape:connector-curvature="0" />
	<path style="fill:none;stroke:red;stroke-width:1px;stroke-linecap:butt;stroke-linejoin:miter;stroke-opacity:1" d="M 77.0179,293.985 82.2334,283.554 z" id="boundary" inkscape:connector-curvature="0" />
	<path style="fill:none;stroke:red;stroke-width:1px;stroke-linecap:butt;stroke-linejoin:miter;stroke-opacity:1" d="M 79.1041,583.971 97.8801,594.402 z" id="boundary" inkscape:connector-curvature="0" />
	<path style="fill:none;stroke:red;stroke-width:1px;stroke-linecap:butt;stroke-linejoin:miter;stroke-opacity:1" d="M 79.1041,671.592 89.5352,671.592 z" id="boundary" inkscape:connector-curvature="0" />
	<path style="fill:none;stroke:red;stroke-width:1px;stroke-linecap:butt;stroke-linejoin:miter;stroke-opacity:1" d="M 80.1472,693.497 90.5783,693.497 z" id="boundary" inkscape:connector-curvature="0" />
	<path style="fill:none;stroke:red;stroke-width:1px;stroke-linecap:butt;stroke-linejoin:miter;stroke-opacity:1" d="M 82.2334,283.554 95.7939,264.778 z" id="boundary" inkscape:connector-curvature="0" />
	<path style="fill:none;stroke:red;stroke-width:1px;stroke-linecap:butt;stroke-linejoin:miter;stroke-opacity:1" d="M 89.5352,671.592 99.9664,671.592 z" id="boundary" inkscape:connector-curvature="0" />
	<path style="fill:none;stroke:red;stroke-width:1px;stroke-linecap:butt;stroke-linejoin:miter;stroke-opacity:1" d="M 90.5783,693.497 101.009,693.497 z" id="boundary" inkscape:connector-curvature="0" />
	<path style="fill:none;stroke:red;stroke-width:1px;stroke-linecap:butt;stroke-linejoin:miter;stroke-opacity:1" d="M 95.7939,264.778 104.139,256.433 z" id="boundary" inkscape:connector-curvature="0" />
	<path style="fill:none;stroke:red;stroke-width:1px;stroke-linecap:butt;stroke-linejoin:miter;stroke-opacity:1" d="M 97.8801,594.402 108.311,594.402 z" id="boundary" inkscape:connector-curvature="0" />
	<path style="fill:none;stroke:red;stroke-width:1px;stroke-linecap:butt;stroke-linejoin:miter;stroke-opacity:1" d="M 99.9664,671.592 119.785,666.376 z" id="boundary" inkscape:connector-curvature="0" />
	<path style="fill:none;stroke:red;stroke-width:1px;stroke-linecap:butt;stroke-linejoin:miter;stroke-opacity:1" d="M 101.009,693.497 111.441,693.497 z" id="boundary" inkscape:connector-curvature="0" />
	<path style="fill:none;stroke:red;stroke-width:1px;stroke-linecap:butt;stroke-linejoin:miter;stroke-opacity:1" d="M 104.139,256.433 112.484,249.131 z" id="boundary" inkscape:connector-curvature="0" />
	<path style="fill:none;stroke:red;stroke-width:1px;stroke-linecap:butt;stroke-linejoin:miter;stroke-opacity:1" d="M 108.311,594.402 118.742,594.402 z" id="boundary" inkscape:connector-curvature="0" />
	<path style="fill:none;stroke:red;stroke-width:1px;stroke-linecap:butt;stroke-linejoin:miter;stroke-opacity:1" d="M 111.441,693.497 121.872,693.497 z" id="boundary" inkscape:connector-curvature="0" />
	<path style="fill:none;stroke:red;stroke-width:1px;stroke-linecap:butt;stroke-linejoin:miter;stroke-opacity:1" d="M 112.484,249.131 119.785,240.787 z" id="boundary" inkscape:connector-curvature="0" />
	<path style="fill:none;stroke:red;stroke-width:1px;stroke-linecap:butt;stroke-linejoin:miter;stroke-opacity:1" d="M 118.742,594.402 129.174,594.402 z" id="boundary" inkscape:connector-curvature="0" />
	<path style="fill:none;stroke:red;stroke-width:1px;stroke-linecap:butt;stroke-linejoin:miter;stroke-opacity:1" d="M 119.785,240.787 134.389,220.967 z" id="boundary" inkscape:connector-curvature="0" />
	<path style="fill:none;stroke:red;stroke-width:1px;stroke-linecap:butt;stroke-linejoin:miter;stroke-opacity:1" d="M 119.785,666.376 130.217,663.247 z" id="boundary" inkscape:connector-curvature="0" />
	<path style="fill:none;stroke:red;stroke-width:1px;stroke-linecap:butt;stroke-linejoin:miter;stroke-opacity:1" d="M 121.872,693.497 132.303,693.497 z" id="boundary" inkscape:connector-curvature="0" />
	<path style="fill:none;stroke:red;stroke-width:1px;stroke-linecap:butt;stroke-linejoin:miter;stroke-opacity:1" d="M 129.174,594.402 139.605,594.402 z" id="boundary" inkscape:connector-curvature="0" />
	<path style="fill:none;stroke:red;stroke-width:1px;stroke-linecap:butt;stroke-linejoin:miter;stroke-opacity:1" d="M 130.217,663.247 140.648,661.161 z" id="boundary" inkscape:connector-curvature="0" />
	<path style="fill:none;stroke:red;stroke-width:1px;stroke-linecap:butt;stroke-linejoin:miter;stroke-opacity:1" d="M 132.303,693.497 152.122,688.282 z" id="boundary" inkscape:connector-curvature="0" />
	<path style="fill:none;stroke:red;stroke-width:1px;stroke-linecap:butt;stroke-linejoin:miter;stroke-opacity:1" d="M 134.389,220.967 144.82,215.752 z" id="boundary" inkscape:connector-curvature="0" />
	<path style="fill:none;stroke:red;stroke-width:1px;stroke-linecap:butt;stroke-linejoin:miter;stroke-opacity:1" d="M 139.605,594.402 150.036,594.402 z" id="boundary" inkscape:connector-curvature="0" />
	<path style="fill:none;stroke:red;stroke-width:1px;stroke-linecap:butt;stroke-linejoin:miter;stroke-opacity:1" d="M 140.648,661.161 151.079,658.032 z" id="boundary" inkscape:connector-curvature="0" />
	<path style="fill:none;stroke:red;stroke-width:1px;stroke-linecap:butt;stroke-linejoin:miter;stroke-opacity:1" d="M 144.82,215.752 155.251,210.536 z" id="boundary" inkscape:connector-curvature="0" />
	<path style="fill:none;stroke:red;stroke-width:1px;stroke-linecap:butt;stroke-linejoin:miter;stroke-opacity:1" d="M 150.036,594.402 160.467,594.402 z" id="boundary" inkscape:connector-curvature="0" />
	<path style="fill:none;stroke:red;stroke-width:1px;stroke-linecap:butt;stroke-linejoin:miter;stroke-opacity:1" d="M 151.079,658.032 161.51,652.816 z" id="boundary" inkscape:connector-curvature="0" />
	<path style="fill:none;stroke:red;stroke-width:1px;stroke-linecap:butt;stroke-linejoin:miter;stroke-opacity:1" d="M 152.122,688.282 171.941,683.066 z" id="boundary" inkscape:connector-curvature="0" />
	<path style="fill:none;stroke:red;stroke-width:1px;stroke-linecap:butt;stroke-linejoin:miter;stroke-opacity:1" d="M 155.251,210.536 165.682,207.407 z" id="boundary" inkscape:connector-curvature="0" />
	<path style="fill:none;stroke:red;stroke-width:1px;stroke-linecap:butt;stroke-linejoin:miter;stroke-opacity:1" d="M 160.467,594.402 170.898,594.402 z" id="boundary" inkscape:connector-curvature="0" />
	<path style="fill:none;stroke:red;stroke-width:1px;stroke-linecap:butt;stroke-linejoin:miter;stroke-opacity:1" d="M 161.51,652.816 171.941,650.73 z" id="boundary" inkscape:connector-curvature="0" />
	<path style="fill:none;stroke:red;stroke-width:1px;stroke-linecap:butt;stroke-linejoin:miter;stroke-opacity:1" d="M 165.682,207.407 175.07,202.191 z" id="boundary" inkscape:connector-curvature="0" />
	<path style="fill:none;stroke:red;stroke-width:1px;stroke-linecap:butt;stroke-linejoin:miter;stroke-opacity:1" d="M 170.898,594.402 181.329,594.402 z" id="boundary" inkscape:connector-curvature="0" />
	<path style="fill:none;stroke:red;stroke-width:1px;stroke-linecap:butt;stroke-linejoin:miter;stroke-opacity:1" d="M 171.941,650.73 182.372,647.6 z" id="boundary" inkscape:connector-curvature="0" />
	<path style="fill:none;stroke:red;stroke-width:1px;stroke-linecap:butt;stroke-linejoin:miter;stroke-opacity:1" d="M 171.941,683.066 182.372,677.851 z" id="boundary" inkscape:connector-curvature="0" />
	<path style="fill:none;stroke:red;stroke-width:1px;stroke-linecap:butt;stroke-linejoin:miter;stroke-opacity:1" d="M 175.07,202.191 194.89,196.976 z" id="boundary" inkscape:connector-curvature="0" />
	<path style="fill:none;stroke:red;stroke-width:1px;stroke-linecap:butt;stroke-linejoin:miter;stroke-opacity:1" d="M 181.329,594.402 186.545,614.221 z" id="boundary" inkscape:connector-curvature="0" />
	<path style="fill:none;stroke:red;stroke-width:1px;stroke-linecap:butt;stroke-linejoin:miter;stroke-opacity:1" d="M 182.372,647.6 186.545,635.083 z" id="boundary" inkscape:connector-curvature="0" />
	<path style="fill:none;stroke:red;stroke-width:1px;stroke-linecap:butt;stroke-linejoin:miter;stroke-opacity:1" d="M 182.372,677.851 192.803,677.851 z" id="boundary" inkscape:connector-curvature="0" />
	<path style="fill:none;stroke:red;stroke-width:1px;stroke-linecap:butt;stroke-linejoin:miter;stroke-opacity:1" d="M 186.545,614.221 186.545,624.652 z" id="boundary" inkscape:connector-curvature="0" />
	<path style="fill:none;stroke:red;stroke-width:1px;stroke-linecap:butt;stroke-linejoin:miter;stroke-opacity:1" d="M 186.545,624.652 186.545,635.083 z" id="boundary" inkscape:connector-curvature="0" />
	<path style="fill:none;stroke:red;stroke-width:1px;stroke-linecap:butt;stroke-linejoin:miter;stroke-opacity:1" d="M 192.803,677.851 203.234,677.851 z" id="boundary" inkscape:connector-curvature="0" />
	<path style="fill:none;stroke:red;stroke-width:1px;stroke-linecap:butt;stroke-linejoin:miter;stroke-opacity:1" d="M 194.89,196.976 205.321,196.976 z" id="boundary" inkscape:connector-curvature="0" />
	<path style="fill:none;stroke:red;stroke-width:1px;stroke-linecap:butt;stroke-linejoin:miter;stroke-opacity:1" d="M 203.234,677.851 213.666,677.851 z" id="boundary" inkscape:connector-curvature="0" />
	<path style="fill:none;stroke:red;stroke-width:1px;stroke-linecap:butt;stroke-linejoin:miter;stroke-opacity:1" d="M 205.321,196.976 215.752,191.76 z" id="boundary" inkscape:connector-curvature="0" />
	<path style="fill:none;stroke:red;stroke-width:1px;stroke-linecap:butt;stroke-linejoin:miter;stroke-opacity:1" d="M 213.666,677.851 224.097,677.851 z" id="boundary" inkscape:connector-curvature="0" />
	<path style="fill:none;stroke:red;stroke-width:1px;stroke-linecap:butt;stroke-linejoin:miter;stroke-opacity:1" d="M 215.752,191.76 226.183,191.76 z" id="boundary" inkscape:connector-curvature="0" />
	<path style="fill:none;stroke:red;stroke-width:1px;stroke-linecap:butt;stroke-linejoin:miter;stroke-opacity:1" d="M 224.097,677.851 233.485,672.635 z" id="boundary" inkscape:connector-curvature="0" />
	<path style="fill:none;stroke:red;stroke-width:1px;stroke-linecap:butt;stroke-linejoin:miter;stroke-opacity:1" d="M 226.183,191.76 236.614,191.76 z" id="boundary" inkscape:connector-curvature="0" />
	<path style="fill:none;stroke:red;stroke-width:1px;stroke-linecap:butt;stroke-linejoin:miter;stroke-opacity:1" d="M 233.485,672.635 243.916,672.635 z" id="boundary" inkscape:connector-curvature="0" />
	<path style="fill:none;stroke:red;stroke-width:1px;stroke-linecap:butt;stroke-linejoin:miter;stroke-opacity:1" d="M 236.614,191.76 247.045,186.545 z" id="boundary" inkscape:connector-curvature="0" />
	<path style="fill:none;stroke:red;stroke-width:1px;stroke-linecap:butt;stroke-linejoin:miter;stroke-opacity:1" d="M 243.916,672.635 254.347,669.506 z" id="boundary" inkscape:connector-curvature="0" />
	<path style="fill:none;stroke:red;stroke-width:1px;stroke-linecap:butt;stroke-linejoin:miter;stroke-opacity:1" d="M 247.045,186.545 257.476,186.545 z" id="boundary" inkscape:connector-curvature="0" />
	<path style="fill:none;stroke:red;stroke-width:1px;stroke-linecap:butt;stroke-linejoin:miter;stroke-opacity:1" d="M 254.347,669.506 264.778,667.42 z" id="boundary" inkscape:connector-curvature="0" />
	<path style="fill:none;stroke:red;stroke-width:1px;stroke-linecap:butt;stroke-linejoin:miter;stroke-opacity:1" d="M 257.476,186.545 267.907,181.329 z" id="boundary" inkscape:connector-curvature="0" />
	<path style="fill:none;stroke:red;stroke-width:1px;stroke-linecap:butt;stroke-linejoin:miter;stroke-opacity:1" d="M 264.778,667.42 275.209,667.42 z" id="boundary" inkscape:connector-curvature="0" />
	<path style="fill:none;stroke:red;stroke-width:1px;stroke-linecap:butt;stroke-linejoin:miter;stroke-opacity:1" d="M 267.907,181.329 278.339,181.329 z" id="boundary" inkscape:connector-curvature="0" />
	<path style="fill:none;stroke:red;stroke-width:1px;stroke-linecap:butt;stroke-linejoin:miter;stroke-opacity:1" d="M 275.209,667.42 295.028,662.204 z" id="boundary" inkscape:connector-curvature="0" />
	<path style="fill:none;stroke:red;stroke-width:1px;stroke-linecap:butt;stroke-linejoin:miter;stroke-opacity:1" d="M 278.339,181.329 288.77,176.114 z" id="boundary" inkscape:connector-curvature="0" />
	<path style="fill:none;stroke:red;stroke-width:1px;stroke-linecap:butt;stroke-linejoin:miter;stroke-opacity:1" d="M 288.77,176.114 299.201,176.114 z" id="boundary" inkscape:connector-curvature="0" />
	<path style="fill:none;stroke:red;stroke-width:1px;stroke-linecap:butt;stroke-linejoin:miter;stroke-opacity:1" d="M 295.028,662.204 305.46,662.204 z" id="boundary" inkscape:connector-curvature="0" />
	<path style="fill:none;stroke:red;stroke-width:1px;stroke-linecap:butt;stroke-linejoin:miter;stroke-opacity:1" d="M 296.072,43.6383 301.287,33.2072 z" id="boundary" inkscape:connector-curvature="0" />
	<path style="fill:none;stroke:red;stroke-width:1px;stroke-linecap:butt;stroke-linejoin:miter;stroke-opacity:1" d="M 296.072,43.6383 301.287,53.0263 z" id="boundary" inkscape:connector-curvature="0" />
	<path style="fill:none;stroke:red;stroke-width:1px;stroke-linecap:butt;stroke-linejoin:miter;stroke-opacity:1" d="M 299.201,176.114 309.632,170.898 z" id="boundary" inkscape:connector-curvature="0" />
	<path style="fill:none;stroke:red;stroke-width:1px;stroke-linecap:butt;stroke-linejoin:miter;stroke-opacity:1" d="M 301.287,33.2072 311.718,27.9916 z" id="boundary" inkscape:connector-curvature="0" />
	<path style="fill:none;stroke:red;stroke-width:1px;stroke-linecap:butt;stroke-linejoin:miter;stroke-opacity:1" d="M 301.287,53.0263 311.718,57.1987 z" id="boundary" inkscape:connector-curvature="0" />
	<path style="fill:none;stroke:red;stroke-width:1px;stroke-linecap:butt;stroke-linejoin:miter;stroke-opacity:1" d="M 305.46,662.204 315.891,662.204 z" id="boundary" inkscape:connector-curvature="0" />
	<path style="fill:none;stroke:red;stroke-width:1px;stroke-linecap:butt;stroke-linejoin:miter;stroke-opacity:1" d="M 309.632,170.898 320.063,170.898 z" id="boundary" inkscape:connector-curvature="0" />
	<path style="fill:none;stroke:red;stroke-width:1px;stroke-linecap:butt;stroke-linejoin:miter;stroke-opacity:1" d="M 311.718,27.9916 322.149,24.8623 z" id="boundary" inkscape:connector-curvature="0" />
	<path style="fill:none;stroke:red;stroke-width:1px;stroke-linecap:butt;stroke-linejoin:miter;stroke-opacity:1" d="M 311.718,57.1987 321.106,62.4143 z" id="boundary" inkscape:connector-curvature="0" />
	<path style="fill:none;stroke:red;stroke-width:1px;stroke-linecap:butt;stroke-linejoin:miter;stroke-opacity:1" d="M 315.891,662.204 326.322,662.204 z" id="boundary" inkscape:connector-curvature="0" />
	<path style="fill:none;stroke:red;stroke-width:1px;stroke-linecap:butt;stroke-linejoin:miter;stroke-opacity:1" d="M 320.063,170.898 330.494,165.682 z" id="boundary" inkscape:connector-curvature="0" />
	<path style="fill:none;stroke:red;stroke-width:1px;stroke-linecap:butt;stroke-linejoin:miter;stroke-opacity:1" d="M 321.106,62.4143 340.925,67.6299 z" id="boundary" inkscape:connector-curvature="0" />
	<path style="fill:none;stroke:red;stroke-width:1px;stroke-linecap:butt;stroke-linejoin:miter;stroke-opacity:1" d="M 322.149,24.8623 331.537,19.6467 z" id="boundary" inkscape:connector-curvature="0" />
	<path style="fill:none;stroke:red;stroke-width:1px;stroke-linecap:butt;stroke-linejoin:miter;stroke-opacity:1" d="M 326.322,662.204 336.753,662.204 z" id="boundary" inkscape:connector-curvature="0" />
	<path style="fill:none;stroke:red;stroke-width:1px;stroke-linecap:butt;stroke-linejoin:miter;stroke-opacity:1" d="M 330.494,165.682 340.925,165.682 z" id="boundary" inkscape:connector-curvature="0" />
	<path style="fill:none;stroke:red;stroke-width:1px;stroke-linecap:butt;stroke-linejoin:miter;stroke-opacity:1" d="M 331.537,19.6467 341.968,19.6467 z" id="boundary" inkscape:connector-curvature="0" />
	<path style="fill:none;stroke:red;stroke-width:1px;stroke-linecap:butt;stroke-linejoin:miter;stroke-opacity:1" d="M 336.753,662.204 347.184,662.204 z" id="boundary" inkscape:connector-curvature="0" />
	<path style="fill:none;stroke:red;stroke-width:1px;stroke-linecap:butt;stroke-linejoin:miter;stroke-opacity:1" d="M 340.925,67.6299 370.132,78.061 z" id="boundary" inkscape:connector-curvature="0" />
	<path style="fill:none;stroke:red;stroke-width:1px;stroke-linecap:butt;stroke-linejoin:miter;stroke-opacity:1" d="M 340.925,165.682 351.356,165.682 z" id="boundary" inkscape:connector-curvature="0" />
	<path style="fill:none;stroke:red;stroke-width:1px;stroke-linecap:butt;stroke-linejoin:miter;stroke-opacity:1" d="M 341.968,19.6467 361.788,14.4311 z" id="boundary" inkscape:connector-curvature="0" />
	<path style="fill:none;stroke:red;stroke-width:1px;stroke-linecap:butt;stroke-linejoin:miter;stroke-opacity:1" d="M 347.184,662.204 357.615,662.204 z" id="boundary" inkscape:connector-curvature="0" />
	<path style="fill:none;stroke:red;stroke-width:1px;stroke-linecap:butt;stroke-linejoin:miter;stroke-opacity:1" d="M 351.356,165.682 361.788,165.682 z" id="boundary" inkscape:connector-curvature="0" />
	<path style="fill:none;stroke:red;stroke-width:1px;stroke-linecap:butt;stroke-linejoin:miter;stroke-opacity:1" d="M 357.615,662.204 368.046,662.204 z" id="boundary" inkscape:connector-curvature="0" />
	<path style="fill:none;stroke:red;stroke-width:1px;stroke-linecap:butt;stroke-linejoin:miter;stroke-opacity:1" d="M 358.658,101.009 363.874,90.5783 z" id="boundary" inkscape:connector-curvature="0" />
	<path style="fill:none;stroke:red;stroke-width:1px;stroke-linecap:butt;stroke-linejoin:miter;stroke-opacity:1" d="M 358.658,101.009 367.003,108.311 z" id="boundary" inkscape:connector-curvature="0" />
	<path style="fill:none;stroke:red;stroke-width:1px;stroke-linecap:butt;stroke-linejoin:miter;stroke-opacity:1" d="M 359.701,78.061 363.874,90.5783 z" id="boundary" inkscape:connector-curvature="0" />
	<path style="fill:none;stroke:red;stroke-width:1px;stroke-linecap:butt;stroke-linejoin:miter;stroke-opacity:1" d="M 359.701,78.061 370.132,78.061 z" id="boundary" inkscape:connector-curvature="0" />
	<path style="fill:none;stroke:red;stroke-width:1px;stroke-linecap:butt;stroke-linejoin:miter;stroke-opacity:1" d="M 361.788,14.4311 372.219,14.4311 z" id="boundary" inkscape:connector-curvature="0" />
	<path style="fill:none;stroke:red;stroke-width:1px;stroke-linecap:butt;stroke-linejoin:miter;stroke-opacity:1" d="M 361.788,165.682 380.564,155.251 z" id="boundary" inkscape:connector-curvature="0" />
	<path style="fill:none;stroke:red;stroke-width:1px;stroke-linecap:butt;stroke-linejoin:miter;stroke-opacity:1" d="M 367.003,108.311 385.779,114.57 z" id="boundary" inkscape:connector-curvature="0" />
	<path style="fill:none;stroke:red;stroke-width:1px;stroke-linecap:butt;stroke-linejoin:miter;stroke-opacity:1" d="M 368.046,662.204 378.477,662.204 z" id="boundary" inkscape:connector-curvature="0" />
	<path style="fill:none;stroke:red;stroke-width:1px;stroke-linecap:butt;stroke-linejoin:miter;stroke-opacity:1" d="M 372.219,14.4311 392.038,9.21556 z" id="boundary" inkscape:connector-curvature="0" />
	<path style="fill:none;stroke:red;stroke-width:1px;stroke-linecap:butt;stroke-linejoin:miter;stroke-opacity:1" d="M 378.477,662.204 387.865,656.988 z" id="boundary" inkscape:connector-curvature="0" />
	<path style="fill:none;stroke:red;stroke-width:1px;stroke-linecap:butt;stroke-linejoin:miter;stroke-opacity:1" d="M 380.564,155.251 389.952,145.863 z" id="boundary" inkscape:connector-curvature="0" />
	<path style="fill:none;stroke:red;stroke-width:1px;stroke-linecap:butt;stroke-linejoin:miter;stroke-opacity:1" d="M 385.779,114.57 389.952,125.001 z" id="boundary" inkscape:connector-curvature="0" />
	<path style="fill:none;stroke:red;stroke-width:1px;stroke-linecap:butt;stroke-linejoin:miter;stroke-opacity:1" d="M 387.865,656.988 398.297,656.988 z" id="boundary" inkscape:connector-curvature="0" />
	<path style="fill:none;stroke:red;stroke-width:1px;stroke-linecap:butt;stroke-linejoin:miter;stroke-opacity:1" d="M 389.952,125.001 389.952,135.432 z" id="boundary" inkscape:connector-curvature="0" />
	<path style="fill:none;stroke:red;stroke-width:1px;stroke-linecap:butt;stroke-linejoin:miter;stroke-opacity:1" d="M 389.952,135.432 389.952,145.863 z" id="boundary" inkscape:connector-curvature="0" />
	<path style="fill:none;stroke:red;stroke-width:1px;stroke-linecap:butt;stroke-linejoin:miter;stroke-opacity:1" d="M 392.038,9.21556 402.469,5.04311 z" id="boundary" inkscape:connector-curvature="0" />
	<path style="fill:none;stroke:red;stroke-width:1px;stroke-linecap:butt;stroke-linejoin:miter;stroke-opacity:1" d="M 398.297,656.988 408.728,655.945 z" id="boundary" inkscape:connector-curvature="0" />
	<path style="fill:none;stroke:red;stroke-width:1px;stroke-linecap:butt;stroke-linejoin:miter;stroke-opacity:1" d="M 402.469,5.04311 412.9,4 z" id="boundary" inkscape:connector-curvature="0" />
	<path style="fill:none;stroke:red;stroke-width:1px;stroke-linecap:butt;stroke-linejoin:miter;stroke-opacity:1" d="M 408.728,655.945 419.159,651.773 z" id="boundary" inkscape:connector-curvature="0" />
	<path style="fill:none;stroke:red;stroke-width:1px;stroke-linecap:butt;stroke-linejoin:miter;stroke-opacity:1" d="M 412.9,4 423.331,4 z" id="boundary" inkscape:connector-curvature="0" />
	<path style="fill:none;stroke:red;stroke-width:1px;stroke-linecap:butt;stroke-linejoin:miter;stroke-opacity:1" d="M 419.159,651.773 428.547,646.557 z" id="boundary" inkscape:connector-curvature="0" />
	<path style="fill:none;stroke:red;stroke-width:1px;stroke-linecap:butt;stroke-linejoin:miter;stroke-opacity:1" d="M 423.331,4 433.762,4 z" id="boundary" inkscape:connector-curvature="0" />
	<path style="fill:none;stroke:red;stroke-width:1px;stroke-linecap:butt;stroke-linejoin:miter;stroke-opacity:1" d="M 427.504,98.9232 427.504,109.354 z" id="boundary" inkscape:connector-curvature="0" />
	<path style="fill:none;stroke:red;stroke-width:1px;stroke-linecap:butt;stroke-linejoin:miter;stroke-opacity:1" d="M 427.504,98.9232 432.719,88.4921 z" id="boundary" inkscape:connector-curvature="0" />
	<path style="fill:none;stroke:red;stroke-width:1px;stroke-linecap:butt;stroke-linejoin:miter;stroke-opacity:1" d="M 427.504,109.354 429.59,119.785 z" id="boundary" inkscape:connector-curvature="0" />
	<path style="fill:none;stroke:red;stroke-width:1px;stroke-linecap:butt;stroke-linejoin:miter;stroke-opacity:1" d="M 428.547,646.557 437.935,620.479 z" id="boundary" inkscape:connector-curvature="0" />
	<path style="fill:none;stroke:red;stroke-width:1px;stroke-linecap:butt;stroke-linejoin:miter;stroke-opacity:1" d="M 429.59,119.785 432.719,130.217 z" id="boundary" inkscape:connector-curvature="0" />
	<path style="fill:none;stroke:red;stroke-width:1px;stroke-linecap:butt;stroke-linejoin:miter;stroke-opacity:1" d="M 432.719,57.1987 432.719,67.6299 z" id="boundary" inkscape:connector-curvature="0" />
	<path style="fill:none;stroke:red;stroke-width:1px;stroke-linecap:butt;stroke-linejoin:miter;stroke-opacity:1" d="M 432.719,57.1987 443.15,57.1987 z" id="boundary" inkscape:connector-curvature="0" />
	<path style="fill:none;stroke:red;stroke-width:1px;stroke-linecap:butt;stroke-linejoin:miter;stroke-opacity:1" d="M 432.719,67.6299 432.719,78.061 z" id="boundary" inkscape:connector-curvature="0" />
	<path style="fill:none;stroke:red;stroke-width:1px;stroke-linecap:butt;stroke-linejoin:miter;stroke-opacity:1" d="M 432.719,78.061 432.719,88.4921 z" id="boundary" inkscape:connector-curvature="0" />
	<path style="fill:none;stroke:red;stroke-width:1px;stroke-linecap:butt;stroke-linejoin:miter;stroke-opacity:1" d="M 432.719,130.217 443.15,134.389 z" id="boundary" inkscape:connector-curvature="0" />
	<path style="fill:none;stroke:red;stroke-width:1px;stroke-linecap:butt;stroke-linejoin:miter;stroke-opacity:1" d="M 433.762,4 444.193,4 z" id="boundary" inkscape:connector-curvature="0" />
	<path style="fill:none;stroke:red;stroke-width:1px;stroke-linecap:butt;stroke-linejoin:miter;stroke-opacity:1" d="M 437.935,599.617 437.935,610.048 z" id="boundary" inkscape:connector-curvature="0" />
	<path style="fill:none;stroke:red;stroke-width:1px;stroke-linecap:butt;stroke-linejoin:miter;stroke-opacity:1" d="M 437.935,599.617 447.323,594.402 z" id="boundary" inkscape:connector-curvature="0" />
	<path style="fill:none;stroke:red;stroke-width:1px;stroke-linecap:butt;stroke-linejoin:miter;stroke-opacity:1" d="M 437.935,610.048 437.935,620.479 z" id="boundary" inkscape:connector-curvature="0" />
	<path style="fill:none;stroke:red;stroke-width:1px;stroke-linecap:butt;stroke-linejoin:miter;stroke-opacity:1" d="M 443.15,57.1987 453.581,57.1987 z" id="boundary" inkscape:connector-curvature="0" />
	<path style="fill:none;stroke:red;stroke-width:1px;stroke-linecap:butt;stroke-linejoin:miter;stroke-opacity:1" d="M 443.15,134.389 453.581,134.389 z" id="boundary" inkscape:connector-curvature="0" />
	<path style="fill:none;stroke:red;stroke-width:1px;stroke-linecap:butt;stroke-linejoin:miter;stroke-opacity:1" d="M 444.193,4 454.625,4 z" id="boundary" inkscape:connector-curvature="0" />
	<path style="fill:none;stroke:red;stroke-width:1px;stroke-linecap:butt;stroke-linejoin:miter;stroke-opacity:1" d="M 447.323,594.402 457.754,591.272 z" id="boundary" inkscape:connector-curvature="0" />
	<path style="fill:none;stroke:red;stroke-width:1px;stroke-linecap:butt;stroke-linejoin:miter;stroke-opacity:1" d="M 453.581,57.1987 464.013,51.9832 z" id="boundary" inkscape:connector-curvature="0" />
	<path style="fill:none;stroke:red;stroke-width:1px;stroke-linecap:butt;stroke-linejoin:miter;stroke-opacity:1" d="M 453.581,134.389 464.013,134.389 z" id="boundary" inkscape:connector-curvature="0" />
	<path style="fill:none;stroke:red;stroke-width:1px;stroke-linecap:butt;stroke-linejoin:miter;stroke-opacity:1" d="M 454.625,4 465.056,4 z" id="boundary" inkscape:connector-curvature="0" />
	<path style="fill:none;stroke:red;stroke-width:1px;stroke-linecap:butt;stroke-linejoin:miter;stroke-opacity:1" d="M 457.754,591.272 468.185,589.186 z" id="boundary" inkscape:connector-curvature="0" />
	<path style="fill:none;stroke:red;stroke-width:1px;stroke-linecap:butt;stroke-linejoin:miter;stroke-opacity:1" d="M 464.013,51.9832 474.444,46.7676 z" id="boundary" inkscape:connector-curvature="0" />
	<path style="fill:none;stroke:red;stroke-width:1px;stroke-linecap:butt;stroke-linejoin:miter;stroke-opacity:1" d="M 464.013,134.389 474.444,134.389 z" id="boundary" inkscape:connector-curvature="0" />
	<path style="fill:none;stroke:red;stroke-width:1px;stroke-linecap:butt;stroke-linejoin:miter;stroke-opacity:1" d="M 465.056,4 474.444,9.21556 z" id="boundary" inkscape:connector-curvature="0" />
	<path style="fill:none;stroke:red;stroke-width:1px;stroke-linecap:butt;stroke-linejoin:miter;stroke-opacity:1" d="M 468.185,589.186 478.616,589.186 z" id="boundary" inkscape:connector-curvature="0" />
	<path style="fill:none;stroke:red;stroke-width:1px;stroke-linecap:butt;stroke-linejoin:miter;stroke-opacity:1" d="M 474.444,9.21556 484.875,25.9054 z" id="boundary" inkscape:connector-curvature="0" />
	<path style="fill:none;stroke:red;stroke-width:1px;stroke-linecap:butt;stroke-linejoin:miter;stroke-opacity:1" d="M 474.444,46.7676 479.659,36.3365 z" id="boundary" inkscape:connector-curvature="0" />
	<path style="fill:none;stroke:red;stroke-width:1px;stroke-linecap:butt;stroke-linejoin:miter;stroke-opacity:1" d="M 474.444,134.389 484.875,137.518 z" id="boundary" inkscape:connector-curvature="0" />
	<path style="fill:none;stroke:red;stroke-width:1px;stroke-linecap:butt;stroke-linejoin:miter;stroke-opacity:1" d="M 478.616,589.186 489.047,586.057 z" id="boundary" inkscape:connector-curvature="0" />
	<path style="fill:none;stroke:red;stroke-width:1px;stroke-linecap:butt;stroke-linejoin:miter;stroke-opacity:1" d="M 479.659,36.3365 484.875,25.9054 z" id="boundary" inkscape:connector-curvature="0" />
	<path style="fill:none;stroke:red;stroke-width:1px;stroke-linecap:butt;stroke-linejoin:miter;stroke-opacity:1" d="M 484.875,137.518 495.306,139.605 z" id="boundary" inkscape:connector-curvature="0" />
	<path style="fill:none;stroke:red;stroke-width:1px;stroke-linecap:butt;stroke-linejoin:miter;stroke-opacity:1" d="M 489.047,586.057 499.478,583.971 z" id="boundary" inkscape:connector-curvature="0" />
	<path style="fill:none;stroke:red;stroke-width:1px;stroke-linecap:butt;stroke-linejoin:miter;stroke-opacity:1" d="M 495.306,139.605 505.737,139.605 z" id="boundary" inkscape:connector-curvature="0" />
	<path style="fill:none;stroke:red;stroke-width:1px;stroke-linecap:butt;stroke-linejoin:miter;stroke-opacity:1" d="M 499.478,583.971 509.91,583.971 z" id="boundary" inkscape:connector-curvature="0" />
	<path style="fill:none;stroke:red;stroke-width:1px;stroke-linecap:butt;stroke-linejoin:miter;stroke-opacity:1" d="M 505.737,139.605 516.168,139.605 z" id="boundary" inkscape:connector-curvature="0" />
	<path style="fill:none;stroke:red;stroke-width:1px;stroke-linecap:butt;stroke-linejoin:miter;stroke-opacity:1" d="M 509.91,583.971 520.341,580.841 z" id="boundary" inkscape:connector-curvature="0" />
	<path style="fill:none;stroke:red;stroke-width:1px;stroke-linecap:butt;stroke-linejoin:miter;stroke-opacity:1" d="M 516.168,139.605 526.599,139.605 z" id="boundary" inkscape:connector-curvature="0" />
	<path style="fill:none;stroke:red;stroke-width:1px;stroke-linecap:butt;stroke-linejoin:miter;stroke-opacity:1" d="M 520.341,580.841 530.772,578.755 z" id="boundary" inkscape:connector-curvature="0" />
	<path style="fill:none;stroke:red;stroke-width:1px;stroke-linecap:butt;stroke-linejoin:miter;stroke-opacity:1" d="M 526.599,139.605 537.03,139.605 z" id="boundary" inkscape:connector-curvature="0" />
	<path style="fill:none;stroke:red;stroke-width:1px;stroke-linecap:butt;stroke-linejoin:miter;stroke-opacity:1" d="M 530.772,578.755 541.203,578.755 z" id="boundary" inkscape:connector-curvature="0" />
	<path style="fill:none;stroke:red;stroke-width:1px;stroke-linecap:butt;stroke-linejoin:miter;stroke-opacity:1" d="M 537.03,139.605 547.462,139.605 z" id="boundary" inkscape:connector-curvature="0" />
	<path style="fill:none;stroke:red;stroke-width:1px;stroke-linecap:butt;stroke-linejoin:miter;stroke-opacity:1" d="M 541.203,578.755 551.634,578.755 z" id="boundary" inkscape:connector-curvature="0" />
	<path style="fill:none;stroke:red;stroke-width:1px;stroke-linecap:butt;stroke-linejoin:miter;stroke-opacity:1" d="M 547.462,139.605 557.893,139.605 z" id="boundary" inkscape:connector-curvature="0" />
	<path style="fill:none;stroke:red;stroke-width:1px;stroke-linecap:butt;stroke-linejoin:miter;stroke-opacity:1" d="M 551.634,578.755 562.065,575.626 z" id="boundary" inkscape:connector-curvature="0" />
	<path style="fill:none;stroke:red;stroke-width:1px;stroke-linecap:butt;stroke-linejoin:miter;stroke-opacity:1" d="M 557.893,139.605 568.324,139.605 z" id="boundary" inkscape:connector-curvature="0" />
	<path style="fill:none;stroke:red;stroke-width:1px;stroke-linecap:butt;stroke-linejoin:miter;stroke-opacity:1" d="M 562.065,575.626 572.496,573.539 z" id="boundary" inkscape:connector-curvature="0" />
	<path style="fill:none;stroke:red;stroke-width:1px;stroke-linecap:butt;stroke-linejoin:miter;stroke-opacity:1" d="M 568.324,139.605 578.755,139.605 z" id="boundary" inkscape:connector-curvature="0" />
	<path style="fill:none;stroke:red;stroke-width:1px;stroke-linecap:butt;stroke-linejoin:miter;stroke-opacity:1" d="M 572.496,573.539 582.927,573.539 z" id="boundary" inkscape:connector-curvature="0" />
	<path style="fill:none;stroke:red;stroke-width:1px;stroke-linecap:butt;stroke-linejoin:miter;stroke-opacity:1" d="M 578.755,139.605 589.186,139.605 z" id="boundary" inkscape:connector-curvature="0" />
	<path style="fill:none;stroke:red;stroke-width:1px;stroke-linecap:butt;stroke-linejoin:miter;stroke-opacity:1" d="M 582.927,573.539 602.747,568.324 z" id="boundary" inkscape:connector-curvature="0" />
	<path style="fill:none;stroke:red;stroke-width:1px;stroke-linecap:butt;stroke-linejoin:miter;stroke-opacity:1" d="M 589.186,139.605 598.574,144.82 z" id="boundary" inkscape:connector-curvature="0" />
	<path style="fill:none;stroke:red;stroke-width:1px;stroke-linecap:butt;stroke-linejoin:miter;stroke-opacity:1" d="M 598.574,144.82 604.833,153.165 z" id="boundary" inkscape:connector-curvature="0" />
	<path style="fill:none;stroke:red;stroke-width:1px;stroke-linecap:butt;stroke-linejoin:miter;stroke-opacity:1" d="M 602.747,568.324 613.178,568.324 z" id="boundary" inkscape:connector-curvature="0" />
	<path style="fill:none;stroke:red;stroke-width:1px;stroke-linecap:butt;stroke-linejoin:miter;stroke-opacity:1" d="M 604.833,153.165 610.048,162.553 z" id="boundary" inkscape:connector-curvature="0" />
	<path style="fill:none;stroke:red;stroke-width:1px;stroke-linecap:butt;stroke-linejoin:miter;stroke-opacity:1" d="M 610.048,162.553 626.738,170.898 z" id="boundary" inkscape:connector-curvature="0" />
	<path style="fill:none;stroke:red;stroke-width:1px;stroke-linecap:butt;stroke-linejoin:miter;stroke-opacity:1" d="M 613.178,568.324 623.609,566.238 z" id="boundary" inkscape:connector-curvature="0" />
	<path style="fill:none;stroke:red;stroke-width:1px;stroke-linecap:butt;stroke-linejoin:miter;stroke-opacity:1" d="M 615.264,255.39 615.264,265.821 z" id="boundary" inkscape:connector-curvature="0" />
	<path style="fill:none;stroke:red;stroke-width:1px;stroke-linecap:butt;stroke-linejoin:miter;stroke-opacity:1" d="M 615.264,255.39 625.695,250.175 z" id="boundary" inkscape:connector-curvature="0" />
	<path style="fill:none;stroke:red;stroke-width:1px;stroke-linecap:butt;stroke-linejoin:miter;stroke-opacity:1" d="M 615.264,265.821 634.04,275.209 z" id="boundary" inkscape:connector-curvature="0" />
	<path style="fill:none;stroke:red;stroke-width:1px;stroke-linecap:butt;stroke-linejoin:miter;stroke-opacity:1" d="M 623.609,566.238 634.04,563.108 z" id="boundary" inkscape:connector-curvature="0" />
	<path style="fill:none;stroke:red;stroke-width:1px;stroke-linecap:butt;stroke-linejoin:miter;stroke-opacity:1" d="M 625.695,250.175 636.126,250.175 z" id="boundary" inkscape:connector-curvature="0" />
	<path style="fill:none;stroke:red;stroke-width:1px;stroke-linecap:butt;stroke-linejoin:miter;stroke-opacity:1" d="M 626.738,170.898 637.169,170.898 z" id="boundary" inkscape:connector-curvature="0" />
	<path style="fill:none;stroke:red;stroke-width:1px;stroke-linecap:butt;stroke-linejoin:miter;stroke-opacity:1" d="M 634.04,275.209 644.471,275.209 z" id="boundary" inkscape:connector-curvature="0" />
	<path style="fill:none;stroke:red;stroke-width:1px;stroke-linecap:butt;stroke-linejoin:miter;stroke-opacity:1" d="M 634.04,563.108 644.471,563.108 z" id="boundary" inkscape:connector-curvature="0" />
	<path style="fill:none;stroke:red;stroke-width:1px;stroke-linecap:butt;stroke-linejoin:miter;stroke-opacity:1" d="M 636.126,250.175 655.945,241.83 z" id="boundary" inkscape:connector-curvature="0" />
	<path style="fill:none;stroke:red;stroke-width:1px;stroke-linecap:butt;stroke-linejoin:miter;stroke-opacity:1" d="M 637.169,170.898 647.6,170.898 z" id="boundary" inkscape:connector-curvature="0" />
	<path style="fill:none;stroke:red;stroke-width:1px;stroke-linecap:butt;stroke-linejoin:miter;stroke-opacity:1" d="M 644.471,275.209 654.902,275.209 z" id="boundary" inkscape:connector-curvature="0" />
	<path style="fill:none;stroke:red;stroke-width:1px;stroke-linecap:butt;stroke-linejoin:miter;stroke-opacity:1" d="M 644.471,563.108 654.902,563.108 z" id="boundary" inkscape:connector-curvature="0" />
	<path style="fill:none;stroke:red;stroke-width:1px;stroke-linecap:butt;stroke-linejoin:miter;stroke-opacity:1" d="M 647.6,170.898 658.032,170.898 z" id="boundary" inkscape:connector-curvature="0" />
	<path style="fill:none;stroke:red;stroke-width:1px;stroke-linecap:butt;stroke-linejoin:miter;stroke-opacity:1" d="M 654.902,275.209 665.333,275.209 z" id="boundary" inkscape:connector-curvature="0" />
	<path style="fill:none;stroke:red;stroke-width:1px;stroke-linecap:butt;stroke-linejoin:miter;stroke-opacity:1" d="M 654.902,563.108 665.333,563.108 z" id="boundary" inkscape:connector-curvature="0" />
	<path style="fill:none;stroke:red;stroke-width:1px;stroke-linecap:butt;stroke-linejoin:miter;stroke-opacity:1" d="M 655.945,241.83 666.376,236.614 z" id="boundary" inkscape:connector-curvature="0" />
	<path style="fill:none;stroke:red;stroke-width:1px;stroke-linecap:butt;stroke-linejoin:miter;stroke-opacity:1" d="M 658.032,170.898 668.463,170.898 z" id="boundary" inkscape:connector-curvature="0" />
	<path style="fill:none;stroke:red;stroke-width:1px;stroke-linecap:butt;stroke-linejoin:miter;stroke-opacity:1" d="M 665.333,275.209 675.764,275.209 z" id="boundary" inkscape:connector-curvature="0" />
	<path style="fill:none;stroke:red;stroke-width:1px;stroke-linecap:butt;stroke-linejoin:miter;stroke-opacity:1" d="M 665.333,563.108 675.764,563.108 z" id="boundary" inkscape:connector-curvature="0" />
	<path style="fill:none;stroke:red;stroke-width:1px;stroke-linecap:butt;stroke-linejoin:miter;stroke-opacity:1" d="M 666.376,236.614 671.592,226.183 z" id="boundary" inkscape:connector-curvature="0" />
	<path style="fill:none;stroke:red;stroke-width:1px;stroke-linecap:butt;stroke-linejoin:miter;stroke-opacity:1" d="M 668.463,170.898 676.808,178.2 z" id="boundary" inkscape:connector-curvature="0" />
	<path style="fill:none;stroke:red;stroke-width:1px;stroke-linecap:butt;stroke-linejoin:miter;stroke-opacity:1" d="M 671.592,226.183 672.635,213.666 z" id="boundary" inkscape:connector-curvature="0" />
	<path style="fill:none;stroke:red;stroke-width:1px;stroke-linecap:butt;stroke-linejoin:miter;stroke-opacity:1" d="M 672.635,213.666 677.851,203.234 z" id="boundary" inkscape:connector-curvature="0" />
	<path style="fill:none;stroke:red;stroke-width:1px;stroke-linecap:butt;stroke-linejoin:miter;stroke-opacity:1" d="M 675.764,275.209 695.584,269.994 z" id="boundary" inkscape:connector-curvature="0" />
	<path style="fill:none;stroke:red;stroke-width:1px;stroke-linecap:butt;stroke-linejoin:miter;stroke-opacity:1" d="M 675.764,563.108 686.196,563.108 z" id="boundary" inkscape:connector-curvature="0" />
	<path style="fill:none;stroke:red;stroke-width:1px;stroke-linecap:butt;stroke-linejoin:miter;stroke-opacity:1" d="M 676.808,178.2 677.851,203.234 z" id="boundary" inkscape:connector-curvature="0" />
	<path style="fill:none;stroke:red;stroke-width:1px;stroke-linecap:butt;stroke-linejoin:miter;stroke-opacity:1" d="M 686.196,563.108 696.627,563.108 z" id="boundary" inkscape:connector-curvature="0" />
	<path style="fill:none;stroke:red;stroke-width:1px;stroke-linecap:butt;stroke-linejoin:miter;stroke-opacity:1" d="M 693.497,406.641 693.497,417.073 z" id="boundary" inkscape:connector-curvature="0" />
	<path style="fill:none;stroke:red;stroke-width:1px;stroke-linecap:butt;stroke-linejoin:miter;stroke-opacity:1" d="M 693.497,406.641 703.928,401.426 z" id="boundary" inkscape:connector-curvature="0" />
	<path style="fill:none;stroke:red;stroke-width:1px;stroke-linecap:butt;stroke-linejoin:miter;stroke-opacity:1" d="M 693.497,417.073 693.497,427.504 z" id="boundary" inkscape:connector-curvature="0" />
	<path style="fill:none;stroke:red;stroke-width:1px;stroke-linecap:butt;stroke-linejoin:miter;stroke-opacity:1" d="M 693.497,427.504 693.497,437.935 z" id="boundary" inkscape:connector-curvature="0" />
	<path style="fill:none;stroke:red;stroke-width:1px;stroke-linecap:butt;stroke-linejoin:miter;stroke-opacity:1" d="M 693.497,437.935 693.497,448.366 z" id="boundary" inkscape:connector-curvature="0" />
	<path style="fill:none;stroke:red;stroke-width:1px;stroke-linecap:butt;stroke-linejoin:miter;stroke-opacity:1" d="M 693.497,448.366 693.497,458.797 z" id="boundary" inkscape:connector-curvature="0" />
	<path style="fill:none;stroke:red;stroke-width:1px;stroke-linecap:butt;stroke-linejoin:miter;stroke-opacity:1" d="M 693.497,458.797 703.928,462.97 z" id="boundary" inkscape:connector-curvature="0" />
	<path style="fill:none;stroke:red;stroke-width:1px;stroke-linecap:butt;stroke-linejoin:miter;stroke-opacity:1" d="M 695.584,269.994 706.015,269.994 z" id="boundary" inkscape:connector-curvature="0" />
	<path style="fill:none;stroke:red;stroke-width:1px;stroke-linecap:butt;stroke-linejoin:miter;stroke-opacity:1" d="M 696.627,563.108 707.058,563.108 z" id="boundary" inkscape:connector-curvature="0" />
	<path style="fill:none;stroke:red;stroke-width:1px;stroke-linecap:butt;stroke-linejoin:miter;stroke-opacity:1" d="M 703.928,401.426 714.36,401.426 z" id="boundary" inkscape:connector-curvature="0" />
	<path style="fill:none;stroke:red;stroke-width:1px;stroke-linecap:butt;stroke-linejoin:miter;stroke-opacity:1" d="M 703.928,462.97 714.36,462.97 z" id="boundary" inkscape:connector-curvature="0" />
	<path style="fill:none;stroke:red;stroke-width:1px;stroke-linecap:butt;stroke-linejoin:miter;stroke-opacity:1" d="M 706.015,269.994 716.446,269.994 z" id="boundary" inkscape:connector-curvature="0" />
	<path style="fill:none;stroke:red;stroke-width:1px;stroke-linecap:butt;stroke-linejoin:miter;stroke-opacity:1" d="M 707.058,563.108 716.446,557.893 z" id="boundary" inkscape:connector-curvature="0" />
	<path style="fill:none;stroke:red;stroke-width:1px;stroke-linecap:butt;stroke-linejoin:miter;stroke-opacity:1" d="M 714.36,401.426 733.136,390.995 z" id="boundary" inkscape:connector-curvature="0" />
	<path style="fill:none;stroke:red;stroke-width:1px;stroke-linecap:butt;stroke-linejoin:miter;stroke-opacity:1" d="M 714.36,462.97 724.791,462.97 z" id="boundary" inkscape:connector-curvature="0" />
	<path style="fill:none;stroke:red;stroke-width:1px;stroke-linecap:butt;stroke-linejoin:miter;stroke-opacity:1" d="M 716.446,269.994 726.877,269.994 z" id="boundary" inkscape:connector-curvature="0" />
	<path style="fill:none;stroke:red;stroke-width:1px;stroke-linecap:butt;stroke-linejoin:miter;stroke-opacity:1" d="M 716.446,557.893 726.877,556.85 z" id="boundary" inkscape:connector-curvature="0" />
	<path style="fill:none;stroke:red;stroke-width:1px;stroke-linecap:butt;stroke-linejoin:miter;stroke-opacity:1" d="M 724.791,462.97 735.222,466.099 z" id="boundary" inkscape:connector-curvature="0" />
	<path style="fill:none;stroke:red;stroke-width:1px;stroke-linecap:butt;stroke-linejoin:miter;stroke-opacity:1" d="M 726.877,269.994 737.308,269.994 z" id="boundary" inkscape:connector-curvature="0" />
	<path style="fill:none;stroke:red;stroke-width:1px;stroke-linecap:butt;stroke-linejoin:miter;stroke-opacity:1" d="M 726.877,556.85 737.308,551.634 z" id="boundary" inkscape:connector-curvature="0" />
	<path style="fill:none;stroke:red;stroke-width:1px;stroke-linecap:butt;stroke-linejoin:miter;stroke-opacity:1" d="M 733.136,390.995 752.955,384.736 z" id="boundary" inkscape:connector-curvature="0" />
	<path style="fill:none;stroke:red;stroke-width:1px;stroke-linecap:butt;stroke-linejoin:miter;stroke-opacity:1" d="M 735.222,466.099 745.653,484.875 z" id="boundary" inkscape:connector-curvature="0" />
	<path style="fill:none;stroke:red;stroke-width:1px;stroke-linecap:butt;stroke-linejoin:miter;stroke-opacity:1" d="M 737.308,269.994 757.127,264.778 z" id="boundary" inkscape:connector-curvature="0" />
	<path style="fill:none;stroke:red;stroke-width:1px;stroke-linecap:butt;stroke-linejoin:miter;stroke-opacity:1" d="M 737.308,551.634 747.739,546.419 z" id="boundary" inkscape:connector-curvature="0" />
	<path style="fill:none;stroke:red;stroke-width:1px;stroke-linecap:butt;stroke-linejoin:miter;stroke-opacity:1" d="M 745.653,484.875 745.653,495.306 z" id="boundary" inkscape:connector-curvature="0" />
	<path style="fill:none;stroke:red;stroke-width:1px;stroke-linecap:butt;stroke-linejoin:miter;stroke-opacity:1" d="M 745.653,495.306 745.653,505.737 z" id="boundary" inkscape:connector-curvature="0" />
	<path style="fill:none;stroke:red;stroke-width:1px;stroke-linecap:butt;stroke-linejoin:miter;stroke-opacity:1" d="M 745.653,505.737 745.653,516.168 z" id="boundary" inkscape:connector-curvature="0" />
	<path style="fill:none;stroke:red;stroke-width:1px;stroke-linecap:butt;stroke-linejoin:miter;stroke-opacity:1" d="M 745.653,516.168 753.998,522.427 z" id="boundary" inkscape:connector-curvature="0" />
	<path style="fill:none;stroke:red;stroke-width:1px;stroke-linecap:butt;stroke-linejoin:miter;stroke-opacity:1" d="M 747.739,546.419 758.17,541.203 z" id="boundary" inkscape:connector-curvature="0" />
	<path style="fill:none;stroke:red;stroke-width:1px;stroke-linecap:butt;stroke-linejoin:miter;stroke-opacity:1" d="M 752.955,384.736 763.386,379.521 z" id="boundary" inkscape:connector-curvature="0" />
	<path style="fill:none;stroke:red;stroke-width:1px;stroke-linecap:butt;stroke-linejoin:miter;stroke-opacity:1" d="M 753.998,522.427 758.17,541.203 z" id="boundary" inkscape:connector-curvature="0" />
	<path style="fill:none;stroke:red;stroke-width:1px;stroke-linecap:butt;stroke-linejoin:miter;stroke-opacity:1" d="M 757.127,264.778 767.558,264.778 z" id="boundary" inkscape:connector-curvature="0" />
	<path style="fill:none;stroke:red;stroke-width:1px;stroke-linecap:butt;stroke-linejoin:miter;stroke-opacity:1" d="M 763.386,379.521 773.817,374.305 z" id="boundary" inkscape:connector-curvature="0" />
	<path style="fill:none;stroke:red;stroke-width:1px;stroke-linecap:butt;stroke-linejoin:miter;stroke-opacity:1" d="M 767.558,264.778 777.989,264.778 z" id="boundary" inkscape:connector-curvature="0" />
	<path style="fill:none;stroke:red;stroke-width:1px;stroke-linecap:butt;stroke-linejoin:miter;stroke-opacity:1" d="M 773.817,374.305 784.248,369.089 z" id="boundary" inkscape:connector-curvature="0" />
	<path style="fill:none;stroke:red;stroke-width:1px;stroke-linecap:butt;stroke-linejoin:miter;stroke-opacity:1" d="M 777.989,264.778 788.421,264.778 z" id="boundary" inkscape:connector-curvature="0" />
	<path style="fill:none;stroke:red;stroke-width:1px;stroke-linecap:butt;stroke-linejoin:miter;stroke-opacity:1" d="M 784.248,369.089 794.679,364.917 z" id="boundary" inkscape:connector-curvature="0" />
	<path style="fill:none;stroke:red;stroke-width:1px;stroke-linecap:butt;stroke-linejoin:miter;stroke-opacity:1" d="M 788.421,264.778 798.852,264.778 z" id="boundary" inkscape:connector-curvature="0" />
	<path style="fill:none;stroke:red;stroke-width:1px;stroke-linecap:butt;stroke-linejoin:miter;stroke-opacity:1" d="M 794.679,364.917 813.455,354.486 z" id="boundary" inkscape:connector-curvature="0" />
	<path style="fill:none;stroke:red;stroke-width:1px;stroke-linecap:butt;stroke-linejoin:miter;stroke-opacity:1" d="M 798.852,264.778 809.283,264.778 z" id="boundary" inkscape:connector-curvature="0" />
	<path style="fill:none;stroke:red;stroke-width:1px;stroke-linecap:butt;stroke-linejoin:miter;stroke-opacity:1" d="M 809.283,264.778 819.714,264.778 z" id="boundary" inkscape:connector-curvature="0" />
	<path style="fill:none;stroke:red;stroke-width:1px;stroke-linecap:butt;stroke-linejoin:miter;stroke-opacity:1" d="M 813.455,354.486 823.886,354.486 z" id="boundary" inkscape:connector-curvature="0" />
	<path style="fill:none;stroke:red;stroke-width:1px;stroke-linecap:butt;stroke-linejoin:miter;stroke-opacity:1" d="M 819.714,264.778 830.145,264.778 z" id="boundary" inkscape:connector-curvature="0" />
	<path style="fill:none;stroke:red;stroke-width:1px;stroke-linecap:butt;stroke-linejoin:miter;stroke-opacity:1" d="M 823.886,354.486 843.706,349.27 z" id="boundary" inkscape:connector-curvature="0" />
	<path style="fill:none;stroke:red;stroke-width:1px;stroke-linecap:butt;stroke-linejoin:miter;stroke-opacity:1" d="M 830.145,264.778 840.576,264.778 z" id="boundary" inkscape:connector-curvature="0" />
	<path style="fill:none;stroke:red;stroke-width:1px;stroke-linecap:butt;stroke-linejoin:miter;stroke-opacity:1" d="M 840.576,264.778 851.007,264.778 z" id="boundary" inkscape:connector-curvature="0" />
	<path style="fill:none;stroke:red;stroke-width:1px;stroke-linecap:butt;stroke-linejoin:miter;stroke-opacity:1" d="M 843.706,349.27 862.482,338.839 z" id="boundary" inkscape:connector-curvature="0" />
	<path style="fill:none;stroke:red;stroke-width:1px;stroke-linecap:butt;stroke-linejoin:miter;stroke-opacity:1" d="M 851.007,264.778 861.438,264.778 z" id="boundary" inkscape:connector-curvature="0" />
	<path style="fill:none;stroke:red;stroke-width:1px;stroke-linecap:butt;stroke-linejoin:miter;stroke-opacity:1" d="M 861.438,264.778 871.87,264.778 z" id="boundary" inkscape:connector-curvature="0" />
	<path style="fill:none;stroke:red;stroke-width:1px;stroke-linecap:butt;stroke-linejoin:miter;stroke-opacity:1" d="M 862.482,338.839 871.87,333.624 z" id="boundary" inkscape:connector-curvature="0" />
	<path style="fill:none;stroke:red;stroke-width:1px;stroke-linecap:butt;stroke-linejoin:miter;stroke-opacity:1" d="M 871.87,264.778 882.301,264.778 z" id="boundary" inkscape:connector-curvature="0" />
	<path style="fill:none;stroke:red;stroke-width:1px;stroke-linecap:butt;stroke-linejoin:miter;stroke-opacity:1" d="M 871.87,333.624 891.689,323.192 z" id="boundary" inkscape:connector-curvature="0" />
	<path style="fill:none;stroke:red;stroke-width:1px;stroke-linecap:butt;stroke-linejoin:miter;stroke-opacity:1" d="M 882.301,264.778 892.732,264.778 z" id="boundary" inkscape:connector-curvature="0" />
	<path style="fill:none;stroke:red;stroke-width:1px;stroke-linecap:butt;stroke-linejoin:miter;stroke-opacity:1" d="M 891.689,323.192 901.077,317.977 z" id="boundary" inkscape:connector-curvature="0" />
	<path style="fill:none;stroke:red;stroke-width:1px;stroke-linecap:butt;stroke-linejoin:miter;stroke-opacity:1" d="M 892.732,264.778 903.163,264.778 z" id="boundary" inkscape:connector-curvature="0" />
	<path style="fill:none;stroke:red;stroke-width:1px;stroke-linecap:butt;stroke-linejoin:miter;stroke-opacity:1" d="M 901.077,317.977 911.508,314.848 z" id="boundary" inkscape:connector-curvature="0" />
	<path style="fill:none;stroke:red;stroke-width:1px;stroke-linecap:butt;stroke-linejoin:miter;stroke-opacity:1" d="M 903.163,264.778 913.594,264.778 z" id="boundary" inkscape:connector-curvature="0" />
	<path style="fill:none;stroke:red;stroke-width:1px;stroke-linecap:butt;stroke-linejoin:miter;stroke-opacity:1" d="M 911.508,314.848 921.939,309.632 z" id="boundary" inkscape:connector-curvature="0" />
	<path style="fill:none;stroke:red;stroke-width:1px;stroke-linecap:butt;stroke-linejoin:miter;stroke-opacity:1" d="M 913.594,264.778 924.025,260.606 z" id="boundary" inkscape:connector-curvature="0" />
	<path style="fill:none;stroke:red;stroke-width:1px;stroke-linecap:butt;stroke-linejoin:miter;stroke-opacity:1" d="M 921.939,309.632 939.672,297.115 z" id="boundary" inkscape:connector-curvature="0" />
	<path style="fill:none;stroke:red;stroke-width:1px;stroke-linecap:butt;stroke-linejoin:miter;stroke-opacity:1" d="M 924.025,260.606 934.456,255.39 z" id="boundary" inkscape:connector-curvature="0" />
	<path style="fill:none;stroke:red;stroke-width:1px;stroke-linecap:butt;stroke-linejoin:miter;stroke-opacity:1" d="M 934.456,255.39 944.887,254.347 z" id="boundary" inkscape:connector-curvature="0" />
	<path style="fill:none;stroke:red;stroke-width:1px;stroke-linecap:butt;stroke-linejoin:miter;stroke-opacity:1" d="M 939.672,297.115 959.491,286.683 z" id="boundary" inkscape:connector-curvature="0" />
	<path style="fill:none;stroke:red;stroke-width:1px;stroke-linecap:butt;stroke-linejoin:miter;stroke-opacity:1" d="M 944.887,254.347 964.707,246.002 z" id="boundary" inkscape:connector-curvature="0" />
	<path style="fill:none;stroke:red;stroke-width:1px;stroke-linecap:butt;stroke-linejoin:miter;stroke-opacity:1" d="M 959.491,286.683 969.922,281.468 z" id="boundary" inkscape:connector-curvature="0" />
	<path style="fill:none;stroke:red;stroke-width:1px;stroke-linecap:butt;stroke-linejoin:miter;stroke-opacity:1" d="M 964.707,246.002 975.138,243.916 z" id="boundary" inkscape:connector-curvature="0" />
	<path style="fill:none;stroke:red;stroke-width:1px;stroke-linecap:butt;stroke-linejoin:miter;stroke-opacity:1" d="M 969.922,281.468 979.31,276.252 z" id="boundary" inkscape:connector-curvature="0" />
	<path style="fill:none;stroke:red;stroke-width:1px;stroke-linecap:butt;stroke-linejoin:miter;stroke-opacity:1" d="M 975.138,243.916 985.569,243.916 z" id="boundary" inkscape:connector-curvature="0" />
	<path style="fill:none;stroke:red;stroke-width:1px;stroke-linecap:butt;stroke-linejoin:miter;stroke-opacity:1" d="M 979.31,276.252 996,260.606 z" id="boundary" inkscape:connector-curvature="0" />
	<path style="fill:none;stroke:red;stroke-width:1px;stroke-linecap:butt;stroke-linejoin:miter;stroke-opacity:1" d="M 985.569,243.916 996,260.606 z" id="boundary" inkscape:connector-curvature="0" />
	<circle cx="4" cy="659.075" r="4" fill="#0" id="circle0"/>
	<circle cx="4" cy="669.506" r="4" fill="#0" id="circle1"/>
	<circle cx="9.21556" cy="648.644" r="4" fill="#0" id="circle2"/>
	<circle cx="14.4311" cy="672.635" r="4" fill="#0" id="circle3"/>
	<circle cx="19.6467" cy="455.668" r="4" fill="#0" id="circle4"/>
	<circle cx="19.6467" cy="466.099" r="4" fill="#0" id="circle5"/>
	<circle cx="19.6467" cy="476.53" r="4" fill="#0" id="circle6"/>
	<circle cx="19.6467" cy="486.961" r="4" fill="#0" id="circle7"/>
	<circle cx="19.6467" cy="497.392" r="4" fill="#0" id="circle8"/>
	<circle cx="19.6467" cy="507.823" r="4" fill="#0" id="circle9"/>
	<circle cx="19.6467" cy="518.254" r="4" fill="#0" id="circle10"/>
	<circle cx="19.6467" cy="528.686" r="4" fill="#0" id="circle11"/>
	<circle cx="19.6467" cy="539.117" r="4" fill="#0" id="circle12"/>
	<circle cx="19.6467" cy="549.548" r="4" fill="#0" id="circle13"/>
	<circle cx="19.6467" cy="643.428" r="4" fill="#0" id="circle14"/>
	<circle cx="20.6898" cy="680.98" r="4" fill="#0" id="circle15"/>
	<circle cx="24.8623" cy="429.59" r="4" fill="#0" id="circle16"/>
	<circle cx="24.8623" cy="440.021" r="4" fill="#0" id="circle17"/>
	<circle cx="24.8623" cy="558.936" r="4" fill="#0" id="circle18"/>
	<circle cx="29.0347" cy="688.282" r="4" fill="#0" id="circle19"/>
	<circle cx="30.0778" cy="413.943" r="4" fill="#0" id="circle20"/>
	<circle cx="30.0778" cy="568.324" r="4" fill="#0" id="circle21"/>
	<circle cx="30.0778" cy="640.299" r="4" fill="#0" id="circle22"/>
	<circle cx="35.2934" cy="398.297" r="4" fill="#0" id="circle23"/>
	<circle cx="38.4227" cy="693.497" r="4" fill="#0" id="circle24"/>
	<circle cx="39.4658" cy="573.539" r="4" fill="#0" id="circle25"/>
	<circle cx="39.4658" cy="645.514" r="4" fill="#0" id="circle26"/>
	<circle cx="40.5089" cy="387.865" r="4" fill="#0" id="circle27"/>
	<circle cx="45.7245" cy="367.003" r="4" fill="#0" id="circle28"/>
	<circle cx="45.7245" cy="377.434" r="4" fill="#0" id="circle29"/>
	<circle cx="46.7676" cy="653.859" r="4" fill="#0" id="circle30"/>
	<circle cx="48.8538" cy="578.755" r="4" fill="#0" id="circle31"/>
	<circle cx="48.8538" cy="693.497" r="4" fill="#0" id="circle32"/>
	<circle cx="50.9401" cy="351.356" r="4" fill="#0" id="circle33"/>
	<circle cx="51.9832" cy="663.247" r="4" fill="#0" id="circle34"/>
	<circle cx="56.1556" cy="340.925" r="4" fill="#0" id="circle35"/>
	<circle cx="58.2419" cy="583.971" r="4" fill="#0" id="circle36"/>
	<circle cx="58.2419" cy="671.592" r="4" fill="#0" id="circle37"/>
	<circle cx="59.285" cy="693.497" r="4" fill="#0" id="circle38"/>
	<circle cx="61.3712" cy="330.494" r="4" fill="#0" id="circle39"/>
	<circle cx="66.5868" cy="320.063" r="4" fill="#0" id="circle40"/>
	<circle cx="68.673" cy="583.971" r="4" fill="#0" id="circle41"/>
	<circle cx="68.673" cy="671.592" r="4" fill="#0" id="circle42"/>
	<circle cx="69.7161" cy="693.497" r="4" fill="#0" id="circle43"/>
	<circle cx="71.8023" cy="309.632" r="4" fill="#0" id="circle44"/>
	<circle cx="77.0179" cy="293.985" r="4" fill="#0" id="circle45"/>
	<circle cx="79.1041" cy="583.971" r="4" fill="#0" id="circle46"/>
	<circle cx="79.1041" cy="671.592" r="4" fill="#0" id="circle47"/>
	<circle cx="80.1472" cy="693.497" r="4" fill="#0" id="circle48"/>
	<circle cx="82.2334" cy="283.554" r="4" fill="#0" id="circle49"/>
	<circle cx="88.4921" cy="589.186" r="4" fill="#0" id="circle50"/>
	<circle cx="89.5352" cy="671.592" r="4" fill="#0" id="circle51"/>
	<circle cx="90.5783" cy="275.209" r="4" fill="#0" id="circle52"/>
	<circle cx="90.5783" cy="693.497" r="4" fill="#0" id="circle53"/>
	<circle cx="95.7939" cy="264.778" r="4" fill="#0" id="circle54"/>
	<circle cx="97.8801" cy="594.402" r="4" fill="#0" id="circle55"/>
	<circle cx="99.9664" cy="671.592" r="4" fill="#0" id="circle56"/>
	<circle cx="101.009" cy="693.497" r="4" fill="#0" id="circle57"/>
	<circle cx="104.139" cy="256.433" r="4" fill="#0" id="circle58"/>
	<circle cx="108.311" cy="594.402" r="4" fill="#0" id="circle59"/>
	<circle cx="109.354" cy="666.376" r="4" fill="#0" id="circle60"/>
	<circle cx="111.441" cy="693.497" r="4" fill="#0" id="circle61"/>
	<circle cx="112.484" cy="249.131" r="4" fill="#0" id="circle62"/>
	<circle cx="118.742" cy="594.402" r="4" fill="#0" id="circle63"/>
	<circle cx="119.785" cy="240.787" r="4" fill="#0" id="circle64"/>
	<circle cx="119.785" cy="666.376" r="4" fill="#0" id="circle65"/>
	<circle cx="121.872" cy="693.497" r="4" fill="#0" id="circle66"/>
	<circle cx="128.13" cy="233.485" r="4" fill="#0" id="circle67"/>
	<circle cx="129.174" cy="594.402" r="4" fill="#0" id="circle68"/>
	<circle cx="130.217" cy="663.247" r="4" fill="#0" id="circle69"/>
	<circle cx="132.303" cy="693.497" r="4" fill="#0" id="circle70"/>
	<circle cx="134.389" cy="220.967" r="4" fill="#0" id="circle71"/>
	<circle cx="139.605" cy="594.402" r="4" fill="#0" id="circle72"/>
	<circle cx="140.648" cy="661.161" r="4" fill="#0" id="circle73"/>
	<circle cx="141.691" cy="688.282" r="4" fill="#0" id="circle74"/>
	<circle cx="144.82" cy="215.752" r="4" fill="#0" id="circle75"/>
	<circle cx="150.036" cy="594.402" r="4" fill="#0" id="circle76"/>
	<circle cx="151.079" cy="658.032" r="4" fill="#0" id="circle77"/>
	<circle cx="152.122" cy="688.282" r="4" fill="#0" id="circle78"/>
	<circle cx="155.251" cy="210.536" r="4" fill="#0" id="circle79"/>
	<circle cx="160.467" cy="594.402" r="4" fill="#0" id="circle80"/>
	<circle cx="161.51" cy="652.816" r="4" fill="#0" id="circle81"/>
	<circle cx="161.51" cy="683.066" r="4" fill="#0" id="circle82"/>
	<circle cx="165.682" cy="207.407" r="4" fill="#0" id="circle83"/>
	<circle cx="170.898" cy="594.402" r="4" fill="#0" id="circle84"/>
	<circle cx="171.941" cy="650.73" r="4" fill="#0" id="circle85"/>
	<circle cx="171.941" cy="683.066" r="4" fill="#0" id="circle86"/>
	<circle cx="175.07" cy="202.191" r="4" fill="#0" id="circle87"/>
	<circle cx="181.329" cy="594.402" r="4" fill="#0" id="circle88"/>
	<circle cx="182.372" cy="647.6" r="4" fill="#0" id="circle89"/>
	<circle cx="182.372" cy="677.851" r="4" fill="#0" id="circle90"/>
	<circle cx="184.458" cy="196.976" r="4" fill="#0" id="circle91"/>
	<circle cx="186.545" cy="603.79" r="4" fill="#0" id="circle92"/>
	<circle cx="186.545" cy="614.221" r="4" fill="#0" id="circle93"/>
	<circle cx="186.545" cy="624.652" r="4" fill="#0" id="circle94"/>
	<circle cx="186.545" cy="635.083" r="4" fill="#0" id="circle95"/>
	<circle cx="192.803" cy="677.851" r="4" fill="#0" id="circle96"/>
	<circle cx="194.89" cy="196.976" r="4" fill="#0" id="circle97"/>
	<circle cx="203.234" cy="677.851" r="4" fill="#0" id="circle98"/>
	<circle cx="205.321" cy="196.976" r="4" fill="#0" id="circle99"/>
	<circle cx="213.666" cy="677.851" r="4" fill="#0" id="circle100"/>
	<circle cx="215.752" cy="191.76" r="4" fill="#0" id="circle101"/>
	<circle cx="224.097" cy="677.851" r="4" fill="#0" id="circle102"/>
	<circle cx="226.183" cy="191.76" r="4" fill="#0" id="circle103"/>
	<circle cx="233.485" cy="672.635" r="4" fill="#0" id="circle104"/>
	<circle cx="236.614" cy="191.76" r="4" fill="#0" id="circle105"/>
	<circle cx="243.916" cy="672.635" r="4" fill="#0" id="circle106"/>
	<circle cx="247.045" cy="186.545" r="4" fill="#0" id="circle107"/>
	<circle cx="254.347" cy="669.506" r="4" fill="#0" id="circle108"/>
	<circle cx="257.476" cy="186.545" r="4" fill="#0" id="circle109"/>
	<circle cx="264.778" cy="667.42" r="4" fill="#0" id="circle110"/>
	<circle cx="267.907" cy="181.329" r="4" fill="#0" id="circle111"/>
	<circle cx="275.209" cy="667.42" r="4" fill="#0" id="circle112"/>
	<circle cx="278.339" cy="181.329" r="4" fill="#0" id="circle113"/>
	<circle cx="284.597" cy="662.204" r="4" fill="#0" id="circle114"/>
	<circle cx="288.77" cy="176.114" r="4" fill="#0" id="circle115"/>
	<circle cx="295.028" cy="662.204" r="4" fill="#0" id="circle116"/>
	<circle cx="296.072" cy="43.6383" r="4" fill="#0" id="circle117"/>
	<circle cx="299.201" cy="176.114" r="4" fill="#0" id="circle118"/>
	<circle cx="301.287" cy="33.2072" r="4" fill="#0" id="circle119"/>
	<circle cx="301.287" cy="53.0263" r="4" fill="#0" id="circle120"/>
	<circle cx="305.46" cy="662.204" r="4" fill="#0" id="circle121"/>
	<circle cx="309.632" cy="170.898" r="4" fill="#0" id="circle122"/>
	<circle cx="311.718" cy="27.9916" r="4" fill="#0" id="circle123"/>
	<circle cx="311.718" cy="57.1987" r="4" fill="#0" id="circle124"/>
	<circle cx="315.891" cy="662.204" r="4" fill="#0" id="circle125"/>
	<circle cx="320.063" cy="170.898" r="4" fill="#0" id="circle126"/>
	<circle cx="321.106" cy="62.4143" r="4" fill="#0" id="circle127"/>
	<circle cx="322.149" cy="24.8623" r="4" fill="#0" id="circle128"/>
	<circle cx="326.322" cy="662.204" r="4" fill="#0" id="circle129"/>
	<circle cx="330.494" cy="67.6299" r="4" fill="#0" id="circle130"/>
	<circle cx="330.494" cy="165.682" r="4" fill="#0" id="circle131"/>
	<circle cx="331.537" cy="19.6467" r="4" fill="#0" id="circle132"/>
	<circle cx="336.753" cy="662.204" r="4" fill="#0" id="circle133"/>
	<circle cx="340.925" cy="67.6299" r="4" fill="#0" id="circle134"/>
	<circle cx="340.925" cy="165.682" r="4" fill="#0" id="circle135"/>
	<circle cx="341.968" cy="19.6467" r="4" fill="#0" id="circle136"/>
	<circle cx="347.184" cy="662.204" r="4" fill="#0" id="circle137"/>
	<circle cx="350.313" cy="72.8454" r="4" fill="#0" id="circle138"/>
	<circle cx="351.356" cy="14.4311" r="4" fill="#0" id="circle139"/>
	<circle cx="351.356" cy="165.682" r="4" fill="#0" id="circle140"/>
	<circle cx="357.615" cy="662.204" r="4" fill="#0" id="circle141"/>
	<circle cx="358.658" cy="101.009" r="4" fill="#0" id="circle142"/>
	<circle cx="359.701" cy="78.061" r="4" fill="#0" id="circle143"/>
	<circle cx="361.788" cy="14.4311" r="4" fill="#0" id="circle144"/>
	<circle cx="361.788" cy="165.682" r="4" fill="#0" id="circle145"/>
	<circle cx="363.874" cy="90.5783" r="4" fill="#0" id="circle146"/>
	<circle cx="367.003" cy="108.311" r="4" fill="#0" id="circle147"/>
	<circle cx="368.046" cy="662.204" r="4" fill="#0" id="circle148"/>
	<circle cx="370.132" cy="78.061" r="4" fill="#0" id="circle149"/>
	<circle cx="371.176" cy="160.467" r="4" fill="#0" id="circle150"/>
	<circle cx="372.219" cy="14.4311" r="4" fill="#0" id="circle151"/>
	<circle cx="375.348" cy="114.57" r="4" fill="#0" id="circle152"/>
	<circle cx="378.477" cy="662.204" r="4" fill="#0" id="circle153"/>
	<circle cx="380.564" cy="155.251" r="4" fill="#0" id="circle154"/>
	<circle cx="381.607" cy="9.21556" r="4" fill="#0" id="circle155"/>
	<circle cx="385.779" cy="114.57" r="4" fill="#0" id="circle156"/>
	<circle cx="387.865" cy="656.988" r="4" fill="#0" id="circle157"/>
	<circle cx="389.952" cy="125.001" r="4" fill="#0" id="circle158"/>
	<circle cx="389.952" cy="135.432" r="4" fill="#0" id="circle159"/>
	<circle cx="389.952" cy="145.863" r="4" fill="#0" id="circle160"/>
	<circle cx="392.038" cy="9.21556" r="4" fill="#0" id="circle161"/>
	<circle cx="398.297" cy="656.988" r="4" fill="#0" id="circle162"/>
	<circle cx="402.469" cy="5.04311" r="4" fill="#0" id="circle163"/>
	<circle cx="408.728" cy="655.945" r="4" fill="#0" id="circle164"/>
	<circle cx="412.9" cy="4" r="4" fill="#0" id="circle165"/>
	<circle cx="419.159" cy="651.773" r="4" fill="#0" id="circle166"/>
	<circle cx="423.331" cy="4" r="4" fill="#0" id="circle167"/>
	<circle cx="427.504" cy="98.9232" r="4" fill="#0" id="circle168"/>
	<circle cx="427.504" cy="109.354" r="4" fill="#0" id="circle169"/>
	<circle cx="428.547" cy="646.557" r="4" fill="#0" id="circle170"/>
	<circle cx="429.59" cy="119.785" r="4" fill="#0" id="circle171"/>
	<circle cx="432.719" cy="57.1987" r="4" fill="#0" id="circle172"/>
	<circle cx="432.719" cy="67.6299" r="4" fill="#0" id="circle173"/>
	<circle cx="432.719" cy="78.061" r="4" fill="#0" id="circle174"/>
	<circle cx="432.719" cy="88.4921" r="4" fill="#0" id="circle175"/>
	<circle cx="432.719" cy="130.217" r="4" fill="#0" id="circle176"/>
	<circle cx="433.762" cy="4" r="4" fill="#0" id="circle177"/>
	<circle cx="436.892" cy="638.212" r="4" fill="#0" id="circle178"/>
	<circle cx="437.935" cy="599.617" r="4" fill="#0" id="circle179"/>
	<circle cx="437.935" cy="610.048" r="4" fill="#0" id="circle180"/>
	<circle cx="437.935" cy="620.479" r="4" fill="#0" id="circle181"/>
	<circle cx="443.15" cy="57.1987" r="4" fill="#0" id="circle182"/>
	<circle cx="443.15" cy="134.389" r="4" fill="#0" id="circle183"/>
	<circle cx="444.193" cy="4" r="4" fill="#0" id="circle184"/>
	<circle cx="447.323" cy="594.402" r="4" fill="#0" id="circle185"/>
	<circle cx="453.581" cy="57.1987" r="4" fill="#0" id="circle186"/>
	<circle cx="453.581" cy="134.389" r="4" fill="#0" id="circle187"/>
	<circle cx="454.625" cy="4" r="4" fill="#0" id="circle188"/>
	<circle cx="457.754" cy="591.272" r="4" fill="#0" id="circle189"/>
	<circle cx="464.013" cy="51.9832" r="4" fill="#0" id="circle190"/>
	<circle cx="464.013" cy="134.389" r="4" fill="#0" id="circle191"/>
	<circle cx="465.056" cy="4" r="4" fill="#0" id="circle192"/>
	<circle cx="468.185" cy="589.186" r="4" fill="#0" id="circle193"/>
	<circle cx="474.444" cy="9.21556" r="4" fill="#0" id="circle194"/>
	<circle cx="474.444" cy="46.7676" r="4" fill="#0" id="circle195"/>
	<circle cx="474.444" cy="134.389" r="4" fill="#0" id="circle196"/>
	<circle cx="478.616" cy="589.186" r="4" fill="#0" id="circle197"/>
	<circle cx="479.659" cy="36.3365" r="4" fill="#0" id="circle198"/>
	<circle cx="482.789" cy="15.4742" r="4" fill="#0" id="circle199"/>
	<circle cx="484.875" cy="25.9054" r="4" fill="#0" id="circle200"/>
	<circle cx="484.875" cy="137.518" r="4" fill="#0" id="circle201"/>
	<circle cx="489.047" cy="586.057" r="4" fill="#0" id="circle202"/>
	<circle cx="495.306" cy="139.605" r="4" fill="#0" id="circle203"/>
	<circle cx="499.478" cy="583.971" r="4" fill="#0" id="circle204"/>
	<circle cx="505.737" cy="139.605" r="4" fill="#0" id="circle205"/>
	<circle cx="509.91" cy="583.971" r="4" fill="#0" id="circle206"/>
	<circle cx="516.168" cy="139.605" r="4" fill="#0" id="circle207"/>
	<circle cx="520.341" cy="580.841" r="4" fill="#0" id="circle208"/>
	<circle cx="526.599" cy="139.605" r="4" fill="#0" id="circle209"/>
	<circle cx="530.772" cy="578.755" r="4" fill="#0" id="circle210"/>
	<circle cx="537.03" cy="139.605" r="4" fill="#0" id="circle211"/>
	<circle cx="541.203" cy="578.755" r="4" fill="#0" id="circle212"/>
	<circle cx="547.462" cy="139.605" r="4" fill="#0" id="circle213"/>
	<circle cx="551.634" cy="578.755" r="4" fill="#0" id="circle214"/>
	<circle cx="557.893" cy="139.605" r="4" fill="#0" id="circle215"/>
	<circle cx="562.065" cy="575.626" r="4" fill="#0" id="circle216"/>
	<circle cx="568.324" cy="139.605" r="4" fill="#0" id="circle217"/>
	<circle cx="572.496" cy="573.539" r="4" fill="#0" id="circle218"/>
	<circle cx="578.755" cy="139.605" r="4" fill="#0" id="circle219"/>
	<circle cx="582.927" cy="573.539" r="4" fill="#0" id="circle220"/>
	<circle cx="589.186" cy="139.605" r="4" fill="#0" id="circle221"/>
	<circle cx="592.315" cy="568.324" r="4" fill="#0" id="circle222"/>
	<circle cx="598.574" cy="144.82" r="4" fill="#0" id="circle223"/>
	<circle cx="602.747" cy="568.324" r="4" fill="#0" id="circle224"/>
	<circle cx="604.833" cy="153.165" r="4" fill="#0" id="circle225"/>
	<circle cx="610.048" cy="162.553" r="4" fill="#0" id="circle226"/>
	<circle cx="613.178" cy="568.324" r="4" fill="#0" id="circle227"/>
	<circle cx="615.264" cy="255.39" r="4" fill="#0" id="circle228"/>
	<circle cx="615.264" cy="265.821" r="4" fill="#0" id="circle229"/>
	<circle cx="616.307" cy="170.898" r="4" fill="#0" id="circle230"/>
	<circle cx="623.609" cy="272.08" r="4" fill="#0" id="circle231"/>
	<circle cx="623.609" cy="566.238" r="4" fill="#0" id="circle232"/>
	<circle cx="625.695" cy="250.175" r="4" fill="#0" id="circle233"/>
	<circle cx="626.738" cy="170.898" r="4" fill="#0" id="circle234"/>
	<circle cx="634.04" cy="275.209" r="4" fill="#0" id="circle235"/>
	<circle cx="634.04" cy="563.108" r="4" fill="#0" id="circle236"/>
	<circle cx="636.126" cy="250.175" r="4" fill="#0" id="circle237"/>
	<circle cx="637.169" cy="170.898" r="4" fill="#0" id="circle238"/>
	<circle cx="644.471" cy="275.209" r="4" fill="#0" id="circle239"/>
	<circle cx="644.471" cy="563.108" r="4" fill="#0" id="circle240"/>
	<circle cx="645.514" cy="244.959" r="4" fill="#0" id="circle241"/>
	<circle cx="647.6" cy="170.898" r="4" fill="#0" id="circle242"/>
	<circle cx="654.902" cy="275.209" r="4" fill="#0" id="circle243"/>
	<circle cx="654.902" cy="563.108" r="4" fill="#0" id="circle244"/>
	<circle cx="655.945" cy="241.83" r="4" fill="#0" id="circle245"/>
	<circle cx="658.032" cy="170.898" r="4" fill="#0" id="circle246"/>
	<circle cx="665.333" cy="275.209" r="4" fill="#0" id="circle247"/>
	<circle cx="665.333" cy="563.108" r="4" fill="#0" id="circle248"/>
	<circle cx="666.376" cy="236.614" r="4" fill="#0" id="circle249"/>
	<circle cx="668.463" cy="170.898" r="4" fill="#0" id="circle250"/>
	<circle cx="671.592" cy="226.183" r="4" fill="#0" id="circle251"/>
	<circle cx="672.635" cy="213.666" r="4" fill="#0" id="circle252"/>
	<circle cx="675.764" cy="275.209" r="4" fill="#0" id="circle253"/>
	<circle cx="675.764" cy="563.108" r="4" fill="#0" id="circle254"/>
	<circle cx="676.808" cy="178.2" r="4" fill="#0" id="circle255"/>
	<circle cx="677.851" cy="203.234" r="4" fill="#0" id="circle256"/>
	<circle cx="683.066" cy="186.545" r="4" fill="#0" id="circle257"/>
	<circle cx="685.152" cy="269.994" r="4" fill="#0" id="circle258"/>
	<circle cx="686.196" cy="563.108" r="4" fill="#0" id="circle259"/>
	<circle cx="693.497" cy="406.641" r="4" fill="#0" id="circle260"/>
	<circle cx="693.497" cy="417.073" r="4" fill="#0" id="circle261"/>
	<circle cx="693.497" cy="427.504" r="4" fill="#0" id="circle262"/>
	<circle cx="693.497" cy="437.935" r="4" fill="#0" id="circle263"/>
	<circle cx="693.497" cy="448.366" r="4" fill="#0" id="circle264"/>
	<circle cx="693.497" cy="458.797" r="4" fill="#0" id="circle265"/>
	<circle cx="695.584" cy="269.994" r="4" fill="#0" id="circle266"/>
	<circle cx="696.627" cy="563.108" r="4" fill="#0" id="circle267"/>
	<circle cx="703.928" cy="401.426" r="4" fill="#0" id="circle268"/>
	<circle cx="703.928" cy="462.97" r="4" fill="#0" id="circle269"/>
	<circle cx="706.015" cy="269.994" r="4" fill="#0" id="circle270"/>
	<circle cx="707.058" cy="563.108" r="4" fill="#0" id="circle271"/>
	<circle cx="714.36" cy="401.426" r="4" fill="#0" id="circle272"/>
	<circle cx="714.36" cy="462.97" r="4" fill="#0" id="circle273"/>
	<circle cx="716.446" cy="269.994" r="4" fill="#0" id="circle274"/>
	<circle cx="716.446" cy="557.893" r="4" fill="#0" id="circle275"/>
	<circle cx="723.748" cy="396.21" r="4" fill="#0" id="circle276"/>
	<circle cx="724.791" cy="462.97" r="4" fill="#0" id="circle277"/>
	<circle cx="726.877" cy="269.994" r="4" fill="#0" id="circle278"/>
	<circle cx="726.877" cy="556.85" r="4" fill="#0" id="circle279"/>
	<circle cx="733.136" cy="390.995" r="4" fill="#0" id="circle280"/>
	<circle cx="735.222" cy="466.099" r="4" fill="#0" id="circle281"/>
	<circle cx="737.308" cy="269.994" r="4" fill="#0" id="circle282"/>
	<circle cx="737.308" cy="551.634" r="4" fill="#0" id="circle283"/>
	<circle cx="742.524" cy="385.779" r="4" fill="#0" id="circle284"/>
	<circle cx="742.524" cy="474.444" r="4" fill="#0" id="circle285"/>
	<circle cx="745.653" cy="484.875" r="4" fill="#0" id="circle286"/>
	<circle cx="745.653" cy="495.306" r="4" fill="#0" id="circle287"/>
	<circle cx="745.653" cy="505.737" r="4" fill="#0" id="circle288"/>
	<circle cx="745.653" cy="516.168" r="4" fill="#0" id="circle289"/>
	<circle cx="746.696" cy="264.778" r="4" fill="#0" id="circle290"/>
	<circle cx="747.739" cy="546.419" r="4" fill="#0" id="circle291"/>
	<circle cx="752.955" cy="384.736" r="4" fill="#0" id="circle292"/>
	<circle cx="753.998" cy="522.427" r="4" fill="#0" id="circle293"/>
	<circle cx="757.127" cy="264.778" r="4" fill="#0" id="circle294"/>
	<circle cx="758.17" cy="541.203" r="4" fill="#0" id="circle295"/>
	<circle cx="761.3" cy="530.772" r="4" fill="#0" id="circle296"/>
	<circle cx="763.386" cy="379.521" r="4" fill="#0" id="circle297"/>
	<circle cx="767.558" cy="264.778" r="4" fill="#0" id="circle298"/>
	<circle cx="773.817" cy="374.305" r="4" fill="#0" id="circle299"/>
	<circle cx="777.989" cy="264.778" r="4" fill="#0" id="circle300"/>
	<circle cx="784.248" cy="369.089" r="4" fill="#0" id="circle301"/>
	<circle cx="788.421" cy="264.778" r="4" fill="#0" id="circle302"/>
	<circle cx="794.679" cy="364.917" r="4" fill="#0" id="circle303"/>
	<circle cx="798.852" cy="264.778" r="4" fill="#0" id="circle304"/>
	<circle cx="804.067" cy="359.701" r="4" fill="#0" id="circle305"/>
	<circle cx="809.283" cy="264.778" r="4" fill="#0" id="circle306"/>
	<circle cx="813.455" cy="354.486" r="4" fill="#0" id="circle307"/>
	<circle cx="819.714" cy="264.778" r="4" fill="#0" id="circle308"/>
	<circle cx="823.886" cy="354.486" r="4" fill="#0" id="circle309"/>
	<circle cx="830.145" cy="264.778" r="4" fill="#0" id="circle310"/>
	<circle cx="833.274" cy="349.27" r="4" fill="#0" id="circle311"/>
	<circle cx="840.576" cy="264.778" r="4" fill="#0" id="circle312"/>
	<circle cx="843.706" cy="349.27" r="4" fill="#0" id="circle313"/>
	<circle cx="851.007" cy="264.778" r="4" fill="#0" id="circle314"/>
	<circle cx="853.094" cy="344.055" r="4" fill="#0" id="circle315"/>
	<circle cx="861.438" cy="264.778" r="4" fill="#0" id="circle316"/>
	<circle cx="862.482" cy="338.839" r="4" fill="#0" id="circle317"/>
	<circle cx="871.87" cy="264.778" r="4" fill="#0" id="circle318"/>
	<circle cx="871.87" cy="333.624" r="4" fill="#0" id="circle319"/>
	<circle cx="881.258" cy="328.408" r="4" fill="#0" id="circle320"/>
	<circle cx="882.301" cy="264.778" r="4" fill="#0" id="circle321"/>
	<circle cx="891.689" cy="323.192" r="4" fill="#0" id="circle322"/>
	<circle cx="892.732" cy="264.778" r="4" fill="#0" id="circle323"/>
	<circle cx="901.077" cy="317.977" r="4" fill="#0" id="circle324"/>
	<circle cx="903.163" cy="264.778" r="4" fill="#0" id="circle325"/>
	<circle cx="911.508" cy="314.848" r="4" fill="#0" id="circle326"/>
	<circle cx="913.594" cy="264.778" r="4" fill="#0" id="circle327"/>
	<circle cx="921.939" cy="309.632" r="4" fill="#0" id="circle328"/>
	<circle cx="924.025" cy="260.606" r="4" fill="#0" id="circle329"/>
	<circle cx="930.284" cy="302.33" r="4" fill="#0" id="circle330"/>
	<circle cx="934.456" cy="255.39" r="4" fill="#0" id="circle331"/>
	<circle cx="939.672" cy="297.115" r="4" fill="#0" id="circle332"/>
	<circle cx="944.887" cy="254.347" r="4" fill="#0" id="circle333"/>
	<circle cx="949.06" cy="291.899" r="4" fill="#0" id="circle334"/>
	<circle cx="954.275" cy="249.131" r="4" fill="#0" id="circle335"/>
	<circle cx="959.491" cy="286.683" r="4" fill="#0" id="circle336"/>
	<circle cx="964.707" cy="246.002" r="4" fill="#0" id="circle337"/>
	<circle cx="969.922" cy="281.468" r="4" fill="#0" id="circle338"/>
	<circle cx="975.138" cy="243.916" r="4" fill="#0" id="circle339"/>
	<circle cx="979.31" cy="276.252" r="4" fill="#0" id="circle340"/>
	<circle cx="985.569" cy="243.916" r="4" fill="#0" id="circle341"/>
	<circle cx="987.655" cy="269.994" r="4" fill="#0" id="circle342"/>
	<circle cx="993.914" cy="250.175" r="4" fill="#0" id="circle343"/>
	<circle cx="996" cy="260.606" r="4" fill="#0" id="circle344"/>
	</g>
</svg>