<?xml version="1.0" encoding="UTF-8" standalone="no"?>
<!-- Created with CurveBenchmark -->
<svg
	xmlns:dc="http://purl.org/dc/elements/1.1/"
	xmlns:cc="http://creativecommons.org/ns#"
	xmlns:rdf="http://www.w3.org/1999/02/22-rdf-syntax-ns#"
	xmlns:svg="http://www.w3.org/2000/svg"
	xmlns="http://www.w3.org/2000/svg"
	xmlns:sodipodi="http://sodipodi.sourceforge.net/DTD/sodipodi-0.dtd"
	xmlns:inkscape="http://www.inkscape.org/namespaces/inkscape"
	width="1000"
	height="1000"
	id="svg2"
	version="1.1"
	sodipodi:docname="manifold/discur-woodenspoonbinary25.png.txt">
<defs
	id="defs4" />
<metadata
	id="metadata7">
	<rdf:RDF>
		<cc:Work
			rdf:about="">
			<dc:format>image/svg+xml</dc:format>
			<dc:type
				rdf:resource="http://purl.org/dc/dcmitype/StillImage" />
			<dc:title></dc:title>
		</cc:Work>
	</rdf:RDF>
</metadata>
<g
	inkscape:label="Layer 1"
	inkscape:groupmode="layer"
	id="layer1">
	<path style="fill:none;stroke:red;stroke-width:1px;stroke-linecap:butt;stroke-linejoin:miter;stroke-opacity:1" d="M 4,166.11 5.84215,175.32 z" id="boundary" inkscape:connector-curvature="0" />
	<path style="fill:none;stroke:red;stroke-width:1px;stroke-linecap:butt;stroke-linejoin:miter;stroke-opacity:1" d="M 4,166.11 7.68431,155.057 z" id="boundary" inkscape:connector-curvature="0" />
	<path style="fill:none;stroke:red;stroke-width:1px;stroke-linecap:butt;stroke-linejoin:miter;stroke-opacity:1" d="M 5.84215,175.32 10.4475,183.61 z" id="boundary" inkscape:connector-curvature="0" />
	<path style="fill:none;stroke:red;stroke-width:1px;stroke-linecap:butt;stroke-linejoin:miter;stroke-opacity:1" d="M 7.68431,155.057 22.4215,144.925 z" id="boundary" inkscape:connector-curvature="0" />
	<path style="fill:none;stroke:red;stroke-width:1px;stroke-linecap:butt;stroke-linejoin:miter;stroke-opacity:1" d="M 10.4475,183.61 27.0269,191.9 z" id="boundary" inkscape:connector-curvature="0" />
	<path style="fill:none;stroke:red;stroke-width:1px;stroke-linecap:butt;stroke-linejoin:miter;stroke-opacity:1" d="M 22.4215,144.925 31.6323,144.004 z" id="boundary" inkscape:connector-curvature="0" />
	<path style="fill:none;stroke:red;stroke-width:1px;stroke-linecap:butt;stroke-linejoin:miter;stroke-opacity:1" d="M 27.0269,191.9 36.2377,191.9 z" id="boundary" inkscape:connector-curvature="0" />
	<path style="fill:none;stroke:red;stroke-width:1px;stroke-linecap:butt;stroke-linejoin:miter;stroke-opacity:1" d="M 31.6323,144.004 40.8431,142.162 z" id="boundary" inkscape:connector-curvature="0" />
	<path style="fill:none;stroke:red;stroke-width:1px;stroke-linecap:butt;stroke-linejoin:miter;stroke-opacity:1" d="M 36.2377,191.9 45.4485,192.821 z" id="boundary" inkscape:connector-curvature="0" />
	<path style="fill:none;stroke:red;stroke-width:1px;stroke-linecap:butt;stroke-linejoin:miter;stroke-opacity:1" d="M 40.8431,142.162 50.0539,142.162 z" id="boundary" inkscape:connector-curvature="0" />
	<path style="fill:none;stroke:red;stroke-width:1px;stroke-linecap:butt;stroke-linejoin:miter;stroke-opacity:1" d="M 45.4485,192.821 54.6592,191.9 z" id="boundary" inkscape:connector-curvature="0" />
	<path style="fill:none;stroke:red;stroke-width:1px;stroke-linecap:butt;stroke-linejoin:miter;stroke-opacity:1" d="M 50.0539,142.162 59.2646,142.162 z" id="boundary" inkscape:connector-curvature="0" />
	<path style="fill:none;stroke:red;stroke-width:1px;stroke-linecap:butt;stroke-linejoin:miter;stroke-opacity:1" d="M 54.6592,191.9 63.87,190.979 z" id="boundary" inkscape:connector-curvature="0" />
	<path style="fill:none;stroke:red;stroke-width:1px;stroke-linecap:butt;stroke-linejoin:miter;stroke-opacity:1" d="M 59.2646,142.162 68.4754,141.24 z" id="boundary" inkscape:connector-curvature="0" />
	<path style="fill:none;stroke:red;stroke-width:1px;stroke-linecap:butt;stroke-linejoin:miter;stroke-opacity:1" d="M 63.87,190.979 73.0808,190.058 z" id="boundary" inkscape:connector-curvature="0" />
	<path style="fill:none;stroke:red;stroke-width:1px;stroke-linecap:butt;stroke-linejoin:miter;stroke-opacity:1" d="M 68.4754,141.24 77.6862,140.319 z" id="boundary" inkscape:connector-curvature="0" />
	<path style="fill:none;stroke:red;stroke-width:1px;stroke-linecap:butt;stroke-linejoin:miter;stroke-opacity:1" d="M 73.0808,190.058 82.2916,189.136 z" id="boundary" inkscape:connector-curvature="0" />
	<path style="fill:none;stroke:red;stroke-width:1px;stroke-linecap:butt;stroke-linejoin:miter;stroke-opacity:1" d="M 77.6862,140.319 86.8969,139.398 z" id="boundary" inkscape:connector-curvature="0" />
	<path style="fill:none;stroke:red;stroke-width:1px;stroke-linecap:butt;stroke-linejoin:miter;stroke-opacity:1" d="M 82.2916,189.136 91.5023,189.136 z" id="boundary" inkscape:connector-curvature="0" />
	<path style="fill:none;stroke:red;stroke-width:1px;stroke-linecap:butt;stroke-linejoin:miter;stroke-opacity:1" d="M 86.8969,139.398 96.1077,139.398 z" id="boundary" inkscape:connector-curvature="0" />
	<path style="fill:none;stroke:red;stroke-width:1px;stroke-linecap:butt;stroke-linejoin:miter;stroke-opacity:1" d="M 91.5023,189.136 100.713,188.215 z" id="boundary" inkscape:connector-curvature="0" />
	<path style="fill:none;stroke:red;stroke-width:1px;stroke-linecap:butt;stroke-linejoin:miter;stroke-opacity:1" d="M 96.1077,139.398 105.318,137.556 z" id="boundary" inkscape:connector-curvature="0" />
	<path style="fill:none;stroke:red;stroke-width:1px;stroke-linecap:butt;stroke-linejoin:miter;stroke-opacity:1" d="M 100.713,188.215 109.924,186.373 z" id="boundary" inkscape:connector-curvature="0" />
	<path style="fill:none;stroke:red;stroke-width:1px;stroke-linecap:butt;stroke-linejoin:miter;stroke-opacity:1" d="M 105.318,137.556 114.529,137.556 z" id="boundary" inkscape:connector-curvature="0" />
	<path style="fill:none;stroke:red;stroke-width:1px;stroke-linecap:butt;stroke-linejoin:miter;stroke-opacity:1" d="M 109.924,186.373 119.135,185.452 z" id="boundary" inkscape:connector-curvature="0" />
	<path style="fill:none;stroke:red;stroke-width:1px;stroke-linecap:butt;stroke-linejoin:miter;stroke-opacity:1" d="M 114.529,137.556 123.74,135.714 z" id="boundary" inkscape:connector-curvature="0" />
	<path style="fill:none;stroke:red;stroke-width:1px;stroke-linecap:butt;stroke-linejoin:miter;stroke-opacity:1" d="M 119.135,185.452 128.345,184.531 z" id="boundary" inkscape:connector-curvature="0" />
	<path style="fill:none;stroke:red;stroke-width:1px;stroke-linecap:butt;stroke-linejoin:miter;stroke-opacity:1" d="M 123.74,135.714 132.951,134.793 z" id="boundary" inkscape:connector-curvature="0" />
	<path style="fill:none;stroke:red;stroke-width:1px;stroke-linecap:butt;stroke-linejoin:miter;stroke-opacity:1" d="M 128.345,184.531 137.556,183.61 z" id="boundary" inkscape:connector-curvature="0" />
	<path style="fill:none;stroke:red;stroke-width:1px;stroke-linecap:butt;stroke-linejoin:miter;stroke-opacity:1" d="M 132.951,134.793 142.162,134.793 z" id="boundary" inkscape:connector-curvature="0" />
	<path style="fill:none;stroke:red;stroke-width:1px;stroke-linecap:butt;stroke-linejoin:miter;stroke-opacity:1" d="M 137.556,183.61 146.767,183.61 z" id="boundary" inkscape:connector-curvature="0" />
	<path style="fill:none;stroke:red;stroke-width:1px;stroke-linecap:butt;stroke-linejoin:miter;stroke-opacity:1" d="M 142.162,134.793 151.372,133.872 z" id="boundary" inkscape:connector-curvature="0" />
	<path style="fill:none;stroke:red;stroke-width:1px;stroke-linecap:butt;stroke-linejoin:miter;stroke-opacity:1" d="M 146.767,183.61 155.978,182.689 z" id="boundary" inkscape:connector-curvature="0" />
	<path style="fill:none;stroke:red;stroke-width:1px;stroke-linecap:butt;stroke-linejoin:miter;stroke-opacity:1" d="M 151.372,133.872 160.583,132.951 z" id="boundary" inkscape:connector-curvature="0" />
	<path style="fill:none;stroke:red;stroke-width:1px;stroke-linecap:butt;stroke-linejoin:miter;stroke-opacity:1" d="M 155.978,182.689 165.188,181.768 z" id="boundary" inkscape:connector-curvature="0" />
	<path style="fill:none;stroke:red;stroke-width:1px;stroke-linecap:butt;stroke-linejoin:miter;stroke-opacity:1" d="M 160.583,132.951 169.794,132.03 z" id="boundary" inkscape:connector-curvature="0" />
	<path style="fill:none;stroke:red;stroke-width:1px;stroke-linecap:butt;stroke-linejoin:miter;stroke-opacity:1" d="M 165.188,181.768 174.399,179.926 z" id="boundary" inkscape:connector-curvature="0" />
	<path style="fill:none;stroke:red;stroke-width:1px;stroke-linecap:butt;stroke-linejoin:miter;stroke-opacity:1" d="M 169.794,132.03 179.005,131.109 z" id="boundary" inkscape:connector-curvature="0" />
	<path style="fill:none;stroke:red;stroke-width:1px;stroke-linecap:butt;stroke-linejoin:miter;stroke-opacity:1" d="M 174.399,179.926 183.61,177.162 z" id="boundary" inkscape:connector-curvature="0" />
	<path style="fill:none;stroke:red;stroke-width:1px;stroke-linecap:butt;stroke-linejoin:miter;stroke-opacity:1" d="M 179.005,131.109 188.215,130.188 z" id="boundary" inkscape:connector-curvature="0" />
	<path style="fill:none;stroke:red;stroke-width:1px;stroke-linecap:butt;stroke-linejoin:miter;stroke-opacity:1" d="M 183.61,177.162 192.821,177.162 z" id="boundary" inkscape:connector-curvature="0" />
	<path style="fill:none;stroke:red;stroke-width:1px;stroke-linecap:butt;stroke-linejoin:miter;stroke-opacity:1" d="M 188.215,130.188 197.426,129.266 z" id="boundary" inkscape:connector-curvature="0" />
	<path style="fill:none;stroke:red;stroke-width:1px;stroke-linecap:butt;stroke-linejoin:miter;stroke-opacity:1" d="M 192.821,177.162 202.032,176.241 z" id="boundary" inkscape:connector-curvature="0" />
	<path style="fill:none;stroke:red;stroke-width:1px;stroke-linecap:butt;stroke-linejoin:miter;stroke-opacity:1" d="M 197.426,129.266 206.637,129.266 z" id="boundary" inkscape:connector-curvature="0" />
	<path style="fill:none;stroke:red;stroke-width:1px;stroke-linecap:butt;stroke-linejoin:miter;stroke-opacity:1" d="M 202.032,176.241 211.242,176.241 z" id="boundary" inkscape:connector-curvature="0" />
	<path style="fill:none;stroke:red;stroke-width:1px;stroke-linecap:butt;stroke-linejoin:miter;stroke-opacity:1" d="M 206.637,129.266 215.848,129.266 z" id="boundary" inkscape:connector-curvature="0" />
	<path style="fill:none;stroke:red;stroke-width:1px;stroke-linecap:butt;stroke-linejoin:miter;stroke-opacity:1" d="M 211.242,176.241 220.453,175.32 z" id="boundary" inkscape:connector-curvature="0" />
	<path style="fill:none;stroke:red;stroke-width:1px;stroke-linecap:butt;stroke-linejoin:miter;stroke-opacity:1" d="M 215.848,129.266 225.058,128.345 z" id="boundary" inkscape:connector-curvature="0" />
	<path style="fill:none;stroke:red;stroke-width:1px;stroke-linecap:butt;stroke-linejoin:miter;stroke-opacity:1" d="M 220.453,175.32 229.664,173.478 z" id="boundary" inkscape:connector-curvature="0" />
	<path style="fill:none;stroke:red;stroke-width:1px;stroke-linecap:butt;stroke-linejoin:miter;stroke-opacity:1" d="M 225.058,128.345 234.269,128.345 z" id="boundary" inkscape:connector-curvature="0" />
	<path style="fill:none;stroke:red;stroke-width:1px;stroke-linecap:butt;stroke-linejoin:miter;stroke-opacity:1" d="M 229.664,173.478 238.875,173.478 z" id="boundary" inkscape:connector-curvature="0" />
	<path style="fill:none;stroke:red;stroke-width:1px;stroke-linecap:butt;stroke-linejoin:miter;stroke-opacity:1" d="M 234.269,128.345 243.48,127.424 z" id="boundary" inkscape:connector-curvature="0" />
	<path style="fill:none;stroke:red;stroke-width:1px;stroke-linecap:butt;stroke-linejoin:miter;stroke-opacity:1" d="M 238.875,173.478 248.085,173.478 z" id="boundary" inkscape:connector-curvature="0" />
	<path style="fill:none;stroke:red;stroke-width:1px;stroke-linecap:butt;stroke-linejoin:miter;stroke-opacity:1" d="M 243.48,127.424 252.691,126.503 z" id="boundary" inkscape:connector-curvature="0" />
	<path style="fill:none;stroke:red;stroke-width:1px;stroke-linecap:butt;stroke-linejoin:miter;stroke-opacity:1" d="M 248.085,173.478 257.296,172.557 z" id="boundary" inkscape:connector-curvature="0" />
	<path style="fill:none;stroke:red;stroke-width:1px;stroke-linecap:butt;stroke-linejoin:miter;stroke-opacity:1" d="M 252.691,126.503 261.902,126.503 z" id="boundary" inkscape:connector-curvature="0" />
	<path style="fill:none;stroke:red;stroke-width:1px;stroke-linecap:butt;stroke-linejoin:miter;stroke-opacity:1" d="M 257.296,172.557 266.507,170.715 z" id="boundary" inkscape:connector-curvature="0" />
	<path style="fill:none;stroke:red;stroke-width:1px;stroke-linecap:butt;stroke-linejoin:miter;stroke-opacity:1" d="M 261.902,126.503 271.112,125.582 z" id="boundary" inkscape:connector-curvature="0" />
	<path style="fill:none;stroke:red;stroke-width:1px;stroke-linecap:butt;stroke-linejoin:miter;stroke-opacity:1" d="M 266.507,170.715 275.718,167.952 z" id="boundary" inkscape:connector-curvature="0" />
	<path style="fill:none;stroke:red;stroke-width:1px;stroke-linecap:butt;stroke-linejoin:miter;stroke-opacity:1" d="M 271.112,125.582 280.323,124.661 z" id="boundary" inkscape:connector-curvature="0" />
	<path style="fill:none;stroke:red;stroke-width:1px;stroke-linecap:butt;stroke-linejoin:miter;stroke-opacity:1" d="M 275.718,167.952 284.929,167.031 z" id="boundary" inkscape:connector-curvature="0" />
	<path style="fill:none;stroke:red;stroke-width:1px;stroke-linecap:butt;stroke-linejoin:miter;stroke-opacity:1" d="M 280.323,124.661 289.534,123.74 z" id="boundary" inkscape:connector-curvature="0" />
	<path style="fill:none;stroke:red;stroke-width:1px;stroke-linecap:butt;stroke-linejoin:miter;stroke-opacity:1" d="M 284.929,167.031 294.139,167.031 z" id="boundary" inkscape:connector-curvature="0" />
	<path style="fill:none;stroke:red;stroke-width:1px;stroke-linecap:butt;stroke-linejoin:miter;stroke-opacity:1" d="M 289.534,123.74 298.745,122.819 z" id="boundary" inkscape:connector-curvature="0" />
	<path style="fill:none;stroke:red;stroke-width:1px;stroke-linecap:butt;stroke-linejoin:miter;stroke-opacity:1" d="M 294.139,167.031 303.35,167.031 z" id="boundary" inkscape:connector-curvature="0" />
	<path style="fill:none;stroke:red;stroke-width:1px;stroke-linecap:butt;stroke-linejoin:miter;stroke-opacity:1" d="M 298.745,122.819 307.955,121.898 z" id="boundary" inkscape:connector-curvature="0" />
	<path style="fill:none;stroke:red;stroke-width:1px;stroke-linecap:butt;stroke-linejoin:miter;stroke-opacity:1" d="M 303.35,167.031 312.561,167.031 z" id="boundary" inkscape:connector-curvature="0" />
	<path style="fill:none;stroke:red;stroke-width:1px;stroke-linecap:butt;stroke-linejoin:miter;stroke-opacity:1" d="M 307.955,121.898 317.166,120.977 z" id="boundary" inkscape:connector-curvature="0" />
	<path style="fill:none;stroke:red;stroke-width:1px;stroke-linecap:butt;stroke-linejoin:miter;stroke-opacity:1" d="M 312.561,167.031 321.772,167.031 z" id="boundary" inkscape:connector-curvature="0" />
	<path style="fill:none;stroke:red;stroke-width:1px;stroke-linecap:butt;stroke-linejoin:miter;stroke-opacity:1" d="M 317.166,120.977 326.377,120.056 z" id="boundary" inkscape:connector-curvature="0" />
	<path style="fill:none;stroke:red;stroke-width:1px;stroke-linecap:butt;stroke-linejoin:miter;stroke-opacity:1" d="M 321.772,167.031 330.982,166.11 z" id="boundary" inkscape:connector-curvature="0" />
	<path style="fill:none;stroke:red;stroke-width:1px;stroke-linecap:butt;stroke-linejoin:miter;stroke-opacity:1" d="M 326.377,120.056 335.588,120.056 z" id="boundary" inkscape:connector-curvature="0" />
	<path style="fill:none;stroke:red;stroke-width:1px;stroke-linecap:butt;stroke-linejoin:miter;stroke-opacity:1" d="M 330.982,166.11 340.193,165.188 z" id="boundary" inkscape:connector-curvature="0" />
	<path style="fill:none;stroke:red;stroke-width:1px;stroke-linecap:butt;stroke-linejoin:miter;stroke-opacity:1" d="M 335.588,120.056 344.799,118.214 z" id="boundary" inkscape:connector-curvature="0" />
	<path style="fill:none;stroke:red;stroke-width:1px;stroke-linecap:butt;stroke-linejoin:miter;stroke-opacity:1" d="M 340.193,165.188 349.404,163.346 z" id="boundary" inkscape:connector-curvature="0" />
	<path style="fill:none;stroke:red;stroke-width:1px;stroke-linecap:butt;stroke-linejoin:miter;stroke-opacity:1" d="M 344.799,118.214 354.009,117.292 z" id="boundary" inkscape:connector-curvature="0" />
	<path style="fill:none;stroke:red;stroke-width:1px;stroke-linecap:butt;stroke-linejoin:miter;stroke-opacity:1" d="M 349.404,163.346 358.615,163.346 z" id="boundary" inkscape:connector-curvature="0" />
	<path style="fill:none;stroke:red;stroke-width:1px;stroke-linecap:butt;stroke-linejoin:miter;stroke-opacity:1" d="M 354.009,117.292 363.22,116.371 z" id="boundary" inkscape:connector-curvature="0" />
	<path style="fill:none;stroke:red;stroke-width:1px;stroke-linecap:butt;stroke-linejoin:miter;stroke-opacity:1" d="M 358.615,163.346 367.825,162.425 z" id="boundary" inkscape:connector-curvature="0" />
	<path style="fill:none;stroke:red;stroke-width:1px;stroke-linecap:butt;stroke-linejoin:miter;stroke-opacity:1" d="M 363.22,116.371 372.431,115.45 z" id="boundary" inkscape:connector-curvature="0" />
	<path style="fill:none;stroke:red;stroke-width:1px;stroke-linecap:butt;stroke-linejoin:miter;stroke-opacity:1" d="M 367.825,162.425 377.036,161.504 z" id="boundary" inkscape:connector-curvature="0" />
	<path style="fill:none;stroke:red;stroke-width:1px;stroke-linecap:butt;stroke-linejoin:miter;stroke-opacity:1" d="M 372.431,115.45 381.642,114.529 z" id="boundary" inkscape:connector-curvature="0" />
	<path style="fill:none;stroke:red;stroke-width:1px;stroke-linecap:butt;stroke-linejoin:miter;stroke-opacity:1" d="M 377.036,161.504 386.247,159.662 z" id="boundary" inkscape:connector-curvature="0" />
	<path style="fill:none;stroke:red;stroke-width:1px;stroke-linecap:butt;stroke-linejoin:miter;stroke-opacity:1" d="M 381.642,114.529 390.852,114.529 z" id="boundary" inkscape:connector-curvature="0" />
	<path style="fill:none;stroke:red;stroke-width:1px;stroke-linecap:butt;stroke-linejoin:miter;stroke-opacity:1" d="M 386.247,159.662 395.458,159.662 z" id="boundary" inkscape:connector-curvature="0" />
	<path style="fill:none;stroke:red;stroke-width:1px;stroke-linecap:butt;stroke-linejoin:miter;stroke-opacity:1" d="M 390.852,114.529 400.063,113.608 z" id="boundary" inkscape:connector-curvature="0" />
	<path style="fill:none;stroke:red;stroke-width:1px;stroke-linecap:butt;stroke-linejoin:miter;stroke-opacity:1" d="M 395.458,159.662 404.669,160.583 z" id="boundary" inkscape:connector-curvature="0" />
	<path style="fill:none;stroke:red;stroke-width:1px;stroke-linecap:butt;stroke-linejoin:miter;stroke-opacity:1" d="M 400.063,113.608 409.274,111.766 z" id="boundary" inkscape:connector-curvature="0" />
	<path style="fill:none;stroke:red;stroke-width:1px;stroke-linecap:butt;stroke-linejoin:miter;stroke-opacity:1" d="M 404.669,160.583 413.879,159.662 z" id="boundary" inkscape:connector-curvature="0" />
	<path style="fill:none;stroke:red;stroke-width:1px;stroke-linecap:butt;stroke-linejoin:miter;stroke-opacity:1" d="M 409.274,111.766 418.485,110.845 z" id="boundary" inkscape:connector-curvature="0" />
	<path style="fill:none;stroke:red;stroke-width:1px;stroke-linecap:butt;stroke-linejoin:miter;stroke-opacity:1" d="M 413.879,159.662 423.09,157.82 z" id="boundary" inkscape:connector-curvature="0" />
	<path style="fill:none;stroke:red;stroke-width:1px;stroke-linecap:butt;stroke-linejoin:miter;stroke-opacity:1" d="M 418.485,110.845 427.695,110.845 z" id="boundary" inkscape:connector-curvature="0" />
	<path style="fill:none;stroke:red;stroke-width:1px;stroke-linecap:butt;stroke-linejoin:miter;stroke-opacity:1" d="M 423.09,157.82 432.301,157.82 z" id="boundary" inkscape:connector-curvature="0" />
	<path style="fill:none;stroke:red;stroke-width:1px;stroke-linecap:butt;stroke-linejoin:miter;stroke-opacity:1" d="M 427.695,110.845 436.906,109.924 z" id="boundary" inkscape:connector-curvature="0" />
	<path style="fill:none;stroke:red;stroke-width:1px;stroke-linecap:butt;stroke-linejoin:miter;stroke-opacity:1" d="M 432.301,157.82 441.512,156.899 z" id="boundary" inkscape:connector-curvature="0" />
	<path style="fill:none;stroke:red;stroke-width:1px;stroke-linecap:butt;stroke-linejoin:miter;stroke-opacity:1" d="M 436.906,109.924 446.117,109.003 z" id="boundary" inkscape:connector-curvature="0" />
	<path style="fill:none;stroke:red;stroke-width:1px;stroke-linecap:butt;stroke-linejoin:miter;stroke-opacity:1" d="M 441.512,156.899 450.722,155.978 z" id="boundary" inkscape:connector-curvature="0" />
	<path style="fill:none;stroke:red;stroke-width:1px;stroke-linecap:butt;stroke-linejoin:miter;stroke-opacity:1" d="M 446.117,109.003 455.328,107.161 z" id="boundary" inkscape:connector-curvature="0" />
	<path style="fill:none;stroke:red;stroke-width:1px;stroke-linecap:butt;stroke-linejoin:miter;stroke-opacity:1" d="M 450.722,155.978 459.933,155.978 z" id="boundary" inkscape:connector-curvature="0" />
	<path style="fill:none;stroke:red;stroke-width:1px;stroke-linecap:butt;stroke-linejoin:miter;stroke-opacity:1" d="M 455.328,107.161 464.539,107.161 z" id="boundary" inkscape:connector-curvature="0" />
	<path style="fill:none;stroke:red;stroke-width:1px;stroke-linecap:butt;stroke-linejoin:miter;stroke-opacity:1" d="M 459.933,155.978 469.144,155.978 z" id="boundary" inkscape:connector-curvature="0" />
	<path style="fill:none;stroke:red;stroke-width:1px;stroke-linecap:butt;stroke-linejoin:miter;stroke-opacity:1" d="M 464.539,107.161 473.749,106.24 z" id="boundary" inkscape:connector-curvature="0" />
	<path style="fill:none;stroke:red;stroke-width:1px;stroke-linecap:butt;stroke-linejoin:miter;stroke-opacity:1" d="M 469.144,155.978 478.355,155.057 z" id="boundary" inkscape:connector-curvature="0" />
	<path style="fill:none;stroke:red;stroke-width:1px;stroke-linecap:butt;stroke-linejoin:miter;stroke-opacity:1" d="M 473.749,106.24 482.96,105.318 z" id="boundary" inkscape:connector-curvature="0" />
	<path style="fill:none;stroke:red;stroke-width:1px;stroke-linecap:butt;stroke-linejoin:miter;stroke-opacity:1" d="M 478.355,155.057 487.565,154.136 z" id="boundary" inkscape:connector-curvature="0" />
	<path style="fill:none;stroke:red;stroke-width:1px;stroke-linecap:butt;stroke-linejoin:miter;stroke-opacity:1" d="M 482.96,105.318 492.171,104.397 z" id="boundary" inkscape:connector-curvature="0" />
	<path style="fill:none;stroke:red;stroke-width:1px;stroke-linecap:butt;stroke-linejoin:miter;stroke-opacity:1" d="M 487.565,154.136 496.776,154.136 z" id="boundary" inkscape:connector-curvature="0" />
	<path style="fill:none;stroke:red;stroke-width:1px;stroke-linecap:butt;stroke-linejoin:miter;stroke-opacity:1" d="M 492.171,104.397 501.382,103.476 z" id="boundary" inkscape:connector-curvature="0" />
	<path style="fill:none;stroke:red;stroke-width:1px;stroke-linecap:butt;stroke-linejoin:miter;stroke-opacity:1" d="M 496.776,154.136 505.987,153.214 z" id="boundary" inkscape:connector-curvature="0" />
	<path style="fill:none;stroke:red;stroke-width:1px;stroke-linecap:butt;stroke-linejoin:miter;stroke-opacity:1" d="M 501.382,103.476 510.592,101.634 z" id="boundary" inkscape:connector-curvature="0" />
	<path style="fill:none;stroke:red;stroke-width:1px;stroke-linecap:butt;stroke-linejoin:miter;stroke-opacity:1" d="M 505.987,153.214 515.198,153.214 z" id="boundary" inkscape:connector-curvature="0" />
	<path style="fill:none;stroke:red;stroke-width:1px;stroke-linecap:butt;stroke-linejoin:miter;stroke-opacity:1" d="M 510.592,101.634 519.803,100.713 z" id="boundary" inkscape:connector-curvature="0" />
	<path style="fill:none;stroke:red;stroke-width:1px;stroke-linecap:butt;stroke-linejoin:miter;stroke-opacity:1" d="M 515.198,153.214 524.409,153.214 z" id="boundary" inkscape:connector-curvature="0" />
	<path style="fill:none;stroke:red;stroke-width:1px;stroke-linecap:butt;stroke-linejoin:miter;stroke-opacity:1" d="M 519.803,100.713 529.014,98.8709 z" id="boundary" inkscape:connector-curvature="0" />
	<path style="fill:none;stroke:red;stroke-width:1px;stroke-linecap:butt;stroke-linejoin:miter;stroke-opacity:1" d="M 524.409,153.214 533.619,154.136 z" id="boundary" inkscape:connector-curvature="0" />
	<path style="fill:none;stroke:red;stroke-width:1px;stroke-linecap:butt;stroke-linejoin:miter;stroke-opacity:1" d="M 529.014,98.8709 538.225,97.0288 z" id="boundary" inkscape:connector-curvature="0" />
	<path style="fill:none;stroke:red;stroke-width:1px;stroke-linecap:butt;stroke-linejoin:miter;stroke-opacity:1" d="M 533.619,154.136 542.83,154.136 z" id="boundary" inkscape:connector-curvature="0" />
	<path style="fill:none;stroke:red;stroke-width:1px;stroke-linecap:butt;stroke-linejoin:miter;stroke-opacity:1" d="M 538.225,97.0288 547.435,95.1866 z" id="boundary" inkscape:connector-curvature="0" />
	<path style="fill:none;stroke:red;stroke-width:1px;stroke-linecap:butt;stroke-linejoin:miter;stroke-opacity:1" d="M 542.83,154.136 552.041,154.136 z" id="boundary" inkscape:connector-curvature="0" />
	<path style="fill:none;stroke:red;stroke-width:1px;stroke-linecap:butt;stroke-linejoin:miter;stroke-opacity:1" d="M 547.435,95.1866 556.646,92.4234 z" id="boundary" inkscape:connector-curvature="0" />
	<path style="fill:none;stroke:red;stroke-width:1px;stroke-linecap:butt;stroke-linejoin:miter;stroke-opacity:1" d="M 552.041,154.136 561.252,155.057 z" id="boundary" inkscape:connector-curvature="0" />
	<path style="fill:none;stroke:red;stroke-width:1px;stroke-linecap:butt;stroke-linejoin:miter;stroke-opacity:1" d="M 556.646,92.4234 565.857,89.6602 z" id="boundary" inkscape:connector-curvature="0" />
	<path style="fill:none;stroke:red;stroke-width:1px;stroke-linecap:butt;stroke-linejoin:miter;stroke-opacity:1" d="M 561.252,155.057 570.462,155.978 z" id="boundary" inkscape:connector-curvature="0" />
	<path style="fill:none;stroke:red;stroke-width:1px;stroke-linecap:butt;stroke-linejoin:miter;stroke-opacity:1" d="M 565.857,89.6602 575.068,86.8969 z" id="boundary" inkscape:connector-curvature="0" />
	<path style="fill:none;stroke:red;stroke-width:1px;stroke-linecap:butt;stroke-linejoin:miter;stroke-opacity:1" d="M 570.462,155.978 579.673,156.899 z" id="boundary" inkscape:connector-curvature="0" />
	<path style="fill:none;stroke:red;stroke-width:1px;stroke-linecap:butt;stroke-linejoin:miter;stroke-opacity:1" d="M 575.068,86.8969 584.279,84.1337 z" id="boundary" inkscape:connector-curvature="0" />
	<path style="fill:none;stroke:red;stroke-width:1px;stroke-linecap:butt;stroke-linejoin:miter;stroke-opacity:1" d="M 579.673,156.899 588.884,158.741 z" id="boundary" inkscape:connector-curvature="0" />
	<path style="fill:none;stroke:red;stroke-width:1px;stroke-linecap:butt;stroke-linejoin:miter;stroke-opacity:1" d="M 584.279,84.1337 593.489,81.3705 z" id="boundary" inkscape:connector-curvature="0" />
	<path style="fill:none;stroke:red;stroke-width:1px;stroke-linecap:butt;stroke-linejoin:miter;stroke-opacity:1" d="M 588.884,158.741 598.095,159.662 z" id="boundary" inkscape:connector-curvature="0" />
	<path style="fill:none;stroke:red;stroke-width:1px;stroke-linecap:butt;stroke-linejoin:miter;stroke-opacity:1" d="M 593.489,81.3705 602.7,78.6072 z" id="boundary" inkscape:connector-curvature="0" />
	<path style="fill:none;stroke:red;stroke-width:1px;stroke-linecap:butt;stroke-linejoin:miter;stroke-opacity:1" d="M 598.095,159.662 607.305,160.583 z" id="boundary" inkscape:connector-curvature="0" />
	<path style="fill:none;stroke:red;stroke-width:1px;stroke-linecap:butt;stroke-linejoin:miter;stroke-opacity:1" d="M 602.7,78.6072 611.911,74.9229 z" id="boundary" inkscape:connector-curvature="0" />
	<path style="fill:none;stroke:red;stroke-width:1px;stroke-linecap:butt;stroke-linejoin:miter;stroke-opacity:1" d="M 607.305,160.583 616.516,164.267 z" id="boundary" inkscape:connector-curvature="0" />
	<path style="fill:none;stroke:red;stroke-width:1px;stroke-linecap:butt;stroke-linejoin:miter;stroke-opacity:1" d="M 611.911,74.9229 621.122,71.2386 z" id="boundary" inkscape:connector-curvature="0" />
	<path style="fill:none;stroke:red;stroke-width:1px;stroke-linecap:butt;stroke-linejoin:miter;stroke-opacity:1" d="M 616.516,164.267 625.727,166.11 z" id="boundary" inkscape:connector-curvature="0" />
	<path style="fill:none;stroke:red;stroke-width:1px;stroke-linecap:butt;stroke-linejoin:miter;stroke-opacity:1" d="M 621.122,71.2386 630.332,67.5543 z" id="boundary" inkscape:connector-curvature="0" />
	<path style="fill:none;stroke:red;stroke-width:1px;stroke-linecap:butt;stroke-linejoin:miter;stroke-opacity:1" d="M 625.727,166.11 634.938,168.873 z" id="boundary" inkscape:connector-curvature="0" />
	<path style="fill:none;stroke:red;stroke-width:1px;stroke-linecap:butt;stroke-linejoin:miter;stroke-opacity:1" d="M 630.332,67.5543 638.622,62.9489 z" id="boundary" inkscape:connector-curvature="0" />
	<path style="fill:none;stroke:red;stroke-width:1px;stroke-linecap:butt;stroke-linejoin:miter;stroke-opacity:1" d="M 634.938,168.873 644.149,171.636 z" id="boundary" inkscape:connector-curvature="0" />
	<path style="fill:none;stroke:red;stroke-width:1px;stroke-linecap:butt;stroke-linejoin:miter;stroke-opacity:1" d="M 638.622,62.9489 647.833,60.1857 z" id="boundary" inkscape:connector-curvature="0" />
	<path style="fill:none;stroke:red;stroke-width:1px;stroke-linecap:butt;stroke-linejoin:miter;stroke-opacity:1" d="M 644.149,171.636 653.359,175.32 z" id="boundary" inkscape:connector-curvature="0" />
	<path style="fill:none;stroke:red;stroke-width:1px;stroke-linecap:butt;stroke-linejoin:miter;stroke-opacity:1" d="M 647.833,60.1857 657.044,55.5803 z" id="boundary" inkscape:connector-curvature="0" />
	<path style="fill:none;stroke:red;stroke-width:1px;stroke-linecap:butt;stroke-linejoin:miter;stroke-opacity:1" d="M 653.359,175.32 662.57,176.241 z" id="boundary" inkscape:connector-curvature="0" />
	<path style="fill:none;stroke:red;stroke-width:1px;stroke-linecap:butt;stroke-linejoin:miter;stroke-opacity:1" d="M 657.044,55.5803 666.254,51.896 z" id="boundary" inkscape:connector-curvature="0" />
	<path style="fill:none;stroke:red;stroke-width:1px;stroke-linecap:butt;stroke-linejoin:miter;stroke-opacity:1" d="M 662.57,176.241 671.781,179.005 z" id="boundary" inkscape:connector-curvature="0" />
	<path style="fill:none;stroke:red;stroke-width:1px;stroke-linecap:butt;stroke-linejoin:miter;stroke-opacity:1" d="M 666.254,51.896 675.465,49.1328 z" id="boundary" inkscape:connector-curvature="0" />
	<path style="fill:none;stroke:red;stroke-width:1px;stroke-linecap:butt;stroke-linejoin:miter;stroke-opacity:1" d="M 671.781,179.005 680.992,181.768 z" id="boundary" inkscape:connector-curvature="0" />
	<path style="fill:none;stroke:red;stroke-width:1px;stroke-linecap:butt;stroke-linejoin:miter;stroke-opacity:1" d="M 675.465,49.1328 684.676,45.4485 z" id="boundary" inkscape:connector-curvature="0" />
	<path style="fill:none;stroke:red;stroke-width:1px;stroke-linecap:butt;stroke-linejoin:miter;stroke-opacity:1" d="M 680.992,181.768 690.202,184.531 z" id="boundary" inkscape:connector-curvature="0" />
	<path style="fill:none;stroke:red;stroke-width:1px;stroke-linecap:butt;stroke-linejoin:miter;stroke-opacity:1" d="M 684.676,45.4485 693.887,41.7642 z" id="boundary" inkscape:connector-curvature="0" />
	<path style="fill:none;stroke:red;stroke-width:1px;stroke-linecap:butt;stroke-linejoin:miter;stroke-opacity:1" d="M 690.202,184.531 699.413,186.373 z" id="boundary" inkscape:connector-curvature="0" />
	<path style="fill:none;stroke:red;stroke-width:1px;stroke-linecap:butt;stroke-linejoin:miter;stroke-opacity:1" d="M 693.887,41.7642 703.097,38.0799 z" id="boundary" inkscape:connector-curvature="0" />
	<path style="fill:none;stroke:red;stroke-width:1px;stroke-linecap:butt;stroke-linejoin:miter;stroke-opacity:1" d="M 699.413,186.373 708.624,190.058 z" id="boundary" inkscape:connector-curvature="0" />
	<path style="fill:none;stroke:red;stroke-width:1px;stroke-linecap:butt;stroke-linejoin:miter;stroke-opacity:1" d="M 703.097,38.0799 712.308,34.3955 z" id="boundary" inkscape:connector-curvature="0" />
	<path style="fill:none;stroke:red;stroke-width:1px;stroke-linecap:butt;stroke-linejoin:miter;stroke-opacity:1" d="M 708.624,190.058 717.835,191.9 z" id="boundary" inkscape:connector-curvature="0" />
	<path style="fill:none;stroke:red;stroke-width:1px;stroke-linecap:butt;stroke-linejoin:miter;stroke-opacity:1" d="M 712.308,34.3955 721.519,31.6323 z" id="boundary" inkscape:connector-curvature="0" />
	<path style="fill:none;stroke:red;stroke-width:1px;stroke-linecap:butt;stroke-linejoin:miter;stroke-opacity:1" d="M 717.835,191.9 727.045,193.742 z" id="boundary" inkscape:connector-curvature="0" />
	<path style="fill:none;stroke:red;stroke-width:1px;stroke-linecap:butt;stroke-linejoin:miter;stroke-opacity:1" d="M 721.519,31.6323 730.73,28.8691 z" id="boundary" inkscape:connector-curvature="0" />
	<path style="fill:none;stroke:red;stroke-width:1px;stroke-linecap:butt;stroke-linejoin:miter;stroke-opacity:1" d="M 727.045,193.742 736.256,195.584 z" id="boundary" inkscape:connector-curvature="0" />
	<path style="fill:none;stroke:red;stroke-width:1px;stroke-linecap:butt;stroke-linejoin:miter;stroke-opacity:1" d="M 730.73,28.8691 739.941,25.1848 z" id="boundary" inkscape:connector-curvature="0" />
	<path style="fill:none;stroke:red;stroke-width:1px;stroke-linecap:butt;stroke-linejoin:miter;stroke-opacity:1" d="M 736.256,195.584 745.467,198.347 z" id="boundary" inkscape:connector-curvature="0" />
	<path style="fill:none;stroke:red;stroke-width:1px;stroke-linecap:butt;stroke-linejoin:miter;stroke-opacity:1" d="M 739.941,25.1848 749.151,21.5005 z" id="boundary" inkscape:connector-curvature="0" />
	<path style="fill:none;stroke:red;stroke-width:1px;stroke-linecap:butt;stroke-linejoin:miter;stroke-opacity:1" d="M 745.467,198.347 754.678,200.189 z" id="boundary" inkscape:connector-curvature="0" />
	<path style="fill:none;stroke:red;stroke-width:1px;stroke-linecap:butt;stroke-linejoin:miter;stroke-opacity:1" d="M 749.151,21.5005 758.362,18.7372 z" id="boundary" inkscape:connector-curvature="0" />
	<path style="fill:none;stroke:red;stroke-width:1px;stroke-linecap:butt;stroke-linejoin:miter;stroke-opacity:1" d="M 754.678,200.189 763.889,201.11 z" id="boundary" inkscape:connector-curvature="0" />
	<path style="fill:none;stroke:red;stroke-width:1px;stroke-linecap:butt;stroke-linejoin:miter;stroke-opacity:1" d="M 758.362,18.7372 767.573,15.974 z" id="boundary" inkscape:connector-curvature="0" />
	<path style="fill:none;stroke:red;stroke-width:1px;stroke-linecap:butt;stroke-linejoin:miter;stroke-opacity:1" d="M 763.889,201.11 773.099,202.032 z" id="boundary" inkscape:connector-curvature="0" />
	<path style="fill:none;stroke:red;stroke-width:1px;stroke-linecap:butt;stroke-linejoin:miter;stroke-opacity:1" d="M 767.573,15.974 776.784,14.1318 z" id="boundary" inkscape:connector-curvature="0" />
	<path style="fill:none;stroke:red;stroke-width:1px;stroke-linecap:butt;stroke-linejoin:miter;stroke-opacity:1" d="M 773.099,202.032 782.31,203.874 z" id="boundary" inkscape:connector-curvature="0" />
	<path style="fill:none;stroke:red;stroke-width:1px;stroke-linecap:butt;stroke-linejoin:miter;stroke-opacity:1" d="M 776.784,14.1318 785.994,12.2897 z" id="boundary" inkscape:connector-curvature="0" />
	<path style="fill:none;stroke:red;stroke-width:1px;stroke-linecap:butt;stroke-linejoin:miter;stroke-opacity:1" d="M 782.31,203.874 791.521,204.795 z" id="boundary" inkscape:connector-curvature="0" />
	<path style="fill:none;stroke:red;stroke-width:1px;stroke-linecap:butt;stroke-linejoin:miter;stroke-opacity:1" d="M 785.994,12.2897 795.205,11.3686 z" id="boundary" inkscape:connector-curvature="0" />
	<path style="fill:none;stroke:red;stroke-width:1px;stroke-linecap:butt;stroke-linejoin:miter;stroke-opacity:1" d="M 791.521,204.795 800.732,205.716 z" id="boundary" inkscape:connector-curvature="0" />
	<path style="fill:none;stroke:red;stroke-width:1px;stroke-linecap:butt;stroke-linejoin:miter;stroke-opacity:1" d="M 795.205,11.3686 804.416,8.60539 z" id="boundary" inkscape:connector-curvature="0" />
	<path style="fill:none;stroke:red;stroke-width:1px;stroke-linecap:butt;stroke-linejoin:miter;stroke-opacity:1" d="M 800.732,205.716 809.942,206.637 z" id="boundary" inkscape:connector-curvature="0" />
	<path style="fill:none;stroke:red;stroke-width:1px;stroke-linecap:butt;stroke-linejoin:miter;stroke-opacity:1" d="M 804.416,8.60539 813.627,7.68431 z" id="boundary" inkscape:connector-curvature="0" />
	<path style="fill:none;stroke:red;stroke-width:1px;stroke-linecap:butt;stroke-linejoin:miter;stroke-opacity:1" d="M 809.942,206.637 819.153,206.637 z" id="boundary" inkscape:connector-curvature="0" />
	<path style="fill:none;stroke:red;stroke-width:1px;stroke-linecap:butt;stroke-linejoin:miter;stroke-opacity:1" d="M 813.627,7.68431 822.838,6.76323 z" id="boundary" inkscape:connector-curvature="0" />
	<path style="fill:none;stroke:red;stroke-width:1px;stroke-linecap:butt;stroke-linejoin:miter;stroke-opacity:1" d="M 819.153,206.637 828.364,206.637 z" id="boundary" inkscape:connector-curvature="0" />
	<path style="fill:none;stroke:red;stroke-width:1px;stroke-linecap:butt;stroke-linejoin:miter;stroke-opacity:1" d="M 822.838,6.76323 832.048,5.84215 z" id="boundary" inkscape:connector-curvature="0" />
	<path style="fill:none;stroke:red;stroke-width:1px;stroke-linecap:butt;stroke-linejoin:miter;stroke-opacity:1" d="M 828.364,206.637 837.575,206.637 z" id="boundary" inkscape:connector-curvature="0" />
	<path style="fill:none;stroke:red;stroke-width:1px;stroke-linecap:butt;stroke-linejoin:miter;stroke-opacity:1" d="M 832.048,5.84215 841.259,4.92108 z" id="boundary" inkscape:connector-curvature="0" />
	<path style="fill:none;stroke:red;stroke-width:1px;stroke-linecap:butt;stroke-linejoin:miter;stroke-opacity:1" d="M 837.575,206.637 846.786,205.716 z" id="boundary" inkscape:connector-curvature="0" />
	<path style="fill:none;stroke:red;stroke-width:1px;stroke-linecap:butt;stroke-linejoin:miter;stroke-opacity:1" d="M 841.259,4.92108 850.47,4 z" id="boundary" inkscape:connector-curvature="0" />
	<path style="fill:none;stroke:red;stroke-width:1px;stroke-linecap:butt;stroke-linejoin:miter;stroke-opacity:1" d="M 846.786,205.716 855.996,204.795 z" id="boundary" inkscape:connector-curvature="0" />
	<path style="fill:none;stroke:red;stroke-width:1px;stroke-linecap:butt;stroke-linejoin:miter;stroke-opacity:1" d="M 850.47,4 859.681,4 z" id="boundary" inkscape:connector-curvature="0" />
	<path style="fill:none;stroke:red;stroke-width:1px;stroke-linecap:butt;stroke-linejoin:miter;stroke-opacity:1" d="M 855.996,204.795 865.207,202.953 z" id="boundary" inkscape:connector-curvature="0" />
	<path style="fill:none;stroke:red;stroke-width:1px;stroke-linecap:butt;stroke-linejoin:miter;stroke-opacity:1" d="M 859.681,4 868.891,4 z" id="boundary" inkscape:connector-curvature="0" />
	<path style="fill:none;stroke:red;stroke-width:1px;stroke-linecap:butt;stroke-linejoin:miter;stroke-opacity:1" d="M 865.207,202.953 874.418,202.032 z" id="boundary" inkscape:connector-curvature="0" />
	<path style="fill:none;stroke:red;stroke-width:1px;stroke-linecap:butt;stroke-linejoin:miter;stroke-opacity:1" d="M 868.891,4 878.102,4.92108 z" id="boundary" inkscape:connector-curvature="0" />
	<path style="fill:none;stroke:red;stroke-width:1px;stroke-linecap:butt;stroke-linejoin:miter;stroke-opacity:1" d="M 874.418,202.032 883.629,200.189 z" id="boundary" inkscape:connector-curvature="0" />
	<path style="fill:none;stroke:red;stroke-width:1px;stroke-linecap:butt;stroke-linejoin:miter;stroke-opacity:1" d="M 878.102,4.92108 887.313,4.92108 z" id="boundary" inkscape:connector-curvature="0" />
	<path style="fill:none;stroke:red;stroke-width:1px;stroke-linecap:butt;stroke-linejoin:miter;stroke-opacity:1" d="M 883.629,200.189 892.839,199.268 z" id="boundary" inkscape:connector-curvature="0" />
	<path style="fill:none;stroke:red;stroke-width:1px;stroke-linecap:butt;stroke-linejoin:miter;stroke-opacity:1" d="M 887.313,4.92108 896.524,5.84215 z" id="boundary" inkscape:connector-curvature="0" />
	<path style="fill:none;stroke:red;stroke-width:1px;stroke-linecap:butt;stroke-linejoin:miter;stroke-opacity:1" d="M 892.839,199.268 902.05,196.505 z" id="boundary" inkscape:connector-curvature="0" />
	<path style="fill:none;stroke:red;stroke-width:1px;stroke-linecap:butt;stroke-linejoin:miter;stroke-opacity:1" d="M 896.524,5.84215 905.734,7.68431 z" id="boundary" inkscape:connector-curvature="0" />
	<path style="fill:none;stroke:red;stroke-width:1px;stroke-linecap:butt;stroke-linejoin:miter;stroke-opacity:1" d="M 902.05,196.505 911.261,195.584 z" id="boundary" inkscape:connector-curvature="0" />
	<path style="fill:none;stroke:red;stroke-width:1px;stroke-linecap:butt;stroke-linejoin:miter;stroke-opacity:1" d="M 905.734,7.68431 914.945,9.52646 z" id="boundary" inkscape:connector-curvature="0" />
	<path style="fill:none;stroke:red;stroke-width:1px;stroke-linecap:butt;stroke-linejoin:miter;stroke-opacity:1" d="M 911.261,195.584 920.472,192.821 z" id="boundary" inkscape:connector-curvature="0" />
	<path style="fill:none;stroke:red;stroke-width:1px;stroke-linecap:butt;stroke-linejoin:miter;stroke-opacity:1" d="M 914.945,9.52646 924.156,12.2897 z" id="boundary" inkscape:connector-curvature="0" />
	<path style="fill:none;stroke:red;stroke-width:1px;stroke-linecap:butt;stroke-linejoin:miter;stroke-opacity:1" d="M 920.472,192.821 929.682,190.058 z" id="boundary" inkscape:connector-curvature="0" />
	<path style="fill:none;stroke:red;stroke-width:1px;stroke-linecap:butt;stroke-linejoin:miter;stroke-opacity:1" d="M 924.156,12.2897 933.367,15.0529 z" id="boundary" inkscape:connector-curvature="0" />
	<path style="fill:none;stroke:red;stroke-width:1px;stroke-linecap:butt;stroke-linejoin:miter;stroke-opacity:1" d="M 929.682,190.058 938.893,187.294 z" id="boundary" inkscape:connector-curvature="0" />
	<path style="fill:none;stroke:red;stroke-width:1px;stroke-linecap:butt;stroke-linejoin:miter;stroke-opacity:1" d="M 933.367,15.0529 942.578,17.8162 z" id="boundary" inkscape:connector-curvature="0" />
	<path style="fill:none;stroke:red;stroke-width:1px;stroke-linecap:butt;stroke-linejoin:miter;stroke-opacity:1" d="M 938.893,187.294 947.183,182.689 z" id="boundary" inkscape:connector-curvature="0" />
	<path style="fill:none;stroke:red;stroke-width:1px;stroke-linecap:butt;stroke-linejoin:miter;stroke-opacity:1" d="M 942.578,17.8162 951.788,21.5005 z" id="boundary" inkscape:connector-curvature="0" />
	<path style="fill:none;stroke:red;stroke-width:1px;stroke-linecap:butt;stroke-linejoin:miter;stroke-opacity:1" d="M 947.183,182.689 956.394,179.926 z" id="boundary" inkscape:connector-curvature="0" />
	<path style="fill:none;stroke:red;stroke-width:1px;stroke-linecap:butt;stroke-linejoin:miter;stroke-opacity:1" d="M 951.788,21.5005 969.289,29.7902 z" id="boundary" inkscape:connector-curvature="0" />
	<path style="fill:none;stroke:red;stroke-width:1px;stroke-linecap:butt;stroke-linejoin:miter;stroke-opacity:1" d="M 956.394,179.926 964.683,175.32 z" id="boundary" inkscape:connector-curvature="0" />
	<path style="fill:none;stroke:red;stroke-width:1px;stroke-linecap:butt;stroke-linejoin:miter;stroke-opacity:1" d="M 964.683,175.32 978.5,160.583 z" id="boundary" inkscape:connector-curvature="0" />
	<path style="fill:none;stroke:red;stroke-width:1px;stroke-linecap:butt;stroke-linejoin:miter;stroke-opacity:1" d="M 969.289,29.7902 976.657,35.3166 z" id="boundary" inkscape:connector-curvature="0" />
	<path style="fill:none;stroke:red;stroke-width:1px;stroke-linecap:butt;stroke-linejoin:miter;stroke-opacity:1" d="M 976.657,35.3166 988.631,49.1328 z" id="boundary" inkscape:connector-curvature="0" />
	<path style="fill:none;stroke:red;stroke-width:1px;stroke-linecap:butt;stroke-linejoin:miter;stroke-opacity:1" d="M 978.5,160.583 984.026,151.372 z" id="boundary" inkscape:connector-curvature="0" />
	<path style="fill:none;stroke:red;stroke-width:1px;stroke-linecap:butt;stroke-linejoin:miter;stroke-opacity:1" d="M 984.026,151.372 987.71,141.24 z" id="boundary" inkscape:connector-curvature="0" />
	<path style="fill:none;stroke:red;stroke-width:1px;stroke-linecap:butt;stroke-linejoin:miter;stroke-opacity:1" d="M 987.71,141.24 991.395,129.266 z" id="boundary" inkscape:connector-curvature="0" />
	<path style="fill:none;stroke:red;stroke-width:1px;stroke-linecap:butt;stroke-linejoin:miter;stroke-opacity:1" d="M 988.631,49.1328 990.474,58.3435 z" id="boundary" inkscape:connector-curvature="0" />
	<path style="fill:none;stroke:red;stroke-width:1px;stroke-linecap:butt;stroke-linejoin:miter;stroke-opacity:1" d="M 990.474,58.3435 993.237,67.5543 z" id="boundary" inkscape:connector-curvature="0" />
	<path style="fill:none;stroke:red;stroke-width:1px;stroke-linecap:butt;stroke-linejoin:miter;stroke-opacity:1" d="M 991.395,129.266 994.158,118.214 z" id="boundary" inkscape:connector-curvature="0" />
	<path style="fill:none;stroke:red;stroke-width:1px;stroke-linecap:butt;stroke-linejoin:miter;stroke-opacity:1" d="M 993.237,67.5543 994.158,76.7651 z" id="boundary" inkscape:connector-curvature="0" />
	<path style="fill:none;stroke:red;stroke-width:1px;stroke-linecap:butt;stroke-linejoin:miter;stroke-opacity:1" d="M 994.158,76.7651 996,85.9759 z" id="boundary" inkscape:connector-curvature="0" />
	<path style="fill:none;stroke:red;stroke-width:1px;stroke-linecap:butt;stroke-linejoin:miter;stroke-opacity:1" d="M 994.158,118.214 995.079,107.161 z" id="boundary" inkscape:connector-curvature="0" />
	<path style="fill:none;stroke:red;stroke-width:1px;stroke-linecap:butt;stroke-linejoin:miter;stroke-opacity:1" d="M 995.079,107.161 996,95.1866 z" id="boundary" inkscape:connector-curvature="0" />
	<path style="fill:none;stroke:red;stroke-width:1px;stroke-linecap:butt;stroke-linejoin:miter;stroke-opacity:1" d="M 996,85.9759 996,95.1866 z" id="boundary" inkscape:connector-curvature="0" />
	<circle cx="4" cy="166.11" r="4" fill="#0" id="circle0"/>
	<circle cx="5.84215" cy="175.32" r="4" fill="#0" id="circle1"/>
	<circle cx="7.68431" cy="155.057" r="4" fill="#0" id="circle2"/>
	<circle cx="10.4475" cy="183.61" r="4" fill="#0" id="circle3"/>
	<circle cx="13.2108" cy="147.688" r="4" fill="#0" id="circle4"/>
	<circle cx="17.8162" cy="190.058" r="4" fill="#0" id="circle5"/>
	<circle cx="22.4215" cy="144.925" r="4" fill="#0" id="circle6"/>
	<circle cx="27.0269" cy="191.9" r="4" fill="#0" id="circle7"/>
	<circle cx="31.6323" cy="144.004" r="4" fill="#0" id="circle8"/>
	<circle cx="36.2377" cy="191.9" r="4" fill="#0" id="circle9"/>
	<circle cx="40.8431" cy="142.162" r="4" fill="#0" id="circle10"/>
	<circle cx="45.4485" cy="192.821" r="4" fill="#0" id="circle11"/>
	<circle cx="50.0539" cy="142.162" r="4" fill="#0" id="circle12"/>
	<circle cx="54.6592" cy="191.9" r="4" fill="#0" id="circle13"/>
	<circle cx="59.2646" cy="142.162" r="4" fill="#0" id="circle14"/>
	<circle cx="63.87" cy="190.979" r="4" fill="#0" id="circle15"/>
	<circle cx="68.4754" cy="141.24" r="4" fill="#0" id="circle16"/>
	<circle cx="73.0808" cy="190.058" r="4" fill="#0" id="circle17"/>
	<circle cx="77.6862" cy="140.319" r="4" fill="#0" id="circle18"/>
	<circle cx="82.2916" cy="189.136" r="4" fill="#0" id="circle19"/>
	<circle cx="86.8969" cy="139.398" r="4" fill="#0" id="circle20"/>
	<circle cx="91.5023" cy="189.136" r="4" fill="#0" id="circle21"/>
	<circle cx="96.1077" cy="139.398" r="4" fill="#0" id="circle22"/>
	<circle cx="100.713" cy="188.215" r="4" fill="#0" id="circle23"/>
	<circle cx="105.318" cy="137.556" r="4" fill="#0" id="circle24"/>
	<circle cx="109.924" cy="186.373" r="4" fill="#0" id="circle25"/>
	<circle cx="114.529" cy="137.556" r="4" fill="#0" id="circle26"/>
	<circle cx="119.135" cy="185.452" r="4" fill="#0" id="circle27"/>
	<circle cx="123.74" cy="135.714" r="4" fill="#0" id="circle28"/>
	<circle cx="128.345" cy="184.531" r="4" fill="#0" id="circle29"/>
	<circle cx="132.951" cy="134.793" r="4" fill="#0" id="circle30"/>
	<circle cx="137.556" cy="183.61" r="4" fill="#0" id="circle31"/>
	<circle cx="142.162" cy="134.793" r="4" fill="#0" id="circle32"/>
	<circle cx="146.767" cy="183.61" r="4" fill="#0" id="circle33"/>
	<circle cx="151.372" cy="133.872" r="4" fill="#0" id="circle34"/>
	<circle cx="155.978" cy="182.689" r="4" fill="#0" id="circle35"/>
	<circle cx="160.583" cy="132.951" r="4" fill="#0" id="circle36"/>
	<circle cx="165.188" cy="181.768" r="4" fill="#0" id="circle37"/>
	<circle cx="169.794" cy="132.03" r="4" fill="#0" id="circle38"/>
	<circle cx="174.399" cy="179.926" r="4" fill="#0" id="circle39"/>
	<circle cx="179.005" cy="131.109" r="4" fill="#0" id="circle40"/>
	<circle cx="183.61" cy="177.162" r="4" fill="#0" id="circle41"/>
	<circle cx="188.215" cy="130.188" r="4" fill="#0" id="circle42"/>
	<circle cx="192.821" cy="177.162" r="4" fill="#0" id="circle43"/>
	<circle cx="197.426" cy="129.266" r="4" fill="#0" id="circle44"/>
	<circle cx="202.032" cy="176.241" r="4" fill="#0" id="circle45"/>
	<circle cx="206.637" cy="129.266" r="4" fill="#0" id="circle46"/>
	<circle cx="211.242" cy="176.241" r="4" fill="#0" id="circle47"/>
	<circle cx="215.848" cy="129.266" r="4" fill="#0" id="circle48"/>
	<circle cx="220.453" cy="175.32" r="4" fill="#0" id="circle49"/>
	<circle cx="225.058" cy="128.345" r="4" fill="#0" id="circle50"/>
	<circle cx="229.664" cy="173.478" r="4" fill="#0" id="circle51"/>
	<circle cx="234.269" cy="128.345" r="4" fill="#0" id="circle52"/>
	<circle cx="238.875" cy="173.478" r="4" fill="#0" id="circle53"/>
	<circle cx="243.48" cy="127.424" r="4" fill="#0" id="circle54"/>
	<circle cx="248.085" cy="173.478" r="4" fill="#0" id="circle55"/>
	<circle cx="252.691" cy="126.503" r="4" fill="#0" id="circle56"/>
	<circle cx="257.296" cy="172.557" r="4" fill="#0" id="circle57"/>
	<circle cx="261.902" cy="126.503" r="4" fill="#0" id="circle58"/>
	<circle cx="266.507" cy="170.715" r="4" fill="#0" id="circle59"/>
	<circle cx="271.112" cy="125.582" r="4" fill="#0" id="circle60"/>
	<circle cx="275.718" cy="167.952" r="4" fill="#0" id="circle61"/>
	<circle cx="280.323" cy="124.661" r="4" fill="#0" id="circle62"/>
	<circle cx="284.929" cy="167.031" r="4" fill="#0" id="circle63"/>
	<circle cx="289.534" cy="123.74" r="4" fill="#0" id="circle64"/>
	<circle cx="294.139" cy="167.031" r="4" fill="#0" id="circle65"/>
	<circle cx="298.745" cy="122.819" r="4" fill="#0" id="circle66"/>
	<circle cx="303.35" cy="167.031" r="4" fill="#0" id="circle67"/>
	<circle cx="307.955" cy="121.898" r="4" fill="#0" id="circle68"/>
	<circle cx="312.561" cy="167.031" r="4" fill="#0" id="circle69"/>
	<circle cx="317.166" cy="120.977" r="4" fill="#0" id="circle70"/>
	<circle cx="321.772" cy="167.031" r="4" fill="#0" id="circle71"/>
	<circle cx="326.377" cy="120.056" r="4" fill="#0" id="circle72"/>
	<circle cx="330.982" cy="166.11" r="4" fill="#0" id="circle73"/>
	<circle cx="335.588" cy="120.056" r="4" fill="#0" id="circle74"/>
	<circle cx="340.193" cy="165.188" r="4" fill="#0" id="circle75"/>
	<circle cx="344.799" cy="118.214" r="4" fill="#0" id="circle76"/>
	<circle cx="349.404" cy="163.346" r="4" fill="#0" id="circle77"/>
	<circle cx="354.009" cy="117.292" r="4" fill="#0" id="circle78"/>
	<circle cx="358.615" cy="163.346" r="4" fill="#0" id="circle79"/>
	<circle cx="363.22" cy="116.371" r="4" fill="#0" id="circle80"/>
	<circle cx="367.825" cy="162.425" r="4" fill="#0" id="circle81"/>
	<circle cx="372.431" cy="115.45" r="4" fill="#0" id="circle82"/>
	<circle cx="377.036" cy="161.504" r="4" fill="#0" id="circle83"/>
	<circle cx="381.642" cy="114.529" r="4" fill="#0" id="circle84"/>
	<circle cx="386.247" cy="159.662" r="4" fill="#0" id="circle85"/>
	<circle cx="390.852" cy="114.529" r="4" fill="#0" id="circle86"/>
	<circle cx="395.458" cy="159.662" r="4" fill="#0" id="circle87"/>
	<circle cx="400.063" cy="113.608" r="4" fill="#0" id="circle88"/>
	<circle cx="404.669" cy="160.583" r="4" fill="#0" id="circle89"/>
	<circle cx="409.274" cy="111.766" r="4" fill="#0" id="circle90"/>
	<circle cx="413.879" cy="159.662" r="4" fill="#0" id="circle91"/>
	<circle cx="418.485" cy="110.845" r="4" fill="#0" id="circle92"/>
	<circle cx="423.09" cy="157.82" r="4" fill="#0" id="circle93"/>
	<circle cx="427.695" cy="110.845" r="4" fill="#0" id="circle94"/>
	<circle cx="432.301" cy="157.82" r="4" fill="#0" id="circle95"/>
	<circle cx="436.906" cy="109.924" r="4" fill="#0" id="circle96"/>
	<circle cx="441.512" cy="156.899" r="4" fill="#0" id="circle97"/>
	<circle cx="446.117" cy="109.003" r="4" fill="#0" id="circle98"/>
	<circle cx="450.722" cy="155.978" r="4" fill="#0" id="circle99"/>
	<circle cx="455.328" cy="107.161" r="4" fill="#0" id="circle100"/>
	<circle cx="459.933" cy="155.978" r="4" fill="#0" id="circle101"/>
	<circle cx="464.539" cy="107.161" r="4" fill="#0" id="circle102"/>
	<circle cx="469.144" cy="155.978" r="4" fill="#0" id="circle103"/>
	<circle cx="473.749" cy="106.24" r="4" fill="#0" id="circle104"/>
	<circle cx="478.355" cy="155.057" r="4" fill="#0" id="circle105"/>
	<circle cx="482.96" cy="105.318" r="4" fill="#0" id="circle106"/>
	<circle cx="487.565" cy="154.136" r="4" fill="#0" id="circle107"/>
	<circle cx="492.171" cy="104.397" r="4" fill="#0" id="circle108"/>
	<circle cx="496.776" cy="154.136" r="4" fill="#0" id="circle109"/>
	<circle cx="501.382" cy="103.476" r="4" fill="#0" id="circle110"/>
	<circle cx="505.987" cy="153.214" r="4" fill="#0" id="circle111"/>
	<circle cx="510.592" cy="101.634" r="4" fill="#0" id="circle112"/>
	<circle cx="515.198" cy="153.214" r="4" fill="#0" id="circle113"/>
	<circle cx="519.803" cy="100.713" r="4" fill="#0" id="circle114"/>
	<circle cx="524.409" cy="153.214" r="4" fill="#0" id="circle115"/>
	<circle cx="529.014" cy="98.8709" r="4" fill="#0" id="circle116"/>
	<circle cx="533.619" cy="154.136" r="4" fill="#0" id="circle117"/>
	<circle cx="538.225" cy="97.0288" r="4" fill="#0" id="circle118"/>
	<circle cx="542.83" cy="154.136" r="4" fill="#0" id="circle119"/>
	<circle cx="547.435" cy="95.1866" r="4" fill="#0" id="circle120"/>
	<circle cx="552.041" cy="154.136" r="4" fill="#0" id="circle121"/>
	<circle cx="556.646" cy="92.4234" r="4" fill="#0" id="circle122"/>
	<circle cx="561.252" cy="155.057" r="4" fill="#0" id="circle123"/>
	<circle cx="565.857" cy="89.6602" r="4" fill="#0" id="circle124"/>
	<circle cx="570.462" cy="155.978" r="4" fill="#0" id="circle125"/>
	<circle cx="575.068" cy="86.8969" r="4" fill="#0" id="circle126"/>
	<circle cx="579.673" cy="156.899" r="4" fill="#0" id="circle127"/>
	<circle cx="584.279" cy="84.1337" r="4" fill="#0" id="circle128"/>
	<circle cx="588.884" cy="158.741" r="4" fill="#0" id="circle129"/>
	<circle cx="593.489" cy="81.3705" r="4" fill="#0" id="circle130"/>
	<circle cx="598.095" cy="159.662" r="4" fill="#0" id="circle131"/>
	<circle cx="602.7" cy="78.6072" r="4" fill="#0" id="circle132"/>
	<circle cx="607.305" cy="160.583" r="4" fill="#0" id="circle133"/>
	<circle cx="611.911" cy="74.9229" r="4" fill="#0" id="circle134"/>
	<circle cx="616.516" cy="164.267" r="4" fill="#0" id="circle135"/>
	<circle cx="621.122" cy="71.2386" r="4" fill="#0" id="circle136"/>
	<circle cx="625.727" cy="166.11" r="4" fill="#0" id="circle137"/>
	<circle cx="630.332" cy="67.5543" r="4" fill="#0" id="circle138"/>
	<circle cx="634.938" cy="168.873" r="4" fill="#0" id="circle139"/>
	<circle cx="638.622" cy="62.9489" r="4" fill="#0" id="circle140"/>
	<circle cx="644.149" cy="171.636" r="4" fill="#0" id="circle141"/>
	<circle cx="647.833" cy="60.1857" r="4" fill="#0" id="circle142"/>
	<circle cx="653.359" cy="175.32" r="4" fill="#0" id="circle143"/>
	<circle cx="657.044" cy="55.5803" r="4" fill="#0" id="circle144"/>
	<circle cx="662.57" cy="176.241" r="4" fill="#0" id="circle145"/>
	<circle cx="666.254" cy="51.896" r="4" fill="#0" id="circle146"/>
	<circle cx="671.781" cy="179.005" r="4" fill="#0" id="circle147"/>
	<circle cx="675.465" cy="49.1328" r="4" fill="#0" id="circle148"/>
	<circle cx="680.992" cy="181.768" r="4" fill="#0" id="circle149"/>
	<circle cx="684.676" cy="45.4485" r="4" fill="#0" id="circle150"/>
	<circle cx="690.202" cy="184.531" r="4" fill="#0" id="circle151"/>
	<circle cx="693.887" cy="41.7642" r="4" fill="#0" id="circle152"/>
	<circle cx="699.413" cy="186.373" r="4" fill="#0" id="circle153"/>
	<circle cx="703.097" cy="38.0799" r="4" fill="#0" id="circle154"/>
	<circle cx="708.624" cy="190.058" r="4" fill="#0" id="circle155"/>
	<circle cx="712.308" cy="34.3955" r="4" fill="#0" id="circle156"/>
	<circle cx="717.835" cy="191.9" r="4" fill="#0" id="circle157"/>
	<circle cx="721.519" cy="31.6323" r="4" fill="#0" id="circle158"/>
	<circle cx="727.045" cy="193.742" r="4" fill="#0" id="circle159"/>
	<circle cx="730.73" cy="28.8691" r="4" fill="#0" id="circle160"/>
	<circle cx="736.256" cy="195.584" r="4" fill="#0" id="circle161"/>
	<circle cx="739.941" cy="25.1848" r="4" fill="#0" id="circle162"/>
	<circle cx="745.467" cy="198.347" r="4" fill="#0" id="circle163"/>
	<circle cx="749.151" cy="21.5005" r="4" fill="#0" id="circle164"/>
	<circle cx="754.678" cy="200.189" r="4" fill="#0" id="circle165"/>
	<circle cx="758.362" cy="18.7372" r="4" fill="#0" id="circle166"/>
	<circle cx="763.889" cy="201.11" r="4" fill="#0" id="circle167"/>
	<circle cx="767.573" cy="15.974" r="4" fill="#0" id="circle168"/>
	<circle cx="773.099" cy="202.032" r="4" fill="#0" id="circle169"/>
	<circle cx="776.784" cy="14.1318" r="4" fill="#0" id="circle170"/>
	<circle cx="782.31" cy="203.874" r="4" fill="#0" id="circle171"/>
	<circle cx="785.994" cy="12.2897" r="4" fill="#0" id="circle172"/>
	<circle cx="791.521" cy="204.795" r="4" fill="#0" id="circle173"/>
	<circle cx="795.205" cy="11.3686" r="4" fill="#0" id="circle174"/>
	<circle cx="800.732" cy="205.716" r="4" fill="#0" id="circle175"/>
	<circle cx="804.416" cy="8.60539" r="4" fill="#0" id="circle176"/>
	<circle cx="809.942" cy="206.637" r="4" fill="#0" id="circle177"/>
	<circle cx="813.627" cy="7.68431" r="4" fill="#0" id="circle178"/>
	<circle cx="819.153" cy="206.637" r="4" fill="#0" id="circle179"/>
	<circle cx="822.838" cy="6.76323" r="4" fill="#0" id="circle180"/>
	<circle cx="828.364" cy="206.637" r="4" fill="#0" id="circle181"/>
	<circle cx="832.048" cy="5.84215" r="4" fill="#0" id="circle182"/>
	<circle cx="837.575" cy="206.637" r="4" fill="#0" id="circle183"/>
	<circle cx="841.259" cy="4.92108" r="4" fill="#0" id="circle184"/>
	<circle cx="846.786" cy="205.716" r="4" fill="#0" id="circle185"/>
	<circle cx="850.47" cy="4" r="4" fill="#0" id="circle186"/>
	<circle cx="855.996" cy="204.795" r="4" fill="#0" id="circle187"/>
	<circle cx="859.681" cy="4" r="4" fill="#0" id="circle188"/>
	<circle cx="865.207" cy="202.953" r="4" fill="#0" id="circle189"/>
	<circle cx="868.891" cy="4" r="4" fill="#0" id="circle190"/>
	<circle cx="874.418" cy="202.032" r="4" fill="#0" id="circle191"/>
	<circle cx="878.102" cy="4.92108" r="4" fill="#0" id="circle192"/>
	<circle cx="883.629" cy="200.189" r="4" fill="#0" id="circle193"/>
	<circle cx="887.313" cy="4.92108" r="4" fill="#0" id="circle194"/>
	<circle cx="892.839" cy="199.268" r="4" fill="#0" id="circle195"/>
	<circle cx="896.524" cy="5.84215" r="4" fill="#0" id="circle196"/>
	<circle cx="902.05" cy="196.505" r="4" fill="#0" id="circle197"/>
	<circle cx="905.734" cy="7.68431" r="4" fill="#0" id="circle198"/>
	<circle cx="911.261" cy="195.584" r="4" fill="#0" id="circle199"/>
	<circle cx="914.945" cy="9.52646" r="4" fill="#0" id="circle200"/>
	<circle cx="920.472" cy="192.821" r="4" fill="#0" id="circle201"/>
	<circle cx="924.156" cy="12.2897" r="4" fill="#0" id="circle202"/>
	<circle cx="929.682" cy="190.058" r="4" fill="#0" id="circle203"/>
	<circle cx="933.367" cy="15.0529" r="4" fill="#0" id="circle204"/>
	<circle cx="938.893" cy="187.294" r="4" fill="#0" id="circle205"/>
	<circle cx="942.578" cy="17.8162" r="4" fill="#0" id="circle206"/>
	<circle cx="947.183" cy="182.689" r="4" fill="#0" id="circle207"/>
	<circle cx="951.788" cy="21.5005" r="4" fill="#0" id="circle208"/>
	<circle cx="956.394" cy="179.926" r="4" fill="#0" id="circle209"/>
	<circle cx="960.078" cy="26.1058" r="4" fill="#0" id="circle210"/>
	<circle cx="964.683" cy="175.32" r="4" fill="#0" id="circle211"/>
	<circle cx="969.289" cy="29.7902" r="4" fill="#0" id="circle212"/>
	<circle cx="972.052" cy="168.873" r="4" fill="#0" id="circle213"/>
	<circle cx="976.657" cy="35.3166" r="4" fill="#0" id="circle214"/>
	<circle cx="978.5" cy="160.583" r="4" fill="#0" id="circle215"/>
	<circle cx="984.026" cy="40.8431" r="4" fill="#0" id="circle216"/>
	<circle cx="984.026" cy="151.372" r="4" fill="#0" id="circle217"/>
	<circle cx="987.71" cy="141.24" r="4" fill="#0" id="circle218"/>
	<circle cx="988.631" cy="49.1328" r="4" fill="#0" id="circle219"/>
	<circle cx="990.474" cy="58.3435" r="4" fill="#0" id="circle220"/>
	<circle cx="991.395" cy="129.266" r="4" fill="#0" id="circle221"/>
	<circle cx="993.237" cy="67.5543" r="4" fill="#0" id="circle222"/>
	<circle cx="994.158" cy="76.7651" r="4" fill="#0" id="circle223"/>
	<circle cx="994.158" cy="118.214" r="4" fill="#0" id="circle224"/>
	<circle cx="995.079" cy="107.161" r="4" fill="#0" id="circle225"/>
	<circle cx="996" cy="85.9759" r="4" fill="#0" id="circle226"/>
	<circle cx="996" cy="95.1866" r="4" fill="#0" id="circle227"/>
	</g>
</svg>