<?xml version="1.0" encoding="UTF-8" standalone="no"?>
<!-- Created with CurveBenchmark -->
<svg
	xmlns:dc="http://purl.org/dc/elements/1.1/"
	xmlns:cc="http://creativecommons.org/ns#"
	xmlns:rdf="http://www.w3.org/1999/02/22-rdf-syntax-ns#"
	xmlns:svg="http://www.w3.org/2000/svg"
	xmlns="http://www.w3.org/2000/svg"
	xmlns:sodipodi="http://sodipodi.sourceforge.net/DTD/sodipodi-0.dtd"
	xmlns:inkscape="http://www.inkscape.org/namespaces/inkscape"
	width="1000"
	height="1000"
	id="svg2"
	version="1.1"
	sodipodi:docname="manifold/discur-children11.png.txt">
<defs
	id="defs4" />
<metadata
	id="metadata7">
	<rdf:RDF>
		<cc:Work
			rdf:about="">
			<dc:format>image/svg+xml</dc:format>
			<dc:type
				rdf:resource="http://purl.org/dc/dcmitype/StillImage" />
			<dc:title></dc:title>
		</cc:Work>
	</rdf:RDF>
</metadata>
<g
	inkscape:label="Layer 1"
	inkscape:groupmode="layer"
	id="layer1">
	<path style="fill:none;stroke:red;stroke-width:1px;stroke-linecap:butt;stroke-linejoin:miter;stroke-opacity:1" d="M 4,306.057 4,322.562 z" id="boundary" inkscape:connector-curvature="0" />
	<path style="fill:none;stroke:red;stroke-width:1px;stroke-linecap:butt;stroke-linejoin:miter;stroke-opacity:1" d="M 4,306.057 12.2529,289.551 z" id="boundary" inkscape:connector-curvature="0" />
	<path style="fill:none;stroke:red;stroke-width:1px;stroke-linecap:butt;stroke-linejoin:miter;stroke-opacity:1" d="M 4,322.562 4,339.068 z" id="boundary" inkscape:connector-curvature="0" />
	<path style="fill:none;stroke:red;stroke-width:1px;stroke-linecap:butt;stroke-linejoin:miter;stroke-opacity:1" d="M 4,339.068 4,355.574 z" id="boundary" inkscape:connector-curvature="0" />
	<path style="fill:none;stroke:red;stroke-width:1px;stroke-linecap:butt;stroke-linejoin:miter;stroke-opacity:1" d="M 4,355.574 4,372.08 z" id="boundary" inkscape:connector-curvature="0" />
	<path style="fill:none;stroke:red;stroke-width:1px;stroke-linecap:butt;stroke-linejoin:miter;stroke-opacity:1" d="M 4,372.08 12.2529,386.935 z" id="boundary" inkscape:connector-curvature="0" />
	<path style="fill:none;stroke:red;stroke-width:1px;stroke-linecap:butt;stroke-linejoin:miter;stroke-opacity:1" d="M 12.2529,289.551 25.4576,276.346 z" id="boundary" inkscape:connector-curvature="0" />
	<path style="fill:none;stroke:red;stroke-width:1px;stroke-linecap:butt;stroke-linejoin:miter;stroke-opacity:1" d="M 12.2529,386.935 12.2529,403.441 z" id="boundary" inkscape:connector-curvature="0" />
	<path style="fill:none;stroke:red;stroke-width:1px;stroke-linecap:butt;stroke-linejoin:miter;stroke-opacity:1" d="M 12.2529,403.441 12.2529,419.947 z" id="boundary" inkscape:connector-curvature="0" />
	<path style="fill:none;stroke:red;stroke-width:1px;stroke-linecap:butt;stroke-linejoin:miter;stroke-opacity:1" d="M 12.2529,419.947 12.2529,436.453 z" id="boundary" inkscape:connector-curvature="0" />
	<path style="fill:none;stroke:red;stroke-width:1px;stroke-linecap:butt;stroke-linejoin:miter;stroke-opacity:1" d="M 12.2529,436.453 12.2529,452.958 z" id="boundary" inkscape:connector-curvature="0" />
	<path style="fill:none;stroke:red;stroke-width:1px;stroke-linecap:butt;stroke-linejoin:miter;stroke-opacity:1" d="M 12.2529,452.958 20.5058,467.814 z" id="boundary" inkscape:connector-curvature="0" />
	<path style="fill:none;stroke:red;stroke-width:1px;stroke-linecap:butt;stroke-linejoin:miter;stroke-opacity:1" d="M 20.5058,74.975 20.5058,91.4809 z" id="boundary" inkscape:connector-curvature="0" />
	<path style="fill:none;stroke:red;stroke-width:1px;stroke-linecap:butt;stroke-linejoin:miter;stroke-opacity:1" d="M 20.5058,74.975 28.7587,58.4692 z" id="boundary" inkscape:connector-curvature="0" />
	<path style="fill:none;stroke:red;stroke-width:1px;stroke-linecap:butt;stroke-linejoin:miter;stroke-opacity:1" d="M 20.5058,91.4809 20.5058,107.987 z" id="boundary" inkscape:connector-curvature="0" />
	<path style="fill:none;stroke:red;stroke-width:1px;stroke-linecap:butt;stroke-linejoin:miter;stroke-opacity:1" d="M 20.5058,107.987 20.5058,124.493 z" id="boundary" inkscape:connector-curvature="0" />
	<path style="fill:none;stroke:red;stroke-width:1px;stroke-linecap:butt;stroke-linejoin:miter;stroke-opacity:1" d="M 20.5058,124.493 28.7587,139.348 z" id="boundary" inkscape:connector-curvature="0" />
	<path style="fill:none;stroke:red;stroke-width:1px;stroke-linecap:butt;stroke-linejoin:miter;stroke-opacity:1" d="M 20.5058,467.814 20.5058,484.319 z" id="boundary" inkscape:connector-curvature="0" />
	<path style="fill:none;stroke:red;stroke-width:1px;stroke-linecap:butt;stroke-linejoin:miter;stroke-opacity:1" d="M 20.5058,484.319 28.7587,499.175 z" id="boundary" inkscape:connector-curvature="0" />
	<path style="fill:none;stroke:red;stroke-width:1px;stroke-linecap:butt;stroke-linejoin:miter;stroke-opacity:1" d="M 25.4576,276.346 38.6622,263.141 z" id="boundary" inkscape:connector-curvature="0" />
	<path style="fill:none;stroke:red;stroke-width:1px;stroke-linecap:butt;stroke-linejoin:miter;stroke-opacity:1" d="M 28.7587,58.4692 41.9634,45.2646 z" id="boundary" inkscape:connector-curvature="0" />
	<path style="fill:none;stroke:red;stroke-width:1px;stroke-linecap:butt;stroke-linejoin:miter;stroke-opacity:1" d="M 28.7587,139.348 37.0116,154.203 z" id="boundary" inkscape:connector-curvature="0" />
	<path style="fill:none;stroke:red;stroke-width:1px;stroke-linecap:butt;stroke-linejoin:miter;stroke-opacity:1" d="M 28.7587,499.175 37.0116,514.03 z" id="boundary" inkscape:connector-curvature="0" />
	<path style="fill:none;stroke:red;stroke-width:1px;stroke-linecap:butt;stroke-linejoin:miter;stroke-opacity:1" d="M 37.0116,154.203 46.9151,167.408 z" id="boundary" inkscape:connector-curvature="0" />
	<path style="fill:none;stroke:red;stroke-width:1px;stroke-linecap:butt;stroke-linejoin:miter;stroke-opacity:1" d="M 37.0116,514.03 37.0116,530.536 z" id="boundary" inkscape:connector-curvature="0" />
	<path style="fill:none;stroke:red;stroke-width:1px;stroke-linecap:butt;stroke-linejoin:miter;stroke-opacity:1" d="M 37.0116,530.536 37.0116,547.042 z" id="boundary" inkscape:connector-curvature="0" />
	<path style="fill:none;stroke:red;stroke-width:1px;stroke-linecap:butt;stroke-linejoin:miter;stroke-opacity:1" d="M 37.0116,547.042 37.0116,563.547 z" id="boundary" inkscape:connector-curvature="0" />
	<path style="fill:none;stroke:red;stroke-width:1px;stroke-linecap:butt;stroke-linejoin:miter;stroke-opacity:1" d="M 37.0116,563.547 38.6622,580.053 z" id="boundary" inkscape:connector-curvature="0" />
	<path style="fill:none;stroke:red;stroke-width:1px;stroke-linecap:butt;stroke-linejoin:miter;stroke-opacity:1" d="M 38.6622,263.141 51.8669,251.587 z" id="boundary" inkscape:connector-curvature="0" />
	<path style="fill:none;stroke:red;stroke-width:1px;stroke-linecap:butt;stroke-linejoin:miter;stroke-opacity:1" d="M 38.6622,580.053 45.2646,596.559 z" id="boundary" inkscape:connector-curvature="0" />
	<path style="fill:none;stroke:red;stroke-width:1px;stroke-linecap:butt;stroke-linejoin:miter;stroke-opacity:1" d="M 41.9634,45.2646 55.1681,32.0599 z" id="boundary" inkscape:connector-curvature="0" />
	<path style="fill:none;stroke:red;stroke-width:1px;stroke-linecap:butt;stroke-linejoin:miter;stroke-opacity:1" d="M 45.2646,596.559 45.2646,613.065 z" id="boundary" inkscape:connector-curvature="0" />
	<path style="fill:none;stroke:red;stroke-width:1px;stroke-linecap:butt;stroke-linejoin:miter;stroke-opacity:1" d="M 45.2646,613.065 46.9151,629.571 z" id="boundary" inkscape:connector-curvature="0" />
	<path style="fill:none;stroke:red;stroke-width:1px;stroke-linecap:butt;stroke-linejoin:miter;stroke-opacity:1" d="M 46.9151,167.408 60.1198,178.962 z" id="boundary" inkscape:connector-curvature="0" />
	<path style="fill:none;stroke:red;stroke-width:1px;stroke-linecap:butt;stroke-linejoin:miter;stroke-opacity:1" d="M 46.9151,629.571 55.1681,644.426 z" id="boundary" inkscape:connector-curvature="0" />
	<path style="fill:none;stroke:red;stroke-width:1px;stroke-linecap:butt;stroke-linejoin:miter;stroke-opacity:1" d="M 51.8669,251.587 63.421,238.383 z" id="boundary" inkscape:connector-curvature="0" />
	<path style="fill:none;stroke:red;stroke-width:1px;stroke-linecap:butt;stroke-linejoin:miter;stroke-opacity:1" d="M 55.1681,32.0599 71.6739,23.807 z" id="boundary" inkscape:connector-curvature="0" />
	<path style="fill:none;stroke:red;stroke-width:1px;stroke-linecap:butt;stroke-linejoin:miter;stroke-opacity:1" d="M 55.1681,644.426 61.7704,660.932 z" id="boundary" inkscape:connector-curvature="0" />
	<path style="fill:none;stroke:red;stroke-width:1px;stroke-linecap:butt;stroke-linejoin:miter;stroke-opacity:1" d="M 60.1198,178.962 70.0233,192.166 z" id="boundary" inkscape:connector-curvature="0" />
	<path style="fill:none;stroke:red;stroke-width:1px;stroke-linecap:butt;stroke-linejoin:miter;stroke-opacity:1" d="M 61.7704,660.932 74.975,672.486 z" id="boundary" inkscape:connector-curvature="0" />
	<path style="fill:none;stroke:red;stroke-width:1px;stroke-linecap:butt;stroke-linejoin:miter;stroke-opacity:1" d="M 63.421,238.383 70.0233,208.672 z" id="boundary" inkscape:connector-curvature="0" />
	<path style="fill:none;stroke:red;stroke-width:1px;stroke-linecap:butt;stroke-linejoin:miter;stroke-opacity:1" d="M 70.0233,192.166 70.0233,208.672 z" id="boundary" inkscape:connector-curvature="0" />
	<path style="fill:none;stroke:red;stroke-width:1px;stroke-linecap:butt;stroke-linejoin:miter;stroke-opacity:1" d="M 71.6739,23.807 88.1797,15.5541 z" id="boundary" inkscape:connector-curvature="0" />
	<path style="fill:none;stroke:red;stroke-width:1px;stroke-linecap:butt;stroke-linejoin:miter;stroke-opacity:1" d="M 74.975,672.486 86.5291,685.691 z" id="boundary" inkscape:connector-curvature="0" />
	<path style="fill:none;stroke:red;stroke-width:1px;stroke-linecap:butt;stroke-linejoin:miter;stroke-opacity:1" d="M 86.5291,685.691 94.782,700.546 z" id="boundary" inkscape:connector-curvature="0" />
	<path style="fill:none;stroke:red;stroke-width:1px;stroke-linecap:butt;stroke-linejoin:miter;stroke-opacity:1" d="M 86.5291,784.725 86.5291,801.231 z" id="boundary" inkscape:connector-curvature="0" />
	<path style="fill:none;stroke:red;stroke-width:1px;stroke-linecap:butt;stroke-linejoin:miter;stroke-opacity:1" d="M 86.5291,784.725 94.782,759.967 z" id="boundary" inkscape:connector-curvature="0" />
	<path style="fill:none;stroke:red;stroke-width:1px;stroke-linecap:butt;stroke-linejoin:miter;stroke-opacity:1" d="M 86.5291,801.231 86.5291,817.737 z" id="boundary" inkscape:connector-curvature="0" />
	<path style="fill:none;stroke:red;stroke-width:1px;stroke-linecap:butt;stroke-linejoin:miter;stroke-opacity:1" d="M 86.5291,817.737 86.5291,834.243 z" id="boundary" inkscape:connector-curvature="0" />
	<path style="fill:none;stroke:red;stroke-width:1px;stroke-linecap:butt;stroke-linejoin:miter;stroke-opacity:1" d="M 86.5291,834.243 94.782,849.098 z" id="boundary" inkscape:connector-curvature="0" />
	<path style="fill:none;stroke:red;stroke-width:1px;stroke-linecap:butt;stroke-linejoin:miter;stroke-opacity:1" d="M 88.1797,15.5541 104.686,7.30116 z" id="boundary" inkscape:connector-curvature="0" />
	<path style="fill:none;stroke:red;stroke-width:1px;stroke-linecap:butt;stroke-linejoin:miter;stroke-opacity:1" d="M 94.782,700.546 103.035,715.401 z" id="boundary" inkscape:connector-curvature="0" />
	<path style="fill:none;stroke:red;stroke-width:1px;stroke-linecap:butt;stroke-linejoin:miter;stroke-opacity:1" d="M 94.782,759.967 103.035,731.907 z" id="boundary" inkscape:connector-curvature="0" />
	<path style="fill:none;stroke:red;stroke-width:1px;stroke-linecap:butt;stroke-linejoin:miter;stroke-opacity:1" d="M 94.782,849.098 103.035,863.953 z" id="boundary" inkscape:connector-curvature="0" />
	<path style="fill:none;stroke:red;stroke-width:1px;stroke-linecap:butt;stroke-linejoin:miter;stroke-opacity:1" d="M 94.782,949.784 103.035,929.977 z" id="boundary" inkscape:connector-curvature="0" />
	<path style="fill:none;stroke:red;stroke-width:1px;stroke-linecap:butt;stroke-linejoin:miter;stroke-opacity:1" d="M 94.782,949.784 103.035,964.639 z" id="boundary" inkscape:connector-curvature="0" />
	<path style="fill:none;stroke:red;stroke-width:1px;stroke-linecap:butt;stroke-linejoin:miter;stroke-opacity:1" d="M 103.035,715.401 103.035,731.907 z" id="boundary" inkscape:connector-curvature="0" />
	<path style="fill:none;stroke:red;stroke-width:1px;stroke-linecap:butt;stroke-linejoin:miter;stroke-opacity:1" d="M 103.035,863.953 103.035,880.459 z" id="boundary" inkscape:connector-curvature="0" />
	<path style="fill:none;stroke:red;stroke-width:1px;stroke-linecap:butt;stroke-linejoin:miter;stroke-opacity:1" d="M 103.035,880.459 103.035,896.965 z" id="boundary" inkscape:connector-curvature="0" />
	<path style="fill:none;stroke:red;stroke-width:1px;stroke-linecap:butt;stroke-linejoin:miter;stroke-opacity:1" d="M 103.035,896.965 103.035,913.471 z" id="boundary" inkscape:connector-curvature="0" />
	<path style="fill:none;stroke:red;stroke-width:1px;stroke-linecap:butt;stroke-linejoin:miter;stroke-opacity:1" d="M 103.035,913.471 103.035,929.977 z" id="boundary" inkscape:connector-curvature="0" />
	<path style="fill:none;stroke:red;stroke-width:1px;stroke-linecap:butt;stroke-linejoin:miter;stroke-opacity:1" d="M 103.035,964.639 114.589,977.844 z" id="boundary" inkscape:connector-curvature="0" />
	<path style="fill:none;stroke:red;stroke-width:1px;stroke-linecap:butt;stroke-linejoin:miter;stroke-opacity:1" d="M 104.686,7.30116 121.191,4 z" id="boundary" inkscape:connector-curvature="0" />
	<path style="fill:none;stroke:red;stroke-width:1px;stroke-linecap:butt;stroke-linejoin:miter;stroke-opacity:1" d="M 114.589,977.844 131.095,979.494 z" id="boundary" inkscape:connector-curvature="0" />
	<path style="fill:none;stroke:red;stroke-width:1px;stroke-linecap:butt;stroke-linejoin:miter;stroke-opacity:1" d="M 121.191,4 137.697,4 z" id="boundary" inkscape:connector-curvature="0" />
	<path style="fill:none;stroke:red;stroke-width:1px;stroke-linecap:butt;stroke-linejoin:miter;stroke-opacity:1" d="M 131.095,979.494 145.95,987.747 z" id="boundary" inkscape:connector-curvature="0" />
	<path style="fill:none;stroke:red;stroke-width:1px;stroke-linecap:butt;stroke-linejoin:miter;stroke-opacity:1" d="M 137.697,4 154.203,4 z" id="boundary" inkscape:connector-curvature="0" />
	<path style="fill:none;stroke:red;stroke-width:1px;stroke-linecap:butt;stroke-linejoin:miter;stroke-opacity:1" d="M 145.95,987.747 162.456,991.048 z" id="boundary" inkscape:connector-curvature="0" />
	<path style="fill:none;stroke:red;stroke-width:1px;stroke-linecap:butt;stroke-linejoin:miter;stroke-opacity:1" d="M 154.203,4 169.058,12.2529 z" id="boundary" inkscape:connector-curvature="0" />
	<path style="fill:none;stroke:red;stroke-width:1px;stroke-linecap:butt;stroke-linejoin:miter;stroke-opacity:1" d="M 162.456,991.048 178.962,996 z" id="boundary" inkscape:connector-curvature="0" />
	<path style="fill:none;stroke:red;stroke-width:1px;stroke-linecap:butt;stroke-linejoin:miter;stroke-opacity:1" d="M 169.058,12.2529 185.564,15.5541 z" id="boundary" inkscape:connector-curvature="0" />
	<path style="fill:none;stroke:red;stroke-width:1px;stroke-linecap:butt;stroke-linejoin:miter;stroke-opacity:1" d="M 178.962,996 195.468,996 z" id="boundary" inkscape:connector-curvature="0" />
	<path style="fill:none;stroke:red;stroke-width:1px;stroke-linecap:butt;stroke-linejoin:miter;stroke-opacity:1" d="M 185.564,15.5541 202.07,20.5058 z" id="boundary" inkscape:connector-curvature="0" />
	<path style="fill:none;stroke:red;stroke-width:1px;stroke-linecap:butt;stroke-linejoin:miter;stroke-opacity:1" d="M 195.468,996 211.973,996 z" id="boundary" inkscape:connector-curvature="0" />
	<path style="fill:none;stroke:red;stroke-width:1px;stroke-linecap:butt;stroke-linejoin:miter;stroke-opacity:1" d="M 202.07,20.5058 216.925,28.7587 z" id="boundary" inkscape:connector-curvature="0" />
	<path style="fill:none;stroke:red;stroke-width:1px;stroke-linecap:butt;stroke-linejoin:miter;stroke-opacity:1" d="M 211.973,996 228.479,996 z" id="boundary" inkscape:connector-curvature="0" />
	<path style="fill:none;stroke:red;stroke-width:1px;stroke-linecap:butt;stroke-linejoin:miter;stroke-opacity:1" d="M 216.925,28.7587 231.78,37.0116 z" id="boundary" inkscape:connector-curvature="0" />
	<path style="fill:none;stroke:red;stroke-width:1px;stroke-linecap:butt;stroke-linejoin:miter;stroke-opacity:1" d="M 228.479,996 244.985,996 z" id="boundary" inkscape:connector-curvature="0" />
	<path style="fill:none;stroke:red;stroke-width:1px;stroke-linecap:butt;stroke-linejoin:miter;stroke-opacity:1" d="M 231.78,37.0116 246.636,45.2646 z" id="boundary" inkscape:connector-curvature="0" />
	<path style="fill:none;stroke:red;stroke-width:1px;stroke-linecap:butt;stroke-linejoin:miter;stroke-opacity:1" d="M 244.985,863.953 244.985,880.459 z" id="boundary" inkscape:connector-curvature="0" />
	<path style="fill:none;stroke:red;stroke-width:1px;stroke-linecap:butt;stroke-linejoin:miter;stroke-opacity:1" d="M 244.985,863.953 253.238,839.195 z" id="boundary" inkscape:connector-curvature="0" />
	<path style="fill:none;stroke:red;stroke-width:1px;stroke-linecap:butt;stroke-linejoin:miter;stroke-opacity:1" d="M 244.985,880.459 253.238,895.314 z" id="boundary" inkscape:connector-curvature="0" />
	<path style="fill:none;stroke:red;stroke-width:1px;stroke-linecap:butt;stroke-linejoin:miter;stroke-opacity:1" d="M 244.985,996 261.491,987.747 z" id="boundary" inkscape:connector-curvature="0" />
	<path style="fill:none;stroke:red;stroke-width:1px;stroke-linecap:butt;stroke-linejoin:miter;stroke-opacity:1" d="M 246.636,45.2646 253.238,61.7704 z" id="boundary" inkscape:connector-curvature="0" />
	<path style="fill:none;stroke:red;stroke-width:1px;stroke-linecap:butt;stroke-linejoin:miter;stroke-opacity:1" d="M 253.238,61.7704 261.491,76.6256 z" id="boundary" inkscape:connector-curvature="0" />
	<path style="fill:none;stroke:red;stroke-width:1px;stroke-linecap:butt;stroke-linejoin:miter;stroke-opacity:1" d="M 253.238,211.973 253.238,228.479 z" id="boundary" inkscape:connector-curvature="0" />
	<path style="fill:none;stroke:red;stroke-width:1px;stroke-linecap:butt;stroke-linejoin:miter;stroke-opacity:1" d="M 253.238,211.973 261.491,187.215 z" id="boundary" inkscape:connector-curvature="0" />
	<path style="fill:none;stroke:red;stroke-width:1px;stroke-linecap:butt;stroke-linejoin:miter;stroke-opacity:1" d="M 253.238,228.479 256.539,244.985 z" id="boundary" inkscape:connector-curvature="0" />
	<path style="fill:none;stroke:red;stroke-width:1px;stroke-linecap:butt;stroke-linejoin:miter;stroke-opacity:1" d="M 253.238,839.195 261.491,814.436 z" id="boundary" inkscape:connector-curvature="0" />
	<path style="fill:none;stroke:red;stroke-width:1px;stroke-linecap:butt;stroke-linejoin:miter;stroke-opacity:1" d="M 253.238,895.314 266.443,905.218 z" id="boundary" inkscape:connector-curvature="0" />
	<path style="fill:none;stroke:red;stroke-width:1px;stroke-linecap:butt;stroke-linejoin:miter;stroke-opacity:1" d="M 256.539,244.985 264.792,259.84 z" id="boundary" inkscape:connector-curvature="0" />
	<path style="fill:none;stroke:red;stroke-width:1px;stroke-linecap:butt;stroke-linejoin:miter;stroke-opacity:1" d="M 261.491,76.6256 269.744,91.4809 z" id="boundary" inkscape:connector-curvature="0" />
	<path style="fill:none;stroke:red;stroke-width:1px;stroke-linecap:butt;stroke-linejoin:miter;stroke-opacity:1" d="M 261.491,137.697 264.792,154.203 z" id="boundary" inkscape:connector-curvature="0" />
	<path style="fill:none;stroke:red;stroke-width:1px;stroke-linecap:butt;stroke-linejoin:miter;stroke-opacity:1" d="M 261.491,137.697 269.744,107.987 z" id="boundary" inkscape:connector-curvature="0" />
	<path style="fill:none;stroke:red;stroke-width:1px;stroke-linecap:butt;stroke-linejoin:miter;stroke-opacity:1" d="M 261.491,187.215 269.744,170.709 z" id="boundary" inkscape:connector-curvature="0" />
	<path style="fill:none;stroke:red;stroke-width:1px;stroke-linecap:butt;stroke-linejoin:miter;stroke-opacity:1" d="M 261.491,814.436 269.744,789.677 z" id="boundary" inkscape:connector-curvature="0" />
	<path style="fill:none;stroke:red;stroke-width:1px;stroke-linecap:butt;stroke-linejoin:miter;stroke-opacity:1" d="M 261.491,987.747 277.997,987.747 z" id="boundary" inkscape:connector-curvature="0" />
	<path style="fill:none;stroke:red;stroke-width:1px;stroke-linecap:butt;stroke-linejoin:miter;stroke-opacity:1" d="M 264.792,154.203 269.744,170.709 z" id="boundary" inkscape:connector-curvature="0" />
	<path style="fill:none;stroke:red;stroke-width:1px;stroke-linecap:butt;stroke-linejoin:miter;stroke-opacity:1" d="M 264.792,259.84 276.346,273.045 z" id="boundary" inkscape:connector-curvature="0" />
	<path style="fill:none;stroke:red;stroke-width:1px;stroke-linecap:butt;stroke-linejoin:miter;stroke-opacity:1" d="M 266.443,905.218 281.298,913.471 z" id="boundary" inkscape:connector-curvature="0" />
	<path style="fill:none;stroke:red;stroke-width:1px;stroke-linecap:butt;stroke-linejoin:miter;stroke-opacity:1" d="M 269.744,91.4809 269.744,107.987 z" id="boundary" inkscape:connector-curvature="0" />
	<path style="fill:none;stroke:red;stroke-width:1px;stroke-linecap:butt;stroke-linejoin:miter;stroke-opacity:1" d="M 269.744,773.171 269.744,789.677 z" id="boundary" inkscape:connector-curvature="0" />
	<path style="fill:none;stroke:red;stroke-width:1px;stroke-linecap:butt;stroke-linejoin:miter;stroke-opacity:1" d="M 269.744,773.171 277.997,748.413 z" id="boundary" inkscape:connector-curvature="0" />
	<path style="fill:none;stroke:red;stroke-width:1px;stroke-linecap:butt;stroke-linejoin:miter;stroke-opacity:1" d="M 276.346,273.045 277.997,289.551 z" id="boundary" inkscape:connector-curvature="0" />
	<path style="fill:none;stroke:red;stroke-width:1px;stroke-linecap:butt;stroke-linejoin:miter;stroke-opacity:1" d="M 277.997,289.551 277.997,306.057 z" id="boundary" inkscape:connector-curvature="0" />
	<path style="fill:none;stroke:red;stroke-width:1px;stroke-linecap:butt;stroke-linejoin:miter;stroke-opacity:1" d="M 277.997,306.057 286.25,320.912 z" id="boundary" inkscape:connector-curvature="0" />
	<path style="fill:none;stroke:red;stroke-width:1px;stroke-linecap:butt;stroke-linejoin:miter;stroke-opacity:1" d="M 277.997,748.413 286.25,731.907 z" id="boundary" inkscape:connector-curvature="0" />
	<path style="fill:none;stroke:red;stroke-width:1px;stroke-linecap:butt;stroke-linejoin:miter;stroke-opacity:1" d="M 277.997,987.747 292.852,979.494 z" id="boundary" inkscape:connector-curvature="0" />
	<path style="fill:none;stroke:red;stroke-width:1px;stroke-linecap:butt;stroke-linejoin:miter;stroke-opacity:1" d="M 281.298,913.471 294.502,925.025 z" id="boundary" inkscape:connector-curvature="0" />
	<path style="fill:none;stroke:red;stroke-width:1px;stroke-linecap:butt;stroke-linejoin:miter;stroke-opacity:1" d="M 286.25,320.912 291.201,337.418 z" id="boundary" inkscape:connector-curvature="0" />
	<path style="fill:none;stroke:red;stroke-width:1px;stroke-linecap:butt;stroke-linejoin:miter;stroke-opacity:1" d="M 286.25,368.779 286.25,385.285 z" id="boundary" inkscape:connector-curvature="0" />
	<path style="fill:none;stroke:red;stroke-width:1px;stroke-linecap:butt;stroke-linejoin:miter;stroke-opacity:1" d="M 286.25,368.779 294.502,353.923 z" id="boundary" inkscape:connector-curvature="0" />
	<path style="fill:none;stroke:red;stroke-width:1px;stroke-linecap:butt;stroke-linejoin:miter;stroke-opacity:1" d="M 286.25,385.285 294.502,400.14 z" id="boundary" inkscape:connector-curvature="0" />
	<path style="fill:none;stroke:red;stroke-width:1px;stroke-linecap:butt;stroke-linejoin:miter;stroke-opacity:1" d="M 286.25,682.389 286.25,698.895 z" id="boundary" inkscape:connector-curvature="0" />
	<path style="fill:none;stroke:red;stroke-width:1px;stroke-linecap:butt;stroke-linejoin:miter;stroke-opacity:1" d="M 286.25,682.389 294.502,665.884 z" id="boundary" inkscape:connector-curvature="0" />
	<path style="fill:none;stroke:red;stroke-width:1px;stroke-linecap:butt;stroke-linejoin:miter;stroke-opacity:1" d="M 286.25,698.895 286.25,715.401 z" id="boundary" inkscape:connector-curvature="0" />
	<path style="fill:none;stroke:red;stroke-width:1px;stroke-linecap:butt;stroke-linejoin:miter;stroke-opacity:1" d="M 286.25,715.401 286.25,731.907 z" id="boundary" inkscape:connector-curvature="0" />
	<path style="fill:none;stroke:red;stroke-width:1px;stroke-linecap:butt;stroke-linejoin:miter;stroke-opacity:1" d="M 291.201,337.418 294.502,353.923 z" id="boundary" inkscape:connector-curvature="0" />
	<path style="fill:none;stroke:red;stroke-width:1px;stroke-linecap:butt;stroke-linejoin:miter;stroke-opacity:1" d="M 292.852,979.494 309.358,979.494 z" id="boundary" inkscape:connector-curvature="0" />
	<path style="fill:none;stroke:red;stroke-width:1px;stroke-linecap:butt;stroke-linejoin:miter;stroke-opacity:1" d="M 294.502,400.14 302.755,414.995 z" id="boundary" inkscape:connector-curvature="0" />
	<path style="fill:none;stroke:red;stroke-width:1px;stroke-linecap:butt;stroke-linejoin:miter;stroke-opacity:1" d="M 294.502,665.884 307.707,654.329 z" id="boundary" inkscape:connector-curvature="0" />
	<path style="fill:none;stroke:red;stroke-width:1px;stroke-linecap:butt;stroke-linejoin:miter;stroke-opacity:1" d="M 294.502,925.025 309.358,933.278 z" id="boundary" inkscape:connector-curvature="0" />
	<path style="fill:none;stroke:red;stroke-width:1px;stroke-linecap:butt;stroke-linejoin:miter;stroke-opacity:1" d="M 302.755,414.995 311.008,429.85 z" id="boundary" inkscape:connector-curvature="0" />
	<path style="fill:none;stroke:red;stroke-width:1px;stroke-linecap:butt;stroke-linejoin:miter;stroke-opacity:1" d="M 307.707,654.329 315.96,637.824 z" id="boundary" inkscape:connector-curvature="0" />
	<path style="fill:none;stroke:red;stroke-width:1px;stroke-linecap:butt;stroke-linejoin:miter;stroke-opacity:1" d="M 309.358,933.278 325.864,939.88 z" id="boundary" inkscape:connector-curvature="0" />
	<path style="fill:none;stroke:red;stroke-width:1px;stroke-linecap:butt;stroke-linejoin:miter;stroke-opacity:1" d="M 309.358,979.494 322.562,969.591 z" id="boundary" inkscape:connector-curvature="0" />
	<path style="fill:none;stroke:red;stroke-width:1px;stroke-linecap:butt;stroke-linejoin:miter;stroke-opacity:1" d="M 311.008,429.85 311.008,446.356 z" id="boundary" inkscape:connector-curvature="0" />
	<path style="fill:none;stroke:red;stroke-width:1px;stroke-linecap:butt;stroke-linejoin:miter;stroke-opacity:1" d="M 311.008,446.356 317.611,462.862 z" id="boundary" inkscape:connector-curvature="0" />
	<path style="fill:none;stroke:red;stroke-width:1px;stroke-linecap:butt;stroke-linejoin:miter;stroke-opacity:1" d="M 315.96,637.824 324.213,621.318 z" id="boundary" inkscape:connector-curvature="0" />
	<path style="fill:none;stroke:red;stroke-width:1px;stroke-linecap:butt;stroke-linejoin:miter;stroke-opacity:1" d="M 317.611,462.862 319.261,479.368 z" id="boundary" inkscape:connector-curvature="0" />
	<path style="fill:none;stroke:red;stroke-width:1px;stroke-linecap:butt;stroke-linejoin:miter;stroke-opacity:1" d="M 319.261,479.368 327.514,494.223 z" id="boundary" inkscape:connector-curvature="0" />
	<path style="fill:none;stroke:red;stroke-width:1px;stroke-linecap:butt;stroke-linejoin:miter;stroke-opacity:1" d="M 322.562,969.591 325.864,939.88 z" id="boundary" inkscape:connector-curvature="0" />
	<path style="fill:none;stroke:red;stroke-width:1px;stroke-linecap:butt;stroke-linejoin:miter;stroke-opacity:1" d="M 324.213,621.318 332.466,604.812 z" id="boundary" inkscape:connector-curvature="0" />
	<path style="fill:none;stroke:red;stroke-width:1px;stroke-linecap:butt;stroke-linejoin:miter;stroke-opacity:1" d="M 327.514,494.223 332.466,510.729 z" id="boundary" inkscape:connector-curvature="0" />
	<path style="fill:none;stroke:red;stroke-width:1px;stroke-linecap:butt;stroke-linejoin:miter;stroke-opacity:1" d="M 332.466,510.729 340.719,525.584 z" id="boundary" inkscape:connector-curvature="0" />
	<path style="fill:none;stroke:red;stroke-width:1px;stroke-linecap:butt;stroke-linejoin:miter;stroke-opacity:1" d="M 332.466,604.812 344.02,591.607 z" id="boundary" inkscape:connector-curvature="0" />
	<path style="fill:none;stroke:red;stroke-width:1px;stroke-linecap:butt;stroke-linejoin:miter;stroke-opacity:1" d="M 340.719,525.584 344.02,542.09 z" id="boundary" inkscape:connector-curvature="0" />
	<path style="fill:none;stroke:red;stroke-width:1px;stroke-linecap:butt;stroke-linejoin:miter;stroke-opacity:1" d="M 344.02,542.09 344.02,558.596 z" id="boundary" inkscape:connector-curvature="0" />
	<path style="fill:none;stroke:red;stroke-width:1px;stroke-linecap:butt;stroke-linejoin:miter;stroke-opacity:1" d="M 344.02,558.596 344.02,575.101 z" id="boundary" inkscape:connector-curvature="0" />
	<path style="fill:none;stroke:red;stroke-width:1px;stroke-linecap:butt;stroke-linejoin:miter;stroke-opacity:1" d="M 344.02,575.101 344.02,591.607 z" id="boundary" inkscape:connector-curvature="0" />
	<circle cx="4" cy="306.057" r="4" fill="#0" id="circle0"/>
	<circle cx="4" cy="322.562" r="4" fill="#0" id="circle1"/>
	<circle cx="4" cy="339.068" r="4" fill="#0" id="circle2"/>
	<circle cx="4" cy="355.574" r="4" fill="#0" id="circle3"/>
	<circle cx="4" cy="372.08" r="4" fill="#0" id="circle4"/>
	<circle cx="12.2529" cy="289.551" r="4" fill="#0" id="circle5"/>
	<circle cx="12.2529" cy="386.935" r="4" fill="#0" id="circle6"/>
	<circle cx="12.2529" cy="403.441" r="4" fill="#0" id="circle7"/>
	<circle cx="12.2529" cy="419.947" r="4" fill="#0" id="circle8"/>
	<circle cx="12.2529" cy="436.453" r="4" fill="#0" id="circle9"/>
	<circle cx="12.2529" cy="452.958" r="4" fill="#0" id="circle10"/>
	<circle cx="20.5058" cy="74.975" r="4" fill="#0" id="circle11"/>
	<circle cx="20.5058" cy="91.4809" r="4" fill="#0" id="circle12"/>
	<circle cx="20.5058" cy="107.987" r="4" fill="#0" id="circle13"/>
	<circle cx="20.5058" cy="124.493" r="4" fill="#0" id="circle14"/>
	<circle cx="20.5058" cy="467.814" r="4" fill="#0" id="circle15"/>
	<circle cx="20.5058" cy="484.319" r="4" fill="#0" id="circle16"/>
	<circle cx="25.4576" cy="276.346" r="4" fill="#0" id="circle17"/>
	<circle cx="28.7587" cy="58.4692" r="4" fill="#0" id="circle18"/>
	<circle cx="28.7587" cy="139.348" r="4" fill="#0" id="circle19"/>
	<circle cx="28.7587" cy="499.175" r="4" fill="#0" id="circle20"/>
	<circle cx="37.0116" cy="154.203" r="4" fill="#0" id="circle21"/>
	<circle cx="37.0116" cy="514.03" r="4" fill="#0" id="circle22"/>
	<circle cx="37.0116" cy="530.536" r="4" fill="#0" id="circle23"/>
	<circle cx="37.0116" cy="547.042" r="4" fill="#0" id="circle24"/>
	<circle cx="37.0116" cy="563.547" r="4" fill="#0" id="circle25"/>
	<circle cx="38.6622" cy="263.141" r="4" fill="#0" id="circle26"/>
	<circle cx="38.6622" cy="580.053" r="4" fill="#0" id="circle27"/>
	<circle cx="41.9634" cy="45.2646" r="4" fill="#0" id="circle28"/>
	<circle cx="45.2646" cy="596.559" r="4" fill="#0" id="circle29"/>
	<circle cx="45.2646" cy="613.065" r="4" fill="#0" id="circle30"/>
	<circle cx="46.9151" cy="167.408" r="4" fill="#0" id="circle31"/>
	<circle cx="46.9151" cy="629.571" r="4" fill="#0" id="circle32"/>
	<circle cx="51.8669" cy="251.587" r="4" fill="#0" id="circle33"/>
	<circle cx="55.1681" cy="32.0599" r="4" fill="#0" id="circle34"/>
	<circle cx="55.1681" cy="644.426" r="4" fill="#0" id="circle35"/>
	<circle cx="60.1198" cy="178.962" r="4" fill="#0" id="circle36"/>
	<circle cx="61.7704" cy="660.932" r="4" fill="#0" id="circle37"/>
	<circle cx="63.421" cy="238.383" r="4" fill="#0" id="circle38"/>
	<circle cx="70.0233" cy="192.166" r="4" fill="#0" id="circle39"/>
	<circle cx="70.0233" cy="208.672" r="4" fill="#0" id="circle40"/>
	<circle cx="71.6739" cy="23.807" r="4" fill="#0" id="circle41"/>
	<circle cx="74.975" cy="672.486" r="4" fill="#0" id="circle42"/>
	<circle cx="86.5291" cy="685.691" r="4" fill="#0" id="circle43"/>
	<circle cx="86.5291" cy="784.725" r="4" fill="#0" id="circle44"/>
	<circle cx="86.5291" cy="801.231" r="4" fill="#0" id="circle45"/>
	<circle cx="86.5291" cy="817.737" r="4" fill="#0" id="circle46"/>
	<circle cx="86.5291" cy="834.243" r="4" fill="#0" id="circle47"/>
	<circle cx="88.1797" cy="15.5541" r="4" fill="#0" id="circle48"/>
	<circle cx="94.782" cy="700.546" r="4" fill="#0" id="circle49"/>
	<circle cx="94.782" cy="759.967" r="4" fill="#0" id="circle50"/>
	<circle cx="94.782" cy="849.098" r="4" fill="#0" id="circle51"/>
	<circle cx="94.782" cy="949.784" r="4" fill="#0" id="circle52"/>
	<circle cx="103.035" cy="715.401" r="4" fill="#0" id="circle53"/>
	<circle cx="103.035" cy="731.907" r="4" fill="#0" id="circle54"/>
	<circle cx="103.035" cy="863.953" r="4" fill="#0" id="circle55"/>
	<circle cx="103.035" cy="880.459" r="4" fill="#0" id="circle56"/>
	<circle cx="103.035" cy="896.965" r="4" fill="#0" id="circle57"/>
	<circle cx="103.035" cy="913.471" r="4" fill="#0" id="circle58"/>
	<circle cx="103.035" cy="929.977" r="4" fill="#0" id="circle59"/>
	<circle cx="103.035" cy="964.639" r="4" fill="#0" id="circle60"/>
	<circle cx="104.686" cy="7.30116" r="4" fill="#0" id="circle61"/>
	<circle cx="114.589" cy="977.844" r="4" fill="#0" id="circle62"/>
	<circle cx="121.191" cy="4" r="4" fill="#0" id="circle63"/>
	<circle cx="131.095" cy="979.494" r="4" fill="#0" id="circle64"/>
	<circle cx="137.697" cy="4" r="4" fill="#0" id="circle65"/>
	<circle cx="145.95" cy="987.747" r="4" fill="#0" id="circle66"/>
	<circle cx="154.203" cy="4" r="4" fill="#0" id="circle67"/>
	<circle cx="162.456" cy="991.048" r="4" fill="#0" id="circle68"/>
	<circle cx="169.058" cy="12.2529" r="4" fill="#0" id="circle69"/>
	<circle cx="178.962" cy="996" r="4" fill="#0" id="circle70"/>
	<circle cx="185.564" cy="15.5541" r="4" fill="#0" id="circle71"/>
	<circle cx="195.468" cy="996" r="4" fill="#0" id="circle72"/>
	<circle cx="202.07" cy="20.5058" r="4" fill="#0" id="circle73"/>
	<circle cx="211.973" cy="996" r="4" fill="#0" id="circle74"/>
	<circle cx="216.925" cy="28.7587" r="4" fill="#0" id="circle75"/>
	<circle cx="228.479" cy="996" r="4" fill="#0" id="circle76"/>
	<circle cx="231.78" cy="37.0116" r="4" fill="#0" id="circle77"/>
	<circle cx="244.985" cy="863.953" r="4" fill="#0" id="circle78"/>
	<circle cx="244.985" cy="880.459" r="4" fill="#0" id="circle79"/>
	<circle cx="244.985" cy="996" r="4" fill="#0" id="circle80"/>
	<circle cx="246.636" cy="45.2646" r="4" fill="#0" id="circle81"/>
	<circle cx="253.238" cy="61.7704" r="4" fill="#0" id="circle82"/>
	<circle cx="253.238" cy="211.973" r="4" fill="#0" id="circle83"/>
	<circle cx="253.238" cy="228.479" r="4" fill="#0" id="circle84"/>
	<circle cx="253.238" cy="839.195" r="4" fill="#0" id="circle85"/>
	<circle cx="253.238" cy="895.314" r="4" fill="#0" id="circle86"/>
	<circle cx="256.539" cy="244.985" r="4" fill="#0" id="circle87"/>
	<circle cx="261.491" cy="76.6256" r="4" fill="#0" id="circle88"/>
	<circle cx="261.491" cy="137.697" r="4" fill="#0" id="circle89"/>
	<circle cx="261.491" cy="187.215" r="4" fill="#0" id="circle90"/>
	<circle cx="261.491" cy="814.436" r="4" fill="#0" id="circle91"/>
	<circle cx="261.491" cy="987.747" r="4" fill="#0" id="circle92"/>
	<circle cx="264.792" cy="154.203" r="4" fill="#0" id="circle93"/>
	<circle cx="264.792" cy="259.84" r="4" fill="#0" id="circle94"/>
	<circle cx="266.443" cy="905.218" r="4" fill="#0" id="circle95"/>
	<circle cx="269.744" cy="91.4809" r="4" fill="#0" id="circle96"/>
	<circle cx="269.744" cy="107.987" r="4" fill="#0" id="circle97"/>
	<circle cx="269.744" cy="170.709" r="4" fill="#0" id="circle98"/>
	<circle cx="269.744" cy="773.171" r="4" fill="#0" id="circle99"/>
	<circle cx="269.744" cy="789.677" r="4" fill="#0" id="circle100"/>
	<circle cx="276.346" cy="273.045" r="4" fill="#0" id="circle101"/>
	<circle cx="277.997" cy="289.551" r="4" fill="#0" id="circle102"/>
	<circle cx="277.997" cy="306.057" r="4" fill="#0" id="circle103"/>
	<circle cx="277.997" cy="748.413" r="4" fill="#0" id="circle104"/>
	<circle cx="277.997" cy="987.747" r="4" fill="#0" id="circle105"/>
	<circle cx="281.298" cy="913.471" r="4" fill="#0" id="circle106"/>
	<circle cx="286.25" cy="320.912" r="4" fill="#0" id="circle107"/>
	<circle cx="286.25" cy="368.779" r="4" fill="#0" id="circle108"/>
	<circle cx="286.25" cy="385.285" r="4" fill="#0" id="circle109"/>
	<circle cx="286.25" cy="682.389" r="4" fill="#0" id="circle110"/>
	<circle cx="286.25" cy="698.895" r="4" fill="#0" id="circle111"/>
	<circle cx="286.25" cy="715.401" r="4" fill="#0" id="circle112"/>
	<circle cx="286.25" cy="731.907" r="4" fill="#0" id="circle113"/>
	<circle cx="291.201" cy="337.418" r="4" fill="#0" id="circle114"/>
	<circle cx="292.852" cy="979.494" r="4" fill="#0" id="circle115"/>
	<circle cx="294.502" cy="353.923" r="4" fill="#0" id="circle116"/>
	<circle cx="294.502" cy="400.14" r="4" fill="#0" id="circle117"/>
	<circle cx="294.502" cy="665.884" r="4" fill="#0" id="circle118"/>
	<circle cx="294.502" cy="925.025" r="4" fill="#0" id="circle119"/>
	<circle cx="302.755" cy="414.995" r="4" fill="#0" id="circle120"/>
	<circle cx="307.707" cy="654.329" r="4" fill="#0" id="circle121"/>
	<circle cx="309.358" cy="933.278" r="4" fill="#0" id="circle122"/>
	<circle cx="309.358" cy="979.494" r="4" fill="#0" id="circle123"/>
	<circle cx="311.008" cy="429.85" r="4" fill="#0" id="circle124"/>
	<circle cx="311.008" cy="446.356" r="4" fill="#0" id="circle125"/>
	<circle cx="315.96" cy="637.824" r="4" fill="#0" id="circle126"/>
	<circle cx="317.611" cy="462.862" r="4" fill="#0" id="circle127"/>
	<circle cx="319.261" cy="479.368" r="4" fill="#0" id="circle128"/>
	<circle cx="322.562" cy="969.591" r="4" fill="#0" id="circle129"/>
	<circle cx="324.213" cy="621.318" r="4" fill="#0" id="circle130"/>
	<circle cx="325.864" cy="939.88" r="4" fill="#0" id="circle131"/>
	<circle cx="327.514" cy="494.223" r="4" fill="#0" id="circle132"/>
	<circle cx="332.466" cy="510.729" r="4" fill="#0" id="circle133"/>
	<circle cx="332.466" cy="604.812" r="4" fill="#0" id="circle134"/>
	<circle cx="340.719" cy="525.584" r="4" fill="#0" id="circle135"/>
	<circle cx="344.02" cy="542.09" r="4" fill="#0" id="circle136"/>
	<circle cx="344.02" cy="558.596" r="4" fill="#0" id="circle137"/>
	<circle cx="344.02" cy="575.101" r="4" fill="#0" id="circle138"/>
	<circle cx="344.02" cy="591.607" r="4" fill="#0" id="circle139"/>
	</g>
</svg>