<?xml version="1.0" encoding="UTF-8" standalone="no"?>
<!-- Created with CurveBenchmark -->
<svg
	xmlns:dc="http://purl.org/dc/elements/1.1/"
	xmlns:cc="http://creativecommons.org/ns#"
	xmlns:rdf="http://www.w3.org/1999/02/22-rdf-syntax-ns#"
	xmlns:svg="http://www.w3.org/2000/svg"
	xmlns="http://www.w3.org/2000/svg"
	xmlns:sodipodi="http://sodipodi.sourceforge.net/DTD/sodipodi-0.dtd"
	xmlns:inkscape="http://www.inkscape.org/namespaces/inkscape"
	width="1000"
	height="1000"
	id="svg2"
	version="1.1"
	sodipodi:docname="manifold/discur-key13.png.txt">
<defs
	id="defs4" />
<metadata
	id="metadata7">
	<rdf:RDF>
		<cc:Work
			rdf:about="">
			<dc:format>image/svg+xml</dc:format>
			<dc:type
				rdf:resource="http://purl.org/dc/dcmitype/StillImage" />
			<dc:title></dc:title>
		</cc:Work>
	</rdf:RDF>
</metadata>
<g
	inkscape:label="Layer 1"
	inkscape:groupmode="layer"
	id="layer1">
	<path style="fill:none;stroke:red;stroke-width:1px;stroke-linecap:butt;stroke-linejoin:miter;stroke-opacity:1" d="M 4,175.48 4,193.918 z" id="boundary" inkscape:connector-curvature="0" />
	<path style="fill:none;stroke:red;stroke-width:1px;stroke-linecap:butt;stroke-linejoin:miter;stroke-opacity:1" d="M 4,175.48 18.7509,160.729 z" id="boundary" inkscape:connector-curvature="0" />
	<path style="fill:none;stroke:red;stroke-width:1px;stroke-linecap:butt;stroke-linejoin:miter;stroke-opacity:1" d="M 4,193.918 4,212.357 z" id="boundary" inkscape:connector-curvature="0" />
	<path style="fill:none;stroke:red;stroke-width:1px;stroke-linecap:butt;stroke-linejoin:miter;stroke-opacity:1" d="M 4,212.357 4,230.796 z" id="boundary" inkscape:connector-curvature="0" />
	<path style="fill:none;stroke:red;stroke-width:1px;stroke-linecap:butt;stroke-linejoin:miter;stroke-opacity:1" d="M 4,230.796 4,249.234 z" id="boundary" inkscape:connector-curvature="0" />
	<path style="fill:none;stroke:red;stroke-width:1px;stroke-linecap:butt;stroke-linejoin:miter;stroke-opacity:1" d="M 4,249.234 4,267.673 z" id="boundary" inkscape:connector-curvature="0" />
	<path style="fill:none;stroke:red;stroke-width:1px;stroke-linecap:butt;stroke-linejoin:miter;stroke-opacity:1" d="M 4,267.673 4,286.112 z" id="boundary" inkscape:connector-curvature="0" />
	<path style="fill:none;stroke:red;stroke-width:1px;stroke-linecap:butt;stroke-linejoin:miter;stroke-opacity:1" d="M 4,286.112 15.0632,300.862 z" id="boundary" inkscape:connector-curvature="0" />
	<path style="fill:none;stroke:red;stroke-width:1px;stroke-linecap:butt;stroke-linejoin:miter;stroke-opacity:1" d="M 15.0632,300.862 26.1264,315.613 z" id="boundary" inkscape:connector-curvature="0" />
	<path style="fill:none;stroke:red;stroke-width:1px;stroke-linecap:butt;stroke-linejoin:miter;stroke-opacity:1" d="M 18.7509,160.729 27.9703,142.29 z" id="boundary" inkscape:connector-curvature="0" />
	<path style="fill:none;stroke:red;stroke-width:1px;stroke-linecap:butt;stroke-linejoin:miter;stroke-opacity:1" d="M 26.1264,315.613 40.8773,328.52 z" id="boundary" inkscape:connector-curvature="0" />
	<path style="fill:none;stroke:red;stroke-width:1px;stroke-linecap:butt;stroke-linejoin:miter;stroke-opacity:1" d="M 27.9703,142.29 46.4089,133.071 z" id="boundary" inkscape:connector-curvature="0" />
	<path style="fill:none;stroke:red;stroke-width:1px;stroke-linecap:butt;stroke-linejoin:miter;stroke-opacity:1" d="M 40.8773,328.52 51.9405,343.271 z" id="boundary" inkscape:connector-curvature="0" />
	<path style="fill:none;stroke:red;stroke-width:1px;stroke-linecap:butt;stroke-linejoin:miter;stroke-opacity:1" d="M 46.4089,133.071 59.316,110.944 z" id="boundary" inkscape:connector-curvature="0" />
	<path style="fill:none;stroke:red;stroke-width:1px;stroke-linecap:butt;stroke-linejoin:miter;stroke-opacity:1" d="M 51.9405,343.271 66.6914,356.178 z" id="boundary" inkscape:connector-curvature="0" />
	<path style="fill:none;stroke:red;stroke-width:1px;stroke-linecap:butt;stroke-linejoin:miter;stroke-opacity:1" d="M 59.316,110.944 74.0669,96.1933 z" id="boundary" inkscape:connector-curvature="0" />
	<path style="fill:none;stroke:red;stroke-width:1px;stroke-linecap:butt;stroke-linejoin:miter;stroke-opacity:1" d="M 66.6914,356.178 74.0669,374.617 z" id="boundary" inkscape:connector-curvature="0" />
	<path style="fill:none;stroke:red;stroke-width:1px;stroke-linecap:butt;stroke-linejoin:miter;stroke-opacity:1" d="M 74.0669,96.1933 88.8178,81.4424 z" id="boundary" inkscape:connector-curvature="0" />
	<path style="fill:none;stroke:red;stroke-width:1px;stroke-linecap:butt;stroke-linejoin:miter;stroke-opacity:1" d="M 74.0669,374.617 88.8178,387.524 z" id="boundary" inkscape:connector-curvature="0" />
	<path style="fill:none;stroke:red;stroke-width:1px;stroke-linecap:butt;stroke-linejoin:miter;stroke-opacity:1" d="M 88.8178,81.4424 107.257,72.223 z" id="boundary" inkscape:connector-curvature="0" />
	<path style="fill:none;stroke:red;stroke-width:1px;stroke-linecap:butt;stroke-linejoin:miter;stroke-opacity:1" d="M 88.8178,387.524 101.725,402.275 z" id="boundary" inkscape:connector-curvature="0" />
	<path style="fill:none;stroke:red;stroke-width:1px;stroke-linecap:butt;stroke-linejoin:miter;stroke-opacity:1" d="M 101.725,402.275 118.32,411.494 z" id="boundary" inkscape:connector-curvature="0" />
	<path style="fill:none;stroke:red;stroke-width:1px;stroke-linecap:butt;stroke-linejoin:miter;stroke-opacity:1" d="M 107.257,72.223 122.007,59.316 z" id="boundary" inkscape:connector-curvature="0" />
	<path style="fill:none;stroke:red;stroke-width:1px;stroke-linecap:butt;stroke-linejoin:miter;stroke-opacity:1" d="M 118.32,411.494 136.758,417.026 z" id="boundary" inkscape:connector-curvature="0" />
	<path style="fill:none;stroke:red;stroke-width:1px;stroke-linecap:butt;stroke-linejoin:miter;stroke-opacity:1" d="M 122.007,59.316 134.914,44.5651 z" id="boundary" inkscape:connector-curvature="0" />
	<path style="fill:none;stroke:red;stroke-width:1px;stroke-linecap:butt;stroke-linejoin:miter;stroke-opacity:1" d="M 134.914,44.5651 149.665,31.658 z" id="boundary" inkscape:connector-curvature="0" />
	<path style="fill:none;stroke:red;stroke-width:1px;stroke-linecap:butt;stroke-linejoin:miter;stroke-opacity:1" d="M 136.758,417.026 151.509,429.933 z" id="boundary" inkscape:connector-curvature="0" />
	<path style="fill:none;stroke:red;stroke-width:1px;stroke-linecap:butt;stroke-linejoin:miter;stroke-opacity:1" d="M 149.665,31.658 166.26,22.4387 z" id="boundary" inkscape:connector-curvature="0" />
	<path style="fill:none;stroke:red;stroke-width:1px;stroke-linecap:butt;stroke-linejoin:miter;stroke-opacity:1" d="M 151.509,429.933 169.948,429.933 z" id="boundary" inkscape:connector-curvature="0" />
	<path style="fill:none;stroke:red;stroke-width:1px;stroke-linecap:butt;stroke-linejoin:miter;stroke-opacity:1" d="M 166.26,22.4387 184.699,22.4387 z" id="boundary" inkscape:connector-curvature="0" />
	<path style="fill:none;stroke:red;stroke-width:1px;stroke-linecap:butt;stroke-linejoin:miter;stroke-opacity:1" d="M 169.948,429.933 186.543,439.152 z" id="boundary" inkscape:connector-curvature="0" />
	<path style="fill:none;stroke:red;stroke-width:1px;stroke-linecap:butt;stroke-linejoin:miter;stroke-opacity:1" d="M 184.699,22.4387 199.45,7.68773 z" id="boundary" inkscape:connector-curvature="0" />
	<path style="fill:none;stroke:red;stroke-width:1px;stroke-linecap:butt;stroke-linejoin:miter;stroke-opacity:1" d="M 186.543,439.152 203.138,448.372 z" id="boundary" inkscape:connector-curvature="0" />
	<path style="fill:none;stroke:red;stroke-width:1px;stroke-linecap:butt;stroke-linejoin:miter;stroke-opacity:1" d="M 199.45,7.68773 217.888,4 z" id="boundary" inkscape:connector-curvature="0" />
	<path style="fill:none;stroke:red;stroke-width:1px;stroke-linecap:butt;stroke-linejoin:miter;stroke-opacity:1" d="M 203.138,448.372 221.576,448.372 z" id="boundary" inkscape:connector-curvature="0" />
	<path style="fill:none;stroke:red;stroke-width:1px;stroke-linecap:butt;stroke-linejoin:miter;stroke-opacity:1" d="M 217.888,4 236.327,4 z" id="boundary" inkscape:connector-curvature="0" />
	<path style="fill:none;stroke:red;stroke-width:1px;stroke-linecap:butt;stroke-linejoin:miter;stroke-opacity:1" d="M 221.576,448.372 240.015,448.372 z" id="boundary" inkscape:connector-curvature="0" />
	<path style="fill:none;stroke:red;stroke-width:1px;stroke-linecap:butt;stroke-linejoin:miter;stroke-opacity:1" d="M 236.327,4 254.766,4 z" id="boundary" inkscape:connector-curvature="0" />
	<path style="fill:none;stroke:red;stroke-width:1px;stroke-linecap:butt;stroke-linejoin:miter;stroke-opacity:1" d="M 240.015,448.372 258.454,448.372 z" id="boundary" inkscape:connector-curvature="0" />
	<path style="fill:none;stroke:red;stroke-width:1px;stroke-linecap:butt;stroke-linejoin:miter;stroke-opacity:1" d="M 254.766,4 269.517,15.0632 z" id="boundary" inkscape:connector-curvature="0" />
	<path style="fill:none;stroke:red;stroke-width:1px;stroke-linecap:butt;stroke-linejoin:miter;stroke-opacity:1" d="M 258.454,448.372 275.048,439.152 z" id="boundary" inkscape:connector-curvature="0" />
	<path style="fill:none;stroke:red;stroke-width:1px;stroke-linecap:butt;stroke-linejoin:miter;stroke-opacity:1" d="M 269.517,15.0632 282.424,29.8141 z" id="boundary" inkscape:connector-curvature="0" />
	<path style="fill:none;stroke:red;stroke-width:1px;stroke-linecap:butt;stroke-linejoin:miter;stroke-opacity:1" d="M 275.048,439.152 291.643,429.933 z" id="boundary" inkscape:connector-curvature="0" />
	<path style="fill:none;stroke:red;stroke-width:1px;stroke-linecap:butt;stroke-linejoin:miter;stroke-opacity:1" d="M 282.424,29.8141 297.175,42.7212 z" id="boundary" inkscape:connector-curvature="0" />
	<path style="fill:none;stroke:red;stroke-width:1px;stroke-linecap:butt;stroke-linejoin:miter;stroke-opacity:1" d="M 291.643,429.933 310.082,420.714 z" id="boundary" inkscape:connector-curvature="0" />
	<path style="fill:none;stroke:red;stroke-width:1px;stroke-linecap:butt;stroke-linejoin:miter;stroke-opacity:1" d="M 297.175,42.7212 310.082,57.4721 z" id="boundary" inkscape:connector-curvature="0" />
	<path style="fill:none;stroke:red;stroke-width:1px;stroke-linecap:butt;stroke-linejoin:miter;stroke-opacity:1" d="M 310.082,57.4721 328.52,64.8476 z" id="boundary" inkscape:connector-curvature="0" />
	<path style="fill:none;stroke:red;stroke-width:1px;stroke-linecap:butt;stroke-linejoin:miter;stroke-opacity:1" d="M 310.082,420.714 326.677,411.494 z" id="boundary" inkscape:connector-curvature="0" />
	<path style="fill:none;stroke:red;stroke-width:1px;stroke-linecap:butt;stroke-linejoin:miter;stroke-opacity:1" d="M 326.677,411.494 341.428,400.431 z" id="boundary" inkscape:connector-curvature="0" />
	<path style="fill:none;stroke:red;stroke-width:1px;stroke-linecap:butt;stroke-linejoin:miter;stroke-opacity:1" d="M 328.52,64.8476 341.428,79.5985 z" id="boundary" inkscape:connector-curvature="0" />
	<path style="fill:none;stroke:red;stroke-width:1px;stroke-linecap:butt;stroke-linejoin:miter;stroke-opacity:1" d="M 341.428,79.5985 350.647,96.1933 z" id="boundary" inkscape:connector-curvature="0" />
	<path style="fill:none;stroke:red;stroke-width:1px;stroke-linecap:butt;stroke-linejoin:miter;stroke-opacity:1" d="M 341.428,400.431 356.178,374.617 z" id="boundary" inkscape:connector-curvature="0" />
	<path style="fill:none;stroke:red;stroke-width:1px;stroke-linecap:butt;stroke-linejoin:miter;stroke-opacity:1" d="M 350.647,96.1933 363.554,110.944 z" id="boundary" inkscape:connector-curvature="0" />
	<path style="fill:none;stroke:red;stroke-width:1px;stroke-linecap:butt;stroke-linejoin:miter;stroke-opacity:1" d="M 356.178,374.617 365.398,356.178 z" id="boundary" inkscape:connector-curvature="0" />
	<path style="fill:none;stroke:red;stroke-width:1px;stroke-linecap:butt;stroke-linejoin:miter;stroke-opacity:1" d="M 363.554,110.944 378.305,123.851 z" id="boundary" inkscape:connector-curvature="0" />
	<path style="fill:none;stroke:red;stroke-width:1px;stroke-linecap:butt;stroke-linejoin:miter;stroke-opacity:1" d="M 365.398,356.178 383.836,346.959 z" id="boundary" inkscape:connector-curvature="0" />
	<path style="fill:none;stroke:red;stroke-width:1px;stroke-linecap:butt;stroke-linejoin:miter;stroke-opacity:1" d="M 378.305,123.851 391.212,138.602 z" id="boundary" inkscape:connector-curvature="0" />
	<path style="fill:none;stroke:red;stroke-width:1px;stroke-linecap:butt;stroke-linejoin:miter;stroke-opacity:1" d="M 383.836,328.52 383.836,346.959 z" id="boundary" inkscape:connector-curvature="0" />
	<path style="fill:none;stroke:red;stroke-width:1px;stroke-linecap:butt;stroke-linejoin:miter;stroke-opacity:1" d="M 383.836,328.52 400.431,319.301 z" id="boundary" inkscape:connector-curvature="0" />
	<path style="fill:none;stroke:red;stroke-width:1px;stroke-linecap:butt;stroke-linejoin:miter;stroke-opacity:1" d="M 391.212,138.602 409.651,145.978 z" id="boundary" inkscape:connector-curvature="0" />
	<path style="fill:none;stroke:red;stroke-width:1px;stroke-linecap:butt;stroke-linejoin:miter;stroke-opacity:1" d="M 400.431,319.301 418.87,313.77 z" id="boundary" inkscape:connector-curvature="0" />
	<path style="fill:none;stroke:red;stroke-width:1px;stroke-linecap:butt;stroke-linejoin:miter;stroke-opacity:1" d="M 409.651,145.978 426.245,155.197 z" id="boundary" inkscape:connector-curvature="0" />
	<path style="fill:none;stroke:red;stroke-width:1px;stroke-linecap:butt;stroke-linejoin:miter;stroke-opacity:1" d="M 418.87,313.77 437.309,310.082 z" id="boundary" inkscape:connector-curvature="0" />
	<path style="fill:none;stroke:red;stroke-width:1px;stroke-linecap:butt;stroke-linejoin:miter;stroke-opacity:1" d="M 426.245,155.197 444.684,160.729 z" id="boundary" inkscape:connector-curvature="0" />
	<path style="fill:none;stroke:red;stroke-width:1px;stroke-linecap:butt;stroke-linejoin:miter;stroke-opacity:1" d="M 437.309,310.082 453.903,300.862 z" id="boundary" inkscape:connector-curvature="0" />
	<path style="fill:none;stroke:red;stroke-width:1px;stroke-linecap:butt;stroke-linejoin:miter;stroke-opacity:1" d="M 444.684,160.729 463.123,160.729 z" id="boundary" inkscape:connector-curvature="0" />
	<path style="fill:none;stroke:red;stroke-width:1px;stroke-linecap:butt;stroke-linejoin:miter;stroke-opacity:1" d="M 453.903,300.862 470.498,310.082 z" id="boundary" inkscape:connector-curvature="0" />
	<path style="fill:none;stroke:red;stroke-width:1px;stroke-linecap:butt;stroke-linejoin:miter;stroke-opacity:1" d="M 463.123,160.729 481.561,160.729 z" id="boundary" inkscape:connector-curvature="0" />
	<path style="fill:none;stroke:red;stroke-width:1px;stroke-linecap:butt;stroke-linejoin:miter;stroke-opacity:1" d="M 470.498,310.082 483.405,295.331 z" id="boundary" inkscape:connector-curvature="0" />
	<path style="fill:none;stroke:red;stroke-width:1px;stroke-linecap:butt;stroke-linejoin:miter;stroke-opacity:1" d="M 481.561,160.729 494.468,175.48 z" id="boundary" inkscape:connector-curvature="0" />
	<path style="fill:none;stroke:red;stroke-width:1px;stroke-linecap:butt;stroke-linejoin:miter;stroke-opacity:1" d="M 483.405,295.331 494.468,273.204 z" id="boundary" inkscape:connector-curvature="0" />
	<path style="fill:none;stroke:red;stroke-width:1px;stroke-linecap:butt;stroke-linejoin:miter;stroke-opacity:1" d="M 494.468,175.48 512.907,179.167 z" id="boundary" inkscape:connector-curvature="0" />
	<path style="fill:none;stroke:red;stroke-width:1px;stroke-linecap:butt;stroke-linejoin:miter;stroke-opacity:1" d="M 494.468,273.204 503.688,254.766 z" id="boundary" inkscape:connector-curvature="0" />
	<path style="fill:none;stroke:red;stroke-width:1px;stroke-linecap:butt;stroke-linejoin:miter;stroke-opacity:1" d="M 503.688,254.766 522.126,254.766 z" id="boundary" inkscape:connector-curvature="0" />
	<path style="fill:none;stroke:red;stroke-width:1px;stroke-linecap:butt;stroke-linejoin:miter;stroke-opacity:1" d="M 512.907,179.167 531.346,179.167 z" id="boundary" inkscape:connector-curvature="0" />
	<path style="fill:none;stroke:red;stroke-width:1px;stroke-linecap:butt;stroke-linejoin:miter;stroke-opacity:1" d="M 522.126,254.766 540.565,254.766 z" id="boundary" inkscape:connector-curvature="0" />
	<path style="fill:none;stroke:red;stroke-width:1px;stroke-linecap:butt;stroke-linejoin:miter;stroke-opacity:1" d="M 531.346,179.167 549.784,179.167 z" id="boundary" inkscape:connector-curvature="0" />
	<path style="fill:none;stroke:red;stroke-width:1px;stroke-linecap:butt;stroke-linejoin:miter;stroke-opacity:1" d="M 540.565,254.766 559.004,254.766 z" id="boundary" inkscape:connector-curvature="0" />
	<path style="fill:none;stroke:red;stroke-width:1px;stroke-linecap:butt;stroke-linejoin:miter;stroke-opacity:1" d="M 549.784,179.167 568.223,179.167 z" id="boundary" inkscape:connector-curvature="0" />
	<path style="fill:none;stroke:red;stroke-width:1px;stroke-linecap:butt;stroke-linejoin:miter;stroke-opacity:1" d="M 559.004,254.766 575.599,245.546 z" id="boundary" inkscape:connector-curvature="0" />
	<path style="fill:none;stroke:red;stroke-width:1px;stroke-linecap:butt;stroke-linejoin:miter;stroke-opacity:1" d="M 568.223,179.167 586.662,179.167 z" id="boundary" inkscape:connector-curvature="0" />
	<path style="fill:none;stroke:red;stroke-width:1px;stroke-linecap:butt;stroke-linejoin:miter;stroke-opacity:1" d="M 575.599,245.546 594.037,245.546 z" id="boundary" inkscape:connector-curvature="0" />
	<path style="fill:none;stroke:red;stroke-width:1px;stroke-linecap:butt;stroke-linejoin:miter;stroke-opacity:1" d="M 586.662,179.167 605.1,179.167 z" id="boundary" inkscape:connector-curvature="0" />
	<path style="fill:none;stroke:red;stroke-width:1px;stroke-linecap:butt;stroke-linejoin:miter;stroke-opacity:1" d="M 594.037,245.546 612.476,245.546 z" id="boundary" inkscape:connector-curvature="0" />
	<path style="fill:none;stroke:red;stroke-width:1px;stroke-linecap:butt;stroke-linejoin:miter;stroke-opacity:1" d="M 605.1,179.167 621.695,169.948 z" id="boundary" inkscape:connector-curvature="0" />
	<path style="fill:none;stroke:red;stroke-width:1px;stroke-linecap:butt;stroke-linejoin:miter;stroke-opacity:1" d="M 612.476,245.546 629.071,254.766 z" id="boundary" inkscape:connector-curvature="0" />
	<path style="fill:none;stroke:red;stroke-width:1px;stroke-linecap:butt;stroke-linejoin:miter;stroke-opacity:1" d="M 621.695,169.948 640.134,169.948 z" id="boundary" inkscape:connector-curvature="0" />
	<path style="fill:none;stroke:red;stroke-width:1px;stroke-linecap:butt;stroke-linejoin:miter;stroke-opacity:1" d="M 629.071,254.766 641.978,269.517 z" id="boundary" inkscape:connector-curvature="0" />
	<path style="fill:none;stroke:red;stroke-width:1px;stroke-linecap:butt;stroke-linejoin:miter;stroke-opacity:1" d="M 640.134,169.948 658.572,169.948 z" id="boundary" inkscape:connector-curvature="0" />
	<path style="fill:none;stroke:red;stroke-width:1px;stroke-linecap:butt;stroke-linejoin:miter;stroke-opacity:1" d="M 641.978,269.517 660.416,273.204 z" id="boundary" inkscape:connector-curvature="0" />
	<path style="fill:none;stroke:red;stroke-width:1px;stroke-linecap:butt;stroke-linejoin:miter;stroke-opacity:1" d="M 658.572,169.948 677.011,169.948 z" id="boundary" inkscape:connector-curvature="0" />
	<path style="fill:none;stroke:red;stroke-width:1px;stroke-linecap:butt;stroke-linejoin:miter;stroke-opacity:1" d="M 660.416,273.204 678.855,263.985 z" id="boundary" inkscape:connector-curvature="0" />
	<path style="fill:none;stroke:red;stroke-width:1px;stroke-linecap:butt;stroke-linejoin:miter;stroke-opacity:1" d="M 677.011,169.948 693.606,160.729 z" id="boundary" inkscape:connector-curvature="0" />
	<path style="fill:none;stroke:red;stroke-width:1px;stroke-linecap:butt;stroke-linejoin:miter;stroke-opacity:1" d="M 678.855,263.985 697.294,263.985 z" id="boundary" inkscape:connector-curvature="0" />
	<path style="fill:none;stroke:red;stroke-width:1px;stroke-linecap:butt;stroke-linejoin:miter;stroke-opacity:1" d="M 693.606,160.729 712.045,160.729 z" id="boundary" inkscape:connector-curvature="0" />
	<path style="fill:none;stroke:red;stroke-width:1px;stroke-linecap:butt;stroke-linejoin:miter;stroke-opacity:1" d="M 697.294,263.985 715.732,254.766 z" id="boundary" inkscape:connector-curvature="0" />
	<path style="fill:none;stroke:red;stroke-width:1px;stroke-linecap:butt;stroke-linejoin:miter;stroke-opacity:1" d="M 712.045,160.729 730.483,160.729 z" id="boundary" inkscape:connector-curvature="0" />
	<path style="fill:none;stroke:red;stroke-width:1px;stroke-linecap:butt;stroke-linejoin:miter;stroke-opacity:1" d="M 715.732,254.766 734.171,254.766 z" id="boundary" inkscape:connector-curvature="0" />
	<path style="fill:none;stroke:red;stroke-width:1px;stroke-linecap:butt;stroke-linejoin:miter;stroke-opacity:1" d="M 730.483,160.729 748.922,160.729 z" id="boundary" inkscape:connector-curvature="0" />
	<path style="fill:none;stroke:red;stroke-width:1px;stroke-linecap:butt;stroke-linejoin:miter;stroke-opacity:1" d="M 734.171,254.766 750.766,245.546 z" id="boundary" inkscape:connector-curvature="0" />
	<path style="fill:none;stroke:red;stroke-width:1px;stroke-linecap:butt;stroke-linejoin:miter;stroke-opacity:1" d="M 748.922,160.729 767.361,160.729 z" id="boundary" inkscape:connector-curvature="0" />
	<path style="fill:none;stroke:red;stroke-width:1px;stroke-linecap:butt;stroke-linejoin:miter;stroke-opacity:1" d="M 750.766,245.546 767.361,254.766 z" id="boundary" inkscape:connector-curvature="0" />
	<path style="fill:none;stroke:red;stroke-width:1px;stroke-linecap:butt;stroke-linejoin:miter;stroke-opacity:1" d="M 767.361,160.729 783.955,151.509 z" id="boundary" inkscape:connector-curvature="0" />
	<path style="fill:none;stroke:red;stroke-width:1px;stroke-linecap:butt;stroke-linejoin:miter;stroke-opacity:1" d="M 767.361,254.766 785.799,254.766 z" id="boundary" inkscape:connector-curvature="0" />
	<path style="fill:none;stroke:red;stroke-width:1px;stroke-linecap:butt;stroke-linejoin:miter;stroke-opacity:1" d="M 783.955,151.509 800.55,142.29 z" id="boundary" inkscape:connector-curvature="0" />
	<path style="fill:none;stroke:red;stroke-width:1px;stroke-linecap:butt;stroke-linejoin:miter;stroke-opacity:1" d="M 785.799,254.766 802.394,263.985 z" id="boundary" inkscape:connector-curvature="0" />
	<path style="fill:none;stroke:red;stroke-width:1px;stroke-linecap:butt;stroke-linejoin:miter;stroke-opacity:1" d="M 800.55,142.29 818.989,142.29 z" id="boundary" inkscape:connector-curvature="0" />
	<path style="fill:none;stroke:red;stroke-width:1px;stroke-linecap:butt;stroke-linejoin:miter;stroke-opacity:1" d="M 802.394,263.985 818.989,254.766 z" id="boundary" inkscape:connector-curvature="0" />
	<path style="fill:none;stroke:red;stroke-width:1px;stroke-linecap:butt;stroke-linejoin:miter;stroke-opacity:1" d="M 818.989,142.29 835.584,151.509 z" id="boundary" inkscape:connector-curvature="0" />
	<path style="fill:none;stroke:red;stroke-width:1px;stroke-linecap:butt;stroke-linejoin:miter;stroke-opacity:1" d="M 818.989,254.766 833.74,240.015 z" id="boundary" inkscape:connector-curvature="0" />
	<path style="fill:none;stroke:red;stroke-width:1px;stroke-linecap:butt;stroke-linejoin:miter;stroke-opacity:1" d="M 833.74,240.015 852.178,236.327 z" id="boundary" inkscape:connector-curvature="0" />
	<path style="fill:none;stroke:red;stroke-width:1px;stroke-linecap:butt;stroke-linejoin:miter;stroke-opacity:1" d="M 835.584,151.509 852.178,142.29 z" id="boundary" inkscape:connector-curvature="0" />
	<path style="fill:none;stroke:red;stroke-width:1px;stroke-linecap:butt;stroke-linejoin:miter;stroke-opacity:1" d="M 852.178,142.29 870.617,142.29 z" id="boundary" inkscape:connector-curvature="0" />
	<path style="fill:none;stroke:red;stroke-width:1px;stroke-linecap:butt;stroke-linejoin:miter;stroke-opacity:1" d="M 852.178,236.327 863.242,217.888 z" id="boundary" inkscape:connector-curvature="0" />
	<path style="fill:none;stroke:red;stroke-width:1px;stroke-linecap:butt;stroke-linejoin:miter;stroke-opacity:1" d="M 863.242,217.888 879.836,227.108 z" id="boundary" inkscape:connector-curvature="0" />
	<path style="fill:none;stroke:red;stroke-width:1px;stroke-linecap:butt;stroke-linejoin:miter;stroke-opacity:1" d="M 870.617,142.29 889.056,142.29 z" id="boundary" inkscape:connector-curvature="0" />
	<path style="fill:none;stroke:red;stroke-width:1px;stroke-linecap:butt;stroke-linejoin:miter;stroke-opacity:1" d="M 879.836,227.108 896.431,217.888 z" id="boundary" inkscape:connector-curvature="0" />
	<path style="fill:none;stroke:red;stroke-width:1px;stroke-linecap:butt;stroke-linejoin:miter;stroke-opacity:1" d="M 889.056,142.29 907.494,138.602 z" id="boundary" inkscape:connector-curvature="0" />
	<path style="fill:none;stroke:red;stroke-width:1px;stroke-linecap:butt;stroke-linejoin:miter;stroke-opacity:1" d="M 896.431,217.888 914.87,217.888 z" id="boundary" inkscape:connector-curvature="0" />
	<path style="fill:none;stroke:red;stroke-width:1px;stroke-linecap:butt;stroke-linejoin:miter;stroke-opacity:1" d="M 907.494,138.602 925.933,133.071 z" id="boundary" inkscape:connector-curvature="0" />
	<path style="fill:none;stroke:red;stroke-width:1px;stroke-linecap:butt;stroke-linejoin:miter;stroke-opacity:1" d="M 914.87,217.888 933.309,217.888 z" id="boundary" inkscape:connector-curvature="0" />
	<path style="fill:none;stroke:red;stroke-width:1px;stroke-linecap:butt;stroke-linejoin:miter;stroke-opacity:1" d="M 925.933,133.071 944.372,133.071 z" id="boundary" inkscape:connector-curvature="0" />
	<path style="fill:none;stroke:red;stroke-width:1px;stroke-linecap:butt;stroke-linejoin:miter;stroke-opacity:1" d="M 933.309,217.888 949.903,227.108 z" id="boundary" inkscape:connector-curvature="0" />
	<path style="fill:none;stroke:red;stroke-width:1px;stroke-linecap:butt;stroke-linejoin:miter;stroke-opacity:1" d="M 944.372,133.071 962.81,136.758 z" id="boundary" inkscape:connector-curvature="0" />
	<path style="fill:none;stroke:red;stroke-width:1px;stroke-linecap:butt;stroke-linejoin:miter;stroke-opacity:1" d="M 949.903,227.108 962.81,212.357 z" id="boundary" inkscape:connector-curvature="0" />
	<path style="fill:none;stroke:red;stroke-width:1px;stroke-linecap:butt;stroke-linejoin:miter;stroke-opacity:1" d="M 962.81,136.758 979.405,145.978 z" id="boundary" inkscape:connector-curvature="0" />
	<path style="fill:none;stroke:red;stroke-width:1px;stroke-linecap:butt;stroke-linejoin:miter;stroke-opacity:1" d="M 962.81,212.357 981.249,203.138 z" id="boundary" inkscape:connector-curvature="0" />
	<path style="fill:none;stroke:red;stroke-width:1px;stroke-linecap:butt;stroke-linejoin:miter;stroke-opacity:1" d="M 979.405,145.978 992.312,160.729 z" id="boundary" inkscape:connector-curvature="0" />
	<path style="fill:none;stroke:red;stroke-width:1px;stroke-linecap:butt;stroke-linejoin:miter;stroke-opacity:1" d="M 981.249,203.138 996,188.387 z" id="boundary" inkscape:connector-curvature="0" />
	<path style="fill:none;stroke:red;stroke-width:1px;stroke-linecap:butt;stroke-linejoin:miter;stroke-opacity:1" d="M 992.312,160.729 996,188.387 z" id="boundary" inkscape:connector-curvature="0" />
	<circle cx="4" cy="175.48" r="4" fill="#0" id="circle0"/>
	<circle cx="4" cy="193.918" r="4" fill="#0" id="circle1"/>
	<circle cx="4" cy="212.357" r="4" fill="#0" id="circle2"/>
	<circle cx="4" cy="230.796" r="4" fill="#0" id="circle3"/>
	<circle cx="4" cy="249.234" r="4" fill="#0" id="circle4"/>
	<circle cx="4" cy="267.673" r="4" fill="#0" id="circle5"/>
	<circle cx="4" cy="286.112" r="4" fill="#0" id="circle6"/>
	<circle cx="15.0632" cy="300.862" r="4" fill="#0" id="circle7"/>
	<circle cx="18.7509" cy="160.729" r="4" fill="#0" id="circle8"/>
	<circle cx="26.1264" cy="315.613" r="4" fill="#0" id="circle9"/>
	<circle cx="27.9703" cy="142.29" r="4" fill="#0" id="circle10"/>
	<circle cx="40.8773" cy="328.52" r="4" fill="#0" id="circle11"/>
	<circle cx="46.4089" cy="133.071" r="4" fill="#0" id="circle12"/>
	<circle cx="51.9405" cy="343.271" r="4" fill="#0" id="circle13"/>
	<circle cx="59.316" cy="110.944" r="4" fill="#0" id="circle14"/>
	<circle cx="66.6914" cy="356.178" r="4" fill="#0" id="circle15"/>
	<circle cx="74.0669" cy="96.1933" r="4" fill="#0" id="circle16"/>
	<circle cx="74.0669" cy="374.617" r="4" fill="#0" id="circle17"/>
	<circle cx="88.8178" cy="81.4424" r="4" fill="#0" id="circle18"/>
	<circle cx="88.8178" cy="387.524" r="4" fill="#0" id="circle19"/>
	<circle cx="101.725" cy="402.275" r="4" fill="#0" id="circle20"/>
	<circle cx="107.257" cy="72.223" r="4" fill="#0" id="circle21"/>
	<circle cx="118.32" cy="411.494" r="4" fill="#0" id="circle22"/>
	<circle cx="122.007" cy="59.316" r="4" fill="#0" id="circle23"/>
	<circle cx="134.914" cy="44.5651" r="4" fill="#0" id="circle24"/>
	<circle cx="136.758" cy="417.026" r="4" fill="#0" id="circle25"/>
	<circle cx="149.665" cy="31.658" r="4" fill="#0" id="circle26"/>
	<circle cx="151.509" cy="429.933" r="4" fill="#0" id="circle27"/>
	<circle cx="166.26" cy="22.4387" r="4" fill="#0" id="circle28"/>
	<circle cx="169.948" cy="429.933" r="4" fill="#0" id="circle29"/>
	<circle cx="184.699" cy="22.4387" r="4" fill="#0" id="circle30"/>
	<circle cx="186.543" cy="439.152" r="4" fill="#0" id="circle31"/>
	<circle cx="199.45" cy="7.68773" r="4" fill="#0" id="circle32"/>
	<circle cx="203.138" cy="448.372" r="4" fill="#0" id="circle33"/>
	<circle cx="217.888" cy="4" r="4" fill="#0" id="circle34"/>
	<circle cx="221.576" cy="448.372" r="4" fill="#0" id="circle35"/>
	<circle cx="236.327" cy="4" r="4" fill="#0" id="circle36"/>
	<circle cx="240.015" cy="448.372" r="4" fill="#0" id="circle37"/>
	<circle cx="254.766" cy="4" r="4" fill="#0" id="circle38"/>
	<circle cx="258.454" cy="448.372" r="4" fill="#0" id="circle39"/>
	<circle cx="269.517" cy="15.0632" r="4" fill="#0" id="circle40"/>
	<circle cx="275.048" cy="439.152" r="4" fill="#0" id="circle41"/>
	<circle cx="282.424" cy="29.8141" r="4" fill="#0" id="circle42"/>
	<circle cx="291.643" cy="429.933" r="4" fill="#0" id="circle43"/>
	<circle cx="297.175" cy="42.7212" r="4" fill="#0" id="circle44"/>
	<circle cx="310.082" cy="57.4721" r="4" fill="#0" id="circle45"/>
	<circle cx="310.082" cy="420.714" r="4" fill="#0" id="circle46"/>
	<circle cx="326.677" cy="411.494" r="4" fill="#0" id="circle47"/>
	<circle cx="328.52" cy="64.8476" r="4" fill="#0" id="circle48"/>
	<circle cx="341.428" cy="79.5985" r="4" fill="#0" id="circle49"/>
	<circle cx="341.428" cy="400.431" r="4" fill="#0" id="circle50"/>
	<circle cx="350.647" cy="96.1933" r="4" fill="#0" id="circle51"/>
	<circle cx="356.178" cy="374.617" r="4" fill="#0" id="circle52"/>
	<circle cx="363.554" cy="110.944" r="4" fill="#0" id="circle53"/>
	<circle cx="365.398" cy="356.178" r="4" fill="#0" id="circle54"/>
	<circle cx="378.305" cy="123.851" r="4" fill="#0" id="circle55"/>
	<circle cx="383.836" cy="328.52" r="4" fill="#0" id="circle56"/>
	<circle cx="383.836" cy="346.959" r="4" fill="#0" id="circle57"/>
	<circle cx="391.212" cy="138.602" r="4" fill="#0" id="circle58"/>
	<circle cx="400.431" cy="319.301" r="4" fill="#0" id="circle59"/>
	<circle cx="409.651" cy="145.978" r="4" fill="#0" id="circle60"/>
	<circle cx="418.87" cy="313.77" r="4" fill="#0" id="circle61"/>
	<circle cx="426.245" cy="155.197" r="4" fill="#0" id="circle62"/>
	<circle cx="437.309" cy="310.082" r="4" fill="#0" id="circle63"/>
	<circle cx="444.684" cy="160.729" r="4" fill="#0" id="circle64"/>
	<circle cx="453.903" cy="300.862" r="4" fill="#0" id="circle65"/>
	<circle cx="463.123" cy="160.729" r="4" fill="#0" id="circle66"/>
	<circle cx="470.498" cy="310.082" r="4" fill="#0" id="circle67"/>
	<circle cx="481.561" cy="160.729" r="4" fill="#0" id="circle68"/>
	<circle cx="483.405" cy="295.331" r="4" fill="#0" id="circle69"/>
	<circle cx="494.468" cy="175.48" r="4" fill="#0" id="circle70"/>
	<circle cx="494.468" cy="273.204" r="4" fill="#0" id="circle71"/>
	<circle cx="503.688" cy="254.766" r="4" fill="#0" id="circle72"/>
	<circle cx="512.907" cy="179.167" r="4" fill="#0" id="circle73"/>
	<circle cx="522.126" cy="254.766" r="4" fill="#0" id="circle74"/>
	<circle cx="531.346" cy="179.167" r="4" fill="#0" id="circle75"/>
	<circle cx="540.565" cy="254.766" r="4" fill="#0" id="circle76"/>
	<circle cx="549.784" cy="179.167" r="4" fill="#0" id="circle77"/>
	<circle cx="559.004" cy="254.766" r="4" fill="#0" id="circle78"/>
	<circle cx="568.223" cy="179.167" r="4" fill="#0" id="circle79"/>
	<circle cx="575.599" cy="245.546" r="4" fill="#0" id="circle80"/>
	<circle cx="586.662" cy="179.167" r="4" fill="#0" id="circle81"/>
	<circle cx="594.037" cy="245.546" r="4" fill="#0" id="circle82"/>
	<circle cx="605.1" cy="179.167" r="4" fill="#0" id="circle83"/>
	<circle cx="612.476" cy="245.546" r="4" fill="#0" id="circle84"/>
	<circle cx="621.695" cy="169.948" r="4" fill="#0" id="circle85"/>
	<circle cx="629.071" cy="254.766" r="4" fill="#0" id="circle86"/>
	<circle cx="640.134" cy="169.948" r="4" fill="#0" id="circle87"/>
	<circle cx="641.978" cy="269.517" r="4" fill="#0" id="circle88"/>
	<circle cx="658.572" cy="169.948" r="4" fill="#0" id="circle89"/>
	<circle cx="660.416" cy="273.204" r="4" fill="#0" id="circle90"/>
	<circle cx="677.011" cy="169.948" r="4" fill="#0" id="circle91"/>
	<circle cx="678.855" cy="263.985" r="4" fill="#0" id="circle92"/>
	<circle cx="693.606" cy="160.729" r="4" fill="#0" id="circle93"/>
	<circle cx="697.294" cy="263.985" r="4" fill="#0" id="circle94"/>
	<circle cx="712.045" cy="160.729" r="4" fill="#0" id="circle95"/>
	<circle cx="715.732" cy="254.766" r="4" fill="#0" id="circle96"/>
	<circle cx="730.483" cy="160.729" r="4" fill="#0" id="circle97"/>
	<circle cx="734.171" cy="254.766" r="4" fill="#0" id="circle98"/>
	<circle cx="748.922" cy="160.729" r="4" fill="#0" id="circle99"/>
	<circle cx="750.766" cy="245.546" r="4" fill="#0" id="circle100"/>
	<circle cx="767.361" cy="160.729" r="4" fill="#0" id="circle101"/>
	<circle cx="767.361" cy="254.766" r="4" fill="#0" id="circle102"/>
	<circle cx="783.955" cy="151.509" r="4" fill="#0" id="circle103"/>
	<circle cx="785.799" cy="254.766" r="4" fill="#0" id="circle104"/>
	<circle cx="800.55" cy="142.29" r="4" fill="#0" id="circle105"/>
	<circle cx="802.394" cy="263.985" r="4" fill="#0" id="circle106"/>
	<circle cx="818.989" cy="142.29" r="4" fill="#0" id="circle107"/>
	<circle cx="818.989" cy="254.766" r="4" fill="#0" id="circle108"/>
	<circle cx="833.74" cy="240.015" r="4" fill="#0" id="circle109"/>
	<circle cx="835.584" cy="151.509" r="4" fill="#0" id="circle110"/>
	<circle cx="852.178" cy="142.29" r="4" fill="#0" id="circle111"/>
	<circle cx="852.178" cy="236.327" r="4" fill="#0" id="circle112"/>
	<circle cx="863.242" cy="217.888" r="4" fill="#0" id="circle113"/>
	<circle cx="870.617" cy="142.29" r="4" fill="#0" id="circle114"/>
	<circle cx="879.836" cy="227.108" r="4" fill="#0" id="circle115"/>
	<circle cx="889.056" cy="142.29" r="4" fill="#0" id="circle116"/>
	<circle cx="896.431" cy="217.888" r="4" fill="#0" id="circle117"/>
	<circle cx="907.494" cy="138.602" r="4" fill="#0" id="circle118"/>
	<circle cx="914.87" cy="217.888" r="4" fill="#0" id="circle119"/>
	<circle cx="925.933" cy="133.071" r="4" fill="#0" id="circle120"/>
	<circle cx="933.309" cy="217.888" r="4" fill="#0" id="circle121"/>
	<circle cx="944.372" cy="133.071" r="4" fill="#0" id="circle122"/>
	<circle cx="949.903" cy="227.108" r="4" fill="#0" id="circle123"/>
	<circle cx="962.81" cy="136.758" r="4" fill="#0" id="circle124"/>
	<circle cx="962.81" cy="212.357" r="4" fill="#0" id="circle125"/>
	<circle cx="979.405" cy="145.978" r="4" fill="#0" id="circle126"/>
	<circle cx="981.249" cy="203.138" r="4" fill="#0" id="circle127"/>
	<circle cx="992.312" cy="160.729" r="4" fill="#0" id="circle128"/>
	<circle cx="996" cy="188.387" r="4" fill="#0" id="circle129"/>
	</g>
</svg>