<?xml version="1.0" encoding="UTF-8" standalone="no"?>
<!-- Created with CurveBenchmark -->
<svg
	xmlns:dc="http://purl.org/dc/elements/1.1/"
	xmlns:cc="http://creativecommons.org/ns#"
	xmlns:rdf="http://www.w3.org/1999/02/22-rdf-syntax-ns#"
	xmlns:svg="http://www.w3.org/2000/svg"
	xmlns="http://www.w3.org/2000/svg"
	xmlns:sodipodi="http://sodipodi.sourceforge.net/DTD/sodipodi-0.dtd"
	xmlns:inkscape="http://www.inkscape.org/namespaces/inkscape"
	width="1000"
	height="1000"
	id="svg2"
	version="1.1"
	sodipodi:docname="manifold/discur-hammer290.png.txt">
<defs
	id="defs4" />
<metadata
	id="metadata7">
	<rdf:RDF>
		<cc:Work
			rdf:about="">
			<dc:format>image/svg+xml</dc:format>
			<dc:type
				rdf:resource="http://purl.org/dc/dcmitype/StillImage" />
			<dc:title></dc:title>
		</cc:Work>
	</rdf:RDF>
</metadata>
<g
	inkscape:label="Layer 1"
	inkscape:groupmode="layer"
	id="layer1">
	<path style="fill:none;stroke:red;stroke-width:1px;stroke-linecap:butt;stroke-linejoin:miter;stroke-opacity:1" d="M 4,130.516 4,159.27 z" id="boundary" inkscape:connector-curvature="0" />
	<path style="fill:none;stroke:red;stroke-width:1px;stroke-linecap:butt;stroke-linejoin:miter;stroke-opacity:1" d="M 4,130.516 15.5014,84.5101 z" id="boundary" inkscape:connector-curvature="0" />
	<path style="fill:none;stroke:red;stroke-width:1px;stroke-linecap:butt;stroke-linejoin:miter;stroke-opacity:1" d="M 4,159.27 27.0029,179.397 z" id="boundary" inkscape:connector-curvature="0" />
	<path style="fill:none;stroke:red;stroke-width:1px;stroke-linecap:butt;stroke-linejoin:miter;stroke-opacity:1" d="M 15.5014,84.5101 27.0029,55.7565 z" id="boundary" inkscape:connector-curvature="0" />
	<path style="fill:none;stroke:red;stroke-width:1px;stroke-linecap:butt;stroke-linejoin:miter;stroke-opacity:1" d="M 27.0029,55.7565 41.3797,29.8783 z" id="boundary" inkscape:connector-curvature="0" />
	<path style="fill:none;stroke:red;stroke-width:1px;stroke-linecap:butt;stroke-linejoin:miter;stroke-opacity:1" d="M 27.0029,179.397 55.7565,179.397 z" id="boundary" inkscape:connector-curvature="0" />
	<path style="fill:none;stroke:red;stroke-width:1px;stroke-linecap:butt;stroke-linejoin:miter;stroke-opacity:1" d="M 41.3797,29.8783 58.6319,6.87536 z" id="boundary" inkscape:connector-curvature="0" />
	<path style="fill:none;stroke:red;stroke-width:1px;stroke-linecap:butt;stroke-linejoin:miter;stroke-opacity:1" d="M 50.0058,987.374 55.7565,941.368 z" id="boundary" inkscape:connector-curvature="0" />
	<path style="fill:none;stroke:red;stroke-width:1px;stroke-linecap:butt;stroke-linejoin:miter;stroke-opacity:1" d="M 50.0058,987.374 78.7594,996 z" id="boundary" inkscape:connector-curvature="0" />
	<path style="fill:none;stroke:red;stroke-width:1px;stroke-linecap:butt;stroke-linejoin:miter;stroke-opacity:1" d="M 55.7565,179.397 78.7594,196.649 z" id="boundary" inkscape:connector-curvature="0" />
	<path style="fill:none;stroke:red;stroke-width:1px;stroke-linecap:butt;stroke-linejoin:miter;stroke-opacity:1" d="M 55.7565,510.064 55.7565,538.817 z" id="boundary" inkscape:connector-curvature="0" />
	<path style="fill:none;stroke:red;stroke-width:1px;stroke-linecap:butt;stroke-linejoin:miter;stroke-opacity:1" d="M 55.7565,510.064 61.5072,469.809 z" id="boundary" inkscape:connector-curvature="0" />
	<path style="fill:none;stroke:red;stroke-width:1px;stroke-linecap:butt;stroke-linejoin:miter;stroke-opacity:1" d="M 55.7565,538.817 55.7565,567.571 z" id="boundary" inkscape:connector-curvature="0" />
	<path style="fill:none;stroke:red;stroke-width:1px;stroke-linecap:butt;stroke-linejoin:miter;stroke-opacity:1" d="M 55.7565,567.571 55.7565,596.325 z" id="boundary" inkscape:connector-curvature="0" />
	<path style="fill:none;stroke:red;stroke-width:1px;stroke-linecap:butt;stroke-linejoin:miter;stroke-opacity:1" d="M 55.7565,596.325 55.7565,625.078 z" id="boundary" inkscape:connector-curvature="0" />
	<path style="fill:none;stroke:red;stroke-width:1px;stroke-linecap:butt;stroke-linejoin:miter;stroke-opacity:1" d="M 55.7565,625.078 55.7565,653.832 z" id="boundary" inkscape:connector-curvature="0" />
	<path style="fill:none;stroke:red;stroke-width:1px;stroke-linecap:butt;stroke-linejoin:miter;stroke-opacity:1" d="M 55.7565,653.832 55.7565,682.586 z" id="boundary" inkscape:connector-curvature="0" />
	<path style="fill:none;stroke:red;stroke-width:1px;stroke-linecap:butt;stroke-linejoin:miter;stroke-opacity:1" d="M 55.7565,682.586 55.7565,711.339 z" id="boundary" inkscape:connector-curvature="0" />
	<path style="fill:none;stroke:red;stroke-width:1px;stroke-linecap:butt;stroke-linejoin:miter;stroke-opacity:1" d="M 55.7565,711.339 55.7565,740.093 z" id="boundary" inkscape:connector-curvature="0" />
	<path style="fill:none;stroke:red;stroke-width:1px;stroke-linecap:butt;stroke-linejoin:miter;stroke-opacity:1" d="M 55.7565,740.093 61.5072,768.846 z" id="boundary" inkscape:connector-curvature="0" />
	<path style="fill:none;stroke:red;stroke-width:1px;stroke-linecap:butt;stroke-linejoin:miter;stroke-opacity:1" d="M 55.7565,883.861 55.7565,912.614 z" id="boundary" inkscape:connector-curvature="0" />
	<path style="fill:none;stroke:red;stroke-width:1px;stroke-linecap:butt;stroke-linejoin:miter;stroke-opacity:1" d="M 55.7565,883.861 61.5072,855.107 z" id="boundary" inkscape:connector-curvature="0" />
	<path style="fill:none;stroke:red;stroke-width:1px;stroke-linecap:butt;stroke-linejoin:miter;stroke-opacity:1" d="M 55.7565,912.614 55.7565,941.368 z" id="boundary" inkscape:connector-curvature="0" />
	<path style="fill:none;stroke:red;stroke-width:1px;stroke-linecap:butt;stroke-linejoin:miter;stroke-opacity:1" d="M 58.6319,6.87536 87.3855,4 z" id="boundary" inkscape:connector-curvature="0" />
	<path style="fill:none;stroke:red;stroke-width:1px;stroke-linecap:butt;stroke-linejoin:miter;stroke-opacity:1" d="M 61.5072,469.809 75.8841,443.93 z" id="boundary" inkscape:connector-curvature="0" />
	<path style="fill:none;stroke:red;stroke-width:1px;stroke-linecap:butt;stroke-linejoin:miter;stroke-opacity:1" d="M 61.5072,768.846 61.5072,797.6 z" id="boundary" inkscape:connector-curvature="0" />
	<path style="fill:none;stroke:red;stroke-width:1px;stroke-linecap:butt;stroke-linejoin:miter;stroke-opacity:1" d="M 61.5072,797.6 61.5072,826.354 z" id="boundary" inkscape:connector-curvature="0" />
	<path style="fill:none;stroke:red;stroke-width:1px;stroke-linecap:butt;stroke-linejoin:miter;stroke-opacity:1" d="M 61.5072,826.354 61.5072,855.107 z" id="boundary" inkscape:connector-curvature="0" />
	<path style="fill:none;stroke:red;stroke-width:1px;stroke-linecap:butt;stroke-linejoin:miter;stroke-opacity:1" d="M 75.8841,443.93 84.5101,397.925 z" id="boundary" inkscape:connector-curvature="0" />
	<path style="fill:none;stroke:red;stroke-width:1px;stroke-linecap:butt;stroke-linejoin:miter;stroke-opacity:1" d="M 78.7594,196.649 78.7594,225.403 z" id="boundary" inkscape:connector-curvature="0" />
	<path style="fill:none;stroke:red;stroke-width:1px;stroke-linecap:butt;stroke-linejoin:miter;stroke-opacity:1" d="M 78.7594,225.403 84.5101,254.157 z" id="boundary" inkscape:connector-curvature="0" />
	<path style="fill:none;stroke:red;stroke-width:1px;stroke-linecap:butt;stroke-linejoin:miter;stroke-opacity:1" d="M 78.7594,996 107.513,996 z" id="boundary" inkscape:connector-curvature="0" />
	<path style="fill:none;stroke:red;stroke-width:1px;stroke-linecap:butt;stroke-linejoin:miter;stroke-opacity:1" d="M 84.5101,254.157 84.5101,282.91 z" id="boundary" inkscape:connector-curvature="0" />
	<path style="fill:none;stroke:red;stroke-width:1px;stroke-linecap:butt;stroke-linejoin:miter;stroke-opacity:1" d="M 84.5101,282.91 84.5101,311.664 z" id="boundary" inkscape:connector-curvature="0" />
	<path style="fill:none;stroke:red;stroke-width:1px;stroke-linecap:butt;stroke-linejoin:miter;stroke-opacity:1" d="M 84.5101,311.664 84.5101,340.417 z" id="boundary" inkscape:connector-curvature="0" />
	<path style="fill:none;stroke:red;stroke-width:1px;stroke-linecap:butt;stroke-linejoin:miter;stroke-opacity:1" d="M 84.5101,340.417 84.5101,369.171 z" id="boundary" inkscape:connector-curvature="0" />
	<path style="fill:none;stroke:red;stroke-width:1px;stroke-linecap:butt;stroke-linejoin:miter;stroke-opacity:1" d="M 84.5101,369.171 84.5101,397.925 z" id="boundary" inkscape:connector-curvature="0" />
	<path style="fill:none;stroke:red;stroke-width:1px;stroke-linecap:butt;stroke-linejoin:miter;stroke-opacity:1" d="M 87.3855,4 116.139,4 z" id="boundary" inkscape:connector-curvature="0" />
	<path style="fill:none;stroke:red;stroke-width:1px;stroke-linecap:butt;stroke-linejoin:miter;stroke-opacity:1" d="M 107.513,996 136.267,996 z" id="boundary" inkscape:connector-curvature="0" />
	<path style="fill:none;stroke:red;stroke-width:1px;stroke-linecap:butt;stroke-linejoin:miter;stroke-opacity:1" d="M 116.139,4 144.893,4 z" id="boundary" inkscape:connector-curvature="0" />
	<path style="fill:none;stroke:red;stroke-width:1px;stroke-linecap:butt;stroke-linejoin:miter;stroke-opacity:1" d="M 136.267,996 165.02,996 z" id="boundary" inkscape:connector-curvature="0" />
	<path style="fill:none;stroke:red;stroke-width:1px;stroke-linecap:butt;stroke-linejoin:miter;stroke-opacity:1" d="M 144.893,4 173.646,4 z" id="boundary" inkscape:connector-curvature="0" />
	<path style="fill:none;stroke:red;stroke-width:1px;stroke-linecap:butt;stroke-linejoin:miter;stroke-opacity:1" d="M 150.643,285.786 150.643,314.539 z" id="boundary" inkscape:connector-curvature="0" />
	<path style="fill:none;stroke:red;stroke-width:1px;stroke-linecap:butt;stroke-linejoin:miter;stroke-opacity:1" d="M 150.643,285.786 156.394,234.029 z" id="boundary" inkscape:connector-curvature="0" />
	<path style="fill:none;stroke:red;stroke-width:1px;stroke-linecap:butt;stroke-linejoin:miter;stroke-opacity:1" d="M 150.643,314.539 150.643,343.293 z" id="boundary" inkscape:connector-curvature="0" />
	<path style="fill:none;stroke:red;stroke-width:1px;stroke-linecap:butt;stroke-linejoin:miter;stroke-opacity:1" d="M 150.643,343.293 150.643,372.046 z" id="boundary" inkscape:connector-curvature="0" />
	<path style="fill:none;stroke:red;stroke-width:1px;stroke-linecap:butt;stroke-linejoin:miter;stroke-opacity:1" d="M 150.643,372.046 156.394,400.8 z" id="boundary" inkscape:connector-curvature="0" />
	<path style="fill:none;stroke:red;stroke-width:1px;stroke-linecap:butt;stroke-linejoin:miter;stroke-opacity:1" d="M 156.394,205.275 156.394,234.029 z" id="boundary" inkscape:connector-curvature="0" />
	<path style="fill:none;stroke:red;stroke-width:1px;stroke-linecap:butt;stroke-linejoin:miter;stroke-opacity:1" d="M 156.394,205.275 167.896,159.27 z" id="boundary" inkscape:connector-curvature="0" />
	<path style="fill:none;stroke:red;stroke-width:1px;stroke-linecap:butt;stroke-linejoin:miter;stroke-opacity:1" d="M 156.394,400.8 156.394,429.554 z" id="boundary" inkscape:connector-curvature="0" />
	<path style="fill:none;stroke:red;stroke-width:1px;stroke-linecap:butt;stroke-linejoin:miter;stroke-opacity:1" d="M 156.394,429.554 165.02,458.307 z" id="boundary" inkscape:connector-curvature="0" />
	<path style="fill:none;stroke:red;stroke-width:1px;stroke-linecap:butt;stroke-linejoin:miter;stroke-opacity:1" d="M 165.02,458.307 179.397,484.186 z" id="boundary" inkscape:connector-curvature="0" />
	<path style="fill:none;stroke:red;stroke-width:1px;stroke-linecap:butt;stroke-linejoin:miter;stroke-opacity:1" d="M 165.02,996 185.148,972.997 z" id="boundary" inkscape:connector-curvature="0" />
	<path style="fill:none;stroke:red;stroke-width:1px;stroke-linecap:butt;stroke-linejoin:miter;stroke-opacity:1" d="M 167.896,159.27 173.646,130.516 z" id="boundary" inkscape:connector-curvature="0" />
	<path style="fill:none;stroke:red;stroke-width:1px;stroke-linecap:butt;stroke-linejoin:miter;stroke-opacity:1" d="M 173.646,4 202.4,9.75072 z" id="boundary" inkscape:connector-curvature="0" />
	<path style="fill:none;stroke:red;stroke-width:1px;stroke-linecap:butt;stroke-linejoin:miter;stroke-opacity:1" d="M 173.646,130.516 179.397,96.0116 z" id="boundary" inkscape:connector-curvature="0" />
	<path style="fill:none;stroke:red;stroke-width:1px;stroke-linecap:butt;stroke-linejoin:miter;stroke-opacity:1" d="M 179.397,96.0116 205.275,81.6348 z" id="boundary" inkscape:connector-curvature="0" />
	<path style="fill:none;stroke:red;stroke-width:1px;stroke-linecap:butt;stroke-linejoin:miter;stroke-opacity:1" d="M 179.397,484.186 179.397,512.939 z" id="boundary" inkscape:connector-curvature="0" />
	<path style="fill:none;stroke:red;stroke-width:1px;stroke-linecap:butt;stroke-linejoin:miter;stroke-opacity:1" d="M 179.397,512.939 179.397,541.693 z" id="boundary" inkscape:connector-curvature="0" />
	<path style="fill:none;stroke:red;stroke-width:1px;stroke-linecap:butt;stroke-linejoin:miter;stroke-opacity:1" d="M 179.397,541.693 179.397,570.446 z" id="boundary" inkscape:connector-curvature="0" />
	<path style="fill:none;stroke:red;stroke-width:1px;stroke-linecap:butt;stroke-linejoin:miter;stroke-opacity:1" d="M 179.397,570.446 179.397,599.2 z" id="boundary" inkscape:connector-curvature="0" />
	<path style="fill:none;stroke:red;stroke-width:1px;stroke-linecap:butt;stroke-linejoin:miter;stroke-opacity:1" d="M 179.397,599.2 179.397,627.954 z" id="boundary" inkscape:connector-curvature="0" />
	<path style="fill:none;stroke:red;stroke-width:1px;stroke-linecap:butt;stroke-linejoin:miter;stroke-opacity:1" d="M 179.397,627.954 179.397,656.707 z" id="boundary" inkscape:connector-curvature="0" />
	<path style="fill:none;stroke:red;stroke-width:1px;stroke-linecap:butt;stroke-linejoin:miter;stroke-opacity:1" d="M 179.397,656.707 179.397,685.461 z" id="boundary" inkscape:connector-curvature="0" />
	<path style="fill:none;stroke:red;stroke-width:1px;stroke-linecap:butt;stroke-linejoin:miter;stroke-opacity:1" d="M 179.397,685.461 179.397,714.214 z" id="boundary" inkscape:connector-curvature="0" />
	<path style="fill:none;stroke:red;stroke-width:1px;stroke-linecap:butt;stroke-linejoin:miter;stroke-opacity:1" d="M 179.397,714.214 179.397,742.968 z" id="boundary" inkscape:connector-curvature="0" />
	<path style="fill:none;stroke:red;stroke-width:1px;stroke-linecap:butt;stroke-linejoin:miter;stroke-opacity:1" d="M 179.397,742.968 179.397,771.722 z" id="boundary" inkscape:connector-curvature="0" />
	<path style="fill:none;stroke:red;stroke-width:1px;stroke-linecap:butt;stroke-linejoin:miter;stroke-opacity:1" d="M 179.397,771.722 179.397,800.475 z" id="boundary" inkscape:connector-curvature="0" />
	<path style="fill:none;stroke:red;stroke-width:1px;stroke-linecap:butt;stroke-linejoin:miter;stroke-opacity:1" d="M 179.397,800.475 179.397,829.229 z" id="boundary" inkscape:connector-curvature="0" />
	<path style="fill:none;stroke:red;stroke-width:1px;stroke-linecap:butt;stroke-linejoin:miter;stroke-opacity:1" d="M 179.397,829.229 179.397,857.983 z" id="boundary" inkscape:connector-curvature="0" />
	<path style="fill:none;stroke:red;stroke-width:1px;stroke-linecap:butt;stroke-linejoin:miter;stroke-opacity:1" d="M 179.397,857.983 179.397,886.736 z" id="boundary" inkscape:connector-curvature="0" />
	<path style="fill:none;stroke:red;stroke-width:1px;stroke-linecap:butt;stroke-linejoin:miter;stroke-opacity:1" d="M 179.397,886.736 179.397,915.49 z" id="boundary" inkscape:connector-curvature="0" />
	<path style="fill:none;stroke:red;stroke-width:1px;stroke-linecap:butt;stroke-linejoin:miter;stroke-opacity:1" d="M 179.397,915.49 179.397,944.243 z" id="boundary" inkscape:connector-curvature="0" />
	<path style="fill:none;stroke:red;stroke-width:1px;stroke-linecap:butt;stroke-linejoin:miter;stroke-opacity:1" d="M 179.397,944.243 185.148,972.997 z" id="boundary" inkscape:connector-curvature="0" />
	<path style="fill:none;stroke:red;stroke-width:1px;stroke-linecap:butt;stroke-linejoin:miter;stroke-opacity:1" d="M 202.4,9.75072 219.652,32.7536 z" id="boundary" inkscape:connector-curvature="0" />
	<path style="fill:none;stroke:red;stroke-width:1px;stroke-linecap:butt;stroke-linejoin:miter;stroke-opacity:1" d="M 205.275,81.6348 219.652,32.7536 z" id="boundary" inkscape:connector-curvature="0" />
	<circle cx="4" cy="130.516" r="4" fill="#0" id="circle0"/>
	<circle cx="4" cy="159.27" r="4" fill="#0" id="circle1"/>
	<circle cx="15.5014" cy="84.5101" r="4" fill="#0" id="circle2"/>
	<circle cx="27.0029" cy="55.7565" r="4" fill="#0" id="circle3"/>
	<circle cx="27.0029" cy="179.397" r="4" fill="#0" id="circle4"/>
	<circle cx="41.3797" cy="29.8783" r="4" fill="#0" id="circle5"/>
	<circle cx="50.0058" cy="987.374" r="4" fill="#0" id="circle6"/>
	<circle cx="55.7565" cy="179.397" r="4" fill="#0" id="circle7"/>
	<circle cx="55.7565" cy="510.064" r="4" fill="#0" id="circle8"/>
	<circle cx="55.7565" cy="538.817" r="4" fill="#0" id="circle9"/>
	<circle cx="55.7565" cy="567.571" r="4" fill="#0" id="circle10"/>
	<circle cx="55.7565" cy="596.325" r="4" fill="#0" id="circle11"/>
	<circle cx="55.7565" cy="625.078" r="4" fill="#0" id="circle12"/>
	<circle cx="55.7565" cy="653.832" r="4" fill="#0" id="circle13"/>
	<circle cx="55.7565" cy="682.586" r="4" fill="#0" id="circle14"/>
	<circle cx="55.7565" cy="711.339" r="4" fill="#0" id="circle15"/>
	<circle cx="55.7565" cy="740.093" r="4" fill="#0" id="circle16"/>
	<circle cx="55.7565" cy="883.861" r="4" fill="#0" id="circle17"/>
	<circle cx="55.7565" cy="912.614" r="4" fill="#0" id="circle18"/>
	<circle cx="55.7565" cy="941.368" r="4" fill="#0" id="circle19"/>
	<circle cx="58.6319" cy="6.87536" r="4" fill="#0" id="circle20"/>
	<circle cx="61.5072" cy="469.809" r="4" fill="#0" id="circle21"/>
	<circle cx="61.5072" cy="768.846" r="4" fill="#0" id="circle22"/>
	<circle cx="61.5072" cy="797.6" r="4" fill="#0" id="circle23"/>
	<circle cx="61.5072" cy="826.354" r="4" fill="#0" id="circle24"/>
	<circle cx="61.5072" cy="855.107" r="4" fill="#0" id="circle25"/>
	<circle cx="75.8841" cy="443.93" r="4" fill="#0" id="circle26"/>
	<circle cx="78.7594" cy="196.649" r="4" fill="#0" id="circle27"/>
	<circle cx="78.7594" cy="225.403" r="4" fill="#0" id="circle28"/>
	<circle cx="78.7594" cy="996" r="4" fill="#0" id="circle29"/>
	<circle cx="84.5101" cy="254.157" r="4" fill="#0" id="circle30"/>
	<circle cx="84.5101" cy="282.91" r="4" fill="#0" id="circle31"/>
	<circle cx="84.5101" cy="311.664" r="4" fill="#0" id="circle32"/>
	<circle cx="84.5101" cy="340.417" r="4" fill="#0" id="circle33"/>
	<circle cx="84.5101" cy="369.171" r="4" fill="#0" id="circle34"/>
	<circle cx="84.5101" cy="397.925" r="4" fill="#0" id="circle35"/>
	<circle cx="87.3855" cy="4" r="4" fill="#0" id="circle36"/>
	<circle cx="107.513" cy="996" r="4" fill="#0" id="circle37"/>
	<circle cx="116.139" cy="4" r="4" fill="#0" id="circle38"/>
	<circle cx="136.267" cy="996" r="4" fill="#0" id="circle39"/>
	<circle cx="144.893" cy="4" r="4" fill="#0" id="circle40"/>
	<circle cx="150.643" cy="285.786" r="4" fill="#0" id="circle41"/>
	<circle cx="150.643" cy="314.539" r="4" fill="#0" id="circle42"/>
	<circle cx="150.643" cy="343.293" r="4" fill="#0" id="circle43"/>
	<circle cx="150.643" cy="372.046" r="4" fill="#0" id="circle44"/>
	<circle cx="156.394" cy="205.275" r="4" fill="#0" id="circle45"/>
	<circle cx="156.394" cy="234.029" r="4" fill="#0" id="circle46"/>
	<circle cx="156.394" cy="400.8" r="4" fill="#0" id="circle47"/>
	<circle cx="156.394" cy="429.554" r="4" fill="#0" id="circle48"/>
	<circle cx="165.02" cy="458.307" r="4" fill="#0" id="circle49"/>
	<circle cx="165.02" cy="996" r="4" fill="#0" id="circle50"/>
	<circle cx="167.896" cy="159.27" r="4" fill="#0" id="circle51"/>
	<circle cx="173.646" cy="4" r="4" fill="#0" id="circle52"/>
	<circle cx="173.646" cy="130.516" r="4" fill="#0" id="circle53"/>
	<circle cx="179.397" cy="96.0116" r="4" fill="#0" id="circle54"/>
	<circle cx="179.397" cy="484.186" r="4" fill="#0" id="circle55"/>
	<circle cx="179.397" cy="512.939" r="4" fill="#0" id="circle56"/>
	<circle cx="179.397" cy="541.693" r="4" fill="#0" id="circle57"/>
	<circle cx="179.397" cy="570.446" r="4" fill="#0" id="circle58"/>
	<circle cx="179.397" cy="599.2" r="4" fill="#0" id="circle59"/>
	<circle cx="179.397" cy="627.954" r="4" fill="#0" id="circle60"/>
	<circle cx="179.397" cy="656.707" r="4" fill="#0" id="circle61"/>
	<circle cx="179.397" cy="685.461" r="4" fill="#0" id="circle62"/>
	<circle cx="179.397" cy="714.214" r="4" fill="#0" id="circle63"/>
	<circle cx="179.397" cy="742.968" r="4" fill="#0" id="circle64"/>
	<circle cx="179.397" cy="771.722" r="4" fill="#0" id="circle65"/>
	<circle cx="179.397" cy="800.475" r="4" fill="#0" id="circle66"/>
	<circle cx="179.397" cy="829.229" r="4" fill="#0" id="circle67"/>
	<circle cx="179.397" cy="857.983" r="4" fill="#0" id="circle68"/>
	<circle cx="179.397" cy="886.736" r="4" fill="#0" id="circle69"/>
	<circle cx="179.397" cy="915.49" r="4" fill="#0" id="circle70"/>
	<circle cx="179.397" cy="944.243" r="4" fill="#0" id="circle71"/>
	<circle cx="185.148" cy="972.997" r="4" fill="#0" id="circle72"/>
	<circle cx="202.4" cy="9.75072" r="4" fill="#0" id="circle73"/>
	<circle cx="205.275" cy="81.6348" r="4" fill="#0" id="circle74"/>
	<circle cx="219.652" cy="32.7536" r="4" fill="#0" id="circle75"/>
	</g>
</svg>