<?xml version="1.0" encoding="UTF-8" standalone="no"?>
<!-- Created with CurveBenchmark -->
<svg
	xmlns:dc="http://purl.org/dc/elements/1.1/"
	xmlns:cc="http://creativecommons.org/ns#"
	xmlns:rdf="http://www.w3.org/1999/02/22-rdf-syntax-ns#"
	xmlns:svg="http://www.w3.org/2000/svg"
	xmlns="http://www.w3.org/2000/svg"
	xmlns:sodipodi="http://sodipodi.sourceforge.net/DTD/sodipodi-0.dtd"
	xmlns:inkscape="http://www.inkscape.org/namespaces/inkscape"
	width="1000"
	height="1000"
	id="svg2"
	version="1.1"
	sodipodi:docname="manifold/discur-teddy190.png.txt">
<defs
	id="defs4" />
<metadata
	id="metadata7">
	<rdf:RDF>
		<cc:Work
			rdf:about="">
			<dc:format>image/svg+xml</dc:format>
			<dc:type
				rdf:resource="http://purl.org/dc/dcmitype/StillImage" />
			<dc:title></dc:title>
		</cc:Work>
	</rdf:RDF>
</metadata>
<g
	inkscape:label="Layer 1"
	inkscape:groupmode="layer"
	id="layer1">
	<path style="fill:none;stroke:red;stroke-width:1px;stroke-linecap:butt;stroke-linejoin:miter;stroke-opacity:1" d="M 4,501.413 9.65242,529.675 z" id="boundary" inkscape:connector-curvature="0" />
	<path style="fill:none;stroke:red;stroke-width:1px;stroke-linecap:butt;stroke-linejoin:miter;stroke-opacity:1" d="M 4,501.413 15.3048,473.151 z" id="boundary" inkscape:connector-curvature="0" />
	<path style="fill:none;stroke:red;stroke-width:1px;stroke-linecap:butt;stroke-linejoin:miter;stroke-opacity:1" d="M 9.65242,529.675 15.3048,557.937 z" id="boundary" inkscape:connector-curvature="0" />
	<path style="fill:none;stroke:red;stroke-width:1px;stroke-linecap:butt;stroke-linejoin:miter;stroke-opacity:1" d="M 15.3048,473.151 29.4359,447.715 z" id="boundary" inkscape:connector-curvature="0" />
	<path style="fill:none;stroke:red;stroke-width:1px;stroke-linecap:butt;stroke-linejoin:miter;stroke-opacity:1" d="M 15.3048,557.937 26.6097,586.199 z" id="boundary" inkscape:connector-curvature="0" />
	<path style="fill:none;stroke:red;stroke-width:1px;stroke-linecap:butt;stroke-linejoin:miter;stroke-opacity:1" d="M 26.6097,586.199 46.3932,608.809 z" id="boundary" inkscape:connector-curvature="0" />
	<path style="fill:none;stroke:red;stroke-width:1px;stroke-linecap:butt;stroke-linejoin:miter;stroke-opacity:1" d="M 29.4359,447.715 52.0456,425.105 z" id="boundary" inkscape:connector-curvature="0" />
	<path style="fill:none;stroke:red;stroke-width:1px;stroke-linecap:butt;stroke-linejoin:miter;stroke-opacity:1" d="M 46.3932,608.809 63.3504,631.419 z" id="boundary" inkscape:connector-curvature="0" />
	<path style="fill:none;stroke:red;stroke-width:1px;stroke-linecap:butt;stroke-linejoin:miter;stroke-opacity:1" d="M 52.0456,425.105 74.6553,405.322 z" id="boundary" inkscape:connector-curvature="0" />
	<path style="fill:none;stroke:red;stroke-width:1px;stroke-linecap:butt;stroke-linejoin:miter;stroke-opacity:1" d="M 63.3504,631.419 88.7863,645.55 z" id="boundary" inkscape:connector-curvature="0" />
	<path style="fill:none;stroke:red;stroke-width:1px;stroke-linecap:butt;stroke-linejoin:miter;stroke-opacity:1" d="M 74.6553,405.322 102.917,391.191 z" id="boundary" inkscape:connector-curvature="0" />
	<path style="fill:none;stroke:red;stroke-width:1px;stroke-linecap:butt;stroke-linejoin:miter;stroke-opacity:1" d="M 77.4815,54.8718 77.4815,83.1339 z" id="boundary" inkscape:connector-curvature="0" />
	<path style="fill:none;stroke:red;stroke-width:1px;stroke-linecap:butt;stroke-linejoin:miter;stroke-opacity:1" d="M 77.4815,54.8718 94.4387,32.2621 z" id="boundary" inkscape:connector-curvature="0" />
	<path style="fill:none;stroke:red;stroke-width:1px;stroke-linecap:butt;stroke-linejoin:miter;stroke-opacity:1" d="M 77.4815,83.1339 80.3077,111.396 z" id="boundary" inkscape:connector-curvature="0" />
	<path style="fill:none;stroke:red;stroke-width:1px;stroke-linecap:butt;stroke-linejoin:miter;stroke-opacity:1" d="M 80.3077,111.396 88.7863,139.658 z" id="boundary" inkscape:connector-curvature="0" />
	<path style="fill:none;stroke:red;stroke-width:1px;stroke-linecap:butt;stroke-linejoin:miter;stroke-opacity:1" d="M 88.7863,139.658 102.917,165.094 z" id="boundary" inkscape:connector-curvature="0" />
	<path style="fill:none;stroke:red;stroke-width:1px;stroke-linecap:butt;stroke-linejoin:miter;stroke-opacity:1" d="M 88.7863,645.55 111.396,662.507 z" id="boundary" inkscape:connector-curvature="0" />
	<path style="fill:none;stroke:red;stroke-width:1px;stroke-linecap:butt;stroke-linejoin:miter;stroke-opacity:1" d="M 94.4387,32.2621 119.875,18.1311 z" id="boundary" inkscape:connector-curvature="0" />
	<path style="fill:none;stroke:red;stroke-width:1px;stroke-linecap:butt;stroke-linejoin:miter;stroke-opacity:1" d="M 94.4387,857.516 94.4387,885.778 z" id="boundary" inkscape:connector-curvature="0" />
	<path style="fill:none;stroke:red;stroke-width:1px;stroke-linecap:butt;stroke-linejoin:miter;stroke-opacity:1" d="M 94.4387,857.516 105.744,817.949 z" id="boundary" inkscape:connector-curvature="0" />
	<path style="fill:none;stroke:red;stroke-width:1px;stroke-linecap:butt;stroke-linejoin:miter;stroke-opacity:1" d="M 94.4387,885.778 100.091,914.04 z" id="boundary" inkscape:connector-curvature="0" />
	<path style="fill:none;stroke:red;stroke-width:1px;stroke-linecap:butt;stroke-linejoin:miter;stroke-opacity:1" d="M 100.091,914.04 100.091,942.302 z" id="boundary" inkscape:connector-curvature="0" />
	<path style="fill:none;stroke:red;stroke-width:1px;stroke-linecap:butt;stroke-linejoin:miter;stroke-opacity:1" d="M 100.091,942.302 108.57,970.564 z" id="boundary" inkscape:connector-curvature="0" />
	<path style="fill:none;stroke:red;stroke-width:1px;stroke-linecap:butt;stroke-linejoin:miter;stroke-opacity:1" d="M 102.917,165.094 111.396,201.835 z" id="boundary" inkscape:connector-curvature="0" />
	<path style="fill:none;stroke:red;stroke-width:1px;stroke-linecap:butt;stroke-linejoin:miter;stroke-opacity:1" d="M 102.917,391.191 131.179,382.712 z" id="boundary" inkscape:connector-curvature="0" />
	<path style="fill:none;stroke:red;stroke-width:1px;stroke-linecap:butt;stroke-linejoin:miter;stroke-opacity:1" d="M 105.744,817.949 117.048,778.382 z" id="boundary" inkscape:connector-curvature="0" />
	<path style="fill:none;stroke:red;stroke-width:1px;stroke-linecap:butt;stroke-linejoin:miter;stroke-opacity:1" d="M 108.57,970.564 131.179,987.521 z" id="boundary" inkscape:connector-curvature="0" />
	<path style="fill:none;stroke:red;stroke-width:1px;stroke-linecap:butt;stroke-linejoin:miter;stroke-opacity:1" d="M 111.396,201.835 111.396,230.097 z" id="boundary" inkscape:connector-curvature="0" />
	<path style="fill:none;stroke:red;stroke-width:1px;stroke-linecap:butt;stroke-linejoin:miter;stroke-opacity:1" d="M 111.396,230.097 111.396,258.359 z" id="boundary" inkscape:connector-curvature="0" />
	<path style="fill:none;stroke:red;stroke-width:1px;stroke-linecap:butt;stroke-linejoin:miter;stroke-opacity:1" d="M 111.396,258.359 114.222,286.621 z" id="boundary" inkscape:connector-curvature="0" />
	<path style="fill:none;stroke:red;stroke-width:1px;stroke-linecap:butt;stroke-linejoin:miter;stroke-opacity:1" d="M 111.396,662.507 139.658,673.812 z" id="boundary" inkscape:connector-curvature="0" />
	<path style="fill:none;stroke:red;stroke-width:1px;stroke-linecap:butt;stroke-linejoin:miter;stroke-opacity:1" d="M 114.222,286.621 122.701,314.883 z" id="boundary" inkscape:connector-curvature="0" />
	<path style="fill:none;stroke:red;stroke-width:1px;stroke-linecap:butt;stroke-linejoin:miter;stroke-opacity:1" d="M 117.048,778.382 134.006,750.12 z" id="boundary" inkscape:connector-curvature="0" />
	<path style="fill:none;stroke:red;stroke-width:1px;stroke-linecap:butt;stroke-linejoin:miter;stroke-opacity:1" d="M 119.875,18.1311 148.137,9.65242 z" id="boundary" inkscape:connector-curvature="0" />
	<path style="fill:none;stroke:red;stroke-width:1px;stroke-linecap:butt;stroke-linejoin:miter;stroke-opacity:1" d="M 122.701,314.883 134.006,343.145 z" id="boundary" inkscape:connector-curvature="0" />
	<path style="fill:none;stroke:red;stroke-width:1px;stroke-linecap:butt;stroke-linejoin:miter;stroke-opacity:1" d="M 131.179,382.712 134.006,343.145 z" id="boundary" inkscape:connector-curvature="0" />
	<path style="fill:none;stroke:red;stroke-width:1px;stroke-linecap:butt;stroke-linejoin:miter;stroke-opacity:1" d="M 131.179,987.521 159.442,996 z" id="boundary" inkscape:connector-curvature="0" />
	<path style="fill:none;stroke:red;stroke-width:1px;stroke-linecap:butt;stroke-linejoin:miter;stroke-opacity:1" d="M 134.006,750.12 145.311,702.074 z" id="boundary" inkscape:connector-curvature="0" />
	<path style="fill:none;stroke:red;stroke-width:1px;stroke-linecap:butt;stroke-linejoin:miter;stroke-opacity:1" d="M 139.658,673.812 145.311,702.074 z" id="boundary" inkscape:connector-curvature="0" />
	<path style="fill:none;stroke:red;stroke-width:1px;stroke-linecap:butt;stroke-linejoin:miter;stroke-opacity:1" d="M 148.137,9.65242 176.399,4 z" id="boundary" inkscape:connector-curvature="0" />
	<path style="fill:none;stroke:red;stroke-width:1px;stroke-linecap:butt;stroke-linejoin:miter;stroke-opacity:1" d="M 159.442,996 187.704,996 z" id="boundary" inkscape:connector-curvature="0" />
	<path style="fill:none;stroke:red;stroke-width:1px;stroke-linecap:butt;stroke-linejoin:miter;stroke-opacity:1" d="M 176.399,4 204.661,9.65242 z" id="boundary" inkscape:connector-curvature="0" />
	<path style="fill:none;stroke:red;stroke-width:1px;stroke-linecap:butt;stroke-linejoin:miter;stroke-opacity:1" d="M 187.704,996 215.966,996 z" id="boundary" inkscape:connector-curvature="0" />
	<path style="fill:none;stroke:red;stroke-width:1px;stroke-linecap:butt;stroke-linejoin:miter;stroke-opacity:1" d="M 204.661,9.65242 232.923,20.9573 z" id="boundary" inkscape:connector-curvature="0" />
	<path style="fill:none;stroke:red;stroke-width:1px;stroke-linecap:butt;stroke-linejoin:miter;stroke-opacity:1" d="M 215.966,996 244.228,996 z" id="boundary" inkscape:connector-curvature="0" />
	<path style="fill:none;stroke:red;stroke-width:1px;stroke-linecap:butt;stroke-linejoin:miter;stroke-opacity:1" d="M 232.923,20.9573 258.359,35.0883 z" id="boundary" inkscape:connector-curvature="0" />
	<path style="fill:none;stroke:red;stroke-width:1px;stroke-linecap:butt;stroke-linejoin:miter;stroke-opacity:1" d="M 244.228,996 272.49,996 z" id="boundary" inkscape:connector-curvature="0" />
	<path style="fill:none;stroke:red;stroke-width:1px;stroke-linecap:butt;stroke-linejoin:miter;stroke-opacity:1" d="M 258.359,35.0883 286.621,43.567 z" id="boundary" inkscape:connector-curvature="0" />
	<path style="fill:none;stroke:red;stroke-width:1px;stroke-linecap:butt;stroke-linejoin:miter;stroke-opacity:1" d="M 272.49,996 300.752,996 z" id="boundary" inkscape:connector-curvature="0" />
	<path style="fill:none;stroke:red;stroke-width:1px;stroke-linecap:butt;stroke-linejoin:miter;stroke-opacity:1" d="M 286.621,43.567 314.883,43.567 z" id="boundary" inkscape:connector-curvature="0" />
	<path style="fill:none;stroke:red;stroke-width:1px;stroke-linecap:butt;stroke-linejoin:miter;stroke-opacity:1" d="M 300.752,996 329.014,996 z" id="boundary" inkscape:connector-curvature="0" />
	<path style="fill:none;stroke:red;stroke-width:1px;stroke-linecap:butt;stroke-linejoin:miter;stroke-opacity:1" d="M 314.883,43.567 343.145,43.567 z" id="boundary" inkscape:connector-curvature="0" />
	<path style="fill:none;stroke:red;stroke-width:1px;stroke-linecap:butt;stroke-linejoin:miter;stroke-opacity:1" d="M 329.014,996 357.276,996 z" id="boundary" inkscape:connector-curvature="0" />
	<path style="fill:none;stroke:red;stroke-width:1px;stroke-linecap:butt;stroke-linejoin:miter;stroke-opacity:1" d="M 343.145,43.567 371.407,43.567 z" id="boundary" inkscape:connector-curvature="0" />
	<path style="fill:none;stroke:red;stroke-width:1px;stroke-linecap:butt;stroke-linejoin:miter;stroke-opacity:1" d="M 357.276,996 385.538,990.348 z" id="boundary" inkscape:connector-curvature="0" />
	<path style="fill:none;stroke:red;stroke-width:1px;stroke-linecap:butt;stroke-linejoin:miter;stroke-opacity:1" d="M 371.407,43.567 399.67,37.9145 z" id="boundary" inkscape:connector-curvature="0" />
	<path style="fill:none;stroke:red;stroke-width:1px;stroke-linecap:butt;stroke-linejoin:miter;stroke-opacity:1" d="M 385.538,990.348 413.801,990.348 z" id="boundary" inkscape:connector-curvature="0" />
	<path style="fill:none;stroke:red;stroke-width:1px;stroke-linecap:butt;stroke-linejoin:miter;stroke-opacity:1" d="M 399.67,37.9145 422.279,20.9573 z" id="boundary" inkscape:connector-curvature="0" />
	<path style="fill:none;stroke:red;stroke-width:1px;stroke-linecap:butt;stroke-linejoin:miter;stroke-opacity:1" d="M 413.801,990.348 442.063,984.695 z" id="boundary" inkscape:connector-curvature="0" />
	<path style="fill:none;stroke:red;stroke-width:1px;stroke-linecap:butt;stroke-linejoin:miter;stroke-opacity:1" d="M 422.279,20.9573 450.541,9.65242 z" id="boundary" inkscape:connector-curvature="0" />
	<path style="fill:none;stroke:red;stroke-width:1px;stroke-linecap:butt;stroke-linejoin:miter;stroke-opacity:1" d="M 442.063,984.695 470.325,979.043 z" id="boundary" inkscape:connector-curvature="0" />
	<path style="fill:none;stroke:red;stroke-width:1px;stroke-linecap:butt;stroke-linejoin:miter;stroke-opacity:1" d="M 450.541,9.65242 478.803,4 z" id="boundary" inkscape:connector-curvature="0" />
	<path style="fill:none;stroke:red;stroke-width:1px;stroke-linecap:butt;stroke-linejoin:miter;stroke-opacity:1" d="M 470.325,979.043 498.587,976.217 z" id="boundary" inkscape:connector-curvature="0" />
	<path style="fill:none;stroke:red;stroke-width:1px;stroke-linecap:butt;stroke-linejoin:miter;stroke-opacity:1" d="M 478.803,4 507.066,9.65242 z" id="boundary" inkscape:connector-curvature="0" />
	<path style="fill:none;stroke:red;stroke-width:1px;stroke-linecap:butt;stroke-linejoin:miter;stroke-opacity:1" d="M 498.587,976.217 526.849,973.39 z" id="boundary" inkscape:connector-curvature="0" />
	<path style="fill:none;stroke:red;stroke-width:1px;stroke-linecap:butt;stroke-linejoin:miter;stroke-opacity:1" d="M 507.066,9.65242 535.328,18.1311 z" id="boundary" inkscape:connector-curvature="0" />
	<path style="fill:none;stroke:red;stroke-width:1px;stroke-linecap:butt;stroke-linejoin:miter;stroke-opacity:1" d="M 526.849,973.39 555.111,973.39 z" id="boundary" inkscape:connector-curvature="0" />
	<path style="fill:none;stroke:red;stroke-width:1px;stroke-linecap:butt;stroke-linejoin:miter;stroke-opacity:1" d="M 535.328,18.1311 557.937,35.0883 z" id="boundary" inkscape:connector-curvature="0" />
	<path style="fill:none;stroke:red;stroke-width:1px;stroke-linecap:butt;stroke-linejoin:miter;stroke-opacity:1" d="M 535.328,368.581 549.459,343.145 z" id="boundary" inkscape:connector-curvature="0" />
	<path style="fill:none;stroke:red;stroke-width:1px;stroke-linecap:butt;stroke-linejoin:miter;stroke-opacity:1" d="M 535.328,368.581 560.764,382.712 z" id="boundary" inkscape:connector-curvature="0" />
	<path style="fill:none;stroke:red;stroke-width:1px;stroke-linecap:butt;stroke-linejoin:miter;stroke-opacity:1" d="M 549.459,343.145 566.416,303.578 z" id="boundary" inkscape:connector-curvature="0" />
	<path style="fill:none;stroke:red;stroke-width:1px;stroke-linecap:butt;stroke-linejoin:miter;stroke-opacity:1" d="M 555.111,167.92 555.111,196.182 z" id="boundary" inkscape:connector-curvature="0" />
	<path style="fill:none;stroke:red;stroke-width:1px;stroke-linecap:butt;stroke-linejoin:miter;stroke-opacity:1" d="M 555.111,167.92 566.416,134.006 z" id="boundary" inkscape:connector-curvature="0" />
	<path style="fill:none;stroke:red;stroke-width:1px;stroke-linecap:butt;stroke-linejoin:miter;stroke-opacity:1" d="M 555.111,196.182 560.764,224.444 z" id="boundary" inkscape:connector-curvature="0" />
	<path style="fill:none;stroke:red;stroke-width:1px;stroke-linecap:butt;stroke-linejoin:miter;stroke-opacity:1" d="M 555.111,973.39 583.373,967.738 z" id="boundary" inkscape:connector-curvature="0" />
	<path style="fill:none;stroke:red;stroke-width:1px;stroke-linecap:butt;stroke-linejoin:miter;stroke-opacity:1" d="M 557.937,35.0883 577.721,57.698 z" id="boundary" inkscape:connector-curvature="0" />
	<path style="fill:none;stroke:red;stroke-width:1px;stroke-linecap:butt;stroke-linejoin:miter;stroke-opacity:1" d="M 560.764,224.444 566.416,252.707 z" id="boundary" inkscape:connector-curvature="0" />
	<path style="fill:none;stroke:red;stroke-width:1px;stroke-linecap:butt;stroke-linejoin:miter;stroke-opacity:1" d="M 560.764,382.712 589.026,388.365 z" id="boundary" inkscape:connector-curvature="0" />
	<path style="fill:none;stroke:red;stroke-width:1px;stroke-linecap:butt;stroke-linejoin:miter;stroke-opacity:1" d="M 566.416,134.006 577.721,85.9601 z" id="boundary" inkscape:connector-curvature="0" />
	<path style="fill:none;stroke:red;stroke-width:1px;stroke-linecap:butt;stroke-linejoin:miter;stroke-opacity:1" d="M 566.416,252.707 566.416,303.578 z" id="boundary" inkscape:connector-curvature="0" />
	<path style="fill:none;stroke:red;stroke-width:1px;stroke-linecap:butt;stroke-linejoin:miter;stroke-opacity:1" d="M 577.721,57.698 577.721,85.9601 z" id="boundary" inkscape:connector-curvature="0" />
	<path style="fill:none;stroke:red;stroke-width:1px;stroke-linecap:butt;stroke-linejoin:miter;stroke-opacity:1" d="M 583.373,967.738 611.635,973.39 z" id="boundary" inkscape:connector-curvature="0" />
	<path style="fill:none;stroke:red;stroke-width:1px;stroke-linecap:butt;stroke-linejoin:miter;stroke-opacity:1" d="M 589.026,388.365 617.288,394.017 z" id="boundary" inkscape:connector-curvature="0" />
	<path style="fill:none;stroke:red;stroke-width:1px;stroke-linecap:butt;stroke-linejoin:miter;stroke-opacity:1" d="M 589.026,670.986 591.852,699.248 z" id="boundary" inkscape:connector-curvature="0" />
	<path style="fill:none;stroke:red;stroke-width:1px;stroke-linecap:butt;stroke-linejoin:miter;stroke-opacity:1" d="M 589.026,670.986 614.462,656.855 z" id="boundary" inkscape:connector-curvature="0" />
	<path style="fill:none;stroke:red;stroke-width:1px;stroke-linecap:butt;stroke-linejoin:miter;stroke-opacity:1" d="M 591.852,699.248 614.462,716.205 z" id="boundary" inkscape:connector-curvature="0" />
	<path style="fill:none;stroke:red;stroke-width:1px;stroke-linecap:butt;stroke-linejoin:miter;stroke-opacity:1" d="M 611.635,973.39 639.897,984.695 z" id="boundary" inkscape:connector-curvature="0" />
	<path style="fill:none;stroke:red;stroke-width:1px;stroke-linecap:butt;stroke-linejoin:miter;stroke-opacity:1" d="M 614.462,656.855 642.724,662.507 z" id="boundary" inkscape:connector-curvature="0" />
	<path style="fill:none;stroke:red;stroke-width:1px;stroke-linecap:butt;stroke-linejoin:miter;stroke-opacity:1" d="M 614.462,716.205 642.724,724.684 z" id="boundary" inkscape:connector-curvature="0" />
	<path style="fill:none;stroke:red;stroke-width:1px;stroke-linecap:butt;stroke-linejoin:miter;stroke-opacity:1" d="M 617.288,394.017 639.897,410.974 z" id="boundary" inkscape:connector-curvature="0" />
	<path style="fill:none;stroke:red;stroke-width:1px;stroke-linecap:butt;stroke-linejoin:miter;stroke-opacity:1" d="M 639.897,410.974 662.507,427.932 z" id="boundary" inkscape:connector-curvature="0" />
	<path style="fill:none;stroke:red;stroke-width:1px;stroke-linecap:butt;stroke-linejoin:miter;stroke-opacity:1" d="M 639.897,984.695 668.16,996 z" id="boundary" inkscape:connector-curvature="0" />
	<path style="fill:none;stroke:red;stroke-width:1px;stroke-linecap:butt;stroke-linejoin:miter;stroke-opacity:1" d="M 642.724,662.507 670.986,656.855 z" id="boundary" inkscape:connector-curvature="0" />
	<path style="fill:none;stroke:red;stroke-width:1px;stroke-linecap:butt;stroke-linejoin:miter;stroke-opacity:1" d="M 642.724,724.684 670.986,735.989 z" id="boundary" inkscape:connector-curvature="0" />
	<path style="fill:none;stroke:red;stroke-width:1px;stroke-linecap:butt;stroke-linejoin:miter;stroke-opacity:1" d="M 662.507,427.932 690.769,427.932 z" id="boundary" inkscape:connector-curvature="0" />
	<path style="fill:none;stroke:red;stroke-width:1px;stroke-linecap:butt;stroke-linejoin:miter;stroke-opacity:1" d="M 668.16,996 696.422,996 z" id="boundary" inkscape:connector-curvature="0" />
	<path style="fill:none;stroke:red;stroke-width:1px;stroke-linecap:butt;stroke-linejoin:miter;stroke-opacity:1" d="M 670.986,656.855 699.248,645.55 z" id="boundary" inkscape:connector-curvature="0" />
	<path style="fill:none;stroke:red;stroke-width:1px;stroke-linecap:butt;stroke-linejoin:miter;stroke-opacity:1" d="M 670.986,735.989 699.248,727.51 z" id="boundary" inkscape:connector-curvature="0" />
	<path style="fill:none;stroke:red;stroke-width:1px;stroke-linecap:butt;stroke-linejoin:miter;stroke-opacity:1" d="M 690.769,427.932 719.031,433.584 z" id="boundary" inkscape:connector-curvature="0" />
	<path style="fill:none;stroke:red;stroke-width:1px;stroke-linecap:butt;stroke-linejoin:miter;stroke-opacity:1" d="M 696.422,996 724.684,996 z" id="boundary" inkscape:connector-curvature="0" />
	<path style="fill:none;stroke:red;stroke-width:1px;stroke-linecap:butt;stroke-linejoin:miter;stroke-opacity:1" d="M 699.248,645.55 727.51,639.897 z" id="boundary" inkscape:connector-curvature="0" />
	<path style="fill:none;stroke:red;stroke-width:1px;stroke-linecap:butt;stroke-linejoin:miter;stroke-opacity:1" d="M 699.248,727.51 727.51,727.51 z" id="boundary" inkscape:connector-curvature="0" />
	<path style="fill:none;stroke:red;stroke-width:1px;stroke-linecap:butt;stroke-linejoin:miter;stroke-opacity:1" d="M 719.031,433.584 747.293,439.236 z" id="boundary" inkscape:connector-curvature="0" />
	<path style="fill:none;stroke:red;stroke-width:1px;stroke-linecap:butt;stroke-linejoin:miter;stroke-opacity:1" d="M 724.684,996 752.946,996 z" id="boundary" inkscape:connector-curvature="0" />
	<path style="fill:none;stroke:red;stroke-width:1px;stroke-linecap:butt;stroke-linejoin:miter;stroke-opacity:1" d="M 727.51,639.897 752.946,625.766 z" id="boundary" inkscape:connector-curvature="0" />
	<path style="fill:none;stroke:red;stroke-width:1px;stroke-linecap:butt;stroke-linejoin:miter;stroke-opacity:1" d="M 727.51,727.51 755.772,727.51 z" id="boundary" inkscape:connector-curvature="0" />
	<path style="fill:none;stroke:red;stroke-width:1px;stroke-linecap:butt;stroke-linejoin:miter;stroke-opacity:1" d="M 747.293,439.236 775.556,444.889 z" id="boundary" inkscape:connector-curvature="0" />
	<path style="fill:none;stroke:red;stroke-width:1px;stroke-linecap:butt;stroke-linejoin:miter;stroke-opacity:1" d="M 752.946,625.766 778.382,611.635 z" id="boundary" inkscape:connector-curvature="0" />
	<path style="fill:none;stroke:red;stroke-width:1px;stroke-linecap:butt;stroke-linejoin:miter;stroke-opacity:1" d="M 752.946,996 781.208,990.348 z" id="boundary" inkscape:connector-curvature="0" />
	<path style="fill:none;stroke:red;stroke-width:1px;stroke-linecap:butt;stroke-linejoin:miter;stroke-opacity:1" d="M 755.772,727.51 784.034,727.51 z" id="boundary" inkscape:connector-curvature="0" />
	<path style="fill:none;stroke:red;stroke-width:1px;stroke-linecap:butt;stroke-linejoin:miter;stroke-opacity:1" d="M 775.556,444.889 803.818,456.194 z" id="boundary" inkscape:connector-curvature="0" />
	<path style="fill:none;stroke:red;stroke-width:1px;stroke-linecap:butt;stroke-linejoin:miter;stroke-opacity:1" d="M 778.382,611.635 800.991,594.678 z" id="boundary" inkscape:connector-curvature="0" />
	<path style="fill:none;stroke:red;stroke-width:1px;stroke-linecap:butt;stroke-linejoin:miter;stroke-opacity:1" d="M 781.208,990.348 809.47,979.043 z" id="boundary" inkscape:connector-curvature="0" />
	<path style="fill:none;stroke:red;stroke-width:1px;stroke-linecap:butt;stroke-linejoin:miter;stroke-opacity:1" d="M 784.034,727.51 812.296,738.815 z" id="boundary" inkscape:connector-curvature="0" />
	<path style="fill:none;stroke:red;stroke-width:1px;stroke-linecap:butt;stroke-linejoin:miter;stroke-opacity:1" d="M 800.991,594.678 815.123,569.242 z" id="boundary" inkscape:connector-curvature="0" />
	<path style="fill:none;stroke:red;stroke-width:1px;stroke-linecap:butt;stroke-linejoin:miter;stroke-opacity:1" d="M 803.818,456.194 820.775,478.803 z" id="boundary" inkscape:connector-curvature="0" />
	<path style="fill:none;stroke:red;stroke-width:1px;stroke-linecap:butt;stroke-linejoin:miter;stroke-opacity:1" d="M 809.47,979.043 832.08,959.259 z" id="boundary" inkscape:connector-curvature="0" />
	<path style="fill:none;stroke:red;stroke-width:1px;stroke-linecap:butt;stroke-linejoin:miter;stroke-opacity:1" d="M 812.296,738.815 834.906,758.598 z" id="boundary" inkscape:connector-curvature="0" />
	<path style="fill:none;stroke:red;stroke-width:1px;stroke-linecap:butt;stroke-linejoin:miter;stroke-opacity:1" d="M 815.123,569.242 832.08,535.328 z" id="boundary" inkscape:connector-curvature="0" />
	<path style="fill:none;stroke:red;stroke-width:1px;stroke-linecap:butt;stroke-linejoin:miter;stroke-opacity:1" d="M 820.775,478.803 826.427,507.066 z" id="boundary" inkscape:connector-curvature="0" />
	<path style="fill:none;stroke:red;stroke-width:1px;stroke-linecap:butt;stroke-linejoin:miter;stroke-opacity:1" d="M 826.427,507.066 832.08,535.328 z" id="boundary" inkscape:connector-curvature="0" />
	<path style="fill:none;stroke:red;stroke-width:1px;stroke-linecap:butt;stroke-linejoin:miter;stroke-opacity:1" d="M 832.08,959.259 854.689,936.65 z" id="boundary" inkscape:connector-curvature="0" />
	<path style="fill:none;stroke:red;stroke-width:1px;stroke-linecap:butt;stroke-linejoin:miter;stroke-opacity:1" d="M 834.906,758.598 849.037,784.034 z" id="boundary" inkscape:connector-curvature="0" />
	<path style="fill:none;stroke:red;stroke-width:1px;stroke-linecap:butt;stroke-linejoin:miter;stroke-opacity:1" d="M 849.037,784.034 857.516,812.296 z" id="boundary" inkscape:connector-curvature="0" />
	<path style="fill:none;stroke:red;stroke-width:1px;stroke-linecap:butt;stroke-linejoin:miter;stroke-opacity:1" d="M 854.689,936.65 860.342,902.735 z" id="boundary" inkscape:connector-curvature="0" />
	<path style="fill:none;stroke:red;stroke-width:1px;stroke-linecap:butt;stroke-linejoin:miter;stroke-opacity:1" d="M 857.516,812.296 863.168,840.558 z" id="boundary" inkscape:connector-curvature="0" />
	<path style="fill:none;stroke:red;stroke-width:1px;stroke-linecap:butt;stroke-linejoin:miter;stroke-opacity:1" d="M 860.342,902.735 865.994,868.821 z" id="boundary" inkscape:connector-curvature="0" />
	<path style="fill:none;stroke:red;stroke-width:1px;stroke-linecap:butt;stroke-linejoin:miter;stroke-opacity:1" d="M 863.168,840.558 865.994,868.821 z" id="boundary" inkscape:connector-curvature="0" />
	<circle cx="4" cy="501.413" r="4" fill="#0" id="circle0"/>
	<circle cx="9.65242" cy="529.675" r="4" fill="#0" id="circle1"/>
	<circle cx="15.3048" cy="473.151" r="4" fill="#0" id="circle2"/>
	<circle cx="15.3048" cy="557.937" r="4" fill="#0" id="circle3"/>
	<circle cx="26.6097" cy="586.199" r="4" fill="#0" id="circle4"/>
	<circle cx="29.4359" cy="447.715" r="4" fill="#0" id="circle5"/>
	<circle cx="46.3932" cy="608.809" r="4" fill="#0" id="circle6"/>
	<circle cx="52.0456" cy="425.105" r="4" fill="#0" id="circle7"/>
	<circle cx="63.3504" cy="631.419" r="4" fill="#0" id="circle8"/>
	<circle cx="74.6553" cy="405.322" r="4" fill="#0" id="circle9"/>
	<circle cx="77.4815" cy="54.8718" r="4" fill="#0" id="circle10"/>
	<circle cx="77.4815" cy="83.1339" r="4" fill="#0" id="circle11"/>
	<circle cx="80.3077" cy="111.396" r="4" fill="#0" id="circle12"/>
	<circle cx="88.7863" cy="139.658" r="4" fill="#0" id="circle13"/>
	<circle cx="88.7863" cy="645.55" r="4" fill="#0" id="circle14"/>
	<circle cx="94.4387" cy="32.2621" r="4" fill="#0" id="circle15"/>
	<circle cx="94.4387" cy="857.516" r="4" fill="#0" id="circle16"/>
	<circle cx="94.4387" cy="885.778" r="4" fill="#0" id="circle17"/>
	<circle cx="100.091" cy="914.04" r="4" fill="#0" id="circle18"/>
	<circle cx="100.091" cy="942.302" r="4" fill="#0" id="circle19"/>
	<circle cx="102.917" cy="165.094" r="4" fill="#0" id="circle20"/>
	<circle cx="102.917" cy="391.191" r="4" fill="#0" id="circle21"/>
	<circle cx="105.744" cy="817.949" r="4" fill="#0" id="circle22"/>
	<circle cx="108.57" cy="970.564" r="4" fill="#0" id="circle23"/>
	<circle cx="111.396" cy="201.835" r="4" fill="#0" id="circle24"/>
	<circle cx="111.396" cy="230.097" r="4" fill="#0" id="circle25"/>
	<circle cx="111.396" cy="258.359" r="4" fill="#0" id="circle26"/>
	<circle cx="111.396" cy="662.507" r="4" fill="#0" id="circle27"/>
	<circle cx="114.222" cy="286.621" r="4" fill="#0" id="circle28"/>
	<circle cx="117.048" cy="778.382" r="4" fill="#0" id="circle29"/>
	<circle cx="119.875" cy="18.1311" r="4" fill="#0" id="circle30"/>
	<circle cx="122.701" cy="314.883" r="4" fill="#0" id="circle31"/>
	<circle cx="131.179" cy="382.712" r="4" fill="#0" id="circle32"/>
	<circle cx="131.179" cy="987.521" r="4" fill="#0" id="circle33"/>
	<circle cx="134.006" cy="343.145" r="4" fill="#0" id="circle34"/>
	<circle cx="134.006" cy="750.12" r="4" fill="#0" id="circle35"/>
	<circle cx="139.658" cy="673.812" r="4" fill="#0" id="circle36"/>
	<circle cx="145.311" cy="702.074" r="4" fill="#0" id="circle37"/>
	<circle cx="148.137" cy="9.65242" r="4" fill="#0" id="circle38"/>
	<circle cx="159.442" cy="996" r="4" fill="#0" id="circle39"/>
	<circle cx="176.399" cy="4" r="4" fill="#0" id="circle40"/>
	<circle cx="187.704" cy="996" r="4" fill="#0" id="circle41"/>
	<circle cx="204.661" cy="9.65242" r="4" fill="#0" id="circle42"/>
	<circle cx="215.966" cy="996" r="4" fill="#0" id="circle43"/>
	<circle cx="232.923" cy="20.9573" r="4" fill="#0" id="circle44"/>
	<circle cx="244.228" cy="996" r="4" fill="#0" id="circle45"/>
	<circle cx="258.359" cy="35.0883" r="4" fill="#0" id="circle46"/>
	<circle cx="272.49" cy="996" r="4" fill="#0" id="circle47"/>
	<circle cx="286.621" cy="43.567" r="4" fill="#0" id="circle48"/>
	<circle cx="300.752" cy="996" r="4" fill="#0" id="circle49"/>
	<circle cx="314.883" cy="43.567" r="4" fill="#0" id="circle50"/>
	<circle cx="329.014" cy="996" r="4" fill="#0" id="circle51"/>
	<circle cx="343.145" cy="43.567" r="4" fill="#0" id="circle52"/>
	<circle cx="357.276" cy="996" r="4" fill="#0" id="circle53"/>
	<circle cx="371.407" cy="43.567" r="4" fill="#0" id="circle54"/>
	<circle cx="385.538" cy="990.348" r="4" fill="#0" id="circle55"/>
	<circle cx="399.67" cy="37.9145" r="4" fill="#0" id="circle56"/>
	<circle cx="413.801" cy="990.348" r="4" fill="#0" id="circle57"/>
	<circle cx="422.279" cy="20.9573" r="4" fill="#0" id="circle58"/>
	<circle cx="442.063" cy="984.695" r="4" fill="#0" id="circle59"/>
	<circle cx="450.541" cy="9.65242" r="4" fill="#0" id="circle60"/>
	<circle cx="470.325" cy="979.043" r="4" fill="#0" id="circle61"/>
	<circle cx="478.803" cy="4" r="4" fill="#0" id="circle62"/>
	<circle cx="498.587" cy="976.217" r="4" fill="#0" id="circle63"/>
	<circle cx="507.066" cy="9.65242" r="4" fill="#0" id="circle64"/>
	<circle cx="526.849" cy="973.39" r="4" fill="#0" id="circle65"/>
	<circle cx="535.328" cy="18.1311" r="4" fill="#0" id="circle66"/>
	<circle cx="535.328" cy="368.581" r="4" fill="#0" id="circle67"/>
	<circle cx="549.459" cy="343.145" r="4" fill="#0" id="circle68"/>
	<circle cx="555.111" cy="167.92" r="4" fill="#0" id="circle69"/>
	<circle cx="555.111" cy="196.182" r="4" fill="#0" id="circle70"/>
	<circle cx="555.111" cy="973.39" r="4" fill="#0" id="circle71"/>
	<circle cx="557.937" cy="35.0883" r="4" fill="#0" id="circle72"/>
	<circle cx="560.764" cy="224.444" r="4" fill="#0" id="circle73"/>
	<circle cx="560.764" cy="382.712" r="4" fill="#0" id="circle74"/>
	<circle cx="566.416" cy="134.006" r="4" fill="#0" id="circle75"/>
	<circle cx="566.416" cy="252.707" r="4" fill="#0" id="circle76"/>
	<circle cx="566.416" cy="303.578" r="4" fill="#0" id="circle77"/>
	<circle cx="577.721" cy="57.698" r="4" fill="#0" id="circle78"/>
	<circle cx="577.721" cy="85.9601" r="4" fill="#0" id="circle79"/>
	<circle cx="583.373" cy="967.738" r="4" fill="#0" id="circle80"/>
	<circle cx="589.026" cy="388.365" r="4" fill="#0" id="circle81"/>
	<circle cx="589.026" cy="670.986" r="4" fill="#0" id="circle82"/>
	<circle cx="591.852" cy="699.248" r="4" fill="#0" id="circle83"/>
	<circle cx="611.635" cy="973.39" r="4" fill="#0" id="circle84"/>
	<circle cx="614.462" cy="656.855" r="4" fill="#0" id="circle85"/>
	<circle cx="614.462" cy="716.205" r="4" fill="#0" id="circle86"/>
	<circle cx="617.288" cy="394.017" r="4" fill="#0" id="circle87"/>
	<circle cx="639.897" cy="410.974" r="4" fill="#0" id="circle88"/>
	<circle cx="639.897" cy="984.695" r="4" fill="#0" id="circle89"/>
	<circle cx="642.724" cy="662.507" r="4" fill="#0" id="circle90"/>
	<circle cx="642.724" cy="724.684" r="4" fill="#0" id="circle91"/>
	<circle cx="662.507" cy="427.932" r="4" fill="#0" id="circle92"/>
	<circle cx="668.16" cy="996" r="4" fill="#0" id="circle93"/>
	<circle cx="670.986" cy="656.855" r="4" fill="#0" id="circle94"/>
	<circle cx="670.986" cy="735.989" r="4" fill="#0" id="circle95"/>
	<circle cx="690.769" cy="427.932" r="4" fill="#0" id="circle96"/>
	<circle cx="696.422" cy="996" r="4" fill="#0" id="circle97"/>
	<circle cx="699.248" cy="645.55" r="4" fill="#0" id="circle98"/>
	<circle cx="699.248" cy="727.51" r="4" fill="#0" id="circle99"/>
	<circle cx="719.031" cy="433.584" r="4" fill="#0" id="circle100"/>
	<circle cx="724.684" cy="996" r="4" fill="#0" id="circle101"/>
	<circle cx="727.51" cy="639.897" r="4" fill="#0" id="circle102"/>
	<circle cx="727.51" cy="727.51" r="4" fill="#0" id="circle103"/>
	<circle cx="747.293" cy="439.236" r="4" fill="#0" id="circle104"/>
	<circle cx="752.946" cy="625.766" r="4" fill="#0" id="circle105"/>
	<circle cx="752.946" cy="996" r="4" fill="#0" id="circle106"/>
	<circle cx="755.772" cy="727.51" r="4" fill="#0" id="circle107"/>
	<circle cx="775.556" cy="444.889" r="4" fill="#0" id="circle108"/>
	<circle cx="778.382" cy="611.635" r="4" fill="#0" id="circle109"/>
	<circle cx="781.208" cy="990.348" r="4" fill="#0" id="circle110"/>
	<circle cx="784.034" cy="727.51" r="4" fill="#0" id="circle111"/>
	<circle cx="800.991" cy="594.678" r="4" fill="#0" id="circle112"/>
	<circle cx="803.818" cy="456.194" r="4" fill="#0" id="circle113"/>
	<circle cx="809.47" cy="979.043" r="4" fill="#0" id="circle114"/>
	<circle cx="812.296" cy="738.815" r="4" fill="#0" id="circle115"/>
	<circle cx="815.123" cy="569.242" r="4" fill="#0" id="circle116"/>
	<circle cx="820.775" cy="478.803" r="4" fill="#0" id="circle117"/>
	<circle cx="826.427" cy="507.066" r="4" fill="#0" id="circle118"/>
	<circle cx="832.08" cy="535.328" r="4" fill="#0" id="circle119"/>
	<circle cx="832.08" cy="959.259" r="4" fill="#0" id="circle120"/>
	<circle cx="834.906" cy="758.598" r="4" fill="#0" id="circle121"/>
	<circle cx="849.037" cy="784.034" r="4" fill="#0" id="circle122"/>
	<circle cx="854.689" cy="936.65" r="4" fill="#0" id="circle123"/>
	<circle cx="857.516" cy="812.296" r="4" fill="#0" id="circle124"/>
	<circle cx="860.342" cy="902.735" r="4" fill="#0" id="circle125"/>
	<circle cx="863.168" cy="840.558" r="4" fill="#0" id="circle126"/>
	<circle cx="865.994" cy="868.821" r="4" fill="#0" id="circle127"/>
	</g>
</svg>