<?xml version="1.0" encoding="UTF-8" standalone="no"?>
<!-- Created with CurveBenchmark -->
<svg
	xmlns:dc="http://purl.org/dc/elements/1.1/"
	xmlns:cc="http://creativecommons.org/ns#"
	xmlns:rdf="http://www.w3.org/1999/02/22-rdf-syntax-ns#"
	xmlns:svg="http://www.w3.org/2000/svg"
	xmlns="http://www.w3.org/2000/svg"
	xmlns:sodipodi="http://sodipodi.sourceforge.net/DTD/sodipodi-0.dtd"
	xmlns:inkscape="http://www.inkscape.org/namespaces/inkscape"
	width="1000"
	height="1000"
	id="svg2"
	version="1.1"
	sodipodi:docname="manifold/discur-bed270.png.txt">
<defs
	id="defs4" />
<metadata
	id="metadata7">
	<rdf:RDF>
		<cc:Work
			rdf:about="">
			<dc:format>image/svg+xml</dc:format>
			<dc:type
				rdf:resource="http://purl.org/dc/dcmitype/StillImage" />
			<dc:title></dc:title>
		</cc:Work>
	</rdf:RDF>
</metadata>
<g
	inkscape:label="Layer 1"
	inkscape:groupmode="layer"
	id="layer1">
	<path style="fill:none;stroke:red;stroke-width:1px;stroke-linecap:butt;stroke-linejoin:miter;stroke-opacity:1" d="M 4,318.1 11.9519,294.244 z" id="boundary" inkscape:connector-curvature="0" />
	<path style="fill:none;stroke:red;stroke-width:1px;stroke-linecap:butt;stroke-linejoin:miter;stroke-opacity:1" d="M 4,318.1 11.9519,337.98 z" id="boundary" inkscape:connector-curvature="0" />
	<path style="fill:none;stroke:red;stroke-width:1px;stroke-linecap:butt;stroke-linejoin:miter;stroke-opacity:1" d="M 4,397.619 4,417.499 z" id="boundary" inkscape:connector-curvature="0" />
	<path style="fill:none;stroke:red;stroke-width:1px;stroke-linecap:butt;stroke-linejoin:miter;stroke-opacity:1" d="M 4,397.619 7.97595,365.812 z" id="boundary" inkscape:connector-curvature="0" />
	<path style="fill:none;stroke:red;stroke-width:1px;stroke-linecap:butt;stroke-linejoin:miter;stroke-opacity:1" d="M 4,417.499 7.97595,437.379 z" id="boundary" inkscape:connector-curvature="0" />
	<path style="fill:none;stroke:red;stroke-width:1px;stroke-linecap:butt;stroke-linejoin:miter;stroke-opacity:1" d="M 7.97595,365.812 11.9519,337.98 z" id="boundary" inkscape:connector-curvature="0" />
	<path style="fill:none;stroke:red;stroke-width:1px;stroke-linecap:butt;stroke-linejoin:miter;stroke-opacity:1" d="M 7.97595,437.379 7.97595,457.259 z" id="boundary" inkscape:connector-curvature="0" />
	<path style="fill:none;stroke:red;stroke-width:1px;stroke-linecap:butt;stroke-linejoin:miter;stroke-opacity:1" d="M 7.97595,457.259 7.97595,477.138 z" id="boundary" inkscape:connector-curvature="0" />
	<path style="fill:none;stroke:red;stroke-width:1px;stroke-linecap:butt;stroke-linejoin:miter;stroke-opacity:1" d="M 7.97595,477.138 7.97595,497.018 z" id="boundary" inkscape:connector-curvature="0" />
	<path style="fill:none;stroke:red;stroke-width:1px;stroke-linecap:butt;stroke-linejoin:miter;stroke-opacity:1" d="M 7.97595,497.018 7.97595,516.898 z" id="boundary" inkscape:connector-curvature="0" />
	<path style="fill:none;stroke:red;stroke-width:1px;stroke-linecap:butt;stroke-linejoin:miter;stroke-opacity:1" d="M 7.97595,516.898 7.97595,536.778 z" id="boundary" inkscape:connector-curvature="0" />
	<path style="fill:none;stroke:red;stroke-width:1px;stroke-linecap:butt;stroke-linejoin:miter;stroke-opacity:1" d="M 7.97595,536.778 7.97595,560.633 z" id="boundary" inkscape:connector-curvature="0" />
	<path style="fill:none;stroke:red;stroke-width:1px;stroke-linecap:butt;stroke-linejoin:miter;stroke-opacity:1" d="M 7.97595,560.633 9.96393,580.513 z" id="boundary" inkscape:connector-curvature="0" />
	<path style="fill:none;stroke:red;stroke-width:1px;stroke-linecap:butt;stroke-linejoin:miter;stroke-opacity:1" d="M 9.96393,580.513 33.8196,584.489 z" id="boundary" inkscape:connector-curvature="0" />
	<path style="fill:none;stroke:red;stroke-width:1px;stroke-linecap:butt;stroke-linejoin:miter;stroke-opacity:1" d="M 11.9519,274.365 11.9519,294.244 z" id="boundary" inkscape:connector-curvature="0" />
	<path style="fill:none;stroke:red;stroke-width:1px;stroke-linecap:butt;stroke-linejoin:miter;stroke-opacity:1" d="M 11.9519,274.365 31.8317,270.389 z" id="boundary" inkscape:connector-curvature="0" />
	<path style="fill:none;stroke:red;stroke-width:1px;stroke-linecap:butt;stroke-linejoin:miter;stroke-opacity:1" d="M 11.9519,608.345 31.8317,610.333 z" id="boundary" inkscape:connector-curvature="0" />
	<path style="fill:none;stroke:red;stroke-width:1px;stroke-linecap:butt;stroke-linejoin:miter;stroke-opacity:1" d="M 31.8317,270.389 33.8196,290.269 z" id="boundary" inkscape:connector-curvature="0" />
	<path style="fill:none;stroke:red;stroke-width:1px;stroke-linecap:butt;stroke-linejoin:miter;stroke-opacity:1" d="M 33.8196,290.269 33.8196,310.148 z" id="boundary" inkscape:connector-curvature="0" />
	<path style="fill:none;stroke:red;stroke-width:1px;stroke-linecap:butt;stroke-linejoin:miter;stroke-opacity:1" d="M 33.8196,310.148 41.7715,330.028 z" id="boundary" inkscape:connector-curvature="0" />
	<path style="fill:none;stroke:red;stroke-width:1px;stroke-linecap:butt;stroke-linejoin:miter;stroke-opacity:1" d="M 33.8196,564.609 33.8196,584.489 z" id="boundary" inkscape:connector-curvature="0" />
	<path style="fill:none;stroke:red;stroke-width:1px;stroke-linecap:butt;stroke-linejoin:miter;stroke-opacity:1" d="M 33.8196,564.609 37.7956,536.778 z" id="boundary" inkscape:connector-curvature="0" />
	<path style="fill:none;stroke:red;stroke-width:1px;stroke-linecap:butt;stroke-linejoin:miter;stroke-opacity:1" d="M 37.7956,536.778 57.6754,534.79 z" id="boundary" inkscape:connector-curvature="0" />
	<path style="fill:none;stroke:red;stroke-width:1px;stroke-linecap:butt;stroke-linejoin:miter;stroke-opacity:1" d="M 41.7715,330.028 41.7715,349.908 z" id="boundary" inkscape:connector-curvature="0" />
	<path style="fill:none;stroke:red;stroke-width:1px;stroke-linecap:butt;stroke-linejoin:miter;stroke-opacity:1" d="M 41.7715,349.908 41.7715,369.788 z" id="boundary" inkscape:connector-curvature="0" />
	<path style="fill:none;stroke:red;stroke-width:1px;stroke-linecap:butt;stroke-linejoin:miter;stroke-opacity:1" d="M 41.7715,369.788 57.6754,381.715 z" id="boundary" inkscape:connector-curvature="0" />
	<path style="fill:none;stroke:red;stroke-width:1px;stroke-linecap:butt;stroke-linejoin:miter;stroke-opacity:1" d="M 57.6754,381.715 77.5551,373.764 z" id="boundary" inkscape:connector-curvature="0" />
	<path style="fill:none;stroke:red;stroke-width:1px;stroke-linecap:butt;stroke-linejoin:miter;stroke-opacity:1" d="M 57.6754,534.79 77.5551,534.79 z" id="boundary" inkscape:connector-curvature="0" />
	<path style="fill:none;stroke:red;stroke-width:1px;stroke-linecap:butt;stroke-linejoin:miter;stroke-opacity:1" d="M 77.5551,373.764 97.4349,369.788 z" id="boundary" inkscape:connector-curvature="0" />
	<path style="fill:none;stroke:red;stroke-width:1px;stroke-linecap:butt;stroke-linejoin:miter;stroke-opacity:1" d="M 77.5551,534.79 97.4349,534.79 z" id="boundary" inkscape:connector-curvature="0" />
	<path style="fill:none;stroke:red;stroke-width:1px;stroke-linecap:butt;stroke-linejoin:miter;stroke-opacity:1" d="M 97.4349,369.788 117.315,369.788 z" id="boundary" inkscape:connector-curvature="0" />
	<path style="fill:none;stroke:red;stroke-width:1px;stroke-linecap:butt;stroke-linejoin:miter;stroke-opacity:1" d="M 97.4349,534.79 117.315,534.79 z" id="boundary" inkscape:connector-curvature="0" />
	<path style="fill:none;stroke:red;stroke-width:1px;stroke-linecap:butt;stroke-linejoin:miter;stroke-opacity:1" d="M 117.315,369.788 137.194,369.788 z" id="boundary" inkscape:connector-curvature="0" />
	<path style="fill:none;stroke:red;stroke-width:1px;stroke-linecap:butt;stroke-linejoin:miter;stroke-opacity:1" d="M 117.315,534.79 137.194,534.79 z" id="boundary" inkscape:connector-curvature="0" />
	<path style="fill:none;stroke:red;stroke-width:1px;stroke-linecap:butt;stroke-linejoin:miter;stroke-opacity:1" d="M 137.194,369.788 157.074,365.812 z" id="boundary" inkscape:connector-curvature="0" />
	<path style="fill:none;stroke:red;stroke-width:1px;stroke-linecap:butt;stroke-linejoin:miter;stroke-opacity:1" d="M 137.194,534.79 157.074,534.79 z" id="boundary" inkscape:connector-curvature="0" />
	<path style="fill:none;stroke:red;stroke-width:1px;stroke-linecap:butt;stroke-linejoin:miter;stroke-opacity:1" d="M 157.074,365.812 176.954,365.812 z" id="boundary" inkscape:connector-curvature="0" />
	<path style="fill:none;stroke:red;stroke-width:1px;stroke-linecap:butt;stroke-linejoin:miter;stroke-opacity:1" d="M 157.074,534.79 176.954,534.79 z" id="boundary" inkscape:connector-curvature="0" />
	<path style="fill:none;stroke:red;stroke-width:1px;stroke-linecap:butt;stroke-linejoin:miter;stroke-opacity:1" d="M 176.954,365.812 196.834,365.812 z" id="boundary" inkscape:connector-curvature="0" />
	<path style="fill:none;stroke:red;stroke-width:1px;stroke-linecap:butt;stroke-linejoin:miter;stroke-opacity:1" d="M 176.954,534.79 196.834,534.79 z" id="boundary" inkscape:connector-curvature="0" />
	<path style="fill:none;stroke:red;stroke-width:1px;stroke-linecap:butt;stroke-linejoin:miter;stroke-opacity:1" d="M 196.834,365.812 216.713,365.812 z" id="boundary" inkscape:connector-curvature="0" />
	<path style="fill:none;stroke:red;stroke-width:1px;stroke-linecap:butt;stroke-linejoin:miter;stroke-opacity:1" d="M 196.834,534.79 216.713,534.79 z" id="boundary" inkscape:connector-curvature="0" />
	<path style="fill:none;stroke:red;stroke-width:1px;stroke-linecap:butt;stroke-linejoin:miter;stroke-opacity:1" d="M 216.713,365.812 236.593,361.836 z" id="boundary" inkscape:connector-curvature="0" />
	<path style="fill:none;stroke:red;stroke-width:1px;stroke-linecap:butt;stroke-linejoin:miter;stroke-opacity:1" d="M 216.713,534.79 236.593,534.79 z" id="boundary" inkscape:connector-curvature="0" />
	<path style="fill:none;stroke:red;stroke-width:1px;stroke-linecap:butt;stroke-linejoin:miter;stroke-opacity:1" d="M 236.593,361.836 256.473,361.836 z" id="boundary" inkscape:connector-curvature="0" />
	<path style="fill:none;stroke:red;stroke-width:1px;stroke-linecap:butt;stroke-linejoin:miter;stroke-opacity:1" d="M 236.593,534.79 256.473,534.79 z" id="boundary" inkscape:connector-curvature="0" />
	<path style="fill:none;stroke:red;stroke-width:1px;stroke-linecap:butt;stroke-linejoin:miter;stroke-opacity:1" d="M 256.473,361.836 276.353,361.836 z" id="boundary" inkscape:connector-curvature="0" />
	<path style="fill:none;stroke:red;stroke-width:1px;stroke-linecap:butt;stroke-linejoin:miter;stroke-opacity:1" d="M 256.473,534.79 276.353,534.79 z" id="boundary" inkscape:connector-curvature="0" />
	<path style="fill:none;stroke:red;stroke-width:1px;stroke-linecap:butt;stroke-linejoin:miter;stroke-opacity:1" d="M 276.353,361.836 296.232,361.836 z" id="boundary" inkscape:connector-curvature="0" />
	<path style="fill:none;stroke:red;stroke-width:1px;stroke-linecap:butt;stroke-linejoin:miter;stroke-opacity:1" d="M 276.353,534.79 296.232,534.79 z" id="boundary" inkscape:connector-curvature="0" />
	<path style="fill:none;stroke:red;stroke-width:1px;stroke-linecap:butt;stroke-linejoin:miter;stroke-opacity:1" d="M 296.232,361.836 316.112,361.836 z" id="boundary" inkscape:connector-curvature="0" />
	<path style="fill:none;stroke:red;stroke-width:1px;stroke-linecap:butt;stroke-linejoin:miter;stroke-opacity:1" d="M 296.232,534.79 316.112,534.79 z" id="boundary" inkscape:connector-curvature="0" />
	<path style="fill:none;stroke:red;stroke-width:1px;stroke-linecap:butt;stroke-linejoin:miter;stroke-opacity:1" d="M 316.112,361.836 335.992,361.836 z" id="boundary" inkscape:connector-curvature="0" />
	<path style="fill:none;stroke:red;stroke-width:1px;stroke-linecap:butt;stroke-linejoin:miter;stroke-opacity:1" d="M 316.112,534.79 335.992,534.79 z" id="boundary" inkscape:connector-curvature="0" />
	<path style="fill:none;stroke:red;stroke-width:1px;stroke-linecap:butt;stroke-linejoin:miter;stroke-opacity:1" d="M 335.992,361.836 355.872,361.836 z" id="boundary" inkscape:connector-curvature="0" />
	<path style="fill:none;stroke:red;stroke-width:1px;stroke-linecap:butt;stroke-linejoin:miter;stroke-opacity:1" d="M 335.992,534.79 355.872,534.79 z" id="boundary" inkscape:connector-curvature="0" />
	<path style="fill:none;stroke:red;stroke-width:1px;stroke-linecap:butt;stroke-linejoin:miter;stroke-opacity:1" d="M 355.872,361.836 375.752,361.836 z" id="boundary" inkscape:connector-curvature="0" />
	<path style="fill:none;stroke:red;stroke-width:1px;stroke-linecap:butt;stroke-linejoin:miter;stroke-opacity:1" d="M 355.872,534.79 375.752,534.79 z" id="boundary" inkscape:connector-curvature="0" />
	<path style="fill:none;stroke:red;stroke-width:1px;stroke-linecap:butt;stroke-linejoin:miter;stroke-opacity:1" d="M 375.752,361.836 395.631,361.836 z" id="boundary" inkscape:connector-curvature="0" />
	<path style="fill:none;stroke:red;stroke-width:1px;stroke-linecap:butt;stroke-linejoin:miter;stroke-opacity:1" d="M 375.752,534.79 395.631,534.79 z" id="boundary" inkscape:connector-curvature="0" />
	<path style="fill:none;stroke:red;stroke-width:1px;stroke-linecap:butt;stroke-linejoin:miter;stroke-opacity:1" d="M 395.631,361.836 415.511,361.836 z" id="boundary" inkscape:connector-curvature="0" />
	<path style="fill:none;stroke:red;stroke-width:1px;stroke-linecap:butt;stroke-linejoin:miter;stroke-opacity:1" d="M 395.631,534.79 415.511,534.79 z" id="boundary" inkscape:connector-curvature="0" />
	<path style="fill:none;stroke:red;stroke-width:1px;stroke-linecap:butt;stroke-linejoin:miter;stroke-opacity:1" d="M 415.511,361.836 435.391,361.836 z" id="boundary" inkscape:connector-curvature="0" />
	<path style="fill:none;stroke:red;stroke-width:1px;stroke-linecap:butt;stroke-linejoin:miter;stroke-opacity:1" d="M 415.511,534.79 435.391,534.79 z" id="boundary" inkscape:connector-curvature="0" />
	<path style="fill:none;stroke:red;stroke-width:1px;stroke-linecap:butt;stroke-linejoin:miter;stroke-opacity:1" d="M 435.391,361.836 455.271,361.836 z" id="boundary" inkscape:connector-curvature="0" />
	<path style="fill:none;stroke:red;stroke-width:1px;stroke-linecap:butt;stroke-linejoin:miter;stroke-opacity:1" d="M 435.391,534.79 455.271,534.79 z" id="boundary" inkscape:connector-curvature="0" />
	<path style="fill:none;stroke:red;stroke-width:1px;stroke-linecap:butt;stroke-linejoin:miter;stroke-opacity:1" d="M 455.271,361.836 475.15,361.836 z" id="boundary" inkscape:connector-curvature="0" />
	<path style="fill:none;stroke:red;stroke-width:1px;stroke-linecap:butt;stroke-linejoin:miter;stroke-opacity:1" d="M 455.271,534.79 475.15,534.79 z" id="boundary" inkscape:connector-curvature="0" />
	<path style="fill:none;stroke:red;stroke-width:1px;stroke-linecap:butt;stroke-linejoin:miter;stroke-opacity:1" d="M 475.15,361.836 495.03,361.836 z" id="boundary" inkscape:connector-curvature="0" />
	<path style="fill:none;stroke:red;stroke-width:1px;stroke-linecap:butt;stroke-linejoin:miter;stroke-opacity:1" d="M 475.15,534.79 495.03,534.79 z" id="boundary" inkscape:connector-curvature="0" />
	<path style="fill:none;stroke:red;stroke-width:1px;stroke-linecap:butt;stroke-linejoin:miter;stroke-opacity:1" d="M 495.03,361.836 514.91,361.836 z" id="boundary" inkscape:connector-curvature="0" />
	<path style="fill:none;stroke:red;stroke-width:1px;stroke-linecap:butt;stroke-linejoin:miter;stroke-opacity:1" d="M 495.03,534.79 514.91,534.79 z" id="boundary" inkscape:connector-curvature="0" />
	<path style="fill:none;stroke:red;stroke-width:1px;stroke-linecap:butt;stroke-linejoin:miter;stroke-opacity:1" d="M 514.91,361.836 534.79,361.836 z" id="boundary" inkscape:connector-curvature="0" />
	<path style="fill:none;stroke:red;stroke-width:1px;stroke-linecap:butt;stroke-linejoin:miter;stroke-opacity:1" d="M 514.91,534.79 534.79,534.79 z" id="boundary" inkscape:connector-curvature="0" />
	<path style="fill:none;stroke:red;stroke-width:1px;stroke-linecap:butt;stroke-linejoin:miter;stroke-opacity:1" d="M 534.79,361.836 554.669,361.836 z" id="boundary" inkscape:connector-curvature="0" />
	<path style="fill:none;stroke:red;stroke-width:1px;stroke-linecap:butt;stroke-linejoin:miter;stroke-opacity:1" d="M 534.79,534.79 554.669,534.79 z" id="boundary" inkscape:connector-curvature="0" />
	<path style="fill:none;stroke:red;stroke-width:1px;stroke-linecap:butt;stroke-linejoin:miter;stroke-opacity:1" d="M 554.669,361.836 574.549,361.836 z" id="boundary" inkscape:connector-curvature="0" />
	<path style="fill:none;stroke:red;stroke-width:1px;stroke-linecap:butt;stroke-linejoin:miter;stroke-opacity:1" d="M 554.669,534.79 574.549,534.79 z" id="boundary" inkscape:connector-curvature="0" />
	<path style="fill:none;stroke:red;stroke-width:1px;stroke-linecap:butt;stroke-linejoin:miter;stroke-opacity:1" d="M 574.549,361.836 594.429,361.836 z" id="boundary" inkscape:connector-curvature="0" />
	<path style="fill:none;stroke:red;stroke-width:1px;stroke-linecap:butt;stroke-linejoin:miter;stroke-opacity:1" d="M 574.549,534.79 594.429,534.79 z" id="boundary" inkscape:connector-curvature="0" />
	<path style="fill:none;stroke:red;stroke-width:1px;stroke-linecap:butt;stroke-linejoin:miter;stroke-opacity:1" d="M 594.429,361.836 614.309,355.872 z" id="boundary" inkscape:connector-curvature="0" />
	<path style="fill:none;stroke:red;stroke-width:1px;stroke-linecap:butt;stroke-linejoin:miter;stroke-opacity:1" d="M 594.429,534.79 614.309,534.79 z" id="boundary" inkscape:connector-curvature="0" />
	<path style="fill:none;stroke:red;stroke-width:1px;stroke-linecap:butt;stroke-linejoin:miter;stroke-opacity:1" d="M 614.309,355.872 630.212,339.968 z" id="boundary" inkscape:connector-curvature="0" />
	<path style="fill:none;stroke:red;stroke-width:1px;stroke-linecap:butt;stroke-linejoin:miter;stroke-opacity:1" d="M 614.309,534.79 634.188,534.79 z" id="boundary" inkscape:connector-curvature="0" />
	<path style="fill:none;stroke:red;stroke-width:1px;stroke-linecap:butt;stroke-linejoin:miter;stroke-opacity:1" d="M 630.212,339.968 640.152,318.1 z" id="boundary" inkscape:connector-curvature="0" />
	<path style="fill:none;stroke:red;stroke-width:1px;stroke-linecap:butt;stroke-linejoin:miter;stroke-opacity:1" d="M 634.188,534.79 654.068,534.79 z" id="boundary" inkscape:connector-curvature="0" />
	<path style="fill:none;stroke:red;stroke-width:1px;stroke-linecap:butt;stroke-linejoin:miter;stroke-opacity:1" d="M 640.152,318.1 652.08,302.196 z" id="boundary" inkscape:connector-curvature="0" />
	<path style="fill:none;stroke:red;stroke-width:1px;stroke-linecap:butt;stroke-linejoin:miter;stroke-opacity:1" d="M 652.08,302.196 667.984,286.293 z" id="boundary" inkscape:connector-curvature="0" />
	<path style="fill:none;stroke:red;stroke-width:1px;stroke-linecap:butt;stroke-linejoin:miter;stroke-opacity:1" d="M 654.068,534.79 673.948,534.79 z" id="boundary" inkscape:connector-curvature="0" />
	<path style="fill:none;stroke:red;stroke-width:1px;stroke-linecap:butt;stroke-linejoin:miter;stroke-opacity:1" d="M 667.984,286.293 683.888,274.365 z" id="boundary" inkscape:connector-curvature="0" />
	<path style="fill:none;stroke:red;stroke-width:1px;stroke-linecap:butt;stroke-linejoin:miter;stroke-opacity:1" d="M 673.948,534.79 693.828,534.79 z" id="boundary" inkscape:connector-curvature="0" />
	<path style="fill:none;stroke:red;stroke-width:1px;stroke-linecap:butt;stroke-linejoin:miter;stroke-opacity:1" d="M 683.888,274.365 703.768,266.413 z" id="boundary" inkscape:connector-curvature="0" />
	<path style="fill:none;stroke:red;stroke-width:1px;stroke-linecap:butt;stroke-linejoin:miter;stroke-opacity:1" d="M 693.828,534.79 713.707,534.79 z" id="boundary" inkscape:connector-curvature="0" />
	<path style="fill:none;stroke:red;stroke-width:1px;stroke-linecap:butt;stroke-linejoin:miter;stroke-opacity:1" d="M 703.768,266.413 723.647,258.461 z" id="boundary" inkscape:connector-curvature="0" />
	<path style="fill:none;stroke:red;stroke-width:1px;stroke-linecap:butt;stroke-linejoin:miter;stroke-opacity:1" d="M 713.707,534.79 733.587,534.79 z" id="boundary" inkscape:connector-curvature="0" />
	<path style="fill:none;stroke:red;stroke-width:1px;stroke-linecap:butt;stroke-linejoin:miter;stroke-opacity:1" d="M 723.647,258.461 743.527,254.485 z" id="boundary" inkscape:connector-curvature="0" />
	<path style="fill:none;stroke:red;stroke-width:1px;stroke-linecap:butt;stroke-linejoin:miter;stroke-opacity:1" d="M 733.587,534.79 753.467,534.79 z" id="boundary" inkscape:connector-curvature="0" />
	<path style="fill:none;stroke:red;stroke-width:1px;stroke-linecap:butt;stroke-linejoin:miter;stroke-opacity:1" d="M 743.527,254.485 763.407,250.509 z" id="boundary" inkscape:connector-curvature="0" />
	<path style="fill:none;stroke:red;stroke-width:1px;stroke-linecap:butt;stroke-linejoin:miter;stroke-opacity:1" d="M 753.467,534.79 773.347,534.79 z" id="boundary" inkscape:connector-curvature="0" />
	<path style="fill:none;stroke:red;stroke-width:1px;stroke-linecap:butt;stroke-linejoin:miter;stroke-opacity:1" d="M 763.407,250.509 783.287,254.485 z" id="boundary" inkscape:connector-curvature="0" />
	<path style="fill:none;stroke:red;stroke-width:1px;stroke-linecap:butt;stroke-linejoin:miter;stroke-opacity:1" d="M 773.347,534.79 793.226,534.79 z" id="boundary" inkscape:connector-curvature="0" />
	<path style="fill:none;stroke:red;stroke-width:1px;stroke-linecap:butt;stroke-linejoin:miter;stroke-opacity:1" d="M 783.287,254.485 803.166,254.485 z" id="boundary" inkscape:connector-curvature="0" />
	<path style="fill:none;stroke:red;stroke-width:1px;stroke-linecap:butt;stroke-linejoin:miter;stroke-opacity:1" d="M 793.226,534.79 813.106,534.79 z" id="boundary" inkscape:connector-curvature="0" />
	<path style="fill:none;stroke:red;stroke-width:1px;stroke-linecap:butt;stroke-linejoin:miter;stroke-opacity:1" d="M 803.166,254.485 823.046,258.461 z" id="boundary" inkscape:connector-curvature="0" />
	<path style="fill:none;stroke:red;stroke-width:1px;stroke-linecap:butt;stroke-linejoin:miter;stroke-opacity:1" d="M 813.106,534.79 832.986,534.79 z" id="boundary" inkscape:connector-curvature="0" />
	<path style="fill:none;stroke:red;stroke-width:1px;stroke-linecap:butt;stroke-linejoin:miter;stroke-opacity:1" d="M 823.046,258.461 838.95,246.533 z" id="boundary" inkscape:connector-curvature="0" />
	<path style="fill:none;stroke:red;stroke-width:1px;stroke-linecap:butt;stroke-linejoin:miter;stroke-opacity:1" d="M 832.986,534.79 852.866,534.79 z" id="boundary" inkscape:connector-curvature="0" />
	<path style="fill:none;stroke:red;stroke-width:1px;stroke-linecap:butt;stroke-linejoin:miter;stroke-opacity:1" d="M 838.95,246.533 854.854,234.605 z" id="boundary" inkscape:connector-curvature="0" />
	<path style="fill:none;stroke:red;stroke-width:1px;stroke-linecap:butt;stroke-linejoin:miter;stroke-opacity:1" d="M 852.866,534.79 872.745,534.79 z" id="boundary" inkscape:connector-curvature="0" />
	<path style="fill:none;stroke:red;stroke-width:1px;stroke-linecap:butt;stroke-linejoin:miter;stroke-opacity:1" d="M 854.854,234.605 874.733,226.653 z" id="boundary" inkscape:connector-curvature="0" />
	<path style="fill:none;stroke:red;stroke-width:1px;stroke-linecap:butt;stroke-linejoin:miter;stroke-opacity:1" d="M 872.745,534.79 892.625,534.79 z" id="boundary" inkscape:connector-curvature="0" />
	<path style="fill:none;stroke:red;stroke-width:1px;stroke-linecap:butt;stroke-linejoin:miter;stroke-opacity:1" d="M 874.733,226.653 894.613,222.677 z" id="boundary" inkscape:connector-curvature="0" />
	<path style="fill:none;stroke:red;stroke-width:1px;stroke-linecap:butt;stroke-linejoin:miter;stroke-opacity:1" d="M 892.625,534.79 912.505,534.79 z" id="boundary" inkscape:connector-curvature="0" />
	<path style="fill:none;stroke:red;stroke-width:1px;stroke-linecap:butt;stroke-linejoin:miter;stroke-opacity:1" d="M 894.613,222.677 914.493,226.653 z" id="boundary" inkscape:connector-curvature="0" />
	<path style="fill:none;stroke:red;stroke-width:1px;stroke-linecap:butt;stroke-linejoin:miter;stroke-opacity:1" d="M 912.505,534.79 932.385,534.79 z" id="boundary" inkscape:connector-curvature="0" />
	<path style="fill:none;stroke:red;stroke-width:1px;stroke-linecap:butt;stroke-linejoin:miter;stroke-opacity:1" d="M 914.493,226.653 930.397,238.581 z" id="boundary" inkscape:connector-curvature="0" />
	<path style="fill:none;stroke:red;stroke-width:1px;stroke-linecap:butt;stroke-linejoin:miter;stroke-opacity:1" d="M 930.397,238.581 950.277,242.557 z" id="boundary" inkscape:connector-curvature="0" />
	<path style="fill:none;stroke:red;stroke-width:1px;stroke-linecap:butt;stroke-linejoin:miter;stroke-opacity:1" d="M 932.385,534.79 952.265,534.79 z" id="boundary" inkscape:connector-curvature="0" />
	<path style="fill:none;stroke:red;stroke-width:1px;stroke-linecap:butt;stroke-linejoin:miter;stroke-opacity:1" d="M 950.277,242.557 966.18,222.677 z" id="boundary" inkscape:connector-curvature="0" />
	<path style="fill:none;stroke:red;stroke-width:1px;stroke-linecap:butt;stroke-linejoin:miter;stroke-opacity:1" d="M 952.265,534.79 962.204,552.681 z" id="boundary" inkscape:connector-curvature="0" />
	<path style="fill:none;stroke:red;stroke-width:1px;stroke-linecap:butt;stroke-linejoin:miter;stroke-opacity:1" d="M 954.253,15.9279 958.228,35.8076 z" id="boundary" inkscape:connector-curvature="0" />
	<path style="fill:none;stroke:red;stroke-width:1px;stroke-linecap:butt;stroke-linejoin:miter;stroke-opacity:1" d="M 954.253,15.9279 970.156,4 z" id="boundary" inkscape:connector-curvature="0" />
	<path style="fill:none;stroke:red;stroke-width:1px;stroke-linecap:butt;stroke-linejoin:miter;stroke-opacity:1" d="M 958.228,35.8076 958.228,55.6874 z" id="boundary" inkscape:connector-curvature="0" />
	<path style="fill:none;stroke:red;stroke-width:1px;stroke-linecap:butt;stroke-linejoin:miter;stroke-opacity:1" d="M 958.228,55.6874 958.228,75.5671 z" id="boundary" inkscape:connector-curvature="0" />
	<path style="fill:none;stroke:red;stroke-width:1px;stroke-linecap:butt;stroke-linejoin:miter;stroke-opacity:1" d="M 958.228,75.5671 958.228,95.4469 z" id="boundary" inkscape:connector-curvature="0" />
	<path style="fill:none;stroke:red;stroke-width:1px;stroke-linecap:butt;stroke-linejoin:miter;stroke-opacity:1" d="M 958.228,95.4469 958.228,115.327 z" id="boundary" inkscape:connector-curvature="0" />
	<path style="fill:none;stroke:red;stroke-width:1px;stroke-linecap:butt;stroke-linejoin:miter;stroke-opacity:1" d="M 958.228,115.327 962.204,135.206 z" id="boundary" inkscape:connector-curvature="0" />
	<path style="fill:none;stroke:red;stroke-width:1px;stroke-linecap:butt;stroke-linejoin:miter;stroke-opacity:1" d="M 958.228,163.038 962.204,135.206 z" id="boundary" inkscape:connector-curvature="0" />
	<path style="fill:none;stroke:red;stroke-width:1px;stroke-linecap:butt;stroke-linejoin:miter;stroke-opacity:1" d="M 958.228,163.038 964.192,182.918 z" id="boundary" inkscape:connector-curvature="0" />
	<path style="fill:none;stroke:red;stroke-width:1px;stroke-linecap:butt;stroke-linejoin:miter;stroke-opacity:1" d="M 962.204,552.681 962.204,572.561 z" id="boundary" inkscape:connector-curvature="0" />
	<path style="fill:none;stroke:red;stroke-width:1px;stroke-linecap:butt;stroke-linejoin:miter;stroke-opacity:1" d="M 962.204,572.561 980.096,582.501 z" id="boundary" inkscape:connector-curvature="0" />
	<path style="fill:none;stroke:red;stroke-width:1px;stroke-linecap:butt;stroke-linejoin:miter;stroke-opacity:1" d="M 962.204,608.345 982.084,610.333 z" id="boundary" inkscape:connector-curvature="0" />
	<path style="fill:none;stroke:red;stroke-width:1px;stroke-linecap:butt;stroke-linejoin:miter;stroke-opacity:1" d="M 964.192,182.918 966.18,202.798 z" id="boundary" inkscape:connector-curvature="0" />
	<path style="fill:none;stroke:red;stroke-width:1px;stroke-linecap:butt;stroke-linejoin:miter;stroke-opacity:1" d="M 966.18,202.798 966.18,222.677 z" id="boundary" inkscape:connector-curvature="0" />
	<path style="fill:none;stroke:red;stroke-width:1px;stroke-linecap:butt;stroke-linejoin:miter;stroke-opacity:1" d="M 976.12,65.6273 988.048,81.5311 z" id="boundary" inkscape:connector-curvature="0" />
	<path style="fill:none;stroke:red;stroke-width:1px;stroke-linecap:butt;stroke-linejoin:miter;stroke-opacity:1" d="M 980.096,582.501 982.084,610.333 z" id="boundary" inkscape:connector-curvature="0" />
	<path style="fill:none;stroke:red;stroke-width:1px;stroke-linecap:butt;stroke-linejoin:miter;stroke-opacity:1" d="M 984.072,552.681 992.024,524.85 z" id="boundary" inkscape:connector-curvature="0" />
	<path style="fill:none;stroke:red;stroke-width:1px;stroke-linecap:butt;stroke-linejoin:miter;stroke-opacity:1" d="M 988.048,81.5311 988.048,101.411 z" id="boundary" inkscape:connector-curvature="0" />
	<path style="fill:none;stroke:red;stroke-width:1px;stroke-linecap:butt;stroke-linejoin:miter;stroke-opacity:1" d="M 988.048,101.411 988.048,121.291 z" id="boundary" inkscape:connector-curvature="0" />
	<path style="fill:none;stroke:red;stroke-width:1px;stroke-linecap:butt;stroke-linejoin:miter;stroke-opacity:1" d="M 988.048,121.291 988.048,141.17 z" id="boundary" inkscape:connector-curvature="0" />
	<path style="fill:none;stroke:red;stroke-width:1px;stroke-linecap:butt;stroke-linejoin:miter;stroke-opacity:1" d="M 988.048,141.17 988.048,161.05 z" id="boundary" inkscape:connector-curvature="0" />
	<path style="fill:none;stroke:red;stroke-width:1px;stroke-linecap:butt;stroke-linejoin:miter;stroke-opacity:1" d="M 988.048,161.05 992.024,180.93 z" id="boundary" inkscape:connector-curvature="0" />
	<path style="fill:none;stroke:red;stroke-width:1px;stroke-linecap:butt;stroke-linejoin:miter;stroke-opacity:1" d="M 992.024,180.93 992.024,200.81 z" id="boundary" inkscape:connector-curvature="0" />
	<path style="fill:none;stroke:red;stroke-width:1px;stroke-linecap:butt;stroke-linejoin:miter;stroke-opacity:1" d="M 992.024,200.81 992.024,220.689 z" id="boundary" inkscape:connector-curvature="0" />
	<path style="fill:none;stroke:red;stroke-width:1px;stroke-linecap:butt;stroke-linejoin:miter;stroke-opacity:1" d="M 992.024,220.689 992.024,240.569 z" id="boundary" inkscape:connector-curvature="0" />
	<path style="fill:none;stroke:red;stroke-width:1px;stroke-linecap:butt;stroke-linejoin:miter;stroke-opacity:1" d="M 992.024,240.569 992.024,260.449 z" id="boundary" inkscape:connector-curvature="0" />
	<path style="fill:none;stroke:red;stroke-width:1px;stroke-linecap:butt;stroke-linejoin:miter;stroke-opacity:1" d="M 992.024,260.449 992.024,280.329 z" id="boundary" inkscape:connector-curvature="0" />
	<path style="fill:none;stroke:red;stroke-width:1px;stroke-linecap:butt;stroke-linejoin:miter;stroke-opacity:1" d="M 992.024,280.329 992.024,300.208 z" id="boundary" inkscape:connector-curvature="0" />
	<path style="fill:none;stroke:red;stroke-width:1px;stroke-linecap:butt;stroke-linejoin:miter;stroke-opacity:1" d="M 992.024,300.208 992.024,320.088 z" id="boundary" inkscape:connector-curvature="0" />
	<path style="fill:none;stroke:red;stroke-width:1px;stroke-linecap:butt;stroke-linejoin:miter;stroke-opacity:1" d="M 992.024,320.088 992.024,339.968 z" id="boundary" inkscape:connector-curvature="0" />
	<path style="fill:none;stroke:red;stroke-width:1px;stroke-linecap:butt;stroke-linejoin:miter;stroke-opacity:1" d="M 992.024,339.968 992.024,359.848 z" id="boundary" inkscape:connector-curvature="0" />
	<path style="fill:none;stroke:red;stroke-width:1px;stroke-linecap:butt;stroke-linejoin:miter;stroke-opacity:1" d="M 992.024,359.848 992.024,379.727 z" id="boundary" inkscape:connector-curvature="0" />
	<path style="fill:none;stroke:red;stroke-width:1px;stroke-linecap:butt;stroke-linejoin:miter;stroke-opacity:1" d="M 992.024,379.727 992.024,399.607 z" id="boundary" inkscape:connector-curvature="0" />
	<path style="fill:none;stroke:red;stroke-width:1px;stroke-linecap:butt;stroke-linejoin:miter;stroke-opacity:1" d="M 992.024,399.607 992.024,419.487 z" id="boundary" inkscape:connector-curvature="0" />
	<path style="fill:none;stroke:red;stroke-width:1px;stroke-linecap:butt;stroke-linejoin:miter;stroke-opacity:1" d="M 992.024,419.487 996,439.367 z" id="boundary" inkscape:connector-curvature="0" />
	<path style="fill:none;stroke:red;stroke-width:1px;stroke-linecap:butt;stroke-linejoin:miter;stroke-opacity:1" d="M 992.024,504.97 992.024,524.85 z" id="boundary" inkscape:connector-curvature="0" />
	<path style="fill:none;stroke:red;stroke-width:1px;stroke-linecap:butt;stroke-linejoin:miter;stroke-opacity:1" d="M 992.024,504.97 996,479.126 z" id="boundary" inkscape:connector-curvature="0" />
	<path style="fill:none;stroke:red;stroke-width:1px;stroke-linecap:butt;stroke-linejoin:miter;stroke-opacity:1" d="M 996,439.367 996,459.246 z" id="boundary" inkscape:connector-curvature="0" />
	<path style="fill:none;stroke:red;stroke-width:1px;stroke-linecap:butt;stroke-linejoin:miter;stroke-opacity:1" d="M 996,459.246 996,479.126 z" id="boundary" inkscape:connector-curvature="0" />
	<circle cx="4" cy="318.1" r="4" fill="#0" id="circle0"/>
	<circle cx="4" cy="397.619" r="4" fill="#0" id="circle1"/>
	<circle cx="4" cy="417.499" r="4" fill="#0" id="circle2"/>
	<circle cx="7.97595" cy="365.812" r="4" fill="#0" id="circle3"/>
	<circle cx="7.97595" cy="437.379" r="4" fill="#0" id="circle4"/>
	<circle cx="7.97595" cy="457.259" r="4" fill="#0" id="circle5"/>
	<circle cx="7.97595" cy="477.138" r="4" fill="#0" id="circle6"/>
	<circle cx="7.97595" cy="497.018" r="4" fill="#0" id="circle7"/>
	<circle cx="7.97595" cy="516.898" r="4" fill="#0" id="circle8"/>
	<circle cx="7.97595" cy="536.778" r="4" fill="#0" id="circle9"/>
	<circle cx="7.97595" cy="560.633" r="4" fill="#0" id="circle10"/>
	<circle cx="9.96393" cy="580.513" r="4" fill="#0" id="circle11"/>
	<circle cx="11.9519" cy="274.365" r="4" fill="#0" id="circle12"/>
	<circle cx="11.9519" cy="294.244" r="4" fill="#0" id="circle13"/>
	<circle cx="11.9519" cy="337.98" r="4" fill="#0" id="circle14"/>
	<circle cx="11.9519" cy="608.345" r="4" fill="#0" id="circle15"/>
	<circle cx="31.8317" cy="270.389" r="4" fill="#0" id="circle16"/>
	<circle cx="31.8317" cy="610.333" r="4" fill="#0" id="circle17"/>
	<circle cx="33.8196" cy="290.269" r="4" fill="#0" id="circle18"/>
	<circle cx="33.8196" cy="310.148" r="4" fill="#0" id="circle19"/>
	<circle cx="33.8196" cy="564.609" r="4" fill="#0" id="circle20"/>
	<circle cx="33.8196" cy="584.489" r="4" fill="#0" id="circle21"/>
	<circle cx="37.7956" cy="536.778" r="4" fill="#0" id="circle22"/>
	<circle cx="41.7715" cy="330.028" r="4" fill="#0" id="circle23"/>
	<circle cx="41.7715" cy="349.908" r="4" fill="#0" id="circle24"/>
	<circle cx="41.7715" cy="369.788" r="4" fill="#0" id="circle25"/>
	<circle cx="57.6754" cy="381.715" r="4" fill="#0" id="circle26"/>
	<circle cx="57.6754" cy="534.79" r="4" fill="#0" id="circle27"/>
	<circle cx="77.5551" cy="373.764" r="4" fill="#0" id="circle28"/>
	<circle cx="77.5551" cy="534.79" r="4" fill="#0" id="circle29"/>
	<circle cx="97.4349" cy="369.788" r="4" fill="#0" id="circle30"/>
	<circle cx="97.4349" cy="534.79" r="4" fill="#0" id="circle31"/>
	<circle cx="117.315" cy="369.788" r="4" fill="#0" id="circle32"/>
	<circle cx="117.315" cy="534.79" r="4" fill="#0" id="circle33"/>
	<circle cx="137.194" cy="369.788" r="4" fill="#0" id="circle34"/>
	<circle cx="137.194" cy="534.79" r="4" fill="#0" id="circle35"/>
	<circle cx="157.074" cy="365.812" r="4" fill="#0" id="circle36"/>
	<circle cx="157.074" cy="534.79" r="4" fill="#0" id="circle37"/>
	<circle cx="176.954" cy="365.812" r="4" fill="#0" id="circle38"/>
	<circle cx="176.954" cy="534.79" r="4" fill="#0" id="circle39"/>
	<circle cx="196.834" cy="365.812" r="4" fill="#0" id="circle40"/>
	<circle cx="196.834" cy="534.79" r="4" fill="#0" id="circle41"/>
	<circle cx="216.713" cy="365.812" r="4" fill="#0" id="circle42"/>
	<circle cx="216.713" cy="534.79" r="4" fill="#0" id="circle43"/>
	<circle cx="236.593" cy="361.836" r="4" fill="#0" id="circle44"/>
	<circle cx="236.593" cy="534.79" r="4" fill="#0" id="circle45"/>
	<circle cx="256.473" cy="361.836" r="4" fill="#0" id="circle46"/>
	<circle cx="256.473" cy="534.79" r="4" fill="#0" id="circle47"/>
	<circle cx="276.353" cy="361.836" r="4" fill="#0" id="circle48"/>
	<circle cx="276.353" cy="534.79" r="4" fill="#0" id="circle49"/>
	<circle cx="296.232" cy="361.836" r="4" fill="#0" id="circle50"/>
	<circle cx="296.232" cy="534.79" r="4" fill="#0" id="circle51"/>
	<circle cx="316.112" cy="361.836" r="4" fill="#0" id="circle52"/>
	<circle cx="316.112" cy="534.79" r="4" fill="#0" id="circle53"/>
	<circle cx="335.992" cy="361.836" r="4" fill="#0" id="circle54"/>
	<circle cx="335.992" cy="534.79" r="4" fill="#0" id="circle55"/>
	<circle cx="355.872" cy="361.836" r="4" fill="#0" id="circle56"/>
	<circle cx="355.872" cy="534.79" r="4" fill="#0" id="circle57"/>
	<circle cx="375.752" cy="361.836" r="4" fill="#0" id="circle58"/>
	<circle cx="375.752" cy="534.79" r="4" fill="#0" id="circle59"/>
	<circle cx="395.631" cy="361.836" r="4" fill="#0" id="circle60"/>
	<circle cx="395.631" cy="534.79" r="4" fill="#0" id="circle61"/>
	<circle cx="415.511" cy="361.836" r="4" fill="#0" id="circle62"/>
	<circle cx="415.511" cy="534.79" r="4" fill="#0" id="circle63"/>
	<circle cx="435.391" cy="361.836" r="4" fill="#0" id="circle64"/>
	<circle cx="435.391" cy="534.79" r="4" fill="#0" id="circle65"/>
	<circle cx="455.271" cy="361.836" r="4" fill="#0" id="circle66"/>
	<circle cx="455.271" cy="534.79" r="4" fill="#0" id="circle67"/>
	<circle cx="475.15" cy="361.836" r="4" fill="#0" id="circle68"/>
	<circle cx="475.15" cy="534.79" r="4" fill="#0" id="circle69"/>
	<circle cx="495.03" cy="361.836" r="4" fill="#0" id="circle70"/>
	<circle cx="495.03" cy="534.79" r="4" fill="#0" id="circle71"/>
	<circle cx="514.91" cy="361.836" r="4" fill="#0" id="circle72"/>
	<circle cx="514.91" cy="534.79" r="4" fill="#0" id="circle73"/>
	<circle cx="534.79" cy="361.836" r="4" fill="#0" id="circle74"/>
	<circle cx="534.79" cy="534.79" r="4" fill="#0" id="circle75"/>
	<circle cx="554.669" cy="361.836" r="4" fill="#0" id="circle76"/>
	<circle cx="554.669" cy="534.79" r="4" fill="#0" id="circle77"/>
	<circle cx="574.549" cy="361.836" r="4" fill="#0" id="circle78"/>
	<circle cx="574.549" cy="534.79" r="4" fill="#0" id="circle79"/>
	<circle cx="594.429" cy="361.836" r="4" fill="#0" id="circle80"/>
	<circle cx="594.429" cy="534.79" r="4" fill="#0" id="circle81"/>
	<circle cx="614.309" cy="355.872" r="4" fill="#0" id="circle82"/>
	<circle cx="614.309" cy="534.79" r="4" fill="#0" id="circle83"/>
	<circle cx="630.212" cy="339.968" r="4" fill="#0" id="circle84"/>
	<circle cx="634.188" cy="534.79" r="4" fill="#0" id="circle85"/>
	<circle cx="640.152" cy="318.1" r="4" fill="#0" id="circle86"/>
	<circle cx="652.08" cy="302.196" r="4" fill="#0" id="circle87"/>
	<circle cx="654.068" cy="534.79" r="4" fill="#0" id="circle88"/>
	<circle cx="667.984" cy="286.293" r="4" fill="#0" id="circle89"/>
	<circle cx="673.948" cy="534.79" r="4" fill="#0" id="circle90"/>
	<circle cx="683.888" cy="274.365" r="4" fill="#0" id="circle91"/>
	<circle cx="693.828" cy="534.79" r="4" fill="#0" id="circle92"/>
	<circle cx="703.768" cy="266.413" r="4" fill="#0" id="circle93"/>
	<circle cx="713.707" cy="534.79" r="4" fill="#0" id="circle94"/>
	<circle cx="723.647" cy="258.461" r="4" fill="#0" id="circle95"/>
	<circle cx="733.587" cy="534.79" r="4" fill="#0" id="circle96"/>
	<circle cx="743.527" cy="254.485" r="4" fill="#0" id="circle97"/>
	<circle cx="753.467" cy="534.79" r="4" fill="#0" id="circle98"/>
	<circle cx="763.407" cy="250.509" r="4" fill="#0" id="circle99"/>
	<circle cx="773.347" cy="534.79" r="4" fill="#0" id="circle100"/>
	<circle cx="783.287" cy="254.485" r="4" fill="#0" id="circle101"/>
	<circle cx="793.226" cy="534.79" r="4" fill="#0" id="circle102"/>
	<circle cx="803.166" cy="254.485" r="4" fill="#0" id="circle103"/>
	<circle cx="813.106" cy="534.79" r="4" fill="#0" id="circle104"/>
	<circle cx="823.046" cy="258.461" r="4" fill="#0" id="circle105"/>
	<circle cx="832.986" cy="534.79" r="4" fill="#0" id="circle106"/>
	<circle cx="838.95" cy="246.533" r="4" fill="#0" id="circle107"/>
	<circle cx="852.866" cy="534.79" r="4" fill="#0" id="circle108"/>
	<circle cx="854.854" cy="234.605" r="4" fill="#0" id="circle109"/>
	<circle cx="872.745" cy="534.79" r="4" fill="#0" id="circle110"/>
	<circle cx="874.733" cy="226.653" r="4" fill="#0" id="circle111"/>
	<circle cx="892.625" cy="534.79" r="4" fill="#0" id="circle112"/>
	<circle cx="894.613" cy="222.677" r="4" fill="#0" id="circle113"/>
	<circle cx="912.505" cy="534.79" r="4" fill="#0" id="circle114"/>
	<circle cx="914.493" cy="226.653" r="4" fill="#0" id="circle115"/>
	<circle cx="930.397" cy="238.581" r="4" fill="#0" id="circle116"/>
	<circle cx="932.385" cy="534.79" r="4" fill="#0" id="circle117"/>
	<circle cx="950.277" cy="242.557" r="4" fill="#0" id="circle118"/>
	<circle cx="952.265" cy="534.79" r="4" fill="#0" id="circle119"/>
	<circle cx="954.253" cy="15.9279" r="4" fill="#0" id="circle120"/>
	<circle cx="958.228" cy="35.8076" r="4" fill="#0" id="circle121"/>
	<circle cx="958.228" cy="55.6874" r="4" fill="#0" id="circle122"/>
	<circle cx="958.228" cy="75.5671" r="4" fill="#0" id="circle123"/>
	<circle cx="958.228" cy="95.4469" r="4" fill="#0" id="circle124"/>
	<circle cx="958.228" cy="115.327" r="4" fill="#0" id="circle125"/>
	<circle cx="958.228" cy="163.038" r="4" fill="#0" id="circle126"/>
	<circle cx="962.204" cy="135.206" r="4" fill="#0" id="circle127"/>
	<circle cx="962.204" cy="552.681" r="4" fill="#0" id="circle128"/>
	<circle cx="962.204" cy="572.561" r="4" fill="#0" id="circle129"/>
	<circle cx="962.204" cy="608.345" r="4" fill="#0" id="circle130"/>
	<circle cx="964.192" cy="182.918" r="4" fill="#0" id="circle131"/>
	<circle cx="966.18" cy="202.798" r="4" fill="#0" id="circle132"/>
	<circle cx="966.18" cy="222.677" r="4" fill="#0" id="circle133"/>
	<circle cx="970.156" cy="4" r="4" fill="#0" id="circle134"/>
	<circle cx="976.12" cy="65.6273" r="4" fill="#0" id="circle135"/>
	<circle cx="980.096" cy="582.501" r="4" fill="#0" id="circle136"/>
	<circle cx="982.084" cy="610.333" r="4" fill="#0" id="circle137"/>
	<circle cx="984.072" cy="552.681" r="4" fill="#0" id="circle138"/>
	<circle cx="988.048" cy="81.5311" r="4" fill="#0" id="circle139"/>
	<circle cx="988.048" cy="101.411" r="4" fill="#0" id="circle140"/>
	<circle cx="988.048" cy="121.291" r="4" fill="#0" id="circle141"/>
	<circle cx="988.048" cy="141.17" r="4" fill="#0" id="circle142"/>
	<circle cx="988.048" cy="161.05" r="4" fill="#0" id="circle143"/>
	<circle cx="992.024" cy="180.93" r="4" fill="#0" id="circle144"/>
	<circle cx="992.024" cy="200.81" r="4" fill="#0" id="circle145"/>
	<circle cx="992.024" cy="220.689" r="4" fill="#0" id="circle146"/>
	<circle cx="992.024" cy="240.569" r="4" fill="#0" id="circle147"/>
	<circle cx="992.024" cy="260.449" r="4" fill="#0" id="circle148"/>
	<circle cx="992.024" cy="280.329" r="4" fill="#0" id="circle149"/>
	<circle cx="992.024" cy="300.208" r="4" fill="#0" id="circle150"/>
	<circle cx="992.024" cy="320.088" r="4" fill="#0" id="circle151"/>
	<circle cx="992.024" cy="339.968" r="4" fill="#0" id="circle152"/>
	<circle cx="992.024" cy="359.848" r="4" fill="#0" id="circle153"/>
	<circle cx="992.024" cy="379.727" r="4" fill="#0" id="circle154"/>
	<circle cx="992.024" cy="399.607" r="4" fill="#0" id="circle155"/>
	<circle cx="992.024" cy="419.487" r="4" fill="#0" id="circle156"/>
	<circle cx="992.024" cy="504.97" r="4" fill="#0" id="circle157"/>
	<circle cx="992.024" cy="524.85" r="4" fill="#0" id="circle158"/>
	<circle cx="996" cy="439.367" r="4" fill="#0" id="circle159"/>
	<circle cx="996" cy="459.246" r="4" fill="#0" id="circle160"/>
	<circle cx="996" cy="479.126" r="4" fill="#0" id="circle161"/>
	</g>
</svg>