<?xml version="1.0" encoding="UTF-8" standalone="no"?>
<!-- Created with CurveBenchmark -->
<svg
	xmlns:dc="http://purl.org/dc/elements/1.1/"
	xmlns:cc="http://creativecommons.org/ns#"
	xmlns:rdf="http://www.w3.org/1999/02/22-rdf-syntax-ns#"
	xmlns:svg="http://www.w3.org/2000/svg"
	xmlns="http://www.w3.org/2000/svg"
	xmlns:sodipodi="http://sodipodi.sourceforge.net/DTD/sodipodi-0.dtd"
	xmlns:inkscape="http://www.inkscape.org/namespaces/inkscape"
	width="1000"
	height="1000"
	id="svg2"
	version="1.1"
	sodipodi:docname="manifold/discur-key03.png.txt">
<defs
	id="defs4" />
<metadata
	id="metadata7">
	<rdf:RDF>
		<cc:Work
			rdf:about="">
			<dc:format>image/svg+xml</dc:format>
			<dc:type
				rdf:resource="http://purl.org/dc/dcmitype/StillImage" />
			<dc:title></dc:title>
		</cc:Work>
	</rdf:RDF>
</metadata>
<g
	inkscape:label="Layer 1"
	inkscape:groupmode="layer"
	id="layer1">
	<path style="fill:none;stroke:red;stroke-width:1px;stroke-linecap:butt;stroke-linejoin:miter;stroke-opacity:1" d="M 4,129.851 4,148.358 z" id="boundary" inkscape:connector-curvature="0" />
	<path style="fill:none;stroke:red;stroke-width:1px;stroke-linecap:butt;stroke-linejoin:miter;stroke-opacity:1" d="M 4,129.851 13.2537,111.343 z" id="boundary" inkscape:connector-curvature="0" />
	<path style="fill:none;stroke:red;stroke-width:1px;stroke-linecap:butt;stroke-linejoin:miter;stroke-opacity:1" d="M 4,148.358 4,176.119 z" id="boundary" inkscape:connector-curvature="0" />
	<path style="fill:none;stroke:red;stroke-width:1px;stroke-linecap:butt;stroke-linejoin:miter;stroke-opacity:1" d="M 4,176.119 4,194.627 z" id="boundary" inkscape:connector-curvature="0" />
	<path style="fill:none;stroke:red;stroke-width:1px;stroke-linecap:butt;stroke-linejoin:miter;stroke-opacity:1" d="M 4,194.627 4,213.134 z" id="boundary" inkscape:connector-curvature="0" />
	<path style="fill:none;stroke:red;stroke-width:1px;stroke-linecap:butt;stroke-linejoin:miter;stroke-opacity:1" d="M 4,213.134 4,231.642 z" id="boundary" inkscape:connector-curvature="0" />
	<path style="fill:none;stroke:red;stroke-width:1px;stroke-linecap:butt;stroke-linejoin:miter;stroke-opacity:1" d="M 4,231.642 4,250.149 z" id="boundary" inkscape:connector-curvature="0" />
	<path style="fill:none;stroke:red;stroke-width:1px;stroke-linecap:butt;stroke-linejoin:miter;stroke-opacity:1" d="M 4,250.149 4,268.657 z" id="boundary" inkscape:connector-curvature="0" />
	<path style="fill:none;stroke:red;stroke-width:1px;stroke-linecap:butt;stroke-linejoin:miter;stroke-opacity:1" d="M 4,268.657 4,287.164 z" id="boundary" inkscape:connector-curvature="0" />
	<path style="fill:none;stroke:red;stroke-width:1px;stroke-linecap:butt;stroke-linejoin:miter;stroke-opacity:1" d="M 4,287.164 4,305.672 z" id="boundary" inkscape:connector-curvature="0" />
	<path style="fill:none;stroke:red;stroke-width:1px;stroke-linecap:butt;stroke-linejoin:miter;stroke-opacity:1" d="M 4,305.672 4,333.433 z" id="boundary" inkscape:connector-curvature="0" />
	<path style="fill:none;stroke:red;stroke-width:1px;stroke-linecap:butt;stroke-linejoin:miter;stroke-opacity:1" d="M 4,333.433 13.2537,351.94 z" id="boundary" inkscape:connector-curvature="0" />
	<path style="fill:none;stroke:red;stroke-width:1px;stroke-linecap:butt;stroke-linejoin:miter;stroke-opacity:1" d="M 13.2537,92.8358 13.2537,111.343 z" id="boundary" inkscape:connector-curvature="0" />
	<path style="fill:none;stroke:red;stroke-width:1px;stroke-linecap:butt;stroke-linejoin:miter;stroke-opacity:1" d="M 13.2537,92.8358 22.5075,74.3284 z" id="boundary" inkscape:connector-curvature="0" />
	<path style="fill:none;stroke:red;stroke-width:1px;stroke-linecap:butt;stroke-linejoin:miter;stroke-opacity:1" d="M 13.2537,351.94 13.2537,370.448 z" id="boundary" inkscape:connector-curvature="0" />
	<path style="fill:none;stroke:red;stroke-width:1px;stroke-linecap:butt;stroke-linejoin:miter;stroke-opacity:1" d="M 13.2537,370.448 28.0597,383.403 z" id="boundary" inkscape:connector-curvature="0" />
	<path style="fill:none;stroke:red;stroke-width:1px;stroke-linecap:butt;stroke-linejoin:miter;stroke-opacity:1" d="M 22.5075,74.3284 31.7612,46.5672 z" id="boundary" inkscape:connector-curvature="0" />
	<path style="fill:none;stroke:red;stroke-width:1px;stroke-linecap:butt;stroke-linejoin:miter;stroke-opacity:1" d="M 28.0597,383.403 42.8657,394.507 z" id="boundary" inkscape:connector-curvature="0" />
	<path style="fill:none;stroke:red;stroke-width:1px;stroke-linecap:butt;stroke-linejoin:miter;stroke-opacity:1" d="M 31.7612,46.5672 50.2687,44.7164 z" id="boundary" inkscape:connector-curvature="0" />
	<path style="fill:none;stroke:red;stroke-width:1px;stroke-linecap:butt;stroke-linejoin:miter;stroke-opacity:1" d="M 42.8657,394.507 59.5224,403.761 z" id="boundary" inkscape:connector-curvature="0" />
	<path style="fill:none;stroke:red;stroke-width:1px;stroke-linecap:butt;stroke-linejoin:miter;stroke-opacity:1" d="M 50.2687,44.7164 68.7761,41.0149 z" id="boundary" inkscape:connector-curvature="0" />
	<path style="fill:none;stroke:red;stroke-width:1px;stroke-linecap:butt;stroke-linejoin:miter;stroke-opacity:1" d="M 59.5224,403.761 76.1791,413.015 z" id="boundary" inkscape:connector-curvature="0" />
	<path style="fill:none;stroke:red;stroke-width:1px;stroke-linecap:butt;stroke-linejoin:miter;stroke-opacity:1" d="M 68.7761,41.0149 85.4328,31.7612 z" id="boundary" inkscape:connector-curvature="0" />
	<path style="fill:none;stroke:red;stroke-width:1px;stroke-linecap:butt;stroke-linejoin:miter;stroke-opacity:1" d="M 76.1791,413.015 94.6866,413.015 z" id="boundary" inkscape:connector-curvature="0" />
	<path style="fill:none;stroke:red;stroke-width:1px;stroke-linecap:butt;stroke-linejoin:miter;stroke-opacity:1" d="M 85.4328,31.7612 103.94,31.7612 z" id="boundary" inkscape:connector-curvature="0" />
	<path style="fill:none;stroke:red;stroke-width:1px;stroke-linecap:butt;stroke-linejoin:miter;stroke-opacity:1" d="M 94.6866,413.015 111.343,422.269 z" id="boundary" inkscape:connector-curvature="0" />
	<path style="fill:none;stroke:red;stroke-width:1px;stroke-linecap:butt;stroke-linejoin:miter;stroke-opacity:1" d="M 103.94,31.7612 120.597,22.5075 z" id="boundary" inkscape:connector-curvature="0" />
	<path style="fill:none;stroke:red;stroke-width:1px;stroke-linecap:butt;stroke-linejoin:miter;stroke-opacity:1" d="M 111.343,422.269 128,431.522 z" id="boundary" inkscape:connector-curvature="0" />
	<path style="fill:none;stroke:red;stroke-width:1px;stroke-linecap:butt;stroke-linejoin:miter;stroke-opacity:1" d="M 120.597,22.5075 139.104,22.5075 z" id="boundary" inkscape:connector-curvature="0" />
	<path style="fill:none;stroke:red;stroke-width:1px;stroke-linecap:butt;stroke-linejoin:miter;stroke-opacity:1" d="M 128,431.522 142.806,442.627 z" id="boundary" inkscape:connector-curvature="0" />
	<path style="fill:none;stroke:red;stroke-width:1px;stroke-linecap:butt;stroke-linejoin:miter;stroke-opacity:1" d="M 139.104,22.5075 157.612,13.2537 z" id="boundary" inkscape:connector-curvature="0" />
	<path style="fill:none;stroke:red;stroke-width:1px;stroke-linecap:butt;stroke-linejoin:miter;stroke-opacity:1" d="M 142.806,442.627 161.313,444.478 z" id="boundary" inkscape:connector-curvature="0" />
	<path style="fill:none;stroke:red;stroke-width:1px;stroke-linecap:butt;stroke-linejoin:miter;stroke-opacity:1" d="M 157.612,13.2537 176.119,13.2537 z" id="boundary" inkscape:connector-curvature="0" />
	<path style="fill:none;stroke:red;stroke-width:1px;stroke-linecap:butt;stroke-linejoin:miter;stroke-opacity:1" d="M 161.313,444.478 179.821,450.03 z" id="boundary" inkscape:connector-curvature="0" />
	<path style="fill:none;stroke:red;stroke-width:1px;stroke-linecap:butt;stroke-linejoin:miter;stroke-opacity:1" d="M 176.119,13.2537 192.776,22.5075 z" id="boundary" inkscape:connector-curvature="0" />
	<path style="fill:none;stroke:red;stroke-width:1px;stroke-linecap:butt;stroke-linejoin:miter;stroke-opacity:1" d="M 179.821,450.03 198.328,450.03 z" id="boundary" inkscape:connector-curvature="0" />
	<path style="fill:none;stroke:red;stroke-width:1px;stroke-linecap:butt;stroke-linejoin:miter;stroke-opacity:1" d="M 192.776,22.5075 211.284,22.5075 z" id="boundary" inkscape:connector-curvature="0" />
	<path style="fill:none;stroke:red;stroke-width:1px;stroke-linecap:butt;stroke-linejoin:miter;stroke-opacity:1" d="M 198.328,450.03 216.836,450.03 z" id="boundary" inkscape:connector-curvature="0" />
	<path style="fill:none;stroke:red;stroke-width:1px;stroke-linecap:butt;stroke-linejoin:miter;stroke-opacity:1" d="M 211.284,22.5075 226.09,9.55224 z" id="boundary" inkscape:connector-curvature="0" />
	<path style="fill:none;stroke:red;stroke-width:1px;stroke-linecap:butt;stroke-linejoin:miter;stroke-opacity:1" d="M 216.836,450.03 235.343,450.03 z" id="boundary" inkscape:connector-curvature="0" />
	<path style="fill:none;stroke:red;stroke-width:1px;stroke-linecap:butt;stroke-linejoin:miter;stroke-opacity:1" d="M 226.09,9.55224 244.597,4 z" id="boundary" inkscape:connector-curvature="0" />
	<path style="fill:none;stroke:red;stroke-width:1px;stroke-linecap:butt;stroke-linejoin:miter;stroke-opacity:1" d="M 235.343,450.03 253.851,450.03 z" id="boundary" inkscape:connector-curvature="0" />
	<path style="fill:none;stroke:red;stroke-width:1px;stroke-linecap:butt;stroke-linejoin:miter;stroke-opacity:1" d="M 244.597,4 263.104,4 z" id="boundary" inkscape:connector-curvature="0" />
	<path style="fill:none;stroke:red;stroke-width:1px;stroke-linecap:butt;stroke-linejoin:miter;stroke-opacity:1" d="M 253.851,450.03 272.358,444.478 z" id="boundary" inkscape:connector-curvature="0" />
	<path style="fill:none;stroke:red;stroke-width:1px;stroke-linecap:butt;stroke-linejoin:miter;stroke-opacity:1" d="M 263.104,4 279.761,13.2537 z" id="boundary" inkscape:connector-curvature="0" />
	<path style="fill:none;stroke:red;stroke-width:1px;stroke-linecap:butt;stroke-linejoin:miter;stroke-opacity:1" d="M 272.358,444.478 290.866,435.224 z" id="boundary" inkscape:connector-curvature="0" />
	<path style="fill:none;stroke:red;stroke-width:1px;stroke-linecap:butt;stroke-linejoin:miter;stroke-opacity:1" d="M 279.761,13.2537 296.418,4 z" id="boundary" inkscape:connector-curvature="0" />
	<path style="fill:none;stroke:red;stroke-width:1px;stroke-linecap:butt;stroke-linejoin:miter;stroke-opacity:1" d="M 290.866,435.224 309.373,431.522 z" id="boundary" inkscape:connector-curvature="0" />
	<path style="fill:none;stroke:red;stroke-width:1px;stroke-linecap:butt;stroke-linejoin:miter;stroke-opacity:1" d="M 296.418,4 313.075,13.2537 z" id="boundary" inkscape:connector-curvature="0" />
	<path style="fill:none;stroke:red;stroke-width:1px;stroke-linecap:butt;stroke-linejoin:miter;stroke-opacity:1" d="M 309.373,431.522 324.179,420.418 z" id="boundary" inkscape:connector-curvature="0" />
	<path style="fill:none;stroke:red;stroke-width:1px;stroke-linecap:butt;stroke-linejoin:miter;stroke-opacity:1" d="M 313.075,13.2537 331.582,5.85075 z" id="boundary" inkscape:connector-curvature="0" />
	<path style="fill:none;stroke:red;stroke-width:1px;stroke-linecap:butt;stroke-linejoin:miter;stroke-opacity:1" d="M 324.179,420.418 329.731,394.507 z" id="boundary" inkscape:connector-curvature="0" />
	<path style="fill:none;stroke:red;stroke-width:1px;stroke-linecap:butt;stroke-linejoin:miter;stroke-opacity:1" d="M 329.731,394.507 338.985,376 z" id="boundary" inkscape:connector-curvature="0" />
	<path style="fill:none;stroke:red;stroke-width:1px;stroke-linecap:butt;stroke-linejoin:miter;stroke-opacity:1" d="M 331.582,5.85075 346.388,16.9552 z" id="boundary" inkscape:connector-curvature="0" />
	<path style="fill:none;stroke:red;stroke-width:1px;stroke-linecap:butt;stroke-linejoin:miter;stroke-opacity:1" d="M 338.985,357.493 338.985,376 z" id="boundary" inkscape:connector-curvature="0" />
	<path style="fill:none;stroke:red;stroke-width:1px;stroke-linecap:butt;stroke-linejoin:miter;stroke-opacity:1" d="M 338.985,357.493 348.239,338.985 z" id="boundary" inkscape:connector-curvature="0" />
	<path style="fill:none;stroke:red;stroke-width:1px;stroke-linecap:butt;stroke-linejoin:miter;stroke-opacity:1" d="M 346.388,16.9552 357.493,31.7612 z" id="boundary" inkscape:connector-curvature="0" />
	<path style="fill:none;stroke:red;stroke-width:1px;stroke-linecap:butt;stroke-linejoin:miter;stroke-opacity:1" d="M 348.239,338.985 366.746,320.478 z" id="boundary" inkscape:connector-curvature="0" />
	<path style="fill:none;stroke:red;stroke-width:1px;stroke-linecap:butt;stroke-linejoin:miter;stroke-opacity:1" d="M 357.493,31.7612 357.493,50.2687 z" id="boundary" inkscape:connector-curvature="0" />
	<path style="fill:none;stroke:red;stroke-width:1px;stroke-linecap:butt;stroke-linejoin:miter;stroke-opacity:1" d="M 357.493,50.2687 372.299,61.3731 z" id="boundary" inkscape:connector-curvature="0" />
	<path style="fill:none;stroke:red;stroke-width:1px;stroke-linecap:butt;stroke-linejoin:miter;stroke-opacity:1" d="M 366.746,320.478 383.403,311.224 z" id="boundary" inkscape:connector-curvature="0" />
	<path style="fill:none;stroke:red;stroke-width:1px;stroke-linecap:butt;stroke-linejoin:miter;stroke-opacity:1" d="M 372.299,61.3731 376,79.8806 z" id="boundary" inkscape:connector-curvature="0" />
	<path style="fill:none;stroke:red;stroke-width:1px;stroke-linecap:butt;stroke-linejoin:miter;stroke-opacity:1" d="M 376,79.8806 385.254,107.642 z" id="boundary" inkscape:connector-curvature="0" />
	<path style="fill:none;stroke:red;stroke-width:1px;stroke-linecap:butt;stroke-linejoin:miter;stroke-opacity:1" d="M 383.403,311.224 401.91,311.224 z" id="boundary" inkscape:connector-curvature="0" />
	<path style="fill:none;stroke:red;stroke-width:1px;stroke-linecap:butt;stroke-linejoin:miter;stroke-opacity:1" d="M 385.254,107.642 394.507,124.299 z" id="boundary" inkscape:connector-curvature="0" />
	<path style="fill:none;stroke:red;stroke-width:1px;stroke-linecap:butt;stroke-linejoin:miter;stroke-opacity:1" d="M 394.507,124.299 411.164,133.552 z" id="boundary" inkscape:connector-curvature="0" />
	<path style="fill:none;stroke:red;stroke-width:1px;stroke-linecap:butt;stroke-linejoin:miter;stroke-opacity:1" d="M 401.91,311.224 420.418,305.672 z" id="boundary" inkscape:connector-curvature="0" />
	<path style="fill:none;stroke:red;stroke-width:1px;stroke-linecap:butt;stroke-linejoin:miter;stroke-opacity:1" d="M 411.164,133.552 429.672,137.254 z" id="boundary" inkscape:connector-curvature="0" />
	<path style="fill:none;stroke:red;stroke-width:1px;stroke-linecap:butt;stroke-linejoin:miter;stroke-opacity:1" d="M 420.418,305.672 438.925,311.224 z" id="boundary" inkscape:connector-curvature="0" />
	<path style="fill:none;stroke:red;stroke-width:1px;stroke-linecap:butt;stroke-linejoin:miter;stroke-opacity:1" d="M 429.672,137.254 448.179,142.806 z" id="boundary" inkscape:connector-curvature="0" />
	<path style="fill:none;stroke:red;stroke-width:1px;stroke-linecap:butt;stroke-linejoin:miter;stroke-opacity:1" d="M 438.925,311.224 457.433,311.224 z" id="boundary" inkscape:connector-curvature="0" />
	<path style="fill:none;stroke:red;stroke-width:1px;stroke-linecap:butt;stroke-linejoin:miter;stroke-opacity:1" d="M 448.179,142.806 466.687,142.806 z" id="boundary" inkscape:connector-curvature="0" />
	<path style="fill:none;stroke:red;stroke-width:1px;stroke-linecap:butt;stroke-linejoin:miter;stroke-opacity:1" d="M 457.433,311.224 475.94,311.224 z" id="boundary" inkscape:connector-curvature="0" />
	<path style="fill:none;stroke:red;stroke-width:1px;stroke-linecap:butt;stroke-linejoin:miter;stroke-opacity:1" d="M 466.687,142.806 485.194,142.806 z" id="boundary" inkscape:connector-curvature="0" />
	<path style="fill:none;stroke:red;stroke-width:1px;stroke-linecap:butt;stroke-linejoin:miter;stroke-opacity:1" d="M 475.94,311.224 492.597,301.97 z" id="boundary" inkscape:connector-curvature="0" />
	<path style="fill:none;stroke:red;stroke-width:1px;stroke-linecap:butt;stroke-linejoin:miter;stroke-opacity:1" d="M 485.194,142.806 503.701,142.806 z" id="boundary" inkscape:connector-curvature="0" />
	<path style="fill:none;stroke:red;stroke-width:1px;stroke-linecap:butt;stroke-linejoin:miter;stroke-opacity:1" d="M 492.597,301.97 509.254,292.716 z" id="boundary" inkscape:connector-curvature="0" />
	<path style="fill:none;stroke:red;stroke-width:1px;stroke-linecap:butt;stroke-linejoin:miter;stroke-opacity:1" d="M 503.701,142.806 522.209,142.806 z" id="boundary" inkscape:connector-curvature="0" />
	<path style="fill:none;stroke:red;stroke-width:1px;stroke-linecap:butt;stroke-linejoin:miter;stroke-opacity:1" d="M 509.254,292.716 527.761,292.716 z" id="boundary" inkscape:connector-curvature="0" />
	<path style="fill:none;stroke:red;stroke-width:1px;stroke-linecap:butt;stroke-linejoin:miter;stroke-opacity:1" d="M 522.209,142.806 538.866,152.06 z" id="boundary" inkscape:connector-curvature="0" />
	<path style="fill:none;stroke:red;stroke-width:1px;stroke-linecap:butt;stroke-linejoin:miter;stroke-opacity:1" d="M 527.761,292.716 546.269,292.716 z" id="boundary" inkscape:connector-curvature="0" />
	<path style="fill:none;stroke:red;stroke-width:1px;stroke-linecap:butt;stroke-linejoin:miter;stroke-opacity:1" d="M 538.866,152.06 555.522,142.806 z" id="boundary" inkscape:connector-curvature="0" />
	<path style="fill:none;stroke:red;stroke-width:1px;stroke-linecap:butt;stroke-linejoin:miter;stroke-opacity:1" d="M 546.269,292.716 562.925,283.463 z" id="boundary" inkscape:connector-curvature="0" />
	<path style="fill:none;stroke:red;stroke-width:1px;stroke-linecap:butt;stroke-linejoin:miter;stroke-opacity:1" d="M 555.522,142.806 574.03,142.806 z" id="boundary" inkscape:connector-curvature="0" />
	<path style="fill:none;stroke:red;stroke-width:1px;stroke-linecap:butt;stroke-linejoin:miter;stroke-opacity:1" d="M 562.925,283.463 581.433,283.463 z" id="boundary" inkscape:connector-curvature="0" />
	<path style="fill:none;stroke:red;stroke-width:1px;stroke-linecap:butt;stroke-linejoin:miter;stroke-opacity:1" d="M 574.03,142.806 592.537,142.806 z" id="boundary" inkscape:connector-curvature="0" />
	<path style="fill:none;stroke:red;stroke-width:1px;stroke-linecap:butt;stroke-linejoin:miter;stroke-opacity:1" d="M 581.433,283.463 599.94,283.463 z" id="boundary" inkscape:connector-curvature="0" />
	<path style="fill:none;stroke:red;stroke-width:1px;stroke-linecap:butt;stroke-linejoin:miter;stroke-opacity:1" d="M 592.537,142.806 611.045,142.806 z" id="boundary" inkscape:connector-curvature="0" />
	<path style="fill:none;stroke:red;stroke-width:1px;stroke-linecap:butt;stroke-linejoin:miter;stroke-opacity:1" d="M 599.94,283.463 616.597,274.209 z" id="boundary" inkscape:connector-curvature="0" />
	<path style="fill:none;stroke:red;stroke-width:1px;stroke-linecap:butt;stroke-linejoin:miter;stroke-opacity:1" d="M 611.045,142.806 629.552,142.806 z" id="boundary" inkscape:connector-curvature="0" />
	<path style="fill:none;stroke:red;stroke-width:1px;stroke-linecap:butt;stroke-linejoin:miter;stroke-opacity:1" d="M 616.597,274.209 635.104,264.955 z" id="boundary" inkscape:connector-curvature="0" />
	<path style="fill:none;stroke:red;stroke-width:1px;stroke-linecap:butt;stroke-linejoin:miter;stroke-opacity:1" d="M 629.552,142.806 648.06,142.806 z" id="boundary" inkscape:connector-curvature="0" />
	<path style="fill:none;stroke:red;stroke-width:1px;stroke-linecap:butt;stroke-linejoin:miter;stroke-opacity:1" d="M 635.104,264.955 646.209,279.761 z" id="boundary" inkscape:connector-curvature="0" />
	<path style="fill:none;stroke:red;stroke-width:1px;stroke-linecap:butt;stroke-linejoin:miter;stroke-opacity:1" d="M 646.209,279.761 662.866,289.015 z" id="boundary" inkscape:connector-curvature="0" />
	<path style="fill:none;stroke:red;stroke-width:1px;stroke-linecap:butt;stroke-linejoin:miter;stroke-opacity:1" d="M 648.06,142.806 666.567,142.806 z" id="boundary" inkscape:connector-curvature="0" />
	<path style="fill:none;stroke:red;stroke-width:1px;stroke-linecap:butt;stroke-linejoin:miter;stroke-opacity:1" d="M 662.866,289.015 681.373,292.716 z" id="boundary" inkscape:connector-curvature="0" />
	<path style="fill:none;stroke:red;stroke-width:1px;stroke-linecap:butt;stroke-linejoin:miter;stroke-opacity:1" d="M 666.567,142.806 685.075,142.806 z" id="boundary" inkscape:connector-curvature="0" />
	<path style="fill:none;stroke:red;stroke-width:1px;stroke-linecap:butt;stroke-linejoin:miter;stroke-opacity:1" d="M 681.373,292.716 699.881,292.716 z" id="boundary" inkscape:connector-curvature="0" />
	<path style="fill:none;stroke:red;stroke-width:1px;stroke-linecap:butt;stroke-linejoin:miter;stroke-opacity:1" d="M 685.075,142.806 703.582,142.806 z" id="boundary" inkscape:connector-curvature="0" />
	<path style="fill:none;stroke:red;stroke-width:1px;stroke-linecap:butt;stroke-linejoin:miter;stroke-opacity:1" d="M 699.881,292.716 718.388,292.716 z" id="boundary" inkscape:connector-curvature="0" />
	<path style="fill:none;stroke:red;stroke-width:1px;stroke-linecap:butt;stroke-linejoin:miter;stroke-opacity:1" d="M 703.582,142.806 722.09,142.806 z" id="boundary" inkscape:connector-curvature="0" />
	<path style="fill:none;stroke:red;stroke-width:1px;stroke-linecap:butt;stroke-linejoin:miter;stroke-opacity:1" d="M 718.388,292.716 736.896,292.716 z" id="boundary" inkscape:connector-curvature="0" />
	<path style="fill:none;stroke:red;stroke-width:1px;stroke-linecap:butt;stroke-linejoin:miter;stroke-opacity:1" d="M 722.09,142.806 740.597,142.806 z" id="boundary" inkscape:connector-curvature="0" />
	<path style="fill:none;stroke:red;stroke-width:1px;stroke-linecap:butt;stroke-linejoin:miter;stroke-opacity:1" d="M 736.896,292.716 753.552,301.97 z" id="boundary" inkscape:connector-curvature="0" />
	<path style="fill:none;stroke:red;stroke-width:1px;stroke-linecap:butt;stroke-linejoin:miter;stroke-opacity:1" d="M 740.597,142.806 759.104,142.806 z" id="boundary" inkscape:connector-curvature="0" />
	<path style="fill:none;stroke:red;stroke-width:1px;stroke-linecap:butt;stroke-linejoin:miter;stroke-opacity:1" d="M 753.552,301.97 770.209,292.716 z" id="boundary" inkscape:connector-curvature="0" />
	<path style="fill:none;stroke:red;stroke-width:1px;stroke-linecap:butt;stroke-linejoin:miter;stroke-opacity:1" d="M 759.104,142.806 777.612,142.806 z" id="boundary" inkscape:connector-curvature="0" />
	<path style="fill:none;stroke:red;stroke-width:1px;stroke-linecap:butt;stroke-linejoin:miter;stroke-opacity:1" d="M 770.209,292.716 788.716,292.716 z" id="boundary" inkscape:connector-curvature="0" />
	<path style="fill:none;stroke:red;stroke-width:1px;stroke-linecap:butt;stroke-linejoin:miter;stroke-opacity:1" d="M 777.612,142.806 794.269,152.06 z" id="boundary" inkscape:connector-curvature="0" />
	<path style="fill:none;stroke:red;stroke-width:1px;stroke-linecap:butt;stroke-linejoin:miter;stroke-opacity:1" d="M 788.716,292.716 807.224,292.716 z" id="boundary" inkscape:connector-curvature="0" />
	<path style="fill:none;stroke:red;stroke-width:1px;stroke-linecap:butt;stroke-linejoin:miter;stroke-opacity:1" d="M 794.269,152.06 810.925,161.313 z" id="boundary" inkscape:connector-curvature="0" />
	<path style="fill:none;stroke:red;stroke-width:1px;stroke-linecap:butt;stroke-linejoin:miter;stroke-opacity:1" d="M 807.224,292.716 823.881,301.97 z" id="boundary" inkscape:connector-curvature="0" />
	<path style="fill:none;stroke:red;stroke-width:1px;stroke-linecap:butt;stroke-linejoin:miter;stroke-opacity:1" d="M 810.925,161.313 827.582,152.06 z" id="boundary" inkscape:connector-curvature="0" />
	<path style="fill:none;stroke:red;stroke-width:1px;stroke-linecap:butt;stroke-linejoin:miter;stroke-opacity:1" d="M 823.881,301.97 836.836,287.164 z" id="boundary" inkscape:connector-curvature="0" />
	<path style="fill:none;stroke:red;stroke-width:1px;stroke-linecap:butt;stroke-linejoin:miter;stroke-opacity:1" d="M 827.582,152.06 844.239,161.313 z" id="boundary" inkscape:connector-curvature="0" />
	<path style="fill:none;stroke:red;stroke-width:1px;stroke-linecap:butt;stroke-linejoin:miter;stroke-opacity:1" d="M 836.836,287.164 855.343,283.463 z" id="boundary" inkscape:connector-curvature="0" />
	<path style="fill:none;stroke:red;stroke-width:1px;stroke-linecap:butt;stroke-linejoin:miter;stroke-opacity:1" d="M 844.239,161.313 862.746,161.313 z" id="boundary" inkscape:connector-curvature="0" />
	<path style="fill:none;stroke:red;stroke-width:1px;stroke-linecap:butt;stroke-linejoin:miter;stroke-opacity:1" d="M 855.343,283.463 872,292.716 z" id="boundary" inkscape:connector-curvature="0" />
	<path style="fill:none;stroke:red;stroke-width:1px;stroke-linecap:butt;stroke-linejoin:miter;stroke-opacity:1" d="M 862.746,161.313 879.403,152.06 z" id="boundary" inkscape:connector-curvature="0" />
	<path style="fill:none;stroke:red;stroke-width:1px;stroke-linecap:butt;stroke-linejoin:miter;stroke-opacity:1" d="M 872,292.716 890.507,292.716 z" id="boundary" inkscape:connector-curvature="0" />
	<path style="fill:none;stroke:red;stroke-width:1px;stroke-linecap:butt;stroke-linejoin:miter;stroke-opacity:1" d="M 879.403,152.06 897.91,152.06 z" id="boundary" inkscape:connector-curvature="0" />
	<path style="fill:none;stroke:red;stroke-width:1px;stroke-linecap:butt;stroke-linejoin:miter;stroke-opacity:1" d="M 890.507,292.716 907.164,283.463 z" id="boundary" inkscape:connector-curvature="0" />
	<path style="fill:none;stroke:red;stroke-width:1px;stroke-linecap:butt;stroke-linejoin:miter;stroke-opacity:1" d="M 897.91,152.06 914.567,161.313 z" id="boundary" inkscape:connector-curvature="0" />
	<path style="fill:none;stroke:red;stroke-width:1px;stroke-linecap:butt;stroke-linejoin:miter;stroke-opacity:1" d="M 907.164,283.463 923.821,292.716 z" id="boundary" inkscape:connector-curvature="0" />
	<path style="fill:none;stroke:red;stroke-width:1px;stroke-linecap:butt;stroke-linejoin:miter;stroke-opacity:1" d="M 914.567,161.313 933.075,161.313 z" id="boundary" inkscape:connector-curvature="0" />
	<path style="fill:none;stroke:red;stroke-width:1px;stroke-linecap:butt;stroke-linejoin:miter;stroke-opacity:1" d="M 923.821,292.716 942.328,292.716 z" id="boundary" inkscape:connector-curvature="0" />
	<path style="fill:none;stroke:red;stroke-width:1px;stroke-linecap:butt;stroke-linejoin:miter;stroke-opacity:1" d="M 933.075,161.313 951.582,161.313 z" id="boundary" inkscape:connector-curvature="0" />
	<path style="fill:none;stroke:red;stroke-width:1px;stroke-linecap:butt;stroke-linejoin:miter;stroke-opacity:1" d="M 942.328,292.716 957.134,277.91 z" id="boundary" inkscape:connector-curvature="0" />
	<path style="fill:none;stroke:red;stroke-width:1px;stroke-linecap:butt;stroke-linejoin:miter;stroke-opacity:1" d="M 951.582,161.313 966.388,174.269 z" id="boundary" inkscape:connector-curvature="0" />
	<path style="fill:none;stroke:red;stroke-width:1px;stroke-linecap:butt;stroke-linejoin:miter;stroke-opacity:1" d="M 957.134,277.91 968.239,246.448 z" id="boundary" inkscape:connector-curvature="0" />
	<path style="fill:none;stroke:red;stroke-width:1px;stroke-linecap:butt;stroke-linejoin:miter;stroke-opacity:1" d="M 966.388,174.269 977.493,189.075 z" id="boundary" inkscape:connector-curvature="0" />
	<path style="fill:none;stroke:red;stroke-width:1px;stroke-linecap:butt;stroke-linejoin:miter;stroke-opacity:1" d="M 968.239,246.448 986.746,227.94 z" id="boundary" inkscape:connector-curvature="0" />
	<path style="fill:none;stroke:red;stroke-width:1px;stroke-linecap:butt;stroke-linejoin:miter;stroke-opacity:1" d="M 977.493,189.075 996,194.627 z" id="boundary" inkscape:connector-curvature="0" />
	<path style="fill:none;stroke:red;stroke-width:1px;stroke-linecap:butt;stroke-linejoin:miter;stroke-opacity:1" d="M 986.746,227.94 996,194.627 z" id="boundary" inkscape:connector-curvature="0" />
	<circle cx="4" cy="129.851" r="4" fill="#0" id="circle0"/>
	<circle cx="4" cy="148.358" r="4" fill="#0" id="circle1"/>
	<circle cx="4" cy="176.119" r="4" fill="#0" id="circle2"/>
	<circle cx="4" cy="194.627" r="4" fill="#0" id="circle3"/>
	<circle cx="4" cy="213.134" r="4" fill="#0" id="circle4"/>
	<circle cx="4" cy="231.642" r="4" fill="#0" id="circle5"/>
	<circle cx="4" cy="250.149" r="4" fill="#0" id="circle6"/>
	<circle cx="4" cy="268.657" r="4" fill="#0" id="circle7"/>
	<circle cx="4" cy="287.164" r="4" fill="#0" id="circle8"/>
	<circle cx="4" cy="305.672" r="4" fill="#0" id="circle9"/>
	<circle cx="4" cy="333.433" r="4" fill="#0" id="circle10"/>
	<circle cx="13.2537" cy="92.8358" r="4" fill="#0" id="circle11"/>
	<circle cx="13.2537" cy="111.343" r="4" fill="#0" id="circle12"/>
	<circle cx="13.2537" cy="351.94" r="4" fill="#0" id="circle13"/>
	<circle cx="13.2537" cy="370.448" r="4" fill="#0" id="circle14"/>
	<circle cx="22.5075" cy="74.3284" r="4" fill="#0" id="circle15"/>
	<circle cx="28.0597" cy="383.403" r="4" fill="#0" id="circle16"/>
	<circle cx="31.7612" cy="46.5672" r="4" fill="#0" id="circle17"/>
	<circle cx="42.8657" cy="394.507" r="4" fill="#0" id="circle18"/>
	<circle cx="50.2687" cy="44.7164" r="4" fill="#0" id="circle19"/>
	<circle cx="59.5224" cy="403.761" r="4" fill="#0" id="circle20"/>
	<circle cx="68.7761" cy="41.0149" r="4" fill="#0" id="circle21"/>
	<circle cx="76.1791" cy="413.015" r="4" fill="#0" id="circle22"/>
	<circle cx="85.4328" cy="31.7612" r="4" fill="#0" id="circle23"/>
	<circle cx="94.6866" cy="413.015" r="4" fill="#0" id="circle24"/>
	<circle cx="103.94" cy="31.7612" r="4" fill="#0" id="circle25"/>
	<circle cx="111.343" cy="422.269" r="4" fill="#0" id="circle26"/>
	<circle cx="120.597" cy="22.5075" r="4" fill="#0" id="circle27"/>
	<circle cx="128" cy="431.522" r="4" fill="#0" id="circle28"/>
	<circle cx="139.104" cy="22.5075" r="4" fill="#0" id="circle29"/>
	<circle cx="142.806" cy="442.627" r="4" fill="#0" id="circle30"/>
	<circle cx="157.612" cy="13.2537" r="4" fill="#0" id="circle31"/>
	<circle cx="161.313" cy="444.478" r="4" fill="#0" id="circle32"/>
	<circle cx="176.119" cy="13.2537" r="4" fill="#0" id="circle33"/>
	<circle cx="179.821" cy="450.03" r="4" fill="#0" id="circle34"/>
	<circle cx="192.776" cy="22.5075" r="4" fill="#0" id="circle35"/>
	<circle cx="198.328" cy="450.03" r="4" fill="#0" id="circle36"/>
	<circle cx="211.284" cy="22.5075" r="4" fill="#0" id="circle37"/>
	<circle cx="216.836" cy="450.03" r="4" fill="#0" id="circle38"/>
	<circle cx="226.09" cy="9.55224" r="4" fill="#0" id="circle39"/>
	<circle cx="235.343" cy="450.03" r="4" fill="#0" id="circle40"/>
	<circle cx="244.597" cy="4" r="4" fill="#0" id="circle41"/>
	<circle cx="253.851" cy="450.03" r="4" fill="#0" id="circle42"/>
	<circle cx="263.104" cy="4" r="4" fill="#0" id="circle43"/>
	<circle cx="272.358" cy="444.478" r="4" fill="#0" id="circle44"/>
	<circle cx="279.761" cy="13.2537" r="4" fill="#0" id="circle45"/>
	<circle cx="290.866" cy="435.224" r="4" fill="#0" id="circle46"/>
	<circle cx="296.418" cy="4" r="4" fill="#0" id="circle47"/>
	<circle cx="309.373" cy="431.522" r="4" fill="#0" id="circle48"/>
	<circle cx="313.075" cy="13.2537" r="4" fill="#0" id="circle49"/>
	<circle cx="324.179" cy="420.418" r="4" fill="#0" id="circle50"/>
	<circle cx="329.731" cy="394.507" r="4" fill="#0" id="circle51"/>
	<circle cx="331.582" cy="5.85075" r="4" fill="#0" id="circle52"/>
	<circle cx="338.985" cy="357.493" r="4" fill="#0" id="circle53"/>
	<circle cx="338.985" cy="376" r="4" fill="#0" id="circle54"/>
	<circle cx="346.388" cy="16.9552" r="4" fill="#0" id="circle55"/>
	<circle cx="348.239" cy="338.985" r="4" fill="#0" id="circle56"/>
	<circle cx="357.493" cy="31.7612" r="4" fill="#0" id="circle57"/>
	<circle cx="357.493" cy="50.2687" r="4" fill="#0" id="circle58"/>
	<circle cx="366.746" cy="320.478" r="4" fill="#0" id="circle59"/>
	<circle cx="372.299" cy="61.3731" r="4" fill="#0" id="circle60"/>
	<circle cx="376" cy="79.8806" r="4" fill="#0" id="circle61"/>
	<circle cx="383.403" cy="311.224" r="4" fill="#0" id="circle62"/>
	<circle cx="385.254" cy="107.642" r="4" fill="#0" id="circle63"/>
	<circle cx="394.507" cy="124.299" r="4" fill="#0" id="circle64"/>
	<circle cx="401.91" cy="311.224" r="4" fill="#0" id="circle65"/>
	<circle cx="411.164" cy="133.552" r="4" fill="#0" id="circle66"/>
	<circle cx="420.418" cy="305.672" r="4" fill="#0" id="circle67"/>
	<circle cx="429.672" cy="137.254" r="4" fill="#0" id="circle68"/>
	<circle cx="438.925" cy="311.224" r="4" fill="#0" id="circle69"/>
	<circle cx="448.179" cy="142.806" r="4" fill="#0" id="circle70"/>
	<circle cx="457.433" cy="311.224" r="4" fill="#0" id="circle71"/>
	<circle cx="466.687" cy="142.806" r="4" fill="#0" id="circle72"/>
	<circle cx="475.94" cy="311.224" r="4" fill="#0" id="circle73"/>
	<circle cx="485.194" cy="142.806" r="4" fill="#0" id="circle74"/>
	<circle cx="492.597" cy="301.97" r="4" fill="#0" id="circle75"/>
	<circle cx="503.701" cy="142.806" r="4" fill="#0" id="circle76"/>
	<circle cx="509.254" cy="292.716" r="4" fill="#0" id="circle77"/>
	<circle cx="522.209" cy="142.806" r="4" fill="#0" id="circle78"/>
	<circle cx="527.761" cy="292.716" r="4" fill="#0" id="circle79"/>
	<circle cx="538.866" cy="152.06" r="4" fill="#0" id="circle80"/>
	<circle cx="546.269" cy="292.716" r="4" fill="#0" id="circle81"/>
	<circle cx="555.522" cy="142.806" r="4" fill="#0" id="circle82"/>
	<circle cx="562.925" cy="283.463" r="4" fill="#0" id="circle83"/>
	<circle cx="574.03" cy="142.806" r="4" fill="#0" id="circle84"/>
	<circle cx="581.433" cy="283.463" r="4" fill="#0" id="circle85"/>
	<circle cx="592.537" cy="142.806" r="4" fill="#0" id="circle86"/>
	<circle cx="599.94" cy="283.463" r="4" fill="#0" id="circle87"/>
	<circle cx="611.045" cy="142.806" r="4" fill="#0" id="circle88"/>
	<circle cx="616.597" cy="274.209" r="4" fill="#0" id="circle89"/>
	<circle cx="629.552" cy="142.806" r="4" fill="#0" id="circle90"/>
	<circle cx="635.104" cy="264.955" r="4" fill="#0" id="circle91"/>
	<circle cx="646.209" cy="279.761" r="4" fill="#0" id="circle92"/>
	<circle cx="648.06" cy="142.806" r="4" fill="#0" id="circle93"/>
	<circle cx="662.866" cy="289.015" r="4" fill="#0" id="circle94"/>
	<circle cx="666.567" cy="142.806" r="4" fill="#0" id="circle95"/>
	<circle cx="681.373" cy="292.716" r="4" fill="#0" id="circle96"/>
	<circle cx="685.075" cy="142.806" r="4" fill="#0" id="circle97"/>
	<circle cx="699.881" cy="292.716" r="4" fill="#0" id="circle98"/>
	<circle cx="703.582" cy="142.806" r="4" fill="#0" id="circle99"/>
	<circle cx="718.388" cy="292.716" r="4" fill="#0" id="circle100"/>
	<circle cx="722.09" cy="142.806" r="4" fill="#0" id="circle101"/>
	<circle cx="736.896" cy="292.716" r="4" fill="#0" id="circle102"/>
	<circle cx="740.597" cy="142.806" r="4" fill="#0" id="circle103"/>
	<circle cx="753.552" cy="301.97" r="4" fill="#0" id="circle104"/>
	<circle cx="759.104" cy="142.806" r="4" fill="#0" id="circle105"/>
	<circle cx="770.209" cy="292.716" r="4" fill="#0" id="circle106"/>
	<circle cx="777.612" cy="142.806" r="4" fill="#0" id="circle107"/>
	<circle cx="788.716" cy="292.716" r="4" fill="#0" id="circle108"/>
	<circle cx="794.269" cy="152.06" r="4" fill="#0" id="circle109"/>
	<circle cx="807.224" cy="292.716" r="4" fill="#0" id="circle110"/>
	<circle cx="810.925" cy="161.313" r="4" fill="#0" id="circle111"/>
	<circle cx="823.881" cy="301.97" r="4" fill="#0" id="circle112"/>
	<circle cx="827.582" cy="152.06" r="4" fill="#0" id="circle113"/>
	<circle cx="836.836" cy="287.164" r="4" fill="#0" id="circle114"/>
	<circle cx="844.239" cy="161.313" r="4" fill="#0" id="circle115"/>
	<circle cx="855.343" cy="283.463" r="4" fill="#0" id="circle116"/>
	<circle cx="862.746" cy="161.313" r="4" fill="#0" id="circle117"/>
	<circle cx="872" cy="292.716" r="4" fill="#0" id="circle118"/>
	<circle cx="879.403" cy="152.06" r="4" fill="#0" id="circle119"/>
	<circle cx="890.507" cy="292.716" r="4" fill="#0" id="circle120"/>
	<circle cx="897.91" cy="152.06" r="4" fill="#0" id="circle121"/>
	<circle cx="907.164" cy="283.463" r="4" fill="#0" id="circle122"/>
	<circle cx="914.567" cy="161.313" r="4" fill="#0" id="circle123"/>
	<circle cx="923.821" cy="292.716" r="4" fill="#0" id="circle124"/>
	<circle cx="933.075" cy="161.313" r="4" fill="#0" id="circle125"/>
	<circle cx="942.328" cy="292.716" r="4" fill="#0" id="circle126"/>
	<circle cx="951.582" cy="161.313" r="4" fill="#0" id="circle127"/>
	<circle cx="957.134" cy="277.91" r="4" fill="#0" id="circle128"/>
	<circle cx="966.388" cy="174.269" r="4" fill="#0" id="circle129"/>
	<circle cx="968.239" cy="246.448" r="4" fill="#0" id="circle130"/>
	<circle cx="977.493" cy="189.075" r="4" fill="#0" id="circle131"/>
	<circle cx="986.746" cy="227.94" r="4" fill="#0" id="circle132"/>
	<circle cx="996" cy="194.627" r="4" fill="#0" id="circle133"/>
	</g>
</svg>