<?xml version="1.0" encoding="UTF-8" standalone="no"?>
<!-- Created with CurveBenchmark -->
<svg
	xmlns:dc="http://purl.org/dc/elements/1.1/"
	xmlns:cc="http://creativecommons.org/ns#"
	xmlns:rdf="http://www.w3.org/1999/02/22-rdf-syntax-ns#"
	xmlns:svg="http://www.w3.org/2000/svg"
	xmlns="http://www.w3.org/2000/svg"
	xmlns:sodipodi="http://sodipodi.sourceforge.net/DTD/sodipodi-0.dtd"
	xmlns:inkscape="http://www.inkscape.org/namespaces/inkscape"
	width="1000"
	height="1000"
	id="svg2"
	version="1.1"
	sodipodi:docname="manifold/discur-face-18.png.txt">
<defs
	id="defs4" />
<metadata
	id="metadata7">
	<rdf:RDF>
		<cc:Work
			rdf:about="">
			<dc:format>image/svg+xml</dc:format>
			<dc:type
				rdf:resource="http://purl.org/dc/dcmitype/StillImage" />
			<dc:title></dc:title>
		</cc:Work>
	</rdf:RDF>
</metadata>
<g
	inkscape:label="Layer 1"
	inkscape:groupmode="layer"
	id="layer1">
	<path style="fill:none;stroke:red;stroke-width:1px;stroke-linecap:butt;stroke-linejoin:miter;stroke-opacity:1" d="M 4,463.343 4,476.319 z" id="boundary" inkscape:connector-curvature="0" />
	<path style="fill:none;stroke:red;stroke-width:1px;stroke-linecap:butt;stroke-linejoin:miter;stroke-opacity:1" d="M 4,476.319 4,482.807 z" id="boundary" inkscape:connector-curvature="0" />
	<path style="fill:none;stroke:red;stroke-width:1px;stroke-linecap:butt;stroke-linejoin:miter;stroke-opacity:1" d="M 4,482.807 4,495.783 z" id="boundary" inkscape:connector-curvature="0" />
	<path style="fill:none;stroke:red;stroke-width:1px;stroke-linecap:butt;stroke-linejoin:miter;stroke-opacity:1" d="M 4,495.783 7.24395,501.622 z" id="boundary" inkscape:connector-curvature="0" />
	<path style="fill:none;stroke:red;stroke-width:1px;stroke-linecap:butt;stroke-linejoin:miter;stroke-opacity:1" d="M 7.24395,447.124 10.4879,440.636 z" id="boundary" inkscape:connector-curvature="0" />
	<path style="fill:none;stroke:red;stroke-width:1px;stroke-linecap:butt;stroke-linejoin:miter;stroke-opacity:1" d="M 7.24395,447.124 13.7319,434.148 z" id="boundary" inkscape:connector-curvature="0" />
	<path style="fill:none;stroke:red;stroke-width:1px;stroke-linecap:butt;stroke-linejoin:miter;stroke-opacity:1" d="M 7.24395,501.622 7.24395,514.598 z" id="boundary" inkscape:connector-curvature="0" />
	<path style="fill:none;stroke:red;stroke-width:1px;stroke-linecap:butt;stroke-linejoin:miter;stroke-opacity:1" d="M 7.24395,514.598 12.4343,526.925 z" id="boundary" inkscape:connector-curvature="0" />
	<path style="fill:none;stroke:red;stroke-width:1px;stroke-linecap:butt;stroke-linejoin:miter;stroke-opacity:1" d="M 10.4879,440.636 13.7319,434.148 z" id="boundary" inkscape:connector-curvature="0" />
	<path style="fill:none;stroke:red;stroke-width:1px;stroke-linecap:butt;stroke-linejoin:miter;stroke-opacity:1" d="M 12.4343,526.925 15.6782,532.764 z" id="boundary" inkscape:connector-curvature="0" />
	<path style="fill:none;stroke:red;stroke-width:1px;stroke-linecap:butt;stroke-linejoin:miter;stroke-opacity:1" d="M 15.6782,532.764 20.2198,537.954 z" id="boundary" inkscape:connector-curvature="0" />
	<path style="fill:none;stroke:red;stroke-width:1px;stroke-linecap:butt;stroke-linejoin:miter;stroke-opacity:1" d="M 20.2198,537.954 23.4637,543.793 z" id="boundary" inkscape:connector-curvature="0" />
	<path style="fill:none;stroke:red;stroke-width:1px;stroke-linecap:butt;stroke-linejoin:miter;stroke-opacity:1" d="M 22.1661,422.47 27.3564,417.279 z" id="boundary" inkscape:connector-curvature="0" />
	<path style="fill:none;stroke:red;stroke-width:1px;stroke-linecap:butt;stroke-linejoin:miter;stroke-opacity:1" d="M 23.4637,543.793 26.7077,549.632 z" id="boundary" inkscape:connector-curvature="0" />
	<path style="fill:none;stroke:red;stroke-width:1px;stroke-linecap:butt;stroke-linejoin:miter;stroke-opacity:1" d="M 26.7077,210.315 26.7077,223.291 z" id="boundary" inkscape:connector-curvature="0" />
	<path style="fill:none;stroke:red;stroke-width:1px;stroke-linecap:butt;stroke-linejoin:miter;stroke-opacity:1" d="M 26.7077,210.315 33.1956,190.852 z" id="boundary" inkscape:connector-curvature="0" />
	<path style="fill:none;stroke:red;stroke-width:1px;stroke-linecap:butt;stroke-linejoin:miter;stroke-opacity:1" d="M 26.7077,223.291 26.7077,236.267 z" id="boundary" inkscape:connector-curvature="0" />
	<path style="fill:none;stroke:red;stroke-width:1px;stroke-linecap:butt;stroke-linejoin:miter;stroke-opacity:1" d="M 26.7077,236.267 26.7077,249.243 z" id="boundary" inkscape:connector-curvature="0" />
	<path style="fill:none;stroke:red;stroke-width:1px;stroke-linecap:butt;stroke-linejoin:miter;stroke-opacity:1" d="M 26.7077,249.243 26.7077,255.731 z" id="boundary" inkscape:connector-curvature="0" />
	<path style="fill:none;stroke:red;stroke-width:1px;stroke-linecap:butt;stroke-linejoin:miter;stroke-opacity:1" d="M 26.7077,255.731 26.7077,268.706 z" id="boundary" inkscape:connector-curvature="0" />
	<path style="fill:none;stroke:red;stroke-width:1px;stroke-linecap:butt;stroke-linejoin:miter;stroke-opacity:1" d="M 26.7077,268.706 26.7077,275.194 z" id="boundary" inkscape:connector-curvature="0" />
	<path style="fill:none;stroke:red;stroke-width:1px;stroke-linecap:butt;stroke-linejoin:miter;stroke-opacity:1" d="M 26.7077,275.194 29.9516,287.521 z" id="boundary" inkscape:connector-curvature="0" />
	<path style="fill:none;stroke:red;stroke-width:1px;stroke-linecap:butt;stroke-linejoin:miter;stroke-opacity:1" d="M 26.7077,549.632 30.6004,554.823 z" id="boundary" inkscape:connector-curvature="0" />
	<path style="fill:none;stroke:red;stroke-width:1px;stroke-linecap:butt;stroke-linejoin:miter;stroke-opacity:1" d="M 27.3564,417.279 39.0347,412.738 z" id="boundary" inkscape:connector-curvature="0" />
	<path style="fill:none;stroke:red;stroke-width:1px;stroke-linecap:butt;stroke-linejoin:miter;stroke-opacity:1" d="M 29.9516,287.521 29.9516,294.009 z" id="boundary" inkscape:connector-curvature="0" />
	<path style="fill:none;stroke:red;stroke-width:1px;stroke-linecap:butt;stroke-linejoin:miter;stroke-opacity:1" d="M 29.9516,306.985 29.9516,313.473 z" id="boundary" inkscape:connector-curvature="0" />
	<path style="fill:none;stroke:red;stroke-width:1px;stroke-linecap:butt;stroke-linejoin:miter;stroke-opacity:1" d="M 29.9516,306.985 33.1956,319.312 z" id="boundary" inkscape:connector-curvature="0" />
	<path style="fill:none;stroke:red;stroke-width:1px;stroke-linecap:butt;stroke-linejoin:miter;stroke-opacity:1" d="M 29.9516,313.473 33.1956,319.312 z" id="boundary" inkscape:connector-curvature="0" />
	<path style="fill:none;stroke:red;stroke-width:1px;stroke-linecap:butt;stroke-linejoin:miter;stroke-opacity:1" d="M 30.6004,554.823 33.8443,560.662 z" id="boundary" inkscape:connector-curvature="0" />
	<path style="fill:none;stroke:red;stroke-width:1px;stroke-linecap:butt;stroke-linejoin:miter;stroke-opacity:1" d="M 33.1956,190.852 41.6298,179.173 z" id="boundary" inkscape:connector-curvature="0" />
	<path style="fill:none;stroke:red;stroke-width:1px;stroke-linecap:butt;stroke-linejoin:miter;stroke-opacity:1" d="M 33.1956,332.288 33.1956,345.264 z" id="boundary" inkscape:connector-curvature="0" />
	<path style="fill:none;stroke:red;stroke-width:1px;stroke-linecap:butt;stroke-linejoin:miter;stroke-opacity:1" d="M 33.1956,345.264 36.4395,358.239 z" id="boundary" inkscape:connector-curvature="0" />
	<path style="fill:none;stroke:red;stroke-width:1px;stroke-linecap:butt;stroke-linejoin:miter;stroke-opacity:1" d="M 33.8443,560.662 39.6835,572.34 z" id="boundary" inkscape:connector-curvature="0" />
	<path style="fill:none;stroke:red;stroke-width:1px;stroke-linecap:butt;stroke-linejoin:miter;stroke-opacity:1" d="M 36.4395,358.239 38.3859,364.727 z" id="boundary" inkscape:connector-curvature="0" />
	<path style="fill:none;stroke:red;stroke-width:1px;stroke-linecap:butt;stroke-linejoin:miter;stroke-opacity:1" d="M 38.3859,364.727 39.6835,377.703 z" id="boundary" inkscape:connector-curvature="0" />
	<path style="fill:none;stroke:red;stroke-width:1px;stroke-linecap:butt;stroke-linejoin:miter;stroke-opacity:1" d="M 39.0347,412.738 42.9274,397.167 z" id="boundary" inkscape:connector-curvature="0" />
	<path style="fill:none;stroke:red;stroke-width:1px;stroke-linecap:butt;stroke-linejoin:miter;stroke-opacity:1" d="M 39.6835,377.703 42.9274,390.679 z" id="boundary" inkscape:connector-curvature="0" />
	<path style="fill:none;stroke:red;stroke-width:1px;stroke-linecap:butt;stroke-linejoin:miter;stroke-opacity:1" d="M 39.6835,572.34 42.9274,578.179 z" id="boundary" inkscape:connector-curvature="0" />
	<path style="fill:none;stroke:red;stroke-width:1px;stroke-linecap:butt;stroke-linejoin:miter;stroke-opacity:1" d="M 41.6298,179.173 48.1177,166.198 z" id="boundary" inkscape:connector-curvature="0" />
	<path style="fill:none;stroke:red;stroke-width:1px;stroke-linecap:butt;stroke-linejoin:miter;stroke-opacity:1" d="M 42.9274,390.679 42.9274,397.167 z" id="boundary" inkscape:connector-curvature="0" />
	<path style="fill:none;stroke:red;stroke-width:1px;stroke-linecap:butt;stroke-linejoin:miter;stroke-opacity:1" d="M 42.9274,578.179 46.8201,590.506 z" id="boundary" inkscape:connector-curvature="0" />
	<path style="fill:none;stroke:red;stroke-width:1px;stroke-linecap:butt;stroke-linejoin:miter;stroke-opacity:1" d="M 46.8201,590.506 52.0105,595.048 z" id="boundary" inkscape:connector-curvature="0" />
	<path style="fill:none;stroke:red;stroke-width:1px;stroke-linecap:butt;stroke-linejoin:miter;stroke-opacity:1" d="M 48.1177,166.198 49.4153,158.412 z" id="boundary" inkscape:connector-curvature="0" />
	<path style="fill:none;stroke:red;stroke-width:1px;stroke-linecap:butt;stroke-linejoin:miter;stroke-opacity:1" d="M 49.4153,158.412 59.1472,145.436 z" id="boundary" inkscape:connector-curvature="0" />
	<path style="fill:none;stroke:red;stroke-width:1px;stroke-linecap:butt;stroke-linejoin:miter;stroke-opacity:1" d="M 52.0105,595.048 55.9032,600.238 z" id="boundary" inkscape:connector-curvature="0" />
	<path style="fill:none;stroke:red;stroke-width:1px;stroke-linecap:butt;stroke-linejoin:miter;stroke-opacity:1" d="M 55.9032,600.238 59.1472,606.077 z" id="boundary" inkscape:connector-curvature="0" />
	<path style="fill:none;stroke:red;stroke-width:1px;stroke-linecap:butt;stroke-linejoin:miter;stroke-opacity:1" d="M 59.1472,145.436 62.3911,138.948 z" id="boundary" inkscape:connector-curvature="0" />
	<path style="fill:none;stroke:red;stroke-width:1px;stroke-linecap:butt;stroke-linejoin:miter;stroke-opacity:1" d="M 59.1472,606.077 63.0399,611.267 z" id="boundary" inkscape:connector-curvature="0" />
	<path style="fill:none;stroke:red;stroke-width:1px;stroke-linecap:butt;stroke-linejoin:miter;stroke-opacity:1" d="M 62.3911,138.948 67.5814,133.758 z" id="boundary" inkscape:connector-curvature="0" />
	<path style="fill:none;stroke:red;stroke-width:1px;stroke-linecap:butt;stroke-linejoin:miter;stroke-opacity:1" d="M 63.0399,611.267 68.879,614.511 z" id="boundary" inkscape:connector-curvature="0" />
	<path style="fill:none;stroke:red;stroke-width:1px;stroke-linecap:butt;stroke-linejoin:miter;stroke-opacity:1" d="M 67.5814,133.758 70.8254,127.27 z" id="boundary" inkscape:connector-curvature="0" />
	<path style="fill:none;stroke:red;stroke-width:1px;stroke-linecap:butt;stroke-linejoin:miter;stroke-opacity:1" d="M 68.879,614.511 72.7717,619.702 z" id="boundary" inkscape:connector-curvature="0" />
	<path style="fill:none;stroke:red;stroke-width:1px;stroke-linecap:butt;stroke-linejoin:miter;stroke-opacity:1" d="M 70.8254,127.27 76.0157,122.08 z" id="boundary" inkscape:connector-curvature="0" />
	<path style="fill:none;stroke:red;stroke-width:1px;stroke-linecap:butt;stroke-linejoin:miter;stroke-opacity:1" d="M 72.7717,619.702 79.2596,620.999 z" id="boundary" inkscape:connector-curvature="0" />
	<path style="fill:none;stroke:red;stroke-width:1px;stroke-linecap:butt;stroke-linejoin:miter;stroke-opacity:1" d="M 76.0157,122.08 81.206,117.538 z" id="boundary" inkscape:connector-curvature="0" />
	<path style="fill:none;stroke:red;stroke-width:1px;stroke-linecap:butt;stroke-linejoin:miter;stroke-opacity:1" d="M 79.2596,620.999 85.0988,624.243 z" id="boundary" inkscape:connector-curvature="0" />
	<path style="fill:none;stroke:red;stroke-width:1px;stroke-linecap:butt;stroke-linejoin:miter;stroke-opacity:1" d="M 81.206,117.538 85.7475,112.348 z" id="boundary" inkscape:connector-curvature="0" />
	<path style="fill:none;stroke:red;stroke-width:1px;stroke-linecap:butt;stroke-linejoin:miter;stroke-opacity:1" d="M 85.0988,624.243 90.9379,627.487 z" id="boundary" inkscape:connector-curvature="0" />
	<path style="fill:none;stroke:red;stroke-width:1px;stroke-linecap:butt;stroke-linejoin:miter;stroke-opacity:1" d="M 85.7475,112.348 88.9915,105.86 z" id="boundary" inkscape:connector-curvature="0" />
	<path style="fill:none;stroke:red;stroke-width:1px;stroke-linecap:butt;stroke-linejoin:miter;stroke-opacity:1" d="M 88.9915,105.86 94.1818,101.319 z" id="boundary" inkscape:connector-curvature="0" />
	<path style="fill:none;stroke:red;stroke-width:1px;stroke-linecap:butt;stroke-linejoin:miter;stroke-opacity:1" d="M 90.9379,627.487 96.777,630.731 z" id="boundary" inkscape:connector-curvature="0" />
	<path style="fill:none;stroke:red;stroke-width:1px;stroke-linecap:butt;stroke-linejoin:miter;stroke-opacity:1" d="M 94.1818,101.319 98.7233,96.1282 z" id="boundary" inkscape:connector-curvature="0" />
	<path style="fill:none;stroke:red;stroke-width:1px;stroke-linecap:butt;stroke-linejoin:miter;stroke-opacity:1" d="M 96.777,630.731 101.319,635.922 z" id="boundary" inkscape:connector-curvature="0" />
	<path style="fill:none;stroke:red;stroke-width:1px;stroke-linecap:butt;stroke-linejoin:miter;stroke-opacity:1" d="M 98.7233,96.1282 107.806,83.8012 z" id="boundary" inkscape:connector-curvature="0" />
	<path style="fill:none;stroke:red;stroke-width:1px;stroke-linecap:butt;stroke-linejoin:miter;stroke-opacity:1" d="M 101.319,635.922 101.967,642.409 z" id="boundary" inkscape:connector-curvature="0" />
	<path style="fill:none;stroke:red;stroke-width:1px;stroke-linecap:butt;stroke-linejoin:miter;stroke-opacity:1" d="M 101.967,642.409 107.158,646.951 z" id="boundary" inkscape:connector-curvature="0" />
	<path style="fill:none;stroke:red;stroke-width:1px;stroke-linecap:butt;stroke-linejoin:miter;stroke-opacity:1" d="M 107.158,646.951 111.05,652.141 z" id="boundary" inkscape:connector-curvature="0" />
	<path style="fill:none;stroke:red;stroke-width:1px;stroke-linecap:butt;stroke-linejoin:miter;stroke-opacity:1" d="M 107.806,83.8012 112.997,78.6109 z" id="boundary" inkscape:connector-curvature="0" />
	<path style="fill:none;stroke:red;stroke-width:1px;stroke-linecap:butt;stroke-linejoin:miter;stroke-opacity:1" d="M 111.05,652.141 111.699,658.629 z" id="boundary" inkscape:connector-curvature="0" />
	<path style="fill:none;stroke:red;stroke-width:1px;stroke-linecap:butt;stroke-linejoin:miter;stroke-opacity:1" d="M 111.699,658.629 116.889,663.171 z" id="boundary" inkscape:connector-curvature="0" />
	<path style="fill:none;stroke:red;stroke-width:1px;stroke-linecap:butt;stroke-linejoin:miter;stroke-opacity:1" d="M 112.997,78.6109 118.187,73.4205 z" id="boundary" inkscape:connector-curvature="0" />
	<path style="fill:none;stroke:red;stroke-width:1px;stroke-linecap:butt;stroke-linejoin:miter;stroke-opacity:1" d="M 116.889,663.171 117.538,669.659 z" id="boundary" inkscape:connector-curvature="0" />
	<path style="fill:none;stroke:red;stroke-width:1px;stroke-linecap:butt;stroke-linejoin:miter;stroke-opacity:1" d="M 117.538,669.659 121.431,674.849 z" id="boundary" inkscape:connector-curvature="0" />
	<path style="fill:none;stroke:red;stroke-width:1px;stroke-linecap:butt;stroke-linejoin:miter;stroke-opacity:1" d="M 118.187,73.4205 123.377,68.879 z" id="boundary" inkscape:connector-curvature="0" />
	<path style="fill:none;stroke:red;stroke-width:1px;stroke-linecap:butt;stroke-linejoin:miter;stroke-opacity:1" d="M 121.431,674.849 126.621,679.39 z" id="boundary" inkscape:connector-curvature="0" />
	<path style="fill:none;stroke:red;stroke-width:1px;stroke-linecap:butt;stroke-linejoin:miter;stroke-opacity:1" d="M 123.377,68.879 127.919,63.6887 z" id="boundary" inkscape:connector-curvature="0" />
	<path style="fill:none;stroke:red;stroke-width:1px;stroke-linecap:butt;stroke-linejoin:miter;stroke-opacity:1" d="M 124.026,816.934 124.026,823.422 z" id="boundary" inkscape:connector-curvature="0" />
	<path style="fill:none;stroke:red;stroke-width:1px;stroke-linecap:butt;stroke-linejoin:miter;stroke-opacity:1" d="M 124.026,816.934 127.27,800.714 z" id="boundary" inkscape:connector-curvature="0" />
	<path style="fill:none;stroke:red;stroke-width:1px;stroke-linecap:butt;stroke-linejoin:miter;stroke-opacity:1" d="M 124.026,823.422 124.026,829.91 z" id="boundary" inkscape:connector-curvature="0" />
	<path style="fill:none;stroke:red;stroke-width:1px;stroke-linecap:butt;stroke-linejoin:miter;stroke-opacity:1" d="M 124.026,829.91 124.026,836.398 z" id="boundary" inkscape:connector-curvature="0" />
	<path style="fill:none;stroke:red;stroke-width:1px;stroke-linecap:butt;stroke-linejoin:miter;stroke-opacity:1" d="M 124.026,836.398 129.216,840.939 z" id="boundary" inkscape:connector-curvature="0" />
	<path style="fill:none;stroke:red;stroke-width:1px;stroke-linecap:butt;stroke-linejoin:miter;stroke-opacity:1" d="M 126.621,679.39 129.216,692.366 z" id="boundary" inkscape:connector-curvature="0" />
	<path style="fill:none;stroke:red;stroke-width:1px;stroke-linecap:butt;stroke-linejoin:miter;stroke-opacity:1" d="M 127.27,800.714 130.514,783.197 z" id="boundary" inkscape:connector-curvature="0" />
	<path style="fill:none;stroke:red;stroke-width:1px;stroke-linecap:butt;stroke-linejoin:miter;stroke-opacity:1" d="M 127.919,63.6887 134.407,60.4447 z" id="boundary" inkscape:connector-curvature="0" />
	<path style="fill:none;stroke:red;stroke-width:1px;stroke-linecap:butt;stroke-linejoin:miter;stroke-opacity:1" d="M 129.216,692.366 130.514,705.342 z" id="boundary" inkscape:connector-curvature="0" />
	<path style="fill:none;stroke:red;stroke-width:1px;stroke-linecap:butt;stroke-linejoin:miter;stroke-opacity:1" d="M 129.216,840.939 133.758,846.129 z" id="boundary" inkscape:connector-curvature="0" />
	<path style="fill:none;stroke:red;stroke-width:1px;stroke-linecap:butt;stroke-linejoin:miter;stroke-opacity:1" d="M 130.514,705.342 130.514,711.83 z" id="boundary" inkscape:connector-curvature="0" />
	<path style="fill:none;stroke:red;stroke-width:1px;stroke-linecap:butt;stroke-linejoin:miter;stroke-opacity:1" d="M 130.514,711.83 130.514,724.806 z" id="boundary" inkscape:connector-curvature="0" />
	<path style="fill:none;stroke:red;stroke-width:1px;stroke-linecap:butt;stroke-linejoin:miter;stroke-opacity:1" d="M 130.514,724.806 130.514,737.782 z" id="boundary" inkscape:connector-curvature="0" />
	<path style="fill:none;stroke:red;stroke-width:1px;stroke-linecap:butt;stroke-linejoin:miter;stroke-opacity:1" d="M 130.514,737.782 130.514,750.757 z" id="boundary" inkscape:connector-curvature="0" />
	<path style="fill:none;stroke:red;stroke-width:1px;stroke-linecap:butt;stroke-linejoin:miter;stroke-opacity:1" d="M 130.514,750.757 130.514,757.245 z" id="boundary" inkscape:connector-curvature="0" />
	<path style="fill:none;stroke:red;stroke-width:1px;stroke-linecap:butt;stroke-linejoin:miter;stroke-opacity:1" d="M 130.514,757.245 130.514,770.221 z" id="boundary" inkscape:connector-curvature="0" />
	<path style="fill:none;stroke:red;stroke-width:1px;stroke-linecap:butt;stroke-linejoin:miter;stroke-opacity:1" d="M 130.514,770.221 130.514,783.197 z" id="boundary" inkscape:connector-curvature="0" />
	<path style="fill:none;stroke:red;stroke-width:1px;stroke-linecap:butt;stroke-linejoin:miter;stroke-opacity:1" d="M 133.758,846.129 137.002,851.969 z" id="boundary" inkscape:connector-curvature="0" />
	<path style="fill:none;stroke:red;stroke-width:1px;stroke-linecap:butt;stroke-linejoin:miter;stroke-opacity:1" d="M 134.407,60.4447 139.597,55.9032 z" id="boundary" inkscape:connector-curvature="0" />
	<path style="fill:none;stroke:red;stroke-width:1px;stroke-linecap:butt;stroke-linejoin:miter;stroke-opacity:1" d="M 137.002,851.969 140.246,857.808 z" id="boundary" inkscape:connector-curvature="0" />
	<path style="fill:none;stroke:red;stroke-width:1px;stroke-linecap:butt;stroke-linejoin:miter;stroke-opacity:1" d="M 139.597,55.9032 145.436,52.6593 z" id="boundary" inkscape:connector-curvature="0" />
	<path style="fill:none;stroke:red;stroke-width:1px;stroke-linecap:butt;stroke-linejoin:miter;stroke-opacity:1" d="M 140.246,857.808 140.246,864.296 z" id="boundary" inkscape:connector-curvature="0" />
	<path style="fill:none;stroke:red;stroke-width:1px;stroke-linecap:butt;stroke-linejoin:miter;stroke-opacity:1" d="M 140.246,864.296 146.734,875.974 z" id="boundary" inkscape:connector-curvature="0" />
	<path style="fill:none;stroke:red;stroke-width:1px;stroke-linecap:butt;stroke-linejoin:miter;stroke-opacity:1" d="M 145.436,52.6593 151.924,49.4153 z" id="boundary" inkscape:connector-curvature="0" />
	<path style="fill:none;stroke:red;stroke-width:1px;stroke-linecap:butt;stroke-linejoin:miter;stroke-opacity:1" d="M 146.734,875.974 149.978,881.813 z" id="boundary" inkscape:connector-curvature="0" />
	<path style="fill:none;stroke:red;stroke-width:1px;stroke-linecap:butt;stroke-linejoin:miter;stroke-opacity:1" d="M 149.978,881.813 153.222,894.14 z" id="boundary" inkscape:connector-curvature="0" />
	<path style="fill:none;stroke:red;stroke-width:1px;stroke-linecap:butt;stroke-linejoin:miter;stroke-opacity:1" d="M 151.924,49.4153 157.114,44.225 z" id="boundary" inkscape:connector-curvature="0" />
	<path style="fill:none;stroke:red;stroke-width:1px;stroke-linecap:butt;stroke-linejoin:miter;stroke-opacity:1" d="M 153.222,894.14 156.466,899.979 z" id="boundary" inkscape:connector-curvature="0" />
	<path style="fill:none;stroke:red;stroke-width:1px;stroke-linecap:butt;stroke-linejoin:miter;stroke-opacity:1" d="M 156.466,899.979 160.358,905.169 z" id="boundary" inkscape:connector-curvature="0" />
	<path style="fill:none;stroke:red;stroke-width:1px;stroke-linecap:butt;stroke-linejoin:miter;stroke-opacity:1" d="M 157.114,44.225 163.602,42.9274 z" id="boundary" inkscape:connector-curvature="0" />
	<path style="fill:none;stroke:red;stroke-width:1px;stroke-linecap:butt;stroke-linejoin:miter;stroke-opacity:1" d="M 160.358,905.169 165.549,909.711 z" id="boundary" inkscape:connector-curvature="0" />
	<path style="fill:none;stroke:red;stroke-width:1px;stroke-linecap:butt;stroke-linejoin:miter;stroke-opacity:1" d="M 163.602,42.9274 169.441,38.3859 z" id="boundary" inkscape:connector-curvature="0" />
	<path style="fill:none;stroke:red;stroke-width:1px;stroke-linecap:butt;stroke-linejoin:miter;stroke-opacity:1" d="M 165.549,909.711 170.09,914.901 z" id="boundary" inkscape:connector-curvature="0" />
	<path style="fill:none;stroke:red;stroke-width:1px;stroke-linecap:butt;stroke-linejoin:miter;stroke-opacity:1" d="M 169.441,38.3859 175.929,36.4395 z" id="boundary" inkscape:connector-curvature="0" />
	<path style="fill:none;stroke:red;stroke-width:1px;stroke-linecap:butt;stroke-linejoin:miter;stroke-opacity:1" d="M 170.09,914.901 175.281,919.443 z" id="boundary" inkscape:connector-curvature="0" />
	<path style="fill:none;stroke:red;stroke-width:1px;stroke-linecap:butt;stroke-linejoin:miter;stroke-opacity:1" d="M 175.281,919.443 179.822,924.633 z" id="boundary" inkscape:connector-curvature="0" />
	<path style="fill:none;stroke:red;stroke-width:1px;stroke-linecap:butt;stroke-linejoin:miter;stroke-opacity:1" d="M 175.929,36.4395 181.768,33.1956 z" id="boundary" inkscape:connector-curvature="0" />
	<path style="fill:none;stroke:red;stroke-width:1px;stroke-linecap:butt;stroke-linejoin:miter;stroke-opacity:1" d="M 179.822,924.633 185.012,929.175 z" id="boundary" inkscape:connector-curvature="0" />
	<path style="fill:none;stroke:red;stroke-width:1px;stroke-linecap:butt;stroke-linejoin:miter;stroke-opacity:1" d="M 181.768,33.1956 187.608,29.9516 z" id="boundary" inkscape:connector-curvature="0" />
	<path style="fill:none;stroke:red;stroke-width:1px;stroke-linecap:butt;stroke-linejoin:miter;stroke-opacity:1" d="M 185.012,929.175 189.554,934.365 z" id="boundary" inkscape:connector-curvature="0" />
	<path style="fill:none;stroke:red;stroke-width:1px;stroke-linecap:butt;stroke-linejoin:miter;stroke-opacity:1" d="M 187.608,29.9516 193.447,26.7077 z" id="boundary" inkscape:connector-curvature="0" />
	<path style="fill:none;stroke:red;stroke-width:1px;stroke-linecap:butt;stroke-linejoin:miter;stroke-opacity:1" d="M 189.554,934.365 194.744,938.906 z" id="boundary" inkscape:connector-curvature="0" />
	<path style="fill:none;stroke:red;stroke-width:1px;stroke-linecap:butt;stroke-linejoin:miter;stroke-opacity:1" d="M 193.447,26.7077 199.935,26.7077 z" id="boundary" inkscape:connector-curvature="0" />
	<path style="fill:none;stroke:red;stroke-width:1px;stroke-linecap:butt;stroke-linejoin:miter;stroke-opacity:1" d="M 194.744,938.906 200.583,942.15 z" id="boundary" inkscape:connector-curvature="0" />
	<path style="fill:none;stroke:red;stroke-width:1px;stroke-linecap:butt;stroke-linejoin:miter;stroke-opacity:1" d="M 199.935,26.7077 205.774,23.4637 z" id="boundary" inkscape:connector-curvature="0" />
	<path style="fill:none;stroke:red;stroke-width:1px;stroke-linecap:butt;stroke-linejoin:miter;stroke-opacity:1" d="M 200.583,942.15 205.125,947.341 z" id="boundary" inkscape:connector-curvature="0" />
	<path style="fill:none;stroke:red;stroke-width:1px;stroke-linecap:butt;stroke-linejoin:miter;stroke-opacity:1" d="M 205.125,947.341 208.369,953.18 z" id="boundary" inkscape:connector-curvature="0" />
	<path style="fill:none;stroke:red;stroke-width:1px;stroke-linecap:butt;stroke-linejoin:miter;stroke-opacity:1" d="M 205.774,23.4637 211.613,20.2198 z" id="boundary" inkscape:connector-curvature="0" />
	<path style="fill:none;stroke:red;stroke-width:1px;stroke-linecap:butt;stroke-linejoin:miter;stroke-opacity:1" d="M 208.369,953.18 213.559,957.721 z" id="boundary" inkscape:connector-curvature="0" />
	<path style="fill:none;stroke:red;stroke-width:1px;stroke-linecap:butt;stroke-linejoin:miter;stroke-opacity:1" d="M 211.613,20.2198 217.452,16.9758 z" id="boundary" inkscape:connector-curvature="0" />
	<path style="fill:none;stroke:red;stroke-width:1px;stroke-linecap:butt;stroke-linejoin:miter;stroke-opacity:1" d="M 213.559,957.721 218.101,962.912 z" id="boundary" inkscape:connector-curvature="0" />
	<path style="fill:none;stroke:red;stroke-width:1px;stroke-linecap:butt;stroke-linejoin:miter;stroke-opacity:1" d="M 217.452,16.9758 229.779,13.7319 z" id="boundary" inkscape:connector-curvature="0" />
	<path style="fill:none;stroke:red;stroke-width:1px;stroke-linecap:butt;stroke-linejoin:miter;stroke-opacity:1" d="M 218.101,962.912 224.589,964.858 z" id="boundary" inkscape:connector-curvature="0" />
	<path style="fill:none;stroke:red;stroke-width:1px;stroke-linecap:butt;stroke-linejoin:miter;stroke-opacity:1" d="M 224.589,964.858 234.969,972.644 z" id="boundary" inkscape:connector-curvature="0" />
	<path style="fill:none;stroke:red;stroke-width:1px;stroke-linecap:butt;stroke-linejoin:miter;stroke-opacity:1" d="M 229.779,13.7319 235.618,10.4879 z" id="boundary" inkscape:connector-curvature="0" />
	<path style="fill:none;stroke:red;stroke-width:1px;stroke-linecap:butt;stroke-linejoin:miter;stroke-opacity:1" d="M 234.969,972.644 241.457,974.59 z" id="boundary" inkscape:connector-curvature="0" />
	<path style="fill:none;stroke:red;stroke-width:1px;stroke-linecap:butt;stroke-linejoin:miter;stroke-opacity:1" d="M 235.618,10.4879 247.945,7.24395 z" id="boundary" inkscape:connector-curvature="0" />
	<path style="fill:none;stroke:red;stroke-width:1px;stroke-linecap:butt;stroke-linejoin:miter;stroke-opacity:1" d="M 241.457,974.59 247.296,977.834 z" id="boundary" inkscape:connector-curvature="0" />
	<path style="fill:none;stroke:red;stroke-width:1px;stroke-linecap:butt;stroke-linejoin:miter;stroke-opacity:1" d="M 247.296,977.834 253.135,981.078 z" id="boundary" inkscape:connector-curvature="0" />
	<path style="fill:none;stroke:red;stroke-width:1px;stroke-linecap:butt;stroke-linejoin:miter;stroke-opacity:1" d="M 247.945,7.24395 254.433,7.24395 z" id="boundary" inkscape:connector-curvature="0" />
	<path style="fill:none;stroke:red;stroke-width:1px;stroke-linecap:butt;stroke-linejoin:miter;stroke-opacity:1" d="M 253.135,981.078 265.462,984.322 z" id="boundary" inkscape:connector-curvature="0" />
	<path style="fill:none;stroke:red;stroke-width:1px;stroke-linecap:butt;stroke-linejoin:miter;stroke-opacity:1" d="M 254.433,7.24395 267.409,4 z" id="boundary" inkscape:connector-curvature="0" />
	<path style="fill:none;stroke:red;stroke-width:1px;stroke-linecap:butt;stroke-linejoin:miter;stroke-opacity:1" d="M 265.462,984.322 271.95,986.917 z" id="boundary" inkscape:connector-curvature="0" />
	<path style="fill:none;stroke:red;stroke-width:1px;stroke-linecap:butt;stroke-linejoin:miter;stroke-opacity:1" d="M 267.409,4 280.385,4 z" id="boundary" inkscape:connector-curvature="0" />
	<path style="fill:none;stroke:red;stroke-width:1px;stroke-linecap:butt;stroke-linejoin:miter;stroke-opacity:1" d="M 271.95,986.917 284.277,992.756 z" id="boundary" inkscape:connector-curvature="0" />
	<path style="fill:none;stroke:red;stroke-width:1px;stroke-linecap:butt;stroke-linejoin:miter;stroke-opacity:1" d="M 284.277,992.756 290.765,994.054 z" id="boundary" inkscape:connector-curvature="0" />
	<path style="fill:none;stroke:red;stroke-width:1px;stroke-linecap:butt;stroke-linejoin:miter;stroke-opacity:1" d="M 290.765,994.054 303.741,994.054 z" id="boundary" inkscape:connector-curvature="0" />
	<path style="fill:none;stroke:red;stroke-width:1px;stroke-linecap:butt;stroke-linejoin:miter;stroke-opacity:1" d="M 293.36,4 299.848,4 z" id="boundary" inkscape:connector-curvature="0" />
	<path style="fill:none;stroke:red;stroke-width:1px;stroke-linecap:butt;stroke-linejoin:miter;stroke-opacity:1" d="M 293.36,4 306.336,4 z" id="boundary" inkscape:connector-curvature="0" />
	<path style="fill:none;stroke:red;stroke-width:1px;stroke-linecap:butt;stroke-linejoin:miter;stroke-opacity:1" d="M 299.848,4 306.336,4 z" id="boundary" inkscape:connector-curvature="0" />
	<path style="fill:none;stroke:red;stroke-width:1px;stroke-linecap:butt;stroke-linejoin:miter;stroke-opacity:1" d="M 303.741,994.054 309.58,990.81 z" id="boundary" inkscape:connector-curvature="0" />
	<path style="fill:none;stroke:red;stroke-width:1px;stroke-linecap:butt;stroke-linejoin:miter;stroke-opacity:1" d="M 309.58,990.81 321.907,985.619 z" id="boundary" inkscape:connector-curvature="0" />
	<path style="fill:none;stroke:red;stroke-width:1px;stroke-linecap:butt;stroke-linejoin:miter;stroke-opacity:1" d="M 318.663,7.24395 325.151,7.24395 z" id="boundary" inkscape:connector-curvature="0" />
	<path style="fill:none;stroke:red;stroke-width:1px;stroke-linecap:butt;stroke-linejoin:miter;stroke-opacity:1" d="M 321.907,985.619 334.883,979.131 z" id="boundary" inkscape:connector-curvature="0" />
	<path style="fill:none;stroke:red;stroke-width:1px;stroke-linecap:butt;stroke-linejoin:miter;stroke-opacity:1" d="M 325.151,7.24395 338.127,7.24395 z" id="boundary" inkscape:connector-curvature="0" />
	<path style="fill:none;stroke:red;stroke-width:1px;stroke-linecap:butt;stroke-linejoin:miter;stroke-opacity:1" d="M 334.883,979.131 340.073,974.59 z" id="boundary" inkscape:connector-curvature="0" />
	<path style="fill:none;stroke:red;stroke-width:1px;stroke-linecap:butt;stroke-linejoin:miter;stroke-opacity:1" d="M 338.127,7.24395 351.103,8.54153 z" id="boundary" inkscape:connector-curvature="0" />
	<path style="fill:none;stroke:red;stroke-width:1px;stroke-linecap:butt;stroke-linejoin:miter;stroke-opacity:1" d="M 340.073,974.59 345.912,971.346 z" id="boundary" inkscape:connector-curvature="0" />
	<path style="fill:none;stroke:red;stroke-width:1px;stroke-linecap:butt;stroke-linejoin:miter;stroke-opacity:1" d="M 345.912,971.346 358.239,964.858 z" id="boundary" inkscape:connector-curvature="0" />
	<path style="fill:none;stroke:red;stroke-width:1px;stroke-linecap:butt;stroke-linejoin:miter;stroke-opacity:1" d="M 351.103,8.54153 356.942,11.7855 z" id="boundary" inkscape:connector-curvature="0" />
	<path style="fill:none;stroke:red;stroke-width:1px;stroke-linecap:butt;stroke-linejoin:miter;stroke-opacity:1" d="M 356.942,11.7855 361.483,16.9758 z" id="boundary" inkscape:connector-curvature="0" />
	<path style="fill:none;stroke:red;stroke-width:1px;stroke-linecap:butt;stroke-linejoin:miter;stroke-opacity:1" d="M 358.239,964.858 363.43,960.317 z" id="boundary" inkscape:connector-curvature="0" />
	<path style="fill:none;stroke:red;stroke-width:1px;stroke-linecap:butt;stroke-linejoin:miter;stroke-opacity:1" d="M 361.483,16.9758 367.322,20.2198 z" id="boundary" inkscape:connector-curvature="0" />
	<path style="fill:none;stroke:red;stroke-width:1px;stroke-linecap:butt;stroke-linejoin:miter;stroke-opacity:1" d="M 363.43,960.317 374.459,951.882 z" id="boundary" inkscape:connector-curvature="0" />
	<path style="fill:none;stroke:red;stroke-width:1px;stroke-linecap:butt;stroke-linejoin:miter;stroke-opacity:1" d="M 367.322,20.2198 372.513,24.1125 z" id="boundary" inkscape:connector-curvature="0" />
	<path style="fill:none;stroke:red;stroke-width:1px;stroke-linecap:butt;stroke-linejoin:miter;stroke-opacity:1" d="M 372.513,24.1125 377.703,28.654 z" id="boundary" inkscape:connector-curvature="0" />
	<path style="fill:none;stroke:red;stroke-width:1px;stroke-linecap:butt;stroke-linejoin:miter;stroke-opacity:1" d="M 374.459,951.882 380.298,948.638 z" id="boundary" inkscape:connector-curvature="0" />
	<path style="fill:none;stroke:red;stroke-width:1px;stroke-linecap:butt;stroke-linejoin:miter;stroke-opacity:1" d="M 377.703,28.654 383.542,31.898 z" id="boundary" inkscape:connector-curvature="0" />
	<path style="fill:none;stroke:red;stroke-width:1px;stroke-linecap:butt;stroke-linejoin:miter;stroke-opacity:1" d="M 380.298,948.638 385.489,944.746 z" id="boundary" inkscape:connector-curvature="0" />
	<path style="fill:none;stroke:red;stroke-width:1px;stroke-linecap:butt;stroke-linejoin:miter;stroke-opacity:1" d="M 383.542,31.898 390.03,34.4931 z" id="boundary" inkscape:connector-curvature="0" />
	<path style="fill:none;stroke:red;stroke-width:1px;stroke-linecap:butt;stroke-linejoin:miter;stroke-opacity:1" d="M 385.489,944.746 390.679,938.906 z" id="boundary" inkscape:connector-curvature="0" />
	<path style="fill:none;stroke:red;stroke-width:1px;stroke-linecap:butt;stroke-linejoin:miter;stroke-opacity:1" d="M 390.03,34.4931 400.411,41.6298 z" id="boundary" inkscape:connector-curvature="0" />
	<path style="fill:none;stroke:red;stroke-width:1px;stroke-linecap:butt;stroke-linejoin:miter;stroke-opacity:1" d="M 390.679,938.906 403.655,932.419 z" id="boundary" inkscape:connector-curvature="0" />
	<path style="fill:none;stroke:red;stroke-width:1px;stroke-linecap:butt;stroke-linejoin:miter;stroke-opacity:1" d="M 400.411,41.6298 404.952,46.8201 z" id="boundary" inkscape:connector-curvature="0" />
	<path style="fill:none;stroke:red;stroke-width:1px;stroke-linecap:butt;stroke-linejoin:miter;stroke-opacity:1" d="M 403.655,932.419 408.845,927.877 z" id="boundary" inkscape:connector-curvature="0" />
	<path style="fill:none;stroke:red;stroke-width:1px;stroke-linecap:butt;stroke-linejoin:miter;stroke-opacity:1" d="M 404.952,46.8201 410.143,51.3617 z" id="boundary" inkscape:connector-curvature="0" />
	<path style="fill:none;stroke:red;stroke-width:1px;stroke-linecap:butt;stroke-linejoin:miter;stroke-opacity:1" d="M 408.845,927.877 415.333,924.633 z" id="boundary" inkscape:connector-curvature="0" />
	<path style="fill:none;stroke:red;stroke-width:1px;stroke-linecap:butt;stroke-linejoin:miter;stroke-opacity:1" d="M 410.143,51.3617 412.738,57.8496 z" id="boundary" inkscape:connector-curvature="0" />
	<path style="fill:none;stroke:red;stroke-width:1px;stroke-linecap:butt;stroke-linejoin:miter;stroke-opacity:1" d="M 412.738,57.8496 415.982,63.6887 z" id="boundary" inkscape:connector-curvature="0" />
	<path style="fill:none;stroke:red;stroke-width:1px;stroke-linecap:butt;stroke-linejoin:miter;stroke-opacity:1" d="M 415.333,924.633 419.874,919.443 z" id="boundary" inkscape:connector-curvature="0" />
	<path style="fill:none;stroke:red;stroke-width:1px;stroke-linecap:butt;stroke-linejoin:miter;stroke-opacity:1" d="M 415.982,63.6887 428.957,61.0935 z" id="boundary" inkscape:connector-curvature="0" />
	<path style="fill:none;stroke:red;stroke-width:1px;stroke-linecap:butt;stroke-linejoin:miter;stroke-opacity:1" d="M 419.874,919.443 432.85,912.955 z" id="boundary" inkscape:connector-curvature="0" />
	<path style="fill:none;stroke:red;stroke-width:1px;stroke-linecap:butt;stroke-linejoin:miter;stroke-opacity:1" d="M 428.957,61.0935 441.933,57.8496 z" id="boundary" inkscape:connector-curvature="0" />
	<path style="fill:none;stroke:red;stroke-width:1px;stroke-linecap:butt;stroke-linejoin:miter;stroke-opacity:1" d="M 432.85,912.955 439.338,909.711 z" id="boundary" inkscape:connector-curvature="0" />
	<path style="fill:none;stroke:red;stroke-width:1px;stroke-linecap:butt;stroke-linejoin:miter;stroke-opacity:1" d="M 439.338,909.711 444.528,905.169 z" id="boundary" inkscape:connector-curvature="0" />
	<path style="fill:none;stroke:red;stroke-width:1px;stroke-linecap:butt;stroke-linejoin:miter;stroke-opacity:1" d="M 441.933,57.8496 454.909,55.9032 z" id="boundary" inkscape:connector-curvature="0" />
	<path style="fill:none;stroke:red;stroke-width:1px;stroke-linecap:butt;stroke-linejoin:miter;stroke-opacity:1" d="M 444.528,905.169 449.07,899.979 z" id="boundary" inkscape:connector-curvature="0" />
	<path style="fill:none;stroke:red;stroke-width:1px;stroke-linecap:butt;stroke-linejoin:miter;stroke-opacity:1" d="M 449.07,899.979 457.504,888.95 z" id="boundary" inkscape:connector-curvature="0" />
	<path style="fill:none;stroke:red;stroke-width:1px;stroke-linecap:butt;stroke-linejoin:miter;stroke-opacity:1" d="M 454.909,55.9032 461.397,55.9032 z" id="boundary" inkscape:connector-curvature="0" />
	<path style="fill:none;stroke:red;stroke-width:1px;stroke-linecap:butt;stroke-linejoin:miter;stroke-opacity:1" d="M 457.504,888.95 460.748,882.462 z" id="boundary" inkscape:connector-curvature="0" />
	<path style="fill:none;stroke:red;stroke-width:1px;stroke-linecap:butt;stroke-linejoin:miter;stroke-opacity:1" d="M 460.748,882.462 465.29,867.54 z" id="boundary" inkscape:connector-curvature="0" />
	<path style="fill:none;stroke:red;stroke-width:1px;stroke-linecap:butt;stroke-linejoin:miter;stroke-opacity:1" d="M 461.397,55.9032 474.373,59.1472 z" id="boundary" inkscape:connector-curvature="0" />
	<path style="fill:none;stroke:red;stroke-width:1px;stroke-linecap:butt;stroke-linejoin:miter;stroke-opacity:1" d="M 465.29,867.54 471.778,851.32 z" id="boundary" inkscape:connector-curvature="0" />
	<path style="fill:none;stroke:red;stroke-width:1px;stroke-linecap:butt;stroke-linejoin:miter;stroke-opacity:1" d="M 471.778,851.32 478.266,831.856 z" id="boundary" inkscape:connector-curvature="0" />
	<path style="fill:none;stroke:red;stroke-width:1px;stroke-linecap:butt;stroke-linejoin:miter;stroke-opacity:1" d="M 474.373,59.1472 480.212,62.3911 z" id="boundary" inkscape:connector-curvature="0" />
	<path style="fill:none;stroke:red;stroke-width:1px;stroke-linecap:butt;stroke-linejoin:miter;stroke-opacity:1" d="M 478.266,831.856 481.509,818.88 z" id="boundary" inkscape:connector-curvature="0" />
	<path style="fill:none;stroke:red;stroke-width:1px;stroke-linecap:butt;stroke-linejoin:miter;stroke-opacity:1" d="M 480.212,62.3911 493.188,63.0399 z" id="boundary" inkscape:connector-curvature="0" />
	<path style="fill:none;stroke:red;stroke-width:1px;stroke-linecap:butt;stroke-linejoin:miter;stroke-opacity:1" d="M 481.509,818.88 484.753,799.417 z" id="boundary" inkscape:connector-curvature="0" />
	<path style="fill:none;stroke:red;stroke-width:1px;stroke-linecap:butt;stroke-linejoin:miter;stroke-opacity:1" d="M 484.753,792.929 484.753,799.417 z" id="boundary" inkscape:connector-curvature="0" />
	<path style="fill:none;stroke:red;stroke-width:1px;stroke-linecap:butt;stroke-linejoin:miter;stroke-opacity:1" d="M 484.753,792.929 487.997,779.953 z" id="boundary" inkscape:connector-curvature="0" />
	<path style="fill:none;stroke:red;stroke-width:1px;stroke-linecap:butt;stroke-linejoin:miter;stroke-opacity:1" d="M 487.997,779.953 491.241,770.221 z" id="boundary" inkscape:connector-curvature="0" />
	<path style="fill:none;stroke:red;stroke-width:1px;stroke-linecap:butt;stroke-linejoin:miter;stroke-opacity:1" d="M 491.241,744.269 491.241,750.757 z" id="boundary" inkscape:connector-curvature="0" />
	<path style="fill:none;stroke:red;stroke-width:1px;stroke-linecap:butt;stroke-linejoin:miter;stroke-opacity:1" d="M 491.241,744.269 496.432,739.728 z" id="boundary" inkscape:connector-curvature="0" />
	<path style="fill:none;stroke:red;stroke-width:1px;stroke-linecap:butt;stroke-linejoin:miter;stroke-opacity:1" d="M 491.241,750.757 491.241,757.245 z" id="boundary" inkscape:connector-curvature="0" />
	<path style="fill:none;stroke:red;stroke-width:1px;stroke-linecap:butt;stroke-linejoin:miter;stroke-opacity:1" d="M 491.241,757.245 491.241,770.221 z" id="boundary" inkscape:connector-curvature="0" />
	<path style="fill:none;stroke:red;stroke-width:1px;stroke-linecap:butt;stroke-linejoin:miter;stroke-opacity:1" d="M 493.188,63.0399 505.515,68.879 z" id="boundary" inkscape:connector-curvature="0" />
	<path style="fill:none;stroke:red;stroke-width:1px;stroke-linecap:butt;stroke-linejoin:miter;stroke-opacity:1" d="M 496.432,739.728 500.973,734.538 z" id="boundary" inkscape:connector-curvature="0" />
	<path style="fill:none;stroke:red;stroke-width:1px;stroke-linecap:butt;stroke-linejoin:miter;stroke-opacity:1" d="M 500.973,734.538 506.164,729.996 z" id="boundary" inkscape:connector-curvature="0" />
	<path style="fill:none;stroke:red;stroke-width:1px;stroke-linecap:butt;stroke-linejoin:miter;stroke-opacity:1" d="M 505.515,68.879 511.354,72.123 z" id="boundary" inkscape:connector-curvature="0" />
	<path style="fill:none;stroke:red;stroke-width:1px;stroke-linecap:butt;stroke-linejoin:miter;stroke-opacity:1" d="M 506.164,729.996 512.651,717.02 z" id="boundary" inkscape:connector-curvature="0" />
	<path style="fill:none;stroke:red;stroke-width:1px;stroke-linecap:butt;stroke-linejoin:miter;stroke-opacity:1" d="M 511.354,72.123 523.681,77.3133 z" id="boundary" inkscape:connector-curvature="0" />
	<path style="fill:none;stroke:red;stroke-width:1px;stroke-linecap:butt;stroke-linejoin:miter;stroke-opacity:1" d="M 512.651,717.02 515.895,710.532 z" id="boundary" inkscape:connector-curvature="0" />
	<path style="fill:none;stroke:red;stroke-width:1px;stroke-linecap:butt;stroke-linejoin:miter;stroke-opacity:1" d="M 515.895,710.532 523.681,695.61 z" id="boundary" inkscape:connector-curvature="0" />
	<path style="fill:none;stroke:red;stroke-width:1px;stroke-linecap:butt;stroke-linejoin:miter;stroke-opacity:1" d="M 523.681,77.3133 529.52,80.5572 z" id="boundary" inkscape:connector-curvature="0" />
	<path style="fill:none;stroke:red;stroke-width:1px;stroke-linecap:butt;stroke-linejoin:miter;stroke-opacity:1" d="M 523.681,695.61 526.925,685.878 z" id="boundary" inkscape:connector-curvature="0" />
	<path style="fill:none;stroke:red;stroke-width:1px;stroke-linecap:butt;stroke-linejoin:miter;stroke-opacity:1" d="M 526.925,685.878 530.169,676.147 z" id="boundary" inkscape:connector-curvature="0" />
	<path style="fill:none;stroke:red;stroke-width:1px;stroke-linecap:butt;stroke-linejoin:miter;stroke-opacity:1" d="M 529.52,80.5572 534.71,85.0988 z" id="boundary" inkscape:connector-curvature="0" />
	<path style="fill:none;stroke:red;stroke-width:1px;stroke-linecap:butt;stroke-linejoin:miter;stroke-opacity:1" d="M 530.169,669.659 530.169,676.147 z" id="boundary" inkscape:connector-curvature="0" />
	<path style="fill:none;stroke:red;stroke-width:1px;stroke-linecap:butt;stroke-linejoin:miter;stroke-opacity:1" d="M 530.169,669.659 533.413,659.927 z" id="boundary" inkscape:connector-curvature="0" />
	<path style="fill:none;stroke:red;stroke-width:1px;stroke-linecap:butt;stroke-linejoin:miter;stroke-opacity:1" d="M 533.413,627.487 533.413,633.975 z" id="boundary" inkscape:connector-curvature="0" />
	<path style="fill:none;stroke:red;stroke-width:1px;stroke-linecap:butt;stroke-linejoin:miter;stroke-opacity:1" d="M 533.413,627.487 536.657,617.755 z" id="boundary" inkscape:connector-curvature="0" />
	<path style="fill:none;stroke:red;stroke-width:1px;stroke-linecap:butt;stroke-linejoin:miter;stroke-opacity:1" d="M 533.413,633.975 533.413,646.951 z" id="boundary" inkscape:connector-curvature="0" />
	<path style="fill:none;stroke:red;stroke-width:1px;stroke-linecap:butt;stroke-linejoin:miter;stroke-opacity:1" d="M 533.413,646.951 533.413,659.927 z" id="boundary" inkscape:connector-curvature="0" />
	<path style="fill:none;stroke:red;stroke-width:1px;stroke-linecap:butt;stroke-linejoin:miter;stroke-opacity:1" d="M 534.71,85.0988 545.74,92.8842 z" id="boundary" inkscape:connector-curvature="0" />
	<path style="fill:none;stroke:red;stroke-width:1px;stroke-linecap:butt;stroke-linejoin:miter;stroke-opacity:1" d="M 536.657,617.755 541.847,613.214 z" id="boundary" inkscape:connector-curvature="0" />
	<path style="fill:none;stroke:red;stroke-width:1px;stroke-linecap:butt;stroke-linejoin:miter;stroke-opacity:1" d="M 541.847,613.214 545.091,606.726 z" id="boundary" inkscape:connector-curvature="0" />
	<path style="fill:none;stroke:red;stroke-width:1px;stroke-linecap:butt;stroke-linejoin:miter;stroke-opacity:1" d="M 545.091,606.726 549.632,601.536 z" id="boundary" inkscape:connector-curvature="0" />
	<path style="fill:none;stroke:red;stroke-width:1px;stroke-linecap:butt;stroke-linejoin:miter;stroke-opacity:1" d="M 545.74,92.8842 549.632,98.0746 z" id="boundary" inkscape:connector-curvature="0" />
	<path style="fill:none;stroke:red;stroke-width:1px;stroke-linecap:butt;stroke-linejoin:miter;stroke-opacity:1" d="M 549.632,98.0746 554.823,101.967 z" id="boundary" inkscape:connector-curvature="0" />
	<path style="fill:none;stroke:red;stroke-width:1px;stroke-linecap:butt;stroke-linejoin:miter;stroke-opacity:1" d="M 549.632,601.536 555.472,598.292 z" id="boundary" inkscape:connector-curvature="0" />
	<path style="fill:none;stroke:red;stroke-width:1px;stroke-linecap:butt;stroke-linejoin:miter;stroke-opacity:1" d="M 554.823,101.967 559.364,107.158 z" id="boundary" inkscape:connector-curvature="0" />
	<path style="fill:none;stroke:red;stroke-width:1px;stroke-linecap:butt;stroke-linejoin:miter;stroke-opacity:1" d="M 555.472,598.292 560.662,594.399 z" id="boundary" inkscape:connector-curvature="0" />
	<path style="fill:none;stroke:red;stroke-width:1px;stroke-linecap:butt;stroke-linejoin:miter;stroke-opacity:1" d="M 559.364,107.158 562.608,112.997 z" id="boundary" inkscape:connector-curvature="0" />
	<path style="fill:none;stroke:red;stroke-width:1px;stroke-linecap:butt;stroke-linejoin:miter;stroke-opacity:1" d="M 560.662,594.399 565.852,588.56 z" id="boundary" inkscape:connector-curvature="0" />
	<path style="fill:none;stroke:red;stroke-width:1px;stroke-linecap:butt;stroke-linejoin:miter;stroke-opacity:1" d="M 562.608,112.997 567.15,118.187 z" id="boundary" inkscape:connector-curvature="0" />
	<path style="fill:none;stroke:red;stroke-width:1px;stroke-linecap:butt;stroke-linejoin:miter;stroke-opacity:1" d="M 565.852,588.56 571.043,584.018 z" id="boundary" inkscape:connector-curvature="0" />
	<path style="fill:none;stroke:red;stroke-width:1px;stroke-linecap:butt;stroke-linejoin:miter;stroke-opacity:1" d="M 567.15,118.187 572.34,122.729 z" id="boundary" inkscape:connector-curvature="0" />
	<path style="fill:none;stroke:red;stroke-width:1px;stroke-linecap:butt;stroke-linejoin:miter;stroke-opacity:1" d="M 571.043,584.018 575.584,578.828 z" id="boundary" inkscape:connector-curvature="0" />
	<path style="fill:none;stroke:red;stroke-width:1px;stroke-linecap:butt;stroke-linejoin:miter;stroke-opacity:1" d="M 572.34,122.729 575.584,128.568 z" id="boundary" inkscape:connector-curvature="0" />
	<path style="fill:none;stroke:red;stroke-width:1px;stroke-linecap:butt;stroke-linejoin:miter;stroke-opacity:1" d="M 572.34,361.483 572.34,374.459 z" id="boundary" inkscape:connector-curvature="0" />
	<path style="fill:none;stroke:red;stroke-width:1px;stroke-linecap:butt;stroke-linejoin:miter;stroke-opacity:1" d="M 572.34,361.483 575.584,345.264 z" id="boundary" inkscape:connector-curvature="0" />
	<path style="fill:none;stroke:red;stroke-width:1px;stroke-linecap:butt;stroke-linejoin:miter;stroke-opacity:1" d="M 572.34,374.459 572.34,387.435 z" id="boundary" inkscape:connector-curvature="0" />
	<path style="fill:none;stroke:red;stroke-width:1px;stroke-linecap:butt;stroke-linejoin:miter;stroke-opacity:1" d="M 572.34,387.435 572.34,393.923 z" id="boundary" inkscape:connector-curvature="0" />
	<path style="fill:none;stroke:red;stroke-width:1px;stroke-linecap:butt;stroke-linejoin:miter;stroke-opacity:1" d="M 572.34,393.923 572.34,400.411 z" id="boundary" inkscape:connector-curvature="0" />
	<path style="fill:none;stroke:red;stroke-width:1px;stroke-linecap:butt;stroke-linejoin:miter;stroke-opacity:1" d="M 572.34,400.411 577.53,404.303 z" id="boundary" inkscape:connector-curvature="0" />
	<path style="fill:none;stroke:red;stroke-width:1px;stroke-linecap:butt;stroke-linejoin:miter;stroke-opacity:1" d="M 575.584,128.568 578.828,134.407 z" id="boundary" inkscape:connector-curvature="0" />
	<path style="fill:none;stroke:red;stroke-width:1px;stroke-linecap:butt;stroke-linejoin:miter;stroke-opacity:1" d="M 575.584,345.264 578.828,332.288 z" id="boundary" inkscape:connector-curvature="0" />
	<path style="fill:none;stroke:red;stroke-width:1px;stroke-linecap:butt;stroke-linejoin:miter;stroke-opacity:1" d="M 575.584,578.828 584.018,567.799 z" id="boundary" inkscape:connector-curvature="0" />
	<path style="fill:none;stroke:red;stroke-width:1px;stroke-linecap:butt;stroke-linejoin:miter;stroke-opacity:1" d="M 577.53,404.303 582.072,409.494 z" id="boundary" inkscape:connector-curvature="0" />
	<path style="fill:none;stroke:red;stroke-width:1px;stroke-linecap:butt;stroke-linejoin:miter;stroke-opacity:1" d="M 578.828,134.407 582.072,147.383 z" id="boundary" inkscape:connector-curvature="0" />
	<path style="fill:none;stroke:red;stroke-width:1px;stroke-linecap:butt;stroke-linejoin:miter;stroke-opacity:1" d="M 578.828,325.8 578.828,332.288 z" id="boundary" inkscape:connector-curvature="0" />
	<path style="fill:none;stroke:red;stroke-width:1px;stroke-linecap:butt;stroke-linejoin:miter;stroke-opacity:1" d="M 578.828,325.8 582.072,312.824 z" id="boundary" inkscape:connector-curvature="0" />
	<path style="fill:none;stroke:red;stroke-width:1px;stroke-linecap:butt;stroke-linejoin:miter;stroke-opacity:1" d="M 582.072,147.383 585.316,159.71 z" id="boundary" inkscape:connector-curvature="0" />
	<path style="fill:none;stroke:red;stroke-width:1px;stroke-linecap:butt;stroke-linejoin:miter;stroke-opacity:1" d="M 582.072,299.848 582.072,312.824 z" id="boundary" inkscape:connector-curvature="0" />
	<path style="fill:none;stroke:red;stroke-width:1px;stroke-linecap:butt;stroke-linejoin:miter;stroke-opacity:1" d="M 582.072,299.848 585.316,283.629 z" id="boundary" inkscape:connector-curvature="0" />
	<path style="fill:none;stroke:red;stroke-width:1px;stroke-linecap:butt;stroke-linejoin:miter;stroke-opacity:1" d="M 582.072,409.494 585.316,415.333 z" id="boundary" inkscape:connector-curvature="0" />
	<path style="fill:none;stroke:red;stroke-width:1px;stroke-linecap:butt;stroke-linejoin:miter;stroke-opacity:1" d="M 584.018,567.799 585.316,559.364 z" id="boundary" inkscape:connector-curvature="0" />
	<path style="fill:none;stroke:red;stroke-width:1px;stroke-linecap:butt;stroke-linejoin:miter;stroke-opacity:1" d="M 585.316,172.685 588.56,178.525 z" id="boundary" inkscape:connector-curvature="0" />
	<path style="fill:none;stroke:red;stroke-width:1px;stroke-linecap:butt;stroke-linejoin:miter;stroke-opacity:1" d="M 585.316,172.685 588.56,185.012 z" id="boundary" inkscape:connector-curvature="0" />
	<path style="fill:none;stroke:red;stroke-width:1px;stroke-linecap:butt;stroke-linejoin:miter;stroke-opacity:1" d="M 585.316,277.141 585.316,283.629 z" id="boundary" inkscape:connector-curvature="0" />
	<path style="fill:none;stroke:red;stroke-width:1px;stroke-linecap:butt;stroke-linejoin:miter;stroke-opacity:1" d="M 585.316,277.141 588.56,269.355 z" id="boundary" inkscape:connector-curvature="0" />
	<path style="fill:none;stroke:red;stroke-width:1px;stroke-linecap:butt;stroke-linejoin:miter;stroke-opacity:1" d="M 585.316,415.333 588.56,421.172 z" id="boundary" inkscape:connector-curvature="0" />
	<path style="fill:none;stroke:red;stroke-width:1px;stroke-linecap:butt;stroke-linejoin:miter;stroke-opacity:1" d="M 585.316,559.364 588.56,546.388 z" id="boundary" inkscape:connector-curvature="0" />
	<path style="fill:none;stroke:red;stroke-width:1px;stroke-linecap:butt;stroke-linejoin:miter;stroke-opacity:1" d="M 588.56,178.525 588.56,185.012 z" id="boundary" inkscape:connector-curvature="0" />
	<path style="fill:none;stroke:red;stroke-width:1px;stroke-linecap:butt;stroke-linejoin:miter;stroke-opacity:1" d="M 588.56,197.988 588.56,210.964 z" id="boundary" inkscape:connector-curvature="0" />
	<path style="fill:none;stroke:red;stroke-width:1px;stroke-linecap:butt;stroke-linejoin:miter;stroke-opacity:1" d="M 588.56,210.964 588.56,223.94 z" id="boundary" inkscape:connector-curvature="0" />
	<path style="fill:none;stroke:red;stroke-width:1px;stroke-linecap:butt;stroke-linejoin:miter;stroke-opacity:1" d="M 588.56,223.94 588.56,230.428 z" id="boundary" inkscape:connector-curvature="0" />
	<path style="fill:none;stroke:red;stroke-width:1px;stroke-linecap:butt;stroke-linejoin:miter;stroke-opacity:1" d="M 588.56,230.428 588.56,243.404 z" id="boundary" inkscape:connector-curvature="0" />
	<path style="fill:none;stroke:red;stroke-width:1px;stroke-linecap:butt;stroke-linejoin:miter;stroke-opacity:1" d="M 588.56,243.404 588.56,256.379 z" id="boundary" inkscape:connector-curvature="0" />
	<path style="fill:none;stroke:red;stroke-width:1px;stroke-linecap:butt;stroke-linejoin:miter;stroke-opacity:1" d="M 588.56,256.379 588.56,269.355 z" id="boundary" inkscape:connector-curvature="0" />
	<path style="fill:none;stroke:red;stroke-width:1px;stroke-linecap:butt;stroke-linejoin:miter;stroke-opacity:1" d="M 588.56,421.172 595.048,432.85 z" id="boundary" inkscape:connector-curvature="0" />
	<path style="fill:none;stroke:red;stroke-width:1px;stroke-linecap:butt;stroke-linejoin:miter;stroke-opacity:1" d="M 588.56,546.388 591.804,533.413 z" id="boundary" inkscape:connector-curvature="0" />
	<path style="fill:none;stroke:red;stroke-width:1px;stroke-linecap:butt;stroke-linejoin:miter;stroke-opacity:1" d="M 591.804,533.413 598.292,517.193 z" id="boundary" inkscape:connector-curvature="0" />
	<path style="fill:none;stroke:red;stroke-width:1px;stroke-linecap:butt;stroke-linejoin:miter;stroke-opacity:1" d="M 598.292,445.177 598.292,451.665 z" id="boundary" inkscape:connector-curvature="0" />
	<path style="fill:none;stroke:red;stroke-width:1px;stroke-linecap:butt;stroke-linejoin:miter;stroke-opacity:1" d="M 598.292,445.177 601.536,457.504 z" id="boundary" inkscape:connector-curvature="0" />
	<path style="fill:none;stroke:red;stroke-width:1px;stroke-linecap:butt;stroke-linejoin:miter;stroke-opacity:1" d="M 598.292,451.665 601.536,457.504 z" id="boundary" inkscape:connector-curvature="0" />
	<path style="fill:none;stroke:red;stroke-width:1px;stroke-linecap:butt;stroke-linejoin:miter;stroke-opacity:1" d="M 598.292,517.193 601.536,502.92 z" id="boundary" inkscape:connector-curvature="0" />
	<path style="fill:none;stroke:red;stroke-width:1px;stroke-linecap:butt;stroke-linejoin:miter;stroke-opacity:1" d="M 601.536,470.48 601.536,483.456 z" id="boundary" inkscape:connector-curvature="0" />
	<path style="fill:none;stroke:red;stroke-width:1px;stroke-linecap:butt;stroke-linejoin:miter;stroke-opacity:1" d="M 601.536,483.456 601.536,496.432 z" id="boundary" inkscape:connector-curvature="0" />
	<path style="fill:none;stroke:red;stroke-width:1px;stroke-linecap:butt;stroke-linejoin:miter;stroke-opacity:1" d="M 601.536,496.432 601.536,502.92 z" id="boundary" inkscape:connector-curvature="0" />
	<circle cx="4" cy="463.343" r="4" fill="#0" id="circle0"/>
	<circle cx="4" cy="469.831" r="4" fill="#0" id="circle1"/>
	<circle cx="4" cy="476.319" r="4" fill="#0" id="circle2"/>
	<circle cx="4" cy="482.807" r="4" fill="#0" id="circle3"/>
	<circle cx="4" cy="489.295" r="4" fill="#0" id="circle4"/>
	<circle cx="4" cy="495.783" r="4" fill="#0" id="circle5"/>
	<circle cx="7.24395" cy="447.124" r="4" fill="#0" id="circle6"/>
	<circle cx="7.24395" cy="453.612" r="4" fill="#0" id="circle7"/>
	<circle cx="7.24395" cy="501.622" r="4" fill="#0" id="circle8"/>
	<circle cx="7.24395" cy="508.11" r="4" fill="#0" id="circle9"/>
	<circle cx="7.24395" cy="514.598" r="4" fill="#0" id="circle10"/>
	<circle cx="10.4879" cy="440.636" r="4" fill="#0" id="circle11"/>
	<circle cx="10.4879" cy="520.437" r="4" fill="#0" id="circle12"/>
	<circle cx="12.4343" cy="526.925" r="4" fill="#0" id="circle13"/>
	<circle cx="13.7319" cy="434.148" r="4" fill="#0" id="circle14"/>
	<circle cx="15.6782" cy="532.764" r="4" fill="#0" id="circle15"/>
	<circle cx="18.9222" cy="428.957" r="4" fill="#0" id="circle16"/>
	<circle cx="20.2198" cy="537.954" r="4" fill="#0" id="circle17"/>
	<circle cx="22.1661" cy="422.47" r="4" fill="#0" id="circle18"/>
	<circle cx="23.4637" cy="543.793" r="4" fill="#0" id="circle19"/>
	<circle cx="26.7077" cy="210.315" r="4" fill="#0" id="circle20"/>
	<circle cx="26.7077" cy="216.803" r="4" fill="#0" id="circle21"/>
	<circle cx="26.7077" cy="223.291" r="4" fill="#0" id="circle22"/>
	<circle cx="26.7077" cy="229.779" r="4" fill="#0" id="circle23"/>
	<circle cx="26.7077" cy="236.267" r="4" fill="#0" id="circle24"/>
	<circle cx="26.7077" cy="242.755" r="4" fill="#0" id="circle25"/>
	<circle cx="26.7077" cy="249.243" r="4" fill="#0" id="circle26"/>
	<circle cx="26.7077" cy="255.731" r="4" fill="#0" id="circle27"/>
	<circle cx="26.7077" cy="262.218" r="4" fill="#0" id="circle28"/>
	<circle cx="26.7077" cy="268.706" r="4" fill="#0" id="circle29"/>
	<circle cx="26.7077" cy="275.194" r="4" fill="#0" id="circle30"/>
	<circle cx="26.7077" cy="549.632" r="4" fill="#0" id="circle31"/>
	<circle cx="27.3564" cy="417.279" r="4" fill="#0" id="circle32"/>
	<circle cx="29.9516" cy="203.827" r="4" fill="#0" id="circle33"/>
	<circle cx="29.9516" cy="281.033" r="4" fill="#0" id="circle34"/>
	<circle cx="29.9516" cy="287.521" r="4" fill="#0" id="circle35"/>
	<circle cx="29.9516" cy="294.009" r="4" fill="#0" id="circle36"/>
	<circle cx="29.9516" cy="300.497" r="4" fill="#0" id="circle37"/>
	<circle cx="29.9516" cy="306.985" r="4" fill="#0" id="circle38"/>
	<circle cx="29.9516" cy="313.473" r="4" fill="#0" id="circle39"/>
	<circle cx="30.6004" cy="554.823" r="4" fill="#0" id="circle40"/>
	<circle cx="32.5468" cy="412.738" r="4" fill="#0" id="circle41"/>
	<circle cx="33.1956" cy="190.852" r="4" fill="#0" id="circle42"/>
	<circle cx="33.1956" cy="197.339" r="4" fill="#0" id="circle43"/>
	<circle cx="33.1956" cy="319.312" r="4" fill="#0" id="circle44"/>
	<circle cx="33.1956" cy="325.8" r="4" fill="#0" id="circle45"/>
	<circle cx="33.1956" cy="332.288" r="4" fill="#0" id="circle46"/>
	<circle cx="33.1956" cy="338.776" r="4" fill="#0" id="circle47"/>
	<circle cx="33.1956" cy="345.264" r="4" fill="#0" id="circle48"/>
	<circle cx="33.8443" cy="560.662" r="4" fill="#0" id="circle49"/>
	<circle cx="35.1419" cy="351.751" r="4" fill="#0" id="circle50"/>
	<circle cx="36.4395" cy="358.239" r="4" fill="#0" id="circle51"/>
	<circle cx="38.3859" cy="185.661" r="4" fill="#0" id="circle52"/>
	<circle cx="38.3859" cy="364.727" r="4" fill="#0" id="circle53"/>
	<circle cx="38.3859" cy="565.852" r="4" fill="#0" id="circle54"/>
	<circle cx="39.0347" cy="412.738" r="4" fill="#0" id="circle55"/>
	<circle cx="39.6835" cy="371.215" r="4" fill="#0" id="circle56"/>
	<circle cx="39.6835" cy="377.703" r="4" fill="#0" id="circle57"/>
	<circle cx="39.6835" cy="572.34" r="4" fill="#0" id="circle58"/>
	<circle cx="41.6298" cy="179.173" r="4" fill="#0" id="circle59"/>
	<circle cx="41.6298" cy="384.191" r="4" fill="#0" id="circle60"/>
	<circle cx="42.9274" cy="390.679" r="4" fill="#0" id="circle61"/>
	<circle cx="42.9274" cy="397.167" r="4" fill="#0" id="circle62"/>
	<circle cx="42.9274" cy="578.179" r="4" fill="#0" id="circle63"/>
	<circle cx="44.8738" cy="172.685" r="4" fill="#0" id="circle64"/>
	<circle cx="45.5226" cy="412.738" r="4" fill="#0" id="circle65"/>
	<circle cx="46.1714" cy="403.006" r="4" fill="#0" id="circle66"/>
	<circle cx="46.1714" cy="584.018" r="4" fill="#0" id="circle67"/>
	<circle cx="46.8201" cy="590.506" r="4" fill="#0" id="circle68"/>
	<circle cx="48.1177" cy="166.198" r="4" fill="#0" id="circle69"/>
	<circle cx="49.4153" cy="158.412" r="4" fill="#0" id="circle70"/>
	<circle cx="52.0105" cy="595.048" r="4" fill="#0" id="circle71"/>
	<circle cx="54.6056" cy="153.222" r="4" fill="#0" id="circle72"/>
	<circle cx="55.9032" cy="600.238" r="4" fill="#0" id="circle73"/>
	<circle cx="59.1472" cy="145.436" r="4" fill="#0" id="circle74"/>
	<circle cx="59.1472" cy="606.077" r="4" fill="#0" id="circle75"/>
	<circle cx="62.3911" cy="138.948" r="4" fill="#0" id="circle76"/>
	<circle cx="63.0399" cy="611.267" r="4" fill="#0" id="circle77"/>
	<circle cx="67.5814" cy="133.758" r="4" fill="#0" id="circle78"/>
	<circle cx="68.879" cy="614.511" r="4" fill="#0" id="circle79"/>
	<circle cx="70.8254" cy="127.27" r="4" fill="#0" id="circle80"/>
	<circle cx="72.7717" cy="619.702" r="4" fill="#0" id="circle81"/>
	<circle cx="76.0157" cy="122.08" r="4" fill="#0" id="circle82"/>
	<circle cx="79.2596" cy="620.999" r="4" fill="#0" id="circle83"/>
	<circle cx="81.206" cy="117.538" r="4" fill="#0" id="circle84"/>
	<circle cx="85.0988" cy="624.243" r="4" fill="#0" id="circle85"/>
	<circle cx="85.7475" cy="112.348" r="4" fill="#0" id="circle86"/>
	<circle cx="88.9915" cy="105.86" r="4" fill="#0" id="circle87"/>
	<circle cx="90.9379" cy="627.487" r="4" fill="#0" id="circle88"/>
	<circle cx="94.1818" cy="101.319" r="4" fill="#0" id="circle89"/>
	<circle cx="96.777" cy="630.731" r="4" fill="#0" id="circle90"/>
	<circle cx="98.7233" cy="96.1282" r="4" fill="#0" id="circle91"/>
	<circle cx="101.319" cy="635.922" r="4" fill="#0" id="circle92"/>
	<circle cx="101.967" cy="642.409" r="4" fill="#0" id="circle93"/>
	<circle cx="103.914" cy="91.5867" r="4" fill="#0" id="circle94"/>
	<circle cx="107.158" cy="646.951" r="4" fill="#0" id="circle95"/>
	<circle cx="107.806" cy="83.8012" r="4" fill="#0" id="circle96"/>
	<circle cx="111.05" cy="652.141" r="4" fill="#0" id="circle97"/>
	<circle cx="111.699" cy="658.629" r="4" fill="#0" id="circle98"/>
	<circle cx="112.997" cy="78.6109" r="4" fill="#0" id="circle99"/>
	<circle cx="116.889" cy="663.171" r="4" fill="#0" id="circle100"/>
	<circle cx="117.538" cy="669.659" r="4" fill="#0" id="circle101"/>
	<circle cx="118.187" cy="73.4205" r="4" fill="#0" id="circle102"/>
	<circle cx="121.431" cy="674.849" r="4" fill="#0" id="circle103"/>
	<circle cx="123.377" cy="68.879" r="4" fill="#0" id="circle104"/>
	<circle cx="124.026" cy="816.934" r="4" fill="#0" id="circle105"/>
	<circle cx="124.026" cy="823.422" r="4" fill="#0" id="circle106"/>
	<circle cx="124.026" cy="829.91" r="4" fill="#0" id="circle107"/>
	<circle cx="124.026" cy="836.398" r="4" fill="#0" id="circle108"/>
	<circle cx="126.621" cy="679.39" r="4" fill="#0" id="circle109"/>
	<circle cx="127.27" cy="685.878" r="4" fill="#0" id="circle110"/>
	<circle cx="127.27" cy="800.714" r="4" fill="#0" id="circle111"/>
	<circle cx="127.27" cy="807.202" r="4" fill="#0" id="circle112"/>
	<circle cx="127.919" cy="63.6887" r="4" fill="#0" id="circle113"/>
	<circle cx="129.216" cy="692.366" r="4" fill="#0" id="circle114"/>
	<circle cx="129.216" cy="840.939" r="4" fill="#0" id="circle115"/>
	<circle cx="130.514" cy="698.854" r="4" fill="#0" id="circle116"/>
	<circle cx="130.514" cy="705.342" r="4" fill="#0" id="circle117"/>
	<circle cx="130.514" cy="711.83" r="4" fill="#0" id="circle118"/>
	<circle cx="130.514" cy="718.318" r="4" fill="#0" id="circle119"/>
	<circle cx="130.514" cy="724.806" r="4" fill="#0" id="circle120"/>
	<circle cx="130.514" cy="731.294" r="4" fill="#0" id="circle121"/>
	<circle cx="130.514" cy="737.782" r="4" fill="#0" id="circle122"/>
	<circle cx="130.514" cy="744.269" r="4" fill="#0" id="circle123"/>
	<circle cx="130.514" cy="750.757" r="4" fill="#0" id="circle124"/>
	<circle cx="130.514" cy="757.245" r="4" fill="#0" id="circle125"/>
	<circle cx="130.514" cy="763.733" r="4" fill="#0" id="circle126"/>
	<circle cx="130.514" cy="770.221" r="4" fill="#0" id="circle127"/>
	<circle cx="130.514" cy="776.709" r="4" fill="#0" id="circle128"/>
	<circle cx="130.514" cy="783.197" r="4" fill="#0" id="circle129"/>
	<circle cx="130.514" cy="789.685" r="4" fill="#0" id="circle130"/>
	<circle cx="133.758" cy="846.129" r="4" fill="#0" id="circle131"/>
	<circle cx="134.407" cy="60.4447" r="4" fill="#0" id="circle132"/>
	<circle cx="137.002" cy="851.969" r="4" fill="#0" id="circle133"/>
	<circle cx="139.597" cy="55.9032" r="4" fill="#0" id="circle134"/>
	<circle cx="140.246" cy="857.808" r="4" fill="#0" id="circle135"/>
	<circle cx="140.246" cy="864.296" r="4" fill="#0" id="circle136"/>
	<circle cx="144.139" cy="869.486" r="4" fill="#0" id="circle137"/>
	<circle cx="145.436" cy="52.6593" r="4" fill="#0" id="circle138"/>
	<circle cx="146.734" cy="875.974" r="4" fill="#0" id="circle139"/>
	<circle cx="149.978" cy="881.813" r="4" fill="#0" id="circle140"/>
	<circle cx="151.924" cy="49.4153" r="4" fill="#0" id="circle141"/>
	<circle cx="153.222" cy="887.652" r="4" fill="#0" id="circle142"/>
	<circle cx="153.222" cy="894.14" r="4" fill="#0" id="circle143"/>
	<circle cx="156.466" cy="899.979" r="4" fill="#0" id="circle144"/>
	<circle cx="157.114" cy="44.225" r="4" fill="#0" id="circle145"/>
	<circle cx="160.358" cy="905.169" r="4" fill="#0" id="circle146"/>
	<circle cx="163.602" cy="42.9274" r="4" fill="#0" id="circle147"/>
	<circle cx="165.549" cy="909.711" r="4" fill="#0" id="circle148"/>
	<circle cx="169.441" cy="38.3859" r="4" fill="#0" id="circle149"/>
	<circle cx="170.09" cy="914.901" r="4" fill="#0" id="circle150"/>
	<circle cx="175.281" cy="919.443" r="4" fill="#0" id="circle151"/>
	<circle cx="175.929" cy="36.4395" r="4" fill="#0" id="circle152"/>
	<circle cx="179.822" cy="924.633" r="4" fill="#0" id="circle153"/>
	<circle cx="181.768" cy="33.1956" r="4" fill="#0" id="circle154"/>
	<circle cx="185.012" cy="929.175" r="4" fill="#0" id="circle155"/>
	<circle cx="187.608" cy="29.9516" r="4" fill="#0" id="circle156"/>
	<circle cx="189.554" cy="934.365" r="4" fill="#0" id="circle157"/>
	<circle cx="193.447" cy="26.7077" r="4" fill="#0" id="circle158"/>
	<circle cx="194.744" cy="938.906" r="4" fill="#0" id="circle159"/>
	<circle cx="199.935" cy="26.7077" r="4" fill="#0" id="circle160"/>
	<circle cx="200.583" cy="942.15" r="4" fill="#0" id="circle161"/>
	<circle cx="205.125" cy="947.341" r="4" fill="#0" id="circle162"/>
	<circle cx="205.774" cy="23.4637" r="4" fill="#0" id="circle163"/>
	<circle cx="208.369" cy="953.18" r="4" fill="#0" id="circle164"/>
	<circle cx="211.613" cy="20.2198" r="4" fill="#0" id="circle165"/>
	<circle cx="213.559" cy="957.721" r="4" fill="#0" id="circle166"/>
	<circle cx="217.452" cy="16.9758" r="4" fill="#0" id="circle167"/>
	<circle cx="218.101" cy="962.912" r="4" fill="#0" id="circle168"/>
	<circle cx="223.291" cy="13.7319" r="4" fill="#0" id="circle169"/>
	<circle cx="224.589" cy="964.858" r="4" fill="#0" id="circle170"/>
	<circle cx="228.481" cy="970.048" r="4" fill="#0" id="circle171"/>
	<circle cx="229.779" cy="13.7319" r="4" fill="#0" id="circle172"/>
	<circle cx="234.969" cy="972.644" r="4" fill="#0" id="circle173"/>
	<circle cx="235.618" cy="10.4879" r="4" fill="#0" id="circle174"/>
	<circle cx="241.457" cy="7.24395" r="4" fill="#0" id="circle175"/>
	<circle cx="241.457" cy="974.59" r="4" fill="#0" id="circle176"/>
	<circle cx="247.296" cy="977.834" r="4" fill="#0" id="circle177"/>
	<circle cx="247.945" cy="7.24395" r="4" fill="#0" id="circle178"/>
	<circle cx="253.135" cy="981.078" r="4" fill="#0" id="circle179"/>
	<circle cx="254.433" cy="7.24395" r="4" fill="#0" id="circle180"/>
	<circle cx="258.974" cy="984.322" r="4" fill="#0" id="circle181"/>
	<circle cx="260.921" cy="5.29758" r="4" fill="#0" id="circle182"/>
	<circle cx="265.462" cy="984.322" r="4" fill="#0" id="circle183"/>
	<circle cx="267.409" cy="4" r="4" fill="#0" id="circle184"/>
	<circle cx="271.95" cy="986.917" r="4" fill="#0" id="circle185"/>
	<circle cx="273.897" cy="4" r="4" fill="#0" id="circle186"/>
	<circle cx="277.789" cy="990.161" r="4" fill="#0" id="circle187"/>
	<circle cx="280.385" cy="4" r="4" fill="#0" id="circle188"/>
	<circle cx="284.277" cy="992.756" r="4" fill="#0" id="circle189"/>
	<circle cx="286.872" cy="4" r="4" fill="#0" id="circle190"/>
	<circle cx="290.765" cy="994.054" r="4" fill="#0" id="circle191"/>
	<circle cx="293.36" cy="4" r="4" fill="#0" id="circle192"/>
	<circle cx="297.253" cy="996" r="4" fill="#0" id="circle193"/>
	<circle cx="299.848" cy="4" r="4" fill="#0" id="circle194"/>
	<circle cx="303.741" cy="994.054" r="4" fill="#0" id="circle195"/>
	<circle cx="306.336" cy="4" r="4" fill="#0" id="circle196"/>
	<circle cx="309.58" cy="990.81" r="4" fill="#0" id="circle197"/>
	<circle cx="312.175" cy="7.24395" r="4" fill="#0" id="circle198"/>
	<circle cx="315.419" cy="987.566" r="4" fill="#0" id="circle199"/>
	<circle cx="318.663" cy="7.24395" r="4" fill="#0" id="circle200"/>
	<circle cx="321.907" cy="985.619" r="4" fill="#0" id="circle201"/>
	<circle cx="325.151" cy="7.24395" r="4" fill="#0" id="circle202"/>
	<circle cx="328.395" cy="982.375" r="4" fill="#0" id="circle203"/>
	<circle cx="331.639" cy="7.24395" r="4" fill="#0" id="circle204"/>
	<circle cx="334.883" cy="979.131" r="4" fill="#0" id="circle205"/>
	<circle cx="338.127" cy="7.24395" r="4" fill="#0" id="circle206"/>
	<circle cx="340.073" cy="974.59" r="4" fill="#0" id="circle207"/>
	<circle cx="344.615" cy="7.24395" r="4" fill="#0" id="circle208"/>
	<circle cx="345.912" cy="971.346" r="4" fill="#0" id="circle209"/>
	<circle cx="351.103" cy="8.54153" r="4" fill="#0" id="circle210"/>
	<circle cx="351.751" cy="968.102" r="4" fill="#0" id="circle211"/>
	<circle cx="356.942" cy="11.7855" r="4" fill="#0" id="circle212"/>
	<circle cx="358.239" cy="964.858" r="4" fill="#0" id="circle213"/>
	<circle cx="361.483" cy="16.9758" r="4" fill="#0" id="circle214"/>
	<circle cx="363.43" cy="960.317" r="4" fill="#0" id="circle215"/>
	<circle cx="367.322" cy="20.2198" r="4" fill="#0" id="circle216"/>
	<circle cx="367.971" cy="955.126" r="4" fill="#0" id="circle217"/>
	<circle cx="372.513" cy="24.1125" r="4" fill="#0" id="circle218"/>
	<circle cx="374.459" cy="951.882" r="4" fill="#0" id="circle219"/>
	<circle cx="377.703" cy="28.654" r="4" fill="#0" id="circle220"/>
	<circle cx="380.298" cy="948.638" r="4" fill="#0" id="circle221"/>
	<circle cx="383.542" cy="31.898" r="4" fill="#0" id="circle222"/>
	<circle cx="385.489" cy="944.746" r="4" fill="#0" id="circle223"/>
	<circle cx="390.03" cy="34.4931" r="4" fill="#0" id="circle224"/>
	<circle cx="390.679" cy="938.906" r="4" fill="#0" id="circle225"/>
	<circle cx="393.923" cy="39.6835" r="4" fill="#0" id="circle226"/>
	<circle cx="397.167" cy="935.663" r="4" fill="#0" id="circle227"/>
	<circle cx="400.411" cy="41.6298" r="4" fill="#0" id="circle228"/>
	<circle cx="403.655" cy="932.419" r="4" fill="#0" id="circle229"/>
	<circle cx="404.952" cy="46.8201" r="4" fill="#0" id="circle230"/>
	<circle cx="408.845" cy="927.877" r="4" fill="#0" id="circle231"/>
	<circle cx="410.143" cy="51.3617" r="4" fill="#0" id="circle232"/>
	<circle cx="412.738" cy="57.8496" r="4" fill="#0" id="circle233"/>
	<circle cx="415.333" cy="924.633" r="4" fill="#0" id="circle234"/>
	<circle cx="415.982" cy="63.6887" r="4" fill="#0" id="circle235"/>
	<circle cx="419.874" cy="919.443" r="4" fill="#0" id="circle236"/>
	<circle cx="422.47" cy="62.3911" r="4" fill="#0" id="circle237"/>
	<circle cx="426.362" cy="916.199" r="4" fill="#0" id="circle238"/>
	<circle cx="428.957" cy="61.0935" r="4" fill="#0" id="circle239"/>
	<circle cx="432.85" cy="912.955" r="4" fill="#0" id="circle240"/>
	<circle cx="435.445" cy="59.1472" r="4" fill="#0" id="circle241"/>
	<circle cx="439.338" cy="909.711" r="4" fill="#0" id="circle242"/>
	<circle cx="441.933" cy="57.8496" r="4" fill="#0" id="circle243"/>
	<circle cx="444.528" cy="905.169" r="4" fill="#0" id="circle244"/>
	<circle cx="448.421" cy="55.9032" r="4" fill="#0" id="circle245"/>
	<circle cx="449.07" cy="899.979" r="4" fill="#0" id="circle246"/>
	<circle cx="454.26" cy="895.438" r="4" fill="#0" id="circle247"/>
	<circle cx="454.909" cy="55.9032" r="4" fill="#0" id="circle248"/>
	<circle cx="457.504" cy="888.95" r="4" fill="#0" id="circle249"/>
	<circle cx="460.748" cy="882.462" r="4" fill="#0" id="circle250"/>
	<circle cx="461.397" cy="55.9032" r="4" fill="#0" id="circle251"/>
	<circle cx="463.992" cy="875.974" r="4" fill="#0" id="circle252"/>
	<circle cx="465.29" cy="867.54" r="4" fill="#0" id="circle253"/>
	<circle cx="467.885" cy="57.2008" r="4" fill="#0" id="circle254"/>
	<circle cx="468.534" cy="861.052" r="4" fill="#0" id="circle255"/>
	<circle cx="471.778" cy="851.32" r="4" fill="#0" id="circle256"/>
	<circle cx="474.373" cy="59.1472" r="4" fill="#0" id="circle257"/>
	<circle cx="476.968" cy="846.778" r="4" fill="#0" id="circle258"/>
	<circle cx="478.266" cy="831.856" r="4" fill="#0" id="circle259"/>
	<circle cx="478.266" cy="838.344" r="4" fill="#0" id="circle260"/>
	<circle cx="480.212" cy="62.3911" r="4" fill="#0" id="circle261"/>
	<circle cx="481.509" cy="818.88" r="4" fill="#0" id="circle262"/>
	<circle cx="481.509" cy="825.368" r="4" fill="#0" id="circle263"/>
	<circle cx="484.753" cy="792.929" r="4" fill="#0" id="circle264"/>
	<circle cx="484.753" cy="799.417" r="4" fill="#0" id="circle265"/>
	<circle cx="484.753" cy="805.905" r="4" fill="#0" id="circle266"/>
	<circle cx="484.753" cy="812.392" r="4" fill="#0" id="circle267"/>
	<circle cx="486.7" cy="62.3911" r="4" fill="#0" id="circle268"/>
	<circle cx="487.997" cy="779.953" r="4" fill="#0" id="circle269"/>
	<circle cx="487.997" cy="786.441" r="4" fill="#0" id="circle270"/>
	<circle cx="491.241" cy="744.269" r="4" fill="#0" id="circle271"/>
	<circle cx="491.241" cy="750.757" r="4" fill="#0" id="circle272"/>
	<circle cx="491.241" cy="757.245" r="4" fill="#0" id="circle273"/>
	<circle cx="491.241" cy="763.733" r="4" fill="#0" id="circle274"/>
	<circle cx="491.241" cy="770.221" r="4" fill="#0" id="circle275"/>
	<circle cx="493.188" cy="63.0399" r="4" fill="#0" id="circle276"/>
	<circle cx="496.432" cy="739.728" r="4" fill="#0" id="circle277"/>
	<circle cx="499.027" cy="66.2838" r="4" fill="#0" id="circle278"/>
	<circle cx="500.973" cy="734.538" r="4" fill="#0" id="circle279"/>
	<circle cx="505.515" cy="68.879" r="4" fill="#0" id="circle280"/>
	<circle cx="506.164" cy="729.996" r="4" fill="#0" id="circle281"/>
	<circle cx="509.407" cy="723.508" r="4" fill="#0" id="circle282"/>
	<circle cx="511.354" cy="72.123" r="4" fill="#0" id="circle283"/>
	<circle cx="512.651" cy="717.02" r="4" fill="#0" id="circle284"/>
	<circle cx="515.895" cy="710.532" r="4" fill="#0" id="circle285"/>
	<circle cx="517.193" cy="75.3669" r="4" fill="#0" id="circle286"/>
	<circle cx="520.437" cy="705.342" r="4" fill="#0" id="circle287"/>
	<circle cx="523.681" cy="77.3133" r="4" fill="#0" id="circle288"/>
	<circle cx="523.681" cy="695.61" r="4" fill="#0" id="circle289"/>
	<circle cx="526.925" cy="685.878" r="4" fill="#0" id="circle290"/>
	<circle cx="529.52" cy="80.5572" r="4" fill="#0" id="circle291"/>
	<circle cx="530.169" cy="669.659" r="4" fill="#0" id="circle292"/>
	<circle cx="530.169" cy="676.147" r="4" fill="#0" id="circle293"/>
	<circle cx="533.413" cy="627.487" r="4" fill="#0" id="circle294"/>
	<circle cx="533.413" cy="633.975" r="4" fill="#0" id="circle295"/>
	<circle cx="533.413" cy="640.463" r="4" fill="#0" id="circle296"/>
	<circle cx="533.413" cy="646.951" r="4" fill="#0" id="circle297"/>
	<circle cx="533.413" cy="653.439" r="4" fill="#0" id="circle298"/>
	<circle cx="533.413" cy="659.927" r="4" fill="#0" id="circle299"/>
	<circle cx="534.71" cy="85.0988" r="4" fill="#0" id="circle300"/>
	<circle cx="536.657" cy="617.755" r="4" fill="#0" id="circle301"/>
	<circle cx="539.252" cy="90.2891" r="4" fill="#0" id="circle302"/>
	<circle cx="541.847" cy="613.214" r="4" fill="#0" id="circle303"/>
	<circle cx="545.091" cy="606.726" r="4" fill="#0" id="circle304"/>
	<circle cx="545.74" cy="92.8842" r="4" fill="#0" id="circle305"/>
	<circle cx="549.632" cy="98.0746" r="4" fill="#0" id="circle306"/>
	<circle cx="549.632" cy="601.536" r="4" fill="#0" id="circle307"/>
	<circle cx="554.823" cy="101.967" r="4" fill="#0" id="circle308"/>
	<circle cx="555.472" cy="598.292" r="4" fill="#0" id="circle309"/>
	<circle cx="559.364" cy="107.158" r="4" fill="#0" id="circle310"/>
	<circle cx="560.662" cy="594.399" r="4" fill="#0" id="circle311"/>
	<circle cx="562.608" cy="112.997" r="4" fill="#0" id="circle312"/>
	<circle cx="565.852" cy="588.56" r="4" fill="#0" id="circle313"/>
	<circle cx="567.15" cy="118.187" r="4" fill="#0" id="circle314"/>
	<circle cx="571.043" cy="584.018" r="4" fill="#0" id="circle315"/>
	<circle cx="572.34" cy="122.729" r="4" fill="#0" id="circle316"/>
	<circle cx="572.34" cy="361.483" r="4" fill="#0" id="circle317"/>
	<circle cx="572.34" cy="367.971" r="4" fill="#0" id="circle318"/>
	<circle cx="572.34" cy="374.459" r="4" fill="#0" id="circle319"/>
	<circle cx="572.34" cy="380.947" r="4" fill="#0" id="circle320"/>
	<circle cx="572.34" cy="387.435" r="4" fill="#0" id="circle321"/>
	<circle cx="572.34" cy="393.923" r="4" fill="#0" id="circle322"/>
	<circle cx="572.34" cy="400.411" r="4" fill="#0" id="circle323"/>
	<circle cx="575.584" cy="128.568" r="4" fill="#0" id="circle324"/>
	<circle cx="575.584" cy="345.264" r="4" fill="#0" id="circle325"/>
	<circle cx="575.584" cy="351.751" r="4" fill="#0" id="circle326"/>
	<circle cx="575.584" cy="578.828" r="4" fill="#0" id="circle327"/>
	<circle cx="577.53" cy="404.303" r="4" fill="#0" id="circle328"/>
	<circle cx="578.828" cy="134.407" r="4" fill="#0" id="circle329"/>
	<circle cx="578.828" cy="325.8" r="4" fill="#0" id="circle330"/>
	<circle cx="578.828" cy="332.288" r="4" fill="#0" id="circle331"/>
	<circle cx="578.828" cy="338.776" r="4" fill="#0" id="circle332"/>
	<circle cx="580.126" cy="140.895" r="4" fill="#0" id="circle333"/>
	<circle cx="580.774" cy="574.286" r="4" fill="#0" id="circle334"/>
	<circle cx="582.072" cy="147.383" r="4" fill="#0" id="circle335"/>
	<circle cx="582.072" cy="299.848" r="4" fill="#0" id="circle336"/>
	<circle cx="582.072" cy="306.336" r="4" fill="#0" id="circle337"/>
	<circle cx="582.072" cy="312.824" r="4" fill="#0" id="circle338"/>
	<circle cx="582.072" cy="319.312" r="4" fill="#0" id="circle339"/>
	<circle cx="582.072" cy="409.494" r="4" fill="#0" id="circle340"/>
	<circle cx="584.018" cy="567.799" r="4" fill="#0" id="circle341"/>
	<circle cx="585.316" cy="153.222" r="4" fill="#0" id="circle342"/>
	<circle cx="585.316" cy="159.71" r="4" fill="#0" id="circle343"/>
	<circle cx="585.316" cy="166.198" r="4" fill="#0" id="circle344"/>
	<circle cx="585.316" cy="172.685" r="4" fill="#0" id="circle345"/>
	<circle cx="585.316" cy="277.141" r="4" fill="#0" id="circle346"/>
	<circle cx="585.316" cy="283.629" r="4" fill="#0" id="circle347"/>
	<circle cx="585.316" cy="290.116" r="4" fill="#0" id="circle348"/>
	<circle cx="585.316" cy="415.333" r="4" fill="#0" id="circle349"/>
	<circle cx="585.316" cy="559.364" r="4" fill="#0" id="circle350"/>
	<circle cx="588.56" cy="178.525" r="4" fill="#0" id="circle351"/>
	<circle cx="588.56" cy="185.012" r="4" fill="#0" id="circle352"/>
	<circle cx="588.56" cy="191.5" r="4" fill="#0" id="circle353"/>
	<circle cx="588.56" cy="197.988" r="4" fill="#0" id="circle354"/>
	<circle cx="588.56" cy="204.476" r="4" fill="#0" id="circle355"/>
	<circle cx="588.56" cy="210.964" r="4" fill="#0" id="circle356"/>
	<circle cx="588.56" cy="217.452" r="4" fill="#0" id="circle357"/>
	<circle cx="588.56" cy="223.94" r="4" fill="#0" id="circle358"/>
	<circle cx="588.56" cy="230.428" r="4" fill="#0" id="circle359"/>
	<circle cx="588.56" cy="236.916" r="4" fill="#0" id="circle360"/>
	<circle cx="588.56" cy="243.404" r="4" fill="#0" id="circle361"/>
	<circle cx="588.56" cy="249.891" r="4" fill="#0" id="circle362"/>
	<circle cx="588.56" cy="256.379" r="4" fill="#0" id="circle363"/>
	<circle cx="588.56" cy="262.867" r="4" fill="#0" id="circle364"/>
	<circle cx="588.56" cy="269.355" r="4" fill="#0" id="circle365"/>
	<circle cx="588.56" cy="421.172" r="4" fill="#0" id="circle366"/>
	<circle cx="588.56" cy="546.388" r="4" fill="#0" id="circle367"/>
	<circle cx="588.56" cy="552.876" r="4" fill="#0" id="circle368"/>
	<circle cx="591.804" cy="533.413" r="4" fill="#0" id="circle369"/>
	<circle cx="591.804" cy="539.901" r="4" fill="#0" id="circle370"/>
	<circle cx="593.101" cy="426.362" r="4" fill="#0" id="circle371"/>
	<circle cx="595.048" cy="432.85" r="4" fill="#0" id="circle372"/>
	<circle cx="595.048" cy="526.925" r="4" fill="#0" id="circle373"/>
	<circle cx="598.292" cy="438.689" r="4" fill="#0" id="circle374"/>
	<circle cx="598.292" cy="445.177" r="4" fill="#0" id="circle375"/>
	<circle cx="598.292" cy="451.665" r="4" fill="#0" id="circle376"/>
	<circle cx="598.292" cy="517.193" r="4" fill="#0" id="circle377"/>
	<circle cx="601.536" cy="457.504" r="4" fill="#0" id="circle378"/>
	<circle cx="601.536" cy="463.992" r="4" fill="#0" id="circle379"/>
	<circle cx="601.536" cy="470.48" r="4" fill="#0" id="circle380"/>
	<circle cx="601.536" cy="476.968" r="4" fill="#0" id="circle381"/>
	<circle cx="601.536" cy="483.456" r="4" fill="#0" id="circle382"/>
	<circle cx="601.536" cy="489.944" r="4" fill="#0" id="circle383"/>
	<circle cx="601.536" cy="496.432" r="4" fill="#0" id="circle384"/>
	<circle cx="601.536" cy="502.92" r="4" fill="#0" id="circle385"/>
	<circle cx="601.536" cy="509.407" r="4" fill="#0" id="circle386"/>
	</g>
</svg>