<?xml version="1.0" encoding="UTF-8" standalone="no"?>
<!-- Created with CurveBenchmark -->
<svg
	xmlns:dc="http://purl.org/dc/elements/1.1/"
	xmlns:cc="http://creativecommons.org/ns#"
	xmlns:rdf="http://www.w3.org/1999/02/22-rdf-syntax-ns#"
	xmlns:svg="http://www.w3.org/2000/svg"
	xmlns="http://www.w3.org/2000/svg"
	xmlns:sodipodi="http://sodipodi.sourceforge.net/DTD/sodipodi-0.dtd"
	xmlns:inkscape="http://www.inkscape.org/namespaces/inkscape"
	width="1000"
	height="1000"
	id="svg2"
	version="1.1"
	sodipodi:docname="manifold/discur-carriage-06.png.txt">
<defs
	id="defs4" />
<metadata
	id="metadata7">
	<rdf:RDF>
		<cc:Work
			rdf:about="">
			<dc:format>image/svg+xml</dc:format>
			<dc:type
				rdf:resource="http://purl.org/dc/dcmitype/StillImage" />
			<dc:title></dc:title>
		</cc:Work>
	</rdf:RDF>
</metadata>
<g
	inkscape:label="Layer 1"
	inkscape:groupmode="layer"
	id="layer1">
	<path style="fill:none;stroke:red;stroke-width:1px;stroke-linecap:butt;stroke-linejoin:miter;stroke-opacity:1" d="M 4,141.591 8.81086,127.158 z" id="boundary" inkscape:connector-curvature="0" />
	<path style="fill:none;stroke:red;stroke-width:1px;stroke-linecap:butt;stroke-linejoin:miter;stroke-opacity:1" d="M 4,141.591 8.81086,150.25 z" id="boundary" inkscape:connector-curvature="0" />
	<path style="fill:none;stroke:red;stroke-width:1px;stroke-linecap:butt;stroke-linejoin:miter;stroke-opacity:1" d="M 8.81086,127.158 18.4326,103.104 z" id="boundary" inkscape:connector-curvature="0" />
	<path style="fill:none;stroke:red;stroke-width:1px;stroke-linecap:butt;stroke-linejoin:miter;stroke-opacity:1" d="M 8.81086,150.25 25.1678,158.91 z" id="boundary" inkscape:connector-curvature="0" />
	<path style="fill:none;stroke:red;stroke-width:1px;stroke-linecap:butt;stroke-linejoin:miter;stroke-opacity:1" d="M 18.4326,103.104 23.2435,93.4821 z" id="boundary" inkscape:connector-curvature="0" />
	<path style="fill:none;stroke:red;stroke-width:1px;stroke-linecap:butt;stroke-linejoin:miter;stroke-opacity:1" d="M 23.2435,93.4821 30.9408,85.7847 z" id="boundary" inkscape:connector-curvature="0" />
	<path style="fill:none;stroke:red;stroke-width:1px;stroke-linecap:butt;stroke-linejoin:miter;stroke-opacity:1" d="M 25.1678,158.91 33.8274,154.099 z" id="boundary" inkscape:connector-curvature="0" />
	<path style="fill:none;stroke:red;stroke-width:1px;stroke-linecap:butt;stroke-linejoin:miter;stroke-opacity:1" d="M 30.9408,85.7847 35.7517,76.1629 z" id="boundary" inkscape:connector-curvature="0" />
	<path style="fill:none;stroke:red;stroke-width:1px;stroke-linecap:butt;stroke-linejoin:miter;stroke-opacity:1" d="M 33.8274,154.099 41.5247,147.364 z" id="boundary" inkscape:connector-curvature="0" />
	<path style="fill:none;stroke:red;stroke-width:1px;stroke-linecap:butt;stroke-linejoin:miter;stroke-opacity:1" d="M 35.7517,76.1629 40.5626,66.5412 z" id="boundary" inkscape:connector-curvature="0" />
	<path style="fill:none;stroke:red;stroke-width:1px;stroke-linecap:butt;stroke-linejoin:miter;stroke-opacity:1" d="M 40.5626,66.5412 48.2599,58.8438 z" id="boundary" inkscape:connector-curvature="0" />
	<path style="fill:none;stroke:red;stroke-width:1px;stroke-linecap:butt;stroke-linejoin:miter;stroke-opacity:1" d="M 41.5247,147.364 46.3356,137.742 z" id="boundary" inkscape:connector-curvature="0" />
	<path style="fill:none;stroke:red;stroke-width:1px;stroke-linecap:butt;stroke-linejoin:miter;stroke-opacity:1" d="M 46.3356,137.742 51.1465,128.12 z" id="boundary" inkscape:connector-curvature="0" />
	<path style="fill:none;stroke:red;stroke-width:1px;stroke-linecap:butt;stroke-linejoin:miter;stroke-opacity:1" d="M 48.2599,58.8438 57.8817,61.7304 z" id="boundary" inkscape:connector-curvature="0" />
	<path style="fill:none;stroke:red;stroke-width:1px;stroke-linecap:butt;stroke-linejoin:miter;stroke-opacity:1" d="M 51.1465,128.12 60.7682,125.234 z" id="boundary" inkscape:connector-curvature="0" />
	<path style="fill:none;stroke:red;stroke-width:1px;stroke-linecap:butt;stroke-linejoin:miter;stroke-opacity:1" d="M 57.8817,61.7304 77.1251,61.7304 z" id="boundary" inkscape:connector-curvature="0" />
	<path style="fill:none;stroke:red;stroke-width:1px;stroke-linecap:butt;stroke-linejoin:miter;stroke-opacity:1" d="M 60.7682,125.234 80.0116,125.234 z" id="boundary" inkscape:connector-curvature="0" />
	<path style="fill:none;stroke:red;stroke-width:1px;stroke-linecap:butt;stroke-linejoin:miter;stroke-opacity:1" d="M 71.3521,367.701 71.3521,377.323 z" id="boundary" inkscape:connector-curvature="0" />
	<path style="fill:none;stroke:red;stroke-width:1px;stroke-linecap:butt;stroke-linejoin:miter;stroke-opacity:1" d="M 71.3521,367.701 76.1629,343.647 z" id="boundary" inkscape:connector-curvature="0" />
	<path style="fill:none;stroke:red;stroke-width:1px;stroke-linecap:butt;stroke-linejoin:miter;stroke-opacity:1" d="M 71.3521,377.323 79.0495,384.058 z" id="boundary" inkscape:connector-curvature="0" />
	<path style="fill:none;stroke:red;stroke-width:1px;stroke-linecap:butt;stroke-linejoin:miter;stroke-opacity:1" d="M 76.1629,343.647 85.7847,314.782 z" id="boundary" inkscape:connector-curvature="0" />
	<path style="fill:none;stroke:red;stroke-width:1px;stroke-linecap:butt;stroke-linejoin:miter;stroke-opacity:1" d="M 77.1251,61.7304 86.7468,61.7304 z" id="boundary" inkscape:connector-curvature="0" />
	<path style="fill:none;stroke:red;stroke-width:1px;stroke-linecap:butt;stroke-linejoin:miter;stroke-opacity:1" d="M 79.0495,384.058 86.7468,389.831 z" id="boundary" inkscape:connector-curvature="0" />
	<path style="fill:none;stroke:red;stroke-width:1px;stroke-linecap:butt;stroke-linejoin:miter;stroke-opacity:1" d="M 80.0116,125.234 88.6712,130.045 z" id="boundary" inkscape:connector-curvature="0" />
	<path style="fill:none;stroke:red;stroke-width:1px;stroke-linecap:butt;stroke-linejoin:miter;stroke-opacity:1" d="M 86.7468,61.7304 105.99,66.5412 z" id="boundary" inkscape:connector-curvature="0" />
	<path style="fill:none;stroke:red;stroke-width:1px;stroke-linecap:butt;stroke-linejoin:miter;stroke-opacity:1" d="M 86.7468,389.831 105.99,389.831 z" id="boundary" inkscape:connector-curvature="0" />
	<path style="fill:none;stroke:red;stroke-width:1px;stroke-linecap:butt;stroke-linejoin:miter;stroke-opacity:1" d="M 88.6712,130.045 95.4064,137.742 z" id="boundary" inkscape:connector-curvature="0" />
	<path style="fill:none;stroke:red;stroke-width:1px;stroke-linecap:butt;stroke-linejoin:miter;stroke-opacity:1" d="M 95.4064,137.742 100.217,146.402 z" id="boundary" inkscape:connector-curvature="0" />
	<path style="fill:none;stroke:red;stroke-width:1px;stroke-linecap:butt;stroke-linejoin:miter;stroke-opacity:1" d="M 95.4064,281.106 100.217,257.051 z" id="boundary" inkscape:connector-curvature="0" />
	<path style="fill:none;stroke:red;stroke-width:1px;stroke-linecap:butt;stroke-linejoin:miter;stroke-opacity:1" d="M 95.4064,281.106 100.217,266.673 z" id="boundary" inkscape:connector-curvature="0" />
	<path style="fill:none;stroke:red;stroke-width:1px;stroke-linecap:butt;stroke-linejoin:miter;stroke-opacity:1" d="M 100.217,146.402 105.028,164.683 z" id="boundary" inkscape:connector-curvature="0" />
	<path style="fill:none;stroke:red;stroke-width:1px;stroke-linecap:butt;stroke-linejoin:miter;stroke-opacity:1" d="M 100.217,257.051 100.217,266.673 z" id="boundary" inkscape:connector-curvature="0" />
	<path style="fill:none;stroke:red;stroke-width:1px;stroke-linecap:butt;stroke-linejoin:miter;stroke-opacity:1" d="M 105.028,164.683 105.028,174.305 z" id="boundary" inkscape:connector-curvature="0" />
	<path style="fill:none;stroke:red;stroke-width:1px;stroke-linecap:butt;stroke-linejoin:miter;stroke-opacity:1" d="M 105.028,174.305 105.028,193.548 z" id="boundary" inkscape:connector-curvature="0" />
	<path style="fill:none;stroke:red;stroke-width:1px;stroke-linecap:butt;stroke-linejoin:miter;stroke-opacity:1" d="M 105.028,193.548 105.028,203.17 z" id="boundary" inkscape:connector-curvature="0" />
	<path style="fill:none;stroke:red;stroke-width:1px;stroke-linecap:butt;stroke-linejoin:miter;stroke-opacity:1" d="M 105.028,203.17 105.028,222.413 z" id="boundary" inkscape:connector-curvature="0" />
	<path style="fill:none;stroke:red;stroke-width:1px;stroke-linecap:butt;stroke-linejoin:miter;stroke-opacity:1" d="M 105.028,222.413 105.028,232.035 z" id="boundary" inkscape:connector-curvature="0" />
	<path style="fill:none;stroke:red;stroke-width:1px;stroke-linecap:butt;stroke-linejoin:miter;stroke-opacity:1" d="M 105.99,66.5412 115.612,66.5412 z" id="boundary" inkscape:connector-curvature="0" />
	<path style="fill:none;stroke:red;stroke-width:1px;stroke-linecap:butt;stroke-linejoin:miter;stroke-opacity:1" d="M 105.99,389.831 115.612,389.831 z" id="boundary" inkscape:connector-curvature="0" />
	<path style="fill:none;stroke:red;stroke-width:1px;stroke-linecap:butt;stroke-linejoin:miter;stroke-opacity:1" d="M 115.612,66.5412 134.855,71.3521 z" id="boundary" inkscape:connector-curvature="0" />
	<path style="fill:none;stroke:red;stroke-width:1px;stroke-linecap:butt;stroke-linejoin:miter;stroke-opacity:1" d="M 115.612,389.831 134.855,389.831 z" id="boundary" inkscape:connector-curvature="0" />
	<path style="fill:none;stroke:red;stroke-width:1px;stroke-linecap:butt;stroke-linejoin:miter;stroke-opacity:1" d="M 134.855,71.3521 143.515,76.1629 z" id="boundary" inkscape:connector-curvature="0" />
	<path style="fill:none;stroke:red;stroke-width:1px;stroke-linecap:butt;stroke-linejoin:miter;stroke-opacity:1" d="M 134.855,389.831 144.477,389.831 z" id="boundary" inkscape:connector-curvature="0" />
	<path style="fill:none;stroke:red;stroke-width:1px;stroke-linecap:butt;stroke-linejoin:miter;stroke-opacity:1" d="M 143.515,76.1629 152.175,80.9738 z" id="boundary" inkscape:connector-curvature="0" />
	<path style="fill:none;stroke:red;stroke-width:1px;stroke-linecap:butt;stroke-linejoin:miter;stroke-opacity:1" d="M 144.477,389.831 154.099,389.831 z" id="boundary" inkscape:connector-curvature="0" />
	<path style="fill:none;stroke:red;stroke-width:1px;stroke-linecap:butt;stroke-linejoin:miter;stroke-opacity:1" d="M 152.175,80.9738 160.834,85.7847 z" id="boundary" inkscape:connector-curvature="0" />
	<path style="fill:none;stroke:red;stroke-width:1px;stroke-linecap:butt;stroke-linejoin:miter;stroke-opacity:1" d="M 154.099,389.831 173.342,389.831 z" id="boundary" inkscape:connector-curvature="0" />
	<path style="fill:none;stroke:red;stroke-width:1px;stroke-linecap:butt;stroke-linejoin:miter;stroke-opacity:1" d="M 160.834,85.7847 169.494,90.5955 z" id="boundary" inkscape:connector-curvature="0" />
	<path style="fill:none;stroke:red;stroke-width:1px;stroke-linecap:butt;stroke-linejoin:miter;stroke-opacity:1" d="M 169.494,90.5955 188.737,90.5955 z" id="boundary" inkscape:connector-curvature="0" />
	<path style="fill:none;stroke:red;stroke-width:1px;stroke-linecap:butt;stroke-linejoin:miter;stroke-opacity:1" d="M 173.342,269.56 173.342,279.181 z" id="boundary" inkscape:connector-curvature="0" />
	<path style="fill:none;stroke:red;stroke-width:1px;stroke-linecap:butt;stroke-linejoin:miter;stroke-opacity:1" d="M 173.342,269.56 178.153,259.938 z" id="boundary" inkscape:connector-curvature="0" />
	<path style="fill:none;stroke:red;stroke-width:1px;stroke-linecap:butt;stroke-linejoin:miter;stroke-opacity:1" d="M 173.342,279.181 173.342,288.803 z" id="boundary" inkscape:connector-curvature="0" />
	<path style="fill:none;stroke:red;stroke-width:1px;stroke-linecap:butt;stroke-linejoin:miter;stroke-opacity:1" d="M 173.342,288.803 173.342,308.047 z" id="boundary" inkscape:connector-curvature="0" />
	<path style="fill:none;stroke:red;stroke-width:1px;stroke-linecap:butt;stroke-linejoin:miter;stroke-opacity:1" d="M 173.342,308.047 173.342,317.668 z" id="boundary" inkscape:connector-curvature="0" />
	<path style="fill:none;stroke:red;stroke-width:1px;stroke-linecap:butt;stroke-linejoin:miter;stroke-opacity:1" d="M 173.342,317.668 173.342,336.912 z" id="boundary" inkscape:connector-curvature="0" />
	<path style="fill:none;stroke:red;stroke-width:1px;stroke-linecap:butt;stroke-linejoin:miter;stroke-opacity:1" d="M 173.342,336.912 175.267,346.533 z" id="boundary" inkscape:connector-curvature="0" />
	<path style="fill:none;stroke:red;stroke-width:1px;stroke-linecap:butt;stroke-linejoin:miter;stroke-opacity:1" d="M 173.342,389.831 182.002,385.02 z" id="boundary" inkscape:connector-curvature="0" />
	<path style="fill:none;stroke:red;stroke-width:1px;stroke-linecap:butt;stroke-linejoin:miter;stroke-opacity:1" d="M 175.267,346.533 187.775,360.004 z" id="boundary" inkscape:connector-curvature="0" />
	<path style="fill:none;stroke:red;stroke-width:1px;stroke-linecap:butt;stroke-linejoin:miter;stroke-opacity:1" d="M 178.153,259.938 186.813,255.127 z" id="boundary" inkscape:connector-curvature="0" />
	<path style="fill:none;stroke:red;stroke-width:1px;stroke-linecap:butt;stroke-linejoin:miter;stroke-opacity:1" d="M 182.002,385.02 187.775,360.004 z" id="boundary" inkscape:connector-curvature="0" />
	<path style="fill:none;stroke:red;stroke-width:1px;stroke-linecap:butt;stroke-linejoin:miter;stroke-opacity:1" d="M 186.813,255.127 196.435,255.127 z" id="boundary" inkscape:connector-curvature="0" />
	<path style="fill:none;stroke:red;stroke-width:1px;stroke-linecap:butt;stroke-linejoin:miter;stroke-opacity:1" d="M 188.737,90.5955 198.359,90.5955 z" id="boundary" inkscape:connector-curvature="0" />
	<path style="fill:none;stroke:red;stroke-width:1px;stroke-linecap:butt;stroke-linejoin:miter;stroke-opacity:1" d="M 196.435,255.127 206.056,255.127 z" id="boundary" inkscape:connector-curvature="0" />
	<path style="fill:none;stroke:red;stroke-width:1px;stroke-linecap:butt;stroke-linejoin:miter;stroke-opacity:1" d="M 198.359,90.5955 217.602,90.5955 z" id="boundary" inkscape:connector-curvature="0" />
	<path style="fill:none;stroke:red;stroke-width:1px;stroke-linecap:butt;stroke-linejoin:miter;stroke-opacity:1" d="M 206.056,255.127 225.3,255.127 z" id="boundary" inkscape:connector-curvature="0" />
	<path style="fill:none;stroke:red;stroke-width:1px;stroke-linecap:butt;stroke-linejoin:miter;stroke-opacity:1" d="M 217.602,90.5955 227.224,90.5955 z" id="boundary" inkscape:connector-curvature="0" />
	<path style="fill:none;stroke:red;stroke-width:1px;stroke-linecap:butt;stroke-linejoin:miter;stroke-opacity:1" d="M 225.3,255.127 243.581,250.316 z" id="boundary" inkscape:connector-curvature="0" />
	<path style="fill:none;stroke:red;stroke-width:1px;stroke-linecap:butt;stroke-linejoin:miter;stroke-opacity:1" d="M 227.224,90.5955 246.468,90.5955 z" id="boundary" inkscape:connector-curvature="0" />
	<path style="fill:none;stroke:red;stroke-width:1px;stroke-linecap:butt;stroke-linejoin:miter;stroke-opacity:1" d="M 243.581,250.316 253.203,250.316 z" id="boundary" inkscape:connector-curvature="0" />
	<path style="fill:none;stroke:red;stroke-width:1px;stroke-linecap:butt;stroke-linejoin:miter;stroke-opacity:1" d="M 246.468,90.5955 256.089,90.5955 z" id="boundary" inkscape:connector-curvature="0" />
	<path style="fill:none;stroke:red;stroke-width:1px;stroke-linecap:butt;stroke-linejoin:miter;stroke-opacity:1" d="M 253.203,250.316 272.446,250.316 z" id="boundary" inkscape:connector-curvature="0" />
	<path style="fill:none;stroke:red;stroke-width:1px;stroke-linecap:butt;stroke-linejoin:miter;stroke-opacity:1" d="M 256.089,90.5955 275.333,90.5955 z" id="boundary" inkscape:connector-curvature="0" />
	<path style="fill:none;stroke:red;stroke-width:1px;stroke-linecap:butt;stroke-linejoin:miter;stroke-opacity:1" d="M 272.446,250.316 282.068,250.316 z" id="boundary" inkscape:connector-curvature="0" />
	<path style="fill:none;stroke:red;stroke-width:1px;stroke-linecap:butt;stroke-linejoin:miter;stroke-opacity:1" d="M 275.333,90.5955 284.954,90.5955 z" id="boundary" inkscape:connector-curvature="0" />
	<path style="fill:none;stroke:red;stroke-width:1px;stroke-linecap:butt;stroke-linejoin:miter;stroke-opacity:1" d="M 282.068,250.316 291.69,250.316 z" id="boundary" inkscape:connector-curvature="0" />
	<path style="fill:none;stroke:red;stroke-width:1px;stroke-linecap:butt;stroke-linejoin:miter;stroke-opacity:1" d="M 284.954,90.5955 294.576,90.5955 z" id="boundary" inkscape:connector-curvature="0" />
	<path style="fill:none;stroke:red;stroke-width:1px;stroke-linecap:butt;stroke-linejoin:miter;stroke-opacity:1" d="M 291.69,250.316 300.349,255.127 z" id="boundary" inkscape:connector-curvature="0" />
	<path style="fill:none;stroke:red;stroke-width:1px;stroke-linecap:butt;stroke-linejoin:miter;stroke-opacity:1" d="M 294.576,90.5955 313.82,90.5955 z" id="boundary" inkscape:connector-curvature="0" />
	<path style="fill:none;stroke:red;stroke-width:1px;stroke-linecap:butt;stroke-linejoin:miter;stroke-opacity:1" d="M 300.349,255.127 309.009,259.938 z" id="boundary" inkscape:connector-curvature="0" />
	<path style="fill:none;stroke:red;stroke-width:1px;stroke-linecap:butt;stroke-linejoin:miter;stroke-opacity:1" d="M 307.084,329.214 307.084,338.836 z" id="boundary" inkscape:connector-curvature="0" />
	<path style="fill:none;stroke:red;stroke-width:1px;stroke-linecap:butt;stroke-linejoin:miter;stroke-opacity:1" d="M 307.084,329.214 311.895,308.047 z" id="boundary" inkscape:connector-curvature="0" />
	<path style="fill:none;stroke:red;stroke-width:1px;stroke-linecap:butt;stroke-linejoin:miter;stroke-opacity:1" d="M 307.084,338.836 307.084,348.458 z" id="boundary" inkscape:connector-curvature="0" />
	<path style="fill:none;stroke:red;stroke-width:1px;stroke-linecap:butt;stroke-linejoin:miter;stroke-opacity:1" d="M 307.084,348.458 307.084,358.08 z" id="boundary" inkscape:connector-curvature="0" />
	<path style="fill:none;stroke:red;stroke-width:1px;stroke-linecap:butt;stroke-linejoin:miter;stroke-opacity:1" d="M 307.084,358.08 311.895,366.739 z" id="boundary" inkscape:connector-curvature="0" />
	<path style="fill:none;stroke:red;stroke-width:1px;stroke-linecap:butt;stroke-linejoin:miter;stroke-opacity:1" d="M 309.009,259.938 311.895,279.181 z" id="boundary" inkscape:connector-curvature="0" />
	<path style="fill:none;stroke:red;stroke-width:1px;stroke-linecap:butt;stroke-linejoin:miter;stroke-opacity:1" d="M 311.895,279.181 311.895,288.803 z" id="boundary" inkscape:connector-curvature="0" />
	<path style="fill:none;stroke:red;stroke-width:1px;stroke-linecap:butt;stroke-linejoin:miter;stroke-opacity:1" d="M 311.895,288.803 311.895,308.047 z" id="boundary" inkscape:connector-curvature="0" />
	<path style="fill:none;stroke:red;stroke-width:1px;stroke-linecap:butt;stroke-linejoin:miter;stroke-opacity:1" d="M 311.895,366.739 318.63,374.436 z" id="boundary" inkscape:connector-curvature="0" />
	<path style="fill:none;stroke:red;stroke-width:1px;stroke-linecap:butt;stroke-linejoin:miter;stroke-opacity:1" d="M 313.82,90.5955 323.441,90.5955 z" id="boundary" inkscape:connector-curvature="0" />
	<path style="fill:none;stroke:red;stroke-width:1px;stroke-linecap:butt;stroke-linejoin:miter;stroke-opacity:1" d="M 318.63,374.436 328.252,375.399 z" id="boundary" inkscape:connector-curvature="0" />
	<path style="fill:none;stroke:red;stroke-width:1px;stroke-linecap:butt;stroke-linejoin:miter;stroke-opacity:1" d="M 323.441,90.5955 332.101,95.4064 z" id="boundary" inkscape:connector-curvature="0" />
	<path style="fill:none;stroke:red;stroke-width:1px;stroke-linecap:butt;stroke-linejoin:miter;stroke-opacity:1" d="M 328.252,375.399 347.496,375.399 z" id="boundary" inkscape:connector-curvature="0" />
	<path style="fill:none;stroke:red;stroke-width:1px;stroke-linecap:butt;stroke-linejoin:miter;stroke-opacity:1" d="M 332.101,95.4064 341.723,98.2929 z" id="boundary" inkscape:connector-curvature="0" />
	<path style="fill:none;stroke:red;stroke-width:1px;stroke-linecap:butt;stroke-linejoin:miter;stroke-opacity:1" d="M 341.723,98.2929 350.382,103.104 z" id="boundary" inkscape:connector-curvature="0" />
	<path style="fill:none;stroke:red;stroke-width:1px;stroke-linecap:butt;stroke-linejoin:miter;stroke-opacity:1" d="M 350.382,103.104 356.155,110.801 z" id="boundary" inkscape:connector-curvature="0" />
	<path style="fill:none;stroke:red;stroke-width:1px;stroke-linecap:butt;stroke-linejoin:miter;stroke-opacity:1" d="M 356.155,110.801 360.966,119.461 z" id="boundary" inkscape:connector-curvature="0" />
	<path style="fill:none;stroke:red;stroke-width:1px;stroke-linecap:butt;stroke-linejoin:miter;stroke-opacity:1" d="M 360.966,119.461 360.966,129.082 z" id="boundary" inkscape:connector-curvature="0" />
	<path style="fill:none;stroke:red;stroke-width:1px;stroke-linecap:butt;stroke-linejoin:miter;stroke-opacity:1" d="M 360.966,129.082 365.777,137.742 z" id="boundary" inkscape:connector-curvature="0" />
	<path style="fill:none;stroke:red;stroke-width:1px;stroke-linecap:butt;stroke-linejoin:miter;stroke-opacity:1" d="M 365.777,137.742 370.588,146.402 z" id="boundary" inkscape:connector-curvature="0" />
	<path style="fill:none;stroke:red;stroke-width:1px;stroke-linecap:butt;stroke-linejoin:miter;stroke-opacity:1" d="M 365.777,380.21 375.399,382.134 z" id="boundary" inkscape:connector-curvature="0" />
	<path style="fill:none;stroke:red;stroke-width:1px;stroke-linecap:butt;stroke-linejoin:miter;stroke-opacity:1" d="M 365.777,380.21 385.02,380.21 z" id="boundary" inkscape:connector-curvature="0" />
	<path style="fill:none;stroke:red;stroke-width:1px;stroke-linecap:butt;stroke-linejoin:miter;stroke-opacity:1" d="M 370.588,146.402 375.399,155.061 z" id="boundary" inkscape:connector-curvature="0" />
	<path style="fill:none;stroke:red;stroke-width:1px;stroke-linecap:butt;stroke-linejoin:miter;stroke-opacity:1" d="M 375.399,155.061 380.21,163.721 z" id="boundary" inkscape:connector-curvature="0" />
	<path style="fill:none;stroke:red;stroke-width:1px;stroke-linecap:butt;stroke-linejoin:miter;stroke-opacity:1" d="M 375.399,382.134 385.02,380.21 z" id="boundary" inkscape:connector-curvature="0" />
	<path style="fill:none;stroke:red;stroke-width:1px;stroke-linecap:butt;stroke-linejoin:miter;stroke-opacity:1" d="M 380.21,163.721 385.02,172.38 z" id="boundary" inkscape:connector-curvature="0" />
	<path style="fill:none;stroke:red;stroke-width:1px;stroke-linecap:butt;stroke-linejoin:miter;stroke-opacity:1" d="M 385.02,172.38 389.831,181.04 z" id="boundary" inkscape:connector-curvature="0" />
	<path style="fill:none;stroke:red;stroke-width:1px;stroke-linecap:butt;stroke-linejoin:miter;stroke-opacity:1" d="M 385.02,279.181 385.02,288.803 z" id="boundary" inkscape:connector-curvature="0" />
	<path style="fill:none;stroke:red;stroke-width:1px;stroke-linecap:butt;stroke-linejoin:miter;stroke-opacity:1" d="M 385.02,279.181 394.642,279.181 z" id="boundary" inkscape:connector-curvature="0" />
	<path style="fill:none;stroke:red;stroke-width:1px;stroke-linecap:butt;stroke-linejoin:miter;stroke-opacity:1" d="M 385.02,288.803 385.02,308.047 z" id="boundary" inkscape:connector-curvature="0" />
	<path style="fill:none;stroke:red;stroke-width:1px;stroke-linecap:butt;stroke-linejoin:miter;stroke-opacity:1" d="M 385.02,308.047 389.831,326.328 z" id="boundary" inkscape:connector-curvature="0" />
	<path style="fill:none;stroke:red;stroke-width:1px;stroke-linecap:butt;stroke-linejoin:miter;stroke-opacity:1" d="M 389.831,181.04 389.831,190.661 z" id="boundary" inkscape:connector-curvature="0" />
	<path style="fill:none;stroke:red;stroke-width:1px;stroke-linecap:butt;stroke-linejoin:miter;stroke-opacity:1" d="M 389.831,190.661 394.642,199.321 z" id="boundary" inkscape:connector-curvature="0" />
	<path style="fill:none;stroke:red;stroke-width:1px;stroke-linecap:butt;stroke-linejoin:miter;stroke-opacity:1" d="M 389.831,326.328 394.642,344.609 z" id="boundary" inkscape:connector-curvature="0" />
	<path style="fill:none;stroke:red;stroke-width:1px;stroke-linecap:butt;stroke-linejoin:miter;stroke-opacity:1" d="M 394.642,199.321 401.377,207.018 z" id="boundary" inkscape:connector-curvature="0" />
	<path style="fill:none;stroke:red;stroke-width:1px;stroke-linecap:butt;stroke-linejoin:miter;stroke-opacity:1" d="M 394.642,279.181 404.264,279.181 z" id="boundary" inkscape:connector-curvature="0" />
	<path style="fill:none;stroke:red;stroke-width:1px;stroke-linecap:butt;stroke-linejoin:miter;stroke-opacity:1" d="M 401.377,207.018 409.075,213.754 z" id="boundary" inkscape:connector-curvature="0" />
	<path style="fill:none;stroke:red;stroke-width:1px;stroke-linecap:butt;stroke-linejoin:miter;stroke-opacity:1" d="M 404.264,279.181 423.507,279.181 z" id="boundary" inkscape:connector-curvature="0" />
	<path style="fill:none;stroke:red;stroke-width:1px;stroke-linecap:butt;stroke-linejoin:miter;stroke-opacity:1" d="M 409.075,213.754 416.772,220.489 z" id="boundary" inkscape:connector-curvature="0" />
	<path style="fill:none;stroke:red;stroke-width:1px;stroke-linecap:butt;stroke-linejoin:miter;stroke-opacity:1" d="M 416.772,220.489 436.016,220.489 z" id="boundary" inkscape:connector-curvature="0" />
	<path style="fill:none;stroke:red;stroke-width:1px;stroke-linecap:butt;stroke-linejoin:miter;stroke-opacity:1" d="M 423.507,279.181 433.129,279.181 z" id="boundary" inkscape:connector-curvature="0" />
	<path style="fill:none;stroke:red;stroke-width:1px;stroke-linecap:butt;stroke-linejoin:miter;stroke-opacity:1" d="M 433.129,279.181 442.751,279.181 z" id="boundary" inkscape:connector-curvature="0" />
	<path style="fill:none;stroke:red;stroke-width:1px;stroke-linecap:butt;stroke-linejoin:miter;stroke-opacity:1" d="M 436.016,220.489 445.637,220.489 z" id="boundary" inkscape:connector-curvature="0" />
	<path style="fill:none;stroke:red;stroke-width:1px;stroke-linecap:butt;stroke-linejoin:miter;stroke-opacity:1" d="M 442.751,279.181 461.994,279.181 z" id="boundary" inkscape:connector-curvature="0" />
	<path style="fill:none;stroke:red;stroke-width:1px;stroke-linecap:butt;stroke-linejoin:miter;stroke-opacity:1" d="M 445.637,220.489 455.259,220.489 z" id="boundary" inkscape:connector-curvature="0" />
	<path style="fill:none;stroke:red;stroke-width:1px;stroke-linecap:butt;stroke-linejoin:miter;stroke-opacity:1" d="M 455.259,220.489 463.919,215.678 z" id="boundary" inkscape:connector-curvature="0" />
	<path style="fill:none;stroke:red;stroke-width:1px;stroke-linecap:butt;stroke-linejoin:miter;stroke-opacity:1" d="M 461.032,353.269 465.843,336.912 z" id="boundary" inkscape:connector-curvature="0" />
	<path style="fill:none;stroke:red;stroke-width:1px;stroke-linecap:butt;stroke-linejoin:miter;stroke-opacity:1" d="M 461.032,353.269 465.843,361.928 z" id="boundary" inkscape:connector-curvature="0" />
	<path style="fill:none;stroke:red;stroke-width:1px;stroke-linecap:butt;stroke-linejoin:miter;stroke-opacity:1" d="M 461.994,279.181 465.843,288.803 z" id="boundary" inkscape:connector-curvature="0" />
	<path style="fill:none;stroke:red;stroke-width:1px;stroke-linecap:butt;stroke-linejoin:miter;stroke-opacity:1" d="M 465.843,288.803 465.843,308.047 z" id="boundary" inkscape:connector-curvature="0" />
	<path style="fill:none;stroke:red;stroke-width:1px;stroke-linecap:butt;stroke-linejoin:miter;stroke-opacity:1" d="M 465.843,308.047 465.843,317.668 z" id="boundary" inkscape:connector-curvature="0" />
	<path style="fill:none;stroke:red;stroke-width:1px;stroke-linecap:butt;stroke-linejoin:miter;stroke-opacity:1" d="M 465.843,317.668 465.843,336.912 z" id="boundary" inkscape:connector-curvature="0" />
	<path style="fill:none;stroke:red;stroke-width:1px;stroke-linecap:butt;stroke-linejoin:miter;stroke-opacity:1" d="M 465.843,361.928 472.578,369.626 z" id="boundary" inkscape:connector-curvature="0" />
	<path style="fill:none;stroke:red;stroke-width:1px;stroke-linecap:butt;stroke-linejoin:miter;stroke-opacity:1" d="M 472.578,369.626 482.2,370.588 z" id="boundary" inkscape:connector-curvature="0" />
	<path style="fill:none;stroke:red;stroke-width:1px;stroke-linecap:butt;stroke-linejoin:miter;stroke-opacity:1" d="M 480.275,141.591 480.275,151.212 z" id="boundary" inkscape:connector-curvature="0" />
	<path style="fill:none;stroke:red;stroke-width:1px;stroke-linecap:butt;stroke-linejoin:miter;stroke-opacity:1" d="M 480.275,141.591 485.086,131.969 z" id="boundary" inkscape:connector-curvature="0" />
	<path style="fill:none;stroke:red;stroke-width:1px;stroke-linecap:butt;stroke-linejoin:miter;stroke-opacity:1" d="M 480.275,151.212 480.275,170.456 z" id="boundary" inkscape:connector-curvature="0" />
	<path style="fill:none;stroke:red;stroke-width:1px;stroke-linecap:butt;stroke-linejoin:miter;stroke-opacity:1" d="M 480.275,170.456 480.275,180.078 z" id="boundary" inkscape:connector-curvature="0" />
	<path style="fill:none;stroke:red;stroke-width:1px;stroke-linecap:butt;stroke-linejoin:miter;stroke-opacity:1" d="M 480.275,180.078 480.275,189.699 z" id="boundary" inkscape:connector-curvature="0" />
	<path style="fill:none;stroke:red;stroke-width:1px;stroke-linecap:butt;stroke-linejoin:miter;stroke-opacity:1" d="M 482.2,370.588 491.822,373.474 z" id="boundary" inkscape:connector-curvature="0" />
	<path style="fill:none;stroke:red;stroke-width:1px;stroke-linecap:butt;stroke-linejoin:miter;stroke-opacity:1" d="M 485.086,131.969 489.897,122.347 z" id="boundary" inkscape:connector-curvature="0" />
	<path style="fill:none;stroke:red;stroke-width:1px;stroke-linecap:butt;stroke-linejoin:miter;stroke-opacity:1" d="M 489.897,122.347 509.141,114.65 z" id="boundary" inkscape:connector-curvature="0" />
	<path style="fill:none;stroke:red;stroke-width:1px;stroke-linecap:butt;stroke-linejoin:miter;stroke-opacity:1" d="M 491.822,373.474 500.481,378.285 z" id="boundary" inkscape:connector-curvature="0" />
	<path style="fill:none;stroke:red;stroke-width:1px;stroke-linecap:butt;stroke-linejoin:miter;stroke-opacity:1" d="M 500.481,378.285 508.178,385.02 z" id="boundary" inkscape:connector-curvature="0" />
	<path style="fill:none;stroke:red;stroke-width:1px;stroke-linecap:butt;stroke-linejoin:miter;stroke-opacity:1" d="M 508.178,385.02 516.838,389.831 z" id="boundary" inkscape:connector-curvature="0" />
	<path style="fill:none;stroke:red;stroke-width:1px;stroke-linecap:butt;stroke-linejoin:miter;stroke-opacity:1" d="M 509.141,114.65 518.762,114.65 z" id="boundary" inkscape:connector-curvature="0" />
	<path style="fill:none;stroke:red;stroke-width:1px;stroke-linecap:butt;stroke-linejoin:miter;stroke-opacity:1" d="M 516.838,389.831 526.46,389.831 z" id="boundary" inkscape:connector-curvature="0" />
	<path style="fill:none;stroke:red;stroke-width:1px;stroke-linecap:butt;stroke-linejoin:miter;stroke-opacity:1" d="M 518.762,114.65 528.384,114.65 z" id="boundary" inkscape:connector-curvature="0" />
	<path style="fill:none;stroke:red;stroke-width:1px;stroke-linecap:butt;stroke-linejoin:miter;stroke-opacity:1" d="M 526.46,389.831 535.119,394.642 z" id="boundary" inkscape:connector-curvature="0" />
	<path style="fill:none;stroke:red;stroke-width:1px;stroke-linecap:butt;stroke-linejoin:miter;stroke-opacity:1" d="M 528.384,114.65 537.044,109.839 z" id="boundary" inkscape:connector-curvature="0" />
	<path style="fill:none;stroke:red;stroke-width:1px;stroke-linecap:butt;stroke-linejoin:miter;stroke-opacity:1" d="M 535.119,394.642 553.401,401.377 z" id="boundary" inkscape:connector-curvature="0" />
	<path style="fill:none;stroke:red;stroke-width:1px;stroke-linecap:butt;stroke-linejoin:miter;stroke-opacity:1" d="M 537.044,109.839 547.628,88.6712 z" id="boundary" inkscape:connector-curvature="0" />
	<path style="fill:none;stroke:red;stroke-width:1px;stroke-linecap:butt;stroke-linejoin:miter;stroke-opacity:1" d="M 547.628,21.3191 547.628,40.5626 z" id="boundary" inkscape:connector-curvature="0" />
	<path style="fill:none;stroke:red;stroke-width:1px;stroke-linecap:butt;stroke-linejoin:miter;stroke-opacity:1" d="M 547.628,21.3191 552.438,11.6974 z" id="boundary" inkscape:connector-curvature="0" />
	<path style="fill:none;stroke:red;stroke-width:1px;stroke-linecap:butt;stroke-linejoin:miter;stroke-opacity:1" d="M 547.628,40.5626 547.628,50.1843 z" id="boundary" inkscape:connector-curvature="0" />
	<path style="fill:none;stroke:red;stroke-width:1px;stroke-linecap:butt;stroke-linejoin:miter;stroke-opacity:1" d="M 547.628,50.1843 547.628,59.806 z" id="boundary" inkscape:connector-curvature="0" />
	<path style="fill:none;stroke:red;stroke-width:1px;stroke-linecap:butt;stroke-linejoin:miter;stroke-opacity:1" d="M 547.628,59.806 547.628,79.0495 z" id="boundary" inkscape:connector-curvature="0" />
	<path style="fill:none;stroke:red;stroke-width:1px;stroke-linecap:butt;stroke-linejoin:miter;stroke-opacity:1" d="M 547.628,79.0495 547.628,88.6712 z" id="boundary" inkscape:connector-curvature="0" />
	<path style="fill:none;stroke:red;stroke-width:1px;stroke-linecap:butt;stroke-linejoin:miter;stroke-opacity:1" d="M 552.438,11.6974 571.682,4 z" id="boundary" inkscape:connector-curvature="0" />
	<path style="fill:none;stroke:red;stroke-width:1px;stroke-linecap:butt;stroke-linejoin:miter;stroke-opacity:1" d="M 553.401,401.377 563.022,404.264 z" id="boundary" inkscape:connector-curvature="0" />
	<path style="fill:none;stroke:red;stroke-width:1px;stroke-linecap:butt;stroke-linejoin:miter;stroke-opacity:1" d="M 563.022,404.264 582.266,404.264 z" id="boundary" inkscape:connector-curvature="0" />
	<path style="fill:none;stroke:red;stroke-width:1px;stroke-linecap:butt;stroke-linejoin:miter;stroke-opacity:1" d="M 571.682,4 580.341,8.81086 z" id="boundary" inkscape:connector-curvature="0" />
	<path style="fill:none;stroke:red;stroke-width:1px;stroke-linecap:butt;stroke-linejoin:miter;stroke-opacity:1" d="M 580.341,8.81086 589.001,13.6217 z" id="boundary" inkscape:connector-curvature="0" />
	<path style="fill:none;stroke:red;stroke-width:1px;stroke-linecap:butt;stroke-linejoin:miter;stroke-opacity:1" d="M 582.266,404.264 601.509,389.831 z" id="boundary" inkscape:connector-curvature="0" />
	<path style="fill:none;stroke:red;stroke-width:1px;stroke-linecap:butt;stroke-linejoin:miter;stroke-opacity:1" d="M 589.001,13.6217 597.661,18.4326 z" id="boundary" inkscape:connector-curvature="0" />
	<path style="fill:none;stroke:red;stroke-width:1px;stroke-linecap:butt;stroke-linejoin:miter;stroke-opacity:1" d="M 597.661,18.4326 609.207,34.7895 z" id="boundary" inkscape:connector-curvature="0" />
	<path style="fill:none;stroke:red;stroke-width:1px;stroke-linecap:butt;stroke-linejoin:miter;stroke-opacity:1" d="M 601.509,389.831 606.32,375.399 z" id="boundary" inkscape:connector-curvature="0" />
	<path style="fill:none;stroke:red;stroke-width:1px;stroke-linecap:butt;stroke-linejoin:miter;stroke-opacity:1" d="M 606.32,375.399 611.131,351.344 z" id="boundary" inkscape:connector-curvature="0" />
	<path style="fill:none;stroke:red;stroke-width:1px;stroke-linecap:butt;stroke-linejoin:miter;stroke-opacity:1" d="M 609.207,34.7895 615.942,42.4869 z" id="boundary" inkscape:connector-curvature="0" />
	<path style="fill:none;stroke:red;stroke-width:1px;stroke-linecap:butt;stroke-linejoin:miter;stroke-opacity:1" d="M 611.131,312.857 611.131,322.479 z" id="boundary" inkscape:connector-curvature="0" />
	<path style="fill:none;stroke:red;stroke-width:1px;stroke-linecap:butt;stroke-linejoin:miter;stroke-opacity:1" d="M 611.131,312.857 619.79,308.047 z" id="boundary" inkscape:connector-curvature="0" />
	<path style="fill:none;stroke:red;stroke-width:1px;stroke-linecap:butt;stroke-linejoin:miter;stroke-opacity:1" d="M 611.131,322.479 619.79,308.047 z" id="boundary" inkscape:connector-curvature="0" />
	<path style="fill:none;stroke:red;stroke-width:1px;stroke-linecap:butt;stroke-linejoin:miter;stroke-opacity:1" d="M 611.131,341.723 611.131,351.344 z" id="boundary" inkscape:connector-curvature="0" />
	<path style="fill:none;stroke:red;stroke-width:1px;stroke-linecap:butt;stroke-linejoin:miter;stroke-opacity:1" d="M 615.942,42.4869 620.753,51.1465 z" id="boundary" inkscape:connector-curvature="0" />
	<path style="fill:none;stroke:red;stroke-width:1px;stroke-linecap:butt;stroke-linejoin:miter;stroke-opacity:1" d="M 620.753,51.1465 625.564,59.806 z" id="boundary" inkscape:connector-curvature="0" />
	<path style="fill:none;stroke:red;stroke-width:1px;stroke-linecap:butt;stroke-linejoin:miter;stroke-opacity:1" d="M 625.564,59.806 625.564,79.0495 z" id="boundary" inkscape:connector-curvature="0" />
	<path style="fill:none;stroke:red;stroke-width:1px;stroke-linecap:butt;stroke-linejoin:miter;stroke-opacity:1" d="M 625.564,79.0495 625.564,88.6712 z" id="boundary" inkscape:connector-curvature="0" />
	<path style="fill:none;stroke:red;stroke-width:1px;stroke-linecap:butt;stroke-linejoin:miter;stroke-opacity:1" d="M 625.564,88.6712 625.564,107.915 z" id="boundary" inkscape:connector-curvature="0" />
	<path style="fill:none;stroke:red;stroke-width:1px;stroke-linecap:butt;stroke-linejoin:miter;stroke-opacity:1" d="M 625.564,107.915 625.564,117.536 z" id="boundary" inkscape:connector-curvature="0" />
	<path style="fill:none;stroke:red;stroke-width:1px;stroke-linecap:butt;stroke-linejoin:miter;stroke-opacity:1" d="M 625.564,117.536 625.564,136.78 z" id="boundary" inkscape:connector-curvature="0" />
	<path style="fill:none;stroke:red;stroke-width:1px;stroke-linecap:butt;stroke-linejoin:miter;stroke-opacity:1" d="M 625.564,136.78 625.564,146.402 z" id="boundary" inkscape:connector-curvature="0" />
	<path style="fill:none;stroke:red;stroke-width:1px;stroke-linecap:butt;stroke-linejoin:miter;stroke-opacity:1" d="M 625.564,146.402 629.412,156.023 z" id="boundary" inkscape:connector-curvature="0" />
	<path style="fill:none;stroke:red;stroke-width:1px;stroke-linecap:butt;stroke-linejoin:miter;stroke-opacity:1" d="M 629.412,156.023 630.374,165.645 z" id="boundary" inkscape:connector-curvature="0" />
	<path style="fill:none;stroke:red;stroke-width:1px;stroke-linecap:butt;stroke-linejoin:miter;stroke-opacity:1" d="M 630.374,165.645 635.185,174.305 z" id="boundary" inkscape:connector-curvature="0" />
	<path style="fill:none;stroke:red;stroke-width:1px;stroke-linecap:butt;stroke-linejoin:miter;stroke-opacity:1" d="M 635.185,174.305 640.958,182.002 z" id="boundary" inkscape:connector-curvature="0" />
	<path style="fill:none;stroke:red;stroke-width:1px;stroke-linecap:butt;stroke-linejoin:miter;stroke-opacity:1" d="M 639.034,308.047 648.656,308.047 z" id="boundary" inkscape:connector-curvature="0" />
	<path style="fill:none;stroke:red;stroke-width:1px;stroke-linecap:butt;stroke-linejoin:miter;stroke-opacity:1" d="M 640.958,182.002 644.807,191.624 z" id="boundary" inkscape:connector-curvature="0" />
	<path style="fill:none;stroke:red;stroke-width:1px;stroke-linecap:butt;stroke-linejoin:miter;stroke-opacity:1" d="M 644.807,191.624 652.504,197.397 z" id="boundary" inkscape:connector-curvature="0" />
	<path style="fill:none;stroke:red;stroke-width:1px;stroke-linecap:butt;stroke-linejoin:miter;stroke-opacity:1" d="M 652.504,197.397 659.24,205.094 z" id="boundary" inkscape:connector-curvature="0" />
	<path style="fill:none;stroke:red;stroke-width:1px;stroke-linecap:butt;stroke-linejoin:miter;stroke-opacity:1" d="M 659.24,205.094 678.483,206.056 z" id="boundary" inkscape:connector-curvature="0" />
	<path style="fill:none;stroke:red;stroke-width:1px;stroke-linecap:butt;stroke-linejoin:miter;stroke-opacity:1" d="M 667.899,308.047 677.521,308.047 z" id="boundary" inkscape:connector-curvature="0" />
	<path style="fill:none;stroke:red;stroke-width:1px;stroke-linecap:butt;stroke-linejoin:miter;stroke-opacity:1" d="M 678.483,206.056 688.105,206.056 z" id="boundary" inkscape:connector-curvature="0" />
	<path style="fill:none;stroke:red;stroke-width:1px;stroke-linecap:butt;stroke-linejoin:miter;stroke-opacity:1" d="M 688.105,206.056 701.575,184.888 z" id="boundary" inkscape:connector-curvature="0" />
	<path style="fill:none;stroke:red;stroke-width:1px;stroke-linecap:butt;stroke-linejoin:miter;stroke-opacity:1" d="M 696.764,308.047 706.386,308.047 z" id="boundary" inkscape:connector-curvature="0" />
	<path style="fill:none;stroke:red;stroke-width:1px;stroke-linecap:butt;stroke-linejoin:miter;stroke-opacity:1" d="M 701.575,165.645 701.575,175.267 z" id="boundary" inkscape:connector-curvature="0" />
	<path style="fill:none;stroke:red;stroke-width:1px;stroke-linecap:butt;stroke-linejoin:miter;stroke-opacity:1" d="M 701.575,165.645 706.386,156.023 z" id="boundary" inkscape:connector-curvature="0" />
	<path style="fill:none;stroke:red;stroke-width:1px;stroke-linecap:butt;stroke-linejoin:miter;stroke-opacity:1" d="M 701.575,175.267 701.575,184.888 z" id="boundary" inkscape:connector-curvature="0" />
	<path style="fill:none;stroke:red;stroke-width:1px;stroke-linecap:butt;stroke-linejoin:miter;stroke-opacity:1" d="M 706.386,156.023 714.083,148.326 z" id="boundary" inkscape:connector-curvature="0" />
	<path style="fill:none;stroke:red;stroke-width:1px;stroke-linecap:butt;stroke-linejoin:miter;stroke-opacity:1" d="M 706.386,308.047 716.008,308.047 z" id="boundary" inkscape:connector-curvature="0" />
	<path style="fill:none;stroke:red;stroke-width:1px;stroke-linecap:butt;stroke-linejoin:miter;stroke-opacity:1" d="M 714.083,148.326 722.743,143.515 z" id="boundary" inkscape:connector-curvature="0" />
	<path style="fill:none;stroke:red;stroke-width:1px;stroke-linecap:butt;stroke-linejoin:miter;stroke-opacity:1" d="M 722.743,143.515 741.024,138.704 z" id="boundary" inkscape:connector-curvature="0" />
	<path style="fill:none;stroke:red;stroke-width:1px;stroke-linecap:butt;stroke-linejoin:miter;stroke-opacity:1" d="M 735.251,308.047 744.873,308.047 z" id="boundary" inkscape:connector-curvature="0" />
	<path style="fill:none;stroke:red;stroke-width:1px;stroke-linecap:butt;stroke-linejoin:miter;stroke-opacity:1" d="M 741.024,138.704 749.684,133.893 z" id="boundary" inkscape:connector-curvature="0" />
	<path style="fill:none;stroke:red;stroke-width:1px;stroke-linecap:butt;stroke-linejoin:miter;stroke-opacity:1" d="M 744.873,308.047 764.116,308.047 z" id="boundary" inkscape:connector-curvature="0" />
	<path style="fill:none;stroke:red;stroke-width:1px;stroke-linecap:butt;stroke-linejoin:miter;stroke-opacity:1" d="M 749.684,133.893 754.495,107.915 z" id="boundary" inkscape:connector-curvature="0" />
	<path style="fill:none;stroke:red;stroke-width:1px;stroke-linecap:butt;stroke-linejoin:miter;stroke-opacity:1" d="M 754.495,69.4277 754.495,79.0495 z" id="boundary" inkscape:connector-curvature="0" />
	<path style="fill:none;stroke:red;stroke-width:1px;stroke-linecap:butt;stroke-linejoin:miter;stroke-opacity:1" d="M 754.495,69.4277 768.927,54.9952 z" id="boundary" inkscape:connector-curvature="0" />
	<path style="fill:none;stroke:red;stroke-width:1px;stroke-linecap:butt;stroke-linejoin:miter;stroke-opacity:1" d="M 754.495,79.0495 754.495,88.6712 z" id="boundary" inkscape:connector-curvature="0" />
	<path style="fill:none;stroke:red;stroke-width:1px;stroke-linecap:butt;stroke-linejoin:miter;stroke-opacity:1" d="M 754.495,88.6712 754.495,107.915 z" id="boundary" inkscape:connector-curvature="0" />
	<path style="fill:none;stroke:red;stroke-width:1px;stroke-linecap:butt;stroke-linejoin:miter;stroke-opacity:1" d="M 764.116,308.047 782.398,312.857 z" id="boundary" inkscape:connector-curvature="0" />
	<path style="fill:none;stroke:red;stroke-width:1px;stroke-linecap:butt;stroke-linejoin:miter;stroke-opacity:1" d="M 768.927,54.9952 778.549,52.1086 z" id="boundary" inkscape:connector-curvature="0" />
	<path style="fill:none;stroke:red;stroke-width:1px;stroke-linecap:butt;stroke-linejoin:miter;stroke-opacity:1" d="M 778.549,52.1086 787.209,47.2978 z" id="boundary" inkscape:connector-curvature="0" />
	<path style="fill:none;stroke:red;stroke-width:1px;stroke-linecap:butt;stroke-linejoin:miter;stroke-opacity:1" d="M 782.398,312.857 791.057,317.668 z" id="boundary" inkscape:connector-curvature="0" />
	<path style="fill:none;stroke:red;stroke-width:1px;stroke-linecap:butt;stroke-linejoin:miter;stroke-opacity:1" d="M 787.209,47.2978 796.83,47.2978 z" id="boundary" inkscape:connector-curvature="0" />
	<path style="fill:none;stroke:red;stroke-width:1px;stroke-linecap:butt;stroke-linejoin:miter;stroke-opacity:1" d="M 791.057,317.668 798.755,324.403 z" id="boundary" inkscape:connector-curvature="0" />
	<path style="fill:none;stroke:red;stroke-width:1px;stroke-linecap:butt;stroke-linejoin:miter;stroke-opacity:1" d="M 796.83,47.2978 816.074,47.2978 z" id="boundary" inkscape:connector-curvature="0" />
	<path style="fill:none;stroke:red;stroke-width:1px;stroke-linecap:butt;stroke-linejoin:miter;stroke-opacity:1" d="M 798.755,324.403 805.49,332.101 z" id="boundary" inkscape:connector-curvature="0" />
	<path style="fill:none;stroke:red;stroke-width:1px;stroke-linecap:butt;stroke-linejoin:miter;stroke-opacity:1" d="M 805.49,332.101 810.301,340.76 z" id="boundary" inkscape:connector-curvature="0" />
	<path style="fill:none;stroke:red;stroke-width:1px;stroke-linecap:butt;stroke-linejoin:miter;stroke-opacity:1" d="M 810.301,340.76 814.149,350.382 z" id="boundary" inkscape:connector-curvature="0" />
	<path style="fill:none;stroke:red;stroke-width:1px;stroke-linecap:butt;stroke-linejoin:miter;stroke-opacity:1" d="M 814.149,350.382 818.96,359.042 z" id="boundary" inkscape:connector-curvature="0" />
	<path style="fill:none;stroke:red;stroke-width:1px;stroke-linecap:butt;stroke-linejoin:miter;stroke-opacity:1" d="M 816.074,47.2978 824.733,52.1086 z" id="boundary" inkscape:connector-curvature="0" />
	<path style="fill:none;stroke:red;stroke-width:1px;stroke-linecap:butt;stroke-linejoin:miter;stroke-opacity:1" d="M 818.96,359.042 821.847,368.663 z" id="boundary" inkscape:connector-curvature="0" />
	<path style="fill:none;stroke:red;stroke-width:1px;stroke-linecap:butt;stroke-linejoin:miter;stroke-opacity:1" d="M 821.847,368.663 826.658,377.323 z" id="boundary" inkscape:connector-curvature="0" />
	<path style="fill:none;stroke:red;stroke-width:1px;stroke-linecap:butt;stroke-linejoin:miter;stroke-opacity:1" d="M 824.733,52.1086 833.393,56.9195 z" id="boundary" inkscape:connector-curvature="0" />
	<path style="fill:none;stroke:red;stroke-width:1px;stroke-linecap:butt;stroke-linejoin:miter;stroke-opacity:1" d="M 826.658,377.323 831.468,385.983 z" id="boundary" inkscape:connector-curvature="0" />
	<path style="fill:none;stroke:red;stroke-width:1px;stroke-linecap:butt;stroke-linejoin:miter;stroke-opacity:1" d="M 831.468,385.983 836.279,394.642 z" id="boundary" inkscape:connector-curvature="0" />
	<path style="fill:none;stroke:red;stroke-width:1px;stroke-linecap:butt;stroke-linejoin:miter;stroke-opacity:1" d="M 833.393,56.9195 841.09,63.6547 z" id="boundary" inkscape:connector-curvature="0" />
	<path style="fill:none;stroke:red;stroke-width:1px;stroke-linecap:butt;stroke-linejoin:miter;stroke-opacity:1" d="M 836.279,394.642 842.052,402.339 z" id="boundary" inkscape:connector-curvature="0" />
	<path style="fill:none;stroke:red;stroke-width:1px;stroke-linecap:butt;stroke-linejoin:miter;stroke-opacity:1" d="M 841.09,63.6547 849.75,68.4656 z" id="boundary" inkscape:connector-curvature="0" />
	<path style="fill:none;stroke:red;stroke-width:1px;stroke-linecap:butt;stroke-linejoin:miter;stroke-opacity:1" d="M 842.052,402.339 851.674,406.188 z" id="boundary" inkscape:connector-curvature="0" />
	<path style="fill:none;stroke:red;stroke-width:1px;stroke-linecap:butt;stroke-linejoin:miter;stroke-opacity:1" d="M 849.75,68.4656 854.561,77.1251 z" id="boundary" inkscape:connector-curvature="0" />
	<path style="fill:none;stroke:red;stroke-width:1px;stroke-linecap:butt;stroke-linejoin:miter;stroke-opacity:1" d="M 851.674,406.188 861.296,409.075 z" id="boundary" inkscape:connector-curvature="0" />
	<path style="fill:none;stroke:red;stroke-width:1px;stroke-linecap:butt;stroke-linejoin:miter;stroke-opacity:1" d="M 854.561,77.1251 861.296,84.8225 z" id="boundary" inkscape:connector-curvature="0" />
	<path style="fill:none;stroke:red;stroke-width:1px;stroke-linecap:butt;stroke-linejoin:miter;stroke-opacity:1" d="M 861.296,84.8225 868.993,91.5577 z" id="boundary" inkscape:connector-curvature="0" />
	<path style="fill:none;stroke:red;stroke-width:1px;stroke-linecap:butt;stroke-linejoin:miter;stroke-opacity:1" d="M 861.296,409.075 869.955,413.886 z" id="boundary" inkscape:connector-curvature="0" />
	<path style="fill:none;stroke:red;stroke-width:1px;stroke-linecap:butt;stroke-linejoin:miter;stroke-opacity:1" d="M 868.993,91.5577 875.728,99.2551 z" id="boundary" inkscape:connector-curvature="0" />
	<path style="fill:none;stroke:red;stroke-width:1px;stroke-linecap:butt;stroke-linejoin:miter;stroke-opacity:1" d="M 869.955,413.886 879.577,413.886 z" id="boundary" inkscape:connector-curvature="0" />
	<path style="fill:none;stroke:red;stroke-width:1px;stroke-linecap:butt;stroke-linejoin:miter;stroke-opacity:1" d="M 875.728,99.2551 883.426,105.99 z" id="boundary" inkscape:connector-curvature="0" />
	<path style="fill:none;stroke:red;stroke-width:1px;stroke-linecap:butt;stroke-linejoin:miter;stroke-opacity:1" d="M 879.577,413.886 888.237,418.696 z" id="boundary" inkscape:connector-curvature="0" />
	<path style="fill:none;stroke:red;stroke-width:1px;stroke-linecap:butt;stroke-linejoin:miter;stroke-opacity:1" d="M 883.426,105.99 893.048,109.839 z" id="boundary" inkscape:connector-curvature="0" />
	<path style="fill:none;stroke:red;stroke-width:1px;stroke-linecap:butt;stroke-linejoin:miter;stroke-opacity:1" d="M 888.237,418.696 896.896,423.507 z" id="boundary" inkscape:connector-curvature="0" />
	<path style="fill:none;stroke:red;stroke-width:1px;stroke-linecap:butt;stroke-linejoin:miter;stroke-opacity:1" d="M 893.048,109.839 912.291,109.839 z" id="boundary" inkscape:connector-curvature="0" />
	<path style="fill:none;stroke:red;stroke-width:1px;stroke-linecap:butt;stroke-linejoin:miter;stroke-opacity:1" d="M 896.896,423.507 906.518,423.507 z" id="boundary" inkscape:connector-curvature="0" />
	<path style="fill:none;stroke:red;stroke-width:1px;stroke-linecap:butt;stroke-linejoin:miter;stroke-opacity:1" d="M 906.518,423.507 916.14,423.507 z" id="boundary" inkscape:connector-curvature="0" />
	<path style="fill:none;stroke:red;stroke-width:1px;stroke-linecap:butt;stroke-linejoin:miter;stroke-opacity:1" d="M 912.291,109.839 921.913,109.839 z" id="boundary" inkscape:connector-curvature="0" />
	<path style="fill:none;stroke:red;stroke-width:1px;stroke-linecap:butt;stroke-linejoin:miter;stroke-opacity:1" d="M 916.14,423.507 935.383,423.507 z" id="boundary" inkscape:connector-curvature="0" />
	<path style="fill:none;stroke:red;stroke-width:1px;stroke-linecap:butt;stroke-linejoin:miter;stroke-opacity:1" d="M 921.913,109.839 930.572,114.65 z" id="boundary" inkscape:connector-curvature="0" />
	<path style="fill:none;stroke:red;stroke-width:1px;stroke-linecap:butt;stroke-linejoin:miter;stroke-opacity:1" d="M 930.572,114.65 940.194,114.65 z" id="boundary" inkscape:connector-curvature="0" />
	<path style="fill:none;stroke:red;stroke-width:1px;stroke-linecap:butt;stroke-linejoin:miter;stroke-opacity:1" d="M 935.383,423.507 945.005,423.507 z" id="boundary" inkscape:connector-curvature="0" />
	<path style="fill:none;stroke:red;stroke-width:1px;stroke-linecap:butt;stroke-linejoin:miter;stroke-opacity:1" d="M 940.194,114.65 946.929,122.347 z" id="boundary" inkscape:connector-curvature="0" />
	<path style="fill:none;stroke:red;stroke-width:1px;stroke-linecap:butt;stroke-linejoin:miter;stroke-opacity:1" d="M 945.005,423.507 953.664,418.696 z" id="boundary" inkscape:connector-curvature="0" />
	<path style="fill:none;stroke:red;stroke-width:1px;stroke-linecap:butt;stroke-linejoin:miter;stroke-opacity:1" d="M 946.929,122.347 952.702,130.045 z" id="boundary" inkscape:connector-curvature="0" />
	<path style="fill:none;stroke:red;stroke-width:1px;stroke-linecap:butt;stroke-linejoin:miter;stroke-opacity:1" d="M 952.702,130.045 952.702,149.288 z" id="boundary" inkscape:connector-curvature="0" />
	<path style="fill:none;stroke:red;stroke-width:1px;stroke-linecap:butt;stroke-linejoin:miter;stroke-opacity:1" d="M 952.702,149.288 952.702,158.91 z" id="boundary" inkscape:connector-curvature="0" />
	<path style="fill:none;stroke:red;stroke-width:1px;stroke-linecap:butt;stroke-linejoin:miter;stroke-opacity:1" d="M 952.702,158.91 952.702,178.153 z" id="boundary" inkscape:connector-curvature="0" />
	<path style="fill:none;stroke:red;stroke-width:1px;stroke-linecap:butt;stroke-linejoin:miter;stroke-opacity:1" d="M 952.702,178.153 952.702,187.775 z" id="boundary" inkscape:connector-curvature="0" />
	<path style="fill:none;stroke:red;stroke-width:1px;stroke-linecap:butt;stroke-linejoin:miter;stroke-opacity:1" d="M 952.702,187.775 952.702,207.018 z" id="boundary" inkscape:connector-curvature="0" />
	<path style="fill:none;stroke:red;stroke-width:1px;stroke-linecap:butt;stroke-linejoin:miter;stroke-opacity:1" d="M 952.702,207.018 952.702,216.64 z" id="boundary" inkscape:connector-curvature="0" />
	<path style="fill:none;stroke:red;stroke-width:1px;stroke-linecap:butt;stroke-linejoin:miter;stroke-opacity:1" d="M 952.702,216.64 957.513,225.3 z" id="boundary" inkscape:connector-curvature="0" />
	<path style="fill:none;stroke:red;stroke-width:1px;stroke-linecap:butt;stroke-linejoin:miter;stroke-opacity:1" d="M 953.664,418.696 962.324,413.886 z" id="boundary" inkscape:connector-curvature="0" />
	<path style="fill:none;stroke:red;stroke-width:1px;stroke-linecap:butt;stroke-linejoin:miter;stroke-opacity:1" d="M 957.513,225.3 965.21,231.073 z" id="boundary" inkscape:connector-curvature="0" />
	<path style="fill:none;stroke:red;stroke-width:1px;stroke-linecap:butt;stroke-linejoin:miter;stroke-opacity:1" d="M 962.324,413.886 976.757,394.642 z" id="boundary" inkscape:connector-curvature="0" />
	<path style="fill:none;stroke:red;stroke-width:1px;stroke-linecap:butt;stroke-linejoin:miter;stroke-opacity:1" d="M 965.21,231.073 971.946,238.77 z" id="boundary" inkscape:connector-curvature="0" />
	<path style="fill:none;stroke:red;stroke-width:1px;stroke-linecap:butt;stroke-linejoin:miter;stroke-opacity:1" d="M 971.946,238.77 981.567,242.619 z" id="boundary" inkscape:connector-curvature="0" />
	<path style="fill:none;stroke:red;stroke-width:1px;stroke-linecap:butt;stroke-linejoin:miter;stroke-opacity:1" d="M 976.757,394.642 981.567,380.21 z" id="boundary" inkscape:connector-curvature="0" />
	<path style="fill:none;stroke:red;stroke-width:1px;stroke-linecap:butt;stroke-linejoin:miter;stroke-opacity:1" d="M 981.567,242.619 988.303,250.316 z" id="boundary" inkscape:connector-curvature="0" />
	<path style="fill:none;stroke:red;stroke-width:1px;stroke-linecap:butt;stroke-linejoin:miter;stroke-opacity:1" d="M 981.567,380.21 986.378,365.777 z" id="boundary" inkscape:connector-curvature="0" />
	<path style="fill:none;stroke:red;stroke-width:1px;stroke-linecap:butt;stroke-linejoin:miter;stroke-opacity:1" d="M 986.378,365.777 991.189,336.912 z" id="boundary" inkscape:connector-curvature="0" />
	<path style="fill:none;stroke:red;stroke-width:1px;stroke-linecap:butt;stroke-linejoin:miter;stroke-opacity:1" d="M 988.303,250.316 993.113,258.976 z" id="boundary" inkscape:connector-curvature="0" />
	<path style="fill:none;stroke:red;stroke-width:1px;stroke-linecap:butt;stroke-linejoin:miter;stroke-opacity:1" d="M 991.189,336.912 996,326.328 z" id="boundary" inkscape:connector-curvature="0" />
	<path style="fill:none;stroke:red;stroke-width:1px;stroke-linecap:butt;stroke-linejoin:miter;stroke-opacity:1" d="M 993.113,258.976 996,268.597 z" id="boundary" inkscape:connector-curvature="0" />
	<path style="fill:none;stroke:red;stroke-width:1px;stroke-linecap:butt;stroke-linejoin:miter;stroke-opacity:1" d="M 996,268.597 996,278.219 z" id="boundary" inkscape:connector-curvature="0" />
	<path style="fill:none;stroke:red;stroke-width:1px;stroke-linecap:butt;stroke-linejoin:miter;stroke-opacity:1" d="M 996,278.219 996,297.463 z" id="boundary" inkscape:connector-curvature="0" />
	<path style="fill:none;stroke:red;stroke-width:1px;stroke-linecap:butt;stroke-linejoin:miter;stroke-opacity:1" d="M 996,297.463 996,307.084 z" id="boundary" inkscape:connector-curvature="0" />
	<path style="fill:none;stroke:red;stroke-width:1px;stroke-linecap:butt;stroke-linejoin:miter;stroke-opacity:1" d="M 996,307.084 996,326.328 z" id="boundary" inkscape:connector-curvature="0" />
	<circle cx="4" cy="141.591" r="4" fill="#0" id="circle0"/>
	<circle cx="8.81086" cy="127.158" r="4" fill="#0" id="circle1"/>
	<circle cx="8.81086" cy="150.25" r="4" fill="#0" id="circle2"/>
	<circle cx="13.6217" cy="117.536" r="4" fill="#0" id="circle3"/>
	<circle cx="15.5461" cy="157.948" r="4" fill="#0" id="circle4"/>
	<circle cx="18.4326" cy="103.104" r="4" fill="#0" id="circle5"/>
	<circle cx="23.2435" cy="93.4821" r="4" fill="#0" id="circle6"/>
	<circle cx="25.1678" cy="158.91" r="4" fill="#0" id="circle7"/>
	<circle cx="30.9408" cy="85.7847" r="4" fill="#0" id="circle8"/>
	<circle cx="33.8274" cy="154.099" r="4" fill="#0" id="circle9"/>
	<circle cx="35.7517" cy="76.1629" r="4" fill="#0" id="circle10"/>
	<circle cx="40.5626" cy="66.5412" r="4" fill="#0" id="circle11"/>
	<circle cx="41.5247" cy="147.364" r="4" fill="#0" id="circle12"/>
	<circle cx="46.3356" cy="137.742" r="4" fill="#0" id="circle13"/>
	<circle cx="48.2599" cy="58.8438" r="4" fill="#0" id="circle14"/>
	<circle cx="51.1465" cy="128.12" r="4" fill="#0" id="circle15"/>
	<circle cx="57.8817" cy="61.7304" r="4" fill="#0" id="circle16"/>
	<circle cx="60.7682" cy="125.234" r="4" fill="#0" id="circle17"/>
	<circle cx="67.5034" cy="61.7304" r="4" fill="#0" id="circle18"/>
	<circle cx="70.3899" cy="125.234" r="4" fill="#0" id="circle19"/>
	<circle cx="71.3521" cy="367.701" r="4" fill="#0" id="circle20"/>
	<circle cx="71.3521" cy="377.323" r="4" fill="#0" id="circle21"/>
	<circle cx="76.1629" cy="343.647" r="4" fill="#0" id="circle22"/>
	<circle cx="76.1629" cy="353.269" r="4" fill="#0" id="circle23"/>
	<circle cx="77.1251" cy="61.7304" r="4" fill="#0" id="circle24"/>
	<circle cx="79.0495" cy="384.058" r="4" fill="#0" id="circle25"/>
	<circle cx="80.0116" cy="125.234" r="4" fill="#0" id="circle26"/>
	<circle cx="80.9738" cy="334.025" r="4" fill="#0" id="circle27"/>
	<circle cx="85.7847" cy="314.782" r="4" fill="#0" id="circle28"/>
	<circle cx="85.7847" cy="324.403" r="4" fill="#0" id="circle29"/>
	<circle cx="86.7468" cy="61.7304" r="4" fill="#0" id="circle30"/>
	<circle cx="86.7468" cy="389.831" r="4" fill="#0" id="circle31"/>
	<circle cx="88.6712" cy="130.045" r="4" fill="#0" id="circle32"/>
	<circle cx="90.5955" cy="305.16" r="4" fill="#0" id="circle33"/>
	<circle cx="95.4064" cy="137.742" r="4" fill="#0" id="circle34"/>
	<circle cx="95.4064" cy="281.106" r="4" fill="#0" id="circle35"/>
	<circle cx="95.4064" cy="290.727" r="4" fill="#0" id="circle36"/>
	<circle cx="96.3686" cy="64.6169" r="4" fill="#0" id="circle37"/>
	<circle cx="96.3686" cy="389.831" r="4" fill="#0" id="circle38"/>
	<circle cx="100.217" cy="146.402" r="4" fill="#0" id="circle39"/>
	<circle cx="100.217" cy="257.051" r="4" fill="#0" id="circle40"/>
	<circle cx="100.217" cy="266.673" r="4" fill="#0" id="circle41"/>
	<circle cx="105.028" cy="155.061" r="4" fill="#0" id="circle42"/>
	<circle cx="105.028" cy="164.683" r="4" fill="#0" id="circle43"/>
	<circle cx="105.028" cy="174.305" r="4" fill="#0" id="circle44"/>
	<circle cx="105.028" cy="183.926" r="4" fill="#0" id="circle45"/>
	<circle cx="105.028" cy="193.548" r="4" fill="#0" id="circle46"/>
	<circle cx="105.028" cy="203.17" r="4" fill="#0" id="circle47"/>
	<circle cx="105.028" cy="212.791" r="4" fill="#0" id="circle48"/>
	<circle cx="105.028" cy="222.413" r="4" fill="#0" id="circle49"/>
	<circle cx="105.028" cy="232.035" r="4" fill="#0" id="circle50"/>
	<circle cx="105.028" cy="241.657" r="4" fill="#0" id="circle51"/>
	<circle cx="105.99" cy="66.5412" r="4" fill="#0" id="circle52"/>
	<circle cx="105.99" cy="389.831" r="4" fill="#0" id="circle53"/>
	<circle cx="115.612" cy="66.5412" r="4" fill="#0" id="circle54"/>
	<circle cx="115.612" cy="389.831" r="4" fill="#0" id="circle55"/>
	<circle cx="125.234" cy="69.4277" r="4" fill="#0" id="circle56"/>
	<circle cx="125.234" cy="389.831" r="4" fill="#0" id="circle57"/>
	<circle cx="134.855" cy="71.3521" r="4" fill="#0" id="circle58"/>
	<circle cx="134.855" cy="389.831" r="4" fill="#0" id="circle59"/>
	<circle cx="143.515" cy="76.1629" r="4" fill="#0" id="circle60"/>
	<circle cx="144.477" cy="389.831" r="4" fill="#0" id="circle61"/>
	<circle cx="152.175" cy="80.9738" r="4" fill="#0" id="circle62"/>
	<circle cx="154.099" cy="389.831" r="4" fill="#0" id="circle63"/>
	<circle cx="160.834" cy="85.7847" r="4" fill="#0" id="circle64"/>
	<circle cx="163.721" cy="389.831" r="4" fill="#0" id="circle65"/>
	<circle cx="169.494" cy="90.5955" r="4" fill="#0" id="circle66"/>
	<circle cx="173.342" cy="269.56" r="4" fill="#0" id="circle67"/>
	<circle cx="173.342" cy="279.181" r="4" fill="#0" id="circle68"/>
	<circle cx="173.342" cy="288.803" r="4" fill="#0" id="circle69"/>
	<circle cx="173.342" cy="298.425" r="4" fill="#0" id="circle70"/>
	<circle cx="173.342" cy="308.047" r="4" fill="#0" id="circle71"/>
	<circle cx="173.342" cy="317.668" r="4" fill="#0" id="circle72"/>
	<circle cx="173.342" cy="327.29" r="4" fill="#0" id="circle73"/>
	<circle cx="173.342" cy="336.912" r="4" fill="#0" id="circle74"/>
	<circle cx="173.342" cy="389.831" r="4" fill="#0" id="circle75"/>
	<circle cx="175.267" cy="346.533" r="4" fill="#0" id="circle76"/>
	<circle cx="178.153" cy="259.938" r="4" fill="#0" id="circle77"/>
	<circle cx="179.115" cy="90.5955" r="4" fill="#0" id="circle78"/>
	<circle cx="182.002" cy="385.02" r="4" fill="#0" id="circle79"/>
	<circle cx="184.888" cy="350.382" r="4" fill="#0" id="circle80"/>
	<circle cx="186.813" cy="255.127" r="4" fill="#0" id="circle81"/>
	<circle cx="187.775" cy="360.004" r="4" fill="#0" id="circle82"/>
	<circle cx="187.775" cy="375.399" r="4" fill="#0" id="circle83"/>
	<circle cx="188.737" cy="90.5955" r="4" fill="#0" id="circle84"/>
	<circle cx="196.435" cy="255.127" r="4" fill="#0" id="circle85"/>
	<circle cx="198.359" cy="90.5955" r="4" fill="#0" id="circle86"/>
	<circle cx="206.056" cy="255.127" r="4" fill="#0" id="circle87"/>
	<circle cx="207.981" cy="90.5955" r="4" fill="#0" id="circle88"/>
	<circle cx="215.678" cy="255.127" r="4" fill="#0" id="circle89"/>
	<circle cx="217.602" cy="90.5955" r="4" fill="#0" id="circle90"/>
	<circle cx="225.3" cy="255.127" r="4" fill="#0" id="circle91"/>
	<circle cx="227.224" cy="90.5955" r="4" fill="#0" id="circle92"/>
	<circle cx="233.959" cy="250.316" r="4" fill="#0" id="circle93"/>
	<circle cx="236.846" cy="90.5955" r="4" fill="#0" id="circle94"/>
	<circle cx="243.581" cy="250.316" r="4" fill="#0" id="circle95"/>
	<circle cx="246.468" cy="90.5955" r="4" fill="#0" id="circle96"/>
	<circle cx="253.203" cy="250.316" r="4" fill="#0" id="circle97"/>
	<circle cx="256.089" cy="90.5955" r="4" fill="#0" id="circle98"/>
	<circle cx="262.824" cy="250.316" r="4" fill="#0" id="circle99"/>
	<circle cx="265.711" cy="90.5955" r="4" fill="#0" id="circle100"/>
	<circle cx="272.446" cy="250.316" r="4" fill="#0" id="circle101"/>
	<circle cx="275.333" cy="90.5955" r="4" fill="#0" id="circle102"/>
	<circle cx="282.068" cy="250.316" r="4" fill="#0" id="circle103"/>
	<circle cx="284.954" cy="90.5955" r="4" fill="#0" id="circle104"/>
	<circle cx="291.69" cy="250.316" r="4" fill="#0" id="circle105"/>
	<circle cx="294.576" cy="90.5955" r="4" fill="#0" id="circle106"/>
	<circle cx="300.349" cy="255.127" r="4" fill="#0" id="circle107"/>
	<circle cx="304.198" cy="90.5955" r="4" fill="#0" id="circle108"/>
	<circle cx="307.084" cy="329.214" r="4" fill="#0" id="circle109"/>
	<circle cx="307.084" cy="338.836" r="4" fill="#0" id="circle110"/>
	<circle cx="307.084" cy="348.458" r="4" fill="#0" id="circle111"/>
	<circle cx="307.084" cy="358.08" r="4" fill="#0" id="circle112"/>
	<circle cx="309.009" cy="259.938" r="4" fill="#0" id="circle113"/>
	<circle cx="311.895" cy="269.56" r="4" fill="#0" id="circle114"/>
	<circle cx="311.895" cy="279.181" r="4" fill="#0" id="circle115"/>
	<circle cx="311.895" cy="288.803" r="4" fill="#0" id="circle116"/>
	<circle cx="311.895" cy="298.425" r="4" fill="#0" id="circle117"/>
	<circle cx="311.895" cy="308.047" r="4" fill="#0" id="circle118"/>
	<circle cx="311.895" cy="317.668" r="4" fill="#0" id="circle119"/>
	<circle cx="311.895" cy="366.739" r="4" fill="#0" id="circle120"/>
	<circle cx="313.82" cy="90.5955" r="4" fill="#0" id="circle121"/>
	<circle cx="318.63" cy="374.436" r="4" fill="#0" id="circle122"/>
	<circle cx="323.441" cy="90.5955" r="4" fill="#0" id="circle123"/>
	<circle cx="328.252" cy="375.399" r="4" fill="#0" id="circle124"/>
	<circle cx="332.101" cy="95.4064" r="4" fill="#0" id="circle125"/>
	<circle cx="337.874" cy="375.399" r="4" fill="#0" id="circle126"/>
	<circle cx="341.723" cy="98.2929" r="4" fill="#0" id="circle127"/>
	<circle cx="347.496" cy="375.399" r="4" fill="#0" id="circle128"/>
	<circle cx="350.382" cy="103.104" r="4" fill="#0" id="circle129"/>
	<circle cx="356.155" cy="110.801" r="4" fill="#0" id="circle130"/>
	<circle cx="356.155" cy="380.21" r="4" fill="#0" id="circle131"/>
	<circle cx="360.966" cy="119.461" r="4" fill="#0" id="circle132"/>
	<circle cx="360.966" cy="129.082" r="4" fill="#0" id="circle133"/>
	<circle cx="365.777" cy="137.742" r="4" fill="#0" id="circle134"/>
	<circle cx="365.777" cy="380.21" r="4" fill="#0" id="circle135"/>
	<circle cx="370.588" cy="146.402" r="4" fill="#0" id="circle136"/>
	<circle cx="375.399" cy="155.061" r="4" fill="#0" id="circle137"/>
	<circle cx="375.399" cy="382.134" r="4" fill="#0" id="circle138"/>
	<circle cx="380.21" cy="163.721" r="4" fill="#0" id="circle139"/>
	<circle cx="385.02" cy="172.38" r="4" fill="#0" id="circle140"/>
	<circle cx="385.02" cy="279.181" r="4" fill="#0" id="circle141"/>
	<circle cx="385.02" cy="288.803" r="4" fill="#0" id="circle142"/>
	<circle cx="385.02" cy="298.425" r="4" fill="#0" id="circle143"/>
	<circle cx="385.02" cy="308.047" r="4" fill="#0" id="circle144"/>
	<circle cx="385.02" cy="380.21" r="4" fill="#0" id="circle145"/>
	<circle cx="389.831" cy="181.04" r="4" fill="#0" id="circle146"/>
	<circle cx="389.831" cy="190.661" r="4" fill="#0" id="circle147"/>
	<circle cx="389.831" cy="316.706" r="4" fill="#0" id="circle148"/>
	<circle cx="389.831" cy="326.328" r="4" fill="#0" id="circle149"/>
	<circle cx="389.831" cy="370.588" r="4" fill="#0" id="circle150"/>
	<circle cx="394.642" cy="199.321" r="4" fill="#0" id="circle151"/>
	<circle cx="394.642" cy="279.181" r="4" fill="#0" id="circle152"/>
	<circle cx="394.642" cy="334.987" r="4" fill="#0" id="circle153"/>
	<circle cx="394.642" cy="344.609" r="4" fill="#0" id="circle154"/>
	<circle cx="394.642" cy="354.231" r="4" fill="#0" id="circle155"/>
	<circle cx="401.377" cy="207.018" r="4" fill="#0" id="circle156"/>
	<circle cx="404.264" cy="279.181" r="4" fill="#0" id="circle157"/>
	<circle cx="409.075" cy="213.754" r="4" fill="#0" id="circle158"/>
	<circle cx="413.886" cy="279.181" r="4" fill="#0" id="circle159"/>
	<circle cx="416.772" cy="220.489" r="4" fill="#0" id="circle160"/>
	<circle cx="423.507" cy="279.181" r="4" fill="#0" id="circle161"/>
	<circle cx="426.394" cy="220.489" r="4" fill="#0" id="circle162"/>
	<circle cx="433.129" cy="279.181" r="4" fill="#0" id="circle163"/>
	<circle cx="436.016" cy="220.489" r="4" fill="#0" id="circle164"/>
	<circle cx="442.751" cy="279.181" r="4" fill="#0" id="circle165"/>
	<circle cx="445.637" cy="220.489" r="4" fill="#0" id="circle166"/>
	<circle cx="452.372" cy="279.181" r="4" fill="#0" id="circle167"/>
	<circle cx="455.259" cy="220.489" r="4" fill="#0" id="circle168"/>
	<circle cx="461.032" cy="353.269" r="4" fill="#0" id="circle169"/>
	<circle cx="461.994" cy="279.181" r="4" fill="#0" id="circle170"/>
	<circle cx="463.919" cy="215.678" r="4" fill="#0" id="circle171"/>
	<circle cx="465.843" cy="288.803" r="4" fill="#0" id="circle172"/>
	<circle cx="465.843" cy="298.425" r="4" fill="#0" id="circle173"/>
	<circle cx="465.843" cy="308.047" r="4" fill="#0" id="circle174"/>
	<circle cx="465.843" cy="317.668" r="4" fill="#0" id="circle175"/>
	<circle cx="465.843" cy="327.29" r="4" fill="#0" id="circle176"/>
	<circle cx="465.843" cy="336.912" r="4" fill="#0" id="circle177"/>
	<circle cx="465.843" cy="361.928" r="4" fill="#0" id="circle178"/>
	<circle cx="472.578" cy="369.626" r="4" fill="#0" id="circle179"/>
	<circle cx="473.54" cy="210.867" r="4" fill="#0" id="circle180"/>
	<circle cx="480.275" cy="141.591" r="4" fill="#0" id="circle181"/>
	<circle cx="480.275" cy="151.212" r="4" fill="#0" id="circle182"/>
	<circle cx="480.275" cy="160.834" r="4" fill="#0" id="circle183"/>
	<circle cx="480.275" cy="170.456" r="4" fill="#0" id="circle184"/>
	<circle cx="480.275" cy="180.078" r="4" fill="#0" id="circle185"/>
	<circle cx="480.275" cy="189.699" r="4" fill="#0" id="circle186"/>
	<circle cx="480.275" cy="199.321" r="4" fill="#0" id="circle187"/>
	<circle cx="482.2" cy="370.588" r="4" fill="#0" id="circle188"/>
	<circle cx="485.086" cy="131.969" r="4" fill="#0" id="circle189"/>
	<circle cx="489.897" cy="122.347" r="4" fill="#0" id="circle190"/>
	<circle cx="491.822" cy="373.474" r="4" fill="#0" id="circle191"/>
	<circle cx="499.519" cy="117.536" r="4" fill="#0" id="circle192"/>
	<circle cx="500.481" cy="378.285" r="4" fill="#0" id="circle193"/>
	<circle cx="508.178" cy="385.02" r="4" fill="#0" id="circle194"/>
	<circle cx="509.141" cy="114.65" r="4" fill="#0" id="circle195"/>
	<circle cx="516.838" cy="389.831" r="4" fill="#0" id="circle196"/>
	<circle cx="518.762" cy="114.65" r="4" fill="#0" id="circle197"/>
	<circle cx="526.46" cy="389.831" r="4" fill="#0" id="circle198"/>
	<circle cx="528.384" cy="114.65" r="4" fill="#0" id="circle199"/>
	<circle cx="535.119" cy="394.642" r="4" fill="#0" id="circle200"/>
	<circle cx="537.044" cy="109.839" r="4" fill="#0" id="circle201"/>
	<circle cx="543.779" cy="399.453" r="4" fill="#0" id="circle202"/>
	<circle cx="546.665" cy="109.839" r="4" fill="#0" id="circle203"/>
	<circle cx="547.628" cy="21.3191" r="4" fill="#0" id="circle204"/>
	<circle cx="547.628" cy="30.9408" r="4" fill="#0" id="circle205"/>
	<circle cx="547.628" cy="40.5626" r="4" fill="#0" id="circle206"/>
	<circle cx="547.628" cy="50.1843" r="4" fill="#0" id="circle207"/>
	<circle cx="547.628" cy="59.806" r="4" fill="#0" id="circle208"/>
	<circle cx="547.628" cy="69.4277" r="4" fill="#0" id="circle209"/>
	<circle cx="547.628" cy="79.0495" r="4" fill="#0" id="circle210"/>
	<circle cx="547.628" cy="88.6712" r="4" fill="#0" id="circle211"/>
	<circle cx="547.628" cy="98.2929" r="4" fill="#0" id="circle212"/>
	<circle cx="552.438" cy="11.6974" r="4" fill="#0" id="circle213"/>
	<circle cx="553.401" cy="401.377" r="4" fill="#0" id="circle214"/>
	<circle cx="562.06" cy="6.88652" r="4" fill="#0" id="circle215"/>
	<circle cx="563.022" cy="404.264" r="4" fill="#0" id="circle216"/>
	<circle cx="571.682" cy="4" r="4" fill="#0" id="circle217"/>
	<circle cx="572.644" cy="404.264" r="4" fill="#0" id="circle218"/>
	<circle cx="580.341" cy="8.81086" r="4" fill="#0" id="circle219"/>
	<circle cx="582.266" cy="404.264" r="4" fill="#0" id="circle220"/>
	<circle cx="589.001" cy="13.6217" r="4" fill="#0" id="circle221"/>
	<circle cx="591.887" cy="399.453" r="4" fill="#0" id="circle222"/>
	<circle cx="597.661" cy="18.4326" r="4" fill="#0" id="circle223"/>
	<circle cx="601.509" cy="389.831" r="4" fill="#0" id="circle224"/>
	<circle cx="605.358" cy="25.1678" r="4" fill="#0" id="circle225"/>
	<circle cx="606.32" cy="375.399" r="4" fill="#0" id="circle226"/>
	<circle cx="609.207" cy="34.7895" r="4" fill="#0" id="circle227"/>
	<circle cx="611.131" cy="312.857" r="4" fill="#0" id="circle228"/>
	<circle cx="611.131" cy="322.479" r="4" fill="#0" id="circle229"/>
	<circle cx="611.131" cy="332.101" r="4" fill="#0" id="circle230"/>
	<circle cx="611.131" cy="341.723" r="4" fill="#0" id="circle231"/>
	<circle cx="611.131" cy="351.344" r="4" fill="#0" id="circle232"/>
	<circle cx="611.131" cy="360.966" r="4" fill="#0" id="circle233"/>
	<circle cx="615.942" cy="42.4869" r="4" fill="#0" id="circle234"/>
	<circle cx="619.79" cy="308.047" r="4" fill="#0" id="circle235"/>
	<circle cx="620.753" cy="51.1465" r="4" fill="#0" id="circle236"/>
	<circle cx="625.564" cy="59.806" r="4" fill="#0" id="circle237"/>
	<circle cx="625.564" cy="69.4277" r="4" fill="#0" id="circle238"/>
	<circle cx="625.564" cy="79.0495" r="4" fill="#0" id="circle239"/>
	<circle cx="625.564" cy="88.6712" r="4" fill="#0" id="circle240"/>
	<circle cx="625.564" cy="98.2929" r="4" fill="#0" id="circle241"/>
	<circle cx="625.564" cy="107.915" r="4" fill="#0" id="circle242"/>
	<circle cx="625.564" cy="117.536" r="4" fill="#0" id="circle243"/>
	<circle cx="625.564" cy="127.158" r="4" fill="#0" id="circle244"/>
	<circle cx="625.564" cy="136.78" r="4" fill="#0" id="circle245"/>
	<circle cx="625.564" cy="146.402" r="4" fill="#0" id="circle246"/>
	<circle cx="629.412" cy="156.023" r="4" fill="#0" id="circle247"/>
	<circle cx="629.412" cy="308.047" r="4" fill="#0" id="circle248"/>
	<circle cx="630.374" cy="165.645" r="4" fill="#0" id="circle249"/>
	<circle cx="635.185" cy="174.305" r="4" fill="#0" id="circle250"/>
	<circle cx="639.034" cy="308.047" r="4" fill="#0" id="circle251"/>
	<circle cx="640.958" cy="182.002" r="4" fill="#0" id="circle252"/>
	<circle cx="644.807" cy="191.624" r="4" fill="#0" id="circle253"/>
	<circle cx="648.656" cy="308.047" r="4" fill="#0" id="circle254"/>
	<circle cx="652.504" cy="197.397" r="4" fill="#0" id="circle255"/>
	<circle cx="658.277" cy="308.047" r="4" fill="#0" id="circle256"/>
	<circle cx="659.24" cy="205.094" r="4" fill="#0" id="circle257"/>
	<circle cx="667.899" cy="308.047" r="4" fill="#0" id="circle258"/>
	<circle cx="668.861" cy="206.056" r="4" fill="#0" id="circle259"/>
	<circle cx="677.521" cy="308.047" r="4" fill="#0" id="circle260"/>
	<circle cx="678.483" cy="206.056" r="4" fill="#0" id="circle261"/>
	<circle cx="687.143" cy="308.047" r="4" fill="#0" id="circle262"/>
	<circle cx="688.105" cy="206.056" r="4" fill="#0" id="circle263"/>
	<circle cx="696.764" cy="308.047" r="4" fill="#0" id="circle264"/>
	<circle cx="697.726" cy="206.056" r="4" fill="#0" id="circle265"/>
	<circle cx="701.575" cy="165.645" r="4" fill="#0" id="circle266"/>
	<circle cx="701.575" cy="175.267" r="4" fill="#0" id="circle267"/>
	<circle cx="701.575" cy="184.888" r="4" fill="#0" id="circle268"/>
	<circle cx="701.575" cy="194.51" r="4" fill="#0" id="circle269"/>
	<circle cx="706.386" cy="156.023" r="4" fill="#0" id="circle270"/>
	<circle cx="706.386" cy="308.047" r="4" fill="#0" id="circle271"/>
	<circle cx="714.083" cy="148.326" r="4" fill="#0" id="circle272"/>
	<circle cx="716.008" cy="308.047" r="4" fill="#0" id="circle273"/>
	<circle cx="722.743" cy="143.515" r="4" fill="#0" id="circle274"/>
	<circle cx="725.629" cy="308.047" r="4" fill="#0" id="circle275"/>
	<circle cx="731.403" cy="138.704" r="4" fill="#0" id="circle276"/>
	<circle cx="735.251" cy="308.047" r="4" fill="#0" id="circle277"/>
	<circle cx="741.024" cy="138.704" r="4" fill="#0" id="circle278"/>
	<circle cx="744.873" cy="308.047" r="4" fill="#0" id="circle279"/>
	<circle cx="749.684" cy="133.893" r="4" fill="#0" id="circle280"/>
	<circle cx="754.495" cy="69.4277" r="4" fill="#0" id="circle281"/>
	<circle cx="754.495" cy="79.0495" r="4" fill="#0" id="circle282"/>
	<circle cx="754.495" cy="88.6712" r="4" fill="#0" id="circle283"/>
	<circle cx="754.495" cy="98.2929" r="4" fill="#0" id="circle284"/>
	<circle cx="754.495" cy="107.915" r="4" fill="#0" id="circle285"/>
	<circle cx="754.495" cy="308.047" r="4" fill="#0" id="circle286"/>
	<circle cx="759.306" cy="59.806" r="4" fill="#0" id="circle287"/>
	<circle cx="759.306" cy="116.574" r="4" fill="#0" id="circle288"/>
	<circle cx="759.306" cy="126.196" r="4" fill="#0" id="circle289"/>
	<circle cx="764.116" cy="308.047" r="4" fill="#0" id="circle290"/>
	<circle cx="768.927" cy="54.9952" r="4" fill="#0" id="circle291"/>
	<circle cx="772.776" cy="312.857" r="4" fill="#0" id="circle292"/>
	<circle cx="778.549" cy="52.1086" r="4" fill="#0" id="circle293"/>
	<circle cx="782.398" cy="312.857" r="4" fill="#0" id="circle294"/>
	<circle cx="787.209" cy="47.2978" r="4" fill="#0" id="circle295"/>
	<circle cx="791.057" cy="317.668" r="4" fill="#0" id="circle296"/>
	<circle cx="796.83" cy="47.2978" r="4" fill="#0" id="circle297"/>
	<circle cx="798.755" cy="324.403" r="4" fill="#0" id="circle298"/>
	<circle cx="805.49" cy="332.101" r="4" fill="#0" id="circle299"/>
	<circle cx="806.452" cy="47.2978" r="4" fill="#0" id="circle300"/>
	<circle cx="810.301" cy="340.76" r="4" fill="#0" id="circle301"/>
	<circle cx="814.149" cy="350.382" r="4" fill="#0" id="circle302"/>
	<circle cx="816.074" cy="47.2978" r="4" fill="#0" id="circle303"/>
	<circle cx="818.96" cy="359.042" r="4" fill="#0" id="circle304"/>
	<circle cx="821.847" cy="368.663" r="4" fill="#0" id="circle305"/>
	<circle cx="824.733" cy="52.1086" r="4" fill="#0" id="circle306"/>
	<circle cx="826.658" cy="377.323" r="4" fill="#0" id="circle307"/>
	<circle cx="831.468" cy="385.983" r="4" fill="#0" id="circle308"/>
	<circle cx="833.393" cy="56.9195" r="4" fill="#0" id="circle309"/>
	<circle cx="836.279" cy="394.642" r="4" fill="#0" id="circle310"/>
	<circle cx="841.09" cy="63.6547" r="4" fill="#0" id="circle311"/>
	<circle cx="842.052" cy="402.339" r="4" fill="#0" id="circle312"/>
	<circle cx="849.75" cy="68.4656" r="4" fill="#0" id="circle313"/>
	<circle cx="851.674" cy="406.188" r="4" fill="#0" id="circle314"/>
	<circle cx="854.561" cy="77.1251" r="4" fill="#0" id="circle315"/>
	<circle cx="861.296" cy="84.8225" r="4" fill="#0" id="circle316"/>
	<circle cx="861.296" cy="409.075" r="4" fill="#0" id="circle317"/>
	<circle cx="868.993" cy="91.5577" r="4" fill="#0" id="circle318"/>
	<circle cx="869.955" cy="413.886" r="4" fill="#0" id="circle319"/>
	<circle cx="875.728" cy="99.2551" r="4" fill="#0" id="circle320"/>
	<circle cx="879.577" cy="413.886" r="4" fill="#0" id="circle321"/>
	<circle cx="883.426" cy="105.99" r="4" fill="#0" id="circle322"/>
	<circle cx="888.237" cy="418.696" r="4" fill="#0" id="circle323"/>
	<circle cx="893.048" cy="109.839" r="4" fill="#0" id="circle324"/>
	<circle cx="896.896" cy="423.507" r="4" fill="#0" id="circle325"/>
	<circle cx="902.669" cy="109.839" r="4" fill="#0" id="circle326"/>
	<circle cx="906.518" cy="423.507" r="4" fill="#0" id="circle327"/>
	<circle cx="912.291" cy="109.839" r="4" fill="#0" id="circle328"/>
	<circle cx="916.14" cy="423.507" r="4" fill="#0" id="circle329"/>
	<circle cx="921.913" cy="109.839" r="4" fill="#0" id="circle330"/>
	<circle cx="925.761" cy="423.507" r="4" fill="#0" id="circle331"/>
	<circle cx="930.572" cy="114.65" r="4" fill="#0" id="circle332"/>
	<circle cx="935.383" cy="423.507" r="4" fill="#0" id="circle333"/>
	<circle cx="940.194" cy="114.65" r="4" fill="#0" id="circle334"/>
	<circle cx="945.005" cy="423.507" r="4" fill="#0" id="circle335"/>
	<circle cx="946.929" cy="122.347" r="4" fill="#0" id="circle336"/>
	<circle cx="952.702" cy="130.045" r="4" fill="#0" id="circle337"/>
	<circle cx="952.702" cy="139.666" r="4" fill="#0" id="circle338"/>
	<circle cx="952.702" cy="149.288" r="4" fill="#0" id="circle339"/>
	<circle cx="952.702" cy="158.91" r="4" fill="#0" id="circle340"/>
	<circle cx="952.702" cy="168.532" r="4" fill="#0" id="circle341"/>
	<circle cx="952.702" cy="178.153" r="4" fill="#0" id="circle342"/>
	<circle cx="952.702" cy="187.775" r="4" fill="#0" id="circle343"/>
	<circle cx="952.702" cy="197.397" r="4" fill="#0" id="circle344"/>
	<circle cx="952.702" cy="207.018" r="4" fill="#0" id="circle345"/>
	<circle cx="952.702" cy="216.64" r="4" fill="#0" id="circle346"/>
	<circle cx="953.664" cy="418.696" r="4" fill="#0" id="circle347"/>
	<circle cx="957.513" cy="225.3" r="4" fill="#0" id="circle348"/>
	<circle cx="962.324" cy="413.886" r="4" fill="#0" id="circle349"/>
	<circle cx="965.21" cy="231.073" r="4" fill="#0" id="circle350"/>
	<circle cx="970.021" cy="407.15" r="4" fill="#0" id="circle351"/>
	<circle cx="971.946" cy="238.77" r="4" fill="#0" id="circle352"/>
	<circle cx="976.757" cy="394.642" r="4" fill="#0" id="circle353"/>
	<circle cx="981.567" cy="242.619" r="4" fill="#0" id="circle354"/>
	<circle cx="981.567" cy="380.21" r="4" fill="#0" id="circle355"/>
	<circle cx="986.378" cy="365.777" r="4" fill="#0" id="circle356"/>
	<circle cx="988.303" cy="250.316" r="4" fill="#0" id="circle357"/>
	<circle cx="991.189" cy="336.912" r="4" fill="#0" id="circle358"/>
	<circle cx="991.189" cy="346.533" r="4" fill="#0" id="circle359"/>
	<circle cx="991.189" cy="356.155" r="4" fill="#0" id="circle360"/>
	<circle cx="993.113" cy="258.976" r="4" fill="#0" id="circle361"/>
	<circle cx="996" cy="268.597" r="4" fill="#0" id="circle362"/>
	<circle cx="996" cy="278.219" r="4" fill="#0" id="circle363"/>
	<circle cx="996" cy="287.841" r="4" fill="#0" id="circle364"/>
	<circle cx="996" cy="297.463" r="4" fill="#0" id="circle365"/>
	<circle cx="996" cy="307.084" r="4" fill="#0" id="circle366"/>
	<circle cx="996" cy="316.706" r="4" fill="#0" id="circle367"/>
	<circle cx="996" cy="326.328" r="4" fill="#0" id="circle368"/>
	</g>
</svg>