<?xml version="1.0" encoding="UTF-8" standalone="no"?>
<!-- Created with CurveBenchmark -->
<svg
	xmlns:dc="http://purl.org/dc/elements/1.1/"
	xmlns:cc="http://creativecommons.org/ns#"
	xmlns:rdf="http://www.w3.org/1999/02/22-rdf-syntax-ns#"
	xmlns:svg="http://www.w3.org/2000/svg"
	xmlns="http://www.w3.org/2000/svg"
	xmlns:sodipodi="http://sodipodi.sourceforge.net/DTD/sodipodi-0.dtd"
	xmlns:inkscape="http://www.inkscape.org/namespaces/inkscape"
	width="1000"
	height="1000"
	id="svg2"
	version="1.1"
	sodipodi:docname="manifold/discur-kk0728.png.txt">
<defs
	id="defs4" />
<metadata
	id="metadata7">
	<rdf:RDF>
		<cc:Work
			rdf:about="">
			<dc:format>image/svg+xml</dc:format>
			<dc:type
				rdf:resource="http://purl.org/dc/dcmitype/StillImage" />
			<dc:title></dc:title>
		</cc:Work>
	</rdf:RDF>
</metadata>
<g
	inkscape:label="Layer 1"
	inkscape:groupmode="layer"
	id="layer1">
	<path style="fill:none;stroke:red;stroke-width:1px;stroke-linecap:butt;stroke-linejoin:miter;stroke-opacity:1" d="M 4,309.231 4,325.466 z" id="boundary" inkscape:connector-curvature="0" />
	<path style="fill:none;stroke:red;stroke-width:1px;stroke-linecap:butt;stroke-linejoin:miter;stroke-opacity:1" d="M 4,309.231 12.1178,292.995 z" id="boundary" inkscape:connector-curvature="0" />
	<path style="fill:none;stroke:red;stroke-width:1px;stroke-linecap:butt;stroke-linejoin:miter;stroke-opacity:1" d="M 4,325.466 20.2357,330.337 z" id="boundary" inkscape:connector-curvature="0" />
	<path style="fill:none;stroke:red;stroke-width:1px;stroke-linecap:butt;stroke-linejoin:miter;stroke-opacity:1" d="M 12.1178,292.995 25.1064,280.007 z" id="boundary" inkscape:connector-curvature="0" />
	<path style="fill:none;stroke:red;stroke-width:1px;stroke-linecap:butt;stroke-linejoin:miter;stroke-opacity:1" d="M 20.2357,330.337 29.9771,343.326 z" id="boundary" inkscape:connector-curvature="0" />
	<path style="fill:none;stroke:red;stroke-width:1px;stroke-linecap:butt;stroke-linejoin:miter;stroke-opacity:1" d="M 25.1064,280.007 33.2242,263.771 z" id="boundary" inkscape:connector-curvature="0" />
	<path style="fill:none;stroke:red;stroke-width:1px;stroke-linecap:butt;stroke-linejoin:miter;stroke-opacity:1" d="M 29.9771,343.326 42.9656,354.691 z" id="boundary" inkscape:connector-curvature="0" />
	<path style="fill:none;stroke:red;stroke-width:1px;stroke-linecap:butt;stroke-linejoin:miter;stroke-opacity:1" d="M 33.2242,263.771 46.2128,250.782 z" id="boundary" inkscape:connector-curvature="0" />
	<path style="fill:none;stroke:red;stroke-width:1px;stroke-linecap:butt;stroke-linejoin:miter;stroke-opacity:1" d="M 42.9656,354.691 52.707,367.679 z" id="boundary" inkscape:connector-curvature="0" />
	<path style="fill:none;stroke:red;stroke-width:1px;stroke-linecap:butt;stroke-linejoin:miter;stroke-opacity:1" d="M 46.2128,250.782 59.2013,239.417 z" id="boundary" inkscape:connector-curvature="0" />
	<path style="fill:none;stroke:red;stroke-width:1px;stroke-linecap:butt;stroke-linejoin:miter;stroke-opacity:1" d="M 52.707,367.679 60.8249,382.291 z" id="boundary" inkscape:connector-curvature="0" />
	<path style="fill:none;stroke:red;stroke-width:1px;stroke-linecap:butt;stroke-linejoin:miter;stroke-opacity:1" d="M 59.2013,239.417 65.6956,223.182 z" id="boundary" inkscape:connector-curvature="0" />
	<path style="fill:none;stroke:red;stroke-width:1px;stroke-linecap:butt;stroke-linejoin:miter;stroke-opacity:1" d="M 60.8249,382.291 73.8134,393.656 z" id="boundary" inkscape:connector-curvature="0" />
	<path style="fill:none;stroke:red;stroke-width:1px;stroke-linecap:butt;stroke-linejoin:miter;stroke-opacity:1" d="M 65.6956,223.182 78.6841,210.193 z" id="boundary" inkscape:connector-curvature="0" />
	<path style="fill:none;stroke:red;stroke-width:1px;stroke-linecap:butt;stroke-linejoin:miter;stroke-opacity:1" d="M 73.8134,393.656 85.1784,406.645 z" id="boundary" inkscape:connector-curvature="0" />
	<path style="fill:none;stroke:red;stroke-width:1px;stroke-linecap:butt;stroke-linejoin:miter;stroke-opacity:1" d="M 78.6841,210.193 91.6727,198.828 z" id="boundary" inkscape:connector-curvature="0" />
	<path style="fill:none;stroke:red;stroke-width:1px;stroke-linecap:butt;stroke-linejoin:miter;stroke-opacity:1" d="M 85.1784,406.645 98.1669,418.01 z" id="boundary" inkscape:connector-curvature="0" />
	<path style="fill:none;stroke:red;stroke-width:1px;stroke-linecap:butt;stroke-linejoin:miter;stroke-opacity:1" d="M 91.6727,198.828 103.038,185.84 z" id="boundary" inkscape:connector-curvature="0" />
	<path style="fill:none;stroke:red;stroke-width:1px;stroke-linecap:butt;stroke-linejoin:miter;stroke-opacity:1" d="M 98.1669,418.01 109.532,430.998 z" id="boundary" inkscape:connector-curvature="0" />
	<path style="fill:none;stroke:red;stroke-width:1px;stroke-linecap:butt;stroke-linejoin:miter;stroke-opacity:1" d="M 103.038,185.84 116.026,174.475 z" id="boundary" inkscape:connector-curvature="0" />
	<path style="fill:none;stroke:red;stroke-width:1px;stroke-linecap:butt;stroke-linejoin:miter;stroke-opacity:1" d="M 109.532,430.998 122.52,442.363 z" id="boundary" inkscape:connector-curvature="0" />
	<path style="fill:none;stroke:red;stroke-width:1px;stroke-linecap:butt;stroke-linejoin:miter;stroke-opacity:1" d="M 116.026,174.475 130.638,166.357 z" id="boundary" inkscape:connector-curvature="0" />
	<path style="fill:none;stroke:red;stroke-width:1px;stroke-linecap:butt;stroke-linejoin:miter;stroke-opacity:1" d="M 122.52,442.363 133.885,455.352 z" id="boundary" inkscape:connector-curvature="0" />
	<path style="fill:none;stroke:red;stroke-width:1px;stroke-linecap:butt;stroke-linejoin:miter;stroke-opacity:1" d="M 130.638,166.357 138.756,150.121 z" id="boundary" inkscape:connector-curvature="0" />
	<path style="fill:none;stroke:red;stroke-width:1px;stroke-linecap:butt;stroke-linejoin:miter;stroke-opacity:1" d="M 133.885,455.352 146.874,466.717 z" id="boundary" inkscape:connector-curvature="0" />
	<path style="fill:none;stroke:red;stroke-width:1px;stroke-linecap:butt;stroke-linejoin:miter;stroke-opacity:1" d="M 138.756,150.121 153.368,142.003 z" id="boundary" inkscape:connector-curvature="0" />
	<path style="fill:none;stroke:red;stroke-width:1px;stroke-linecap:butt;stroke-linejoin:miter;stroke-opacity:1" d="M 146.874,466.717 158.239,479.705 z" id="boundary" inkscape:connector-curvature="0" />
	<path style="fill:none;stroke:red;stroke-width:1px;stroke-linecap:butt;stroke-linejoin:miter;stroke-opacity:1" d="M 153.368,142.003 161.486,127.391 z" id="boundary" inkscape:connector-curvature="0" />
	<path style="fill:none;stroke:red;stroke-width:1px;stroke-linecap:butt;stroke-linejoin:miter;stroke-opacity:1" d="M 158.239,479.705 166.357,494.318 z" id="boundary" inkscape:connector-curvature="0" />
	<path style="fill:none;stroke:red;stroke-width:1px;stroke-linecap:butt;stroke-linejoin:miter;stroke-opacity:1" d="M 161.486,127.391 174.475,114.403 z" id="boundary" inkscape:connector-curvature="0" />
	<path style="fill:none;stroke:red;stroke-width:1px;stroke-linecap:butt;stroke-linejoin:miter;stroke-opacity:1" d="M 166.357,494.318 177.722,507.306 z" id="boundary" inkscape:connector-curvature="0" />
	<path style="fill:none;stroke:red;stroke-width:1px;stroke-linecap:butt;stroke-linejoin:miter;stroke-opacity:1" d="M 174.475,114.403 187.463,101.414 z" id="boundary" inkscape:connector-curvature="0" />
	<path style="fill:none;stroke:red;stroke-width:1px;stroke-linecap:butt;stroke-linejoin:miter;stroke-opacity:1" d="M 177.722,507.306 190.71,517.047 z" id="boundary" inkscape:connector-curvature="0" />
	<path style="fill:none;stroke:red;stroke-width:1px;stroke-linecap:butt;stroke-linejoin:miter;stroke-opacity:1" d="M 187.463,101.414 195.581,85.1784 z" id="boundary" inkscape:connector-curvature="0" />
	<path style="fill:none;stroke:red;stroke-width:1px;stroke-linecap:butt;stroke-linejoin:miter;stroke-opacity:1" d="M 190.71,517.047 195.581,533.283 z" id="boundary" inkscape:connector-curvature="0" />
	<path style="fill:none;stroke:red;stroke-width:1px;stroke-linecap:butt;stroke-linejoin:miter;stroke-opacity:1" d="M 195.581,85.1784 208.57,72.1899 z" id="boundary" inkscape:connector-curvature="0" />
	<path style="fill:none;stroke:red;stroke-width:1px;stroke-linecap:butt;stroke-linejoin:miter;stroke-opacity:1" d="M 195.581,533.283 208.57,544.648 z" id="boundary" inkscape:connector-curvature="0" />
	<path style="fill:none;stroke:red;stroke-width:1px;stroke-linecap:butt;stroke-linejoin:miter;stroke-opacity:1" d="M 208.57,72.1899 221.558,60.8249 z" id="boundary" inkscape:connector-curvature="0" />
	<path style="fill:none;stroke:red;stroke-width:1px;stroke-linecap:butt;stroke-linejoin:miter;stroke-opacity:1" d="M 208.57,544.648 219.935,557.637 z" id="boundary" inkscape:connector-curvature="0" />
	<path style="fill:none;stroke:red;stroke-width:1px;stroke-linecap:butt;stroke-linejoin:miter;stroke-opacity:1" d="M 219.935,557.637 228.052,572.249 z" id="boundary" inkscape:connector-curvature="0" />
	<path style="fill:none;stroke:red;stroke-width:1px;stroke-linecap:butt;stroke-linejoin:miter;stroke-opacity:1" d="M 221.558,60.8249 232.923,47.8363 z" id="boundary" inkscape:connector-curvature="0" />
	<path style="fill:none;stroke:red;stroke-width:1px;stroke-linecap:butt;stroke-linejoin:miter;stroke-opacity:1" d="M 228.052,572.249 239.417,585.237 z" id="boundary" inkscape:connector-curvature="0" />
	<path style="fill:none;stroke:red;stroke-width:1px;stroke-linecap:butt;stroke-linejoin:miter;stroke-opacity:1" d="M 232.923,47.8363 245.912,36.4714 z" id="boundary" inkscape:connector-curvature="0" />
	<path style="fill:none;stroke:red;stroke-width:1px;stroke-linecap:butt;stroke-linejoin:miter;stroke-opacity:1" d="M 239.417,585.237 252.406,596.602 z" id="boundary" inkscape:connector-curvature="0" />
	<path style="fill:none;stroke:red;stroke-width:1px;stroke-linecap:butt;stroke-linejoin:miter;stroke-opacity:1" d="M 245.912,36.4714 257.277,23.4828 z" id="boundary" inkscape:connector-curvature="0" />
	<path style="fill:none;stroke:red;stroke-width:1px;stroke-linecap:butt;stroke-linejoin:miter;stroke-opacity:1" d="M 252.406,596.602 267.018,604.72 z" id="boundary" inkscape:connector-curvature="0" />
	<path style="fill:none;stroke:red;stroke-width:1px;stroke-linecap:butt;stroke-linejoin:miter;stroke-opacity:1" d="M 257.277,23.4828 270.265,12.1178 z" id="boundary" inkscape:connector-curvature="0" />
	<path style="fill:none;stroke:red;stroke-width:1px;stroke-linecap:butt;stroke-linejoin:miter;stroke-opacity:1" d="M 267.018,604.72 283.254,606.344 z" id="boundary" inkscape:connector-curvature="0" />
	<path style="fill:none;stroke:red;stroke-width:1px;stroke-linecap:butt;stroke-linejoin:miter;stroke-opacity:1" d="M 270.265,12.1178 284.877,4 z" id="boundary" inkscape:connector-curvature="0" />
	<path style="fill:none;stroke:red;stroke-width:1px;stroke-linecap:butt;stroke-linejoin:miter;stroke-opacity:1" d="M 283.254,606.344 299.489,606.344 z" id="boundary" inkscape:connector-curvature="0" />
	<path style="fill:none;stroke:red;stroke-width:1px;stroke-linecap:butt;stroke-linejoin:miter;stroke-opacity:1" d="M 284.877,4 301.113,4 z" id="boundary" inkscape:connector-curvature="0" />
	<path style="fill:none;stroke:red;stroke-width:1px;stroke-linecap:butt;stroke-linejoin:miter;stroke-opacity:1" d="M 299.489,606.344 314.101,598.226 z" id="boundary" inkscape:connector-curvature="0" />
	<path style="fill:none;stroke:red;stroke-width:1px;stroke-linecap:butt;stroke-linejoin:miter;stroke-opacity:1" d="M 301.113,4 315.725,12.1178 z" id="boundary" inkscape:connector-curvature="0" />
	<path style="fill:none;stroke:red;stroke-width:1px;stroke-linecap:butt;stroke-linejoin:miter;stroke-opacity:1" d="M 314.101,598.226 330.337,598.226 z" id="boundary" inkscape:connector-curvature="0" />
	<path style="fill:none;stroke:red;stroke-width:1px;stroke-linecap:butt;stroke-linejoin:miter;stroke-opacity:1" d="M 315.725,12.1178 330.337,20.2357 z" id="boundary" inkscape:connector-curvature="0" />
	<path style="fill:none;stroke:red;stroke-width:1px;stroke-linecap:butt;stroke-linejoin:miter;stroke-opacity:1" d="M 330.337,20.2357 343.326,29.9771 z" id="boundary" inkscape:connector-curvature="0" />
	<path style="fill:none;stroke:red;stroke-width:1px;stroke-linecap:butt;stroke-linejoin:miter;stroke-opacity:1" d="M 330.337,598.226 343.326,586.861 z" id="boundary" inkscape:connector-curvature="0" />
	<path style="fill:none;stroke:red;stroke-width:1px;stroke-linecap:butt;stroke-linejoin:miter;stroke-opacity:1" d="M 343.326,29.9771 354.691,42.9656 z" id="boundary" inkscape:connector-curvature="0" />
	<path style="fill:none;stroke:red;stroke-width:1px;stroke-linecap:butt;stroke-linejoin:miter;stroke-opacity:1" d="M 343.326,586.861 354.691,573.872 z" id="boundary" inkscape:connector-curvature="0" />
	<path style="fill:none;stroke:red;stroke-width:1px;stroke-linecap:butt;stroke-linejoin:miter;stroke-opacity:1" d="M 354.691,42.9656 367.679,52.707 z" id="boundary" inkscape:connector-curvature="0" />
	<path style="fill:none;stroke:red;stroke-width:1px;stroke-linecap:butt;stroke-linejoin:miter;stroke-opacity:1" d="M 354.691,573.872 367.679,562.507 z" id="boundary" inkscape:connector-curvature="0" />
	<path style="fill:none;stroke:red;stroke-width:1px;stroke-linecap:butt;stroke-linejoin:miter;stroke-opacity:1" d="M 367.679,52.707 382.291,60.8249 z" id="boundary" inkscape:connector-curvature="0" />
	<path style="fill:none;stroke:red;stroke-width:1px;stroke-linecap:butt;stroke-linejoin:miter;stroke-opacity:1" d="M 367.679,562.507 383.915,554.39 z" id="boundary" inkscape:connector-curvature="0" />
	<path style="fill:none;stroke:red;stroke-width:1px;stroke-linecap:butt;stroke-linejoin:miter;stroke-opacity:1" d="M 382.291,60.8249 393.656,73.8134 z" id="boundary" inkscape:connector-curvature="0" />
	<path style="fill:none;stroke:red;stroke-width:1px;stroke-linecap:butt;stroke-linejoin:miter;stroke-opacity:1" d="M 383.915,554.39 393.656,541.401 z" id="boundary" inkscape:connector-curvature="0" />
	<path style="fill:none;stroke:red;stroke-width:1px;stroke-linecap:butt;stroke-linejoin:miter;stroke-opacity:1" d="M 393.656,73.8134 403.398,86.802 z" id="boundary" inkscape:connector-curvature="0" />
	<path style="fill:none;stroke:red;stroke-width:1px;stroke-linecap:butt;stroke-linejoin:miter;stroke-opacity:1" d="M 393.656,541.401 408.268,533.283 z" id="boundary" inkscape:connector-curvature="0" />
	<path style="fill:none;stroke:red;stroke-width:1px;stroke-linecap:butt;stroke-linejoin:miter;stroke-opacity:1" d="M 403.398,86.802 416.386,96.5434 z" id="boundary" inkscape:connector-curvature="0" />
	<path style="fill:none;stroke:red;stroke-width:1px;stroke-linecap:butt;stroke-linejoin:miter;stroke-opacity:1" d="M 408.268,533.283 419.633,517.047 z" id="boundary" inkscape:connector-curvature="0" />
	<path style="fill:none;stroke:red;stroke-width:1px;stroke-linecap:butt;stroke-linejoin:miter;stroke-opacity:1" d="M 416.386,96.5434 432.622,103.038 z" id="boundary" inkscape:connector-curvature="0" />
	<path style="fill:none;stroke:red;stroke-width:1px;stroke-linecap:butt;stroke-linejoin:miter;stroke-opacity:1" d="M 419.633,517.047 435.869,500.812 z" id="boundary" inkscape:connector-curvature="0" />
	<path style="fill:none;stroke:red;stroke-width:1px;stroke-linecap:butt;stroke-linejoin:miter;stroke-opacity:1" d="M 432.622,103.038 439.116,119.273 z" id="boundary" inkscape:connector-curvature="0" />
	<path style="fill:none;stroke:red;stroke-width:1px;stroke-linecap:butt;stroke-linejoin:miter;stroke-opacity:1" d="M 435.869,500.812 448.858,489.447 z" id="boundary" inkscape:connector-curvature="0" />
	<path style="fill:none;stroke:red;stroke-width:1px;stroke-linecap:butt;stroke-linejoin:miter;stroke-opacity:1" d="M 439.116,119.273 452.105,130.638 z" id="boundary" inkscape:connector-curvature="0" />
	<path style="fill:none;stroke:red;stroke-width:1px;stroke-linecap:butt;stroke-linejoin:miter;stroke-opacity:1" d="M 448.858,489.447 460.223,468.34 z" id="boundary" inkscape:connector-curvature="0" />
	<path style="fill:none;stroke:red;stroke-width:1px;stroke-linecap:butt;stroke-linejoin:miter;stroke-opacity:1" d="M 452.105,130.638 463.47,143.627 z" id="boundary" inkscape:connector-curvature="0" />
	<path style="fill:none;stroke:red;stroke-width:1px;stroke-linecap:butt;stroke-linejoin:miter;stroke-opacity:1" d="M 460.223,468.34 468.34,452.105 z" id="boundary" inkscape:connector-curvature="0" />
	<path style="fill:none;stroke:red;stroke-width:1px;stroke-linecap:butt;stroke-linejoin:miter;stroke-opacity:1" d="M 463.47,143.627 476.458,154.992 z" id="boundary" inkscape:connector-curvature="0" />
	<path style="fill:none;stroke:red;stroke-width:1px;stroke-linecap:butt;stroke-linejoin:miter;stroke-opacity:1" d="M 468.34,452.105 476.458,435.869 z" id="boundary" inkscape:connector-curvature="0" />
	<path style="fill:none;stroke:red;stroke-width:1px;stroke-linecap:butt;stroke-linejoin:miter;stroke-opacity:1" d="M 476.458,154.992 476.458,171.227 z" id="boundary" inkscape:connector-curvature="0" />
	<path style="fill:none;stroke:red;stroke-width:1px;stroke-linecap:butt;stroke-linejoin:miter;stroke-opacity:1" d="M 476.458,171.227 484.576,185.84 z" id="boundary" inkscape:connector-curvature="0" />
	<path style="fill:none;stroke:red;stroke-width:1px;stroke-linecap:butt;stroke-linejoin:miter;stroke-opacity:1" d="M 476.458,435.869 484.576,411.516 z" id="boundary" inkscape:connector-curvature="0" />
	<path style="fill:none;stroke:red;stroke-width:1px;stroke-linecap:butt;stroke-linejoin:miter;stroke-opacity:1" d="M 484.576,185.84 489.447,202.075 z" id="boundary" inkscape:connector-curvature="0" />
	<path style="fill:none;stroke:red;stroke-width:1px;stroke-linecap:butt;stroke-linejoin:miter;stroke-opacity:1" d="M 484.576,411.516 492.694,387.162 z" id="boundary" inkscape:connector-curvature="0" />
	<path style="fill:none;stroke:red;stroke-width:1px;stroke-linecap:butt;stroke-linejoin:miter;stroke-opacity:1" d="M 489.447,202.075 497.565,216.687 z" id="boundary" inkscape:connector-curvature="0" />
	<path style="fill:none;stroke:red;stroke-width:1px;stroke-linecap:butt;stroke-linejoin:miter;stroke-opacity:1" d="M 492.694,387.162 507.306,379.044 z" id="boundary" inkscape:connector-curvature="0" />
	<path style="fill:none;stroke:red;stroke-width:1px;stroke-linecap:butt;stroke-linejoin:miter;stroke-opacity:1" d="M 497.565,216.687 508.93,229.676 z" id="boundary" inkscape:connector-curvature="0" />
	<path style="fill:none;stroke:red;stroke-width:1px;stroke-linecap:butt;stroke-linejoin:miter;stroke-opacity:1" d="M 507.306,379.044 521.918,370.926 z" id="boundary" inkscape:connector-curvature="0" />
	<path style="fill:none;stroke:red;stroke-width:1px;stroke-linecap:butt;stroke-linejoin:miter;stroke-opacity:1" d="M 508.93,229.676 525.165,231.3 z" id="boundary" inkscape:connector-curvature="0" />
	<path style="fill:none;stroke:red;stroke-width:1px;stroke-linecap:butt;stroke-linejoin:miter;stroke-opacity:1" d="M 521.918,370.926 538.154,367.679 z" id="boundary" inkscape:connector-curvature="0" />
	<path style="fill:none;stroke:red;stroke-width:1px;stroke-linecap:butt;stroke-linejoin:miter;stroke-opacity:1" d="M 525.165,231.3 541.401,236.17 z" id="boundary" inkscape:connector-curvature="0" />
	<path style="fill:none;stroke:red;stroke-width:1px;stroke-linecap:butt;stroke-linejoin:miter;stroke-opacity:1" d="M 538.154,367.679 554.39,359.561 z" id="boundary" inkscape:connector-curvature="0" />
	<path style="fill:none;stroke:red;stroke-width:1px;stroke-linecap:butt;stroke-linejoin:miter;stroke-opacity:1" d="M 541.401,236.17 556.013,244.288 z" id="boundary" inkscape:connector-curvature="0" />
	<path style="fill:none;stroke:red;stroke-width:1px;stroke-linecap:butt;stroke-linejoin:miter;stroke-opacity:1" d="M 554.39,359.561 565.755,346.573 z" id="boundary" inkscape:connector-curvature="0" />
	<path style="fill:none;stroke:red;stroke-width:1px;stroke-linecap:butt;stroke-linejoin:miter;stroke-opacity:1" d="M 556.013,244.288 572.249,250.782 z" id="boundary" inkscape:connector-curvature="0" />
	<path style="fill:none;stroke:red;stroke-width:1px;stroke-linecap:butt;stroke-linejoin:miter;stroke-opacity:1" d="M 565.755,346.573 580.367,338.455 z" id="boundary" inkscape:connector-curvature="0" />
	<path style="fill:none;stroke:red;stroke-width:1px;stroke-linecap:butt;stroke-linejoin:miter;stroke-opacity:1" d="M 572.249,250.782 581.99,263.771 z" id="boundary" inkscape:connector-curvature="0" />
	<path style="fill:none;stroke:red;stroke-width:1px;stroke-linecap:butt;stroke-linejoin:miter;stroke-opacity:1" d="M 580.367,338.455 594.979,330.337 z" id="boundary" inkscape:connector-curvature="0" />
	<path style="fill:none;stroke:red;stroke-width:1px;stroke-linecap:butt;stroke-linejoin:miter;stroke-opacity:1" d="M 581.99,263.771 598.226,263.771 z" id="boundary" inkscape:connector-curvature="0" />
	<path style="fill:none;stroke:red;stroke-width:1px;stroke-linecap:butt;stroke-linejoin:miter;stroke-opacity:1" d="M 594.979,330.337 609.591,322.219 z" id="boundary" inkscape:connector-curvature="0" />
	<path style="fill:none;stroke:red;stroke-width:1px;stroke-linecap:butt;stroke-linejoin:miter;stroke-opacity:1" d="M 598.226,263.771 614.462,268.642 z" id="boundary" inkscape:connector-curvature="0" />
	<path style="fill:none;stroke:red;stroke-width:1px;stroke-linecap:butt;stroke-linejoin:miter;stroke-opacity:1" d="M 609.591,322.219 625.827,322.219 z" id="boundary" inkscape:connector-curvature="0" />
	<path style="fill:none;stroke:red;stroke-width:1px;stroke-linecap:butt;stroke-linejoin:miter;stroke-opacity:1" d="M 614.462,268.642 630.697,271.889 z" id="boundary" inkscape:connector-curvature="0" />
	<path style="fill:none;stroke:red;stroke-width:1px;stroke-linecap:butt;stroke-linejoin:miter;stroke-opacity:1" d="M 625.827,322.219 642.062,322.219 z" id="boundary" inkscape:connector-curvature="0" />
	<path style="fill:none;stroke:red;stroke-width:1px;stroke-linecap:butt;stroke-linejoin:miter;stroke-opacity:1" d="M 630.697,271.889 646.933,271.889 z" id="boundary" inkscape:connector-curvature="0" />
	<path style="fill:none;stroke:red;stroke-width:1px;stroke-linecap:butt;stroke-linejoin:miter;stroke-opacity:1" d="M 642.062,322.219 658.298,322.219 z" id="boundary" inkscape:connector-curvature="0" />
	<path style="fill:none;stroke:red;stroke-width:1px;stroke-linecap:butt;stroke-linejoin:miter;stroke-opacity:1" d="M 646.933,271.889 661.545,280.007 z" id="boundary" inkscape:connector-curvature="0" />
	<path style="fill:none;stroke:red;stroke-width:1px;stroke-linecap:butt;stroke-linejoin:miter;stroke-opacity:1" d="M 658.298,322.219 674.534,322.219 z" id="boundary" inkscape:connector-curvature="0" />
	<path style="fill:none;stroke:red;stroke-width:1px;stroke-linecap:butt;stroke-linejoin:miter;stroke-opacity:1" d="M 661.545,280.007 677.781,280.007 z" id="boundary" inkscape:connector-curvature="0" />
	<path style="fill:none;stroke:red;stroke-width:1px;stroke-linecap:butt;stroke-linejoin:miter;stroke-opacity:1" d="M 674.534,322.219 690.769,322.219 z" id="boundary" inkscape:connector-curvature="0" />
	<path style="fill:none;stroke:red;stroke-width:1px;stroke-linecap:butt;stroke-linejoin:miter;stroke-opacity:1" d="M 677.781,280.007 694.016,280.007 z" id="boundary" inkscape:connector-curvature="0" />
	<path style="fill:none;stroke:red;stroke-width:1px;stroke-linecap:butt;stroke-linejoin:miter;stroke-opacity:1" d="M 690.769,322.219 707.005,322.219 z" id="boundary" inkscape:connector-curvature="0" />
	<path style="fill:none;stroke:red;stroke-width:1px;stroke-linecap:butt;stroke-linejoin:miter;stroke-opacity:1" d="M 694.016,280.007 710.252,280.007 z" id="boundary" inkscape:connector-curvature="0" />
	<path style="fill:none;stroke:red;stroke-width:1px;stroke-linecap:butt;stroke-linejoin:miter;stroke-opacity:1" d="M 707.005,322.219 723.241,322.219 z" id="boundary" inkscape:connector-curvature="0" />
	<path style="fill:none;stroke:red;stroke-width:1px;stroke-linecap:butt;stroke-linejoin:miter;stroke-opacity:1" d="M 710.252,280.007 726.488,280.007 z" id="boundary" inkscape:connector-curvature="0" />
	<path style="fill:none;stroke:red;stroke-width:1px;stroke-linecap:butt;stroke-linejoin:miter;stroke-opacity:1" d="M 723.241,322.219 739.476,322.219 z" id="boundary" inkscape:connector-curvature="0" />
	<path style="fill:none;stroke:red;stroke-width:1px;stroke-linecap:butt;stroke-linejoin:miter;stroke-opacity:1" d="M 726.488,280.007 742.723,280.007 z" id="boundary" inkscape:connector-curvature="0" />
	<path style="fill:none;stroke:red;stroke-width:1px;stroke-linecap:butt;stroke-linejoin:miter;stroke-opacity:1" d="M 739.476,322.219 755.712,322.219 z" id="boundary" inkscape:connector-curvature="0" />
	<path style="fill:none;stroke:red;stroke-width:1px;stroke-linecap:butt;stroke-linejoin:miter;stroke-opacity:1" d="M 742.723,280.007 758.959,280.007 z" id="boundary" inkscape:connector-curvature="0" />
	<path style="fill:none;stroke:red;stroke-width:1px;stroke-linecap:butt;stroke-linejoin:miter;stroke-opacity:1" d="M 755.712,322.219 771.948,322.219 z" id="boundary" inkscape:connector-curvature="0" />
	<path style="fill:none;stroke:red;stroke-width:1px;stroke-linecap:butt;stroke-linejoin:miter;stroke-opacity:1" d="M 758.959,280.007 775.195,280.007 z" id="boundary" inkscape:connector-curvature="0" />
	<path style="fill:none;stroke:red;stroke-width:1px;stroke-linecap:butt;stroke-linejoin:miter;stroke-opacity:1" d="M 771.948,322.219 788.183,322.219 z" id="boundary" inkscape:connector-curvature="0" />
	<path style="fill:none;stroke:red;stroke-width:1px;stroke-linecap:butt;stroke-linejoin:miter;stroke-opacity:1" d="M 775.195,280.007 791.43,280.007 z" id="boundary" inkscape:connector-curvature="0" />
	<path style="fill:none;stroke:red;stroke-width:1px;stroke-linecap:butt;stroke-linejoin:miter;stroke-opacity:1" d="M 788.183,322.219 804.419,322.219 z" id="boundary" inkscape:connector-curvature="0" />
	<path style="fill:none;stroke:red;stroke-width:1px;stroke-linecap:butt;stroke-linejoin:miter;stroke-opacity:1" d="M 791.43,280.007 807.666,280.007 z" id="boundary" inkscape:connector-curvature="0" />
	<path style="fill:none;stroke:red;stroke-width:1px;stroke-linecap:butt;stroke-linejoin:miter;stroke-opacity:1" d="M 804.419,322.219 820.655,322.219 z" id="boundary" inkscape:connector-curvature="0" />
	<path style="fill:none;stroke:red;stroke-width:1px;stroke-linecap:butt;stroke-linejoin:miter;stroke-opacity:1" d="M 807.666,280.007 823.902,280.007 z" id="boundary" inkscape:connector-curvature="0" />
	<path style="fill:none;stroke:red;stroke-width:1px;stroke-linecap:butt;stroke-linejoin:miter;stroke-opacity:1" d="M 820.655,322.219 835.267,314.101 z" id="boundary" inkscape:connector-curvature="0" />
	<path style="fill:none;stroke:red;stroke-width:1px;stroke-linecap:butt;stroke-linejoin:miter;stroke-opacity:1" d="M 823.902,280.007 840.137,280.007 z" id="boundary" inkscape:connector-curvature="0" />
	<path style="fill:none;stroke:red;stroke-width:1px;stroke-linecap:butt;stroke-linejoin:miter;stroke-opacity:1" d="M 835.267,314.101 851.502,314.101 z" id="boundary" inkscape:connector-curvature="0" />
	<path style="fill:none;stroke:red;stroke-width:1px;stroke-linecap:butt;stroke-linejoin:miter;stroke-opacity:1" d="M 840.137,280.007 856.373,280.007 z" id="boundary" inkscape:connector-curvature="0" />
	<path style="fill:none;stroke:red;stroke-width:1px;stroke-linecap:butt;stroke-linejoin:miter;stroke-opacity:1" d="M 851.502,314.101 867.738,314.101 z" id="boundary" inkscape:connector-curvature="0" />
	<path style="fill:none;stroke:red;stroke-width:1px;stroke-linecap:butt;stroke-linejoin:miter;stroke-opacity:1" d="M 856.373,280.007 870.985,288.124 z" id="boundary" inkscape:connector-curvature="0" />
	<path style="fill:none;stroke:red;stroke-width:1px;stroke-linecap:butt;stroke-linejoin:miter;stroke-opacity:1" d="M 867.738,314.101 883.974,314.101 z" id="boundary" inkscape:connector-curvature="0" />
	<path style="fill:none;stroke:red;stroke-width:1px;stroke-linecap:butt;stroke-linejoin:miter;stroke-opacity:1" d="M 870.985,288.124 887.221,288.124 z" id="boundary" inkscape:connector-curvature="0" />
	<path style="fill:none;stroke:red;stroke-width:1px;stroke-linecap:butt;stroke-linejoin:miter;stroke-opacity:1" d="M 883.974,314.101 900.209,314.101 z" id="boundary" inkscape:connector-curvature="0" />
	<path style="fill:none;stroke:red;stroke-width:1px;stroke-linecap:butt;stroke-linejoin:miter;stroke-opacity:1" d="M 887.221,288.124 903.457,288.124 z" id="boundary" inkscape:connector-curvature="0" />
	<path style="fill:none;stroke:red;stroke-width:1px;stroke-linecap:butt;stroke-linejoin:miter;stroke-opacity:1" d="M 900.209,314.101 916.445,314.101 z" id="boundary" inkscape:connector-curvature="0" />
	<path style="fill:none;stroke:red;stroke-width:1px;stroke-linecap:butt;stroke-linejoin:miter;stroke-opacity:1" d="M 903.457,288.124 919.692,288.124 z" id="boundary" inkscape:connector-curvature="0" />
	<path style="fill:none;stroke:red;stroke-width:1px;stroke-linecap:butt;stroke-linejoin:miter;stroke-opacity:1" d="M 916.445,314.101 932.681,314.101 z" id="boundary" inkscape:connector-curvature="0" />
	<path style="fill:none;stroke:red;stroke-width:1px;stroke-linecap:butt;stroke-linejoin:miter;stroke-opacity:1" d="M 919.692,288.124 935.928,288.124 z" id="boundary" inkscape:connector-curvature="0" />
	<path style="fill:none;stroke:red;stroke-width:1px;stroke-linecap:butt;stroke-linejoin:miter;stroke-opacity:1" d="M 932.681,314.101 948.917,318.972 z" id="boundary" inkscape:connector-curvature="0" />
	<path style="fill:none;stroke:red;stroke-width:1px;stroke-linecap:butt;stroke-linejoin:miter;stroke-opacity:1" d="M 935.928,288.124 950.54,296.242 z" id="boundary" inkscape:connector-curvature="0" />
	<path style="fill:none;stroke:red;stroke-width:1px;stroke-linecap:butt;stroke-linejoin:miter;stroke-opacity:1" d="M 948.917,318.972 965.152,322.219 z" id="boundary" inkscape:connector-curvature="0" />
	<path style="fill:none;stroke:red;stroke-width:1px;stroke-linecap:butt;stroke-linejoin:miter;stroke-opacity:1" d="M 950.54,296.242 966.776,296.242 z" id="boundary" inkscape:connector-curvature="0" />
	<path style="fill:none;stroke:red;stroke-width:1px;stroke-linecap:butt;stroke-linejoin:miter;stroke-opacity:1" d="M 965.152,322.219 981.388,322.219 z" id="boundary" inkscape:connector-curvature="0" />
	<path style="fill:none;stroke:red;stroke-width:1px;stroke-linecap:butt;stroke-linejoin:miter;stroke-opacity:1" d="M 966.776,296.242 981.388,304.36 z" id="boundary" inkscape:connector-curvature="0" />
	<path style="fill:none;stroke:red;stroke-width:1px;stroke-linecap:butt;stroke-linejoin:miter;stroke-opacity:1" d="M 981.388,304.36 996,312.478 z" id="boundary" inkscape:connector-curvature="0" />
	<path style="fill:none;stroke:red;stroke-width:1px;stroke-linecap:butt;stroke-linejoin:miter;stroke-opacity:1" d="M 981.388,322.219 996,312.478 z" id="boundary" inkscape:connector-curvature="0" />
	<circle cx="4" cy="309.231" r="4" fill="#0" id="circle0"/>
	<circle cx="4" cy="325.466" r="4" fill="#0" id="circle1"/>
	<circle cx="12.1178" cy="292.995" r="4" fill="#0" id="circle2"/>
	<circle cx="20.2357" cy="330.337" r="4" fill="#0" id="circle3"/>
	<circle cx="25.1064" cy="280.007" r="4" fill="#0" id="circle4"/>
	<circle cx="29.9771" cy="343.326" r="4" fill="#0" id="circle5"/>
	<circle cx="33.2242" cy="263.771" r="4" fill="#0" id="circle6"/>
	<circle cx="42.9656" cy="354.691" r="4" fill="#0" id="circle7"/>
	<circle cx="46.2128" cy="250.782" r="4" fill="#0" id="circle8"/>
	<circle cx="52.707" cy="367.679" r="4" fill="#0" id="circle9"/>
	<circle cx="59.2013" cy="239.417" r="4" fill="#0" id="circle10"/>
	<circle cx="60.8249" cy="382.291" r="4" fill="#0" id="circle11"/>
	<circle cx="65.6956" cy="223.182" r="4" fill="#0" id="circle12"/>
	<circle cx="73.8134" cy="393.656" r="4" fill="#0" id="circle13"/>
	<circle cx="78.6841" cy="210.193" r="4" fill="#0" id="circle14"/>
	<circle cx="85.1784" cy="406.645" r="4" fill="#0" id="circle15"/>
	<circle cx="91.6727" cy="198.828" r="4" fill="#0" id="circle16"/>
	<circle cx="98.1669" cy="418.01" r="4" fill="#0" id="circle17"/>
	<circle cx="103.038" cy="185.84" r="4" fill="#0" id="circle18"/>
	<circle cx="109.532" cy="430.998" r="4" fill="#0" id="circle19"/>
	<circle cx="116.026" cy="174.475" r="4" fill="#0" id="circle20"/>
	<circle cx="122.52" cy="442.363" r="4" fill="#0" id="circle21"/>
	<circle cx="130.638" cy="166.357" r="4" fill="#0" id="circle22"/>
	<circle cx="133.885" cy="455.352" r="4" fill="#0" id="circle23"/>
	<circle cx="138.756" cy="150.121" r="4" fill="#0" id="circle24"/>
	<circle cx="146.874" cy="466.717" r="4" fill="#0" id="circle25"/>
	<circle cx="153.368" cy="142.003" r="4" fill="#0" id="circle26"/>
	<circle cx="158.239" cy="479.705" r="4" fill="#0" id="circle27"/>
	<circle cx="161.486" cy="127.391" r="4" fill="#0" id="circle28"/>
	<circle cx="166.357" cy="494.318" r="4" fill="#0" id="circle29"/>
	<circle cx="174.475" cy="114.403" r="4" fill="#0" id="circle30"/>
	<circle cx="177.722" cy="507.306" r="4" fill="#0" id="circle31"/>
	<circle cx="187.463" cy="101.414" r="4" fill="#0" id="circle32"/>
	<circle cx="190.71" cy="517.047" r="4" fill="#0" id="circle33"/>
	<circle cx="195.581" cy="85.1784" r="4" fill="#0" id="circle34"/>
	<circle cx="195.581" cy="533.283" r="4" fill="#0" id="circle35"/>
	<circle cx="208.57" cy="72.1899" r="4" fill="#0" id="circle36"/>
	<circle cx="208.57" cy="544.648" r="4" fill="#0" id="circle37"/>
	<circle cx="219.935" cy="557.637" r="4" fill="#0" id="circle38"/>
	<circle cx="221.558" cy="60.8249" r="4" fill="#0" id="circle39"/>
	<circle cx="228.052" cy="572.249" r="4" fill="#0" id="circle40"/>
	<circle cx="232.923" cy="47.8363" r="4" fill="#0" id="circle41"/>
	<circle cx="239.417" cy="585.237" r="4" fill="#0" id="circle42"/>
	<circle cx="245.912" cy="36.4714" r="4" fill="#0" id="circle43"/>
	<circle cx="252.406" cy="596.602" r="4" fill="#0" id="circle44"/>
	<circle cx="257.277" cy="23.4828" r="4" fill="#0" id="circle45"/>
	<circle cx="267.018" cy="604.72" r="4" fill="#0" id="circle46"/>
	<circle cx="270.265" cy="12.1178" r="4" fill="#0" id="circle47"/>
	<circle cx="283.254" cy="606.344" r="4" fill="#0" id="circle48"/>
	<circle cx="284.877" cy="4" r="4" fill="#0" id="circle49"/>
	<circle cx="299.489" cy="606.344" r="4" fill="#0" id="circle50"/>
	<circle cx="301.113" cy="4" r="4" fill="#0" id="circle51"/>
	<circle cx="314.101" cy="598.226" r="4" fill="#0" id="circle52"/>
	<circle cx="315.725" cy="12.1178" r="4" fill="#0" id="circle53"/>
	<circle cx="330.337" cy="20.2357" r="4" fill="#0" id="circle54"/>
	<circle cx="330.337" cy="598.226" r="4" fill="#0" id="circle55"/>
	<circle cx="343.326" cy="29.9771" r="4" fill="#0" id="circle56"/>
	<circle cx="343.326" cy="586.861" r="4" fill="#0" id="circle57"/>
	<circle cx="354.691" cy="42.9656" r="4" fill="#0" id="circle58"/>
	<circle cx="354.691" cy="573.872" r="4" fill="#0" id="circle59"/>
	<circle cx="367.679" cy="52.707" r="4" fill="#0" id="circle60"/>
	<circle cx="367.679" cy="562.507" r="4" fill="#0" id="circle61"/>
	<circle cx="382.291" cy="60.8249" r="4" fill="#0" id="circle62"/>
	<circle cx="383.915" cy="554.39" r="4" fill="#0" id="circle63"/>
	<circle cx="393.656" cy="73.8134" r="4" fill="#0" id="circle64"/>
	<circle cx="393.656" cy="541.401" r="4" fill="#0" id="circle65"/>
	<circle cx="403.398" cy="86.802" r="4" fill="#0" id="circle66"/>
	<circle cx="408.268" cy="533.283" r="4" fill="#0" id="circle67"/>
	<circle cx="416.386" cy="96.5434" r="4" fill="#0" id="circle68"/>
	<circle cx="419.633" cy="517.047" r="4" fill="#0" id="circle69"/>
	<circle cx="432.622" cy="103.038" r="4" fill="#0" id="circle70"/>
	<circle cx="435.869" cy="500.812" r="4" fill="#0" id="circle71"/>
	<circle cx="439.116" cy="119.273" r="4" fill="#0" id="circle72"/>
	<circle cx="448.858" cy="489.447" r="4" fill="#0" id="circle73"/>
	<circle cx="452.105" cy="130.638" r="4" fill="#0" id="circle74"/>
	<circle cx="460.223" cy="468.34" r="4" fill="#0" id="circle75"/>
	<circle cx="463.47" cy="143.627" r="4" fill="#0" id="circle76"/>
	<circle cx="468.34" cy="452.105" r="4" fill="#0" id="circle77"/>
	<circle cx="476.458" cy="154.992" r="4" fill="#0" id="circle78"/>
	<circle cx="476.458" cy="171.227" r="4" fill="#0" id="circle79"/>
	<circle cx="476.458" cy="435.869" r="4" fill="#0" id="circle80"/>
	<circle cx="484.576" cy="185.84" r="4" fill="#0" id="circle81"/>
	<circle cx="484.576" cy="411.516" r="4" fill="#0" id="circle82"/>
	<circle cx="489.447" cy="202.075" r="4" fill="#0" id="circle83"/>
	<circle cx="492.694" cy="387.162" r="4" fill="#0" id="circle84"/>
	<circle cx="497.565" cy="216.687" r="4" fill="#0" id="circle85"/>
	<circle cx="507.306" cy="379.044" r="4" fill="#0" id="circle86"/>
	<circle cx="508.93" cy="229.676" r="4" fill="#0" id="circle87"/>
	<circle cx="521.918" cy="370.926" r="4" fill="#0" id="circle88"/>
	<circle cx="525.165" cy="231.3" r="4" fill="#0" id="circle89"/>
	<circle cx="538.154" cy="367.679" r="4" fill="#0" id="circle90"/>
	<circle cx="541.401" cy="236.17" r="4" fill="#0" id="circle91"/>
	<circle cx="554.39" cy="359.561" r="4" fill="#0" id="circle92"/>
	<circle cx="556.013" cy="244.288" r="4" fill="#0" id="circle93"/>
	<circle cx="565.755" cy="346.573" r="4" fill="#0" id="circle94"/>
	<circle cx="572.249" cy="250.782" r="4" fill="#0" id="circle95"/>
	<circle cx="580.367" cy="338.455" r="4" fill="#0" id="circle96"/>
	<circle cx="581.99" cy="263.771" r="4" fill="#0" id="circle97"/>
	<circle cx="594.979" cy="330.337" r="4" fill="#0" id="circle98"/>
	<circle cx="598.226" cy="263.771" r="4" fill="#0" id="circle99"/>
	<circle cx="609.591" cy="322.219" r="4" fill="#0" id="circle100"/>
	<circle cx="614.462" cy="268.642" r="4" fill="#0" id="circle101"/>
	<circle cx="625.827" cy="322.219" r="4" fill="#0" id="circle102"/>
	<circle cx="630.697" cy="271.889" r="4" fill="#0" id="circle103"/>
	<circle cx="642.062" cy="322.219" r="4" fill="#0" id="circle104"/>
	<circle cx="646.933" cy="271.889" r="4" fill="#0" id="circle105"/>
	<circle cx="658.298" cy="322.219" r="4" fill="#0" id="circle106"/>
	<circle cx="661.545" cy="280.007" r="4" fill="#0" id="circle107"/>
	<circle cx="674.534" cy="322.219" r="4" fill="#0" id="circle108"/>
	<circle cx="677.781" cy="280.007" r="4" fill="#0" id="circle109"/>
	<circle cx="690.769" cy="322.219" r="4" fill="#0" id="circle110"/>
	<circle cx="694.016" cy="280.007" r="4" fill="#0" id="circle111"/>
	<circle cx="707.005" cy="322.219" r="4" fill="#0" id="circle112"/>
	<circle cx="710.252" cy="280.007" r="4" fill="#0" id="circle113"/>
	<circle cx="723.241" cy="322.219" r="4" fill="#0" id="circle114"/>
	<circle cx="726.488" cy="280.007" r="4" fill="#0" id="circle115"/>
	<circle cx="739.476" cy="322.219" r="4" fill="#0" id="circle116"/>
	<circle cx="742.723" cy="280.007" r="4" fill="#0" id="circle117"/>
	<circle cx="755.712" cy="322.219" r="4" fill="#0" id="circle118"/>
	<circle cx="758.959" cy="280.007" r="4" fill="#0" id="circle119"/>
	<circle cx="771.948" cy="322.219" r="4" fill="#0" id="circle120"/>
	<circle cx="775.195" cy="280.007" r="4" fill="#0" id="circle121"/>
	<circle cx="788.183" cy="322.219" r="4" fill="#0" id="circle122"/>
	<circle cx="791.43" cy="280.007" r="4" fill="#0" id="circle123"/>
	<circle cx="804.419" cy="322.219" r="4" fill="#0" id="circle124"/>
	<circle cx="807.666" cy="280.007" r="4" fill="#0" id="circle125"/>
	<circle cx="820.655" cy="322.219" r="4" fill="#0" id="circle126"/>
	<circle cx="823.902" cy="280.007" r="4" fill="#0" id="circle127"/>
	<circle cx="835.267" cy="314.101" r="4" fill="#0" id="circle128"/>
	<circle cx="840.137" cy="280.007" r="4" fill="#0" id="circle129"/>
	<circle cx="851.502" cy="314.101" r="4" fill="#0" id="circle130"/>
	<circle cx="856.373" cy="280.007" r="4" fill="#0" id="circle131"/>
	<circle cx="867.738" cy="314.101" r="4" fill="#0" id="circle132"/>
	<circle cx="870.985" cy="288.124" r="4" fill="#0" id="circle133"/>
	<circle cx="883.974" cy="314.101" r="4" fill="#0" id="circle134"/>
	<circle cx="887.221" cy="288.124" r="4" fill="#0" id="circle135"/>
	<circle cx="900.209" cy="314.101" r="4" fill="#0" id="circle136"/>
	<circle cx="903.457" cy="288.124" r="4" fill="#0" id="circle137"/>
	<circle cx="916.445" cy="314.101" r="4" fill="#0" id="circle138"/>
	<circle cx="919.692" cy="288.124" r="4" fill="#0" id="circle139"/>
	<circle cx="932.681" cy="314.101" r="4" fill="#0" id="circle140"/>
	<circle cx="935.928" cy="288.124" r="4" fill="#0" id="circle141"/>
	<circle cx="948.917" cy="318.972" r="4" fill="#0" id="circle142"/>
	<circle cx="950.54" cy="296.242" r="4" fill="#0" id="circle143"/>
	<circle cx="965.152" cy="322.219" r="4" fill="#0" id="circle144"/>
	<circle cx="966.776" cy="296.242" r="4" fill="#0" id="circle145"/>
	<circle cx="981.388" cy="304.36" r="4" fill="#0" id="circle146"/>
	<circle cx="981.388" cy="322.219" r="4" fill="#0" id="circle147"/>
	<circle cx="996" cy="312.478" r="4" fill="#0" id="circle148"/>
	</g>
</svg>