<?xml version="1.0" encoding="UTF-8" standalone="no"?>
<!-- Created with CurveBenchmark -->
<svg
	xmlns:dc="http://purl.org/dc/elements/1.1/"
	xmlns:cc="http://creativecommons.org/ns#"
	xmlns:rdf="http://www.w3.org/1999/02/22-rdf-syntax-ns#"
	xmlns:svg="http://www.w3.org/2000/svg"
	xmlns="http://www.w3.org/2000/svg"
	xmlns:sodipodi="http://sodipodi.sourceforge.net/DTD/sodipodi-0.dtd"
	xmlns:inkscape="http://www.inkscape.org/namespaces/inkscape"
	width="1000"
	height="1000"
	id="svg2"
	version="1.1"
	sodipodi:docname="manifold/discur-hammer325.png.txt">
<defs
	id="defs4" />
<metadata
	id="metadata7">
	<rdf:RDF>
		<cc:Work
			rdf:about="">
			<dc:format>image/svg+xml</dc:format>
			<dc:type
				rdf:resource="http://purl.org/dc/dcmitype/StillImage" />
			<dc:title></dc:title>
		</cc:Work>
	</rdf:RDF>
</metadata>
<g
	inkscape:label="Layer 1"
	inkscape:groupmode="layer"
	id="layer1">
	<path style="fill:none;stroke:red;stroke-width:1px;stroke-linecap:butt;stroke-linejoin:miter;stroke-opacity:1" d="M 4,170.771 15.5014,130.516 z" id="boundary" inkscape:connector-curvature="0" />
	<path style="fill:none;stroke:red;stroke-width:1px;stroke-linecap:butt;stroke-linejoin:miter;stroke-opacity:1" d="M 4,170.771 32.7536,179.397 z" id="boundary" inkscape:connector-curvature="0" />
	<path style="fill:none;stroke:red;stroke-width:1px;stroke-linecap:butt;stroke-linejoin:miter;stroke-opacity:1" d="M 15.5014,130.516 29.8783,104.638 z" id="boundary" inkscape:connector-curvature="0" />
	<path style="fill:none;stroke:red;stroke-width:1px;stroke-linecap:butt;stroke-linejoin:miter;stroke-opacity:1" d="M 29.8783,104.638 44.2551,78.7594 z" id="boundary" inkscape:connector-curvature="0" />
	<path style="fill:none;stroke:red;stroke-width:1px;stroke-linecap:butt;stroke-linejoin:miter;stroke-opacity:1" d="M 32.7536,179.397 61.5072,179.397 z" id="boundary" inkscape:connector-curvature="0" />
	<path style="fill:none;stroke:red;stroke-width:1px;stroke-linecap:butt;stroke-linejoin:miter;stroke-opacity:1" d="M 44.2551,78.7594 61.5072,55.7565 z" id="boundary" inkscape:connector-curvature="0" />
	<path style="fill:none;stroke:red;stroke-width:1px;stroke-linecap:butt;stroke-linejoin:miter;stroke-opacity:1" d="M 61.5072,55.7565 84.5101,32.7536 z" id="boundary" inkscape:connector-curvature="0" />
	<path style="fill:none;stroke:red;stroke-width:1px;stroke-linecap:butt;stroke-linejoin:miter;stroke-opacity:1" d="M 61.5072,179.397 75.8841,153.519 z" id="boundary" inkscape:connector-curvature="0" />
	<path style="fill:none;stroke:red;stroke-width:1px;stroke-linecap:butt;stroke-linejoin:miter;stroke-opacity:1" d="M 75.8841,153.519 93.1362,124.765 z" id="boundary" inkscape:connector-curvature="0" />
	<path style="fill:none;stroke:red;stroke-width:1px;stroke-linecap:butt;stroke-linejoin:miter;stroke-opacity:1" d="M 84.5101,32.7536 107.513,15.5014 z" id="boundary" inkscape:connector-curvature="0" />
	<path style="fill:none;stroke:red;stroke-width:1px;stroke-linecap:butt;stroke-linejoin:miter;stroke-opacity:1" d="M 93.1362,124.765 116.139,101.762 z" id="boundary" inkscape:connector-curvature="0" />
	<path style="fill:none;stroke:red;stroke-width:1px;stroke-linecap:butt;stroke-linejoin:miter;stroke-opacity:1" d="M 107.513,15.5014 136.267,4 z" id="boundary" inkscape:connector-curvature="0" />
	<path style="fill:none;stroke:red;stroke-width:1px;stroke-linecap:butt;stroke-linejoin:miter;stroke-opacity:1" d="M 116.139,101.762 130.516,127.641 z" id="boundary" inkscape:connector-curvature="0" />
	<path style="fill:none;stroke:red;stroke-width:1px;stroke-linecap:butt;stroke-linejoin:miter;stroke-opacity:1" d="M 119.014,987.374 124.765,958.62 z" id="boundary" inkscape:connector-curvature="0" />
	<path style="fill:none;stroke:red;stroke-width:1px;stroke-linecap:butt;stroke-linejoin:miter;stroke-opacity:1" d="M 119.014,987.374 147.768,996 z" id="boundary" inkscape:connector-curvature="0" />
	<path style="fill:none;stroke:red;stroke-width:1px;stroke-linecap:butt;stroke-linejoin:miter;stroke-opacity:1" d="M 124.765,929.867 124.765,958.62 z" id="boundary" inkscape:connector-curvature="0" />
	<path style="fill:none;stroke:red;stroke-width:1px;stroke-linecap:butt;stroke-linejoin:miter;stroke-opacity:1" d="M 124.765,929.867 130.516,883.861 z" id="boundary" inkscape:connector-curvature="0" />
	<path style="fill:none;stroke:red;stroke-width:1px;stroke-linecap:butt;stroke-linejoin:miter;stroke-opacity:1" d="M 130.516,127.641 130.516,156.394 z" id="boundary" inkscape:connector-curvature="0" />
	<path style="fill:none;stroke:red;stroke-width:1px;stroke-linecap:butt;stroke-linejoin:miter;stroke-opacity:1" d="M 130.516,156.394 144.893,182.272 z" id="boundary" inkscape:connector-curvature="0" />
	<path style="fill:none;stroke:red;stroke-width:1px;stroke-linecap:butt;stroke-linejoin:miter;stroke-opacity:1" d="M 130.516,510.064 130.516,538.817 z" id="boundary" inkscape:connector-curvature="0" />
	<path style="fill:none;stroke:red;stroke-width:1px;stroke-linecap:butt;stroke-linejoin:miter;stroke-opacity:1" d="M 130.516,510.064 136.267,469.809 z" id="boundary" inkscape:connector-curvature="0" />
	<path style="fill:none;stroke:red;stroke-width:1px;stroke-linecap:butt;stroke-linejoin:miter;stroke-opacity:1" d="M 130.516,538.817 130.516,567.571 z" id="boundary" inkscape:connector-curvature="0" />
	<path style="fill:none;stroke:red;stroke-width:1px;stroke-linecap:butt;stroke-linejoin:miter;stroke-opacity:1" d="M 130.516,567.571 130.516,596.325 z" id="boundary" inkscape:connector-curvature="0" />
	<path style="fill:none;stroke:red;stroke-width:1px;stroke-linecap:butt;stroke-linejoin:miter;stroke-opacity:1" d="M 130.516,596.325 130.516,625.078 z" id="boundary" inkscape:connector-curvature="0" />
	<path style="fill:none;stroke:red;stroke-width:1px;stroke-linecap:butt;stroke-linejoin:miter;stroke-opacity:1" d="M 130.516,625.078 130.516,653.832 z" id="boundary" inkscape:connector-curvature="0" />
	<path style="fill:none;stroke:red;stroke-width:1px;stroke-linecap:butt;stroke-linejoin:miter;stroke-opacity:1" d="M 130.516,653.832 130.516,682.586 z" id="boundary" inkscape:connector-curvature="0" />
	<path style="fill:none;stroke:red;stroke-width:1px;stroke-linecap:butt;stroke-linejoin:miter;stroke-opacity:1" d="M 130.516,682.586 130.516,711.339 z" id="boundary" inkscape:connector-curvature="0" />
	<path style="fill:none;stroke:red;stroke-width:1px;stroke-linecap:butt;stroke-linejoin:miter;stroke-opacity:1" d="M 130.516,711.339 130.516,740.093 z" id="boundary" inkscape:connector-curvature="0" />
	<path style="fill:none;stroke:red;stroke-width:1px;stroke-linecap:butt;stroke-linejoin:miter;stroke-opacity:1" d="M 130.516,740.093 130.516,768.846 z" id="boundary" inkscape:connector-curvature="0" />
	<path style="fill:none;stroke:red;stroke-width:1px;stroke-linecap:butt;stroke-linejoin:miter;stroke-opacity:1" d="M 130.516,768.846 130.516,797.6 z" id="boundary" inkscape:connector-curvature="0" />
	<path style="fill:none;stroke:red;stroke-width:1px;stroke-linecap:butt;stroke-linejoin:miter;stroke-opacity:1" d="M 130.516,797.6 130.516,826.354 z" id="boundary" inkscape:connector-curvature="0" />
	<path style="fill:none;stroke:red;stroke-width:1px;stroke-linecap:butt;stroke-linejoin:miter;stroke-opacity:1" d="M 130.516,826.354 130.516,855.107 z" id="boundary" inkscape:connector-curvature="0" />
	<path style="fill:none;stroke:red;stroke-width:1px;stroke-linecap:butt;stroke-linejoin:miter;stroke-opacity:1" d="M 130.516,855.107 130.516,883.861 z" id="boundary" inkscape:connector-curvature="0" />
	<path style="fill:none;stroke:red;stroke-width:1px;stroke-linecap:butt;stroke-linejoin:miter;stroke-opacity:1" d="M 136.267,4 165.02,4 z" id="boundary" inkscape:connector-curvature="0" />
	<path style="fill:none;stroke:red;stroke-width:1px;stroke-linecap:butt;stroke-linejoin:miter;stroke-opacity:1" d="M 136.267,469.809 147.768,441.055 z" id="boundary" inkscape:connector-curvature="0" />
	<path style="fill:none;stroke:red;stroke-width:1px;stroke-linecap:butt;stroke-linejoin:miter;stroke-opacity:1" d="M 144.893,182.272 153.519,211.026 z" id="boundary" inkscape:connector-curvature="0" />
	<path style="fill:none;stroke:red;stroke-width:1px;stroke-linecap:butt;stroke-linejoin:miter;stroke-opacity:1" d="M 147.768,441.055 159.27,412.301 z" id="boundary" inkscape:connector-curvature="0" />
	<path style="fill:none;stroke:red;stroke-width:1px;stroke-linecap:butt;stroke-linejoin:miter;stroke-opacity:1" d="M 147.768,996 176.522,996 z" id="boundary" inkscape:connector-curvature="0" />
	<path style="fill:none;stroke:red;stroke-width:1px;stroke-linecap:butt;stroke-linejoin:miter;stroke-opacity:1" d="M 153.519,211.026 153.519,239.78 z" id="boundary" inkscape:connector-curvature="0" />
	<path style="fill:none;stroke:red;stroke-width:1px;stroke-linecap:butt;stroke-linejoin:miter;stroke-opacity:1" d="M 153.519,239.78 159.27,268.533 z" id="boundary" inkscape:connector-curvature="0" />
	<path style="fill:none;stroke:red;stroke-width:1px;stroke-linecap:butt;stroke-linejoin:miter;stroke-opacity:1" d="M 159.27,268.533 159.27,297.287 z" id="boundary" inkscape:connector-curvature="0" />
	<path style="fill:none;stroke:red;stroke-width:1px;stroke-linecap:butt;stroke-linejoin:miter;stroke-opacity:1" d="M 159.27,297.287 159.27,326.041 z" id="boundary" inkscape:connector-curvature="0" />
	<path style="fill:none;stroke:red;stroke-width:1px;stroke-linecap:butt;stroke-linejoin:miter;stroke-opacity:1" d="M 159.27,326.041 159.27,354.794 z" id="boundary" inkscape:connector-curvature="0" />
	<path style="fill:none;stroke:red;stroke-width:1px;stroke-linecap:butt;stroke-linejoin:miter;stroke-opacity:1" d="M 159.27,354.794 159.27,383.548 z" id="boundary" inkscape:connector-curvature="0" />
	<path style="fill:none;stroke:red;stroke-width:1px;stroke-linecap:butt;stroke-linejoin:miter;stroke-opacity:1" d="M 159.27,383.548 159.27,412.301 z" id="boundary" inkscape:connector-curvature="0" />
	<path style="fill:none;stroke:red;stroke-width:1px;stroke-linecap:butt;stroke-linejoin:miter;stroke-opacity:1" d="M 165.02,4 193.774,4 z" id="boundary" inkscape:connector-curvature="0" />
	<path style="fill:none;stroke:red;stroke-width:1px;stroke-linecap:butt;stroke-linejoin:miter;stroke-opacity:1" d="M 176.522,996 205.275,996 z" id="boundary" inkscape:connector-curvature="0" />
	<path style="fill:none;stroke:red;stroke-width:1px;stroke-linecap:butt;stroke-linejoin:miter;stroke-opacity:1" d="M 193.774,4 222.528,4 z" id="boundary" inkscape:connector-curvature="0" />
	<path style="fill:none;stroke:red;stroke-width:1px;stroke-linecap:butt;stroke-linejoin:miter;stroke-opacity:1" d="M 205.275,996 234.029,996 z" id="boundary" inkscape:connector-curvature="0" />
	<path style="fill:none;stroke:red;stroke-width:1px;stroke-linecap:butt;stroke-linejoin:miter;stroke-opacity:1" d="M 222.528,4 251.281,4 z" id="boundary" inkscape:connector-curvature="0" />
	<path style="fill:none;stroke:red;stroke-width:1px;stroke-linecap:butt;stroke-linejoin:miter;stroke-opacity:1" d="M 234.029,996 262.783,996 z" id="boundary" inkscape:connector-curvature="0" />
	<path style="fill:none;stroke:red;stroke-width:1px;stroke-linecap:butt;stroke-linejoin:miter;stroke-opacity:1" d="M 236.904,239.78 236.904,268.533 z" id="boundary" inkscape:connector-curvature="0" />
	<path style="fill:none;stroke:red;stroke-width:1px;stroke-linecap:butt;stroke-linejoin:miter;stroke-opacity:1" d="M 236.904,239.78 242.655,199.525 z" id="boundary" inkscape:connector-curvature="0" />
	<path style="fill:none;stroke:red;stroke-width:1px;stroke-linecap:butt;stroke-linejoin:miter;stroke-opacity:1" d="M 236.904,268.533 236.904,297.287 z" id="boundary" inkscape:connector-curvature="0" />
	<path style="fill:none;stroke:red;stroke-width:1px;stroke-linecap:butt;stroke-linejoin:miter;stroke-opacity:1" d="M 236.904,297.287 236.904,326.041 z" id="boundary" inkscape:connector-curvature="0" />
	<path style="fill:none;stroke:red;stroke-width:1px;stroke-linecap:butt;stroke-linejoin:miter;stroke-opacity:1" d="M 236.904,326.041 236.904,354.794 z" id="boundary" inkscape:connector-curvature="0" />
	<path style="fill:none;stroke:red;stroke-width:1px;stroke-linecap:butt;stroke-linejoin:miter;stroke-opacity:1" d="M 236.904,354.794 236.904,383.548 z" id="boundary" inkscape:connector-curvature="0" />
	<path style="fill:none;stroke:red;stroke-width:1px;stroke-linecap:butt;stroke-linejoin:miter;stroke-opacity:1" d="M 236.904,383.548 236.904,412.301 z" id="boundary" inkscape:connector-curvature="0" />
	<path style="fill:none;stroke:red;stroke-width:1px;stroke-linecap:butt;stroke-linejoin:miter;stroke-opacity:1" d="M 236.904,412.301 242.655,441.055 z" id="boundary" inkscape:connector-curvature="0" />
	<path style="fill:none;stroke:red;stroke-width:1px;stroke-linecap:butt;stroke-linejoin:miter;stroke-opacity:1" d="M 242.655,199.525 254.157,159.27 z" id="boundary" inkscape:connector-curvature="0" />
	<path style="fill:none;stroke:red;stroke-width:1px;stroke-linecap:butt;stroke-linejoin:miter;stroke-opacity:1" d="M 242.655,441.055 257.032,466.933 z" id="boundary" inkscape:connector-curvature="0" />
	<path style="fill:none;stroke:red;stroke-width:1px;stroke-linecap:butt;stroke-linejoin:miter;stroke-opacity:1" d="M 251.281,4 280.035,15.5014 z" id="boundary" inkscape:connector-curvature="0" />
	<path style="fill:none;stroke:red;stroke-width:1px;stroke-linecap:butt;stroke-linejoin:miter;stroke-opacity:1" d="M 254.157,159.27 265.658,107.513 z" id="boundary" inkscape:connector-curvature="0" />
	<path style="fill:none;stroke:red;stroke-width:1px;stroke-linecap:butt;stroke-linejoin:miter;stroke-opacity:1" d="M 257.032,466.933 259.907,495.687 z" id="boundary" inkscape:connector-curvature="0" />
	<path style="fill:none;stroke:red;stroke-width:1px;stroke-linecap:butt;stroke-linejoin:miter;stroke-opacity:1" d="M 259.907,495.687 259.907,524.441 z" id="boundary" inkscape:connector-curvature="0" />
	<path style="fill:none;stroke:red;stroke-width:1px;stroke-linecap:butt;stroke-linejoin:miter;stroke-opacity:1" d="M 259.907,524.441 265.658,553.194 z" id="boundary" inkscape:connector-curvature="0" />
	<path style="fill:none;stroke:red;stroke-width:1px;stroke-linecap:butt;stroke-linejoin:miter;stroke-opacity:1" d="M 262.783,996 271.409,955.745 z" id="boundary" inkscape:connector-curvature="0" />
	<path style="fill:none;stroke:red;stroke-width:1px;stroke-linecap:butt;stroke-linejoin:miter;stroke-opacity:1" d="M 265.658,107.513 271.409,78.7594 z" id="boundary" inkscape:connector-curvature="0" />
	<path style="fill:none;stroke:red;stroke-width:1px;stroke-linecap:butt;stroke-linejoin:miter;stroke-opacity:1" d="M 265.658,553.194 265.658,581.948 z" id="boundary" inkscape:connector-curvature="0" />
	<path style="fill:none;stroke:red;stroke-width:1px;stroke-linecap:butt;stroke-linejoin:miter;stroke-opacity:1" d="M 265.658,581.948 265.658,610.701 z" id="boundary" inkscape:connector-curvature="0" />
	<path style="fill:none;stroke:red;stroke-width:1px;stroke-linecap:butt;stroke-linejoin:miter;stroke-opacity:1" d="M 265.658,610.701 265.658,639.455 z" id="boundary" inkscape:connector-curvature="0" />
	<path style="fill:none;stroke:red;stroke-width:1px;stroke-linecap:butt;stroke-linejoin:miter;stroke-opacity:1" d="M 265.658,639.455 265.658,668.209 z" id="boundary" inkscape:connector-curvature="0" />
	<path style="fill:none;stroke:red;stroke-width:1px;stroke-linecap:butt;stroke-linejoin:miter;stroke-opacity:1" d="M 265.658,668.209 265.658,696.962 z" id="boundary" inkscape:connector-curvature="0" />
	<path style="fill:none;stroke:red;stroke-width:1px;stroke-linecap:butt;stroke-linejoin:miter;stroke-opacity:1" d="M 265.658,696.962 265.658,725.716 z" id="boundary" inkscape:connector-curvature="0" />
	<path style="fill:none;stroke:red;stroke-width:1px;stroke-linecap:butt;stroke-linejoin:miter;stroke-opacity:1" d="M 265.658,725.716 265.658,754.47 z" id="boundary" inkscape:connector-curvature="0" />
	<path style="fill:none;stroke:red;stroke-width:1px;stroke-linecap:butt;stroke-linejoin:miter;stroke-opacity:1" d="M 265.658,754.47 265.658,783.223 z" id="boundary" inkscape:connector-curvature="0" />
	<path style="fill:none;stroke:red;stroke-width:1px;stroke-linecap:butt;stroke-linejoin:miter;stroke-opacity:1" d="M 265.658,783.223 265.658,811.977 z" id="boundary" inkscape:connector-curvature="0" />
	<path style="fill:none;stroke:red;stroke-width:1px;stroke-linecap:butt;stroke-linejoin:miter;stroke-opacity:1" d="M 265.658,811.977 265.658,840.73 z" id="boundary" inkscape:connector-curvature="0" />
	<path style="fill:none;stroke:red;stroke-width:1px;stroke-linecap:butt;stroke-linejoin:miter;stroke-opacity:1" d="M 265.658,840.73 265.658,869.484 z" id="boundary" inkscape:connector-curvature="0" />
	<path style="fill:none;stroke:red;stroke-width:1px;stroke-linecap:butt;stroke-linejoin:miter;stroke-opacity:1" d="M 265.658,869.484 265.658,898.238 z" id="boundary" inkscape:connector-curvature="0" />
	<path style="fill:none;stroke:red;stroke-width:1px;stroke-linecap:butt;stroke-linejoin:miter;stroke-opacity:1" d="M 265.658,898.238 265.658,926.991 z" id="boundary" inkscape:connector-curvature="0" />
	<path style="fill:none;stroke:red;stroke-width:1px;stroke-linecap:butt;stroke-linejoin:miter;stroke-opacity:1" d="M 265.658,926.991 271.409,955.745 z" id="boundary" inkscape:connector-curvature="0" />
	<path style="fill:none;stroke:red;stroke-width:1px;stroke-linecap:butt;stroke-linejoin:miter;stroke-opacity:1" d="M 271.409,78.7594 300.162,75.8841 z" id="boundary" inkscape:connector-curvature="0" />
	<path style="fill:none;stroke:red;stroke-width:1px;stroke-linecap:butt;stroke-linejoin:miter;stroke-opacity:1" d="M 280.035,15.5014 308.788,4 z" id="boundary" inkscape:connector-curvature="0" />
	<path style="fill:none;stroke:red;stroke-width:1px;stroke-linecap:butt;stroke-linejoin:miter;stroke-opacity:1" d="M 300.162,75.8841 323.165,93.1362 z" id="boundary" inkscape:connector-curvature="0" />
	<path style="fill:none;stroke:red;stroke-width:1px;stroke-linecap:butt;stroke-linejoin:miter;stroke-opacity:1" d="M 308.788,4 337.542,4 z" id="boundary" inkscape:connector-curvature="0" />
	<path style="fill:none;stroke:red;stroke-width:1px;stroke-linecap:butt;stroke-linejoin:miter;stroke-opacity:1" d="M 323.165,93.1362 351.919,90.2609 z" id="boundary" inkscape:connector-curvature="0" />
	<path style="fill:none;stroke:red;stroke-width:1px;stroke-linecap:butt;stroke-linejoin:miter;stroke-opacity:1" d="M 337.542,4 363.42,18.3768 z" id="boundary" inkscape:connector-curvature="0" />
	<path style="fill:none;stroke:red;stroke-width:1px;stroke-linecap:butt;stroke-linejoin:miter;stroke-opacity:1" d="M 351.919,90.2609 369.171,47.1304 z" id="boundary" inkscape:connector-curvature="0" />
	<path style="fill:none;stroke:red;stroke-width:1px;stroke-linecap:butt;stroke-linejoin:miter;stroke-opacity:1" d="M 363.42,18.3768 369.171,47.1304 z" id="boundary" inkscape:connector-curvature="0" />
	<circle cx="4" cy="170.771" r="4" fill="#0" id="circle0"/>
	<circle cx="15.5014" cy="130.516" r="4" fill="#0" id="circle1"/>
	<circle cx="29.8783" cy="104.638" r="4" fill="#0" id="circle2"/>
	<circle cx="32.7536" cy="179.397" r="4" fill="#0" id="circle3"/>
	<circle cx="44.2551" cy="78.7594" r="4" fill="#0" id="circle4"/>
	<circle cx="61.5072" cy="55.7565" r="4" fill="#0" id="circle5"/>
	<circle cx="61.5072" cy="179.397" r="4" fill="#0" id="circle6"/>
	<circle cx="75.8841" cy="153.519" r="4" fill="#0" id="circle7"/>
	<circle cx="84.5101" cy="32.7536" r="4" fill="#0" id="circle8"/>
	<circle cx="93.1362" cy="124.765" r="4" fill="#0" id="circle9"/>
	<circle cx="107.513" cy="15.5014" r="4" fill="#0" id="circle10"/>
	<circle cx="116.139" cy="101.762" r="4" fill="#0" id="circle11"/>
	<circle cx="119.014" cy="987.374" r="4" fill="#0" id="circle12"/>
	<circle cx="124.765" cy="929.867" r="4" fill="#0" id="circle13"/>
	<circle cx="124.765" cy="958.62" r="4" fill="#0" id="circle14"/>
	<circle cx="130.516" cy="127.641" r="4" fill="#0" id="circle15"/>
	<circle cx="130.516" cy="156.394" r="4" fill="#0" id="circle16"/>
	<circle cx="130.516" cy="510.064" r="4" fill="#0" id="circle17"/>
	<circle cx="130.516" cy="538.817" r="4" fill="#0" id="circle18"/>
	<circle cx="130.516" cy="567.571" r="4" fill="#0" id="circle19"/>
	<circle cx="130.516" cy="596.325" r="4" fill="#0" id="circle20"/>
	<circle cx="130.516" cy="625.078" r="4" fill="#0" id="circle21"/>
	<circle cx="130.516" cy="653.832" r="4" fill="#0" id="circle22"/>
	<circle cx="130.516" cy="682.586" r="4" fill="#0" id="circle23"/>
	<circle cx="130.516" cy="711.339" r="4" fill="#0" id="circle24"/>
	<circle cx="130.516" cy="740.093" r="4" fill="#0" id="circle25"/>
	<circle cx="130.516" cy="768.846" r="4" fill="#0" id="circle26"/>
	<circle cx="130.516" cy="797.6" r="4" fill="#0" id="circle27"/>
	<circle cx="130.516" cy="826.354" r="4" fill="#0" id="circle28"/>
	<circle cx="130.516" cy="855.107" r="4" fill="#0" id="circle29"/>
	<circle cx="130.516" cy="883.861" r="4" fill="#0" id="circle30"/>
	<circle cx="136.267" cy="4" r="4" fill="#0" id="circle31"/>
	<circle cx="136.267" cy="469.809" r="4" fill="#0" id="circle32"/>
	<circle cx="144.893" cy="182.272" r="4" fill="#0" id="circle33"/>
	<circle cx="147.768" cy="441.055" r="4" fill="#0" id="circle34"/>
	<circle cx="147.768" cy="996" r="4" fill="#0" id="circle35"/>
	<circle cx="153.519" cy="211.026" r="4" fill="#0" id="circle36"/>
	<circle cx="153.519" cy="239.78" r="4" fill="#0" id="circle37"/>
	<circle cx="159.27" cy="268.533" r="4" fill="#0" id="circle38"/>
	<circle cx="159.27" cy="297.287" r="4" fill="#0" id="circle39"/>
	<circle cx="159.27" cy="326.041" r="4" fill="#0" id="circle40"/>
	<circle cx="159.27" cy="354.794" r="4" fill="#0" id="circle41"/>
	<circle cx="159.27" cy="383.548" r="4" fill="#0" id="circle42"/>
	<circle cx="159.27" cy="412.301" r="4" fill="#0" id="circle43"/>
	<circle cx="165.02" cy="4" r="4" fill="#0" id="circle44"/>
	<circle cx="176.522" cy="996" r="4" fill="#0" id="circle45"/>
	<circle cx="193.774" cy="4" r="4" fill="#0" id="circle46"/>
	<circle cx="205.275" cy="996" r="4" fill="#0" id="circle47"/>
	<circle cx="222.528" cy="4" r="4" fill="#0" id="circle48"/>
	<circle cx="234.029" cy="996" r="4" fill="#0" id="circle49"/>
	<circle cx="236.904" cy="239.78" r="4" fill="#0" id="circle50"/>
	<circle cx="236.904" cy="268.533" r="4" fill="#0" id="circle51"/>
	<circle cx="236.904" cy="297.287" r="4" fill="#0" id="circle52"/>
	<circle cx="236.904" cy="326.041" r="4" fill="#0" id="circle53"/>
	<circle cx="236.904" cy="354.794" r="4" fill="#0" id="circle54"/>
	<circle cx="236.904" cy="383.548" r="4" fill="#0" id="circle55"/>
	<circle cx="236.904" cy="412.301" r="4" fill="#0" id="circle56"/>
	<circle cx="242.655" cy="199.525" r="4" fill="#0" id="circle57"/>
	<circle cx="242.655" cy="441.055" r="4" fill="#0" id="circle58"/>
	<circle cx="251.281" cy="4" r="4" fill="#0" id="circle59"/>
	<circle cx="254.157" cy="159.27" r="4" fill="#0" id="circle60"/>
	<circle cx="257.032" cy="466.933" r="4" fill="#0" id="circle61"/>
	<circle cx="259.907" cy="495.687" r="4" fill="#0" id="circle62"/>
	<circle cx="259.907" cy="524.441" r="4" fill="#0" id="circle63"/>
	<circle cx="262.783" cy="996" r="4" fill="#0" id="circle64"/>
	<circle cx="265.658" cy="107.513" r="4" fill="#0" id="circle65"/>
	<circle cx="265.658" cy="553.194" r="4" fill="#0" id="circle66"/>
	<circle cx="265.658" cy="581.948" r="4" fill="#0" id="circle67"/>
	<circle cx="265.658" cy="610.701" r="4" fill="#0" id="circle68"/>
	<circle cx="265.658" cy="639.455" r="4" fill="#0" id="circle69"/>
	<circle cx="265.658" cy="668.209" r="4" fill="#0" id="circle70"/>
	<circle cx="265.658" cy="696.962" r="4" fill="#0" id="circle71"/>
	<circle cx="265.658" cy="725.716" r="4" fill="#0" id="circle72"/>
	<circle cx="265.658" cy="754.47" r="4" fill="#0" id="circle73"/>
	<circle cx="265.658" cy="783.223" r="4" fill="#0" id="circle74"/>
	<circle cx="265.658" cy="811.977" r="4" fill="#0" id="circle75"/>
	<circle cx="265.658" cy="840.73" r="4" fill="#0" id="circle76"/>
	<circle cx="265.658" cy="869.484" r="4" fill="#0" id="circle77"/>
	<circle cx="265.658" cy="898.238" r="4" fill="#0" id="circle78"/>
	<circle cx="265.658" cy="926.991" r="4" fill="#0" id="circle79"/>
	<circle cx="271.409" cy="78.7594" r="4" fill="#0" id="circle80"/>
	<circle cx="271.409" cy="955.745" r="4" fill="#0" id="circle81"/>
	<circle cx="280.035" cy="15.5014" r="4" fill="#0" id="circle82"/>
	<circle cx="300.162" cy="75.8841" r="4" fill="#0" id="circle83"/>
	<circle cx="308.788" cy="4" r="4" fill="#0" id="circle84"/>
	<circle cx="323.165" cy="93.1362" r="4" fill="#0" id="circle85"/>
	<circle cx="337.542" cy="4" r="4" fill="#0" id="circle86"/>
	<circle cx="351.919" cy="90.2609" r="4" fill="#0" id="circle87"/>
	<circle cx="363.42" cy="18.3768" r="4" fill="#0" id="circle88"/>
	<circle cx="369.171" cy="47.1304" r="4" fill="#0" id="circle89"/>
	</g>
</svg>