<?xml version="1.0" encoding="UTF-8" standalone="no"?>
<!-- Created with CurveBenchmark -->
<svg
	xmlns:dc="http://purl.org/dc/elements/1.1/"
	xmlns:cc="http://creativecommons.org/ns#"
	xmlns:rdf="http://www.w3.org/1999/02/22-rdf-syntax-ns#"
	xmlns:svg="http://www.w3.org/2000/svg"
	xmlns="http://www.w3.org/2000/svg"
	xmlns:sodipodi="http://sodipodi.sourceforge.net/DTD/sodipodi-0.dtd"
	xmlns:inkscape="http://www.inkscape.org/namespaces/inkscape"
	width="1000"
	height="1000"
	id="svg2"
	version="1.1"
	sodipodi:docname="manifold/discur-fish285.png.txt">
<defs
	id="defs4" />
<metadata
	id="metadata7">
	<rdf:RDF>
		<cc:Work
			rdf:about="">
			<dc:format>image/svg+xml</dc:format>
			<dc:type
				rdf:resource="http://purl.org/dc/dcmitype/StillImage" />
			<dc:title></dc:title>
		</cc:Work>
	</rdf:RDF>
</metadata>
<g
	inkscape:label="Layer 1"
	inkscape:groupmode="layer"
	id="layer1">
	<path style="fill:none;stroke:red;stroke-width:1px;stroke-linecap:butt;stroke-linejoin:miter;stroke-opacity:1" d="M 4,462.8 4,524.8 z" id="boundary" inkscape:connector-curvature="0" />
	<path style="fill:none;stroke:red;stroke-width:1px;stroke-linecap:butt;stroke-linejoin:miter;stroke-opacity:1" d="M 4,462.8 16.4,376 z" id="boundary" inkscape:connector-curvature="0" />
	<path style="fill:none;stroke:red;stroke-width:1px;stroke-linecap:butt;stroke-linejoin:miter;stroke-opacity:1" d="M 4,524.8 4,586.8 z" id="boundary" inkscape:connector-curvature="0" />
	<path style="fill:none;stroke:red;stroke-width:1px;stroke-linecap:butt;stroke-linejoin:miter;stroke-opacity:1" d="M 4,586.8 28.8,648.8 z" id="boundary" inkscape:connector-curvature="0" />
	<path style="fill:none;stroke:red;stroke-width:1px;stroke-linecap:butt;stroke-linejoin:miter;stroke-opacity:1" d="M 16.4,376 47.4,320.2 z" id="boundary" inkscape:connector-curvature="0" />
	<path style="fill:none;stroke:red;stroke-width:1px;stroke-linecap:butt;stroke-linejoin:miter;stroke-opacity:1" d="M 28.8,648.8 72.2,698.4 z" id="boundary" inkscape:connector-curvature="0" />
	<path style="fill:none;stroke:red;stroke-width:1px;stroke-linecap:butt;stroke-linejoin:miter;stroke-opacity:1" d="M 47.4,320.2 103.2,289.2 z" id="boundary" inkscape:connector-curvature="0" />
	<path style="fill:none;stroke:red;stroke-width:1px;stroke-linecap:butt;stroke-linejoin:miter;stroke-opacity:1" d="M 72.2,698.4 121.8,741.8 z" id="boundary" inkscape:connector-curvature="0" />
	<path style="fill:none;stroke:red;stroke-width:1px;stroke-linecap:butt;stroke-linejoin:miter;stroke-opacity:1" d="M 103.2,289.2 152.8,252 z" id="boundary" inkscape:connector-curvature="0" />
	<path style="fill:none;stroke:red;stroke-width:1px;stroke-linecap:butt;stroke-linejoin:miter;stroke-opacity:1" d="M 115.6,958.8 128,884.4 z" id="boundary" inkscape:connector-curvature="0" />
	<path style="fill:none;stroke:red;stroke-width:1px;stroke-linecap:butt;stroke-linejoin:miter;stroke-opacity:1" d="M 115.6,958.8 165.2,996 z" id="boundary" inkscape:connector-curvature="0" />
	<path style="fill:none;stroke:red;stroke-width:1px;stroke-linecap:butt;stroke-linejoin:miter;stroke-opacity:1" d="M 121.8,741.8 152.8,810 z" id="boundary" inkscape:connector-curvature="0" />
	<path style="fill:none;stroke:red;stroke-width:1px;stroke-linecap:butt;stroke-linejoin:miter;stroke-opacity:1" d="M 128,884.4 152.8,810 z" id="boundary" inkscape:connector-curvature="0" />
	<path style="fill:none;stroke:red;stroke-width:1px;stroke-linecap:butt;stroke-linejoin:miter;stroke-opacity:1" d="M 152.8,252 202.4,214.8 z" id="boundary" inkscape:connector-curvature="0" />
	<path style="fill:none;stroke:red;stroke-width:1px;stroke-linecap:butt;stroke-linejoin:miter;stroke-opacity:1" d="M 165.2,996 202.4,940.2 z" id="boundary" inkscape:connector-curvature="0" />
	<path style="fill:none;stroke:red;stroke-width:1px;stroke-linecap:butt;stroke-linejoin:miter;stroke-opacity:1" d="M 202.4,214.8 252,165.2 z" id="boundary" inkscape:connector-curvature="0" />
	<path style="fill:none;stroke:red;stroke-width:1px;stroke-linecap:butt;stroke-linejoin:miter;stroke-opacity:1" d="M 202.4,940.2 233.4,884.4 z" id="boundary" inkscape:connector-curvature="0" />
	<path style="fill:none;stroke:red;stroke-width:1px;stroke-linecap:butt;stroke-linejoin:miter;stroke-opacity:1" d="M 233.4,884.4 264.4,828.6 z" id="boundary" inkscape:connector-curvature="0" />
	<path style="fill:none;stroke:red;stroke-width:1px;stroke-linecap:butt;stroke-linejoin:miter;stroke-opacity:1" d="M 252,103.2 252,165.2 z" id="boundary" inkscape:connector-curvature="0" />
	<path style="fill:none;stroke:red;stroke-width:1px;stroke-linecap:butt;stroke-linejoin:miter;stroke-opacity:1" d="M 252,103.2 276.8,4 z" id="boundary" inkscape:connector-curvature="0" />
	<path style="fill:none;stroke:red;stroke-width:1px;stroke-linecap:butt;stroke-linejoin:miter;stroke-opacity:1" d="M 264.4,828.6 301.6,779 z" id="boundary" inkscape:connector-curvature="0" />
	<path style="fill:none;stroke:red;stroke-width:1px;stroke-linecap:butt;stroke-linejoin:miter;stroke-opacity:1" d="M 276.8,4 338.8,22.6 z" id="boundary" inkscape:connector-curvature="0" />
	<path style="fill:none;stroke:red;stroke-width:1px;stroke-linecap:butt;stroke-linejoin:miter;stroke-opacity:1" d="M 301.6,779 351.2,822.4 z" id="boundary" inkscape:connector-curvature="0" />
	<path style="fill:none;stroke:red;stroke-width:1px;stroke-linecap:butt;stroke-linejoin:miter;stroke-opacity:1" d="M 338.8,22.6 376,72.2 z" id="boundary" inkscape:connector-curvature="0" />
	<path style="fill:none;stroke:red;stroke-width:1px;stroke-linecap:butt;stroke-linejoin:miter;stroke-opacity:1" d="M 351.2,822.4 382.2,878.2 z" id="boundary" inkscape:connector-curvature="0" />
	<path style="fill:none;stroke:red;stroke-width:1px;stroke-linecap:butt;stroke-linejoin:miter;stroke-opacity:1" d="M 376,72.2 407,128 z" id="boundary" inkscape:connector-curvature="0" />
	<path style="fill:none;stroke:red;stroke-width:1px;stroke-linecap:butt;stroke-linejoin:miter;stroke-opacity:1" d="M 382.2,878.2 419.4,927.8 z" id="boundary" inkscape:connector-curvature="0" />
	<path style="fill:none;stroke:red;stroke-width:1px;stroke-linecap:butt;stroke-linejoin:miter;stroke-opacity:1" d="M 407,128 456.6,165.2 z" id="boundary" inkscape:connector-curvature="0" />
	<path style="fill:none;stroke:red;stroke-width:1px;stroke-linecap:butt;stroke-linejoin:miter;stroke-opacity:1" d="M 419.4,927.8 462.8,977.4 z" id="boundary" inkscape:connector-curvature="0" />
	<path style="fill:none;stroke:red;stroke-width:1px;stroke-linecap:butt;stroke-linejoin:miter;stroke-opacity:1" d="M 431.8,760.4 462.8,816.2 z" id="boundary" inkscape:connector-curvature="0" />
	<path style="fill:none;stroke:red;stroke-width:1px;stroke-linecap:butt;stroke-linejoin:miter;stroke-opacity:1" d="M 431.8,760.4 524.8,791.4 z" id="boundary" inkscape:connector-curvature="0" />
	<path style="fill:none;stroke:red;stroke-width:1px;stroke-linecap:butt;stroke-linejoin:miter;stroke-opacity:1" d="M 456.6,165.2 518.6,190 z" id="boundary" inkscape:connector-curvature="0" />
	<path style="fill:none;stroke:red;stroke-width:1px;stroke-linecap:butt;stroke-linejoin:miter;stroke-opacity:1" d="M 462.8,816.2 493.8,872 z" id="boundary" inkscape:connector-curvature="0" />
	<path style="fill:none;stroke:red;stroke-width:1px;stroke-linecap:butt;stroke-linejoin:miter;stroke-opacity:1" d="M 462.8,977.4 512.4,934 z" id="boundary" inkscape:connector-curvature="0" />
	<path style="fill:none;stroke:red;stroke-width:1px;stroke-linecap:butt;stroke-linejoin:miter;stroke-opacity:1" d="M 493.8,872 512.4,934 z" id="boundary" inkscape:connector-curvature="0" />
	<path style="fill:none;stroke:red;stroke-width:1px;stroke-linecap:butt;stroke-linejoin:miter;stroke-opacity:1" d="M 518.6,190 531,252 z" id="boundary" inkscape:connector-curvature="0" />
	<path style="fill:none;stroke:red;stroke-width:1px;stroke-linecap:butt;stroke-linejoin:miter;stroke-opacity:1" d="M 524.8,791.4 562,741.8 z" id="boundary" inkscape:connector-curvature="0" />
	<path style="fill:none;stroke:red;stroke-width:1px;stroke-linecap:butt;stroke-linejoin:miter;stroke-opacity:1" d="M 531,252 549.6,314 z" id="boundary" inkscape:connector-curvature="0" />
	<path style="fill:none;stroke:red;stroke-width:1px;stroke-linecap:butt;stroke-linejoin:miter;stroke-opacity:1" d="M 549.6,314 611.6,276.8 z" id="boundary" inkscape:connector-curvature="0" />
	<path style="fill:none;stroke:red;stroke-width:1px;stroke-linecap:butt;stroke-linejoin:miter;stroke-opacity:1" d="M 562,741.8 624,723.2 z" id="boundary" inkscape:connector-curvature="0" />
	<path style="fill:none;stroke:red;stroke-width:1px;stroke-linecap:butt;stroke-linejoin:miter;stroke-opacity:1" d="M 611.6,276.8 673.6,252 z" id="boundary" inkscape:connector-curvature="0" />
	<path style="fill:none;stroke:red;stroke-width:1px;stroke-linecap:butt;stroke-linejoin:miter;stroke-opacity:1" d="M 624,723.2 679.8,686 z" id="boundary" inkscape:connector-curvature="0" />
	<path style="fill:none;stroke:red;stroke-width:1px;stroke-linecap:butt;stroke-linejoin:miter;stroke-opacity:1" d="M 673.6,252 679.8,314 z" id="boundary" inkscape:connector-curvature="0" />
	<path style="fill:none;stroke:red;stroke-width:1px;stroke-linecap:butt;stroke-linejoin:miter;stroke-opacity:1" d="M 679.8,314 679.8,376 z" id="boundary" inkscape:connector-curvature="0" />
	<path style="fill:none;stroke:red;stroke-width:1px;stroke-linecap:butt;stroke-linejoin:miter;stroke-opacity:1" d="M 679.8,376 679.8,438 z" id="boundary" inkscape:connector-curvature="0" />
	<path style="fill:none;stroke:red;stroke-width:1px;stroke-linecap:butt;stroke-linejoin:miter;stroke-opacity:1" d="M 679.8,438 679.8,500 z" id="boundary" inkscape:connector-curvature="0" />
	<path style="fill:none;stroke:red;stroke-width:1px;stroke-linecap:butt;stroke-linejoin:miter;stroke-opacity:1" d="M 679.8,500 679.8,562 z" id="boundary" inkscape:connector-curvature="0" />
	<path style="fill:none;stroke:red;stroke-width:1px;stroke-linecap:butt;stroke-linejoin:miter;stroke-opacity:1" d="M 679.8,562 679.8,624 z" id="boundary" inkscape:connector-curvature="0" />
	<path style="fill:none;stroke:red;stroke-width:1px;stroke-linecap:butt;stroke-linejoin:miter;stroke-opacity:1" d="M 679.8,624 679.8,686 z" id="boundary" inkscape:connector-curvature="0" />
	<circle cx="4" cy="462.8" r="4" fill="#0" id="circle0"/>
	<circle cx="4" cy="524.8" r="4" fill="#0" id="circle1"/>
	<circle cx="4" cy="586.8" r="4" fill="#0" id="circle2"/>
	<circle cx="16.4" cy="376" r="4" fill="#0" id="circle3"/>
	<circle cx="28.8" cy="648.8" r="4" fill="#0" id="circle4"/>
	<circle cx="47.4" cy="320.2" r="4" fill="#0" id="circle5"/>
	<circle cx="72.2" cy="698.4" r="4" fill="#0" id="circle6"/>
	<circle cx="103.2" cy="289.2" r="4" fill="#0" id="circle7"/>
	<circle cx="115.6" cy="958.8" r="4" fill="#0" id="circle8"/>
	<circle cx="121.8" cy="741.8" r="4" fill="#0" id="circle9"/>
	<circle cx="128" cy="884.4" r="4" fill="#0" id="circle10"/>
	<circle cx="152.8" cy="252" r="4" fill="#0" id="circle11"/>
	<circle cx="152.8" cy="810" r="4" fill="#0" id="circle12"/>
	<circle cx="165.2" cy="996" r="4" fill="#0" id="circle13"/>
	<circle cx="202.4" cy="214.8" r="4" fill="#0" id="circle14"/>
	<circle cx="202.4" cy="940.2" r="4" fill="#0" id="circle15"/>
	<circle cx="233.4" cy="884.4" r="4" fill="#0" id="circle16"/>
	<circle cx="252" cy="103.2" r="4" fill="#0" id="circle17"/>
	<circle cx="252" cy="165.2" r="4" fill="#0" id="circle18"/>
	<circle cx="264.4" cy="828.6" r="4" fill="#0" id="circle19"/>
	<circle cx="276.8" cy="4" r="4" fill="#0" id="circle20"/>
	<circle cx="301.6" cy="779" r="4" fill="#0" id="circle21"/>
	<circle cx="338.8" cy="22.6" r="4" fill="#0" id="circle22"/>
	<circle cx="351.2" cy="822.4" r="4" fill="#0" id="circle23"/>
	<circle cx="376" cy="72.2" r="4" fill="#0" id="circle24"/>
	<circle cx="382.2" cy="878.2" r="4" fill="#0" id="circle25"/>
	<circle cx="407" cy="128" r="4" fill="#0" id="circle26"/>
	<circle cx="419.4" cy="927.8" r="4" fill="#0" id="circle27"/>
	<circle cx="431.8" cy="760.4" r="4" fill="#0" id="circle28"/>
	<circle cx="456.6" cy="165.2" r="4" fill="#0" id="circle29"/>
	<circle cx="462.8" cy="816.2" r="4" fill="#0" id="circle30"/>
	<circle cx="462.8" cy="977.4" r="4" fill="#0" id="circle31"/>
	<circle cx="493.8" cy="872" r="4" fill="#0" id="circle32"/>
	<circle cx="512.4" cy="934" r="4" fill="#0" id="circle33"/>
	<circle cx="518.6" cy="190" r="4" fill="#0" id="circle34"/>
	<circle cx="524.8" cy="791.4" r="4" fill="#0" id="circle35"/>
	<circle cx="531" cy="252" r="4" fill="#0" id="circle36"/>
	<circle cx="549.6" cy="314" r="4" fill="#0" id="circle37"/>
	<circle cx="562" cy="741.8" r="4" fill="#0" id="circle38"/>
	<circle cx="611.6" cy="276.8" r="4" fill="#0" id="circle39"/>
	<circle cx="624" cy="723.2" r="4" fill="#0" id="circle40"/>
	<circle cx="673.6" cy="252" r="4" fill="#0" id="circle41"/>
	<circle cx="679.8" cy="314" r="4" fill="#0" id="circle42"/>
	<circle cx="679.8" cy="376" r="4" fill="#0" id="circle43"/>
	<circle cx="679.8" cy="438" r="4" fill="#0" id="circle44"/>
	<circle cx="679.8" cy="500" r="4" fill="#0" id="circle45"/>
	<circle cx="679.8" cy="562" r="4" fill="#0" id="circle46"/>
	<circle cx="679.8" cy="624" r="4" fill="#0" id="circle47"/>
	<circle cx="679.8" cy="686" r="4" fill="#0" id="circle48"/>
	</g>
</svg>