<?xml version="1.0" encoding="UTF-8" standalone="no"?>
<!-- Created with CurveBenchmark -->
<svg
	xmlns:dc="http://purl.org/dc/elements/1.1/"
	xmlns:cc="http://creativecommons.org/ns#"
	xmlns:rdf="http://www.w3.org/1999/02/22-rdf-syntax-ns#"
	xmlns:svg="http://www.w3.org/2000/svg"
	xmlns="http://www.w3.org/2000/svg"
	xmlns:sodipodi="http://sodipodi.sourceforge.net/DTD/sodipodi-0.dtd"
	xmlns:inkscape="http://www.inkscape.org/namespaces/inkscape"
	width="1000"
	height="1000"
	id="svg2"
	version="1.1"
	sodipodi:docname="manifold/discur-fgen5ap.png.txt">
<defs
	id="defs4" />
<metadata
	id="metadata7">
	<rdf:RDF>
		<cc:Work
			rdf:about="">
			<dc:format>image/svg+xml</dc:format>
			<dc:type
				rdf:resource="http://purl.org/dc/dcmitype/StillImage" />
			<dc:title></dc:title>
		</cc:Work>
	</rdf:RDF>
</metadata>
<g
	inkscape:label="Layer 1"
	inkscape:groupmode="layer"
	id="layer1">
	<path style="fill:none;stroke:red;stroke-width:1px;stroke-linecap:butt;stroke-linejoin:miter;stroke-opacity:1" d="M 4,160.949 14.0609,140.828 z" id="boundary" inkscape:connector-curvature="0" />
	<path style="fill:none;stroke:red;stroke-width:1px;stroke-linecap:butt;stroke-linejoin:miter;stroke-opacity:1" d="M 4,160.949 14.0609,179.059 z" id="boundary" inkscape:connector-curvature="0" />
	<path style="fill:none;stroke:red;stroke-width:1px;stroke-linecap:butt;stroke-linejoin:miter;stroke-opacity:1" d="M 14.0609,140.828 30.1582,124.73 z" id="boundary" inkscape:connector-curvature="0" />
	<path style="fill:none;stroke:red;stroke-width:1px;stroke-linecap:butt;stroke-linejoin:miter;stroke-opacity:1" d="M 14.0609,179.059 34.1826,177.047 z" id="boundary" inkscape:connector-curvature="0" />
	<path style="fill:none;stroke:red;stroke-width:1px;stroke-linecap:butt;stroke-linejoin:miter;stroke-opacity:1" d="M 30.1582,124.73 46.2556,108.633 z" id="boundary" inkscape:connector-curvature="0" />
	<path style="fill:none;stroke:red;stroke-width:1px;stroke-linecap:butt;stroke-linejoin:miter;stroke-opacity:1" d="M 34.1826,177.047 52.2921,166.986 z" id="boundary" inkscape:connector-curvature="0" />
	<path style="fill:none;stroke:red;stroke-width:1px;stroke-linecap:butt;stroke-linejoin:miter;stroke-opacity:1" d="M 46.2556,108.633 66.3773,98.572 z" id="boundary" inkscape:connector-curvature="0" />
	<path style="fill:none;stroke:red;stroke-width:1px;stroke-linecap:butt;stroke-linejoin:miter;stroke-opacity:1" d="M 52.2921,166.986 64.3651,183.083 z" id="boundary" inkscape:connector-curvature="0" />
	<path style="fill:none;stroke:red;stroke-width:1px;stroke-linecap:butt;stroke-linejoin:miter;stroke-opacity:1" d="M 64.3651,183.083 74.426,201.193 z" id="boundary" inkscape:connector-curvature="0" />
	<path style="fill:none;stroke:red;stroke-width:1px;stroke-linecap:butt;stroke-linejoin:miter;stroke-opacity:1" d="M 64.3651,331.984 64.3651,362.166 z" id="boundary" inkscape:connector-curvature="0" />
	<path style="fill:none;stroke:red;stroke-width:1px;stroke-linecap:butt;stroke-linejoin:miter;stroke-opacity:1" d="M 64.3651,331.984 74.426,301.801 z" id="boundary" inkscape:connector-curvature="0" />
	<path style="fill:none;stroke:red;stroke-width:1px;stroke-linecap:butt;stroke-linejoin:miter;stroke-opacity:1" d="M 64.3651,362.166 64.3651,382.288 z" id="boundary" inkscape:connector-curvature="0" />
	<path style="fill:none;stroke:red;stroke-width:1px;stroke-linecap:butt;stroke-linejoin:miter;stroke-opacity:1" d="M 64.3651,382.288 64.3651,402.41 z" id="boundary" inkscape:connector-curvature="0" />
	<path style="fill:none;stroke:red;stroke-width:1px;stroke-linecap:butt;stroke-linejoin:miter;stroke-opacity:1" d="M 64.3651,402.41 64.3651,422.531 z" id="boundary" inkscape:connector-curvature="0" />
	<path style="fill:none;stroke:red;stroke-width:1px;stroke-linecap:butt;stroke-linejoin:miter;stroke-opacity:1" d="M 64.3651,422.531 64.3651,442.653 z" id="boundary" inkscape:connector-curvature="0" />
	<path style="fill:none;stroke:red;stroke-width:1px;stroke-linecap:butt;stroke-linejoin:miter;stroke-opacity:1" d="M 64.3651,442.653 74.426,460.763 z" id="boundary" inkscape:connector-curvature="0" />
	<path style="fill:none;stroke:red;stroke-width:1px;stroke-linecap:butt;stroke-linejoin:miter;stroke-opacity:1" d="M 66.3773,98.572 86.499,88.5112 z" id="boundary" inkscape:connector-curvature="0" />
	<path style="fill:none;stroke:red;stroke-width:1px;stroke-linecap:butt;stroke-linejoin:miter;stroke-opacity:1" d="M 74.426,201.193 84.4868,219.302 z" id="boundary" inkscape:connector-curvature="0" />
	<path style="fill:none;stroke:red;stroke-width:1px;stroke-linecap:butt;stroke-linejoin:miter;stroke-opacity:1" d="M 74.426,301.801 84.4868,271.619 z" id="boundary" inkscape:connector-curvature="0" />
	<path style="fill:none;stroke:red;stroke-width:1px;stroke-linecap:butt;stroke-linejoin:miter;stroke-opacity:1" d="M 74.426,460.763 94.5477,462.775 z" id="boundary" inkscape:connector-curvature="0" />
	<path style="fill:none;stroke:red;stroke-width:1px;stroke-linecap:butt;stroke-linejoin:miter;stroke-opacity:1" d="M 84.4868,219.302 84.4868,251.497 z" id="boundary" inkscape:connector-curvature="0" />
	<path style="fill:none;stroke:red;stroke-width:1px;stroke-linecap:butt;stroke-linejoin:miter;stroke-opacity:1" d="M 84.4868,251.497 84.4868,271.619 z" id="boundary" inkscape:connector-curvature="0" />
	<path style="fill:none;stroke:red;stroke-width:1px;stroke-linecap:butt;stroke-linejoin:miter;stroke-opacity:1" d="M 84.4868,643.87 84.4868,663.992 z" id="boundary" inkscape:connector-curvature="0" />
	<path style="fill:none;stroke:red;stroke-width:1px;stroke-linecap:butt;stroke-linejoin:miter;stroke-opacity:1" d="M 84.4868,643.87 94.5477,613.688 z" id="boundary" inkscape:connector-curvature="0" />
	<path style="fill:none;stroke:red;stroke-width:1px;stroke-linecap:butt;stroke-linejoin:miter;stroke-opacity:1" d="M 84.4868,663.992 94.5477,682.101 z" id="boundary" inkscape:connector-curvature="0" />
	<path style="fill:none;stroke:red;stroke-width:1px;stroke-linecap:butt;stroke-linejoin:miter;stroke-opacity:1" d="M 84.4868,704.235 84.4868,734.418 z" id="boundary" inkscape:connector-curvature="0" />
	<path style="fill:none;stroke:red;stroke-width:1px;stroke-linecap:butt;stroke-linejoin:miter;stroke-opacity:1" d="M 84.4868,704.235 94.5477,682.101 z" id="boundary" inkscape:connector-curvature="0" />
	<path style="fill:none;stroke:red;stroke-width:1px;stroke-linecap:butt;stroke-linejoin:miter;stroke-opacity:1" d="M 84.4868,734.418 100.584,748.503 z" id="boundary" inkscape:connector-curvature="0" />
	<path style="fill:none;stroke:red;stroke-width:1px;stroke-linecap:butt;stroke-linejoin:miter;stroke-opacity:1" d="M 86.499,88.5112 102.596,74.426 z" id="boundary" inkscape:connector-curvature="0" />
	<path style="fill:none;stroke:red;stroke-width:1px;stroke-linecap:butt;stroke-linejoin:miter;stroke-opacity:1" d="M 94.5477,462.775 110.645,448.69 z" id="boundary" inkscape:connector-curvature="0" />
	<path style="fill:none;stroke:red;stroke-width:1px;stroke-linecap:butt;stroke-linejoin:miter;stroke-opacity:1" d="M 94.5477,593.566 94.5477,613.688 z" id="boundary" inkscape:connector-curvature="0" />
	<path style="fill:none;stroke:red;stroke-width:1px;stroke-linecap:butt;stroke-linejoin:miter;stroke-opacity:1" d="M 94.5477,593.566 104.609,563.383 z" id="boundary" inkscape:connector-curvature="0" />
	<path style="fill:none;stroke:red;stroke-width:1px;stroke-linecap:butt;stroke-linejoin:miter;stroke-opacity:1" d="M 100.584,748.503 120.706,748.503 z" id="boundary" inkscape:connector-curvature="0" />
	<path style="fill:none;stroke:red;stroke-width:1px;stroke-linecap:butt;stroke-linejoin:miter;stroke-opacity:1" d="M 102.596,74.426 120.706,64.3651 z" id="boundary" inkscape:connector-curvature="0" />
	<path style="fill:none;stroke:red;stroke-width:1px;stroke-linecap:butt;stroke-linejoin:miter;stroke-opacity:1" d="M 104.609,533.201 104.609,563.383 z" id="boundary" inkscape:connector-curvature="0" />
	<path style="fill:none;stroke:red;stroke-width:1px;stroke-linecap:butt;stroke-linejoin:miter;stroke-opacity:1" d="M 104.609,533.201 114.669,509.055 z" id="boundary" inkscape:connector-curvature="0" />
	<path style="fill:none;stroke:red;stroke-width:1px;stroke-linecap:butt;stroke-linejoin:miter;stroke-opacity:1" d="M 110.645,448.69 114.669,468.811 z" id="boundary" inkscape:connector-curvature="0" />
	<path style="fill:none;stroke:red;stroke-width:1px;stroke-linecap:butt;stroke-linejoin:miter;stroke-opacity:1" d="M 114.669,468.811 114.669,488.933 z" id="boundary" inkscape:connector-curvature="0" />
	<path style="fill:none;stroke:red;stroke-width:1px;stroke-linecap:butt;stroke-linejoin:miter;stroke-opacity:1" d="M 114.669,488.933 114.669,509.055 z" id="boundary" inkscape:connector-curvature="0" />
	<path style="fill:none;stroke:red;stroke-width:1px;stroke-linecap:butt;stroke-linejoin:miter;stroke-opacity:1" d="M 120.706,64.3651 140.828,54.3043 z" id="boundary" inkscape:connector-curvature="0" />
	<path style="fill:none;stroke:red;stroke-width:1px;stroke-linecap:butt;stroke-linejoin:miter;stroke-opacity:1" d="M 120.706,748.503 136.803,730.394 z" id="boundary" inkscape:connector-curvature="0" />
	<path style="fill:none;stroke:red;stroke-width:1px;stroke-linecap:butt;stroke-linejoin:miter;stroke-opacity:1" d="M 136.803,730.394 152.901,716.308 z" id="boundary" inkscape:connector-curvature="0" />
	<path style="fill:none;stroke:red;stroke-width:1px;stroke-linecap:butt;stroke-linejoin:miter;stroke-opacity:1" d="M 140.828,54.3043 160.949,44.2434 z" id="boundary" inkscape:connector-curvature="0" />
	<path style="fill:none;stroke:red;stroke-width:1px;stroke-linecap:butt;stroke-linejoin:miter;stroke-opacity:1" d="M 152.901,716.308 164.974,732.406 z" id="boundary" inkscape:connector-curvature="0" />
	<path style="fill:none;stroke:red;stroke-width:1px;stroke-linecap:butt;stroke-linejoin:miter;stroke-opacity:1" d="M 160.949,44.2434 181.071,34.1826 z" id="boundary" inkscape:connector-curvature="0" />
	<path style="fill:none;stroke:red;stroke-width:1px;stroke-linecap:butt;stroke-linejoin:miter;stroke-opacity:1" d="M 164.974,732.406 164.974,764.6 z" id="boundary" inkscape:connector-curvature="0" />
	<path style="fill:none;stroke:red;stroke-width:1px;stroke-linecap:butt;stroke-linejoin:miter;stroke-opacity:1" d="M 164.974,764.6 175.034,782.71 z" id="boundary" inkscape:connector-curvature="0" />
	<path style="fill:none;stroke:red;stroke-width:1px;stroke-linecap:butt;stroke-linejoin:miter;stroke-opacity:1" d="M 175.034,782.71 185.095,800.819 z" id="boundary" inkscape:connector-curvature="0" />
	<path style="fill:none;stroke:red;stroke-width:1px;stroke-linecap:butt;stroke-linejoin:miter;stroke-opacity:1" d="M 175.034,824.966 185.095,800.819 z" id="boundary" inkscape:connector-curvature="0" />
	<path style="fill:none;stroke:red;stroke-width:1px;stroke-linecap:butt;stroke-linejoin:miter;stroke-opacity:1" d="M 175.034,824.966 185.095,843.075 z" id="boundary" inkscape:connector-curvature="0" />
	<path style="fill:none;stroke:red;stroke-width:1px;stroke-linecap:butt;stroke-linejoin:miter;stroke-opacity:1" d="M 181.071,34.1826 201.193,34.1826 z" id="boundary" inkscape:connector-curvature="0" />
	<path style="fill:none;stroke:red;stroke-width:1px;stroke-linecap:butt;stroke-linejoin:miter;stroke-opacity:1" d="M 185.095,843.075 195.156,861.185 z" id="boundary" inkscape:connector-curvature="0" />
	<path style="fill:none;stroke:red;stroke-width:1px;stroke-linecap:butt;stroke-linejoin:miter;stroke-opacity:1" d="M 195.156,861.185 195.156,881.306 z" id="boundary" inkscape:connector-curvature="0" />
	<path style="fill:none;stroke:red;stroke-width:1px;stroke-linecap:butt;stroke-linejoin:miter;stroke-opacity:1" d="M 195.156,881.306 205.217,899.416 z" id="boundary" inkscape:connector-curvature="0" />
	<path style="fill:none;stroke:red;stroke-width:1px;stroke-linecap:butt;stroke-linejoin:miter;stroke-opacity:1" d="M 201.193,34.1826 219.302,24.1217 z" id="boundary" inkscape:connector-curvature="0" />
	<path style="fill:none;stroke:red;stroke-width:1px;stroke-linecap:butt;stroke-linejoin:miter;stroke-opacity:1" d="M 205.217,899.416 205.217,925.574 z" id="boundary" inkscape:connector-curvature="0" />
	<path style="fill:none;stroke:red;stroke-width:1px;stroke-linecap:butt;stroke-linejoin:miter;stroke-opacity:1" d="M 205.217,925.574 221.314,939.659 z" id="boundary" inkscape:connector-curvature="0" />
	<path style="fill:none;stroke:red;stroke-width:1px;stroke-linecap:butt;stroke-linejoin:miter;stroke-opacity:1" d="M 219.302,24.1217 239.424,16.073 z" id="boundary" inkscape:connector-curvature="0" />
	<path style="fill:none;stroke:red;stroke-width:1px;stroke-linecap:butt;stroke-linejoin:miter;stroke-opacity:1" d="M 221.314,939.659 235.4,955.757 z" id="boundary" inkscape:connector-curvature="0" />
	<path style="fill:none;stroke:red;stroke-width:1px;stroke-linecap:butt;stroke-linejoin:miter;stroke-opacity:1" d="M 235.4,955.757 251.497,969.842 z" id="boundary" inkscape:connector-curvature="0" />
	<path style="fill:none;stroke:red;stroke-width:1px;stroke-linecap:butt;stroke-linejoin:miter;stroke-opacity:1" d="M 239.424,16.073 259.546,14.0609 z" id="boundary" inkscape:connector-curvature="0" />
	<path style="fill:none;stroke:red;stroke-width:1px;stroke-linecap:butt;stroke-linejoin:miter;stroke-opacity:1" d="M 251.497,969.842 269.606,979.903 z" id="boundary" inkscape:connector-curvature="0" />
	<path style="fill:none;stroke:red;stroke-width:1px;stroke-linecap:butt;stroke-linejoin:miter;stroke-opacity:1" d="M 259.546,14.0609 279.667,14.0609 z" id="boundary" inkscape:connector-curvature="0" />
	<path style="fill:none;stroke:red;stroke-width:1px;stroke-linecap:butt;stroke-linejoin:miter;stroke-opacity:1" d="M 269.606,979.903 289.728,981.915 z" id="boundary" inkscape:connector-curvature="0" />
	<path style="fill:none;stroke:red;stroke-width:1px;stroke-linecap:butt;stroke-linejoin:miter;stroke-opacity:1" d="M 279.667,14.0609 297.777,4 z" id="boundary" inkscape:connector-curvature="0" />
	<path style="fill:none;stroke:red;stroke-width:1px;stroke-linecap:butt;stroke-linejoin:miter;stroke-opacity:1" d="M 289.728,981.915 307.838,991.976 z" id="boundary" inkscape:connector-curvature="0" />
	<path style="fill:none;stroke:red;stroke-width:1px;stroke-linecap:butt;stroke-linejoin:miter;stroke-opacity:1" d="M 297.777,4 317.899,4 z" id="boundary" inkscape:connector-curvature="0" />
	<path style="fill:none;stroke:red;stroke-width:1px;stroke-linecap:butt;stroke-linejoin:miter;stroke-opacity:1" d="M 307.838,991.976 327.959,991.976 z" id="boundary" inkscape:connector-curvature="0" />
	<path style="fill:none;stroke:red;stroke-width:1px;stroke-linecap:butt;stroke-linejoin:miter;stroke-opacity:1" d="M 317.899,4 338.02,4 z" id="boundary" inkscape:connector-curvature="0" />
	<path style="fill:none;stroke:red;stroke-width:1px;stroke-linecap:butt;stroke-linejoin:miter;stroke-opacity:1" d="M 327.959,991.976 348.081,996 z" id="boundary" inkscape:connector-curvature="0" />
	<path style="fill:none;stroke:red;stroke-width:1px;stroke-linecap:butt;stroke-linejoin:miter;stroke-opacity:1" d="M 338.02,4 358.142,4 z" id="boundary" inkscape:connector-curvature="0" />
	<path style="fill:none;stroke:red;stroke-width:1px;stroke-linecap:butt;stroke-linejoin:miter;stroke-opacity:1" d="M 348.081,996 368.203,996 z" id="boundary" inkscape:connector-curvature="0" />
	<path style="fill:none;stroke:red;stroke-width:1px;stroke-linecap:butt;stroke-linejoin:miter;stroke-opacity:1" d="M 358.142,4 378.264,4 z" id="boundary" inkscape:connector-curvature="0" />
	<path style="fill:none;stroke:red;stroke-width:1px;stroke-linecap:butt;stroke-linejoin:miter;stroke-opacity:1" d="M 368.203,996 388.325,991.976 z" id="boundary" inkscape:connector-curvature="0" />
	<path style="fill:none;stroke:red;stroke-width:1px;stroke-linecap:butt;stroke-linejoin:miter;stroke-opacity:1" d="M 378.264,4 398.385,4 z" id="boundary" inkscape:connector-curvature="0" />
	<path style="fill:none;stroke:red;stroke-width:1px;stroke-linecap:butt;stroke-linejoin:miter;stroke-opacity:1" d="M 388.325,991.976 408.446,981.915 z" id="boundary" inkscape:connector-curvature="0" />
	<path style="fill:none;stroke:red;stroke-width:1px;stroke-linecap:butt;stroke-linejoin:miter;stroke-opacity:1" d="M 398.385,4 418.507,10.0365 z" id="boundary" inkscape:connector-curvature="0" />
	<path style="fill:none;stroke:red;stroke-width:1px;stroke-linecap:butt;stroke-linejoin:miter;stroke-opacity:1" d="M 408.446,981.915 428.568,981.915 z" id="boundary" inkscape:connector-curvature="0" />
	<path style="fill:none;stroke:red;stroke-width:1px;stroke-linecap:butt;stroke-linejoin:miter;stroke-opacity:1" d="M 418.507,10.0365 438.629,10.0365 z" id="boundary" inkscape:connector-curvature="0" />
	<path style="fill:none;stroke:red;stroke-width:1px;stroke-linecap:butt;stroke-linejoin:miter;stroke-opacity:1" d="M 428.568,981.915 448.69,971.854 z" id="boundary" inkscape:connector-curvature="0" />
	<path style="fill:none;stroke:red;stroke-width:1px;stroke-linecap:butt;stroke-linejoin:miter;stroke-opacity:1" d="M 438.629,10.0365 458.751,14.0609 z" id="boundary" inkscape:connector-curvature="0" />
	<path style="fill:none;stroke:red;stroke-width:1px;stroke-linecap:butt;stroke-linejoin:miter;stroke-opacity:1" d="M 448.69,971.854 466.799,961.793 z" id="boundary" inkscape:connector-curvature="0" />
	<path style="fill:none;stroke:red;stroke-width:1px;stroke-linecap:butt;stroke-linejoin:miter;stroke-opacity:1" d="M 458.751,14.0609 478.872,20.0974 z" id="boundary" inkscape:connector-curvature="0" />
	<path style="fill:none;stroke:red;stroke-width:1px;stroke-linecap:butt;stroke-linejoin:miter;stroke-opacity:1" d="M 466.799,961.793 482.897,949.72 z" id="boundary" inkscape:connector-curvature="0" />
	<path style="fill:none;stroke:red;stroke-width:1px;stroke-linecap:butt;stroke-linejoin:miter;stroke-opacity:1" d="M 478.872,20.0974 498.994,24.1217 z" id="boundary" inkscape:connector-curvature="0" />
	<path style="fill:none;stroke:red;stroke-width:1px;stroke-linecap:butt;stroke-linejoin:miter;stroke-opacity:1" d="M 482.897,949.72 498.994,931.611 z" id="boundary" inkscape:connector-curvature="0" />
	<path style="fill:none;stroke:red;stroke-width:1px;stroke-linecap:butt;stroke-linejoin:miter;stroke-opacity:1" d="M 498.994,24.1217 517.103,34.1826 z" id="boundary" inkscape:connector-curvature="0" />
	<path style="fill:none;stroke:red;stroke-width:1px;stroke-linecap:butt;stroke-linejoin:miter;stroke-opacity:1" d="M 498.994,911.489 498.994,931.611 z" id="boundary" inkscape:connector-curvature="0" />
	<path style="fill:none;stroke:red;stroke-width:1px;stroke-linecap:butt;stroke-linejoin:miter;stroke-opacity:1" d="M 498.994,911.489 509.055,881.306 z" id="boundary" inkscape:connector-curvature="0" />
	<path style="fill:none;stroke:red;stroke-width:1px;stroke-linecap:butt;stroke-linejoin:miter;stroke-opacity:1" d="M 509.055,881.306 519.116,861.185 z" id="boundary" inkscape:connector-curvature="0" />
	<path style="fill:none;stroke:red;stroke-width:1px;stroke-linecap:butt;stroke-linejoin:miter;stroke-opacity:1" d="M 517.103,34.1826 535.213,44.2434 z" id="boundary" inkscape:connector-curvature="0" />
	<path style="fill:none;stroke:red;stroke-width:1px;stroke-linecap:butt;stroke-linejoin:miter;stroke-opacity:1" d="M 519.116,841.063 519.116,861.185 z" id="boundary" inkscape:connector-curvature="0" />
	<path style="fill:none;stroke:red;stroke-width:1px;stroke-linecap:butt;stroke-linejoin:miter;stroke-opacity:1" d="M 519.116,841.063 529.176,820.941 z" id="boundary" inkscape:connector-curvature="0" />
	<path style="fill:none;stroke:red;stroke-width:1px;stroke-linecap:butt;stroke-linejoin:miter;stroke-opacity:1" d="M 529.176,780.698 529.176,800.819 z" id="boundary" inkscape:connector-curvature="0" />
	<path style="fill:none;stroke:red;stroke-width:1px;stroke-linecap:butt;stroke-linejoin:miter;stroke-opacity:1" d="M 529.176,780.698 539.237,750.515 z" id="boundary" inkscape:connector-curvature="0" />
	<path style="fill:none;stroke:red;stroke-width:1px;stroke-linecap:butt;stroke-linejoin:miter;stroke-opacity:1" d="M 529.176,800.819 529.176,820.941 z" id="boundary" inkscape:connector-curvature="0" />
	<path style="fill:none;stroke:red;stroke-width:1px;stroke-linecap:butt;stroke-linejoin:miter;stroke-opacity:1" d="M 535.213,44.2434 555.335,46.2556 z" id="boundary" inkscape:connector-curvature="0" />
	<path style="fill:none;stroke:red;stroke-width:1px;stroke-linecap:butt;stroke-linejoin:miter;stroke-opacity:1" d="M 539.237,317.899 543.262,338.02 z" id="boundary" inkscape:connector-curvature="0" />
	<path style="fill:none;stroke:red;stroke-width:1px;stroke-linecap:butt;stroke-linejoin:miter;stroke-opacity:1" d="M 539.237,317.899 557.347,307.838 z" id="boundary" inkscape:connector-curvature="0" />
	<path style="fill:none;stroke:red;stroke-width:1px;stroke-linecap:butt;stroke-linejoin:miter;stroke-opacity:1" d="M 539.237,730.394 539.237,750.515 z" id="boundary" inkscape:connector-curvature="0" />
	<path style="fill:none;stroke:red;stroke-width:1px;stroke-linecap:butt;stroke-linejoin:miter;stroke-opacity:1" d="M 539.237,730.394 549.298,700.211 z" id="boundary" inkscape:connector-curvature="0" />
	<path style="fill:none;stroke:red;stroke-width:1px;stroke-linecap:butt;stroke-linejoin:miter;stroke-opacity:1" d="M 543.262,338.02 559.359,352.105 z" id="boundary" inkscape:connector-curvature="0" />
	<path style="fill:none;stroke:red;stroke-width:1px;stroke-linecap:butt;stroke-linejoin:miter;stroke-opacity:1" d="M 549.298,680.089 549.298,700.211 z" id="boundary" inkscape:connector-curvature="0" />
	<path style="fill:none;stroke:red;stroke-width:1px;stroke-linecap:butt;stroke-linejoin:miter;stroke-opacity:1" d="M 549.298,680.089 559.359,659.968 z" id="boundary" inkscape:connector-curvature="0" />
	<path style="fill:none;stroke:red;stroke-width:1px;stroke-linecap:butt;stroke-linejoin:miter;stroke-opacity:1" d="M 555.335,46.2556 573.444,56.3164 z" id="boundary" inkscape:connector-curvature="0" />
	<path style="fill:none;stroke:red;stroke-width:1px;stroke-linecap:butt;stroke-linejoin:miter;stroke-opacity:1" d="M 557.347,307.838 573.444,295.765 z" id="boundary" inkscape:connector-curvature="0" />
	<path style="fill:none;stroke:red;stroke-width:1px;stroke-linecap:butt;stroke-linejoin:miter;stroke-opacity:1" d="M 559.359,352.105 567.408,372.227 z" id="boundary" inkscape:connector-curvature="0" />
	<path style="fill:none;stroke:red;stroke-width:1px;stroke-linecap:butt;stroke-linejoin:miter;stroke-opacity:1" d="M 559.359,659.968 569.42,639.846 z" id="boundary" inkscape:connector-curvature="0" />
	<path style="fill:none;stroke:red;stroke-width:1px;stroke-linecap:butt;stroke-linejoin:miter;stroke-opacity:1" d="M 567.408,372.227 577.469,390.337 z" id="boundary" inkscape:connector-curvature="0" />
	<path style="fill:none;stroke:red;stroke-width:1px;stroke-linecap:butt;stroke-linejoin:miter;stroke-opacity:1" d="M 569.42,639.846 579.481,609.663 z" id="boundary" inkscape:connector-curvature="0" />
	<path style="fill:none;stroke:red;stroke-width:1px;stroke-linecap:butt;stroke-linejoin:miter;stroke-opacity:1" d="M 573.444,56.3164 593.566,64.3651 z" id="boundary" inkscape:connector-curvature="0" />
	<path style="fill:none;stroke:red;stroke-width:1px;stroke-linecap:butt;stroke-linejoin:miter;stroke-opacity:1" d="M 573.444,295.765 593.566,285.704 z" id="boundary" inkscape:connector-curvature="0" />
	<path style="fill:none;stroke:red;stroke-width:1px;stroke-linecap:butt;stroke-linejoin:miter;stroke-opacity:1" d="M 577.469,390.337 585.517,410.458 z" id="boundary" inkscape:connector-curvature="0" />
	<path style="fill:none;stroke:red;stroke-width:1px;stroke-linecap:butt;stroke-linejoin:miter;stroke-opacity:1" d="M 579.481,609.663 589.542,579.481 z" id="boundary" inkscape:connector-curvature="0" />
	<path style="fill:none;stroke:red;stroke-width:1px;stroke-linecap:butt;stroke-linejoin:miter;stroke-opacity:1" d="M 585.517,410.458 589.542,430.58 z" id="boundary" inkscape:connector-curvature="0" />
	<path style="fill:none;stroke:red;stroke-width:1px;stroke-linecap:butt;stroke-linejoin:miter;stroke-opacity:1" d="M 589.542,430.58 589.542,458.751 z" id="boundary" inkscape:connector-curvature="0" />
	<path style="fill:none;stroke:red;stroke-width:1px;stroke-linecap:butt;stroke-linejoin:miter;stroke-opacity:1" d="M 589.542,458.751 599.602,476.86 z" id="boundary" inkscape:connector-curvature="0" />
	<path style="fill:none;stroke:red;stroke-width:1px;stroke-linecap:butt;stroke-linejoin:miter;stroke-opacity:1" d="M 589.542,559.359 589.542,579.481 z" id="boundary" inkscape:connector-curvature="0" />
	<path style="fill:none;stroke:red;stroke-width:1px;stroke-linecap:butt;stroke-linejoin:miter;stroke-opacity:1" d="M 589.542,559.359 599.602,537.225 z" id="boundary" inkscape:connector-curvature="0" />
	<path style="fill:none;stroke:red;stroke-width:1px;stroke-linecap:butt;stroke-linejoin:miter;stroke-opacity:1" d="M 593.566,64.3651 607.651,80.4625 z" id="boundary" inkscape:connector-curvature="0" />
	<path style="fill:none;stroke:red;stroke-width:1px;stroke-linecap:butt;stroke-linejoin:miter;stroke-opacity:1" d="M 593.566,285.704 603.627,265.582 z" id="boundary" inkscape:connector-curvature="0" />
	<path style="fill:none;stroke:red;stroke-width:1px;stroke-linecap:butt;stroke-linejoin:miter;stroke-opacity:1" d="M 599.602,476.86 599.602,496.982 z" id="boundary" inkscape:connector-curvature="0" />
	<path style="fill:none;stroke:red;stroke-width:1px;stroke-linecap:butt;stroke-linejoin:miter;stroke-opacity:1" d="M 599.602,496.982 599.602,517.103 z" id="boundary" inkscape:connector-curvature="0" />
	<path style="fill:none;stroke:red;stroke-width:1px;stroke-linecap:butt;stroke-linejoin:miter;stroke-opacity:1" d="M 599.602,517.103 599.602,537.225 z" id="boundary" inkscape:connector-curvature="0" />
	<path style="fill:none;stroke:red;stroke-width:1px;stroke-linecap:butt;stroke-linejoin:miter;stroke-opacity:1" d="M 603.627,265.582 623.748,257.533 z" id="boundary" inkscape:connector-curvature="0" />
	<path style="fill:none;stroke:red;stroke-width:1px;stroke-linecap:butt;stroke-linejoin:miter;stroke-opacity:1" d="M 607.651,80.4625 623.748,94.5477 z" id="boundary" inkscape:connector-curvature="0" />
	<path style="fill:none;stroke:red;stroke-width:1px;stroke-linecap:butt;stroke-linejoin:miter;stroke-opacity:1" d="M 623.748,94.5477 637.834,110.645 z" id="boundary" inkscape:connector-curvature="0" />
	<path style="fill:none;stroke:red;stroke-width:1px;stroke-linecap:butt;stroke-linejoin:miter;stroke-opacity:1" d="M 623.748,257.533 641.858,267.594 z" id="boundary" inkscape:connector-curvature="0" />
	<path style="fill:none;stroke:red;stroke-width:1px;stroke-linecap:butt;stroke-linejoin:miter;stroke-opacity:1" d="M 637.834,110.645 647.895,128.755 z" id="boundary" inkscape:connector-curvature="0" />
	<path style="fill:none;stroke:red;stroke-width:1px;stroke-linecap:butt;stroke-linejoin:miter;stroke-opacity:1" d="M 641.858,267.594 659.968,277.655 z" id="boundary" inkscape:connector-curvature="0" />
	<path style="fill:none;stroke:red;stroke-width:1px;stroke-linecap:butt;stroke-linejoin:miter;stroke-opacity:1" d="M 647.895,128.755 649.907,148.876 z" id="boundary" inkscape:connector-curvature="0" />
	<path style="fill:none;stroke:red;stroke-width:1px;stroke-linecap:butt;stroke-linejoin:miter;stroke-opacity:1" d="M 649.907,148.876 661.98,164.974 z" id="boundary" inkscape:connector-curvature="0" />
	<path style="fill:none;stroke:red;stroke-width:1px;stroke-linecap:butt;stroke-linejoin:miter;stroke-opacity:1" d="M 659.968,277.655 678.077,287.716 z" id="boundary" inkscape:connector-curvature="0" />
	<path style="fill:none;stroke:red;stroke-width:1px;stroke-linecap:butt;stroke-linejoin:miter;stroke-opacity:1" d="M 661.98,164.974 678.077,179.059 z" id="boundary" inkscape:connector-curvature="0" />
	<path style="fill:none;stroke:red;stroke-width:1px;stroke-linecap:butt;stroke-linejoin:miter;stroke-opacity:1" d="M 678.077,179.059 690.15,195.156 z" id="boundary" inkscape:connector-curvature="0" />
	<path style="fill:none;stroke:red;stroke-width:1px;stroke-linecap:butt;stroke-linejoin:miter;stroke-opacity:1" d="M 678.077,287.716 696.187,297.777 z" id="boundary" inkscape:connector-curvature="0" />
	<path style="fill:none;stroke:red;stroke-width:1px;stroke-linecap:butt;stroke-linejoin:miter;stroke-opacity:1" d="M 690.15,195.156 706.247,207.229 z" id="boundary" inkscape:connector-curvature="0" />
	<path style="fill:none;stroke:red;stroke-width:1px;stroke-linecap:butt;stroke-linejoin:miter;stroke-opacity:1" d="M 696.187,297.777 714.296,307.838 z" id="boundary" inkscape:connector-curvature="0" />
	<path style="fill:none;stroke:red;stroke-width:1px;stroke-linecap:butt;stroke-linejoin:miter;stroke-opacity:1" d="M 706.247,207.229 720.333,223.327 z" id="boundary" inkscape:connector-curvature="0" />
	<path style="fill:none;stroke:red;stroke-width:1px;stroke-linecap:butt;stroke-linejoin:miter;stroke-opacity:1" d="M 714.296,307.838 732.406,317.899 z" id="boundary" inkscape:connector-curvature="0" />
	<path style="fill:none;stroke:red;stroke-width:1px;stroke-linecap:butt;stroke-linejoin:miter;stroke-opacity:1" d="M 720.333,223.327 730.394,241.436 z" id="boundary" inkscape:connector-curvature="0" />
	<path style="fill:none;stroke:red;stroke-width:1px;stroke-linecap:butt;stroke-linejoin:miter;stroke-opacity:1" d="M 730.394,241.436 744.479,257.533 z" id="boundary" inkscape:connector-curvature="0" />
	<path style="fill:none;stroke:red;stroke-width:1px;stroke-linecap:butt;stroke-linejoin:miter;stroke-opacity:1" d="M 732.406,317.899 748.503,329.972 z" id="boundary" inkscape:connector-curvature="0" />
	<path style="fill:none;stroke:red;stroke-width:1px;stroke-linecap:butt;stroke-linejoin:miter;stroke-opacity:1" d="M 744.479,257.533 760.576,271.619 z" id="boundary" inkscape:connector-curvature="0" />
	<path style="fill:none;stroke:red;stroke-width:1px;stroke-linecap:butt;stroke-linejoin:miter;stroke-opacity:1" d="M 748.503,329.972 768.625,327.959 z" id="boundary" inkscape:connector-curvature="0" />
	<path style="fill:none;stroke:red;stroke-width:1px;stroke-linecap:butt;stroke-linejoin:miter;stroke-opacity:1" d="M 760.576,271.619 760.576,291.74 z" id="boundary" inkscape:connector-curvature="0" />
	<path style="fill:none;stroke:red;stroke-width:1px;stroke-linecap:butt;stroke-linejoin:miter;stroke-opacity:1" d="M 760.576,291.74 768.625,327.959 z" id="boundary" inkscape:connector-curvature="0" />
	<circle cx="4" cy="160.949" r="4" fill="#0" id="circle0"/>
	<circle cx="14.0609" cy="140.828" r="4" fill="#0" id="circle1"/>
	<circle cx="14.0609" cy="179.059" r="4" fill="#0" id="circle2"/>
	<circle cx="30.1582" cy="124.73" r="4" fill="#0" id="circle3"/>
	<circle cx="34.1826" cy="177.047" r="4" fill="#0" id="circle4"/>
	<circle cx="46.2556" cy="108.633" r="4" fill="#0" id="circle5"/>
	<circle cx="52.2921" cy="166.986" r="4" fill="#0" id="circle6"/>
	<circle cx="64.3651" cy="183.083" r="4" fill="#0" id="circle7"/>
	<circle cx="64.3651" cy="331.984" r="4" fill="#0" id="circle8"/>
	<circle cx="64.3651" cy="362.166" r="4" fill="#0" id="circle9"/>
	<circle cx="64.3651" cy="382.288" r="4" fill="#0" id="circle10"/>
	<circle cx="64.3651" cy="402.41" r="4" fill="#0" id="circle11"/>
	<circle cx="64.3651" cy="422.531" r="4" fill="#0" id="circle12"/>
	<circle cx="64.3651" cy="442.653" r="4" fill="#0" id="circle13"/>
	<circle cx="66.3773" cy="98.572" r="4" fill="#0" id="circle14"/>
	<circle cx="74.426" cy="201.193" r="4" fill="#0" id="circle15"/>
	<circle cx="74.426" cy="301.801" r="4" fill="#0" id="circle16"/>
	<circle cx="74.426" cy="460.763" r="4" fill="#0" id="circle17"/>
	<circle cx="84.4868" cy="219.302" r="4" fill="#0" id="circle18"/>
	<circle cx="84.4868" cy="251.497" r="4" fill="#0" id="circle19"/>
	<circle cx="84.4868" cy="271.619" r="4" fill="#0" id="circle20"/>
	<circle cx="84.4868" cy="643.87" r="4" fill="#0" id="circle21"/>
	<circle cx="84.4868" cy="663.992" r="4" fill="#0" id="circle22"/>
	<circle cx="84.4868" cy="704.235" r="4" fill="#0" id="circle23"/>
	<circle cx="84.4868" cy="734.418" r="4" fill="#0" id="circle24"/>
	<circle cx="86.499" cy="88.5112" r="4" fill="#0" id="circle25"/>
	<circle cx="94.5477" cy="462.775" r="4" fill="#0" id="circle26"/>
	<circle cx="94.5477" cy="593.566" r="4" fill="#0" id="circle27"/>
	<circle cx="94.5477" cy="613.688" r="4" fill="#0" id="circle28"/>
	<circle cx="94.5477" cy="682.101" r="4" fill="#0" id="circle29"/>
	<circle cx="100.584" cy="748.503" r="4" fill="#0" id="circle30"/>
	<circle cx="102.596" cy="74.426" r="4" fill="#0" id="circle31"/>
	<circle cx="104.609" cy="533.201" r="4" fill="#0" id="circle32"/>
	<circle cx="104.609" cy="563.383" r="4" fill="#0" id="circle33"/>
	<circle cx="110.645" cy="448.69" r="4" fill="#0" id="circle34"/>
	<circle cx="114.669" cy="468.811" r="4" fill="#0" id="circle35"/>
	<circle cx="114.669" cy="488.933" r="4" fill="#0" id="circle36"/>
	<circle cx="114.669" cy="509.055" r="4" fill="#0" id="circle37"/>
	<circle cx="120.706" cy="64.3651" r="4" fill="#0" id="circle38"/>
	<circle cx="120.706" cy="748.503" r="4" fill="#0" id="circle39"/>
	<circle cx="136.803" cy="730.394" r="4" fill="#0" id="circle40"/>
	<circle cx="140.828" cy="54.3043" r="4" fill="#0" id="circle41"/>
	<circle cx="152.901" cy="716.308" r="4" fill="#0" id="circle42"/>
	<circle cx="160.949" cy="44.2434" r="4" fill="#0" id="circle43"/>
	<circle cx="164.974" cy="732.406" r="4" fill="#0" id="circle44"/>
	<circle cx="164.974" cy="764.6" r="4" fill="#0" id="circle45"/>
	<circle cx="175.034" cy="782.71" r="4" fill="#0" id="circle46"/>
	<circle cx="175.034" cy="824.966" r="4" fill="#0" id="circle47"/>
	<circle cx="181.071" cy="34.1826" r="4" fill="#0" id="circle48"/>
	<circle cx="185.095" cy="800.819" r="4" fill="#0" id="circle49"/>
	<circle cx="185.095" cy="843.075" r="4" fill="#0" id="circle50"/>
	<circle cx="195.156" cy="861.185" r="4" fill="#0" id="circle51"/>
	<circle cx="195.156" cy="881.306" r="4" fill="#0" id="circle52"/>
	<circle cx="201.193" cy="34.1826" r="4" fill="#0" id="circle53"/>
	<circle cx="205.217" cy="899.416" r="4" fill="#0" id="circle54"/>
	<circle cx="205.217" cy="925.574" r="4" fill="#0" id="circle55"/>
	<circle cx="219.302" cy="24.1217" r="4" fill="#0" id="circle56"/>
	<circle cx="221.314" cy="939.659" r="4" fill="#0" id="circle57"/>
	<circle cx="235.4" cy="955.757" r="4" fill="#0" id="circle58"/>
	<circle cx="239.424" cy="16.073" r="4" fill="#0" id="circle59"/>
	<circle cx="251.497" cy="969.842" r="4" fill="#0" id="circle60"/>
	<circle cx="259.546" cy="14.0609" r="4" fill="#0" id="circle61"/>
	<circle cx="269.606" cy="979.903" r="4" fill="#0" id="circle62"/>
	<circle cx="279.667" cy="14.0609" r="4" fill="#0" id="circle63"/>
	<circle cx="289.728" cy="981.915" r="4" fill="#0" id="circle64"/>
	<circle cx="297.777" cy="4" r="4" fill="#0" id="circle65"/>
	<circle cx="307.838" cy="991.976" r="4" fill="#0" id="circle66"/>
	<circle cx="317.899" cy="4" r="4" fill="#0" id="circle67"/>
	<circle cx="327.959" cy="991.976" r="4" fill="#0" id="circle68"/>
	<circle cx="338.02" cy="4" r="4" fill="#0" id="circle69"/>
	<circle cx="348.081" cy="996" r="4" fill="#0" id="circle70"/>
	<circle cx="358.142" cy="4" r="4" fill="#0" id="circle71"/>
	<circle cx="368.203" cy="996" r="4" fill="#0" id="circle72"/>
	<circle cx="378.264" cy="4" r="4" fill="#0" id="circle73"/>
	<circle cx="388.325" cy="991.976" r="4" fill="#0" id="circle74"/>
	<circle cx="398.385" cy="4" r="4" fill="#0" id="circle75"/>
	<circle cx="408.446" cy="981.915" r="4" fill="#0" id="circle76"/>
	<circle cx="418.507" cy="10.0365" r="4" fill="#0" id="circle77"/>
	<circle cx="428.568" cy="981.915" r="4" fill="#0" id="circle78"/>
	<circle cx="438.629" cy="10.0365" r="4" fill="#0" id="circle79"/>
	<circle cx="448.69" cy="971.854" r="4" fill="#0" id="circle80"/>
	<circle cx="458.751" cy="14.0609" r="4" fill="#0" id="circle81"/>
	<circle cx="466.799" cy="961.793" r="4" fill="#0" id="circle82"/>
	<circle cx="478.872" cy="20.0974" r="4" fill="#0" id="circle83"/>
	<circle cx="482.897" cy="949.72" r="4" fill="#0" id="circle84"/>
	<circle cx="498.994" cy="24.1217" r="4" fill="#0" id="circle85"/>
	<circle cx="498.994" cy="911.489" r="4" fill="#0" id="circle86"/>
	<circle cx="498.994" cy="931.611" r="4" fill="#0" id="circle87"/>
	<circle cx="509.055" cy="881.306" r="4" fill="#0" id="circle88"/>
	<circle cx="517.103" cy="34.1826" r="4" fill="#0" id="circle89"/>
	<circle cx="519.116" cy="841.063" r="4" fill="#0" id="circle90"/>
	<circle cx="519.116" cy="861.185" r="4" fill="#0" id="circle91"/>
	<circle cx="529.176" cy="780.698" r="4" fill="#0" id="circle92"/>
	<circle cx="529.176" cy="800.819" r="4" fill="#0" id="circle93"/>
	<circle cx="529.176" cy="820.941" r="4" fill="#0" id="circle94"/>
	<circle cx="535.213" cy="44.2434" r="4" fill="#0" id="circle95"/>
	<circle cx="539.237" cy="317.899" r="4" fill="#0" id="circle96"/>
	<circle cx="539.237" cy="730.394" r="4" fill="#0" id="circle97"/>
	<circle cx="539.237" cy="750.515" r="4" fill="#0" id="circle98"/>
	<circle cx="543.262" cy="338.02" r="4" fill="#0" id="circle99"/>
	<circle cx="549.298" cy="680.089" r="4" fill="#0" id="circle100"/>
	<circle cx="549.298" cy="700.211" r="4" fill="#0" id="circle101"/>
	<circle cx="555.335" cy="46.2556" r="4" fill="#0" id="circle102"/>
	<circle cx="557.347" cy="307.838" r="4" fill="#0" id="circle103"/>
	<circle cx="559.359" cy="352.105" r="4" fill="#0" id="circle104"/>
	<circle cx="559.359" cy="659.968" r="4" fill="#0" id="circle105"/>
	<circle cx="567.408" cy="372.227" r="4" fill="#0" id="circle106"/>
	<circle cx="569.42" cy="639.846" r="4" fill="#0" id="circle107"/>
	<circle cx="573.444" cy="56.3164" r="4" fill="#0" id="circle108"/>
	<circle cx="573.444" cy="295.765" r="4" fill="#0" id="circle109"/>
	<circle cx="577.469" cy="390.337" r="4" fill="#0" id="circle110"/>
	<circle cx="579.481" cy="609.663" r="4" fill="#0" id="circle111"/>
	<circle cx="585.517" cy="410.458" r="4" fill="#0" id="circle112"/>
	<circle cx="589.542" cy="430.58" r="4" fill="#0" id="circle113"/>
	<circle cx="589.542" cy="458.751" r="4" fill="#0" id="circle114"/>
	<circle cx="589.542" cy="559.359" r="4" fill="#0" id="circle115"/>
	<circle cx="589.542" cy="579.481" r="4" fill="#0" id="circle116"/>
	<circle cx="593.566" cy="64.3651" r="4" fill="#0" id="circle117"/>
	<circle cx="593.566" cy="285.704" r="4" fill="#0" id="circle118"/>
	<circle cx="599.602" cy="476.86" r="4" fill="#0" id="circle119"/>
	<circle cx="599.602" cy="496.982" r="4" fill="#0" id="circle120"/>
	<circle cx="599.602" cy="517.103" r="4" fill="#0" id="circle121"/>
	<circle cx="599.602" cy="537.225" r="4" fill="#0" id="circle122"/>
	<circle cx="603.627" cy="265.582" r="4" fill="#0" id="circle123"/>
	<circle cx="607.651" cy="80.4625" r="4" fill="#0" id="circle124"/>
	<circle cx="623.748" cy="94.5477" r="4" fill="#0" id="circle125"/>
	<circle cx="623.748" cy="257.533" r="4" fill="#0" id="circle126"/>
	<circle cx="637.834" cy="110.645" r="4" fill="#0" id="circle127"/>
	<circle cx="641.858" cy="267.594" r="4" fill="#0" id="circle128"/>
	<circle cx="647.895" cy="128.755" r="4" fill="#0" id="circle129"/>
	<circle cx="649.907" cy="148.876" r="4" fill="#0" id="circle130"/>
	<circle cx="659.968" cy="277.655" r="4" fill="#0" id="circle131"/>
	<circle cx="661.98" cy="164.974" r="4" fill="#0" id="circle132"/>
	<circle cx="678.077" cy="179.059" r="4" fill="#0" id="circle133"/>
	<circle cx="678.077" cy="287.716" r="4" fill="#0" id="circle134"/>
	<circle cx="690.15" cy="195.156" r="4" fill="#0" id="circle135"/>
	<circle cx="696.187" cy="297.777" r="4" fill="#0" id="circle136"/>
	<circle cx="706.247" cy="207.229" r="4" fill="#0" id="circle137"/>
	<circle cx="714.296" cy="307.838" r="4" fill="#0" id="circle138"/>
	<circle cx="720.333" cy="223.327" r="4" fill="#0" id="circle139"/>
	<circle cx="730.394" cy="241.436" r="4" fill="#0" id="circle140"/>
	<circle cx="732.406" cy="317.899" r="4" fill="#0" id="circle141"/>
	<circle cx="744.479" cy="257.533" r="4" fill="#0" id="circle142"/>
	<circle cx="748.503" cy="329.972" r="4" fill="#0" id="circle143"/>
	<circle cx="760.576" cy="271.619" r="4" fill="#0" id="circle144"/>
	<circle cx="760.576" cy="291.74" r="4" fill="#0" id="circle145"/>
	<circle cx="768.625" cy="327.959" r="4" fill="#0" id="circle146"/>
	</g>
</svg>