<?xml version="1.0" encoding="UTF-8" standalone="no"?>
<!-- Created with CurveBenchmark -->
<svg
	xmlns:dc="http://purl.org/dc/elements/1.1/"
	xmlns:cc="http://creativecommons.org/ns#"
	xmlns:rdf="http://www.w3.org/1999/02/22-rdf-syntax-ns#"
	xmlns:svg="http://www.w3.org/2000/svg"
	xmlns="http://www.w3.org/2000/svg"
	xmlns:sodipodi="http://sodipodi.sourceforge.net/DTD/sodipodi-0.dtd"
	xmlns:inkscape="http://www.inkscape.org/namespaces/inkscape"
	width="1000"
	height="1000"
	id="svg2"
	version="1.1"
	sodipodi:docname="manifold/discur-children-2.png.txt">
<defs
	id="defs4" />
<metadata
	id="metadata7">
	<rdf:RDF>
		<cc:Work
			rdf:about="">
			<dc:format>image/svg+xml</dc:format>
			<dc:type
				rdf:resource="http://purl.org/dc/dcmitype/StillImage" />
			<dc:title></dc:title>
		</cc:Work>
	</rdf:RDF>
</metadata>
<g
	inkscape:label="Layer 1"
	inkscape:groupmode="layer"
	id="layer1">
	<path style="fill:none;stroke:red;stroke-width:1px;stroke-linecap:butt;stroke-linejoin:miter;stroke-opacity:1" d="M 4,306.017 4,317.954 z" id="boundary" inkscape:connector-curvature="0" />
	<path style="fill:none;stroke:red;stroke-width:1px;stroke-linecap:butt;stroke-linejoin:miter;stroke-opacity:1" d="M 4,306.017 9.96871,294.079 z" id="boundary" inkscape:connector-curvature="0" />
	<path style="fill:none;stroke:red;stroke-width:1px;stroke-linecap:butt;stroke-linejoin:miter;stroke-opacity:1" d="M 4,317.954 4,329.892 z" id="boundary" inkscape:connector-curvature="0" />
	<path style="fill:none;stroke:red;stroke-width:1px;stroke-linecap:butt;stroke-linejoin:miter;stroke-opacity:1" d="M 4,329.892 4,341.829 z" id="boundary" inkscape:connector-curvature="0" />
	<path style="fill:none;stroke:red;stroke-width:1px;stroke-linecap:butt;stroke-linejoin:miter;stroke-opacity:1" d="M 4,341.829 4,353.767 z" id="boundary" inkscape:connector-curvature="0" />
	<path style="fill:none;stroke:red;stroke-width:1px;stroke-linecap:butt;stroke-linejoin:miter;stroke-opacity:1" d="M 4,353.767 4,365.704 z" id="boundary" inkscape:connector-curvature="0" />
	<path style="fill:none;stroke:red;stroke-width:1px;stroke-linecap:butt;stroke-linejoin:miter;stroke-opacity:1" d="M 4,365.704 9.96871,376.448 z" id="boundary" inkscape:connector-curvature="0" />
	<path style="fill:none;stroke:red;stroke-width:1px;stroke-linecap:butt;stroke-linejoin:miter;stroke-opacity:1" d="M 9.96871,294.079 15.9374,282.142 z" id="boundary" inkscape:connector-curvature="0" />
	<path style="fill:none;stroke:red;stroke-width:1px;stroke-linecap:butt;stroke-linejoin:miter;stroke-opacity:1" d="M 9.96871,376.448 15.9374,387.191 z" id="boundary" inkscape:connector-curvature="0" />
	<path style="fill:none;stroke:red;stroke-width:1px;stroke-linecap:butt;stroke-linejoin:miter;stroke-opacity:1" d="M 9.96871,437.329 9.96871,449.266 z" id="boundary" inkscape:connector-curvature="0" />
	<path style="fill:none;stroke:red;stroke-width:1px;stroke-linecap:butt;stroke-linejoin:miter;stroke-opacity:1" d="M 9.96871,437.329 15.9374,423.004 z" id="boundary" inkscape:connector-curvature="0" />
	<path style="fill:none;stroke:red;stroke-width:1px;stroke-linecap:butt;stroke-linejoin:miter;stroke-opacity:1" d="M 9.96871,449.266 15.9374,460.01 z" id="boundary" inkscape:connector-curvature="0" />
	<path style="fill:none;stroke:red;stroke-width:1px;stroke-linecap:butt;stroke-linejoin:miter;stroke-opacity:1" d="M 15.9374,282.142 25.4874,272.592 z" id="boundary" inkscape:connector-curvature="0" />
	<path style="fill:none;stroke:red;stroke-width:1px;stroke-linecap:butt;stroke-linejoin:miter;stroke-opacity:1" d="M 15.9374,387.191 15.9374,399.129 z" id="boundary" inkscape:connector-curvature="0" />
	<path style="fill:none;stroke:red;stroke-width:1px;stroke-linecap:butt;stroke-linejoin:miter;stroke-opacity:1" d="M 15.9374,399.129 15.9374,411.066 z" id="boundary" inkscape:connector-curvature="0" />
	<path style="fill:none;stroke:red;stroke-width:1px;stroke-linecap:butt;stroke-linejoin:miter;stroke-opacity:1" d="M 15.9374,411.066 15.9374,423.004 z" id="boundary" inkscape:connector-curvature="0" />
	<path style="fill:none;stroke:red;stroke-width:1px;stroke-linecap:butt;stroke-linejoin:miter;stroke-opacity:1" d="M 15.9374,460.01 15.9374,471.947 z" id="boundary" inkscape:connector-curvature="0" />
	<path style="fill:none;stroke:red;stroke-width:1px;stroke-linecap:butt;stroke-linejoin:miter;stroke-opacity:1" d="M 15.9374,471.947 21.9061,482.691 z" id="boundary" inkscape:connector-curvature="0" />
	<path style="fill:none;stroke:red;stroke-width:1px;stroke-linecap:butt;stroke-linejoin:miter;stroke-opacity:1" d="M 21.9061,73.2371 21.9061,85.1745 z" id="boundary" inkscape:connector-curvature="0" />
	<path style="fill:none;stroke:red;stroke-width:1px;stroke-linecap:butt;stroke-linejoin:miter;stroke-opacity:1" d="M 21.9061,73.2371 27.8748,61.2996 z" id="boundary" inkscape:connector-curvature="0" />
	<path style="fill:none;stroke:red;stroke-width:1px;stroke-linecap:butt;stroke-linejoin:miter;stroke-opacity:1" d="M 21.9061,85.1745 21.9061,97.1119 z" id="boundary" inkscape:connector-curvature="0" />
	<path style="fill:none;stroke:red;stroke-width:1px;stroke-linecap:butt;stroke-linejoin:miter;stroke-opacity:1" d="M 21.9061,97.1119 21.9061,109.049 z" id="boundary" inkscape:connector-curvature="0" />
	<path style="fill:none;stroke:red;stroke-width:1px;stroke-linecap:butt;stroke-linejoin:miter;stroke-opacity:1" d="M 21.9061,109.049 21.9061,120.987 z" id="boundary" inkscape:connector-curvature="0" />
	<path style="fill:none;stroke:red;stroke-width:1px;stroke-linecap:butt;stroke-linejoin:miter;stroke-opacity:1" d="M 21.9061,120.987 27.8748,131.73 z" id="boundary" inkscape:connector-curvature="0" />
	<path style="fill:none;stroke:red;stroke-width:1px;stroke-linecap:butt;stroke-linejoin:miter;stroke-opacity:1" d="M 21.9061,482.691 21.9061,494.628 z" id="boundary" inkscape:connector-curvature="0" />
	<path style="fill:none;stroke:red;stroke-width:1px;stroke-linecap:butt;stroke-linejoin:miter;stroke-opacity:1" d="M 21.9061,494.628 25.4874,506.566 z" id="boundary" inkscape:connector-curvature="0" />
	<path style="fill:none;stroke:red;stroke-width:1px;stroke-linecap:butt;stroke-linejoin:miter;stroke-opacity:1" d="M 25.4874,272.592 31.4561,260.655 z" id="boundary" inkscape:connector-curvature="0" />
	<path style="fill:none;stroke:red;stroke-width:1px;stroke-linecap:butt;stroke-linejoin:miter;stroke-opacity:1" d="M 25.4874,506.566 27.8748,518.503 z" id="boundary" inkscape:connector-curvature="0" />
	<path style="fill:none;stroke:red;stroke-width:1px;stroke-linecap:butt;stroke-linejoin:miter;stroke-opacity:1" d="M 27.8748,61.2996 33.8436,49.3622 z" id="boundary" inkscape:connector-curvature="0" />
	<path style="fill:none;stroke:red;stroke-width:1px;stroke-linecap:butt;stroke-linejoin:miter;stroke-opacity:1" d="M 27.8748,131.73 33.8436,142.474 z" id="boundary" inkscape:connector-curvature="0" />
	<path style="fill:none;stroke:red;stroke-width:1px;stroke-linecap:butt;stroke-linejoin:miter;stroke-opacity:1" d="M 27.8748,518.503 33.8436,529.247 z" id="boundary" inkscape:connector-curvature="0" />
	<path style="fill:none;stroke:red;stroke-width:1px;stroke-linecap:butt;stroke-linejoin:miter;stroke-opacity:1" d="M 31.4561,260.655 42.1998,254.686 z" id="boundary" inkscape:connector-curvature="0" />
	<path style="fill:none;stroke:red;stroke-width:1px;stroke-linecap:butt;stroke-linejoin:miter;stroke-opacity:1" d="M 33.8436,49.3622 43.3935,39.8123 z" id="boundary" inkscape:connector-curvature="0" />
	<path style="fill:none;stroke:red;stroke-width:1px;stroke-linecap:butt;stroke-linejoin:miter;stroke-opacity:1" d="M 33.8436,142.474 37.4248,154.412 z" id="boundary" inkscape:connector-curvature="0" />
	<path style="fill:none;stroke:red;stroke-width:1px;stroke-linecap:butt;stroke-linejoin:miter;stroke-opacity:1" d="M 33.8436,529.247 39.8123,539.99 z" id="boundary" inkscape:connector-curvature="0" />
	<path style="fill:none;stroke:red;stroke-width:1px;stroke-linecap:butt;stroke-linejoin:miter;stroke-opacity:1" d="M 37.4248,154.412 45.781,163.961 z" id="boundary" inkscape:connector-curvature="0" />
	<path style="fill:none;stroke:red;stroke-width:1px;stroke-linecap:butt;stroke-linejoin:miter;stroke-opacity:1" d="M 39.8123,539.99 39.8123,551.928 z" id="boundary" inkscape:connector-curvature="0" />
	<path style="fill:none;stroke:red;stroke-width:1px;stroke-linecap:butt;stroke-linejoin:miter;stroke-opacity:1" d="M 39.8123,551.928 39.8123,563.865 z" id="boundary" inkscape:connector-curvature="0" />
	<path style="fill:none;stroke:red;stroke-width:1px;stroke-linecap:butt;stroke-linejoin:miter;stroke-opacity:1" d="M 39.8123,563.865 39.8123,575.803 z" id="boundary" inkscape:connector-curvature="0" />
	<path style="fill:none;stroke:red;stroke-width:1px;stroke-linecap:butt;stroke-linejoin:miter;stroke-opacity:1" d="M 39.8123,575.803 41.006,587.74 z" id="boundary" inkscape:connector-curvature="0" />
	<path style="fill:none;stroke:red;stroke-width:1px;stroke-linecap:butt;stroke-linejoin:miter;stroke-opacity:1" d="M 41.006,587.74 45.781,599.677 z" id="boundary" inkscape:connector-curvature="0" />
	<path style="fill:none;stroke:red;stroke-width:1px;stroke-linecap:butt;stroke-linejoin:miter;stroke-opacity:1" d="M 42.1998,254.686 52.9434,248.717 z" id="boundary" inkscape:connector-curvature="0" />
	<path style="fill:none;stroke:red;stroke-width:1px;stroke-linecap:butt;stroke-linejoin:miter;stroke-opacity:1" d="M 43.3935,39.8123 52.9434,30.2623 z" id="boundary" inkscape:connector-curvature="0" />
	<path style="fill:none;stroke:red;stroke-width:1px;stroke-linecap:butt;stroke-linejoin:miter;stroke-opacity:1" d="M 45.781,163.961 51.7497,174.705 z" id="boundary" inkscape:connector-curvature="0" />
	<path style="fill:none;stroke:red;stroke-width:1px;stroke-linecap:butt;stroke-linejoin:miter;stroke-opacity:1" d="M 45.781,599.677 45.781,611.615 z" id="boundary" inkscape:connector-curvature="0" />
	<path style="fill:none;stroke:red;stroke-width:1px;stroke-linecap:butt;stroke-linejoin:miter;stroke-opacity:1" d="M 45.781,611.615 51.7497,622.359 z" id="boundary" inkscape:connector-curvature="0" />
	<path style="fill:none;stroke:red;stroke-width:1px;stroke-linecap:butt;stroke-linejoin:miter;stroke-opacity:1" d="M 51.7497,174.705 61.2996,183.061 z" id="boundary" inkscape:connector-curvature="0" />
	<path style="fill:none;stroke:red;stroke-width:1px;stroke-linecap:butt;stroke-linejoin:miter;stroke-opacity:1" d="M 51.7497,622.359 51.7497,634.296 z" id="boundary" inkscape:connector-curvature="0" />
	<path style="fill:none;stroke:red;stroke-width:1px;stroke-linecap:butt;stroke-linejoin:miter;stroke-opacity:1" d="M 51.7497,634.296 51.7497,646.233 z" id="boundary" inkscape:connector-curvature="0" />
	<path style="fill:none;stroke:red;stroke-width:1px;stroke-linecap:butt;stroke-linejoin:miter;stroke-opacity:1" d="M 51.7497,646.233 57.7184,656.977 z" id="boundary" inkscape:connector-curvature="0" />
	<path style="fill:none;stroke:red;stroke-width:1px;stroke-linecap:butt;stroke-linejoin:miter;stroke-opacity:1" d="M 52.9434,30.2623 62.4934,21.9061 z" id="boundary" inkscape:connector-curvature="0" />
	<path style="fill:none;stroke:red;stroke-width:1px;stroke-linecap:butt;stroke-linejoin:miter;stroke-opacity:1" d="M 52.9434,248.717 63.6871,240.361 z" id="boundary" inkscape:connector-curvature="0" />
	<path style="fill:none;stroke:red;stroke-width:1px;stroke-linecap:butt;stroke-linejoin:miter;stroke-opacity:1" d="M 57.7184,656.977 63.6871,667.721 z" id="boundary" inkscape:connector-curvature="0" />
	<path style="fill:none;stroke:red;stroke-width:1px;stroke-linecap:butt;stroke-linejoin:miter;stroke-opacity:1" d="M 61.2996,183.061 69.6558,192.611 z" id="boundary" inkscape:connector-curvature="0" />
	<path style="fill:none;stroke:red;stroke-width:1px;stroke-linecap:butt;stroke-linejoin:miter;stroke-opacity:1" d="M 62.4934,21.9061 73.2371,15.9374 z" id="boundary" inkscape:connector-curvature="0" />
	<path style="fill:none;stroke:red;stroke-width:1px;stroke-linecap:butt;stroke-linejoin:miter;stroke-opacity:1" d="M 63.6871,240.361 69.6558,228.424 z" id="boundary" inkscape:connector-curvature="0" />
	<path style="fill:none;stroke:red;stroke-width:1px;stroke-linecap:butt;stroke-linejoin:miter;stroke-opacity:1" d="M 63.6871,667.721 69.6558,678.465 z" id="boundary" inkscape:connector-curvature="0" />
	<path style="fill:none;stroke:red;stroke-width:1px;stroke-linecap:butt;stroke-linejoin:miter;stroke-opacity:1" d="M 69.6558,192.611 75.6245,203.355 z" id="boundary" inkscape:connector-curvature="0" />
	<path style="fill:none;stroke:red;stroke-width:1px;stroke-linecap:butt;stroke-linejoin:miter;stroke-opacity:1" d="M 69.6558,228.424 75.6245,215.292 z" id="boundary" inkscape:connector-curvature="0" />
	<path style="fill:none;stroke:red;stroke-width:1px;stroke-linecap:butt;stroke-linejoin:miter;stroke-opacity:1" d="M 69.6558,678.465 76.8183,688.014 z" id="boundary" inkscape:connector-curvature="0" />
	<path style="fill:none;stroke:red;stroke-width:1px;stroke-linecap:butt;stroke-linejoin:miter;stroke-opacity:1" d="M 73.2371,15.9374 83.9807,9.96871 z" id="boundary" inkscape:connector-curvature="0" />
	<path style="fill:none;stroke:red;stroke-width:1px;stroke-linecap:butt;stroke-linejoin:miter;stroke-opacity:1" d="M 75.6245,203.355 75.6245,215.292 z" id="boundary" inkscape:connector-curvature="0" />
	<path style="fill:none;stroke:red;stroke-width:1px;stroke-linecap:butt;stroke-linejoin:miter;stroke-opacity:1" d="M 76.8183,688.014 87.562,693.983 z" id="boundary" inkscape:connector-curvature="0" />
	<path style="fill:none;stroke:red;stroke-width:1px;stroke-linecap:butt;stroke-linejoin:miter;stroke-opacity:1" d="M 83.9807,9.96871 95.9182,5.19374 z" id="boundary" inkscape:connector-curvature="0" />
	<path style="fill:none;stroke:red;stroke-width:1px;stroke-linecap:butt;stroke-linejoin:miter;stroke-opacity:1" d="M 87.562,693.983 97.1119,702.339 z" id="boundary" inkscape:connector-curvature="0" />
	<path style="fill:none;stroke:red;stroke-width:1px;stroke-linecap:butt;stroke-linejoin:miter;stroke-opacity:1" d="M 87.562,795.451 87.562,807.389 z" id="boundary" inkscape:connector-curvature="0" />
	<path style="fill:none;stroke:red;stroke-width:1px;stroke-linecap:butt;stroke-linejoin:miter;stroke-opacity:1" d="M 87.562,795.451 93.5307,777.545 z" id="boundary" inkscape:connector-curvature="0" />
	<path style="fill:none;stroke:red;stroke-width:1px;stroke-linecap:butt;stroke-linejoin:miter;stroke-opacity:1" d="M 87.562,807.389 87.562,819.326 z" id="boundary" inkscape:connector-curvature="0" />
	<path style="fill:none;stroke:red;stroke-width:1px;stroke-linecap:butt;stroke-linejoin:miter;stroke-opacity:1" d="M 87.562,819.326 87.562,831.264 z" id="boundary" inkscape:connector-curvature="0" />
	<path style="fill:none;stroke:red;stroke-width:1px;stroke-linecap:butt;stroke-linejoin:miter;stroke-opacity:1" d="M 87.562,831.264 93.5307,842.007 z" id="boundary" inkscape:connector-curvature="0" />
	<path style="fill:none;stroke:red;stroke-width:1px;stroke-linecap:butt;stroke-linejoin:miter;stroke-opacity:1" d="M 93.5307,777.545 99.4994,759.639 z" id="boundary" inkscape:connector-curvature="0" />
	<path style="fill:none;stroke:red;stroke-width:1px;stroke-linecap:butt;stroke-linejoin:miter;stroke-opacity:1" d="M 93.5307,842.007 93.5307,853.945 z" id="boundary" inkscape:connector-curvature="0" />
	<path style="fill:none;stroke:red;stroke-width:1px;stroke-linecap:butt;stroke-linejoin:miter;stroke-opacity:1" d="M 93.5307,853.945 99.4994,864.688 z" id="boundary" inkscape:connector-curvature="0" />
	<path style="fill:none;stroke:red;stroke-width:1px;stroke-linecap:butt;stroke-linejoin:miter;stroke-opacity:1" d="M 95.9182,5.19374 107.856,4 z" id="boundary" inkscape:connector-curvature="0" />
	<path style="fill:none;stroke:red;stroke-width:1px;stroke-linecap:butt;stroke-linejoin:miter;stroke-opacity:1" d="M 97.1119,702.339 105.468,711.889 z" id="boundary" inkscape:connector-curvature="0" />
	<path style="fill:none;stroke:red;stroke-width:1px;stroke-linecap:butt;stroke-linejoin:miter;stroke-opacity:1" d="M 99.4994,759.639 105.468,747.702 z" id="boundary" inkscape:connector-curvature="0" />
	<path style="fill:none;stroke:red;stroke-width:1px;stroke-linecap:butt;stroke-linejoin:miter;stroke-opacity:1" d="M 99.4994,864.688 103.081,876.626 z" id="boundary" inkscape:connector-curvature="0" />
	<path style="fill:none;stroke:red;stroke-width:1px;stroke-linecap:butt;stroke-linejoin:miter;stroke-opacity:1" d="M 99.4994,938.7 99.4994,950.638 z" id="boundary" inkscape:connector-curvature="0" />
	<path style="fill:none;stroke:red;stroke-width:1px;stroke-linecap:butt;stroke-linejoin:miter;stroke-opacity:1" d="M 99.4994,938.7 105.468,920.794 z" id="boundary" inkscape:connector-curvature="0" />
	<path style="fill:none;stroke:red;stroke-width:1px;stroke-linecap:butt;stroke-linejoin:miter;stroke-opacity:1" d="M 99.4994,950.638 99.4994,962.575 z" id="boundary" inkscape:connector-curvature="0" />
	<path style="fill:none;stroke:red;stroke-width:1px;stroke-linecap:butt;stroke-linejoin:miter;stroke-opacity:1" d="M 99.4994,962.575 109.049,970.931 z" id="boundary" inkscape:connector-curvature="0" />
	<path style="fill:none;stroke:red;stroke-width:1px;stroke-linecap:butt;stroke-linejoin:miter;stroke-opacity:1" d="M 103.081,876.626 105.468,888.563 z" id="boundary" inkscape:connector-curvature="0" />
	<path style="fill:none;stroke:red;stroke-width:1px;stroke-linecap:butt;stroke-linejoin:miter;stroke-opacity:1" d="M 105.468,711.889 105.468,723.827 z" id="boundary" inkscape:connector-curvature="0" />
	<path style="fill:none;stroke:red;stroke-width:1px;stroke-linecap:butt;stroke-linejoin:miter;stroke-opacity:1" d="M 105.468,723.827 105.468,735.764 z" id="boundary" inkscape:connector-curvature="0" />
	<path style="fill:none;stroke:red;stroke-width:1px;stroke-linecap:butt;stroke-linejoin:miter;stroke-opacity:1" d="M 105.468,735.764 105.468,747.702 z" id="boundary" inkscape:connector-curvature="0" />
	<path style="fill:none;stroke:red;stroke-width:1px;stroke-linecap:butt;stroke-linejoin:miter;stroke-opacity:1" d="M 105.468,888.563 111.437,899.307 z" id="boundary" inkscape:connector-curvature="0" />
	<path style="fill:none;stroke:red;stroke-width:1px;stroke-linecap:butt;stroke-linejoin:miter;stroke-opacity:1" d="M 105.468,920.794 111.437,899.307 z" id="boundary" inkscape:connector-curvature="0" />
	<path style="fill:none;stroke:red;stroke-width:1px;stroke-linecap:butt;stroke-linejoin:miter;stroke-opacity:1" d="M 107.856,4 119.793,4 z" id="boundary" inkscape:connector-curvature="0" />
	<path style="fill:none;stroke:red;stroke-width:1px;stroke-linecap:butt;stroke-linejoin:miter;stroke-opacity:1" d="M 109.049,970.931 117.406,980.481 z" id="boundary" inkscape:connector-curvature="0" />
	<path style="fill:none;stroke:red;stroke-width:1px;stroke-linecap:butt;stroke-linejoin:miter;stroke-opacity:1" d="M 117.406,980.481 129.343,984.063 z" id="boundary" inkscape:connector-curvature="0" />
	<path style="fill:none;stroke:red;stroke-width:1px;stroke-linecap:butt;stroke-linejoin:miter;stroke-opacity:1" d="M 119.793,4 131.73,4 z" id="boundary" inkscape:connector-curvature="0" />
	<path style="fill:none;stroke:red;stroke-width:1px;stroke-linecap:butt;stroke-linejoin:miter;stroke-opacity:1" d="M 129.343,984.063 141.28,984.063 z" id="boundary" inkscape:connector-curvature="0" />
	<path style="fill:none;stroke:red;stroke-width:1px;stroke-linecap:butt;stroke-linejoin:miter;stroke-opacity:1" d="M 131.73,4 143.668,4 z" id="boundary" inkscape:connector-curvature="0" />
	<path style="fill:none;stroke:red;stroke-width:1px;stroke-linecap:butt;stroke-linejoin:miter;stroke-opacity:1" d="M 141.28,984.063 152.024,990.031 z" id="boundary" inkscape:connector-curvature="0" />
	<path style="fill:none;stroke:red;stroke-width:1px;stroke-linecap:butt;stroke-linejoin:miter;stroke-opacity:1" d="M 143.668,4 155.605,4 z" id="boundary" inkscape:connector-curvature="0" />
	<path style="fill:none;stroke:red;stroke-width:1px;stroke-linecap:butt;stroke-linejoin:miter;stroke-opacity:1" d="M 152.024,990.031 163.961,990.031 z" id="boundary" inkscape:connector-curvature="0" />
	<path style="fill:none;stroke:red;stroke-width:1px;stroke-linecap:butt;stroke-linejoin:miter;stroke-opacity:1" d="M 155.605,4 167.543,4 z" id="boundary" inkscape:connector-curvature="0" />
	<path style="fill:none;stroke:red;stroke-width:1px;stroke-linecap:butt;stroke-linejoin:miter;stroke-opacity:1" d="M 163.961,990.031 174.705,996 z" id="boundary" inkscape:connector-curvature="0" />
	<path style="fill:none;stroke:red;stroke-width:1px;stroke-linecap:butt;stroke-linejoin:miter;stroke-opacity:1" d="M 167.543,4 178.286,9.96871 z" id="boundary" inkscape:connector-curvature="0" />
	<path style="fill:none;stroke:red;stroke-width:1px;stroke-linecap:butt;stroke-linejoin:miter;stroke-opacity:1" d="M 174.705,996 186.643,996 z" id="boundary" inkscape:connector-curvature="0" />
	<path style="fill:none;stroke:red;stroke-width:1px;stroke-linecap:butt;stroke-linejoin:miter;stroke-opacity:1" d="M 178.286,9.96871 190.224,9.96871 z" id="boundary" inkscape:connector-curvature="0" />
	<path style="fill:none;stroke:red;stroke-width:1px;stroke-linecap:butt;stroke-linejoin:miter;stroke-opacity:1" d="M 186.643,996 198.58,996 z" id="boundary" inkscape:connector-curvature="0" />
	<path style="fill:none;stroke:red;stroke-width:1px;stroke-linecap:butt;stroke-linejoin:miter;stroke-opacity:1" d="M 190.224,9.96871 200.968,15.9374 z" id="boundary" inkscape:connector-curvature="0" />
	<path style="fill:none;stroke:red;stroke-width:1px;stroke-linecap:butt;stroke-linejoin:miter;stroke-opacity:1" d="M 198.58,996 210.517,996 z" id="boundary" inkscape:connector-curvature="0" />
	<path style="fill:none;stroke:red;stroke-width:1px;stroke-linecap:butt;stroke-linejoin:miter;stroke-opacity:1" d="M 200.968,15.9374 212.905,18.3249 z" id="boundary" inkscape:connector-curvature="0" />
	<path style="fill:none;stroke:red;stroke-width:1px;stroke-linecap:butt;stroke-linejoin:miter;stroke-opacity:1" d="M 210.517,996 222.455,996 z" id="boundary" inkscape:connector-curvature="0" />
	<path style="fill:none;stroke:red;stroke-width:1px;stroke-linecap:butt;stroke-linejoin:miter;stroke-opacity:1" d="M 212.905,18.3249 220.067,27.8748 z" id="boundary" inkscape:connector-curvature="0" />
	<path style="fill:none;stroke:red;stroke-width:1px;stroke-linecap:butt;stroke-linejoin:miter;stroke-opacity:1" d="M 220.067,27.8748 232.005,31.4561 z" id="boundary" inkscape:connector-curvature="0" />
	<path style="fill:none;stroke:red;stroke-width:1px;stroke-linecap:butt;stroke-linejoin:miter;stroke-opacity:1" d="M 222.455,996 234.392,996 z" id="boundary" inkscape:connector-curvature="0" />
	<path style="fill:none;stroke:red;stroke-width:1px;stroke-linecap:butt;stroke-linejoin:miter;stroke-opacity:1" d="M 232.005,31.4561 240.361,41.006 z" id="boundary" inkscape:connector-curvature="0" />
	<path style="fill:none;stroke:red;stroke-width:1px;stroke-linecap:butt;stroke-linejoin:miter;stroke-opacity:1" d="M 234.392,996 246.33,996 z" id="boundary" inkscape:connector-curvature="0" />
	<path style="fill:none;stroke:red;stroke-width:1px;stroke-linecap:butt;stroke-linejoin:miter;stroke-opacity:1" d="M 240.361,41.006 249.911,49.3622 z" id="boundary" inkscape:connector-curvature="0" />
	<path style="fill:none;stroke:red;stroke-width:1px;stroke-linecap:butt;stroke-linejoin:miter;stroke-opacity:1" d="M 243.942,864.688 243.942,876.626 z" id="boundary" inkscape:connector-curvature="0" />
	<path style="fill:none;stroke:red;stroke-width:1px;stroke-linecap:butt;stroke-linejoin:miter;stroke-opacity:1" d="M 243.942,864.688 249.911,852.751 z" id="boundary" inkscape:connector-curvature="0" />
	<path style="fill:none;stroke:red;stroke-width:1px;stroke-linecap:butt;stroke-linejoin:miter;stroke-opacity:1" d="M 243.942,876.626 246.33,888.563 z" id="boundary" inkscape:connector-curvature="0" />
	<path style="fill:none;stroke:red;stroke-width:1px;stroke-linecap:butt;stroke-linejoin:miter;stroke-opacity:1" d="M 246.33,888.563 255.88,896.919 z" id="boundary" inkscape:connector-curvature="0" />
	<path style="fill:none;stroke:red;stroke-width:1px;stroke-linecap:butt;stroke-linejoin:miter;stroke-opacity:1" d="M 246.33,996 258.267,996 z" id="boundary" inkscape:connector-curvature="0" />
	<path style="fill:none;stroke:red;stroke-width:1px;stroke-linecap:butt;stroke-linejoin:miter;stroke-opacity:1" d="M 249.911,49.3622 255.88,60.1059 z" id="boundary" inkscape:connector-curvature="0" />
	<path style="fill:none;stroke:red;stroke-width:1px;stroke-linecap:butt;stroke-linejoin:miter;stroke-opacity:1" d="M 249.911,226.036 252.298,237.974 z" id="boundary" inkscape:connector-curvature="0" />
	<path style="fill:none;stroke:red;stroke-width:1px;stroke-linecap:butt;stroke-linejoin:miter;stroke-opacity:1" d="M 249.911,226.036 255.88,214.099 z" id="boundary" inkscape:connector-curvature="0" />
	<path style="fill:none;stroke:red;stroke-width:1px;stroke-linecap:butt;stroke-linejoin:miter;stroke-opacity:1" d="M 249.911,852.751 255.88,834.845 z" id="boundary" inkscape:connector-curvature="0" />
	<path style="fill:none;stroke:red;stroke-width:1px;stroke-linecap:butt;stroke-linejoin:miter;stroke-opacity:1" d="M 252.298,237.974 258.267,248.717 z" id="boundary" inkscape:connector-curvature="0" />
	<path style="fill:none;stroke:red;stroke-width:1px;stroke-linecap:butt;stroke-linejoin:miter;stroke-opacity:1" d="M 255.88,60.1059 261.848,70.8496 z" id="boundary" inkscape:connector-curvature="0" />
	<path style="fill:none;stroke:red;stroke-width:1px;stroke-linecap:butt;stroke-linejoin:miter;stroke-opacity:1" d="M 255.88,202.161 255.88,214.099 z" id="boundary" inkscape:connector-curvature="0" />
	<path style="fill:none;stroke:red;stroke-width:1px;stroke-linecap:butt;stroke-linejoin:miter;stroke-opacity:1" d="M 255.88,202.161 261.848,190.224 z" id="boundary" inkscape:connector-curvature="0" />
	<path style="fill:none;stroke:red;stroke-width:1px;stroke-linecap:butt;stroke-linejoin:miter;stroke-opacity:1" d="M 255.88,834.845 261.848,822.907 z" id="boundary" inkscape:connector-curvature="0" />
	<path style="fill:none;stroke:red;stroke-width:1px;stroke-linecap:butt;stroke-linejoin:miter;stroke-opacity:1" d="M 255.88,896.919 265.43,905.276 z" id="boundary" inkscape:connector-curvature="0" />
	<path style="fill:none;stroke:red;stroke-width:1px;stroke-linecap:butt;stroke-linejoin:miter;stroke-opacity:1" d="M 258.267,248.717 266.623,258.267 z" id="boundary" inkscape:connector-curvature="0" />
	<path style="fill:none;stroke:red;stroke-width:1px;stroke-linecap:butt;stroke-linejoin:miter;stroke-opacity:1" d="M 258.267,996 269.011,990.031 z" id="boundary" inkscape:connector-curvature="0" />
	<path style="fill:none;stroke:red;stroke-width:1px;stroke-linecap:butt;stroke-linejoin:miter;stroke-opacity:1" d="M 261.848,70.8496 267.817,81.5933 z" id="boundary" inkscape:connector-curvature="0" />
	<path style="fill:none;stroke:red;stroke-width:1px;stroke-linecap:butt;stroke-linejoin:miter;stroke-opacity:1" d="M 261.848,190.224 267.817,178.286 z" id="boundary" inkscape:connector-curvature="0" />
	<path style="fill:none;stroke:red;stroke-width:1px;stroke-linecap:butt;stroke-linejoin:miter;stroke-opacity:1" d="M 261.848,822.907 267.817,810.97 z" id="boundary" inkscape:connector-curvature="0" />
	<path style="fill:none;stroke:red;stroke-width:1px;stroke-linecap:butt;stroke-linejoin:miter;stroke-opacity:1" d="M 265.43,905.276 276.173,911.244 z" id="boundary" inkscape:connector-curvature="0" />
	<path style="fill:none;stroke:red;stroke-width:1px;stroke-linecap:butt;stroke-linejoin:miter;stroke-opacity:1" d="M 266.623,258.267 276.173,266.623 z" id="boundary" inkscape:connector-curvature="0" />
	<path style="fill:none;stroke:red;stroke-width:1px;stroke-linecap:butt;stroke-linejoin:miter;stroke-opacity:1" d="M 267.817,81.5933 267.817,93.5307 z" id="boundary" inkscape:connector-curvature="0" />
	<path style="fill:none;stroke:red;stroke-width:1px;stroke-linecap:butt;stroke-linejoin:miter;stroke-opacity:1" d="M 267.817,93.5307 267.817,105.468 z" id="boundary" inkscape:connector-curvature="0" />
	<path style="fill:none;stroke:red;stroke-width:1px;stroke-linecap:butt;stroke-linejoin:miter;stroke-opacity:1" d="M 267.817,105.468 267.817,117.406 z" id="boundary" inkscape:connector-curvature="0" />
	<path style="fill:none;stroke:red;stroke-width:1px;stroke-linecap:butt;stroke-linejoin:miter;stroke-opacity:1" d="M 267.817,117.406 267.817,129.343 z" id="boundary" inkscape:connector-curvature="0" />
	<path style="fill:none;stroke:red;stroke-width:1px;stroke-linecap:butt;stroke-linejoin:miter;stroke-opacity:1" d="M 267.817,129.343 267.817,141.28 z" id="boundary" inkscape:connector-curvature="0" />
	<path style="fill:none;stroke:red;stroke-width:1px;stroke-linecap:butt;stroke-linejoin:miter;stroke-opacity:1" d="M 267.817,141.28 267.817,153.218 z" id="boundary" inkscape:connector-curvature="0" />
	<path style="fill:none;stroke:red;stroke-width:1px;stroke-linecap:butt;stroke-linejoin:miter;stroke-opacity:1" d="M 267.817,153.218 273.786,163.961 z" id="boundary" inkscape:connector-curvature="0" />
	<path style="fill:none;stroke:red;stroke-width:1px;stroke-linecap:butt;stroke-linejoin:miter;stroke-opacity:1" d="M 267.817,178.286 273.786,163.961 z" id="boundary" inkscape:connector-curvature="0" />
	<path style="fill:none;stroke:red;stroke-width:1px;stroke-linecap:butt;stroke-linejoin:miter;stroke-opacity:1" d="M 267.817,799.032 267.817,810.97 z" id="boundary" inkscape:connector-curvature="0" />
	<path style="fill:none;stroke:red;stroke-width:1px;stroke-linecap:butt;stroke-linejoin:miter;stroke-opacity:1" d="M 267.817,799.032 273.786,781.126 z" id="boundary" inkscape:connector-curvature="0" />
	<path style="fill:none;stroke:red;stroke-width:1px;stroke-linecap:butt;stroke-linejoin:miter;stroke-opacity:1" d="M 269.011,990.031 279.755,984.063 z" id="boundary" inkscape:connector-curvature="0" />
	<path style="fill:none;stroke:red;stroke-width:1px;stroke-linecap:butt;stroke-linejoin:miter;stroke-opacity:1" d="M 273.786,769.189 273.786,781.126 z" id="boundary" inkscape:connector-curvature="0" />
	<path style="fill:none;stroke:red;stroke-width:1px;stroke-linecap:butt;stroke-linejoin:miter;stroke-opacity:1" d="M 273.786,769.189 279.755,757.252 z" id="boundary" inkscape:connector-curvature="0" />
	<path style="fill:none;stroke:red;stroke-width:1px;stroke-linecap:butt;stroke-linejoin:miter;stroke-opacity:1" d="M 276.173,266.623 279.755,278.561 z" id="boundary" inkscape:connector-curvature="0" />
	<path style="fill:none;stroke:red;stroke-width:1px;stroke-linecap:butt;stroke-linejoin:miter;stroke-opacity:1" d="M 276.173,911.244 286.917,917.213 z" id="boundary" inkscape:connector-curvature="0" />
	<path style="fill:none;stroke:red;stroke-width:1px;stroke-linecap:butt;stroke-linejoin:miter;stroke-opacity:1" d="M 279.755,278.561 285.723,289.304 z" id="boundary" inkscape:connector-curvature="0" />
	<path style="fill:none;stroke:red;stroke-width:1px;stroke-linecap:butt;stroke-linejoin:miter;stroke-opacity:1" d="M 279.755,757.252 289.304,748.895 z" id="boundary" inkscape:connector-curvature="0" />
	<path style="fill:none;stroke:red;stroke-width:1px;stroke-linecap:butt;stroke-linejoin:miter;stroke-opacity:1" d="M 279.755,984.063 290.498,978.094 z" id="boundary" inkscape:connector-curvature="0" />
	<path style="fill:none;stroke:red;stroke-width:1px;stroke-linecap:butt;stroke-linejoin:miter;stroke-opacity:1" d="M 285.723,289.304 285.723,301.242 z" id="boundary" inkscape:connector-curvature="0" />
	<path style="fill:none;stroke:red;stroke-width:1px;stroke-linecap:butt;stroke-linejoin:miter;stroke-opacity:1" d="M 285.723,301.242 285.723,313.179 z" id="boundary" inkscape:connector-curvature="0" />
	<path style="fill:none;stroke:red;stroke-width:1px;stroke-linecap:butt;stroke-linejoin:miter;stroke-opacity:1" d="M 285.723,313.179 291.692,323.923 z" id="boundary" inkscape:connector-curvature="0" />
	<path style="fill:none;stroke:red;stroke-width:1px;stroke-linecap:butt;stroke-linejoin:miter;stroke-opacity:1" d="M 286.917,917.213 298.854,917.213 z" id="boundary" inkscape:connector-curvature="0" />
	<path style="fill:none;stroke:red;stroke-width:1px;stroke-linecap:butt;stroke-linejoin:miter;stroke-opacity:1" d="M 289.304,748.895 295.273,736.958 z" id="boundary" inkscape:connector-curvature="0" />
	<path style="fill:none;stroke:red;stroke-width:1px;stroke-linecap:butt;stroke-linejoin:miter;stroke-opacity:1" d="M 290.498,978.094 301.242,972.125 z" id="boundary" inkscape:connector-curvature="0" />
	<path style="fill:none;stroke:red;stroke-width:1px;stroke-linecap:butt;stroke-linejoin:miter;stroke-opacity:1" d="M 291.692,323.923 296.467,335.86 z" id="boundary" inkscape:connector-curvature="0" />
	<path style="fill:none;stroke:red;stroke-width:1px;stroke-linecap:butt;stroke-linejoin:miter;stroke-opacity:1" d="M 291.692,369.285 291.692,381.223 z" id="boundary" inkscape:connector-curvature="0" />
	<path style="fill:none;stroke:red;stroke-width:1px;stroke-linecap:butt;stroke-linejoin:miter;stroke-opacity:1" d="M 291.692,369.285 297.661,347.798 z" id="boundary" inkscape:connector-curvature="0" />
	<path style="fill:none;stroke:red;stroke-width:1px;stroke-linecap:butt;stroke-linejoin:miter;stroke-opacity:1" d="M 291.692,381.223 291.692,393.16 z" id="boundary" inkscape:connector-curvature="0" />
	<path style="fill:none;stroke:red;stroke-width:1px;stroke-linecap:butt;stroke-linejoin:miter;stroke-opacity:1" d="M 291.692,393.16 297.661,403.904 z" id="boundary" inkscape:connector-curvature="0" />
	<path style="fill:none;stroke:red;stroke-width:1px;stroke-linecap:butt;stroke-linejoin:miter;stroke-opacity:1" d="M 291.692,673.69 291.692,685.627 z" id="boundary" inkscape:connector-curvature="0" />
	<path style="fill:none;stroke:red;stroke-width:1px;stroke-linecap:butt;stroke-linejoin:miter;stroke-opacity:1" d="M 291.692,673.69 301.242,665.333 z" id="boundary" inkscape:connector-curvature="0" />
	<path style="fill:none;stroke:red;stroke-width:1px;stroke-linecap:butt;stroke-linejoin:miter;stroke-opacity:1" d="M 291.692,685.627 294.079,697.564 z" id="boundary" inkscape:connector-curvature="0" />
	<path style="fill:none;stroke:red;stroke-width:1px;stroke-linecap:butt;stroke-linejoin:miter;stroke-opacity:1" d="M 294.079,697.564 297.661,709.502 z" id="boundary" inkscape:connector-curvature="0" />
	<path style="fill:none;stroke:red;stroke-width:1px;stroke-linecap:butt;stroke-linejoin:miter;stroke-opacity:1" d="M 295.273,736.958 297.661,721.439 z" id="boundary" inkscape:connector-curvature="0" />
	<path style="fill:none;stroke:red;stroke-width:1px;stroke-linecap:butt;stroke-linejoin:miter;stroke-opacity:1" d="M 296.467,335.86 297.661,347.798 z" id="boundary" inkscape:connector-curvature="0" />
	<path style="fill:none;stroke:red;stroke-width:1px;stroke-linecap:butt;stroke-linejoin:miter;stroke-opacity:1" d="M 297.661,403.904 303.629,414.647 z" id="boundary" inkscape:connector-curvature="0" />
	<path style="fill:none;stroke:red;stroke-width:1px;stroke-linecap:butt;stroke-linejoin:miter;stroke-opacity:1" d="M 297.661,709.502 297.661,721.439 z" id="boundary" inkscape:connector-curvature="0" />
	<path style="fill:none;stroke:red;stroke-width:1px;stroke-linecap:butt;stroke-linejoin:miter;stroke-opacity:1" d="M 298.854,917.213 310.792,917.213 z" id="boundary" inkscape:connector-curvature="0" />
	<path style="fill:none;stroke:red;stroke-width:1px;stroke-linecap:butt;stroke-linejoin:miter;stroke-opacity:1" d="M 301.242,665.333 309.598,655.783 z" id="boundary" inkscape:connector-curvature="0" />
	<path style="fill:none;stroke:red;stroke-width:1px;stroke-linecap:butt;stroke-linejoin:miter;stroke-opacity:1" d="M 301.242,972.125 313.179,972.125 z" id="boundary" inkscape:connector-curvature="0" />
	<path style="fill:none;stroke:red;stroke-width:1px;stroke-linecap:butt;stroke-linejoin:miter;stroke-opacity:1" d="M 303.629,414.647 309.598,425.391 z" id="boundary" inkscape:connector-curvature="0" />
	<path style="fill:none;stroke:red;stroke-width:1px;stroke-linecap:butt;stroke-linejoin:miter;stroke-opacity:1" d="M 309.598,425.391 309.598,437.329 z" id="boundary" inkscape:connector-curvature="0" />
	<path style="fill:none;stroke:red;stroke-width:1px;stroke-linecap:butt;stroke-linejoin:miter;stroke-opacity:1" d="M 309.598,437.329 314.373,449.266 z" id="boundary" inkscape:connector-curvature="0" />
	<path style="fill:none;stroke:red;stroke-width:1px;stroke-linecap:butt;stroke-linejoin:miter;stroke-opacity:1" d="M 309.598,655.783 315.567,643.846 z" id="boundary" inkscape:connector-curvature="0" />
	<path style="fill:none;stroke:red;stroke-width:1px;stroke-linecap:butt;stroke-linejoin:miter;stroke-opacity:1" d="M 310.792,917.213 321.535,923.182 z" id="boundary" inkscape:connector-curvature="0" />
	<path style="fill:none;stroke:red;stroke-width:1px;stroke-linecap:butt;stroke-linejoin:miter;stroke-opacity:1" d="M 313.179,972.125 325.117,969.738 z" id="boundary" inkscape:connector-curvature="0" />
	<path style="fill:none;stroke:red;stroke-width:1px;stroke-linecap:butt;stroke-linejoin:miter;stroke-opacity:1" d="M 314.373,449.266 315.567,461.203 z" id="boundary" inkscape:connector-curvature="0" />
	<path style="fill:none;stroke:red;stroke-width:1px;stroke-linecap:butt;stroke-linejoin:miter;stroke-opacity:1" d="M 315.567,461.203 320.342,473.141 z" id="boundary" inkscape:connector-curvature="0" />
	<path style="fill:none;stroke:red;stroke-width:1px;stroke-linecap:butt;stroke-linejoin:miter;stroke-opacity:1" d="M 315.567,619.971 315.567,631.909 z" id="boundary" inkscape:connector-curvature="0" />
	<path style="fill:none;stroke:red;stroke-width:1px;stroke-linecap:butt;stroke-linejoin:miter;stroke-opacity:1" d="M 315.567,619.971 321.535,608.034 z" id="boundary" inkscape:connector-curvature="0" />
	<path style="fill:none;stroke:red;stroke-width:1px;stroke-linecap:butt;stroke-linejoin:miter;stroke-opacity:1" d="M 315.567,631.909 315.567,643.846 z" id="boundary" inkscape:connector-curvature="0" />
	<path style="fill:none;stroke:red;stroke-width:1px;stroke-linecap:butt;stroke-linejoin:miter;stroke-opacity:1" d="M 320.342,473.141 321.535,485.078 z" id="boundary" inkscape:connector-curvature="0" />
	<path style="fill:none;stroke:red;stroke-width:1px;stroke-linecap:butt;stroke-linejoin:miter;stroke-opacity:1" d="M 321.535,485.078 327.504,495.822 z" id="boundary" inkscape:connector-curvature="0" />
	<path style="fill:none;stroke:red;stroke-width:1px;stroke-linecap:butt;stroke-linejoin:miter;stroke-opacity:1" d="M 321.535,608.034 332.279,602.065 z" id="boundary" inkscape:connector-curvature="0" />
	<path style="fill:none;stroke:red;stroke-width:1px;stroke-linecap:butt;stroke-linejoin:miter;stroke-opacity:1" d="M 321.535,923.182 331.085,930.344 z" id="boundary" inkscape:connector-curvature="0" />
	<path style="fill:none;stroke:red;stroke-width:1px;stroke-linecap:butt;stroke-linejoin:miter;stroke-opacity:1" d="M 325.117,969.738 333.473,960.188 z" id="boundary" inkscape:connector-curvature="0" />
	<path style="fill:none;stroke:red;stroke-width:1px;stroke-linecap:butt;stroke-linejoin:miter;stroke-opacity:1" d="M 327.504,495.822 331.085,507.759 z" id="boundary" inkscape:connector-curvature="0" />
	<path style="fill:none;stroke:red;stroke-width:1px;stroke-linecap:butt;stroke-linejoin:miter;stroke-opacity:1" d="M 331.085,507.759 333.473,519.697 z" id="boundary" inkscape:connector-curvature="0" />
	<path style="fill:none;stroke:red;stroke-width:1px;stroke-linecap:butt;stroke-linejoin:miter;stroke-opacity:1" d="M 331.085,930.344 335.86,942.282 z" id="boundary" inkscape:connector-curvature="0" />
	<path style="fill:none;stroke:red;stroke-width:1px;stroke-linecap:butt;stroke-linejoin:miter;stroke-opacity:1" d="M 332.279,602.065 339.442,590.128 z" id="boundary" inkscape:connector-curvature="0" />
	<path style="fill:none;stroke:red;stroke-width:1px;stroke-linecap:butt;stroke-linejoin:miter;stroke-opacity:1" d="M 333.473,519.697 333.473,531.634 z" id="boundary" inkscape:connector-curvature="0" />
	<path style="fill:none;stroke:red;stroke-width:1px;stroke-linecap:butt;stroke-linejoin:miter;stroke-opacity:1" d="M 333.473,531.634 339.442,542.378 z" id="boundary" inkscape:connector-curvature="0" />
	<path style="fill:none;stroke:red;stroke-width:1px;stroke-linecap:butt;stroke-linejoin:miter;stroke-opacity:1" d="M 333.473,960.188 335.86,942.282 z" id="boundary" inkscape:connector-curvature="0" />
	<path style="fill:none;stroke:red;stroke-width:1px;stroke-linecap:butt;stroke-linejoin:miter;stroke-opacity:1" d="M 339.442,542.378 345.41,553.122 z" id="boundary" inkscape:connector-curvature="0" />
	<path style="fill:none;stroke:red;stroke-width:1px;stroke-linecap:butt;stroke-linejoin:miter;stroke-opacity:1" d="M 339.442,590.128 345.41,576.996 z" id="boundary" inkscape:connector-curvature="0" />
	<path style="fill:none;stroke:red;stroke-width:1px;stroke-linecap:butt;stroke-linejoin:miter;stroke-opacity:1" d="M 345.41,553.122 345.41,565.059 z" id="boundary" inkscape:connector-curvature="0" />
	<path style="fill:none;stroke:red;stroke-width:1px;stroke-linecap:butt;stroke-linejoin:miter;stroke-opacity:1" d="M 345.41,565.059 345.41,576.996 z" id="boundary" inkscape:connector-curvature="0" />
	<circle cx="4" cy="306.017" r="4" fill="#0" id="circle0"/>
	<circle cx="4" cy="317.954" r="4" fill="#0" id="circle1"/>
	<circle cx="4" cy="329.892" r="4" fill="#0" id="circle2"/>
	<circle cx="4" cy="341.829" r="4" fill="#0" id="circle3"/>
	<circle cx="4" cy="353.767" r="4" fill="#0" id="circle4"/>
	<circle cx="4" cy="365.704" r="4" fill="#0" id="circle5"/>
	<circle cx="9.96871" cy="294.079" r="4" fill="#0" id="circle6"/>
	<circle cx="9.96871" cy="376.448" r="4" fill="#0" id="circle7"/>
	<circle cx="9.96871" cy="437.329" r="4" fill="#0" id="circle8"/>
	<circle cx="9.96871" cy="449.266" r="4" fill="#0" id="circle9"/>
	<circle cx="15.9374" cy="282.142" r="4" fill="#0" id="circle10"/>
	<circle cx="15.9374" cy="387.191" r="4" fill="#0" id="circle11"/>
	<circle cx="15.9374" cy="399.129" r="4" fill="#0" id="circle12"/>
	<circle cx="15.9374" cy="411.066" r="4" fill="#0" id="circle13"/>
	<circle cx="15.9374" cy="423.004" r="4" fill="#0" id="circle14"/>
	<circle cx="15.9374" cy="460.01" r="4" fill="#0" id="circle15"/>
	<circle cx="15.9374" cy="471.947" r="4" fill="#0" id="circle16"/>
	<circle cx="21.9061" cy="73.2371" r="4" fill="#0" id="circle17"/>
	<circle cx="21.9061" cy="85.1745" r="4" fill="#0" id="circle18"/>
	<circle cx="21.9061" cy="97.1119" r="4" fill="#0" id="circle19"/>
	<circle cx="21.9061" cy="109.049" r="4" fill="#0" id="circle20"/>
	<circle cx="21.9061" cy="120.987" r="4" fill="#0" id="circle21"/>
	<circle cx="21.9061" cy="482.691" r="4" fill="#0" id="circle22"/>
	<circle cx="21.9061" cy="494.628" r="4" fill="#0" id="circle23"/>
	<circle cx="25.4874" cy="272.592" r="4" fill="#0" id="circle24"/>
	<circle cx="25.4874" cy="506.566" r="4" fill="#0" id="circle25"/>
	<circle cx="27.8748" cy="61.2996" r="4" fill="#0" id="circle26"/>
	<circle cx="27.8748" cy="131.73" r="4" fill="#0" id="circle27"/>
	<circle cx="27.8748" cy="518.503" r="4" fill="#0" id="circle28"/>
	<circle cx="31.4561" cy="260.655" r="4" fill="#0" id="circle29"/>
	<circle cx="33.8436" cy="49.3622" r="4" fill="#0" id="circle30"/>
	<circle cx="33.8436" cy="142.474" r="4" fill="#0" id="circle31"/>
	<circle cx="33.8436" cy="529.247" r="4" fill="#0" id="circle32"/>
	<circle cx="37.4248" cy="154.412" r="4" fill="#0" id="circle33"/>
	<circle cx="39.8123" cy="539.99" r="4" fill="#0" id="circle34"/>
	<circle cx="39.8123" cy="551.928" r="4" fill="#0" id="circle35"/>
	<circle cx="39.8123" cy="563.865" r="4" fill="#0" id="circle36"/>
	<circle cx="39.8123" cy="575.803" r="4" fill="#0" id="circle37"/>
	<circle cx="41.006" cy="587.74" r="4" fill="#0" id="circle38"/>
	<circle cx="42.1998" cy="254.686" r="4" fill="#0" id="circle39"/>
	<circle cx="43.3935" cy="39.8123" r="4" fill="#0" id="circle40"/>
	<circle cx="45.781" cy="163.961" r="4" fill="#0" id="circle41"/>
	<circle cx="45.781" cy="599.677" r="4" fill="#0" id="circle42"/>
	<circle cx="45.781" cy="611.615" r="4" fill="#0" id="circle43"/>
	<circle cx="51.7497" cy="174.705" r="4" fill="#0" id="circle44"/>
	<circle cx="51.7497" cy="622.359" r="4" fill="#0" id="circle45"/>
	<circle cx="51.7497" cy="634.296" r="4" fill="#0" id="circle46"/>
	<circle cx="51.7497" cy="646.233" r="4" fill="#0" id="circle47"/>
	<circle cx="52.9434" cy="30.2623" r="4" fill="#0" id="circle48"/>
	<circle cx="52.9434" cy="248.717" r="4" fill="#0" id="circle49"/>
	<circle cx="57.7184" cy="656.977" r="4" fill="#0" id="circle50"/>
	<circle cx="61.2996" cy="183.061" r="4" fill="#0" id="circle51"/>
	<circle cx="62.4934" cy="21.9061" r="4" fill="#0" id="circle52"/>
	<circle cx="63.6871" cy="240.361" r="4" fill="#0" id="circle53"/>
	<circle cx="63.6871" cy="667.721" r="4" fill="#0" id="circle54"/>
	<circle cx="69.6558" cy="192.611" r="4" fill="#0" id="circle55"/>
	<circle cx="69.6558" cy="228.424" r="4" fill="#0" id="circle56"/>
	<circle cx="69.6558" cy="678.465" r="4" fill="#0" id="circle57"/>
	<circle cx="73.2371" cy="15.9374" r="4" fill="#0" id="circle58"/>
	<circle cx="75.6245" cy="203.355" r="4" fill="#0" id="circle59"/>
	<circle cx="75.6245" cy="215.292" r="4" fill="#0" id="circle60"/>
	<circle cx="76.8183" cy="688.014" r="4" fill="#0" id="circle61"/>
	<circle cx="83.9807" cy="9.96871" r="4" fill="#0" id="circle62"/>
	<circle cx="87.562" cy="693.983" r="4" fill="#0" id="circle63"/>
	<circle cx="87.562" cy="795.451" r="4" fill="#0" id="circle64"/>
	<circle cx="87.562" cy="807.389" r="4" fill="#0" id="circle65"/>
	<circle cx="87.562" cy="819.326" r="4" fill="#0" id="circle66"/>
	<circle cx="87.562" cy="831.264" r="4" fill="#0" id="circle67"/>
	<circle cx="93.5307" cy="777.545" r="4" fill="#0" id="circle68"/>
	<circle cx="93.5307" cy="842.007" r="4" fill="#0" id="circle69"/>
	<circle cx="93.5307" cy="853.945" r="4" fill="#0" id="circle70"/>
	<circle cx="95.9182" cy="5.19374" r="4" fill="#0" id="circle71"/>
	<circle cx="97.1119" cy="702.339" r="4" fill="#0" id="circle72"/>
	<circle cx="99.4994" cy="759.639" r="4" fill="#0" id="circle73"/>
	<circle cx="99.4994" cy="864.688" r="4" fill="#0" id="circle74"/>
	<circle cx="99.4994" cy="938.7" r="4" fill="#0" id="circle75"/>
	<circle cx="99.4994" cy="950.638" r="4" fill="#0" id="circle76"/>
	<circle cx="99.4994" cy="962.575" r="4" fill="#0" id="circle77"/>
	<circle cx="103.081" cy="876.626" r="4" fill="#0" id="circle78"/>
	<circle cx="105.468" cy="711.889" r="4" fill="#0" id="circle79"/>
	<circle cx="105.468" cy="723.827" r="4" fill="#0" id="circle80"/>
	<circle cx="105.468" cy="735.764" r="4" fill="#0" id="circle81"/>
	<circle cx="105.468" cy="747.702" r="4" fill="#0" id="circle82"/>
	<circle cx="105.468" cy="888.563" r="4" fill="#0" id="circle83"/>
	<circle cx="105.468" cy="920.794" r="4" fill="#0" id="circle84"/>
	<circle cx="107.856" cy="4" r="4" fill="#0" id="circle85"/>
	<circle cx="109.049" cy="970.931" r="4" fill="#0" id="circle86"/>
	<circle cx="111.437" cy="899.307" r="4" fill="#0" id="circle87"/>
	<circle cx="117.406" cy="980.481" r="4" fill="#0" id="circle88"/>
	<circle cx="119.793" cy="4" r="4" fill="#0" id="circle89"/>
	<circle cx="129.343" cy="984.063" r="4" fill="#0" id="circle90"/>
	<circle cx="131.73" cy="4" r="4" fill="#0" id="circle91"/>
	<circle cx="141.28" cy="984.063" r="4" fill="#0" id="circle92"/>
	<circle cx="143.668" cy="4" r="4" fill="#0" id="circle93"/>
	<circle cx="152.024" cy="990.031" r="4" fill="#0" id="circle94"/>
	<circle cx="155.605" cy="4" r="4" fill="#0" id="circle95"/>
	<circle cx="163.961" cy="990.031" r="4" fill="#0" id="circle96"/>
	<circle cx="167.543" cy="4" r="4" fill="#0" id="circle97"/>
	<circle cx="174.705" cy="996" r="4" fill="#0" id="circle98"/>
	<circle cx="178.286" cy="9.96871" r="4" fill="#0" id="circle99"/>
	<circle cx="186.643" cy="996" r="4" fill="#0" id="circle100"/>
	<circle cx="190.224" cy="9.96871" r="4" fill="#0" id="circle101"/>
	<circle cx="198.58" cy="996" r="4" fill="#0" id="circle102"/>
	<circle cx="200.968" cy="15.9374" r="4" fill="#0" id="circle103"/>
	<circle cx="210.517" cy="996" r="4" fill="#0" id="circle104"/>
	<circle cx="212.905" cy="18.3249" r="4" fill="#0" id="circle105"/>
	<circle cx="220.067" cy="27.8748" r="4" fill="#0" id="circle106"/>
	<circle cx="222.455" cy="996" r="4" fill="#0" id="circle107"/>
	<circle cx="232.005" cy="31.4561" r="4" fill="#0" id="circle108"/>
	<circle cx="234.392" cy="996" r="4" fill="#0" id="circle109"/>
	<circle cx="240.361" cy="41.006" r="4" fill="#0" id="circle110"/>
	<circle cx="243.942" cy="864.688" r="4" fill="#0" id="circle111"/>
	<circle cx="243.942" cy="876.626" r="4" fill="#0" id="circle112"/>
	<circle cx="246.33" cy="888.563" r="4" fill="#0" id="circle113"/>
	<circle cx="246.33" cy="996" r="4" fill="#0" id="circle114"/>
	<circle cx="249.911" cy="49.3622" r="4" fill="#0" id="circle115"/>
	<circle cx="249.911" cy="226.036" r="4" fill="#0" id="circle116"/>
	<circle cx="249.911" cy="852.751" r="4" fill="#0" id="circle117"/>
	<circle cx="252.298" cy="237.974" r="4" fill="#0" id="circle118"/>
	<circle cx="255.88" cy="60.1059" r="4" fill="#0" id="circle119"/>
	<circle cx="255.88" cy="202.161" r="4" fill="#0" id="circle120"/>
	<circle cx="255.88" cy="214.099" r="4" fill="#0" id="circle121"/>
	<circle cx="255.88" cy="834.845" r="4" fill="#0" id="circle122"/>
	<circle cx="255.88" cy="896.919" r="4" fill="#0" id="circle123"/>
	<circle cx="258.267" cy="248.717" r="4" fill="#0" id="circle124"/>
	<circle cx="258.267" cy="996" r="4" fill="#0" id="circle125"/>
	<circle cx="261.848" cy="70.8496" r="4" fill="#0" id="circle126"/>
	<circle cx="261.848" cy="190.224" r="4" fill="#0" id="circle127"/>
	<circle cx="261.848" cy="822.907" r="4" fill="#0" id="circle128"/>
	<circle cx="265.43" cy="905.276" r="4" fill="#0" id="circle129"/>
	<circle cx="266.623" cy="258.267" r="4" fill="#0" id="circle130"/>
	<circle cx="267.817" cy="81.5933" r="4" fill="#0" id="circle131"/>
	<circle cx="267.817" cy="93.5307" r="4" fill="#0" id="circle132"/>
	<circle cx="267.817" cy="105.468" r="4" fill="#0" id="circle133"/>
	<circle cx="267.817" cy="117.406" r="4" fill="#0" id="circle134"/>
	<circle cx="267.817" cy="129.343" r="4" fill="#0" id="circle135"/>
	<circle cx="267.817" cy="141.28" r="4" fill="#0" id="circle136"/>
	<circle cx="267.817" cy="153.218" r="4" fill="#0" id="circle137"/>
	<circle cx="267.817" cy="178.286" r="4" fill="#0" id="circle138"/>
	<circle cx="267.817" cy="799.032" r="4" fill="#0" id="circle139"/>
	<circle cx="267.817" cy="810.97" r="4" fill="#0" id="circle140"/>
	<circle cx="269.011" cy="990.031" r="4" fill="#0" id="circle141"/>
	<circle cx="273.786" cy="163.961" r="4" fill="#0" id="circle142"/>
	<circle cx="273.786" cy="769.189" r="4" fill="#0" id="circle143"/>
	<circle cx="273.786" cy="781.126" r="4" fill="#0" id="circle144"/>
	<circle cx="276.173" cy="266.623" r="4" fill="#0" id="circle145"/>
	<circle cx="276.173" cy="911.244" r="4" fill="#0" id="circle146"/>
	<circle cx="279.755" cy="278.561" r="4" fill="#0" id="circle147"/>
	<circle cx="279.755" cy="757.252" r="4" fill="#0" id="circle148"/>
	<circle cx="279.755" cy="984.063" r="4" fill="#0" id="circle149"/>
	<circle cx="285.723" cy="289.304" r="4" fill="#0" id="circle150"/>
	<circle cx="285.723" cy="301.242" r="4" fill="#0" id="circle151"/>
	<circle cx="285.723" cy="313.179" r="4" fill="#0" id="circle152"/>
	<circle cx="286.917" cy="917.213" r="4" fill="#0" id="circle153"/>
	<circle cx="289.304" cy="748.895" r="4" fill="#0" id="circle154"/>
	<circle cx="290.498" cy="978.094" r="4" fill="#0" id="circle155"/>
	<circle cx="291.692" cy="323.923" r="4" fill="#0" id="circle156"/>
	<circle cx="291.692" cy="369.285" r="4" fill="#0" id="circle157"/>
	<circle cx="291.692" cy="381.223" r="4" fill="#0" id="circle158"/>
	<circle cx="291.692" cy="393.16" r="4" fill="#0" id="circle159"/>
	<circle cx="291.692" cy="673.69" r="4" fill="#0" id="circle160"/>
	<circle cx="291.692" cy="685.627" r="4" fill="#0" id="circle161"/>
	<circle cx="294.079" cy="697.564" r="4" fill="#0" id="circle162"/>
	<circle cx="295.273" cy="736.958" r="4" fill="#0" id="circle163"/>
	<circle cx="296.467" cy="335.86" r="4" fill="#0" id="circle164"/>
	<circle cx="297.661" cy="347.798" r="4" fill="#0" id="circle165"/>
	<circle cx="297.661" cy="403.904" r="4" fill="#0" id="circle166"/>
	<circle cx="297.661" cy="709.502" r="4" fill="#0" id="circle167"/>
	<circle cx="297.661" cy="721.439" r="4" fill="#0" id="circle168"/>
	<circle cx="298.854" cy="917.213" r="4" fill="#0" id="circle169"/>
	<circle cx="301.242" cy="665.333" r="4" fill="#0" id="circle170"/>
	<circle cx="301.242" cy="972.125" r="4" fill="#0" id="circle171"/>
	<circle cx="303.629" cy="414.647" r="4" fill="#0" id="circle172"/>
	<circle cx="309.598" cy="425.391" r="4" fill="#0" id="circle173"/>
	<circle cx="309.598" cy="437.329" r="4" fill="#0" id="circle174"/>
	<circle cx="309.598" cy="655.783" r="4" fill="#0" id="circle175"/>
	<circle cx="310.792" cy="917.213" r="4" fill="#0" id="circle176"/>
	<circle cx="313.179" cy="972.125" r="4" fill="#0" id="circle177"/>
	<circle cx="314.373" cy="449.266" r="4" fill="#0" id="circle178"/>
	<circle cx="315.567" cy="461.203" r="4" fill="#0" id="circle179"/>
	<circle cx="315.567" cy="619.971" r="4" fill="#0" id="circle180"/>
	<circle cx="315.567" cy="631.909" r="4" fill="#0" id="circle181"/>
	<circle cx="315.567" cy="643.846" r="4" fill="#0" id="circle182"/>
	<circle cx="320.342" cy="473.141" r="4" fill="#0" id="circle183"/>
	<circle cx="321.535" cy="485.078" r="4" fill="#0" id="circle184"/>
	<circle cx="321.535" cy="608.034" r="4" fill="#0" id="circle185"/>
	<circle cx="321.535" cy="923.182" r="4" fill="#0" id="circle186"/>
	<circle cx="325.117" cy="969.738" r="4" fill="#0" id="circle187"/>
	<circle cx="327.504" cy="495.822" r="4" fill="#0" id="circle188"/>
	<circle cx="331.085" cy="507.759" r="4" fill="#0" id="circle189"/>
	<circle cx="331.085" cy="930.344" r="4" fill="#0" id="circle190"/>
	<circle cx="332.279" cy="602.065" r="4" fill="#0" id="circle191"/>
	<circle cx="333.473" cy="519.697" r="4" fill="#0" id="circle192"/>
	<circle cx="333.473" cy="531.634" r="4" fill="#0" id="circle193"/>
	<circle cx="333.473" cy="960.188" r="4" fill="#0" id="circle194"/>
	<circle cx="335.86" cy="942.282" r="4" fill="#0" id="circle195"/>
	<circle cx="339.442" cy="542.378" r="4" fill="#0" id="circle196"/>
	<circle cx="339.442" cy="590.128" r="4" fill="#0" id="circle197"/>
	<circle cx="345.41" cy="553.122" r="4" fill="#0" id="circle198"/>
	<circle cx="345.41" cy="565.059" r="4" fill="#0" id="circle199"/>
	<circle cx="345.41" cy="576.996" r="4" fill="#0" id="circle200"/>
	</g>
</svg>