<?xml version="1.0" encoding="UTF-8" standalone="no"?>
<!-- Created with CurveBenchmark -->
<svg
	xmlns:dc="http://purl.org/dc/elements/1.1/"
	xmlns:cc="http://creativecommons.org/ns#"
	xmlns:rdf="http://www.w3.org/1999/02/22-rdf-syntax-ns#"
	xmlns:svg="http://www.w3.org/2000/svg"
	xmlns="http://www.w3.org/2000/svg"
	xmlns:sodipodi="http://sodipodi.sourceforge.net/DTD/sodipodi-0.dtd"
	xmlns:inkscape="http://www.inkscape.org/namespaces/inkscape"
	width="1000"
	height="1000"
	id="svg2"
	version="1.1"
	sodipodi:docname="manifold/discur-ray-17.png.txt">
<defs
	id="defs4" />
<metadata
	id="metadata7">
	<rdf:RDF>
		<cc:Work
			rdf:about="">
			<dc:format>image/svg+xml</dc:format>
			<dc:type
				rdf:resource="http://purl.org/dc/dcmitype/StillImage" />
			<dc:title></dc:title>
		</cc:Work>
	</rdf:RDF>
</metadata>
<g
	inkscape:label="Layer 1"
	inkscape:groupmode="layer"
	id="layer1">
	<path style="fill:none;stroke:red;stroke-width:1px;stroke-linecap:butt;stroke-linejoin:miter;stroke-opacity:1" d="M 4,293.333 4,308.642 z" id="boundary" inkscape:connector-curvature="0" />
	<path style="fill:none;stroke:red;stroke-width:1px;stroke-linecap:butt;stroke-linejoin:miter;stroke-opacity:1" d="M 4,293.333 15.4815,278.025 z" id="boundary" inkscape:connector-curvature="0" />
	<path style="fill:none;stroke:red;stroke-width:1px;stroke-linecap:butt;stroke-linejoin:miter;stroke-opacity:1" d="M 4,308.642 4,316.296 z" id="boundary" inkscape:connector-curvature="0" />
	<path style="fill:none;stroke:red;stroke-width:1px;stroke-linecap:butt;stroke-linejoin:miter;stroke-opacity:1" d="M 4,316.296 7.82716,330.84 z" id="boundary" inkscape:connector-curvature="0" />
	<path style="fill:none;stroke:red;stroke-width:1px;stroke-linecap:butt;stroke-linejoin:miter;stroke-opacity:1" d="M 7.82716,330.84 7.82716,338.494 z" id="boundary" inkscape:connector-curvature="0" />
	<path style="fill:none;stroke:red;stroke-width:1px;stroke-linecap:butt;stroke-linejoin:miter;stroke-opacity:1" d="M 7.82716,338.494 15.4815,352.272 z" id="boundary" inkscape:connector-curvature="0" />
	<path style="fill:none;stroke:red;stroke-width:1px;stroke-linecap:butt;stroke-linejoin:miter;stroke-opacity:1" d="M 15.4815,278.025 21.6049,271.901 z" id="boundary" inkscape:connector-curvature="0" />
	<path style="fill:none;stroke:red;stroke-width:1px;stroke-linecap:butt;stroke-linejoin:miter;stroke-opacity:1" d="M 15.4815,352.272 19.3086,366.815 z" id="boundary" inkscape:connector-curvature="0" />
	<path style="fill:none;stroke:red;stroke-width:1px;stroke-linecap:butt;stroke-linejoin:miter;stroke-opacity:1" d="M 19.3086,366.815 23.1358,381.358 z" id="boundary" inkscape:connector-curvature="0" />
	<path style="fill:none;stroke:red;stroke-width:1px;stroke-linecap:butt;stroke-linejoin:miter;stroke-opacity:1" d="M 21.6049,271.901 27.7284,265.778 z" id="boundary" inkscape:connector-curvature="0" />
	<path style="fill:none;stroke:red;stroke-width:1px;stroke-linecap:butt;stroke-linejoin:miter;stroke-opacity:1" d="M 23.1358,381.358 26.963,388.247 z" id="boundary" inkscape:connector-curvature="0" />
	<path style="fill:none;stroke:red;stroke-width:1px;stroke-linecap:butt;stroke-linejoin:miter;stroke-opacity:1" d="M 26.963,388.247 30.7901,395.136 z" id="boundary" inkscape:connector-curvature="0" />
	<path style="fill:none;stroke:red;stroke-width:1px;stroke-linecap:butt;stroke-linejoin:miter;stroke-opacity:1" d="M 27.7284,265.778 33.8519,260.42 z" id="boundary" inkscape:connector-curvature="0" />
	<path style="fill:none;stroke:red;stroke-width:1px;stroke-linecap:butt;stroke-linejoin:miter;stroke-opacity:1" d="M 30.7901,395.136 35.3827,401.259 z" id="boundary" inkscape:connector-curvature="0" />
	<path style="fill:none;stroke:red;stroke-width:1px;stroke-linecap:butt;stroke-linejoin:miter;stroke-opacity:1" d="M 33.8519,260.42 44.5679,248.938 z" id="boundary" inkscape:connector-curvature="0" />
	<path style="fill:none;stroke:red;stroke-width:1px;stroke-linecap:butt;stroke-linejoin:miter;stroke-opacity:1" d="M 35.3827,401.259 41.5062,406.617 z" id="boundary" inkscape:connector-curvature="0" />
	<path style="fill:none;stroke:red;stroke-width:1px;stroke-linecap:butt;stroke-linejoin:miter;stroke-opacity:1" d="M 41.5062,406.617 48.3951,410.444 z" id="boundary" inkscape:connector-curvature="0" />
	<path style="fill:none;stroke:red;stroke-width:1px;stroke-linecap:butt;stroke-linejoin:miter;stroke-opacity:1" d="M 44.5679,248.938 52.2222,245.111 z" id="boundary" inkscape:connector-curvature="0" />
	<path style="fill:none;stroke:red;stroke-width:1px;stroke-linecap:butt;stroke-linejoin:miter;stroke-opacity:1" d="M 48.3951,410.444 53.7531,416.568 z" id="boundary" inkscape:connector-curvature="0" />
	<path style="fill:none;stroke:red;stroke-width:1px;stroke-linecap:butt;stroke-linejoin:miter;stroke-opacity:1" d="M 52.2222,245.111 66,235.16 z" id="boundary" inkscape:connector-curvature="0" />
	<path style="fill:none;stroke:red;stroke-width:1px;stroke-linecap:butt;stroke-linejoin:miter;stroke-opacity:1" d="M 53.7531,416.568 59.8765,421.926 z" id="boundary" inkscape:connector-curvature="0" />
	<path style="fill:none;stroke:red;stroke-width:1px;stroke-linecap:butt;stroke-linejoin:miter;stroke-opacity:1" d="M 59.8765,421.926 65.2346,428.049 z" id="boundary" inkscape:connector-curvature="0" />
	<path style="fill:none;stroke:red;stroke-width:1px;stroke-linecap:butt;stroke-linejoin:miter;stroke-opacity:1" d="M 65.2346,428.049 71.358,433.407 z" id="boundary" inkscape:connector-curvature="0" />
	<path style="fill:none;stroke:red;stroke-width:1px;stroke-linecap:butt;stroke-linejoin:miter;stroke-opacity:1" d="M 66,235.16 79.0123,225.975 z" id="boundary" inkscape:connector-curvature="0" />
	<path style="fill:none;stroke:red;stroke-width:1px;stroke-linecap:butt;stroke-linejoin:miter;stroke-opacity:1" d="M 71.358,433.407 77.4815,438.765 z" id="boundary" inkscape:connector-curvature="0" />
	<path style="fill:none;stroke:red;stroke-width:1px;stroke-linecap:butt;stroke-linejoin:miter;stroke-opacity:1" d="M 77.4815,438.765 82.8395,444.889 z" id="boundary" inkscape:connector-curvature="0" />
	<path style="fill:none;stroke:red;stroke-width:1px;stroke-linecap:butt;stroke-linejoin:miter;stroke-opacity:1" d="M 79.0123,225.975 92.7901,216.025 z" id="boundary" inkscape:connector-curvature="0" />
	<path style="fill:none;stroke:red;stroke-width:1px;stroke-linecap:butt;stroke-linejoin:miter;stroke-opacity:1" d="M 82.8395,444.889 88.963,450.247 z" id="boundary" inkscape:connector-curvature="0" />
	<path style="fill:none;stroke:red;stroke-width:1px;stroke-linecap:butt;stroke-linejoin:miter;stroke-opacity:1" d="M 88.963,450.247 95.8519,454.074 z" id="boundary" inkscape:connector-curvature="0" />
	<path style="fill:none;stroke:red;stroke-width:1px;stroke-linecap:butt;stroke-linejoin:miter;stroke-opacity:1" d="M 92.7901,216.025 105.802,206.84 z" id="boundary" inkscape:connector-curvature="0" />
	<path style="fill:none;stroke:red;stroke-width:1px;stroke-linecap:butt;stroke-linejoin:miter;stroke-opacity:1" d="M 95.8519,454.074 101.975,459.432 z" id="boundary" inkscape:connector-curvature="0" />
	<path style="fill:none;stroke:red;stroke-width:1px;stroke-linecap:butt;stroke-linejoin:miter;stroke-opacity:1" d="M 101.975,459.432 107.333,465.556 z" id="boundary" inkscape:connector-curvature="0" />
	<path style="fill:none;stroke:red;stroke-width:1px;stroke-linecap:butt;stroke-linejoin:miter;stroke-opacity:1" d="M 105.802,206.84 112.691,203.012 z" id="boundary" inkscape:connector-curvature="0" />
	<path style="fill:none;stroke:red;stroke-width:1px;stroke-linecap:butt;stroke-linejoin:miter;stroke-opacity:1" d="M 107.333,465.556 113.457,470.914 z" id="boundary" inkscape:connector-curvature="0" />
	<path style="fill:none;stroke:red;stroke-width:1px;stroke-linecap:butt;stroke-linejoin:miter;stroke-opacity:1" d="M 112.691,203.012 126.469,193.827 z" id="boundary" inkscape:connector-curvature="0" />
	<path style="fill:none;stroke:red;stroke-width:1px;stroke-linecap:butt;stroke-linejoin:miter;stroke-opacity:1" d="M 113.457,470.914 118.815,477.037 z" id="boundary" inkscape:connector-curvature="0" />
	<path style="fill:none;stroke:red;stroke-width:1px;stroke-linecap:butt;stroke-linejoin:miter;stroke-opacity:1" d="M 118.815,477.037 124.938,482.395 z" id="boundary" inkscape:connector-curvature="0" />
	<path style="fill:none;stroke:red;stroke-width:1px;stroke-linecap:butt;stroke-linejoin:miter;stroke-opacity:1" d="M 124.938,482.395 137.951,490.815 z" id="boundary" inkscape:connector-curvature="0" />
	<path style="fill:none;stroke:red;stroke-width:1px;stroke-linecap:butt;stroke-linejoin:miter;stroke-opacity:1" d="M 126.469,193.827 134.123,190 z" id="boundary" inkscape:connector-curvature="0" />
	<path style="fill:none;stroke:red;stroke-width:1px;stroke-linecap:butt;stroke-linejoin:miter;stroke-opacity:1" d="M 134.123,190 140.247,183.877 z" id="boundary" inkscape:connector-curvature="0" />
	<path style="fill:none;stroke:red;stroke-width:1px;stroke-linecap:butt;stroke-linejoin:miter;stroke-opacity:1" d="M 137.951,490.815 146.37,503.827 z" id="boundary" inkscape:connector-curvature="0" />
	<path style="fill:none;stroke:red;stroke-width:1px;stroke-linecap:butt;stroke-linejoin:miter;stroke-opacity:1" d="M 140.247,183.877 154.79,176.222 z" id="boundary" inkscape:connector-curvature="0" />
	<path style="fill:none;stroke:red;stroke-width:1px;stroke-linecap:butt;stroke-linejoin:miter;stroke-opacity:1" d="M 146.37,503.827 153.259,507.654 z" id="boundary" inkscape:connector-curvature="0" />
	<path style="fill:none;stroke:red;stroke-width:1px;stroke-linecap:butt;stroke-linejoin:miter;stroke-opacity:1" d="M 153.259,507.654 164.741,517.605 z" id="boundary" inkscape:connector-curvature="0" />
	<path style="fill:none;stroke:red;stroke-width:1px;stroke-linecap:butt;stroke-linejoin:miter;stroke-opacity:1" d="M 154.79,176.222 161.679,172.395 z" id="boundary" inkscape:connector-curvature="0" />
	<path style="fill:none;stroke:red;stroke-width:1px;stroke-linecap:butt;stroke-linejoin:miter;stroke-opacity:1" d="M 161.679,172.395 168.568,168.568 z" id="boundary" inkscape:connector-curvature="0" />
	<path style="fill:none;stroke:red;stroke-width:1px;stroke-linecap:butt;stroke-linejoin:miter;stroke-opacity:1" d="M 164.741,517.605 176.988,526.79 z" id="boundary" inkscape:connector-curvature="0" />
	<path style="fill:none;stroke:red;stroke-width:1px;stroke-linecap:butt;stroke-linejoin:miter;stroke-opacity:1" d="M 168.568,168.568 175.457,164.741 z" id="boundary" inkscape:connector-curvature="0" />
	<path style="fill:none;stroke:red;stroke-width:1px;stroke-linecap:butt;stroke-linejoin:miter;stroke-opacity:1" d="M 175.457,164.741 188.469,154.79 z" id="boundary" inkscape:connector-curvature="0" />
	<path style="fill:none;stroke:red;stroke-width:1px;stroke-linecap:butt;stroke-linejoin:miter;stroke-opacity:1" d="M 176.988,526.79 189.235,536.741 z" id="boundary" inkscape:connector-curvature="0" />
	<path style="fill:none;stroke:red;stroke-width:1px;stroke-linecap:butt;stroke-linejoin:miter;stroke-opacity:1" d="M 188.469,154.79 196.123,150.963 z" id="boundary" inkscape:connector-curvature="0" />
	<path style="fill:none;stroke:red;stroke-width:1px;stroke-linecap:butt;stroke-linejoin:miter;stroke-opacity:1" d="M 189.235,536.741 195.358,541.333 z" id="boundary" inkscape:connector-curvature="0" />
	<path style="fill:none;stroke:red;stroke-width:1px;stroke-linecap:butt;stroke-linejoin:miter;stroke-opacity:1" d="M 195.358,541.333 200.716,547.457 z" id="boundary" inkscape:connector-curvature="0" />
	<path style="fill:none;stroke:red;stroke-width:1px;stroke-linecap:butt;stroke-linejoin:miter;stroke-opacity:1" d="M 196.123,150.963 203.778,147.136 z" id="boundary" inkscape:connector-curvature="0" />
	<path style="fill:none;stroke:red;stroke-width:1px;stroke-linecap:butt;stroke-linejoin:miter;stroke-opacity:1" d="M 200.716,547.457 206.84,552.049 z" id="boundary" inkscape:connector-curvature="0" />
	<path style="fill:none;stroke:red;stroke-width:1px;stroke-linecap:butt;stroke-linejoin:miter;stroke-opacity:1" d="M 203.778,147.136 209.901,141.778 z" id="boundary" inkscape:connector-curvature="0" />
	<path style="fill:none;stroke:red;stroke-width:1px;stroke-linecap:butt;stroke-linejoin:miter;stroke-opacity:1" d="M 206.84,552.049 219.086,561.235 z" id="boundary" inkscape:connector-curvature="0" />
	<path style="fill:none;stroke:red;stroke-width:1px;stroke-linecap:butt;stroke-linejoin:miter;stroke-opacity:1" d="M 209.901,141.778 216.79,137.951 z" id="boundary" inkscape:connector-curvature="0" />
	<path style="fill:none;stroke:red;stroke-width:1px;stroke-linecap:butt;stroke-linejoin:miter;stroke-opacity:1" d="M 216.79,137.951 230.568,128 z" id="boundary" inkscape:connector-curvature="0" />
	<path style="fill:none;stroke:red;stroke-width:1px;stroke-linecap:butt;stroke-linejoin:miter;stroke-opacity:1" d="M 219.086,561.235 224.444,567.358 z" id="boundary" inkscape:connector-curvature="0" />
	<path style="fill:none;stroke:red;stroke-width:1px;stroke-linecap:butt;stroke-linejoin:miter;stroke-opacity:1" d="M 224.444,567.358 230.568,572.716 z" id="boundary" inkscape:connector-curvature="0" />
	<path style="fill:none;stroke:red;stroke-width:1px;stroke-linecap:butt;stroke-linejoin:miter;stroke-opacity:1" d="M 230.568,128 238.222,126.469 z" id="boundary" inkscape:connector-curvature="0" />
	<path style="fill:none;stroke:red;stroke-width:1px;stroke-linecap:butt;stroke-linejoin:miter;stroke-opacity:1" d="M 230.568,572.716 237.457,576.543 z" id="boundary" inkscape:connector-curvature="0" />
	<path style="fill:none;stroke:red;stroke-width:1px;stroke-linecap:butt;stroke-linejoin:miter;stroke-opacity:1" d="M 238.222,126.469 245.111,122.642 z" id="boundary" inkscape:connector-curvature="0" />
	<path style="fill:none;stroke:red;stroke-width:1px;stroke-linecap:butt;stroke-linejoin:miter;stroke-opacity:1" d="M 245.111,122.642 252,118.815 z" id="boundary" inkscape:connector-curvature="0" />
	<path style="fill:none;stroke:red;stroke-width:1px;stroke-linecap:butt;stroke-linejoin:miter;stroke-opacity:1" d="M 250.469,585.728 256.593,590.321 z" id="boundary" inkscape:connector-curvature="0" />
	<path style="fill:none;stroke:red;stroke-width:1px;stroke-linecap:butt;stroke-linejoin:miter;stroke-opacity:1" d="M 250.469,585.728 263.481,594.148 z" id="boundary" inkscape:connector-curvature="0" />
	<path style="fill:none;stroke:red;stroke-width:1px;stroke-linecap:butt;stroke-linejoin:miter;stroke-opacity:1" d="M 252,118.815 266.543,114.988 z" id="boundary" inkscape:connector-curvature="0" />
	<path style="fill:none;stroke:red;stroke-width:1px;stroke-linecap:butt;stroke-linejoin:miter;stroke-opacity:1" d="M 256.593,590.321 263.481,594.148 z" id="boundary" inkscape:connector-curvature="0" />
	<path style="fill:none;stroke:red;stroke-width:1px;stroke-linecap:butt;stroke-linejoin:miter;stroke-opacity:1" d="M 266.543,114.988 273.432,111.16 z" id="boundary" inkscape:connector-curvature="0" />
	<path style="fill:none;stroke:red;stroke-width:1px;stroke-linecap:butt;stroke-linejoin:miter;stroke-opacity:1" d="M 273.432,111.16 279.556,105.802 z" id="boundary" inkscape:connector-curvature="0" />
	<path style="fill:none;stroke:red;stroke-width:1px;stroke-linecap:butt;stroke-linejoin:miter;stroke-opacity:1" d="M 276.494,603.333 284.148,605.63 z" id="boundary" inkscape:connector-curvature="0" />
	<path style="fill:none;stroke:red;stroke-width:1px;stroke-linecap:butt;stroke-linejoin:miter;stroke-opacity:1" d="M 279.556,105.802 293.333,95.8519 z" id="boundary" inkscape:connector-curvature="0" />
	<path style="fill:none;stroke:red;stroke-width:1px;stroke-linecap:butt;stroke-linejoin:miter;stroke-opacity:1" d="M 284.148,605.63 298.691,609.457 z" id="boundary" inkscape:connector-curvature="0" />
	<path style="fill:none;stroke:red;stroke-width:1px;stroke-linecap:butt;stroke-linejoin:miter;stroke-opacity:1" d="M 293.333,95.8519 299.457,89.7284 z" id="boundary" inkscape:connector-curvature="0" />
	<path style="fill:none;stroke:red;stroke-width:1px;stroke-linecap:butt;stroke-linejoin:miter;stroke-opacity:1" d="M 298.691,609.457 305.58,613.284 z" id="boundary" inkscape:connector-curvature="0" />
	<path style="fill:none;stroke:red;stroke-width:1px;stroke-linecap:butt;stroke-linejoin:miter;stroke-opacity:1" d="M 299.457,89.7284 314.765,82.0741 z" id="boundary" inkscape:connector-curvature="0" />
	<path style="fill:none;stroke:red;stroke-width:1px;stroke-linecap:butt;stroke-linejoin:miter;stroke-opacity:1" d="M 305.58,613.284 320.123,617.111 z" id="boundary" inkscape:connector-curvature="0" />
	<path style="fill:none;stroke:red;stroke-width:1px;stroke-linecap:butt;stroke-linejoin:miter;stroke-opacity:1" d="M 314.765,82.0741 322.42,80.5432 z" id="boundary" inkscape:connector-curvature="0" />
	<path style="fill:none;stroke:red;stroke-width:1px;stroke-linecap:butt;stroke-linejoin:miter;stroke-opacity:1" d="M 320.123,617.111 327.778,617.111 z" id="boundary" inkscape:connector-curvature="0" />
	<path style="fill:none;stroke:red;stroke-width:1px;stroke-linecap:butt;stroke-linejoin:miter;stroke-opacity:1" d="M 322.42,80.5432 330.074,80.5432 z" id="boundary" inkscape:connector-curvature="0" />
	<path style="fill:none;stroke:red;stroke-width:1px;stroke-linecap:butt;stroke-linejoin:miter;stroke-opacity:1" d="M 327.778,617.111 335.432,616.346 z" id="boundary" inkscape:connector-curvature="0" />
	<path style="fill:none;stroke:red;stroke-width:1px;stroke-linecap:butt;stroke-linejoin:miter;stroke-opacity:1" d="M 330.074,80.5432 336.963,76.716 z" id="boundary" inkscape:connector-curvature="0" />
	<path style="fill:none;stroke:red;stroke-width:1px;stroke-linecap:butt;stroke-linejoin:miter;stroke-opacity:1" d="M 335.432,616.346 343.086,613.284 z" id="boundary" inkscape:connector-curvature="0" />
	<path style="fill:none;stroke:red;stroke-width:1px;stroke-linecap:butt;stroke-linejoin:miter;stroke-opacity:1" d="M 336.963,76.716 343.852,72.8889 z" id="boundary" inkscape:connector-curvature="0" />
	<path style="fill:none;stroke:red;stroke-width:1px;stroke-linecap:butt;stroke-linejoin:miter;stroke-opacity:1" d="M 336.963,653.086 336.963,668.395 z" id="boundary" inkscape:connector-curvature="0" />
	<path style="fill:none;stroke:red;stroke-width:1px;stroke-linecap:butt;stroke-linejoin:miter;stroke-opacity:1" d="M 336.963,653.086 340.79,645.432 z" id="boundary" inkscape:connector-curvature="0" />
	<path style="fill:none;stroke:red;stroke-width:1px;stroke-linecap:butt;stroke-linejoin:miter;stroke-opacity:1" d="M 336.963,668.395 336.963,676.049 z" id="boundary" inkscape:connector-curvature="0" />
	<path style="fill:none;stroke:red;stroke-width:1px;stroke-linecap:butt;stroke-linejoin:miter;stroke-opacity:1" d="M 336.963,676.049 348.444,686 z" id="boundary" inkscape:connector-curvature="0" />
	<path style="fill:none;stroke:red;stroke-width:1px;stroke-linecap:butt;stroke-linejoin:miter;stroke-opacity:1" d="M 340.79,637.778 340.79,645.432 z" id="boundary" inkscape:connector-curvature="0" />
	<path style="fill:none;stroke:red;stroke-width:1px;stroke-linecap:butt;stroke-linejoin:miter;stroke-opacity:1" d="M 340.79,637.778 344.617,628.593 z" id="boundary" inkscape:connector-curvature="0" />
	<path style="fill:none;stroke:red;stroke-width:1px;stroke-linecap:butt;stroke-linejoin:miter;stroke-opacity:1" d="M 343.086,613.284 344.617,620.938 z" id="boundary" inkscape:connector-curvature="0" />
	<path style="fill:none;stroke:red;stroke-width:1px;stroke-linecap:butt;stroke-linejoin:miter;stroke-opacity:1" d="M 343.852,72.8889 356.864,62.9383 z" id="boundary" inkscape:connector-curvature="0" />
	<path style="fill:none;stroke:red;stroke-width:1px;stroke-linecap:butt;stroke-linejoin:miter;stroke-opacity:1" d="M 344.617,620.938 344.617,628.593 z" id="boundary" inkscape:connector-curvature="0" />
	<path style="fill:none;stroke:red;stroke-width:1px;stroke-linecap:butt;stroke-linejoin:miter;stroke-opacity:1" d="M 348.444,686 363.753,682.173 z" id="boundary" inkscape:connector-curvature="0" />
	<path style="fill:none;stroke:red;stroke-width:1px;stroke-linecap:butt;stroke-linejoin:miter;stroke-opacity:1" d="M 348.444,978.395 358.395,964.617 z" id="boundary" inkscape:connector-curvature="0" />
	<path style="fill:none;stroke:red;stroke-width:1px;stroke-linecap:butt;stroke-linejoin:miter;stroke-opacity:1" d="M 348.444,978.395 359.926,988.346 z" id="boundary" inkscape:connector-curvature="0" />
	<path style="fill:none;stroke:red;stroke-width:1px;stroke-linecap:butt;stroke-linejoin:miter;stroke-opacity:1" d="M 356.864,62.9383 362.988,57.5802 z" id="boundary" inkscape:connector-curvature="0" />
	<path style="fill:none;stroke:red;stroke-width:1px;stroke-linecap:butt;stroke-linejoin:miter;stroke-opacity:1" d="M 358.395,964.617 359.926,955.432 z" id="boundary" inkscape:connector-curvature="0" />
	<path style="fill:none;stroke:red;stroke-width:1px;stroke-linecap:butt;stroke-linejoin:miter;stroke-opacity:1" d="M 359.926,955.432 366.049,949.309 z" id="boundary" inkscape:connector-curvature="0" />
	<path style="fill:none;stroke:red;stroke-width:1px;stroke-linecap:butt;stroke-linejoin:miter;stroke-opacity:1" d="M 359.926,988.346 366.815,992.173 z" id="boundary" inkscape:connector-curvature="0" />
	<path style="fill:none;stroke:red;stroke-width:1px;stroke-linecap:butt;stroke-linejoin:miter;stroke-opacity:1" d="M 362.988,57.5802 368.346,51.4568 z" id="boundary" inkscape:connector-curvature="0" />
	<path style="fill:none;stroke:red;stroke-width:1px;stroke-linecap:butt;stroke-linejoin:miter;stroke-opacity:1" d="M 363.753,682.173 366.049,689.827 z" id="boundary" inkscape:connector-curvature="0" />
	<path style="fill:none;stroke:red;stroke-width:1px;stroke-linecap:butt;stroke-linejoin:miter;stroke-opacity:1" d="M 366.049,949.309 376,935.531 z" id="boundary" inkscape:connector-curvature="0" />
	<path style="fill:none;stroke:red;stroke-width:1px;stroke-linecap:butt;stroke-linejoin:miter;stroke-opacity:1" d="M 366.815,992.173 381.358,995.235 z" id="boundary" inkscape:connector-curvature="0" />
	<path style="fill:none;stroke:red;stroke-width:1px;stroke-linecap:butt;stroke-linejoin:miter;stroke-opacity:1" d="M 368.346,51.4568 374.469,46.0988 z" id="boundary" inkscape:connector-curvature="0" />
	<path style="fill:none;stroke:red;stroke-width:1px;stroke-linecap:butt;stroke-linejoin:miter;stroke-opacity:1" d="M 372.938,704.37 379.062,708.963 z" id="boundary" inkscape:connector-curvature="0" />
	<path style="fill:none;stroke:red;stroke-width:1px;stroke-linecap:butt;stroke-linejoin:miter;stroke-opacity:1" d="M 372.938,704.37 385.951,712.79 z" id="boundary" inkscape:connector-curvature="0" />
	<path style="fill:none;stroke:red;stroke-width:1px;stroke-linecap:butt;stroke-linejoin:miter;stroke-opacity:1" d="M 374.469,46.0988 381.358,42.2716 z" id="boundary" inkscape:connector-curvature="0" />
	<path style="fill:none;stroke:red;stroke-width:1px;stroke-linecap:butt;stroke-linejoin:miter;stroke-opacity:1" d="M 376,935.531 382.889,924.815 z" id="boundary" inkscape:connector-curvature="0" />
	<path style="fill:none;stroke:red;stroke-width:1px;stroke-linecap:butt;stroke-linejoin:miter;stroke-opacity:1" d="M 379.062,708.963 385.951,712.79 z" id="boundary" inkscape:connector-curvature="0" />
	<path style="fill:none;stroke:red;stroke-width:1px;stroke-linecap:butt;stroke-linejoin:miter;stroke-opacity:1" d="M 381.358,42.2716 387.481,36.1481 z" id="boundary" inkscape:connector-curvature="0" />
	<path style="fill:none;stroke:red;stroke-width:1px;stroke-linecap:butt;stroke-linejoin:miter;stroke-opacity:1" d="M 381.358,995.235 387.481,988.346 z" id="boundary" inkscape:connector-curvature="0" />
	<path style="fill:none;stroke:red;stroke-width:1px;stroke-linecap:butt;stroke-linejoin:miter;stroke-opacity:1" d="M 382.889,924.815 386.716,917.16 z" id="boundary" inkscape:connector-curvature="0" />
	<path style="fill:none;stroke:red;stroke-width:1px;stroke-linecap:butt;stroke-linejoin:miter;stroke-opacity:1" d="M 386.716,917.16 394.37,898.025 z" id="boundary" inkscape:connector-curvature="0" />
	<path style="fill:none;stroke:red;stroke-width:1px;stroke-linecap:butt;stroke-linejoin:miter;stroke-opacity:1" d="M 387.481,36.1481 395.136,32.321 z" id="boundary" inkscape:connector-curvature="0" />
	<path style="fill:none;stroke:red;stroke-width:1px;stroke-linecap:butt;stroke-linejoin:miter;stroke-opacity:1" d="M 387.481,988.346 395.136,984.519 z" id="boundary" inkscape:connector-curvature="0" />
	<path style="fill:none;stroke:red;stroke-width:1px;stroke-linecap:butt;stroke-linejoin:miter;stroke-opacity:1" d="M 391.309,726.568 397.432,731.926 z" id="boundary" inkscape:connector-curvature="0" />
	<path style="fill:none;stroke:red;stroke-width:1px;stroke-linecap:butt;stroke-linejoin:miter;stroke-opacity:1" d="M 394.37,898.025 398.198,890.37 z" id="boundary" inkscape:connector-curvature="0" />
	<path style="fill:none;stroke:red;stroke-width:1px;stroke-linecap:butt;stroke-linejoin:miter;stroke-opacity:1" d="M 395.136,32.321 401.259,26.963 z" id="boundary" inkscape:connector-curvature="0" />
	<path style="fill:none;stroke:red;stroke-width:1px;stroke-linecap:butt;stroke-linejoin:miter;stroke-opacity:1" d="M 397.432,731.926 405.852,745.704 z" id="boundary" inkscape:connector-curvature="0" />
	<path style="fill:none;stroke:red;stroke-width:1px;stroke-linecap:butt;stroke-linejoin:miter;stroke-opacity:1" d="M 398.198,890.37 402.025,882.716 z" id="boundary" inkscape:connector-curvature="0" />
	<path style="fill:none;stroke:red;stroke-width:1px;stroke-linecap:butt;stroke-linejoin:miter;stroke-opacity:1" d="M 401.259,26.963 414.272,17.0123 z" id="boundary" inkscape:connector-curvature="0" />
	<path style="fill:none;stroke:red;stroke-width:1px;stroke-linecap:butt;stroke-linejoin:miter;stroke-opacity:1" d="M 402.025,875.062 402.025,882.716 z" id="boundary" inkscape:connector-curvature="0" />
	<path style="fill:none;stroke:red;stroke-width:1px;stroke-linecap:butt;stroke-linejoin:miter;stroke-opacity:1" d="M 402.025,875.062 405.852,867.407 z" id="boundary" inkscape:connector-curvature="0" />
	<path style="fill:none;stroke:red;stroke-width:1px;stroke-linecap:butt;stroke-linejoin:miter;stroke-opacity:1" d="M 405.852,745.704 409.679,760.247 z" id="boundary" inkscape:connector-curvature="0" />
	<path style="fill:none;stroke:red;stroke-width:1px;stroke-linecap:butt;stroke-linejoin:miter;stroke-opacity:1" d="M 405.852,852.099 405.852,859.753 z" id="boundary" inkscape:connector-curvature="0" />
	<path style="fill:none;stroke:red;stroke-width:1px;stroke-linecap:butt;stroke-linejoin:miter;stroke-opacity:1" d="M 405.852,852.099 409.679,836.79 z" id="boundary" inkscape:connector-curvature="0" />
	<path style="fill:none;stroke:red;stroke-width:1px;stroke-linecap:butt;stroke-linejoin:miter;stroke-opacity:1" d="M 405.852,859.753 405.852,867.407 z" id="boundary" inkscape:connector-curvature="0" />
	<path style="fill:none;stroke:red;stroke-width:1px;stroke-linecap:butt;stroke-linejoin:miter;stroke-opacity:1" d="M 408.914,975.333 413.506,969.21 z" id="boundary" inkscape:connector-curvature="0" />
	<path style="fill:none;stroke:red;stroke-width:1px;stroke-linecap:butt;stroke-linejoin:miter;stroke-opacity:1" d="M 408.914,975.333 418.099,961.556 z" id="boundary" inkscape:connector-curvature="0" />
	<path style="fill:none;stroke:red;stroke-width:1px;stroke-linecap:butt;stroke-linejoin:miter;stroke-opacity:1" d="M 409.679,760.247 409.679,767.901 z" id="boundary" inkscape:connector-curvature="0" />
	<path style="fill:none;stroke:red;stroke-width:1px;stroke-linecap:butt;stroke-linejoin:miter;stroke-opacity:1" d="M 409.679,767.901 409.679,775.556 z" id="boundary" inkscape:connector-curvature="0" />
	<path style="fill:none;stroke:red;stroke-width:1px;stroke-linecap:butt;stroke-linejoin:miter;stroke-opacity:1" d="M 409.679,775.556 413.506,790.099 z" id="boundary" inkscape:connector-curvature="0" />
	<path style="fill:none;stroke:red;stroke-width:1px;stroke-linecap:butt;stroke-linejoin:miter;stroke-opacity:1" d="M 409.679,798.519 409.679,806.173 z" id="boundary" inkscape:connector-curvature="0" />
	<path style="fill:none;stroke:red;stroke-width:1px;stroke-linecap:butt;stroke-linejoin:miter;stroke-opacity:1" d="M 409.679,798.519 413.506,790.099 z" id="boundary" inkscape:connector-curvature="0" />
	<path style="fill:none;stroke:red;stroke-width:1px;stroke-linecap:butt;stroke-linejoin:miter;stroke-opacity:1" d="M 409.679,806.173 409.679,813.827 z" id="boundary" inkscape:connector-curvature="0" />
	<path style="fill:none;stroke:red;stroke-width:1px;stroke-linecap:butt;stroke-linejoin:miter;stroke-opacity:1" d="M 409.679,813.827 409.679,821.481 z" id="boundary" inkscape:connector-curvature="0" />
	<path style="fill:none;stroke:red;stroke-width:1px;stroke-linecap:butt;stroke-linejoin:miter;stroke-opacity:1" d="M 409.679,821.481 409.679,829.136 z" id="boundary" inkscape:connector-curvature="0" />
	<path style="fill:none;stroke:red;stroke-width:1px;stroke-linecap:butt;stroke-linejoin:miter;stroke-opacity:1" d="M 409.679,829.136 409.679,836.79 z" id="boundary" inkscape:connector-curvature="0" />
	<path style="fill:none;stroke:red;stroke-width:1px;stroke-linecap:butt;stroke-linejoin:miter;stroke-opacity:1" d="M 413.506,969.21 418.099,961.556 z" id="boundary" inkscape:connector-curvature="0" />
	<path style="fill:none;stroke:red;stroke-width:1px;stroke-linecap:butt;stroke-linejoin:miter;stroke-opacity:1" d="M 414.272,17.0123 421.926,13.1852 z" id="boundary" inkscape:connector-curvature="0" />
	<path style="fill:none;stroke:red;stroke-width:1px;stroke-linecap:butt;stroke-linejoin:miter;stroke-opacity:1" d="M 421.926,13.1852 428.049,7.82716 z" id="boundary" inkscape:connector-curvature="0" />
	<path style="fill:none;stroke:red;stroke-width:1px;stroke-linecap:butt;stroke-linejoin:miter;stroke-opacity:1" d="M 428.049,7.82716 442.593,4 z" id="boundary" inkscape:connector-curvature="0" />
	<path style="fill:none;stroke:red;stroke-width:1px;stroke-linecap:butt;stroke-linejoin:miter;stroke-opacity:1" d="M 428.049,948.543 433.407,942.42 z" id="boundary" inkscape:connector-curvature="0" />
	<path style="fill:none;stroke:red;stroke-width:1px;stroke-linecap:butt;stroke-linejoin:miter;stroke-opacity:1" d="M 429.58,632.42 433.407,639.309 z" id="boundary" inkscape:connector-curvature="0" />
	<path style="fill:none;stroke:red;stroke-width:1px;stroke-linecap:butt;stroke-linejoin:miter;stroke-opacity:1" d="M 429.58,632.42 443.358,624.765 z" id="boundary" inkscape:connector-curvature="0" />
	<path style="fill:none;stroke:red;stroke-width:1px;stroke-linecap:butt;stroke-linejoin:miter;stroke-opacity:1" d="M 433.407,639.309 444.123,632.42 z" id="boundary" inkscape:connector-curvature="0" />
	<path style="fill:none;stroke:red;stroke-width:1px;stroke-linecap:butt;stroke-linejoin:miter;stroke-opacity:1" d="M 433.407,942.42 441.062,927.111 z" id="boundary" inkscape:connector-curvature="0" />
	<path style="fill:none;stroke:red;stroke-width:1px;stroke-linecap:butt;stroke-linejoin:miter;stroke-opacity:1" d="M 441.062,927.111 444.889,919.457 z" id="boundary" inkscape:connector-curvature="0" />
	<path style="fill:none;stroke:red;stroke-width:1px;stroke-linecap:butt;stroke-linejoin:miter;stroke-opacity:1" d="M 442.593,4 450.247,4 z" id="boundary" inkscape:connector-curvature="0" />
	<path style="fill:none;stroke:red;stroke-width:1px;stroke-linecap:butt;stroke-linejoin:miter;stroke-opacity:1" d="M 443.358,624.765 444.123,632.42 z" id="boundary" inkscape:connector-curvature="0" />
	<path style="fill:none;stroke:red;stroke-width:1px;stroke-linecap:butt;stroke-linejoin:miter;stroke-opacity:1" d="M 444.889,919.457 448.716,911.802 z" id="boundary" inkscape:connector-curvature="0" />
	<path style="fill:none;stroke:red;stroke-width:1px;stroke-linecap:butt;stroke-linejoin:miter;stroke-opacity:1" d="M 448.716,911.802 454.84,906.444 z" id="boundary" inkscape:connector-curvature="0" />
	<path style="fill:none;stroke:red;stroke-width:1px;stroke-linecap:butt;stroke-linejoin:miter;stroke-opacity:1" d="M 450.247,4 457.901,4 z" id="boundary" inkscape:connector-curvature="0" />
	<path style="fill:none;stroke:red;stroke-width:1px;stroke-linecap:butt;stroke-linejoin:miter;stroke-opacity:1" d="M 454.84,906.444 464.025,892.667 z" id="boundary" inkscape:connector-curvature="0" />
	<path style="fill:none;stroke:red;stroke-width:1px;stroke-linecap:butt;stroke-linejoin:miter;stroke-opacity:1" d="M 457.901,4 465.556,4 z" id="boundary" inkscape:connector-curvature="0" />
	<path style="fill:none;stroke:red;stroke-width:1px;stroke-linecap:butt;stroke-linejoin:miter;stroke-opacity:1" d="M 460.198,869.704 460.198,877.358 z" id="boundary" inkscape:connector-curvature="0" />
	<path style="fill:none;stroke:red;stroke-width:1px;stroke-linecap:butt;stroke-linejoin:miter;stroke-opacity:1" d="M 460.198,869.704 464.025,862.049 z" id="boundary" inkscape:connector-curvature="0" />
	<path style="fill:none;stroke:red;stroke-width:1px;stroke-linecap:butt;stroke-linejoin:miter;stroke-opacity:1" d="M 460.198,877.358 461.728,885.012 z" id="boundary" inkscape:connector-curvature="0" />
	<path style="fill:none;stroke:red;stroke-width:1px;stroke-linecap:butt;stroke-linejoin:miter;stroke-opacity:1" d="M 461.728,885.012 464.025,892.667 z" id="boundary" inkscape:connector-curvature="0" />
	<path style="fill:none;stroke:red;stroke-width:1px;stroke-linecap:butt;stroke-linejoin:miter;stroke-opacity:1" d="M 464.025,846.741 464.025,854.395 z" id="boundary" inkscape:connector-curvature="0" />
	<path style="fill:none;stroke:red;stroke-width:1px;stroke-linecap:butt;stroke-linejoin:miter;stroke-opacity:1" d="M 464.025,846.741 467.852,831.432 z" id="boundary" inkscape:connector-curvature="0" />
	<path style="fill:none;stroke:red;stroke-width:1px;stroke-linecap:butt;stroke-linejoin:miter;stroke-opacity:1" d="M 464.025,854.395 464.025,862.049 z" id="boundary" inkscape:connector-curvature="0" />
	<path style="fill:none;stroke:red;stroke-width:1px;stroke-linecap:butt;stroke-linejoin:miter;stroke-opacity:1" d="M 465.556,4 480.099,7.82716 z" id="boundary" inkscape:connector-curvature="0" />
	<path style="fill:none;stroke:red;stroke-width:1px;stroke-linecap:butt;stroke-linejoin:miter;stroke-opacity:1" d="M 467.852,739.58 467.852,747.235 z" id="boundary" inkscape:connector-curvature="0" />
	<path style="fill:none;stroke:red;stroke-width:1px;stroke-linecap:butt;stroke-linejoin:miter;stroke-opacity:1" d="M 467.852,739.58 471.679,728.099 z" id="boundary" inkscape:connector-curvature="0" />
	<path style="fill:none;stroke:red;stroke-width:1px;stroke-linecap:butt;stroke-linejoin:miter;stroke-opacity:1" d="M 467.852,747.235 467.852,762.543 z" id="boundary" inkscape:connector-curvature="0" />
	<path style="fill:none;stroke:red;stroke-width:1px;stroke-linecap:butt;stroke-linejoin:miter;stroke-opacity:1" d="M 467.852,762.543 467.852,770.198 z" id="boundary" inkscape:connector-curvature="0" />
	<path style="fill:none;stroke:red;stroke-width:1px;stroke-linecap:butt;stroke-linejoin:miter;stroke-opacity:1" d="M 467.852,770.198 467.852,777.852 z" id="boundary" inkscape:connector-curvature="0" />
	<path style="fill:none;stroke:red;stroke-width:1px;stroke-linecap:butt;stroke-linejoin:miter;stroke-opacity:1" d="M 467.852,777.852 467.852,785.506 z" id="boundary" inkscape:connector-curvature="0" />
	<path style="fill:none;stroke:red;stroke-width:1px;stroke-linecap:butt;stroke-linejoin:miter;stroke-opacity:1" d="M 467.852,785.506 467.852,800.815 z" id="boundary" inkscape:connector-curvature="0" />
	<path style="fill:none;stroke:red;stroke-width:1px;stroke-linecap:butt;stroke-linejoin:miter;stroke-opacity:1" d="M 467.852,800.815 467.852,808.469 z" id="boundary" inkscape:connector-curvature="0" />
	<path style="fill:none;stroke:red;stroke-width:1px;stroke-linecap:butt;stroke-linejoin:miter;stroke-opacity:1" d="M 467.852,808.469 467.852,816.123 z" id="boundary" inkscape:connector-curvature="0" />
	<path style="fill:none;stroke:red;stroke-width:1px;stroke-linecap:butt;stroke-linejoin:miter;stroke-opacity:1" d="M 467.852,816.123 467.852,823.778 z" id="boundary" inkscape:connector-curvature="0" />
	<path style="fill:none;stroke:red;stroke-width:1px;stroke-linecap:butt;stroke-linejoin:miter;stroke-opacity:1" d="M 467.852,823.778 467.852,831.432 z" id="boundary" inkscape:connector-curvature="0" />
	<path style="fill:none;stroke:red;stroke-width:1px;stroke-linecap:butt;stroke-linejoin:miter;stroke-opacity:1" d="M 471.679,728.099 479.333,708.963 z" id="boundary" inkscape:connector-curvature="0" />
	<path style="fill:none;stroke:red;stroke-width:1px;stroke-linecap:butt;stroke-linejoin:miter;stroke-opacity:1" d="M 479.333,708.963 486.988,708.963 z" id="boundary" inkscape:connector-curvature="0" />
	<path style="fill:none;stroke:red;stroke-width:1px;stroke-linecap:butt;stroke-linejoin:miter;stroke-opacity:1" d="M 480.099,7.82716 486.988,11.6543 z" id="boundary" inkscape:connector-curvature="0" />
	<path style="fill:none;stroke:red;stroke-width:1px;stroke-linecap:butt;stroke-linejoin:miter;stroke-opacity:1" d="M 486.988,11.6543 493.111,16.2469 z" id="boundary" inkscape:connector-curvature="0" />
	<path style="fill:none;stroke:red;stroke-width:1px;stroke-linecap:butt;stroke-linejoin:miter;stroke-opacity:1" d="M 486.988,708.963 498.469,693.654 z" id="boundary" inkscape:connector-curvature="0" />
	<path style="fill:none;stroke:red;stroke-width:1px;stroke-linecap:butt;stroke-linejoin:miter;stroke-opacity:1" d="M 493.111,16.2469 498.469,22.3704 z" id="boundary" inkscape:connector-curvature="0" />
	<path style="fill:none;stroke:red;stroke-width:1px;stroke-linecap:butt;stroke-linejoin:miter;stroke-opacity:1" d="M 498.469,22.3704 504.593,27.7284 z" id="boundary" inkscape:connector-curvature="0" />
	<path style="fill:none;stroke:red;stroke-width:1px;stroke-linecap:butt;stroke-linejoin:miter;stroke-opacity:1" d="M 498.469,693.654 506.123,693.654 z" id="boundary" inkscape:connector-curvature="0" />
	<path style="fill:none;stroke:red;stroke-width:1px;stroke-linecap:butt;stroke-linejoin:miter;stroke-opacity:1" d="M 504.593,27.7284 511.481,31.5556 z" id="boundary" inkscape:connector-curvature="0" />
	<path style="fill:none;stroke:red;stroke-width:1px;stroke-linecap:butt;stroke-linejoin:miter;stroke-opacity:1" d="M 506.123,693.654 520.667,689.827 z" id="boundary" inkscape:connector-curvature="0" />
	<path style="fill:none;stroke:red;stroke-width:1px;stroke-linecap:butt;stroke-linejoin:miter;stroke-opacity:1" d="M 511.481,31.5556 524.494,40.7407 z" id="boundary" inkscape:connector-curvature="0" />
	<path style="fill:none;stroke:red;stroke-width:1px;stroke-linecap:butt;stroke-linejoin:miter;stroke-opacity:1" d="M 520.667,689.827 528.321,687.531 z" id="boundary" inkscape:connector-curvature="0" />
	<path style="fill:none;stroke:red;stroke-width:1px;stroke-linecap:butt;stroke-linejoin:miter;stroke-opacity:1" d="M 521.432,617.111 522.963,624.765 z" id="boundary" inkscape:connector-curvature="0" />
	<path style="fill:none;stroke:red;stroke-width:1px;stroke-linecap:butt;stroke-linejoin:miter;stroke-opacity:1" d="M 521.432,617.111 536.741,620.938 z" id="boundary" inkscape:connector-curvature="0" />
	<path style="fill:none;stroke:red;stroke-width:1px;stroke-linecap:butt;stroke-linejoin:miter;stroke-opacity:1" d="M 522.963,624.765 525.259,632.42 z" id="boundary" inkscape:connector-curvature="0" />
	<path style="fill:none;stroke:red;stroke-width:1px;stroke-linecap:butt;stroke-linejoin:miter;stroke-opacity:1" d="M 524.494,40.7407 530.617,46.0988 z" id="boundary" inkscape:connector-curvature="0" />
	<path style="fill:none;stroke:red;stroke-width:1px;stroke-linecap:butt;stroke-linejoin:miter;stroke-opacity:1" d="M 525.259,632.42 525.259,640.074 z" id="boundary" inkscape:connector-curvature="0" />
	<path style="fill:none;stroke:red;stroke-width:1px;stroke-linecap:butt;stroke-linejoin:miter;stroke-opacity:1" d="M 525.259,640.074 529.086,654.617 z" id="boundary" inkscape:connector-curvature="0" />
	<path style="fill:none;stroke:red;stroke-width:1px;stroke-linecap:butt;stroke-linejoin:miter;stroke-opacity:1" d="M 528.321,687.531 529.086,677.58 z" id="boundary" inkscape:connector-curvature="0" />
	<path style="fill:none;stroke:red;stroke-width:1px;stroke-linecap:butt;stroke-linejoin:miter;stroke-opacity:1" d="M 529.086,654.617 529.086,662.272 z" id="boundary" inkscape:connector-curvature="0" />
	<path style="fill:none;stroke:red;stroke-width:1px;stroke-linecap:butt;stroke-linejoin:miter;stroke-opacity:1" d="M 529.086,662.272 529.086,669.926 z" id="boundary" inkscape:connector-curvature="0" />
	<path style="fill:none;stroke:red;stroke-width:1px;stroke-linecap:butt;stroke-linejoin:miter;stroke-opacity:1" d="M 529.086,669.926 529.086,677.58 z" id="boundary" inkscape:connector-curvature="0" />
	<path style="fill:none;stroke:red;stroke-width:1px;stroke-linecap:butt;stroke-linejoin:miter;stroke-opacity:1" d="M 530.617,46.0988 535.975,52.2222 z" id="boundary" inkscape:connector-curvature="0" />
	<path style="fill:none;stroke:red;stroke-width:1px;stroke-linecap:butt;stroke-linejoin:miter;stroke-opacity:1" d="M 535.975,52.2222 540.568,58.3457 z" id="boundary" inkscape:connector-curvature="0" />
	<path style="fill:none;stroke:red;stroke-width:1px;stroke-linecap:butt;stroke-linejoin:miter;stroke-opacity:1" d="M 536.741,620.938 552.049,617.111 z" id="boundary" inkscape:connector-curvature="0" />
	<path style="fill:none;stroke:red;stroke-width:1px;stroke-linecap:butt;stroke-linejoin:miter;stroke-opacity:1" d="M 540.568,58.3457 544.395,65.2346 z" id="boundary" inkscape:connector-curvature="0" />
	<path style="fill:none;stroke:red;stroke-width:1px;stroke-linecap:butt;stroke-linejoin:miter;stroke-opacity:1" d="M 544.395,65.2346 553.58,77.4815 z" id="boundary" inkscape:connector-curvature="0" />
	<path style="fill:none;stroke:red;stroke-width:1px;stroke-linecap:butt;stroke-linejoin:miter;stroke-opacity:1" d="M 552.049,617.111 559.704,617.111 z" id="boundary" inkscape:connector-curvature="0" />
	<path style="fill:none;stroke:red;stroke-width:1px;stroke-linecap:butt;stroke-linejoin:miter;stroke-opacity:1" d="M 553.58,77.4815 559.704,82.8395 z" id="boundary" inkscape:connector-curvature="0" />
	<path style="fill:none;stroke:red;stroke-width:1px;stroke-linecap:butt;stroke-linejoin:miter;stroke-opacity:1" d="M 559.704,82.8395 565.827,88.1975 z" id="boundary" inkscape:connector-curvature="0" />
	<path style="fill:none;stroke:red;stroke-width:1px;stroke-linecap:butt;stroke-linejoin:miter;stroke-opacity:1" d="M 559.704,617.111 567.358,613.284 z" id="boundary" inkscape:connector-curvature="0" />
	<path style="fill:none;stroke:red;stroke-width:1px;stroke-linecap:butt;stroke-linejoin:miter;stroke-opacity:1" d="M 565.827,88.1975 575.012,99.679 z" id="boundary" inkscape:connector-curvature="0" />
	<path style="fill:none;stroke:red;stroke-width:1px;stroke-linecap:butt;stroke-linejoin:miter;stroke-opacity:1" d="M 567.358,613.284 575.012,609.457 z" id="boundary" inkscape:connector-curvature="0" />
	<path style="fill:none;stroke:red;stroke-width:1px;stroke-linecap:butt;stroke-linejoin:miter;stroke-opacity:1" d="M 575.012,99.679 581.136,104.272 z" id="boundary" inkscape:connector-curvature="0" />
	<path style="fill:none;stroke:red;stroke-width:1px;stroke-linecap:butt;stroke-linejoin:miter;stroke-opacity:1" d="M 575.012,609.457 582.667,605.63 z" id="boundary" inkscape:connector-curvature="0" />
	<path style="fill:none;stroke:red;stroke-width:1px;stroke-linecap:butt;stroke-linejoin:miter;stroke-opacity:1" d="M 581.136,104.272 594.148,113.457 z" id="boundary" inkscape:connector-curvature="0" />
	<path style="fill:none;stroke:red;stroke-width:1px;stroke-linecap:butt;stroke-linejoin:miter;stroke-opacity:1" d="M 582.667,605.63 590.321,605.63 z" id="boundary" inkscape:connector-curvature="0" />
	<path style="fill:none;stroke:red;stroke-width:1px;stroke-linecap:butt;stroke-linejoin:miter;stroke-opacity:1" d="M 590.321,605.63 597.21,601.802 z" id="boundary" inkscape:connector-curvature="0" />
	<path style="fill:none;stroke:red;stroke-width:1px;stroke-linecap:butt;stroke-linejoin:miter;stroke-opacity:1" d="M 594.148,113.457 608.691,120.346 z" id="boundary" inkscape:connector-curvature="0" />
	<path style="fill:none;stroke:red;stroke-width:1px;stroke-linecap:butt;stroke-linejoin:miter;stroke-opacity:1" d="M 597.21,601.802 611.753,596.444 z" id="boundary" inkscape:connector-curvature="0" />
	<path style="fill:none;stroke:red;stroke-width:1px;stroke-linecap:butt;stroke-linejoin:miter;stroke-opacity:1" d="M 608.691,120.346 613.284,126.469 z" id="boundary" inkscape:connector-curvature="0" />
	<path style="fill:none;stroke:red;stroke-width:1px;stroke-linecap:butt;stroke-linejoin:miter;stroke-opacity:1" d="M 611.753,596.444 615.58,588.79 z" id="boundary" inkscape:connector-curvature="0" />
	<path style="fill:none;stroke:red;stroke-width:1px;stroke-linecap:butt;stroke-linejoin:miter;stroke-opacity:1" d="M 613.284,126.469 619.407,131.062 z" id="boundary" inkscape:connector-curvature="0" />
	<path style="fill:none;stroke:red;stroke-width:1px;stroke-linecap:butt;stroke-linejoin:miter;stroke-opacity:1" d="M 615.58,588.79 623.235,584.963 z" id="boundary" inkscape:connector-curvature="0" />
	<path style="fill:none;stroke:red;stroke-width:1px;stroke-linecap:butt;stroke-linejoin:miter;stroke-opacity:1" d="M 619.407,131.062 624.765,137.185 z" id="boundary" inkscape:connector-curvature="0" />
	<path style="fill:none;stroke:red;stroke-width:1px;stroke-linecap:butt;stroke-linejoin:miter;stroke-opacity:1" d="M 623.235,584.963 630.889,581.136 z" id="boundary" inkscape:connector-curvature="0" />
	<path style="fill:none;stroke:red;stroke-width:1px;stroke-linecap:butt;stroke-linejoin:miter;stroke-opacity:1" d="M 624.765,137.185 630.889,141.778 z" id="boundary" inkscape:connector-curvature="0" />
	<path style="fill:none;stroke:red;stroke-width:1px;stroke-linecap:butt;stroke-linejoin:miter;stroke-opacity:1" d="M 630.889,141.778 637.778,145.605 z" id="boundary" inkscape:connector-curvature="0" />
	<path style="fill:none;stroke:red;stroke-width:1px;stroke-linecap:butt;stroke-linejoin:miter;stroke-opacity:1" d="M 630.889,581.136 638.543,577.309 z" id="boundary" inkscape:connector-curvature="0" />
	<path style="fill:none;stroke:red;stroke-width:1px;stroke-linecap:butt;stroke-linejoin:miter;stroke-opacity:1" d="M 637.778,145.605 650.79,154.79 z" id="boundary" inkscape:connector-curvature="0" />
	<path style="fill:none;stroke:red;stroke-width:1px;stroke-linecap:butt;stroke-linejoin:miter;stroke-opacity:1" d="M 638.543,577.309 646.198,575.012 z" id="boundary" inkscape:connector-curvature="0" />
	<path style="fill:none;stroke:red;stroke-width:1px;stroke-linecap:butt;stroke-linejoin:miter;stroke-opacity:1" d="M 646.198,575.012 659.21,563.531 z" id="boundary" inkscape:connector-curvature="0" />
	<path style="fill:none;stroke:red;stroke-width:1px;stroke-linecap:butt;stroke-linejoin:miter;stroke-opacity:1" d="M 650.79,154.79 658.444,157.086 z" id="boundary" inkscape:connector-curvature="0" />
	<path style="fill:none;stroke:red;stroke-width:1px;stroke-linecap:butt;stroke-linejoin:miter;stroke-opacity:1" d="M 658.444,157.086 666.099,158.617 z" id="boundary" inkscape:connector-curvature="0" />
	<path style="fill:none;stroke:red;stroke-width:1px;stroke-linecap:butt;stroke-linejoin:miter;stroke-opacity:1" d="M 666.099,158.617 680.642,165.506 z" id="boundary" inkscape:connector-curvature="0" />
	<path style="fill:none;stroke:red;stroke-width:1px;stroke-linecap:butt;stroke-linejoin:miter;stroke-opacity:1" d="M 674.519,555.877 681.407,552.049 z" id="boundary" inkscape:connector-curvature="0" />
	<path style="fill:none;stroke:red;stroke-width:1px;stroke-linecap:butt;stroke-linejoin:miter;stroke-opacity:1" d="M 674.519,555.877 687.531,547.457 z" id="boundary" inkscape:connector-curvature="0" />
	<path style="fill:none;stroke:red;stroke-width:1px;stroke-linecap:butt;stroke-linejoin:miter;stroke-opacity:1" d="M 680.642,165.506 688.296,168.568 z" id="boundary" inkscape:connector-curvature="0" />
	<path style="fill:none;stroke:red;stroke-width:1px;stroke-linecap:butt;stroke-linejoin:miter;stroke-opacity:1" d="M 681.407,552.049 687.531,547.457 z" id="boundary" inkscape:connector-curvature="0" />
	<path style="fill:none;stroke:red;stroke-width:1px;stroke-linecap:butt;stroke-linejoin:miter;stroke-opacity:1" d="M 688.296,168.568 695.185,172.395 z" id="boundary" inkscape:connector-curvature="0" />
	<path style="fill:none;stroke:red;stroke-width:1px;stroke-linecap:butt;stroke-linejoin:miter;stroke-opacity:1" d="M 695.185,172.395 702.074,176.222 z" id="boundary" inkscape:connector-curvature="0" />
	<path style="fill:none;stroke:red;stroke-width:1px;stroke-linecap:butt;stroke-linejoin:miter;stroke-opacity:1" d="M 701.309,536.741 708.198,532.914 z" id="boundary" inkscape:connector-curvature="0" />
	<path style="fill:none;stroke:red;stroke-width:1px;stroke-linecap:butt;stroke-linejoin:miter;stroke-opacity:1" d="M 702.074,176.222 708.198,181.58 z" id="boundary" inkscape:connector-curvature="0" />
	<path style="fill:none;stroke:red;stroke-width:1px;stroke-linecap:butt;stroke-linejoin:miter;stroke-opacity:1" d="M 708.198,181.58 720.444,190 z" id="boundary" inkscape:connector-curvature="0" />
	<path style="fill:none;stroke:red;stroke-width:1px;stroke-linecap:butt;stroke-linejoin:miter;stroke-opacity:1" d="M 708.198,532.914 715.852,530.617 z" id="boundary" inkscape:connector-curvature="0" />
	<path style="fill:none;stroke:red;stroke-width:1px;stroke-linecap:butt;stroke-linejoin:miter;stroke-opacity:1" d="M 715.852,530.617 721.975,525.259 z" id="boundary" inkscape:connector-curvature="0" />
	<path style="fill:none;stroke:red;stroke-width:1px;stroke-linecap:butt;stroke-linejoin:miter;stroke-opacity:1" d="M 720.444,190 725.802,196.123 z" id="boundary" inkscape:connector-curvature="0" />
	<path style="fill:none;stroke:red;stroke-width:1px;stroke-linecap:butt;stroke-linejoin:miter;stroke-opacity:1" d="M 721.975,525.259 728.864,521.432 z" id="boundary" inkscape:connector-curvature="0" />
	<path style="fill:none;stroke:red;stroke-width:1px;stroke-linecap:butt;stroke-linejoin:miter;stroke-opacity:1" d="M 725.802,196.123 731.926,201.481 z" id="boundary" inkscape:connector-curvature="0" />
	<path style="fill:none;stroke:red;stroke-width:1px;stroke-linecap:butt;stroke-linejoin:miter;stroke-opacity:1" d="M 728.864,521.432 735.753,517.605 z" id="boundary" inkscape:connector-curvature="0" />
	<path style="fill:none;stroke:red;stroke-width:1px;stroke-linecap:butt;stroke-linejoin:miter;stroke-opacity:1" d="M 731.926,201.481 738.815,205.309 z" id="boundary" inkscape:connector-curvature="0" />
	<path style="fill:none;stroke:red;stroke-width:1px;stroke-linecap:butt;stroke-linejoin:miter;stroke-opacity:1" d="M 735.753,517.605 749.531,508.42 z" id="boundary" inkscape:connector-curvature="0" />
	<path style="fill:none;stroke:red;stroke-width:1px;stroke-linecap:butt;stroke-linejoin:miter;stroke-opacity:1" d="M 738.815,205.309 744.938,210.667 z" id="boundary" inkscape:connector-curvature="0" />
	<path style="fill:none;stroke:red;stroke-width:1px;stroke-linecap:butt;stroke-linejoin:miter;stroke-opacity:1" d="M 744.938,210.667 751.827,214.494 z" id="boundary" inkscape:connector-curvature="0" />
	<path style="fill:none;stroke:red;stroke-width:1px;stroke-linecap:butt;stroke-linejoin:miter;stroke-opacity:1" d="M 749.531,508.42 761.778,498.469 z" id="boundary" inkscape:connector-curvature="0" />
	<path style="fill:none;stroke:red;stroke-width:1px;stroke-linecap:butt;stroke-linejoin:miter;stroke-opacity:1" d="M 751.827,214.494 757.951,219.852 z" id="boundary" inkscape:connector-curvature="0" />
	<path style="fill:none;stroke:red;stroke-width:1px;stroke-linecap:butt;stroke-linejoin:miter;stroke-opacity:1" d="M 757.951,219.852 770.198,228.272 z" id="boundary" inkscape:connector-curvature="0" />
	<path style="fill:none;stroke:red;stroke-width:1px;stroke-linecap:butt;stroke-linejoin:miter;stroke-opacity:1" d="M 761.778,498.469 774.025,486.988 z" id="boundary" inkscape:connector-curvature="0" />
	<path style="fill:none;stroke:red;stroke-width:1px;stroke-linecap:butt;stroke-linejoin:miter;stroke-opacity:1" d="M 770.198,228.272 775.556,234.395 z" id="boundary" inkscape:connector-curvature="0" />
	<path style="fill:none;stroke:red;stroke-width:1px;stroke-linecap:butt;stroke-linejoin:miter;stroke-opacity:1" d="M 774.025,486.988 781.679,483.16 z" id="boundary" inkscape:connector-curvature="0" />
	<path style="fill:none;stroke:red;stroke-width:1px;stroke-linecap:butt;stroke-linejoin:miter;stroke-opacity:1" d="M 775.556,234.395 788.568,243.58 z" id="boundary" inkscape:connector-curvature="0" />
	<path style="fill:none;stroke:red;stroke-width:1px;stroke-linecap:butt;stroke-linejoin:miter;stroke-opacity:1" d="M 781.679,483.16 787.802,477.802 z" id="boundary" inkscape:connector-curvature="0" />
	<path style="fill:none;stroke:red;stroke-width:1px;stroke-linecap:butt;stroke-linejoin:miter;stroke-opacity:1" d="M 787.802,477.802 793.16,471.679 z" id="boundary" inkscape:connector-curvature="0" />
	<path style="fill:none;stroke:red;stroke-width:1px;stroke-linecap:butt;stroke-linejoin:miter;stroke-opacity:1" d="M 788.568,243.58 796.988,256.593 z" id="boundary" inkscape:connector-curvature="0" />
	<path style="fill:none;stroke:red;stroke-width:1px;stroke-linecap:butt;stroke-linejoin:miter;stroke-opacity:1" d="M 793.16,471.679 799.284,466.321 z" id="boundary" inkscape:connector-curvature="0" />
	<path style="fill:none;stroke:red;stroke-width:1px;stroke-linecap:butt;stroke-linejoin:miter;stroke-opacity:1" d="M 796.988,256.593 804.642,258.889 z" id="boundary" inkscape:connector-curvature="0" />
	<path style="fill:none;stroke:red;stroke-width:1px;stroke-linecap:butt;stroke-linejoin:miter;stroke-opacity:1" d="M 799.284,466.321 812.296,456.37 z" id="boundary" inkscape:connector-curvature="0" />
	<path style="fill:none;stroke:red;stroke-width:1px;stroke-linecap:butt;stroke-linejoin:miter;stroke-opacity:1" d="M 804.642,258.889 810,265.012 z" id="boundary" inkscape:connector-curvature="0" />
	<path style="fill:none;stroke:red;stroke-width:1px;stroke-linecap:butt;stroke-linejoin:miter;stroke-opacity:1" d="M 810,265.012 820.716,275.728 z" id="boundary" inkscape:connector-curvature="0" />
	<path style="fill:none;stroke:red;stroke-width:1px;stroke-linecap:butt;stroke-linejoin:miter;stroke-opacity:1" d="M 812.296,456.37 818.42,451.012 z" id="boundary" inkscape:connector-curvature="0" />
	<path style="fill:none;stroke:red;stroke-width:1px;stroke-linecap:butt;stroke-linejoin:miter;stroke-opacity:1" d="M 818.42,451.012 827.605,437.235 z" id="boundary" inkscape:connector-curvature="0" />
	<path style="fill:none;stroke:red;stroke-width:1px;stroke-linecap:butt;stroke-linejoin:miter;stroke-opacity:1" d="M 820.716,275.728 823.778,283.383 z" id="boundary" inkscape:connector-curvature="0" />
	<path style="fill:none;stroke:red;stroke-width:1px;stroke-linecap:butt;stroke-linejoin:miter;stroke-opacity:1" d="M 823.778,283.383 831.432,285.679 z" id="boundary" inkscape:connector-curvature="0" />
	<path style="fill:none;stroke:red;stroke-width:1px;stroke-linecap:butt;stroke-linejoin:miter;stroke-opacity:1" d="M 827.605,437.235 835.259,429.58 z" id="boundary" inkscape:connector-curvature="0" />
	<path style="fill:none;stroke:red;stroke-width:1px;stroke-linecap:butt;stroke-linejoin:miter;stroke-opacity:1" d="M 831.432,285.679 835.259,292.568 z" id="boundary" inkscape:connector-curvature="0" />
	<path style="fill:none;stroke:red;stroke-width:1px;stroke-linecap:butt;stroke-linejoin:miter;stroke-opacity:1" d="M 835.259,292.568 842.148,296.395 z" id="boundary" inkscape:connector-curvature="0" />
	<path style="fill:none;stroke:red;stroke-width:1px;stroke-linecap:butt;stroke-linejoin:miter;stroke-opacity:1" d="M 835.259,429.58 849.037,420.395 z" id="boundary" inkscape:connector-curvature="0" />
	<path style="fill:none;stroke:red;stroke-width:1px;stroke-linecap:butt;stroke-linejoin:miter;stroke-opacity:1" d="M 842.148,296.395 846.741,302.519 z" id="boundary" inkscape:connector-curvature="0" />
	<path style="fill:none;stroke:red;stroke-width:1px;stroke-linecap:butt;stroke-linejoin:miter;stroke-opacity:1" d="M 846.741,302.519 850.568,309.407 z" id="boundary" inkscape:connector-curvature="0" />
	<path style="fill:none;stroke:red;stroke-width:1px;stroke-linecap:butt;stroke-linejoin:miter;stroke-opacity:1" d="M 849.037,420.395 852.864,412.741 z" id="boundary" inkscape:connector-curvature="0" />
	<path style="fill:none;stroke:red;stroke-width:1px;stroke-linecap:butt;stroke-linejoin:miter;stroke-opacity:1" d="M 850.568,309.407 856.691,314.765 z" id="boundary" inkscape:connector-curvature="0" />
	<path style="fill:none;stroke:red;stroke-width:1px;stroke-linecap:butt;stroke-linejoin:miter;stroke-opacity:1" d="M 852.864,412.741 856.691,405.086 z" id="boundary" inkscape:connector-curvature="0" />
	<path style="fill:none;stroke:red;stroke-width:1px;stroke-linecap:butt;stroke-linejoin:miter;stroke-opacity:1" d="M 856.691,314.765 865.877,327.778 z" id="boundary" inkscape:connector-curvature="0" />
	<path style="fill:none;stroke:red;stroke-width:1px;stroke-linecap:butt;stroke-linejoin:miter;stroke-opacity:1" d="M 856.691,405.086 858.222,395.136 z" id="boundary" inkscape:connector-curvature="0" />
	<path style="fill:none;stroke:red;stroke-width:1px;stroke-linecap:butt;stroke-linejoin:miter;stroke-opacity:1" d="M 858.222,395.136 862.049,387.481 z" id="boundary" inkscape:connector-curvature="0" />
	<path style="fill:none;stroke:red;stroke-width:1px;stroke-linecap:butt;stroke-linejoin:miter;stroke-opacity:1" d="M 862.049,379.827 862.049,387.481 z" id="boundary" inkscape:connector-curvature="0" />
	<path style="fill:none;stroke:red;stroke-width:1px;stroke-linecap:butt;stroke-linejoin:miter;stroke-opacity:1" d="M 862.049,379.827 865.877,364.519 z" id="boundary" inkscape:connector-curvature="0" />
	<path style="fill:none;stroke:red;stroke-width:1px;stroke-linecap:butt;stroke-linejoin:miter;stroke-opacity:1" d="M 865.877,327.778 865.877,349.21 z" id="boundary" inkscape:connector-curvature="0" />
	<path style="fill:none;stroke:red;stroke-width:1px;stroke-linecap:butt;stroke-linejoin:miter;stroke-opacity:1" d="M 865.877,349.21 865.877,356.864 z" id="boundary" inkscape:connector-curvature="0" />
	<path style="fill:none;stroke:red;stroke-width:1px;stroke-linecap:butt;stroke-linejoin:miter;stroke-opacity:1" d="M 865.877,356.864 865.877,364.519 z" id="boundary" inkscape:connector-curvature="0" />
	<circle cx="4" cy="293.333" r="4" fill="#0" id="circle0"/>
	<circle cx="4" cy="300.988" r="4" fill="#0" id="circle1"/>
	<circle cx="4" cy="308.642" r="4" fill="#0" id="circle2"/>
	<circle cx="4" cy="316.296" r="4" fill="#0" id="circle3"/>
	<circle cx="7.82716" cy="323.185" r="4" fill="#0" id="circle4"/>
	<circle cx="7.82716" cy="330.84" r="4" fill="#0" id="circle5"/>
	<circle cx="7.82716" cy="338.494" r="4" fill="#0" id="circle6"/>
	<circle cx="10.1235" cy="287.21" r="4" fill="#0" id="circle7"/>
	<circle cx="11.6543" cy="345.383" r="4" fill="#0" id="circle8"/>
	<circle cx="15.4815" cy="278.025" r="4" fill="#0" id="circle9"/>
	<circle cx="15.4815" cy="352.272" r="4" fill="#0" id="circle10"/>
	<circle cx="15.4815" cy="359.926" r="4" fill="#0" id="circle11"/>
	<circle cx="19.3086" cy="366.815" r="4" fill="#0" id="circle12"/>
	<circle cx="21.6049" cy="271.901" r="4" fill="#0" id="circle13"/>
	<circle cx="23.1358" cy="373.704" r="4" fill="#0" id="circle14"/>
	<circle cx="23.1358" cy="381.358" r="4" fill="#0" id="circle15"/>
	<circle cx="26.963" cy="388.247" r="4" fill="#0" id="circle16"/>
	<circle cx="27.7284" cy="265.778" r="4" fill="#0" id="circle17"/>
	<circle cx="30.7901" cy="395.136" r="4" fill="#0" id="circle18"/>
	<circle cx="33.8519" cy="260.42" r="4" fill="#0" id="circle19"/>
	<circle cx="35.3827" cy="401.259" r="4" fill="#0" id="circle20"/>
	<circle cx="40.7407" cy="256.593" r="4" fill="#0" id="circle21"/>
	<circle cx="41.5062" cy="406.617" r="4" fill="#0" id="circle22"/>
	<circle cx="44.5679" cy="248.938" r="4" fill="#0" id="circle23"/>
	<circle cx="48.3951" cy="410.444" r="4" fill="#0" id="circle24"/>
	<circle cx="52.2222" cy="245.111" r="4" fill="#0" id="circle25"/>
	<circle cx="53.7531" cy="416.568" r="4" fill="#0" id="circle26"/>
	<circle cx="58.3457" cy="238.988" r="4" fill="#0" id="circle27"/>
	<circle cx="59.8765" cy="421.926" r="4" fill="#0" id="circle28"/>
	<circle cx="65.2346" cy="428.049" r="4" fill="#0" id="circle29"/>
	<circle cx="66" cy="235.16" r="4" fill="#0" id="circle30"/>
	<circle cx="71.358" cy="433.407" r="4" fill="#0" id="circle31"/>
	<circle cx="72.1235" cy="229.802" r="4" fill="#0" id="circle32"/>
	<circle cx="77.4815" cy="438.765" r="4" fill="#0" id="circle33"/>
	<circle cx="79.0123" cy="225.975" r="4" fill="#0" id="circle34"/>
	<circle cx="82.8395" cy="444.889" r="4" fill="#0" id="circle35"/>
	<circle cx="85.1358" cy="219.852" r="4" fill="#0" id="circle36"/>
	<circle cx="88.963" cy="450.247" r="4" fill="#0" id="circle37"/>
	<circle cx="92.7901" cy="216.025" r="4" fill="#0" id="circle38"/>
	<circle cx="95.8519" cy="454.074" r="4" fill="#0" id="circle39"/>
	<circle cx="98.9136" cy="210.667" r="4" fill="#0" id="circle40"/>
	<circle cx="101.975" cy="459.432" r="4" fill="#0" id="circle41"/>
	<circle cx="105.802" cy="206.84" r="4" fill="#0" id="circle42"/>
	<circle cx="107.333" cy="465.556" r="4" fill="#0" id="circle43"/>
	<circle cx="112.691" cy="203.012" r="4" fill="#0" id="circle44"/>
	<circle cx="113.457" cy="470.914" r="4" fill="#0" id="circle45"/>
	<circle cx="118.815" cy="197.654" r="4" fill="#0" id="circle46"/>
	<circle cx="118.815" cy="477.037" r="4" fill="#0" id="circle47"/>
	<circle cx="124.938" cy="482.395" r="4" fill="#0" id="circle48"/>
	<circle cx="126.469" cy="193.827" r="4" fill="#0" id="circle49"/>
	<circle cx="131.062" cy="486.988" r="4" fill="#0" id="circle50"/>
	<circle cx="134.123" cy="190" r="4" fill="#0" id="circle51"/>
	<circle cx="137.951" cy="490.815" r="4" fill="#0" id="circle52"/>
	<circle cx="140.247" cy="183.877" r="4" fill="#0" id="circle53"/>
	<circle cx="142.543" cy="496.938" r="4" fill="#0" id="circle54"/>
	<circle cx="146.37" cy="503.827" r="4" fill="#0" id="circle55"/>
	<circle cx="147.901" cy="180.049" r="4" fill="#0" id="circle56"/>
	<circle cx="153.259" cy="507.654" r="4" fill="#0" id="circle57"/>
	<circle cx="154.79" cy="176.222" r="4" fill="#0" id="circle58"/>
	<circle cx="157.852" cy="513.778" r="4" fill="#0" id="circle59"/>
	<circle cx="161.679" cy="172.395" r="4" fill="#0" id="circle60"/>
	<circle cx="164.741" cy="517.605" r="4" fill="#0" id="circle61"/>
	<circle cx="168.568" cy="168.568" r="4" fill="#0" id="circle62"/>
	<circle cx="169.333" cy="523.728" r="4" fill="#0" id="circle63"/>
	<circle cx="175.457" cy="164.741" r="4" fill="#0" id="circle64"/>
	<circle cx="176.988" cy="526.79" r="4" fill="#0" id="circle65"/>
	<circle cx="180.815" cy="158.617" r="4" fill="#0" id="circle66"/>
	<circle cx="182.346" cy="532.914" r="4" fill="#0" id="circle67"/>
	<circle cx="188.469" cy="154.79" r="4" fill="#0" id="circle68"/>
	<circle cx="189.235" cy="536.741" r="4" fill="#0" id="circle69"/>
	<circle cx="195.358" cy="541.333" r="4" fill="#0" id="circle70"/>
	<circle cx="196.123" cy="150.963" r="4" fill="#0" id="circle71"/>
	<circle cx="200.716" cy="547.457" r="4" fill="#0" id="circle72"/>
	<circle cx="203.778" cy="147.136" r="4" fill="#0" id="circle73"/>
	<circle cx="206.84" cy="552.049" r="4" fill="#0" id="circle74"/>
	<circle cx="209.901" cy="141.778" r="4" fill="#0" id="circle75"/>
	<circle cx="211.432" cy="558.173" r="4" fill="#0" id="circle76"/>
	<circle cx="216.79" cy="137.951" r="4" fill="#0" id="circle77"/>
	<circle cx="219.086" cy="561.235" r="4" fill="#0" id="circle78"/>
	<circle cx="222.914" cy="131.827" r="4" fill="#0" id="circle79"/>
	<circle cx="224.444" cy="567.358" r="4" fill="#0" id="circle80"/>
	<circle cx="230.568" cy="128" r="4" fill="#0" id="circle81"/>
	<circle cx="230.568" cy="572.716" r="4" fill="#0" id="circle82"/>
	<circle cx="237.457" cy="576.543" r="4" fill="#0" id="circle83"/>
	<circle cx="238.222" cy="126.469" r="4" fill="#0" id="circle84"/>
	<circle cx="243.58" cy="581.901" r="4" fill="#0" id="circle85"/>
	<circle cx="245.111" cy="122.642" r="4" fill="#0" id="circle86"/>
	<circle cx="250.469" cy="585.728" r="4" fill="#0" id="circle87"/>
	<circle cx="252" cy="118.815" r="4" fill="#0" id="circle88"/>
	<circle cx="256.593" cy="590.321" r="4" fill="#0" id="circle89"/>
	<circle cx="258.889" cy="114.988" r="4" fill="#0" id="circle90"/>
	<circle cx="263.481" cy="594.148" r="4" fill="#0" id="circle91"/>
	<circle cx="266.543" cy="114.988" r="4" fill="#0" id="circle92"/>
	<circle cx="268.84" cy="600.272" r="4" fill="#0" id="circle93"/>
	<circle cx="273.432" cy="111.16" r="4" fill="#0" id="circle94"/>
	<circle cx="276.494" cy="603.333" r="4" fill="#0" id="circle95"/>
	<circle cx="279.556" cy="105.802" r="4" fill="#0" id="circle96"/>
	<circle cx="284.148" cy="605.63" r="4" fill="#0" id="circle97"/>
	<circle cx="285.679" cy="99.679" r="4" fill="#0" id="circle98"/>
	<circle cx="291.037" cy="609.457" r="4" fill="#0" id="circle99"/>
	<circle cx="293.333" cy="95.8519" r="4" fill="#0" id="circle100"/>
	<circle cx="298.691" cy="609.457" r="4" fill="#0" id="circle101"/>
	<circle cx="299.457" cy="89.7284" r="4" fill="#0" id="circle102"/>
	<circle cx="305.58" cy="613.284" r="4" fill="#0" id="circle103"/>
	<circle cx="307.111" cy="85.9012" r="4" fill="#0" id="circle104"/>
	<circle cx="312.469" cy="617.111" r="4" fill="#0" id="circle105"/>
	<circle cx="314.765" cy="82.0741" r="4" fill="#0" id="circle106"/>
	<circle cx="320.123" cy="617.111" r="4" fill="#0" id="circle107"/>
	<circle cx="322.42" cy="80.5432" r="4" fill="#0" id="circle108"/>
	<circle cx="327.778" cy="617.111" r="4" fill="#0" id="circle109"/>
	<circle cx="330.074" cy="80.5432" r="4" fill="#0" id="circle110"/>
	<circle cx="335.432" cy="616.346" r="4" fill="#0" id="circle111"/>
	<circle cx="336.963" cy="76.716" r="4" fill="#0" id="circle112"/>
	<circle cx="336.963" cy="653.086" r="4" fill="#0" id="circle113"/>
	<circle cx="336.963" cy="660.741" r="4" fill="#0" id="circle114"/>
	<circle cx="336.963" cy="668.395" r="4" fill="#0" id="circle115"/>
	<circle cx="336.963" cy="676.049" r="4" fill="#0" id="circle116"/>
	<circle cx="340.79" cy="637.778" r="4" fill="#0" id="circle117"/>
	<circle cx="340.79" cy="645.432" r="4" fill="#0" id="circle118"/>
	<circle cx="340.79" cy="682.938" r="4" fill="#0" id="circle119"/>
	<circle cx="343.086" cy="613.284" r="4" fill="#0" id="circle120"/>
	<circle cx="343.852" cy="72.8889" r="4" fill="#0" id="circle121"/>
	<circle cx="344.617" cy="620.938" r="4" fill="#0" id="circle122"/>
	<circle cx="344.617" cy="628.593" r="4" fill="#0" id="circle123"/>
	<circle cx="348.444" cy="686" r="4" fill="#0" id="circle124"/>
	<circle cx="348.444" cy="978.395" r="4" fill="#0" id="circle125"/>
	<circle cx="349.21" cy="66.7654" r="4" fill="#0" id="circle126"/>
	<circle cx="352.272" cy="985.284" r="4" fill="#0" id="circle127"/>
	<circle cx="354.568" cy="972.272" r="4" fill="#0" id="circle128"/>
	<circle cx="356.099" cy="683.704" r="4" fill="#0" id="circle129"/>
	<circle cx="356.864" cy="62.9383" r="4" fill="#0" id="circle130"/>
	<circle cx="358.395" cy="964.617" r="4" fill="#0" id="circle131"/>
	<circle cx="359.926" cy="955.432" r="4" fill="#0" id="circle132"/>
	<circle cx="359.926" cy="988.346" r="4" fill="#0" id="circle133"/>
	<circle cx="362.988" cy="57.5802" r="4" fill="#0" id="circle134"/>
	<circle cx="363.753" cy="682.173" r="4" fill="#0" id="circle135"/>
	<circle cx="366.049" cy="689.827" r="4" fill="#0" id="circle136"/>
	<circle cx="366.049" cy="949.309" r="4" fill="#0" id="circle137"/>
	<circle cx="366.815" cy="992.173" r="4" fill="#0" id="circle138"/>
	<circle cx="368.346" cy="51.4568" r="4" fill="#0" id="circle139"/>
	<circle cx="369.877" cy="696.716" r="4" fill="#0" id="circle140"/>
	<circle cx="372.173" cy="943.185" r="4" fill="#0" id="circle141"/>
	<circle cx="372.938" cy="704.37" r="4" fill="#0" id="circle142"/>
	<circle cx="373.704" cy="996" r="4" fill="#0" id="circle143"/>
	<circle cx="374.469" cy="46.0988" r="4" fill="#0" id="circle144"/>
	<circle cx="376" cy="935.531" r="4" fill="#0" id="circle145"/>
	<circle cx="379.062" cy="708.963" r="4" fill="#0" id="circle146"/>
	<circle cx="381.358" cy="42.2716" r="4" fill="#0" id="circle147"/>
	<circle cx="381.358" cy="995.235" r="4" fill="#0" id="circle148"/>
	<circle cx="382.889" cy="924.815" r="4" fill="#0" id="circle149"/>
	<circle cx="385.951" cy="712.79" r="4" fill="#0" id="circle150"/>
	<circle cx="386.716" cy="917.16" r="4" fill="#0" id="circle151"/>
	<circle cx="387.481" cy="36.1481" r="4" fill="#0" id="circle152"/>
	<circle cx="387.481" cy="988.346" r="4" fill="#0" id="circle153"/>
	<circle cx="390.543" cy="718.914" r="4" fill="#0" id="circle154"/>
	<circle cx="391.309" cy="726.568" r="4" fill="#0" id="circle155"/>
	<circle cx="392.84" cy="911.037" r="4" fill="#0" id="circle156"/>
	<circle cx="394.37" cy="898.025" r="4" fill="#0" id="circle157"/>
	<circle cx="395.136" cy="32.321" r="4" fill="#0" id="circle158"/>
	<circle cx="395.136" cy="984.519" r="4" fill="#0" id="circle159"/>
	<circle cx="397.432" cy="731.926" r="4" fill="#0" id="circle160"/>
	<circle cx="398.198" cy="890.37" r="4" fill="#0" id="circle161"/>
	<circle cx="401.259" cy="26.963" r="4" fill="#0" id="circle162"/>
	<circle cx="401.259" cy="979.16" r="4" fill="#0" id="circle163"/>
	<circle cx="402.025" cy="875.062" r="4" fill="#0" id="circle164"/>
	<circle cx="402.025" cy="882.716" r="4" fill="#0" id="circle165"/>
	<circle cx="402.79" cy="738.049" r="4" fill="#0" id="circle166"/>
	<circle cx="405.852" cy="745.704" r="4" fill="#0" id="circle167"/>
	<circle cx="405.852" cy="852.099" r="4" fill="#0" id="circle168"/>
	<circle cx="405.852" cy="859.753" r="4" fill="#0" id="circle169"/>
	<circle cx="405.852" cy="867.407" r="4" fill="#0" id="circle170"/>
	<circle cx="406.617" cy="20.8395" r="4" fill="#0" id="circle171"/>
	<circle cx="408.914" cy="975.333" r="4" fill="#0" id="circle172"/>
	<circle cx="409.679" cy="752.593" r="4" fill="#0" id="circle173"/>
	<circle cx="409.679" cy="760.247" r="4" fill="#0" id="circle174"/>
	<circle cx="409.679" cy="767.901" r="4" fill="#0" id="circle175"/>
	<circle cx="409.679" cy="775.556" r="4" fill="#0" id="circle176"/>
	<circle cx="409.679" cy="783.21" r="4" fill="#0" id="circle177"/>
	<circle cx="409.679" cy="798.519" r="4" fill="#0" id="circle178"/>
	<circle cx="409.679" cy="806.173" r="4" fill="#0" id="circle179"/>
	<circle cx="409.679" cy="813.827" r="4" fill="#0" id="circle180"/>
	<circle cx="409.679" cy="821.481" r="4" fill="#0" id="circle181"/>
	<circle cx="409.679" cy="829.136" r="4" fill="#0" id="circle182"/>
	<circle cx="409.679" cy="836.79" r="4" fill="#0" id="circle183"/>
	<circle cx="409.679" cy="844.444" r="4" fill="#0" id="circle184"/>
	<circle cx="413.506" cy="790.099" r="4" fill="#0" id="circle185"/>
	<circle cx="413.506" cy="969.21" r="4" fill="#0" id="circle186"/>
	<circle cx="414.272" cy="17.0123" r="4" fill="#0" id="circle187"/>
	<circle cx="418.099" cy="961.556" r="4" fill="#0" id="circle188"/>
	<circle cx="421.926" cy="13.1852" r="4" fill="#0" id="circle189"/>
	<circle cx="424.222" cy="956.198" r="4" fill="#0" id="circle190"/>
	<circle cx="428.049" cy="7.82716" r="4" fill="#0" id="circle191"/>
	<circle cx="428.049" cy="948.543" r="4" fill="#0" id="circle192"/>
	<circle cx="429.58" cy="632.42" r="4" fill="#0" id="circle193"/>
	<circle cx="433.407" cy="639.309" r="4" fill="#0" id="circle194"/>
	<circle cx="433.407" cy="942.42" r="4" fill="#0" id="circle195"/>
	<circle cx="434.938" cy="4" r="4" fill="#0" id="circle196"/>
	<circle cx="435.704" cy="627.062" r="4" fill="#0" id="circle197"/>
	<circle cx="437.235" cy="934.765" r="4" fill="#0" id="circle198"/>
	<circle cx="440.296" cy="643.136" r="4" fill="#0" id="circle199"/>
	<circle cx="441.062" cy="927.111" r="4" fill="#0" id="circle200"/>
	<circle cx="442.593" cy="4" r="4" fill="#0" id="circle201"/>
	<circle cx="443.358" cy="624.765" r="4" fill="#0" id="circle202"/>
	<circle cx="444.123" cy="632.42" r="4" fill="#0" id="circle203"/>
	<circle cx="444.889" cy="919.457" r="4" fill="#0" id="circle204"/>
	<circle cx="448.716" cy="911.802" r="4" fill="#0" id="circle205"/>
	<circle cx="450.247" cy="4" r="4" fill="#0" id="circle206"/>
	<circle cx="454.84" cy="906.444" r="4" fill="#0" id="circle207"/>
	<circle cx="457.901" cy="4" r="4" fill="#0" id="circle208"/>
	<circle cx="460.198" cy="869.704" r="4" fill="#0" id="circle209"/>
	<circle cx="460.198" cy="877.358" r="4" fill="#0" id="circle210"/>
	<circle cx="460.198" cy="900.321" r="4" fill="#0" id="circle211"/>
	<circle cx="461.728" cy="885.012" r="4" fill="#0" id="circle212"/>
	<circle cx="464.025" cy="846.741" r="4" fill="#0" id="circle213"/>
	<circle cx="464.025" cy="854.395" r="4" fill="#0" id="circle214"/>
	<circle cx="464.025" cy="862.049" r="4" fill="#0" id="circle215"/>
	<circle cx="464.025" cy="892.667" r="4" fill="#0" id="circle216"/>
	<circle cx="465.556" cy="4" r="4" fill="#0" id="circle217"/>
	<circle cx="467.852" cy="739.58" r="4" fill="#0" id="circle218"/>
	<circle cx="467.852" cy="747.235" r="4" fill="#0" id="circle219"/>
	<circle cx="467.852" cy="762.543" r="4" fill="#0" id="circle220"/>
	<circle cx="467.852" cy="770.198" r="4" fill="#0" id="circle221"/>
	<circle cx="467.852" cy="777.852" r="4" fill="#0" id="circle222"/>
	<circle cx="467.852" cy="785.506" r="4" fill="#0" id="circle223"/>
	<circle cx="467.852" cy="793.16" r="4" fill="#0" id="circle224"/>
	<circle cx="467.852" cy="800.815" r="4" fill="#0" id="circle225"/>
	<circle cx="467.852" cy="808.469" r="4" fill="#0" id="circle226"/>
	<circle cx="467.852" cy="816.123" r="4" fill="#0" id="circle227"/>
	<circle cx="467.852" cy="823.778" r="4" fill="#0" id="circle228"/>
	<circle cx="467.852" cy="831.432" r="4" fill="#0" id="circle229"/>
	<circle cx="467.852" cy="839.086" r="4" fill="#0" id="circle230"/>
	<circle cx="471.679" cy="728.099" r="4" fill="#0" id="circle231"/>
	<circle cx="471.679" cy="754.123" r="4" fill="#0" id="circle232"/>
	<circle cx="472.444" cy="7.82716" r="4" fill="#0" id="circle233"/>
	<circle cx="477.802" cy="722.741" r="4" fill="#0" id="circle234"/>
	<circle cx="479.333" cy="708.963" r="4" fill="#0" id="circle235"/>
	<circle cx="480.099" cy="7.82716" r="4" fill="#0" id="circle236"/>
	<circle cx="486.988" cy="11.6543" r="4" fill="#0" id="circle237"/>
	<circle cx="486.988" cy="708.963" r="4" fill="#0" id="circle238"/>
	<circle cx="493.111" cy="16.2469" r="4" fill="#0" id="circle239"/>
	<circle cx="493.111" cy="703.605" r="4" fill="#0" id="circle240"/>
	<circle cx="498.469" cy="22.3704" r="4" fill="#0" id="circle241"/>
	<circle cx="498.469" cy="693.654" r="4" fill="#0" id="circle242"/>
	<circle cx="504.593" cy="27.7284" r="4" fill="#0" id="circle243"/>
	<circle cx="506.123" cy="693.654" r="4" fill="#0" id="circle244"/>
	<circle cx="511.481" cy="31.5556" r="4" fill="#0" id="circle245"/>
	<circle cx="513.012" cy="689.827" r="4" fill="#0" id="circle246"/>
	<circle cx="517.605" cy="36.9136" r="4" fill="#0" id="circle247"/>
	<circle cx="520.667" cy="689.827" r="4" fill="#0" id="circle248"/>
	<circle cx="521.432" cy="617.111" r="4" fill="#0" id="circle249"/>
	<circle cx="522.963" cy="624.765" r="4" fill="#0" id="circle250"/>
	<circle cx="524.494" cy="40.7407" r="4" fill="#0" id="circle251"/>
	<circle cx="525.259" cy="632.42" r="4" fill="#0" id="circle252"/>
	<circle cx="525.259" cy="640.074" r="4" fill="#0" id="circle253"/>
	<circle cx="528.321" cy="687.531" r="4" fill="#0" id="circle254"/>
	<circle cx="529.086" cy="618.642" r="4" fill="#0" id="circle255"/>
	<circle cx="529.086" cy="646.963" r="4" fill="#0" id="circle256"/>
	<circle cx="529.086" cy="654.617" r="4" fill="#0" id="circle257"/>
	<circle cx="529.086" cy="662.272" r="4" fill="#0" id="circle258"/>
	<circle cx="529.086" cy="669.926" r="4" fill="#0" id="circle259"/>
	<circle cx="529.086" cy="677.58" r="4" fill="#0" id="circle260"/>
	<circle cx="530.617" cy="46.0988" r="4" fill="#0" id="circle261"/>
	<circle cx="535.975" cy="52.2222" r="4" fill="#0" id="circle262"/>
	<circle cx="536.741" cy="620.938" r="4" fill="#0" id="circle263"/>
	<circle cx="540.568" cy="58.3457" r="4" fill="#0" id="circle264"/>
	<circle cx="544.395" cy="65.2346" r="4" fill="#0" id="circle265"/>
	<circle cx="544.395" cy="617.111" r="4" fill="#0" id="circle266"/>
	<circle cx="550.519" cy="69.8272" r="4" fill="#0" id="circle267"/>
	<circle cx="552.049" cy="617.111" r="4" fill="#0" id="circle268"/>
	<circle cx="553.58" cy="77.4815" r="4" fill="#0" id="circle269"/>
	<circle cx="559.704" cy="82.8395" r="4" fill="#0" id="circle270"/>
	<circle cx="559.704" cy="617.111" r="4" fill="#0" id="circle271"/>
	<circle cx="565.827" cy="88.1975" r="4" fill="#0" id="circle272"/>
	<circle cx="567.358" cy="613.284" r="4" fill="#0" id="circle273"/>
	<circle cx="572.716" cy="92.0247" r="4" fill="#0" id="circle274"/>
	<circle cx="575.012" cy="99.679" r="4" fill="#0" id="circle275"/>
	<circle cx="575.012" cy="609.457" r="4" fill="#0" id="circle276"/>
	<circle cx="581.136" cy="104.272" r="4" fill="#0" id="circle277"/>
	<circle cx="582.667" cy="605.63" r="4" fill="#0" id="circle278"/>
	<circle cx="586.494" cy="110.395" r="4" fill="#0" id="circle279"/>
	<circle cx="590.321" cy="605.63" r="4" fill="#0" id="circle280"/>
	<circle cx="594.148" cy="113.457" r="4" fill="#0" id="circle281"/>
	<circle cx="597.21" cy="601.802" r="4" fill="#0" id="circle282"/>
	<circle cx="601.037" cy="117.284" r="4" fill="#0" id="circle283"/>
	<circle cx="604.099" cy="597.975" r="4" fill="#0" id="circle284"/>
	<circle cx="608.691" cy="120.346" r="4" fill="#0" id="circle285"/>
	<circle cx="611.753" cy="596.444" r="4" fill="#0" id="circle286"/>
	<circle cx="613.284" cy="126.469" r="4" fill="#0" id="circle287"/>
	<circle cx="615.58" cy="588.79" r="4" fill="#0" id="circle288"/>
	<circle cx="619.407" cy="131.062" r="4" fill="#0" id="circle289"/>
	<circle cx="623.235" cy="584.963" r="4" fill="#0" id="circle290"/>
	<circle cx="624.765" cy="137.185" r="4" fill="#0" id="circle291"/>
	<circle cx="630.889" cy="141.778" r="4" fill="#0" id="circle292"/>
	<circle cx="630.889" cy="581.136" r="4" fill="#0" id="circle293"/>
	<circle cx="637.778" cy="145.605" r="4" fill="#0" id="circle294"/>
	<circle cx="638.543" cy="577.309" r="4" fill="#0" id="circle295"/>
	<circle cx="643.136" cy="151.728" r="4" fill="#0" id="circle296"/>
	<circle cx="646.198" cy="575.012" r="4" fill="#0" id="circle297"/>
	<circle cx="650.79" cy="154.79" r="4" fill="#0" id="circle298"/>
	<circle cx="653.086" cy="571.185" r="4" fill="#0" id="circle299"/>
	<circle cx="658.444" cy="157.086" r="4" fill="#0" id="circle300"/>
	<circle cx="659.21" cy="563.531" r="4" fill="#0" id="circle301"/>
	<circle cx="666.099" cy="158.617" r="4" fill="#0" id="circle302"/>
	<circle cx="666.864" cy="559.704" r="4" fill="#0" id="circle303"/>
	<circle cx="672.988" cy="162.444" r="4" fill="#0" id="circle304"/>
	<circle cx="674.519" cy="555.877" r="4" fill="#0" id="circle305"/>
	<circle cx="680.642" cy="165.506" r="4" fill="#0" id="circle306"/>
	<circle cx="681.407" cy="552.049" r="4" fill="#0" id="circle307"/>
	<circle cx="687.531" cy="547.457" r="4" fill="#0" id="circle308"/>
	<circle cx="688.296" cy="168.568" r="4" fill="#0" id="circle309"/>
	<circle cx="693.654" cy="540.568" r="4" fill="#0" id="circle310"/>
	<circle cx="695.185" cy="172.395" r="4" fill="#0" id="circle311"/>
	<circle cx="701.309" cy="536.741" r="4" fill="#0" id="circle312"/>
	<circle cx="702.074" cy="176.222" r="4" fill="#0" id="circle313"/>
	<circle cx="708.198" cy="181.58" r="4" fill="#0" id="circle314"/>
	<circle cx="708.198" cy="532.914" r="4" fill="#0" id="circle315"/>
	<circle cx="712.79" cy="187.704" r="4" fill="#0" id="circle316"/>
	<circle cx="715.852" cy="530.617" r="4" fill="#0" id="circle317"/>
	<circle cx="720.444" cy="190" r="4" fill="#0" id="circle318"/>
	<circle cx="721.975" cy="525.259" r="4" fill="#0" id="circle319"/>
	<circle cx="725.802" cy="196.123" r="4" fill="#0" id="circle320"/>
	<circle cx="728.864" cy="521.432" r="4" fill="#0" id="circle321"/>
	<circle cx="731.926" cy="201.481" r="4" fill="#0" id="circle322"/>
	<circle cx="735.753" cy="517.605" r="4" fill="#0" id="circle323"/>
	<circle cx="738.815" cy="205.309" r="4" fill="#0" id="circle324"/>
	<circle cx="741.877" cy="512.247" r="4" fill="#0" id="circle325"/>
	<circle cx="744.938" cy="210.667" r="4" fill="#0" id="circle326"/>
	<circle cx="749.531" cy="508.42" r="4" fill="#0" id="circle327"/>
	<circle cx="751.827" cy="214.494" r="4" fill="#0" id="circle328"/>
	<circle cx="754.889" cy="502.296" r="4" fill="#0" id="circle329"/>
	<circle cx="757.951" cy="219.852" r="4" fill="#0" id="circle330"/>
	<circle cx="761.778" cy="498.469" r="4" fill="#0" id="circle331"/>
	<circle cx="762.543" cy="225.975" r="4" fill="#0" id="circle332"/>
	<circle cx="768.667" cy="494.642" r="4" fill="#0" id="circle333"/>
	<circle cx="770.198" cy="228.272" r="4" fill="#0" id="circle334"/>
	<circle cx="774.025" cy="486.988" r="4" fill="#0" id="circle335"/>
	<circle cx="775.556" cy="234.395" r="4" fill="#0" id="circle336"/>
	<circle cx="781.679" cy="239.753" r="4" fill="#0" id="circle337"/>
	<circle cx="781.679" cy="483.16" r="4" fill="#0" id="circle338"/>
	<circle cx="787.802" cy="477.802" r="4" fill="#0" id="circle339"/>
	<circle cx="788.568" cy="243.58" r="4" fill="#0" id="circle340"/>
	<circle cx="793.16" cy="471.679" r="4" fill="#0" id="circle341"/>
	<circle cx="794.691" cy="248.938" r="4" fill="#0" id="circle342"/>
	<circle cx="796.988" cy="256.593" r="4" fill="#0" id="circle343"/>
	<circle cx="799.284" cy="466.321" r="4" fill="#0" id="circle344"/>
	<circle cx="804.642" cy="258.889" r="4" fill="#0" id="circle345"/>
	<circle cx="804.642" cy="460.198" r="4" fill="#0" id="circle346"/>
	<circle cx="810" cy="265.012" r="4" fill="#0" id="circle347"/>
	<circle cx="812.296" cy="456.37" r="4" fill="#0" id="circle348"/>
	<circle cx="813.827" cy="271.901" r="4" fill="#0" id="circle349"/>
	<circle cx="818.42" cy="451.012" r="4" fill="#0" id="circle350"/>
	<circle cx="820.716" cy="275.728" r="4" fill="#0" id="circle351"/>
	<circle cx="823.778" cy="283.383" r="4" fill="#0" id="circle352"/>
	<circle cx="823.778" cy="444.889" r="4" fill="#0" id="circle353"/>
	<circle cx="827.605" cy="437.235" r="4" fill="#0" id="circle354"/>
	<circle cx="831.432" cy="285.679" r="4" fill="#0" id="circle355"/>
	<circle cx="835.259" cy="292.568" r="4" fill="#0" id="circle356"/>
	<circle cx="835.259" cy="429.58" r="4" fill="#0" id="circle357"/>
	<circle cx="841.383" cy="424.222" r="4" fill="#0" id="circle358"/>
	<circle cx="842.148" cy="296.395" r="4" fill="#0" id="circle359"/>
	<circle cx="846.741" cy="302.519" r="4" fill="#0" id="circle360"/>
	<circle cx="849.037" cy="420.395" r="4" fill="#0" id="circle361"/>
	<circle cx="850.568" cy="309.407" r="4" fill="#0" id="circle362"/>
	<circle cx="852.864" cy="412.741" r="4" fill="#0" id="circle363"/>
	<circle cx="856.691" cy="314.765" r="4" fill="#0" id="circle364"/>
	<circle cx="856.691" cy="405.086" r="4" fill="#0" id="circle365"/>
	<circle cx="858.222" cy="395.136" r="4" fill="#0" id="circle366"/>
	<circle cx="862.049" cy="320.889" r="4" fill="#0" id="circle367"/>
	<circle cx="862.049" cy="379.827" r="4" fill="#0" id="circle368"/>
	<circle cx="862.049" cy="387.481" r="4" fill="#0" id="circle369"/>
	<circle cx="865.877" cy="327.778" r="4" fill="#0" id="circle370"/>
	<circle cx="865.877" cy="349.21" r="4" fill="#0" id="circle371"/>
	<circle cx="865.877" cy="356.864" r="4" fill="#0" id="circle372"/>
	<circle cx="865.877" cy="364.519" r="4" fill="#0" id="circle373"/>
	<circle cx="865.877" cy="372.173" r="4" fill="#0" id="circle374"/>
	<circle cx="869.704" cy="334.667" r="4" fill="#0" id="circle375"/>
	<circle cx="869.704" cy="342.321" r="4" fill="#0" id="circle376"/>
	</g>
</svg>