<?xml version="1.0" encoding="UTF-8" standalone="no"?>
<!-- Created with CurveBenchmark -->
<svg
	xmlns:dc="http://purl.org/dc/elements/1.1/"
	xmlns:cc="http://creativecommons.org/ns#"
	xmlns:rdf="http://www.w3.org/1999/02/22-rdf-syntax-ns#"
	xmlns:svg="http://www.w3.org/2000/svg"
	xmlns="http://www.w3.org/2000/svg"
	xmlns:sodipodi="http://sodipodi.sourceforge.net/DTD/sodipodi-0.dtd"
	xmlns:inkscape="http://www.inkscape.org/namespaces/inkscape"
	width="1000"
	height="1000"
	id="svg2"
	version="1.1"
	sodipodi:docname="manifold/fitconnect-pencil-18.png.txt">
<defs
	id="defs4" />
<metadata
	id="metadata7">
	<rdf:RDF>
		<cc:Work
			rdf:about="">
			<dc:format>image/svg+xml</dc:format>
			<dc:type
				rdf:resource="http://purl.org/dc/dcmitype/StillImage" />
			<dc:title></dc:title>
		</cc:Work>
	</rdf:RDF>
</metadata>
<g
	inkscape:label="Layer 1"
	inkscape:groupmode="layer"
	id="layer1">
	<path style="fill:none;stroke:red;stroke-width:1px;stroke-linecap:butt;stroke-linejoin:miter;stroke-opacity:1" d="M 4,36.0481 4,43.5011 z" id="boundary" inkscape:connector-curvature="0" />
	<path style="fill:none;stroke:red;stroke-width:1px;stroke-linecap:butt;stroke-linejoin:miter;stroke-opacity:1" d="M 4,36.0481 9.96243,30.0856 z" id="boundary" inkscape:connector-curvature="0" />
	<path style="fill:none;stroke:red;stroke-width:1px;stroke-linecap:butt;stroke-linejoin:miter;stroke-opacity:1" d="M 4,43.5011 4,50.9542 z" id="boundary" inkscape:connector-curvature="0" />
	<path style="fill:none;stroke:red;stroke-width:1px;stroke-linecap:butt;stroke-linejoin:miter;stroke-opacity:1" d="M 4,50.9542 7.72652,57.6619 z" id="boundary" inkscape:connector-curvature="0" />
	<path style="fill:none;stroke:red;stroke-width:1px;stroke-linecap:butt;stroke-linejoin:miter;stroke-opacity:1" d="M 7.72652,57.6619 11.453,64.3696 z" id="boundary" inkscape:connector-curvature="0" />
	<path style="fill:none;stroke:red;stroke-width:1px;stroke-linecap:butt;stroke-linejoin:miter;stroke-opacity:1" d="M 9.96243,30.0856 13.689,22.6326 z" id="boundary" inkscape:connector-curvature="0" />
	<path style="fill:none;stroke:red;stroke-width:1px;stroke-linecap:butt;stroke-linejoin:miter;stroke-opacity:1" d="M 11.453,64.3696 13.689,71.8227 z" id="boundary" inkscape:connector-curvature="0" />
	<path style="fill:none;stroke:red;stroke-width:1px;stroke-linecap:butt;stroke-linejoin:miter;stroke-opacity:1" d="M 13.689,22.6326 21.142,18.9061 z" id="boundary" inkscape:connector-curvature="0" />
	<path style="fill:none;stroke:red;stroke-width:1px;stroke-linecap:butt;stroke-linejoin:miter;stroke-opacity:1" d="M 13.689,71.8227 17.4155,78.5304 z" id="boundary" inkscape:connector-curvature="0" />
	<path style="fill:none;stroke:red;stroke-width:1px;stroke-linecap:butt;stroke-linejoin:miter;stroke-opacity:1" d="M 17.4155,78.5304 20.3967,85.9835 z" id="boundary" inkscape:connector-curvature="0" />
	<path style="fill:none;stroke:red;stroke-width:1px;stroke-linecap:butt;stroke-linejoin:miter;stroke-opacity:1" d="M 20.3967,85.9835 26.3591,90.4553 z" id="boundary" inkscape:connector-curvature="0" />
	<path style="fill:none;stroke:red;stroke-width:1px;stroke-linecap:butt;stroke-linejoin:miter;stroke-opacity:1" d="M 21.142,18.9061 27.8497,15.1796 z" id="boundary" inkscape:connector-curvature="0" />
	<path style="fill:none;stroke:red;stroke-width:1px;stroke-linecap:butt;stroke-linejoin:miter;stroke-opacity:1" d="M 26.3591,90.4553 26.3591,97.9083 z" id="boundary" inkscape:connector-curvature="0" />
	<path style="fill:none;stroke:red;stroke-width:1px;stroke-linecap:butt;stroke-linejoin:miter;stroke-opacity:1" d="M 26.3591,97.9083 30.0856,104.616 z" id="boundary" inkscape:connector-curvature="0" />
	<path style="fill:none;stroke:red;stroke-width:1px;stroke-linecap:butt;stroke-linejoin:miter;stroke-opacity:1" d="M 27.8497,15.1796 35.3028,12.1983 z" id="boundary" inkscape:connector-curvature="0" />
	<path style="fill:none;stroke:red;stroke-width:1px;stroke-linecap:butt;stroke-linejoin:miter;stroke-opacity:1" d="M 30.0856,104.616 33.8122,111.324 z" id="boundary" inkscape:connector-curvature="0" />
	<path style="fill:none;stroke:red;stroke-width:1px;stroke-linecap:butt;stroke-linejoin:miter;stroke-opacity:1" d="M 33.8122,111.324 37.5387,118.032 z" id="boundary" inkscape:connector-curvature="0" />
	<path style="fill:none;stroke:red;stroke-width:1px;stroke-linecap:butt;stroke-linejoin:miter;stroke-opacity:1" d="M 35.3028,12.1983 42.7558,11.453 z" id="boundary" inkscape:connector-curvature="0" />
	<path style="fill:none;stroke:red;stroke-width:1px;stroke-linecap:butt;stroke-linejoin:miter;stroke-opacity:1" d="M 37.5387,118.032 37.5387,125.485 z" id="boundary" inkscape:connector-curvature="0" />
	<path style="fill:none;stroke:red;stroke-width:1px;stroke-linecap:butt;stroke-linejoin:miter;stroke-opacity:1" d="M 37.5387,125.485 41.2652,132.192 z" id="boundary" inkscape:connector-curvature="0" />
	<path style="fill:none;stroke:red;stroke-width:1px;stroke-linecap:butt;stroke-linejoin:miter;stroke-opacity:1" d="M 41.2652,132.192 44.9917,138.9 z" id="boundary" inkscape:connector-curvature="0" />
	<path style="fill:none;stroke:red;stroke-width:1px;stroke-linecap:butt;stroke-linejoin:miter;stroke-opacity:1" d="M 42.7558,11.453 50.2089,11.453 z" id="boundary" inkscape:connector-curvature="0" />
	<path style="fill:none;stroke:red;stroke-width:1px;stroke-linecap:butt;stroke-linejoin:miter;stroke-opacity:1" d="M 44.9917,138.9 48.7183,145.608 z" id="boundary" inkscape:connector-curvature="0" />
	<path style="fill:none;stroke:red;stroke-width:1px;stroke-linecap:butt;stroke-linejoin:miter;stroke-opacity:1" d="M 48.7183,145.608 52.4448,152.316 z" id="boundary" inkscape:connector-curvature="0" />
	<path style="fill:none;stroke:red;stroke-width:1px;stroke-linecap:butt;stroke-linejoin:miter;stroke-opacity:1" d="M 50.2089,11.453 57.6619,11.453 z" id="boundary" inkscape:connector-curvature="0" />
	<path style="fill:none;stroke:red;stroke-width:1px;stroke-linecap:butt;stroke-linejoin:miter;stroke-opacity:1" d="M 52.4448,152.316 56.1713,159.023 z" id="boundary" inkscape:connector-curvature="0" />
	<path style="fill:none;stroke:red;stroke-width:1px;stroke-linecap:butt;stroke-linejoin:miter;stroke-opacity:1" d="M 56.1713,159.023 56.1713,166.476 z" id="boundary" inkscape:connector-curvature="0" />
	<path style="fill:none;stroke:red;stroke-width:1px;stroke-linecap:butt;stroke-linejoin:miter;stroke-opacity:1" d="M 56.1713,166.476 59.8978,173.184 z" id="boundary" inkscape:connector-curvature="0" />
	<path style="fill:none;stroke:red;stroke-width:1px;stroke-linecap:butt;stroke-linejoin:miter;stroke-opacity:1" d="M 57.6619,11.453 65.115,8.47183 z" id="boundary" inkscape:connector-curvature="0" />
	<path style="fill:none;stroke:red;stroke-width:1px;stroke-linecap:butt;stroke-linejoin:miter;stroke-opacity:1" d="M 59.8978,173.184 63.6243,179.892 z" id="boundary" inkscape:connector-curvature="0" />
	<path style="fill:none;stroke:red;stroke-width:1px;stroke-linecap:butt;stroke-linejoin:miter;stroke-opacity:1" d="M 63.6243,179.892 65.8603,187.345 z" id="boundary" inkscape:connector-curvature="0" />
	<path style="fill:none;stroke:red;stroke-width:1px;stroke-linecap:butt;stroke-linejoin:miter;stroke-opacity:1" d="M 65.115,8.47183 72.568,7.72652 z" id="boundary" inkscape:connector-curvature="0" />
	<path style="fill:none;stroke:red;stroke-width:1px;stroke-linecap:butt;stroke-linejoin:miter;stroke-opacity:1" d="M 65.8603,187.345 69.5868,194.053 z" id="boundary" inkscape:connector-curvature="0" />
	<path style="fill:none;stroke:red;stroke-width:1px;stroke-linecap:butt;stroke-linejoin:miter;stroke-opacity:1" d="M 69.5868,194.053 72.568,201.506 z" id="boundary" inkscape:connector-curvature="0" />
	<path style="fill:none;stroke:red;stroke-width:1px;stroke-linecap:butt;stroke-linejoin:miter;stroke-opacity:1" d="M 72.568,7.72652 80.021,7.72652 z" id="boundary" inkscape:connector-curvature="0" />
	<path style="fill:none;stroke:red;stroke-width:1px;stroke-linecap:butt;stroke-linejoin:miter;stroke-opacity:1" d="M 72.568,201.506 76.2945,208.213 z" id="boundary" inkscape:connector-curvature="0" />
	<path style="fill:none;stroke:red;stroke-width:1px;stroke-linecap:butt;stroke-linejoin:miter;stroke-opacity:1" d="M 76.2945,208.213 79.2757,215.666 z" id="boundary" inkscape:connector-curvature="0" />
	<path style="fill:none;stroke:red;stroke-width:1px;stroke-linecap:butt;stroke-linejoin:miter;stroke-opacity:1" d="M 79.2757,215.666 82.2569,223.119 z" id="boundary" inkscape:connector-curvature="0" />
	<path style="fill:none;stroke:red;stroke-width:1px;stroke-linecap:butt;stroke-linejoin:miter;stroke-opacity:1" d="M 80.021,7.72652 87.4741,7.72652 z" id="boundary" inkscape:connector-curvature="0" />
	<path style="fill:none;stroke:red;stroke-width:1px;stroke-linecap:butt;stroke-linejoin:miter;stroke-opacity:1" d="M 82.2569,223.119 85.9835,229.827 z" id="boundary" inkscape:connector-curvature="0" />
	<path style="fill:none;stroke:red;stroke-width:1px;stroke-linecap:butt;stroke-linejoin:miter;stroke-opacity:1" d="M 85.9835,229.827 85.9835,237.28 z" id="boundary" inkscape:connector-curvature="0" />
	<path style="fill:none;stroke:red;stroke-width:1px;stroke-linecap:butt;stroke-linejoin:miter;stroke-opacity:1" d="M 85.9835,237.28 91.9459,242.497 z" id="boundary" inkscape:connector-curvature="0" />
	<path style="fill:none;stroke:red;stroke-width:1px;stroke-linecap:butt;stroke-linejoin:miter;stroke-opacity:1" d="M 87.4741,7.72652 94.9271,7.72652 z" id="boundary" inkscape:connector-curvature="0" />
	<path style="fill:none;stroke:red;stroke-width:1px;stroke-linecap:butt;stroke-linejoin:miter;stroke-opacity:1" d="M 91.9459,242.497 93.4365,249.95 z" id="boundary" inkscape:connector-curvature="0" />
	<path style="fill:none;stroke:red;stroke-width:1px;stroke-linecap:butt;stroke-linejoin:miter;stroke-opacity:1" d="M 93.4365,249.95 97.9083,255.913 z" id="boundary" inkscape:connector-curvature="0" />
	<path style="fill:none;stroke:red;stroke-width:1px;stroke-linecap:butt;stroke-linejoin:miter;stroke-opacity:1" d="M 94.9271,7.72652 102.38,7.72652 z" id="boundary" inkscape:connector-curvature="0" />
	<path style="fill:none;stroke:red;stroke-width:1px;stroke-linecap:butt;stroke-linejoin:miter;stroke-opacity:1" d="M 97.9083,255.913 100.89,263.366 z" id="boundary" inkscape:connector-curvature="0" />
	<path style="fill:none;stroke:red;stroke-width:1px;stroke-linecap:butt;stroke-linejoin:miter;stroke-opacity:1" d="M 100.89,263.366 104.616,270.074 z" id="boundary" inkscape:connector-curvature="0" />
	<path style="fill:none;stroke:red;stroke-width:1px;stroke-linecap:butt;stroke-linejoin:miter;stroke-opacity:1" d="M 102.38,7.72652 109.833,4.7453 z" id="boundary" inkscape:connector-curvature="0" />
	<path style="fill:none;stroke:red;stroke-width:1px;stroke-linecap:butt;stroke-linejoin:miter;stroke-opacity:1" d="M 104.616,270.074 108.343,276.781 z" id="boundary" inkscape:connector-curvature="0" />
	<path style="fill:none;stroke:red;stroke-width:1px;stroke-linecap:butt;stroke-linejoin:miter;stroke-opacity:1" d="M 108.343,276.781 110.579,284.234 z" id="boundary" inkscape:connector-curvature="0" />
	<path style="fill:none;stroke:red;stroke-width:1px;stroke-linecap:butt;stroke-linejoin:miter;stroke-opacity:1" d="M 109.833,4.7453 117.286,4 z" id="boundary" inkscape:connector-curvature="0" />
	<path style="fill:none;stroke:red;stroke-width:1px;stroke-linecap:butt;stroke-linejoin:miter;stroke-opacity:1" d="M 110.579,284.234 112.069,291.687 z" id="boundary" inkscape:connector-curvature="0" />
	<path style="fill:none;stroke:red;stroke-width:1px;stroke-linecap:butt;stroke-linejoin:miter;stroke-opacity:1" d="M 112.069,291.687 116.541,297.65 z" id="boundary" inkscape:connector-curvature="0" />
	<path style="fill:none;stroke:red;stroke-width:1px;stroke-linecap:butt;stroke-linejoin:miter;stroke-opacity:1" d="M 116.541,297.65 119.522,305.103 z" id="boundary" inkscape:connector-curvature="0" />
	<path style="fill:none;stroke:red;stroke-width:1px;stroke-linecap:butt;stroke-linejoin:miter;stroke-opacity:1" d="M 117.286,4 123.994,7.72652 z" id="boundary" inkscape:connector-curvature="0" />
	<path style="fill:none;stroke:red;stroke-width:1px;stroke-linecap:butt;stroke-linejoin:miter;stroke-opacity:1" d="M 119.522,305.103 123.249,311.811 z" id="boundary" inkscape:connector-curvature="0" />
	<path style="fill:none;stroke:red;stroke-width:1px;stroke-linecap:butt;stroke-linejoin:miter;stroke-opacity:1" d="M 123.249,311.811 126.975,318.518 z" id="boundary" inkscape:connector-curvature="0" />
	<path style="fill:none;stroke:red;stroke-width:1px;stroke-linecap:butt;stroke-linejoin:miter;stroke-opacity:1" d="M 123.994,7.72652 131.447,7.72652 z" id="boundary" inkscape:connector-curvature="0" />
	<path style="fill:none;stroke:red;stroke-width:1px;stroke-linecap:butt;stroke-linejoin:miter;stroke-opacity:1" d="M 126.975,318.518 126.975,325.971 z" id="boundary" inkscape:connector-curvature="0" />
	<path style="fill:none;stroke:red;stroke-width:1px;stroke-linecap:butt;stroke-linejoin:miter;stroke-opacity:1" d="M 126.975,325.971 130.702,332.679 z" id="boundary" inkscape:connector-curvature="0" />
	<path style="fill:none;stroke:red;stroke-width:1px;stroke-linecap:butt;stroke-linejoin:miter;stroke-opacity:1" d="M 130.702,332.679 134.428,339.387 z" id="boundary" inkscape:connector-curvature="0" />
	<path style="fill:none;stroke:red;stroke-width:1px;stroke-linecap:butt;stroke-linejoin:miter;stroke-opacity:1" d="M 131.447,7.72652 138.155,11.453 z" id="boundary" inkscape:connector-curvature="0" />
	<path style="fill:none;stroke:red;stroke-width:1px;stroke-linecap:butt;stroke-linejoin:miter;stroke-opacity:1" d="M 134.428,339.387 135.919,346.84 z" id="boundary" inkscape:connector-curvature="0" />
	<path style="fill:none;stroke:red;stroke-width:1px;stroke-linecap:butt;stroke-linejoin:miter;stroke-opacity:1" d="M 135.919,346.84 139.645,353.548 z" id="boundary" inkscape:connector-curvature="0" />
	<path style="fill:none;stroke:red;stroke-width:1px;stroke-linecap:butt;stroke-linejoin:miter;stroke-opacity:1" d="M 138.155,11.453 144.117,15.9249 z" id="boundary" inkscape:connector-curvature="0" />
	<path style="fill:none;stroke:red;stroke-width:1px;stroke-linecap:butt;stroke-linejoin:miter;stroke-opacity:1" d="M 139.645,353.548 145.608,358.765 z" id="boundary" inkscape:connector-curvature="0" />
	<path style="fill:none;stroke:red;stroke-width:1px;stroke-linecap:butt;stroke-linejoin:miter;stroke-opacity:1" d="M 144.117,15.9249 150.08,21.142 z" id="boundary" inkscape:connector-curvature="0" />
	<path style="fill:none;stroke:red;stroke-width:1px;stroke-linecap:butt;stroke-linejoin:miter;stroke-opacity:1" d="M 145.608,358.765 145.608,366.218 z" id="boundary" inkscape:connector-curvature="0" />
	<path style="fill:none;stroke:red;stroke-width:1px;stroke-linecap:butt;stroke-linejoin:miter;stroke-opacity:1" d="M 145.608,366.218 149.334,372.926 z" id="boundary" inkscape:connector-curvature="0" />
	<path style="fill:none;stroke:red;stroke-width:1px;stroke-linecap:butt;stroke-linejoin:miter;stroke-opacity:1" d="M 149.334,372.926 153.061,379.633 z" id="boundary" inkscape:connector-curvature="0" />
	<path style="fill:none;stroke:red;stroke-width:1px;stroke-linecap:butt;stroke-linejoin:miter;stroke-opacity:1" d="M 150.08,21.142 153.061,28.595 z" id="boundary" inkscape:connector-curvature="0" />
	<path style="fill:none;stroke:red;stroke-width:1px;stroke-linecap:butt;stroke-linejoin:miter;stroke-opacity:1" d="M 153.061,28.595 156.787,35.3028 z" id="boundary" inkscape:connector-curvature="0" />
	<path style="fill:none;stroke:red;stroke-width:1px;stroke-linecap:butt;stroke-linejoin:miter;stroke-opacity:1" d="M 153.061,379.633 156.787,386.341 z" id="boundary" inkscape:connector-curvature="0" />
	<path style="fill:none;stroke:red;stroke-width:1px;stroke-linecap:butt;stroke-linejoin:miter;stroke-opacity:1" d="M 156.787,35.3028 159.769,42.7558 z" id="boundary" inkscape:connector-curvature="0" />
	<path style="fill:none;stroke:red;stroke-width:1px;stroke-linecap:butt;stroke-linejoin:miter;stroke-opacity:1" d="M 156.787,386.341 160.514,393.049 z" id="boundary" inkscape:connector-curvature="0" />
	<path style="fill:none;stroke:red;stroke-width:1px;stroke-linecap:butt;stroke-linejoin:miter;stroke-opacity:1" d="M 159.769,42.7558 163.495,49.4636 z" id="boundary" inkscape:connector-curvature="0" />
	<path style="fill:none;stroke:red;stroke-width:1px;stroke-linecap:butt;stroke-linejoin:miter;stroke-opacity:1" d="M 160.514,393.049 160.514,400.502 z" id="boundary" inkscape:connector-curvature="0" />
	<path style="fill:none;stroke:red;stroke-width:1px;stroke-linecap:butt;stroke-linejoin:miter;stroke-opacity:1" d="M 160.514,400.502 164.24,407.21 z" id="boundary" inkscape:connector-curvature="0" />
	<path style="fill:none;stroke:red;stroke-width:1px;stroke-linecap:butt;stroke-linejoin:miter;stroke-opacity:1" d="M 163.495,49.4636 166.476,56.9166 z" id="boundary" inkscape:connector-curvature="0" />
	<path style="fill:none;stroke:red;stroke-width:1px;stroke-linecap:butt;stroke-linejoin:miter;stroke-opacity:1" d="M 164.24,407.21 167.967,413.917 z" id="boundary" inkscape:connector-curvature="0" />
	<path style="fill:none;stroke:red;stroke-width:1px;stroke-linecap:butt;stroke-linejoin:miter;stroke-opacity:1" d="M 166.476,56.9166 170.203,63.6243 z" id="boundary" inkscape:connector-curvature="0" />
	<path style="fill:none;stroke:red;stroke-width:1px;stroke-linecap:butt;stroke-linejoin:miter;stroke-opacity:1" d="M 167.967,413.917 169.458,421.37 z" id="boundary" inkscape:connector-curvature="0" />
	<path style="fill:none;stroke:red;stroke-width:1px;stroke-linecap:butt;stroke-linejoin:miter;stroke-opacity:1" d="M 169.458,421.37 173.184,428.078 z" id="boundary" inkscape:connector-curvature="0" />
	<path style="fill:none;stroke:red;stroke-width:1px;stroke-linecap:butt;stroke-linejoin:miter;stroke-opacity:1" d="M 170.203,63.6243 172.439,71.0774 z" id="boundary" inkscape:connector-curvature="0" />
	<path style="fill:none;stroke:red;stroke-width:1px;stroke-linecap:butt;stroke-linejoin:miter;stroke-opacity:1" d="M 172.439,71.0774 176.165,77.7851 z" id="boundary" inkscape:connector-curvature="0" />
	<path style="fill:none;stroke:red;stroke-width:1px;stroke-linecap:butt;stroke-linejoin:miter;stroke-opacity:1" d="M 173.184,428.078 176.165,435.531 z" id="boundary" inkscape:connector-curvature="0" />
	<path style="fill:none;stroke:red;stroke-width:1px;stroke-linecap:butt;stroke-linejoin:miter;stroke-opacity:1" d="M 176.165,77.7851 179.892,84.4929 z" id="boundary" inkscape:connector-curvature="0" />
	<path style="fill:none;stroke:red;stroke-width:1px;stroke-linecap:butt;stroke-linejoin:miter;stroke-opacity:1" d="M 176.165,435.531 179.147,442.984 z" id="boundary" inkscape:connector-curvature="0" />
	<path style="fill:none;stroke:red;stroke-width:1px;stroke-linecap:butt;stroke-linejoin:miter;stroke-opacity:1" d="M 179.147,442.984 182.873,449.692 z" id="boundary" inkscape:connector-curvature="0" />
	<path style="fill:none;stroke:red;stroke-width:1px;stroke-linecap:butt;stroke-linejoin:miter;stroke-opacity:1" d="M 179.892,84.4929 182.873,91.9459 z" id="boundary" inkscape:connector-curvature="0" />
	<path style="fill:none;stroke:red;stroke-width:1px;stroke-linecap:butt;stroke-linejoin:miter;stroke-opacity:1" d="M 182.873,91.9459 186.6,98.6536 z" id="boundary" inkscape:connector-curvature="0" />
	<path style="fill:none;stroke:red;stroke-width:1px;stroke-linecap:butt;stroke-linejoin:miter;stroke-opacity:1" d="M 182.873,449.692 186.6,456.4 z" id="boundary" inkscape:connector-curvature="0" />
	<path style="fill:none;stroke:red;stroke-width:1px;stroke-linecap:butt;stroke-linejoin:miter;stroke-opacity:1" d="M 186.6,98.6536 189.581,106.107 z" id="boundary" inkscape:connector-curvature="0" />
	<path style="fill:none;stroke:red;stroke-width:1px;stroke-linecap:butt;stroke-linejoin:miter;stroke-opacity:1" d="M 186.6,456.4 190.326,463.107 z" id="boundary" inkscape:connector-curvature="0" />
	<path style="fill:none;stroke:red;stroke-width:1px;stroke-linecap:butt;stroke-linejoin:miter;stroke-opacity:1" d="M 189.581,106.107 191.071,113.56 z" id="boundary" inkscape:connector-curvature="0" />
	<path style="fill:none;stroke:red;stroke-width:1px;stroke-linecap:butt;stroke-linejoin:miter;stroke-opacity:1" d="M 190.326,463.107 194.053,469.815 z" id="boundary" inkscape:connector-curvature="0" />
	<path style="fill:none;stroke:red;stroke-width:1px;stroke-linecap:butt;stroke-linejoin:miter;stroke-opacity:1" d="M 191.071,113.56 195.543,119.522 z" id="boundary" inkscape:connector-curvature="0" />
	<path style="fill:none;stroke:red;stroke-width:1px;stroke-linecap:butt;stroke-linejoin:miter;stroke-opacity:1" d="M 194.053,469.815 195.543,477.268 z" id="boundary" inkscape:connector-curvature="0" />
	<path style="fill:none;stroke:red;stroke-width:1px;stroke-linecap:butt;stroke-linejoin:miter;stroke-opacity:1" d="M 195.543,119.522 198.524,126.975 z" id="boundary" inkscape:connector-curvature="0" />
	<path style="fill:none;stroke:red;stroke-width:1px;stroke-linecap:butt;stroke-linejoin:miter;stroke-opacity:1" d="M 195.543,477.268 197.779,484.721 z" id="boundary" inkscape:connector-curvature="0" />
	<path style="fill:none;stroke:red;stroke-width:1px;stroke-linecap:butt;stroke-linejoin:miter;stroke-opacity:1" d="M 197.779,484.721 201.506,491.429 z" id="boundary" inkscape:connector-curvature="0" />
	<path style="fill:none;stroke:red;stroke-width:1px;stroke-linecap:butt;stroke-linejoin:miter;stroke-opacity:1" d="M 198.524,126.975 202.251,133.683 z" id="boundary" inkscape:connector-curvature="0" />
	<path style="fill:none;stroke:red;stroke-width:1px;stroke-linecap:butt;stroke-linejoin:miter;stroke-opacity:1" d="M 201.506,491.429 205.232,498.137 z" id="boundary" inkscape:connector-curvature="0" />
	<path style="fill:none;stroke:red;stroke-width:1px;stroke-linecap:butt;stroke-linejoin:miter;stroke-opacity:1" d="M 202.251,133.683 205.977,140.391 z" id="boundary" inkscape:connector-curvature="0" />
	<path style="fill:none;stroke:red;stroke-width:1px;stroke-linecap:butt;stroke-linejoin:miter;stroke-opacity:1" d="M 205.232,498.137 208.959,504.844 z" id="boundary" inkscape:connector-curvature="0" />
	<path style="fill:none;stroke:red;stroke-width:1px;stroke-linecap:butt;stroke-linejoin:miter;stroke-opacity:1" d="M 205.977,140.391 208.959,147.844 z" id="boundary" inkscape:connector-curvature="0" />
	<path style="fill:none;stroke:red;stroke-width:1px;stroke-linecap:butt;stroke-linejoin:miter;stroke-opacity:1" d="M 208.959,147.844 212.685,154.551 z" id="boundary" inkscape:connector-curvature="0" />
	<path style="fill:none;stroke:red;stroke-width:1px;stroke-linecap:butt;stroke-linejoin:miter;stroke-opacity:1" d="M 208.959,504.844 212.685,511.552 z" id="boundary" inkscape:connector-curvature="0" />
	<path style="fill:none;stroke:red;stroke-width:1px;stroke-linecap:butt;stroke-linejoin:miter;stroke-opacity:1" d="M 212.685,154.551 213.431,162.005 z" id="boundary" inkscape:connector-curvature="0" />
	<path style="fill:none;stroke:red;stroke-width:1px;stroke-linecap:butt;stroke-linejoin:miter;stroke-opacity:1" d="M 212.685,511.552 214.921,519.005 z" id="boundary" inkscape:connector-curvature="0" />
	<path style="fill:none;stroke:red;stroke-width:1px;stroke-linecap:butt;stroke-linejoin:miter;stroke-opacity:1" d="M 213.431,162.005 217.157,168.712 z" id="boundary" inkscape:connector-curvature="0" />
	<path style="fill:none;stroke:red;stroke-width:1px;stroke-linecap:butt;stroke-linejoin:miter;stroke-opacity:1" d="M 214.921,519.005 216.412,526.458 z" id="boundary" inkscape:connector-curvature="0" />
	<path style="fill:none;stroke:red;stroke-width:1px;stroke-linecap:butt;stroke-linejoin:miter;stroke-opacity:1" d="M 216.412,526.458 220.138,533.166 z" id="boundary" inkscape:connector-curvature="0" />
	<path style="fill:none;stroke:red;stroke-width:1px;stroke-linecap:butt;stroke-linejoin:miter;stroke-opacity:1" d="M 217.157,168.712 220.884,175.42 z" id="boundary" inkscape:connector-curvature="0" />
	<path style="fill:none;stroke:red;stroke-width:1px;stroke-linecap:butt;stroke-linejoin:miter;stroke-opacity:1" d="M 220.138,533.166 223.865,539.874 z" id="boundary" inkscape:connector-curvature="0" />
	<path style="fill:none;stroke:red;stroke-width:1px;stroke-linecap:butt;stroke-linejoin:miter;stroke-opacity:1" d="M 220.884,175.42 224.61,182.128 z" id="boundary" inkscape:connector-curvature="0" />
	<path style="fill:none;stroke:red;stroke-width:1px;stroke-linecap:butt;stroke-linejoin:miter;stroke-opacity:1" d="M 223.865,539.874 227.591,546.582 z" id="boundary" inkscape:connector-curvature="0" />
	<path style="fill:none;stroke:red;stroke-width:1px;stroke-linecap:butt;stroke-linejoin:miter;stroke-opacity:1" d="M 224.61,182.128 228.337,188.835 z" id="boundary" inkscape:connector-curvature="0" />
	<path style="fill:none;stroke:red;stroke-width:1px;stroke-linecap:butt;stroke-linejoin:miter;stroke-opacity:1" d="M 227.591,546.582 231.318,553.289 z" id="boundary" inkscape:connector-curvature="0" />
	<path style="fill:none;stroke:red;stroke-width:1px;stroke-linecap:butt;stroke-linejoin:miter;stroke-opacity:1" d="M 228.337,188.835 231.318,196.289 z" id="boundary" inkscape:connector-curvature="0" />
	<path style="fill:none;stroke:red;stroke-width:1px;stroke-linecap:butt;stroke-linejoin:miter;stroke-opacity:1" d="M 231.318,196.289 235.044,202.996 z" id="boundary" inkscape:connector-curvature="0" />
	<path style="fill:none;stroke:red;stroke-width:1px;stroke-linecap:butt;stroke-linejoin:miter;stroke-opacity:1" d="M 231.318,553.289 235.044,559.997 z" id="boundary" inkscape:connector-curvature="0" />
	<path style="fill:none;stroke:red;stroke-width:1px;stroke-linecap:butt;stroke-linejoin:miter;stroke-opacity:1" d="M 235.044,202.996 235.79,210.449 z" id="boundary" inkscape:connector-curvature="0" />
	<path style="fill:none;stroke:red;stroke-width:1px;stroke-linecap:butt;stroke-linejoin:miter;stroke-opacity:1" d="M 235.044,559.997 235.044,567.45 z" id="boundary" inkscape:connector-curvature="0" />
	<path style="fill:none;stroke:red;stroke-width:1px;stroke-linecap:butt;stroke-linejoin:miter;stroke-opacity:1" d="M 235.044,567.45 238.771,574.158 z" id="boundary" inkscape:connector-curvature="0" />
	<path style="fill:none;stroke:red;stroke-width:1px;stroke-linecap:butt;stroke-linejoin:miter;stroke-opacity:1" d="M 235.79,210.449 239.516,217.157 z" id="boundary" inkscape:connector-curvature="0" />
	<path style="fill:none;stroke:red;stroke-width:1px;stroke-linecap:butt;stroke-linejoin:miter;stroke-opacity:1" d="M 238.771,574.158 242.497,580.866 z" id="boundary" inkscape:connector-curvature="0" />
	<path style="fill:none;stroke:red;stroke-width:1px;stroke-linecap:butt;stroke-linejoin:miter;stroke-opacity:1" d="M 239.516,217.157 243.243,223.865 z" id="boundary" inkscape:connector-curvature="0" />
	<path style="fill:none;stroke:red;stroke-width:1px;stroke-linecap:butt;stroke-linejoin:miter;stroke-opacity:1" d="M 242.497,580.866 243.243,588.319 z" id="boundary" inkscape:connector-curvature="0" />
	<path style="fill:none;stroke:red;stroke-width:1px;stroke-linecap:butt;stroke-linejoin:miter;stroke-opacity:1" d="M 243.243,223.865 246.969,230.573 z" id="boundary" inkscape:connector-curvature="0" />
	<path style="fill:none;stroke:red;stroke-width:1px;stroke-linecap:butt;stroke-linejoin:miter;stroke-opacity:1" d="M 243.243,588.319 246.969,595.026 z" id="boundary" inkscape:connector-curvature="0" />
	<path style="fill:none;stroke:red;stroke-width:1px;stroke-linecap:butt;stroke-linejoin:miter;stroke-opacity:1" d="M 246.969,230.573 246.969,238.026 z" id="boundary" inkscape:connector-curvature="0" />
	<path style="fill:none;stroke:red;stroke-width:1px;stroke-linecap:butt;stroke-linejoin:miter;stroke-opacity:1" d="M 246.969,238.026 250.696,244.733 z" id="boundary" inkscape:connector-curvature="0" />
	<path style="fill:none;stroke:red;stroke-width:1px;stroke-linecap:butt;stroke-linejoin:miter;stroke-opacity:1" d="M 246.969,595.026 249.95,602.479 z" id="boundary" inkscape:connector-curvature="0" />
	<path style="fill:none;stroke:red;stroke-width:1px;stroke-linecap:butt;stroke-linejoin:miter;stroke-opacity:1" d="M 249.95,602.479 253.677,609.187 z" id="boundary" inkscape:connector-curvature="0" />
	<path style="fill:none;stroke:red;stroke-width:1px;stroke-linecap:butt;stroke-linejoin:miter;stroke-opacity:1" d="M 250.696,244.733 254.422,251.441 z" id="boundary" inkscape:connector-curvature="0" />
	<path style="fill:none;stroke:red;stroke-width:1px;stroke-linecap:butt;stroke-linejoin:miter;stroke-opacity:1" d="M 253.677,609.187 257.403,615.895 z" id="boundary" inkscape:connector-curvature="0" />
	<path style="fill:none;stroke:red;stroke-width:1px;stroke-linecap:butt;stroke-linejoin:miter;stroke-opacity:1" d="M 254.422,251.441 258.149,258.149 z" id="boundary" inkscape:connector-curvature="0" />
	<path style="fill:none;stroke:red;stroke-width:1px;stroke-linecap:butt;stroke-linejoin:miter;stroke-opacity:1" d="M 257.403,615.895 261.13,622.603 z" id="boundary" inkscape:connector-curvature="0" />
	<path style="fill:none;stroke:red;stroke-width:1px;stroke-linecap:butt;stroke-linejoin:miter;stroke-opacity:1" d="M 258.149,258.149 261.875,264.856 z" id="boundary" inkscape:connector-curvature="0" />
	<path style="fill:none;stroke:red;stroke-width:1px;stroke-linecap:butt;stroke-linejoin:miter;stroke-opacity:1" d="M 261.13,622.603 262.621,630.056 z" id="boundary" inkscape:connector-curvature="0" />
	<path style="fill:none;stroke:red;stroke-width:1px;stroke-linecap:butt;stroke-linejoin:miter;stroke-opacity:1" d="M 261.875,264.856 261.875,272.31 z" id="boundary" inkscape:connector-curvature="0" />
	<path style="fill:none;stroke:red;stroke-width:1px;stroke-linecap:butt;stroke-linejoin:miter;stroke-opacity:1" d="M 261.875,272.31 265.602,279.017 z" id="boundary" inkscape:connector-curvature="0" />
	<path style="fill:none;stroke:red;stroke-width:1px;stroke-linecap:butt;stroke-linejoin:miter;stroke-opacity:1" d="M 262.621,630.056 264.856,637.509 z" id="boundary" inkscape:connector-curvature="0" />
	<path style="fill:none;stroke:red;stroke-width:1px;stroke-linecap:butt;stroke-linejoin:miter;stroke-opacity:1" d="M 264.856,637.509 269.328,643.471 z" id="boundary" inkscape:connector-curvature="0" />
	<path style="fill:none;stroke:red;stroke-width:1px;stroke-linecap:butt;stroke-linejoin:miter;stroke-opacity:1" d="M 265.602,279.017 269.328,285.725 z" id="boundary" inkscape:connector-curvature="0" />
	<path style="fill:none;stroke:red;stroke-width:1px;stroke-linecap:butt;stroke-linejoin:miter;stroke-opacity:1" d="M 269.328,285.725 273.055,292.433 z" id="boundary" inkscape:connector-curvature="0" />
	<path style="fill:none;stroke:red;stroke-width:1px;stroke-linecap:butt;stroke-linejoin:miter;stroke-opacity:1" d="M 269.328,643.471 272.31,650.924 z" id="boundary" inkscape:connector-curvature="0" />
	<path style="fill:none;stroke:red;stroke-width:1px;stroke-linecap:butt;stroke-linejoin:miter;stroke-opacity:1" d="M 272.31,650.924 276.036,657.632 z" id="boundary" inkscape:connector-curvature="0" />
	<path style="fill:none;stroke:red;stroke-width:1px;stroke-linecap:butt;stroke-linejoin:miter;stroke-opacity:1" d="M 273.055,292.433 276.781,299.14 z" id="boundary" inkscape:connector-curvature="0" />
	<path style="fill:none;stroke:red;stroke-width:1px;stroke-linecap:butt;stroke-linejoin:miter;stroke-opacity:1" d="M 276.036,657.632 279.763,664.34 z" id="boundary" inkscape:connector-curvature="0" />
	<path style="fill:none;stroke:red;stroke-width:1px;stroke-linecap:butt;stroke-linejoin:miter;stroke-opacity:1" d="M 276.781,299.14 280.508,305.848 z" id="boundary" inkscape:connector-curvature="0" />
	<path style="fill:none;stroke:red;stroke-width:1px;stroke-linecap:butt;stroke-linejoin:miter;stroke-opacity:1" d="M 279.763,664.34 281.998,671.793 z" id="boundary" inkscape:connector-curvature="0" />
	<path style="fill:none;stroke:red;stroke-width:1px;stroke-linecap:butt;stroke-linejoin:miter;stroke-opacity:1" d="M 280.508,305.848 280.508,313.301 z" id="boundary" inkscape:connector-curvature="0" />
	<path style="fill:none;stroke:red;stroke-width:1px;stroke-linecap:butt;stroke-linejoin:miter;stroke-opacity:1" d="M 280.508,313.301 284.234,320.009 z" id="boundary" inkscape:connector-curvature="0" />
	<path style="fill:none;stroke:red;stroke-width:1px;stroke-linecap:butt;stroke-linejoin:miter;stroke-opacity:1" d="M 281.998,671.793 283.489,679.246 z" id="boundary" inkscape:connector-curvature="0" />
	<path style="fill:none;stroke:red;stroke-width:1px;stroke-linecap:butt;stroke-linejoin:miter;stroke-opacity:1" d="M 283.489,679.246 287.216,685.953 z" id="boundary" inkscape:connector-curvature="0" />
	<path style="fill:none;stroke:red;stroke-width:1px;stroke-linecap:butt;stroke-linejoin:miter;stroke-opacity:1" d="M 284.234,320.009 287.961,326.717 z" id="boundary" inkscape:connector-curvature="0" />
	<path style="fill:none;stroke:red;stroke-width:1px;stroke-linecap:butt;stroke-linejoin:miter;stroke-opacity:1" d="M 287.216,685.953 290.942,692.661 z" id="boundary" inkscape:connector-curvature="0" />
	<path style="fill:none;stroke:red;stroke-width:1px;stroke-linecap:butt;stroke-linejoin:miter;stroke-opacity:1" d="M 287.961,326.717 291.687,333.424 z" id="boundary" inkscape:connector-curvature="0" />
	<path style="fill:none;stroke:red;stroke-width:1px;stroke-linecap:butt;stroke-linejoin:miter;stroke-opacity:1" d="M 290.942,692.661 294.669,699.369 z" id="boundary" inkscape:connector-curvature="0" />
	<path style="fill:none;stroke:red;stroke-width:1px;stroke-linecap:butt;stroke-linejoin:miter;stroke-opacity:1" d="M 291.687,333.424 293.923,340.878 z" id="boundary" inkscape:connector-curvature="0" />
	<path style="fill:none;stroke:red;stroke-width:1px;stroke-linecap:butt;stroke-linejoin:miter;stroke-opacity:1" d="M 293.923,340.878 297.65,347.585 z" id="boundary" inkscape:connector-curvature="0" />
	<path style="fill:none;stroke:red;stroke-width:1px;stroke-linecap:butt;stroke-linejoin:miter;stroke-opacity:1" d="M 294.669,699.369 298.395,706.077 z" id="boundary" inkscape:connector-curvature="0" />
	<path style="fill:none;stroke:red;stroke-width:1px;stroke-linecap:butt;stroke-linejoin:miter;stroke-opacity:1" d="M 297.65,347.585 300.631,355.038 z" id="boundary" inkscape:connector-curvature="0" />
	<path style="fill:none;stroke:red;stroke-width:1px;stroke-linecap:butt;stroke-linejoin:miter;stroke-opacity:1" d="M 298.395,706.077 302.122,712.784 z" id="boundary" inkscape:connector-curvature="0" />
	<path style="fill:none;stroke:red;stroke-width:1px;stroke-linecap:butt;stroke-linejoin:miter;stroke-opacity:1" d="M 300.631,355.038 304.358,361.746 z" id="boundary" inkscape:connector-curvature="0" />
	<path style="fill:none;stroke:red;stroke-width:1px;stroke-linecap:butt;stroke-linejoin:miter;stroke-opacity:1" d="M 302.122,712.784 304.358,720.237 z" id="boundary" inkscape:connector-curvature="0" />
	<path style="fill:none;stroke:red;stroke-width:1px;stroke-linecap:butt;stroke-linejoin:miter;stroke-opacity:1" d="M 304.358,361.746 306.594,369.199 z" id="boundary" inkscape:connector-curvature="0" />
	<path style="fill:none;stroke:red;stroke-width:1px;stroke-linecap:butt;stroke-linejoin:miter;stroke-opacity:1" d="M 304.358,720.237 308.084,726.945 z" id="boundary" inkscape:connector-curvature="0" />
	<path style="fill:none;stroke:red;stroke-width:1px;stroke-linecap:butt;stroke-linejoin:miter;stroke-opacity:1" d="M 306.594,369.199 310.32,375.907 z" id="boundary" inkscape:connector-curvature="0" />
	<path style="fill:none;stroke:red;stroke-width:1px;stroke-linecap:butt;stroke-linejoin:miter;stroke-opacity:1" d="M 308.084,726.945 311.065,734.398 z" id="boundary" inkscape:connector-curvature="0" />
	<path style="fill:none;stroke:red;stroke-width:1px;stroke-linecap:butt;stroke-linejoin:miter;stroke-opacity:1" d="M 310.32,375.907 314.047,382.615 z" id="boundary" inkscape:connector-curvature="0" />
	<path style="fill:none;stroke:red;stroke-width:1px;stroke-linecap:butt;stroke-linejoin:miter;stroke-opacity:1" d="M 311.065,734.398 313.301,741.851 z" id="boundary" inkscape:connector-curvature="0" />
	<path style="fill:none;stroke:red;stroke-width:1px;stroke-linecap:butt;stroke-linejoin:miter;stroke-opacity:1" d="M 313.301,741.851 317.773,747.814 z" id="boundary" inkscape:connector-curvature="0" />
	<path style="fill:none;stroke:red;stroke-width:1px;stroke-linecap:butt;stroke-linejoin:miter;stroke-opacity:1" d="M 314.047,382.615 317.028,390.068 z" id="boundary" inkscape:connector-curvature="0" />
	<path style="fill:none;stroke:red;stroke-width:1px;stroke-linecap:butt;stroke-linejoin:miter;stroke-opacity:1" d="M 317.028,390.068 320.754,396.775 z" id="boundary" inkscape:connector-curvature="0" />
	<path style="fill:none;stroke:red;stroke-width:1px;stroke-linecap:butt;stroke-linejoin:miter;stroke-opacity:1" d="M 317.773,747.814 320.754,755.267 z" id="boundary" inkscape:connector-curvature="0" />
	<path style="fill:none;stroke:red;stroke-width:1px;stroke-linecap:butt;stroke-linejoin:miter;stroke-opacity:1" d="M 320.754,396.775 323.736,404.228 z" id="boundary" inkscape:connector-curvature="0" />
	<path style="fill:none;stroke:red;stroke-width:1px;stroke-linecap:butt;stroke-linejoin:miter;stroke-opacity:1" d="M 320.754,755.267 324.481,761.974 z" id="boundary" inkscape:connector-curvature="0" />
	<path style="fill:none;stroke:red;stroke-width:1px;stroke-linecap:butt;stroke-linejoin:miter;stroke-opacity:1" d="M 323.736,404.228 325.226,411.681 z" id="boundary" inkscape:connector-curvature="0" />
	<path style="fill:none;stroke:red;stroke-width:1px;stroke-linecap:butt;stroke-linejoin:miter;stroke-opacity:1" d="M 324.481,761.974 328.207,768.682 z" id="boundary" inkscape:connector-curvature="0" />
	<path style="fill:none;stroke:red;stroke-width:1px;stroke-linecap:butt;stroke-linejoin:miter;stroke-opacity:1" d="M 325.226,411.681 328.953,418.389 z" id="boundary" inkscape:connector-curvature="0" />
	<path style="fill:none;stroke:red;stroke-width:1px;stroke-linecap:butt;stroke-linejoin:miter;stroke-opacity:1" d="M 328.207,768.682 328.207,776.135 z" id="boundary" inkscape:connector-curvature="0" />
	<path style="fill:none;stroke:red;stroke-width:1px;stroke-linecap:butt;stroke-linejoin:miter;stroke-opacity:1" d="M 328.207,776.135 331.934,782.843 z" id="boundary" inkscape:connector-curvature="0" />
	<path style="fill:none;stroke:red;stroke-width:1px;stroke-linecap:butt;stroke-linejoin:miter;stroke-opacity:1" d="M 328.953,418.389 332.679,425.097 z" id="boundary" inkscape:connector-curvature="0" />
	<path style="fill:none;stroke:red;stroke-width:1px;stroke-linecap:butt;stroke-linejoin:miter;stroke-opacity:1" d="M 331.934,782.843 335.66,789.551 z" id="boundary" inkscape:connector-curvature="0" />
	<path style="fill:none;stroke:red;stroke-width:1px;stroke-linecap:butt;stroke-linejoin:miter;stroke-opacity:1" d="M 332.679,425.097 336.406,431.805 z" id="boundary" inkscape:connector-curvature="0" />
	<path style="fill:none;stroke:red;stroke-width:1px;stroke-linecap:butt;stroke-linejoin:miter;stroke-opacity:1" d="M 335.66,789.551 339.387,796.258 z" id="boundary" inkscape:connector-curvature="0" />
	<path style="fill:none;stroke:red;stroke-width:1px;stroke-linecap:butt;stroke-linejoin:miter;stroke-opacity:1" d="M 336.406,431.805 340.132,438.512 z" id="boundary" inkscape:connector-curvature="0" />
	<path style="fill:none;stroke:red;stroke-width:1px;stroke-linecap:butt;stroke-linejoin:miter;stroke-opacity:1" d="M 339.387,796.258 339.387,803.711 z" id="boundary" inkscape:connector-curvature="0" />
	<path style="fill:none;stroke:red;stroke-width:1px;stroke-linecap:butt;stroke-linejoin:miter;stroke-opacity:1" d="M 339.387,803.711 343.113,810.419 z" id="boundary" inkscape:connector-curvature="0" />
	<path style="fill:none;stroke:red;stroke-width:1px;stroke-linecap:butt;stroke-linejoin:miter;stroke-opacity:1" d="M 340.132,438.512 340.132,445.965 z" id="boundary" inkscape:connector-curvature="0" />
	<path style="fill:none;stroke:red;stroke-width:1px;stroke-linecap:butt;stroke-linejoin:miter;stroke-opacity:1" d="M 340.132,445.965 343.859,452.673 z" id="boundary" inkscape:connector-curvature="0" />
	<path style="fill:none;stroke:red;stroke-width:1px;stroke-linecap:butt;stroke-linejoin:miter;stroke-opacity:1" d="M 343.113,810.419 346.84,817.127 z" id="boundary" inkscape:connector-curvature="0" />
	<path style="fill:none;stroke:red;stroke-width:1px;stroke-linecap:butt;stroke-linejoin:miter;stroke-opacity:1" d="M 343.859,452.673 347.585,459.381 z" id="boundary" inkscape:connector-curvature="0" />
	<path style="fill:none;stroke:red;stroke-width:1px;stroke-linecap:butt;stroke-linejoin:miter;stroke-opacity:1" d="M 346.84,817.127 350.566,823.835 z" id="boundary" inkscape:connector-curvature="0" />
	<path style="fill:none;stroke:red;stroke-width:1px;stroke-linecap:butt;stroke-linejoin:miter;stroke-opacity:1" d="M 347.585,459.381 351.312,466.089 z" id="boundary" inkscape:connector-curvature="0" />
	<path style="fill:none;stroke:red;stroke-width:1px;stroke-linecap:butt;stroke-linejoin:miter;stroke-opacity:1" d="M 350.566,823.835 352.057,831.288 z" id="boundary" inkscape:connector-curvature="0" />
	<path style="fill:none;stroke:red;stroke-width:1px;stroke-linecap:butt;stroke-linejoin:miter;stroke-opacity:1" d="M 351.312,466.089 351.312,473.542 z" id="boundary" inkscape:connector-curvature="0" />
	<path style="fill:none;stroke:red;stroke-width:1px;stroke-linecap:butt;stroke-linejoin:miter;stroke-opacity:1" d="M 351.312,473.542 355.038,480.249 z" id="boundary" inkscape:connector-curvature="0" />
	<path style="fill:none;stroke:red;stroke-width:1px;stroke-linecap:butt;stroke-linejoin:miter;stroke-opacity:1" d="M 352.057,831.288 358.02,835.76 z" id="boundary" inkscape:connector-curvature="0" />
	<path style="fill:none;stroke:red;stroke-width:1px;stroke-linecap:butt;stroke-linejoin:miter;stroke-opacity:1" d="M 355.038,480.249 358.765,486.957 z" id="boundary" inkscape:connector-curvature="0" />
	<path style="fill:none;stroke:red;stroke-width:1px;stroke-linecap:butt;stroke-linejoin:miter;stroke-opacity:1" d="M 358.02,835.76 358.02,843.213 z" id="boundary" inkscape:connector-curvature="0" />
	<path style="fill:none;stroke:red;stroke-width:1px;stroke-linecap:butt;stroke-linejoin:miter;stroke-opacity:1" d="M 358.02,843.213 361.746,849.92 z" id="boundary" inkscape:connector-curvature="0" />
	<path style="fill:none;stroke:red;stroke-width:1px;stroke-linecap:butt;stroke-linejoin:miter;stroke-opacity:1" d="M 358.765,486.957 362.491,493.665 z" id="boundary" inkscape:connector-curvature="0" />
	<path style="fill:none;stroke:red;stroke-width:1px;stroke-linecap:butt;stroke-linejoin:miter;stroke-opacity:1" d="M 361.746,849.92 363.237,857.373 z" id="boundary" inkscape:connector-curvature="0" />
	<path style="fill:none;stroke:red;stroke-width:1px;stroke-linecap:butt;stroke-linejoin:miter;stroke-opacity:1" d="M 362.491,493.665 366.218,500.373 z" id="boundary" inkscape:connector-curvature="0" />
	<path style="fill:none;stroke:red;stroke-width:1px;stroke-linecap:butt;stroke-linejoin:miter;stroke-opacity:1" d="M 363.237,857.373 369.199,861.845 z" id="boundary" inkscape:connector-curvature="0" />
	<path style="fill:none;stroke:red;stroke-width:1px;stroke-linecap:butt;stroke-linejoin:miter;stroke-opacity:1" d="M 366.218,500.373 369.944,507.08 z" id="boundary" inkscape:connector-curvature="0" />
	<path style="fill:none;stroke:red;stroke-width:1px;stroke-linecap:butt;stroke-linejoin:miter;stroke-opacity:1" d="M 369.199,861.845 371.435,869.298 z" id="boundary" inkscape:connector-curvature="0" />
	<path style="fill:none;stroke:red;stroke-width:1px;stroke-linecap:butt;stroke-linejoin:miter;stroke-opacity:1" d="M 369.944,507.08 373.671,513.788 z" id="boundary" inkscape:connector-curvature="0" />
	<path style="fill:none;stroke:red;stroke-width:1px;stroke-linecap:butt;stroke-linejoin:miter;stroke-opacity:1" d="M 371.435,869.298 377.397,874.515 z" id="boundary" inkscape:connector-curvature="0" />
	<path style="fill:none;stroke:red;stroke-width:1px;stroke-linecap:butt;stroke-linejoin:miter;stroke-opacity:1" d="M 373.671,513.788 373.671,521.241 z" id="boundary" inkscape:connector-curvature="0" />
	<path style="fill:none;stroke:red;stroke-width:1px;stroke-linecap:butt;stroke-linejoin:miter;stroke-opacity:1" d="M 373.671,521.241 377.397,527.949 z" id="boundary" inkscape:connector-curvature="0" />
	<path style="fill:none;stroke:red;stroke-width:1px;stroke-linecap:butt;stroke-linejoin:miter;stroke-opacity:1" d="M 377.397,527.949 381.124,534.657 z" id="boundary" inkscape:connector-curvature="0" />
	<path style="fill:none;stroke:red;stroke-width:1px;stroke-linecap:butt;stroke-linejoin:miter;stroke-opacity:1" d="M 377.397,874.515 382.615,880.478 z" id="boundary" inkscape:connector-curvature="0" />
	<path style="fill:none;stroke:red;stroke-width:1px;stroke-linecap:butt;stroke-linejoin:miter;stroke-opacity:1" d="M 381.124,534.657 383.36,542.11 z" id="boundary" inkscape:connector-curvature="0" />
	<path style="fill:none;stroke:red;stroke-width:1px;stroke-linecap:butt;stroke-linejoin:miter;stroke-opacity:1" d="M 382.615,880.478 388.577,885.695 z" id="boundary" inkscape:connector-curvature="0" />
	<path style="fill:none;stroke:red;stroke-width:1px;stroke-linecap:butt;stroke-linejoin:miter;stroke-opacity:1" d="M 383.36,542.11 387.086,548.817 z" id="boundary" inkscape:connector-curvature="0" />
	<path style="fill:none;stroke:red;stroke-width:1px;stroke-linecap:butt;stroke-linejoin:miter;stroke-opacity:1" d="M 387.086,548.817 390.068,556.27 z" id="boundary" inkscape:connector-curvature="0" />
	<path style="fill:none;stroke:red;stroke-width:1px;stroke-linecap:butt;stroke-linejoin:miter;stroke-opacity:1" d="M 388.577,885.695 393.794,891.657 z" id="boundary" inkscape:connector-curvature="0" />
	<path style="fill:none;stroke:red;stroke-width:1px;stroke-linecap:butt;stroke-linejoin:miter;stroke-opacity:1" d="M 390.068,556.27 393.794,562.978 z" id="boundary" inkscape:connector-curvature="0" />
	<path style="fill:none;stroke:red;stroke-width:1px;stroke-linecap:butt;stroke-linejoin:miter;stroke-opacity:1" d="M 393.794,562.978 396.03,570.431 z" id="boundary" inkscape:connector-curvature="0" />
	<path style="fill:none;stroke:red;stroke-width:1px;stroke-linecap:butt;stroke-linejoin:miter;stroke-opacity:1" d="M 393.794,891.657 399.757,896.875 z" id="boundary" inkscape:connector-curvature="0" />
	<path style="fill:none;stroke:red;stroke-width:1px;stroke-linecap:butt;stroke-linejoin:miter;stroke-opacity:1" d="M 396.03,570.431 399.757,577.139 z" id="boundary" inkscape:connector-curvature="0" />
	<path style="fill:none;stroke:red;stroke-width:1px;stroke-linecap:butt;stroke-linejoin:miter;stroke-opacity:1" d="M 399.757,577.139 403.483,583.847 z" id="boundary" inkscape:connector-curvature="0" />
	<path style="fill:none;stroke:red;stroke-width:1px;stroke-linecap:butt;stroke-linejoin:miter;stroke-opacity:1" d="M 399.757,896.875 406.464,900.601 z" id="boundary" inkscape:connector-curvature="0" />
	<path style="fill:none;stroke:red;stroke-width:1px;stroke-linecap:butt;stroke-linejoin:miter;stroke-opacity:1" d="M 403.483,583.847 406.464,591.3 z" id="boundary" inkscape:connector-curvature="0" />
	<path style="fill:none;stroke:red;stroke-width:1px;stroke-linecap:butt;stroke-linejoin:miter;stroke-opacity:1" d="M 406.464,591.3 407.21,598.753 z" id="boundary" inkscape:connector-curvature="0" />
	<path style="fill:none;stroke:red;stroke-width:1px;stroke-linecap:butt;stroke-linejoin:miter;stroke-opacity:1" d="M 406.464,900.601 412.427,905.818 z" id="boundary" inkscape:connector-curvature="0" />
	<path style="fill:none;stroke:red;stroke-width:1px;stroke-linecap:butt;stroke-linejoin:miter;stroke-opacity:1" d="M 407.21,598.753 412.427,604.715 z" id="boundary" inkscape:connector-curvature="0" />
	<path style="fill:none;stroke:red;stroke-width:1px;stroke-linecap:butt;stroke-linejoin:miter;stroke-opacity:1" d="M 412.427,604.715 416.153,611.423 z" id="boundary" inkscape:connector-curvature="0" />
	<path style="fill:none;stroke:red;stroke-width:1px;stroke-linecap:butt;stroke-linejoin:miter;stroke-opacity:1" d="M 412.427,905.818 417.644,911.781 z" id="boundary" inkscape:connector-curvature="0" />
	<path style="fill:none;stroke:red;stroke-width:1px;stroke-linecap:butt;stroke-linejoin:miter;stroke-opacity:1" d="M 416.153,611.423 418.389,618.876 z" id="boundary" inkscape:connector-curvature="0" />
	<path style="fill:none;stroke:red;stroke-width:1px;stroke-linecap:butt;stroke-linejoin:miter;stroke-opacity:1" d="M 417.644,911.781 425.097,914.017 z" id="boundary" inkscape:connector-curvature="0" />
	<path style="fill:none;stroke:red;stroke-width:1px;stroke-linecap:butt;stroke-linejoin:miter;stroke-opacity:1" d="M 418.389,618.876 422.116,625.584 z" id="boundary" inkscape:connector-curvature="0" />
	<path style="fill:none;stroke:red;stroke-width:1px;stroke-linecap:butt;stroke-linejoin:miter;stroke-opacity:1" d="M 422.116,625.584 425.842,632.292 z" id="boundary" inkscape:connector-curvature="0" />
	<path style="fill:none;stroke:red;stroke-width:1px;stroke-linecap:butt;stroke-linejoin:miter;stroke-opacity:1" d="M 425.097,914.017 427.333,921.47 z" id="boundary" inkscape:connector-curvature="0" />
	<path style="fill:none;stroke:red;stroke-width:1px;stroke-linecap:butt;stroke-linejoin:miter;stroke-opacity:1" d="M 425.842,632.292 428.823,639.745 z" id="boundary" inkscape:connector-curvature="0" />
	<path style="fill:none;stroke:red;stroke-width:1px;stroke-linecap:butt;stroke-linejoin:miter;stroke-opacity:1" d="M 427.333,921.47 433.295,926.687 z" id="boundary" inkscape:connector-curvature="0" />
	<path style="fill:none;stroke:red;stroke-width:1px;stroke-linecap:butt;stroke-linejoin:miter;stroke-opacity:1" d="M 428.823,639.745 429.569,647.198 z" id="boundary" inkscape:connector-curvature="0" />
	<path style="fill:none;stroke:red;stroke-width:1px;stroke-linecap:butt;stroke-linejoin:miter;stroke-opacity:1" d="M 429.569,647.198 433.295,653.905 z" id="boundary" inkscape:connector-curvature="0" />
	<path style="fill:none;stroke:red;stroke-width:1px;stroke-linecap:butt;stroke-linejoin:miter;stroke-opacity:1" d="M 433.295,653.905 437.767,659.868 z" id="boundary" inkscape:connector-curvature="0" />
	<path style="fill:none;stroke:red;stroke-width:1px;stroke-linecap:butt;stroke-linejoin:miter;stroke-opacity:1" d="M 433.295,926.687 438.512,932.649 z" id="boundary" inkscape:connector-curvature="0" />
	<path style="fill:none;stroke:red;stroke-width:1px;stroke-linecap:butt;stroke-linejoin:miter;stroke-opacity:1" d="M 437.767,659.868 440.748,667.321 z" id="boundary" inkscape:connector-curvature="0" />
	<path style="fill:none;stroke:red;stroke-width:1px;stroke-linecap:butt;stroke-linejoin:miter;stroke-opacity:1" d="M 438.512,932.649 443.73,938.612 z" id="boundary" inkscape:connector-curvature="0" />
	<path style="fill:none;stroke:red;stroke-width:1px;stroke-linecap:butt;stroke-linejoin:miter;stroke-opacity:1" d="M 440.748,667.321 444.475,674.029 z" id="boundary" inkscape:connector-curvature="0" />
	<path style="fill:none;stroke:red;stroke-width:1px;stroke-linecap:butt;stroke-linejoin:miter;stroke-opacity:1" d="M 443.73,938.612 447.456,945.319 z" id="boundary" inkscape:connector-curvature="0" />
	<path style="fill:none;stroke:red;stroke-width:1px;stroke-linecap:butt;stroke-linejoin:miter;stroke-opacity:1" d="M 444.475,674.029 448.201,680.736 z" id="boundary" inkscape:connector-curvature="0" />
	<path style="fill:none;stroke:red;stroke-width:1px;stroke-linecap:butt;stroke-linejoin:miter;stroke-opacity:1" d="M 447.456,945.319 451.183,952.027 z" id="boundary" inkscape:connector-curvature="0" />
	<path style="fill:none;stroke:red;stroke-width:1px;stroke-linecap:butt;stroke-linejoin:miter;stroke-opacity:1" d="M 448.201,680.736 448.201,688.189 z" id="boundary" inkscape:connector-curvature="0" />
	<path style="fill:none;stroke:red;stroke-width:1px;stroke-linecap:butt;stroke-linejoin:miter;stroke-opacity:1" d="M 448.201,688.189 451.928,694.897 z" id="boundary" inkscape:connector-curvature="0" />
	<path style="fill:none;stroke:red;stroke-width:1px;stroke-linecap:butt;stroke-linejoin:miter;stroke-opacity:1" d="M 451.183,952.027 454.909,958.735 z" id="boundary" inkscape:connector-curvature="0" />
	<path style="fill:none;stroke:red;stroke-width:1px;stroke-linecap:butt;stroke-linejoin:miter;stroke-opacity:1" d="M 451.928,694.897 455.654,701.605 z" id="boundary" inkscape:connector-curvature="0" />
	<path style="fill:none;stroke:red;stroke-width:1px;stroke-linecap:butt;stroke-linejoin:miter;stroke-opacity:1" d="M 454.909,958.735 459.381,964.697 z" id="boundary" inkscape:connector-curvature="0" />
	<path style="fill:none;stroke:red;stroke-width:1px;stroke-linecap:butt;stroke-linejoin:miter;stroke-opacity:1" d="M 455.654,701.605 459.381,708.313 z" id="boundary" inkscape:connector-curvature="0" />
	<path style="fill:none;stroke:red;stroke-width:1px;stroke-linecap:butt;stroke-linejoin:miter;stroke-opacity:1" d="M 459.381,708.313 463.107,715.02 z" id="boundary" inkscape:connector-curvature="0" />
	<path style="fill:none;stroke:red;stroke-width:1px;stroke-linecap:butt;stroke-linejoin:miter;stroke-opacity:1" d="M 459.381,964.697 463.107,971.405 z" id="boundary" inkscape:connector-curvature="0" />
	<path style="fill:none;stroke:red;stroke-width:1px;stroke-linecap:butt;stroke-linejoin:miter;stroke-opacity:1" d="M 463.107,715.02 463.107,722.473 z" id="boundary" inkscape:connector-curvature="0" />
	<path style="fill:none;stroke:red;stroke-width:1px;stroke-linecap:butt;stroke-linejoin:miter;stroke-opacity:1" d="M 463.107,722.473 469.07,727.69 z" id="boundary" inkscape:connector-curvature="0" />
	<path style="fill:none;stroke:red;stroke-width:1px;stroke-linecap:butt;stroke-linejoin:miter;stroke-opacity:1" d="M 463.107,971.405 466.089,978.858 z" id="boundary" inkscape:connector-curvature="0" />
	<path style="fill:none;stroke:red;stroke-width:1px;stroke-linecap:butt;stroke-linejoin:miter;stroke-opacity:1" d="M 466.089,978.858 469.815,985.566 z" id="boundary" inkscape:connector-curvature="0" />
	<path style="fill:none;stroke:red;stroke-width:1px;stroke-linecap:butt;stroke-linejoin:miter;stroke-opacity:1" d="M 469.07,727.69 470.56,735.144 z" id="boundary" inkscape:connector-curvature="0" />
	<path style="fill:none;stroke:red;stroke-width:1px;stroke-linecap:butt;stroke-linejoin:miter;stroke-opacity:1" d="M 469.815,985.566 475.032,991.528 z" id="boundary" inkscape:connector-curvature="0" />
	<path style="fill:none;stroke:red;stroke-width:1px;stroke-linecap:butt;stroke-linejoin:miter;stroke-opacity:1" d="M 470.56,735.144 474.287,741.851 z" id="boundary" inkscape:connector-curvature="0" />
	<path style="fill:none;stroke:red;stroke-width:1px;stroke-linecap:butt;stroke-linejoin:miter;stroke-opacity:1" d="M 474.287,741.851 478.014,748.559 z" id="boundary" inkscape:connector-curvature="0" />
	<path style="fill:none;stroke:red;stroke-width:1px;stroke-linecap:butt;stroke-linejoin:miter;stroke-opacity:1" d="M 475.032,991.528 482.485,994.509 z" id="boundary" inkscape:connector-curvature="0" />
	<path style="fill:none;stroke:red;stroke-width:1px;stroke-linecap:butt;stroke-linejoin:miter;stroke-opacity:1" d="M 478.014,748.559 478.014,756.012 z" id="boundary" inkscape:connector-curvature="0" />
	<path style="fill:none;stroke:red;stroke-width:1px;stroke-linecap:butt;stroke-linejoin:miter;stroke-opacity:1" d="M 478.014,756.012 481.74,762.72 z" id="boundary" inkscape:connector-curvature="0" />
	<path style="fill:none;stroke:red;stroke-width:1px;stroke-linecap:butt;stroke-linejoin:miter;stroke-opacity:1" d="M 481.74,762.72 485.467,769.427 z" id="boundary" inkscape:connector-curvature="0" />
	<path style="fill:none;stroke:red;stroke-width:1px;stroke-linecap:butt;stroke-linejoin:miter;stroke-opacity:1" d="M 482.485,994.509 489.938,996 z" id="boundary" inkscape:connector-curvature="0" />
	<path style="fill:none;stroke:red;stroke-width:1px;stroke-linecap:butt;stroke-linejoin:miter;stroke-opacity:1" d="M 485.467,769.427 489.193,776.135 z" id="boundary" inkscape:connector-curvature="0" />
	<path style="fill:none;stroke:red;stroke-width:1px;stroke-linecap:butt;stroke-linejoin:miter;stroke-opacity:1" d="M 489.193,776.135 492.92,782.843 z" id="boundary" inkscape:connector-curvature="0" />
	<path style="fill:none;stroke:red;stroke-width:1px;stroke-linecap:butt;stroke-linejoin:miter;stroke-opacity:1" d="M 489.938,996 497.391,996 z" id="boundary" inkscape:connector-curvature="0" />
	<path style="fill:none;stroke:red;stroke-width:1px;stroke-linecap:butt;stroke-linejoin:miter;stroke-opacity:1" d="M 492.92,782.843 496.646,789.551 z" id="boundary" inkscape:connector-curvature="0" />
	<path style="fill:none;stroke:red;stroke-width:1px;stroke-linecap:butt;stroke-linejoin:miter;stroke-opacity:1" d="M 496.646,789.551 496.646,797.004 z" id="boundary" inkscape:connector-curvature="0" />
	<path style="fill:none;stroke:red;stroke-width:1px;stroke-linecap:butt;stroke-linejoin:miter;stroke-opacity:1" d="M 496.646,797.004 500.373,803.711 z" id="boundary" inkscape:connector-curvature="0" />
	<path style="fill:none;stroke:red;stroke-width:1px;stroke-linecap:butt;stroke-linejoin:miter;stroke-opacity:1" d="M 497.391,996 504.844,996 z" id="boundary" inkscape:connector-curvature="0" />
	<path style="fill:none;stroke:red;stroke-width:1px;stroke-linecap:butt;stroke-linejoin:miter;stroke-opacity:1" d="M 500.373,803.711 504.099,810.419 z" id="boundary" inkscape:connector-curvature="0" />
	<path style="fill:none;stroke:red;stroke-width:1px;stroke-linecap:butt;stroke-linejoin:miter;stroke-opacity:1" d="M 504.099,810.419 506.335,817.872 z" id="boundary" inkscape:connector-curvature="0" />
	<path style="fill:none;stroke:red;stroke-width:1px;stroke-linecap:butt;stroke-linejoin:miter;stroke-opacity:1" d="M 504.844,996 511.552,992.273 z" id="boundary" inkscape:connector-curvature="0" />
	<path style="fill:none;stroke:red;stroke-width:1px;stroke-linecap:butt;stroke-linejoin:miter;stroke-opacity:1" d="M 506.335,817.872 507.826,825.325 z" id="boundary" inkscape:connector-curvature="0" />
	<path style="fill:none;stroke:red;stroke-width:1px;stroke-linecap:butt;stroke-linejoin:miter;stroke-opacity:1" d="M 507.826,825.325 507.826,832.778 z" id="boundary" inkscape:connector-curvature="0" />
	<path style="fill:none;stroke:red;stroke-width:1px;stroke-linecap:butt;stroke-linejoin:miter;stroke-opacity:1" d="M 507.826,832.778 507.826,840.231 z" id="boundary" inkscape:connector-curvature="0" />
	<path style="fill:none;stroke:red;stroke-width:1px;stroke-linecap:butt;stroke-linejoin:miter;stroke-opacity:1" d="M 507.826,840.231 511.552,846.939 z" id="boundary" inkscape:connector-curvature="0" />
	<path style="fill:none;stroke:red;stroke-width:1px;stroke-linecap:butt;stroke-linejoin:miter;stroke-opacity:1" d="M 507.826,902.837 507.826,910.29 z" id="boundary" inkscape:connector-curvature="0" />
	<path style="fill:none;stroke:red;stroke-width:1px;stroke-linecap:butt;stroke-linejoin:miter;stroke-opacity:1" d="M 507.826,902.837 511.552,891.657 z" id="boundary" inkscape:connector-curvature="0" />
	<path style="fill:none;stroke:red;stroke-width:1px;stroke-linecap:butt;stroke-linejoin:miter;stroke-opacity:1" d="M 507.826,910.29 509.316,917.743 z" id="boundary" inkscape:connector-curvature="0" />
	<path style="fill:none;stroke:red;stroke-width:1px;stroke-linecap:butt;stroke-linejoin:miter;stroke-opacity:1" d="M 509.316,917.743 511.552,925.196 z" id="boundary" inkscape:connector-curvature="0" />
	<path style="fill:none;stroke:red;stroke-width:1px;stroke-linecap:butt;stroke-linejoin:miter;stroke-opacity:1" d="M 511.552,846.939 511.552,854.392 z" id="boundary" inkscape:connector-curvature="0" />
	<path style="fill:none;stroke:red;stroke-width:1px;stroke-linecap:butt;stroke-linejoin:miter;stroke-opacity:1" d="M 511.552,854.392 511.552,861.845 z" id="boundary" inkscape:connector-curvature="0" />
	<path style="fill:none;stroke:red;stroke-width:1px;stroke-linecap:butt;stroke-linejoin:miter;stroke-opacity:1" d="M 511.552,861.845 511.552,869.298 z" id="boundary" inkscape:connector-curvature="0" />
	<path style="fill:none;stroke:red;stroke-width:1px;stroke-linecap:butt;stroke-linejoin:miter;stroke-opacity:1" d="M 511.552,869.298 511.552,876.751 z" id="boundary" inkscape:connector-curvature="0" />
	<path style="fill:none;stroke:red;stroke-width:1px;stroke-linecap:butt;stroke-linejoin:miter;stroke-opacity:1" d="M 511.552,876.751 511.552,884.204 z" id="boundary" inkscape:connector-curvature="0" />
	<path style="fill:none;stroke:red;stroke-width:1px;stroke-linecap:butt;stroke-linejoin:miter;stroke-opacity:1" d="M 511.552,884.204 511.552,891.657 z" id="boundary" inkscape:connector-curvature="0" />
	<path style="fill:none;stroke:red;stroke-width:1px;stroke-linecap:butt;stroke-linejoin:miter;stroke-opacity:1" d="M 511.552,925.196 515.279,931.904 z" id="boundary" inkscape:connector-curvature="0" />
	<path style="fill:none;stroke:red;stroke-width:1px;stroke-linecap:butt;stroke-linejoin:miter;stroke-opacity:1" d="M 511.552,992.273 517.515,987.056 z" id="boundary" inkscape:connector-curvature="0" />
	<path style="fill:none;stroke:red;stroke-width:1px;stroke-linecap:butt;stroke-linejoin:miter;stroke-opacity:1" d="M 515.279,931.904 515.279,939.357 z" id="boundary" inkscape:connector-curvature="0" />
	<path style="fill:none;stroke:red;stroke-width:1px;stroke-linecap:butt;stroke-linejoin:miter;stroke-opacity:1" d="M 515.279,939.357 519.005,946.065 z" id="boundary" inkscape:connector-curvature="0" />
	<path style="fill:none;stroke:red;stroke-width:1px;stroke-linecap:butt;stroke-linejoin:miter;stroke-opacity:1" d="M 517.515,987.056 522.732,977.367 z" id="boundary" inkscape:connector-curvature="0" />
	<path style="fill:none;stroke:red;stroke-width:1px;stroke-linecap:butt;stroke-linejoin:miter;stroke-opacity:1" d="M 519.005,946.065 522.732,952.772 z" id="boundary" inkscape:connector-curvature="0" />
	<path style="fill:none;stroke:red;stroke-width:1px;stroke-linecap:butt;stroke-linejoin:miter;stroke-opacity:1" d="M 522.732,952.772 522.732,960.225 z" id="boundary" inkscape:connector-curvature="0" />
	<path style="fill:none;stroke:red;stroke-width:1px;stroke-linecap:butt;stroke-linejoin:miter;stroke-opacity:1" d="M 522.732,960.225 526.458,966.933 z" id="boundary" inkscape:connector-curvature="0" />
	<path style="fill:none;stroke:red;stroke-width:1px;stroke-linecap:butt;stroke-linejoin:miter;stroke-opacity:1" d="M 522.732,977.367 526.458,966.933 z" id="boundary" inkscape:connector-curvature="0" />
	<circle cx="4" cy="36.0481" r="4" fill="#0" id="circle0"/>
	<circle cx="4" cy="43.5011" r="4" fill="#0" id="circle1"/>
	<circle cx="4" cy="50.9542" r="4" fill="#0" id="circle2"/>
	<circle cx="7.72652" cy="57.6619" r="4" fill="#0" id="circle3"/>
	<circle cx="9.96243" cy="30.0856" r="4" fill="#0" id="circle4"/>
	<circle cx="11.453" cy="64.3696" r="4" fill="#0" id="circle5"/>
	<circle cx="13.689" cy="22.6326" r="4" fill="#0" id="circle6"/>
	<circle cx="13.689" cy="71.8227" r="4" fill="#0" id="circle7"/>
	<circle cx="17.4155" cy="78.5304" r="4" fill="#0" id="circle8"/>
	<circle cx="20.3967" cy="85.9835" r="4" fill="#0" id="circle9"/>
	<circle cx="21.142" cy="18.9061" r="4" fill="#0" id="circle10"/>
	<circle cx="26.3591" cy="90.4553" r="4" fill="#0" id="circle11"/>
	<circle cx="26.3591" cy="97.9083" r="4" fill="#0" id="circle12"/>
	<circle cx="27.8497" cy="15.1796" r="4" fill="#0" id="circle13"/>
	<circle cx="30.0856" cy="104.616" r="4" fill="#0" id="circle14"/>
	<circle cx="33.8122" cy="111.324" r="4" fill="#0" id="circle15"/>
	<circle cx="35.3028" cy="12.1983" r="4" fill="#0" id="circle16"/>
	<circle cx="37.5387" cy="118.032" r="4" fill="#0" id="circle17"/>
	<circle cx="37.5387" cy="125.485" r="4" fill="#0" id="circle18"/>
	<circle cx="41.2652" cy="132.192" r="4" fill="#0" id="circle19"/>
	<circle cx="42.7558" cy="11.453" r="4" fill="#0" id="circle20"/>
	<circle cx="44.9917" cy="138.9" r="4" fill="#0" id="circle21"/>
	<circle cx="48.7183" cy="145.608" r="4" fill="#0" id="circle22"/>
	<circle cx="50.2089" cy="11.453" r="4" fill="#0" id="circle23"/>
	<circle cx="52.4448" cy="152.316" r="4" fill="#0" id="circle24"/>
	<circle cx="56.1713" cy="159.023" r="4" fill="#0" id="circle25"/>
	<circle cx="56.1713" cy="166.476" r="4" fill="#0" id="circle26"/>
	<circle cx="57.6619" cy="11.453" r="4" fill="#0" id="circle27"/>
	<circle cx="59.8978" cy="173.184" r="4" fill="#0" id="circle28"/>
	<circle cx="63.6243" cy="179.892" r="4" fill="#0" id="circle29"/>
	<circle cx="65.115" cy="8.47183" r="4" fill="#0" id="circle30"/>
	<circle cx="65.8603" cy="187.345" r="4" fill="#0" id="circle31"/>
	<circle cx="69.5868" cy="194.053" r="4" fill="#0" id="circle32"/>
	<circle cx="72.568" cy="7.72652" r="4" fill="#0" id="circle33"/>
	<circle cx="72.568" cy="201.506" r="4" fill="#0" id="circle34"/>
	<circle cx="76.2945" cy="208.213" r="4" fill="#0" id="circle35"/>
	<circle cx="79.2757" cy="215.666" r="4" fill="#0" id="circle36"/>
	<circle cx="80.021" cy="7.72652" r="4" fill="#0" id="circle37"/>
	<circle cx="82.2569" cy="223.119" r="4" fill="#0" id="circle38"/>
	<circle cx="85.9835" cy="229.827" r="4" fill="#0" id="circle39"/>
	<circle cx="85.9835" cy="237.28" r="4" fill="#0" id="circle40"/>
	<circle cx="87.4741" cy="7.72652" r="4" fill="#0" id="circle41"/>
	<circle cx="91.9459" cy="242.497" r="4" fill="#0" id="circle42"/>
	<circle cx="93.4365" cy="249.95" r="4" fill="#0" id="circle43"/>
	<circle cx="94.9271" cy="7.72652" r="4" fill="#0" id="circle44"/>
	<circle cx="97.9083" cy="255.913" r="4" fill="#0" id="circle45"/>
	<circle cx="100.89" cy="263.366" r="4" fill="#0" id="circle46"/>
	<circle cx="102.38" cy="7.72652" r="4" fill="#0" id="circle47"/>
	<circle cx="104.616" cy="270.074" r="4" fill="#0" id="circle48"/>
	<circle cx="108.343" cy="276.781" r="4" fill="#0" id="circle49"/>
	<circle cx="109.833" cy="4.7453" r="4" fill="#0" id="circle50"/>
	<circle cx="110.579" cy="284.234" r="4" fill="#0" id="circle51"/>
	<circle cx="112.069" cy="291.687" r="4" fill="#0" id="circle52"/>
	<circle cx="116.541" cy="297.65" r="4" fill="#0" id="circle53"/>
	<circle cx="117.286" cy="4" r="4" fill="#0" id="circle54"/>
	<circle cx="119.522" cy="305.103" r="4" fill="#0" id="circle55"/>
	<circle cx="123.249" cy="311.811" r="4" fill="#0" id="circle56"/>
	<circle cx="123.994" cy="7.72652" r="4" fill="#0" id="circle57"/>
	<circle cx="126.975" cy="318.518" r="4" fill="#0" id="circle58"/>
	<circle cx="126.975" cy="325.971" r="4" fill="#0" id="circle59"/>
	<circle cx="130.702" cy="332.679" r="4" fill="#0" id="circle60"/>
	<circle cx="131.447" cy="7.72652" r="4" fill="#0" id="circle61"/>
	<circle cx="134.428" cy="339.387" r="4" fill="#0" id="circle62"/>
	<circle cx="135.919" cy="346.84" r="4" fill="#0" id="circle63"/>
	<circle cx="138.155" cy="11.453" r="4" fill="#0" id="circle64"/>
	<circle cx="139.645" cy="353.548" r="4" fill="#0" id="circle65"/>
	<circle cx="144.117" cy="15.9249" r="4" fill="#0" id="circle66"/>
	<circle cx="145.608" cy="358.765" r="4" fill="#0" id="circle67"/>
	<circle cx="145.608" cy="366.218" r="4" fill="#0" id="circle68"/>
	<circle cx="149.334" cy="372.926" r="4" fill="#0" id="circle69"/>
	<circle cx="150.08" cy="21.142" r="4" fill="#0" id="circle70"/>
	<circle cx="153.061" cy="28.595" r="4" fill="#0" id="circle71"/>
	<circle cx="153.061" cy="379.633" r="4" fill="#0" id="circle72"/>
	<circle cx="156.787" cy="35.3028" r="4" fill="#0" id="circle73"/>
	<circle cx="156.787" cy="386.341" r="4" fill="#0" id="circle74"/>
	<circle cx="159.769" cy="42.7558" r="4" fill="#0" id="circle75"/>
	<circle cx="160.514" cy="393.049" r="4" fill="#0" id="circle76"/>
	<circle cx="160.514" cy="400.502" r="4" fill="#0" id="circle77"/>
	<circle cx="163.495" cy="49.4636" r="4" fill="#0" id="circle78"/>
	<circle cx="164.24" cy="407.21" r="4" fill="#0" id="circle79"/>
	<circle cx="166.476" cy="56.9166" r="4" fill="#0" id="circle80"/>
	<circle cx="167.967" cy="413.917" r="4" fill="#0" id="circle81"/>
	<circle cx="169.458" cy="421.37" r="4" fill="#0" id="circle82"/>
	<circle cx="170.203" cy="63.6243" r="4" fill="#0" id="circle83"/>
	<circle cx="172.439" cy="71.0774" r="4" fill="#0" id="circle84"/>
	<circle cx="173.184" cy="428.078" r="4" fill="#0" id="circle85"/>
	<circle cx="176.165" cy="77.7851" r="4" fill="#0" id="circle86"/>
	<circle cx="176.165" cy="435.531" r="4" fill="#0" id="circle87"/>
	<circle cx="179.147" cy="442.984" r="4" fill="#0" id="circle88"/>
	<circle cx="179.892" cy="84.4929" r="4" fill="#0" id="circle89"/>
	<circle cx="182.873" cy="91.9459" r="4" fill="#0" id="circle90"/>
	<circle cx="182.873" cy="449.692" r="4" fill="#0" id="circle91"/>
	<circle cx="186.6" cy="98.6536" r="4" fill="#0" id="circle92"/>
	<circle cx="186.6" cy="456.4" r="4" fill="#0" id="circle93"/>
	<circle cx="189.581" cy="106.107" r="4" fill="#0" id="circle94"/>
	<circle cx="190.326" cy="463.107" r="4" fill="#0" id="circle95"/>
	<circle cx="191.071" cy="113.56" r="4" fill="#0" id="circle96"/>
	<circle cx="194.053" cy="469.815" r="4" fill="#0" id="circle97"/>
	<circle cx="195.543" cy="119.522" r="4" fill="#0" id="circle98"/>
	<circle cx="195.543" cy="477.268" r="4" fill="#0" id="circle99"/>
	<circle cx="197.779" cy="484.721" r="4" fill="#0" id="circle100"/>
	<circle cx="198.524" cy="126.975" r="4" fill="#0" id="circle101"/>
	<circle cx="201.506" cy="491.429" r="4" fill="#0" id="circle102"/>
	<circle cx="202.251" cy="133.683" r="4" fill="#0" id="circle103"/>
	<circle cx="205.232" cy="498.137" r="4" fill="#0" id="circle104"/>
	<circle cx="205.977" cy="140.391" r="4" fill="#0" id="circle105"/>
	<circle cx="208.959" cy="147.844" r="4" fill="#0" id="circle106"/>
	<circle cx="208.959" cy="504.844" r="4" fill="#0" id="circle107"/>
	<circle cx="212.685" cy="154.551" r="4" fill="#0" id="circle108"/>
	<circle cx="212.685" cy="511.552" r="4" fill="#0" id="circle109"/>
	<circle cx="213.431" cy="162.005" r="4" fill="#0" id="circle110"/>
	<circle cx="214.921" cy="519.005" r="4" fill="#0" id="circle111"/>
	<circle cx="216.412" cy="526.458" r="4" fill="#0" id="circle112"/>
	<circle cx="217.157" cy="168.712" r="4" fill="#0" id="circle113"/>
	<circle cx="220.138" cy="533.166" r="4" fill="#0" id="circle114"/>
	<circle cx="220.884" cy="175.42" r="4" fill="#0" id="circle115"/>
	<circle cx="223.865" cy="539.874" r="4" fill="#0" id="circle116"/>
	<circle cx="224.61" cy="182.128" r="4" fill="#0" id="circle117"/>
	<circle cx="227.591" cy="546.582" r="4" fill="#0" id="circle118"/>
	<circle cx="228.337" cy="188.835" r="4" fill="#0" id="circle119"/>
	<circle cx="231.318" cy="196.289" r="4" fill="#0" id="circle120"/>
	<circle cx="231.318" cy="553.289" r="4" fill="#0" id="circle121"/>
	<circle cx="235.044" cy="202.996" r="4" fill="#0" id="circle122"/>
	<circle cx="235.044" cy="559.997" r="4" fill="#0" id="circle123"/>
	<circle cx="235.044" cy="567.45" r="4" fill="#0" id="circle124"/>
	<circle cx="235.79" cy="210.449" r="4" fill="#0" id="circle125"/>
	<circle cx="238.771" cy="574.158" r="4" fill="#0" id="circle126"/>
	<circle cx="239.516" cy="217.157" r="4" fill="#0" id="circle127"/>
	<circle cx="242.497" cy="580.866" r="4" fill="#0" id="circle128"/>
	<circle cx="243.243" cy="223.865" r="4" fill="#0" id="circle129"/>
	<circle cx="243.243" cy="588.319" r="4" fill="#0" id="circle130"/>
	<circle cx="246.969" cy="230.573" r="4" fill="#0" id="circle131"/>
	<circle cx="246.969" cy="238.026" r="4" fill="#0" id="circle132"/>
	<circle cx="246.969" cy="595.026" r="4" fill="#0" id="circle133"/>
	<circle cx="249.95" cy="602.479" r="4" fill="#0" id="circle134"/>
	<circle cx="250.696" cy="244.733" r="4" fill="#0" id="circle135"/>
	<circle cx="253.677" cy="609.187" r="4" fill="#0" id="circle136"/>
	<circle cx="254.422" cy="251.441" r="4" fill="#0" id="circle137"/>
	<circle cx="257.403" cy="615.895" r="4" fill="#0" id="circle138"/>
	<circle cx="258.149" cy="258.149" r="4" fill="#0" id="circle139"/>
	<circle cx="261.13" cy="622.603" r="4" fill="#0" id="circle140"/>
	<circle cx="261.875" cy="264.856" r="4" fill="#0" id="circle141"/>
	<circle cx="261.875" cy="272.31" r="4" fill="#0" id="circle142"/>
	<circle cx="262.621" cy="630.056" r="4" fill="#0" id="circle143"/>
	<circle cx="264.856" cy="637.509" r="4" fill="#0" id="circle144"/>
	<circle cx="265.602" cy="279.017" r="4" fill="#0" id="circle145"/>
	<circle cx="269.328" cy="285.725" r="4" fill="#0" id="circle146"/>
	<circle cx="269.328" cy="643.471" r="4" fill="#0" id="circle147"/>
	<circle cx="272.31" cy="650.924" r="4" fill="#0" id="circle148"/>
	<circle cx="273.055" cy="292.433" r="4" fill="#0" id="circle149"/>
	<circle cx="276.036" cy="657.632" r="4" fill="#0" id="circle150"/>
	<circle cx="276.781" cy="299.14" r="4" fill="#0" id="circle151"/>
	<circle cx="279.763" cy="664.34" r="4" fill="#0" id="circle152"/>
	<circle cx="280.508" cy="305.848" r="4" fill="#0" id="circle153"/>
	<circle cx="280.508" cy="313.301" r="4" fill="#0" id="circle154"/>
	<circle cx="281.998" cy="671.793" r="4" fill="#0" id="circle155"/>
	<circle cx="283.489" cy="679.246" r="4" fill="#0" id="circle156"/>
	<circle cx="284.234" cy="320.009" r="4" fill="#0" id="circle157"/>
	<circle cx="287.216" cy="685.953" r="4" fill="#0" id="circle158"/>
	<circle cx="287.961" cy="326.717" r="4" fill="#0" id="circle159"/>
	<circle cx="290.942" cy="692.661" r="4" fill="#0" id="circle160"/>
	<circle cx="291.687" cy="333.424" r="4" fill="#0" id="circle161"/>
	<circle cx="293.923" cy="340.878" r="4" fill="#0" id="circle162"/>
	<circle cx="294.669" cy="699.369" r="4" fill="#0" id="circle163"/>
	<circle cx="297.65" cy="347.585" r="4" fill="#0" id="circle164"/>
	<circle cx="298.395" cy="706.077" r="4" fill="#0" id="circle165"/>
	<circle cx="300.631" cy="355.038" r="4" fill="#0" id="circle166"/>
	<circle cx="302.122" cy="712.784" r="4" fill="#0" id="circle167"/>
	<circle cx="304.358" cy="361.746" r="4" fill="#0" id="circle168"/>
	<circle cx="304.358" cy="720.237" r="4" fill="#0" id="circle169"/>
	<circle cx="306.594" cy="369.199" r="4" fill="#0" id="circle170"/>
	<circle cx="308.084" cy="726.945" r="4" fill="#0" id="circle171"/>
	<circle cx="310.32" cy="375.907" r="4" fill="#0" id="circle172"/>
	<circle cx="311.065" cy="734.398" r="4" fill="#0" id="circle173"/>
	<circle cx="313.301" cy="741.851" r="4" fill="#0" id="circle174"/>
	<circle cx="314.047" cy="382.615" r="4" fill="#0" id="circle175"/>
	<circle cx="317.028" cy="390.068" r="4" fill="#0" id="circle176"/>
	<circle cx="317.773" cy="747.814" r="4" fill="#0" id="circle177"/>
	<circle cx="320.754" cy="396.775" r="4" fill="#0" id="circle178"/>
	<circle cx="320.754" cy="755.267" r="4" fill="#0" id="circle179"/>
	<circle cx="323.736" cy="404.228" r="4" fill="#0" id="circle180"/>
	<circle cx="324.481" cy="761.974" r="4" fill="#0" id="circle181"/>
	<circle cx="325.226" cy="411.681" r="4" fill="#0" id="circle182"/>
	<circle cx="328.207" cy="768.682" r="4" fill="#0" id="circle183"/>
	<circle cx="328.207" cy="776.135" r="4" fill="#0" id="circle184"/>
	<circle cx="328.953" cy="418.389" r="4" fill="#0" id="circle185"/>
	<circle cx="331.934" cy="782.843" r="4" fill="#0" id="circle186"/>
	<circle cx="332.679" cy="425.097" r="4" fill="#0" id="circle187"/>
	<circle cx="335.66" cy="789.551" r="4" fill="#0" id="circle188"/>
	<circle cx="336.406" cy="431.805" r="4" fill="#0" id="circle189"/>
	<circle cx="339.387" cy="796.258" r="4" fill="#0" id="circle190"/>
	<circle cx="339.387" cy="803.711" r="4" fill="#0" id="circle191"/>
	<circle cx="340.132" cy="438.512" r="4" fill="#0" id="circle192"/>
	<circle cx="340.132" cy="445.965" r="4" fill="#0" id="circle193"/>
	<circle cx="343.113" cy="810.419" r="4" fill="#0" id="circle194"/>
	<circle cx="343.859" cy="452.673" r="4" fill="#0" id="circle195"/>
	<circle cx="346.84" cy="817.127" r="4" fill="#0" id="circle196"/>
	<circle cx="347.585" cy="459.381" r="4" fill="#0" id="circle197"/>
	<circle cx="350.566" cy="823.835" r="4" fill="#0" id="circle198"/>
	<circle cx="351.312" cy="466.089" r="4" fill="#0" id="circle199"/>
	<circle cx="351.312" cy="473.542" r="4" fill="#0" id="circle200"/>
	<circle cx="352.057" cy="831.288" r="4" fill="#0" id="circle201"/>
	<circle cx="355.038" cy="480.249" r="4" fill="#0" id="circle202"/>
	<circle cx="358.02" cy="835.76" r="4" fill="#0" id="circle203"/>
	<circle cx="358.02" cy="843.213" r="4" fill="#0" id="circle204"/>
	<circle cx="358.765" cy="486.957" r="4" fill="#0" id="circle205"/>
	<circle cx="361.746" cy="849.92" r="4" fill="#0" id="circle206"/>
	<circle cx="362.491" cy="493.665" r="4" fill="#0" id="circle207"/>
	<circle cx="363.237" cy="857.373" r="4" fill="#0" id="circle208"/>
	<circle cx="366.218" cy="500.373" r="4" fill="#0" id="circle209"/>
	<circle cx="369.199" cy="861.845" r="4" fill="#0" id="circle210"/>
	<circle cx="369.944" cy="507.08" r="4" fill="#0" id="circle211"/>
	<circle cx="371.435" cy="869.298" r="4" fill="#0" id="circle212"/>
	<circle cx="373.671" cy="513.788" r="4" fill="#0" id="circle213"/>
	<circle cx="373.671" cy="521.241" r="4" fill="#0" id="circle214"/>
	<circle cx="377.397" cy="527.949" r="4" fill="#0" id="circle215"/>
	<circle cx="377.397" cy="874.515" r="4" fill="#0" id="circle216"/>
	<circle cx="381.124" cy="534.657" r="4" fill="#0" id="circle217"/>
	<circle cx="382.615" cy="880.478" r="4" fill="#0" id="circle218"/>
	<circle cx="383.36" cy="542.11" r="4" fill="#0" id="circle219"/>
	<circle cx="387.086" cy="548.817" r="4" fill="#0" id="circle220"/>
	<circle cx="388.577" cy="885.695" r="4" fill="#0" id="circle221"/>
	<circle cx="390.068" cy="556.27" r="4" fill="#0" id="circle222"/>
	<circle cx="393.794" cy="562.978" r="4" fill="#0" id="circle223"/>
	<circle cx="393.794" cy="891.657" r="4" fill="#0" id="circle224"/>
	<circle cx="396.03" cy="570.431" r="4" fill="#0" id="circle225"/>
	<circle cx="399.757" cy="577.139" r="4" fill="#0" id="circle226"/>
	<circle cx="399.757" cy="896.875" r="4" fill="#0" id="circle227"/>
	<circle cx="403.483" cy="583.847" r="4" fill="#0" id="circle228"/>
	<circle cx="406.464" cy="591.3" r="4" fill="#0" id="circle229"/>
	<circle cx="406.464" cy="900.601" r="4" fill="#0" id="circle230"/>
	<circle cx="407.21" cy="598.753" r="4" fill="#0" id="circle231"/>
	<circle cx="412.427" cy="604.715" r="4" fill="#0" id="circle232"/>
	<circle cx="412.427" cy="905.818" r="4" fill="#0" id="circle233"/>
	<circle cx="416.153" cy="611.423" r="4" fill="#0" id="circle234"/>
	<circle cx="417.644" cy="911.781" r="4" fill="#0" id="circle235"/>
	<circle cx="418.389" cy="618.876" r="4" fill="#0" id="circle236"/>
	<circle cx="422.116" cy="625.584" r="4" fill="#0" id="circle237"/>
	<circle cx="425.097" cy="914.017" r="4" fill="#0" id="circle238"/>
	<circle cx="425.842" cy="632.292" r="4" fill="#0" id="circle239"/>
	<circle cx="427.333" cy="921.47" r="4" fill="#0" id="circle240"/>
	<circle cx="428.823" cy="639.745" r="4" fill="#0" id="circle241"/>
	<circle cx="429.569" cy="647.198" r="4" fill="#0" id="circle242"/>
	<circle cx="433.295" cy="653.905" r="4" fill="#0" id="circle243"/>
	<circle cx="433.295" cy="926.687" r="4" fill="#0" id="circle244"/>
	<circle cx="437.767" cy="659.868" r="4" fill="#0" id="circle245"/>
	<circle cx="438.512" cy="932.649" r="4" fill="#0" id="circle246"/>
	<circle cx="440.748" cy="667.321" r="4" fill="#0" id="circle247"/>
	<circle cx="443.73" cy="938.612" r="4" fill="#0" id="circle248"/>
	<circle cx="444.475" cy="674.029" r="4" fill="#0" id="circle249"/>
	<circle cx="447.456" cy="945.319" r="4" fill="#0" id="circle250"/>
	<circle cx="448.201" cy="680.736" r="4" fill="#0" id="circle251"/>
	<circle cx="448.201" cy="688.189" r="4" fill="#0" id="circle252"/>
	<circle cx="451.183" cy="952.027" r="4" fill="#0" id="circle253"/>
	<circle cx="451.928" cy="694.897" r="4" fill="#0" id="circle254"/>
	<circle cx="454.909" cy="958.735" r="4" fill="#0" id="circle255"/>
	<circle cx="455.654" cy="701.605" r="4" fill="#0" id="circle256"/>
	<circle cx="459.381" cy="708.313" r="4" fill="#0" id="circle257"/>
	<circle cx="459.381" cy="964.697" r="4" fill="#0" id="circle258"/>
	<circle cx="463.107" cy="715.02" r="4" fill="#0" id="circle259"/>
	<circle cx="463.107" cy="722.473" r="4" fill="#0" id="circle260"/>
	<circle cx="463.107" cy="971.405" r="4" fill="#0" id="circle261"/>
	<circle cx="466.089" cy="978.858" r="4" fill="#0" id="circle262"/>
	<circle cx="469.07" cy="727.69" r="4" fill="#0" id="circle263"/>
	<circle cx="469.815" cy="985.566" r="4" fill="#0" id="circle264"/>
	<circle cx="470.56" cy="735.144" r="4" fill="#0" id="circle265"/>
	<circle cx="474.287" cy="741.851" r="4" fill="#0" id="circle266"/>
	<circle cx="475.032" cy="991.528" r="4" fill="#0" id="circle267"/>
	<circle cx="478.014" cy="748.559" r="4" fill="#0" id="circle268"/>
	<circle cx="478.014" cy="756.012" r="4" fill="#0" id="circle269"/>
	<circle cx="481.74" cy="762.72" r="4" fill="#0" id="circle270"/>
	<circle cx="482.485" cy="994.509" r="4" fill="#0" id="circle271"/>
	<circle cx="485.467" cy="769.427" r="4" fill="#0" id="circle272"/>
	<circle cx="489.193" cy="776.135" r="4" fill="#0" id="circle273"/>
	<circle cx="489.938" cy="996" r="4" fill="#0" id="circle274"/>
	<circle cx="492.92" cy="782.843" r="4" fill="#0" id="circle275"/>
	<circle cx="496.646" cy="789.551" r="4" fill="#0" id="circle276"/>
	<circle cx="496.646" cy="797.004" r="4" fill="#0" id="circle277"/>
	<circle cx="497.391" cy="996" r="4" fill="#0" id="circle278"/>
	<circle cx="500.373" cy="803.711" r="4" fill="#0" id="circle279"/>
	<circle cx="504.099" cy="810.419" r="4" fill="#0" id="circle280"/>
	<circle cx="504.844" cy="996" r="4" fill="#0" id="circle281"/>
	<circle cx="506.335" cy="817.872" r="4" fill="#0" id="circle282"/>
	<circle cx="507.826" cy="825.325" r="4" fill="#0" id="circle283"/>
	<circle cx="507.826" cy="832.778" r="4" fill="#0" id="circle284"/>
	<circle cx="507.826" cy="840.231" r="4" fill="#0" id="circle285"/>
	<circle cx="507.826" cy="902.837" r="4" fill="#0" id="circle286"/>
	<circle cx="507.826" cy="910.29" r="4" fill="#0" id="circle287"/>
	<circle cx="509.316" cy="917.743" r="4" fill="#0" id="circle288"/>
	<circle cx="511.552" cy="846.939" r="4" fill="#0" id="circle289"/>
	<circle cx="511.552" cy="854.392" r="4" fill="#0" id="circle290"/>
	<circle cx="511.552" cy="861.845" r="4" fill="#0" id="circle291"/>
	<circle cx="511.552" cy="869.298" r="4" fill="#0" id="circle292"/>
	<circle cx="511.552" cy="876.751" r="4" fill="#0" id="circle293"/>
	<circle cx="511.552" cy="884.204" r="4" fill="#0" id="circle294"/>
	<circle cx="511.552" cy="891.657" r="4" fill="#0" id="circle295"/>
	<circle cx="511.552" cy="925.196" r="4" fill="#0" id="circle296"/>
	<circle cx="511.552" cy="992.273" r="4" fill="#0" id="circle297"/>
	<circle cx="515.279" cy="931.904" r="4" fill="#0" id="circle298"/>
	<circle cx="515.279" cy="939.357" r="4" fill="#0" id="circle299"/>
	<circle cx="517.515" cy="987.056" r="4" fill="#0" id="circle300"/>
	<circle cx="519.005" cy="946.065" r="4" fill="#0" id="circle301"/>
	<circle cx="522.732" cy="952.772" r="4" fill="#0" id="circle302"/>
	<circle cx="522.732" cy="960.225" r="4" fill="#0" id="circle303"/>
	<circle cx="522.732" cy="977.367" r="4" fill="#0" id="circle304"/>
	<circle cx="526.458" cy="966.933" r="4" fill="#0" id="circle305"/>
	</g>
</svg>