<?xml version="1.0" encoding="UTF-8" standalone="no"?>
<!-- Created with CurveBenchmark -->
<svg
	xmlns:dc="http://purl.org/dc/elements/1.1/"
	xmlns:cc="http://creativecommons.org/ns#"
	xmlns:rdf="http://www.w3.org/1999/02/22-rdf-syntax-ns#"
	xmlns:svg="http://www.w3.org/2000/svg"
	xmlns="http://www.w3.org/2000/svg"
	xmlns:sodipodi="http://sodipodi.sourceforge.net/DTD/sodipodi-0.dtd"
	xmlns:inkscape="http://www.inkscape.org/namespaces/inkscape"
	width="1000"
	height="1000"
	id="svg2"
	version="1.1"
	sodipodi:docname="manifold/fitconnect-fish280.png.txt">
<defs
	id="defs4" />
<metadata
	id="metadata7">
	<rdf:RDF>
		<cc:Work
			rdf:about="">
			<dc:format>image/svg+xml</dc:format>
			<dc:type
				rdf:resource="http://purl.org/dc/dcmitype/StillImage" />
			<dc:title></dc:title>
		</cc:Work>
	</rdf:RDF>
</metadata>
<g
	inkscape:label="Layer 1"
	inkscape:groupmode="layer"
	id="layer1">
	<path style="fill:none;stroke:red;stroke-width:1px;stroke-linecap:butt;stroke-linejoin:miter;stroke-opacity:1" d="M 4,521.565 10.1615,583.18 z" id="boundary" inkscape:connector-curvature="0" />
	<path style="fill:none;stroke:red;stroke-width:1px;stroke-linecap:butt;stroke-linejoin:miter;stroke-opacity:1" d="M 4,521.565 40.9689,459.95 z" id="boundary" inkscape:connector-curvature="0" />
	<path style="fill:none;stroke:red;stroke-width:1px;stroke-linecap:butt;stroke-linejoin:miter;stroke-opacity:1" d="M 10.1615,583.18 22.4845,644.795 z" id="boundary" inkscape:connector-curvature="0" />
	<path style="fill:none;stroke:red;stroke-width:1px;stroke-linecap:butt;stroke-linejoin:miter;stroke-opacity:1" d="M 22.4845,644.795 47.1304,706.41 z" id="boundary" inkscape:connector-curvature="0" />
	<path style="fill:none;stroke:red;stroke-width:1px;stroke-linecap:butt;stroke-linejoin:miter;stroke-opacity:1" d="M 40.9689,459.95 53.2919,373.689 z" id="boundary" inkscape:connector-curvature="0" />
	<path style="fill:none;stroke:red;stroke-width:1px;stroke-linecap:butt;stroke-linejoin:miter;stroke-opacity:1" d="M 47.1304,706.41 96.4224,749.54 z" id="boundary" inkscape:connector-curvature="0" />
	<path style="fill:none;stroke:red;stroke-width:1px;stroke-linecap:butt;stroke-linejoin:miter;stroke-opacity:1" d="M 53.2919,373.689 90.2609,324.398 z" id="boundary" inkscape:connector-curvature="0" />
	<path style="fill:none;stroke:red;stroke-width:1px;stroke-linecap:butt;stroke-linejoin:miter;stroke-opacity:1" d="M 90.2609,324.398 139.553,275.106 z" id="boundary" inkscape:connector-curvature="0" />
	<path style="fill:none;stroke:red;stroke-width:1px;stroke-linecap:butt;stroke-linejoin:miter;stroke-opacity:1" d="M 96.4224,749.54 139.553,854.286 z" id="boundary" inkscape:connector-curvature="0" />
	<path style="fill:none;stroke:red;stroke-width:1px;stroke-linecap:butt;stroke-linejoin:miter;stroke-opacity:1" d="M 139.553,275.106 188.845,238.137 z" id="boundary" inkscape:connector-curvature="0" />
	<path style="fill:none;stroke:red;stroke-width:1px;stroke-linecap:butt;stroke-linejoin:miter;stroke-opacity:1" d="M 139.553,854.286 176.522,959.031 z" id="boundary" inkscape:connector-curvature="0" />
	<path style="fill:none;stroke:red;stroke-width:1px;stroke-linecap:butt;stroke-linejoin:miter;stroke-opacity:1" d="M 176.522,959.031 490.758,928.224 z" id="boundary" inkscape:connector-curvature="0" />
	<path style="fill:none;stroke:red;stroke-width:1px;stroke-linecap:butt;stroke-linejoin:miter;stroke-opacity:1" d="M 188.845,238.137 250.46,188.845 z" id="boundary" inkscape:connector-curvature="0" />
	<path style="fill:none;stroke:red;stroke-width:1px;stroke-linecap:butt;stroke-linejoin:miter;stroke-opacity:1" d="M 250.46,127.23 250.46,188.845 z" id="boundary" inkscape:connector-curvature="0" />
	<path style="fill:none;stroke:red;stroke-width:1px;stroke-linecap:butt;stroke-linejoin:miter;stroke-opacity:1" d="M 250.46,127.23 262.783,53.2919 z" id="boundary" inkscape:connector-curvature="0" />
	<path style="fill:none;stroke:red;stroke-width:1px;stroke-linecap:butt;stroke-linejoin:miter;stroke-opacity:1" d="M 262.783,53.2919 299.752,4 z" id="boundary" inkscape:connector-curvature="0" />
	<path style="fill:none;stroke:red;stroke-width:1px;stroke-linecap:butt;stroke-linejoin:miter;stroke-opacity:1" d="M 299.752,4 336.72,53.2919 z" id="boundary" inkscape:connector-curvature="0" />
	<path style="fill:none;stroke:red;stroke-width:1px;stroke-linecap:butt;stroke-linejoin:miter;stroke-opacity:1" d="M 336.72,53.2919 361.366,114.907 z" id="boundary" inkscape:connector-curvature="0" />
	<path style="fill:none;stroke:red;stroke-width:1px;stroke-linecap:butt;stroke-linejoin:miter;stroke-opacity:1" d="M 361.366,114.907 392.174,170.36 z" id="boundary" inkscape:connector-curvature="0" />
	<path style="fill:none;stroke:red;stroke-width:1px;stroke-linecap:butt;stroke-linejoin:miter;stroke-opacity:1" d="M 392.174,170.36 441.466,207.329 z" id="boundary" inkscape:connector-curvature="0" />
	<path style="fill:none;stroke:red;stroke-width:1px;stroke-linecap:butt;stroke-linejoin:miter;stroke-opacity:1" d="M 441.466,207.329 453.789,268.944 z" id="boundary" inkscape:connector-curvature="0" />
	<path style="fill:none;stroke:red;stroke-width:1px;stroke-linecap:butt;stroke-linejoin:miter;stroke-opacity:1" d="M 453.789,268.944 515.404,268.944 z" id="boundary" inkscape:connector-curvature="0" />
	<path style="fill:none;stroke:red;stroke-width:1px;stroke-linecap:butt;stroke-linejoin:miter;stroke-opacity:1" d="M 466.112,743.379 490.758,928.224 z" id="boundary" inkscape:connector-curvature="0" />
	<path style="fill:none;stroke:red;stroke-width:1px;stroke-linecap:butt;stroke-linejoin:miter;stroke-opacity:1" d="M 466.112,743.379 527.727,749.54 z" id="boundary" inkscape:connector-curvature="0" />
	<path style="fill:none;stroke:red;stroke-width:1px;stroke-linecap:butt;stroke-linejoin:miter;stroke-opacity:1" d="M 515.404,268.944 552.373,318.236 z" id="boundary" inkscape:connector-curvature="0" />
	<path style="fill:none;stroke:red;stroke-width:1px;stroke-linecap:butt;stroke-linejoin:miter;stroke-opacity:1" d="M 527.727,749.54 589.342,731.056 z" id="boundary" inkscape:connector-curvature="0" />
	<path style="fill:none;stroke:red;stroke-width:1px;stroke-linecap:butt;stroke-linejoin:miter;stroke-opacity:1" d="M 552.373,318.236 552.373,379.851 z" id="boundary" inkscape:connector-curvature="0" />
	<path style="fill:none;stroke:red;stroke-width:1px;stroke-linecap:butt;stroke-linejoin:miter;stroke-opacity:1" d="M 552.373,379.851 552.373,441.466 z" id="boundary" inkscape:connector-curvature="0" />
	<path style="fill:none;stroke:red;stroke-width:1px;stroke-linecap:butt;stroke-linejoin:miter;stroke-opacity:1" d="M 552.373,441.466 583.18,496.919 z" id="boundary" inkscape:connector-curvature="0" />
	<path style="fill:none;stroke:red;stroke-width:1px;stroke-linecap:butt;stroke-linejoin:miter;stroke-opacity:1" d="M 583.18,496.919 638.634,527.727 z" id="boundary" inkscape:connector-curvature="0" />
	<path style="fill:none;stroke:red;stroke-width:1px;stroke-linecap:butt;stroke-linejoin:miter;stroke-opacity:1" d="M 589.342,731.056 638.634,681.764 z" id="boundary" inkscape:connector-curvature="0" />
	<path style="fill:none;stroke:red;stroke-width:1px;stroke-linecap:butt;stroke-linejoin:miter;stroke-opacity:1" d="M 638.634,527.727 650.957,589.342 z" id="boundary" inkscape:connector-curvature="0" />
	<path style="fill:none;stroke:red;stroke-width:1px;stroke-linecap:butt;stroke-linejoin:miter;stroke-opacity:1" d="M 638.634,681.764 650.957,589.342 z" id="boundary" inkscape:connector-curvature="0" />
	<circle cx="4" cy="521.565" r="4" fill="#0" id="circle0"/>
	<circle cx="10.1615" cy="583.18" r="4" fill="#0" id="circle1"/>
	<circle cx="22.4845" cy="644.795" r="4" fill="#0" id="circle2"/>
	<circle cx="40.9689" cy="459.95" r="4" fill="#0" id="circle3"/>
	<circle cx="47.1304" cy="706.41" r="4" fill="#0" id="circle4"/>
	<circle cx="53.2919" cy="373.689" r="4" fill="#0" id="circle5"/>
	<circle cx="90.2609" cy="324.398" r="4" fill="#0" id="circle6"/>
	<circle cx="96.4224" cy="749.54" r="4" fill="#0" id="circle7"/>
	<circle cx="114.907" cy="928.224" r="4" fill="#0" id="circle8"/>
	<circle cx="114.907" cy="989.839" r="4" fill="#0" id="circle9"/>
	<circle cx="139.553" cy="275.106" r="4" fill="#0" id="circle10"/>
	<circle cx="139.553" cy="854.286" r="4" fill="#0" id="circle11"/>
	<circle cx="158.037" cy="749.54" r="4" fill="#0" id="circle12"/>
	<circle cx="176.522" cy="959.031" r="4" fill="#0" id="circle13"/>
	<circle cx="188.845" cy="238.137" r="4" fill="#0" id="circle14"/>
	<circle cx="207.329" cy="903.578" r="4" fill="#0" id="circle15"/>
	<circle cx="238.137" cy="848.124" r="4" fill="#0" id="circle16"/>
	<circle cx="250.46" cy="127.23" r="4" fill="#0" id="circle17"/>
	<circle cx="250.46" cy="188.845" r="4" fill="#0" id="circle18"/>
	<circle cx="262.783" cy="53.2919" r="4" fill="#0" id="circle19"/>
	<circle cx="262.783" cy="786.509" r="4" fill="#0" id="circle20"/>
	<circle cx="299.752" cy="4" r="4" fill="#0" id="circle21"/>
	<circle cx="324.398" cy="786.509" r="4" fill="#0" id="circle22"/>
	<circle cx="336.72" cy="53.2919" r="4" fill="#0" id="circle23"/>
	<circle cx="355.205" cy="841.963" r="4" fill="#0" id="circle24"/>
	<circle cx="361.366" cy="114.907" r="4" fill="#0" id="circle25"/>
	<circle cx="386.012" cy="897.416" r="4" fill="#0" id="circle26"/>
	<circle cx="392.174" cy="170.36" r="4" fill="#0" id="circle27"/>
	<circle cx="422.981" cy="946.708" r="4" fill="#0" id="circle28"/>
	<circle cx="441.466" cy="207.329" r="4" fill="#0" id="circle29"/>
	<circle cx="441.466" cy="804.994" r="4" fill="#0" id="circle30"/>
	<circle cx="453.789" cy="268.944" r="4" fill="#0" id="circle31"/>
	<circle cx="459.95" cy="996" r="4" fill="#0" id="circle32"/>
	<circle cx="466.112" cy="330.559" r="4" fill="#0" id="circle33"/>
	<circle cx="466.112" cy="743.379" r="4" fill="#0" id="circle34"/>
	<circle cx="466.112" cy="866.609" r="4" fill="#0" id="circle35"/>
	<circle cx="490.758" cy="928.224" r="4" fill="#0" id="circle36"/>
	<circle cx="515.404" cy="268.944" r="4" fill="#0" id="circle37"/>
	<circle cx="527.727" cy="749.54" r="4" fill="#0" id="circle38"/>
	<circle cx="552.373" cy="318.236" r="4" fill="#0" id="circle39"/>
	<circle cx="552.373" cy="379.851" r="4" fill="#0" id="circle40"/>
	<circle cx="552.373" cy="441.466" r="4" fill="#0" id="circle41"/>
	<circle cx="583.18" cy="496.919" r="4" fill="#0" id="circle42"/>
	<circle cx="589.342" cy="731.056" r="4" fill="#0" id="circle43"/>
	<circle cx="638.634" cy="527.727" r="4" fill="#0" id="circle44"/>
	<circle cx="638.634" cy="681.764" r="4" fill="#0" id="circle45"/>
	<circle cx="650.957" cy="589.342" r="4" fill="#0" id="circle46"/>
	</g>
</svg>