<?xml version="1.0" encoding="UTF-8" standalone="no"?>
<!-- Created with CurveBenchmark -->
<svg
	xmlns:dc="http://purl.org/dc/elements/1.1/"
	xmlns:cc="http://creativecommons.org/ns#"
	xmlns:rdf="http://www.w3.org/1999/02/22-rdf-syntax-ns#"
	xmlns:svg="http://www.w3.org/2000/svg"
	xmlns="http://www.w3.org/2000/svg"
	xmlns:sodipodi="http://sodipodi.sourceforge.net/DTD/sodipodi-0.dtd"
	xmlns:inkscape="http://www.inkscape.org/namespaces/inkscape"
	width="1000"
	height="1000"
	id="svg2"
	version="1.1"
	sodipodi:docname="manifold/fitconnect-textbox10.png.txt">
<defs
	id="defs4" />
<metadata
	id="metadata7">
	<rdf:RDF>
		<cc:Work
			rdf:about="">
			<dc:format>image/svg+xml</dc:format>
			<dc:type
				rdf:resource="http://purl.org/dc/dcmitype/StillImage" />
			<dc:title></dc:title>
		</cc:Work>
	</rdf:RDF>
</metadata>
<g
	inkscape:label="Layer 1"
	inkscape:groupmode="layer"
	id="layer1">
	<path style="fill:none;stroke:red;stroke-width:1px;stroke-linecap:butt;stroke-linejoin:miter;stroke-opacity:1" d="M 4,268.058 4,285.899 z" id="boundary" inkscape:connector-curvature="0" />
	<path style="fill:none;stroke:red;stroke-width:1px;stroke-linecap:butt;stroke-linejoin:miter;stroke-opacity:1" d="M 4,268.058 12.9209,250.216 z" id="boundary" inkscape:connector-curvature="0" />
	<path style="fill:none;stroke:red;stroke-width:1px;stroke-linecap:butt;stroke-linejoin:miter;stroke-opacity:1" d="M 4,285.899 4,303.741 z" id="boundary" inkscape:connector-curvature="0" />
	<path style="fill:none;stroke:red;stroke-width:1px;stroke-linecap:butt;stroke-linejoin:miter;stroke-opacity:1" d="M 4,303.741 12.9209,319.799 z" id="boundary" inkscape:connector-curvature="0" />
	<path style="fill:none;stroke:red;stroke-width:1px;stroke-linecap:butt;stroke-linejoin:miter;stroke-opacity:1" d="M 12.9209,232.374 12.9209,250.216 z" id="boundary" inkscape:connector-curvature="0" />
	<path style="fill:none;stroke:red;stroke-width:1px;stroke-linecap:butt;stroke-linejoin:miter;stroke-opacity:1" d="M 12.9209,232.374 30.7626,223.453 z" id="boundary" inkscape:connector-curvature="0" />
	<path style="fill:none;stroke:red;stroke-width:1px;stroke-linecap:butt;stroke-linejoin:miter;stroke-opacity:1" d="M 12.9209,319.799 12.9209,337.64 z" id="boundary" inkscape:connector-curvature="0" />
	<path style="fill:none;stroke:red;stroke-width:1px;stroke-linecap:butt;stroke-linejoin:miter;stroke-opacity:1" d="M 12.9209,337.64 21.8417,353.698 z" id="boundary" inkscape:connector-curvature="0" />
	<path style="fill:none;stroke:red;stroke-width:1px;stroke-linecap:butt;stroke-linejoin:miter;stroke-opacity:1" d="M 21.8417,353.698 30.7626,369.755 z" id="boundary" inkscape:connector-curvature="0" />
	<path style="fill:none;stroke:red;stroke-width:1px;stroke-linecap:butt;stroke-linejoin:miter;stroke-opacity:1" d="M 30.7626,205.612 30.7626,223.453 z" id="boundary" inkscape:connector-curvature="0" />
	<path style="fill:none;stroke:red;stroke-width:1px;stroke-linecap:butt;stroke-linejoin:miter;stroke-opacity:1" d="M 30.7626,205.612 39.6835,178.849 z" id="boundary" inkscape:connector-curvature="0" />
	<path style="fill:none;stroke:red;stroke-width:1px;stroke-linecap:butt;stroke-linejoin:miter;stroke-opacity:1" d="M 30.7626,369.755 39.6835,385.813 z" id="boundary" inkscape:connector-curvature="0" />
	<path style="fill:none;stroke:red;stroke-width:1px;stroke-linecap:butt;stroke-linejoin:miter;stroke-opacity:1" d="M 39.6835,178.849 57.5252,161.007 z" id="boundary" inkscape:connector-curvature="0" />
	<path style="fill:none;stroke:red;stroke-width:1px;stroke-linecap:butt;stroke-linejoin:miter;stroke-opacity:1" d="M 39.6835,385.813 41.4676,403.655 z" id="boundary" inkscape:connector-curvature="0" />
	<path style="fill:none;stroke:red;stroke-width:1px;stroke-linecap:butt;stroke-linejoin:miter;stroke-opacity:1" d="M 41.4676,403.655 59.3094,410.791 z" id="boundary" inkscape:connector-curvature="0" />
	<path style="fill:none;stroke:red;stroke-width:1px;stroke-linecap:butt;stroke-linejoin:miter;stroke-opacity:1" d="M 57.5252,161.007 66.446,134.245 z" id="boundary" inkscape:connector-curvature="0" />
	<path style="fill:none;stroke:red;stroke-width:1px;stroke-linecap:butt;stroke-linejoin:miter;stroke-opacity:1" d="M 59.3094,410.791 66.446,428.633 z" id="boundary" inkscape:connector-curvature="0" />
	<path style="fill:none;stroke:red;stroke-width:1px;stroke-linecap:butt;stroke-linejoin:miter;stroke-opacity:1" d="M 66.446,134.245 84.2878,125.324 z" id="boundary" inkscape:connector-curvature="0" />
	<path style="fill:none;stroke:red;stroke-width:1px;stroke-linecap:butt;stroke-linejoin:miter;stroke-opacity:1" d="M 66.446,428.633 84.2878,433.986 z" id="boundary" inkscape:connector-curvature="0" />
	<path style="fill:none;stroke:red;stroke-width:1px;stroke-linecap:butt;stroke-linejoin:miter;stroke-opacity:1" d="M 84.2878,125.324 93.2086,107.482 z" id="boundary" inkscape:connector-curvature="0" />
	<path style="fill:none;stroke:red;stroke-width:1px;stroke-linecap:butt;stroke-linejoin:miter;stroke-opacity:1" d="M 84.2878,433.986 93.2086,450.043 z" id="boundary" inkscape:connector-curvature="0" />
	<path style="fill:none;stroke:red;stroke-width:1px;stroke-linecap:butt;stroke-linejoin:miter;stroke-opacity:1" d="M 93.2086,107.482 111.05,102.129 z" id="boundary" inkscape:connector-curvature="0" />
	<path style="fill:none;stroke:red;stroke-width:1px;stroke-linecap:butt;stroke-linejoin:miter;stroke-opacity:1" d="M 93.2086,450.043 107.482,460.748 z" id="boundary" inkscape:connector-curvature="0" />
	<path style="fill:none;stroke:red;stroke-width:1px;stroke-linecap:butt;stroke-linejoin:miter;stroke-opacity:1" d="M 107.482,460.748 123.54,469.669 z" id="boundary" inkscape:connector-curvature="0" />
	<path style="fill:none;stroke:red;stroke-width:1px;stroke-linecap:butt;stroke-linejoin:miter;stroke-opacity:1" d="M 111.05,102.129 127.108,93.2086 z" id="boundary" inkscape:connector-curvature="0" />
	<path style="fill:none;stroke:red;stroke-width:1px;stroke-linecap:butt;stroke-linejoin:miter;stroke-opacity:1" d="M 123.54,469.669 132.46,485.727 z" id="boundary" inkscape:connector-curvature="0" />
	<path style="fill:none;stroke:red;stroke-width:1px;stroke-linecap:butt;stroke-linejoin:miter;stroke-opacity:1" d="M 127.108,93.2086 144.95,93.2086 z" id="boundary" inkscape:connector-curvature="0" />
	<path style="fill:none;stroke:red;stroke-width:1px;stroke-linecap:butt;stroke-linejoin:miter;stroke-opacity:1" d="M 132.46,485.727 150.302,492.863 z" id="boundary" inkscape:connector-curvature="0" />
	<path style="fill:none;stroke:red;stroke-width:1px;stroke-linecap:butt;stroke-linejoin:miter;stroke-opacity:1" d="M 144.95,93.2086 161.007,84.2878 z" id="boundary" inkscape:connector-curvature="0" />
	<path style="fill:none;stroke:red;stroke-width:1px;stroke-linecap:butt;stroke-linejoin:miter;stroke-opacity:1" d="M 150.302,492.863 168.144,496.432 z" id="boundary" inkscape:connector-curvature="0" />
	<path style="fill:none;stroke:red;stroke-width:1px;stroke-linecap:butt;stroke-linejoin:miter;stroke-opacity:1" d="M 161.007,84.2878 175.281,70.0144 z" id="boundary" inkscape:connector-curvature="0" />
	<path style="fill:none;stroke:red;stroke-width:1px;stroke-linecap:butt;stroke-linejoin:miter;stroke-opacity:1" d="M 168.144,496.432 177.065,512.489 z" id="boundary" inkscape:connector-curvature="0" />
	<path style="fill:none;stroke:red;stroke-width:1px;stroke-linecap:butt;stroke-linejoin:miter;stroke-opacity:1" d="M 175.281,70.0144 193.122,66.446 z" id="boundary" inkscape:connector-curvature="0" />
	<path style="fill:none;stroke:red;stroke-width:1px;stroke-linecap:butt;stroke-linejoin:miter;stroke-opacity:1" d="M 177.065,512.489 194.906,514.273 z" id="boundary" inkscape:connector-curvature="0" />
	<path style="fill:none;stroke:red;stroke-width:1px;stroke-linecap:butt;stroke-linejoin:miter;stroke-opacity:1" d="M 193.122,66.446 210.964,61.0935 z" id="boundary" inkscape:connector-curvature="0" />
	<path style="fill:none;stroke:red;stroke-width:1px;stroke-linecap:butt;stroke-linejoin:miter;stroke-opacity:1" d="M 194.906,514.273 212.748,519.626 z" id="boundary" inkscape:connector-curvature="0" />
	<path style="fill:none;stroke:red;stroke-width:1px;stroke-linecap:butt;stroke-linejoin:miter;stroke-opacity:1" d="M 210.964,61.0935 228.806,57.5252 z" id="boundary" inkscape:connector-curvature="0" />
	<path style="fill:none;stroke:red;stroke-width:1px;stroke-linecap:butt;stroke-linejoin:miter;stroke-opacity:1" d="M 212.748,519.626 230.59,523.194 z" id="boundary" inkscape:connector-curvature="0" />
	<path style="fill:none;stroke:red;stroke-width:1px;stroke-linecap:butt;stroke-linejoin:miter;stroke-opacity:1" d="M 228.806,57.5252 246.647,57.5252 z" id="boundary" inkscape:connector-curvature="0" />
	<path style="fill:none;stroke:red;stroke-width:1px;stroke-linecap:butt;stroke-linejoin:miter;stroke-opacity:1" d="M 230.59,523.194 248.432,523.194 z" id="boundary" inkscape:connector-curvature="0" />
	<path style="fill:none;stroke:red;stroke-width:1px;stroke-linecap:butt;stroke-linejoin:miter;stroke-opacity:1" d="M 246.647,57.5252 257.353,41.4676 z" id="boundary" inkscape:connector-curvature="0" />
	<path style="fill:none;stroke:red;stroke-width:1px;stroke-linecap:butt;stroke-linejoin:miter;stroke-opacity:1" d="M 248.432,523.194 257.353,539.252 z" id="boundary" inkscape:connector-curvature="0" />
	<path style="fill:none;stroke:red;stroke-width:1px;stroke-linecap:butt;stroke-linejoin:miter;stroke-opacity:1" d="M 257.353,41.4676 275.194,39.6835 z" id="boundary" inkscape:connector-curvature="0" />
	<path style="fill:none;stroke:red;stroke-width:1px;stroke-linecap:butt;stroke-linejoin:miter;stroke-opacity:1" d="M 257.353,539.252 275.194,541.036 z" id="boundary" inkscape:connector-curvature="0" />
	<path style="fill:none;stroke:red;stroke-width:1px;stroke-linecap:butt;stroke-linejoin:miter;stroke-opacity:1" d="M 275.194,39.6835 293.036,32.5468 z" id="boundary" inkscape:connector-curvature="0" />
	<path style="fill:none;stroke:red;stroke-width:1px;stroke-linecap:butt;stroke-linejoin:miter;stroke-opacity:1" d="M 275.194,541.036 293.036,546.388 z" id="boundary" inkscape:connector-curvature="0" />
	<path style="fill:none;stroke:red;stroke-width:1px;stroke-linecap:butt;stroke-linejoin:miter;stroke-opacity:1" d="M 293.036,32.5468 310.878,30.7626 z" id="boundary" inkscape:connector-curvature="0" />
	<path style="fill:none;stroke:red;stroke-width:1px;stroke-linecap:butt;stroke-linejoin:miter;stroke-opacity:1" d="M 293.036,546.388 310.878,549.957 z" id="boundary" inkscape:connector-curvature="0" />
	<path style="fill:none;stroke:red;stroke-width:1px;stroke-linecap:butt;stroke-linejoin:miter;stroke-opacity:1" d="M 310.878,30.7626 328.719,30.7626 z" id="boundary" inkscape:connector-curvature="0" />
	<path style="fill:none;stroke:red;stroke-width:1px;stroke-linecap:butt;stroke-linejoin:miter;stroke-opacity:1" d="M 310.878,549.957 328.719,549.957 z" id="boundary" inkscape:connector-curvature="0" />
	<path style="fill:none;stroke:red;stroke-width:1px;stroke-linecap:butt;stroke-linejoin:miter;stroke-opacity:1" d="M 328.719,30.7626 346.561,30.7626 z" id="boundary" inkscape:connector-curvature="0" />
	<path style="fill:none;stroke:red;stroke-width:1px;stroke-linecap:butt;stroke-linejoin:miter;stroke-opacity:1" d="M 328.719,549.957 346.561,549.957 z" id="boundary" inkscape:connector-curvature="0" />
	<path style="fill:none;stroke:red;stroke-width:1px;stroke-linecap:butt;stroke-linejoin:miter;stroke-opacity:1" d="M 346.561,30.7626 355.482,14.705 z" id="boundary" inkscape:connector-curvature="0" />
	<path style="fill:none;stroke:red;stroke-width:1px;stroke-linecap:butt;stroke-linejoin:miter;stroke-opacity:1" d="M 346.561,549.957 355.482,566.014 z" id="boundary" inkscape:connector-curvature="0" />
	<path style="fill:none;stroke:red;stroke-width:1px;stroke-linecap:butt;stroke-linejoin:miter;stroke-opacity:1" d="M 355.482,14.705 373.324,12.9209 z" id="boundary" inkscape:connector-curvature="0" />
	<path style="fill:none;stroke:red;stroke-width:1px;stroke-linecap:butt;stroke-linejoin:miter;stroke-opacity:1" d="M 355.482,566.014 373.324,567.799 z" id="boundary" inkscape:connector-curvature="0" />
	<path style="fill:none;stroke:red;stroke-width:1px;stroke-linecap:butt;stroke-linejoin:miter;stroke-opacity:1" d="M 373.324,12.9209 391.165,12.9209 z" id="boundary" inkscape:connector-curvature="0" />
	<path style="fill:none;stroke:red;stroke-width:1px;stroke-linecap:butt;stroke-linejoin:miter;stroke-opacity:1" d="M 373.324,567.799 391.165,567.799 z" id="boundary" inkscape:connector-curvature="0" />
	<path style="fill:none;stroke:red;stroke-width:1px;stroke-linecap:butt;stroke-linejoin:miter;stroke-opacity:1" d="M 391.165,12.9209 409.007,12.9209 z" id="boundary" inkscape:connector-curvature="0" />
	<path style="fill:none;stroke:red;stroke-width:1px;stroke-linecap:butt;stroke-linejoin:miter;stroke-opacity:1" d="M 391.165,567.799 409.007,567.799 z" id="boundary" inkscape:connector-curvature="0" />
	<path style="fill:none;stroke:red;stroke-width:1px;stroke-linecap:butt;stroke-linejoin:miter;stroke-opacity:1" d="M 409.007,12.9209 426.849,12.9209 z" id="boundary" inkscape:connector-curvature="0" />
	<path style="fill:none;stroke:red;stroke-width:1px;stroke-linecap:butt;stroke-linejoin:miter;stroke-opacity:1" d="M 409.007,567.799 426.849,567.799 z" id="boundary" inkscape:connector-curvature="0" />
	<path style="fill:none;stroke:red;stroke-width:1px;stroke-linecap:butt;stroke-linejoin:miter;stroke-opacity:1" d="M 426.849,12.9209 444.691,12.9209 z" id="boundary" inkscape:connector-curvature="0" />
	<path style="fill:none;stroke:red;stroke-width:1px;stroke-linecap:butt;stroke-linejoin:miter;stroke-opacity:1" d="M 426.849,567.799 444.691,567.799 z" id="boundary" inkscape:connector-curvature="0" />
	<path style="fill:none;stroke:red;stroke-width:1px;stroke-linecap:butt;stroke-linejoin:miter;stroke-opacity:1" d="M 444.691,12.9209 460.748,4 z" id="boundary" inkscape:connector-curvature="0" />
	<path style="fill:none;stroke:red;stroke-width:1px;stroke-linecap:butt;stroke-linejoin:miter;stroke-opacity:1" d="M 444.691,567.799 460.748,576.719 z" id="boundary" inkscape:connector-curvature="0" />
	<path style="fill:none;stroke:red;stroke-width:1px;stroke-linecap:butt;stroke-linejoin:miter;stroke-opacity:1" d="M 460.748,4 478.59,4 z" id="boundary" inkscape:connector-curvature="0" />
	<path style="fill:none;stroke:red;stroke-width:1px;stroke-linecap:butt;stroke-linejoin:miter;stroke-opacity:1" d="M 460.748,576.719 478.59,576.719 z" id="boundary" inkscape:connector-curvature="0" />
	<path style="fill:none;stroke:red;stroke-width:1px;stroke-linecap:butt;stroke-linejoin:miter;stroke-opacity:1" d="M 478.59,4 496.432,4 z" id="boundary" inkscape:connector-curvature="0" />
	<path style="fill:none;stroke:red;stroke-width:1px;stroke-linecap:butt;stroke-linejoin:miter;stroke-opacity:1" d="M 478.59,576.719 496.432,576.719 z" id="boundary" inkscape:connector-curvature="0" />
	<path style="fill:none;stroke:red;stroke-width:1px;stroke-linecap:butt;stroke-linejoin:miter;stroke-opacity:1" d="M 496.432,4 514.273,4 z" id="boundary" inkscape:connector-curvature="0" />
	<path style="fill:none;stroke:red;stroke-width:1px;stroke-linecap:butt;stroke-linejoin:miter;stroke-opacity:1" d="M 496.432,576.719 512.489,585.64 z" id="boundary" inkscape:connector-curvature="0" />
	<path style="fill:none;stroke:red;stroke-width:1px;stroke-linecap:butt;stroke-linejoin:miter;stroke-opacity:1" d="M 512.489,585.64 517.842,603.482 z" id="boundary" inkscape:connector-curvature="0" />
	<path style="fill:none;stroke:red;stroke-width:1px;stroke-linecap:butt;stroke-linejoin:miter;stroke-opacity:1" d="M 514.273,4 532.115,4 z" id="boundary" inkscape:connector-curvature="0" />
	<path style="fill:none;stroke:red;stroke-width:1px;stroke-linecap:butt;stroke-linejoin:miter;stroke-opacity:1" d="M 517.842,603.482 533.899,612.403 z" id="boundary" inkscape:connector-curvature="0" />
	<path style="fill:none;stroke:red;stroke-width:1px;stroke-linecap:butt;stroke-linejoin:miter;stroke-opacity:1" d="M 532.115,4 548.173,12.9209 z" id="boundary" inkscape:connector-curvature="0" />
	<path style="fill:none;stroke:red;stroke-width:1px;stroke-linecap:butt;stroke-linejoin:miter;stroke-opacity:1" d="M 533.899,612.403 539.252,630.245 z" id="boundary" inkscape:connector-curvature="0" />
	<path style="fill:none;stroke:red;stroke-width:1px;stroke-linecap:butt;stroke-linejoin:miter;stroke-opacity:1" d="M 539.252,630.245 548.173,646.302 z" id="boundary" inkscape:connector-curvature="0" />
	<path style="fill:none;stroke:red;stroke-width:1px;stroke-linecap:butt;stroke-linejoin:miter;stroke-opacity:1" d="M 548.173,12.9209 566.014,12.9209 z" id="boundary" inkscape:connector-curvature="0" />
	<path style="fill:none;stroke:red;stroke-width:1px;stroke-linecap:butt;stroke-linejoin:miter;stroke-opacity:1" d="M 548.173,646.302 562.446,657.007 z" id="boundary" inkscape:connector-curvature="0" />
	<path style="fill:none;stroke:red;stroke-width:1px;stroke-linecap:butt;stroke-linejoin:miter;stroke-opacity:1" d="M 562.446,657.007 566.014,674.849 z" id="boundary" inkscape:connector-curvature="0" />
	<path style="fill:none;stroke:red;stroke-width:1px;stroke-linecap:butt;stroke-linejoin:miter;stroke-opacity:1" d="M 566.014,12.9209 583.856,12.9209 z" id="boundary" inkscape:connector-curvature="0" />
	<path style="fill:none;stroke:red;stroke-width:1px;stroke-linecap:butt;stroke-linejoin:miter;stroke-opacity:1" d="M 566.014,674.849 576.719,689.122 z" id="boundary" inkscape:connector-curvature="0" />
	<path style="fill:none;stroke:red;stroke-width:1px;stroke-linecap:butt;stroke-linejoin:miter;stroke-opacity:1" d="M 576.719,689.122 592.777,698.043 z" id="boundary" inkscape:connector-curvature="0" />
	<path style="fill:none;stroke:red;stroke-width:1px;stroke-linecap:butt;stroke-linejoin:miter;stroke-opacity:1" d="M 583.856,12.9209 601.698,12.9209 z" id="boundary" inkscape:connector-curvature="0" />
	<path style="fill:none;stroke:red;stroke-width:1px;stroke-linecap:butt;stroke-linejoin:miter;stroke-opacity:1" d="M 592.777,698.043 594.561,715.885 z" id="boundary" inkscape:connector-curvature="0" />
	<path style="fill:none;stroke:red;stroke-width:1px;stroke-linecap:butt;stroke-linejoin:miter;stroke-opacity:1" d="M 594.561,715.885 601.698,733.727 z" id="boundary" inkscape:connector-curvature="0" />
	<path style="fill:none;stroke:red;stroke-width:1px;stroke-linecap:butt;stroke-linejoin:miter;stroke-opacity:1" d="M 601.698,12.9209 619.54,12.9209 z" id="boundary" inkscape:connector-curvature="0" />
	<path style="fill:none;stroke:red;stroke-width:1px;stroke-linecap:butt;stroke-linejoin:miter;stroke-opacity:1" d="M 601.698,733.727 610.619,749.784 z" id="boundary" inkscape:connector-curvature="0" />
	<path style="fill:none;stroke:red;stroke-width:1px;stroke-linecap:butt;stroke-linejoin:miter;stroke-opacity:1" d="M 610.619,749.784 628.46,755.137 z" id="boundary" inkscape:connector-curvature="0" />
	<path style="fill:none;stroke:red;stroke-width:1px;stroke-linecap:butt;stroke-linejoin:miter;stroke-opacity:1" d="M 619.54,12.9209 637.381,16.4892 z" id="boundary" inkscape:connector-curvature="0" />
	<path style="fill:none;stroke:red;stroke-width:1px;stroke-linecap:butt;stroke-linejoin:miter;stroke-opacity:1" d="M 628.46,755.137 628.46,772.978 z" id="boundary" inkscape:connector-curvature="0" />
	<path style="fill:none;stroke:red;stroke-width:1px;stroke-linecap:butt;stroke-linejoin:miter;stroke-opacity:1" d="M 628.46,772.978 637.381,789.036 z" id="boundary" inkscape:connector-curvature="0" />
	<path style="fill:none;stroke:red;stroke-width:1px;stroke-linecap:butt;stroke-linejoin:miter;stroke-opacity:1" d="M 637.381,16.4892 648.086,30.7626 z" id="boundary" inkscape:connector-curvature="0" />
	<path style="fill:none;stroke:red;stroke-width:1px;stroke-linecap:butt;stroke-linejoin:miter;stroke-opacity:1" d="M 637.381,789.036 651.655,799.741 z" id="boundary" inkscape:connector-curvature="0" />
	<path style="fill:none;stroke:red;stroke-width:1px;stroke-linecap:butt;stroke-linejoin:miter;stroke-opacity:1" d="M 648.086,30.7626 665.928,30.7626 z" id="boundary" inkscape:connector-curvature="0" />
	<path style="fill:none;stroke:red;stroke-width:1px;stroke-linecap:butt;stroke-linejoin:miter;stroke-opacity:1" d="M 651.655,799.741 655.223,817.583 z" id="boundary" inkscape:connector-curvature="0" />
	<path style="fill:none;stroke:red;stroke-width:1px;stroke-linecap:butt;stroke-linejoin:miter;stroke-opacity:1" d="M 655.223,817.583 665.928,831.856 z" id="boundary" inkscape:connector-curvature="0" />
	<path style="fill:none;stroke:red;stroke-width:1px;stroke-linecap:butt;stroke-linejoin:miter;stroke-opacity:1" d="M 665.928,30.7626 683.77,30.7626 z" id="boundary" inkscape:connector-curvature="0" />
	<path style="fill:none;stroke:red;stroke-width:1px;stroke-linecap:butt;stroke-linejoin:miter;stroke-opacity:1" d="M 665.928,831.856 681.986,840.777 z" id="boundary" inkscape:connector-curvature="0" />
	<path style="fill:none;stroke:red;stroke-width:1px;stroke-linecap:butt;stroke-linejoin:miter;stroke-opacity:1" d="M 681.986,840.777 683.77,858.619 z" id="boundary" inkscape:connector-curvature="0" />
	<path style="fill:none;stroke:red;stroke-width:1px;stroke-linecap:butt;stroke-linejoin:miter;stroke-opacity:1" d="M 683.77,30.7626 701.612,30.7626 z" id="boundary" inkscape:connector-curvature="0" />
	<path style="fill:none;stroke:red;stroke-width:1px;stroke-linecap:butt;stroke-linejoin:miter;stroke-opacity:1" d="M 683.77,858.619 692.691,874.676 z" id="boundary" inkscape:connector-curvature="0" />
	<path style="fill:none;stroke:red;stroke-width:1px;stroke-linecap:butt;stroke-linejoin:miter;stroke-opacity:1" d="M 692.691,549.957 692.691,567.799 z" id="boundary" inkscape:connector-curvature="0" />
	<path style="fill:none;stroke:red;stroke-width:1px;stroke-linecap:butt;stroke-linejoin:miter;stroke-opacity:1" d="M 692.691,549.957 710.532,541.036 z" id="boundary" inkscape:connector-curvature="0" />
	<path style="fill:none;stroke:red;stroke-width:1px;stroke-linecap:butt;stroke-linejoin:miter;stroke-opacity:1" d="M 692.691,567.799 692.691,585.64 z" id="boundary" inkscape:connector-curvature="0" />
	<path style="fill:none;stroke:red;stroke-width:1px;stroke-linecap:butt;stroke-linejoin:miter;stroke-opacity:1" d="M 692.691,585.64 701.612,601.698 z" id="boundary" inkscape:connector-curvature="0" />
	<path style="fill:none;stroke:red;stroke-width:1px;stroke-linecap:butt;stroke-linejoin:miter;stroke-opacity:1" d="M 692.691,874.676 708.748,883.597 z" id="boundary" inkscape:connector-curvature="0" />
	<path style="fill:none;stroke:red;stroke-width:1px;stroke-linecap:butt;stroke-linejoin:miter;stroke-opacity:1" d="M 701.612,30.7626 717.669,39.6835 z" id="boundary" inkscape:connector-curvature="0" />
	<path style="fill:none;stroke:red;stroke-width:1px;stroke-linecap:butt;stroke-linejoin:miter;stroke-opacity:1" d="M 701.612,601.698 710.532,617.755 z" id="boundary" inkscape:connector-curvature="0" />
	<path style="fill:none;stroke:red;stroke-width:1px;stroke-linecap:butt;stroke-linejoin:miter;stroke-opacity:1" d="M 708.748,883.597 717.669,899.655 z" id="boundary" inkscape:connector-curvature="0" />
	<path style="fill:none;stroke:red;stroke-width:1px;stroke-linecap:butt;stroke-linejoin:miter;stroke-opacity:1" d="M 710.532,541.036 728.374,541.036 z" id="boundary" inkscape:connector-curvature="0" />
	<path style="fill:none;stroke:red;stroke-width:1px;stroke-linecap:butt;stroke-linejoin:miter;stroke-opacity:1" d="M 710.532,617.755 710.532,635.597 z" id="boundary" inkscape:connector-curvature="0" />
	<path style="fill:none;stroke:red;stroke-width:1px;stroke-linecap:butt;stroke-linejoin:miter;stroke-opacity:1" d="M 710.532,635.597 710.532,653.439 z" id="boundary" inkscape:connector-curvature="0" />
	<path style="fill:none;stroke:red;stroke-width:1px;stroke-linecap:butt;stroke-linejoin:miter;stroke-opacity:1" d="M 710.532,653.439 710.532,671.281 z" id="boundary" inkscape:connector-curvature="0" />
	<path style="fill:none;stroke:red;stroke-width:1px;stroke-linecap:butt;stroke-linejoin:miter;stroke-opacity:1" d="M 710.532,671.281 710.532,689.122 z" id="boundary" inkscape:connector-curvature="0" />
	<path style="fill:none;stroke:red;stroke-width:1px;stroke-linecap:butt;stroke-linejoin:miter;stroke-opacity:1" d="M 710.532,689.122 710.532,706.964 z" id="boundary" inkscape:connector-curvature="0" />
	<path style="fill:none;stroke:red;stroke-width:1px;stroke-linecap:butt;stroke-linejoin:miter;stroke-opacity:1" d="M 710.532,706.964 710.532,724.806 z" id="boundary" inkscape:connector-curvature="0" />
	<path style="fill:none;stroke:red;stroke-width:1px;stroke-linecap:butt;stroke-linejoin:miter;stroke-opacity:1" d="M 710.532,724.806 719.453,740.863 z" id="boundary" inkscape:connector-curvature="0" />
	<path style="fill:none;stroke:red;stroke-width:1px;stroke-linecap:butt;stroke-linejoin:miter;stroke-opacity:1" d="M 717.669,39.6835 735.511,39.6835 z" id="boundary" inkscape:connector-curvature="0" />
	<path style="fill:none;stroke:red;stroke-width:1px;stroke-linecap:butt;stroke-linejoin:miter;stroke-opacity:1" d="M 717.669,899.655 726.59,915.712 z" id="boundary" inkscape:connector-curvature="0" />
	<path style="fill:none;stroke:red;stroke-width:1px;stroke-linecap:butt;stroke-linejoin:miter;stroke-opacity:1" d="M 719.453,740.863 719.453,758.705 z" id="boundary" inkscape:connector-curvature="0" />
	<path style="fill:none;stroke:red;stroke-width:1px;stroke-linecap:butt;stroke-linejoin:miter;stroke-opacity:1" d="M 719.453,758.705 719.453,776.547 z" id="boundary" inkscape:connector-curvature="0" />
	<path style="fill:none;stroke:red;stroke-width:1px;stroke-linecap:butt;stroke-linejoin:miter;stroke-opacity:1" d="M 719.453,776.547 719.453,794.388 z" id="boundary" inkscape:connector-curvature="0" />
	<path style="fill:none;stroke:red;stroke-width:1px;stroke-linecap:butt;stroke-linejoin:miter;stroke-opacity:1" d="M 719.453,794.388 719.453,812.23 z" id="boundary" inkscape:connector-curvature="0" />
	<path style="fill:none;stroke:red;stroke-width:1px;stroke-linecap:butt;stroke-linejoin:miter;stroke-opacity:1" d="M 719.453,812.23 719.453,830.072 z" id="boundary" inkscape:connector-curvature="0" />
	<path style="fill:none;stroke:red;stroke-width:1px;stroke-linecap:butt;stroke-linejoin:miter;stroke-opacity:1" d="M 719.453,830.072 728.374,846.129 z" id="boundary" inkscape:connector-curvature="0" />
	<path style="fill:none;stroke:red;stroke-width:1px;stroke-linecap:butt;stroke-linejoin:miter;stroke-opacity:1" d="M 726.59,915.712 737.295,897.871 z" id="boundary" inkscape:connector-curvature="0" />
	<path style="fill:none;stroke:red;stroke-width:1px;stroke-linecap:butt;stroke-linejoin:miter;stroke-opacity:1" d="M 728.374,541.036 746.216,523.194 z" id="boundary" inkscape:connector-curvature="0" />
	<path style="fill:none;stroke:red;stroke-width:1px;stroke-linecap:butt;stroke-linejoin:miter;stroke-opacity:1" d="M 728.374,846.129 737.295,862.187 z" id="boundary" inkscape:connector-curvature="0" />
	<path style="fill:none;stroke:red;stroke-width:1px;stroke-linecap:butt;stroke-linejoin:miter;stroke-opacity:1" d="M 735.511,39.6835 746.216,53.9568 z" id="boundary" inkscape:connector-curvature="0" />
	<path style="fill:none;stroke:red;stroke-width:1px;stroke-linecap:butt;stroke-linejoin:miter;stroke-opacity:1" d="M 737.295,862.187 737.295,880.029 z" id="boundary" inkscape:connector-curvature="0" />
	<path style="fill:none;stroke:red;stroke-width:1px;stroke-linecap:butt;stroke-linejoin:miter;stroke-opacity:1" d="M 737.295,880.029 737.295,897.871 z" id="boundary" inkscape:connector-curvature="0" />
	<path style="fill:none;stroke:red;stroke-width:1px;stroke-linecap:butt;stroke-linejoin:miter;stroke-opacity:1" d="M 746.216,53.9568 764.058,57.5252 z" id="boundary" inkscape:connector-curvature="0" />
	<path style="fill:none;stroke:red;stroke-width:1px;stroke-linecap:butt;stroke-linejoin:miter;stroke-opacity:1" d="M 746.216,523.194 764.058,523.194 z" id="boundary" inkscape:connector-curvature="0" />
	<path style="fill:none;stroke:red;stroke-width:1px;stroke-linecap:butt;stroke-linejoin:miter;stroke-opacity:1" d="M 764.058,57.5252 781.899,62.8777 z" id="boundary" inkscape:connector-curvature="0" />
	<path style="fill:none;stroke:red;stroke-width:1px;stroke-linecap:butt;stroke-linejoin:miter;stroke-opacity:1" d="M 764.058,523.194 781.899,523.194 z" id="boundary" inkscape:connector-curvature="0" />
	<path style="fill:none;stroke:red;stroke-width:1px;stroke-linecap:butt;stroke-linejoin:miter;stroke-opacity:1" d="M 781.899,62.8777 799.741,66.446 z" id="boundary" inkscape:connector-curvature="0" />
	<path style="fill:none;stroke:red;stroke-width:1px;stroke-linecap:butt;stroke-linejoin:miter;stroke-opacity:1" d="M 781.899,523.194 799.741,514.273 z" id="boundary" inkscape:connector-curvature="0" />
	<path style="fill:none;stroke:red;stroke-width:1px;stroke-linecap:butt;stroke-linejoin:miter;stroke-opacity:1" d="M 799.741,66.446 817.583,66.446 z" id="boundary" inkscape:connector-curvature="0" />
	<path style="fill:none;stroke:red;stroke-width:1px;stroke-linecap:butt;stroke-linejoin:miter;stroke-opacity:1" d="M 799.741,514.273 817.583,514.273 z" id="boundary" inkscape:connector-curvature="0" />
	<path style="fill:none;stroke:red;stroke-width:1px;stroke-linecap:butt;stroke-linejoin:miter;stroke-opacity:1" d="M 817.583,66.446 826.504,82.5036 z" id="boundary" inkscape:connector-curvature="0" />
	<path style="fill:none;stroke:red;stroke-width:1px;stroke-linecap:butt;stroke-linejoin:miter;stroke-opacity:1" d="M 817.583,514.273 826.504,496.432 z" id="boundary" inkscape:connector-curvature="0" />
	<path style="fill:none;stroke:red;stroke-width:1px;stroke-linecap:butt;stroke-linejoin:miter;stroke-opacity:1" d="M 826.504,82.5036 844.345,84.2878 z" id="boundary" inkscape:connector-curvature="0" />
	<path style="fill:none;stroke:red;stroke-width:1px;stroke-linecap:butt;stroke-linejoin:miter;stroke-opacity:1" d="M 826.504,496.432 844.345,496.432 z" id="boundary" inkscape:connector-curvature="0" />
	<path style="fill:none;stroke:red;stroke-width:1px;stroke-linecap:butt;stroke-linejoin:miter;stroke-opacity:1" d="M 844.345,84.2878 860.403,93.2086 z" id="boundary" inkscape:connector-curvature="0" />
	<path style="fill:none;stroke:red;stroke-width:1px;stroke-linecap:butt;stroke-linejoin:miter;stroke-opacity:1" d="M 844.345,496.432 858.619,483.942 z" id="boundary" inkscape:connector-curvature="0" />
	<path style="fill:none;stroke:red;stroke-width:1px;stroke-linecap:butt;stroke-linejoin:miter;stroke-opacity:1" d="M 858.619,483.942 869.324,469.669 z" id="boundary" inkscape:connector-curvature="0" />
	<path style="fill:none;stroke:red;stroke-width:1px;stroke-linecap:butt;stroke-linejoin:miter;stroke-opacity:1" d="M 860.403,93.2086 878.245,96.777 z" id="boundary" inkscape:connector-curvature="0" />
	<path style="fill:none;stroke:red;stroke-width:1px;stroke-linecap:butt;stroke-linejoin:miter;stroke-opacity:1" d="M 869.324,469.669 885.381,460.748 z" id="boundary" inkscape:connector-curvature="0" />
	<path style="fill:none;stroke:red;stroke-width:1px;stroke-linecap:butt;stroke-linejoin:miter;stroke-opacity:1" d="M 878.245,96.777 896.086,102.129 z" id="boundary" inkscape:connector-curvature="0" />
	<path style="fill:none;stroke:red;stroke-width:1px;stroke-linecap:butt;stroke-linejoin:miter;stroke-opacity:1" d="M 885.381,460.748 903.223,457.18 z" id="boundary" inkscape:connector-curvature="0" />
	<path style="fill:none;stroke:red;stroke-width:1px;stroke-linecap:butt;stroke-linejoin:miter;stroke-opacity:1" d="M 896.086,102.129 906.791,116.403 z" id="boundary" inkscape:connector-curvature="0" />
	<path style="fill:none;stroke:red;stroke-width:1px;stroke-linecap:butt;stroke-linejoin:miter;stroke-opacity:1" d="M 903.223,457.18 912.144,439.338 z" id="boundary" inkscape:connector-curvature="0" />
	<path style="fill:none;stroke:red;stroke-width:1px;stroke-linecap:butt;stroke-linejoin:miter;stroke-opacity:1" d="M 906.791,116.403 919.281,130.676 z" id="boundary" inkscape:connector-curvature="0" />
	<path style="fill:none;stroke:red;stroke-width:1px;stroke-linecap:butt;stroke-linejoin:miter;stroke-opacity:1" d="M 912.144,439.338 924.633,416.144 z" id="boundary" inkscape:connector-curvature="0" />
	<path style="fill:none;stroke:red;stroke-width:1px;stroke-linecap:butt;stroke-linejoin:miter;stroke-opacity:1" d="M 919.281,130.676 924.633,148.518 z" id="boundary" inkscape:connector-curvature="0" />
	<path style="fill:none;stroke:red;stroke-width:1px;stroke-linecap:butt;stroke-linejoin:miter;stroke-opacity:1" d="M 924.633,148.518 938.906,159.223 z" id="boundary" inkscape:connector-curvature="0" />
	<path style="fill:none;stroke:red;stroke-width:1px;stroke-linecap:butt;stroke-linejoin:miter;stroke-opacity:1" d="M 924.633,416.144 942.475,398.302 z" id="boundary" inkscape:connector-curvature="0" />
	<path style="fill:none;stroke:red;stroke-width:1px;stroke-linecap:butt;stroke-linejoin:miter;stroke-opacity:1" d="M 938.906,159.223 947.827,175.281 z" id="boundary" inkscape:connector-curvature="0" />
	<path style="fill:none;stroke:red;stroke-width:1px;stroke-linecap:butt;stroke-linejoin:miter;stroke-opacity:1" d="M 942.475,398.302 951.396,380.46 z" id="boundary" inkscape:connector-curvature="0" />
	<path style="fill:none;stroke:red;stroke-width:1px;stroke-linecap:butt;stroke-linejoin:miter;stroke-opacity:1" d="M 947.827,175.281 951.396,193.122 z" id="boundary" inkscape:connector-curvature="0" />
	<path style="fill:none;stroke:red;stroke-width:1px;stroke-linecap:butt;stroke-linejoin:miter;stroke-opacity:1" d="M 951.396,193.122 965.669,203.827 z" id="boundary" inkscape:connector-curvature="0" />
	<path style="fill:none;stroke:red;stroke-width:1px;stroke-linecap:butt;stroke-linejoin:miter;stroke-opacity:1" d="M 951.396,380.46 969.237,371.54 z" id="boundary" inkscape:connector-curvature="0" />
	<path style="fill:none;stroke:red;stroke-width:1px;stroke-linecap:butt;stroke-linejoin:miter;stroke-opacity:1" d="M 965.669,203.827 969.237,221.669 z" id="boundary" inkscape:connector-curvature="0" />
	<path style="fill:none;stroke:red;stroke-width:1px;stroke-linecap:butt;stroke-linejoin:miter;stroke-opacity:1" d="M 969.237,221.669 978.158,237.727 z" id="boundary" inkscape:connector-curvature="0" />
	<path style="fill:none;stroke:red;stroke-width:1px;stroke-linecap:butt;stroke-linejoin:miter;stroke-opacity:1" d="M 969.237,353.698 969.237,371.54 z" id="boundary" inkscape:connector-curvature="0" />
	<path style="fill:none;stroke:red;stroke-width:1px;stroke-linecap:butt;stroke-linejoin:miter;stroke-opacity:1" d="M 969.237,353.698 978.158,335.856 z" id="boundary" inkscape:connector-curvature="0" />
	<path style="fill:none;stroke:red;stroke-width:1px;stroke-linecap:butt;stroke-linejoin:miter;stroke-opacity:1" d="M 978.158,237.727 978.158,255.568 z" id="boundary" inkscape:connector-curvature="0" />
	<path style="fill:none;stroke:red;stroke-width:1px;stroke-linecap:butt;stroke-linejoin:miter;stroke-opacity:1" d="M 978.158,255.568 992.432,266.273 z" id="boundary" inkscape:connector-curvature="0" />
	<path style="fill:none;stroke:red;stroke-width:1px;stroke-linecap:butt;stroke-linejoin:miter;stroke-opacity:1" d="M 978.158,300.173 978.158,318.014 z" id="boundary" inkscape:connector-curvature="0" />
	<path style="fill:none;stroke:red;stroke-width:1px;stroke-linecap:butt;stroke-linejoin:miter;stroke-opacity:1" d="M 978.158,300.173 996,284.115 z" id="boundary" inkscape:connector-curvature="0" />
	<path style="fill:none;stroke:red;stroke-width:1px;stroke-linecap:butt;stroke-linejoin:miter;stroke-opacity:1" d="M 978.158,318.014 978.158,335.856 z" id="boundary" inkscape:connector-curvature="0" />
	<path style="fill:none;stroke:red;stroke-width:1px;stroke-linecap:butt;stroke-linejoin:miter;stroke-opacity:1" d="M 992.432,266.273 996,284.115 z" id="boundary" inkscape:connector-curvature="0" />
	<circle cx="4" cy="268.058" r="4" fill="#0" id="circle0"/>
	<circle cx="4" cy="285.899" r="4" fill="#0" id="circle1"/>
	<circle cx="4" cy="303.741" r="4" fill="#0" id="circle2"/>
	<circle cx="12.9209" cy="232.374" r="4" fill="#0" id="circle3"/>
	<circle cx="12.9209" cy="250.216" r="4" fill="#0" id="circle4"/>
	<circle cx="12.9209" cy="319.799" r="4" fill="#0" id="circle5"/>
	<circle cx="12.9209" cy="337.64" r="4" fill="#0" id="circle6"/>
	<circle cx="21.8417" cy="353.698" r="4" fill="#0" id="circle7"/>
	<circle cx="30.7626" cy="205.612" r="4" fill="#0" id="circle8"/>
	<circle cx="30.7626" cy="223.453" r="4" fill="#0" id="circle9"/>
	<circle cx="30.7626" cy="369.755" r="4" fill="#0" id="circle10"/>
	<circle cx="39.6835" cy="178.849" r="4" fill="#0" id="circle11"/>
	<circle cx="39.6835" cy="385.813" r="4" fill="#0" id="circle12"/>
	<circle cx="41.4676" cy="403.655" r="4" fill="#0" id="circle13"/>
	<circle cx="57.5252" cy="161.007" r="4" fill="#0" id="circle14"/>
	<circle cx="59.3094" cy="410.791" r="4" fill="#0" id="circle15"/>
	<circle cx="66.446" cy="134.245" r="4" fill="#0" id="circle16"/>
	<circle cx="66.446" cy="428.633" r="4" fill="#0" id="circle17"/>
	<circle cx="84.2878" cy="125.324" r="4" fill="#0" id="circle18"/>
	<circle cx="84.2878" cy="433.986" r="4" fill="#0" id="circle19"/>
	<circle cx="93.2086" cy="107.482" r="4" fill="#0" id="circle20"/>
	<circle cx="93.2086" cy="450.043" r="4" fill="#0" id="circle21"/>
	<circle cx="107.482" cy="460.748" r="4" fill="#0" id="circle22"/>
	<circle cx="111.05" cy="102.129" r="4" fill="#0" id="circle23"/>
	<circle cx="123.54" cy="469.669" r="4" fill="#0" id="circle24"/>
	<circle cx="127.108" cy="93.2086" r="4" fill="#0" id="circle25"/>
	<circle cx="132.46" cy="485.727" r="4" fill="#0" id="circle26"/>
	<circle cx="144.95" cy="93.2086" r="4" fill="#0" id="circle27"/>
	<circle cx="150.302" cy="492.863" r="4" fill="#0" id="circle28"/>
	<circle cx="161.007" cy="84.2878" r="4" fill="#0" id="circle29"/>
	<circle cx="168.144" cy="496.432" r="4" fill="#0" id="circle30"/>
	<circle cx="175.281" cy="70.0144" r="4" fill="#0" id="circle31"/>
	<circle cx="177.065" cy="512.489" r="4" fill="#0" id="circle32"/>
	<circle cx="193.122" cy="66.446" r="4" fill="#0" id="circle33"/>
	<circle cx="194.906" cy="514.273" r="4" fill="#0" id="circle34"/>
	<circle cx="210.964" cy="61.0935" r="4" fill="#0" id="circle35"/>
	<circle cx="212.748" cy="519.626" r="4" fill="#0" id="circle36"/>
	<circle cx="228.806" cy="57.5252" r="4" fill="#0" id="circle37"/>
	<circle cx="230.59" cy="523.194" r="4" fill="#0" id="circle38"/>
	<circle cx="246.647" cy="57.5252" r="4" fill="#0" id="circle39"/>
	<circle cx="248.432" cy="523.194" r="4" fill="#0" id="circle40"/>
	<circle cx="257.353" cy="41.4676" r="4" fill="#0" id="circle41"/>
	<circle cx="257.353" cy="539.252" r="4" fill="#0" id="circle42"/>
	<circle cx="275.194" cy="39.6835" r="4" fill="#0" id="circle43"/>
	<circle cx="275.194" cy="541.036" r="4" fill="#0" id="circle44"/>
	<circle cx="293.036" cy="32.5468" r="4" fill="#0" id="circle45"/>
	<circle cx="293.036" cy="546.388" r="4" fill="#0" id="circle46"/>
	<circle cx="310.878" cy="30.7626" r="4" fill="#0" id="circle47"/>
	<circle cx="310.878" cy="549.957" r="4" fill="#0" id="circle48"/>
	<circle cx="328.719" cy="30.7626" r="4" fill="#0" id="circle49"/>
	<circle cx="328.719" cy="549.957" r="4" fill="#0" id="circle50"/>
	<circle cx="346.561" cy="30.7626" r="4" fill="#0" id="circle51"/>
	<circle cx="346.561" cy="549.957" r="4" fill="#0" id="circle52"/>
	<circle cx="355.482" cy="14.705" r="4" fill="#0" id="circle53"/>
	<circle cx="355.482" cy="566.014" r="4" fill="#0" id="circle54"/>
	<circle cx="373.324" cy="12.9209" r="4" fill="#0" id="circle55"/>
	<circle cx="373.324" cy="567.799" r="4" fill="#0" id="circle56"/>
	<circle cx="391.165" cy="12.9209" r="4" fill="#0" id="circle57"/>
	<circle cx="391.165" cy="567.799" r="4" fill="#0" id="circle58"/>
	<circle cx="409.007" cy="12.9209" r="4" fill="#0" id="circle59"/>
	<circle cx="409.007" cy="567.799" r="4" fill="#0" id="circle60"/>
	<circle cx="426.849" cy="12.9209" r="4" fill="#0" id="circle61"/>
	<circle cx="426.849" cy="567.799" r="4" fill="#0" id="circle62"/>
	<circle cx="444.691" cy="12.9209" r="4" fill="#0" id="circle63"/>
	<circle cx="444.691" cy="567.799" r="4" fill="#0" id="circle64"/>
	<circle cx="460.748" cy="4" r="4" fill="#0" id="circle65"/>
	<circle cx="460.748" cy="576.719" r="4" fill="#0" id="circle66"/>
	<circle cx="478.59" cy="4" r="4" fill="#0" id="circle67"/>
	<circle cx="478.59" cy="576.719" r="4" fill="#0" id="circle68"/>
	<circle cx="496.432" cy="4" r="4" fill="#0" id="circle69"/>
	<circle cx="496.432" cy="576.719" r="4" fill="#0" id="circle70"/>
	<circle cx="512.489" cy="585.64" r="4" fill="#0" id="circle71"/>
	<circle cx="514.273" cy="4" r="4" fill="#0" id="circle72"/>
	<circle cx="517.842" cy="603.482" r="4" fill="#0" id="circle73"/>
	<circle cx="532.115" cy="4" r="4" fill="#0" id="circle74"/>
	<circle cx="533.899" cy="612.403" r="4" fill="#0" id="circle75"/>
	<circle cx="539.252" cy="630.245" r="4" fill="#0" id="circle76"/>
	<circle cx="548.173" cy="12.9209" r="4" fill="#0" id="circle77"/>
	<circle cx="548.173" cy="646.302" r="4" fill="#0" id="circle78"/>
	<circle cx="562.446" cy="657.007" r="4" fill="#0" id="circle79"/>
	<circle cx="566.014" cy="12.9209" r="4" fill="#0" id="circle80"/>
	<circle cx="566.014" cy="674.849" r="4" fill="#0" id="circle81"/>
	<circle cx="576.719" cy="689.122" r="4" fill="#0" id="circle82"/>
	<circle cx="583.856" cy="12.9209" r="4" fill="#0" id="circle83"/>
	<circle cx="592.777" cy="698.043" r="4" fill="#0" id="circle84"/>
	<circle cx="594.561" cy="715.885" r="4" fill="#0" id="circle85"/>
	<circle cx="601.698" cy="12.9209" r="4" fill="#0" id="circle86"/>
	<circle cx="601.698" cy="733.727" r="4" fill="#0" id="circle87"/>
	<circle cx="610.619" cy="749.784" r="4" fill="#0" id="circle88"/>
	<circle cx="619.54" cy="12.9209" r="4" fill="#0" id="circle89"/>
	<circle cx="628.46" cy="755.137" r="4" fill="#0" id="circle90"/>
	<circle cx="628.46" cy="772.978" r="4" fill="#0" id="circle91"/>
	<circle cx="637.381" cy="16.4892" r="4" fill="#0" id="circle92"/>
	<circle cx="637.381" cy="789.036" r="4" fill="#0" id="circle93"/>
	<circle cx="648.086" cy="30.7626" r="4" fill="#0" id="circle94"/>
	<circle cx="651.655" cy="799.741" r="4" fill="#0" id="circle95"/>
	<circle cx="655.223" cy="817.583" r="4" fill="#0" id="circle96"/>
	<circle cx="665.928" cy="30.7626" r="4" fill="#0" id="circle97"/>
	<circle cx="665.928" cy="831.856" r="4" fill="#0" id="circle98"/>
	<circle cx="681.986" cy="840.777" r="4" fill="#0" id="circle99"/>
	<circle cx="683.77" cy="30.7626" r="4" fill="#0" id="circle100"/>
	<circle cx="683.77" cy="858.619" r="4" fill="#0" id="circle101"/>
	<circle cx="692.691" cy="549.957" r="4" fill="#0" id="circle102"/>
	<circle cx="692.691" cy="567.799" r="4" fill="#0" id="circle103"/>
	<circle cx="692.691" cy="585.64" r="4" fill="#0" id="circle104"/>
	<circle cx="692.691" cy="874.676" r="4" fill="#0" id="circle105"/>
	<circle cx="701.612" cy="30.7626" r="4" fill="#0" id="circle106"/>
	<circle cx="701.612" cy="601.698" r="4" fill="#0" id="circle107"/>
	<circle cx="708.748" cy="883.597" r="4" fill="#0" id="circle108"/>
	<circle cx="710.532" cy="541.036" r="4" fill="#0" id="circle109"/>
	<circle cx="710.532" cy="617.755" r="4" fill="#0" id="circle110"/>
	<circle cx="710.532" cy="635.597" r="4" fill="#0" id="circle111"/>
	<circle cx="710.532" cy="653.439" r="4" fill="#0" id="circle112"/>
	<circle cx="710.532" cy="671.281" r="4" fill="#0" id="circle113"/>
	<circle cx="710.532" cy="689.122" r="4" fill="#0" id="circle114"/>
	<circle cx="710.532" cy="706.964" r="4" fill="#0" id="circle115"/>
	<circle cx="710.532" cy="724.806" r="4" fill="#0" id="circle116"/>
	<circle cx="717.669" cy="39.6835" r="4" fill="#0" id="circle117"/>
	<circle cx="717.669" cy="899.655" r="4" fill="#0" id="circle118"/>
	<circle cx="719.453" cy="740.863" r="4" fill="#0" id="circle119"/>
	<circle cx="719.453" cy="758.705" r="4" fill="#0" id="circle120"/>
	<circle cx="719.453" cy="776.547" r="4" fill="#0" id="circle121"/>
	<circle cx="719.453" cy="794.388" r="4" fill="#0" id="circle122"/>
	<circle cx="719.453" cy="812.23" r="4" fill="#0" id="circle123"/>
	<circle cx="719.453" cy="830.072" r="4" fill="#0" id="circle124"/>
	<circle cx="726.59" cy="915.712" r="4" fill="#0" id="circle125"/>
	<circle cx="728.374" cy="541.036" r="4" fill="#0" id="circle126"/>
	<circle cx="728.374" cy="846.129" r="4" fill="#0" id="circle127"/>
	<circle cx="735.511" cy="39.6835" r="4" fill="#0" id="circle128"/>
	<circle cx="737.295" cy="862.187" r="4" fill="#0" id="circle129"/>
	<circle cx="737.295" cy="880.029" r="4" fill="#0" id="circle130"/>
	<circle cx="737.295" cy="897.871" r="4" fill="#0" id="circle131"/>
	<circle cx="746.216" cy="53.9568" r="4" fill="#0" id="circle132"/>
	<circle cx="746.216" cy="523.194" r="4" fill="#0" id="circle133"/>
	<circle cx="764.058" cy="57.5252" r="4" fill="#0" id="circle134"/>
	<circle cx="764.058" cy="523.194" r="4" fill="#0" id="circle135"/>
	<circle cx="781.899" cy="62.8777" r="4" fill="#0" id="circle136"/>
	<circle cx="781.899" cy="523.194" r="4" fill="#0" id="circle137"/>
	<circle cx="799.741" cy="66.446" r="4" fill="#0" id="circle138"/>
	<circle cx="799.741" cy="514.273" r="4" fill="#0" id="circle139"/>
	<circle cx="817.583" cy="66.446" r="4" fill="#0" id="circle140"/>
	<circle cx="817.583" cy="514.273" r="4" fill="#0" id="circle141"/>
	<circle cx="826.504" cy="82.5036" r="4" fill="#0" id="circle142"/>
	<circle cx="826.504" cy="496.432" r="4" fill="#0" id="circle143"/>
	<circle cx="844.345" cy="84.2878" r="4" fill="#0" id="circle144"/>
	<circle cx="844.345" cy="496.432" r="4" fill="#0" id="circle145"/>
	<circle cx="858.619" cy="483.942" r="4" fill="#0" id="circle146"/>
	<circle cx="860.403" cy="93.2086" r="4" fill="#0" id="circle147"/>
	<circle cx="869.324" cy="469.669" r="4" fill="#0" id="circle148"/>
	<circle cx="878.245" cy="96.777" r="4" fill="#0" id="circle149"/>
	<circle cx="885.381" cy="460.748" r="4" fill="#0" id="circle150"/>
	<circle cx="896.086" cy="102.129" r="4" fill="#0" id="circle151"/>
	<circle cx="903.223" cy="457.18" r="4" fill="#0" id="circle152"/>
	<circle cx="906.791" cy="116.403" r="4" fill="#0" id="circle153"/>
	<circle cx="912.144" cy="439.338" r="4" fill="#0" id="circle154"/>
	<circle cx="919.281" cy="130.676" r="4" fill="#0" id="circle155"/>
	<circle cx="924.633" cy="148.518" r="4" fill="#0" id="circle156"/>
	<circle cx="924.633" cy="416.144" r="4" fill="#0" id="circle157"/>
	<circle cx="938.906" cy="159.223" r="4" fill="#0" id="circle158"/>
	<circle cx="942.475" cy="398.302" r="4" fill="#0" id="circle159"/>
	<circle cx="947.827" cy="175.281" r="4" fill="#0" id="circle160"/>
	<circle cx="951.396" cy="193.122" r="4" fill="#0" id="circle161"/>
	<circle cx="951.396" cy="380.46" r="4" fill="#0" id="circle162"/>
	<circle cx="965.669" cy="203.827" r="4" fill="#0" id="circle163"/>
	<circle cx="969.237" cy="221.669" r="4" fill="#0" id="circle164"/>
	<circle cx="969.237" cy="353.698" r="4" fill="#0" id="circle165"/>
	<circle cx="969.237" cy="371.54" r="4" fill="#0" id="circle166"/>
	<circle cx="978.158" cy="237.727" r="4" fill="#0" id="circle167"/>
	<circle cx="978.158" cy="255.568" r="4" fill="#0" id="circle168"/>
	<circle cx="978.158" cy="300.173" r="4" fill="#0" id="circle169"/>
	<circle cx="978.158" cy="318.014" r="4" fill="#0" id="circle170"/>
	<circle cx="978.158" cy="335.856" r="4" fill="#0" id="circle171"/>
	<circle cx="992.432" cy="266.273" r="4" fill="#0" id="circle172"/>
	<circle cx="996" cy="284.115" r="4" fill="#0" id="circle173"/>
	</g>
</svg>