<?xml version="1.0" encoding="UTF-8" standalone="no"?>
<!-- Created with CurveBenchmark -->
<svg
	xmlns:dc="http://purl.org/dc/elements/1.1/"
	xmlns:cc="http://creativecommons.org/ns#"
	xmlns:rdf="http://www.w3.org/1999/02/22-rdf-syntax-ns#"
	xmlns:svg="http://www.w3.org/2000/svg"
	xmlns="http://www.w3.org/2000/svg"
	xmlns:sodipodi="http://sodipodi.sourceforge.net/DTD/sodipodi-0.dtd"
	xmlns:inkscape="http://www.inkscape.org/namespaces/inkscape"
	width="1000"
	height="1000"
	id="svg2"
	version="1.1"
	sodipodi:docname="manifold/fitconnect-teddy125.png.txt">
<defs
	id="defs4" />
<metadata
	id="metadata7">
	<rdf:RDF>
		<cc:Work
			rdf:about="">
			<dc:format>image/svg+xml</dc:format>
			<dc:type
				rdf:resource="http://purl.org/dc/dcmitype/StillImage" />
			<dc:title></dc:title>
		</cc:Work>
	</rdf:RDF>
</metadata>
<g
	inkscape:label="Layer 1"
	inkscape:groupmode="layer"
	id="layer1">
	<path style="fill:none;stroke:red;stroke-width:1px;stroke-linecap:butt;stroke-linejoin:miter;stroke-opacity:1" d="M 4,218.792 4,247.054 z" id="boundary" inkscape:connector-curvature="0" />
	<path style="fill:none;stroke:red;stroke-width:1px;stroke-linecap:butt;stroke-linejoin:miter;stroke-opacity:1" d="M 4,218.792 9.65242,184.877 z" id="boundary" inkscape:connector-curvature="0" />
	<path style="fill:none;stroke:red;stroke-width:1px;stroke-linecap:butt;stroke-linejoin:miter;stroke-opacity:1" d="M 4,247.054 4,275.316 z" id="boundary" inkscape:connector-curvature="0" />
	<path style="fill:none;stroke:red;stroke-width:1px;stroke-linecap:butt;stroke-linejoin:miter;stroke-opacity:1" d="M 4,275.316 9.65242,303.578 z" id="boundary" inkscape:connector-curvature="0" />
	<path style="fill:none;stroke:red;stroke-width:1px;stroke-linecap:butt;stroke-linejoin:miter;stroke-opacity:1" d="M 9.65242,184.877 20.9573,156.615 z" id="boundary" inkscape:connector-curvature="0" />
	<path style="fill:none;stroke:red;stroke-width:1px;stroke-linecap:butt;stroke-linejoin:miter;stroke-opacity:1" d="M 9.65242,303.578 23.7835,329.014 z" id="boundary" inkscape:connector-curvature="0" />
	<path style="fill:none;stroke:red;stroke-width:1px;stroke-linecap:butt;stroke-linejoin:miter;stroke-opacity:1" d="M 20.9573,156.615 32.2621,128.353 z" id="boundary" inkscape:connector-curvature="0" />
	<path style="fill:none;stroke:red;stroke-width:1px;stroke-linecap:butt;stroke-linejoin:miter;stroke-opacity:1" d="M 23.7835,329.014 40.7407,351.624 z" id="boundary" inkscape:connector-curvature="0" />
	<path style="fill:none;stroke:red;stroke-width:1px;stroke-linecap:butt;stroke-linejoin:miter;stroke-opacity:1" d="M 32.2621,128.353 49.2194,105.744 z" id="boundary" inkscape:connector-curvature="0" />
	<path style="fill:none;stroke:red;stroke-width:1px;stroke-linecap:butt;stroke-linejoin:miter;stroke-opacity:1" d="M 40.7407,351.624 54.8718,377.06 z" id="boundary" inkscape:connector-curvature="0" />
	<path style="fill:none;stroke:red;stroke-width:1px;stroke-linecap:butt;stroke-linejoin:miter;stroke-opacity:1" d="M 49.2194,105.744 71.8291,83.1339 z" id="boundary" inkscape:connector-curvature="0" />
	<path style="fill:none;stroke:red;stroke-width:1px;stroke-linecap:butt;stroke-linejoin:miter;stroke-opacity:1" d="M 54.8718,377.06 60.5242,416.627 z" id="boundary" inkscape:connector-curvature="0" />
	<path style="fill:none;stroke:red;stroke-width:1px;stroke-linecap:butt;stroke-linejoin:miter;stroke-opacity:1" d="M 54.8718,631.419 54.8718,659.681 z" id="boundary" inkscape:connector-curvature="0" />
	<path style="fill:none;stroke:red;stroke-width:1px;stroke-linecap:butt;stroke-linejoin:miter;stroke-opacity:1" d="M 54.8718,631.419 60.5242,597.504 z" id="boundary" inkscape:connector-curvature="0" />
	<path style="fill:none;stroke:red;stroke-width:1px;stroke-linecap:butt;stroke-linejoin:miter;stroke-opacity:1" d="M 54.8718,659.681 54.8718,687.943 z" id="boundary" inkscape:connector-curvature="0" />
	<path style="fill:none;stroke:red;stroke-width:1px;stroke-linecap:butt;stroke-linejoin:miter;stroke-opacity:1" d="M 54.8718,687.943 54.8718,716.205 z" id="boundary" inkscape:connector-curvature="0" />
	<path style="fill:none;stroke:red;stroke-width:1px;stroke-linecap:butt;stroke-linejoin:miter;stroke-opacity:1" d="M 54.8718,716.205 54.8718,744.467 z" id="boundary" inkscape:connector-curvature="0" />
	<path style="fill:none;stroke:red;stroke-width:1px;stroke-linecap:butt;stroke-linejoin:miter;stroke-opacity:1" d="M 54.8718,744.467 54.8718,772.729 z" id="boundary" inkscape:connector-curvature="0" />
	<path style="fill:none;stroke:red;stroke-width:1px;stroke-linecap:butt;stroke-linejoin:miter;stroke-opacity:1" d="M 54.8718,772.729 71.8291,795.339 z" id="boundary" inkscape:connector-curvature="0" />
	<path style="fill:none;stroke:red;stroke-width:1px;stroke-linecap:butt;stroke-linejoin:miter;stroke-opacity:1" d="M 60.5242,416.627 63.3504,444.889 z" id="boundary" inkscape:connector-curvature="0" />
	<path style="fill:none;stroke:red;stroke-width:1px;stroke-linecap:butt;stroke-linejoin:miter;stroke-opacity:1" d="M 60.5242,540.98 60.5242,569.242 z" id="boundary" inkscape:connector-curvature="0" />
	<path style="fill:none;stroke:red;stroke-width:1px;stroke-linecap:butt;stroke-linejoin:miter;stroke-opacity:1" d="M 60.5242,540.98 66.1766,501.413 z" id="boundary" inkscape:connector-curvature="0" />
	<path style="fill:none;stroke:red;stroke-width:1px;stroke-linecap:butt;stroke-linejoin:miter;stroke-opacity:1" d="M 60.5242,569.242 60.5242,597.504 z" id="boundary" inkscape:connector-curvature="0" />
	<path style="fill:none;stroke:red;stroke-width:1px;stroke-linecap:butt;stroke-linejoin:miter;stroke-opacity:1" d="M 63.3504,444.889 66.1766,473.151 z" id="boundary" inkscape:connector-curvature="0" />
	<path style="fill:none;stroke:red;stroke-width:1px;stroke-linecap:butt;stroke-linejoin:miter;stroke-opacity:1" d="M 66.1766,473.151 66.1766,501.413 z" id="boundary" inkscape:connector-curvature="0" />
	<path style="fill:none;stroke:red;stroke-width:1px;stroke-linecap:butt;stroke-linejoin:miter;stroke-opacity:1" d="M 66.1766,868.821 71.8291,823.601 z" id="boundary" inkscape:connector-curvature="0" />
	<path style="fill:none;stroke:red;stroke-width:1px;stroke-linecap:butt;stroke-linejoin:miter;stroke-opacity:1" d="M 66.1766,868.821 71.8291,897.083 z" id="boundary" inkscape:connector-curvature="0" />
	<path style="fill:none;stroke:red;stroke-width:1px;stroke-linecap:butt;stroke-linejoin:miter;stroke-opacity:1" d="M 71.8291,83.1339 100.091,71.8291 z" id="boundary" inkscape:connector-curvature="0" />
	<path style="fill:none;stroke:red;stroke-width:1px;stroke-linecap:butt;stroke-linejoin:miter;stroke-opacity:1" d="M 71.8291,795.339 71.8291,823.601 z" id="boundary" inkscape:connector-curvature="0" />
	<path style="fill:none;stroke:red;stroke-width:1px;stroke-linecap:butt;stroke-linejoin:miter;stroke-opacity:1" d="M 71.8291,897.083 77.4815,925.345 z" id="boundary" inkscape:connector-curvature="0" />
	<path style="fill:none;stroke:red;stroke-width:1px;stroke-linecap:butt;stroke-linejoin:miter;stroke-opacity:1" d="M 77.4815,925.345 83.1339,953.607 z" id="boundary" inkscape:connector-curvature="0" />
	<path style="fill:none;stroke:red;stroke-width:1px;stroke-linecap:butt;stroke-linejoin:miter;stroke-opacity:1" d="M 83.1339,953.607 100.091,976.217 z" id="boundary" inkscape:connector-curvature="0" />
	<path style="fill:none;stroke:red;stroke-width:1px;stroke-linecap:butt;stroke-linejoin:miter;stroke-opacity:1" d="M 100.091,71.8291 122.701,54.8718 z" id="boundary" inkscape:connector-curvature="0" />
	<path style="fill:none;stroke:red;stroke-width:1px;stroke-linecap:butt;stroke-linejoin:miter;stroke-opacity:1" d="M 100.091,976.217 128.353,987.521 z" id="boundary" inkscape:connector-curvature="0" />
	<path style="fill:none;stroke:red;stroke-width:1px;stroke-linecap:butt;stroke-linejoin:miter;stroke-opacity:1" d="M 122.701,26.6097 122.701,54.8718 z" id="boundary" inkscape:connector-curvature="0" />
	<path style="fill:none;stroke:red;stroke-width:1px;stroke-linecap:butt;stroke-linejoin:miter;stroke-opacity:1" d="M 122.701,26.6097 145.311,9.65242 z" id="boundary" inkscape:connector-curvature="0" />
	<path style="fill:none;stroke:red;stroke-width:1px;stroke-linecap:butt;stroke-linejoin:miter;stroke-opacity:1" d="M 128.353,987.521 156.615,996 z" id="boundary" inkscape:connector-curvature="0" />
	<path style="fill:none;stroke:red;stroke-width:1px;stroke-linecap:butt;stroke-linejoin:miter;stroke-opacity:1" d="M 145.311,9.65242 173.573,4 z" id="boundary" inkscape:connector-curvature="0" />
	<path style="fill:none;stroke:red;stroke-width:1px;stroke-linecap:butt;stroke-linejoin:miter;stroke-opacity:1" d="M 156.615,996 184.877,990.348 z" id="boundary" inkscape:connector-curvature="0" />
	<path style="fill:none;stroke:red;stroke-width:1px;stroke-linecap:butt;stroke-linejoin:miter;stroke-opacity:1" d="M 173.573,4 201.835,4 z" id="boundary" inkscape:connector-curvature="0" />
	<path style="fill:none;stroke:red;stroke-width:1px;stroke-linecap:butt;stroke-linejoin:miter;stroke-opacity:1" d="M 184.877,990.348 213.14,990.348 z" id="boundary" inkscape:connector-curvature="0" />
	<path style="fill:none;stroke:red;stroke-width:1px;stroke-linecap:butt;stroke-linejoin:miter;stroke-opacity:1" d="M 201.835,4 230.097,9.65242 z" id="boundary" inkscape:connector-curvature="0" />
	<path style="fill:none;stroke:red;stroke-width:1px;stroke-linecap:butt;stroke-linejoin:miter;stroke-opacity:1" d="M 213.14,990.348 241.402,984.695 z" id="boundary" inkscape:connector-curvature="0" />
	<path style="fill:none;stroke:red;stroke-width:1px;stroke-linecap:butt;stroke-linejoin:miter;stroke-opacity:1" d="M 230.097,9.65242 249.88,32.2621 z" id="boundary" inkscape:connector-curvature="0" />
	<path style="fill:none;stroke:red;stroke-width:1px;stroke-linecap:butt;stroke-linejoin:miter;stroke-opacity:1" d="M 241.402,984.695 269.664,984.695 z" id="boundary" inkscape:connector-curvature="0" />
	<path style="fill:none;stroke:red;stroke-width:1px;stroke-linecap:butt;stroke-linejoin:miter;stroke-opacity:1" d="M 249.88,32.2621 272.49,49.2194 z" id="boundary" inkscape:connector-curvature="0" />
	<path style="fill:none;stroke:red;stroke-width:1px;stroke-linecap:butt;stroke-linejoin:miter;stroke-opacity:1" d="M 269.664,984.695 297.926,979.043 z" id="boundary" inkscape:connector-curvature="0" />
	<path style="fill:none;stroke:red;stroke-width:1px;stroke-linecap:butt;stroke-linejoin:miter;stroke-opacity:1" d="M 272.49,49.2194 295.1,66.1766 z" id="boundary" inkscape:connector-curvature="0" />
	<path style="fill:none;stroke:red;stroke-width:1px;stroke-linecap:butt;stroke-linejoin:miter;stroke-opacity:1" d="M 295.1,66.1766 314.883,88.7863 z" id="boundary" inkscape:connector-curvature="0" />
	<path style="fill:none;stroke:red;stroke-width:1px;stroke-linecap:butt;stroke-linejoin:miter;stroke-opacity:1" d="M 297.926,979.043 326.188,979.043 z" id="boundary" inkscape:connector-curvature="0" />
	<path style="fill:none;stroke:red;stroke-width:1px;stroke-linecap:butt;stroke-linejoin:miter;stroke-opacity:1" d="M 314.883,88.7863 337.493,108.57 z" id="boundary" inkscape:connector-curvature="0" />
	<path style="fill:none;stroke:red;stroke-width:1px;stroke-linecap:butt;stroke-linejoin:miter;stroke-opacity:1" d="M 326.188,979.043 354.45,973.39 z" id="boundary" inkscape:connector-curvature="0" />
	<path style="fill:none;stroke:red;stroke-width:1px;stroke-linecap:butt;stroke-linejoin:miter;stroke-opacity:1" d="M 337.493,108.57 351.624,134.006 z" id="boundary" inkscape:connector-curvature="0" />
	<path style="fill:none;stroke:red;stroke-width:1px;stroke-linecap:butt;stroke-linejoin:miter;stroke-opacity:1" d="M 351.624,134.006 365.755,159.442 z" id="boundary" inkscape:connector-curvature="0" />
	<path style="fill:none;stroke:red;stroke-width:1px;stroke-linecap:butt;stroke-linejoin:miter;stroke-opacity:1" d="M 354.45,973.39 379.886,987.521 z" id="boundary" inkscape:connector-curvature="0" />
	<path style="fill:none;stroke:red;stroke-width:1px;stroke-linecap:butt;stroke-linejoin:miter;stroke-opacity:1" d="M 365.755,159.442 388.365,179.225 z" id="boundary" inkscape:connector-curvature="0" />
	<path style="fill:none;stroke:red;stroke-width:1px;stroke-linecap:butt;stroke-linejoin:miter;stroke-opacity:1" d="M 379.886,987.521 408.148,996 z" id="boundary" inkscape:connector-curvature="0" />
	<path style="fill:none;stroke:red;stroke-width:1px;stroke-linecap:butt;stroke-linejoin:miter;stroke-opacity:1" d="M 388.365,179.225 416.627,190.53 z" id="boundary" inkscape:connector-curvature="0" />
	<path style="fill:none;stroke:red;stroke-width:1px;stroke-linecap:butt;stroke-linejoin:miter;stroke-opacity:1" d="M 394.017,396.843 408.148,422.279 z" id="boundary" inkscape:connector-curvature="0" />
	<path style="fill:none;stroke:red;stroke-width:1px;stroke-linecap:butt;stroke-linejoin:miter;stroke-opacity:1" d="M 394.017,396.843 416.627,374.234 z" id="boundary" inkscape:connector-curvature="0" />
	<path style="fill:none;stroke:red;stroke-width:1px;stroke-linecap:butt;stroke-linejoin:miter;stroke-opacity:1" d="M 408.148,422.279 430.758,439.236 z" id="boundary" inkscape:connector-curvature="0" />
	<path style="fill:none;stroke:red;stroke-width:1px;stroke-linecap:butt;stroke-linejoin:miter;stroke-opacity:1" d="M 408.148,996 436.41,996 z" id="boundary" inkscape:connector-curvature="0" />
	<path style="fill:none;stroke:red;stroke-width:1px;stroke-linecap:butt;stroke-linejoin:miter;stroke-opacity:1" d="M 416.627,190.53 444.889,193.356 z" id="boundary" inkscape:connector-curvature="0" />
	<path style="fill:none;stroke:red;stroke-width:1px;stroke-linecap:butt;stroke-linejoin:miter;stroke-opacity:1" d="M 416.627,374.234 444.889,362.929 z" id="boundary" inkscape:connector-curvature="0" />
	<path style="fill:none;stroke:red;stroke-width:1px;stroke-linecap:butt;stroke-linejoin:miter;stroke-opacity:1" d="M 430.758,439.236 459.02,450.541 z" id="boundary" inkscape:connector-curvature="0" />
	<path style="fill:none;stroke:red;stroke-width:1px;stroke-linecap:butt;stroke-linejoin:miter;stroke-opacity:1" d="M 436.41,996 464.672,996 z" id="boundary" inkscape:connector-curvature="0" />
	<path style="fill:none;stroke:red;stroke-width:1px;stroke-linecap:butt;stroke-linejoin:miter;stroke-opacity:1" d="M 444.889,193.356 470.325,207.487 z" id="boundary" inkscape:connector-curvature="0" />
	<path style="fill:none;stroke:red;stroke-width:1px;stroke-linecap:butt;stroke-linejoin:miter;stroke-opacity:1" d="M 444.889,362.929 473.151,351.624 z" id="boundary" inkscape:connector-curvature="0" />
	<path style="fill:none;stroke:red;stroke-width:1px;stroke-linecap:butt;stroke-linejoin:miter;stroke-opacity:1" d="M 459.02,450.541 487.282,461.846 z" id="boundary" inkscape:connector-curvature="0" />
	<path style="fill:none;stroke:red;stroke-width:1px;stroke-linecap:butt;stroke-linejoin:miter;stroke-opacity:1" d="M 464.672,996 492.934,996 z" id="boundary" inkscape:connector-curvature="0" />
	<path style="fill:none;stroke:red;stroke-width:1px;stroke-linecap:butt;stroke-linejoin:miter;stroke-opacity:1" d="M 470.325,207.487 495.761,221.618 z" id="boundary" inkscape:connector-curvature="0" />
	<path style="fill:none;stroke:red;stroke-width:1px;stroke-linecap:butt;stroke-linejoin:miter;stroke-opacity:1" d="M 473.151,351.624 490.108,329.014 z" id="boundary" inkscape:connector-curvature="0" />
	<path style="fill:none;stroke:red;stroke-width:1px;stroke-linecap:butt;stroke-linejoin:miter;stroke-opacity:1" d="M 487.282,461.846 504.239,484.456 z" id="boundary" inkscape:connector-curvature="0" />
	<path style="fill:none;stroke:red;stroke-width:1px;stroke-linecap:butt;stroke-linejoin:miter;stroke-opacity:1" d="M 487.282,586.199 487.282,614.462 z" id="boundary" inkscape:connector-curvature="0" />
	<path style="fill:none;stroke:red;stroke-width:1px;stroke-linecap:butt;stroke-linejoin:miter;stroke-opacity:1" d="M 487.282,586.199 498.587,552.285 z" id="boundary" inkscape:connector-curvature="0" />
	<path style="fill:none;stroke:red;stroke-width:1px;stroke-linecap:butt;stroke-linejoin:miter;stroke-opacity:1" d="M 487.282,614.462 487.282,642.724 z" id="boundary" inkscape:connector-curvature="0" />
	<path style="fill:none;stroke:red;stroke-width:1px;stroke-linecap:butt;stroke-linejoin:miter;stroke-opacity:1" d="M 487.282,642.724 492.934,670.986 z" id="boundary" inkscape:connector-curvature="0" />
	<path style="fill:none;stroke:red;stroke-width:1px;stroke-linecap:butt;stroke-linejoin:miter;stroke-opacity:1" d="M 487.282,699.248 490.108,727.51 z" id="boundary" inkscape:connector-curvature="0" />
	<path style="fill:none;stroke:red;stroke-width:1px;stroke-linecap:butt;stroke-linejoin:miter;stroke-opacity:1" d="M 487.282,699.248 492.934,670.986 z" id="boundary" inkscape:connector-curvature="0" />
	<path style="fill:none;stroke:red;stroke-width:1px;stroke-linecap:butt;stroke-linejoin:miter;stroke-opacity:1" d="M 490.108,329.014 492.934,280.969 z" id="boundary" inkscape:connector-curvature="0" />
	<path style="fill:none;stroke:red;stroke-width:1px;stroke-linecap:butt;stroke-linejoin:miter;stroke-opacity:1" d="M 490.108,727.51 518.37,727.51 z" id="boundary" inkscape:connector-curvature="0" />
	<path style="fill:none;stroke:red;stroke-width:1px;stroke-linecap:butt;stroke-linejoin:miter;stroke-opacity:1" d="M 492.934,280.969 509.892,247.054 z" id="boundary" inkscape:connector-curvature="0" />
	<path style="fill:none;stroke:red;stroke-width:1px;stroke-linecap:butt;stroke-linejoin:miter;stroke-opacity:1" d="M 492.934,996 521.197,996 z" id="boundary" inkscape:connector-curvature="0" />
	<path style="fill:none;stroke:red;stroke-width:1px;stroke-linecap:butt;stroke-linejoin:miter;stroke-opacity:1" d="M 495.761,221.618 509.892,247.054 z" id="boundary" inkscape:connector-curvature="0" />
	<path style="fill:none;stroke:red;stroke-width:1px;stroke-linecap:butt;stroke-linejoin:miter;stroke-opacity:1" d="M 498.587,552.285 509.892,512.718 z" id="boundary" inkscape:connector-curvature="0" />
	<path style="fill:none;stroke:red;stroke-width:1px;stroke-linecap:butt;stroke-linejoin:miter;stroke-opacity:1" d="M 504.239,484.456 509.892,512.718 z" id="boundary" inkscape:connector-curvature="0" />
	<path style="fill:none;stroke:red;stroke-width:1px;stroke-linecap:butt;stroke-linejoin:miter;stroke-opacity:1" d="M 518.37,727.51 546.632,727.51 z" id="boundary" inkscape:connector-curvature="0" />
	<path style="fill:none;stroke:red;stroke-width:1px;stroke-linecap:butt;stroke-linejoin:miter;stroke-opacity:1" d="M 521.197,996 549.459,990.348 z" id="boundary" inkscape:connector-curvature="0" />
	<path style="fill:none;stroke:red;stroke-width:1px;stroke-linecap:butt;stroke-linejoin:miter;stroke-opacity:1" d="M 546.632,727.51 574.895,733.162 z" id="boundary" inkscape:connector-curvature="0" />
	<path style="fill:none;stroke:red;stroke-width:1px;stroke-linecap:butt;stroke-linejoin:miter;stroke-opacity:1" d="M 549.459,990.348 572.068,964.912 z" id="boundary" inkscape:connector-curvature="0" />
	<path style="fill:none;stroke:red;stroke-width:1px;stroke-linecap:butt;stroke-linejoin:miter;stroke-opacity:1" d="M 572.068,964.912 583.373,919.692 z" id="boundary" inkscape:connector-curvature="0" />
	<path style="fill:none;stroke:red;stroke-width:1px;stroke-linecap:butt;stroke-linejoin:miter;stroke-opacity:1" d="M 574.895,733.162 589.026,758.598 z" id="boundary" inkscape:connector-curvature="0" />
	<path style="fill:none;stroke:red;stroke-width:1px;stroke-linecap:butt;stroke-linejoin:miter;stroke-opacity:1" d="M 583.373,919.692 589.026,891.43 z" id="boundary" inkscape:connector-curvature="0" />
	<path style="fill:none;stroke:red;stroke-width:1px;stroke-linecap:butt;stroke-linejoin:miter;stroke-opacity:1" d="M 589.026,758.598 589.026,786.86 z" id="boundary" inkscape:connector-curvature="0" />
	<path style="fill:none;stroke:red;stroke-width:1px;stroke-linecap:butt;stroke-linejoin:miter;stroke-opacity:1" d="M 589.026,786.86 594.678,815.123 z" id="boundary" inkscape:connector-curvature="0" />
	<path style="fill:none;stroke:red;stroke-width:1px;stroke-linecap:butt;stroke-linejoin:miter;stroke-opacity:1" d="M 589.026,863.168 589.026,891.43 z" id="boundary" inkscape:connector-curvature="0" />
	<path style="fill:none;stroke:red;stroke-width:1px;stroke-linecap:butt;stroke-linejoin:miter;stroke-opacity:1" d="M 589.026,863.168 594.678,815.123 z" id="boundary" inkscape:connector-curvature="0" />
	<circle cx="4" cy="218.792" r="4" fill="#0" id="circle0"/>
	<circle cx="4" cy="247.054" r="4" fill="#0" id="circle1"/>
	<circle cx="4" cy="275.316" r="4" fill="#0" id="circle2"/>
	<circle cx="9.65242" cy="184.877" r="4" fill="#0" id="circle3"/>
	<circle cx="9.65242" cy="303.578" r="4" fill="#0" id="circle4"/>
	<circle cx="20.9573" cy="156.615" r="4" fill="#0" id="circle5"/>
	<circle cx="23.7835" cy="329.014" r="4" fill="#0" id="circle6"/>
	<circle cx="32.2621" cy="128.353" r="4" fill="#0" id="circle7"/>
	<circle cx="40.7407" cy="351.624" r="4" fill="#0" id="circle8"/>
	<circle cx="49.2194" cy="105.744" r="4" fill="#0" id="circle9"/>
	<circle cx="54.8718" cy="377.06" r="4" fill="#0" id="circle10"/>
	<circle cx="54.8718" cy="631.419" r="4" fill="#0" id="circle11"/>
	<circle cx="54.8718" cy="659.681" r="4" fill="#0" id="circle12"/>
	<circle cx="54.8718" cy="687.943" r="4" fill="#0" id="circle13"/>
	<circle cx="54.8718" cy="716.205" r="4" fill="#0" id="circle14"/>
	<circle cx="54.8718" cy="744.467" r="4" fill="#0" id="circle15"/>
	<circle cx="54.8718" cy="772.729" r="4" fill="#0" id="circle16"/>
	<circle cx="60.5242" cy="416.627" r="4" fill="#0" id="circle17"/>
	<circle cx="60.5242" cy="540.98" r="4" fill="#0" id="circle18"/>
	<circle cx="60.5242" cy="569.242" r="4" fill="#0" id="circle19"/>
	<circle cx="60.5242" cy="597.504" r="4" fill="#0" id="circle20"/>
	<circle cx="63.3504" cy="444.889" r="4" fill="#0" id="circle21"/>
	<circle cx="66.1766" cy="473.151" r="4" fill="#0" id="circle22"/>
	<circle cx="66.1766" cy="501.413" r="4" fill="#0" id="circle23"/>
	<circle cx="66.1766" cy="868.821" r="4" fill="#0" id="circle24"/>
	<circle cx="71.8291" cy="83.1339" r="4" fill="#0" id="circle25"/>
	<circle cx="71.8291" cy="795.339" r="4" fill="#0" id="circle26"/>
	<circle cx="71.8291" cy="823.601" r="4" fill="#0" id="circle27"/>
	<circle cx="71.8291" cy="897.083" r="4" fill="#0" id="circle28"/>
	<circle cx="77.4815" cy="925.345" r="4" fill="#0" id="circle29"/>
	<circle cx="83.1339" cy="953.607" r="4" fill="#0" id="circle30"/>
	<circle cx="100.091" cy="71.8291" r="4" fill="#0" id="circle31"/>
	<circle cx="100.091" cy="976.217" r="4" fill="#0" id="circle32"/>
	<circle cx="122.701" cy="26.6097" r="4" fill="#0" id="circle33"/>
	<circle cx="122.701" cy="54.8718" r="4" fill="#0" id="circle34"/>
	<circle cx="128.353" cy="987.521" r="4" fill="#0" id="circle35"/>
	<circle cx="145.311" cy="9.65242" r="4" fill="#0" id="circle36"/>
	<circle cx="156.615" cy="996" r="4" fill="#0" id="circle37"/>
	<circle cx="173.573" cy="4" r="4" fill="#0" id="circle38"/>
	<circle cx="184.877" cy="990.348" r="4" fill="#0" id="circle39"/>
	<circle cx="201.835" cy="4" r="4" fill="#0" id="circle40"/>
	<circle cx="213.14" cy="990.348" r="4" fill="#0" id="circle41"/>
	<circle cx="230.097" cy="9.65242" r="4" fill="#0" id="circle42"/>
	<circle cx="241.402" cy="984.695" r="4" fill="#0" id="circle43"/>
	<circle cx="249.88" cy="32.2621" r="4" fill="#0" id="circle44"/>
	<circle cx="269.664" cy="984.695" r="4" fill="#0" id="circle45"/>
	<circle cx="272.49" cy="49.2194" r="4" fill="#0" id="circle46"/>
	<circle cx="295.1" cy="66.1766" r="4" fill="#0" id="circle47"/>
	<circle cx="297.926" cy="979.043" r="4" fill="#0" id="circle48"/>
	<circle cx="314.883" cy="88.7863" r="4" fill="#0" id="circle49"/>
	<circle cx="326.188" cy="979.043" r="4" fill="#0" id="circle50"/>
	<circle cx="337.493" cy="108.57" r="4" fill="#0" id="circle51"/>
	<circle cx="351.624" cy="134.006" r="4" fill="#0" id="circle52"/>
	<circle cx="354.45" cy="973.39" r="4" fill="#0" id="circle53"/>
	<circle cx="365.755" cy="159.442" r="4" fill="#0" id="circle54"/>
	<circle cx="379.886" cy="987.521" r="4" fill="#0" id="circle55"/>
	<circle cx="388.365" cy="179.225" r="4" fill="#0" id="circle56"/>
	<circle cx="394.017" cy="396.843" r="4" fill="#0" id="circle57"/>
	<circle cx="408.148" cy="422.279" r="4" fill="#0" id="circle58"/>
	<circle cx="408.148" cy="996" r="4" fill="#0" id="circle59"/>
	<circle cx="416.627" cy="190.53" r="4" fill="#0" id="circle60"/>
	<circle cx="416.627" cy="374.234" r="4" fill="#0" id="circle61"/>
	<circle cx="430.758" cy="439.236" r="4" fill="#0" id="circle62"/>
	<circle cx="436.41" cy="996" r="4" fill="#0" id="circle63"/>
	<circle cx="444.889" cy="193.356" r="4" fill="#0" id="circle64"/>
	<circle cx="444.889" cy="362.929" r="4" fill="#0" id="circle65"/>
	<circle cx="459.02" cy="450.541" r="4" fill="#0" id="circle66"/>
	<circle cx="464.672" cy="996" r="4" fill="#0" id="circle67"/>
	<circle cx="470.325" cy="207.487" r="4" fill="#0" id="circle68"/>
	<circle cx="473.151" cy="351.624" r="4" fill="#0" id="circle69"/>
	<circle cx="487.282" cy="461.846" r="4" fill="#0" id="circle70"/>
	<circle cx="487.282" cy="586.199" r="4" fill="#0" id="circle71"/>
	<circle cx="487.282" cy="614.462" r="4" fill="#0" id="circle72"/>
	<circle cx="487.282" cy="642.724" r="4" fill="#0" id="circle73"/>
	<circle cx="487.282" cy="699.248" r="4" fill="#0" id="circle74"/>
	<circle cx="490.108" cy="329.014" r="4" fill="#0" id="circle75"/>
	<circle cx="490.108" cy="727.51" r="4" fill="#0" id="circle76"/>
	<circle cx="492.934" cy="280.969" r="4" fill="#0" id="circle77"/>
	<circle cx="492.934" cy="670.986" r="4" fill="#0" id="circle78"/>
	<circle cx="492.934" cy="996" r="4" fill="#0" id="circle79"/>
	<circle cx="495.761" cy="221.618" r="4" fill="#0" id="circle80"/>
	<circle cx="498.587" cy="552.285" r="4" fill="#0" id="circle81"/>
	<circle cx="504.239" cy="484.456" r="4" fill="#0" id="circle82"/>
	<circle cx="509.892" cy="247.054" r="4" fill="#0" id="circle83"/>
	<circle cx="509.892" cy="512.718" r="4" fill="#0" id="circle84"/>
	<circle cx="518.37" cy="727.51" r="4" fill="#0" id="circle85"/>
	<circle cx="521.197" cy="996" r="4" fill="#0" id="circle86"/>
	<circle cx="546.632" cy="727.51" r="4" fill="#0" id="circle87"/>
	<circle cx="549.459" cy="990.348" r="4" fill="#0" id="circle88"/>
	<circle cx="572.068" cy="964.912" r="4" fill="#0" id="circle89"/>
	<circle cx="574.895" cy="733.162" r="4" fill="#0" id="circle90"/>
	<circle cx="583.373" cy="919.692" r="4" fill="#0" id="circle91"/>
	<circle cx="589.026" cy="758.598" r="4" fill="#0" id="circle92"/>
	<circle cx="589.026" cy="786.86" r="4" fill="#0" id="circle93"/>
	<circle cx="589.026" cy="863.168" r="4" fill="#0" id="circle94"/>
	<circle cx="589.026" cy="891.43" r="4" fill="#0" id="circle95"/>
	<circle cx="594.678" cy="815.123" r="4" fill="#0" id="circle96"/>
	</g>
</svg>