<?xml version="1.0" encoding="UTF-8" standalone="no"?>
<!-- Created with CurveBenchmark -->
<svg
	xmlns:dc="http://purl.org/dc/elements/1.1/"
	xmlns:cc="http://creativecommons.org/ns#"
	xmlns:rdf="http://www.w3.org/1999/02/22-rdf-syntax-ns#"
	xmlns:svg="http://www.w3.org/2000/svg"
	xmlns="http://www.w3.org/2000/svg"
	xmlns:sodipodi="http://sodipodi.sourceforge.net/DTD/sodipodi-0.dtd"
	xmlns:inkscape="http://www.inkscape.org/namespaces/inkscape"
	width="1000"
	height="1000"
	id="svg2"
	version="1.1"
	sodipodi:docname="manifold/fitconnect-brick-15.png.txt">
<defs
	id="defs4" />
<metadata
	id="metadata7">
	<rdf:RDF>
		<cc:Work
			rdf:about="">
			<dc:format>image/svg+xml</dc:format>
			<dc:type
				rdf:resource="http://purl.org/dc/dcmitype/StillImage" />
			<dc:title></dc:title>
		</cc:Work>
	</rdf:RDF>
</metadata>
<g
	inkscape:label="Layer 1"
	inkscape:groupmode="layer"
	id="layer1">
	<path style="fill:none;stroke:red;stroke-width:1px;stroke-linecap:butt;stroke-linejoin:miter;stroke-opacity:1" d="M 4,253.321 4,262.131 z" id="boundary" inkscape:connector-curvature="0" />
	<path style="fill:none;stroke:red;stroke-width:1px;stroke-linecap:butt;stroke-linejoin:miter;stroke-opacity:1" d="M 4,253.321 8.40497,244.512 z" id="boundary" inkscape:connector-curvature="0" />
	<path style="fill:none;stroke:red;stroke-width:1px;stroke-linecap:butt;stroke-linejoin:miter;stroke-opacity:1" d="M 4,262.131 4,270.941 z" id="boundary" inkscape:connector-curvature="0" />
	<path style="fill:none;stroke:red;stroke-width:1px;stroke-linecap:butt;stroke-linejoin:miter;stroke-opacity:1" d="M 4,270.941 4,279.751 z" id="boundary" inkscape:connector-curvature="0" />
	<path style="fill:none;stroke:red;stroke-width:1px;stroke-linecap:butt;stroke-linejoin:miter;stroke-opacity:1" d="M 4,279.751 4,288.561 z" id="boundary" inkscape:connector-curvature="0" />
	<path style="fill:none;stroke:red;stroke-width:1px;stroke-linecap:butt;stroke-linejoin:miter;stroke-opacity:1" d="M 4,288.561 4,297.371 z" id="boundary" inkscape:connector-curvature="0" />
	<path style="fill:none;stroke:red;stroke-width:1px;stroke-linecap:butt;stroke-linejoin:miter;stroke-opacity:1" d="M 4,297.371 4,306.181 z" id="boundary" inkscape:connector-curvature="0" />
	<path style="fill:none;stroke:red;stroke-width:1px;stroke-linecap:butt;stroke-linejoin:miter;stroke-opacity:1" d="M 4,306.181 4,314.991 z" id="boundary" inkscape:connector-curvature="0" />
	<path style="fill:none;stroke:red;stroke-width:1px;stroke-linecap:butt;stroke-linejoin:miter;stroke-opacity:1" d="M 4,314.991 4,323.801 z" id="boundary" inkscape:connector-curvature="0" />
	<path style="fill:none;stroke:red;stroke-width:1px;stroke-linecap:butt;stroke-linejoin:miter;stroke-opacity:1" d="M 4,323.801 8.40497,331.73 z" id="boundary" inkscape:connector-curvature="0" />
	<path style="fill:none;stroke:red;stroke-width:1px;stroke-linecap:butt;stroke-linejoin:miter;stroke-opacity:1" d="M 8.40497,244.512 15.4529,237.464 z" id="boundary" inkscape:connector-curvature="0" />
	<path style="fill:none;stroke:red;stroke-width:1px;stroke-linecap:butt;stroke-linejoin:miter;stroke-opacity:1" d="M 8.40497,331.73 12.8099,339.659 z" id="boundary" inkscape:connector-curvature="0" />
	<path style="fill:none;stroke:red;stroke-width:1px;stroke-linecap:butt;stroke-linejoin:miter;stroke-opacity:1" d="M 12.8099,339.659 12.8099,348.469 z" id="boundary" inkscape:connector-curvature="0" />
	<path style="fill:none;stroke:red;stroke-width:1px;stroke-linecap:butt;stroke-linejoin:miter;stroke-opacity:1" d="M 12.8099,348.469 15.4529,357.279 z" id="boundary" inkscape:connector-curvature="0" />
	<path style="fill:none;stroke:red;stroke-width:1px;stroke-linecap:butt;stroke-linejoin:miter;stroke-opacity:1" d="M 15.4529,237.464 22.5009,230.416 z" id="boundary" inkscape:connector-curvature="0" />
	<path style="fill:none;stroke:red;stroke-width:1px;stroke-linecap:butt;stroke-linejoin:miter;stroke-opacity:1" d="M 15.4529,357.279 22.5009,363.446 z" id="boundary" inkscape:connector-curvature="0" />
	<path style="fill:none;stroke:red;stroke-width:1px;stroke-linecap:butt;stroke-linejoin:miter;stroke-opacity:1" d="M 22.5009,230.416 29.5488,224.249 z" id="boundary" inkscape:connector-curvature="0" />
	<path style="fill:none;stroke:red;stroke-width:1px;stroke-linecap:butt;stroke-linejoin:miter;stroke-opacity:1" d="M 22.5009,363.446 31.3108,366.089 z" id="boundary" inkscape:connector-curvature="0" />
	<path style="fill:none;stroke:red;stroke-width:1px;stroke-linecap:butt;stroke-linejoin:miter;stroke-opacity:1" d="M 29.5488,224.249 35.7158,217.201 z" id="boundary" inkscape:connector-curvature="0" />
	<path style="fill:none;stroke:red;stroke-width:1px;stroke-linecap:butt;stroke-linejoin:miter;stroke-opacity:1" d="M 31.3108,366.089 40.1208,366.089 z" id="boundary" inkscape:connector-curvature="0" />
	<path style="fill:none;stroke:red;stroke-width:1px;stroke-linecap:butt;stroke-linejoin:miter;stroke-opacity:1" d="M 35.7158,217.201 42.7638,211.034 z" id="boundary" inkscape:connector-curvature="0" />
	<path style="fill:none;stroke:red;stroke-width:1px;stroke-linecap:butt;stroke-linejoin:miter;stroke-opacity:1" d="M 40.1208,366.089 48.9307,366.089 z" id="boundary" inkscape:connector-curvature="0" />
	<path style="fill:none;stroke:red;stroke-width:1px;stroke-linecap:butt;stroke-linejoin:miter;stroke-opacity:1" d="M 42.7638,211.034 50.6927,206.629 z" id="boundary" inkscape:connector-curvature="0" />
	<path style="fill:none;stroke:red;stroke-width:1px;stroke-linecap:butt;stroke-linejoin:miter;stroke-opacity:1" d="M 48.9307,366.089 57.7407,361.684 z" id="boundary" inkscape:connector-curvature="0" />
	<path style="fill:none;stroke:red;stroke-width:1px;stroke-linecap:butt;stroke-linejoin:miter;stroke-opacity:1" d="M 50.6927,206.629 55.0977,197.819 z" id="boundary" inkscape:connector-curvature="0" />
	<path style="fill:none;stroke:red;stroke-width:1px;stroke-linecap:butt;stroke-linejoin:miter;stroke-opacity:1" d="M 55.0977,197.819 62.1456,190.771 z" id="boundary" inkscape:connector-curvature="0" />
	<path style="fill:none;stroke:red;stroke-width:1px;stroke-linecap:butt;stroke-linejoin:miter;stroke-opacity:1" d="M 57.7407,361.684 66.5506,361.684 z" id="boundary" inkscape:connector-curvature="0" />
	<path style="fill:none;stroke:red;stroke-width:1px;stroke-linecap:butt;stroke-linejoin:miter;stroke-opacity:1" d="M 62.1456,190.771 69.1936,184.604 z" id="boundary" inkscape:connector-curvature="0" />
	<path style="fill:none;stroke:red;stroke-width:1px;stroke-linecap:butt;stroke-linejoin:miter;stroke-opacity:1" d="M 66.5506,361.684 75.3606,361.684 z" id="boundary" inkscape:connector-curvature="0" />
	<path style="fill:none;stroke:red;stroke-width:1px;stroke-linecap:butt;stroke-linejoin:miter;stroke-opacity:1" d="M 69.1936,184.604 75.3606,177.556 z" id="boundary" inkscape:connector-curvature="0" />
	<path style="fill:none;stroke:red;stroke-width:1px;stroke-linecap:butt;stroke-linejoin:miter;stroke-opacity:1" d="M 75.3606,177.556 82.4085,171.389 z" id="boundary" inkscape:connector-curvature="0" />
	<path style="fill:none;stroke:red;stroke-width:1px;stroke-linecap:butt;stroke-linejoin:miter;stroke-opacity:1" d="M 75.3606,361.684 83.2895,357.279 z" id="boundary" inkscape:connector-curvature="0" />
	<path style="fill:none;stroke:red;stroke-width:1px;stroke-linecap:butt;stroke-linejoin:miter;stroke-opacity:1" d="M 82.4085,171.389 90.3375,166.984 z" id="boundary" inkscape:connector-curvature="0" />
	<path style="fill:none;stroke:red;stroke-width:1px;stroke-linecap:butt;stroke-linejoin:miter;stroke-opacity:1" d="M 83.2895,357.279 92.0995,357.279 z" id="boundary" inkscape:connector-curvature="0" />
	<path style="fill:none;stroke:red;stroke-width:1px;stroke-linecap:butt;stroke-linejoin:miter;stroke-opacity:1" d="M 90.3375,166.984 97.3854,159.936 z" id="boundary" inkscape:connector-curvature="0" />
	<path style="fill:none;stroke:red;stroke-width:1px;stroke-linecap:butt;stroke-linejoin:miter;stroke-opacity:1" d="M 92.0995,357.279 100.909,357.279 z" id="boundary" inkscape:connector-curvature="0" />
	<path style="fill:none;stroke:red;stroke-width:1px;stroke-linecap:butt;stroke-linejoin:miter;stroke-opacity:1" d="M 97.3854,159.936 100.909,143.197 z" id="boundary" inkscape:connector-curvature="0" />
	<path style="fill:none;stroke:red;stroke-width:1px;stroke-linecap:butt;stroke-linejoin:miter;stroke-opacity:1" d="M 100.909,55.0977 100.909,63.9076 z" id="boundary" inkscape:connector-curvature="0" />
	<path style="fill:none;stroke:red;stroke-width:1px;stroke-linecap:butt;stroke-linejoin:miter;stroke-opacity:1" d="M 100.909,55.0977 105.314,46.2877 z" id="boundary" inkscape:connector-curvature="0" />
	<path style="fill:none;stroke:red;stroke-width:1px;stroke-linecap:butt;stroke-linejoin:miter;stroke-opacity:1" d="M 100.909,63.9076 100.909,72.7176 z" id="boundary" inkscape:connector-curvature="0" />
	<path style="fill:none;stroke:red;stroke-width:1px;stroke-linecap:butt;stroke-linejoin:miter;stroke-opacity:1" d="M 100.909,72.7176 100.909,81.5275 z" id="boundary" inkscape:connector-curvature="0" />
	<path style="fill:none;stroke:red;stroke-width:1px;stroke-linecap:butt;stroke-linejoin:miter;stroke-opacity:1" d="M 100.909,81.5275 100.909,90.3375 z" id="boundary" inkscape:connector-curvature="0" />
	<path style="fill:none;stroke:red;stroke-width:1px;stroke-linecap:butt;stroke-linejoin:miter;stroke-opacity:1" d="M 100.909,90.3375 100.909,99.1474 z" id="boundary" inkscape:connector-curvature="0" />
	<path style="fill:none;stroke:red;stroke-width:1px;stroke-linecap:butt;stroke-linejoin:miter;stroke-opacity:1" d="M 100.909,99.1474 100.909,107.957 z" id="boundary" inkscape:connector-curvature="0" />
	<path style="fill:none;stroke:red;stroke-width:1px;stroke-linecap:butt;stroke-linejoin:miter;stroke-opacity:1" d="M 100.909,107.957 100.909,116.767 z" id="boundary" inkscape:connector-curvature="0" />
	<path style="fill:none;stroke:red;stroke-width:1px;stroke-linecap:butt;stroke-linejoin:miter;stroke-opacity:1" d="M 100.909,116.767 100.909,125.577 z" id="boundary" inkscape:connector-curvature="0" />
	<path style="fill:none;stroke:red;stroke-width:1px;stroke-linecap:butt;stroke-linejoin:miter;stroke-opacity:1" d="M 100.909,125.577 100.909,134.387 z" id="boundary" inkscape:connector-curvature="0" />
	<path style="fill:none;stroke:red;stroke-width:1px;stroke-linecap:butt;stroke-linejoin:miter;stroke-opacity:1" d="M 100.909,134.387 100.909,143.197 z" id="boundary" inkscape:connector-curvature="0" />
	<path style="fill:none;stroke:red;stroke-width:1px;stroke-linecap:butt;stroke-linejoin:miter;stroke-opacity:1" d="M 100.909,357.279 109.719,354.636 z" id="boundary" inkscape:connector-curvature="0" />
	<path style="fill:none;stroke:red;stroke-width:1px;stroke-linecap:butt;stroke-linejoin:miter;stroke-opacity:1" d="M 105.314,37.4778 105.314,46.2877 z" id="boundary" inkscape:connector-curvature="0" />
	<path style="fill:none;stroke:red;stroke-width:1px;stroke-linecap:butt;stroke-linejoin:miter;stroke-opacity:1" d="M 105.314,37.4778 109.719,28.6679 z" id="boundary" inkscape:connector-curvature="0" />
	<path style="fill:none;stroke:red;stroke-width:1px;stroke-linecap:butt;stroke-linejoin:miter;stroke-opacity:1" d="M 109.719,28.6679 114.124,19.8579 z" id="boundary" inkscape:connector-curvature="0" />
	<path style="fill:none;stroke:red;stroke-width:1px;stroke-linecap:butt;stroke-linejoin:miter;stroke-opacity:1" d="M 109.719,354.636 118.529,350.231 z" id="boundary" inkscape:connector-curvature="0" />
	<path style="fill:none;stroke:red;stroke-width:1px;stroke-linecap:butt;stroke-linejoin:miter;stroke-opacity:1" d="M 114.124,19.8579 121.172,12.8099 z" id="boundary" inkscape:connector-curvature="0" />
	<path style="fill:none;stroke:red;stroke-width:1px;stroke-linecap:butt;stroke-linejoin:miter;stroke-opacity:1" d="M 118.529,350.231 127.339,348.469 z" id="boundary" inkscape:connector-curvature="0" />
	<path style="fill:none;stroke:red;stroke-width:1px;stroke-linecap:butt;stroke-linejoin:miter;stroke-opacity:1" d="M 121.172,12.8099 128.22,5.76199 z" id="boundary" inkscape:connector-curvature="0" />
	<path style="fill:none;stroke:red;stroke-width:1px;stroke-linecap:butt;stroke-linejoin:miter;stroke-opacity:1" d="M 127.339,348.469 136.149,348.469 z" id="boundary" inkscape:connector-curvature="0" />
	<path style="fill:none;stroke:red;stroke-width:1px;stroke-linecap:butt;stroke-linejoin:miter;stroke-opacity:1" d="M 128.22,5.76199 137.03,4 z" id="boundary" inkscape:connector-curvature="0" />
	<path style="fill:none;stroke:red;stroke-width:1px;stroke-linecap:butt;stroke-linejoin:miter;stroke-opacity:1" d="M 136.149,348.469 144.959,348.469 z" id="boundary" inkscape:connector-curvature="0" />
	<path style="fill:none;stroke:red;stroke-width:1px;stroke-linecap:butt;stroke-linejoin:miter;stroke-opacity:1" d="M 137.03,4 145.84,4 z" id="boundary" inkscape:connector-curvature="0" />
	<path style="fill:none;stroke:red;stroke-width:1px;stroke-linecap:butt;stroke-linejoin:miter;stroke-opacity:1" d="M 144.959,348.469 152.888,344.064 z" id="boundary" inkscape:connector-curvature="0" />
	<path style="fill:none;stroke:red;stroke-width:1px;stroke-linecap:butt;stroke-linejoin:miter;stroke-opacity:1" d="M 145.84,4 154.65,4 z" id="boundary" inkscape:connector-curvature="0" />
	<path style="fill:none;stroke:red;stroke-width:1px;stroke-linecap:butt;stroke-linejoin:miter;stroke-opacity:1" d="M 152.888,344.064 161.698,342.302 z" id="boundary" inkscape:connector-curvature="0" />
	<path style="fill:none;stroke:red;stroke-width:1px;stroke-linecap:butt;stroke-linejoin:miter;stroke-opacity:1" d="M 154.65,4 163.46,4 z" id="boundary" inkscape:connector-curvature="0" />
	<path style="fill:none;stroke:red;stroke-width:1px;stroke-linecap:butt;stroke-linejoin:miter;stroke-opacity:1" d="M 161.698,342.302 170.508,339.659 z" id="boundary" inkscape:connector-curvature="0" />
	<path style="fill:none;stroke:red;stroke-width:1px;stroke-linecap:butt;stroke-linejoin:miter;stroke-opacity:1" d="M 163.46,4 172.27,4 z" id="boundary" inkscape:connector-curvature="0" />
	<path style="fill:none;stroke:red;stroke-width:1px;stroke-linecap:butt;stroke-linejoin:miter;stroke-opacity:1" d="M 170.508,339.659 179.318,339.659 z" id="boundary" inkscape:connector-curvature="0" />
	<path style="fill:none;stroke:red;stroke-width:1px;stroke-linecap:butt;stroke-linejoin:miter;stroke-opacity:1" d="M 172.27,4 181.08,4 z" id="boundary" inkscape:connector-curvature="0" />
	<path style="fill:none;stroke:red;stroke-width:1px;stroke-linecap:butt;stroke-linejoin:miter;stroke-opacity:1" d="M 179.318,339.659 188.128,339.659 z" id="boundary" inkscape:connector-curvature="0" />
	<path style="fill:none;stroke:red;stroke-width:1px;stroke-linecap:butt;stroke-linejoin:miter;stroke-opacity:1" d="M 181.08,4 189.89,4 z" id="boundary" inkscape:connector-curvature="0" />
	<path style="fill:none;stroke:red;stroke-width:1px;stroke-linecap:butt;stroke-linejoin:miter;stroke-opacity:1" d="M 188.128,339.659 196.938,339.659 z" id="boundary" inkscape:connector-curvature="0" />
	<path style="fill:none;stroke:red;stroke-width:1px;stroke-linecap:butt;stroke-linejoin:miter;stroke-opacity:1" d="M 189.89,4 198.7,4 z" id="boundary" inkscape:connector-curvature="0" />
	<path style="fill:none;stroke:red;stroke-width:1px;stroke-linecap:butt;stroke-linejoin:miter;stroke-opacity:1" d="M 196.938,339.659 204.867,344.064 z" id="boundary" inkscape:connector-curvature="0" />
	<path style="fill:none;stroke:red;stroke-width:1px;stroke-linecap:butt;stroke-linejoin:miter;stroke-opacity:1" d="M 198.7,4 207.51,4 z" id="boundary" inkscape:connector-curvature="0" />
	<path style="fill:none;stroke:red;stroke-width:1px;stroke-linecap:butt;stroke-linejoin:miter;stroke-opacity:1" d="M 204.867,344.064 209.272,351.993 z" id="boundary" inkscape:connector-curvature="0" />
	<path style="fill:none;stroke:red;stroke-width:1px;stroke-linecap:butt;stroke-linejoin:miter;stroke-opacity:1" d="M 207.51,4 216.32,4 z" id="boundary" inkscape:connector-curvature="0" />
	<path style="fill:none;stroke:red;stroke-width:1px;stroke-linecap:butt;stroke-linejoin:miter;stroke-opacity:1" d="M 209.272,351.993 217.201,356.398 z" id="boundary" inkscape:connector-curvature="0" />
	<path style="fill:none;stroke:red;stroke-width:1px;stroke-linecap:butt;stroke-linejoin:miter;stroke-opacity:1" d="M 216.32,4 225.13,4 z" id="boundary" inkscape:connector-curvature="0" />
	<path style="fill:none;stroke:red;stroke-width:1px;stroke-linecap:butt;stroke-linejoin:miter;stroke-opacity:1" d="M 217.201,356.398 226.011,359.922 z" id="boundary" inkscape:connector-curvature="0" />
	<path style="fill:none;stroke:red;stroke-width:1px;stroke-linecap:butt;stroke-linejoin:miter;stroke-opacity:1" d="M 225.13,4 233.94,4 z" id="boundary" inkscape:connector-curvature="0" />
	<path style="fill:none;stroke:red;stroke-width:1px;stroke-linecap:butt;stroke-linejoin:miter;stroke-opacity:1" d="M 226.011,359.922 233.94,364.327 z" id="boundary" inkscape:connector-curvature="0" />
	<path style="fill:none;stroke:red;stroke-width:1px;stroke-linecap:butt;stroke-linejoin:miter;stroke-opacity:1" d="M 233.94,4 242.75,4 z" id="boundary" inkscape:connector-curvature="0" />
	<path style="fill:none;stroke:red;stroke-width:1px;stroke-linecap:butt;stroke-linejoin:miter;stroke-opacity:1" d="M 233.94,364.327 240.988,370.494 z" id="boundary" inkscape:connector-curvature="0" />
	<path style="fill:none;stroke:red;stroke-width:1px;stroke-linecap:butt;stroke-linejoin:miter;stroke-opacity:1" d="M 240.988,370.494 248.917,374.899 z" id="boundary" inkscape:connector-curvature="0" />
	<path style="fill:none;stroke:red;stroke-width:1px;stroke-linecap:butt;stroke-linejoin:miter;stroke-opacity:1" d="M 242.75,4 251.56,6.64298 z" id="boundary" inkscape:connector-curvature="0" />
	<path style="fill:none;stroke:red;stroke-width:1px;stroke-linecap:butt;stroke-linejoin:miter;stroke-opacity:1" d="M 248.917,374.899 255.964,381.066 z" id="boundary" inkscape:connector-curvature="0" />
	<path style="fill:none;stroke:red;stroke-width:1px;stroke-linecap:butt;stroke-linejoin:miter;stroke-opacity:1" d="M 251.56,6.64298 260.369,8.40497 z" id="boundary" inkscape:connector-curvature="0" />
	<path style="fill:none;stroke:red;stroke-width:1px;stroke-linecap:butt;stroke-linejoin:miter;stroke-opacity:1" d="M 255.964,381.066 263.893,385.471 z" id="boundary" inkscape:connector-curvature="0" />
	<path style="fill:none;stroke:red;stroke-width:1px;stroke-linecap:butt;stroke-linejoin:miter;stroke-opacity:1" d="M 260.369,8.40497 269.179,8.40497 z" id="boundary" inkscape:connector-curvature="0" />
	<path style="fill:none;stroke:red;stroke-width:1px;stroke-linecap:butt;stroke-linejoin:miter;stroke-opacity:1" d="M 263.893,385.471 270.941,391.638 z" id="boundary" inkscape:connector-curvature="0" />
	<path style="fill:none;stroke:red;stroke-width:1px;stroke-linecap:butt;stroke-linejoin:miter;stroke-opacity:1" d="M 269.179,8.40497 277.108,12.8099 z" id="boundary" inkscape:connector-curvature="0" />
	<path style="fill:none;stroke:red;stroke-width:1px;stroke-linecap:butt;stroke-linejoin:miter;stroke-opacity:1" d="M 270.941,391.638 277.989,396.924 z" id="boundary" inkscape:connector-curvature="0" />
	<path style="fill:none;stroke:red;stroke-width:1px;stroke-linecap:butt;stroke-linejoin:miter;stroke-opacity:1" d="M 277.108,12.8099 285.037,17.2149 z" id="boundary" inkscape:connector-curvature="0" />
	<path style="fill:none;stroke:red;stroke-width:1px;stroke-linecap:butt;stroke-linejoin:miter;stroke-opacity:1" d="M 277.989,396.924 285.918,401.329 z" id="boundary" inkscape:connector-curvature="0" />
	<path style="fill:none;stroke:red;stroke-width:1px;stroke-linecap:butt;stroke-linejoin:miter;stroke-opacity:1" d="M 285.037,17.2149 292.966,21.6199 z" id="boundary" inkscape:connector-curvature="0" />
	<path style="fill:none;stroke:red;stroke-width:1px;stroke-linecap:butt;stroke-linejoin:miter;stroke-opacity:1" d="M 285.918,401.329 294.728,401.329 z" id="boundary" inkscape:connector-curvature="0" />
	<path style="fill:none;stroke:red;stroke-width:1px;stroke-linecap:butt;stroke-linejoin:miter;stroke-opacity:1" d="M 292.966,21.6199 299.133,28.6679 z" id="boundary" inkscape:connector-curvature="0" />
	<path style="fill:none;stroke:red;stroke-width:1px;stroke-linecap:butt;stroke-linejoin:miter;stroke-opacity:1" d="M 294.728,401.329 302.657,405.734 z" id="boundary" inkscape:connector-curvature="0" />
	<path style="fill:none;stroke:red;stroke-width:1px;stroke-linecap:butt;stroke-linejoin:miter;stroke-opacity:1" d="M 299.133,28.6679 306.181,34.8348 z" id="boundary" inkscape:connector-curvature="0" />
	<path style="fill:none;stroke:red;stroke-width:1px;stroke-linecap:butt;stroke-linejoin:miter;stroke-opacity:1" d="M 302.657,405.734 308.824,412.782 z" id="boundary" inkscape:connector-curvature="0" />
	<path style="fill:none;stroke:red;stroke-width:1px;stroke-linecap:butt;stroke-linejoin:miter;stroke-opacity:1" d="M 306.181,34.8348 312.348,41.8828 z" id="boundary" inkscape:connector-curvature="0" />
	<path style="fill:none;stroke:red;stroke-width:1px;stroke-linecap:butt;stroke-linejoin:miter;stroke-opacity:1" d="M 308.824,412.782 317.634,416.306 z" id="boundary" inkscape:connector-curvature="0" />
	<path style="fill:none;stroke:red;stroke-width:1px;stroke-linecap:butt;stroke-linejoin:miter;stroke-opacity:1" d="M 312.348,41.8828 319.396,48.0497 z" id="boundary" inkscape:connector-curvature="0" />
	<path style="fill:none;stroke:red;stroke-width:1px;stroke-linecap:butt;stroke-linejoin:miter;stroke-opacity:1" d="M 317.634,416.306 325.563,420.71 z" id="boundary" inkscape:connector-curvature="0" />
	<path style="fill:none;stroke:red;stroke-width:1px;stroke-linecap:butt;stroke-linejoin:miter;stroke-opacity:1" d="M 319.396,48.0497 325.563,55.0977 z" id="boundary" inkscape:connector-curvature="0" />
	<path style="fill:none;stroke:red;stroke-width:1px;stroke-linecap:butt;stroke-linejoin:miter;stroke-opacity:1" d="M 325.563,55.0977 330.849,62.1456 z" id="boundary" inkscape:connector-curvature="0" />
	<path style="fill:none;stroke:red;stroke-width:1px;stroke-linecap:butt;stroke-linejoin:miter;stroke-opacity:1" d="M 325.563,420.71 334.373,423.353 z" id="boundary" inkscape:connector-curvature="0" />
	<path style="fill:none;stroke:red;stroke-width:1px;stroke-linecap:butt;stroke-linejoin:miter;stroke-opacity:1" d="M 330.849,62.1456 335.254,70.0746 z" id="boundary" inkscape:connector-curvature="0" />
	<path style="fill:none;stroke:red;stroke-width:1px;stroke-linecap:butt;stroke-linejoin:miter;stroke-opacity:1" d="M 334.373,423.353 343.183,423.353 z" id="boundary" inkscape:connector-curvature="0" />
	<path style="fill:none;stroke:red;stroke-width:1px;stroke-linecap:butt;stroke-linejoin:miter;stroke-opacity:1" d="M 335.254,70.0746 343.183,74.4796 z" id="boundary" inkscape:connector-curvature="0" />
	<path style="fill:none;stroke:red;stroke-width:1px;stroke-linecap:butt;stroke-linejoin:miter;stroke-opacity:1" d="M 343.183,74.4796 351.993,74.4796 z" id="boundary" inkscape:connector-curvature="0" />
	<path style="fill:none;stroke:red;stroke-width:1px;stroke-linecap:butt;stroke-linejoin:miter;stroke-opacity:1" d="M 343.183,423.353 351.112,427.758 z" id="boundary" inkscape:connector-curvature="0" />
	<path style="fill:none;stroke:red;stroke-width:1px;stroke-linecap:butt;stroke-linejoin:miter;stroke-opacity:1" d="M 351.112,427.758 359.922,427.758 z" id="boundary" inkscape:connector-curvature="0" />
	<path style="fill:none;stroke:red;stroke-width:1px;stroke-linecap:butt;stroke-linejoin:miter;stroke-opacity:1" d="M 351.993,74.4796 360.803,74.4796 z" id="boundary" inkscape:connector-curvature="0" />
	<path style="fill:none;stroke:red;stroke-width:1px;stroke-linecap:butt;stroke-linejoin:miter;stroke-opacity:1" d="M 359.922,427.758 368.732,427.758 z" id="boundary" inkscape:connector-curvature="0" />
	<path style="fill:none;stroke:red;stroke-width:1px;stroke-linecap:butt;stroke-linejoin:miter;stroke-opacity:1" d="M 360.803,74.4796 369.613,74.4796 z" id="boundary" inkscape:connector-curvature="0" />
	<path style="fill:none;stroke:red;stroke-width:1px;stroke-linecap:butt;stroke-linejoin:miter;stroke-opacity:1" d="M 368.732,427.758 376.661,432.163 z" id="boundary" inkscape:connector-curvature="0" />
	<path style="fill:none;stroke:red;stroke-width:1px;stroke-linecap:butt;stroke-linejoin:miter;stroke-opacity:1" d="M 369.613,74.4796 378.423,74.4796 z" id="boundary" inkscape:connector-curvature="0" />
	<path style="fill:none;stroke:red;stroke-width:1px;stroke-linecap:butt;stroke-linejoin:miter;stroke-opacity:1" d="M 376.661,432.163 385.471,432.163 z" id="boundary" inkscape:connector-curvature="0" />
	<path style="fill:none;stroke:red;stroke-width:1px;stroke-linecap:butt;stroke-linejoin:miter;stroke-opacity:1" d="M 378.423,74.4796 387.233,74.4796 z" id="boundary" inkscape:connector-curvature="0" />
	<path style="fill:none;stroke:red;stroke-width:1px;stroke-linecap:butt;stroke-linejoin:miter;stroke-opacity:1" d="M 385.471,432.163 394.281,432.163 z" id="boundary" inkscape:connector-curvature="0" />
	<path style="fill:none;stroke:red;stroke-width:1px;stroke-linecap:butt;stroke-linejoin:miter;stroke-opacity:1" d="M 387.233,74.4796 396.043,74.4796 z" id="boundary" inkscape:connector-curvature="0" />
	<path style="fill:none;stroke:red;stroke-width:1px;stroke-linecap:butt;stroke-linejoin:miter;stroke-opacity:1" d="M 394.281,432.163 403.091,432.163 z" id="boundary" inkscape:connector-curvature="0" />
	<path style="fill:none;stroke:red;stroke-width:1px;stroke-linecap:butt;stroke-linejoin:miter;stroke-opacity:1" d="M 396.043,74.4796 404.853,72.7176 z" id="boundary" inkscape:connector-curvature="0" />
	<path style="fill:none;stroke:red;stroke-width:1px;stroke-linecap:butt;stroke-linejoin:miter;stroke-opacity:1" d="M 403.091,432.163 411.901,432.163 z" id="boundary" inkscape:connector-curvature="0" />
	<path style="fill:none;stroke:red;stroke-width:1px;stroke-linecap:butt;stroke-linejoin:miter;stroke-opacity:1" d="M 404.853,72.7176 413.663,70.0746 z" id="boundary" inkscape:connector-curvature="0" />
	<path style="fill:none;stroke:red;stroke-width:1px;stroke-linecap:butt;stroke-linejoin:miter;stroke-opacity:1" d="M 411.901,432.163 420.71,432.163 z" id="boundary" inkscape:connector-curvature="0" />
	<path style="fill:none;stroke:red;stroke-width:1px;stroke-linecap:butt;stroke-linejoin:miter;stroke-opacity:1" d="M 413.663,70.0746 422.472,70.0746 z" id="boundary" inkscape:connector-curvature="0" />
	<path style="fill:none;stroke:red;stroke-width:1px;stroke-linecap:butt;stroke-linejoin:miter;stroke-opacity:1" d="M 420.71,432.163 429.52,432.163 z" id="boundary" inkscape:connector-curvature="0" />
	<path style="fill:none;stroke:red;stroke-width:1px;stroke-linecap:butt;stroke-linejoin:miter;stroke-opacity:1" d="M 422.472,70.0746 430.401,65.6696 z" id="boundary" inkscape:connector-curvature="0" />
	<path style="fill:none;stroke:red;stroke-width:1px;stroke-linecap:butt;stroke-linejoin:miter;stroke-opacity:1" d="M 429.52,432.163 437.449,427.758 z" id="boundary" inkscape:connector-curvature="0" />
	<path style="fill:none;stroke:red;stroke-width:1px;stroke-linecap:butt;stroke-linejoin:miter;stroke-opacity:1" d="M 430.401,65.6696 439.211,65.6696 z" id="boundary" inkscape:connector-curvature="0" />
	<path style="fill:none;stroke:red;stroke-width:1px;stroke-linecap:butt;stroke-linejoin:miter;stroke-opacity:1" d="M 437.449,427.758 446.259,427.758 z" id="boundary" inkscape:connector-curvature="0" />
	<path style="fill:none;stroke:red;stroke-width:1px;stroke-linecap:butt;stroke-linejoin:miter;stroke-opacity:1" d="M 439.211,65.6696 447.14,61.2647 z" id="boundary" inkscape:connector-curvature="0" />
	<path style="fill:none;stroke:red;stroke-width:1px;stroke-linecap:butt;stroke-linejoin:miter;stroke-opacity:1" d="M 446.259,427.758 454.188,423.353 z" id="boundary" inkscape:connector-curvature="0" />
	<path style="fill:none;stroke:red;stroke-width:1px;stroke-linecap:butt;stroke-linejoin:miter;stroke-opacity:1" d="M 447.14,61.2647 455.069,56.8597 z" id="boundary" inkscape:connector-curvature="0" />
	<path style="fill:none;stroke:red;stroke-width:1px;stroke-linecap:butt;stroke-linejoin:miter;stroke-opacity:1" d="M 454.188,423.353 462.998,423.353 z" id="boundary" inkscape:connector-curvature="0" />
	<path style="fill:none;stroke:red;stroke-width:1px;stroke-linecap:butt;stroke-linejoin:miter;stroke-opacity:1" d="M 455.069,56.8597 463.879,56.8597 z" id="boundary" inkscape:connector-curvature="0" />
	<path style="fill:none;stroke:red;stroke-width:1px;stroke-linecap:butt;stroke-linejoin:miter;stroke-opacity:1" d="M 462.998,423.353 471.808,418.948 z" id="boundary" inkscape:connector-curvature="0" />
	<path style="fill:none;stroke:red;stroke-width:1px;stroke-linecap:butt;stroke-linejoin:miter;stroke-opacity:1" d="M 463.879,56.8597 471.808,52.4547 z" id="boundary" inkscape:connector-curvature="0" />
	<path style="fill:none;stroke:red;stroke-width:1px;stroke-linecap:butt;stroke-linejoin:miter;stroke-opacity:1" d="M 471.808,52.4547 480.618,52.4547 z" id="boundary" inkscape:connector-curvature="0" />
	<path style="fill:none;stroke:red;stroke-width:1px;stroke-linecap:butt;stroke-linejoin:miter;stroke-opacity:1" d="M 471.808,418.948 480.618,414.544 z" id="boundary" inkscape:connector-curvature="0" />
	<path style="fill:none;stroke:red;stroke-width:1px;stroke-linecap:butt;stroke-linejoin:miter;stroke-opacity:1" d="M 480.618,52.4547 489.428,52.4547 z" id="boundary" inkscape:connector-curvature="0" />
	<path style="fill:none;stroke:red;stroke-width:1px;stroke-linecap:butt;stroke-linejoin:miter;stroke-opacity:1" d="M 480.618,414.544 489.428,414.544 z" id="boundary" inkscape:connector-curvature="0" />
	<path style="fill:none;stroke:red;stroke-width:1px;stroke-linecap:butt;stroke-linejoin:miter;stroke-opacity:1" d="M 489.428,52.4547 497.357,48.0497 z" id="boundary" inkscape:connector-curvature="0" />
	<path style="fill:none;stroke:red;stroke-width:1px;stroke-linecap:butt;stroke-linejoin:miter;stroke-opacity:1" d="M 489.428,414.544 498.238,410.139 z" id="boundary" inkscape:connector-curvature="0" />
	<path style="fill:none;stroke:red;stroke-width:1px;stroke-linecap:butt;stroke-linejoin:miter;stroke-opacity:1" d="M 497.357,48.0497 506.167,48.0497 z" id="boundary" inkscape:connector-curvature="0" />
	<path style="fill:none;stroke:red;stroke-width:1px;stroke-linecap:butt;stroke-linejoin:miter;stroke-opacity:1" d="M 498.238,410.139 507.048,410.139 z" id="boundary" inkscape:connector-curvature="0" />
	<path style="fill:none;stroke:red;stroke-width:1px;stroke-linecap:butt;stroke-linejoin:miter;stroke-opacity:1" d="M 506.167,48.0497 514.977,48.0497 z" id="boundary" inkscape:connector-curvature="0" />
	<path style="fill:none;stroke:red;stroke-width:1px;stroke-linecap:butt;stroke-linejoin:miter;stroke-opacity:1" d="M 507.048,410.139 515.858,410.139 z" id="boundary" inkscape:connector-curvature="0" />
	<path style="fill:none;stroke:red;stroke-width:1px;stroke-linecap:butt;stroke-linejoin:miter;stroke-opacity:1" d="M 514.977,48.0497 523.787,48.0497 z" id="boundary" inkscape:connector-curvature="0" />
	<path style="fill:none;stroke:red;stroke-width:1px;stroke-linecap:butt;stroke-linejoin:miter;stroke-opacity:1" d="M 515.858,410.139 524.668,410.139 z" id="boundary" inkscape:connector-curvature="0" />
	<path style="fill:none;stroke:red;stroke-width:1px;stroke-linecap:butt;stroke-linejoin:miter;stroke-opacity:1" d="M 523.787,48.0497 532.597,48.0497 z" id="boundary" inkscape:connector-curvature="0" />
	<path style="fill:none;stroke:red;stroke-width:1px;stroke-linecap:butt;stroke-linejoin:miter;stroke-opacity:1" d="M 524.668,410.139 532.597,405.734 z" id="boundary" inkscape:connector-curvature="0" />
	<path style="fill:none;stroke:red;stroke-width:1px;stroke-linecap:butt;stroke-linejoin:miter;stroke-opacity:1" d="M 532.597,48.0497 541.407,48.0497 z" id="boundary" inkscape:connector-curvature="0" />
	<path style="fill:none;stroke:red;stroke-width:1px;stroke-linecap:butt;stroke-linejoin:miter;stroke-opacity:1" d="M 532.597,405.734 541.407,403.091 z" id="boundary" inkscape:connector-curvature="0" />
	<path style="fill:none;stroke:red;stroke-width:1px;stroke-linecap:butt;stroke-linejoin:miter;stroke-opacity:1" d="M 541.407,48.0497 550.217,48.0497 z" id="boundary" inkscape:connector-curvature="0" />
	<path style="fill:none;stroke:red;stroke-width:1px;stroke-linecap:butt;stroke-linejoin:miter;stroke-opacity:1" d="M 541.407,403.091 550.217,401.329 z" id="boundary" inkscape:connector-curvature="0" />
	<path style="fill:none;stroke:red;stroke-width:1px;stroke-linecap:butt;stroke-linejoin:miter;stroke-opacity:1" d="M 550.217,48.0497 558.146,43.6448 z" id="boundary" inkscape:connector-curvature="0" />
	<path style="fill:none;stroke:red;stroke-width:1px;stroke-linecap:butt;stroke-linejoin:miter;stroke-opacity:1" d="M 550.217,401.329 559.027,401.329 z" id="boundary" inkscape:connector-curvature="0" />
	<path style="fill:none;stroke:red;stroke-width:1px;stroke-linecap:butt;stroke-linejoin:miter;stroke-opacity:1" d="M 558.146,43.6448 566.956,43.6448 z" id="boundary" inkscape:connector-curvature="0" />
	<path style="fill:none;stroke:red;stroke-width:1px;stroke-linecap:butt;stroke-linejoin:miter;stroke-opacity:1" d="M 559.027,401.329 566.956,396.924 z" id="boundary" inkscape:connector-curvature="0" />
	<path style="fill:none;stroke:red;stroke-width:1px;stroke-linecap:butt;stroke-linejoin:miter;stroke-opacity:1" d="M 566.956,43.6448 575.766,43.6448 z" id="boundary" inkscape:connector-curvature="0" />
	<path style="fill:none;stroke:red;stroke-width:1px;stroke-linecap:butt;stroke-linejoin:miter;stroke-opacity:1" d="M 566.956,396.924 575.766,396.924 z" id="boundary" inkscape:connector-curvature="0" />
	<path style="fill:none;stroke:red;stroke-width:1px;stroke-linecap:butt;stroke-linejoin:miter;stroke-opacity:1" d="M 575.766,43.6448 584.575,43.6448 z" id="boundary" inkscape:connector-curvature="0" />
	<path style="fill:none;stroke:red;stroke-width:1px;stroke-linecap:butt;stroke-linejoin:miter;stroke-opacity:1" d="M 575.766,396.924 583.694,392.519 z" id="boundary" inkscape:connector-curvature="0" />
	<path style="fill:none;stroke:red;stroke-width:1px;stroke-linecap:butt;stroke-linejoin:miter;stroke-opacity:1" d="M 583.694,392.519 592.504,392.519 z" id="boundary" inkscape:connector-curvature="0" />
	<path style="fill:none;stroke:red;stroke-width:1px;stroke-linecap:butt;stroke-linejoin:miter;stroke-opacity:1" d="M 584.575,43.6448 593.385,43.6448 z" id="boundary" inkscape:connector-curvature="0" />
	<path style="fill:none;stroke:red;stroke-width:1px;stroke-linecap:butt;stroke-linejoin:miter;stroke-opacity:1" d="M 592.504,392.519 601.314,391.638 z" id="boundary" inkscape:connector-curvature="0" />
	<path style="fill:none;stroke:red;stroke-width:1px;stroke-linecap:butt;stroke-linejoin:miter;stroke-opacity:1" d="M 593.385,43.6448 602.195,43.6448 z" id="boundary" inkscape:connector-curvature="0" />
	<path style="fill:none;stroke:red;stroke-width:1px;stroke-linecap:butt;stroke-linejoin:miter;stroke-opacity:1" d="M 601.314,391.638 610.124,388.114 z" id="boundary" inkscape:connector-curvature="0" />
	<path style="fill:none;stroke:red;stroke-width:1px;stroke-linecap:butt;stroke-linejoin:miter;stroke-opacity:1" d="M 602.195,43.6448 611.005,43.6448 z" id="boundary" inkscape:connector-curvature="0" />
	<path style="fill:none;stroke:red;stroke-width:1px;stroke-linecap:butt;stroke-linejoin:miter;stroke-opacity:1" d="M 610.124,388.114 618.053,383.709 z" id="boundary" inkscape:connector-curvature="0" />
	<path style="fill:none;stroke:red;stroke-width:1px;stroke-linecap:butt;stroke-linejoin:miter;stroke-opacity:1" d="M 611.005,43.6448 619.815,43.6448 z" id="boundary" inkscape:connector-curvature="0" />
	<path style="fill:none;stroke:red;stroke-width:1px;stroke-linecap:butt;stroke-linejoin:miter;stroke-opacity:1" d="M 618.053,383.709 626.863,383.709 z" id="boundary" inkscape:connector-curvature="0" />
	<path style="fill:none;stroke:red;stroke-width:1px;stroke-linecap:butt;stroke-linejoin:miter;stroke-opacity:1" d="M 619.815,43.6448 628.625,43.6448 z" id="boundary" inkscape:connector-curvature="0" />
	<path style="fill:none;stroke:red;stroke-width:1px;stroke-linecap:butt;stroke-linejoin:miter;stroke-opacity:1" d="M 626.863,383.709 635.673,383.709 z" id="boundary" inkscape:connector-curvature="0" />
	<path style="fill:none;stroke:red;stroke-width:1px;stroke-linecap:butt;stroke-linejoin:miter;stroke-opacity:1" d="M 628.625,43.6448 637.435,43.6448 z" id="boundary" inkscape:connector-curvature="0" />
	<path style="fill:none;stroke:red;stroke-width:1px;stroke-linecap:butt;stroke-linejoin:miter;stroke-opacity:1" d="M 635.673,383.709 643.602,379.304 z" id="boundary" inkscape:connector-curvature="0" />
	<path style="fill:none;stroke:red;stroke-width:1px;stroke-linecap:butt;stroke-linejoin:miter;stroke-opacity:1" d="M 637.435,43.6448 646.245,43.6448 z" id="boundary" inkscape:connector-curvature="0" />
	<path style="fill:none;stroke:red;stroke-width:1px;stroke-linecap:butt;stroke-linejoin:miter;stroke-opacity:1" d="M 643.602,379.304 652.412,379.304 z" id="boundary" inkscape:connector-curvature="0" />
	<path style="fill:none;stroke:red;stroke-width:1px;stroke-linecap:butt;stroke-linejoin:miter;stroke-opacity:1" d="M 646.245,43.6448 655.055,43.6448 z" id="boundary" inkscape:connector-curvature="0" />
	<path style="fill:none;stroke:red;stroke-width:1px;stroke-linecap:butt;stroke-linejoin:miter;stroke-opacity:1" d="M 652.412,379.304 661.222,379.304 z" id="boundary" inkscape:connector-curvature="0" />
	<path style="fill:none;stroke:red;stroke-width:1px;stroke-linecap:butt;stroke-linejoin:miter;stroke-opacity:1" d="M 655.055,43.6448 663.865,43.6448 z" id="boundary" inkscape:connector-curvature="0" />
	<path style="fill:none;stroke:red;stroke-width:1px;stroke-linecap:butt;stroke-linejoin:miter;stroke-opacity:1" d="M 661.222,379.304 670.032,379.304 z" id="boundary" inkscape:connector-curvature="0" />
	<path style="fill:none;stroke:red;stroke-width:1px;stroke-linecap:butt;stroke-linejoin:miter;stroke-opacity:1" d="M 663.865,43.6448 672.675,43.6448 z" id="boundary" inkscape:connector-curvature="0" />
	<path style="fill:none;stroke:red;stroke-width:1px;stroke-linecap:butt;stroke-linejoin:miter;stroke-opacity:1" d="M 670.032,379.304 678.842,379.304 z" id="boundary" inkscape:connector-curvature="0" />
	<path style="fill:none;stroke:red;stroke-width:1px;stroke-linecap:butt;stroke-linejoin:miter;stroke-opacity:1" d="M 672.675,43.6448 681.485,43.6448 z" id="boundary" inkscape:connector-curvature="0" />
	<path style="fill:none;stroke:red;stroke-width:1px;stroke-linecap:butt;stroke-linejoin:miter;stroke-opacity:1" d="M 678.842,379.304 686.771,383.709 z" id="boundary" inkscape:connector-curvature="0" />
	<path style="fill:none;stroke:red;stroke-width:1px;stroke-linecap:butt;stroke-linejoin:miter;stroke-opacity:1" d="M 681.485,43.6448 690.295,43.6448 z" id="boundary" inkscape:connector-curvature="0" />
	<path style="fill:none;stroke:red;stroke-width:1px;stroke-linecap:butt;stroke-linejoin:miter;stroke-opacity:1" d="M 686.771,383.709 692.057,390.757 z" id="boundary" inkscape:connector-curvature="0" />
	<path style="fill:none;stroke:red;stroke-width:1px;stroke-linecap:butt;stroke-linejoin:miter;stroke-opacity:1" d="M 690.295,43.6448 698.224,48.0497 z" id="boundary" inkscape:connector-curvature="0" />
	<path style="fill:none;stroke:red;stroke-width:1px;stroke-linecap:butt;stroke-linejoin:miter;stroke-opacity:1" d="M 692.057,390.757 699.105,396.924 z" id="boundary" inkscape:connector-curvature="0" />
	<path style="fill:none;stroke:red;stroke-width:1px;stroke-linecap:butt;stroke-linejoin:miter;stroke-opacity:1" d="M 698.224,48.0497 707.034,48.0497 z" id="boundary" inkscape:connector-curvature="0" />
	<path style="fill:none;stroke:red;stroke-width:1px;stroke-linecap:butt;stroke-linejoin:miter;stroke-opacity:1" d="M 699.105,396.924 705.272,403.972 z" id="boundary" inkscape:connector-curvature="0" />
	<path style="fill:none;stroke:red;stroke-width:1px;stroke-linecap:butt;stroke-linejoin:miter;stroke-opacity:1" d="M 705.272,403.972 714.082,407.496 z" id="boundary" inkscape:connector-curvature="0" />
	<path style="fill:none;stroke:red;stroke-width:1px;stroke-linecap:butt;stroke-linejoin:miter;stroke-opacity:1" d="M 707.034,48.0497 714.963,52.4547 z" id="boundary" inkscape:connector-curvature="0" />
	<path style="fill:none;stroke:red;stroke-width:1px;stroke-linecap:butt;stroke-linejoin:miter;stroke-opacity:1" d="M 714.082,407.496 720.249,414.544 z" id="boundary" inkscape:connector-curvature="0" />
	<path style="fill:none;stroke:red;stroke-width:1px;stroke-linecap:butt;stroke-linejoin:miter;stroke-opacity:1" d="M 714.963,52.4547 723.773,52.4547 z" id="boundary" inkscape:connector-curvature="0" />
	<path style="fill:none;stroke:red;stroke-width:1px;stroke-linecap:butt;stroke-linejoin:miter;stroke-opacity:1" d="M 720.249,414.544 729.059,418.067 z" id="boundary" inkscape:connector-curvature="0" />
	<path style="fill:none;stroke:red;stroke-width:1px;stroke-linecap:butt;stroke-linejoin:miter;stroke-opacity:1" d="M 723.773,52.4547 731.702,56.8597 z" id="boundary" inkscape:connector-curvature="0" />
	<path style="fill:none;stroke:red;stroke-width:1px;stroke-linecap:butt;stroke-linejoin:miter;stroke-opacity:1" d="M 729.059,418.067 736.107,423.353 z" id="boundary" inkscape:connector-curvature="0" />
	<path style="fill:none;stroke:red;stroke-width:1px;stroke-linecap:butt;stroke-linejoin:miter;stroke-opacity:1" d="M 731.702,56.8597 740.512,59.5027 z" id="boundary" inkscape:connector-curvature="0" />
	<path style="fill:none;stroke:red;stroke-width:1px;stroke-linecap:butt;stroke-linejoin:miter;stroke-opacity:1" d="M 736.107,423.353 744.036,427.758 z" id="boundary" inkscape:connector-curvature="0" />
	<path style="fill:none;stroke:red;stroke-width:1px;stroke-linecap:butt;stroke-linejoin:miter;stroke-opacity:1" d="M 740.512,59.5027 748.44,63.9076 z" id="boundary" inkscape:connector-curvature="0" />
	<path style="fill:none;stroke:red;stroke-width:1px;stroke-linecap:butt;stroke-linejoin:miter;stroke-opacity:1" d="M 744.036,427.758 751.964,432.163 z" id="boundary" inkscape:connector-curvature="0" />
	<path style="fill:none;stroke:red;stroke-width:1px;stroke-linecap:butt;stroke-linejoin:miter;stroke-opacity:1" d="M 748.44,63.9076 755.488,70.0746 z" id="boundary" inkscape:connector-curvature="0" />
	<path style="fill:none;stroke:red;stroke-width:1px;stroke-linecap:butt;stroke-linejoin:miter;stroke-opacity:1" d="M 751.964,432.163 759.893,436.568 z" id="boundary" inkscape:connector-curvature="0" />
	<path style="fill:none;stroke:red;stroke-width:1px;stroke-linecap:butt;stroke-linejoin:miter;stroke-opacity:1" d="M 755.488,70.0746 763.417,74.4796 z" id="boundary" inkscape:connector-curvature="0" />
	<path style="fill:none;stroke:red;stroke-width:1px;stroke-linecap:butt;stroke-linejoin:miter;stroke-opacity:1" d="M 759.893,436.568 768.703,436.568 z" id="boundary" inkscape:connector-curvature="0" />
	<path style="fill:none;stroke:red;stroke-width:1px;stroke-linecap:butt;stroke-linejoin:miter;stroke-opacity:1" d="M 763.417,74.4796 771.346,78.8845 z" id="boundary" inkscape:connector-curvature="0" />
	<path style="fill:none;stroke:red;stroke-width:1px;stroke-linecap:butt;stroke-linejoin:miter;stroke-opacity:1" d="M 768.703,436.568 776.632,440.973 z" id="boundary" inkscape:connector-curvature="0" />
	<path style="fill:none;stroke:red;stroke-width:1px;stroke-linecap:butt;stroke-linejoin:miter;stroke-opacity:1" d="M 771.346,78.8845 778.394,84.1705 z" id="boundary" inkscape:connector-curvature="0" />
	<path style="fill:none;stroke:red;stroke-width:1px;stroke-linecap:butt;stroke-linejoin:miter;stroke-opacity:1" d="M 776.632,440.973 785.442,443.616 z" id="boundary" inkscape:connector-curvature="0" />
	<path style="fill:none;stroke:red;stroke-width:1px;stroke-linecap:butt;stroke-linejoin:miter;stroke-opacity:1" d="M 778.394,84.1705 784.561,91.2185 z" id="boundary" inkscape:connector-curvature="0" />
	<path style="fill:none;stroke:red;stroke-width:1px;stroke-linecap:butt;stroke-linejoin:miter;stroke-opacity:1" d="M 784.561,91.2185 791.609,96.5044 z" id="boundary" inkscape:connector-curvature="0" />
	<path style="fill:none;stroke:red;stroke-width:1px;stroke-linecap:butt;stroke-linejoin:miter;stroke-opacity:1" d="M 785.442,443.616 794.252,445.378 z" id="boundary" inkscape:connector-curvature="0" />
	<path style="fill:none;stroke:red;stroke-width:1px;stroke-linecap:butt;stroke-linejoin:miter;stroke-opacity:1" d="M 791.609,96.5044 799.538,100.909 z" id="boundary" inkscape:connector-curvature="0" />
	<path style="fill:none;stroke:red;stroke-width:1px;stroke-linecap:butt;stroke-linejoin:miter;stroke-opacity:1" d="M 794.252,445.378 802.181,449.783 z" id="boundary" inkscape:connector-curvature="0" />
	<path style="fill:none;stroke:red;stroke-width:1px;stroke-linecap:butt;stroke-linejoin:miter;stroke-opacity:1" d="M 799.538,100.909 807.467,105.314 z" id="boundary" inkscape:connector-curvature="0" />
	<path style="fill:none;stroke:red;stroke-width:1px;stroke-linecap:butt;stroke-linejoin:miter;stroke-opacity:1" d="M 802.181,449.783 810.991,449.783 z" id="boundary" inkscape:connector-curvature="0" />
	<path style="fill:none;stroke:red;stroke-width:1px;stroke-linecap:butt;stroke-linejoin:miter;stroke-opacity:1" d="M 807.467,105.314 815.396,109.719 z" id="boundary" inkscape:connector-curvature="0" />
	<path style="fill:none;stroke:red;stroke-width:1px;stroke-linecap:butt;stroke-linejoin:miter;stroke-opacity:1" d="M 810.991,449.783 818.92,454.188 z" id="boundary" inkscape:connector-curvature="0" />
	<path style="fill:none;stroke:red;stroke-width:1px;stroke-linecap:butt;stroke-linejoin:miter;stroke-opacity:1" d="M 815.396,109.719 824.206,109.719 z" id="boundary" inkscape:connector-curvature="0" />
	<path style="fill:none;stroke:red;stroke-width:1px;stroke-linecap:butt;stroke-linejoin:miter;stroke-opacity:1" d="M 818.92,454.188 827.73,454.188 z" id="boundary" inkscape:connector-curvature="0" />
	<path style="fill:none;stroke:red;stroke-width:1px;stroke-linecap:butt;stroke-linejoin:miter;stroke-opacity:1" d="M 824.206,109.719 833.016,109.719 z" id="boundary" inkscape:connector-curvature="0" />
	<path style="fill:none;stroke:red;stroke-width:1px;stroke-linecap:butt;stroke-linejoin:miter;stroke-opacity:1" d="M 827.73,454.188 836.54,454.188 z" id="boundary" inkscape:connector-curvature="0" />
	<path style="fill:none;stroke:red;stroke-width:1px;stroke-linecap:butt;stroke-linejoin:miter;stroke-opacity:1" d="M 833.016,109.719 841.826,109.719 z" id="boundary" inkscape:connector-curvature="0" />
	<path style="fill:none;stroke:red;stroke-width:1px;stroke-linecap:butt;stroke-linejoin:miter;stroke-opacity:1" d="M 836.54,454.188 845.35,454.188 z" id="boundary" inkscape:connector-curvature="0" />
	<path style="fill:none;stroke:red;stroke-width:1px;stroke-linecap:butt;stroke-linejoin:miter;stroke-opacity:1" d="M 841.826,109.719 850.636,109.719 z" id="boundary" inkscape:connector-curvature="0" />
	<path style="fill:none;stroke:red;stroke-width:1px;stroke-linecap:butt;stroke-linejoin:miter;stroke-opacity:1" d="M 845.35,454.188 854.16,454.188 z" id="boundary" inkscape:connector-curvature="0" />
	<path style="fill:none;stroke:red;stroke-width:1px;stroke-linecap:butt;stroke-linejoin:miter;stroke-opacity:1" d="M 850.636,109.719 859.446,109.719 z" id="boundary" inkscape:connector-curvature="0" />
	<path style="fill:none;stroke:red;stroke-width:1px;stroke-linecap:butt;stroke-linejoin:miter;stroke-opacity:1" d="M 854.16,454.188 862.97,454.188 z" id="boundary" inkscape:connector-curvature="0" />
	<path style="fill:none;stroke:red;stroke-width:1px;stroke-linecap:butt;stroke-linejoin:miter;stroke-opacity:1" d="M 859.446,109.719 868.256,109.719 z" id="boundary" inkscape:connector-curvature="0" />
	<path style="fill:none;stroke:red;stroke-width:1px;stroke-linecap:butt;stroke-linejoin:miter;stroke-opacity:1" d="M 862.97,454.188 871.78,454.188 z" id="boundary" inkscape:connector-curvature="0" />
	<path style="fill:none;stroke:red;stroke-width:1px;stroke-linecap:butt;stroke-linejoin:miter;stroke-opacity:1" d="M 868.256,109.719 877.066,109.719 z" id="boundary" inkscape:connector-curvature="0" />
	<path style="fill:none;stroke:red;stroke-width:1px;stroke-linecap:butt;stroke-linejoin:miter;stroke-opacity:1" d="M 871.78,454.188 880.59,454.188 z" id="boundary" inkscape:connector-curvature="0" />
	<path style="fill:none;stroke:red;stroke-width:1px;stroke-linecap:butt;stroke-linejoin:miter;stroke-opacity:1" d="M 877.066,109.719 885.876,109.719 z" id="boundary" inkscape:connector-curvature="0" />
	<path style="fill:none;stroke:red;stroke-width:1px;stroke-linecap:butt;stroke-linejoin:miter;stroke-opacity:1" d="M 880.59,454.188 889.4,454.188 z" id="boundary" inkscape:connector-curvature="0" />
	<path style="fill:none;stroke:red;stroke-width:1px;stroke-linecap:butt;stroke-linejoin:miter;stroke-opacity:1" d="M 885.876,109.719 894.686,109.719 z" id="boundary" inkscape:connector-curvature="0" />
	<path style="fill:none;stroke:red;stroke-width:1px;stroke-linecap:butt;stroke-linejoin:miter;stroke-opacity:1" d="M 889.4,454.188 898.21,454.188 z" id="boundary" inkscape:connector-curvature="0" />
	<path style="fill:none;stroke:red;stroke-width:1px;stroke-linecap:butt;stroke-linejoin:miter;stroke-opacity:1" d="M 894.686,109.719 903.496,109.719 z" id="boundary" inkscape:connector-curvature="0" />
	<path style="fill:none;stroke:red;stroke-width:1px;stroke-linecap:butt;stroke-linejoin:miter;stroke-opacity:1" d="M 898.21,454.188 907.02,454.188 z" id="boundary" inkscape:connector-curvature="0" />
	<path style="fill:none;stroke:red;stroke-width:1px;stroke-linecap:butt;stroke-linejoin:miter;stroke-opacity:1" d="M 903.496,109.719 912.306,109.719 z" id="boundary" inkscape:connector-curvature="0" />
	<path style="fill:none;stroke:red;stroke-width:1px;stroke-linecap:butt;stroke-linejoin:miter;stroke-opacity:1" d="M 907.02,454.188 915.829,454.188 z" id="boundary" inkscape:connector-curvature="0" />
	<path style="fill:none;stroke:red;stroke-width:1px;stroke-linecap:butt;stroke-linejoin:miter;stroke-opacity:1" d="M 912.306,109.719 921.115,109.719 z" id="boundary" inkscape:connector-curvature="0" />
	<path style="fill:none;stroke:red;stroke-width:1px;stroke-linecap:butt;stroke-linejoin:miter;stroke-opacity:1" d="M 915.829,454.188 924.639,454.188 z" id="boundary" inkscape:connector-curvature="0" />
	<path style="fill:none;stroke:red;stroke-width:1px;stroke-linecap:butt;stroke-linejoin:miter;stroke-opacity:1" d="M 921.115,109.719 929.925,109.719 z" id="boundary" inkscape:connector-curvature="0" />
	<path style="fill:none;stroke:red;stroke-width:1px;stroke-linecap:butt;stroke-linejoin:miter;stroke-opacity:1" d="M 924.639,454.188 932.568,449.783 z" id="boundary" inkscape:connector-curvature="0" />
	<path style="fill:none;stroke:red;stroke-width:1px;stroke-linecap:butt;stroke-linejoin:miter;stroke-opacity:1" d="M 929.925,109.719 938.735,109.719 z" id="boundary" inkscape:connector-curvature="0" />
	<path style="fill:none;stroke:red;stroke-width:1px;stroke-linecap:butt;stroke-linejoin:miter;stroke-opacity:1" d="M 932.568,449.783 940.497,445.378 z" id="boundary" inkscape:connector-curvature="0" />
	<path style="fill:none;stroke:red;stroke-width:1px;stroke-linecap:butt;stroke-linejoin:miter;stroke-opacity:1" d="M 934.33,291.204 934.33,300.014 z" id="boundary" inkscape:connector-curvature="0" />
	<path style="fill:none;stroke:red;stroke-width:1px;stroke-linecap:butt;stroke-linejoin:miter;stroke-opacity:1" d="M 934.33,291.204 938.735,282.394 z" id="boundary" inkscape:connector-curvature="0" />
	<path style="fill:none;stroke:red;stroke-width:1px;stroke-linecap:butt;stroke-linejoin:miter;stroke-opacity:1" d="M 934.33,300.014 934.33,308.824 z" id="boundary" inkscape:connector-curvature="0" />
	<path style="fill:none;stroke:red;stroke-width:1px;stroke-linecap:butt;stroke-linejoin:miter;stroke-opacity:1" d="M 934.33,308.824 934.33,317.634 z" id="boundary" inkscape:connector-curvature="0" />
	<path style="fill:none;stroke:red;stroke-width:1px;stroke-linecap:butt;stroke-linejoin:miter;stroke-opacity:1" d="M 934.33,317.634 934.33,326.444 z" id="boundary" inkscape:connector-curvature="0" />
	<path style="fill:none;stroke:red;stroke-width:1px;stroke-linecap:butt;stroke-linejoin:miter;stroke-opacity:1" d="M 934.33,326.444 934.33,335.254 z" id="boundary" inkscape:connector-curvature="0" />
	<path style="fill:none;stroke:red;stroke-width:1px;stroke-linecap:butt;stroke-linejoin:miter;stroke-opacity:1" d="M 934.33,335.254 934.33,344.064 z" id="boundary" inkscape:connector-curvature="0" />
	<path style="fill:none;stroke:red;stroke-width:1px;stroke-linecap:butt;stroke-linejoin:miter;stroke-opacity:1" d="M 934.33,344.064 938.735,351.993 z" id="boundary" inkscape:connector-curvature="0" />
	<path style="fill:none;stroke:red;stroke-width:1px;stroke-linecap:butt;stroke-linejoin:miter;stroke-opacity:1" d="M 938.735,109.719 947.545,109.719 z" id="boundary" inkscape:connector-curvature="0" />
	<path style="fill:none;stroke:red;stroke-width:1px;stroke-linecap:butt;stroke-linejoin:miter;stroke-opacity:1" d="M 938.735,282.394 945.783,276.227 z" id="boundary" inkscape:connector-curvature="0" />
	<path style="fill:none;stroke:red;stroke-width:1px;stroke-linecap:butt;stroke-linejoin:miter;stroke-opacity:1" d="M 938.735,351.993 938.735,360.803 z" id="boundary" inkscape:connector-curvature="0" />
	<path style="fill:none;stroke:red;stroke-width:1px;stroke-linecap:butt;stroke-linejoin:miter;stroke-opacity:1" d="M 938.735,360.803 943.14,368.732 z" id="boundary" inkscape:connector-curvature="0" />
	<path style="fill:none;stroke:red;stroke-width:1px;stroke-linecap:butt;stroke-linejoin:miter;stroke-opacity:1" d="M 940.497,445.378 948.426,440.973 z" id="boundary" inkscape:connector-curvature="0" />
	<path style="fill:none;stroke:red;stroke-width:1px;stroke-linecap:butt;stroke-linejoin:miter;stroke-opacity:1" d="M 943.14,368.732 943.14,377.542 z" id="boundary" inkscape:connector-curvature="0" />
	<path style="fill:none;stroke:red;stroke-width:1px;stroke-linecap:butt;stroke-linejoin:miter;stroke-opacity:1" d="M 943.14,377.542 947.545,385.471 z" id="boundary" inkscape:connector-curvature="0" />
	<path style="fill:none;stroke:red;stroke-width:1px;stroke-linecap:butt;stroke-linejoin:miter;stroke-opacity:1" d="M 945.783,276.227 950.188,267.417 z" id="boundary" inkscape:connector-curvature="0" />
	<path style="fill:none;stroke:red;stroke-width:1px;stroke-linecap:butt;stroke-linejoin:miter;stroke-opacity:1" d="M 947.545,109.719 956.355,112.362 z" id="boundary" inkscape:connector-curvature="0" />
	<path style="fill:none;stroke:red;stroke-width:1px;stroke-linecap:butt;stroke-linejoin:miter;stroke-opacity:1" d="M 947.545,385.471 947.545,394.281 z" id="boundary" inkscape:connector-curvature="0" />
	<path style="fill:none;stroke:red;stroke-width:1px;stroke-linecap:butt;stroke-linejoin:miter;stroke-opacity:1" d="M 947.545,394.281 951.95,402.21 z" id="boundary" inkscape:connector-curvature="0" />
	<path style="fill:none;stroke:red;stroke-width:1px;stroke-linecap:butt;stroke-linejoin:miter;stroke-opacity:1" d="M 948.426,440.973 955.474,433.925 z" id="boundary" inkscape:connector-curvature="0" />
	<path style="fill:none;stroke:red;stroke-width:1px;stroke-linecap:butt;stroke-linejoin:miter;stroke-opacity:1" d="M 950.188,267.417 956.355,260.369 z" id="boundary" inkscape:connector-curvature="0" />
	<path style="fill:none;stroke:red;stroke-width:1px;stroke-linecap:butt;stroke-linejoin:miter;stroke-opacity:1" d="M 951.95,402.21 957.236,409.258 z" id="boundary" inkscape:connector-curvature="0" />
	<path style="fill:none;stroke:red;stroke-width:1px;stroke-linecap:butt;stroke-linejoin:miter;stroke-opacity:1" d="M 955.474,433.925 960.76,423.353 z" id="boundary" inkscape:connector-curvature="0" />
	<path style="fill:none;stroke:red;stroke-width:1px;stroke-linecap:butt;stroke-linejoin:miter;stroke-opacity:1" d="M 956.355,112.362 964.284,116.767 z" id="boundary" inkscape:connector-curvature="0" />
	<path style="fill:none;stroke:red;stroke-width:1px;stroke-linecap:butt;stroke-linejoin:miter;stroke-opacity:1" d="M 956.355,260.369 964.284,255.964 z" id="boundary" inkscape:connector-curvature="0" />
	<path style="fill:none;stroke:red;stroke-width:1px;stroke-linecap:butt;stroke-linejoin:miter;stroke-opacity:1" d="M 957.236,409.258 960.76,423.353 z" id="boundary" inkscape:connector-curvature="0" />
	<path style="fill:none;stroke:red;stroke-width:1px;stroke-linecap:butt;stroke-linejoin:miter;stroke-opacity:1" d="M 964.284,116.767 973.094,120.291 z" id="boundary" inkscape:connector-curvature="0" />
	<path style="fill:none;stroke:red;stroke-width:1px;stroke-linecap:butt;stroke-linejoin:miter;stroke-opacity:1" d="M 964.284,255.964 971.332,250.679 z" id="boundary" inkscape:connector-curvature="0" />
	<path style="fill:none;stroke:red;stroke-width:1px;stroke-linecap:butt;stroke-linejoin:miter;stroke-opacity:1" d="M 971.332,250.679 978.38,242.75 z" id="boundary" inkscape:connector-curvature="0" />
	<path style="fill:none;stroke:red;stroke-width:1px;stroke-linecap:butt;stroke-linejoin:miter;stroke-opacity:1" d="M 973.094,120.291 981.023,124.696 z" id="boundary" inkscape:connector-curvature="0" />
	<path style="fill:none;stroke:red;stroke-width:1px;stroke-linecap:butt;stroke-linejoin:miter;stroke-opacity:1" d="M 978.38,242.75 982.785,233.94 z" id="boundary" inkscape:connector-curvature="0" />
	<path style="fill:none;stroke:red;stroke-width:1px;stroke-linecap:butt;stroke-linejoin:miter;stroke-opacity:1" d="M 981.023,124.696 985.428,132.625 z" id="boundary" inkscape:connector-curvature="0" />
	<path style="fill:none;stroke:red;stroke-width:1px;stroke-linecap:butt;stroke-linejoin:miter;stroke-opacity:1" d="M 982.785,233.94 987.19,220.725 z" id="boundary" inkscape:connector-curvature="0" />
	<path style="fill:none;stroke:red;stroke-width:1px;stroke-linecap:butt;stroke-linejoin:miter;stroke-opacity:1" d="M 985.428,132.625 988.952,141.435 z" id="boundary" inkscape:connector-curvature="0" />
	<path style="fill:none;stroke:red;stroke-width:1px;stroke-linecap:butt;stroke-linejoin:miter;stroke-opacity:1" d="M 987.19,220.725 991.595,207.51 z" id="boundary" inkscape:connector-curvature="0" />
	<path style="fill:none;stroke:red;stroke-width:1px;stroke-linecap:butt;stroke-linejoin:miter;stroke-opacity:1" d="M 988.952,141.435 991.595,150.245 z" id="boundary" inkscape:connector-curvature="0" />
	<path style="fill:none;stroke:red;stroke-width:1px;stroke-linecap:butt;stroke-linejoin:miter;stroke-opacity:1" d="M 991.595,150.245 996,158.174 z" id="boundary" inkscape:connector-curvature="0" />
	<path style="fill:none;stroke:red;stroke-width:1px;stroke-linecap:butt;stroke-linejoin:miter;stroke-opacity:1" d="M 991.595,198.7 991.595,207.51 z" id="boundary" inkscape:connector-curvature="0" />
	<path style="fill:none;stroke:red;stroke-width:1px;stroke-linecap:butt;stroke-linejoin:miter;stroke-opacity:1" d="M 991.595,198.7 996,184.604 z" id="boundary" inkscape:connector-curvature="0" />
	<path style="fill:none;stroke:red;stroke-width:1px;stroke-linecap:butt;stroke-linejoin:miter;stroke-opacity:1" d="M 996,158.174 996,166.984 z" id="boundary" inkscape:connector-curvature="0" />
	<path style="fill:none;stroke:red;stroke-width:1px;stroke-linecap:butt;stroke-linejoin:miter;stroke-opacity:1" d="M 996,166.984 996,175.794 z" id="boundary" inkscape:connector-curvature="0" />
	<path style="fill:none;stroke:red;stroke-width:1px;stroke-linecap:butt;stroke-linejoin:miter;stroke-opacity:1" d="M 996,175.794 996,184.604 z" id="boundary" inkscape:connector-curvature="0" />
	<circle cx="4" cy="253.321" r="4" fill="#0" id="circle0"/>
	<circle cx="4" cy="262.131" r="4" fill="#0" id="circle1"/>
	<circle cx="4" cy="270.941" r="4" fill="#0" id="circle2"/>
	<circle cx="4" cy="279.751" r="4" fill="#0" id="circle3"/>
	<circle cx="4" cy="288.561" r="4" fill="#0" id="circle4"/>
	<circle cx="4" cy="297.371" r="4" fill="#0" id="circle5"/>
	<circle cx="4" cy="306.181" r="4" fill="#0" id="circle6"/>
	<circle cx="4" cy="314.991" r="4" fill="#0" id="circle7"/>
	<circle cx="4" cy="323.801" r="4" fill="#0" id="circle8"/>
	<circle cx="8.40497" cy="244.512" r="4" fill="#0" id="circle9"/>
	<circle cx="8.40497" cy="331.73" r="4" fill="#0" id="circle10"/>
	<circle cx="12.8099" cy="339.659" r="4" fill="#0" id="circle11"/>
	<circle cx="12.8099" cy="348.469" r="4" fill="#0" id="circle12"/>
	<circle cx="15.4529" cy="237.464" r="4" fill="#0" id="circle13"/>
	<circle cx="15.4529" cy="357.279" r="4" fill="#0" id="circle14"/>
	<circle cx="22.5009" cy="230.416" r="4" fill="#0" id="circle15"/>
	<circle cx="22.5009" cy="363.446" r="4" fill="#0" id="circle16"/>
	<circle cx="29.5488" cy="224.249" r="4" fill="#0" id="circle17"/>
	<circle cx="31.3108" cy="366.089" r="4" fill="#0" id="circle18"/>
	<circle cx="35.7158" cy="217.201" r="4" fill="#0" id="circle19"/>
	<circle cx="40.1208" cy="366.089" r="4" fill="#0" id="circle20"/>
	<circle cx="42.7638" cy="211.034" r="4" fill="#0" id="circle21"/>
	<circle cx="48.9307" cy="366.089" r="4" fill="#0" id="circle22"/>
	<circle cx="50.6927" cy="206.629" r="4" fill="#0" id="circle23"/>
	<circle cx="55.0977" cy="197.819" r="4" fill="#0" id="circle24"/>
	<circle cx="57.7407" cy="361.684" r="4" fill="#0" id="circle25"/>
	<circle cx="62.1456" cy="190.771" r="4" fill="#0" id="circle26"/>
	<circle cx="66.5506" cy="361.684" r="4" fill="#0" id="circle27"/>
	<circle cx="69.1936" cy="184.604" r="4" fill="#0" id="circle28"/>
	<circle cx="75.3606" cy="177.556" r="4" fill="#0" id="circle29"/>
	<circle cx="75.3606" cy="361.684" r="4" fill="#0" id="circle30"/>
	<circle cx="82.4085" cy="171.389" r="4" fill="#0" id="circle31"/>
	<circle cx="83.2895" cy="357.279" r="4" fill="#0" id="circle32"/>
	<circle cx="90.3375" cy="166.984" r="4" fill="#0" id="circle33"/>
	<circle cx="92.0995" cy="357.279" r="4" fill="#0" id="circle34"/>
	<circle cx="97.3854" cy="159.936" r="4" fill="#0" id="circle35"/>
	<circle cx="100.909" cy="55.0977" r="4" fill="#0" id="circle36"/>
	<circle cx="100.909" cy="63.9076" r="4" fill="#0" id="circle37"/>
	<circle cx="100.909" cy="72.7176" r="4" fill="#0" id="circle38"/>
	<circle cx="100.909" cy="81.5275" r="4" fill="#0" id="circle39"/>
	<circle cx="100.909" cy="90.3375" r="4" fill="#0" id="circle40"/>
	<circle cx="100.909" cy="99.1474" r="4" fill="#0" id="circle41"/>
	<circle cx="100.909" cy="107.957" r="4" fill="#0" id="circle42"/>
	<circle cx="100.909" cy="116.767" r="4" fill="#0" id="circle43"/>
	<circle cx="100.909" cy="125.577" r="4" fill="#0" id="circle44"/>
	<circle cx="100.909" cy="134.387" r="4" fill="#0" id="circle45"/>
	<circle cx="100.909" cy="143.197" r="4" fill="#0" id="circle46"/>
	<circle cx="100.909" cy="357.279" r="4" fill="#0" id="circle47"/>
	<circle cx="105.314" cy="37.4778" r="4" fill="#0" id="circle48"/>
	<circle cx="105.314" cy="46.2877" r="4" fill="#0" id="circle49"/>
	<circle cx="109.719" cy="28.6679" r="4" fill="#0" id="circle50"/>
	<circle cx="109.719" cy="354.636" r="4" fill="#0" id="circle51"/>
	<circle cx="114.124" cy="19.8579" r="4" fill="#0" id="circle52"/>
	<circle cx="118.529" cy="350.231" r="4" fill="#0" id="circle53"/>
	<circle cx="121.172" cy="12.8099" r="4" fill="#0" id="circle54"/>
	<circle cx="127.339" cy="348.469" r="4" fill="#0" id="circle55"/>
	<circle cx="128.22" cy="5.76199" r="4" fill="#0" id="circle56"/>
	<circle cx="136.149" cy="348.469" r="4" fill="#0" id="circle57"/>
	<circle cx="137.03" cy="4" r="4" fill="#0" id="circle58"/>
	<circle cx="144.959" cy="348.469" r="4" fill="#0" id="circle59"/>
	<circle cx="145.84" cy="4" r="4" fill="#0" id="circle60"/>
	<circle cx="152.888" cy="344.064" r="4" fill="#0" id="circle61"/>
	<circle cx="154.65" cy="4" r="4" fill="#0" id="circle62"/>
	<circle cx="161.698" cy="342.302" r="4" fill="#0" id="circle63"/>
	<circle cx="163.46" cy="4" r="4" fill="#0" id="circle64"/>
	<circle cx="170.508" cy="339.659" r="4" fill="#0" id="circle65"/>
	<circle cx="172.27" cy="4" r="4" fill="#0" id="circle66"/>
	<circle cx="179.318" cy="339.659" r="4" fill="#0" id="circle67"/>
	<circle cx="181.08" cy="4" r="4" fill="#0" id="circle68"/>
	<circle cx="188.128" cy="339.659" r="4" fill="#0" id="circle69"/>
	<circle cx="189.89" cy="4" r="4" fill="#0" id="circle70"/>
	<circle cx="196.938" cy="339.659" r="4" fill="#0" id="circle71"/>
	<circle cx="198.7" cy="4" r="4" fill="#0" id="circle72"/>
	<circle cx="204.867" cy="344.064" r="4" fill="#0" id="circle73"/>
	<circle cx="207.51" cy="4" r="4" fill="#0" id="circle74"/>
	<circle cx="209.272" cy="351.993" r="4" fill="#0" id="circle75"/>
	<circle cx="216.32" cy="4" r="4" fill="#0" id="circle76"/>
	<circle cx="217.201" cy="356.398" r="4" fill="#0" id="circle77"/>
	<circle cx="225.13" cy="4" r="4" fill="#0" id="circle78"/>
	<circle cx="226.011" cy="359.922" r="4" fill="#0" id="circle79"/>
	<circle cx="233.94" cy="4" r="4" fill="#0" id="circle80"/>
	<circle cx="233.94" cy="364.327" r="4" fill="#0" id="circle81"/>
	<circle cx="240.988" cy="370.494" r="4" fill="#0" id="circle82"/>
	<circle cx="242.75" cy="4" r="4" fill="#0" id="circle83"/>
	<circle cx="248.917" cy="374.899" r="4" fill="#0" id="circle84"/>
	<circle cx="251.56" cy="6.64298" r="4" fill="#0" id="circle85"/>
	<circle cx="255.964" cy="381.066" r="4" fill="#0" id="circle86"/>
	<circle cx="260.369" cy="8.40497" r="4" fill="#0" id="circle87"/>
	<circle cx="263.893" cy="385.471" r="4" fill="#0" id="circle88"/>
	<circle cx="269.179" cy="8.40497" r="4" fill="#0" id="circle89"/>
	<circle cx="270.941" cy="391.638" r="4" fill="#0" id="circle90"/>
	<circle cx="277.108" cy="12.8099" r="4" fill="#0" id="circle91"/>
	<circle cx="277.989" cy="396.924" r="4" fill="#0" id="circle92"/>
	<circle cx="285.037" cy="17.2149" r="4" fill="#0" id="circle93"/>
	<circle cx="285.918" cy="401.329" r="4" fill="#0" id="circle94"/>
	<circle cx="292.966" cy="21.6199" r="4" fill="#0" id="circle95"/>
	<circle cx="294.728" cy="401.329" r="4" fill="#0" id="circle96"/>
	<circle cx="299.133" cy="28.6679" r="4" fill="#0" id="circle97"/>
	<circle cx="302.657" cy="405.734" r="4" fill="#0" id="circle98"/>
	<circle cx="306.181" cy="34.8348" r="4" fill="#0" id="circle99"/>
	<circle cx="308.824" cy="412.782" r="4" fill="#0" id="circle100"/>
	<circle cx="312.348" cy="41.8828" r="4" fill="#0" id="circle101"/>
	<circle cx="317.634" cy="416.306" r="4" fill="#0" id="circle102"/>
	<circle cx="319.396" cy="48.0497" r="4" fill="#0" id="circle103"/>
	<circle cx="325.563" cy="55.0977" r="4" fill="#0" id="circle104"/>
	<circle cx="325.563" cy="420.71" r="4" fill="#0" id="circle105"/>
	<circle cx="330.849" cy="62.1456" r="4" fill="#0" id="circle106"/>
	<circle cx="334.373" cy="423.353" r="4" fill="#0" id="circle107"/>
	<circle cx="335.254" cy="70.0746" r="4" fill="#0" id="circle108"/>
	<circle cx="343.183" cy="74.4796" r="4" fill="#0" id="circle109"/>
	<circle cx="343.183" cy="423.353" r="4" fill="#0" id="circle110"/>
	<circle cx="351.112" cy="427.758" r="4" fill="#0" id="circle111"/>
	<circle cx="351.993" cy="74.4796" r="4" fill="#0" id="circle112"/>
	<circle cx="359.922" cy="427.758" r="4" fill="#0" id="circle113"/>
	<circle cx="360.803" cy="74.4796" r="4" fill="#0" id="circle114"/>
	<circle cx="368.732" cy="427.758" r="4" fill="#0" id="circle115"/>
	<circle cx="369.613" cy="74.4796" r="4" fill="#0" id="circle116"/>
	<circle cx="376.661" cy="432.163" r="4" fill="#0" id="circle117"/>
	<circle cx="378.423" cy="74.4796" r="4" fill="#0" id="circle118"/>
	<circle cx="385.471" cy="432.163" r="4" fill="#0" id="circle119"/>
	<circle cx="387.233" cy="74.4796" r="4" fill="#0" id="circle120"/>
	<circle cx="394.281" cy="432.163" r="4" fill="#0" id="circle121"/>
	<circle cx="396.043" cy="74.4796" r="4" fill="#0" id="circle122"/>
	<circle cx="403.091" cy="432.163" r="4" fill="#0" id="circle123"/>
	<circle cx="404.853" cy="72.7176" r="4" fill="#0" id="circle124"/>
	<circle cx="411.901" cy="432.163" r="4" fill="#0" id="circle125"/>
	<circle cx="413.663" cy="70.0746" r="4" fill="#0" id="circle126"/>
	<circle cx="420.71" cy="432.163" r="4" fill="#0" id="circle127"/>
	<circle cx="422.472" cy="70.0746" r="4" fill="#0" id="circle128"/>
	<circle cx="429.52" cy="432.163" r="4" fill="#0" id="circle129"/>
	<circle cx="430.401" cy="65.6696" r="4" fill="#0" id="circle130"/>
	<circle cx="437.449" cy="427.758" r="4" fill="#0" id="circle131"/>
	<circle cx="439.211" cy="65.6696" r="4" fill="#0" id="circle132"/>
	<circle cx="446.259" cy="427.758" r="4" fill="#0" id="circle133"/>
	<circle cx="447.14" cy="61.2647" r="4" fill="#0" id="circle134"/>
	<circle cx="454.188" cy="423.353" r="4" fill="#0" id="circle135"/>
	<circle cx="455.069" cy="56.8597" r="4" fill="#0" id="circle136"/>
	<circle cx="462.998" cy="423.353" r="4" fill="#0" id="circle137"/>
	<circle cx="463.879" cy="56.8597" r="4" fill="#0" id="circle138"/>
	<circle cx="471.808" cy="52.4547" r="4" fill="#0" id="circle139"/>
	<circle cx="471.808" cy="418.948" r="4" fill="#0" id="circle140"/>
	<circle cx="480.618" cy="52.4547" r="4" fill="#0" id="circle141"/>
	<circle cx="480.618" cy="414.544" r="4" fill="#0" id="circle142"/>
	<circle cx="489.428" cy="52.4547" r="4" fill="#0" id="circle143"/>
	<circle cx="489.428" cy="414.544" r="4" fill="#0" id="circle144"/>
	<circle cx="497.357" cy="48.0497" r="4" fill="#0" id="circle145"/>
	<circle cx="498.238" cy="410.139" r="4" fill="#0" id="circle146"/>
	<circle cx="506.167" cy="48.0497" r="4" fill="#0" id="circle147"/>
	<circle cx="507.048" cy="410.139" r="4" fill="#0" id="circle148"/>
	<circle cx="514.977" cy="48.0497" r="4" fill="#0" id="circle149"/>
	<circle cx="515.858" cy="410.139" r="4" fill="#0" id="circle150"/>
	<circle cx="523.787" cy="48.0497" r="4" fill="#0" id="circle151"/>
	<circle cx="524.668" cy="410.139" r="4" fill="#0" id="circle152"/>
	<circle cx="532.597" cy="48.0497" r="4" fill="#0" id="circle153"/>
	<circle cx="532.597" cy="405.734" r="4" fill="#0" id="circle154"/>
	<circle cx="541.407" cy="48.0497" r="4" fill="#0" id="circle155"/>
	<circle cx="541.407" cy="403.091" r="4" fill="#0" id="circle156"/>
	<circle cx="550.217" cy="48.0497" r="4" fill="#0" id="circle157"/>
	<circle cx="550.217" cy="401.329" r="4" fill="#0" id="circle158"/>
	<circle cx="558.146" cy="43.6448" r="4" fill="#0" id="circle159"/>
	<circle cx="559.027" cy="401.329" r="4" fill="#0" id="circle160"/>
	<circle cx="566.956" cy="43.6448" r="4" fill="#0" id="circle161"/>
	<circle cx="566.956" cy="396.924" r="4" fill="#0" id="circle162"/>
	<circle cx="575.766" cy="43.6448" r="4" fill="#0" id="circle163"/>
	<circle cx="575.766" cy="396.924" r="4" fill="#0" id="circle164"/>
	<circle cx="583.694" cy="392.519" r="4" fill="#0" id="circle165"/>
	<circle cx="584.575" cy="43.6448" r="4" fill="#0" id="circle166"/>
	<circle cx="592.504" cy="392.519" r="4" fill="#0" id="circle167"/>
	<circle cx="593.385" cy="43.6448" r="4" fill="#0" id="circle168"/>
	<circle cx="601.314" cy="391.638" r="4" fill="#0" id="circle169"/>
	<circle cx="602.195" cy="43.6448" r="4" fill="#0" id="circle170"/>
	<circle cx="610.124" cy="388.114" r="4" fill="#0" id="circle171"/>
	<circle cx="611.005" cy="43.6448" r="4" fill="#0" id="circle172"/>
	<circle cx="618.053" cy="383.709" r="4" fill="#0" id="circle173"/>
	<circle cx="619.815" cy="43.6448" r="4" fill="#0" id="circle174"/>
	<circle cx="626.863" cy="383.709" r="4" fill="#0" id="circle175"/>
	<circle cx="628.625" cy="43.6448" r="4" fill="#0" id="circle176"/>
	<circle cx="635.673" cy="383.709" r="4" fill="#0" id="circle177"/>
	<circle cx="637.435" cy="43.6448" r="4" fill="#0" id="circle178"/>
	<circle cx="643.602" cy="379.304" r="4" fill="#0" id="circle179"/>
	<circle cx="646.245" cy="43.6448" r="4" fill="#0" id="circle180"/>
	<circle cx="652.412" cy="379.304" r="4" fill="#0" id="circle181"/>
	<circle cx="655.055" cy="43.6448" r="4" fill="#0" id="circle182"/>
	<circle cx="661.222" cy="379.304" r="4" fill="#0" id="circle183"/>
	<circle cx="663.865" cy="43.6448" r="4" fill="#0" id="circle184"/>
	<circle cx="670.032" cy="379.304" r="4" fill="#0" id="circle185"/>
	<circle cx="672.675" cy="43.6448" r="4" fill="#0" id="circle186"/>
	<circle cx="678.842" cy="379.304" r="4" fill="#0" id="circle187"/>
	<circle cx="681.485" cy="43.6448" r="4" fill="#0" id="circle188"/>
	<circle cx="686.771" cy="383.709" r="4" fill="#0" id="circle189"/>
	<circle cx="690.295" cy="43.6448" r="4" fill="#0" id="circle190"/>
	<circle cx="692.057" cy="390.757" r="4" fill="#0" id="circle191"/>
	<circle cx="698.224" cy="48.0497" r="4" fill="#0" id="circle192"/>
	<circle cx="699.105" cy="396.924" r="4" fill="#0" id="circle193"/>
	<circle cx="705.272" cy="403.972" r="4" fill="#0" id="circle194"/>
	<circle cx="707.034" cy="48.0497" r="4" fill="#0" id="circle195"/>
	<circle cx="714.082" cy="407.496" r="4" fill="#0" id="circle196"/>
	<circle cx="714.963" cy="52.4547" r="4" fill="#0" id="circle197"/>
	<circle cx="720.249" cy="414.544" r="4" fill="#0" id="circle198"/>
	<circle cx="723.773" cy="52.4547" r="4" fill="#0" id="circle199"/>
	<circle cx="729.059" cy="418.067" r="4" fill="#0" id="circle200"/>
	<circle cx="731.702" cy="56.8597" r="4" fill="#0" id="circle201"/>
	<circle cx="736.107" cy="423.353" r="4" fill="#0" id="circle202"/>
	<circle cx="740.512" cy="59.5027" r="4" fill="#0" id="circle203"/>
	<circle cx="744.036" cy="427.758" r="4" fill="#0" id="circle204"/>
	<circle cx="748.44" cy="63.9076" r="4" fill="#0" id="circle205"/>
	<circle cx="751.964" cy="432.163" r="4" fill="#0" id="circle206"/>
	<circle cx="755.488" cy="70.0746" r="4" fill="#0" id="circle207"/>
	<circle cx="759.893" cy="436.568" r="4" fill="#0" id="circle208"/>
	<circle cx="763.417" cy="74.4796" r="4" fill="#0" id="circle209"/>
	<circle cx="768.703" cy="436.568" r="4" fill="#0" id="circle210"/>
	<circle cx="771.346" cy="78.8845" r="4" fill="#0" id="circle211"/>
	<circle cx="776.632" cy="440.973" r="4" fill="#0" id="circle212"/>
	<circle cx="778.394" cy="84.1705" r="4" fill="#0" id="circle213"/>
	<circle cx="784.561" cy="91.2185" r="4" fill="#0" id="circle214"/>
	<circle cx="785.442" cy="443.616" r="4" fill="#0" id="circle215"/>
	<circle cx="791.609" cy="96.5044" r="4" fill="#0" id="circle216"/>
	<circle cx="794.252" cy="445.378" r="4" fill="#0" id="circle217"/>
	<circle cx="799.538" cy="100.909" r="4" fill="#0" id="circle218"/>
	<circle cx="802.181" cy="449.783" r="4" fill="#0" id="circle219"/>
	<circle cx="807.467" cy="105.314" r="4" fill="#0" id="circle220"/>
	<circle cx="810.991" cy="449.783" r="4" fill="#0" id="circle221"/>
	<circle cx="815.396" cy="109.719" r="4" fill="#0" id="circle222"/>
	<circle cx="818.92" cy="454.188" r="4" fill="#0" id="circle223"/>
	<circle cx="824.206" cy="109.719" r="4" fill="#0" id="circle224"/>
	<circle cx="827.73" cy="454.188" r="4" fill="#0" id="circle225"/>
	<circle cx="833.016" cy="109.719" r="4" fill="#0" id="circle226"/>
	<circle cx="836.54" cy="454.188" r="4" fill="#0" id="circle227"/>
	<circle cx="841.826" cy="109.719" r="4" fill="#0" id="circle228"/>
	<circle cx="845.35" cy="454.188" r="4" fill="#0" id="circle229"/>
	<circle cx="850.636" cy="109.719" r="4" fill="#0" id="circle230"/>
	<circle cx="854.16" cy="454.188" r="4" fill="#0" id="circle231"/>
	<circle cx="859.446" cy="109.719" r="4" fill="#0" id="circle232"/>
	<circle cx="862.97" cy="454.188" r="4" fill="#0" id="circle233"/>
	<circle cx="868.256" cy="109.719" r="4" fill="#0" id="circle234"/>
	<circle cx="871.78" cy="454.188" r="4" fill="#0" id="circle235"/>
	<circle cx="877.066" cy="109.719" r="4" fill="#0" id="circle236"/>
	<circle cx="880.59" cy="454.188" r="4" fill="#0" id="circle237"/>
	<circle cx="885.876" cy="109.719" r="4" fill="#0" id="circle238"/>
	<circle cx="889.4" cy="454.188" r="4" fill="#0" id="circle239"/>
	<circle cx="894.686" cy="109.719" r="4" fill="#0" id="circle240"/>
	<circle cx="898.21" cy="454.188" r="4" fill="#0" id="circle241"/>
	<circle cx="903.496" cy="109.719" r="4" fill="#0" id="circle242"/>
	<circle cx="907.02" cy="454.188" r="4" fill="#0" id="circle243"/>
	<circle cx="912.306" cy="109.719" r="4" fill="#0" id="circle244"/>
	<circle cx="915.829" cy="454.188" r="4" fill="#0" id="circle245"/>
	<circle cx="921.115" cy="109.719" r="4" fill="#0" id="circle246"/>
	<circle cx="924.639" cy="454.188" r="4" fill="#0" id="circle247"/>
	<circle cx="929.925" cy="109.719" r="4" fill="#0" id="circle248"/>
	<circle cx="932.568" cy="449.783" r="4" fill="#0" id="circle249"/>
	<circle cx="934.33" cy="291.204" r="4" fill="#0" id="circle250"/>
	<circle cx="934.33" cy="300.014" r="4" fill="#0" id="circle251"/>
	<circle cx="934.33" cy="308.824" r="4" fill="#0" id="circle252"/>
	<circle cx="934.33" cy="317.634" r="4" fill="#0" id="circle253"/>
	<circle cx="934.33" cy="326.444" r="4" fill="#0" id="circle254"/>
	<circle cx="934.33" cy="335.254" r="4" fill="#0" id="circle255"/>
	<circle cx="934.33" cy="344.064" r="4" fill="#0" id="circle256"/>
	<circle cx="938.735" cy="109.719" r="4" fill="#0" id="circle257"/>
	<circle cx="938.735" cy="282.394" r="4" fill="#0" id="circle258"/>
	<circle cx="938.735" cy="351.993" r="4" fill="#0" id="circle259"/>
	<circle cx="938.735" cy="360.803" r="4" fill="#0" id="circle260"/>
	<circle cx="940.497" cy="445.378" r="4" fill="#0" id="circle261"/>
	<circle cx="943.14" cy="368.732" r="4" fill="#0" id="circle262"/>
	<circle cx="943.14" cy="377.542" r="4" fill="#0" id="circle263"/>
	<circle cx="945.783" cy="276.227" r="4" fill="#0" id="circle264"/>
	<circle cx="947.545" cy="109.719" r="4" fill="#0" id="circle265"/>
	<circle cx="947.545" cy="385.471" r="4" fill="#0" id="circle266"/>
	<circle cx="947.545" cy="394.281" r="4" fill="#0" id="circle267"/>
	<circle cx="948.426" cy="440.973" r="4" fill="#0" id="circle268"/>
	<circle cx="950.188" cy="267.417" r="4" fill="#0" id="circle269"/>
	<circle cx="951.95" cy="402.21" r="4" fill="#0" id="circle270"/>
	<circle cx="955.474" cy="433.925" r="4" fill="#0" id="circle271"/>
	<circle cx="956.355" cy="112.362" r="4" fill="#0" id="circle272"/>
	<circle cx="956.355" cy="260.369" r="4" fill="#0" id="circle273"/>
	<circle cx="957.236" cy="409.258" r="4" fill="#0" id="circle274"/>
	<circle cx="960.76" cy="423.353" r="4" fill="#0" id="circle275"/>
	<circle cx="964.284" cy="116.767" r="4" fill="#0" id="circle276"/>
	<circle cx="964.284" cy="255.964" r="4" fill="#0" id="circle277"/>
	<circle cx="971.332" cy="250.679" r="4" fill="#0" id="circle278"/>
	<circle cx="973.094" cy="120.291" r="4" fill="#0" id="circle279"/>
	<circle cx="978.38" cy="242.75" r="4" fill="#0" id="circle280"/>
	<circle cx="981.023" cy="124.696" r="4" fill="#0" id="circle281"/>
	<circle cx="982.785" cy="233.94" r="4" fill="#0" id="circle282"/>
	<circle cx="985.428" cy="132.625" r="4" fill="#0" id="circle283"/>
	<circle cx="987.19" cy="220.725" r="4" fill="#0" id="circle284"/>
	<circle cx="988.952" cy="141.435" r="4" fill="#0" id="circle285"/>
	<circle cx="991.595" cy="150.245" r="4" fill="#0" id="circle286"/>
	<circle cx="991.595" cy="198.7" r="4" fill="#0" id="circle287"/>
	<circle cx="991.595" cy="207.51" r="4" fill="#0" id="circle288"/>
	<circle cx="996" cy="158.174" r="4" fill="#0" id="circle289"/>
	<circle cx="996" cy="166.984" r="4" fill="#0" id="circle290"/>
	<circle cx="996" cy="175.794" r="4" fill="#0" id="circle291"/>
	<circle cx="996" cy="184.604" r="4" fill="#0" id="circle292"/>
	</g>
</svg>