<?xml version="1.0" encoding="UTF-8" standalone="no"?>
<!-- Created with CurveBenchmark -->
<svg
	xmlns:dc="http://purl.org/dc/elements/1.1/"
	xmlns:cc="http://creativecommons.org/ns#"
	xmlns:rdf="http://www.w3.org/1999/02/22-rdf-syntax-ns#"
	xmlns:svg="http://www.w3.org/2000/svg"
	xmlns="http://www.w3.org/2000/svg"
	xmlns:sodipodi="http://sodipodi.sourceforge.net/DTD/sodipodi-0.dtd"
	xmlns:inkscape="http://www.inkscape.org/namespaces/inkscape"
	width="1000"
	height="1000"
	id="svg2"
	version="1.1"
	sodipodi:docname="manifold/fitconnect-dude2occ4.png.txt">
<defs
	id="defs4" />
<metadata
	id="metadata7">
	<rdf:RDF>
		<cc:Work
			rdf:about="">
			<dc:format>image/svg+xml</dc:format>
			<dc:type
				rdf:resource="http://purl.org/dc/dcmitype/StillImage" />
			<dc:title></dc:title>
		</cc:Work>
	</rdf:RDF>
</metadata>
<g
	inkscape:label="Layer 1"
	inkscape:groupmode="layer"
	id="layer1">
	<path style="fill:none;stroke:red;stroke-width:1px;stroke-linecap:butt;stroke-linejoin:miter;stroke-opacity:1" d="M 4,396.976 4,418.218 z" id="boundary" inkscape:connector-curvature="0" />
	<path style="fill:none;stroke:red;stroke-width:1px;stroke-linecap:butt;stroke-linejoin:miter;stroke-opacity:1" d="M 4,396.976 14.621,375.734 z" id="boundary" inkscape:connector-curvature="0" />
	<path style="fill:none;stroke:red;stroke-width:1px;stroke-linecap:butt;stroke-linejoin:miter;stroke-opacity:1" d="M 4,418.218 25.242,424.591 z" id="boundary" inkscape:connector-curvature="0" />
	<path style="fill:none;stroke:red;stroke-width:1px;stroke-linecap:butt;stroke-linejoin:miter;stroke-opacity:1" d="M 14.621,375.734 25.242,354.493 z" id="boundary" inkscape:connector-curvature="0" />
	<path style="fill:none;stroke:red;stroke-width:1px;stroke-linecap:butt;stroke-linejoin:miter;stroke-opacity:1" d="M 25.242,354.493 42.2355,337.499 z" id="boundary" inkscape:connector-curvature="0" />
	<path style="fill:none;stroke:red;stroke-width:1px;stroke-linecap:butt;stroke-linejoin:miter;stroke-opacity:1" d="M 25.242,424.591 46.4839,428.839 z" id="boundary" inkscape:connector-curvature="0" />
	<path style="fill:none;stroke:red;stroke-width:1px;stroke-linecap:butt;stroke-linejoin:miter;stroke-opacity:1" d="M 42.2355,337.499 52.8565,316.257 z" id="boundary" inkscape:connector-curvature="0" />
	<path style="fill:none;stroke:red;stroke-width:1px;stroke-linecap:butt;stroke-linejoin:miter;stroke-opacity:1" d="M 46.4839,428.839 63.4775,411.846 z" id="boundary" inkscape:connector-curvature="0" />
	<path style="fill:none;stroke:red;stroke-width:1px;stroke-linecap:butt;stroke-linejoin:miter;stroke-opacity:1" d="M 52.8565,316.257 67.7259,290.767 z" id="boundary" inkscape:connector-curvature="0" />
	<path style="fill:none;stroke:red;stroke-width:1px;stroke-linecap:butt;stroke-linejoin:miter;stroke-opacity:1" d="M 63.4775,411.846 80.4711,392.728 z" id="boundary" inkscape:connector-curvature="0" />
	<path style="fill:none;stroke:red;stroke-width:1px;stroke-linecap:butt;stroke-linejoin:miter;stroke-opacity:1" d="M 67.7259,290.767 84.7195,273.773 z" id="boundary" inkscape:connector-curvature="0" />
	<path style="fill:none;stroke:red;stroke-width:1px;stroke-linecap:butt;stroke-linejoin:miter;stroke-opacity:1" d="M 80.4711,392.728 97.4647,377.859 z" id="boundary" inkscape:connector-curvature="0" />
	<path style="fill:none;stroke:red;stroke-width:1px;stroke-linecap:butt;stroke-linejoin:miter;stroke-opacity:1" d="M 84.7195,273.773 95.3405,252.531 z" id="boundary" inkscape:connector-curvature="0" />
	<path style="fill:none;stroke:red;stroke-width:1px;stroke-linecap:butt;stroke-linejoin:miter;stroke-opacity:1" d="M 95.3405,252.531 110.21,216.42 z" id="boundary" inkscape:connector-curvature="0" />
	<path style="fill:none;stroke:red;stroke-width:1px;stroke-linecap:butt;stroke-linejoin:miter;stroke-opacity:1" d="M 97.4647,377.859 112.334,360.865 z" id="boundary" inkscape:connector-curvature="0" />
	<path style="fill:none;stroke:red;stroke-width:1px;stroke-linecap:butt;stroke-linejoin:miter;stroke-opacity:1" d="M 110.21,216.42 120.831,195.178 z" id="boundary" inkscape:connector-curvature="0" />
	<path style="fill:none;stroke:red;stroke-width:1px;stroke-linecap:butt;stroke-linejoin:miter;stroke-opacity:1" d="M 112.334,360.865 129.328,345.996 z" id="boundary" inkscape:connector-curvature="0" />
	<path style="fill:none;stroke:red;stroke-width:1px;stroke-linecap:butt;stroke-linejoin:miter;stroke-opacity:1" d="M 120.831,195.178 137.824,178.184 z" id="boundary" inkscape:connector-curvature="0" />
	<path style="fill:none;stroke:red;stroke-width:1px;stroke-linecap:butt;stroke-linejoin:miter;stroke-opacity:1" d="M 120.831,959.889 131.452,938.647 z" id="boundary" inkscape:connector-curvature="0" />
	<path style="fill:none;stroke:red;stroke-width:1px;stroke-linecap:butt;stroke-linejoin:miter;stroke-opacity:1" d="M 120.831,959.889 131.452,979.006 z" id="boundary" inkscape:connector-curvature="0" />
	<path style="fill:none;stroke:red;stroke-width:1px;stroke-linecap:butt;stroke-linejoin:miter;stroke-opacity:1" d="M 129.328,345.996 144.197,329.002 z" id="boundary" inkscape:connector-curvature="0" />
	<path style="fill:none;stroke:red;stroke-width:1px;stroke-linecap:butt;stroke-linejoin:miter;stroke-opacity:1" d="M 131.452,917.405 131.452,938.647 z" id="boundary" inkscape:connector-curvature="0" />
	<path style="fill:none;stroke:red;stroke-width:1px;stroke-linecap:butt;stroke-linejoin:miter;stroke-opacity:1" d="M 131.452,917.405 142.073,885.542 z" id="boundary" inkscape:connector-curvature="0" />
	<path style="fill:none;stroke:red;stroke-width:1px;stroke-linecap:butt;stroke-linejoin:miter;stroke-opacity:1" d="M 131.452,979.006 146.321,996 z" id="boundary" inkscape:connector-curvature="0" />
	<path style="fill:none;stroke:red;stroke-width:1px;stroke-linecap:butt;stroke-linejoin:miter;stroke-opacity:1" d="M 137.824,178.184 154.818,161.191 z" id="boundary" inkscape:connector-curvature="0" />
	<path style="fill:none;stroke:red;stroke-width:1px;stroke-linecap:butt;stroke-linejoin:miter;stroke-opacity:1" d="M 142.073,885.542 152.694,864.3 z" id="boundary" inkscape:connector-curvature="0" />
	<path style="fill:none;stroke:red;stroke-width:1px;stroke-linecap:butt;stroke-linejoin:miter;stroke-opacity:1" d="M 144.197,329.002 154.818,307.76 z" id="boundary" inkscape:connector-curvature="0" />
	<path style="fill:none;stroke:red;stroke-width:1px;stroke-linecap:butt;stroke-linejoin:miter;stroke-opacity:1" d="M 146.321,996 167.563,987.503 z" id="boundary" inkscape:connector-curvature="0" />
	<path style="fill:none;stroke:red;stroke-width:1px;stroke-linecap:butt;stroke-linejoin:miter;stroke-opacity:1" d="M 152.694,864.3 169.687,847.306 z" id="boundary" inkscape:connector-curvature="0" />
	<path style="fill:none;stroke:red;stroke-width:1px;stroke-linecap:butt;stroke-linejoin:miter;stroke-opacity:1" d="M 154.818,161.191 176.06,150.57 z" id="boundary" inkscape:connector-curvature="0" />
	<path style="fill:none;stroke:red;stroke-width:1px;stroke-linecap:butt;stroke-linejoin:miter;stroke-opacity:1" d="M 154.818,307.76 171.812,292.891 z" id="boundary" inkscape:connector-curvature="0" />
	<path style="fill:none;stroke:red;stroke-width:1px;stroke-linecap:butt;stroke-linejoin:miter;stroke-opacity:1" d="M 167.563,987.503 186.681,976.882 z" id="boundary" inkscape:connector-curvature="0" />
	<path style="fill:none;stroke:red;stroke-width:1px;stroke-linecap:butt;stroke-linejoin:miter;stroke-opacity:1" d="M 169.687,847.306 180.308,826.064 z" id="boundary" inkscape:connector-curvature="0" />
	<path style="fill:none;stroke:red;stroke-width:1px;stroke-linecap:butt;stroke-linejoin:miter;stroke-opacity:1" d="M 171.812,292.891 186.681,275.897 z" id="boundary" inkscape:connector-curvature="0" />
	<path style="fill:none;stroke:red;stroke-width:1px;stroke-linecap:butt;stroke-linejoin:miter;stroke-opacity:1" d="M 176.06,150.57 193.054,135.7 z" id="boundary" inkscape:connector-curvature="0" />
	<path style="fill:none;stroke:red;stroke-width:1px;stroke-linecap:butt;stroke-linejoin:miter;stroke-opacity:1" d="M 180.308,826.064 190.929,804.822 z" id="boundary" inkscape:connector-curvature="0" />
	<path style="fill:none;stroke:red;stroke-width:1px;stroke-linecap:butt;stroke-linejoin:miter;stroke-opacity:1" d="M 186.681,275.897 207.923,265.276 z" id="boundary" inkscape:connector-curvature="0" />
	<path style="fill:none;stroke:red;stroke-width:1px;stroke-linecap:butt;stroke-linejoin:miter;stroke-opacity:1" d="M 186.681,976.882 203.675,962.013 z" id="boundary" inkscape:connector-curvature="0" />
	<path style="fill:none;stroke:red;stroke-width:1px;stroke-linecap:butt;stroke-linejoin:miter;stroke-opacity:1" d="M 190.929,804.822 201.55,783.58 z" id="boundary" inkscape:connector-curvature="0" />
	<path style="fill:none;stroke:red;stroke-width:1px;stroke-linecap:butt;stroke-linejoin:miter;stroke-opacity:1" d="M 193.054,135.7 212.171,125.079 z" id="boundary" inkscape:connector-curvature="0" />
	<path style="fill:none;stroke:red;stroke-width:1px;stroke-linecap:butt;stroke-linejoin:miter;stroke-opacity:1" d="M 201.55,783.58 212.171,762.338 z" id="boundary" inkscape:connector-curvature="0" />
	<path style="fill:none;stroke:red;stroke-width:1px;stroke-linecap:butt;stroke-linejoin:miter;stroke-opacity:1" d="M 203.675,962.013 218.544,945.019 z" id="boundary" inkscape:connector-curvature="0" />
	<path style="fill:none;stroke:red;stroke-width:1px;stroke-linecap:butt;stroke-linejoin:miter;stroke-opacity:1" d="M 207.923,265.276 229.165,265.276 z" id="boundary" inkscape:connector-curvature="0" />
	<path style="fill:none;stroke:red;stroke-width:1px;stroke-linecap:butt;stroke-linejoin:miter;stroke-opacity:1" d="M 212.171,125.079 233.413,114.458 z" id="boundary" inkscape:connector-curvature="0" />
	<path style="fill:none;stroke:red;stroke-width:1px;stroke-linecap:butt;stroke-linejoin:miter;stroke-opacity:1" d="M 212.171,762.338 222.792,741.096 z" id="boundary" inkscape:connector-curvature="0" />
	<path style="fill:none;stroke:red;stroke-width:1px;stroke-linecap:butt;stroke-linejoin:miter;stroke-opacity:1" d="M 218.544,945.019 229.165,923.777 z" id="boundary" inkscape:connector-curvature="0" />
	<path style="fill:none;stroke:red;stroke-width:1px;stroke-linecap:butt;stroke-linejoin:miter;stroke-opacity:1" d="M 222.792,741.096 233.413,719.854 z" id="boundary" inkscape:connector-curvature="0" />
	<path style="fill:none;stroke:red;stroke-width:1px;stroke-linecap:butt;stroke-linejoin:miter;stroke-opacity:1" d="M 229.165,265.276 248.283,275.897 z" id="boundary" inkscape:connector-curvature="0" />
	<path style="fill:none;stroke:red;stroke-width:1px;stroke-linecap:butt;stroke-linejoin:miter;stroke-opacity:1" d="M 229.165,923.777 246.158,908.908 z" id="boundary" inkscape:connector-curvature="0" />
	<path style="fill:none;stroke:red;stroke-width:1px;stroke-linecap:butt;stroke-linejoin:miter;stroke-opacity:1" d="M 233.413,114.458 254.655,114.458 z" id="boundary" inkscape:connector-curvature="0" />
	<path style="fill:none;stroke:red;stroke-width:1px;stroke-linecap:butt;stroke-linejoin:miter;stroke-opacity:1" d="M 233.413,719.854 248.283,694.364 z" id="boundary" inkscape:connector-curvature="0" />
	<path style="fill:none;stroke:red;stroke-width:1px;stroke-linecap:butt;stroke-linejoin:miter;stroke-opacity:1" d="M 246.158,908.908 261.028,881.293 z" id="boundary" inkscape:connector-curvature="0" />
	<path style="fill:none;stroke:red;stroke-width:1px;stroke-linecap:butt;stroke-linejoin:miter;stroke-opacity:1" d="M 248.283,275.897 254.655,297.139 z" id="boundary" inkscape:connector-curvature="0" />
	<path style="fill:none;stroke:red;stroke-width:1px;stroke-linecap:butt;stroke-linejoin:miter;stroke-opacity:1" d="M 248.283,694.364 258.904,673.122 z" id="boundary" inkscape:connector-curvature="0" />
	<path style="fill:none;stroke:red;stroke-width:1px;stroke-linecap:butt;stroke-linejoin:miter;stroke-opacity:1" d="M 254.655,114.458 275.897,114.458 z" id="boundary" inkscape:connector-curvature="0" />
	<path style="fill:none;stroke:red;stroke-width:1px;stroke-linecap:butt;stroke-linejoin:miter;stroke-opacity:1" d="M 254.655,297.139 258.904,318.381 z" id="boundary" inkscape:connector-curvature="0" />
	<path style="fill:none;stroke:red;stroke-width:1px;stroke-linecap:butt;stroke-linejoin:miter;stroke-opacity:1" d="M 258.904,318.381 269.525,337.499 z" id="boundary" inkscape:connector-curvature="0" />
	<path style="fill:none;stroke:red;stroke-width:1px;stroke-linecap:butt;stroke-linejoin:miter;stroke-opacity:1" d="M 258.904,673.122 269.525,651.88 z" id="boundary" inkscape:connector-curvature="0" />
	<path style="fill:none;stroke:red;stroke-width:1px;stroke-linecap:butt;stroke-linejoin:miter;stroke-opacity:1" d="M 261.028,881.293 271.649,860.051 z" id="boundary" inkscape:connector-curvature="0" />
	<path style="fill:none;stroke:red;stroke-width:1px;stroke-linecap:butt;stroke-linejoin:miter;stroke-opacity:1" d="M 269.525,337.499 280.146,356.617 z" id="boundary" inkscape:connector-curvature="0" />
	<path style="fill:none;stroke:red;stroke-width:1px;stroke-linecap:butt;stroke-linejoin:miter;stroke-opacity:1" d="M 269.525,651.88 280.146,630.638 z" id="boundary" inkscape:connector-curvature="0" />
	<path style="fill:none;stroke:red;stroke-width:1px;stroke-linecap:butt;stroke-linejoin:miter;stroke-opacity:1" d="M 271.649,860.051 288.642,845.182 z" id="boundary" inkscape:connector-curvature="0" />
	<path style="fill:none;stroke:red;stroke-width:1px;stroke-linecap:butt;stroke-linejoin:miter;stroke-opacity:1" d="M 275.897,114.458 297.139,103.837 z" id="boundary" inkscape:connector-curvature="0" />
	<path style="fill:none;stroke:red;stroke-width:1px;stroke-linecap:butt;stroke-linejoin:miter;stroke-opacity:1" d="M 280.146,356.617 282.27,377.859 z" id="boundary" inkscape:connector-curvature="0" />
	<path style="fill:none;stroke:red;stroke-width:1px;stroke-linecap:butt;stroke-linejoin:miter;stroke-opacity:1" d="M 280.146,630.638 290.767,609.396 z" id="boundary" inkscape:connector-curvature="0" />
	<path style="fill:none;stroke:red;stroke-width:1px;stroke-linecap:butt;stroke-linejoin:miter;stroke-opacity:1" d="M 282.27,377.859 290.767,399.101 z" id="boundary" inkscape:connector-curvature="0" />
	<path style="fill:none;stroke:red;stroke-width:1px;stroke-linecap:butt;stroke-linejoin:miter;stroke-opacity:1" d="M 288.642,845.182 299.263,823.94 z" id="boundary" inkscape:connector-curvature="0" />
	<path style="fill:none;stroke:red;stroke-width:1px;stroke-linecap:butt;stroke-linejoin:miter;stroke-opacity:1" d="M 290.767,399.101 301.388,418.218 z" id="boundary" inkscape:connector-curvature="0" />
	<path style="fill:none;stroke:red;stroke-width:1px;stroke-linecap:butt;stroke-linejoin:miter;stroke-opacity:1" d="M 290.767,609.396 301.388,588.154 z" id="boundary" inkscape:connector-curvature="0" />
	<path style="fill:none;stroke:red;stroke-width:1px;stroke-linecap:butt;stroke-linejoin:miter;stroke-opacity:1" d="M 297.139,103.837 307.76,82.5953 z" id="boundary" inkscape:connector-curvature="0" />
	<path style="fill:none;stroke:red;stroke-width:1px;stroke-linecap:butt;stroke-linejoin:miter;stroke-opacity:1" d="M 299.263,823.94 314.133,796.325 z" id="boundary" inkscape:connector-curvature="0" />
	<path style="fill:none;stroke:red;stroke-width:1px;stroke-linecap:butt;stroke-linejoin:miter;stroke-opacity:1" d="M 301.388,418.218 312.009,437.336 z" id="boundary" inkscape:connector-curvature="0" />
	<path style="fill:none;stroke:red;stroke-width:1px;stroke-linecap:butt;stroke-linejoin:miter;stroke-opacity:1" d="M 301.388,566.912 301.388,588.154 z" id="boundary" inkscape:connector-curvature="0" />
	<path style="fill:none;stroke:red;stroke-width:1px;stroke-linecap:butt;stroke-linejoin:miter;stroke-opacity:1" d="M 301.388,566.912 312.009,545.67 z" id="boundary" inkscape:connector-curvature="0" />
	<path style="fill:none;stroke:red;stroke-width:1px;stroke-linecap:butt;stroke-linejoin:miter;stroke-opacity:1" d="M 307.76,82.5953 329.002,82.5953 z" id="boundary" inkscape:connector-curvature="0" />
	<path style="fill:none;stroke:red;stroke-width:1px;stroke-linecap:butt;stroke-linejoin:miter;stroke-opacity:1" d="M 312.009,437.336 312.009,458.578 z" id="boundary" inkscape:connector-curvature="0" />
	<path style="fill:none;stroke:red;stroke-width:1px;stroke-linecap:butt;stroke-linejoin:miter;stroke-opacity:1" d="M 312.009,458.578 322.63,477.696 z" id="boundary" inkscape:connector-curvature="0" />
	<path style="fill:none;stroke:red;stroke-width:1px;stroke-linecap:butt;stroke-linejoin:miter;stroke-opacity:1" d="M 312.009,545.67 322.63,520.18 z" id="boundary" inkscape:connector-curvature="0" />
	<path style="fill:none;stroke:red;stroke-width:1px;stroke-linecap:butt;stroke-linejoin:miter;stroke-opacity:1" d="M 314.133,796.325 324.754,775.084 z" id="boundary" inkscape:connector-curvature="0" />
	<path style="fill:none;stroke:red;stroke-width:1px;stroke-linecap:butt;stroke-linejoin:miter;stroke-opacity:1" d="M 322.63,477.696 322.63,498.938 z" id="boundary" inkscape:connector-curvature="0" />
	<path style="fill:none;stroke:red;stroke-width:1px;stroke-linecap:butt;stroke-linejoin:miter;stroke-opacity:1" d="M 322.63,498.938 322.63,520.18 z" id="boundary" inkscape:connector-curvature="0" />
	<path style="fill:none;stroke:red;stroke-width:1px;stroke-linecap:butt;stroke-linejoin:miter;stroke-opacity:1" d="M 324.754,775.084 341.747,760.214 z" id="boundary" inkscape:connector-curvature="0" />
	<path style="fill:none;stroke:red;stroke-width:1px;stroke-linecap:butt;stroke-linejoin:miter;stroke-opacity:1" d="M 329.002,82.5953 350.244,82.5953 z" id="boundary" inkscape:connector-curvature="0" />
	<path style="fill:none;stroke:red;stroke-width:1px;stroke-linecap:butt;stroke-linejoin:miter;stroke-opacity:1" d="M 341.747,760.214 356.617,732.6 z" id="boundary" inkscape:connector-curvature="0" />
	<path style="fill:none;stroke:red;stroke-width:1px;stroke-linecap:butt;stroke-linejoin:miter;stroke-opacity:1" d="M 350.244,82.5953 371.486,82.5953 z" id="boundary" inkscape:connector-curvature="0" />
	<path style="fill:none;stroke:red;stroke-width:1px;stroke-linecap:butt;stroke-linejoin:miter;stroke-opacity:1" d="M 356.617,732.6 367.238,711.358 z" id="boundary" inkscape:connector-curvature="0" />
	<path style="fill:none;stroke:red;stroke-width:1px;stroke-linecap:butt;stroke-linejoin:miter;stroke-opacity:1" d="M 367.238,711.358 384.231,696.488 z" id="boundary" inkscape:connector-curvature="0" />
	<path style="fill:none;stroke:red;stroke-width:1px;stroke-linecap:butt;stroke-linejoin:miter;stroke-opacity:1" d="M 371.486,82.5953 392.728,82.5953 z" id="boundary" inkscape:connector-curvature="0" />
	<path style="fill:none;stroke:red;stroke-width:1px;stroke-linecap:butt;stroke-linejoin:miter;stroke-opacity:1" d="M 384.231,696.488 399.101,679.495 z" id="boundary" inkscape:connector-curvature="0" />
	<path style="fill:none;stroke:red;stroke-width:1px;stroke-linecap:butt;stroke-linejoin:miter;stroke-opacity:1" d="M 392.728,82.5953 413.97,82.5953 z" id="boundary" inkscape:connector-curvature="0" />
	<path style="fill:none;stroke:red;stroke-width:1px;stroke-linecap:butt;stroke-linejoin:miter;stroke-opacity:1" d="M 399.101,679.495 416.094,664.625 z" id="boundary" inkscape:connector-curvature="0" />
	<path style="fill:none;stroke:red;stroke-width:1px;stroke-linecap:butt;stroke-linejoin:miter;stroke-opacity:1" d="M 413.97,82.5953 435.212,82.5953 z" id="boundary" inkscape:connector-curvature="0" />
	<path style="fill:none;stroke:red;stroke-width:1px;stroke-linecap:butt;stroke-linejoin:miter;stroke-opacity:1" d="M 416.094,664.625 437.336,658.253 z" id="boundary" inkscape:connector-curvature="0" />
	<path style="fill:none;stroke:red;stroke-width:1px;stroke-linecap:butt;stroke-linejoin:miter;stroke-opacity:1" d="M 435.212,82.5953 456.454,82.5953 z" id="boundary" inkscape:connector-curvature="0" />
	<path style="fill:none;stroke:red;stroke-width:1px;stroke-linecap:butt;stroke-linejoin:miter;stroke-opacity:1" d="M 437.336,658.253 456.454,668.874 z" id="boundary" inkscape:connector-curvature="0" />
	<path style="fill:none;stroke:red;stroke-width:1px;stroke-linecap:butt;stroke-linejoin:miter;stroke-opacity:1" d="M 456.454,82.5953 477.696,82.5953 z" id="boundary" inkscape:connector-curvature="0" />
	<path style="fill:none;stroke:red;stroke-width:1px;stroke-linecap:butt;stroke-linejoin:miter;stroke-opacity:1" d="M 456.454,668.874 467.075,687.991 z" id="boundary" inkscape:connector-curvature="0" />
	<path style="fill:none;stroke:red;stroke-width:1px;stroke-linecap:butt;stroke-linejoin:miter;stroke-opacity:1" d="M 467.075,687.991 481.944,704.985 z" id="boundary" inkscape:connector-curvature="0" />
	<path style="fill:none;stroke:red;stroke-width:1px;stroke-linecap:butt;stroke-linejoin:miter;stroke-opacity:1" d="M 477.696,82.5953 496.814,93.2163 z" id="boundary" inkscape:connector-curvature="0" />
	<path style="fill:none;stroke:red;stroke-width:1px;stroke-linecap:butt;stroke-linejoin:miter;stroke-opacity:1" d="M 481.944,704.985 492.565,724.103 z" id="boundary" inkscape:connector-curvature="0" />
	<path style="fill:none;stroke:red;stroke-width:1px;stroke-linecap:butt;stroke-linejoin:miter;stroke-opacity:1" d="M 492.565,724.103 507.435,741.096 z" id="boundary" inkscape:connector-curvature="0" />
	<path style="fill:none;stroke:red;stroke-width:1px;stroke-linecap:butt;stroke-linejoin:miter;stroke-opacity:1" d="M 496.814,93.2163 515.931,103.837 z" id="boundary" inkscape:connector-curvature="0" />
	<path style="fill:none;stroke:red;stroke-width:1px;stroke-linecap:butt;stroke-linejoin:miter;stroke-opacity:1" d="M 507.435,741.096 524.428,753.842 z" id="boundary" inkscape:connector-curvature="0" />
	<path style="fill:none;stroke:red;stroke-width:1px;stroke-linecap:butt;stroke-linejoin:miter;stroke-opacity:1" d="M 515.931,103.837 537.173,103.837 z" id="boundary" inkscape:connector-curvature="0" />
	<path style="fill:none;stroke:red;stroke-width:1px;stroke-linecap:butt;stroke-linejoin:miter;stroke-opacity:1" d="M 515.931,424.591 515.931,445.833 z" id="boundary" inkscape:connector-curvature="0" />
	<path style="fill:none;stroke:red;stroke-width:1px;stroke-linecap:butt;stroke-linejoin:miter;stroke-opacity:1" d="M 515.931,424.591 526.552,392.728 z" id="boundary" inkscape:connector-curvature="0" />
	<path style="fill:none;stroke:red;stroke-width:1px;stroke-linecap:butt;stroke-linejoin:miter;stroke-opacity:1" d="M 515.931,445.833 515.931,467.075 z" id="boundary" inkscape:connector-curvature="0" />
	<path style="fill:none;stroke:red;stroke-width:1px;stroke-linecap:butt;stroke-linejoin:miter;stroke-opacity:1" d="M 515.931,467.075 515.931,488.317 z" id="boundary" inkscape:connector-curvature="0" />
	<path style="fill:none;stroke:red;stroke-width:1px;stroke-linecap:butt;stroke-linejoin:miter;stroke-opacity:1" d="M 515.931,488.317 515.931,509.559 z" id="boundary" inkscape:connector-curvature="0" />
	<path style="fill:none;stroke:red;stroke-width:1px;stroke-linecap:butt;stroke-linejoin:miter;stroke-opacity:1" d="M 515.931,509.559 526.552,528.677 z" id="boundary" inkscape:connector-curvature="0" />
	<path style="fill:none;stroke:red;stroke-width:1px;stroke-linecap:butt;stroke-linejoin:miter;stroke-opacity:1" d="M 524.428,753.842 530.801,775.084 z" id="boundary" inkscape:connector-curvature="0" />
	<path style="fill:none;stroke:red;stroke-width:1px;stroke-linecap:butt;stroke-linejoin:miter;stroke-opacity:1" d="M 526.552,350.244 526.552,371.486 z" id="boundary" inkscape:connector-curvature="0" />
	<path style="fill:none;stroke:red;stroke-width:1px;stroke-linecap:butt;stroke-linejoin:miter;stroke-opacity:1" d="M 526.552,350.244 537.173,329.002 z" id="boundary" inkscape:connector-curvature="0" />
	<path style="fill:none;stroke:red;stroke-width:1px;stroke-linecap:butt;stroke-linejoin:miter;stroke-opacity:1" d="M 526.552,371.486 526.552,392.728 z" id="boundary" inkscape:connector-curvature="0" />
	<path style="fill:none;stroke:red;stroke-width:1px;stroke-linecap:butt;stroke-linejoin:miter;stroke-opacity:1" d="M 526.552,528.677 537.173,547.794 z" id="boundary" inkscape:connector-curvature="0" />
	<path style="fill:none;stroke:red;stroke-width:1px;stroke-linecap:butt;stroke-linejoin:miter;stroke-opacity:1" d="M 530.801,775.084 541.422,794.201 z" id="boundary" inkscape:connector-curvature="0" />
	<path style="fill:none;stroke:red;stroke-width:1px;stroke-linecap:butt;stroke-linejoin:miter;stroke-opacity:1" d="M 537.173,103.837 556.291,93.2163 z" id="boundary" inkscape:connector-curvature="0" />
	<path style="fill:none;stroke:red;stroke-width:1px;stroke-linecap:butt;stroke-linejoin:miter;stroke-opacity:1" d="M 537.173,286.518 537.173,307.76 z" id="boundary" inkscape:connector-curvature="0" />
	<path style="fill:none;stroke:red;stroke-width:1px;stroke-linecap:butt;stroke-linejoin:miter;stroke-opacity:1" d="M 537.173,286.518 547.794,254.655 z" id="boundary" inkscape:connector-curvature="0" />
	<path style="fill:none;stroke:red;stroke-width:1px;stroke-linecap:butt;stroke-linejoin:miter;stroke-opacity:1" d="M 537.173,307.76 537.173,329.002 z" id="boundary" inkscape:connector-curvature="0" />
	<path style="fill:none;stroke:red;stroke-width:1px;stroke-linecap:butt;stroke-linejoin:miter;stroke-opacity:1" d="M 537.173,547.794 537.173,569.036 z" id="boundary" inkscape:connector-curvature="0" />
	<path style="fill:none;stroke:red;stroke-width:1px;stroke-linecap:butt;stroke-linejoin:miter;stroke-opacity:1" d="M 537.173,569.036 547.794,588.154 z" id="boundary" inkscape:connector-curvature="0" />
	<path style="fill:none;stroke:red;stroke-width:1px;stroke-linecap:butt;stroke-linejoin:miter;stroke-opacity:1" d="M 541.422,794.201 556.291,811.195 z" id="boundary" inkscape:connector-curvature="0" />
	<path style="fill:none;stroke:red;stroke-width:1px;stroke-linecap:butt;stroke-linejoin:miter;stroke-opacity:1" d="M 547.794,254.655 564.788,239.786 z" id="boundary" inkscape:connector-curvature="0" />
	<path style="fill:none;stroke:red;stroke-width:1px;stroke-linecap:butt;stroke-linejoin:miter;stroke-opacity:1" d="M 547.794,588.154 558.415,607.272 z" id="boundary" inkscape:connector-curvature="0" />
	<path style="fill:none;stroke:red;stroke-width:1px;stroke-linecap:butt;stroke-linejoin:miter;stroke-opacity:1" d="M 556.291,93.2163 577.533,88.9679 z" id="boundary" inkscape:connector-curvature="0" />
	<path style="fill:none;stroke:red;stroke-width:1px;stroke-linecap:butt;stroke-linejoin:miter;stroke-opacity:1" d="M 556.291,811.195 566.912,830.313 z" id="boundary" inkscape:connector-curvature="0" />
	<path style="fill:none;stroke:red;stroke-width:1px;stroke-linecap:butt;stroke-linejoin:miter;stroke-opacity:1" d="M 558.415,607.272 569.036,626.39 z" id="boundary" inkscape:connector-curvature="0" />
	<path style="fill:none;stroke:red;stroke-width:1px;stroke-linecap:butt;stroke-linejoin:miter;stroke-opacity:1" d="M 564.788,239.786 586.03,229.165 z" id="boundary" inkscape:connector-curvature="0" />
	<path style="fill:none;stroke:red;stroke-width:1px;stroke-linecap:butt;stroke-linejoin:miter;stroke-opacity:1" d="M 566.912,830.313 577.533,849.43 z" id="boundary" inkscape:connector-curvature="0" />
	<path style="fill:none;stroke:red;stroke-width:1px;stroke-linecap:butt;stroke-linejoin:miter;stroke-opacity:1" d="M 569.036,626.39 579.657,645.507 z" id="boundary" inkscape:connector-curvature="0" />
	<path style="fill:none;stroke:red;stroke-width:1px;stroke-linecap:butt;stroke-linejoin:miter;stroke-opacity:1" d="M 577.533,88.9679 598.775,82.5953 z" id="boundary" inkscape:connector-curvature="0" />
	<path style="fill:none;stroke:red;stroke-width:1px;stroke-linecap:butt;stroke-linejoin:miter;stroke-opacity:1" d="M 577.533,849.43 588.154,868.548 z" id="boundary" inkscape:connector-curvature="0" />
	<path style="fill:none;stroke:red;stroke-width:1px;stroke-linecap:butt;stroke-linejoin:miter;stroke-opacity:1" d="M 579.657,645.507 590.278,664.625 z" id="boundary" inkscape:connector-curvature="0" />
	<path style="fill:none;stroke:red;stroke-width:1px;stroke-linecap:butt;stroke-linejoin:miter;stroke-opacity:1" d="M 586.03,229.165 600.899,212.171 z" id="boundary" inkscape:connector-curvature="0" />
	<path style="fill:none;stroke:red;stroke-width:1px;stroke-linecap:butt;stroke-linejoin:miter;stroke-opacity:1" d="M 588.154,868.548 600.899,885.542 z" id="boundary" inkscape:connector-curvature="0" />
	<path style="fill:none;stroke:red;stroke-width:1px;stroke-linecap:butt;stroke-linejoin:miter;stroke-opacity:1" d="M 590.278,664.625 600.899,683.743 z" id="boundary" inkscape:connector-curvature="0" />
	<path style="fill:none;stroke:red;stroke-width:1px;stroke-linecap:butt;stroke-linejoin:miter;stroke-opacity:1" d="M 598.775,82.5953 620.017,82.5953 z" id="boundary" inkscape:connector-curvature="0" />
	<path style="fill:none;stroke:red;stroke-width:1px;stroke-linecap:butt;stroke-linejoin:miter;stroke-opacity:1" d="M 600.899,212.171 622.141,201.55 z" id="boundary" inkscape:connector-curvature="0" />
	<path style="fill:none;stroke:red;stroke-width:1px;stroke-linecap:butt;stroke-linejoin:miter;stroke-opacity:1" d="M 600.899,683.743 609.396,704.985 z" id="boundary" inkscape:connector-curvature="0" />
	<path style="fill:none;stroke:red;stroke-width:1px;stroke-linecap:butt;stroke-linejoin:miter;stroke-opacity:1" d="M 600.899,885.542 609.396,906.784 z" id="boundary" inkscape:connector-curvature="0" />
	<path style="fill:none;stroke:red;stroke-width:1px;stroke-linecap:butt;stroke-linejoin:miter;stroke-opacity:1" d="M 609.396,704.985 620.017,724.103 z" id="boundary" inkscape:connector-curvature="0" />
	<path style="fill:none;stroke:red;stroke-width:1px;stroke-linecap:butt;stroke-linejoin:miter;stroke-opacity:1" d="M 609.396,906.784 626.39,921.653 z" id="boundary" inkscape:connector-curvature="0" />
	<path style="fill:none;stroke:red;stroke-width:1px;stroke-linecap:butt;stroke-linejoin:miter;stroke-opacity:1" d="M 620.017,82.5953 641.259,82.5953 z" id="boundary" inkscape:connector-curvature="0" />
	<path style="fill:none;stroke:red;stroke-width:1px;stroke-linecap:butt;stroke-linejoin:miter;stroke-opacity:1" d="M 620.017,724.103 628.514,745.345 z" id="boundary" inkscape:connector-curvature="0" />
	<path style="fill:none;stroke:red;stroke-width:1px;stroke-linecap:butt;stroke-linejoin:miter;stroke-opacity:1" d="M 622.141,201.55 641.259,190.929 z" id="boundary" inkscape:connector-curvature="0" />
	<path style="fill:none;stroke:red;stroke-width:1px;stroke-linecap:butt;stroke-linejoin:miter;stroke-opacity:1" d="M 626.39,921.653 643.383,934.398 z" id="boundary" inkscape:connector-curvature="0" />
	<path style="fill:none;stroke:red;stroke-width:1px;stroke-linecap:butt;stroke-linejoin:miter;stroke-opacity:1" d="M 628.514,745.345 639.135,764.463 z" id="boundary" inkscape:connector-curvature="0" />
	<path style="fill:none;stroke:red;stroke-width:1px;stroke-linecap:butt;stroke-linejoin:miter;stroke-opacity:1" d="M 639.135,764.463 647.632,785.704 z" id="boundary" inkscape:connector-curvature="0" />
	<path style="fill:none;stroke:red;stroke-width:1px;stroke-linecap:butt;stroke-linejoin:miter;stroke-opacity:1" d="M 641.259,82.5953 660.377,71.9743 z" id="boundary" inkscape:connector-curvature="0" />
	<path style="fill:none;stroke:red;stroke-width:1px;stroke-linecap:butt;stroke-linejoin:miter;stroke-opacity:1" d="M 641.259,190.929 660.377,180.308 z" id="boundary" inkscape:connector-curvature="0" />
	<path style="fill:none;stroke:red;stroke-width:1px;stroke-linecap:butt;stroke-linejoin:miter;stroke-opacity:1" d="M 643.383,934.398 662.501,945.019 z" id="boundary" inkscape:connector-curvature="0" />
	<path style="fill:none;stroke:red;stroke-width:1px;stroke-linecap:butt;stroke-linejoin:miter;stroke-opacity:1" d="M 647.632,785.704 664.625,800.574 z" id="boundary" inkscape:connector-curvature="0" />
	<path style="fill:none;stroke:red;stroke-width:1px;stroke-linecap:butt;stroke-linejoin:miter;stroke-opacity:1" d="M 660.377,71.9743 681.619,71.9743 z" id="boundary" inkscape:connector-curvature="0" />
	<path style="fill:none;stroke:red;stroke-width:1px;stroke-linecap:butt;stroke-linejoin:miter;stroke-opacity:1" d="M 660.377,180.308 681.619,176.06 z" id="boundary" inkscape:connector-curvature="0" />
	<path style="fill:none;stroke:red;stroke-width:1px;stroke-linecap:butt;stroke-linejoin:miter;stroke-opacity:1" d="M 662.501,945.019 683.743,945.019 z" id="boundary" inkscape:connector-curvature="0" />
	<path style="fill:none;stroke:red;stroke-width:1px;stroke-linecap:butt;stroke-linejoin:miter;stroke-opacity:1" d="M 664.625,800.574 673.122,821.816 z" id="boundary" inkscape:connector-curvature="0" />
	<path style="fill:none;stroke:red;stroke-width:1px;stroke-linecap:butt;stroke-linejoin:miter;stroke-opacity:1" d="M 673.122,821.816 675.246,843.058 z" id="boundary" inkscape:connector-curvature="0" />
	<path style="fill:none;stroke:red;stroke-width:1px;stroke-linecap:butt;stroke-linejoin:miter;stroke-opacity:1" d="M 675.246,843.058 685.867,862.176 z" id="boundary" inkscape:connector-curvature="0" />
	<path style="fill:none;stroke:red;stroke-width:1px;stroke-linecap:butt;stroke-linejoin:miter;stroke-opacity:1" d="M 681.619,71.9743 700.737,61.3533 z" id="boundary" inkscape:connector-curvature="0" />
	<path style="fill:none;stroke:red;stroke-width:1px;stroke-linecap:butt;stroke-linejoin:miter;stroke-opacity:1" d="M 681.619,176.06 702.861,169.687 z" id="boundary" inkscape:connector-curvature="0" />
	<path style="fill:none;stroke:red;stroke-width:1px;stroke-linecap:butt;stroke-linejoin:miter;stroke-opacity:1" d="M 683.743,945.019 696.488,923.777 z" id="boundary" inkscape:connector-curvature="0" />
	<path style="fill:none;stroke:red;stroke-width:1px;stroke-linecap:butt;stroke-linejoin:miter;stroke-opacity:1" d="M 685.867,862.176 696.488,881.293 z" id="boundary" inkscape:connector-curvature="0" />
	<path style="fill:none;stroke:red;stroke-width:1px;stroke-linecap:butt;stroke-linejoin:miter;stroke-opacity:1" d="M 696.488,881.293 696.488,902.535 z" id="boundary" inkscape:connector-curvature="0" />
	<path style="fill:none;stroke:red;stroke-width:1px;stroke-linecap:butt;stroke-linejoin:miter;stroke-opacity:1" d="M 696.488,902.535 696.488,923.777 z" id="boundary" inkscape:connector-curvature="0" />
	<path style="fill:none;stroke:red;stroke-width:1px;stroke-linecap:butt;stroke-linejoin:miter;stroke-opacity:1" d="M 700.737,61.3533 721.979,61.3533 z" id="boundary" inkscape:connector-curvature="0" />
	<path style="fill:none;stroke:red;stroke-width:1px;stroke-linecap:butt;stroke-linejoin:miter;stroke-opacity:1" d="M 702.861,169.687 721.979,159.066 z" id="boundary" inkscape:connector-curvature="0" />
	<path style="fill:none;stroke:red;stroke-width:1px;stroke-linecap:butt;stroke-linejoin:miter;stroke-opacity:1" d="M 721.979,61.3533 741.096,50.7323 z" id="boundary" inkscape:connector-curvature="0" />
	<path style="fill:none;stroke:red;stroke-width:1px;stroke-linecap:butt;stroke-linejoin:miter;stroke-opacity:1" d="M 721.979,159.066 741.096,148.445 z" id="boundary" inkscape:connector-curvature="0" />
	<path style="fill:none;stroke:red;stroke-width:1px;stroke-linecap:butt;stroke-linejoin:miter;stroke-opacity:1" d="M 741.096,50.7323 762.338,50.7323 z" id="boundary" inkscape:connector-curvature="0" />
	<path style="fill:none;stroke:red;stroke-width:1px;stroke-linecap:butt;stroke-linejoin:miter;stroke-opacity:1" d="M 741.096,148.445 762.338,148.445 z" id="boundary" inkscape:connector-curvature="0" />
	<path style="fill:none;stroke:red;stroke-width:1px;stroke-linecap:butt;stroke-linejoin:miter;stroke-opacity:1" d="M 762.338,50.7323 781.456,40.1113 z" id="boundary" inkscape:connector-curvature="0" />
	<path style="fill:none;stroke:red;stroke-width:1px;stroke-linecap:butt;stroke-linejoin:miter;stroke-opacity:1" d="M 762.338,148.445 781.456,137.824 z" id="boundary" inkscape:connector-curvature="0" />
	<path style="fill:none;stroke:red;stroke-width:1px;stroke-linecap:butt;stroke-linejoin:miter;stroke-opacity:1" d="M 781.456,40.1113 802.698,33.7388 z" id="boundary" inkscape:connector-curvature="0" />
	<path style="fill:none;stroke:red;stroke-width:1px;stroke-linecap:butt;stroke-linejoin:miter;stroke-opacity:1" d="M 781.456,137.824 800.574,127.203 z" id="boundary" inkscape:connector-curvature="0" />
	<path style="fill:none;stroke:red;stroke-width:1px;stroke-linecap:butt;stroke-linejoin:miter;stroke-opacity:1" d="M 800.574,127.203 821.816,120.831 z" id="boundary" inkscape:connector-curvature="0" />
	<path style="fill:none;stroke:red;stroke-width:1px;stroke-linecap:butt;stroke-linejoin:miter;stroke-opacity:1" d="M 802.698,33.7388 823.94,29.4904 z" id="boundary" inkscape:connector-curvature="0" />
	<path style="fill:none;stroke:red;stroke-width:1px;stroke-linecap:butt;stroke-linejoin:miter;stroke-opacity:1" d="M 821.816,120.831 843.058,116.582 z" id="boundary" inkscape:connector-curvature="0" />
	<path style="fill:none;stroke:red;stroke-width:1px;stroke-linecap:butt;stroke-linejoin:miter;stroke-opacity:1" d="M 823.94,29.4904 845.182,23.1178 z" id="boundary" inkscape:connector-curvature="0" />
	<path style="fill:none;stroke:red;stroke-width:1px;stroke-linecap:butt;stroke-linejoin:miter;stroke-opacity:1" d="M 843.058,116.582 862.176,105.961 z" id="boundary" inkscape:connector-curvature="0" />
	<path style="fill:none;stroke:red;stroke-width:1px;stroke-linecap:butt;stroke-linejoin:miter;stroke-opacity:1" d="M 845.182,23.1178 866.424,18.8694 z" id="boundary" inkscape:connector-curvature="0" />
	<path style="fill:none;stroke:red;stroke-width:1px;stroke-linecap:butt;stroke-linejoin:miter;stroke-opacity:1" d="M 862.176,105.961 883.418,101.713 z" id="boundary" inkscape:connector-curvature="0" />
	<path style="fill:none;stroke:red;stroke-width:1px;stroke-linecap:butt;stroke-linejoin:miter;stroke-opacity:1" d="M 866.424,18.8694 885.542,8.24839 z" id="boundary" inkscape:connector-curvature="0" />
	<path style="fill:none;stroke:red;stroke-width:1px;stroke-linecap:butt;stroke-linejoin:miter;stroke-opacity:1" d="M 883.418,101.713 904.66,91.0921 z" id="boundary" inkscape:connector-curvature="0" />
	<path style="fill:none;stroke:red;stroke-width:1px;stroke-linecap:butt;stroke-linejoin:miter;stroke-opacity:1" d="M 885.542,8.24839 906.784,4 z" id="boundary" inkscape:connector-curvature="0" />
	<path style="fill:none;stroke:red;stroke-width:1px;stroke-linecap:butt;stroke-linejoin:miter;stroke-opacity:1" d="M 904.66,91.0921 925.901,80.4711 z" id="boundary" inkscape:connector-curvature="0" />
	<path style="fill:none;stroke:red;stroke-width:1px;stroke-linecap:butt;stroke-linejoin:miter;stroke-opacity:1" d="M 906.784,4 928.026,8.24839 z" id="boundary" inkscape:connector-curvature="0" />
	<path style="fill:none;stroke:red;stroke-width:1px;stroke-linecap:butt;stroke-linejoin:miter;stroke-opacity:1" d="M 925.901,80.4711 940.771,46.4839 z" id="boundary" inkscape:connector-curvature="0" />
	<path style="fill:none;stroke:red;stroke-width:1px;stroke-linecap:butt;stroke-linejoin:miter;stroke-opacity:1" d="M 928.026,8.24839 940.771,25.242 z" id="boundary" inkscape:connector-curvature="0" />
	<path style="fill:none;stroke:red;stroke-width:1px;stroke-linecap:butt;stroke-linejoin:miter;stroke-opacity:1" d="M 940.771,25.242 940.771,46.4839 z" id="boundary" inkscape:connector-curvature="0" />
	<circle cx="4" cy="396.976" r="4" fill="#0" id="circle0"/>
	<circle cx="4" cy="418.218" r="4" fill="#0" id="circle1"/>
	<circle cx="14.621" cy="375.734" r="4" fill="#0" id="circle2"/>
	<circle cx="25.242" cy="354.493" r="4" fill="#0" id="circle3"/>
	<circle cx="25.242" cy="424.591" r="4" fill="#0" id="circle4"/>
	<circle cx="42.2355" cy="337.499" r="4" fill="#0" id="circle5"/>
	<circle cx="46.4839" cy="428.839" r="4" fill="#0" id="circle6"/>
	<circle cx="52.8565" cy="316.257" r="4" fill="#0" id="circle7"/>
	<circle cx="63.4775" cy="411.846" r="4" fill="#0" id="circle8"/>
	<circle cx="67.7259" cy="290.767" r="4" fill="#0" id="circle9"/>
	<circle cx="80.4711" cy="392.728" r="4" fill="#0" id="circle10"/>
	<circle cx="84.7195" cy="273.773" r="4" fill="#0" id="circle11"/>
	<circle cx="95.3405" cy="252.531" r="4" fill="#0" id="circle12"/>
	<circle cx="97.4647" cy="377.859" r="4" fill="#0" id="circle13"/>
	<circle cx="110.21" cy="216.42" r="4" fill="#0" id="circle14"/>
	<circle cx="112.334" cy="360.865" r="4" fill="#0" id="circle15"/>
	<circle cx="120.831" cy="195.178" r="4" fill="#0" id="circle16"/>
	<circle cx="120.831" cy="959.889" r="4" fill="#0" id="circle17"/>
	<circle cx="129.328" cy="345.996" r="4" fill="#0" id="circle18"/>
	<circle cx="131.452" cy="917.405" r="4" fill="#0" id="circle19"/>
	<circle cx="131.452" cy="938.647" r="4" fill="#0" id="circle20"/>
	<circle cx="131.452" cy="979.006" r="4" fill="#0" id="circle21"/>
	<circle cx="137.824" cy="178.184" r="4" fill="#0" id="circle22"/>
	<circle cx="142.073" cy="885.542" r="4" fill="#0" id="circle23"/>
	<circle cx="144.197" cy="329.002" r="4" fill="#0" id="circle24"/>
	<circle cx="146.321" cy="996" r="4" fill="#0" id="circle25"/>
	<circle cx="152.694" cy="864.3" r="4" fill="#0" id="circle26"/>
	<circle cx="154.818" cy="161.191" r="4" fill="#0" id="circle27"/>
	<circle cx="154.818" cy="307.76" r="4" fill="#0" id="circle28"/>
	<circle cx="167.563" cy="987.503" r="4" fill="#0" id="circle29"/>
	<circle cx="169.687" cy="847.306" r="4" fill="#0" id="circle30"/>
	<circle cx="171.812" cy="292.891" r="4" fill="#0" id="circle31"/>
	<circle cx="176.06" cy="150.57" r="4" fill="#0" id="circle32"/>
	<circle cx="180.308" cy="826.064" r="4" fill="#0" id="circle33"/>
	<circle cx="186.681" cy="275.897" r="4" fill="#0" id="circle34"/>
	<circle cx="186.681" cy="976.882" r="4" fill="#0" id="circle35"/>
	<circle cx="190.929" cy="804.822" r="4" fill="#0" id="circle36"/>
	<circle cx="193.054" cy="135.7" r="4" fill="#0" id="circle37"/>
	<circle cx="201.55" cy="783.58" r="4" fill="#0" id="circle38"/>
	<circle cx="203.675" cy="962.013" r="4" fill="#0" id="circle39"/>
	<circle cx="207.923" cy="265.276" r="4" fill="#0" id="circle40"/>
	<circle cx="212.171" cy="125.079" r="4" fill="#0" id="circle41"/>
	<circle cx="212.171" cy="762.338" r="4" fill="#0" id="circle42"/>
	<circle cx="218.544" cy="945.019" r="4" fill="#0" id="circle43"/>
	<circle cx="222.792" cy="741.096" r="4" fill="#0" id="circle44"/>
	<circle cx="229.165" cy="265.276" r="4" fill="#0" id="circle45"/>
	<circle cx="229.165" cy="923.777" r="4" fill="#0" id="circle46"/>
	<circle cx="233.413" cy="114.458" r="4" fill="#0" id="circle47"/>
	<circle cx="233.413" cy="719.854" r="4" fill="#0" id="circle48"/>
	<circle cx="246.158" cy="908.908" r="4" fill="#0" id="circle49"/>
	<circle cx="248.283" cy="275.897" r="4" fill="#0" id="circle50"/>
	<circle cx="248.283" cy="694.364" r="4" fill="#0" id="circle51"/>
	<circle cx="254.655" cy="114.458" r="4" fill="#0" id="circle52"/>
	<circle cx="254.655" cy="297.139" r="4" fill="#0" id="circle53"/>
	<circle cx="258.904" cy="318.381" r="4" fill="#0" id="circle54"/>
	<circle cx="258.904" cy="673.122" r="4" fill="#0" id="circle55"/>
	<circle cx="261.028" cy="881.293" r="4" fill="#0" id="circle56"/>
	<circle cx="269.525" cy="337.499" r="4" fill="#0" id="circle57"/>
	<circle cx="269.525" cy="651.88" r="4" fill="#0" id="circle58"/>
	<circle cx="271.649" cy="860.051" r="4" fill="#0" id="circle59"/>
	<circle cx="275.897" cy="114.458" r="4" fill="#0" id="circle60"/>
	<circle cx="280.146" cy="356.617" r="4" fill="#0" id="circle61"/>
	<circle cx="280.146" cy="630.638" r="4" fill="#0" id="circle62"/>
	<circle cx="282.27" cy="377.859" r="4" fill="#0" id="circle63"/>
	<circle cx="288.642" cy="845.182" r="4" fill="#0" id="circle64"/>
	<circle cx="290.767" cy="399.101" r="4" fill="#0" id="circle65"/>
	<circle cx="290.767" cy="609.396" r="4" fill="#0" id="circle66"/>
	<circle cx="297.139" cy="103.837" r="4" fill="#0" id="circle67"/>
	<circle cx="299.263" cy="823.94" r="4" fill="#0" id="circle68"/>
	<circle cx="301.388" cy="418.218" r="4" fill="#0" id="circle69"/>
	<circle cx="301.388" cy="566.912" r="4" fill="#0" id="circle70"/>
	<circle cx="301.388" cy="588.154" r="4" fill="#0" id="circle71"/>
	<circle cx="307.76" cy="82.5953" r="4" fill="#0" id="circle72"/>
	<circle cx="312.009" cy="437.336" r="4" fill="#0" id="circle73"/>
	<circle cx="312.009" cy="458.578" r="4" fill="#0" id="circle74"/>
	<circle cx="312.009" cy="545.67" r="4" fill="#0" id="circle75"/>
	<circle cx="314.133" cy="796.325" r="4" fill="#0" id="circle76"/>
	<circle cx="322.63" cy="477.696" r="4" fill="#0" id="circle77"/>
	<circle cx="322.63" cy="498.938" r="4" fill="#0" id="circle78"/>
	<circle cx="322.63" cy="520.18" r="4" fill="#0" id="circle79"/>
	<circle cx="324.754" cy="775.084" r="4" fill="#0" id="circle80"/>
	<circle cx="329.002" cy="82.5953" r="4" fill="#0" id="circle81"/>
	<circle cx="341.747" cy="760.214" r="4" fill="#0" id="circle82"/>
	<circle cx="350.244" cy="82.5953" r="4" fill="#0" id="circle83"/>
	<circle cx="356.617" cy="732.6" r="4" fill="#0" id="circle84"/>
	<circle cx="367.238" cy="711.358" r="4" fill="#0" id="circle85"/>
	<circle cx="371.486" cy="82.5953" r="4" fill="#0" id="circle86"/>
	<circle cx="384.231" cy="696.488" r="4" fill="#0" id="circle87"/>
	<circle cx="392.728" cy="82.5953" r="4" fill="#0" id="circle88"/>
	<circle cx="399.101" cy="679.495" r="4" fill="#0" id="circle89"/>
	<circle cx="413.97" cy="82.5953" r="4" fill="#0" id="circle90"/>
	<circle cx="416.094" cy="664.625" r="4" fill="#0" id="circle91"/>
	<circle cx="435.212" cy="82.5953" r="4" fill="#0" id="circle92"/>
	<circle cx="437.336" cy="658.253" r="4" fill="#0" id="circle93"/>
	<circle cx="456.454" cy="82.5953" r="4" fill="#0" id="circle94"/>
	<circle cx="456.454" cy="668.874" r="4" fill="#0" id="circle95"/>
	<circle cx="467.075" cy="687.991" r="4" fill="#0" id="circle96"/>
	<circle cx="477.696" cy="82.5953" r="4" fill="#0" id="circle97"/>
	<circle cx="481.944" cy="704.985" r="4" fill="#0" id="circle98"/>
	<circle cx="492.565" cy="724.103" r="4" fill="#0" id="circle99"/>
	<circle cx="496.814" cy="93.2163" r="4" fill="#0" id="circle100"/>
	<circle cx="507.435" cy="741.096" r="4" fill="#0" id="circle101"/>
	<circle cx="515.931" cy="103.837" r="4" fill="#0" id="circle102"/>
	<circle cx="515.931" cy="424.591" r="4" fill="#0" id="circle103"/>
	<circle cx="515.931" cy="445.833" r="4" fill="#0" id="circle104"/>
	<circle cx="515.931" cy="467.075" r="4" fill="#0" id="circle105"/>
	<circle cx="515.931" cy="488.317" r="4" fill="#0" id="circle106"/>
	<circle cx="515.931" cy="509.559" r="4" fill="#0" id="circle107"/>
	<circle cx="524.428" cy="753.842" r="4" fill="#0" id="circle108"/>
	<circle cx="526.552" cy="350.244" r="4" fill="#0" id="circle109"/>
	<circle cx="526.552" cy="371.486" r="4" fill="#0" id="circle110"/>
	<circle cx="526.552" cy="392.728" r="4" fill="#0" id="circle111"/>
	<circle cx="526.552" cy="528.677" r="4" fill="#0" id="circle112"/>
	<circle cx="530.801" cy="775.084" r="4" fill="#0" id="circle113"/>
	<circle cx="537.173" cy="103.837" r="4" fill="#0" id="circle114"/>
	<circle cx="537.173" cy="286.518" r="4" fill="#0" id="circle115"/>
	<circle cx="537.173" cy="307.76" r="4" fill="#0" id="circle116"/>
	<circle cx="537.173" cy="329.002" r="4" fill="#0" id="circle117"/>
	<circle cx="537.173" cy="547.794" r="4" fill="#0" id="circle118"/>
	<circle cx="537.173" cy="569.036" r="4" fill="#0" id="circle119"/>
	<circle cx="541.422" cy="794.201" r="4" fill="#0" id="circle120"/>
	<circle cx="547.794" cy="254.655" r="4" fill="#0" id="circle121"/>
	<circle cx="547.794" cy="588.154" r="4" fill="#0" id="circle122"/>
	<circle cx="556.291" cy="93.2163" r="4" fill="#0" id="circle123"/>
	<circle cx="556.291" cy="811.195" r="4" fill="#0" id="circle124"/>
	<circle cx="558.415" cy="607.272" r="4" fill="#0" id="circle125"/>
	<circle cx="564.788" cy="239.786" r="4" fill="#0" id="circle126"/>
	<circle cx="566.912" cy="830.313" r="4" fill="#0" id="circle127"/>
	<circle cx="569.036" cy="626.39" r="4" fill="#0" id="circle128"/>
	<circle cx="577.533" cy="88.9679" r="4" fill="#0" id="circle129"/>
	<circle cx="577.533" cy="849.43" r="4" fill="#0" id="circle130"/>
	<circle cx="579.657" cy="645.507" r="4" fill="#0" id="circle131"/>
	<circle cx="586.03" cy="229.165" r="4" fill="#0" id="circle132"/>
	<circle cx="588.154" cy="868.548" r="4" fill="#0" id="circle133"/>
	<circle cx="590.278" cy="664.625" r="4" fill="#0" id="circle134"/>
	<circle cx="598.775" cy="82.5953" r="4" fill="#0" id="circle135"/>
	<circle cx="600.899" cy="212.171" r="4" fill="#0" id="circle136"/>
	<circle cx="600.899" cy="683.743" r="4" fill="#0" id="circle137"/>
	<circle cx="600.899" cy="885.542" r="4" fill="#0" id="circle138"/>
	<circle cx="609.396" cy="704.985" r="4" fill="#0" id="circle139"/>
	<circle cx="609.396" cy="906.784" r="4" fill="#0" id="circle140"/>
	<circle cx="620.017" cy="82.5953" r="4" fill="#0" id="circle141"/>
	<circle cx="620.017" cy="724.103" r="4" fill="#0" id="circle142"/>
	<circle cx="622.141" cy="201.55" r="4" fill="#0" id="circle143"/>
	<circle cx="626.39" cy="921.653" r="4" fill="#0" id="circle144"/>
	<circle cx="628.514" cy="745.345" r="4" fill="#0" id="circle145"/>
	<circle cx="639.135" cy="764.463" r="4" fill="#0" id="circle146"/>
	<circle cx="641.259" cy="82.5953" r="4" fill="#0" id="circle147"/>
	<circle cx="641.259" cy="190.929" r="4" fill="#0" id="circle148"/>
	<circle cx="643.383" cy="934.398" r="4" fill="#0" id="circle149"/>
	<circle cx="647.632" cy="785.704" r="4" fill="#0" id="circle150"/>
	<circle cx="660.377" cy="71.9743" r="4" fill="#0" id="circle151"/>
	<circle cx="660.377" cy="180.308" r="4" fill="#0" id="circle152"/>
	<circle cx="662.501" cy="945.019" r="4" fill="#0" id="circle153"/>
	<circle cx="664.625" cy="800.574" r="4" fill="#0" id="circle154"/>
	<circle cx="673.122" cy="821.816" r="4" fill="#0" id="circle155"/>
	<circle cx="675.246" cy="843.058" r="4" fill="#0" id="circle156"/>
	<circle cx="681.619" cy="71.9743" r="4" fill="#0" id="circle157"/>
	<circle cx="681.619" cy="176.06" r="4" fill="#0" id="circle158"/>
	<circle cx="683.743" cy="945.019" r="4" fill="#0" id="circle159"/>
	<circle cx="685.867" cy="862.176" r="4" fill="#0" id="circle160"/>
	<circle cx="696.488" cy="881.293" r="4" fill="#0" id="circle161"/>
	<circle cx="696.488" cy="902.535" r="4" fill="#0" id="circle162"/>
	<circle cx="696.488" cy="923.777" r="4" fill="#0" id="circle163"/>
	<circle cx="700.737" cy="61.3533" r="4" fill="#0" id="circle164"/>
	<circle cx="702.861" cy="169.687" r="4" fill="#0" id="circle165"/>
	<circle cx="721.979" cy="61.3533" r="4" fill="#0" id="circle166"/>
	<circle cx="721.979" cy="159.066" r="4" fill="#0" id="circle167"/>
	<circle cx="741.096" cy="50.7323" r="4" fill="#0" id="circle168"/>
	<circle cx="741.096" cy="148.445" r="4" fill="#0" id="circle169"/>
	<circle cx="762.338" cy="50.7323" r="4" fill="#0" id="circle170"/>
	<circle cx="762.338" cy="148.445" r="4" fill="#0" id="circle171"/>
	<circle cx="781.456" cy="40.1113" r="4" fill="#0" id="circle172"/>
	<circle cx="781.456" cy="137.824" r="4" fill="#0" id="circle173"/>
	<circle cx="800.574" cy="127.203" r="4" fill="#0" id="circle174"/>
	<circle cx="802.698" cy="33.7388" r="4" fill="#0" id="circle175"/>
	<circle cx="821.816" cy="120.831" r="4" fill="#0" id="circle176"/>
	<circle cx="823.94" cy="29.4904" r="4" fill="#0" id="circle177"/>
	<circle cx="843.058" cy="116.582" r="4" fill="#0" id="circle178"/>
	<circle cx="845.182" cy="23.1178" r="4" fill="#0" id="circle179"/>
	<circle cx="862.176" cy="105.961" r="4" fill="#0" id="circle180"/>
	<circle cx="866.424" cy="18.8694" r="4" fill="#0" id="circle181"/>
	<circle cx="883.418" cy="101.713" r="4" fill="#0" id="circle182"/>
	<circle cx="885.542" cy="8.24839" r="4" fill="#0" id="circle183"/>
	<circle cx="904.66" cy="91.0921" r="4" fill="#0" id="circle184"/>
	<circle cx="906.784" cy="4" r="4" fill="#0" id="circle185"/>
	<circle cx="925.901" cy="80.4711" r="4" fill="#0" id="circle186"/>
	<circle cx="928.026" cy="8.24839" r="4" fill="#0" id="circle187"/>
	<circle cx="940.771" cy="25.242" r="4" fill="#0" id="circle188"/>
	<circle cx="940.771" cy="46.4839" r="4" fill="#0" id="circle189"/>
	</g>
</svg>