<?xml version="1.0" encoding="UTF-8" standalone="no"?>
<!-- Created with CurveBenchmark -->
<svg
	xmlns:dc="http://purl.org/dc/elements/1.1/"
	xmlns:cc="http://creativecommons.org/ns#"
	xmlns:rdf="http://www.w3.org/1999/02/22-rdf-syntax-ns#"
	xmlns:svg="http://www.w3.org/2000/svg"
	xmlns="http://www.w3.org/2000/svg"
	xmlns:sodipodi="http://sodipodi.sourceforge.net/DTD/sodipodi-0.dtd"
	xmlns:inkscape="http://www.inkscape.org/namespaces/inkscape"
	width="1000"
	height="1000"
	id="svg2"
	version="1.1"
	sodipodi:docname="manifold/fitconnect-ray0472.png.txt">
<defs
	id="defs4" />
<metadata
	id="metadata7">
	<rdf:RDF>
		<cc:Work
			rdf:about="">
			<dc:format>image/svg+xml</dc:format>
			<dc:type
				rdf:resource="http://purl.org/dc/dcmitype/StillImage" />
			<dc:title></dc:title>
		</cc:Work>
	</rdf:RDF>
</metadata>
<g
	inkscape:label="Layer 1"
	inkscape:groupmode="layer"
	id="layer1">
	<path style="fill:none;stroke:red;stroke-width:1px;stroke-linecap:butt;stroke-linejoin:miter;stroke-opacity:1" d="M 4,783.429 4,794.165 z" id="boundary" inkscape:connector-curvature="0" />
	<path style="fill:none;stroke:red;stroke-width:1px;stroke-linecap:butt;stroke-linejoin:miter;stroke-opacity:1" d="M 4,783.429 9.36797,772.693 z" id="boundary" inkscape:connector-curvature="0" />
	<path style="fill:none;stroke:red;stroke-width:1px;stroke-linecap:butt;stroke-linejoin:miter;stroke-opacity:1" d="M 4,794.165 4,804.9 z" id="boundary" inkscape:connector-curvature="0" />
	<path style="fill:none;stroke:red;stroke-width:1px;stroke-linecap:butt;stroke-linejoin:miter;stroke-opacity:1" d="M 4,804.9 4,815.636 z" id="boundary" inkscape:connector-curvature="0" />
	<path style="fill:none;stroke:red;stroke-width:1px;stroke-linecap:butt;stroke-linejoin:miter;stroke-opacity:1" d="M 4,815.636 12.5887,823.152 z" id="boundary" inkscape:connector-curvature="0" />
	<path style="fill:none;stroke:red;stroke-width:1px;stroke-linecap:butt;stroke-linejoin:miter;stroke-opacity:1" d="M 9.36797,477.455 9.36797,498.926 z" id="boundary" inkscape:connector-curvature="0" />
	<path style="fill:none;stroke:red;stroke-width:1px;stroke-linecap:butt;stroke-linejoin:miter;stroke-opacity:1" d="M 9.36797,477.455 14.7359,455.983 z" id="boundary" inkscape:connector-curvature="0" />
	<path style="fill:none;stroke:red;stroke-width:1px;stroke-linecap:butt;stroke-linejoin:miter;stroke-opacity:1" d="M 9.36797,498.926 9.36797,520.398 z" id="boundary" inkscape:connector-curvature="0" />
	<path style="fill:none;stroke:red;stroke-width:1px;stroke-linecap:butt;stroke-linejoin:miter;stroke-opacity:1" d="M 9.36797,520.398 9.36797,541.87 z" id="boundary" inkscape:connector-curvature="0" />
	<path style="fill:none;stroke:red;stroke-width:1px;stroke-linecap:butt;stroke-linejoin:miter;stroke-opacity:1" d="M 9.36797,541.87 9.36797,552.606 z" id="boundary" inkscape:connector-curvature="0" />
	<path style="fill:none;stroke:red;stroke-width:1px;stroke-linecap:butt;stroke-linejoin:miter;stroke-opacity:1" d="M 9.36797,552.606 9.36797,563.342 z" id="boundary" inkscape:connector-curvature="0" />
	<path style="fill:none;stroke:red;stroke-width:1px;stroke-linecap:butt;stroke-linejoin:miter;stroke-opacity:1" d="M 9.36797,563.342 9.36797,584.814 z" id="boundary" inkscape:connector-curvature="0" />
	<path style="fill:none;stroke:red;stroke-width:1px;stroke-linecap:butt;stroke-linejoin:miter;stroke-opacity:1" d="M 9.36797,584.814 9.36797,606.286 z" id="boundary" inkscape:connector-curvature="0" />
	<path style="fill:none;stroke:red;stroke-width:1px;stroke-linecap:butt;stroke-linejoin:miter;stroke-opacity:1" d="M 9.36797,606.286 9.36797,617.022 z" id="boundary" inkscape:connector-curvature="0" />
	<path style="fill:none;stroke:red;stroke-width:1px;stroke-linecap:butt;stroke-linejoin:miter;stroke-opacity:1" d="M 9.36797,617.022 9.36797,627.758 z" id="boundary" inkscape:connector-curvature="0" />
	<path style="fill:none;stroke:red;stroke-width:1px;stroke-linecap:butt;stroke-linejoin:miter;stroke-opacity:1" d="M 9.36797,627.758 14.7359,637.42 z" id="boundary" inkscape:connector-curvature="0" />
	<path style="fill:none;stroke:red;stroke-width:1px;stroke-linecap:butt;stroke-linejoin:miter;stroke-opacity:1" d="M 9.36797,761.957 9.36797,772.693 z" id="boundary" inkscape:connector-curvature="0" />
	<path style="fill:none;stroke:red;stroke-width:1px;stroke-linecap:butt;stroke-linejoin:miter;stroke-opacity:1" d="M 9.36797,761.957 17.9567,753.368 z" id="boundary" inkscape:connector-curvature="0" />
	<path style="fill:none;stroke:red;stroke-width:1px;stroke-linecap:butt;stroke-linejoin:miter;stroke-opacity:1" d="M 12.5887,823.152 21.1775,829.593 z" id="boundary" inkscape:connector-curvature="0" />
	<path style="fill:none;stroke:red;stroke-width:1px;stroke-linecap:butt;stroke-linejoin:miter;stroke-opacity:1" d="M 14.7359,455.983 25.4719,407.671 z" id="boundary" inkscape:connector-curvature="0" />
	<path style="fill:none;stroke:red;stroke-width:1px;stroke-linecap:butt;stroke-linejoin:miter;stroke-opacity:1" d="M 14.7359,637.42 14.7359,648.156 z" id="boundary" inkscape:connector-curvature="0" />
	<path style="fill:none;stroke:red;stroke-width:1px;stroke-linecap:butt;stroke-linejoin:miter;stroke-opacity:1" d="M 14.7359,648.156 20.1039,668.554 z" id="boundary" inkscape:connector-curvature="0" />
	<path style="fill:none;stroke:red;stroke-width:1px;stroke-linecap:butt;stroke-linejoin:miter;stroke-opacity:1" d="M 17.9567,753.368 23.3247,742.632 z" id="boundary" inkscape:connector-curvature="0" />
	<path style="fill:none;stroke:red;stroke-width:1px;stroke-linecap:butt;stroke-linejoin:miter;stroke-opacity:1" d="M 20.1039,668.554 20.1039,679.29 z" id="boundary" inkscape:connector-curvature="0" />
	<path style="fill:none;stroke:red;stroke-width:1px;stroke-linecap:butt;stroke-linejoin:miter;stroke-opacity:1" d="M 20.1039,679.29 25.4719,699.688 z" id="boundary" inkscape:connector-curvature="0" />
	<path style="fill:none;stroke:red;stroke-width:1px;stroke-linecap:butt;stroke-linejoin:miter;stroke-opacity:1" d="M 21.1775,829.593 30.8398,834.961 z" id="boundary" inkscape:connector-curvature="0" />
	<path style="fill:none;stroke:red;stroke-width:1px;stroke-linecap:butt;stroke-linejoin:miter;stroke-opacity:1" d="M 23.3247,742.632 25.4719,731.896 z" id="boundary" inkscape:connector-curvature="0" />
	<path style="fill:none;stroke:red;stroke-width:1px;stroke-linecap:butt;stroke-linejoin:miter;stroke-opacity:1" d="M 25.4719,407.671 98.4762,463.498 z" id="boundary" inkscape:connector-curvature="0" />
	<path style="fill:none;stroke:red;stroke-width:1px;stroke-linecap:butt;stroke-linejoin:miter;stroke-opacity:1" d="M 25.4719,699.688 25.4719,710.424 z" id="boundary" inkscape:connector-curvature="0" />
	<path style="fill:none;stroke:red;stroke-width:1px;stroke-linecap:butt;stroke-linejoin:miter;stroke-opacity:1" d="M 25.4719,710.424 25.4719,721.16 z" id="boundary" inkscape:connector-curvature="0" />
	<path style="fill:none;stroke:red;stroke-width:1px;stroke-linecap:butt;stroke-linejoin:miter;stroke-opacity:1" d="M 25.4719,721.16 25.4719,731.896 z" id="boundary" inkscape:connector-curvature="0" />
	<path style="fill:none;stroke:red;stroke-width:1px;stroke-linecap:butt;stroke-linejoin:miter;stroke-opacity:1" d="M 30.8398,834.961 41.5758,834.961 z" id="boundary" inkscape:connector-curvature="0" />
	<path style="fill:none;stroke:red;stroke-width:1px;stroke-linecap:butt;stroke-linejoin:miter;stroke-opacity:1" d="M 41.5758,834.961 52.3117,834.961 z" id="boundary" inkscape:connector-curvature="0" />
	<path style="fill:none;stroke:red;stroke-width:1px;stroke-linecap:butt;stroke-linejoin:miter;stroke-opacity:1" d="M 52.3117,834.961 63.0476,834.961 z" id="boundary" inkscape:connector-curvature="0" />
	<path style="fill:none;stroke:red;stroke-width:1px;stroke-linecap:butt;stroke-linejoin:miter;stroke-opacity:1" d="M 63.0476,834.961 73.7835,834.961 z" id="boundary" inkscape:connector-curvature="0" />
	<path style="fill:none;stroke:red;stroke-width:1px;stroke-linecap:butt;stroke-linejoin:miter;stroke-opacity:1" d="M 73.7835,834.961 84.5195,834.961 z" id="boundary" inkscape:connector-curvature="0" />
	<path style="fill:none;stroke:red;stroke-width:1px;stroke-linecap:butt;stroke-linejoin:miter;stroke-opacity:1" d="M 84.5195,834.961 94.1818,840.329 z" id="boundary" inkscape:connector-curvature="0" />
	<path style="fill:none;stroke:red;stroke-width:1px;stroke-linecap:butt;stroke-linejoin:miter;stroke-opacity:1" d="M 94.1818,840.329 103.844,845.697 z" id="boundary" inkscape:connector-curvature="0" />
	<path style="fill:none;stroke:red;stroke-width:1px;stroke-linecap:butt;stroke-linejoin:miter;stroke-opacity:1" d="M 98.4762,463.498 112.433,480.675 z" id="boundary" inkscape:connector-curvature="0" />
	<path style="fill:none;stroke:red;stroke-width:1px;stroke-linecap:butt;stroke-linejoin:miter;stroke-opacity:1" d="M 103.844,845.697 109.212,855.359 z" id="boundary" inkscape:connector-curvature="0" />
	<path style="fill:none;stroke:red;stroke-width:1px;stroke-linecap:butt;stroke-linejoin:miter;stroke-opacity:1" d="M 109.212,855.359 116.727,863.948 z" id="boundary" inkscape:connector-curvature="0" />
	<path style="fill:none;stroke:red;stroke-width:1px;stroke-linecap:butt;stroke-linejoin:miter;stroke-opacity:1" d="M 112.433,480.675 138.199,498.926 z" id="boundary" inkscape:connector-curvature="0" />
	<path style="fill:none;stroke:red;stroke-width:1px;stroke-linecap:butt;stroke-linejoin:miter;stroke-opacity:1" d="M 116.727,863.948 125.316,871.463 z" id="boundary" inkscape:connector-curvature="0" />
	<path style="fill:none;stroke:red;stroke-width:1px;stroke-linecap:butt;stroke-linejoin:miter;stroke-opacity:1" d="M 125.316,871.463 133.905,877.905 z" id="boundary" inkscape:connector-curvature="0" />
	<path style="fill:none;stroke:red;stroke-width:1px;stroke-linecap:butt;stroke-linejoin:miter;stroke-opacity:1" d="M 133.905,877.905 143.567,883.273 z" id="boundary" inkscape:connector-curvature="0" />
	<path style="fill:none;stroke:red;stroke-width:1px;stroke-linecap:butt;stroke-linejoin:miter;stroke-opacity:1" d="M 138.199,498.926 156.45,511.81 z" id="boundary" inkscape:connector-curvature="0" />
	<path style="fill:none;stroke:red;stroke-width:1px;stroke-linecap:butt;stroke-linejoin:miter;stroke-opacity:1" d="M 143.567,883.273 150.009,891.861 z" id="boundary" inkscape:connector-curvature="0" />
	<path style="fill:none;stroke:red;stroke-width:1px;stroke-linecap:butt;stroke-linejoin:miter;stroke-opacity:1" d="M 150.009,891.861 158.597,899.377 z" id="boundary" inkscape:connector-curvature="0" />
	<path style="fill:none;stroke:red;stroke-width:1px;stroke-linecap:butt;stroke-linejoin:miter;stroke-opacity:1" d="M 156.45,511.81 175.775,522.545 z" id="boundary" inkscape:connector-curvature="0" />
	<path style="fill:none;stroke:red;stroke-width:1px;stroke-linecap:butt;stroke-linejoin:miter;stroke-opacity:1" d="M 158.597,899.377 165.039,907.965 z" id="boundary" inkscape:connector-curvature="0" />
	<path style="fill:none;stroke:red;stroke-width:1px;stroke-linecap:butt;stroke-linejoin:miter;stroke-opacity:1" d="M 165.039,907.965 170.407,917.628 z" id="boundary" inkscape:connector-curvature="0" />
	<path style="fill:none;stroke:red;stroke-width:1px;stroke-linecap:butt;stroke-linejoin:miter;stroke-opacity:1" d="M 170.407,917.628 181.143,920.848 z" id="boundary" inkscape:connector-curvature="0" />
	<path style="fill:none;stroke:red;stroke-width:1px;stroke-linecap:butt;stroke-linejoin:miter;stroke-opacity:1" d="M 175.775,522.545 205.835,533.281 z" id="boundary" inkscape:connector-curvature="0" />
	<path style="fill:none;stroke:red;stroke-width:1px;stroke-linecap:butt;stroke-linejoin:miter;stroke-opacity:1" d="M 181.143,920.848 190.805,926.216 z" id="boundary" inkscape:connector-curvature="0" />
	<path style="fill:none;stroke:red;stroke-width:1px;stroke-linecap:butt;stroke-linejoin:miter;stroke-opacity:1" d="M 190.805,926.216 200.468,931.584 z" id="boundary" inkscape:connector-curvature="0" />
	<path style="fill:none;stroke:red;stroke-width:1px;stroke-linecap:butt;stroke-linejoin:miter;stroke-opacity:1" d="M 200.468,931.584 209.056,939.1 z" id="boundary" inkscape:connector-curvature="0" />
	<path style="fill:none;stroke:red;stroke-width:1px;stroke-linecap:butt;stroke-linejoin:miter;stroke-opacity:1" d="M 205.835,533.281 246.632,547.238 z" id="boundary" inkscape:connector-curvature="0" />
	<path style="fill:none;stroke:red;stroke-width:1px;stroke-linecap:butt;stroke-linejoin:miter;stroke-opacity:1" d="M 209.056,939.1 216.571,947.688 z" id="boundary" inkscape:connector-curvature="0" />
	<path style="fill:none;stroke:red;stroke-width:1px;stroke-linecap:butt;stroke-linejoin:miter;stroke-opacity:1" d="M 216.571,947.688 227.307,951.983 z" id="boundary" inkscape:connector-curvature="0" />
	<path style="fill:none;stroke:red;stroke-width:1px;stroke-linecap:butt;stroke-linejoin:miter;stroke-opacity:1" d="M 227.307,951.983 234.823,960.571 z" id="boundary" inkscape:connector-curvature="0" />
	<path style="fill:none;stroke:red;stroke-width:1px;stroke-linecap:butt;stroke-linejoin:miter;stroke-opacity:1" d="M 234.823,960.571 245.558,963.792 z" id="boundary" inkscape:connector-curvature="0" />
	<path style="fill:none;stroke:red;stroke-width:1px;stroke-linecap:butt;stroke-linejoin:miter;stroke-opacity:1" d="M 245.558,963.792 255.221,969.16 z" id="boundary" inkscape:connector-curvature="0" />
	<path style="fill:none;stroke:red;stroke-width:1px;stroke-linecap:butt;stroke-linejoin:miter;stroke-opacity:1" d="M 246.632,547.238 363.654,504.294 z" id="boundary" inkscape:connector-curvature="0" />
	<path style="fill:none;stroke:red;stroke-width:1px;stroke-linecap:butt;stroke-linejoin:miter;stroke-opacity:1" d="M 255.221,969.16 264.883,974.528 z" id="boundary" inkscape:connector-curvature="0" />
	<path style="fill:none;stroke:red;stroke-width:1px;stroke-linecap:butt;stroke-linejoin:miter;stroke-opacity:1" d="M 264.883,974.528 275.619,974.528 z" id="boundary" inkscape:connector-curvature="0" />
	<path style="fill:none;stroke:red;stroke-width:1px;stroke-linecap:butt;stroke-linejoin:miter;stroke-opacity:1" d="M 275.619,974.528 286.355,978.823 z" id="boundary" inkscape:connector-curvature="0" />
	<path style="fill:none;stroke:red;stroke-width:1px;stroke-linecap:butt;stroke-linejoin:miter;stroke-opacity:1" d="M 286.355,978.823 297.091,979.896 z" id="boundary" inkscape:connector-curvature="0" />
	<path style="fill:none;stroke:red;stroke-width:1px;stroke-linecap:butt;stroke-linejoin:miter;stroke-opacity:1" d="M 297.091,979.896 307.827,979.896 z" id="boundary" inkscape:connector-curvature="0" />
	<path style="fill:none;stroke:red;stroke-width:1px;stroke-linecap:butt;stroke-linejoin:miter;stroke-opacity:1" d="M 307.827,979.896 317.489,985.264 z" id="boundary" inkscape:connector-curvature="0" />
	<path style="fill:none;stroke:red;stroke-width:1px;stroke-linecap:butt;stroke-linejoin:miter;stroke-opacity:1" d="M 317.489,985.264 328.225,985.264 z" id="boundary" inkscape:connector-curvature="0" />
	<path style="fill:none;stroke:red;stroke-width:1px;stroke-linecap:butt;stroke-linejoin:miter;stroke-opacity:1" d="M 321.784,813.489 321.784,824.225 z" id="boundary" inkscape:connector-curvature="0" />
	<path style="fill:none;stroke:red;stroke-width:1px;stroke-linecap:butt;stroke-linejoin:miter;stroke-opacity:1" d="M 321.784,813.489 327.152,802.753 z" id="boundary" inkscape:connector-curvature="0" />
	<path style="fill:none;stroke:red;stroke-width:1px;stroke-linecap:butt;stroke-linejoin:miter;stroke-opacity:1" d="M 321.784,824.225 321.784,834.961 z" id="boundary" inkscape:connector-curvature="0" />
	<path style="fill:none;stroke:red;stroke-width:1px;stroke-linecap:butt;stroke-linejoin:miter;stroke-opacity:1" d="M 321.784,834.961 327.152,844.623 z" id="boundary" inkscape:connector-curvature="0" />
	<path style="fill:none;stroke:red;stroke-width:1px;stroke-linecap:butt;stroke-linejoin:miter;stroke-opacity:1" d="M 327.152,792.017 327.152,802.753 z" id="boundary" inkscape:connector-curvature="0" />
	<path style="fill:none;stroke:red;stroke-width:1px;stroke-linecap:butt;stroke-linejoin:miter;stroke-opacity:1" d="M 327.152,792.017 332.519,781.281 z" id="boundary" inkscape:connector-curvature="0" />
	<path style="fill:none;stroke:red;stroke-width:1px;stroke-linecap:butt;stroke-linejoin:miter;stroke-opacity:1" d="M 327.152,844.623 327.152,855.359 z" id="boundary" inkscape:connector-curvature="0" />
	<path style="fill:none;stroke:red;stroke-width:1px;stroke-linecap:butt;stroke-linejoin:miter;stroke-opacity:1" d="M 327.152,855.359 332.519,865.022 z" id="boundary" inkscape:connector-curvature="0" />
	<path style="fill:none;stroke:red;stroke-width:1px;stroke-linecap:butt;stroke-linejoin:miter;stroke-opacity:1" d="M 328.225,985.264 337.887,990.632 z" id="boundary" inkscape:connector-curvature="0" />
	<path style="fill:none;stroke:red;stroke-width:1px;stroke-linecap:butt;stroke-linejoin:miter;stroke-opacity:1" d="M 332.519,759.81 332.519,770.545 z" id="boundary" inkscape:connector-curvature="0" />
	<path style="fill:none;stroke:red;stroke-width:1px;stroke-linecap:butt;stroke-linejoin:miter;stroke-opacity:1" d="M 332.519,759.81 337.887,749.074 z" id="boundary" inkscape:connector-curvature="0" />
	<path style="fill:none;stroke:red;stroke-width:1px;stroke-linecap:butt;stroke-linejoin:miter;stroke-opacity:1" d="M 332.519,770.545 332.519,781.281 z" id="boundary" inkscape:connector-curvature="0" />
	<path style="fill:none;stroke:red;stroke-width:1px;stroke-linecap:butt;stroke-linejoin:miter;stroke-opacity:1" d="M 332.519,865.022 332.519,875.758 z" id="boundary" inkscape:connector-curvature="0" />
	<path style="fill:none;stroke:red;stroke-width:1px;stroke-linecap:butt;stroke-linejoin:miter;stroke-opacity:1" d="M 332.519,875.758 341.108,883.273 z" id="boundary" inkscape:connector-curvature="0" />
	<path style="fill:none;stroke:red;stroke-width:1px;stroke-linecap:butt;stroke-linejoin:miter;stroke-opacity:1" d="M 337.887,738.338 337.887,749.074 z" id="boundary" inkscape:connector-curvature="0" />
	<path style="fill:none;stroke:red;stroke-width:1px;stroke-linecap:butt;stroke-linejoin:miter;stroke-opacity:1" d="M 337.887,738.338 343.255,727.602 z" id="boundary" inkscape:connector-curvature="0" />
	<path style="fill:none;stroke:red;stroke-width:1px;stroke-linecap:butt;stroke-linejoin:miter;stroke-opacity:1" d="M 337.887,990.632 348.623,990.632 z" id="boundary" inkscape:connector-curvature="0" />
	<path style="fill:none;stroke:red;stroke-width:1px;stroke-linecap:butt;stroke-linejoin:miter;stroke-opacity:1" d="M 341.108,883.273 345.403,894.009 z" id="boundary" inkscape:connector-curvature="0" />
	<path style="fill:none;stroke:red;stroke-width:1px;stroke-linecap:butt;stroke-linejoin:miter;stroke-opacity:1" d="M 343.255,716.866 343.255,727.602 z" id="boundary" inkscape:connector-curvature="0" />
	<path style="fill:none;stroke:red;stroke-width:1px;stroke-linecap:butt;stroke-linejoin:miter;stroke-opacity:1" d="M 343.255,716.866 351.844,709.351 z" id="boundary" inkscape:connector-curvature="0" />
	<path style="fill:none;stroke:red;stroke-width:1px;stroke-linecap:butt;stroke-linejoin:miter;stroke-opacity:1" d="M 345.403,894.009 350.771,903.671 z" id="boundary" inkscape:connector-curvature="0" />
	<path style="fill:none;stroke:red;stroke-width:1px;stroke-linecap:butt;stroke-linejoin:miter;stroke-opacity:1" d="M 348.623,990.632 359.359,990.632 z" id="boundary" inkscape:connector-curvature="0" />
	<path style="fill:none;stroke:red;stroke-width:1px;stroke-linecap:butt;stroke-linejoin:miter;stroke-opacity:1" d="M 350.771,903.671 353.991,914.407 z" id="boundary" inkscape:connector-curvature="0" />
	<path style="fill:none;stroke:red;stroke-width:1px;stroke-linecap:butt;stroke-linejoin:miter;stroke-opacity:1" d="M 351.844,709.351 357.212,698.615 z" id="boundary" inkscape:connector-curvature="0" />
	<path style="fill:none;stroke:red;stroke-width:1px;stroke-linecap:butt;stroke-linejoin:miter;stroke-opacity:1" d="M 353.991,914.407 353.991,925.143 z" id="boundary" inkscape:connector-curvature="0" />
	<path style="fill:none;stroke:red;stroke-width:1px;stroke-linecap:butt;stroke-linejoin:miter;stroke-opacity:1" d="M 353.991,925.143 359.359,934.805 z" id="boundary" inkscape:connector-curvature="0" />
	<path style="fill:none;stroke:red;stroke-width:1px;stroke-linecap:butt;stroke-linejoin:miter;stroke-opacity:1" d="M 357.212,698.615 367.948,693.247 z" id="boundary" inkscape:connector-curvature="0" />
	<path style="fill:none;stroke:red;stroke-width:1px;stroke-linecap:butt;stroke-linejoin:miter;stroke-opacity:1" d="M 359.359,934.805 367.948,942.32 z" id="boundary" inkscape:connector-curvature="0" />
	<path style="fill:none;stroke:red;stroke-width:1px;stroke-linecap:butt;stroke-linejoin:miter;stroke-opacity:1" d="M 359.359,990.632 370.095,992.779 z" id="boundary" inkscape:connector-curvature="0" />
	<path style="fill:none;stroke:red;stroke-width:1px;stroke-linecap:butt;stroke-linejoin:miter;stroke-opacity:1" d="M 363.654,504.294 369.022,488.19 z" id="boundary" inkscape:connector-curvature="0" />
	<path style="fill:none;stroke:red;stroke-width:1px;stroke-linecap:butt;stroke-linejoin:miter;stroke-opacity:1" d="M 364.727,630.978 370.095,640.641 z" id="boundary" inkscape:connector-curvature="0" />
	<path style="fill:none;stroke:red;stroke-width:1px;stroke-linecap:butt;stroke-linejoin:miter;stroke-opacity:1" d="M 364.727,630.978 508.589,4 z" id="boundary" inkscape:connector-curvature="0" />
	<path style="fill:none;stroke:red;stroke-width:1px;stroke-linecap:butt;stroke-linejoin:miter;stroke-opacity:1" d="M 367.948,693.247 373.316,682.511 z" id="boundary" inkscape:connector-curvature="0" />
	<path style="fill:none;stroke:red;stroke-width:1px;stroke-linecap:butt;stroke-linejoin:miter;stroke-opacity:1" d="M 367.948,942.32 375.463,950.909 z" id="boundary" inkscape:connector-curvature="0" />
	<path style="fill:none;stroke:red;stroke-width:1px;stroke-linecap:butt;stroke-linejoin:miter;stroke-opacity:1" d="M 369.022,488.19 402.303,426.996 z" id="boundary" inkscape:connector-curvature="0" />
	<path style="fill:none;stroke:red;stroke-width:1px;stroke-linecap:butt;stroke-linejoin:miter;stroke-opacity:1" d="M 370.095,640.641 370.095,651.377 z" id="boundary" inkscape:connector-curvature="0" />
	<path style="fill:none;stroke:red;stroke-width:1px;stroke-linecap:butt;stroke-linejoin:miter;stroke-opacity:1" d="M 370.095,651.377 375.463,661.039 z" id="boundary" inkscape:connector-curvature="0" />
	<path style="fill:none;stroke:red;stroke-width:1px;stroke-linecap:butt;stroke-linejoin:miter;stroke-opacity:1" d="M 370.095,992.779 380.831,996 z" id="boundary" inkscape:connector-curvature="0" />
	<path style="fill:none;stroke:red;stroke-width:1px;stroke-linecap:butt;stroke-linejoin:miter;stroke-opacity:1" d="M 373.316,682.511 375.463,671.775 z" id="boundary" inkscape:connector-curvature="0" />
	<path style="fill:none;stroke:red;stroke-width:1px;stroke-linecap:butt;stroke-linejoin:miter;stroke-opacity:1" d="M 374.39,370.095 379.758,327.152 z" id="boundary" inkscape:connector-curvature="0" />
	<path style="fill:none;stroke:red;stroke-width:1px;stroke-linecap:butt;stroke-linejoin:miter;stroke-opacity:1" d="M 374.39,370.095 402.303,384.052 z" id="boundary" inkscape:connector-curvature="0" />
	<path style="fill:none;stroke:red;stroke-width:1px;stroke-linecap:butt;stroke-linejoin:miter;stroke-opacity:1" d="M 375.463,661.039 375.463,671.775 z" id="boundary" inkscape:connector-curvature="0" />
	<path style="fill:none;stroke:red;stroke-width:1px;stroke-linecap:butt;stroke-linejoin:miter;stroke-opacity:1" d="M 375.463,950.909 380.831,960.571 z" id="boundary" inkscape:connector-curvature="0" />
	<path style="fill:none;stroke:red;stroke-width:1px;stroke-linecap:butt;stroke-linejoin:miter;stroke-opacity:1" d="M 379.758,327.152 385.126,300.312 z" id="boundary" inkscape:connector-curvature="0" />
	<path style="fill:none;stroke:red;stroke-width:1px;stroke-linecap:butt;stroke-linejoin:miter;stroke-opacity:1" d="M 380.831,960.571 391.567,962.719 z" id="boundary" inkscape:connector-curvature="0" />
	<path style="fill:none;stroke:red;stroke-width:1px;stroke-linecap:butt;stroke-linejoin:miter;stroke-opacity:1" d="M 380.831,996 390.494,990.632 z" id="boundary" inkscape:connector-curvature="0" />
	<path style="fill:none;stroke:red;stroke-width:1px;stroke-linecap:butt;stroke-linejoin:miter;stroke-opacity:1" d="M 385.126,300.312 390.494,278.84 z" id="boundary" inkscape:connector-curvature="0" />
	<path style="fill:none;stroke:red;stroke-width:1px;stroke-linecap:butt;stroke-linejoin:miter;stroke-opacity:1" d="M 390.494,278.84 413.039,249.853 z" id="boundary" inkscape:connector-curvature="0" />
	<path style="fill:none;stroke:red;stroke-width:1px;stroke-linecap:butt;stroke-linejoin:miter;stroke-opacity:1" d="M 390.494,990.632 401.229,987.411 z" id="boundary" inkscape:connector-curvature="0" />
	<path style="fill:none;stroke:red;stroke-width:1px;stroke-linecap:butt;stroke-linejoin:miter;stroke-opacity:1" d="M 391.567,962.719 400.156,969.16 z" id="boundary" inkscape:connector-curvature="0" />
	<path style="fill:none;stroke:red;stroke-width:1px;stroke-linecap:butt;stroke-linejoin:miter;stroke-opacity:1" d="M 400.156,969.16 407.671,977.749 z" id="boundary" inkscape:connector-curvature="0" />
	<path style="fill:none;stroke:red;stroke-width:1px;stroke-linecap:butt;stroke-linejoin:miter;stroke-opacity:1" d="M 401.229,987.411 407.671,977.749 z" id="boundary" inkscape:connector-curvature="0" />
	<path style="fill:none;stroke:red;stroke-width:1px;stroke-linecap:butt;stroke-linejoin:miter;stroke-opacity:1" d="M 402.303,384.052 402.303,426.996 z" id="boundary" inkscape:connector-curvature="0" />
	<path style="fill:none;stroke:red;stroke-width:1px;stroke-linecap:butt;stroke-linejoin:miter;stroke-opacity:1" d="M 413.039,217.645 413.039,228.381 z" id="boundary" inkscape:connector-curvature="0" />
	<path style="fill:none;stroke:red;stroke-width:1px;stroke-linecap:butt;stroke-linejoin:miter;stroke-opacity:1" d="M 413.039,217.645 418.407,190.805 z" id="boundary" inkscape:connector-curvature="0" />
	<path style="fill:none;stroke:red;stroke-width:1px;stroke-linecap:butt;stroke-linejoin:miter;stroke-opacity:1" d="M 413.039,228.381 413.039,249.853 z" id="boundary" inkscape:connector-curvature="0" />
	<path style="fill:none;stroke:red;stroke-width:1px;stroke-linecap:butt;stroke-linejoin:miter;stroke-opacity:1" d="M 418.407,190.805 429.143,158.597 z" id="boundary" inkscape:connector-curvature="0" />
	<path style="fill:none;stroke:red;stroke-width:1px;stroke-linecap:butt;stroke-linejoin:miter;stroke-opacity:1" d="M 425.922,119.948 429.143,158.597 z" id="boundary" inkscape:connector-curvature="0" />
	<path style="fill:none;stroke:red;stroke-width:1px;stroke-linecap:butt;stroke-linejoin:miter;stroke-opacity:1" d="M 425.922,119.948 445.247,121.022 z" id="boundary" inkscape:connector-curvature="0" />
	<path style="fill:none;stroke:red;stroke-width:1px;stroke-linecap:butt;stroke-linejoin:miter;stroke-opacity:1" d="M 442.026,93.1082 445.247,121.022 z" id="boundary" inkscape:connector-curvature="0" />
	<path style="fill:none;stroke:red;stroke-width:1px;stroke-linecap:butt;stroke-linejoin:miter;stroke-opacity:1" d="M 442.026,93.1082 455.983,94.1818 z" id="boundary" inkscape:connector-curvature="0" />
	<path style="fill:none;stroke:red;stroke-width:1px;stroke-linecap:butt;stroke-linejoin:miter;stroke-opacity:1" d="M 455.983,94.1818 475.307,65.1948 z" id="boundary" inkscape:connector-curvature="0" />
	<path style="fill:none;stroke:red;stroke-width:1px;stroke-linecap:butt;stroke-linejoin:miter;stroke-opacity:1" d="M 475.307,65.1948 480.675,54.4589 z" id="boundary" inkscape:connector-curvature="0" />
	<path style="fill:none;stroke:red;stroke-width:1px;stroke-linecap:butt;stroke-linejoin:miter;stroke-opacity:1" d="M 480.675,54.4589 493.558,35.1342 z" id="boundary" inkscape:connector-curvature="0" />
	<path style="fill:none;stroke:red;stroke-width:1px;stroke-linecap:butt;stroke-linejoin:miter;stroke-opacity:1" d="M 493.558,35.1342 508.589,4 z" id="boundary" inkscape:connector-curvature="0" />
	<circle cx="4" cy="783.429" r="4" fill="#0" id="circle0"/>
	<circle cx="4" cy="794.165" r="4" fill="#0" id="circle1"/>
	<circle cx="4" cy="804.9" r="4" fill="#0" id="circle2"/>
	<circle cx="4" cy="815.636" r="4" fill="#0" id="circle3"/>
	<circle cx="9.36797" cy="477.455" r="4" fill="#0" id="circle4"/>
	<circle cx="9.36797" cy="488.19" r="4" fill="#0" id="circle5"/>
	<circle cx="9.36797" cy="498.926" r="4" fill="#0" id="circle6"/>
	<circle cx="9.36797" cy="509.662" r="4" fill="#0" id="circle7"/>
	<circle cx="9.36797" cy="520.398" r="4" fill="#0" id="circle8"/>
	<circle cx="9.36797" cy="531.134" r="4" fill="#0" id="circle9"/>
	<circle cx="9.36797" cy="541.87" r="4" fill="#0" id="circle10"/>
	<circle cx="9.36797" cy="552.606" r="4" fill="#0" id="circle11"/>
	<circle cx="9.36797" cy="563.342" r="4" fill="#0" id="circle12"/>
	<circle cx="9.36797" cy="574.078" r="4" fill="#0" id="circle13"/>
	<circle cx="9.36797" cy="584.814" r="4" fill="#0" id="circle14"/>
	<circle cx="9.36797" cy="595.55" r="4" fill="#0" id="circle15"/>
	<circle cx="9.36797" cy="606.286" r="4" fill="#0" id="circle16"/>
	<circle cx="9.36797" cy="617.022" r="4" fill="#0" id="circle17"/>
	<circle cx="9.36797" cy="627.758" r="4" fill="#0" id="circle18"/>
	<circle cx="9.36797" cy="761.957" r="4" fill="#0" id="circle19"/>
	<circle cx="9.36797" cy="772.693" r="4" fill="#0" id="circle20"/>
	<circle cx="12.5887" cy="823.152" r="4" fill="#0" id="circle21"/>
	<circle cx="14.7359" cy="455.983" r="4" fill="#0" id="circle22"/>
	<circle cx="14.7359" cy="466.719" r="4" fill="#0" id="circle23"/>
	<circle cx="14.7359" cy="637.42" r="4" fill="#0" id="circle24"/>
	<circle cx="14.7359" cy="648.156" r="4" fill="#0" id="circle25"/>
	<circle cx="17.9567" cy="753.368" r="4" fill="#0" id="circle26"/>
	<circle cx="20.1039" cy="429.143" r="4" fill="#0" id="circle27"/>
	<circle cx="20.1039" cy="439.879" r="4" fill="#0" id="circle28"/>
	<circle cx="20.1039" cy="657.818" r="4" fill="#0" id="circle29"/>
	<circle cx="20.1039" cy="668.554" r="4" fill="#0" id="circle30"/>
	<circle cx="20.1039" cy="679.29" r="4" fill="#0" id="circle31"/>
	<circle cx="21.1775" cy="829.593" r="4" fill="#0" id="circle32"/>
	<circle cx="23.3247" cy="742.632" r="4" fill="#0" id="circle33"/>
	<circle cx="25.4719" cy="407.671" r="4" fill="#0" id="circle34"/>
	<circle cx="25.4719" cy="418.407" r="4" fill="#0" id="circle35"/>
	<circle cx="25.4719" cy="688.952" r="4" fill="#0" id="circle36"/>
	<circle cx="25.4719" cy="699.688" r="4" fill="#0" id="circle37"/>
	<circle cx="25.4719" cy="710.424" r="4" fill="#0" id="circle38"/>
	<circle cx="25.4719" cy="721.16" r="4" fill="#0" id="circle39"/>
	<circle cx="25.4719" cy="731.896" r="4" fill="#0" id="circle40"/>
	<circle cx="30.8398" cy="834.961" r="4" fill="#0" id="circle41"/>
	<circle cx="34.0606" cy="399.082" r="4" fill="#0" id="circle42"/>
	<circle cx="39.4286" cy="388.346" r="4" fill="#0" id="circle43"/>
	<circle cx="41.5758" cy="834.961" r="4" fill="#0" id="circle44"/>
	<circle cx="50.1645" cy="382.978" r="4" fill="#0" id="circle45"/>
	<circle cx="52.3117" cy="834.961" r="4" fill="#0" id="circle46"/>
	<circle cx="57.6797" cy="391.567" r="4" fill="#0" id="circle47"/>
	<circle cx="58.7532" cy="402.303" r="4" fill="#0" id="circle48"/>
	<circle cx="63.0476" cy="834.961" r="4" fill="#0" id="circle49"/>
	<circle cx="66.2684" cy="410.892" r="4" fill="#0" id="circle50"/>
	<circle cx="69.4892" cy="421.628" r="4" fill="#0" id="circle51"/>
	<circle cx="69.4892" cy="432.364" r="4" fill="#0" id="circle52"/>
	<circle cx="71.6364" cy="443.1" r="4" fill="#0" id="circle53"/>
	<circle cx="73.7835" cy="834.961" r="4" fill="#0" id="circle54"/>
	<circle cx="80.2251" cy="450.615" r="4" fill="#0" id="circle55"/>
	<circle cx="84.5195" cy="834.961" r="4" fill="#0" id="circle56"/>
	<circle cx="87.7403" cy="459.203" r="4" fill="#0" id="circle57"/>
	<circle cx="94.1818" cy="840.329" r="4" fill="#0" id="circle58"/>
	<circle cx="98.4762" cy="463.498" r="4" fill="#0" id="circle59"/>
	<circle cx="103.844" cy="845.697" r="4" fill="#0" id="circle60"/>
	<circle cx="105.991" cy="472.087" r="4" fill="#0" id="circle61"/>
	<circle cx="109.212" cy="855.359" r="4" fill="#0" id="circle62"/>
	<circle cx="112.433" cy="480.675" r="4" fill="#0" id="circle63"/>
	<circle cx="116.727" cy="863.948" r="4" fill="#0" id="circle64"/>
	<circle cx="117.801" cy="490.338" r="4" fill="#0" id="circle65"/>
	<circle cx="125.316" cy="871.463" r="4" fill="#0" id="circle66"/>
	<circle cx="128.537" cy="493.558" r="4" fill="#0" id="circle67"/>
	<circle cx="133.905" cy="877.905" r="4" fill="#0" id="circle68"/>
	<circle cx="138.199" cy="498.926" r="4" fill="#0" id="circle69"/>
	<circle cx="143.567" cy="883.273" r="4" fill="#0" id="circle70"/>
	<circle cx="146.788" cy="506.442" r="4" fill="#0" id="circle71"/>
	<circle cx="150.009" cy="891.861" r="4" fill="#0" id="circle72"/>
	<circle cx="156.45" cy="511.81" r="4" fill="#0" id="circle73"/>
	<circle cx="158.597" cy="899.377" r="4" fill="#0" id="circle74"/>
	<circle cx="165.039" cy="907.965" r="4" fill="#0" id="circle75"/>
	<circle cx="166.113" cy="517.177" r="4" fill="#0" id="circle76"/>
	<circle cx="170.407" cy="917.628" r="4" fill="#0" id="circle77"/>
	<circle cx="175.775" cy="522.545" r="4" fill="#0" id="circle78"/>
	<circle cx="181.143" cy="920.848" r="4" fill="#0" id="circle79"/>
	<circle cx="185.437" cy="527.913" r="4" fill="#0" id="circle80"/>
	<circle cx="190.805" cy="926.216" r="4" fill="#0" id="circle81"/>
	<circle cx="195.1" cy="533.281" r="4" fill="#0" id="circle82"/>
	<circle cx="200.468" cy="931.584" r="4" fill="#0" id="circle83"/>
	<circle cx="205.835" cy="533.281" r="4" fill="#0" id="circle84"/>
	<circle cx="209.056" cy="939.1" r="4" fill="#0" id="circle85"/>
	<circle cx="215.498" cy="538.649" r="4" fill="#0" id="circle86"/>
	<circle cx="216.571" cy="947.688" r="4" fill="#0" id="circle87"/>
	<circle cx="225.16" cy="544.017" r="4" fill="#0" id="circle88"/>
	<circle cx="227.307" cy="951.983" r="4" fill="#0" id="circle89"/>
	<circle cx="234.823" cy="960.571" r="4" fill="#0" id="circle90"/>
	<circle cx="235.896" cy="544.017" r="4" fill="#0" id="circle91"/>
	<circle cx="245.558" cy="963.792" r="4" fill="#0" id="circle92"/>
	<circle cx="246.632" cy="547.238" r="4" fill="#0" id="circle93"/>
	<circle cx="255.221" cy="969.16" r="4" fill="#0" id="circle94"/>
	<circle cx="256.294" cy="552.606" r="4" fill="#0" id="circle95"/>
	<circle cx="264.883" cy="560.121" r="4" fill="#0" id="circle96"/>
	<circle cx="264.883" cy="974.528" r="4" fill="#0" id="circle97"/>
	<circle cx="272.398" cy="568.71" r="4" fill="#0" id="circle98"/>
	<circle cx="275.619" cy="974.528" r="4" fill="#0" id="circle99"/>
	<circle cx="283.134" cy="570.857" r="4" fill="#0" id="circle100"/>
	<circle cx="286.355" cy="978.823" r="4" fill="#0" id="circle101"/>
	<circle cx="292.797" cy="565.489" r="4" fill="#0" id="circle102"/>
	<circle cx="297.091" cy="979.896" r="4" fill="#0" id="circle103"/>
	<circle cx="303.532" cy="565.489" r="4" fill="#0" id="circle104"/>
	<circle cx="307.827" cy="979.896" r="4" fill="#0" id="circle105"/>
	<circle cx="313.195" cy="560.121" r="4" fill="#0" id="circle106"/>
	<circle cx="317.489" cy="985.264" r="4" fill="#0" id="circle107"/>
	<circle cx="321.784" cy="813.489" r="4" fill="#0" id="circle108"/>
	<circle cx="321.784" cy="824.225" r="4" fill="#0" id="circle109"/>
	<circle cx="321.784" cy="834.961" r="4" fill="#0" id="circle110"/>
	<circle cx="322.857" cy="554.753" r="4" fill="#0" id="circle111"/>
	<circle cx="327.152" cy="792.017" r="4" fill="#0" id="circle112"/>
	<circle cx="327.152" cy="802.753" r="4" fill="#0" id="circle113"/>
	<circle cx="327.152" cy="844.623" r="4" fill="#0" id="circle114"/>
	<circle cx="327.152" cy="855.359" r="4" fill="#0" id="circle115"/>
	<circle cx="328.225" cy="985.264" r="4" fill="#0" id="circle116"/>
	<circle cx="332.519" cy="549.385" r="4" fill="#0" id="circle117"/>
	<circle cx="332.519" cy="759.81" r="4" fill="#0" id="circle118"/>
	<circle cx="332.519" cy="770.545" r="4" fill="#0" id="circle119"/>
	<circle cx="332.519" cy="781.281" r="4" fill="#0" id="circle120"/>
	<circle cx="332.519" cy="865.022" r="4" fill="#0" id="circle121"/>
	<circle cx="332.519" cy="875.758" r="4" fill="#0" id="circle122"/>
	<circle cx="337.887" cy="738.338" r="4" fill="#0" id="circle123"/>
	<circle cx="337.887" cy="749.074" r="4" fill="#0" id="circle124"/>
	<circle cx="337.887" cy="990.632" r="4" fill="#0" id="circle125"/>
	<circle cx="341.108" cy="883.273" r="4" fill="#0" id="circle126"/>
	<circle cx="342.182" cy="544.017" r="4" fill="#0" id="circle127"/>
	<circle cx="343.255" cy="716.866" r="4" fill="#0" id="circle128"/>
	<circle cx="343.255" cy="727.602" r="4" fill="#0" id="circle129"/>
	<circle cx="345.403" cy="894.009" r="4" fill="#0" id="circle130"/>
	<circle cx="348.623" cy="990.632" r="4" fill="#0" id="circle131"/>
	<circle cx="350.771" cy="903.671" r="4" fill="#0" id="circle132"/>
	<circle cx="351.844" cy="538.649" r="4" fill="#0" id="circle133"/>
	<circle cx="351.844" cy="709.351" r="4" fill="#0" id="circle134"/>
	<circle cx="353.991" cy="914.407" r="4" fill="#0" id="circle135"/>
	<circle cx="353.991" cy="925.143" r="4" fill="#0" id="circle136"/>
	<circle cx="356.139" cy="527.913" r="4" fill="#0" id="circle137"/>
	<circle cx="357.212" cy="698.615" r="4" fill="#0" id="circle138"/>
	<circle cx="359.359" cy="934.805" r="4" fill="#0" id="circle139"/>
	<circle cx="359.359" cy="990.632" r="4" fill="#0" id="circle140"/>
	<circle cx="361.506" cy="517.177" r="4" fill="#0" id="circle141"/>
	<circle cx="363.654" cy="504.294" r="4" fill="#0" id="circle142"/>
	<circle cx="364.727" cy="620.242" r="4" fill="#0" id="circle143"/>
	<circle cx="364.727" cy="630.978" r="4" fill="#0" id="circle144"/>
	<circle cx="367.948" cy="693.247" r="4" fill="#0" id="circle145"/>
	<circle cx="367.948" cy="942.32" r="4" fill="#0" id="circle146"/>
	<circle cx="369.022" cy="434.511" r="4" fill="#0" id="circle147"/>
	<circle cx="369.022" cy="445.247" r="4" fill="#0" id="circle148"/>
	<circle cx="369.022" cy="455.983" r="4" fill="#0" id="circle149"/>
	<circle cx="369.022" cy="466.719" r="4" fill="#0" id="circle150"/>
	<circle cx="369.022" cy="477.455" r="4" fill="#0" id="circle151"/>
	<circle cx="369.022" cy="488.19" r="4" fill="#0" id="circle152"/>
	<circle cx="370.095" cy="609.506" r="4" fill="#0" id="circle153"/>
	<circle cx="370.095" cy="640.641" r="4" fill="#0" id="circle154"/>
	<circle cx="370.095" cy="651.377" r="4" fill="#0" id="circle155"/>
	<circle cx="370.095" cy="992.779" r="4" fill="#0" id="circle156"/>
	<circle cx="373.316" cy="682.511" r="4" fill="#0" id="circle157"/>
	<circle cx="374.39" cy="370.095" r="4" fill="#0" id="circle158"/>
	<circle cx="374.39" cy="380.831" r="4" fill="#0" id="circle159"/>
	<circle cx="374.39" cy="391.567" r="4" fill="#0" id="circle160"/>
	<circle cx="374.39" cy="402.303" r="4" fill="#0" id="circle161"/>
	<circle cx="374.39" cy="413.039" r="4" fill="#0" id="circle162"/>
	<circle cx="374.39" cy="423.775" r="4" fill="#0" id="circle163"/>
	<circle cx="375.463" cy="588.035" r="4" fill="#0" id="circle164"/>
	<circle cx="375.463" cy="598.771" r="4" fill="#0" id="circle165"/>
	<circle cx="375.463" cy="661.039" r="4" fill="#0" id="circle166"/>
	<circle cx="375.463" cy="671.775" r="4" fill="#0" id="circle167"/>
	<circle cx="375.463" cy="950.909" r="4" fill="#0" id="circle168"/>
	<circle cx="379.758" cy="327.152" r="4" fill="#0" id="circle169"/>
	<circle cx="379.758" cy="337.887" r="4" fill="#0" id="circle170"/>
	<circle cx="379.758" cy="348.623" r="4" fill="#0" id="circle171"/>
	<circle cx="379.758" cy="359.359" r="4" fill="#0" id="circle172"/>
	<circle cx="380.831" cy="571.931" r="4" fill="#0" id="circle173"/>
	<circle cx="380.831" cy="960.571" r="4" fill="#0" id="circle174"/>
	<circle cx="380.831" cy="996" r="4" fill="#0" id="circle175"/>
	<circle cx="385.126" cy="300.312" r="4" fill="#0" id="circle176"/>
	<circle cx="385.126" cy="311.048" r="4" fill="#0" id="circle177"/>
	<circle cx="386.199" cy="561.195" r="4" fill="#0" id="circle178"/>
	<circle cx="390.494" cy="268.104" r="4" fill="#0" id="circle179"/>
	<circle cx="390.494" cy="278.84" r="4" fill="#0" id="circle180"/>
	<circle cx="390.494" cy="289.576" r="4" fill="#0" id="circle181"/>
	<circle cx="390.494" cy="990.632" r="4" fill="#0" id="circle182"/>
	<circle cx="391.567" cy="539.723" r="4" fill="#0" id="circle183"/>
	<circle cx="391.567" cy="550.459" r="4" fill="#0" id="circle184"/>
	<circle cx="391.567" cy="962.719" r="4" fill="#0" id="circle185"/>
	<circle cx="395.861" cy="230.528" r="4" fill="#0" id="circle186"/>
	<circle cx="395.861" cy="241.264" r="4" fill="#0" id="circle187"/>
	<circle cx="395.861" cy="252" r="4" fill="#0" id="circle188"/>
	<circle cx="396.935" cy="486.043" r="4" fill="#0" id="circle189"/>
	<circle cx="396.935" cy="496.779" r="4" fill="#0" id="circle190"/>
	<circle cx="396.935" cy="507.515" r="4" fill="#0" id="circle191"/>
	<circle cx="396.935" cy="518.251" r="4" fill="#0" id="circle192"/>
	<circle cx="396.935" cy="528.987" r="4" fill="#0" id="circle193"/>
	<circle cx="400.156" cy="969.16" r="4" fill="#0" id="circle194"/>
	<circle cx="401.229" cy="187.584" r="4" fill="#0" id="circle195"/>
	<circle cx="401.229" cy="198.32" r="4" fill="#0" id="circle196"/>
	<circle cx="401.229" cy="209.056" r="4" fill="#0" id="circle197"/>
	<circle cx="401.229" cy="219.792" r="4" fill="#0" id="circle198"/>
	<circle cx="401.229" cy="987.411" r="4" fill="#0" id="circle199"/>
	<circle cx="402.303" cy="308.9" r="4" fill="#0" id="circle200"/>
	<circle cx="402.303" cy="319.636" r="4" fill="#0" id="circle201"/>
	<circle cx="402.303" cy="330.372" r="4" fill="#0" id="circle202"/>
	<circle cx="402.303" cy="341.108" r="4" fill="#0" id="circle203"/>
	<circle cx="402.303" cy="351.844" r="4" fill="#0" id="circle204"/>
	<circle cx="402.303" cy="362.58" r="4" fill="#0" id="circle205"/>
	<circle cx="402.303" cy="373.316" r="4" fill="#0" id="circle206"/>
	<circle cx="402.303" cy="384.052" r="4" fill="#0" id="circle207"/>
	<circle cx="402.303" cy="394.788" r="4" fill="#0" id="circle208"/>
	<circle cx="402.303" cy="405.524" r="4" fill="#0" id="circle209"/>
	<circle cx="402.303" cy="416.26" r="4" fill="#0" id="circle210"/>
	<circle cx="402.303" cy="426.996" r="4" fill="#0" id="circle211"/>
	<circle cx="402.303" cy="437.732" r="4" fill="#0" id="circle212"/>
	<circle cx="402.303" cy="448.468" r="4" fill="#0" id="circle213"/>
	<circle cx="402.303" cy="459.203" r="4" fill="#0" id="circle214"/>
	<circle cx="402.303" cy="469.939" r="4" fill="#0" id="circle215"/>
	<circle cx="406.597" cy="166.113" r="4" fill="#0" id="circle216"/>
	<circle cx="406.597" cy="176.848" r="4" fill="#0" id="circle217"/>
	<circle cx="407.671" cy="265.957" r="4" fill="#0" id="circle218"/>
	<circle cx="407.671" cy="276.693" r="4" fill="#0" id="circle219"/>
	<circle cx="407.671" cy="287.429" r="4" fill="#0" id="circle220"/>
	<circle cx="407.671" cy="298.165" r="4" fill="#0" id="circle221"/>
	<circle cx="407.671" cy="977.749" r="4" fill="#0" id="circle222"/>
	<circle cx="411.965" cy="144.641" r="4" fill="#0" id="circle223"/>
	<circle cx="411.965" cy="155.377" r="4" fill="#0" id="circle224"/>
	<circle cx="413.039" cy="217.645" r="4" fill="#0" id="circle225"/>
	<circle cx="413.039" cy="228.381" r="4" fill="#0" id="circle226"/>
	<circle cx="413.039" cy="239.117" r="4" fill="#0" id="circle227"/>
	<circle cx="413.039" cy="249.853" r="4" fill="#0" id="circle228"/>
	<circle cx="417.333" cy="128.537" r="4" fill="#0" id="circle229"/>
	<circle cx="418.407" cy="190.805" r="4" fill="#0" id="circle230"/>
	<circle cx="418.407" cy="201.541" r="4" fill="#0" id="circle231"/>
	<circle cx="423.775" cy="169.333" r="4" fill="#0" id="circle232"/>
	<circle cx="423.775" cy="180.069" r="4" fill="#0" id="circle233"/>
	<circle cx="425.922" cy="119.948" r="4" fill="#0" id="circle234"/>
	<circle cx="429.143" cy="158.597" r="4" fill="#0" id="circle235"/>
	<circle cx="433.437" cy="101.697" r="4" fill="#0" id="circle236"/>
	<circle cx="434.511" cy="142.494" r="4" fill="#0" id="circle237"/>
	<circle cx="439.879" cy="131.758" r="4" fill="#0" id="circle238"/>
	<circle cx="442.026" cy="93.1082" r="4" fill="#0" id="circle239"/>
	<circle cx="445.247" cy="121.022" r="4" fill="#0" id="circle240"/>
	<circle cx="447.394" cy="82.3723" r="4" fill="#0" id="circle241"/>
	<circle cx="450.615" cy="104.918" r="4" fill="#0" id="circle242"/>
	<circle cx="452.762" cy="71.6364" r="4" fill="#0" id="circle243"/>
	<circle cx="455.983" cy="94.1818" r="4" fill="#0" id="circle244"/>
	<circle cx="458.13" cy="60.9004" r="4" fill="#0" id="circle245"/>
	<circle cx="461.351" cy="83.4459" r="4" fill="#0" id="circle246"/>
	<circle cx="465.645" cy="48.0173" r="4" fill="#0" id="circle247"/>
	<circle cx="466.719" cy="72.71" r="4" fill="#0" id="circle248"/>
	<circle cx="474.234" cy="39.4286" r="4" fill="#0" id="circle249"/>
	<circle cx="475.307" cy="65.1948" r="4" fill="#0" id="circle250"/>
	<circle cx="479.602" cy="28.6926" r="4" fill="#0" id="circle251"/>
	<circle cx="480.675" cy="54.4589" r="4" fill="#0" id="circle252"/>
	<circle cx="486.043" cy="43.7229" r="4" fill="#0" id="circle253"/>
	<circle cx="489.264" cy="23.3247" r="4" fill="#0" id="circle254"/>
	<circle cx="493.558" cy="35.1342" r="4" fill="#0" id="circle255"/>
	<circle cx="497.853" cy="5.07359" r="4" fill="#0" id="circle256"/>
	<circle cx="497.853" cy="15.8095" r="4" fill="#0" id="circle257"/>
	<circle cx="508.589" cy="4" r="4" fill="#0" id="circle258"/>
	</g>
</svg>