<?xml version="1.0" encoding="UTF-8" standalone="no"?>
<!-- Created with CurveBenchmark -->
<svg
	xmlns:dc="http://purl.org/dc/elements/1.1/"
	xmlns:cc="http://creativecommons.org/ns#"
	xmlns:rdf="http://www.w3.org/1999/02/22-rdf-syntax-ns#"
	xmlns:svg="http://www.w3.org/2000/svg"
	xmlns="http://www.w3.org/2000/svg"
	xmlns:sodipodi="http://sodipodi.sourceforge.net/DTD/sodipodi-0.dtd"
	xmlns:inkscape="http://www.inkscape.org/namespaces/inkscape"
	width="1000"
	height="1000"
	id="svg2"
	version="1.1"
	sodipodi:docname="manifold/fitconnect-flightbird17.png.txt">
<defs
	id="defs4" />
<metadata
	id="metadata7">
	<rdf:RDF>
		<cc:Work
			rdf:about="">
			<dc:format>image/svg+xml</dc:format>
			<dc:type
				rdf:resource="http://purl.org/dc/dcmitype/StillImage" />
			<dc:title></dc:title>
		</cc:Work>
	</rdf:RDF>
</metadata>
<g
	inkscape:label="Layer 1"
	inkscape:groupmode="layer"
	id="layer1">
	<path style="fill:none;stroke:red;stroke-width:1px;stroke-linecap:butt;stroke-linejoin:miter;stroke-opacity:1" d="M 4,907.164 13.2537,879.403 z" id="boundary" inkscape:connector-curvature="0" />
	<path style="fill:none;stroke:red;stroke-width:1px;stroke-linecap:butt;stroke-linejoin:miter;stroke-opacity:1" d="M 4,907.164 13.2537,923.821 z" id="boundary" inkscape:connector-curvature="0" />
	<path style="fill:none;stroke:red;stroke-width:1px;stroke-linecap:butt;stroke-linejoin:miter;stroke-opacity:1" d="M 13.2537,860.896 13.2537,879.403 z" id="boundary" inkscape:connector-curvature="0" />
	<path style="fill:none;stroke:red;stroke-width:1px;stroke-linecap:butt;stroke-linejoin:miter;stroke-opacity:1" d="M 13.2537,860.896 28.0597,846.09 z" id="boundary" inkscape:connector-curvature="0" />
	<path style="fill:none;stroke:red;stroke-width:1px;stroke-linecap:butt;stroke-linejoin:miter;stroke-opacity:1" d="M 13.2537,923.821 13.2537,942.328 z" id="boundary" inkscape:connector-curvature="0" />
	<path style="fill:none;stroke:red;stroke-width:1px;stroke-linecap:butt;stroke-linejoin:miter;stroke-opacity:1" d="M 13.2537,942.328 22.5075,958.985 z" id="boundary" inkscape:connector-curvature="0" />
	<path style="fill:none;stroke:red;stroke-width:1px;stroke-linecap:butt;stroke-linejoin:miter;stroke-opacity:1" d="M 22.5075,958.985 28.0597,977.493 z" id="boundary" inkscape:connector-curvature="0" />
	<path style="fill:none;stroke:red;stroke-width:1px;stroke-linecap:butt;stroke-linejoin:miter;stroke-opacity:1" d="M 28.0597,846.09 46.5672,846.09 z" id="boundary" inkscape:connector-curvature="0" />
	<path style="fill:none;stroke:red;stroke-width:1px;stroke-linecap:butt;stroke-linejoin:miter;stroke-opacity:1" d="M 28.0597,977.493 46.5672,975.642 z" id="boundary" inkscape:connector-curvature="0" />
	<path style="fill:none;stroke:red;stroke-width:1px;stroke-linecap:butt;stroke-linejoin:miter;stroke-opacity:1" d="M 46.5672,846.09 65.0746,836.836 z" id="boundary" inkscape:connector-curvature="0" />
	<path style="fill:none;stroke:red;stroke-width:1px;stroke-linecap:butt;stroke-linejoin:miter;stroke-opacity:1" d="M 46.5672,975.642 65.0746,968.239 z" id="boundary" inkscape:connector-curvature="0" />
	<path style="fill:none;stroke:red;stroke-width:1px;stroke-linecap:butt;stroke-linejoin:miter;stroke-opacity:1" d="M 65.0746,836.836 74.3284,818.328 z" id="boundary" inkscape:connector-curvature="0" />
	<path style="fill:none;stroke:red;stroke-width:1px;stroke-linecap:butt;stroke-linejoin:miter;stroke-opacity:1" d="M 65.0746,968.239 68.7761,986.746 z" id="boundary" inkscape:connector-curvature="0" />
	<path style="fill:none;stroke:red;stroke-width:1px;stroke-linecap:butt;stroke-linejoin:miter;stroke-opacity:1" d="M 68.7761,986.746 87.2836,986.746 z" id="boundary" inkscape:connector-curvature="0" />
	<path style="fill:none;stroke:red;stroke-width:1px;stroke-linecap:butt;stroke-linejoin:miter;stroke-opacity:1" d="M 74.3284,818.328 89.1343,803.522 z" id="boundary" inkscape:connector-curvature="0" />
	<path style="fill:none;stroke:red;stroke-width:1px;stroke-linecap:butt;stroke-linejoin:miter;stroke-opacity:1" d="M 87.2836,986.746 98.3881,968.239 z" id="boundary" inkscape:connector-curvature="0" />
	<path style="fill:none;stroke:red;stroke-width:1px;stroke-linecap:butt;stroke-linejoin:miter;stroke-opacity:1" d="M 89.1343,803.522 107.642,799.821 z" id="boundary" inkscape:connector-curvature="0" />
	<path style="fill:none;stroke:red;stroke-width:1px;stroke-linecap:butt;stroke-linejoin:miter;stroke-opacity:1" d="M 98.3881,968.239 115.045,977.493 z" id="boundary" inkscape:connector-curvature="0" />
	<path style="fill:none;stroke:red;stroke-width:1px;stroke-linecap:butt;stroke-linejoin:miter;stroke-opacity:1" d="M 107.642,799.821 118.746,783.164 z" id="boundary" inkscape:connector-curvature="0" />
	<path style="fill:none;stroke:red;stroke-width:1px;stroke-linecap:butt;stroke-linejoin:miter;stroke-opacity:1" d="M 115.045,977.493 120.597,996 z" id="boundary" inkscape:connector-curvature="0" />
	<path style="fill:none;stroke:red;stroke-width:1px;stroke-linecap:butt;stroke-linejoin:miter;stroke-opacity:1" d="M 118.746,783.164 137.254,773.91 z" id="boundary" inkscape:connector-curvature="0" />
	<path style="fill:none;stroke:red;stroke-width:1px;stroke-linecap:butt;stroke-linejoin:miter;stroke-opacity:1" d="M 120.597,996 139.104,994.149 z" id="boundary" inkscape:connector-curvature="0" />
	<path style="fill:none;stroke:red;stroke-width:1px;stroke-linecap:butt;stroke-linejoin:miter;stroke-opacity:1" d="M 137.254,773.91 146.507,755.403 z" id="boundary" inkscape:connector-curvature="0" />
	<path style="fill:none;stroke:red;stroke-width:1px;stroke-linecap:butt;stroke-linejoin:miter;stroke-opacity:1" d="M 139.104,994.149 148.358,975.642 z" id="boundary" inkscape:connector-curvature="0" />
	<path style="fill:none;stroke:red;stroke-width:1px;stroke-linecap:butt;stroke-linejoin:miter;stroke-opacity:1" d="M 146.507,755.403 161.313,744.299 z" id="boundary" inkscape:connector-curvature="0" />
	<path style="fill:none;stroke:red;stroke-width:1px;stroke-linecap:butt;stroke-linejoin:miter;stroke-opacity:1" d="M 148.358,975.642 161.313,990.448 z" id="boundary" inkscape:connector-curvature="0" />
	<path style="fill:none;stroke:red;stroke-width:1px;stroke-linecap:butt;stroke-linejoin:miter;stroke-opacity:1" d="M 161.313,744.299 179.821,744.299 z" id="boundary" inkscape:connector-curvature="0" />
	<path style="fill:none;stroke:red;stroke-width:1px;stroke-linecap:butt;stroke-linejoin:miter;stroke-opacity:1" d="M 161.313,990.448 179.821,986.746 z" id="boundary" inkscape:connector-curvature="0" />
	<path style="fill:none;stroke:red;stroke-width:1px;stroke-linecap:butt;stroke-linejoin:miter;stroke-opacity:1" d="M 179.821,744.299 198.328,740.597 z" id="boundary" inkscape:connector-curvature="0" />
	<path style="fill:none;stroke:red;stroke-width:1px;stroke-linecap:butt;stroke-linejoin:miter;stroke-opacity:1" d="M 179.821,986.746 198.328,986.746 z" id="boundary" inkscape:connector-curvature="0" />
	<path style="fill:none;stroke:red;stroke-width:1px;stroke-linecap:butt;stroke-linejoin:miter;stroke-opacity:1" d="M 198.328,740.597 216.836,731.343 z" id="boundary" inkscape:connector-curvature="0" />
	<path style="fill:none;stroke:red;stroke-width:1px;stroke-linecap:butt;stroke-linejoin:miter;stroke-opacity:1" d="M 198.328,986.746 216.836,981.194 z" id="boundary" inkscape:connector-curvature="0" />
	<path style="fill:none;stroke:red;stroke-width:1px;stroke-linecap:butt;stroke-linejoin:miter;stroke-opacity:1" d="M 216.836,731.343 235.343,725.791 z" id="boundary" inkscape:connector-curvature="0" />
	<path style="fill:none;stroke:red;stroke-width:1px;stroke-linecap:butt;stroke-linejoin:miter;stroke-opacity:1" d="M 216.836,981.194 218.687,958.985 z" id="boundary" inkscape:connector-curvature="0" />
	<path style="fill:none;stroke:red;stroke-width:1px;stroke-linecap:butt;stroke-linejoin:miter;stroke-opacity:1" d="M 218.687,958.985 237.194,958.985 z" id="boundary" inkscape:connector-curvature="0" />
	<path style="fill:none;stroke:red;stroke-width:1px;stroke-linecap:butt;stroke-linejoin:miter;stroke-opacity:1" d="M 235.343,725.791 246.448,710.985 z" id="boundary" inkscape:connector-curvature="0" />
	<path style="fill:none;stroke:red;stroke-width:1px;stroke-linecap:butt;stroke-linejoin:miter;stroke-opacity:1" d="M 237.194,958.985 246.448,931.224 z" id="boundary" inkscape:connector-curvature="0" />
	<path style="fill:none;stroke:red;stroke-width:1px;stroke-linecap:butt;stroke-linejoin:miter;stroke-opacity:1" d="M 246.448,710.985 264.955,707.284 z" id="boundary" inkscape:connector-curvature="0" />
	<path style="fill:none;stroke:red;stroke-width:1px;stroke-linecap:butt;stroke-linejoin:miter;stroke-opacity:1" d="M 246.448,931.224 264.955,931.224 z" id="boundary" inkscape:connector-curvature="0" />
	<path style="fill:none;stroke:red;stroke-width:1px;stroke-linecap:butt;stroke-linejoin:miter;stroke-opacity:1" d="M 264.955,707.284 283.463,701.731 z" id="boundary" inkscape:connector-curvature="0" />
	<path style="fill:none;stroke:red;stroke-width:1px;stroke-linecap:butt;stroke-linejoin:miter;stroke-opacity:1" d="M 264.955,931.224 283.463,912.716 z" id="boundary" inkscape:connector-curvature="0" />
	<path style="fill:none;stroke:red;stroke-width:1px;stroke-linecap:butt;stroke-linejoin:miter;stroke-opacity:1" d="M 283.463,701.731 301.97,698.03 z" id="boundary" inkscape:connector-curvature="0" />
	<path style="fill:none;stroke:red;stroke-width:1px;stroke-linecap:butt;stroke-linejoin:miter;stroke-opacity:1" d="M 283.463,894.209 283.463,912.716 z" id="boundary" inkscape:connector-curvature="0" />
	<path style="fill:none;stroke:red;stroke-width:1px;stroke-linecap:butt;stroke-linejoin:miter;stroke-opacity:1" d="M 283.463,894.209 301.97,894.209 z" id="boundary" inkscape:connector-curvature="0" />
	<path style="fill:none;stroke:red;stroke-width:1px;stroke-linecap:butt;stroke-linejoin:miter;stroke-opacity:1" d="M 301.97,698.03 318.627,688.776 z" id="boundary" inkscape:connector-curvature="0" />
	<path style="fill:none;stroke:red;stroke-width:1px;stroke-linecap:butt;stroke-linejoin:miter;stroke-opacity:1" d="M 301.97,894.209 318.627,884.955 z" id="boundary" inkscape:connector-curvature="0" />
	<path style="fill:none;stroke:red;stroke-width:1px;stroke-linecap:butt;stroke-linejoin:miter;stroke-opacity:1" d="M 318.627,688.776 335.284,679.522 z" id="boundary" inkscape:connector-curvature="0" />
	<path style="fill:none;stroke:red;stroke-width:1px;stroke-linecap:butt;stroke-linejoin:miter;stroke-opacity:1" d="M 318.627,884.955 337.134,884.955 z" id="boundary" inkscape:connector-curvature="0" />
	<path style="fill:none;stroke:red;stroke-width:1px;stroke-linecap:butt;stroke-linejoin:miter;stroke-opacity:1" d="M 335.284,679.522 353.791,679.522 z" id="boundary" inkscape:connector-curvature="0" />
	<path style="fill:none;stroke:red;stroke-width:1px;stroke-linecap:butt;stroke-linejoin:miter;stroke-opacity:1" d="M 337.134,629.552 348.239,644.358 z" id="boundary" inkscape:connector-curvature="0" />
	<path style="fill:none;stroke:red;stroke-width:1px;stroke-linecap:butt;stroke-linejoin:miter;stroke-opacity:1" d="M 337.134,629.552 355.642,620.299 z" id="boundary" inkscape:connector-curvature="0" />
	<path style="fill:none;stroke:red;stroke-width:1px;stroke-linecap:butt;stroke-linejoin:miter;stroke-opacity:1" d="M 337.134,884.955 355.642,884.955 z" id="boundary" inkscape:connector-curvature="0" />
	<path style="fill:none;stroke:red;stroke-width:1px;stroke-linecap:butt;stroke-linejoin:miter;stroke-opacity:1" d="M 348.239,644.358 366.746,644.358 z" id="boundary" inkscape:connector-curvature="0" />
	<path style="fill:none;stroke:red;stroke-width:1px;stroke-linecap:butt;stroke-linejoin:miter;stroke-opacity:1" d="M 353.791,679.522 372.299,679.522 z" id="boundary" inkscape:connector-curvature="0" />
	<path style="fill:none;stroke:red;stroke-width:1px;stroke-linecap:butt;stroke-linejoin:miter;stroke-opacity:1" d="M 355.642,620.299 364.896,601.791 z" id="boundary" inkscape:connector-curvature="0" />
	<path style="fill:none;stroke:red;stroke-width:1px;stroke-linecap:butt;stroke-linejoin:miter;stroke-opacity:1" d="M 355.642,884.955 372.299,875.701 z" id="boundary" inkscape:connector-curvature="0" />
	<path style="fill:none;stroke:red;stroke-width:1px;stroke-linecap:butt;stroke-linejoin:miter;stroke-opacity:1" d="M 364.896,601.791 383.403,596.239 z" id="boundary" inkscape:connector-curvature="0" />
	<path style="fill:none;stroke:red;stroke-width:1px;stroke-linecap:butt;stroke-linejoin:miter;stroke-opacity:1" d="M 366.746,644.358 383.403,653.612 z" id="boundary" inkscape:connector-curvature="0" />
	<path style="fill:none;stroke:red;stroke-width:1px;stroke-linecap:butt;stroke-linejoin:miter;stroke-opacity:1" d="M 372.299,679.522 383.403,653.612 z" id="boundary" inkscape:connector-curvature="0" />
	<path style="fill:none;stroke:red;stroke-width:1px;stroke-linecap:butt;stroke-linejoin:miter;stroke-opacity:1" d="M 372.299,875.701 390.806,875.701 z" id="boundary" inkscape:connector-curvature="0" />
	<path style="fill:none;stroke:red;stroke-width:1px;stroke-linecap:butt;stroke-linejoin:miter;stroke-opacity:1" d="M 383.403,596.239 401.91,596.239 z" id="boundary" inkscape:connector-curvature="0" />
	<path style="fill:none;stroke:red;stroke-width:1px;stroke-linecap:butt;stroke-linejoin:miter;stroke-opacity:1" d="M 390.806,875.701 409.313,875.701 z" id="boundary" inkscape:connector-curvature="0" />
	<path style="fill:none;stroke:red;stroke-width:1px;stroke-linecap:butt;stroke-linejoin:miter;stroke-opacity:1" d="M 401.91,596.239 420.418,596.239 z" id="boundary" inkscape:connector-curvature="0" />
	<path style="fill:none;stroke:red;stroke-width:1px;stroke-linecap:butt;stroke-linejoin:miter;stroke-opacity:1" d="M 409.313,875.701 427.821,875.701 z" id="boundary" inkscape:connector-curvature="0" />
	<path style="fill:none;stroke:red;stroke-width:1px;stroke-linecap:butt;stroke-linejoin:miter;stroke-opacity:1" d="M 420.418,596.239 438.925,596.239 z" id="boundary" inkscape:connector-curvature="0" />
	<path style="fill:none;stroke:red;stroke-width:1px;stroke-linecap:butt;stroke-linejoin:miter;stroke-opacity:1" d="M 427.821,875.701 446.328,875.701 z" id="boundary" inkscape:connector-curvature="0" />
	<path style="fill:none;stroke:red;stroke-width:1px;stroke-linecap:butt;stroke-linejoin:miter;stroke-opacity:1" d="M 438.925,596.239 455.582,586.985 z" id="boundary" inkscape:connector-curvature="0" />
	<path style="fill:none;stroke:red;stroke-width:1px;stroke-linecap:butt;stroke-linejoin:miter;stroke-opacity:1" d="M 446.328,875.701 462.985,857.194 z" id="boundary" inkscape:connector-curvature="0" />
	<path style="fill:none;stroke:red;stroke-width:1px;stroke-linecap:butt;stroke-linejoin:miter;stroke-opacity:1" d="M 455.582,586.985 468.537,572.179 z" id="boundary" inkscape:connector-curvature="0" />
	<path style="fill:none;stroke:red;stroke-width:1px;stroke-linecap:butt;stroke-linejoin:miter;stroke-opacity:1" d="M 459.284,838.687 462.985,857.194 z" id="boundary" inkscape:connector-curvature="0" />
	<path style="fill:none;stroke:red;stroke-width:1px;stroke-linecap:butt;stroke-linejoin:miter;stroke-opacity:1" d="M 459.284,838.687 477.791,838.687 z" id="boundary" inkscape:connector-curvature="0" />
	<path style="fill:none;stroke:red;stroke-width:1px;stroke-linecap:butt;stroke-linejoin:miter;stroke-opacity:1" d="M 468.537,572.179 483.343,559.224 z" id="boundary" inkscape:connector-curvature="0" />
	<path style="fill:none;stroke:red;stroke-width:1px;stroke-linecap:butt;stroke-linejoin:miter;stroke-opacity:1" d="M 477.791,838.687 496.299,838.687 z" id="boundary" inkscape:connector-curvature="0" />
	<path style="fill:none;stroke:red;stroke-width:1px;stroke-linecap:butt;stroke-linejoin:miter;stroke-opacity:1" d="M 483.343,559.224 485.194,527.761 z" id="boundary" inkscape:connector-curvature="0" />
	<path style="fill:none;stroke:red;stroke-width:1px;stroke-linecap:butt;stroke-linejoin:miter;stroke-opacity:1" d="M 485.194,527.761 494.448,500 z" id="boundary" inkscape:connector-curvature="0" />
	<path style="fill:none;stroke:red;stroke-width:1px;stroke-linecap:butt;stroke-linejoin:miter;stroke-opacity:1" d="M 494.448,500 512.955,481.493 z" id="boundary" inkscape:connector-curvature="0" />
	<path style="fill:none;stroke:red;stroke-width:1px;stroke-linecap:butt;stroke-linejoin:miter;stroke-opacity:1" d="M 496.299,838.687 514.806,838.687 z" id="boundary" inkscape:connector-curvature="0" />
	<path style="fill:none;stroke:red;stroke-width:1px;stroke-linecap:butt;stroke-linejoin:miter;stroke-opacity:1" d="M 512.955,462.985 512.955,481.493 z" id="boundary" inkscape:connector-curvature="0" />
	<path style="fill:none;stroke:red;stroke-width:1px;stroke-linecap:butt;stroke-linejoin:miter;stroke-opacity:1" d="M 512.955,462.985 522.209,435.224 z" id="boundary" inkscape:connector-curvature="0" />
	<path style="fill:none;stroke:red;stroke-width:1px;stroke-linecap:butt;stroke-linejoin:miter;stroke-opacity:1" d="M 514.806,838.687 533.313,820.179 z" id="boundary" inkscape:connector-curvature="0" />
	<path style="fill:none;stroke:red;stroke-width:1px;stroke-linecap:butt;stroke-linejoin:miter;stroke-opacity:1" d="M 522.209,435.224 531.463,407.463 z" id="boundary" inkscape:connector-curvature="0" />
	<path style="fill:none;stroke:red;stroke-width:1px;stroke-linecap:butt;stroke-linejoin:miter;stroke-opacity:1" d="M 531.463,370.448 531.463,388.955 z" id="boundary" inkscape:connector-curvature="0" />
	<path style="fill:none;stroke:red;stroke-width:1px;stroke-linecap:butt;stroke-linejoin:miter;stroke-opacity:1" d="M 531.463,370.448 540.716,351.94 z" id="boundary" inkscape:connector-curvature="0" />
	<path style="fill:none;stroke:red;stroke-width:1px;stroke-linecap:butt;stroke-linejoin:miter;stroke-opacity:1" d="M 531.463,388.955 531.463,407.463 z" id="boundary" inkscape:connector-curvature="0" />
	<path style="fill:none;stroke:red;stroke-width:1px;stroke-linecap:butt;stroke-linejoin:miter;stroke-opacity:1" d="M 533.313,820.179 549.97,810.925 z" id="boundary" inkscape:connector-curvature="0" />
	<path style="fill:none;stroke:red;stroke-width:1px;stroke-linecap:butt;stroke-linejoin:miter;stroke-opacity:1" d="M 540.716,351.94 549.97,333.433 z" id="boundary" inkscape:connector-curvature="0" />
	<path style="fill:none;stroke:red;stroke-width:1px;stroke-linecap:butt;stroke-linejoin:miter;stroke-opacity:1" d="M 549.97,333.433 559.224,314.925 z" id="boundary" inkscape:connector-curvature="0" />
	<path style="fill:none;stroke:red;stroke-width:1px;stroke-linecap:butt;stroke-linejoin:miter;stroke-opacity:1" d="M 549.97,810.925 566.627,801.672 z" id="boundary" inkscape:connector-curvature="0" />
	<path style="fill:none;stroke:red;stroke-width:1px;stroke-linecap:butt;stroke-linejoin:miter;stroke-opacity:1" d="M 559.224,314.925 574.03,300.119 z" id="boundary" inkscape:connector-curvature="0" />
	<path style="fill:none;stroke:red;stroke-width:1px;stroke-linecap:butt;stroke-linejoin:miter;stroke-opacity:1" d="M 566.627,801.672 585.134,801.672 z" id="boundary" inkscape:connector-curvature="0" />
	<path style="fill:none;stroke:red;stroke-width:1px;stroke-linecap:butt;stroke-linejoin:miter;stroke-opacity:1" d="M 574.03,300.119 592.537,290.866 z" id="boundary" inkscape:connector-curvature="0" />
	<path style="fill:none;stroke:red;stroke-width:1px;stroke-linecap:butt;stroke-linejoin:miter;stroke-opacity:1" d="M 585.134,801.672 601.791,810.925 z" id="boundary" inkscape:connector-curvature="0" />
	<path style="fill:none;stroke:red;stroke-width:1px;stroke-linecap:butt;stroke-linejoin:miter;stroke-opacity:1" d="M 592.537,290.866 596.239,268.657 z" id="boundary" inkscape:connector-curvature="0" />
	<path style="fill:none;stroke:red;stroke-width:1px;stroke-linecap:butt;stroke-linejoin:miter;stroke-opacity:1" d="M 596.239,268.657 605.493,250.149 z" id="boundary" inkscape:connector-curvature="0" />
	<path style="fill:none;stroke:red;stroke-width:1px;stroke-linecap:butt;stroke-linejoin:miter;stroke-opacity:1" d="M 601.791,810.925 614.746,825.731 z" id="boundary" inkscape:connector-curvature="0" />
	<path style="fill:none;stroke:red;stroke-width:1px;stroke-linecap:butt;stroke-linejoin:miter;stroke-opacity:1" d="M 605.493,250.149 614.746,231.642 z" id="boundary" inkscape:connector-curvature="0" />
	<path style="fill:none;stroke:red;stroke-width:1px;stroke-linecap:butt;stroke-linejoin:miter;stroke-opacity:1" d="M 614.746,231.642 629.552,216.836 z" id="boundary" inkscape:connector-curvature="0" />
	<path style="fill:none;stroke:red;stroke-width:1px;stroke-linecap:butt;stroke-linejoin:miter;stroke-opacity:1" d="M 614.746,825.731 616.597,844.239 z" id="boundary" inkscape:connector-curvature="0" />
	<path style="fill:none;stroke:red;stroke-width:1px;stroke-linecap:butt;stroke-linejoin:miter;stroke-opacity:1" d="M 616.597,844.239 631.403,857.194 z" id="boundary" inkscape:connector-curvature="0" />
	<path style="fill:none;stroke:red;stroke-width:1px;stroke-linecap:butt;stroke-linejoin:miter;stroke-opacity:1" d="M 629.552,216.836 633.254,194.627 z" id="boundary" inkscape:connector-curvature="0" />
	<path style="fill:none;stroke:red;stroke-width:1px;stroke-linecap:butt;stroke-linejoin:miter;stroke-opacity:1" d="M 631.403,857.194 648.06,866.448 z" id="boundary" inkscape:connector-curvature="0" />
	<path style="fill:none;stroke:red;stroke-width:1px;stroke-linecap:butt;stroke-linejoin:miter;stroke-opacity:1" d="M 633.254,194.627 651.761,185.373 z" id="boundary" inkscape:connector-curvature="0" />
	<path style="fill:none;stroke:red;stroke-width:1px;stroke-linecap:butt;stroke-linejoin:miter;stroke-opacity:1" d="M 648.06,866.448 666.567,866.448 z" id="boundary" inkscape:connector-curvature="0" />
	<path style="fill:none;stroke:red;stroke-width:1px;stroke-linecap:butt;stroke-linejoin:miter;stroke-opacity:1" d="M 651.761,185.373 670.269,166.866 z" id="boundary" inkscape:connector-curvature="0" />
	<path style="fill:none;stroke:red;stroke-width:1px;stroke-linecap:butt;stroke-linejoin:miter;stroke-opacity:1" d="M 666.567,866.448 683.224,875.701 z" id="boundary" inkscape:connector-curvature="0" />
	<path style="fill:none;stroke:red;stroke-width:1px;stroke-linecap:butt;stroke-linejoin:miter;stroke-opacity:1" d="M 670.269,148.358 670.269,166.866 z" id="boundary" inkscape:connector-curvature="0" />
	<path style="fill:none;stroke:red;stroke-width:1px;stroke-linecap:butt;stroke-linejoin:miter;stroke-opacity:1" d="M 670.269,148.358 679.522,129.851 z" id="boundary" inkscape:connector-curvature="0" />
	<path style="fill:none;stroke:red;stroke-width:1px;stroke-linecap:butt;stroke-linejoin:miter;stroke-opacity:1" d="M 672.119,699.881 672.119,718.388 z" id="boundary" inkscape:connector-curvature="0" />
	<path style="fill:none;stroke:red;stroke-width:1px;stroke-linecap:butt;stroke-linejoin:miter;stroke-opacity:1" d="M 672.119,699.881 681.373,681.373 z" id="boundary" inkscape:connector-curvature="0" />
	<path style="fill:none;stroke:red;stroke-width:1px;stroke-linecap:butt;stroke-linejoin:miter;stroke-opacity:1" d="M 672.119,718.388 672.119,736.896 z" id="boundary" inkscape:connector-curvature="0" />
	<path style="fill:none;stroke:red;stroke-width:1px;stroke-linecap:butt;stroke-linejoin:miter;stroke-opacity:1" d="M 672.119,736.896 690.627,744.299 z" id="boundary" inkscape:connector-curvature="0" />
	<path style="fill:none;stroke:red;stroke-width:1px;stroke-linecap:butt;stroke-linejoin:miter;stroke-opacity:1" d="M 679.522,129.851 694.328,115.045 z" id="boundary" inkscape:connector-curvature="0" />
	<path style="fill:none;stroke:red;stroke-width:1px;stroke-linecap:butt;stroke-linejoin:miter;stroke-opacity:1" d="M 681.373,662.866 681.373,681.373 z" id="boundary" inkscape:connector-curvature="0" />
	<path style="fill:none;stroke:red;stroke-width:1px;stroke-linecap:butt;stroke-linejoin:miter;stroke-opacity:1" d="M 681.373,662.866 699.881,662.866 z" id="boundary" inkscape:connector-curvature="0" />
	<path style="fill:none;stroke:red;stroke-width:1px;stroke-linecap:butt;stroke-linejoin:miter;stroke-opacity:1" d="M 683.224,875.701 698.03,886.806 z" id="boundary" inkscape:connector-curvature="0" />
	<path style="fill:none;stroke:red;stroke-width:1px;stroke-linecap:butt;stroke-linejoin:miter;stroke-opacity:1" d="M 690.627,744.299 709.134,749.851 z" id="boundary" inkscape:connector-curvature="0" />
	<path style="fill:none;stroke:red;stroke-width:1px;stroke-linecap:butt;stroke-linejoin:miter;stroke-opacity:1" d="M 694.328,115.045 707.284,92.8358 z" id="boundary" inkscape:connector-curvature="0" />
	<path style="fill:none;stroke:red;stroke-width:1px;stroke-linecap:butt;stroke-linejoin:miter;stroke-opacity:1" d="M 698.03,886.806 710.985,901.612 z" id="boundary" inkscape:connector-curvature="0" />
	<path style="fill:none;stroke:red;stroke-width:1px;stroke-linecap:butt;stroke-linejoin:miter;stroke-opacity:1" d="M 699.881,662.866 714.687,649.91 z" id="boundary" inkscape:connector-curvature="0" />
	<path style="fill:none;stroke:red;stroke-width:1px;stroke-linecap:butt;stroke-linejoin:miter;stroke-opacity:1" d="M 707.284,92.8358 727.642,89.1343 z" id="boundary" inkscape:connector-curvature="0" />
	<path style="fill:none;stroke:red;stroke-width:1px;stroke-linecap:butt;stroke-linejoin:miter;stroke-opacity:1" d="M 709.134,749.851 725.791,759.104 z" id="boundary" inkscape:connector-curvature="0" />
	<path style="fill:none;stroke:red;stroke-width:1px;stroke-linecap:butt;stroke-linejoin:miter;stroke-opacity:1" d="M 710.985,901.612 729.493,909.015 z" id="boundary" inkscape:connector-curvature="0" />
	<path style="fill:none;stroke:red;stroke-width:1px;stroke-linecap:butt;stroke-linejoin:miter;stroke-opacity:1" d="M 714.687,649.91 727.642,635.104 z" id="boundary" inkscape:connector-curvature="0" />
	<path style="fill:none;stroke:red;stroke-width:1px;stroke-linecap:butt;stroke-linejoin:miter;stroke-opacity:1" d="M 725.791,759.104 740.597,772.06 z" id="boundary" inkscape:connector-curvature="0" />
	<path style="fill:none;stroke:red;stroke-width:1px;stroke-linecap:butt;stroke-linejoin:miter;stroke-opacity:1" d="M 727.642,89.1343 805.373,31.7612 z" id="boundary" inkscape:connector-curvature="0" />
	<path style="fill:none;stroke:red;stroke-width:1px;stroke-linecap:butt;stroke-linejoin:miter;stroke-opacity:1" d="M 727.642,598.09 727.642,616.597 z" id="boundary" inkscape:connector-curvature="0" />
	<path style="fill:none;stroke:red;stroke-width:1px;stroke-linecap:butt;stroke-linejoin:miter;stroke-opacity:1" d="M 727.642,598.09 746.149,579.582 z" id="boundary" inkscape:connector-curvature="0" />
	<path style="fill:none;stroke:red;stroke-width:1px;stroke-linecap:butt;stroke-linejoin:miter;stroke-opacity:1" d="M 727.642,616.597 727.642,635.104 z" id="boundary" inkscape:connector-curvature="0" />
	<path style="fill:none;stroke:red;stroke-width:1px;stroke-linecap:butt;stroke-linejoin:miter;stroke-opacity:1" d="M 729.493,909.015 748,912.716 z" id="boundary" inkscape:connector-curvature="0" />
	<path style="fill:none;stroke:red;stroke-width:1px;stroke-linecap:butt;stroke-linejoin:miter;stroke-opacity:1" d="M 740.597,772.06 757.254,781.313 z" id="boundary" inkscape:connector-curvature="0" />
	<path style="fill:none;stroke:red;stroke-width:1px;stroke-linecap:butt;stroke-linejoin:miter;stroke-opacity:1" d="M 746.149,579.582 759.104,561.075 z" id="boundary" inkscape:connector-curvature="0" />
	<path style="fill:none;stroke:red;stroke-width:1px;stroke-linecap:butt;stroke-linejoin:miter;stroke-opacity:1" d="M 748,912.716 762.806,897.91 z" id="boundary" inkscape:connector-curvature="0" />
	<path style="fill:none;stroke:red;stroke-width:1px;stroke-linecap:butt;stroke-linejoin:miter;stroke-opacity:1" d="M 755.403,542.567 759.104,561.075 z" id="boundary" inkscape:connector-curvature="0" />
	<path style="fill:none;stroke:red;stroke-width:1px;stroke-linecap:butt;stroke-linejoin:miter;stroke-opacity:1" d="M 755.403,542.567 770.209,529.612 z" id="boundary" inkscape:connector-curvature="0" />
	<path style="fill:none;stroke:red;stroke-width:1px;stroke-linecap:butt;stroke-linejoin:miter;stroke-opacity:1" d="M 757.254,781.313 773.91,790.567 z" id="boundary" inkscape:connector-curvature="0" />
	<path style="fill:none;stroke:red;stroke-width:1px;stroke-linecap:butt;stroke-linejoin:miter;stroke-opacity:1" d="M 762.806,897.91 781.313,888.657 z" id="boundary" inkscape:connector-curvature="0" />
	<path style="fill:none;stroke:red;stroke-width:1px;stroke-linecap:butt;stroke-linejoin:miter;stroke-opacity:1" d="M 770.209,529.612 773.91,496.299 z" id="boundary" inkscape:connector-curvature="0" />
	<path style="fill:none;stroke:red;stroke-width:1px;stroke-linecap:butt;stroke-linejoin:miter;stroke-opacity:1" d="M 773.91,422.269 777.612,440.776 z" id="boundary" inkscape:connector-curvature="0" />
	<path style="fill:none;stroke:red;stroke-width:1px;stroke-linecap:butt;stroke-linejoin:miter;stroke-opacity:1" d="M 773.91,422.269 783.164,403.761 z" id="boundary" inkscape:connector-curvature="0" />
	<path style="fill:none;stroke:red;stroke-width:1px;stroke-linecap:butt;stroke-linejoin:miter;stroke-opacity:1" d="M 773.91,496.299 783.164,477.791 z" id="boundary" inkscape:connector-curvature="0" />
	<path style="fill:none;stroke:red;stroke-width:1px;stroke-linecap:butt;stroke-linejoin:miter;stroke-opacity:1" d="M 773.91,790.567 790.567,799.821 z" id="boundary" inkscape:connector-curvature="0" />
	<path style="fill:none;stroke:red;stroke-width:1px;stroke-linecap:butt;stroke-linejoin:miter;stroke-opacity:1" d="M 777.612,440.776 783.164,459.284 z" id="boundary" inkscape:connector-curvature="0" />
	<path style="fill:none;stroke:red;stroke-width:1px;stroke-linecap:butt;stroke-linejoin:miter;stroke-opacity:1" d="M 781.313,888.657 783.164,866.448 z" id="boundary" inkscape:connector-curvature="0" />
	<path style="fill:none;stroke:red;stroke-width:1px;stroke-linecap:butt;stroke-linejoin:miter;stroke-opacity:1" d="M 783.164,320.478 786.866,338.985 z" id="boundary" inkscape:connector-curvature="0" />
	<path style="fill:none;stroke:red;stroke-width:1px;stroke-linecap:butt;stroke-linejoin:miter;stroke-opacity:1" d="M 783.164,320.478 801.672,311.224 z" id="boundary" inkscape:connector-curvature="0" />
	<path style="fill:none;stroke:red;stroke-width:1px;stroke-linecap:butt;stroke-linejoin:miter;stroke-opacity:1" d="M 783.164,366.746 783.164,385.254 z" id="boundary" inkscape:connector-curvature="0" />
	<path style="fill:none;stroke:red;stroke-width:1px;stroke-linecap:butt;stroke-linejoin:miter;stroke-opacity:1" d="M 783.164,366.746 786.866,338.985 z" id="boundary" inkscape:connector-curvature="0" />
	<path style="fill:none;stroke:red;stroke-width:1px;stroke-linecap:butt;stroke-linejoin:miter;stroke-opacity:1" d="M 783.164,385.254 783.164,403.761 z" id="boundary" inkscape:connector-curvature="0" />
	<path style="fill:none;stroke:red;stroke-width:1px;stroke-linecap:butt;stroke-linejoin:miter;stroke-opacity:1" d="M 783.164,459.284 783.164,477.791 z" id="boundary" inkscape:connector-curvature="0" />
	<path style="fill:none;stroke:red;stroke-width:1px;stroke-linecap:butt;stroke-linejoin:miter;stroke-opacity:1" d="M 783.164,866.448 801.672,851.642 z" id="boundary" inkscape:connector-curvature="0" />
	<path style="fill:none;stroke:red;stroke-width:1px;stroke-linecap:butt;stroke-linejoin:miter;stroke-opacity:1" d="M 790.567,799.821 801.672,814.627 z" id="boundary" inkscape:connector-curvature="0" />
	<path style="fill:none;stroke:red;stroke-width:1px;stroke-linecap:butt;stroke-linejoin:miter;stroke-opacity:1" d="M 801.672,311.224 820.179,311.224 z" id="boundary" inkscape:connector-curvature="0" />
	<path style="fill:none;stroke:red;stroke-width:1px;stroke-linecap:butt;stroke-linejoin:miter;stroke-opacity:1" d="M 801.672,814.627 801.672,833.134 z" id="boundary" inkscape:connector-curvature="0" />
	<path style="fill:none;stroke:red;stroke-width:1px;stroke-linecap:butt;stroke-linejoin:miter;stroke-opacity:1" d="M 801.672,833.134 801.672,851.642 z" id="boundary" inkscape:connector-curvature="0" />
	<path style="fill:none;stroke:red;stroke-width:1px;stroke-linecap:butt;stroke-linejoin:miter;stroke-opacity:1" d="M 805.373,31.7612 829.433,42.8657 z" id="boundary" inkscape:connector-curvature="0" />
	<path style="fill:none;stroke:red;stroke-width:1px;stroke-linecap:butt;stroke-linejoin:miter;stroke-opacity:1" d="M 820.179,311.224 838.687,311.224 z" id="boundary" inkscape:connector-curvature="0" />
	<path style="fill:none;stroke:red;stroke-width:1px;stroke-linecap:butt;stroke-linejoin:miter;stroke-opacity:1" d="M 829.433,42.8657 890.507,96.5373 z" id="boundary" inkscape:connector-curvature="0" />
	<path style="fill:none;stroke:red;stroke-width:1px;stroke-linecap:butt;stroke-linejoin:miter;stroke-opacity:1" d="M 838.687,311.224 847.94,264.955 z" id="boundary" inkscape:connector-curvature="0" />
	<path style="fill:none;stroke:red;stroke-width:1px;stroke-linecap:butt;stroke-linejoin:miter;stroke-opacity:1" d="M 847.94,218.687 847.94,264.955 z" id="boundary" inkscape:connector-curvature="0" />
	<path style="fill:none;stroke:red;stroke-width:1px;stroke-linecap:butt;stroke-linejoin:miter;stroke-opacity:1" d="M 847.94,218.687 864.597,179.821 z" id="boundary" inkscape:connector-curvature="0" />
	<path style="fill:none;stroke:red;stroke-width:1px;stroke-linecap:butt;stroke-linejoin:miter;stroke-opacity:1" d="M 864.597,179.821 890.507,96.5373 z" id="boundary" inkscape:connector-curvature="0" />
	<circle cx="4" cy="907.164" r="4" fill="#0" id="circle0"/>
	<circle cx="13.2537" cy="860.896" r="4" fill="#0" id="circle1"/>
	<circle cx="13.2537" cy="879.403" r="4" fill="#0" id="circle2"/>
	<circle cx="13.2537" cy="923.821" r="4" fill="#0" id="circle3"/>
	<circle cx="13.2537" cy="942.328" r="4" fill="#0" id="circle4"/>
	<circle cx="22.5075" cy="958.985" r="4" fill="#0" id="circle5"/>
	<circle cx="28.0597" cy="846.09" r="4" fill="#0" id="circle6"/>
	<circle cx="28.0597" cy="977.493" r="4" fill="#0" id="circle7"/>
	<circle cx="46.5672" cy="846.09" r="4" fill="#0" id="circle8"/>
	<circle cx="46.5672" cy="975.642" r="4" fill="#0" id="circle9"/>
	<circle cx="65.0746" cy="836.836" r="4" fill="#0" id="circle10"/>
	<circle cx="65.0746" cy="968.239" r="4" fill="#0" id="circle11"/>
	<circle cx="68.7761" cy="986.746" r="4" fill="#0" id="circle12"/>
	<circle cx="74.3284" cy="818.328" r="4" fill="#0" id="circle13"/>
	<circle cx="87.2836" cy="986.746" r="4" fill="#0" id="circle14"/>
	<circle cx="89.1343" cy="803.522" r="4" fill="#0" id="circle15"/>
	<circle cx="98.3881" cy="968.239" r="4" fill="#0" id="circle16"/>
	<circle cx="107.642" cy="799.821" r="4" fill="#0" id="circle17"/>
	<circle cx="115.045" cy="977.493" r="4" fill="#0" id="circle18"/>
	<circle cx="118.746" cy="783.164" r="4" fill="#0" id="circle19"/>
	<circle cx="120.597" cy="996" r="4" fill="#0" id="circle20"/>
	<circle cx="137.254" cy="773.91" r="4" fill="#0" id="circle21"/>
	<circle cx="139.104" cy="994.149" r="4" fill="#0" id="circle22"/>
	<circle cx="146.507" cy="755.403" r="4" fill="#0" id="circle23"/>
	<circle cx="148.358" cy="975.642" r="4" fill="#0" id="circle24"/>
	<circle cx="161.313" cy="744.299" r="4" fill="#0" id="circle25"/>
	<circle cx="161.313" cy="990.448" r="4" fill="#0" id="circle26"/>
	<circle cx="179.821" cy="744.299" r="4" fill="#0" id="circle27"/>
	<circle cx="179.821" cy="986.746" r="4" fill="#0" id="circle28"/>
	<circle cx="198.328" cy="740.597" r="4" fill="#0" id="circle29"/>
	<circle cx="198.328" cy="986.746" r="4" fill="#0" id="circle30"/>
	<circle cx="216.836" cy="731.343" r="4" fill="#0" id="circle31"/>
	<circle cx="216.836" cy="981.194" r="4" fill="#0" id="circle32"/>
	<circle cx="218.687" cy="958.985" r="4" fill="#0" id="circle33"/>
	<circle cx="235.343" cy="725.791" r="4" fill="#0" id="circle34"/>
	<circle cx="237.194" cy="958.985" r="4" fill="#0" id="circle35"/>
	<circle cx="246.448" cy="710.985" r="4" fill="#0" id="circle36"/>
	<circle cx="246.448" cy="931.224" r="4" fill="#0" id="circle37"/>
	<circle cx="264.955" cy="707.284" r="4" fill="#0" id="circle38"/>
	<circle cx="264.955" cy="931.224" r="4" fill="#0" id="circle39"/>
	<circle cx="283.463" cy="701.731" r="4" fill="#0" id="circle40"/>
	<circle cx="283.463" cy="894.209" r="4" fill="#0" id="circle41"/>
	<circle cx="283.463" cy="912.716" r="4" fill="#0" id="circle42"/>
	<circle cx="301.97" cy="698.03" r="4" fill="#0" id="circle43"/>
	<circle cx="301.97" cy="894.209" r="4" fill="#0" id="circle44"/>
	<circle cx="318.627" cy="688.776" r="4" fill="#0" id="circle45"/>
	<circle cx="318.627" cy="884.955" r="4" fill="#0" id="circle46"/>
	<circle cx="335.284" cy="679.522" r="4" fill="#0" id="circle47"/>
	<circle cx="337.134" cy="629.552" r="4" fill="#0" id="circle48"/>
	<circle cx="337.134" cy="884.955" r="4" fill="#0" id="circle49"/>
	<circle cx="348.239" cy="644.358" r="4" fill="#0" id="circle50"/>
	<circle cx="353.791" cy="679.522" r="4" fill="#0" id="circle51"/>
	<circle cx="355.642" cy="620.299" r="4" fill="#0" id="circle52"/>
	<circle cx="355.642" cy="884.955" r="4" fill="#0" id="circle53"/>
	<circle cx="364.896" cy="601.791" r="4" fill="#0" id="circle54"/>
	<circle cx="366.746" cy="644.358" r="4" fill="#0" id="circle55"/>
	<circle cx="372.299" cy="679.522" r="4" fill="#0" id="circle56"/>
	<circle cx="372.299" cy="875.701" r="4" fill="#0" id="circle57"/>
	<circle cx="383.403" cy="596.239" r="4" fill="#0" id="circle58"/>
	<circle cx="383.403" cy="653.612" r="4" fill="#0" id="circle59"/>
	<circle cx="390.806" cy="875.701" r="4" fill="#0" id="circle60"/>
	<circle cx="401.91" cy="596.239" r="4" fill="#0" id="circle61"/>
	<circle cx="409.313" cy="875.701" r="4" fill="#0" id="circle62"/>
	<circle cx="420.418" cy="596.239" r="4" fill="#0" id="circle63"/>
	<circle cx="427.821" cy="875.701" r="4" fill="#0" id="circle64"/>
	<circle cx="438.925" cy="596.239" r="4" fill="#0" id="circle65"/>
	<circle cx="446.328" cy="875.701" r="4" fill="#0" id="circle66"/>
	<circle cx="455.582" cy="586.985" r="4" fill="#0" id="circle67"/>
	<circle cx="459.284" cy="838.687" r="4" fill="#0" id="circle68"/>
	<circle cx="462.985" cy="857.194" r="4" fill="#0" id="circle69"/>
	<circle cx="468.537" cy="572.179" r="4" fill="#0" id="circle70"/>
	<circle cx="477.791" cy="838.687" r="4" fill="#0" id="circle71"/>
	<circle cx="483.343" cy="559.224" r="4" fill="#0" id="circle72"/>
	<circle cx="485.194" cy="527.761" r="4" fill="#0" id="circle73"/>
	<circle cx="494.448" cy="500" r="4" fill="#0" id="circle74"/>
	<circle cx="496.299" cy="838.687" r="4" fill="#0" id="circle75"/>
	<circle cx="512.955" cy="462.985" r="4" fill="#0" id="circle76"/>
	<circle cx="512.955" cy="481.493" r="4" fill="#0" id="circle77"/>
	<circle cx="514.806" cy="838.687" r="4" fill="#0" id="circle78"/>
	<circle cx="522.209" cy="435.224" r="4" fill="#0" id="circle79"/>
	<circle cx="531.463" cy="370.448" r="4" fill="#0" id="circle80"/>
	<circle cx="531.463" cy="388.955" r="4" fill="#0" id="circle81"/>
	<circle cx="531.463" cy="407.463" r="4" fill="#0" id="circle82"/>
	<circle cx="533.313" cy="820.179" r="4" fill="#0" id="circle83"/>
	<circle cx="540.716" cy="351.94" r="4" fill="#0" id="circle84"/>
	<circle cx="549.97" cy="333.433" r="4" fill="#0" id="circle85"/>
	<circle cx="549.97" cy="810.925" r="4" fill="#0" id="circle86"/>
	<circle cx="559.224" cy="314.925" r="4" fill="#0" id="circle87"/>
	<circle cx="566.627" cy="801.672" r="4" fill="#0" id="circle88"/>
	<circle cx="574.03" cy="300.119" r="4" fill="#0" id="circle89"/>
	<circle cx="585.134" cy="801.672" r="4" fill="#0" id="circle90"/>
	<circle cx="592.537" cy="290.866" r="4" fill="#0" id="circle91"/>
	<circle cx="596.239" cy="268.657" r="4" fill="#0" id="circle92"/>
	<circle cx="601.791" cy="810.925" r="4" fill="#0" id="circle93"/>
	<circle cx="605.493" cy="250.149" r="4" fill="#0" id="circle94"/>
	<circle cx="614.746" cy="231.642" r="4" fill="#0" id="circle95"/>
	<circle cx="614.746" cy="825.731" r="4" fill="#0" id="circle96"/>
	<circle cx="616.597" cy="844.239" r="4" fill="#0" id="circle97"/>
	<circle cx="629.552" cy="216.836" r="4" fill="#0" id="circle98"/>
	<circle cx="631.403" cy="857.194" r="4" fill="#0" id="circle99"/>
	<circle cx="633.254" cy="194.627" r="4" fill="#0" id="circle100"/>
	<circle cx="648.06" cy="866.448" r="4" fill="#0" id="circle101"/>
	<circle cx="651.761" cy="185.373" r="4" fill="#0" id="circle102"/>
	<circle cx="666.567" cy="866.448" r="4" fill="#0" id="circle103"/>
	<circle cx="670.269" cy="148.358" r="4" fill="#0" id="circle104"/>
	<circle cx="670.269" cy="166.866" r="4" fill="#0" id="circle105"/>
	<circle cx="672.119" cy="699.881" r="4" fill="#0" id="circle106"/>
	<circle cx="672.119" cy="718.388" r="4" fill="#0" id="circle107"/>
	<circle cx="672.119" cy="736.896" r="4" fill="#0" id="circle108"/>
	<circle cx="679.522" cy="129.851" r="4" fill="#0" id="circle109"/>
	<circle cx="681.373" cy="662.866" r="4" fill="#0" id="circle110"/>
	<circle cx="681.373" cy="681.373" r="4" fill="#0" id="circle111"/>
	<circle cx="683.224" cy="875.701" r="4" fill="#0" id="circle112"/>
	<circle cx="690.627" cy="744.299" r="4" fill="#0" id="circle113"/>
	<circle cx="694.328" cy="115.045" r="4" fill="#0" id="circle114"/>
	<circle cx="698.03" cy="886.806" r="4" fill="#0" id="circle115"/>
	<circle cx="699.881" cy="662.866" r="4" fill="#0" id="circle116"/>
	<circle cx="707.284" cy="92.8358" r="4" fill="#0" id="circle117"/>
	<circle cx="709.134" cy="749.851" r="4" fill="#0" id="circle118"/>
	<circle cx="710.985" cy="901.612" r="4" fill="#0" id="circle119"/>
	<circle cx="714.687" cy="649.91" r="4" fill="#0" id="circle120"/>
	<circle cx="716.537" cy="74.3284" r="4" fill="#0" id="circle121"/>
	<circle cx="725.791" cy="759.104" r="4" fill="#0" id="circle122"/>
	<circle cx="727.642" cy="89.1343" r="4" fill="#0" id="circle123"/>
	<circle cx="727.642" cy="598.09" r="4" fill="#0" id="circle124"/>
	<circle cx="727.642" cy="616.597" r="4" fill="#0" id="circle125"/>
	<circle cx="727.642" cy="635.104" r="4" fill="#0" id="circle126"/>
	<circle cx="729.493" cy="909.015" r="4" fill="#0" id="circle127"/>
	<circle cx="735.045" cy="68.7761" r="4" fill="#0" id="circle128"/>
	<circle cx="740.597" cy="772.06" r="4" fill="#0" id="circle129"/>
	<circle cx="746.149" cy="83.5821" r="4" fill="#0" id="circle130"/>
	<circle cx="746.149" cy="579.582" r="4" fill="#0" id="circle131"/>
	<circle cx="748" cy="912.716" r="4" fill="#0" id="circle132"/>
	<circle cx="755.403" cy="542.567" r="4" fill="#0" id="circle133"/>
	<circle cx="757.254" cy="781.313" r="4" fill="#0" id="circle134"/>
	<circle cx="759.104" cy="561.075" r="4" fill="#0" id="circle135"/>
	<circle cx="760.955" cy="96.5373" r="4" fill="#0" id="circle136"/>
	<circle cx="762.806" cy="897.91" r="4" fill="#0" id="circle137"/>
	<circle cx="770.209" cy="529.612" r="4" fill="#0" id="circle138"/>
	<circle cx="773.91" cy="81.7313" r="4" fill="#0" id="circle139"/>
	<circle cx="773.91" cy="422.269" r="4" fill="#0" id="circle140"/>
	<circle cx="773.91" cy="496.299" r="4" fill="#0" id="circle141"/>
	<circle cx="773.91" cy="790.567" r="4" fill="#0" id="circle142"/>
	<circle cx="777.612" cy="440.776" r="4" fill="#0" id="circle143"/>
	<circle cx="781.313" cy="888.657" r="4" fill="#0" id="circle144"/>
	<circle cx="783.164" cy="320.478" r="4" fill="#0" id="circle145"/>
	<circle cx="783.164" cy="366.746" r="4" fill="#0" id="circle146"/>
	<circle cx="783.164" cy="385.254" r="4" fill="#0" id="circle147"/>
	<circle cx="783.164" cy="403.761" r="4" fill="#0" id="circle148"/>
	<circle cx="783.164" cy="459.284" r="4" fill="#0" id="circle149"/>
	<circle cx="783.164" cy="477.791" r="4" fill="#0" id="circle150"/>
	<circle cx="783.164" cy="866.448" r="4" fill="#0" id="circle151"/>
	<circle cx="786.866" cy="338.985" r="4" fill="#0" id="circle152"/>
	<circle cx="788.716" cy="68.7761" r="4" fill="#0" id="circle153"/>
	<circle cx="790.567" cy="46.5672" r="4" fill="#0" id="circle154"/>
	<circle cx="790.567" cy="799.821" r="4" fill="#0" id="circle155"/>
	<circle cx="801.672" cy="311.224" r="4" fill="#0" id="circle156"/>
	<circle cx="801.672" cy="814.627" r="4" fill="#0" id="circle157"/>
	<circle cx="801.672" cy="833.134" r="4" fill="#0" id="circle158"/>
	<circle cx="801.672" cy="851.642" r="4" fill="#0" id="circle159"/>
	<circle cx="805.373" cy="31.7612" r="4" fill="#0" id="circle160"/>
	<circle cx="810.925" cy="52.1194" r="4" fill="#0" id="circle161"/>
	<circle cx="814.627" cy="13.2537" r="4" fill="#0" id="circle162"/>
	<circle cx="820.179" cy="68.7761" r="4" fill="#0" id="circle163"/>
	<circle cx="820.179" cy="311.224" r="4" fill="#0" id="circle164"/>
	<circle cx="829.433" cy="42.8657" r="4" fill="#0" id="circle165"/>
	<circle cx="829.433" cy="181.672" r="4" fill="#0" id="circle166"/>
	<circle cx="833.134" cy="4" r="4" fill="#0" id="circle167"/>
	<circle cx="838.687" cy="24.3582" r="4" fill="#0" id="circle168"/>
	<circle cx="838.687" cy="68.7761" r="4" fill="#0" id="circle169"/>
	<circle cx="838.687" cy="107.642" r="4" fill="#0" id="circle170"/>
	<circle cx="838.687" cy="163.164" r="4" fill="#0" id="circle171"/>
	<circle cx="838.687" cy="311.224" r="4" fill="#0" id="circle172"/>
	<circle cx="847.94" cy="85.4328" r="4" fill="#0" id="circle173"/>
	<circle cx="847.94" cy="144.657" r="4" fill="#0" id="circle174"/>
	<circle cx="847.94" cy="189.075" r="4" fill="#0" id="circle175"/>
	<circle cx="847.94" cy="218.687" r="4" fill="#0" id="circle176"/>
	<circle cx="847.94" cy="246.448" r="4" fill="#0" id="circle177"/>
	<circle cx="847.94" cy="264.955" r="4" fill="#0" id="circle178"/>
	<circle cx="847.94" cy="283.463" r="4" fill="#0" id="circle179"/>
	<circle cx="849.791" cy="52.1194" r="4" fill="#0" id="circle180"/>
	<circle cx="857.194" cy="115.045" r="4" fill="#0" id="circle181"/>
	<circle cx="859.045" cy="70.6269" r="4" fill="#0" id="circle182"/>
	<circle cx="862.746" cy="133.552" r="4" fill="#0" id="circle183"/>
	<circle cx="862.746" cy="205.731" r="4" fill="#0" id="circle184"/>
	<circle cx="862.746" cy="229.791" r="4" fill="#0" id="circle185"/>
	<circle cx="864.597" cy="41.0149" r="4" fill="#0" id="circle186"/>
	<circle cx="864.597" cy="179.821" r="4" fill="#0" id="circle187"/>
	<circle cx="873.851" cy="105.791" r="4" fill="#0" id="circle188"/>
	<circle cx="879.403" cy="124.299" r="4" fill="#0" id="circle189"/>
	<circle cx="881.254" cy="196.478" r="4" fill="#0" id="circle190"/>
	<circle cx="883.104" cy="166.866" r="4" fill="#0" id="circle191"/>
	<circle cx="890.507" cy="96.5373" r="4" fill="#0" id="circle192"/>
	<circle cx="897.91" cy="115.045" r="4" fill="#0" id="circle193"/>
	<circle cx="899.761" cy="190.925" r="4" fill="#0" id="circle194"/>
	<circle cx="901.612" cy="161.313" r="4" fill="#0" id="circle195"/>
	<circle cx="909.015" cy="98.3881" r="4" fill="#0" id="circle196"/>
	<circle cx="916.418" cy="179.821" r="4" fill="#0" id="circle197"/>
	</g>
</svg>