<?xml version="1.0" encoding="UTF-8" standalone="no"?>
<!-- Created with CurveBenchmark -->
<svg
	xmlns:dc="http://purl.org/dc/elements/1.1/"
	xmlns:cc="http://creativecommons.org/ns#"
	xmlns:rdf="http://www.w3.org/1999/02/22-rdf-syntax-ns#"
	xmlns:svg="http://www.w3.org/2000/svg"
	xmlns="http://www.w3.org/2000/svg"
	xmlns:sodipodi="http://sodipodi.sourceforge.net/DTD/sodipodi-0.dtd"
	xmlns:inkscape="http://www.inkscape.org/namespaces/inkscape"
	width="1000"
	height="1000"
	id="svg2"
	version="1.1"
	sodipodi:docname="manifold/fitconnect-cthand11.png.txt">
<defs
	id="defs4" />
<metadata
	id="metadata7">
	<rdf:RDF>
		<cc:Work
			rdf:about="">
			<dc:format>image/svg+xml</dc:format>
			<dc:type
				rdf:resource="http://purl.org/dc/dcmitype/StillImage" />
			<dc:title></dc:title>
		</cc:Work>
	</rdf:RDF>
</metadata>
<g
	inkscape:label="Layer 1"
	inkscape:groupmode="layer"
	id="layer1">
	<path style="fill:none;stroke:red;stroke-width:1px;stroke-linecap:butt;stroke-linejoin:miter;stroke-opacity:1" d="M 4,289.526 12.1579,273.211 z" id="boundary" inkscape:connector-curvature="0" />
	<path style="fill:none;stroke:red;stroke-width:1px;stroke-linecap:butt;stroke-linejoin:miter;stroke-opacity:1" d="M 4,289.526 12.1579,304.211 z" id="boundary" inkscape:connector-curvature="0" />
	<path style="fill:none;stroke:red;stroke-width:1px;stroke-linecap:butt;stroke-linejoin:miter;stroke-opacity:1" d="M 12.1579,240.579 12.1579,256.895 z" id="boundary" inkscape:connector-curvature="0" />
	<path style="fill:none;stroke:red;stroke-width:1px;stroke-linecap:butt;stroke-linejoin:miter;stroke-opacity:1" d="M 12.1579,240.579 28.4737,235.684 z" id="boundary" inkscape:connector-curvature="0" />
	<path style="fill:none;stroke:red;stroke-width:1px;stroke-linecap:butt;stroke-linejoin:miter;stroke-opacity:1" d="M 12.1579,256.895 12.1579,273.211 z" id="boundary" inkscape:connector-curvature="0" />
	<path style="fill:none;stroke:red;stroke-width:1px;stroke-linecap:butt;stroke-linejoin:miter;stroke-opacity:1" d="M 12.1579,304.211 12.1579,320.526 z" id="boundary" inkscape:connector-curvature="0" />
	<path style="fill:none;stroke:red;stroke-width:1px;stroke-linecap:butt;stroke-linejoin:miter;stroke-opacity:1" d="M 12.1579,320.526 20.3158,335.211 z" id="boundary" inkscape:connector-curvature="0" />
	<path style="fill:none;stroke:red;stroke-width:1px;stroke-linecap:butt;stroke-linejoin:miter;stroke-opacity:1" d="M 20.3158,335.211 20.3158,351.526 z" id="boundary" inkscape:connector-curvature="0" />
	<path style="fill:none;stroke:red;stroke-width:1px;stroke-linecap:butt;stroke-linejoin:miter;stroke-opacity:1" d="M 20.3158,351.526 28.4737,366.211 z" id="boundary" inkscape:connector-curvature="0" />
	<path style="fill:none;stroke:red;stroke-width:1px;stroke-linecap:butt;stroke-linejoin:miter;stroke-opacity:1" d="M 28.4737,235.684 41.5263,245.474 z" id="boundary" inkscape:connector-curvature="0" />
	<path style="fill:none;stroke:red;stroke-width:1px;stroke-linecap:butt;stroke-linejoin:miter;stroke-opacity:1" d="M 28.4737,366.211 36.6316,380.895 z" id="boundary" inkscape:connector-curvature="0" />
	<path style="fill:none;stroke:red;stroke-width:1px;stroke-linecap:butt;stroke-linejoin:miter;stroke-opacity:1" d="M 36.6316,380.895 38.2632,397.211 z" id="boundary" inkscape:connector-curvature="0" />
	<path style="fill:none;stroke:red;stroke-width:1px;stroke-linecap:butt;stroke-linejoin:miter;stroke-opacity:1" d="M 38.2632,397.211 44.7895,413.526 z" id="boundary" inkscape:connector-curvature="0" />
	<path style="fill:none;stroke:red;stroke-width:1px;stroke-linecap:butt;stroke-linejoin:miter;stroke-opacity:1" d="M 41.5263,245.474 54.5789,256.895 z" id="boundary" inkscape:connector-curvature="0" />
	<path style="fill:none;stroke:red;stroke-width:1px;stroke-linecap:butt;stroke-linejoin:miter;stroke-opacity:1" d="M 44.7895,413.526 44.7895,429.842 z" id="boundary" inkscape:connector-curvature="0" />
	<path style="fill:none;stroke:red;stroke-width:1px;stroke-linecap:butt;stroke-linejoin:miter;stroke-opacity:1" d="M 44.7895,429.842 52.9474,444.526 z" id="boundary" inkscape:connector-curvature="0" />
	<path style="fill:none;stroke:red;stroke-width:1px;stroke-linecap:butt;stroke-linejoin:miter;stroke-opacity:1" d="M 52.9474,444.526 61.1053,459.211 z" id="boundary" inkscape:connector-curvature="0" />
	<path style="fill:none;stroke:red;stroke-width:1px;stroke-linecap:butt;stroke-linejoin:miter;stroke-opacity:1" d="M 54.5789,256.895 66,269.947 z" id="boundary" inkscape:connector-curvature="0" />
	<path style="fill:none;stroke:red;stroke-width:1px;stroke-linecap:butt;stroke-linejoin:miter;stroke-opacity:1" d="M 61.1053,459.211 72.5263,472.263 z" id="boundary" inkscape:connector-curvature="0" />
	<path style="fill:none;stroke:red;stroke-width:1px;stroke-linecap:butt;stroke-linejoin:miter;stroke-opacity:1" d="M 66,269.947 70.8947,286.263 z" id="boundary" inkscape:connector-curvature="0" />
	<path style="fill:none;stroke:red;stroke-width:1px;stroke-linecap:butt;stroke-linejoin:miter;stroke-opacity:1" d="M 70.8947,286.263 79.0526,300.947 z" id="boundary" inkscape:connector-curvature="0" />
	<path style="fill:none;stroke:red;stroke-width:1px;stroke-linecap:butt;stroke-linejoin:miter;stroke-opacity:1" d="M 72.5263,472.263 77.4211,488.579 z" id="boundary" inkscape:connector-curvature="0" />
	<path style="fill:none;stroke:red;stroke-width:1px;stroke-linecap:butt;stroke-linejoin:miter;stroke-opacity:1" d="M 77.4211,488.579 77.4211,504.895 z" id="boundary" inkscape:connector-curvature="0" />
	<path style="fill:none;stroke:red;stroke-width:1px;stroke-linecap:butt;stroke-linejoin:miter;stroke-opacity:1" d="M 77.4211,504.895 87.2105,517.947 z" id="boundary" inkscape:connector-curvature="0" />
	<path style="fill:none;stroke:red;stroke-width:1px;stroke-linecap:butt;stroke-linejoin:miter;stroke-opacity:1" d="M 79.0526,300.947 79.0526,317.263 z" id="boundary" inkscape:connector-curvature="0" />
	<path style="fill:none;stroke:red;stroke-width:1px;stroke-linecap:butt;stroke-linejoin:miter;stroke-opacity:1" d="M 79.0526,317.263 87.2105,331.947 z" id="boundary" inkscape:connector-curvature="0" />
	<path style="fill:none;stroke:red;stroke-width:1px;stroke-linecap:butt;stroke-linejoin:miter;stroke-opacity:1" d="M 87.2105,331.947 95.3684,346.632 z" id="boundary" inkscape:connector-curvature="0" />
	<path style="fill:none;stroke:red;stroke-width:1px;stroke-linecap:butt;stroke-linejoin:miter;stroke-opacity:1" d="M 87.2105,517.947 93.7368,534.263 z" id="boundary" inkscape:connector-curvature="0" />
	<path style="fill:none;stroke:red;stroke-width:1px;stroke-linecap:butt;stroke-linejoin:miter;stroke-opacity:1" d="M 93.7368,534.263 101.895,548.947 z" id="boundary" inkscape:connector-curvature="0" />
	<path style="fill:none;stroke:red;stroke-width:1px;stroke-linecap:butt;stroke-linejoin:miter;stroke-opacity:1" d="M 95.3684,346.632 103.526,361.316 z" id="boundary" inkscape:connector-curvature="0" />
	<path style="fill:none;stroke:red;stroke-width:1px;stroke-linecap:butt;stroke-linejoin:miter;stroke-opacity:1" d="M 101.895,548.947 110.053,563.632 z" id="boundary" inkscape:connector-curvature="0" />
	<path style="fill:none;stroke:red;stroke-width:1px;stroke-linecap:butt;stroke-linejoin:miter;stroke-opacity:1" d="M 103.526,361.316 111.684,376 z" id="boundary" inkscape:connector-curvature="0" />
	<path style="fill:none;stroke:red;stroke-width:1px;stroke-linecap:butt;stroke-linejoin:miter;stroke-opacity:1" d="M 110.053,563.632 110.053,579.947 z" id="boundary" inkscape:connector-curvature="0" />
	<path style="fill:none;stroke:red;stroke-width:1px;stroke-linecap:butt;stroke-linejoin:miter;stroke-opacity:1" d="M 110.053,579.947 110.053,596.263 z" id="boundary" inkscape:connector-curvature="0" />
	<path style="fill:none;stroke:red;stroke-width:1px;stroke-linecap:butt;stroke-linejoin:miter;stroke-opacity:1" d="M 110.053,596.263 118.211,610.947 z" id="boundary" inkscape:connector-curvature="0" />
	<path style="fill:none;stroke:red;stroke-width:1px;stroke-linecap:butt;stroke-linejoin:miter;stroke-opacity:1" d="M 111.684,376 114.947,392.316 z" id="boundary" inkscape:connector-curvature="0" />
	<path style="fill:none;stroke:red;stroke-width:1px;stroke-linecap:butt;stroke-linejoin:miter;stroke-opacity:1" d="M 114.947,392.316 123.105,407 z" id="boundary" inkscape:connector-curvature="0" />
	<path style="fill:none;stroke:red;stroke-width:1px;stroke-linecap:butt;stroke-linejoin:miter;stroke-opacity:1" d="M 118.211,610.947 121.474,627.263 z" id="boundary" inkscape:connector-curvature="0" />
	<path style="fill:none;stroke:red;stroke-width:1px;stroke-linecap:butt;stroke-linejoin:miter;stroke-opacity:1" d="M 121.474,627.263 126.368,643.579 z" id="boundary" inkscape:connector-curvature="0" />
	<path style="fill:none;stroke:red;stroke-width:1px;stroke-linecap:butt;stroke-linejoin:miter;stroke-opacity:1" d="M 123.105,407 134.526,420.053 z" id="boundary" inkscape:connector-curvature="0" />
	<path style="fill:none;stroke:red;stroke-width:1px;stroke-linecap:butt;stroke-linejoin:miter;stroke-opacity:1" d="M 126.368,643.579 126.368,659.895 z" id="boundary" inkscape:connector-curvature="0" />
	<path style="fill:none;stroke:red;stroke-width:1px;stroke-linecap:butt;stroke-linejoin:miter;stroke-opacity:1" d="M 126.368,659.895 126.368,676.211 z" id="boundary" inkscape:connector-curvature="0" />
	<path style="fill:none;stroke:red;stroke-width:1px;stroke-linecap:butt;stroke-linejoin:miter;stroke-opacity:1" d="M 126.368,676.211 126.368,692.526 z" id="boundary" inkscape:connector-curvature="0" />
	<path style="fill:none;stroke:red;stroke-width:1px;stroke-linecap:butt;stroke-linejoin:miter;stroke-opacity:1" d="M 126.368,692.526 126.368,708.842 z" id="boundary" inkscape:connector-curvature="0" />
	<path style="fill:none;stroke:red;stroke-width:1px;stroke-linecap:butt;stroke-linejoin:miter;stroke-opacity:1" d="M 126.368,708.842 126.368,725.158 z" id="boundary" inkscape:connector-curvature="0" />
	<path style="fill:none;stroke:red;stroke-width:1px;stroke-linecap:butt;stroke-linejoin:miter;stroke-opacity:1" d="M 126.368,725.158 126.368,741.474 z" id="boundary" inkscape:connector-curvature="0" />
	<path style="fill:none;stroke:red;stroke-width:1px;stroke-linecap:butt;stroke-linejoin:miter;stroke-opacity:1" d="M 126.368,741.474 126.368,757.789 z" id="boundary" inkscape:connector-curvature="0" />
	<path style="fill:none;stroke:red;stroke-width:1px;stroke-linecap:butt;stroke-linejoin:miter;stroke-opacity:1" d="M 126.368,757.789 126.368,774.105 z" id="boundary" inkscape:connector-curvature="0" />
	<path style="fill:none;stroke:red;stroke-width:1px;stroke-linecap:butt;stroke-linejoin:miter;stroke-opacity:1" d="M 126.368,774.105 126.368,790.421 z" id="boundary" inkscape:connector-curvature="0" />
	<path style="fill:none;stroke:red;stroke-width:1px;stroke-linecap:butt;stroke-linejoin:miter;stroke-opacity:1" d="M 126.368,790.421 134.526,805.105 z" id="boundary" inkscape:connector-curvature="0" />
	<path style="fill:none;stroke:red;stroke-width:1px;stroke-linecap:butt;stroke-linejoin:miter;stroke-opacity:1" d="M 134.526,420.053 147.579,431.474 z" id="boundary" inkscape:connector-curvature="0" />
	<path style="fill:none;stroke:red;stroke-width:1px;stroke-linecap:butt;stroke-linejoin:miter;stroke-opacity:1" d="M 134.526,805.105 136.158,821.421 z" id="boundary" inkscape:connector-curvature="0" />
	<path style="fill:none;stroke:red;stroke-width:1px;stroke-linecap:butt;stroke-linejoin:miter;stroke-opacity:1" d="M 136.158,821.421 142.684,837.737 z" id="boundary" inkscape:connector-curvature="0" />
	<path style="fill:none;stroke:red;stroke-width:1px;stroke-linecap:butt;stroke-linejoin:miter;stroke-opacity:1" d="M 142.684,837.737 144.316,854.053 z" id="boundary" inkscape:connector-curvature="0" />
	<path style="fill:none;stroke:red;stroke-width:1px;stroke-linecap:butt;stroke-linejoin:miter;stroke-opacity:1" d="M 144.316,854.053 150.842,870.368 z" id="boundary" inkscape:connector-curvature="0" />
	<path style="fill:none;stroke:red;stroke-width:1px;stroke-linecap:butt;stroke-linejoin:miter;stroke-opacity:1" d="M 147.579,431.474 152.474,447.789 z" id="boundary" inkscape:connector-curvature="0" />
	<path style="fill:none;stroke:red;stroke-width:1px;stroke-linecap:butt;stroke-linejoin:miter;stroke-opacity:1" d="M 150.842,870.368 150.842,886.684 z" id="boundary" inkscape:connector-curvature="0" />
	<path style="fill:none;stroke:red;stroke-width:1px;stroke-linecap:butt;stroke-linejoin:miter;stroke-opacity:1" d="M 150.842,886.684 159,901.368 z" id="boundary" inkscape:connector-curvature="0" />
	<path style="fill:none;stroke:red;stroke-width:1px;stroke-linecap:butt;stroke-linejoin:miter;stroke-opacity:1" d="M 150.842,966.632 150.842,982.947 z" id="boundary" inkscape:connector-curvature="0" />
	<path style="fill:none;stroke:red;stroke-width:1px;stroke-linecap:butt;stroke-linejoin:miter;stroke-opacity:1" d="M 150.842,966.632 159,950.316 z" id="boundary" inkscape:connector-curvature="0" />
	<path style="fill:none;stroke:red;stroke-width:1px;stroke-linecap:butt;stroke-linejoin:miter;stroke-opacity:1" d="M 150.842,982.947 160.632,996 z" id="boundary" inkscape:connector-curvature="0" />
	<path style="fill:none;stroke:red;stroke-width:1px;stroke-linecap:butt;stroke-linejoin:miter;stroke-opacity:1" d="M 152.474,447.789 167.158,455.947 z" id="boundary" inkscape:connector-curvature="0" />
	<path style="fill:none;stroke:red;stroke-width:1px;stroke-linecap:butt;stroke-linejoin:miter;stroke-opacity:1" d="M 159,901.368 159,917.684 z" id="boundary" inkscape:connector-curvature="0" />
	<path style="fill:none;stroke:red;stroke-width:1px;stroke-linecap:butt;stroke-linejoin:miter;stroke-opacity:1" d="M 159,917.684 167.158,932.368 z" id="boundary" inkscape:connector-curvature="0" />
	<path style="fill:none;stroke:red;stroke-width:1px;stroke-linecap:butt;stroke-linejoin:miter;stroke-opacity:1" d="M 159,950.316 167.158,932.368 z" id="boundary" inkscape:connector-curvature="0" />
	<path style="fill:none;stroke:red;stroke-width:1px;stroke-linecap:butt;stroke-linejoin:miter;stroke-opacity:1" d="M 160.632,996 176.947,996 z" id="boundary" inkscape:connector-curvature="0" />
	<path style="fill:none;stroke:red;stroke-width:1px;stroke-linecap:butt;stroke-linejoin:miter;stroke-opacity:1" d="M 167.158,455.947 180.211,465.737 z" id="boundary" inkscape:connector-curvature="0" />
	<path style="fill:none;stroke:red;stroke-width:1px;stroke-linecap:butt;stroke-linejoin:miter;stroke-opacity:1" d="M 175.316,101.895 175.316,118.211 z" id="boundary" inkscape:connector-curvature="0" />
	<path style="fill:none;stroke:red;stroke-width:1px;stroke-linecap:butt;stroke-linejoin:miter;stroke-opacity:1" d="M 175.316,101.895 183.474,85.5789 z" id="boundary" inkscape:connector-curvature="0" />
	<path style="fill:none;stroke:red;stroke-width:1px;stroke-linecap:butt;stroke-linejoin:miter;stroke-opacity:1" d="M 175.316,118.211 175.316,134.526 z" id="boundary" inkscape:connector-curvature="0" />
	<path style="fill:none;stroke:red;stroke-width:1px;stroke-linecap:butt;stroke-linejoin:miter;stroke-opacity:1" d="M 175.316,134.526 175.316,150.842 z" id="boundary" inkscape:connector-curvature="0" />
	<path style="fill:none;stroke:red;stroke-width:1px;stroke-linecap:butt;stroke-linejoin:miter;stroke-opacity:1" d="M 175.316,150.842 175.316,167.158 z" id="boundary" inkscape:connector-curvature="0" />
	<path style="fill:none;stroke:red;stroke-width:1px;stroke-linecap:butt;stroke-linejoin:miter;stroke-opacity:1" d="M 175.316,167.158 175.316,183.474 z" id="boundary" inkscape:connector-curvature="0" />
	<path style="fill:none;stroke:red;stroke-width:1px;stroke-linecap:butt;stroke-linejoin:miter;stroke-opacity:1" d="M 175.316,183.474 175.316,199.789 z" id="boundary" inkscape:connector-curvature="0" />
	<path style="fill:none;stroke:red;stroke-width:1px;stroke-linecap:butt;stroke-linejoin:miter;stroke-opacity:1" d="M 175.316,199.789 183.474,214.474 z" id="boundary" inkscape:connector-curvature="0" />
	<path style="fill:none;stroke:red;stroke-width:1px;stroke-linecap:butt;stroke-linejoin:miter;stroke-opacity:1" d="M 175.316,305.842 175.316,322.158 z" id="boundary" inkscape:connector-curvature="0" />
	<path style="fill:none;stroke:red;stroke-width:1px;stroke-linecap:butt;stroke-linejoin:miter;stroke-opacity:1" d="M 175.316,305.842 183.474,279.737 z" id="boundary" inkscape:connector-curvature="0" />
	<path style="fill:none;stroke:red;stroke-width:1px;stroke-linecap:butt;stroke-linejoin:miter;stroke-opacity:1" d="M 175.316,322.158 175.316,338.474 z" id="boundary" inkscape:connector-curvature="0" />
	<path style="fill:none;stroke:red;stroke-width:1px;stroke-linecap:butt;stroke-linejoin:miter;stroke-opacity:1" d="M 175.316,338.474 183.474,353.158 z" id="boundary" inkscape:connector-curvature="0" />
	<path style="fill:none;stroke:red;stroke-width:1px;stroke-linecap:butt;stroke-linejoin:miter;stroke-opacity:1" d="M 176.947,996 193.263,996 z" id="boundary" inkscape:connector-curvature="0" />
	<path style="fill:none;stroke:red;stroke-width:1px;stroke-linecap:butt;stroke-linejoin:miter;stroke-opacity:1" d="M 180.211,465.737 196.526,472.263 z" id="boundary" inkscape:connector-curvature="0" />
	<path style="fill:none;stroke:red;stroke-width:1px;stroke-linecap:butt;stroke-linejoin:miter;stroke-opacity:1" d="M 183.474,85.5789 196.526,72.5263 z" id="boundary" inkscape:connector-curvature="0" />
	<path style="fill:none;stroke:red;stroke-width:1px;stroke-linecap:butt;stroke-linejoin:miter;stroke-opacity:1" d="M 183.474,214.474 183.474,230.789 z" id="boundary" inkscape:connector-curvature="0" />
	<path style="fill:none;stroke:red;stroke-width:1px;stroke-linecap:butt;stroke-linejoin:miter;stroke-opacity:1" d="M 183.474,230.789 183.474,247.105 z" id="boundary" inkscape:connector-curvature="0" />
	<path style="fill:none;stroke:red;stroke-width:1px;stroke-linecap:butt;stroke-linejoin:miter;stroke-opacity:1" d="M 183.474,247.105 183.474,263.421 z" id="boundary" inkscape:connector-curvature="0" />
	<path style="fill:none;stroke:red;stroke-width:1px;stroke-linecap:butt;stroke-linejoin:miter;stroke-opacity:1" d="M 183.474,263.421 183.474,279.737 z" id="boundary" inkscape:connector-curvature="0" />
	<path style="fill:none;stroke:red;stroke-width:1px;stroke-linecap:butt;stroke-linejoin:miter;stroke-opacity:1" d="M 183.474,353.158 183.474,369.474 z" id="boundary" inkscape:connector-curvature="0" />
	<path style="fill:none;stroke:red;stroke-width:1px;stroke-linecap:butt;stroke-linejoin:miter;stroke-opacity:1" d="M 183.474,369.474 183.474,385.789 z" id="boundary" inkscape:connector-curvature="0" />
	<path style="fill:none;stroke:red;stroke-width:1px;stroke-linecap:butt;stroke-linejoin:miter;stroke-opacity:1" d="M 183.474,385.789 183.474,402.105 z" id="boundary" inkscape:connector-curvature="0" />
	<path style="fill:none;stroke:red;stroke-width:1px;stroke-linecap:butt;stroke-linejoin:miter;stroke-opacity:1" d="M 183.474,402.105 191.632,416.789 z" id="boundary" inkscape:connector-curvature="0" />
	<path style="fill:none;stroke:red;stroke-width:1px;stroke-linecap:butt;stroke-linejoin:miter;stroke-opacity:1" d="M 191.632,416.789 191.632,433.105 z" id="boundary" inkscape:connector-curvature="0" />
	<path style="fill:none;stroke:red;stroke-width:1px;stroke-linecap:butt;stroke-linejoin:miter;stroke-opacity:1" d="M 191.632,433.105 199.789,447.789 z" id="boundary" inkscape:connector-curvature="0" />
	<path style="fill:none;stroke:red;stroke-width:1px;stroke-linecap:butt;stroke-linejoin:miter;stroke-opacity:1" d="M 193.263,996 209.579,996 z" id="boundary" inkscape:connector-curvature="0" />
	<path style="fill:none;stroke:red;stroke-width:1px;stroke-linecap:butt;stroke-linejoin:miter;stroke-opacity:1" d="M 196.526,72.5263 209.579,59.4737 z" id="boundary" inkscape:connector-curvature="0" />
	<path style="fill:none;stroke:red;stroke-width:1px;stroke-linecap:butt;stroke-linejoin:miter;stroke-opacity:1" d="M 196.526,472.263 199.789,447.789 z" id="boundary" inkscape:connector-curvature="0" />
	<path style="fill:none;stroke:red;stroke-width:1px;stroke-linecap:butt;stroke-linejoin:miter;stroke-opacity:1" d="M 209.579,59.4737 222.632,49.6842 z" id="boundary" inkscape:connector-curvature="0" />
	<path style="fill:none;stroke:red;stroke-width:1px;stroke-linecap:butt;stroke-linejoin:miter;stroke-opacity:1" d="M 209.579,996 225.895,996 z" id="boundary" inkscape:connector-curvature="0" />
	<path style="fill:none;stroke:red;stroke-width:1px;stroke-linecap:butt;stroke-linejoin:miter;stroke-opacity:1" d="M 222.632,49.6842 234.053,62.7368 z" id="boundary" inkscape:connector-curvature="0" />
	<path style="fill:none;stroke:red;stroke-width:1px;stroke-linecap:butt;stroke-linejoin:miter;stroke-opacity:1" d="M 225.895,996 242.211,996 z" id="boundary" inkscape:connector-curvature="0" />
	<path style="fill:none;stroke:red;stroke-width:1px;stroke-linecap:butt;stroke-linejoin:miter;stroke-opacity:1" d="M 234.053,62.7368 247.105,74.1579 z" id="boundary" inkscape:connector-curvature="0" />
	<path style="fill:none;stroke:red;stroke-width:1px;stroke-linecap:butt;stroke-linejoin:miter;stroke-opacity:1" d="M 242.211,996 258.526,996 z" id="boundary" inkscape:connector-curvature="0" />
	<path style="fill:none;stroke:red;stroke-width:1px;stroke-linecap:butt;stroke-linejoin:miter;stroke-opacity:1" d="M 247.105,74.1579 250.368,90.4737 z" id="boundary" inkscape:connector-curvature="0" />
	<path style="fill:none;stroke:red;stroke-width:1px;stroke-linecap:butt;stroke-linejoin:miter;stroke-opacity:1" d="M 250.368,90.4737 250.368,106.789 z" id="boundary" inkscape:connector-curvature="0" />
	<path style="fill:none;stroke:red;stroke-width:1px;stroke-linecap:butt;stroke-linejoin:miter;stroke-opacity:1" d="M 250.368,106.789 253.632,123.105 z" id="boundary" inkscape:connector-curvature="0" />
	<path style="fill:none;stroke:red;stroke-width:1px;stroke-linecap:butt;stroke-linejoin:miter;stroke-opacity:1" d="M 253.632,123.105 258.526,139.421 z" id="boundary" inkscape:connector-curvature="0" />
	<path style="fill:none;stroke:red;stroke-width:1px;stroke-linecap:butt;stroke-linejoin:miter;stroke-opacity:1" d="M 258.526,139.421 258.526,155.737 z" id="boundary" inkscape:connector-curvature="0" />
	<path style="fill:none;stroke:red;stroke-width:1px;stroke-linecap:butt;stroke-linejoin:miter;stroke-opacity:1" d="M 258.526,155.737 258.526,172.053 z" id="boundary" inkscape:connector-curvature="0" />
	<path style="fill:none;stroke:red;stroke-width:1px;stroke-linecap:butt;stroke-linejoin:miter;stroke-opacity:1" d="M 258.526,172.053 258.526,188.368 z" id="boundary" inkscape:connector-curvature="0" />
	<path style="fill:none;stroke:red;stroke-width:1px;stroke-linecap:butt;stroke-linejoin:miter;stroke-opacity:1" d="M 258.526,188.368 258.526,204.684 z" id="boundary" inkscape:connector-curvature="0" />
	<path style="fill:none;stroke:red;stroke-width:1px;stroke-linecap:butt;stroke-linejoin:miter;stroke-opacity:1" d="M 258.526,204.684 258.526,221 z" id="boundary" inkscape:connector-curvature="0" />
	<path style="fill:none;stroke:red;stroke-width:1px;stroke-linecap:butt;stroke-linejoin:miter;stroke-opacity:1" d="M 258.526,221 258.526,237.316 z" id="boundary" inkscape:connector-curvature="0" />
	<path style="fill:none;stroke:red;stroke-width:1px;stroke-linecap:butt;stroke-linejoin:miter;stroke-opacity:1" d="M 258.526,237.316 261.789,253.632 z" id="boundary" inkscape:connector-curvature="0" />
	<path style="fill:none;stroke:red;stroke-width:1px;stroke-linecap:butt;stroke-linejoin:miter;stroke-opacity:1" d="M 258.526,996 274.842,996 z" id="boundary" inkscape:connector-curvature="0" />
	<path style="fill:none;stroke:red;stroke-width:1px;stroke-linecap:butt;stroke-linejoin:miter;stroke-opacity:1" d="M 261.789,253.632 266.684,269.947 z" id="boundary" inkscape:connector-curvature="0" />
	<path style="fill:none;stroke:red;stroke-width:1px;stroke-linecap:butt;stroke-linejoin:miter;stroke-opacity:1" d="M 266.684,269.947 266.684,286.263 z" id="boundary" inkscape:connector-curvature="0" />
	<path style="fill:none;stroke:red;stroke-width:1px;stroke-linecap:butt;stroke-linejoin:miter;stroke-opacity:1" d="M 266.684,286.263 269.947,302.579 z" id="boundary" inkscape:connector-curvature="0" />
	<path style="fill:none;stroke:red;stroke-width:1px;stroke-linecap:butt;stroke-linejoin:miter;stroke-opacity:1" d="M 269.947,302.579 274.842,318.895 z" id="boundary" inkscape:connector-curvature="0" />
	<path style="fill:none;stroke:red;stroke-width:1px;stroke-linecap:butt;stroke-linejoin:miter;stroke-opacity:1" d="M 274.842,318.895 278.105,335.211 z" id="boundary" inkscape:connector-curvature="0" />
	<path style="fill:none;stroke:red;stroke-width:1px;stroke-linecap:butt;stroke-linejoin:miter;stroke-opacity:1" d="M 274.842,996 291.158,996 z" id="boundary" inkscape:connector-curvature="0" />
	<path style="fill:none;stroke:red;stroke-width:1px;stroke-linecap:butt;stroke-linejoin:miter;stroke-opacity:1" d="M 278.105,335.211 286.263,349.895 z" id="boundary" inkscape:connector-curvature="0" />
	<path style="fill:none;stroke:red;stroke-width:1px;stroke-linecap:butt;stroke-linejoin:miter;stroke-opacity:1" d="M 286.263,349.895 291.158,366.211 z" id="boundary" inkscape:connector-curvature="0" />
	<path style="fill:none;stroke:red;stroke-width:1px;stroke-linecap:butt;stroke-linejoin:miter;stroke-opacity:1" d="M 291.158,366.211 304.211,376 z" id="boundary" inkscape:connector-curvature="0" />
	<path style="fill:none;stroke:red;stroke-width:1px;stroke-linecap:butt;stroke-linejoin:miter;stroke-opacity:1" d="M 291.158,996 307.474,996 z" id="boundary" inkscape:connector-curvature="0" />
	<path style="fill:none;stroke:red;stroke-width:1px;stroke-linecap:butt;stroke-linejoin:miter;stroke-opacity:1" d="M 304.211,376 320.526,382.526 z" id="boundary" inkscape:connector-curvature="0" />
	<path style="fill:none;stroke:red;stroke-width:1px;stroke-linecap:butt;stroke-linejoin:miter;stroke-opacity:1" d="M 307.474,996 323.789,996 z" id="boundary" inkscape:connector-curvature="0" />
	<path style="fill:none;stroke:red;stroke-width:1px;stroke-linecap:butt;stroke-linejoin:miter;stroke-opacity:1" d="M 320.526,382.526 330.316,362.947 z" id="boundary" inkscape:connector-curvature="0" />
	<path style="fill:none;stroke:red;stroke-width:1px;stroke-linecap:butt;stroke-linejoin:miter;stroke-opacity:1" d="M 323.789,996 340.105,996 z" id="boundary" inkscape:connector-curvature="0" />
	<path style="fill:none;stroke:red;stroke-width:1px;stroke-linecap:butt;stroke-linejoin:miter;stroke-opacity:1" d="M 330.316,362.947 338.474,346.632 z" id="boundary" inkscape:connector-curvature="0" />
	<path style="fill:none;stroke:red;stroke-width:1px;stroke-linecap:butt;stroke-linejoin:miter;stroke-opacity:1" d="M 338.474,346.632 346.632,330.316 z" id="boundary" inkscape:connector-curvature="0" />
	<path style="fill:none;stroke:red;stroke-width:1px;stroke-linecap:butt;stroke-linejoin:miter;stroke-opacity:1" d="M 340.105,996 356.421,996 z" id="boundary" inkscape:connector-curvature="0" />
	<path style="fill:none;stroke:red;stroke-width:1px;stroke-linecap:butt;stroke-linejoin:miter;stroke-opacity:1" d="M 346.632,248.737 346.632,265.053 z" id="boundary" inkscape:connector-curvature="0" />
	<path style="fill:none;stroke:red;stroke-width:1px;stroke-linecap:butt;stroke-linejoin:miter;stroke-opacity:1" d="M 346.632,248.737 354.789,232.421 z" id="boundary" inkscape:connector-curvature="0" />
	<path style="fill:none;stroke:red;stroke-width:1px;stroke-linecap:butt;stroke-linejoin:miter;stroke-opacity:1" d="M 346.632,265.053 346.632,281.368 z" id="boundary" inkscape:connector-curvature="0" />
	<path style="fill:none;stroke:red;stroke-width:1px;stroke-linecap:butt;stroke-linejoin:miter;stroke-opacity:1" d="M 346.632,281.368 346.632,297.684 z" id="boundary" inkscape:connector-curvature="0" />
	<path style="fill:none;stroke:red;stroke-width:1px;stroke-linecap:butt;stroke-linejoin:miter;stroke-opacity:1" d="M 346.632,297.684 346.632,314 z" id="boundary" inkscape:connector-curvature="0" />
	<path style="fill:none;stroke:red;stroke-width:1px;stroke-linecap:butt;stroke-linejoin:miter;stroke-opacity:1" d="M 346.632,314 346.632,330.316 z" id="boundary" inkscape:connector-curvature="0" />
	<path style="fill:none;stroke:red;stroke-width:1px;stroke-linecap:butt;stroke-linejoin:miter;stroke-opacity:1" d="M 354.789,216.105 354.789,232.421 z" id="boundary" inkscape:connector-curvature="0" />
	<path style="fill:none;stroke:red;stroke-width:1px;stroke-linecap:butt;stroke-linejoin:miter;stroke-opacity:1" d="M 354.789,216.105 362.947,199.789 z" id="boundary" inkscape:connector-curvature="0" />
	<path style="fill:none;stroke:red;stroke-width:1px;stroke-linecap:butt;stroke-linejoin:miter;stroke-opacity:1" d="M 356.421,996 372.737,996 z" id="boundary" inkscape:connector-curvature="0" />
	<path style="fill:none;stroke:red;stroke-width:1px;stroke-linecap:butt;stroke-linejoin:miter;stroke-opacity:1" d="M 362.947,199.789 371.105,175.316 z" id="boundary" inkscape:connector-curvature="0" />
	<path style="fill:none;stroke:red;stroke-width:1px;stroke-linecap:butt;stroke-linejoin:miter;stroke-opacity:1" d="M 371.105,175.316 379.263,150.842 z" id="boundary" inkscape:connector-curvature="0" />
	<path style="fill:none;stroke:red;stroke-width:1px;stroke-linecap:butt;stroke-linejoin:miter;stroke-opacity:1" d="M 372.737,996 389.053,996 z" id="boundary" inkscape:connector-curvature="0" />
	<path style="fill:none;stroke:red;stroke-width:1px;stroke-linecap:butt;stroke-linejoin:miter;stroke-opacity:1" d="M 379.263,134.526 379.263,150.842 z" id="boundary" inkscape:connector-curvature="0" />
	<path style="fill:none;stroke:red;stroke-width:1px;stroke-linecap:butt;stroke-linejoin:miter;stroke-opacity:1" d="M 379.263,134.526 387.421,110.053 z" id="boundary" inkscape:connector-curvature="0" />
	<path style="fill:none;stroke:red;stroke-width:1px;stroke-linecap:butt;stroke-linejoin:miter;stroke-opacity:1" d="M 387.421,61.1053 387.421,77.4211 z" id="boundary" inkscape:connector-curvature="0" />
	<path style="fill:none;stroke:red;stroke-width:1px;stroke-linecap:butt;stroke-linejoin:miter;stroke-opacity:1" d="M 387.421,61.1053 395.579,44.7895 z" id="boundary" inkscape:connector-curvature="0" />
	<path style="fill:none;stroke:red;stroke-width:1px;stroke-linecap:butt;stroke-linejoin:miter;stroke-opacity:1" d="M 387.421,77.4211 387.421,93.7368 z" id="boundary" inkscape:connector-curvature="0" />
	<path style="fill:none;stroke:red;stroke-width:1px;stroke-linecap:butt;stroke-linejoin:miter;stroke-opacity:1" d="M 387.421,93.7368 387.421,110.053 z" id="boundary" inkscape:connector-curvature="0" />
	<path style="fill:none;stroke:red;stroke-width:1px;stroke-linecap:butt;stroke-linejoin:miter;stroke-opacity:1" d="M 389.053,996 405.368,996 z" id="boundary" inkscape:connector-curvature="0" />
	<path style="fill:none;stroke:red;stroke-width:1px;stroke-linecap:butt;stroke-linejoin:miter;stroke-opacity:1" d="M 395.579,44.7895 408.632,31.7368 z" id="boundary" inkscape:connector-curvature="0" />
	<path style="fill:none;stroke:red;stroke-width:1px;stroke-linecap:butt;stroke-linejoin:miter;stroke-opacity:1" d="M 405.368,996 421.684,996 z" id="boundary" inkscape:connector-curvature="0" />
	<path style="fill:none;stroke:red;stroke-width:1px;stroke-linecap:butt;stroke-linejoin:miter;stroke-opacity:1" d="M 408.632,31.7368 424.947,23.5789 z" id="boundary" inkscape:connector-curvature="0" />
	<path style="fill:none;stroke:red;stroke-width:1px;stroke-linecap:butt;stroke-linejoin:miter;stroke-opacity:1" d="M 421.684,996 438,996 z" id="boundary" inkscape:connector-curvature="0" />
	<path style="fill:none;stroke:red;stroke-width:1px;stroke-linecap:butt;stroke-linejoin:miter;stroke-opacity:1" d="M 424.947,23.5789 439.632,15.4211 z" id="boundary" inkscape:connector-curvature="0" />
	<path style="fill:none;stroke:red;stroke-width:1px;stroke-linecap:butt;stroke-linejoin:miter;stroke-opacity:1" d="M 429.842,335.211 429.842,351.526 z" id="boundary" inkscape:connector-curvature="0" />
	<path style="fill:none;stroke:red;stroke-width:1px;stroke-linecap:butt;stroke-linejoin:miter;stroke-opacity:1" d="M 429.842,335.211 438,318.895 z" id="boundary" inkscape:connector-curvature="0" />
	<path style="fill:none;stroke:red;stroke-width:1px;stroke-linecap:butt;stroke-linejoin:miter;stroke-opacity:1" d="M 429.842,351.526 429.842,367.842 z" id="boundary" inkscape:connector-curvature="0" />
	<path style="fill:none;stroke:red;stroke-width:1px;stroke-linecap:butt;stroke-linejoin:miter;stroke-opacity:1" d="M 429.842,367.842 438,382.526 z" id="boundary" inkscape:connector-curvature="0" />
	<path style="fill:none;stroke:red;stroke-width:1px;stroke-linecap:butt;stroke-linejoin:miter;stroke-opacity:1" d="M 438,302.579 438,318.895 z" id="boundary" inkscape:connector-curvature="0" />
	<path style="fill:none;stroke:red;stroke-width:1px;stroke-linecap:butt;stroke-linejoin:miter;stroke-opacity:1" d="M 438,302.579 446.158,286.263 z" id="boundary" inkscape:connector-curvature="0" />
	<path style="fill:none;stroke:red;stroke-width:1px;stroke-linecap:butt;stroke-linejoin:miter;stroke-opacity:1" d="M 438,382.526 438,398.842 z" id="boundary" inkscape:connector-curvature="0" />
	<path style="fill:none;stroke:red;stroke-width:1px;stroke-linecap:butt;stroke-linejoin:miter;stroke-opacity:1" d="M 438,398.842 452.684,407 z" id="boundary" inkscape:connector-curvature="0" />
	<path style="fill:none;stroke:red;stroke-width:1px;stroke-linecap:butt;stroke-linejoin:miter;stroke-opacity:1" d="M 438,996 454.316,996 z" id="boundary" inkscape:connector-curvature="0" />
	<path style="fill:none;stroke:red;stroke-width:1px;stroke-linecap:butt;stroke-linejoin:miter;stroke-opacity:1" d="M 439.632,15.4211 452.684,4 z" id="boundary" inkscape:connector-curvature="0" />
	<path style="fill:none;stroke:red;stroke-width:1px;stroke-linecap:butt;stroke-linejoin:miter;stroke-opacity:1" d="M 446.158,269.947 446.158,286.263 z" id="boundary" inkscape:connector-curvature="0" />
	<path style="fill:none;stroke:red;stroke-width:1px;stroke-linecap:butt;stroke-linejoin:miter;stroke-opacity:1" d="M 446.158,269.947 454.316,245.474 z" id="boundary" inkscape:connector-curvature="0" />
	<path style="fill:none;stroke:red;stroke-width:1px;stroke-linecap:butt;stroke-linejoin:miter;stroke-opacity:1" d="M 452.684,4 462.474,17.0526 z" id="boundary" inkscape:connector-curvature="0" />
	<path style="fill:none;stroke:red;stroke-width:1px;stroke-linecap:butt;stroke-linejoin:miter;stroke-opacity:1" d="M 452.684,407 467.368,398.842 z" id="boundary" inkscape:connector-curvature="0" />
	<path style="fill:none;stroke:red;stroke-width:1px;stroke-linecap:butt;stroke-linejoin:miter;stroke-opacity:1" d="M 454.316,229.158 454.316,245.474 z" id="boundary" inkscape:connector-curvature="0" />
	<path style="fill:none;stroke:red;stroke-width:1px;stroke-linecap:butt;stroke-linejoin:miter;stroke-opacity:1" d="M 454.316,229.158 462.474,204.684 z" id="boundary" inkscape:connector-curvature="0" />
	<path style="fill:none;stroke:red;stroke-width:1px;stroke-linecap:butt;stroke-linejoin:miter;stroke-opacity:1" d="M 454.316,996 470.632,996 z" id="boundary" inkscape:connector-curvature="0" />
	<path style="fill:none;stroke:red;stroke-width:1px;stroke-linecap:butt;stroke-linejoin:miter;stroke-opacity:1" d="M 462.474,17.0526 470.632,31.7368 z" id="boundary" inkscape:connector-curvature="0" />
	<path style="fill:none;stroke:red;stroke-width:1px;stroke-linecap:butt;stroke-linejoin:miter;stroke-opacity:1" d="M 462.474,155.737 462.474,172.053 z" id="boundary" inkscape:connector-curvature="0" />
	<path style="fill:none;stroke:red;stroke-width:1px;stroke-linecap:butt;stroke-linejoin:miter;stroke-opacity:1" d="M 462.474,155.737 470.632,139.421 z" id="boundary" inkscape:connector-curvature="0" />
	<path style="fill:none;stroke:red;stroke-width:1px;stroke-linecap:butt;stroke-linejoin:miter;stroke-opacity:1" d="M 462.474,172.053 462.474,188.368 z" id="boundary" inkscape:connector-curvature="0" />
	<path style="fill:none;stroke:red;stroke-width:1px;stroke-linecap:butt;stroke-linejoin:miter;stroke-opacity:1" d="M 462.474,188.368 462.474,204.684 z" id="boundary" inkscape:connector-curvature="0" />
	<path style="fill:none;stroke:red;stroke-width:1px;stroke-linecap:butt;stroke-linejoin:miter;stroke-opacity:1" d="M 467.368,398.842 478.789,385.789 z" id="boundary" inkscape:connector-curvature="0" />
	<path style="fill:none;stroke:red;stroke-width:1px;stroke-linecap:butt;stroke-linejoin:miter;stroke-opacity:1" d="M 470.632,31.7368 478.789,46.4211 z" id="boundary" inkscape:connector-curvature="0" />
	<path style="fill:none;stroke:red;stroke-width:1px;stroke-linecap:butt;stroke-linejoin:miter;stroke-opacity:1" d="M 470.632,123.105 470.632,139.421 z" id="boundary" inkscape:connector-curvature="0" />
	<path style="fill:none;stroke:red;stroke-width:1px;stroke-linecap:butt;stroke-linejoin:miter;stroke-opacity:1" d="M 470.632,123.105 478.789,98.6316 z" id="boundary" inkscape:connector-curvature="0" />
	<path style="fill:none;stroke:red;stroke-width:1px;stroke-linecap:butt;stroke-linejoin:miter;stroke-opacity:1" d="M 470.632,996 486.947,996 z" id="boundary" inkscape:connector-curvature="0" />
	<path style="fill:none;stroke:red;stroke-width:1px;stroke-linecap:butt;stroke-linejoin:miter;stroke-opacity:1" d="M 478.789,46.4211 486.947,61.1053 z" id="boundary" inkscape:connector-curvature="0" />
	<path style="fill:none;stroke:red;stroke-width:1px;stroke-linecap:butt;stroke-linejoin:miter;stroke-opacity:1" d="M 478.789,82.3158 478.789,98.6316 z" id="boundary" inkscape:connector-curvature="0" />
	<path style="fill:none;stroke:red;stroke-width:1px;stroke-linecap:butt;stroke-linejoin:miter;stroke-opacity:1" d="M 478.789,82.3158 486.947,61.1053 z" id="boundary" inkscape:connector-curvature="0" />
	<path style="fill:none;stroke:red;stroke-width:1px;stroke-linecap:butt;stroke-linejoin:miter;stroke-opacity:1" d="M 478.789,385.789 491.842,374.368 z" id="boundary" inkscape:connector-curvature="0" />
	<path style="fill:none;stroke:red;stroke-width:1px;stroke-linecap:butt;stroke-linejoin:miter;stroke-opacity:1" d="M 486.947,996 500,984.579 z" id="boundary" inkscape:connector-curvature="0" />
	<path style="fill:none;stroke:red;stroke-width:1px;stroke-linecap:butt;stroke-linejoin:miter;stroke-opacity:1" d="M 491.842,374.368 493.474,346.632 z" id="boundary" inkscape:connector-curvature="0" />
	<path style="fill:none;stroke:red;stroke-width:1px;stroke-linecap:butt;stroke-linejoin:miter;stroke-opacity:1" d="M 493.474,346.632 501.632,322.158 z" id="boundary" inkscape:connector-curvature="0" />
	<path style="fill:none;stroke:red;stroke-width:1px;stroke-linecap:butt;stroke-linejoin:miter;stroke-opacity:1" d="M 500,984.579 516.316,976.421 z" id="boundary" inkscape:connector-curvature="0" />
	<path style="fill:none;stroke:red;stroke-width:1px;stroke-linecap:butt;stroke-linejoin:miter;stroke-opacity:1" d="M 501.632,322.158 509.789,305.842 z" id="boundary" inkscape:connector-curvature="0" />
	<path style="fill:none;stroke:red;stroke-width:1px;stroke-linecap:butt;stroke-linejoin:miter;stroke-opacity:1" d="M 509.789,305.842 517.947,289.526 z" id="boundary" inkscape:connector-curvature="0" />
	<path style="fill:none;stroke:red;stroke-width:1px;stroke-linecap:butt;stroke-linejoin:miter;stroke-opacity:1" d="M 516.316,976.421 527.737,963.368 z" id="boundary" inkscape:connector-curvature="0" />
	<path style="fill:none;stroke:red;stroke-width:1px;stroke-linecap:butt;stroke-linejoin:miter;stroke-opacity:1" d="M 517.947,289.526 526.105,273.211 z" id="boundary" inkscape:connector-curvature="0" />
	<path style="fill:none;stroke:red;stroke-width:1px;stroke-linecap:butt;stroke-linejoin:miter;stroke-opacity:1" d="M 526.105,273.211 534.263,256.895 z" id="boundary" inkscape:connector-curvature="0" />
	<path style="fill:none;stroke:red;stroke-width:1px;stroke-linecap:butt;stroke-linejoin:miter;stroke-opacity:1" d="M 527.737,963.368 540.789,951.947 z" id="boundary" inkscape:connector-curvature="0" />
	<path style="fill:none;stroke:red;stroke-width:1px;stroke-linecap:butt;stroke-linejoin:miter;stroke-opacity:1" d="M 534.263,240.579 534.263,256.895 z" id="boundary" inkscape:connector-curvature="0" />
	<path style="fill:none;stroke:red;stroke-width:1px;stroke-linecap:butt;stroke-linejoin:miter;stroke-opacity:1" d="M 534.263,240.579 542.421,224.263 z" id="boundary" inkscape:connector-curvature="0" />
	<path style="fill:none;stroke:red;stroke-width:1px;stroke-linecap:butt;stroke-linejoin:miter;stroke-opacity:1" d="M 540.789,951.947 552.211,938.895 z" id="boundary" inkscape:connector-curvature="0" />
	<path style="fill:none;stroke:red;stroke-width:1px;stroke-linecap:butt;stroke-linejoin:miter;stroke-opacity:1" d="M 542.421,207.947 542.421,224.263 z" id="boundary" inkscape:connector-curvature="0" />
	<path style="fill:none;stroke:red;stroke-width:1px;stroke-linecap:butt;stroke-linejoin:miter;stroke-opacity:1" d="M 542.421,207.947 550.579,183.474 z" id="boundary" inkscape:connector-curvature="0" />
	<path style="fill:none;stroke:red;stroke-width:1px;stroke-linecap:butt;stroke-linejoin:miter;stroke-opacity:1" d="M 550.579,183.474 558.737,167.158 z" id="boundary" inkscape:connector-curvature="0" />
	<path style="fill:none;stroke:red;stroke-width:1px;stroke-linecap:butt;stroke-linejoin:miter;stroke-opacity:1" d="M 552.211,938.895 565.263,927.474 z" id="boundary" inkscape:connector-curvature="0" />
	<path style="fill:none;stroke:red;stroke-width:1px;stroke-linecap:butt;stroke-linejoin:miter;stroke-opacity:1" d="M 558.737,167.158 566.895,150.842 z" id="boundary" inkscape:connector-curvature="0" />
	<path style="fill:none;stroke:red;stroke-width:1px;stroke-linecap:butt;stroke-linejoin:miter;stroke-opacity:1" d="M 565.263,927.474 573.421,911.158 z" id="boundary" inkscape:connector-curvature="0" />
	<path style="fill:none;stroke:red;stroke-width:1px;stroke-linecap:butt;stroke-linejoin:miter;stroke-opacity:1" d="M 566.895,134.526 566.895,150.842 z" id="boundary" inkscape:connector-curvature="0" />
	<path style="fill:none;stroke:red;stroke-width:1px;stroke-linecap:butt;stroke-linejoin:miter;stroke-opacity:1" d="M 566.895,134.526 575.053,118.211 z" id="boundary" inkscape:connector-curvature="0" />
	<path style="fill:none;stroke:red;stroke-width:1px;stroke-linecap:butt;stroke-linejoin:miter;stroke-opacity:1" d="M 568.526,441.263 568.526,457.579 z" id="boundary" inkscape:connector-curvature="0" />
	<path style="fill:none;stroke:red;stroke-width:1px;stroke-linecap:butt;stroke-linejoin:miter;stroke-opacity:1" d="M 568.526,441.263 576.684,424.947 z" id="boundary" inkscape:connector-curvature="0" />
	<path style="fill:none;stroke:red;stroke-width:1px;stroke-linecap:butt;stroke-linejoin:miter;stroke-opacity:1" d="M 568.526,457.579 568.526,473.895 z" id="boundary" inkscape:connector-curvature="0" />
	<path style="fill:none;stroke:red;stroke-width:1px;stroke-linecap:butt;stroke-linejoin:miter;stroke-opacity:1" d="M 568.526,473.895 568.526,490.211 z" id="boundary" inkscape:connector-curvature="0" />
	<path style="fill:none;stroke:red;stroke-width:1px;stroke-linecap:butt;stroke-linejoin:miter;stroke-opacity:1" d="M 568.526,490.211 568.526,506.526 z" id="boundary" inkscape:connector-curvature="0" />
	<path style="fill:none;stroke:red;stroke-width:1px;stroke-linecap:butt;stroke-linejoin:miter;stroke-opacity:1" d="M 568.526,506.526 568.526,522.842 z" id="boundary" inkscape:connector-curvature="0" />
	<path style="fill:none;stroke:red;stroke-width:1px;stroke-linecap:butt;stroke-linejoin:miter;stroke-opacity:1" d="M 568.526,522.842 568.526,539.158 z" id="boundary" inkscape:connector-curvature="0" />
	<path style="fill:none;stroke:red;stroke-width:1px;stroke-linecap:butt;stroke-linejoin:miter;stroke-opacity:1" d="M 568.526,539.158 568.526,555.474 z" id="boundary" inkscape:connector-curvature="0" />
	<path style="fill:none;stroke:red;stroke-width:1px;stroke-linecap:butt;stroke-linejoin:miter;stroke-opacity:1" d="M 568.526,555.474 568.526,571.789 z" id="boundary" inkscape:connector-curvature="0" />
	<path style="fill:none;stroke:red;stroke-width:1px;stroke-linecap:butt;stroke-linejoin:miter;stroke-opacity:1" d="M 568.526,571.789 568.526,588.105 z" id="boundary" inkscape:connector-curvature="0" />
	<path style="fill:none;stroke:red;stroke-width:1px;stroke-linecap:butt;stroke-linejoin:miter;stroke-opacity:1" d="M 568.526,588.105 568.526,604.421 z" id="boundary" inkscape:connector-curvature="0" />
	<path style="fill:none;stroke:red;stroke-width:1px;stroke-linecap:butt;stroke-linejoin:miter;stroke-opacity:1" d="M 568.526,604.421 571.789,620.737 z" id="boundary" inkscape:connector-curvature="0" />
	<path style="fill:none;stroke:red;stroke-width:1px;stroke-linecap:butt;stroke-linejoin:miter;stroke-opacity:1" d="M 571.789,620.737 579.947,635.421 z" id="boundary" inkscape:connector-curvature="0" />
	<path style="fill:none;stroke:red;stroke-width:1px;stroke-linecap:butt;stroke-linejoin:miter;stroke-opacity:1" d="M 573.421,911.158 581.579,894.842 z" id="boundary" inkscape:connector-curvature="0" />
	<path style="fill:none;stroke:red;stroke-width:1px;stroke-linecap:butt;stroke-linejoin:miter;stroke-opacity:1" d="M 575.053,118.211 583.211,101.895 z" id="boundary" inkscape:connector-curvature="0" />
	<path style="fill:none;stroke:red;stroke-width:1px;stroke-linecap:butt;stroke-linejoin:miter;stroke-opacity:1" d="M 576.684,408.632 576.684,424.947 z" id="boundary" inkscape:connector-curvature="0" />
	<path style="fill:none;stroke:red;stroke-width:1px;stroke-linecap:butt;stroke-linejoin:miter;stroke-opacity:1" d="M 576.684,408.632 584.842,392.316 z" id="boundary" inkscape:connector-curvature="0" />
	<path style="fill:none;stroke:red;stroke-width:1px;stroke-linecap:butt;stroke-linejoin:miter;stroke-opacity:1" d="M 579.947,635.421 596.263,627.263 z" id="boundary" inkscape:connector-curvature="0" />
	<path style="fill:none;stroke:red;stroke-width:1px;stroke-linecap:butt;stroke-linejoin:miter;stroke-opacity:1" d="M 581.579,894.842 593,873.632 z" id="boundary" inkscape:connector-curvature="0" />
	<path style="fill:none;stroke:red;stroke-width:1px;stroke-linecap:butt;stroke-linejoin:miter;stroke-opacity:1" d="M 583.211,101.895 599.526,93.7368 z" id="boundary" inkscape:connector-curvature="0" />
	<path style="fill:none;stroke:red;stroke-width:1px;stroke-linecap:butt;stroke-linejoin:miter;stroke-opacity:1" d="M 584.842,392.316 593,367.842 z" id="boundary" inkscape:connector-curvature="0" />
	<path style="fill:none;stroke:red;stroke-width:1px;stroke-linecap:butt;stroke-linejoin:miter;stroke-opacity:1" d="M 593,367.842 601.158,343.368 z" id="boundary" inkscape:connector-curvature="0" />
	<path style="fill:none;stroke:red;stroke-width:1px;stroke-linecap:butt;stroke-linejoin:miter;stroke-opacity:1" d="M 593,873.632 601.158,857.316 z" id="boundary" inkscape:connector-curvature="0" />
	<path style="fill:none;stroke:red;stroke-width:1px;stroke-linecap:butt;stroke-linejoin:miter;stroke-opacity:1" d="M 596.263,627.263 609.316,614.211 z" id="boundary" inkscape:connector-curvature="0" />
	<path style="fill:none;stroke:red;stroke-width:1px;stroke-linecap:butt;stroke-linejoin:miter;stroke-opacity:1" d="M 599.526,93.7368 615.842,85.5789 z" id="boundary" inkscape:connector-curvature="0" />
	<path style="fill:none;stroke:red;stroke-width:1px;stroke-linecap:butt;stroke-linejoin:miter;stroke-opacity:1" d="M 601.158,327.053 601.158,343.368 z" id="boundary" inkscape:connector-curvature="0" />
	<path style="fill:none;stroke:red;stroke-width:1px;stroke-linecap:butt;stroke-linejoin:miter;stroke-opacity:1" d="M 601.158,327.053 609.316,302.579 z" id="boundary" inkscape:connector-curvature="0" />
	<path style="fill:none;stroke:red;stroke-width:1px;stroke-linecap:butt;stroke-linejoin:miter;stroke-opacity:1" d="M 601.158,857.316 609.316,841 z" id="boundary" inkscape:connector-curvature="0" />
	<path style="fill:none;stroke:red;stroke-width:1px;stroke-linecap:butt;stroke-linejoin:miter;stroke-opacity:1" d="M 609.316,302.579 617.474,286.263 z" id="boundary" inkscape:connector-curvature="0" />
	<path style="fill:none;stroke:red;stroke-width:1px;stroke-linecap:butt;stroke-linejoin:miter;stroke-opacity:1" d="M 609.316,614.211 617.474,597.895 z" id="boundary" inkscape:connector-curvature="0" />
	<path style="fill:none;stroke:red;stroke-width:1px;stroke-linecap:butt;stroke-linejoin:miter;stroke-opacity:1" d="M 609.316,841 622.368,829.579 z" id="boundary" inkscape:connector-curvature="0" />
	<path style="fill:none;stroke:red;stroke-width:1px;stroke-linecap:butt;stroke-linejoin:miter;stroke-opacity:1" d="M 615.842,85.5789 628.895,72.5263 z" id="boundary" inkscape:connector-curvature="0" />
	<path style="fill:none;stroke:red;stroke-width:1px;stroke-linecap:butt;stroke-linejoin:miter;stroke-opacity:1" d="M 617.474,286.263 625.632,269.947 z" id="boundary" inkscape:connector-curvature="0" />
	<path style="fill:none;stroke:red;stroke-width:1px;stroke-linecap:butt;stroke-linejoin:miter;stroke-opacity:1" d="M 617.474,597.895 625.632,581.579 z" id="boundary" inkscape:connector-curvature="0" />
	<path style="fill:none;stroke:red;stroke-width:1px;stroke-linecap:butt;stroke-linejoin:miter;stroke-opacity:1" d="M 622.368,829.579 633.789,808.368 z" id="boundary" inkscape:connector-curvature="0" />
	<path style="fill:none;stroke:red;stroke-width:1px;stroke-linecap:butt;stroke-linejoin:miter;stroke-opacity:1" d="M 625.632,269.947 633.789,245.474 z" id="boundary" inkscape:connector-curvature="0" />
	<path style="fill:none;stroke:red;stroke-width:1px;stroke-linecap:butt;stroke-linejoin:miter;stroke-opacity:1" d="M 625.632,581.579 632.158,550.579 z" id="boundary" inkscape:connector-curvature="0" />
	<path style="fill:none;stroke:red;stroke-width:1px;stroke-linecap:butt;stroke-linejoin:miter;stroke-opacity:1" d="M 628.895,72.5263 633.789,88.8421 z" id="boundary" inkscape:connector-curvature="0" />
	<path style="fill:none;stroke:red;stroke-width:1px;stroke-linecap:butt;stroke-linejoin:miter;stroke-opacity:1" d="M 632.158,550.579 640.316,526.105 z" id="boundary" inkscape:connector-curvature="0" />
	<path style="fill:none;stroke:red;stroke-width:1px;stroke-linecap:butt;stroke-linejoin:miter;stroke-opacity:1" d="M 633.789,88.8421 641.947,103.526 z" id="boundary" inkscape:connector-curvature="0" />
	<path style="fill:none;stroke:red;stroke-width:1px;stroke-linecap:butt;stroke-linejoin:miter;stroke-opacity:1" d="M 633.789,212.842 633.789,229.158 z" id="boundary" inkscape:connector-curvature="0" />
	<path style="fill:none;stroke:red;stroke-width:1px;stroke-linecap:butt;stroke-linejoin:miter;stroke-opacity:1" d="M 633.789,212.842 641.947,196.526 z" id="boundary" inkscape:connector-curvature="0" />
	<path style="fill:none;stroke:red;stroke-width:1px;stroke-linecap:butt;stroke-linejoin:miter;stroke-opacity:1" d="M 633.789,229.158 633.789,245.474 z" id="boundary" inkscape:connector-curvature="0" />
	<path style="fill:none;stroke:red;stroke-width:1px;stroke-linecap:butt;stroke-linejoin:miter;stroke-opacity:1" d="M 633.789,792.053 633.789,808.368 z" id="boundary" inkscape:connector-curvature="0" />
	<path style="fill:none;stroke:red;stroke-width:1px;stroke-linecap:butt;stroke-linejoin:miter;stroke-opacity:1" d="M 633.789,792.053 650.105,783.895 z" id="boundary" inkscape:connector-curvature="0" />
	<path style="fill:none;stroke:red;stroke-width:1px;stroke-linecap:butt;stroke-linejoin:miter;stroke-opacity:1" d="M 640.316,526.105 648.474,501.632 z" id="boundary" inkscape:connector-curvature="0" />
	<path style="fill:none;stroke:red;stroke-width:1px;stroke-linecap:butt;stroke-linejoin:miter;stroke-opacity:1" d="M 641.947,103.526 641.947,119.842 z" id="boundary" inkscape:connector-curvature="0" />
	<path style="fill:none;stroke:red;stroke-width:1px;stroke-linecap:butt;stroke-linejoin:miter;stroke-opacity:1" d="M 641.947,119.842 650.105,134.526 z" id="boundary" inkscape:connector-curvature="0" />
	<path style="fill:none;stroke:red;stroke-width:1px;stroke-linecap:butt;stroke-linejoin:miter;stroke-opacity:1" d="M 641.947,180.211 641.947,196.526 z" id="boundary" inkscape:connector-curvature="0" />
	<path style="fill:none;stroke:red;stroke-width:1px;stroke-linecap:butt;stroke-linejoin:miter;stroke-opacity:1" d="M 641.947,180.211 650.105,150.842 z" id="boundary" inkscape:connector-curvature="0" />
	<path style="fill:none;stroke:red;stroke-width:1px;stroke-linecap:butt;stroke-linejoin:miter;stroke-opacity:1" d="M 648.474,501.632 656.632,485.316 z" id="boundary" inkscape:connector-curvature="0" />
	<path style="fill:none;stroke:red;stroke-width:1px;stroke-linecap:butt;stroke-linejoin:miter;stroke-opacity:1" d="M 650.105,134.526 650.105,150.842 z" id="boundary" inkscape:connector-curvature="0" />
	<path style="fill:none;stroke:red;stroke-width:1px;stroke-linecap:butt;stroke-linejoin:miter;stroke-opacity:1" d="M 650.105,783.895 663.158,772.474 z" id="boundary" inkscape:connector-curvature="0" />
	<path style="fill:none;stroke:red;stroke-width:1px;stroke-linecap:butt;stroke-linejoin:miter;stroke-opacity:1" d="M 656.632,485.316 669.684,472.263 z" id="boundary" inkscape:connector-curvature="0" />
	<path style="fill:none;stroke:red;stroke-width:1px;stroke-linecap:butt;stroke-linejoin:miter;stroke-opacity:1" d="M 663.158,772.474 671.316,756.158 z" id="boundary" inkscape:connector-curvature="0" />
	<path style="fill:none;stroke:red;stroke-width:1px;stroke-linecap:butt;stroke-linejoin:miter;stroke-opacity:1" d="M 669.684,472.263 672.947,444.526 z" id="boundary" inkscape:connector-curvature="0" />
	<path style="fill:none;stroke:red;stroke-width:1px;stroke-linecap:butt;stroke-linejoin:miter;stroke-opacity:1" d="M 671.316,756.158 674.579,734.947 z" id="boundary" inkscape:connector-curvature="0" />
	<path style="fill:none;stroke:red;stroke-width:1px;stroke-linecap:butt;stroke-linejoin:miter;stroke-opacity:1" d="M 672.947,444.526 689.263,436.368 z" id="boundary" inkscape:connector-curvature="0" />
	<path style="fill:none;stroke:red;stroke-width:1px;stroke-linecap:butt;stroke-linejoin:miter;stroke-opacity:1" d="M 674.579,734.947 682.737,710.474 z" id="boundary" inkscape:connector-curvature="0" />
	<path style="fill:none;stroke:red;stroke-width:1px;stroke-linecap:butt;stroke-linejoin:miter;stroke-opacity:1" d="M 682.737,710.474 690.895,686 z" id="boundary" inkscape:connector-curvature="0" />
	<path style="fill:none;stroke:red;stroke-width:1px;stroke-linecap:butt;stroke-linejoin:miter;stroke-opacity:1" d="M 689.263,436.368 697.421,420.053 z" id="boundary" inkscape:connector-curvature="0" />
	<path style="fill:none;stroke:red;stroke-width:1px;stroke-linecap:butt;stroke-linejoin:miter;stroke-opacity:1" d="M 690.895,686 699.053,669.684 z" id="boundary" inkscape:connector-curvature="0" />
	<path style="fill:none;stroke:red;stroke-width:1px;stroke-linecap:butt;stroke-linejoin:miter;stroke-opacity:1" d="M 697.421,420.053 710.474,407 z" id="boundary" inkscape:connector-curvature="0" />
	<path style="fill:none;stroke:red;stroke-width:1px;stroke-linecap:butt;stroke-linejoin:miter;stroke-opacity:1" d="M 699.053,669.684 707.211,653.368 z" id="boundary" inkscape:connector-curvature="0" />
	<path style="fill:none;stroke:red;stroke-width:1px;stroke-linecap:butt;stroke-linejoin:miter;stroke-opacity:1" d="M 707.211,637.053 707.211,653.368 z" id="boundary" inkscape:connector-curvature="0" />
	<path style="fill:none;stroke:red;stroke-width:1px;stroke-linecap:butt;stroke-linejoin:miter;stroke-opacity:1" d="M 707.211,637.053 715.368,620.737 z" id="boundary" inkscape:connector-curvature="0" />
	<path style="fill:none;stroke:red;stroke-width:1px;stroke-linecap:butt;stroke-linejoin:miter;stroke-opacity:1" d="M 710.474,407 726.789,407 z" id="boundary" inkscape:connector-curvature="0" />
	<path style="fill:none;stroke:red;stroke-width:1px;stroke-linecap:butt;stroke-linejoin:miter;stroke-opacity:1" d="M 715.368,620.737 728.421,609.316 z" id="boundary" inkscape:connector-curvature="0" />
	<path style="fill:none;stroke:red;stroke-width:1px;stroke-linecap:butt;stroke-linejoin:miter;stroke-opacity:1" d="M 726.789,407 743.105,407 z" id="boundary" inkscape:connector-curvature="0" />
	<path style="fill:none;stroke:red;stroke-width:1px;stroke-linecap:butt;stroke-linejoin:miter;stroke-opacity:1" d="M 728.421,609.316 736.579,593 z" id="boundary" inkscape:connector-curvature="0" />
	<path style="fill:none;stroke:red;stroke-width:1px;stroke-linecap:butt;stroke-linejoin:miter;stroke-opacity:1" d="M 736.579,593 739.842,563.632 z" id="boundary" inkscape:connector-curvature="0" />
	<path style="fill:none;stroke:red;stroke-width:1px;stroke-linecap:butt;stroke-linejoin:miter;stroke-opacity:1" d="M 739.842,514.684 739.842,531 z" id="boundary" inkscape:connector-curvature="0" />
	<path style="fill:none;stroke:red;stroke-width:1px;stroke-linecap:butt;stroke-linejoin:miter;stroke-opacity:1" d="M 739.842,514.684 748,498.368 z" id="boundary" inkscape:connector-curvature="0" />
	<path style="fill:none;stroke:red;stroke-width:1px;stroke-linecap:butt;stroke-linejoin:miter;stroke-opacity:1" d="M 739.842,531 739.842,547.316 z" id="boundary" inkscape:connector-curvature="0" />
	<path style="fill:none;stroke:red;stroke-width:1px;stroke-linecap:butt;stroke-linejoin:miter;stroke-opacity:1" d="M 739.842,547.316 739.842,563.632 z" id="boundary" inkscape:connector-curvature="0" />
	<path style="fill:none;stroke:red;stroke-width:1px;stroke-linecap:butt;stroke-linejoin:miter;stroke-opacity:1" d="M 743.105,407 756.158,416.789 z" id="boundary" inkscape:connector-curvature="0" />
	<path style="fill:none;stroke:red;stroke-width:1px;stroke-linecap:butt;stroke-linejoin:miter;stroke-opacity:1" d="M 748,498.368 756.158,473.895 z" id="boundary" inkscape:connector-curvature="0" />
	<path style="fill:none;stroke:red;stroke-width:1px;stroke-linecap:butt;stroke-linejoin:miter;stroke-opacity:1" d="M 756.158,416.789 759.421,433.105 z" id="boundary" inkscape:connector-curvature="0" />
	<path style="fill:none;stroke:red;stroke-width:1px;stroke-linecap:butt;stroke-linejoin:miter;stroke-opacity:1" d="M 756.158,473.895 764.316,449.421 z" id="boundary" inkscape:connector-curvature="0" />
	<path style="fill:none;stroke:red;stroke-width:1px;stroke-linecap:butt;stroke-linejoin:miter;stroke-opacity:1" d="M 759.421,433.105 764.316,449.421 z" id="boundary" inkscape:connector-curvature="0" />
	<circle cx="4" cy="289.526" r="4" fill="#0" id="circle0"/>
	<circle cx="12.1579" cy="240.579" r="4" fill="#0" id="circle1"/>
	<circle cx="12.1579" cy="256.895" r="4" fill="#0" id="circle2"/>
	<circle cx="12.1579" cy="273.211" r="4" fill="#0" id="circle3"/>
	<circle cx="12.1579" cy="304.211" r="4" fill="#0" id="circle4"/>
	<circle cx="12.1579" cy="320.526" r="4" fill="#0" id="circle5"/>
	<circle cx="20.3158" cy="335.211" r="4" fill="#0" id="circle6"/>
	<circle cx="20.3158" cy="351.526" r="4" fill="#0" id="circle7"/>
	<circle cx="28.4737" cy="235.684" r="4" fill="#0" id="circle8"/>
	<circle cx="28.4737" cy="366.211" r="4" fill="#0" id="circle9"/>
	<circle cx="36.6316" cy="380.895" r="4" fill="#0" id="circle10"/>
	<circle cx="38.2632" cy="397.211" r="4" fill="#0" id="circle11"/>
	<circle cx="41.5263" cy="245.474" r="4" fill="#0" id="circle12"/>
	<circle cx="44.7895" cy="413.526" r="4" fill="#0" id="circle13"/>
	<circle cx="44.7895" cy="429.842" r="4" fill="#0" id="circle14"/>
	<circle cx="52.9474" cy="444.526" r="4" fill="#0" id="circle15"/>
	<circle cx="54.5789" cy="256.895" r="4" fill="#0" id="circle16"/>
	<circle cx="61.1053" cy="459.211" r="4" fill="#0" id="circle17"/>
	<circle cx="66" cy="269.947" r="4" fill="#0" id="circle18"/>
	<circle cx="70.8947" cy="286.263" r="4" fill="#0" id="circle19"/>
	<circle cx="72.5263" cy="472.263" r="4" fill="#0" id="circle20"/>
	<circle cx="77.4211" cy="488.579" r="4" fill="#0" id="circle21"/>
	<circle cx="77.4211" cy="504.895" r="4" fill="#0" id="circle22"/>
	<circle cx="79.0526" cy="300.947" r="4" fill="#0" id="circle23"/>
	<circle cx="79.0526" cy="317.263" r="4" fill="#0" id="circle24"/>
	<circle cx="87.2105" cy="331.947" r="4" fill="#0" id="circle25"/>
	<circle cx="87.2105" cy="517.947" r="4" fill="#0" id="circle26"/>
	<circle cx="93.7368" cy="534.263" r="4" fill="#0" id="circle27"/>
	<circle cx="95.3684" cy="346.632" r="4" fill="#0" id="circle28"/>
	<circle cx="101.895" cy="548.947" r="4" fill="#0" id="circle29"/>
	<circle cx="103.526" cy="361.316" r="4" fill="#0" id="circle30"/>
	<circle cx="110.053" cy="563.632" r="4" fill="#0" id="circle31"/>
	<circle cx="110.053" cy="579.947" r="4" fill="#0" id="circle32"/>
	<circle cx="110.053" cy="596.263" r="4" fill="#0" id="circle33"/>
	<circle cx="111.684" cy="376" r="4" fill="#0" id="circle34"/>
	<circle cx="114.947" cy="392.316" r="4" fill="#0" id="circle35"/>
	<circle cx="118.211" cy="610.947" r="4" fill="#0" id="circle36"/>
	<circle cx="121.474" cy="627.263" r="4" fill="#0" id="circle37"/>
	<circle cx="123.105" cy="407" r="4" fill="#0" id="circle38"/>
	<circle cx="126.368" cy="643.579" r="4" fill="#0" id="circle39"/>
	<circle cx="126.368" cy="659.895" r="4" fill="#0" id="circle40"/>
	<circle cx="126.368" cy="676.211" r="4" fill="#0" id="circle41"/>
	<circle cx="126.368" cy="692.526" r="4" fill="#0" id="circle42"/>
	<circle cx="126.368" cy="708.842" r="4" fill="#0" id="circle43"/>
	<circle cx="126.368" cy="725.158" r="4" fill="#0" id="circle44"/>
	<circle cx="126.368" cy="741.474" r="4" fill="#0" id="circle45"/>
	<circle cx="126.368" cy="757.789" r="4" fill="#0" id="circle46"/>
	<circle cx="126.368" cy="774.105" r="4" fill="#0" id="circle47"/>
	<circle cx="126.368" cy="790.421" r="4" fill="#0" id="circle48"/>
	<circle cx="134.526" cy="420.053" r="4" fill="#0" id="circle49"/>
	<circle cx="134.526" cy="805.105" r="4" fill="#0" id="circle50"/>
	<circle cx="136.158" cy="821.421" r="4" fill="#0" id="circle51"/>
	<circle cx="142.684" cy="837.737" r="4" fill="#0" id="circle52"/>
	<circle cx="144.316" cy="854.053" r="4" fill="#0" id="circle53"/>
	<circle cx="147.579" cy="431.474" r="4" fill="#0" id="circle54"/>
	<circle cx="150.842" cy="870.368" r="4" fill="#0" id="circle55"/>
	<circle cx="150.842" cy="886.684" r="4" fill="#0" id="circle56"/>
	<circle cx="150.842" cy="966.632" r="4" fill="#0" id="circle57"/>
	<circle cx="150.842" cy="982.947" r="4" fill="#0" id="circle58"/>
	<circle cx="152.474" cy="447.789" r="4" fill="#0" id="circle59"/>
	<circle cx="159" cy="901.368" r="4" fill="#0" id="circle60"/>
	<circle cx="159" cy="917.684" r="4" fill="#0" id="circle61"/>
	<circle cx="159" cy="950.316" r="4" fill="#0" id="circle62"/>
	<circle cx="160.632" cy="996" r="4" fill="#0" id="circle63"/>
	<circle cx="167.158" cy="455.947" r="4" fill="#0" id="circle64"/>
	<circle cx="167.158" cy="932.368" r="4" fill="#0" id="circle65"/>
	<circle cx="175.316" cy="101.895" r="4" fill="#0" id="circle66"/>
	<circle cx="175.316" cy="118.211" r="4" fill="#0" id="circle67"/>
	<circle cx="175.316" cy="134.526" r="4" fill="#0" id="circle68"/>
	<circle cx="175.316" cy="150.842" r="4" fill="#0" id="circle69"/>
	<circle cx="175.316" cy="167.158" r="4" fill="#0" id="circle70"/>
	<circle cx="175.316" cy="183.474" r="4" fill="#0" id="circle71"/>
	<circle cx="175.316" cy="199.789" r="4" fill="#0" id="circle72"/>
	<circle cx="175.316" cy="305.842" r="4" fill="#0" id="circle73"/>
	<circle cx="175.316" cy="322.158" r="4" fill="#0" id="circle74"/>
	<circle cx="175.316" cy="338.474" r="4" fill="#0" id="circle75"/>
	<circle cx="176.947" cy="996" r="4" fill="#0" id="circle76"/>
	<circle cx="180.211" cy="465.737" r="4" fill="#0" id="circle77"/>
	<circle cx="183.474" cy="85.5789" r="4" fill="#0" id="circle78"/>
	<circle cx="183.474" cy="214.474" r="4" fill="#0" id="circle79"/>
	<circle cx="183.474" cy="230.789" r="4" fill="#0" id="circle80"/>
	<circle cx="183.474" cy="247.105" r="4" fill="#0" id="circle81"/>
	<circle cx="183.474" cy="263.421" r="4" fill="#0" id="circle82"/>
	<circle cx="183.474" cy="279.737" r="4" fill="#0" id="circle83"/>
	<circle cx="183.474" cy="353.158" r="4" fill="#0" id="circle84"/>
	<circle cx="183.474" cy="369.474" r="4" fill="#0" id="circle85"/>
	<circle cx="183.474" cy="385.789" r="4" fill="#0" id="circle86"/>
	<circle cx="183.474" cy="402.105" r="4" fill="#0" id="circle87"/>
	<circle cx="191.632" cy="416.789" r="4" fill="#0" id="circle88"/>
	<circle cx="191.632" cy="433.105" r="4" fill="#0" id="circle89"/>
	<circle cx="193.263" cy="996" r="4" fill="#0" id="circle90"/>
	<circle cx="196.526" cy="72.5263" r="4" fill="#0" id="circle91"/>
	<circle cx="196.526" cy="472.263" r="4" fill="#0" id="circle92"/>
	<circle cx="199.789" cy="447.789" r="4" fill="#0" id="circle93"/>
	<circle cx="209.579" cy="59.4737" r="4" fill="#0" id="circle94"/>
	<circle cx="209.579" cy="996" r="4" fill="#0" id="circle95"/>
	<circle cx="222.632" cy="49.6842" r="4" fill="#0" id="circle96"/>
	<circle cx="225.895" cy="996" r="4" fill="#0" id="circle97"/>
	<circle cx="234.053" cy="62.7368" r="4" fill="#0" id="circle98"/>
	<circle cx="242.211" cy="996" r="4" fill="#0" id="circle99"/>
	<circle cx="247.105" cy="74.1579" r="4" fill="#0" id="circle100"/>
	<circle cx="250.368" cy="90.4737" r="4" fill="#0" id="circle101"/>
	<circle cx="250.368" cy="106.789" r="4" fill="#0" id="circle102"/>
	<circle cx="253.632" cy="123.105" r="4" fill="#0" id="circle103"/>
	<circle cx="258.526" cy="139.421" r="4" fill="#0" id="circle104"/>
	<circle cx="258.526" cy="155.737" r="4" fill="#0" id="circle105"/>
	<circle cx="258.526" cy="172.053" r="4" fill="#0" id="circle106"/>
	<circle cx="258.526" cy="188.368" r="4" fill="#0" id="circle107"/>
	<circle cx="258.526" cy="204.684" r="4" fill="#0" id="circle108"/>
	<circle cx="258.526" cy="221" r="4" fill="#0" id="circle109"/>
	<circle cx="258.526" cy="237.316" r="4" fill="#0" id="circle110"/>
	<circle cx="258.526" cy="996" r="4" fill="#0" id="circle111"/>
	<circle cx="261.789" cy="253.632" r="4" fill="#0" id="circle112"/>
	<circle cx="266.684" cy="269.947" r="4" fill="#0" id="circle113"/>
	<circle cx="266.684" cy="286.263" r="4" fill="#0" id="circle114"/>
	<circle cx="269.947" cy="302.579" r="4" fill="#0" id="circle115"/>
	<circle cx="274.842" cy="318.895" r="4" fill="#0" id="circle116"/>
	<circle cx="274.842" cy="996" r="4" fill="#0" id="circle117"/>
	<circle cx="278.105" cy="335.211" r="4" fill="#0" id="circle118"/>
	<circle cx="286.263" cy="349.895" r="4" fill="#0" id="circle119"/>
	<circle cx="291.158" cy="366.211" r="4" fill="#0" id="circle120"/>
	<circle cx="291.158" cy="996" r="4" fill="#0" id="circle121"/>
	<circle cx="304.211" cy="376" r="4" fill="#0" id="circle122"/>
	<circle cx="307.474" cy="996" r="4" fill="#0" id="circle123"/>
	<circle cx="320.526" cy="382.526" r="4" fill="#0" id="circle124"/>
	<circle cx="323.789" cy="996" r="4" fill="#0" id="circle125"/>
	<circle cx="330.316" cy="362.947" r="4" fill="#0" id="circle126"/>
	<circle cx="338.474" cy="346.632" r="4" fill="#0" id="circle127"/>
	<circle cx="340.105" cy="996" r="4" fill="#0" id="circle128"/>
	<circle cx="346.632" cy="248.737" r="4" fill="#0" id="circle129"/>
	<circle cx="346.632" cy="265.053" r="4" fill="#0" id="circle130"/>
	<circle cx="346.632" cy="281.368" r="4" fill="#0" id="circle131"/>
	<circle cx="346.632" cy="297.684" r="4" fill="#0" id="circle132"/>
	<circle cx="346.632" cy="314" r="4" fill="#0" id="circle133"/>
	<circle cx="346.632" cy="330.316" r="4" fill="#0" id="circle134"/>
	<circle cx="354.789" cy="216.105" r="4" fill="#0" id="circle135"/>
	<circle cx="354.789" cy="232.421" r="4" fill="#0" id="circle136"/>
	<circle cx="356.421" cy="996" r="4" fill="#0" id="circle137"/>
	<circle cx="362.947" cy="199.789" r="4" fill="#0" id="circle138"/>
	<circle cx="371.105" cy="175.316" r="4" fill="#0" id="circle139"/>
	<circle cx="372.737" cy="996" r="4" fill="#0" id="circle140"/>
	<circle cx="379.263" cy="134.526" r="4" fill="#0" id="circle141"/>
	<circle cx="379.263" cy="150.842" r="4" fill="#0" id="circle142"/>
	<circle cx="387.421" cy="61.1053" r="4" fill="#0" id="circle143"/>
	<circle cx="387.421" cy="77.4211" r="4" fill="#0" id="circle144"/>
	<circle cx="387.421" cy="93.7368" r="4" fill="#0" id="circle145"/>
	<circle cx="387.421" cy="110.053" r="4" fill="#0" id="circle146"/>
	<circle cx="389.053" cy="996" r="4" fill="#0" id="circle147"/>
	<circle cx="395.579" cy="44.7895" r="4" fill="#0" id="circle148"/>
	<circle cx="405.368" cy="996" r="4" fill="#0" id="circle149"/>
	<circle cx="408.632" cy="31.7368" r="4" fill="#0" id="circle150"/>
	<circle cx="421.684" cy="996" r="4" fill="#0" id="circle151"/>
	<circle cx="424.947" cy="23.5789" r="4" fill="#0" id="circle152"/>
	<circle cx="429.842" cy="335.211" r="4" fill="#0" id="circle153"/>
	<circle cx="429.842" cy="351.526" r="4" fill="#0" id="circle154"/>
	<circle cx="429.842" cy="367.842" r="4" fill="#0" id="circle155"/>
	<circle cx="438" cy="302.579" r="4" fill="#0" id="circle156"/>
	<circle cx="438" cy="318.895" r="4" fill="#0" id="circle157"/>
	<circle cx="438" cy="382.526" r="4" fill="#0" id="circle158"/>
	<circle cx="438" cy="398.842" r="4" fill="#0" id="circle159"/>
	<circle cx="438" cy="415.158" r="4" fill="#0" id="circle160"/>
	<circle cx="438" cy="996" r="4" fill="#0" id="circle161"/>
	<circle cx="439.632" cy="15.4211" r="4" fill="#0" id="circle162"/>
	<circle cx="446.158" cy="269.947" r="4" fill="#0" id="circle163"/>
	<circle cx="446.158" cy="286.263" r="4" fill="#0" id="circle164"/>
	<circle cx="452.684" cy="4" r="4" fill="#0" id="circle165"/>
	<circle cx="452.684" cy="407" r="4" fill="#0" id="circle166"/>
	<circle cx="454.316" cy="229.158" r="4" fill="#0" id="circle167"/>
	<circle cx="454.316" cy="245.474" r="4" fill="#0" id="circle168"/>
	<circle cx="454.316" cy="996" r="4" fill="#0" id="circle169"/>
	<circle cx="462.474" cy="17.0526" r="4" fill="#0" id="circle170"/>
	<circle cx="462.474" cy="155.737" r="4" fill="#0" id="circle171"/>
	<circle cx="462.474" cy="172.053" r="4" fill="#0" id="circle172"/>
	<circle cx="462.474" cy="188.368" r="4" fill="#0" id="circle173"/>
	<circle cx="462.474" cy="204.684" r="4" fill="#0" id="circle174"/>
	<circle cx="467.368" cy="398.842" r="4" fill="#0" id="circle175"/>
	<circle cx="470.632" cy="31.7368" r="4" fill="#0" id="circle176"/>
	<circle cx="470.632" cy="123.105" r="4" fill="#0" id="circle177"/>
	<circle cx="470.632" cy="139.421" r="4" fill="#0" id="circle178"/>
	<circle cx="470.632" cy="996" r="4" fill="#0" id="circle179"/>
	<circle cx="478.789" cy="46.4211" r="4" fill="#0" id="circle180"/>
	<circle cx="478.789" cy="82.3158" r="4" fill="#0" id="circle181"/>
	<circle cx="478.789" cy="98.6316" r="4" fill="#0" id="circle182"/>
	<circle cx="478.789" cy="385.789" r="4" fill="#0" id="circle183"/>
	<circle cx="486.947" cy="61.1053" r="4" fill="#0" id="circle184"/>
	<circle cx="486.947" cy="996" r="4" fill="#0" id="circle185"/>
	<circle cx="491.842" cy="374.368" r="4" fill="#0" id="circle186"/>
	<circle cx="493.474" cy="346.632" r="4" fill="#0" id="circle187"/>
	<circle cx="500" cy="984.579" r="4" fill="#0" id="circle188"/>
	<circle cx="501.632" cy="322.158" r="4" fill="#0" id="circle189"/>
	<circle cx="509.789" cy="305.842" r="4" fill="#0" id="circle190"/>
	<circle cx="516.316" cy="976.421" r="4" fill="#0" id="circle191"/>
	<circle cx="517.947" cy="289.526" r="4" fill="#0" id="circle192"/>
	<circle cx="526.105" cy="273.211" r="4" fill="#0" id="circle193"/>
	<circle cx="527.737" cy="963.368" r="4" fill="#0" id="circle194"/>
	<circle cx="534.263" cy="240.579" r="4" fill="#0" id="circle195"/>
	<circle cx="534.263" cy="256.895" r="4" fill="#0" id="circle196"/>
	<circle cx="540.789" cy="951.947" r="4" fill="#0" id="circle197"/>
	<circle cx="542.421" cy="207.947" r="4" fill="#0" id="circle198"/>
	<circle cx="542.421" cy="224.263" r="4" fill="#0" id="circle199"/>
	<circle cx="550.579" cy="183.474" r="4" fill="#0" id="circle200"/>
	<circle cx="552.211" cy="938.895" r="4" fill="#0" id="circle201"/>
	<circle cx="558.737" cy="167.158" r="4" fill="#0" id="circle202"/>
	<circle cx="565.263" cy="927.474" r="4" fill="#0" id="circle203"/>
	<circle cx="566.895" cy="134.526" r="4" fill="#0" id="circle204"/>
	<circle cx="566.895" cy="150.842" r="4" fill="#0" id="circle205"/>
	<circle cx="568.526" cy="441.263" r="4" fill="#0" id="circle206"/>
	<circle cx="568.526" cy="457.579" r="4" fill="#0" id="circle207"/>
	<circle cx="568.526" cy="473.895" r="4" fill="#0" id="circle208"/>
	<circle cx="568.526" cy="490.211" r="4" fill="#0" id="circle209"/>
	<circle cx="568.526" cy="506.526" r="4" fill="#0" id="circle210"/>
	<circle cx="568.526" cy="522.842" r="4" fill="#0" id="circle211"/>
	<circle cx="568.526" cy="539.158" r="4" fill="#0" id="circle212"/>
	<circle cx="568.526" cy="555.474" r="4" fill="#0" id="circle213"/>
	<circle cx="568.526" cy="571.789" r="4" fill="#0" id="circle214"/>
	<circle cx="568.526" cy="588.105" r="4" fill="#0" id="circle215"/>
	<circle cx="568.526" cy="604.421" r="4" fill="#0" id="circle216"/>
	<circle cx="571.789" cy="620.737" r="4" fill="#0" id="circle217"/>
	<circle cx="573.421" cy="911.158" r="4" fill="#0" id="circle218"/>
	<circle cx="575.053" cy="118.211" r="4" fill="#0" id="circle219"/>
	<circle cx="576.684" cy="408.632" r="4" fill="#0" id="circle220"/>
	<circle cx="576.684" cy="424.947" r="4" fill="#0" id="circle221"/>
	<circle cx="579.947" cy="635.421" r="4" fill="#0" id="circle222"/>
	<circle cx="581.579" cy="894.842" r="4" fill="#0" id="circle223"/>
	<circle cx="583.211" cy="101.895" r="4" fill="#0" id="circle224"/>
	<circle cx="584.842" cy="392.316" r="4" fill="#0" id="circle225"/>
	<circle cx="593" cy="367.842" r="4" fill="#0" id="circle226"/>
	<circle cx="593" cy="873.632" r="4" fill="#0" id="circle227"/>
	<circle cx="596.263" cy="627.263" r="4" fill="#0" id="circle228"/>
	<circle cx="599.526" cy="93.7368" r="4" fill="#0" id="circle229"/>
	<circle cx="601.158" cy="327.053" r="4" fill="#0" id="circle230"/>
	<circle cx="601.158" cy="343.368" r="4" fill="#0" id="circle231"/>
	<circle cx="601.158" cy="857.316" r="4" fill="#0" id="circle232"/>
	<circle cx="609.316" cy="302.579" r="4" fill="#0" id="circle233"/>
	<circle cx="609.316" cy="614.211" r="4" fill="#0" id="circle234"/>
	<circle cx="609.316" cy="841" r="4" fill="#0" id="circle235"/>
	<circle cx="615.842" cy="85.5789" r="4" fill="#0" id="circle236"/>
	<circle cx="617.474" cy="286.263" r="4" fill="#0" id="circle237"/>
	<circle cx="617.474" cy="597.895" r="4" fill="#0" id="circle238"/>
	<circle cx="622.368" cy="829.579" r="4" fill="#0" id="circle239"/>
	<circle cx="625.632" cy="269.947" r="4" fill="#0" id="circle240"/>
	<circle cx="625.632" cy="581.579" r="4" fill="#0" id="circle241"/>
	<circle cx="628.895" cy="72.5263" r="4" fill="#0" id="circle242"/>
	<circle cx="632.158" cy="550.579" r="4" fill="#0" id="circle243"/>
	<circle cx="633.789" cy="88.8421" r="4" fill="#0" id="circle244"/>
	<circle cx="633.789" cy="212.842" r="4" fill="#0" id="circle245"/>
	<circle cx="633.789" cy="229.158" r="4" fill="#0" id="circle246"/>
	<circle cx="633.789" cy="245.474" r="4" fill="#0" id="circle247"/>
	<circle cx="633.789" cy="792.053" r="4" fill="#0" id="circle248"/>
	<circle cx="633.789" cy="808.368" r="4" fill="#0" id="circle249"/>
	<circle cx="640.316" cy="526.105" r="4" fill="#0" id="circle250"/>
	<circle cx="641.947" cy="103.526" r="4" fill="#0" id="circle251"/>
	<circle cx="641.947" cy="119.842" r="4" fill="#0" id="circle252"/>
	<circle cx="641.947" cy="180.211" r="4" fill="#0" id="circle253"/>
	<circle cx="641.947" cy="196.526" r="4" fill="#0" id="circle254"/>
	<circle cx="648.474" cy="501.632" r="4" fill="#0" id="circle255"/>
	<circle cx="650.105" cy="134.526" r="4" fill="#0" id="circle256"/>
	<circle cx="650.105" cy="150.842" r="4" fill="#0" id="circle257"/>
	<circle cx="650.105" cy="783.895" r="4" fill="#0" id="circle258"/>
	<circle cx="656.632" cy="485.316" r="4" fill="#0" id="circle259"/>
	<circle cx="663.158" cy="772.474" r="4" fill="#0" id="circle260"/>
	<circle cx="669.684" cy="472.263" r="4" fill="#0" id="circle261"/>
	<circle cx="671.316" cy="756.158" r="4" fill="#0" id="circle262"/>
	<circle cx="672.947" cy="444.526" r="4" fill="#0" id="circle263"/>
	<circle cx="674.579" cy="734.947" r="4" fill="#0" id="circle264"/>
	<circle cx="682.737" cy="710.474" r="4" fill="#0" id="circle265"/>
	<circle cx="689.263" cy="436.368" r="4" fill="#0" id="circle266"/>
	<circle cx="690.895" cy="686" r="4" fill="#0" id="circle267"/>
	<circle cx="697.421" cy="420.053" r="4" fill="#0" id="circle268"/>
	<circle cx="699.053" cy="669.684" r="4" fill="#0" id="circle269"/>
	<circle cx="707.211" cy="637.053" r="4" fill="#0" id="circle270"/>
	<circle cx="707.211" cy="653.368" r="4" fill="#0" id="circle271"/>
	<circle cx="710.474" cy="407" r="4" fill="#0" id="circle272"/>
	<circle cx="715.368" cy="620.737" r="4" fill="#0" id="circle273"/>
	<circle cx="726.789" cy="407" r="4" fill="#0" id="circle274"/>
	<circle cx="728.421" cy="609.316" r="4" fill="#0" id="circle275"/>
	<circle cx="736.579" cy="593" r="4" fill="#0" id="circle276"/>
	<circle cx="739.842" cy="514.684" r="4" fill="#0" id="circle277"/>
	<circle cx="739.842" cy="531" r="4" fill="#0" id="circle278"/>
	<circle cx="739.842" cy="547.316" r="4" fill="#0" id="circle279"/>
	<circle cx="739.842" cy="563.632" r="4" fill="#0" id="circle280"/>
	<circle cx="743.105" cy="407" r="4" fill="#0" id="circle281"/>
	<circle cx="748" cy="498.368" r="4" fill="#0" id="circle282"/>
	<circle cx="756.158" cy="416.789" r="4" fill="#0" id="circle283"/>
	<circle cx="756.158" cy="473.895" r="4" fill="#0" id="circle284"/>
	<circle cx="759.421" cy="433.105" r="4" fill="#0" id="circle285"/>
	<circle cx="764.316" cy="449.421" r="4" fill="#0" id="circle286"/>
	</g>
</svg>