<?xml version="1.0" encoding="UTF-8" standalone="no"?>
<!-- Created with CurveBenchmark -->
<svg
	xmlns:dc="http://purl.org/dc/elements/1.1/"
	xmlns:cc="http://creativecommons.org/ns#"
	xmlns:rdf="http://www.w3.org/1999/02/22-rdf-syntax-ns#"
	xmlns:svg="http://www.w3.org/2000/svg"
	xmlns="http://www.w3.org/2000/svg"
	xmlns:sodipodi="http://sodipodi.sourceforge.net/DTD/sodipodi-0.dtd"
	xmlns:inkscape="http://www.inkscape.org/namespaces/inkscape"
	width="1000"
	height="1000"
	id="svg2"
	version="1.1"
	sodipodi:docname="manifold/fitconnect-bird24.png.txt">
<defs
	id="defs4" />
<metadata
	id="metadata7">
	<rdf:RDF>
		<cc:Work
			rdf:about="">
			<dc:format>image/svg+xml</dc:format>
			<dc:type
				rdf:resource="http://purl.org/dc/dcmitype/StillImage" />
			<dc:title></dc:title>
		</cc:Work>
	</rdf:RDF>
</metadata>
<g
	inkscape:label="Layer 1"
	inkscape:groupmode="layer"
	id="layer1">
	<path style="fill:none;stroke:red;stroke-width:1px;stroke-linecap:butt;stroke-linejoin:miter;stroke-opacity:1" d="M 115.003,75.6601 172.612,282.21 z" id="boundary" inkscape:connector-curvature="0" />
	<path style="fill:none;stroke:red;stroke-width:1px;stroke-linecap:butt;stroke-linejoin:miter;stroke-opacity:1" d="M 172.612,282.21 602.572,376.351 z" id="boundary" inkscape:connector-curvature="0" />
	<path style="fill:none;stroke:red;stroke-width:1px;stroke-linecap:butt;stroke-linejoin:miter;stroke-opacity:1" d="M 376.351,973.518 467.683,851.275 z" id="boundary" inkscape:connector-curvature="0" />
	<path style="fill:none;stroke:red;stroke-width:1px;stroke-linecap:butt;stroke-linejoin:miter;stroke-opacity:1" d="M 467.683,851.275 719.195,588.521 z" id="boundary" inkscape:connector-curvature="0" />
	<path style="fill:none;stroke:red;stroke-width:1px;stroke-linecap:butt;stroke-linejoin:miter;stroke-opacity:1" d="M 602.572,376.351 719.195,588.521 z" id="boundary" inkscape:connector-curvature="0" />
	<circle cx="4" cy="64.4193" r="4" fill="#0" id="circle0"/>
	<circle cx="15.2408" cy="53.1785" r="4" fill="#0" id="circle1"/>
	<circle cx="18.051" cy="68.6346" r="4" fill="#0" id="circle2"/>
	<circle cx="29.2918" cy="53.1785" r="4" fill="#0" id="circle3"/>
	<circle cx="32.102" cy="68.6346" r="4" fill="#0" id="circle4"/>
	<circle cx="41.9377" cy="46.153" r="4" fill="#0" id="circle5"/>
	<circle cx="46.153" cy="68.6346" r="4" fill="#0" id="circle6"/>
	<circle cx="55.9887" cy="46.153" r="4" fill="#0" id="circle7"/>
	<circle cx="60.204" cy="68.6346" r="4" fill="#0" id="circle8"/>
	<circle cx="68.6346" cy="39.1275" r="4" fill="#0" id="circle9"/>
	<circle cx="74.255" cy="68.6346" r="4" fill="#0" id="circle10"/>
	<circle cx="82.6856" cy="39.1275" r="4" fill="#0" id="circle11"/>
	<circle cx="88.3059" cy="68.6346" r="4" fill="#0" id="circle12"/>
	<circle cx="95.3314" cy="32.102" r="4" fill="#0" id="circle13"/>
	<circle cx="102.357" cy="68.6346" r="4" fill="#0" id="circle14"/>
	<circle cx="109.382" cy="29.2918" r="4" fill="#0" id="circle15"/>
	<circle cx="115.003" cy="75.6601" r="4" fill="#0" id="circle16"/>
	<circle cx="120.623" cy="18.051" r="4" fill="#0" id="circle17"/>
	<circle cx="129.054" cy="75.6601" r="4" fill="#0" id="circle18"/>
	<circle cx="131.864" cy="6.8102" r="4" fill="#0" id="circle19"/>
	<circle cx="141.7" cy="82.6856" r="4" fill="#0" id="circle20"/>
	<circle cx="145.915" cy="4" r="4" fill="#0" id="circle21"/>
	<circle cx="154.346" cy="89.711" r="4" fill="#0" id="circle22"/>
	<circle cx="159.966" cy="4" r="4" fill="#0" id="circle23"/>
	<circle cx="168.397" cy="89.711" r="4" fill="#0" id="circle24"/>
	<circle cx="172.612" cy="240.057" r="4" fill="#0" id="circle25"/>
	<circle cx="172.612" cy="254.108" r="4" fill="#0" id="circle26"/>
	<circle cx="172.612" cy="268.159" r="4" fill="#0" id="circle27"/>
	<circle cx="172.612" cy="282.21" r="4" fill="#0" id="circle28"/>
	<circle cx="174.017" cy="4" r="4" fill="#0" id="circle29"/>
	<circle cx="179.637" cy="226.006" r="4" fill="#0" id="circle30"/>
	<circle cx="179.637" cy="294.856" r="4" fill="#0" id="circle31"/>
	<circle cx="179.637" cy="308.907" r="4" fill="#0" id="circle32"/>
	<circle cx="179.637" cy="322.958" r="4" fill="#0" id="circle33"/>
	<circle cx="182.448" cy="93.9263" r="4" fill="#0" id="circle34"/>
	<circle cx="186.663" cy="211.955" r="4" fill="#0" id="circle35"/>
	<circle cx="186.663" cy="335.603" r="4" fill="#0" id="circle36"/>
	<circle cx="186.663" cy="349.654" r="4" fill="#0" id="circle37"/>
	<circle cx="188.068" cy="4" r="4" fill="#0" id="circle38"/>
	<circle cx="193.688" cy="103.762" r="4" fill="#0" id="circle39"/>
	<circle cx="193.688" cy="190.878" r="4" fill="#0" id="circle40"/>
	<circle cx="193.688" cy="362.3" r="4" fill="#0" id="circle41"/>
	<circle cx="196.499" cy="376.351" r="4" fill="#0" id="circle42"/>
	<circle cx="197.904" cy="117.813" r="4" fill="#0" id="circle43"/>
	<circle cx="200.714" cy="131.864" r="4" fill="#0" id="circle44"/>
	<circle cx="200.714" cy="145.915" r="4" fill="#0" id="circle45"/>
	<circle cx="200.714" cy="159.966" r="4" fill="#0" id="circle46"/>
	<circle cx="200.714" cy="174.017" r="4" fill="#0" id="circle47"/>
	<circle cx="202.119" cy="8.2153" r="4" fill="#0" id="circle48"/>
	<circle cx="207.739" cy="384.782" r="4" fill="#0" id="circle49"/>
	<circle cx="211.955" cy="398.833" r="4" fill="#0" id="circle50"/>
	<circle cx="214.765" cy="15.2408" r="4" fill="#0" id="circle51"/>
	<circle cx="218.98" cy="411.479" r="4" fill="#0" id="circle52"/>
	<circle cx="221.79" cy="27.8867" r="4" fill="#0" id="circle53"/>
	<circle cx="221.79" cy="425.53" r="4" fill="#0" id="circle54"/>
	<circle cx="228.816" cy="438.176" r="4" fill="#0" id="circle55"/>
	<circle cx="230.221" cy="39.1275" r="4" fill="#0" id="circle56"/>
	<circle cx="230.221" cy="223.195" r="4" fill="#0" id="circle57"/>
	<circle cx="230.221" cy="237.246" r="4" fill="#0" id="circle58"/>
	<circle cx="230.221" cy="251.297" r="4" fill="#0" id="circle59"/>
	<circle cx="235.841" cy="450.822" r="4" fill="#0" id="circle60"/>
	<circle cx="237.246" cy="51.7734" r="4" fill="#0" id="circle61"/>
	<circle cx="237.246" cy="65.8244" r="4" fill="#0" id="circle62"/>
	<circle cx="237.246" cy="79.8754" r="4" fill="#0" id="circle63"/>
	<circle cx="237.246" cy="202.119" r="4" fill="#0" id="circle64"/>
	<circle cx="237.246" cy="263.943" r="4" fill="#0" id="circle65"/>
	<circle cx="237.246" cy="277.994" r="4" fill="#0" id="circle66"/>
	<circle cx="237.246" cy="292.045" r="4" fill="#0" id="circle67"/>
	<circle cx="244.272" cy="92.5212" r="4" fill="#0" id="circle68"/>
	<circle cx="244.272" cy="106.572" r="4" fill="#0" id="circle69"/>
	<circle cx="244.272" cy="166.992" r="4" fill="#0" id="circle70"/>
	<circle cx="244.272" cy="181.042" r="4" fill="#0" id="circle71"/>
	<circle cx="244.272" cy="304.691" r="4" fill="#0" id="circle72"/>
	<circle cx="247.082" cy="460.657" r="4" fill="#0" id="circle73"/>
	<circle cx="249.892" cy="120.623" r="4" fill="#0" id="circle74"/>
	<circle cx="251.297" cy="134.674" r="4" fill="#0" id="circle75"/>
	<circle cx="251.297" cy="148.725" r="4" fill="#0" id="circle76"/>
	<circle cx="251.297" cy="317.337" r="4" fill="#0" id="circle77"/>
	<circle cx="258.323" cy="329.983" r="4" fill="#0" id="circle78"/>
	<circle cx="259.728" cy="467.683" r="4" fill="#0" id="circle79"/>
	<circle cx="266.754" cy="341.224" r="4" fill="#0" id="circle80"/>
	<circle cx="266.754" cy="480.329" r="4" fill="#0" id="circle81"/>
	<circle cx="277.994" cy="351.059" r="4" fill="#0" id="circle82"/>
	<circle cx="277.994" cy="490.164" r="4" fill="#0" id="circle83"/>
	<circle cx="290.64" cy="497.19" r="4" fill="#0" id="circle84"/>
	<circle cx="292.045" cy="355.275" r="4" fill="#0" id="circle85"/>
	<circle cx="300.476" cy="508.431" r="4" fill="#0" id="circle86"/>
	<circle cx="304.691" cy="348.249" r="4" fill="#0" id="circle87"/>
	<circle cx="311.717" cy="518.266" r="4" fill="#0" id="circle88"/>
	<circle cx="318.742" cy="348.249" r="4" fill="#0" id="circle89"/>
	<circle cx="321.552" cy="529.507" r="4" fill="#0" id="circle90"/>
	<circle cx="331.388" cy="341.224" r="4" fill="#0" id="circle91"/>
	<circle cx="335.603" cy="535.127" r="4" fill="#0" id="circle92"/>
	<circle cx="344.034" cy="334.198" r="4" fill="#0" id="circle93"/>
	<circle cx="345.439" cy="546.368" r="4" fill="#0" id="circle94"/>
	<circle cx="358.085" cy="334.198" r="4" fill="#0" id="circle95"/>
	<circle cx="359.49" cy="551.989" r="4" fill="#0" id="circle96"/>
	<circle cx="362.3" cy="977.734" r="4" fill="#0" id="circle97"/>
	<circle cx="370.731" cy="988.975" r="4" fill="#0" id="circle98"/>
	<circle cx="372.136" cy="328.578" r="4" fill="#0" id="circle99"/>
	<circle cx="372.136" cy="559.014" r="4" fill="#0" id="circle100"/>
	<circle cx="376.351" cy="973.518" r="4" fill="#0" id="circle101"/>
	<circle cx="384.782" cy="988.975" r="4" fill="#0" id="circle102"/>
	<circle cx="386.187" cy="327.173" r="4" fill="#0" id="circle103"/>
	<circle cx="386.187" cy="560.419" r="4" fill="#0" id="circle104"/>
	<circle cx="390.402" cy="973.518" r="4" fill="#0" id="circle105"/>
	<circle cx="398.833" cy="991.785" r="4" fill="#0" id="circle106"/>
	<circle cx="400.238" cy="327.173" r="4" fill="#0" id="circle107"/>
	<circle cx="400.238" cy="564.635" r="4" fill="#0" id="circle108"/>
	<circle cx="403.048" cy="966.493" r="4" fill="#0" id="circle109"/>
	<circle cx="412.884" cy="571.66" r="4" fill="#0" id="circle110"/>
	<circle cx="412.884" cy="996" r="4" fill="#0" id="circle111"/>
	<circle cx="414.289" cy="327.173" r="4" fill="#0" id="circle112"/>
	<circle cx="417.099" cy="966.493" r="4" fill="#0" id="circle113"/>
	<circle cx="426.935" cy="577.28" r="4" fill="#0" id="circle114"/>
	<circle cx="426.935" cy="996" r="4" fill="#0" id="circle115"/>
	<circle cx="428.34" cy="327.173" r="4" fill="#0" id="circle116"/>
	<circle cx="429.745" cy="959.467" r="4" fill="#0" id="circle117"/>
	<circle cx="440.986" cy="581.496" r="4" fill="#0" id="circle118"/>
	<circle cx="440.986" cy="996" r="4" fill="#0" id="circle119"/>
	<circle cx="442.391" cy="327.173" r="4" fill="#0" id="circle120"/>
	<circle cx="443.796" cy="952.442" r="4" fill="#0" id="circle121"/>
	<circle cx="450.822" cy="938.391" r="4" fill="#0" id="circle122"/>
	<circle cx="453.632" cy="588.521" r="4" fill="#0" id="circle123"/>
	<circle cx="453.632" cy="921.53" r="4" fill="#0" id="circle124"/>
	<circle cx="453.632" cy="988.975" r="4" fill="#0" id="circle125"/>
	<circle cx="456.442" cy="327.173" r="4" fill="#0" id="circle126"/>
	<circle cx="460.657" cy="893.428" r="4" fill="#0" id="circle127"/>
	<circle cx="460.657" cy="907.479" r="4" fill="#0" id="circle128"/>
	<circle cx="462.062" cy="946.822" r="4" fill="#0" id="circle129"/>
	<circle cx="464.873" cy="960.873" r="4" fill="#0" id="circle130"/>
	<circle cx="467.683" cy="588.521" r="4" fill="#0" id="circle131"/>
	<circle cx="467.683" cy="851.275" r="4" fill="#0" id="circle132"/>
	<circle cx="467.683" cy="865.326" r="4" fill="#0" id="circle133"/>
	<circle cx="467.683" cy="879.377" r="4" fill="#0" id="circle134"/>
	<circle cx="467.683" cy="984.759" r="4" fill="#0" id="circle135"/>
	<circle cx="469.088" cy="334.198" r="4" fill="#0" id="circle136"/>
	<circle cx="469.088" cy="918.72" r="4" fill="#0" id="circle137"/>
	<circle cx="469.088" cy="932.771" r="4" fill="#0" id="circle138"/>
	<circle cx="471.898" cy="602.572" r="4" fill="#0" id="circle139"/>
	<circle cx="474.708" cy="616.623" r="4" fill="#0" id="circle140"/>
	<circle cx="474.708" cy="837.224" r="4" fill="#0" id="circle141"/>
	<circle cx="476.113" cy="904.669" r="4" fill="#0" id="circle142"/>
	<circle cx="476.113" cy="973.518" r="4" fill="#0" id="circle143"/>
	<circle cx="478.924" cy="630.674" r="4" fill="#0" id="circle144"/>
	<circle cx="481.734" cy="644.725" r="4" fill="#0" id="circle145"/>
	<circle cx="481.734" cy="802.096" r="4" fill="#0" id="circle146"/>
	<circle cx="481.734" cy="816.147" r="4" fill="#0" id="circle147"/>
	<circle cx="483.139" cy="334.198" r="4" fill="#0" id="circle148"/>
	<circle cx="483.139" cy="869.541" r="4" fill="#0" id="circle149"/>
	<circle cx="483.139" cy="883.592" r="4" fill="#0" id="circle150"/>
	<circle cx="488.759" cy="657.371" r="4" fill="#0" id="circle151"/>
	<circle cx="488.759" cy="671.422" r="4" fill="#0" id="circle152"/>
	<circle cx="488.759" cy="685.473" r="4" fill="#0" id="circle153"/>
	<circle cx="488.759" cy="699.524" r="4" fill="#0" id="circle154"/>
	<circle cx="488.759" cy="713.575" r="4" fill="#0" id="circle155"/>
	<circle cx="488.759" cy="727.626" r="4" fill="#0" id="circle156"/>
	<circle cx="488.759" cy="741.677" r="4" fill="#0" id="circle157"/>
	<circle cx="488.759" cy="755.728" r="4" fill="#0" id="circle158"/>
	<circle cx="488.759" cy="769.779" r="4" fill="#0" id="circle159"/>
	<circle cx="488.759" cy="783.83" r="4" fill="#0" id="circle160"/>
	<circle cx="490.164" cy="848.465" r="4" fill="#0" id="circle161"/>
	<circle cx="497.19" cy="334.198" r="4" fill="#0" id="circle162"/>
	<circle cx="497.19" cy="820.363" r="4" fill="#0" id="circle163"/>
	<circle cx="497.19" cy="834.414" r="4" fill="#0" id="circle164"/>
	<circle cx="504.215" cy="609.598" r="4" fill="#0" id="circle165"/>
	<circle cx="504.215" cy="623.649" r="4" fill="#0" id="circle166"/>
	<circle cx="504.215" cy="637.7" r="4" fill="#0" id="circle167"/>
	<circle cx="504.215" cy="651.751" r="4" fill="#0" id="circle168"/>
	<circle cx="504.215" cy="665.802" r="4" fill="#0" id="circle169"/>
	<circle cx="504.215" cy="679.853" r="4" fill="#0" id="circle170"/>
	<circle cx="504.215" cy="693.904" r="4" fill="#0" id="circle171"/>
	<circle cx="504.215" cy="785.235" r="4" fill="#0" id="circle172"/>
	<circle cx="504.215" cy="799.286" r="4" fill="#0" id="circle173"/>
	<circle cx="509.836" cy="341.224" r="4" fill="#0" id="circle174"/>
	<circle cx="511.241" cy="595.547" r="4" fill="#0" id="circle175"/>
	<circle cx="511.241" cy="706.55" r="4" fill="#0" id="circle176"/>
	<circle cx="511.241" cy="720.601" r="4" fill="#0" id="circle177"/>
	<circle cx="511.241" cy="771.184" r="4" fill="#0" id="circle178"/>
	<circle cx="518.266" cy="733.246" r="4" fill="#0" id="circle179"/>
	<circle cx="518.266" cy="747.297" r="4" fill="#0" id="circle180"/>
	<circle cx="523.887" cy="341.224" r="4" fill="#0" id="circle181"/>
	<circle cx="523.887" cy="588.521" r="4" fill="#0" id="circle182"/>
	<circle cx="537.938" cy="344.034" r="4" fill="#0" id="circle183"/>
	<circle cx="537.938" cy="588.521" r="4" fill="#0" id="circle184"/>
	<circle cx="546.368" cy="599.762" r="4" fill="#0" id="circle185"/>
	<circle cx="550.584" cy="351.059" r="4" fill="#0" id="circle186"/>
	<circle cx="553.394" cy="612.408" r="4" fill="#0" id="circle187"/>
	<circle cx="563.229" cy="623.649" r="4" fill="#0" id="circle188"/>
	<circle cx="564.635" cy="355.275" r="4" fill="#0" id="circle189"/>
	<circle cx="566.04" cy="977.734" r="4" fill="#0" id="circle190"/>
	<circle cx="574.47" cy="633.484" r="4" fill="#0" id="circle191"/>
	<circle cx="577.28" cy="362.3" r="4" fill="#0" id="circle192"/>
	<circle cx="580.091" cy="647.535" r="4" fill="#0" id="circle193"/>
	<circle cx="580.091" cy="970.708" r="4" fill="#0" id="circle194"/>
	<circle cx="580.091" cy="984.759" r="4" fill="#0" id="circle195"/>
	<circle cx="581.496" cy="588.521" r="4" fill="#0" id="circle196"/>
	<circle cx="584.306" cy="602.572" r="4" fill="#0" id="circle197"/>
	<circle cx="587.116" cy="660.181" r="4" fill="#0" id="circle198"/>
	<circle cx="588.521" cy="616.623" r="4" fill="#0" id="circle199"/>
	<circle cx="589.926" cy="369.326" r="4" fill="#0" id="circle200"/>
	<circle cx="594.142" cy="581.496" r="4" fill="#0" id="circle201"/>
	<circle cx="594.142" cy="966.493" r="4" fill="#0" id="circle202"/>
	<circle cx="594.142" cy="988.975" r="4" fill="#0" id="circle203"/>
	<circle cx="595.547" cy="629.269" r="4" fill="#0" id="circle204"/>
	<circle cx="596.952" cy="671.422" r="4" fill="#0" id="circle205"/>
	<circle cx="602.572" cy="376.351" r="4" fill="#0" id="circle206"/>
	<circle cx="602.572" cy="641.915" r="4" fill="#0" id="circle207"/>
	<circle cx="608.193" cy="581.496" r="4" fill="#0" id="circle208"/>
	<circle cx="608.193" cy="679.853" r="4" fill="#0" id="circle209"/>
	<circle cx="608.193" cy="963.683" r="4" fill="#0" id="circle210"/>
	<circle cx="608.193" cy="988.975" r="4" fill="#0" id="circle211"/>
	<circle cx="609.598" cy="654.561" r="4" fill="#0" id="circle212"/>
	<circle cx="612.408" cy="693.904" r="4" fill="#0" id="circle213"/>
	<circle cx="616.623" cy="380.567" r="4" fill="#0" id="circle214"/>
	<circle cx="616.623" cy="667.207" r="4" fill="#0" id="circle215"/>
	<circle cx="619.433" cy="706.55" r="4" fill="#0" id="circle216"/>
	<circle cx="619.433" cy="952.442" r="4" fill="#0" id="circle217"/>
	<circle cx="622.244" cy="581.496" r="4" fill="#0" id="circle218"/>
	<circle cx="622.244" cy="988.975" r="4" fill="#0" id="circle219"/>
	<circle cx="623.649" cy="679.853" r="4" fill="#0" id="circle220"/>
	<circle cx="625.054" cy="720.601" r="4" fill="#0" id="circle221"/>
	<circle cx="629.269" cy="387.592" r="4" fill="#0" id="circle222"/>
	<circle cx="629.269" cy="734.652" r="4" fill="#0" id="circle223"/>
	<circle cx="629.269" cy="748.703" r="4" fill="#0" id="circle224"/>
	<circle cx="629.269" cy="762.754" r="4" fill="#0" id="circle225"/>
	<circle cx="629.269" cy="776.805" r="4" fill="#0" id="circle226"/>
	<circle cx="629.269" cy="790.856" r="4" fill="#0" id="circle227"/>
	<circle cx="629.269" cy="804.907" r="4" fill="#0" id="circle228"/>
	<circle cx="629.269" cy="818.958" r="4" fill="#0" id="circle229"/>
	<circle cx="629.269" cy="833.008" r="4" fill="#0" id="circle230"/>
	<circle cx="629.269" cy="847.059" r="4" fill="#0" id="circle231"/>
	<circle cx="629.269" cy="861.11" r="4" fill="#0" id="circle232"/>
	<circle cx="630.674" cy="692.499" r="4" fill="#0" id="circle233"/>
	<circle cx="630.674" cy="941.201" r="4" fill="#0" id="circle234"/>
	<circle cx="636.295" cy="581.496" r="4" fill="#0" id="circle235"/>
	<circle cx="636.295" cy="873.756" r="4" fill="#0" id="circle236"/>
	<circle cx="636.295" cy="887.807" r="4" fill="#0" id="circle237"/>
	<circle cx="636.295" cy="901.858" r="4" fill="#0" id="circle238"/>
	<circle cx="636.295" cy="915.909" r="4" fill="#0" id="circle239"/>
	<circle cx="636.295" cy="984.759" r="4" fill="#0" id="circle240"/>
	<circle cx="637.7" cy="705.144" r="4" fill="#0" id="circle241"/>
	<circle cx="643.32" cy="390.402" r="4" fill="#0" id="circle242"/>
	<circle cx="644.725" cy="778.21" r="4" fill="#0" id="circle243"/>
	<circle cx="644.725" cy="792.261" r="4" fill="#0" id="circle244"/>
	<circle cx="647.535" cy="806.312" r="4" fill="#0" id="circle245"/>
	<circle cx="648.941" cy="714.98" r="4" fill="#0" id="circle246"/>
	<circle cx="650.346" cy="581.496" r="4" fill="#0" id="circle247"/>
	<circle cx="650.346" cy="977.734" r="4" fill="#0" id="circle248"/>
	<circle cx="651.751" cy="729.031" r="4" fill="#0" id="circle249"/>
	<circle cx="651.751" cy="750.108" r="4" fill="#0" id="circle250"/>
	<circle cx="651.751" cy="764.159" r="4" fill="#0" id="circle251"/>
	<circle cx="651.751" cy="820.363" r="4" fill="#0" id="circle252"/>
	<circle cx="654.561" cy="398.833" r="4" fill="#0" id="circle253"/>
	<circle cx="654.561" cy="834.414" r="4" fill="#0" id="circle254"/>
	<circle cx="658.776" cy="848.465" r="4" fill="#0" id="circle255"/>
	<circle cx="658.776" cy="862.516" r="4" fill="#0" id="circle256"/>
	<circle cx="658.776" cy="876.567" r="4" fill="#0" id="circle257"/>
	<circle cx="658.776" cy="890.618" r="4" fill="#0" id="circle258"/>
	<circle cx="658.776" cy="904.669" r="4" fill="#0" id="circle259"/>
	<circle cx="658.776" cy="918.72" r="4" fill="#0" id="circle260"/>
	<circle cx="658.776" cy="932.771" r="4" fill="#0" id="circle261"/>
	<circle cx="658.776" cy="946.822" r="4" fill="#0" id="circle262"/>
	<circle cx="664.397" cy="581.496" r="4" fill="#0" id="circle263"/>
	<circle cx="664.397" cy="974.924" r="4" fill="#0" id="circle264"/>
	<circle cx="665.802" cy="408.669" r="4" fill="#0" id="circle265"/>
	<circle cx="670.017" cy="955.252" r="4" fill="#0" id="circle266"/>
	<circle cx="678.448" cy="415.694" r="4" fill="#0" id="circle267"/>
	<circle cx="678.448" cy="581.496" r="4" fill="#0" id="circle268"/>
	<circle cx="678.448" cy="974.924" r="4" fill="#0" id="circle269"/>
	<circle cx="684.068" cy="960.873" r="4" fill="#0" id="circle270"/>
	<circle cx="691.093" cy="588.521" r="4" fill="#0" id="circle271"/>
	<circle cx="692.499" cy="421.314" r="4" fill="#0" id="circle272"/>
	<circle cx="705.144" cy="428.34" r="4" fill="#0" id="circle273"/>
	<circle cx="705.144" cy="588.521" r="4" fill="#0" id="circle274"/>
	<circle cx="714.98" cy="439.581" r="4" fill="#0" id="circle275"/>
	<circle cx="719.195" cy="588.521" r="4" fill="#0" id="circle276"/>
	<circle cx="726.221" cy="448.011" r="4" fill="#0" id="circle277"/>
	<circle cx="731.841" cy="595.547" r="4" fill="#0" id="circle278"/>
	<circle cx="736.057" cy="459.252" r="4" fill="#0" id="circle279"/>
	<circle cx="745.892" cy="601.167" r="4" fill="#0" id="circle280"/>
	<circle cx="747.297" cy="469.088" r="4" fill="#0" id="circle281"/>
	<circle cx="752.918" cy="483.139" r="4" fill="#0" id="circle282"/>
	<circle cx="758.538" cy="608.193" r="4" fill="#0" id="circle283"/>
	<circle cx="764.159" cy="492.975" r="4" fill="#0" id="circle284"/>
	<circle cx="769.779" cy="616.623" r="4" fill="#0" id="circle285"/>
	<circle cx="773.994" cy="504.215" r="4" fill="#0" id="circle286"/>
	<circle cx="781.02" cy="516.861" r="4" fill="#0" id="circle287"/>
	<circle cx="782.425" cy="623.649" r="4" fill="#0" id="circle288"/>
	<circle cx="790.856" cy="528.102" r="4" fill="#0" id="circle289"/>
	<circle cx="795.071" cy="630.674" r="4" fill="#0" id="circle290"/>
	<circle cx="799.286" cy="539.343" r="4" fill="#0" id="circle291"/>
	<circle cx="806.312" cy="551.989" r="4" fill="#0" id="circle292"/>
	<circle cx="809.122" cy="636.295" r="4" fill="#0" id="circle293"/>
	<circle cx="817.552" cy="560.419" r="4" fill="#0" id="circle294"/>
	<circle cx="823.173" cy="636.295" r="4" fill="#0" id="circle295"/>
	<circle cx="827.388" cy="571.66" r="4" fill="#0" id="circle296"/>
	<circle cx="827.388" cy="585.711" r="4" fill="#0" id="circle297"/>
	<circle cx="834.414" cy="598.357" r="4" fill="#0" id="circle298"/>
	<circle cx="834.414" cy="612.408" r="4" fill="#0" id="circle299"/>
	<circle cx="834.414" cy="626.459" r="4" fill="#0" id="circle300"/>
	</g>
</svg>