<?xml version="1.0" encoding="UTF-8" standalone="no"?>
<!-- Created with CurveBenchmark -->
<svg
	xmlns:dc="http://purl.org/dc/elements/1.1/"
	xmlns:cc="http://creativecommons.org/ns#"
	xmlns:rdf="http://www.w3.org/1999/02/22-rdf-syntax-ns#"
	xmlns:svg="http://www.w3.org/2000/svg"
	xmlns="http://www.w3.org/2000/svg"
	xmlns:sodipodi="http://sodipodi.sourceforge.net/DTD/sodipodi-0.dtd"
	xmlns:inkscape="http://www.inkscape.org/namespaces/inkscape"
	width="1000"
	height="1000"
	id="svg2"
	version="1.1"
	sodipodi:docname="manifold/fitconnect-elephant17.png.txt">
<defs
	id="defs4" />
<metadata
	id="metadata7">
	<rdf:RDF>
		<cc:Work
			rdf:about="">
			<dc:format>image/svg+xml</dc:format>
			<dc:type
				rdf:resource="http://purl.org/dc/dcmitype/StillImage" />
			<dc:title></dc:title>
		</cc:Work>
	</rdf:RDF>
</metadata>
<g
	inkscape:label="Layer 1"
	inkscape:groupmode="layer"
	id="layer1">
	<path style="fill:none;stroke:red;stroke-width:1px;stroke-linecap:butt;stroke-linejoin:miter;stroke-opacity:1" d="M 4,73.9207 4,88.4875 z" id="boundary" inkscape:connector-curvature="0" />
	<path style="fill:none;stroke:red;stroke-width:1px;stroke-linecap:butt;stroke-linejoin:miter;stroke-opacity:1" d="M 4,73.9207 11.2834,59.3539 z" id="boundary" inkscape:connector-curvature="0" />
	<path style="fill:none;stroke:red;stroke-width:1px;stroke-linecap:butt;stroke-linejoin:miter;stroke-opacity:1" d="M 4,88.4875 4,103.054 z" id="boundary" inkscape:connector-curvature="0" />
	<path style="fill:none;stroke:red;stroke-width:1px;stroke-linecap:butt;stroke-linejoin:miter;stroke-opacity:1" d="M 4,103.054 4,117.621 z" id="boundary" inkscape:connector-curvature="0" />
	<path style="fill:none;stroke:red;stroke-width:1px;stroke-linecap:butt;stroke-linejoin:miter;stroke-opacity:1" d="M 4,117.621 4,132.188 z" id="boundary" inkscape:connector-curvature="0" />
	<path style="fill:none;stroke:red;stroke-width:1px;stroke-linecap:butt;stroke-linejoin:miter;stroke-opacity:1" d="M 4,132.188 4,146.755 z" id="boundary" inkscape:connector-curvature="0" />
	<path style="fill:none;stroke:red;stroke-width:1px;stroke-linecap:butt;stroke-linejoin:miter;stroke-opacity:1" d="M 4,146.755 4,161.322 z" id="boundary" inkscape:connector-curvature="0" />
	<path style="fill:none;stroke:red;stroke-width:1px;stroke-linecap:butt;stroke-linejoin:miter;stroke-opacity:1" d="M 4,161.322 4,175.888 z" id="boundary" inkscape:connector-curvature="0" />
	<path style="fill:none;stroke:red;stroke-width:1px;stroke-linecap:butt;stroke-linejoin:miter;stroke-opacity:1" d="M 4,175.888 11.2834,188.999 z" id="boundary" inkscape:connector-curvature="0" />
	<path style="fill:none;stroke:red;stroke-width:1px;stroke-linecap:butt;stroke-linejoin:miter;stroke-opacity:1" d="M 11.2834,59.3539 18.5668,44.7871 z" id="boundary" inkscape:connector-curvature="0" />
	<path style="fill:none;stroke:red;stroke-width:1px;stroke-linecap:butt;stroke-linejoin:miter;stroke-opacity:1" d="M 11.2834,188.999 11.2834,203.565 z" id="boundary" inkscape:connector-curvature="0" />
	<path style="fill:none;stroke:red;stroke-width:1px;stroke-linecap:butt;stroke-linejoin:miter;stroke-opacity:1" d="M 11.2834,203.565 18.5668,216.675 z" id="boundary" inkscape:connector-curvature="0" />
	<path style="fill:none;stroke:red;stroke-width:1px;stroke-linecap:butt;stroke-linejoin:miter;stroke-opacity:1" d="M 18.5668,44.7871 25.8502,30.2203 z" id="boundary" inkscape:connector-curvature="0" />
	<path style="fill:none;stroke:red;stroke-width:1px;stroke-linecap:butt;stroke-linejoin:miter;stroke-opacity:1" d="M 18.5668,216.675 25.8502,229.786 z" id="boundary" inkscape:connector-curvature="0" />
	<path style="fill:none;stroke:red;stroke-width:1px;stroke-linecap:butt;stroke-linejoin:miter;stroke-opacity:1" d="M 18.5668,277.856 18.5668,292.423 z" id="boundary" inkscape:connector-curvature="0" />
	<path style="fill:none;stroke:red;stroke-width:1px;stroke-linecap:butt;stroke-linejoin:miter;stroke-opacity:1" d="M 18.5668,277.856 33.1336,273.486 z" id="boundary" inkscape:connector-curvature="0" />
	<path style="fill:none;stroke:red;stroke-width:1px;stroke-linecap:butt;stroke-linejoin:miter;stroke-opacity:1" d="M 18.5668,292.423 25.8502,305.533 z" id="boundary" inkscape:connector-curvature="0" />
	<path style="fill:none;stroke:red;stroke-width:1px;stroke-linecap:butt;stroke-linejoin:miter;stroke-opacity:1" d="M 25.8502,30.2203 37.5037,18.5668 z" id="boundary" inkscape:connector-curvature="0" />
	<path style="fill:none;stroke:red;stroke-width:1px;stroke-linecap:butt;stroke-linejoin:miter;stroke-opacity:1" d="M 25.8502,229.786 28.7636,244.352 z" id="boundary" inkscape:connector-curvature="0" />
	<path style="fill:none;stroke:red;stroke-width:1px;stroke-linecap:butt;stroke-linejoin:miter;stroke-opacity:1" d="M 25.8502,305.533 33.1336,318.643 z" id="boundary" inkscape:connector-curvature="0" />
	<path style="fill:none;stroke:red;stroke-width:1px;stroke-linecap:butt;stroke-linejoin:miter;stroke-opacity:1" d="M 28.7636,244.352 36.047,257.463 z" id="boundary" inkscape:connector-curvature="0" />
	<path style="fill:none;stroke:red;stroke-width:1px;stroke-linecap:butt;stroke-linejoin:miter;stroke-opacity:1" d="M 33.1336,273.486 47.7004,267.659 z" id="boundary" inkscape:connector-curvature="0" />
	<path style="fill:none;stroke:red;stroke-width:1px;stroke-linecap:butt;stroke-linejoin:miter;stroke-opacity:1" d="M 33.1336,318.643 41.8737,330.297 z" id="boundary" inkscape:connector-curvature="0" />
	<path style="fill:none;stroke:red;stroke-width:1px;stroke-linecap:butt;stroke-linejoin:miter;stroke-opacity:1" d="M 36.047,257.463 47.7004,267.659 z" id="boundary" inkscape:connector-curvature="0" />
	<path style="fill:none;stroke:red;stroke-width:1px;stroke-linecap:butt;stroke-linejoin:miter;stroke-opacity:1" d="M 37.5037,18.5668 49.1571,6.91336 z" id="boundary" inkscape:connector-curvature="0" />
	<path style="fill:none;stroke:red;stroke-width:1px;stroke-linecap:butt;stroke-linejoin:miter;stroke-opacity:1" d="M 41.8737,330.297 53.5272,340.493 z" id="boundary" inkscape:connector-curvature="0" />
	<path style="fill:none;stroke:red;stroke-width:1px;stroke-linecap:butt;stroke-linejoin:miter;stroke-opacity:1" d="M 49.1571,6.91336 63.7239,4 z" id="boundary" inkscape:connector-curvature="0" />
	<path style="fill:none;stroke:red;stroke-width:1px;stroke-linecap:butt;stroke-linejoin:miter;stroke-opacity:1" d="M 53.5272,340.493 62.2673,352.147 z" id="boundary" inkscape:connector-curvature="0" />
	<path style="fill:none;stroke:red;stroke-width:1px;stroke-linecap:butt;stroke-linejoin:miter;stroke-opacity:1" d="M 56.4405,78.2907 56.4405,92.8576 z" id="boundary" inkscape:connector-curvature="0" />
	<path style="fill:none;stroke:red;stroke-width:1px;stroke-linecap:butt;stroke-linejoin:miter;stroke-opacity:1" d="M 56.4405,78.2907 69.5507,71.0073 z" id="boundary" inkscape:connector-curvature="0" />
	<path style="fill:none;stroke:red;stroke-width:1px;stroke-linecap:butt;stroke-linejoin:miter;stroke-opacity:1" d="M 56.4405,92.8576 56.4405,107.424 z" id="boundary" inkscape:connector-curvature="0" />
	<path style="fill:none;stroke:red;stroke-width:1px;stroke-linecap:butt;stroke-linejoin:miter;stroke-opacity:1" d="M 56.4405,107.424 56.4405,121.991 z" id="boundary" inkscape:connector-curvature="0" />
	<path style="fill:none;stroke:red;stroke-width:1px;stroke-linecap:butt;stroke-linejoin:miter;stroke-opacity:1" d="M 56.4405,121.991 56.4405,136.558 z" id="boundary" inkscape:connector-curvature="0" />
	<path style="fill:none;stroke:red;stroke-width:1px;stroke-linecap:butt;stroke-linejoin:miter;stroke-opacity:1" d="M 56.4405,136.558 59.3539,151.125 z" id="boundary" inkscape:connector-curvature="0" />
	<path style="fill:none;stroke:red;stroke-width:1px;stroke-linecap:butt;stroke-linejoin:miter;stroke-opacity:1" d="M 59.3539,151.125 71.0073,161.322 z" id="boundary" inkscape:connector-curvature="0" />
	<path style="fill:none;stroke:red;stroke-width:1px;stroke-linecap:butt;stroke-linejoin:miter;stroke-opacity:1" d="M 62.2673,352.147 63.7239,366.714 z" id="boundary" inkscape:connector-curvature="0" />
	<path style="fill:none;stroke:red;stroke-width:1px;stroke-linecap:butt;stroke-linejoin:miter;stroke-opacity:1" d="M 63.7239,4 78.2907,4 z" id="boundary" inkscape:connector-curvature="0" />
	<path style="fill:none;stroke:red;stroke-width:1px;stroke-linecap:butt;stroke-linejoin:miter;stroke-opacity:1" d="M 63.7239,366.714 75.3774,376.91 z" id="boundary" inkscape:connector-curvature="0" />
	<path style="fill:none;stroke:red;stroke-width:1px;stroke-linecap:butt;stroke-linejoin:miter;stroke-opacity:1" d="M 69.5507,71.0073 78.2907,82.6608 z" id="boundary" inkscape:connector-curvature="0" />
	<path style="fill:none;stroke:red;stroke-width:1px;stroke-linecap:butt;stroke-linejoin:miter;stroke-opacity:1" d="M 71.0073,161.322 71.0073,175.888 z" id="boundary" inkscape:connector-curvature="0" />
	<path style="fill:none;stroke:red;stroke-width:1px;stroke-linecap:butt;stroke-linejoin:miter;stroke-opacity:1" d="M 71.0073,175.888 81.2041,187.542 z" id="boundary" inkscape:connector-curvature="0" />
	<path style="fill:none;stroke:red;stroke-width:1px;stroke-linecap:butt;stroke-linejoin:miter;stroke-opacity:1" d="M 75.3774,376.91 88.4875,384.194 z" id="boundary" inkscape:connector-curvature="0" />
	<path style="fill:none;stroke:red;stroke-width:1px;stroke-linecap:butt;stroke-linejoin:miter;stroke-opacity:1" d="M 78.2907,4 89.9442,12.7401 z" id="boundary" inkscape:connector-curvature="0" />
	<path style="fill:none;stroke:red;stroke-width:1px;stroke-linecap:butt;stroke-linejoin:miter;stroke-opacity:1" d="M 78.2907,82.6608 84.1175,97.2276 z" id="boundary" inkscape:connector-curvature="0" />
	<path style="fill:none;stroke:red;stroke-width:1px;stroke-linecap:butt;stroke-linejoin:miter;stroke-opacity:1" d="M 81.2041,187.542 95.7709,193.369 z" id="boundary" inkscape:connector-curvature="0" />
	<path style="fill:none;stroke:red;stroke-width:1px;stroke-linecap:butt;stroke-linejoin:miter;stroke-opacity:1" d="M 84.1175,97.2276 84.1175,111.794 z" id="boundary" inkscape:connector-curvature="0" />
	<path style="fill:none;stroke:red;stroke-width:1px;stroke-linecap:butt;stroke-linejoin:miter;stroke-opacity:1" d="M 84.1175,111.794 84.1175,126.361 z" id="boundary" inkscape:connector-curvature="0" />
	<path style="fill:none;stroke:red;stroke-width:1px;stroke-linecap:butt;stroke-linejoin:miter;stroke-opacity:1" d="M 84.1175,126.361 84.1175,140.928 z" id="boundary" inkscape:connector-curvature="0" />
	<path style="fill:none;stroke:red;stroke-width:1px;stroke-linecap:butt;stroke-linejoin:miter;stroke-opacity:1" d="M 84.1175,140.928 91.4009,154.038 z" id="boundary" inkscape:connector-curvature="0" />
	<path style="fill:none;stroke:red;stroke-width:1px;stroke-linecap:butt;stroke-linejoin:miter;stroke-opacity:1" d="M 88.4875,384.194 103.054,390.021 z" id="boundary" inkscape:connector-curvature="0" />
	<path style="fill:none;stroke:red;stroke-width:1px;stroke-linecap:butt;stroke-linejoin:miter;stroke-opacity:1" d="M 89.9442,12.7401 100.141,24.3935 z" id="boundary" inkscape:connector-curvature="0" />
	<path style="fill:none;stroke:red;stroke-width:1px;stroke-linecap:butt;stroke-linejoin:miter;stroke-opacity:1" d="M 91.4009,154.038 105.968,158.408 z" id="boundary" inkscape:connector-curvature="0" />
	<path style="fill:none;stroke:red;stroke-width:1px;stroke-linecap:butt;stroke-linejoin:miter;stroke-opacity:1" d="M 91.4009,896.946 91.4009,911.512 z" id="boundary" inkscape:connector-curvature="0" />
	<path style="fill:none;stroke:red;stroke-width:1px;stroke-linecap:butt;stroke-linejoin:miter;stroke-opacity:1" d="M 91.4009,896.946 98.6843,882.379 z" id="boundary" inkscape:connector-curvature="0" />
	<path style="fill:none;stroke:red;stroke-width:1px;stroke-linecap:butt;stroke-linejoin:miter;stroke-opacity:1" d="M 91.4009,911.512 91.4009,926.079 z" id="boundary" inkscape:connector-curvature="0" />
	<path style="fill:none;stroke:red;stroke-width:1px;stroke-linecap:butt;stroke-linejoin:miter;stroke-opacity:1" d="M 91.4009,926.079 91.4009,940.646 z" id="boundary" inkscape:connector-curvature="0" />
	<path style="fill:none;stroke:red;stroke-width:1px;stroke-linecap:butt;stroke-linejoin:miter;stroke-opacity:1" d="M 91.4009,940.646 103.054,950.843 z" id="boundary" inkscape:connector-curvature="0" />
	<path style="fill:none;stroke:red;stroke-width:1px;stroke-linecap:butt;stroke-linejoin:miter;stroke-opacity:1" d="M 95.7709,193.369 110.338,193.369 z" id="boundary" inkscape:connector-curvature="0" />
	<path style="fill:none;stroke:red;stroke-width:1px;stroke-linecap:butt;stroke-linejoin:miter;stroke-opacity:1" d="M 98.6843,882.379 110.338,870.725 z" id="boundary" inkscape:connector-curvature="0" />
	<path style="fill:none;stroke:red;stroke-width:1px;stroke-linecap:butt;stroke-linejoin:miter;stroke-opacity:1" d="M 100.141,24.3935 111.794,34.5903 z" id="boundary" inkscape:connector-curvature="0" />
	<path style="fill:none;stroke:red;stroke-width:1px;stroke-linecap:butt;stroke-linejoin:miter;stroke-opacity:1" d="M 103.054,390.021 116.164,397.304 z" id="boundary" inkscape:connector-curvature="0" />
	<path style="fill:none;stroke:red;stroke-width:1px;stroke-linecap:butt;stroke-linejoin:miter;stroke-opacity:1" d="M 103.054,950.843 114.708,959.583 z" id="boundary" inkscape:connector-curvature="0" />
	<path style="fill:none;stroke:red;stroke-width:1px;stroke-linecap:butt;stroke-linejoin:miter;stroke-opacity:1" d="M 105.968,158.408 120.535,161.322 z" id="boundary" inkscape:connector-curvature="0" />
	<path style="fill:none;stroke:red;stroke-width:1px;stroke-linecap:butt;stroke-linejoin:miter;stroke-opacity:1" d="M 110.338,193.369 124.905,193.369 z" id="boundary" inkscape:connector-curvature="0" />
	<path style="fill:none;stroke:red;stroke-width:1px;stroke-linecap:butt;stroke-linejoin:miter;stroke-opacity:1" d="M 110.338,870.725 113.251,853.245 z" id="boundary" inkscape:connector-curvature="0" />
	<path style="fill:none;stroke:red;stroke-width:1px;stroke-linecap:butt;stroke-linejoin:miter;stroke-opacity:1" d="M 111.794,34.5903 117.621,49.1571 z" id="boundary" inkscape:connector-curvature="0" />
	<path style="fill:none;stroke:red;stroke-width:1px;stroke-linecap:butt;stroke-linejoin:miter;stroke-opacity:1" d="M 113.251,853.245 120.535,831.395 z" id="boundary" inkscape:connector-curvature="0" />
	<path style="fill:none;stroke:red;stroke-width:1px;stroke-linecap:butt;stroke-linejoin:miter;stroke-opacity:1" d="M 114.708,959.583 129.275,959.583 z" id="boundary" inkscape:connector-curvature="0" />
	<path style="fill:none;stroke:red;stroke-width:1px;stroke-linecap:butt;stroke-linejoin:miter;stroke-opacity:1" d="M 116.164,397.304 127.818,406.044 z" id="boundary" inkscape:connector-curvature="0" />
	<path style="fill:none;stroke:red;stroke-width:1px;stroke-linecap:butt;stroke-linejoin:miter;stroke-opacity:1" d="M 117.621,49.1571 121.991,63.7239 z" id="boundary" inkscape:connector-curvature="0" />
	<path style="fill:none;stroke:red;stroke-width:1px;stroke-linecap:butt;stroke-linejoin:miter;stroke-opacity:1" d="M 120.535,161.322 129.275,149.668 z" id="boundary" inkscape:connector-curvature="0" />
	<path style="fill:none;stroke:red;stroke-width:1px;stroke-linecap:butt;stroke-linejoin:miter;stroke-opacity:1" d="M 120.535,802.261 120.535,816.828 z" id="boundary" inkscape:connector-curvature="0" />
	<path style="fill:none;stroke:red;stroke-width:1px;stroke-linecap:butt;stroke-linejoin:miter;stroke-opacity:1" d="M 120.535,802.261 127.818,780.411 z" id="boundary" inkscape:connector-curvature="0" />
	<path style="fill:none;stroke:red;stroke-width:1px;stroke-linecap:butt;stroke-linejoin:miter;stroke-opacity:1" d="M 120.535,816.828 120.535,831.395 z" id="boundary" inkscape:connector-curvature="0" />
	<path style="fill:none;stroke:red;stroke-width:1px;stroke-linecap:butt;stroke-linejoin:miter;stroke-opacity:1" d="M 121.991,63.7239 121.991,78.2907 z" id="boundary" inkscape:connector-curvature="0" />
	<path style="fill:none;stroke:red;stroke-width:1px;stroke-linecap:butt;stroke-linejoin:miter;stroke-opacity:1" d="M 121.991,78.2907 129.275,91.4009 z" id="boundary" inkscape:connector-curvature="0" />
	<path style="fill:none;stroke:red;stroke-width:1px;stroke-linecap:butt;stroke-linejoin:miter;stroke-opacity:1" d="M 124.905,193.369 139.471,193.369 z" id="boundary" inkscape:connector-curvature="0" />
	<path style="fill:none;stroke:red;stroke-width:1px;stroke-linecap:butt;stroke-linejoin:miter;stroke-opacity:1" d="M 127.818,406.044 132.188,420.611 z" id="boundary" inkscape:connector-curvature="0" />
	<path style="fill:none;stroke:red;stroke-width:1px;stroke-linecap:butt;stroke-linejoin:miter;stroke-opacity:1" d="M 127.818,765.844 127.818,780.411 z" id="boundary" inkscape:connector-curvature="0" />
	<path style="fill:none;stroke:red;stroke-width:1px;stroke-linecap:butt;stroke-linejoin:miter;stroke-opacity:1" d="M 127.818,765.844 135.101,736.711 z" id="boundary" inkscape:connector-curvature="0" />
	<path style="fill:none;stroke:red;stroke-width:1px;stroke-linecap:butt;stroke-linejoin:miter;stroke-opacity:1" d="M 129.275,91.4009 129.275,105.968 z" id="boundary" inkscape:connector-curvature="0" />
	<path style="fill:none;stroke:red;stroke-width:1px;stroke-linecap:butt;stroke-linejoin:miter;stroke-opacity:1" d="M 129.275,105.968 129.275,120.535 z" id="boundary" inkscape:connector-curvature="0" />
	<path style="fill:none;stroke:red;stroke-width:1px;stroke-linecap:butt;stroke-linejoin:miter;stroke-opacity:1" d="M 129.275,120.535 129.275,135.101 z" id="boundary" inkscape:connector-curvature="0" />
	<path style="fill:none;stroke:red;stroke-width:1px;stroke-linecap:butt;stroke-linejoin:miter;stroke-opacity:1" d="M 129.275,135.101 129.275,149.668 z" id="boundary" inkscape:connector-curvature="0" />
	<path style="fill:none;stroke:red;stroke-width:1px;stroke-linecap:butt;stroke-linejoin:miter;stroke-opacity:1" d="M 129.275,959.583 143.841,959.583 z" id="boundary" inkscape:connector-curvature="0" />
	<path style="fill:none;stroke:red;stroke-width:1px;stroke-linecap:butt;stroke-linejoin:miter;stroke-opacity:1" d="M 132.188,420.611 135.101,435.178 z" id="boundary" inkscape:connector-curvature="0" />
	<path style="fill:none;stroke:red;stroke-width:1px;stroke-linecap:butt;stroke-linejoin:miter;stroke-opacity:1" d="M 135.101,435.178 142.385,448.288 z" id="boundary" inkscape:connector-curvature="0" />
	<path style="fill:none;stroke:red;stroke-width:1px;stroke-linecap:butt;stroke-linejoin:miter;stroke-opacity:1" d="M 135.101,736.711 142.385,707.577 z" id="boundary" inkscape:connector-curvature="0" />
	<path style="fill:none;stroke:red;stroke-width:1px;stroke-linecap:butt;stroke-linejoin:miter;stroke-opacity:1" d="M 139.471,193.369 154.038,186.085 z" id="boundary" inkscape:connector-curvature="0" />
	<path style="fill:none;stroke:red;stroke-width:1px;stroke-linecap:butt;stroke-linejoin:miter;stroke-opacity:1" d="M 142.385,448.288 151.125,459.941 z" id="boundary" inkscape:connector-curvature="0" />
	<path style="fill:none;stroke:red;stroke-width:1px;stroke-linecap:butt;stroke-linejoin:miter;stroke-opacity:1" d="M 142.385,707.577 149.668,685.727 z" id="boundary" inkscape:connector-curvature="0" />
	<path style="fill:none;stroke:red;stroke-width:1px;stroke-linecap:butt;stroke-linejoin:miter;stroke-opacity:1" d="M 143.841,959.583 158.408,959.583 z" id="boundary" inkscape:connector-curvature="0" />
	<path style="fill:none;stroke:red;stroke-width:1px;stroke-linecap:butt;stroke-linejoin:miter;stroke-opacity:1" d="M 149.668,685.727 156.952,649.31 z" id="boundary" inkscape:connector-curvature="0" />
	<path style="fill:none;stroke:red;stroke-width:1px;stroke-linecap:butt;stroke-linejoin:miter;stroke-opacity:1" d="M 151.125,459.941 161.322,471.595 z" id="boundary" inkscape:connector-curvature="0" />
	<path style="fill:none;stroke:red;stroke-width:1px;stroke-linecap:butt;stroke-linejoin:miter;stroke-opacity:1" d="M 154.038,186.085 168.605,186.085 z" id="boundary" inkscape:connector-curvature="0" />
	<path style="fill:none;stroke:red;stroke-width:1px;stroke-linecap:butt;stroke-linejoin:miter;stroke-opacity:1" d="M 156.952,649.31 164.235,620.176 z" id="boundary" inkscape:connector-curvature="0" />
	<path style="fill:none;stroke:red;stroke-width:1px;stroke-linecap:butt;stroke-linejoin:miter;stroke-opacity:1" d="M 161.322,471.595 171.518,483.248 z" id="boundary" inkscape:connector-curvature="0" />
	<path style="fill:none;stroke:red;stroke-width:1px;stroke-linecap:butt;stroke-linejoin:miter;stroke-opacity:1" d="M 164.235,547.342 164.235,561.909 z" id="boundary" inkscape:connector-curvature="0" />
	<path style="fill:none;stroke:red;stroke-width:1px;stroke-linecap:butt;stroke-linejoin:miter;stroke-opacity:1" d="M 164.235,547.342 171.518,526.949 z" id="boundary" inkscape:connector-curvature="0" />
	<path style="fill:none;stroke:red;stroke-width:1px;stroke-linecap:butt;stroke-linejoin:miter;stroke-opacity:1" d="M 164.235,561.909 164.235,576.476 z" id="boundary" inkscape:connector-curvature="0" />
	<path style="fill:none;stroke:red;stroke-width:1px;stroke-linecap:butt;stroke-linejoin:miter;stroke-opacity:1" d="M 164.235,576.476 164.235,591.043 z" id="boundary" inkscape:connector-curvature="0" />
	<path style="fill:none;stroke:red;stroke-width:1px;stroke-linecap:butt;stroke-linejoin:miter;stroke-opacity:1" d="M 164.235,591.043 164.235,620.176 z" id="boundary" inkscape:connector-curvature="0" />
	<path style="fill:none;stroke:red;stroke-width:1px;stroke-linecap:butt;stroke-linejoin:miter;stroke-opacity:1" d="M 168.605,186.085 183.172,186.085 z" id="boundary" inkscape:connector-curvature="0" />
	<path style="fill:none;stroke:red;stroke-width:1px;stroke-linecap:butt;stroke-linejoin:miter;stroke-opacity:1" d="M 171.518,483.248 171.518,497.815 z" id="boundary" inkscape:connector-curvature="0" />
	<path style="fill:none;stroke:red;stroke-width:1px;stroke-linecap:butt;stroke-linejoin:miter;stroke-opacity:1" d="M 171.518,497.815 171.518,512.382 z" id="boundary" inkscape:connector-curvature="0" />
	<path style="fill:none;stroke:red;stroke-width:1px;stroke-linecap:butt;stroke-linejoin:miter;stroke-opacity:1" d="M 171.518,512.382 171.518,526.949 z" id="boundary" inkscape:connector-curvature="0" />
	<path style="fill:none;stroke:red;stroke-width:1px;stroke-linecap:butt;stroke-linejoin:miter;stroke-opacity:1" d="M 183.172,186.085 196.282,178.802 z" id="boundary" inkscape:connector-curvature="0" />
	<path style="fill:none;stroke:red;stroke-width:1px;stroke-linecap:butt;stroke-linejoin:miter;stroke-opacity:1" d="M 196.282,178.802 210.849,178.802 z" id="boundary" inkscape:connector-curvature="0" />
	<path style="fill:none;stroke:red;stroke-width:1px;stroke-linecap:butt;stroke-linejoin:miter;stroke-opacity:1" d="M 202.109,835.765 229.786,835.765 z" id="boundary" inkscape:connector-curvature="0" />
	<path style="fill:none;stroke:red;stroke-width:1px;stroke-linecap:butt;stroke-linejoin:miter;stroke-opacity:1" d="M 210.849,178.802 225.416,178.802 z" id="boundary" inkscape:connector-curvature="0" />
	<path style="fill:none;stroke:red;stroke-width:1px;stroke-linecap:butt;stroke-linejoin:miter;stroke-opacity:1" d="M 215.219,947.93 215.219,962.496 z" id="boundary" inkscape:connector-curvature="0" />
	<path style="fill:none;stroke:red;stroke-width:1px;stroke-linecap:butt;stroke-linejoin:miter;stroke-opacity:1" d="M 215.219,947.93 222.502,926.079 z" id="boundary" inkscape:connector-curvature="0" />
	<path style="fill:none;stroke:red;stroke-width:1px;stroke-linecap:butt;stroke-linejoin:miter;stroke-opacity:1" d="M 215.219,962.496 215.219,977.063 z" id="boundary" inkscape:connector-curvature="0" />
	<path style="fill:none;stroke:red;stroke-width:1px;stroke-linecap:butt;stroke-linejoin:miter;stroke-opacity:1" d="M 215.219,977.063 229.786,981.433 z" id="boundary" inkscape:connector-curvature="0" />
	<path style="fill:none;stroke:red;stroke-width:1px;stroke-linecap:butt;stroke-linejoin:miter;stroke-opacity:1" d="M 222.502,926.079 237.069,879.465 z" id="boundary" inkscape:connector-curvature="0" />
	<path style="fill:none;stroke:red;stroke-width:1px;stroke-linecap:butt;stroke-linejoin:miter;stroke-opacity:1" d="M 225.416,178.802 239.982,178.802 z" id="boundary" inkscape:connector-curvature="0" />
	<path style="fill:none;stroke:red;stroke-width:1px;stroke-linecap:butt;stroke-linejoin:miter;stroke-opacity:1" d="M 229.786,835.765 234.156,864.899 z" id="boundary" inkscape:connector-curvature="0" />
	<path style="fill:none;stroke:red;stroke-width:1px;stroke-linecap:butt;stroke-linejoin:miter;stroke-opacity:1" d="M 229.786,981.433 238.526,993.087 z" id="boundary" inkscape:connector-curvature="0" />
	<path style="fill:none;stroke:red;stroke-width:1px;stroke-linecap:butt;stroke-linejoin:miter;stroke-opacity:1" d="M 234.156,864.899 237.069,879.465 z" id="boundary" inkscape:connector-curvature="0" />
	<path style="fill:none;stroke:red;stroke-width:1px;stroke-linecap:butt;stroke-linejoin:miter;stroke-opacity:1" d="M 238.526,993.087 253.093,996 z" id="boundary" inkscape:connector-curvature="0" />
	<path style="fill:none;stroke:red;stroke-width:1px;stroke-linecap:butt;stroke-linejoin:miter;stroke-opacity:1" d="M 239.982,178.802 253.093,186.085 z" id="boundary" inkscape:connector-curvature="0" />
	<path style="fill:none;stroke:red;stroke-width:1px;stroke-linecap:butt;stroke-linejoin:miter;stroke-opacity:1" d="M 253.093,186.085 266.203,193.369 z" id="boundary" inkscape:connector-curvature="0" />
	<path style="fill:none;stroke:red;stroke-width:1px;stroke-linecap:butt;stroke-linejoin:miter;stroke-opacity:1" d="M 253.093,996 267.659,996 z" id="boundary" inkscape:connector-curvature="0" />
	<path style="fill:none;stroke:red;stroke-width:1px;stroke-linecap:butt;stroke-linejoin:miter;stroke-opacity:1" d="M 266.203,193.369 277.856,202.109 z" id="boundary" inkscape:connector-curvature="0" />
	<path style="fill:none;stroke:red;stroke-width:1px;stroke-linecap:butt;stroke-linejoin:miter;stroke-opacity:1" d="M 267.659,996 282.226,996 z" id="boundary" inkscape:connector-curvature="0" />
	<path style="fill:none;stroke:red;stroke-width:1px;stroke-linecap:butt;stroke-linejoin:miter;stroke-opacity:1" d="M 277.856,202.109 289.51,212.305 z" id="boundary" inkscape:connector-curvature="0" />
	<path style="fill:none;stroke:red;stroke-width:1px;stroke-linecap:butt;stroke-linejoin:miter;stroke-opacity:1" d="M 282.226,996 296.793,996 z" id="boundary" inkscape:connector-curvature="0" />
	<path style="fill:none;stroke:red;stroke-width:1px;stroke-linecap:butt;stroke-linejoin:miter;stroke-opacity:1" d="M 289.51,212.305 295.336,226.872 z" id="boundary" inkscape:connector-curvature="0" />
	<path style="fill:none;stroke:red;stroke-width:1px;stroke-linecap:butt;stroke-linejoin:miter;stroke-opacity:1" d="M 295.336,226.872 309.903,229.786 z" id="boundary" inkscape:connector-curvature="0" />
	<path style="fill:none;stroke:red;stroke-width:1px;stroke-linecap:butt;stroke-linejoin:miter;stroke-opacity:1" d="M 296.793,996 311.36,996 z" id="boundary" inkscape:connector-curvature="0" />
	<path style="fill:none;stroke:red;stroke-width:1px;stroke-linecap:butt;stroke-linejoin:miter;stroke-opacity:1" d="M 309.903,229.786 324.47,229.786 z" id="boundary" inkscape:connector-curvature="0" />
	<path style="fill:none;stroke:red;stroke-width:1px;stroke-linecap:butt;stroke-linejoin:miter;stroke-opacity:1" d="M 311.36,996 323.013,985.803 z" id="boundary" inkscape:connector-curvature="0" />
	<path style="fill:none;stroke:red;stroke-width:1px;stroke-linecap:butt;stroke-linejoin:miter;stroke-opacity:1" d="M 318.643,790.608 346.32,867.812 z" id="boundary" inkscape:connector-curvature="0" />
	<path style="fill:none;stroke:red;stroke-width:1px;stroke-linecap:butt;stroke-linejoin:miter;stroke-opacity:1" d="M 318.643,790.608 435.178,857.615 z" id="boundary" inkscape:connector-curvature="0" />
	<path style="fill:none;stroke:red;stroke-width:1px;stroke-linecap:butt;stroke-linejoin:miter;stroke-opacity:1" d="M 323.013,985.803 333.21,972.693 z" id="boundary" inkscape:connector-curvature="0" />
	<path style="fill:none;stroke:red;stroke-width:1px;stroke-linecap:butt;stroke-linejoin:miter;stroke-opacity:1" d="M 324.47,229.786 339.037,232.699 z" id="boundary" inkscape:connector-curvature="0" />
	<path style="fill:none;stroke:red;stroke-width:1px;stroke-linecap:butt;stroke-linejoin:miter;stroke-opacity:1" d="M 333.21,958.126 333.21,972.693 z" id="boundary" inkscape:connector-curvature="0" />
	<path style="fill:none;stroke:red;stroke-width:1px;stroke-linecap:butt;stroke-linejoin:miter;stroke-opacity:1" d="M 336.123,908.599 343.407,921.709 z" id="boundary" inkscape:connector-curvature="0" />
	<path style="fill:none;stroke:red;stroke-width:1px;stroke-linecap:butt;stroke-linejoin:miter;stroke-opacity:1" d="M 336.123,908.599 346.32,867.812 z" id="boundary" inkscape:connector-curvature="0" />
	<path style="fill:none;stroke:red;stroke-width:1px;stroke-linecap:butt;stroke-linejoin:miter;stroke-opacity:1" d="M 339.037,232.699 347.777,244.352 z" id="boundary" inkscape:connector-curvature="0" />
	<path style="fill:none;stroke:red;stroke-width:1px;stroke-linecap:butt;stroke-linejoin:miter;stroke-opacity:1" d="M 343.407,921.709 360.887,945.016 z" id="boundary" inkscape:connector-curvature="0" />
	<path style="fill:none;stroke:red;stroke-width:1px;stroke-linecap:butt;stroke-linejoin:miter;stroke-opacity:1" d="M 347.777,244.352 362.344,248.722 z" id="boundary" inkscape:connector-curvature="0" />
	<path style="fill:none;stroke:red;stroke-width:1px;stroke-linecap:butt;stroke-linejoin:miter;stroke-opacity:1" d="M 360.887,945.016 375.454,945.016 z" id="boundary" inkscape:connector-curvature="0" />
	<path style="fill:none;stroke:red;stroke-width:1px;stroke-linecap:butt;stroke-linejoin:miter;stroke-opacity:1" d="M 362.344,248.722 372.54,260.376 z" id="boundary" inkscape:connector-curvature="0" />
	<path style="fill:none;stroke:red;stroke-width:1px;stroke-linecap:butt;stroke-linejoin:miter;stroke-opacity:1" d="M 372.54,260.376 384.194,270.573 z" id="boundary" inkscape:connector-curvature="0" />
	<path style="fill:none;stroke:red;stroke-width:1px;stroke-linecap:butt;stroke-linejoin:miter;stroke-opacity:1" d="M 375.454,945.016 390.021,947.93 z" id="boundary" inkscape:connector-curvature="0" />
	<path style="fill:none;stroke:red;stroke-width:1px;stroke-linecap:butt;stroke-linejoin:miter;stroke-opacity:1" d="M 384.194,270.573 391.477,283.683 z" id="boundary" inkscape:connector-curvature="0" />
	<path style="fill:none;stroke:red;stroke-width:1px;stroke-linecap:butt;stroke-linejoin:miter;stroke-opacity:1" d="M 384.194,311.36 384.194,325.927 z" id="boundary" inkscape:connector-curvature="0" />
	<path style="fill:none;stroke:red;stroke-width:1px;stroke-linecap:butt;stroke-linejoin:miter;stroke-opacity:1" d="M 384.194,311.36 391.477,298.25 z" id="boundary" inkscape:connector-curvature="0" />
	<path style="fill:none;stroke:red;stroke-width:1px;stroke-linecap:butt;stroke-linejoin:miter;stroke-opacity:1" d="M 384.194,325.927 395.847,334.667 z" id="boundary" inkscape:connector-curvature="0" />
	<path style="fill:none;stroke:red;stroke-width:1px;stroke-linecap:butt;stroke-linejoin:miter;stroke-opacity:1" d="M 390.021,947.93 404.587,945.016 z" id="boundary" inkscape:connector-curvature="0" />
	<path style="fill:none;stroke:red;stroke-width:1px;stroke-linecap:butt;stroke-linejoin:miter;stroke-opacity:1" d="M 391.477,283.683 391.477,298.25 z" id="boundary" inkscape:connector-curvature="0" />
	<path style="fill:none;stroke:red;stroke-width:1px;stroke-linecap:butt;stroke-linejoin:miter;stroke-opacity:1" d="M 395.847,334.667 410.414,339.037 z" id="boundary" inkscape:connector-curvature="0" />
	<path style="fill:none;stroke:red;stroke-width:1px;stroke-linecap:butt;stroke-linejoin:miter;stroke-opacity:1" d="M 404.587,945.016 419.154,940.646 z" id="boundary" inkscape:connector-curvature="0" />
	<path style="fill:none;stroke:red;stroke-width:1px;stroke-linecap:butt;stroke-linejoin:miter;stroke-opacity:1" d="M 410.414,339.037 424.981,339.037 z" id="boundary" inkscape:connector-curvature="0" />
	<path style="fill:none;stroke:red;stroke-width:1px;stroke-linecap:butt;stroke-linejoin:miter;stroke-opacity:1" d="M 419.154,940.646 427.894,923.166 z" id="boundary" inkscape:connector-curvature="0" />
	<path style="fill:none;stroke:red;stroke-width:1px;stroke-linecap:butt;stroke-linejoin:miter;stroke-opacity:1" d="M 424.981,339.037 439.548,339.037 z" id="boundary" inkscape:connector-curvature="0" />
	<path style="fill:none;stroke:red;stroke-width:1px;stroke-linecap:butt;stroke-linejoin:miter;stroke-opacity:1" d="M 427.894,879.465 427.894,894.032 z" id="boundary" inkscape:connector-curvature="0" />
	<path style="fill:none;stroke:red;stroke-width:1px;stroke-linecap:butt;stroke-linejoin:miter;stroke-opacity:1" d="M 427.894,879.465 435.178,857.615 z" id="boundary" inkscape:connector-curvature="0" />
	<path style="fill:none;stroke:red;stroke-width:1px;stroke-linecap:butt;stroke-linejoin:miter;stroke-opacity:1" d="M 427.894,894.032 427.894,908.599 z" id="boundary" inkscape:connector-curvature="0" />
	<path style="fill:none;stroke:red;stroke-width:1px;stroke-linecap:butt;stroke-linejoin:miter;stroke-opacity:1" d="M 427.894,908.599 427.894,923.166 z" id="boundary" inkscape:connector-curvature="0" />
	<path style="fill:none;stroke:red;stroke-width:1px;stroke-linecap:butt;stroke-linejoin:miter;stroke-opacity:1" d="M 439.548,339.037 454.115,339.037 z" id="boundary" inkscape:connector-curvature="0" />
	<path style="fill:none;stroke:red;stroke-width:1px;stroke-linecap:butt;stroke-linejoin:miter;stroke-opacity:1" d="M 454.115,339.037 468.681,340.493 z" id="boundary" inkscape:connector-curvature="0" />
	<path style="fill:none;stroke:red;stroke-width:1px;stroke-linecap:butt;stroke-linejoin:miter;stroke-opacity:1" d="M 468.681,340.493 481.791,347.777 z" id="boundary" inkscape:connector-curvature="0" />
	<path style="fill:none;stroke:red;stroke-width:1px;stroke-linecap:butt;stroke-linejoin:miter;stroke-opacity:1" d="M 481.791,347.777 493.445,357.974 z" id="boundary" inkscape:connector-curvature="0" />
	<path style="fill:none;stroke:red;stroke-width:1px;stroke-linecap:butt;stroke-linejoin:miter;stroke-opacity:1" d="M 493.445,357.974 503.642,369.627 z" id="boundary" inkscape:connector-curvature="0" />
	<path style="fill:none;stroke:red;stroke-width:1px;stroke-linecap:butt;stroke-linejoin:miter;stroke-opacity:1" d="M 499.272,911.512 499.272,926.079 z" id="boundary" inkscape:connector-curvature="0" />
	<path style="fill:none;stroke:red;stroke-width:1px;stroke-linecap:butt;stroke-linejoin:miter;stroke-opacity:1" d="M 499.272,911.512 506.555,896.946 z" id="boundary" inkscape:connector-curvature="0" />
	<path style="fill:none;stroke:red;stroke-width:1px;stroke-linecap:butt;stroke-linejoin:miter;stroke-opacity:1" d="M 499.272,926.079 499.272,940.646 z" id="boundary" inkscape:connector-curvature="0" />
	<path style="fill:none;stroke:red;stroke-width:1px;stroke-linecap:butt;stroke-linejoin:miter;stroke-opacity:1" d="M 499.272,940.646 499.272,955.213 z" id="boundary" inkscape:connector-curvature="0" />
	<path style="fill:none;stroke:red;stroke-width:1px;stroke-linecap:butt;stroke-linejoin:miter;stroke-opacity:1" d="M 499.272,955.213 513.838,959.583 z" id="boundary" inkscape:connector-curvature="0" />
	<path style="fill:none;stroke:red;stroke-width:1px;stroke-linecap:butt;stroke-linejoin:miter;stroke-opacity:1" d="M 503.642,369.627 515.295,379.824 z" id="boundary" inkscape:connector-curvature="0" />
	<path style="fill:none;stroke:red;stroke-width:1px;stroke-linecap:butt;stroke-linejoin:miter;stroke-opacity:1" d="M 513.838,959.583 526.949,966.866 z" id="boundary" inkscape:connector-curvature="0" />
	<path style="fill:none;stroke:red;stroke-width:1px;stroke-linecap:butt;stroke-linejoin:miter;stroke-opacity:1" d="M 515.295,379.824 525.492,391.477 z" id="boundary" inkscape:connector-curvature="0" />
	<path style="fill:none;stroke:red;stroke-width:1px;stroke-linecap:butt;stroke-linejoin:miter;stroke-opacity:1" d="M 525.492,391.477 537.145,401.674 z" id="boundary" inkscape:connector-curvature="0" />
	<path style="fill:none;stroke:red;stroke-width:1px;stroke-linecap:butt;stroke-linejoin:miter;stroke-opacity:1" d="M 526.949,966.866 540.059,974.15 z" id="boundary" inkscape:connector-curvature="0" />
	<path style="fill:none;stroke:red;stroke-width:1px;stroke-linecap:butt;stroke-linejoin:miter;stroke-opacity:1" d="M 537.145,401.674 547.342,413.327 z" id="boundary" inkscape:connector-curvature="0" />
	<path style="fill:none;stroke:red;stroke-width:1px;stroke-linecap:butt;stroke-linejoin:miter;stroke-opacity:1" d="M 540.059,974.15 554.626,974.15 z" id="boundary" inkscape:connector-curvature="0" />
	<path style="fill:none;stroke:red;stroke-width:1px;stroke-linecap:butt;stroke-linejoin:miter;stroke-opacity:1" d="M 544.429,682.814 572.106,660.963 z" id="boundary" inkscape:connector-curvature="0" />
	<path style="fill:none;stroke:red;stroke-width:1px;stroke-linecap:butt;stroke-linejoin:miter;stroke-opacity:1" d="M 544.429,682.814 595.413,762.931 z" id="boundary" inkscape:connector-curvature="0" />
	<path style="fill:none;stroke:red;stroke-width:1px;stroke-linecap:butt;stroke-linejoin:miter;stroke-opacity:1" d="M 547.342,413.327 554.626,426.438 z" id="boundary" inkscape:connector-curvature="0" />
	<path style="fill:none;stroke:red;stroke-width:1px;stroke-linecap:butt;stroke-linejoin:miter;stroke-opacity:1" d="M 554.626,426.438 558.996,441.004 z" id="boundary" inkscape:connector-curvature="0" />
	<path style="fill:none;stroke:red;stroke-width:1px;stroke-linecap:butt;stroke-linejoin:miter;stroke-opacity:1" d="M 554.626,974.15 569.192,974.15 z" id="boundary" inkscape:connector-curvature="0" />
	<path style="fill:none;stroke:red;stroke-width:1px;stroke-linecap:butt;stroke-linejoin:miter;stroke-opacity:1" d="M 558.996,441.004 570.649,449.744 z" id="boundary" inkscape:connector-curvature="0" />
	<path style="fill:none;stroke:red;stroke-width:1px;stroke-linecap:butt;stroke-linejoin:miter;stroke-opacity:1" d="M 569.192,974.15 583.759,972.693 z" id="boundary" inkscape:connector-curvature="0" />
	<path style="fill:none;stroke:red;stroke-width:1px;stroke-linecap:butt;stroke-linejoin:miter;stroke-opacity:1" d="M 570.649,449.744 573.562,464.311 z" id="boundary" inkscape:connector-curvature="0" />
	<path style="fill:none;stroke:red;stroke-width:1px;stroke-linecap:butt;stroke-linejoin:miter;stroke-opacity:1" d="M 572.106,660.963 595.413,634.743 z" id="boundary" inkscape:connector-curvature="0" />
	<path style="fill:none;stroke:red;stroke-width:1px;stroke-linecap:butt;stroke-linejoin:miter;stroke-opacity:1" d="M 573.562,464.311 580.846,477.421 z" id="boundary" inkscape:connector-curvature="0" />
	<path style="fill:none;stroke:red;stroke-width:1px;stroke-linecap:butt;stroke-linejoin:miter;stroke-opacity:1" d="M 580.846,477.421 580.846,491.988 z" id="boundary" inkscape:connector-curvature="0" />
	<path style="fill:none;stroke:red;stroke-width:1px;stroke-linecap:butt;stroke-linejoin:miter;stroke-opacity:1" d="M 580.846,491.988 588.129,505.098 z" id="boundary" inkscape:connector-curvature="0" />
	<path style="fill:none;stroke:red;stroke-width:1px;stroke-linecap:butt;stroke-linejoin:miter;stroke-opacity:1" d="M 583.759,972.693 595.413,959.583 z" id="boundary" inkscape:connector-curvature="0" />
	<path style="fill:none;stroke:red;stroke-width:1px;stroke-linecap:butt;stroke-linejoin:miter;stroke-opacity:1" d="M 588.129,505.098 588.129,519.665 z" id="boundary" inkscape:connector-curvature="0" />
	<path style="fill:none;stroke:red;stroke-width:1px;stroke-linecap:butt;stroke-linejoin:miter;stroke-opacity:1" d="M 588.129,519.665 588.129,534.232 z" id="boundary" inkscape:connector-curvature="0" />
	<path style="fill:none;stroke:red;stroke-width:1px;stroke-linecap:butt;stroke-linejoin:miter;stroke-opacity:1" d="M 588.129,534.232 588.129,548.799 z" id="boundary" inkscape:connector-curvature="0" />
	<path style="fill:none;stroke:red;stroke-width:1px;stroke-linecap:butt;stroke-linejoin:miter;stroke-opacity:1" d="M 588.129,548.799 588.129,563.366 z" id="boundary" inkscape:connector-curvature="0" />
	<path style="fill:none;stroke:red;stroke-width:1px;stroke-linecap:butt;stroke-linejoin:miter;stroke-opacity:1" d="M 588.129,563.366 588.129,577.932 z" id="boundary" inkscape:connector-curvature="0" />
	<path style="fill:none;stroke:red;stroke-width:1px;stroke-linecap:butt;stroke-linejoin:miter;stroke-opacity:1" d="M 588.129,577.932 588.129,592.499 z" id="boundary" inkscape:connector-curvature="0" />
	<path style="fill:none;stroke:red;stroke-width:1px;stroke-linecap:butt;stroke-linejoin:miter;stroke-opacity:1" d="M 588.129,592.499 588.129,607.066 z" id="boundary" inkscape:connector-curvature="0" />
	<path style="fill:none;stroke:red;stroke-width:1px;stroke-linecap:butt;stroke-linejoin:miter;stroke-opacity:1" d="M 588.129,607.066 595.413,634.743 z" id="boundary" inkscape:connector-curvature="0" />
	<path style="fill:none;stroke:red;stroke-width:1px;stroke-linecap:butt;stroke-linejoin:miter;stroke-opacity:1" d="M 595.413,762.931 602.696,831.395 z" id="boundary" inkscape:connector-curvature="0" />
	<path style="fill:none;stroke:red;stroke-width:1px;stroke-linecap:butt;stroke-linejoin:miter;stroke-opacity:1" d="M 595.413,959.583 609.979,947.93 z" id="boundary" inkscape:connector-curvature="0" />
	<path style="fill:none;stroke:red;stroke-width:1px;stroke-linecap:butt;stroke-linejoin:miter;stroke-opacity:1" d="M 602.696,831.395 602.696,875.095 z" id="boundary" inkscape:connector-curvature="0" />
	<path style="fill:none;stroke:red;stroke-width:1px;stroke-linecap:butt;stroke-linejoin:miter;stroke-opacity:1" d="M 602.696,875.095 609.979,904.229 z" id="boundary" inkscape:connector-curvature="0" />
	<path style="fill:none;stroke:red;stroke-width:1px;stroke-linecap:butt;stroke-linejoin:miter;stroke-opacity:1" d="M 609.979,904.229 609.979,933.363 z" id="boundary" inkscape:connector-curvature="0" />
	<path style="fill:none;stroke:red;stroke-width:1px;stroke-linecap:butt;stroke-linejoin:miter;stroke-opacity:1" d="M 609.979,933.363 609.979,947.93 z" id="boundary" inkscape:connector-curvature="0" />
	<circle cx="4" cy="73.9207" r="4" fill="#0" id="circle0"/>
	<circle cx="4" cy="88.4875" r="4" fill="#0" id="circle1"/>
	<circle cx="4" cy="103.054" r="4" fill="#0" id="circle2"/>
	<circle cx="4" cy="117.621" r="4" fill="#0" id="circle3"/>
	<circle cx="4" cy="132.188" r="4" fill="#0" id="circle4"/>
	<circle cx="4" cy="146.755" r="4" fill="#0" id="circle5"/>
	<circle cx="4" cy="161.322" r="4" fill="#0" id="circle6"/>
	<circle cx="4" cy="175.888" r="4" fill="#0" id="circle7"/>
	<circle cx="11.2834" cy="59.3539" r="4" fill="#0" id="circle8"/>
	<circle cx="11.2834" cy="188.999" r="4" fill="#0" id="circle9"/>
	<circle cx="11.2834" cy="203.565" r="4" fill="#0" id="circle10"/>
	<circle cx="18.5668" cy="44.7871" r="4" fill="#0" id="circle11"/>
	<circle cx="18.5668" cy="216.675" r="4" fill="#0" id="circle12"/>
	<circle cx="18.5668" cy="277.856" r="4" fill="#0" id="circle13"/>
	<circle cx="18.5668" cy="292.423" r="4" fill="#0" id="circle14"/>
	<circle cx="25.8502" cy="30.2203" r="4" fill="#0" id="circle15"/>
	<circle cx="25.8502" cy="229.786" r="4" fill="#0" id="circle16"/>
	<circle cx="25.8502" cy="305.533" r="4" fill="#0" id="circle17"/>
	<circle cx="28.7636" cy="244.352" r="4" fill="#0" id="circle18"/>
	<circle cx="33.1336" cy="273.486" r="4" fill="#0" id="circle19"/>
	<circle cx="33.1336" cy="318.643" r="4" fill="#0" id="circle20"/>
	<circle cx="36.047" cy="257.463" r="4" fill="#0" id="circle21"/>
	<circle cx="37.5037" cy="18.5668" r="4" fill="#0" id="circle22"/>
	<circle cx="41.8737" cy="330.297" r="4" fill="#0" id="circle23"/>
	<circle cx="47.7004" cy="267.659" r="4" fill="#0" id="circle24"/>
	<circle cx="49.1571" cy="6.91336" r="4" fill="#0" id="circle25"/>
	<circle cx="53.5272" cy="340.493" r="4" fill="#0" id="circle26"/>
	<circle cx="56.4405" cy="78.2907" r="4" fill="#0" id="circle27"/>
	<circle cx="56.4405" cy="92.8576" r="4" fill="#0" id="circle28"/>
	<circle cx="56.4405" cy="107.424" r="4" fill="#0" id="circle29"/>
	<circle cx="56.4405" cy="121.991" r="4" fill="#0" id="circle30"/>
	<circle cx="56.4405" cy="136.558" r="4" fill="#0" id="circle31"/>
	<circle cx="59.3539" cy="151.125" r="4" fill="#0" id="circle32"/>
	<circle cx="62.2673" cy="352.147" r="4" fill="#0" id="circle33"/>
	<circle cx="63.7239" cy="4" r="4" fill="#0" id="circle34"/>
	<circle cx="63.7239" cy="366.714" r="4" fill="#0" id="circle35"/>
	<circle cx="69.5507" cy="71.0073" r="4" fill="#0" id="circle36"/>
	<circle cx="71.0073" cy="161.322" r="4" fill="#0" id="circle37"/>
	<circle cx="71.0073" cy="175.888" r="4" fill="#0" id="circle38"/>
	<circle cx="75.3774" cy="376.91" r="4" fill="#0" id="circle39"/>
	<circle cx="78.2907" cy="4" r="4" fill="#0" id="circle40"/>
	<circle cx="78.2907" cy="82.6608" r="4" fill="#0" id="circle41"/>
	<circle cx="81.2041" cy="187.542" r="4" fill="#0" id="circle42"/>
	<circle cx="84.1175" cy="97.2276" r="4" fill="#0" id="circle43"/>
	<circle cx="84.1175" cy="111.794" r="4" fill="#0" id="circle44"/>
	<circle cx="84.1175" cy="126.361" r="4" fill="#0" id="circle45"/>
	<circle cx="84.1175" cy="140.928" r="4" fill="#0" id="circle46"/>
	<circle cx="88.4875" cy="384.194" r="4" fill="#0" id="circle47"/>
	<circle cx="89.9442" cy="12.7401" r="4" fill="#0" id="circle48"/>
	<circle cx="91.4009" cy="154.038" r="4" fill="#0" id="circle49"/>
	<circle cx="91.4009" cy="896.946" r="4" fill="#0" id="circle50"/>
	<circle cx="91.4009" cy="911.512" r="4" fill="#0" id="circle51"/>
	<circle cx="91.4009" cy="926.079" r="4" fill="#0" id="circle52"/>
	<circle cx="91.4009" cy="940.646" r="4" fill="#0" id="circle53"/>
	<circle cx="95.7709" cy="193.369" r="4" fill="#0" id="circle54"/>
	<circle cx="98.6843" cy="882.379" r="4" fill="#0" id="circle55"/>
	<circle cx="100.141" cy="24.3935" r="4" fill="#0" id="circle56"/>
	<circle cx="103.054" cy="390.021" r="4" fill="#0" id="circle57"/>
	<circle cx="103.054" cy="950.843" r="4" fill="#0" id="circle58"/>
	<circle cx="105.968" cy="158.408" r="4" fill="#0" id="circle59"/>
	<circle cx="110.338" cy="193.369" r="4" fill="#0" id="circle60"/>
	<circle cx="110.338" cy="870.725" r="4" fill="#0" id="circle61"/>
	<circle cx="111.794" cy="34.5903" r="4" fill="#0" id="circle62"/>
	<circle cx="113.251" cy="853.245" r="4" fill="#0" id="circle63"/>
	<circle cx="114.708" cy="959.583" r="4" fill="#0" id="circle64"/>
	<circle cx="116.164" cy="397.304" r="4" fill="#0" id="circle65"/>
	<circle cx="117.621" cy="49.1571" r="4" fill="#0" id="circle66"/>
	<circle cx="120.535" cy="161.322" r="4" fill="#0" id="circle67"/>
	<circle cx="120.535" cy="802.261" r="4" fill="#0" id="circle68"/>
	<circle cx="120.535" cy="816.828" r="4" fill="#0" id="circle69"/>
	<circle cx="120.535" cy="831.395" r="4" fill="#0" id="circle70"/>
	<circle cx="121.991" cy="63.7239" r="4" fill="#0" id="circle71"/>
	<circle cx="121.991" cy="78.2907" r="4" fill="#0" id="circle72"/>
	<circle cx="124.905" cy="193.369" r="4" fill="#0" id="circle73"/>
	<circle cx="127.818" cy="406.044" r="4" fill="#0" id="circle74"/>
	<circle cx="127.818" cy="765.844" r="4" fill="#0" id="circle75"/>
	<circle cx="127.818" cy="780.411" r="4" fill="#0" id="circle76"/>
	<circle cx="129.275" cy="91.4009" r="4" fill="#0" id="circle77"/>
	<circle cx="129.275" cy="105.968" r="4" fill="#0" id="circle78"/>
	<circle cx="129.275" cy="120.535" r="4" fill="#0" id="circle79"/>
	<circle cx="129.275" cy="135.101" r="4" fill="#0" id="circle80"/>
	<circle cx="129.275" cy="149.668" r="4" fill="#0" id="circle81"/>
	<circle cx="129.275" cy="959.583" r="4" fill="#0" id="circle82"/>
	<circle cx="132.188" cy="420.611" r="4" fill="#0" id="circle83"/>
	<circle cx="135.101" cy="435.178" r="4" fill="#0" id="circle84"/>
	<circle cx="135.101" cy="736.711" r="4" fill="#0" id="circle85"/>
	<circle cx="135.101" cy="751.278" r="4" fill="#0" id="circle86"/>
	<circle cx="139.471" cy="193.369" r="4" fill="#0" id="circle87"/>
	<circle cx="142.385" cy="448.288" r="4" fill="#0" id="circle88"/>
	<circle cx="142.385" cy="707.577" r="4" fill="#0" id="circle89"/>
	<circle cx="142.385" cy="722.144" r="4" fill="#0" id="circle90"/>
	<circle cx="143.841" cy="959.583" r="4" fill="#0" id="circle91"/>
	<circle cx="149.668" cy="685.727" r="4" fill="#0" id="circle92"/>
	<circle cx="151.125" cy="459.941" r="4" fill="#0" id="circle93"/>
	<circle cx="154.038" cy="186.085" r="4" fill="#0" id="circle94"/>
	<circle cx="156.952" cy="649.31" r="4" fill="#0" id="circle95"/>
	<circle cx="156.952" cy="663.877" r="4" fill="#0" id="circle96"/>
	<circle cx="158.408" cy="959.583" r="4" fill="#0" id="circle97"/>
	<circle cx="161.322" cy="471.595" r="4" fill="#0" id="circle98"/>
	<circle cx="164.235" cy="547.342" r="4" fill="#0" id="circle99"/>
	<circle cx="164.235" cy="561.909" r="4" fill="#0" id="circle100"/>
	<circle cx="164.235" cy="576.476" r="4" fill="#0" id="circle101"/>
	<circle cx="164.235" cy="591.043" r="4" fill="#0" id="circle102"/>
	<circle cx="164.235" cy="605.609" r="4" fill="#0" id="circle103"/>
	<circle cx="164.235" cy="620.176" r="4" fill="#0" id="circle104"/>
	<circle cx="164.235" cy="634.743" r="4" fill="#0" id="circle105"/>
	<circle cx="168.605" cy="186.085" r="4" fill="#0" id="circle106"/>
	<circle cx="171.518" cy="483.248" r="4" fill="#0" id="circle107"/>
	<circle cx="171.518" cy="497.815" r="4" fill="#0" id="circle108"/>
	<circle cx="171.518" cy="512.382" r="4" fill="#0" id="circle109"/>
	<circle cx="171.518" cy="526.949" r="4" fill="#0" id="circle110"/>
	<circle cx="172.975" cy="952.3" r="4" fill="#0" id="circle111"/>
	<circle cx="183.172" cy="186.085" r="4" fill="#0" id="circle112"/>
	<circle cx="187.542" cy="945.016" r="4" fill="#0" id="circle113"/>
	<circle cx="194.825" cy="864.899" r="4" fill="#0" id="circle114"/>
	<circle cx="194.825" cy="879.465" r="4" fill="#0" id="circle115"/>
	<circle cx="194.825" cy="923.166" r="4" fill="#0" id="circle116"/>
	<circle cx="196.282" cy="178.802" r="4" fill="#0" id="circle117"/>
	<circle cx="197.739" cy="894.032" r="4" fill="#0" id="circle118"/>
	<circle cx="202.109" cy="835.765" r="4" fill="#0" id="circle119"/>
	<circle cx="202.109" cy="850.332" r="4" fill="#0" id="circle120"/>
	<circle cx="202.109" cy="908.599" r="4" fill="#0" id="circle121"/>
	<circle cx="209.392" cy="813.915" r="4" fill="#0" id="circle122"/>
	<circle cx="210.849" cy="178.802" r="4" fill="#0" id="circle123"/>
	<circle cx="215.219" cy="947.93" r="4" fill="#0" id="circle124"/>
	<circle cx="215.219" cy="962.496" r="4" fill="#0" id="circle125"/>
	<circle cx="215.219" cy="977.063" r="4" fill="#0" id="circle126"/>
	<circle cx="222.502" cy="806.631" r="4" fill="#0" id="circle127"/>
	<circle cx="222.502" cy="926.079" r="4" fill="#0" id="circle128"/>
	<circle cx="225.416" cy="178.802" r="4" fill="#0" id="circle129"/>
	<circle cx="226.872" cy="821.198" r="4" fill="#0" id="circle130"/>
	<circle cx="229.786" cy="835.765" r="4" fill="#0" id="circle131"/>
	<circle cx="229.786" cy="850.332" r="4" fill="#0" id="circle132"/>
	<circle cx="229.786" cy="911.512" r="4" fill="#0" id="circle133"/>
	<circle cx="229.786" cy="981.433" r="4" fill="#0" id="circle134"/>
	<circle cx="234.156" cy="864.899" r="4" fill="#0" id="circle135"/>
	<circle cx="237.069" cy="879.465" r="4" fill="#0" id="circle136"/>
	<circle cx="237.069" cy="894.032" r="4" fill="#0" id="circle137"/>
	<circle cx="238.526" cy="993.087" r="4" fill="#0" id="circle138"/>
	<circle cx="239.982" cy="178.802" r="4" fill="#0" id="circle139"/>
	<circle cx="253.093" cy="186.085" r="4" fill="#0" id="circle140"/>
	<circle cx="253.093" cy="996" r="4" fill="#0" id="circle141"/>
	<circle cx="266.203" cy="193.369" r="4" fill="#0" id="circle142"/>
	<circle cx="267.659" cy="996" r="4" fill="#0" id="circle143"/>
	<circle cx="277.856" cy="202.109" r="4" fill="#0" id="circle144"/>
	<circle cx="282.226" cy="996" r="4" fill="#0" id="circle145"/>
	<circle cx="289.51" cy="212.305" r="4" fill="#0" id="circle146"/>
	<circle cx="295.336" cy="226.872" r="4" fill="#0" id="circle147"/>
	<circle cx="296.793" cy="996" r="4" fill="#0" id="circle148"/>
	<circle cx="309.903" cy="229.786" r="4" fill="#0" id="circle149"/>
	<circle cx="311.36" cy="704.664" r="4" fill="#0" id="circle150"/>
	<circle cx="311.36" cy="719.231" r="4" fill="#0" id="circle151"/>
	<circle cx="311.36" cy="733.797" r="4" fill="#0" id="circle152"/>
	<circle cx="311.36" cy="748.364" r="4" fill="#0" id="circle153"/>
	<circle cx="311.36" cy="762.931" r="4" fill="#0" id="circle154"/>
	<circle cx="311.36" cy="777.498" r="4" fill="#0" id="circle155"/>
	<circle cx="311.36" cy="996" r="4" fill="#0" id="circle156"/>
	<circle cx="318.643" cy="790.608" r="4" fill="#0" id="circle157"/>
	<circle cx="318.643" cy="805.175" r="4" fill="#0" id="circle158"/>
	<circle cx="318.643" cy="819.742" r="4" fill="#0" id="circle159"/>
	<circle cx="318.643" cy="857.615" r="4" fill="#0" id="circle160"/>
	<circle cx="318.643" cy="872.182" r="4" fill="#0" id="circle161"/>
	<circle cx="318.643" cy="886.749" r="4" fill="#0" id="circle162"/>
	<circle cx="318.643" cy="901.316" r="4" fill="#0" id="circle163"/>
	<circle cx="321.557" cy="915.883" r="4" fill="#0" id="circle164"/>
	<circle cx="323.013" cy="985.803" r="4" fill="#0" id="circle165"/>
	<circle cx="324.47" cy="229.786" r="4" fill="#0" id="circle166"/>
	<circle cx="325.927" cy="719.231" r="4" fill="#0" id="circle167"/>
	<circle cx="325.927" cy="832.852" r="4" fill="#0" id="circle168"/>
	<circle cx="328.84" cy="928.993" r="4" fill="#0" id="circle169"/>
	<circle cx="331.753" cy="894.032" r="4" fill="#0" id="circle170"/>
	<circle cx="333.21" cy="943.559" r="4" fill="#0" id="circle171"/>
	<circle cx="333.21" cy="958.126" r="4" fill="#0" id="circle172"/>
	<circle cx="333.21" cy="972.693" r="4" fill="#0" id="circle173"/>
	<circle cx="334.667" cy="879.465" r="4" fill="#0" id="circle174"/>
	<circle cx="336.123" cy="908.599" r="4" fill="#0" id="circle175"/>
	<circle cx="339.037" cy="232.699" r="4" fill="#0" id="circle176"/>
	<circle cx="339.037" cy="726.514" r="4" fill="#0" id="circle177"/>
	<circle cx="343.407" cy="921.709" r="4" fill="#0" id="circle178"/>
	<circle cx="346.32" cy="853.245" r="4" fill="#0" id="circle179"/>
	<circle cx="346.32" cy="867.812" r="4" fill="#0" id="circle180"/>
	<circle cx="347.777" cy="244.352" r="4" fill="#0" id="circle181"/>
	<circle cx="349.233" cy="936.276" r="4" fill="#0" id="circle182"/>
	<circle cx="353.604" cy="726.514" r="4" fill="#0" id="circle183"/>
	<circle cx="353.604" cy="802.261" r="4" fill="#0" id="circle184"/>
	<circle cx="353.604" cy="816.828" r="4" fill="#0" id="circle185"/>
	<circle cx="353.604" cy="831.395" r="4" fill="#0" id="circle186"/>
	<circle cx="360.887" cy="773.128" r="4" fill="#0" id="circle187"/>
	<circle cx="360.887" cy="787.695" r="4" fill="#0" id="circle188"/>
	<circle cx="360.887" cy="945.016" r="4" fill="#0" id="circle189"/>
	<circle cx="362.344" cy="248.722" r="4" fill="#0" id="circle190"/>
	<circle cx="366.714" cy="733.797" r="4" fill="#0" id="circle191"/>
	<circle cx="368.17" cy="748.364" r="4" fill="#0" id="circle192"/>
	<circle cx="372.54" cy="260.376" r="4" fill="#0" id="circle193"/>
	<circle cx="375.454" cy="945.016" r="4" fill="#0" id="circle194"/>
	<circle cx="384.194" cy="270.573" r="4" fill="#0" id="circle195"/>
	<circle cx="384.194" cy="311.36" r="4" fill="#0" id="circle196"/>
	<circle cx="384.194" cy="325.927" r="4" fill="#0" id="circle197"/>
	<circle cx="390.021" cy="947.93" r="4" fill="#0" id="circle198"/>
	<circle cx="391.477" cy="283.683" r="4" fill="#0" id="circle199"/>
	<circle cx="391.477" cy="298.25" r="4" fill="#0" id="circle200"/>
	<circle cx="395.847" cy="334.667" r="4" fill="#0" id="circle201"/>
	<circle cx="404.587" cy="945.016" r="4" fill="#0" id="circle202"/>
	<circle cx="410.414" cy="339.037" r="4" fill="#0" id="circle203"/>
	<circle cx="419.154" cy="940.646" r="4" fill="#0" id="circle204"/>
	<circle cx="424.981" cy="339.037" r="4" fill="#0" id="circle205"/>
	<circle cx="427.894" cy="879.465" r="4" fill="#0" id="circle206"/>
	<circle cx="427.894" cy="894.032" r="4" fill="#0" id="circle207"/>
	<circle cx="427.894" cy="908.599" r="4" fill="#0" id="circle208"/>
	<circle cx="427.894" cy="923.166" r="4" fill="#0" id="circle209"/>
	<circle cx="435.178" cy="857.615" r="4" fill="#0" id="circle210"/>
	<circle cx="439.548" cy="339.037" r="4" fill="#0" id="circle211"/>
	<circle cx="442.461" cy="813.915" r="4" fill="#0" id="circle212"/>
	<circle cx="442.461" cy="828.482" r="4" fill="#0" id="circle213"/>
	<circle cx="442.461" cy="843.048" r="4" fill="#0" id="circle214"/>
	<circle cx="449.744" cy="799.348" r="4" fill="#0" id="circle215"/>
	<circle cx="454.115" cy="339.037" r="4" fill="#0" id="circle216"/>
	<circle cx="462.855" cy="792.065" r="4" fill="#0" id="circle217"/>
	<circle cx="467.225" cy="806.631" r="4" fill="#0" id="circle218"/>
	<circle cx="468.681" cy="340.493" r="4" fill="#0" id="circle219"/>
	<circle cx="478.878" cy="816.828" r="4" fill="#0" id="circle220"/>
	<circle cx="481.791" cy="347.777" r="4" fill="#0" id="circle221"/>
	<circle cx="489.075" cy="828.482" r="4" fill="#0" id="circle222"/>
	<circle cx="493.445" cy="357.974" r="4" fill="#0" id="circle223"/>
	<circle cx="499.272" cy="911.512" r="4" fill="#0" id="circle224"/>
	<circle cx="499.272" cy="926.079" r="4" fill="#0" id="circle225"/>
	<circle cx="499.272" cy="940.646" r="4" fill="#0" id="circle226"/>
	<circle cx="499.272" cy="955.213" r="4" fill="#0" id="circle227"/>
	<circle cx="503.642" cy="369.627" r="4" fill="#0" id="circle228"/>
	<circle cx="503.642" cy="834.308" r="4" fill="#0" id="circle229"/>
	<circle cx="506.555" cy="896.946" r="4" fill="#0" id="circle230"/>
	<circle cx="513.838" cy="845.962" r="4" fill="#0" id="circle231"/>
	<circle cx="513.838" cy="882.379" r="4" fill="#0" id="circle232"/>
	<circle cx="513.838" cy="959.583" r="4" fill="#0" id="circle233"/>
	<circle cx="515.295" cy="379.824" r="4" fill="#0" id="circle234"/>
	<circle cx="521.122" cy="859.072" r="4" fill="#0" id="circle235"/>
	<circle cx="525.492" cy="391.477" r="4" fill="#0" id="circle236"/>
	<circle cx="526.949" cy="966.866" r="4" fill="#0" id="circle237"/>
	<circle cx="537.145" cy="401.674" r="4" fill="#0" id="circle238"/>
	<circle cx="540.059" cy="974.15" r="4" fill="#0" id="circle239"/>
	<circle cx="544.429" cy="682.814" r="4" fill="#0" id="circle240"/>
	<circle cx="544.429" cy="697.38" r="4" fill="#0" id="circle241"/>
	<circle cx="547.342" cy="413.327" r="4" fill="#0" id="circle242"/>
	<circle cx="551.712" cy="710.49" r="4" fill="#0" id="circle243"/>
	<circle cx="554.626" cy="426.438" r="4" fill="#0" id="circle244"/>
	<circle cx="554.626" cy="974.15" r="4" fill="#0" id="circle245"/>
	<circle cx="558.996" cy="441.004" r="4" fill="#0" id="circle246"/>
	<circle cx="558.996" cy="668.247" r="4" fill="#0" id="circle247"/>
	<circle cx="558.996" cy="723.601" r="4" fill="#0" id="circle248"/>
	<circle cx="566.279" cy="736.711" r="4" fill="#0" id="circle249"/>
	<circle cx="566.279" cy="751.278" r="4" fill="#0" id="circle250"/>
	<circle cx="569.192" cy="974.15" r="4" fill="#0" id="circle251"/>
	<circle cx="570.649" cy="449.744" r="4" fill="#0" id="circle252"/>
	<circle cx="572.106" cy="660.963" r="4" fill="#0" id="circle253"/>
	<circle cx="573.562" cy="464.311" r="4" fill="#0" id="circle254"/>
	<circle cx="573.562" cy="764.388" r="4" fill="#0" id="circle255"/>
	<circle cx="579.389" cy="674.073" r="4" fill="#0" id="circle256"/>
	<circle cx="579.389" cy="688.64" r="4" fill="#0" id="circle257"/>
	<circle cx="579.389" cy="703.207" r="4" fill="#0" id="circle258"/>
	<circle cx="579.389" cy="717.774" r="4" fill="#0" id="circle259"/>
	<circle cx="580.846" cy="477.421" r="4" fill="#0" id="circle260"/>
	<circle cx="580.846" cy="491.988" r="4" fill="#0" id="circle261"/>
	<circle cx="580.846" cy="736.711" r="4" fill="#0" id="circle262"/>
	<circle cx="580.846" cy="777.498" r="4" fill="#0" id="circle263"/>
	<circle cx="583.759" cy="972.693" r="4" fill="#0" id="circle264"/>
	<circle cx="586.673" cy="751.278" r="4" fill="#0" id="circle265"/>
	<circle cx="588.129" cy="505.098" r="4" fill="#0" id="circle266"/>
	<circle cx="588.129" cy="519.665" r="4" fill="#0" id="circle267"/>
	<circle cx="588.129" cy="534.232" r="4" fill="#0" id="circle268"/>
	<circle cx="588.129" cy="548.799" r="4" fill="#0" id="circle269"/>
	<circle cx="588.129" cy="563.366" r="4" fill="#0" id="circle270"/>
	<circle cx="588.129" cy="577.932" r="4" fill="#0" id="circle271"/>
	<circle cx="588.129" cy="592.499" r="4" fill="#0" id="circle272"/>
	<circle cx="588.129" cy="607.066" r="4" fill="#0" id="circle273"/>
	<circle cx="588.129" cy="621.633" r="4" fill="#0" id="circle274"/>
	<circle cx="588.129" cy="790.608" r="4" fill="#0" id="circle275"/>
	<circle cx="595.413" cy="634.743" r="4" fill="#0" id="circle276"/>
	<circle cx="595.413" cy="649.31" r="4" fill="#0" id="circle277"/>
	<circle cx="595.413" cy="663.877" r="4" fill="#0" id="circle278"/>
	<circle cx="595.413" cy="697.38" r="4" fill="#0" id="circle279"/>
	<circle cx="595.413" cy="711.947" r="4" fill="#0" id="circle280"/>
	<circle cx="595.413" cy="762.931" r="4" fill="#0" id="circle281"/>
	<circle cx="595.413" cy="803.718" r="4" fill="#0" id="circle282"/>
	<circle cx="595.413" cy="959.583" r="4" fill="#0" id="circle283"/>
	<circle cx="602.696" cy="676.987" r="4" fill="#0" id="circle284"/>
	<circle cx="602.696" cy="725.057" r="4" fill="#0" id="circle285"/>
	<circle cx="602.696" cy="739.624" r="4" fill="#0" id="circle286"/>
	<circle cx="602.696" cy="816.828" r="4" fill="#0" id="circle287"/>
	<circle cx="602.696" cy="831.395" r="4" fill="#0" id="circle288"/>
	<circle cx="602.696" cy="845.962" r="4" fill="#0" id="circle289"/>
	<circle cx="602.696" cy="860.529" r="4" fill="#0" id="circle290"/>
	<circle cx="602.696" cy="875.095" r="4" fill="#0" id="circle291"/>
	<circle cx="608.523" cy="889.662" r="4" fill="#0" id="circle292"/>
	<circle cx="609.979" cy="904.229" r="4" fill="#0" id="circle293"/>
	<circle cx="609.979" cy="918.796" r="4" fill="#0" id="circle294"/>
	<circle cx="609.979" cy="933.363" r="4" fill="#0" id="circle295"/>
	<circle cx="609.979" cy="947.93" r="4" fill="#0" id="circle296"/>
	</g>
</svg>