<?xml version="1.0" encoding="UTF-8" standalone="no"?>
<!-- Created with CurveBenchmark -->
<svg
	xmlns:dc="http://purl.org/dc/elements/1.1/"
	xmlns:cc="http://creativecommons.org/ns#"
	xmlns:rdf="http://www.w3.org/1999/02/22-rdf-syntax-ns#"
	xmlns:svg="http://www.w3.org/2000/svg"
	xmlns="http://www.w3.org/2000/svg"
	xmlns:sodipodi="http://sodipodi.sourceforge.net/DTD/sodipodi-0.dtd"
	xmlns:inkscape="http://www.inkscape.org/namespaces/inkscape"
	width="1000"
	height="1000"
	id="svg2"
	version="1.1"
	sodipodi:docname="manifold/fitconnect-teddy350.png.txt">
<defs
	id="defs4" />
<metadata
	id="metadata7">
	<rdf:RDF>
		<cc:Work
			rdf:about="">
			<dc:format>image/svg+xml</dc:format>
			<dc:type
				rdf:resource="http://purl.org/dc/dcmitype/StillImage" />
			<dc:title></dc:title>
		</cc:Work>
	</rdf:RDF>
</metadata>
<g
	inkscape:label="Layer 1"
	inkscape:groupmode="layer"
	id="layer1">
	<path style="fill:none;stroke:red;stroke-width:1px;stroke-linecap:butt;stroke-linejoin:miter;stroke-opacity:1" d="M 4,806.644 4,834.906 z" id="boundary" inkscape:connector-curvature="0" />
	<path style="fill:none;stroke:red;stroke-width:1px;stroke-linecap:butt;stroke-linejoin:miter;stroke-opacity:1" d="M 4,806.644 9.65242,772.729 z" id="boundary" inkscape:connector-curvature="0" />
	<path style="fill:none;stroke:red;stroke-width:1px;stroke-linecap:butt;stroke-linejoin:miter;stroke-opacity:1" d="M 4,834.906 4,863.168 z" id="boundary" inkscape:connector-curvature="0" />
	<path style="fill:none;stroke:red;stroke-width:1px;stroke-linecap:butt;stroke-linejoin:miter;stroke-opacity:1" d="M 4,863.168 4,891.43 z" id="boundary" inkscape:connector-curvature="0" />
	<path style="fill:none;stroke:red;stroke-width:1px;stroke-linecap:butt;stroke-linejoin:miter;stroke-opacity:1" d="M 4,891.43 4,919.692 z" id="boundary" inkscape:connector-curvature="0" />
	<path style="fill:none;stroke:red;stroke-width:1px;stroke-linecap:butt;stroke-linejoin:miter;stroke-opacity:1" d="M 4,919.692 18.1311,945.128 z" id="boundary" inkscape:connector-curvature="0" />
	<path style="fill:none;stroke:red;stroke-width:1px;stroke-linecap:butt;stroke-linejoin:miter;stroke-opacity:1" d="M 9.65242,772.729 26.6097,750.12 z" id="boundary" inkscape:connector-curvature="0" />
	<path style="fill:none;stroke:red;stroke-width:1px;stroke-linecap:butt;stroke-linejoin:miter;stroke-opacity:1" d="M 18.1311,945.128 35.0883,967.738 z" id="boundary" inkscape:connector-curvature="0" />
	<path style="fill:none;stroke:red;stroke-width:1px;stroke-linecap:butt;stroke-linejoin:miter;stroke-opacity:1" d="M 26.6097,750.12 49.2194,733.162 z" id="boundary" inkscape:connector-curvature="0" />
	<path style="fill:none;stroke:red;stroke-width:1px;stroke-linecap:butt;stroke-linejoin:miter;stroke-opacity:1" d="M 35.0883,967.738 60.5242,981.869 z" id="boundary" inkscape:connector-curvature="0" />
	<path style="fill:none;stroke:red;stroke-width:1px;stroke-linecap:butt;stroke-linejoin:miter;stroke-opacity:1" d="M 49.2194,733.162 77.4815,727.51 z" id="boundary" inkscape:connector-curvature="0" />
	<path style="fill:none;stroke:red;stroke-width:1px;stroke-linecap:butt;stroke-linejoin:miter;stroke-opacity:1" d="M 60.5242,981.869 88.7863,990.348 z" id="boundary" inkscape:connector-curvature="0" />
	<path style="fill:none;stroke:red;stroke-width:1px;stroke-linecap:butt;stroke-linejoin:miter;stroke-opacity:1" d="M 71.8291,507.066 77.4815,478.803 z" id="boundary" inkscape:connector-curvature="0" />
	<path style="fill:none;stroke:red;stroke-width:1px;stroke-linecap:butt;stroke-linejoin:miter;stroke-opacity:1" d="M 71.8291,507.066 77.4815,535.328 z" id="boundary" inkscape:connector-curvature="0" />
	<path style="fill:none;stroke:red;stroke-width:1px;stroke-linecap:butt;stroke-linejoin:miter;stroke-opacity:1" d="M 77.4815,478.803 100.091,456.194 z" id="boundary" inkscape:connector-curvature="0" />
	<path style="fill:none;stroke:red;stroke-width:1px;stroke-linecap:butt;stroke-linejoin:miter;stroke-opacity:1" d="M 77.4815,535.328 77.4815,563.59 z" id="boundary" inkscape:connector-curvature="0" />
	<path style="fill:none;stroke:red;stroke-width:1px;stroke-linecap:butt;stroke-linejoin:miter;stroke-opacity:1" d="M 77.4815,563.59 94.4387,586.199 z" id="boundary" inkscape:connector-curvature="0" />
	<path style="fill:none;stroke:red;stroke-width:1px;stroke-linecap:butt;stroke-linejoin:miter;stroke-opacity:1" d="M 77.4815,727.51 105.744,727.51 z" id="boundary" inkscape:connector-curvature="0" />
	<path style="fill:none;stroke:red;stroke-width:1px;stroke-linecap:butt;stroke-linejoin:miter;stroke-opacity:1" d="M 88.7863,990.348 117.048,996 z" id="boundary" inkscape:connector-curvature="0" />
	<path style="fill:none;stroke:red;stroke-width:1px;stroke-linecap:butt;stroke-linejoin:miter;stroke-opacity:1" d="M 94.4387,586.199 111.396,608.809 z" id="boundary" inkscape:connector-curvature="0" />
	<path style="fill:none;stroke:red;stroke-width:1px;stroke-linecap:butt;stroke-linejoin:miter;stroke-opacity:1" d="M 100.091,456.194 128.353,444.889 z" id="boundary" inkscape:connector-curvature="0" />
	<path style="fill:none;stroke:red;stroke-width:1px;stroke-linecap:butt;stroke-linejoin:miter;stroke-opacity:1" d="M 105.744,727.51 134.006,727.51 z" id="boundary" inkscape:connector-curvature="0" />
	<path style="fill:none;stroke:red;stroke-width:1px;stroke-linecap:butt;stroke-linejoin:miter;stroke-opacity:1" d="M 111.396,608.809 136.832,622.94 z" id="boundary" inkscape:connector-curvature="0" />
	<path style="fill:none;stroke:red;stroke-width:1px;stroke-linecap:butt;stroke-linejoin:miter;stroke-opacity:1" d="M 117.048,996 145.311,996 z" id="boundary" inkscape:connector-curvature="0" />
	<path style="fill:none;stroke:red;stroke-width:1px;stroke-linecap:butt;stroke-linejoin:miter;stroke-opacity:1" d="M 128.353,444.889 156.615,439.236 z" id="boundary" inkscape:connector-curvature="0" />
	<path style="fill:none;stroke:red;stroke-width:1px;stroke-linecap:butt;stroke-linejoin:miter;stroke-opacity:1" d="M 134.006,727.51 162.268,735.989 z" id="boundary" inkscape:connector-curvature="0" />
	<path style="fill:none;stroke:red;stroke-width:1px;stroke-linecap:butt;stroke-linejoin:miter;stroke-opacity:1" d="M 136.832,622.94 165.094,634.245 z" id="boundary" inkscape:connector-curvature="0" />
	<path style="fill:none;stroke:red;stroke-width:1px;stroke-linecap:butt;stroke-linejoin:miter;stroke-opacity:1" d="M 145.311,996 173.573,996 z" id="boundary" inkscape:connector-curvature="0" />
	<path style="fill:none;stroke:red;stroke-width:1px;stroke-linecap:butt;stroke-linejoin:miter;stroke-opacity:1" d="M 156.615,439.236 184.877,433.584 z" id="boundary" inkscape:connector-curvature="0" />
	<path style="fill:none;stroke:red;stroke-width:1px;stroke-linecap:butt;stroke-linejoin:miter;stroke-opacity:1" d="M 162.268,735.989 190.53,738.815 z" id="boundary" inkscape:connector-curvature="0" />
	<path style="fill:none;stroke:red;stroke-width:1px;stroke-linecap:butt;stroke-linejoin:miter;stroke-opacity:1" d="M 165.094,634.245 193.356,645.55 z" id="boundary" inkscape:connector-curvature="0" />
	<path style="fill:none;stroke:red;stroke-width:1px;stroke-linecap:butt;stroke-linejoin:miter;stroke-opacity:1" d="M 173.573,996 201.835,984.695 z" id="boundary" inkscape:connector-curvature="0" />
	<path style="fill:none;stroke:red;stroke-width:1px;stroke-linecap:butt;stroke-linejoin:miter;stroke-opacity:1" d="M 184.877,433.584 213.14,433.584 z" id="boundary" inkscape:connector-curvature="0" />
	<path style="fill:none;stroke:red;stroke-width:1px;stroke-linecap:butt;stroke-linejoin:miter;stroke-opacity:1" d="M 190.53,738.815 218.792,733.162 z" id="boundary" inkscape:connector-curvature="0" />
	<path style="fill:none;stroke:red;stroke-width:1px;stroke-linecap:butt;stroke-linejoin:miter;stroke-opacity:1" d="M 193.356,645.55 221.618,651.202 z" id="boundary" inkscape:connector-curvature="0" />
	<path style="fill:none;stroke:red;stroke-width:1px;stroke-linecap:butt;stroke-linejoin:miter;stroke-opacity:1" d="M 201.835,984.695 230.097,973.39 z" id="boundary" inkscape:connector-curvature="0" />
	<path style="fill:none;stroke:red;stroke-width:1px;stroke-linecap:butt;stroke-linejoin:miter;stroke-opacity:1" d="M 213.14,433.584 241.402,427.932 z" id="boundary" inkscape:connector-curvature="0" />
	<path style="fill:none;stroke:red;stroke-width:1px;stroke-linecap:butt;stroke-linejoin:miter;stroke-opacity:1" d="M 218.792,733.162 230.097,693.595 z" id="boundary" inkscape:connector-curvature="0" />
	<path style="fill:none;stroke:red;stroke-width:1px;stroke-linecap:butt;stroke-linejoin:miter;stroke-opacity:1" d="M 221.618,651.202 230.097,693.595 z" id="boundary" inkscape:connector-curvature="0" />
	<path style="fill:none;stroke:red;stroke-width:1px;stroke-linecap:butt;stroke-linejoin:miter;stroke-opacity:1" d="M 230.097,973.39 258.359,973.39 z" id="boundary" inkscape:connector-curvature="0" />
	<path style="fill:none;stroke:red;stroke-width:1px;stroke-linecap:butt;stroke-linejoin:miter;stroke-opacity:1" d="M 241.402,427.932 269.664,416.627 z" id="boundary" inkscape:connector-curvature="0" />
	<path style="fill:none;stroke:red;stroke-width:1px;stroke-linecap:butt;stroke-linejoin:miter;stroke-opacity:1" d="M 258.359,264.011 264.011,230.097 z" id="boundary" inkscape:connector-curvature="0" />
	<path style="fill:none;stroke:red;stroke-width:1px;stroke-linecap:butt;stroke-linejoin:miter;stroke-opacity:1" d="M 258.359,264.011 264.011,292.274 z" id="boundary" inkscape:connector-curvature="0" />
	<path style="fill:none;stroke:red;stroke-width:1px;stroke-linecap:butt;stroke-linejoin:miter;stroke-opacity:1" d="M 258.359,973.39 286.621,967.738 z" id="boundary" inkscape:connector-curvature="0" />
	<path style="fill:none;stroke:red;stroke-width:1px;stroke-linecap:butt;stroke-linejoin:miter;stroke-opacity:1" d="M 264.011,230.097 286.621,213.14 z" id="boundary" inkscape:connector-curvature="0" />
	<path style="fill:none;stroke:red;stroke-width:1px;stroke-linecap:butt;stroke-linejoin:miter;stroke-opacity:1" d="M 264.011,292.274 272.49,320.536 z" id="boundary" inkscape:connector-curvature="0" />
	<path style="fill:none;stroke:red;stroke-width:1px;stroke-linecap:butt;stroke-linejoin:miter;stroke-opacity:1" d="M 269.664,416.627 286.621,394.017 z" id="boundary" inkscape:connector-curvature="0" />
	<path style="fill:none;stroke:red;stroke-width:1px;stroke-linecap:butt;stroke-linejoin:miter;stroke-opacity:1" d="M 272.49,320.536 286.621,345.972 z" id="boundary" inkscape:connector-curvature="0" />
	<path style="fill:none;stroke:red;stroke-width:1px;stroke-linecap:butt;stroke-linejoin:miter;stroke-opacity:1" d="M 286.621,213.14 309.231,196.182 z" id="boundary" inkscape:connector-curvature="0" />
	<path style="fill:none;stroke:red;stroke-width:1px;stroke-linecap:butt;stroke-linejoin:miter;stroke-opacity:1" d="M 286.621,345.972 309.231,365.755 z" id="boundary" inkscape:connector-curvature="0" />
	<path style="fill:none;stroke:red;stroke-width:1px;stroke-linecap:butt;stroke-linejoin:miter;stroke-opacity:1" d="M 286.621,394.017 309.231,365.755 z" id="boundary" inkscape:connector-curvature="0" />
	<path style="fill:none;stroke:red;stroke-width:1px;stroke-linecap:butt;stroke-linejoin:miter;stroke-opacity:1" d="M 286.621,967.738 314.883,973.39 z" id="boundary" inkscape:connector-curvature="0" />
	<path style="fill:none;stroke:red;stroke-width:1px;stroke-linecap:butt;stroke-linejoin:miter;stroke-opacity:1" d="M 309.231,196.182 331.84,173.573 z" id="boundary" inkscape:connector-curvature="0" />
	<path style="fill:none;stroke:red;stroke-width:1px;stroke-linecap:butt;stroke-linejoin:miter;stroke-opacity:1" d="M 314.883,973.39 343.145,973.39 z" id="boundary" inkscape:connector-curvature="0" />
	<path style="fill:none;stroke:red;stroke-width:1px;stroke-linecap:butt;stroke-linejoin:miter;stroke-opacity:1" d="M 331.84,173.573 345.972,139.658 z" id="boundary" inkscape:connector-curvature="0" />
	<path style="fill:none;stroke:red;stroke-width:1px;stroke-linecap:butt;stroke-linejoin:miter;stroke-opacity:1" d="M 343.145,54.8718 343.145,83.1339 z" id="boundary" inkscape:connector-curvature="0" />
	<path style="fill:none;stroke:red;stroke-width:1px;stroke-linecap:butt;stroke-linejoin:miter;stroke-opacity:1" d="M 343.145,54.8718 365.755,26.6097 z" id="boundary" inkscape:connector-curvature="0" />
	<path style="fill:none;stroke:red;stroke-width:1px;stroke-linecap:butt;stroke-linejoin:miter;stroke-opacity:1" d="M 343.145,83.1339 343.145,111.396 z" id="boundary" inkscape:connector-curvature="0" />
	<path style="fill:none;stroke:red;stroke-width:1px;stroke-linecap:butt;stroke-linejoin:miter;stroke-opacity:1" d="M 343.145,111.396 345.972,139.658 z" id="boundary" inkscape:connector-curvature="0" />
	<path style="fill:none;stroke:red;stroke-width:1px;stroke-linecap:butt;stroke-linejoin:miter;stroke-opacity:1" d="M 343.145,973.39 371.407,979.043 z" id="boundary" inkscape:connector-curvature="0" />
	<path style="fill:none;stroke:red;stroke-width:1px;stroke-linecap:butt;stroke-linejoin:miter;stroke-opacity:1" d="M 365.755,26.6097 394.017,15.3048 z" id="boundary" inkscape:connector-curvature="0" />
	<path style="fill:none;stroke:red;stroke-width:1px;stroke-linecap:butt;stroke-linejoin:miter;stroke-opacity:1" d="M 371.407,979.043 399.67,987.521 z" id="boundary" inkscape:connector-curvature="0" />
	<path style="fill:none;stroke:red;stroke-width:1px;stroke-linecap:butt;stroke-linejoin:miter;stroke-opacity:1" d="M 394.017,15.3048 422.279,4 z" id="boundary" inkscape:connector-curvature="0" />
	<path style="fill:none;stroke:red;stroke-width:1px;stroke-linecap:butt;stroke-linejoin:miter;stroke-opacity:1" d="M 399.67,987.521 427.932,996 z" id="boundary" inkscape:connector-curvature="0" />
	<path style="fill:none;stroke:red;stroke-width:1px;stroke-linecap:butt;stroke-linejoin:miter;stroke-opacity:1" d="M 422.279,4 450.541,9.65242 z" id="boundary" inkscape:connector-curvature="0" />
	<path style="fill:none;stroke:red;stroke-width:1px;stroke-linecap:butt;stroke-linejoin:miter;stroke-opacity:1" d="M 427.932,996 456.194,996 z" id="boundary" inkscape:connector-curvature="0" />
	<path style="fill:none;stroke:red;stroke-width:1px;stroke-linecap:butt;stroke-linejoin:miter;stroke-opacity:1" d="M 450.541,9.65242 478.803,18.1311 z" id="boundary" inkscape:connector-curvature="0" />
	<path style="fill:none;stroke:red;stroke-width:1px;stroke-linecap:butt;stroke-linejoin:miter;stroke-opacity:1" d="M 456.194,996 484.456,996 z" id="boundary" inkscape:connector-curvature="0" />
	<path style="fill:none;stroke:red;stroke-width:1px;stroke-linecap:butt;stroke-linejoin:miter;stroke-opacity:1" d="M 478.803,18.1311 498.587,40.7407 z" id="boundary" inkscape:connector-curvature="0" />
	<path style="fill:none;stroke:red;stroke-width:1px;stroke-linecap:butt;stroke-linejoin:miter;stroke-opacity:1" d="M 484.456,996 512.718,996 z" id="boundary" inkscape:connector-curvature="0" />
	<path style="fill:none;stroke:red;stroke-width:1px;stroke-linecap:butt;stroke-linejoin:miter;stroke-opacity:1" d="M 498.587,40.7407 526.849,43.567 z" id="boundary" inkscape:connector-curvature="0" />
	<path style="fill:none;stroke:red;stroke-width:1px;stroke-linecap:butt;stroke-linejoin:miter;stroke-opacity:1" d="M 512.718,996 540.98,996 z" id="boundary" inkscape:connector-curvature="0" />
	<path style="fill:none;stroke:red;stroke-width:1px;stroke-linecap:butt;stroke-linejoin:miter;stroke-opacity:1" d="M 526.849,43.567 555.111,40.7407 z" id="boundary" inkscape:connector-curvature="0" />
	<path style="fill:none;stroke:red;stroke-width:1px;stroke-linecap:butt;stroke-linejoin:miter;stroke-opacity:1" d="M 540.98,996 569.242,996 z" id="boundary" inkscape:connector-curvature="0" />
	<path style="fill:none;stroke:red;stroke-width:1px;stroke-linecap:butt;stroke-linejoin:miter;stroke-opacity:1" d="M 555.111,40.7407 577.721,23.7835 z" id="boundary" inkscape:connector-curvature="0" />
	<path style="fill:none;stroke:red;stroke-width:1px;stroke-linecap:butt;stroke-linejoin:miter;stroke-opacity:1" d="M 569.242,996 597.504,996 z" id="boundary" inkscape:connector-curvature="0" />
	<path style="fill:none;stroke:red;stroke-width:1px;stroke-linecap:butt;stroke-linejoin:miter;stroke-opacity:1" d="M 577.721,23.7835 603.157,9.65242 z" id="boundary" inkscape:connector-curvature="0" />
	<path style="fill:none;stroke:red;stroke-width:1px;stroke-linecap:butt;stroke-linejoin:miter;stroke-opacity:1" d="M 597.504,996 622.94,981.869 z" id="boundary" inkscape:connector-curvature="0" />
	<path style="fill:none;stroke:red;stroke-width:1px;stroke-linecap:butt;stroke-linejoin:miter;stroke-opacity:1" d="M 603.157,9.65242 631.419,4 z" id="boundary" inkscape:connector-curvature="0" />
	<path style="fill:none;stroke:red;stroke-width:1px;stroke-linecap:butt;stroke-linejoin:miter;stroke-opacity:1" d="M 622.94,981.869 651.202,970.564 z" id="boundary" inkscape:connector-curvature="0" />
	<path style="fill:none;stroke:red;stroke-width:1px;stroke-linecap:butt;stroke-linejoin:miter;stroke-opacity:1" d="M 631.419,4 659.681,9.65242 z" id="boundary" inkscape:connector-curvature="0" />
	<path style="fill:none;stroke:red;stroke-width:1px;stroke-linecap:butt;stroke-linejoin:miter;stroke-opacity:1" d="M 651.202,970.564 668.16,936.65 z" id="boundary" inkscape:connector-curvature="0" />
	<path style="fill:none;stroke:red;stroke-width:1px;stroke-linecap:butt;stroke-linejoin:miter;stroke-opacity:1" d="M 659.681,9.65242 687.943,18.1311 z" id="boundary" inkscape:connector-curvature="0" />
	<path style="fill:none;stroke:red;stroke-width:1px;stroke-linecap:butt;stroke-linejoin:miter;stroke-opacity:1" d="M 668.16,936.65 679.464,891.43 z" id="boundary" inkscape:connector-curvature="0" />
	<path style="fill:none;stroke:red;stroke-width:1px;stroke-linecap:butt;stroke-linejoin:miter;stroke-opacity:1" d="M 679.464,891.43 685.117,840.558 z" id="boundary" inkscape:connector-curvature="0" />
	<path style="fill:none;stroke:red;stroke-width:1px;stroke-linecap:butt;stroke-linejoin:miter;stroke-opacity:1" d="M 682.291,396.843 690.769,360.103 z" id="boundary" inkscape:connector-curvature="0" />
	<path style="fill:none;stroke:red;stroke-width:1px;stroke-linecap:butt;stroke-linejoin:miter;stroke-opacity:1" d="M 682.291,396.843 702.074,419.453 z" id="boundary" inkscape:connector-curvature="0" />
	<path style="fill:none;stroke:red;stroke-width:1px;stroke-linecap:butt;stroke-linejoin:miter;stroke-opacity:1" d="M 685.117,784.034 685.117,812.296 z" id="boundary" inkscape:connector-curvature="0" />
	<path style="fill:none;stroke:red;stroke-width:1px;stroke-linecap:butt;stroke-linejoin:miter;stroke-opacity:1" d="M 685.117,784.034 702.074,761.425 z" id="boundary" inkscape:connector-curvature="0" />
	<path style="fill:none;stroke:red;stroke-width:1px;stroke-linecap:butt;stroke-linejoin:miter;stroke-opacity:1" d="M 685.117,812.296 685.117,840.558 z" id="boundary" inkscape:connector-curvature="0" />
	<path style="fill:none;stroke:red;stroke-width:1px;stroke-linecap:butt;stroke-linejoin:miter;stroke-opacity:1" d="M 687.943,18.1311 707.726,40.7407 z" id="boundary" inkscape:connector-curvature="0" />
	<path style="fill:none;stroke:red;stroke-width:1px;stroke-linecap:butt;stroke-linejoin:miter;stroke-opacity:1" d="M 690.769,360.103 704.9,334.667 z" id="boundary" inkscape:connector-curvature="0" />
	<path style="fill:none;stroke:red;stroke-width:1px;stroke-linecap:butt;stroke-linejoin:miter;stroke-opacity:1" d="M 690.769,648.376 690.769,676.638 z" id="boundary" inkscape:connector-curvature="0" />
	<path style="fill:none;stroke:red;stroke-width:1px;stroke-linecap:butt;stroke-linejoin:miter;stroke-opacity:1" d="M 690.769,648.376 704.9,622.94 z" id="boundary" inkscape:connector-curvature="0" />
	<path style="fill:none;stroke:red;stroke-width:1px;stroke-linecap:butt;stroke-linejoin:miter;stroke-opacity:1" d="M 690.769,676.638 690.769,704.9 z" id="boundary" inkscape:connector-curvature="0" />
	<path style="fill:none;stroke:red;stroke-width:1px;stroke-linecap:butt;stroke-linejoin:miter;stroke-opacity:1" d="M 690.769,704.9 696.422,733.162 z" id="boundary" inkscape:connector-curvature="0" />
	<path style="fill:none;stroke:red;stroke-width:1px;stroke-linecap:butt;stroke-linejoin:miter;stroke-opacity:1" d="M 696.422,733.162 702.074,761.425 z" id="boundary" inkscape:connector-curvature="0" />
	<path style="fill:none;stroke:red;stroke-width:1px;stroke-linecap:butt;stroke-linejoin:miter;stroke-opacity:1" d="M 702.074,419.453 724.684,439.236 z" id="boundary" inkscape:connector-curvature="0" />
	<path style="fill:none;stroke:red;stroke-width:1px;stroke-linecap:butt;stroke-linejoin:miter;stroke-opacity:1" d="M 704.9,334.667 719.031,303.578 z" id="boundary" inkscape:connector-curvature="0" />
	<path style="fill:none;stroke:red;stroke-width:1px;stroke-linecap:butt;stroke-linejoin:miter;stroke-opacity:1" d="M 704.9,622.94 721.858,600.33 z" id="boundary" inkscape:connector-curvature="0" />
	<path style="fill:none;stroke:red;stroke-width:1px;stroke-linecap:butt;stroke-linejoin:miter;stroke-opacity:1" d="M 707.726,40.7407 713.379,69.0028 z" id="boundary" inkscape:connector-curvature="0" />
	<path style="fill:none;stroke:red;stroke-width:1px;stroke-linecap:butt;stroke-linejoin:miter;stroke-opacity:1" d="M 707.726,111.396 710.553,139.658 z" id="boundary" inkscape:connector-curvature="0" />
	<path style="fill:none;stroke:red;stroke-width:1px;stroke-linecap:butt;stroke-linejoin:miter;stroke-opacity:1" d="M 707.726,111.396 713.379,69.0028 z" id="boundary" inkscape:connector-curvature="0" />
	<path style="fill:none;stroke:red;stroke-width:1px;stroke-linecap:butt;stroke-linejoin:miter;stroke-opacity:1" d="M 710.553,139.658 721.858,167.92 z" id="boundary" inkscape:connector-curvature="0" />
	<path style="fill:none;stroke:red;stroke-width:1px;stroke-linecap:butt;stroke-linejoin:miter;stroke-opacity:1" d="M 719.031,303.578 730.336,264.011 z" id="boundary" inkscape:connector-curvature="0" />
	<path style="fill:none;stroke:red;stroke-width:1px;stroke-linecap:butt;stroke-linejoin:miter;stroke-opacity:1" d="M 721.858,167.92 730.336,196.182 z" id="boundary" inkscape:connector-curvature="0" />
	<path style="fill:none;stroke:red;stroke-width:1px;stroke-linecap:butt;stroke-linejoin:miter;stroke-opacity:1" d="M 721.858,600.33 738.815,577.721 z" id="boundary" inkscape:connector-curvature="0" />
	<path style="fill:none;stroke:red;stroke-width:1px;stroke-linecap:butt;stroke-linejoin:miter;stroke-opacity:1" d="M 724.684,439.236 744.467,461.846 z" id="boundary" inkscape:connector-curvature="0" />
	<path style="fill:none;stroke:red;stroke-width:1px;stroke-linecap:butt;stroke-linejoin:miter;stroke-opacity:1" d="M 730.336,196.182 735.989,224.444 z" id="boundary" inkscape:connector-curvature="0" />
	<path style="fill:none;stroke:red;stroke-width:1px;stroke-linecap:butt;stroke-linejoin:miter;stroke-opacity:1" d="M 730.336,264.011 735.989,224.444 z" id="boundary" inkscape:connector-curvature="0" />
	<path style="fill:none;stroke:red;stroke-width:1px;stroke-linecap:butt;stroke-linejoin:miter;stroke-opacity:1" d="M 738.815,577.721 752.946,535.328 z" id="boundary" inkscape:connector-curvature="0" />
	<path style="fill:none;stroke:red;stroke-width:1px;stroke-linecap:butt;stroke-linejoin:miter;stroke-opacity:1" d="M 744.467,461.846 752.946,490.108 z" id="boundary" inkscape:connector-curvature="0" />
	<path style="fill:none;stroke:red;stroke-width:1px;stroke-linecap:butt;stroke-linejoin:miter;stroke-opacity:1" d="M 752.946,490.108 752.946,535.328 z" id="boundary" inkscape:connector-curvature="0" />
	<circle cx="4" cy="806.644" r="4" fill="#0" id="circle0"/>
	<circle cx="4" cy="834.906" r="4" fill="#0" id="circle1"/>
	<circle cx="4" cy="863.168" r="4" fill="#0" id="circle2"/>
	<circle cx="4" cy="891.43" r="4" fill="#0" id="circle3"/>
	<circle cx="4" cy="919.692" r="4" fill="#0" id="circle4"/>
	<circle cx="9.65242" cy="772.729" r="4" fill="#0" id="circle5"/>
	<circle cx="18.1311" cy="945.128" r="4" fill="#0" id="circle6"/>
	<circle cx="26.6097" cy="750.12" r="4" fill="#0" id="circle7"/>
	<circle cx="35.0883" cy="967.738" r="4" fill="#0" id="circle8"/>
	<circle cx="49.2194" cy="733.162" r="4" fill="#0" id="circle9"/>
	<circle cx="60.5242" cy="981.869" r="4" fill="#0" id="circle10"/>
	<circle cx="71.8291" cy="507.066" r="4" fill="#0" id="circle11"/>
	<circle cx="77.4815" cy="478.803" r="4" fill="#0" id="circle12"/>
	<circle cx="77.4815" cy="535.328" r="4" fill="#0" id="circle13"/>
	<circle cx="77.4815" cy="563.59" r="4" fill="#0" id="circle14"/>
	<circle cx="77.4815" cy="727.51" r="4" fill="#0" id="circle15"/>
	<circle cx="88.7863" cy="990.348" r="4" fill="#0" id="circle16"/>
	<circle cx="94.4387" cy="586.199" r="4" fill="#0" id="circle17"/>
	<circle cx="100.091" cy="456.194" r="4" fill="#0" id="circle18"/>
	<circle cx="105.744" cy="727.51" r="4" fill="#0" id="circle19"/>
	<circle cx="111.396" cy="608.809" r="4" fill="#0" id="circle20"/>
	<circle cx="117.048" cy="996" r="4" fill="#0" id="circle21"/>
	<circle cx="128.353" cy="444.889" r="4" fill="#0" id="circle22"/>
	<circle cx="134.006" cy="727.51" r="4" fill="#0" id="circle23"/>
	<circle cx="136.832" cy="622.94" r="4" fill="#0" id="circle24"/>
	<circle cx="145.311" cy="996" r="4" fill="#0" id="circle25"/>
	<circle cx="156.615" cy="439.236" r="4" fill="#0" id="circle26"/>
	<circle cx="162.268" cy="735.989" r="4" fill="#0" id="circle27"/>
	<circle cx="165.094" cy="634.245" r="4" fill="#0" id="circle28"/>
	<circle cx="173.573" cy="996" r="4" fill="#0" id="circle29"/>
	<circle cx="184.877" cy="433.584" r="4" fill="#0" id="circle30"/>
	<circle cx="190.53" cy="738.815" r="4" fill="#0" id="circle31"/>
	<circle cx="193.356" cy="645.55" r="4" fill="#0" id="circle32"/>
	<circle cx="201.835" cy="984.695" r="4" fill="#0" id="circle33"/>
	<circle cx="213.14" cy="433.584" r="4" fill="#0" id="circle34"/>
	<circle cx="218.792" cy="733.162" r="4" fill="#0" id="circle35"/>
	<circle cx="221.618" cy="651.202" r="4" fill="#0" id="circle36"/>
	<circle cx="230.097" cy="693.595" r="4" fill="#0" id="circle37"/>
	<circle cx="230.097" cy="973.39" r="4" fill="#0" id="circle38"/>
	<circle cx="241.402" cy="427.932" r="4" fill="#0" id="circle39"/>
	<circle cx="258.359" cy="264.011" r="4" fill="#0" id="circle40"/>
	<circle cx="258.359" cy="973.39" r="4" fill="#0" id="circle41"/>
	<circle cx="264.011" cy="230.097" r="4" fill="#0" id="circle42"/>
	<circle cx="264.011" cy="292.274" r="4" fill="#0" id="circle43"/>
	<circle cx="269.664" cy="416.627" r="4" fill="#0" id="circle44"/>
	<circle cx="272.49" cy="320.536" r="4" fill="#0" id="circle45"/>
	<circle cx="286.621" cy="213.14" r="4" fill="#0" id="circle46"/>
	<circle cx="286.621" cy="345.972" r="4" fill="#0" id="circle47"/>
	<circle cx="286.621" cy="394.017" r="4" fill="#0" id="circle48"/>
	<circle cx="286.621" cy="967.738" r="4" fill="#0" id="circle49"/>
	<circle cx="309.231" cy="196.182" r="4" fill="#0" id="circle50"/>
	<circle cx="309.231" cy="365.755" r="4" fill="#0" id="circle51"/>
	<circle cx="314.883" cy="973.39" r="4" fill="#0" id="circle52"/>
	<circle cx="331.84" cy="173.573" r="4" fill="#0" id="circle53"/>
	<circle cx="343.145" cy="54.8718" r="4" fill="#0" id="circle54"/>
	<circle cx="343.145" cy="83.1339" r="4" fill="#0" id="circle55"/>
	<circle cx="343.145" cy="111.396" r="4" fill="#0" id="circle56"/>
	<circle cx="343.145" cy="973.39" r="4" fill="#0" id="circle57"/>
	<circle cx="345.972" cy="139.658" r="4" fill="#0" id="circle58"/>
	<circle cx="365.755" cy="26.6097" r="4" fill="#0" id="circle59"/>
	<circle cx="371.407" cy="979.043" r="4" fill="#0" id="circle60"/>
	<circle cx="394.017" cy="15.3048" r="4" fill="#0" id="circle61"/>
	<circle cx="399.67" cy="987.521" r="4" fill="#0" id="circle62"/>
	<circle cx="422.279" cy="4" r="4" fill="#0" id="circle63"/>
	<circle cx="427.932" cy="996" r="4" fill="#0" id="circle64"/>
	<circle cx="450.541" cy="9.65242" r="4" fill="#0" id="circle65"/>
	<circle cx="456.194" cy="996" r="4" fill="#0" id="circle66"/>
	<circle cx="478.803" cy="18.1311" r="4" fill="#0" id="circle67"/>
	<circle cx="484.456" cy="996" r="4" fill="#0" id="circle68"/>
	<circle cx="498.587" cy="40.7407" r="4" fill="#0" id="circle69"/>
	<circle cx="512.718" cy="996" r="4" fill="#0" id="circle70"/>
	<circle cx="526.849" cy="43.567" r="4" fill="#0" id="circle71"/>
	<circle cx="540.98" cy="996" r="4" fill="#0" id="circle72"/>
	<circle cx="555.111" cy="40.7407" r="4" fill="#0" id="circle73"/>
	<circle cx="569.242" cy="996" r="4" fill="#0" id="circle74"/>
	<circle cx="577.721" cy="23.7835" r="4" fill="#0" id="circle75"/>
	<circle cx="597.504" cy="996" r="4" fill="#0" id="circle76"/>
	<circle cx="603.157" cy="9.65242" r="4" fill="#0" id="circle77"/>
	<circle cx="622.94" cy="981.869" r="4" fill="#0" id="circle78"/>
	<circle cx="631.419" cy="4" r="4" fill="#0" id="circle79"/>
	<circle cx="651.202" cy="970.564" r="4" fill="#0" id="circle80"/>
	<circle cx="659.681" cy="9.65242" r="4" fill="#0" id="circle81"/>
	<circle cx="668.16" cy="936.65" r="4" fill="#0" id="circle82"/>
	<circle cx="679.464" cy="891.43" r="4" fill="#0" id="circle83"/>
	<circle cx="682.291" cy="396.843" r="4" fill="#0" id="circle84"/>
	<circle cx="685.117" cy="784.034" r="4" fill="#0" id="circle85"/>
	<circle cx="685.117" cy="812.296" r="4" fill="#0" id="circle86"/>
	<circle cx="685.117" cy="840.558" r="4" fill="#0" id="circle87"/>
	<circle cx="687.943" cy="18.1311" r="4" fill="#0" id="circle88"/>
	<circle cx="690.769" cy="360.103" r="4" fill="#0" id="circle89"/>
	<circle cx="690.769" cy="648.376" r="4" fill="#0" id="circle90"/>
	<circle cx="690.769" cy="676.638" r="4" fill="#0" id="circle91"/>
	<circle cx="690.769" cy="704.9" r="4" fill="#0" id="circle92"/>
	<circle cx="696.422" cy="733.162" r="4" fill="#0" id="circle93"/>
	<circle cx="702.074" cy="419.453" r="4" fill="#0" id="circle94"/>
	<circle cx="702.074" cy="761.425" r="4" fill="#0" id="circle95"/>
	<circle cx="704.9" cy="334.667" r="4" fill="#0" id="circle96"/>
	<circle cx="704.9" cy="622.94" r="4" fill="#0" id="circle97"/>
	<circle cx="707.726" cy="40.7407" r="4" fill="#0" id="circle98"/>
	<circle cx="707.726" cy="111.396" r="4" fill="#0" id="circle99"/>
	<circle cx="710.553" cy="139.658" r="4" fill="#0" id="circle100"/>
	<circle cx="713.379" cy="69.0028" r="4" fill="#0" id="circle101"/>
	<circle cx="719.031" cy="303.578" r="4" fill="#0" id="circle102"/>
	<circle cx="721.858" cy="167.92" r="4" fill="#0" id="circle103"/>
	<circle cx="721.858" cy="600.33" r="4" fill="#0" id="circle104"/>
	<circle cx="724.684" cy="439.236" r="4" fill="#0" id="circle105"/>
	<circle cx="730.336" cy="196.182" r="4" fill="#0" id="circle106"/>
	<circle cx="730.336" cy="264.011" r="4" fill="#0" id="circle107"/>
	<circle cx="735.989" cy="224.444" r="4" fill="#0" id="circle108"/>
	<circle cx="738.815" cy="577.721" r="4" fill="#0" id="circle109"/>
	<circle cx="744.467" cy="461.846" r="4" fill="#0" id="circle110"/>
	<circle cx="752.946" cy="490.108" r="4" fill="#0" id="circle111"/>
	<circle cx="752.946" cy="535.328" r="4" fill="#0" id="circle112"/>
	</g>
</svg>