<?xml version="1.0" encoding="UTF-8" standalone="no"?>
<!-- Created with CurveBenchmark -->
<svg
	xmlns:dc="http://purl.org/dc/elements/1.1/"
	xmlns:cc="http://creativecommons.org/ns#"
	xmlns:rdf="http://www.w3.org/1999/02/22-rdf-syntax-ns#"
	xmlns:svg="http://www.w3.org/2000/svg"
	xmlns="http://www.w3.org/2000/svg"
	xmlns:sodipodi="http://sodipodi.sourceforge.net/DTD/sodipodi-0.dtd"
	xmlns:inkscape="http://www.inkscape.org/namespaces/inkscape"
	width="1000"
	height="1000"
	id="svg2"
	version="1.1"
	sodipodi:docname="manifold/fitconnect-bird21.png.txt">
<defs
	id="defs4" />
<metadata
	id="metadata7">
	<rdf:RDF>
		<cc:Work
			rdf:about="">
			<dc:format>image/svg+xml</dc:format>
			<dc:type
				rdf:resource="http://purl.org/dc/dcmitype/StillImage" />
			<dc:title></dc:title>
		</cc:Work>
	</rdf:RDF>
</metadata>
<g
	inkscape:label="Layer 1"
	inkscape:groupmode="layer"
	id="layer1">
	<path style="fill:none;stroke:red;stroke-width:1px;stroke-linecap:butt;stroke-linejoin:miter;stroke-opacity:1" d="M 4,195.849 16.478,183.371 z" id="boundary" inkscape:connector-curvature="0" />
	<path style="fill:none;stroke:red;stroke-width:1px;stroke-linecap:butt;stroke-linejoin:miter;stroke-opacity:1" d="M 4,195.849 19.5975,200.528 z" id="boundary" inkscape:connector-curvature="0" />
	<path style="fill:none;stroke:red;stroke-width:1px;stroke-linecap:butt;stroke-linejoin:miter;stroke-opacity:1" d="M 16.478,183.371 32.0755,175.572 z" id="boundary" inkscape:connector-curvature="0" />
	<path style="fill:none;stroke:red;stroke-width:1px;stroke-linecap:butt;stroke-linejoin:miter;stroke-opacity:1" d="M 19.5975,200.528 35.195,200.528 z" id="boundary" inkscape:connector-curvature="0" />
	<path style="fill:none;stroke:red;stroke-width:1px;stroke-linecap:butt;stroke-linejoin:miter;stroke-opacity:1" d="M 32.0755,175.572 46.1132,167.774 z" id="boundary" inkscape:connector-curvature="0" />
	<path style="fill:none;stroke:red;stroke-width:1px;stroke-linecap:butt;stroke-linejoin:miter;stroke-opacity:1" d="M 35.195,200.528 49.2327,192.73 z" id="boundary" inkscape:connector-curvature="0" />
	<path style="fill:none;stroke:red;stroke-width:1px;stroke-linecap:butt;stroke-linejoin:miter;stroke-opacity:1" d="M 46.1132,167.774 61.7107,161.535 z" id="boundary" inkscape:connector-curvature="0" />
	<path style="fill:none;stroke:red;stroke-width:1px;stroke-linecap:butt;stroke-linejoin:miter;stroke-opacity:1" d="M 49.2327,192.73 64.8302,189.61 z" id="boundary" inkscape:connector-curvature="0" />
	<path style="fill:none;stroke:red;stroke-width:1px;stroke-linecap:butt;stroke-linejoin:miter;stroke-opacity:1" d="M 61.7107,161.535 77.3082,153.736 z" id="boundary" inkscape:connector-curvature="0" />
	<path style="fill:none;stroke:red;stroke-width:1px;stroke-linecap:butt;stroke-linejoin:miter;stroke-opacity:1" d="M 64.8302,189.61 80.4277,184.931 z" id="boundary" inkscape:connector-curvature="0" />
	<path style="fill:none;stroke:red;stroke-width:1px;stroke-linecap:butt;stroke-linejoin:miter;stroke-opacity:1" d="M 77.3082,153.736 92.9057,145.937 z" id="boundary" inkscape:connector-curvature="0" />
	<path style="fill:none;stroke:red;stroke-width:1px;stroke-linecap:butt;stroke-linejoin:miter;stroke-opacity:1" d="M 80.4277,184.931 94.4654,177.132 z" id="boundary" inkscape:connector-curvature="0" />
	<path style="fill:none;stroke:red;stroke-width:1px;stroke-linecap:butt;stroke-linejoin:miter;stroke-opacity:1" d="M 92.9057,145.937 105.384,136.579 z" id="boundary" inkscape:connector-curvature="0" />
	<path style="fill:none;stroke:red;stroke-width:1px;stroke-linecap:butt;stroke-linejoin:miter;stroke-opacity:1" d="M 94.4654,177.132 108.503,169.333 z" id="boundary" inkscape:connector-curvature="0" />
	<path style="fill:none;stroke:red;stroke-width:1px;stroke-linecap:butt;stroke-linejoin:miter;stroke-opacity:1" d="M 105.384,136.579 119.421,128.78 z" id="boundary" inkscape:connector-curvature="0" />
	<path style="fill:none;stroke:red;stroke-width:1px;stroke-linecap:butt;stroke-linejoin:miter;stroke-opacity:1" d="M 108.503,169.333 124.101,169.333 z" id="boundary" inkscape:connector-curvature="0" />
	<path style="fill:none;stroke:red;stroke-width:1px;stroke-linecap:butt;stroke-linejoin:miter;stroke-opacity:1" d="M 119.421,128.78 135.019,128.78 z" id="boundary" inkscape:connector-curvature="0" />
	<path style="fill:none;stroke:red;stroke-width:1px;stroke-linecap:butt;stroke-linejoin:miter;stroke-opacity:1" d="M 124.101,169.333 138.138,161.535 z" id="boundary" inkscape:connector-curvature="0" />
	<path style="fill:none;stroke:red;stroke-width:1px;stroke-linecap:butt;stroke-linejoin:miter;stroke-opacity:1" d="M 135.019,128.78 145.937,116.302 z" id="boundary" inkscape:connector-curvature="0" />
	<path style="fill:none;stroke:red;stroke-width:1px;stroke-linecap:butt;stroke-linejoin:miter;stroke-opacity:1" d="M 138.138,161.535 152.176,153.736 z" id="boundary" inkscape:connector-curvature="0" />
	<path style="fill:none;stroke:red;stroke-width:1px;stroke-linecap:butt;stroke-linejoin:miter;stroke-opacity:1" d="M 145.937,116.302 161.535,108.503 z" id="boundary" inkscape:connector-curvature="0" />
	<path style="fill:none;stroke:red;stroke-width:1px;stroke-linecap:butt;stroke-linejoin:miter;stroke-opacity:1" d="M 152.176,153.736 166.214,145.937 z" id="boundary" inkscape:connector-curvature="0" />
	<path style="fill:none;stroke:red;stroke-width:1px;stroke-linecap:butt;stroke-linejoin:miter;stroke-opacity:1" d="M 161.535,108.503 177.132,100.704 z" id="boundary" inkscape:connector-curvature="0" />
	<path style="fill:none;stroke:red;stroke-width:1px;stroke-linecap:butt;stroke-linejoin:miter;stroke-opacity:1" d="M 166.214,145.937 180.252,138.138 z" id="boundary" inkscape:connector-curvature="0" />
	<path style="fill:none;stroke:red;stroke-width:1px;stroke-linecap:butt;stroke-linejoin:miter;stroke-opacity:1" d="M 177.132,100.704 192.73,92.9057 z" id="boundary" inkscape:connector-curvature="0" />
	<path style="fill:none;stroke:red;stroke-width:1px;stroke-linecap:butt;stroke-linejoin:miter;stroke-opacity:1" d="M 180.252,138.138 194.289,130.34 z" id="boundary" inkscape:connector-curvature="0" />
	<path style="fill:none;stroke:red;stroke-width:1px;stroke-linecap:butt;stroke-linejoin:miter;stroke-opacity:1" d="M 192.73,92.9057 205.208,81.9874 z" id="boundary" inkscape:connector-curvature="0" />
	<path style="fill:none;stroke:red;stroke-width:1px;stroke-linecap:butt;stroke-linejoin:miter;stroke-opacity:1" d="M 194.289,130.34 208.327,122.541 z" id="boundary" inkscape:connector-curvature="0" />
	<path style="fill:none;stroke:red;stroke-width:1px;stroke-linecap:butt;stroke-linejoin:miter;stroke-opacity:1" d="M 205.208,81.9874 206.767,55.4717 z" id="boundary" inkscape:connector-curvature="0" />
	<path style="fill:none;stroke:red;stroke-width:1px;stroke-linecap:butt;stroke-linejoin:miter;stroke-opacity:1" d="M 206.767,39.8742 206.767,55.4717 z" id="boundary" inkscape:connector-curvature="0" />
	<path style="fill:none;stroke:red;stroke-width:1px;stroke-linecap:butt;stroke-linejoin:miter;stroke-opacity:1" d="M 206.767,39.8742 219.245,27.3962 z" id="boundary" inkscape:connector-curvature="0" />
	<path style="fill:none;stroke:red;stroke-width:1px;stroke-linecap:butt;stroke-linejoin:miter;stroke-opacity:1" d="M 206.767,211.447 206.767,227.044 z" id="boundary" inkscape:connector-curvature="0" />
	<path style="fill:none;stroke:red;stroke-width:1px;stroke-linecap:butt;stroke-linejoin:miter;stroke-opacity:1" d="M 206.767,211.447 219.245,198.969 z" id="boundary" inkscape:connector-curvature="0" />
	<path style="fill:none;stroke:red;stroke-width:1px;stroke-linecap:butt;stroke-linejoin:miter;stroke-opacity:1" d="M 206.767,227.044 206.767,242.642 z" id="boundary" inkscape:connector-curvature="0" />
	<path style="fill:none;stroke:red;stroke-width:1px;stroke-linecap:butt;stroke-linejoin:miter;stroke-opacity:1" d="M 206.767,242.642 206.767,258.239 z" id="boundary" inkscape:connector-curvature="0" />
	<path style="fill:none;stroke:red;stroke-width:1px;stroke-linecap:butt;stroke-linejoin:miter;stroke-opacity:1" d="M 206.767,258.239 206.767,273.836 z" id="boundary" inkscape:connector-curvature="0" />
	<path style="fill:none;stroke:red;stroke-width:1px;stroke-linecap:butt;stroke-linejoin:miter;stroke-opacity:1" d="M 206.767,273.836 206.767,289.434 z" id="boundary" inkscape:connector-curvature="0" />
	<path style="fill:none;stroke:red;stroke-width:1px;stroke-linecap:butt;stroke-linejoin:miter;stroke-opacity:1" d="M 206.767,289.434 214.566,303.472 z" id="boundary" inkscape:connector-curvature="0" />
	<path style="fill:none;stroke:red;stroke-width:1px;stroke-linecap:butt;stroke-linejoin:miter;stroke-opacity:1" d="M 208.327,122.541 223.925,114.742 z" id="boundary" inkscape:connector-curvature="0" />
	<path style="fill:none;stroke:red;stroke-width:1px;stroke-linecap:butt;stroke-linejoin:miter;stroke-opacity:1" d="M 214.566,303.472 214.566,319.069 z" id="boundary" inkscape:connector-curvature="0" />
	<path style="fill:none;stroke:red;stroke-width:1px;stroke-linecap:butt;stroke-linejoin:miter;stroke-opacity:1" d="M 214.566,319.069 214.566,334.667 z" id="boundary" inkscape:connector-curvature="0" />
	<path style="fill:none;stroke:red;stroke-width:1px;stroke-linecap:butt;stroke-linejoin:miter;stroke-opacity:1" d="M 214.566,334.667 222.365,348.704 z" id="boundary" inkscape:connector-curvature="0" />
	<path style="fill:none;stroke:red;stroke-width:1px;stroke-linecap:butt;stroke-linejoin:miter;stroke-opacity:1" d="M 219.245,27.3962 234.843,19.5975 z" id="boundary" inkscape:connector-curvature="0" />
	<path style="fill:none;stroke:red;stroke-width:1px;stroke-linecap:butt;stroke-linejoin:miter;stroke-opacity:1" d="M 219.245,198.969 231.723,186.491 z" id="boundary" inkscape:connector-curvature="0" />
	<path style="fill:none;stroke:red;stroke-width:1px;stroke-linecap:butt;stroke-linejoin:miter;stroke-opacity:1" d="M 222.365,348.704 227.044,364.302 z" id="boundary" inkscape:connector-curvature="0" />
	<path style="fill:none;stroke:red;stroke-width:1px;stroke-linecap:butt;stroke-linejoin:miter;stroke-opacity:1" d="M 223.925,114.742 237.962,122.541 z" id="boundary" inkscape:connector-curvature="0" />
	<path style="fill:none;stroke:red;stroke-width:1px;stroke-linecap:butt;stroke-linejoin:miter;stroke-opacity:1" d="M 227.044,364.302 230.164,379.899 z" id="boundary" inkscape:connector-curvature="0" />
	<path style="fill:none;stroke:red;stroke-width:1px;stroke-linecap:butt;stroke-linejoin:miter;stroke-opacity:1" d="M 230.164,379.899 237.962,393.937 z" id="boundary" inkscape:connector-curvature="0" />
	<path style="fill:none;stroke:red;stroke-width:1px;stroke-linecap:butt;stroke-linejoin:miter;stroke-opacity:1" d="M 231.723,186.491 244.201,175.572 z" id="boundary" inkscape:connector-curvature="0" />
	<path style="fill:none;stroke:red;stroke-width:1px;stroke-linecap:butt;stroke-linejoin:miter;stroke-opacity:1" d="M 234.843,19.5975 248.881,11.7987 z" id="boundary" inkscape:connector-curvature="0" />
	<path style="fill:none;stroke:red;stroke-width:1px;stroke-linecap:butt;stroke-linejoin:miter;stroke-opacity:1" d="M 237.962,122.541 252,130.34 z" id="boundary" inkscape:connector-curvature="0" />
	<path style="fill:none;stroke:red;stroke-width:1px;stroke-linecap:butt;stroke-linejoin:miter;stroke-opacity:1" d="M 237.962,393.937 241.082,409.535 z" id="boundary" inkscape:connector-curvature="0" />
	<path style="fill:none;stroke:red;stroke-width:1px;stroke-linecap:butt;stroke-linejoin:miter;stroke-opacity:1" d="M 241.082,409.535 248.881,423.572 z" id="boundary" inkscape:connector-curvature="0" />
	<path style="fill:none;stroke:red;stroke-width:1px;stroke-linecap:butt;stroke-linejoin:miter;stroke-opacity:1" d="M 244.201,175.572 253.56,161.535 z" id="boundary" inkscape:connector-curvature="0" />
	<path style="fill:none;stroke:red;stroke-width:1px;stroke-linecap:butt;stroke-linejoin:miter;stroke-opacity:1" d="M 248.881,11.7987 262.918,4 z" id="boundary" inkscape:connector-curvature="0" />
	<path style="fill:none;stroke:red;stroke-width:1px;stroke-linecap:butt;stroke-linejoin:miter;stroke-opacity:1" d="M 248.881,423.572 261.358,434.491 z" id="boundary" inkscape:connector-curvature="0" />
	<path style="fill:none;stroke:red;stroke-width:1px;stroke-linecap:butt;stroke-linejoin:miter;stroke-opacity:1" d="M 252,130.34 253.56,145.937 z" id="boundary" inkscape:connector-curvature="0" />
	<path style="fill:none;stroke:red;stroke-width:1px;stroke-linecap:butt;stroke-linejoin:miter;stroke-opacity:1" d="M 253.56,145.937 253.56,161.535 z" id="boundary" inkscape:connector-curvature="0" />
	<path style="fill:none;stroke:red;stroke-width:1px;stroke-linecap:butt;stroke-linejoin:miter;stroke-opacity:1" d="M 261.358,434.491 266.038,450.088 z" id="boundary" inkscape:connector-curvature="0" />
	<path style="fill:none;stroke:red;stroke-width:1px;stroke-linecap:butt;stroke-linejoin:miter;stroke-opacity:1" d="M 262.918,4 278.516,4 z" id="boundary" inkscape:connector-curvature="0" />
	<path style="fill:none;stroke:red;stroke-width:1px;stroke-linecap:butt;stroke-linejoin:miter;stroke-opacity:1" d="M 266.038,450.088 278.516,461.006 z" id="boundary" inkscape:connector-curvature="0" />
	<path style="fill:none;stroke:red;stroke-width:1px;stroke-linecap:butt;stroke-linejoin:miter;stroke-opacity:1" d="M 278.516,4 294.113,4 z" id="boundary" inkscape:connector-curvature="0" />
	<path style="fill:none;stroke:red;stroke-width:1px;stroke-linecap:butt;stroke-linejoin:miter;stroke-opacity:1" d="M 278.516,461.006 284.755,476.604 z" id="boundary" inkscape:connector-curvature="0" />
	<path style="fill:none;stroke:red;stroke-width:1px;stroke-linecap:butt;stroke-linejoin:miter;stroke-opacity:1" d="M 284.755,476.604 297.233,487.522 z" id="boundary" inkscape:connector-curvature="0" />
	<path style="fill:none;stroke:red;stroke-width:1px;stroke-linecap:butt;stroke-linejoin:miter;stroke-opacity:1" d="M 294.113,4 309.711,4 z" id="boundary" inkscape:connector-curvature="0" />
	<path style="fill:none;stroke:red;stroke-width:1px;stroke-linecap:butt;stroke-linejoin:miter;stroke-opacity:1" d="M 297.233,487.522 308.151,500 z" id="boundary" inkscape:connector-curvature="0" />
	<path style="fill:none;stroke:red;stroke-width:1px;stroke-linecap:butt;stroke-linejoin:miter;stroke-opacity:1" d="M 308.151,500 317.509,512.478 z" id="boundary" inkscape:connector-curvature="0" />
	<path style="fill:none;stroke:red;stroke-width:1px;stroke-linecap:butt;stroke-linejoin:miter;stroke-opacity:1" d="M 309.711,4 325.308,4 z" id="boundary" inkscape:connector-curvature="0" />
	<path style="fill:none;stroke:red;stroke-width:1px;stroke-linecap:butt;stroke-linejoin:miter;stroke-opacity:1" d="M 317.509,512.478 331.547,520.277 z" id="boundary" inkscape:connector-curvature="0" />
	<path style="fill:none;stroke:red;stroke-width:1px;stroke-linecap:butt;stroke-linejoin:miter;stroke-opacity:1" d="M 325.308,4 339.346,11.7987 z" id="boundary" inkscape:connector-curvature="0" />
	<path style="fill:none;stroke:red;stroke-width:1px;stroke-linecap:butt;stroke-linejoin:miter;stroke-opacity:1" d="M 331.547,520.277 340.906,532.755 z" id="boundary" inkscape:connector-curvature="0" />
	<path style="fill:none;stroke:red;stroke-width:1px;stroke-linecap:butt;stroke-linejoin:miter;stroke-opacity:1" d="M 339.346,11.7987 354.943,14.9182 z" id="boundary" inkscape:connector-curvature="0" />
	<path style="fill:none;stroke:red;stroke-width:1px;stroke-linecap:butt;stroke-linejoin:miter;stroke-opacity:1" d="M 340.906,532.755 353.384,543.673 z" id="boundary" inkscape:connector-curvature="0" />
	<path style="fill:none;stroke:red;stroke-width:1px;stroke-linecap:butt;stroke-linejoin:miter;stroke-opacity:1" d="M 353.384,543.673 367.421,551.472 z" id="boundary" inkscape:connector-curvature="0" />
	<path style="fill:none;stroke:red;stroke-width:1px;stroke-linecap:butt;stroke-linejoin:miter;stroke-opacity:1" d="M 354.943,14.9182 364.302,27.3962 z" id="boundary" inkscape:connector-curvature="0" />
	<path style="fill:none;stroke:red;stroke-width:1px;stroke-linecap:butt;stroke-linejoin:miter;stroke-opacity:1" d="M 364.302,27.3962 372.101,41.434 z" id="boundary" inkscape:connector-curvature="0" />
	<path style="fill:none;stroke:red;stroke-width:1px;stroke-linecap:butt;stroke-linejoin:miter;stroke-opacity:1" d="M 367.421,551.472 383.019,557.711 z" id="boundary" inkscape:connector-curvature="0" />
	<path style="fill:none;stroke:red;stroke-width:1px;stroke-linecap:butt;stroke-linejoin:miter;stroke-opacity:1" d="M 372.101,41.434 387.698,47.673 z" id="boundary" inkscape:connector-curvature="0" />
	<path style="fill:none;stroke:red;stroke-width:1px;stroke-linecap:butt;stroke-linejoin:miter;stroke-opacity:1" d="M 383.019,557.711 397.057,565.509 z" id="boundary" inkscape:connector-curvature="0" />
	<path style="fill:none;stroke:red;stroke-width:1px;stroke-linecap:butt;stroke-linejoin:miter;stroke-opacity:1" d="M 387.698,47.673 393.937,63.2704 z" id="boundary" inkscape:connector-curvature="0" />
	<path style="fill:none;stroke:red;stroke-width:1px;stroke-linecap:butt;stroke-linejoin:miter;stroke-opacity:1" d="M 393.937,63.2704 401.736,77.3082 z" id="boundary" inkscape:connector-curvature="0" />
	<path style="fill:none;stroke:red;stroke-width:1px;stroke-linecap:butt;stroke-linejoin:miter;stroke-opacity:1" d="M 393.937,889.937 401.736,874.34 z" id="boundary" inkscape:connector-curvature="0" />
	<path style="fill:none;stroke:red;stroke-width:1px;stroke-linecap:butt;stroke-linejoin:miter;stroke-opacity:1" d="M 393.937,889.937 409.535,894.616 z" id="boundary" inkscape:connector-curvature="0" />
	<path style="fill:none;stroke:red;stroke-width:1px;stroke-linecap:butt;stroke-linejoin:miter;stroke-opacity:1" d="M 397.057,565.509 412.654,571.748 z" id="boundary" inkscape:connector-curvature="0" />
	<path style="fill:none;stroke:red;stroke-width:1px;stroke-linecap:butt;stroke-linejoin:miter;stroke-opacity:1" d="M 401.736,77.3082 403.296,92.9057 z" id="boundary" inkscape:connector-curvature="0" />
	<path style="fill:none;stroke:red;stroke-width:1px;stroke-linecap:butt;stroke-linejoin:miter;stroke-opacity:1" d="M 401.736,874.34 406.415,854.063 z" id="boundary" inkscape:connector-curvature="0" />
	<path style="fill:none;stroke:red;stroke-width:1px;stroke-linecap:butt;stroke-linejoin:miter;stroke-opacity:1" d="M 403.296,92.9057 403.296,108.503 z" id="boundary" inkscape:connector-curvature="0" />
	<path style="fill:none;stroke:red;stroke-width:1px;stroke-linecap:butt;stroke-linejoin:miter;stroke-opacity:1" d="M 403.296,108.503 403.296,124.101 z" id="boundary" inkscape:connector-curvature="0" />
	<path style="fill:none;stroke:red;stroke-width:1px;stroke-linecap:butt;stroke-linejoin:miter;stroke-opacity:1" d="M 403.296,124.101 403.296,139.698 z" id="boundary" inkscape:connector-curvature="0" />
	<path style="fill:none;stroke:red;stroke-width:1px;stroke-linecap:butt;stroke-linejoin:miter;stroke-opacity:1" d="M 403.296,139.698 403.296,155.296 z" id="boundary" inkscape:connector-curvature="0" />
	<path style="fill:none;stroke:red;stroke-width:1px;stroke-linecap:butt;stroke-linejoin:miter;stroke-opacity:1" d="M 403.296,155.296 407.975,170.893 z" id="boundary" inkscape:connector-curvature="0" />
	<path style="fill:none;stroke:red;stroke-width:1px;stroke-linecap:butt;stroke-linejoin:miter;stroke-opacity:1" d="M 406.415,854.063 409.535,838.465 z" id="boundary" inkscape:connector-curvature="0" />
	<path style="fill:none;stroke:red;stroke-width:1px;stroke-linecap:butt;stroke-linejoin:miter;stroke-opacity:1" d="M 407.975,170.893 417.333,183.371 z" id="boundary" inkscape:connector-curvature="0" />
	<path style="fill:none;stroke:red;stroke-width:1px;stroke-linecap:butt;stroke-linejoin:miter;stroke-opacity:1" d="M 409.535,838.465 423.572,830.667 z" id="boundary" inkscape:connector-curvature="0" />
	<path style="fill:none;stroke:red;stroke-width:1px;stroke-linecap:butt;stroke-linejoin:miter;stroke-opacity:1" d="M 409.535,894.616 425.132,894.616 z" id="boundary" inkscape:connector-curvature="0" />
	<path style="fill:none;stroke:red;stroke-width:1px;stroke-linecap:butt;stroke-linejoin:miter;stroke-opacity:1" d="M 412.654,571.748 426.692,579.547 z" id="boundary" inkscape:connector-curvature="0" />
	<path style="fill:none;stroke:red;stroke-width:1px;stroke-linecap:butt;stroke-linejoin:miter;stroke-opacity:1" d="M 417.333,183.371 431.371,191.17 z" id="boundary" inkscape:connector-curvature="0" />
	<path style="fill:none;stroke:red;stroke-width:1px;stroke-linecap:butt;stroke-linejoin:miter;stroke-opacity:1" d="M 423.572,830.667 439.17,832.226 z" id="boundary" inkscape:connector-curvature="0" />
	<path style="fill:none;stroke:red;stroke-width:1px;stroke-linecap:butt;stroke-linejoin:miter;stroke-opacity:1" d="M 425.132,894.616 440.73,894.616 z" id="boundary" inkscape:connector-curvature="0" />
	<path style="fill:none;stroke:red;stroke-width:1px;stroke-linecap:butt;stroke-linejoin:miter;stroke-opacity:1" d="M 426.692,579.547 442.289,585.786 z" id="boundary" inkscape:connector-curvature="0" />
	<path style="fill:none;stroke:red;stroke-width:1px;stroke-linecap:butt;stroke-linejoin:miter;stroke-opacity:1" d="M 431.371,191.17 445.409,198.969 z" id="boundary" inkscape:connector-curvature="0" />
	<path style="fill:none;stroke:red;stroke-width:1px;stroke-linecap:butt;stroke-linejoin:miter;stroke-opacity:1" d="M 439.17,832.226 454.767,838.465 z" id="boundary" inkscape:connector-curvature="0" />
	<path style="fill:none;stroke:red;stroke-width:1px;stroke-linecap:butt;stroke-linejoin:miter;stroke-opacity:1" d="M 440.73,894.616 456.327,889.937 z" id="boundary" inkscape:connector-curvature="0" />
	<path style="fill:none;stroke:red;stroke-width:1px;stroke-linecap:butt;stroke-linejoin:miter;stroke-opacity:1" d="M 442.289,585.786 457.887,590.465 z" id="boundary" inkscape:connector-curvature="0" />
	<path style="fill:none;stroke:red;stroke-width:1px;stroke-linecap:butt;stroke-linejoin:miter;stroke-opacity:1" d="M 445.409,198.969 461.006,198.969 z" id="boundary" inkscape:connector-curvature="0" />
	<path style="fill:none;stroke:red;stroke-width:1px;stroke-linecap:butt;stroke-linejoin:miter;stroke-opacity:1" d="M 454.767,838.465 470.365,838.465 z" id="boundary" inkscape:connector-curvature="0" />
	<path style="fill:none;stroke:red;stroke-width:1px;stroke-linecap:butt;stroke-linejoin:miter;stroke-opacity:1" d="M 456.327,889.937 471.925,886.818 z" id="boundary" inkscape:connector-curvature="0" />
	<path style="fill:none;stroke:red;stroke-width:1px;stroke-linecap:butt;stroke-linejoin:miter;stroke-opacity:1" d="M 457.887,590.465 473.484,593.585 z" id="boundary" inkscape:connector-curvature="0" />
	<path style="fill:none;stroke:red;stroke-width:1px;stroke-linecap:butt;stroke-linejoin:miter;stroke-opacity:1" d="M 461.006,198.969 475.044,206.767 z" id="boundary" inkscape:connector-curvature="0" />
	<path style="fill:none;stroke:red;stroke-width:1px;stroke-linecap:butt;stroke-linejoin:miter;stroke-opacity:1" d="M 470.365,838.465 485.962,840.025 z" id="boundary" inkscape:connector-curvature="0" />
	<path style="fill:none;stroke:red;stroke-width:1px;stroke-linecap:butt;stroke-linejoin:miter;stroke-opacity:1" d="M 471.925,886.818 487.522,886.818 z" id="boundary" inkscape:connector-curvature="0" />
	<path style="fill:none;stroke:red;stroke-width:1px;stroke-linecap:butt;stroke-linejoin:miter;stroke-opacity:1" d="M 473.484,593.585 489.082,598.264 z" id="boundary" inkscape:connector-curvature="0" />
	<path style="fill:none;stroke:red;stroke-width:1px;stroke-linecap:butt;stroke-linejoin:miter;stroke-opacity:1" d="M 475.044,206.767 490.642,206.767 z" id="boundary" inkscape:connector-curvature="0" />
	<path style="fill:none;stroke:red;stroke-width:1px;stroke-linecap:butt;stroke-linejoin:miter;stroke-opacity:1" d="M 485.962,840.025 501.56,838.465 z" id="boundary" inkscape:connector-curvature="0" />
	<path style="fill:none;stroke:red;stroke-width:1px;stroke-linecap:butt;stroke-linejoin:miter;stroke-opacity:1" d="M 487.522,886.818 501.56,879.019 z" id="boundary" inkscape:connector-curvature="0" />
	<path style="fill:none;stroke:red;stroke-width:1px;stroke-linecap:butt;stroke-linejoin:miter;stroke-opacity:1" d="M 489.082,598.264 503.119,606.063 z" id="boundary" inkscape:connector-curvature="0" />
	<path style="fill:none;stroke:red;stroke-width:1px;stroke-linecap:butt;stroke-linejoin:miter;stroke-opacity:1" d="M 490.642,206.767 504.679,214.566 z" id="boundary" inkscape:connector-curvature="0" />
	<path style="fill:none;stroke:red;stroke-width:1px;stroke-linecap:butt;stroke-linejoin:miter;stroke-opacity:1" d="M 501.56,838.465 510.918,819.748 z" id="boundary" inkscape:connector-curvature="0" />
	<path style="fill:none;stroke:red;stroke-width:1px;stroke-linecap:butt;stroke-linejoin:miter;stroke-opacity:1" d="M 501.56,879.019 517.157,879.019 z" id="boundary" inkscape:connector-curvature="0" />
	<path style="fill:none;stroke:red;stroke-width:1px;stroke-linecap:butt;stroke-linejoin:miter;stroke-opacity:1" d="M 503.119,606.063 510.918,620.101 z" id="boundary" inkscape:connector-curvature="0" />
	<path style="fill:none;stroke:red;stroke-width:1px;stroke-linecap:butt;stroke-linejoin:miter;stroke-opacity:1" d="M 504.679,214.566 518.717,222.365 z" id="boundary" inkscape:connector-curvature="0" />
	<path style="fill:none;stroke:red;stroke-width:1px;stroke-linecap:butt;stroke-linejoin:miter;stroke-opacity:1" d="M 510.918,620.101 510.918,635.698 z" id="boundary" inkscape:connector-curvature="0" />
	<path style="fill:none;stroke:red;stroke-width:1px;stroke-linecap:butt;stroke-linejoin:miter;stroke-opacity:1" d="M 510.918,635.698 510.918,651.296 z" id="boundary" inkscape:connector-curvature="0" />
	<path style="fill:none;stroke:red;stroke-width:1px;stroke-linecap:butt;stroke-linejoin:miter;stroke-opacity:1" d="M 510.918,651.296 518.717,665.333 z" id="boundary" inkscape:connector-curvature="0" />
	<path style="fill:none;stroke:red;stroke-width:1px;stroke-linecap:butt;stroke-linejoin:miter;stroke-opacity:1" d="M 510.918,772.956 510.918,788.553 z" id="boundary" inkscape:connector-curvature="0" />
	<path style="fill:none;stroke:red;stroke-width:1px;stroke-linecap:butt;stroke-linejoin:miter;stroke-opacity:1" d="M 510.918,772.956 518.717,758.918 z" id="boundary" inkscape:connector-curvature="0" />
	<path style="fill:none;stroke:red;stroke-width:1px;stroke-linecap:butt;stroke-linejoin:miter;stroke-opacity:1" d="M 510.918,788.553 510.918,804.151 z" id="boundary" inkscape:connector-curvature="0" />
	<path style="fill:none;stroke:red;stroke-width:1px;stroke-linecap:butt;stroke-linejoin:miter;stroke-opacity:1" d="M 510.918,804.151 510.918,819.748 z" id="boundary" inkscape:connector-curvature="0" />
	<path style="fill:none;stroke:red;stroke-width:1px;stroke-linecap:butt;stroke-linejoin:miter;stroke-opacity:1" d="M 517.157,879.019 532.755,879.019 z" id="boundary" inkscape:connector-curvature="0" />
	<path style="fill:none;stroke:red;stroke-width:1px;stroke-linecap:butt;stroke-linejoin:miter;stroke-opacity:1" d="M 518.717,222.365 534.314,225.484 z" id="boundary" inkscape:connector-curvature="0" />
	<path style="fill:none;stroke:red;stroke-width:1px;stroke-linecap:butt;stroke-linejoin:miter;stroke-opacity:1" d="M 518.717,665.333 518.717,680.931 z" id="boundary" inkscape:connector-curvature="0" />
	<path style="fill:none;stroke:red;stroke-width:1px;stroke-linecap:butt;stroke-linejoin:miter;stroke-opacity:1" d="M 518.717,680.931 518.717,696.528 z" id="boundary" inkscape:connector-curvature="0" />
	<path style="fill:none;stroke:red;stroke-width:1px;stroke-linecap:butt;stroke-linejoin:miter;stroke-opacity:1" d="M 518.717,696.528 518.717,712.126 z" id="boundary" inkscape:connector-curvature="0" />
	<path style="fill:none;stroke:red;stroke-width:1px;stroke-linecap:butt;stroke-linejoin:miter;stroke-opacity:1" d="M 518.717,712.126 518.717,727.723 z" id="boundary" inkscape:connector-curvature="0" />
	<path style="fill:none;stroke:red;stroke-width:1px;stroke-linecap:butt;stroke-linejoin:miter;stroke-opacity:1" d="M 518.717,727.723 518.717,743.321 z" id="boundary" inkscape:connector-curvature="0" />
	<path style="fill:none;stroke:red;stroke-width:1px;stroke-linecap:butt;stroke-linejoin:miter;stroke-opacity:1" d="M 518.717,743.321 518.717,758.918 z" id="boundary" inkscape:connector-curvature="0" />
	<path style="fill:none;stroke:red;stroke-width:1px;stroke-linecap:butt;stroke-linejoin:miter;stroke-opacity:1" d="M 532.755,879.019 548.352,875.899 z" id="boundary" inkscape:connector-curvature="0" />
	<path style="fill:none;stroke:red;stroke-width:1px;stroke-linecap:butt;stroke-linejoin:miter;stroke-opacity:1" d="M 534.314,225.484 549.912,230.164 z" id="boundary" inkscape:connector-curvature="0" />
	<path style="fill:none;stroke:red;stroke-width:1px;stroke-linecap:butt;stroke-linejoin:miter;stroke-opacity:1" d="M 535.874,769.836 535.874,785.434 z" id="boundary" inkscape:connector-curvature="0" />
	<path style="fill:none;stroke:red;stroke-width:1px;stroke-linecap:butt;stroke-linejoin:miter;stroke-opacity:1" d="M 535.874,769.836 543.673,754.239 z" id="boundary" inkscape:connector-curvature="0" />
	<path style="fill:none;stroke:red;stroke-width:1px;stroke-linecap:butt;stroke-linejoin:miter;stroke-opacity:1" d="M 535.874,785.434 535.874,801.031 z" id="boundary" inkscape:connector-curvature="0" />
	<path style="fill:none;stroke:red;stroke-width:1px;stroke-linecap:butt;stroke-linejoin:miter;stroke-opacity:1" d="M 535.874,801.031 535.874,816.629 z" id="boundary" inkscape:connector-curvature="0" />
	<path style="fill:none;stroke:red;stroke-width:1px;stroke-linecap:butt;stroke-linejoin:miter;stroke-opacity:1" d="M 535.874,816.629 535.874,832.226 z" id="boundary" inkscape:connector-curvature="0" />
	<path style="fill:none;stroke:red;stroke-width:1px;stroke-linecap:butt;stroke-linejoin:miter;stroke-opacity:1" d="M 535.874,832.226 535.874,847.824 z" id="boundary" inkscape:connector-curvature="0" />
	<path style="fill:none;stroke:red;stroke-width:1px;stroke-linecap:butt;stroke-linejoin:miter;stroke-opacity:1" d="M 535.874,847.824 548.352,857.182 z" id="boundary" inkscape:connector-curvature="0" />
	<path style="fill:none;stroke:red;stroke-width:1px;stroke-linecap:butt;stroke-linejoin:miter;stroke-opacity:1" d="M 543.673,645.057 551.472,629.459 z" id="boundary" inkscape:connector-curvature="0" />
	<path style="fill:none;stroke:red;stroke-width:1px;stroke-linecap:butt;stroke-linejoin:miter;stroke-opacity:1" d="M 543.673,645.057 551.472,659.094 z" id="boundary" inkscape:connector-curvature="0" />
	<path style="fill:none;stroke:red;stroke-width:1px;stroke-linecap:butt;stroke-linejoin:miter;stroke-opacity:1" d="M 543.673,676.252 543.673,691.849 z" id="boundary" inkscape:connector-curvature="0" />
	<path style="fill:none;stroke:red;stroke-width:1px;stroke-linecap:butt;stroke-linejoin:miter;stroke-opacity:1" d="M 543.673,676.252 551.472,659.094 z" id="boundary" inkscape:connector-curvature="0" />
	<path style="fill:none;stroke:red;stroke-width:1px;stroke-linecap:butt;stroke-linejoin:miter;stroke-opacity:1" d="M 543.673,691.849 543.673,707.447 z" id="boundary" inkscape:connector-curvature="0" />
	<path style="fill:none;stroke:red;stroke-width:1px;stroke-linecap:butt;stroke-linejoin:miter;stroke-opacity:1" d="M 543.673,707.447 543.673,723.044 z" id="boundary" inkscape:connector-curvature="0" />
	<path style="fill:none;stroke:red;stroke-width:1px;stroke-linecap:butt;stroke-linejoin:miter;stroke-opacity:1" d="M 543.673,723.044 543.673,738.642 z" id="boundary" inkscape:connector-curvature="0" />
	<path style="fill:none;stroke:red;stroke-width:1px;stroke-linecap:butt;stroke-linejoin:miter;stroke-opacity:1" d="M 543.673,738.642 543.673,754.239 z" id="boundary" inkscape:connector-curvature="0" />
	<path style="fill:none;stroke:red;stroke-width:1px;stroke-linecap:butt;stroke-linejoin:miter;stroke-opacity:1" d="M 548.352,857.182 548.352,875.899 z" id="boundary" inkscape:connector-curvature="0" />
	<path style="fill:none;stroke:red;stroke-width:1px;stroke-linecap:butt;stroke-linejoin:miter;stroke-opacity:1" d="M 549.912,230.164 562.39,239.522 z" id="boundary" inkscape:connector-curvature="0" />
	<path style="fill:none;stroke:red;stroke-width:1px;stroke-linecap:butt;stroke-linejoin:miter;stroke-opacity:1" d="M 551.472,629.459 563.95,618.541 z" id="boundary" inkscape:connector-curvature="0" />
	<path style="fill:none;stroke:red;stroke-width:1px;stroke-linecap:butt;stroke-linejoin:miter;stroke-opacity:1" d="M 562.39,239.522 577.987,245.761 z" id="boundary" inkscape:connector-curvature="0" />
	<path style="fill:none;stroke:red;stroke-width:1px;stroke-linecap:butt;stroke-linejoin:miter;stroke-opacity:1" d="M 563.95,618.541 574.868,606.063 z" id="boundary" inkscape:connector-curvature="0" />
	<path style="fill:none;stroke:red;stroke-width:1px;stroke-linecap:butt;stroke-linejoin:miter;stroke-opacity:1" d="M 574.868,606.063 587.346,595.145 z" id="boundary" inkscape:connector-curvature="0" />
	<path style="fill:none;stroke:red;stroke-width:1px;stroke-linecap:butt;stroke-linejoin:miter;stroke-opacity:1" d="M 577.987,245.761 592.025,253.56 z" id="boundary" inkscape:connector-curvature="0" />
	<path style="fill:none;stroke:red;stroke-width:1px;stroke-linecap:butt;stroke-linejoin:miter;stroke-opacity:1" d="M 587.346,595.145 598.264,582.667 z" id="boundary" inkscape:connector-curvature="0" />
	<path style="fill:none;stroke:red;stroke-width:1px;stroke-linecap:butt;stroke-linejoin:miter;stroke-opacity:1" d="M 592.025,253.56 606.063,261.358 z" id="boundary" inkscape:connector-curvature="0" />
	<path style="fill:none;stroke:red;stroke-width:1px;stroke-linecap:butt;stroke-linejoin:miter;stroke-opacity:1" d="M 598.264,582.667 613.862,582.667 z" id="boundary" inkscape:connector-curvature="0" />
	<path style="fill:none;stroke:red;stroke-width:1px;stroke-linecap:butt;stroke-linejoin:miter;stroke-opacity:1" d="M 606.063,261.358 621.66,261.358 z" id="boundary" inkscape:connector-curvature="0" />
	<path style="fill:none;stroke:red;stroke-width:1px;stroke-linecap:butt;stroke-linejoin:miter;stroke-opacity:1" d="M 613.862,582.667 627.899,574.868 z" id="boundary" inkscape:connector-curvature="0" />
	<path style="fill:none;stroke:red;stroke-width:1px;stroke-linecap:butt;stroke-linejoin:miter;stroke-opacity:1" d="M 621.66,261.358 635.698,269.157 z" id="boundary" inkscape:connector-curvature="0" />
	<path style="fill:none;stroke:red;stroke-width:1px;stroke-linecap:butt;stroke-linejoin:miter;stroke-opacity:1" d="M 627.899,574.868 643.497,574.868 z" id="boundary" inkscape:connector-curvature="0" />
	<path style="fill:none;stroke:red;stroke-width:1px;stroke-linecap:butt;stroke-linejoin:miter;stroke-opacity:1" d="M 635.698,269.157 649.736,276.956 z" id="boundary" inkscape:connector-curvature="0" />
	<path style="fill:none;stroke:red;stroke-width:1px;stroke-linecap:butt;stroke-linejoin:miter;stroke-opacity:1" d="M 643.497,574.868 659.094,574.868 z" id="boundary" inkscape:connector-curvature="0" />
	<path style="fill:none;stroke:red;stroke-width:1px;stroke-linecap:butt;stroke-linejoin:miter;stroke-opacity:1" d="M 649.736,276.956 663.774,284.755 z" id="boundary" inkscape:connector-curvature="0" />
	<path style="fill:none;stroke:red;stroke-width:1px;stroke-linecap:butt;stroke-linejoin:miter;stroke-opacity:1" d="M 659.094,574.868 674.692,570.189 z" id="boundary" inkscape:connector-curvature="0" />
	<path style="fill:none;stroke:red;stroke-width:1px;stroke-linecap:butt;stroke-linejoin:miter;stroke-opacity:1" d="M 663.774,284.755 677.811,292.553 z" id="boundary" inkscape:connector-curvature="0" />
	<path style="fill:none;stroke:red;stroke-width:1px;stroke-linecap:butt;stroke-linejoin:miter;stroke-opacity:1" d="M 674.692,570.189 687.17,559.27 z" id="boundary" inkscape:connector-curvature="0" />
	<path style="fill:none;stroke:red;stroke-width:1px;stroke-linecap:butt;stroke-linejoin:miter;stroke-opacity:1" d="M 677.811,292.553 691.849,300.352 z" id="boundary" inkscape:connector-curvature="0" />
	<path style="fill:none;stroke:red;stroke-width:1px;stroke-linecap:butt;stroke-linejoin:miter;stroke-opacity:1" d="M 687.17,559.27 702.767,557.711 z" id="boundary" inkscape:connector-curvature="0" />
	<path style="fill:none;stroke:red;stroke-width:1px;stroke-linecap:butt;stroke-linejoin:miter;stroke-opacity:1" d="M 691.849,300.352 707.447,305.031 z" id="boundary" inkscape:connector-curvature="0" />
	<path style="fill:none;stroke:red;stroke-width:1px;stroke-linecap:butt;stroke-linejoin:miter;stroke-opacity:1" d="M 702.767,557.711 718.365,549.912 z" id="boundary" inkscape:connector-curvature="0" />
	<path style="fill:none;stroke:red;stroke-width:1px;stroke-linecap:butt;stroke-linejoin:miter;stroke-opacity:1" d="M 707.447,305.031 719.925,315.95 z" id="boundary" inkscape:connector-curvature="0" />
	<path style="fill:none;stroke:red;stroke-width:1px;stroke-linecap:butt;stroke-linejoin:miter;stroke-opacity:1" d="M 718.365,549.912 733.962,543.673 z" id="boundary" inkscape:connector-curvature="0" />
	<path style="fill:none;stroke:red;stroke-width:1px;stroke-linecap:butt;stroke-linejoin:miter;stroke-opacity:1" d="M 719.925,315.95 733.962,323.748 z" id="boundary" inkscape:connector-curvature="0" />
	<path style="fill:none;stroke:red;stroke-width:1px;stroke-linecap:butt;stroke-linejoin:miter;stroke-opacity:1" d="M 733.962,323.748 749.56,323.748 z" id="boundary" inkscape:connector-curvature="0" />
	<path style="fill:none;stroke:red;stroke-width:1px;stroke-linecap:butt;stroke-linejoin:miter;stroke-opacity:1" d="M 733.962,543.673 749.56,542.113 z" id="boundary" inkscape:connector-curvature="0" />
	<path style="fill:none;stroke:red;stroke-width:1px;stroke-linecap:butt;stroke-linejoin:miter;stroke-opacity:1" d="M 749.56,323.748 760.478,336.226 z" id="boundary" inkscape:connector-curvature="0" />
	<path style="fill:none;stroke:red;stroke-width:1px;stroke-linecap:butt;stroke-linejoin:miter;stroke-opacity:1" d="M 749.56,542.113 762.038,528.075 z" id="boundary" inkscape:connector-curvature="0" />
	<path style="fill:none;stroke:red;stroke-width:1px;stroke-linecap:butt;stroke-linejoin:miter;stroke-opacity:1" d="M 760.478,336.226 776.075,339.346 z" id="boundary" inkscape:connector-curvature="0" />
	<path style="fill:none;stroke:red;stroke-width:1px;stroke-linecap:butt;stroke-linejoin:miter;stroke-opacity:1" d="M 762.038,528.075 777.635,528.075 z" id="boundary" inkscape:connector-curvature="0" />
	<path style="fill:none;stroke:red;stroke-width:1px;stroke-linecap:butt;stroke-linejoin:miter;stroke-opacity:1" d="M 776.075,339.346 791.673,342.465 z" id="boundary" inkscape:connector-curvature="0" />
	<path style="fill:none;stroke:red;stroke-width:1px;stroke-linecap:butt;stroke-linejoin:miter;stroke-opacity:1" d="M 777.635,528.075 791.673,520.277 z" id="boundary" inkscape:connector-curvature="0" />
	<path style="fill:none;stroke:red;stroke-width:1px;stroke-linecap:butt;stroke-linejoin:miter;stroke-opacity:1" d="M 791.673,342.465 801.031,354.943 z" id="boundary" inkscape:connector-curvature="0" />
	<path style="fill:none;stroke:red;stroke-width:1px;stroke-linecap:butt;stroke-linejoin:miter;stroke-opacity:1" d="M 791.673,520.277 807.27,515.597 z" id="boundary" inkscape:connector-curvature="0" />
	<path style="fill:none;stroke:red;stroke-width:1px;stroke-linecap:butt;stroke-linejoin:miter;stroke-opacity:1" d="M 801.031,354.943 816.629,354.943 z" id="boundary" inkscape:connector-curvature="0" />
	<path style="fill:none;stroke:red;stroke-width:1px;stroke-linecap:butt;stroke-linejoin:miter;stroke-opacity:1" d="M 807.27,515.597 819.748,504.679 z" id="boundary" inkscape:connector-curvature="0" />
	<path style="fill:none;stroke:red;stroke-width:1px;stroke-linecap:butt;stroke-linejoin:miter;stroke-opacity:1" d="M 816.629,354.943 830.667,362.742 z" id="boundary" inkscape:connector-curvature="0" />
	<path style="fill:none;stroke:red;stroke-width:1px;stroke-linecap:butt;stroke-linejoin:miter;stroke-opacity:1" d="M 819.748,504.679 833.786,496.881 z" id="boundary" inkscape:connector-curvature="0" />
	<path style="fill:none;stroke:red;stroke-width:1px;stroke-linecap:butt;stroke-linejoin:miter;stroke-opacity:1" d="M 830.667,362.742 846.264,365.862 z" id="boundary" inkscape:connector-curvature="0" />
	<path style="fill:none;stroke:red;stroke-width:1px;stroke-linecap:butt;stroke-linejoin:miter;stroke-opacity:1" d="M 833.786,496.881 849.384,496.881 z" id="boundary" inkscape:connector-curvature="0" />
	<path style="fill:none;stroke:red;stroke-width:1px;stroke-linecap:butt;stroke-linejoin:miter;stroke-opacity:1" d="M 846.264,365.862 861.862,370.541 z" id="boundary" inkscape:connector-curvature="0" />
	<path style="fill:none;stroke:red;stroke-width:1px;stroke-linecap:butt;stroke-linejoin:miter;stroke-opacity:1" d="M 849.384,496.881 864.981,496.881 z" id="boundary" inkscape:connector-curvature="0" />
	<path style="fill:none;stroke:red;stroke-width:1px;stroke-linecap:butt;stroke-linejoin:miter;stroke-opacity:1" d="M 861.862,370.541 875.899,378.34 z" id="boundary" inkscape:connector-curvature="0" />
	<path style="fill:none;stroke:red;stroke-width:1px;stroke-linecap:butt;stroke-linejoin:miter;stroke-opacity:1" d="M 864.981,496.881 879.019,489.082 z" id="boundary" inkscape:connector-curvature="0" />
	<path style="fill:none;stroke:red;stroke-width:1px;stroke-linecap:butt;stroke-linejoin:miter;stroke-opacity:1" d="M 875.899,378.34 891.497,378.34 z" id="boundary" inkscape:connector-curvature="0" />
	<path style="fill:none;stroke:red;stroke-width:1px;stroke-linecap:butt;stroke-linejoin:miter;stroke-opacity:1" d="M 879.019,489.082 893.057,481.283 z" id="boundary" inkscape:connector-curvature="0" />
	<path style="fill:none;stroke:red;stroke-width:1px;stroke-linecap:butt;stroke-linejoin:miter;stroke-opacity:1" d="M 891.497,378.34 905.535,386.138 z" id="boundary" inkscape:connector-curvature="0" />
	<path style="fill:none;stroke:red;stroke-width:1px;stroke-linecap:butt;stroke-linejoin:miter;stroke-opacity:1" d="M 893.057,481.283 908.654,481.283 z" id="boundary" inkscape:connector-curvature="0" />
	<path style="fill:none;stroke:red;stroke-width:1px;stroke-linecap:butt;stroke-linejoin:miter;stroke-opacity:1" d="M 905.535,386.138 916.453,398.616 z" id="boundary" inkscape:connector-curvature="0" />
	<path style="fill:none;stroke:red;stroke-width:1px;stroke-linecap:butt;stroke-linejoin:miter;stroke-opacity:1" d="M 908.654,481.283 924.252,481.283 z" id="boundary" inkscape:connector-curvature="0" />
	<path style="fill:none;stroke:red;stroke-width:1px;stroke-linecap:butt;stroke-linejoin:miter;stroke-opacity:1" d="M 916.453,398.616 932.05,401.736 z" id="boundary" inkscape:connector-curvature="0" />
	<path style="fill:none;stroke:red;stroke-width:1px;stroke-linecap:butt;stroke-linejoin:miter;stroke-opacity:1" d="M 924.252,481.283 939.849,481.283 z" id="boundary" inkscape:connector-curvature="0" />
	<path style="fill:none;stroke:red;stroke-width:1px;stroke-linecap:butt;stroke-linejoin:miter;stroke-opacity:1" d="M 932.05,401.736 947.648,401.736 z" id="boundary" inkscape:connector-curvature="0" />
	<path style="fill:none;stroke:red;stroke-width:1px;stroke-linecap:butt;stroke-linejoin:miter;stroke-opacity:1" d="M 939.849,481.283 955.447,481.283 z" id="boundary" inkscape:connector-curvature="0" />
	<path style="fill:none;stroke:red;stroke-width:1px;stroke-linecap:butt;stroke-linejoin:miter;stroke-opacity:1" d="M 947.648,401.736 963.245,401.736 z" id="boundary" inkscape:connector-curvature="0" />
	<path style="fill:none;stroke:red;stroke-width:1px;stroke-linecap:butt;stroke-linejoin:miter;stroke-opacity:1" d="M 955.447,481.283 971.044,481.283 z" id="boundary" inkscape:connector-curvature="0" />
	<path style="fill:none;stroke:red;stroke-width:1px;stroke-linecap:butt;stroke-linejoin:miter;stroke-opacity:1" d="M 963.245,401.736 972.604,414.214 z" id="boundary" inkscape:connector-curvature="0" />
	<path style="fill:none;stroke:red;stroke-width:1px;stroke-linecap:butt;stroke-linejoin:miter;stroke-opacity:1" d="M 971.044,481.283 986.642,481.283 z" id="boundary" inkscape:connector-curvature="0" />
	<path style="fill:none;stroke:red;stroke-width:1px;stroke-linecap:butt;stroke-linejoin:miter;stroke-opacity:1" d="M 972.604,414.214 972.604,429.811 z" id="boundary" inkscape:connector-curvature="0" />
	<path style="fill:none;stroke:red;stroke-width:1px;stroke-linecap:butt;stroke-linejoin:miter;stroke-opacity:1" d="M 972.604,429.811 972.604,445.409 z" id="boundary" inkscape:connector-curvature="0" />
	<path style="fill:none;stroke:red;stroke-width:1px;stroke-linecap:butt;stroke-linejoin:miter;stroke-opacity:1" d="M 972.604,445.409 983.522,457.887 z" id="boundary" inkscape:connector-curvature="0" />
	<path style="fill:none;stroke:red;stroke-width:1px;stroke-linecap:butt;stroke-linejoin:miter;stroke-opacity:1" d="M 983.522,457.887 996,468.805 z" id="boundary" inkscape:connector-curvature="0" />
	<path style="fill:none;stroke:red;stroke-width:1px;stroke-linecap:butt;stroke-linejoin:miter;stroke-opacity:1" d="M 986.642,481.283 996,468.805 z" id="boundary" inkscape:connector-curvature="0" />
	<circle cx="4" cy="195.849" r="4" fill="#0" id="circle0"/>
	<circle cx="16.478" cy="183.371" r="4" fill="#0" id="circle1"/>
	<circle cx="19.5975" cy="200.528" r="4" fill="#0" id="circle2"/>
	<circle cx="32.0755" cy="175.572" r="4" fill="#0" id="circle3"/>
	<circle cx="35.195" cy="200.528" r="4" fill="#0" id="circle4"/>
	<circle cx="46.1132" cy="167.774" r="4" fill="#0" id="circle5"/>
	<circle cx="49.2327" cy="192.73" r="4" fill="#0" id="circle6"/>
	<circle cx="61.7107" cy="161.535" r="4" fill="#0" id="circle7"/>
	<circle cx="64.8302" cy="189.61" r="4" fill="#0" id="circle8"/>
	<circle cx="77.3082" cy="153.736" r="4" fill="#0" id="circle9"/>
	<circle cx="80.4277" cy="184.931" r="4" fill="#0" id="circle10"/>
	<circle cx="92.9057" cy="145.937" r="4" fill="#0" id="circle11"/>
	<circle cx="94.4654" cy="177.132" r="4" fill="#0" id="circle12"/>
	<circle cx="105.384" cy="136.579" r="4" fill="#0" id="circle13"/>
	<circle cx="108.503" cy="169.333" r="4" fill="#0" id="circle14"/>
	<circle cx="119.421" cy="128.78" r="4" fill="#0" id="circle15"/>
	<circle cx="124.101" cy="169.333" r="4" fill="#0" id="circle16"/>
	<circle cx="135.019" cy="128.78" r="4" fill="#0" id="circle17"/>
	<circle cx="138.138" cy="161.535" r="4" fill="#0" id="circle18"/>
	<circle cx="145.937" cy="116.302" r="4" fill="#0" id="circle19"/>
	<circle cx="152.176" cy="153.736" r="4" fill="#0" id="circle20"/>
	<circle cx="161.535" cy="108.503" r="4" fill="#0" id="circle21"/>
	<circle cx="166.214" cy="145.937" r="4" fill="#0" id="circle22"/>
	<circle cx="177.132" cy="100.704" r="4" fill="#0" id="circle23"/>
	<circle cx="180.252" cy="138.138" r="4" fill="#0" id="circle24"/>
	<circle cx="192.73" cy="92.9057" r="4" fill="#0" id="circle25"/>
	<circle cx="194.289" cy="130.34" r="4" fill="#0" id="circle26"/>
	<circle cx="205.208" cy="81.9874" r="4" fill="#0" id="circle27"/>
	<circle cx="206.767" cy="39.8742" r="4" fill="#0" id="circle28"/>
	<circle cx="206.767" cy="55.4717" r="4" fill="#0" id="circle29"/>
	<circle cx="206.767" cy="211.447" r="4" fill="#0" id="circle30"/>
	<circle cx="206.767" cy="227.044" r="4" fill="#0" id="circle31"/>
	<circle cx="206.767" cy="242.642" r="4" fill="#0" id="circle32"/>
	<circle cx="206.767" cy="258.239" r="4" fill="#0" id="circle33"/>
	<circle cx="206.767" cy="273.836" r="4" fill="#0" id="circle34"/>
	<circle cx="206.767" cy="289.434" r="4" fill="#0" id="circle35"/>
	<circle cx="208.327" cy="122.541" r="4" fill="#0" id="circle36"/>
	<circle cx="214.566" cy="303.472" r="4" fill="#0" id="circle37"/>
	<circle cx="214.566" cy="319.069" r="4" fill="#0" id="circle38"/>
	<circle cx="214.566" cy="334.667" r="4" fill="#0" id="circle39"/>
	<circle cx="219.245" cy="27.3962" r="4" fill="#0" id="circle40"/>
	<circle cx="219.245" cy="198.969" r="4" fill="#0" id="circle41"/>
	<circle cx="222.365" cy="348.704" r="4" fill="#0" id="circle42"/>
	<circle cx="223.925" cy="114.742" r="4" fill="#0" id="circle43"/>
	<circle cx="227.044" cy="364.302" r="4" fill="#0" id="circle44"/>
	<circle cx="230.164" cy="379.899" r="4" fill="#0" id="circle45"/>
	<circle cx="231.723" cy="186.491" r="4" fill="#0" id="circle46"/>
	<circle cx="234.843" cy="19.5975" r="4" fill="#0" id="circle47"/>
	<circle cx="237.962" cy="122.541" r="4" fill="#0" id="circle48"/>
	<circle cx="237.962" cy="393.937" r="4" fill="#0" id="circle49"/>
	<circle cx="241.082" cy="409.535" r="4" fill="#0" id="circle50"/>
	<circle cx="244.201" cy="175.572" r="4" fill="#0" id="circle51"/>
	<circle cx="248.881" cy="11.7987" r="4" fill="#0" id="circle52"/>
	<circle cx="248.881" cy="423.572" r="4" fill="#0" id="circle53"/>
	<circle cx="252" cy="130.34" r="4" fill="#0" id="circle54"/>
	<circle cx="253.56" cy="145.937" r="4" fill="#0" id="circle55"/>
	<circle cx="253.56" cy="161.535" r="4" fill="#0" id="circle56"/>
	<circle cx="261.358" cy="434.491" r="4" fill="#0" id="circle57"/>
	<circle cx="262.918" cy="4" r="4" fill="#0" id="circle58"/>
	<circle cx="266.038" cy="450.088" r="4" fill="#0" id="circle59"/>
	<circle cx="278.516" cy="4" r="4" fill="#0" id="circle60"/>
	<circle cx="278.516" cy="461.006" r="4" fill="#0" id="circle61"/>
	<circle cx="284.755" cy="476.604" r="4" fill="#0" id="circle62"/>
	<circle cx="294.113" cy="4" r="4" fill="#0" id="circle63"/>
	<circle cx="297.233" cy="487.522" r="4" fill="#0" id="circle64"/>
	<circle cx="308.151" cy="500" r="4" fill="#0" id="circle65"/>
	<circle cx="309.711" cy="4" r="4" fill="#0" id="circle66"/>
	<circle cx="317.509" cy="512.478" r="4" fill="#0" id="circle67"/>
	<circle cx="325.308" cy="4" r="4" fill="#0" id="circle68"/>
	<circle cx="331.547" cy="520.277" r="4" fill="#0" id="circle69"/>
	<circle cx="339.346" cy="11.7987" r="4" fill="#0" id="circle70"/>
	<circle cx="340.906" cy="532.755" r="4" fill="#0" id="circle71"/>
	<circle cx="353.384" cy="543.673" r="4" fill="#0" id="circle72"/>
	<circle cx="354.943" cy="14.9182" r="4" fill="#0" id="circle73"/>
	<circle cx="364.302" cy="27.3962" r="4" fill="#0" id="circle74"/>
	<circle cx="367.421" cy="551.472" r="4" fill="#0" id="circle75"/>
	<circle cx="372.101" cy="41.434" r="4" fill="#0" id="circle76"/>
	<circle cx="383.019" cy="557.711" r="4" fill="#0" id="circle77"/>
	<circle cx="387.698" cy="47.673" r="4" fill="#0" id="circle78"/>
	<circle cx="393.937" cy="63.2704" r="4" fill="#0" id="circle79"/>
	<circle cx="393.937" cy="843.145" r="4" fill="#0" id="circle80"/>
	<circle cx="393.937" cy="889.937" r="4" fill="#0" id="circle81"/>
	<circle cx="397.057" cy="565.509" r="4" fill="#0" id="circle82"/>
	<circle cx="401.736" cy="77.3082" r="4" fill="#0" id="circle83"/>
	<circle cx="401.736" cy="874.34" r="4" fill="#0" id="circle84"/>
	<circle cx="403.296" cy="92.9057" r="4" fill="#0" id="circle85"/>
	<circle cx="403.296" cy="108.503" r="4" fill="#0" id="circle86"/>
	<circle cx="403.296" cy="124.101" r="4" fill="#0" id="circle87"/>
	<circle cx="403.296" cy="139.698" r="4" fill="#0" id="circle88"/>
	<circle cx="403.296" cy="155.296" r="4" fill="#0" id="circle89"/>
	<circle cx="406.415" cy="854.063" r="4" fill="#0" id="circle90"/>
	<circle cx="407.975" cy="170.893" r="4" fill="#0" id="circle91"/>
	<circle cx="409.535" cy="838.465" r="4" fill="#0" id="circle92"/>
	<circle cx="409.535" cy="894.616" r="4" fill="#0" id="circle93"/>
	<circle cx="412.654" cy="571.748" r="4" fill="#0" id="circle94"/>
	<circle cx="417.333" cy="183.371" r="4" fill="#0" id="circle95"/>
	<circle cx="423.572" cy="830.667" r="4" fill="#0" id="circle96"/>
	<circle cx="425.132" cy="894.616" r="4" fill="#0" id="circle97"/>
	<circle cx="426.692" cy="579.547" r="4" fill="#0" id="circle98"/>
	<circle cx="431.371" cy="191.17" r="4" fill="#0" id="circle99"/>
	<circle cx="439.17" cy="832.226" r="4" fill="#0" id="circle100"/>
	<circle cx="440.73" cy="894.616" r="4" fill="#0" id="circle101"/>
	<circle cx="442.289" cy="585.786" r="4" fill="#0" id="circle102"/>
	<circle cx="445.409" cy="198.969" r="4" fill="#0" id="circle103"/>
	<circle cx="454.767" cy="838.465" r="4" fill="#0" id="circle104"/>
	<circle cx="456.327" cy="889.937" r="4" fill="#0" id="circle105"/>
	<circle cx="457.887" cy="590.465" r="4" fill="#0" id="circle106"/>
	<circle cx="461.006" cy="198.969" r="4" fill="#0" id="circle107"/>
	<circle cx="470.365" cy="838.465" r="4" fill="#0" id="circle108"/>
	<circle cx="471.925" cy="886.818" r="4" fill="#0" id="circle109"/>
	<circle cx="473.484" cy="593.585" r="4" fill="#0" id="circle110"/>
	<circle cx="475.044" cy="206.767" r="4" fill="#0" id="circle111"/>
	<circle cx="485.962" cy="840.025" r="4" fill="#0" id="circle112"/>
	<circle cx="487.522" cy="886.818" r="4" fill="#0" id="circle113"/>
	<circle cx="489.082" cy="598.264" r="4" fill="#0" id="circle114"/>
	<circle cx="490.642" cy="206.767" r="4" fill="#0" id="circle115"/>
	<circle cx="501.56" cy="838.465" r="4" fill="#0" id="circle116"/>
	<circle cx="501.56" cy="879.019" r="4" fill="#0" id="circle117"/>
	<circle cx="503.119" cy="606.063" r="4" fill="#0" id="circle118"/>
	<circle cx="504.679" cy="214.566" r="4" fill="#0" id="circle119"/>
	<circle cx="510.918" cy="620.101" r="4" fill="#0" id="circle120"/>
	<circle cx="510.918" cy="635.698" r="4" fill="#0" id="circle121"/>
	<circle cx="510.918" cy="651.296" r="4" fill="#0" id="circle122"/>
	<circle cx="510.918" cy="772.956" r="4" fill="#0" id="circle123"/>
	<circle cx="510.918" cy="788.553" r="4" fill="#0" id="circle124"/>
	<circle cx="510.918" cy="804.151" r="4" fill="#0" id="circle125"/>
	<circle cx="510.918" cy="819.748" r="4" fill="#0" id="circle126"/>
	<circle cx="517.157" cy="879.019" r="4" fill="#0" id="circle127"/>
	<circle cx="518.717" cy="222.365" r="4" fill="#0" id="circle128"/>
	<circle cx="518.717" cy="665.333" r="4" fill="#0" id="circle129"/>
	<circle cx="518.717" cy="680.931" r="4" fill="#0" id="circle130"/>
	<circle cx="518.717" cy="696.528" r="4" fill="#0" id="circle131"/>
	<circle cx="518.717" cy="712.126" r="4" fill="#0" id="circle132"/>
	<circle cx="518.717" cy="727.723" r="4" fill="#0" id="circle133"/>
	<circle cx="518.717" cy="743.321" r="4" fill="#0" id="circle134"/>
	<circle cx="518.717" cy="758.918" r="4" fill="#0" id="circle135"/>
	<circle cx="532.755" cy="879.019" r="4" fill="#0" id="circle136"/>
	<circle cx="534.314" cy="225.484" r="4" fill="#0" id="circle137"/>
	<circle cx="535.874" cy="769.836" r="4" fill="#0" id="circle138"/>
	<circle cx="535.874" cy="785.434" r="4" fill="#0" id="circle139"/>
	<circle cx="535.874" cy="801.031" r="4" fill="#0" id="circle140"/>
	<circle cx="535.874" cy="816.629" r="4" fill="#0" id="circle141"/>
	<circle cx="535.874" cy="832.226" r="4" fill="#0" id="circle142"/>
	<circle cx="535.874" cy="847.824" r="4" fill="#0" id="circle143"/>
	<circle cx="543.673" cy="645.057" r="4" fill="#0" id="circle144"/>
	<circle cx="543.673" cy="676.252" r="4" fill="#0" id="circle145"/>
	<circle cx="543.673" cy="691.849" r="4" fill="#0" id="circle146"/>
	<circle cx="543.673" cy="707.447" r="4" fill="#0" id="circle147"/>
	<circle cx="543.673" cy="723.044" r="4" fill="#0" id="circle148"/>
	<circle cx="543.673" cy="738.642" r="4" fill="#0" id="circle149"/>
	<circle cx="543.673" cy="754.239" r="4" fill="#0" id="circle150"/>
	<circle cx="548.352" cy="857.182" r="4" fill="#0" id="circle151"/>
	<circle cx="548.352" cy="875.899" r="4" fill="#0" id="circle152"/>
	<circle cx="549.912" cy="230.164" r="4" fill="#0" id="circle153"/>
	<circle cx="551.472" cy="629.459" r="4" fill="#0" id="circle154"/>
	<circle cx="551.472" cy="659.094" r="4" fill="#0" id="circle155"/>
	<circle cx="562.39" cy="239.522" r="4" fill="#0" id="circle156"/>
	<circle cx="563.95" cy="618.541" r="4" fill="#0" id="circle157"/>
	<circle cx="574.868" cy="606.063" r="4" fill="#0" id="circle158"/>
	<circle cx="577.987" cy="245.761" r="4" fill="#0" id="circle159"/>
	<circle cx="587.346" cy="595.145" r="4" fill="#0" id="circle160"/>
	<circle cx="592.025" cy="253.56" r="4" fill="#0" id="circle161"/>
	<circle cx="598.264" cy="582.667" r="4" fill="#0" id="circle162"/>
	<circle cx="606.063" cy="261.358" r="4" fill="#0" id="circle163"/>
	<circle cx="613.862" cy="582.667" r="4" fill="#0" id="circle164"/>
	<circle cx="621.66" cy="261.358" r="4" fill="#0" id="circle165"/>
	<circle cx="627.899" cy="574.868" r="4" fill="#0" id="circle166"/>
	<circle cx="635.698" cy="269.157" r="4" fill="#0" id="circle167"/>
	<circle cx="643.497" cy="574.868" r="4" fill="#0" id="circle168"/>
	<circle cx="649.736" cy="276.956" r="4" fill="#0" id="circle169"/>
	<circle cx="659.094" cy="574.868" r="4" fill="#0" id="circle170"/>
	<circle cx="663.774" cy="284.755" r="4" fill="#0" id="circle171"/>
	<circle cx="674.692" cy="570.189" r="4" fill="#0" id="circle172"/>
	<circle cx="677.811" cy="292.553" r="4" fill="#0" id="circle173"/>
	<circle cx="687.17" cy="559.27" r="4" fill="#0" id="circle174"/>
	<circle cx="691.849" cy="300.352" r="4" fill="#0" id="circle175"/>
	<circle cx="702.767" cy="557.711" r="4" fill="#0" id="circle176"/>
	<circle cx="707.447" cy="305.031" r="4" fill="#0" id="circle177"/>
	<circle cx="718.365" cy="549.912" r="4" fill="#0" id="circle178"/>
	<circle cx="719.925" cy="315.95" r="4" fill="#0" id="circle179"/>
	<circle cx="733.962" cy="323.748" r="4" fill="#0" id="circle180"/>
	<circle cx="733.962" cy="543.673" r="4" fill="#0" id="circle181"/>
	<circle cx="749.56" cy="323.748" r="4" fill="#0" id="circle182"/>
	<circle cx="749.56" cy="542.113" r="4" fill="#0" id="circle183"/>
	<circle cx="760.478" cy="336.226" r="4" fill="#0" id="circle184"/>
	<circle cx="762.038" cy="528.075" r="4" fill="#0" id="circle185"/>
	<circle cx="776.075" cy="339.346" r="4" fill="#0" id="circle186"/>
	<circle cx="777.635" cy="528.075" r="4" fill="#0" id="circle187"/>
	<circle cx="791.673" cy="342.465" r="4" fill="#0" id="circle188"/>
	<circle cx="791.673" cy="520.277" r="4" fill="#0" id="circle189"/>
	<circle cx="801.031" cy="354.943" r="4" fill="#0" id="circle190"/>
	<circle cx="807.27" cy="515.597" r="4" fill="#0" id="circle191"/>
	<circle cx="816.629" cy="354.943" r="4" fill="#0" id="circle192"/>
	<circle cx="819.748" cy="504.679" r="4" fill="#0" id="circle193"/>
	<circle cx="830.667" cy="362.742" r="4" fill="#0" id="circle194"/>
	<circle cx="833.786" cy="496.881" r="4" fill="#0" id="circle195"/>
	<circle cx="846.264" cy="365.862" r="4" fill="#0" id="circle196"/>
	<circle cx="849.384" cy="496.881" r="4" fill="#0" id="circle197"/>
	<circle cx="861.862" cy="370.541" r="4" fill="#0" id="circle198"/>
	<circle cx="864.981" cy="496.881" r="4" fill="#0" id="circle199"/>
	<circle cx="875.899" cy="378.34" r="4" fill="#0" id="circle200"/>
	<circle cx="879.019" cy="489.082" r="4" fill="#0" id="circle201"/>
	<circle cx="891.497" cy="378.34" r="4" fill="#0" id="circle202"/>
	<circle cx="893.057" cy="481.283" r="4" fill="#0" id="circle203"/>
	<circle cx="905.535" cy="386.138" r="4" fill="#0" id="circle204"/>
	<circle cx="908.654" cy="481.283" r="4" fill="#0" id="circle205"/>
	<circle cx="916.453" cy="398.616" r="4" fill="#0" id="circle206"/>
	<circle cx="924.252" cy="481.283" r="4" fill="#0" id="circle207"/>
	<circle cx="932.05" cy="401.736" r="4" fill="#0" id="circle208"/>
	<circle cx="939.849" cy="481.283" r="4" fill="#0" id="circle209"/>
	<circle cx="947.648" cy="401.736" r="4" fill="#0" id="circle210"/>
	<circle cx="955.447" cy="481.283" r="4" fill="#0" id="circle211"/>
	<circle cx="963.245" cy="401.736" r="4" fill="#0" id="circle212"/>
	<circle cx="971.044" cy="481.283" r="4" fill="#0" id="circle213"/>
	<circle cx="972.604" cy="414.214" r="4" fill="#0" id="circle214"/>
	<circle cx="972.604" cy="429.811" r="4" fill="#0" id="circle215"/>
	<circle cx="972.604" cy="445.409" r="4" fill="#0" id="circle216"/>
	<circle cx="983.522" cy="457.887" r="4" fill="#0" id="circle217"/>
	<circle cx="986.642" cy="481.283" r="4" fill="#0" id="circle218"/>
	<circle cx="996" cy="468.805" r="4" fill="#0" id="circle219"/>
	</g>
</svg>