<?xml version="1.0" encoding="UTF-8" standalone="no"?>
<!-- Created with CurveBenchmark -->
<svg
	xmlns:dc="http://purl.org/dc/elements/1.1/"
	xmlns:cc="http://creativecommons.org/ns#"
	xmlns:rdf="http://www.w3.org/1999/02/22-rdf-syntax-ns#"
	xmlns:svg="http://www.w3.org/2000/svg"
	xmlns="http://www.w3.org/2000/svg"
	xmlns:sodipodi="http://sodipodi.sourceforge.net/DTD/sodipodi-0.dtd"
	xmlns:inkscape="http://www.inkscape.org/namespaces/inkscape"
	width="1000"
	height="1000"
	id="svg2"
	version="1.1"
	sodipodi:docname="manifold/fitconnect-hammer28.png.txt">
<defs
	id="defs4" />
<metadata
	id="metadata7">
	<rdf:RDF>
		<cc:Work
			rdf:about="">
			<dc:format>image/svg+xml</dc:format>
			<dc:type
				rdf:resource="http://purl.org/dc/dcmitype/StillImage" />
			<dc:title></dc:title>
		</cc:Work>
	</rdf:RDF>
</metadata>
<g
	inkscape:label="Layer 1"
	inkscape:groupmode="layer"
	id="layer1">
	<path style="fill:none;stroke:red;stroke-width:1px;stroke-linecap:butt;stroke-linejoin:miter;stroke-opacity:1" d="M 4,62.3529 16.6854,36.9821 z" id="boundary" inkscape:connector-curvature="0" />
	<path style="fill:none;stroke:red;stroke-width:1px;stroke-linecap:butt;stroke-linejoin:miter;stroke-opacity:1" d="M 4,62.3529 16.6854,85.1867 z" id="boundary" inkscape:connector-curvature="0" />
	<path style="fill:none;stroke:red;stroke-width:1px;stroke-linecap:butt;stroke-linejoin:miter;stroke-opacity:1" d="M 16.6854,36.9821 36.9821,16.6854 z" id="boundary" inkscape:connector-curvature="0" />
	<path style="fill:none;stroke:red;stroke-width:1px;stroke-linecap:butt;stroke-linejoin:miter;stroke-opacity:1" d="M 16.6854,85.1867 34.445,105.483 z" id="boundary" inkscape:connector-curvature="0" />
	<path style="fill:none;stroke:red;stroke-width:1px;stroke-linecap:butt;stroke-linejoin:miter;stroke-opacity:1" d="M 34.445,105.483 54.7417,120.706 z" id="boundary" inkscape:connector-curvature="0" />
	<path style="fill:none;stroke:red;stroke-width:1px;stroke-linecap:butt;stroke-linejoin:miter;stroke-opacity:1" d="M 36.9821,16.6854 59.8159,4 z" id="boundary" inkscape:connector-curvature="0" />
	<path style="fill:none;stroke:red;stroke-width:1px;stroke-linecap:butt;stroke-linejoin:miter;stroke-opacity:1" d="M 54.7417,120.706 62.3529,146.077 z" id="boundary" inkscape:connector-curvature="0" />
	<path style="fill:none;stroke:red;stroke-width:1px;stroke-linecap:butt;stroke-linejoin:miter;stroke-opacity:1" d="M 59.8159,4 85.1867,4 z" id="boundary" inkscape:connector-curvature="0" />
	<path style="fill:none;stroke:red;stroke-width:1px;stroke-linecap:butt;stroke-linejoin:miter;stroke-opacity:1" d="M 62.3529,146.077 82.6496,163.836 z" id="boundary" inkscape:connector-curvature="0" />
	<path style="fill:none;stroke:red;stroke-width:1px;stroke-linecap:butt;stroke-linejoin:miter;stroke-opacity:1" d="M 82.6496,163.836 92.798,189.207 z" id="boundary" inkscape:connector-curvature="0" />
	<path style="fill:none;stroke:red;stroke-width:1px;stroke-linecap:butt;stroke-linejoin:miter;stroke-opacity:1" d="M 85.1867,4 108.02,16.6854 z" id="boundary" inkscape:connector-curvature="0" />
	<path style="fill:none;stroke:red;stroke-width:1px;stroke-linecap:butt;stroke-linejoin:miter;stroke-opacity:1" d="M 92.798,189.207 113.095,206.967 z" id="boundary" inkscape:connector-curvature="0" />
	<path style="fill:none;stroke:red;stroke-width:1px;stroke-linecap:butt;stroke-linejoin:miter;stroke-opacity:1" d="M 108.02,16.6854 128.317,31.9079 z" id="boundary" inkscape:connector-curvature="0" />
	<path style="fill:none;stroke:red;stroke-width:1px;stroke-linecap:butt;stroke-linejoin:miter;stroke-opacity:1" d="M 113.095,206.967 130.854,227.263 z" id="boundary" inkscape:connector-curvature="0" />
	<path style="fill:none;stroke:red;stroke-width:1px;stroke-linecap:butt;stroke-linejoin:miter;stroke-opacity:1" d="M 128.317,31.9079 146.077,52.2046 z" id="boundary" inkscape:connector-curvature="0" />
	<path style="fill:none;stroke:red;stroke-width:1px;stroke-linecap:butt;stroke-linejoin:miter;stroke-opacity:1" d="M 130.854,227.263 143.54,250.097 z" id="boundary" inkscape:connector-curvature="0" />
	<path style="fill:none;stroke:red;stroke-width:1px;stroke-linecap:butt;stroke-linejoin:miter;stroke-opacity:1" d="M 143.54,250.097 161.299,270.394 z" id="boundary" inkscape:connector-curvature="0" />
	<path style="fill:none;stroke:red;stroke-width:1px;stroke-linecap:butt;stroke-linejoin:miter;stroke-opacity:1" d="M 146.077,52.2046 166.373,69.9642 z" id="boundary" inkscape:connector-curvature="0" />
	<path style="fill:none;stroke:red;stroke-width:1px;stroke-linecap:butt;stroke-linejoin:miter;stroke-opacity:1" d="M 161.299,270.394 173.985,293.228 z" id="boundary" inkscape:connector-curvature="0" />
	<path style="fill:none;stroke:red;stroke-width:1px;stroke-linecap:butt;stroke-linejoin:miter;stroke-opacity:1" d="M 166.373,69.9642 184.133,90.2609 z" id="boundary" inkscape:connector-curvature="0" />
	<path style="fill:none;stroke:red;stroke-width:1px;stroke-linecap:butt;stroke-linejoin:miter;stroke-opacity:1" d="M 173.985,293.228 194.281,310.987 z" id="boundary" inkscape:connector-curvature="0" />
	<path style="fill:none;stroke:red;stroke-width:1px;stroke-linecap:butt;stroke-linejoin:miter;stroke-opacity:1" d="M 184.133,90.2609 204.43,108.02 z" id="boundary" inkscape:connector-curvature="0" />
	<path style="fill:none;stroke:red;stroke-width:1px;stroke-linecap:butt;stroke-linejoin:miter;stroke-opacity:1" d="M 194.281,310.987 201.893,336.358 z" id="boundary" inkscape:connector-curvature="0" />
	<path style="fill:none;stroke:red;stroke-width:1px;stroke-linecap:butt;stroke-linejoin:miter;stroke-opacity:1" d="M 201.893,336.358 222.189,354.118 z" id="boundary" inkscape:connector-curvature="0" />
	<path style="fill:none;stroke:red;stroke-width:1px;stroke-linecap:butt;stroke-linejoin:miter;stroke-opacity:1" d="M 204.43,108.02 222.189,128.317 z" id="boundary" inkscape:connector-curvature="0" />
	<path style="fill:none;stroke:red;stroke-width:1px;stroke-linecap:butt;stroke-linejoin:miter;stroke-opacity:1" d="M 222.189,128.317 234.875,151.151 z" id="boundary" inkscape:connector-curvature="0" />
	<path style="fill:none;stroke:red;stroke-width:1px;stroke-linecap:butt;stroke-linejoin:miter;stroke-opacity:1" d="M 222.189,354.118 232.338,379.488 z" id="boundary" inkscape:connector-curvature="0" />
	<path style="fill:none;stroke:red;stroke-width:1px;stroke-linecap:butt;stroke-linejoin:miter;stroke-opacity:1" d="M 232.338,379.488 252.634,397.248 z" id="boundary" inkscape:connector-curvature="0" />
	<path style="fill:none;stroke:red;stroke-width:1px;stroke-linecap:butt;stroke-linejoin:miter;stroke-opacity:1" d="M 234.875,151.151 252.634,171.448 z" id="boundary" inkscape:connector-curvature="0" />
	<path style="fill:none;stroke:red;stroke-width:1px;stroke-linecap:butt;stroke-linejoin:miter;stroke-opacity:1" d="M 252.634,171.448 272.931,189.207 z" id="boundary" inkscape:connector-curvature="0" />
	<path style="fill:none;stroke:red;stroke-width:1px;stroke-linecap:butt;stroke-linejoin:miter;stroke-opacity:1" d="M 252.634,397.248 262.783,422.619 z" id="boundary" inkscape:connector-curvature="0" />
	<path style="fill:none;stroke:red;stroke-width:1px;stroke-linecap:butt;stroke-linejoin:miter;stroke-opacity:1" d="M 262.783,422.619 275.468,445.453 z" id="boundary" inkscape:connector-curvature="0" />
	<path style="fill:none;stroke:red;stroke-width:1px;stroke-linecap:butt;stroke-linejoin:miter;stroke-opacity:1" d="M 272.931,189.207 290.691,209.504 z" id="boundary" inkscape:connector-curvature="0" />
	<path style="fill:none;stroke:red;stroke-width:1px;stroke-linecap:butt;stroke-linejoin:miter;stroke-opacity:1" d="M 275.468,445.453 295.765,463.212 z" id="boundary" inkscape:connector-curvature="0" />
	<path style="fill:none;stroke:red;stroke-width:1px;stroke-linecap:butt;stroke-linejoin:miter;stroke-opacity:1" d="M 290.691,209.504 303.376,232.338 z" id="boundary" inkscape:connector-curvature="0" />
	<path style="fill:none;stroke:red;stroke-width:1px;stroke-linecap:butt;stroke-linejoin:miter;stroke-opacity:1" d="M 295.765,463.212 303.376,488.583 z" id="boundary" inkscape:connector-curvature="0" />
	<path style="fill:none;stroke:red;stroke-width:1px;stroke-linecap:butt;stroke-linejoin:miter;stroke-opacity:1" d="M 303.376,232.338 321.136,252.634 z" id="boundary" inkscape:connector-curvature="0" />
	<path style="fill:none;stroke:red;stroke-width:1px;stroke-linecap:butt;stroke-linejoin:miter;stroke-opacity:1" d="M 303.376,488.583 316.061,511.417 z" id="boundary" inkscape:connector-curvature="0" />
	<path style="fill:none;stroke:red;stroke-width:1px;stroke-linecap:butt;stroke-linejoin:miter;stroke-opacity:1" d="M 316.061,511.417 326.21,536.788 z" id="boundary" inkscape:connector-curvature="0" />
	<path style="fill:none;stroke:red;stroke-width:1px;stroke-linecap:butt;stroke-linejoin:miter;stroke-opacity:1" d="M 321.136,252.634 336.358,272.931 z" id="boundary" inkscape:connector-curvature="0" />
	<path style="fill:none;stroke:red;stroke-width:1px;stroke-linecap:butt;stroke-linejoin:miter;stroke-opacity:1" d="M 326.21,536.788 338.895,559.621 z" id="boundary" inkscape:connector-curvature="0" />
	<path style="fill:none;stroke:red;stroke-width:1px;stroke-linecap:butt;stroke-linejoin:miter;stroke-opacity:1" d="M 336.358,272.931 349.043,295.765 z" id="boundary" inkscape:connector-curvature="0" />
	<path style="fill:none;stroke:red;stroke-width:1px;stroke-linecap:butt;stroke-linejoin:miter;stroke-opacity:1" d="M 338.895,559.621 359.192,577.381 z" id="boundary" inkscape:connector-curvature="0" />
	<path style="fill:none;stroke:red;stroke-width:1px;stroke-linecap:butt;stroke-linejoin:miter;stroke-opacity:1" d="M 349.043,295.765 361.729,318.598 z" id="boundary" inkscape:connector-curvature="0" />
	<path style="fill:none;stroke:red;stroke-width:1px;stroke-linecap:butt;stroke-linejoin:miter;stroke-opacity:1" d="M 359.192,577.381 366.803,602.752 z" id="boundary" inkscape:connector-curvature="0" />
	<path style="fill:none;stroke:red;stroke-width:1px;stroke-linecap:butt;stroke-linejoin:miter;stroke-opacity:1" d="M 361.729,318.598 374.414,341.432 z" id="boundary" inkscape:connector-curvature="0" />
	<path style="fill:none;stroke:red;stroke-width:1px;stroke-linecap:butt;stroke-linejoin:miter;stroke-opacity:1" d="M 366.803,602.752 379.488,625.586 z" id="boundary" inkscape:connector-curvature="0" />
	<path style="fill:none;stroke:red;stroke-width:1px;stroke-linecap:butt;stroke-linejoin:miter;stroke-opacity:1" d="M 374.414,341.432 392.174,361.729 z" id="boundary" inkscape:connector-curvature="0" />
	<path style="fill:none;stroke:red;stroke-width:1px;stroke-linecap:butt;stroke-linejoin:miter;stroke-opacity:1" d="M 379.488,625.586 389.637,650.957 z" id="boundary" inkscape:connector-curvature="0" />
	<path style="fill:none;stroke:red;stroke-width:1px;stroke-linecap:butt;stroke-linejoin:miter;stroke-opacity:1" d="M 384.563,899.591 384.563,924.962 z" id="boundary" inkscape:connector-curvature="0" />
	<path style="fill:none;stroke:red;stroke-width:1px;stroke-linecap:butt;stroke-linejoin:miter;stroke-opacity:1" d="M 384.563,899.591 404.859,879.294 z" id="boundary" inkscape:connector-curvature="0" />
	<path style="fill:none;stroke:red;stroke-width:1px;stroke-linecap:butt;stroke-linejoin:miter;stroke-opacity:1" d="M 384.563,924.962 384.563,950.332 z" id="boundary" inkscape:connector-curvature="0" />
	<path style="fill:none;stroke:red;stroke-width:1px;stroke-linecap:butt;stroke-linejoin:miter;stroke-opacity:1" d="M 384.563,950.332 397.248,973.166 z" id="boundary" inkscape:connector-curvature="0" />
	<path style="fill:none;stroke:red;stroke-width:1px;stroke-linecap:butt;stroke-linejoin:miter;stroke-opacity:1" d="M 389.637,650.957 402.322,673.79 z" id="boundary" inkscape:connector-curvature="0" />
	<path style="fill:none;stroke:red;stroke-width:1px;stroke-linecap:butt;stroke-linejoin:miter;stroke-opacity:1" d="M 392.174,361.729 404.859,384.563 z" id="boundary" inkscape:connector-curvature="0" />
	<path style="fill:none;stroke:red;stroke-width:1px;stroke-linecap:butt;stroke-linejoin:miter;stroke-opacity:1" d="M 397.248,973.166 415.008,993.463 z" id="boundary" inkscape:connector-curvature="0" />
	<path style="fill:none;stroke:red;stroke-width:1px;stroke-linecap:butt;stroke-linejoin:miter;stroke-opacity:1" d="M 402.322,673.79 412.471,699.161 z" id="boundary" inkscape:connector-curvature="0" />
	<path style="fill:none;stroke:red;stroke-width:1px;stroke-linecap:butt;stroke-linejoin:miter;stroke-opacity:1" d="M 404.859,384.563 412.471,409.934 z" id="boundary" inkscape:connector-curvature="0" />
	<path style="fill:none;stroke:red;stroke-width:1px;stroke-linecap:butt;stroke-linejoin:miter;stroke-opacity:1" d="M 404.859,879.294 430.23,866.609 z" id="boundary" inkscape:connector-curvature="0" />
	<path style="fill:none;stroke:red;stroke-width:1px;stroke-linecap:butt;stroke-linejoin:miter;stroke-opacity:1" d="M 412.471,409.934 425.156,432.767 z" id="boundary" inkscape:connector-curvature="0" />
	<path style="fill:none;stroke:red;stroke-width:1px;stroke-linecap:butt;stroke-linejoin:miter;stroke-opacity:1" d="M 412.471,699.161 425.156,721.995 z" id="boundary" inkscape:connector-curvature="0" />
	<path style="fill:none;stroke:red;stroke-width:1px;stroke-linecap:butt;stroke-linejoin:miter;stroke-opacity:1" d="M 415.008,993.463 440.379,996 z" id="boundary" inkscape:connector-curvature="0" />
	<path style="fill:none;stroke:red;stroke-width:1px;stroke-linecap:butt;stroke-linejoin:miter;stroke-opacity:1" d="M 425.156,432.767 437.841,455.601 z" id="boundary" inkscape:connector-curvature="0" />
	<path style="fill:none;stroke:red;stroke-width:1px;stroke-linecap:butt;stroke-linejoin:miter;stroke-opacity:1" d="M 425.156,721.995 435.304,747.366 z" id="boundary" inkscape:connector-curvature="0" />
	<path style="fill:none;stroke:red;stroke-width:1px;stroke-linecap:butt;stroke-linejoin:miter;stroke-opacity:1" d="M 430.23,866.609 455.601,866.609 z" id="boundary" inkscape:connector-curvature="0" />
	<path style="fill:none;stroke:red;stroke-width:1px;stroke-linecap:butt;stroke-linejoin:miter;stroke-opacity:1" d="M 435.304,747.366 447.99,770.199 z" id="boundary" inkscape:connector-curvature="0" />
	<path style="fill:none;stroke:red;stroke-width:1px;stroke-linecap:butt;stroke-linejoin:miter;stroke-opacity:1" d="M 437.841,455.601 447.99,480.972 z" id="boundary" inkscape:connector-curvature="0" />
	<path style="fill:none;stroke:red;stroke-width:1px;stroke-linecap:butt;stroke-linejoin:miter;stroke-opacity:1" d="M 440.379,996 465.749,996 z" id="boundary" inkscape:connector-curvature="0" />
	<path style="fill:none;stroke:red;stroke-width:1px;stroke-linecap:butt;stroke-linejoin:miter;stroke-opacity:1" d="M 447.99,480.972 450.527,506.343 z" id="boundary" inkscape:connector-curvature="0" />
	<path style="fill:none;stroke:red;stroke-width:1px;stroke-linecap:butt;stroke-linejoin:miter;stroke-opacity:1" d="M 447.99,770.199 460.675,793.033 z" id="boundary" inkscape:connector-curvature="0" />
	<path style="fill:none;stroke:red;stroke-width:1px;stroke-linecap:butt;stroke-linejoin:miter;stroke-opacity:1" d="M 450.527,506.343 463.212,529.176 z" id="boundary" inkscape:connector-curvature="0" />
	<path style="fill:none;stroke:red;stroke-width:1px;stroke-linecap:butt;stroke-linejoin:miter;stroke-opacity:1" d="M 455.601,866.609 480.972,866.609 z" id="boundary" inkscape:connector-curvature="0" />
	<path style="fill:none;stroke:red;stroke-width:1px;stroke-linecap:butt;stroke-linejoin:miter;stroke-opacity:1" d="M 460.675,793.033 468.286,818.404 z" id="boundary" inkscape:connector-curvature="0" />
	<path style="fill:none;stroke:red;stroke-width:1px;stroke-linecap:butt;stroke-linejoin:miter;stroke-opacity:1" d="M 463.212,529.176 470.824,554.547 z" id="boundary" inkscape:connector-curvature="0" />
	<path style="fill:none;stroke:red;stroke-width:1px;stroke-linecap:butt;stroke-linejoin:miter;stroke-opacity:1" d="M 465.749,996 486.046,975.703 z" id="boundary" inkscape:connector-curvature="0" />
	<path style="fill:none;stroke:red;stroke-width:1px;stroke-linecap:butt;stroke-linejoin:miter;stroke-opacity:1" d="M 468.286,818.404 480.972,841.238 z" id="boundary" inkscape:connector-curvature="0" />
	<path style="fill:none;stroke:red;stroke-width:1px;stroke-linecap:butt;stroke-linejoin:miter;stroke-opacity:1" d="M 470.824,554.547 475.898,579.918 z" id="boundary" inkscape:connector-curvature="0" />
	<path style="fill:none;stroke:red;stroke-width:1px;stroke-linecap:butt;stroke-linejoin:miter;stroke-opacity:1" d="M 475.898,579.918 488.583,602.752 z" id="boundary" inkscape:connector-curvature="0" />
	<path style="fill:none;stroke:red;stroke-width:1px;stroke-linecap:butt;stroke-linejoin:miter;stroke-opacity:1" d="M 480.972,841.238 480.972,866.609 z" id="boundary" inkscape:connector-curvature="0" />
	<path style="fill:none;stroke:red;stroke-width:1px;stroke-linecap:butt;stroke-linejoin:miter;stroke-opacity:1" d="M 486.046,975.703 511.417,970.629 z" id="boundary" inkscape:connector-curvature="0" />
	<path style="fill:none;stroke:red;stroke-width:1px;stroke-linecap:butt;stroke-linejoin:miter;stroke-opacity:1" d="M 488.583,602.752 493.657,628.123 z" id="boundary" inkscape:connector-curvature="0" />
	<path style="fill:none;stroke:red;stroke-width:1px;stroke-linecap:butt;stroke-linejoin:miter;stroke-opacity:1" d="M 493.657,628.123 506.343,650.957 z" id="boundary" inkscape:connector-curvature="0" />
	<path style="fill:none;stroke:red;stroke-width:1px;stroke-linecap:butt;stroke-linejoin:miter;stroke-opacity:1" d="M 506.343,650.957 513.954,676.327 z" id="boundary" inkscape:connector-curvature="0" />
	<path style="fill:none;stroke:red;stroke-width:1px;stroke-linecap:butt;stroke-linejoin:miter;stroke-opacity:1" d="M 511.417,970.629 536.788,970.629 z" id="boundary" inkscape:connector-curvature="0" />
	<path style="fill:none;stroke:red;stroke-width:1px;stroke-linecap:butt;stroke-linejoin:miter;stroke-opacity:1" d="M 513.954,676.327 526.639,699.161 z" id="boundary" inkscape:connector-curvature="0" />
	<path style="fill:none;stroke:red;stroke-width:1px;stroke-linecap:butt;stroke-linejoin:miter;stroke-opacity:1" d="M 526.639,699.161 539.325,721.995 z" id="boundary" inkscape:connector-curvature="0" />
	<path style="fill:none;stroke:red;stroke-width:1px;stroke-linecap:butt;stroke-linejoin:miter;stroke-opacity:1" d="M 536.788,970.629 562.159,970.629 z" id="boundary" inkscape:connector-curvature="0" />
	<path style="fill:none;stroke:red;stroke-width:1px;stroke-linecap:butt;stroke-linejoin:miter;stroke-opacity:1" d="M 539.325,721.995 552.01,744.829 z" id="boundary" inkscape:connector-curvature="0" />
	<path style="fill:none;stroke:red;stroke-width:1px;stroke-linecap:butt;stroke-linejoin:miter;stroke-opacity:1" d="M 552.01,744.829 564.696,767.662 z" id="boundary" inkscape:connector-curvature="0" />
	<path style="fill:none;stroke:red;stroke-width:1px;stroke-linecap:butt;stroke-linejoin:miter;stroke-opacity:1" d="M 562.159,970.629 587.529,970.629 z" id="boundary" inkscape:connector-curvature="0" />
	<path style="fill:none;stroke:red;stroke-width:1px;stroke-linecap:butt;stroke-linejoin:miter;stroke-opacity:1" d="M 564.696,767.662 577.381,790.496 z" id="boundary" inkscape:connector-curvature="0" />
	<path style="fill:none;stroke:red;stroke-width:1px;stroke-linecap:butt;stroke-linejoin:miter;stroke-opacity:1" d="M 577.381,790.496 602.752,782.885 z" id="boundary" inkscape:connector-curvature="0" />
	<path style="fill:none;stroke:red;stroke-width:1px;stroke-linecap:butt;stroke-linejoin:miter;stroke-opacity:1" d="M 587.529,970.629 612.9,963.018 z" id="boundary" inkscape:connector-curvature="0" />
	<path style="fill:none;stroke:red;stroke-width:1px;stroke-linecap:butt;stroke-linejoin:miter;stroke-opacity:1" d="M 602.752,782.885 628.123,785.422 z" id="boundary" inkscape:connector-curvature="0" />
	<path style="fill:none;stroke:red;stroke-width:1px;stroke-linecap:butt;stroke-linejoin:miter;stroke-opacity:1" d="M 612.9,963.018 633.197,945.258 z" id="boundary" inkscape:connector-curvature="0" />
	<path style="fill:none;stroke:red;stroke-width:1px;stroke-linecap:butt;stroke-linejoin:miter;stroke-opacity:1" d="M 628.123,785.422 653.494,782.885 z" id="boundary" inkscape:connector-curvature="0" />
	<path style="fill:none;stroke:red;stroke-width:1px;stroke-linecap:butt;stroke-linejoin:miter;stroke-opacity:1" d="M 633.197,945.258 656.031,932.573 z" id="boundary" inkscape:connector-curvature="0" />
	<path style="fill:none;stroke:red;stroke-width:1px;stroke-linecap:butt;stroke-linejoin:miter;stroke-opacity:1" d="M 653.494,782.885 678.864,777.811 z" id="boundary" inkscape:connector-curvature="0" />
	<path style="fill:none;stroke:red;stroke-width:1px;stroke-linecap:butt;stroke-linejoin:miter;stroke-opacity:1" d="M 656.031,932.573 681.402,932.573 z" id="boundary" inkscape:connector-curvature="0" />
	<path style="fill:none;stroke:red;stroke-width:1px;stroke-linecap:butt;stroke-linejoin:miter;stroke-opacity:1" d="M 678.864,777.811 701.698,765.125 z" id="boundary" inkscape:connector-curvature="0" />
	<path style="fill:none;stroke:red;stroke-width:1px;stroke-linecap:butt;stroke-linejoin:miter;stroke-opacity:1" d="M 681.402,932.573 704.235,919.887 z" id="boundary" inkscape:connector-curvature="0" />
	<path style="fill:none;stroke:red;stroke-width:1px;stroke-linecap:butt;stroke-linejoin:miter;stroke-opacity:1" d="M 701.698,765.125 727.069,770.199 z" id="boundary" inkscape:connector-curvature="0" />
	<path style="fill:none;stroke:red;stroke-width:1px;stroke-linecap:butt;stroke-linejoin:miter;stroke-opacity:1" d="M 704.235,919.887 727.069,907.202 z" id="boundary" inkscape:connector-curvature="0" />
	<path style="fill:none;stroke:red;stroke-width:1px;stroke-linecap:butt;stroke-linejoin:miter;stroke-opacity:1" d="M 727.069,770.199 742.292,790.496 z" id="boundary" inkscape:connector-curvature="0" />
	<path style="fill:none;stroke:red;stroke-width:1px;stroke-linecap:butt;stroke-linejoin:miter;stroke-opacity:1" d="M 727.069,907.202 752.44,899.591 z" id="boundary" inkscape:connector-curvature="0" />
	<path style="fill:none;stroke:red;stroke-width:1px;stroke-linecap:butt;stroke-linejoin:miter;stroke-opacity:1" d="M 742.292,790.496 742.292,815.867 z" id="boundary" inkscape:connector-curvature="0" />
	<path style="fill:none;stroke:red;stroke-width:1px;stroke-linecap:butt;stroke-linejoin:miter;stroke-opacity:1" d="M 742.292,815.867 754.977,838.701 z" id="boundary" inkscape:connector-curvature="0" />
	<path style="fill:none;stroke:red;stroke-width:1px;stroke-linecap:butt;stroke-linejoin:miter;stroke-opacity:1" d="M 752.44,899.591 767.662,861.535 z" id="boundary" inkscape:connector-curvature="0" />
	<path style="fill:none;stroke:red;stroke-width:1px;stroke-linecap:butt;stroke-linejoin:miter;stroke-opacity:1" d="M 754.977,838.701 767.662,861.535 z" id="boundary" inkscape:connector-curvature="0" />
	<circle cx="4" cy="62.3529" r="4" fill="#0" id="circle0"/>
	<circle cx="16.6854" cy="36.9821" r="4" fill="#0" id="circle1"/>
	<circle cx="16.6854" cy="85.1867" r="4" fill="#0" id="circle2"/>
	<circle cx="34.445" cy="105.483" r="4" fill="#0" id="circle3"/>
	<circle cx="36.9821" cy="16.6854" r="4" fill="#0" id="circle4"/>
	<circle cx="54.7417" cy="120.706" r="4" fill="#0" id="circle5"/>
	<circle cx="59.8159" cy="4" r="4" fill="#0" id="circle6"/>
	<circle cx="62.3529" cy="146.077" r="4" fill="#0" id="circle7"/>
	<circle cx="82.6496" cy="163.836" r="4" fill="#0" id="circle8"/>
	<circle cx="85.1867" cy="4" r="4" fill="#0" id="circle9"/>
	<circle cx="92.798" cy="189.207" r="4" fill="#0" id="circle10"/>
	<circle cx="108.02" cy="16.6854" r="4" fill="#0" id="circle11"/>
	<circle cx="113.095" cy="206.967" r="4" fill="#0" id="circle12"/>
	<circle cx="128.317" cy="31.9079" r="4" fill="#0" id="circle13"/>
	<circle cx="130.854" cy="227.263" r="4" fill="#0" id="circle14"/>
	<circle cx="143.54" cy="250.097" r="4" fill="#0" id="circle15"/>
	<circle cx="146.077" cy="52.2046" r="4" fill="#0" id="circle16"/>
	<circle cx="161.299" cy="270.394" r="4" fill="#0" id="circle17"/>
	<circle cx="166.373" cy="69.9642" r="4" fill="#0" id="circle18"/>
	<circle cx="173.985" cy="293.228" r="4" fill="#0" id="circle19"/>
	<circle cx="184.133" cy="90.2609" r="4" fill="#0" id="circle20"/>
	<circle cx="194.281" cy="310.987" r="4" fill="#0" id="circle21"/>
	<circle cx="201.893" cy="336.358" r="4" fill="#0" id="circle22"/>
	<circle cx="204.43" cy="108.02" r="4" fill="#0" id="circle23"/>
	<circle cx="222.189" cy="128.317" r="4" fill="#0" id="circle24"/>
	<circle cx="222.189" cy="354.118" r="4" fill="#0" id="circle25"/>
	<circle cx="232.338" cy="379.488" r="4" fill="#0" id="circle26"/>
	<circle cx="234.875" cy="151.151" r="4" fill="#0" id="circle27"/>
	<circle cx="252.634" cy="171.448" r="4" fill="#0" id="circle28"/>
	<circle cx="252.634" cy="397.248" r="4" fill="#0" id="circle29"/>
	<circle cx="262.783" cy="422.619" r="4" fill="#0" id="circle30"/>
	<circle cx="272.931" cy="189.207" r="4" fill="#0" id="circle31"/>
	<circle cx="275.468" cy="445.453" r="4" fill="#0" id="circle32"/>
	<circle cx="290.691" cy="209.504" r="4" fill="#0" id="circle33"/>
	<circle cx="295.765" cy="463.212" r="4" fill="#0" id="circle34"/>
	<circle cx="303.376" cy="232.338" r="4" fill="#0" id="circle35"/>
	<circle cx="303.376" cy="488.583" r="4" fill="#0" id="circle36"/>
	<circle cx="316.061" cy="511.417" r="4" fill="#0" id="circle37"/>
	<circle cx="321.136" cy="252.634" r="4" fill="#0" id="circle38"/>
	<circle cx="326.21" cy="536.788" r="4" fill="#0" id="circle39"/>
	<circle cx="336.358" cy="272.931" r="4" fill="#0" id="circle40"/>
	<circle cx="338.895" cy="559.621" r="4" fill="#0" id="circle41"/>
	<circle cx="349.043" cy="295.765" r="4" fill="#0" id="circle42"/>
	<circle cx="359.192" cy="577.381" r="4" fill="#0" id="circle43"/>
	<circle cx="361.729" cy="318.598" r="4" fill="#0" id="circle44"/>
	<circle cx="366.803" cy="602.752" r="4" fill="#0" id="circle45"/>
	<circle cx="374.414" cy="341.432" r="4" fill="#0" id="circle46"/>
	<circle cx="379.488" cy="625.586" r="4" fill="#0" id="circle47"/>
	<circle cx="384.563" cy="899.591" r="4" fill="#0" id="circle48"/>
	<circle cx="384.563" cy="924.962" r="4" fill="#0" id="circle49"/>
	<circle cx="384.563" cy="950.332" r="4" fill="#0" id="circle50"/>
	<circle cx="389.637" cy="650.957" r="4" fill="#0" id="circle51"/>
	<circle cx="392.174" cy="361.729" r="4" fill="#0" id="circle52"/>
	<circle cx="397.248" cy="973.166" r="4" fill="#0" id="circle53"/>
	<circle cx="402.322" cy="673.79" r="4" fill="#0" id="circle54"/>
	<circle cx="404.859" cy="384.563" r="4" fill="#0" id="circle55"/>
	<circle cx="404.859" cy="879.294" r="4" fill="#0" id="circle56"/>
	<circle cx="412.471" cy="409.934" r="4" fill="#0" id="circle57"/>
	<circle cx="412.471" cy="699.161" r="4" fill="#0" id="circle58"/>
	<circle cx="415.008" cy="993.463" r="4" fill="#0" id="circle59"/>
	<circle cx="425.156" cy="432.767" r="4" fill="#0" id="circle60"/>
	<circle cx="425.156" cy="721.995" r="4" fill="#0" id="circle61"/>
	<circle cx="430.23" cy="866.609" r="4" fill="#0" id="circle62"/>
	<circle cx="435.304" cy="747.366" r="4" fill="#0" id="circle63"/>
	<circle cx="437.841" cy="455.601" r="4" fill="#0" id="circle64"/>
	<circle cx="440.379" cy="996" r="4" fill="#0" id="circle65"/>
	<circle cx="447.99" cy="480.972" r="4" fill="#0" id="circle66"/>
	<circle cx="447.99" cy="770.199" r="4" fill="#0" id="circle67"/>
	<circle cx="450.527" cy="506.343" r="4" fill="#0" id="circle68"/>
	<circle cx="455.601" cy="866.609" r="4" fill="#0" id="circle69"/>
	<circle cx="460.675" cy="793.033" r="4" fill="#0" id="circle70"/>
	<circle cx="463.212" cy="529.176" r="4" fill="#0" id="circle71"/>
	<circle cx="465.749" cy="996" r="4" fill="#0" id="circle72"/>
	<circle cx="468.286" cy="818.404" r="4" fill="#0" id="circle73"/>
	<circle cx="470.824" cy="554.547" r="4" fill="#0" id="circle74"/>
	<circle cx="475.898" cy="579.918" r="4" fill="#0" id="circle75"/>
	<circle cx="480.972" cy="841.238" r="4" fill="#0" id="circle76"/>
	<circle cx="480.972" cy="866.609" r="4" fill="#0" id="circle77"/>
	<circle cx="486.046" cy="975.703" r="4" fill="#0" id="circle78"/>
	<circle cx="488.583" cy="602.752" r="4" fill="#0" id="circle79"/>
	<circle cx="493.657" cy="628.123" r="4" fill="#0" id="circle80"/>
	<circle cx="506.343" cy="650.957" r="4" fill="#0" id="circle81"/>
	<circle cx="511.417" cy="970.629" r="4" fill="#0" id="circle82"/>
	<circle cx="513.954" cy="676.327" r="4" fill="#0" id="circle83"/>
	<circle cx="526.639" cy="699.161" r="4" fill="#0" id="circle84"/>
	<circle cx="536.788" cy="970.629" r="4" fill="#0" id="circle85"/>
	<circle cx="539.325" cy="721.995" r="4" fill="#0" id="circle86"/>
	<circle cx="552.01" cy="744.829" r="4" fill="#0" id="circle87"/>
	<circle cx="562.159" cy="970.629" r="4" fill="#0" id="circle88"/>
	<circle cx="564.696" cy="767.662" r="4" fill="#0" id="circle89"/>
	<circle cx="577.381" cy="790.496" r="4" fill="#0" id="circle90"/>
	<circle cx="587.529" cy="970.629" r="4" fill="#0" id="circle91"/>
	<circle cx="602.752" cy="782.885" r="4" fill="#0" id="circle92"/>
	<circle cx="612.9" cy="963.018" r="4" fill="#0" id="circle93"/>
	<circle cx="628.123" cy="785.422" r="4" fill="#0" id="circle94"/>
	<circle cx="633.197" cy="945.258" r="4" fill="#0" id="circle95"/>
	<circle cx="653.494" cy="782.885" r="4" fill="#0" id="circle96"/>
	<circle cx="656.031" cy="932.573" r="4" fill="#0" id="circle97"/>
	<circle cx="678.864" cy="777.811" r="4" fill="#0" id="circle98"/>
	<circle cx="681.402" cy="932.573" r="4" fill="#0" id="circle99"/>
	<circle cx="701.698" cy="765.125" r="4" fill="#0" id="circle100"/>
	<circle cx="704.235" cy="919.887" r="4" fill="#0" id="circle101"/>
	<circle cx="727.069" cy="770.199" r="4" fill="#0" id="circle102"/>
	<circle cx="727.069" cy="907.202" r="4" fill="#0" id="circle103"/>
	<circle cx="742.292" cy="790.496" r="4" fill="#0" id="circle104"/>
	<circle cx="742.292" cy="815.867" r="4" fill="#0" id="circle105"/>
	<circle cx="752.44" cy="899.591" r="4" fill="#0" id="circle106"/>
	<circle cx="754.977" cy="838.701" r="4" fill="#0" id="circle107"/>
	<circle cx="767.662" cy="861.535" r="4" fill="#0" id="circle108"/>
	</g>
</svg>