<?xml version="1.0" encoding="UTF-8" standalone="no"?>
<!-- Created with CurveBenchmark -->
<svg
	xmlns:dc="http://purl.org/dc/elements/1.1/"
	xmlns:cc="http://creativecommons.org/ns#"
	xmlns:rdf="http://www.w3.org/1999/02/22-rdf-syntax-ns#"
	xmlns:svg="http://www.w3.org/2000/svg"
	xmlns="http://www.w3.org/2000/svg"
	xmlns:sodipodi="http://sodipodi.sourceforge.net/DTD/sodipodi-0.dtd"
	xmlns:inkscape="http://www.inkscape.org/namespaces/inkscape"
	width="1000"
	height="1000"
	id="svg2"
	version="1.1"
	sodipodi:docname="manifold/fitconnect-car-20.png.txt">
<defs
	id="defs4" />
<metadata
	id="metadata7">
	<rdf:RDF>
		<cc:Work
			rdf:about="">
			<dc:format>image/svg+xml</dc:format>
			<dc:type
				rdf:resource="http://purl.org/dc/dcmitype/StillImage" />
			<dc:title></dc:title>
		</cc:Work>
	</rdf:RDF>
</metadata>
<g
	inkscape:label="Layer 1"
	inkscape:groupmode="layer"
	id="layer1">
	<path style="fill:none;stroke:red;stroke-width:1px;stroke-linecap:butt;stroke-linejoin:miter;stroke-opacity:1" d="M 4,236.17 8.58834,226.994 z" id="boundary" inkscape:connector-curvature="0" />
	<path style="fill:none;stroke:red;stroke-width:1px;stroke-linecap:butt;stroke-linejoin:miter;stroke-opacity:1" d="M 4,236.17 8.58834,244.429 z" id="boundary" inkscape:connector-curvature="0" />
	<path style="fill:none;stroke:red;stroke-width:1px;stroke-linecap:butt;stroke-linejoin:miter;stroke-opacity:1" d="M 8.58834,226.994 15.9297,219.652 z" id="boundary" inkscape:connector-curvature="0" />
	<path style="fill:none;stroke:red;stroke-width:1px;stroke-linecap:butt;stroke-linejoin:miter;stroke-opacity:1" d="M 8.58834,244.429 8.58834,253.606 z" id="boundary" inkscape:connector-curvature="0" />
	<path style="fill:none;stroke:red;stroke-width:1px;stroke-linecap:butt;stroke-linejoin:miter;stroke-opacity:1" d="M 8.58834,253.606 8.58834,262.783 z" id="boundary" inkscape:connector-curvature="0" />
	<path style="fill:none;stroke:red;stroke-width:1px;stroke-linecap:butt;stroke-linejoin:miter;stroke-opacity:1" d="M 8.58834,262.783 13.1767,271.042 z" id="boundary" inkscape:connector-curvature="0" />
	<path style="fill:none;stroke:red;stroke-width:1px;stroke-linecap:butt;stroke-linejoin:miter;stroke-opacity:1" d="M 13.1767,271.042 15.9297,280.218 z" id="boundary" inkscape:connector-curvature="0" />
	<path style="fill:none;stroke:red;stroke-width:1px;stroke-linecap:butt;stroke-linejoin:miter;stroke-opacity:1" d="M 15.9297,219.652 25.1064,215.064 z" id="boundary" inkscape:connector-curvature="0" />
	<path style="fill:none;stroke:red;stroke-width:1px;stroke-linecap:butt;stroke-linejoin:miter;stroke-opacity:1" d="M 15.9297,280.218 20.518,288.477 z" id="boundary" inkscape:connector-curvature="0" />
	<path style="fill:none;stroke:red;stroke-width:1px;stroke-linecap:butt;stroke-linejoin:miter;stroke-opacity:1" d="M 20.518,288.477 22.3534,297.654 z" id="boundary" inkscape:connector-curvature="0" />
	<path style="fill:none;stroke:red;stroke-width:1px;stroke-linecap:butt;stroke-linejoin:miter;stroke-opacity:1" d="M 22.3534,297.654 22.3534,306.831 z" id="boundary" inkscape:connector-curvature="0" />
	<path style="fill:none;stroke:red;stroke-width:1px;stroke-linecap:butt;stroke-linejoin:miter;stroke-opacity:1" d="M 22.3534,306.831 22.3534,316.007 z" id="boundary" inkscape:connector-curvature="0" />
	<path style="fill:none;stroke:red;stroke-width:1px;stroke-linecap:butt;stroke-linejoin:miter;stroke-opacity:1" d="M 22.3534,316.007 22.3534,325.184 z" id="boundary" inkscape:connector-curvature="0" />
	<path style="fill:none;stroke:red;stroke-width:1px;stroke-linecap:butt;stroke-linejoin:miter;stroke-opacity:1" d="M 22.3534,325.184 22.3534,334.361 z" id="boundary" inkscape:connector-curvature="0" />
	<path style="fill:none;stroke:red;stroke-width:1px;stroke-linecap:butt;stroke-linejoin:miter;stroke-opacity:1" d="M 22.3534,334.361 22.3534,343.537 z" id="boundary" inkscape:connector-curvature="0" />
	<path style="fill:none;stroke:red;stroke-width:1px;stroke-linecap:butt;stroke-linejoin:miter;stroke-opacity:1" d="M 22.3534,343.537 22.3534,352.714 z" id="boundary" inkscape:connector-curvature="0" />
	<path style="fill:none;stroke:red;stroke-width:1px;stroke-linecap:butt;stroke-linejoin:miter;stroke-opacity:1" d="M 22.3534,352.714 22.3534,361.891 z" id="boundary" inkscape:connector-curvature="0" />
	<path style="fill:none;stroke:red;stroke-width:1px;stroke-linecap:butt;stroke-linejoin:miter;stroke-opacity:1" d="M 22.3534,361.891 22.3534,371.068 z" id="boundary" inkscape:connector-curvature="0" />
	<path style="fill:none;stroke:red;stroke-width:1px;stroke-linecap:butt;stroke-linejoin:miter;stroke-opacity:1" d="M 22.3534,371.068 24.1887,380.244 z" id="boundary" inkscape:connector-curvature="0" />
	<path style="fill:none;stroke:red;stroke-width:1px;stroke-linecap:butt;stroke-linejoin:miter;stroke-opacity:1" d="M 24.1887,380.244 26.9417,389.421 z" id="boundary" inkscape:connector-curvature="0" />
	<path style="fill:none;stroke:red;stroke-width:1px;stroke-linecap:butt;stroke-linejoin:miter;stroke-opacity:1" d="M 25.1064,215.064 34.2831,210.475 z" id="boundary" inkscape:connector-curvature="0" />
	<path style="fill:none;stroke:red;stroke-width:1px;stroke-linecap:butt;stroke-linejoin:miter;stroke-opacity:1" d="M 26.9417,389.421 26.9417,398.598 z" id="boundary" inkscape:connector-curvature="0" />
	<path style="fill:none;stroke:red;stroke-width:1px;stroke-linecap:butt;stroke-linejoin:miter;stroke-opacity:1" d="M 26.9417,398.598 31.5301,406.857 z" id="boundary" inkscape:connector-curvature="0" />
	<path style="fill:none;stroke:red;stroke-width:1px;stroke-linecap:butt;stroke-linejoin:miter;stroke-opacity:1" d="M 31.5301,406.857 31.5301,416.033 z" id="boundary" inkscape:connector-curvature="0" />
	<path style="fill:none;stroke:red;stroke-width:1px;stroke-linecap:butt;stroke-linejoin:miter;stroke-opacity:1" d="M 31.5301,416.033 36.1184,424.292 z" id="boundary" inkscape:connector-curvature="0" />
	<path style="fill:none;stroke:red;stroke-width:1px;stroke-linecap:butt;stroke-linejoin:miter;stroke-opacity:1" d="M 34.2831,210.475 42.5421,205.887 z" id="boundary" inkscape:connector-curvature="0" />
	<path style="fill:none;stroke:red;stroke-width:1px;stroke-linecap:butt;stroke-linejoin:miter;stroke-opacity:1" d="M 36.1184,424.292 36.1184,433.469 z" id="boundary" inkscape:connector-curvature="0" />
	<path style="fill:none;stroke:red;stroke-width:1px;stroke-linecap:butt;stroke-linejoin:miter;stroke-opacity:1" d="M 36.1184,433.469 40.7068,441.728 z" id="boundary" inkscape:connector-curvature="0" />
	<path style="fill:none;stroke:red;stroke-width:1px;stroke-linecap:butt;stroke-linejoin:miter;stroke-opacity:1" d="M 40.7068,441.728 45.2951,449.987 z" id="boundary" inkscape:connector-curvature="0" />
	<path style="fill:none;stroke:red;stroke-width:1px;stroke-linecap:butt;stroke-linejoin:miter;stroke-opacity:1" d="M 42.5421,205.887 50.8011,201.299 z" id="boundary" inkscape:connector-curvature="0" />
	<path style="fill:none;stroke:red;stroke-width:1px;stroke-linecap:butt;stroke-linejoin:miter;stroke-opacity:1" d="M 45.2951,449.987 53.5541,454.575 z" id="boundary" inkscape:connector-curvature="0" />
	<path style="fill:none;stroke:red;stroke-width:1px;stroke-linecap:butt;stroke-linejoin:miter;stroke-opacity:1" d="M 50.8011,201.299 59.0601,196.71 z" id="boundary" inkscape:connector-curvature="0" />
	<path style="fill:none;stroke:red;stroke-width:1px;stroke-linecap:butt;stroke-linejoin:miter;stroke-opacity:1" d="M 53.5541,454.575 61.8131,459.164 z" id="boundary" inkscape:connector-curvature="0" />
	<path style="fill:none;stroke:red;stroke-width:1px;stroke-linecap:butt;stroke-linejoin:miter;stroke-opacity:1" d="M 59.0601,196.71 67.3191,192.122 z" id="boundary" inkscape:connector-curvature="0" />
	<path style="fill:none;stroke:red;stroke-width:1px;stroke-linecap:butt;stroke-linejoin:miter;stroke-opacity:1" d="M 61.8131,459.164 70.9898,459.164 z" id="boundary" inkscape:connector-curvature="0" />
	<path style="fill:none;stroke:red;stroke-width:1px;stroke-linecap:butt;stroke-linejoin:miter;stroke-opacity:1" d="M 67.3191,192.122 76.4958,192.122 z" id="boundary" inkscape:connector-curvature="0" />
	<path style="fill:none;stroke:red;stroke-width:1px;stroke-linecap:butt;stroke-linejoin:miter;stroke-opacity:1" d="M 70.9898,459.164 80.1665,459.164 z" id="boundary" inkscape:connector-curvature="0" />
	<path style="fill:none;stroke:red;stroke-width:1px;stroke-linecap:butt;stroke-linejoin:miter;stroke-opacity:1" d="M 76.4958,192.122 85.6725,192.122 z" id="boundary" inkscape:connector-curvature="0" />
	<path style="fill:none;stroke:red;stroke-width:1px;stroke-linecap:butt;stroke-linejoin:miter;stroke-opacity:1" d="M 80.1665,459.164 89.3432,459.164 z" id="boundary" inkscape:connector-curvature="0" />
	<path style="fill:none;stroke:red;stroke-width:1px;stroke-linecap:butt;stroke-linejoin:miter;stroke-opacity:1" d="M 85.6725,192.122 93.9315,187.534 z" id="boundary" inkscape:connector-curvature="0" />
	<path style="fill:none;stroke:red;stroke-width:1px;stroke-linecap:butt;stroke-linejoin:miter;stroke-opacity:1" d="M 89.3432,459.164 98.5199,459.164 z" id="boundary" inkscape:connector-curvature="0" />
	<path style="fill:none;stroke:red;stroke-width:1px;stroke-linecap:butt;stroke-linejoin:miter;stroke-opacity:1" d="M 93.9315,187.534 103.108,182.945 z" id="boundary" inkscape:connector-curvature="0" />
	<path style="fill:none;stroke:red;stroke-width:1px;stroke-linecap:butt;stroke-linejoin:miter;stroke-opacity:1" d="M 98.5199,459.164 106.779,454.575 z" id="boundary" inkscape:connector-curvature="0" />
	<path style="fill:none;stroke:red;stroke-width:1px;stroke-linecap:butt;stroke-linejoin:miter;stroke-opacity:1" d="M 103.108,182.945 112.285,178.357 z" id="boundary" inkscape:connector-curvature="0" />
	<path style="fill:none;stroke:red;stroke-width:1px;stroke-linecap:butt;stroke-linejoin:miter;stroke-opacity:1" d="M 106.779,454.575 115.038,449.987 z" id="boundary" inkscape:connector-curvature="0" />
	<path style="fill:none;stroke:red;stroke-width:1px;stroke-linecap:butt;stroke-linejoin:miter;stroke-opacity:1" d="M 112.285,178.357 121.462,178.357 z" id="boundary" inkscape:connector-curvature="0" />
	<path style="fill:none;stroke:red;stroke-width:1px;stroke-linecap:butt;stroke-linejoin:miter;stroke-opacity:1" d="M 115.038,449.987 123.297,445.399 z" id="boundary" inkscape:connector-curvature="0" />
	<path style="fill:none;stroke:red;stroke-width:1px;stroke-linecap:butt;stroke-linejoin:miter;stroke-opacity:1" d="M 121.462,178.357 130.638,173.769 z" id="boundary" inkscape:connector-curvature="0" />
	<path style="fill:none;stroke:red;stroke-width:1px;stroke-linecap:butt;stroke-linejoin:miter;stroke-opacity:1" d="M 123.297,445.399 130.638,439.893 z" id="boundary" inkscape:connector-curvature="0" />
	<path style="fill:none;stroke:red;stroke-width:1px;stroke-linecap:butt;stroke-linejoin:miter;stroke-opacity:1" d="M 130.638,173.769 139.815,173.769 z" id="boundary" inkscape:connector-curvature="0" />
	<path style="fill:none;stroke:red;stroke-width:1px;stroke-linecap:butt;stroke-linejoin:miter;stroke-opacity:1" d="M 130.638,439.893 137.98,431.634 z" id="boundary" inkscape:connector-curvature="0" />
	<path style="fill:none;stroke:red;stroke-width:1px;stroke-linecap:butt;stroke-linejoin:miter;stroke-opacity:1" d="M 137.98,431.634 147.156,431.634 z" id="boundary" inkscape:connector-curvature="0" />
	<path style="fill:none;stroke:red;stroke-width:1px;stroke-linecap:butt;stroke-linejoin:miter;stroke-opacity:1" d="M 139.815,173.769 148.992,173.769 z" id="boundary" inkscape:connector-curvature="0" />
	<path style="fill:none;stroke:red;stroke-width:1px;stroke-linecap:butt;stroke-linejoin:miter;stroke-opacity:1" d="M 147.156,431.634 156.333,431.634 z" id="boundary" inkscape:connector-curvature="0" />
	<path style="fill:none;stroke:red;stroke-width:1px;stroke-linecap:butt;stroke-linejoin:miter;stroke-opacity:1" d="M 148.992,173.769 158.168,173.769 z" id="boundary" inkscape:connector-curvature="0" />
	<path style="fill:none;stroke:red;stroke-width:1px;stroke-linecap:butt;stroke-linejoin:miter;stroke-opacity:1" d="M 156.333,431.634 165.51,431.634 z" id="boundary" inkscape:connector-curvature="0" />
	<path style="fill:none;stroke:red;stroke-width:1px;stroke-linecap:butt;stroke-linejoin:miter;stroke-opacity:1" d="M 158.168,173.769 167.345,173.769 z" id="boundary" inkscape:connector-curvature="0" />
	<path style="fill:none;stroke:red;stroke-width:1px;stroke-linecap:butt;stroke-linejoin:miter;stroke-opacity:1" d="M 165.51,431.634 174.686,431.634 z" id="boundary" inkscape:connector-curvature="0" />
	<path style="fill:none;stroke:red;stroke-width:1px;stroke-linecap:butt;stroke-linejoin:miter;stroke-opacity:1" d="M 167.345,173.769 176.522,173.769 z" id="boundary" inkscape:connector-curvature="0" />
	<path style="fill:none;stroke:red;stroke-width:1px;stroke-linecap:butt;stroke-linejoin:miter;stroke-opacity:1" d="M 174.686,431.634 183.863,431.634 z" id="boundary" inkscape:connector-curvature="0" />
	<path style="fill:none;stroke:red;stroke-width:1px;stroke-linecap:butt;stroke-linejoin:miter;stroke-opacity:1" d="M 176.522,173.769 185.698,173.769 z" id="boundary" inkscape:connector-curvature="0" />
	<path style="fill:none;stroke:red;stroke-width:1px;stroke-linecap:butt;stroke-linejoin:miter;stroke-opacity:1" d="M 183.863,431.634 193.04,431.634 z" id="boundary" inkscape:connector-curvature="0" />
	<path style="fill:none;stroke:red;stroke-width:1px;stroke-linecap:butt;stroke-linejoin:miter;stroke-opacity:1" d="M 185.698,173.769 194.875,173.769 z" id="boundary" inkscape:connector-curvature="0" />
	<path style="fill:none;stroke:red;stroke-width:1px;stroke-linecap:butt;stroke-linejoin:miter;stroke-opacity:1" d="M 193.04,431.634 202.216,431.634 z" id="boundary" inkscape:connector-curvature="0" />
	<path style="fill:none;stroke:red;stroke-width:1px;stroke-linecap:butt;stroke-linejoin:miter;stroke-opacity:1" d="M 194.875,173.769 204.052,173.769 z" id="boundary" inkscape:connector-curvature="0" />
	<path style="fill:none;stroke:red;stroke-width:1px;stroke-linecap:butt;stroke-linejoin:miter;stroke-opacity:1" d="M 202.216,431.634 211.393,431.634 z" id="boundary" inkscape:connector-curvature="0" />
	<path style="fill:none;stroke:red;stroke-width:1px;stroke-linecap:butt;stroke-linejoin:miter;stroke-opacity:1" d="M 204.052,173.769 213.228,173.769 z" id="boundary" inkscape:connector-curvature="0" />
	<path style="fill:none;stroke:red;stroke-width:1px;stroke-linecap:butt;stroke-linejoin:miter;stroke-opacity:1" d="M 211.393,431.634 220.57,431.634 z" id="boundary" inkscape:connector-curvature="0" />
	<path style="fill:none;stroke:red;stroke-width:1px;stroke-linecap:butt;stroke-linejoin:miter;stroke-opacity:1" d="M 213.228,173.769 222.405,173.769 z" id="boundary" inkscape:connector-curvature="0" />
	<path style="fill:none;stroke:red;stroke-width:1px;stroke-linecap:butt;stroke-linejoin:miter;stroke-opacity:1" d="M 220.57,431.634 229.747,431.634 z" id="boundary" inkscape:connector-curvature="0" />
	<path style="fill:none;stroke:red;stroke-width:1px;stroke-linecap:butt;stroke-linejoin:miter;stroke-opacity:1" d="M 222.405,173.769 231.582,173.769 z" id="boundary" inkscape:connector-curvature="0" />
	<path style="fill:none;stroke:red;stroke-width:1px;stroke-linecap:butt;stroke-linejoin:miter;stroke-opacity:1" d="M 229.747,431.634 238.923,431.634 z" id="boundary" inkscape:connector-curvature="0" />
	<path style="fill:none;stroke:red;stroke-width:1px;stroke-linecap:butt;stroke-linejoin:miter;stroke-opacity:1" d="M 231.582,173.769 240.759,173.769 z" id="boundary" inkscape:connector-curvature="0" />
	<path style="fill:none;stroke:red;stroke-width:1px;stroke-linecap:butt;stroke-linejoin:miter;stroke-opacity:1" d="M 238.923,431.634 248.1,431.634 z" id="boundary" inkscape:connector-curvature="0" />
	<path style="fill:none;stroke:red;stroke-width:1px;stroke-linecap:butt;stroke-linejoin:miter;stroke-opacity:1" d="M 240.759,173.769 249.935,173.769 z" id="boundary" inkscape:connector-curvature="0" />
	<path style="fill:none;stroke:red;stroke-width:1px;stroke-linecap:butt;stroke-linejoin:miter;stroke-opacity:1" d="M 248.1,431.634 257.277,431.634 z" id="boundary" inkscape:connector-curvature="0" />
	<path style="fill:none;stroke:red;stroke-width:1px;stroke-linecap:butt;stroke-linejoin:miter;stroke-opacity:1" d="M 249.935,173.769 259.112,173.769 z" id="boundary" inkscape:connector-curvature="0" />
	<path style="fill:none;stroke:red;stroke-width:1px;stroke-linecap:butt;stroke-linejoin:miter;stroke-opacity:1" d="M 257.277,431.634 266.453,431.634 z" id="boundary" inkscape:connector-curvature="0" />
	<path style="fill:none;stroke:red;stroke-width:1px;stroke-linecap:butt;stroke-linejoin:miter;stroke-opacity:1" d="M 259.112,173.769 266.453,166.427 z" id="boundary" inkscape:connector-curvature="0" />
	<path style="fill:none;stroke:red;stroke-width:1px;stroke-linecap:butt;stroke-linejoin:miter;stroke-opacity:1" d="M 266.453,166.427 270.124,148.992 z" id="boundary" inkscape:connector-curvature="0" />
	<path style="fill:none;stroke:red;stroke-width:1px;stroke-linecap:butt;stroke-linejoin:miter;stroke-opacity:1" d="M 266.453,431.634 275.63,431.634 z" id="boundary" inkscape:connector-curvature="0" />
	<path style="fill:none;stroke:red;stroke-width:1px;stroke-linecap:butt;stroke-linejoin:miter;stroke-opacity:1" d="M 270.124,148.992 274.712,139.815 z" id="boundary" inkscape:connector-curvature="0" />
	<path style="fill:none;stroke:red;stroke-width:1px;stroke-linecap:butt;stroke-linejoin:miter;stroke-opacity:1" d="M 274.712,139.815 282.054,132.474 z" id="boundary" inkscape:connector-curvature="0" />
	<path style="fill:none;stroke:red;stroke-width:1px;stroke-linecap:butt;stroke-linejoin:miter;stroke-opacity:1" d="M 275.63,431.634 284.807,431.634 z" id="boundary" inkscape:connector-curvature="0" />
	<path style="fill:none;stroke:red;stroke-width:1px;stroke-linecap:butt;stroke-linejoin:miter;stroke-opacity:1" d="M 282.054,132.474 291.23,127.885 z" id="boundary" inkscape:connector-curvature="0" />
	<path style="fill:none;stroke:red;stroke-width:1px;stroke-linecap:butt;stroke-linejoin:miter;stroke-opacity:1" d="M 284.807,431.634 293.983,431.634 z" id="boundary" inkscape:connector-curvature="0" />
	<path style="fill:none;stroke:red;stroke-width:1px;stroke-linecap:butt;stroke-linejoin:miter;stroke-opacity:1" d="M 291.23,127.885 300.407,127.885 z" id="boundary" inkscape:connector-curvature="0" />
	<path style="fill:none;stroke:red;stroke-width:1px;stroke-linecap:butt;stroke-linejoin:miter;stroke-opacity:1" d="M 293.983,431.634 303.16,431.634 z" id="boundary" inkscape:connector-curvature="0" />
	<path style="fill:none;stroke:red;stroke-width:1px;stroke-linecap:butt;stroke-linejoin:miter;stroke-opacity:1" d="M 300.407,127.885 309.584,127.885 z" id="boundary" inkscape:connector-curvature="0" />
	<path style="fill:none;stroke:red;stroke-width:1px;stroke-linecap:butt;stroke-linejoin:miter;stroke-opacity:1" d="M 303.16,431.634 312.337,427.045 z" id="boundary" inkscape:connector-curvature="0" />
	<path style="fill:none;stroke:red;stroke-width:1px;stroke-linecap:butt;stroke-linejoin:miter;stroke-opacity:1" d="M 309.584,127.885 318.76,127.885 z" id="boundary" inkscape:connector-curvature="0" />
	<path style="fill:none;stroke:red;stroke-width:1px;stroke-linecap:butt;stroke-linejoin:miter;stroke-opacity:1" d="M 312.337,427.045 321.513,427.045 z" id="boundary" inkscape:connector-curvature="0" />
	<path style="fill:none;stroke:red;stroke-width:1px;stroke-linecap:butt;stroke-linejoin:miter;stroke-opacity:1" d="M 318.76,127.885 327.937,127.885 z" id="boundary" inkscape:connector-curvature="0" />
	<path style="fill:none;stroke:red;stroke-width:1px;stroke-linecap:butt;stroke-linejoin:miter;stroke-opacity:1" d="M 321.513,427.045 330.69,427.045 z" id="boundary" inkscape:connector-curvature="0" />
	<path style="fill:none;stroke:red;stroke-width:1px;stroke-linecap:butt;stroke-linejoin:miter;stroke-opacity:1" d="M 327.937,127.885 335.278,120.544 z" id="boundary" inkscape:connector-curvature="0" />
	<path style="fill:none;stroke:red;stroke-width:1px;stroke-linecap:butt;stroke-linejoin:miter;stroke-opacity:1" d="M 330.69,427.045 339.867,427.045 z" id="boundary" inkscape:connector-curvature="0" />
	<path style="fill:none;stroke:red;stroke-width:1px;stroke-linecap:butt;stroke-linejoin:miter;stroke-opacity:1" d="M 335.278,120.544 342.62,114.12 z" id="boundary" inkscape:connector-curvature="0" />
	<path style="fill:none;stroke:red;stroke-width:1px;stroke-linecap:butt;stroke-linejoin:miter;stroke-opacity:1" d="M 339.867,427.045 348.126,422.457 z" id="boundary" inkscape:connector-curvature="0" />
	<path style="fill:none;stroke:red;stroke-width:1px;stroke-linecap:butt;stroke-linejoin:miter;stroke-opacity:1" d="M 342.62,114.12 346.29,104.944 z" id="boundary" inkscape:connector-curvature="0" />
	<path style="fill:none;stroke:red;stroke-width:1px;stroke-linecap:butt;stroke-linejoin:miter;stroke-opacity:1" d="M 346.29,104.944 355.467,100.355 z" id="boundary" inkscape:connector-curvature="0" />
	<path style="fill:none;stroke:red;stroke-width:1px;stroke-linecap:butt;stroke-linejoin:miter;stroke-opacity:1" d="M 348.126,422.457 357.302,419.704 z" id="boundary" inkscape:connector-curvature="0" />
	<path style="fill:none;stroke:red;stroke-width:1px;stroke-linecap:butt;stroke-linejoin:miter;stroke-opacity:1" d="M 355.467,100.355 364.644,100.355 z" id="boundary" inkscape:connector-curvature="0" />
	<path style="fill:none;stroke:red;stroke-width:1px;stroke-linecap:butt;stroke-linejoin:miter;stroke-opacity:1" d="M 357.302,419.704 366.479,415.116 z" id="boundary" inkscape:connector-curvature="0" />
	<path style="fill:none;stroke:red;stroke-width:1px;stroke-linecap:butt;stroke-linejoin:miter;stroke-opacity:1" d="M 364.644,100.355 373.821,95.7669 z" id="boundary" inkscape:connector-curvature="0" />
	<path style="fill:none;stroke:red;stroke-width:1px;stroke-linecap:butt;stroke-linejoin:miter;stroke-opacity:1" d="M 366.479,415.116 375.656,410.527 z" id="boundary" inkscape:connector-curvature="0" />
	<path style="fill:none;stroke:red;stroke-width:1px;stroke-linecap:butt;stroke-linejoin:miter;stroke-opacity:1" d="M 373.821,95.7669 382.997,95.7669 z" id="boundary" inkscape:connector-curvature="0" />
	<path style="fill:none;stroke:red;stroke-width:1px;stroke-linecap:butt;stroke-linejoin:miter;stroke-opacity:1" d="M 375.656,410.527 384.833,405.939 z" id="boundary" inkscape:connector-curvature="0" />
	<path style="fill:none;stroke:red;stroke-width:1px;stroke-linecap:butt;stroke-linejoin:miter;stroke-opacity:1" d="M 382.997,95.7669 391.256,91.1785 z" id="boundary" inkscape:connector-curvature="0" />
	<path style="fill:none;stroke:red;stroke-width:1px;stroke-linecap:butt;stroke-linejoin:miter;stroke-opacity:1" d="M 384.833,405.939 392.174,399.515 z" id="boundary" inkscape:connector-curvature="0" />
	<path style="fill:none;stroke:red;stroke-width:1px;stroke-linecap:butt;stroke-linejoin:miter;stroke-opacity:1" d="M 391.256,91.1785 400.433,91.1785 z" id="boundary" inkscape:connector-curvature="0" />
	<path style="fill:none;stroke:red;stroke-width:1px;stroke-linecap:butt;stroke-linejoin:miter;stroke-opacity:1" d="M 392.174,399.515 400.433,394.927 z" id="boundary" inkscape:connector-curvature="0" />
	<path style="fill:none;stroke:red;stroke-width:1px;stroke-linecap:butt;stroke-linejoin:miter;stroke-opacity:1" d="M 400.433,91.1785 407.774,97.6022 z" id="boundary" inkscape:connector-curvature="0" />
	<path style="fill:none;stroke:red;stroke-width:1px;stroke-linecap:butt;stroke-linejoin:miter;stroke-opacity:1" d="M 400.433,394.927 408.692,390.339 z" id="boundary" inkscape:connector-curvature="0" />
	<path style="fill:none;stroke:red;stroke-width:1px;stroke-linecap:butt;stroke-linejoin:miter;stroke-opacity:1" d="M 407.774,97.6022 413.28,104.944 z" id="boundary" inkscape:connector-curvature="0" />
	<path style="fill:none;stroke:red;stroke-width:1px;stroke-linecap:butt;stroke-linejoin:miter;stroke-opacity:1" d="M 408.692,390.339 417.869,390.339 z" id="boundary" inkscape:connector-curvature="0" />
	<path style="fill:none;stroke:red;stroke-width:1px;stroke-linecap:butt;stroke-linejoin:miter;stroke-opacity:1" d="M 413.28,104.944 420.622,110.45 z" id="boundary" inkscape:connector-curvature="0" />
	<path style="fill:none;stroke:red;stroke-width:1px;stroke-linecap:butt;stroke-linejoin:miter;stroke-opacity:1" d="M 417.869,390.339 426.128,394.927 z" id="boundary" inkscape:connector-curvature="0" />
	<path style="fill:none;stroke:red;stroke-width:1px;stroke-linecap:butt;stroke-linejoin:miter;stroke-opacity:1" d="M 420.622,110.45 427.045,117.791 z" id="boundary" inkscape:connector-curvature="0" />
	<path style="fill:none;stroke:red;stroke-width:1px;stroke-linecap:butt;stroke-linejoin:miter;stroke-opacity:1" d="M 426.128,394.927 426.128,404.104 z" id="boundary" inkscape:connector-curvature="0" />
	<path style="fill:none;stroke:red;stroke-width:1px;stroke-linecap:butt;stroke-linejoin:miter;stroke-opacity:1" d="M 426.128,404.104 426.128,413.28 z" id="boundary" inkscape:connector-curvature="0" />
	<path style="fill:none;stroke:red;stroke-width:1px;stroke-linecap:butt;stroke-linejoin:miter;stroke-opacity:1" d="M 426.128,413.28 428.881,422.457 z" id="boundary" inkscape:connector-curvature="0" />
	<path style="fill:none;stroke:red;stroke-width:1px;stroke-linecap:butt;stroke-linejoin:miter;stroke-opacity:1" d="M 427.045,117.791 434.387,123.297 z" id="boundary" inkscape:connector-curvature="0" />
	<path style="fill:none;stroke:red;stroke-width:1px;stroke-linecap:butt;stroke-linejoin:miter;stroke-opacity:1" d="M 428.881,422.457 430.716,431.634 z" id="boundary" inkscape:connector-curvature="0" />
	<path style="fill:none;stroke:red;stroke-width:1px;stroke-linecap:butt;stroke-linejoin:miter;stroke-opacity:1" d="M 430.716,431.634 435.304,439.893 z" id="boundary" inkscape:connector-curvature="0" />
	<path style="fill:none;stroke:red;stroke-width:1px;stroke-linecap:butt;stroke-linejoin:miter;stroke-opacity:1" d="M 434.387,123.297 442.646,118.709 z" id="boundary" inkscape:connector-curvature="0" />
	<path style="fill:none;stroke:red;stroke-width:1px;stroke-linecap:butt;stroke-linejoin:miter;stroke-opacity:1" d="M 435.304,439.893 439.893,448.152 z" id="boundary" inkscape:connector-curvature="0" />
	<path style="fill:none;stroke:red;stroke-width:1px;stroke-linecap:butt;stroke-linejoin:miter;stroke-opacity:1" d="M 439.893,448.152 444.481,456.411 z" id="boundary" inkscape:connector-curvature="0" />
	<path style="fill:none;stroke:red;stroke-width:1px;stroke-linecap:butt;stroke-linejoin:miter;stroke-opacity:1" d="M 442.646,118.709 449.069,107.697 z" id="boundary" inkscape:connector-curvature="0" />
	<path style="fill:none;stroke:red;stroke-width:1px;stroke-linecap:butt;stroke-linejoin:miter;stroke-opacity:1" d="M 444.481,456.411 449.069,464.67 z" id="boundary" inkscape:connector-curvature="0" />
	<path style="fill:none;stroke:red;stroke-width:1px;stroke-linecap:butt;stroke-linejoin:miter;stroke-opacity:1" d="M 449.069,70.9898 449.069,80.1665 z" id="boundary" inkscape:connector-curvature="0" />
	<path style="fill:none;stroke:red;stroke-width:1px;stroke-linecap:butt;stroke-linejoin:miter;stroke-opacity:1" d="M 449.069,70.9898 453.658,57.2248 z" id="boundary" inkscape:connector-curvature="0" />
	<path style="fill:none;stroke:red;stroke-width:1px;stroke-linecap:butt;stroke-linejoin:miter;stroke-opacity:1" d="M 449.069,80.1665 449.069,89.3432 z" id="boundary" inkscape:connector-curvature="0" />
	<path style="fill:none;stroke:red;stroke-width:1px;stroke-linecap:butt;stroke-linejoin:miter;stroke-opacity:1" d="M 449.069,89.3432 449.069,98.5199 z" id="boundary" inkscape:connector-curvature="0" />
	<path style="fill:none;stroke:red;stroke-width:1px;stroke-linecap:butt;stroke-linejoin:miter;stroke-opacity:1" d="M 449.069,98.5199 449.069,107.697 z" id="boundary" inkscape:connector-curvature="0" />
	<path style="fill:none;stroke:red;stroke-width:1px;stroke-linecap:butt;stroke-linejoin:miter;stroke-opacity:1" d="M 449.069,464.67 455.493,472.011 z" id="boundary" inkscape:connector-curvature="0" />
	<path style="fill:none;stroke:red;stroke-width:1px;stroke-linecap:butt;stroke-linejoin:miter;stroke-opacity:1" d="M 453.658,48.0481 453.658,57.2248 z" id="boundary" inkscape:connector-curvature="0" />
	<path style="fill:none;stroke:red;stroke-width:1px;stroke-linecap:butt;stroke-linejoin:miter;stroke-opacity:1" d="M 453.658,48.0481 458.246,38.8714 z" id="boundary" inkscape:connector-curvature="0" />
	<path style="fill:none;stroke:red;stroke-width:1px;stroke-linecap:butt;stroke-linejoin:miter;stroke-opacity:1" d="M 455.493,472.011 462.834,477.517 z" id="boundary" inkscape:connector-curvature="0" />
	<path style="fill:none;stroke:red;stroke-width:1px;stroke-linecap:butt;stroke-linejoin:miter;stroke-opacity:1" d="M 458.246,38.8714 462.834,29.6947 z" id="boundary" inkscape:connector-curvature="0" />
	<path style="fill:none;stroke:red;stroke-width:1px;stroke-linecap:butt;stroke-linejoin:miter;stroke-opacity:1" d="M 462.834,29.6947 470.176,22.3534 z" id="boundary" inkscape:connector-curvature="0" />
	<path style="fill:none;stroke:red;stroke-width:1px;stroke-linecap:butt;stroke-linejoin:miter;stroke-opacity:1" d="M 462.834,477.517 471.093,482.105 z" id="boundary" inkscape:connector-curvature="0" />
	<path style="fill:none;stroke:red;stroke-width:1px;stroke-linecap:butt;stroke-linejoin:miter;stroke-opacity:1" d="M 470.176,22.3534 477.517,15.012 z" id="boundary" inkscape:connector-curvature="0" />
	<path style="fill:none;stroke:red;stroke-width:1px;stroke-linecap:butt;stroke-linejoin:miter;stroke-opacity:1" d="M 471.093,482.105 480.27,482.105 z" id="boundary" inkscape:connector-curvature="0" />
	<path style="fill:none;stroke:red;stroke-width:1px;stroke-linecap:butt;stroke-linejoin:miter;stroke-opacity:1" d="M 477.517,15.012 486.694,10.4237 z" id="boundary" inkscape:connector-curvature="0" />
	<path style="fill:none;stroke:red;stroke-width:1px;stroke-linecap:butt;stroke-linejoin:miter;stroke-opacity:1" d="M 480.27,482.105 489.447,482.105 z" id="boundary" inkscape:connector-curvature="0" />
	<path style="fill:none;stroke:red;stroke-width:1px;stroke-linecap:butt;stroke-linejoin:miter;stroke-opacity:1" d="M 486.694,10.4237 495.87,8.58834 z" id="boundary" inkscape:connector-curvature="0" />
	<path style="fill:none;stroke:red;stroke-width:1px;stroke-linecap:butt;stroke-linejoin:miter;stroke-opacity:1" d="M 489.447,482.105 498.623,480.27 z" id="boundary" inkscape:connector-curvature="0" />
	<path style="fill:none;stroke:red;stroke-width:1px;stroke-linecap:butt;stroke-linejoin:miter;stroke-opacity:1" d="M 495.87,8.58834 505.047,5.83534 z" id="boundary" inkscape:connector-curvature="0" />
	<path style="fill:none;stroke:red;stroke-width:1px;stroke-linecap:butt;stroke-linejoin:miter;stroke-opacity:1" d="M 498.623,480.27 507.8,475.682 z" id="boundary" inkscape:connector-curvature="0" />
	<path style="fill:none;stroke:red;stroke-width:1px;stroke-linecap:butt;stroke-linejoin:miter;stroke-opacity:1" d="M 505.047,5.83534 514.224,4 z" id="boundary" inkscape:connector-curvature="0" />
	<path style="fill:none;stroke:red;stroke-width:1px;stroke-linecap:butt;stroke-linejoin:miter;stroke-opacity:1" d="M 507.8,475.682 514.224,468.34 z" id="boundary" inkscape:connector-curvature="0" />
	<path style="fill:none;stroke:red;stroke-width:1px;stroke-linecap:butt;stroke-linejoin:miter;stroke-opacity:1" d="M 514.224,4 523.401,4 z" id="boundary" inkscape:connector-curvature="0" />
	<path style="fill:none;stroke:red;stroke-width:1px;stroke-linecap:butt;stroke-linejoin:miter;stroke-opacity:1" d="M 514.224,468.34 522.483,463.752 z" id="boundary" inkscape:connector-curvature="0" />
	<path style="fill:none;stroke:red;stroke-width:1px;stroke-linecap:butt;stroke-linejoin:miter;stroke-opacity:1" d="M 522.483,463.752 529.824,458.246 z" id="boundary" inkscape:connector-curvature="0" />
	<path style="fill:none;stroke:red;stroke-width:1px;stroke-linecap:butt;stroke-linejoin:miter;stroke-opacity:1" d="M 523.401,4 532.577,4 z" id="boundary" inkscape:connector-curvature="0" />
	<path style="fill:none;stroke:red;stroke-width:1px;stroke-linecap:butt;stroke-linejoin:miter;stroke-opacity:1" d="M 529.824,458.246 537.166,449.987 z" id="boundary" inkscape:connector-curvature="0" />
	<path style="fill:none;stroke:red;stroke-width:1px;stroke-linecap:butt;stroke-linejoin:miter;stroke-opacity:1" d="M 532.577,4 541.754,4 z" id="boundary" inkscape:connector-curvature="0" />
	<path style="fill:none;stroke:red;stroke-width:1px;stroke-linecap:butt;stroke-linejoin:miter;stroke-opacity:1" d="M 537.166,449.987 544.507,443.563 z" id="boundary" inkscape:connector-curvature="0" />
	<path style="fill:none;stroke:red;stroke-width:1px;stroke-linecap:butt;stroke-linejoin:miter;stroke-opacity:1" d="M 541.754,4 550.931,4 z" id="boundary" inkscape:connector-curvature="0" />
	<path style="fill:none;stroke:red;stroke-width:1px;stroke-linecap:butt;stroke-linejoin:miter;stroke-opacity:1" d="M 544.507,443.563 550.931,436.222 z" id="boundary" inkscape:connector-curvature="0" />
	<path style="fill:none;stroke:red;stroke-width:1px;stroke-linecap:butt;stroke-linejoin:miter;stroke-opacity:1" d="M 550.931,4 559.19,8.58834 z" id="boundary" inkscape:connector-curvature="0" />
	<path style="fill:none;stroke:red;stroke-width:1px;stroke-linecap:butt;stroke-linejoin:miter;stroke-opacity:1" d="M 550.931,436.222 558.272,429.798 z" id="boundary" inkscape:connector-curvature="0" />
	<path style="fill:none;stroke:red;stroke-width:1px;stroke-linecap:butt;stroke-linejoin:miter;stroke-opacity:1" d="M 558.272,429.798 564.696,422.457 z" id="boundary" inkscape:connector-curvature="0" />
	<path style="fill:none;stroke:red;stroke-width:1px;stroke-linecap:butt;stroke-linejoin:miter;stroke-opacity:1" d="M 559.19,8.58834 568.366,8.58834 z" id="boundary" inkscape:connector-curvature="0" />
	<path style="fill:none;stroke:red;stroke-width:1px;stroke-linecap:butt;stroke-linejoin:miter;stroke-opacity:1" d="M 564.696,422.457 569.284,413.28 z" id="boundary" inkscape:connector-curvature="0" />
	<path style="fill:none;stroke:red;stroke-width:1px;stroke-linecap:butt;stroke-linejoin:miter;stroke-opacity:1" d="M 568.366,8.58834 577.543,10.4237 z" id="boundary" inkscape:connector-curvature="0" />
	<path style="fill:none;stroke:red;stroke-width:1px;stroke-linecap:butt;stroke-linejoin:miter;stroke-opacity:1" d="M 569.284,413.28 573.872,404.104 z" id="boundary" inkscape:connector-curvature="0" />
	<path style="fill:none;stroke:red;stroke-width:1px;stroke-linecap:butt;stroke-linejoin:miter;stroke-opacity:1" d="M 573.872,394.927 573.872,404.104 z" id="boundary" inkscape:connector-curvature="0" />
	<path style="fill:none;stroke:red;stroke-width:1px;stroke-linecap:butt;stroke-linejoin:miter;stroke-opacity:1" d="M 573.872,394.927 583.049,394.927 z" id="boundary" inkscape:connector-curvature="0" />
	<path style="fill:none;stroke:red;stroke-width:1px;stroke-linecap:butt;stroke-linejoin:miter;stroke-opacity:1" d="M 577.543,10.4237 586.72,13.1767 z" id="boundary" inkscape:connector-curvature="0" />
	<path style="fill:none;stroke:red;stroke-width:1px;stroke-linecap:butt;stroke-linejoin:miter;stroke-opacity:1" d="M 583.049,394.927 592.226,394.927 z" id="boundary" inkscape:connector-curvature="0" />
	<path style="fill:none;stroke:red;stroke-width:1px;stroke-linecap:butt;stroke-linejoin:miter;stroke-opacity:1" d="M 586.72,13.1767 594.979,17.765 z" id="boundary" inkscape:connector-curvature="0" />
	<path style="fill:none;stroke:red;stroke-width:1px;stroke-linecap:butt;stroke-linejoin:miter;stroke-opacity:1" d="M 592.226,394.927 600.485,390.339 z" id="boundary" inkscape:connector-curvature="0" />
	<path style="fill:none;stroke:red;stroke-width:1px;stroke-linecap:butt;stroke-linejoin:miter;stroke-opacity:1" d="M 594.979,17.765 604.155,17.765 z" id="boundary" inkscape:connector-curvature="0" />
	<path style="fill:none;stroke:red;stroke-width:1px;stroke-linecap:butt;stroke-linejoin:miter;stroke-opacity:1" d="M 600.485,390.339 609.661,390.339 z" id="boundary" inkscape:connector-curvature="0" />
	<path style="fill:none;stroke:red;stroke-width:1px;stroke-linecap:butt;stroke-linejoin:miter;stroke-opacity:1" d="M 604.155,17.765 613.332,18.6827 z" id="boundary" inkscape:connector-curvature="0" />
	<path style="fill:none;stroke:red;stroke-width:1px;stroke-linecap:butt;stroke-linejoin:miter;stroke-opacity:1" d="M 609.661,390.339 618.838,390.339 z" id="boundary" inkscape:connector-curvature="0" />
	<path style="fill:none;stroke:red;stroke-width:1px;stroke-linecap:butt;stroke-linejoin:miter;stroke-opacity:1" d="M 613.332,18.6827 621.591,23.271 z" id="boundary" inkscape:connector-curvature="0" />
	<path style="fill:none;stroke:red;stroke-width:1px;stroke-linecap:butt;stroke-linejoin:miter;stroke-opacity:1" d="M 618.838,390.339 628.015,390.339 z" id="boundary" inkscape:connector-curvature="0" />
	<path style="fill:none;stroke:red;stroke-width:1px;stroke-linecap:butt;stroke-linejoin:miter;stroke-opacity:1" d="M 621.591,23.271 630.768,26.9417 z" id="boundary" inkscape:connector-curvature="0" />
	<path style="fill:none;stroke:red;stroke-width:1px;stroke-linecap:butt;stroke-linejoin:miter;stroke-opacity:1" d="M 628.015,390.339 637.191,390.339 z" id="boundary" inkscape:connector-curvature="0" />
	<path style="fill:none;stroke:red;stroke-width:1px;stroke-linecap:butt;stroke-linejoin:miter;stroke-opacity:1" d="M 630.768,26.9417 639.027,31.5301 z" id="boundary" inkscape:connector-curvature="0" />
	<path style="fill:none;stroke:red;stroke-width:1px;stroke-linecap:butt;stroke-linejoin:miter;stroke-opacity:1" d="M 637.191,390.339 646.368,390.339 z" id="boundary" inkscape:connector-curvature="0" />
	<path style="fill:none;stroke:red;stroke-width:1px;stroke-linecap:butt;stroke-linejoin:miter;stroke-opacity:1" d="M 639.027,31.5301 648.204,31.5301 z" id="boundary" inkscape:connector-curvature="0" />
	<path style="fill:none;stroke:red;stroke-width:1px;stroke-linecap:butt;stroke-linejoin:miter;stroke-opacity:1" d="M 646.368,390.339 655.545,390.339 z" id="boundary" inkscape:connector-curvature="0" />
	<path style="fill:none;stroke:red;stroke-width:1px;stroke-linecap:butt;stroke-linejoin:miter;stroke-opacity:1" d="M 648.204,31.5301 657.38,31.5301 z" id="boundary" inkscape:connector-curvature="0" />
	<path style="fill:none;stroke:red;stroke-width:1px;stroke-linecap:butt;stroke-linejoin:miter;stroke-opacity:1" d="M 655.545,390.339 664.722,390.339 z" id="boundary" inkscape:connector-curvature="0" />
	<path style="fill:none;stroke:red;stroke-width:1px;stroke-linecap:butt;stroke-linejoin:miter;stroke-opacity:1" d="M 657.38,31.5301 665.639,36.1184 z" id="boundary" inkscape:connector-curvature="0" />
	<path style="fill:none;stroke:red;stroke-width:1px;stroke-linecap:butt;stroke-linejoin:miter;stroke-opacity:1" d="M 664.722,390.339 673.898,390.339 z" id="boundary" inkscape:connector-curvature="0" />
	<path style="fill:none;stroke:red;stroke-width:1px;stroke-linecap:butt;stroke-linejoin:miter;stroke-opacity:1" d="M 665.639,36.1184 674.816,36.1184 z" id="boundary" inkscape:connector-curvature="0" />
	<path style="fill:none;stroke:red;stroke-width:1px;stroke-linecap:butt;stroke-linejoin:miter;stroke-opacity:1" d="M 673.898,390.339 683.075,390.339 z" id="boundary" inkscape:connector-curvature="0" />
	<path style="fill:none;stroke:red;stroke-width:1px;stroke-linecap:butt;stroke-linejoin:miter;stroke-opacity:1" d="M 674.816,36.1184 683.993,36.1184 z" id="boundary" inkscape:connector-curvature="0" />
	<path style="fill:none;stroke:red;stroke-width:1px;stroke-linecap:butt;stroke-linejoin:miter;stroke-opacity:1" d="M 683.075,390.339 692.252,390.339 z" id="boundary" inkscape:connector-curvature="0" />
	<path style="fill:none;stroke:red;stroke-width:1px;stroke-linecap:butt;stroke-linejoin:miter;stroke-opacity:1" d="M 683.993,36.1184 693.169,38.8714 z" id="boundary" inkscape:connector-curvature="0" />
	<path style="fill:none;stroke:red;stroke-width:1px;stroke-linecap:butt;stroke-linejoin:miter;stroke-opacity:1" d="M 692.252,390.339 701.428,390.339 z" id="boundary" inkscape:connector-curvature="0" />
	<path style="fill:none;stroke:red;stroke-width:1px;stroke-linecap:butt;stroke-linejoin:miter;stroke-opacity:1" d="M 693.169,38.8714 702.346,40.7068 z" id="boundary" inkscape:connector-curvature="0" />
	<path style="fill:none;stroke:red;stroke-width:1px;stroke-linecap:butt;stroke-linejoin:miter;stroke-opacity:1" d="M 701.428,390.339 710.605,390.339 z" id="boundary" inkscape:connector-curvature="0" />
	<path style="fill:none;stroke:red;stroke-width:1px;stroke-linecap:butt;stroke-linejoin:miter;stroke-opacity:1" d="M 702.346,40.7068 711.523,40.7068 z" id="boundary" inkscape:connector-curvature="0" />
	<path style="fill:none;stroke:red;stroke-width:1px;stroke-linecap:butt;stroke-linejoin:miter;stroke-opacity:1" d="M 710.605,390.339 719.782,390.339 z" id="boundary" inkscape:connector-curvature="0" />
	<path style="fill:none;stroke:red;stroke-width:1px;stroke-linecap:butt;stroke-linejoin:miter;stroke-opacity:1" d="M 711.523,40.7068 720.699,40.7068 z" id="boundary" inkscape:connector-curvature="0" />
	<path style="fill:none;stroke:red;stroke-width:1px;stroke-linecap:butt;stroke-linejoin:miter;stroke-opacity:1" d="M 719.782,390.339 728.958,390.339 z" id="boundary" inkscape:connector-curvature="0" />
	<path style="fill:none;stroke:red;stroke-width:1px;stroke-linecap:butt;stroke-linejoin:miter;stroke-opacity:1" d="M 720.699,40.7068 729.876,40.7068 z" id="boundary" inkscape:connector-curvature="0" />
	<path style="fill:none;stroke:red;stroke-width:1px;stroke-linecap:butt;stroke-linejoin:miter;stroke-opacity:1" d="M 728.958,390.339 738.135,390.339 z" id="boundary" inkscape:connector-curvature="0" />
	<path style="fill:none;stroke:red;stroke-width:1px;stroke-linecap:butt;stroke-linejoin:miter;stroke-opacity:1" d="M 729.876,40.7068 739.053,40.7068 z" id="boundary" inkscape:connector-curvature="0" />
	<path style="fill:none;stroke:red;stroke-width:1px;stroke-linecap:butt;stroke-linejoin:miter;stroke-opacity:1" d="M 738.135,390.339 747.312,390.339 z" id="boundary" inkscape:connector-curvature="0" />
	<path style="fill:none;stroke:red;stroke-width:1px;stroke-linecap:butt;stroke-linejoin:miter;stroke-opacity:1" d="M 739.053,40.7068 748.229,43.4598 z" id="boundary" inkscape:connector-curvature="0" />
	<path style="fill:none;stroke:red;stroke-width:1px;stroke-linecap:butt;stroke-linejoin:miter;stroke-opacity:1" d="M 747.312,390.339 756.488,390.339 z" id="boundary" inkscape:connector-curvature="0" />
	<path style="fill:none;stroke:red;stroke-width:1px;stroke-linecap:butt;stroke-linejoin:miter;stroke-opacity:1" d="M 748.229,43.4598 756.488,48.0481 z" id="boundary" inkscape:connector-curvature="0" />
	<path style="fill:none;stroke:red;stroke-width:1px;stroke-linecap:butt;stroke-linejoin:miter;stroke-opacity:1" d="M 756.488,48.0481 761.077,56.3071 z" id="boundary" inkscape:connector-curvature="0" />
	<path style="fill:none;stroke:red;stroke-width:1px;stroke-linecap:butt;stroke-linejoin:miter;stroke-opacity:1" d="M 756.488,390.339 761.077,398.598 z" id="boundary" inkscape:connector-curvature="0" />
	<path style="fill:none;stroke:red;stroke-width:1px;stroke-linecap:butt;stroke-linejoin:miter;stroke-opacity:1" d="M 761.077,56.3071 761.994,65.4838 z" id="boundary" inkscape:connector-curvature="0" />
	<path style="fill:none;stroke:red;stroke-width:1px;stroke-linecap:butt;stroke-linejoin:miter;stroke-opacity:1" d="M 761.077,398.598 765.665,406.857 z" id="boundary" inkscape:connector-curvature="0" />
	<path style="fill:none;stroke:red;stroke-width:1px;stroke-linecap:butt;stroke-linejoin:miter;stroke-opacity:1" d="M 761.994,65.4838 761.994,74.6605 z" id="boundary" inkscape:connector-curvature="0" />
	<path style="fill:none;stroke:red;stroke-width:1px;stroke-linecap:butt;stroke-linejoin:miter;stroke-opacity:1" d="M 761.994,74.6605 761.994,83.8372 z" id="boundary" inkscape:connector-curvature="0" />
	<path style="fill:none;stroke:red;stroke-width:1px;stroke-linecap:butt;stroke-linejoin:miter;stroke-opacity:1" d="M 761.994,83.8372 761.994,93.0139 z" id="boundary" inkscape:connector-curvature="0" />
	<path style="fill:none;stroke:red;stroke-width:1px;stroke-linecap:butt;stroke-linejoin:miter;stroke-opacity:1" d="M 761.994,93.0139 761.994,102.191 z" id="boundary" inkscape:connector-curvature="0" />
	<path style="fill:none;stroke:red;stroke-width:1px;stroke-linecap:butt;stroke-linejoin:miter;stroke-opacity:1" d="M 761.994,102.191 761.994,111.367 z" id="boundary" inkscape:connector-curvature="0" />
	<path style="fill:none;stroke:red;stroke-width:1px;stroke-linecap:butt;stroke-linejoin:miter;stroke-opacity:1" d="M 761.994,111.367 761.994,120.544 z" id="boundary" inkscape:connector-curvature="0" />
	<path style="fill:none;stroke:red;stroke-width:1px;stroke-linecap:butt;stroke-linejoin:miter;stroke-opacity:1" d="M 761.994,120.544 764.747,129.721 z" id="boundary" inkscape:connector-curvature="0" />
	<path style="fill:none;stroke:red;stroke-width:1px;stroke-linecap:butt;stroke-linejoin:miter;stroke-opacity:1" d="M 764.747,129.721 773.924,133.391 z" id="boundary" inkscape:connector-curvature="0" />
	<path style="fill:none;stroke:red;stroke-width:1px;stroke-linecap:butt;stroke-linejoin:miter;stroke-opacity:1" d="M 765.665,406.857 770.253,415.116 z" id="boundary" inkscape:connector-curvature="0" />
	<path style="fill:none;stroke:red;stroke-width:1px;stroke-linecap:butt;stroke-linejoin:miter;stroke-opacity:1" d="M 770.253,415.116 774.842,423.375 z" id="boundary" inkscape:connector-curvature="0" />
	<path style="fill:none;stroke:red;stroke-width:1px;stroke-linecap:butt;stroke-linejoin:miter;stroke-opacity:1" d="M 773.924,133.391 782.183,137.98 z" id="boundary" inkscape:connector-curvature="0" />
	<path style="fill:none;stroke:red;stroke-width:1px;stroke-linecap:butt;stroke-linejoin:miter;stroke-opacity:1" d="M 774.842,423.375 784.019,427.045 z" id="boundary" inkscape:connector-curvature="0" />
	<path style="fill:none;stroke:red;stroke-width:1px;stroke-linecap:butt;stroke-linejoin:miter;stroke-opacity:1" d="M 782.183,137.98 791.36,141.65 z" id="boundary" inkscape:connector-curvature="0" />
	<path style="fill:none;stroke:red;stroke-width:1px;stroke-linecap:butt;stroke-linejoin:miter;stroke-opacity:1" d="M 784.019,427.045 792.278,431.634 z" id="boundary" inkscape:connector-curvature="0" />
	<path style="fill:none;stroke:red;stroke-width:1px;stroke-linecap:butt;stroke-linejoin:miter;stroke-opacity:1" d="M 791.36,141.65 799.619,146.239 z" id="boundary" inkscape:connector-curvature="0" />
	<path style="fill:none;stroke:red;stroke-width:1px;stroke-linecap:butt;stroke-linejoin:miter;stroke-opacity:1" d="M 792.278,431.634 800.537,436.222 z" id="boundary" inkscape:connector-curvature="0" />
	<path style="fill:none;stroke:red;stroke-width:1px;stroke-linecap:butt;stroke-linejoin:miter;stroke-opacity:1" d="M 799.619,146.239 807.878,150.827 z" id="boundary" inkscape:connector-curvature="0" />
	<path style="fill:none;stroke:red;stroke-width:1px;stroke-linecap:butt;stroke-linejoin:miter;stroke-opacity:1" d="M 800.537,436.222 809.713,436.222 z" id="boundary" inkscape:connector-curvature="0" />
	<path style="fill:none;stroke:red;stroke-width:1px;stroke-linecap:butt;stroke-linejoin:miter;stroke-opacity:1" d="M 807.878,150.827 816.137,155.415 z" id="boundary" inkscape:connector-curvature="0" />
	<path style="fill:none;stroke:red;stroke-width:1px;stroke-linecap:butt;stroke-linejoin:miter;stroke-opacity:1" d="M 809.713,436.222 818.89,436.222 z" id="boundary" inkscape:connector-curvature="0" />
	<path style="fill:none;stroke:red;stroke-width:1px;stroke-linecap:butt;stroke-linejoin:miter;stroke-opacity:1" d="M 816.137,155.415 825.314,155.415 z" id="boundary" inkscape:connector-curvature="0" />
	<path style="fill:none;stroke:red;stroke-width:1px;stroke-linecap:butt;stroke-linejoin:miter;stroke-opacity:1" d="M 818.89,436.222 828.067,436.222 z" id="boundary" inkscape:connector-curvature="0" />
	<path style="fill:none;stroke:red;stroke-width:1px;stroke-linecap:butt;stroke-linejoin:miter;stroke-opacity:1" d="M 825.314,155.415 833.573,160.004 z" id="boundary" inkscape:connector-curvature="0" />
	<path style="fill:none;stroke:red;stroke-width:1px;stroke-linecap:butt;stroke-linejoin:miter;stroke-opacity:1" d="M 828.067,436.222 837.243,436.222 z" id="boundary" inkscape:connector-curvature="0" />
	<path style="fill:none;stroke:red;stroke-width:1px;stroke-linecap:butt;stroke-linejoin:miter;stroke-opacity:1" d="M 833.573,160.004 842.749,160.004 z" id="boundary" inkscape:connector-curvature="0" />
	<path style="fill:none;stroke:red;stroke-width:1px;stroke-linecap:butt;stroke-linejoin:miter;stroke-opacity:1" d="M 837.243,436.222 846.42,435.304 z" id="boundary" inkscape:connector-curvature="0" />
	<path style="fill:none;stroke:red;stroke-width:1px;stroke-linecap:butt;stroke-linejoin:miter;stroke-opacity:1" d="M 842.749,160.004 851.926,160.004 z" id="boundary" inkscape:connector-curvature="0" />
	<path style="fill:none;stroke:red;stroke-width:1px;stroke-linecap:butt;stroke-linejoin:miter;stroke-opacity:1" d="M 846.42,435.304 855.597,431.634 z" id="boundary" inkscape:connector-curvature="0" />
	<path style="fill:none;stroke:red;stroke-width:1px;stroke-linecap:butt;stroke-linejoin:miter;stroke-opacity:1" d="M 851.926,160.004 861.103,160.921 z" id="boundary" inkscape:connector-curvature="0" />
	<path style="fill:none;stroke:red;stroke-width:1px;stroke-linecap:butt;stroke-linejoin:miter;stroke-opacity:1" d="M 855.597,431.634 863.856,427.045 z" id="boundary" inkscape:connector-curvature="0" />
	<path style="fill:none;stroke:red;stroke-width:1px;stroke-linecap:butt;stroke-linejoin:miter;stroke-opacity:1" d="M 861.103,160.921 870.279,164.592 z" id="boundary" inkscape:connector-curvature="0" />
	<path style="fill:none;stroke:red;stroke-width:1px;stroke-linecap:butt;stroke-linejoin:miter;stroke-opacity:1" d="M 863.856,427.045 873.032,427.045 z" id="boundary" inkscape:connector-curvature="0" />
	<path style="fill:none;stroke:red;stroke-width:1px;stroke-linecap:butt;stroke-linejoin:miter;stroke-opacity:1" d="M 870.279,164.592 879.456,164.592 z" id="boundary" inkscape:connector-curvature="0" />
	<path style="fill:none;stroke:red;stroke-width:1px;stroke-linecap:butt;stroke-linejoin:miter;stroke-opacity:1" d="M 873.032,427.045 881.291,422.457 z" id="boundary" inkscape:connector-curvature="0" />
	<path style="fill:none;stroke:red;stroke-width:1px;stroke-linecap:butt;stroke-linejoin:miter;stroke-opacity:1" d="M 879.456,164.592 888.633,164.592 z" id="boundary" inkscape:connector-curvature="0" />
	<path style="fill:none;stroke:red;stroke-width:1px;stroke-linecap:butt;stroke-linejoin:miter;stroke-opacity:1" d="M 881.291,422.457 885.88,413.28 z" id="boundary" inkscape:connector-curvature="0" />
	<path style="fill:none;stroke:red;stroke-width:1px;stroke-linecap:butt;stroke-linejoin:miter;stroke-opacity:1" d="M 885.88,413.28 890.468,399.515 z" id="boundary" inkscape:connector-curvature="0" />
	<path style="fill:none;stroke:red;stroke-width:1px;stroke-linecap:butt;stroke-linejoin:miter;stroke-opacity:1" d="M 888.633,164.592 897.809,164.592 z" id="boundary" inkscape:connector-curvature="0" />
	<path style="fill:none;stroke:red;stroke-width:1px;stroke-linecap:butt;stroke-linejoin:miter;stroke-opacity:1" d="M 890.468,362.809 890.468,371.985 z" id="boundary" inkscape:connector-curvature="0" />
	<path style="fill:none;stroke:red;stroke-width:1px;stroke-linecap:butt;stroke-linejoin:miter;stroke-opacity:1" d="M 890.468,362.809 895.056,353.632 z" id="boundary" inkscape:connector-curvature="0" />
	<path style="fill:none;stroke:red;stroke-width:1px;stroke-linecap:butt;stroke-linejoin:miter;stroke-opacity:1" d="M 890.468,371.985 890.468,381.162 z" id="boundary" inkscape:connector-curvature="0" />
	<path style="fill:none;stroke:red;stroke-width:1px;stroke-linecap:butt;stroke-linejoin:miter;stroke-opacity:1" d="M 890.468,381.162 890.468,390.339 z" id="boundary" inkscape:connector-curvature="0" />
	<path style="fill:none;stroke:red;stroke-width:1px;stroke-linecap:butt;stroke-linejoin:miter;stroke-opacity:1" d="M 890.468,390.339 890.468,399.515 z" id="boundary" inkscape:connector-curvature="0" />
	<path style="fill:none;stroke:red;stroke-width:1px;stroke-linecap:butt;stroke-linejoin:miter;stroke-opacity:1" d="M 895.056,353.632 902.398,347.208 z" id="boundary" inkscape:connector-curvature="0" />
	<path style="fill:none;stroke:red;stroke-width:1px;stroke-linecap:butt;stroke-linejoin:miter;stroke-opacity:1" d="M 897.809,164.592 906.986,164.592 z" id="boundary" inkscape:connector-curvature="0" />
	<path style="fill:none;stroke:red;stroke-width:1px;stroke-linecap:butt;stroke-linejoin:miter;stroke-opacity:1" d="M 902.398,347.208 908.821,339.867 z" id="boundary" inkscape:connector-curvature="0" />
	<path style="fill:none;stroke:red;stroke-width:1px;stroke-linecap:butt;stroke-linejoin:miter;stroke-opacity:1" d="M 906.986,164.592 916.163,164.592 z" id="boundary" inkscape:connector-curvature="0" />
	<path style="fill:none;stroke:red;stroke-width:1px;stroke-linecap:butt;stroke-linejoin:miter;stroke-opacity:1" d="M 908.821,339.867 917.998,339.867 z" id="boundary" inkscape:connector-curvature="0" />
	<path style="fill:none;stroke:red;stroke-width:1px;stroke-linecap:butt;stroke-linejoin:miter;stroke-opacity:1" d="M 916.163,164.592 925.34,164.592 z" id="boundary" inkscape:connector-curvature="0" />
	<path style="fill:none;stroke:red;stroke-width:1px;stroke-linecap:butt;stroke-linejoin:miter;stroke-opacity:1" d="M 917.998,339.867 926.257,335.278 z" id="boundary" inkscape:connector-curvature="0" />
	<path style="fill:none;stroke:red;stroke-width:1px;stroke-linecap:butt;stroke-linejoin:miter;stroke-opacity:1" d="M 925.34,164.592 934.516,164.592 z" id="boundary" inkscape:connector-curvature="0" />
	<path style="fill:none;stroke:red;stroke-width:1px;stroke-linecap:butt;stroke-linejoin:miter;stroke-opacity:1" d="M 926.257,335.278 934.516,330.69 z" id="boundary" inkscape:connector-curvature="0" />
	<path style="fill:none;stroke:red;stroke-width:1px;stroke-linecap:butt;stroke-linejoin:miter;stroke-opacity:1" d="M 934.516,164.592 943.693,164.592 z" id="boundary" inkscape:connector-curvature="0" />
	<path style="fill:none;stroke:red;stroke-width:1px;stroke-linecap:butt;stroke-linejoin:miter;stroke-opacity:1" d="M 934.516,330.69 942.775,326.102 z" id="boundary" inkscape:connector-curvature="0" />
	<path style="fill:none;stroke:red;stroke-width:1px;stroke-linecap:butt;stroke-linejoin:miter;stroke-opacity:1" d="M 942.775,326.102 951.034,321.513 z" id="boundary" inkscape:connector-curvature="0" />
	<path style="fill:none;stroke:red;stroke-width:1px;stroke-linecap:butt;stroke-linejoin:miter;stroke-opacity:1" d="M 943.693,164.592 952.87,164.592 z" id="boundary" inkscape:connector-curvature="0" />
	<path style="fill:none;stroke:red;stroke-width:1px;stroke-linecap:butt;stroke-linejoin:miter;stroke-opacity:1" d="M 951.034,321.513 958.376,314.172 z" id="boundary" inkscape:connector-curvature="0" />
	<path style="fill:none;stroke:red;stroke-width:1px;stroke-linecap:butt;stroke-linejoin:miter;stroke-opacity:1" d="M 952.87,164.592 962.046,164.592 z" id="boundary" inkscape:connector-curvature="0" />
	<path style="fill:none;stroke:red;stroke-width:1px;stroke-linecap:butt;stroke-linejoin:miter;stroke-opacity:1" d="M 958.376,314.172 963.882,298.572 z" id="boundary" inkscape:connector-curvature="0" />
	<path style="fill:none;stroke:red;stroke-width:1px;stroke-linecap:butt;stroke-linejoin:miter;stroke-opacity:1" d="M 962.046,164.592 970.305,169.18 z" id="boundary" inkscape:connector-curvature="0" />
	<path style="fill:none;stroke:red;stroke-width:1px;stroke-linecap:butt;stroke-linejoin:miter;stroke-opacity:1" d="M 963.882,271.042 963.882,280.218 z" id="boundary" inkscape:connector-curvature="0" />
	<path style="fill:none;stroke:red;stroke-width:1px;stroke-linecap:butt;stroke-linejoin:miter;stroke-opacity:1" d="M 963.882,271.042 968.47,261.865 z" id="boundary" inkscape:connector-curvature="0" />
	<path style="fill:none;stroke:red;stroke-width:1px;stroke-linecap:butt;stroke-linejoin:miter;stroke-opacity:1" d="M 963.882,280.218 963.882,289.395 z" id="boundary" inkscape:connector-curvature="0" />
	<path style="fill:none;stroke:red;stroke-width:1px;stroke-linecap:butt;stroke-linejoin:miter;stroke-opacity:1" d="M 963.882,289.395 963.882,298.572 z" id="boundary" inkscape:connector-curvature="0" />
	<path style="fill:none;stroke:red;stroke-width:1px;stroke-linecap:butt;stroke-linejoin:miter;stroke-opacity:1" d="M 968.47,261.865 973.058,252.688 z" id="boundary" inkscape:connector-curvature="0" />
	<path style="fill:none;stroke:red;stroke-width:1px;stroke-linecap:butt;stroke-linejoin:miter;stroke-opacity:1" d="M 970.305,169.18 976.729,176.522 z" id="boundary" inkscape:connector-curvature="0" />
	<path style="fill:none;stroke:red;stroke-width:1px;stroke-linecap:butt;stroke-linejoin:miter;stroke-opacity:1" d="M 973.058,252.688 982.235,252.688 z" id="boundary" inkscape:connector-curvature="0" />
	<path style="fill:none;stroke:red;stroke-width:1px;stroke-linecap:butt;stroke-linejoin:miter;stroke-opacity:1" d="M 976.729,176.522 977.647,185.698 z" id="boundary" inkscape:connector-curvature="0" />
	<path style="fill:none;stroke:red;stroke-width:1px;stroke-linecap:butt;stroke-linejoin:miter;stroke-opacity:1" d="M 977.647,185.698 977.647,194.875 z" id="boundary" inkscape:connector-curvature="0" />
	<path style="fill:none;stroke:red;stroke-width:1px;stroke-linecap:butt;stroke-linejoin:miter;stroke-opacity:1" d="M 977.647,194.875 984.988,201.299 z" id="boundary" inkscape:connector-curvature="0" />
	<path style="fill:none;stroke:red;stroke-width:1px;stroke-linecap:butt;stroke-linejoin:miter;stroke-opacity:1" d="M 982.235,252.688 989.576,246.265 z" id="boundary" inkscape:connector-curvature="0" />
	<path style="fill:none;stroke:red;stroke-width:1px;stroke-linecap:butt;stroke-linejoin:miter;stroke-opacity:1" d="M 984.988,201.299 991.412,208.64 z" id="boundary" inkscape:connector-curvature="0" />
	<path style="fill:none;stroke:red;stroke-width:1px;stroke-linecap:butt;stroke-linejoin:miter;stroke-opacity:1" d="M 989.576,246.265 996,235.253 z" id="boundary" inkscape:connector-curvature="0" />
	<path style="fill:none;stroke:red;stroke-width:1px;stroke-linecap:butt;stroke-linejoin:miter;stroke-opacity:1" d="M 991.412,208.64 996,216.899 z" id="boundary" inkscape:connector-curvature="0" />
	<path style="fill:none;stroke:red;stroke-width:1px;stroke-linecap:butt;stroke-linejoin:miter;stroke-opacity:1" d="M 996,216.899 996,226.076 z" id="boundary" inkscape:connector-curvature="0" />
	<path style="fill:none;stroke:red;stroke-width:1px;stroke-linecap:butt;stroke-linejoin:miter;stroke-opacity:1" d="M 996,226.076 996,235.253 z" id="boundary" inkscape:connector-curvature="0" />
	<circle cx="4" cy="236.17" r="4" fill="#0" id="circle0"/>
	<circle cx="8.58834" cy="226.994" r="4" fill="#0" id="circle1"/>
	<circle cx="8.58834" cy="244.429" r="4" fill="#0" id="circle2"/>
	<circle cx="8.58834" cy="253.606" r="4" fill="#0" id="circle3"/>
	<circle cx="8.58834" cy="262.783" r="4" fill="#0" id="circle4"/>
	<circle cx="13.1767" cy="271.042" r="4" fill="#0" id="circle5"/>
	<circle cx="15.9297" cy="219.652" r="4" fill="#0" id="circle6"/>
	<circle cx="15.9297" cy="280.218" r="4" fill="#0" id="circle7"/>
	<circle cx="20.518" cy="288.477" r="4" fill="#0" id="circle8"/>
	<circle cx="22.3534" cy="297.654" r="4" fill="#0" id="circle9"/>
	<circle cx="22.3534" cy="306.831" r="4" fill="#0" id="circle10"/>
	<circle cx="22.3534" cy="316.007" r="4" fill="#0" id="circle11"/>
	<circle cx="22.3534" cy="325.184" r="4" fill="#0" id="circle12"/>
	<circle cx="22.3534" cy="334.361" r="4" fill="#0" id="circle13"/>
	<circle cx="22.3534" cy="343.537" r="4" fill="#0" id="circle14"/>
	<circle cx="22.3534" cy="352.714" r="4" fill="#0" id="circle15"/>
	<circle cx="22.3534" cy="361.891" r="4" fill="#0" id="circle16"/>
	<circle cx="22.3534" cy="371.068" r="4" fill="#0" id="circle17"/>
	<circle cx="24.1887" cy="380.244" r="4" fill="#0" id="circle18"/>
	<circle cx="25.1064" cy="215.064" r="4" fill="#0" id="circle19"/>
	<circle cx="26.9417" cy="389.421" r="4" fill="#0" id="circle20"/>
	<circle cx="26.9417" cy="398.598" r="4" fill="#0" id="circle21"/>
	<circle cx="31.5301" cy="406.857" r="4" fill="#0" id="circle22"/>
	<circle cx="31.5301" cy="416.033" r="4" fill="#0" id="circle23"/>
	<circle cx="34.2831" cy="210.475" r="4" fill="#0" id="circle24"/>
	<circle cx="36.1184" cy="424.292" r="4" fill="#0" id="circle25"/>
	<circle cx="36.1184" cy="433.469" r="4" fill="#0" id="circle26"/>
	<circle cx="40.7068" cy="441.728" r="4" fill="#0" id="circle27"/>
	<circle cx="42.5421" cy="205.887" r="4" fill="#0" id="circle28"/>
	<circle cx="45.2951" cy="449.987" r="4" fill="#0" id="circle29"/>
	<circle cx="50.8011" cy="201.299" r="4" fill="#0" id="circle30"/>
	<circle cx="53.5541" cy="454.575" r="4" fill="#0" id="circle31"/>
	<circle cx="59.0601" cy="196.71" r="4" fill="#0" id="circle32"/>
	<circle cx="61.8131" cy="459.164" r="4" fill="#0" id="circle33"/>
	<circle cx="67.3191" cy="192.122" r="4" fill="#0" id="circle34"/>
	<circle cx="70.9898" cy="459.164" r="4" fill="#0" id="circle35"/>
	<circle cx="76.4958" cy="192.122" r="4" fill="#0" id="circle36"/>
	<circle cx="80.1665" cy="459.164" r="4" fill="#0" id="circle37"/>
	<circle cx="85.6725" cy="192.122" r="4" fill="#0" id="circle38"/>
	<circle cx="89.3432" cy="459.164" r="4" fill="#0" id="circle39"/>
	<circle cx="93.9315" cy="187.534" r="4" fill="#0" id="circle40"/>
	<circle cx="98.5199" cy="459.164" r="4" fill="#0" id="circle41"/>
	<circle cx="103.108" cy="182.945" r="4" fill="#0" id="circle42"/>
	<circle cx="106.779" cy="454.575" r="4" fill="#0" id="circle43"/>
	<circle cx="112.285" cy="178.357" r="4" fill="#0" id="circle44"/>
	<circle cx="115.038" cy="449.987" r="4" fill="#0" id="circle45"/>
	<circle cx="121.462" cy="178.357" r="4" fill="#0" id="circle46"/>
	<circle cx="123.297" cy="445.399" r="4" fill="#0" id="circle47"/>
	<circle cx="130.638" cy="173.769" r="4" fill="#0" id="circle48"/>
	<circle cx="130.638" cy="439.893" r="4" fill="#0" id="circle49"/>
	<circle cx="137.98" cy="431.634" r="4" fill="#0" id="circle50"/>
	<circle cx="139.815" cy="173.769" r="4" fill="#0" id="circle51"/>
	<circle cx="147.156" cy="431.634" r="4" fill="#0" id="circle52"/>
	<circle cx="148.992" cy="173.769" r="4" fill="#0" id="circle53"/>
	<circle cx="156.333" cy="431.634" r="4" fill="#0" id="circle54"/>
	<circle cx="158.168" cy="173.769" r="4" fill="#0" id="circle55"/>
	<circle cx="165.51" cy="431.634" r="4" fill="#0" id="circle56"/>
	<circle cx="167.345" cy="173.769" r="4" fill="#0" id="circle57"/>
	<circle cx="174.686" cy="431.634" r="4" fill="#0" id="circle58"/>
	<circle cx="176.522" cy="173.769" r="4" fill="#0" id="circle59"/>
	<circle cx="183.863" cy="431.634" r="4" fill="#0" id="circle60"/>
	<circle cx="185.698" cy="173.769" r="4" fill="#0" id="circle61"/>
	<circle cx="193.04" cy="431.634" r="4" fill="#0" id="circle62"/>
	<circle cx="194.875" cy="173.769" r="4" fill="#0" id="circle63"/>
	<circle cx="202.216" cy="431.634" r="4" fill="#0" id="circle64"/>
	<circle cx="204.052" cy="173.769" r="4" fill="#0" id="circle65"/>
	<circle cx="211.393" cy="431.634" r="4" fill="#0" id="circle66"/>
	<circle cx="213.228" cy="173.769" r="4" fill="#0" id="circle67"/>
	<circle cx="220.57" cy="431.634" r="4" fill="#0" id="circle68"/>
	<circle cx="222.405" cy="173.769" r="4" fill="#0" id="circle69"/>
	<circle cx="229.747" cy="431.634" r="4" fill="#0" id="circle70"/>
	<circle cx="231.582" cy="173.769" r="4" fill="#0" id="circle71"/>
	<circle cx="238.923" cy="431.634" r="4" fill="#0" id="circle72"/>
	<circle cx="240.759" cy="173.769" r="4" fill="#0" id="circle73"/>
	<circle cx="248.1" cy="431.634" r="4" fill="#0" id="circle74"/>
	<circle cx="249.935" cy="173.769" r="4" fill="#0" id="circle75"/>
	<circle cx="257.277" cy="431.634" r="4" fill="#0" id="circle76"/>
	<circle cx="259.112" cy="173.769" r="4" fill="#0" id="circle77"/>
	<circle cx="266.453" cy="166.427" r="4" fill="#0" id="circle78"/>
	<circle cx="266.453" cy="431.634" r="4" fill="#0" id="circle79"/>
	<circle cx="270.124" cy="148.992" r="4" fill="#0" id="circle80"/>
	<circle cx="274.712" cy="139.815" r="4" fill="#0" id="circle81"/>
	<circle cx="275.63" cy="431.634" r="4" fill="#0" id="circle82"/>
	<circle cx="282.054" cy="132.474" r="4" fill="#0" id="circle83"/>
	<circle cx="284.807" cy="431.634" r="4" fill="#0" id="circle84"/>
	<circle cx="291.23" cy="127.885" r="4" fill="#0" id="circle85"/>
	<circle cx="293.983" cy="431.634" r="4" fill="#0" id="circle86"/>
	<circle cx="300.407" cy="127.885" r="4" fill="#0" id="circle87"/>
	<circle cx="303.16" cy="431.634" r="4" fill="#0" id="circle88"/>
	<circle cx="309.584" cy="127.885" r="4" fill="#0" id="circle89"/>
	<circle cx="312.337" cy="427.045" r="4" fill="#0" id="circle90"/>
	<circle cx="318.76" cy="127.885" r="4" fill="#0" id="circle91"/>
	<circle cx="321.513" cy="427.045" r="4" fill="#0" id="circle92"/>
	<circle cx="327.937" cy="127.885" r="4" fill="#0" id="circle93"/>
	<circle cx="330.69" cy="427.045" r="4" fill="#0" id="circle94"/>
	<circle cx="335.278" cy="120.544" r="4" fill="#0" id="circle95"/>
	<circle cx="339.867" cy="427.045" r="4" fill="#0" id="circle96"/>
	<circle cx="342.62" cy="114.12" r="4" fill="#0" id="circle97"/>
	<circle cx="346.29" cy="104.944" r="4" fill="#0" id="circle98"/>
	<circle cx="348.126" cy="422.457" r="4" fill="#0" id="circle99"/>
	<circle cx="355.467" cy="100.355" r="4" fill="#0" id="circle100"/>
	<circle cx="357.302" cy="419.704" r="4" fill="#0" id="circle101"/>
	<circle cx="364.644" cy="100.355" r="4" fill="#0" id="circle102"/>
	<circle cx="366.479" cy="415.116" r="4" fill="#0" id="circle103"/>
	<circle cx="373.821" cy="95.7669" r="4" fill="#0" id="circle104"/>
	<circle cx="375.656" cy="410.527" r="4" fill="#0" id="circle105"/>
	<circle cx="382.997" cy="95.7669" r="4" fill="#0" id="circle106"/>
	<circle cx="384.833" cy="405.939" r="4" fill="#0" id="circle107"/>
	<circle cx="391.256" cy="91.1785" r="4" fill="#0" id="circle108"/>
	<circle cx="392.174" cy="399.515" r="4" fill="#0" id="circle109"/>
	<circle cx="400.433" cy="91.1785" r="4" fill="#0" id="circle110"/>
	<circle cx="400.433" cy="394.927" r="4" fill="#0" id="circle111"/>
	<circle cx="407.774" cy="97.6022" r="4" fill="#0" id="circle112"/>
	<circle cx="408.692" cy="390.339" r="4" fill="#0" id="circle113"/>
	<circle cx="413.28" cy="104.944" r="4" fill="#0" id="circle114"/>
	<circle cx="417.869" cy="390.339" r="4" fill="#0" id="circle115"/>
	<circle cx="420.622" cy="110.45" r="4" fill="#0" id="circle116"/>
	<circle cx="426.128" cy="394.927" r="4" fill="#0" id="circle117"/>
	<circle cx="426.128" cy="404.104" r="4" fill="#0" id="circle118"/>
	<circle cx="426.128" cy="413.28" r="4" fill="#0" id="circle119"/>
	<circle cx="427.045" cy="117.791" r="4" fill="#0" id="circle120"/>
	<circle cx="428.881" cy="422.457" r="4" fill="#0" id="circle121"/>
	<circle cx="430.716" cy="431.634" r="4" fill="#0" id="circle122"/>
	<circle cx="434.387" cy="123.297" r="4" fill="#0" id="circle123"/>
	<circle cx="435.304" cy="439.893" r="4" fill="#0" id="circle124"/>
	<circle cx="439.893" cy="448.152" r="4" fill="#0" id="circle125"/>
	<circle cx="442.646" cy="118.709" r="4" fill="#0" id="circle126"/>
	<circle cx="444.481" cy="456.411" r="4" fill="#0" id="circle127"/>
	<circle cx="449.069" cy="70.9898" r="4" fill="#0" id="circle128"/>
	<circle cx="449.069" cy="80.1665" r="4" fill="#0" id="circle129"/>
	<circle cx="449.069" cy="89.3432" r="4" fill="#0" id="circle130"/>
	<circle cx="449.069" cy="98.5199" r="4" fill="#0" id="circle131"/>
	<circle cx="449.069" cy="107.697" r="4" fill="#0" id="circle132"/>
	<circle cx="449.069" cy="464.67" r="4" fill="#0" id="circle133"/>
	<circle cx="453.658" cy="48.0481" r="4" fill="#0" id="circle134"/>
	<circle cx="453.658" cy="57.2248" r="4" fill="#0" id="circle135"/>
	<circle cx="455.493" cy="472.011" r="4" fill="#0" id="circle136"/>
	<circle cx="458.246" cy="38.8714" r="4" fill="#0" id="circle137"/>
	<circle cx="462.834" cy="29.6947" r="4" fill="#0" id="circle138"/>
	<circle cx="462.834" cy="477.517" r="4" fill="#0" id="circle139"/>
	<circle cx="470.176" cy="22.3534" r="4" fill="#0" id="circle140"/>
	<circle cx="471.093" cy="482.105" r="4" fill="#0" id="circle141"/>
	<circle cx="477.517" cy="15.012" r="4" fill="#0" id="circle142"/>
	<circle cx="480.27" cy="482.105" r="4" fill="#0" id="circle143"/>
	<circle cx="486.694" cy="10.4237" r="4" fill="#0" id="circle144"/>
	<circle cx="489.447" cy="482.105" r="4" fill="#0" id="circle145"/>
	<circle cx="495.87" cy="8.58834" r="4" fill="#0" id="circle146"/>
	<circle cx="498.623" cy="480.27" r="4" fill="#0" id="circle147"/>
	<circle cx="505.047" cy="5.83534" r="4" fill="#0" id="circle148"/>
	<circle cx="507.8" cy="475.682" r="4" fill="#0" id="circle149"/>
	<circle cx="514.224" cy="4" r="4" fill="#0" id="circle150"/>
	<circle cx="514.224" cy="468.34" r="4" fill="#0" id="circle151"/>
	<circle cx="522.483" cy="463.752" r="4" fill="#0" id="circle152"/>
	<circle cx="523.401" cy="4" r="4" fill="#0" id="circle153"/>
	<circle cx="529.824" cy="458.246" r="4" fill="#0" id="circle154"/>
	<circle cx="532.577" cy="4" r="4" fill="#0" id="circle155"/>
	<circle cx="537.166" cy="449.987" r="4" fill="#0" id="circle156"/>
	<circle cx="541.754" cy="4" r="4" fill="#0" id="circle157"/>
	<circle cx="544.507" cy="443.563" r="4" fill="#0" id="circle158"/>
	<circle cx="550.931" cy="4" r="4" fill="#0" id="circle159"/>
	<circle cx="550.931" cy="436.222" r="4" fill="#0" id="circle160"/>
	<circle cx="558.272" cy="429.798" r="4" fill="#0" id="circle161"/>
	<circle cx="559.19" cy="8.58834" r="4" fill="#0" id="circle162"/>
	<circle cx="564.696" cy="422.457" r="4" fill="#0" id="circle163"/>
	<circle cx="568.366" cy="8.58834" r="4" fill="#0" id="circle164"/>
	<circle cx="569.284" cy="413.28" r="4" fill="#0" id="circle165"/>
	<circle cx="573.872" cy="394.927" r="4" fill="#0" id="circle166"/>
	<circle cx="573.872" cy="404.104" r="4" fill="#0" id="circle167"/>
	<circle cx="577.543" cy="10.4237" r="4" fill="#0" id="circle168"/>
	<circle cx="583.049" cy="394.927" r="4" fill="#0" id="circle169"/>
	<circle cx="586.72" cy="13.1767" r="4" fill="#0" id="circle170"/>
	<circle cx="592.226" cy="394.927" r="4" fill="#0" id="circle171"/>
	<circle cx="594.979" cy="17.765" r="4" fill="#0" id="circle172"/>
	<circle cx="600.485" cy="390.339" r="4" fill="#0" id="circle173"/>
	<circle cx="604.155" cy="17.765" r="4" fill="#0" id="circle174"/>
	<circle cx="609.661" cy="390.339" r="4" fill="#0" id="circle175"/>
	<circle cx="613.332" cy="18.6827" r="4" fill="#0" id="circle176"/>
	<circle cx="618.838" cy="390.339" r="4" fill="#0" id="circle177"/>
	<circle cx="621.591" cy="23.271" r="4" fill="#0" id="circle178"/>
	<circle cx="628.015" cy="390.339" r="4" fill="#0" id="circle179"/>
	<circle cx="630.768" cy="26.9417" r="4" fill="#0" id="circle180"/>
	<circle cx="637.191" cy="390.339" r="4" fill="#0" id="circle181"/>
	<circle cx="639.027" cy="31.5301" r="4" fill="#0" id="circle182"/>
	<circle cx="646.368" cy="390.339" r="4" fill="#0" id="circle183"/>
	<circle cx="648.204" cy="31.5301" r="4" fill="#0" id="circle184"/>
	<circle cx="655.545" cy="390.339" r="4" fill="#0" id="circle185"/>
	<circle cx="657.38" cy="31.5301" r="4" fill="#0" id="circle186"/>
	<circle cx="664.722" cy="390.339" r="4" fill="#0" id="circle187"/>
	<circle cx="665.639" cy="36.1184" r="4" fill="#0" id="circle188"/>
	<circle cx="673.898" cy="390.339" r="4" fill="#0" id="circle189"/>
	<circle cx="674.816" cy="36.1184" r="4" fill="#0" id="circle190"/>
	<circle cx="683.075" cy="390.339" r="4" fill="#0" id="circle191"/>
	<circle cx="683.993" cy="36.1184" r="4" fill="#0" id="circle192"/>
	<circle cx="692.252" cy="390.339" r="4" fill="#0" id="circle193"/>
	<circle cx="693.169" cy="38.8714" r="4" fill="#0" id="circle194"/>
	<circle cx="701.428" cy="390.339" r="4" fill="#0" id="circle195"/>
	<circle cx="702.346" cy="40.7068" r="4" fill="#0" id="circle196"/>
	<circle cx="710.605" cy="390.339" r="4" fill="#0" id="circle197"/>
	<circle cx="711.523" cy="40.7068" r="4" fill="#0" id="circle198"/>
	<circle cx="719.782" cy="390.339" r="4" fill="#0" id="circle199"/>
	<circle cx="720.699" cy="40.7068" r="4" fill="#0" id="circle200"/>
	<circle cx="728.958" cy="390.339" r="4" fill="#0" id="circle201"/>
	<circle cx="729.876" cy="40.7068" r="4" fill="#0" id="circle202"/>
	<circle cx="738.135" cy="390.339" r="4" fill="#0" id="circle203"/>
	<circle cx="739.053" cy="40.7068" r="4" fill="#0" id="circle204"/>
	<circle cx="747.312" cy="390.339" r="4" fill="#0" id="circle205"/>
	<circle cx="748.229" cy="43.4598" r="4" fill="#0" id="circle206"/>
	<circle cx="756.488" cy="48.0481" r="4" fill="#0" id="circle207"/>
	<circle cx="756.488" cy="390.339" r="4" fill="#0" id="circle208"/>
	<circle cx="761.077" cy="56.3071" r="4" fill="#0" id="circle209"/>
	<circle cx="761.077" cy="398.598" r="4" fill="#0" id="circle210"/>
	<circle cx="761.994" cy="65.4838" r="4" fill="#0" id="circle211"/>
	<circle cx="761.994" cy="74.6605" r="4" fill="#0" id="circle212"/>
	<circle cx="761.994" cy="83.8372" r="4" fill="#0" id="circle213"/>
	<circle cx="761.994" cy="93.0139" r="4" fill="#0" id="circle214"/>
	<circle cx="761.994" cy="102.191" r="4" fill="#0" id="circle215"/>
	<circle cx="761.994" cy="111.367" r="4" fill="#0" id="circle216"/>
	<circle cx="761.994" cy="120.544" r="4" fill="#0" id="circle217"/>
	<circle cx="764.747" cy="129.721" r="4" fill="#0" id="circle218"/>
	<circle cx="765.665" cy="406.857" r="4" fill="#0" id="circle219"/>
	<circle cx="770.253" cy="415.116" r="4" fill="#0" id="circle220"/>
	<circle cx="773.924" cy="133.391" r="4" fill="#0" id="circle221"/>
	<circle cx="774.842" cy="423.375" r="4" fill="#0" id="circle222"/>
	<circle cx="782.183" cy="137.98" r="4" fill="#0" id="circle223"/>
	<circle cx="784.019" cy="427.045" r="4" fill="#0" id="circle224"/>
	<circle cx="791.36" cy="141.65" r="4" fill="#0" id="circle225"/>
	<circle cx="792.278" cy="431.634" r="4" fill="#0" id="circle226"/>
	<circle cx="799.619" cy="146.239" r="4" fill="#0" id="circle227"/>
	<circle cx="800.537" cy="436.222" r="4" fill="#0" id="circle228"/>
	<circle cx="807.878" cy="150.827" r="4" fill="#0" id="circle229"/>
	<circle cx="809.713" cy="436.222" r="4" fill="#0" id="circle230"/>
	<circle cx="816.137" cy="155.415" r="4" fill="#0" id="circle231"/>
	<circle cx="818.89" cy="436.222" r="4" fill="#0" id="circle232"/>
	<circle cx="825.314" cy="155.415" r="4" fill="#0" id="circle233"/>
	<circle cx="828.067" cy="436.222" r="4" fill="#0" id="circle234"/>
	<circle cx="833.573" cy="160.004" r="4" fill="#0" id="circle235"/>
	<circle cx="837.243" cy="436.222" r="4" fill="#0" id="circle236"/>
	<circle cx="842.749" cy="160.004" r="4" fill="#0" id="circle237"/>
	<circle cx="846.42" cy="435.304" r="4" fill="#0" id="circle238"/>
	<circle cx="851.926" cy="160.004" r="4" fill="#0" id="circle239"/>
	<circle cx="855.597" cy="431.634" r="4" fill="#0" id="circle240"/>
	<circle cx="861.103" cy="160.921" r="4" fill="#0" id="circle241"/>
	<circle cx="863.856" cy="427.045" r="4" fill="#0" id="circle242"/>
	<circle cx="870.279" cy="164.592" r="4" fill="#0" id="circle243"/>
	<circle cx="873.032" cy="427.045" r="4" fill="#0" id="circle244"/>
	<circle cx="879.456" cy="164.592" r="4" fill="#0" id="circle245"/>
	<circle cx="881.291" cy="422.457" r="4" fill="#0" id="circle246"/>
	<circle cx="885.88" cy="413.28" r="4" fill="#0" id="circle247"/>
	<circle cx="888.633" cy="164.592" r="4" fill="#0" id="circle248"/>
	<circle cx="890.468" cy="362.809" r="4" fill="#0" id="circle249"/>
	<circle cx="890.468" cy="371.985" r="4" fill="#0" id="circle250"/>
	<circle cx="890.468" cy="381.162" r="4" fill="#0" id="circle251"/>
	<circle cx="890.468" cy="390.339" r="4" fill="#0" id="circle252"/>
	<circle cx="890.468" cy="399.515" r="4" fill="#0" id="circle253"/>
	<circle cx="895.056" cy="353.632" r="4" fill="#0" id="circle254"/>
	<circle cx="897.809" cy="164.592" r="4" fill="#0" id="circle255"/>
	<circle cx="902.398" cy="347.208" r="4" fill="#0" id="circle256"/>
	<circle cx="906.986" cy="164.592" r="4" fill="#0" id="circle257"/>
	<circle cx="908.821" cy="339.867" r="4" fill="#0" id="circle258"/>
	<circle cx="916.163" cy="164.592" r="4" fill="#0" id="circle259"/>
	<circle cx="917.998" cy="339.867" r="4" fill="#0" id="circle260"/>
	<circle cx="925.34" cy="164.592" r="4" fill="#0" id="circle261"/>
	<circle cx="926.257" cy="335.278" r="4" fill="#0" id="circle262"/>
	<circle cx="934.516" cy="164.592" r="4" fill="#0" id="circle263"/>
	<circle cx="934.516" cy="330.69" r="4" fill="#0" id="circle264"/>
	<circle cx="942.775" cy="326.102" r="4" fill="#0" id="circle265"/>
	<circle cx="943.693" cy="164.592" r="4" fill="#0" id="circle266"/>
	<circle cx="951.034" cy="321.513" r="4" fill="#0" id="circle267"/>
	<circle cx="952.87" cy="164.592" r="4" fill="#0" id="circle268"/>
	<circle cx="958.376" cy="314.172" r="4" fill="#0" id="circle269"/>
	<circle cx="962.046" cy="164.592" r="4" fill="#0" id="circle270"/>
	<circle cx="963.882" cy="271.042" r="4" fill="#0" id="circle271"/>
	<circle cx="963.882" cy="280.218" r="4" fill="#0" id="circle272"/>
	<circle cx="963.882" cy="289.395" r="4" fill="#0" id="circle273"/>
	<circle cx="963.882" cy="298.572" r="4" fill="#0" id="circle274"/>
	<circle cx="968.47" cy="261.865" r="4" fill="#0" id="circle275"/>
	<circle cx="970.305" cy="169.18" r="4" fill="#0" id="circle276"/>
	<circle cx="973.058" cy="252.688" r="4" fill="#0" id="circle277"/>
	<circle cx="976.729" cy="176.522" r="4" fill="#0" id="circle278"/>
	<circle cx="977.647" cy="185.698" r="4" fill="#0" id="circle279"/>
	<circle cx="977.647" cy="194.875" r="4" fill="#0" id="circle280"/>
	<circle cx="982.235" cy="252.688" r="4" fill="#0" id="circle281"/>
	<circle cx="984.988" cy="201.299" r="4" fill="#0" id="circle282"/>
	<circle cx="989.576" cy="246.265" r="4" fill="#0" id="circle283"/>
	<circle cx="991.412" cy="208.64" r="4" fill="#0" id="circle284"/>
	<circle cx="996" cy="216.899" r="4" fill="#0" id="circle285"/>
	<circle cx="996" cy="226.076" r="4" fill="#0" id="circle286"/>
	<circle cx="996" cy="235.253" r="4" fill="#0" id="circle287"/>
	</g>
</svg>