<?xml version="1.0" encoding="UTF-8" standalone="no"?>
<!-- Created with CurveBenchmark -->
<svg
	xmlns:dc="http://purl.org/dc/elements/1.1/"
	xmlns:cc="http://creativecommons.org/ns#"
	xmlns:rdf="http://www.w3.org/1999/02/22-rdf-syntax-ns#"
	xmlns:svg="http://www.w3.org/2000/svg"
	xmlns="http://www.w3.org/2000/svg"
	xmlns:sodipodi="http://sodipodi.sourceforge.net/DTD/sodipodi-0.dtd"
	xmlns:inkscape="http://www.inkscape.org/namespaces/inkscape"
	width="1000"
	height="1000"
	id="svg2"
	version="1.1"
	sodipodi:docname="manifold/fitconnect-dude4occ4.png.txt">
<defs
	id="defs4" />
<metadata
	id="metadata7">
	<rdf:RDF>
		<cc:Work
			rdf:about="">
			<dc:format>image/svg+xml</dc:format>
			<dc:type
				rdf:resource="http://purl.org/dc/dcmitype/StillImage" />
			<dc:title></dc:title>
		</cc:Work>
	</rdf:RDF>
</metadata>
<g
	inkscape:label="Layer 1"
	inkscape:groupmode="layer"
	id="layer1">
	<path style="fill:none;stroke:red;stroke-width:1px;stroke-linecap:butt;stroke-linejoin:miter;stroke-opacity:1" d="M 4,428.56 4,448.971 z" id="boundary" inkscape:connector-curvature="0" />
	<path style="fill:none;stroke:red;stroke-width:1px;stroke-linecap:butt;stroke-linejoin:miter;stroke-opacity:1" d="M 4,428.56 14.2058,408.148 z" id="boundary" inkscape:connector-curvature="0" />
	<path style="fill:none;stroke:red;stroke-width:1px;stroke-linecap:butt;stroke-linejoin:miter;stroke-opacity:1" d="M 4,448.971 24.4115,455.095 z" id="boundary" inkscape:connector-curvature="0" />
	<path style="fill:none;stroke:red;stroke-width:1px;stroke-linecap:butt;stroke-linejoin:miter;stroke-opacity:1" d="M 14.2058,408.148 30.535,391.819 z" id="boundary" inkscape:connector-curvature="0" />
	<path style="fill:none;stroke:red;stroke-width:1px;stroke-linecap:butt;stroke-linejoin:miter;stroke-opacity:1" d="M 24.4115,455.095 46.8642,455.095 z" id="boundary" inkscape:connector-curvature="0" />
	<path style="fill:none;stroke:red;stroke-width:1px;stroke-linecap:butt;stroke-linejoin:miter;stroke-opacity:1" d="M 30.535,391.819 40.7407,371.407 z" id="boundary" inkscape:connector-curvature="0" />
	<path style="fill:none;stroke:red;stroke-width:1px;stroke-linecap:butt;stroke-linejoin:miter;stroke-opacity:1" d="M 40.7407,371.407 57.07,355.078 z" id="boundary" inkscape:connector-curvature="0" />
	<path style="fill:none;stroke:red;stroke-width:1px;stroke-linecap:butt;stroke-linejoin:miter;stroke-opacity:1" d="M 46.8642,455.095 63.1934,440.807 z" id="boundary" inkscape:connector-curvature="0" />
	<path style="fill:none;stroke:red;stroke-width:1px;stroke-linecap:butt;stroke-linejoin:miter;stroke-opacity:1" d="M 57.07,355.078 75.4403,336.708 z" id="boundary" inkscape:connector-curvature="0" />
	<path style="fill:none;stroke:red;stroke-width:1px;stroke-linecap:butt;stroke-linejoin:miter;stroke-opacity:1" d="M 63.1934,440.807 83.6049,430.601 z" id="boundary" inkscape:connector-curvature="0" />
	<path style="fill:none;stroke:red;stroke-width:1px;stroke-linecap:butt;stroke-linejoin:miter;stroke-opacity:1" d="M 75.4403,336.708 85.6461,316.296 z" id="boundary" inkscape:connector-curvature="0" />
	<path style="fill:none;stroke:red;stroke-width:1px;stroke-linecap:butt;stroke-linejoin:miter;stroke-opacity:1" d="M 83.6049,430.601 97.893,414.272 z" id="boundary" inkscape:connector-curvature="0" />
	<path style="fill:none;stroke:red;stroke-width:1px;stroke-linecap:butt;stroke-linejoin:miter;stroke-opacity:1" d="M 85.6461,316.296 95.8519,295.885 z" id="boundary" inkscape:connector-curvature="0" />
	<path style="fill:none;stroke:red;stroke-width:1px;stroke-linecap:butt;stroke-linejoin:miter;stroke-opacity:1" d="M 85.6461,949.053 85.6461,969.465 z" id="boundary" inkscape:connector-curvature="0" />
	<path style="fill:none;stroke:red;stroke-width:1px;stroke-linecap:butt;stroke-linejoin:miter;stroke-opacity:1" d="M 85.6461,949.053 95.8519,928.642 z" id="boundary" inkscape:connector-curvature="0" />
	<path style="fill:none;stroke:red;stroke-width:1px;stroke-linecap:butt;stroke-linejoin:miter;stroke-opacity:1" d="M 85.6461,969.465 97.893,985.794 z" id="boundary" inkscape:connector-curvature="0" />
	<path style="fill:none;stroke:red;stroke-width:1px;stroke-linecap:butt;stroke-linejoin:miter;stroke-opacity:1" d="M 95.8519,295.885 112.181,279.556 z" id="boundary" inkscape:connector-curvature="0" />
	<path style="fill:none;stroke:red;stroke-width:1px;stroke-linecap:butt;stroke-linejoin:miter;stroke-opacity:1" d="M 95.8519,928.642 106.058,898.025 z" id="boundary" inkscape:connector-curvature="0" />
	<path style="fill:none;stroke:red;stroke-width:1px;stroke-linecap:butt;stroke-linejoin:miter;stroke-opacity:1" d="M 97.893,414.272 114.222,399.984 z" id="boundary" inkscape:connector-curvature="0" />
	<path style="fill:none;stroke:red;stroke-width:1px;stroke-linecap:butt;stroke-linejoin:miter;stroke-opacity:1" d="M 97.893,985.794 118.305,985.794 z" id="boundary" inkscape:connector-curvature="0" />
	<path style="fill:none;stroke:red;stroke-width:1px;stroke-linecap:butt;stroke-linejoin:miter;stroke-opacity:1" d="M 106.058,898.025 122.387,881.695 z" id="boundary" inkscape:connector-curvature="0" />
	<path style="fill:none;stroke:red;stroke-width:1px;stroke-linecap:butt;stroke-linejoin:miter;stroke-opacity:1" d="M 112.181,279.556 122.387,259.144 z" id="boundary" inkscape:connector-curvature="0" />
	<path style="fill:none;stroke:red;stroke-width:1px;stroke-linecap:butt;stroke-linejoin:miter;stroke-opacity:1" d="M 114.222,399.984 128.51,383.654 z" id="boundary" inkscape:connector-curvature="0" />
	<path style="fill:none;stroke:red;stroke-width:1px;stroke-linecap:butt;stroke-linejoin:miter;stroke-opacity:1" d="M 118.305,985.794 138.716,975.588 z" id="boundary" inkscape:connector-curvature="0" />
	<path style="fill:none;stroke:red;stroke-width:1px;stroke-linecap:butt;stroke-linejoin:miter;stroke-opacity:1" d="M 122.387,259.144 132.593,238.733 z" id="boundary" inkscape:connector-curvature="0" />
	<path style="fill:none;stroke:red;stroke-width:1px;stroke-linecap:butt;stroke-linejoin:miter;stroke-opacity:1" d="M 122.387,881.695 132.593,861.284 z" id="boundary" inkscape:connector-curvature="0" />
	<path style="fill:none;stroke:red;stroke-width:1px;stroke-linecap:butt;stroke-linejoin:miter;stroke-opacity:1" d="M 128.51,383.654 138.716,363.243 z" id="boundary" inkscape:connector-curvature="0" />
	<path style="fill:none;stroke:red;stroke-width:1px;stroke-linecap:butt;stroke-linejoin:miter;stroke-opacity:1" d="M 132.593,238.733 148.922,222.403 z" id="boundary" inkscape:connector-curvature="0" />
	<path style="fill:none;stroke:red;stroke-width:1px;stroke-linecap:butt;stroke-linejoin:miter;stroke-opacity:1" d="M 132.593,861.284 142.798,840.872 z" id="boundary" inkscape:connector-curvature="0" />
	<path style="fill:none;stroke:red;stroke-width:1px;stroke-linecap:butt;stroke-linejoin:miter;stroke-opacity:1" d="M 138.716,363.243 159.128,353.037 z" id="boundary" inkscape:connector-curvature="0" />
	<path style="fill:none;stroke:red;stroke-width:1px;stroke-linecap:butt;stroke-linejoin:miter;stroke-opacity:1" d="M 138.716,975.588 159.128,965.383 z" id="boundary" inkscape:connector-curvature="0" />
	<path style="fill:none;stroke:red;stroke-width:1px;stroke-linecap:butt;stroke-linejoin:miter;stroke-opacity:1" d="M 142.798,840.872 146.881,816.379 z" id="boundary" inkscape:connector-curvature="0" />
	<path style="fill:none;stroke:red;stroke-width:1px;stroke-linecap:butt;stroke-linejoin:miter;stroke-opacity:1" d="M 146.881,816.379 167.292,806.173 z" id="boundary" inkscape:connector-curvature="0" />
	<path style="fill:none;stroke:red;stroke-width:1px;stroke-linecap:butt;stroke-linejoin:miter;stroke-opacity:1" d="M 148.922,222.403 169.333,212.198 z" id="boundary" inkscape:connector-curvature="0" />
	<path style="fill:none;stroke:red;stroke-width:1px;stroke-linecap:butt;stroke-linejoin:miter;stroke-opacity:1" d="M 159.128,353.037 177.498,342.831 z" id="boundary" inkscape:connector-curvature="0" />
	<path style="fill:none;stroke:red;stroke-width:1px;stroke-linecap:butt;stroke-linejoin:miter;stroke-opacity:1" d="M 159.128,965.383 175.457,951.095 z" id="boundary" inkscape:connector-curvature="0" />
	<path style="fill:none;stroke:red;stroke-width:1px;stroke-linecap:butt;stroke-linejoin:miter;stroke-opacity:1" d="M 167.292,806.173 183.621,789.844 z" id="boundary" inkscape:connector-curvature="0" />
	<path style="fill:none;stroke:red;stroke-width:1px;stroke-linecap:butt;stroke-linejoin:miter;stroke-opacity:1" d="M 169.333,212.198 189.745,201.992 z" id="boundary" inkscape:connector-curvature="0" />
	<path style="fill:none;stroke:red;stroke-width:1px;stroke-linecap:butt;stroke-linejoin:miter;stroke-opacity:1" d="M 175.457,951.095 189.745,934.765 z" id="boundary" inkscape:connector-curvature="0" />
	<path style="fill:none;stroke:red;stroke-width:1px;stroke-linecap:butt;stroke-linejoin:miter;stroke-opacity:1" d="M 177.498,342.831 195.868,332.626 z" id="boundary" inkscape:connector-curvature="0" />
	<path style="fill:none;stroke:red;stroke-width:1px;stroke-linecap:butt;stroke-linejoin:miter;stroke-opacity:1" d="M 183.621,789.844 193.827,769.432 z" id="boundary" inkscape:connector-curvature="0" />
	<path style="fill:none;stroke:red;stroke-width:1px;stroke-linecap:butt;stroke-linejoin:miter;stroke-opacity:1" d="M 189.745,201.992 210.156,197.909 z" id="boundary" inkscape:connector-curvature="0" />
	<path style="fill:none;stroke:red;stroke-width:1px;stroke-linecap:butt;stroke-linejoin:miter;stroke-opacity:1" d="M 189.745,934.765 206.074,920.477 z" id="boundary" inkscape:connector-curvature="0" />
	<path style="fill:none;stroke:red;stroke-width:1px;stroke-linecap:butt;stroke-linejoin:miter;stroke-opacity:1" d="M 193.827,769.432 208.115,744.938 z" id="boundary" inkscape:connector-curvature="0" />
	<path style="fill:none;stroke:red;stroke-width:1px;stroke-linecap:butt;stroke-linejoin:miter;stroke-opacity:1" d="M 195.868,332.626 214.239,322.42 z" id="boundary" inkscape:connector-curvature="0" />
	<path style="fill:none;stroke:red;stroke-width:1px;stroke-linecap:butt;stroke-linejoin:miter;stroke-opacity:1" d="M 206.074,920.477 220.362,893.942 z" id="boundary" inkscape:connector-curvature="0" />
	<path style="fill:none;stroke:red;stroke-width:1px;stroke-linecap:butt;stroke-linejoin:miter;stroke-opacity:1" d="M 208.115,744.938 218.321,724.527 z" id="boundary" inkscape:connector-curvature="0" />
	<path style="fill:none;stroke:red;stroke-width:1px;stroke-linecap:butt;stroke-linejoin:miter;stroke-opacity:1" d="M 210.156,197.909 228.527,187.704 z" id="boundary" inkscape:connector-curvature="0" />
	<path style="fill:none;stroke:red;stroke-width:1px;stroke-linecap:butt;stroke-linejoin:miter;stroke-opacity:1" d="M 214.239,322.42 234.65,322.42 z" id="boundary" inkscape:connector-curvature="0" />
	<path style="fill:none;stroke:red;stroke-width:1px;stroke-linecap:butt;stroke-linejoin:miter;stroke-opacity:1" d="M 218.321,724.527 234.65,708.198 z" id="boundary" inkscape:connector-curvature="0" />
	<path style="fill:none;stroke:red;stroke-width:1px;stroke-linecap:butt;stroke-linejoin:miter;stroke-opacity:1" d="M 220.362,893.942 236.691,879.654 z" id="boundary" inkscape:connector-curvature="0" />
	<path style="fill:none;stroke:red;stroke-width:1px;stroke-linecap:butt;stroke-linejoin:miter;stroke-opacity:1" d="M 228.527,187.704 246.897,177.498 z" id="boundary" inkscape:connector-curvature="0" />
	<path style="fill:none;stroke:red;stroke-width:1px;stroke-linecap:butt;stroke-linejoin:miter;stroke-opacity:1" d="M 234.65,322.42 244.856,340.79 z" id="boundary" inkscape:connector-curvature="0" />
	<path style="fill:none;stroke:red;stroke-width:1px;stroke-linecap:butt;stroke-linejoin:miter;stroke-opacity:1" d="M 234.65,708.198 244.856,687.786 z" id="boundary" inkscape:connector-curvature="0" />
	<path style="fill:none;stroke:red;stroke-width:1px;stroke-linecap:butt;stroke-linejoin:miter;stroke-opacity:1" d="M 236.691,879.654 250.979,863.325 z" id="boundary" inkscape:connector-curvature="0" />
	<path style="fill:none;stroke:red;stroke-width:1px;stroke-linecap:butt;stroke-linejoin:miter;stroke-opacity:1" d="M 244.856,340.79 248.938,361.202 z" id="boundary" inkscape:connector-curvature="0" />
	<path style="fill:none;stroke:red;stroke-width:1px;stroke-linecap:butt;stroke-linejoin:miter;stroke-opacity:1" d="M 244.856,687.786 255.062,667.374 z" id="boundary" inkscape:connector-curvature="0" />
	<path style="fill:none;stroke:red;stroke-width:1px;stroke-linecap:butt;stroke-linejoin:miter;stroke-opacity:1" d="M 246.897,177.498 267.309,177.498 z" id="boundary" inkscape:connector-curvature="0" />
	<path style="fill:none;stroke:red;stroke-width:1px;stroke-linecap:butt;stroke-linejoin:miter;stroke-opacity:1" d="M 248.938,361.202 248.938,381.613 z" id="boundary" inkscape:connector-curvature="0" />
	<path style="fill:none;stroke:red;stroke-width:1px;stroke-linecap:butt;stroke-linejoin:miter;stroke-opacity:1" d="M 248.938,381.613 259.144,399.984 z" id="boundary" inkscape:connector-curvature="0" />
	<path style="fill:none;stroke:red;stroke-width:1px;stroke-linecap:butt;stroke-linejoin:miter;stroke-opacity:1" d="M 250.979,863.325 261.185,842.914 z" id="boundary" inkscape:connector-curvature="0" />
	<path style="fill:none;stroke:red;stroke-width:1px;stroke-linecap:butt;stroke-linejoin:miter;stroke-opacity:1" d="M 255.062,667.374 271.391,651.045 z" id="boundary" inkscape:connector-curvature="0" />
	<path style="fill:none;stroke:red;stroke-width:1px;stroke-linecap:butt;stroke-linejoin:miter;stroke-opacity:1" d="M 259.144,399.984 269.35,418.354 z" id="boundary" inkscape:connector-curvature="0" />
	<path style="fill:none;stroke:red;stroke-width:1px;stroke-linecap:butt;stroke-linejoin:miter;stroke-opacity:1" d="M 261.185,842.914 271.391,822.502 z" id="boundary" inkscape:connector-curvature="0" />
	<path style="fill:none;stroke:red;stroke-width:1px;stroke-linecap:butt;stroke-linejoin:miter;stroke-opacity:1" d="M 267.309,177.498 287.72,177.498 z" id="boundary" inkscape:connector-curvature="0" />
	<path style="fill:none;stroke:red;stroke-width:1px;stroke-linecap:butt;stroke-linejoin:miter;stroke-opacity:1" d="M 269.35,418.354 269.35,438.765 z" id="boundary" inkscape:connector-curvature="0" />
	<path style="fill:none;stroke:red;stroke-width:1px;stroke-linecap:butt;stroke-linejoin:miter;stroke-opacity:1" d="M 269.35,438.765 279.556,457.136 z" id="boundary" inkscape:connector-curvature="0" />
	<path style="fill:none;stroke:red;stroke-width:1px;stroke-linecap:butt;stroke-linejoin:miter;stroke-opacity:1" d="M 271.391,651.045 279.556,612.263 z" id="boundary" inkscape:connector-curvature="0" />
	<path style="fill:none;stroke:red;stroke-width:1px;stroke-linecap:butt;stroke-linejoin:miter;stroke-opacity:1" d="M 271.391,822.502 289.761,812.296 z" id="boundary" inkscape:connector-curvature="0" />
	<path style="fill:none;stroke:red;stroke-width:1px;stroke-linecap:butt;stroke-linejoin:miter;stroke-opacity:1" d="M 279.556,457.136 289.761,475.506 z" id="boundary" inkscape:connector-curvature="0" />
	<path style="fill:none;stroke:red;stroke-width:1px;stroke-linecap:butt;stroke-linejoin:miter;stroke-opacity:1" d="M 279.556,612.263 289.761,591.852 z" id="boundary" inkscape:connector-curvature="0" />
	<path style="fill:none;stroke:red;stroke-width:1px;stroke-linecap:butt;stroke-linejoin:miter;stroke-opacity:1" d="M 287.72,177.498 302.008,161.169 z" id="boundary" inkscape:connector-curvature="0" />
	<path style="fill:none;stroke:red;stroke-width:1px;stroke-linecap:butt;stroke-linejoin:miter;stroke-opacity:1" d="M 289.761,475.506 295.885,495.918 z" id="boundary" inkscape:connector-curvature="0" />
	<path style="fill:none;stroke:red;stroke-width:1px;stroke-linecap:butt;stroke-linejoin:miter;stroke-opacity:1" d="M 289.761,520.412 295.885,495.918 z" id="boundary" inkscape:connector-curvature="0" />
	<path style="fill:none;stroke:red;stroke-width:1px;stroke-linecap:butt;stroke-linejoin:miter;stroke-opacity:1" d="M 289.761,520.412 299.967,538.782 z" id="boundary" inkscape:connector-curvature="0" />
	<path style="fill:none;stroke:red;stroke-width:1px;stroke-linecap:butt;stroke-linejoin:miter;stroke-opacity:1" d="M 289.761,571.44 289.761,591.852 z" id="boundary" inkscape:connector-curvature="0" />
	<path style="fill:none;stroke:red;stroke-width:1px;stroke-linecap:butt;stroke-linejoin:miter;stroke-opacity:1" d="M 289.761,571.44 299.967,538.782 z" id="boundary" inkscape:connector-curvature="0" />
	<path style="fill:none;stroke:red;stroke-width:1px;stroke-linecap:butt;stroke-linejoin:miter;stroke-opacity:1" d="M 289.761,812.296 310.173,806.173 z" id="boundary" inkscape:connector-curvature="0" />
	<path style="fill:none;stroke:red;stroke-width:1px;stroke-linecap:butt;stroke-linejoin:miter;stroke-opacity:1" d="M 299.967,81.5638 299.967,101.975 z" id="boundary" inkscape:connector-curvature="0" />
	<path style="fill:none;stroke:red;stroke-width:1px;stroke-linecap:butt;stroke-linejoin:miter;stroke-opacity:1" d="M 299.967,81.5638 310.173,61.1523 z" id="boundary" inkscape:connector-curvature="0" />
	<path style="fill:none;stroke:red;stroke-width:1px;stroke-linecap:butt;stroke-linejoin:miter;stroke-opacity:1" d="M 299.967,101.975 310.173,120.346 z" id="boundary" inkscape:connector-curvature="0" />
	<path style="fill:none;stroke:red;stroke-width:1px;stroke-linecap:butt;stroke-linejoin:miter;stroke-opacity:1" d="M 302.008,161.169 310.173,140.757 z" id="boundary" inkscape:connector-curvature="0" />
	<path style="fill:none;stroke:red;stroke-width:1px;stroke-linecap:butt;stroke-linejoin:miter;stroke-opacity:1" d="M 310.173,61.1523 320.379,40.7407 z" id="boundary" inkscape:connector-curvature="0" />
	<path style="fill:none;stroke:red;stroke-width:1px;stroke-linecap:butt;stroke-linejoin:miter;stroke-opacity:1" d="M 310.173,120.346 310.173,140.757 z" id="boundary" inkscape:connector-curvature="0" />
	<path style="fill:none;stroke:red;stroke-width:1px;stroke-linecap:butt;stroke-linejoin:miter;stroke-opacity:1" d="M 310.173,806.173 312.214,781.679 z" id="boundary" inkscape:connector-curvature="0" />
	<path style="fill:none;stroke:red;stroke-width:1px;stroke-linecap:butt;stroke-linejoin:miter;stroke-opacity:1" d="M 312.214,781.679 332.626,771.473 z" id="boundary" inkscape:connector-curvature="0" />
	<path style="fill:none;stroke:red;stroke-width:1px;stroke-linecap:butt;stroke-linejoin:miter;stroke-opacity:1" d="M 320.379,40.7407 340.79,30.535 z" id="boundary" inkscape:connector-curvature="0" />
	<path style="fill:none;stroke:red;stroke-width:1px;stroke-linecap:butt;stroke-linejoin:miter;stroke-opacity:1" d="M 332.626,771.473 342.831,751.062 z" id="boundary" inkscape:connector-curvature="0" />
	<path style="fill:none;stroke:red;stroke-width:1px;stroke-linecap:butt;stroke-linejoin:miter;stroke-opacity:1" d="M 340.79,30.535 357.119,14.2058 z" id="boundary" inkscape:connector-curvature="0" />
	<path style="fill:none;stroke:red;stroke-width:1px;stroke-linecap:butt;stroke-linejoin:miter;stroke-opacity:1" d="M 342.831,751.062 359.16,736.774 z" id="boundary" inkscape:connector-curvature="0" />
	<path style="fill:none;stroke:red;stroke-width:1px;stroke-linecap:butt;stroke-linejoin:miter;stroke-opacity:1" d="M 357.119,14.2058 377.531,4 z" id="boundary" inkscape:connector-curvature="0" />
	<path style="fill:none;stroke:red;stroke-width:1px;stroke-linecap:butt;stroke-linejoin:miter;stroke-opacity:1" d="M 359.16,736.774 373.449,720.444 z" id="boundary" inkscape:connector-curvature="0" />
	<path style="fill:none;stroke:red;stroke-width:1px;stroke-linecap:butt;stroke-linejoin:miter;stroke-opacity:1" d="M 373.449,720.444 391.819,710.239 z" id="boundary" inkscape:connector-curvature="0" />
	<path style="fill:none;stroke:red;stroke-width:1px;stroke-linecap:butt;stroke-linejoin:miter;stroke-opacity:1" d="M 377.531,4 397.942,4 z" id="boundary" inkscape:connector-curvature="0" />
	<path style="fill:none;stroke:red;stroke-width:1px;stroke-linecap:butt;stroke-linejoin:miter;stroke-opacity:1" d="M 391.819,710.239 412.23,710.239 z" id="boundary" inkscape:connector-curvature="0" />
	<path style="fill:none;stroke:red;stroke-width:1px;stroke-linecap:butt;stroke-linejoin:miter;stroke-opacity:1" d="M 397.942,4 418.354,4 z" id="boundary" inkscape:connector-curvature="0" />
	<path style="fill:none;stroke:red;stroke-width:1px;stroke-linecap:butt;stroke-linejoin:miter;stroke-opacity:1" d="M 412.23,710.239 424.477,726.568 z" id="boundary" inkscape:connector-curvature="0" />
	<path style="fill:none;stroke:red;stroke-width:1px;stroke-linecap:butt;stroke-linejoin:miter;stroke-opacity:1" d="M 418.354,4 436.724,14.2058 z" id="boundary" inkscape:connector-curvature="0" />
	<path style="fill:none;stroke:red;stroke-width:1px;stroke-linecap:butt;stroke-linejoin:miter;stroke-opacity:1" d="M 424.477,726.568 442.848,736.774 z" id="boundary" inkscape:connector-curvature="0" />
	<path style="fill:none;stroke:red;stroke-width:1px;stroke-linecap:butt;stroke-linejoin:miter;stroke-opacity:1" d="M 436.724,14.2058 453.053,28.4938 z" id="boundary" inkscape:connector-curvature="0" />
	<path style="fill:none;stroke:red;stroke-width:1px;stroke-linecap:butt;stroke-linejoin:miter;stroke-opacity:1" d="M 442.848,736.774 453.053,755.144 z" id="boundary" inkscape:connector-curvature="0" />
	<path style="fill:none;stroke:red;stroke-width:1px;stroke-linecap:butt;stroke-linejoin:miter;stroke-opacity:1" d="M 453.053,28.4938 461.218,48.9053 z" id="boundary" inkscape:connector-curvature="0" />
	<path style="fill:none;stroke:red;stroke-width:1px;stroke-linecap:butt;stroke-linejoin:miter;stroke-opacity:1" d="M 453.053,755.144 463.259,773.514 z" id="boundary" inkscape:connector-curvature="0" />
	<path style="fill:none;stroke:red;stroke-width:1px;stroke-linecap:butt;stroke-linejoin:miter;stroke-opacity:1" d="M 461.218,48.9053 475.506,65.2346 z" id="boundary" inkscape:connector-curvature="0" />
	<path style="fill:none;stroke:red;stroke-width:1px;stroke-linecap:butt;stroke-linejoin:miter;stroke-opacity:1" d="M 463.259,773.514 477.547,789.844 z" id="boundary" inkscape:connector-curvature="0" />
	<path style="fill:none;stroke:red;stroke-width:1px;stroke-linecap:butt;stroke-linejoin:miter;stroke-opacity:1" d="M 465.3,118.305 465.3,138.716 z" id="boundary" inkscape:connector-curvature="0" />
	<path style="fill:none;stroke:red;stroke-width:1px;stroke-linecap:butt;stroke-linejoin:miter;stroke-opacity:1" d="M 465.3,118.305 475.506,85.6461 z" id="boundary" inkscape:connector-curvature="0" />
	<path style="fill:none;stroke:red;stroke-width:1px;stroke-linecap:butt;stroke-linejoin:miter;stroke-opacity:1" d="M 465.3,138.716 475.506,157.086 z" id="boundary" inkscape:connector-curvature="0" />
	<path style="fill:none;stroke:red;stroke-width:1px;stroke-linecap:butt;stroke-linejoin:miter;stroke-opacity:1" d="M 475.506,65.2346 475.506,85.6461 z" id="boundary" inkscape:connector-curvature="0" />
	<path style="fill:none;stroke:red;stroke-width:1px;stroke-linecap:butt;stroke-linejoin:miter;stroke-opacity:1" d="M 475.506,157.086 485.712,175.457 z" id="boundary" inkscape:connector-curvature="0" />
	<path style="fill:none;stroke:red;stroke-width:1px;stroke-linecap:butt;stroke-linejoin:miter;stroke-opacity:1" d="M 475.506,536.741 479.588,557.152 z" id="boundary" inkscape:connector-curvature="0" />
	<path style="fill:none;stroke:red;stroke-width:1px;stroke-linecap:butt;stroke-linejoin:miter;stroke-opacity:1" d="M 475.506,536.741 491.835,522.453 z" id="boundary" inkscape:connector-curvature="0" />
	<path style="fill:none;stroke:red;stroke-width:1px;stroke-linecap:butt;stroke-linejoin:miter;stroke-opacity:1" d="M 477.547,789.844 493.877,802.091 z" id="boundary" inkscape:connector-curvature="0" />
	<path style="fill:none;stroke:red;stroke-width:1px;stroke-linecap:butt;stroke-linejoin:miter;stroke-opacity:1" d="M 479.588,557.152 485.712,577.564 z" id="boundary" inkscape:connector-curvature="0" />
	<path style="fill:none;stroke:red;stroke-width:1px;stroke-linecap:butt;stroke-linejoin:miter;stroke-opacity:1" d="M 485.712,175.457 506.123,183.621 z" id="boundary" inkscape:connector-curvature="0" />
	<path style="fill:none;stroke:red;stroke-width:1px;stroke-linecap:butt;stroke-linejoin:miter;stroke-opacity:1" d="M 485.712,577.564 495.918,595.934 z" id="boundary" inkscape:connector-curvature="0" />
	<path style="fill:none;stroke:red;stroke-width:1px;stroke-linecap:butt;stroke-linejoin:miter;stroke-opacity:1" d="M 491.835,522.453 495.918,485.712 z" id="boundary" inkscape:connector-curvature="0" />
	<path style="fill:none;stroke:red;stroke-width:1px;stroke-linecap:butt;stroke-linejoin:miter;stroke-opacity:1" d="M 493.877,802.091 500,822.502 z" id="boundary" inkscape:connector-curvature="0" />
	<path style="fill:none;stroke:red;stroke-width:1px;stroke-linecap:butt;stroke-linejoin:miter;stroke-opacity:1" d="M 495.918,485.712 506.123,465.3 z" id="boundary" inkscape:connector-curvature="0" />
	<path style="fill:none;stroke:red;stroke-width:1px;stroke-linecap:butt;stroke-linejoin:miter;stroke-opacity:1" d="M 495.918,595.934 495.918,616.346 z" id="boundary" inkscape:connector-curvature="0" />
	<path style="fill:none;stroke:red;stroke-width:1px;stroke-linecap:butt;stroke-linejoin:miter;stroke-opacity:1" d="M 495.918,616.346 506.123,634.716 z" id="boundary" inkscape:connector-curvature="0" />
	<path style="fill:none;stroke:red;stroke-width:1px;stroke-linecap:butt;stroke-linejoin:miter;stroke-opacity:1" d="M 500,822.502 516.329,836.79 z" id="boundary" inkscape:connector-curvature="0" />
	<path style="fill:none;stroke:red;stroke-width:1px;stroke-linecap:butt;stroke-linejoin:miter;stroke-opacity:1" d="M 506.123,183.621 526.535,187.704 z" id="boundary" inkscape:connector-curvature="0" />
	<path style="fill:none;stroke:red;stroke-width:1px;stroke-linecap:butt;stroke-linejoin:miter;stroke-opacity:1" d="M 506.123,404.066 506.123,424.477 z" id="boundary" inkscape:connector-curvature="0" />
	<path style="fill:none;stroke:red;stroke-width:1px;stroke-linecap:butt;stroke-linejoin:miter;stroke-opacity:1" d="M 506.123,404.066 516.329,373.449 z" id="boundary" inkscape:connector-curvature="0" />
	<path style="fill:none;stroke:red;stroke-width:1px;stroke-linecap:butt;stroke-linejoin:miter;stroke-opacity:1" d="M 506.123,424.477 506.123,444.889 z" id="boundary" inkscape:connector-curvature="0" />
	<path style="fill:none;stroke:red;stroke-width:1px;stroke-linecap:butt;stroke-linejoin:miter;stroke-opacity:1" d="M 506.123,444.889 506.123,465.3 z" id="boundary" inkscape:connector-curvature="0" />
	<path style="fill:none;stroke:red;stroke-width:1px;stroke-linecap:butt;stroke-linejoin:miter;stroke-opacity:1" d="M 506.123,634.716 522.453,649.004 z" id="boundary" inkscape:connector-curvature="0" />
	<path style="fill:none;stroke:red;stroke-width:1px;stroke-linecap:butt;stroke-linejoin:miter;stroke-opacity:1" d="M 516.329,373.449 526.535,342.831 z" id="boundary" inkscape:connector-curvature="0" />
	<path style="fill:none;stroke:red;stroke-width:1px;stroke-linecap:butt;stroke-linejoin:miter;stroke-opacity:1" d="M 516.329,836.79 524.494,857.202 z" id="boundary" inkscape:connector-curvature="0" />
	<path style="fill:none;stroke:red;stroke-width:1px;stroke-linecap:butt;stroke-linejoin:miter;stroke-opacity:1" d="M 522.453,649.004 526.535,669.416 z" id="boundary" inkscape:connector-curvature="0" />
	<path style="fill:none;stroke:red;stroke-width:1px;stroke-linecap:butt;stroke-linejoin:miter;stroke-opacity:1" d="M 524.494,857.202 540.823,871.49 z" id="boundary" inkscape:connector-curvature="0" />
	<path style="fill:none;stroke:red;stroke-width:1px;stroke-linecap:butt;stroke-linejoin:miter;stroke-opacity:1" d="M 526.535,187.704 544.905,177.498 z" id="boundary" inkscape:connector-curvature="0" />
	<path style="fill:none;stroke:red;stroke-width:1px;stroke-linecap:butt;stroke-linejoin:miter;stroke-opacity:1" d="M 526.535,342.831 542.864,328.543 z" id="boundary" inkscape:connector-curvature="0" />
	<path style="fill:none;stroke:red;stroke-width:1px;stroke-linecap:butt;stroke-linejoin:miter;stroke-opacity:1" d="M 526.535,669.416 536.741,687.786 z" id="boundary" inkscape:connector-curvature="0" />
	<path style="fill:none;stroke:red;stroke-width:1px;stroke-linecap:butt;stroke-linejoin:miter;stroke-opacity:1" d="M 536.741,687.786 546.947,706.156 z" id="boundary" inkscape:connector-curvature="0" />
	<path style="fill:none;stroke:red;stroke-width:1px;stroke-linecap:butt;stroke-linejoin:miter;stroke-opacity:1" d="M 540.823,871.49 555.111,887.819 z" id="boundary" inkscape:connector-curvature="0" />
	<path style="fill:none;stroke:red;stroke-width:1px;stroke-linecap:butt;stroke-linejoin:miter;stroke-opacity:1" d="M 542.864,328.543 555.111,312.214 z" id="boundary" inkscape:connector-curvature="0" />
	<path style="fill:none;stroke:red;stroke-width:1px;stroke-linecap:butt;stroke-linejoin:miter;stroke-opacity:1" d="M 544.905,177.498 565.317,173.416 z" id="boundary" inkscape:connector-curvature="0" />
	<path style="fill:none;stroke:red;stroke-width:1px;stroke-linecap:butt;stroke-linejoin:miter;stroke-opacity:1" d="M 546.947,706.156 563.276,720.444 z" id="boundary" inkscape:connector-curvature="0" />
	<path style="fill:none;stroke:red;stroke-width:1px;stroke-linecap:butt;stroke-linejoin:miter;stroke-opacity:1" d="M 555.111,312.214 571.44,299.967 z" id="boundary" inkscape:connector-curvature="0" />
	<path style="fill:none;stroke:red;stroke-width:1px;stroke-linecap:butt;stroke-linejoin:miter;stroke-opacity:1" d="M 555.111,887.819 571.44,902.107 z" id="boundary" inkscape:connector-curvature="0" />
	<path style="fill:none;stroke:red;stroke-width:1px;stroke-linecap:butt;stroke-linejoin:miter;stroke-opacity:1" d="M 563.276,720.444 571.44,740.856 z" id="boundary" inkscape:connector-curvature="0" />
	<path style="fill:none;stroke:red;stroke-width:1px;stroke-linecap:butt;stroke-linejoin:miter;stroke-opacity:1" d="M 565.317,173.416 585.728,167.292 z" id="boundary" inkscape:connector-curvature="0" />
	<path style="fill:none;stroke:red;stroke-width:1px;stroke-linecap:butt;stroke-linejoin:miter;stroke-opacity:1" d="M 571.44,299.967 585.728,316.296 z" id="boundary" inkscape:connector-curvature="0" />
	<path style="fill:none;stroke:red;stroke-width:1px;stroke-linecap:butt;stroke-linejoin:miter;stroke-opacity:1" d="M 571.44,740.856 587.77,755.144 z" id="boundary" inkscape:connector-curvature="0" />
	<path style="fill:none;stroke:red;stroke-width:1px;stroke-linecap:butt;stroke-linejoin:miter;stroke-opacity:1" d="M 571.44,902.107 585.728,918.436 z" id="boundary" inkscape:connector-curvature="0" />
	<path style="fill:none;stroke:red;stroke-width:1px;stroke-linecap:butt;stroke-linejoin:miter;stroke-opacity:1" d="M 585.728,167.292 595.934,132.593 z" id="boundary" inkscape:connector-curvature="0" />
	<path style="fill:none;stroke:red;stroke-width:1px;stroke-linecap:butt;stroke-linejoin:miter;stroke-opacity:1" d="M 585.728,316.296 606.14,322.42 z" id="boundary" inkscape:connector-curvature="0" />
	<path style="fill:none;stroke:red;stroke-width:1px;stroke-linecap:butt;stroke-linejoin:miter;stroke-opacity:1" d="M 585.728,918.436 595.934,936.807 z" id="boundary" inkscape:connector-curvature="0" />
	<path style="fill:none;stroke:red;stroke-width:1px;stroke-linecap:butt;stroke-linejoin:miter;stroke-opacity:1" d="M 587.77,755.144 595.934,775.556 z" id="boundary" inkscape:connector-curvature="0" />
	<path style="fill:none;stroke:red;stroke-width:1px;stroke-linecap:butt;stroke-linejoin:miter;stroke-opacity:1" d="M 595.934,91.7695 595.934,112.181 z" id="boundary" inkscape:connector-curvature="0" />
	<path style="fill:none;stroke:red;stroke-width:1px;stroke-linecap:butt;stroke-linejoin:miter;stroke-opacity:1" d="M 595.934,91.7695 606.14,61.1523 z" id="boundary" inkscape:connector-curvature="0" />
	<path style="fill:none;stroke:red;stroke-width:1px;stroke-linecap:butt;stroke-linejoin:miter;stroke-opacity:1" d="M 595.934,112.181 595.934,132.593 z" id="boundary" inkscape:connector-curvature="0" />
	<path style="fill:none;stroke:red;stroke-width:1px;stroke-linecap:butt;stroke-linejoin:miter;stroke-opacity:1" d="M 595.934,775.556 606.14,793.926 z" id="boundary" inkscape:connector-curvature="0" />
	<path style="fill:none;stroke:red;stroke-width:1px;stroke-linecap:butt;stroke-linejoin:miter;stroke-opacity:1" d="M 595.934,936.807 610.222,953.136 z" id="boundary" inkscape:connector-curvature="0" />
	<path style="fill:none;stroke:red;stroke-width:1px;stroke-linecap:butt;stroke-linejoin:miter;stroke-opacity:1" d="M 606.14,61.1523 626.551,65.2346 z" id="boundary" inkscape:connector-curvature="0" />
	<path style="fill:none;stroke:red;stroke-width:1px;stroke-linecap:butt;stroke-linejoin:miter;stroke-opacity:1" d="M 606.14,322.42 624.51,332.626 z" id="boundary" inkscape:connector-curvature="0" />
	<path style="fill:none;stroke:red;stroke-width:1px;stroke-linecap:butt;stroke-linejoin:miter;stroke-opacity:1" d="M 606.14,793.926 618.387,810.255 z" id="boundary" inkscape:connector-curvature="0" />
	<path style="fill:none;stroke:red;stroke-width:1px;stroke-linecap:butt;stroke-linejoin:miter;stroke-opacity:1" d="M 610.222,953.136 620.428,971.506 z" id="boundary" inkscape:connector-curvature="0" />
	<path style="fill:none;stroke:red;stroke-width:1px;stroke-linecap:butt;stroke-linejoin:miter;stroke-opacity:1" d="M 618.387,810.255 628.593,828.626 z" id="boundary" inkscape:connector-curvature="0" />
	<path style="fill:none;stroke:red;stroke-width:1px;stroke-linecap:butt;stroke-linejoin:miter;stroke-opacity:1" d="M 620.428,971.506 638.798,981.712 z" id="boundary" inkscape:connector-curvature="0" />
	<path style="fill:none;stroke:red;stroke-width:1px;stroke-linecap:butt;stroke-linejoin:miter;stroke-opacity:1" d="M 624.51,332.626 644.922,332.626 z" id="boundary" inkscape:connector-curvature="0" />
	<path style="fill:none;stroke:red;stroke-width:1px;stroke-linecap:butt;stroke-linejoin:miter;stroke-opacity:1" d="M 626.551,65.2346 646.963,65.2346 z" id="boundary" inkscape:connector-curvature="0" />
	<path style="fill:none;stroke:red;stroke-width:1px;stroke-linecap:butt;stroke-linejoin:miter;stroke-opacity:1" d="M 628.593,828.626 638.798,846.996 z" id="boundary" inkscape:connector-curvature="0" />
	<path style="fill:none;stroke:red;stroke-width:1px;stroke-linecap:butt;stroke-linejoin:miter;stroke-opacity:1" d="M 638.798,846.996 653.086,863.325 z" id="boundary" inkscape:connector-curvature="0" />
	<path style="fill:none;stroke:red;stroke-width:1px;stroke-linecap:butt;stroke-linejoin:miter;stroke-opacity:1" d="M 638.798,981.712 659.21,989.877 z" id="boundary" inkscape:connector-curvature="0" />
	<path style="fill:none;stroke:red;stroke-width:1px;stroke-linecap:butt;stroke-linejoin:miter;stroke-opacity:1" d="M 644.922,332.626 665.333,332.626 z" id="boundary" inkscape:connector-curvature="0" />
	<path style="fill:none;stroke:red;stroke-width:1px;stroke-linecap:butt;stroke-linejoin:miter;stroke-opacity:1" d="M 646.963,65.2346 667.374,65.2346 z" id="boundary" inkscape:connector-curvature="0" />
	<path style="fill:none;stroke:red;stroke-width:1px;stroke-linecap:butt;stroke-linejoin:miter;stroke-opacity:1" d="M 653.086,863.325 663.292,881.695 z" id="boundary" inkscape:connector-curvature="0" />
	<path style="fill:none;stroke:red;stroke-width:1px;stroke-linecap:butt;stroke-linejoin:miter;stroke-opacity:1" d="M 659.21,989.877 679.621,996 z" id="boundary" inkscape:connector-curvature="0" />
	<path style="fill:none;stroke:red;stroke-width:1px;stroke-linecap:butt;stroke-linejoin:miter;stroke-opacity:1" d="M 663.292,881.695 677.58,898.025 z" id="boundary" inkscape:connector-curvature="0" />
	<path style="fill:none;stroke:red;stroke-width:1px;stroke-linecap:butt;stroke-linejoin:miter;stroke-opacity:1" d="M 665.333,332.626 685.745,332.626 z" id="boundary" inkscape:connector-curvature="0" />
	<path style="fill:none;stroke:red;stroke-width:1px;stroke-linecap:butt;stroke-linejoin:miter;stroke-opacity:1" d="M 667.374,65.2346 687.786,65.2346 z" id="boundary" inkscape:connector-curvature="0" />
	<path style="fill:none;stroke:red;stroke-width:1px;stroke-linecap:butt;stroke-linejoin:miter;stroke-opacity:1" d="M 677.58,898.025 687.786,916.395 z" id="boundary" inkscape:connector-curvature="0" />
	<path style="fill:none;stroke:red;stroke-width:1px;stroke-linecap:butt;stroke-linejoin:miter;stroke-opacity:1" d="M 679.621,996 700.033,985.794 z" id="boundary" inkscape:connector-curvature="0" />
	<path style="fill:none;stroke:red;stroke-width:1px;stroke-linecap:butt;stroke-linejoin:miter;stroke-opacity:1" d="M 685.745,332.626 706.156,332.626 z" id="boundary" inkscape:connector-curvature="0" />
	<path style="fill:none;stroke:red;stroke-width:1px;stroke-linecap:butt;stroke-linejoin:miter;stroke-opacity:1" d="M 687.786,65.2346 708.198,65.2346 z" id="boundary" inkscape:connector-curvature="0" />
	<path style="fill:none;stroke:red;stroke-width:1px;stroke-linecap:butt;stroke-linejoin:miter;stroke-opacity:1" d="M 687.786,916.395 695.951,936.807 z" id="boundary" inkscape:connector-curvature="0" />
	<path style="fill:none;stroke:red;stroke-width:1px;stroke-linecap:butt;stroke-linejoin:miter;stroke-opacity:1" d="M 695.951,936.807 700.033,965.383 z" id="boundary" inkscape:connector-curvature="0" />
	<path style="fill:none;stroke:red;stroke-width:1px;stroke-linecap:butt;stroke-linejoin:miter;stroke-opacity:1" d="M 700.033,965.383 700.033,985.794 z" id="boundary" inkscape:connector-curvature="0" />
	<path style="fill:none;stroke:red;stroke-width:1px;stroke-linecap:butt;stroke-linejoin:miter;stroke-opacity:1" d="M 706.156,332.626 726.568,332.626 z" id="boundary" inkscape:connector-curvature="0" />
	<path style="fill:none;stroke:red;stroke-width:1px;stroke-linecap:butt;stroke-linejoin:miter;stroke-opacity:1" d="M 708.198,65.2346 728.609,65.2346 z" id="boundary" inkscape:connector-curvature="0" />
	<path style="fill:none;stroke:red;stroke-width:1px;stroke-linecap:butt;stroke-linejoin:miter;stroke-opacity:1" d="M 726.568,332.626 746.979,332.626 z" id="boundary" inkscape:connector-curvature="0" />
	<path style="fill:none;stroke:red;stroke-width:1px;stroke-linecap:butt;stroke-linejoin:miter;stroke-opacity:1" d="M 728.609,65.2346 749.021,65.2346 z" id="boundary" inkscape:connector-curvature="0" />
	<path style="fill:none;stroke:red;stroke-width:1px;stroke-linecap:butt;stroke-linejoin:miter;stroke-opacity:1" d="M 746.979,332.626 765.35,342.831 z" id="boundary" inkscape:connector-curvature="0" />
	<path style="fill:none;stroke:red;stroke-width:1px;stroke-linecap:butt;stroke-linejoin:miter;stroke-opacity:1" d="M 749.021,65.2346 769.432,69.3169 z" id="boundary" inkscape:connector-curvature="0" />
	<path style="fill:none;stroke:red;stroke-width:1px;stroke-linecap:butt;stroke-linejoin:miter;stroke-opacity:1" d="M 765.35,342.831 785.761,342.831 z" id="boundary" inkscape:connector-curvature="0" />
	<path style="fill:none;stroke:red;stroke-width:1px;stroke-linecap:butt;stroke-linejoin:miter;stroke-opacity:1" d="M 769.432,69.3169 789.844,75.4403 z" id="boundary" inkscape:connector-curvature="0" />
	<path style="fill:none;stroke:red;stroke-width:1px;stroke-linecap:butt;stroke-linejoin:miter;stroke-opacity:1" d="M 785.761,342.831 806.173,342.831 z" id="boundary" inkscape:connector-curvature="0" />
	<path style="fill:none;stroke:red;stroke-width:1px;stroke-linecap:butt;stroke-linejoin:miter;stroke-opacity:1" d="M 789.844,75.4403 810.255,75.4403 z" id="boundary" inkscape:connector-curvature="0" />
	<path style="fill:none;stroke:red;stroke-width:1px;stroke-linecap:butt;stroke-linejoin:miter;stroke-opacity:1" d="M 806.173,342.831 826.584,342.831 z" id="boundary" inkscape:connector-curvature="0" />
	<path style="fill:none;stroke:red;stroke-width:1px;stroke-linecap:butt;stroke-linejoin:miter;stroke-opacity:1" d="M 810.255,75.4403 830.667,75.4403 z" id="boundary" inkscape:connector-curvature="0" />
	<path style="fill:none;stroke:red;stroke-width:1px;stroke-linecap:butt;stroke-linejoin:miter;stroke-opacity:1" d="M 826.584,342.831 846.996,342.831 z" id="boundary" inkscape:connector-curvature="0" />
	<path style="fill:none;stroke:red;stroke-width:1px;stroke-linecap:butt;stroke-linejoin:miter;stroke-opacity:1" d="M 830.667,75.4403 851.078,75.4403 z" id="boundary" inkscape:connector-curvature="0" />
	<path style="fill:none;stroke:red;stroke-width:1px;stroke-linecap:butt;stroke-linejoin:miter;stroke-opacity:1" d="M 846.996,342.831 867.407,342.831 z" id="boundary" inkscape:connector-curvature="0" />
	<path style="fill:none;stroke:red;stroke-width:1px;stroke-linecap:butt;stroke-linejoin:miter;stroke-opacity:1" d="M 851.078,75.4403 871.49,75.4403 z" id="boundary" inkscape:connector-curvature="0" />
	<path style="fill:none;stroke:red;stroke-width:1px;stroke-linecap:butt;stroke-linejoin:miter;stroke-opacity:1" d="M 867.407,342.831 887.819,342.831 z" id="boundary" inkscape:connector-curvature="0" />
	<path style="fill:none;stroke:red;stroke-width:1px;stroke-linecap:butt;stroke-linejoin:miter;stroke-opacity:1" d="M 871.49,75.4403 891.901,75.4403 z" id="boundary" inkscape:connector-curvature="0" />
	<path style="fill:none;stroke:red;stroke-width:1px;stroke-linecap:butt;stroke-linejoin:miter;stroke-opacity:1" d="M 887.819,342.831 908.23,350.996 z" id="boundary" inkscape:connector-curvature="0" />
	<path style="fill:none;stroke:red;stroke-width:1px;stroke-linecap:butt;stroke-linejoin:miter;stroke-opacity:1" d="M 891.901,75.4403 912.313,79.5226 z" id="boundary" inkscape:connector-curvature="0" />
	<path style="fill:none;stroke:red;stroke-width:1px;stroke-linecap:butt;stroke-linejoin:miter;stroke-opacity:1" d="M 908.23,350.996 928.642,353.037 z" id="boundary" inkscape:connector-curvature="0" />
	<path style="fill:none;stroke:red;stroke-width:1px;stroke-linecap:butt;stroke-linejoin:miter;stroke-opacity:1" d="M 912.313,79.5226 932.724,85.6461 z" id="boundary" inkscape:connector-curvature="0" />
	<path style="fill:none;stroke:red;stroke-width:1px;stroke-linecap:butt;stroke-linejoin:miter;stroke-opacity:1" d="M 928.642,353.037 949.053,353.037 z" id="boundary" inkscape:connector-curvature="0" />
	<path style="fill:none;stroke:red;stroke-width:1px;stroke-linecap:butt;stroke-linejoin:miter;stroke-opacity:1" d="M 932.724,85.6461 953.136,85.6461 z" id="boundary" inkscape:connector-curvature="0" />
	<path style="fill:none;stroke:red;stroke-width:1px;stroke-linecap:butt;stroke-linejoin:miter;stroke-opacity:1" d="M 949.053,353.037 969.465,353.037 z" id="boundary" inkscape:connector-curvature="0" />
	<path style="fill:none;stroke:red;stroke-width:1px;stroke-linecap:butt;stroke-linejoin:miter;stroke-opacity:1" d="M 953.136,85.6461 973.547,85.6461 z" id="boundary" inkscape:connector-curvature="0" />
	<path style="fill:none;stroke:red;stroke-width:1px;stroke-linecap:butt;stroke-linejoin:miter;stroke-opacity:1" d="M 969.465,353.037 985.794,332.626 z" id="boundary" inkscape:connector-curvature="0" />
	<path style="fill:none;stroke:red;stroke-width:1px;stroke-linecap:butt;stroke-linejoin:miter;stroke-opacity:1" d="M 973.547,85.6461 993.959,85.6461 z" id="boundary" inkscape:connector-curvature="0" />
	<path style="fill:none;stroke:red;stroke-width:1px;stroke-linecap:butt;stroke-linejoin:miter;stroke-opacity:1" d="M 985.794,250.979 985.794,271.391 z" id="boundary" inkscape:connector-curvature="0" />
	<path style="fill:none;stroke:red;stroke-width:1px;stroke-linecap:butt;stroke-linejoin:miter;stroke-opacity:1" d="M 985.794,250.979 996,228.527 z" id="boundary" inkscape:connector-curvature="0" />
	<path style="fill:none;stroke:red;stroke-width:1px;stroke-linecap:butt;stroke-linejoin:miter;stroke-opacity:1" d="M 985.794,271.391 985.794,291.802 z" id="boundary" inkscape:connector-curvature="0" />
	<path style="fill:none;stroke:red;stroke-width:1px;stroke-linecap:butt;stroke-linejoin:miter;stroke-opacity:1" d="M 985.794,291.802 985.794,312.214 z" id="boundary" inkscape:connector-curvature="0" />
	<path style="fill:none;stroke:red;stroke-width:1px;stroke-linecap:butt;stroke-linejoin:miter;stroke-opacity:1" d="M 985.794,312.214 985.794,332.626 z" id="boundary" inkscape:connector-curvature="0" />
	<path style="fill:none;stroke:red;stroke-width:1px;stroke-linecap:butt;stroke-linejoin:miter;stroke-opacity:1" d="M 993.959,85.6461 996,106.058 z" id="boundary" inkscape:connector-curvature="0" />
	<path style="fill:none;stroke:red;stroke-width:1px;stroke-linecap:butt;stroke-linejoin:miter;stroke-opacity:1" d="M 996,106.058 996,126.469 z" id="boundary" inkscape:connector-curvature="0" />
	<path style="fill:none;stroke:red;stroke-width:1px;stroke-linecap:butt;stroke-linejoin:miter;stroke-opacity:1" d="M 996,126.469 996,146.881 z" id="boundary" inkscape:connector-curvature="0" />
	<path style="fill:none;stroke:red;stroke-width:1px;stroke-linecap:butt;stroke-linejoin:miter;stroke-opacity:1" d="M 996,146.881 996,167.292 z" id="boundary" inkscape:connector-curvature="0" />
	<path style="fill:none;stroke:red;stroke-width:1px;stroke-linecap:butt;stroke-linejoin:miter;stroke-opacity:1" d="M 996,167.292 996,187.704 z" id="boundary" inkscape:connector-curvature="0" />
	<path style="fill:none;stroke:red;stroke-width:1px;stroke-linecap:butt;stroke-linejoin:miter;stroke-opacity:1" d="M 996,187.704 996,208.115 z" id="boundary" inkscape:connector-curvature="0" />
	<path style="fill:none;stroke:red;stroke-width:1px;stroke-linecap:butt;stroke-linejoin:miter;stroke-opacity:1" d="M 996,208.115 996,228.527 z" id="boundary" inkscape:connector-curvature="0" />
	<circle cx="4" cy="428.56" r="4" fill="#0" id="circle0"/>
	<circle cx="4" cy="448.971" r="4" fill="#0" id="circle1"/>
	<circle cx="14.2058" cy="408.148" r="4" fill="#0" id="circle2"/>
	<circle cx="24.4115" cy="455.095" r="4" fill="#0" id="circle3"/>
	<circle cx="30.535" cy="391.819" r="4" fill="#0" id="circle4"/>
	<circle cx="30.535" cy="475.506" r="4" fill="#0" id="circle5"/>
	<circle cx="40.7407" cy="371.407" r="4" fill="#0" id="circle6"/>
	<circle cx="46.8642" cy="455.095" r="4" fill="#0" id="circle7"/>
	<circle cx="57.07" cy="355.078" r="4" fill="#0" id="circle8"/>
	<circle cx="63.1934" cy="440.807" r="4" fill="#0" id="circle9"/>
	<circle cx="75.4403" cy="336.708" r="4" fill="#0" id="circle10"/>
	<circle cx="83.6049" cy="430.601" r="4" fill="#0" id="circle11"/>
	<circle cx="85.6461" cy="316.296" r="4" fill="#0" id="circle12"/>
	<circle cx="85.6461" cy="949.053" r="4" fill="#0" id="circle13"/>
	<circle cx="85.6461" cy="969.465" r="4" fill="#0" id="circle14"/>
	<circle cx="95.8519" cy="295.885" r="4" fill="#0" id="circle15"/>
	<circle cx="95.8519" cy="928.642" r="4" fill="#0" id="circle16"/>
	<circle cx="97.893" cy="414.272" r="4" fill="#0" id="circle17"/>
	<circle cx="97.893" cy="985.794" r="4" fill="#0" id="circle18"/>
	<circle cx="106.058" cy="898.025" r="4" fill="#0" id="circle19"/>
	<circle cx="112.181" cy="279.556" r="4" fill="#0" id="circle20"/>
	<circle cx="114.222" cy="399.984" r="4" fill="#0" id="circle21"/>
	<circle cx="118.305" cy="985.794" r="4" fill="#0" id="circle22"/>
	<circle cx="122.387" cy="259.144" r="4" fill="#0" id="circle23"/>
	<circle cx="122.387" cy="881.695" r="4" fill="#0" id="circle24"/>
	<circle cx="128.51" cy="383.654" r="4" fill="#0" id="circle25"/>
	<circle cx="132.593" cy="238.733" r="4" fill="#0" id="circle26"/>
	<circle cx="132.593" cy="861.284" r="4" fill="#0" id="circle27"/>
	<circle cx="138.716" cy="363.243" r="4" fill="#0" id="circle28"/>
	<circle cx="138.716" cy="975.588" r="4" fill="#0" id="circle29"/>
	<circle cx="142.798" cy="840.872" r="4" fill="#0" id="circle30"/>
	<circle cx="146.881" cy="816.379" r="4" fill="#0" id="circle31"/>
	<circle cx="148.922" cy="222.403" r="4" fill="#0" id="circle32"/>
	<circle cx="159.128" cy="353.037" r="4" fill="#0" id="circle33"/>
	<circle cx="159.128" cy="965.383" r="4" fill="#0" id="circle34"/>
	<circle cx="167.292" cy="806.173" r="4" fill="#0" id="circle35"/>
	<circle cx="169.333" cy="212.198" r="4" fill="#0" id="circle36"/>
	<circle cx="175.457" cy="951.095" r="4" fill="#0" id="circle37"/>
	<circle cx="177.498" cy="342.831" r="4" fill="#0" id="circle38"/>
	<circle cx="183.621" cy="789.844" r="4" fill="#0" id="circle39"/>
	<circle cx="189.745" cy="201.992" r="4" fill="#0" id="circle40"/>
	<circle cx="189.745" cy="934.765" r="4" fill="#0" id="circle41"/>
	<circle cx="193.827" cy="769.432" r="4" fill="#0" id="circle42"/>
	<circle cx="195.868" cy="332.626" r="4" fill="#0" id="circle43"/>
	<circle cx="206.074" cy="920.477" r="4" fill="#0" id="circle44"/>
	<circle cx="208.115" cy="744.938" r="4" fill="#0" id="circle45"/>
	<circle cx="210.156" cy="197.909" r="4" fill="#0" id="circle46"/>
	<circle cx="214.239" cy="322.42" r="4" fill="#0" id="circle47"/>
	<circle cx="218.321" cy="724.527" r="4" fill="#0" id="circle48"/>
	<circle cx="220.362" cy="893.942" r="4" fill="#0" id="circle49"/>
	<circle cx="228.527" cy="187.704" r="4" fill="#0" id="circle50"/>
	<circle cx="234.65" cy="322.42" r="4" fill="#0" id="circle51"/>
	<circle cx="234.65" cy="708.198" r="4" fill="#0" id="circle52"/>
	<circle cx="236.691" cy="879.654" r="4" fill="#0" id="circle53"/>
	<circle cx="244.856" cy="340.79" r="4" fill="#0" id="circle54"/>
	<circle cx="244.856" cy="687.786" r="4" fill="#0" id="circle55"/>
	<circle cx="246.897" cy="177.498" r="4" fill="#0" id="circle56"/>
	<circle cx="248.938" cy="361.202" r="4" fill="#0" id="circle57"/>
	<circle cx="248.938" cy="381.613" r="4" fill="#0" id="circle58"/>
	<circle cx="250.979" cy="863.325" r="4" fill="#0" id="circle59"/>
	<circle cx="255.062" cy="667.374" r="4" fill="#0" id="circle60"/>
	<circle cx="259.144" cy="399.984" r="4" fill="#0" id="circle61"/>
	<circle cx="261.185" cy="842.914" r="4" fill="#0" id="circle62"/>
	<circle cx="267.309" cy="177.498" r="4" fill="#0" id="circle63"/>
	<circle cx="269.35" cy="418.354" r="4" fill="#0" id="circle64"/>
	<circle cx="269.35" cy="438.765" r="4" fill="#0" id="circle65"/>
	<circle cx="271.391" cy="651.045" r="4" fill="#0" id="circle66"/>
	<circle cx="271.391" cy="822.502" r="4" fill="#0" id="circle67"/>
	<circle cx="279.556" cy="457.136" r="4" fill="#0" id="circle68"/>
	<circle cx="279.556" cy="612.263" r="4" fill="#0" id="circle69"/>
	<circle cx="287.72" cy="177.498" r="4" fill="#0" id="circle70"/>
	<circle cx="289.761" cy="475.506" r="4" fill="#0" id="circle71"/>
	<circle cx="289.761" cy="520.412" r="4" fill="#0" id="circle72"/>
	<circle cx="289.761" cy="571.44" r="4" fill="#0" id="circle73"/>
	<circle cx="289.761" cy="591.852" r="4" fill="#0" id="circle74"/>
	<circle cx="289.761" cy="812.296" r="4" fill="#0" id="circle75"/>
	<circle cx="295.885" cy="495.918" r="4" fill="#0" id="circle76"/>
	<circle cx="299.967" cy="81.5638" r="4" fill="#0" id="circle77"/>
	<circle cx="299.967" cy="101.975" r="4" fill="#0" id="circle78"/>
	<circle cx="299.967" cy="538.782" r="4" fill="#0" id="circle79"/>
	<circle cx="302.008" cy="161.169" r="4" fill="#0" id="circle80"/>
	<circle cx="310.173" cy="61.1523" r="4" fill="#0" id="circle81"/>
	<circle cx="310.173" cy="120.346" r="4" fill="#0" id="circle82"/>
	<circle cx="310.173" cy="140.757" r="4" fill="#0" id="circle83"/>
	<circle cx="310.173" cy="806.173" r="4" fill="#0" id="circle84"/>
	<circle cx="312.214" cy="781.679" r="4" fill="#0" id="circle85"/>
	<circle cx="320.379" cy="40.7407" r="4" fill="#0" id="circle86"/>
	<circle cx="332.626" cy="771.473" r="4" fill="#0" id="circle87"/>
	<circle cx="340.79" cy="30.535" r="4" fill="#0" id="circle88"/>
	<circle cx="342.831" cy="751.062" r="4" fill="#0" id="circle89"/>
	<circle cx="357.119" cy="14.2058" r="4" fill="#0" id="circle90"/>
	<circle cx="359.16" cy="736.774" r="4" fill="#0" id="circle91"/>
	<circle cx="373.449" cy="720.444" r="4" fill="#0" id="circle92"/>
	<circle cx="377.531" cy="4" r="4" fill="#0" id="circle93"/>
	<circle cx="391.819" cy="710.239" r="4" fill="#0" id="circle94"/>
	<circle cx="397.942" cy="4" r="4" fill="#0" id="circle95"/>
	<circle cx="412.23" cy="710.239" r="4" fill="#0" id="circle96"/>
	<circle cx="418.354" cy="4" r="4" fill="#0" id="circle97"/>
	<circle cx="424.477" cy="726.568" r="4" fill="#0" id="circle98"/>
	<circle cx="436.724" cy="14.2058" r="4" fill="#0" id="circle99"/>
	<circle cx="442.848" cy="736.774" r="4" fill="#0" id="circle100"/>
	<circle cx="453.053" cy="28.4938" r="4" fill="#0" id="circle101"/>
	<circle cx="453.053" cy="755.144" r="4" fill="#0" id="circle102"/>
	<circle cx="461.218" cy="48.9053" r="4" fill="#0" id="circle103"/>
	<circle cx="463.259" cy="773.514" r="4" fill="#0" id="circle104"/>
	<circle cx="465.3" cy="118.305" r="4" fill="#0" id="circle105"/>
	<circle cx="465.3" cy="138.716" r="4" fill="#0" id="circle106"/>
	<circle cx="475.506" cy="65.2346" r="4" fill="#0" id="circle107"/>
	<circle cx="475.506" cy="85.6461" r="4" fill="#0" id="circle108"/>
	<circle cx="475.506" cy="157.086" r="4" fill="#0" id="circle109"/>
	<circle cx="475.506" cy="536.741" r="4" fill="#0" id="circle110"/>
	<circle cx="477.547" cy="789.844" r="4" fill="#0" id="circle111"/>
	<circle cx="479.588" cy="557.152" r="4" fill="#0" id="circle112"/>
	<circle cx="485.712" cy="175.457" r="4" fill="#0" id="circle113"/>
	<circle cx="485.712" cy="577.564" r="4" fill="#0" id="circle114"/>
	<circle cx="491.835" cy="522.453" r="4" fill="#0" id="circle115"/>
	<circle cx="493.877" cy="802.091" r="4" fill="#0" id="circle116"/>
	<circle cx="495.918" cy="485.712" r="4" fill="#0" id="circle117"/>
	<circle cx="495.918" cy="595.934" r="4" fill="#0" id="circle118"/>
	<circle cx="495.918" cy="616.346" r="4" fill="#0" id="circle119"/>
	<circle cx="500" cy="822.502" r="4" fill="#0" id="circle120"/>
	<circle cx="506.123" cy="183.621" r="4" fill="#0" id="circle121"/>
	<circle cx="506.123" cy="404.066" r="4" fill="#0" id="circle122"/>
	<circle cx="506.123" cy="424.477" r="4" fill="#0" id="circle123"/>
	<circle cx="506.123" cy="444.889" r="4" fill="#0" id="circle124"/>
	<circle cx="506.123" cy="465.3" r="4" fill="#0" id="circle125"/>
	<circle cx="506.123" cy="634.716" r="4" fill="#0" id="circle126"/>
	<circle cx="516.329" cy="373.449" r="4" fill="#0" id="circle127"/>
	<circle cx="516.329" cy="836.79" r="4" fill="#0" id="circle128"/>
	<circle cx="522.453" cy="649.004" r="4" fill="#0" id="circle129"/>
	<circle cx="524.494" cy="857.202" r="4" fill="#0" id="circle130"/>
	<circle cx="526.535" cy="187.704" r="4" fill="#0" id="circle131"/>
	<circle cx="526.535" cy="342.831" r="4" fill="#0" id="circle132"/>
	<circle cx="526.535" cy="669.416" r="4" fill="#0" id="circle133"/>
	<circle cx="536.741" cy="687.786" r="4" fill="#0" id="circle134"/>
	<circle cx="540.823" cy="871.49" r="4" fill="#0" id="circle135"/>
	<circle cx="542.864" cy="328.543" r="4" fill="#0" id="circle136"/>
	<circle cx="544.905" cy="177.498" r="4" fill="#0" id="circle137"/>
	<circle cx="546.947" cy="706.156" r="4" fill="#0" id="circle138"/>
	<circle cx="555.111" cy="312.214" r="4" fill="#0" id="circle139"/>
	<circle cx="555.111" cy="887.819" r="4" fill="#0" id="circle140"/>
	<circle cx="563.276" cy="720.444" r="4" fill="#0" id="circle141"/>
	<circle cx="565.317" cy="173.416" r="4" fill="#0" id="circle142"/>
	<circle cx="571.44" cy="299.967" r="4" fill="#0" id="circle143"/>
	<circle cx="571.44" cy="740.856" r="4" fill="#0" id="circle144"/>
	<circle cx="571.44" cy="902.107" r="4" fill="#0" id="circle145"/>
	<circle cx="585.728" cy="167.292" r="4" fill="#0" id="circle146"/>
	<circle cx="585.728" cy="316.296" r="4" fill="#0" id="circle147"/>
	<circle cx="585.728" cy="918.436" r="4" fill="#0" id="circle148"/>
	<circle cx="587.77" cy="755.144" r="4" fill="#0" id="circle149"/>
	<circle cx="595.934" cy="91.7695" r="4" fill="#0" id="circle150"/>
	<circle cx="595.934" cy="112.181" r="4" fill="#0" id="circle151"/>
	<circle cx="595.934" cy="132.593" r="4" fill="#0" id="circle152"/>
	<circle cx="595.934" cy="775.556" r="4" fill="#0" id="circle153"/>
	<circle cx="595.934" cy="936.807" r="4" fill="#0" id="circle154"/>
	<circle cx="606.14" cy="61.1523" r="4" fill="#0" id="circle155"/>
	<circle cx="606.14" cy="322.42" r="4" fill="#0" id="circle156"/>
	<circle cx="606.14" cy="793.926" r="4" fill="#0" id="circle157"/>
	<circle cx="610.222" cy="953.136" r="4" fill="#0" id="circle158"/>
	<circle cx="618.387" cy="810.255" r="4" fill="#0" id="circle159"/>
	<circle cx="620.428" cy="971.506" r="4" fill="#0" id="circle160"/>
	<circle cx="624.51" cy="332.626" r="4" fill="#0" id="circle161"/>
	<circle cx="626.551" cy="65.2346" r="4" fill="#0" id="circle162"/>
	<circle cx="628.593" cy="828.626" r="4" fill="#0" id="circle163"/>
	<circle cx="638.798" cy="846.996" r="4" fill="#0" id="circle164"/>
	<circle cx="638.798" cy="981.712" r="4" fill="#0" id="circle165"/>
	<circle cx="644.922" cy="332.626" r="4" fill="#0" id="circle166"/>
	<circle cx="646.963" cy="65.2346" r="4" fill="#0" id="circle167"/>
	<circle cx="653.086" cy="863.325" r="4" fill="#0" id="circle168"/>
	<circle cx="659.21" cy="989.877" r="4" fill="#0" id="circle169"/>
	<circle cx="663.292" cy="881.695" r="4" fill="#0" id="circle170"/>
	<circle cx="665.333" cy="332.626" r="4" fill="#0" id="circle171"/>
	<circle cx="667.374" cy="65.2346" r="4" fill="#0" id="circle172"/>
	<circle cx="677.58" cy="898.025" r="4" fill="#0" id="circle173"/>
	<circle cx="679.621" cy="996" r="4" fill="#0" id="circle174"/>
	<circle cx="685.745" cy="332.626" r="4" fill="#0" id="circle175"/>
	<circle cx="687.786" cy="65.2346" r="4" fill="#0" id="circle176"/>
	<circle cx="687.786" cy="916.395" r="4" fill="#0" id="circle177"/>
	<circle cx="695.951" cy="936.807" r="4" fill="#0" id="circle178"/>
	<circle cx="700.033" cy="965.383" r="4" fill="#0" id="circle179"/>
	<circle cx="700.033" cy="985.794" r="4" fill="#0" id="circle180"/>
	<circle cx="706.156" cy="332.626" r="4" fill="#0" id="circle181"/>
	<circle cx="708.198" cy="65.2346" r="4" fill="#0" id="circle182"/>
	<circle cx="726.568" cy="332.626" r="4" fill="#0" id="circle183"/>
	<circle cx="728.609" cy="65.2346" r="4" fill="#0" id="circle184"/>
	<circle cx="746.979" cy="332.626" r="4" fill="#0" id="circle185"/>
	<circle cx="749.021" cy="65.2346" r="4" fill="#0" id="circle186"/>
	<circle cx="765.35" cy="342.831" r="4" fill="#0" id="circle187"/>
	<circle cx="769.432" cy="69.3169" r="4" fill="#0" id="circle188"/>
	<circle cx="785.761" cy="342.831" r="4" fill="#0" id="circle189"/>
	<circle cx="789.844" cy="75.4403" r="4" fill="#0" id="circle190"/>
	<circle cx="806.173" cy="342.831" r="4" fill="#0" id="circle191"/>
	<circle cx="810.255" cy="75.4403" r="4" fill="#0" id="circle192"/>
	<circle cx="826.584" cy="342.831" r="4" fill="#0" id="circle193"/>
	<circle cx="830.667" cy="75.4403" r="4" fill="#0" id="circle194"/>
	<circle cx="846.996" cy="342.831" r="4" fill="#0" id="circle195"/>
	<circle cx="851.078" cy="75.4403" r="4" fill="#0" id="circle196"/>
	<circle cx="867.407" cy="342.831" r="4" fill="#0" id="circle197"/>
	<circle cx="871.49" cy="75.4403" r="4" fill="#0" id="circle198"/>
	<circle cx="887.819" cy="342.831" r="4" fill="#0" id="circle199"/>
	<circle cx="891.901" cy="75.4403" r="4" fill="#0" id="circle200"/>
	<circle cx="908.23" cy="350.996" r="4" fill="#0" id="circle201"/>
	<circle cx="912.313" cy="79.5226" r="4" fill="#0" id="circle202"/>
	<circle cx="928.642" cy="353.037" r="4" fill="#0" id="circle203"/>
	<circle cx="932.724" cy="85.6461" r="4" fill="#0" id="circle204"/>
	<circle cx="949.053" cy="353.037" r="4" fill="#0" id="circle205"/>
	<circle cx="953.136" cy="85.6461" r="4" fill="#0" id="circle206"/>
	<circle cx="969.465" cy="353.037" r="4" fill="#0" id="circle207"/>
	<circle cx="973.547" cy="85.6461" r="4" fill="#0" id="circle208"/>
	<circle cx="985.794" cy="250.979" r="4" fill="#0" id="circle209"/>
	<circle cx="985.794" cy="271.391" r="4" fill="#0" id="circle210"/>
	<circle cx="985.794" cy="291.802" r="4" fill="#0" id="circle211"/>
	<circle cx="985.794" cy="312.214" r="4" fill="#0" id="circle212"/>
	<circle cx="985.794" cy="332.626" r="4" fill="#0" id="circle213"/>
	<circle cx="993.959" cy="85.6461" r="4" fill="#0" id="circle214"/>
	<circle cx="996" cy="106.058" r="4" fill="#0" id="circle215"/>
	<circle cx="996" cy="126.469" r="4" fill="#0" id="circle216"/>
	<circle cx="996" cy="146.881" r="4" fill="#0" id="circle217"/>
	<circle cx="996" cy="167.292" r="4" fill="#0" id="circle218"/>
	<circle cx="996" cy="187.704" r="4" fill="#0" id="circle219"/>
	<circle cx="996" cy="208.115" r="4" fill="#0" id="circle220"/>
	<circle cx="996" cy="228.527" r="4" fill="#0" id="circle221"/>
	</g>
</svg>