<?xml version="1.0" encoding="UTF-8" standalone="no"?>
<!-- Created with CurveBenchmark -->
<svg
	xmlns:dc="http://purl.org/dc/elements/1.1/"
	xmlns:cc="http://creativecommons.org/ns#"
	xmlns:rdf="http://www.w3.org/1999/02/22-rdf-syntax-ns#"
	xmlns:svg="http://www.w3.org/2000/svg"
	xmlns="http://www.w3.org/2000/svg"
	xmlns:sodipodi="http://sodipodi.sourceforge.net/DTD/sodipodi-0.dtd"
	xmlns:inkscape="http://www.inkscape.org/namespaces/inkscape"
	width="1000"
	height="1000"
	id="svg2"
	version="1.1"
	sodipodi:docname="manifold/fitconnect-rat11.png.txt">
<defs
	id="defs4" />
<metadata
	id="metadata7">
	<rdf:RDF>
		<cc:Work
			rdf:about="">
			<dc:format>image/svg+xml</dc:format>
			<dc:type
				rdf:resource="http://purl.org/dc/dcmitype/StillImage" />
			<dc:title></dc:title>
		</cc:Work>
	</rdf:RDF>
</metadata>
<g
	inkscape:label="Layer 1"
	inkscape:groupmode="layer"
	id="layer1">
	<path style="fill:none;stroke:red;stroke-width:1px;stroke-linecap:butt;stroke-linejoin:miter;stroke-opacity:1" d="M 4,977.371 11.7621,961.847 z" id="boundary" inkscape:connector-curvature="0" />
	<path style="fill:none;stroke:red;stroke-width:1px;stroke-linecap:butt;stroke-linejoin:miter;stroke-opacity:1" d="M 4,977.371 13.3146,989.79 z" id="boundary" inkscape:connector-curvature="0" />
	<path style="fill:none;stroke:red;stroke-width:1px;stroke-linecap:butt;stroke-linejoin:miter;stroke-opacity:1" d="M 11.7621,961.847 24.1815,949.427 z" id="boundary" inkscape:connector-curvature="0" />
	<path style="fill:none;stroke:red;stroke-width:1px;stroke-linecap:butt;stroke-linejoin:miter;stroke-opacity:1" d="M 13.3146,989.79 28.8388,982.028 z" id="boundary" inkscape:connector-curvature="0" />
	<path style="fill:none;stroke:red;stroke-width:1px;stroke-linecap:butt;stroke-linejoin:miter;stroke-opacity:1" d="M 24.1815,949.427 31.9437,933.903 z" id="boundary" inkscape:connector-curvature="0" />
	<path style="fill:none;stroke:red;stroke-width:1px;stroke-linecap:butt;stroke-linejoin:miter;stroke-opacity:1" d="M 28.8388,982.028 42.8106,974.266 z" id="boundary" inkscape:connector-curvature="0" />
	<path style="fill:none;stroke:red;stroke-width:1px;stroke-linecap:butt;stroke-linejoin:miter;stroke-opacity:1" d="M 31.9437,933.903 47.4679,933.903 z" id="boundary" inkscape:connector-curvature="0" />
	<path style="fill:none;stroke:red;stroke-width:1px;stroke-linecap:butt;stroke-linejoin:miter;stroke-opacity:1" d="M 35.0485,604.789 42.8106,589.264 z" id="boundary" inkscape:connector-curvature="0" />
	<path style="fill:none;stroke:red;stroke-width:1px;stroke-linecap:butt;stroke-linejoin:miter;stroke-opacity:1" d="M 35.0485,604.789 44.3631,617.208 z" id="boundary" inkscape:connector-curvature="0" />
	<path style="fill:none;stroke:red;stroke-width:1px;stroke-linecap:butt;stroke-linejoin:miter;stroke-opacity:1" d="M 42.8106,589.264 50.5728,573.74 z" id="boundary" inkscape:connector-curvature="0" />
	<path style="fill:none;stroke:red;stroke-width:1px;stroke-linecap:butt;stroke-linejoin:miter;stroke-opacity:1" d="M 42.8106,974.266 58.3349,974.266 z" id="boundary" inkscape:connector-curvature="0" />
	<path style="fill:none;stroke:red;stroke-width:1px;stroke-linecap:butt;stroke-linejoin:miter;stroke-opacity:1" d="M 44.3631,617.208 58.3349,609.446 z" id="boundary" inkscape:connector-curvature="0" />
	<path style="fill:none;stroke:red;stroke-width:1px;stroke-linecap:butt;stroke-linejoin:miter;stroke-opacity:1" d="M 47.4679,933.903 62.9922,933.903 z" id="boundary" inkscape:connector-curvature="0" />
	<path style="fill:none;stroke:red;stroke-width:1px;stroke-linecap:butt;stroke-linejoin:miter;stroke-opacity:1" d="M 50.5728,573.74 58.3349,558.216 z" id="boundary" inkscape:connector-curvature="0" />
	<path style="fill:none;stroke:red;stroke-width:1px;stroke-linecap:butt;stroke-linejoin:miter;stroke-opacity:1" d="M 58.3349,558.216 70.7543,545.797 z" id="boundary" inkscape:connector-curvature="0" />
	<path style="fill:none;stroke:red;stroke-width:1px;stroke-linecap:butt;stroke-linejoin:miter;stroke-opacity:1" d="M 58.3349,609.446 72.3067,601.684 z" id="boundary" inkscape:connector-curvature="0" />
	<path style="fill:none;stroke:red;stroke-width:1px;stroke-linecap:butt;stroke-linejoin:miter;stroke-opacity:1" d="M 58.3349,974.266 73.8592,974.266 z" id="boundary" inkscape:connector-curvature="0" />
	<path style="fill:none;stroke:red;stroke-width:1px;stroke-linecap:butt;stroke-linejoin:miter;stroke-opacity:1" d="M 62.9922,933.903 78.5164,933.903 z" id="boundary" inkscape:connector-curvature="0" />
	<path style="fill:none;stroke:red;stroke-width:1px;stroke-linecap:butt;stroke-linejoin:miter;stroke-opacity:1" d="M 70.7543,545.797 81.6213,527.167 z" id="boundary" inkscape:connector-curvature="0" />
	<path style="fill:none;stroke:red;stroke-width:1px;stroke-linecap:butt;stroke-linejoin:miter;stroke-opacity:1" d="M 72.3067,601.684 87.831,598.579 z" id="boundary" inkscape:connector-curvature="0" />
	<path style="fill:none;stroke:red;stroke-width:1px;stroke-linecap:butt;stroke-linejoin:miter;stroke-opacity:1" d="M 73.8592,974.266 89.3834,974.266 z" id="boundary" inkscape:connector-curvature="0" />
	<path style="fill:none;stroke:red;stroke-width:1px;stroke-linecap:butt;stroke-linejoin:miter;stroke-opacity:1" d="M 78.5164,933.903 94.0407,933.903 z" id="boundary" inkscape:connector-curvature="0" />
	<path style="fill:none;stroke:red;stroke-width:1px;stroke-linecap:butt;stroke-linejoin:miter;stroke-opacity:1" d="M 81.6213,527.167 89.3834,511.643 z" id="boundary" inkscape:connector-curvature="0" />
	<path style="fill:none;stroke:red;stroke-width:1px;stroke-linecap:butt;stroke-linejoin:miter;stroke-opacity:1" d="M 87.831,598.579 103.355,598.579 z" id="boundary" inkscape:connector-curvature="0" />
	<path style="fill:none;stroke:red;stroke-width:1px;stroke-linecap:butt;stroke-linejoin:miter;stroke-opacity:1" d="M 89.3834,511.643 97.1455,496.119 z" id="boundary" inkscape:connector-curvature="0" />
	<path style="fill:none;stroke:red;stroke-width:1px;stroke-linecap:butt;stroke-linejoin:miter;stroke-opacity:1" d="M 89.3834,974.266 104.908,974.266 z" id="boundary" inkscape:connector-curvature="0" />
	<path style="fill:none;stroke:red;stroke-width:1px;stroke-linecap:butt;stroke-linejoin:miter;stroke-opacity:1" d="M 94.0407,933.903 109.565,933.903 z" id="boundary" inkscape:connector-curvature="0" />
	<path style="fill:none;stroke:red;stroke-width:1px;stroke-linecap:butt;stroke-linejoin:miter;stroke-opacity:1" d="M 97.1455,496.119 104.908,472.833 z" id="boundary" inkscape:connector-curvature="0" />
	<path style="fill:none;stroke:red;stroke-width:1px;stroke-linecap:butt;stroke-linejoin:miter;stroke-opacity:1" d="M 103.355,598.579 112.67,586.16 z" id="boundary" inkscape:connector-curvature="0" />
	<path style="fill:none;stroke:red;stroke-width:1px;stroke-linecap:butt;stroke-linejoin:miter;stroke-opacity:1" d="M 104.908,472.833 117.327,460.413 z" id="boundary" inkscape:connector-curvature="0" />
	<path style="fill:none;stroke:red;stroke-width:1px;stroke-linecap:butt;stroke-linejoin:miter;stroke-opacity:1" d="M 104.908,974.266 118.879,982.028 z" id="boundary" inkscape:connector-curvature="0" />
	<path style="fill:none;stroke:red;stroke-width:1px;stroke-linecap:butt;stroke-linejoin:miter;stroke-opacity:1" d="M 109.565,933.903 125.089,933.903 z" id="boundary" inkscape:connector-curvature="0" />
	<path style="fill:none;stroke:red;stroke-width:1px;stroke-linecap:butt;stroke-linejoin:miter;stroke-opacity:1" d="M 112.67,586.16 126.642,578.397 z" id="boundary" inkscape:connector-curvature="0" />
	<path style="fill:none;stroke:red;stroke-width:1px;stroke-linecap:butt;stroke-linejoin:miter;stroke-opacity:1" d="M 117.327,460.413 120.432,441.784 z" id="boundary" inkscape:connector-curvature="0" />
	<path style="fill:none;stroke:red;stroke-width:1px;stroke-linecap:butt;stroke-linejoin:miter;stroke-opacity:1" d="M 118.879,982.028 134.404,982.028 z" id="boundary" inkscape:connector-curvature="0" />
	<path style="fill:none;stroke:red;stroke-width:1px;stroke-linecap:butt;stroke-linejoin:miter;stroke-opacity:1" d="M 120.432,426.26 120.432,441.784 z" id="boundary" inkscape:connector-curvature="0" />
	<path style="fill:none;stroke:red;stroke-width:1px;stroke-linecap:butt;stroke-linejoin:miter;stroke-opacity:1" d="M 120.432,426.26 128.194,410.736 z" id="boundary" inkscape:connector-curvature="0" />
	<path style="fill:none;stroke:red;stroke-width:1px;stroke-linecap:butt;stroke-linejoin:miter;stroke-opacity:1" d="M 125.089,933.903 140.613,933.903 z" id="boundary" inkscape:connector-curvature="0" />
	<path style="fill:none;stroke:red;stroke-width:1px;stroke-linecap:butt;stroke-linejoin:miter;stroke-opacity:1" d="M 126.642,578.397 140.613,586.16 z" id="boundary" inkscape:connector-curvature="0" />
	<path style="fill:none;stroke:red;stroke-width:1px;stroke-linecap:butt;stroke-linejoin:miter;stroke-opacity:1" d="M 128.194,410.736 135.956,395.211 z" id="boundary" inkscape:connector-curvature="0" />
	<path style="fill:none;stroke:red;stroke-width:1px;stroke-linecap:butt;stroke-linejoin:miter;stroke-opacity:1" d="M 134.404,982.028 148.376,989.79 z" id="boundary" inkscape:connector-curvature="0" />
	<path style="fill:none;stroke:red;stroke-width:1px;stroke-linecap:butt;stroke-linejoin:miter;stroke-opacity:1" d="M 135.956,395.211 143.718,379.687 z" id="boundary" inkscape:connector-curvature="0" />
	<path style="fill:none;stroke:red;stroke-width:1px;stroke-linecap:butt;stroke-linejoin:miter;stroke-opacity:1" d="M 140.613,586.16 154.585,578.397 z" id="boundary" inkscape:connector-curvature="0" />
	<path style="fill:none;stroke:red;stroke-width:1px;stroke-linecap:butt;stroke-linejoin:miter;stroke-opacity:1" d="M 140.613,933.903 156.138,933.903 z" id="boundary" inkscape:connector-curvature="0" />
	<path style="fill:none;stroke:red;stroke-width:1px;stroke-linecap:butt;stroke-linejoin:miter;stroke-opacity:1" d="M 143.718,364.163 143.718,379.687 z" id="boundary" inkscape:connector-curvature="0" />
	<path style="fill:none;stroke:red;stroke-width:1px;stroke-linecap:butt;stroke-linejoin:miter;stroke-opacity:1" d="M 143.718,364.163 156.138,351.743 z" id="boundary" inkscape:connector-curvature="0" />
	<path style="fill:none;stroke:red;stroke-width:1px;stroke-linecap:butt;stroke-linejoin:miter;stroke-opacity:1" d="M 148.376,989.79 163.9,989.79 z" id="boundary" inkscape:connector-curvature="0" />
	<path style="fill:none;stroke:red;stroke-width:1px;stroke-linecap:butt;stroke-linejoin:miter;stroke-opacity:1" d="M 151.48,154.585 151.48,170.11 z" id="boundary" inkscape:connector-curvature="0" />
	<path style="fill:none;stroke:red;stroke-width:1px;stroke-linecap:butt;stroke-linejoin:miter;stroke-opacity:1" d="M 151.48,154.585 159.243,131.299 z" id="boundary" inkscape:connector-curvature="0" />
	<path style="fill:none;stroke:red;stroke-width:1px;stroke-linecap:butt;stroke-linejoin:miter;stroke-opacity:1" d="M 151.48,170.11 151.48,185.634 z" id="boundary" inkscape:connector-curvature="0" />
	<path style="fill:none;stroke:red;stroke-width:1px;stroke-linecap:butt;stroke-linejoin:miter;stroke-opacity:1" d="M 151.48,185.634 151.48,201.158 z" id="boundary" inkscape:connector-curvature="0" />
	<path style="fill:none;stroke:red;stroke-width:1px;stroke-linecap:butt;stroke-linejoin:miter;stroke-opacity:1" d="M 151.48,201.158 151.48,216.682 z" id="boundary" inkscape:connector-curvature="0" />
	<path style="fill:none;stroke:red;stroke-width:1px;stroke-linecap:butt;stroke-linejoin:miter;stroke-opacity:1" d="M 151.48,216.682 167.005,221.34 z" id="boundary" inkscape:connector-curvature="0" />
	<path style="fill:none;stroke:red;stroke-width:1px;stroke-linecap:butt;stroke-linejoin:miter;stroke-opacity:1" d="M 151.48,829.89 151.48,845.415 z" id="boundary" inkscape:connector-curvature="0" />
	<path style="fill:none;stroke:red;stroke-width:1px;stroke-linecap:butt;stroke-linejoin:miter;stroke-opacity:1" d="M 151.48,829.89 159.243,806.604 z" id="boundary" inkscape:connector-curvature="0" />
	<path style="fill:none;stroke:red;stroke-width:1px;stroke-linecap:butt;stroke-linejoin:miter;stroke-opacity:1" d="M 151.48,845.415 151.48,860.939 z" id="boundary" inkscape:connector-curvature="0" />
	<path style="fill:none;stroke:red;stroke-width:1px;stroke-linecap:butt;stroke-linejoin:miter;stroke-opacity:1" d="M 151.48,860.939 159.243,874.911 z" id="boundary" inkscape:connector-curvature="0" />
	<path style="fill:none;stroke:red;stroke-width:1px;stroke-linecap:butt;stroke-linejoin:miter;stroke-opacity:1" d="M 154.585,578.397 170.11,578.397 z" id="boundary" inkscape:connector-curvature="0" />
	<path style="fill:none;stroke:red;stroke-width:1px;stroke-linecap:butt;stroke-linejoin:miter;stroke-opacity:1" d="M 156.138,351.743 159.243,325.352 z" id="boundary" inkscape:connector-curvature="0" />
	<path style="fill:none;stroke:red;stroke-width:1px;stroke-linecap:butt;stroke-linejoin:miter;stroke-opacity:1" d="M 156.138,933.903 171.662,933.903 z" id="boundary" inkscape:connector-curvature="0" />
	<path style="fill:none;stroke:red;stroke-width:1px;stroke-linecap:butt;stroke-linejoin:miter;stroke-opacity:1" d="M 159.243,92.4883 159.243,115.775 z" id="boundary" inkscape:connector-curvature="0" />
	<path style="fill:none;stroke:red;stroke-width:1px;stroke-linecap:butt;stroke-linejoin:miter;stroke-opacity:1" d="M 159.243,92.4883 167.005,76.964 z" id="boundary" inkscape:connector-curvature="0" />
	<path style="fill:none;stroke:red;stroke-width:1px;stroke-linecap:butt;stroke-linejoin:miter;stroke-opacity:1" d="M 159.243,115.775 159.243,131.299 z" id="boundary" inkscape:connector-curvature="0" />
	<path style="fill:none;stroke:red;stroke-width:1px;stroke-linecap:butt;stroke-linejoin:miter;stroke-opacity:1" d="M 159.243,325.352 174.767,309.828 z" id="boundary" inkscape:connector-curvature="0" />
	<path style="fill:none;stroke:red;stroke-width:1px;stroke-linecap:butt;stroke-linejoin:miter;stroke-opacity:1" d="M 159.243,760.031 159.243,775.556 z" id="boundary" inkscape:connector-curvature="0" />
	<path style="fill:none;stroke:red;stroke-width:1px;stroke-linecap:butt;stroke-linejoin:miter;stroke-opacity:1" d="M 159.243,760.031 167.005,736.745 z" id="boundary" inkscape:connector-curvature="0" />
	<path style="fill:none;stroke:red;stroke-width:1px;stroke-linecap:butt;stroke-linejoin:miter;stroke-opacity:1" d="M 159.243,775.556 159.243,791.08 z" id="boundary" inkscape:connector-curvature="0" />
	<path style="fill:none;stroke:red;stroke-width:1px;stroke-linecap:butt;stroke-linejoin:miter;stroke-opacity:1" d="M 159.243,791.08 159.243,806.604 z" id="boundary" inkscape:connector-curvature="0" />
	<path style="fill:none;stroke:red;stroke-width:1px;stroke-linecap:butt;stroke-linejoin:miter;stroke-opacity:1" d="M 159.243,874.911 167.005,888.883 z" id="boundary" inkscape:connector-curvature="0" />
	<path style="fill:none;stroke:red;stroke-width:1px;stroke-linecap:butt;stroke-linejoin:miter;stroke-opacity:1" d="M 163.9,989.79 179.424,996 z" id="boundary" inkscape:connector-curvature="0" />
	<path style="fill:none;stroke:red;stroke-width:1px;stroke-linecap:butt;stroke-linejoin:miter;stroke-opacity:1" d="M 167.005,76.964 174.767,61.4397 z" id="boundary" inkscape:connector-curvature="0" />
	<path style="fill:none;stroke:red;stroke-width:1px;stroke-linecap:butt;stroke-linejoin:miter;stroke-opacity:1" d="M 167.005,221.34 174.767,235.311 z" id="boundary" inkscape:connector-curvature="0" />
	<path style="fill:none;stroke:red;stroke-width:1px;stroke-linecap:butt;stroke-linejoin:miter;stroke-opacity:1" d="M 167.005,736.745 174.767,713.459 z" id="boundary" inkscape:connector-curvature="0" />
	<path style="fill:none;stroke:red;stroke-width:1px;stroke-linecap:butt;stroke-linejoin:miter;stroke-opacity:1" d="M 167.005,888.883 180.977,896.645 z" id="boundary" inkscape:connector-curvature="0" />
	<path style="fill:none;stroke:red;stroke-width:1px;stroke-linecap:butt;stroke-linejoin:miter;stroke-opacity:1" d="M 170.11,578.397 185.634,578.397 z" id="boundary" inkscape:connector-curvature="0" />
	<path style="fill:none;stroke:red;stroke-width:1px;stroke-linecap:butt;stroke-linejoin:miter;stroke-opacity:1" d="M 171.662,933.903 184.081,921.484 z" id="boundary" inkscape:connector-curvature="0" />
	<path style="fill:none;stroke:red;stroke-width:1px;stroke-linecap:butt;stroke-linejoin:miter;stroke-opacity:1" d="M 174.767,45.9155 174.767,61.4397 z" id="boundary" inkscape:connector-curvature="0" />
	<path style="fill:none;stroke:red;stroke-width:1px;stroke-linecap:butt;stroke-linejoin:miter;stroke-opacity:1" d="M 174.767,45.9155 187.186,33.4961 z" id="boundary" inkscape:connector-curvature="0" />
	<path style="fill:none;stroke:red;stroke-width:1px;stroke-linecap:butt;stroke-linejoin:miter;stroke-opacity:1" d="M 174.767,235.311 184.081,247.731 z" id="boundary" inkscape:connector-curvature="0" />
	<path style="fill:none;stroke:red;stroke-width:1px;stroke-linecap:butt;stroke-linejoin:miter;stroke-opacity:1" d="M 174.767,309.828 182.529,286.541 z" id="boundary" inkscape:connector-curvature="0" />
	<path style="fill:none;stroke:red;stroke-width:1px;stroke-linecap:butt;stroke-linejoin:miter;stroke-opacity:1" d="M 174.767,713.459 182.529,697.934 z" id="boundary" inkscape:connector-curvature="0" />
	<path style="fill:none;stroke:red;stroke-width:1px;stroke-linecap:butt;stroke-linejoin:miter;stroke-opacity:1" d="M 179.424,996 194.948,989.79 z" id="boundary" inkscape:connector-curvature="0" />
	<path style="fill:none;stroke:red;stroke-width:1px;stroke-linecap:butt;stroke-linejoin:miter;stroke-opacity:1" d="M 180.977,896.645 184.081,921.484 z" id="boundary" inkscape:connector-curvature="0" />
	<path style="fill:none;stroke:red;stroke-width:1px;stroke-linecap:butt;stroke-linejoin:miter;stroke-opacity:1" d="M 182.529,286.541 198.053,271.017 z" id="boundary" inkscape:connector-curvature="0" />
	<path style="fill:none;stroke:red;stroke-width:1px;stroke-linecap:butt;stroke-linejoin:miter;stroke-opacity:1" d="M 182.529,697.934 194.948,685.515 z" id="boundary" inkscape:connector-curvature="0" />
	<path style="fill:none;stroke:red;stroke-width:1px;stroke-linecap:butt;stroke-linejoin:miter;stroke-opacity:1" d="M 184.081,247.731 198.053,255.493 z" id="boundary" inkscape:connector-curvature="0" />
	<path style="fill:none;stroke:red;stroke-width:1px;stroke-linecap:butt;stroke-linejoin:miter;stroke-opacity:1" d="M 185.634,578.397 199.606,570.635 z" id="boundary" inkscape:connector-curvature="0" />
	<path style="fill:none;stroke:red;stroke-width:1px;stroke-linecap:butt;stroke-linejoin:miter;stroke-opacity:1" d="M 187.186,33.4961 194.948,17.9718 z" id="boundary" inkscape:connector-curvature="0" />
	<path style="fill:none;stroke:red;stroke-width:1px;stroke-linecap:butt;stroke-linejoin:miter;stroke-opacity:1" d="M 194.948,17.9718 208.92,10.2097 z" id="boundary" inkscape:connector-curvature="0" />
	<path style="fill:none;stroke:red;stroke-width:1px;stroke-linecap:butt;stroke-linejoin:miter;stroke-opacity:1" d="M 194.948,685.515 202.71,669.991 z" id="boundary" inkscape:connector-curvature="0" />
	<path style="fill:none;stroke:red;stroke-width:1px;stroke-linecap:butt;stroke-linejoin:miter;stroke-opacity:1" d="M 194.948,989.79 210.473,996 z" id="boundary" inkscape:connector-curvature="0" />
	<path style="fill:none;stroke:red;stroke-width:1px;stroke-linecap:butt;stroke-linejoin:miter;stroke-opacity:1" d="M 198.053,255.493 198.053,271.017 z" id="boundary" inkscape:connector-curvature="0" />
	<path style="fill:none;stroke:red;stroke-width:1px;stroke-linecap:butt;stroke-linejoin:miter;stroke-opacity:1" d="M 199.606,570.635 215.13,570.635 z" id="boundary" inkscape:connector-curvature="0" />
	<path style="fill:none;stroke:red;stroke-width:1px;stroke-linecap:butt;stroke-linejoin:miter;stroke-opacity:1" d="M 202.71,669.991 205.815,651.362 z" id="boundary" inkscape:connector-curvature="0" />
	<path style="fill:none;stroke:red;stroke-width:1px;stroke-linecap:butt;stroke-linejoin:miter;stroke-opacity:1" d="M 205.815,651.362 213.577,635.837 z" id="boundary" inkscape:connector-curvature="0" />
	<path style="fill:none;stroke:red;stroke-width:1px;stroke-linecap:butt;stroke-linejoin:miter;stroke-opacity:1" d="M 208.92,10.2097 224.444,10.2097 z" id="boundary" inkscape:connector-curvature="0" />
	<path style="fill:none;stroke:red;stroke-width:1px;stroke-linecap:butt;stroke-linejoin:miter;stroke-opacity:1" d="M 210.473,996 222.892,982.028 z" id="boundary" inkscape:connector-curvature="0" />
	<path style="fill:none;stroke:red;stroke-width:1px;stroke-linecap:butt;stroke-linejoin:miter;stroke-opacity:1" d="M 213.577,635.837 221.34,620.313 z" id="boundary" inkscape:connector-curvature="0" />
	<path style="fill:none;stroke:red;stroke-width:1px;stroke-linecap:butt;stroke-linejoin:miter;stroke-opacity:1" d="M 215.13,570.635 230.654,570.635 z" id="boundary" inkscape:connector-curvature="0" />
	<path style="fill:none;stroke:red;stroke-width:1px;stroke-linecap:butt;stroke-linejoin:miter;stroke-opacity:1" d="M 221.34,620.313 229.102,604.789 z" id="boundary" inkscape:connector-curvature="0" />
	<path style="fill:none;stroke:red;stroke-width:1px;stroke-linecap:butt;stroke-linejoin:miter;stroke-opacity:1" d="M 222.892,873.358 222.892,888.883 z" id="boundary" inkscape:connector-curvature="0" />
	<path style="fill:none;stroke:red;stroke-width:1px;stroke-linecap:butt;stroke-linejoin:miter;stroke-opacity:1" d="M 222.892,873.358 238.416,865.596 z" id="boundary" inkscape:connector-curvature="0" />
	<path style="fill:none;stroke:red;stroke-width:1px;stroke-linecap:butt;stroke-linejoin:miter;stroke-opacity:1" d="M 222.892,888.883 222.892,904.407 z" id="boundary" inkscape:connector-curvature="0" />
	<path style="fill:none;stroke:red;stroke-width:1px;stroke-linecap:butt;stroke-linejoin:miter;stroke-opacity:1" d="M 222.892,904.407 222.892,919.931 z" id="boundary" inkscape:connector-curvature="0" />
	<path style="fill:none;stroke:red;stroke-width:1px;stroke-linecap:butt;stroke-linejoin:miter;stroke-opacity:1" d="M 222.892,919.931 222.892,935.455 z" id="boundary" inkscape:connector-curvature="0" />
	<path style="fill:none;stroke:red;stroke-width:1px;stroke-linecap:butt;stroke-linejoin:miter;stroke-opacity:1" d="M 222.892,935.455 222.892,950.98 z" id="boundary" inkscape:connector-curvature="0" />
	<path style="fill:none;stroke:red;stroke-width:1px;stroke-linecap:butt;stroke-linejoin:miter;stroke-opacity:1" d="M 222.892,950.98 222.892,966.504 z" id="boundary" inkscape:connector-curvature="0" />
	<path style="fill:none;stroke:red;stroke-width:1px;stroke-linecap:butt;stroke-linejoin:miter;stroke-opacity:1" d="M 222.892,966.504 222.892,982.028 z" id="boundary" inkscape:connector-curvature="0" />
	<path style="fill:none;stroke:red;stroke-width:1px;stroke-linecap:butt;stroke-linejoin:miter;stroke-opacity:1" d="M 224.444,10.2097 239.969,10.2097 z" id="boundary" inkscape:connector-curvature="0" />
	<path style="fill:none;stroke:red;stroke-width:1px;stroke-linecap:butt;stroke-linejoin:miter;stroke-opacity:1" d="M 229.102,604.789 236.864,589.264 z" id="boundary" inkscape:connector-curvature="0" />
	<path style="fill:none;stroke:red;stroke-width:1px;stroke-linecap:butt;stroke-linejoin:miter;stroke-opacity:1" d="M 230.654,570.635 236.864,589.264 z" id="boundary" inkscape:connector-curvature="0" />
	<path style="fill:none;stroke:red;stroke-width:1px;stroke-linecap:butt;stroke-linejoin:miter;stroke-opacity:1" d="M 238.416,865.596 253.941,865.596 z" id="boundary" inkscape:connector-curvature="0" />
	<path style="fill:none;stroke:red;stroke-width:1px;stroke-linecap:butt;stroke-linejoin:miter;stroke-opacity:1" d="M 239.969,10.2097 255.493,10.2097 z" id="boundary" inkscape:connector-curvature="0" />
	<path style="fill:none;stroke:red;stroke-width:1px;stroke-linecap:butt;stroke-linejoin:miter;stroke-opacity:1" d="M 253.941,865.596 269.465,865.596 z" id="boundary" inkscape:connector-curvature="0" />
	<path style="fill:none;stroke:red;stroke-width:1px;stroke-linecap:butt;stroke-linejoin:miter;stroke-opacity:1" d="M 255.493,10.2097 271.017,10.2097 z" id="boundary" inkscape:connector-curvature="0" />
	<path style="fill:none;stroke:red;stroke-width:1px;stroke-linecap:butt;stroke-linejoin:miter;stroke-opacity:1" d="M 269.465,865.596 284.989,865.596 z" id="boundary" inkscape:connector-curvature="0" />
	<path style="fill:none;stroke:red;stroke-width:1px;stroke-linecap:butt;stroke-linejoin:miter;stroke-opacity:1" d="M 271.017,10.2097 286.541,4 z" id="boundary" inkscape:connector-curvature="0" />
	<path style="fill:none;stroke:red;stroke-width:1px;stroke-linecap:butt;stroke-linejoin:miter;stroke-opacity:1" d="M 284.989,865.596 300.513,865.596 z" id="boundary" inkscape:connector-curvature="0" />
	<path style="fill:none;stroke:red;stroke-width:1px;stroke-linecap:butt;stroke-linejoin:miter;stroke-opacity:1" d="M 286.541,4 302.066,10.2097 z" id="boundary" inkscape:connector-curvature="0" />
	<path style="fill:none;stroke:red;stroke-width:1px;stroke-linecap:butt;stroke-linejoin:miter;stroke-opacity:1" d="M 300.513,865.596 314.485,873.358 z" id="boundary" inkscape:connector-curvature="0" />
	<path style="fill:none;stroke:red;stroke-width:1px;stroke-linecap:butt;stroke-linejoin:miter;stroke-opacity:1" d="M 302.066,10.2097 314.485,21.0767 z" id="boundary" inkscape:connector-curvature="0" />
	<path style="fill:none;stroke:red;stroke-width:1px;stroke-linecap:butt;stroke-linejoin:miter;stroke-opacity:1" d="M 306.723,938.56 306.723,954.085 z" id="boundary" inkscape:connector-curvature="0" />
	<path style="fill:none;stroke:red;stroke-width:1px;stroke-linecap:butt;stroke-linejoin:miter;stroke-opacity:1" d="M 306.723,938.56 314.485,919.931 z" id="boundary" inkscape:connector-curvature="0" />
	<path style="fill:none;stroke:red;stroke-width:1px;stroke-linecap:butt;stroke-linejoin:miter;stroke-opacity:1" d="M 306.723,954.085 316.038,966.504 z" id="boundary" inkscape:connector-curvature="0" />
	<path style="fill:none;stroke:red;stroke-width:1px;stroke-linecap:butt;stroke-linejoin:miter;stroke-opacity:1" d="M 314.485,21.0767 323.8,33.4961 z" id="boundary" inkscape:connector-curvature="0" />
	<path style="fill:none;stroke:red;stroke-width:1px;stroke-linecap:butt;stroke-linejoin:miter;stroke-opacity:1" d="M 314.485,873.358 314.485,888.883 z" id="boundary" inkscape:connector-curvature="0" />
	<path style="fill:none;stroke:red;stroke-width:1px;stroke-linecap:butt;stroke-linejoin:miter;stroke-opacity:1" d="M 314.485,888.883 314.485,904.407 z" id="boundary" inkscape:connector-curvature="0" />
	<path style="fill:none;stroke:red;stroke-width:1px;stroke-linecap:butt;stroke-linejoin:miter;stroke-opacity:1" d="M 314.485,904.407 314.485,919.931 z" id="boundary" inkscape:connector-curvature="0" />
	<path style="fill:none;stroke:red;stroke-width:1px;stroke-linecap:butt;stroke-linejoin:miter;stroke-opacity:1" d="M 316.038,966.504 330.009,974.266 z" id="boundary" inkscape:connector-curvature="0" />
	<path style="fill:none;stroke:red;stroke-width:1px;stroke-linecap:butt;stroke-linejoin:miter;stroke-opacity:1" d="M 323.8,33.4961 339.324,33.4961 z" id="boundary" inkscape:connector-curvature="0" />
	<path style="fill:none;stroke:red;stroke-width:1px;stroke-linecap:butt;stroke-linejoin:miter;stroke-opacity:1" d="M 330.009,974.266 345.534,974.266 z" id="boundary" inkscape:connector-curvature="0" />
	<path style="fill:none;stroke:red;stroke-width:1px;stroke-linecap:butt;stroke-linejoin:miter;stroke-opacity:1" d="M 339.324,33.4961 351.743,42.8106 z" id="boundary" inkscape:connector-curvature="0" />
	<path style="fill:none;stroke:red;stroke-width:1px;stroke-linecap:butt;stroke-linejoin:miter;stroke-opacity:1" d="M 345.534,974.266 361.058,974.266 z" id="boundary" inkscape:connector-curvature="0" />
	<path style="fill:none;stroke:red;stroke-width:1px;stroke-linecap:butt;stroke-linejoin:miter;stroke-opacity:1" d="M 351.743,42.8106 362.61,55.23 z" id="boundary" inkscape:connector-curvature="0" />
	<path style="fill:none;stroke:red;stroke-width:1px;stroke-linecap:butt;stroke-linejoin:miter;stroke-opacity:1" d="M 361.058,974.266 376.582,974.266 z" id="boundary" inkscape:connector-curvature="0" />
	<path style="fill:none;stroke:red;stroke-width:1px;stroke-linecap:butt;stroke-linejoin:miter;stroke-opacity:1" d="M 362.61,55.23 375.03,66.097 z" id="boundary" inkscape:connector-curvature="0" />
	<path style="fill:none;stroke:red;stroke-width:1px;stroke-linecap:butt;stroke-linejoin:miter;stroke-opacity:1" d="M 370.372,483.7 370.372,499.224 z" id="boundary" inkscape:connector-curvature="0" />
	<path style="fill:none;stroke:red;stroke-width:1px;stroke-linecap:butt;stroke-linejoin:miter;stroke-opacity:1" d="M 370.372,483.7 378.135,469.728 z" id="boundary" inkscape:connector-curvature="0" />
	<path style="fill:none;stroke:red;stroke-width:1px;stroke-linecap:butt;stroke-linejoin:miter;stroke-opacity:1" d="M 370.372,499.224 378.135,513.196 z" id="boundary" inkscape:connector-curvature="0" />
	<path style="fill:none;stroke:red;stroke-width:1px;stroke-linecap:butt;stroke-linejoin:miter;stroke-opacity:1" d="M 370.372,904.407 370.372,919.931 z" id="boundary" inkscape:connector-curvature="0" />
	<path style="fill:none;stroke:red;stroke-width:1px;stroke-linecap:butt;stroke-linejoin:miter;stroke-opacity:1" d="M 370.372,904.407 385.897,888.883 z" id="boundary" inkscape:connector-curvature="0" />
	<path style="fill:none;stroke:red;stroke-width:1px;stroke-linecap:butt;stroke-linejoin:miter;stroke-opacity:1" d="M 370.372,919.931 378.135,933.903 z" id="boundary" inkscape:connector-curvature="0" />
	<path style="fill:none;stroke:red;stroke-width:1px;stroke-linecap:butt;stroke-linejoin:miter;stroke-opacity:1" d="M 375.03,66.097 385.897,78.5164 z" id="boundary" inkscape:connector-curvature="0" />
	<path style="fill:none;stroke:red;stroke-width:1px;stroke-linecap:butt;stroke-linejoin:miter;stroke-opacity:1" d="M 376.582,974.266 392.106,974.266 z" id="boundary" inkscape:connector-curvature="0" />
	<path style="fill:none;stroke:red;stroke-width:1px;stroke-linecap:butt;stroke-linejoin:miter;stroke-opacity:1" d="M 378.135,174.767 378.135,190.291 z" id="boundary" inkscape:connector-curvature="0" />
	<path style="fill:none;stroke:red;stroke-width:1px;stroke-linecap:butt;stroke-linejoin:miter;stroke-opacity:1" d="M 378.135,174.767 385.897,156.138 z" id="boundary" inkscape:connector-curvature="0" />
	<path style="fill:none;stroke:red;stroke-width:1px;stroke-linecap:butt;stroke-linejoin:miter;stroke-opacity:1" d="M 378.135,190.291 381.239,205.815 z" id="boundary" inkscape:connector-curvature="0" />
	<path style="fill:none;stroke:red;stroke-width:1px;stroke-linecap:butt;stroke-linejoin:miter;stroke-opacity:1" d="M 378.135,469.728 393.659,461.966 z" id="boundary" inkscape:connector-curvature="0" />
	<path style="fill:none;stroke:red;stroke-width:1px;stroke-linecap:butt;stroke-linejoin:miter;stroke-opacity:1" d="M 378.135,513.196 393.659,514.748 z" id="boundary" inkscape:connector-curvature="0" />
	<path style="fill:none;stroke:red;stroke-width:1px;stroke-linecap:butt;stroke-linejoin:miter;stroke-opacity:1" d="M 378.135,933.903 393.659,933.903 z" id="boundary" inkscape:connector-curvature="0" />
	<path style="fill:none;stroke:red;stroke-width:1px;stroke-linecap:butt;stroke-linejoin:miter;stroke-opacity:1" d="M 381.239,205.815 396.764,212.025 z" id="boundary" inkscape:connector-curvature="0" />
	<path style="fill:none;stroke:red;stroke-width:1px;stroke-linecap:butt;stroke-linejoin:miter;stroke-opacity:1" d="M 385.897,78.5164 385.897,94.0407 z" id="boundary" inkscape:connector-curvature="0" />
	<path style="fill:none;stroke:red;stroke-width:1px;stroke-linecap:butt;stroke-linejoin:miter;stroke-opacity:1" d="M 385.897,94.0407 385.897,109.565 z" id="boundary" inkscape:connector-curvature="0" />
	<path style="fill:none;stroke:red;stroke-width:1px;stroke-linecap:butt;stroke-linejoin:miter;stroke-opacity:1" d="M 385.897,109.565 385.897,125.089 z" id="boundary" inkscape:connector-curvature="0" />
	<path style="fill:none;stroke:red;stroke-width:1px;stroke-linecap:butt;stroke-linejoin:miter;stroke-opacity:1" d="M 385.897,125.089 385.897,140.613 z" id="boundary" inkscape:connector-curvature="0" />
	<path style="fill:none;stroke:red;stroke-width:1px;stroke-linecap:butt;stroke-linejoin:miter;stroke-opacity:1" d="M 385.897,140.613 385.897,156.138 z" id="boundary" inkscape:connector-curvature="0" />
	<path style="fill:none;stroke:red;stroke-width:1px;stroke-linecap:butt;stroke-linejoin:miter;stroke-opacity:1" d="M 385.897,693.277 401.421,756.926 z" id="boundary" inkscape:connector-curvature="0" />
	<path style="fill:none;stroke:red;stroke-width:1px;stroke-linecap:butt;stroke-linejoin:miter;stroke-opacity:1" d="M 385.897,693.277 665.333,638.942 z" id="boundary" inkscape:connector-curvature="0" />
	<path style="fill:none;stroke:red;stroke-width:1px;stroke-linecap:butt;stroke-linejoin:miter;stroke-opacity:1" d="M 385.897,888.883 409.183,865.596 z" id="boundary" inkscape:connector-curvature="0" />
	<path style="fill:none;stroke:red;stroke-width:1px;stroke-linecap:butt;stroke-linejoin:miter;stroke-opacity:1" d="M 392.106,974.266 407.631,974.266 z" id="boundary" inkscape:connector-curvature="0" />
	<path style="fill:none;stroke:red;stroke-width:1px;stroke-linecap:butt;stroke-linejoin:miter;stroke-opacity:1" d="M 393.659,461.966 423.155,454.203 z" id="boundary" inkscape:connector-curvature="0" />
	<path style="fill:none;stroke:red;stroke-width:1px;stroke-linecap:butt;stroke-linejoin:miter;stroke-opacity:1" d="M 393.659,514.748 409.183,519.405 z" id="boundary" inkscape:connector-curvature="0" />
	<path style="fill:none;stroke:red;stroke-width:1px;stroke-linecap:butt;stroke-linejoin:miter;stroke-opacity:1" d="M 393.659,933.903 424.707,933.903 z" id="boundary" inkscape:connector-curvature="0" />
	<path style="fill:none;stroke:red;stroke-width:1px;stroke-linecap:butt;stroke-linejoin:miter;stroke-opacity:1" d="M 396.764,212.025 412.288,212.025 z" id="boundary" inkscape:connector-curvature="0" />
	<path style="fill:none;stroke:red;stroke-width:1px;stroke-linecap:butt;stroke-linejoin:miter;stroke-opacity:1" d="M 401.421,756.926 409.183,787.975 z" id="boundary" inkscape:connector-curvature="0" />
	<path style="fill:none;stroke:red;stroke-width:1px;stroke-linecap:butt;stroke-linejoin:miter;stroke-opacity:1" d="M 407.631,974.266 423.155,974.266 z" id="boundary" inkscape:connector-curvature="0" />
	<path style="fill:none;stroke:red;stroke-width:1px;stroke-linecap:butt;stroke-linejoin:miter;stroke-opacity:1" d="M 409.183,519.405 438.679,530.272 z" id="boundary" inkscape:connector-curvature="0" />
	<path style="fill:none;stroke:red;stroke-width:1px;stroke-linecap:butt;stroke-linejoin:miter;stroke-opacity:1" d="M 409.183,787.975 539.587,944.77 z" id="boundary" inkscape:connector-curvature="0" />
	<path style="fill:none;stroke:red;stroke-width:1px;stroke-linecap:butt;stroke-linejoin:miter;stroke-opacity:1" d="M 409.183,865.596 424.707,933.903 z" id="boundary" inkscape:connector-curvature="0" />
	<path style="fill:none;stroke:red;stroke-width:1px;stroke-linecap:butt;stroke-linejoin:miter;stroke-opacity:1" d="M 412.288,212.025 424.707,199.606 z" id="boundary" inkscape:connector-curvature="0" />
	<path style="fill:none;stroke:red;stroke-width:1px;stroke-linecap:butt;stroke-linejoin:miter;stroke-opacity:1" d="M 423.155,454.203 447.994,430.917 z" id="boundary" inkscape:connector-curvature="0" />
	<path style="fill:none;stroke:red;stroke-width:1px;stroke-linecap:butt;stroke-linejoin:miter;stroke-opacity:1" d="M 423.155,974.266 438.679,969.609 z" id="boundary" inkscape:connector-curvature="0" />
	<path style="fill:none;stroke:red;stroke-width:1px;stroke-linecap:butt;stroke-linejoin:miter;stroke-opacity:1" d="M 424.707,199.606 430.917,177.872 z" id="boundary" inkscape:connector-curvature="0" />
	<path style="fill:none;stroke:red;stroke-width:1px;stroke-linecap:butt;stroke-linejoin:miter;stroke-opacity:1" d="M 430.917,177.872 438.679,162.347 z" id="boundary" inkscape:connector-curvature="0" />
	<path style="fill:none;stroke:red;stroke-width:1px;stroke-linecap:butt;stroke-linejoin:miter;stroke-opacity:1" d="M 438.679,162.347 446.441,146.823 z" id="boundary" inkscape:connector-curvature="0" />
	<path style="fill:none;stroke:red;stroke-width:1px;stroke-linecap:butt;stroke-linejoin:miter;stroke-opacity:1" d="M 438.679,530.272 665.333,638.942 z" id="boundary" inkscape:connector-curvature="0" />
	<path style="fill:none;stroke:red;stroke-width:1px;stroke-linecap:butt;stroke-linejoin:miter;stroke-opacity:1" d="M 438.679,969.609 454.203,974.266 z" id="boundary" inkscape:connector-curvature="0" />
	<path style="fill:none;stroke:red;stroke-width:1px;stroke-linecap:butt;stroke-linejoin:miter;stroke-opacity:1" d="M 446.441,146.823 458.861,134.404 z" id="boundary" inkscape:connector-curvature="0" />
	<path style="fill:none;stroke:red;stroke-width:1px;stroke-linecap:butt;stroke-linejoin:miter;stroke-opacity:1" d="M 447.994,430.917 455.756,415.393 z" id="boundary" inkscape:connector-curvature="0" />
	<path style="fill:none;stroke:red;stroke-width:1px;stroke-linecap:butt;stroke-linejoin:miter;stroke-opacity:1" d="M 454.203,974.266 469.728,974.266 z" id="boundary" inkscape:connector-curvature="0" />
	<path style="fill:none;stroke:red;stroke-width:1px;stroke-linecap:butt;stroke-linejoin:miter;stroke-opacity:1" d="M 455.756,392.106 455.756,415.393 z" id="boundary" inkscape:connector-curvature="0" />
	<path style="fill:none;stroke:red;stroke-width:1px;stroke-linecap:butt;stroke-linejoin:miter;stroke-opacity:1" d="M 455.756,392.106 471.28,392.106 z" id="boundary" inkscape:connector-curvature="0" />
	<path style="fill:none;stroke:red;stroke-width:1px;stroke-linecap:butt;stroke-linejoin:miter;stroke-opacity:1" d="M 458.861,134.404 474.385,126.642 z" id="boundary" inkscape:connector-curvature="0" />
	<path style="fill:none;stroke:red;stroke-width:1px;stroke-linecap:butt;stroke-linejoin:miter;stroke-opacity:1" d="M 469.728,974.266 485.252,974.266 z" id="boundary" inkscape:connector-curvature="0" />
	<path style="fill:none;stroke:red;stroke-width:1px;stroke-linecap:butt;stroke-linejoin:miter;stroke-opacity:1" d="M 471.28,392.106 486.804,392.106 z" id="boundary" inkscape:connector-curvature="0" />
	<path style="fill:none;stroke:red;stroke-width:1px;stroke-linecap:butt;stroke-linejoin:miter;stroke-opacity:1" d="M 474.385,126.642 488.357,118.879 z" id="boundary" inkscape:connector-curvature="0" />
	<path style="fill:none;stroke:red;stroke-width:1px;stroke-linecap:butt;stroke-linejoin:miter;stroke-opacity:1" d="M 479.042,842.31 525.615,797.29 z" id="boundary" inkscape:connector-curvature="0" />
	<path style="fill:none;stroke:red;stroke-width:1px;stroke-linecap:butt;stroke-linejoin:miter;stroke-opacity:1" d="M 485.252,974.266 500.776,974.266 z" id="boundary" inkscape:connector-curvature="0" />
	<path style="fill:none;stroke:red;stroke-width:1px;stroke-linecap:butt;stroke-linejoin:miter;stroke-opacity:1" d="M 486.804,392.106 502.329,392.106 z" id="boundary" inkscape:connector-curvature="0" />
	<path style="fill:none;stroke:red;stroke-width:1px;stroke-linecap:butt;stroke-linejoin:miter;stroke-opacity:1" d="M 488.357,118.879 503.881,118.879 z" id="boundary" inkscape:connector-curvature="0" />
	<path style="fill:none;stroke:red;stroke-width:1px;stroke-linecap:butt;stroke-linejoin:miter;stroke-opacity:1" d="M 500.776,974.266 525.615,978.923 z" id="boundary" inkscape:connector-curvature="0" />
	<path style="fill:none;stroke:red;stroke-width:1px;stroke-linecap:butt;stroke-linejoin:miter;stroke-opacity:1" d="M 502.329,392.106 517.853,392.106 z" id="boundary" inkscape:connector-curvature="0" />
	<path style="fill:none;stroke:red;stroke-width:1px;stroke-linecap:butt;stroke-linejoin:miter;stroke-opacity:1" d="M 503.881,118.879 519.405,118.879 z" id="boundary" inkscape:connector-curvature="0" />
	<path style="fill:none;stroke:red;stroke-width:1px;stroke-linecap:butt;stroke-linejoin:miter;stroke-opacity:1" d="M 517.853,392.106 533.377,384.344 z" id="boundary" inkscape:connector-curvature="0" />
	<path style="fill:none;stroke:red;stroke-width:1px;stroke-linecap:butt;stroke-linejoin:miter;stroke-opacity:1" d="M 519.405,118.879 534.93,118.879 z" id="boundary" inkscape:connector-curvature="0" />
	<path style="fill:none;stroke:red;stroke-width:1px;stroke-linecap:butt;stroke-linejoin:miter;stroke-opacity:1" d="M 525.615,797.29 572.188,778.66 z" id="boundary" inkscape:connector-curvature="0" />
	<path style="fill:none;stroke:red;stroke-width:1px;stroke-linecap:butt;stroke-linejoin:miter;stroke-opacity:1" d="M 525.615,978.923 539.587,944.77 z" id="boundary" inkscape:connector-curvature="0" />
	<path style="fill:none;stroke:red;stroke-width:1px;stroke-linecap:butt;stroke-linejoin:miter;stroke-opacity:1" d="M 533.377,384.344 547.349,392.106 z" id="boundary" inkscape:connector-curvature="0" />
	<path style="fill:none;stroke:red;stroke-width:1px;stroke-linecap:butt;stroke-linejoin:miter;stroke-opacity:1" d="M 534.93,118.879 550.454,112.67 z" id="boundary" inkscape:connector-curvature="0" />
	<path style="fill:none;stroke:red;stroke-width:1px;stroke-linecap:butt;stroke-linejoin:miter;stroke-opacity:1" d="M 547.349,392.106 562.873,387.449 z" id="boundary" inkscape:connector-curvature="0" />
	<path style="fill:none;stroke:red;stroke-width:1px;stroke-linecap:butt;stroke-linejoin:miter;stroke-opacity:1" d="M 550.454,112.67 562.873,121.984 z" id="boundary" inkscape:connector-curvature="0" />
	<path style="fill:none;stroke:red;stroke-width:1px;stroke-linecap:butt;stroke-linejoin:miter;stroke-opacity:1" d="M 562.873,121.984 578.397,121.984 z" id="boundary" inkscape:connector-curvature="0" />
	<path style="fill:none;stroke:red;stroke-width:1px;stroke-linecap:butt;stroke-linejoin:miter;stroke-opacity:1" d="M 562.873,387.449 575.293,376.582 z" id="boundary" inkscape:connector-curvature="0" />
	<path style="fill:none;stroke:red;stroke-width:1px;stroke-linecap:butt;stroke-linejoin:miter;stroke-opacity:1" d="M 572.188,778.66 624.97,798.842 z" id="boundary" inkscape:connector-curvature="0" />
	<path style="fill:none;stroke:red;stroke-width:1px;stroke-linecap:butt;stroke-linejoin:miter;stroke-opacity:1" d="M 575.293,376.582 590.817,376.582 z" id="boundary" inkscape:connector-curvature="0" />
	<path style="fill:none;stroke:red;stroke-width:1px;stroke-linecap:butt;stroke-linejoin:miter;stroke-opacity:1" d="M 578.397,121.984 592.369,129.746 z" id="boundary" inkscape:connector-curvature="0" />
	<path style="fill:none;stroke:red;stroke-width:1px;stroke-linecap:butt;stroke-linejoin:miter;stroke-opacity:1" d="M 590.817,376.582 606.341,375.03 z" id="boundary" inkscape:connector-curvature="0" />
	<path style="fill:none;stroke:red;stroke-width:1px;stroke-linecap:butt;stroke-linejoin:miter;stroke-opacity:1" d="M 592.369,129.746 603.236,142.166 z" id="boundary" inkscape:connector-curvature="0" />
	<path style="fill:none;stroke:red;stroke-width:1px;stroke-linecap:butt;stroke-linejoin:miter;stroke-opacity:1" d="M 603.236,142.166 615.656,151.48 z" id="boundary" inkscape:connector-curvature="0" />
	<path style="fill:none;stroke:red;stroke-width:1px;stroke-linecap:butt;stroke-linejoin:miter;stroke-opacity:1" d="M 606.341,375.03 614.103,359.505 z" id="boundary" inkscape:connector-curvature="0" />
	<path style="fill:none;stroke:red;stroke-width:1px;stroke-linecap:butt;stroke-linejoin:miter;stroke-opacity:1" d="M 614.103,359.505 626.523,345.534 z" id="boundary" inkscape:connector-curvature="0" />
	<path style="fill:none;stroke:red;stroke-width:1px;stroke-linecap:butt;stroke-linejoin:miter;stroke-opacity:1" d="M 615.656,151.48 626.523,163.9 z" id="boundary" inkscape:connector-curvature="0" />
	<path style="fill:none;stroke:red;stroke-width:1px;stroke-linecap:butt;stroke-linejoin:miter;stroke-opacity:1" d="M 624.97,798.842 662.228,761.584 z" id="boundary" inkscape:connector-curvature="0" />
	<path style="fill:none;stroke:red;stroke-width:1px;stroke-linecap:butt;stroke-linejoin:miter;stroke-opacity:1" d="M 626.523,163.9 634.285,177.872 z" id="boundary" inkscape:connector-curvature="0" />
	<path style="fill:none;stroke:red;stroke-width:1px;stroke-linecap:butt;stroke-linejoin:miter;stroke-opacity:1" d="M 626.523,345.534 638.942,334.667 z" id="boundary" inkscape:connector-curvature="0" />
	<path style="fill:none;stroke:red;stroke-width:1px;stroke-linecap:butt;stroke-linejoin:miter;stroke-opacity:1" d="M 634.285,177.872 642.047,191.844 z" id="boundary" inkscape:connector-curvature="0" />
	<path style="fill:none;stroke:red;stroke-width:1px;stroke-linecap:butt;stroke-linejoin:miter;stroke-opacity:1" d="M 638.942,334.667 646.704,319.142 z" id="boundary" inkscape:connector-curvature="0" />
	<path style="fill:none;stroke:red;stroke-width:1px;stroke-linecap:butt;stroke-linejoin:miter;stroke-opacity:1" d="M 642.047,191.844 642.047,207.368 z" id="boundary" inkscape:connector-curvature="0" />
	<path style="fill:none;stroke:red;stroke-width:1px;stroke-linecap:butt;stroke-linejoin:miter;stroke-opacity:1" d="M 642.047,207.368 646.704,222.892 z" id="boundary" inkscape:connector-curvature="0" />
	<path style="fill:none;stroke:red;stroke-width:1px;stroke-linecap:butt;stroke-linejoin:miter;stroke-opacity:1" d="M 646.704,222.892 649.809,238.416 z" id="boundary" inkscape:connector-curvature="0" />
	<path style="fill:none;stroke:red;stroke-width:1px;stroke-linecap:butt;stroke-linejoin:miter;stroke-opacity:1" d="M 646.704,319.142 657.571,298.961 z" id="boundary" inkscape:connector-curvature="0" />
	<path style="fill:none;stroke:red;stroke-width:1px;stroke-linecap:butt;stroke-linejoin:miter;stroke-opacity:1" d="M 649.809,238.416 657.571,252.388 z" id="boundary" inkscape:connector-curvature="0" />
	<path style="fill:none;stroke:red;stroke-width:1px;stroke-linecap:butt;stroke-linejoin:miter;stroke-opacity:1" d="M 657.571,252.388 657.571,267.912 z" id="boundary" inkscape:connector-curvature="0" />
	<path style="fill:none;stroke:red;stroke-width:1px;stroke-linecap:butt;stroke-linejoin:miter;stroke-opacity:1" d="M 657.571,267.912 657.571,283.437 z" id="boundary" inkscape:connector-curvature="0" />
	<path style="fill:none;stroke:red;stroke-width:1px;stroke-linecap:butt;stroke-linejoin:miter;stroke-opacity:1" d="M 657.571,283.437 657.571,298.961 z" id="boundary" inkscape:connector-curvature="0" />
	<circle cx="4" cy="977.371" r="4" fill="#0" id="circle0"/>
	<circle cx="11.7621" cy="961.847" r="4" fill="#0" id="circle1"/>
	<circle cx="13.3146" cy="989.79" r="4" fill="#0" id="circle2"/>
	<circle cx="24.1815" cy="949.427" r="4" fill="#0" id="circle3"/>
	<circle cx="28.8388" cy="982.028" r="4" fill="#0" id="circle4"/>
	<circle cx="31.9437" cy="933.903" r="4" fill="#0" id="circle5"/>
	<circle cx="35.0485" cy="604.789" r="4" fill="#0" id="circle6"/>
	<circle cx="42.8106" cy="589.264" r="4" fill="#0" id="circle7"/>
	<circle cx="42.8106" cy="974.266" r="4" fill="#0" id="circle8"/>
	<circle cx="44.3631" cy="617.208" r="4" fill="#0" id="circle9"/>
	<circle cx="47.4679" cy="933.903" r="4" fill="#0" id="circle10"/>
	<circle cx="50.5728" cy="573.74" r="4" fill="#0" id="circle11"/>
	<circle cx="58.3349" cy="558.216" r="4" fill="#0" id="circle12"/>
	<circle cx="58.3349" cy="609.446" r="4" fill="#0" id="circle13"/>
	<circle cx="58.3349" cy="974.266" r="4" fill="#0" id="circle14"/>
	<circle cx="62.9922" cy="933.903" r="4" fill="#0" id="circle15"/>
	<circle cx="70.7543" cy="545.797" r="4" fill="#0" id="circle16"/>
	<circle cx="72.3067" cy="601.684" r="4" fill="#0" id="circle17"/>
	<circle cx="73.8592" cy="974.266" r="4" fill="#0" id="circle18"/>
	<circle cx="78.5164" cy="933.903" r="4" fill="#0" id="circle19"/>
	<circle cx="81.6213" cy="527.167" r="4" fill="#0" id="circle20"/>
	<circle cx="87.831" cy="598.579" r="4" fill="#0" id="circle21"/>
	<circle cx="89.3834" cy="511.643" r="4" fill="#0" id="circle22"/>
	<circle cx="89.3834" cy="974.266" r="4" fill="#0" id="circle23"/>
	<circle cx="94.0407" cy="933.903" r="4" fill="#0" id="circle24"/>
	<circle cx="97.1455" cy="496.119" r="4" fill="#0" id="circle25"/>
	<circle cx="103.355" cy="598.579" r="4" fill="#0" id="circle26"/>
	<circle cx="104.908" cy="472.833" r="4" fill="#0" id="circle27"/>
	<circle cx="104.908" cy="974.266" r="4" fill="#0" id="circle28"/>
	<circle cx="109.565" cy="933.903" r="4" fill="#0" id="circle29"/>
	<circle cx="112.67" cy="586.16" r="4" fill="#0" id="circle30"/>
	<circle cx="117.327" cy="460.413" r="4" fill="#0" id="circle31"/>
	<circle cx="118.879" cy="982.028" r="4" fill="#0" id="circle32"/>
	<circle cx="120.432" cy="426.26" r="4" fill="#0" id="circle33"/>
	<circle cx="120.432" cy="441.784" r="4" fill="#0" id="circle34"/>
	<circle cx="125.089" cy="933.903" r="4" fill="#0" id="circle35"/>
	<circle cx="126.642" cy="578.397" r="4" fill="#0" id="circle36"/>
	<circle cx="128.194" cy="410.736" r="4" fill="#0" id="circle37"/>
	<circle cx="134.404" cy="982.028" r="4" fill="#0" id="circle38"/>
	<circle cx="135.956" cy="395.211" r="4" fill="#0" id="circle39"/>
	<circle cx="140.613" cy="586.16" r="4" fill="#0" id="circle40"/>
	<circle cx="140.613" cy="933.903" r="4" fill="#0" id="circle41"/>
	<circle cx="143.718" cy="364.163" r="4" fill="#0" id="circle42"/>
	<circle cx="143.718" cy="379.687" r="4" fill="#0" id="circle43"/>
	<circle cx="148.376" cy="989.79" r="4" fill="#0" id="circle44"/>
	<circle cx="151.48" cy="154.585" r="4" fill="#0" id="circle45"/>
	<circle cx="151.48" cy="170.11" r="4" fill="#0" id="circle46"/>
	<circle cx="151.48" cy="185.634" r="4" fill="#0" id="circle47"/>
	<circle cx="151.48" cy="201.158" r="4" fill="#0" id="circle48"/>
	<circle cx="151.48" cy="216.682" r="4" fill="#0" id="circle49"/>
	<circle cx="151.48" cy="829.89" r="4" fill="#0" id="circle50"/>
	<circle cx="151.48" cy="845.415" r="4" fill="#0" id="circle51"/>
	<circle cx="151.48" cy="860.939" r="4" fill="#0" id="circle52"/>
	<circle cx="154.585" cy="578.397" r="4" fill="#0" id="circle53"/>
	<circle cx="156.138" cy="351.743" r="4" fill="#0" id="circle54"/>
	<circle cx="156.138" cy="933.903" r="4" fill="#0" id="circle55"/>
	<circle cx="159.243" cy="92.4883" r="4" fill="#0" id="circle56"/>
	<circle cx="159.243" cy="115.775" r="4" fill="#0" id="circle57"/>
	<circle cx="159.243" cy="131.299" r="4" fill="#0" id="circle58"/>
	<circle cx="159.243" cy="325.352" r="4" fill="#0" id="circle59"/>
	<circle cx="159.243" cy="760.031" r="4" fill="#0" id="circle60"/>
	<circle cx="159.243" cy="775.556" r="4" fill="#0" id="circle61"/>
	<circle cx="159.243" cy="791.08" r="4" fill="#0" id="circle62"/>
	<circle cx="159.243" cy="806.604" r="4" fill="#0" id="circle63"/>
	<circle cx="159.243" cy="874.911" r="4" fill="#0" id="circle64"/>
	<circle cx="163.9" cy="989.79" r="4" fill="#0" id="circle65"/>
	<circle cx="167.005" cy="76.964" r="4" fill="#0" id="circle66"/>
	<circle cx="167.005" cy="221.34" r="4" fill="#0" id="circle67"/>
	<circle cx="167.005" cy="736.745" r="4" fill="#0" id="circle68"/>
	<circle cx="167.005" cy="888.883" r="4" fill="#0" id="circle69"/>
	<circle cx="170.11" cy="578.397" r="4" fill="#0" id="circle70"/>
	<circle cx="171.662" cy="933.903" r="4" fill="#0" id="circle71"/>
	<circle cx="174.767" cy="45.9155" r="4" fill="#0" id="circle72"/>
	<circle cx="174.767" cy="61.4397" r="4" fill="#0" id="circle73"/>
	<circle cx="174.767" cy="235.311" r="4" fill="#0" id="circle74"/>
	<circle cx="174.767" cy="309.828" r="4" fill="#0" id="circle75"/>
	<circle cx="174.767" cy="713.459" r="4" fill="#0" id="circle76"/>
	<circle cx="179.424" cy="996" r="4" fill="#0" id="circle77"/>
	<circle cx="180.977" cy="896.645" r="4" fill="#0" id="circle78"/>
	<circle cx="182.529" cy="286.541" r="4" fill="#0" id="circle79"/>
	<circle cx="182.529" cy="697.934" r="4" fill="#0" id="circle80"/>
	<circle cx="184.081" cy="247.731" r="4" fill="#0" id="circle81"/>
	<circle cx="184.081" cy="921.484" r="4" fill="#0" id="circle82"/>
	<circle cx="185.634" cy="578.397" r="4" fill="#0" id="circle83"/>
	<circle cx="187.186" cy="33.4961" r="4" fill="#0" id="circle84"/>
	<circle cx="194.948" cy="17.9718" r="4" fill="#0" id="circle85"/>
	<circle cx="194.948" cy="685.515" r="4" fill="#0" id="circle86"/>
	<circle cx="194.948" cy="989.79" r="4" fill="#0" id="circle87"/>
	<circle cx="198.053" cy="255.493" r="4" fill="#0" id="circle88"/>
	<circle cx="198.053" cy="271.017" r="4" fill="#0" id="circle89"/>
	<circle cx="199.606" cy="570.635" r="4" fill="#0" id="circle90"/>
	<circle cx="202.71" cy="669.991" r="4" fill="#0" id="circle91"/>
	<circle cx="205.815" cy="651.362" r="4" fill="#0" id="circle92"/>
	<circle cx="208.92" cy="10.2097" r="4" fill="#0" id="circle93"/>
	<circle cx="210.473" cy="996" r="4" fill="#0" id="circle94"/>
	<circle cx="213.577" cy="635.837" r="4" fill="#0" id="circle95"/>
	<circle cx="215.13" cy="570.635" r="4" fill="#0" id="circle96"/>
	<circle cx="221.34" cy="620.313" r="4" fill="#0" id="circle97"/>
	<circle cx="222.892" cy="873.358" r="4" fill="#0" id="circle98"/>
	<circle cx="222.892" cy="888.883" r="4" fill="#0" id="circle99"/>
	<circle cx="222.892" cy="904.407" r="4" fill="#0" id="circle100"/>
	<circle cx="222.892" cy="919.931" r="4" fill="#0" id="circle101"/>
	<circle cx="222.892" cy="935.455" r="4" fill="#0" id="circle102"/>
	<circle cx="222.892" cy="950.98" r="4" fill="#0" id="circle103"/>
	<circle cx="222.892" cy="966.504" r="4" fill="#0" id="circle104"/>
	<circle cx="222.892" cy="982.028" r="4" fill="#0" id="circle105"/>
	<circle cx="224.444" cy="10.2097" r="4" fill="#0" id="circle106"/>
	<circle cx="229.102" cy="604.789" r="4" fill="#0" id="circle107"/>
	<circle cx="230.654" cy="570.635" r="4" fill="#0" id="circle108"/>
	<circle cx="236.864" cy="589.264" r="4" fill="#0" id="circle109"/>
	<circle cx="238.416" cy="865.596" r="4" fill="#0" id="circle110"/>
	<circle cx="239.969" cy="10.2097" r="4" fill="#0" id="circle111"/>
	<circle cx="253.941" cy="865.596" r="4" fill="#0" id="circle112"/>
	<circle cx="255.493" cy="10.2097" r="4" fill="#0" id="circle113"/>
	<circle cx="269.465" cy="865.596" r="4" fill="#0" id="circle114"/>
	<circle cx="271.017" cy="10.2097" r="4" fill="#0" id="circle115"/>
	<circle cx="284.989" cy="865.596" r="4" fill="#0" id="circle116"/>
	<circle cx="286.541" cy="4" r="4" fill="#0" id="circle117"/>
	<circle cx="300.513" cy="865.596" r="4" fill="#0" id="circle118"/>
	<circle cx="302.066" cy="10.2097" r="4" fill="#0" id="circle119"/>
	<circle cx="306.723" cy="938.56" r="4" fill="#0" id="circle120"/>
	<circle cx="306.723" cy="954.085" r="4" fill="#0" id="circle121"/>
	<circle cx="314.485" cy="21.0767" r="4" fill="#0" id="circle122"/>
	<circle cx="314.485" cy="873.358" r="4" fill="#0" id="circle123"/>
	<circle cx="314.485" cy="888.883" r="4" fill="#0" id="circle124"/>
	<circle cx="314.485" cy="904.407" r="4" fill="#0" id="circle125"/>
	<circle cx="314.485" cy="919.931" r="4" fill="#0" id="circle126"/>
	<circle cx="316.038" cy="966.504" r="4" fill="#0" id="circle127"/>
	<circle cx="323.8" cy="33.4961" r="4" fill="#0" id="circle128"/>
	<circle cx="330.009" cy="974.266" r="4" fill="#0" id="circle129"/>
	<circle cx="339.324" cy="33.4961" r="4" fill="#0" id="circle130"/>
	<circle cx="345.534" cy="974.266" r="4" fill="#0" id="circle131"/>
	<circle cx="351.743" cy="42.8106" r="4" fill="#0" id="circle132"/>
	<circle cx="361.058" cy="974.266" r="4" fill="#0" id="circle133"/>
	<circle cx="362.61" cy="55.23" r="4" fill="#0" id="circle134"/>
	<circle cx="362.61" cy="469.728" r="4" fill="#0" id="circle135"/>
	<circle cx="370.372" cy="483.7" r="4" fill="#0" id="circle136"/>
	<circle cx="370.372" cy="499.224" r="4" fill="#0" id="circle137"/>
	<circle cx="370.372" cy="555.111" r="4" fill="#0" id="circle138"/>
	<circle cx="370.372" cy="570.635" r="4" fill="#0" id="circle139"/>
	<circle cx="370.372" cy="586.16" r="4" fill="#0" id="circle140"/>
	<circle cx="370.372" cy="601.684" r="4" fill="#0" id="circle141"/>
	<circle cx="370.372" cy="904.407" r="4" fill="#0" id="circle142"/>
	<circle cx="370.372" cy="919.931" r="4" fill="#0" id="circle143"/>
	<circle cx="375.03" cy="66.097" r="4" fill="#0" id="circle144"/>
	<circle cx="376.582" cy="974.266" r="4" fill="#0" id="circle145"/>
	<circle cx="378.135" cy="174.767" r="4" fill="#0" id="circle146"/>
	<circle cx="378.135" cy="190.291" r="4" fill="#0" id="circle147"/>
	<circle cx="378.135" cy="469.728" r="4" fill="#0" id="circle148"/>
	<circle cx="378.135" cy="513.196" r="4" fill="#0" id="circle149"/>
	<circle cx="378.135" cy="615.656" r="4" fill="#0" id="circle150"/>
	<circle cx="378.135" cy="631.18" r="4" fill="#0" id="circle151"/>
	<circle cx="378.135" cy="646.704" r="4" fill="#0" id="circle152"/>
	<circle cx="378.135" cy="662.228" r="4" fill="#0" id="circle153"/>
	<circle cx="378.135" cy="679.305" r="4" fill="#0" id="circle154"/>
	<circle cx="378.135" cy="933.903" r="4" fill="#0" id="circle155"/>
	<circle cx="381.239" cy="205.815" r="4" fill="#0" id="circle156"/>
	<circle cx="385.897" cy="78.5164" r="4" fill="#0" id="circle157"/>
	<circle cx="385.897" cy="94.0407" r="4" fill="#0" id="circle158"/>
	<circle cx="385.897" cy="109.565" r="4" fill="#0" id="circle159"/>
	<circle cx="385.897" cy="125.089" r="4" fill="#0" id="circle160"/>
	<circle cx="385.897" cy="140.613" r="4" fill="#0" id="circle161"/>
	<circle cx="385.897" cy="156.138" r="4" fill="#0" id="circle162"/>
	<circle cx="385.897" cy="555.111" r="4" fill="#0" id="circle163"/>
	<circle cx="385.897" cy="693.277" r="4" fill="#0" id="circle164"/>
	<circle cx="385.897" cy="708.801" r="4" fill="#0" id="circle165"/>
	<circle cx="385.897" cy="888.883" r="4" fill="#0" id="circle166"/>
	<circle cx="392.106" cy="974.266" r="4" fill="#0" id="circle167"/>
	<circle cx="393.659" cy="461.966" r="4" fill="#0" id="circle168"/>
	<circle cx="393.659" cy="514.748" r="4" fill="#0" id="circle169"/>
	<circle cx="393.659" cy="933.903" r="4" fill="#0" id="circle170"/>
	<circle cx="396.764" cy="212.025" r="4" fill="#0" id="circle171"/>
	<circle cx="398.316" cy="718.116" r="4" fill="#0" id="circle172"/>
	<circle cx="398.316" cy="878.016" r="4" fill="#0" id="circle173"/>
	<circle cx="401.421" cy="558.216" r="4" fill="#0" id="circle174"/>
	<circle cx="401.421" cy="733.64" r="4" fill="#0" id="circle175"/>
	<circle cx="401.421" cy="756.926" r="4" fill="#0" id="circle176"/>
	<circle cx="404.526" cy="772.451" r="4" fill="#0" id="circle177"/>
	<circle cx="407.631" cy="974.266" r="4" fill="#0" id="circle178"/>
	<circle cx="409.183" cy="461.966" r="4" fill="#0" id="circle179"/>
	<circle cx="409.183" cy="519.405" r="4" fill="#0" id="circle180"/>
	<circle cx="409.183" cy="787.975" r="4" fill="#0" id="circle181"/>
	<circle cx="409.183" cy="865.596" r="4" fill="#0" id="circle182"/>
	<circle cx="409.183" cy="929.246" r="4" fill="#0" id="circle183"/>
	<circle cx="412.288" cy="212.025" r="4" fill="#0" id="circle184"/>
	<circle cx="412.288" cy="570.635" r="4" fill="#0" id="circle185"/>
	<circle cx="416.945" cy="801.947" r="4" fill="#0" id="circle186"/>
	<circle cx="416.945" cy="842.31" r="4" fill="#0" id="circle187"/>
	<circle cx="423.155" cy="454.203" r="4" fill="#0" id="circle188"/>
	<circle cx="423.155" cy="527.167" r="4" fill="#0" id="circle189"/>
	<circle cx="423.155" cy="974.266" r="4" fill="#0" id="circle190"/>
	<circle cx="424.707" cy="199.606" r="4" fill="#0" id="circle191"/>
	<circle cx="424.707" cy="581.502" r="4" fill="#0" id="circle192"/>
	<circle cx="424.707" cy="933.903" r="4" fill="#0" id="circle193"/>
	<circle cx="430.917" cy="177.872" r="4" fill="#0" id="circle194"/>
	<circle cx="432.469" cy="801.947" r="4" fill="#0" id="circle195"/>
	<circle cx="432.469" cy="842.31" r="4" fill="#0" id="circle196"/>
	<circle cx="435.574" cy="444.889" r="4" fill="#0" id="circle197"/>
	<circle cx="435.574" cy="593.922" r="4" fill="#0" id="circle198"/>
	<circle cx="438.679" cy="162.347" r="4" fill="#0" id="circle199"/>
	<circle cx="438.679" cy="530.272" r="4" fill="#0" id="circle200"/>
	<circle cx="438.679" cy="969.609" r="4" fill="#0" id="circle201"/>
	<circle cx="440.232" cy="929.246" r="4" fill="#0" id="circle202"/>
	<circle cx="446.441" cy="146.823" r="4" fill="#0" id="circle203"/>
	<circle cx="447.994" cy="430.917" r="4" fill="#0" id="circle204"/>
	<circle cx="447.994" cy="604.789" r="4" fill="#0" id="circle205"/>
	<circle cx="447.994" cy="801.947" r="4" fill="#0" id="circle206"/>
	<circle cx="447.994" cy="842.31" r="4" fill="#0" id="circle207"/>
	<circle cx="451.099" cy="539.587" r="4" fill="#0" id="circle208"/>
	<circle cx="452.651" cy="919.931" r="4" fill="#0" id="circle209"/>
	<circle cx="454.203" cy="628.075" r="4" fill="#0" id="circle210"/>
	<circle cx="454.203" cy="974.266" r="4" fill="#0" id="circle211"/>
	<circle cx="455.756" cy="392.106" r="4" fill="#0" id="circle212"/>
	<circle cx="455.756" cy="415.393" r="4" fill="#0" id="circle213"/>
	<circle cx="458.861" cy="134.404" r="4" fill="#0" id="circle214"/>
	<circle cx="458.861" cy="553.559" r="4" fill="#0" id="circle215"/>
	<circle cx="463.518" cy="801.947" r="4" fill="#0" id="circle216"/>
	<circle cx="463.518" cy="842.31" r="4" fill="#0" id="circle217"/>
	<circle cx="466.623" cy="638.942" r="4" fill="#0" id="circle218"/>
	<circle cx="468.175" cy="918.379" r="4" fill="#0" id="circle219"/>
	<circle cx="469.728" cy="974.266" r="4" fill="#0" id="circle220"/>
	<circle cx="471.28" cy="392.106" r="4" fill="#0" id="circle221"/>
	<circle cx="472.833" cy="561.321" r="4" fill="#0" id="circle222"/>
	<circle cx="472.833" cy="654.466" r="4" fill="#0" id="circle223"/>
	<circle cx="474.385" cy="126.642" r="4" fill="#0" id="circle224"/>
	<circle cx="479.042" cy="576.845" r="4" fill="#0" id="circle225"/>
	<circle cx="479.042" cy="801.947" r="4" fill="#0" id="circle226"/>
	<circle cx="479.042" cy="842.31" r="4" fill="#0" id="circle227"/>
	<circle cx="480.595" cy="668.438" r="4" fill="#0" id="circle228"/>
	<circle cx="483.7" cy="918.379" r="4" fill="#0" id="circle229"/>
	<circle cx="485.252" cy="974.266" r="4" fill="#0" id="circle230"/>
	<circle cx="486.804" cy="392.106" r="4" fill="#0" id="circle231"/>
	<circle cx="488.357" cy="118.879" r="4" fill="#0" id="circle232"/>
	<circle cx="494.567" cy="581.502" r="4" fill="#0" id="circle233"/>
	<circle cx="494.567" cy="676.2" r="4" fill="#0" id="circle234"/>
	<circle cx="494.567" cy="801.947" r="4" fill="#0" id="circle235"/>
	<circle cx="494.567" cy="842.31" r="4" fill="#0" id="circle236"/>
	<circle cx="497.671" cy="926.141" r="4" fill="#0" id="circle237"/>
	<circle cx="500.776" cy="974.266" r="4" fill="#0" id="circle238"/>
	<circle cx="502.329" cy="392.106" r="4" fill="#0" id="circle239"/>
	<circle cx="503.881" cy="118.879" r="4" fill="#0" id="circle240"/>
	<circle cx="506.986" cy="592.369" r="4" fill="#0" id="circle241"/>
	<circle cx="510.091" cy="679.305" r="4" fill="#0" id="circle242"/>
	<circle cx="510.091" cy="801.947" r="4" fill="#0" id="circle243"/>
	<circle cx="510.091" cy="842.31" r="4" fill="#0" id="circle244"/>
	<circle cx="511.643" cy="933.903" r="4" fill="#0" id="circle245"/>
	<circle cx="514.748" cy="966.504" r="4" fill="#0" id="circle246"/>
	<circle cx="517.853" cy="392.106" r="4" fill="#0" id="circle247"/>
	<circle cx="517.853" cy="632.732" r="4" fill="#0" id="circle248"/>
	<circle cx="517.853" cy="648.257" r="4" fill="#0" id="circle249"/>
	<circle cx="517.853" cy="663.781" r="4" fill="#0" id="circle250"/>
	<circle cx="519.405" cy="118.879" r="4" fill="#0" id="circle251"/>
	<circle cx="522.51" cy="593.922" r="4" fill="#0" id="circle252"/>
	<circle cx="525.615" cy="797.29" r="4" fill="#0" id="circle253"/>
	<circle cx="525.615" cy="842.31" r="4" fill="#0" id="circle254"/>
	<circle cx="525.615" cy="978.923" r="4" fill="#0" id="circle255"/>
	<circle cx="527.167" cy="933.903" r="4" fill="#0" id="circle256"/>
	<circle cx="533.377" cy="384.344" r="4" fill="#0" id="circle257"/>
	<circle cx="533.377" cy="651.362" r="4" fill="#0" id="circle258"/>
	<circle cx="534.93" cy="118.879" r="4" fill="#0" id="circle259"/>
	<circle cx="536.482" cy="601.684" r="4" fill="#0" id="circle260"/>
	<circle cx="539.587" cy="834.548" r="4" fill="#0" id="circle261"/>
	<circle cx="539.587" cy="944.77" r="4" fill="#0" id="circle262"/>
	<circle cx="541.139" cy="789.527" r="4" fill="#0" id="circle263"/>
	<circle cx="541.139" cy="974.266" r="4" fill="#0" id="circle264"/>
	<circle cx="547.349" cy="392.106" r="4" fill="#0" id="circle265"/>
	<circle cx="547.349" cy="659.124" r="4" fill="#0" id="circle266"/>
	<circle cx="548.901" cy="957.189" r="4" fill="#0" id="circle267"/>
	<circle cx="550.454" cy="112.67" r="4" fill="#0" id="circle268"/>
	<circle cx="552.006" cy="600.131" r="4" fill="#0" id="circle269"/>
	<circle cx="555.111" cy="834.548" r="4" fill="#0" id="circle270"/>
	<circle cx="556.664" cy="781.765" r="4" fill="#0" id="circle271"/>
	<circle cx="562.873" cy="121.984" r="4" fill="#0" id="circle272"/>
	<circle cx="562.873" cy="387.449" r="4" fill="#0" id="circle273"/>
	<circle cx="562.873" cy="612.551" r="4" fill="#0" id="circle274"/>
	<circle cx="562.873" cy="663.781" r="4" fill="#0" id="circle275"/>
	<circle cx="569.083" cy="826.786" r="4" fill="#0" id="circle276"/>
	<circle cx="572.188" cy="624.97" r="4" fill="#0" id="circle277"/>
	<circle cx="572.188" cy="778.66" r="4" fill="#0" id="circle278"/>
	<circle cx="575.293" cy="376.582" r="4" fill="#0" id="circle279"/>
	<circle cx="578.397" cy="121.984" r="4" fill="#0" id="circle280"/>
	<circle cx="578.397" cy="659.124" r="4" fill="#0" id="circle281"/>
	<circle cx="583.055" cy="819.023" r="4" fill="#0" id="circle282"/>
	<circle cx="584.607" cy="634.285" r="4" fill="#0" id="circle283"/>
	<circle cx="586.16" cy="744.507" r="4" fill="#0" id="circle284"/>
	<circle cx="586.16" cy="760.031" r="4" fill="#0" id="circle285"/>
	<circle cx="590.817" cy="376.582" r="4" fill="#0" id="circle286"/>
	<circle cx="592.369" cy="129.746" r="4" fill="#0" id="circle287"/>
	<circle cx="593.922" cy="721.221" r="4" fill="#0" id="circle288"/>
	<circle cx="598.579" cy="819.023" r="4" fill="#0" id="circle289"/>
	<circle cx="601.684" cy="705.696" r="4" fill="#0" id="circle290"/>
	<circle cx="603.236" cy="142.166" r="4" fill="#0" id="circle291"/>
	<circle cx="606.341" cy="375.03" r="4" fill="#0" id="circle292"/>
	<circle cx="609.446" cy="659.124" r="4" fill="#0" id="circle293"/>
	<circle cx="609.446" cy="682.41" r="4" fill="#0" id="circle294"/>
	<circle cx="612.551" cy="811.261" r="4" fill="#0" id="circle295"/>
	<circle cx="614.103" cy="359.505" r="4" fill="#0" id="circle296"/>
	<circle cx="615.656" cy="151.48" r="4" fill="#0" id="circle297"/>
	<circle cx="617.208" cy="612.551" r="4" fill="#0" id="circle298"/>
	<circle cx="621.865" cy="646.704" r="4" fill="#0" id="circle299"/>
	<circle cx="624.97" cy="589.264" r="4" fill="#0" id="circle300"/>
	<circle cx="624.97" cy="626.523" r="4" fill="#0" id="circle301"/>
	<circle cx="624.97" cy="798.842" r="4" fill="#0" id="circle302"/>
	<circle cx="626.523" cy="163.9" r="4" fill="#0" id="circle303"/>
	<circle cx="626.523" cy="345.534" r="4" fill="#0" id="circle304"/>
	<circle cx="632.732" cy="573.74" r="4" fill="#0" id="circle305"/>
	<circle cx="634.285" cy="177.872" r="4" fill="#0" id="circle306"/>
	<circle cx="637.39" cy="786.423" r="4" fill="#0" id="circle307"/>
	<circle cx="638.942" cy="334.667" r="4" fill="#0" id="circle308"/>
	<circle cx="642.047" cy="191.844" r="4" fill="#0" id="circle309"/>
	<circle cx="642.047" cy="207.368" r="4" fill="#0" id="circle310"/>
	<circle cx="646.704" cy="222.892" r="4" fill="#0" id="circle311"/>
	<circle cx="646.704" cy="319.142" r="4" fill="#0" id="circle312"/>
	<circle cx="648.257" cy="558.216" r="4" fill="#0" id="circle313"/>
	<circle cx="649.809" cy="238.416" r="4" fill="#0" id="circle314"/>
	<circle cx="649.809" cy="772.451" r="4" fill="#0" id="circle315"/>
	<circle cx="657.571" cy="252.388" r="4" fill="#0" id="circle316"/>
	<circle cx="657.571" cy="267.912" r="4" fill="#0" id="circle317"/>
	<circle cx="657.571" cy="283.437" r="4" fill="#0" id="circle318"/>
	<circle cx="657.571" cy="298.961" r="4" fill="#0" id="circle319"/>
	<circle cx="657.571" cy="624.97" r="4" fill="#0" id="circle320"/>
	<circle cx="660.676" cy="545.797" r="4" fill="#0" id="circle321"/>
	<circle cx="662.228" cy="761.584" r="4" fill="#0" id="circle322"/>
	<circle cx="665.333" cy="593.922" r="4" fill="#0" id="circle323"/>
	<circle cx="665.333" cy="609.446" r="4" fill="#0" id="circle324"/>
	<circle cx="665.333" cy="638.942" r="4" fill="#0" id="circle325"/>
	<circle cx="665.333" cy="654.466" r="4" fill="#0" id="circle326"/>
	<circle cx="665.333" cy="669.991" r="4" fill="#0" id="circle327"/>
	<circle cx="665.333" cy="685.515" r="4" fill="#0" id="circle328"/>
	<circle cx="665.333" cy="701.039" r="4" fill="#0" id="circle329"/>
	<circle cx="665.333" cy="716.563" r="4" fill="#0" id="circle330"/>
	<circle cx="665.333" cy="732.088" r="4" fill="#0" id="circle331"/>
	<circle cx="673.095" cy="578.397" r="4" fill="#0" id="circle332"/>
	<circle cx="676.2" cy="545.797" r="4" fill="#0" id="circle333"/>
	<circle cx="688.62" cy="533.377" r="4" fill="#0" id="circle334"/>
	<circle cx="688.62" cy="562.873" r="4" fill="#0" id="circle335"/>
	<circle cx="704.144" cy="525.615" r="4" fill="#0" id="circle336"/>
	<circle cx="704.144" cy="555.111" r="4" fill="#0" id="circle337"/>
	<circle cx="713.459" cy="538.034" r="4" fill="#0" id="circle338"/>
	</g>
</svg>