<?xml version="1.0" encoding="UTF-8" standalone="no"?>
<!-- Created with CurveBenchmark -->
<svg
	xmlns:dc="http://purl.org/dc/elements/1.1/"
	xmlns:cc="http://creativecommons.org/ns#"
	xmlns:rdf="http://www.w3.org/1999/02/22-rdf-syntax-ns#"
	xmlns:svg="http://www.w3.org/2000/svg"
	xmlns="http://www.w3.org/2000/svg"
	xmlns:sodipodi="http://sodipodi.sourceforge.net/DTD/sodipodi-0.dtd"
	xmlns:inkscape="http://www.inkscape.org/namespaces/inkscape"
	width="1000"
	height="1000"
	id="svg2"
	version="1.1"
	sodipodi:docname="manifold/fitconnect-Heart10.png.txt">
<defs
	id="defs4" />
<metadata
	id="metadata7">
	<rdf:RDF>
		<cc:Work
			rdf:about="">
			<dc:format>image/svg+xml</dc:format>
			<dc:type
				rdf:resource="http://purl.org/dc/dcmitype/StillImage" />
			<dc:title></dc:title>
		</cc:Work>
	</rdf:RDF>
</metadata>
<g
	inkscape:label="Layer 1"
	inkscape:groupmode="layer"
	id="layer1">
	<path style="fill:none;stroke:red;stroke-width:1px;stroke-linecap:butt;stroke-linejoin:miter;stroke-opacity:1" d="M 4,96.2791 4,115.504 z" id="boundary" inkscape:connector-curvature="0" />
	<path style="fill:none;stroke:red;stroke-width:1px;stroke-linecap:butt;stroke-linejoin:miter;stroke-opacity:1" d="M 4,96.2791 13.6124,77.0543 z" id="boundary" inkscape:connector-curvature="0" />
	<path style="fill:none;stroke:red;stroke-width:1px;stroke-linecap:butt;stroke-linejoin:miter;stroke-opacity:1" d="M 4,115.504 4,134.729 z" id="boundary" inkscape:connector-curvature="0" />
	<path style="fill:none;stroke:red;stroke-width:1px;stroke-linecap:butt;stroke-linejoin:miter;stroke-opacity:1" d="M 4,134.729 4,153.953 z" id="boundary" inkscape:connector-curvature="0" />
	<path style="fill:none;stroke:red;stroke-width:1px;stroke-linecap:butt;stroke-linejoin:miter;stroke-opacity:1" d="M 4,153.953 4,173.178 z" id="boundary" inkscape:connector-curvature="0" />
	<path style="fill:none;stroke:red;stroke-width:1px;stroke-linecap:butt;stroke-linejoin:miter;stroke-opacity:1" d="M 4,173.178 13.6124,190.481 z" id="boundary" inkscape:connector-curvature="0" />
	<path style="fill:none;stroke:red;stroke-width:1px;stroke-linecap:butt;stroke-linejoin:miter;stroke-opacity:1" d="M 13.6124,77.0543 23.2248,57.8295 z" id="boundary" inkscape:connector-curvature="0" />
	<path style="fill:none;stroke:red;stroke-width:1px;stroke-linecap:butt;stroke-linejoin:miter;stroke-opacity:1" d="M 13.6124,190.481 23.2248,207.783 z" id="boundary" inkscape:connector-curvature="0" />
	<path style="fill:none;stroke:red;stroke-width:1px;stroke-linecap:butt;stroke-linejoin:miter;stroke-opacity:1" d="M 23.2248,57.8295 42.4496,48.2171 z" id="boundary" inkscape:connector-curvature="0" />
	<path style="fill:none;stroke:red;stroke-width:1px;stroke-linecap:butt;stroke-linejoin:miter;stroke-opacity:1" d="M 23.2248,207.783 23.2248,227.008 z" id="boundary" inkscape:connector-curvature="0" />
	<path style="fill:none;stroke:red;stroke-width:1px;stroke-linecap:butt;stroke-linejoin:miter;stroke-opacity:1" d="M 23.2248,227.008 28.9922,246.233 z" id="boundary" inkscape:connector-curvature="0" />
	<path style="fill:none;stroke:red;stroke-width:1px;stroke-linecap:butt;stroke-linejoin:miter;stroke-opacity:1" d="M 28.9922,246.233 44.3721,259.69 z" id="boundary" inkscape:connector-curvature="0" />
	<path style="fill:none;stroke:red;stroke-width:1px;stroke-linecap:butt;stroke-linejoin:miter;stroke-opacity:1" d="M 42.4496,48.2171 52.062,28.9922 z" id="boundary" inkscape:connector-curvature="0" />
	<path style="fill:none;stroke:red;stroke-width:1px;stroke-linecap:butt;stroke-linejoin:miter;stroke-opacity:1" d="M 44.3721,259.69 57.8295,275.07 z" id="boundary" inkscape:connector-curvature="0" />
	<path style="fill:none;stroke:red;stroke-width:1px;stroke-linecap:butt;stroke-linejoin:miter;stroke-opacity:1" d="M 52.062,28.9922 71.2868,19.3798 z" id="boundary" inkscape:connector-curvature="0" />
	<path style="fill:none;stroke:red;stroke-width:1px;stroke-linecap:butt;stroke-linejoin:miter;stroke-opacity:1" d="M 57.8295,275.07 67.4419,292.372 z" id="boundary" inkscape:connector-curvature="0" />
	<path style="fill:none;stroke:red;stroke-width:1px;stroke-linecap:butt;stroke-linejoin:miter;stroke-opacity:1" d="M 67.4419,292.372 75.1318,311.597 z" id="boundary" inkscape:connector-curvature="0" />
	<path style="fill:none;stroke:red;stroke-width:1px;stroke-linecap:butt;stroke-linejoin:miter;stroke-opacity:1" d="M 71.2868,19.3798 90.5116,13.6124 z" id="boundary" inkscape:connector-curvature="0" />
	<path style="fill:none;stroke:red;stroke-width:1px;stroke-linecap:butt;stroke-linejoin:miter;stroke-opacity:1" d="M 75.1318,311.597 84.7442,328.899 z" id="boundary" inkscape:connector-curvature="0" />
	<path style="fill:none;stroke:red;stroke-width:1px;stroke-linecap:butt;stroke-linejoin:miter;stroke-opacity:1" d="M 84.7442,328.899 100.124,342.357 z" id="boundary" inkscape:connector-curvature="0" />
	<path style="fill:none;stroke:red;stroke-width:1px;stroke-linecap:butt;stroke-linejoin:miter;stroke-opacity:1" d="M 90.5116,13.6124 109.736,9.76744 z" id="boundary" inkscape:connector-curvature="0" />
	<path style="fill:none;stroke:red;stroke-width:1px;stroke-linecap:butt;stroke-linejoin:miter;stroke-opacity:1" d="M 100.124,342.357 111.659,357.736 z" id="boundary" inkscape:connector-curvature="0" />
	<path style="fill:none;stroke:red;stroke-width:1px;stroke-linecap:butt;stroke-linejoin:miter;stroke-opacity:1" d="M 109.736,9.76744 128.961,4 z" id="boundary" inkscape:connector-curvature="0" />
	<path style="fill:none;stroke:red;stroke-width:1px;stroke-linecap:butt;stroke-linejoin:miter;stroke-opacity:1" d="M 111.659,357.736 127.039,371.194 z" id="boundary" inkscape:connector-curvature="0" />
	<path style="fill:none;stroke:red;stroke-width:1px;stroke-linecap:butt;stroke-linejoin:miter;stroke-opacity:1" d="M 127.039,371.194 138.574,386.574 z" id="boundary" inkscape:connector-curvature="0" />
	<path style="fill:none;stroke:red;stroke-width:1px;stroke-linecap:butt;stroke-linejoin:miter;stroke-opacity:1" d="M 128.961,4 148.186,4 z" id="boundary" inkscape:connector-curvature="0" />
	<path style="fill:none;stroke:red;stroke-width:1px;stroke-linecap:butt;stroke-linejoin:miter;stroke-opacity:1" d="M 138.574,386.574 148.186,403.876 z" id="boundary" inkscape:connector-curvature="0" />
	<path style="fill:none;stroke:red;stroke-width:1px;stroke-linecap:butt;stroke-linejoin:miter;stroke-opacity:1" d="M 148.186,4 167.411,4 z" id="boundary" inkscape:connector-curvature="0" />
	<path style="fill:none;stroke:red;stroke-width:1px;stroke-linecap:butt;stroke-linejoin:miter;stroke-opacity:1" d="M 148.186,403.876 167.411,409.643 z" id="boundary" inkscape:connector-curvature="0" />
	<path style="fill:none;stroke:red;stroke-width:1px;stroke-linecap:butt;stroke-linejoin:miter;stroke-opacity:1" d="M 167.411,4 186.636,4 z" id="boundary" inkscape:connector-curvature="0" />
	<path style="fill:none;stroke:red;stroke-width:1px;stroke-linecap:butt;stroke-linejoin:miter;stroke-opacity:1" d="M 167.411,409.643 173.178,428.868 z" id="boundary" inkscape:connector-curvature="0" />
	<path style="fill:none;stroke:red;stroke-width:1px;stroke-linecap:butt;stroke-linejoin:miter;stroke-opacity:1" d="M 173.178,428.868 188.558,442.326 z" id="boundary" inkscape:connector-curvature="0" />
	<path style="fill:none;stroke:red;stroke-width:1px;stroke-linecap:butt;stroke-linejoin:miter;stroke-opacity:1" d="M 186.636,4 205.86,4 z" id="boundary" inkscape:connector-curvature="0" />
	<path style="fill:none;stroke:red;stroke-width:1px;stroke-linecap:butt;stroke-linejoin:miter;stroke-opacity:1" d="M 188.558,442.326 202.016,457.705 z" id="boundary" inkscape:connector-curvature="0" />
	<path style="fill:none;stroke:red;stroke-width:1px;stroke-linecap:butt;stroke-linejoin:miter;stroke-opacity:1" d="M 202.016,457.705 217.395,471.163 z" id="boundary" inkscape:connector-curvature="0" />
	<path style="fill:none;stroke:red;stroke-width:1px;stroke-linecap:butt;stroke-linejoin:miter;stroke-opacity:1" d="M 205.86,4 225.085,4 z" id="boundary" inkscape:connector-curvature="0" />
	<path style="fill:none;stroke:red;stroke-width:1px;stroke-linecap:butt;stroke-linejoin:miter;stroke-opacity:1" d="M 217.395,471.163 230.853,486.543 z" id="boundary" inkscape:connector-curvature="0" />
	<path style="fill:none;stroke:red;stroke-width:1px;stroke-linecap:butt;stroke-linejoin:miter;stroke-opacity:1" d="M 225.085,4 242.388,13.6124 z" id="boundary" inkscape:connector-curvature="0" />
	<path style="fill:none;stroke:red;stroke-width:1px;stroke-linecap:butt;stroke-linejoin:miter;stroke-opacity:1" d="M 230.853,486.543 246.233,500 z" id="boundary" inkscape:connector-curvature="0" />
	<path style="fill:none;stroke:red;stroke-width:1px;stroke-linecap:butt;stroke-linejoin:miter;stroke-opacity:1" d="M 242.388,13.6124 259.69,23.2248 z" id="boundary" inkscape:connector-curvature="0" />
	<path style="fill:none;stroke:red;stroke-width:1px;stroke-linecap:butt;stroke-linejoin:miter;stroke-opacity:1" d="M 246.233,500 253.922,519.225 z" id="boundary" inkscape:connector-curvature="0" />
	<path style="fill:none;stroke:red;stroke-width:1px;stroke-linecap:butt;stroke-linejoin:miter;stroke-opacity:1" d="M 253.922,519.225 263.535,536.527 z" id="boundary" inkscape:connector-curvature="0" />
	<path style="fill:none;stroke:red;stroke-width:1px;stroke-linecap:butt;stroke-linejoin:miter;stroke-opacity:1" d="M 259.69,23.2248 276.992,32.8372 z" id="boundary" inkscape:connector-curvature="0" />
	<path style="fill:none;stroke:red;stroke-width:1px;stroke-linecap:butt;stroke-linejoin:miter;stroke-opacity:1" d="M 263.535,536.527 276.992,551.907 z" id="boundary" inkscape:connector-curvature="0" />
	<path style="fill:none;stroke:red;stroke-width:1px;stroke-linecap:butt;stroke-linejoin:miter;stroke-opacity:1" d="M 276.992,32.8372 294.295,42.4496 z" id="boundary" inkscape:connector-curvature="0" />
	<path style="fill:none;stroke:red;stroke-width:1px;stroke-linecap:butt;stroke-linejoin:miter;stroke-opacity:1" d="M 276.992,551.907 292.372,563.442 z" id="boundary" inkscape:connector-curvature="0" />
	<path style="fill:none;stroke:red;stroke-width:1px;stroke-linecap:butt;stroke-linejoin:miter;stroke-opacity:1" d="M 292.372,563.442 301.984,580.744 z" id="boundary" inkscape:connector-curvature="0" />
	<path style="fill:none;stroke:red;stroke-width:1px;stroke-linecap:butt;stroke-linejoin:miter;stroke-opacity:1" d="M 294.295,42.4496 313.519,48.2171 z" id="boundary" inkscape:connector-curvature="0" />
	<path style="fill:none;stroke:red;stroke-width:1px;stroke-linecap:butt;stroke-linejoin:miter;stroke-opacity:1" d="M 301.984,580.744 311.597,598.047 z" id="boundary" inkscape:connector-curvature="0" />
	<path style="fill:none;stroke:red;stroke-width:1px;stroke-linecap:butt;stroke-linejoin:miter;stroke-opacity:1" d="M 311.597,598.047 321.209,615.349 z" id="boundary" inkscape:connector-curvature="0" />
	<path style="fill:none;stroke:red;stroke-width:1px;stroke-linecap:butt;stroke-linejoin:miter;stroke-opacity:1" d="M 313.519,48.2171 330.822,57.8295 z" id="boundary" inkscape:connector-curvature="0" />
	<path style="fill:none;stroke:red;stroke-width:1px;stroke-linecap:butt;stroke-linejoin:miter;stroke-opacity:1" d="M 321.209,615.349 330.822,632.651 z" id="boundary" inkscape:connector-curvature="0" />
	<path style="fill:none;stroke:red;stroke-width:1px;stroke-linecap:butt;stroke-linejoin:miter;stroke-opacity:1" d="M 330.822,57.8295 350.047,65.5194 z" id="boundary" inkscape:connector-curvature="0" />
	<path style="fill:none;stroke:red;stroke-width:1px;stroke-linecap:butt;stroke-linejoin:miter;stroke-opacity:1" d="M 330.822,632.651 340.434,649.953 z" id="boundary" inkscape:connector-curvature="0" />
	<path style="fill:none;stroke:red;stroke-width:1px;stroke-linecap:butt;stroke-linejoin:miter;stroke-opacity:1" d="M 340.434,649.953 350.047,667.256 z" id="boundary" inkscape:connector-curvature="0" />
	<path style="fill:none;stroke:red;stroke-width:1px;stroke-linecap:butt;stroke-linejoin:miter;stroke-opacity:1" d="M 350.047,65.5194 357.736,84.7442 z" id="boundary" inkscape:connector-curvature="0" />
	<path style="fill:none;stroke:red;stroke-width:1px;stroke-linecap:butt;stroke-linejoin:miter;stroke-opacity:1" d="M 350.047,667.256 361.581,682.636 z" id="boundary" inkscape:connector-curvature="0" />
	<path style="fill:none;stroke:red;stroke-width:1px;stroke-linecap:butt;stroke-linejoin:miter;stroke-opacity:1" d="M 357.736,84.7442 376.961,92.4341 z" id="boundary" inkscape:connector-curvature="0" />
	<path style="fill:none;stroke:red;stroke-width:1px;stroke-linecap:butt;stroke-linejoin:miter;stroke-opacity:1" d="M 361.581,682.636 375.039,698.016 z" id="boundary" inkscape:connector-curvature="0" />
	<path style="fill:none;stroke:red;stroke-width:1px;stroke-linecap:butt;stroke-linejoin:miter;stroke-opacity:1" d="M 375.039,698.016 384.651,715.318 z" id="boundary" inkscape:connector-curvature="0" />
	<path style="fill:none;stroke:red;stroke-width:1px;stroke-linecap:butt;stroke-linejoin:miter;stroke-opacity:1" d="M 376.961,92.4341 384.651,111.659 z" id="boundary" inkscape:connector-curvature="0" />
	<path style="fill:none;stroke:red;stroke-width:1px;stroke-linecap:butt;stroke-linejoin:miter;stroke-opacity:1" d="M 384.651,111.659 400.031,125.116 z" id="boundary" inkscape:connector-curvature="0" />
	<path style="fill:none;stroke:red;stroke-width:1px;stroke-linecap:butt;stroke-linejoin:miter;stroke-opacity:1" d="M 384.651,715.318 392.341,734.543 z" id="boundary" inkscape:connector-curvature="0" />
	<path style="fill:none;stroke:red;stroke-width:1px;stroke-linecap:butt;stroke-linejoin:miter;stroke-opacity:1" d="M 392.341,734.543 401.953,751.845 z" id="boundary" inkscape:connector-curvature="0" />
	<path style="fill:none;stroke:red;stroke-width:1px;stroke-linecap:butt;stroke-linejoin:miter;stroke-opacity:1" d="M 400.031,125.116 409.643,142.419 z" id="boundary" inkscape:connector-curvature="0" />
	<path style="fill:none;stroke:red;stroke-width:1px;stroke-linecap:butt;stroke-linejoin:miter;stroke-opacity:1" d="M 401.953,751.845 409.643,771.07 z" id="boundary" inkscape:connector-curvature="0" />
	<path style="fill:none;stroke:red;stroke-width:1px;stroke-linecap:butt;stroke-linejoin:miter;stroke-opacity:1" d="M 409.643,142.419 419.256,159.721 z" id="boundary" inkscape:connector-curvature="0" />
	<path style="fill:none;stroke:red;stroke-width:1px;stroke-linecap:butt;stroke-linejoin:miter;stroke-opacity:1" d="M 409.643,771.07 425.023,784.527 z" id="boundary" inkscape:connector-curvature="0" />
	<path style="fill:none;stroke:red;stroke-width:1px;stroke-linecap:butt;stroke-linejoin:miter;stroke-opacity:1" d="M 419.256,159.721 428.868,177.023 z" id="boundary" inkscape:connector-curvature="0" />
	<path style="fill:none;stroke:red;stroke-width:1px;stroke-linecap:butt;stroke-linejoin:miter;stroke-opacity:1" d="M 425.023,784.527 438.481,799.907 z" id="boundary" inkscape:connector-curvature="0" />
	<path style="fill:none;stroke:red;stroke-width:1px;stroke-linecap:butt;stroke-linejoin:miter;stroke-opacity:1" d="M 428.868,177.023 438.481,194.326 z" id="boundary" inkscape:connector-curvature="0" />
	<path style="fill:none;stroke:red;stroke-width:1px;stroke-linecap:butt;stroke-linejoin:miter;stroke-opacity:1" d="M 438.481,194.326 448.093,211.628 z" id="boundary" inkscape:connector-curvature="0" />
	<path style="fill:none;stroke:red;stroke-width:1px;stroke-linecap:butt;stroke-linejoin:miter;stroke-opacity:1" d="M 438.481,799.907 453.86,813.364 z" id="boundary" inkscape:connector-curvature="0" />
	<path style="fill:none;stroke:red;stroke-width:1px;stroke-linecap:butt;stroke-linejoin:miter;stroke-opacity:1" d="M 448.093,211.628 455.783,230.853 z" id="boundary" inkscape:connector-curvature="0" />
	<path style="fill:none;stroke:red;stroke-width:1px;stroke-linecap:butt;stroke-linejoin:miter;stroke-opacity:1" d="M 453.86,813.364 465.395,828.744 z" id="boundary" inkscape:connector-curvature="0" />
	<path style="fill:none;stroke:red;stroke-width:1px;stroke-linecap:butt;stroke-linejoin:miter;stroke-opacity:1" d="M 455.783,230.853 465.395,248.155 z" id="boundary" inkscape:connector-curvature="0" />
	<path style="fill:none;stroke:red;stroke-width:1px;stroke-linecap:butt;stroke-linejoin:miter;stroke-opacity:1" d="M 465.395,248.155 473.085,267.38 z" id="boundary" inkscape:connector-curvature="0" />
	<path style="fill:none;stroke:red;stroke-width:1px;stroke-linecap:butt;stroke-linejoin:miter;stroke-opacity:1" d="M 465.395,828.744 475.008,846.047 z" id="boundary" inkscape:connector-curvature="0" />
	<path style="fill:none;stroke:red;stroke-width:1px;stroke-linecap:butt;stroke-linejoin:miter;stroke-opacity:1" d="M 473.085,267.38 484.62,282.76 z" id="boundary" inkscape:connector-curvature="0" />
	<path style="fill:none;stroke:red;stroke-width:1px;stroke-linecap:butt;stroke-linejoin:miter;stroke-opacity:1" d="M 475.008,846.047 494.233,851.814 z" id="boundary" inkscape:connector-curvature="0" />
	<path style="fill:none;stroke:red;stroke-width:1px;stroke-linecap:butt;stroke-linejoin:miter;stroke-opacity:1" d="M 484.62,282.76 501.922,273.147 z" id="boundary" inkscape:connector-curvature="0" />
	<path style="fill:none;stroke:red;stroke-width:1px;stroke-linecap:butt;stroke-linejoin:miter;stroke-opacity:1" d="M 494.233,851.814 511.535,842.202 z" id="boundary" inkscape:connector-curvature="0" />
	<path style="fill:none;stroke:red;stroke-width:1px;stroke-linecap:butt;stroke-linejoin:miter;stroke-opacity:1" d="M 501.922,273.147 509.612,253.922 z" id="boundary" inkscape:connector-curvature="0" />
	<path style="fill:none;stroke:red;stroke-width:1px;stroke-linecap:butt;stroke-linejoin:miter;stroke-opacity:1" d="M 509.612,253.922 519.225,234.698 z" id="boundary" inkscape:connector-curvature="0" />
	<path style="fill:none;stroke:red;stroke-width:1px;stroke-linecap:butt;stroke-linejoin:miter;stroke-opacity:1" d="M 511.535,842.202 528.837,830.667 z" id="boundary" inkscape:connector-curvature="0" />
	<path style="fill:none;stroke:red;stroke-width:1px;stroke-linecap:butt;stroke-linejoin:miter;stroke-opacity:1" d="M 519.225,234.698 528.837,215.473 z" id="boundary" inkscape:connector-curvature="0" />
	<path style="fill:none;stroke:red;stroke-width:1px;stroke-linecap:butt;stroke-linejoin:miter;stroke-opacity:1" d="M 528.837,215.473 538.45,196.248 z" id="boundary" inkscape:connector-curvature="0" />
	<path style="fill:none;stroke:red;stroke-width:1px;stroke-linecap:butt;stroke-linejoin:miter;stroke-opacity:1" d="M 528.837,830.667 538.45,813.364 z" id="boundary" inkscape:connector-curvature="0" />
	<path style="fill:none;stroke:red;stroke-width:1px;stroke-linecap:butt;stroke-linejoin:miter;stroke-opacity:1" d="M 538.45,196.248 548.062,177.023 z" id="boundary" inkscape:connector-curvature="0" />
	<path style="fill:none;stroke:red;stroke-width:1px;stroke-linecap:butt;stroke-linejoin:miter;stroke-opacity:1" d="M 538.45,813.364 555.752,803.752 z" id="boundary" inkscape:connector-curvature="0" />
	<path style="fill:none;stroke:red;stroke-width:1px;stroke-linecap:butt;stroke-linejoin:miter;stroke-opacity:1" d="M 548.062,177.023 557.674,157.798 z" id="boundary" inkscape:connector-curvature="0" />
	<path style="fill:none;stroke:red;stroke-width:1px;stroke-linecap:butt;stroke-linejoin:miter;stroke-opacity:1" d="M 555.752,803.752 573.054,794.14 z" id="boundary" inkscape:connector-curvature="0" />
	<path style="fill:none;stroke:red;stroke-width:1px;stroke-linecap:butt;stroke-linejoin:miter;stroke-opacity:1" d="M 557.674,157.798 567.287,138.574 z" id="boundary" inkscape:connector-curvature="0" />
	<path style="fill:none;stroke:red;stroke-width:1px;stroke-linecap:butt;stroke-linejoin:miter;stroke-opacity:1" d="M 567.287,138.574 582.667,123.194 z" id="boundary" inkscape:connector-curvature="0" />
	<path style="fill:none;stroke:red;stroke-width:1px;stroke-linecap:butt;stroke-linejoin:miter;stroke-opacity:1" d="M 573.054,794.14 592.279,784.527 z" id="boundary" inkscape:connector-curvature="0" />
	<path style="fill:none;stroke:red;stroke-width:1px;stroke-linecap:butt;stroke-linejoin:miter;stroke-opacity:1" d="M 582.667,123.194 598.047,109.736 z" id="boundary" inkscape:connector-curvature="0" />
	<path style="fill:none;stroke:red;stroke-width:1px;stroke-linecap:butt;stroke-linejoin:miter;stroke-opacity:1" d="M 592.279,784.527 607.659,771.07 z" id="boundary" inkscape:connector-curvature="0" />
	<path style="fill:none;stroke:red;stroke-width:1px;stroke-linecap:butt;stroke-linejoin:miter;stroke-opacity:1" d="M 598.047,109.736 605.736,90.5116 z" id="boundary" inkscape:connector-curvature="0" />
	<path style="fill:none;stroke:red;stroke-width:1px;stroke-linecap:butt;stroke-linejoin:miter;stroke-opacity:1" d="M 605.736,90.5116 621.116,75.1318 z" id="boundary" inkscape:connector-curvature="0" />
	<path style="fill:none;stroke:red;stroke-width:1px;stroke-linecap:butt;stroke-linejoin:miter;stroke-opacity:1" d="M 607.659,771.07 626.884,761.457 z" id="boundary" inkscape:connector-curvature="0" />
	<path style="fill:none;stroke:red;stroke-width:1px;stroke-linecap:butt;stroke-linejoin:miter;stroke-opacity:1" d="M 621.116,75.1318 636.496,61.6744 z" id="boundary" inkscape:connector-curvature="0" />
	<path style="fill:none;stroke:red;stroke-width:1px;stroke-linecap:butt;stroke-linejoin:miter;stroke-opacity:1" d="M 626.884,761.457 646.109,751.845 z" id="boundary" inkscape:connector-curvature="0" />
	<path style="fill:none;stroke:red;stroke-width:1px;stroke-linecap:butt;stroke-linejoin:miter;stroke-opacity:1" d="M 636.496,61.6744 649.953,46.2946 z" id="boundary" inkscape:connector-curvature="0" />
	<path style="fill:none;stroke:red;stroke-width:1px;stroke-linecap:butt;stroke-linejoin:miter;stroke-opacity:1" d="M 646.109,751.845 659.566,736.465 z" id="boundary" inkscape:connector-curvature="0" />
	<path style="fill:none;stroke:red;stroke-width:1px;stroke-linecap:butt;stroke-linejoin:miter;stroke-opacity:1" d="M 649.953,46.2946 669.178,36.6822 z" id="boundary" inkscape:connector-curvature="0" />
	<path style="fill:none;stroke:red;stroke-width:1px;stroke-linecap:butt;stroke-linejoin:miter;stroke-opacity:1" d="M 659.566,736.465 678.791,726.853 z" id="boundary" inkscape:connector-curvature="0" />
	<path style="fill:none;stroke:red;stroke-width:1px;stroke-linecap:butt;stroke-linejoin:miter;stroke-opacity:1" d="M 669.178,36.6822 688.403,27.0698 z" id="boundary" inkscape:connector-curvature="0" />
	<path style="fill:none;stroke:red;stroke-width:1px;stroke-linecap:butt;stroke-linejoin:miter;stroke-opacity:1" d="M 678.791,726.853 698.016,717.24 z" id="boundary" inkscape:connector-curvature="0" />
	<path style="fill:none;stroke:red;stroke-width:1px;stroke-linecap:butt;stroke-linejoin:miter;stroke-opacity:1" d="M 688.403,27.0698 707.628,23.2248 z" id="boundary" inkscape:connector-curvature="0" />
	<path style="fill:none;stroke:red;stroke-width:1px;stroke-linecap:butt;stroke-linejoin:miter;stroke-opacity:1" d="M 698.016,717.24 717.24,707.628 z" id="boundary" inkscape:connector-curvature="0" />
	<path style="fill:none;stroke:red;stroke-width:1px;stroke-linecap:butt;stroke-linejoin:miter;stroke-opacity:1" d="M 707.628,23.2248 726.853,23.2248 z" id="boundary" inkscape:connector-curvature="0" />
	<path style="fill:none;stroke:red;stroke-width:1px;stroke-linecap:butt;stroke-linejoin:miter;stroke-opacity:1" d="M 717.24,707.628 736.465,698.016 z" id="boundary" inkscape:connector-curvature="0" />
	<path style="fill:none;stroke:red;stroke-width:1px;stroke-linecap:butt;stroke-linejoin:miter;stroke-opacity:1" d="M 726.853,23.2248 746.078,23.2248 z" id="boundary" inkscape:connector-curvature="0" />
	<path style="fill:none;stroke:red;stroke-width:1px;stroke-linecap:butt;stroke-linejoin:miter;stroke-opacity:1" d="M 736.465,698.016 751.845,684.558 z" id="boundary" inkscape:connector-curvature="0" />
	<path style="fill:none;stroke:red;stroke-width:1px;stroke-linecap:butt;stroke-linejoin:miter;stroke-opacity:1" d="M 746.078,23.2248 765.302,23.2248 z" id="boundary" inkscape:connector-curvature="0" />
	<path style="fill:none;stroke:red;stroke-width:1px;stroke-linecap:butt;stroke-linejoin:miter;stroke-opacity:1" d="M 751.845,684.558 771.07,674.946 z" id="boundary" inkscape:connector-curvature="0" />
	<path style="fill:none;stroke:red;stroke-width:1px;stroke-linecap:butt;stroke-linejoin:miter;stroke-opacity:1" d="M 765.302,23.2248 784.527,28.9922 z" id="boundary" inkscape:connector-curvature="0" />
	<path style="fill:none;stroke:red;stroke-width:1px;stroke-linecap:butt;stroke-linejoin:miter;stroke-opacity:1" d="M 771.07,674.946 784.527,659.566 z" id="boundary" inkscape:connector-curvature="0" />
	<path style="fill:none;stroke:red;stroke-width:1px;stroke-linecap:butt;stroke-linejoin:miter;stroke-opacity:1" d="M 784.527,28.9922 803.752,32.8372 z" id="boundary" inkscape:connector-curvature="0" />
	<path style="fill:none;stroke:red;stroke-width:1px;stroke-linecap:butt;stroke-linejoin:miter;stroke-opacity:1" d="M 784.527,659.566 799.907,646.109 z" id="boundary" inkscape:connector-curvature="0" />
	<path style="fill:none;stroke:red;stroke-width:1px;stroke-linecap:butt;stroke-linejoin:miter;stroke-opacity:1" d="M 799.907,646.109 819.132,636.496 z" id="boundary" inkscape:connector-curvature="0" />
	<path style="fill:none;stroke:red;stroke-width:1px;stroke-linecap:butt;stroke-linejoin:miter;stroke-opacity:1" d="M 803.752,32.8372 822.977,38.6047 z" id="boundary" inkscape:connector-curvature="0" />
	<path style="fill:none;stroke:red;stroke-width:1px;stroke-linecap:butt;stroke-linejoin:miter;stroke-opacity:1" d="M 819.132,636.496 832.589,611.504 z" id="boundary" inkscape:connector-curvature="0" />
	<path style="fill:none;stroke:red;stroke-width:1px;stroke-linecap:butt;stroke-linejoin:miter;stroke-opacity:1" d="M 822.977,38.6047 840.279,48.2171 z" id="boundary" inkscape:connector-curvature="0" />
	<path style="fill:none;stroke:red;stroke-width:1px;stroke-linecap:butt;stroke-linejoin:miter;stroke-opacity:1" d="M 832.589,611.504 851.814,601.891 z" id="boundary" inkscape:connector-curvature="0" />
	<path style="fill:none;stroke:red;stroke-width:1px;stroke-linecap:butt;stroke-linejoin:miter;stroke-opacity:1" d="M 840.279,48.2171 859.504,55.907 z" id="boundary" inkscape:connector-curvature="0" />
	<path style="fill:none;stroke:red;stroke-width:1px;stroke-linecap:butt;stroke-linejoin:miter;stroke-opacity:1" d="M 851.814,601.891 861.426,582.667 z" id="boundary" inkscape:connector-curvature="0" />
	<path style="fill:none;stroke:red;stroke-width:1px;stroke-linecap:butt;stroke-linejoin:miter;stroke-opacity:1" d="M 859.504,55.907 876.806,65.5194 z" id="boundary" inkscape:connector-curvature="0" />
	<path style="fill:none;stroke:red;stroke-width:1px;stroke-linecap:butt;stroke-linejoin:miter;stroke-opacity:1" d="M 861.426,582.667 880.651,573.054 z" id="boundary" inkscape:connector-curvature="0" />
	<path style="fill:none;stroke:red;stroke-width:1px;stroke-linecap:butt;stroke-linejoin:miter;stroke-opacity:1" d="M 876.806,65.5194 890.264,80.8992 z" id="boundary" inkscape:connector-curvature="0" />
	<path style="fill:none;stroke:red;stroke-width:1px;stroke-linecap:butt;stroke-linejoin:miter;stroke-opacity:1" d="M 880.651,573.054 890.264,553.829 z" id="boundary" inkscape:connector-curvature="0" />
	<path style="fill:none;stroke:red;stroke-width:1px;stroke-linecap:butt;stroke-linejoin:miter;stroke-opacity:1" d="M 890.264,80.8992 907.566,90.5116 z" id="boundary" inkscape:connector-curvature="0" />
	<path style="fill:none;stroke:red;stroke-width:1px;stroke-linecap:butt;stroke-linejoin:miter;stroke-opacity:1" d="M 890.264,553.829 905.643,540.372 z" id="boundary" inkscape:connector-curvature="0" />
	<path style="fill:none;stroke:red;stroke-width:1px;stroke-linecap:butt;stroke-linejoin:miter;stroke-opacity:1" d="M 905.643,540.372 919.101,524.992 z" id="boundary" inkscape:connector-curvature="0" />
	<path style="fill:none;stroke:red;stroke-width:1px;stroke-linecap:butt;stroke-linejoin:miter;stroke-opacity:1" d="M 907.566,90.5116 924.868,100.124 z" id="boundary" inkscape:connector-curvature="0" />
	<path style="fill:none;stroke:red;stroke-width:1px;stroke-linecap:butt;stroke-linejoin:miter;stroke-opacity:1" d="M 919.101,524.992 928.713,505.767 z" id="boundary" inkscape:connector-curvature="0" />
	<path style="fill:none;stroke:red;stroke-width:1px;stroke-linecap:butt;stroke-linejoin:miter;stroke-opacity:1" d="M 924.868,100.124 938.326,115.504 z" id="boundary" inkscape:connector-curvature="0" />
	<path style="fill:none;stroke:red;stroke-width:1px;stroke-linecap:butt;stroke-linejoin:miter;stroke-opacity:1" d="M 928.713,505.767 938.326,486.543 z" id="boundary" inkscape:connector-curvature="0" />
	<path style="fill:none;stroke:red;stroke-width:1px;stroke-linecap:butt;stroke-linejoin:miter;stroke-opacity:1" d="M 938.326,115.504 951.783,130.884 z" id="boundary" inkscape:connector-curvature="0" />
	<path style="fill:none;stroke:red;stroke-width:1px;stroke-linecap:butt;stroke-linejoin:miter;stroke-opacity:1" d="M 938.326,486.543 953.705,473.085 z" id="boundary" inkscape:connector-curvature="0" />
	<path style="fill:none;stroke:red;stroke-width:1px;stroke-linecap:butt;stroke-linejoin:miter;stroke-opacity:1" d="M 951.783,130.884 967.163,144.341 z" id="boundary" inkscape:connector-curvature="0" />
	<path style="fill:none;stroke:red;stroke-width:1px;stroke-linecap:butt;stroke-linejoin:miter;stroke-opacity:1" d="M 953.705,473.085 967.163,448.093 z" id="boundary" inkscape:connector-curvature="0" />
	<path style="fill:none;stroke:red;stroke-width:1px;stroke-linecap:butt;stroke-linejoin:miter;stroke-opacity:1" d="M 967.163,144.341 974.853,163.566 z" id="boundary" inkscape:connector-curvature="0" />
	<path style="fill:none;stroke:red;stroke-width:1px;stroke-linecap:butt;stroke-linejoin:miter;stroke-opacity:1" d="M 967.163,428.868 967.163,448.093 z" id="boundary" inkscape:connector-curvature="0" />
	<path style="fill:none;stroke:red;stroke-width:1px;stroke-linecap:butt;stroke-linejoin:miter;stroke-opacity:1" d="M 967.163,428.868 976.775,409.643 z" id="boundary" inkscape:connector-curvature="0" />
	<path style="fill:none;stroke:red;stroke-width:1px;stroke-linecap:butt;stroke-linejoin:miter;stroke-opacity:1" d="M 974.853,163.566 976.775,182.791 z" id="boundary" inkscape:connector-curvature="0" />
	<path style="fill:none;stroke:red;stroke-width:1px;stroke-linecap:butt;stroke-linejoin:miter;stroke-opacity:1" d="M 976.775,182.791 984.465,202.016 z" id="boundary" inkscape:connector-curvature="0" />
	<path style="fill:none;stroke:red;stroke-width:1px;stroke-linecap:butt;stroke-linejoin:miter;stroke-opacity:1" d="M 976.775,409.643 986.388,380.806 z" id="boundary" inkscape:connector-curvature="0" />
	<path style="fill:none;stroke:red;stroke-width:1px;stroke-linecap:butt;stroke-linejoin:miter;stroke-opacity:1" d="M 984.465,202.016 986.388,221.24 z" id="boundary" inkscape:connector-curvature="0" />
	<path style="fill:none;stroke:red;stroke-width:1px;stroke-linecap:butt;stroke-linejoin:miter;stroke-opacity:1" d="M 986.388,221.24 994.078,240.465 z" id="boundary" inkscape:connector-curvature="0" />
	<path style="fill:none;stroke:red;stroke-width:1px;stroke-linecap:butt;stroke-linejoin:miter;stroke-opacity:1" d="M 986.388,361.581 986.388,380.806 z" id="boundary" inkscape:connector-curvature="0" />
	<path style="fill:none;stroke:red;stroke-width:1px;stroke-linecap:butt;stroke-linejoin:miter;stroke-opacity:1" d="M 986.388,361.581 996,336.589 z" id="boundary" inkscape:connector-curvature="0" />
	<path style="fill:none;stroke:red;stroke-width:1px;stroke-linecap:butt;stroke-linejoin:miter;stroke-opacity:1" d="M 994.078,240.465 996,259.69 z" id="boundary" inkscape:connector-curvature="0" />
	<path style="fill:none;stroke:red;stroke-width:1px;stroke-linecap:butt;stroke-linejoin:miter;stroke-opacity:1" d="M 996,259.69 996,278.915 z" id="boundary" inkscape:connector-curvature="0" />
	<path style="fill:none;stroke:red;stroke-width:1px;stroke-linecap:butt;stroke-linejoin:miter;stroke-opacity:1" d="M 996,278.915 996,298.14 z" id="boundary" inkscape:connector-curvature="0" />
	<path style="fill:none;stroke:red;stroke-width:1px;stroke-linecap:butt;stroke-linejoin:miter;stroke-opacity:1" d="M 996,298.14 996,317.364 z" id="boundary" inkscape:connector-curvature="0" />
	<path style="fill:none;stroke:red;stroke-width:1px;stroke-linecap:butt;stroke-linejoin:miter;stroke-opacity:1" d="M 996,317.364 996,336.589 z" id="boundary" inkscape:connector-curvature="0" />
	<circle cx="4" cy="96.2791" r="4" fill="#0" id="circle0"/>
	<circle cx="4" cy="115.504" r="4" fill="#0" id="circle1"/>
	<circle cx="4" cy="134.729" r="4" fill="#0" id="circle2"/>
	<circle cx="4" cy="153.953" r="4" fill="#0" id="circle3"/>
	<circle cx="4" cy="173.178" r="4" fill="#0" id="circle4"/>
	<circle cx="13.6124" cy="77.0543" r="4" fill="#0" id="circle5"/>
	<circle cx="13.6124" cy="190.481" r="4" fill="#0" id="circle6"/>
	<circle cx="23.2248" cy="57.8295" r="4" fill="#0" id="circle7"/>
	<circle cx="23.2248" cy="207.783" r="4" fill="#0" id="circle8"/>
	<circle cx="23.2248" cy="227.008" r="4" fill="#0" id="circle9"/>
	<circle cx="28.9922" cy="246.233" r="4" fill="#0" id="circle10"/>
	<circle cx="42.4496" cy="48.2171" r="4" fill="#0" id="circle11"/>
	<circle cx="44.3721" cy="259.69" r="4" fill="#0" id="circle12"/>
	<circle cx="52.062" cy="28.9922" r="4" fill="#0" id="circle13"/>
	<circle cx="57.8295" cy="275.07" r="4" fill="#0" id="circle14"/>
	<circle cx="67.4419" cy="292.372" r="4" fill="#0" id="circle15"/>
	<circle cx="71.2868" cy="19.3798" r="4" fill="#0" id="circle16"/>
	<circle cx="75.1318" cy="311.597" r="4" fill="#0" id="circle17"/>
	<circle cx="84.7442" cy="328.899" r="4" fill="#0" id="circle18"/>
	<circle cx="90.5116" cy="13.6124" r="4" fill="#0" id="circle19"/>
	<circle cx="100.124" cy="342.357" r="4" fill="#0" id="circle20"/>
	<circle cx="109.736" cy="9.76744" r="4" fill="#0" id="circle21"/>
	<circle cx="111.659" cy="357.736" r="4" fill="#0" id="circle22"/>
	<circle cx="127.039" cy="371.194" r="4" fill="#0" id="circle23"/>
	<circle cx="128.961" cy="4" r="4" fill="#0" id="circle24"/>
	<circle cx="138.574" cy="386.574" r="4" fill="#0" id="circle25"/>
	<circle cx="148.186" cy="4" r="4" fill="#0" id="circle26"/>
	<circle cx="148.186" cy="403.876" r="4" fill="#0" id="circle27"/>
	<circle cx="167.411" cy="4" r="4" fill="#0" id="circle28"/>
	<circle cx="167.411" cy="409.643" r="4" fill="#0" id="circle29"/>
	<circle cx="173.178" cy="428.868" r="4" fill="#0" id="circle30"/>
	<circle cx="186.636" cy="4" r="4" fill="#0" id="circle31"/>
	<circle cx="188.558" cy="442.326" r="4" fill="#0" id="circle32"/>
	<circle cx="202.016" cy="457.705" r="4" fill="#0" id="circle33"/>
	<circle cx="205.86" cy="4" r="4" fill="#0" id="circle34"/>
	<circle cx="217.395" cy="471.163" r="4" fill="#0" id="circle35"/>
	<circle cx="225.085" cy="4" r="4" fill="#0" id="circle36"/>
	<circle cx="230.853" cy="486.543" r="4" fill="#0" id="circle37"/>
	<circle cx="242.388" cy="13.6124" r="4" fill="#0" id="circle38"/>
	<circle cx="246.233" cy="500" r="4" fill="#0" id="circle39"/>
	<circle cx="253.922" cy="519.225" r="4" fill="#0" id="circle40"/>
	<circle cx="259.69" cy="23.2248" r="4" fill="#0" id="circle41"/>
	<circle cx="263.535" cy="536.527" r="4" fill="#0" id="circle42"/>
	<circle cx="276.992" cy="32.8372" r="4" fill="#0" id="circle43"/>
	<circle cx="276.992" cy="551.907" r="4" fill="#0" id="circle44"/>
	<circle cx="292.372" cy="563.442" r="4" fill="#0" id="circle45"/>
	<circle cx="294.295" cy="42.4496" r="4" fill="#0" id="circle46"/>
	<circle cx="301.984" cy="580.744" r="4" fill="#0" id="circle47"/>
	<circle cx="311.597" cy="598.047" r="4" fill="#0" id="circle48"/>
	<circle cx="313.519" cy="48.2171" r="4" fill="#0" id="circle49"/>
	<circle cx="321.209" cy="615.349" r="4" fill="#0" id="circle50"/>
	<circle cx="330.822" cy="57.8295" r="4" fill="#0" id="circle51"/>
	<circle cx="330.822" cy="632.651" r="4" fill="#0" id="circle52"/>
	<circle cx="340.434" cy="649.953" r="4" fill="#0" id="circle53"/>
	<circle cx="350.047" cy="65.5194" r="4" fill="#0" id="circle54"/>
	<circle cx="350.047" cy="667.256" r="4" fill="#0" id="circle55"/>
	<circle cx="357.736" cy="84.7442" r="4" fill="#0" id="circle56"/>
	<circle cx="361.581" cy="682.636" r="4" fill="#0" id="circle57"/>
	<circle cx="375.039" cy="698.016" r="4" fill="#0" id="circle58"/>
	<circle cx="376.961" cy="92.4341" r="4" fill="#0" id="circle59"/>
	<circle cx="384.651" cy="111.659" r="4" fill="#0" id="circle60"/>
	<circle cx="384.651" cy="715.318" r="4" fill="#0" id="circle61"/>
	<circle cx="392.341" cy="734.543" r="4" fill="#0" id="circle62"/>
	<circle cx="400.031" cy="125.116" r="4" fill="#0" id="circle63"/>
	<circle cx="401.953" cy="751.845" r="4" fill="#0" id="circle64"/>
	<circle cx="409.643" cy="142.419" r="4" fill="#0" id="circle65"/>
	<circle cx="409.643" cy="771.07" r="4" fill="#0" id="circle66"/>
	<circle cx="419.256" cy="159.721" r="4" fill="#0" id="circle67"/>
	<circle cx="425.023" cy="784.527" r="4" fill="#0" id="circle68"/>
	<circle cx="428.868" cy="177.023" r="4" fill="#0" id="circle69"/>
	<circle cx="438.481" cy="194.326" r="4" fill="#0" id="circle70"/>
	<circle cx="438.481" cy="799.907" r="4" fill="#0" id="circle71"/>
	<circle cx="448.093" cy="211.628" r="4" fill="#0" id="circle72"/>
	<circle cx="453.86" cy="813.364" r="4" fill="#0" id="circle73"/>
	<circle cx="455.783" cy="230.853" r="4" fill="#0" id="circle74"/>
	<circle cx="465.395" cy="248.155" r="4" fill="#0" id="circle75"/>
	<circle cx="465.395" cy="828.744" r="4" fill="#0" id="circle76"/>
	<circle cx="473.085" cy="267.38" r="4" fill="#0" id="circle77"/>
	<circle cx="475.008" cy="846.047" r="4" fill="#0" id="circle78"/>
	<circle cx="484.62" cy="282.76" r="4" fill="#0" id="circle79"/>
	<circle cx="494.233" cy="851.814" r="4" fill="#0" id="circle80"/>
	<circle cx="501.922" cy="273.147" r="4" fill="#0" id="circle81"/>
	<circle cx="509.612" cy="253.922" r="4" fill="#0" id="circle82"/>
	<circle cx="511.535" cy="842.202" r="4" fill="#0" id="circle83"/>
	<circle cx="519.225" cy="234.698" r="4" fill="#0" id="circle84"/>
	<circle cx="528.837" cy="215.473" r="4" fill="#0" id="circle85"/>
	<circle cx="528.837" cy="830.667" r="4" fill="#0" id="circle86"/>
	<circle cx="538.45" cy="196.248" r="4" fill="#0" id="circle87"/>
	<circle cx="538.45" cy="813.364" r="4" fill="#0" id="circle88"/>
	<circle cx="548.062" cy="177.023" r="4" fill="#0" id="circle89"/>
	<circle cx="555.752" cy="803.752" r="4" fill="#0" id="circle90"/>
	<circle cx="557.674" cy="157.798" r="4" fill="#0" id="circle91"/>
	<circle cx="567.287" cy="138.574" r="4" fill="#0" id="circle92"/>
	<circle cx="573.054" cy="794.14" r="4" fill="#0" id="circle93"/>
	<circle cx="582.667" cy="123.194" r="4" fill="#0" id="circle94"/>
	<circle cx="592.279" cy="784.527" r="4" fill="#0" id="circle95"/>
	<circle cx="598.047" cy="109.736" r="4" fill="#0" id="circle96"/>
	<circle cx="605.736" cy="90.5116" r="4" fill="#0" id="circle97"/>
	<circle cx="607.659" cy="771.07" r="4" fill="#0" id="circle98"/>
	<circle cx="621.116" cy="75.1318" r="4" fill="#0" id="circle99"/>
	<circle cx="626.884" cy="761.457" r="4" fill="#0" id="circle100"/>
	<circle cx="636.496" cy="61.6744" r="4" fill="#0" id="circle101"/>
	<circle cx="646.109" cy="751.845" r="4" fill="#0" id="circle102"/>
	<circle cx="649.953" cy="46.2946" r="4" fill="#0" id="circle103"/>
	<circle cx="659.566" cy="736.465" r="4" fill="#0" id="circle104"/>
	<circle cx="669.178" cy="36.6822" r="4" fill="#0" id="circle105"/>
	<circle cx="678.791" cy="726.853" r="4" fill="#0" id="circle106"/>
	<circle cx="688.403" cy="27.0698" r="4" fill="#0" id="circle107"/>
	<circle cx="698.016" cy="717.24" r="4" fill="#0" id="circle108"/>
	<circle cx="707.628" cy="23.2248" r="4" fill="#0" id="circle109"/>
	<circle cx="717.24" cy="707.628" r="4" fill="#0" id="circle110"/>
	<circle cx="726.853" cy="23.2248" r="4" fill="#0" id="circle111"/>
	<circle cx="736.465" cy="698.016" r="4" fill="#0" id="circle112"/>
	<circle cx="746.078" cy="23.2248" r="4" fill="#0" id="circle113"/>
	<circle cx="751.845" cy="684.558" r="4" fill="#0" id="circle114"/>
	<circle cx="765.302" cy="23.2248" r="4" fill="#0" id="circle115"/>
	<circle cx="771.07" cy="674.946" r="4" fill="#0" id="circle116"/>
	<circle cx="784.527" cy="28.9922" r="4" fill="#0" id="circle117"/>
	<circle cx="784.527" cy="659.566" r="4" fill="#0" id="circle118"/>
	<circle cx="799.907" cy="646.109" r="4" fill="#0" id="circle119"/>
	<circle cx="803.752" cy="32.8372" r="4" fill="#0" id="circle120"/>
	<circle cx="819.132" cy="636.496" r="4" fill="#0" id="circle121"/>
	<circle cx="822.977" cy="38.6047" r="4" fill="#0" id="circle122"/>
	<circle cx="832.589" cy="611.504" r="4" fill="#0" id="circle123"/>
	<circle cx="840.279" cy="48.2171" r="4" fill="#0" id="circle124"/>
	<circle cx="851.814" cy="601.891" r="4" fill="#0" id="circle125"/>
	<circle cx="859.504" cy="55.907" r="4" fill="#0" id="circle126"/>
	<circle cx="861.426" cy="582.667" r="4" fill="#0" id="circle127"/>
	<circle cx="876.806" cy="65.5194" r="4" fill="#0" id="circle128"/>
	<circle cx="880.651" cy="573.054" r="4" fill="#0" id="circle129"/>
	<circle cx="890.264" cy="80.8992" r="4" fill="#0" id="circle130"/>
	<circle cx="890.264" cy="553.829" r="4" fill="#0" id="circle131"/>
	<circle cx="905.643" cy="540.372" r="4" fill="#0" id="circle132"/>
	<circle cx="907.566" cy="90.5116" r="4" fill="#0" id="circle133"/>
	<circle cx="919.101" cy="524.992" r="4" fill="#0" id="circle134"/>
	<circle cx="924.868" cy="100.124" r="4" fill="#0" id="circle135"/>
	<circle cx="928.713" cy="505.767" r="4" fill="#0" id="circle136"/>
	<circle cx="938.326" cy="115.504" r="4" fill="#0" id="circle137"/>
	<circle cx="938.326" cy="486.543" r="4" fill="#0" id="circle138"/>
	<circle cx="951.783" cy="130.884" r="4" fill="#0" id="circle139"/>
	<circle cx="953.705" cy="473.085" r="4" fill="#0" id="circle140"/>
	<circle cx="967.163" cy="144.341" r="4" fill="#0" id="circle141"/>
	<circle cx="967.163" cy="428.868" r="4" fill="#0" id="circle142"/>
	<circle cx="967.163" cy="448.093" r="4" fill="#0" id="circle143"/>
	<circle cx="974.853" cy="163.566" r="4" fill="#0" id="circle144"/>
	<circle cx="976.775" cy="182.791" r="4" fill="#0" id="circle145"/>
	<circle cx="976.775" cy="409.643" r="4" fill="#0" id="circle146"/>
	<circle cx="984.465" cy="202.016" r="4" fill="#0" id="circle147"/>
	<circle cx="986.388" cy="221.24" r="4" fill="#0" id="circle148"/>
	<circle cx="986.388" cy="361.581" r="4" fill="#0" id="circle149"/>
	<circle cx="986.388" cy="380.806" r="4" fill="#0" id="circle150"/>
	<circle cx="994.078" cy="240.465" r="4" fill="#0" id="circle151"/>
	<circle cx="996" cy="259.69" r="4" fill="#0" id="circle152"/>
	<circle cx="996" cy="278.915" r="4" fill="#0" id="circle153"/>
	<circle cx="996" cy="298.14" r="4" fill="#0" id="circle154"/>
	<circle cx="996" cy="317.364" r="4" fill="#0" id="circle155"/>
	<circle cx="996" cy="336.589" r="4" fill="#0" id="circle156"/>
	</g>
</svg>