<?xml version="1.0" encoding="UTF-8" standalone="no"?>
<!-- Created with CurveBenchmark -->
<svg
	xmlns:dc="http://purl.org/dc/elements/1.1/"
	xmlns:cc="http://creativecommons.org/ns#"
	xmlns:rdf="http://www.w3.org/1999/02/22-rdf-syntax-ns#"
	xmlns:svg="http://www.w3.org/2000/svg"
	xmlns="http://www.w3.org/2000/svg"
	xmlns:sodipodi="http://sodipodi.sourceforge.net/DTD/sodipodi-0.dtd"
	xmlns:inkscape="http://www.inkscape.org/namespaces/inkscape"
	width="1000"
	height="1000"
	id="svg2"
	version="1.1"
	sodipodi:docname="manifold/fitconnect-kk0733.png.txt">
<defs
	id="defs4" />
<metadata
	id="metadata7">
	<rdf:RDF>
		<cc:Work
			rdf:about="">
			<dc:format>image/svg+xml</dc:format>
			<dc:type
				rdf:resource="http://purl.org/dc/dcmitype/StillImage" />
			<dc:title></dc:title>
		</cc:Work>
	</rdf:RDF>
</metadata>
<g
	inkscape:label="Layer 1"
	inkscape:groupmode="layer"
	id="layer1">
	<path style="fill:none;stroke:red;stroke-width:1px;stroke-linecap:butt;stroke-linejoin:miter;stroke-opacity:1" d="M 4,311.749 4,328.119 z" id="boundary" inkscape:connector-curvature="0" />
	<path style="fill:none;stroke:red;stroke-width:1px;stroke-linecap:butt;stroke-linejoin:miter;stroke-opacity:1" d="M 4,311.749 12.1848,287.195 z" id="boundary" inkscape:connector-curvature="0" />
	<path style="fill:none;stroke:red;stroke-width:1px;stroke-linecap:butt;stroke-linejoin:miter;stroke-opacity:1" d="M 4,328.119 12.1848,342.851 z" id="boundary" inkscape:connector-curvature="0" />
	<path style="fill:none;stroke:red;stroke-width:1px;stroke-linecap:butt;stroke-linejoin:miter;stroke-opacity:1" d="M 12.1848,287.195 25.2805,274.099 z" id="boundary" inkscape:connector-curvature="0" />
	<path style="fill:none;stroke:red;stroke-width:1px;stroke-linecap:butt;stroke-linejoin:miter;stroke-opacity:1" d="M 12.1848,342.851 12.1848,359.221 z" id="boundary" inkscape:connector-curvature="0" />
	<path style="fill:none;stroke:red;stroke-width:1px;stroke-linecap:butt;stroke-linejoin:miter;stroke-opacity:1" d="M 12.1848,359.221 23.6436,372.317 z" id="boundary" inkscape:connector-curvature="0" />
	<path style="fill:none;stroke:red;stroke-width:1px;stroke-linecap:butt;stroke-linejoin:miter;stroke-opacity:1" d="M 23.6436,372.317 36.7393,382.139 z" id="boundary" inkscape:connector-curvature="0" />
	<path style="fill:none;stroke:red;stroke-width:1px;stroke-linecap:butt;stroke-linejoin:miter;stroke-opacity:1" d="M 25.2805,274.099 36.7393,254.455 z" id="boundary" inkscape:connector-curvature="0" />
	<path style="fill:none;stroke:red;stroke-width:1px;stroke-linecap:butt;stroke-linejoin:miter;stroke-opacity:1" d="M 36.7393,254.455 44.9241,238.086 z" id="boundary" inkscape:connector-curvature="0" />
	<path style="fill:none;stroke:red;stroke-width:1px;stroke-linecap:butt;stroke-linejoin:miter;stroke-opacity:1" d="M 36.7393,382.139 41.6502,398.508 z" id="boundary" inkscape:connector-curvature="0" />
	<path style="fill:none;stroke:red;stroke-width:1px;stroke-linecap:butt;stroke-linejoin:miter;stroke-opacity:1" d="M 41.6502,398.508 53.1089,411.604 z" id="boundary" inkscape:connector-curvature="0" />
	<path style="fill:none;stroke:red;stroke-width:1px;stroke-linecap:butt;stroke-linejoin:miter;stroke-opacity:1" d="M 44.9241,238.086 58.0198,224.99 z" id="boundary" inkscape:connector-curvature="0" />
	<path style="fill:none;stroke:red;stroke-width:1px;stroke-linecap:butt;stroke-linejoin:miter;stroke-opacity:1" d="M 53.1089,411.604 61.2937,426.337 z" id="boundary" inkscape:connector-curvature="0" />
	<path style="fill:none;stroke:red;stroke-width:1px;stroke-linecap:butt;stroke-linejoin:miter;stroke-opacity:1" d="M 58.0198,224.99 66.2046,208.62 z" id="boundary" inkscape:connector-curvature="0" />
	<path style="fill:none;stroke:red;stroke-width:1px;stroke-linecap:butt;stroke-linejoin:miter;stroke-opacity:1" d="M 61.2937,426.337 74.3894,437.795 z" id="boundary" inkscape:connector-curvature="0" />
	<path style="fill:none;stroke:red;stroke-width:1px;stroke-linecap:butt;stroke-linejoin:miter;stroke-opacity:1" d="M 66.2046,208.62 79.3003,195.525 z" id="boundary" inkscape:connector-curvature="0" />
	<path style="fill:none;stroke:red;stroke-width:1px;stroke-linecap:butt;stroke-linejoin:miter;stroke-opacity:1" d="M 74.3894,437.795 85.8482,450.891 z" id="boundary" inkscape:connector-curvature="0" />
	<path style="fill:none;stroke:red;stroke-width:1px;stroke-linecap:butt;stroke-linejoin:miter;stroke-opacity:1" d="M 79.3003,195.525 92.396,184.066 z" id="boundary" inkscape:connector-curvature="0" />
	<path style="fill:none;stroke:red;stroke-width:1px;stroke-linecap:butt;stroke-linejoin:miter;stroke-opacity:1" d="M 85.8482,450.891 98.9439,462.35 z" id="boundary" inkscape:connector-curvature="0" />
	<path style="fill:none;stroke:red;stroke-width:1px;stroke-linecap:butt;stroke-linejoin:miter;stroke-opacity:1" d="M 92.396,184.066 103.855,170.97 z" id="boundary" inkscape:connector-curvature="0" />
	<path style="fill:none;stroke:red;stroke-width:1px;stroke-linecap:butt;stroke-linejoin:miter;stroke-opacity:1" d="M 98.9439,462.35 110.403,475.446 z" id="boundary" inkscape:connector-curvature="0" />
	<path style="fill:none;stroke:red;stroke-width:1px;stroke-linecap:butt;stroke-linejoin:miter;stroke-opacity:1" d="M 103.855,170.97 116.95,159.512 z" id="boundary" inkscape:connector-curvature="0" />
	<path style="fill:none;stroke:red;stroke-width:1px;stroke-linecap:butt;stroke-linejoin:miter;stroke-opacity:1" d="M 110.403,475.446 123.498,486.904 z" id="boundary" inkscape:connector-curvature="0" />
	<path style="fill:none;stroke:red;stroke-width:1px;stroke-linecap:butt;stroke-linejoin:miter;stroke-opacity:1" d="M 116.95,159.512 128.409,146.416 z" id="boundary" inkscape:connector-curvature="0" />
	<path style="fill:none;stroke:red;stroke-width:1px;stroke-linecap:butt;stroke-linejoin:miter;stroke-opacity:1" d="M 123.498,486.904 134.957,500 z" id="boundary" inkscape:connector-curvature="0" />
	<path style="fill:none;stroke:red;stroke-width:1px;stroke-linecap:butt;stroke-linejoin:miter;stroke-opacity:1" d="M 128.409,146.416 143.142,131.683 z" id="boundary" inkscape:connector-curvature="0" />
	<path style="fill:none;stroke:red;stroke-width:1px;stroke-linecap:butt;stroke-linejoin:miter;stroke-opacity:1" d="M 134.957,500 148.053,511.459 z" id="boundary" inkscape:connector-curvature="0" />
	<path style="fill:none;stroke:red;stroke-width:1px;stroke-linecap:butt;stroke-linejoin:miter;stroke-opacity:1" d="M 143.142,131.683 159.512,123.498 z" id="boundary" inkscape:connector-curvature="0" />
	<path style="fill:none;stroke:red;stroke-width:1px;stroke-linecap:butt;stroke-linejoin:miter;stroke-opacity:1" d="M 148.053,511.459 159.512,524.554 z" id="boundary" inkscape:connector-curvature="0" />
	<path style="fill:none;stroke:red;stroke-width:1px;stroke-linecap:butt;stroke-linejoin:miter;stroke-opacity:1" d="M 159.512,123.498 172.607,110.403 z" id="boundary" inkscape:connector-curvature="0" />
	<path style="fill:none;stroke:red;stroke-width:1px;stroke-linecap:butt;stroke-linejoin:miter;stroke-opacity:1" d="M 159.512,524.554 172.607,536.013 z" id="boundary" inkscape:connector-curvature="0" />
	<path style="fill:none;stroke:red;stroke-width:1px;stroke-linecap:butt;stroke-linejoin:miter;stroke-opacity:1" d="M 172.607,110.403 185.703,97.3069 z" id="boundary" inkscape:connector-curvature="0" />
	<path style="fill:none;stroke:red;stroke-width:1px;stroke-linecap:butt;stroke-linejoin:miter;stroke-opacity:1" d="M 172.607,536.013 184.066,549.109 z" id="boundary" inkscape:connector-curvature="0" />
	<path style="fill:none;stroke:red;stroke-width:1px;stroke-linecap:butt;stroke-linejoin:miter;stroke-opacity:1" d="M 184.066,549.109 197.162,560.568 z" id="boundary" inkscape:connector-curvature="0" />
	<path style="fill:none;stroke:red;stroke-width:1px;stroke-linecap:butt;stroke-linejoin:miter;stroke-opacity:1" d="M 185.703,97.3069 198.799,85.8482 z" id="boundary" inkscape:connector-curvature="0" />
	<path style="fill:none;stroke:red;stroke-width:1px;stroke-linecap:butt;stroke-linejoin:miter;stroke-opacity:1" d="M 197.162,560.568 203.71,576.937 z" id="boundary" inkscape:connector-curvature="0" />
	<path style="fill:none;stroke:red;stroke-width:1px;stroke-linecap:butt;stroke-linejoin:miter;stroke-opacity:1" d="M 198.799,85.8482 210.257,72.7525 z" id="boundary" inkscape:connector-curvature="0" />
	<path style="fill:none;stroke:red;stroke-width:1px;stroke-linecap:butt;stroke-linejoin:miter;stroke-opacity:1" d="M 203.71,576.937 216.805,586.759 z" id="boundary" inkscape:connector-curvature="0" />
	<path style="fill:none;stroke:red;stroke-width:1px;stroke-linecap:butt;stroke-linejoin:miter;stroke-opacity:1" d="M 210.257,72.7525 223.353,61.2937 z" id="boundary" inkscape:connector-curvature="0" />
	<path style="fill:none;stroke:red;stroke-width:1px;stroke-linecap:butt;stroke-linejoin:miter;stroke-opacity:1" d="M 216.805,586.759 226.627,599.855 z" id="boundary" inkscape:connector-curvature="0" />
	<path style="fill:none;stroke:red;stroke-width:1px;stroke-linecap:butt;stroke-linejoin:miter;stroke-opacity:1" d="M 223.353,61.2937 234.812,48.198 z" id="boundary" inkscape:connector-curvature="0" />
	<path style="fill:none;stroke:red;stroke-width:1px;stroke-linecap:butt;stroke-linejoin:miter;stroke-opacity:1" d="M 226.627,599.855 239.723,611.314 z" id="boundary" inkscape:connector-curvature="0" />
	<path style="fill:none;stroke:red;stroke-width:1px;stroke-linecap:butt;stroke-linejoin:miter;stroke-opacity:1" d="M 234.812,48.198 251.182,40.0132 z" id="boundary" inkscape:connector-curvature="0" />
	<path style="fill:none;stroke:red;stroke-width:1px;stroke-linecap:butt;stroke-linejoin:miter;stroke-opacity:1" d="M 239.723,611.314 251.182,624.409 z" id="boundary" inkscape:connector-curvature="0" />
	<path style="fill:none;stroke:red;stroke-width:1px;stroke-linecap:butt;stroke-linejoin:miter;stroke-opacity:1" d="M 251.182,40.0132 264.277,28.5545 z" id="boundary" inkscape:connector-curvature="0" />
	<path style="fill:none;stroke:red;stroke-width:1px;stroke-linecap:butt;stroke-linejoin:miter;stroke-opacity:1" d="M 251.182,624.409 264.277,635.868 z" id="boundary" inkscape:connector-curvature="0" />
	<path style="fill:none;stroke:red;stroke-width:1px;stroke-linecap:butt;stroke-linejoin:miter;stroke-opacity:1" d="M 264.277,28.5545 279.01,20.3696 z" id="boundary" inkscape:connector-curvature="0" />
	<path style="fill:none;stroke:red;stroke-width:1px;stroke-linecap:butt;stroke-linejoin:miter;stroke-opacity:1" d="M 264.277,635.868 279.01,644.053 z" id="boundary" inkscape:connector-curvature="0" />
	<path style="fill:none;stroke:red;stroke-width:1px;stroke-linecap:butt;stroke-linejoin:miter;stroke-opacity:1" d="M 279.01,20.3696 293.743,12.1848 z" id="boundary" inkscape:connector-curvature="0" />
	<path style="fill:none;stroke:red;stroke-width:1px;stroke-linecap:butt;stroke-linejoin:miter;stroke-opacity:1" d="M 279.01,644.053 295.38,644.053 z" id="boundary" inkscape:connector-curvature="0" />
	<path style="fill:none;stroke:red;stroke-width:1px;stroke-linecap:butt;stroke-linejoin:miter;stroke-opacity:1" d="M 293.743,12.1848 308.475,4 z" id="boundary" inkscape:connector-curvature="0" />
	<path style="fill:none;stroke:red;stroke-width:1px;stroke-linecap:butt;stroke-linejoin:miter;stroke-opacity:1" d="M 295.38,644.053 311.749,644.053 z" id="boundary" inkscape:connector-curvature="0" />
	<path style="fill:none;stroke:red;stroke-width:1px;stroke-linecap:butt;stroke-linejoin:miter;stroke-opacity:1" d="M 308.475,4 324.845,4 z" id="boundary" inkscape:connector-curvature="0" />
	<path style="fill:none;stroke:red;stroke-width:1px;stroke-linecap:butt;stroke-linejoin:miter;stroke-opacity:1" d="M 311.749,644.053 326.482,635.868 z" id="boundary" inkscape:connector-curvature="0" />
	<path style="fill:none;stroke:red;stroke-width:1px;stroke-linecap:butt;stroke-linejoin:miter;stroke-opacity:1" d="M 324.845,4 337.941,13.8218 z" id="boundary" inkscape:connector-curvature="0" />
	<path style="fill:none;stroke:red;stroke-width:1px;stroke-linecap:butt;stroke-linejoin:miter;stroke-opacity:1" d="M 326.482,635.868 341.215,627.683 z" id="boundary" inkscape:connector-curvature="0" />
	<path style="fill:none;stroke:red;stroke-width:1px;stroke-linecap:butt;stroke-linejoin:miter;stroke-opacity:1" d="M 337.941,13.8218 352.673,22.0066 z" id="boundary" inkscape:connector-curvature="0" />
	<path style="fill:none;stroke:red;stroke-width:1px;stroke-linecap:butt;stroke-linejoin:miter;stroke-opacity:1" d="M 341.215,627.683 355.947,619.498 z" id="boundary" inkscape:connector-curvature="0" />
	<path style="fill:none;stroke:red;stroke-width:1px;stroke-linecap:butt;stroke-linejoin:miter;stroke-opacity:1" d="M 352.673,22.0066 360.858,36.7393 z" id="boundary" inkscape:connector-curvature="0" />
	<path style="fill:none;stroke:red;stroke-width:1px;stroke-linecap:butt;stroke-linejoin:miter;stroke-opacity:1" d="M 355.947,619.498 369.043,609.677 z" id="boundary" inkscape:connector-curvature="0" />
	<path style="fill:none;stroke:red;stroke-width:1px;stroke-linecap:butt;stroke-linejoin:miter;stroke-opacity:1" d="M 360.858,36.7393 373.954,46.5611 z" id="boundary" inkscape:connector-curvature="0" />
	<path style="fill:none;stroke:red;stroke-width:1px;stroke-linecap:butt;stroke-linejoin:miter;stroke-opacity:1" d="M 369.043,609.677 382.139,594.944 z" id="boundary" inkscape:connector-curvature="0" />
	<path style="fill:none;stroke:red;stroke-width:1px;stroke-linecap:butt;stroke-linejoin:miter;stroke-opacity:1" d="M 373.954,46.5611 387.05,56.3828 z" id="boundary" inkscape:connector-curvature="0" />
	<path style="fill:none;stroke:red;stroke-width:1px;stroke-linecap:butt;stroke-linejoin:miter;stroke-opacity:1" d="M 382.139,594.944 396.871,586.759 z" id="boundary" inkscape:connector-curvature="0" />
	<path style="fill:none;stroke:red;stroke-width:1px;stroke-linecap:butt;stroke-linejoin:miter;stroke-opacity:1" d="M 387.05,56.3828 395.234,71.1155 z" id="boundary" inkscape:connector-curvature="0" />
	<path style="fill:none;stroke:red;stroke-width:1px;stroke-linecap:butt;stroke-linejoin:miter;stroke-opacity:1" d="M 395.234,71.1155 406.693,84.2112 z" id="boundary" inkscape:connector-curvature="0" />
	<path style="fill:none;stroke:red;stroke-width:1px;stroke-linecap:butt;stroke-linejoin:miter;stroke-opacity:1" d="M 396.871,586.759 406.693,570.389 z" id="boundary" inkscape:connector-curvature="0" />
	<path style="fill:none;stroke:red;stroke-width:1px;stroke-linecap:butt;stroke-linejoin:miter;stroke-opacity:1" d="M 406.693,84.2112 414.878,98.9439 z" id="boundary" inkscape:connector-curvature="0" />
	<path style="fill:none;stroke:red;stroke-width:1px;stroke-linecap:butt;stroke-linejoin:miter;stroke-opacity:1" d="M 406.693,570.389 421.426,562.205 z" id="boundary" inkscape:connector-curvature="0" />
	<path style="fill:none;stroke:red;stroke-width:1px;stroke-linecap:butt;stroke-linejoin:miter;stroke-opacity:1" d="M 414.878,98.9439 426.337,112.04 z" id="boundary" inkscape:connector-curvature="0" />
	<path style="fill:none;stroke:red;stroke-width:1px;stroke-linecap:butt;stroke-linejoin:miter;stroke-opacity:1" d="M 421.426,562.205 431.248,545.835 z" id="boundary" inkscape:connector-curvature="0" />
	<path style="fill:none;stroke:red;stroke-width:1px;stroke-linecap:butt;stroke-linejoin:miter;stroke-opacity:1" d="M 426.337,112.04 434.521,126.772 z" id="boundary" inkscape:connector-curvature="0" />
	<path style="fill:none;stroke:red;stroke-width:1px;stroke-linecap:butt;stroke-linejoin:miter;stroke-opacity:1" d="M 431.248,545.835 444.343,534.376 z" id="boundary" inkscape:connector-curvature="0" />
	<path style="fill:none;stroke:red;stroke-width:1px;stroke-linecap:butt;stroke-linejoin:miter;stroke-opacity:1" d="M 434.521,126.772 439.432,143.142 z" id="boundary" inkscape:connector-curvature="0" />
	<path style="fill:none;stroke:red;stroke-width:1px;stroke-linecap:butt;stroke-linejoin:miter;stroke-opacity:1" d="M 439.432,143.142 452.528,152.964 z" id="boundary" inkscape:connector-curvature="0" />
	<path style="fill:none;stroke:red;stroke-width:1px;stroke-linecap:butt;stroke-linejoin:miter;stroke-opacity:1" d="M 444.343,534.376 455.802,513.096 z" id="boundary" inkscape:connector-curvature="0" />
	<path style="fill:none;stroke:red;stroke-width:1px;stroke-linecap:butt;stroke-linejoin:miter;stroke-opacity:1" d="M 452.528,152.964 455.802,169.333 z" id="boundary" inkscape:connector-curvature="0" />
	<path style="fill:none;stroke:red;stroke-width:1px;stroke-linecap:butt;stroke-linejoin:miter;stroke-opacity:1" d="M 455.802,169.333 463.987,184.066 z" id="boundary" inkscape:connector-curvature="0" />
	<path style="fill:none;stroke:red;stroke-width:1px;stroke-linecap:butt;stroke-linejoin:miter;stroke-opacity:1" d="M 455.802,513.096 468.898,501.637 z" id="boundary" inkscape:connector-curvature="0" />
	<path style="fill:none;stroke:red;stroke-width:1px;stroke-linecap:butt;stroke-linejoin:miter;stroke-opacity:1" d="M 463.987,184.066 472.172,198.799 z" id="boundary" inkscape:connector-curvature="0" />
	<path style="fill:none;stroke:red;stroke-width:1px;stroke-linecap:butt;stroke-linejoin:miter;stroke-opacity:1" d="M 468.898,501.637 477.083,485.267 z" id="boundary" inkscape:connector-curvature="0" />
	<path style="fill:none;stroke:red;stroke-width:1px;stroke-linecap:butt;stroke-linejoin:miter;stroke-opacity:1" d="M 472.172,198.799 480.356,213.531 z" id="boundary" inkscape:connector-curvature="0" />
	<path style="fill:none;stroke:red;stroke-width:1px;stroke-linecap:butt;stroke-linejoin:miter;stroke-opacity:1" d="M 477.083,485.267 480.356,463.987 z" id="boundary" inkscape:connector-curvature="0" />
	<path style="fill:none;stroke:red;stroke-width:1px;stroke-linecap:butt;stroke-linejoin:miter;stroke-opacity:1" d="M 480.356,213.531 491.815,226.627 z" id="boundary" inkscape:connector-curvature="0" />
	<path style="fill:none;stroke:red;stroke-width:1px;stroke-linecap:butt;stroke-linejoin:miter;stroke-opacity:1" d="M 480.356,447.617 480.356,463.987 z" id="boundary" inkscape:connector-curvature="0" />
	<path style="fill:none;stroke:red;stroke-width:1px;stroke-linecap:butt;stroke-linejoin:miter;stroke-opacity:1" d="M 480.356,447.617 488.541,423.063 z" id="boundary" inkscape:connector-curvature="0" />
	<path style="fill:none;stroke:red;stroke-width:1px;stroke-linecap:butt;stroke-linejoin:miter;stroke-opacity:1" d="M 488.541,423.063 496.726,406.693 z" id="boundary" inkscape:connector-curvature="0" />
	<path style="fill:none;stroke:red;stroke-width:1px;stroke-linecap:butt;stroke-linejoin:miter;stroke-opacity:1" d="M 491.815,226.627 504.911,238.086 z" id="boundary" inkscape:connector-curvature="0" />
	<path style="fill:none;stroke:red;stroke-width:1px;stroke-linecap:butt;stroke-linejoin:miter;stroke-opacity:1" d="M 496.726,406.693 509.822,395.234 z" id="boundary" inkscape:connector-curvature="0" />
	<path style="fill:none;stroke:red;stroke-width:1px;stroke-linecap:butt;stroke-linejoin:miter;stroke-opacity:1" d="M 504.911,238.086 518.007,249.545 z" id="boundary" inkscape:connector-curvature="0" />
	<path style="fill:none;stroke:red;stroke-width:1px;stroke-linecap:butt;stroke-linejoin:miter;stroke-opacity:1" d="M 509.822,395.234 521.281,382.139 z" id="boundary" inkscape:connector-curvature="0" />
	<path style="fill:none;stroke:red;stroke-width:1px;stroke-linecap:butt;stroke-linejoin:miter;stroke-opacity:1" d="M 518.007,249.545 532.739,257.729 z" id="boundary" inkscape:connector-curvature="0" />
	<path style="fill:none;stroke:red;stroke-width:1px;stroke-linecap:butt;stroke-linejoin:miter;stroke-opacity:1" d="M 521.281,382.139 534.376,370.68 z" id="boundary" inkscape:connector-curvature="0" />
	<path style="fill:none;stroke:red;stroke-width:1px;stroke-linecap:butt;stroke-linejoin:miter;stroke-opacity:1" d="M 532.739,257.729 547.472,265.914 z" id="boundary" inkscape:connector-curvature="0" />
	<path style="fill:none;stroke:red;stroke-width:1px;stroke-linecap:butt;stroke-linejoin:miter;stroke-opacity:1" d="M 534.376,370.68 545.835,357.584 z" id="boundary" inkscape:connector-curvature="0" />
	<path style="fill:none;stroke:red;stroke-width:1px;stroke-linecap:butt;stroke-linejoin:miter;stroke-opacity:1" d="M 545.835,357.584 562.205,349.399 z" id="boundary" inkscape:connector-curvature="0" />
	<path style="fill:none;stroke:red;stroke-width:1px;stroke-linecap:butt;stroke-linejoin:miter;stroke-opacity:1" d="M 547.472,265.914 560.568,277.373 z" id="boundary" inkscape:connector-curvature="0" />
	<path style="fill:none;stroke:red;stroke-width:1px;stroke-linecap:butt;stroke-linejoin:miter;stroke-opacity:1" d="M 560.568,277.373 576.937,282.284 z" id="boundary" inkscape:connector-curvature="0" />
	<path style="fill:none;stroke:red;stroke-width:1px;stroke-linecap:butt;stroke-linejoin:miter;stroke-opacity:1" d="M 562.205,349.399 578.574,341.215 z" id="boundary" inkscape:connector-curvature="0" />
	<path style="fill:none;stroke:red;stroke-width:1px;stroke-linecap:butt;stroke-linejoin:miter;stroke-opacity:1" d="M 576.937,282.284 591.67,290.469 z" id="boundary" inkscape:connector-curvature="0" />
	<path style="fill:none;stroke:red;stroke-width:1px;stroke-linecap:butt;stroke-linejoin:miter;stroke-opacity:1" d="M 578.574,341.215 594.944,341.215 z" id="boundary" inkscape:connector-curvature="0" />
	<path style="fill:none;stroke:red;stroke-width:1px;stroke-linecap:butt;stroke-linejoin:miter;stroke-opacity:1" d="M 591.67,290.469 608.04,290.469 z" id="boundary" inkscape:connector-curvature="0" />
	<path style="fill:none;stroke:red;stroke-width:1px;stroke-linecap:butt;stroke-linejoin:miter;stroke-opacity:1" d="M 594.944,341.215 611.314,333.03 z" id="boundary" inkscape:connector-curvature="0" />
	<path style="fill:none;stroke:red;stroke-width:1px;stroke-linecap:butt;stroke-linejoin:miter;stroke-opacity:1" d="M 608.04,290.469 624.409,290.469 z" id="boundary" inkscape:connector-curvature="0" />
	<path style="fill:none;stroke:red;stroke-width:1px;stroke-linecap:butt;stroke-linejoin:miter;stroke-opacity:1" d="M 611.314,333.03 627.683,333.03 z" id="boundary" inkscape:connector-curvature="0" />
	<path style="fill:none;stroke:red;stroke-width:1px;stroke-linecap:butt;stroke-linejoin:miter;stroke-opacity:1" d="M 624.409,290.469 640.779,290.469 z" id="boundary" inkscape:connector-curvature="0" />
	<path style="fill:none;stroke:red;stroke-width:1px;stroke-linecap:butt;stroke-linejoin:miter;stroke-opacity:1" d="M 627.683,333.03 644.053,333.03 z" id="boundary" inkscape:connector-curvature="0" />
	<path style="fill:none;stroke:red;stroke-width:1px;stroke-linecap:butt;stroke-linejoin:miter;stroke-opacity:1" d="M 640.779,290.469 657.149,290.469 z" id="boundary" inkscape:connector-curvature="0" />
	<path style="fill:none;stroke:red;stroke-width:1px;stroke-linecap:butt;stroke-linejoin:miter;stroke-opacity:1" d="M 644.053,333.03 660.422,333.03 z" id="boundary" inkscape:connector-curvature="0" />
	<path style="fill:none;stroke:red;stroke-width:1px;stroke-linecap:butt;stroke-linejoin:miter;stroke-opacity:1" d="M 657.149,290.469 673.518,290.469 z" id="boundary" inkscape:connector-curvature="0" />
	<path style="fill:none;stroke:red;stroke-width:1px;stroke-linecap:butt;stroke-linejoin:miter;stroke-opacity:1" d="M 660.422,333.03 676.792,333.03 z" id="boundary" inkscape:connector-curvature="0" />
	<path style="fill:none;stroke:red;stroke-width:1px;stroke-linecap:butt;stroke-linejoin:miter;stroke-opacity:1" d="M 673.518,290.469 689.888,290.469 z" id="boundary" inkscape:connector-curvature="0" />
	<path style="fill:none;stroke:red;stroke-width:1px;stroke-linecap:butt;stroke-linejoin:miter;stroke-opacity:1" d="M 676.792,333.03 693.162,333.03 z" id="boundary" inkscape:connector-curvature="0" />
	<path style="fill:none;stroke:red;stroke-width:1px;stroke-linecap:butt;stroke-linejoin:miter;stroke-opacity:1" d="M 689.888,290.469 706.257,290.469 z" id="boundary" inkscape:connector-curvature="0" />
	<path style="fill:none;stroke:red;stroke-width:1px;stroke-linecap:butt;stroke-linejoin:miter;stroke-opacity:1" d="M 693.162,333.03 709.531,333.03 z" id="boundary" inkscape:connector-curvature="0" />
	<path style="fill:none;stroke:red;stroke-width:1px;stroke-linecap:butt;stroke-linejoin:miter;stroke-opacity:1" d="M 706.257,290.469 722.627,290.469 z" id="boundary" inkscape:connector-curvature="0" />
	<path style="fill:none;stroke:red;stroke-width:1px;stroke-linecap:butt;stroke-linejoin:miter;stroke-opacity:1" d="M 709.531,333.03 725.901,333.03 z" id="boundary" inkscape:connector-curvature="0" />
	<path style="fill:none;stroke:red;stroke-width:1px;stroke-linecap:butt;stroke-linejoin:miter;stroke-opacity:1" d="M 722.627,290.469 738.997,290.469 z" id="boundary" inkscape:connector-curvature="0" />
	<path style="fill:none;stroke:red;stroke-width:1px;stroke-linecap:butt;stroke-linejoin:miter;stroke-opacity:1" d="M 725.901,333.03 740.634,324.845 z" id="boundary" inkscape:connector-curvature="0" />
	<path style="fill:none;stroke:red;stroke-width:1px;stroke-linecap:butt;stroke-linejoin:miter;stroke-opacity:1" d="M 738.997,290.469 755.366,290.469 z" id="boundary" inkscape:connector-curvature="0" />
	<path style="fill:none;stroke:red;stroke-width:1px;stroke-linecap:butt;stroke-linejoin:miter;stroke-opacity:1" d="M 740.634,324.845 757.003,324.845 z" id="boundary" inkscape:connector-curvature="0" />
	<path style="fill:none;stroke:red;stroke-width:1px;stroke-linecap:butt;stroke-linejoin:miter;stroke-opacity:1" d="M 755.366,290.469 771.736,290.469 z" id="boundary" inkscape:connector-curvature="0" />
	<path style="fill:none;stroke:red;stroke-width:1px;stroke-linecap:butt;stroke-linejoin:miter;stroke-opacity:1" d="M 757.003,324.845 773.373,319.934 z" id="boundary" inkscape:connector-curvature="0" />
	<path style="fill:none;stroke:red;stroke-width:1px;stroke-linecap:butt;stroke-linejoin:miter;stroke-opacity:1" d="M 771.736,290.469 788.106,290.469 z" id="boundary" inkscape:connector-curvature="0" />
	<path style="fill:none;stroke:red;stroke-width:1px;stroke-linecap:butt;stroke-linejoin:miter;stroke-opacity:1" d="M 773.373,319.934 789.743,316.66 z" id="boundary" inkscape:connector-curvature="0" />
	<path style="fill:none;stroke:red;stroke-width:1px;stroke-linecap:butt;stroke-linejoin:miter;stroke-opacity:1" d="M 788.106,290.469 804.475,290.469 z" id="boundary" inkscape:connector-curvature="0" />
	<path style="fill:none;stroke:red;stroke-width:1px;stroke-linecap:butt;stroke-linejoin:miter;stroke-opacity:1" d="M 789.743,316.66 806.112,316.66 z" id="boundary" inkscape:connector-curvature="0" />
	<path style="fill:none;stroke:red;stroke-width:1px;stroke-linecap:butt;stroke-linejoin:miter;stroke-opacity:1" d="M 804.475,290.469 820.845,290.469 z" id="boundary" inkscape:connector-curvature="0" />
	<path style="fill:none;stroke:red;stroke-width:1px;stroke-linecap:butt;stroke-linejoin:miter;stroke-opacity:1" d="M 806.112,316.66 822.482,316.66 z" id="boundary" inkscape:connector-curvature="0" />
	<path style="fill:none;stroke:red;stroke-width:1px;stroke-linecap:butt;stroke-linejoin:miter;stroke-opacity:1" d="M 820.845,290.469 835.578,282.284 z" id="boundary" inkscape:connector-curvature="0" />
	<path style="fill:none;stroke:red;stroke-width:1px;stroke-linecap:butt;stroke-linejoin:miter;stroke-opacity:1" d="M 822.482,316.66 838.851,316.66 z" id="boundary" inkscape:connector-curvature="0" />
	<path style="fill:none;stroke:red;stroke-width:1px;stroke-linecap:butt;stroke-linejoin:miter;stroke-opacity:1" d="M 835.578,282.284 851.947,282.284 z" id="boundary" inkscape:connector-curvature="0" />
	<path style="fill:none;stroke:red;stroke-width:1px;stroke-linecap:butt;stroke-linejoin:miter;stroke-opacity:1" d="M 838.851,316.66 855.221,316.66 z" id="boundary" inkscape:connector-curvature="0" />
	<path style="fill:none;stroke:red;stroke-width:1px;stroke-linecap:butt;stroke-linejoin:miter;stroke-opacity:1" d="M 851.947,282.284 868.317,282.284 z" id="boundary" inkscape:connector-curvature="0" />
	<path style="fill:none;stroke:red;stroke-width:1px;stroke-linecap:butt;stroke-linejoin:miter;stroke-opacity:1" d="M 855.221,316.66 871.591,316.66 z" id="boundary" inkscape:connector-curvature="0" />
	<path style="fill:none;stroke:red;stroke-width:1px;stroke-linecap:butt;stroke-linejoin:miter;stroke-opacity:1" d="M 868.317,282.284 884.686,282.284 z" id="boundary" inkscape:connector-curvature="0" />
	<path style="fill:none;stroke:red;stroke-width:1px;stroke-linecap:butt;stroke-linejoin:miter;stroke-opacity:1" d="M 871.591,316.66 887.96,316.66 z" id="boundary" inkscape:connector-curvature="0" />
	<path style="fill:none;stroke:red;stroke-width:1px;stroke-linecap:butt;stroke-linejoin:miter;stroke-opacity:1" d="M 884.686,282.284 899.419,290.469 z" id="boundary" inkscape:connector-curvature="0" />
	<path style="fill:none;stroke:red;stroke-width:1px;stroke-linecap:butt;stroke-linejoin:miter;stroke-opacity:1" d="M 887.96,316.66 904.33,316.66 z" id="boundary" inkscape:connector-curvature="0" />
	<path style="fill:none;stroke:red;stroke-width:1px;stroke-linecap:butt;stroke-linejoin:miter;stroke-opacity:1" d="M 899.419,290.469 915.789,290.469 z" id="boundary" inkscape:connector-curvature="0" />
	<path style="fill:none;stroke:red;stroke-width:1px;stroke-linecap:butt;stroke-linejoin:miter;stroke-opacity:1" d="M 904.33,316.66 920.7,316.66 z" id="boundary" inkscape:connector-curvature="0" />
	<path style="fill:none;stroke:red;stroke-width:1px;stroke-linecap:butt;stroke-linejoin:miter;stroke-opacity:1" d="M 915.789,290.469 932.158,290.469 z" id="boundary" inkscape:connector-curvature="0" />
	<path style="fill:none;stroke:red;stroke-width:1px;stroke-linecap:butt;stroke-linejoin:miter;stroke-opacity:1" d="M 920.7,316.66 937.069,316.66 z" id="boundary" inkscape:connector-curvature="0" />
	<path style="fill:none;stroke:red;stroke-width:1px;stroke-linecap:butt;stroke-linejoin:miter;stroke-opacity:1" d="M 932.158,290.469 948.528,290.469 z" id="boundary" inkscape:connector-curvature="0" />
	<path style="fill:none;stroke:red;stroke-width:1px;stroke-linecap:butt;stroke-linejoin:miter;stroke-opacity:1" d="M 937.069,316.66 953.439,316.66 z" id="boundary" inkscape:connector-curvature="0" />
	<path style="fill:none;stroke:red;stroke-width:1px;stroke-linecap:butt;stroke-linejoin:miter;stroke-opacity:1" d="M 948.528,290.469 964.898,290.469 z" id="boundary" inkscape:connector-curvature="0" />
	<path style="fill:none;stroke:red;stroke-width:1px;stroke-linecap:butt;stroke-linejoin:miter;stroke-opacity:1" d="M 953.439,316.66 969.809,316.66 z" id="boundary" inkscape:connector-curvature="0" />
	<path style="fill:none;stroke:red;stroke-width:1px;stroke-linecap:butt;stroke-linejoin:miter;stroke-opacity:1" d="M 964.898,290.469 981.267,290.469 z" id="boundary" inkscape:connector-curvature="0" />
	<path style="fill:none;stroke:red;stroke-width:1px;stroke-linecap:butt;stroke-linejoin:miter;stroke-opacity:1" d="M 969.809,316.66 986.178,316.66 z" id="boundary" inkscape:connector-curvature="0" />
	<path style="fill:none;stroke:red;stroke-width:1px;stroke-linecap:butt;stroke-linejoin:miter;stroke-opacity:1" d="M 981.267,290.469 996,298.653 z" id="boundary" inkscape:connector-curvature="0" />
	<path style="fill:none;stroke:red;stroke-width:1px;stroke-linecap:butt;stroke-linejoin:miter;stroke-opacity:1" d="M 986.178,316.66 996,298.653 z" id="boundary" inkscape:connector-curvature="0" />
	<circle cx="4" cy="311.749" r="4" fill="#0" id="circle0"/>
	<circle cx="4" cy="328.119" r="4" fill="#0" id="circle1"/>
	<circle cx="12.1848" cy="287.195" r="4" fill="#0" id="circle2"/>
	<circle cx="12.1848" cy="342.851" r="4" fill="#0" id="circle3"/>
	<circle cx="12.1848" cy="359.221" r="4" fill="#0" id="circle4"/>
	<circle cx="23.6436" cy="372.317" r="4" fill="#0" id="circle5"/>
	<circle cx="25.2805" cy="274.099" r="4" fill="#0" id="circle6"/>
	<circle cx="36.7393" cy="254.455" r="4" fill="#0" id="circle7"/>
	<circle cx="36.7393" cy="382.139" r="4" fill="#0" id="circle8"/>
	<circle cx="41.6502" cy="398.508" r="4" fill="#0" id="circle9"/>
	<circle cx="44.9241" cy="238.086" r="4" fill="#0" id="circle10"/>
	<circle cx="53.1089" cy="411.604" r="4" fill="#0" id="circle11"/>
	<circle cx="58.0198" cy="224.99" r="4" fill="#0" id="circle12"/>
	<circle cx="61.2937" cy="426.337" r="4" fill="#0" id="circle13"/>
	<circle cx="66.2046" cy="208.62" r="4" fill="#0" id="circle14"/>
	<circle cx="74.3894" cy="437.795" r="4" fill="#0" id="circle15"/>
	<circle cx="79.3003" cy="195.525" r="4" fill="#0" id="circle16"/>
	<circle cx="85.8482" cy="450.891" r="4" fill="#0" id="circle17"/>
	<circle cx="92.396" cy="184.066" r="4" fill="#0" id="circle18"/>
	<circle cx="98.9439" cy="462.35" r="4" fill="#0" id="circle19"/>
	<circle cx="103.855" cy="170.97" r="4" fill="#0" id="circle20"/>
	<circle cx="110.403" cy="475.446" r="4" fill="#0" id="circle21"/>
	<circle cx="116.95" cy="159.512" r="4" fill="#0" id="circle22"/>
	<circle cx="123.498" cy="486.904" r="4" fill="#0" id="circle23"/>
	<circle cx="128.409" cy="146.416" r="4" fill="#0" id="circle24"/>
	<circle cx="134.957" cy="500" r="4" fill="#0" id="circle25"/>
	<circle cx="143.142" cy="131.683" r="4" fill="#0" id="circle26"/>
	<circle cx="148.053" cy="511.459" r="4" fill="#0" id="circle27"/>
	<circle cx="159.512" cy="123.498" r="4" fill="#0" id="circle28"/>
	<circle cx="159.512" cy="524.554" r="4" fill="#0" id="circle29"/>
	<circle cx="172.607" cy="110.403" r="4" fill="#0" id="circle30"/>
	<circle cx="172.607" cy="536.013" r="4" fill="#0" id="circle31"/>
	<circle cx="184.066" cy="549.109" r="4" fill="#0" id="circle32"/>
	<circle cx="185.703" cy="97.3069" r="4" fill="#0" id="circle33"/>
	<circle cx="197.162" cy="560.568" r="4" fill="#0" id="circle34"/>
	<circle cx="198.799" cy="85.8482" r="4" fill="#0" id="circle35"/>
	<circle cx="203.71" cy="576.937" r="4" fill="#0" id="circle36"/>
	<circle cx="210.257" cy="72.7525" r="4" fill="#0" id="circle37"/>
	<circle cx="216.805" cy="586.759" r="4" fill="#0" id="circle38"/>
	<circle cx="223.353" cy="61.2937" r="4" fill="#0" id="circle39"/>
	<circle cx="226.627" cy="599.855" r="4" fill="#0" id="circle40"/>
	<circle cx="234.812" cy="48.198" r="4" fill="#0" id="circle41"/>
	<circle cx="239.723" cy="611.314" r="4" fill="#0" id="circle42"/>
	<circle cx="251.182" cy="40.0132" r="4" fill="#0" id="circle43"/>
	<circle cx="251.182" cy="624.409" r="4" fill="#0" id="circle44"/>
	<circle cx="264.277" cy="28.5545" r="4" fill="#0" id="circle45"/>
	<circle cx="264.277" cy="635.868" r="4" fill="#0" id="circle46"/>
	<circle cx="279.01" cy="20.3696" r="4" fill="#0" id="circle47"/>
	<circle cx="279.01" cy="644.053" r="4" fill="#0" id="circle48"/>
	<circle cx="293.743" cy="12.1848" r="4" fill="#0" id="circle49"/>
	<circle cx="295.38" cy="644.053" r="4" fill="#0" id="circle50"/>
	<circle cx="308.475" cy="4" r="4" fill="#0" id="circle51"/>
	<circle cx="311.749" cy="644.053" r="4" fill="#0" id="circle52"/>
	<circle cx="324.845" cy="4" r="4" fill="#0" id="circle53"/>
	<circle cx="326.482" cy="635.868" r="4" fill="#0" id="circle54"/>
	<circle cx="337.941" cy="13.8218" r="4" fill="#0" id="circle55"/>
	<circle cx="341.215" cy="627.683" r="4" fill="#0" id="circle56"/>
	<circle cx="352.673" cy="22.0066" r="4" fill="#0" id="circle57"/>
	<circle cx="355.947" cy="619.498" r="4" fill="#0" id="circle58"/>
	<circle cx="360.858" cy="36.7393" r="4" fill="#0" id="circle59"/>
	<circle cx="369.043" cy="609.677" r="4" fill="#0" id="circle60"/>
	<circle cx="373.954" cy="46.5611" r="4" fill="#0" id="circle61"/>
	<circle cx="382.139" cy="594.944" r="4" fill="#0" id="circle62"/>
	<circle cx="387.05" cy="56.3828" r="4" fill="#0" id="circle63"/>
	<circle cx="395.234" cy="71.1155" r="4" fill="#0" id="circle64"/>
	<circle cx="396.871" cy="586.759" r="4" fill="#0" id="circle65"/>
	<circle cx="406.693" cy="84.2112" r="4" fill="#0" id="circle66"/>
	<circle cx="406.693" cy="570.389" r="4" fill="#0" id="circle67"/>
	<circle cx="414.878" cy="98.9439" r="4" fill="#0" id="circle68"/>
	<circle cx="421.426" cy="562.205" r="4" fill="#0" id="circle69"/>
	<circle cx="426.337" cy="112.04" r="4" fill="#0" id="circle70"/>
	<circle cx="431.248" cy="545.835" r="4" fill="#0" id="circle71"/>
	<circle cx="434.521" cy="126.772" r="4" fill="#0" id="circle72"/>
	<circle cx="439.432" cy="143.142" r="4" fill="#0" id="circle73"/>
	<circle cx="444.343" cy="534.376" r="4" fill="#0" id="circle74"/>
	<circle cx="452.528" cy="152.964" r="4" fill="#0" id="circle75"/>
	<circle cx="455.802" cy="169.333" r="4" fill="#0" id="circle76"/>
	<circle cx="455.802" cy="513.096" r="4" fill="#0" id="circle77"/>
	<circle cx="463.987" cy="184.066" r="4" fill="#0" id="circle78"/>
	<circle cx="468.898" cy="501.637" r="4" fill="#0" id="circle79"/>
	<circle cx="472.172" cy="198.799" r="4" fill="#0" id="circle80"/>
	<circle cx="477.083" cy="485.267" r="4" fill="#0" id="circle81"/>
	<circle cx="480.356" cy="213.531" r="4" fill="#0" id="circle82"/>
	<circle cx="480.356" cy="447.617" r="4" fill="#0" id="circle83"/>
	<circle cx="480.356" cy="463.987" r="4" fill="#0" id="circle84"/>
	<circle cx="488.541" cy="423.063" r="4" fill="#0" id="circle85"/>
	<circle cx="491.815" cy="226.627" r="4" fill="#0" id="circle86"/>
	<circle cx="496.726" cy="406.693" r="4" fill="#0" id="circle87"/>
	<circle cx="504.911" cy="238.086" r="4" fill="#0" id="circle88"/>
	<circle cx="509.822" cy="395.234" r="4" fill="#0" id="circle89"/>
	<circle cx="518.007" cy="249.545" r="4" fill="#0" id="circle90"/>
	<circle cx="521.281" cy="382.139" r="4" fill="#0" id="circle91"/>
	<circle cx="532.739" cy="257.729" r="4" fill="#0" id="circle92"/>
	<circle cx="534.376" cy="370.68" r="4" fill="#0" id="circle93"/>
	<circle cx="545.835" cy="357.584" r="4" fill="#0" id="circle94"/>
	<circle cx="547.472" cy="265.914" r="4" fill="#0" id="circle95"/>
	<circle cx="560.568" cy="277.373" r="4" fill="#0" id="circle96"/>
	<circle cx="562.205" cy="349.399" r="4" fill="#0" id="circle97"/>
	<circle cx="576.937" cy="282.284" r="4" fill="#0" id="circle98"/>
	<circle cx="578.574" cy="341.215" r="4" fill="#0" id="circle99"/>
	<circle cx="591.67" cy="290.469" r="4" fill="#0" id="circle100"/>
	<circle cx="594.944" cy="341.215" r="4" fill="#0" id="circle101"/>
	<circle cx="608.04" cy="290.469" r="4" fill="#0" id="circle102"/>
	<circle cx="611.314" cy="333.03" r="4" fill="#0" id="circle103"/>
	<circle cx="624.409" cy="290.469" r="4" fill="#0" id="circle104"/>
	<circle cx="627.683" cy="333.03" r="4" fill="#0" id="circle105"/>
	<circle cx="640.779" cy="290.469" r="4" fill="#0" id="circle106"/>
	<circle cx="644.053" cy="333.03" r="4" fill="#0" id="circle107"/>
	<circle cx="657.149" cy="290.469" r="4" fill="#0" id="circle108"/>
	<circle cx="660.422" cy="333.03" r="4" fill="#0" id="circle109"/>
	<circle cx="673.518" cy="290.469" r="4" fill="#0" id="circle110"/>
	<circle cx="676.792" cy="333.03" r="4" fill="#0" id="circle111"/>
	<circle cx="689.888" cy="290.469" r="4" fill="#0" id="circle112"/>
	<circle cx="693.162" cy="333.03" r="4" fill="#0" id="circle113"/>
	<circle cx="706.257" cy="290.469" r="4" fill="#0" id="circle114"/>
	<circle cx="709.531" cy="333.03" r="4" fill="#0" id="circle115"/>
	<circle cx="722.627" cy="290.469" r="4" fill="#0" id="circle116"/>
	<circle cx="725.901" cy="333.03" r="4" fill="#0" id="circle117"/>
	<circle cx="738.997" cy="290.469" r="4" fill="#0" id="circle118"/>
	<circle cx="740.634" cy="324.845" r="4" fill="#0" id="circle119"/>
	<circle cx="755.366" cy="290.469" r="4" fill="#0" id="circle120"/>
	<circle cx="757.003" cy="324.845" r="4" fill="#0" id="circle121"/>
	<circle cx="771.736" cy="290.469" r="4" fill="#0" id="circle122"/>
	<circle cx="773.373" cy="319.934" r="4" fill="#0" id="circle123"/>
	<circle cx="788.106" cy="290.469" r="4" fill="#0" id="circle124"/>
	<circle cx="789.743" cy="316.66" r="4" fill="#0" id="circle125"/>
	<circle cx="804.475" cy="290.469" r="4" fill="#0" id="circle126"/>
	<circle cx="806.112" cy="316.66" r="4" fill="#0" id="circle127"/>
	<circle cx="820.845" cy="290.469" r="4" fill="#0" id="circle128"/>
	<circle cx="822.482" cy="316.66" r="4" fill="#0" id="circle129"/>
	<circle cx="835.578" cy="282.284" r="4" fill="#0" id="circle130"/>
	<circle cx="838.851" cy="316.66" r="4" fill="#0" id="circle131"/>
	<circle cx="851.947" cy="282.284" r="4" fill="#0" id="circle132"/>
	<circle cx="855.221" cy="316.66" r="4" fill="#0" id="circle133"/>
	<circle cx="868.317" cy="282.284" r="4" fill="#0" id="circle134"/>
	<circle cx="871.591" cy="316.66" r="4" fill="#0" id="circle135"/>
	<circle cx="884.686" cy="282.284" r="4" fill="#0" id="circle136"/>
	<circle cx="887.96" cy="316.66" r="4" fill="#0" id="circle137"/>
	<circle cx="899.419" cy="290.469" r="4" fill="#0" id="circle138"/>
	<circle cx="904.33" cy="316.66" r="4" fill="#0" id="circle139"/>
	<circle cx="915.789" cy="290.469" r="4" fill="#0" id="circle140"/>
	<circle cx="920.7" cy="316.66" r="4" fill="#0" id="circle141"/>
	<circle cx="932.158" cy="290.469" r="4" fill="#0" id="circle142"/>
	<circle cx="937.069" cy="316.66" r="4" fill="#0" id="circle143"/>
	<circle cx="948.528" cy="290.469" r="4" fill="#0" id="circle144"/>
	<circle cx="953.439" cy="316.66" r="4" fill="#0" id="circle145"/>
	<circle cx="964.898" cy="290.469" r="4" fill="#0" id="circle146"/>
	<circle cx="969.809" cy="316.66" r="4" fill="#0" id="circle147"/>
	<circle cx="981.267" cy="290.469" r="4" fill="#0" id="circle148"/>
	<circle cx="986.178" cy="316.66" r="4" fill="#0" id="circle149"/>
	<circle cx="996" cy="298.653" r="4" fill="#0" id="circle150"/>
	</g>
</svg>