<?xml version="1.0" encoding="UTF-8" standalone="no"?>
<!-- Created with CurveBenchmark -->
<svg
	xmlns:dc="http://purl.org/dc/elements/1.1/"
	xmlns:cc="http://creativecommons.org/ns#"
	xmlns:rdf="http://www.w3.org/1999/02/22-rdf-syntax-ns#"
	xmlns:svg="http://www.w3.org/2000/svg"
	xmlns="http://www.w3.org/2000/svg"
	xmlns:sodipodi="http://sodipodi.sourceforge.net/DTD/sodipodi-0.dtd"
	xmlns:inkscape="http://www.inkscape.org/namespaces/inkscape"
	width="1000"
	height="1000"
	id="svg2"
	version="1.1"
	sodipodi:docname="manifold/fitconnect-textbox07.png.txt">
<defs
	id="defs4" />
<metadata
	id="metadata7">
	<rdf:RDF>
		<cc:Work
			rdf:about="">
			<dc:format>image/svg+xml</dc:format>
			<dc:type
				rdf:resource="http://purl.org/dc/dcmitype/StillImage" />
			<dc:title></dc:title>
		</cc:Work>
	</rdf:RDF>
</metadata>
<g
	inkscape:label="Layer 1"
	inkscape:groupmode="layer"
	id="layer1">
	<path style="fill:none;stroke:red;stroke-width:1px;stroke-linecap:butt;stroke-linejoin:miter;stroke-opacity:1" d="M 4,820.138 4,837.212 z" id="boundary" inkscape:connector-curvature="0" />
	<path style="fill:none;stroke:red;stroke-width:1px;stroke-linecap:butt;stroke-linejoin:miter;stroke-opacity:1" d="M 4,820.138 17.6592,806.478 z" id="boundary" inkscape:connector-curvature="0" />
	<path style="fill:none;stroke:red;stroke-width:1px;stroke-linecap:butt;stroke-linejoin:miter;stroke-opacity:1" d="M 4,837.212 21.074,833.797 z" id="boundary" inkscape:connector-curvature="0" />
	<path style="fill:none;stroke:red;stroke-width:1px;stroke-linecap:butt;stroke-linejoin:miter;stroke-opacity:1" d="M 17.6592,806.478 26.1962,789.404 z" id="boundary" inkscape:connector-curvature="0" />
	<path style="fill:none;stroke:red;stroke-width:1px;stroke-linecap:butt;stroke-linejoin:miter;stroke-opacity:1" d="M 21.074,833.797 38.148,828.675 z" id="boundary" inkscape:connector-curvature="0" />
	<path style="fill:none;stroke:red;stroke-width:1px;stroke-linecap:butt;stroke-linejoin:miter;stroke-opacity:1" d="M 26.1962,789.404 38.148,768.916 z" id="boundary" inkscape:connector-curvature="0" />
	<path style="fill:none;stroke:red;stroke-width:1px;stroke-linecap:butt;stroke-linejoin:miter;stroke-opacity:1" d="M 38.148,768.916 55.222,760.379 z" id="boundary" inkscape:connector-curvature="0" />
	<path style="fill:none;stroke:red;stroke-width:1px;stroke-linecap:butt;stroke-linejoin:miter;stroke-opacity:1" d="M 38.148,828.675 51.8072,815.015 z" id="boundary" inkscape:connector-curvature="0" />
	<path style="fill:none;stroke:red;stroke-width:1px;stroke-linecap:butt;stroke-linejoin:miter;stroke-opacity:1" d="M 51.8072,815.015 65.4664,799.649 z" id="boundary" inkscape:connector-curvature="0" />
	<path style="fill:none;stroke:red;stroke-width:1px;stroke-linecap:butt;stroke-linejoin:miter;stroke-opacity:1" d="M 55.222,273.769 55.222,290.843 z" id="boundary" inkscape:connector-curvature="0" />
	<path style="fill:none;stroke:red;stroke-width:1px;stroke-linecap:butt;stroke-linejoin:miter;stroke-opacity:1" d="M 55.222,273.769 63.759,256.695 z" id="boundary" inkscape:connector-curvature="0" />
	<path style="fill:none;stroke:red;stroke-width:1px;stroke-linecap:butt;stroke-linejoin:miter;stroke-opacity:1" d="M 55.222,290.843 55.222,307.917 z" id="boundary" inkscape:connector-curvature="0" />
	<path style="fill:none;stroke:red;stroke-width:1px;stroke-linecap:butt;stroke-linejoin:miter;stroke-opacity:1" d="M 55.222,307.917 63.759,323.284 z" id="boundary" inkscape:connector-curvature="0" />
	<path style="fill:none;stroke:red;stroke-width:1px;stroke-linecap:butt;stroke-linejoin:miter;stroke-opacity:1" d="M 55.222,743.305 55.222,760.379 z" id="boundary" inkscape:connector-curvature="0" />
	<path style="fill:none;stroke:red;stroke-width:1px;stroke-linecap:butt;stroke-linejoin:miter;stroke-opacity:1" d="M 55.222,743.305 68.8812,729.645 z" id="boundary" inkscape:connector-curvature="0" />
	<path style="fill:none;stroke:red;stroke-width:1px;stroke-linecap:butt;stroke-linejoin:miter;stroke-opacity:1" d="M 63.759,239.621 63.759,256.695 z" id="boundary" inkscape:connector-curvature="0" />
	<path style="fill:none;stroke:red;stroke-width:1px;stroke-linecap:butt;stroke-linejoin:miter;stroke-opacity:1" d="M 63.759,239.621 72.296,214.01 z" id="boundary" inkscape:connector-curvature="0" />
	<path style="fill:none;stroke:red;stroke-width:1px;stroke-linecap:butt;stroke-linejoin:miter;stroke-opacity:1" d="M 63.759,323.284 63.759,340.358 z" id="boundary" inkscape:connector-curvature="0" />
	<path style="fill:none;stroke:red;stroke-width:1px;stroke-linecap:butt;stroke-linejoin:miter;stroke-opacity:1" d="M 63.759,340.358 72.296,355.725 z" id="boundary" inkscape:connector-curvature="0" />
	<path style="fill:none;stroke:red;stroke-width:1px;stroke-linecap:butt;stroke-linejoin:miter;stroke-opacity:1" d="M 65.4664,799.649 80.833,791.112 z" id="boundary" inkscape:connector-curvature="0" />
	<path style="fill:none;stroke:red;stroke-width:1px;stroke-linecap:butt;stroke-linejoin:miter;stroke-opacity:1" d="M 68.8812,729.645 77.4182,712.571 z" id="boundary" inkscape:connector-curvature="0" />
	<path style="fill:none;stroke:red;stroke-width:1px;stroke-linecap:butt;stroke-linejoin:miter;stroke-opacity:1" d="M 72.296,214.01 89.3701,205.473 z" id="boundary" inkscape:connector-curvature="0" />
	<path style="fill:none;stroke:red;stroke-width:1px;stroke-linecap:butt;stroke-linejoin:miter;stroke-opacity:1" d="M 72.296,355.725 72.296,372.799 z" id="boundary" inkscape:connector-curvature="0" />
	<path style="fill:none;stroke:red;stroke-width:1px;stroke-linecap:butt;stroke-linejoin:miter;stroke-opacity:1" d="M 72.296,372.799 87.6627,381.336 z" id="boundary" inkscape:connector-curvature="0" />
	<path style="fill:none;stroke:red;stroke-width:1px;stroke-linecap:butt;stroke-linejoin:miter;stroke-opacity:1" d="M 77.4182,712.571 91.0775,698.912 z" id="boundary" inkscape:connector-curvature="0" />
	<path style="fill:none;stroke:red;stroke-width:1px;stroke-linecap:butt;stroke-linejoin:miter;stroke-opacity:1" d="M 80.833,791.112 94.4923,780.867 z" id="boundary" inkscape:connector-curvature="0" />
	<path style="fill:none;stroke:red;stroke-width:1px;stroke-linecap:butt;stroke-linejoin:miter;stroke-opacity:1" d="M 87.6627,381.336 94.4923,398.41 z" id="boundary" inkscape:connector-curvature="0" />
	<path style="fill:none;stroke:red;stroke-width:1px;stroke-linecap:butt;stroke-linejoin:miter;stroke-opacity:1" d="M 89.3701,188.399 89.3701,205.473 z" id="boundary" inkscape:connector-curvature="0" />
	<path style="fill:none;stroke:red;stroke-width:1px;stroke-linecap:butt;stroke-linejoin:miter;stroke-opacity:1" d="M 89.3701,188.399 97.9071,171.325 z" id="boundary" inkscape:connector-curvature="0" />
	<path style="fill:none;stroke:red;stroke-width:1px;stroke-linecap:butt;stroke-linejoin:miter;stroke-opacity:1" d="M 91.0775,698.912 97.9071,675.009 z" id="boundary" inkscape:connector-curvature="0" />
	<path style="fill:none;stroke:red;stroke-width:1px;stroke-linecap:butt;stroke-linejoin:miter;stroke-opacity:1" d="M 94.4923,398.41 109.859,406.947 z" id="boundary" inkscape:connector-curvature="0" />
	<path style="fill:none;stroke:red;stroke-width:1px;stroke-linecap:butt;stroke-linejoin:miter;stroke-opacity:1" d="M 94.4923,780.867 103.029,765.501 z" id="boundary" inkscape:connector-curvature="0" />
	<path style="fill:none;stroke:red;stroke-width:1px;stroke-linecap:butt;stroke-linejoin:miter;stroke-opacity:1" d="M 97.9071,171.325 114.981,162.788 z" id="boundary" inkscape:connector-curvature="0" />
	<path style="fill:none;stroke:red;stroke-width:1px;stroke-linecap:butt;stroke-linejoin:miter;stroke-opacity:1" d="M 97.9071,675.009 114.981,666.472 z" id="boundary" inkscape:connector-curvature="0" />
	<path style="fill:none;stroke:red;stroke-width:1px;stroke-linecap:butt;stroke-linejoin:miter;stroke-opacity:1" d="M 103.029,765.501 118.396,756.964 z" id="boundary" inkscape:connector-curvature="0" />
	<path style="fill:none;stroke:red;stroke-width:1px;stroke-linecap:butt;stroke-linejoin:miter;stroke-opacity:1" d="M 109.859,406.947 118.396,422.313 z" id="boundary" inkscape:connector-curvature="0" />
	<path style="fill:none;stroke:red;stroke-width:1px;stroke-linecap:butt;stroke-linejoin:miter;stroke-opacity:1" d="M 114.981,162.788 123.518,145.714 z" id="boundary" inkscape:connector-curvature="0" />
	<path style="fill:none;stroke:red;stroke-width:1px;stroke-linecap:butt;stroke-linejoin:miter;stroke-opacity:1" d="M 114.981,649.398 114.981,666.472 z" id="boundary" inkscape:connector-curvature="0" />
	<path style="fill:none;stroke:red;stroke-width:1px;stroke-linecap:butt;stroke-linejoin:miter;stroke-opacity:1" d="M 114.981,649.398 123.518,632.324 z" id="boundary" inkscape:connector-curvature="0" />
	<path style="fill:none;stroke:red;stroke-width:1px;stroke-linecap:butt;stroke-linejoin:miter;stroke-opacity:1" d="M 118.396,422.313 132.055,432.558 z" id="boundary" inkscape:connector-curvature="0" />
	<path style="fill:none;stroke:red;stroke-width:1px;stroke-linecap:butt;stroke-linejoin:miter;stroke-opacity:1" d="M 118.396,756.964 125.225,739.89 z" id="boundary" inkscape:connector-curvature="0" />
	<path style="fill:none;stroke:red;stroke-width:1px;stroke-linecap:butt;stroke-linejoin:miter;stroke-opacity:1" d="M 123.518,145.714 140.592,137.177 z" id="boundary" inkscape:connector-curvature="0" />
	<path style="fill:none;stroke:red;stroke-width:1px;stroke-linecap:butt;stroke-linejoin:miter;stroke-opacity:1" d="M 123.518,632.324 140.592,623.787 z" id="boundary" inkscape:connector-curvature="0" />
	<path style="fill:none;stroke:red;stroke-width:1px;stroke-linecap:butt;stroke-linejoin:miter;stroke-opacity:1" d="M 125.225,739.89 142.299,739.89 z" id="boundary" inkscape:connector-curvature="0" />
	<path style="fill:none;stroke:red;stroke-width:1px;stroke-linecap:butt;stroke-linejoin:miter;stroke-opacity:1" d="M 132.055,432.558 147.422,441.095 z" id="boundary" inkscape:connector-curvature="0" />
	<path style="fill:none;stroke:red;stroke-width:1px;stroke-linecap:butt;stroke-linejoin:miter;stroke-opacity:1" d="M 140.592,137.177 149.129,120.103 z" id="boundary" inkscape:connector-curvature="0" />
	<path style="fill:none;stroke:red;stroke-width:1px;stroke-linecap:butt;stroke-linejoin:miter;stroke-opacity:1" d="M 140.592,606.713 140.592,623.787 z" id="boundary" inkscape:connector-curvature="0" />
	<path style="fill:none;stroke:red;stroke-width:1px;stroke-linecap:butt;stroke-linejoin:miter;stroke-opacity:1" d="M 140.592,606.713 154.251,593.053 z" id="boundary" inkscape:connector-curvature="0" />
	<path style="fill:none;stroke:red;stroke-width:1px;stroke-linecap:butt;stroke-linejoin:miter;stroke-opacity:1" d="M 142.299,739.89 157.666,731.353 z" id="boundary" inkscape:connector-curvature="0" />
	<path style="fill:none;stroke:red;stroke-width:1px;stroke-linecap:butt;stroke-linejoin:miter;stroke-opacity:1" d="M 147.422,441.095 154.251,458.169 z" id="boundary" inkscape:connector-curvature="0" />
	<path style="fill:none;stroke:red;stroke-width:1px;stroke-linecap:butt;stroke-linejoin:miter;stroke-opacity:1" d="M 149.129,120.103 166.203,111.566 z" id="boundary" inkscape:connector-curvature="0" />
	<path style="fill:none;stroke:red;stroke-width:1px;stroke-linecap:butt;stroke-linejoin:miter;stroke-opacity:1" d="M 154.251,458.169 171.325,458.169 z" id="boundary" inkscape:connector-curvature="0" />
	<path style="fill:none;stroke:red;stroke-width:1px;stroke-linecap:butt;stroke-linejoin:miter;stroke-opacity:1" d="M 154.251,593.053 166.203,572.565 z" id="boundary" inkscape:connector-curvature="0" />
	<path style="fill:none;stroke:red;stroke-width:1px;stroke-linecap:butt;stroke-linejoin:miter;stroke-opacity:1" d="M 157.666,731.353 171.325,721.108 z" id="boundary" inkscape:connector-curvature="0" />
	<path style="fill:none;stroke:red;stroke-width:1px;stroke-linecap:butt;stroke-linejoin:miter;stroke-opacity:1" d="M 166.203,111.566 183.277,106.444 z" id="boundary" inkscape:connector-curvature="0" />
	<path style="fill:none;stroke:red;stroke-width:1px;stroke-linecap:butt;stroke-linejoin:miter;stroke-opacity:1" d="M 166.203,572.565 179.862,558.905 z" id="boundary" inkscape:connector-curvature="0" />
	<path style="fill:none;stroke:red;stroke-width:1px;stroke-linecap:butt;stroke-linejoin:miter;stroke-opacity:1" d="M 171.325,458.169 186.692,466.706 z" id="boundary" inkscape:connector-curvature="0" />
	<path style="fill:none;stroke:red;stroke-width:1px;stroke-linecap:butt;stroke-linejoin:miter;stroke-opacity:1" d="M 171.325,721.108 179.862,705.742 z" id="boundary" inkscape:connector-curvature="0" />
	<path style="fill:none;stroke:red;stroke-width:1px;stroke-linecap:butt;stroke-linejoin:miter;stroke-opacity:1" d="M 179.862,558.905 191.814,538.417 z" id="boundary" inkscape:connector-curvature="0" />
	<path style="fill:none;stroke:red;stroke-width:1px;stroke-linecap:butt;stroke-linejoin:miter;stroke-opacity:1" d="M 179.862,705.742 195.229,697.205 z" id="boundary" inkscape:connector-curvature="0" />
	<path style="fill:none;stroke:red;stroke-width:1px;stroke-linecap:butt;stroke-linejoin:miter;stroke-opacity:1" d="M 183.277,106.444 198.644,97.9071 z" id="boundary" inkscape:connector-curvature="0" />
	<path style="fill:none;stroke:red;stroke-width:1px;stroke-linecap:butt;stroke-linejoin:miter;stroke-opacity:1" d="M 186.692,466.706 200.351,476.95 z" id="boundary" inkscape:connector-curvature="0" />
	<path style="fill:none;stroke:red;stroke-width:1px;stroke-linecap:butt;stroke-linejoin:miter;stroke-opacity:1" d="M 191.814,538.417 200.351,521.343 z" id="boundary" inkscape:connector-curvature="0" />
	<path style="fill:none;stroke:red;stroke-width:1px;stroke-linecap:butt;stroke-linejoin:miter;stroke-opacity:1" d="M 195.229,697.205 212.303,697.205 z" id="boundary" inkscape:connector-curvature="0" />
	<path style="fill:none;stroke:red;stroke-width:1px;stroke-linecap:butt;stroke-linejoin:miter;stroke-opacity:1" d="M 198.644,97.9071 215.718,97.9071 z" id="boundary" inkscape:connector-curvature="0" />
	<path style="fill:none;stroke:red;stroke-width:1px;stroke-linecap:butt;stroke-linejoin:miter;stroke-opacity:1" d="M 200.351,476.95 217.425,483.78 z" id="boundary" inkscape:connector-curvature="0" />
	<path style="fill:none;stroke:red;stroke-width:1px;stroke-linecap:butt;stroke-linejoin:miter;stroke-opacity:1" d="M 200.351,521.343 217.425,500.854 z" id="boundary" inkscape:connector-curvature="0" />
	<path style="fill:none;stroke:red;stroke-width:1px;stroke-linecap:butt;stroke-linejoin:miter;stroke-opacity:1" d="M 212.303,697.205 219.133,680.131 z" id="boundary" inkscape:connector-curvature="0" />
	<path style="fill:none;stroke:red;stroke-width:1px;stroke-linecap:butt;stroke-linejoin:miter;stroke-opacity:1" d="M 215.718,97.9071 222.547,80.833 z" id="boundary" inkscape:connector-curvature="0" />
	<path style="fill:none;stroke:red;stroke-width:1px;stroke-linecap:butt;stroke-linejoin:miter;stroke-opacity:1" d="M 217.425,483.78 217.425,500.854 z" id="boundary" inkscape:connector-curvature="0" />
	<path style="fill:none;stroke:red;stroke-width:1px;stroke-linecap:butt;stroke-linejoin:miter;stroke-opacity:1" d="M 219.133,680.131 232.792,668.179 z" id="boundary" inkscape:connector-curvature="0" />
	<path style="fill:none;stroke:red;stroke-width:1px;stroke-linecap:butt;stroke-linejoin:miter;stroke-opacity:1" d="M 222.547,80.833 239.621,72.296 z" id="boundary" inkscape:connector-curvature="0" />
	<path style="fill:none;stroke:red;stroke-width:1px;stroke-linecap:butt;stroke-linejoin:miter;stroke-opacity:1" d="M 232.792,668.179 243.036,654.52 z" id="boundary" inkscape:connector-curvature="0" />
	<path style="fill:none;stroke:red;stroke-width:1px;stroke-linecap:butt;stroke-linejoin:miter;stroke-opacity:1" d="M 239.621,72.296 256.695,72.296 z" id="boundary" inkscape:connector-curvature="0" />
	<path style="fill:none;stroke:red;stroke-width:1px;stroke-linecap:butt;stroke-linejoin:miter;stroke-opacity:1" d="M 243.036,654.52 260.11,649.398 z" id="boundary" inkscape:connector-curvature="0" />
	<path style="fill:none;stroke:red;stroke-width:1px;stroke-linecap:butt;stroke-linejoin:miter;stroke-opacity:1" d="M 256.695,72.296 265.232,55.222 z" id="boundary" inkscape:connector-curvature="0" />
	<path style="fill:none;stroke:red;stroke-width:1px;stroke-linecap:butt;stroke-linejoin:miter;stroke-opacity:1" d="M 260.11,649.398 277.184,640.861 z" id="boundary" inkscape:connector-curvature="0" />
	<path style="fill:none;stroke:red;stroke-width:1px;stroke-linecap:butt;stroke-linejoin:miter;stroke-opacity:1" d="M 265.232,55.222 282.306,55.222 z" id="boundary" inkscape:connector-curvature="0" />
	<path style="fill:none;stroke:red;stroke-width:1px;stroke-linecap:butt;stroke-linejoin:miter;stroke-opacity:1" d="M 277.184,640.861 285.721,623.787 z" id="boundary" inkscape:connector-curvature="0" />
	<path style="fill:none;stroke:red;stroke-width:1px;stroke-linecap:butt;stroke-linejoin:miter;stroke-opacity:1" d="M 282.306,55.222 299.38,55.222 z" id="boundary" inkscape:connector-curvature="0" />
	<path style="fill:none;stroke:red;stroke-width:1px;stroke-linecap:butt;stroke-linejoin:miter;stroke-opacity:1" d="M 285.721,623.787 302.795,615.25 z" id="boundary" inkscape:connector-curvature="0" />
	<path style="fill:none;stroke:red;stroke-width:1px;stroke-linecap:butt;stroke-linejoin:miter;stroke-opacity:1" d="M 299.38,55.222 314.747,46.685 z" id="boundary" inkscape:connector-curvature="0" />
	<path style="fill:none;stroke:red;stroke-width:1px;stroke-linecap:butt;stroke-linejoin:miter;stroke-opacity:1" d="M 302.795,615.25 316.454,603.298 z" id="boundary" inkscape:connector-curvature="0" />
	<path style="fill:none;stroke:red;stroke-width:1px;stroke-linecap:butt;stroke-linejoin:miter;stroke-opacity:1" d="M 314.747,46.685 328.406,34.7332 z" id="boundary" inkscape:connector-curvature="0" />
	<path style="fill:none;stroke:red;stroke-width:1px;stroke-linecap:butt;stroke-linejoin:miter;stroke-opacity:1" d="M 316.454,603.298 331.821,594.761 z" id="boundary" inkscape:connector-curvature="0" />
	<path style="fill:none;stroke:red;stroke-width:1px;stroke-linecap:butt;stroke-linejoin:miter;stroke-opacity:1" d="M 328.406,34.7332 345.48,29.611 z" id="boundary" inkscape:connector-curvature="0" />
	<path style="fill:none;stroke:red;stroke-width:1px;stroke-linecap:butt;stroke-linejoin:miter;stroke-opacity:1" d="M 331.821,594.761 338.651,577.687 z" id="boundary" inkscape:connector-curvature="0" />
	<path style="fill:none;stroke:red;stroke-width:1px;stroke-linecap:butt;stroke-linejoin:miter;stroke-opacity:1" d="M 338.651,577.687 355.725,569.15 z" id="boundary" inkscape:connector-curvature="0" />
	<path style="fill:none;stroke:red;stroke-width:1px;stroke-linecap:butt;stroke-linejoin:miter;stroke-opacity:1" d="M 345.48,29.611 362.554,29.611 z" id="boundary" inkscape:connector-curvature="0" />
	<path style="fill:none;stroke:red;stroke-width:1px;stroke-linecap:butt;stroke-linejoin:miter;stroke-opacity:1" d="M 355.725,569.15 372.799,560.613 z" id="boundary" inkscape:connector-curvature="0" />
	<path style="fill:none;stroke:red;stroke-width:1px;stroke-linecap:butt;stroke-linejoin:miter;stroke-opacity:1" d="M 362.554,29.611 379.628,29.611 z" id="boundary" inkscape:connector-curvature="0" />
	<path style="fill:none;stroke:red;stroke-width:1px;stroke-linecap:butt;stroke-linejoin:miter;stroke-opacity:1" d="M 372.799,560.613 389.873,543.539 z" id="boundary" inkscape:connector-curvature="0" />
	<path style="fill:none;stroke:red;stroke-width:1px;stroke-linecap:butt;stroke-linejoin:miter;stroke-opacity:1" d="M 379.628,29.611 394.995,21.074 z" id="boundary" inkscape:connector-curvature="0" />
	<path style="fill:none;stroke:red;stroke-width:1px;stroke-linecap:butt;stroke-linejoin:miter;stroke-opacity:1" d="M 389.873,543.539 406.947,543.539 z" id="boundary" inkscape:connector-curvature="0" />
	<path style="fill:none;stroke:red;stroke-width:1px;stroke-linecap:butt;stroke-linejoin:miter;stroke-opacity:1" d="M 394.995,21.074 412.069,21.074 z" id="boundary" inkscape:connector-curvature="0" />
	<path style="fill:none;stroke:red;stroke-width:1px;stroke-linecap:butt;stroke-linejoin:miter;stroke-opacity:1" d="M 406.947,543.539 422.313,552.076 z" id="boundary" inkscape:connector-curvature="0" />
	<path style="fill:none;stroke:red;stroke-width:1px;stroke-linecap:butt;stroke-linejoin:miter;stroke-opacity:1" d="M 412.069,21.074 429.143,21.074 z" id="boundary" inkscape:connector-curvature="0" />
	<path style="fill:none;stroke:red;stroke-width:1px;stroke-linecap:butt;stroke-linejoin:miter;stroke-opacity:1" d="M 422.313,552.076 437.68,560.613 z" id="boundary" inkscape:connector-curvature="0" />
	<path style="fill:none;stroke:red;stroke-width:1px;stroke-linecap:butt;stroke-linejoin:miter;stroke-opacity:1" d="M 429.143,21.074 446.217,21.074 z" id="boundary" inkscape:connector-curvature="0" />
	<path style="fill:none;stroke:red;stroke-width:1px;stroke-linecap:butt;stroke-linejoin:miter;stroke-opacity:1" d="M 437.68,560.613 454.754,560.613 z" id="boundary" inkscape:connector-curvature="0" />
	<path style="fill:none;stroke:red;stroke-width:1px;stroke-linecap:butt;stroke-linejoin:miter;stroke-opacity:1" d="M 446.217,21.074 463.291,21.074 z" id="boundary" inkscape:connector-curvature="0" />
	<path style="fill:none;stroke:red;stroke-width:1px;stroke-linecap:butt;stroke-linejoin:miter;stroke-opacity:1" d="M 454.754,560.613 471.828,560.613 z" id="boundary" inkscape:connector-curvature="0" />
	<path style="fill:none;stroke:red;stroke-width:1px;stroke-linecap:butt;stroke-linejoin:miter;stroke-opacity:1" d="M 463.291,21.074 480.365,21.074 z" id="boundary" inkscape:connector-curvature="0" />
	<path style="fill:none;stroke:red;stroke-width:1px;stroke-linecap:butt;stroke-linejoin:miter;stroke-opacity:1" d="M 471.828,560.613 488.902,560.613 z" id="boundary" inkscape:connector-curvature="0" />
	<path style="fill:none;stroke:red;stroke-width:1px;stroke-linecap:butt;stroke-linejoin:miter;stroke-opacity:1" d="M 480.365,21.074 492.317,7.4148 z" id="boundary" inkscape:connector-curvature="0" />
	<path style="fill:none;stroke:red;stroke-width:1px;stroke-linecap:butt;stroke-linejoin:miter;stroke-opacity:1" d="M 488.902,560.613 505.976,560.613 z" id="boundary" inkscape:connector-curvature="0" />
	<path style="fill:none;stroke:red;stroke-width:1px;stroke-linecap:butt;stroke-linejoin:miter;stroke-opacity:1" d="M 492.317,7.4148 509.391,4 z" id="boundary" inkscape:connector-curvature="0" />
	<path style="fill:none;stroke:red;stroke-width:1px;stroke-linecap:butt;stroke-linejoin:miter;stroke-opacity:1" d="M 505.976,560.613 523.05,560.613 z" id="boundary" inkscape:connector-curvature="0" />
	<path style="fill:none;stroke:red;stroke-width:1px;stroke-linecap:butt;stroke-linejoin:miter;stroke-opacity:1" d="M 509.391,4 526.465,4 z" id="boundary" inkscape:connector-curvature="0" />
	<path style="fill:none;stroke:red;stroke-width:1px;stroke-linecap:butt;stroke-linejoin:miter;stroke-opacity:1" d="M 523.05,560.613 540.124,560.613 z" id="boundary" inkscape:connector-curvature="0" />
	<path style="fill:none;stroke:red;stroke-width:1px;stroke-linecap:butt;stroke-linejoin:miter;stroke-opacity:1" d="M 526.465,4 543.539,4 z" id="boundary" inkscape:connector-curvature="0" />
	<path style="fill:none;stroke:red;stroke-width:1px;stroke-linecap:butt;stroke-linejoin:miter;stroke-opacity:1" d="M 540.124,560.613 557.198,560.613 z" id="boundary" inkscape:connector-curvature="0" />
	<path style="fill:none;stroke:red;stroke-width:1px;stroke-linecap:butt;stroke-linejoin:miter;stroke-opacity:1" d="M 543.539,4 560.613,4 z" id="boundary" inkscape:connector-curvature="0" />
	<path style="fill:none;stroke:red;stroke-width:1px;stroke-linecap:butt;stroke-linejoin:miter;stroke-opacity:1" d="M 557.198,560.613 574.272,557.198 z" id="boundary" inkscape:connector-curvature="0" />
	<path style="fill:none;stroke:red;stroke-width:1px;stroke-linecap:butt;stroke-linejoin:miter;stroke-opacity:1" d="M 560.613,4 577.687,9.1222 z" id="boundary" inkscape:connector-curvature="0" />
	<path style="fill:none;stroke:red;stroke-width:1px;stroke-linecap:butt;stroke-linejoin:miter;stroke-opacity:1" d="M 574.272,557.198 584.516,543.539 z" id="boundary" inkscape:connector-curvature="0" />
	<path style="fill:none;stroke:red;stroke-width:1px;stroke-linecap:butt;stroke-linejoin:miter;stroke-opacity:1" d="M 577.687,9.1222 591.346,21.074 z" id="boundary" inkscape:connector-curvature="0" />
	<path style="fill:none;stroke:red;stroke-width:1px;stroke-linecap:butt;stroke-linejoin:miter;stroke-opacity:1" d="M 584.516,543.539 601.59,543.539 z" id="boundary" inkscape:connector-curvature="0" />
	<path style="fill:none;stroke:red;stroke-width:1px;stroke-linecap:butt;stroke-linejoin:miter;stroke-opacity:1" d="M 591.346,21.074 608.42,21.074 z" id="boundary" inkscape:connector-curvature="0" />
	<path style="fill:none;stroke:red;stroke-width:1px;stroke-linecap:butt;stroke-linejoin:miter;stroke-opacity:1" d="M 601.59,543.539 618.664,543.539 z" id="boundary" inkscape:connector-curvature="0" />
	<path style="fill:none;stroke:red;stroke-width:1px;stroke-linecap:butt;stroke-linejoin:miter;stroke-opacity:1" d="M 608.42,21.074 625.494,21.074 z" id="boundary" inkscape:connector-curvature="0" />
	<path style="fill:none;stroke:red;stroke-width:1px;stroke-linecap:butt;stroke-linejoin:miter;stroke-opacity:1" d="M 618.664,543.539 635.738,543.539 z" id="boundary" inkscape:connector-curvature="0" />
	<path style="fill:none;stroke:red;stroke-width:1px;stroke-linecap:butt;stroke-linejoin:miter;stroke-opacity:1" d="M 625.494,21.074 642.568,21.074 z" id="boundary" inkscape:connector-curvature="0" />
	<path style="fill:none;stroke:red;stroke-width:1px;stroke-linecap:butt;stroke-linejoin:miter;stroke-opacity:1" d="M 635.738,543.539 652.812,543.539 z" id="boundary" inkscape:connector-curvature="0" />
	<path style="fill:none;stroke:red;stroke-width:1px;stroke-linecap:butt;stroke-linejoin:miter;stroke-opacity:1" d="M 642.568,21.074 659.642,21.074 z" id="boundary" inkscape:connector-curvature="0" />
	<path style="fill:none;stroke:red;stroke-width:1px;stroke-linecap:butt;stroke-linejoin:miter;stroke-opacity:1" d="M 652.812,543.539 669.886,538.417 z" id="boundary" inkscape:connector-curvature="0" />
	<path style="fill:none;stroke:red;stroke-width:1px;stroke-linecap:butt;stroke-linejoin:miter;stroke-opacity:1" d="M 659.642,21.074 675.009,29.611 z" id="boundary" inkscape:connector-curvature="0" />
	<path style="fill:none;stroke:red;stroke-width:1px;stroke-linecap:butt;stroke-linejoin:miter;stroke-opacity:1" d="M 669.886,538.417 686.96,535.002 z" id="boundary" inkscape:connector-curvature="0" />
	<path style="fill:none;stroke:red;stroke-width:1px;stroke-linecap:butt;stroke-linejoin:miter;stroke-opacity:1" d="M 675.009,29.611 692.083,29.611 z" id="boundary" inkscape:connector-curvature="0" />
	<path style="fill:none;stroke:red;stroke-width:1px;stroke-linecap:butt;stroke-linejoin:miter;stroke-opacity:1" d="M 686.96,535.002 704.034,535.002 z" id="boundary" inkscape:connector-curvature="0" />
	<path style="fill:none;stroke:red;stroke-width:1px;stroke-linecap:butt;stroke-linejoin:miter;stroke-opacity:1" d="M 692.083,29.611 709.157,29.611 z" id="boundary" inkscape:connector-curvature="0" />
	<path style="fill:none;stroke:red;stroke-width:1px;stroke-linecap:butt;stroke-linejoin:miter;stroke-opacity:1" d="M 704.034,535.002 721.108,535.002 z" id="boundary" inkscape:connector-curvature="0" />
	<path style="fill:none;stroke:red;stroke-width:1px;stroke-linecap:butt;stroke-linejoin:miter;stroke-opacity:1" d="M 709.157,29.611 726.231,29.611 z" id="boundary" inkscape:connector-curvature="0" />
	<path style="fill:none;stroke:red;stroke-width:1px;stroke-linecap:butt;stroke-linejoin:miter;stroke-opacity:1" d="M 721.108,535.002 738.182,529.88 z" id="boundary" inkscape:connector-curvature="0" />
	<path style="fill:none;stroke:red;stroke-width:1px;stroke-linecap:butt;stroke-linejoin:miter;stroke-opacity:1" d="M 726.231,29.611 739.89,39.8554 z" id="boundary" inkscape:connector-curvature="0" />
	<path style="fill:none;stroke:red;stroke-width:1px;stroke-linecap:butt;stroke-linejoin:miter;stroke-opacity:1" d="M 738.182,529.88 751.842,517.928 z" id="boundary" inkscape:connector-curvature="0" />
	<path style="fill:none;stroke:red;stroke-width:1px;stroke-linecap:butt;stroke-linejoin:miter;stroke-opacity:1" d="M 739.89,39.8554 756.964,46.685 z" id="boundary" inkscape:connector-curvature="0" />
	<path style="fill:none;stroke:red;stroke-width:1px;stroke-linecap:butt;stroke-linejoin:miter;stroke-opacity:1" d="M 751.842,517.928 768.916,516.22 z" id="boundary" inkscape:connector-curvature="0" />
	<path style="fill:none;stroke:red;stroke-width:1px;stroke-linecap:butt;stroke-linejoin:miter;stroke-opacity:1" d="M 756.964,46.685 772.33,55.222 z" id="boundary" inkscape:connector-curvature="0" />
	<path style="fill:none;stroke:red;stroke-width:1px;stroke-linecap:butt;stroke-linejoin:miter;stroke-opacity:1" d="M 768.916,516.22 785.99,509.391 z" id="boundary" inkscape:connector-curvature="0" />
	<path style="fill:none;stroke:red;stroke-width:1px;stroke-linecap:butt;stroke-linejoin:miter;stroke-opacity:1" d="M 772.33,55.222 789.404,58.6368 z" id="boundary" inkscape:connector-curvature="0" />
	<path style="fill:none;stroke:red;stroke-width:1px;stroke-linecap:butt;stroke-linejoin:miter;stroke-opacity:1" d="M 785.99,509.391 799.649,492.317 z" id="boundary" inkscape:connector-curvature="0" />
	<path style="fill:none;stroke:red;stroke-width:1px;stroke-linecap:butt;stroke-linejoin:miter;stroke-opacity:1" d="M 789.404,58.6368 799.649,72.296 z" id="boundary" inkscape:connector-curvature="0" />
	<path style="fill:none;stroke:red;stroke-width:1px;stroke-linecap:butt;stroke-linejoin:miter;stroke-opacity:1" d="M 799.649,72.296 816.723,77.4182 z" id="boundary" inkscape:connector-curvature="0" />
	<path style="fill:none;stroke:red;stroke-width:1px;stroke-linecap:butt;stroke-linejoin:miter;stroke-opacity:1" d="M 799.649,492.317 816.723,492.317 z" id="boundary" inkscape:connector-curvature="0" />
	<path style="fill:none;stroke:red;stroke-width:1px;stroke-linecap:butt;stroke-linejoin:miter;stroke-opacity:1" d="M 816.723,77.4182 832.09,85.9552 z" id="boundary" inkscape:connector-curvature="0" />
	<path style="fill:none;stroke:red;stroke-width:1px;stroke-linecap:butt;stroke-linejoin:miter;stroke-opacity:1" d="M 816.723,492.317 833.797,483.78 z" id="boundary" inkscape:connector-curvature="0" />
	<path style="fill:none;stroke:red;stroke-width:1px;stroke-linecap:butt;stroke-linejoin:miter;stroke-opacity:1" d="M 832.09,85.9552 845.749,97.9071 z" id="boundary" inkscape:connector-curvature="0" />
	<path style="fill:none;stroke:red;stroke-width:1px;stroke-linecap:butt;stroke-linejoin:miter;stroke-opacity:1" d="M 833.797,483.78 850.871,483.78 z" id="boundary" inkscape:connector-curvature="0" />
	<path style="fill:none;stroke:red;stroke-width:1px;stroke-linecap:butt;stroke-linejoin:miter;stroke-opacity:1" d="M 845.749,97.9071 861.115,106.444 z" id="boundary" inkscape:connector-curvature="0" />
	<path style="fill:none;stroke:red;stroke-width:1px;stroke-linecap:butt;stroke-linejoin:miter;stroke-opacity:1" d="M 850.871,483.78 859.408,466.706 z" id="boundary" inkscape:connector-curvature="0" />
	<path style="fill:none;stroke:red;stroke-width:1px;stroke-linecap:butt;stroke-linejoin:miter;stroke-opacity:1" d="M 859.408,466.706 876.482,466.706 z" id="boundary" inkscape:connector-curvature="0" />
	<path style="fill:none;stroke:red;stroke-width:1px;stroke-linecap:butt;stroke-linejoin:miter;stroke-opacity:1" d="M 861.115,106.444 878.189,106.444 z" id="boundary" inkscape:connector-curvature="0" />
	<path style="fill:none;stroke:red;stroke-width:1px;stroke-linecap:butt;stroke-linejoin:miter;stroke-opacity:1" d="M 876.482,466.706 891.849,458.169 z" id="boundary" inkscape:connector-curvature="0" />
	<path style="fill:none;stroke:red;stroke-width:1px;stroke-linecap:butt;stroke-linejoin:miter;stroke-opacity:1" d="M 878.189,106.444 893.556,114.981 z" id="boundary" inkscape:connector-curvature="0" />
	<path style="fill:none;stroke:red;stroke-width:1px;stroke-linecap:butt;stroke-linejoin:miter;stroke-opacity:1" d="M 891.849,458.169 908.923,453.046 z" id="boundary" inkscape:connector-curvature="0" />
	<path style="fill:none;stroke:red;stroke-width:1px;stroke-linecap:butt;stroke-linejoin:miter;stroke-opacity:1" d="M 893.556,114.981 910.63,120.103 z" id="boundary" inkscape:connector-curvature="0" />
	<path style="fill:none;stroke:red;stroke-width:1px;stroke-linecap:butt;stroke-linejoin:miter;stroke-opacity:1" d="M 908.923,453.046 922.582,439.387 z" id="boundary" inkscape:connector-curvature="0" />
	<path style="fill:none;stroke:red;stroke-width:1px;stroke-linecap:butt;stroke-linejoin:miter;stroke-opacity:1" d="M 910.63,120.103 922.582,133.762 z" id="boundary" inkscape:connector-curvature="0" />
	<path style="fill:none;stroke:red;stroke-width:1px;stroke-linecap:butt;stroke-linejoin:miter;stroke-opacity:1" d="M 922.582,133.762 936.241,145.714 z" id="boundary" inkscape:connector-curvature="0" />
	<path style="fill:none;stroke:red;stroke-width:1px;stroke-linecap:butt;stroke-linejoin:miter;stroke-opacity:1" d="M 922.582,439.387 936.241,424.021 z" id="boundary" inkscape:connector-curvature="0" />
	<path style="fill:none;stroke:red;stroke-width:1px;stroke-linecap:butt;stroke-linejoin:miter;stroke-opacity:1" d="M 936.241,145.714 936.241,162.788 z" id="boundary" inkscape:connector-curvature="0" />
	<path style="fill:none;stroke:red;stroke-width:1px;stroke-linecap:butt;stroke-linejoin:miter;stroke-opacity:1" d="M 936.241,162.788 951.608,171.325 z" id="boundary" inkscape:connector-curvature="0" />
	<path style="fill:none;stroke:red;stroke-width:1px;stroke-linecap:butt;stroke-linejoin:miter;stroke-opacity:1" d="M 936.241,424.021 953.315,415.484 z" id="boundary" inkscape:connector-curvature="0" />
	<path style="fill:none;stroke:red;stroke-width:1px;stroke-linecap:butt;stroke-linejoin:miter;stroke-opacity:1" d="M 951.608,171.325 960.145,186.692 z" id="boundary" inkscape:connector-curvature="0" />
	<path style="fill:none;stroke:red;stroke-width:1px;stroke-linecap:butt;stroke-linejoin:miter;stroke-opacity:1" d="M 953.315,398.41 953.315,415.484 z" id="boundary" inkscape:connector-curvature="0" />
	<path style="fill:none;stroke:red;stroke-width:1px;stroke-linecap:butt;stroke-linejoin:miter;stroke-opacity:1" d="M 953.315,398.41 961.852,381.336 z" id="boundary" inkscape:connector-curvature="0" />
	<path style="fill:none;stroke:red;stroke-width:1px;stroke-linecap:butt;stroke-linejoin:miter;stroke-opacity:1" d="M 960.145,186.692 961.852,203.766 z" id="boundary" inkscape:connector-curvature="0" />
	<path style="fill:none;stroke:red;stroke-width:1px;stroke-linecap:butt;stroke-linejoin:miter;stroke-opacity:1" d="M 961.852,203.766 977.219,212.303 z" id="boundary" inkscape:connector-curvature="0" />
	<path style="fill:none;stroke:red;stroke-width:1px;stroke-linecap:butt;stroke-linejoin:miter;stroke-opacity:1" d="M 961.852,381.336 978.926,372.799 z" id="boundary" inkscape:connector-curvature="0" />
	<path style="fill:none;stroke:red;stroke-width:1px;stroke-linecap:butt;stroke-linejoin:miter;stroke-opacity:1" d="M 977.219,212.303 978.926,229.377 z" id="boundary" inkscape:connector-curvature="0" />
	<path style="fill:none;stroke:red;stroke-width:1px;stroke-linecap:butt;stroke-linejoin:miter;stroke-opacity:1" d="M 978.926,229.377 987.463,244.744 z" id="boundary" inkscape:connector-curvature="0" />
	<path style="fill:none;stroke:red;stroke-width:1px;stroke-linecap:butt;stroke-linejoin:miter;stroke-opacity:1" d="M 978.926,355.725 978.926,372.799 z" id="boundary" inkscape:connector-curvature="0" />
	<path style="fill:none;stroke:red;stroke-width:1px;stroke-linecap:butt;stroke-linejoin:miter;stroke-opacity:1" d="M 978.926,355.725 987.463,338.651 z" id="boundary" inkscape:connector-curvature="0" />
	<path style="fill:none;stroke:red;stroke-width:1px;stroke-linecap:butt;stroke-linejoin:miter;stroke-opacity:1" d="M 987.463,244.744 987.463,261.818 z" id="boundary" inkscape:connector-curvature="0" />
	<path style="fill:none;stroke:red;stroke-width:1px;stroke-linecap:butt;stroke-linejoin:miter;stroke-opacity:1" d="M 987.463,261.818 996,277.184 z" id="boundary" inkscape:connector-curvature="0" />
	<path style="fill:none;stroke:red;stroke-width:1px;stroke-linecap:butt;stroke-linejoin:miter;stroke-opacity:1" d="M 987.463,321.577 987.463,338.651 z" id="boundary" inkscape:connector-curvature="0" />
	<path style="fill:none;stroke:red;stroke-width:1px;stroke-linecap:butt;stroke-linejoin:miter;stroke-opacity:1" d="M 987.463,321.577 996,294.258 z" id="boundary" inkscape:connector-curvature="0" />
	<path style="fill:none;stroke:red;stroke-width:1px;stroke-linecap:butt;stroke-linejoin:miter;stroke-opacity:1" d="M 996,277.184 996,294.258 z" id="boundary" inkscape:connector-curvature="0" />
	<circle cx="4" cy="820.138" r="4" fill="#0" id="circle0"/>
	<circle cx="4" cy="837.212" r="4" fill="#0" id="circle1"/>
	<circle cx="17.6592" cy="806.478" r="4" fill="#0" id="circle2"/>
	<circle cx="21.074" cy="833.797" r="4" fill="#0" id="circle3"/>
	<circle cx="26.1962" cy="789.404" r="4" fill="#0" id="circle4"/>
	<circle cx="38.148" cy="768.916" r="4" fill="#0" id="circle5"/>
	<circle cx="38.148" cy="828.675" r="4" fill="#0" id="circle6"/>
	<circle cx="51.8072" cy="815.015" r="4" fill="#0" id="circle7"/>
	<circle cx="55.222" cy="273.769" r="4" fill="#0" id="circle8"/>
	<circle cx="55.222" cy="290.843" r="4" fill="#0" id="circle9"/>
	<circle cx="55.222" cy="307.917" r="4" fill="#0" id="circle10"/>
	<circle cx="55.222" cy="743.305" r="4" fill="#0" id="circle11"/>
	<circle cx="55.222" cy="760.379" r="4" fill="#0" id="circle12"/>
	<circle cx="63.759" cy="239.621" r="4" fill="#0" id="circle13"/>
	<circle cx="63.759" cy="256.695" r="4" fill="#0" id="circle14"/>
	<circle cx="63.759" cy="323.284" r="4" fill="#0" id="circle15"/>
	<circle cx="63.759" cy="340.358" r="4" fill="#0" id="circle16"/>
	<circle cx="65.4664" cy="799.649" r="4" fill="#0" id="circle17"/>
	<circle cx="68.8812" cy="729.645" r="4" fill="#0" id="circle18"/>
	<circle cx="72.296" cy="214.01" r="4" fill="#0" id="circle19"/>
	<circle cx="72.296" cy="355.725" r="4" fill="#0" id="circle20"/>
	<circle cx="72.296" cy="372.799" r="4" fill="#0" id="circle21"/>
	<circle cx="77.4182" cy="712.571" r="4" fill="#0" id="circle22"/>
	<circle cx="80.833" cy="791.112" r="4" fill="#0" id="circle23"/>
	<circle cx="87.6627" cy="381.336" r="4" fill="#0" id="circle24"/>
	<circle cx="89.3701" cy="188.399" r="4" fill="#0" id="circle25"/>
	<circle cx="89.3701" cy="205.473" r="4" fill="#0" id="circle26"/>
	<circle cx="91.0775" cy="698.912" r="4" fill="#0" id="circle27"/>
	<circle cx="94.4923" cy="398.41" r="4" fill="#0" id="circle28"/>
	<circle cx="94.4923" cy="780.867" r="4" fill="#0" id="circle29"/>
	<circle cx="97.9071" cy="171.325" r="4" fill="#0" id="circle30"/>
	<circle cx="97.9071" cy="675.009" r="4" fill="#0" id="circle31"/>
	<circle cx="103.029" cy="765.501" r="4" fill="#0" id="circle32"/>
	<circle cx="109.859" cy="406.947" r="4" fill="#0" id="circle33"/>
	<circle cx="114.981" cy="162.788" r="4" fill="#0" id="circle34"/>
	<circle cx="114.981" cy="649.398" r="4" fill="#0" id="circle35"/>
	<circle cx="114.981" cy="666.472" r="4" fill="#0" id="circle36"/>
	<circle cx="118.396" cy="422.313" r="4" fill="#0" id="circle37"/>
	<circle cx="118.396" cy="756.964" r="4" fill="#0" id="circle38"/>
	<circle cx="123.518" cy="145.714" r="4" fill="#0" id="circle39"/>
	<circle cx="123.518" cy="632.324" r="4" fill="#0" id="circle40"/>
	<circle cx="125.225" cy="739.89" r="4" fill="#0" id="circle41"/>
	<circle cx="132.055" cy="432.558" r="4" fill="#0" id="circle42"/>
	<circle cx="140.592" cy="137.177" r="4" fill="#0" id="circle43"/>
	<circle cx="140.592" cy="606.713" r="4" fill="#0" id="circle44"/>
	<circle cx="140.592" cy="623.787" r="4" fill="#0" id="circle45"/>
	<circle cx="142.299" cy="739.89" r="4" fill="#0" id="circle46"/>
	<circle cx="147.422" cy="441.095" r="4" fill="#0" id="circle47"/>
	<circle cx="149.129" cy="120.103" r="4" fill="#0" id="circle48"/>
	<circle cx="154.251" cy="458.169" r="4" fill="#0" id="circle49"/>
	<circle cx="154.251" cy="593.053" r="4" fill="#0" id="circle50"/>
	<circle cx="157.666" cy="731.353" r="4" fill="#0" id="circle51"/>
	<circle cx="166.203" cy="111.566" r="4" fill="#0" id="circle52"/>
	<circle cx="166.203" cy="572.565" r="4" fill="#0" id="circle53"/>
	<circle cx="171.325" cy="458.169" r="4" fill="#0" id="circle54"/>
	<circle cx="171.325" cy="721.108" r="4" fill="#0" id="circle55"/>
	<circle cx="179.862" cy="558.905" r="4" fill="#0" id="circle56"/>
	<circle cx="179.862" cy="705.742" r="4" fill="#0" id="circle57"/>
	<circle cx="183.277" cy="106.444" r="4" fill="#0" id="circle58"/>
	<circle cx="186.692" cy="466.706" r="4" fill="#0" id="circle59"/>
	<circle cx="191.814" cy="538.417" r="4" fill="#0" id="circle60"/>
	<circle cx="195.229" cy="697.205" r="4" fill="#0" id="circle61"/>
	<circle cx="198.644" cy="97.9071" r="4" fill="#0" id="circle62"/>
	<circle cx="200.351" cy="476.95" r="4" fill="#0" id="circle63"/>
	<circle cx="200.351" cy="521.343" r="4" fill="#0" id="circle64"/>
	<circle cx="212.303" cy="697.205" r="4" fill="#0" id="circle65"/>
	<circle cx="215.718" cy="97.9071" r="4" fill="#0" id="circle66"/>
	<circle cx="217.425" cy="483.78" r="4" fill="#0" id="circle67"/>
	<circle cx="217.425" cy="500.854" r="4" fill="#0" id="circle68"/>
	<circle cx="219.133" cy="680.131" r="4" fill="#0" id="circle69"/>
	<circle cx="222.547" cy="80.833" r="4" fill="#0" id="circle70"/>
	<circle cx="232.792" cy="668.179" r="4" fill="#0" id="circle71"/>
	<circle cx="239.621" cy="72.296" r="4" fill="#0" id="circle72"/>
	<circle cx="243.036" cy="654.52" r="4" fill="#0" id="circle73"/>
	<circle cx="256.695" cy="72.296" r="4" fill="#0" id="circle74"/>
	<circle cx="260.11" cy="649.398" r="4" fill="#0" id="circle75"/>
	<circle cx="265.232" cy="55.222" r="4" fill="#0" id="circle76"/>
	<circle cx="277.184" cy="640.861" r="4" fill="#0" id="circle77"/>
	<circle cx="282.306" cy="55.222" r="4" fill="#0" id="circle78"/>
	<circle cx="285.721" cy="623.787" r="4" fill="#0" id="circle79"/>
	<circle cx="299.38" cy="55.222" r="4" fill="#0" id="circle80"/>
	<circle cx="302.795" cy="615.25" r="4" fill="#0" id="circle81"/>
	<circle cx="314.747" cy="46.685" r="4" fill="#0" id="circle82"/>
	<circle cx="316.454" cy="603.298" r="4" fill="#0" id="circle83"/>
	<circle cx="328.406" cy="34.7332" r="4" fill="#0" id="circle84"/>
	<circle cx="331.821" cy="594.761" r="4" fill="#0" id="circle85"/>
	<circle cx="338.651" cy="577.687" r="4" fill="#0" id="circle86"/>
	<circle cx="345.48" cy="29.611" r="4" fill="#0" id="circle87"/>
	<circle cx="355.725" cy="569.15" r="4" fill="#0" id="circle88"/>
	<circle cx="362.554" cy="29.611" r="4" fill="#0" id="circle89"/>
	<circle cx="372.799" cy="560.613" r="4" fill="#0" id="circle90"/>
	<circle cx="379.628" cy="29.611" r="4" fill="#0" id="circle91"/>
	<circle cx="389.873" cy="543.539" r="4" fill="#0" id="circle92"/>
	<circle cx="394.995" cy="21.074" r="4" fill="#0" id="circle93"/>
	<circle cx="406.947" cy="543.539" r="4" fill="#0" id="circle94"/>
	<circle cx="412.069" cy="21.074" r="4" fill="#0" id="circle95"/>
	<circle cx="422.313" cy="552.076" r="4" fill="#0" id="circle96"/>
	<circle cx="429.143" cy="21.074" r="4" fill="#0" id="circle97"/>
	<circle cx="437.68" cy="560.613" r="4" fill="#0" id="circle98"/>
	<circle cx="446.217" cy="21.074" r="4" fill="#0" id="circle99"/>
	<circle cx="454.754" cy="560.613" r="4" fill="#0" id="circle100"/>
	<circle cx="463.291" cy="21.074" r="4" fill="#0" id="circle101"/>
	<circle cx="471.828" cy="560.613" r="4" fill="#0" id="circle102"/>
	<circle cx="480.365" cy="21.074" r="4" fill="#0" id="circle103"/>
	<circle cx="488.902" cy="560.613" r="4" fill="#0" id="circle104"/>
	<circle cx="492.317" cy="7.4148" r="4" fill="#0" id="circle105"/>
	<circle cx="505.976" cy="560.613" r="4" fill="#0" id="circle106"/>
	<circle cx="509.391" cy="4" r="4" fill="#0" id="circle107"/>
	<circle cx="523.05" cy="560.613" r="4" fill="#0" id="circle108"/>
	<circle cx="526.465" cy="4" r="4" fill="#0" id="circle109"/>
	<circle cx="540.124" cy="560.613" r="4" fill="#0" id="circle110"/>
	<circle cx="543.539" cy="4" r="4" fill="#0" id="circle111"/>
	<circle cx="557.198" cy="560.613" r="4" fill="#0" id="circle112"/>
	<circle cx="560.613" cy="4" r="4" fill="#0" id="circle113"/>
	<circle cx="574.272" cy="557.198" r="4" fill="#0" id="circle114"/>
	<circle cx="577.687" cy="9.1222" r="4" fill="#0" id="circle115"/>
	<circle cx="584.516" cy="543.539" r="4" fill="#0" id="circle116"/>
	<circle cx="591.346" cy="21.074" r="4" fill="#0" id="circle117"/>
	<circle cx="601.59" cy="543.539" r="4" fill="#0" id="circle118"/>
	<circle cx="608.42" cy="21.074" r="4" fill="#0" id="circle119"/>
	<circle cx="618.664" cy="543.539" r="4" fill="#0" id="circle120"/>
	<circle cx="625.494" cy="21.074" r="4" fill="#0" id="circle121"/>
	<circle cx="635.738" cy="543.539" r="4" fill="#0" id="circle122"/>
	<circle cx="642.568" cy="21.074" r="4" fill="#0" id="circle123"/>
	<circle cx="652.812" cy="543.539" r="4" fill="#0" id="circle124"/>
	<circle cx="659.642" cy="21.074" r="4" fill="#0" id="circle125"/>
	<circle cx="669.886" cy="538.417" r="4" fill="#0" id="circle126"/>
	<circle cx="675.009" cy="29.611" r="4" fill="#0" id="circle127"/>
	<circle cx="686.96" cy="535.002" r="4" fill="#0" id="circle128"/>
	<circle cx="692.083" cy="29.611" r="4" fill="#0" id="circle129"/>
	<circle cx="704.034" cy="535.002" r="4" fill="#0" id="circle130"/>
	<circle cx="709.157" cy="29.611" r="4" fill="#0" id="circle131"/>
	<circle cx="721.108" cy="535.002" r="4" fill="#0" id="circle132"/>
	<circle cx="726.231" cy="29.611" r="4" fill="#0" id="circle133"/>
	<circle cx="738.182" cy="529.88" r="4" fill="#0" id="circle134"/>
	<circle cx="739.89" cy="39.8554" r="4" fill="#0" id="circle135"/>
	<circle cx="751.842" cy="517.928" r="4" fill="#0" id="circle136"/>
	<circle cx="756.964" cy="46.685" r="4" fill="#0" id="circle137"/>
	<circle cx="768.916" cy="516.22" r="4" fill="#0" id="circle138"/>
	<circle cx="772.33" cy="55.222" r="4" fill="#0" id="circle139"/>
	<circle cx="785.99" cy="509.391" r="4" fill="#0" id="circle140"/>
	<circle cx="789.404" cy="58.6368" r="4" fill="#0" id="circle141"/>
	<circle cx="799.649" cy="72.296" r="4" fill="#0" id="circle142"/>
	<circle cx="799.649" cy="492.317" r="4" fill="#0" id="circle143"/>
	<circle cx="816.723" cy="77.4182" r="4" fill="#0" id="circle144"/>
	<circle cx="816.723" cy="492.317" r="4" fill="#0" id="circle145"/>
	<circle cx="832.09" cy="85.9552" r="4" fill="#0" id="circle146"/>
	<circle cx="833.797" cy="483.78" r="4" fill="#0" id="circle147"/>
	<circle cx="845.749" cy="97.9071" r="4" fill="#0" id="circle148"/>
	<circle cx="850.871" cy="483.78" r="4" fill="#0" id="circle149"/>
	<circle cx="859.408" cy="466.706" r="4" fill="#0" id="circle150"/>
	<circle cx="861.115" cy="106.444" r="4" fill="#0" id="circle151"/>
	<circle cx="876.482" cy="466.706" r="4" fill="#0" id="circle152"/>
	<circle cx="878.189" cy="106.444" r="4" fill="#0" id="circle153"/>
	<circle cx="891.849" cy="458.169" r="4" fill="#0" id="circle154"/>
	<circle cx="893.556" cy="114.981" r="4" fill="#0" id="circle155"/>
	<circle cx="908.923" cy="453.046" r="4" fill="#0" id="circle156"/>
	<circle cx="910.63" cy="120.103" r="4" fill="#0" id="circle157"/>
	<circle cx="922.582" cy="133.762" r="4" fill="#0" id="circle158"/>
	<circle cx="922.582" cy="439.387" r="4" fill="#0" id="circle159"/>
	<circle cx="936.241" cy="145.714" r="4" fill="#0" id="circle160"/>
	<circle cx="936.241" cy="162.788" r="4" fill="#0" id="circle161"/>
	<circle cx="936.241" cy="424.021" r="4" fill="#0" id="circle162"/>
	<circle cx="951.608" cy="171.325" r="4" fill="#0" id="circle163"/>
	<circle cx="953.315" cy="398.41" r="4" fill="#0" id="circle164"/>
	<circle cx="953.315" cy="415.484" r="4" fill="#0" id="circle165"/>
	<circle cx="960.145" cy="186.692" r="4" fill="#0" id="circle166"/>
	<circle cx="961.852" cy="203.766" r="4" fill="#0" id="circle167"/>
	<circle cx="961.852" cy="381.336" r="4" fill="#0" id="circle168"/>
	<circle cx="977.219" cy="212.303" r="4" fill="#0" id="circle169"/>
	<circle cx="978.926" cy="229.377" r="4" fill="#0" id="circle170"/>
	<circle cx="978.926" cy="355.725" r="4" fill="#0" id="circle171"/>
	<circle cx="978.926" cy="372.799" r="4" fill="#0" id="circle172"/>
	<circle cx="987.463" cy="244.744" r="4" fill="#0" id="circle173"/>
	<circle cx="987.463" cy="261.818" r="4" fill="#0" id="circle174"/>
	<circle cx="987.463" cy="321.577" r="4" fill="#0" id="circle175"/>
	<circle cx="987.463" cy="338.651" r="4" fill="#0" id="circle176"/>
	<circle cx="996" cy="277.184" r="4" fill="#0" id="circle177"/>
	<circle cx="996" cy="294.258" r="4" fill="#0" id="circle178"/>
	</g>
</svg>