<?xml version="1.0" encoding="UTF-8" standalone="no"?>
<!-- Created with CurveBenchmark -->
<svg
	xmlns:dc="http://purl.org/dc/elements/1.1/"
	xmlns:cc="http://creativecommons.org/ns#"
	xmlns:rdf="http://www.w3.org/1999/02/22-rdf-syntax-ns#"
	xmlns:svg="http://www.w3.org/2000/svg"
	xmlns="http://www.w3.org/2000/svg"
	xmlns:sodipodi="http://sodipodi.sourceforge.net/DTD/sodipodi-0.dtd"
	xmlns:inkscape="http://www.inkscape.org/namespaces/inkscape"
	width="1000"
	height="1000"
	id="svg2"
	version="1.1"
	sodipodi:docname="manifold/fitconnect-textbox31.png.txt">
<defs
	id="defs4" />
<metadata
	id="metadata7">
	<rdf:RDF>
		<cc:Work
			rdf:about="">
			<dc:format>image/svg+xml</dc:format>
			<dc:type
				rdf:resource="http://purl.org/dc/dcmitype/StillImage" />
			<dc:title></dc:title>
		</cc:Work>
	</rdf:RDF>
</metadata>
<g
	inkscape:label="Layer 1"
	inkscape:groupmode="layer"
	id="layer1">
	<path style="fill:none;stroke:red;stroke-width:1px;stroke-linecap:butt;stroke-linejoin:miter;stroke-opacity:1" d="M 4,928.806 12.8414,911.123 z" id="boundary" inkscape:connector-curvature="0" />
	<path style="fill:none;stroke:red;stroke-width:1px;stroke-linecap:butt;stroke-linejoin:miter;stroke-opacity:1" d="M 4,928.806 14.6096,942.952 z" id="boundary" inkscape:connector-curvature="0" />
	<path style="fill:none;stroke:red;stroke-width:1px;stroke-linecap:butt;stroke-linejoin:miter;stroke-opacity:1" d="M 12.8414,911.123 26.9875,896.977 z" id="boundary" inkscape:connector-curvature="0" />
	<path style="fill:none;stroke:red;stroke-width:1px;stroke-linecap:butt;stroke-linejoin:miter;stroke-opacity:1" d="M 14.6096,942.952 28.7558,930.574 z" id="boundary" inkscape:connector-curvature="0" />
	<path style="fill:none;stroke:red;stroke-width:1px;stroke-linecap:butt;stroke-linejoin:miter;stroke-opacity:1" d="M 21.6827,327.594 30.5241,309.911 z" id="boundary" inkscape:connector-curvature="0" />
	<path style="fill:none;stroke:red;stroke-width:1px;stroke-linecap:butt;stroke-linejoin:miter;stroke-opacity:1" d="M 21.6827,327.594 30.5241,343.508 z" id="boundary" inkscape:connector-curvature="0" />
	<path style="fill:none;stroke:red;stroke-width:1px;stroke-linecap:butt;stroke-linejoin:miter;stroke-opacity:1" d="M 26.9875,896.977 35.8289,879.294 z" id="boundary" inkscape:connector-curvature="0" />
	<path style="fill:none;stroke:red;stroke-width:1px;stroke-linecap:butt;stroke-linejoin:miter;stroke-opacity:1" d="M 28.7558,930.574 41.1337,916.428 z" id="boundary" inkscape:connector-curvature="0" />
	<path style="fill:none;stroke:red;stroke-width:1px;stroke-linecap:butt;stroke-linejoin:miter;stroke-opacity:1" d="M 30.5241,292.228 30.5241,309.911 z" id="boundary" inkscape:connector-curvature="0" />
	<path style="fill:none;stroke:red;stroke-width:1px;stroke-linecap:butt;stroke-linejoin:miter;stroke-opacity:1" d="M 30.5241,292.228 39.3654,265.704 z" id="boundary" inkscape:connector-curvature="0" />
	<path style="fill:none;stroke:red;stroke-width:1px;stroke-linecap:butt;stroke-linejoin:miter;stroke-opacity:1" d="M 30.5241,343.508 30.5241,361.191 z" id="boundary" inkscape:connector-curvature="0" />
	<path style="fill:none;stroke:red;stroke-width:1px;stroke-linecap:butt;stroke-linejoin:miter;stroke-opacity:1" d="M 30.5241,361.191 39.3654,377.105 z" id="boundary" inkscape:connector-curvature="0" />
	<path style="fill:none;stroke:red;stroke-width:1px;stroke-linecap:butt;stroke-linejoin:miter;stroke-opacity:1" d="M 35.8289,879.294 48.2068,858.075 z" id="boundary" inkscape:connector-curvature="0" />
	<path style="fill:none;stroke:red;stroke-width:1px;stroke-linecap:butt;stroke-linejoin:miter;stroke-opacity:1" d="M 39.3654,265.704 57.0481,256.863 z" id="boundary" inkscape:connector-curvature="0" />
	<path style="fill:none;stroke:red;stroke-width:1px;stroke-linecap:butt;stroke-linejoin:miter;stroke-opacity:1" d="M 39.3654,377.105 39.3654,394.788 z" id="boundary" inkscape:connector-curvature="0" />
	<path style="fill:none;stroke:red;stroke-width:1px;stroke-linecap:butt;stroke-linejoin:miter;stroke-opacity:1" d="M 39.3654,394.788 44.6702,412.471 z" id="boundary" inkscape:connector-curvature="0" />
	<path style="fill:none;stroke:red;stroke-width:1px;stroke-linecap:butt;stroke-linejoin:miter;stroke-opacity:1" d="M 41.1337,916.428 55.2799,904.05 z" id="boundary" inkscape:connector-curvature="0" />
	<path style="fill:none;stroke:red;stroke-width:1px;stroke-linecap:butt;stroke-linejoin:miter;stroke-opacity:1" d="M 44.6702,412.471 48.2068,430.153 z" id="boundary" inkscape:connector-curvature="0" />
	<path style="fill:none;stroke:red;stroke-width:1px;stroke-linecap:butt;stroke-linejoin:miter;stroke-opacity:1" d="M 48.2068,430.153 64.1212,438.995 z" id="boundary" inkscape:connector-curvature="0" />
	<path style="fill:none;stroke:red;stroke-width:1px;stroke-linecap:butt;stroke-linejoin:miter;stroke-opacity:1" d="M 48.2068,858.075 57.0481,831.551 z" id="boundary" inkscape:connector-curvature="0" />
	<path style="fill:none;stroke:red;stroke-width:1px;stroke-linecap:butt;stroke-linejoin:miter;stroke-opacity:1" d="M 55.2799,904.05 67.6578,889.904 z" id="boundary" inkscape:connector-curvature="0" />
	<path style="fill:none;stroke:red;stroke-width:1px;stroke-linecap:butt;stroke-linejoin:miter;stroke-opacity:1" d="M 57.0481,221.497 57.0481,239.18 z" id="boundary" inkscape:connector-curvature="0" />
	<path style="fill:none;stroke:red;stroke-width:1px;stroke-linecap:butt;stroke-linejoin:miter;stroke-opacity:1" d="M 57.0481,221.497 74.7308,212.656 z" id="boundary" inkscape:connector-curvature="0" />
	<path style="fill:none;stroke:red;stroke-width:1px;stroke-linecap:butt;stroke-linejoin:miter;stroke-opacity:1" d="M 57.0481,239.18 57.0481,256.863 z" id="boundary" inkscape:connector-curvature="0" />
	<path style="fill:none;stroke:red;stroke-width:1px;stroke-linecap:butt;stroke-linejoin:miter;stroke-opacity:1" d="M 57.0481,831.551 65.8895,813.868 z" id="boundary" inkscape:connector-curvature="0" />
	<path style="fill:none;stroke:red;stroke-width:1px;stroke-linecap:butt;stroke-linejoin:miter;stroke-opacity:1" d="M 64.1212,438.995 76.4991,453.141 z" id="boundary" inkscape:connector-curvature="0" />
	<path style="fill:none;stroke:red;stroke-width:1px;stroke-linecap:butt;stroke-linejoin:miter;stroke-opacity:1" d="M 65.8895,813.868 80.0357,799.722 z" id="boundary" inkscape:connector-curvature="0" />
	<path style="fill:none;stroke:red;stroke-width:1px;stroke-linecap:butt;stroke-linejoin:miter;stroke-opacity:1" d="M 67.6578,889.904 81.8039,877.526 z" id="boundary" inkscape:connector-curvature="0" />
	<path style="fill:none;stroke:red;stroke-width:1px;stroke-linecap:butt;stroke-linejoin:miter;stroke-opacity:1" d="M 74.7308,212.656 83.5722,194.973 z" id="boundary" inkscape:connector-curvature="0" />
	<path style="fill:none;stroke:red;stroke-width:1px;stroke-linecap:butt;stroke-linejoin:miter;stroke-opacity:1" d="M 76.4991,453.141 90.6453,465.519 z" id="boundary" inkscape:connector-curvature="0" />
	<path style="fill:none;stroke:red;stroke-width:1px;stroke-linecap:butt;stroke-linejoin:miter;stroke-opacity:1" d="M 80.0357,799.722 88.877,782.039 z" id="boundary" inkscape:connector-curvature="0" />
	<path style="fill:none;stroke:red;stroke-width:1px;stroke-linecap:butt;stroke-linejoin:miter;stroke-opacity:1" d="M 81.8039,877.526 99.4866,868.684 z" id="boundary" inkscape:connector-curvature="0" />
	<path style="fill:none;stroke:red;stroke-width:1px;stroke-linecap:butt;stroke-linejoin:miter;stroke-opacity:1" d="M 83.5722,194.973 101.255,177.291 z" id="boundary" inkscape:connector-curvature="0" />
	<path style="fill:none;stroke:red;stroke-width:1px;stroke-linecap:butt;stroke-linejoin:miter;stroke-opacity:1" d="M 88.877,782.039 103.023,767.893 z" id="boundary" inkscape:connector-curvature="0" />
	<path style="fill:none;stroke:red;stroke-width:1px;stroke-linecap:butt;stroke-linejoin:miter;stroke-opacity:1" d="M 90.6453,465.519 103.023,479.665 z" id="boundary" inkscape:connector-curvature="0" />
	<path style="fill:none;stroke:red;stroke-width:1px;stroke-linecap:butt;stroke-linejoin:miter;stroke-opacity:1" d="M 99.4866,868.684 111.865,854.538 z" id="boundary" inkscape:connector-curvature="0" />
	<path style="fill:none;stroke:red;stroke-width:1px;stroke-linecap:butt;stroke-linejoin:miter;stroke-opacity:1" d="M 101.255,177.291 110.096,159.608 z" id="boundary" inkscape:connector-curvature="0" />
	<path style="fill:none;stroke:red;stroke-width:1px;stroke-linecap:butt;stroke-linejoin:miter;stroke-opacity:1" d="M 103.023,479.665 120.706,483.201 z" id="boundary" inkscape:connector-curvature="0" />
	<path style="fill:none;stroke:red;stroke-width:1px;stroke-linecap:butt;stroke-linejoin:miter;stroke-opacity:1" d="M 103.023,767.893 110.096,743.137 z" id="boundary" inkscape:connector-curvature="0" />
	<path style="fill:none;stroke:red;stroke-width:1px;stroke-linecap:butt;stroke-linejoin:miter;stroke-opacity:1" d="M 110.096,159.608 127.779,150.766 z" id="boundary" inkscape:connector-curvature="0" />
	<path style="fill:none;stroke:red;stroke-width:1px;stroke-linecap:butt;stroke-linejoin:miter;stroke-opacity:1" d="M 110.096,743.137 118.938,716.613 z" id="boundary" inkscape:connector-curvature="0" />
	<path style="fill:none;stroke:red;stroke-width:1px;stroke-linecap:butt;stroke-linejoin:miter;stroke-opacity:1" d="M 111.865,854.538 120.706,836.856 z" id="boundary" inkscape:connector-curvature="0" />
	<path style="fill:none;stroke:red;stroke-width:1px;stroke-linecap:butt;stroke-linejoin:miter;stroke-opacity:1" d="M 118.938,716.613 127.779,690.089 z" id="boundary" inkscape:connector-curvature="0" />
	<path style="fill:none;stroke:red;stroke-width:1px;stroke-linecap:butt;stroke-linejoin:miter;stroke-opacity:1" d="M 120.706,483.201 136.62,492.043 z" id="boundary" inkscape:connector-curvature="0" />
	<path style="fill:none;stroke:red;stroke-width:1px;stroke-linecap:butt;stroke-linejoin:miter;stroke-opacity:1" d="M 120.706,836.856 134.852,824.478 z" id="boundary" inkscape:connector-curvature="0" />
	<path style="fill:none;stroke:red;stroke-width:1px;stroke-linecap:butt;stroke-linejoin:miter;stroke-opacity:1" d="M 127.779,150.766 145.462,145.462 z" id="boundary" inkscape:connector-curvature="0" />
	<path style="fill:none;stroke:red;stroke-width:1px;stroke-linecap:butt;stroke-linejoin:miter;stroke-opacity:1" d="M 127.779,690.089 145.462,681.248 z" id="boundary" inkscape:connector-curvature="0" />
	<path style="fill:none;stroke:red;stroke-width:1px;stroke-linecap:butt;stroke-linejoin:miter;stroke-opacity:1" d="M 134.852,824.478 143.693,806.795 z" id="boundary" inkscape:connector-curvature="0" />
	<path style="fill:none;stroke:red;stroke-width:1px;stroke-linecap:butt;stroke-linejoin:miter;stroke-opacity:1" d="M 136.62,492.043 141.925,509.725 z" id="boundary" inkscape:connector-curvature="0" />
	<path style="fill:none;stroke:red;stroke-width:1px;stroke-linecap:butt;stroke-linejoin:miter;stroke-opacity:1" d="M 141.925,509.725 159.608,509.725 z" id="boundary" inkscape:connector-curvature="0" />
	<path style="fill:none;stroke:red;stroke-width:1px;stroke-linecap:butt;stroke-linejoin:miter;stroke-opacity:1" d="M 143.693,806.795 161.376,797.954 z" id="boundary" inkscape:connector-curvature="0" />
	<path style="fill:none;stroke:red;stroke-width:1px;stroke-linecap:butt;stroke-linejoin:miter;stroke-opacity:1" d="M 145.462,145.462 161.376,136.62 z" id="boundary" inkscape:connector-curvature="0" />
	<path style="fill:none;stroke:red;stroke-width:1px;stroke-linecap:butt;stroke-linejoin:miter;stroke-opacity:1" d="M 145.462,663.565 145.462,681.248 z" id="boundary" inkscape:connector-curvature="0" />
	<path style="fill:none;stroke:red;stroke-width:1px;stroke-linecap:butt;stroke-linejoin:miter;stroke-opacity:1" d="M 145.462,663.565 159.608,649.419 z" id="boundary" inkscape:connector-curvature="0" />
	<path style="fill:none;stroke:red;stroke-width:1px;stroke-linecap:butt;stroke-linejoin:miter;stroke-opacity:1" d="M 159.608,509.725 175.522,518.567 z" id="boundary" inkscape:connector-curvature="0" />
	<path style="fill:none;stroke:red;stroke-width:1px;stroke-linecap:butt;stroke-linejoin:miter;stroke-opacity:1" d="M 159.608,649.419 163.144,628.2 z" id="boundary" inkscape:connector-curvature="0" />
	<path style="fill:none;stroke:red;stroke-width:1px;stroke-linecap:butt;stroke-linejoin:miter;stroke-opacity:1" d="M 161.376,136.62 173.754,122.474 z" id="boundary" inkscape:connector-curvature="0" />
	<path style="fill:none;stroke:red;stroke-width:1px;stroke-linecap:butt;stroke-linejoin:miter;stroke-opacity:1" d="M 161.376,797.954 179.059,789.112 z" id="boundary" inkscape:connector-curvature="0" />
	<path style="fill:none;stroke:red;stroke-width:1px;stroke-linecap:butt;stroke-linejoin:miter;stroke-opacity:1" d="M 163.144,628.2 177.291,614.053 z" id="boundary" inkscape:connector-curvature="0" />
	<path style="fill:none;stroke:red;stroke-width:1px;stroke-linecap:butt;stroke-linejoin:miter;stroke-opacity:1" d="M 173.754,122.474 191.437,113.633 z" id="boundary" inkscape:connector-curvature="0" />
	<path style="fill:none;stroke:red;stroke-width:1px;stroke-linecap:butt;stroke-linejoin:miter;stroke-opacity:1" d="M 175.522,518.567 193.205,523.872 z" id="boundary" inkscape:connector-curvature="0" />
	<path style="fill:none;stroke:red;stroke-width:1px;stroke-linecap:butt;stroke-linejoin:miter;stroke-opacity:1" d="M 177.291,614.053 189.668,592.834 z" id="boundary" inkscape:connector-curvature="0" />
	<path style="fill:none;stroke:red;stroke-width:1px;stroke-linecap:butt;stroke-linejoin:miter;stroke-opacity:1" d="M 179.059,789.112 191.437,766.125 z" id="boundary" inkscape:connector-curvature="0" />
	<path style="fill:none;stroke:red;stroke-width:1px;stroke-linecap:butt;stroke-linejoin:miter;stroke-opacity:1" d="M 189.668,592.834 198.51,575.152 z" id="boundary" inkscape:connector-curvature="0" />
	<path style="fill:none;stroke:red;stroke-width:1px;stroke-linecap:butt;stroke-linejoin:miter;stroke-opacity:1" d="M 191.437,113.633 205.583,101.255 z" id="boundary" inkscape:connector-curvature="0" />
	<path style="fill:none;stroke:red;stroke-width:1px;stroke-linecap:butt;stroke-linejoin:miter;stroke-opacity:1" d="M 191.437,766.125 209.119,757.283 z" id="boundary" inkscape:connector-curvature="0" />
	<path style="fill:none;stroke:red;stroke-width:1px;stroke-linecap:butt;stroke-linejoin:miter;stroke-opacity:1" d="M 193.205,523.872 207.351,536.25 z" id="boundary" inkscape:connector-curvature="0" />
	<path style="fill:none;stroke:red;stroke-width:1px;stroke-linecap:butt;stroke-linejoin:miter;stroke-opacity:1" d="M 198.51,575.152 212.656,561.005 z" id="boundary" inkscape:connector-curvature="0" />
	<path style="fill:none;stroke:red;stroke-width:1px;stroke-linecap:butt;stroke-linejoin:miter;stroke-opacity:1" d="M 205.583,101.255 217.961,87.1087 z" id="boundary" inkscape:connector-curvature="0" />
	<path style="fill:none;stroke:red;stroke-width:1px;stroke-linecap:butt;stroke-linejoin:miter;stroke-opacity:1" d="M 207.351,536.25 212.656,561.005 z" id="boundary" inkscape:connector-curvature="0" />
	<path style="fill:none;stroke:red;stroke-width:1px;stroke-linecap:butt;stroke-linejoin:miter;stroke-opacity:1" d="M 209.119,757.283 226.802,748.442 z" id="boundary" inkscape:connector-curvature="0" />
	<path style="fill:none;stroke:red;stroke-width:1px;stroke-linecap:butt;stroke-linejoin:miter;stroke-opacity:1" d="M 217.961,87.1087 235.643,83.5722 z" id="boundary" inkscape:connector-curvature="0" />
	<path style="fill:none;stroke:red;stroke-width:1px;stroke-linecap:butt;stroke-linejoin:miter;stroke-opacity:1" d="M 226.802,748.442 235.643,730.759 z" id="boundary" inkscape:connector-curvature="0" />
	<path style="fill:none;stroke:red;stroke-width:1px;stroke-linecap:butt;stroke-linejoin:miter;stroke-opacity:1" d="M 235.643,83.5722 253.326,83.5722 z" id="boundary" inkscape:connector-curvature="0" />
	<path style="fill:none;stroke:red;stroke-width:1px;stroke-linecap:butt;stroke-linejoin:miter;stroke-opacity:1" d="M 235.643,730.759 244.485,713.077 z" id="boundary" inkscape:connector-curvature="0" />
	<path style="fill:none;stroke:red;stroke-width:1px;stroke-linecap:butt;stroke-linejoin:miter;stroke-opacity:1" d="M 244.485,713.077 260.399,704.235 z" id="boundary" inkscape:connector-curvature="0" />
	<path style="fill:none;stroke:red;stroke-width:1px;stroke-linecap:butt;stroke-linejoin:miter;stroke-opacity:1" d="M 253.326,83.5722 269.241,74.7308 z" id="boundary" inkscape:connector-curvature="0" />
	<path style="fill:none;stroke:red;stroke-width:1px;stroke-linecap:butt;stroke-linejoin:miter;stroke-opacity:1" d="M 260.399,704.235 276.314,695.394 z" id="boundary" inkscape:connector-curvature="0" />
	<path style="fill:none;stroke:red;stroke-width:1px;stroke-linecap:butt;stroke-linejoin:miter;stroke-opacity:1" d="M 269.241,74.7308 286.923,62.3529 z" id="boundary" inkscape:connector-curvature="0" />
	<path style="fill:none;stroke:red;stroke-width:1px;stroke-linecap:butt;stroke-linejoin:miter;stroke-opacity:1" d="M 276.314,695.394 288.692,677.711 z" id="boundary" inkscape:connector-curvature="0" />
	<path style="fill:none;stroke:red;stroke-width:1px;stroke-linecap:butt;stroke-linejoin:miter;stroke-opacity:1" d="M 286.923,62.3529 301.07,48.2068 z" id="boundary" inkscape:connector-curvature="0" />
	<path style="fill:none;stroke:red;stroke-width:1px;stroke-linecap:butt;stroke-linejoin:miter;stroke-opacity:1" d="M 288.692,677.711 304.606,668.87 z" id="boundary" inkscape:connector-curvature="0" />
	<path style="fill:none;stroke:red;stroke-width:1px;stroke-linecap:butt;stroke-linejoin:miter;stroke-opacity:1" d="M 301.07,48.2068 318.752,48.2068 z" id="boundary" inkscape:connector-curvature="0" />
	<path style="fill:none;stroke:red;stroke-width:1px;stroke-linecap:butt;stroke-linejoin:miter;stroke-opacity:1" d="M 304.606,668.87 315.216,651.187 z" id="boundary" inkscape:connector-curvature="0" />
	<path style="fill:none;stroke:red;stroke-width:1px;stroke-linecap:butt;stroke-linejoin:miter;stroke-opacity:1" d="M 315.216,651.187 332.898,642.346 z" id="boundary" inkscape:connector-curvature="0" />
	<path style="fill:none;stroke:red;stroke-width:1px;stroke-linecap:butt;stroke-linejoin:miter;stroke-opacity:1" d="M 318.752,48.2068 336.435,48.2068 z" id="boundary" inkscape:connector-curvature="0" />
	<path style="fill:none;stroke:red;stroke-width:1px;stroke-linecap:butt;stroke-linejoin:miter;stroke-opacity:1" d="M 332.898,642.346 347.045,629.968 z" id="boundary" inkscape:connector-curvature="0" />
	<path style="fill:none;stroke:red;stroke-width:1px;stroke-linecap:butt;stroke-linejoin:miter;stroke-opacity:1" d="M 336.435,48.2068 354.118,39.3654 z" id="boundary" inkscape:connector-curvature="0" />
	<path style="fill:none;stroke:red;stroke-width:1px;stroke-linecap:butt;stroke-linejoin:miter;stroke-opacity:1" d="M 347.045,629.968 355.886,612.285 z" id="boundary" inkscape:connector-curvature="0" />
	<path style="fill:none;stroke:red;stroke-width:1px;stroke-linecap:butt;stroke-linejoin:miter;stroke-opacity:1" d="M 354.118,39.3654 371.8,39.3654 z" id="boundary" inkscape:connector-curvature="0" />
	<path style="fill:none;stroke:red;stroke-width:1px;stroke-linecap:butt;stroke-linejoin:miter;stroke-opacity:1" d="M 355.886,612.285 373.569,603.444 z" id="boundary" inkscape:connector-curvature="0" />
	<path style="fill:none;stroke:red;stroke-width:1px;stroke-linecap:butt;stroke-linejoin:miter;stroke-opacity:1" d="M 371.8,39.3654 389.483,39.3654 z" id="boundary" inkscape:connector-curvature="0" />
	<path style="fill:none;stroke:red;stroke-width:1px;stroke-linecap:butt;stroke-linejoin:miter;stroke-opacity:1" d="M 373.569,603.444 391.251,594.602 z" id="boundary" inkscape:connector-curvature="0" />
	<path style="fill:none;stroke:red;stroke-width:1px;stroke-linecap:butt;stroke-linejoin:miter;stroke-opacity:1" d="M 389.483,39.3654 405.398,30.5241 z" id="boundary" inkscape:connector-curvature="0" />
	<path style="fill:none;stroke:red;stroke-width:1px;stroke-linecap:butt;stroke-linejoin:miter;stroke-opacity:1" d="M 391.251,594.602 401.861,580.456 z" id="boundary" inkscape:connector-curvature="0" />
	<path style="fill:none;stroke:red;stroke-width:1px;stroke-linecap:butt;stroke-linejoin:miter;stroke-opacity:1" d="M 401.861,580.456 419.544,580.456 z" id="boundary" inkscape:connector-curvature="0" />
	<path style="fill:none;stroke:red;stroke-width:1px;stroke-linecap:butt;stroke-linejoin:miter;stroke-opacity:1" d="M 405.398,30.5241 423.08,30.5241 z" id="boundary" inkscape:connector-curvature="0" />
	<path style="fill:none;stroke:red;stroke-width:1px;stroke-linecap:butt;stroke-linejoin:miter;stroke-opacity:1" d="M 419.544,580.456 435.458,589.298 z" id="boundary" inkscape:connector-curvature="0" />
	<path style="fill:none;stroke:red;stroke-width:1px;stroke-linecap:butt;stroke-linejoin:miter;stroke-opacity:1" d="M 423.08,30.5241 440.763,30.5241 z" id="boundary" inkscape:connector-curvature="0" />
	<path style="fill:none;stroke:red;stroke-width:1px;stroke-linecap:butt;stroke-linejoin:miter;stroke-opacity:1" d="M 435.458,589.298 453.141,589.298 z" id="boundary" inkscape:connector-curvature="0" />
	<path style="fill:none;stroke:red;stroke-width:1px;stroke-linecap:butt;stroke-linejoin:miter;stroke-opacity:1" d="M 440.763,30.5241 454.909,18.1462 z" id="boundary" inkscape:connector-curvature="0" />
	<path style="fill:none;stroke:red;stroke-width:1px;stroke-linecap:butt;stroke-linejoin:miter;stroke-opacity:1" d="M 453.141,589.298 470.824,589.298 z" id="boundary" inkscape:connector-curvature="0" />
	<path style="fill:none;stroke:red;stroke-width:1px;stroke-linecap:butt;stroke-linejoin:miter;stroke-opacity:1" d="M 454.909,18.1462 472.592,12.8414 z" id="boundary" inkscape:connector-curvature="0" />
	<path style="fill:none;stroke:red;stroke-width:1px;stroke-linecap:butt;stroke-linejoin:miter;stroke-opacity:1" d="M 470.824,589.298 488.506,589.298 z" id="boundary" inkscape:connector-curvature="0" />
	<path style="fill:none;stroke:red;stroke-width:1px;stroke-linecap:butt;stroke-linejoin:miter;stroke-opacity:1" d="M 472.592,12.8414 490.275,12.8414 z" id="boundary" inkscape:connector-curvature="0" />
	<path style="fill:none;stroke:red;stroke-width:1px;stroke-linecap:butt;stroke-linejoin:miter;stroke-opacity:1" d="M 488.506,589.298 506.189,589.298 z" id="boundary" inkscape:connector-curvature="0" />
	<path style="fill:none;stroke:red;stroke-width:1px;stroke-linecap:butt;stroke-linejoin:miter;stroke-opacity:1" d="M 490.275,12.8414 506.189,4 z" id="boundary" inkscape:connector-curvature="0" />
	<path style="fill:none;stroke:red;stroke-width:1px;stroke-linecap:butt;stroke-linejoin:miter;stroke-opacity:1" d="M 506.189,4 523.872,4 z" id="boundary" inkscape:connector-curvature="0" />
	<path style="fill:none;stroke:red;stroke-width:1px;stroke-linecap:butt;stroke-linejoin:miter;stroke-opacity:1" d="M 506.189,589.298 523.872,585.761 z" id="boundary" inkscape:connector-curvature="0" />
	<path style="fill:none;stroke:red;stroke-width:1px;stroke-linecap:butt;stroke-linejoin:miter;stroke-opacity:1" d="M 523.872,4 541.554,5.76827 z" id="boundary" inkscape:connector-curvature="0" />
	<path style="fill:none;stroke:red;stroke-width:1px;stroke-linecap:butt;stroke-linejoin:miter;stroke-opacity:1" d="M 523.872,585.761 541.554,580.456 z" id="boundary" inkscape:connector-curvature="0" />
	<path style="fill:none;stroke:red;stroke-width:1px;stroke-linecap:butt;stroke-linejoin:miter;stroke-opacity:1" d="M 541.554,5.76827 550.396,21.6827 z" id="boundary" inkscape:connector-curvature="0" />
	<path style="fill:none;stroke:red;stroke-width:1px;stroke-linecap:butt;stroke-linejoin:miter;stroke-opacity:1" d="M 541.554,580.456 559.237,580.456 z" id="boundary" inkscape:connector-curvature="0" />
	<path style="fill:none;stroke:red;stroke-width:1px;stroke-linecap:butt;stroke-linejoin:miter;stroke-opacity:1" d="M 550.396,21.6827 568.078,21.6827 z" id="boundary" inkscape:connector-curvature="0" />
	<path style="fill:none;stroke:red;stroke-width:1px;stroke-linecap:butt;stroke-linejoin:miter;stroke-opacity:1" d="M 559.237,580.456 576.92,580.456 z" id="boundary" inkscape:connector-curvature="0" />
	<path style="fill:none;stroke:red;stroke-width:1px;stroke-linecap:butt;stroke-linejoin:miter;stroke-opacity:1" d="M 568.078,21.6827 585.761,21.6827 z" id="boundary" inkscape:connector-curvature="0" />
	<path style="fill:none;stroke:red;stroke-width:1px;stroke-linecap:butt;stroke-linejoin:miter;stroke-opacity:1" d="M 576.92,580.456 589.298,562.774 z" id="boundary" inkscape:connector-curvature="0" />
	<path style="fill:none;stroke:red;stroke-width:1px;stroke-linecap:butt;stroke-linejoin:miter;stroke-opacity:1" d="M 585.761,21.6827 601.676,12.8414 z" id="boundary" inkscape:connector-curvature="0" />
	<path style="fill:none;stroke:red;stroke-width:1px;stroke-linecap:butt;stroke-linejoin:miter;stroke-opacity:1" d="M 589.298,562.774 606.98,562.774 z" id="boundary" inkscape:connector-curvature="0" />
	<path style="fill:none;stroke:red;stroke-width:1px;stroke-linecap:butt;stroke-linejoin:miter;stroke-opacity:1" d="M 601.676,12.8414 619.358,12.8414 z" id="boundary" inkscape:connector-curvature="0" />
	<path style="fill:none;stroke:red;stroke-width:1px;stroke-linecap:butt;stroke-linejoin:miter;stroke-opacity:1" d="M 606.98,562.774 624.663,562.774 z" id="boundary" inkscape:connector-curvature="0" />
	<path style="fill:none;stroke:red;stroke-width:1px;stroke-linecap:butt;stroke-linejoin:miter;stroke-opacity:1" d="M 619.358,12.8414 637.041,12.8414 z" id="boundary" inkscape:connector-curvature="0" />
	<path style="fill:none;stroke:red;stroke-width:1px;stroke-linecap:butt;stroke-linejoin:miter;stroke-opacity:1" d="M 624.663,562.774 640.578,553.932 z" id="boundary" inkscape:connector-curvature="0" />
	<path style="fill:none;stroke:red;stroke-width:1px;stroke-linecap:butt;stroke-linejoin:miter;stroke-opacity:1" d="M 637.041,12.8414 652.955,21.6827 z" id="boundary" inkscape:connector-curvature="0" />
	<path style="fill:none;stroke:red;stroke-width:1px;stroke-linecap:butt;stroke-linejoin:miter;stroke-opacity:1" d="M 640.578,553.932 658.26,553.932 z" id="boundary" inkscape:connector-curvature="0" />
	<path style="fill:none;stroke:red;stroke-width:1px;stroke-linecap:butt;stroke-linejoin:miter;stroke-opacity:1" d="M 652.955,21.6827 670.638,21.6827 z" id="boundary" inkscape:connector-curvature="0" />
	<path style="fill:none;stroke:red;stroke-width:1px;stroke-linecap:butt;stroke-linejoin:miter;stroke-opacity:1" d="M 658.26,553.932 675.943,553.932 z" id="boundary" inkscape:connector-curvature="0" />
	<path style="fill:none;stroke:red;stroke-width:1px;stroke-linecap:butt;stroke-linejoin:miter;stroke-opacity:1" d="M 670.638,21.6827 688.321,21.6827 z" id="boundary" inkscape:connector-curvature="0" />
	<path style="fill:none;stroke:red;stroke-width:1px;stroke-linecap:butt;stroke-linejoin:miter;stroke-opacity:1" d="M 675.943,553.932 691.857,545.091 z" id="boundary" inkscape:connector-curvature="0" />
	<path style="fill:none;stroke:red;stroke-width:1px;stroke-linecap:butt;stroke-linejoin:miter;stroke-opacity:1" d="M 688.321,21.6827 706.004,21.6827 z" id="boundary" inkscape:connector-curvature="0" />
	<path style="fill:none;stroke:red;stroke-width:1px;stroke-linecap:butt;stroke-linejoin:miter;stroke-opacity:1" d="M 691.857,545.091 709.54,545.091 z" id="boundary" inkscape:connector-curvature="0" />
	<path style="fill:none;stroke:red;stroke-width:1px;stroke-linecap:butt;stroke-linejoin:miter;stroke-opacity:1" d="M 706.004,21.6827 721.918,30.5241 z" id="boundary" inkscape:connector-curvature="0" />
	<path style="fill:none;stroke:red;stroke-width:1px;stroke-linecap:butt;stroke-linejoin:miter;stroke-opacity:1" d="M 709.54,545.091 727.223,541.554 z" id="boundary" inkscape:connector-curvature="0" />
	<path style="fill:none;stroke:red;stroke-width:1px;stroke-linecap:butt;stroke-linejoin:miter;stroke-opacity:1" d="M 721.918,30.5241 739.601,35.8289 z" id="boundary" inkscape:connector-curvature="0" />
	<path style="fill:none;stroke:red;stroke-width:1px;stroke-linecap:butt;stroke-linejoin:miter;stroke-opacity:1" d="M 727.223,541.554 744.906,536.25 z" id="boundary" inkscape:connector-curvature="0" />
	<path style="fill:none;stroke:red;stroke-width:1px;stroke-linecap:butt;stroke-linejoin:miter;stroke-opacity:1" d="M 739.601,35.8289 757.283,39.3654 z" id="boundary" inkscape:connector-curvature="0" />
	<path style="fill:none;stroke:red;stroke-width:1px;stroke-linecap:butt;stroke-linejoin:miter;stroke-opacity:1" d="M 744.906,536.25 757.283,518.567 z" id="boundary" inkscape:connector-curvature="0" />
	<path style="fill:none;stroke:red;stroke-width:1px;stroke-linecap:butt;stroke-linejoin:miter;stroke-opacity:1" d="M 757.283,39.3654 766.125,55.2799 z" id="boundary" inkscape:connector-curvature="0" />
	<path style="fill:none;stroke:red;stroke-width:1px;stroke-linecap:butt;stroke-linejoin:miter;stroke-opacity:1" d="M 757.283,518.567 774.966,518.567 z" id="boundary" inkscape:connector-curvature="0" />
	<path style="fill:none;stroke:red;stroke-width:1px;stroke-linecap:butt;stroke-linejoin:miter;stroke-opacity:1" d="M 766.125,55.2799 783.807,57.0481 z" id="boundary" inkscape:connector-curvature="0" />
	<path style="fill:none;stroke:red;stroke-width:1px;stroke-linecap:butt;stroke-linejoin:miter;stroke-opacity:1" d="M 774.966,518.567 792.649,509.725 z" id="boundary" inkscape:connector-curvature="0" />
	<path style="fill:none;stroke:red;stroke-width:1px;stroke-linecap:butt;stroke-linejoin:miter;stroke-opacity:1" d="M 783.807,57.0481 801.49,57.0481 z" id="boundary" inkscape:connector-curvature="0" />
	<path style="fill:none;stroke:red;stroke-width:1px;stroke-linecap:butt;stroke-linejoin:miter;stroke-opacity:1" d="M 792.649,509.725 810.332,492.043 z" id="boundary" inkscape:connector-curvature="0" />
	<path style="fill:none;stroke:red;stroke-width:1px;stroke-linecap:butt;stroke-linejoin:miter;stroke-opacity:1" d="M 801.49,57.0481 810.332,72.9626 z" id="boundary" inkscape:connector-curvature="0" />
	<path style="fill:none;stroke:red;stroke-width:1px;stroke-linecap:butt;stroke-linejoin:miter;stroke-opacity:1" d="M 810.332,72.9626 828.014,74.7308 z" id="boundary" inkscape:connector-curvature="0" />
	<path style="fill:none;stroke:red;stroke-width:1px;stroke-linecap:butt;stroke-linejoin:miter;stroke-opacity:1" d="M 810.332,492.043 828.014,483.201 z" id="boundary" inkscape:connector-curvature="0" />
	<path style="fill:none;stroke:red;stroke-width:1px;stroke-linecap:butt;stroke-linejoin:miter;stroke-opacity:1" d="M 828.014,74.7308 843.929,83.5722 z" id="boundary" inkscape:connector-curvature="0" />
	<path style="fill:none;stroke:red;stroke-width:1px;stroke-linecap:butt;stroke-linejoin:miter;stroke-opacity:1" d="M 828.014,483.201 845.697,483.201 z" id="boundary" inkscape:connector-curvature="0" />
	<path style="fill:none;stroke:red;stroke-width:1px;stroke-linecap:butt;stroke-linejoin:miter;stroke-opacity:1" d="M 843.929,83.5722 861.611,83.5722 z" id="boundary" inkscape:connector-curvature="0" />
	<path style="fill:none;stroke:red;stroke-width:1px;stroke-linecap:butt;stroke-linejoin:miter;stroke-opacity:1" d="M 845.697,483.201 861.611,474.36 z" id="boundary" inkscape:connector-curvature="0" />
	<path style="fill:none;stroke:red;stroke-width:1px;stroke-linecap:butt;stroke-linejoin:miter;stroke-opacity:1" d="M 861.611,83.5722 877.526,92.4135 z" id="boundary" inkscape:connector-curvature="0" />
	<path style="fill:none;stroke:red;stroke-width:1px;stroke-linecap:butt;stroke-linejoin:miter;stroke-opacity:1" d="M 861.611,474.36 872.221,456.677 z" id="boundary" inkscape:connector-curvature="0" />
	<path style="fill:none;stroke:red;stroke-width:1px;stroke-linecap:butt;stroke-linejoin:miter;stroke-opacity:1" d="M 872.221,456.677 889.904,456.677 z" id="boundary" inkscape:connector-curvature="0" />
	<path style="fill:none;stroke:red;stroke-width:1px;stroke-linecap:butt;stroke-linejoin:miter;stroke-opacity:1" d="M 877.526,92.4135 895.209,94.1818 z" id="boundary" inkscape:connector-curvature="0" />
	<path style="fill:none;stroke:red;stroke-width:1px;stroke-linecap:butt;stroke-linejoin:miter;stroke-opacity:1" d="M 889.904,456.677 905.818,447.836 z" id="boundary" inkscape:connector-curvature="0" />
	<path style="fill:none;stroke:red;stroke-width:1px;stroke-linecap:butt;stroke-linejoin:miter;stroke-opacity:1" d="M 895.209,94.1818 904.05,110.096 z" id="boundary" inkscape:connector-curvature="0" />
	<path style="fill:none;stroke:red;stroke-width:1px;stroke-linecap:butt;stroke-linejoin:miter;stroke-opacity:1" d="M 904.05,110.096 921.733,111.865 z" id="boundary" inkscape:connector-curvature="0" />
	<path style="fill:none;stroke:red;stroke-width:1px;stroke-linecap:butt;stroke-linejoin:miter;stroke-opacity:1" d="M 905.818,447.836 916.428,430.153 z" id="boundary" inkscape:connector-curvature="0" />
	<path style="fill:none;stroke:red;stroke-width:1px;stroke-linecap:butt;stroke-linejoin:miter;stroke-opacity:1" d="M 916.428,430.153 932.342,421.312 z" id="boundary" inkscape:connector-curvature="0" />
	<path style="fill:none;stroke:red;stroke-width:1px;stroke-linecap:butt;stroke-linejoin:miter;stroke-opacity:1" d="M 921.733,111.865 925.269,129.547 z" id="boundary" inkscape:connector-curvature="0" />
	<path style="fill:none;stroke:red;stroke-width:1px;stroke-linecap:butt;stroke-linejoin:miter;stroke-opacity:1" d="M 925.269,129.547 939.415,140.157 z" id="boundary" inkscape:connector-curvature="0" />
	<path style="fill:none;stroke:red;stroke-width:1px;stroke-linecap:butt;stroke-linejoin:miter;stroke-opacity:1" d="M 932.342,421.312 946.488,410.702 z" id="boundary" inkscape:connector-curvature="0" />
	<path style="fill:none;stroke:red;stroke-width:1px;stroke-linecap:butt;stroke-linejoin:miter;stroke-opacity:1" d="M 939.415,140.157 948.257,156.071 z" id="boundary" inkscape:connector-curvature="0" />
	<path style="fill:none;stroke:red;stroke-width:1px;stroke-linecap:butt;stroke-linejoin:miter;stroke-opacity:1" d="M 946.488,410.702 964.171,401.861 z" id="boundary" inkscape:connector-curvature="0" />
	<path style="fill:none;stroke:red;stroke-width:1px;stroke-linecap:butt;stroke-linejoin:miter;stroke-opacity:1" d="M 948.257,156.071 951.793,173.754 z" id="boundary" inkscape:connector-curvature="0" />
	<path style="fill:none;stroke:red;stroke-width:1px;stroke-linecap:butt;stroke-linejoin:miter;stroke-opacity:1" d="M 951.793,173.754 969.476,180.827 z" id="boundary" inkscape:connector-curvature="0" />
	<path style="fill:none;stroke:red;stroke-width:1px;stroke-linecap:butt;stroke-linejoin:miter;stroke-opacity:1" d="M 960.635,377.105 964.171,401.861 z" id="boundary" inkscape:connector-curvature="0" />
	<path style="fill:none;stroke:red;stroke-width:1px;stroke-linecap:butt;stroke-linejoin:miter;stroke-opacity:1" d="M 960.635,377.105 969.476,359.422 z" id="boundary" inkscape:connector-curvature="0" />
	<path style="fill:none;stroke:red;stroke-width:1px;stroke-linecap:butt;stroke-linejoin:miter;stroke-opacity:1" d="M 969.476,180.827 978.317,196.742 z" id="boundary" inkscape:connector-curvature="0" />
	<path style="fill:none;stroke:red;stroke-width:1px;stroke-linecap:butt;stroke-linejoin:miter;stroke-opacity:1" d="M 969.476,359.422 987.159,350.581 z" id="boundary" inkscape:connector-curvature="0" />
	<path style="fill:none;stroke:red;stroke-width:1px;stroke-linecap:butt;stroke-linejoin:miter;stroke-opacity:1" d="M 978.317,196.742 987.159,212.656 z" id="boundary" inkscape:connector-curvature="0" />
	<path style="fill:none;stroke:red;stroke-width:1px;stroke-linecap:butt;stroke-linejoin:miter;stroke-opacity:1" d="M 987.159,212.656 987.159,230.339 z" id="boundary" inkscape:connector-curvature="0" />
	<path style="fill:none;stroke:red;stroke-width:1px;stroke-linecap:butt;stroke-linejoin:miter;stroke-opacity:1" d="M 987.159,230.339 994.232,248.021 z" id="boundary" inkscape:connector-curvature="0" />
	<path style="fill:none;stroke:red;stroke-width:1px;stroke-linecap:butt;stroke-linejoin:miter;stroke-opacity:1" d="M 987.159,332.898 987.159,350.581 z" id="boundary" inkscape:connector-curvature="0" />
	<path style="fill:none;stroke:red;stroke-width:1px;stroke-linecap:butt;stroke-linejoin:miter;stroke-opacity:1" d="M 987.159,332.898 996,301.07 z" id="boundary" inkscape:connector-curvature="0" />
	<path style="fill:none;stroke:red;stroke-width:1px;stroke-linecap:butt;stroke-linejoin:miter;stroke-opacity:1" d="M 994.232,248.021 996,265.704 z" id="boundary" inkscape:connector-curvature="0" />
	<path style="fill:none;stroke:red;stroke-width:1px;stroke-linecap:butt;stroke-linejoin:miter;stroke-opacity:1" d="M 996,265.704 996,283.387 z" id="boundary" inkscape:connector-curvature="0" />
	<path style="fill:none;stroke:red;stroke-width:1px;stroke-linecap:butt;stroke-linejoin:miter;stroke-opacity:1" d="M 996,283.387 996,301.07 z" id="boundary" inkscape:connector-curvature="0" />
	<circle cx="4" cy="928.806" r="4" fill="#0" id="circle0"/>
	<circle cx="12.8414" cy="911.123" r="4" fill="#0" id="circle1"/>
	<circle cx="14.6096" cy="942.952" r="4" fill="#0" id="circle2"/>
	<circle cx="21.6827" cy="327.594" r="4" fill="#0" id="circle3"/>
	<circle cx="26.9875" cy="896.977" r="4" fill="#0" id="circle4"/>
	<circle cx="28.7558" cy="930.574" r="4" fill="#0" id="circle5"/>
	<circle cx="30.5241" cy="292.228" r="4" fill="#0" id="circle6"/>
	<circle cx="30.5241" cy="309.911" r="4" fill="#0" id="circle7"/>
	<circle cx="30.5241" cy="343.508" r="4" fill="#0" id="circle8"/>
	<circle cx="30.5241" cy="361.191" r="4" fill="#0" id="circle9"/>
	<circle cx="35.8289" cy="879.294" r="4" fill="#0" id="circle10"/>
	<circle cx="39.3654" cy="265.704" r="4" fill="#0" id="circle11"/>
	<circle cx="39.3654" cy="377.105" r="4" fill="#0" id="circle12"/>
	<circle cx="39.3654" cy="394.788" r="4" fill="#0" id="circle13"/>
	<circle cx="41.1337" cy="916.428" r="4" fill="#0" id="circle14"/>
	<circle cx="44.6702" cy="412.471" r="4" fill="#0" id="circle15"/>
	<circle cx="48.2068" cy="430.153" r="4" fill="#0" id="circle16"/>
	<circle cx="48.2068" cy="858.075" r="4" fill="#0" id="circle17"/>
	<circle cx="55.2799" cy="904.05" r="4" fill="#0" id="circle18"/>
	<circle cx="57.0481" cy="221.497" r="4" fill="#0" id="circle19"/>
	<circle cx="57.0481" cy="239.18" r="4" fill="#0" id="circle20"/>
	<circle cx="57.0481" cy="256.863" r="4" fill="#0" id="circle21"/>
	<circle cx="57.0481" cy="831.551" r="4" fill="#0" id="circle22"/>
	<circle cx="64.1212" cy="438.995" r="4" fill="#0" id="circle23"/>
	<circle cx="65.8895" cy="813.868" r="4" fill="#0" id="circle24"/>
	<circle cx="67.6578" cy="889.904" r="4" fill="#0" id="circle25"/>
	<circle cx="74.7308" cy="212.656" r="4" fill="#0" id="circle26"/>
	<circle cx="76.4991" cy="453.141" r="4" fill="#0" id="circle27"/>
	<circle cx="80.0357" cy="799.722" r="4" fill="#0" id="circle28"/>
	<circle cx="81.8039" cy="877.526" r="4" fill="#0" id="circle29"/>
	<circle cx="83.5722" cy="194.973" r="4" fill="#0" id="circle30"/>
	<circle cx="88.877" cy="782.039" r="4" fill="#0" id="circle31"/>
	<circle cx="90.6453" cy="465.519" r="4" fill="#0" id="circle32"/>
	<circle cx="99.4866" cy="868.684" r="4" fill="#0" id="circle33"/>
	<circle cx="101.255" cy="177.291" r="4" fill="#0" id="circle34"/>
	<circle cx="103.023" cy="479.665" r="4" fill="#0" id="circle35"/>
	<circle cx="103.023" cy="767.893" r="4" fill="#0" id="circle36"/>
	<circle cx="110.096" cy="159.608" r="4" fill="#0" id="circle37"/>
	<circle cx="110.096" cy="743.137" r="4" fill="#0" id="circle38"/>
	<circle cx="111.865" cy="854.538" r="4" fill="#0" id="circle39"/>
	<circle cx="118.938" cy="716.613" r="4" fill="#0" id="circle40"/>
	<circle cx="120.706" cy="483.201" r="4" fill="#0" id="circle41"/>
	<circle cx="120.706" cy="836.856" r="4" fill="#0" id="circle42"/>
	<circle cx="127.779" cy="150.766" r="4" fill="#0" id="circle43"/>
	<circle cx="127.779" cy="690.089" r="4" fill="#0" id="circle44"/>
	<circle cx="134.852" cy="824.478" r="4" fill="#0" id="circle45"/>
	<circle cx="136.62" cy="492.043" r="4" fill="#0" id="circle46"/>
	<circle cx="141.925" cy="509.725" r="4" fill="#0" id="circle47"/>
	<circle cx="143.693" cy="806.795" r="4" fill="#0" id="circle48"/>
	<circle cx="145.462" cy="145.462" r="4" fill="#0" id="circle49"/>
	<circle cx="145.462" cy="663.565" r="4" fill="#0" id="circle50"/>
	<circle cx="145.462" cy="681.248" r="4" fill="#0" id="circle51"/>
	<circle cx="159.608" cy="509.725" r="4" fill="#0" id="circle52"/>
	<circle cx="159.608" cy="649.419" r="4" fill="#0" id="circle53"/>
	<circle cx="161.376" cy="136.62" r="4" fill="#0" id="circle54"/>
	<circle cx="161.376" cy="797.954" r="4" fill="#0" id="circle55"/>
	<circle cx="163.144" cy="628.2" r="4" fill="#0" id="circle56"/>
	<circle cx="173.754" cy="122.474" r="4" fill="#0" id="circle57"/>
	<circle cx="175.522" cy="518.567" r="4" fill="#0" id="circle58"/>
	<circle cx="177.291" cy="614.053" r="4" fill="#0" id="circle59"/>
	<circle cx="179.059" cy="789.112" r="4" fill="#0" id="circle60"/>
	<circle cx="189.668" cy="592.834" r="4" fill="#0" id="circle61"/>
	<circle cx="191.437" cy="113.633" r="4" fill="#0" id="circle62"/>
	<circle cx="191.437" cy="766.125" r="4" fill="#0" id="circle63"/>
	<circle cx="193.205" cy="523.872" r="4" fill="#0" id="circle64"/>
	<circle cx="198.51" cy="575.152" r="4" fill="#0" id="circle65"/>
	<circle cx="205.583" cy="101.255" r="4" fill="#0" id="circle66"/>
	<circle cx="207.351" cy="536.25" r="4" fill="#0" id="circle67"/>
	<circle cx="209.119" cy="757.283" r="4" fill="#0" id="circle68"/>
	<circle cx="212.656" cy="561.005" r="4" fill="#0" id="circle69"/>
	<circle cx="217.961" cy="87.1087" r="4" fill="#0" id="circle70"/>
	<circle cx="226.802" cy="748.442" r="4" fill="#0" id="circle71"/>
	<circle cx="235.643" cy="83.5722" r="4" fill="#0" id="circle72"/>
	<circle cx="235.643" cy="730.759" r="4" fill="#0" id="circle73"/>
	<circle cx="244.485" cy="713.077" r="4" fill="#0" id="circle74"/>
	<circle cx="253.326" cy="83.5722" r="4" fill="#0" id="circle75"/>
	<circle cx="260.399" cy="704.235" r="4" fill="#0" id="circle76"/>
	<circle cx="269.241" cy="74.7308" r="4" fill="#0" id="circle77"/>
	<circle cx="276.314" cy="695.394" r="4" fill="#0" id="circle78"/>
	<circle cx="286.923" cy="62.3529" r="4" fill="#0" id="circle79"/>
	<circle cx="288.692" cy="677.711" r="4" fill="#0" id="circle80"/>
	<circle cx="301.07" cy="48.2068" r="4" fill="#0" id="circle81"/>
	<circle cx="304.606" cy="668.87" r="4" fill="#0" id="circle82"/>
	<circle cx="315.216" cy="651.187" r="4" fill="#0" id="circle83"/>
	<circle cx="318.752" cy="48.2068" r="4" fill="#0" id="circle84"/>
	<circle cx="332.898" cy="642.346" r="4" fill="#0" id="circle85"/>
	<circle cx="336.435" cy="48.2068" r="4" fill="#0" id="circle86"/>
	<circle cx="347.045" cy="629.968" r="4" fill="#0" id="circle87"/>
	<circle cx="354.118" cy="39.3654" r="4" fill="#0" id="circle88"/>
	<circle cx="355.886" cy="612.285" r="4" fill="#0" id="circle89"/>
	<circle cx="371.8" cy="39.3654" r="4" fill="#0" id="circle90"/>
	<circle cx="373.569" cy="603.444" r="4" fill="#0" id="circle91"/>
	<circle cx="389.483" cy="39.3654" r="4" fill="#0" id="circle92"/>
	<circle cx="391.251" cy="594.602" r="4" fill="#0" id="circle93"/>
	<circle cx="401.861" cy="580.456" r="4" fill="#0" id="circle94"/>
	<circle cx="405.398" cy="30.5241" r="4" fill="#0" id="circle95"/>
	<circle cx="419.544" cy="580.456" r="4" fill="#0" id="circle96"/>
	<circle cx="423.08" cy="30.5241" r="4" fill="#0" id="circle97"/>
	<circle cx="435.458" cy="589.298" r="4" fill="#0" id="circle98"/>
	<circle cx="440.763" cy="30.5241" r="4" fill="#0" id="circle99"/>
	<circle cx="453.141" cy="589.298" r="4" fill="#0" id="circle100"/>
	<circle cx="454.909" cy="18.1462" r="4" fill="#0" id="circle101"/>
	<circle cx="470.824" cy="589.298" r="4" fill="#0" id="circle102"/>
	<circle cx="472.592" cy="12.8414" r="4" fill="#0" id="circle103"/>
	<circle cx="488.506" cy="589.298" r="4" fill="#0" id="circle104"/>
	<circle cx="490.275" cy="12.8414" r="4" fill="#0" id="circle105"/>
	<circle cx="506.189" cy="4" r="4" fill="#0" id="circle106"/>
	<circle cx="506.189" cy="589.298" r="4" fill="#0" id="circle107"/>
	<circle cx="523.872" cy="4" r="4" fill="#0" id="circle108"/>
	<circle cx="523.872" cy="585.761" r="4" fill="#0" id="circle109"/>
	<circle cx="541.554" cy="5.76827" r="4" fill="#0" id="circle110"/>
	<circle cx="541.554" cy="580.456" r="4" fill="#0" id="circle111"/>
	<circle cx="550.396" cy="21.6827" r="4" fill="#0" id="circle112"/>
	<circle cx="559.237" cy="580.456" r="4" fill="#0" id="circle113"/>
	<circle cx="568.078" cy="21.6827" r="4" fill="#0" id="circle114"/>
	<circle cx="576.92" cy="580.456" r="4" fill="#0" id="circle115"/>
	<circle cx="585.761" cy="21.6827" r="4" fill="#0" id="circle116"/>
	<circle cx="589.298" cy="562.774" r="4" fill="#0" id="circle117"/>
	<circle cx="601.676" cy="12.8414" r="4" fill="#0" id="circle118"/>
	<circle cx="606.98" cy="562.774" r="4" fill="#0" id="circle119"/>
	<circle cx="619.358" cy="12.8414" r="4" fill="#0" id="circle120"/>
	<circle cx="624.663" cy="562.774" r="4" fill="#0" id="circle121"/>
	<circle cx="637.041" cy="12.8414" r="4" fill="#0" id="circle122"/>
	<circle cx="640.578" cy="553.932" r="4" fill="#0" id="circle123"/>
	<circle cx="652.955" cy="21.6827" r="4" fill="#0" id="circle124"/>
	<circle cx="658.26" cy="553.932" r="4" fill="#0" id="circle125"/>
	<circle cx="670.638" cy="21.6827" r="4" fill="#0" id="circle126"/>
	<circle cx="675.943" cy="553.932" r="4" fill="#0" id="circle127"/>
	<circle cx="688.321" cy="21.6827" r="4" fill="#0" id="circle128"/>
	<circle cx="691.857" cy="545.091" r="4" fill="#0" id="circle129"/>
	<circle cx="706.004" cy="21.6827" r="4" fill="#0" id="circle130"/>
	<circle cx="709.54" cy="545.091" r="4" fill="#0" id="circle131"/>
	<circle cx="721.918" cy="30.5241" r="4" fill="#0" id="circle132"/>
	<circle cx="727.223" cy="541.554" r="4" fill="#0" id="circle133"/>
	<circle cx="739.601" cy="35.8289" r="4" fill="#0" id="circle134"/>
	<circle cx="744.906" cy="536.25" r="4" fill="#0" id="circle135"/>
	<circle cx="757.283" cy="39.3654" r="4" fill="#0" id="circle136"/>
	<circle cx="757.283" cy="518.567" r="4" fill="#0" id="circle137"/>
	<circle cx="766.125" cy="55.2799" r="4" fill="#0" id="circle138"/>
	<circle cx="774.966" cy="518.567" r="4" fill="#0" id="circle139"/>
	<circle cx="783.807" cy="57.0481" r="4" fill="#0" id="circle140"/>
	<circle cx="792.649" cy="509.725" r="4" fill="#0" id="circle141"/>
	<circle cx="801.49" cy="57.0481" r="4" fill="#0" id="circle142"/>
	<circle cx="810.332" cy="72.9626" r="4" fill="#0" id="circle143"/>
	<circle cx="810.332" cy="492.043" r="4" fill="#0" id="circle144"/>
	<circle cx="828.014" cy="74.7308" r="4" fill="#0" id="circle145"/>
	<circle cx="828.014" cy="483.201" r="4" fill="#0" id="circle146"/>
	<circle cx="843.929" cy="83.5722" r="4" fill="#0" id="circle147"/>
	<circle cx="845.697" cy="483.201" r="4" fill="#0" id="circle148"/>
	<circle cx="861.611" cy="83.5722" r="4" fill="#0" id="circle149"/>
	<circle cx="861.611" cy="474.36" r="4" fill="#0" id="circle150"/>
	<circle cx="872.221" cy="456.677" r="4" fill="#0" id="circle151"/>
	<circle cx="877.526" cy="92.4135" r="4" fill="#0" id="circle152"/>
	<circle cx="889.904" cy="456.677" r="4" fill="#0" id="circle153"/>
	<circle cx="895.209" cy="94.1818" r="4" fill="#0" id="circle154"/>
	<circle cx="904.05" cy="110.096" r="4" fill="#0" id="circle155"/>
	<circle cx="905.818" cy="447.836" r="4" fill="#0" id="circle156"/>
	<circle cx="916.428" cy="430.153" r="4" fill="#0" id="circle157"/>
	<circle cx="921.733" cy="111.865" r="4" fill="#0" id="circle158"/>
	<circle cx="925.269" cy="129.547" r="4" fill="#0" id="circle159"/>
	<circle cx="932.342" cy="421.312" r="4" fill="#0" id="circle160"/>
	<circle cx="939.415" cy="140.157" r="4" fill="#0" id="circle161"/>
	<circle cx="946.488" cy="410.702" r="4" fill="#0" id="circle162"/>
	<circle cx="948.257" cy="156.071" r="4" fill="#0" id="circle163"/>
	<circle cx="951.793" cy="173.754" r="4" fill="#0" id="circle164"/>
	<circle cx="960.635" cy="377.105" r="4" fill="#0" id="circle165"/>
	<circle cx="964.171" cy="401.861" r="4" fill="#0" id="circle166"/>
	<circle cx="969.476" cy="180.827" r="4" fill="#0" id="circle167"/>
	<circle cx="969.476" cy="359.422" r="4" fill="#0" id="circle168"/>
	<circle cx="978.317" cy="196.742" r="4" fill="#0" id="circle169"/>
	<circle cx="987.159" cy="212.656" r="4" fill="#0" id="circle170"/>
	<circle cx="987.159" cy="230.339" r="4" fill="#0" id="circle171"/>
	<circle cx="987.159" cy="332.898" r="4" fill="#0" id="circle172"/>
	<circle cx="987.159" cy="350.581" r="4" fill="#0" id="circle173"/>
	<circle cx="994.232" cy="248.021" r="4" fill="#0" id="circle174"/>
	<circle cx="996" cy="265.704" r="4" fill="#0" id="circle175"/>
	<circle cx="996" cy="283.387" r="4" fill="#0" id="circle176"/>
	<circle cx="996" cy="301.07" r="4" fill="#0" id="circle177"/>
	</g>
</svg>