<?xml version="1.0" encoding="UTF-8" standalone="no"?>
<!-- Created with CurveBenchmark -->
<svg
	xmlns:dc="http://purl.org/dc/elements/1.1/"
	xmlns:cc="http://creativecommons.org/ns#"
	xmlns:rdf="http://www.w3.org/1999/02/22-rdf-syntax-ns#"
	xmlns:svg="http://www.w3.org/2000/svg"
	xmlns="http://www.w3.org/2000/svg"
	xmlns:sodipodi="http://sodipodi.sourceforge.net/DTD/sodipodi-0.dtd"
	xmlns:inkscape="http://www.inkscape.org/namespaces/inkscape"
	width="1000"
	height="1000"
	id="svg2"
	version="1.1"
	sodipodi:docname="manifold/fitconnect-pygmyrabbit.png.txt">
<defs
	id="defs4" />
<metadata
	id="metadata7">
	<rdf:RDF>
		<cc:Work
			rdf:about="">
			<dc:format>image/svg+xml</dc:format>
			<dc:type
				rdf:resource="http://purl.org/dc/dcmitype/StillImage" />
			<dc:title></dc:title>
		</cc:Work>
	</rdf:RDF>
</metadata>
<g
	inkscape:label="Layer 1"
	inkscape:groupmode="layer"
	id="layer1">
	<path style="fill:none;stroke:red;stroke-width:1px;stroke-linecap:butt;stroke-linejoin:miter;stroke-opacity:1" d="M 4,419.306 4,440.824 z" id="boundary" inkscape:connector-curvature="0" />
	<path style="fill:none;stroke:red;stroke-width:1px;stroke-linecap:butt;stroke-linejoin:miter;stroke-opacity:1" d="M 4,419.306 14.7592,387.028 z" id="boundary" inkscape:connector-curvature="0" />
	<path style="fill:none;stroke:red;stroke-width:1px;stroke-linecap:butt;stroke-linejoin:miter;stroke-opacity:1" d="M 4,440.824 14.7592,460.191 z" id="boundary" inkscape:connector-curvature="0" />
	<path style="fill:none;stroke:red;stroke-width:1px;stroke-linecap:butt;stroke-linejoin:miter;stroke-opacity:1" d="M 14.7592,387.028 25.5184,354.751 z" id="boundary" inkscape:connector-curvature="0" />
	<path style="fill:none;stroke:red;stroke-width:1px;stroke-linecap:butt;stroke-linejoin:miter;stroke-opacity:1" d="M 14.7592,460.191 25.5184,479.557 z" id="boundary" inkscape:connector-curvature="0" />
	<path style="fill:none;stroke:red;stroke-width:1px;stroke-linecap:butt;stroke-linejoin:miter;stroke-opacity:1" d="M 25.5184,354.751 47.0369,333.232 z" id="boundary" inkscape:connector-curvature="0" />
	<path style="fill:none;stroke:red;stroke-width:1px;stroke-linecap:butt;stroke-linejoin:miter;stroke-opacity:1" d="M 25.5184,479.557 25.5184,501.076 z" id="boundary" inkscape:connector-curvature="0" />
	<path style="fill:none;stroke:red;stroke-width:1px;stroke-linecap:butt;stroke-linejoin:miter;stroke-opacity:1" d="M 25.5184,501.076 49.1887,501.076 z" id="boundary" inkscape:connector-curvature="0" />
	<path style="fill:none;stroke:red;stroke-width:1px;stroke-linecap:butt;stroke-linejoin:miter;stroke-opacity:1" d="M 47.0369,290.195 47.0369,311.714 z" id="boundary" inkscape:connector-curvature="0" />
	<path style="fill:none;stroke:red;stroke-width:1px;stroke-linecap:butt;stroke-linejoin:miter;stroke-opacity:1" d="M 47.0369,290.195 75.0108,283.74 z" id="boundary" inkscape:connector-curvature="0" />
	<path style="fill:none;stroke:red;stroke-width:1px;stroke-linecap:butt;stroke-linejoin:miter;stroke-opacity:1" d="M 47.0369,311.714 47.0369,333.232 z" id="boundary" inkscape:connector-curvature="0" />
	<path style="fill:none;stroke:red;stroke-width:1px;stroke-linecap:butt;stroke-linejoin:miter;stroke-opacity:1" d="M 49.1887,501.076 62.0998,518.291 z" id="boundary" inkscape:connector-curvature="0" />
	<path style="fill:none;stroke:red;stroke-width:1px;stroke-linecap:butt;stroke-linejoin:miter;stroke-opacity:1" d="M 62.0998,518.291 83.6182,522.594 z" id="boundary" inkscape:connector-curvature="0" />
	<path style="fill:none;stroke:red;stroke-width:1px;stroke-linecap:butt;stroke-linejoin:miter;stroke-opacity:1" d="M 75.0108,283.74 107.289,251.462 z" id="boundary" inkscape:connector-curvature="0" />
	<path style="fill:none;stroke:red;stroke-width:1px;stroke-linecap:butt;stroke-linejoin:miter;stroke-opacity:1" d="M 83.6182,522.594 105.137,522.594 z" id="boundary" inkscape:connector-curvature="0" />
	<path style="fill:none;stroke:red;stroke-width:1px;stroke-linecap:butt;stroke-linejoin:miter;stroke-opacity:1" d="M 105.137,522.594 122.351,535.505 z" id="boundary" inkscape:connector-curvature="0" />
	<path style="fill:none;stroke:red;stroke-width:1px;stroke-linecap:butt;stroke-linejoin:miter;stroke-opacity:1" d="M 107.289,251.462 128.807,240.703 z" id="boundary" inkscape:connector-curvature="0" />
	<path style="fill:none;stroke:red;stroke-width:1px;stroke-linecap:butt;stroke-linejoin:miter;stroke-opacity:1" d="M 122.351,535.505 133.111,554.872 z" id="boundary" inkscape:connector-curvature="0" />
	<path style="fill:none;stroke:red;stroke-width:1px;stroke-linecap:butt;stroke-linejoin:miter;stroke-opacity:1" d="M 128.807,240.703 146.022,223.488 z" id="boundary" inkscape:connector-curvature="0" />
	<path style="fill:none;stroke:red;stroke-width:1px;stroke-linecap:butt;stroke-linejoin:miter;stroke-opacity:1" d="M 133.111,554.872 154.629,554.872 z" id="boundary" inkscape:connector-curvature="0" />
	<path style="fill:none;stroke:red;stroke-width:1px;stroke-linecap:butt;stroke-linejoin:miter;stroke-opacity:1" d="M 146.022,223.488 167.54,219.184 z" id="boundary" inkscape:connector-curvature="0" />
	<path style="fill:none;stroke:red;stroke-width:1px;stroke-linecap:butt;stroke-linejoin:miter;stroke-opacity:1" d="M 154.629,554.872 176.148,554.872 z" id="boundary" inkscape:connector-curvature="0" />
	<path style="fill:none;stroke:red;stroke-width:1px;stroke-linecap:butt;stroke-linejoin:miter;stroke-opacity:1" d="M 167.54,219.184 186.907,208.425 z" id="boundary" inkscape:connector-curvature="0" />
	<path style="fill:none;stroke:red;stroke-width:1px;stroke-linecap:butt;stroke-linejoin:miter;stroke-opacity:1" d="M 176.148,554.872 195.514,565.631 z" id="boundary" inkscape:connector-curvature="0" />
	<path style="fill:none;stroke:red;stroke-width:1px;stroke-linecap:butt;stroke-linejoin:miter;stroke-opacity:1" d="M 186.907,208.425 197.666,171.844 z" id="boundary" inkscape:connector-curvature="0" />
	<path style="fill:none;stroke:red;stroke-width:1px;stroke-linecap:butt;stroke-linejoin:miter;stroke-opacity:1" d="M 195.514,565.631 204.121,587.15 z" id="boundary" inkscape:connector-curvature="0" />
	<path style="fill:none;stroke:red;stroke-width:1px;stroke-linecap:butt;stroke-linejoin:miter;stroke-opacity:1" d="M 197.666,128.807 197.666,150.325 z" id="boundary" inkscape:connector-curvature="0" />
	<path style="fill:none;stroke:red;stroke-width:1px;stroke-linecap:butt;stroke-linejoin:miter;stroke-opacity:1" d="M 197.666,128.807 208.425,107.289 z" id="boundary" inkscape:connector-curvature="0" />
	<path style="fill:none;stroke:red;stroke-width:1px;stroke-linecap:butt;stroke-linejoin:miter;stroke-opacity:1" d="M 197.666,150.325 197.666,171.844 z" id="boundary" inkscape:connector-curvature="0" />
	<path style="fill:none;stroke:red;stroke-width:1px;stroke-linecap:butt;stroke-linejoin:miter;stroke-opacity:1" d="M 204.121,587.15 223.488,597.909 z" id="boundary" inkscape:connector-curvature="0" />
	<path style="fill:none;stroke:red;stroke-width:1px;stroke-linecap:butt;stroke-linejoin:miter;stroke-opacity:1" d="M 208.425,64.2516 208.425,85.7701 z" id="boundary" inkscape:connector-curvature="0" />
	<path style="fill:none;stroke:red;stroke-width:1px;stroke-linecap:butt;stroke-linejoin:miter;stroke-opacity:1" d="M 208.425,64.2516 229.944,53.4924 z" id="boundary" inkscape:connector-curvature="0" />
	<path style="fill:none;stroke:red;stroke-width:1px;stroke-linecap:butt;stroke-linejoin:miter;stroke-opacity:1" d="M 208.425,85.7701 208.425,107.289 z" id="boundary" inkscape:connector-curvature="0" />
	<path style="fill:none;stroke:red;stroke-width:1px;stroke-linecap:butt;stroke-linejoin:miter;stroke-opacity:1" d="M 223.488,597.909 240.703,610.82 z" id="boundary" inkscape:connector-curvature="0" />
	<path style="fill:none;stroke:red;stroke-width:1px;stroke-linecap:butt;stroke-linejoin:miter;stroke-opacity:1" d="M 229.944,31.974 229.944,53.4924 z" id="boundary" inkscape:connector-curvature="0" />
	<path style="fill:none;stroke:red;stroke-width:1px;stroke-linecap:butt;stroke-linejoin:miter;stroke-opacity:1" d="M 229.944,31.974 240.703,10.4555 z" id="boundary" inkscape:connector-curvature="0" />
	<path style="fill:none;stroke:red;stroke-width:1px;stroke-linecap:butt;stroke-linejoin:miter;stroke-opacity:1" d="M 229.944,677.527 240.703,696.894 z" id="boundary" inkscape:connector-curvature="0" />
	<path style="fill:none;stroke:red;stroke-width:1px;stroke-linecap:butt;stroke-linejoin:miter;stroke-opacity:1" d="M 229.944,677.527 251.462,671.072 z" id="boundary" inkscape:connector-curvature="0" />
	<path style="fill:none;stroke:red;stroke-width:1px;stroke-linecap:butt;stroke-linejoin:miter;stroke-opacity:1" d="M 240.703,10.4555 262.221,4 z" id="boundary" inkscape:connector-curvature="0" />
	<path style="fill:none;stroke:red;stroke-width:1px;stroke-linecap:butt;stroke-linejoin:miter;stroke-opacity:1" d="M 240.703,610.82 262.221,619.427 z" id="boundary" inkscape:connector-curvature="0" />
	<path style="fill:none;stroke:red;stroke-width:1px;stroke-linecap:butt;stroke-linejoin:miter;stroke-opacity:1" d="M 240.703,696.894 262.221,705.501 z" id="boundary" inkscape:connector-curvature="0" />
	<path style="fill:none;stroke:red;stroke-width:1px;stroke-linecap:butt;stroke-linejoin:miter;stroke-opacity:1" d="M 251.462,671.072 264.373,653.857 z" id="boundary" inkscape:connector-curvature="0" />
	<path style="fill:none;stroke:red;stroke-width:1px;stroke-linecap:butt;stroke-linejoin:miter;stroke-opacity:1" d="M 262.221,4 283.74,4 z" id="boundary" inkscape:connector-curvature="0" />
	<path style="fill:none;stroke:red;stroke-width:1px;stroke-linecap:butt;stroke-linejoin:miter;stroke-opacity:1" d="M 262.221,619.427 264.373,653.857 z" id="boundary" inkscape:connector-curvature="0" />
	<path style="fill:none;stroke:red;stroke-width:1px;stroke-linecap:butt;stroke-linejoin:miter;stroke-opacity:1" d="M 262.221,705.501 281.588,716.26 z" id="boundary" inkscape:connector-curvature="0" />
	<path style="fill:none;stroke:red;stroke-width:1px;stroke-linecap:butt;stroke-linejoin:miter;stroke-opacity:1" d="M 281.588,716.26 303.106,716.26 z" id="boundary" inkscape:connector-curvature="0" />
	<path style="fill:none;stroke:red;stroke-width:1px;stroke-linecap:butt;stroke-linejoin:miter;stroke-opacity:1" d="M 283.74,4 305.258,4 z" id="boundary" inkscape:connector-curvature="0" />
	<path style="fill:none;stroke:red;stroke-width:1px;stroke-linecap:butt;stroke-linejoin:miter;stroke-opacity:1" d="M 303.106,716.26 324.625,716.26 z" id="boundary" inkscape:connector-curvature="0" />
	<path style="fill:none;stroke:red;stroke-width:1px;stroke-linecap:butt;stroke-linejoin:miter;stroke-opacity:1" d="M 305.258,4 326.777,4 z" id="boundary" inkscape:connector-curvature="0" />
	<path style="fill:none;stroke:red;stroke-width:1px;stroke-linecap:butt;stroke-linejoin:miter;stroke-opacity:1" d="M 324.625,716.26 346.143,716.26 z" id="boundary" inkscape:connector-curvature="0" />
	<path style="fill:none;stroke:red;stroke-width:1px;stroke-linecap:butt;stroke-linejoin:miter;stroke-opacity:1" d="M 326.777,4 339.688,21.2148 z" id="boundary" inkscape:connector-curvature="0" />
	<path style="fill:none;stroke:red;stroke-width:1px;stroke-linecap:butt;stroke-linejoin:miter;stroke-opacity:1" d="M 339.688,21.2148 359.054,31.974 z" id="boundary" inkscape:connector-curvature="0" />
	<path style="fill:none;stroke:red;stroke-width:1px;stroke-linecap:butt;stroke-linejoin:miter;stroke-opacity:1" d="M 346.143,716.26 367.662,716.26 z" id="boundary" inkscape:connector-curvature="0" />
	<path style="fill:none;stroke:red;stroke-width:1px;stroke-linecap:butt;stroke-linejoin:miter;stroke-opacity:1" d="M 359.054,31.974 371.965,49.1887 z" id="boundary" inkscape:connector-curvature="0" />
	<path style="fill:none;stroke:red;stroke-width:1px;stroke-linecap:butt;stroke-linejoin:miter;stroke-opacity:1" d="M 361.206,199.818 371.965,178.299 z" id="boundary" inkscape:connector-curvature="0" />
	<path style="fill:none;stroke:red;stroke-width:1px;stroke-linecap:butt;stroke-linejoin:miter;stroke-opacity:1" d="M 361.206,199.818 382.725,208.425 z" id="boundary" inkscape:connector-curvature="0" />
	<path style="fill:none;stroke:red;stroke-width:1px;stroke-linecap:butt;stroke-linejoin:miter;stroke-opacity:1" d="M 367.662,716.26 389.18,711.957 z" id="boundary" inkscape:connector-curvature="0" />
	<path style="fill:none;stroke:red;stroke-width:1px;stroke-linecap:butt;stroke-linejoin:miter;stroke-opacity:1" d="M 371.965,49.1887 371.965,70.7072 z" id="boundary" inkscape:connector-curvature="0" />
	<path style="fill:none;stroke:red;stroke-width:1px;stroke-linecap:butt;stroke-linejoin:miter;stroke-opacity:1" d="M 371.965,70.7072 371.965,92.2256 z" id="boundary" inkscape:connector-curvature="0" />
	<path style="fill:none;stroke:red;stroke-width:1px;stroke-linecap:butt;stroke-linejoin:miter;stroke-opacity:1" d="M 371.965,92.2256 371.965,113.744 z" id="boundary" inkscape:connector-curvature="0" />
	<path style="fill:none;stroke:red;stroke-width:1px;stroke-linecap:butt;stroke-linejoin:miter;stroke-opacity:1" d="M 371.965,113.744 371.965,135.262 z" id="boundary" inkscape:connector-curvature="0" />
	<path style="fill:none;stroke:red;stroke-width:1px;stroke-linecap:butt;stroke-linejoin:miter;stroke-opacity:1" d="M 371.965,135.262 371.965,156.781 z" id="boundary" inkscape:connector-curvature="0" />
	<path style="fill:none;stroke:red;stroke-width:1px;stroke-linecap:butt;stroke-linejoin:miter;stroke-opacity:1" d="M 371.965,156.781 371.965,178.299 z" id="boundary" inkscape:connector-curvature="0" />
	<path style="fill:none;stroke:red;stroke-width:1px;stroke-linecap:butt;stroke-linejoin:miter;stroke-opacity:1" d="M 382.725,208.425 404.243,208.425 z" id="boundary" inkscape:connector-curvature="0" />
	<path style="fill:none;stroke:red;stroke-width:1px;stroke-linecap:butt;stroke-linejoin:miter;stroke-opacity:1" d="M 389.18,711.957 410.698,705.501 z" id="boundary" inkscape:connector-curvature="0" />
	<path style="fill:none;stroke:red;stroke-width:1px;stroke-linecap:butt;stroke-linejoin:miter;stroke-opacity:1" d="M 404.243,208.425 423.61,197.666 z" id="boundary" inkscape:connector-curvature="0" />
	<path style="fill:none;stroke:red;stroke-width:1px;stroke-linecap:butt;stroke-linejoin:miter;stroke-opacity:1" d="M 410.698,705.501 432.217,705.501 z" id="boundary" inkscape:connector-curvature="0" />
	<path style="fill:none;stroke:red;stroke-width:1px;stroke-linecap:butt;stroke-linejoin:miter;stroke-opacity:1" d="M 423.61,197.666 445.128,193.362 z" id="boundary" inkscape:connector-curvature="0" />
	<path style="fill:none;stroke:red;stroke-width:1px;stroke-linecap:butt;stroke-linejoin:miter;stroke-opacity:1" d="M 432.217,705.501 451.584,716.26 z" id="boundary" inkscape:connector-curvature="0" />
	<path style="fill:none;stroke:red;stroke-width:1px;stroke-linecap:butt;stroke-linejoin:miter;stroke-opacity:1" d="M 445.128,193.362 466.646,186.907 z" id="boundary" inkscape:connector-curvature="0" />
	<path style="fill:none;stroke:red;stroke-width:1px;stroke-linecap:butt;stroke-linejoin:miter;stroke-opacity:1" d="M 451.584,716.26 470.95,705.501 z" id="boundary" inkscape:connector-curvature="0" />
	<path style="fill:none;stroke:red;stroke-width:1px;stroke-linecap:butt;stroke-linejoin:miter;stroke-opacity:1" d="M 466.646,186.907 479.557,169.692 z" id="boundary" inkscape:connector-curvature="0" />
	<path style="fill:none;stroke:red;stroke-width:1px;stroke-linecap:butt;stroke-linejoin:miter;stroke-opacity:1" d="M 470.95,705.501 488.165,718.412 z" id="boundary" inkscape:connector-curvature="0" />
	<path style="fill:none;stroke:red;stroke-width:1px;stroke-linecap:butt;stroke-linejoin:miter;stroke-opacity:1" d="M 479.557,169.692 492.469,186.907 z" id="boundary" inkscape:connector-curvature="0" />
	<path style="fill:none;stroke:red;stroke-width:1px;stroke-linecap:butt;stroke-linejoin:miter;stroke-opacity:1" d="M 488.165,718.412 488.165,739.931 z" id="boundary" inkscape:connector-curvature="0" />
	<path style="fill:none;stroke:red;stroke-width:1px;stroke-linecap:butt;stroke-linejoin:miter;stroke-opacity:1" d="M 488.165,739.931 509.683,748.538 z" id="boundary" inkscape:connector-curvature="0" />
	<path style="fill:none;stroke:red;stroke-width:1px;stroke-linecap:butt;stroke-linejoin:miter;stroke-opacity:1" d="M 492.469,186.907 509.683,171.844 z" id="boundary" inkscape:connector-curvature="0" />
	<path style="fill:none;stroke:red;stroke-width:1px;stroke-linecap:butt;stroke-linejoin:miter;stroke-opacity:1" d="M 509.683,171.844 531.202,165.388 z" id="boundary" inkscape:connector-curvature="0" />
	<path style="fill:none;stroke:red;stroke-width:1px;stroke-linecap:butt;stroke-linejoin:miter;stroke-opacity:1" d="M 509.683,748.538 522.594,765.753 z" id="boundary" inkscape:connector-curvature="0" />
	<path style="fill:none;stroke:red;stroke-width:1px;stroke-linecap:butt;stroke-linejoin:miter;stroke-opacity:1" d="M 522.594,765.753 544.113,770.056 z" id="boundary" inkscape:connector-curvature="0" />
	<path style="fill:none;stroke:red;stroke-width:1px;stroke-linecap:butt;stroke-linejoin:miter;stroke-opacity:1" d="M 531.202,165.388 552.72,165.388 z" id="boundary" inkscape:connector-curvature="0" />
	<path style="fill:none;stroke:red;stroke-width:1px;stroke-linecap:butt;stroke-linejoin:miter;stroke-opacity:1" d="M 544.113,770.056 565.631,770.056 z" id="boundary" inkscape:connector-curvature="0" />
	<path style="fill:none;stroke:red;stroke-width:1px;stroke-linecap:butt;stroke-linejoin:miter;stroke-opacity:1" d="M 552.72,165.388 574.239,165.388 z" id="boundary" inkscape:connector-curvature="0" />
	<path style="fill:none;stroke:red;stroke-width:1px;stroke-linecap:butt;stroke-linejoin:miter;stroke-opacity:1" d="M 565.631,770.056 587.15,770.056 z" id="boundary" inkscape:connector-curvature="0" />
	<path style="fill:none;stroke:red;stroke-width:1px;stroke-linecap:butt;stroke-linejoin:miter;stroke-opacity:1" d="M 574.239,165.388 595.757,165.388 z" id="boundary" inkscape:connector-curvature="0" />
	<path style="fill:none;stroke:red;stroke-width:1px;stroke-linecap:butt;stroke-linejoin:miter;stroke-opacity:1" d="M 587.15,770.056 608.668,770.056 z" id="boundary" inkscape:connector-curvature="0" />
	<path style="fill:none;stroke:red;stroke-width:1px;stroke-linecap:butt;stroke-linejoin:miter;stroke-opacity:1" d="M 595.757,165.388 617.275,165.388 z" id="boundary" inkscape:connector-curvature="0" />
	<path style="fill:none;stroke:red;stroke-width:1px;stroke-linecap:butt;stroke-linejoin:miter;stroke-opacity:1" d="M 608.668,770.056 630.187,770.056 z" id="boundary" inkscape:connector-curvature="0" />
	<path style="fill:none;stroke:red;stroke-width:1px;stroke-linecap:butt;stroke-linejoin:miter;stroke-opacity:1" d="M 617.275,165.388 638.794,165.388 z" id="boundary" inkscape:connector-curvature="0" />
	<path style="fill:none;stroke:red;stroke-width:1px;stroke-linecap:butt;stroke-linejoin:miter;stroke-opacity:1" d="M 630.187,770.056 651.705,770.056 z" id="boundary" inkscape:connector-curvature="0" />
	<path style="fill:none;stroke:red;stroke-width:1px;stroke-linecap:butt;stroke-linejoin:miter;stroke-opacity:1" d="M 638.794,165.388 660.312,165.388 z" id="boundary" inkscape:connector-curvature="0" />
	<path style="fill:none;stroke:red;stroke-width:1px;stroke-linecap:butt;stroke-linejoin:miter;stroke-opacity:1" d="M 651.705,770.056 673.223,770.056 z" id="boundary" inkscape:connector-curvature="0" />
	<path style="fill:none;stroke:red;stroke-width:1px;stroke-linecap:butt;stroke-linejoin:miter;stroke-opacity:1" d="M 660.312,165.388 681.831,165.388 z" id="boundary" inkscape:connector-curvature="0" />
	<path style="fill:none;stroke:red;stroke-width:1px;stroke-linecap:butt;stroke-linejoin:miter;stroke-opacity:1" d="M 673.223,770.056 694.742,770.056 z" id="boundary" inkscape:connector-curvature="0" />
	<path style="fill:none;stroke:red;stroke-width:1px;stroke-linecap:butt;stroke-linejoin:miter;stroke-opacity:1" d="M 681.831,165.388 694.742,182.603 z" id="boundary" inkscape:connector-curvature="0" />
	<path style="fill:none;stroke:red;stroke-width:1px;stroke-linecap:butt;stroke-linejoin:miter;stroke-opacity:1" d="M 694.742,182.603 716.26,186.907 z" id="boundary" inkscape:connector-curvature="0" />
	<path style="fill:none;stroke:red;stroke-width:1px;stroke-linecap:butt;stroke-linejoin:miter;stroke-opacity:1" d="M 694.742,770.056 716.26,770.056 z" id="boundary" inkscape:connector-curvature="0" />
	<path style="fill:none;stroke:red;stroke-width:1px;stroke-linecap:butt;stroke-linejoin:miter;stroke-opacity:1" d="M 716.26,186.907 735.627,197.666 z" id="boundary" inkscape:connector-curvature="0" />
	<path style="fill:none;stroke:red;stroke-width:1px;stroke-linecap:butt;stroke-linejoin:miter;stroke-opacity:1" d="M 716.26,770.056 737.779,770.056 z" id="boundary" inkscape:connector-curvature="0" />
	<path style="fill:none;stroke:red;stroke-width:1px;stroke-linecap:butt;stroke-linejoin:miter;stroke-opacity:1" d="M 735.627,197.666 757.145,197.666 z" id="boundary" inkscape:connector-curvature="0" />
	<path style="fill:none;stroke:red;stroke-width:1px;stroke-linecap:butt;stroke-linejoin:miter;stroke-opacity:1" d="M 737.779,770.056 759.297,770.056 z" id="boundary" inkscape:connector-curvature="0" />
	<path style="fill:none;stroke:red;stroke-width:1px;stroke-linecap:butt;stroke-linejoin:miter;stroke-opacity:1" d="M 757.145,197.666 776.512,208.425 z" id="boundary" inkscape:connector-curvature="0" />
	<path style="fill:none;stroke:red;stroke-width:1px;stroke-linecap:butt;stroke-linejoin:miter;stroke-opacity:1" d="M 759.297,770.056 770.056,748.538 z" id="boundary" inkscape:connector-curvature="0" />
	<path style="fill:none;stroke:red;stroke-width:1px;stroke-linecap:butt;stroke-linejoin:miter;stroke-opacity:1" d="M 770.056,748.538 791.575,737.779 z" id="boundary" inkscape:connector-curvature="0" />
	<path style="fill:none;stroke:red;stroke-width:1px;stroke-linecap:butt;stroke-linejoin:miter;stroke-opacity:1" d="M 776.512,208.425 795.879,219.184 z" id="boundary" inkscape:connector-curvature="0" />
	<path style="fill:none;stroke:red;stroke-width:1px;stroke-linecap:butt;stroke-linejoin:miter;stroke-opacity:1" d="M 791.575,737.779 813.093,737.779 z" id="boundary" inkscape:connector-curvature="0" />
	<path style="fill:none;stroke:red;stroke-width:1px;stroke-linecap:butt;stroke-linejoin:miter;stroke-opacity:1" d="M 795.879,219.184 817.397,219.184 z" id="boundary" inkscape:connector-curvature="0" />
	<path style="fill:none;stroke:red;stroke-width:1px;stroke-linecap:butt;stroke-linejoin:miter;stroke-opacity:1" d="M 813.093,737.779 834.612,737.779 z" id="boundary" inkscape:connector-curvature="0" />
	<path style="fill:none;stroke:red;stroke-width:1px;stroke-linecap:butt;stroke-linejoin:miter;stroke-opacity:1" d="M 817.397,219.184 823.852,240.703 z" id="boundary" inkscape:connector-curvature="0" />
	<path style="fill:none;stroke:red;stroke-width:1px;stroke-linecap:butt;stroke-linejoin:miter;stroke-opacity:1" d="M 823.852,240.703 845.371,240.703 z" id="boundary" inkscape:connector-curvature="0" />
	<path style="fill:none;stroke:red;stroke-width:1px;stroke-linecap:butt;stroke-linejoin:miter;stroke-opacity:1" d="M 834.612,737.779 856.13,737.779 z" id="boundary" inkscape:connector-curvature="0" />
	<path style="fill:none;stroke:red;stroke-width:1px;stroke-linecap:butt;stroke-linejoin:miter;stroke-opacity:1" d="M 845.371,240.703 856.13,260.069 z" id="boundary" inkscape:connector-curvature="0" />
	<path style="fill:none;stroke:red;stroke-width:1px;stroke-linecap:butt;stroke-linejoin:miter;stroke-opacity:1" d="M 856.13,260.069 873.345,275.132 z" id="boundary" inkscape:connector-curvature="0" />
	<path style="fill:none;stroke:red;stroke-width:1px;stroke-linecap:butt;stroke-linejoin:miter;stroke-opacity:1" d="M 856.13,737.779 877.649,737.779 z" id="boundary" inkscape:connector-curvature="0" />
	<path style="fill:none;stroke:red;stroke-width:1px;stroke-linecap:butt;stroke-linejoin:miter;stroke-opacity:1" d="M 873.345,275.132 894.863,283.74 z" id="boundary" inkscape:connector-curvature="0" />
	<path style="fill:none;stroke:red;stroke-width:1px;stroke-linecap:butt;stroke-linejoin:miter;stroke-opacity:1" d="M 877.649,737.779 899.167,737.779 z" id="boundary" inkscape:connector-curvature="0" />
	<path style="fill:none;stroke:red;stroke-width:1px;stroke-linecap:butt;stroke-linejoin:miter;stroke-opacity:1" d="M 894.863,283.74 909.926,300.954 z" id="boundary" inkscape:connector-curvature="0" />
	<path style="fill:none;stroke:red;stroke-width:1px;stroke-linecap:butt;stroke-linejoin:miter;stroke-opacity:1" d="M 899.167,737.779 920.685,716.26 z" id="boundary" inkscape:connector-curvature="0" />
	<path style="fill:none;stroke:red;stroke-width:1px;stroke-linecap:butt;stroke-linejoin:miter;stroke-opacity:1" d="M 909.926,300.954 920.685,320.321 z" id="boundary" inkscape:connector-curvature="0" />
	<path style="fill:none;stroke:red;stroke-width:1px;stroke-linecap:butt;stroke-linejoin:miter;stroke-opacity:1" d="M 920.685,320.321 933.597,337.536 z" id="boundary" inkscape:connector-curvature="0" />
	<path style="fill:none;stroke:red;stroke-width:1px;stroke-linecap:butt;stroke-linejoin:miter;stroke-opacity:1" d="M 920.685,716.26 942.204,716.26 z" id="boundary" inkscape:connector-curvature="0" />
	<path style="fill:none;stroke:red;stroke-width:1px;stroke-linecap:butt;stroke-linejoin:miter;stroke-opacity:1" d="M 933.597,337.536 950.811,352.599 z" id="boundary" inkscape:connector-curvature="0" />
	<path style="fill:none;stroke:red;stroke-width:1px;stroke-linecap:butt;stroke-linejoin:miter;stroke-opacity:1" d="M 942.204,716.26 963.722,716.26 z" id="boundary" inkscape:connector-curvature="0" />
	<path style="fill:none;stroke:red;stroke-width:1px;stroke-linecap:butt;stroke-linejoin:miter;stroke-opacity:1" d="M 950.811,352.599 952.963,374.117 z" id="boundary" inkscape:connector-curvature="0" />
	<path style="fill:none;stroke:red;stroke-width:1px;stroke-linecap:butt;stroke-linejoin:miter;stroke-opacity:1" d="M 952.963,374.117 972.33,384.876 z" id="boundary" inkscape:connector-curvature="0" />
	<path style="fill:none;stroke:red;stroke-width:1px;stroke-linecap:butt;stroke-linejoin:miter;stroke-opacity:1" d="M 963.722,716.26 974.482,683.983 z" id="boundary" inkscape:connector-curvature="0" />
	<path style="fill:none;stroke:red;stroke-width:1px;stroke-linecap:butt;stroke-linejoin:miter;stroke-opacity:1" d="M 972.33,384.876 974.482,406.395 z" id="boundary" inkscape:connector-curvature="0" />
	<path style="fill:none;stroke:red;stroke-width:1px;stroke-linecap:butt;stroke-linejoin:miter;stroke-opacity:1" d="M 974.482,406.395 980.937,427.913 z" id="boundary" inkscape:connector-curvature="0" />
	<path style="fill:none;stroke:red;stroke-width:1px;stroke-linecap:butt;stroke-linejoin:miter;stroke-opacity:1" d="M 974.482,683.983 985.241,662.464 z" id="boundary" inkscape:connector-curvature="0" />
	<path style="fill:none;stroke:red;stroke-width:1px;stroke-linecap:butt;stroke-linejoin:miter;stroke-opacity:1" d="M 980.937,427.913 985.241,449.432 z" id="boundary" inkscape:connector-curvature="0" />
	<path style="fill:none;stroke:red;stroke-width:1px;stroke-linecap:butt;stroke-linejoin:miter;stroke-opacity:1" d="M 985.241,449.432 991.696,470.95 z" id="boundary" inkscape:connector-curvature="0" />
	<path style="fill:none;stroke:red;stroke-width:1px;stroke-linecap:butt;stroke-linejoin:miter;stroke-opacity:1" d="M 985.241,640.946 985.241,662.464 z" id="boundary" inkscape:connector-curvature="0" />
	<path style="fill:none;stroke:red;stroke-width:1px;stroke-linecap:butt;stroke-linejoin:miter;stroke-opacity:1" d="M 985.241,640.946 996,621.579 z" id="boundary" inkscape:connector-curvature="0" />
	<path style="fill:none;stroke:red;stroke-width:1px;stroke-linecap:butt;stroke-linejoin:miter;stroke-opacity:1" d="M 991.696,470.95 996,492.469 z" id="boundary" inkscape:connector-curvature="0" />
	<path style="fill:none;stroke:red;stroke-width:1px;stroke-linecap:butt;stroke-linejoin:miter;stroke-opacity:1" d="M 996,492.469 996,513.987 z" id="boundary" inkscape:connector-curvature="0" />
	<path style="fill:none;stroke:red;stroke-width:1px;stroke-linecap:butt;stroke-linejoin:miter;stroke-opacity:1" d="M 996,513.987 996,535.505 z" id="boundary" inkscape:connector-curvature="0" />
	<path style="fill:none;stroke:red;stroke-width:1px;stroke-linecap:butt;stroke-linejoin:miter;stroke-opacity:1" d="M 996,535.505 996,557.024 z" id="boundary" inkscape:connector-curvature="0" />
	<path style="fill:none;stroke:red;stroke-width:1px;stroke-linecap:butt;stroke-linejoin:miter;stroke-opacity:1" d="M 996,557.024 996,578.542 z" id="boundary" inkscape:connector-curvature="0" />
	<path style="fill:none;stroke:red;stroke-width:1px;stroke-linecap:butt;stroke-linejoin:miter;stroke-opacity:1" d="M 996,578.542 996,600.061 z" id="boundary" inkscape:connector-curvature="0" />
	<path style="fill:none;stroke:red;stroke-width:1px;stroke-linecap:butt;stroke-linejoin:miter;stroke-opacity:1" d="M 996,600.061 996,621.579 z" id="boundary" inkscape:connector-curvature="0" />
	<circle cx="4" cy="419.306" r="4" fill="#0" id="circle0"/>
	<circle cx="4" cy="440.824" r="4" fill="#0" id="circle1"/>
	<circle cx="14.7592" cy="387.028" r="4" fill="#0" id="circle2"/>
	<circle cx="14.7592" cy="460.191" r="4" fill="#0" id="circle3"/>
	<circle cx="25.5184" cy="354.751" r="4" fill="#0" id="circle4"/>
	<circle cx="25.5184" cy="479.557" r="4" fill="#0" id="circle5"/>
	<circle cx="25.5184" cy="501.076" r="4" fill="#0" id="circle6"/>
	<circle cx="31.974" cy="522.594" r="4" fill="#0" id="circle7"/>
	<circle cx="47.0369" cy="290.195" r="4" fill="#0" id="circle8"/>
	<circle cx="47.0369" cy="311.714" r="4" fill="#0" id="circle9"/>
	<circle cx="47.0369" cy="333.232" r="4" fill="#0" id="circle10"/>
	<circle cx="49.1887" cy="501.076" r="4" fill="#0" id="circle11"/>
	<circle cx="57.7961" cy="247.158" r="4" fill="#0" id="circle12"/>
	<circle cx="57.7961" cy="268.677" r="4" fill="#0" id="circle13"/>
	<circle cx="62.0998" cy="518.291" r="4" fill="#0" id="circle14"/>
	<circle cx="75.0108" cy="283.74" r="4" fill="#0" id="circle15"/>
	<circle cx="79.3145" cy="245.007" r="4" fill="#0" id="circle16"/>
	<circle cx="83.6182" cy="522.594" r="4" fill="#0" id="circle17"/>
	<circle cx="90.0738" cy="264.373" r="4" fill="#0" id="circle18"/>
	<circle cx="105.137" cy="522.594" r="4" fill="#0" id="circle19"/>
	<circle cx="107.289" cy="251.462" r="4" fill="#0" id="circle20"/>
	<circle cx="122.351" cy="535.505" r="4" fill="#0" id="circle21"/>
	<circle cx="128.807" cy="240.703" r="4" fill="#0" id="circle22"/>
	<circle cx="133.111" cy="554.872" r="4" fill="#0" id="circle23"/>
	<circle cx="143.87" cy="574.239" r="4" fill="#0" id="circle24"/>
	<circle cx="146.022" cy="223.488" r="4" fill="#0" id="circle25"/>
	<circle cx="154.629" cy="554.872" r="4" fill="#0" id="circle26"/>
	<circle cx="167.54" cy="219.184" r="4" fill="#0" id="circle27"/>
	<circle cx="176.148" cy="554.872" r="4" fill="#0" id="circle28"/>
	<circle cx="186.907" cy="208.425" r="4" fill="#0" id="circle29"/>
	<circle cx="195.514" cy="565.631" r="4" fill="#0" id="circle30"/>
	<circle cx="197.666" cy="128.807" r="4" fill="#0" id="circle31"/>
	<circle cx="197.666" cy="150.325" r="4" fill="#0" id="circle32"/>
	<circle cx="197.666" cy="171.844" r="4" fill="#0" id="circle33"/>
	<circle cx="204.121" cy="587.15" r="4" fill="#0" id="circle34"/>
	<circle cx="208.425" cy="64.2516" r="4" fill="#0" id="circle35"/>
	<circle cx="208.425" cy="85.7701" r="4" fill="#0" id="circle36"/>
	<circle cx="208.425" cy="107.289" r="4" fill="#0" id="circle37"/>
	<circle cx="223.488" cy="597.909" r="4" fill="#0" id="circle38"/>
	<circle cx="229.944" cy="31.974" r="4" fill="#0" id="circle39"/>
	<circle cx="229.944" cy="53.4924" r="4" fill="#0" id="circle40"/>
	<circle cx="229.944" cy="677.527" r="4" fill="#0" id="circle41"/>
	<circle cx="240.703" cy="10.4555" r="4" fill="#0" id="circle42"/>
	<circle cx="240.703" cy="610.82" r="4" fill="#0" id="circle43"/>
	<circle cx="240.703" cy="696.894" r="4" fill="#0" id="circle44"/>
	<circle cx="251.462" cy="671.072" r="4" fill="#0" id="circle45"/>
	<circle cx="262.221" cy="4" r="4" fill="#0" id="circle46"/>
	<circle cx="262.221" cy="619.427" r="4" fill="#0" id="circle47"/>
	<circle cx="262.221" cy="705.501" r="4" fill="#0" id="circle48"/>
	<circle cx="264.373" cy="653.857" r="4" fill="#0" id="circle49"/>
	<circle cx="281.588" cy="716.26" r="4" fill="#0" id="circle50"/>
	<circle cx="283.74" cy="4" r="4" fill="#0" id="circle51"/>
	<circle cx="303.106" cy="716.26" r="4" fill="#0" id="circle52"/>
	<circle cx="305.258" cy="4" r="4" fill="#0" id="circle53"/>
	<circle cx="324.625" cy="716.26" r="4" fill="#0" id="circle54"/>
	<circle cx="326.777" cy="4" r="4" fill="#0" id="circle55"/>
	<circle cx="339.688" cy="21.2148" r="4" fill="#0" id="circle56"/>
	<circle cx="346.143" cy="716.26" r="4" fill="#0" id="circle57"/>
	<circle cx="359.054" cy="31.974" r="4" fill="#0" id="circle58"/>
	<circle cx="361.206" cy="199.818" r="4" fill="#0" id="circle59"/>
	<circle cx="367.662" cy="716.26" r="4" fill="#0" id="circle60"/>
	<circle cx="371.965" cy="49.1887" r="4" fill="#0" id="circle61"/>
	<circle cx="371.965" cy="70.7072" r="4" fill="#0" id="circle62"/>
	<circle cx="371.965" cy="92.2256" r="4" fill="#0" id="circle63"/>
	<circle cx="371.965" cy="113.744" r="4" fill="#0" id="circle64"/>
	<circle cx="371.965" cy="135.262" r="4" fill="#0" id="circle65"/>
	<circle cx="371.965" cy="156.781" r="4" fill="#0" id="circle66"/>
	<circle cx="371.965" cy="178.299" r="4" fill="#0" id="circle67"/>
	<circle cx="382.725" cy="208.425" r="4" fill="#0" id="circle68"/>
	<circle cx="389.18" cy="711.957" r="4" fill="#0" id="circle69"/>
	<circle cx="404.243" cy="208.425" r="4" fill="#0" id="circle70"/>
	<circle cx="410.698" cy="705.501" r="4" fill="#0" id="circle71"/>
	<circle cx="423.61" cy="197.666" r="4" fill="#0" id="circle72"/>
	<circle cx="432.217" cy="705.501" r="4" fill="#0" id="circle73"/>
	<circle cx="445.128" cy="193.362" r="4" fill="#0" id="circle74"/>
	<circle cx="451.584" cy="716.26" r="4" fill="#0" id="circle75"/>
	<circle cx="466.646" cy="186.907" r="4" fill="#0" id="circle76"/>
	<circle cx="470.95" cy="705.501" r="4" fill="#0" id="circle77"/>
	<circle cx="479.557" cy="169.692" r="4" fill="#0" id="circle78"/>
	<circle cx="488.165" cy="718.412" r="4" fill="#0" id="circle79"/>
	<circle cx="488.165" cy="739.931" r="4" fill="#0" id="circle80"/>
	<circle cx="492.469" cy="186.907" r="4" fill="#0" id="circle81"/>
	<circle cx="509.683" cy="171.844" r="4" fill="#0" id="circle82"/>
	<circle cx="509.683" cy="748.538" r="4" fill="#0" id="circle83"/>
	<circle cx="522.594" cy="765.753" r="4" fill="#0" id="circle84"/>
	<circle cx="531.202" cy="165.388" r="4" fill="#0" id="circle85"/>
	<circle cx="544.113" cy="770.056" r="4" fill="#0" id="circle86"/>
	<circle cx="552.72" cy="165.388" r="4" fill="#0" id="circle87"/>
	<circle cx="565.631" cy="770.056" r="4" fill="#0" id="circle88"/>
	<circle cx="574.239" cy="165.388" r="4" fill="#0" id="circle89"/>
	<circle cx="587.15" cy="770.056" r="4" fill="#0" id="circle90"/>
	<circle cx="595.757" cy="165.388" r="4" fill="#0" id="circle91"/>
	<circle cx="608.668" cy="770.056" r="4" fill="#0" id="circle92"/>
	<circle cx="617.275" cy="165.388" r="4" fill="#0" id="circle93"/>
	<circle cx="630.187" cy="770.056" r="4" fill="#0" id="circle94"/>
	<circle cx="638.794" cy="165.388" r="4" fill="#0" id="circle95"/>
	<circle cx="651.705" cy="770.056" r="4" fill="#0" id="circle96"/>
	<circle cx="660.312" cy="165.388" r="4" fill="#0" id="circle97"/>
	<circle cx="673.223" cy="770.056" r="4" fill="#0" id="circle98"/>
	<circle cx="681.831" cy="165.388" r="4" fill="#0" id="circle99"/>
	<circle cx="694.742" cy="182.603" r="4" fill="#0" id="circle100"/>
	<circle cx="694.742" cy="770.056" r="4" fill="#0" id="circle101"/>
	<circle cx="716.26" cy="186.907" r="4" fill="#0" id="circle102"/>
	<circle cx="716.26" cy="770.056" r="4" fill="#0" id="circle103"/>
	<circle cx="735.627" cy="197.666" r="4" fill="#0" id="circle104"/>
	<circle cx="737.779" cy="770.056" r="4" fill="#0" id="circle105"/>
	<circle cx="757.145" cy="197.666" r="4" fill="#0" id="circle106"/>
	<circle cx="759.297" cy="770.056" r="4" fill="#0" id="circle107"/>
	<circle cx="770.056" cy="748.538" r="4" fill="#0" id="circle108"/>
	<circle cx="776.512" cy="208.425" r="4" fill="#0" id="circle109"/>
	<circle cx="791.575" cy="737.779" r="4" fill="#0" id="circle110"/>
	<circle cx="795.879" cy="219.184" r="4" fill="#0" id="circle111"/>
	<circle cx="813.093" cy="737.779" r="4" fill="#0" id="circle112"/>
	<circle cx="817.397" cy="219.184" r="4" fill="#0" id="circle113"/>
	<circle cx="823.852" cy="240.703" r="4" fill="#0" id="circle114"/>
	<circle cx="834.612" cy="737.779" r="4" fill="#0" id="circle115"/>
	<circle cx="845.371" cy="240.703" r="4" fill="#0" id="circle116"/>
	<circle cx="856.13" cy="260.069" r="4" fill="#0" id="circle117"/>
	<circle cx="856.13" cy="737.779" r="4" fill="#0" id="circle118"/>
	<circle cx="873.345" cy="275.132" r="4" fill="#0" id="circle119"/>
	<circle cx="877.649" cy="737.779" r="4" fill="#0" id="circle120"/>
	<circle cx="894.863" cy="283.74" r="4" fill="#0" id="circle121"/>
	<circle cx="899.167" cy="737.779" r="4" fill="#0" id="circle122"/>
	<circle cx="909.926" cy="300.954" r="4" fill="#0" id="circle123"/>
	<circle cx="920.685" cy="320.321" r="4" fill="#0" id="circle124"/>
	<circle cx="920.685" cy="716.26" r="4" fill="#0" id="circle125"/>
	<circle cx="933.597" cy="337.536" r="4" fill="#0" id="circle126"/>
	<circle cx="942.204" cy="716.26" r="4" fill="#0" id="circle127"/>
	<circle cx="950.811" cy="352.599" r="4" fill="#0" id="circle128"/>
	<circle cx="952.963" cy="374.117" r="4" fill="#0" id="circle129"/>
	<circle cx="963.722" cy="716.26" r="4" fill="#0" id="circle130"/>
	<circle cx="972.33" cy="384.876" r="4" fill="#0" id="circle131"/>
	<circle cx="974.482" cy="406.395" r="4" fill="#0" id="circle132"/>
	<circle cx="974.482" cy="683.983" r="4" fill="#0" id="circle133"/>
	<circle cx="980.937" cy="427.913" r="4" fill="#0" id="circle134"/>
	<circle cx="985.241" cy="449.432" r="4" fill="#0" id="circle135"/>
	<circle cx="985.241" cy="640.946" r="4" fill="#0" id="circle136"/>
	<circle cx="985.241" cy="662.464" r="4" fill="#0" id="circle137"/>
	<circle cx="991.696" cy="470.95" r="4" fill="#0" id="circle138"/>
	<circle cx="996" cy="492.469" r="4" fill="#0" id="circle139"/>
	<circle cx="996" cy="513.987" r="4" fill="#0" id="circle140"/>
	<circle cx="996" cy="535.505" r="4" fill="#0" id="circle141"/>
	<circle cx="996" cy="557.024" r="4" fill="#0" id="circle142"/>
	<circle cx="996" cy="578.542" r="4" fill="#0" id="circle143"/>
	<circle cx="996" cy="600.061" r="4" fill="#0" id="circle144"/>
	<circle cx="996" cy="621.579" r="4" fill="#0" id="circle145"/>
	</g>
</svg>