<?xml version="1.0" encoding="UTF-8" standalone="no"?>
<!-- Created with CurveBenchmark -->
<svg
	xmlns:dc="http://purl.org/dc/elements/1.1/"
	xmlns:cc="http://creativecommons.org/ns#"
	xmlns:rdf="http://www.w3.org/1999/02/22-rdf-syntax-ns#"
	xmlns:svg="http://www.w3.org/2000/svg"
	xmlns="http://www.w3.org/2000/svg"
	xmlns:sodipodi="http://sodipodi.sourceforge.net/DTD/sodipodi-0.dtd"
	xmlns:inkscape="http://www.inkscape.org/namespaces/inkscape"
	width="1000"
	height="1000"
	id="svg2"
	version="1.1"
	sodipodi:docname="manifold/fitconnect-sink110.png.txt">
<defs
	id="defs4" />
<metadata
	id="metadata7">
	<rdf:RDF>
		<cc:Work
			rdf:about="">
			<dc:format>image/svg+xml</dc:format>
			<dc:type
				rdf:resource="http://purl.org/dc/dcmitype/StillImage" />
			<dc:title></dc:title>
		</cc:Work>
	</rdf:RDF>
</metadata>
<g
	inkscape:label="Layer 1"
	inkscape:groupmode="layer"
	id="layer1">
	<path style="fill:none;stroke:red;stroke-width:1px;stroke-linecap:butt;stroke-linejoin:miter;stroke-opacity:1" d="M 4,290.249 13.8706,201.413 z" id="boundary" inkscape:connector-curvature="0" />
	<path style="fill:none;stroke:red;stroke-width:1px;stroke-linecap:butt;stroke-linejoin:miter;stroke-opacity:1" d="M 4,290.249 53.3532,305.055 z" id="boundary" inkscape:connector-curvature="0" />
	<path style="fill:none;stroke:red;stroke-width:1px;stroke-linecap:butt;stroke-linejoin:miter;stroke-opacity:1" d="M 13.8706,152.06 13.8706,201.413 z" id="boundary" inkscape:connector-curvature="0" />
	<path style="fill:none;stroke:red;stroke-width:1px;stroke-linecap:butt;stroke-linejoin:miter;stroke-opacity:1" d="M 13.8706,152.06 63.2239,152.06 z" id="boundary" inkscape:connector-curvature="0" />
	<path style="fill:none;stroke:red;stroke-width:1px;stroke-linecap:butt;stroke-linejoin:miter;stroke-opacity:1" d="M 53.3532,305.055 102.706,305.055 z" id="boundary" inkscape:connector-curvature="0" />
	<path style="fill:none;stroke:red;stroke-width:1px;stroke-linecap:butt;stroke-linejoin:miter;stroke-opacity:1" d="M 63.2239,152.06 112.577,152.06 z" id="boundary" inkscape:connector-curvature="0" />
	<path style="fill:none;stroke:red;stroke-width:1px;stroke-linecap:butt;stroke-linejoin:miter;stroke-opacity:1" d="M 102.706,305.055 142.189,334.667 z" id="boundary" inkscape:connector-curvature="0" />
	<path style="fill:none;stroke:red;stroke-width:1px;stroke-linecap:butt;stroke-linejoin:miter;stroke-opacity:1" d="M 112.577,152.06 161.93,152.06 z" id="boundary" inkscape:connector-curvature="0" />
	<path style="fill:none;stroke:red;stroke-width:1px;stroke-linecap:butt;stroke-linejoin:miter;stroke-opacity:1" d="M 142.189,334.667 181.672,369.214 z" id="boundary" inkscape:connector-curvature="0" />
	<path style="fill:none;stroke:red;stroke-width:1px;stroke-linecap:butt;stroke-linejoin:miter;stroke-opacity:1" d="M 161.93,152.06 211.284,161.93 z" id="boundary" inkscape:connector-curvature="0" />
	<path style="fill:none;stroke:red;stroke-width:1px;stroke-linecap:butt;stroke-linejoin:miter;stroke-opacity:1" d="M 181.672,369.214 216.219,408.697 z" id="boundary" inkscape:connector-curvature="0" />
	<path style="fill:none;stroke:red;stroke-width:1px;stroke-linecap:butt;stroke-linejoin:miter;stroke-opacity:1" d="M 211.284,161.93 260.637,161.93 z" id="boundary" inkscape:connector-curvature="0" />
	<path style="fill:none;stroke:red;stroke-width:1px;stroke-linecap:butt;stroke-linejoin:miter;stroke-opacity:1" d="M 216.219,408.697 265.572,423.502 z" id="boundary" inkscape:connector-curvature="0" />
	<path style="fill:none;stroke:red;stroke-width:1px;stroke-linecap:butt;stroke-linejoin:miter;stroke-opacity:1" d="M 250.766,951.582 275.443,996 z" id="boundary" inkscape:connector-curvature="0" />
	<path style="fill:none;stroke:red;stroke-width:1px;stroke-linecap:butt;stroke-linejoin:miter;stroke-opacity:1" d="M 250.766,951.582 280.378,902.229 z" id="boundary" inkscape:connector-curvature="0" />
	<path style="fill:none;stroke:red;stroke-width:1px;stroke-linecap:butt;stroke-linejoin:miter;stroke-opacity:1" d="M 260.637,161.93 309.99,161.93 z" id="boundary" inkscape:connector-curvature="0" />
	<path style="fill:none;stroke:red;stroke-width:1px;stroke-linecap:butt;stroke-linejoin:miter;stroke-opacity:1" d="M 265.572,423.502 309.99,448.179 z" id="boundary" inkscape:connector-curvature="0" />
	<path style="fill:none;stroke:red;stroke-width:1px;stroke-linecap:butt;stroke-linejoin:miter;stroke-opacity:1" d="M 275.443,996 324.796,996 z" id="boundary" inkscape:connector-curvature="0" />
	<path style="fill:none;stroke:red;stroke-width:1px;stroke-linecap:butt;stroke-linejoin:miter;stroke-opacity:1" d="M 280.378,902.229 309.99,843.005 z" id="boundary" inkscape:connector-curvature="0" />
	<path style="fill:none;stroke:red;stroke-width:1px;stroke-linecap:butt;stroke-linejoin:miter;stroke-opacity:1" d="M 309.99,161.93 339.602,4 z" id="boundary" inkscape:connector-curvature="0" />
	<path style="fill:none;stroke:red;stroke-width:1px;stroke-linecap:butt;stroke-linejoin:miter;stroke-opacity:1" d="M 309.99,448.179 309.99,497.532 z" id="boundary" inkscape:connector-curvature="0" />
	<path style="fill:none;stroke:red;stroke-width:1px;stroke-linecap:butt;stroke-linejoin:miter;stroke-opacity:1" d="M 309.99,497.532 309.99,546.886 z" id="boundary" inkscape:connector-curvature="0" />
	<path style="fill:none;stroke:red;stroke-width:1px;stroke-linecap:butt;stroke-linejoin:miter;stroke-opacity:1" d="M 309.99,546.886 309.99,596.239 z" id="boundary" inkscape:connector-curvature="0" />
	<path style="fill:none;stroke:red;stroke-width:1px;stroke-linecap:butt;stroke-linejoin:miter;stroke-opacity:1" d="M 309.99,596.239 309.99,645.592 z" id="boundary" inkscape:connector-curvature="0" />
	<path style="fill:none;stroke:red;stroke-width:1px;stroke-linecap:butt;stroke-linejoin:miter;stroke-opacity:1" d="M 309.99,645.592 309.99,694.945 z" id="boundary" inkscape:connector-curvature="0" />
	<path style="fill:none;stroke:red;stroke-width:1px;stroke-linecap:butt;stroke-linejoin:miter;stroke-opacity:1" d="M 309.99,694.945 309.99,744.299 z" id="boundary" inkscape:connector-curvature="0" />
	<path style="fill:none;stroke:red;stroke-width:1px;stroke-linecap:butt;stroke-linejoin:miter;stroke-opacity:1" d="M 309.99,744.299 309.99,793.652 z" id="boundary" inkscape:connector-curvature="0" />
	<path style="fill:none;stroke:red;stroke-width:1px;stroke-linecap:butt;stroke-linejoin:miter;stroke-opacity:1" d="M 309.99,793.652 309.99,843.005 z" id="boundary" inkscape:connector-curvature="0" />
	<path style="fill:none;stroke:red;stroke-width:1px;stroke-linecap:butt;stroke-linejoin:miter;stroke-opacity:1" d="M 324.796,996 374.149,996 z" id="boundary" inkscape:connector-curvature="0" />
	<path style="fill:none;stroke:red;stroke-width:1px;stroke-linecap:butt;stroke-linejoin:miter;stroke-opacity:1" d="M 339.602,4 339.602,53.3532 z" id="boundary" inkscape:connector-curvature="0" />
	<path style="fill:none;stroke:red;stroke-width:1px;stroke-linecap:butt;stroke-linejoin:miter;stroke-opacity:1" d="M 339.602,53.3532 339.602,102.706 z" id="boundary" inkscape:connector-curvature="0" />
	<path style="fill:none;stroke:red;stroke-width:1px;stroke-linecap:butt;stroke-linejoin:miter;stroke-opacity:1" d="M 339.602,102.706 364.279,147.124 z" id="boundary" inkscape:connector-curvature="0" />
	<path style="fill:none;stroke:red;stroke-width:1px;stroke-linecap:butt;stroke-linejoin:miter;stroke-opacity:1" d="M 364.279,147.124 413.632,161.93 z" id="boundary" inkscape:connector-curvature="0" />
	<path style="fill:none;stroke:red;stroke-width:1px;stroke-linecap:butt;stroke-linejoin:miter;stroke-opacity:1" d="M 374.149,996 423.502,996 z" id="boundary" inkscape:connector-curvature="0" />
	<path style="fill:none;stroke:red;stroke-width:1px;stroke-linecap:butt;stroke-linejoin:miter;stroke-opacity:1" d="M 413.632,161.93 462.985,161.93 z" id="boundary" inkscape:connector-curvature="0" />
	<path style="fill:none;stroke:red;stroke-width:1px;stroke-linecap:butt;stroke-linejoin:miter;stroke-opacity:1" d="M 423.502,996 472.856,996 z" id="boundary" inkscape:connector-curvature="0" />
	<path style="fill:none;stroke:red;stroke-width:1px;stroke-linecap:butt;stroke-linejoin:miter;stroke-opacity:1" d="M 462.985,161.93 512.338,152.06 z" id="boundary" inkscape:connector-curvature="0" />
	<path style="fill:none;stroke:red;stroke-width:1px;stroke-linecap:butt;stroke-linejoin:miter;stroke-opacity:1" d="M 472.856,996 522.209,996 z" id="boundary" inkscape:connector-curvature="0" />
	<path style="fill:none;stroke:red;stroke-width:1px;stroke-linecap:butt;stroke-linejoin:miter;stroke-opacity:1" d="M 482.726,438.308 482.726,487.662 z" id="boundary" inkscape:connector-curvature="0" />
	<path style="fill:none;stroke:red;stroke-width:1px;stroke-linecap:butt;stroke-linejoin:miter;stroke-opacity:1" d="M 482.726,438.308 527.144,413.632 z" id="boundary" inkscape:connector-curvature="0" />
	<path style="fill:none;stroke:red;stroke-width:1px;stroke-linecap:butt;stroke-linejoin:miter;stroke-opacity:1" d="M 482.726,487.662 482.726,537.015 z" id="boundary" inkscape:connector-curvature="0" />
	<path style="fill:none;stroke:red;stroke-width:1px;stroke-linecap:butt;stroke-linejoin:miter;stroke-opacity:1" d="M 482.726,537.015 482.726,586.368 z" id="boundary" inkscape:connector-curvature="0" />
	<path style="fill:none;stroke:red;stroke-width:1px;stroke-linecap:butt;stroke-linejoin:miter;stroke-opacity:1" d="M 482.726,586.368 482.726,635.721 z" id="boundary" inkscape:connector-curvature="0" />
	<path style="fill:none;stroke:red;stroke-width:1px;stroke-linecap:butt;stroke-linejoin:miter;stroke-opacity:1" d="M 482.726,635.721 482.726,685.075 z" id="boundary" inkscape:connector-curvature="0" />
	<path style="fill:none;stroke:red;stroke-width:1px;stroke-linecap:butt;stroke-linejoin:miter;stroke-opacity:1" d="M 482.726,685.075 482.726,734.428 z" id="boundary" inkscape:connector-curvature="0" />
	<path style="fill:none;stroke:red;stroke-width:1px;stroke-linecap:butt;stroke-linejoin:miter;stroke-opacity:1" d="M 482.726,734.428 482.726,783.781 z" id="boundary" inkscape:connector-curvature="0" />
	<path style="fill:none;stroke:red;stroke-width:1px;stroke-linecap:butt;stroke-linejoin:miter;stroke-opacity:1" d="M 482.726,783.781 482.726,833.134 z" id="boundary" inkscape:connector-curvature="0" />
	<path style="fill:none;stroke:red;stroke-width:1px;stroke-linecap:butt;stroke-linejoin:miter;stroke-opacity:1" d="M 482.726,833.134 492.597,882.488 z" id="boundary" inkscape:connector-curvature="0" />
	<path style="fill:none;stroke:red;stroke-width:1px;stroke-linecap:butt;stroke-linejoin:miter;stroke-opacity:1" d="M 492.597,882.488 517.274,926.905 z" id="boundary" inkscape:connector-curvature="0" />
	<path style="fill:none;stroke:red;stroke-width:1px;stroke-linecap:butt;stroke-linejoin:miter;stroke-opacity:1" d="M 512.338,152.06 561.692,152.06 z" id="boundary" inkscape:connector-curvature="0" />
	<path style="fill:none;stroke:red;stroke-width:1px;stroke-linecap:butt;stroke-linejoin:miter;stroke-opacity:1" d="M 517.274,926.905 522.209,996 z" id="boundary" inkscape:connector-curvature="0" />
	<path style="fill:none;stroke:red;stroke-width:1px;stroke-linecap:butt;stroke-linejoin:miter;stroke-opacity:1" d="M 527.144,413.632 571.562,388.955 z" id="boundary" inkscape:connector-curvature="0" />
	<path style="fill:none;stroke:red;stroke-width:1px;stroke-linecap:butt;stroke-linejoin:miter;stroke-opacity:1" d="M 561.692,152.06 611.045,152.06 z" id="boundary" inkscape:connector-curvature="0" />
	<path style="fill:none;stroke:red;stroke-width:1px;stroke-linecap:butt;stroke-linejoin:miter;stroke-opacity:1" d="M 571.562,388.955 611.045,349.473 z" id="boundary" inkscape:connector-curvature="0" />
	<path style="fill:none;stroke:red;stroke-width:1px;stroke-linecap:butt;stroke-linejoin:miter;stroke-opacity:1" d="M 611.045,152.06 660.398,152.06 z" id="boundary" inkscape:connector-curvature="0" />
	<path style="fill:none;stroke:red;stroke-width:1px;stroke-linecap:butt;stroke-linejoin:miter;stroke-opacity:1" d="M 611.045,349.473 635.721,305.055 z" id="boundary" inkscape:connector-curvature="0" />
	<path style="fill:none;stroke:red;stroke-width:1px;stroke-linecap:butt;stroke-linejoin:miter;stroke-opacity:1" d="M 635.721,305.055 685.075,305.055 z" id="boundary" inkscape:connector-curvature="0" />
	<path style="fill:none;stroke:red;stroke-width:1px;stroke-linecap:butt;stroke-linejoin:miter;stroke-opacity:1" d="M 660.398,152.06 709.751,152.06 z" id="boundary" inkscape:connector-curvature="0" />
	<path style="fill:none;stroke:red;stroke-width:1px;stroke-linecap:butt;stroke-linejoin:miter;stroke-opacity:1" d="M 685.075,305.055 734.428,305.055 z" id="boundary" inkscape:connector-curvature="0" />
	<path style="fill:none;stroke:red;stroke-width:1px;stroke-linecap:butt;stroke-linejoin:miter;stroke-opacity:1" d="M 709.751,152.06 709.751,201.413 z" id="boundary" inkscape:connector-curvature="0" />
	<path style="fill:none;stroke:red;stroke-width:1px;stroke-linecap:butt;stroke-linejoin:miter;stroke-opacity:1" d="M 709.751,201.413 714.687,250.766 z" id="boundary" inkscape:connector-curvature="0" />
	<path style="fill:none;stroke:red;stroke-width:1px;stroke-linecap:butt;stroke-linejoin:miter;stroke-opacity:1" d="M 714.687,250.766 734.428,305.055 z" id="boundary" inkscape:connector-curvature="0" />
	<circle cx="4" cy="290.249" r="4" fill="#0" id="circle0"/>
	<circle cx="13.8706" cy="152.06" r="4" fill="#0" id="circle1"/>
	<circle cx="13.8706" cy="201.413" r="4" fill="#0" id="circle2"/>
	<circle cx="53.3532" cy="305.055" r="4" fill="#0" id="circle3"/>
	<circle cx="63.2239" cy="152.06" r="4" fill="#0" id="circle4"/>
	<circle cx="102.706" cy="305.055" r="4" fill="#0" id="circle5"/>
	<circle cx="112.577" cy="152.06" r="4" fill="#0" id="circle6"/>
	<circle cx="142.189" cy="334.667" r="4" fill="#0" id="circle7"/>
	<circle cx="161.93" cy="152.06" r="4" fill="#0" id="circle8"/>
	<circle cx="181.672" cy="369.214" r="4" fill="#0" id="circle9"/>
	<circle cx="211.284" cy="161.93" r="4" fill="#0" id="circle10"/>
	<circle cx="216.219" cy="408.697" r="4" fill="#0" id="circle11"/>
	<circle cx="250.766" cy="951.582" r="4" fill="#0" id="circle12"/>
	<circle cx="260.637" cy="161.93" r="4" fill="#0" id="circle13"/>
	<circle cx="265.572" cy="423.502" r="4" fill="#0" id="circle14"/>
	<circle cx="275.443" cy="996" r="4" fill="#0" id="circle15"/>
	<circle cx="280.378" cy="902.229" r="4" fill="#0" id="circle16"/>
	<circle cx="309.99" cy="161.93" r="4" fill="#0" id="circle17"/>
	<circle cx="309.99" cy="448.179" r="4" fill="#0" id="circle18"/>
	<circle cx="309.99" cy="497.532" r="4" fill="#0" id="circle19"/>
	<circle cx="309.99" cy="546.886" r="4" fill="#0" id="circle20"/>
	<circle cx="309.99" cy="596.239" r="4" fill="#0" id="circle21"/>
	<circle cx="309.99" cy="645.592" r="4" fill="#0" id="circle22"/>
	<circle cx="309.99" cy="694.945" r="4" fill="#0" id="circle23"/>
	<circle cx="309.99" cy="744.299" r="4" fill="#0" id="circle24"/>
	<circle cx="309.99" cy="793.652" r="4" fill="#0" id="circle25"/>
	<circle cx="309.99" cy="843.005" r="4" fill="#0" id="circle26"/>
	<circle cx="324.796" cy="996" r="4" fill="#0" id="circle27"/>
	<circle cx="339.602" cy="4" r="4" fill="#0" id="circle28"/>
	<circle cx="339.602" cy="53.3532" r="4" fill="#0" id="circle29"/>
	<circle cx="339.602" cy="102.706" r="4" fill="#0" id="circle30"/>
	<circle cx="364.279" cy="147.124" r="4" fill="#0" id="circle31"/>
	<circle cx="374.149" cy="996" r="4" fill="#0" id="circle32"/>
	<circle cx="384.02" cy="78.0299" r="4" fill="#0" id="circle33"/>
	<circle cx="388.955" cy="8.93532" r="4" fill="#0" id="circle34"/>
	<circle cx="413.632" cy="161.93" r="4" fill="#0" id="circle35"/>
	<circle cx="423.502" cy="996" r="4" fill="#0" id="circle36"/>
	<circle cx="462.985" cy="161.93" r="4" fill="#0" id="circle37"/>
	<circle cx="472.856" cy="996" r="4" fill="#0" id="circle38"/>
	<circle cx="482.726" cy="438.308" r="4" fill="#0" id="circle39"/>
	<circle cx="482.726" cy="487.662" r="4" fill="#0" id="circle40"/>
	<circle cx="482.726" cy="537.015" r="4" fill="#0" id="circle41"/>
	<circle cx="482.726" cy="586.368" r="4" fill="#0" id="circle42"/>
	<circle cx="482.726" cy="635.721" r="4" fill="#0" id="circle43"/>
	<circle cx="482.726" cy="685.075" r="4" fill="#0" id="circle44"/>
	<circle cx="482.726" cy="734.428" r="4" fill="#0" id="circle45"/>
	<circle cx="482.726" cy="783.781" r="4" fill="#0" id="circle46"/>
	<circle cx="482.726" cy="833.134" r="4" fill="#0" id="circle47"/>
	<circle cx="492.597" cy="882.488" r="4" fill="#0" id="circle48"/>
	<circle cx="512.338" cy="152.06" r="4" fill="#0" id="circle49"/>
	<circle cx="517.274" cy="926.905" r="4" fill="#0" id="circle50"/>
	<circle cx="522.209" cy="996" r="4" fill="#0" id="circle51"/>
	<circle cx="527.144" cy="413.632" r="4" fill="#0" id="circle52"/>
	<circle cx="561.692" cy="152.06" r="4" fill="#0" id="circle53"/>
	<circle cx="571.562" cy="388.955" r="4" fill="#0" id="circle54"/>
	<circle cx="611.045" cy="152.06" r="4" fill="#0" id="circle55"/>
	<circle cx="611.045" cy="349.473" r="4" fill="#0" id="circle56"/>
	<circle cx="635.721" cy="305.055" r="4" fill="#0" id="circle57"/>
	<circle cx="660.398" cy="152.06" r="4" fill="#0" id="circle58"/>
	<circle cx="685.075" cy="305.055" r="4" fill="#0" id="circle59"/>
	<circle cx="709.751" cy="152.06" r="4" fill="#0" id="circle60"/>
	<circle cx="709.751" cy="201.413" r="4" fill="#0" id="circle61"/>
	<circle cx="714.687" cy="250.766" r="4" fill="#0" id="circle62"/>
	<circle cx="734.428" cy="305.055" r="4" fill="#0" id="circle63"/>
	</g>
</svg>