<?xml version="1.0" encoding="UTF-8" standalone="no"?>
<!-- Created with CurveBenchmark -->
<svg
	xmlns:dc="http://purl.org/dc/elements/1.1/"
	xmlns:cc="http://creativecommons.org/ns#"
	xmlns:rdf="http://www.w3.org/1999/02/22-rdf-syntax-ns#"
	xmlns:svg="http://www.w3.org/2000/svg"
	xmlns="http://www.w3.org/2000/svg"
	xmlns:sodipodi="http://sodipodi.sourceforge.net/DTD/sodipodi-0.dtd"
	xmlns:inkscape="http://www.inkscape.org/namespaces/inkscape"
	width="1000"
	height="1000"
	id="svg2"
	version="1.1"
	sodipodi:docname="manifold/fitconnect-bed010.png.txt">
<defs
	id="defs4" />
<metadata
	id="metadata7">
	<rdf:RDF>
		<cc:Work
			rdf:about="">
			<dc:format>image/svg+xml</dc:format>
			<dc:type
				rdf:resource="http://purl.org/dc/dcmitype/StillImage" />
			<dc:title></dc:title>
		</cc:Work>
	</rdf:RDF>
</metadata>
<g
	inkscape:label="Layer 1"
	inkscape:groupmode="layer"
	id="layer1">
	<path style="fill:none;stroke:red;stroke-width:1px;stroke-linecap:butt;stroke-linejoin:miter;stroke-opacity:1" d="M 4,168.224 4,190.416 z" id="boundary" inkscape:connector-curvature="0" />
	<path style="fill:none;stroke:red;stroke-width:1px;stroke-linecap:butt;stroke-linejoin:miter;stroke-opacity:1" d="M 4,168.224 17.3154,150.47 z" id="boundary" inkscape:connector-curvature="0" />
	<path style="fill:none;stroke:red;stroke-width:1px;stroke-linecap:butt;stroke-linejoin:miter;stroke-opacity:1" d="M 4,190.416 15.0962,210.389 z" id="boundary" inkscape:connector-curvature="0" />
	<path style="fill:none;stroke:red;stroke-width:1px;stroke-linecap:butt;stroke-linejoin:miter;stroke-opacity:1" d="M 8.43848,470.04 8.43848,492.233 z" id="boundary" inkscape:connector-curvature="0" />
	<path style="fill:none;stroke:red;stroke-width:1px;stroke-linecap:butt;stroke-linejoin:miter;stroke-opacity:1" d="M 8.43848,470.04 12.877,438.971 z" id="boundary" inkscape:connector-curvature="0" />
	<path style="fill:none;stroke:red;stroke-width:1px;stroke-linecap:butt;stroke-linejoin:miter;stroke-opacity:1" d="M 8.43848,492.233 8.43848,514.425 z" id="boundary" inkscape:connector-curvature="0" />
	<path style="fill:none;stroke:red;stroke-width:1px;stroke-linecap:butt;stroke-linejoin:miter;stroke-opacity:1" d="M 8.43848,514.425 8.43848,536.617 z" id="boundary" inkscape:connector-curvature="0" />
	<path style="fill:none;stroke:red;stroke-width:1px;stroke-linecap:butt;stroke-linejoin:miter;stroke-opacity:1" d="M 8.43848,536.617 8.43848,558.81 z" id="boundary" inkscape:connector-curvature="0" />
	<path style="fill:none;stroke:red;stroke-width:1px;stroke-linecap:butt;stroke-linejoin:miter;stroke-opacity:1" d="M 8.43848,558.81 12.877,581.002 z" id="boundary" inkscape:connector-curvature="0" />
	<path style="fill:none;stroke:red;stroke-width:1px;stroke-linecap:butt;stroke-linejoin:miter;stroke-opacity:1" d="M 8.43848,616.51 8.43848,638.702 z" id="boundary" inkscape:connector-curvature="0" />
	<path style="fill:none;stroke:red;stroke-width:1px;stroke-linecap:butt;stroke-linejoin:miter;stroke-opacity:1" d="M 8.43848,616.51 12.877,581.002 z" id="boundary" inkscape:connector-curvature="0" />
	<path style="fill:none;stroke:red;stroke-width:1px;stroke-linecap:butt;stroke-linejoin:miter;stroke-opacity:1" d="M 8.43848,638.702 12.877,660.895 z" id="boundary" inkscape:connector-curvature="0" />
	<path style="fill:none;stroke:red;stroke-width:1px;stroke-linecap:butt;stroke-linejoin:miter;stroke-opacity:1" d="M 12.877,438.971 17.3154,403.463 z" id="boundary" inkscape:connector-curvature="0" />
	<path style="fill:none;stroke:red;stroke-width:1px;stroke-linecap:butt;stroke-linejoin:miter;stroke-opacity:1" d="M 12.877,660.895 15.0962,683.087 z" id="boundary" inkscape:connector-curvature="0" />
	<path style="fill:none;stroke:red;stroke-width:1px;stroke-linecap:butt;stroke-linejoin:miter;stroke-opacity:1" d="M 15.0962,210.389 21.7539,232.582 z" id="boundary" inkscape:connector-curvature="0" />
	<path style="fill:none;stroke:red;stroke-width:1px;stroke-linecap:butt;stroke-linejoin:miter;stroke-opacity:1" d="M 15.0962,683.087 37.2886,678.649 z" id="boundary" inkscape:connector-curvature="0" />
	<path style="fill:none;stroke:red;stroke-width:1px;stroke-linecap:butt;stroke-linejoin:miter;stroke-opacity:1" d="M 17.3154,150.47 35.0694,137.154 z" id="boundary" inkscape:connector-curvature="0" />
	<path style="fill:none;stroke:red;stroke-width:1px;stroke-linecap:butt;stroke-linejoin:miter;stroke-opacity:1" d="M 17.3154,403.463 21.7539,372.394 z" id="boundary" inkscape:connector-curvature="0" />
	<path style="fill:none;stroke:red;stroke-width:1px;stroke-linecap:butt;stroke-linejoin:miter;stroke-opacity:1" d="M 21.7539,232.582 26.1924,254.774 z" id="boundary" inkscape:connector-curvature="0" />
	<path style="fill:none;stroke:red;stroke-width:1px;stroke-linecap:butt;stroke-linejoin:miter;stroke-opacity:1" d="M 21.7539,372.394 26.1924,343.544 z" id="boundary" inkscape:connector-curvature="0" />
	<path style="fill:none;stroke:red;stroke-width:1px;stroke-linecap:butt;stroke-linejoin:miter;stroke-opacity:1" d="M 26.1924,254.774 26.1924,276.966 z" id="boundary" inkscape:connector-curvature="0" />
	<path style="fill:none;stroke:red;stroke-width:1px;stroke-linecap:butt;stroke-linejoin:miter;stroke-opacity:1" d="M 26.1924,276.966 26.1924,299.159 z" id="boundary" inkscape:connector-curvature="0" />
	<path style="fill:none;stroke:red;stroke-width:1px;stroke-linecap:butt;stroke-linejoin:miter;stroke-opacity:1" d="M 26.1924,299.159 26.1924,321.351 z" id="boundary" inkscape:connector-curvature="0" />
	<path style="fill:none;stroke:red;stroke-width:1px;stroke-linecap:butt;stroke-linejoin:miter;stroke-opacity:1" d="M 26.1924,321.351 26.1924,343.544 z" id="boundary" inkscape:connector-curvature="0" />
	<path style="fill:none;stroke:red;stroke-width:1px;stroke-linecap:butt;stroke-linejoin:miter;stroke-opacity:1" d="M 35.0694,137.154 57.2617,128.277 z" id="boundary" inkscape:connector-curvature="0" />
	<path style="fill:none;stroke:red;stroke-width:1px;stroke-linecap:butt;stroke-linejoin:miter;stroke-opacity:1" d="M 37.2886,678.649 41.7271,652.018 z" id="boundary" inkscape:connector-curvature="0" />
	<path style="fill:none;stroke:red;stroke-width:1px;stroke-linecap:butt;stroke-linejoin:miter;stroke-opacity:1" d="M 41.7271,629.826 41.7271,652.018 z" id="boundary" inkscape:connector-curvature="0" />
	<path style="fill:none;stroke:red;stroke-width:1px;stroke-linecap:butt;stroke-linejoin:miter;stroke-opacity:1" d="M 41.7271,629.826 46.1655,598.756 z" id="boundary" inkscape:connector-curvature="0" />
	<path style="fill:none;stroke:red;stroke-width:1px;stroke-linecap:butt;stroke-linejoin:miter;stroke-opacity:1" d="M 46.1655,598.756 68.3579,600.975 z" id="boundary" inkscape:connector-curvature="0" />
	<path style="fill:none;stroke:red;stroke-width:1px;stroke-linecap:butt;stroke-linejoin:miter;stroke-opacity:1" d="M 57.2617,128.277 79.4541,119.4 z" id="boundary" inkscape:connector-curvature="0" />
	<path style="fill:none;stroke:red;stroke-width:1px;stroke-linecap:butt;stroke-linejoin:miter;stroke-opacity:1" d="M 68.3579,600.975 90.5503,600.975 z" id="boundary" inkscape:connector-curvature="0" />
	<path style="fill:none;stroke:red;stroke-width:1px;stroke-linecap:butt;stroke-linejoin:miter;stroke-opacity:1" d="M 79.4541,119.4 101.647,114.962 z" id="boundary" inkscape:connector-curvature="0" />
	<path style="fill:none;stroke:red;stroke-width:1px;stroke-linecap:butt;stroke-linejoin:miter;stroke-opacity:1" d="M 90.5503,600.975 112.743,600.975 z" id="boundary" inkscape:connector-curvature="0" />
	<path style="fill:none;stroke:red;stroke-width:1px;stroke-linecap:butt;stroke-linejoin:miter;stroke-opacity:1" d="M 101.647,114.962 123.839,106.085 z" id="boundary" inkscape:connector-curvature="0" />
	<path style="fill:none;stroke:red;stroke-width:1px;stroke-linecap:butt;stroke-linejoin:miter;stroke-opacity:1" d="M 112.743,600.975 134.935,600.975 z" id="boundary" inkscape:connector-curvature="0" />
	<path style="fill:none;stroke:red;stroke-width:1px;stroke-linecap:butt;stroke-linejoin:miter;stroke-opacity:1" d="M 123.839,106.085 146.031,101.647 z" id="boundary" inkscape:connector-curvature="0" />
	<path style="fill:none;stroke:red;stroke-width:1px;stroke-linecap:butt;stroke-linejoin:miter;stroke-opacity:1" d="M 134.935,600.975 150.47,618.729 z" id="boundary" inkscape:connector-curvature="0" />
	<path style="fill:none;stroke:red;stroke-width:1px;stroke-linecap:butt;stroke-linejoin:miter;stroke-opacity:1" d="M 146.031,101.647 168.224,97.2081 z" id="boundary" inkscape:connector-curvature="0" />
	<path style="fill:none;stroke:red;stroke-width:1px;stroke-linecap:butt;stroke-linejoin:miter;stroke-opacity:1" d="M 150.47,618.729 150.47,640.922 z" id="boundary" inkscape:connector-curvature="0" />
	<path style="fill:none;stroke:red;stroke-width:1px;stroke-linecap:butt;stroke-linejoin:miter;stroke-opacity:1" d="M 150.47,640.922 150.47,674.21 z" id="boundary" inkscape:connector-curvature="0" />
	<path style="fill:none;stroke:red;stroke-width:1px;stroke-linecap:butt;stroke-linejoin:miter;stroke-opacity:1" d="M 150.47,674.21 168.224,689.745 z" id="boundary" inkscape:connector-curvature="0" />
	<path style="fill:none;stroke:red;stroke-width:1px;stroke-linecap:butt;stroke-linejoin:miter;stroke-opacity:1" d="M 168.224,97.2081 190.416,92.7696 z" id="boundary" inkscape:connector-curvature="0" />
	<path style="fill:none;stroke:red;stroke-width:1px;stroke-linecap:butt;stroke-linejoin:miter;stroke-opacity:1" d="M 168.224,689.745 183.758,660.895 z" id="boundary" inkscape:connector-curvature="0" />
	<path style="fill:none;stroke:red;stroke-width:1px;stroke-linecap:butt;stroke-linejoin:miter;stroke-opacity:1" d="M 183.758,660.895 188.197,625.387 z" id="boundary" inkscape:connector-curvature="0" />
	<path style="fill:none;stroke:red;stroke-width:1px;stroke-linecap:butt;stroke-linejoin:miter;stroke-opacity:1" d="M 188.197,625.387 205.951,609.852 z" id="boundary" inkscape:connector-curvature="0" />
	<path style="fill:none;stroke:red;stroke-width:1px;stroke-linecap:butt;stroke-linejoin:miter;stroke-opacity:1" d="M 190.416,92.7696 212.609,88.3311 z" id="boundary" inkscape:connector-curvature="0" />
	<path style="fill:none;stroke:red;stroke-width:1px;stroke-linecap:butt;stroke-linejoin:miter;stroke-opacity:1" d="M 205.951,609.852 228.143,609.852 z" id="boundary" inkscape:connector-curvature="0" />
	<path style="fill:none;stroke:red;stroke-width:1px;stroke-linecap:butt;stroke-linejoin:miter;stroke-opacity:1" d="M 212.609,88.3311 234.801,83.8926 z" id="boundary" inkscape:connector-curvature="0" />
	<path style="fill:none;stroke:red;stroke-width:1px;stroke-linecap:butt;stroke-linejoin:miter;stroke-opacity:1" d="M 228.143,609.852 250.336,609.852 z" id="boundary" inkscape:connector-curvature="0" />
	<path style="fill:none;stroke:red;stroke-width:1px;stroke-linecap:butt;stroke-linejoin:miter;stroke-opacity:1" d="M 234.801,83.8926 256.993,79.4541 z" id="boundary" inkscape:connector-curvature="0" />
	<path style="fill:none;stroke:red;stroke-width:1px;stroke-linecap:butt;stroke-linejoin:miter;stroke-opacity:1" d="M 250.336,609.852 272.528,614.291 z" id="boundary" inkscape:connector-curvature="0" />
	<path style="fill:none;stroke:red;stroke-width:1px;stroke-linecap:butt;stroke-linejoin:miter;stroke-opacity:1" d="M 256.993,79.4541 274.747,66.1387 z" id="boundary" inkscape:connector-curvature="0" />
	<path style="fill:none;stroke:red;stroke-width:1px;stroke-linecap:butt;stroke-linejoin:miter;stroke-opacity:1" d="M 272.528,614.291 294.72,618.729 z" id="boundary" inkscape:connector-curvature="0" />
	<path style="fill:none;stroke:red;stroke-width:1px;stroke-linecap:butt;stroke-linejoin:miter;stroke-opacity:1" d="M 274.747,66.1387 296.94,57.2617 z" id="boundary" inkscape:connector-curvature="0" />
	<path style="fill:none;stroke:red;stroke-width:1px;stroke-linecap:butt;stroke-linejoin:miter;stroke-opacity:1" d="M 294.72,618.729 316.913,627.606 z" id="boundary" inkscape:connector-curvature="0" />
	<path style="fill:none;stroke:red;stroke-width:1px;stroke-linecap:butt;stroke-linejoin:miter;stroke-opacity:1" d="M 296.94,57.2617 319.132,48.3848 z" id="boundary" inkscape:connector-curvature="0" />
	<path style="fill:none;stroke:red;stroke-width:1px;stroke-linecap:butt;stroke-linejoin:miter;stroke-opacity:1" d="M 316.913,627.606 336.886,614.291 z" id="boundary" inkscape:connector-curvature="0" />
	<path style="fill:none;stroke:red;stroke-width:1px;stroke-linecap:butt;stroke-linejoin:miter;stroke-opacity:1" d="M 319.132,48.3848 341.324,43.9463 z" id="boundary" inkscape:connector-curvature="0" />
	<path style="fill:none;stroke:red;stroke-width:1px;stroke-linecap:butt;stroke-linejoin:miter;stroke-opacity:1" d="M 336.886,614.291 359.078,605.414 z" id="boundary" inkscape:connector-curvature="0" />
	<path style="fill:none;stroke:red;stroke-width:1px;stroke-linecap:butt;stroke-linejoin:miter;stroke-opacity:1" d="M 341.324,43.9463 352.421,23.9732 z" id="boundary" inkscape:connector-curvature="0" />
	<path style="fill:none;stroke:red;stroke-width:1px;stroke-linecap:butt;stroke-linejoin:miter;stroke-opacity:1" d="M 352.421,23.9732 367.955,4 z" id="boundary" inkscape:connector-curvature="0" />
	<path style="fill:none;stroke:red;stroke-width:1px;stroke-linecap:butt;stroke-linejoin:miter;stroke-opacity:1" d="M 359.078,605.414 381.271,605.414 z" id="boundary" inkscape:connector-curvature="0" />
	<path style="fill:none;stroke:red;stroke-width:1px;stroke-linecap:butt;stroke-linejoin:miter;stroke-opacity:1" d="M 367.955,4 390.148,4 z" id="boundary" inkscape:connector-curvature="0" />
	<path style="fill:none;stroke:red;stroke-width:1px;stroke-linecap:butt;stroke-linejoin:miter;stroke-opacity:1" d="M 381.271,605.414 403.463,607.633 z" id="boundary" inkscape:connector-curvature="0" />
	<path style="fill:none;stroke:red;stroke-width:1px;stroke-linecap:butt;stroke-linejoin:miter;stroke-opacity:1" d="M 390.148,4 410.121,15.0962 z" id="boundary" inkscape:connector-curvature="0" />
	<path style="fill:none;stroke:red;stroke-width:1px;stroke-linecap:butt;stroke-linejoin:miter;stroke-opacity:1" d="M 403.463,607.633 425.655,614.291 z" id="boundary" inkscape:connector-curvature="0" />
	<path style="fill:none;stroke:red;stroke-width:1px;stroke-linecap:butt;stroke-linejoin:miter;stroke-opacity:1" d="M 410.121,15.0962 427.875,28.4116 z" id="boundary" inkscape:connector-curvature="0" />
	<path style="fill:none;stroke:red;stroke-width:1px;stroke-linecap:butt;stroke-linejoin:miter;stroke-opacity:1" d="M 425.655,614.291 447.848,620.949 z" id="boundary" inkscape:connector-curvature="0" />
	<path style="fill:none;stroke:red;stroke-width:1px;stroke-linecap:butt;stroke-linejoin:miter;stroke-opacity:1" d="M 427.875,28.4116 445.629,43.9463 z" id="boundary" inkscape:connector-curvature="0" />
	<path style="fill:none;stroke:red;stroke-width:1px;stroke-linecap:butt;stroke-linejoin:miter;stroke-opacity:1" d="M 445.629,43.9463 467.821,52.8233 z" id="boundary" inkscape:connector-curvature="0" />
	<path style="fill:none;stroke:red;stroke-width:1px;stroke-linecap:butt;stroke-linejoin:miter;stroke-opacity:1" d="M 447.848,620.949 470.04,629.826 z" id="boundary" inkscape:connector-curvature="0" />
	<path style="fill:none;stroke:red;stroke-width:1px;stroke-linecap:butt;stroke-linejoin:miter;stroke-opacity:1" d="M 467.821,52.8233 490.013,61.7002 z" id="boundary" inkscape:connector-curvature="0" />
	<path style="fill:none;stroke:red;stroke-width:1px;stroke-linecap:butt;stroke-linejoin:miter;stroke-opacity:1" d="M 470.04,629.826 492.233,636.483 z" id="boundary" inkscape:connector-curvature="0" />
	<path style="fill:none;stroke:red;stroke-width:1px;stroke-linecap:butt;stroke-linejoin:miter;stroke-opacity:1" d="M 490.013,61.7002 505.548,79.4541 z" id="boundary" inkscape:connector-curvature="0" />
	<path style="fill:none;stroke:red;stroke-width:1px;stroke-linecap:butt;stroke-linejoin:miter;stroke-opacity:1" d="M 492.233,636.483 514.425,643.141 z" id="boundary" inkscape:connector-curvature="0" />
	<path style="fill:none;stroke:red;stroke-width:1px;stroke-linecap:butt;stroke-linejoin:miter;stroke-opacity:1" d="M 505.548,79.4541 527.74,83.8926 z" id="boundary" inkscape:connector-curvature="0" />
	<path style="fill:none;stroke:red;stroke-width:1px;stroke-linecap:butt;stroke-linejoin:miter;stroke-opacity:1" d="M 514.425,643.141 536.617,647.579 z" id="boundary" inkscape:connector-curvature="0" />
	<path style="fill:none;stroke:red;stroke-width:1px;stroke-linecap:butt;stroke-linejoin:miter;stroke-opacity:1" d="M 527.74,83.8926 549.933,88.3311 z" id="boundary" inkscape:connector-curvature="0" />
	<path style="fill:none;stroke:red;stroke-width:1px;stroke-linecap:butt;stroke-linejoin:miter;stroke-opacity:1" d="M 536.617,647.579 558.81,649.799 z" id="boundary" inkscape:connector-curvature="0" />
	<path style="fill:none;stroke:red;stroke-width:1px;stroke-linecap:butt;stroke-linejoin:miter;stroke-opacity:1" d="M 549.933,88.3311 572.125,92.7696 z" id="boundary" inkscape:connector-curvature="0" />
	<path style="fill:none;stroke:red;stroke-width:1px;stroke-linecap:butt;stroke-linejoin:miter;stroke-opacity:1" d="M 558.81,649.799 625.387,645.36 z" id="boundary" inkscape:connector-curvature="0" />
	<path style="fill:none;stroke:red;stroke-width:1px;stroke-linecap:butt;stroke-linejoin:miter;stroke-opacity:1" d="M 572.125,92.7696 594.318,97.2081 z" id="boundary" inkscape:connector-curvature="0" />
	<path style="fill:none;stroke:red;stroke-width:1px;stroke-linecap:butt;stroke-linejoin:miter;stroke-opacity:1" d="M 594.318,97.2081 616.51,101.647 z" id="boundary" inkscape:connector-curvature="0" />
	<path style="fill:none;stroke:red;stroke-width:1px;stroke-linecap:butt;stroke-linejoin:miter;stroke-opacity:1" d="M 616.51,101.647 638.702,106.085 z" id="boundary" inkscape:connector-curvature="0" />
	<path style="fill:none;stroke:red;stroke-width:1px;stroke-linecap:butt;stroke-linejoin:miter;stroke-opacity:1" d="M 625.387,645.36 714.157,614.291 z" id="boundary" inkscape:connector-curvature="0" />
	<path style="fill:none;stroke:red;stroke-width:1px;stroke-linecap:butt;stroke-linejoin:miter;stroke-opacity:1" d="M 638.702,106.085 660.895,112.743 z" id="boundary" inkscape:connector-curvature="0" />
	<path style="fill:none;stroke:red;stroke-width:1px;stroke-linecap:butt;stroke-linejoin:miter;stroke-opacity:1" d="M 660.895,112.743 683.087,119.4 z" id="boundary" inkscape:connector-curvature="0" />
	<path style="fill:none;stroke:red;stroke-width:1px;stroke-linecap:butt;stroke-linejoin:miter;stroke-opacity:1" d="M 683.087,119.4 705.28,128.277 z" id="boundary" inkscape:connector-curvature="0" />
	<path style="fill:none;stroke:red;stroke-width:1px;stroke-linecap:butt;stroke-linejoin:miter;stroke-opacity:1" d="M 705.28,128.277 727.472,137.154 z" id="boundary" inkscape:connector-curvature="0" />
	<path style="fill:none;stroke:red;stroke-width:1px;stroke-linecap:butt;stroke-linejoin:miter;stroke-opacity:1" d="M 714.157,614.291 754.103,663.114 z" id="boundary" inkscape:connector-curvature="0" />
	<path style="fill:none;stroke:red;stroke-width:1px;stroke-linecap:butt;stroke-linejoin:miter;stroke-opacity:1" d="M 727.472,137.154 747.445,148.251 z" id="boundary" inkscape:connector-curvature="0" />
	<path style="fill:none;stroke:red;stroke-width:1px;stroke-linecap:butt;stroke-linejoin:miter;stroke-opacity:1" d="M 738.568,270.309 738.568,292.501 z" id="boundary" inkscape:connector-curvature="0" />
	<path style="fill:none;stroke:red;stroke-width:1px;stroke-linecap:butt;stroke-linejoin:miter;stroke-opacity:1" d="M 738.568,270.309 743.007,239.239 z" id="boundary" inkscape:connector-curvature="0" />
	<path style="fill:none;stroke:red;stroke-width:1px;stroke-linecap:butt;stroke-linejoin:miter;stroke-opacity:1" d="M 738.568,292.501 738.568,314.694 z" id="boundary" inkscape:connector-curvature="0" />
	<path style="fill:none;stroke:red;stroke-width:1px;stroke-linecap:butt;stroke-linejoin:miter;stroke-opacity:1" d="M 738.568,314.694 738.568,336.886 z" id="boundary" inkscape:connector-curvature="0" />
	<path style="fill:none;stroke:red;stroke-width:1px;stroke-linecap:butt;stroke-linejoin:miter;stroke-opacity:1" d="M 738.568,336.886 751.884,354.64 z" id="boundary" inkscape:connector-curvature="0" />
	<path style="fill:none;stroke:red;stroke-width:1px;stroke-linecap:butt;stroke-linejoin:miter;stroke-opacity:1" d="M 743.007,217.047 743.007,239.239 z" id="boundary" inkscape:connector-curvature="0" />
	<path style="fill:none;stroke:red;stroke-width:1px;stroke-linecap:butt;stroke-linejoin:miter;stroke-opacity:1" d="M 743.007,217.047 760.761,190.416 z" id="boundary" inkscape:connector-curvature="0" />
	<path style="fill:none;stroke:red;stroke-width:1px;stroke-linecap:butt;stroke-linejoin:miter;stroke-opacity:1" d="M 747.445,148.251 760.761,166.004 z" id="boundary" inkscape:connector-curvature="0" />
	<path style="fill:none;stroke:red;stroke-width:1px;stroke-linecap:butt;stroke-linejoin:miter;stroke-opacity:1" d="M 751.884,354.64 774.076,359.078 z" id="boundary" inkscape:connector-curvature="0" />
	<path style="fill:none;stroke:red;stroke-width:1px;stroke-linecap:butt;stroke-linejoin:miter;stroke-opacity:1" d="M 754.103,663.114 840.653,623.168 z" id="boundary" inkscape:connector-curvature="0" />
	<path style="fill:none;stroke:red;stroke-width:1px;stroke-linecap:butt;stroke-linejoin:miter;stroke-opacity:1" d="M 760.761,166.004 760.761,190.416 z" id="boundary" inkscape:connector-curvature="0" />
	<path style="fill:none;stroke:red;stroke-width:1px;stroke-linecap:butt;stroke-linejoin:miter;stroke-opacity:1" d="M 774.076,359.078 796.268,359.078 z" id="boundary" inkscape:connector-curvature="0" />
	<path style="fill:none;stroke:red;stroke-width:1px;stroke-linecap:butt;stroke-linejoin:miter;stroke-opacity:1" d="M 796.268,359.078 818.461,363.517 z" id="boundary" inkscape:connector-curvature="0" />
	<path style="fill:none;stroke:red;stroke-width:1px;stroke-linecap:butt;stroke-linejoin:miter;stroke-opacity:1" d="M 818.461,363.517 840.653,363.517 z" id="boundary" inkscape:connector-curvature="0" />
	<path style="fill:none;stroke:red;stroke-width:1px;stroke-linecap:butt;stroke-linejoin:miter;stroke-opacity:1" d="M 840.653,363.517 862.846,367.955 z" id="boundary" inkscape:connector-curvature="0" />
	<path style="fill:none;stroke:red;stroke-width:1px;stroke-linecap:butt;stroke-linejoin:miter;stroke-opacity:1" d="M 840.653,623.168 929.423,609.852 z" id="boundary" inkscape:connector-curvature="0" />
	<path style="fill:none;stroke:red;stroke-width:1px;stroke-linecap:butt;stroke-linejoin:miter;stroke-opacity:1" d="M 862.846,367.955 885.038,372.394 z" id="boundary" inkscape:connector-curvature="0" />
	<path style="fill:none;stroke:red;stroke-width:1px;stroke-linecap:butt;stroke-linejoin:miter;stroke-opacity:1" d="M 885.038,372.394 907.23,376.832 z" id="boundary" inkscape:connector-curvature="0" />
	<path style="fill:none;stroke:red;stroke-width:1px;stroke-linecap:butt;stroke-linejoin:miter;stroke-opacity:1" d="M 907.23,376.832 929.423,385.709 z" id="boundary" inkscape:connector-curvature="0" />
	<path style="fill:none;stroke:red;stroke-width:1px;stroke-linecap:butt;stroke-linejoin:miter;stroke-opacity:1" d="M 929.423,385.709 951.615,390.148 z" id="boundary" inkscape:connector-curvature="0" />
	<path style="fill:none;stroke:red;stroke-width:1px;stroke-linecap:butt;stroke-linejoin:miter;stroke-opacity:1" d="M 929.423,609.852 973.808,581.002 z" id="boundary" inkscape:connector-curvature="0" />
	<path style="fill:none;stroke:red;stroke-width:1px;stroke-linecap:butt;stroke-linejoin:miter;stroke-opacity:1" d="M 951.615,390.148 973.808,399.025 z" id="boundary" inkscape:connector-curvature="0" />
	<path style="fill:none;stroke:red;stroke-width:1px;stroke-linecap:butt;stroke-linejoin:miter;stroke-opacity:1" d="M 973.808,399.025 991.562,412.34 z" id="boundary" inkscape:connector-curvature="0" />
	<path style="fill:none;stroke:red;stroke-width:1px;stroke-linecap:butt;stroke-linejoin:miter;stroke-opacity:1" d="M 973.808,514.425 973.808,536.617 z" id="boundary" inkscape:connector-curvature="0" />
	<path style="fill:none;stroke:red;stroke-width:1px;stroke-linecap:butt;stroke-linejoin:miter;stroke-opacity:1" d="M 973.808,514.425 978.246,474.479 z" id="boundary" inkscape:connector-curvature="0" />
	<path style="fill:none;stroke:red;stroke-width:1px;stroke-linecap:butt;stroke-linejoin:miter;stroke-opacity:1" d="M 973.808,536.617 973.808,581.002 z" id="boundary" inkscape:connector-curvature="0" />
	<path style="fill:none;stroke:red;stroke-width:1px;stroke-linecap:butt;stroke-linejoin:miter;stroke-opacity:1" d="M 978.246,474.479 996,452.286 z" id="boundary" inkscape:connector-curvature="0" />
	<path style="fill:none;stroke:red;stroke-width:1px;stroke-linecap:butt;stroke-linejoin:miter;stroke-opacity:1" d="M 991.562,412.34 996,452.286 z" id="boundary" inkscape:connector-curvature="0" />
	<circle cx="4" cy="168.224" r="4" fill="#0" id="circle0"/>
	<circle cx="4" cy="190.416" r="4" fill="#0" id="circle1"/>
	<circle cx="8.43848" cy="470.04" r="4" fill="#0" id="circle2"/>
	<circle cx="8.43848" cy="492.233" r="4" fill="#0" id="circle3"/>
	<circle cx="8.43848" cy="514.425" r="4" fill="#0" id="circle4"/>
	<circle cx="8.43848" cy="536.617" r="4" fill="#0" id="circle5"/>
	<circle cx="8.43848" cy="558.81" r="4" fill="#0" id="circle6"/>
	<circle cx="8.43848" cy="616.51" r="4" fill="#0" id="circle7"/>
	<circle cx="8.43848" cy="638.702" r="4" fill="#0" id="circle8"/>
	<circle cx="12.877" cy="438.971" r="4" fill="#0" id="circle9"/>
	<circle cx="12.877" cy="581.002" r="4" fill="#0" id="circle10"/>
	<circle cx="12.877" cy="660.895" r="4" fill="#0" id="circle11"/>
	<circle cx="15.0962" cy="210.389" r="4" fill="#0" id="circle12"/>
	<circle cx="15.0962" cy="683.087" r="4" fill="#0" id="circle13"/>
	<circle cx="17.3154" cy="150.47" r="4" fill="#0" id="circle14"/>
	<circle cx="17.3154" cy="403.463" r="4" fill="#0" id="circle15"/>
	<circle cx="21.7539" cy="232.582" r="4" fill="#0" id="circle16"/>
	<circle cx="21.7539" cy="372.394" r="4" fill="#0" id="circle17"/>
	<circle cx="26.1924" cy="254.774" r="4" fill="#0" id="circle18"/>
	<circle cx="26.1924" cy="276.966" r="4" fill="#0" id="circle19"/>
	<circle cx="26.1924" cy="299.159" r="4" fill="#0" id="circle20"/>
	<circle cx="26.1924" cy="321.351" r="4" fill="#0" id="circle21"/>
	<circle cx="26.1924" cy="343.544" r="4" fill="#0" id="circle22"/>
	<circle cx="35.0694" cy="137.154" r="4" fill="#0" id="circle23"/>
	<circle cx="37.2886" cy="678.649" r="4" fill="#0" id="circle24"/>
	<circle cx="41.7271" cy="629.826" r="4" fill="#0" id="circle25"/>
	<circle cx="41.7271" cy="652.018" r="4" fill="#0" id="circle26"/>
	<circle cx="46.1655" cy="598.756" r="4" fill="#0" id="circle27"/>
	<circle cx="57.2617" cy="128.277" r="4" fill="#0" id="circle28"/>
	<circle cx="68.3579" cy="600.975" r="4" fill="#0" id="circle29"/>
	<circle cx="79.4541" cy="119.4" r="4" fill="#0" id="circle30"/>
	<circle cx="90.5503" cy="600.975" r="4" fill="#0" id="circle31"/>
	<circle cx="101.647" cy="114.962" r="4" fill="#0" id="circle32"/>
	<circle cx="112.743" cy="600.975" r="4" fill="#0" id="circle33"/>
	<circle cx="123.839" cy="106.085" r="4" fill="#0" id="circle34"/>
	<circle cx="134.935" cy="600.975" r="4" fill="#0" id="circle35"/>
	<circle cx="146.031" cy="101.647" r="4" fill="#0" id="circle36"/>
	<circle cx="150.47" cy="618.729" r="4" fill="#0" id="circle37"/>
	<circle cx="150.47" cy="640.922" r="4" fill="#0" id="circle38"/>
	<circle cx="150.47" cy="674.21" r="4" fill="#0" id="circle39"/>
	<circle cx="168.224" cy="97.2081" r="4" fill="#0" id="circle40"/>
	<circle cx="168.224" cy="689.745" r="4" fill="#0" id="circle41"/>
	<circle cx="183.758" cy="660.895" r="4" fill="#0" id="circle42"/>
	<circle cx="188.197" cy="625.387" r="4" fill="#0" id="circle43"/>
	<circle cx="190.416" cy="92.7696" r="4" fill="#0" id="circle44"/>
	<circle cx="205.951" cy="609.852" r="4" fill="#0" id="circle45"/>
	<circle cx="212.609" cy="88.3311" r="4" fill="#0" id="circle46"/>
	<circle cx="228.143" cy="609.852" r="4" fill="#0" id="circle47"/>
	<circle cx="234.801" cy="83.8926" r="4" fill="#0" id="circle48"/>
	<circle cx="250.336" cy="609.852" r="4" fill="#0" id="circle49"/>
	<circle cx="256.993" cy="79.4541" r="4" fill="#0" id="circle50"/>
	<circle cx="272.528" cy="614.291" r="4" fill="#0" id="circle51"/>
	<circle cx="274.747" cy="66.1387" r="4" fill="#0" id="circle52"/>
	<circle cx="294.72" cy="618.729" r="4" fill="#0" id="circle53"/>
	<circle cx="296.94" cy="57.2617" r="4" fill="#0" id="circle54"/>
	<circle cx="316.913" cy="627.606" r="4" fill="#0" id="circle55"/>
	<circle cx="319.132" cy="48.3848" r="4" fill="#0" id="circle56"/>
	<circle cx="336.886" cy="614.291" r="4" fill="#0" id="circle57"/>
	<circle cx="341.324" cy="43.9463" r="4" fill="#0" id="circle58"/>
	<circle cx="352.421" cy="23.9732" r="4" fill="#0" id="circle59"/>
	<circle cx="359.078" cy="605.414" r="4" fill="#0" id="circle60"/>
	<circle cx="367.955" cy="4" r="4" fill="#0" id="circle61"/>
	<circle cx="381.271" cy="605.414" r="4" fill="#0" id="circle62"/>
	<circle cx="390.148" cy="4" r="4" fill="#0" id="circle63"/>
	<circle cx="403.463" cy="607.633" r="4" fill="#0" id="circle64"/>
	<circle cx="410.121" cy="15.0962" r="4" fill="#0" id="circle65"/>
	<circle cx="425.655" cy="614.291" r="4" fill="#0" id="circle66"/>
	<circle cx="427.875" cy="28.4116" r="4" fill="#0" id="circle67"/>
	<circle cx="445.629" cy="43.9463" r="4" fill="#0" id="circle68"/>
	<circle cx="447.848" cy="620.949" r="4" fill="#0" id="circle69"/>
	<circle cx="467.821" cy="52.8233" r="4" fill="#0" id="circle70"/>
	<circle cx="470.04" cy="629.826" r="4" fill="#0" id="circle71"/>
	<circle cx="490.013" cy="61.7002" r="4" fill="#0" id="circle72"/>
	<circle cx="492.233" cy="636.483" r="4" fill="#0" id="circle73"/>
	<circle cx="505.548" cy="79.4541" r="4" fill="#0" id="circle74"/>
	<circle cx="514.425" cy="643.141" r="4" fill="#0" id="circle75"/>
	<circle cx="527.74" cy="83.8926" r="4" fill="#0" id="circle76"/>
	<circle cx="536.617" cy="647.579" r="4" fill="#0" id="circle77"/>
	<circle cx="549.933" cy="88.3311" r="4" fill="#0" id="circle78"/>
	<circle cx="558.81" cy="649.799" r="4" fill="#0" id="circle79"/>
	<circle cx="572.125" cy="92.7696" r="4" fill="#0" id="circle80"/>
	<circle cx="581.002" cy="649.799" r="4" fill="#0" id="circle81"/>
	<circle cx="594.318" cy="97.2081" r="4" fill="#0" id="circle82"/>
	<circle cx="603.195" cy="649.799" r="4" fill="#0" id="circle83"/>
	<circle cx="616.51" cy="101.647" r="4" fill="#0" id="circle84"/>
	<circle cx="625.387" cy="645.36" r="4" fill="#0" id="circle85"/>
	<circle cx="638.702" cy="106.085" r="4" fill="#0" id="circle86"/>
	<circle cx="647.579" cy="636.483" r="4" fill="#0" id="circle87"/>
	<circle cx="660.895" cy="112.743" r="4" fill="#0" id="circle88"/>
	<circle cx="669.772" cy="627.606" r="4" fill="#0" id="circle89"/>
	<circle cx="683.087" cy="119.4" r="4" fill="#0" id="circle90"/>
	<circle cx="691.964" cy="623.168" r="4" fill="#0" id="circle91"/>
	<circle cx="705.28" cy="128.277" r="4" fill="#0" id="circle92"/>
	<circle cx="714.157" cy="614.291" r="4" fill="#0" id="circle93"/>
	<circle cx="727.472" cy="137.154" r="4" fill="#0" id="circle94"/>
	<circle cx="727.472" cy="632.045" r="4" fill="#0" id="circle95"/>
	<circle cx="727.472" cy="654.237" r="4" fill="#0" id="circle96"/>
	<circle cx="731.911" cy="676.43" r="4" fill="#0" id="circle97"/>
	<circle cx="738.568" cy="270.309" r="4" fill="#0" id="circle98"/>
	<circle cx="738.568" cy="292.501" r="4" fill="#0" id="circle99"/>
	<circle cx="738.568" cy="314.694" r="4" fill="#0" id="circle100"/>
	<circle cx="738.568" cy="336.886" r="4" fill="#0" id="circle101"/>
	<circle cx="743.007" cy="217.047" r="4" fill="#0" id="circle102"/>
	<circle cx="743.007" cy="239.239" r="4" fill="#0" id="circle103"/>
	<circle cx="747.445" cy="148.251" r="4" fill="#0" id="circle104"/>
	<circle cx="749.664" cy="689.745" r="4" fill="#0" id="circle105"/>
	<circle cx="751.884" cy="354.64" r="4" fill="#0" id="circle106"/>
	<circle cx="754.103" cy="663.114" r="4" fill="#0" id="circle107"/>
	<circle cx="756.322" cy="607.633" r="4" fill="#0" id="circle108"/>
	<circle cx="760.761" cy="166.004" r="4" fill="#0" id="circle109"/>
	<circle cx="760.761" cy="190.416" r="4" fill="#0" id="circle110"/>
	<circle cx="760.761" cy="629.826" r="4" fill="#0" id="circle111"/>
	<circle cx="774.076" cy="359.078" r="4" fill="#0" id="circle112"/>
	<circle cx="778.515" cy="605.414" r="4" fill="#0" id="circle113"/>
	<circle cx="796.268" cy="359.078" r="4" fill="#0" id="circle114"/>
	<circle cx="800.707" cy="614.291" r="4" fill="#0" id="circle115"/>
	<circle cx="818.461" cy="363.517" r="4" fill="#0" id="circle116"/>
	<circle cx="818.461" cy="627.606" r="4" fill="#0" id="circle117"/>
	<circle cx="840.653" cy="363.517" r="4" fill="#0" id="circle118"/>
	<circle cx="840.653" cy="623.168" r="4" fill="#0" id="circle119"/>
	<circle cx="862.846" cy="367.955" r="4" fill="#0" id="circle120"/>
	<circle cx="862.846" cy="616.51" r="4" fill="#0" id="circle121"/>
	<circle cx="885.038" cy="372.394" r="4" fill="#0" id="circle122"/>
	<circle cx="885.038" cy="609.852" r="4" fill="#0" id="circle123"/>
	<circle cx="907.23" cy="376.832" r="4" fill="#0" id="circle124"/>
	<circle cx="907.23" cy="609.852" r="4" fill="#0" id="circle125"/>
	<circle cx="929.423" cy="385.709" r="4" fill="#0" id="circle126"/>
	<circle cx="929.423" cy="609.852" r="4" fill="#0" id="circle127"/>
	<circle cx="944.957" cy="627.606" r="4" fill="#0" id="circle128"/>
	<circle cx="949.396" cy="649.799" r="4" fill="#0" id="circle129"/>
	<circle cx="949.396" cy="671.991" r="4" fill="#0" id="circle130"/>
	<circle cx="951.615" cy="390.148" r="4" fill="#0" id="circle131"/>
	<circle cx="962.711" cy="689.745" r="4" fill="#0" id="circle132"/>
	<circle cx="973.808" cy="399.025" r="4" fill="#0" id="circle133"/>
	<circle cx="973.808" cy="514.425" r="4" fill="#0" id="circle134"/>
	<circle cx="973.808" cy="536.617" r="4" fill="#0" id="circle135"/>
	<circle cx="973.808" cy="558.81" r="4" fill="#0" id="circle136"/>
	<circle cx="973.808" cy="581.002" r="4" fill="#0" id="circle137"/>
	<circle cx="976.027" cy="603.195" r="4" fill="#0" id="circle138"/>
	<circle cx="976.027" cy="663.114" r="4" fill="#0" id="circle139"/>
	<circle cx="978.246" cy="474.479" r="4" fill="#0" id="circle140"/>
	<circle cx="982.685" cy="625.387" r="4" fill="#0" id="circle141"/>
	<circle cx="991.562" cy="412.34" r="4" fill="#0" id="circle142"/>
	<circle cx="996" cy="452.286" r="4" fill="#0" id="circle143"/>
	</g>
</svg>