<?xml version="1.0" encoding="UTF-8" standalone="no"?>
<!-- Created with CurveBenchmark -->
<svg
	xmlns:dc="http://purl.org/dc/elements/1.1/"
	xmlns:cc="http://creativecommons.org/ns#"
	xmlns:rdf="http://www.w3.org/1999/02/22-rdf-syntax-ns#"
	xmlns:svg="http://www.w3.org/2000/svg"
	xmlns="http://www.w3.org/2000/svg"
	xmlns:sodipodi="http://sodipodi.sourceforge.net/DTD/sodipodi-0.dtd"
	xmlns:inkscape="http://www.inkscape.org/namespaces/inkscape"
	width="1000"
	height="1000"
	id="svg2"
	version="1.1"
	sodipodi:docname="manifold/fitconnect-fish320.png.txt">
<defs
	id="defs4" />
<metadata
	id="metadata7">
	<rdf:RDF>
		<cc:Work
			rdf:about="">
			<dc:format>image/svg+xml</dc:format>
			<dc:type
				rdf:resource="http://purl.org/dc/dcmitype/StillImage" />
			<dc:title></dc:title>
		</cc:Work>
	</rdf:RDF>
</metadata>
<g
	inkscape:label="Layer 1"
	inkscape:groupmode="layer"
	id="layer1">
	<path style="fill:none;stroke:red;stroke-width:1px;stroke-linecap:butt;stroke-linejoin:miter;stroke-opacity:1" d="M 4,252.902 7.60727,288.975 z" id="boundary" inkscape:connector-curvature="0" />
	<path style="fill:none;stroke:red;stroke-width:1px;stroke-linecap:butt;stroke-linejoin:miter;stroke-opacity:1" d="M 4,252.902 32.8582,231.258 z" id="boundary" inkscape:connector-curvature="0" />
	<path style="fill:none;stroke:red;stroke-width:1px;stroke-linecap:butt;stroke-linejoin:miter;stroke-opacity:1" d="M 7.60727,288.975 29.2509,317.833 z" id="boundary" inkscape:connector-curvature="0" />
	<path style="fill:none;stroke:red;stroke-width:1px;stroke-linecap:butt;stroke-linejoin:miter;stroke-opacity:1" d="M 29.2509,317.833 50.8945,346.691 z" id="boundary" inkscape:connector-curvature="0" />
	<path style="fill:none;stroke:red;stroke-width:1px;stroke-linecap:butt;stroke-linejoin:miter;stroke-opacity:1" d="M 32.8582,231.258 61.7164,209.615 z" id="boundary" inkscape:connector-curvature="0" />
	<path style="fill:none;stroke:red;stroke-width:1px;stroke-linecap:butt;stroke-linejoin:miter;stroke-opacity:1" d="M 50.8945,346.691 72.5382,375.549 z" id="boundary" inkscape:connector-curvature="0" />
	<path style="fill:none;stroke:red;stroke-width:1px;stroke-linecap:butt;stroke-linejoin:miter;stroke-opacity:1" d="M 61.7164,209.615 90.5745,187.971 z" id="boundary" inkscape:connector-curvature="0" />
	<path style="fill:none;stroke:red;stroke-width:1px;stroke-linecap:butt;stroke-linejoin:miter;stroke-opacity:1" d="M 72.5382,375.549 105.004,393.585 z" id="boundary" inkscape:connector-curvature="0" />
	<path style="fill:none;stroke:red;stroke-width:1px;stroke-linecap:butt;stroke-linejoin:miter;stroke-opacity:1" d="M 90.5745,187.971 126.647,173.542 z" id="boundary" inkscape:connector-curvature="0" />
	<path style="fill:none;stroke:red;stroke-width:1px;stroke-linecap:butt;stroke-linejoin:miter;stroke-opacity:1" d="M 105.004,393.585 141.076,408.015 z" id="boundary" inkscape:connector-curvature="0" />
	<path style="fill:none;stroke:red;stroke-width:1px;stroke-linecap:butt;stroke-linejoin:miter;stroke-opacity:1" d="M 126.647,173.542 162.72,159.113 z" id="boundary" inkscape:connector-curvature="0" />
	<path style="fill:none;stroke:red;stroke-width:1px;stroke-linecap:butt;stroke-linejoin:miter;stroke-opacity:1" d="M 141.076,408.015 177.149,418.836 z" id="boundary" inkscape:connector-curvature="0" />
	<path style="fill:none;stroke:red;stroke-width:1px;stroke-linecap:butt;stroke-linejoin:miter;stroke-opacity:1" d="M 162.72,159.113 198.793,144.684 z" id="boundary" inkscape:connector-curvature="0" />
	<path style="fill:none;stroke:red;stroke-width:1px;stroke-linecap:butt;stroke-linejoin:miter;stroke-opacity:1" d="M 177.149,418.836 209.615,436.873 z" id="boundary" inkscape:connector-curvature="0" />
	<path style="fill:none;stroke:red;stroke-width:1px;stroke-linecap:butt;stroke-linejoin:miter;stroke-opacity:1" d="M 198.793,144.684 234.865,130.255 z" id="boundary" inkscape:connector-curvature="0" />
	<path style="fill:none;stroke:red;stroke-width:1px;stroke-linecap:butt;stroke-linejoin:miter;stroke-opacity:1" d="M 209.615,436.873 245.687,451.302 z" id="boundary" inkscape:connector-curvature="0" />
	<path style="fill:none;stroke:red;stroke-width:1px;stroke-linecap:butt;stroke-linejoin:miter;stroke-opacity:1" d="M 234.865,130.255 270.938,123.04 z" id="boundary" inkscape:connector-curvature="0" />
	<path style="fill:none;stroke:red;stroke-width:1px;stroke-linecap:butt;stroke-linejoin:miter;stroke-opacity:1" d="M 245.687,451.302 270.938,480.16 z" id="boundary" inkscape:connector-curvature="0" />
	<path style="fill:none;stroke:red;stroke-width:1px;stroke-linecap:butt;stroke-linejoin:miter;stroke-opacity:1" d="M 270.938,123.04 299.796,94.1818 z" id="boundary" inkscape:connector-curvature="0" />
	<path style="fill:none;stroke:red;stroke-width:1px;stroke-linecap:butt;stroke-linejoin:miter;stroke-opacity:1" d="M 270.938,480.16 278.153,516.233 z" id="boundary" inkscape:connector-curvature="0" />
	<path style="fill:none;stroke:red;stroke-width:1px;stroke-linecap:butt;stroke-linejoin:miter;stroke-opacity:1" d="M 278.153,516.233 292.582,552.305 z" id="boundary" inkscape:connector-curvature="0" />
	<path style="fill:none;stroke:red;stroke-width:1px;stroke-linecap:butt;stroke-linejoin:miter;stroke-opacity:1" d="M 292.582,552.305 321.44,573.949 z" id="boundary" inkscape:connector-curvature="0" />
	<path style="fill:none;stroke:red;stroke-width:1px;stroke-linecap:butt;stroke-linejoin:miter;stroke-opacity:1" d="M 299.796,58.1091 299.796,94.1818 z" id="boundary" inkscape:connector-curvature="0" />
	<path style="fill:none;stroke:red;stroke-width:1px;stroke-linecap:butt;stroke-linejoin:miter;stroke-opacity:1" d="M 299.796,58.1091 328.655,36.4655 z" id="boundary" inkscape:connector-curvature="0" />
	<path style="fill:none;stroke:red;stroke-width:1px;stroke-linecap:butt;stroke-linejoin:miter;stroke-opacity:1" d="M 321.44,573.949 357.513,566.735 z" id="boundary" inkscape:connector-curvature="0" />
	<path style="fill:none;stroke:red;stroke-width:1px;stroke-linecap:butt;stroke-linejoin:miter;stroke-opacity:1" d="M 328.655,36.4655 346.691,4 z" id="boundary" inkscape:connector-curvature="0" />
	<path style="fill:none;stroke:red;stroke-width:1px;stroke-linecap:butt;stroke-linejoin:miter;stroke-opacity:1" d="M 346.691,4 382.764,4 z" id="boundary" inkscape:connector-curvature="0" />
	<path style="fill:none;stroke:red;stroke-width:1px;stroke-linecap:butt;stroke-linejoin:miter;stroke-opacity:1" d="M 357.513,566.735 382.764,534.269 z" id="boundary" inkscape:connector-curvature="0" />
	<path style="fill:none;stroke:red;stroke-width:1px;stroke-linecap:butt;stroke-linejoin:miter;stroke-opacity:1" d="M 382.764,4 418.836,14.8218 z" id="boundary" inkscape:connector-curvature="0" />
	<path style="fill:none;stroke:red;stroke-width:1px;stroke-linecap:butt;stroke-linejoin:miter;stroke-opacity:1" d="M 382.764,534.269 415.229,552.305 z" id="boundary" inkscape:connector-curvature="0" />
	<path style="fill:none;stroke:red;stroke-width:1px;stroke-linecap:butt;stroke-linejoin:miter;stroke-opacity:1" d="M 415.229,552.305 444.087,573.949 z" id="boundary" inkscape:connector-curvature="0" />
	<path style="fill:none;stroke:red;stroke-width:1px;stroke-linecap:butt;stroke-linejoin:miter;stroke-opacity:1" d="M 418.836,14.8218 454.909,22.0364 z" id="boundary" inkscape:connector-curvature="0" />
	<path style="fill:none;stroke:red;stroke-width:1px;stroke-linecap:butt;stroke-linejoin:miter;stroke-opacity:1" d="M 444.087,573.949 480.16,573.949 z" id="boundary" inkscape:connector-curvature="0" />
	<path style="fill:none;stroke:red;stroke-width:1px;stroke-linecap:butt;stroke-linejoin:miter;stroke-opacity:1" d="M 454.909,22.0364 483.767,43.68 z" id="boundary" inkscape:connector-curvature="0" />
	<path style="fill:none;stroke:red;stroke-width:1px;stroke-linecap:butt;stroke-linejoin:miter;stroke-opacity:1" d="M 472.945,444.087 483.767,480.16 z" id="boundary" inkscape:connector-curvature="0" />
	<path style="fill:none;stroke:red;stroke-width:1px;stroke-linecap:butt;stroke-linejoin:miter;stroke-opacity:1" d="M 472.945,444.087 509.018,444.087 z" id="boundary" inkscape:connector-curvature="0" />
	<path style="fill:none;stroke:red;stroke-width:1px;stroke-linecap:butt;stroke-linejoin:miter;stroke-opacity:1" d="M 480.16,573.949 498.196,516.233 z" id="boundary" inkscape:connector-curvature="0" />
	<path style="fill:none;stroke:red;stroke-width:1px;stroke-linecap:butt;stroke-linejoin:miter;stroke-opacity:1" d="M 483.767,43.68 516.233,61.7164 z" id="boundary" inkscape:connector-curvature="0" />
	<path style="fill:none;stroke:red;stroke-width:1px;stroke-linecap:butt;stroke-linejoin:miter;stroke-opacity:1" d="M 483.767,480.16 498.196,516.233 z" id="boundary" inkscape:connector-curvature="0" />
	<path style="fill:none;stroke:red;stroke-width:1px;stroke-linecap:butt;stroke-linejoin:miter;stroke-opacity:1" d="M 509.018,444.087 545.091,436.873 z" id="boundary" inkscape:connector-curvature="0" />
	<path style="fill:none;stroke:red;stroke-width:1px;stroke-linecap:butt;stroke-linejoin:miter;stroke-opacity:1" d="M 516.233,61.7164 548.698,79.7527 z" id="boundary" inkscape:connector-curvature="0" />
	<path style="fill:none;stroke:red;stroke-width:1px;stroke-linecap:butt;stroke-linejoin:miter;stroke-opacity:1" d="M 545.091,436.873 581.164,436.873 z" id="boundary" inkscape:connector-curvature="0" />
	<path style="fill:none;stroke:red;stroke-width:1px;stroke-linecap:butt;stroke-linejoin:miter;stroke-opacity:1" d="M 548.698,79.7527 573.949,108.611 z" id="boundary" inkscape:connector-curvature="0" />
	<path style="fill:none;stroke:red;stroke-width:1px;stroke-linecap:butt;stroke-linejoin:miter;stroke-opacity:1" d="M 573.949,108.611 610.022,108.611 z" id="boundary" inkscape:connector-curvature="0" />
	<path style="fill:none;stroke:red;stroke-width:1px;stroke-linecap:butt;stroke-linejoin:miter;stroke-opacity:1" d="M 581.164,436.873 617.236,429.658 z" id="boundary" inkscape:connector-curvature="0" />
	<path style="fill:none;stroke:red;stroke-width:1px;stroke-linecap:butt;stroke-linejoin:miter;stroke-opacity:1" d="M 610.022,108.611 646.095,94.1818 z" id="boundary" inkscape:connector-curvature="0" />
	<path style="fill:none;stroke:red;stroke-width:1px;stroke-linecap:butt;stroke-linejoin:miter;stroke-opacity:1" d="M 617.236,429.658 653.309,444.087 z" id="boundary" inkscape:connector-curvature="0" />
	<path style="fill:none;stroke:red;stroke-width:1px;stroke-linecap:butt;stroke-linejoin:miter;stroke-opacity:1" d="M 646.095,94.1818 682.167,90.5745 z" id="boundary" inkscape:connector-curvature="0" />
	<path style="fill:none;stroke:red;stroke-width:1px;stroke-linecap:butt;stroke-linejoin:miter;stroke-opacity:1" d="M 653.309,444.087 689.382,454.909 z" id="boundary" inkscape:connector-curvature="0" />
	<path style="fill:none;stroke:red;stroke-width:1px;stroke-linecap:butt;stroke-linejoin:miter;stroke-opacity:1" d="M 682.167,90.5745 714.633,108.611 z" id="boundary" inkscape:connector-curvature="0" />
	<path style="fill:none;stroke:red;stroke-width:1px;stroke-linecap:butt;stroke-linejoin:miter;stroke-opacity:1" d="M 689.382,454.909 725.455,458.516 z" id="boundary" inkscape:connector-curvature="0" />
	<path style="fill:none;stroke:red;stroke-width:1px;stroke-linecap:butt;stroke-linejoin:miter;stroke-opacity:1" d="M 714.633,108.611 739.884,137.469 z" id="boundary" inkscape:connector-curvature="0" />
	<path style="fill:none;stroke:red;stroke-width:1px;stroke-linecap:butt;stroke-linejoin:miter;stroke-opacity:1" d="M 725.455,458.516 761.527,451.302 z" id="boundary" inkscape:connector-curvature="0" />
	<path style="fill:none;stroke:red;stroke-width:1px;stroke-linecap:butt;stroke-linejoin:miter;stroke-opacity:1" d="M 739.884,137.469 761.527,166.327 z" id="boundary" inkscape:connector-curvature="0" />
	<path style="fill:none;stroke:red;stroke-width:1px;stroke-linecap:butt;stroke-linejoin:miter;stroke-opacity:1" d="M 761.527,166.327 783.171,195.185 z" id="boundary" inkscape:connector-curvature="0" />
	<path style="fill:none;stroke:red;stroke-width:1px;stroke-linecap:butt;stroke-linejoin:miter;stroke-opacity:1" d="M 761.527,451.302 775.956,415.229 z" id="boundary" inkscape:connector-curvature="0" />
	<path style="fill:none;stroke:red;stroke-width:1px;stroke-linecap:butt;stroke-linejoin:miter;stroke-opacity:1" d="M 775.956,415.229 786.778,346.691 z" id="boundary" inkscape:connector-curvature="0" />
	<path style="fill:none;stroke:red;stroke-width:1px;stroke-linecap:butt;stroke-linejoin:miter;stroke-opacity:1" d="M 783.171,195.185 804.815,224.044 z" id="boundary" inkscape:connector-curvature="0" />
	<path style="fill:none;stroke:red;stroke-width:1px;stroke-linecap:butt;stroke-linejoin:miter;stroke-opacity:1" d="M 786.778,346.691 822.851,343.084 z" id="boundary" inkscape:connector-curvature="0" />
	<path style="fill:none;stroke:red;stroke-width:1px;stroke-linecap:butt;stroke-linejoin:miter;stroke-opacity:1" d="M 804.815,224.044 840.887,209.615 z" id="boundary" inkscape:connector-curvature="0" />
	<path style="fill:none;stroke:red;stroke-width:1px;stroke-linecap:butt;stroke-linejoin:miter;stroke-opacity:1" d="M 822.851,343.084 851.709,364.727 z" id="boundary" inkscape:connector-curvature="0" />
	<path style="fill:none;stroke:red;stroke-width:1px;stroke-linecap:butt;stroke-linejoin:miter;stroke-opacity:1" d="M 840.887,209.615 869.745,187.971 z" id="boundary" inkscape:connector-curvature="0" />
	<path style="fill:none;stroke:red;stroke-width:1px;stroke-linecap:butt;stroke-linejoin:miter;stroke-opacity:1" d="M 851.709,364.727 880.567,386.371 z" id="boundary" inkscape:connector-curvature="0" />
	<path style="fill:none;stroke:red;stroke-width:1px;stroke-linecap:butt;stroke-linejoin:miter;stroke-opacity:1" d="M 869.745,187.971 905.818,173.542 z" id="boundary" inkscape:connector-curvature="0" />
	<path style="fill:none;stroke:red;stroke-width:1px;stroke-linecap:butt;stroke-linejoin:miter;stroke-opacity:1" d="M 880.567,386.371 909.425,408.015 z" id="boundary" inkscape:connector-curvature="0" />
	<path style="fill:none;stroke:red;stroke-width:1px;stroke-linecap:butt;stroke-linejoin:miter;stroke-opacity:1" d="M 905.818,173.542 938.284,155.505 z" id="boundary" inkscape:connector-curvature="0" />
	<path style="fill:none;stroke:red;stroke-width:1px;stroke-linecap:butt;stroke-linejoin:miter;stroke-opacity:1" d="M 909.425,408.015 945.498,422.444 z" id="boundary" inkscape:connector-curvature="0" />
	<path style="fill:none;stroke:red;stroke-width:1px;stroke-linecap:butt;stroke-linejoin:miter;stroke-opacity:1" d="M 938.284,155.505 974.356,148.291 z" id="boundary" inkscape:connector-curvature="0" />
	<path style="fill:none;stroke:red;stroke-width:1px;stroke-linecap:butt;stroke-linejoin:miter;stroke-opacity:1" d="M 945.498,422.444 981.571,422.444 z" id="boundary" inkscape:connector-curvature="0" />
	<path style="fill:none;stroke:red;stroke-width:1px;stroke-linecap:butt;stroke-linejoin:miter;stroke-opacity:1" d="M 974.356,148.291 988.785,202.4 z" id="boundary" inkscape:connector-curvature="0" />
	<path style="fill:none;stroke:red;stroke-width:1px;stroke-linecap:butt;stroke-linejoin:miter;stroke-opacity:1" d="M 981.571,238.473 981.571,274.545 z" id="boundary" inkscape:connector-curvature="0" />
	<path style="fill:none;stroke:red;stroke-width:1px;stroke-linecap:butt;stroke-linejoin:miter;stroke-opacity:1" d="M 981.571,238.473 988.785,202.4 z" id="boundary" inkscape:connector-curvature="0" />
	<path style="fill:none;stroke:red;stroke-width:1px;stroke-linecap:butt;stroke-linejoin:miter;stroke-opacity:1" d="M 981.571,274.545 981.571,310.618 z" id="boundary" inkscape:connector-curvature="0" />
	<path style="fill:none;stroke:red;stroke-width:1px;stroke-linecap:butt;stroke-linejoin:miter;stroke-opacity:1" d="M 981.571,310.618 988.785,346.691 z" id="boundary" inkscape:connector-curvature="0" />
	<path style="fill:none;stroke:red;stroke-width:1px;stroke-linecap:butt;stroke-linejoin:miter;stroke-opacity:1" d="M 981.571,422.444 996,382.764 z" id="boundary" inkscape:connector-curvature="0" />
	<path style="fill:none;stroke:red;stroke-width:1px;stroke-linecap:butt;stroke-linejoin:miter;stroke-opacity:1" d="M 988.785,346.691 996,382.764 z" id="boundary" inkscape:connector-curvature="0" />
	<circle cx="4" cy="252.902" r="4" fill="#0" id="circle0"/>
	<circle cx="7.60727" cy="288.975" r="4" fill="#0" id="circle1"/>
	<circle cx="29.2509" cy="317.833" r="4" fill="#0" id="circle2"/>
	<circle cx="32.8582" cy="231.258" r="4" fill="#0" id="circle3"/>
	<circle cx="50.8945" cy="346.691" r="4" fill="#0" id="circle4"/>
	<circle cx="61.7164" cy="209.615" r="4" fill="#0" id="circle5"/>
	<circle cx="72.5382" cy="375.549" r="4" fill="#0" id="circle6"/>
	<circle cx="90.5745" cy="187.971" r="4" fill="#0" id="circle7"/>
	<circle cx="105.004" cy="393.585" r="4" fill="#0" id="circle8"/>
	<circle cx="126.647" cy="173.542" r="4" fill="#0" id="circle9"/>
	<circle cx="141.076" cy="408.015" r="4" fill="#0" id="circle10"/>
	<circle cx="162.72" cy="159.113" r="4" fill="#0" id="circle11"/>
	<circle cx="177.149" cy="418.836" r="4" fill="#0" id="circle12"/>
	<circle cx="198.793" cy="144.684" r="4" fill="#0" id="circle13"/>
	<circle cx="209.615" cy="436.873" r="4" fill="#0" id="circle14"/>
	<circle cx="234.865" cy="130.255" r="4" fill="#0" id="circle15"/>
	<circle cx="245.687" cy="451.302" r="4" fill="#0" id="circle16"/>
	<circle cx="270.938" cy="123.04" r="4" fill="#0" id="circle17"/>
	<circle cx="270.938" cy="480.16" r="4" fill="#0" id="circle18"/>
	<circle cx="278.153" cy="516.233" r="4" fill="#0" id="circle19"/>
	<circle cx="292.582" cy="552.305" r="4" fill="#0" id="circle20"/>
	<circle cx="299.796" cy="58.1091" r="4" fill="#0" id="circle21"/>
	<circle cx="299.796" cy="94.1818" r="4" fill="#0" id="circle22"/>
	<circle cx="321.44" cy="573.949" r="4" fill="#0" id="circle23"/>
	<circle cx="328.655" cy="36.4655" r="4" fill="#0" id="circle24"/>
	<circle cx="346.691" cy="4" r="4" fill="#0" id="circle25"/>
	<circle cx="357.513" cy="566.735" r="4" fill="#0" id="circle26"/>
	<circle cx="382.764" cy="4" r="4" fill="#0" id="circle27"/>
	<circle cx="382.764" cy="534.269" r="4" fill="#0" id="circle28"/>
	<circle cx="415.229" cy="552.305" r="4" fill="#0" id="circle29"/>
	<circle cx="418.836" cy="14.8218" r="4" fill="#0" id="circle30"/>
	<circle cx="444.087" cy="573.949" r="4" fill="#0" id="circle31"/>
	<circle cx="454.909" cy="22.0364" r="4" fill="#0" id="circle32"/>
	<circle cx="472.945" cy="444.087" r="4" fill="#0" id="circle33"/>
	<circle cx="480.16" cy="573.949" r="4" fill="#0" id="circle34"/>
	<circle cx="483.767" cy="43.68" r="4" fill="#0" id="circle35"/>
	<circle cx="483.767" cy="480.16" r="4" fill="#0" id="circle36"/>
	<circle cx="498.196" cy="516.233" r="4" fill="#0" id="circle37"/>
	<circle cx="509.018" cy="444.087" r="4" fill="#0" id="circle38"/>
	<circle cx="516.233" cy="61.7164" r="4" fill="#0" id="circle39"/>
	<circle cx="545.091" cy="436.873" r="4" fill="#0" id="circle40"/>
	<circle cx="548.698" cy="79.7527" r="4" fill="#0" id="circle41"/>
	<circle cx="573.949" cy="108.611" r="4" fill="#0" id="circle42"/>
	<circle cx="581.164" cy="436.873" r="4" fill="#0" id="circle43"/>
	<circle cx="610.022" cy="108.611" r="4" fill="#0" id="circle44"/>
	<circle cx="617.236" cy="429.658" r="4" fill="#0" id="circle45"/>
	<circle cx="646.095" cy="94.1818" r="4" fill="#0" id="circle46"/>
	<circle cx="653.309" cy="444.087" r="4" fill="#0" id="circle47"/>
	<circle cx="682.167" cy="90.5745" r="4" fill="#0" id="circle48"/>
	<circle cx="689.382" cy="454.909" r="4" fill="#0" id="circle49"/>
	<circle cx="714.633" cy="108.611" r="4" fill="#0" id="circle50"/>
	<circle cx="725.455" cy="458.516" r="4" fill="#0" id="circle51"/>
	<circle cx="739.884" cy="137.469" r="4" fill="#0" id="circle52"/>
	<circle cx="761.527" cy="166.327" r="4" fill="#0" id="circle53"/>
	<circle cx="761.527" cy="451.302" r="4" fill="#0" id="circle54"/>
	<circle cx="775.956" cy="415.229" r="4" fill="#0" id="circle55"/>
	<circle cx="783.171" cy="195.185" r="4" fill="#0" id="circle56"/>
	<circle cx="786.778" cy="346.691" r="4" fill="#0" id="circle57"/>
	<circle cx="804.815" cy="224.044" r="4" fill="#0" id="circle58"/>
	<circle cx="822.851" cy="343.084" r="4" fill="#0" id="circle59"/>
	<circle cx="840.887" cy="209.615" r="4" fill="#0" id="circle60"/>
	<circle cx="851.709" cy="364.727" r="4" fill="#0" id="circle61"/>
	<circle cx="869.745" cy="187.971" r="4" fill="#0" id="circle62"/>
	<circle cx="880.567" cy="386.371" r="4" fill="#0" id="circle63"/>
	<circle cx="905.818" cy="173.542" r="4" fill="#0" id="circle64"/>
	<circle cx="909.425" cy="408.015" r="4" fill="#0" id="circle65"/>
	<circle cx="938.284" cy="155.505" r="4" fill="#0" id="circle66"/>
	<circle cx="945.498" cy="422.444" r="4" fill="#0" id="circle67"/>
	<circle cx="974.356" cy="148.291" r="4" fill="#0" id="circle68"/>
	<circle cx="981.571" cy="238.473" r="4" fill="#0" id="circle69"/>
	<circle cx="981.571" cy="274.545" r="4" fill="#0" id="circle70"/>
	<circle cx="981.571" cy="310.618" r="4" fill="#0" id="circle71"/>
	<circle cx="981.571" cy="422.444" r="4" fill="#0" id="circle72"/>
	<circle cx="988.785" cy="202.4" r="4" fill="#0" id="circle73"/>
	<circle cx="988.785" cy="346.691" r="4" fill="#0" id="circle74"/>
	<circle cx="996" cy="382.764" r="4" fill="#0" id="circle75"/>
	</g>
</svg>