<?xml version="1.0" encoding="UTF-8" standalone="no"?>
<!-- Created with CurveBenchmark -->
<svg
	xmlns:dc="http://purl.org/dc/elements/1.1/"
	xmlns:cc="http://creativecommons.org/ns#"
	xmlns:rdf="http://www.w3.org/1999/02/22-rdf-syntax-ns#"
	xmlns:svg="http://www.w3.org/2000/svg"
	xmlns="http://www.w3.org/2000/svg"
	xmlns:sodipodi="http://sodipodi.sourceforge.net/DTD/sodipodi-0.dtd"
	xmlns:inkscape="http://www.inkscape.org/namespaces/inkscape"
	width="1000"
	height="1000"
	id="svg2"
	version="1.1"
	sodipodi:docname="manifold/fitconnect-Bone20.png.txt">
<defs
	id="defs4" />
<metadata
	id="metadata7">
	<rdf:RDF>
		<cc:Work
			rdf:about="">
			<dc:format>image/svg+xml</dc:format>
			<dc:type
				rdf:resource="http://purl.org/dc/dcmitype/StillImage" />
			<dc:title></dc:title>
		</cc:Work>
	</rdf:RDF>
</metadata>
<g
	inkscape:label="Layer 1"
	inkscape:groupmode="layer"
	id="layer1">
	<path style="fill:none;stroke:red;stroke-width:1px;stroke-linecap:butt;stroke-linejoin:miter;stroke-opacity:1" d="M 4,923.208 4,940.137 z" id="boundary" inkscape:connector-curvature="0" />
	<path style="fill:none;stroke:red;stroke-width:1px;stroke-linecap:butt;stroke-linejoin:miter;stroke-opacity:1" d="M 4,923.208 12.4642,906.28 z" id="boundary" inkscape:connector-curvature="0" />
	<path style="fill:none;stroke:red;stroke-width:1px;stroke-linecap:butt;stroke-linejoin:miter;stroke-opacity:1" d="M 4,940.137 12.4642,955.372 z" id="boundary" inkscape:connector-curvature="0" />
	<path style="fill:none;stroke:red;stroke-width:1px;stroke-linecap:butt;stroke-linejoin:miter;stroke-opacity:1" d="M 12.4642,906.28 26.0068,892.737 z" id="boundary" inkscape:connector-curvature="0" />
	<path style="fill:none;stroke:red;stroke-width:1px;stroke-linecap:butt;stroke-linejoin:miter;stroke-opacity:1" d="M 12.4642,955.372 20.9283,970.608 z" id="boundary" inkscape:connector-curvature="0" />
	<path style="fill:none;stroke:red;stroke-width:1px;stroke-linecap:butt;stroke-linejoin:miter;stroke-opacity:1" d="M 20.9283,970.608 36.1638,979.072 z" id="boundary" inkscape:connector-curvature="0" />
	<path style="fill:none;stroke:red;stroke-width:1px;stroke-linecap:butt;stroke-linejoin:miter;stroke-opacity:1" d="M 26.0068,892.737 39.5495,879.195 z" id="boundary" inkscape:connector-curvature="0" />
	<path style="fill:none;stroke:red;stroke-width:1px;stroke-linecap:butt;stroke-linejoin:miter;stroke-opacity:1" d="M 36.1638,979.072 51.3993,987.536 z" id="boundary" inkscape:connector-curvature="0" />
	<path style="fill:none;stroke:red;stroke-width:1px;stroke-linecap:butt;stroke-linejoin:miter;stroke-opacity:1" d="M 39.5495,879.195 48.0137,862.266 z" id="boundary" inkscape:connector-curvature="0" />
	<path style="fill:none;stroke:red;stroke-width:1px;stroke-linecap:butt;stroke-linejoin:miter;stroke-opacity:1" d="M 48.0137,862.266 56.4778,845.338 z" id="boundary" inkscape:connector-curvature="0" />
	<path style="fill:none;stroke:red;stroke-width:1px;stroke-linecap:butt;stroke-linejoin:miter;stroke-opacity:1" d="M 51.3993,987.536 68.3276,987.536 z" id="boundary" inkscape:connector-curvature="0" />
	<path style="fill:none;stroke:red;stroke-width:1px;stroke-linecap:butt;stroke-linejoin:miter;stroke-opacity:1" d="M 56.4778,845.338 63.2491,821.638 z" id="boundary" inkscape:connector-curvature="0" />
	<path style="fill:none;stroke:red;stroke-width:1px;stroke-linecap:butt;stroke-linejoin:miter;stroke-opacity:1" d="M 63.2491,821.638 71.7133,796.246 z" id="boundary" inkscape:connector-curvature="0" />
	<path style="fill:none;stroke:red;stroke-width:1px;stroke-linecap:butt;stroke-linejoin:miter;stroke-opacity:1" d="M 68.3276,987.536 83.5631,996 z" id="boundary" inkscape:connector-curvature="0" />
	<path style="fill:none;stroke:red;stroke-width:1px;stroke-linecap:butt;stroke-linejoin:miter;stroke-opacity:1" d="M 71.7133,796.246 80.1775,779.317 z" id="boundary" inkscape:connector-curvature="0" />
	<path style="fill:none;stroke:red;stroke-width:1px;stroke-linecap:butt;stroke-linejoin:miter;stroke-opacity:1" d="M 80.1775,779.317 88.6416,762.389 z" id="boundary" inkscape:connector-curvature="0" />
	<path style="fill:none;stroke:red;stroke-width:1px;stroke-linecap:butt;stroke-linejoin:miter;stroke-opacity:1" d="M 83.5631,996 98.7986,987.536 z" id="boundary" inkscape:connector-curvature="0" />
	<path style="fill:none;stroke:red;stroke-width:1px;stroke-linecap:butt;stroke-linejoin:miter;stroke-opacity:1" d="M 88.6416,762.389 97.1058,745.461 z" id="boundary" inkscape:connector-curvature="0" />
	<path style="fill:none;stroke:red;stroke-width:1px;stroke-linecap:butt;stroke-linejoin:miter;stroke-opacity:1" d="M 97.1058,745.461 110.648,731.918 z" id="boundary" inkscape:connector-curvature="0" />
	<path style="fill:none;stroke:red;stroke-width:1px;stroke-linecap:butt;stroke-linejoin:miter;stroke-opacity:1" d="M 98.7986,987.536 114.034,979.072 z" id="boundary" inkscape:connector-curvature="0" />
	<path style="fill:none;stroke:red;stroke-width:1px;stroke-linecap:butt;stroke-linejoin:miter;stroke-opacity:1" d="M 110.648,731.918 124.191,718.375 z" id="boundary" inkscape:connector-curvature="0" />
	<path style="fill:none;stroke:red;stroke-width:1px;stroke-linecap:butt;stroke-linejoin:miter;stroke-opacity:1" d="M 114.034,979.072 129.27,970.608 z" id="boundary" inkscape:connector-curvature="0" />
	<path style="fill:none;stroke:red;stroke-width:1px;stroke-linecap:butt;stroke-linejoin:miter;stroke-opacity:1" d="M 124.191,718.375 132.655,701.447 z" id="boundary" inkscape:connector-curvature="0" />
	<path style="fill:none;stroke:red;stroke-width:1px;stroke-linecap:butt;stroke-linejoin:miter;stroke-opacity:1" d="M 129.27,970.608 144.505,960.451 z" id="boundary" inkscape:connector-curvature="0" />
	<path style="fill:none;stroke:red;stroke-width:1px;stroke-linecap:butt;stroke-linejoin:miter;stroke-opacity:1" d="M 132.655,701.447 141.119,684.519 z" id="boundary" inkscape:connector-curvature="0" />
	<path style="fill:none;stroke:red;stroke-width:1px;stroke-linecap:butt;stroke-linejoin:miter;stroke-opacity:1" d="M 141.119,684.519 154.662,672.669 z" id="boundary" inkscape:connector-curvature="0" />
	<path style="fill:none;stroke:red;stroke-width:1px;stroke-linecap:butt;stroke-linejoin:miter;stroke-opacity:1" d="M 141.119,826.717 149.584,809.788 z" id="boundary" inkscape:connector-curvature="0" />
	<path style="fill:none;stroke:red;stroke-width:1px;stroke-linecap:butt;stroke-linejoin:miter;stroke-opacity:1" d="M 141.119,826.717 149.584,841.952 z" id="boundary" inkscape:connector-curvature="0" />
	<path style="fill:none;stroke:red;stroke-width:1px;stroke-linecap:butt;stroke-linejoin:miter;stroke-opacity:1" d="M 144.505,960.451 158.048,941.829 z" id="boundary" inkscape:connector-curvature="0" />
	<path style="fill:none;stroke:red;stroke-width:1px;stroke-linecap:butt;stroke-linejoin:miter;stroke-opacity:1" d="M 149.584,809.788 163.126,797.939 z" id="boundary" inkscape:connector-curvature="0" />
	<path style="fill:none;stroke:red;stroke-width:1px;stroke-linecap:butt;stroke-linejoin:miter;stroke-opacity:1" d="M 149.584,841.952 149.584,858.881 z" id="boundary" inkscape:connector-curvature="0" />
	<path style="fill:none;stroke:red;stroke-width:1px;stroke-linecap:butt;stroke-linejoin:miter;stroke-opacity:1" d="M 149.584,858.881 149.584,875.809 z" id="boundary" inkscape:connector-curvature="0" />
	<path style="fill:none;stroke:red;stroke-width:1px;stroke-linecap:butt;stroke-linejoin:miter;stroke-opacity:1" d="M 149.584,875.809 158.048,891.044 z" id="boundary" inkscape:connector-curvature="0" />
	<path style="fill:none;stroke:red;stroke-width:1px;stroke-linecap:butt;stroke-linejoin:miter;stroke-opacity:1" d="M 154.662,672.669 161.433,655.741 z" id="boundary" inkscape:connector-curvature="0" />
	<path style="fill:none;stroke:red;stroke-width:1px;stroke-linecap:butt;stroke-linejoin:miter;stroke-opacity:1" d="M 158.048,891.044 158.048,907.973 z" id="boundary" inkscape:connector-curvature="0" />
	<path style="fill:none;stroke:red;stroke-width:1px;stroke-linecap:butt;stroke-linejoin:miter;stroke-opacity:1" d="M 158.048,907.973 158.048,924.901 z" id="boundary" inkscape:connector-curvature="0" />
	<path style="fill:none;stroke:red;stroke-width:1px;stroke-linecap:butt;stroke-linejoin:miter;stroke-opacity:1" d="M 158.048,924.901 158.048,941.829 z" id="boundary" inkscape:connector-curvature="0" />
	<path style="fill:none;stroke:red;stroke-width:1px;stroke-linecap:butt;stroke-linejoin:miter;stroke-opacity:1" d="M 161.433,655.741 169.898,638.812 z" id="boundary" inkscape:connector-curvature="0" />
	<path style="fill:none;stroke:red;stroke-width:1px;stroke-linecap:butt;stroke-linejoin:miter;stroke-opacity:1" d="M 163.126,797.939 174.976,775.932 z" id="boundary" inkscape:connector-curvature="0" />
	<path style="fill:none;stroke:red;stroke-width:1px;stroke-linecap:butt;stroke-linejoin:miter;stroke-opacity:1" d="M 169.898,638.812 178.362,621.884 z" id="boundary" inkscape:connector-curvature="0" />
	<path style="fill:none;stroke:red;stroke-width:1px;stroke-linecap:butt;stroke-linejoin:miter;stroke-opacity:1" d="M 174.976,775.932 188.519,764.082 z" id="boundary" inkscape:connector-curvature="0" />
	<path style="fill:none;stroke:red;stroke-width:1px;stroke-linecap:butt;stroke-linejoin:miter;stroke-opacity:1" d="M 178.362,621.884 191.904,608.341 z" id="boundary" inkscape:connector-curvature="0" />
	<path style="fill:none;stroke:red;stroke-width:1px;stroke-linecap:butt;stroke-linejoin:miter;stroke-opacity:1" d="M 188.519,764.082 196.983,747.154 z" id="boundary" inkscape:connector-curvature="0" />
	<path style="fill:none;stroke:red;stroke-width:1px;stroke-linecap:butt;stroke-linejoin:miter;stroke-opacity:1" d="M 191.904,608.341 200.369,591.413 z" id="boundary" inkscape:connector-curvature="0" />
	<path style="fill:none;stroke:red;stroke-width:1px;stroke-linecap:butt;stroke-linejoin:miter;stroke-opacity:1" d="M 196.983,747.154 208.833,733.611 z" id="boundary" inkscape:connector-curvature="0" />
	<path style="fill:none;stroke:red;stroke-width:1px;stroke-linecap:butt;stroke-linejoin:miter;stroke-opacity:1" d="M 200.369,591.413 208.833,574.485 z" id="boundary" inkscape:connector-curvature="0" />
	<path style="fill:none;stroke:red;stroke-width:1px;stroke-linecap:butt;stroke-linejoin:miter;stroke-opacity:1" d="M 208.833,574.485 222.375,562.635 z" id="boundary" inkscape:connector-curvature="0" />
	<path style="fill:none;stroke:red;stroke-width:1px;stroke-linecap:butt;stroke-linejoin:miter;stroke-opacity:1" d="M 208.833,733.611 217.297,716.683 z" id="boundary" inkscape:connector-curvature="0" />
	<path style="fill:none;stroke:red;stroke-width:1px;stroke-linecap:butt;stroke-linejoin:miter;stroke-opacity:1" d="M 217.297,716.683 225.761,699.754 z" id="boundary" inkscape:connector-curvature="0" />
	<path style="fill:none;stroke:red;stroke-width:1px;stroke-linecap:butt;stroke-linejoin:miter;stroke-opacity:1" d="M 222.375,562.635 232.532,542.321 z" id="boundary" inkscape:connector-curvature="0" />
	<path style="fill:none;stroke:red;stroke-width:1px;stroke-linecap:butt;stroke-linejoin:miter;stroke-opacity:1" d="M 225.761,699.754 239.304,687.904 z" id="boundary" inkscape:connector-curvature="0" />
	<path style="fill:none;stroke:red;stroke-width:1px;stroke-linecap:butt;stroke-linejoin:miter;stroke-opacity:1" d="M 232.532,542.321 240.997,525.392 z" id="boundary" inkscape:connector-curvature="0" />
	<path style="fill:none;stroke:red;stroke-width:1px;stroke-linecap:butt;stroke-linejoin:miter;stroke-opacity:1" d="M 239.304,687.904 247.768,670.976 z" id="boundary" inkscape:connector-curvature="0" />
	<path style="fill:none;stroke:red;stroke-width:1px;stroke-linecap:butt;stroke-linejoin:miter;stroke-opacity:1" d="M 240.997,525.392 254.539,511.85 z" id="boundary" inkscape:connector-curvature="0" />
	<path style="fill:none;stroke:red;stroke-width:1px;stroke-linecap:butt;stroke-linejoin:miter;stroke-opacity:1" d="M 247.768,670.976 259.618,657.433 z" id="boundary" inkscape:connector-curvature="0" />
	<path style="fill:none;stroke:red;stroke-width:1px;stroke-linecap:butt;stroke-linejoin:miter;stroke-opacity:1" d="M 254.539,511.85 263.003,494.922 z" id="boundary" inkscape:connector-curvature="0" />
	<path style="fill:none;stroke:red;stroke-width:1px;stroke-linecap:butt;stroke-linejoin:miter;stroke-opacity:1" d="M 259.618,657.433 268.082,640.505 z" id="boundary" inkscape:connector-curvature="0" />
	<path style="fill:none;stroke:red;stroke-width:1px;stroke-linecap:butt;stroke-linejoin:miter;stroke-opacity:1" d="M 263.003,494.922 271.468,477.993 z" id="boundary" inkscape:connector-curvature="0" />
	<path style="fill:none;stroke:red;stroke-width:1px;stroke-linecap:butt;stroke-linejoin:miter;stroke-opacity:1" d="M 268.082,640.505 276.546,623.577 z" id="boundary" inkscape:connector-curvature="0" />
	<path style="fill:none;stroke:red;stroke-width:1px;stroke-linecap:butt;stroke-linejoin:miter;stroke-opacity:1" d="M 271.468,477.993 283.317,457.679 z" id="boundary" inkscape:connector-curvature="0" />
	<path style="fill:none;stroke:red;stroke-width:1px;stroke-linecap:butt;stroke-linejoin:miter;stroke-opacity:1" d="M 276.546,623.577 290.089,611.727 z" id="boundary" inkscape:connector-curvature="0" />
	<path style="fill:none;stroke:red;stroke-width:1px;stroke-linecap:butt;stroke-linejoin:miter;stroke-opacity:1" d="M 283.317,457.679 291.782,440.751 z" id="boundary" inkscape:connector-curvature="0" />
	<path style="fill:none;stroke:red;stroke-width:1px;stroke-linecap:butt;stroke-linejoin:miter;stroke-opacity:1" d="M 290.089,611.727 298.553,594.799 z" id="boundary" inkscape:connector-curvature="0" />
	<path style="fill:none;stroke:red;stroke-width:1px;stroke-linecap:butt;stroke-linejoin:miter;stroke-opacity:1" d="M 291.782,440.751 305.324,427.208 z" id="boundary" inkscape:connector-curvature="0" />
	<path style="fill:none;stroke:red;stroke-width:1px;stroke-linecap:butt;stroke-linejoin:miter;stroke-opacity:1" d="M 298.553,594.799 307.017,577.87 z" id="boundary" inkscape:connector-curvature="0" />
	<path style="fill:none;stroke:red;stroke-width:1px;stroke-linecap:butt;stroke-linejoin:miter;stroke-opacity:1" d="M 305.324,427.208 313.788,410.28 z" id="boundary" inkscape:connector-curvature="0" />
	<path style="fill:none;stroke:red;stroke-width:1px;stroke-linecap:butt;stroke-linejoin:miter;stroke-opacity:1" d="M 307.017,577.87 318.867,564.328 z" id="boundary" inkscape:connector-curvature="0" />
	<path style="fill:none;stroke:red;stroke-width:1px;stroke-linecap:butt;stroke-linejoin:miter;stroke-opacity:1" d="M 313.788,410.28 325.638,389.966 z" id="boundary" inkscape:connector-curvature="0" />
	<path style="fill:none;stroke:red;stroke-width:1px;stroke-linecap:butt;stroke-linejoin:miter;stroke-opacity:1" d="M 318.867,564.328 332.41,552.478 z" id="boundary" inkscape:connector-curvature="0" />
	<path style="fill:none;stroke:red;stroke-width:1px;stroke-linecap:butt;stroke-linejoin:miter;stroke-opacity:1" d="M 325.638,389.966 334.102,373.038 z" id="boundary" inkscape:connector-curvature="0" />
	<path style="fill:none;stroke:red;stroke-width:1px;stroke-linecap:butt;stroke-linejoin:miter;stroke-opacity:1" d="M 332.41,552.478 340.874,535.549 z" id="boundary" inkscape:connector-curvature="0" />
	<path style="fill:none;stroke:red;stroke-width:1px;stroke-linecap:butt;stroke-linejoin:miter;stroke-opacity:1" d="M 334.102,373.038 347.645,359.495 z" id="boundary" inkscape:connector-curvature="0" />
	<path style="fill:none;stroke:red;stroke-width:1px;stroke-linecap:butt;stroke-linejoin:miter;stroke-opacity:1" d="M 340.874,535.549 352.724,513.543 z" id="boundary" inkscape:connector-curvature="0" />
	<path style="fill:none;stroke:red;stroke-width:1px;stroke-linecap:butt;stroke-linejoin:miter;stroke-opacity:1" d="M 347.645,359.495 359.495,339.181 z" id="boundary" inkscape:connector-curvature="0" />
	<path style="fill:none;stroke:red;stroke-width:1px;stroke-linecap:butt;stroke-linejoin:miter;stroke-opacity:1" d="M 352.724,513.543 361.188,496.614 z" id="boundary" inkscape:connector-curvature="0" />
	<path style="fill:none;stroke:red;stroke-width:1px;stroke-linecap:butt;stroke-linejoin:miter;stroke-opacity:1" d="M 359.495,339.181 373.038,325.638 z" id="boundary" inkscape:connector-curvature="0" />
	<path style="fill:none;stroke:red;stroke-width:1px;stroke-linecap:butt;stroke-linejoin:miter;stroke-opacity:1" d="M 361.188,496.614 374.73,484.765 z" id="boundary" inkscape:connector-curvature="0" />
	<path style="fill:none;stroke:red;stroke-width:1px;stroke-linecap:butt;stroke-linejoin:miter;stroke-opacity:1" d="M 373.038,325.638 381.502,308.71 z" id="boundary" inkscape:connector-curvature="0" />
	<path style="fill:none;stroke:red;stroke-width:1px;stroke-linecap:butt;stroke-linejoin:miter;stroke-opacity:1" d="M 374.73,484.765 386.58,462.758 z" id="boundary" inkscape:connector-curvature="0" />
	<path style="fill:none;stroke:red;stroke-width:1px;stroke-linecap:butt;stroke-linejoin:miter;stroke-opacity:1" d="M 381.502,308.71 393.352,288.396 z" id="boundary" inkscape:connector-curvature="0" />
	<path style="fill:none;stroke:red;stroke-width:1px;stroke-linecap:butt;stroke-linejoin:miter;stroke-opacity:1" d="M 386.58,462.758 395.044,445.829 z" id="boundary" inkscape:connector-curvature="0" />
	<path style="fill:none;stroke:red;stroke-width:1px;stroke-linecap:butt;stroke-linejoin:miter;stroke-opacity:1" d="M 393.352,288.396 401.816,271.468 z" id="boundary" inkscape:connector-curvature="0" />
	<path style="fill:none;stroke:red;stroke-width:1px;stroke-linecap:butt;stroke-linejoin:miter;stroke-opacity:1" d="M 395.044,445.829 408.587,433.98 z" id="boundary" inkscape:connector-curvature="0" />
	<path style="fill:none;stroke:red;stroke-width:1px;stroke-linecap:butt;stroke-linejoin:miter;stroke-opacity:1" d="M 401.816,271.468 415.358,257.925 z" id="boundary" inkscape:connector-curvature="0" />
	<path style="fill:none;stroke:red;stroke-width:1px;stroke-linecap:butt;stroke-linejoin:miter;stroke-opacity:1" d="M 408.587,433.98 417.051,417.051 z" id="boundary" inkscape:connector-curvature="0" />
	<path style="fill:none;stroke:red;stroke-width:1px;stroke-linecap:butt;stroke-linejoin:miter;stroke-opacity:1" d="M 415.358,257.925 423.823,240.997 z" id="boundary" inkscape:connector-curvature="0" />
	<path style="fill:none;stroke:red;stroke-width:1px;stroke-linecap:butt;stroke-linejoin:miter;stroke-opacity:1" d="M 417.051,417.051 428.901,403.509 z" id="boundary" inkscape:connector-curvature="0" />
	<path style="fill:none;stroke:red;stroke-width:1px;stroke-linecap:butt;stroke-linejoin:miter;stroke-opacity:1" d="M 418.744,76.7918 427.208,92.0273 z" id="boundary" inkscape:connector-curvature="0" />
	<path style="fill:none;stroke:red;stroke-width:1px;stroke-linecap:butt;stroke-linejoin:miter;stroke-opacity:1" d="M 418.744,76.7918 432.287,63.2491 z" id="boundary" inkscape:connector-curvature="0" />
	<path style="fill:none;stroke:red;stroke-width:1px;stroke-linecap:butt;stroke-linejoin:miter;stroke-opacity:1" d="M 423.823,240.997 432.287,224.068 z" id="boundary" inkscape:connector-curvature="0" />
	<path style="fill:none;stroke:red;stroke-width:1px;stroke-linecap:butt;stroke-linejoin:miter;stroke-opacity:1" d="M 427.208,92.0273 435.672,107.263 z" id="boundary" inkscape:connector-curvature="0" />
	<path style="fill:none;stroke:red;stroke-width:1px;stroke-linecap:butt;stroke-linejoin:miter;stroke-opacity:1" d="M 428.901,403.509 437.365,386.58 z" id="boundary" inkscape:connector-curvature="0" />
	<path style="fill:none;stroke:red;stroke-width:1px;stroke-linecap:butt;stroke-linejoin:miter;stroke-opacity:1" d="M 432.287,63.2491 445.829,49.7065 z" id="boundary" inkscape:connector-curvature="0" />
	<path style="fill:none;stroke:red;stroke-width:1px;stroke-linecap:butt;stroke-linejoin:miter;stroke-opacity:1" d="M 432.287,224.068 445.829,210.526 z" id="boundary" inkscape:connector-curvature="0" />
	<path style="fill:none;stroke:red;stroke-width:1px;stroke-linecap:butt;stroke-linejoin:miter;stroke-opacity:1" d="M 435.672,107.263 440.751,124.191 z" id="boundary" inkscape:connector-curvature="0" />
	<path style="fill:none;stroke:red;stroke-width:1px;stroke-linecap:butt;stroke-linejoin:miter;stroke-opacity:1" d="M 437.365,386.58 445.829,369.652 z" id="boundary" inkscape:connector-curvature="0" />
	<path style="fill:none;stroke:red;stroke-width:1px;stroke-linecap:butt;stroke-linejoin:miter;stroke-opacity:1" d="M 440.751,124.191 444.137,141.119 z" id="boundary" inkscape:connector-curvature="0" />
	<path style="fill:none;stroke:red;stroke-width:1px;stroke-linecap:butt;stroke-linejoin:miter;stroke-opacity:1" d="M 444.137,141.119 452.601,156.355 z" id="boundary" inkscape:connector-curvature="0" />
	<path style="fill:none;stroke:red;stroke-width:1px;stroke-linecap:butt;stroke-linejoin:miter;stroke-opacity:1" d="M 445.829,49.7065 454.294,32.7782 z" id="boundary" inkscape:connector-curvature="0" />
	<path style="fill:none;stroke:red;stroke-width:1px;stroke-linecap:butt;stroke-linejoin:miter;stroke-opacity:1" d="M 445.829,210.526 452.601,190.212 z" id="boundary" inkscape:connector-curvature="0" />
	<path style="fill:none;stroke:red;stroke-width:1px;stroke-linecap:butt;stroke-linejoin:miter;stroke-opacity:1" d="M 445.829,369.652 459.372,357.802 z" id="boundary" inkscape:connector-curvature="0" />
	<path style="fill:none;stroke:red;stroke-width:1px;stroke-linecap:butt;stroke-linejoin:miter;stroke-opacity:1" d="M 452.601,156.355 452.601,173.283 z" id="boundary" inkscape:connector-curvature="0" />
	<path style="fill:none;stroke:red;stroke-width:1px;stroke-linecap:butt;stroke-linejoin:miter;stroke-opacity:1" d="M 452.601,173.283 452.601,190.212 z" id="boundary" inkscape:connector-curvature="0" />
	<path style="fill:none;stroke:red;stroke-width:1px;stroke-linecap:butt;stroke-linejoin:miter;stroke-opacity:1" d="M 454.294,32.7782 462.758,15.8498 z" id="boundary" inkscape:connector-curvature="0" />
	<path style="fill:none;stroke:red;stroke-width:1px;stroke-linecap:butt;stroke-linejoin:miter;stroke-opacity:1" d="M 459.372,357.802 471.222,344.259 z" id="boundary" inkscape:connector-curvature="0" />
	<path style="fill:none;stroke:red;stroke-width:1px;stroke-linecap:butt;stroke-linejoin:miter;stroke-opacity:1" d="M 462.758,15.8498 479.686,7.38567 z" id="boundary" inkscape:connector-curvature="0" />
	<path style="fill:none;stroke:red;stroke-width:1px;stroke-linecap:butt;stroke-linejoin:miter;stroke-opacity:1" d="M 471.222,344.259 479.686,327.331 z" id="boundary" inkscape:connector-curvature="0" />
	<path style="fill:none;stroke:red;stroke-width:1px;stroke-linecap:butt;stroke-linejoin:miter;stroke-opacity:1" d="M 479.686,7.38567 496.614,4 z" id="boundary" inkscape:connector-curvature="0" />
	<path style="fill:none;stroke:red;stroke-width:1px;stroke-linecap:butt;stroke-linejoin:miter;stroke-opacity:1" d="M 479.686,327.331 488.15,310.403 z" id="boundary" inkscape:connector-curvature="0" />
	<path style="fill:none;stroke:red;stroke-width:1px;stroke-linecap:butt;stroke-linejoin:miter;stroke-opacity:1" d="M 488.15,310.403 501.693,298.553 z" id="boundary" inkscape:connector-curvature="0" />
	<path style="fill:none;stroke:red;stroke-width:1px;stroke-linecap:butt;stroke-linejoin:miter;stroke-opacity:1" d="M 496.614,4 513.543,4 z" id="boundary" inkscape:connector-curvature="0" />
	<path style="fill:none;stroke:red;stroke-width:1px;stroke-linecap:butt;stroke-linejoin:miter;stroke-opacity:1" d="M 501.693,298.553 510.157,281.625 z" id="boundary" inkscape:connector-curvature="0" />
	<path style="fill:none;stroke:red;stroke-width:1px;stroke-linecap:butt;stroke-linejoin:miter;stroke-opacity:1" d="M 510.157,281.625 518.621,264.696 z" id="boundary" inkscape:connector-curvature="0" />
	<path style="fill:none;stroke:red;stroke-width:1px;stroke-linecap:butt;stroke-linejoin:miter;stroke-opacity:1" d="M 513.543,4 530.471,4 z" id="boundary" inkscape:connector-curvature="0" />
	<path style="fill:none;stroke:red;stroke-width:1px;stroke-linecap:butt;stroke-linejoin:miter;stroke-opacity:1" d="M 518.621,264.696 530.471,251.154 z" id="boundary" inkscape:connector-curvature="0" />
	<path style="fill:none;stroke:red;stroke-width:1px;stroke-linecap:butt;stroke-linejoin:miter;stroke-opacity:1" d="M 530.471,4 547.399,4 z" id="boundary" inkscape:connector-curvature="0" />
	<path style="fill:none;stroke:red;stroke-width:1px;stroke-linecap:butt;stroke-linejoin:miter;stroke-opacity:1" d="M 530.471,251.154 544.014,239.304 z" id="boundary" inkscape:connector-curvature="0" />
	<path style="fill:none;stroke:red;stroke-width:1px;stroke-linecap:butt;stroke-linejoin:miter;stroke-opacity:1" d="M 544.014,239.304 552.478,222.375 z" id="boundary" inkscape:connector-curvature="0" />
	<path style="fill:none;stroke:red;stroke-width:1px;stroke-linecap:butt;stroke-linejoin:miter;stroke-opacity:1" d="M 547.399,4 564.328,4 z" id="boundary" inkscape:connector-curvature="0" />
	<path style="fill:none;stroke:red;stroke-width:1px;stroke-linecap:butt;stroke-linejoin:miter;stroke-opacity:1" d="M 552.478,222.375 560.942,205.447 z" id="boundary" inkscape:connector-curvature="0" />
	<path style="fill:none;stroke:red;stroke-width:1px;stroke-linecap:butt;stroke-linejoin:miter;stroke-opacity:1" d="M 560.942,205.447 572.792,183.44 z" id="boundary" inkscape:connector-curvature="0" />
	<path style="fill:none;stroke:red;stroke-width:1px;stroke-linecap:butt;stroke-linejoin:miter;stroke-opacity:1" d="M 564.328,4 577.87,14.157 z" id="boundary" inkscape:connector-curvature="0" />
	<path style="fill:none;stroke:red;stroke-width:1px;stroke-linecap:butt;stroke-linejoin:miter;stroke-opacity:1" d="M 572.792,183.44 581.256,166.512 z" id="boundary" inkscape:connector-curvature="0" />
	<path style="fill:none;stroke:red;stroke-width:1px;stroke-linecap:butt;stroke-linejoin:miter;stroke-opacity:1" d="M 577.87,14.157 589.72,27.6997 z" id="boundary" inkscape:connector-curvature="0" />
	<path style="fill:none;stroke:red;stroke-width:1px;stroke-linecap:butt;stroke-linejoin:miter;stroke-opacity:1" d="M 581.256,166.512 594.799,154.662 z" id="boundary" inkscape:connector-curvature="0" />
	<path style="fill:none;stroke:red;stroke-width:1px;stroke-linecap:butt;stroke-linejoin:miter;stroke-opacity:1" d="M 589.72,27.6997 598.184,42.9352 z" id="boundary" inkscape:connector-curvature="0" />
	<path style="fill:none;stroke:red;stroke-width:1px;stroke-linecap:butt;stroke-linejoin:miter;stroke-opacity:1" d="M 589.72,98.7986 589.72,115.727 z" id="boundary" inkscape:connector-curvature="0" />
	<path style="fill:none;stroke:red;stroke-width:1px;stroke-linecap:butt;stroke-linejoin:miter;stroke-opacity:1" d="M 589.72,98.7986 603.263,86.9488 z" id="boundary" inkscape:connector-curvature="0" />
	<path style="fill:none;stroke:red;stroke-width:1px;stroke-linecap:butt;stroke-linejoin:miter;stroke-opacity:1" d="M 589.72,115.727 598.184,130.962 z" id="boundary" inkscape:connector-curvature="0" />
	<path style="fill:none;stroke:red;stroke-width:1px;stroke-linecap:butt;stroke-linejoin:miter;stroke-opacity:1" d="M 594.799,154.662 598.184,130.962 z" id="boundary" inkscape:connector-curvature="0" />
	<path style="fill:none;stroke:red;stroke-width:1px;stroke-linecap:butt;stroke-linejoin:miter;stroke-opacity:1" d="M 598.184,42.9352 598.184,59.8635 z" id="boundary" inkscape:connector-curvature="0" />
	<path style="fill:none;stroke:red;stroke-width:1px;stroke-linecap:butt;stroke-linejoin:miter;stroke-opacity:1" d="M 598.184,59.8635 603.263,86.9488 z" id="boundary" inkscape:connector-curvature="0" />
	<circle cx="4" cy="923.208" r="4" fill="#0" id="circle0"/>
	<circle cx="4" cy="940.137" r="4" fill="#0" id="circle1"/>
	<circle cx="12.4642" cy="906.28" r="4" fill="#0" id="circle2"/>
	<circle cx="12.4642" cy="955.372" r="4" fill="#0" id="circle3"/>
	<circle cx="20.9283" cy="970.608" r="4" fill="#0" id="circle4"/>
	<circle cx="26.0068" cy="892.737" r="4" fill="#0" id="circle5"/>
	<circle cx="36.1638" cy="979.072" r="4" fill="#0" id="circle6"/>
	<circle cx="39.5495" cy="879.195" r="4" fill="#0" id="circle7"/>
	<circle cx="48.0137" cy="862.266" r="4" fill="#0" id="circle8"/>
	<circle cx="51.3993" cy="987.536" r="4" fill="#0" id="circle9"/>
	<circle cx="56.4778" cy="845.338" r="4" fill="#0" id="circle10"/>
	<circle cx="63.2491" cy="821.638" r="4" fill="#0" id="circle11"/>
	<circle cx="68.3276" cy="987.536" r="4" fill="#0" id="circle12"/>
	<circle cx="71.7133" cy="796.246" r="4" fill="#0" id="circle13"/>
	<circle cx="80.1775" cy="779.317" r="4" fill="#0" id="circle14"/>
	<circle cx="83.5631" cy="996" r="4" fill="#0" id="circle15"/>
	<circle cx="88.6416" cy="762.389" r="4" fill="#0" id="circle16"/>
	<circle cx="97.1058" cy="745.461" r="4" fill="#0" id="circle17"/>
	<circle cx="98.7986" cy="987.536" r="4" fill="#0" id="circle18"/>
	<circle cx="110.648" cy="731.918" r="4" fill="#0" id="circle19"/>
	<circle cx="114.034" cy="979.072" r="4" fill="#0" id="circle20"/>
	<circle cx="124.191" cy="718.375" r="4" fill="#0" id="circle21"/>
	<circle cx="129.27" cy="970.608" r="4" fill="#0" id="circle22"/>
	<circle cx="132.655" cy="701.447" r="4" fill="#0" id="circle23"/>
	<circle cx="141.119" cy="684.519" r="4" fill="#0" id="circle24"/>
	<circle cx="141.119" cy="826.717" r="4" fill="#0" id="circle25"/>
	<circle cx="144.505" cy="960.451" r="4" fill="#0" id="circle26"/>
	<circle cx="149.584" cy="809.788" r="4" fill="#0" id="circle27"/>
	<circle cx="149.584" cy="841.952" r="4" fill="#0" id="circle28"/>
	<circle cx="149.584" cy="858.881" r="4" fill="#0" id="circle29"/>
	<circle cx="149.584" cy="875.809" r="4" fill="#0" id="circle30"/>
	<circle cx="154.662" cy="672.669" r="4" fill="#0" id="circle31"/>
	<circle cx="158.048" cy="891.044" r="4" fill="#0" id="circle32"/>
	<circle cx="158.048" cy="907.973" r="4" fill="#0" id="circle33"/>
	<circle cx="158.048" cy="924.901" r="4" fill="#0" id="circle34"/>
	<circle cx="158.048" cy="941.829" r="4" fill="#0" id="circle35"/>
	<circle cx="161.433" cy="655.741" r="4" fill="#0" id="circle36"/>
	<circle cx="163.126" cy="797.939" r="4" fill="#0" id="circle37"/>
	<circle cx="169.898" cy="638.812" r="4" fill="#0" id="circle38"/>
	<circle cx="174.976" cy="775.932" r="4" fill="#0" id="circle39"/>
	<circle cx="178.362" cy="621.884" r="4" fill="#0" id="circle40"/>
	<circle cx="188.519" cy="764.082" r="4" fill="#0" id="circle41"/>
	<circle cx="191.904" cy="608.341" r="4" fill="#0" id="circle42"/>
	<circle cx="196.983" cy="747.154" r="4" fill="#0" id="circle43"/>
	<circle cx="200.369" cy="591.413" r="4" fill="#0" id="circle44"/>
	<circle cx="208.833" cy="574.485" r="4" fill="#0" id="circle45"/>
	<circle cx="208.833" cy="733.611" r="4" fill="#0" id="circle46"/>
	<circle cx="217.297" cy="716.683" r="4" fill="#0" id="circle47"/>
	<circle cx="222.375" cy="562.635" r="4" fill="#0" id="circle48"/>
	<circle cx="225.761" cy="699.754" r="4" fill="#0" id="circle49"/>
	<circle cx="232.532" cy="542.321" r="4" fill="#0" id="circle50"/>
	<circle cx="239.304" cy="687.904" r="4" fill="#0" id="circle51"/>
	<circle cx="240.997" cy="525.392" r="4" fill="#0" id="circle52"/>
	<circle cx="247.768" cy="670.976" r="4" fill="#0" id="circle53"/>
	<circle cx="254.539" cy="511.85" r="4" fill="#0" id="circle54"/>
	<circle cx="259.618" cy="657.433" r="4" fill="#0" id="circle55"/>
	<circle cx="263.003" cy="494.922" r="4" fill="#0" id="circle56"/>
	<circle cx="268.082" cy="640.505" r="4" fill="#0" id="circle57"/>
	<circle cx="271.468" cy="477.993" r="4" fill="#0" id="circle58"/>
	<circle cx="276.546" cy="623.577" r="4" fill="#0" id="circle59"/>
	<circle cx="283.317" cy="457.679" r="4" fill="#0" id="circle60"/>
	<circle cx="290.089" cy="611.727" r="4" fill="#0" id="circle61"/>
	<circle cx="291.782" cy="440.751" r="4" fill="#0" id="circle62"/>
	<circle cx="298.553" cy="594.799" r="4" fill="#0" id="circle63"/>
	<circle cx="305.324" cy="427.208" r="4" fill="#0" id="circle64"/>
	<circle cx="307.017" cy="577.87" r="4" fill="#0" id="circle65"/>
	<circle cx="313.788" cy="410.28" r="4" fill="#0" id="circle66"/>
	<circle cx="318.867" cy="564.328" r="4" fill="#0" id="circle67"/>
	<circle cx="325.638" cy="389.966" r="4" fill="#0" id="circle68"/>
	<circle cx="332.41" cy="552.478" r="4" fill="#0" id="circle69"/>
	<circle cx="334.102" cy="373.038" r="4" fill="#0" id="circle70"/>
	<circle cx="340.874" cy="535.549" r="4" fill="#0" id="circle71"/>
	<circle cx="347.645" cy="359.495" r="4" fill="#0" id="circle72"/>
	<circle cx="352.724" cy="513.543" r="4" fill="#0" id="circle73"/>
	<circle cx="359.495" cy="339.181" r="4" fill="#0" id="circle74"/>
	<circle cx="361.188" cy="496.614" r="4" fill="#0" id="circle75"/>
	<circle cx="373.038" cy="325.638" r="4" fill="#0" id="circle76"/>
	<circle cx="374.73" cy="484.765" r="4" fill="#0" id="circle77"/>
	<circle cx="381.502" cy="308.71" r="4" fill="#0" id="circle78"/>
	<circle cx="386.58" cy="462.758" r="4" fill="#0" id="circle79"/>
	<circle cx="393.352" cy="288.396" r="4" fill="#0" id="circle80"/>
	<circle cx="395.044" cy="445.829" r="4" fill="#0" id="circle81"/>
	<circle cx="401.816" cy="271.468" r="4" fill="#0" id="circle82"/>
	<circle cx="408.587" cy="433.98" r="4" fill="#0" id="circle83"/>
	<circle cx="415.358" cy="257.925" r="4" fill="#0" id="circle84"/>
	<circle cx="417.051" cy="417.051" r="4" fill="#0" id="circle85"/>
	<circle cx="418.744" cy="76.7918" r="4" fill="#0" id="circle86"/>
	<circle cx="423.823" cy="240.997" r="4" fill="#0" id="circle87"/>
	<circle cx="427.208" cy="92.0273" r="4" fill="#0" id="circle88"/>
	<circle cx="428.901" cy="403.509" r="4" fill="#0" id="circle89"/>
	<circle cx="432.287" cy="63.2491" r="4" fill="#0" id="circle90"/>
	<circle cx="432.287" cy="224.068" r="4" fill="#0" id="circle91"/>
	<circle cx="435.672" cy="107.263" r="4" fill="#0" id="circle92"/>
	<circle cx="437.365" cy="386.58" r="4" fill="#0" id="circle93"/>
	<circle cx="440.751" cy="124.191" r="4" fill="#0" id="circle94"/>
	<circle cx="444.137" cy="141.119" r="4" fill="#0" id="circle95"/>
	<circle cx="445.829" cy="49.7065" r="4" fill="#0" id="circle96"/>
	<circle cx="445.829" cy="210.526" r="4" fill="#0" id="circle97"/>
	<circle cx="445.829" cy="369.652" r="4" fill="#0" id="circle98"/>
	<circle cx="452.601" cy="156.355" r="4" fill="#0" id="circle99"/>
	<circle cx="452.601" cy="173.283" r="4" fill="#0" id="circle100"/>
	<circle cx="452.601" cy="190.212" r="4" fill="#0" id="circle101"/>
	<circle cx="454.294" cy="32.7782" r="4" fill="#0" id="circle102"/>
	<circle cx="459.372" cy="357.802" r="4" fill="#0" id="circle103"/>
	<circle cx="462.758" cy="15.8498" r="4" fill="#0" id="circle104"/>
	<circle cx="471.222" cy="344.259" r="4" fill="#0" id="circle105"/>
	<circle cx="479.686" cy="7.38567" r="4" fill="#0" id="circle106"/>
	<circle cx="479.686" cy="327.331" r="4" fill="#0" id="circle107"/>
	<circle cx="488.15" cy="310.403" r="4" fill="#0" id="circle108"/>
	<circle cx="496.614" cy="4" r="4" fill="#0" id="circle109"/>
	<circle cx="501.693" cy="298.553" r="4" fill="#0" id="circle110"/>
	<circle cx="510.157" cy="281.625" r="4" fill="#0" id="circle111"/>
	<circle cx="513.543" cy="4" r="4" fill="#0" id="circle112"/>
	<circle cx="518.621" cy="264.696" r="4" fill="#0" id="circle113"/>
	<circle cx="530.471" cy="4" r="4" fill="#0" id="circle114"/>
	<circle cx="530.471" cy="251.154" r="4" fill="#0" id="circle115"/>
	<circle cx="544.014" cy="239.304" r="4" fill="#0" id="circle116"/>
	<circle cx="547.399" cy="4" r="4" fill="#0" id="circle117"/>
	<circle cx="552.478" cy="222.375" r="4" fill="#0" id="circle118"/>
	<circle cx="560.942" cy="205.447" r="4" fill="#0" id="circle119"/>
	<circle cx="564.328" cy="4" r="4" fill="#0" id="circle120"/>
	<circle cx="572.792" cy="183.44" r="4" fill="#0" id="circle121"/>
	<circle cx="577.87" cy="14.157" r="4" fill="#0" id="circle122"/>
	<circle cx="581.256" cy="166.512" r="4" fill="#0" id="circle123"/>
	<circle cx="589.72" cy="27.6997" r="4" fill="#0" id="circle124"/>
	<circle cx="589.72" cy="98.7986" r="4" fill="#0" id="circle125"/>
	<circle cx="589.72" cy="115.727" r="4" fill="#0" id="circle126"/>
	<circle cx="594.799" cy="154.662" r="4" fill="#0" id="circle127"/>
	<circle cx="598.184" cy="42.9352" r="4" fill="#0" id="circle128"/>
	<circle cx="598.184" cy="59.8635" r="4" fill="#0" id="circle129"/>
	<circle cx="598.184" cy="130.962" r="4" fill="#0" id="circle130"/>
	<circle cx="603.263" cy="86.9488" r="4" fill="#0" id="circle131"/>
	</g>
</svg>