<?xml version="1.0" encoding="UTF-8" standalone="no"?>
<!-- Created with CurveBenchmark -->
<svg
	xmlns:dc="http://purl.org/dc/elements/1.1/"
	xmlns:cc="http://creativecommons.org/ns#"
	xmlns:rdf="http://www.w3.org/1999/02/22-rdf-syntax-ns#"
	xmlns:svg="http://www.w3.org/2000/svg"
	xmlns="http://www.w3.org/2000/svg"
	xmlns:sodipodi="http://sodipodi.sourceforge.net/DTD/sodipodi-0.dtd"
	xmlns:inkscape="http://www.inkscape.org/namespaces/inkscape"
	width="1000"
	height="1000"
	id="svg2"
	version="1.1"
	sodipodi:docname="manifold/fitconnect-bed060.png.txt">
<defs
	id="defs4" />
<metadata
	id="metadata7">
	<rdf:RDF>
		<cc:Work
			rdf:about="">
			<dc:format>image/svg+xml</dc:format>
			<dc:type
				rdf:resource="http://purl.org/dc/dcmitype/StillImage" />
			<dc:title></dc:title>
		</cc:Work>
	</rdf:RDF>
</metadata>
<g
	inkscape:label="Layer 1"
	inkscape:groupmode="layer"
	id="layer1">
	<path style="fill:none;stroke:red;stroke-width:1px;stroke-linecap:butt;stroke-linejoin:miter;stroke-opacity:1" d="M 4,128.204 5.63427,144.547 z" id="boundary" inkscape:connector-curvature="0" />
	<path style="fill:none;stroke:red;stroke-width:1px;stroke-linecap:butt;stroke-linejoin:miter;stroke-opacity:1" d="M 4,128.204 12.1713,113.496 z" id="boundary" inkscape:connector-curvature="0" />
	<path style="fill:none;stroke:red;stroke-width:1px;stroke-linecap:butt;stroke-linejoin:miter;stroke-opacity:1" d="M 4,347.196 4,363.539 z" id="boundary" inkscape:connector-curvature="0" />
	<path style="fill:none;stroke:red;stroke-width:1px;stroke-linecap:butt;stroke-linejoin:miter;stroke-opacity:1" d="M 4,347.196 7.26853,330.853 z" id="boundary" inkscape:connector-curvature="0" />
	<path style="fill:none;stroke:red;stroke-width:1px;stroke-linecap:butt;stroke-linejoin:miter;stroke-opacity:1" d="M 4,363.539 4,396.224 z" id="boundary" inkscape:connector-curvature="0" />
	<path style="fill:none;stroke:red;stroke-width:1px;stroke-linecap:butt;stroke-linejoin:miter;stroke-opacity:1" d="M 4,396.224 4,412.567 z" id="boundary" inkscape:connector-curvature="0" />
	<path style="fill:none;stroke:red;stroke-width:1px;stroke-linecap:butt;stroke-linejoin:miter;stroke-opacity:1" d="M 4,412.567 36.6853,440.349 z" id="boundary" inkscape:connector-curvature="0" />
	<path style="fill:none;stroke:red;stroke-width:1px;stroke-linecap:butt;stroke-linejoin:miter;stroke-opacity:1" d="M 5.63427,144.547 10.5371,160.89 z" id="boundary" inkscape:connector-curvature="0" />
	<path style="fill:none;stroke:red;stroke-width:1px;stroke-linecap:butt;stroke-linejoin:miter;stroke-opacity:1" d="M 7.26853,298.168 7.26853,314.511 z" id="boundary" inkscape:connector-curvature="0" />
	<path style="fill:none;stroke:red;stroke-width:1px;stroke-linecap:butt;stroke-linejoin:miter;stroke-opacity:1" d="M 7.26853,298.168 10.5371,275.288 z" id="boundary" inkscape:connector-curvature="0" />
	<path style="fill:none;stroke:red;stroke-width:1px;stroke-linecap:butt;stroke-linejoin:miter;stroke-opacity:1" d="M 7.26853,314.511 7.26853,330.853 z" id="boundary" inkscape:connector-curvature="0" />
	<path style="fill:none;stroke:red;stroke-width:1px;stroke-linecap:butt;stroke-linejoin:miter;stroke-opacity:1" d="M 10.5371,160.89 10.5371,177.232 z" id="boundary" inkscape:connector-curvature="0" />
	<path style="fill:none;stroke:red;stroke-width:1px;stroke-linecap:butt;stroke-linejoin:miter;stroke-opacity:1" d="M 10.5371,177.232 10.5371,193.575 z" id="boundary" inkscape:connector-curvature="0" />
	<path style="fill:none;stroke:red;stroke-width:1px;stroke-linecap:butt;stroke-linejoin:miter;stroke-opacity:1" d="M 10.5371,193.575 13.8056,209.918 z" id="boundary" inkscape:connector-curvature="0" />
	<path style="fill:none;stroke:red;stroke-width:1px;stroke-linecap:butt;stroke-linejoin:miter;stroke-opacity:1" d="M 10.5371,258.946 10.5371,275.288 z" id="boundary" inkscape:connector-curvature="0" />
	<path style="fill:none;stroke:red;stroke-width:1px;stroke-linecap:butt;stroke-linejoin:miter;stroke-opacity:1" d="M 10.5371,258.946 13.8056,242.603 z" id="boundary" inkscape:connector-curvature="0" />
	<path style="fill:none;stroke:red;stroke-width:1px;stroke-linecap:butt;stroke-linejoin:miter;stroke-opacity:1" d="M 12.1713,113.496 21.9769,100.422 z" id="boundary" inkscape:connector-curvature="0" />
	<path style="fill:none;stroke:red;stroke-width:1px;stroke-linecap:butt;stroke-linejoin:miter;stroke-opacity:1" d="M 13.8056,209.918 13.8056,226.26 z" id="boundary" inkscape:connector-curvature="0" />
	<path style="fill:none;stroke:red;stroke-width:1px;stroke-linecap:butt;stroke-linejoin:miter;stroke-opacity:1" d="M 13.8056,226.26 13.8056,242.603 z" id="boundary" inkscape:connector-curvature="0" />
	<path style="fill:none;stroke:red;stroke-width:1px;stroke-linecap:butt;stroke-linejoin:miter;stroke-opacity:1" d="M 21.9769,100.422 36.6853,92.2504 z" id="boundary" inkscape:connector-curvature="0" />
	<path style="fill:none;stroke:red;stroke-width:1px;stroke-linecap:butt;stroke-linejoin:miter;stroke-opacity:1" d="M 36.6853,92.2504 49.7595,82.4448 z" id="boundary" inkscape:connector-curvature="0" />
	<path style="fill:none;stroke:red;stroke-width:1px;stroke-linecap:butt;stroke-linejoin:miter;stroke-opacity:1" d="M 36.6853,440.349 53.028,440.349 z" id="boundary" inkscape:connector-curvature="0" />
	<path style="fill:none;stroke:red;stroke-width:1px;stroke-linecap:butt;stroke-linejoin:miter;stroke-opacity:1" d="M 49.7595,82.4448 66.1021,75.9077 z" id="boundary" inkscape:connector-curvature="0" />
	<path style="fill:none;stroke:red;stroke-width:1px;stroke-linecap:butt;stroke-linejoin:miter;stroke-opacity:1" d="M 53.028,440.349 69.3707,443.618 z" id="boundary" inkscape:connector-curvature="0" />
	<path style="fill:none;stroke:red;stroke-width:1px;stroke-linecap:butt;stroke-linejoin:miter;stroke-opacity:1" d="M 66.1021,75.9077 82.4448,69.3707 z" id="boundary" inkscape:connector-curvature="0" />
	<path style="fill:none;stroke:red;stroke-width:1px;stroke-linecap:butt;stroke-linejoin:miter;stroke-opacity:1" d="M 69.3707,443.618 85.7133,443.618 z" id="boundary" inkscape:connector-curvature="0" />
	<path style="fill:none;stroke:red;stroke-width:1px;stroke-linecap:butt;stroke-linejoin:miter;stroke-opacity:1" d="M 82.4448,69.3707 98.7875,62.8336 z" id="boundary" inkscape:connector-curvature="0" />
	<path style="fill:none;stroke:red;stroke-width:1px;stroke-linecap:butt;stroke-linejoin:miter;stroke-opacity:1" d="M 85.7133,443.618 102.056,443.618 z" id="boundary" inkscape:connector-curvature="0" />
	<path style="fill:none;stroke:red;stroke-width:1px;stroke-linecap:butt;stroke-linejoin:miter;stroke-opacity:1" d="M 98.7875,62.8336 115.13,49.7595 z" id="boundary" inkscape:connector-curvature="0" />
	<path style="fill:none;stroke:red;stroke-width:1px;stroke-linecap:butt;stroke-linejoin:miter;stroke-opacity:1" d="M 102.056,443.618 118.399,443.618 z" id="boundary" inkscape:connector-curvature="0" />
	<path style="fill:none;stroke:red;stroke-width:1px;stroke-linecap:butt;stroke-linejoin:miter;stroke-opacity:1" d="M 115.13,49.7595 128.204,39.9539 z" id="boundary" inkscape:connector-curvature="0" />
	<path style="fill:none;stroke:red;stroke-width:1px;stroke-linecap:butt;stroke-linejoin:miter;stroke-opacity:1" d="M 118.399,443.618 134.741,443.618 z" id="boundary" inkscape:connector-curvature="0" />
	<path style="fill:none;stroke:red;stroke-width:1px;stroke-linecap:butt;stroke-linejoin:miter;stroke-opacity:1" d="M 128.204,39.9539 141.278,23.6112 z" id="boundary" inkscape:connector-curvature="0" />
	<path style="fill:none;stroke:red;stroke-width:1px;stroke-linecap:butt;stroke-linejoin:miter;stroke-opacity:1" d="M 134.741,443.618 151.084,443.618 z" id="boundary" inkscape:connector-curvature="0" />
	<path style="fill:none;stroke:red;stroke-width:1px;stroke-linecap:butt;stroke-linejoin:miter;stroke-opacity:1" d="M 141.278,23.6112 147.815,7.26853 z" id="boundary" inkscape:connector-curvature="0" />
	<path style="fill:none;stroke:red;stroke-width:1px;stroke-linecap:butt;stroke-linejoin:miter;stroke-opacity:1" d="M 147.815,7.26853 164.158,4 z" id="boundary" inkscape:connector-curvature="0" />
	<path style="fill:none;stroke:red;stroke-width:1px;stroke-linecap:butt;stroke-linejoin:miter;stroke-opacity:1" d="M 151.084,443.618 167.427,443.618 z" id="boundary" inkscape:connector-curvature="0" />
	<path style="fill:none;stroke:red;stroke-width:1px;stroke-linecap:butt;stroke-linejoin:miter;stroke-opacity:1" d="M 164.158,4 178.867,12.1713 z" id="boundary" inkscape:connector-curvature="0" />
	<path style="fill:none;stroke:red;stroke-width:1px;stroke-linecap:butt;stroke-linejoin:miter;stroke-opacity:1" d="M 167.427,443.618 183.769,443.618 z" id="boundary" inkscape:connector-curvature="0" />
	<path style="fill:none;stroke:red;stroke-width:1px;stroke-linecap:butt;stroke-linejoin:miter;stroke-opacity:1" d="M 178.867,12.1713 187.038,26.8797 z" id="boundary" inkscape:connector-curvature="0" />
	<path style="fill:none;stroke:red;stroke-width:1px;stroke-linecap:butt;stroke-linejoin:miter;stroke-opacity:1" d="M 183.769,443.618 200.112,443.618 z" id="boundary" inkscape:connector-curvature="0" />
	<path style="fill:none;stroke:red;stroke-width:1px;stroke-linecap:butt;stroke-linejoin:miter;stroke-opacity:1" d="M 187.038,26.8797 196.843,39.9539 z" id="boundary" inkscape:connector-curvature="0" />
	<path style="fill:none;stroke:red;stroke-width:1px;stroke-linecap:butt;stroke-linejoin:miter;stroke-opacity:1" d="M 196.843,39.9539 209.918,49.7595 z" id="boundary" inkscape:connector-curvature="0" />
	<path style="fill:none;stroke:red;stroke-width:1px;stroke-linecap:butt;stroke-linejoin:miter;stroke-opacity:1" d="M 200.112,443.618 216.455,443.618 z" id="boundary" inkscape:connector-curvature="0" />
	<path style="fill:none;stroke:red;stroke-width:1px;stroke-linecap:butt;stroke-linejoin:miter;stroke-opacity:1" d="M 209.918,49.7595 218.089,64.4679 z" id="boundary" inkscape:connector-curvature="0" />
	<path style="fill:none;stroke:red;stroke-width:1px;stroke-linecap:butt;stroke-linejoin:miter;stroke-opacity:1" d="M 216.455,443.618 232.797,443.618 z" id="boundary" inkscape:connector-curvature="0" />
	<path style="fill:none;stroke:red;stroke-width:1px;stroke-linecap:butt;stroke-linejoin:miter;stroke-opacity:1" d="M 218.089,64.4679 234.432,69.3707 z" id="boundary" inkscape:connector-curvature="0" />
	<path style="fill:none;stroke:red;stroke-width:1px;stroke-linecap:butt;stroke-linejoin:miter;stroke-opacity:1" d="M 232.797,443.618 249.14,443.618 z" id="boundary" inkscape:connector-curvature="0" />
	<path style="fill:none;stroke:red;stroke-width:1px;stroke-linecap:butt;stroke-linejoin:miter;stroke-opacity:1" d="M 234.432,69.3707 250.774,75.9077 z" id="boundary" inkscape:connector-curvature="0" />
	<path style="fill:none;stroke:red;stroke-width:1px;stroke-linecap:butt;stroke-linejoin:miter;stroke-opacity:1" d="M 249.14,443.618 265.483,443.618 z" id="boundary" inkscape:connector-curvature="0" />
	<path style="fill:none;stroke:red;stroke-width:1px;stroke-linecap:butt;stroke-linejoin:miter;stroke-opacity:1" d="M 250.774,75.9077 265.483,84.0791 z" id="boundary" inkscape:connector-curvature="0" />
	<path style="fill:none;stroke:red;stroke-width:1px;stroke-linecap:butt;stroke-linejoin:miter;stroke-opacity:1" d="M 265.483,84.0791 278.557,93.8847 z" id="boundary" inkscape:connector-curvature="0" />
	<path style="fill:none;stroke:red;stroke-width:1px;stroke-linecap:butt;stroke-linejoin:miter;stroke-opacity:1" d="M 265.483,443.618 291.631,507.354 z" id="boundary" inkscape:connector-curvature="0" />
	<path style="fill:none;stroke:red;stroke-width:1px;stroke-linecap:butt;stroke-linejoin:miter;stroke-opacity:1" d="M 278.557,93.8847 291.631,103.69 z" id="boundary" inkscape:connector-curvature="0" />
	<path style="fill:none;stroke:red;stroke-width:1px;stroke-linecap:butt;stroke-linejoin:miter;stroke-opacity:1" d="M 291.631,103.69 303.071,116.764 z" id="boundary" inkscape:connector-curvature="0" />
	<path style="fill:none;stroke:red;stroke-width:1px;stroke-linecap:butt;stroke-linejoin:miter;stroke-opacity:1" d="M 291.631,507.354 299.802,484.474 z" id="boundary" inkscape:connector-curvature="0" />
	<path style="fill:none;stroke:red;stroke-width:1px;stroke-linecap:butt;stroke-linejoin:miter;stroke-opacity:1" d="M 294.9,178.867 296.534,157.621 z" id="boundary" inkscape:connector-curvature="0" />
	<path style="fill:none;stroke:red;stroke-width:1px;stroke-linecap:butt;stroke-linejoin:miter;stroke-opacity:1" d="M 294.9,178.867 309.608,187.038 z" id="boundary" inkscape:connector-curvature="0" />
	<path style="fill:none;stroke:red;stroke-width:1px;stroke-linecap:butt;stroke-linejoin:miter;stroke-opacity:1" d="M 296.534,157.621 306.339,133.107 z" id="boundary" inkscape:connector-curvature="0" />
	<path style="fill:none;stroke:red;stroke-width:1px;stroke-linecap:butt;stroke-linejoin:miter;stroke-opacity:1" d="M 299.802,484.474 319.414,443.618 z" id="boundary" inkscape:connector-curvature="0" />
	<path style="fill:none;stroke:red;stroke-width:1px;stroke-linecap:butt;stroke-linejoin:miter;stroke-opacity:1" d="M 303.071,116.764 306.339,133.107 z" id="boundary" inkscape:connector-curvature="0" />
	<path style="fill:none;stroke:red;stroke-width:1px;stroke-linecap:butt;stroke-linejoin:miter;stroke-opacity:1" d="M 309.608,187.038 324.316,195.209 z" id="boundary" inkscape:connector-curvature="0" />
	<path style="fill:none;stroke:red;stroke-width:1px;stroke-linecap:butt;stroke-linejoin:miter;stroke-opacity:1" d="M 319.414,443.618 352.099,443.618 z" id="boundary" inkscape:connector-curvature="0" />
	<path style="fill:none;stroke:red;stroke-width:1px;stroke-linecap:butt;stroke-linejoin:miter;stroke-opacity:1" d="M 324.316,195.209 340.659,200.112 z" id="boundary" inkscape:connector-curvature="0" />
	<path style="fill:none;stroke:red;stroke-width:1px;stroke-linecap:butt;stroke-linejoin:miter;stroke-opacity:1" d="M 340.659,200.112 357.002,200.112 z" id="boundary" inkscape:connector-curvature="0" />
	<path style="fill:none;stroke:red;stroke-width:1px;stroke-linecap:butt;stroke-linejoin:miter;stroke-opacity:1" d="M 352.099,443.618 384.784,443.618 z" id="boundary" inkscape:connector-curvature="0" />
	<path style="fill:none;stroke:red;stroke-width:1px;stroke-linecap:butt;stroke-linejoin:miter;stroke-opacity:1" d="M 357.002,200.112 373.344,200.112 z" id="boundary" inkscape:connector-curvature="0" />
	<path style="fill:none;stroke:red;stroke-width:1px;stroke-linecap:butt;stroke-linejoin:miter;stroke-opacity:1" d="M 373.344,200.112 389.687,203.381 z" id="boundary" inkscape:connector-curvature="0" />
	<path style="fill:none;stroke:red;stroke-width:1px;stroke-linecap:butt;stroke-linejoin:miter;stroke-opacity:1" d="M 384.784,443.618 401.127,443.618 z" id="boundary" inkscape:connector-curvature="0" />
	<path style="fill:none;stroke:red;stroke-width:1px;stroke-linecap:butt;stroke-linejoin:miter;stroke-opacity:1" d="M 389.687,203.381 406.03,209.918 z" id="boundary" inkscape:connector-curvature="0" />
	<path style="fill:none;stroke:red;stroke-width:1px;stroke-linecap:butt;stroke-linejoin:miter;stroke-opacity:1" d="M 401.127,443.618 417.47,443.618 z" id="boundary" inkscape:connector-curvature="0" />
	<path style="fill:none;stroke:red;stroke-width:1px;stroke-linecap:butt;stroke-linejoin:miter;stroke-opacity:1" d="M 406.03,209.918 422.372,216.455 z" id="boundary" inkscape:connector-curvature="0" />
	<path style="fill:none;stroke:red;stroke-width:1px;stroke-linecap:butt;stroke-linejoin:miter;stroke-opacity:1" d="M 417.47,443.618 433.812,443.618 z" id="boundary" inkscape:connector-curvature="0" />
	<path style="fill:none;stroke:red;stroke-width:1px;stroke-linecap:butt;stroke-linejoin:miter;stroke-opacity:1" d="M 422.372,216.455 435.446,226.26 z" id="boundary" inkscape:connector-curvature="0" />
	<path style="fill:none;stroke:red;stroke-width:1px;stroke-linecap:butt;stroke-linejoin:miter;stroke-opacity:1" d="M 433.812,443.618 450.155,443.618 z" id="boundary" inkscape:connector-curvature="0" />
	<path style="fill:none;stroke:red;stroke-width:1px;stroke-linecap:butt;stroke-linejoin:miter;stroke-opacity:1" d="M 435.446,226.26 448.521,236.066 z" id="boundary" inkscape:connector-curvature="0" />
	<path style="fill:none;stroke:red;stroke-width:1px;stroke-linecap:butt;stroke-linejoin:miter;stroke-opacity:1" d="M 448.521,236.066 461.595,245.871 z" id="boundary" inkscape:connector-curvature="0" />
	<path style="fill:none;stroke:red;stroke-width:1px;stroke-linecap:butt;stroke-linejoin:miter;stroke-opacity:1" d="M 450.155,443.618 466.498,443.618 z" id="boundary" inkscape:connector-curvature="0" />
	<path style="fill:none;stroke:red;stroke-width:1px;stroke-linecap:butt;stroke-linejoin:miter;stroke-opacity:1" d="M 461.595,245.871 471.4,258.946 z" id="boundary" inkscape:connector-curvature="0" />
	<path style="fill:none;stroke:red;stroke-width:1px;stroke-linecap:butt;stroke-linejoin:miter;stroke-opacity:1" d="M 466.498,443.618 482.84,443.618 z" id="boundary" inkscape:connector-curvature="0" />
	<path style="fill:none;stroke:red;stroke-width:1px;stroke-linecap:butt;stroke-linejoin:miter;stroke-opacity:1" d="M 471.4,258.946 484.474,268.751 z" id="boundary" inkscape:connector-curvature="0" />
	<path style="fill:none;stroke:red;stroke-width:1px;stroke-linecap:butt;stroke-linejoin:miter;stroke-opacity:1" d="M 482.84,443.618 499.183,443.618 z" id="boundary" inkscape:connector-curvature="0" />
	<path style="fill:none;stroke:red;stroke-width:1px;stroke-linecap:butt;stroke-linejoin:miter;stroke-opacity:1" d="M 484.474,268.751 492.646,283.46 z" id="boundary" inkscape:connector-curvature="0" />
	<path style="fill:none;stroke:red;stroke-width:1px;stroke-linecap:butt;stroke-linejoin:miter;stroke-opacity:1" d="M 492.646,283.46 508.988,288.362 z" id="boundary" inkscape:connector-curvature="0" />
	<path style="fill:none;stroke:red;stroke-width:1px;stroke-linecap:butt;stroke-linejoin:miter;stroke-opacity:1" d="M 499.183,443.618 515.526,443.618 z" id="boundary" inkscape:connector-curvature="0" />
	<path style="fill:none;stroke:red;stroke-width:1px;stroke-linecap:butt;stroke-linejoin:miter;stroke-opacity:1" d="M 508.988,288.362 525.331,291.631 z" id="boundary" inkscape:connector-curvature="0" />
	<path style="fill:none;stroke:red;stroke-width:1px;stroke-linecap:butt;stroke-linejoin:miter;stroke-opacity:1" d="M 515.526,443.618 531.868,443.618 z" id="boundary" inkscape:connector-curvature="0" />
	<path style="fill:none;stroke:red;stroke-width:1px;stroke-linecap:butt;stroke-linejoin:miter;stroke-opacity:1" d="M 525.331,291.631 541.674,291.631 z" id="boundary" inkscape:connector-curvature="0" />
	<path style="fill:none;stroke:red;stroke-width:1px;stroke-linecap:butt;stroke-linejoin:miter;stroke-opacity:1" d="M 531.868,443.618 548.211,443.618 z" id="boundary" inkscape:connector-curvature="0" />
	<path style="fill:none;stroke:red;stroke-width:1px;stroke-linecap:butt;stroke-linejoin:miter;stroke-opacity:1" d="M 541.674,291.631 558.016,291.631 z" id="boundary" inkscape:connector-curvature="0" />
	<path style="fill:none;stroke:red;stroke-width:1px;stroke-linecap:butt;stroke-linejoin:miter;stroke-opacity:1" d="M 548.211,443.618 564.554,443.618 z" id="boundary" inkscape:connector-curvature="0" />
	<path style="fill:none;stroke:red;stroke-width:1px;stroke-linecap:butt;stroke-linejoin:miter;stroke-opacity:1" d="M 558.016,291.631 574.359,291.631 z" id="boundary" inkscape:connector-curvature="0" />
	<path style="fill:none;stroke:red;stroke-width:1px;stroke-linecap:butt;stroke-linejoin:miter;stroke-opacity:1" d="M 564.554,443.618 580.896,443.618 z" id="boundary" inkscape:connector-curvature="0" />
	<path style="fill:none;stroke:red;stroke-width:1px;stroke-linecap:butt;stroke-linejoin:miter;stroke-opacity:1" d="M 574.359,291.631 590.702,291.631 z" id="boundary" inkscape:connector-curvature="0" />
	<path style="fill:none;stroke:red;stroke-width:1px;stroke-linecap:butt;stroke-linejoin:miter;stroke-opacity:1" d="M 580.896,443.618 597.239,443.618 z" id="boundary" inkscape:connector-curvature="0" />
	<path style="fill:none;stroke:red;stroke-width:1px;stroke-linecap:butt;stroke-linejoin:miter;stroke-opacity:1" d="M 590.702,291.631 607.044,291.631 z" id="boundary" inkscape:connector-curvature="0" />
	<path style="fill:none;stroke:red;stroke-width:1px;stroke-linecap:butt;stroke-linejoin:miter;stroke-opacity:1" d="M 597.239,443.618 613.582,443.618 z" id="boundary" inkscape:connector-curvature="0" />
	<path style="fill:none;stroke:red;stroke-width:1px;stroke-linecap:butt;stroke-linejoin:miter;stroke-opacity:1" d="M 607.044,291.631 623.387,291.631 z" id="boundary" inkscape:connector-curvature="0" />
	<path style="fill:none;stroke:red;stroke-width:1px;stroke-linecap:butt;stroke-linejoin:miter;stroke-opacity:1" d="M 613.582,443.618 629.924,443.618 z" id="boundary" inkscape:connector-curvature="0" />
	<path style="fill:none;stroke:red;stroke-width:1px;stroke-linecap:butt;stroke-linejoin:miter;stroke-opacity:1" d="M 623.387,291.631 639.73,291.631 z" id="boundary" inkscape:connector-curvature="0" />
	<path style="fill:none;stroke:red;stroke-width:1px;stroke-linecap:butt;stroke-linejoin:miter;stroke-opacity:1" d="M 629.924,443.618 646.267,443.618 z" id="boundary" inkscape:connector-curvature="0" />
	<path style="fill:none;stroke:red;stroke-width:1px;stroke-linecap:butt;stroke-linejoin:miter;stroke-opacity:1" d="M 639.73,291.631 656.072,291.631 z" id="boundary" inkscape:connector-curvature="0" />
	<path style="fill:none;stroke:red;stroke-width:1px;stroke-linecap:butt;stroke-linejoin:miter;stroke-opacity:1" d="M 646.267,443.618 662.61,443.618 z" id="boundary" inkscape:connector-curvature="0" />
	<path style="fill:none;stroke:red;stroke-width:1px;stroke-linecap:butt;stroke-linejoin:miter;stroke-opacity:1" d="M 656.072,291.631 672.415,291.631 z" id="boundary" inkscape:connector-curvature="0" />
	<path style="fill:none;stroke:red;stroke-width:1px;stroke-linecap:butt;stroke-linejoin:miter;stroke-opacity:1" d="M 662.61,443.618 664.244,459.96 z" id="boundary" inkscape:connector-curvature="0" />
	<path style="fill:none;stroke:red;stroke-width:1px;stroke-linecap:butt;stroke-linejoin:miter;stroke-opacity:1" d="M 664.244,459.96 667.512,476.303 z" id="boundary" inkscape:connector-curvature="0" />
	<path style="fill:none;stroke:red;stroke-width:1px;stroke-linecap:butt;stroke-linejoin:miter;stroke-opacity:1" d="M 667.512,476.303 670.781,492.646 z" id="boundary" inkscape:connector-curvature="0" />
	<path style="fill:none;stroke:red;stroke-width:1px;stroke-linecap:butt;stroke-linejoin:miter;stroke-opacity:1" d="M 670.781,492.646 677.318,508.988 z" id="boundary" inkscape:connector-curvature="0" />
	<path style="fill:none;stroke:red;stroke-width:1px;stroke-linecap:butt;stroke-linejoin:miter;stroke-opacity:1" d="M 672.415,291.631 688.758,283.46 z" id="boundary" inkscape:connector-curvature="0" />
	<path style="fill:none;stroke:red;stroke-width:1px;stroke-linecap:butt;stroke-linejoin:miter;stroke-opacity:1" d="M 677.318,508.988 692.026,500.817 z" id="boundary" inkscape:connector-curvature="0" />
	<path style="fill:none;stroke:red;stroke-width:1px;stroke-linecap:butt;stroke-linejoin:miter;stroke-opacity:1" d="M 688.758,283.46 703.466,275.288 z" id="boundary" inkscape:connector-curvature="0" />
	<path style="fill:none;stroke:red;stroke-width:1px;stroke-linecap:butt;stroke-linejoin:miter;stroke-opacity:1" d="M 692.026,484.474 692.026,500.817 z" id="boundary" inkscape:connector-curvature="0" />
	<path style="fill:none;stroke:red;stroke-width:1px;stroke-linecap:butt;stroke-linejoin:miter;stroke-opacity:1" d="M 692.026,484.474 695.295,468.132 z" id="boundary" inkscape:connector-curvature="0" />
	<path style="fill:none;stroke:red;stroke-width:1px;stroke-linecap:butt;stroke-linejoin:miter;stroke-opacity:1" d="M 695.295,451.789 695.295,468.132 z" id="boundary" inkscape:connector-curvature="0" />
	<path style="fill:none;stroke:red;stroke-width:1px;stroke-linecap:butt;stroke-linejoin:miter;stroke-opacity:1" d="M 695.295,451.789 711.638,450.155 z" id="boundary" inkscape:connector-curvature="0" />
	<path style="fill:none;stroke:red;stroke-width:1px;stroke-linecap:butt;stroke-linejoin:miter;stroke-opacity:1" d="M 703.466,275.288 719.809,268.751 z" id="boundary" inkscape:connector-curvature="0" />
	<path style="fill:none;stroke:red;stroke-width:1px;stroke-linecap:butt;stroke-linejoin:miter;stroke-opacity:1" d="M 711.638,450.155 726.346,458.326 z" id="boundary" inkscape:connector-curvature="0" />
	<path style="fill:none;stroke:red;stroke-width:1px;stroke-linecap:butt;stroke-linejoin:miter;stroke-opacity:1" d="M 719.809,268.751 736.152,265.483 z" id="boundary" inkscape:connector-curvature="0" />
	<path style="fill:none;stroke:red;stroke-width:1px;stroke-linecap:butt;stroke-linejoin:miter;stroke-opacity:1" d="M 726.346,458.326 742.689,459.96 z" id="boundary" inkscape:connector-curvature="0" />
	<path style="fill:none;stroke:red;stroke-width:1px;stroke-linecap:butt;stroke-linejoin:miter;stroke-opacity:1" d="M 736.152,265.483 752.494,262.214 z" id="boundary" inkscape:connector-curvature="0" />
	<path style="fill:none;stroke:red;stroke-width:1px;stroke-linecap:butt;stroke-linejoin:miter;stroke-opacity:1" d="M 742.689,459.96 755.763,446.886 z" id="boundary" inkscape:connector-curvature="0" />
	<path style="fill:none;stroke:red;stroke-width:1px;stroke-linecap:butt;stroke-linejoin:miter;stroke-opacity:1" d="M 752.494,262.214 768.837,262.214 z" id="boundary" inkscape:connector-curvature="0" />
	<path style="fill:none;stroke:red;stroke-width:1px;stroke-linecap:butt;stroke-linejoin:miter;stroke-opacity:1" d="M 755.763,446.886 772.105,451.789 z" id="boundary" inkscape:connector-curvature="0" />
	<path style="fill:none;stroke:red;stroke-width:1px;stroke-linecap:butt;stroke-linejoin:miter;stroke-opacity:1" d="M 768.837,262.214 781.911,249.14 z" id="boundary" inkscape:connector-curvature="0" />
	<path style="fill:none;stroke:red;stroke-width:1px;stroke-linecap:butt;stroke-linejoin:miter;stroke-opacity:1" d="M 772.105,451.789 786.814,459.96 z" id="boundary" inkscape:connector-curvature="0" />
	<path style="fill:none;stroke:red;stroke-width:1px;stroke-linecap:butt;stroke-linejoin:miter;stroke-opacity:1" d="M 781.911,249.14 796.619,240.969 z" id="boundary" inkscape:connector-curvature="0" />
	<path style="fill:none;stroke:red;stroke-width:1px;stroke-linecap:butt;stroke-linejoin:miter;stroke-opacity:1" d="M 786.814,459.96 799.888,469.766 z" id="boundary" inkscape:connector-curvature="0" />
	<path style="fill:none;stroke:red;stroke-width:1px;stroke-linecap:butt;stroke-linejoin:miter;stroke-opacity:1" d="M 796.619,240.969 809.694,229.529 z" id="boundary" inkscape:connector-curvature="0" />
	<path style="fill:none;stroke:red;stroke-width:1px;stroke-linecap:butt;stroke-linejoin:miter;stroke-opacity:1" d="M 799.888,469.766 816.231,476.303 z" id="boundary" inkscape:connector-curvature="0" />
	<path style="fill:none;stroke:red;stroke-width:1px;stroke-linecap:butt;stroke-linejoin:miter;stroke-opacity:1" d="M 809.694,229.529 822.768,219.723 z" id="boundary" inkscape:connector-curvature="0" />
	<path style="fill:none;stroke:red;stroke-width:1px;stroke-linecap:butt;stroke-linejoin:miter;stroke-opacity:1" d="M 816.231,476.303 832.573,479.572 z" id="boundary" inkscape:connector-curvature="0" />
	<path style="fill:none;stroke:red;stroke-width:1px;stroke-linecap:butt;stroke-linejoin:miter;stroke-opacity:1" d="M 822.768,219.723 839.11,219.723 z" id="boundary" inkscape:connector-curvature="0" />
	<path style="fill:none;stroke:red;stroke-width:1px;stroke-linecap:butt;stroke-linejoin:miter;stroke-opacity:1" d="M 832.573,479.572 848.916,476.303 z" id="boundary" inkscape:connector-curvature="0" />
	<path style="fill:none;stroke:red;stroke-width:1px;stroke-linecap:butt;stroke-linejoin:miter;stroke-opacity:1" d="M 839.11,219.723 850.55,232.797 z" id="boundary" inkscape:connector-curvature="0" />
	<path style="fill:none;stroke:red;stroke-width:1px;stroke-linecap:butt;stroke-linejoin:miter;stroke-opacity:1" d="M 848.916,476.303 865.259,468.132 z" id="boundary" inkscape:connector-curvature="0" />
	<path style="fill:none;stroke:red;stroke-width:1px;stroke-linecap:butt;stroke-linejoin:miter;stroke-opacity:1" d="M 850.55,232.797 863.624,242.603 z" id="boundary" inkscape:connector-curvature="0" />
	<path style="fill:none;stroke:red;stroke-width:1px;stroke-linecap:butt;stroke-linejoin:miter;stroke-opacity:1" d="M 863.624,242.603 876.699,254.043 z" id="boundary" inkscape:connector-curvature="0" />
	<path style="fill:none;stroke:red;stroke-width:1px;stroke-linecap:butt;stroke-linejoin:miter;stroke-opacity:1" d="M 865.259,468.132 893.041,450.155 z" id="boundary" inkscape:connector-curvature="0" />
	<path style="fill:none;stroke:red;stroke-width:1px;stroke-linecap:butt;stroke-linejoin:miter;stroke-opacity:1" d="M 876.699,254.043 891.407,262.214 z" id="boundary" inkscape:connector-curvature="0" />
	<path style="fill:none;stroke:red;stroke-width:1px;stroke-linecap:butt;stroke-linejoin:miter;stroke-opacity:1" d="M 891.407,262.214 907.75,265.483 z" id="boundary" inkscape:connector-curvature="0" />
	<path style="fill:none;stroke:red;stroke-width:1px;stroke-linecap:butt;stroke-linejoin:miter;stroke-opacity:1" d="M 893.041,450.155 935.532,456.692 z" id="boundary" inkscape:connector-curvature="0" />
	<path style="fill:none;stroke:red;stroke-width:1px;stroke-linecap:butt;stroke-linejoin:miter;stroke-opacity:1" d="M 907.75,265.483 924.092,268.751 z" id="boundary" inkscape:connector-curvature="0" />
	<path style="fill:none;stroke:red;stroke-width:1px;stroke-linecap:butt;stroke-linejoin:miter;stroke-opacity:1" d="M 924.092,268.751 940.435,272.02 z" id="boundary" inkscape:connector-curvature="0" />
	<path style="fill:none;stroke:red;stroke-width:1px;stroke-linecap:butt;stroke-linejoin:miter;stroke-opacity:1" d="M 935.532,456.692 991.097,505.72 z" id="boundary" inkscape:connector-curvature="0" />
	<path style="fill:none;stroke:red;stroke-width:1px;stroke-linecap:butt;stroke-linejoin:miter;stroke-opacity:1" d="M 940.435,272.02 956.778,278.557 z" id="boundary" inkscape:connector-curvature="0" />
	<path style="fill:none;stroke:red;stroke-width:1px;stroke-linecap:butt;stroke-linejoin:miter;stroke-opacity:1" d="M 956.778,278.557 971.486,286.728 z" id="boundary" inkscape:connector-curvature="0" />
	<path style="fill:none;stroke:red;stroke-width:1px;stroke-linecap:butt;stroke-linejoin:miter;stroke-opacity:1" d="M 971.486,286.728 984.56,296.534 z" id="boundary" inkscape:connector-curvature="0" />
	<path style="fill:none;stroke:red;stroke-width:1px;stroke-linecap:butt;stroke-linejoin:miter;stroke-opacity:1" d="M 982.926,389.687 984.56,438.715 z" id="boundary" inkscape:connector-curvature="0" />
	<path style="fill:none;stroke:red;stroke-width:1px;stroke-linecap:butt;stroke-linejoin:miter;stroke-opacity:1" d="M 982.926,389.687 986.194,347.196 z" id="boundary" inkscape:connector-curvature="0" />
	<path style="fill:none;stroke:red;stroke-width:1px;stroke-linecap:butt;stroke-linejoin:miter;stroke-opacity:1" d="M 984.56,296.534 994.366,309.608 z" id="boundary" inkscape:connector-curvature="0" />
	<path style="fill:none;stroke:red;stroke-width:1px;stroke-linecap:butt;stroke-linejoin:miter;stroke-opacity:1" d="M 984.56,438.715 991.097,505.72 z" id="boundary" inkscape:connector-curvature="0" />
	<path style="fill:none;stroke:red;stroke-width:1px;stroke-linecap:butt;stroke-linejoin:miter;stroke-opacity:1" d="M 986.194,347.196 996,325.951 z" id="boundary" inkscape:connector-curvature="0" />
	<path style="fill:none;stroke:red;stroke-width:1px;stroke-linecap:butt;stroke-linejoin:miter;stroke-opacity:1" d="M 994.366,309.608 996,325.951 z" id="boundary" inkscape:connector-curvature="0" />
	<circle cx="4" cy="128.204" r="4" fill="#0" id="circle0"/>
	<circle cx="4" cy="347.196" r="4" fill="#0" id="circle1"/>
	<circle cx="4" cy="363.539" r="4" fill="#0" id="circle2"/>
	<circle cx="4" cy="379.881" r="4" fill="#0" id="circle3"/>
	<circle cx="4" cy="396.224" r="4" fill="#0" id="circle4"/>
	<circle cx="4" cy="412.567" r="4" fill="#0" id="circle5"/>
	<circle cx="5.63427" cy="144.547" r="4" fill="#0" id="circle6"/>
	<circle cx="7.26853" cy="298.168" r="4" fill="#0" id="circle7"/>
	<circle cx="7.26853" cy="314.511" r="4" fill="#0" id="circle8"/>
	<circle cx="7.26853" cy="330.853" r="4" fill="#0" id="circle9"/>
	<circle cx="7.26853" cy="428.909" r="4" fill="#0" id="circle10"/>
	<circle cx="8.9028" cy="445.252" r="4" fill="#0" id="circle11"/>
	<circle cx="10.5371" cy="160.89" r="4" fill="#0" id="circle12"/>
	<circle cx="10.5371" cy="177.232" r="4" fill="#0" id="circle13"/>
	<circle cx="10.5371" cy="193.575" r="4" fill="#0" id="circle14"/>
	<circle cx="10.5371" cy="258.946" r="4" fill="#0" id="circle15"/>
	<circle cx="10.5371" cy="275.288" r="4" fill="#0" id="circle16"/>
	<circle cx="10.5371" cy="461.595" r="4" fill="#0" id="circle17"/>
	<circle cx="12.1713" cy="113.496" r="4" fill="#0" id="circle18"/>
	<circle cx="13.8056" cy="209.918" r="4" fill="#0" id="circle19"/>
	<circle cx="13.8056" cy="226.26" r="4" fill="#0" id="circle20"/>
	<circle cx="13.8056" cy="242.603" r="4" fill="#0" id="circle21"/>
	<circle cx="13.8056" cy="477.937" r="4" fill="#0" id="circle22"/>
	<circle cx="13.8056" cy="494.28" r="4" fill="#0" id="circle23"/>
	<circle cx="21.9769" cy="100.422" r="4" fill="#0" id="circle24"/>
	<circle cx="21.9769" cy="508.988" r="4" fill="#0" id="circle25"/>
	<circle cx="31.7825" cy="487.743" r="4" fill="#0" id="circle26"/>
	<circle cx="36.6853" cy="92.2504" r="4" fill="#0" id="circle27"/>
	<circle cx="36.6853" cy="440.349" r="4" fill="#0" id="circle28"/>
	<circle cx="38.3196" cy="456.692" r="4" fill="#0" id="circle29"/>
	<circle cx="49.7595" cy="82.4448" r="4" fill="#0" id="circle30"/>
	<circle cx="53.028" cy="440.349" r="4" fill="#0" id="circle31"/>
	<circle cx="66.1021" cy="75.9077" r="4" fill="#0" id="circle32"/>
	<circle cx="69.3707" cy="443.618" r="4" fill="#0" id="circle33"/>
	<circle cx="82.4448" cy="69.3707" r="4" fill="#0" id="circle34"/>
	<circle cx="85.7133" cy="443.618" r="4" fill="#0" id="circle35"/>
	<circle cx="98.7875" cy="62.8336" r="4" fill="#0" id="circle36"/>
	<circle cx="102.056" cy="443.618" r="4" fill="#0" id="circle37"/>
	<circle cx="115.13" cy="49.7595" r="4" fill="#0" id="circle38"/>
	<circle cx="118.399" cy="443.618" r="4" fill="#0" id="circle39"/>
	<circle cx="128.204" cy="39.9539" r="4" fill="#0" id="circle40"/>
	<circle cx="134.741" cy="443.618" r="4" fill="#0" id="circle41"/>
	<circle cx="141.278" cy="23.6112" r="4" fill="#0" id="circle42"/>
	<circle cx="147.815" cy="7.26853" r="4" fill="#0" id="circle43"/>
	<circle cx="151.084" cy="443.618" r="4" fill="#0" id="circle44"/>
	<circle cx="164.158" cy="4" r="4" fill="#0" id="circle45"/>
	<circle cx="167.427" cy="443.618" r="4" fill="#0" id="circle46"/>
	<circle cx="178.867" cy="12.1713" r="4" fill="#0" id="circle47"/>
	<circle cx="183.769" cy="443.618" r="4" fill="#0" id="circle48"/>
	<circle cx="187.038" cy="26.8797" r="4" fill="#0" id="circle49"/>
	<circle cx="196.843" cy="39.9539" r="4" fill="#0" id="circle50"/>
	<circle cx="200.112" cy="443.618" r="4" fill="#0" id="circle51"/>
	<circle cx="209.918" cy="49.7595" r="4" fill="#0" id="circle52"/>
	<circle cx="216.455" cy="443.618" r="4" fill="#0" id="circle53"/>
	<circle cx="218.089" cy="64.4679" r="4" fill="#0" id="circle54"/>
	<circle cx="232.797" cy="443.618" r="4" fill="#0" id="circle55"/>
	<circle cx="234.432" cy="69.3707" r="4" fill="#0" id="circle56"/>
	<circle cx="249.14" cy="443.618" r="4" fill="#0" id="circle57"/>
	<circle cx="250.774" cy="75.9077" r="4" fill="#0" id="circle58"/>
	<circle cx="265.483" cy="84.0791" r="4" fill="#0" id="circle59"/>
	<circle cx="265.483" cy="443.618" r="4" fill="#0" id="circle60"/>
	<circle cx="278.557" cy="93.8847" r="4" fill="#0" id="circle61"/>
	<circle cx="278.557" cy="453.423" r="4" fill="#0" id="circle62"/>
	<circle cx="281.825" cy="477.937" r="4" fill="#0" id="circle63"/>
	<circle cx="281.825" cy="494.28" r="4" fill="#0" id="circle64"/>
	<circle cx="291.631" cy="103.69" r="4" fill="#0" id="circle65"/>
	<circle cx="291.631" cy="507.354" r="4" fill="#0" id="circle66"/>
	<circle cx="294.9" cy="178.867" r="4" fill="#0" id="circle67"/>
	<circle cx="296.534" cy="157.621" r="4" fill="#0" id="circle68"/>
	<circle cx="299.802" cy="484.474" r="4" fill="#0" id="circle69"/>
	<circle cx="303.071" cy="116.764" r="4" fill="#0" id="circle70"/>
	<circle cx="303.071" cy="445.252" r="4" fill="#0" id="circle71"/>
	<circle cx="303.071" cy="461.595" r="4" fill="#0" id="circle72"/>
	<circle cx="306.339" cy="133.107" r="4" fill="#0" id="circle73"/>
	<circle cx="309.608" cy="187.038" r="4" fill="#0" id="circle74"/>
	<circle cx="319.414" cy="443.618" r="4" fill="#0" id="circle75"/>
	<circle cx="324.316" cy="195.209" r="4" fill="#0" id="circle76"/>
	<circle cx="335.756" cy="443.618" r="4" fill="#0" id="circle77"/>
	<circle cx="340.659" cy="200.112" r="4" fill="#0" id="circle78"/>
	<circle cx="352.099" cy="443.618" r="4" fill="#0" id="circle79"/>
	<circle cx="357.002" cy="200.112" r="4" fill="#0" id="circle80"/>
	<circle cx="368.442" cy="443.618" r="4" fill="#0" id="circle81"/>
	<circle cx="373.344" cy="200.112" r="4" fill="#0" id="circle82"/>
	<circle cx="384.784" cy="443.618" r="4" fill="#0" id="circle83"/>
	<circle cx="389.687" cy="203.381" r="4" fill="#0" id="circle84"/>
	<circle cx="401.127" cy="443.618" r="4" fill="#0" id="circle85"/>
	<circle cx="406.03" cy="209.918" r="4" fill="#0" id="circle86"/>
	<circle cx="417.47" cy="443.618" r="4" fill="#0" id="circle87"/>
	<circle cx="422.372" cy="216.455" r="4" fill="#0" id="circle88"/>
	<circle cx="433.812" cy="443.618" r="4" fill="#0" id="circle89"/>
	<circle cx="435.446" cy="226.26" r="4" fill="#0" id="circle90"/>
	<circle cx="448.521" cy="236.066" r="4" fill="#0" id="circle91"/>
	<circle cx="450.155" cy="443.618" r="4" fill="#0" id="circle92"/>
	<circle cx="461.595" cy="245.871" r="4" fill="#0" id="circle93"/>
	<circle cx="466.498" cy="443.618" r="4" fill="#0" id="circle94"/>
	<circle cx="471.4" cy="258.946" r="4" fill="#0" id="circle95"/>
	<circle cx="482.84" cy="443.618" r="4" fill="#0" id="circle96"/>
	<circle cx="484.474" cy="268.751" r="4" fill="#0" id="circle97"/>
	<circle cx="492.646" cy="283.46" r="4" fill="#0" id="circle98"/>
	<circle cx="499.183" cy="443.618" r="4" fill="#0" id="circle99"/>
	<circle cx="508.988" cy="288.362" r="4" fill="#0" id="circle100"/>
	<circle cx="515.526" cy="443.618" r="4" fill="#0" id="circle101"/>
	<circle cx="525.331" cy="291.631" r="4" fill="#0" id="circle102"/>
	<circle cx="531.868" cy="443.618" r="4" fill="#0" id="circle103"/>
	<circle cx="541.674" cy="291.631" r="4" fill="#0" id="circle104"/>
	<circle cx="548.211" cy="443.618" r="4" fill="#0" id="circle105"/>
	<circle cx="558.016" cy="291.631" r="4" fill="#0" id="circle106"/>
	<circle cx="564.554" cy="443.618" r="4" fill="#0" id="circle107"/>
	<circle cx="574.359" cy="291.631" r="4" fill="#0" id="circle108"/>
	<circle cx="580.896" cy="443.618" r="4" fill="#0" id="circle109"/>
	<circle cx="590.702" cy="291.631" r="4" fill="#0" id="circle110"/>
	<circle cx="597.239" cy="443.618" r="4" fill="#0" id="circle111"/>
	<circle cx="607.044" cy="291.631" r="4" fill="#0" id="circle112"/>
	<circle cx="613.582" cy="443.618" r="4" fill="#0" id="circle113"/>
	<circle cx="623.387" cy="291.631" r="4" fill="#0" id="circle114"/>
	<circle cx="629.924" cy="443.618" r="4" fill="#0" id="circle115"/>
	<circle cx="639.73" cy="291.631" r="4" fill="#0" id="circle116"/>
	<circle cx="646.267" cy="443.618" r="4" fill="#0" id="circle117"/>
	<circle cx="656.072" cy="291.631" r="4" fill="#0" id="circle118"/>
	<circle cx="662.61" cy="443.618" r="4" fill="#0" id="circle119"/>
	<circle cx="664.244" cy="459.96" r="4" fill="#0" id="circle120"/>
	<circle cx="667.512" cy="476.303" r="4" fill="#0" id="circle121"/>
	<circle cx="670.781" cy="492.646" r="4" fill="#0" id="circle122"/>
	<circle cx="672.415" cy="291.631" r="4" fill="#0" id="circle123"/>
	<circle cx="677.318" cy="508.988" r="4" fill="#0" id="circle124"/>
	<circle cx="688.758" cy="283.46" r="4" fill="#0" id="circle125"/>
	<circle cx="692.026" cy="484.474" r="4" fill="#0" id="circle126"/>
	<circle cx="692.026" cy="500.817" r="4" fill="#0" id="circle127"/>
	<circle cx="695.295" cy="451.789" r="4" fill="#0" id="circle128"/>
	<circle cx="695.295" cy="468.132" r="4" fill="#0" id="circle129"/>
	<circle cx="703.466" cy="275.288" r="4" fill="#0" id="circle130"/>
	<circle cx="711.638" cy="450.155" r="4" fill="#0" id="circle131"/>
	<circle cx="719.809" cy="268.751" r="4" fill="#0" id="circle132"/>
	<circle cx="726.346" cy="458.326" r="4" fill="#0" id="circle133"/>
	<circle cx="736.152" cy="265.483" r="4" fill="#0" id="circle134"/>
	<circle cx="742.689" cy="459.96" r="4" fill="#0" id="circle135"/>
	<circle cx="752.494" cy="262.214" r="4" fill="#0" id="circle136"/>
	<circle cx="755.763" cy="446.886" r="4" fill="#0" id="circle137"/>
	<circle cx="768.837" cy="262.214" r="4" fill="#0" id="circle138"/>
	<circle cx="772.105" cy="451.789" r="4" fill="#0" id="circle139"/>
	<circle cx="781.911" cy="249.14" r="4" fill="#0" id="circle140"/>
	<circle cx="786.814" cy="459.96" r="4" fill="#0" id="circle141"/>
	<circle cx="796.619" cy="240.969" r="4" fill="#0" id="circle142"/>
	<circle cx="799.888" cy="469.766" r="4" fill="#0" id="circle143"/>
	<circle cx="809.694" cy="229.529" r="4" fill="#0" id="circle144"/>
	<circle cx="816.231" cy="476.303" r="4" fill="#0" id="circle145"/>
	<circle cx="822.768" cy="219.723" r="4" fill="#0" id="circle146"/>
	<circle cx="832.573" cy="479.572" r="4" fill="#0" id="circle147"/>
	<circle cx="839.11" cy="219.723" r="4" fill="#0" id="circle148"/>
	<circle cx="848.916" cy="476.303" r="4" fill="#0" id="circle149"/>
	<circle cx="850.55" cy="232.797" r="4" fill="#0" id="circle150"/>
	<circle cx="863.624" cy="242.603" r="4" fill="#0" id="circle151"/>
	<circle cx="865.259" cy="468.132" r="4" fill="#0" id="circle152"/>
	<circle cx="876.699" cy="254.043" r="4" fill="#0" id="circle153"/>
	<circle cx="878.333" cy="458.326" r="4" fill="#0" id="circle154"/>
	<circle cx="891.407" cy="262.214" r="4" fill="#0" id="circle155"/>
	<circle cx="893.041" cy="450.155" r="4" fill="#0" id="circle156"/>
	<circle cx="907.75" cy="265.483" r="4" fill="#0" id="circle157"/>
	<circle cx="909.384" cy="448.521" r="4" fill="#0" id="circle158"/>
	<circle cx="919.189" cy="461.595" r="4" fill="#0" id="circle159"/>
	<circle cx="924.092" cy="268.751" r="4" fill="#0" id="circle160"/>
	<circle cx="935.532" cy="456.692" r="4" fill="#0" id="circle161"/>
	<circle cx="940.435" cy="272.02" r="4" fill="#0" id="circle162"/>
	<circle cx="951.875" cy="450.155" r="4" fill="#0" id="circle163"/>
	<circle cx="956.778" cy="278.557" r="4" fill="#0" id="circle164"/>
	<circle cx="964.949" cy="459.96" r="4" fill="#0" id="circle165"/>
	<circle cx="964.949" cy="494.28" r="4" fill="#0" id="circle166"/>
	<circle cx="968.217" cy="476.303" r="4" fill="#0" id="circle167"/>
	<circle cx="971.486" cy="286.728" r="4" fill="#0" id="circle168"/>
	<circle cx="974.755" cy="507.354" r="4" fill="#0" id="circle169"/>
	<circle cx="982.926" cy="389.687" r="4" fill="#0" id="circle170"/>
	<circle cx="982.926" cy="406.03" r="4" fill="#0" id="circle171"/>
	<circle cx="982.926" cy="422.372" r="4" fill="#0" id="circle172"/>
	<circle cx="984.56" cy="296.534" r="4" fill="#0" id="circle173"/>
	<circle cx="984.56" cy="438.715" r="4" fill="#0" id="circle174"/>
	<circle cx="986.194" cy="347.196" r="4" fill="#0" id="circle175"/>
	<circle cx="986.194" cy="363.539" r="4" fill="#0" id="circle176"/>
	<circle cx="986.194" cy="484.474" r="4" fill="#0" id="circle177"/>
	<circle cx="987.829" cy="455.058" r="4" fill="#0" id="circle178"/>
	<circle cx="991.097" cy="505.72" r="4" fill="#0" id="circle179"/>
	<circle cx="994.366" cy="309.608" r="4" fill="#0" id="circle180"/>
	<circle cx="996" cy="325.951" r="4" fill="#0" id="circle181"/>
	</g>
</svg>