<?xml version="1.0" encoding="UTF-8" standalone="no"?>
<!-- Created with CurveBenchmark -->
<svg
	xmlns:dc="http://purl.org/dc/elements/1.1/"
	xmlns:cc="http://creativecommons.org/ns#"
	xmlns:rdf="http://www.w3.org/1999/02/22-rdf-syntax-ns#"
	xmlns:svg="http://www.w3.org/2000/svg"
	xmlns="http://www.w3.org/2000/svg"
	xmlns:sodipodi="http://sodipodi.sourceforge.net/DTD/sodipodi-0.dtd"
	xmlns:inkscape="http://www.inkscape.org/namespaces/inkscape"
	width="1000"
	height="1000"
	id="svg2"
	version="1.1"
	sodipodi:docname="manifold/fitconnect-fish0752.png.txt">
<defs
	id="defs4" />
<metadata
	id="metadata7">
	<rdf:RDF>
		<cc:Work
			rdf:about="">
			<dc:format>image/svg+xml</dc:format>
			<dc:type
				rdf:resource="http://purl.org/dc/dcmitype/StillImage" />
			<dc:title></dc:title>
		</cc:Work>
	</rdf:RDF>
</metadata>
<g
	inkscape:label="Layer 1"
	inkscape:groupmode="layer"
	id="layer1">
	<path style="fill:none;stroke:red;stroke-width:1px;stroke-linecap:butt;stroke-linejoin:miter;stroke-opacity:1" d="M 4,128.502 4,141.889 z" id="boundary" inkscape:connector-curvature="0" />
	<path style="fill:none;stroke:red;stroke-width:1px;stroke-linecap:butt;stroke-linejoin:miter;stroke-opacity:1" d="M 4,128.502 14.7099,117.792 z" id="boundary" inkscape:connector-curvature="0" />
	<path style="fill:none;stroke:red;stroke-width:1px;stroke-linecap:butt;stroke-linejoin:miter;stroke-opacity:1" d="M 4,141.889 12.0324,152.599 z" id="boundary" inkscape:connector-curvature="0" />
	<path style="fill:none;stroke:red;stroke-width:1px;stroke-linecap:butt;stroke-linejoin:miter;stroke-opacity:1" d="M 12.0324,152.599 20.0648,163.309 z" id="boundary" inkscape:connector-curvature="0" />
	<path style="fill:none;stroke:red;stroke-width:1px;stroke-linecap:butt;stroke-linejoin:miter;stroke-opacity:1" d="M 14.7099,117.792 25.4197,107.082 z" id="boundary" inkscape:connector-curvature="0" />
	<path style="fill:none;stroke:red;stroke-width:1px;stroke-linecap:butt;stroke-linejoin:miter;stroke-opacity:1" d="M 20.0648,163.309 32.1134,170.003 z" id="boundary" inkscape:connector-curvature="0" />
	<path style="fill:none;stroke:red;stroke-width:1px;stroke-linecap:butt;stroke-linejoin:miter;stroke-opacity:1" d="M 25.4197,107.082 36.1296,97.7112 z" id="boundary" inkscape:connector-curvature="0" />
	<path style="fill:none;stroke:red;stroke-width:1px;stroke-linecap:butt;stroke-linejoin:miter;stroke-opacity:1" d="M 32.1134,170.003 45.5007,175.358 z" id="boundary" inkscape:connector-curvature="0" />
	<path style="fill:none;stroke:red;stroke-width:1px;stroke-linecap:butt;stroke-linejoin:miter;stroke-opacity:1" d="M 36.1296,97.7112 49.5169,97.7112 z" id="boundary" inkscape:connector-curvature="0" />
	<path style="fill:none;stroke:red;stroke-width:1px;stroke-linecap:butt;stroke-linejoin:miter;stroke-opacity:1" d="M 45.5007,175.358 54.8718,186.067 z" id="boundary" inkscape:connector-curvature="0" />
	<path style="fill:none;stroke:red;stroke-width:1px;stroke-linecap:butt;stroke-linejoin:miter;stroke-opacity:1" d="M 49.5169,97.7112 58.888,87.0013 z" id="boundary" inkscape:connector-curvature="0" />
	<path style="fill:none;stroke:red;stroke-width:1px;stroke-linecap:butt;stroke-linejoin:miter;stroke-opacity:1" d="M 54.8718,186.067 68.2591,186.067 z" id="boundary" inkscape:connector-curvature="0" />
	<path style="fill:none;stroke:red;stroke-width:1px;stroke-linecap:butt;stroke-linejoin:miter;stroke-opacity:1" d="M 58.888,87.0013 72.2753,80.3077 z" id="boundary" inkscape:connector-curvature="0" />
	<path style="fill:none;stroke:red;stroke-width:1px;stroke-linecap:butt;stroke-linejoin:miter;stroke-opacity:1" d="M 68.2591,186.067 81.6464,191.422 z" id="boundary" inkscape:connector-curvature="0" />
	<path style="fill:none;stroke:red;stroke-width:1px;stroke-linecap:butt;stroke-linejoin:miter;stroke-opacity:1" d="M 72.2753,80.3077 85.6626,77.6302 z" id="boundary" inkscape:connector-curvature="0" />
	<path style="fill:none;stroke:red;stroke-width:1px;stroke-linecap:butt;stroke-linejoin:miter;stroke-opacity:1" d="M 81.6464,191.422 93.695,198.116 z" id="boundary" inkscape:connector-curvature="0" />
	<path style="fill:none;stroke:red;stroke-width:1px;stroke-linecap:butt;stroke-linejoin:miter;stroke-opacity:1" d="M 85.6626,77.6302 97.7112,70.9366 z" id="boundary" inkscape:connector-curvature="0" />
	<path style="fill:none;stroke:red;stroke-width:1px;stroke-linecap:butt;stroke-linejoin:miter;stroke-opacity:1" d="M 93.695,198.116 107.082,199.455 z" id="boundary" inkscape:connector-curvature="0" />
	<path style="fill:none;stroke:red;stroke-width:1px;stroke-linecap:butt;stroke-linejoin:miter;stroke-opacity:1" d="M 97.7112,70.9366 109.76,64.2429 z" id="boundary" inkscape:connector-curvature="0" />
	<path style="fill:none;stroke:red;stroke-width:1px;stroke-linecap:butt;stroke-linejoin:miter;stroke-opacity:1" d="M 107.082,199.455 120.47,203.471 z" id="boundary" inkscape:connector-curvature="0" />
	<path style="fill:none;stroke:red;stroke-width:1px;stroke-linecap:butt;stroke-linejoin:miter;stroke-opacity:1" d="M 109.76,64.2429 121.808,57.5493 z" id="boundary" inkscape:connector-curvature="0" />
	<path style="fill:none;stroke:red;stroke-width:1px;stroke-linecap:butt;stroke-linejoin:miter;stroke-opacity:1" d="M 120.47,203.471 133.857,206.148 z" id="boundary" inkscape:connector-curvature="0" />
	<path style="fill:none;stroke:red;stroke-width:1px;stroke-linecap:butt;stroke-linejoin:miter;stroke-opacity:1" d="M 121.808,57.5493 135.196,57.5493 z" id="boundary" inkscape:connector-curvature="0" />
	<path style="fill:none;stroke:red;stroke-width:1px;stroke-linecap:butt;stroke-linejoin:miter;stroke-opacity:1" d="M 133.857,206.148 144.567,214.181 z" id="boundary" inkscape:connector-curvature="0" />
	<path style="fill:none;stroke:red;stroke-width:1px;stroke-linecap:butt;stroke-linejoin:miter;stroke-opacity:1" d="M 135.196,57.5493 148.583,57.5493 z" id="boundary" inkscape:connector-curvature="0" />
	<path style="fill:none;stroke:red;stroke-width:1px;stroke-linecap:butt;stroke-linejoin:miter;stroke-opacity:1" d="M 144.567,214.181 157.954,219.536 z" id="boundary" inkscape:connector-curvature="0" />
	<path style="fill:none;stroke:red;stroke-width:1px;stroke-linecap:butt;stroke-linejoin:miter;stroke-opacity:1" d="M 148.583,57.5493 161.97,50.8556 z" id="boundary" inkscape:connector-curvature="0" />
	<path style="fill:none;stroke:red;stroke-width:1px;stroke-linecap:butt;stroke-linejoin:miter;stroke-opacity:1" d="M 157.954,219.536 171.341,219.536 z" id="boundary" inkscape:connector-curvature="0" />
	<path style="fill:none;stroke:red;stroke-width:1px;stroke-linecap:butt;stroke-linejoin:miter;stroke-opacity:1" d="M 161.97,50.8556 175.358,50.8556 z" id="boundary" inkscape:connector-curvature="0" />
	<path style="fill:none;stroke:red;stroke-width:1px;stroke-linecap:butt;stroke-linejoin:miter;stroke-opacity:1" d="M 171.341,219.536 183.39,226.229 z" id="boundary" inkscape:connector-curvature="0" />
	<path style="fill:none;stroke:red;stroke-width:1px;stroke-linecap:butt;stroke-linejoin:miter;stroke-opacity:1" d="M 175.358,50.8556 187.406,44.1619 z" id="boundary" inkscape:connector-curvature="0" />
	<path style="fill:none;stroke:red;stroke-width:1px;stroke-linecap:butt;stroke-linejoin:miter;stroke-opacity:1" d="M 183.39,226.229 196.777,226.229 z" id="boundary" inkscape:connector-curvature="0" />
	<path style="fill:none;stroke:red;stroke-width:1px;stroke-linecap:butt;stroke-linejoin:miter;stroke-opacity:1" d="M 187.406,44.1619 200.794,44.1619 z" id="boundary" inkscape:connector-curvature="0" />
	<path style="fill:none;stroke:red;stroke-width:1px;stroke-linecap:butt;stroke-linejoin:miter;stroke-opacity:1" d="M 196.777,226.229 208.826,232.923 z" id="boundary" inkscape:connector-curvature="0" />
	<path style="fill:none;stroke:red;stroke-width:1px;stroke-linecap:butt;stroke-linejoin:miter;stroke-opacity:1" d="M 200.794,44.1619 214.181,44.1619 z" id="boundary" inkscape:connector-curvature="0" />
	<path style="fill:none;stroke:red;stroke-width:1px;stroke-linecap:butt;stroke-linejoin:miter;stroke-opacity:1" d="M 208.826,232.923 222.213,232.923 z" id="boundary" inkscape:connector-curvature="0" />
	<path style="fill:none;stroke:red;stroke-width:1px;stroke-linecap:butt;stroke-linejoin:miter;stroke-opacity:1" d="M 214.181,44.1619 227.568,38.807 z" id="boundary" inkscape:connector-curvature="0" />
	<path style="fill:none;stroke:red;stroke-width:1px;stroke-linecap:butt;stroke-linejoin:miter;stroke-opacity:1" d="M 222.213,232.923 235.601,232.923 z" id="boundary" inkscape:connector-curvature="0" />
	<path style="fill:none;stroke:red;stroke-width:1px;stroke-linecap:butt;stroke-linejoin:miter;stroke-opacity:1" d="M 227.568,38.807 240.955,37.4683 z" id="boundary" inkscape:connector-curvature="0" />
	<path style="fill:none;stroke:red;stroke-width:1px;stroke-linecap:butt;stroke-linejoin:miter;stroke-opacity:1" d="M 235.601,232.923 248.988,232.923 z" id="boundary" inkscape:connector-curvature="0" />
	<path style="fill:none;stroke:red;stroke-width:1px;stroke-linecap:butt;stroke-linejoin:miter;stroke-opacity:1" d="M 240.955,37.4683 254.343,37.4683 z" id="boundary" inkscape:connector-curvature="0" />
	<path style="fill:none;stroke:red;stroke-width:1px;stroke-linecap:butt;stroke-linejoin:miter;stroke-opacity:1" d="M 248.988,232.923 262.375,238.278 z" id="boundary" inkscape:connector-curvature="0" />
	<path style="fill:none;stroke:red;stroke-width:1px;stroke-linecap:butt;stroke-linejoin:miter;stroke-opacity:1" d="M 254.343,37.4683 267.73,37.4683 z" id="boundary" inkscape:connector-curvature="0" />
	<path style="fill:none;stroke:red;stroke-width:1px;stroke-linecap:butt;stroke-linejoin:miter;stroke-opacity:1" d="M 262.375,238.278 275.762,239.617 z" id="boundary" inkscape:connector-curvature="0" />
	<path style="fill:none;stroke:red;stroke-width:1px;stroke-linecap:butt;stroke-linejoin:miter;stroke-opacity:1" d="M 267.73,37.4683 281.117,32.1134 z" id="boundary" inkscape:connector-curvature="0" />
	<path style="fill:none;stroke:red;stroke-width:1px;stroke-linecap:butt;stroke-linejoin:miter;stroke-opacity:1" d="M 275.762,239.617 289.15,239.617 z" id="boundary" inkscape:connector-curvature="0" />
	<path style="fill:none;stroke:red;stroke-width:1px;stroke-linecap:butt;stroke-linejoin:miter;stroke-opacity:1" d="M 281.117,32.1134 294.505,30.7746 z" id="boundary" inkscape:connector-curvature="0" />
	<path style="fill:none;stroke:red;stroke-width:1px;stroke-linecap:butt;stroke-linejoin:miter;stroke-opacity:1" d="M 289.15,239.617 302.537,239.617 z" id="boundary" inkscape:connector-curvature="0" />
	<path style="fill:none;stroke:red;stroke-width:1px;stroke-linecap:butt;stroke-linejoin:miter;stroke-opacity:1" d="M 294.505,30.7746 307.892,25.4197 z" id="boundary" inkscape:connector-curvature="0" />
	<path style="fill:none;stroke:red;stroke-width:1px;stroke-linecap:butt;stroke-linejoin:miter;stroke-opacity:1" d="M 302.537,239.617 315.924,239.617 z" id="boundary" inkscape:connector-curvature="0" />
	<path style="fill:none;stroke:red;stroke-width:1px;stroke-linecap:butt;stroke-linejoin:miter;stroke-opacity:1" d="M 307.892,25.4197 321.279,24.081 z" id="boundary" inkscape:connector-curvature="0" />
	<path style="fill:none;stroke:red;stroke-width:1px;stroke-linecap:butt;stroke-linejoin:miter;stroke-opacity:1" d="M 315.924,239.617 329.312,239.617 z" id="boundary" inkscape:connector-curvature="0" />
	<path style="fill:none;stroke:red;stroke-width:1px;stroke-linecap:butt;stroke-linejoin:miter;stroke-opacity:1" d="M 321.279,24.081 334.667,24.081 z" id="boundary" inkscape:connector-curvature="0" />
	<path style="fill:none;stroke:red;stroke-width:1px;stroke-linecap:butt;stroke-linejoin:miter;stroke-opacity:1" d="M 329.312,239.617 341.36,246.31 z" id="boundary" inkscape:connector-curvature="0" />
	<path style="fill:none;stroke:red;stroke-width:1px;stroke-linecap:butt;stroke-linejoin:miter;stroke-opacity:1" d="M 334.667,24.081 348.054,24.081 z" id="boundary" inkscape:connector-curvature="0" />
	<path style="fill:none;stroke:red;stroke-width:1px;stroke-linecap:butt;stroke-linejoin:miter;stroke-opacity:1" d="M 341.36,246.31 352.07,254.343 z" id="boundary" inkscape:connector-curvature="0" />
	<path style="fill:none;stroke:red;stroke-width:1px;stroke-linecap:butt;stroke-linejoin:miter;stroke-opacity:1" d="M 348.054,24.081 361.441,24.081 z" id="boundary" inkscape:connector-curvature="0" />
	<path style="fill:none;stroke:red;stroke-width:1px;stroke-linecap:butt;stroke-linejoin:miter;stroke-opacity:1" d="M 352.07,254.343 358.764,266.391 z" id="boundary" inkscape:connector-curvature="0" />
	<path style="fill:none;stroke:red;stroke-width:1px;stroke-linecap:butt;stroke-linejoin:miter;stroke-opacity:1" d="M 358.764,266.391 365.457,278.44 z" id="boundary" inkscape:connector-curvature="0" />
	<path style="fill:none;stroke:red;stroke-width:1px;stroke-linecap:butt;stroke-linejoin:miter;stroke-opacity:1" d="M 361.441,24.081 374.829,24.081 z" id="boundary" inkscape:connector-curvature="0" />
	<path style="fill:none;stroke:red;stroke-width:1px;stroke-linecap:butt;stroke-linejoin:miter;stroke-opacity:1" d="M 365.457,278.44 368.135,291.827 z" id="boundary" inkscape:connector-curvature="0" />
	<path style="fill:none;stroke:red;stroke-width:1px;stroke-linecap:butt;stroke-linejoin:miter;stroke-opacity:1" d="M 368.135,291.827 374.829,303.876 z" id="boundary" inkscape:connector-curvature="0" />
	<path style="fill:none;stroke:red;stroke-width:1px;stroke-linecap:butt;stroke-linejoin:miter;stroke-opacity:1" d="M 374.829,24.081 388.216,18.726 z" id="boundary" inkscape:connector-curvature="0" />
	<path style="fill:none;stroke:red;stroke-width:1px;stroke-linecap:butt;stroke-linejoin:miter;stroke-opacity:1" d="M 374.829,303.876 385.538,313.247 z" id="boundary" inkscape:connector-curvature="0" />
	<path style="fill:none;stroke:red;stroke-width:1px;stroke-linecap:butt;stroke-linejoin:miter;stroke-opacity:1" d="M 385.538,313.247 385.538,326.634 z" id="boundary" inkscape:connector-curvature="0" />
	<path style="fill:none;stroke:red;stroke-width:1px;stroke-linecap:butt;stroke-linejoin:miter;stroke-opacity:1" d="M 385.538,326.634 393.571,337.344 z" id="boundary" inkscape:connector-curvature="0" />
	<path style="fill:none;stroke:red;stroke-width:1px;stroke-linecap:butt;stroke-linejoin:miter;stroke-opacity:1" d="M 388.216,18.726 401.603,17.3873 z" id="boundary" inkscape:connector-curvature="0" />
	<path style="fill:none;stroke:red;stroke-width:1px;stroke-linecap:butt;stroke-linejoin:miter;stroke-opacity:1" d="M 393.571,337.344 406.958,333.328 z" id="boundary" inkscape:connector-curvature="0" />
	<path style="fill:none;stroke:red;stroke-width:1px;stroke-linecap:butt;stroke-linejoin:miter;stroke-opacity:1" d="M 401.603,17.3873 413.652,10.6937 z" id="boundary" inkscape:connector-curvature="0" />
	<path style="fill:none;stroke:red;stroke-width:1px;stroke-linecap:butt;stroke-linejoin:miter;stroke-opacity:1" d="M 406.958,333.328 417.668,323.957 z" id="boundary" inkscape:connector-curvature="0" />
	<path style="fill:none;stroke:red;stroke-width:1px;stroke-linecap:butt;stroke-linejoin:miter;stroke-opacity:1" d="M 413.652,10.6937 427.039,6.67746 z" id="boundary" inkscape:connector-curvature="0" />
	<path style="fill:none;stroke:red;stroke-width:1px;stroke-linecap:butt;stroke-linejoin:miter;stroke-opacity:1" d="M 417.668,323.957 424.362,310.57 z" id="boundary" inkscape:connector-curvature="0" />
	<path style="fill:none;stroke:red;stroke-width:1px;stroke-linecap:butt;stroke-linejoin:miter;stroke-opacity:1" d="M 424.362,310.57 437.749,303.876 z" id="boundary" inkscape:connector-curvature="0" />
	<path style="fill:none;stroke:red;stroke-width:1px;stroke-linecap:butt;stroke-linejoin:miter;stroke-opacity:1" d="M 427.039,6.67746 440.426,4 z" id="boundary" inkscape:connector-curvature="0" />
	<path style="fill:none;stroke:red;stroke-width:1px;stroke-linecap:butt;stroke-linejoin:miter;stroke-opacity:1" d="M 437.749,303.876 444.443,290.489 z" id="boundary" inkscape:connector-curvature="0" />
	<path style="fill:none;stroke:red;stroke-width:1px;stroke-linecap:butt;stroke-linejoin:miter;stroke-opacity:1" d="M 440.426,4 453.814,4 z" id="boundary" inkscape:connector-curvature="0" />
	<path style="fill:none;stroke:red;stroke-width:1px;stroke-linecap:butt;stroke-linejoin:miter;stroke-opacity:1" d="M 444.443,290.489 453.814,279.779 z" id="boundary" inkscape:connector-curvature="0" />
	<path style="fill:none;stroke:red;stroke-width:1px;stroke-linecap:butt;stroke-linejoin:miter;stroke-opacity:1" d="M 453.814,4 467.201,8.01619 z" id="boundary" inkscape:connector-curvature="0" />
	<path style="fill:none;stroke:red;stroke-width:1px;stroke-linecap:butt;stroke-linejoin:miter;stroke-opacity:1" d="M 453.814,279.779 465.862,273.085 z" id="boundary" inkscape:connector-curvature="0" />
	<path style="fill:none;stroke:red;stroke-width:1px;stroke-linecap:butt;stroke-linejoin:miter;stroke-opacity:1" d="M 465.862,273.085 476.572,265.053 z" id="boundary" inkscape:connector-curvature="0" />
	<path style="fill:none;stroke:red;stroke-width:1px;stroke-linecap:butt;stroke-linejoin:miter;stroke-opacity:1" d="M 467.201,8.01619 476.572,18.726 z" id="boundary" inkscape:connector-curvature="0" />
	<path style="fill:none;stroke:red;stroke-width:1px;stroke-linecap:butt;stroke-linejoin:miter;stroke-opacity:1" d="M 476.572,18.726 489.96,24.081 z" id="boundary" inkscape:connector-curvature="0" />
	<path style="fill:none;stroke:red;stroke-width:1px;stroke-linecap:butt;stroke-linejoin:miter;stroke-opacity:1" d="M 476.572,265.053 483.266,251.665 z" id="boundary" inkscape:connector-curvature="0" />
	<path style="fill:none;stroke:red;stroke-width:1px;stroke-linecap:butt;stroke-linejoin:miter;stroke-opacity:1" d="M 483.266,251.665 487.282,232.923 z" id="boundary" inkscape:connector-curvature="0" />
	<path style="fill:none;stroke:red;stroke-width:1px;stroke-linecap:butt;stroke-linejoin:miter;stroke-opacity:1" d="M 487.282,232.923 500.669,226.229 z" id="boundary" inkscape:connector-curvature="0" />
	<path style="fill:none;stroke:red;stroke-width:1px;stroke-linecap:butt;stroke-linejoin:miter;stroke-opacity:1" d="M 489.96,24.081 503.347,24.081 z" id="boundary" inkscape:connector-curvature="0" />
	<path style="fill:none;stroke:red;stroke-width:1px;stroke-linecap:butt;stroke-linejoin:miter;stroke-opacity:1" d="M 500.669,226.229 514.057,226.229 z" id="boundary" inkscape:connector-curvature="0" />
	<path style="fill:none;stroke:red;stroke-width:1px;stroke-linecap:butt;stroke-linejoin:miter;stroke-opacity:1" d="M 503.347,24.081 515.395,30.7746 z" id="boundary" inkscape:connector-curvature="0" />
	<path style="fill:none;stroke:red;stroke-width:1px;stroke-linecap:butt;stroke-linejoin:miter;stroke-opacity:1" d="M 514.057,226.229 526.105,219.536 z" id="boundary" inkscape:connector-curvature="0" />
	<path style="fill:none;stroke:red;stroke-width:1px;stroke-linecap:butt;stroke-linejoin:miter;stroke-opacity:1" d="M 515.395,30.7746 528.783,30.7746 z" id="boundary" inkscape:connector-curvature="0" />
	<path style="fill:none;stroke:red;stroke-width:1px;stroke-linecap:butt;stroke-linejoin:miter;stroke-opacity:1" d="M 526.105,219.536 539.493,219.536 z" id="boundary" inkscape:connector-curvature="0" />
	<path style="fill:none;stroke:red;stroke-width:1px;stroke-linecap:butt;stroke-linejoin:miter;stroke-opacity:1" d="M 528.783,30.7746 540.831,37.4683 z" id="boundary" inkscape:connector-curvature="0" />
	<path style="fill:none;stroke:red;stroke-width:1px;stroke-linecap:butt;stroke-linejoin:miter;stroke-opacity:1" d="M 539.493,219.536 552.88,219.536 z" id="boundary" inkscape:connector-curvature="0" />
	<path style="fill:none;stroke:red;stroke-width:1px;stroke-linecap:butt;stroke-linejoin:miter;stroke-opacity:1" d="M 540.831,37.4683 554.219,41.4845 z" id="boundary" inkscape:connector-curvature="0" />
	<path style="fill:none;stroke:red;stroke-width:1px;stroke-linecap:butt;stroke-linejoin:miter;stroke-opacity:1" d="M 552.88,219.536 564.928,212.842 z" id="boundary" inkscape:connector-curvature="0" />
	<path style="fill:none;stroke:red;stroke-width:1px;stroke-linecap:butt;stroke-linejoin:miter;stroke-opacity:1" d="M 554.219,41.4845 567.606,44.1619 z" id="boundary" inkscape:connector-curvature="0" />
	<path style="fill:none;stroke:red;stroke-width:1px;stroke-linecap:butt;stroke-linejoin:miter;stroke-opacity:1" d="M 564.928,212.842 576.977,206.148 z" id="boundary" inkscape:connector-curvature="0" />
	<path style="fill:none;stroke:red;stroke-width:1px;stroke-linecap:butt;stroke-linejoin:miter;stroke-opacity:1" d="M 567.606,44.1619 579.655,37.4683 z" id="boundary" inkscape:connector-curvature="0" />
	<path style="fill:none;stroke:red;stroke-width:1px;stroke-linecap:butt;stroke-linejoin:miter;stroke-opacity:1" d="M 576.977,206.148 590.364,204.81 z" id="boundary" inkscape:connector-curvature="0" />
	<path style="fill:none;stroke:red;stroke-width:1px;stroke-linecap:butt;stroke-linejoin:miter;stroke-opacity:1" d="M 579.655,37.4683 591.703,30.7746 z" id="boundary" inkscape:connector-curvature="0" />
	<path style="fill:none;stroke:red;stroke-width:1px;stroke-linecap:butt;stroke-linejoin:miter;stroke-opacity:1" d="M 590.364,204.81 603.752,199.455 z" id="boundary" inkscape:connector-curvature="0" />
	<path style="fill:none;stroke:red;stroke-width:1px;stroke-linecap:butt;stroke-linejoin:miter;stroke-opacity:1" d="M 591.703,30.7746 603.752,24.081 z" id="boundary" inkscape:connector-curvature="0" />
	<path style="fill:none;stroke:red;stroke-width:1px;stroke-linecap:butt;stroke-linejoin:miter;stroke-opacity:1" d="M 603.752,24.081 617.139,24.081 z" id="boundary" inkscape:connector-curvature="0" />
	<path style="fill:none;stroke:red;stroke-width:1px;stroke-linecap:butt;stroke-linejoin:miter;stroke-opacity:1" d="M 603.752,199.455 617.139,199.455 z" id="boundary" inkscape:connector-curvature="0" />
	<path style="fill:none;stroke:red;stroke-width:1px;stroke-linecap:butt;stroke-linejoin:miter;stroke-opacity:1" d="M 617.139,24.081 630.526,24.081 z" id="boundary" inkscape:connector-curvature="0" />
	<path style="fill:none;stroke:red;stroke-width:1px;stroke-linecap:butt;stroke-linejoin:miter;stroke-opacity:1" d="M 617.139,199.455 629.188,192.761 z" id="boundary" inkscape:connector-curvature="0" />
	<path style="fill:none;stroke:red;stroke-width:1px;stroke-linecap:butt;stroke-linejoin:miter;stroke-opacity:1" d="M 629.188,192.761 641.236,186.067 z" id="boundary" inkscape:connector-curvature="0" />
	<path style="fill:none;stroke:red;stroke-width:1px;stroke-linecap:butt;stroke-linejoin:miter;stroke-opacity:1" d="M 630.526,24.081 641.236,32.1134 z" id="boundary" inkscape:connector-curvature="0" />
	<path style="fill:none;stroke:red;stroke-width:1px;stroke-linecap:butt;stroke-linejoin:miter;stroke-opacity:1" d="M 641.236,32.1134 647.93,44.1619 z" id="boundary" inkscape:connector-curvature="0" />
	<path style="fill:none;stroke:red;stroke-width:1px;stroke-linecap:butt;stroke-linejoin:miter;stroke-opacity:1" d="M 641.236,186.067 654.623,186.067 z" id="boundary" inkscape:connector-curvature="0" />
	<path style="fill:none;stroke:red;stroke-width:1px;stroke-linecap:butt;stroke-linejoin:miter;stroke-opacity:1" d="M 647.93,44.1619 661.317,48.1781 z" id="boundary" inkscape:connector-curvature="0" />
	<path style="fill:none;stroke:red;stroke-width:1px;stroke-linecap:butt;stroke-linejoin:miter;stroke-opacity:1" d="M 654.623,186.067 668.011,186.067 z" id="boundary" inkscape:connector-curvature="0" />
	<path style="fill:none;stroke:red;stroke-width:1px;stroke-linecap:butt;stroke-linejoin:miter;stroke-opacity:1" d="M 661.317,48.1781 672.027,57.5493 z" id="boundary" inkscape:connector-curvature="0" />
	<path style="fill:none;stroke:red;stroke-width:1px;stroke-linecap:butt;stroke-linejoin:miter;stroke-opacity:1" d="M 668.011,186.067 680.059,179.374 z" id="boundary" inkscape:connector-curvature="0" />
	<path style="fill:none;stroke:red;stroke-width:1px;stroke-linecap:butt;stroke-linejoin:miter;stroke-opacity:1" d="M 672.027,57.5493 684.076,64.2429 z" id="boundary" inkscape:connector-curvature="0" />
	<path style="fill:none;stroke:red;stroke-width:1px;stroke-linecap:butt;stroke-linejoin:miter;stroke-opacity:1" d="M 680.059,179.374 693.447,179.374 z" id="boundary" inkscape:connector-curvature="0" />
	<path style="fill:none;stroke:red;stroke-width:1px;stroke-linecap:butt;stroke-linejoin:miter;stroke-opacity:1" d="M 684.076,64.2429 696.124,70.9366 z" id="boundary" inkscape:connector-curvature="0" />
	<path style="fill:none;stroke:red;stroke-width:1px;stroke-linecap:butt;stroke-linejoin:miter;stroke-opacity:1" d="M 693.447,179.374 705.495,172.68 z" id="boundary" inkscape:connector-curvature="0" />
	<path style="fill:none;stroke:red;stroke-width:1px;stroke-linecap:butt;stroke-linejoin:miter;stroke-opacity:1" d="M 696.124,70.9366 708.173,77.6302 z" id="boundary" inkscape:connector-curvature="0" />
	<path style="fill:none;stroke:red;stroke-width:1px;stroke-linecap:butt;stroke-linejoin:miter;stroke-opacity:1" d="M 705.495,172.68 717.544,165.987 z" id="boundary" inkscape:connector-curvature="0" />
	<path style="fill:none;stroke:red;stroke-width:1px;stroke-linecap:butt;stroke-linejoin:miter;stroke-opacity:1" d="M 708.173,77.6302 718.883,85.6626 z" id="boundary" inkscape:connector-curvature="0" />
	<path style="fill:none;stroke:red;stroke-width:1px;stroke-linecap:butt;stroke-linejoin:miter;stroke-opacity:1" d="M 717.544,165.987 730.931,165.987 z" id="boundary" inkscape:connector-curvature="0" />
	<path style="fill:none;stroke:red;stroke-width:1px;stroke-linecap:butt;stroke-linejoin:miter;stroke-opacity:1" d="M 718.883,85.6626 732.27,91.0175 z" id="boundary" inkscape:connector-curvature="0" />
	<path style="fill:none;stroke:red;stroke-width:1px;stroke-linecap:butt;stroke-linejoin:miter;stroke-opacity:1" d="M 730.931,165.987 744.318,165.987 z" id="boundary" inkscape:connector-curvature="0" />
	<path style="fill:none;stroke:red;stroke-width:1px;stroke-linecap:butt;stroke-linejoin:miter;stroke-opacity:1" d="M 732.27,91.0175 745.657,91.0175 z" id="boundary" inkscape:connector-curvature="0" />
	<path style="fill:none;stroke:red;stroke-width:1px;stroke-linecap:butt;stroke-linejoin:miter;stroke-opacity:1" d="M 744.318,165.987 756.367,172.68 z" id="boundary" inkscape:connector-curvature="0" />
	<path style="fill:none;stroke:red;stroke-width:1px;stroke-linecap:butt;stroke-linejoin:miter;stroke-opacity:1" d="M 745.657,91.0175 759.045,91.0175 z" id="boundary" inkscape:connector-curvature="0" />
	<path style="fill:none;stroke:red;stroke-width:1px;stroke-linecap:butt;stroke-linejoin:miter;stroke-opacity:1" d="M 756.367,172.68 769.754,176.696 z" id="boundary" inkscape:connector-curvature="0" />
	<path style="fill:none;stroke:red;stroke-width:1px;stroke-linecap:butt;stroke-linejoin:miter;stroke-opacity:1" d="M 759.045,91.0175 771.093,84.3239 z" id="boundary" inkscape:connector-curvature="0" />
	<path style="fill:none;stroke:red;stroke-width:1px;stroke-linecap:butt;stroke-linejoin:miter;stroke-opacity:1" d="M 769.754,176.696 783.142,179.374 z" id="boundary" inkscape:connector-curvature="0" />
	<path style="fill:none;stroke:red;stroke-width:1px;stroke-linecap:butt;stroke-linejoin:miter;stroke-opacity:1" d="M 771.093,84.3239 784.48,77.6302 z" id="boundary" inkscape:connector-curvature="0" />
	<path style="fill:none;stroke:red;stroke-width:1px;stroke-linecap:butt;stroke-linejoin:miter;stroke-opacity:1" d="M 783.142,179.374 795.19,186.067 z" id="boundary" inkscape:connector-curvature="0" />
	<path style="fill:none;stroke:red;stroke-width:1px;stroke-linecap:butt;stroke-linejoin:miter;stroke-opacity:1" d="M 784.48,77.6302 797.868,77.6302 z" id="boundary" inkscape:connector-curvature="0" />
	<path style="fill:none;stroke:red;stroke-width:1px;stroke-linecap:butt;stroke-linejoin:miter;stroke-opacity:1" d="M 795.19,186.067 808.578,186.067 z" id="boundary" inkscape:connector-curvature="0" />
	<path style="fill:none;stroke:red;stroke-width:1px;stroke-linecap:butt;stroke-linejoin:miter;stroke-opacity:1" d="M 797.868,77.6302 811.255,77.6302 z" id="boundary" inkscape:connector-curvature="0" />
	<path style="fill:none;stroke:red;stroke-width:1px;stroke-linecap:butt;stroke-linejoin:miter;stroke-opacity:1" d="M 808.578,186.067 821.965,188.745 z" id="boundary" inkscape:connector-curvature="0" />
	<path style="fill:none;stroke:red;stroke-width:1px;stroke-linecap:butt;stroke-linejoin:miter;stroke-opacity:1" d="M 811.255,77.6302 823.304,70.9366 z" id="boundary" inkscape:connector-curvature="0" />
	<path style="fill:none;stroke:red;stroke-width:1px;stroke-linecap:butt;stroke-linejoin:miter;stroke-opacity:1" d="M 821.965,188.745 834.013,195.439 z" id="boundary" inkscape:connector-curvature="0" />
	<path style="fill:none;stroke:red;stroke-width:1px;stroke-linecap:butt;stroke-linejoin:miter;stroke-opacity:1" d="M 823.304,70.9366 835.352,64.2429 z" id="boundary" inkscape:connector-curvature="0" />
	<path style="fill:none;stroke:red;stroke-width:1px;stroke-linecap:butt;stroke-linejoin:miter;stroke-opacity:1" d="M 834.013,195.439 847.401,199.455 z" id="boundary" inkscape:connector-curvature="0" />
	<path style="fill:none;stroke:red;stroke-width:1px;stroke-linecap:butt;stroke-linejoin:miter;stroke-opacity:1" d="M 835.352,64.2429 847.401,57.5493 z" id="boundary" inkscape:connector-curvature="0" />
	<path style="fill:none;stroke:red;stroke-width:1px;stroke-linecap:butt;stroke-linejoin:miter;stroke-opacity:1" d="M 847.401,57.5493 860.788,54.8718 z" id="boundary" inkscape:connector-curvature="0" />
	<path style="fill:none;stroke:red;stroke-width:1px;stroke-linecap:butt;stroke-linejoin:miter;stroke-opacity:1" d="M 847.401,199.455 859.449,206.148 z" id="boundary" inkscape:connector-curvature="0" />
	<path style="fill:none;stroke:red;stroke-width:1px;stroke-linecap:butt;stroke-linejoin:miter;stroke-opacity:1" d="M 859.449,206.148 868.821,216.858 z" id="boundary" inkscape:connector-curvature="0" />
	<path style="fill:none;stroke:red;stroke-width:1px;stroke-linecap:butt;stroke-linejoin:miter;stroke-opacity:1" d="M 860.788,54.8718 874.175,48.1781 z" id="boundary" inkscape:connector-curvature="0" />
	<path style="fill:none;stroke:red;stroke-width:1px;stroke-linecap:butt;stroke-linejoin:miter;stroke-opacity:1" d="M 868.821,125.825 871.498,139.212 z" id="boundary" inkscape:connector-curvature="0" />
	<path style="fill:none;stroke:red;stroke-width:1px;stroke-linecap:butt;stroke-linejoin:miter;stroke-opacity:1" d="M 868.821,125.825 879.53,116.453 z" id="boundary" inkscape:connector-curvature="0" />
	<path style="fill:none;stroke:red;stroke-width:1px;stroke-linecap:butt;stroke-linejoin:miter;stroke-opacity:1" d="M 868.821,216.858 882.208,219.536 z" id="boundary" inkscape:connector-curvature="0" />
	<path style="fill:none;stroke:red;stroke-width:1px;stroke-linecap:butt;stroke-linejoin:miter;stroke-opacity:1" d="M 871.498,139.212 884.885,144.567 z" id="boundary" inkscape:connector-curvature="0" />
	<path style="fill:none;stroke:red;stroke-width:1px;stroke-linecap:butt;stroke-linejoin:miter;stroke-opacity:1" d="M 874.175,48.1781 887.563,44.1619 z" id="boundary" inkscape:connector-curvature="0" />
	<path style="fill:none;stroke:red;stroke-width:1px;stroke-linecap:butt;stroke-linejoin:miter;stroke-opacity:1" d="M 879.53,116.453 892.918,112.437 z" id="boundary" inkscape:connector-curvature="0" />
	<path style="fill:none;stroke:red;stroke-width:1px;stroke-linecap:butt;stroke-linejoin:miter;stroke-opacity:1" d="M 882.208,219.536 894.256,226.229 z" id="boundary" inkscape:connector-curvature="0" />
	<path style="fill:none;stroke:red;stroke-width:1px;stroke-linecap:butt;stroke-linejoin:miter;stroke-opacity:1" d="M 884.885,144.567 894.256,155.277 z" id="boundary" inkscape:connector-curvature="0" />
	<path style="fill:none;stroke:red;stroke-width:1px;stroke-linecap:butt;stroke-linejoin:miter;stroke-opacity:1" d="M 887.563,44.1619 900.95,44.1619 z" id="boundary" inkscape:connector-curvature="0" />
	<path style="fill:none;stroke:red;stroke-width:1px;stroke-linecap:butt;stroke-linejoin:miter;stroke-opacity:1" d="M 892.918,112.437 906.305,109.76 z" id="boundary" inkscape:connector-curvature="0" />
	<path style="fill:none;stroke:red;stroke-width:1px;stroke-linecap:butt;stroke-linejoin:miter;stroke-opacity:1" d="M 894.256,155.277 907.644,160.632 z" id="boundary" inkscape:connector-curvature="0" />
	<path style="fill:none;stroke:red;stroke-width:1px;stroke-linecap:butt;stroke-linejoin:miter;stroke-opacity:1" d="M 894.256,226.229 906.305,232.923 z" id="boundary" inkscape:connector-curvature="0" />
	<path style="fill:none;stroke:red;stroke-width:1px;stroke-linecap:butt;stroke-linejoin:miter;stroke-opacity:1" d="M 900.95,44.1619 912.999,37.4683 z" id="boundary" inkscape:connector-curvature="0" />
	<path style="fill:none;stroke:red;stroke-width:1px;stroke-linecap:butt;stroke-linejoin:miter;stroke-opacity:1" d="M 906.305,109.76 914.337,99.0499 z" id="boundary" inkscape:connector-curvature="0" />
	<path style="fill:none;stroke:red;stroke-width:1px;stroke-linecap:butt;stroke-linejoin:miter;stroke-opacity:1" d="M 906.305,232.923 919.692,232.923 z" id="boundary" inkscape:connector-curvature="0" />
	<path style="fill:none;stroke:red;stroke-width:1px;stroke-linecap:butt;stroke-linejoin:miter;stroke-opacity:1" d="M 907.644,160.632 921.031,164.648 z" id="boundary" inkscape:connector-curvature="0" />
	<path style="fill:none;stroke:red;stroke-width:1px;stroke-linecap:butt;stroke-linejoin:miter;stroke-opacity:1" d="M 912.999,37.4683 925.047,30.7746 z" id="boundary" inkscape:connector-curvature="0" />
	<path style="fill:none;stroke:red;stroke-width:1px;stroke-linecap:butt;stroke-linejoin:miter;stroke-opacity:1" d="M 914.337,99.0499 927.725,95.0337 z" id="boundary" inkscape:connector-curvature="0" />
	<path style="fill:none;stroke:red;stroke-width:1px;stroke-linecap:butt;stroke-linejoin:miter;stroke-opacity:1" d="M 919.692,232.923 931.741,239.617 z" id="boundary" inkscape:connector-curvature="0" />
	<path style="fill:none;stroke:red;stroke-width:1px;stroke-linecap:butt;stroke-linejoin:miter;stroke-opacity:1" d="M 921.031,164.648 931.741,172.68 z" id="boundary" inkscape:connector-curvature="0" />
	<path style="fill:none;stroke:red;stroke-width:1px;stroke-linecap:butt;stroke-linejoin:miter;stroke-opacity:1" d="M 925.047,30.7746 938.435,24.081 z" id="boundary" inkscape:connector-curvature="0" />
	<path style="fill:none;stroke:red;stroke-width:1px;stroke-linecap:butt;stroke-linejoin:miter;stroke-opacity:1" d="M 927.725,95.0337 938.435,84.3239 z" id="boundary" inkscape:connector-curvature="0" />
	<path style="fill:none;stroke:red;stroke-width:1px;stroke-linecap:butt;stroke-linejoin:miter;stroke-opacity:1" d="M 931.741,172.68 942.451,182.051 z" id="boundary" inkscape:connector-curvature="0" />
	<path style="fill:none;stroke:red;stroke-width:1px;stroke-linecap:butt;stroke-linejoin:miter;stroke-opacity:1" d="M 931.741,239.617 945.128,244.972 z" id="boundary" inkscape:connector-curvature="0" />
	<path style="fill:none;stroke:red;stroke-width:1px;stroke-linecap:butt;stroke-linejoin:miter;stroke-opacity:1" d="M 938.435,24.081 951.822,24.081 z" id="boundary" inkscape:connector-curvature="0" />
	<path style="fill:none;stroke:red;stroke-width:1px;stroke-linecap:butt;stroke-linejoin:miter;stroke-opacity:1" d="M 938.435,84.3239 951.822,77.6302 z" id="boundary" inkscape:connector-curvature="0" />
	<path style="fill:none;stroke:red;stroke-width:1px;stroke-linecap:butt;stroke-linejoin:miter;stroke-opacity:1" d="M 942.451,182.051 954.499,188.745 z" id="boundary" inkscape:connector-curvature="0" />
	<path style="fill:none;stroke:red;stroke-width:1px;stroke-linecap:butt;stroke-linejoin:miter;stroke-opacity:1" d="M 945.128,244.972 957.177,251.665 z" id="boundary" inkscape:connector-curvature="0" />
	<path style="fill:none;stroke:red;stroke-width:1px;stroke-linecap:butt;stroke-linejoin:miter;stroke-opacity:1" d="M 951.822,24.081 965.209,17.3873 z" id="boundary" inkscape:connector-curvature="0" />
	<path style="fill:none;stroke:red;stroke-width:1px;stroke-linecap:butt;stroke-linejoin:miter;stroke-opacity:1" d="M 951.822,77.6302 962.532,58.888 z" id="boundary" inkscape:connector-curvature="0" />
	<path style="fill:none;stroke:red;stroke-width:1px;stroke-linecap:butt;stroke-linejoin:miter;stroke-opacity:1" d="M 954.499,188.745 965.209,198.116 z" id="boundary" inkscape:connector-curvature="0" />
	<path style="fill:none;stroke:red;stroke-width:1px;stroke-linecap:butt;stroke-linejoin:miter;stroke-opacity:1" d="M 957.177,251.665 970.564,253.004 z" id="boundary" inkscape:connector-curvature="0" />
	<path style="fill:none;stroke:red;stroke-width:1px;stroke-linecap:butt;stroke-linejoin:miter;stroke-opacity:1" d="M 962.532,58.888 973.242,49.5169 z" id="boundary" inkscape:connector-curvature="0" />
	<path style="fill:none;stroke:red;stroke-width:1px;stroke-linecap:butt;stroke-linejoin:miter;stroke-opacity:1" d="M 965.209,17.3873 978.596,10.6937 z" id="boundary" inkscape:connector-curvature="0" />
	<path style="fill:none;stroke:red;stroke-width:1px;stroke-linecap:butt;stroke-linejoin:miter;stroke-opacity:1" d="M 965.209,198.116 974.58,208.826 z" id="boundary" inkscape:connector-curvature="0" />
	<path style="fill:none;stroke:red;stroke-width:1px;stroke-linecap:butt;stroke-linejoin:miter;stroke-opacity:1" d="M 970.564,253.004 983.951,253.004 z" id="boundary" inkscape:connector-curvature="0" />
	<path style="fill:none;stroke:red;stroke-width:1px;stroke-linecap:butt;stroke-linejoin:miter;stroke-opacity:1" d="M 973.242,49.5169 982.613,32.1134 z" id="boundary" inkscape:connector-curvature="0" />
	<path style="fill:none;stroke:red;stroke-width:1px;stroke-linecap:butt;stroke-linejoin:miter;stroke-opacity:1" d="M 974.58,208.826 982.613,219.536 z" id="boundary" inkscape:connector-curvature="0" />
	<path style="fill:none;stroke:red;stroke-width:1px;stroke-linecap:butt;stroke-linejoin:miter;stroke-opacity:1" d="M 978.596,10.6937 991.984,10.6937 z" id="boundary" inkscape:connector-curvature="0" />
	<path style="fill:none;stroke:red;stroke-width:1px;stroke-linecap:butt;stroke-linejoin:miter;stroke-opacity:1" d="M 982.613,32.1134 993.323,24.081 z" id="boundary" inkscape:connector-curvature="0" />
	<path style="fill:none;stroke:red;stroke-width:1px;stroke-linecap:butt;stroke-linejoin:miter;stroke-opacity:1" d="M 982.613,219.536 989.306,231.584 z" id="boundary" inkscape:connector-curvature="0" />
	<path style="fill:none;stroke:red;stroke-width:1px;stroke-linecap:butt;stroke-linejoin:miter;stroke-opacity:1" d="M 983.951,253.004 996,243.633 z" id="boundary" inkscape:connector-curvature="0" />
	<path style="fill:none;stroke:red;stroke-width:1px;stroke-linecap:butt;stroke-linejoin:miter;stroke-opacity:1" d="M 989.306,231.584 996,243.633 z" id="boundary" inkscape:connector-curvature="0" />
	<path style="fill:none;stroke:red;stroke-width:1px;stroke-linecap:butt;stroke-linejoin:miter;stroke-opacity:1" d="M 991.984,10.6937 993.323,24.081 z" id="boundary" inkscape:connector-curvature="0" />
	<circle cx="4" cy="128.502" r="4" fill="#0" id="circle0"/>
	<circle cx="4" cy="141.889" r="4" fill="#0" id="circle1"/>
	<circle cx="12.0324" cy="152.599" r="4" fill="#0" id="circle2"/>
	<circle cx="14.7099" cy="117.792" r="4" fill="#0" id="circle3"/>
	<circle cx="20.0648" cy="163.309" r="4" fill="#0" id="circle4"/>
	<circle cx="25.4197" cy="107.082" r="4" fill="#0" id="circle5"/>
	<circle cx="32.1134" cy="170.003" r="4" fill="#0" id="circle6"/>
	<circle cx="36.1296" cy="97.7112" r="4" fill="#0" id="circle7"/>
	<circle cx="45.5007" cy="175.358" r="4" fill="#0" id="circle8"/>
	<circle cx="49.5169" cy="97.7112" r="4" fill="#0" id="circle9"/>
	<circle cx="54.8718" cy="186.067" r="4" fill="#0" id="circle10"/>
	<circle cx="58.888" cy="87.0013" r="4" fill="#0" id="circle11"/>
	<circle cx="68.2591" cy="186.067" r="4" fill="#0" id="circle12"/>
	<circle cx="72.2753" cy="80.3077" r="4" fill="#0" id="circle13"/>
	<circle cx="81.6464" cy="191.422" r="4" fill="#0" id="circle14"/>
	<circle cx="85.6626" cy="77.6302" r="4" fill="#0" id="circle15"/>
	<circle cx="93.695" cy="198.116" r="4" fill="#0" id="circle16"/>
	<circle cx="97.7112" cy="70.9366" r="4" fill="#0" id="circle17"/>
	<circle cx="107.082" cy="199.455" r="4" fill="#0" id="circle18"/>
	<circle cx="109.76" cy="64.2429" r="4" fill="#0" id="circle19"/>
	<circle cx="120.47" cy="203.471" r="4" fill="#0" id="circle20"/>
	<circle cx="121.808" cy="57.5493" r="4" fill="#0" id="circle21"/>
	<circle cx="133.857" cy="206.148" r="4" fill="#0" id="circle22"/>
	<circle cx="135.196" cy="57.5493" r="4" fill="#0" id="circle23"/>
	<circle cx="144.567" cy="214.181" r="4" fill="#0" id="circle24"/>
	<circle cx="148.583" cy="57.5493" r="4" fill="#0" id="circle25"/>
	<circle cx="157.954" cy="219.536" r="4" fill="#0" id="circle26"/>
	<circle cx="161.97" cy="50.8556" r="4" fill="#0" id="circle27"/>
	<circle cx="171.341" cy="219.536" r="4" fill="#0" id="circle28"/>
	<circle cx="175.358" cy="50.8556" r="4" fill="#0" id="circle29"/>
	<circle cx="183.39" cy="226.229" r="4" fill="#0" id="circle30"/>
	<circle cx="187.406" cy="44.1619" r="4" fill="#0" id="circle31"/>
	<circle cx="196.777" cy="226.229" r="4" fill="#0" id="circle32"/>
	<circle cx="200.794" cy="44.1619" r="4" fill="#0" id="circle33"/>
	<circle cx="208.826" cy="232.923" r="4" fill="#0" id="circle34"/>
	<circle cx="214.181" cy="44.1619" r="4" fill="#0" id="circle35"/>
	<circle cx="222.213" cy="232.923" r="4" fill="#0" id="circle36"/>
	<circle cx="227.568" cy="38.807" r="4" fill="#0" id="circle37"/>
	<circle cx="235.601" cy="232.923" r="4" fill="#0" id="circle38"/>
	<circle cx="240.955" cy="37.4683" r="4" fill="#0" id="circle39"/>
	<circle cx="248.988" cy="232.923" r="4" fill="#0" id="circle40"/>
	<circle cx="254.343" cy="37.4683" r="4" fill="#0" id="circle41"/>
	<circle cx="262.375" cy="238.278" r="4" fill="#0" id="circle42"/>
	<circle cx="267.73" cy="37.4683" r="4" fill="#0" id="circle43"/>
	<circle cx="275.762" cy="239.617" r="4" fill="#0" id="circle44"/>
	<circle cx="281.117" cy="32.1134" r="4" fill="#0" id="circle45"/>
	<circle cx="289.15" cy="239.617" r="4" fill="#0" id="circle46"/>
	<circle cx="294.505" cy="30.7746" r="4" fill="#0" id="circle47"/>
	<circle cx="302.537" cy="239.617" r="4" fill="#0" id="circle48"/>
	<circle cx="307.892" cy="25.4197" r="4" fill="#0" id="circle49"/>
	<circle cx="315.924" cy="239.617" r="4" fill="#0" id="circle50"/>
	<circle cx="321.279" cy="24.081" r="4" fill="#0" id="circle51"/>
	<circle cx="329.312" cy="239.617" r="4" fill="#0" id="circle52"/>
	<circle cx="334.667" cy="24.081" r="4" fill="#0" id="circle53"/>
	<circle cx="341.36" cy="246.31" r="4" fill="#0" id="circle54"/>
	<circle cx="348.054" cy="24.081" r="4" fill="#0" id="circle55"/>
	<circle cx="352.07" cy="254.343" r="4" fill="#0" id="circle56"/>
	<circle cx="358.764" cy="266.391" r="4" fill="#0" id="circle57"/>
	<circle cx="361.441" cy="24.081" r="4" fill="#0" id="circle58"/>
	<circle cx="365.457" cy="278.44" r="4" fill="#0" id="circle59"/>
	<circle cx="368.135" cy="291.827" r="4" fill="#0" id="circle60"/>
	<circle cx="374.829" cy="24.081" r="4" fill="#0" id="circle61"/>
	<circle cx="374.829" cy="303.876" r="4" fill="#0" id="circle62"/>
	<circle cx="385.538" cy="313.247" r="4" fill="#0" id="circle63"/>
	<circle cx="385.538" cy="326.634" r="4" fill="#0" id="circle64"/>
	<circle cx="388.216" cy="18.726" r="4" fill="#0" id="circle65"/>
	<circle cx="393.571" cy="337.344" r="4" fill="#0" id="circle66"/>
	<circle cx="401.603" cy="17.3873" r="4" fill="#0" id="circle67"/>
	<circle cx="406.958" cy="333.328" r="4" fill="#0" id="circle68"/>
	<circle cx="413.652" cy="10.6937" r="4" fill="#0" id="circle69"/>
	<circle cx="417.668" cy="323.957" r="4" fill="#0" id="circle70"/>
	<circle cx="424.362" cy="310.57" r="4" fill="#0" id="circle71"/>
	<circle cx="427.039" cy="6.67746" r="4" fill="#0" id="circle72"/>
	<circle cx="437.749" cy="303.876" r="4" fill="#0" id="circle73"/>
	<circle cx="440.426" cy="4" r="4" fill="#0" id="circle74"/>
	<circle cx="444.443" cy="290.489" r="4" fill="#0" id="circle75"/>
	<circle cx="453.814" cy="4" r="4" fill="#0" id="circle76"/>
	<circle cx="453.814" cy="279.779" r="4" fill="#0" id="circle77"/>
	<circle cx="465.862" cy="273.085" r="4" fill="#0" id="circle78"/>
	<circle cx="467.201" cy="8.01619" r="4" fill="#0" id="circle79"/>
	<circle cx="476.572" cy="18.726" r="4" fill="#0" id="circle80"/>
	<circle cx="476.572" cy="265.053" r="4" fill="#0" id="circle81"/>
	<circle cx="483.266" cy="251.665" r="4" fill="#0" id="circle82"/>
	<circle cx="487.282" cy="232.923" r="4" fill="#0" id="circle83"/>
	<circle cx="489.96" cy="24.081" r="4" fill="#0" id="circle84"/>
	<circle cx="500.669" cy="226.229" r="4" fill="#0" id="circle85"/>
	<circle cx="503.347" cy="24.081" r="4" fill="#0" id="circle86"/>
	<circle cx="514.057" cy="226.229" r="4" fill="#0" id="circle87"/>
	<circle cx="515.395" cy="30.7746" r="4" fill="#0" id="circle88"/>
	<circle cx="526.105" cy="219.536" r="4" fill="#0" id="circle89"/>
	<circle cx="528.783" cy="30.7746" r="4" fill="#0" id="circle90"/>
	<circle cx="539.493" cy="219.536" r="4" fill="#0" id="circle91"/>
	<circle cx="540.831" cy="37.4683" r="4" fill="#0" id="circle92"/>
	<circle cx="552.88" cy="219.536" r="4" fill="#0" id="circle93"/>
	<circle cx="554.219" cy="41.4845" r="4" fill="#0" id="circle94"/>
	<circle cx="564.928" cy="212.842" r="4" fill="#0" id="circle95"/>
	<circle cx="567.606" cy="44.1619" r="4" fill="#0" id="circle96"/>
	<circle cx="576.977" cy="206.148" r="4" fill="#0" id="circle97"/>
	<circle cx="579.655" cy="37.4683" r="4" fill="#0" id="circle98"/>
	<circle cx="590.364" cy="204.81" r="4" fill="#0" id="circle99"/>
	<circle cx="591.703" cy="30.7746" r="4" fill="#0" id="circle100"/>
	<circle cx="603.752" cy="24.081" r="4" fill="#0" id="circle101"/>
	<circle cx="603.752" cy="199.455" r="4" fill="#0" id="circle102"/>
	<circle cx="617.139" cy="24.081" r="4" fill="#0" id="circle103"/>
	<circle cx="617.139" cy="199.455" r="4" fill="#0" id="circle104"/>
	<circle cx="629.188" cy="192.761" r="4" fill="#0" id="circle105"/>
	<circle cx="630.526" cy="24.081" r="4" fill="#0" id="circle106"/>
	<circle cx="641.236" cy="32.1134" r="4" fill="#0" id="circle107"/>
	<circle cx="641.236" cy="186.067" r="4" fill="#0" id="circle108"/>
	<circle cx="647.93" cy="44.1619" r="4" fill="#0" id="circle109"/>
	<circle cx="654.623" cy="186.067" r="4" fill="#0" id="circle110"/>
	<circle cx="661.317" cy="48.1781" r="4" fill="#0" id="circle111"/>
	<circle cx="668.011" cy="186.067" r="4" fill="#0" id="circle112"/>
	<circle cx="672.027" cy="57.5493" r="4" fill="#0" id="circle113"/>
	<circle cx="680.059" cy="179.374" r="4" fill="#0" id="circle114"/>
	<circle cx="684.076" cy="64.2429" r="4" fill="#0" id="circle115"/>
	<circle cx="693.447" cy="179.374" r="4" fill="#0" id="circle116"/>
	<circle cx="696.124" cy="70.9366" r="4" fill="#0" id="circle117"/>
	<circle cx="705.495" cy="172.68" r="4" fill="#0" id="circle118"/>
	<circle cx="708.173" cy="77.6302" r="4" fill="#0" id="circle119"/>
	<circle cx="717.544" cy="165.987" r="4" fill="#0" id="circle120"/>
	<circle cx="718.883" cy="85.6626" r="4" fill="#0" id="circle121"/>
	<circle cx="730.931" cy="165.987" r="4" fill="#0" id="circle122"/>
	<circle cx="732.27" cy="91.0175" r="4" fill="#0" id="circle123"/>
	<circle cx="744.318" cy="165.987" r="4" fill="#0" id="circle124"/>
	<circle cx="745.657" cy="91.0175" r="4" fill="#0" id="circle125"/>
	<circle cx="756.367" cy="172.68" r="4" fill="#0" id="circle126"/>
	<circle cx="759.045" cy="91.0175" r="4" fill="#0" id="circle127"/>
	<circle cx="769.754" cy="176.696" r="4" fill="#0" id="circle128"/>
	<circle cx="771.093" cy="84.3239" r="4" fill="#0" id="circle129"/>
	<circle cx="783.142" cy="179.374" r="4" fill="#0" id="circle130"/>
	<circle cx="784.48" cy="77.6302" r="4" fill="#0" id="circle131"/>
	<circle cx="795.19" cy="186.067" r="4" fill="#0" id="circle132"/>
	<circle cx="797.868" cy="77.6302" r="4" fill="#0" id="circle133"/>
	<circle cx="808.578" cy="186.067" r="4" fill="#0" id="circle134"/>
	<circle cx="811.255" cy="77.6302" r="4" fill="#0" id="circle135"/>
	<circle cx="821.965" cy="188.745" r="4" fill="#0" id="circle136"/>
	<circle cx="823.304" cy="70.9366" r="4" fill="#0" id="circle137"/>
	<circle cx="834.013" cy="195.439" r="4" fill="#0" id="circle138"/>
	<circle cx="835.352" cy="64.2429" r="4" fill="#0" id="circle139"/>
	<circle cx="847.401" cy="57.5493" r="4" fill="#0" id="circle140"/>
	<circle cx="847.401" cy="199.455" r="4" fill="#0" id="circle141"/>
	<circle cx="859.449" cy="206.148" r="4" fill="#0" id="circle142"/>
	<circle cx="860.788" cy="54.8718" r="4" fill="#0" id="circle143"/>
	<circle cx="868.821" cy="125.825" r="4" fill="#0" id="circle144"/>
	<circle cx="868.821" cy="216.858" r="4" fill="#0" id="circle145"/>
	<circle cx="871.498" cy="139.212" r="4" fill="#0" id="circle146"/>
	<circle cx="874.175" cy="48.1781" r="4" fill="#0" id="circle147"/>
	<circle cx="879.53" cy="116.453" r="4" fill="#0" id="circle148"/>
	<circle cx="882.208" cy="219.536" r="4" fill="#0" id="circle149"/>
	<circle cx="884.885" cy="144.567" r="4" fill="#0" id="circle150"/>
	<circle cx="887.563" cy="44.1619" r="4" fill="#0" id="circle151"/>
	<circle cx="892.918" cy="112.437" r="4" fill="#0" id="circle152"/>
	<circle cx="894.256" cy="155.277" r="4" fill="#0" id="circle153"/>
	<circle cx="894.256" cy="226.229" r="4" fill="#0" id="circle154"/>
	<circle cx="900.95" cy="44.1619" r="4" fill="#0" id="circle155"/>
	<circle cx="906.305" cy="109.76" r="4" fill="#0" id="circle156"/>
	<circle cx="906.305" cy="232.923" r="4" fill="#0" id="circle157"/>
	<circle cx="907.644" cy="160.632" r="4" fill="#0" id="circle158"/>
	<circle cx="912.999" cy="37.4683" r="4" fill="#0" id="circle159"/>
	<circle cx="914.337" cy="99.0499" r="4" fill="#0" id="circle160"/>
	<circle cx="919.692" cy="232.923" r="4" fill="#0" id="circle161"/>
	<circle cx="921.031" cy="164.648" r="4" fill="#0" id="circle162"/>
	<circle cx="925.047" cy="30.7746" r="4" fill="#0" id="circle163"/>
	<circle cx="927.725" cy="95.0337" r="4" fill="#0" id="circle164"/>
	<circle cx="931.741" cy="172.68" r="4" fill="#0" id="circle165"/>
	<circle cx="931.741" cy="239.617" r="4" fill="#0" id="circle166"/>
	<circle cx="938.435" cy="24.081" r="4" fill="#0" id="circle167"/>
	<circle cx="938.435" cy="84.3239" r="4" fill="#0" id="circle168"/>
	<circle cx="942.451" cy="182.051" r="4" fill="#0" id="circle169"/>
	<circle cx="945.128" cy="244.972" r="4" fill="#0" id="circle170"/>
	<circle cx="951.822" cy="24.081" r="4" fill="#0" id="circle171"/>
	<circle cx="951.822" cy="77.6302" r="4" fill="#0" id="circle172"/>
	<circle cx="954.499" cy="188.745" r="4" fill="#0" id="circle173"/>
	<circle cx="957.177" cy="251.665" r="4" fill="#0" id="circle174"/>
	<circle cx="962.532" cy="58.888" r="4" fill="#0" id="circle175"/>
	<circle cx="965.209" cy="17.3873" r="4" fill="#0" id="circle176"/>
	<circle cx="965.209" cy="198.116" r="4" fill="#0" id="circle177"/>
	<circle cx="970.564" cy="253.004" r="4" fill="#0" id="circle178"/>
	<circle cx="973.242" cy="49.5169" r="4" fill="#0" id="circle179"/>
	<circle cx="974.58" cy="208.826" r="4" fill="#0" id="circle180"/>
	<circle cx="978.596" cy="10.6937" r="4" fill="#0" id="circle181"/>
	<circle cx="982.613" cy="32.1134" r="4" fill="#0" id="circle182"/>
	<circle cx="982.613" cy="219.536" r="4" fill="#0" id="circle183"/>
	<circle cx="983.951" cy="253.004" r="4" fill="#0" id="circle184"/>
	<circle cx="989.306" cy="231.584" r="4" fill="#0" id="circle185"/>
	<circle cx="991.984" cy="10.6937" r="4" fill="#0" id="circle186"/>
	<circle cx="993.323" cy="24.081" r="4" fill="#0" id="circle187"/>
	<circle cx="996" cy="243.633" r="4" fill="#0" id="circle188"/>
	</g>
</svg>