<?xml version="1.0" encoding="UTF-8" standalone="no"?>
<!-- Created with CurveBenchmark -->
<svg
	xmlns:dc="http://purl.org/dc/elements/1.1/"
	xmlns:cc="http://creativecommons.org/ns#"
	xmlns:rdf="http://www.w3.org/1999/02/22-rdf-syntax-ns#"
	xmlns:svg="http://www.w3.org/2000/svg"
	xmlns="http://www.w3.org/2000/svg"
	xmlns:sodipodi="http://sodipodi.sourceforge.net/DTD/sodipodi-0.dtd"
	xmlns:inkscape="http://www.inkscape.org/namespaces/inkscape"
	width="1000"
	height="1000"
	id="svg2"
	version="1.1"
	sodipodi:docname="manifold/fitconnect-guitar325.png.txt">
<defs
	id="defs4" />
<metadata
	id="metadata7">
	<rdf:RDF>
		<cc:Work
			rdf:about="">
			<dc:format>image/svg+xml</dc:format>
			<dc:type
				rdf:resource="http://purl.org/dc/dcmitype/StillImage" />
			<dc:title></dc:title>
		</cc:Work>
	</rdf:RDF>
</metadata>
<g
	inkscape:label="Layer 1"
	inkscape:groupmode="layer"
	id="layer1">
	<path style="fill:none;stroke:red;stroke-width:1px;stroke-linecap:butt;stroke-linejoin:miter;stroke-opacity:1" d="M 11.0106,782.177 365.046,894.346 z" id="boundary" inkscape:connector-curvature="0" />
	<path style="fill:none;stroke:red;stroke-width:1px;stroke-linecap:butt;stroke-linejoin:miter;stroke-opacity:1" d="M 84.6219,967.958 119.675,981.979 z" id="boundary" inkscape:connector-curvature="0" />
	<path style="fill:none;stroke:red;stroke-width:1px;stroke-linecap:butt;stroke-linejoin:miter;stroke-opacity:1" d="M 119.675,981.979 189.781,996 z" id="boundary" inkscape:connector-curvature="0" />
	<path style="fill:none;stroke:red;stroke-width:1px;stroke-linecap:butt;stroke-linejoin:miter;stroke-opacity:1" d="M 189.781,996 294.94,974.968 z" id="boundary" inkscape:connector-curvature="0" />
	<path style="fill:none;stroke:red;stroke-width:1px;stroke-linecap:butt;stroke-linejoin:miter;stroke-opacity:1" d="M 294.94,974.968 365.046,894.346 z" id="boundary" inkscape:connector-curvature="0" />
	<circle cx="4" cy="824.24" r="4" fill="#0" id="circle0"/>
	<circle cx="4" cy="859.293" r="4" fill="#0" id="circle1"/>
	<circle cx="11.0106" cy="782.177" r="4" fill="#0" id="circle2"/>
	<circle cx="11.0106" cy="894.346" r="4" fill="#0" id="circle3"/>
	<circle cx="28.5371" cy="750.629" r="4" fill="#0" id="circle4"/>
	<circle cx="32.0424" cy="922.389" r="4" fill="#0" id="circle5"/>
	<circle cx="46.0636" cy="557.837" r="4" fill="#0" id="circle6"/>
	<circle cx="46.0636" cy="592.89" r="4" fill="#0" id="circle7"/>
	<circle cx="46.0636" cy="719.081" r="4" fill="#0" id="circle8"/>
	<circle cx="53.0742" cy="627.943" r="4" fill="#0" id="circle9"/>
	<circle cx="53.0742" cy="950.431" r="4" fill="#0" id="circle10"/>
	<circle cx="60.0848" cy="684.028" r="4" fill="#0" id="circle11"/>
	<circle cx="63.5901" cy="526.29" r="4" fill="#0" id="circle12"/>
	<circle cx="84.6219" cy="967.958" r="4" fill="#0" id="circle13"/>
	<circle cx="95.1378" cy="508.763" r="4" fill="#0" id="circle14"/>
	<circle cx="119.675" cy="981.979" r="4" fill="#0" id="circle15"/>
	<circle cx="130.191" cy="501.753" r="4" fill="#0" id="circle16"/>
	<circle cx="137.201" cy="95.1378" r="4" fill="#0" id="circle17"/>
	<circle cx="137.201" cy="389.583" r="4" fill="#0" id="circle18"/>
	<circle cx="137.201" cy="424.636" r="4" fill="#0" id="circle19"/>
	<circle cx="137.201" cy="459.689" r="4" fill="#0" id="circle20"/>
	<circle cx="144.212" cy="130.191" r="4" fill="#0" id="circle21"/>
	<circle cx="144.212" cy="165.244" r="4" fill="#0" id="circle22"/>
	<circle cx="144.212" cy="200.297" r="4" fill="#0" id="circle23"/>
	<circle cx="144.212" cy="235.35" r="4" fill="#0" id="circle24"/>
	<circle cx="144.212" cy="270.403" r="4" fill="#0" id="circle25"/>
	<circle cx="144.212" cy="305.456" r="4" fill="#0" id="circle26"/>
	<circle cx="144.212" cy="340.509" r="4" fill="#0" id="circle27"/>
	<circle cx="151.223" cy="32.0424" r="4" fill="#0" id="circle28"/>
	<circle cx="154.728" cy="988.989" r="4" fill="#0" id="circle29"/>
	<circle cx="179.265" cy="4" r="4" fill="#0" id="circle30"/>
	<circle cx="189.781" cy="130.191" r="4" fill="#0" id="circle31"/>
	<circle cx="189.781" cy="165.244" r="4" fill="#0" id="circle32"/>
	<circle cx="189.781" cy="200.297" r="4" fill="#0" id="circle33"/>
	<circle cx="189.781" cy="235.35" r="4" fill="#0" id="circle34"/>
	<circle cx="189.781" cy="270.403" r="4" fill="#0" id="circle35"/>
	<circle cx="189.781" cy="305.456" r="4" fill="#0" id="circle36"/>
	<circle cx="189.781" cy="996" r="4" fill="#0" id="circle37"/>
	<circle cx="193.286" cy="340.509" r="4" fill="#0" id="circle38"/>
	<circle cx="196.792" cy="375.562" r="4" fill="#0" id="circle39"/>
	<circle cx="196.792" cy="410.615" r="4" fill="#0" id="circle40"/>
	<circle cx="196.792" cy="445.668" r="4" fill="#0" id="circle41"/>
	<circle cx="203.802" cy="81.1166" r="4" fill="#0" id="circle42"/>
	<circle cx="210.813" cy="46.0636" r="4" fill="#0" id="circle43"/>
	<circle cx="214.318" cy="11.0106" r="4" fill="#0" id="circle44"/>
	<circle cx="214.318" cy="477.216" r="4" fill="#0" id="circle45"/>
	<circle cx="224.834" cy="988.989" r="4" fill="#0" id="circle46"/>
	<circle cx="245.866" cy="494.742" r="4" fill="#0" id="circle47"/>
	<circle cx="245.866" cy="529.795" r="4" fill="#0" id="circle48"/>
	<circle cx="259.887" cy="985.484" r="4" fill="#0" id="circle49"/>
	<circle cx="280.919" cy="543.816" r="4" fill="#0" id="circle50"/>
	<circle cx="294.94" cy="974.968" r="4" fill="#0" id="circle51"/>
	<circle cx="315.972" cy="543.816" r="4" fill="#0" id="circle52"/>
	<circle cx="322.982" cy="648.975" r="4" fill="#0" id="circle53"/>
	<circle cx="322.982" cy="684.028" r="4" fill="#0" id="circle54"/>
	<circle cx="326.488" cy="953.936" r="4" fill="#0" id="circle55"/>
	<circle cx="337.004" cy="613.922" r="4" fill="#0" id="circle56"/>
	<circle cx="337.004" cy="719.081" r="4" fill="#0" id="circle57"/>
	<circle cx="344.014" cy="564.848" r="4" fill="#0" id="circle58"/>
	<circle cx="347.519" cy="925.894" r="4" fill="#0" id="circle59"/>
	<circle cx="354.53" cy="750.629" r="4" fill="#0" id="circle60"/>
	<circle cx="365.046" cy="894.346" r="4" fill="#0" id="circle61"/>
	<circle cx="372.057" cy="782.177" r="4" fill="#0" id="circle62"/>
	<circle cx="379.067" cy="817.23" r="4" fill="#0" id="circle63"/>
	<circle cx="379.067" cy="852.283" r="4" fill="#0" id="circle64"/>
	</g>
</svg>