<?xml version="1.0" encoding="UTF-8" standalone="no"?>
<!-- Created with CurveBenchmark -->
<svg
	xmlns:dc="http://purl.org/dc/elements/1.1/"
	xmlns:cc="http://creativecommons.org/ns#"
	xmlns:rdf="http://www.w3.org/1999/02/22-rdf-syntax-ns#"
	xmlns:svg="http://www.w3.org/2000/svg"
	xmlns="http://www.w3.org/2000/svg"
	xmlns:sodipodi="http://sodipodi.sourceforge.net/DTD/sodipodi-0.dtd"
	xmlns:inkscape="http://www.inkscape.org/namespaces/inkscape"
	width="1000"
	height="1000"
	id="svg2"
	version="1.1"
	sodipodi:docname="manifold/fitconnect-guitar215.png.txt">
<defs
	id="defs4" />
<metadata
	id="metadata7">
	<rdf:RDF>
		<cc:Work
			rdf:about="">
			<dc:format>image/svg+xml</dc:format>
			<dc:type
				rdf:resource="http://purl.org/dc/dcmitype/StillImage" />
			<dc:title></dc:title>
		</cc:Work>
	</rdf:RDF>
</metadata>
<g
	inkscape:label="Layer 1"
	inkscape:groupmode="layer"
	id="layer1">
	<path style="fill:none;stroke:red;stroke-width:1px;stroke-linecap:butt;stroke-linejoin:miter;stroke-opacity:1" d="M 21.6512,921.865 35.7722,741.822 z" id="boundary" inkscape:connector-curvature="0" />
	<path style="fill:none;stroke:red;stroke-width:1px;stroke-linecap:butt;stroke-linejoin:miter;stroke-opacity:1" d="M 21.6512,921.865 208.754,996 z" id="boundary" inkscape:connector-curvature="0" />
	<path style="fill:none;stroke:red;stroke-width:1px;stroke-linecap:butt;stroke-linejoin:miter;stroke-opacity:1" d="M 35.7722,741.822 208.754,11.0605 z" id="boundary" inkscape:connector-curvature="0" />
	<path style="fill:none;stroke:red;stroke-width:1px;stroke-linecap:butt;stroke-linejoin:miter;stroke-opacity:1" d="M 208.754,996 339.374,950.107 z" id="boundary" inkscape:connector-curvature="0" />
	<path style="fill:none;stroke:red;stroke-width:1px;stroke-linecap:butt;stroke-linejoin:miter;stroke-opacity:1" d="M 339.374,950.107 371.146,794.776 z" id="boundary" inkscape:connector-curvature="0" />
	<circle cx="4" cy="815.957" r="4" fill="#0" id="circle0"/>
	<circle cx="4" cy="851.26" r="4" fill="#0" id="circle1"/>
	<circle cx="7.53025" cy="886.562" r="4" fill="#0" id="circle2"/>
	<circle cx="18.121" cy="773.594" r="4" fill="#0" id="circle3"/>
	<circle cx="21.6512" cy="921.865" r="4" fill="#0" id="circle4"/>
	<circle cx="35.7722" cy="741.822" r="4" fill="#0" id="circle5"/>
	<circle cx="39.3025" cy="561.779" r="4" fill="#0" id="circle6"/>
	<circle cx="39.3025" cy="597.082" r="4" fill="#0" id="circle7"/>
	<circle cx="42.8327" cy="950.107" r="4" fill="#0" id="circle8"/>
	<circle cx="46.363" cy="632.384" r="4" fill="#0" id="circle9"/>
	<circle cx="53.4235" cy="695.929" r="4" fill="#0" id="circle10"/>
	<circle cx="71.0747" cy="971.288" r="4" fill="#0" id="circle11"/>
	<circle cx="74.605" cy="547.658" r="4" fill="#0" id="circle12"/>
	<circle cx="102.847" cy="988.94" r="4" fill="#0" id="circle13"/>
	<circle cx="109.907" cy="547.658" r="4" fill="#0" id="circle14"/>
	<circle cx="131.089" cy="102.847" r="4" fill="#0" id="circle15"/>
	<circle cx="131.089" cy="427.63" r="4" fill="#0" id="circle16"/>
	<circle cx="131.089" cy="462.932" r="4" fill="#0" id="circle17"/>
	<circle cx="131.089" cy="498.235" r="4" fill="#0" id="circle18"/>
	<circle cx="138.149" cy="67.5445" r="4" fill="#0" id="circle19"/>
	<circle cx="138.149" cy="138.149" r="4" fill="#0" id="circle20"/>
	<circle cx="138.149" cy="173.452" r="4" fill="#0" id="circle21"/>
	<circle cx="138.149" cy="208.754" r="4" fill="#0" id="circle22"/>
	<circle cx="138.149" cy="244.057" r="4" fill="#0" id="circle23"/>
	<circle cx="138.149" cy="279.359" r="4" fill="#0" id="circle24"/>
	<circle cx="138.149" cy="314.662" r="4" fill="#0" id="circle25"/>
	<circle cx="138.149" cy="349.964" r="4" fill="#0" id="circle26"/>
	<circle cx="138.149" cy="385.267" r="4" fill="#0" id="circle27"/>
	<circle cx="138.149" cy="996" r="4" fill="#0" id="circle28"/>
	<circle cx="145.21" cy="32.242" r="4" fill="#0" id="circle29"/>
	<circle cx="173.452" cy="4" r="4" fill="#0" id="circle30"/>
	<circle cx="173.452" cy="996" r="4" fill="#0" id="circle31"/>
	<circle cx="184.043" cy="138.149" r="4" fill="#0" id="circle32"/>
	<circle cx="184.043" cy="173.452" r="4" fill="#0" id="circle33"/>
	<circle cx="184.043" cy="208.754" r="4" fill="#0" id="circle34"/>
	<circle cx="184.043" cy="244.057" r="4" fill="#0" id="circle35"/>
	<circle cx="191.103" cy="279.359" r="4" fill="#0" id="circle36"/>
	<circle cx="191.103" cy="314.662" r="4" fill="#0" id="circle37"/>
	<circle cx="191.103" cy="349.964" r="4" fill="#0" id="circle38"/>
	<circle cx="191.103" cy="385.267" r="4" fill="#0" id="circle39"/>
	<circle cx="191.103" cy="420.569" r="4" fill="#0" id="circle40"/>
	<circle cx="191.103" cy="455.872" r="4" fill="#0" id="circle41"/>
	<circle cx="198.164" cy="81.6655" r="4" fill="#0" id="circle42"/>
	<circle cx="205.224" cy="46.363" r="4" fill="#0" id="circle43"/>
	<circle cx="208.754" cy="11.0605" r="4" fill="#0" id="circle44"/>
	<circle cx="208.754" cy="996" r="4" fill="#0" id="circle45"/>
	<circle cx="212.285" cy="484.114" r="4" fill="#0" id="circle46"/>
	<circle cx="244.057" cy="501.765" r="4" fill="#0" id="circle47"/>
	<circle cx="244.057" cy="996" r="4" fill="#0" id="circle48"/>
	<circle cx="279.359" cy="508.826" r="4" fill="#0" id="circle49"/>
	<circle cx="279.359" cy="988.94" r="4" fill="#0" id="circle50"/>
	<circle cx="311.132" cy="971.288" r="4" fill="#0" id="circle51"/>
	<circle cx="314.662" cy="522.947" r="4" fill="#0" id="circle52"/>
	<circle cx="318.192" cy="660.626" r="4" fill="#0" id="circle53"/>
	<circle cx="325.253" cy="695.929" r="4" fill="#0" id="circle54"/>
	<circle cx="332.313" cy="554.719" r="4" fill="#0" id="circle55"/>
	<circle cx="332.313" cy="618.263" r="4" fill="#0" id="circle56"/>
	<circle cx="339.374" cy="731.231" r="4" fill="#0" id="circle57"/>
	<circle cx="339.374" cy="950.107" r="4" fill="#0" id="circle58"/>
	<circle cx="360.555" cy="759.473" r="4" fill="#0" id="circle59"/>
	<circle cx="360.555" cy="914.804" r="4" fill="#0" id="circle60"/>
	<circle cx="371.146" cy="794.776" r="4" fill="#0" id="circle61"/>
	<circle cx="374.676" cy="879.502" r="4" fill="#0" id="circle62"/>
	<circle cx="378.206" cy="830.078" r="4" fill="#0" id="circle63"/>
	</g>
</svg>