<?xml version="1.0" encoding="UTF-8" standalone="no"?>
<!-- Created with CurveBenchmark -->
<svg
	xmlns:dc="http://purl.org/dc/elements/1.1/"
	xmlns:cc="http://creativecommons.org/ns#"
	xmlns:rdf="http://www.w3.org/1999/02/22-rdf-syntax-ns#"
	xmlns:svg="http://www.w3.org/2000/svg"
	xmlns="http://www.w3.org/2000/svg"
	xmlns:sodipodi="http://sodipodi.sourceforge.net/DTD/sodipodi-0.dtd"
	xmlns:inkscape="http://www.inkscape.org/namespaces/inkscape"
	width="1000"
	height="1000"
	id="svg2"
	version="1.1"
	sodipodi:docname="manifold/fitconnect-bird48.png.txt">
<defs
	id="defs4" />
<metadata
	id="metadata7">
	<rdf:RDF>
		<cc:Work
			rdf:about="">
			<dc:format>image/svg+xml</dc:format>
			<dc:type
				rdf:resource="http://purl.org/dc/dcmitype/StillImage" />
			<dc:title></dc:title>
		</cc:Work>
	</rdf:RDF>
</metadata>
<g
	inkscape:label="Layer 1"
	inkscape:groupmode="layer"
	id="layer1">
	<path style="fill:none;stroke:red;stroke-width:1px;stroke-linecap:butt;stroke-linejoin:miter;stroke-opacity:1" d="M 4,47.93 10.1298,56.103 z" id="boundary" inkscape:connector-curvature="0" />
	<path style="fill:none;stroke:red;stroke-width:1px;stroke-linecap:butt;stroke-linejoin:miter;stroke-opacity:1" d="M 4,47.93 12.173,39.757 z" id="boundary" inkscape:connector-curvature="0" />
	<path style="fill:none;stroke:red;stroke-width:1px;stroke-linecap:butt;stroke-linejoin:miter;stroke-opacity:1" d="M 10.1298,56.103 20.346,56.103 z" id="boundary" inkscape:connector-curvature="0" />
	<path style="fill:none;stroke:red;stroke-width:1px;stroke-linecap:butt;stroke-linejoin:miter;stroke-opacity:1" d="M 12.173,39.757 21.3677,34.6488 z" id="boundary" inkscape:connector-curvature="0" />
	<path style="fill:none;stroke:red;stroke-width:1px;stroke-linecap:butt;stroke-linejoin:miter;stroke-opacity:1" d="M 20.346,56.103 30.5623,56.103 z" id="boundary" inkscape:connector-curvature="0" />
	<path style="fill:none;stroke:red;stroke-width:1px;stroke-linecap:butt;stroke-linejoin:miter;stroke-opacity:1" d="M 21.3677,34.6488 31.5839,34.6488 z" id="boundary" inkscape:connector-curvature="0" />
	<path style="fill:none;stroke:red;stroke-width:1px;stroke-linecap:butt;stroke-linejoin:miter;stroke-opacity:1" d="M 30.5623,56.103 39.757,61.2111 z" id="boundary" inkscape:connector-curvature="0" />
	<path style="fill:none;stroke:red;stroke-width:1px;stroke-linecap:butt;stroke-linejoin:miter;stroke-opacity:1" d="M 31.5839,34.6488 41.8002,30.5623 z" id="boundary" inkscape:connector-curvature="0" />
	<path style="fill:none;stroke:red;stroke-width:1px;stroke-linecap:butt;stroke-linejoin:miter;stroke-opacity:1" d="M 39.757,61.2111 49.9732,61.2111 z" id="boundary" inkscape:connector-curvature="0" />
	<path style="fill:none;stroke:red;stroke-width:1px;stroke-linecap:butt;stroke-linejoin:miter;stroke-opacity:1" d="M 41.8002,30.5623 52.0165,29.5407 z" id="boundary" inkscape:connector-curvature="0" />
	<path style="fill:none;stroke:red;stroke-width:1px;stroke-linecap:butt;stroke-linejoin:miter;stroke-opacity:1" d="M 49.9732,61.2111 60.1895,61.2111 z" id="boundary" inkscape:connector-curvature="0" />
	<path style="fill:none;stroke:red;stroke-width:1px;stroke-linecap:butt;stroke-linejoin:miter;stroke-opacity:1" d="M 52.0165,29.5407 62.2327,29.5407 z" id="boundary" inkscape:connector-curvature="0" />
	<path style="fill:none;stroke:red;stroke-width:1px;stroke-linecap:butt;stroke-linejoin:miter;stroke-opacity:1" d="M 60.1895,61.2111 70.4058,61.2111 z" id="boundary" inkscape:connector-curvature="0" />
	<path style="fill:none;stroke:red;stroke-width:1px;stroke-linecap:butt;stroke-linejoin:miter;stroke-opacity:1" d="M 62.2327,29.5407 67.3409,20.346 z" id="boundary" inkscape:connector-curvature="0" />
	<path style="fill:none;stroke:red;stroke-width:1px;stroke-linecap:butt;stroke-linejoin:miter;stroke-opacity:1" d="M 67.3409,20.346 77.5572,19.3244 z" id="boundary" inkscape:connector-curvature="0" />
	<path style="fill:none;stroke:red;stroke-width:1px;stroke-linecap:butt;stroke-linejoin:miter;stroke-opacity:1" d="M 70.4058,61.2111 80.622,61.2111 z" id="boundary" inkscape:connector-curvature="0" />
	<path style="fill:none;stroke:red;stroke-width:1px;stroke-linecap:butt;stroke-linejoin:miter;stroke-opacity:1" d="M 77.5572,19.3244 87.7734,19.3244 z" id="boundary" inkscape:connector-curvature="0" />
	<path style="fill:none;stroke:red;stroke-width:1px;stroke-linecap:butt;stroke-linejoin:miter;stroke-opacity:1" d="M 80.622,61.2111 90.8383,61.2111 z" id="boundary" inkscape:connector-curvature="0" />
	<path style="fill:none;stroke:red;stroke-width:1px;stroke-linecap:butt;stroke-linejoin:miter;stroke-opacity:1" d="M 87.7734,19.3244 97.9897,15.2379 z" id="boundary" inkscape:connector-curvature="0" />
	<path style="fill:none;stroke:red;stroke-width:1px;stroke-linecap:butt;stroke-linejoin:miter;stroke-opacity:1" d="M 90.8383,61.2111 101.055,61.2111 z" id="boundary" inkscape:connector-curvature="0" />
	<path style="fill:none;stroke:red;stroke-width:1px;stroke-linecap:butt;stroke-linejoin:miter;stroke-opacity:1" d="M 97.9897,15.2379 108.206,14.2163 z" id="boundary" inkscape:connector-curvature="0" />
	<path style="fill:none;stroke:red;stroke-width:1px;stroke-linecap:butt;stroke-linejoin:miter;stroke-opacity:1" d="M 101.055,61.2111 110.249,66.3193 z" id="boundary" inkscape:connector-curvature="0" />
	<path style="fill:none;stroke:red;stroke-width:1px;stroke-linecap:butt;stroke-linejoin:miter;stroke-opacity:1" d="M 108.206,14.2163 118.422,10.1298 z" id="boundary" inkscape:connector-curvature="0" />
	<path style="fill:none;stroke:red;stroke-width:1px;stroke-linecap:butt;stroke-linejoin:miter;stroke-opacity:1" d="M 110.249,66.3193 120.465,66.3193 z" id="boundary" inkscape:connector-curvature="0" />
	<path style="fill:none;stroke:red;stroke-width:1px;stroke-linecap:butt;stroke-linejoin:miter;stroke-opacity:1" d="M 118.422,10.1298 126.595,4 z" id="boundary" inkscape:connector-curvature="0" />
	<path style="fill:none;stroke:red;stroke-width:1px;stroke-linecap:butt;stroke-linejoin:miter;stroke-opacity:1" d="M 120.465,66.3193 129.66,71.4274 z" id="boundary" inkscape:connector-curvature="0" />
	<path style="fill:none;stroke:red;stroke-width:1px;stroke-linecap:butt;stroke-linejoin:miter;stroke-opacity:1" d="M 126.595,4 136.812,6.04325 z" id="boundary" inkscape:connector-curvature="0" />
	<path style="fill:none;stroke:red;stroke-width:1px;stroke-linecap:butt;stroke-linejoin:miter;stroke-opacity:1" d="M 129.66,71.4274 139.876,75.5139 z" id="boundary" inkscape:connector-curvature="0" />
	<path style="fill:none;stroke:red;stroke-width:1px;stroke-linecap:butt;stroke-linejoin:miter;stroke-opacity:1" d="M 136.812,6.04325 147.028,9.10814 z" id="boundary" inkscape:connector-curvature="0" />
	<path style="fill:none;stroke:red;stroke-width:1px;stroke-linecap:butt;stroke-linejoin:miter;stroke-opacity:1" d="M 139.876,75.5139 143.963,85.7302 z" id="boundary" inkscape:connector-curvature="0" />
	<path style="fill:none;stroke:red;stroke-width:1px;stroke-linecap:butt;stroke-linejoin:miter;stroke-opacity:1" d="M 143.963,85.7302 152.136,91.8599 z" id="boundary" inkscape:connector-curvature="0" />
	<path style="fill:none;stroke:red;stroke-width:1px;stroke-linecap:butt;stroke-linejoin:miter;stroke-opacity:1" d="M 147.028,9.10814 156.222,14.2163 z" id="boundary" inkscape:connector-curvature="0" />
	<path style="fill:none;stroke:red;stroke-width:1px;stroke-linecap:butt;stroke-linejoin:miter;stroke-opacity:1" d="M 147.028,206.282 152.136,190.958 z" id="boundary" inkscape:connector-curvature="0" />
	<path style="fill:none;stroke:red;stroke-width:1px;stroke-linecap:butt;stroke-linejoin:miter;stroke-opacity:1" d="M 147.028,206.282 152.136,215.477 z" id="boundary" inkscape:connector-curvature="0" />
	<path style="fill:none;stroke:red;stroke-width:1px;stroke-linecap:butt;stroke-linejoin:miter;stroke-opacity:1" d="M 147.028,257.364 147.028,267.58 z" id="boundary" inkscape:connector-curvature="0" />
	<path style="fill:none;stroke:red;stroke-width:1px;stroke-linecap:butt;stroke-linejoin:miter;stroke-opacity:1" d="M 147.028,257.364 152.136,247.147 z" id="boundary" inkscape:connector-curvature="0" />
	<path style="fill:none;stroke:red;stroke-width:1px;stroke-linecap:butt;stroke-linejoin:miter;stroke-opacity:1" d="M 147.028,267.58 147.028,277.796 z" id="boundary" inkscape:connector-curvature="0" />
	<path style="fill:none;stroke:red;stroke-width:1px;stroke-linecap:butt;stroke-linejoin:miter;stroke-opacity:1" d="M 147.028,277.796 147.028,288.012 z" id="boundary" inkscape:connector-curvature="0" />
	<path style="fill:none;stroke:red;stroke-width:1px;stroke-linecap:butt;stroke-linejoin:miter;stroke-opacity:1" d="M 147.028,288.012 152.136,297.207 z" id="boundary" inkscape:connector-curvature="0" />
	<path style="fill:none;stroke:red;stroke-width:1px;stroke-linecap:butt;stroke-linejoin:miter;stroke-opacity:1" d="M 152.136,91.8599 158.266,100.033 z" id="boundary" inkscape:connector-curvature="0" />
	<path style="fill:none;stroke:red;stroke-width:1px;stroke-linecap:butt;stroke-linejoin:miter;stroke-opacity:1" d="M 152.136,180.742 152.136,190.958 z" id="boundary" inkscape:connector-curvature="0" />
	<path style="fill:none;stroke:red;stroke-width:1px;stroke-linecap:butt;stroke-linejoin:miter;stroke-opacity:1" d="M 152.136,180.742 157.244,170.525 z" id="boundary" inkscape:connector-curvature="0" />
	<path style="fill:none;stroke:red;stroke-width:1px;stroke-linecap:butt;stroke-linejoin:miter;stroke-opacity:1" d="M 152.136,215.477 157.244,224.671 z" id="boundary" inkscape:connector-curvature="0" />
	<path style="fill:none;stroke:red;stroke-width:1px;stroke-linecap:butt;stroke-linejoin:miter;stroke-opacity:1" d="M 152.136,247.147 157.244,234.888 z" id="boundary" inkscape:connector-curvature="0" />
	<path style="fill:none;stroke:red;stroke-width:1px;stroke-linecap:butt;stroke-linejoin:miter;stroke-opacity:1" d="M 152.136,297.207 152.136,307.423 z" id="boundary" inkscape:connector-curvature="0" />
	<path style="fill:none;stroke:red;stroke-width:1px;stroke-linecap:butt;stroke-linejoin:miter;stroke-opacity:1" d="M 152.136,307.423 152.136,317.64 z" id="boundary" inkscape:connector-curvature="0" />
	<path style="fill:none;stroke:red;stroke-width:1px;stroke-linecap:butt;stroke-linejoin:miter;stroke-opacity:1" d="M 152.136,317.64 159.287,325.813 z" id="boundary" inkscape:connector-curvature="0" />
	<path style="fill:none;stroke:red;stroke-width:1px;stroke-linecap:butt;stroke-linejoin:miter;stroke-opacity:1" d="M 156.222,14.2163 165.417,19.3244 z" id="boundary" inkscape:connector-curvature="0" />
	<path style="fill:none;stroke:red;stroke-width:1px;stroke-linecap:butt;stroke-linejoin:miter;stroke-opacity:1" d="M 157.244,144.985 157.244,160.309 z" id="boundary" inkscape:connector-curvature="0" />
	<path style="fill:none;stroke:red;stroke-width:1px;stroke-linecap:butt;stroke-linejoin:miter;stroke-opacity:1" d="M 157.244,144.985 162.352,130.682 z" id="boundary" inkscape:connector-curvature="0" />
	<path style="fill:none;stroke:red;stroke-width:1px;stroke-linecap:butt;stroke-linejoin:miter;stroke-opacity:1" d="M 157.244,160.309 157.244,170.525 z" id="boundary" inkscape:connector-curvature="0" />
	<path style="fill:none;stroke:red;stroke-width:1px;stroke-linecap:butt;stroke-linejoin:miter;stroke-opacity:1" d="M 157.244,224.671 157.244,234.888 z" id="boundary" inkscape:connector-curvature="0" />
	<path style="fill:none;stroke:red;stroke-width:1px;stroke-linecap:butt;stroke-linejoin:miter;stroke-opacity:1" d="M 158.266,100.033 162.352,110.249 z" id="boundary" inkscape:connector-curvature="0" />
	<path style="fill:none;stroke:red;stroke-width:1px;stroke-linecap:butt;stroke-linejoin:miter;stroke-opacity:1" d="M 159.287,325.813 164.395,335.007 z" id="boundary" inkscape:connector-curvature="0" />
	<path style="fill:none;stroke:red;stroke-width:1px;stroke-linecap:butt;stroke-linejoin:miter;stroke-opacity:1" d="M 162.352,110.249 162.352,120.465 z" id="boundary" inkscape:connector-curvature="0" />
	<path style="fill:none;stroke:red;stroke-width:1px;stroke-linecap:butt;stroke-linejoin:miter;stroke-opacity:1" d="M 162.352,120.465 162.352,130.682 z" id="boundary" inkscape:connector-curvature="0" />
	<path style="fill:none;stroke:red;stroke-width:1px;stroke-linecap:butt;stroke-linejoin:miter;stroke-opacity:1" d="M 164.395,335.007 167.46,345.223 z" id="boundary" inkscape:connector-curvature="0" />
	<path style="fill:none;stroke:red;stroke-width:1px;stroke-linecap:butt;stroke-linejoin:miter;stroke-opacity:1" d="M 165.417,19.3244 172.568,27.4974 z" id="boundary" inkscape:connector-curvature="0" />
	<path style="fill:none;stroke:red;stroke-width:1px;stroke-linecap:butt;stroke-linejoin:miter;stroke-opacity:1" d="M 167.46,345.223 168.482,355.44 z" id="boundary" inkscape:connector-curvature="0" />
	<path style="fill:none;stroke:red;stroke-width:1px;stroke-linecap:butt;stroke-linejoin:miter;stroke-opacity:1" d="M 168.482,355.44 176.655,362.591 z" id="boundary" inkscape:connector-curvature="0" />
	<path style="fill:none;stroke:red;stroke-width:1px;stroke-linecap:butt;stroke-linejoin:miter;stroke-opacity:1" d="M 172.568,27.4974 180.742,34.6488 z" id="boundary" inkscape:connector-curvature="0" />
	<path style="fill:none;stroke:red;stroke-width:1px;stroke-linecap:butt;stroke-linejoin:miter;stroke-opacity:1" d="M 176.655,362.591 177.677,372.807 z" id="boundary" inkscape:connector-curvature="0" />
	<path style="fill:none;stroke:red;stroke-width:1px;stroke-linecap:butt;stroke-linejoin:miter;stroke-opacity:1" d="M 177.677,372.807 183.806,380.98 z" id="boundary" inkscape:connector-curvature="0" />
	<path style="fill:none;stroke:red;stroke-width:1px;stroke-linecap:butt;stroke-linejoin:miter;stroke-opacity:1" d="M 180.742,34.6488 187.893,42.8218 z" id="boundary" inkscape:connector-curvature="0" />
	<path style="fill:none;stroke:red;stroke-width:1px;stroke-linecap:butt;stroke-linejoin:miter;stroke-opacity:1" d="M 183.806,380.98 191.979,388.132 z" id="boundary" inkscape:connector-curvature="0" />
	<path style="fill:none;stroke:red;stroke-width:1px;stroke-linecap:butt;stroke-linejoin:miter;stroke-opacity:1" d="M 187.893,42.8218 188.915,53.0381 z" id="boundary" inkscape:connector-curvature="0" />
	<path style="fill:none;stroke:red;stroke-width:1px;stroke-linecap:butt;stroke-linejoin:miter;stroke-opacity:1" d="M 188.915,53.0381 188.915,63.2544 z" id="boundary" inkscape:connector-curvature="0" />
	<path style="fill:none;stroke:red;stroke-width:1px;stroke-linecap:butt;stroke-linejoin:miter;stroke-opacity:1" d="M 188.915,63.2544 193.001,73.4706 z" id="boundary" inkscape:connector-curvature="0" />
	<path style="fill:none;stroke:red;stroke-width:1px;stroke-linecap:butt;stroke-linejoin:miter;stroke-opacity:1" d="M 188.915,188.915 188.915,199.131 z" id="boundary" inkscape:connector-curvature="0" />
	<path style="fill:none;stroke:red;stroke-width:1px;stroke-linecap:butt;stroke-linejoin:miter;stroke-opacity:1" d="M 188.915,188.915 194.023,178.698 z" id="boundary" inkscape:connector-curvature="0" />
	<path style="fill:none;stroke:red;stroke-width:1px;stroke-linecap:butt;stroke-linejoin:miter;stroke-opacity:1" d="M 188.915,199.131 194.023,208.325 z" id="boundary" inkscape:connector-curvature="0" />
	<path style="fill:none;stroke:red;stroke-width:1px;stroke-linecap:butt;stroke-linejoin:miter;stroke-opacity:1" d="M 191.979,388.132 196.066,398.348 z" id="boundary" inkscape:connector-curvature="0" />
	<path style="fill:none;stroke:red;stroke-width:1px;stroke-linecap:butt;stroke-linejoin:miter;stroke-opacity:1" d="M 193.001,73.4706 194.023,83.6869 z" id="boundary" inkscape:connector-curvature="0" />
	<path style="fill:none;stroke:red;stroke-width:1px;stroke-linecap:butt;stroke-linejoin:miter;stroke-opacity:1" d="M 194.023,83.6869 198.109,93.9032 z" id="boundary" inkscape:connector-curvature="0" />
	<path style="fill:none;stroke:red;stroke-width:1px;stroke-linecap:butt;stroke-linejoin:miter;stroke-opacity:1" d="M 194.023,117.401 194.023,127.617 z" id="boundary" inkscape:connector-curvature="0" />
	<path style="fill:none;stroke:red;stroke-width:1px;stroke-linecap:butt;stroke-linejoin:miter;stroke-opacity:1" d="M 194.023,117.401 199.131,104.119 z" id="boundary" inkscape:connector-curvature="0" />
	<path style="fill:none;stroke:red;stroke-width:1px;stroke-linecap:butt;stroke-linejoin:miter;stroke-opacity:1" d="M 194.023,127.617 194.023,137.833 z" id="boundary" inkscape:connector-curvature="0" />
	<path style="fill:none;stroke:red;stroke-width:1px;stroke-linecap:butt;stroke-linejoin:miter;stroke-opacity:1" d="M 194.023,137.833 194.023,148.049 z" id="boundary" inkscape:connector-curvature="0" />
	<path style="fill:none;stroke:red;stroke-width:1px;stroke-linecap:butt;stroke-linejoin:miter;stroke-opacity:1" d="M 194.023,148.049 194.023,158.266 z" id="boundary" inkscape:connector-curvature="0" />
	<path style="fill:none;stroke:red;stroke-width:1px;stroke-linecap:butt;stroke-linejoin:miter;stroke-opacity:1" d="M 194.023,158.266 194.023,168.482 z" id="boundary" inkscape:connector-curvature="0" />
	<path style="fill:none;stroke:red;stroke-width:1px;stroke-linecap:butt;stroke-linejoin:miter;stroke-opacity:1" d="M 194.023,168.482 194.023,178.698 z" id="boundary" inkscape:connector-curvature="0" />
	<path style="fill:none;stroke:red;stroke-width:1px;stroke-linecap:butt;stroke-linejoin:miter;stroke-opacity:1" d="M 194.023,208.325 199.131,217.52 z" id="boundary" inkscape:connector-curvature="0" />
	<path style="fill:none;stroke:red;stroke-width:1px;stroke-linecap:butt;stroke-linejoin:miter;stroke-opacity:1" d="M 196.066,398.348 204.239,405.499 z" id="boundary" inkscape:connector-curvature="0" />
	<path style="fill:none;stroke:red;stroke-width:1px;stroke-linecap:butt;stroke-linejoin:miter;stroke-opacity:1" d="M 198.109,93.9032 199.131,104.119 z" id="boundary" inkscape:connector-curvature="0" />
	<path style="fill:none;stroke:red;stroke-width:1px;stroke-linecap:butt;stroke-linejoin:miter;stroke-opacity:1" d="M 199.131,217.52 199.131,227.736 z" id="boundary" inkscape:connector-curvature="0" />
	<path style="fill:none;stroke:red;stroke-width:1px;stroke-linecap:butt;stroke-linejoin:miter;stroke-opacity:1" d="M 199.131,227.736 204.239,236.931 z" id="boundary" inkscape:connector-curvature="0" />
	<path style="fill:none;stroke:red;stroke-width:1px;stroke-linecap:butt;stroke-linejoin:miter;stroke-opacity:1" d="M 204.239,236.931 208.325,247.147 z" id="boundary" inkscape:connector-curvature="0" />
	<path style="fill:none;stroke:red;stroke-width:1px;stroke-linecap:butt;stroke-linejoin:miter;stroke-opacity:1" d="M 204.239,405.499 208.325,415.716 z" id="boundary" inkscape:connector-curvature="0" />
	<path style="fill:none;stroke:red;stroke-width:1px;stroke-linecap:butt;stroke-linejoin:miter;stroke-opacity:1" d="M 208.325,247.147 213.434,256.342 z" id="boundary" inkscape:connector-curvature="0" />
	<path style="fill:none;stroke:red;stroke-width:1px;stroke-linecap:butt;stroke-linejoin:miter;stroke-opacity:1" d="M 208.325,415.716 220.585,433.083 z" id="boundary" inkscape:connector-curvature="0" />
	<path style="fill:none;stroke:red;stroke-width:1px;stroke-linecap:butt;stroke-linejoin:miter;stroke-opacity:1" d="M 213.434,256.342 219.563,264.515 z" id="boundary" inkscape:connector-curvature="0" />
	<path style="fill:none;stroke:red;stroke-width:1px;stroke-linecap:butt;stroke-linejoin:miter;stroke-opacity:1" d="M 219.563,264.515 227.736,270.645 z" id="boundary" inkscape:connector-curvature="0" />
	<path style="fill:none;stroke:red;stroke-width:1px;stroke-linecap:butt;stroke-linejoin:miter;stroke-opacity:1" d="M 220.585,433.083 234.888,447.386 z" id="boundary" inkscape:connector-curvature="0" />
	<path style="fill:none;stroke:red;stroke-width:1px;stroke-linecap:butt;stroke-linejoin:miter;stroke-opacity:1" d="M 227.736,270.645 234.888,278.818 z" id="boundary" inkscape:connector-curvature="0" />
	<path style="fill:none;stroke:red;stroke-width:1px;stroke-linecap:butt;stroke-linejoin:miter;stroke-opacity:1" d="M 234.888,278.818 245.104,282.904 z" id="boundary" inkscape:connector-curvature="0" />
	<path style="fill:none;stroke:red;stroke-width:1px;stroke-linecap:butt;stroke-linejoin:miter;stroke-opacity:1" d="M 234.888,447.386 247.147,464.754 z" id="boundary" inkscape:connector-curvature="0" />
	<path style="fill:none;stroke:red;stroke-width:1px;stroke-linecap:butt;stroke-linejoin:miter;stroke-opacity:1" d="M 245.104,282.904 255.32,282.904 z" id="boundary" inkscape:connector-curvature="0" />
	<path style="fill:none;stroke:red;stroke-width:1px;stroke-linecap:butt;stroke-linejoin:miter;stroke-opacity:1" d="M 247.147,464.754 255.32,471.905 z" id="boundary" inkscape:connector-curvature="0" />
	<path style="fill:none;stroke:red;stroke-width:1px;stroke-linecap:butt;stroke-linejoin:miter;stroke-opacity:1" d="M 255.32,282.904 265.537,284.947 z" id="boundary" inkscape:connector-curvature="0" />
	<path style="fill:none;stroke:red;stroke-width:1px;stroke-linecap:butt;stroke-linejoin:miter;stroke-opacity:1" d="M 255.32,471.905 265.537,474.97 z" id="boundary" inkscape:connector-curvature="0" />
	<path style="fill:none;stroke:red;stroke-width:1px;stroke-linecap:butt;stroke-linejoin:miter;stroke-opacity:1" d="M 265.537,284.947 274.731,290.056 z" id="boundary" inkscape:connector-curvature="0" />
	<path style="fill:none;stroke:red;stroke-width:1px;stroke-linecap:butt;stroke-linejoin:miter;stroke-opacity:1" d="M 265.537,474.97 277.796,490.295 z" id="boundary" inkscape:connector-curvature="0" />
	<path style="fill:none;stroke:red;stroke-width:1px;stroke-linecap:butt;stroke-linejoin:miter;stroke-opacity:1" d="M 274.731,290.056 284.947,292.099 z" id="boundary" inkscape:connector-curvature="0" />
	<path style="fill:none;stroke:red;stroke-width:1px;stroke-linecap:butt;stroke-linejoin:miter;stroke-opacity:1" d="M 277.796,490.295 293.12,505.619 z" id="boundary" inkscape:connector-curvature="0" />
	<path style="fill:none;stroke:red;stroke-width:1px;stroke-linecap:butt;stroke-linejoin:miter;stroke-opacity:1" d="M 284.947,292.099 294.142,297.207 z" id="boundary" inkscape:connector-curvature="0" />
	<path style="fill:none;stroke:red;stroke-width:1px;stroke-linecap:butt;stroke-linejoin:miter;stroke-opacity:1" d="M 293.12,505.619 305.38,522.987 z" id="boundary" inkscape:connector-curvature="0" />
	<path style="fill:none;stroke:red;stroke-width:1px;stroke-linecap:butt;stroke-linejoin:miter;stroke-opacity:1" d="M 294.142,297.207 304.358,301.294 z" id="boundary" inkscape:connector-curvature="0" />
	<path style="fill:none;stroke:red;stroke-width:1px;stroke-linecap:butt;stroke-linejoin:miter;stroke-opacity:1" d="M 304.358,301.294 314.575,301.294 z" id="boundary" inkscape:connector-curvature="0" />
	<path style="fill:none;stroke:red;stroke-width:1px;stroke-linecap:butt;stroke-linejoin:miter;stroke-opacity:1" d="M 305.38,522.987 315.596,541.376 z" id="boundary" inkscape:connector-curvature="0" />
	<path style="fill:none;stroke:red;stroke-width:1px;stroke-linecap:butt;stroke-linejoin:miter;stroke-opacity:1" d="M 314.575,301.294 323.769,306.402 z" id="boundary" inkscape:connector-curvature="0" />
	<path style="fill:none;stroke:red;stroke-width:1px;stroke-linecap:butt;stroke-linejoin:miter;stroke-opacity:1" d="M 315.596,541.376 320.704,550.571 z" id="boundary" inkscape:connector-curvature="0" />
	<path style="fill:none;stroke:red;stroke-width:1px;stroke-linecap:butt;stroke-linejoin:miter;stroke-opacity:1" d="M 320.704,550.571 333.986,565.895 z" id="boundary" inkscape:connector-curvature="0" />
	<path style="fill:none;stroke:red;stroke-width:1px;stroke-linecap:butt;stroke-linejoin:miter;stroke-opacity:1" d="M 323.769,306.402 333.986,310.488 z" id="boundary" inkscape:connector-curvature="0" />
	<path style="fill:none;stroke:red;stroke-width:1px;stroke-linecap:butt;stroke-linejoin:miter;stroke-opacity:1" d="M 333.986,310.488 343.18,315.596 z" id="boundary" inkscape:connector-curvature="0" />
	<path style="fill:none;stroke:red;stroke-width:1px;stroke-linecap:butt;stroke-linejoin:miter;stroke-opacity:1" d="M 333.986,565.895 377.916,602.674 z" id="boundary" inkscape:connector-curvature="0" />
	<path style="fill:none;stroke:red;stroke-width:1px;stroke-linecap:butt;stroke-linejoin:miter;stroke-opacity:1" d="M 341.137,987.827 351.353,957.178 z" id="boundary" inkscape:connector-curvature="0" />
	<path style="fill:none;stroke:red;stroke-width:1px;stroke-linecap:butt;stroke-linejoin:miter;stroke-opacity:1" d="M 341.137,987.827 666.014,592.457 z" id="boundary" inkscape:connector-curvature="0" />
	<path style="fill:none;stroke:red;stroke-width:1px;stroke-linecap:butt;stroke-linejoin:miter;stroke-opacity:1" d="M 343.18,315.596 353.396,315.596 z" id="boundary" inkscape:connector-curvature="0" />
	<path style="fill:none;stroke:red;stroke-width:1px;stroke-linecap:butt;stroke-linejoin:miter;stroke-opacity:1" d="M 351.353,957.178 387.11,750.809 z" id="boundary" inkscape:connector-curvature="0" />
	<path style="fill:none;stroke:red;stroke-width:1px;stroke-linecap:butt;stroke-linejoin:miter;stroke-opacity:1" d="M 353.396,315.596 362.591,320.704 z" id="boundary" inkscape:connector-curvature="0" />
	<path style="fill:none;stroke:red;stroke-width:1px;stroke-linecap:butt;stroke-linejoin:miter;stroke-opacity:1" d="M 362.591,320.704 372.807,318.661 z" id="boundary" inkscape:connector-curvature="0" />
	<path style="fill:none;stroke:red;stroke-width:1px;stroke-linecap:butt;stroke-linejoin:miter;stroke-opacity:1" d="M 372.807,318.661 383.024,320.704 z" id="boundary" inkscape:connector-curvature="0" />
	<path style="fill:none;stroke:red;stroke-width:1px;stroke-linecap:butt;stroke-linejoin:miter;stroke-opacity:1" d="M 377.916,602.674 387.11,750.809 z" id="boundary" inkscape:connector-curvature="0" />
	<path style="fill:none;stroke:red;stroke-width:1px;stroke-linecap:butt;stroke-linejoin:miter;stroke-opacity:1" d="M 383.024,320.704 393.24,323.769 z" id="boundary" inkscape:connector-curvature="0" />
	<path style="fill:none;stroke:red;stroke-width:1px;stroke-linecap:butt;stroke-linejoin:miter;stroke-opacity:1" d="M 393.24,323.769 402.435,328.877 z" id="boundary" inkscape:connector-curvature="0" />
	<path style="fill:none;stroke:red;stroke-width:1px;stroke-linecap:butt;stroke-linejoin:miter;stroke-opacity:1" d="M 402.435,328.877 412.651,332.964 z" id="boundary" inkscape:connector-curvature="0" />
	<path style="fill:none;stroke:red;stroke-width:1px;stroke-linecap:butt;stroke-linejoin:miter;stroke-opacity:1" d="M 412.651,332.964 422.867,336.029 z" id="boundary" inkscape:connector-curvature="0" />
	<path style="fill:none;stroke:red;stroke-width:1px;stroke-linecap:butt;stroke-linejoin:miter;stroke-opacity:1" d="M 422.867,336.029 433.083,336.029 z" id="boundary" inkscape:connector-curvature="0" />
	<path style="fill:none;stroke:red;stroke-width:1px;stroke-linecap:butt;stroke-linejoin:miter;stroke-opacity:1" d="M 433.083,336.029 442.278,341.137 z" id="boundary" inkscape:connector-curvature="0" />
	<path style="fill:none;stroke:red;stroke-width:1px;stroke-linecap:butt;stroke-linejoin:miter;stroke-opacity:1" d="M 442.278,341.137 451.473,346.245 z" id="boundary" inkscape:connector-curvature="0" />
	<path style="fill:none;stroke:red;stroke-width:1px;stroke-linecap:butt;stroke-linejoin:miter;stroke-opacity:1" d="M 451.473,346.245 460.667,351.353 z" id="boundary" inkscape:connector-curvature="0" />
	<path style="fill:none;stroke:red;stroke-width:1px;stroke-linecap:butt;stroke-linejoin:miter;stroke-opacity:1" d="M 460.667,351.353 469.862,356.461 z" id="boundary" inkscape:connector-curvature="0" />
	<path style="fill:none;stroke:red;stroke-width:1px;stroke-linecap:butt;stroke-linejoin:miter;stroke-opacity:1" d="M 469.862,356.461 480.078,359.526 z" id="boundary" inkscape:connector-curvature="0" />
	<path style="fill:none;stroke:red;stroke-width:1px;stroke-linecap:butt;stroke-linejoin:miter;stroke-opacity:1" d="M 480.078,359.526 490.295,361.57 z" id="boundary" inkscape:connector-curvature="0" />
	<path style="fill:none;stroke:red;stroke-width:1px;stroke-linecap:butt;stroke-linejoin:miter;stroke-opacity:1" d="M 490.295,361.57 499.489,366.678 z" id="boundary" inkscape:connector-curvature="0" />
	<path style="fill:none;stroke:red;stroke-width:1px;stroke-linecap:butt;stroke-linejoin:miter;stroke-opacity:1" d="M 499.489,366.678 508.684,371.786 z" id="boundary" inkscape:connector-curvature="0" />
	<path style="fill:none;stroke:red;stroke-width:1px;stroke-linecap:butt;stroke-linejoin:miter;stroke-opacity:1" d="M 508.684,371.786 518.9,372.807 z" id="boundary" inkscape:connector-curvature="0" />
	<path style="fill:none;stroke:red;stroke-width:1px;stroke-linecap:butt;stroke-linejoin:miter;stroke-opacity:1" d="M 518.9,372.807 528.095,377.916 z" id="boundary" inkscape:connector-curvature="0" />
	<path style="fill:none;stroke:red;stroke-width:1px;stroke-linecap:butt;stroke-linejoin:miter;stroke-opacity:1" d="M 528.095,377.916 536.268,385.067 z" id="boundary" inkscape:connector-curvature="0" />
	<path style="fill:none;stroke:red;stroke-width:1px;stroke-linecap:butt;stroke-linejoin:miter;stroke-opacity:1" d="M 536.268,385.067 544.441,392.218 z" id="boundary" inkscape:connector-curvature="0" />
	<path style="fill:none;stroke:red;stroke-width:1px;stroke-linecap:butt;stroke-linejoin:miter;stroke-opacity:1" d="M 544.441,392.218 554.657,393.24 z" id="boundary" inkscape:connector-curvature="0" />
	<path style="fill:none;stroke:red;stroke-width:1px;stroke-linecap:butt;stroke-linejoin:miter;stroke-opacity:1" d="M 554.657,393.24 564.873,397.326 z" id="boundary" inkscape:connector-curvature="0" />
	<path style="fill:none;stroke:red;stroke-width:1px;stroke-linecap:butt;stroke-linejoin:miter;stroke-opacity:1" d="M 564.873,397.326 574.068,402.435 z" id="boundary" inkscape:connector-curvature="0" />
	<path style="fill:none;stroke:red;stroke-width:1px;stroke-linecap:butt;stroke-linejoin:miter;stroke-opacity:1" d="M 574.068,402.435 584.284,402.435 z" id="boundary" inkscape:connector-curvature="0" />
	<path style="fill:none;stroke:red;stroke-width:1px;stroke-linecap:butt;stroke-linejoin:miter;stroke-opacity:1" d="M 584.284,402.435 593.479,407.543 z" id="boundary" inkscape:connector-curvature="0" />
	<path style="fill:none;stroke:red;stroke-width:1px;stroke-linecap:butt;stroke-linejoin:miter;stroke-opacity:1" d="M 593.479,407.543 602.674,412.651 z" id="boundary" inkscape:connector-curvature="0" />
	<path style="fill:none;stroke:red;stroke-width:1px;stroke-linecap:butt;stroke-linejoin:miter;stroke-opacity:1" d="M 602.674,412.651 612.89,410.608 z" id="boundary" inkscape:connector-curvature="0" />
	<path style="fill:none;stroke:red;stroke-width:1px;stroke-linecap:butt;stroke-linejoin:miter;stroke-opacity:1" d="M 612.89,410.608 622.084,415.716 z" id="boundary" inkscape:connector-curvature="0" />
	<path style="fill:none;stroke:red;stroke-width:1px;stroke-linecap:butt;stroke-linejoin:miter;stroke-opacity:1" d="M 622.084,415.716 630.257,422.867 z" id="boundary" inkscape:connector-curvature="0" />
	<path style="fill:none;stroke:red;stroke-width:1px;stroke-linecap:butt;stroke-linejoin:miter;stroke-opacity:1" d="M 630.257,422.867 640.474,422.867 z" id="boundary" inkscape:connector-curvature="0" />
	<path style="fill:none;stroke:red;stroke-width:1px;stroke-linecap:butt;stroke-linejoin:miter;stroke-opacity:1" d="M 640.474,422.867 647.625,431.04 z" id="boundary" inkscape:connector-curvature="0" />
	<path style="fill:none;stroke:red;stroke-width:1px;stroke-linecap:butt;stroke-linejoin:miter;stroke-opacity:1" d="M 647.625,431.04 674.187,446.365 z" id="boundary" inkscape:connector-curvature="0" />
	<path style="fill:none;stroke:red;stroke-width:1px;stroke-linecap:butt;stroke-linejoin:miter;stroke-opacity:1" d="M 666.014,592.457 728.334,595.522 z" id="boundary" inkscape:connector-curvature="0" />
	<path style="fill:none;stroke:red;stroke-width:1px;stroke-linecap:butt;stroke-linejoin:miter;stroke-opacity:1" d="M 674.187,446.365 685.425,463.732 z" id="boundary" inkscape:connector-curvature="0" />
	<path style="fill:none;stroke:red;stroke-width:1px;stroke-linecap:butt;stroke-linejoin:miter;stroke-opacity:1" d="M 685.425,463.732 704.836,488.251 z" id="boundary" inkscape:connector-curvature="0" />
	<path style="fill:none;stroke:red;stroke-width:1px;stroke-linecap:butt;stroke-linejoin:miter;stroke-opacity:1" d="M 704.836,488.251 718.117,516.857 z" id="boundary" inkscape:connector-curvature="0" />
	<path style="fill:none;stroke:red;stroke-width:1px;stroke-linecap:butt;stroke-linejoin:miter;stroke-opacity:1" d="M 718.117,516.857 730.377,555.679 z" id="boundary" inkscape:connector-curvature="0" />
	<path style="fill:none;stroke:red;stroke-width:1px;stroke-linecap:butt;stroke-linejoin:miter;stroke-opacity:1" d="M 728.334,595.522 730.377,555.679 z" id="boundary" inkscape:connector-curvature="0" />
	<circle cx="4" cy="47.93" r="4" fill="#0" id="circle0"/>
	<circle cx="10.1298" cy="56.103" r="4" fill="#0" id="circle1"/>
	<circle cx="12.173" cy="39.757" r="4" fill="#0" id="circle2"/>
	<circle cx="20.346" cy="56.103" r="4" fill="#0" id="circle3"/>
	<circle cx="21.3677" cy="34.6488" r="4" fill="#0" id="circle4"/>
	<circle cx="30.5623" cy="56.103" r="4" fill="#0" id="circle5"/>
	<circle cx="31.5839" cy="34.6488" r="4" fill="#0" id="circle6"/>
	<circle cx="39.757" cy="61.2111" r="4" fill="#0" id="circle7"/>
	<circle cx="41.8002" cy="30.5623" r="4" fill="#0" id="circle8"/>
	<circle cx="49.9732" cy="61.2111" r="4" fill="#0" id="circle9"/>
	<circle cx="52.0165" cy="29.5407" r="4" fill="#0" id="circle10"/>
	<circle cx="60.1895" cy="61.2111" r="4" fill="#0" id="circle11"/>
	<circle cx="62.2327" cy="29.5407" r="4" fill="#0" id="circle12"/>
	<circle cx="67.3409" cy="20.346" r="4" fill="#0" id="circle13"/>
	<circle cx="70.4058" cy="61.2111" r="4" fill="#0" id="circle14"/>
	<circle cx="77.5572" cy="19.3244" r="4" fill="#0" id="circle15"/>
	<circle cx="80.622" cy="61.2111" r="4" fill="#0" id="circle16"/>
	<circle cx="87.7734" cy="19.3244" r="4" fill="#0" id="circle17"/>
	<circle cx="90.8383" cy="61.2111" r="4" fill="#0" id="circle18"/>
	<circle cx="97.9897" cy="15.2379" r="4" fill="#0" id="circle19"/>
	<circle cx="101.055" cy="61.2111" r="4" fill="#0" id="circle20"/>
	<circle cx="108.206" cy="14.2163" r="4" fill="#0" id="circle21"/>
	<circle cx="110.249" cy="66.3193" r="4" fill="#0" id="circle22"/>
	<circle cx="118.422" cy="10.1298" r="4" fill="#0" id="circle23"/>
	<circle cx="120.465" cy="66.3193" r="4" fill="#0" id="circle24"/>
	<circle cx="126.595" cy="4" r="4" fill="#0" id="circle25"/>
	<circle cx="129.66" cy="71.4274" r="4" fill="#0" id="circle26"/>
	<circle cx="136.812" cy="6.04325" r="4" fill="#0" id="circle27"/>
	<circle cx="139.876" cy="75.5139" r="4" fill="#0" id="circle28"/>
	<circle cx="143.963" cy="85.7302" r="4" fill="#0" id="circle29"/>
	<circle cx="147.028" cy="9.10814" r="4" fill="#0" id="circle30"/>
	<circle cx="147.028" cy="206.282" r="4" fill="#0" id="circle31"/>
	<circle cx="147.028" cy="257.364" r="4" fill="#0" id="circle32"/>
	<circle cx="147.028" cy="267.58" r="4" fill="#0" id="circle33"/>
	<circle cx="147.028" cy="277.796" r="4" fill="#0" id="circle34"/>
	<circle cx="147.028" cy="288.012" r="4" fill="#0" id="circle35"/>
	<circle cx="152.136" cy="91.8599" r="4" fill="#0" id="circle36"/>
	<circle cx="152.136" cy="180.742" r="4" fill="#0" id="circle37"/>
	<circle cx="152.136" cy="190.958" r="4" fill="#0" id="circle38"/>
	<circle cx="152.136" cy="215.477" r="4" fill="#0" id="circle39"/>
	<circle cx="152.136" cy="247.147" r="4" fill="#0" id="circle40"/>
	<circle cx="152.136" cy="297.207" r="4" fill="#0" id="circle41"/>
	<circle cx="152.136" cy="307.423" r="4" fill="#0" id="circle42"/>
	<circle cx="152.136" cy="317.64" r="4" fill="#0" id="circle43"/>
	<circle cx="156.222" cy="14.2163" r="4" fill="#0" id="circle44"/>
	<circle cx="157.244" cy="144.985" r="4" fill="#0" id="circle45"/>
	<circle cx="157.244" cy="160.309" r="4" fill="#0" id="circle46"/>
	<circle cx="157.244" cy="170.525" r="4" fill="#0" id="circle47"/>
	<circle cx="157.244" cy="224.671" r="4" fill="#0" id="circle48"/>
	<circle cx="157.244" cy="234.888" r="4" fill="#0" id="circle49"/>
	<circle cx="158.266" cy="100.033" r="4" fill="#0" id="circle50"/>
	<circle cx="159.287" cy="325.813" r="4" fill="#0" id="circle51"/>
	<circle cx="162.352" cy="110.249" r="4" fill="#0" id="circle52"/>
	<circle cx="162.352" cy="120.465" r="4" fill="#0" id="circle53"/>
	<circle cx="162.352" cy="130.682" r="4" fill="#0" id="circle54"/>
	<circle cx="164.395" cy="335.007" r="4" fill="#0" id="circle55"/>
	<circle cx="165.417" cy="19.3244" r="4" fill="#0" id="circle56"/>
	<circle cx="167.46" cy="345.223" r="4" fill="#0" id="circle57"/>
	<circle cx="168.482" cy="355.44" r="4" fill="#0" id="circle58"/>
	<circle cx="172.568" cy="27.4974" r="4" fill="#0" id="circle59"/>
	<circle cx="176.655" cy="362.591" r="4" fill="#0" id="circle60"/>
	<circle cx="177.677" cy="372.807" r="4" fill="#0" id="circle61"/>
	<circle cx="180.742" cy="34.6488" r="4" fill="#0" id="circle62"/>
	<circle cx="183.806" cy="380.98" r="4" fill="#0" id="circle63"/>
	<circle cx="187.893" cy="42.8218" r="4" fill="#0" id="circle64"/>
	<circle cx="188.915" cy="53.0381" r="4" fill="#0" id="circle65"/>
	<circle cx="188.915" cy="63.2544" r="4" fill="#0" id="circle66"/>
	<circle cx="188.915" cy="188.915" r="4" fill="#0" id="circle67"/>
	<circle cx="188.915" cy="199.131" r="4" fill="#0" id="circle68"/>
	<circle cx="191.979" cy="388.132" r="4" fill="#0" id="circle69"/>
	<circle cx="193.001" cy="73.4706" r="4" fill="#0" id="circle70"/>
	<circle cx="194.023" cy="83.6869" r="4" fill="#0" id="circle71"/>
	<circle cx="194.023" cy="117.401" r="4" fill="#0" id="circle72"/>
	<circle cx="194.023" cy="127.617" r="4" fill="#0" id="circle73"/>
	<circle cx="194.023" cy="137.833" r="4" fill="#0" id="circle74"/>
	<circle cx="194.023" cy="148.049" r="4" fill="#0" id="circle75"/>
	<circle cx="194.023" cy="158.266" r="4" fill="#0" id="circle76"/>
	<circle cx="194.023" cy="168.482" r="4" fill="#0" id="circle77"/>
	<circle cx="194.023" cy="178.698" r="4" fill="#0" id="circle78"/>
	<circle cx="194.023" cy="208.325" r="4" fill="#0" id="circle79"/>
	<circle cx="196.066" cy="398.348" r="4" fill="#0" id="circle80"/>
	<circle cx="198.109" cy="93.9032" r="4" fill="#0" id="circle81"/>
	<circle cx="199.131" cy="104.119" r="4" fill="#0" id="circle82"/>
	<circle cx="199.131" cy="217.52" r="4" fill="#0" id="circle83"/>
	<circle cx="199.131" cy="227.736" r="4" fill="#0" id="circle84"/>
	<circle cx="204.239" cy="236.931" r="4" fill="#0" id="circle85"/>
	<circle cx="204.239" cy="405.499" r="4" fill="#0" id="circle86"/>
	<circle cx="208.325" cy="247.147" r="4" fill="#0" id="circle87"/>
	<circle cx="208.325" cy="415.716" r="4" fill="#0" id="circle88"/>
	<circle cx="213.434" cy="256.342" r="4" fill="#0" id="circle89"/>
	<circle cx="213.434" cy="424.91" r="4" fill="#0" id="circle90"/>
	<circle cx="219.563" cy="264.515" r="4" fill="#0" id="circle91"/>
	<circle cx="220.585" cy="433.083" r="4" fill="#0" id="circle92"/>
	<circle cx="227.736" cy="270.645" r="4" fill="#0" id="circle93"/>
	<circle cx="228.758" cy="439.213" r="4" fill="#0" id="circle94"/>
	<circle cx="234.888" cy="278.818" r="4" fill="#0" id="circle95"/>
	<circle cx="234.888" cy="447.386" r="4" fill="#0" id="circle96"/>
	<circle cx="243.061" cy="454.538" r="4" fill="#0" id="circle97"/>
	<circle cx="245.104" cy="282.904" r="4" fill="#0" id="circle98"/>
	<circle cx="247.147" cy="464.754" r="4" fill="#0" id="circle99"/>
	<circle cx="255.32" cy="282.904" r="4" fill="#0" id="circle100"/>
	<circle cx="255.32" cy="471.905" r="4" fill="#0" id="circle101"/>
	<circle cx="265.537" cy="284.947" r="4" fill="#0" id="circle102"/>
	<circle cx="265.537" cy="474.97" r="4" fill="#0" id="circle103"/>
	<circle cx="274.731" cy="290.056" r="4" fill="#0" id="circle104"/>
	<circle cx="274.731" cy="480.078" r="4" fill="#0" id="circle105"/>
	<circle cx="277.796" cy="490.295" r="4" fill="#0" id="circle106"/>
	<circle cx="284.947" cy="292.099" r="4" fill="#0" id="circle107"/>
	<circle cx="285.969" cy="497.446" r="4" fill="#0" id="circle108"/>
	<circle cx="293.12" cy="505.619" r="4" fill="#0" id="circle109"/>
	<circle cx="294.142" cy="297.207" r="4" fill="#0" id="circle110"/>
	<circle cx="301.294" cy="512.77" r="4" fill="#0" id="circle111"/>
	<circle cx="304.358" cy="301.294" r="4" fill="#0" id="circle112"/>
	<circle cx="305.38" cy="522.987" r="4" fill="#0" id="circle113"/>
	<circle cx="310.488" cy="532.181" r="4" fill="#0" id="circle114"/>
	<circle cx="314.575" cy="301.294" r="4" fill="#0" id="circle115"/>
	<circle cx="315.596" cy="541.376" r="4" fill="#0" id="circle116"/>
	<circle cx="320.704" cy="550.571" r="4" fill="#0" id="circle117"/>
	<circle cx="323.769" cy="306.402" r="4" fill="#0" id="circle118"/>
	<circle cx="328.877" cy="556.7" r="4" fill="#0" id="circle119"/>
	<circle cx="333.986" cy="310.488" r="4" fill="#0" id="circle120"/>
	<circle cx="333.986" cy="565.895" r="4" fill="#0" id="circle121"/>
	<circle cx="336.029" cy="576.111" r="4" fill="#0" id="circle122"/>
	<circle cx="341.137" cy="585.306" r="4" fill="#0" id="circle123"/>
	<circle cx="341.137" cy="987.827" r="4" fill="#0" id="circle124"/>
	<circle cx="342.159" cy="595.522" r="4" fill="#0" id="circle125"/>
	<circle cx="343.18" cy="315.596" r="4" fill="#0" id="circle126"/>
	<circle cx="347.267" cy="604.717" r="4" fill="#0" id="circle127"/>
	<circle cx="347.267" cy="996" r="4" fill="#0" id="circle128"/>
	<circle cx="351.353" cy="957.178" r="4" fill="#0" id="circle129"/>
	<circle cx="351.353" cy="967.394" r="4" fill="#0" id="circle130"/>
	<circle cx="351.353" cy="977.611" r="4" fill="#0" id="circle131"/>
	<circle cx="353.396" cy="315.596" r="4" fill="#0" id="circle132"/>
	<circle cx="354.418" cy="612.89" r="4" fill="#0" id="circle133"/>
	<circle cx="356.461" cy="623.106" r="4" fill="#0" id="circle134"/>
	<circle cx="356.461" cy="633.322" r="4" fill="#0" id="circle135"/>
	<circle cx="357.483" cy="996" r="4" fill="#0" id="circle136"/>
	<circle cx="361.57" cy="642.517" r="4" fill="#0" id="circle137"/>
	<circle cx="361.57" cy="652.733" r="4" fill="#0" id="circle138"/>
	<circle cx="361.57" cy="662.95" r="4" fill="#0" id="circle139"/>
	<circle cx="361.57" cy="959.221" r="4" fill="#0" id="circle140"/>
	<circle cx="362.591" cy="320.704" r="4" fill="#0" id="circle141"/>
	<circle cx="363.613" cy="673.166" r="4" fill="#0" id="circle142"/>
	<circle cx="367.699" cy="990.892" r="4" fill="#0" id="circle143"/>
	<circle cx="370.764" cy="954.113" r="4" fill="#0" id="circle144"/>
	<circle cx="371.786" cy="679.296" r="4" fill="#0" id="circle145"/>
	<circle cx="372.807" cy="318.661" r="4" fill="#0" id="circle146"/>
	<circle cx="374.851" cy="689.512" r="4" fill="#0" id="circle147"/>
	<circle cx="376.894" cy="699.728" r="4" fill="#0" id="circle148"/>
	<circle cx="376.894" cy="709.944" r="4" fill="#0" id="circle149"/>
	<circle cx="376.894" cy="722.204" r="4" fill="#0" id="circle150"/>
	<circle cx="376.894" cy="985.784" r="4" fill="#0" id="circle151"/>
	<circle cx="377.916" cy="602.674" r="4" fill="#0" id="circle152"/>
	<circle cx="377.916" cy="617.998" r="4" fill="#0" id="circle153"/>
	<circle cx="377.916" cy="628.214" r="4" fill="#0" id="circle154"/>
	<circle cx="377.916" cy="638.43" r="4" fill="#0" id="circle155"/>
	<circle cx="377.916" cy="648.647" r="4" fill="#0" id="circle156"/>
	<circle cx="379.959" cy="658.863" r="4" fill="#0" id="circle157"/>
	<circle cx="379.959" cy="949.005" r="4" fill="#0" id="circle158"/>
	<circle cx="382.002" cy="731.399" r="4" fill="#0" id="circle159"/>
	<circle cx="382.002" cy="741.615" r="4" fill="#0" id="circle160"/>
	<circle cx="382.002" cy="895.881" r="4" fill="#0" id="circle161"/>
	<circle cx="382.002" cy="936.746" r="4" fill="#0" id="circle162"/>
	<circle cx="383.024" cy="320.704" r="4" fill="#0" id="circle163"/>
	<circle cx="383.024" cy="592.457" r="4" fill="#0" id="circle164"/>
	<circle cx="385.067" cy="668.058" r="4" fill="#0" id="circle165"/>
	<circle cx="387.11" cy="750.809" r="4" fill="#0" id="circle166"/>
	<circle cx="387.11" cy="761.026" r="4" fill="#0" id="circle167"/>
	<circle cx="387.11" cy="839.691" r="4" fill="#0" id="circle168"/>
	<circle cx="387.11" cy="875.448" r="4" fill="#0" id="circle169"/>
	<circle cx="387.11" cy="885.664" r="4" fill="#0" id="circle170"/>
	<circle cx="387.11" cy="905.075" r="4" fill="#0" id="circle171"/>
	<circle cx="387.11" cy="915.291" r="4" fill="#0" id="circle172"/>
	<circle cx="387.11" cy="925.508" r="4" fill="#0" id="circle173"/>
	<circle cx="387.11" cy="985.784" r="4" fill="#0" id="circle174"/>
	<circle cx="388.132" cy="678.274" r="4" fill="#0" id="circle175"/>
	<circle cx="392.218" cy="587.349" r="4" fill="#0" id="circle176"/>
	<circle cx="392.218" cy="770.22" r="4" fill="#0" id="circle177"/>
	<circle cx="392.218" cy="809.042" r="4" fill="#0" id="circle178"/>
	<circle cx="392.218" cy="819.258" r="4" fill="#0" id="circle179"/>
	<circle cx="392.218" cy="829.475" r="4" fill="#0" id="circle180"/>
	<circle cx="392.218" cy="848.886" r="4" fill="#0" id="circle181"/>
	<circle cx="392.218" cy="859.102" r="4" fill="#0" id="circle182"/>
	<circle cx="393.24" cy="323.769" r="4" fill="#0" id="circle183"/>
	<circle cx="393.24" cy="687.469" r="4" fill="#0" id="circle184"/>
	<circle cx="394.262" cy="780.437" r="4" fill="#0" id="circle185"/>
	<circle cx="395.283" cy="979.654" r="4" fill="#0" id="circle186"/>
	<circle cx="397.326" cy="790.653" r="4" fill="#0" id="circle187"/>
	<circle cx="398.348" cy="696.663" r="4" fill="#0" id="circle188"/>
	<circle cx="401.413" cy="592.457" r="4" fill="#0" id="circle189"/>
	<circle cx="402.435" cy="328.877" r="4" fill="#0" id="circle190"/>
	<circle cx="403.456" cy="725.269" r="4" fill="#0" id="circle191"/>
	<circle cx="403.456" cy="735.485" r="4" fill="#0" id="circle192"/>
	<circle cx="403.456" cy="745.701" r="4" fill="#0" id="circle193"/>
	<circle cx="403.456" cy="878.513" r="4" fill="#0" id="circle194"/>
	<circle cx="403.456" cy="888.729" r="4" fill="#0" id="circle195"/>
	<circle cx="403.456" cy="898.945" r="4" fill="#0" id="circle196"/>
	<circle cx="403.456" cy="914.27" r="4" fill="#0" id="circle197"/>
	<circle cx="403.456" cy="924.486" r="4" fill="#0" id="circle198"/>
	<circle cx="403.456" cy="934.702" r="4" fill="#0" id="circle199"/>
	<circle cx="403.456" cy="970.459" r="4" fill="#0" id="circle200"/>
	<circle cx="405.499" cy="704.836" r="4" fill="#0" id="circle201"/>
	<circle cx="405.499" cy="944.919" r="4" fill="#0" id="circle202"/>
	<circle cx="408.564" cy="715.053" r="4" fill="#0" id="circle203"/>
	<circle cx="408.564" cy="754.896" r="4" fill="#0" id="circle204"/>
	<circle cx="408.564" cy="765.112" r="4" fill="#0" id="circle205"/>
	<circle cx="408.564" cy="775.329" r="4" fill="#0" id="circle206"/>
	<circle cx="408.564" cy="827.432" r="4" fill="#0" id="circle207"/>
	<circle cx="408.564" cy="837.648" r="4" fill="#0" id="circle208"/>
	<circle cx="408.564" cy="847.864" r="4" fill="#0" id="circle209"/>
	<circle cx="408.564" cy="858.08" r="4" fill="#0" id="circle210"/>
	<circle cx="408.564" cy="868.297" r="4" fill="#0" id="circle211"/>
	<circle cx="410.608" cy="597.565" r="4" fill="#0" id="circle212"/>
	<circle cx="412.651" cy="332.964" r="4" fill="#0" id="circle213"/>
	<circle cx="412.651" cy="607.782" r="4" fill="#0" id="circle214"/>
	<circle cx="413.673" cy="784.523" r="4" fill="#0" id="circle215"/>
	<circle cx="413.673" cy="794.739" r="4" fill="#0" id="circle216"/>
	<circle cx="413.673" cy="804.956" r="4" fill="#0" id="circle217"/>
	<circle cx="413.673" cy="815.172" r="4" fill="#0" id="circle218"/>
	<circle cx="413.673" cy="970.459" r="4" fill="#0" id="circle219"/>
	<circle cx="415.716" cy="949.005" r="4" fill="#0" id="circle220"/>
	<circle cx="421.846" cy="612.89" r="4" fill="#0" id="circle221"/>
	<circle cx="422.867" cy="336.029" r="4" fill="#0" id="circle222"/>
	<circle cx="422.867" cy="965.351" r="4" fill="#0" id="circle223"/>
	<circle cx="424.91" cy="954.113" r="4" fill="#0" id="circle224"/>
	<circle cx="427.975" cy="621.063" r="4" fill="#0" id="circle225"/>
	<circle cx="428.997" cy="631.279" r="4" fill="#0" id="circle226"/>
	<circle cx="433.083" cy="336.029" r="4" fill="#0" id="circle227"/>
	<circle cx="433.083" cy="965.351" r="4" fill="#0" id="circle228"/>
	<circle cx="434.105" cy="640.474" r="4" fill="#0" id="circle229"/>
	<circle cx="441.256" cy="648.647" r="4" fill="#0" id="circle230"/>
	<circle cx="442.278" cy="341.137" r="4" fill="#0" id="circle231"/>
	<circle cx="448.408" cy="656.82" r="4" fill="#0" id="circle232"/>
	<circle cx="448.408" cy="870.34" r="4" fill="#0" id="circle233"/>
	<circle cx="448.408" cy="880.556" r="4" fill="#0" id="circle234"/>
	<circle cx="449.429" cy="607.782" r="4" fill="#0" id="circle235"/>
	<circle cx="449.429" cy="617.998" r="4" fill="#0" id="circle236"/>
	<circle cx="449.429" cy="667.036" r="4" fill="#0" id="circle237"/>
	<circle cx="451.473" cy="346.245" r="4" fill="#0" id="circle238"/>
	<circle cx="453.516" cy="809.042" r="4" fill="#0" id="circle239"/>
	<circle cx="453.516" cy="834.583" r="4" fill="#0" id="circle240"/>
	<circle cx="453.516" cy="849.907" r="4" fill="#0" id="circle241"/>
	<circle cx="453.516" cy="860.124" r="4" fill="#0" id="circle242"/>
	<circle cx="454.538" cy="627.193" r="4" fill="#0" id="circle243"/>
	<circle cx="454.538" cy="888.729" r="4" fill="#0" id="circle244"/>
	<circle cx="457.602" cy="600.63" r="4" fill="#0" id="circle245"/>
	<circle cx="457.602" cy="674.187" r="4" fill="#0" id="circle246"/>
	<circle cx="458.624" cy="701.771" r="4" fill="#0" id="circle247"/>
	<circle cx="458.624" cy="711.988" r="4" fill="#0" id="circle248"/>
	<circle cx="458.624" cy="722.204" r="4" fill="#0" id="circle249"/>
	<circle cx="458.624" cy="752.853" r="4" fill="#0" id="circle250"/>
	<circle cx="458.624" cy="763.069" r="4" fill="#0" id="circle251"/>
	<circle cx="458.624" cy="773.285" r="4" fill="#0" id="circle252"/>
	<circle cx="458.624" cy="783.502" r="4" fill="#0" id="circle253"/>
	<circle cx="458.624" cy="793.718" r="4" fill="#0" id="circle254"/>
	<circle cx="458.624" cy="818.237" r="4" fill="#0" id="circle255"/>
	<circle cx="459.646" cy="636.387" r="4" fill="#0" id="circle256"/>
	<circle cx="460.667" cy="351.353" r="4" fill="#0" id="circle257"/>
	<circle cx="461.689" cy="684.404" r="4" fill="#0" id="circle258"/>
	<circle cx="463.732" cy="731.399" r="4" fill="#0" id="circle259"/>
	<circle cx="463.732" cy="741.615" r="4" fill="#0" id="circle260"/>
	<circle cx="463.732" cy="893.837" r="4" fill="#0" id="circle261"/>
	<circle cx="464.754" cy="592.457" r="4" fill="#0" id="circle262"/>
	<circle cx="464.754" cy="868.297" r="4" fill="#0" id="circle263"/>
	<circle cx="466.797" cy="693.598" r="4" fill="#0" id="circle264"/>
	<circle cx="466.797" cy="904.054" r="4" fill="#0" id="circle265"/>
	<circle cx="467.819" cy="643.539" r="4" fill="#0" id="circle266"/>
	<circle cx="469.862" cy="356.461" r="4" fill="#0" id="circle267"/>
	<circle cx="469.862" cy="653.755" r="4" fill="#0" id="circle268"/>
	<circle cx="469.862" cy="858.08" r="4" fill="#0" id="circle269"/>
	<circle cx="469.862" cy="877.491" r="4" fill="#0" id="circle270"/>
	<circle cx="474.97" cy="587.349" r="4" fill="#0" id="circle271"/>
	<circle cx="474.97" cy="662.95" r="4" fill="#0" id="circle272"/>
	<circle cx="474.97" cy="781.458" r="4" fill="#0" id="circle273"/>
	<circle cx="474.97" cy="801.891" r="4" fill="#0" id="circle274"/>
	<circle cx="474.97" cy="812.107" r="4" fill="#0" id="circle275"/>
	<circle cx="474.97" cy="822.323" r="4" fill="#0" id="circle276"/>
	<circle cx="477.013" cy="832.54" r="4" fill="#0" id="circle277"/>
	<circle cx="477.013" cy="908.14" r="4" fill="#0" id="circle278"/>
	<circle cx="478.035" cy="883.621" r="4" fill="#0" id="circle279"/>
	<circle cx="480.078" cy="359.526" r="4" fill="#0" id="circle280"/>
	<circle cx="480.078" cy="709.944" r="4" fill="#0" id="circle281"/>
	<circle cx="480.078" cy="720.161" r="4" fill="#0" id="circle282"/>
	<circle cx="480.078" cy="745.701" r="4" fill="#0" id="circle283"/>
	<circle cx="480.078" cy="755.918" r="4" fill="#0" id="circle284"/>
	<circle cx="480.078" cy="766.134" r="4" fill="#0" id="circle285"/>
	<circle cx="480.078" cy="790.653" r="4" fill="#0" id="circle286"/>
	<circle cx="480.078" cy="852.972" r="4" fill="#0" id="circle287"/>
	<circle cx="482.122" cy="730.377" r="4" fill="#0" id="circle288"/>
	<circle cx="482.122" cy="841.734" r="4" fill="#0" id="circle289"/>
	<circle cx="483.143" cy="669.079" r="4" fill="#0" id="circle290"/>
	<circle cx="484.165" cy="592.457" r="4" fill="#0" id="circle291"/>
	<circle cx="485.186" cy="679.296" r="4" fill="#0" id="circle292"/>
	<circle cx="485.186" cy="694.62" r="4" fill="#0" id="circle293"/>
	<circle cx="485.186" cy="891.794" r="4" fill="#0" id="circle294"/>
	<circle cx="486.208" cy="913.248" r="4" fill="#0" id="circle295"/>
	<circle cx="490.295" cy="361.57" r="4" fill="#0" id="circle296"/>
	<circle cx="493.359" cy="898.945" r="4" fill="#0" id="circle297"/>
	<circle cx="494.381" cy="592.457" r="4" fill="#0" id="circle298"/>
	<circle cx="499.489" cy="366.678" r="4" fill="#0" id="circle299"/>
	<circle cx="504.597" cy="592.457" r="4" fill="#0" id="circle300"/>
	<circle cx="508.684" cy="371.786" r="4" fill="#0" id="circle301"/>
	<circle cx="514.814" cy="592.457" r="4" fill="#0" id="circle302"/>
	<circle cx="518.9" cy="372.807" r="4" fill="#0" id="circle303"/>
	<circle cx="524.008" cy="597.565" r="4" fill="#0" id="circle304"/>
	<circle cx="528.095" cy="377.916" r="4" fill="#0" id="circle305"/>
	<circle cx="534.225" cy="597.565" r="4" fill="#0" id="circle306"/>
	<circle cx="536.268" cy="385.067" r="4" fill="#0" id="circle307"/>
	<circle cx="543.419" cy="602.674" r="4" fill="#0" id="circle308"/>
	<circle cx="544.441" cy="392.218" r="4" fill="#0" id="circle309"/>
	<circle cx="552.614" cy="597.565" r="4" fill="#0" id="circle310"/>
	<circle cx="554.657" cy="393.24" r="4" fill="#0" id="circle311"/>
	<circle cx="561.808" cy="592.457" r="4" fill="#0" id="circle312"/>
	<circle cx="564.873" cy="397.326" r="4" fill="#0" id="circle313"/>
	<circle cx="571.003" cy="587.349" r="4" fill="#0" id="circle314"/>
	<circle cx="574.068" cy="402.435" r="4" fill="#0" id="circle315"/>
	<circle cx="581.219" cy="587.349" r="4" fill="#0" id="circle316"/>
	<circle cx="584.284" cy="402.435" r="4" fill="#0" id="circle317"/>
	<circle cx="591.436" cy="587.349" r="4" fill="#0" id="circle318"/>
	<circle cx="593.479" cy="407.543" r="4" fill="#0" id="circle319"/>
	<circle cx="600.63" cy="582.241" r="4" fill="#0" id="circle320"/>
	<circle cx="602.674" cy="412.651" r="4" fill="#0" id="circle321"/>
	<circle cx="610.847" cy="580.198" r="4" fill="#0" id="circle322"/>
	<circle cx="612.89" cy="410.608" r="4" fill="#0" id="circle323"/>
	<circle cx="617.998" cy="572.025" r="4" fill="#0" id="circle324"/>
	<circle cx="622.084" cy="415.716" r="4" fill="#0" id="circle325"/>
	<circle cx="628.214" cy="574.068" r="4" fill="#0" id="circle326"/>
	<circle cx="630.257" cy="422.867" r="4" fill="#0" id="circle327"/>
	<circle cx="637.409" cy="579.176" r="4" fill="#0" id="circle328"/>
	<circle cx="640.474" cy="422.867" r="4" fill="#0" id="circle329"/>
	<circle cx="647.625" cy="431.04" r="4" fill="#0" id="circle330"/>
	<circle cx="647.625" cy="582.241" r="4" fill="#0" id="circle331"/>
	<circle cx="656.82" cy="587.349" r="4" fill="#0" id="circle332"/>
	<circle cx="657.841" cy="435.127" r="4" fill="#0" id="circle333"/>
	<circle cx="663.971" cy="443.3" r="4" fill="#0" id="circle334"/>
	<circle cx="666.014" cy="592.457" r="4" fill="#0" id="circle335"/>
	<circle cx="674.187" cy="446.365" r="4" fill="#0" id="circle336"/>
	<circle cx="675.209" cy="597.565" r="4" fill="#0" id="circle337"/>
	<circle cx="679.296" cy="455.559" r="4" fill="#0" id="circle338"/>
	<circle cx="684.404" cy="602.674" r="4" fill="#0" id="circle339"/>
	<circle cx="685.425" cy="463.732" r="4" fill="#0" id="circle340"/>
	<circle cx="689.512" cy="473.949" r="4" fill="#0" id="circle341"/>
	<circle cx="693.598" cy="607.782" r="4" fill="#0" id="circle342"/>
	<circle cx="697.685" cy="480.078" r="4" fill="#0" id="circle343"/>
	<circle cx="702.793" cy="612.89" r="4" fill="#0" id="circle344"/>
	<circle cx="704.836" cy="488.251" r="4" fill="#0" id="circle345"/>
	<circle cx="709.944" cy="497.446" r="4" fill="#0" id="circle346"/>
	<circle cx="713.009" cy="610.847" r="4" fill="#0" id="circle347"/>
	<circle cx="715.053" cy="506.641" r="4" fill="#0" id="circle348"/>
	<circle cx="718.117" cy="516.857" r="4" fill="#0" id="circle349"/>
	<circle cx="720.161" cy="527.073" r="4" fill="#0" id="circle350"/>
	<circle cx="720.161" cy="602.674" r="4" fill="#0" id="circle351"/>
	<circle cx="725.269" cy="536.268" r="4" fill="#0" id="circle352"/>
	<circle cx="728.334" cy="595.522" r="4" fill="#0" id="circle353"/>
	<circle cx="730.377" cy="545.462" r="4" fill="#0" id="circle354"/>
	<circle cx="730.377" cy="555.679" r="4" fill="#0" id="circle355"/>
	<circle cx="730.377" cy="582.241" r="4" fill="#0" id="circle356"/>
	<circle cx="735.485" cy="564.873" r="4" fill="#0" id="circle357"/>
	</g>
</svg>