<?xml version="1.0" encoding="UTF-8" standalone="no"?>
<!-- Created with CurveBenchmark -->
<svg
	xmlns:dc="http://purl.org/dc/elements/1.1/"
	xmlns:cc="http://creativecommons.org/ns#"
	xmlns:rdf="http://www.w3.org/1999/02/22-rdf-syntax-ns#"
	xmlns:svg="http://www.w3.org/2000/svg"
	xmlns="http://www.w3.org/2000/svg"
	xmlns:sodipodi="http://sodipodi.sourceforge.net/DTD/sodipodi-0.dtd"
	xmlns:inkscape="http://www.inkscape.org/namespaces/inkscape"
	width="1000"
	height="1000"
	id="svg2"
	version="1.1"
	sodipodi:docname="manifold/fitconnect-carriage18.png.txt">
<defs
	id="defs4" />
<metadata
	id="metadata7">
	<rdf:RDF>
		<cc:Work
			rdf:about="">
			<dc:format>image/svg+xml</dc:format>
			<dc:type
				rdf:resource="http://purl.org/dc/dcmitype/StillImage" />
			<dc:title></dc:title>
		</cc:Work>
	</rdf:RDF>
</metadata>
<g
	inkscape:label="Layer 1"
	inkscape:groupmode="layer"
	id="layer1">
	<path style="fill:none;stroke:red;stroke-width:1px;stroke-linecap:butt;stroke-linejoin:miter;stroke-opacity:1" d="M 4,142.148 12.3221,125.503 z" id="boundary" inkscape:connector-curvature="0" />
	<path style="fill:none;stroke:red;stroke-width:1px;stroke-linecap:butt;stroke-linejoin:miter;stroke-opacity:1" d="M 4,142.148 12.3221,157.128 z" id="boundary" inkscape:connector-curvature="0" />
	<path style="fill:none;stroke:red;stroke-width:1px;stroke-linecap:butt;stroke-linejoin:miter;stroke-opacity:1" d="M 12.3221,125.503 25.6376,112.188 z" id="boundary" inkscape:connector-curvature="0" />
	<path style="fill:none;stroke:red;stroke-width:1px;stroke-linecap:butt;stroke-linejoin:miter;stroke-opacity:1" d="M 12.3221,157.128 28.9664,163.785 z" id="boundary" inkscape:connector-curvature="0" />
	<path style="fill:none;stroke:red;stroke-width:1px;stroke-linecap:butt;stroke-linejoin:miter;stroke-opacity:1" d="M 25.6376,112.188 33.9597,95.5436 z" id="boundary" inkscape:connector-curvature="0" />
	<path style="fill:none;stroke:red;stroke-width:1px;stroke-linecap:butt;stroke-linejoin:miter;stroke-opacity:1" d="M 28.9664,163.785 45.6107,167.114 z" id="boundary" inkscape:connector-curvature="0" />
	<path style="fill:none;stroke:red;stroke-width:1px;stroke-linecap:butt;stroke-linejoin:miter;stroke-opacity:1" d="M 33.9597,95.5436 50.604,87.2215 z" id="boundary" inkscape:connector-curvature="0" />
	<path style="fill:none;stroke:red;stroke-width:1px;stroke-linecap:butt;stroke-linejoin:miter;stroke-opacity:1" d="M 45.6107,167.114 58.9262,153.799 z" id="boundary" inkscape:connector-curvature="0" />
	<path style="fill:none;stroke:red;stroke-width:1px;stroke-linecap:butt;stroke-linejoin:miter;stroke-opacity:1" d="M 50.604,87.2215 63.9195,73.906 z" id="boundary" inkscape:connector-curvature="0" />
	<path style="fill:none;stroke:red;stroke-width:1px;stroke-linecap:butt;stroke-linejoin:miter;stroke-opacity:1" d="M 58.9262,153.799 75.5705,147.141 z" id="boundary" inkscape:connector-curvature="0" />
	<path style="fill:none;stroke:red;stroke-width:1px;stroke-linecap:butt;stroke-linejoin:miter;stroke-opacity:1" d="M 63.9195,73.906 77.2349,62.255 z" id="boundary" inkscape:connector-curvature="0" />
	<path style="fill:none;stroke:red;stroke-width:1px;stroke-linecap:butt;stroke-linejoin:miter;stroke-opacity:1" d="M 75.5705,147.141 88.8859,157.128 z" id="boundary" inkscape:connector-curvature="0" />
	<path style="fill:none;stroke:red;stroke-width:1px;stroke-linecap:butt;stroke-linejoin:miter;stroke-opacity:1" d="M 77.2349,62.255 92.2148,70.5772 z" id="boundary" inkscape:connector-curvature="0" />
	<path style="fill:none;stroke:red;stroke-width:1px;stroke-linecap:butt;stroke-linejoin:miter;stroke-opacity:1" d="M 88.8859,157.128 95.5436,173.772 z" id="boundary" inkscape:connector-curvature="0" />
	<path style="fill:none;stroke:red;stroke-width:1px;stroke-linecap:butt;stroke-linejoin:miter;stroke-opacity:1" d="M 92.2148,70.5772 107.195,78.8993 z" id="boundary" inkscape:connector-curvature="0" />
	<path style="fill:none;stroke:red;stroke-width:1px;stroke-linecap:butt;stroke-linejoin:miter;stroke-opacity:1" d="M 95.5436,173.772 103.866,188.752 z" id="boundary" inkscape:connector-curvature="0" />
	<path style="fill:none;stroke:red;stroke-width:1px;stroke-linecap:butt;stroke-linejoin:miter;stroke-opacity:1" d="M 103.866,188.752 103.866,205.396 z" id="boundary" inkscape:connector-curvature="0" />
	<path style="fill:none;stroke:red;stroke-width:1px;stroke-linecap:butt;stroke-linejoin:miter;stroke-opacity:1" d="M 103.866,205.396 118.846,213.718 z" id="boundary" inkscape:connector-curvature="0" />
	<path style="fill:none;stroke:red;stroke-width:1px;stroke-linecap:butt;stroke-linejoin:miter;stroke-opacity:1" d="M 103.866,366.846 112.188,341.879 z" id="boundary" inkscape:connector-curvature="0" />
	<path style="fill:none;stroke:red;stroke-width:1px;stroke-linecap:butt;stroke-linejoin:miter;stroke-opacity:1" d="M 103.866,366.846 112.188,381.826 z" id="boundary" inkscape:connector-curvature="0" />
	<path style="fill:none;stroke:red;stroke-width:1px;stroke-linecap:butt;stroke-linejoin:miter;stroke-opacity:1" d="M 107.195,78.8993 122.174,87.2215 z" id="boundary" inkscape:connector-curvature="0" />
	<path style="fill:none;stroke:red;stroke-width:1px;stroke-linecap:butt;stroke-linejoin:miter;stroke-opacity:1" d="M 112.188,341.879 120.51,313.584 z" id="boundary" inkscape:connector-curvature="0" />
	<path style="fill:none;stroke:red;stroke-width:1px;stroke-linecap:butt;stroke-linejoin:miter;stroke-opacity:1" d="M 112.188,381.826 120.51,396.805 z" id="boundary" inkscape:connector-curvature="0" />
	<path style="fill:none;stroke:red;stroke-width:1px;stroke-linecap:butt;stroke-linejoin:miter;stroke-opacity:1" d="M 118.846,213.718 120.51,230.362 z" id="boundary" inkscape:connector-curvature="0" />
	<path style="fill:none;stroke:red;stroke-width:1px;stroke-linecap:butt;stroke-linejoin:miter;stroke-opacity:1" d="M 120.51,230.362 120.51,247.007 z" id="boundary" inkscape:connector-curvature="0" />
	<path style="fill:none;stroke:red;stroke-width:1px;stroke-linecap:butt;stroke-linejoin:miter;stroke-opacity:1" d="M 120.51,247.007 120.51,263.651 z" id="boundary" inkscape:connector-curvature="0" />
	<path style="fill:none;stroke:red;stroke-width:1px;stroke-linecap:butt;stroke-linejoin:miter;stroke-opacity:1" d="M 120.51,263.651 120.51,280.295 z" id="boundary" inkscape:connector-curvature="0" />
	<path style="fill:none;stroke:red;stroke-width:1px;stroke-linecap:butt;stroke-linejoin:miter;stroke-opacity:1" d="M 120.51,280.295 120.51,296.94 z" id="boundary" inkscape:connector-curvature="0" />
	<path style="fill:none;stroke:red;stroke-width:1px;stroke-linecap:butt;stroke-linejoin:miter;stroke-opacity:1" d="M 120.51,296.94 120.51,313.584 z" id="boundary" inkscape:connector-curvature="0" />
	<path style="fill:none;stroke:red;stroke-width:1px;stroke-linecap:butt;stroke-linejoin:miter;stroke-opacity:1" d="M 120.51,396.805 137.154,396.805 z" id="boundary" inkscape:connector-curvature="0" />
	<path style="fill:none;stroke:red;stroke-width:1px;stroke-linecap:butt;stroke-linejoin:miter;stroke-opacity:1" d="M 122.174,87.2215 138.819,92.2148 z" id="boundary" inkscape:connector-curvature="0" />
	<path style="fill:none;stroke:red;stroke-width:1px;stroke-linecap:butt;stroke-linejoin:miter;stroke-opacity:1" d="M 137.154,396.805 150.47,386.819 z" id="boundary" inkscape:connector-curvature="0" />
	<path style="fill:none;stroke:red;stroke-width:1px;stroke-linecap:butt;stroke-linejoin:miter;stroke-opacity:1" d="M 138.819,92.2148 153.799,100.537 z" id="boundary" inkscape:connector-curvature="0" />
	<path style="fill:none;stroke:red;stroke-width:1px;stroke-linecap:butt;stroke-linejoin:miter;stroke-opacity:1" d="M 150.47,386.819 155.463,363.517 z" id="boundary" inkscape:connector-curvature="0" />
	<path style="fill:none;stroke:red;stroke-width:1px;stroke-linecap:butt;stroke-linejoin:miter;stroke-opacity:1" d="M 153.799,100.537 167.114,112.188 z" id="boundary" inkscape:connector-curvature="0" />
	<path style="fill:none;stroke:red;stroke-width:1px;stroke-linecap:butt;stroke-linejoin:miter;stroke-opacity:1" d="M 155.463,296.94 155.463,313.584 z" id="boundary" inkscape:connector-curvature="0" />
	<path style="fill:none;stroke:red;stroke-width:1px;stroke-linecap:butt;stroke-linejoin:miter;stroke-opacity:1" d="M 155.463,296.94 163.785,271.973 z" id="boundary" inkscape:connector-curvature="0" />
	<path style="fill:none;stroke:red;stroke-width:1px;stroke-linecap:butt;stroke-linejoin:miter;stroke-opacity:1" d="M 155.463,313.584 155.463,330.228 z" id="boundary" inkscape:connector-curvature="0" />
	<path style="fill:none;stroke:red;stroke-width:1px;stroke-linecap:butt;stroke-linejoin:miter;stroke-opacity:1" d="M 155.463,330.228 155.463,346.872 z" id="boundary" inkscape:connector-curvature="0" />
	<path style="fill:none;stroke:red;stroke-width:1px;stroke-linecap:butt;stroke-linejoin:miter;stroke-opacity:1" d="M 155.463,346.872 155.463,363.517 z" id="boundary" inkscape:connector-curvature="0" />
	<path style="fill:none;stroke:red;stroke-width:1px;stroke-linecap:butt;stroke-linejoin:miter;stroke-opacity:1" d="M 163.785,271.973 180.43,263.651 z" id="boundary" inkscape:connector-curvature="0" />
	<path style="fill:none;stroke:red;stroke-width:1px;stroke-linecap:butt;stroke-linejoin:miter;stroke-opacity:1" d="M 167.114,112.188 182.094,120.51 z" id="boundary" inkscape:connector-curvature="0" />
	<path style="fill:none;stroke:red;stroke-width:1px;stroke-linecap:butt;stroke-linejoin:miter;stroke-opacity:1" d="M 180.43,263.651 197.074,255.329 z" id="boundary" inkscape:connector-curvature="0" />
	<path style="fill:none;stroke:red;stroke-width:1px;stroke-linecap:butt;stroke-linejoin:miter;stroke-opacity:1" d="M 182.094,120.51 195.409,132.161 z" id="boundary" inkscape:connector-curvature="0" />
	<path style="fill:none;stroke:red;stroke-width:1px;stroke-linecap:butt;stroke-linejoin:miter;stroke-opacity:1" d="M 195.409,132.161 205.396,145.477 z" id="boundary" inkscape:connector-curvature="0" />
	<path style="fill:none;stroke:red;stroke-width:1px;stroke-linecap:butt;stroke-linejoin:miter;stroke-opacity:1" d="M 197.074,255.329 212.054,247.007 z" id="boundary" inkscape:connector-curvature="0" />
	<path style="fill:none;stroke:red;stroke-width:1px;stroke-linecap:butt;stroke-linejoin:miter;stroke-opacity:1" d="M 205.396,145.477 222.04,145.477 z" id="boundary" inkscape:connector-curvature="0" />
	<path style="fill:none;stroke:red;stroke-width:1px;stroke-linecap:butt;stroke-linejoin:miter;stroke-opacity:1" d="M 212.054,247.007 228.698,247.007 z" id="boundary" inkscape:connector-curvature="0" />
	<path style="fill:none;stroke:red;stroke-width:1px;stroke-linecap:butt;stroke-linejoin:miter;stroke-opacity:1" d="M 222.04,145.477 238.685,145.477 z" id="boundary" inkscape:connector-curvature="0" />
	<path style="fill:none;stroke:red;stroke-width:1px;stroke-linecap:butt;stroke-linejoin:miter;stroke-opacity:1" d="M 228.698,247.007 245.342,247.007 z" id="boundary" inkscape:connector-curvature="0" />
	<path style="fill:none;stroke:red;stroke-width:1px;stroke-linecap:butt;stroke-linejoin:miter;stroke-opacity:1" d="M 238.685,145.477 255.329,145.477 z" id="boundary" inkscape:connector-curvature="0" />
	<path style="fill:none;stroke:red;stroke-width:1px;stroke-linecap:butt;stroke-linejoin:miter;stroke-opacity:1" d="M 245.342,247.007 261.987,247.007 z" id="boundary" inkscape:connector-curvature="0" />
	<path style="fill:none;stroke:red;stroke-width:1px;stroke-linecap:butt;stroke-linejoin:miter;stroke-opacity:1" d="M 255.329,145.477 271.973,145.477 z" id="boundary" inkscape:connector-curvature="0" />
	<path style="fill:none;stroke:red;stroke-width:1px;stroke-linecap:butt;stroke-linejoin:miter;stroke-opacity:1" d="M 261.987,247.007 278.631,247.007 z" id="boundary" inkscape:connector-curvature="0" />
	<path style="fill:none;stroke:red;stroke-width:1px;stroke-linecap:butt;stroke-linejoin:miter;stroke-opacity:1" d="M 271.973,145.477 288.617,145.477 z" id="boundary" inkscape:connector-curvature="0" />
	<path style="fill:none;stroke:red;stroke-width:1px;stroke-linecap:butt;stroke-linejoin:miter;stroke-opacity:1" d="M 278.631,247.007 295.275,247.007 z" id="boundary" inkscape:connector-curvature="0" />
	<path style="fill:none;stroke:red;stroke-width:1px;stroke-linecap:butt;stroke-linejoin:miter;stroke-opacity:1" d="M 288.617,145.477 305.262,145.477 z" id="boundary" inkscape:connector-curvature="0" />
	<path style="fill:none;stroke:red;stroke-width:1px;stroke-linecap:butt;stroke-linejoin:miter;stroke-opacity:1" d="M 295.275,247.007 311.919,247.007 z" id="boundary" inkscape:connector-curvature="0" />
	<path style="fill:none;stroke:red;stroke-width:1px;stroke-linecap:butt;stroke-linejoin:miter;stroke-opacity:1" d="M 305.262,145.477 321.906,145.477 z" id="boundary" inkscape:connector-curvature="0" />
	<path style="fill:none;stroke:red;stroke-width:1px;stroke-linecap:butt;stroke-linejoin:miter;stroke-opacity:1" d="M 311.919,247.007 320.242,261.987 z" id="boundary" inkscape:connector-curvature="0" />
	<path style="fill:none;stroke:red;stroke-width:1px;stroke-linecap:butt;stroke-linejoin:miter;stroke-opacity:1" d="M 320.242,261.987 328.564,276.966 z" id="boundary" inkscape:connector-curvature="0" />
	<path style="fill:none;stroke:red;stroke-width:1px;stroke-linecap:butt;stroke-linejoin:miter;stroke-opacity:1" d="M 321.906,145.477 338.55,145.477 z" id="boundary" inkscape:connector-curvature="0" />
	<path style="fill:none;stroke:red;stroke-width:1px;stroke-linecap:butt;stroke-linejoin:miter;stroke-opacity:1" d="M 328.564,276.966 328.564,300.268 z" id="boundary" inkscape:connector-curvature="0" />
	<path style="fill:none;stroke:red;stroke-width:1px;stroke-linecap:butt;stroke-linejoin:miter;stroke-opacity:1" d="M 328.564,300.268 328.564,316.913 z" id="boundary" inkscape:connector-curvature="0" />
	<path style="fill:none;stroke:red;stroke-width:1px;stroke-linecap:butt;stroke-linejoin:miter;stroke-opacity:1" d="M 328.564,316.913 328.564,333.557 z" id="boundary" inkscape:connector-curvature="0" />
	<path style="fill:none;stroke:red;stroke-width:1px;stroke-linecap:butt;stroke-linejoin:miter;stroke-opacity:1" d="M 328.564,333.557 328.564,350.201 z" id="boundary" inkscape:connector-curvature="0" />
	<path style="fill:none;stroke:red;stroke-width:1px;stroke-linecap:butt;stroke-linejoin:miter;stroke-opacity:1" d="M 328.564,350.201 328.564,366.846 z" id="boundary" inkscape:connector-curvature="0" />
	<path style="fill:none;stroke:red;stroke-width:1px;stroke-linecap:butt;stroke-linejoin:miter;stroke-opacity:1" d="M 328.564,366.846 338.55,380.161 z" id="boundary" inkscape:connector-curvature="0" />
	<path style="fill:none;stroke:red;stroke-width:1px;stroke-linecap:butt;stroke-linejoin:miter;stroke-opacity:1" d="M 338.55,145.477 355.195,145.477 z" id="boundary" inkscape:connector-curvature="0" />
	<path style="fill:none;stroke:red;stroke-width:1px;stroke-linecap:butt;stroke-linejoin:miter;stroke-opacity:1" d="M 338.55,380.161 348.537,393.477 z" id="boundary" inkscape:connector-curvature="0" />
	<path style="fill:none;stroke:red;stroke-width:1px;stroke-linecap:butt;stroke-linejoin:miter;stroke-opacity:1" d="M 348.537,393.477 365.181,388.483 z" id="boundary" inkscape:connector-curvature="0" />
	<path style="fill:none;stroke:red;stroke-width:1px;stroke-linecap:butt;stroke-linejoin:miter;stroke-opacity:1" d="M 355.195,145.477 371.839,145.477 z" id="boundary" inkscape:connector-curvature="0" />
	<path style="fill:none;stroke:red;stroke-width:1px;stroke-linecap:butt;stroke-linejoin:miter;stroke-opacity:1" d="M 365.181,388.483 378.497,375.168 z" id="boundary" inkscape:connector-curvature="0" />
	<path style="fill:none;stroke:red;stroke-width:1px;stroke-linecap:butt;stroke-linejoin:miter;stroke-opacity:1" d="M 371.839,145.477 385.154,155.463 z" id="boundary" inkscape:connector-curvature="0" />
	<path style="fill:none;stroke:red;stroke-width:1px;stroke-linecap:butt;stroke-linejoin:miter;stroke-opacity:1" d="M 378.497,375.168 380.161,355.195 z" id="boundary" inkscape:connector-curvature="0" />
	<path style="fill:none;stroke:red;stroke-width:1px;stroke-linecap:butt;stroke-linejoin:miter;stroke-opacity:1" d="M 380.161,313.584 380.161,338.55 z" id="boundary" inkscape:connector-curvature="0" />
	<path style="fill:none;stroke:red;stroke-width:1px;stroke-linecap:butt;stroke-linejoin:miter;stroke-opacity:1" d="M 380.161,313.584 396.805,305.262 z" id="boundary" inkscape:connector-curvature="0" />
	<path style="fill:none;stroke:red;stroke-width:1px;stroke-linecap:butt;stroke-linejoin:miter;stroke-opacity:1" d="M 380.161,338.55 380.161,355.195 z" id="boundary" inkscape:connector-curvature="0" />
	<path style="fill:none;stroke:red;stroke-width:1px;stroke-linecap:butt;stroke-linejoin:miter;stroke-opacity:1" d="M 385.154,155.463 396.805,168.779 z" id="boundary" inkscape:connector-curvature="0" />
	<path style="fill:none;stroke:red;stroke-width:1px;stroke-linecap:butt;stroke-linejoin:miter;stroke-opacity:1" d="M 396.805,168.779 396.805,185.423 z" id="boundary" inkscape:connector-curvature="0" />
	<path style="fill:none;stroke:red;stroke-width:1px;stroke-linecap:butt;stroke-linejoin:miter;stroke-opacity:1" d="M 396.805,185.423 413.45,192.081 z" id="boundary" inkscape:connector-curvature="0" />
	<path style="fill:none;stroke:red;stroke-width:1px;stroke-linecap:butt;stroke-linejoin:miter;stroke-opacity:1" d="M 396.805,305.262 413.45,305.262 z" id="boundary" inkscape:connector-curvature="0" />
	<path style="fill:none;stroke:red;stroke-width:1px;stroke-linecap:butt;stroke-linejoin:miter;stroke-opacity:1" d="M 413.45,192.081 430.094,195.409 z" id="boundary" inkscape:connector-curvature="0" />
	<path style="fill:none;stroke:red;stroke-width:1px;stroke-linecap:butt;stroke-linejoin:miter;stroke-opacity:1" d="M 413.45,305.262 420.107,325.235 z" id="boundary" inkscape:connector-curvature="0" />
	<path style="fill:none;stroke:red;stroke-width:1px;stroke-linecap:butt;stroke-linejoin:miter;stroke-opacity:1" d="M 420.107,325.235 428.43,340.215 z" id="boundary" inkscape:connector-curvature="0" />
	<path style="fill:none;stroke:red;stroke-width:1px;stroke-linecap:butt;stroke-linejoin:miter;stroke-opacity:1" d="M 428.43,340.215 428.43,356.859 z" id="boundary" inkscape:connector-curvature="0" />
	<path style="fill:none;stroke:red;stroke-width:1px;stroke-linecap:butt;stroke-linejoin:miter;stroke-opacity:1" d="M 428.43,356.859 436.752,371.839 z" id="boundary" inkscape:connector-curvature="0" />
	<path style="fill:none;stroke:red;stroke-width:1px;stroke-linecap:butt;stroke-linejoin:miter;stroke-opacity:1" d="M 430.094,195.409 446.738,195.409 z" id="boundary" inkscape:connector-curvature="0" />
	<path style="fill:none;stroke:red;stroke-width:1px;stroke-linecap:butt;stroke-linejoin:miter;stroke-opacity:1" d="M 436.752,371.839 445.074,386.819 z" id="boundary" inkscape:connector-curvature="0" />
	<path style="fill:none;stroke:red;stroke-width:1px;stroke-linecap:butt;stroke-linejoin:miter;stroke-opacity:1" d="M 445.074,386.819 455.06,400.134 z" id="boundary" inkscape:connector-curvature="0" />
	<path style="fill:none;stroke:red;stroke-width:1px;stroke-linecap:butt;stroke-linejoin:miter;stroke-opacity:1" d="M 446.738,195.409 463.383,195.409 z" id="boundary" inkscape:connector-curvature="0" />
	<path style="fill:none;stroke:red;stroke-width:1px;stroke-linecap:butt;stroke-linejoin:miter;stroke-opacity:1" d="M 455.06,400.134 470.04,408.456 z" id="boundary" inkscape:connector-curvature="0" />
	<path style="fill:none;stroke:red;stroke-width:1px;stroke-linecap:butt;stroke-linejoin:miter;stroke-opacity:1" d="M 463.383,195.409 478.362,183.758 z" id="boundary" inkscape:connector-curvature="0" />
	<path style="fill:none;stroke:red;stroke-width:1px;stroke-linecap:butt;stroke-linejoin:miter;stroke-opacity:1" d="M 470.04,408.456 486.685,405.128 z" id="boundary" inkscape:connector-curvature="0" />
	<path style="fill:none;stroke:red;stroke-width:1px;stroke-linecap:butt;stroke-linejoin:miter;stroke-opacity:1" d="M 478.362,133.826 478.362,150.47 z" id="boundary" inkscape:connector-curvature="0" />
	<path style="fill:none;stroke:red;stroke-width:1px;stroke-linecap:butt;stroke-linejoin:miter;stroke-opacity:1" d="M 478.362,133.826 491.678,120.51 z" id="boundary" inkscape:connector-curvature="0" />
	<path style="fill:none;stroke:red;stroke-width:1px;stroke-linecap:butt;stroke-linejoin:miter;stroke-opacity:1" d="M 478.362,150.47 478.362,167.114 z" id="boundary" inkscape:connector-curvature="0" />
	<path style="fill:none;stroke:red;stroke-width:1px;stroke-linecap:butt;stroke-linejoin:miter;stroke-opacity:1" d="M 478.362,167.114 478.362,183.758 z" id="boundary" inkscape:connector-curvature="0" />
	<path style="fill:none;stroke:red;stroke-width:1px;stroke-linecap:butt;stroke-linejoin:miter;stroke-opacity:1" d="M 486.685,405.128 501.664,413.45 z" id="boundary" inkscape:connector-curvature="0" />
	<path style="fill:none;stroke:red;stroke-width:1px;stroke-linecap:butt;stroke-linejoin:miter;stroke-opacity:1" d="M 491.678,120.51 504.993,107.195 z" id="boundary" inkscape:connector-curvature="0" />
	<path style="fill:none;stroke:red;stroke-width:1px;stroke-linecap:butt;stroke-linejoin:miter;stroke-opacity:1" d="M 501.664,413.45 516.644,421.772 z" id="boundary" inkscape:connector-curvature="0" />
	<path style="fill:none;stroke:red;stroke-width:1px;stroke-linecap:butt;stroke-linejoin:miter;stroke-opacity:1" d="M 504.993,107.195 521.638,98.8725 z" id="boundary" inkscape:connector-curvature="0" />
	<path style="fill:none;stroke:red;stroke-width:1px;stroke-linecap:butt;stroke-linejoin:miter;stroke-opacity:1" d="M 516.644,421.772 531.624,413.45 z" id="boundary" inkscape:connector-curvature="0" />
	<path style="fill:none;stroke:red;stroke-width:1px;stroke-linecap:butt;stroke-linejoin:miter;stroke-opacity:1" d="M 519.973,25.6376 519.973,50.604 z" id="boundary" inkscape:connector-curvature="0" />
	<path style="fill:none;stroke:red;stroke-width:1px;stroke-linecap:butt;stroke-linejoin:miter;stroke-opacity:1" d="M 519.973,25.6376 533.289,12.3221 z" id="boundary" inkscape:connector-curvature="0" />
	<path style="fill:none;stroke:red;stroke-width:1px;stroke-linecap:butt;stroke-linejoin:miter;stroke-opacity:1" d="M 519.973,50.604 528.295,65.5839 z" id="boundary" inkscape:connector-curvature="0" />
	<path style="fill:none;stroke:red;stroke-width:1px;stroke-linecap:butt;stroke-linejoin:miter;stroke-opacity:1" d="M 521.638,98.8725 534.953,87.2215 z" id="boundary" inkscape:connector-curvature="0" />
	<path style="fill:none;stroke:red;stroke-width:1px;stroke-linecap:butt;stroke-linejoin:miter;stroke-opacity:1" d="M 528.295,65.5839 534.953,87.2215 z" id="boundary" inkscape:connector-curvature="0" />
	<path style="fill:none;stroke:red;stroke-width:1px;stroke-linecap:butt;stroke-linejoin:miter;stroke-opacity:1" d="M 531.624,413.45 548.268,413.45 z" id="boundary" inkscape:connector-curvature="0" />
	<path style="fill:none;stroke:red;stroke-width:1px;stroke-linecap:butt;stroke-linejoin:miter;stroke-opacity:1" d="M 533.289,12.3221 548.268,4 z" id="boundary" inkscape:connector-curvature="0" />
	<path style="fill:none;stroke:red;stroke-width:1px;stroke-linecap:butt;stroke-linejoin:miter;stroke-opacity:1" d="M 548.268,4 564.913,4 z" id="boundary" inkscape:connector-curvature="0" />
	<path style="fill:none;stroke:red;stroke-width:1px;stroke-linecap:butt;stroke-linejoin:miter;stroke-opacity:1" d="M 548.268,413.45 564.913,413.45 z" id="boundary" inkscape:connector-curvature="0" />
	<path style="fill:none;stroke:red;stroke-width:1px;stroke-linecap:butt;stroke-linejoin:miter;stroke-opacity:1" d="M 564.913,4 579.893,12.3221 z" id="boundary" inkscape:connector-curvature="0" />
	<path style="fill:none;stroke:red;stroke-width:1px;stroke-linecap:butt;stroke-linejoin:miter;stroke-opacity:1" d="M 564.913,413.45 579.893,396.805 z" id="boundary" inkscape:connector-curvature="0" />
	<path style="fill:none;stroke:red;stroke-width:1px;stroke-linecap:butt;stroke-linejoin:miter;stroke-opacity:1" d="M 579.893,12.3221 588.215,27.302 z" id="boundary" inkscape:connector-curvature="0" />
	<path style="fill:none;stroke:red;stroke-width:1px;stroke-linecap:butt;stroke-linejoin:miter;stroke-opacity:1" d="M 579.893,396.805 593.208,385.154 z" id="boundary" inkscape:connector-curvature="0" />
	<path style="fill:none;stroke:red;stroke-width:1px;stroke-linecap:butt;stroke-linejoin:miter;stroke-opacity:1" d="M 588.215,27.302 596.537,42.2819 z" id="boundary" inkscape:connector-curvature="0" />
	<path style="fill:none;stroke:red;stroke-width:1px;stroke-linecap:butt;stroke-linejoin:miter;stroke-opacity:1" d="M 588.215,238.685 588.215,255.329 z" id="boundary" inkscape:connector-curvature="0" />
	<path style="fill:none;stroke:red;stroke-width:1px;stroke-linecap:butt;stroke-linejoin:miter;stroke-opacity:1" d="M 588.215,238.685 604.859,238.685 z" id="boundary" inkscape:connector-curvature="0" />
	<path style="fill:none;stroke:red;stroke-width:1px;stroke-linecap:butt;stroke-linejoin:miter;stroke-opacity:1" d="M 588.215,255.329 588.215,271.973 z" id="boundary" inkscape:connector-curvature="0" />
	<path style="fill:none;stroke:red;stroke-width:1px;stroke-linecap:butt;stroke-linejoin:miter;stroke-opacity:1" d="M 588.215,271.973 596.537,286.953 z" id="boundary" inkscape:connector-curvature="0" />
	<path style="fill:none;stroke:red;stroke-width:1px;stroke-linecap:butt;stroke-linejoin:miter;stroke-opacity:1" d="M 593.208,385.154 596.537,353.53 z" id="boundary" inkscape:connector-curvature="0" />
	<path style="fill:none;stroke:red;stroke-width:1px;stroke-linecap:butt;stroke-linejoin:miter;stroke-opacity:1" d="M 596.537,42.2819 604.859,57.2617 z" id="boundary" inkscape:connector-curvature="0" />
	<path style="fill:none;stroke:red;stroke-width:1px;stroke-linecap:butt;stroke-linejoin:miter;stroke-opacity:1" d="M 596.537,286.953 596.537,303.597 z" id="boundary" inkscape:connector-curvature="0" />
	<path style="fill:none;stroke:red;stroke-width:1px;stroke-linecap:butt;stroke-linejoin:miter;stroke-opacity:1" d="M 596.537,303.597 596.537,320.242 z" id="boundary" inkscape:connector-curvature="0" />
	<path style="fill:none;stroke:red;stroke-width:1px;stroke-linecap:butt;stroke-linejoin:miter;stroke-opacity:1" d="M 596.537,320.242 596.537,336.886 z" id="boundary" inkscape:connector-curvature="0" />
	<path style="fill:none;stroke:red;stroke-width:1px;stroke-linecap:butt;stroke-linejoin:miter;stroke-opacity:1" d="M 596.537,336.886 596.537,353.53 z" id="boundary" inkscape:connector-curvature="0" />
	<path style="fill:none;stroke:red;stroke-width:1px;stroke-linecap:butt;stroke-linejoin:miter;stroke-opacity:1" d="M 604.859,57.2617 604.859,73.906 z" id="boundary" inkscape:connector-curvature="0" />
	<path style="fill:none;stroke:red;stroke-width:1px;stroke-linecap:butt;stroke-linejoin:miter;stroke-opacity:1" d="M 604.859,73.906 609.852,90.5503 z" id="boundary" inkscape:connector-curvature="0" />
	<path style="fill:none;stroke:red;stroke-width:1px;stroke-linecap:butt;stroke-linejoin:miter;stroke-opacity:1" d="M 604.859,238.685 619.839,247.007 z" id="boundary" inkscape:connector-curvature="0" />
	<path style="fill:none;stroke:red;stroke-width:1px;stroke-linecap:butt;stroke-linejoin:miter;stroke-opacity:1" d="M 609.852,90.5503 618.174,105.53 z" id="boundary" inkscape:connector-curvature="0" />
	<path style="fill:none;stroke:red;stroke-width:1px;stroke-linecap:butt;stroke-linejoin:miter;stroke-opacity:1" d="M 618.174,105.53 629.826,118.846 z" id="boundary" inkscape:connector-curvature="0" />
	<path style="fill:none;stroke:red;stroke-width:1px;stroke-linecap:butt;stroke-linejoin:miter;stroke-opacity:1" d="M 619.839,247.007 629.826,260.322 z" id="boundary" inkscape:connector-curvature="0" />
	<path style="fill:none;stroke:red;stroke-width:1px;stroke-linecap:butt;stroke-linejoin:miter;stroke-opacity:1" d="M 629.826,118.846 629.826,135.49 z" id="boundary" inkscape:connector-curvature="0" />
	<path style="fill:none;stroke:red;stroke-width:1px;stroke-linecap:butt;stroke-linejoin:miter;stroke-opacity:1" d="M 629.826,135.49 629.826,152.134 z" id="boundary" inkscape:connector-curvature="0" />
	<path style="fill:none;stroke:red;stroke-width:1px;stroke-linecap:butt;stroke-linejoin:miter;stroke-opacity:1" d="M 629.826,152.134 629.826,168.779 z" id="boundary" inkscape:connector-curvature="0" />
	<path style="fill:none;stroke:red;stroke-width:1px;stroke-linecap:butt;stroke-linejoin:miter;stroke-opacity:1" d="M 629.826,168.779 629.826,185.423 z" id="boundary" inkscape:connector-curvature="0" />
	<path style="fill:none;stroke:red;stroke-width:1px;stroke-linecap:butt;stroke-linejoin:miter;stroke-opacity:1" d="M 629.826,185.423 643.141,195.409 z" id="boundary" inkscape:connector-curvature="0" />
	<path style="fill:none;stroke:red;stroke-width:1px;stroke-linecap:butt;stroke-linejoin:miter;stroke-opacity:1" d="M 629.826,260.322 643.141,271.973 z" id="boundary" inkscape:connector-curvature="0" />
	<path style="fill:none;stroke:red;stroke-width:1px;stroke-linecap:butt;stroke-linejoin:miter;stroke-opacity:1" d="M 643.141,195.409 659.785,195.409 z" id="boundary" inkscape:connector-curvature="0" />
	<path style="fill:none;stroke:red;stroke-width:1px;stroke-linecap:butt;stroke-linejoin:miter;stroke-opacity:1" d="M 643.141,271.973 653.128,285.289 z" id="boundary" inkscape:connector-curvature="0" />
	<path style="fill:none;stroke:red;stroke-width:1px;stroke-linecap:butt;stroke-linejoin:miter;stroke-opacity:1" d="M 653.128,285.289 661.45,300.268 z" id="boundary" inkscape:connector-curvature="0" />
	<path style="fill:none;stroke:red;stroke-width:1px;stroke-linecap:butt;stroke-linejoin:miter;stroke-opacity:1" d="M 659.785,195.409 674.765,203.732 z" id="boundary" inkscape:connector-curvature="0" />
	<path style="fill:none;stroke:red;stroke-width:1px;stroke-linecap:butt;stroke-linejoin:miter;stroke-opacity:1" d="M 661.45,300.268 671.436,313.584 z" id="boundary" inkscape:connector-curvature="0" />
	<path style="fill:none;stroke:red;stroke-width:1px;stroke-linecap:butt;stroke-linejoin:miter;stroke-opacity:1" d="M 669.772,341.879 671.436,313.584 z" id="boundary" inkscape:connector-curvature="0" />
	<path style="fill:none;stroke:red;stroke-width:1px;stroke-linecap:butt;stroke-linejoin:miter;stroke-opacity:1" d="M 669.772,341.879 686.416,346.872 z" id="boundary" inkscape:connector-curvature="0" />
	<path style="fill:none;stroke:red;stroke-width:1px;stroke-linecap:butt;stroke-linejoin:miter;stroke-opacity:1" d="M 674.765,203.732 691.409,203.732 z" id="boundary" inkscape:connector-curvature="0" />
	<path style="fill:none;stroke:red;stroke-width:1px;stroke-linecap:butt;stroke-linejoin:miter;stroke-opacity:1" d="M 686.416,346.872 701.396,355.195 z" id="boundary" inkscape:connector-curvature="0" />
	<path style="fill:none;stroke:red;stroke-width:1px;stroke-linecap:butt;stroke-linejoin:miter;stroke-opacity:1" d="M 691.409,203.732 699.732,187.087 z" id="boundary" inkscape:connector-curvature="0" />
	<path style="fill:none;stroke:red;stroke-width:1px;stroke-linecap:butt;stroke-linejoin:miter;stroke-opacity:1" d="M 699.732,187.087 708.054,170.443 z" id="boundary" inkscape:connector-curvature="0" />
	<path style="fill:none;stroke:red;stroke-width:1px;stroke-linecap:butt;stroke-linejoin:miter;stroke-opacity:1" d="M 701.396,355.195 716.376,363.517 z" id="boundary" inkscape:connector-curvature="0" />
	<path style="fill:none;stroke:red;stroke-width:1px;stroke-linecap:butt;stroke-linejoin:miter;stroke-opacity:1" d="M 708.054,170.443 719.705,150.47 z" id="boundary" inkscape:connector-curvature="0" />
	<path style="fill:none;stroke:red;stroke-width:1px;stroke-linecap:butt;stroke-linejoin:miter;stroke-opacity:1" d="M 716.376,363.517 733.02,363.517 z" id="boundary" inkscape:connector-curvature="0" />
	<path style="fill:none;stroke:red;stroke-width:1px;stroke-linecap:butt;stroke-linejoin:miter;stroke-opacity:1" d="M 719.705,150.47 736.349,145.477 z" id="boundary" inkscape:connector-curvature="0" />
	<path style="fill:none;stroke:red;stroke-width:1px;stroke-linecap:butt;stroke-linejoin:miter;stroke-opacity:1" d="M 733.02,363.517 749.664,363.517 z" id="boundary" inkscape:connector-curvature="0" />
	<path style="fill:none;stroke:red;stroke-width:1px;stroke-linecap:butt;stroke-linejoin:miter;stroke-opacity:1" d="M 736.349,145.477 751.329,137.154 z" id="boundary" inkscape:connector-curvature="0" />
	<path style="fill:none;stroke:red;stroke-width:1px;stroke-linecap:butt;stroke-linejoin:miter;stroke-opacity:1" d="M 749.664,363.517 766.309,363.517 z" id="boundary" inkscape:connector-curvature="0" />
	<path style="fill:none;stroke:red;stroke-width:1px;stroke-linecap:butt;stroke-linejoin:miter;stroke-opacity:1" d="M 751.329,137.154 752.993,108.859 z" id="boundary" inkscape:connector-curvature="0" />
	<path style="fill:none;stroke:red;stroke-width:1px;stroke-linecap:butt;stroke-linejoin:miter;stroke-opacity:1" d="M 752.993,92.2148 752.993,108.859 z" id="boundary" inkscape:connector-curvature="0" />
	<path style="fill:none;stroke:red;stroke-width:1px;stroke-linecap:butt;stroke-linejoin:miter;stroke-opacity:1" d="M 752.993,92.2148 766.309,78.8993 z" id="boundary" inkscape:connector-curvature="0" />
	<path style="fill:none;stroke:red;stroke-width:1px;stroke-linecap:butt;stroke-linejoin:miter;stroke-opacity:1" d="M 766.309,78.8993 781.289,70.5772 z" id="boundary" inkscape:connector-curvature="0" />
	<path style="fill:none;stroke:red;stroke-width:1px;stroke-linecap:butt;stroke-linejoin:miter;stroke-opacity:1" d="M 766.309,363.517 774.631,378.497 z" id="boundary" inkscape:connector-curvature="0" />
	<path style="fill:none;stroke:red;stroke-width:1px;stroke-linecap:butt;stroke-linejoin:miter;stroke-opacity:1" d="M 774.631,378.497 786.282,391.812 z" id="boundary" inkscape:connector-curvature="0" />
	<path style="fill:none;stroke:red;stroke-width:1px;stroke-linecap:butt;stroke-linejoin:miter;stroke-opacity:1" d="M 781.289,70.5772 797.933,70.5772 z" id="boundary" inkscape:connector-curvature="0" />
	<path style="fill:none;stroke:red;stroke-width:1px;stroke-linecap:butt;stroke-linejoin:miter;stroke-opacity:1" d="M 786.282,391.812 796.268,405.128 z" id="boundary" inkscape:connector-curvature="0" />
	<path style="fill:none;stroke:red;stroke-width:1px;stroke-linecap:butt;stroke-linejoin:miter;stroke-opacity:1" d="M 796.268,405.128 806.255,418.443 z" id="boundary" inkscape:connector-curvature="0" />
	<path style="fill:none;stroke:red;stroke-width:1px;stroke-linecap:butt;stroke-linejoin:miter;stroke-opacity:1" d="M 797.933,70.5772 814.577,70.5772 z" id="boundary" inkscape:connector-curvature="0" />
	<path style="fill:none;stroke:red;stroke-width:1px;stroke-linecap:butt;stroke-linejoin:miter;stroke-opacity:1" d="M 806.255,418.443 822.899,421.772 z" id="boundary" inkscape:connector-curvature="0" />
	<path style="fill:none;stroke:red;stroke-width:1px;stroke-linecap:butt;stroke-linejoin:miter;stroke-opacity:1" d="M 814.577,70.5772 829.557,78.8993 z" id="boundary" inkscape:connector-curvature="0" />
	<path style="fill:none;stroke:red;stroke-width:1px;stroke-linecap:butt;stroke-linejoin:miter;stroke-opacity:1" d="M 822.899,421.772 839.544,426.765 z" id="boundary" inkscape:connector-curvature="0" />
	<path style="fill:none;stroke:red;stroke-width:1px;stroke-linecap:butt;stroke-linejoin:miter;stroke-opacity:1" d="M 829.557,78.8993 829.557,95.5436 z" id="boundary" inkscape:connector-curvature="0" />
	<path style="fill:none;stroke:red;stroke-width:1px;stroke-linecap:butt;stroke-linejoin:miter;stroke-opacity:1" d="M 829.557,95.5436 837.879,110.523 z" id="boundary" inkscape:connector-curvature="0" />
	<path style="fill:none;stroke:red;stroke-width:1px;stroke-linecap:butt;stroke-linejoin:miter;stroke-opacity:1" d="M 837.879,110.523 846.201,125.503 z" id="boundary" inkscape:connector-curvature="0" />
	<path style="fill:none;stroke:red;stroke-width:1px;stroke-linecap:butt;stroke-linejoin:miter;stroke-opacity:1" d="M 839.544,426.765 852.859,438.416 z" id="boundary" inkscape:connector-curvature="0" />
	<path style="fill:none;stroke:red;stroke-width:1px;stroke-linecap:butt;stroke-linejoin:miter;stroke-opacity:1" d="M 846.201,125.503 859.517,137.154 z" id="boundary" inkscape:connector-curvature="0" />
	<path style="fill:none;stroke:red;stroke-width:1px;stroke-linecap:butt;stroke-linejoin:miter;stroke-opacity:1" d="M 852.859,438.416 869.503,438.416 z" id="boundary" inkscape:connector-curvature="0" />
	<path style="fill:none;stroke:red;stroke-width:1px;stroke-linecap:butt;stroke-linejoin:miter;stroke-opacity:1" d="M 859.517,137.154 874.497,128.832 z" id="boundary" inkscape:connector-curvature="0" />
	<path style="fill:none;stroke:red;stroke-width:1px;stroke-linecap:butt;stroke-linejoin:miter;stroke-opacity:1" d="M 869.503,438.416 886.148,438.416 z" id="boundary" inkscape:connector-curvature="0" />
	<path style="fill:none;stroke:red;stroke-width:1px;stroke-linecap:butt;stroke-linejoin:miter;stroke-opacity:1" d="M 874.497,128.832 891.141,128.832 z" id="boundary" inkscape:connector-curvature="0" />
	<path style="fill:none;stroke:red;stroke-width:1px;stroke-linecap:butt;stroke-linejoin:miter;stroke-opacity:1" d="M 886.148,438.416 902.792,438.416 z" id="boundary" inkscape:connector-curvature="0" />
	<path style="fill:none;stroke:red;stroke-width:1px;stroke-linecap:butt;stroke-linejoin:miter;stroke-opacity:1" d="M 891.141,128.832 902.792,142.148 z" id="boundary" inkscape:connector-curvature="0" />
	<path style="fill:none;stroke:red;stroke-width:1px;stroke-linecap:butt;stroke-linejoin:miter;stroke-opacity:1" d="M 902.792,142.148 919.436,148.805 z" id="boundary" inkscape:connector-curvature="0" />
	<path style="fill:none;stroke:red;stroke-width:1px;stroke-linecap:butt;stroke-linejoin:miter;stroke-opacity:1" d="M 902.792,438.416 919.436,438.416 z" id="boundary" inkscape:connector-curvature="0" />
	<path style="fill:none;stroke:red;stroke-width:1px;stroke-linecap:butt;stroke-linejoin:miter;stroke-opacity:1" d="M 912.779,213.718 921.101,198.738 z" id="boundary" inkscape:connector-curvature="0" />
	<path style="fill:none;stroke:red;stroke-width:1px;stroke-linecap:butt;stroke-linejoin:miter;stroke-opacity:1" d="M 912.779,213.718 921.101,228.698 z" id="boundary" inkscape:connector-curvature="0" />
	<path style="fill:none;stroke:red;stroke-width:1px;stroke-linecap:butt;stroke-linejoin:miter;stroke-opacity:1" d="M 919.436,148.805 921.101,165.45 z" id="boundary" inkscape:connector-curvature="0" />
	<path style="fill:none;stroke:red;stroke-width:1px;stroke-linecap:butt;stroke-linejoin:miter;stroke-opacity:1" d="M 919.436,438.416 936.081,433.423 z" id="boundary" inkscape:connector-curvature="0" />
	<path style="fill:none;stroke:red;stroke-width:1px;stroke-linecap:butt;stroke-linejoin:miter;stroke-opacity:1" d="M 921.101,165.45 921.101,182.094 z" id="boundary" inkscape:connector-curvature="0" />
	<path style="fill:none;stroke:red;stroke-width:1px;stroke-linecap:butt;stroke-linejoin:miter;stroke-opacity:1" d="M 921.101,182.094 921.101,198.738 z" id="boundary" inkscape:connector-curvature="0" />
	<path style="fill:none;stroke:red;stroke-width:1px;stroke-linecap:butt;stroke-linejoin:miter;stroke-opacity:1" d="M 921.101,228.698 937.745,233.691 z" id="boundary" inkscape:connector-curvature="0" />
	<path style="fill:none;stroke:red;stroke-width:1px;stroke-linecap:butt;stroke-linejoin:miter;stroke-opacity:1" d="M 936.081,433.423 952.725,425.101 z" id="boundary" inkscape:connector-curvature="0" />
	<path style="fill:none;stroke:red;stroke-width:1px;stroke-linecap:butt;stroke-linejoin:miter;stroke-opacity:1" d="M 937.745,233.691 954.389,233.691 z" id="boundary" inkscape:connector-curvature="0" />
	<path style="fill:none;stroke:red;stroke-width:1px;stroke-linecap:butt;stroke-linejoin:miter;stroke-opacity:1" d="M 952.725,425.101 966.04,411.785 z" id="boundary" inkscape:connector-curvature="0" />
	<path style="fill:none;stroke:red;stroke-width:1px;stroke-linecap:butt;stroke-linejoin:miter;stroke-opacity:1" d="M 954.389,233.691 961.047,250.336 z" id="boundary" inkscape:connector-curvature="0" />
	<path style="fill:none;stroke:red;stroke-width:1px;stroke-linecap:butt;stroke-linejoin:miter;stroke-opacity:1" d="M 961.047,250.336 974.362,261.987 z" id="boundary" inkscape:connector-curvature="0" />
	<path style="fill:none;stroke:red;stroke-width:1px;stroke-linecap:butt;stroke-linejoin:miter;stroke-opacity:1" d="M 966.04,411.785 979.356,396.805 z" id="boundary" inkscape:connector-curvature="0" />
	<path style="fill:none;stroke:red;stroke-width:1px;stroke-linecap:butt;stroke-linejoin:miter;stroke-opacity:1" d="M 974.362,261.987 986.013,275.302 z" id="boundary" inkscape:connector-curvature="0" />
	<path style="fill:none;stroke:red;stroke-width:1px;stroke-linecap:butt;stroke-linejoin:miter;stroke-opacity:1" d="M 979.356,396.805 987.678,380.161 z" id="boundary" inkscape:connector-curvature="0" />
	<path style="fill:none;stroke:red;stroke-width:1px;stroke-linecap:butt;stroke-linejoin:miter;stroke-opacity:1" d="M 986.013,275.302 987.678,291.946 z" id="boundary" inkscape:connector-curvature="0" />
	<path style="fill:none;stroke:red;stroke-width:1px;stroke-linecap:butt;stroke-linejoin:miter;stroke-opacity:1" d="M 987.678,291.946 996,306.926 z" id="boundary" inkscape:connector-curvature="0" />
	<path style="fill:none;stroke:red;stroke-width:1px;stroke-linecap:butt;stroke-linejoin:miter;stroke-opacity:1" d="M 987.678,363.517 987.678,380.161 z" id="boundary" inkscape:connector-curvature="0" />
	<path style="fill:none;stroke:red;stroke-width:1px;stroke-linecap:butt;stroke-linejoin:miter;stroke-opacity:1" d="M 987.678,363.517 996,340.215 z" id="boundary" inkscape:connector-curvature="0" />
	<path style="fill:none;stroke:red;stroke-width:1px;stroke-linecap:butt;stroke-linejoin:miter;stroke-opacity:1" d="M 996,306.926 996,323.57 z" id="boundary" inkscape:connector-curvature="0" />
	<path style="fill:none;stroke:red;stroke-width:1px;stroke-linecap:butt;stroke-linejoin:miter;stroke-opacity:1" d="M 996,323.57 996,340.215 z" id="boundary" inkscape:connector-curvature="0" />
	<circle cx="4" cy="142.148" r="4" fill="#0" id="circle0"/>
	<circle cx="12.3221" cy="125.503" r="4" fill="#0" id="circle1"/>
	<circle cx="12.3221" cy="157.128" r="4" fill="#0" id="circle2"/>
	<circle cx="25.6376" cy="112.188" r="4" fill="#0" id="circle3"/>
	<circle cx="28.9664" cy="163.785" r="4" fill="#0" id="circle4"/>
	<circle cx="33.9597" cy="95.5436" r="4" fill="#0" id="circle5"/>
	<circle cx="45.6107" cy="167.114" r="4" fill="#0" id="circle6"/>
	<circle cx="50.604" cy="87.2215" r="4" fill="#0" id="circle7"/>
	<circle cx="58.9262" cy="153.799" r="4" fill="#0" id="circle8"/>
	<circle cx="63.9195" cy="73.906" r="4" fill="#0" id="circle9"/>
	<circle cx="75.5705" cy="147.141" r="4" fill="#0" id="circle10"/>
	<circle cx="77.2349" cy="62.255" r="4" fill="#0" id="circle11"/>
	<circle cx="88.8859" cy="157.128" r="4" fill="#0" id="circle12"/>
	<circle cx="92.2148" cy="70.5772" r="4" fill="#0" id="circle13"/>
	<circle cx="95.5436" cy="173.772" r="4" fill="#0" id="circle14"/>
	<circle cx="103.866" cy="188.752" r="4" fill="#0" id="circle15"/>
	<circle cx="103.866" cy="205.396" r="4" fill="#0" id="circle16"/>
	<circle cx="103.866" cy="366.846" r="4" fill="#0" id="circle17"/>
	<circle cx="107.195" cy="78.8993" r="4" fill="#0" id="circle18"/>
	<circle cx="112.188" cy="341.879" r="4" fill="#0" id="circle19"/>
	<circle cx="112.188" cy="381.826" r="4" fill="#0" id="circle20"/>
	<circle cx="118.846" cy="213.718" r="4" fill="#0" id="circle21"/>
	<circle cx="120.51" cy="230.362" r="4" fill="#0" id="circle22"/>
	<circle cx="120.51" cy="247.007" r="4" fill="#0" id="circle23"/>
	<circle cx="120.51" cy="263.651" r="4" fill="#0" id="circle24"/>
	<circle cx="120.51" cy="280.295" r="4" fill="#0" id="circle25"/>
	<circle cx="120.51" cy="296.94" r="4" fill="#0" id="circle26"/>
	<circle cx="120.51" cy="313.584" r="4" fill="#0" id="circle27"/>
	<circle cx="120.51" cy="396.805" r="4" fill="#0" id="circle28"/>
	<circle cx="122.174" cy="87.2215" r="4" fill="#0" id="circle29"/>
	<circle cx="137.154" cy="396.805" r="4" fill="#0" id="circle30"/>
	<circle cx="138.819" cy="92.2148" r="4" fill="#0" id="circle31"/>
	<circle cx="150.47" cy="386.819" r="4" fill="#0" id="circle32"/>
	<circle cx="153.799" cy="100.537" r="4" fill="#0" id="circle33"/>
	<circle cx="155.463" cy="296.94" r="4" fill="#0" id="circle34"/>
	<circle cx="155.463" cy="313.584" r="4" fill="#0" id="circle35"/>
	<circle cx="155.463" cy="330.228" r="4" fill="#0" id="circle36"/>
	<circle cx="155.463" cy="346.872" r="4" fill="#0" id="circle37"/>
	<circle cx="155.463" cy="363.517" r="4" fill="#0" id="circle38"/>
	<circle cx="163.785" cy="271.973" r="4" fill="#0" id="circle39"/>
	<circle cx="167.114" cy="112.188" r="4" fill="#0" id="circle40"/>
	<circle cx="180.43" cy="263.651" r="4" fill="#0" id="circle41"/>
	<circle cx="182.094" cy="120.51" r="4" fill="#0" id="circle42"/>
	<circle cx="195.409" cy="132.161" r="4" fill="#0" id="circle43"/>
	<circle cx="197.074" cy="255.329" r="4" fill="#0" id="circle44"/>
	<circle cx="205.396" cy="145.477" r="4" fill="#0" id="circle45"/>
	<circle cx="212.054" cy="247.007" r="4" fill="#0" id="circle46"/>
	<circle cx="222.04" cy="145.477" r="4" fill="#0" id="circle47"/>
	<circle cx="228.698" cy="247.007" r="4" fill="#0" id="circle48"/>
	<circle cx="238.685" cy="145.477" r="4" fill="#0" id="circle49"/>
	<circle cx="245.342" cy="247.007" r="4" fill="#0" id="circle50"/>
	<circle cx="255.329" cy="145.477" r="4" fill="#0" id="circle51"/>
	<circle cx="261.987" cy="247.007" r="4" fill="#0" id="circle52"/>
	<circle cx="271.973" cy="145.477" r="4" fill="#0" id="circle53"/>
	<circle cx="278.631" cy="247.007" r="4" fill="#0" id="circle54"/>
	<circle cx="288.617" cy="145.477" r="4" fill="#0" id="circle55"/>
	<circle cx="295.275" cy="247.007" r="4" fill="#0" id="circle56"/>
	<circle cx="305.262" cy="145.477" r="4" fill="#0" id="circle57"/>
	<circle cx="311.919" cy="247.007" r="4" fill="#0" id="circle58"/>
	<circle cx="320.242" cy="261.987" r="4" fill="#0" id="circle59"/>
	<circle cx="321.906" cy="145.477" r="4" fill="#0" id="circle60"/>
	<circle cx="328.564" cy="276.966" r="4" fill="#0" id="circle61"/>
	<circle cx="328.564" cy="300.268" r="4" fill="#0" id="circle62"/>
	<circle cx="328.564" cy="316.913" r="4" fill="#0" id="circle63"/>
	<circle cx="328.564" cy="333.557" r="4" fill="#0" id="circle64"/>
	<circle cx="328.564" cy="350.201" r="4" fill="#0" id="circle65"/>
	<circle cx="328.564" cy="366.846" r="4" fill="#0" id="circle66"/>
	<circle cx="338.55" cy="145.477" r="4" fill="#0" id="circle67"/>
	<circle cx="338.55" cy="380.161" r="4" fill="#0" id="circle68"/>
	<circle cx="348.537" cy="393.477" r="4" fill="#0" id="circle69"/>
	<circle cx="355.195" cy="145.477" r="4" fill="#0" id="circle70"/>
	<circle cx="365.181" cy="388.483" r="4" fill="#0" id="circle71"/>
	<circle cx="371.839" cy="145.477" r="4" fill="#0" id="circle72"/>
	<circle cx="378.497" cy="375.168" r="4" fill="#0" id="circle73"/>
	<circle cx="380.161" cy="313.584" r="4" fill="#0" id="circle74"/>
	<circle cx="380.161" cy="338.55" r="4" fill="#0" id="circle75"/>
	<circle cx="380.161" cy="355.195" r="4" fill="#0" id="circle76"/>
	<circle cx="385.154" cy="155.463" r="4" fill="#0" id="circle77"/>
	<circle cx="396.805" cy="168.779" r="4" fill="#0" id="circle78"/>
	<circle cx="396.805" cy="185.423" r="4" fill="#0" id="circle79"/>
	<circle cx="396.805" cy="305.262" r="4" fill="#0" id="circle80"/>
	<circle cx="413.45" cy="192.081" r="4" fill="#0" id="circle81"/>
	<circle cx="413.45" cy="305.262" r="4" fill="#0" id="circle82"/>
	<circle cx="420.107" cy="325.235" r="4" fill="#0" id="circle83"/>
	<circle cx="428.43" cy="340.215" r="4" fill="#0" id="circle84"/>
	<circle cx="428.43" cy="356.859" r="4" fill="#0" id="circle85"/>
	<circle cx="430.094" cy="195.409" r="4" fill="#0" id="circle86"/>
	<circle cx="436.752" cy="371.839" r="4" fill="#0" id="circle87"/>
	<circle cx="445.074" cy="386.819" r="4" fill="#0" id="circle88"/>
	<circle cx="446.738" cy="195.409" r="4" fill="#0" id="circle89"/>
	<circle cx="455.06" cy="400.134" r="4" fill="#0" id="circle90"/>
	<circle cx="463.383" cy="195.409" r="4" fill="#0" id="circle91"/>
	<circle cx="470.04" cy="408.456" r="4" fill="#0" id="circle92"/>
	<circle cx="478.362" cy="133.826" r="4" fill="#0" id="circle93"/>
	<circle cx="478.362" cy="150.47" r="4" fill="#0" id="circle94"/>
	<circle cx="478.362" cy="167.114" r="4" fill="#0" id="circle95"/>
	<circle cx="478.362" cy="183.758" r="4" fill="#0" id="circle96"/>
	<circle cx="486.685" cy="405.128" r="4" fill="#0" id="circle97"/>
	<circle cx="491.678" cy="120.51" r="4" fill="#0" id="circle98"/>
	<circle cx="501.664" cy="413.45" r="4" fill="#0" id="circle99"/>
	<circle cx="504.993" cy="107.195" r="4" fill="#0" id="circle100"/>
	<circle cx="516.644" cy="421.772" r="4" fill="#0" id="circle101"/>
	<circle cx="519.973" cy="25.6376" r="4" fill="#0" id="circle102"/>
	<circle cx="519.973" cy="50.604" r="4" fill="#0" id="circle103"/>
	<circle cx="521.638" cy="98.8725" r="4" fill="#0" id="circle104"/>
	<circle cx="528.295" cy="65.5839" r="4" fill="#0" id="circle105"/>
	<circle cx="531.624" cy="413.45" r="4" fill="#0" id="circle106"/>
	<circle cx="533.289" cy="12.3221" r="4" fill="#0" id="circle107"/>
	<circle cx="534.953" cy="87.2215" r="4" fill="#0" id="circle108"/>
	<circle cx="548.268" cy="4" r="4" fill="#0" id="circle109"/>
	<circle cx="548.268" cy="413.45" r="4" fill="#0" id="circle110"/>
	<circle cx="564.913" cy="4" r="4" fill="#0" id="circle111"/>
	<circle cx="564.913" cy="413.45" r="4" fill="#0" id="circle112"/>
	<circle cx="579.893" cy="12.3221" r="4" fill="#0" id="circle113"/>
	<circle cx="579.893" cy="396.805" r="4" fill="#0" id="circle114"/>
	<circle cx="588.215" cy="27.302" r="4" fill="#0" id="circle115"/>
	<circle cx="588.215" cy="238.685" r="4" fill="#0" id="circle116"/>
	<circle cx="588.215" cy="255.329" r="4" fill="#0" id="circle117"/>
	<circle cx="588.215" cy="271.973" r="4" fill="#0" id="circle118"/>
	<circle cx="593.208" cy="385.154" r="4" fill="#0" id="circle119"/>
	<circle cx="596.537" cy="42.2819" r="4" fill="#0" id="circle120"/>
	<circle cx="596.537" cy="286.953" r="4" fill="#0" id="circle121"/>
	<circle cx="596.537" cy="303.597" r="4" fill="#0" id="circle122"/>
	<circle cx="596.537" cy="320.242" r="4" fill="#0" id="circle123"/>
	<circle cx="596.537" cy="336.886" r="4" fill="#0" id="circle124"/>
	<circle cx="596.537" cy="353.53" r="4" fill="#0" id="circle125"/>
	<circle cx="604.859" cy="57.2617" r="4" fill="#0" id="circle126"/>
	<circle cx="604.859" cy="73.906" r="4" fill="#0" id="circle127"/>
	<circle cx="604.859" cy="238.685" r="4" fill="#0" id="circle128"/>
	<circle cx="609.852" cy="90.5503" r="4" fill="#0" id="circle129"/>
	<circle cx="618.174" cy="105.53" r="4" fill="#0" id="circle130"/>
	<circle cx="619.839" cy="247.007" r="4" fill="#0" id="circle131"/>
	<circle cx="629.826" cy="118.846" r="4" fill="#0" id="circle132"/>
	<circle cx="629.826" cy="135.49" r="4" fill="#0" id="circle133"/>
	<circle cx="629.826" cy="152.134" r="4" fill="#0" id="circle134"/>
	<circle cx="629.826" cy="168.779" r="4" fill="#0" id="circle135"/>
	<circle cx="629.826" cy="185.423" r="4" fill="#0" id="circle136"/>
	<circle cx="629.826" cy="260.322" r="4" fill="#0" id="circle137"/>
	<circle cx="643.141" cy="195.409" r="4" fill="#0" id="circle138"/>
	<circle cx="643.141" cy="271.973" r="4" fill="#0" id="circle139"/>
	<circle cx="653.128" cy="285.289" r="4" fill="#0" id="circle140"/>
	<circle cx="659.785" cy="195.409" r="4" fill="#0" id="circle141"/>
	<circle cx="661.45" cy="300.268" r="4" fill="#0" id="circle142"/>
	<circle cx="669.772" cy="341.879" r="4" fill="#0" id="circle143"/>
	<circle cx="671.436" cy="313.584" r="4" fill="#0" id="circle144"/>
	<circle cx="674.765" cy="203.732" r="4" fill="#0" id="circle145"/>
	<circle cx="686.416" cy="346.872" r="4" fill="#0" id="circle146"/>
	<circle cx="691.409" cy="203.732" r="4" fill="#0" id="circle147"/>
	<circle cx="699.732" cy="187.087" r="4" fill="#0" id="circle148"/>
	<circle cx="701.396" cy="355.195" r="4" fill="#0" id="circle149"/>
	<circle cx="708.054" cy="170.443" r="4" fill="#0" id="circle150"/>
	<circle cx="716.376" cy="363.517" r="4" fill="#0" id="circle151"/>
	<circle cx="719.705" cy="150.47" r="4" fill="#0" id="circle152"/>
	<circle cx="733.02" cy="363.517" r="4" fill="#0" id="circle153"/>
	<circle cx="736.349" cy="145.477" r="4" fill="#0" id="circle154"/>
	<circle cx="749.664" cy="363.517" r="4" fill="#0" id="circle155"/>
	<circle cx="751.329" cy="137.154" r="4" fill="#0" id="circle156"/>
	<circle cx="752.993" cy="92.2148" r="4" fill="#0" id="circle157"/>
	<circle cx="752.993" cy="108.859" r="4" fill="#0" id="circle158"/>
	<circle cx="766.309" cy="78.8993" r="4" fill="#0" id="circle159"/>
	<circle cx="766.309" cy="363.517" r="4" fill="#0" id="circle160"/>
	<circle cx="774.631" cy="378.497" r="4" fill="#0" id="circle161"/>
	<circle cx="781.289" cy="70.5772" r="4" fill="#0" id="circle162"/>
	<circle cx="786.282" cy="391.812" r="4" fill="#0" id="circle163"/>
	<circle cx="796.268" cy="405.128" r="4" fill="#0" id="circle164"/>
	<circle cx="797.933" cy="70.5772" r="4" fill="#0" id="circle165"/>
	<circle cx="806.255" cy="418.443" r="4" fill="#0" id="circle166"/>
	<circle cx="814.577" cy="70.5772" r="4" fill="#0" id="circle167"/>
	<circle cx="822.899" cy="421.772" r="4" fill="#0" id="circle168"/>
	<circle cx="829.557" cy="78.8993" r="4" fill="#0" id="circle169"/>
	<circle cx="829.557" cy="95.5436" r="4" fill="#0" id="circle170"/>
	<circle cx="837.879" cy="110.523" r="4" fill="#0" id="circle171"/>
	<circle cx="839.544" cy="426.765" r="4" fill="#0" id="circle172"/>
	<circle cx="846.201" cy="125.503" r="4" fill="#0" id="circle173"/>
	<circle cx="852.859" cy="438.416" r="4" fill="#0" id="circle174"/>
	<circle cx="859.517" cy="137.154" r="4" fill="#0" id="circle175"/>
	<circle cx="869.503" cy="438.416" r="4" fill="#0" id="circle176"/>
	<circle cx="874.497" cy="128.832" r="4" fill="#0" id="circle177"/>
	<circle cx="886.148" cy="438.416" r="4" fill="#0" id="circle178"/>
	<circle cx="891.141" cy="128.832" r="4" fill="#0" id="circle179"/>
	<circle cx="902.792" cy="142.148" r="4" fill="#0" id="circle180"/>
	<circle cx="902.792" cy="438.416" r="4" fill="#0" id="circle181"/>
	<circle cx="912.779" cy="213.718" r="4" fill="#0" id="circle182"/>
	<circle cx="919.436" cy="148.805" r="4" fill="#0" id="circle183"/>
	<circle cx="919.436" cy="438.416" r="4" fill="#0" id="circle184"/>
	<circle cx="921.101" cy="165.45" r="4" fill="#0" id="circle185"/>
	<circle cx="921.101" cy="182.094" r="4" fill="#0" id="circle186"/>
	<circle cx="921.101" cy="198.738" r="4" fill="#0" id="circle187"/>
	<circle cx="921.101" cy="228.698" r="4" fill="#0" id="circle188"/>
	<circle cx="936.081" cy="433.423" r="4" fill="#0" id="circle189"/>
	<circle cx="937.745" cy="233.691" r="4" fill="#0" id="circle190"/>
	<circle cx="952.725" cy="425.101" r="4" fill="#0" id="circle191"/>
	<circle cx="954.389" cy="233.691" r="4" fill="#0" id="circle192"/>
	<circle cx="961.047" cy="250.336" r="4" fill="#0" id="circle193"/>
	<circle cx="966.04" cy="411.785" r="4" fill="#0" id="circle194"/>
	<circle cx="974.362" cy="261.987" r="4" fill="#0" id="circle195"/>
	<circle cx="979.356" cy="396.805" r="4" fill="#0" id="circle196"/>
	<circle cx="986.013" cy="275.302" r="4" fill="#0" id="circle197"/>
	<circle cx="987.678" cy="291.946" r="4" fill="#0" id="circle198"/>
	<circle cx="987.678" cy="363.517" r="4" fill="#0" id="circle199"/>
	<circle cx="987.678" cy="380.161" r="4" fill="#0" id="circle200"/>
	<circle cx="996" cy="306.926" r="4" fill="#0" id="circle201"/>
	<circle cx="996" cy="323.57" r="4" fill="#0" id="circle202"/>
	<circle cx="996" cy="340.215" r="4" fill="#0" id="circle203"/>
	</g>
</svg>