<?xml version="1.0" encoding="UTF-8" standalone="no"?>
<!-- Created with CurveBenchmark -->
<svg
	xmlns:dc="http://purl.org/dc/elements/1.1/"
	xmlns:cc="http://creativecommons.org/ns#"
	xmlns:rdf="http://www.w3.org/1999/02/22-rdf-syntax-ns#"
	xmlns:svg="http://www.w3.org/2000/svg"
	xmlns="http://www.w3.org/2000/svg"
	xmlns:sodipodi="http://sodipodi.sourceforge.net/DTD/sodipodi-0.dtd"
	xmlns:inkscape="http://www.inkscape.org/namespaces/inkscape"
	width="1000"
	height="1000"
	id="svg2"
	version="1.1"
	sodipodi:docname="manifold/fitconnect-sink145.png.txt">
<defs
	id="defs4" />
<metadata
	id="metadata7">
	<rdf:RDF>
		<cc:Work
			rdf:about="">
			<dc:format>image/svg+xml</dc:format>
			<dc:type
				rdf:resource="http://purl.org/dc/dcmitype/StillImage" />
			<dc:title></dc:title>
		</cc:Work>
	</rdf:RDF>
</metadata>
<g
	inkscape:label="Layer 1"
	inkscape:groupmode="layer"
	id="layer1">
	<path style="fill:none;stroke:red;stroke-width:1px;stroke-linecap:butt;stroke-linejoin:miter;stroke-opacity:1" d="M 4,294.341 42.7122,265.307 z" id="boundary" inkscape:connector-curvature="0" />
	<path style="fill:none;stroke:red;stroke-width:1px;stroke-linecap:butt;stroke-linejoin:miter;stroke-opacity:1" d="M 4,294.341 47.5512,318.537 z" id="boundary" inkscape:connector-curvature="0" />
	<path style="fill:none;stroke:red;stroke-width:1px;stroke-linecap:butt;stroke-linejoin:miter;stroke-opacity:1" d="M 42.7122,265.307 91.1024,265.307 z" id="boundary" inkscape:connector-curvature="0" />
	<path style="fill:none;stroke:red;stroke-width:1px;stroke-linecap:butt;stroke-linejoin:miter;stroke-opacity:1" d="M 47.5512,318.537 95.9415,318.537 z" id="boundary" inkscape:connector-curvature="0" />
	<path style="fill:none;stroke:red;stroke-width:1px;stroke-linecap:butt;stroke-linejoin:miter;stroke-opacity:1" d="M 91.1024,265.307 115.298,221.756 z" id="boundary" inkscape:connector-curvature="0" />
	<path style="fill:none;stroke:red;stroke-width:1px;stroke-linecap:butt;stroke-linejoin:miter;stroke-opacity:1" d="M 95.9415,318.537 144.332,318.537 z" id="boundary" inkscape:connector-curvature="0" />
	<path style="fill:none;stroke:red;stroke-width:1px;stroke-linecap:butt;stroke-linejoin:miter;stroke-opacity:1" d="M 115.298,221.756 129.815,168.527 z" id="boundary" inkscape:connector-curvature="0" />
	<path style="fill:none;stroke:red;stroke-width:1px;stroke-linecap:butt;stroke-linejoin:miter;stroke-opacity:1" d="M 129.815,168.527 178.205,168.527 z" id="boundary" inkscape:connector-curvature="0" />
	<path style="fill:none;stroke:red;stroke-width:1px;stroke-linecap:butt;stroke-linejoin:miter;stroke-opacity:1" d="M 144.332,318.537 178.205,357.249 z" id="boundary" inkscape:connector-curvature="0" />
	<path style="fill:none;stroke:red;stroke-width:1px;stroke-linecap:butt;stroke-linejoin:miter;stroke-opacity:1" d="M 178.205,168.527 226.595,168.527 z" id="boundary" inkscape:connector-curvature="0" />
	<path style="fill:none;stroke:red;stroke-width:1px;stroke-linecap:butt;stroke-linejoin:miter;stroke-opacity:1" d="M 178.205,357.249 207.239,395.961 z" id="boundary" inkscape:connector-curvature="0" />
	<path style="fill:none;stroke:red;stroke-width:1px;stroke-linecap:butt;stroke-linejoin:miter;stroke-opacity:1" d="M 207.239,395.961 245.951,424.995 z" id="boundary" inkscape:connector-curvature="0" />
	<path style="fill:none;stroke:red;stroke-width:1px;stroke-linecap:butt;stroke-linejoin:miter;stroke-opacity:1" d="M 226.595,168.527 274.985,168.527 z" id="boundary" inkscape:connector-curvature="0" />
	<path style="fill:none;stroke:red;stroke-width:1px;stroke-linecap:butt;stroke-linejoin:miter;stroke-opacity:1" d="M 226.595,952.449 250.79,996 z" id="boundary" inkscape:connector-curvature="0" />
	<path style="fill:none;stroke:red;stroke-width:1px;stroke-linecap:butt;stroke-linejoin:miter;stroke-opacity:1" d="M 226.595,952.449 255.629,904.059 z" id="boundary" inkscape:connector-curvature="0" />
	<path style="fill:none;stroke:red;stroke-width:1px;stroke-linecap:butt;stroke-linejoin:miter;stroke-opacity:1" d="M 245.951,424.995 274.985,463.707 z" id="boundary" inkscape:connector-curvature="0" />
	<path style="fill:none;stroke:red;stroke-width:1px;stroke-linecap:butt;stroke-linejoin:miter;stroke-opacity:1" d="M 250.79,996 299.18,996 z" id="boundary" inkscape:connector-curvature="0" />
	<path style="fill:none;stroke:red;stroke-width:1px;stroke-linecap:butt;stroke-linejoin:miter;stroke-opacity:1" d="M 255.629,904.059 274.985,850.829 z" id="boundary" inkscape:connector-curvature="0" />
	<path style="fill:none;stroke:red;stroke-width:1px;stroke-linecap:butt;stroke-linejoin:miter;stroke-opacity:1" d="M 274.985,168.527 323.376,168.527 z" id="boundary" inkscape:connector-curvature="0" />
	<path style="fill:none;stroke:red;stroke-width:1px;stroke-linecap:butt;stroke-linejoin:miter;stroke-opacity:1" d="M 274.985,463.707 274.985,512.098 z" id="boundary" inkscape:connector-curvature="0" />
	<path style="fill:none;stroke:red;stroke-width:1px;stroke-linecap:butt;stroke-linejoin:miter;stroke-opacity:1" d="M 274.985,512.098 274.985,560.488 z" id="boundary" inkscape:connector-curvature="0" />
	<path style="fill:none;stroke:red;stroke-width:1px;stroke-linecap:butt;stroke-linejoin:miter;stroke-opacity:1" d="M 274.985,560.488 274.985,608.878 z" id="boundary" inkscape:connector-curvature="0" />
	<path style="fill:none;stroke:red;stroke-width:1px;stroke-linecap:butt;stroke-linejoin:miter;stroke-opacity:1" d="M 274.985,608.878 274.985,657.268 z" id="boundary" inkscape:connector-curvature="0" />
	<path style="fill:none;stroke:red;stroke-width:1px;stroke-linecap:butt;stroke-linejoin:miter;stroke-opacity:1" d="M 274.985,657.268 274.985,705.659 z" id="boundary" inkscape:connector-curvature="0" />
	<path style="fill:none;stroke:red;stroke-width:1px;stroke-linecap:butt;stroke-linejoin:miter;stroke-opacity:1" d="M 274.985,705.659 274.985,754.049 z" id="boundary" inkscape:connector-curvature="0" />
	<path style="fill:none;stroke:red;stroke-width:1px;stroke-linecap:butt;stroke-linejoin:miter;stroke-opacity:1" d="M 274.985,754.049 274.985,802.439 z" id="boundary" inkscape:connector-curvature="0" />
	<path style="fill:none;stroke:red;stroke-width:1px;stroke-linecap:butt;stroke-linejoin:miter;stroke-opacity:1" d="M 274.985,802.439 274.985,850.829 z" id="boundary" inkscape:connector-curvature="0" />
	<path style="fill:none;stroke:red;stroke-width:1px;stroke-linecap:butt;stroke-linejoin:miter;stroke-opacity:1" d="M 299.18,996 347.571,996 z" id="boundary" inkscape:connector-curvature="0" />
	<path style="fill:none;stroke:red;stroke-width:1px;stroke-linecap:butt;stroke-linejoin:miter;stroke-opacity:1" d="M 323.376,168.527 371.766,173.366 z" id="boundary" inkscape:connector-curvature="0" />
	<path style="fill:none;stroke:red;stroke-width:1px;stroke-linecap:butt;stroke-linejoin:miter;stroke-opacity:1" d="M 347.571,996 395.961,996 z" id="boundary" inkscape:connector-curvature="0" />
	<path style="fill:none;stroke:red;stroke-width:1px;stroke-linecap:butt;stroke-linejoin:miter;stroke-opacity:1" d="M 371.766,173.366 400.8,42.7122 z" id="boundary" inkscape:connector-curvature="0" />
	<path style="fill:none;stroke:red;stroke-width:1px;stroke-linecap:butt;stroke-linejoin:miter;stroke-opacity:1" d="M 395.961,996 444.351,996 z" id="boundary" inkscape:connector-curvature="0" />
	<path style="fill:none;stroke:red;stroke-width:1px;stroke-linecap:butt;stroke-linejoin:miter;stroke-opacity:1" d="M 400.8,42.7122 429.834,4 z" id="boundary" inkscape:connector-curvature="0" />
	<path style="fill:none;stroke:red;stroke-width:1px;stroke-linecap:butt;stroke-linejoin:miter;stroke-opacity:1" d="M 429.834,4 458.868,42.7122 z" id="boundary" inkscape:connector-curvature="0" />
	<path style="fill:none;stroke:red;stroke-width:1px;stroke-linecap:butt;stroke-linejoin:miter;stroke-opacity:1" d="M 444.351,996 492.741,996 z" id="boundary" inkscape:connector-curvature="0" />
	<path style="fill:none;stroke:red;stroke-width:1px;stroke-linecap:butt;stroke-linejoin:miter;stroke-opacity:1" d="M 454.029,458.868 454.029,507.259 z" id="boundary" inkscape:connector-curvature="0" />
	<path style="fill:none;stroke:red;stroke-width:1px;stroke-linecap:butt;stroke-linejoin:miter;stroke-opacity:1" d="M 454.029,458.868 502.42,444.351 z" id="boundary" inkscape:connector-curvature="0" />
	<path style="fill:none;stroke:red;stroke-width:1px;stroke-linecap:butt;stroke-linejoin:miter;stroke-opacity:1" d="M 454.029,507.259 454.029,555.649 z" id="boundary" inkscape:connector-curvature="0" />
	<path style="fill:none;stroke:red;stroke-width:1px;stroke-linecap:butt;stroke-linejoin:miter;stroke-opacity:1" d="M 454.029,555.649 454.029,604.039 z" id="boundary" inkscape:connector-curvature="0" />
	<path style="fill:none;stroke:red;stroke-width:1px;stroke-linecap:butt;stroke-linejoin:miter;stroke-opacity:1" d="M 454.029,604.039 454.029,652.429 z" id="boundary" inkscape:connector-curvature="0" />
	<path style="fill:none;stroke:red;stroke-width:1px;stroke-linecap:butt;stroke-linejoin:miter;stroke-opacity:1" d="M 454.029,652.429 454.029,700.82 z" id="boundary" inkscape:connector-curvature="0" />
	<path style="fill:none;stroke:red;stroke-width:1px;stroke-linecap:butt;stroke-linejoin:miter;stroke-opacity:1" d="M 454.029,700.82 454.029,749.21 z" id="boundary" inkscape:connector-curvature="0" />
	<path style="fill:none;stroke:red;stroke-width:1px;stroke-linecap:butt;stroke-linejoin:miter;stroke-opacity:1" d="M 454.029,749.21 454.029,797.6 z" id="boundary" inkscape:connector-curvature="0" />
	<path style="fill:none;stroke:red;stroke-width:1px;stroke-linecap:butt;stroke-linejoin:miter;stroke-opacity:1" d="M 454.029,797.6 454.029,845.99 z" id="boundary" inkscape:connector-curvature="0" />
	<path style="fill:none;stroke:red;stroke-width:1px;stroke-linecap:butt;stroke-linejoin:miter;stroke-opacity:1" d="M 454.029,845.99 468.546,894.38 z" id="boundary" inkscape:connector-curvature="0" />
	<path style="fill:none;stroke:red;stroke-width:1px;stroke-linecap:butt;stroke-linejoin:miter;stroke-opacity:1" d="M 458.868,42.7122 468.546,91.1024 z" id="boundary" inkscape:connector-curvature="0" />
	<path style="fill:none;stroke:red;stroke-width:1px;stroke-linecap:butt;stroke-linejoin:miter;stroke-opacity:1" d="M 468.546,91.1024 468.546,139.493 z" id="boundary" inkscape:connector-curvature="0" />
	<path style="fill:none;stroke:red;stroke-width:1px;stroke-linecap:butt;stroke-linejoin:miter;stroke-opacity:1" d="M 468.546,139.493 507.259,173.366 z" id="boundary" inkscape:connector-curvature="0" />
	<path style="fill:none;stroke:red;stroke-width:1px;stroke-linecap:butt;stroke-linejoin:miter;stroke-opacity:1" d="M 468.546,894.38 487.902,942.771 z" id="boundary" inkscape:connector-curvature="0" />
	<path style="fill:none;stroke:red;stroke-width:1px;stroke-linecap:butt;stroke-linejoin:miter;stroke-opacity:1" d="M 487.902,942.771 492.741,996 z" id="boundary" inkscape:connector-curvature="0" />
	<path style="fill:none;stroke:red;stroke-width:1px;stroke-linecap:butt;stroke-linejoin:miter;stroke-opacity:1" d="M 502.42,444.351 550.81,420.156 z" id="boundary" inkscape:connector-curvature="0" />
	<path style="fill:none;stroke:red;stroke-width:1px;stroke-linecap:butt;stroke-linejoin:miter;stroke-opacity:1" d="M 507.259,173.366 555.649,178.205 z" id="boundary" inkscape:connector-curvature="0" />
	<path style="fill:none;stroke:red;stroke-width:1px;stroke-linecap:butt;stroke-linejoin:miter;stroke-opacity:1" d="M 550.81,420.156 589.522,391.122 z" id="boundary" inkscape:connector-curvature="0" />
	<path style="fill:none;stroke:red;stroke-width:1px;stroke-linecap:butt;stroke-linejoin:miter;stroke-opacity:1" d="M 555.649,178.205 604.039,178.205 z" id="boundary" inkscape:connector-curvature="0" />
	<path style="fill:none;stroke:red;stroke-width:1px;stroke-linecap:butt;stroke-linejoin:miter;stroke-opacity:1" d="M 589.522,391.122 618.556,342.732 z" id="boundary" inkscape:connector-curvature="0" />
	<path style="fill:none;stroke:red;stroke-width:1px;stroke-linecap:butt;stroke-linejoin:miter;stroke-opacity:1" d="M 604.039,178.205 652.429,168.527 z" id="boundary" inkscape:connector-curvature="0" />
	<path style="fill:none;stroke:red;stroke-width:1px;stroke-linecap:butt;stroke-linejoin:miter;stroke-opacity:1" d="M 618.556,342.732 662.107,318.537 z" id="boundary" inkscape:connector-curvature="0" />
	<path style="fill:none;stroke:red;stroke-width:1px;stroke-linecap:butt;stroke-linejoin:miter;stroke-opacity:1" d="M 652.429,168.527 700.82,168.527 z" id="boundary" inkscape:connector-curvature="0" />
	<path style="fill:none;stroke:red;stroke-width:1px;stroke-linecap:butt;stroke-linejoin:miter;stroke-opacity:1" d="M 662.107,318.537 710.498,318.537 z" id="boundary" inkscape:connector-curvature="0" />
	<path style="fill:none;stroke:red;stroke-width:1px;stroke-linecap:butt;stroke-linejoin:miter;stroke-opacity:1" d="M 700.82,168.527 749.21,168.527 z" id="boundary" inkscape:connector-curvature="0" />
	<path style="fill:none;stroke:red;stroke-width:1px;stroke-linecap:butt;stroke-linejoin:miter;stroke-opacity:1" d="M 710.498,318.537 758.888,318.537 z" id="boundary" inkscape:connector-curvature="0" />
	<path style="fill:none;stroke:red;stroke-width:1px;stroke-linecap:butt;stroke-linejoin:miter;stroke-opacity:1" d="M 749.21,168.527 797.6,168.527 z" id="boundary" inkscape:connector-curvature="0" />
	<path style="fill:none;stroke:red;stroke-width:1px;stroke-linecap:butt;stroke-linejoin:miter;stroke-opacity:1" d="M 758.888,318.537 807.278,318.537 z" id="boundary" inkscape:connector-curvature="0" />
	<path style="fill:none;stroke:red;stroke-width:1px;stroke-linecap:butt;stroke-linejoin:miter;stroke-opacity:1" d="M 797.6,168.527 802.439,216.917 z" id="boundary" inkscape:connector-curvature="0" />
	<path style="fill:none;stroke:red;stroke-width:1px;stroke-linecap:butt;stroke-linejoin:miter;stroke-opacity:1" d="M 802.439,216.917 802.439,265.307 z" id="boundary" inkscape:connector-curvature="0" />
	<path style="fill:none;stroke:red;stroke-width:1px;stroke-linecap:butt;stroke-linejoin:miter;stroke-opacity:1" d="M 802.439,265.307 807.278,318.537 z" id="boundary" inkscape:connector-curvature="0" />
	<circle cx="4" cy="294.341" r="4" fill="#0" id="circle0"/>
	<circle cx="42.7122" cy="265.307" r="4" fill="#0" id="circle1"/>
	<circle cx="47.5512" cy="318.537" r="4" fill="#0" id="circle2"/>
	<circle cx="91.1024" cy="265.307" r="4" fill="#0" id="circle3"/>
	<circle cx="95.9415" cy="318.537" r="4" fill="#0" id="circle4"/>
	<circle cx="115.298" cy="221.756" r="4" fill="#0" id="circle5"/>
	<circle cx="129.815" cy="168.527" r="4" fill="#0" id="circle6"/>
	<circle cx="144.332" cy="318.537" r="4" fill="#0" id="circle7"/>
	<circle cx="178.205" cy="168.527" r="4" fill="#0" id="circle8"/>
	<circle cx="178.205" cy="357.249" r="4" fill="#0" id="circle9"/>
	<circle cx="207.239" cy="395.961" r="4" fill="#0" id="circle10"/>
	<circle cx="226.595" cy="168.527" r="4" fill="#0" id="circle11"/>
	<circle cx="226.595" cy="952.449" r="4" fill="#0" id="circle12"/>
	<circle cx="245.951" cy="424.995" r="4" fill="#0" id="circle13"/>
	<circle cx="250.79" cy="996" r="4" fill="#0" id="circle14"/>
	<circle cx="255.629" cy="904.059" r="4" fill="#0" id="circle15"/>
	<circle cx="274.985" cy="168.527" r="4" fill="#0" id="circle16"/>
	<circle cx="274.985" cy="463.707" r="4" fill="#0" id="circle17"/>
	<circle cx="274.985" cy="512.098" r="4" fill="#0" id="circle18"/>
	<circle cx="274.985" cy="560.488" r="4" fill="#0" id="circle19"/>
	<circle cx="274.985" cy="608.878" r="4" fill="#0" id="circle20"/>
	<circle cx="274.985" cy="657.268" r="4" fill="#0" id="circle21"/>
	<circle cx="274.985" cy="705.659" r="4" fill="#0" id="circle22"/>
	<circle cx="274.985" cy="754.049" r="4" fill="#0" id="circle23"/>
	<circle cx="274.985" cy="802.439" r="4" fill="#0" id="circle24"/>
	<circle cx="274.985" cy="850.829" r="4" fill="#0" id="circle25"/>
	<circle cx="299.18" cy="996" r="4" fill="#0" id="circle26"/>
	<circle cx="323.376" cy="168.527" r="4" fill="#0" id="circle27"/>
	<circle cx="347.571" cy="996" r="4" fill="#0" id="circle28"/>
	<circle cx="371.766" cy="173.366" r="4" fill="#0" id="circle29"/>
	<circle cx="395.961" cy="996" r="4" fill="#0" id="circle30"/>
	<circle cx="400.8" cy="42.7122" r="4" fill="#0" id="circle31"/>
	<circle cx="405.639" cy="91.1024" r="4" fill="#0" id="circle32"/>
	<circle cx="420.156" cy="178.205" r="4" fill="#0" id="circle33"/>
	<circle cx="429.834" cy="4" r="4" fill="#0" id="circle34"/>
	<circle cx="444.351" cy="996" r="4" fill="#0" id="circle35"/>
	<circle cx="454.029" cy="458.868" r="4" fill="#0" id="circle36"/>
	<circle cx="454.029" cy="507.259" r="4" fill="#0" id="circle37"/>
	<circle cx="454.029" cy="555.649" r="4" fill="#0" id="circle38"/>
	<circle cx="454.029" cy="604.039" r="4" fill="#0" id="circle39"/>
	<circle cx="454.029" cy="652.429" r="4" fill="#0" id="circle40"/>
	<circle cx="454.029" cy="700.82" r="4" fill="#0" id="circle41"/>
	<circle cx="454.029" cy="749.21" r="4" fill="#0" id="circle42"/>
	<circle cx="454.029" cy="797.6" r="4" fill="#0" id="circle43"/>
	<circle cx="454.029" cy="845.99" r="4" fill="#0" id="circle44"/>
	<circle cx="458.868" cy="42.7122" r="4" fill="#0" id="circle45"/>
	<circle cx="468.546" cy="91.1024" r="4" fill="#0" id="circle46"/>
	<circle cx="468.546" cy="139.493" r="4" fill="#0" id="circle47"/>
	<circle cx="468.546" cy="894.38" r="4" fill="#0" id="circle48"/>
	<circle cx="487.902" cy="942.771" r="4" fill="#0" id="circle49"/>
	<circle cx="492.741" cy="996" r="4" fill="#0" id="circle50"/>
	<circle cx="502.42" cy="444.351" r="4" fill="#0" id="circle51"/>
	<circle cx="507.259" cy="173.366" r="4" fill="#0" id="circle52"/>
	<circle cx="550.81" cy="420.156" r="4" fill="#0" id="circle53"/>
	<circle cx="555.649" cy="178.205" r="4" fill="#0" id="circle54"/>
	<circle cx="589.522" cy="391.122" r="4" fill="#0" id="circle55"/>
	<circle cx="604.039" cy="178.205" r="4" fill="#0" id="circle56"/>
	<circle cx="618.556" cy="342.732" r="4" fill="#0" id="circle57"/>
	<circle cx="652.429" cy="168.527" r="4" fill="#0" id="circle58"/>
	<circle cx="662.107" cy="318.537" r="4" fill="#0" id="circle59"/>
	<circle cx="700.82" cy="168.527" r="4" fill="#0" id="circle60"/>
	<circle cx="710.498" cy="318.537" r="4" fill="#0" id="circle61"/>
	<circle cx="749.21" cy="168.527" r="4" fill="#0" id="circle62"/>
	<circle cx="758.888" cy="318.537" r="4" fill="#0" id="circle63"/>
	<circle cx="797.6" cy="168.527" r="4" fill="#0" id="circle64"/>
	<circle cx="802.439" cy="216.917" r="4" fill="#0" id="circle65"/>
	<circle cx="802.439" cy="265.307" r="4" fill="#0" id="circle66"/>
	<circle cx="807.278" cy="318.537" r="4" fill="#0" id="circle67"/>
	</g>
</svg>