<?xml version="1.0" encoding="UTF-8" standalone="no"?>
<!-- Created with CurveBenchmark -->
<svg
	xmlns:dc="http://purl.org/dc/elements/1.1/"
	xmlns:cc="http://creativecommons.org/ns#"
	xmlns:rdf="http://www.w3.org/1999/02/22-rdf-syntax-ns#"
	xmlns:svg="http://www.w3.org/2000/svg"
	xmlns="http://www.w3.org/2000/svg"
	xmlns:sodipodi="http://sodipodi.sourceforge.net/DTD/sodipodi-0.dtd"
	xmlns:inkscape="http://www.inkscape.org/namespaces/inkscape"
	width="1000"
	height="1000"
	id="svg2"
	version="1.1"
	sodipodi:docname="manifold/fitconnect-textbox51.png.txt">
<defs
	id="defs4" />
<metadata
	id="metadata7">
	<rdf:RDF>
		<cc:Work
			rdf:about="">
			<dc:format>image/svg+xml</dc:format>
			<dc:type
				rdf:resource="http://purl.org/dc/dcmitype/StillImage" />
			<dc:title></dc:title>
		</cc:Work>
	</rdf:RDF>
</metadata>
<g
	inkscape:label="Layer 1"
	inkscape:groupmode="layer"
	id="layer1">
	<path style="fill:none;stroke:red;stroke-width:1px;stroke-linecap:butt;stroke-linejoin:miter;stroke-opacity:1" d="M 4,392.58 4,411.262 z" id="boundary" inkscape:connector-curvature="0" />
	<path style="fill:none;stroke:red;stroke-width:1px;stroke-linecap:butt;stroke-linejoin:miter;stroke-opacity:1" d="M 4,392.58 13.3409,373.898 z" id="boundary" inkscape:connector-curvature="0" />
	<path style="fill:none;stroke:red;stroke-width:1px;stroke-linecap:butt;stroke-linejoin:miter;stroke-opacity:1" d="M 4,411.262 4,429.944 z" id="boundary" inkscape:connector-curvature="0" />
	<path style="fill:none;stroke:red;stroke-width:1px;stroke-linecap:butt;stroke-linejoin:miter;stroke-opacity:1" d="M 4,429.944 13.3409,446.757 z" id="boundary" inkscape:connector-curvature="0" />
	<path style="fill:none;stroke:red;stroke-width:1px;stroke-linecap:butt;stroke-linejoin:miter;stroke-opacity:1" d="M 13.3409,355.217 13.3409,373.898 z" id="boundary" inkscape:connector-curvature="0" />
	<path style="fill:none;stroke:red;stroke-width:1px;stroke-linecap:butt;stroke-linejoin:miter;stroke-opacity:1" d="M 13.3409,355.217 32.0226,345.876 z" id="boundary" inkscape:connector-curvature="0" />
	<path style="fill:none;stroke:red;stroke-width:1px;stroke-linecap:butt;stroke-linejoin:miter;stroke-opacity:1" d="M 13.3409,446.757 22.6817,463.571 z" id="boundary" inkscape:connector-curvature="0" />
	<path style="fill:none;stroke:red;stroke-width:1px;stroke-linecap:butt;stroke-linejoin:miter;stroke-opacity:1" d="M 13.3409,570.056 13.3409,588.738 z" id="boundary" inkscape:connector-curvature="0" />
	<path style="fill:none;stroke:red;stroke-width:1px;stroke-linecap:butt;stroke-linejoin:miter;stroke-opacity:1" d="M 13.3409,570.056 32.0226,551.375 z" id="boundary" inkscape:connector-curvature="0" />
	<path style="fill:none;stroke:red;stroke-width:1px;stroke-linecap:butt;stroke-linejoin:miter;stroke-opacity:1" d="M 13.3409,588.738 13.3409,607.42 z" id="boundary" inkscape:connector-curvature="0" />
	<path style="fill:none;stroke:red;stroke-width:1px;stroke-linecap:butt;stroke-linejoin:miter;stroke-opacity:1" d="M 13.3409,607.42 32.0226,613.024 z" id="boundary" inkscape:connector-curvature="0" />
	<path style="fill:none;stroke:red;stroke-width:1px;stroke-linecap:butt;stroke-linejoin:miter;stroke-opacity:1" d="M 22.6817,463.571 32.0226,480.384 z" id="boundary" inkscape:connector-curvature="0" />
	<path style="fill:none;stroke:red;stroke-width:1px;stroke-linecap:butt;stroke-linejoin:miter;stroke-opacity:1" d="M 32.0226,327.194 32.0226,345.876 z" id="boundary" inkscape:connector-curvature="0" />
	<path style="fill:none;stroke:red;stroke-width:1px;stroke-linecap:butt;stroke-linejoin:miter;stroke-opacity:1" d="M 32.0226,327.194 50.7043,317.853 z" id="boundary" inkscape:connector-curvature="0" />
	<path style="fill:none;stroke:red;stroke-width:1px;stroke-linecap:butt;stroke-linejoin:miter;stroke-opacity:1" d="M 32.0226,480.384 35.7589,499.066 z" id="boundary" inkscape:connector-curvature="0" />
	<path style="fill:none;stroke:red;stroke-width:1px;stroke-linecap:butt;stroke-linejoin:miter;stroke-opacity:1" d="M 32.0226,532.693 32.0226,551.375 z" id="boundary" inkscape:connector-curvature="0" />
	<path style="fill:none;stroke:red;stroke-width:1px;stroke-linecap:butt;stroke-linejoin:miter;stroke-opacity:1" d="M 32.0226,532.693 50.7043,510.275 z" id="boundary" inkscape:connector-curvature="0" />
	<path style="fill:none;stroke:red;stroke-width:1px;stroke-linecap:butt;stroke-linejoin:miter;stroke-opacity:1" d="M 32.0226,613.024 37.6271,631.706 z" id="boundary" inkscape:connector-curvature="0" />
	<path style="fill:none;stroke:red;stroke-width:1px;stroke-linecap:butt;stroke-linejoin:miter;stroke-opacity:1" d="M 35.7589,499.066 50.7043,510.275 z" id="boundary" inkscape:connector-curvature="0" />
	<path style="fill:none;stroke:red;stroke-width:1px;stroke-linecap:butt;stroke-linejoin:miter;stroke-opacity:1" d="M 37.6271,631.706 50.7043,646.652 z" id="boundary" inkscape:connector-curvature="0" />
	<path style="fill:none;stroke:red;stroke-width:1px;stroke-linecap:butt;stroke-linejoin:miter;stroke-opacity:1" d="M 50.7043,317.853 60.0452,299.171 z" id="boundary" inkscape:connector-curvature="0" />
	<path style="fill:none;stroke:red;stroke-width:1px;stroke-linecap:butt;stroke-linejoin:miter;stroke-opacity:1" d="M 50.7043,646.652 60.0452,663.465 z" id="boundary" inkscape:connector-curvature="0" />
	<path style="fill:none;stroke:red;stroke-width:1px;stroke-linecap:butt;stroke-linejoin:miter;stroke-opacity:1" d="M 60.0452,299.171 78.7269,293.567 z" id="boundary" inkscape:connector-curvature="0" />
	<path style="fill:none;stroke:red;stroke-width:1px;stroke-linecap:butt;stroke-linejoin:miter;stroke-opacity:1" d="M 60.0452,663.465 78.7269,669.07 z" id="boundary" inkscape:connector-curvature="0" />
	<path style="fill:none;stroke:red;stroke-width:1px;stroke-linecap:butt;stroke-linejoin:miter;stroke-opacity:1" d="M 78.7269,293.567 88.0678,261.808 z" id="boundary" inkscape:connector-curvature="0" />
	<path style="fill:none;stroke:red;stroke-width:1px;stroke-linecap:butt;stroke-linejoin:miter;stroke-opacity:1" d="M 78.7269,669.07 88.0678,685.883 z" id="boundary" inkscape:connector-curvature="0" />
	<path style="fill:none;stroke:red;stroke-width:1px;stroke-linecap:butt;stroke-linejoin:miter;stroke-opacity:1" d="M 88.0678,243.126 88.0678,261.808 z" id="boundary" inkscape:connector-curvature="0" />
	<path style="fill:none;stroke:red;stroke-width:1px;stroke-linecap:butt;stroke-linejoin:miter;stroke-opacity:1" d="M 88.0678,243.126 97.4087,224.444 z" id="boundary" inkscape:connector-curvature="0" />
	<path style="fill:none;stroke:red;stroke-width:1px;stroke-linecap:butt;stroke-linejoin:miter;stroke-opacity:1" d="M 88.0678,685.883 103.013,697.092 z" id="boundary" inkscape:connector-curvature="0" />
	<path style="fill:none;stroke:red;stroke-width:1px;stroke-linecap:butt;stroke-linejoin:miter;stroke-opacity:1" d="M 88.0678,840.942 88.0678,859.623 z" id="boundary" inkscape:connector-curvature="0" />
	<path style="fill:none;stroke:red;stroke-width:1px;stroke-linecap:butt;stroke-linejoin:miter;stroke-opacity:1" d="M 88.0678,840.942 103.013,825.996 z" id="boundary" inkscape:connector-curvature="0" />
	<path style="fill:none;stroke:red;stroke-width:1px;stroke-linecap:butt;stroke-linejoin:miter;stroke-opacity:1" d="M 88.0678,859.623 88.0678,878.305 z" id="boundary" inkscape:connector-curvature="0" />
	<path style="fill:none;stroke:red;stroke-width:1px;stroke-linecap:butt;stroke-linejoin:miter;stroke-opacity:1" d="M 88.0678,878.305 88.0678,896.987 z" id="boundary" inkscape:connector-curvature="0" />
	<path style="fill:none;stroke:red;stroke-width:1px;stroke-linecap:butt;stroke-linejoin:miter;stroke-opacity:1" d="M 88.0678,896.987 97.4087,913.8 z" id="boundary" inkscape:connector-curvature="0" />
	<path style="fill:none;stroke:red;stroke-width:1px;stroke-linecap:butt;stroke-linejoin:miter;stroke-opacity:1" d="M 97.4087,205.763 97.4087,224.444 z" id="boundary" inkscape:connector-curvature="0" />
	<path style="fill:none;stroke:red;stroke-width:1px;stroke-linecap:butt;stroke-linejoin:miter;stroke-opacity:1" d="M 97.4087,205.763 116.09,196.422 z" id="boundary" inkscape:connector-curvature="0" />
	<path style="fill:none;stroke:red;stroke-width:1px;stroke-linecap:butt;stroke-linejoin:miter;stroke-opacity:1" d="M 97.4087,913.8 116.09,921.273 z" id="boundary" inkscape:connector-curvature="0" />
	<path style="fill:none;stroke:red;stroke-width:1px;stroke-linecap:butt;stroke-linejoin:miter;stroke-opacity:1" d="M 103.013,697.092 121.695,704.565 z" id="boundary" inkscape:connector-curvature="0" />
	<path style="fill:none;stroke:red;stroke-width:1px;stroke-linecap:butt;stroke-linejoin:miter;stroke-opacity:1" d="M 103.013,825.996 116.09,803.578 z" id="boundary" inkscape:connector-curvature="0" />
	<path style="fill:none;stroke:red;stroke-width:1px;stroke-linecap:butt;stroke-linejoin:miter;stroke-opacity:1" d="M 116.09,177.74 116.09,196.422 z" id="boundary" inkscape:connector-curvature="0" />
	<path style="fill:none;stroke:red;stroke-width:1px;stroke-linecap:butt;stroke-linejoin:miter;stroke-opacity:1" d="M 116.09,177.74 125.431,149.718 z" id="boundary" inkscape:connector-curvature="0" />
	<path style="fill:none;stroke:red;stroke-width:1px;stroke-linecap:butt;stroke-linejoin:miter;stroke-opacity:1" d="M 116.09,784.896 116.09,803.578 z" id="boundary" inkscape:connector-curvature="0" />
	<path style="fill:none;stroke:red;stroke-width:1px;stroke-linecap:butt;stroke-linejoin:miter;stroke-opacity:1" d="M 116.09,784.896 125.431,756.874 z" id="boundary" inkscape:connector-curvature="0" />
	<path style="fill:none;stroke:red;stroke-width:1px;stroke-linecap:butt;stroke-linejoin:miter;stroke-opacity:1" d="M 116.09,921.273 134.772,921.273 z" id="boundary" inkscape:connector-curvature="0" />
	<path style="fill:none;stroke:red;stroke-width:1px;stroke-linecap:butt;stroke-linejoin:miter;stroke-opacity:1" d="M 121.695,704.565 134.772,719.51 z" id="boundary" inkscape:connector-curvature="0" />
	<path style="fill:none;stroke:red;stroke-width:1px;stroke-linecap:butt;stroke-linejoin:miter;stroke-opacity:1" d="M 125.431,149.718 134.772,131.036 z" id="boundary" inkscape:connector-curvature="0" />
	<path style="fill:none;stroke:red;stroke-width:1px;stroke-linecap:butt;stroke-linejoin:miter;stroke-opacity:1" d="M 125.431,756.874 140.377,741.928 z" id="boundary" inkscape:connector-curvature="0" />
	<path style="fill:none;stroke:red;stroke-width:1px;stroke-linecap:butt;stroke-linejoin:miter;stroke-opacity:1" d="M 134.772,131.036 153.454,125.431 z" id="boundary" inkscape:connector-curvature="0" />
	<path style="fill:none;stroke:red;stroke-width:1px;stroke-linecap:butt;stroke-linejoin:miter;stroke-opacity:1" d="M 134.772,719.51 140.377,741.928 z" id="boundary" inkscape:connector-curvature="0" />
	<path style="fill:none;stroke:red;stroke-width:1px;stroke-linecap:butt;stroke-linejoin:miter;stroke-opacity:1" d="M 134.772,921.273 153.454,921.273 z" id="boundary" inkscape:connector-curvature="0" />
	<path style="fill:none;stroke:red;stroke-width:1px;stroke-linecap:butt;stroke-linejoin:miter;stroke-opacity:1" d="M 153.454,125.431 170.267,116.09 z" id="boundary" inkscape:connector-curvature="0" />
	<path style="fill:none;stroke:red;stroke-width:1px;stroke-linecap:butt;stroke-linejoin:miter;stroke-opacity:1" d="M 153.454,921.273 172.136,921.273 z" id="boundary" inkscape:connector-curvature="0" />
	<path style="fill:none;stroke:red;stroke-width:1px;stroke-linecap:butt;stroke-linejoin:miter;stroke-opacity:1" d="M 170.267,116.09 187.081,106.75 z" id="boundary" inkscape:connector-curvature="0" />
	<path style="fill:none;stroke:red;stroke-width:1px;stroke-linecap:butt;stroke-linejoin:miter;stroke-opacity:1" d="M 172.136,921.273 188.949,911.932 z" id="boundary" inkscape:connector-curvature="0" />
	<path style="fill:none;stroke:red;stroke-width:1px;stroke-linecap:butt;stroke-linejoin:miter;stroke-opacity:1" d="M 187.081,106.75 205.763,106.75 z" id="boundary" inkscape:connector-curvature="0" />
	<path style="fill:none;stroke:red;stroke-width:1px;stroke-linecap:butt;stroke-linejoin:miter;stroke-opacity:1" d="M 188.949,911.932 205.763,900.723 z" id="boundary" inkscape:connector-curvature="0" />
	<path style="fill:none;stroke:red;stroke-width:1px;stroke-linecap:butt;stroke-linejoin:miter;stroke-opacity:1" d="M 205.763,106.75 215.104,88.0678 z" id="boundary" inkscape:connector-curvature="0" />
	<path style="fill:none;stroke:red;stroke-width:1px;stroke-linecap:butt;stroke-linejoin:miter;stroke-opacity:1" d="M 205.763,900.723 211.367,874.569 z" id="boundary" inkscape:connector-curvature="0" />
	<path style="fill:none;stroke:red;stroke-width:1px;stroke-linecap:butt;stroke-linejoin:miter;stroke-opacity:1" d="M 211.367,874.569 230.049,874.569 z" id="boundary" inkscape:connector-curvature="0" />
	<path style="fill:none;stroke:red;stroke-width:1px;stroke-linecap:butt;stroke-linejoin:miter;stroke-opacity:1" d="M 215.104,88.0678 233.785,88.0678 z" id="boundary" inkscape:connector-curvature="0" />
	<path style="fill:none;stroke:red;stroke-width:1px;stroke-linecap:butt;stroke-linejoin:miter;stroke-opacity:1" d="M 230.049,874.569 246.863,865.228 z" id="boundary" inkscape:connector-curvature="0" />
	<path style="fill:none;stroke:red;stroke-width:1px;stroke-linecap:butt;stroke-linejoin:miter;stroke-opacity:1" d="M 233.785,88.0678 252.467,88.0678 z" id="boundary" inkscape:connector-curvature="0" />
	<path style="fill:none;stroke:red;stroke-width:1px;stroke-linecap:butt;stroke-linejoin:miter;stroke-opacity:1" d="M 246.863,865.228 265.544,859.623 z" id="boundary" inkscape:connector-curvature="0" />
	<path style="fill:none;stroke:red;stroke-width:1px;stroke-linecap:butt;stroke-linejoin:miter;stroke-opacity:1" d="M 252.467,88.0678 271.149,88.0678 z" id="boundary" inkscape:connector-curvature="0" />
	<path style="fill:none;stroke:red;stroke-width:1px;stroke-linecap:butt;stroke-linejoin:miter;stroke-opacity:1" d="M 265.544,859.623 284.226,850.282 z" id="boundary" inkscape:connector-curvature="0" />
	<path style="fill:none;stroke:red;stroke-width:1px;stroke-linecap:butt;stroke-linejoin:miter;stroke-opacity:1" d="M 271.149,88.0678 289.831,88.0678 z" id="boundary" inkscape:connector-curvature="0" />
	<path style="fill:none;stroke:red;stroke-width:1px;stroke-linecap:butt;stroke-linejoin:miter;stroke-opacity:1" d="M 284.226,850.282 286.094,827.864 z" id="boundary" inkscape:connector-curvature="0" />
	<path style="fill:none;stroke:red;stroke-width:1px;stroke-linecap:butt;stroke-linejoin:miter;stroke-opacity:1" d="M 286.094,827.864 295.435,799.842 z" id="boundary" inkscape:connector-curvature="0" />
	<path style="fill:none;stroke:red;stroke-width:1px;stroke-linecap:butt;stroke-linejoin:miter;stroke-opacity:1" d="M 289.831,88.0678 304.776,99.2768 z" id="boundary" inkscape:connector-curvature="0" />
	<path style="fill:none;stroke:red;stroke-width:1px;stroke-linecap:butt;stroke-linejoin:miter;stroke-opacity:1" d="M 295.435,799.842 314.117,799.842 z" id="boundary" inkscape:connector-curvature="0" />
	<path style="fill:none;stroke:red;stroke-width:1px;stroke-linecap:butt;stroke-linejoin:miter;stroke-opacity:1" d="M 304.776,99.2768 323.458,106.75 z" id="boundary" inkscape:connector-curvature="0" />
	<path style="fill:none;stroke:red;stroke-width:1px;stroke-linecap:butt;stroke-linejoin:miter;stroke-opacity:1" d="M 314.117,799.842 332.798,799.842 z" id="boundary" inkscape:connector-curvature="0" />
	<path style="fill:none;stroke:red;stroke-width:1px;stroke-linecap:butt;stroke-linejoin:miter;stroke-opacity:1" d="M 323.458,106.75 334.667,89.936 z" id="boundary" inkscape:connector-curvature="0" />
	<path style="fill:none;stroke:red;stroke-width:1px;stroke-linecap:butt;stroke-linejoin:miter;stroke-opacity:1" d="M 332.798,799.842 342.139,781.16 z" id="boundary" inkscape:connector-curvature="0" />
	<path style="fill:none;stroke:red;stroke-width:1px;stroke-linecap:butt;stroke-linejoin:miter;stroke-opacity:1" d="M 334.667,89.936 344.008,71.2542 z" id="boundary" inkscape:connector-curvature="0" />
	<path style="fill:none;stroke:red;stroke-width:1px;stroke-linecap:butt;stroke-linejoin:miter;stroke-opacity:1" d="M 342.139,781.16 360.821,781.16 z" id="boundary" inkscape:connector-curvature="0" />
	<path style="fill:none;stroke:red;stroke-width:1px;stroke-linecap:butt;stroke-linejoin:miter;stroke-opacity:1" d="M 344.008,71.2542 362.689,69.3861 z" id="boundary" inkscape:connector-curvature="0" />
	<path style="fill:none;stroke:red;stroke-width:1px;stroke-linecap:butt;stroke-linejoin:miter;stroke-opacity:1" d="M 360.821,781.16 379.503,771.819 z" id="boundary" inkscape:connector-curvature="0" />
	<path style="fill:none;stroke:red;stroke-width:1px;stroke-linecap:butt;stroke-linejoin:miter;stroke-opacity:1" d="M 362.689,69.3861 368.294,46.968 z" id="boundary" inkscape:connector-curvature="0" />
	<path style="fill:none;stroke:red;stroke-width:1px;stroke-linecap:butt;stroke-linejoin:miter;stroke-opacity:1" d="M 368.294,46.968 386.976,41.3635 z" id="boundary" inkscape:connector-curvature="0" />
	<path style="fill:none;stroke:red;stroke-width:1px;stroke-linecap:butt;stroke-linejoin:miter;stroke-opacity:1" d="M 379.503,771.819 396.316,781.16 z" id="boundary" inkscape:connector-curvature="0" />
	<path style="fill:none;stroke:red;stroke-width:1px;stroke-linecap:butt;stroke-linejoin:miter;stroke-opacity:1" d="M 386.976,41.3635 405.657,37.6271 z" id="boundary" inkscape:connector-curvature="0" />
	<path style="fill:none;stroke:red;stroke-width:1px;stroke-linecap:butt;stroke-linejoin:miter;stroke-opacity:1" d="M 396.316,781.16 405.657,797.974 z" id="boundary" inkscape:connector-curvature="0" />
	<path style="fill:none;stroke:red;stroke-width:1px;stroke-linecap:butt;stroke-linejoin:miter;stroke-opacity:1" d="M 405.657,37.6271 424.339,32.0226 z" id="boundary" inkscape:connector-curvature="0" />
	<path style="fill:none;stroke:red;stroke-width:1px;stroke-linecap:butt;stroke-linejoin:miter;stroke-opacity:1" d="M 405.657,797.974 409.394,816.655 z" id="boundary" inkscape:connector-curvature="0" />
	<path style="fill:none;stroke:red;stroke-width:1px;stroke-linecap:butt;stroke-linejoin:miter;stroke-opacity:1" d="M 409.394,816.655 424.339,827.864 z" id="boundary" inkscape:connector-curvature="0" />
	<path style="fill:none;stroke:red;stroke-width:1px;stroke-linecap:butt;stroke-linejoin:miter;stroke-opacity:1" d="M 424.339,32.0226 443.021,32.0226 z" id="boundary" inkscape:connector-curvature="0" />
	<path style="fill:none;stroke:red;stroke-width:1px;stroke-linecap:butt;stroke-linejoin:miter;stroke-opacity:1" d="M 424.339,827.864 441.153,837.205 z" id="boundary" inkscape:connector-curvature="0" />
	<path style="fill:none;stroke:red;stroke-width:1px;stroke-linecap:butt;stroke-linejoin:miter;stroke-opacity:1" d="M 441.153,837.205 459.834,837.205 z" id="boundary" inkscape:connector-curvature="0" />
	<path style="fill:none;stroke:red;stroke-width:1px;stroke-linecap:butt;stroke-linejoin:miter;stroke-opacity:1" d="M 443.021,32.0226 461.702,35.7589 z" id="boundary" inkscape:connector-curvature="0" />
	<path style="fill:none;stroke:red;stroke-width:1px;stroke-linecap:butt;stroke-linejoin:miter;stroke-opacity:1" d="M 459.834,837.205 472.911,852.151 z" id="boundary" inkscape:connector-curvature="0" />
	<path style="fill:none;stroke:red;stroke-width:1px;stroke-linecap:butt;stroke-linejoin:miter;stroke-opacity:1" d="M 461.702,35.7589 480.384,41.3635 z" id="boundary" inkscape:connector-curvature="0" />
	<path style="fill:none;stroke:red;stroke-width:1px;stroke-linecap:butt;stroke-linejoin:miter;stroke-opacity:1" d="M 472.911,852.151 491.593,855.887 z" id="boundary" inkscape:connector-curvature="0" />
	<path style="fill:none;stroke:red;stroke-width:1px;stroke-linecap:butt;stroke-linejoin:miter;stroke-opacity:1" d="M 480.384,41.3635 491.593,56.3089 z" id="boundary" inkscape:connector-curvature="0" />
	<path style="fill:none;stroke:red;stroke-width:1px;stroke-linecap:butt;stroke-linejoin:miter;stroke-opacity:1" d="M 491.593,56.3089 504.67,71.2542 z" id="boundary" inkscape:connector-curvature="0" />
	<path style="fill:none;stroke:red;stroke-width:1px;stroke-linecap:butt;stroke-linejoin:miter;stroke-opacity:1" d="M 491.593,855.887 510.275,855.887 z" id="boundary" inkscape:connector-curvature="0" />
	<path style="fill:none;stroke:red;stroke-width:1px;stroke-linecap:butt;stroke-linejoin:miter;stroke-opacity:1" d="M 504.67,71.2542 523.352,78.7269 z" id="boundary" inkscape:connector-curvature="0" />
	<path style="fill:none;stroke:red;stroke-width:1px;stroke-linecap:butt;stroke-linejoin:miter;stroke-opacity:1" d="M 510.275,855.887 528.957,837.205 z" id="boundary" inkscape:connector-curvature="0" />
	<path style="fill:none;stroke:red;stroke-width:1px;stroke-linecap:butt;stroke-linejoin:miter;stroke-opacity:1" d="M 523.352,78.7269 536.429,56.3089 z" id="boundary" inkscape:connector-curvature="0" />
	<path style="fill:none;stroke:red;stroke-width:1px;stroke-linecap:butt;stroke-linejoin:miter;stroke-opacity:1" d="M 528.957,837.205 547.638,837.205 z" id="boundary" inkscape:connector-curvature="0" />
	<path style="fill:none;stroke:red;stroke-width:1px;stroke-linecap:butt;stroke-linejoin:miter;stroke-opacity:1" d="M 536.429,37.6271 536.429,56.3089 z" id="boundary" inkscape:connector-curvature="0" />
	<path style="fill:none;stroke:red;stroke-width:1px;stroke-linecap:butt;stroke-linejoin:miter;stroke-opacity:1" d="M 536.429,37.6271 551.375,22.6817 z" id="boundary" inkscape:connector-curvature="0" />
	<path style="fill:none;stroke:red;stroke-width:1px;stroke-linecap:butt;stroke-linejoin:miter;stroke-opacity:1" d="M 547.638,837.205 566.32,837.205 z" id="boundary" inkscape:connector-curvature="0" />
	<path style="fill:none;stroke:red;stroke-width:1px;stroke-linecap:butt;stroke-linejoin:miter;stroke-opacity:1" d="M 551.375,22.6817 570.056,22.6817 z" id="boundary" inkscape:connector-curvature="0" />
	<path style="fill:none;stroke:red;stroke-width:1px;stroke-linecap:butt;stroke-linejoin:miter;stroke-opacity:1" d="M 566.32,837.205 583.134,827.864 z" id="boundary" inkscape:connector-curvature="0" />
	<path style="fill:none;stroke:red;stroke-width:1px;stroke-linecap:butt;stroke-linejoin:miter;stroke-opacity:1" d="M 570.056,22.6817 585.002,7.73635 z" id="boundary" inkscape:connector-curvature="0" />
	<path style="fill:none;stroke:red;stroke-width:1px;stroke-linecap:butt;stroke-linejoin:miter;stroke-opacity:1" d="M 583.134,827.864 599.947,818.524 z" id="boundary" inkscape:connector-curvature="0" />
	<path style="fill:none;stroke:red;stroke-width:1px;stroke-linecap:butt;stroke-linejoin:miter;stroke-opacity:1" d="M 585.002,7.73635 603.684,4 z" id="boundary" inkscape:connector-curvature="0" />
	<path style="fill:none;stroke:red;stroke-width:1px;stroke-linecap:butt;stroke-linejoin:miter;stroke-opacity:1" d="M 599.947,818.524 613.024,799.842 z" id="boundary" inkscape:connector-curvature="0" />
	<path style="fill:none;stroke:red;stroke-width:1px;stroke-linecap:butt;stroke-linejoin:miter;stroke-opacity:1" d="M 603.684,4 622.365,9.60452 z" id="boundary" inkscape:connector-curvature="0" />
	<path style="fill:none;stroke:red;stroke-width:1px;stroke-linecap:butt;stroke-linejoin:miter;stroke-opacity:1" d="M 613.024,799.842 622.365,771.819 z" id="boundary" inkscape:connector-curvature="0" />
	<path style="fill:none;stroke:red;stroke-width:1px;stroke-linecap:butt;stroke-linejoin:miter;stroke-opacity:1" d="M 622.365,9.60452 637.311,22.6817 z" id="boundary" inkscape:connector-curvature="0" />
	<path style="fill:none;stroke:red;stroke-width:1px;stroke-linecap:butt;stroke-linejoin:miter;stroke-opacity:1" d="M 622.365,771.819 631.706,753.137 z" id="boundary" inkscape:connector-curvature="0" />
	<path style="fill:none;stroke:red;stroke-width:1px;stroke-linecap:butt;stroke-linejoin:miter;stroke-opacity:1" d="M 631.706,753.137 650.388,734.456 z" id="boundary" inkscape:connector-curvature="0" />
	<path style="fill:none;stroke:red;stroke-width:1px;stroke-linecap:butt;stroke-linejoin:miter;stroke-opacity:1" d="M 637.311,22.6817 654.124,32.0226 z" id="boundary" inkscape:connector-curvature="0" />
	<path style="fill:none;stroke:red;stroke-width:1px;stroke-linecap:butt;stroke-linejoin:miter;stroke-opacity:1" d="M 650.388,734.456 669.07,734.456 z" id="boundary" inkscape:connector-curvature="0" />
	<path style="fill:none;stroke:red;stroke-width:1px;stroke-linecap:butt;stroke-linejoin:miter;stroke-opacity:1" d="M 654.124,32.0226 672.806,32.0226 z" id="boundary" inkscape:connector-curvature="0" />
	<path style="fill:none;stroke:red;stroke-width:1px;stroke-linecap:butt;stroke-linejoin:miter;stroke-opacity:1" d="M 669.07,734.456 685.883,743.797 z" id="boundary" inkscape:connector-curvature="0" />
	<path style="fill:none;stroke:red;stroke-width:1px;stroke-linecap:butt;stroke-linejoin:miter;stroke-opacity:1" d="M 672.806,32.0226 689.62,41.3635 z" id="boundary" inkscape:connector-curvature="0" />
	<path style="fill:none;stroke:red;stroke-width:1px;stroke-linecap:butt;stroke-linejoin:miter;stroke-opacity:1" d="M 685.883,743.797 704.565,743.797 z" id="boundary" inkscape:connector-curvature="0" />
	<path style="fill:none;stroke:red;stroke-width:1px;stroke-linecap:butt;stroke-linejoin:miter;stroke-opacity:1" d="M 689.62,41.3635 706.433,32.0226 z" id="boundary" inkscape:connector-curvature="0" />
	<path style="fill:none;stroke:red;stroke-width:1px;stroke-linecap:butt;stroke-linejoin:miter;stroke-opacity:1" d="M 704.565,743.797 721.379,753.137 z" id="boundary" inkscape:connector-curvature="0" />
	<path style="fill:none;stroke:red;stroke-width:1px;stroke-linecap:butt;stroke-linejoin:miter;stroke-opacity:1" d="M 706.433,32.0226 723.247,22.6817 z" id="boundary" inkscape:connector-curvature="0" />
	<path style="fill:none;stroke:red;stroke-width:1px;stroke-linecap:butt;stroke-linejoin:miter;stroke-opacity:1" d="M 721.379,753.137 740.06,749.401 z" id="boundary" inkscape:connector-curvature="0" />
	<path style="fill:none;stroke:red;stroke-width:1px;stroke-linecap:butt;stroke-linejoin:miter;stroke-opacity:1" d="M 723.247,22.6817 741.928,9.60452 z" id="boundary" inkscape:connector-curvature="0" />
	<path style="fill:none;stroke:red;stroke-width:1px;stroke-linecap:butt;stroke-linejoin:miter;stroke-opacity:1" d="M 740.06,749.401 758.742,743.797 z" id="boundary" inkscape:connector-curvature="0" />
	<path style="fill:none;stroke:red;stroke-width:1px;stroke-linecap:butt;stroke-linejoin:miter;stroke-opacity:1" d="M 741.928,9.60452 760.61,4 z" id="boundary" inkscape:connector-curvature="0" />
	<path style="fill:none;stroke:red;stroke-width:1px;stroke-linecap:butt;stroke-linejoin:miter;stroke-opacity:1" d="M 758.742,743.797 777.424,743.797 z" id="boundary" inkscape:connector-curvature="0" />
	<path style="fill:none;stroke:red;stroke-width:1px;stroke-linecap:butt;stroke-linejoin:miter;stroke-opacity:1" d="M 760.61,4 779.292,4 z" id="boundary" inkscape:connector-curvature="0" />
	<path style="fill:none;stroke:red;stroke-width:1px;stroke-linecap:butt;stroke-linejoin:miter;stroke-opacity:1" d="M 777.424,743.797 794.237,732.588 z" id="boundary" inkscape:connector-curvature="0" />
	<path style="fill:none;stroke:red;stroke-width:1px;stroke-linecap:butt;stroke-linejoin:miter;stroke-opacity:1" d="M 779.292,4 790.501,18.9454 z" id="boundary" inkscape:connector-curvature="0" />
	<path style="fill:none;stroke:red;stroke-width:1px;stroke-linecap:butt;stroke-linejoin:miter;stroke-opacity:1" d="M 790.501,18.9454 809.183,22.6817 z" id="boundary" inkscape:connector-curvature="0" />
	<path style="fill:none;stroke:red;stroke-width:1px;stroke-linecap:butt;stroke-linejoin:miter;stroke-opacity:1" d="M 794.237,732.588 803.578,715.774 z" id="boundary" inkscape:connector-curvature="0" />
	<path style="fill:none;stroke:red;stroke-width:1px;stroke-linecap:butt;stroke-linejoin:miter;stroke-opacity:1" d="M 803.578,715.774 820.392,706.433 z" id="boundary" inkscape:connector-curvature="0" />
	<path style="fill:none;stroke:red;stroke-width:1px;stroke-linecap:butt;stroke-linejoin:miter;stroke-opacity:1" d="M 809.183,22.6817 827.864,28.2863 z" id="boundary" inkscape:connector-curvature="0" />
	<path style="fill:none;stroke:red;stroke-width:1px;stroke-linecap:butt;stroke-linejoin:miter;stroke-opacity:1" d="M 820.392,706.433 827.864,687.751 z" id="boundary" inkscape:connector-curvature="0" />
	<path style="fill:none;stroke:red;stroke-width:1px;stroke-linecap:butt;stroke-linejoin:miter;stroke-opacity:1" d="M 827.864,28.2863 837.205,45.0998 z" id="boundary" inkscape:connector-curvature="0" />
	<path style="fill:none;stroke:red;stroke-width:1px;stroke-linecap:butt;stroke-linejoin:miter;stroke-opacity:1" d="M 827.864,669.07 827.864,687.751 z" id="boundary" inkscape:connector-curvature="0" />
	<path style="fill:none;stroke:red;stroke-width:1px;stroke-linecap:butt;stroke-linejoin:miter;stroke-opacity:1" d="M 827.864,669.07 837.205,650.388 z" id="boundary" inkscape:connector-curvature="0" />
	<path style="fill:none;stroke:red;stroke-width:1px;stroke-linecap:butt;stroke-linejoin:miter;stroke-opacity:1" d="M 837.205,45.0998 837.205,63.7815 z" id="boundary" inkscape:connector-curvature="0" />
	<path style="fill:none;stroke:red;stroke-width:1px;stroke-linecap:butt;stroke-linejoin:miter;stroke-opacity:1" d="M 837.205,63.7815 854.019,73.1224 z" id="boundary" inkscape:connector-curvature="0" />
	<path style="fill:none;stroke:red;stroke-width:1px;stroke-linecap:butt;stroke-linejoin:miter;stroke-opacity:1" d="M 837.205,631.706 837.205,650.388 z" id="boundary" inkscape:connector-curvature="0" />
	<path style="fill:none;stroke:red;stroke-width:1px;stroke-linecap:butt;stroke-linejoin:miter;stroke-opacity:1" d="M 837.205,631.706 855.887,613.024 z" id="boundary" inkscape:connector-curvature="0" />
	<path style="fill:none;stroke:red;stroke-width:1px;stroke-linecap:butt;stroke-linejoin:miter;stroke-opacity:1" d="M 854.019,73.1224 861.492,91.8041 z" id="boundary" inkscape:connector-curvature="0" />
	<path style="fill:none;stroke:red;stroke-width:1px;stroke-linecap:butt;stroke-linejoin:miter;stroke-opacity:1" d="M 855.887,594.343 855.887,613.024 z" id="boundary" inkscape:connector-curvature="0" />
	<path style="fill:none;stroke:red;stroke-width:1px;stroke-linecap:butt;stroke-linejoin:miter;stroke-opacity:1" d="M 855.887,594.343 874.569,594.343 z" id="boundary" inkscape:connector-curvature="0" />
	<path style="fill:none;stroke:red;stroke-width:1px;stroke-linecap:butt;stroke-linejoin:miter;stroke-opacity:1" d="M 861.492,91.8041 865.228,110.486 z" id="boundary" inkscape:connector-curvature="0" />
	<path style="fill:none;stroke:red;stroke-width:1px;stroke-linecap:butt;stroke-linejoin:miter;stroke-opacity:1" d="M 865.228,110.486 883.91,116.09 z" id="boundary" inkscape:connector-curvature="0" />
	<path style="fill:none;stroke:red;stroke-width:1px;stroke-linecap:butt;stroke-linejoin:miter;stroke-opacity:1" d="M 874.569,594.343 891.382,585.002 z" id="boundary" inkscape:connector-curvature="0" />
	<path style="fill:none;stroke:red;stroke-width:1px;stroke-linecap:butt;stroke-linejoin:miter;stroke-opacity:1" d="M 883.91,116.09 902.591,121.695 z" id="boundary" inkscape:connector-curvature="0" />
	<path style="fill:none;stroke:red;stroke-width:1px;stroke-linecap:butt;stroke-linejoin:miter;stroke-opacity:1" d="M 891.382,585.002 910.064,579.397 z" id="boundary" inkscape:connector-curvature="0" />
	<path style="fill:none;stroke:red;stroke-width:1px;stroke-linecap:butt;stroke-linejoin:miter;stroke-opacity:1" d="M 902.591,121.695 919.405,131.036 z" id="boundary" inkscape:connector-curvature="0" />
	<path style="fill:none;stroke:red;stroke-width:1px;stroke-linecap:butt;stroke-linejoin:miter;stroke-opacity:1" d="M 910.064,579.397 919.405,560.716 z" id="boundary" inkscape:connector-curvature="0" />
	<path style="fill:none;stroke:red;stroke-width:1px;stroke-linecap:butt;stroke-linejoin:miter;stroke-opacity:1" d="M 919.405,131.036 934.35,144.113 z" id="boundary" inkscape:connector-curvature="0" />
	<path style="fill:none;stroke:red;stroke-width:1px;stroke-linecap:butt;stroke-linejoin:miter;stroke-opacity:1" d="M 919.405,560.716 934.35,545.77 z" id="boundary" inkscape:connector-curvature="0" />
	<path style="fill:none;stroke:red;stroke-width:1px;stroke-linecap:butt;stroke-linejoin:miter;stroke-opacity:1" d="M 934.35,144.113 939.955,162.795 z" id="boundary" inkscape:connector-curvature="0" />
	<path style="fill:none;stroke:red;stroke-width:1px;stroke-linecap:butt;stroke-linejoin:miter;stroke-opacity:1" d="M 934.35,545.77 949.296,528.957 z" id="boundary" inkscape:connector-curvature="0" />
	<path style="fill:none;stroke:red;stroke-width:1px;stroke-linecap:butt;stroke-linejoin:miter;stroke-opacity:1" d="M 939.955,162.795 949.296,179.608 z" id="boundary" inkscape:connector-curvature="0" />
	<path style="fill:none;stroke:red;stroke-width:1px;stroke-linecap:butt;stroke-linejoin:miter;stroke-opacity:1" d="M 949.296,179.608 949.296,198.29 z" id="boundary" inkscape:connector-curvature="0" />
	<path style="fill:none;stroke:red;stroke-width:1px;stroke-linecap:butt;stroke-linejoin:miter;stroke-opacity:1" d="M 949.296,198.29 949.296,216.972 z" id="boundary" inkscape:connector-curvature="0" />
	<path style="fill:none;stroke:red;stroke-width:1px;stroke-linecap:butt;stroke-linejoin:miter;stroke-opacity:1" d="M 949.296,216.972 958.637,233.785 z" id="boundary" inkscape:connector-curvature="0" />
	<path style="fill:none;stroke:red;stroke-width:1px;stroke-linecap:butt;stroke-linejoin:miter;stroke-opacity:1" d="M 949.296,528.957 958.637,500.934 z" id="boundary" inkscape:connector-curvature="0" />
	<path style="fill:none;stroke:red;stroke-width:1px;stroke-linecap:butt;stroke-linejoin:miter;stroke-opacity:1" d="M 958.637,233.785 958.637,252.467 z" id="boundary" inkscape:connector-curvature="0" />
	<path style="fill:none;stroke:red;stroke-width:1px;stroke-linecap:butt;stroke-linejoin:miter;stroke-opacity:1" d="M 958.637,252.467 958.637,271.149 z" id="boundary" inkscape:connector-curvature="0" />
	<path style="fill:none;stroke:red;stroke-width:1px;stroke-linecap:butt;stroke-linejoin:miter;stroke-opacity:1" d="M 958.637,271.149 958.637,289.831 z" id="boundary" inkscape:connector-curvature="0" />
	<path style="fill:none;stroke:red;stroke-width:1px;stroke-linecap:butt;stroke-linejoin:miter;stroke-opacity:1" d="M 958.637,289.831 958.637,308.512 z" id="boundary" inkscape:connector-curvature="0" />
	<path style="fill:none;stroke:red;stroke-width:1px;stroke-linecap:butt;stroke-linejoin:miter;stroke-opacity:1" d="M 958.637,308.512 958.637,327.194 z" id="boundary" inkscape:connector-curvature="0" />
	<path style="fill:none;stroke:red;stroke-width:1px;stroke-linecap:butt;stroke-linejoin:miter;stroke-opacity:1" d="M 958.637,327.194 958.637,345.876 z" id="boundary" inkscape:connector-curvature="0" />
	<path style="fill:none;stroke:red;stroke-width:1px;stroke-linecap:butt;stroke-linejoin:miter;stroke-opacity:1" d="M 958.637,345.876 977.318,349.612 z" id="boundary" inkscape:connector-curvature="0" />
	<path style="fill:none;stroke:red;stroke-width:1px;stroke-linecap:butt;stroke-linejoin:miter;stroke-opacity:1" d="M 958.637,500.934 977.318,500.934 z" id="boundary" inkscape:connector-curvature="0" />
	<path style="fill:none;stroke:red;stroke-width:1px;stroke-linecap:butt;stroke-linejoin:miter;stroke-opacity:1" d="M 977.318,349.612 986.659,366.426 z" id="boundary" inkscape:connector-curvature="0" />
	<path style="fill:none;stroke:red;stroke-width:1px;stroke-linecap:butt;stroke-linejoin:miter;stroke-opacity:1" d="M 977.318,500.934 986.659,472.911 z" id="boundary" inkscape:connector-curvature="0" />
	<path style="fill:none;stroke:red;stroke-width:1px;stroke-linecap:butt;stroke-linejoin:miter;stroke-opacity:1" d="M 986.659,366.426 986.659,385.107 z" id="boundary" inkscape:connector-curvature="0" />
	<path style="fill:none;stroke:red;stroke-width:1px;stroke-linecap:butt;stroke-linejoin:miter;stroke-opacity:1" d="M 986.659,385.107 986.659,403.789 z" id="boundary" inkscape:connector-curvature="0" />
	<path style="fill:none;stroke:red;stroke-width:1px;stroke-linecap:butt;stroke-linejoin:miter;stroke-opacity:1" d="M 986.659,403.789 996,420.603 z" id="boundary" inkscape:connector-curvature="0" />
	<path style="fill:none;stroke:red;stroke-width:1px;stroke-linecap:butt;stroke-linejoin:miter;stroke-opacity:1" d="M 986.659,454.23 986.659,472.911 z" id="boundary" inkscape:connector-curvature="0" />
	<path style="fill:none;stroke:red;stroke-width:1px;stroke-linecap:butt;stroke-linejoin:miter;stroke-opacity:1" d="M 986.659,454.23 996,420.603 z" id="boundary" inkscape:connector-curvature="0" />
	<circle cx="4" cy="392.58" r="4" fill="#0" id="circle0"/>
	<circle cx="4" cy="411.262" r="4" fill="#0" id="circle1"/>
	<circle cx="4" cy="429.944" r="4" fill="#0" id="circle2"/>
	<circle cx="13.3409" cy="355.217" r="4" fill="#0" id="circle3"/>
	<circle cx="13.3409" cy="373.898" r="4" fill="#0" id="circle4"/>
	<circle cx="13.3409" cy="446.757" r="4" fill="#0" id="circle5"/>
	<circle cx="13.3409" cy="570.056" r="4" fill="#0" id="circle6"/>
	<circle cx="13.3409" cy="588.738" r="4" fill="#0" id="circle7"/>
	<circle cx="13.3409" cy="607.42" r="4" fill="#0" id="circle8"/>
	<circle cx="22.6817" cy="463.571" r="4" fill="#0" id="circle9"/>
	<circle cx="32.0226" cy="327.194" r="4" fill="#0" id="circle10"/>
	<circle cx="32.0226" cy="345.876" r="4" fill="#0" id="circle11"/>
	<circle cx="32.0226" cy="480.384" r="4" fill="#0" id="circle12"/>
	<circle cx="32.0226" cy="532.693" r="4" fill="#0" id="circle13"/>
	<circle cx="32.0226" cy="551.375" r="4" fill="#0" id="circle14"/>
	<circle cx="32.0226" cy="613.024" r="4" fill="#0" id="circle15"/>
	<circle cx="35.7589" cy="499.066" r="4" fill="#0" id="circle16"/>
	<circle cx="37.6271" cy="631.706" r="4" fill="#0" id="circle17"/>
	<circle cx="50.7043" cy="317.853" r="4" fill="#0" id="circle18"/>
	<circle cx="50.7043" cy="510.275" r="4" fill="#0" id="circle19"/>
	<circle cx="50.7043" cy="646.652" r="4" fill="#0" id="circle20"/>
	<circle cx="60.0452" cy="299.171" r="4" fill="#0" id="circle21"/>
	<circle cx="60.0452" cy="663.465" r="4" fill="#0" id="circle22"/>
	<circle cx="78.7269" cy="293.567" r="4" fill="#0" id="circle23"/>
	<circle cx="78.7269" cy="669.07" r="4" fill="#0" id="circle24"/>
	<circle cx="88.0678" cy="243.126" r="4" fill="#0" id="circle25"/>
	<circle cx="88.0678" cy="261.808" r="4" fill="#0" id="circle26"/>
	<circle cx="88.0678" cy="685.883" r="4" fill="#0" id="circle27"/>
	<circle cx="88.0678" cy="840.942" r="4" fill="#0" id="circle28"/>
	<circle cx="88.0678" cy="859.623" r="4" fill="#0" id="circle29"/>
	<circle cx="88.0678" cy="878.305" r="4" fill="#0" id="circle30"/>
	<circle cx="88.0678" cy="896.987" r="4" fill="#0" id="circle31"/>
	<circle cx="97.4087" cy="205.763" r="4" fill="#0" id="circle32"/>
	<circle cx="97.4087" cy="224.444" r="4" fill="#0" id="circle33"/>
	<circle cx="97.4087" cy="913.8" r="4" fill="#0" id="circle34"/>
	<circle cx="103.013" cy="697.092" r="4" fill="#0" id="circle35"/>
	<circle cx="103.013" cy="825.996" r="4" fill="#0" id="circle36"/>
	<circle cx="116.09" cy="177.74" r="4" fill="#0" id="circle37"/>
	<circle cx="116.09" cy="196.422" r="4" fill="#0" id="circle38"/>
	<circle cx="116.09" cy="784.896" r="4" fill="#0" id="circle39"/>
	<circle cx="116.09" cy="803.578" r="4" fill="#0" id="circle40"/>
	<circle cx="116.09" cy="921.273" r="4" fill="#0" id="circle41"/>
	<circle cx="121.695" cy="704.565" r="4" fill="#0" id="circle42"/>
	<circle cx="125.431" cy="149.718" r="4" fill="#0" id="circle43"/>
	<circle cx="125.431" cy="756.874" r="4" fill="#0" id="circle44"/>
	<circle cx="134.772" cy="131.036" r="4" fill="#0" id="circle45"/>
	<circle cx="134.772" cy="719.51" r="4" fill="#0" id="circle46"/>
	<circle cx="134.772" cy="921.273" r="4" fill="#0" id="circle47"/>
	<circle cx="140.377" cy="741.928" r="4" fill="#0" id="circle48"/>
	<circle cx="153.454" cy="125.431" r="4" fill="#0" id="circle49"/>
	<circle cx="153.454" cy="921.273" r="4" fill="#0" id="circle50"/>
	<circle cx="170.267" cy="116.09" r="4" fill="#0" id="circle51"/>
	<circle cx="172.136" cy="921.273" r="4" fill="#0" id="circle52"/>
	<circle cx="187.081" cy="106.75" r="4" fill="#0" id="circle53"/>
	<circle cx="188.949" cy="911.932" r="4" fill="#0" id="circle54"/>
	<circle cx="205.763" cy="106.75" r="4" fill="#0" id="circle55"/>
	<circle cx="205.763" cy="900.723" r="4" fill="#0" id="circle56"/>
	<circle cx="211.367" cy="874.569" r="4" fill="#0" id="circle57"/>
	<circle cx="215.104" cy="88.0678" r="4" fill="#0" id="circle58"/>
	<circle cx="230.049" cy="874.569" r="4" fill="#0" id="circle59"/>
	<circle cx="233.785" cy="88.0678" r="4" fill="#0" id="circle60"/>
	<circle cx="246.863" cy="865.228" r="4" fill="#0" id="circle61"/>
	<circle cx="252.467" cy="88.0678" r="4" fill="#0" id="circle62"/>
	<circle cx="265.544" cy="859.623" r="4" fill="#0" id="circle63"/>
	<circle cx="271.149" cy="88.0678" r="4" fill="#0" id="circle64"/>
	<circle cx="284.226" cy="850.282" r="4" fill="#0" id="circle65"/>
	<circle cx="286.094" cy="827.864" r="4" fill="#0" id="circle66"/>
	<circle cx="289.831" cy="88.0678" r="4" fill="#0" id="circle67"/>
	<circle cx="295.435" cy="799.842" r="4" fill="#0" id="circle68"/>
	<circle cx="304.776" cy="99.2768" r="4" fill="#0" id="circle69"/>
	<circle cx="314.117" cy="799.842" r="4" fill="#0" id="circle70"/>
	<circle cx="323.458" cy="106.75" r="4" fill="#0" id="circle71"/>
	<circle cx="332.798" cy="799.842" r="4" fill="#0" id="circle72"/>
	<circle cx="334.667" cy="89.936" r="4" fill="#0" id="circle73"/>
	<circle cx="342.139" cy="781.16" r="4" fill="#0" id="circle74"/>
	<circle cx="344.008" cy="71.2542" r="4" fill="#0" id="circle75"/>
	<circle cx="360.821" cy="781.16" r="4" fill="#0" id="circle76"/>
	<circle cx="362.689" cy="69.3861" r="4" fill="#0" id="circle77"/>
	<circle cx="368.294" cy="46.968" r="4" fill="#0" id="circle78"/>
	<circle cx="379.503" cy="771.819" r="4" fill="#0" id="circle79"/>
	<circle cx="386.976" cy="41.3635" r="4" fill="#0" id="circle80"/>
	<circle cx="396.316" cy="781.16" r="4" fill="#0" id="circle81"/>
	<circle cx="405.657" cy="37.6271" r="4" fill="#0" id="circle82"/>
	<circle cx="405.657" cy="797.974" r="4" fill="#0" id="circle83"/>
	<circle cx="409.394" cy="816.655" r="4" fill="#0" id="circle84"/>
	<circle cx="424.339" cy="32.0226" r="4" fill="#0" id="circle85"/>
	<circle cx="424.339" cy="827.864" r="4" fill="#0" id="circle86"/>
	<circle cx="441.153" cy="837.205" r="4" fill="#0" id="circle87"/>
	<circle cx="443.021" cy="32.0226" r="4" fill="#0" id="circle88"/>
	<circle cx="459.834" cy="837.205" r="4" fill="#0" id="circle89"/>
	<circle cx="461.702" cy="35.7589" r="4" fill="#0" id="circle90"/>
	<circle cx="472.911" cy="852.151" r="4" fill="#0" id="circle91"/>
	<circle cx="480.384" cy="41.3635" r="4" fill="#0" id="circle92"/>
	<circle cx="491.593" cy="56.3089" r="4" fill="#0" id="circle93"/>
	<circle cx="491.593" cy="855.887" r="4" fill="#0" id="circle94"/>
	<circle cx="504.67" cy="71.2542" r="4" fill="#0" id="circle95"/>
	<circle cx="510.275" cy="855.887" r="4" fill="#0" id="circle96"/>
	<circle cx="523.352" cy="78.7269" r="4" fill="#0" id="circle97"/>
	<circle cx="528.957" cy="837.205" r="4" fill="#0" id="circle98"/>
	<circle cx="536.429" cy="37.6271" r="4" fill="#0" id="circle99"/>
	<circle cx="536.429" cy="56.3089" r="4" fill="#0" id="circle100"/>
	<circle cx="547.638" cy="837.205" r="4" fill="#0" id="circle101"/>
	<circle cx="551.375" cy="22.6817" r="4" fill="#0" id="circle102"/>
	<circle cx="566.32" cy="837.205" r="4" fill="#0" id="circle103"/>
	<circle cx="570.056" cy="22.6817" r="4" fill="#0" id="circle104"/>
	<circle cx="583.134" cy="827.864" r="4" fill="#0" id="circle105"/>
	<circle cx="585.002" cy="7.73635" r="4" fill="#0" id="circle106"/>
	<circle cx="599.947" cy="818.524" r="4" fill="#0" id="circle107"/>
	<circle cx="603.684" cy="4" r="4" fill="#0" id="circle108"/>
	<circle cx="613.024" cy="799.842" r="4" fill="#0" id="circle109"/>
	<circle cx="622.365" cy="9.60452" r="4" fill="#0" id="circle110"/>
	<circle cx="622.365" cy="771.819" r="4" fill="#0" id="circle111"/>
	<circle cx="631.706" cy="753.137" r="4" fill="#0" id="circle112"/>
	<circle cx="637.311" cy="22.6817" r="4" fill="#0" id="circle113"/>
	<circle cx="650.388" cy="734.456" r="4" fill="#0" id="circle114"/>
	<circle cx="654.124" cy="32.0226" r="4" fill="#0" id="circle115"/>
	<circle cx="669.07" cy="734.456" r="4" fill="#0" id="circle116"/>
	<circle cx="672.806" cy="32.0226" r="4" fill="#0" id="circle117"/>
	<circle cx="685.883" cy="743.797" r="4" fill="#0" id="circle118"/>
	<circle cx="689.62" cy="41.3635" r="4" fill="#0" id="circle119"/>
	<circle cx="704.565" cy="743.797" r="4" fill="#0" id="circle120"/>
	<circle cx="706.433" cy="32.0226" r="4" fill="#0" id="circle121"/>
	<circle cx="721.379" cy="753.137" r="4" fill="#0" id="circle122"/>
	<circle cx="723.247" cy="22.6817" r="4" fill="#0" id="circle123"/>
	<circle cx="740.06" cy="749.401" r="4" fill="#0" id="circle124"/>
	<circle cx="741.928" cy="9.60452" r="4" fill="#0" id="circle125"/>
	<circle cx="758.742" cy="743.797" r="4" fill="#0" id="circle126"/>
	<circle cx="760.61" cy="4" r="4" fill="#0" id="circle127"/>
	<circle cx="777.424" cy="743.797" r="4" fill="#0" id="circle128"/>
	<circle cx="779.292" cy="4" r="4" fill="#0" id="circle129"/>
	<circle cx="790.501" cy="18.9454" r="4" fill="#0" id="circle130"/>
	<circle cx="794.237" cy="732.588" r="4" fill="#0" id="circle131"/>
	<circle cx="803.578" cy="715.774" r="4" fill="#0" id="circle132"/>
	<circle cx="809.183" cy="22.6817" r="4" fill="#0" id="circle133"/>
	<circle cx="820.392" cy="706.433" r="4" fill="#0" id="circle134"/>
	<circle cx="827.864" cy="28.2863" r="4" fill="#0" id="circle135"/>
	<circle cx="827.864" cy="669.07" r="4" fill="#0" id="circle136"/>
	<circle cx="827.864" cy="687.751" r="4" fill="#0" id="circle137"/>
	<circle cx="837.205" cy="45.0998" r="4" fill="#0" id="circle138"/>
	<circle cx="837.205" cy="63.7815" r="4" fill="#0" id="circle139"/>
	<circle cx="837.205" cy="631.706" r="4" fill="#0" id="circle140"/>
	<circle cx="837.205" cy="650.388" r="4" fill="#0" id="circle141"/>
	<circle cx="854.019" cy="73.1224" r="4" fill="#0" id="circle142"/>
	<circle cx="855.887" cy="594.343" r="4" fill="#0" id="circle143"/>
	<circle cx="855.887" cy="613.024" r="4" fill="#0" id="circle144"/>
	<circle cx="861.492" cy="91.8041" r="4" fill="#0" id="circle145"/>
	<circle cx="865.228" cy="110.486" r="4" fill="#0" id="circle146"/>
	<circle cx="874.569" cy="594.343" r="4" fill="#0" id="circle147"/>
	<circle cx="883.91" cy="116.09" r="4" fill="#0" id="circle148"/>
	<circle cx="891.382" cy="585.002" r="4" fill="#0" id="circle149"/>
	<circle cx="902.591" cy="121.695" r="4" fill="#0" id="circle150"/>
	<circle cx="910.064" cy="579.397" r="4" fill="#0" id="circle151"/>
	<circle cx="919.405" cy="131.036" r="4" fill="#0" id="circle152"/>
	<circle cx="919.405" cy="560.716" r="4" fill="#0" id="circle153"/>
	<circle cx="934.35" cy="144.113" r="4" fill="#0" id="circle154"/>
	<circle cx="934.35" cy="545.77" r="4" fill="#0" id="circle155"/>
	<circle cx="939.955" cy="162.795" r="4" fill="#0" id="circle156"/>
	<circle cx="949.296" cy="179.608" r="4" fill="#0" id="circle157"/>
	<circle cx="949.296" cy="198.29" r="4" fill="#0" id="circle158"/>
	<circle cx="949.296" cy="216.972" r="4" fill="#0" id="circle159"/>
	<circle cx="949.296" cy="528.957" r="4" fill="#0" id="circle160"/>
	<circle cx="958.637" cy="233.785" r="4" fill="#0" id="circle161"/>
	<circle cx="958.637" cy="252.467" r="4" fill="#0" id="circle162"/>
	<circle cx="958.637" cy="271.149" r="4" fill="#0" id="circle163"/>
	<circle cx="958.637" cy="289.831" r="4" fill="#0" id="circle164"/>
	<circle cx="958.637" cy="308.512" r="4" fill="#0" id="circle165"/>
	<circle cx="958.637" cy="327.194" r="4" fill="#0" id="circle166"/>
	<circle cx="958.637" cy="345.876" r="4" fill="#0" id="circle167"/>
	<circle cx="958.637" cy="500.934" r="4" fill="#0" id="circle168"/>
	<circle cx="977.318" cy="349.612" r="4" fill="#0" id="circle169"/>
	<circle cx="977.318" cy="500.934" r="4" fill="#0" id="circle170"/>
	<circle cx="986.659" cy="366.426" r="4" fill="#0" id="circle171"/>
	<circle cx="986.659" cy="385.107" r="4" fill="#0" id="circle172"/>
	<circle cx="986.659" cy="403.789" r="4" fill="#0" id="circle173"/>
	<circle cx="986.659" cy="454.23" r="4" fill="#0" id="circle174"/>
	<circle cx="986.659" cy="472.911" r="4" fill="#0" id="circle175"/>
	<circle cx="996" cy="420.603" r="4" fill="#0" id="circle176"/>
	</g>
</svg>