<?xml version="1.0" encoding="UTF-8" standalone="no"?>
<!-- Created with CurveBenchmark -->
<svg
	xmlns:dc="http://purl.org/dc/elements/1.1/"
	xmlns:cc="http://creativecommons.org/ns#"
	xmlns:rdf="http://www.w3.org/1999/02/22-rdf-syntax-ns#"
	xmlns:svg="http://www.w3.org/2000/svg"
	xmlns="http://www.w3.org/2000/svg"
	xmlns:sodipodi="http://sodipodi.sourceforge.net/DTD/sodipodi-0.dtd"
	xmlns:inkscape="http://www.inkscape.org/namespaces/inkscape"
	width="1000"
	height="1000"
	id="svg2"
	version="1.1"
	sodipodi:docname="manifold/fitconnect-swamprabbit.png.txt">
<defs
	id="defs4" />
<metadata
	id="metadata7">
	<rdf:RDF>
		<cc:Work
			rdf:about="">
			<dc:format>image/svg+xml</dc:format>
			<dc:type
				rdf:resource="http://purl.org/dc/dcmitype/StillImage" />
			<dc:title></dc:title>
		</cc:Work>
	</rdf:RDF>
</metadata>
<g
	inkscape:label="Layer 1"
	inkscape:groupmode="layer"
	id="layer1">
	<path style="fill:none;stroke:red;stroke-width:1px;stroke-linecap:butt;stroke-linejoin:miter;stroke-opacity:1" d="M 4,380.351 4,402.105 z" id="boundary" inkscape:connector-curvature="0" />
	<path style="fill:none;stroke:red;stroke-width:1px;stroke-linecap:butt;stroke-linejoin:miter;stroke-opacity:1" d="M 4,380.351 14.8772,358.596 z" id="boundary" inkscape:connector-curvature="0" />
	<path style="fill:none;stroke:red;stroke-width:1px;stroke-linecap:butt;stroke-linejoin:miter;stroke-opacity:1" d="M 4,402.105 4,423.86 z" id="boundary" inkscape:connector-curvature="0" />
	<path style="fill:none;stroke:red;stroke-width:1px;stroke-linecap:butt;stroke-linejoin:miter;stroke-opacity:1" d="M 4,423.86 21.4035,439.088 z" id="boundary" inkscape:connector-curvature="0" />
	<path style="fill:none;stroke:red;stroke-width:1px;stroke-linecap:butt;stroke-linejoin:miter;stroke-opacity:1" d="M 14.8772,336.842 14.8772,358.596 z" id="boundary" inkscape:connector-curvature="0" />
	<path style="fill:none;stroke:red;stroke-width:1px;stroke-linecap:butt;stroke-linejoin:miter;stroke-opacity:1" d="M 14.8772,336.842 25.7544,315.088 z" id="boundary" inkscape:connector-curvature="0" />
	<path style="fill:none;stroke:red;stroke-width:1px;stroke-linecap:butt;stroke-linejoin:miter;stroke-opacity:1" d="M 21.4035,439.088 38.807,452.14 z" id="boundary" inkscape:connector-curvature="0" />
	<path style="fill:none;stroke:red;stroke-width:1px;stroke-linecap:butt;stroke-linejoin:miter;stroke-opacity:1" d="M 25.7544,315.088 43.1579,297.684 z" id="boundary" inkscape:connector-curvature="0" />
	<path style="fill:none;stroke:red;stroke-width:1px;stroke-linecap:butt;stroke-linejoin:miter;stroke-opacity:1" d="M 38.807,452.14 58.386,463.018 z" id="boundary" inkscape:connector-curvature="0" />
	<path style="fill:none;stroke:red;stroke-width:1px;stroke-linecap:butt;stroke-linejoin:miter;stroke-opacity:1" d="M 43.1579,297.684 54.0351,275.93 z" id="boundary" inkscape:connector-curvature="0" />
	<path style="fill:none;stroke:red;stroke-width:1px;stroke-linecap:butt;stroke-linejoin:miter;stroke-opacity:1" d="M 54.0351,275.93 64.9123,254.175 z" id="boundary" inkscape:connector-curvature="0" />
	<path style="fill:none;stroke:red;stroke-width:1px;stroke-linecap:butt;stroke-linejoin:miter;stroke-opacity:1" d="M 58.386,463.018 77.9649,473.895 z" id="boundary" inkscape:connector-curvature="0" />
	<path style="fill:none;stroke:red;stroke-width:1px;stroke-linecap:butt;stroke-linejoin:miter;stroke-opacity:1" d="M 64.9123,254.175 86.6667,243.298 z" id="boundary" inkscape:connector-curvature="0" />
	<path style="fill:none;stroke:red;stroke-width:1px;stroke-linecap:butt;stroke-linejoin:miter;stroke-opacity:1" d="M 77.9649,473.895 97.5439,484.772 z" id="boundary" inkscape:connector-curvature="0" />
	<path style="fill:none;stroke:red;stroke-width:1px;stroke-linecap:butt;stroke-linejoin:miter;stroke-opacity:1" d="M 86.6667,243.298 108.421,243.298 z" id="boundary" inkscape:connector-curvature="0" />
	<path style="fill:none;stroke:red;stroke-width:1px;stroke-linecap:butt;stroke-linejoin:miter;stroke-opacity:1" d="M 97.5439,484.772 119.298,484.772 z" id="boundary" inkscape:connector-curvature="0" />
	<path style="fill:none;stroke:red;stroke-width:1px;stroke-linecap:butt;stroke-linejoin:miter;stroke-opacity:1" d="M 108.421,243.298 119.298,221.544 z" id="boundary" inkscape:connector-curvature="0" />
	<path style="fill:none;stroke:red;stroke-width:1px;stroke-linecap:butt;stroke-linejoin:miter;stroke-opacity:1" d="M 119.298,221.544 141.053,210.667 z" id="boundary" inkscape:connector-curvature="0" />
	<path style="fill:none;stroke:red;stroke-width:1px;stroke-linecap:butt;stroke-linejoin:miter;stroke-opacity:1" d="M 119.298,484.772 130.175,504.351 z" id="boundary" inkscape:connector-curvature="0" />
	<path style="fill:none;stroke:red;stroke-width:1px;stroke-linecap:butt;stroke-linejoin:miter;stroke-opacity:1" d="M 130.175,504.351 151.93,506.526 z" id="boundary" inkscape:connector-curvature="0" />
	<path style="fill:none;stroke:red;stroke-width:1px;stroke-linecap:butt;stroke-linejoin:miter;stroke-opacity:1" d="M 141.053,210.667 160.632,199.789 z" id="boundary" inkscape:connector-curvature="0" />
	<path style="fill:none;stroke:red;stroke-width:1px;stroke-linecap:butt;stroke-linejoin:miter;stroke-opacity:1" d="M 151.93,506.526 169.333,521.754 z" id="boundary" inkscape:connector-curvature="0" />
	<path style="fill:none;stroke:red;stroke-width:1px;stroke-linecap:butt;stroke-linejoin:miter;stroke-opacity:1" d="M 160.632,199.789 180.211,188.912 z" id="boundary" inkscape:connector-curvature="0" />
	<path style="fill:none;stroke:red;stroke-width:1px;stroke-linecap:butt;stroke-linejoin:miter;stroke-opacity:1" d="M 169.333,521.754 184.561,539.158 z" id="boundary" inkscape:connector-curvature="0" />
	<path style="fill:none;stroke:red;stroke-width:1px;stroke-linecap:butt;stroke-linejoin:miter;stroke-opacity:1" d="M 178.035,86.6667 178.035,108.421 z" id="boundary" inkscape:connector-curvature="0" />
	<path style="fill:none;stroke:red;stroke-width:1px;stroke-linecap:butt;stroke-linejoin:miter;stroke-opacity:1" d="M 178.035,86.6667 188.912,64.9123 z" id="boundary" inkscape:connector-curvature="0" />
	<path style="fill:none;stroke:red;stroke-width:1px;stroke-linecap:butt;stroke-linejoin:miter;stroke-opacity:1" d="M 178.035,108.421 178.035,130.175 z" id="boundary" inkscape:connector-curvature="0" />
	<path style="fill:none;stroke:red;stroke-width:1px;stroke-linecap:butt;stroke-linejoin:miter;stroke-opacity:1" d="M 178.035,130.175 178.035,151.93 z" id="boundary" inkscape:connector-curvature="0" />
	<path style="fill:none;stroke:red;stroke-width:1px;stroke-linecap:butt;stroke-linejoin:miter;stroke-opacity:1" d="M 178.035,151.93 180.211,188.912 z" id="boundary" inkscape:connector-curvature="0" />
	<path style="fill:none;stroke:red;stroke-width:1px;stroke-linecap:butt;stroke-linejoin:miter;stroke-opacity:1" d="M 184.561,539.158 201.965,554.386 z" id="boundary" inkscape:connector-curvature="0" />
	<path style="fill:none;stroke:red;stroke-width:1px;stroke-linecap:butt;stroke-linejoin:miter;stroke-opacity:1" d="M 188.912,43.1579 188.912,64.9123 z" id="boundary" inkscape:connector-curvature="0" />
	<path style="fill:none;stroke:red;stroke-width:1px;stroke-linecap:butt;stroke-linejoin:miter;stroke-opacity:1" d="M 188.912,43.1579 206.316,25.7544 z" id="boundary" inkscape:connector-curvature="0" />
	<path style="fill:none;stroke:red;stroke-width:1px;stroke-linecap:butt;stroke-linejoin:miter;stroke-opacity:1" d="M 201.965,554.386 217.193,571.789 z" id="boundary" inkscape:connector-curvature="0" />
	<path style="fill:none;stroke:red;stroke-width:1px;stroke-linecap:butt;stroke-linejoin:miter;stroke-opacity:1" d="M 206.316,25.7544 225.895,14.8772 z" id="boundary" inkscape:connector-curvature="0" />
	<path style="fill:none;stroke:red;stroke-width:1px;stroke-linecap:butt;stroke-linejoin:miter;stroke-opacity:1" d="M 206.316,689.263 210.667,713.193 z" id="boundary" inkscape:connector-curvature="0" />
	<path style="fill:none;stroke:red;stroke-width:1px;stroke-linecap:butt;stroke-linejoin:miter;stroke-opacity:1" d="M 206.316,689.263 228.07,689.263 z" id="boundary" inkscape:connector-curvature="0" />
	<path style="fill:none;stroke:red;stroke-width:1px;stroke-linecap:butt;stroke-linejoin:miter;stroke-opacity:1" d="M 210.667,713.193 230.246,724.07 z" id="boundary" inkscape:connector-curvature="0" />
	<path style="fill:none;stroke:red;stroke-width:1px;stroke-linecap:butt;stroke-linejoin:miter;stroke-opacity:1" d="M 217.193,571.789 238.947,580.491 z" id="boundary" inkscape:connector-curvature="0" />
	<path style="fill:none;stroke:red;stroke-width:1px;stroke-linecap:butt;stroke-linejoin:miter;stroke-opacity:1" d="M 225.895,14.8772 245.474,4 z" id="boundary" inkscape:connector-curvature="0" />
	<path style="fill:none;stroke:red;stroke-width:1px;stroke-linecap:butt;stroke-linejoin:miter;stroke-opacity:1" d="M 228.07,689.263 247.649,678.386 z" id="boundary" inkscape:connector-curvature="0" />
	<path style="fill:none;stroke:red;stroke-width:1px;stroke-linecap:butt;stroke-linejoin:miter;stroke-opacity:1" d="M 230.246,724.07 252,724.07 z" id="boundary" inkscape:connector-curvature="0" />
	<path style="fill:none;stroke:red;stroke-width:1px;stroke-linecap:butt;stroke-linejoin:miter;stroke-opacity:1" d="M 238.947,580.491 254.175,597.895 z" id="boundary" inkscape:connector-curvature="0" />
	<path style="fill:none;stroke:red;stroke-width:1px;stroke-linecap:butt;stroke-linejoin:miter;stroke-opacity:1" d="M 245.474,4 267.228,4 z" id="boundary" inkscape:connector-curvature="0" />
	<path style="fill:none;stroke:red;stroke-width:1px;stroke-linecap:butt;stroke-linejoin:miter;stroke-opacity:1" d="M 247.649,678.386 269.404,678.386 z" id="boundary" inkscape:connector-curvature="0" />
	<path style="fill:none;stroke:red;stroke-width:1px;stroke-linecap:butt;stroke-linejoin:miter;stroke-opacity:1" d="M 252,724.07 273.754,724.07 z" id="boundary" inkscape:connector-curvature="0" />
	<path style="fill:none;stroke:red;stroke-width:1px;stroke-linecap:butt;stroke-linejoin:miter;stroke-opacity:1" d="M 254.175,597.895 265.053,617.474 z" id="boundary" inkscape:connector-curvature="0" />
	<path style="fill:none;stroke:red;stroke-width:1px;stroke-linecap:butt;stroke-linejoin:miter;stroke-opacity:1" d="M 265.053,617.474 265.053,639.228 z" id="boundary" inkscape:connector-curvature="0" />
	<path style="fill:none;stroke:red;stroke-width:1px;stroke-linecap:butt;stroke-linejoin:miter;stroke-opacity:1" d="M 265.053,639.228 269.404,678.386 z" id="boundary" inkscape:connector-curvature="0" />
	<path style="fill:none;stroke:red;stroke-width:1px;stroke-linecap:butt;stroke-linejoin:miter;stroke-opacity:1" d="M 267.228,4 288.982,4 z" id="boundary" inkscape:connector-curvature="0" />
	<path style="fill:none;stroke:red;stroke-width:1px;stroke-linecap:butt;stroke-linejoin:miter;stroke-opacity:1" d="M 273.754,724.07 295.509,719.719 z" id="boundary" inkscape:connector-curvature="0" />
	<path style="fill:none;stroke:red;stroke-width:1px;stroke-linecap:butt;stroke-linejoin:miter;stroke-opacity:1" d="M 288.982,4 310.737,4 z" id="boundary" inkscape:connector-curvature="0" />
	<path style="fill:none;stroke:red;stroke-width:1px;stroke-linecap:butt;stroke-linejoin:miter;stroke-opacity:1" d="M 295.509,719.719 310.737,702.316 z" id="boundary" inkscape:connector-curvature="0" />
	<path style="fill:none;stroke:red;stroke-width:1px;stroke-linecap:butt;stroke-linejoin:miter;stroke-opacity:1" d="M 310.737,4 332.491,10.5263 z" id="boundary" inkscape:connector-curvature="0" />
	<path style="fill:none;stroke:red;stroke-width:1px;stroke-linecap:butt;stroke-linejoin:miter;stroke-opacity:1" d="M 310.737,702.316 330.316,713.193 z" id="boundary" inkscape:connector-curvature="0" />
	<path style="fill:none;stroke:red;stroke-width:1px;stroke-linecap:butt;stroke-linejoin:miter;stroke-opacity:1" d="M 330.316,713.193 352.07,713.193 z" id="boundary" inkscape:connector-curvature="0" />
	<path style="fill:none;stroke:red;stroke-width:1px;stroke-linecap:butt;stroke-linejoin:miter;stroke-opacity:1" d="M 332.491,10.5263 343.368,30.1053 z" id="boundary" inkscape:connector-curvature="0" />
	<path style="fill:none;stroke:red;stroke-width:1px;stroke-linecap:butt;stroke-linejoin:miter;stroke-opacity:1" d="M 332.491,169.333 332.491,191.088 z" id="boundary" inkscape:connector-curvature="0" />
	<path style="fill:none;stroke:red;stroke-width:1px;stroke-linecap:butt;stroke-linejoin:miter;stroke-opacity:1" d="M 332.491,169.333 343.368,136.702 z" id="boundary" inkscape:connector-curvature="0" />
	<path style="fill:none;stroke:red;stroke-width:1px;stroke-linecap:butt;stroke-linejoin:miter;stroke-opacity:1" d="M 332.491,191.088 354.246,199.789 z" id="boundary" inkscape:connector-curvature="0" />
	<path style="fill:none;stroke:red;stroke-width:1px;stroke-linecap:butt;stroke-linejoin:miter;stroke-opacity:1" d="M 343.368,30.1053 343.368,51.8596 z" id="boundary" inkscape:connector-curvature="0" />
	<path style="fill:none;stroke:red;stroke-width:1px;stroke-linecap:butt;stroke-linejoin:miter;stroke-opacity:1" d="M 343.368,51.8596 343.368,73.614 z" id="boundary" inkscape:connector-curvature="0" />
	<path style="fill:none;stroke:red;stroke-width:1px;stroke-linecap:butt;stroke-linejoin:miter;stroke-opacity:1" d="M 343.368,73.614 356.421,91.0175 z" id="boundary" inkscape:connector-curvature="0" />
	<path style="fill:none;stroke:red;stroke-width:1px;stroke-linecap:butt;stroke-linejoin:miter;stroke-opacity:1" d="M 343.368,114.947 343.368,136.702 z" id="boundary" inkscape:connector-curvature="0" />
	<path style="fill:none;stroke:red;stroke-width:1px;stroke-linecap:butt;stroke-linejoin:miter;stroke-opacity:1" d="M 343.368,114.947 356.421,91.0175 z" id="boundary" inkscape:connector-curvature="0" />
	<path style="fill:none;stroke:red;stroke-width:1px;stroke-linecap:butt;stroke-linejoin:miter;stroke-opacity:1" d="M 352.07,713.193 371.649,724.07 z" id="boundary" inkscape:connector-curvature="0" />
	<path style="fill:none;stroke:red;stroke-width:1px;stroke-linecap:butt;stroke-linejoin:miter;stroke-opacity:1" d="M 354.246,199.789 376,199.789 z" id="boundary" inkscape:connector-curvature="0" />
	<path style="fill:none;stroke:red;stroke-width:1px;stroke-linecap:butt;stroke-linejoin:miter;stroke-opacity:1" d="M 371.649,724.07 393.404,724.07 z" id="boundary" inkscape:connector-curvature="0" />
	<path style="fill:none;stroke:red;stroke-width:1px;stroke-linecap:butt;stroke-linejoin:miter;stroke-opacity:1" d="M 376,199.789 395.579,210.667 z" id="boundary" inkscape:connector-curvature="0" />
	<path style="fill:none;stroke:red;stroke-width:1px;stroke-linecap:butt;stroke-linejoin:miter;stroke-opacity:1" d="M 393.404,724.07 412.982,713.193 z" id="boundary" inkscape:connector-curvature="0" />
	<path style="fill:none;stroke:red;stroke-width:1px;stroke-linecap:butt;stroke-linejoin:miter;stroke-opacity:1" d="M 395.579,210.667 415.158,199.789 z" id="boundary" inkscape:connector-curvature="0" />
	<path style="fill:none;stroke:red;stroke-width:1px;stroke-linecap:butt;stroke-linejoin:miter;stroke-opacity:1" d="M 412.982,713.193 434.737,713.193 z" id="boundary" inkscape:connector-curvature="0" />
	<path style="fill:none;stroke:red;stroke-width:1px;stroke-linecap:butt;stroke-linejoin:miter;stroke-opacity:1" d="M 415.158,199.789 436.912,199.789 z" id="boundary" inkscape:connector-curvature="0" />
	<path style="fill:none;stroke:red;stroke-width:1px;stroke-linecap:butt;stroke-linejoin:miter;stroke-opacity:1" d="M 434.737,713.193 454.316,702.316 z" id="boundary" inkscape:connector-curvature="0" />
	<path style="fill:none;stroke:red;stroke-width:1px;stroke-linecap:butt;stroke-linejoin:miter;stroke-opacity:1" d="M 436.912,199.789 456.491,188.912 z" id="boundary" inkscape:connector-curvature="0" />
	<path style="fill:none;stroke:red;stroke-width:1px;stroke-linecap:butt;stroke-linejoin:miter;stroke-opacity:1" d="M 454.316,702.316 473.895,713.193 z" id="boundary" inkscape:connector-curvature="0" />
	<path style="fill:none;stroke:red;stroke-width:1px;stroke-linecap:butt;stroke-linejoin:miter;stroke-opacity:1" d="M 456.491,188.912 478.246,178.035 z" id="boundary" inkscape:connector-curvature="0" />
	<path style="fill:none;stroke:red;stroke-width:1px;stroke-linecap:butt;stroke-linejoin:miter;stroke-opacity:1" d="M 471.719,750.175 471.719,771.93 z" id="boundary" inkscape:connector-curvature="0" />
	<path style="fill:none;stroke:red;stroke-width:1px;stroke-linecap:butt;stroke-linejoin:miter;stroke-opacity:1" d="M 471.719,750.175 493.474,743.649 z" id="boundary" inkscape:connector-curvature="0" />
	<path style="fill:none;stroke:red;stroke-width:1px;stroke-linecap:butt;stroke-linejoin:miter;stroke-opacity:1" d="M 471.719,771.93 493.474,778.456 z" id="boundary" inkscape:connector-curvature="0" />
	<path style="fill:none;stroke:red;stroke-width:1px;stroke-linecap:butt;stroke-linejoin:miter;stroke-opacity:1" d="M 473.895,713.193 495.649,713.193 z" id="boundary" inkscape:connector-curvature="0" />
	<path style="fill:none;stroke:red;stroke-width:1px;stroke-linecap:butt;stroke-linejoin:miter;stroke-opacity:1" d="M 478.246,178.035 500,178.035 z" id="boundary" inkscape:connector-curvature="0" />
	<path style="fill:none;stroke:red;stroke-width:1px;stroke-linecap:butt;stroke-linejoin:miter;stroke-opacity:1" d="M 493.474,743.649 513.053,732.772 z" id="boundary" inkscape:connector-curvature="0" />
	<path style="fill:none;stroke:red;stroke-width:1px;stroke-linecap:butt;stroke-linejoin:miter;stroke-opacity:1" d="M 493.474,778.456 513.053,789.333 z" id="boundary" inkscape:connector-curvature="0" />
	<path style="fill:none;stroke:red;stroke-width:1px;stroke-linecap:butt;stroke-linejoin:miter;stroke-opacity:1" d="M 495.649,713.193 513.053,732.772 z" id="boundary" inkscape:connector-curvature="0" />
	<path style="fill:none;stroke:red;stroke-width:1px;stroke-linecap:butt;stroke-linejoin:miter;stroke-opacity:1" d="M 500,178.035 521.754,167.158 z" id="boundary" inkscape:connector-curvature="0" />
	<path style="fill:none;stroke:red;stroke-width:1px;stroke-linecap:butt;stroke-linejoin:miter;stroke-opacity:1" d="M 513.053,789.333 532.632,800.211 z" id="boundary" inkscape:connector-curvature="0" />
	<path style="fill:none;stroke:red;stroke-width:1px;stroke-linecap:butt;stroke-linejoin:miter;stroke-opacity:1" d="M 521.754,167.158 543.509,167.158 z" id="boundary" inkscape:connector-curvature="0" />
	<path style="fill:none;stroke:red;stroke-width:1px;stroke-linecap:butt;stroke-linejoin:miter;stroke-opacity:1" d="M 532.632,800.211 554.386,800.211 z" id="boundary" inkscape:connector-curvature="0" />
	<path style="fill:none;stroke:red;stroke-width:1px;stroke-linecap:butt;stroke-linejoin:miter;stroke-opacity:1" d="M 543.509,167.158 563.088,178.035 z" id="boundary" inkscape:connector-curvature="0" />
	<path style="fill:none;stroke:red;stroke-width:1px;stroke-linecap:butt;stroke-linejoin:miter;stroke-opacity:1" d="M 554.386,800.211 576.14,800.211 z" id="boundary" inkscape:connector-curvature="0" />
	<path style="fill:none;stroke:red;stroke-width:1px;stroke-linecap:butt;stroke-linejoin:miter;stroke-opacity:1" d="M 563.088,178.035 584.842,178.035 z" id="boundary" inkscape:connector-curvature="0" />
	<path style="fill:none;stroke:red;stroke-width:1px;stroke-linecap:butt;stroke-linejoin:miter;stroke-opacity:1" d="M 576.14,800.211 597.895,800.211 z" id="boundary" inkscape:connector-curvature="0" />
	<path style="fill:none;stroke:red;stroke-width:1px;stroke-linecap:butt;stroke-linejoin:miter;stroke-opacity:1" d="M 584.842,178.035 604.421,167.158 z" id="boundary" inkscape:connector-curvature="0" />
	<path style="fill:none;stroke:red;stroke-width:1px;stroke-linecap:butt;stroke-linejoin:miter;stroke-opacity:1" d="M 597.895,800.211 619.649,800.211 z" id="boundary" inkscape:connector-curvature="0" />
	<path style="fill:none;stroke:red;stroke-width:1px;stroke-linecap:butt;stroke-linejoin:miter;stroke-opacity:1" d="M 604.421,167.158 626.175,173.684 z" id="boundary" inkscape:connector-curvature="0" />
	<path style="fill:none;stroke:red;stroke-width:1px;stroke-linecap:butt;stroke-linejoin:miter;stroke-opacity:1" d="M 619.649,800.211 641.404,800.211 z" id="boundary" inkscape:connector-curvature="0" />
	<path style="fill:none;stroke:red;stroke-width:1px;stroke-linecap:butt;stroke-linejoin:miter;stroke-opacity:1" d="M 626.175,173.684 647.93,178.035 z" id="boundary" inkscape:connector-curvature="0" />
	<path style="fill:none;stroke:red;stroke-width:1px;stroke-linecap:butt;stroke-linejoin:miter;stroke-opacity:1" d="M 641.404,800.211 663.158,800.211 z" id="boundary" inkscape:connector-curvature="0" />
	<path style="fill:none;stroke:red;stroke-width:1px;stroke-linecap:butt;stroke-linejoin:miter;stroke-opacity:1" d="M 647.93,178.035 669.684,178.035 z" id="boundary" inkscape:connector-curvature="0" />
	<path style="fill:none;stroke:red;stroke-width:1px;stroke-linecap:butt;stroke-linejoin:miter;stroke-opacity:1" d="M 663.158,800.211 684.912,800.211 z" id="boundary" inkscape:connector-curvature="0" />
	<path style="fill:none;stroke:red;stroke-width:1px;stroke-linecap:butt;stroke-linejoin:miter;stroke-opacity:1" d="M 669.684,178.035 687.088,191.088 z" id="boundary" inkscape:connector-curvature="0" />
	<path style="fill:none;stroke:red;stroke-width:1px;stroke-linecap:butt;stroke-linejoin:miter;stroke-opacity:1" d="M 684.912,800.211 706.667,800.211 z" id="boundary" inkscape:connector-curvature="0" />
	<path style="fill:none;stroke:red;stroke-width:1px;stroke-linecap:butt;stroke-linejoin:miter;stroke-opacity:1" d="M 687.088,191.088 708.842,191.088 z" id="boundary" inkscape:connector-curvature="0" />
	<path style="fill:none;stroke:red;stroke-width:1px;stroke-linecap:butt;stroke-linejoin:miter;stroke-opacity:1" d="M 706.667,800.211 728.421,800.211 z" id="boundary" inkscape:connector-curvature="0" />
	<path style="fill:none;stroke:red;stroke-width:1px;stroke-linecap:butt;stroke-linejoin:miter;stroke-opacity:1" d="M 708.842,191.088 730.596,199.789 z" id="boundary" inkscape:connector-curvature="0" />
	<path style="fill:none;stroke:red;stroke-width:1px;stroke-linecap:butt;stroke-linejoin:miter;stroke-opacity:1" d="M 728.421,800.211 750.175,798.035 z" id="boundary" inkscape:connector-curvature="0" />
	<path style="fill:none;stroke:red;stroke-width:1px;stroke-linecap:butt;stroke-linejoin:miter;stroke-opacity:1" d="M 730.596,199.789 750.175,210.667 z" id="boundary" inkscape:connector-curvature="0" />
	<path style="fill:none;stroke:red;stroke-width:1px;stroke-linecap:butt;stroke-linejoin:miter;stroke-opacity:1" d="M 750.175,210.667 769.754,221.544 z" id="boundary" inkscape:connector-curvature="0" />
	<path style="fill:none;stroke:red;stroke-width:1px;stroke-linecap:butt;stroke-linejoin:miter;stroke-opacity:1" d="M 750.175,798.035 771.93,789.333 z" id="boundary" inkscape:connector-curvature="0" />
	<path style="fill:none;stroke:red;stroke-width:1px;stroke-linecap:butt;stroke-linejoin:miter;stroke-opacity:1" d="M 769.754,221.544 789.333,232.421 z" id="boundary" inkscape:connector-curvature="0" />
	<path style="fill:none;stroke:red;stroke-width:1px;stroke-linecap:butt;stroke-linejoin:miter;stroke-opacity:1" d="M 771.93,789.333 793.684,789.333 z" id="boundary" inkscape:connector-curvature="0" />
	<path style="fill:none;stroke:red;stroke-width:1px;stroke-linecap:butt;stroke-linejoin:miter;stroke-opacity:1" d="M 789.333,232.421 806.737,245.474 z" id="boundary" inkscape:connector-curvature="0" />
	<path style="fill:none;stroke:red;stroke-width:1px;stroke-linecap:butt;stroke-linejoin:miter;stroke-opacity:1" d="M 793.684,789.333 815.439,789.333 z" id="boundary" inkscape:connector-curvature="0" />
	<path style="fill:none;stroke:red;stroke-width:1px;stroke-linecap:butt;stroke-linejoin:miter;stroke-opacity:1" d="M 806.737,245.474 817.614,265.053 z" id="boundary" inkscape:connector-curvature="0" />
	<path style="fill:none;stroke:red;stroke-width:1px;stroke-linecap:butt;stroke-linejoin:miter;stroke-opacity:1" d="M 815.439,789.333 837.193,787.158 z" id="boundary" inkscape:connector-curvature="0" />
	<path style="fill:none;stroke:red;stroke-width:1px;stroke-linecap:butt;stroke-linejoin:miter;stroke-opacity:1" d="M 817.614,265.053 832.842,282.456 z" id="boundary" inkscape:connector-curvature="0" />
	<path style="fill:none;stroke:red;stroke-width:1px;stroke-linecap:butt;stroke-linejoin:miter;stroke-opacity:1" d="M 832.842,282.456 852.421,293.333 z" id="boundary" inkscape:connector-curvature="0" />
	<path style="fill:none;stroke:red;stroke-width:1px;stroke-linecap:butt;stroke-linejoin:miter;stroke-opacity:1" d="M 837.193,787.158 858.947,787.158 z" id="boundary" inkscape:connector-curvature="0" />
	<path style="fill:none;stroke:red;stroke-width:1px;stroke-linecap:butt;stroke-linejoin:miter;stroke-opacity:1" d="M 852.421,293.333 874.175,302.035 z" id="boundary" inkscape:connector-curvature="0" />
	<path style="fill:none;stroke:red;stroke-width:1px;stroke-linecap:butt;stroke-linejoin:miter;stroke-opacity:1" d="M 858.947,787.158 880.702,789.333 z" id="boundary" inkscape:connector-curvature="0" />
	<path style="fill:none;stroke:red;stroke-width:1px;stroke-linecap:butt;stroke-linejoin:miter;stroke-opacity:1" d="M 874.175,302.035 887.228,319.439 z" id="boundary" inkscape:connector-curvature="0" />
	<path style="fill:none;stroke:red;stroke-width:1px;stroke-linecap:butt;stroke-linejoin:miter;stroke-opacity:1" d="M 880.702,789.333 902.456,789.333 z" id="boundary" inkscape:connector-curvature="0" />
	<path style="fill:none;stroke:red;stroke-width:1px;stroke-linecap:butt;stroke-linejoin:miter;stroke-opacity:1" d="M 887.228,319.439 904.632,332.491 z" id="boundary" inkscape:connector-curvature="0" />
	<path style="fill:none;stroke:red;stroke-width:1px;stroke-linecap:butt;stroke-linejoin:miter;stroke-opacity:1" d="M 902.456,789.333 922.035,778.456 z" id="boundary" inkscape:connector-curvature="0" />
	<path style="fill:none;stroke:red;stroke-width:1px;stroke-linecap:butt;stroke-linejoin:miter;stroke-opacity:1" d="M 904.632,332.491 919.86,349.895 z" id="boundary" inkscape:connector-curvature="0" />
	<path style="fill:none;stroke:red;stroke-width:1px;stroke-linecap:butt;stroke-linejoin:miter;stroke-opacity:1" d="M 919.86,349.895 919.86,376 z" id="boundary" inkscape:connector-curvature="0" />
	<path style="fill:none;stroke:red;stroke-width:1px;stroke-linecap:butt;stroke-linejoin:miter;stroke-opacity:1" d="M 919.86,376 930.737,395.579 z" id="boundary" inkscape:connector-curvature="0" />
	<path style="fill:none;stroke:red;stroke-width:1px;stroke-linecap:butt;stroke-linejoin:miter;stroke-opacity:1" d="M 922.035,778.456 941.614,767.579 z" id="boundary" inkscape:connector-curvature="0" />
	<path style="fill:none;stroke:red;stroke-width:1px;stroke-linecap:butt;stroke-linejoin:miter;stroke-opacity:1" d="M 930.737,395.579 941.614,415.158 z" id="boundary" inkscape:connector-curvature="0" />
	<path style="fill:none;stroke:red;stroke-width:1px;stroke-linecap:butt;stroke-linejoin:miter;stroke-opacity:1" d="M 941.614,415.158 952.491,434.737 z" id="boundary" inkscape:connector-curvature="0" />
	<path style="fill:none;stroke:red;stroke-width:1px;stroke-linecap:butt;stroke-linejoin:miter;stroke-opacity:1" d="M 941.614,767.579 952.491,745.825 z" id="boundary" inkscape:connector-curvature="0" />
	<path style="fill:none;stroke:red;stroke-width:1px;stroke-linecap:butt;stroke-linejoin:miter;stroke-opacity:1" d="M 952.491,434.737 961.193,456.491 z" id="boundary" inkscape:connector-curvature="0" />
	<path style="fill:none;stroke:red;stroke-width:1px;stroke-linecap:butt;stroke-linejoin:miter;stroke-opacity:1" d="M 952.491,745.825 969.895,730.596 z" id="boundary" inkscape:connector-curvature="0" />
	<path style="fill:none;stroke:red;stroke-width:1px;stroke-linecap:butt;stroke-linejoin:miter;stroke-opacity:1" d="M 961.193,456.491 974.246,473.895 z" id="boundary" inkscape:connector-curvature="0" />
	<path style="fill:none;stroke:red;stroke-width:1px;stroke-linecap:butt;stroke-linejoin:miter;stroke-opacity:1" d="M 963.368,647.93 963.368,669.684 z" id="boundary" inkscape:connector-curvature="0" />
	<path style="fill:none;stroke:red;stroke-width:1px;stroke-linecap:butt;stroke-linejoin:miter;stroke-opacity:1" d="M 963.368,647.93 974.246,626.175 z" id="boundary" inkscape:connector-curvature="0" />
	<path style="fill:none;stroke:red;stroke-width:1px;stroke-linecap:butt;stroke-linejoin:miter;stroke-opacity:1" d="M 963.368,669.684 963.368,691.439 z" id="boundary" inkscape:connector-curvature="0" />
	<path style="fill:none;stroke:red;stroke-width:1px;stroke-linecap:butt;stroke-linejoin:miter;stroke-opacity:1" d="M 963.368,691.439 969.895,730.596 z" id="boundary" inkscape:connector-curvature="0" />
	<path style="fill:none;stroke:red;stroke-width:1px;stroke-linecap:butt;stroke-linejoin:miter;stroke-opacity:1" d="M 974.246,473.895 974.246,495.649 z" id="boundary" inkscape:connector-curvature="0" />
	<path style="fill:none;stroke:red;stroke-width:1px;stroke-linecap:butt;stroke-linejoin:miter;stroke-opacity:1" d="M 974.246,495.649 974.246,528.281 z" id="boundary" inkscape:connector-curvature="0" />
	<path style="fill:none;stroke:red;stroke-width:1px;stroke-linecap:butt;stroke-linejoin:miter;stroke-opacity:1" d="M 974.246,528.281 991.649,541.333 z" id="boundary" inkscape:connector-curvature="0" />
	<path style="fill:none;stroke:red;stroke-width:1px;stroke-linecap:butt;stroke-linejoin:miter;stroke-opacity:1" d="M 974.246,582.667 974.246,604.421 z" id="boundary" inkscape:connector-curvature="0" />
	<path style="fill:none;stroke:red;stroke-width:1px;stroke-linecap:butt;stroke-linejoin:miter;stroke-opacity:1" d="M 974.246,582.667 996,563.088 z" id="boundary" inkscape:connector-curvature="0" />
	<path style="fill:none;stroke:red;stroke-width:1px;stroke-linecap:butt;stroke-linejoin:miter;stroke-opacity:1" d="M 974.246,604.421 974.246,626.175 z" id="boundary" inkscape:connector-curvature="0" />
	<path style="fill:none;stroke:red;stroke-width:1px;stroke-linecap:butt;stroke-linejoin:miter;stroke-opacity:1" d="M 991.649,541.333 996,563.088 z" id="boundary" inkscape:connector-curvature="0" />
	<circle cx="4" cy="380.351" r="4" fill="#0" id="circle0"/>
	<circle cx="4" cy="402.105" r="4" fill="#0" id="circle1"/>
	<circle cx="4" cy="423.86" r="4" fill="#0" id="circle2"/>
	<circle cx="14.8772" cy="336.842" r="4" fill="#0" id="circle3"/>
	<circle cx="14.8772" cy="358.596" r="4" fill="#0" id="circle4"/>
	<circle cx="21.4035" cy="439.088" r="4" fill="#0" id="circle5"/>
	<circle cx="25.7544" cy="315.088" r="4" fill="#0" id="circle6"/>
	<circle cx="38.807" cy="452.14" r="4" fill="#0" id="circle7"/>
	<circle cx="43.1579" cy="297.684" r="4" fill="#0" id="circle8"/>
	<circle cx="54.0351" cy="275.93" r="4" fill="#0" id="circle9"/>
	<circle cx="58.386" cy="463.018" r="4" fill="#0" id="circle10"/>
	<circle cx="64.9123" cy="254.175" r="4" fill="#0" id="circle11"/>
	<circle cx="77.9649" cy="473.895" r="4" fill="#0" id="circle12"/>
	<circle cx="86.6667" cy="243.298" r="4" fill="#0" id="circle13"/>
	<circle cx="97.5439" cy="484.772" r="4" fill="#0" id="circle14"/>
	<circle cx="108.421" cy="243.298" r="4" fill="#0" id="circle15"/>
	<circle cx="119.298" cy="221.544" r="4" fill="#0" id="circle16"/>
	<circle cx="119.298" cy="484.772" r="4" fill="#0" id="circle17"/>
	<circle cx="130.175" cy="504.351" r="4" fill="#0" id="circle18"/>
	<circle cx="141.053" cy="210.667" r="4" fill="#0" id="circle19"/>
	<circle cx="151.93" cy="506.526" r="4" fill="#0" id="circle20"/>
	<circle cx="160.632" cy="199.789" r="4" fill="#0" id="circle21"/>
	<circle cx="169.333" cy="521.754" r="4" fill="#0" id="circle22"/>
	<circle cx="178.035" cy="86.6667" r="4" fill="#0" id="circle23"/>
	<circle cx="178.035" cy="108.421" r="4" fill="#0" id="circle24"/>
	<circle cx="178.035" cy="130.175" r="4" fill="#0" id="circle25"/>
	<circle cx="178.035" cy="151.93" r="4" fill="#0" id="circle26"/>
	<circle cx="180.211" cy="188.912" r="4" fill="#0" id="circle27"/>
	<circle cx="184.561" cy="539.158" r="4" fill="#0" id="circle28"/>
	<circle cx="188.912" cy="43.1579" r="4" fill="#0" id="circle29"/>
	<circle cx="188.912" cy="64.9123" r="4" fill="#0" id="circle30"/>
	<circle cx="188.912" cy="706.667" r="4" fill="#0" id="circle31"/>
	<circle cx="201.965" cy="554.386" r="4" fill="#0" id="circle32"/>
	<circle cx="206.316" cy="25.7544" r="4" fill="#0" id="circle33"/>
	<circle cx="206.316" cy="689.263" r="4" fill="#0" id="circle34"/>
	<circle cx="210.667" cy="713.193" r="4" fill="#0" id="circle35"/>
	<circle cx="217.193" cy="571.789" r="4" fill="#0" id="circle36"/>
	<circle cx="225.895" cy="14.8772" r="4" fill="#0" id="circle37"/>
	<circle cx="228.07" cy="689.263" r="4" fill="#0" id="circle38"/>
	<circle cx="230.246" cy="724.07" r="4" fill="#0" id="circle39"/>
	<circle cx="238.947" cy="580.491" r="4" fill="#0" id="circle40"/>
	<circle cx="245.474" cy="4" r="4" fill="#0" id="circle41"/>
	<circle cx="247.649" cy="678.386" r="4" fill="#0" id="circle42"/>
	<circle cx="252" cy="724.07" r="4" fill="#0" id="circle43"/>
	<circle cx="254.175" cy="597.895" r="4" fill="#0" id="circle44"/>
	<circle cx="265.053" cy="617.474" r="4" fill="#0" id="circle45"/>
	<circle cx="265.053" cy="639.228" r="4" fill="#0" id="circle46"/>
	<circle cx="267.228" cy="4" r="4" fill="#0" id="circle47"/>
	<circle cx="269.404" cy="678.386" r="4" fill="#0" id="circle48"/>
	<circle cx="273.754" cy="724.07" r="4" fill="#0" id="circle49"/>
	<circle cx="288.982" cy="4" r="4" fill="#0" id="circle50"/>
	<circle cx="295.509" cy="719.719" r="4" fill="#0" id="circle51"/>
	<circle cx="310.737" cy="4" r="4" fill="#0" id="circle52"/>
	<circle cx="310.737" cy="702.316" r="4" fill="#0" id="circle53"/>
	<circle cx="330.316" cy="713.193" r="4" fill="#0" id="circle54"/>
	<circle cx="332.491" cy="10.5263" r="4" fill="#0" id="circle55"/>
	<circle cx="332.491" cy="169.333" r="4" fill="#0" id="circle56"/>
	<circle cx="332.491" cy="191.088" r="4" fill="#0" id="circle57"/>
	<circle cx="343.368" cy="30.1053" r="4" fill="#0" id="circle58"/>
	<circle cx="343.368" cy="51.8596" r="4" fill="#0" id="circle59"/>
	<circle cx="343.368" cy="73.614" r="4" fill="#0" id="circle60"/>
	<circle cx="343.368" cy="114.947" r="4" fill="#0" id="circle61"/>
	<circle cx="343.368" cy="136.702" r="4" fill="#0" id="circle62"/>
	<circle cx="352.07" cy="713.193" r="4" fill="#0" id="circle63"/>
	<circle cx="354.246" cy="199.789" r="4" fill="#0" id="circle64"/>
	<circle cx="356.421" cy="91.0175" r="4" fill="#0" id="circle65"/>
	<circle cx="371.649" cy="724.07" r="4" fill="#0" id="circle66"/>
	<circle cx="376" cy="199.789" r="4" fill="#0" id="circle67"/>
	<circle cx="393.404" cy="724.07" r="4" fill="#0" id="circle68"/>
	<circle cx="395.579" cy="210.667" r="4" fill="#0" id="circle69"/>
	<circle cx="412.982" cy="713.193" r="4" fill="#0" id="circle70"/>
	<circle cx="415.158" cy="199.789" r="4" fill="#0" id="circle71"/>
	<circle cx="434.737" cy="713.193" r="4" fill="#0" id="circle72"/>
	<circle cx="436.912" cy="199.789" r="4" fill="#0" id="circle73"/>
	<circle cx="454.316" cy="702.316" r="4" fill="#0" id="circle74"/>
	<circle cx="456.491" cy="188.912" r="4" fill="#0" id="circle75"/>
	<circle cx="471.719" cy="750.175" r="4" fill="#0" id="circle76"/>
	<circle cx="471.719" cy="771.93" r="4" fill="#0" id="circle77"/>
	<circle cx="473.895" cy="713.193" r="4" fill="#0" id="circle78"/>
	<circle cx="478.246" cy="178.035" r="4" fill="#0" id="circle79"/>
	<circle cx="493.474" cy="743.649" r="4" fill="#0" id="circle80"/>
	<circle cx="493.474" cy="778.456" r="4" fill="#0" id="circle81"/>
	<circle cx="495.649" cy="713.193" r="4" fill="#0" id="circle82"/>
	<circle cx="500" cy="178.035" r="4" fill="#0" id="circle83"/>
	<circle cx="513.053" cy="732.772" r="4" fill="#0" id="circle84"/>
	<circle cx="513.053" cy="789.333" r="4" fill="#0" id="circle85"/>
	<circle cx="521.754" cy="167.158" r="4" fill="#0" id="circle86"/>
	<circle cx="532.632" cy="800.211" r="4" fill="#0" id="circle87"/>
	<circle cx="543.509" cy="167.158" r="4" fill="#0" id="circle88"/>
	<circle cx="554.386" cy="800.211" r="4" fill="#0" id="circle89"/>
	<circle cx="563.088" cy="178.035" r="4" fill="#0" id="circle90"/>
	<circle cx="576.14" cy="800.211" r="4" fill="#0" id="circle91"/>
	<circle cx="584.842" cy="178.035" r="4" fill="#0" id="circle92"/>
	<circle cx="597.895" cy="800.211" r="4" fill="#0" id="circle93"/>
	<circle cx="604.421" cy="167.158" r="4" fill="#0" id="circle94"/>
	<circle cx="619.649" cy="800.211" r="4" fill="#0" id="circle95"/>
	<circle cx="626.175" cy="173.684" r="4" fill="#0" id="circle96"/>
	<circle cx="641.404" cy="800.211" r="4" fill="#0" id="circle97"/>
	<circle cx="647.93" cy="178.035" r="4" fill="#0" id="circle98"/>
	<circle cx="663.158" cy="800.211" r="4" fill="#0" id="circle99"/>
	<circle cx="669.684" cy="178.035" r="4" fill="#0" id="circle100"/>
	<circle cx="684.912" cy="800.211" r="4" fill="#0" id="circle101"/>
	<circle cx="687.088" cy="191.088" r="4" fill="#0" id="circle102"/>
	<circle cx="706.667" cy="800.211" r="4" fill="#0" id="circle103"/>
	<circle cx="708.842" cy="191.088" r="4" fill="#0" id="circle104"/>
	<circle cx="728.421" cy="800.211" r="4" fill="#0" id="circle105"/>
	<circle cx="730.596" cy="199.789" r="4" fill="#0" id="circle106"/>
	<circle cx="750.175" cy="210.667" r="4" fill="#0" id="circle107"/>
	<circle cx="750.175" cy="798.035" r="4" fill="#0" id="circle108"/>
	<circle cx="769.754" cy="221.544" r="4" fill="#0" id="circle109"/>
	<circle cx="771.93" cy="789.333" r="4" fill="#0" id="circle110"/>
	<circle cx="789.333" cy="232.421" r="4" fill="#0" id="circle111"/>
	<circle cx="793.684" cy="789.333" r="4" fill="#0" id="circle112"/>
	<circle cx="806.737" cy="245.474" r="4" fill="#0" id="circle113"/>
	<circle cx="815.439" cy="789.333" r="4" fill="#0" id="circle114"/>
	<circle cx="817.614" cy="265.053" r="4" fill="#0" id="circle115"/>
	<circle cx="832.842" cy="282.456" r="4" fill="#0" id="circle116"/>
	<circle cx="837.193" cy="787.158" r="4" fill="#0" id="circle117"/>
	<circle cx="852.421" cy="293.333" r="4" fill="#0" id="circle118"/>
	<circle cx="858.947" cy="787.158" r="4" fill="#0" id="circle119"/>
	<circle cx="874.175" cy="302.035" r="4" fill="#0" id="circle120"/>
	<circle cx="880.702" cy="789.333" r="4" fill="#0" id="circle121"/>
	<circle cx="887.228" cy="319.439" r="4" fill="#0" id="circle122"/>
	<circle cx="902.456" cy="789.333" r="4" fill="#0" id="circle123"/>
	<circle cx="904.632" cy="332.491" r="4" fill="#0" id="circle124"/>
	<circle cx="919.86" cy="349.895" r="4" fill="#0" id="circle125"/>
	<circle cx="919.86" cy="376" r="4" fill="#0" id="circle126"/>
	<circle cx="922.035" cy="778.456" r="4" fill="#0" id="circle127"/>
	<circle cx="930.737" cy="395.579" r="4" fill="#0" id="circle128"/>
	<circle cx="941.614" cy="415.158" r="4" fill="#0" id="circle129"/>
	<circle cx="941.614" cy="767.579" r="4" fill="#0" id="circle130"/>
	<circle cx="952.491" cy="434.737" r="4" fill="#0" id="circle131"/>
	<circle cx="952.491" cy="745.825" r="4" fill="#0" id="circle132"/>
	<circle cx="961.193" cy="456.491" r="4" fill="#0" id="circle133"/>
	<circle cx="963.368" cy="647.93" r="4" fill="#0" id="circle134"/>
	<circle cx="963.368" cy="669.684" r="4" fill="#0" id="circle135"/>
	<circle cx="963.368" cy="691.439" r="4" fill="#0" id="circle136"/>
	<circle cx="969.895" cy="730.596" r="4" fill="#0" id="circle137"/>
	<circle cx="974.246" cy="473.895" r="4" fill="#0" id="circle138"/>
	<circle cx="974.246" cy="495.649" r="4" fill="#0" id="circle139"/>
	<circle cx="974.246" cy="528.281" r="4" fill="#0" id="circle140"/>
	<circle cx="974.246" cy="582.667" r="4" fill="#0" id="circle141"/>
	<circle cx="974.246" cy="604.421" r="4" fill="#0" id="circle142"/>
	<circle cx="974.246" cy="626.175" r="4" fill="#0" id="circle143"/>
	<circle cx="991.649" cy="541.333" r="4" fill="#0" id="circle144"/>
	<circle cx="996" cy="563.088" r="4" fill="#0" id="circle145"/>
	</g>
</svg>