<?xml version="1.0" encoding="UTF-8" standalone="no"?>
<!-- Created with CurveBenchmark -->
<svg
	xmlns:dc="http://purl.org/dc/elements/1.1/"
	xmlns:cc="http://creativecommons.org/ns#"
	xmlns:rdf="http://www.w3.org/1999/02/22-rdf-syntax-ns#"
	xmlns:svg="http://www.w3.org/2000/svg"
	xmlns="http://www.w3.org/2000/svg"
	xmlns:sodipodi="http://sodipodi.sourceforge.net/DTD/sodipodi-0.dtd"
	xmlns:inkscape="http://www.inkscape.org/namespaces/inkscape"
	width="1000"
	height="1000"
	id="svg2"
	version="1.1"
	sodipodi:docname="manifold/fitconnect-hammer315.png.txt">
<defs
	id="defs4" />
<metadata
	id="metadata7">
	<rdf:RDF>
		<cc:Work
			rdf:about="">
			<dc:format>image/svg+xml</dc:format>
			<dc:type
				rdf:resource="http://purl.org/dc/dcmitype/StillImage" />
			<dc:title></dc:title>
		</cc:Work>
	</rdf:RDF>
</metadata>
<g
	inkscape:label="Layer 1"
	inkscape:groupmode="layer"
	id="layer1">
	<path style="fill:none;stroke:red;stroke-width:1px;stroke-linecap:butt;stroke-linejoin:miter;stroke-opacity:1" d="M 4,153.519 15.5014,113.264 z" id="boundary" inkscape:connector-curvature="0" />
	<path style="fill:none;stroke:red;stroke-width:1px;stroke-linecap:butt;stroke-linejoin:miter;stroke-opacity:1" d="M 4,153.519 18.3768,179.397 z" id="boundary" inkscape:connector-curvature="0" />
	<path style="fill:none;stroke:red;stroke-width:1px;stroke-linecap:butt;stroke-linejoin:miter;stroke-opacity:1" d="M 15.5014,113.264 29.8783,87.3855 z" id="boundary" inkscape:connector-curvature="0" />
	<path style="fill:none;stroke:red;stroke-width:1px;stroke-linecap:butt;stroke-linejoin:miter;stroke-opacity:1" d="M 18.3768,179.397 47.1304,179.397 z" id="boundary" inkscape:connector-curvature="0" />
	<path style="fill:none;stroke:red;stroke-width:1px;stroke-linecap:butt;stroke-linejoin:miter;stroke-opacity:1" d="M 29.8783,87.3855 44.2551,61.5072 z" id="boundary" inkscape:connector-curvature="0" />
	<path style="fill:none;stroke:red;stroke-width:1px;stroke-linecap:butt;stroke-linejoin:miter;stroke-opacity:1" d="M 44.2551,61.5072 67.258,38.5043 z" id="boundary" inkscape:connector-curvature="0" />
	<path style="fill:none;stroke:red;stroke-width:1px;stroke-linecap:butt;stroke-linejoin:miter;stroke-opacity:1" d="M 47.1304,179.397 75.8841,176.522 z" id="boundary" inkscape:connector-curvature="0" />
	<path style="fill:none;stroke:red;stroke-width:1px;stroke-linecap:butt;stroke-linejoin:miter;stroke-opacity:1" d="M 67.258,38.5043 90.2609,15.5014 z" id="boundary" inkscape:connector-curvature="0" />
	<path style="fill:none;stroke:red;stroke-width:1px;stroke-linecap:butt;stroke-linejoin:miter;stroke-opacity:1" d="M 75.8841,176.522 87.3855,147.768 z" id="boundary" inkscape:connector-curvature="0" />
	<path style="fill:none;stroke:red;stroke-width:1px;stroke-linecap:butt;stroke-linejoin:miter;stroke-opacity:1" d="M 87.3855,147.768 116.139,156.394 z" id="boundary" inkscape:connector-curvature="0" />
	<path style="fill:none;stroke:red;stroke-width:1px;stroke-linecap:butt;stroke-linejoin:miter;stroke-opacity:1" d="M 90.2609,15.5014 119.014,4 z" id="boundary" inkscape:connector-curvature="0" />
	<path style="fill:none;stroke:red;stroke-width:1px;stroke-linecap:butt;stroke-linejoin:miter;stroke-opacity:1" d="M 101.762,987.374 107.513,935.617 z" id="boundary" inkscape:connector-curvature="0" />
	<path style="fill:none;stroke:red;stroke-width:1px;stroke-linecap:butt;stroke-linejoin:miter;stroke-opacity:1" d="M 101.762,987.374 130.516,996 z" id="boundary" inkscape:connector-curvature="0" />
	<path style="fill:none;stroke:red;stroke-width:1px;stroke-linecap:butt;stroke-linejoin:miter;stroke-opacity:1" d="M 107.513,935.617 113.264,889.612 z" id="boundary" inkscape:connector-curvature="0" />
	<path style="fill:none;stroke:red;stroke-width:1px;stroke-linecap:butt;stroke-linejoin:miter;stroke-opacity:1" d="M 113.264,487.061 113.264,515.814 z" id="boundary" inkscape:connector-curvature="0" />
	<path style="fill:none;stroke:red;stroke-width:1px;stroke-linecap:butt;stroke-linejoin:miter;stroke-opacity:1" d="M 113.264,487.061 124.765,458.307 z" id="boundary" inkscape:connector-curvature="0" />
	<path style="fill:none;stroke:red;stroke-width:1px;stroke-linecap:butt;stroke-linejoin:miter;stroke-opacity:1" d="M 113.264,515.814 113.264,544.568 z" id="boundary" inkscape:connector-curvature="0" />
	<path style="fill:none;stroke:red;stroke-width:1px;stroke-linecap:butt;stroke-linejoin:miter;stroke-opacity:1" d="M 113.264,544.568 113.264,573.322 z" id="boundary" inkscape:connector-curvature="0" />
	<path style="fill:none;stroke:red;stroke-width:1px;stroke-linecap:butt;stroke-linejoin:miter;stroke-opacity:1" d="M 113.264,573.322 113.264,602.075 z" id="boundary" inkscape:connector-curvature="0" />
	<path style="fill:none;stroke:red;stroke-width:1px;stroke-linecap:butt;stroke-linejoin:miter;stroke-opacity:1" d="M 113.264,602.075 113.264,630.829 z" id="boundary" inkscape:connector-curvature="0" />
	<path style="fill:none;stroke:red;stroke-width:1px;stroke-linecap:butt;stroke-linejoin:miter;stroke-opacity:1" d="M 113.264,630.829 113.264,659.583 z" id="boundary" inkscape:connector-curvature="0" />
	<path style="fill:none;stroke:red;stroke-width:1px;stroke-linecap:butt;stroke-linejoin:miter;stroke-opacity:1" d="M 113.264,659.583 113.264,688.336 z" id="boundary" inkscape:connector-curvature="0" />
	<path style="fill:none;stroke:red;stroke-width:1px;stroke-linecap:butt;stroke-linejoin:miter;stroke-opacity:1" d="M 113.264,688.336 113.264,717.09 z" id="boundary" inkscape:connector-curvature="0" />
	<path style="fill:none;stroke:red;stroke-width:1px;stroke-linecap:butt;stroke-linejoin:miter;stroke-opacity:1" d="M 113.264,717.09 113.264,745.843 z" id="boundary" inkscape:connector-curvature="0" />
	<path style="fill:none;stroke:red;stroke-width:1px;stroke-linecap:butt;stroke-linejoin:miter;stroke-opacity:1" d="M 113.264,745.843 113.264,774.597 z" id="boundary" inkscape:connector-curvature="0" />
	<path style="fill:none;stroke:red;stroke-width:1px;stroke-linecap:butt;stroke-linejoin:miter;stroke-opacity:1" d="M 113.264,774.597 113.264,803.351 z" id="boundary" inkscape:connector-curvature="0" />
	<path style="fill:none;stroke:red;stroke-width:1px;stroke-linecap:butt;stroke-linejoin:miter;stroke-opacity:1" d="M 113.264,803.351 113.264,832.104 z" id="boundary" inkscape:connector-curvature="0" />
	<path style="fill:none;stroke:red;stroke-width:1px;stroke-linecap:butt;stroke-linejoin:miter;stroke-opacity:1" d="M 113.264,832.104 113.264,860.858 z" id="boundary" inkscape:connector-curvature="0" />
	<path style="fill:none;stroke:red;stroke-width:1px;stroke-linecap:butt;stroke-linejoin:miter;stroke-opacity:1" d="M 113.264,860.858 113.264,889.612 z" id="boundary" inkscape:connector-curvature="0" />
	<path style="fill:none;stroke:red;stroke-width:1px;stroke-linecap:butt;stroke-linejoin:miter;stroke-opacity:1" d="M 116.139,156.394 130.516,182.272 z" id="boundary" inkscape:connector-curvature="0" />
	<path style="fill:none;stroke:red;stroke-width:1px;stroke-linecap:butt;stroke-linejoin:miter;stroke-opacity:1" d="M 119.014,4 147.768,4 z" id="boundary" inkscape:connector-curvature="0" />
	<path style="fill:none;stroke:red;stroke-width:1px;stroke-linecap:butt;stroke-linejoin:miter;stroke-opacity:1" d="M 124.765,458.307 136.267,406.551 z" id="boundary" inkscape:connector-curvature="0" />
	<path style="fill:none;stroke:red;stroke-width:1px;stroke-linecap:butt;stroke-linejoin:miter;stroke-opacity:1" d="M 130.516,182.272 136.267,211.026 z" id="boundary" inkscape:connector-curvature="0" />
	<path style="fill:none;stroke:red;stroke-width:1px;stroke-linecap:butt;stroke-linejoin:miter;stroke-opacity:1" d="M 130.516,996 159.27,996 z" id="boundary" inkscape:connector-curvature="0" />
	<path style="fill:none;stroke:red;stroke-width:1px;stroke-linecap:butt;stroke-linejoin:miter;stroke-opacity:1" d="M 136.267,211.026 136.267,239.78 z" id="boundary" inkscape:connector-curvature="0" />
	<path style="fill:none;stroke:red;stroke-width:1px;stroke-linecap:butt;stroke-linejoin:miter;stroke-opacity:1" d="M 136.267,239.78 139.142,268.533 z" id="boundary" inkscape:connector-curvature="0" />
	<path style="fill:none;stroke:red;stroke-width:1px;stroke-linecap:butt;stroke-linejoin:miter;stroke-opacity:1" d="M 136.267,406.551 142.017,354.794 z" id="boundary" inkscape:connector-curvature="0" />
	<path style="fill:none;stroke:red;stroke-width:1px;stroke-linecap:butt;stroke-linejoin:miter;stroke-opacity:1" d="M 139.142,268.533 142.017,297.287 z" id="boundary" inkscape:connector-curvature="0" />
	<path style="fill:none;stroke:red;stroke-width:1px;stroke-linecap:butt;stroke-linejoin:miter;stroke-opacity:1" d="M 142.017,297.287 142.017,326.041 z" id="boundary" inkscape:connector-curvature="0" />
	<path style="fill:none;stroke:red;stroke-width:1px;stroke-linecap:butt;stroke-linejoin:miter;stroke-opacity:1" d="M 142.017,326.041 142.017,354.794 z" id="boundary" inkscape:connector-curvature="0" />
	<path style="fill:none;stroke:red;stroke-width:1px;stroke-linecap:butt;stroke-linejoin:miter;stroke-opacity:1" d="M 147.768,4 176.522,4 z" id="boundary" inkscape:connector-curvature="0" />
	<path style="fill:none;stroke:red;stroke-width:1px;stroke-linecap:butt;stroke-linejoin:miter;stroke-opacity:1" d="M 159.27,996 188.023,996 z" id="boundary" inkscape:connector-curvature="0" />
	<path style="fill:none;stroke:red;stroke-width:1px;stroke-linecap:butt;stroke-linejoin:miter;stroke-opacity:1" d="M 176.522,4 205.275,4 z" id="boundary" inkscape:connector-curvature="0" />
	<path style="fill:none;stroke:red;stroke-width:1px;stroke-linecap:butt;stroke-linejoin:miter;stroke-opacity:1" d="M 188.023,996 216.777,996 z" id="boundary" inkscape:connector-curvature="0" />
	<path style="fill:none;stroke:red;stroke-width:1px;stroke-linecap:butt;stroke-linejoin:miter;stroke-opacity:1" d="M 205.275,4 234.029,4 z" id="boundary" inkscape:connector-curvature="0" />
	<path style="fill:none;stroke:red;stroke-width:1px;stroke-linecap:butt;stroke-linejoin:miter;stroke-opacity:1" d="M 213.901,268.533 213.901,297.287 z" id="boundary" inkscape:connector-curvature="0" />
	<path style="fill:none;stroke:red;stroke-width:1px;stroke-linecap:butt;stroke-linejoin:miter;stroke-opacity:1" d="M 213.901,268.533 219.652,234.029 z" id="boundary" inkscape:connector-curvature="0" />
	<path style="fill:none;stroke:red;stroke-width:1px;stroke-linecap:butt;stroke-linejoin:miter;stroke-opacity:1" d="M 213.901,297.287 213.901,326.041 z" id="boundary" inkscape:connector-curvature="0" />
	<path style="fill:none;stroke:red;stroke-width:1px;stroke-linecap:butt;stroke-linejoin:miter;stroke-opacity:1" d="M 213.901,326.041 213.901,354.794 z" id="boundary" inkscape:connector-curvature="0" />
	<path style="fill:none;stroke:red;stroke-width:1px;stroke-linecap:butt;stroke-linejoin:miter;stroke-opacity:1" d="M 213.901,354.794 213.901,383.548 z" id="boundary" inkscape:connector-curvature="0" />
	<path style="fill:none;stroke:red;stroke-width:1px;stroke-linecap:butt;stroke-linejoin:miter;stroke-opacity:1" d="M 213.901,383.548 219.652,412.301 z" id="boundary" inkscape:connector-curvature="0" />
	<path style="fill:none;stroke:red;stroke-width:1px;stroke-linecap:butt;stroke-linejoin:miter;stroke-opacity:1" d="M 216.777,996 245.53,996 z" id="boundary" inkscape:connector-curvature="0" />
	<path style="fill:none;stroke:red;stroke-width:1px;stroke-linecap:butt;stroke-linejoin:miter;stroke-opacity:1" d="M 219.652,205.275 219.652,234.029 z" id="boundary" inkscape:connector-curvature="0" />
	<path style="fill:none;stroke:red;stroke-width:1px;stroke-linecap:butt;stroke-linejoin:miter;stroke-opacity:1" d="M 219.652,205.275 231.154,159.27 z" id="boundary" inkscape:connector-curvature="0" />
	<path style="fill:none;stroke:red;stroke-width:1px;stroke-linecap:butt;stroke-linejoin:miter;stroke-opacity:1" d="M 219.652,412.301 225.403,441.055 z" id="boundary" inkscape:connector-curvature="0" />
	<path style="fill:none;stroke:red;stroke-width:1px;stroke-linecap:butt;stroke-linejoin:miter;stroke-opacity:1" d="M 225.403,441.055 234.029,469.809 z" id="boundary" inkscape:connector-curvature="0" />
	<path style="fill:none;stroke:red;stroke-width:1px;stroke-linecap:butt;stroke-linejoin:miter;stroke-opacity:1" d="M 231.154,159.27 242.655,130.516 z" id="boundary" inkscape:connector-curvature="0" />
	<path style="fill:none;stroke:red;stroke-width:1px;stroke-linecap:butt;stroke-linejoin:miter;stroke-opacity:1" d="M 234.029,4 262.783,9.75072 z" id="boundary" inkscape:connector-curvature="0" />
	<path style="fill:none;stroke:red;stroke-width:1px;stroke-linecap:butt;stroke-linejoin:miter;stroke-opacity:1" d="M 234.029,469.809 242.655,498.562 z" id="boundary" inkscape:connector-curvature="0" />
	<path style="fill:none;stroke:red;stroke-width:1px;stroke-linecap:butt;stroke-linejoin:miter;stroke-opacity:1" d="M 242.655,130.516 248.406,84.5101 z" id="boundary" inkscape:connector-curvature="0" />
	<path style="fill:none;stroke:red;stroke-width:1px;stroke-linecap:butt;stroke-linejoin:miter;stroke-opacity:1" d="M 242.655,498.562 242.655,527.316 z" id="boundary" inkscape:connector-curvature="0" />
	<path style="fill:none;stroke:red;stroke-width:1px;stroke-linecap:butt;stroke-linejoin:miter;stroke-opacity:1" d="M 242.655,527.316 242.655,556.07 z" id="boundary" inkscape:connector-curvature="0" />
	<path style="fill:none;stroke:red;stroke-width:1px;stroke-linecap:butt;stroke-linejoin:miter;stroke-opacity:1" d="M 242.655,556.07 242.655,584.823 z" id="boundary" inkscape:connector-curvature="0" />
	<path style="fill:none;stroke:red;stroke-width:1px;stroke-linecap:butt;stroke-linejoin:miter;stroke-opacity:1" d="M 242.655,584.823 242.655,613.577 z" id="boundary" inkscape:connector-curvature="0" />
	<path style="fill:none;stroke:red;stroke-width:1px;stroke-linecap:butt;stroke-linejoin:miter;stroke-opacity:1" d="M 242.655,613.577 242.655,642.33 z" id="boundary" inkscape:connector-curvature="0" />
	<path style="fill:none;stroke:red;stroke-width:1px;stroke-linecap:butt;stroke-linejoin:miter;stroke-opacity:1" d="M 242.655,642.33 242.655,671.084 z" id="boundary" inkscape:connector-curvature="0" />
	<path style="fill:none;stroke:red;stroke-width:1px;stroke-linecap:butt;stroke-linejoin:miter;stroke-opacity:1" d="M 242.655,671.084 242.655,699.838 z" id="boundary" inkscape:connector-curvature="0" />
	<path style="fill:none;stroke:red;stroke-width:1px;stroke-linecap:butt;stroke-linejoin:miter;stroke-opacity:1" d="M 242.655,699.838 242.655,728.591 z" id="boundary" inkscape:connector-curvature="0" />
	<path style="fill:none;stroke:red;stroke-width:1px;stroke-linecap:butt;stroke-linejoin:miter;stroke-opacity:1" d="M 242.655,728.591 242.655,757.345 z" id="boundary" inkscape:connector-curvature="0" />
	<path style="fill:none;stroke:red;stroke-width:1px;stroke-linecap:butt;stroke-linejoin:miter;stroke-opacity:1" d="M 242.655,757.345 242.655,786.099 z" id="boundary" inkscape:connector-curvature="0" />
	<path style="fill:none;stroke:red;stroke-width:1px;stroke-linecap:butt;stroke-linejoin:miter;stroke-opacity:1" d="M 242.655,786.099 242.655,814.852 z" id="boundary" inkscape:connector-curvature="0" />
	<path style="fill:none;stroke:red;stroke-width:1px;stroke-linecap:butt;stroke-linejoin:miter;stroke-opacity:1" d="M 242.655,814.852 242.655,843.606 z" id="boundary" inkscape:connector-curvature="0" />
	<path style="fill:none;stroke:red;stroke-width:1px;stroke-linecap:butt;stroke-linejoin:miter;stroke-opacity:1" d="M 242.655,843.606 242.655,872.359 z" id="boundary" inkscape:connector-curvature="0" />
	<path style="fill:none;stroke:red;stroke-width:1px;stroke-linecap:butt;stroke-linejoin:miter;stroke-opacity:1" d="M 242.655,872.359 242.655,901.113 z" id="boundary" inkscape:connector-curvature="0" />
	<path style="fill:none;stroke:red;stroke-width:1px;stroke-linecap:butt;stroke-linejoin:miter;stroke-opacity:1" d="M 242.655,901.113 242.655,929.867 z" id="boundary" inkscape:connector-curvature="0" />
	<path style="fill:none;stroke:red;stroke-width:1px;stroke-linecap:butt;stroke-linejoin:miter;stroke-opacity:1" d="M 242.655,929.867 248.406,958.62 z" id="boundary" inkscape:connector-curvature="0" />
	<path style="fill:none;stroke:red;stroke-width:1px;stroke-linecap:butt;stroke-linejoin:miter;stroke-opacity:1" d="M 245.53,996 248.406,958.62 z" id="boundary" inkscape:connector-curvature="0" />
	<path style="fill:none;stroke:red;stroke-width:1px;stroke-linecap:butt;stroke-linejoin:miter;stroke-opacity:1" d="M 248.406,84.5101 277.159,93.1362 z" id="boundary" inkscape:connector-curvature="0" />
	<path style="fill:none;stroke:red;stroke-width:1px;stroke-linecap:butt;stroke-linejoin:miter;stroke-opacity:1" d="M 262.783,9.75072 291.536,4 z" id="boundary" inkscape:connector-curvature="0" />
	<path style="fill:none;stroke:red;stroke-width:1px;stroke-linecap:butt;stroke-linejoin:miter;stroke-opacity:1" d="M 277.159,93.1362 305.913,93.1362 z" id="boundary" inkscape:connector-curvature="0" />
	<path style="fill:none;stroke:red;stroke-width:1px;stroke-linecap:butt;stroke-linejoin:miter;stroke-opacity:1" d="M 291.536,4 320.29,6.87536 z" id="boundary" inkscape:connector-curvature="0" />
	<path style="fill:none;stroke:red;stroke-width:1px;stroke-linecap:butt;stroke-linejoin:miter;stroke-opacity:1" d="M 305.913,93.1362 328.916,67.258 z" id="boundary" inkscape:connector-curvature="0" />
	<path style="fill:none;stroke:red;stroke-width:1px;stroke-linecap:butt;stroke-linejoin:miter;stroke-opacity:1" d="M 320.29,6.87536 334.667,32.7536 z" id="boundary" inkscape:connector-curvature="0" />
	<path style="fill:none;stroke:red;stroke-width:1px;stroke-linecap:butt;stroke-linejoin:miter;stroke-opacity:1" d="M 328.916,67.258 334.667,32.7536 z" id="boundary" inkscape:connector-curvature="0" />
	<circle cx="4" cy="153.519" r="4" fill="#0" id="circle0"/>
	<circle cx="15.5014" cy="113.264" r="4" fill="#0" id="circle1"/>
	<circle cx="18.3768" cy="179.397" r="4" fill="#0" id="circle2"/>
	<circle cx="29.8783" cy="87.3855" r="4" fill="#0" id="circle3"/>
	<circle cx="44.2551" cy="61.5072" r="4" fill="#0" id="circle4"/>
	<circle cx="47.1304" cy="179.397" r="4" fill="#0" id="circle5"/>
	<circle cx="67.258" cy="38.5043" r="4" fill="#0" id="circle6"/>
	<circle cx="75.8841" cy="176.522" r="4" fill="#0" id="circle7"/>
	<circle cx="87.3855" cy="147.768" r="4" fill="#0" id="circle8"/>
	<circle cx="90.2609" cy="15.5014" r="4" fill="#0" id="circle9"/>
	<circle cx="101.762" cy="121.89" r="4" fill="#0" id="circle10"/>
	<circle cx="101.762" cy="987.374" r="4" fill="#0" id="circle11"/>
	<circle cx="107.513" cy="935.617" r="4" fill="#0" id="circle12"/>
	<circle cx="113.264" cy="487.061" r="4" fill="#0" id="circle13"/>
	<circle cx="113.264" cy="515.814" r="4" fill="#0" id="circle14"/>
	<circle cx="113.264" cy="544.568" r="4" fill="#0" id="circle15"/>
	<circle cx="113.264" cy="573.322" r="4" fill="#0" id="circle16"/>
	<circle cx="113.264" cy="602.075" r="4" fill="#0" id="circle17"/>
	<circle cx="113.264" cy="630.829" r="4" fill="#0" id="circle18"/>
	<circle cx="113.264" cy="659.583" r="4" fill="#0" id="circle19"/>
	<circle cx="113.264" cy="688.336" r="4" fill="#0" id="circle20"/>
	<circle cx="113.264" cy="717.09" r="4" fill="#0" id="circle21"/>
	<circle cx="113.264" cy="745.843" r="4" fill="#0" id="circle22"/>
	<circle cx="113.264" cy="774.597" r="4" fill="#0" id="circle23"/>
	<circle cx="113.264" cy="803.351" r="4" fill="#0" id="circle24"/>
	<circle cx="113.264" cy="832.104" r="4" fill="#0" id="circle25"/>
	<circle cx="113.264" cy="860.858" r="4" fill="#0" id="circle26"/>
	<circle cx="113.264" cy="889.612" r="4" fill="#0" id="circle27"/>
	<circle cx="116.139" cy="156.394" r="4" fill="#0" id="circle28"/>
	<circle cx="119.014" cy="4" r="4" fill="#0" id="circle29"/>
	<circle cx="124.765" cy="458.307" r="4" fill="#0" id="circle30"/>
	<circle cx="130.516" cy="182.272" r="4" fill="#0" id="circle31"/>
	<circle cx="130.516" cy="996" r="4" fill="#0" id="circle32"/>
	<circle cx="136.267" cy="211.026" r="4" fill="#0" id="circle33"/>
	<circle cx="136.267" cy="239.78" r="4" fill="#0" id="circle34"/>
	<circle cx="136.267" cy="406.551" r="4" fill="#0" id="circle35"/>
	<circle cx="139.142" cy="268.533" r="4" fill="#0" id="circle36"/>
	<circle cx="142.017" cy="297.287" r="4" fill="#0" id="circle37"/>
	<circle cx="142.017" cy="326.041" r="4" fill="#0" id="circle38"/>
	<circle cx="142.017" cy="354.794" r="4" fill="#0" id="circle39"/>
	<circle cx="147.768" cy="4" r="4" fill="#0" id="circle40"/>
	<circle cx="159.27" cy="996" r="4" fill="#0" id="circle41"/>
	<circle cx="176.522" cy="4" r="4" fill="#0" id="circle42"/>
	<circle cx="188.023" cy="996" r="4" fill="#0" id="circle43"/>
	<circle cx="205.275" cy="4" r="4" fill="#0" id="circle44"/>
	<circle cx="213.901" cy="268.533" r="4" fill="#0" id="circle45"/>
	<circle cx="213.901" cy="297.287" r="4" fill="#0" id="circle46"/>
	<circle cx="213.901" cy="326.041" r="4" fill="#0" id="circle47"/>
	<circle cx="213.901" cy="354.794" r="4" fill="#0" id="circle48"/>
	<circle cx="213.901" cy="383.548" r="4" fill="#0" id="circle49"/>
	<circle cx="216.777" cy="996" r="4" fill="#0" id="circle50"/>
	<circle cx="219.652" cy="205.275" r="4" fill="#0" id="circle51"/>
	<circle cx="219.652" cy="234.029" r="4" fill="#0" id="circle52"/>
	<circle cx="219.652" cy="412.301" r="4" fill="#0" id="circle53"/>
	<circle cx="225.403" cy="441.055" r="4" fill="#0" id="circle54"/>
	<circle cx="231.154" cy="159.27" r="4" fill="#0" id="circle55"/>
	<circle cx="234.029" cy="4" r="4" fill="#0" id="circle56"/>
	<circle cx="234.029" cy="469.809" r="4" fill="#0" id="circle57"/>
	<circle cx="242.655" cy="130.516" r="4" fill="#0" id="circle58"/>
	<circle cx="242.655" cy="498.562" r="4" fill="#0" id="circle59"/>
	<circle cx="242.655" cy="527.316" r="4" fill="#0" id="circle60"/>
	<circle cx="242.655" cy="556.07" r="4" fill="#0" id="circle61"/>
	<circle cx="242.655" cy="584.823" r="4" fill="#0" id="circle62"/>
	<circle cx="242.655" cy="613.577" r="4" fill="#0" id="circle63"/>
	<circle cx="242.655" cy="642.33" r="4" fill="#0" id="circle64"/>
	<circle cx="242.655" cy="671.084" r="4" fill="#0" id="circle65"/>
	<circle cx="242.655" cy="699.838" r="4" fill="#0" id="circle66"/>
	<circle cx="242.655" cy="728.591" r="4" fill="#0" id="circle67"/>
	<circle cx="242.655" cy="757.345" r="4" fill="#0" id="circle68"/>
	<circle cx="242.655" cy="786.099" r="4" fill="#0" id="circle69"/>
	<circle cx="242.655" cy="814.852" r="4" fill="#0" id="circle70"/>
	<circle cx="242.655" cy="843.606" r="4" fill="#0" id="circle71"/>
	<circle cx="242.655" cy="872.359" r="4" fill="#0" id="circle72"/>
	<circle cx="242.655" cy="901.113" r="4" fill="#0" id="circle73"/>
	<circle cx="242.655" cy="929.867" r="4" fill="#0" id="circle74"/>
	<circle cx="245.53" cy="996" r="4" fill="#0" id="circle75"/>
	<circle cx="248.406" cy="84.5101" r="4" fill="#0" id="circle76"/>
	<circle cx="248.406" cy="958.62" r="4" fill="#0" id="circle77"/>
	<circle cx="262.783" cy="9.75072" r="4" fill="#0" id="circle78"/>
	<circle cx="277.159" cy="93.1362" r="4" fill="#0" id="circle79"/>
	<circle cx="291.536" cy="4" r="4" fill="#0" id="circle80"/>
	<circle cx="305.913" cy="93.1362" r="4" fill="#0" id="circle81"/>
	<circle cx="320.29" cy="6.87536" r="4" fill="#0" id="circle82"/>
	<circle cx="328.916" cy="67.258" r="4" fill="#0" id="circle83"/>
	<circle cx="334.667" cy="32.7536" r="4" fill="#0" id="circle84"/>
	</g>
</svg>