<?xml version="1.0" encoding="UTF-8" standalone="no"?>
<!-- Created with CurveBenchmark -->
<svg
	xmlns:dc="http://purl.org/dc/elements/1.1/"
	xmlns:cc="http://creativecommons.org/ns#"
	xmlns:rdf="http://www.w3.org/1999/02/22-rdf-syntax-ns#"
	xmlns:svg="http://www.w3.org/2000/svg"
	xmlns="http://www.w3.org/2000/svg"
	xmlns:sodipodi="http://sodipodi.sourceforge.net/DTD/sodipodi-0.dtd"
	xmlns:inkscape="http://www.inkscape.org/namespaces/inkscape"
	width="1000"
	height="1000"
	id="svg2"
	version="1.1"
	sodipodi:docname="manifold/fitconnect-Misk18.png.txt">
<defs
	id="defs4" />
<metadata
	id="metadata7">
	<rdf:RDF>
		<cc:Work
			rdf:about="">
			<dc:format>image/svg+xml</dc:format>
			<dc:type
				rdf:resource="http://purl.org/dc/dcmitype/StillImage" />
			<dc:title></dc:title>
		</cc:Work>
	</rdf:RDF>
</metadata>
<g
	inkscape:label="Layer 1"
	inkscape:groupmode="layer"
	id="layer1">
	<path style="fill:none;stroke:red;stroke-width:1px;stroke-linecap:butt;stroke-linejoin:miter;stroke-opacity:1" d="M 4,207.022 12.2529,190.516 z" id="boundary" inkscape:connector-curvature="0" />
	<path style="fill:none;stroke:red;stroke-width:1px;stroke-linecap:butt;stroke-linejoin:miter;stroke-opacity:1" d="M 4,207.022 12.2529,221.877 z" id="boundary" inkscape:connector-curvature="0" />
	<path style="fill:none;stroke:red;stroke-width:1px;stroke-linecap:butt;stroke-linejoin:miter;stroke-opacity:1" d="M 12.2529,190.516 25.4576,177.311 z" id="boundary" inkscape:connector-curvature="0" />
	<path style="fill:none;stroke:red;stroke-width:1px;stroke-linecap:butt;stroke-linejoin:miter;stroke-opacity:1" d="M 12.2529,221.877 23.807,235.082 z" id="boundary" inkscape:connector-curvature="0" />
	<path style="fill:none;stroke:red;stroke-width:1px;stroke-linecap:butt;stroke-linejoin:miter;stroke-opacity:1" d="M 23.807,235.082 40.3128,241.684 z" id="boundary" inkscape:connector-curvature="0" />
	<path style="fill:none;stroke:red;stroke-width:1px;stroke-linecap:butt;stroke-linejoin:miter;stroke-opacity:1" d="M 25.4576,177.311 40.3128,169.058 z" id="boundary" inkscape:connector-curvature="0" />
	<path style="fill:none;stroke:red;stroke-width:1px;stroke-linecap:butt;stroke-linejoin:miter;stroke-opacity:1" d="M 37.0116,693.943 37.0116,710.449 z" id="boundary" inkscape:connector-curvature="0" />
	<path style="fill:none;stroke:red;stroke-width:1px;stroke-linecap:butt;stroke-linejoin:miter;stroke-opacity:1" d="M 37.0116,693.943 45.2646,669.185 z" id="boundary" inkscape:connector-curvature="0" />
	<path style="fill:none;stroke:red;stroke-width:1px;stroke-linecap:butt;stroke-linejoin:miter;stroke-opacity:1" d="M 37.0116,710.449 45.2646,725.304 z" id="boundary" inkscape:connector-curvature="0" />
	<path style="fill:none;stroke:red;stroke-width:1px;stroke-linecap:butt;stroke-linejoin:miter;stroke-opacity:1" d="M 40.3128,169.058 53.5175,157.504 z" id="boundary" inkscape:connector-curvature="0" />
	<path style="fill:none;stroke:red;stroke-width:1px;stroke-linecap:butt;stroke-linejoin:miter;stroke-opacity:1" d="M 40.3128,241.684 53.5175,253.238 z" id="boundary" inkscape:connector-curvature="0" />
	<path style="fill:none;stroke:red;stroke-width:1px;stroke-linecap:butt;stroke-linejoin:miter;stroke-opacity:1" d="M 45.2646,669.185 53.5175,652.679 z" id="boundary" inkscape:connector-curvature="0" />
	<path style="fill:none;stroke:red;stroke-width:1px;stroke-linecap:butt;stroke-linejoin:miter;stroke-opacity:1" d="M 45.2646,725.304 53.5175,740.16 z" id="boundary" inkscape:connector-curvature="0" />
	<path style="fill:none;stroke:red;stroke-width:1px;stroke-linecap:butt;stroke-linejoin:miter;stroke-opacity:1" d="M 53.5175,157.504 66.7221,144.3 z" id="boundary" inkscape:connector-curvature="0" />
	<path style="fill:none;stroke:red;stroke-width:1px;stroke-linecap:butt;stroke-linejoin:miter;stroke-opacity:1" d="M 53.5175,253.238 63.421,266.443 z" id="boundary" inkscape:connector-curvature="0" />
	<path style="fill:none;stroke:red;stroke-width:1px;stroke-linecap:butt;stroke-linejoin:miter;stroke-opacity:1" d="M 53.5175,652.679 61.7704,627.92 z" id="boundary" inkscape:connector-curvature="0" />
	<path style="fill:none;stroke:red;stroke-width:1px;stroke-linecap:butt;stroke-linejoin:miter;stroke-opacity:1" d="M 53.5175,740.16 58.4692,756.666 z" id="boundary" inkscape:connector-curvature="0" />
	<path style="fill:none;stroke:red;stroke-width:1px;stroke-linecap:butt;stroke-linejoin:miter;stroke-opacity:1" d="M 58.4692,756.666 66.7221,771.521 z" id="boundary" inkscape:connector-curvature="0" />
	<path style="fill:none;stroke:red;stroke-width:1px;stroke-linecap:butt;stroke-linejoin:miter;stroke-opacity:1" d="M 61.7704,627.92 70.0233,611.414 z" id="boundary" inkscape:connector-curvature="0" />
	<path style="fill:none;stroke:red;stroke-width:1px;stroke-linecap:butt;stroke-linejoin:miter;stroke-opacity:1" d="M 63.421,266.443 76.6256,277.997 z" id="boundary" inkscape:connector-curvature="0" />
	<path style="fill:none;stroke:red;stroke-width:1px;stroke-linecap:butt;stroke-linejoin:miter;stroke-opacity:1" d="M 66.7221,144.3 83.228,136.047 z" id="boundary" inkscape:connector-curvature="0" />
	<path style="fill:none;stroke:red;stroke-width:1px;stroke-linecap:butt;stroke-linejoin:miter;stroke-opacity:1" d="M 66.7221,771.521 78.2762,784.725 z" id="boundary" inkscape:connector-curvature="0" />
	<path style="fill:none;stroke:red;stroke-width:1px;stroke-linecap:butt;stroke-linejoin:miter;stroke-opacity:1" d="M 70.0233,611.414 78.2762,594.908 z" id="boundary" inkscape:connector-curvature="0" />
	<path style="fill:none;stroke:red;stroke-width:1px;stroke-linecap:butt;stroke-linejoin:miter;stroke-opacity:1" d="M 76.6256,277.997 88.1797,291.201 z" id="boundary" inkscape:connector-curvature="0" />
	<path style="fill:none;stroke:red;stroke-width:1px;stroke-linecap:butt;stroke-linejoin:miter;stroke-opacity:1" d="M 78.2762,594.908 86.5291,578.403 z" id="boundary" inkscape:connector-curvature="0" />
	<path style="fill:none;stroke:red;stroke-width:1px;stroke-linecap:butt;stroke-linejoin:miter;stroke-opacity:1" d="M 78.2762,784.725 94.782,784.725 z" id="boundary" inkscape:connector-curvature="0" />
	<path style="fill:none;stroke:red;stroke-width:1px;stroke-linecap:butt;stroke-linejoin:miter;stroke-opacity:1" d="M 83.228,136.047 96.4326,122.842 z" id="boundary" inkscape:connector-curvature="0" />
	<path style="fill:none;stroke:red;stroke-width:1px;stroke-linecap:butt;stroke-linejoin:miter;stroke-opacity:1" d="M 86.5291,578.403 94.782,561.897 z" id="boundary" inkscape:connector-curvature="0" />
	<path style="fill:none;stroke:red;stroke-width:1px;stroke-linecap:butt;stroke-linejoin:miter;stroke-opacity:1" d="M 88.1797,291.201 101.384,302.755 z" id="boundary" inkscape:connector-curvature="0" />
	<path style="fill:none;stroke:red;stroke-width:1px;stroke-linecap:butt;stroke-linejoin:miter;stroke-opacity:1" d="M 94.782,561.897 107.987,548.692 z" id="boundary" inkscape:connector-curvature="0" />
	<path style="fill:none;stroke:red;stroke-width:1px;stroke-linecap:butt;stroke-linejoin:miter;stroke-opacity:1" d="M 94.782,784.725 111.288,781.424 z" id="boundary" inkscape:connector-curvature="0" />
	<path style="fill:none;stroke:red;stroke-width:1px;stroke-linecap:butt;stroke-linejoin:miter;stroke-opacity:1" d="M 96.4326,122.842 109.637,111.288 z" id="boundary" inkscape:connector-curvature="0" />
	<path style="fill:none;stroke:red;stroke-width:1px;stroke-linecap:butt;stroke-linejoin:miter;stroke-opacity:1" d="M 101.384,302.755 107.987,319.261 z" id="boundary" inkscape:connector-curvature="0" />
	<path style="fill:none;stroke:red;stroke-width:1px;stroke-linecap:butt;stroke-linejoin:miter;stroke-opacity:1" d="M 107.987,319.261 111.288,335.767 z" id="boundary" inkscape:connector-curvature="0" />
	<path style="fill:none;stroke:red;stroke-width:1px;stroke-linecap:butt;stroke-linejoin:miter;stroke-opacity:1" d="M 107.987,548.692 111.288,528.885 z" id="boundary" inkscape:connector-curvature="0" />
	<path style="fill:none;stroke:red;stroke-width:1px;stroke-linecap:butt;stroke-linejoin:miter;stroke-opacity:1" d="M 109.637,111.288 121.191,98.0832 z" id="boundary" inkscape:connector-curvature="0" />
	<path style="fill:none;stroke:red;stroke-width:1px;stroke-linecap:butt;stroke-linejoin:miter;stroke-opacity:1" d="M 111.288,335.767 119.541,350.622 z" id="boundary" inkscape:connector-curvature="0" />
	<path style="fill:none;stroke:red;stroke-width:1px;stroke-linecap:butt;stroke-linejoin:miter;stroke-opacity:1" d="M 111.288,528.885 119.541,512.379 z" id="boundary" inkscape:connector-curvature="0" />
	<path style="fill:none;stroke:red;stroke-width:1px;stroke-linecap:butt;stroke-linejoin:miter;stroke-opacity:1" d="M 111.288,781.424 127.794,781.424 z" id="boundary" inkscape:connector-curvature="0" />
	<path style="fill:none;stroke:red;stroke-width:1px;stroke-linecap:butt;stroke-linejoin:miter;stroke-opacity:1" d="M 119.541,350.622 127.794,365.478 z" id="boundary" inkscape:connector-curvature="0" />
	<path style="fill:none;stroke:red;stroke-width:1px;stroke-linecap:butt;stroke-linejoin:miter;stroke-opacity:1" d="M 119.541,512.379 127.794,495.874 z" id="boundary" inkscape:connector-curvature="0" />
	<path style="fill:none;stroke:red;stroke-width:1px;stroke-linecap:butt;stroke-linejoin:miter;stroke-opacity:1" d="M 121.191,98.0832 134.396,86.5291 z" id="boundary" inkscape:connector-curvature="0" />
	<path style="fill:none;stroke:red;stroke-width:1px;stroke-linecap:butt;stroke-linejoin:miter;stroke-opacity:1" d="M 127.794,365.478 127.794,381.983 z" id="boundary" inkscape:connector-curvature="0" />
	<path style="fill:none;stroke:red;stroke-width:1px;stroke-linecap:butt;stroke-linejoin:miter;stroke-opacity:1" d="M 127.794,381.983 127.794,398.489 z" id="boundary" inkscape:connector-curvature="0" />
	<path style="fill:none;stroke:red;stroke-width:1px;stroke-linecap:butt;stroke-linejoin:miter;stroke-opacity:1" d="M 127.794,398.489 136.047,413.344 z" id="boundary" inkscape:connector-curvature="0" />
	<path style="fill:none;stroke:red;stroke-width:1px;stroke-linecap:butt;stroke-linejoin:miter;stroke-opacity:1" d="M 127.794,446.356 127.794,462.862 z" id="boundary" inkscape:connector-curvature="0" />
	<path style="fill:none;stroke:red;stroke-width:1px;stroke-linecap:butt;stroke-linejoin:miter;stroke-opacity:1" d="M 127.794,446.356 136.047,429.85 z" id="boundary" inkscape:connector-curvature="0" />
	<path style="fill:none;stroke:red;stroke-width:1px;stroke-linecap:butt;stroke-linejoin:miter;stroke-opacity:1" d="M 127.794,462.862 127.794,479.368 z" id="boundary" inkscape:connector-curvature="0" />
	<path style="fill:none;stroke:red;stroke-width:1px;stroke-linecap:butt;stroke-linejoin:miter;stroke-opacity:1" d="M 127.794,479.368 127.794,495.874 z" id="boundary" inkscape:connector-curvature="0" />
	<path style="fill:none;stroke:red;stroke-width:1px;stroke-linecap:butt;stroke-linejoin:miter;stroke-opacity:1" d="M 127.794,781.424 137.697,794.629 z" id="boundary" inkscape:connector-curvature="0" />
	<path style="fill:none;stroke:red;stroke-width:1px;stroke-linecap:butt;stroke-linejoin:miter;stroke-opacity:1" d="M 134.396,86.5291 149.251,78.2762 z" id="boundary" inkscape:connector-curvature="0" />
	<path style="fill:none;stroke:red;stroke-width:1px;stroke-linecap:butt;stroke-linejoin:miter;stroke-opacity:1" d="M 136.047,413.344 136.047,429.85 z" id="boundary" inkscape:connector-curvature="0" />
	<path style="fill:none;stroke:red;stroke-width:1px;stroke-linecap:butt;stroke-linejoin:miter;stroke-opacity:1" d="M 137.697,794.629 150.902,806.183 z" id="boundary" inkscape:connector-curvature="0" />
	<path style="fill:none;stroke:red;stroke-width:1px;stroke-linecap:butt;stroke-linejoin:miter;stroke-opacity:1" d="M 149.251,78.2762 165.757,70.0233 z" id="boundary" inkscape:connector-curvature="0" />
	<path style="fill:none;stroke:red;stroke-width:1px;stroke-linecap:butt;stroke-linejoin:miter;stroke-opacity:1" d="M 150.902,806.183 160.805,819.388 z" id="boundary" inkscape:connector-curvature="0" />
	<path style="fill:none;stroke:red;stroke-width:1px;stroke-linecap:butt;stroke-linejoin:miter;stroke-opacity:1" d="M 160.805,819.388 169.058,834.243 z" id="boundary" inkscape:connector-curvature="0" />
	<path style="fill:none;stroke:red;stroke-width:1px;stroke-linecap:butt;stroke-linejoin:miter;stroke-opacity:1" d="M 165.757,70.0233 180.612,61.7704 z" id="boundary" inkscape:connector-curvature="0" />
	<path style="fill:none;stroke:red;stroke-width:1px;stroke-linecap:butt;stroke-linejoin:miter;stroke-opacity:1" d="M 169.058,834.243 177.311,849.098 z" id="boundary" inkscape:connector-curvature="0" />
	<path style="fill:none;stroke:red;stroke-width:1px;stroke-linecap:butt;stroke-linejoin:miter;stroke-opacity:1" d="M 177.311,849.098 185.564,863.953 z" id="boundary" inkscape:connector-curvature="0" />
	<path style="fill:none;stroke:red;stroke-width:1px;stroke-linecap:butt;stroke-linejoin:miter;stroke-opacity:1" d="M 180.612,61.7704 195.468,53.5175 z" id="boundary" inkscape:connector-curvature="0" />
	<path style="fill:none;stroke:red;stroke-width:1px;stroke-linecap:butt;stroke-linejoin:miter;stroke-opacity:1" d="M 185.564,863.953 195.468,877.158 z" id="boundary" inkscape:connector-curvature="0" />
	<path style="fill:none;stroke:red;stroke-width:1px;stroke-linecap:butt;stroke-linejoin:miter;stroke-opacity:1" d="M 195.468,53.5175 210.323,41.9634 z" id="boundary" inkscape:connector-curvature="0" />
	<path style="fill:none;stroke:red;stroke-width:1px;stroke-linecap:butt;stroke-linejoin:miter;stroke-opacity:1" d="M 195.468,877.158 208.672,888.712 z" id="boundary" inkscape:connector-curvature="0" />
	<path style="fill:none;stroke:red;stroke-width:1px;stroke-linecap:butt;stroke-linejoin:miter;stroke-opacity:1" d="M 208.672,888.712 215.275,905.218 z" id="boundary" inkscape:connector-curvature="0" />
	<path style="fill:none;stroke:red;stroke-width:1px;stroke-linecap:butt;stroke-linejoin:miter;stroke-opacity:1" d="M 210.323,41.9634 223.527,28.7587 z" id="boundary" inkscape:connector-curvature="0" />
	<path style="fill:none;stroke:red;stroke-width:1px;stroke-linecap:butt;stroke-linejoin:miter;stroke-opacity:1" d="M 215.275,905.218 231.78,911.82 z" id="boundary" inkscape:connector-curvature="0" />
	<path style="fill:none;stroke:red;stroke-width:1px;stroke-linecap:butt;stroke-linejoin:miter;stroke-opacity:1" d="M 223.527,28.7587 240.033,20.5058 z" id="boundary" inkscape:connector-curvature="0" />
	<path style="fill:none;stroke:red;stroke-width:1px;stroke-linecap:butt;stroke-linejoin:miter;stroke-opacity:1" d="M 231.78,911.82 246.636,920.073 z" id="boundary" inkscape:connector-curvature="0" />
	<path style="fill:none;stroke:red;stroke-width:1px;stroke-linecap:butt;stroke-linejoin:miter;stroke-opacity:1" d="M 240.033,20.5058 256.539,12.2529 z" id="boundary" inkscape:connector-curvature="0" />
	<path style="fill:none;stroke:red;stroke-width:1px;stroke-linecap:butt;stroke-linejoin:miter;stroke-opacity:1" d="M 246.636,920.073 263.141,921.724 z" id="boundary" inkscape:connector-curvature="0" />
	<path style="fill:none;stroke:red;stroke-width:1px;stroke-linecap:butt;stroke-linejoin:miter;stroke-opacity:1" d="M 256.539,12.2529 273.045,12.2529 z" id="boundary" inkscape:connector-curvature="0" />
	<path style="fill:none;stroke:red;stroke-width:1px;stroke-linecap:butt;stroke-linejoin:miter;stroke-opacity:1" d="M 263.141,921.724 279.647,921.724 z" id="boundary" inkscape:connector-curvature="0" />
	<path style="fill:none;stroke:red;stroke-width:1px;stroke-linecap:butt;stroke-linejoin:miter;stroke-opacity:1" d="M 273.045,12.2529 287.9,4 z" id="boundary" inkscape:connector-curvature="0" />
	<path style="fill:none;stroke:red;stroke-width:1px;stroke-linecap:butt;stroke-linejoin:miter;stroke-opacity:1" d="M 279.647,921.724 294.502,929.977 z" id="boundary" inkscape:connector-curvature="0" />
	<path style="fill:none;stroke:red;stroke-width:1px;stroke-linecap:butt;stroke-linejoin:miter;stroke-opacity:1" d="M 287.9,4 304.406,4 z" id="boundary" inkscape:connector-curvature="0" />
	<path style="fill:none;stroke:red;stroke-width:1px;stroke-linecap:butt;stroke-linejoin:miter;stroke-opacity:1" d="M 294.502,929.977 309.358,938.23 z" id="boundary" inkscape:connector-curvature="0" />
	<path style="fill:none;stroke:red;stroke-width:1px;stroke-linecap:butt;stroke-linejoin:miter;stroke-opacity:1" d="M 304.406,4 320.912,4 z" id="boundary" inkscape:connector-curvature="0" />
	<path style="fill:none;stroke:red;stroke-width:1px;stroke-linecap:butt;stroke-linejoin:miter;stroke-opacity:1" d="M 309.358,938.23 325.864,938.23 z" id="boundary" inkscape:connector-curvature="0" />
	<path style="fill:none;stroke:red;stroke-width:1px;stroke-linecap:butt;stroke-linejoin:miter;stroke-opacity:1" d="M 320.912,4 337.418,4 z" id="boundary" inkscape:connector-curvature="0" />
	<path style="fill:none;stroke:red;stroke-width:1px;stroke-linecap:butt;stroke-linejoin:miter;stroke-opacity:1" d="M 325.864,938.23 340.719,946.483 z" id="boundary" inkscape:connector-curvature="0" />
	<path style="fill:none;stroke:red;stroke-width:1px;stroke-linecap:butt;stroke-linejoin:miter;stroke-opacity:1" d="M 337.418,4 353.923,4 z" id="boundary" inkscape:connector-curvature="0" />
	<path style="fill:none;stroke:red;stroke-width:1px;stroke-linecap:butt;stroke-linejoin:miter;stroke-opacity:1" d="M 340.719,946.483 355.574,954.735 z" id="boundary" inkscape:connector-curvature="0" />
	<path style="fill:none;stroke:red;stroke-width:1px;stroke-linecap:butt;stroke-linejoin:miter;stroke-opacity:1" d="M 353.923,4 370.429,4 z" id="boundary" inkscape:connector-curvature="0" />
	<path style="fill:none;stroke:red;stroke-width:1px;stroke-linecap:butt;stroke-linejoin:miter;stroke-opacity:1" d="M 355.574,954.735 372.08,961.338 z" id="boundary" inkscape:connector-curvature="0" />
	<path style="fill:none;stroke:red;stroke-width:1px;stroke-linecap:butt;stroke-linejoin:miter;stroke-opacity:1" d="M 370.429,4 386.935,4 z" id="boundary" inkscape:connector-curvature="0" />
	<path style="fill:none;stroke:red;stroke-width:1px;stroke-linecap:butt;stroke-linejoin:miter;stroke-opacity:1" d="M 372.08,961.338 386.935,969.591 z" id="boundary" inkscape:connector-curvature="0" />
	<path style="fill:none;stroke:red;stroke-width:1px;stroke-linecap:butt;stroke-linejoin:miter;stroke-opacity:1" d="M 386.935,4 403.441,4 z" id="boundary" inkscape:connector-curvature="0" />
	<path style="fill:none;stroke:red;stroke-width:1px;stroke-linecap:butt;stroke-linejoin:miter;stroke-opacity:1" d="M 386.935,969.591 403.441,971.241 z" id="boundary" inkscape:connector-curvature="0" />
	<path style="fill:none;stroke:red;stroke-width:1px;stroke-linecap:butt;stroke-linejoin:miter;stroke-opacity:1" d="M 403.441,4 419.947,4 z" id="boundary" inkscape:connector-curvature="0" />
	<path style="fill:none;stroke:red;stroke-width:1px;stroke-linecap:butt;stroke-linejoin:miter;stroke-opacity:1" d="M 403.441,971.241 418.296,979.494 z" id="boundary" inkscape:connector-curvature="0" />
	<path style="fill:none;stroke:red;stroke-width:1px;stroke-linecap:butt;stroke-linejoin:miter;stroke-opacity:1" d="M 418.296,979.494 433.151,987.747 z" id="boundary" inkscape:connector-curvature="0" />
	<path style="fill:none;stroke:red;stroke-width:1px;stroke-linecap:butt;stroke-linejoin:miter;stroke-opacity:1" d="M 419.947,4 436.453,4 z" id="boundary" inkscape:connector-curvature="0" />
	<path style="fill:none;stroke:red;stroke-width:1px;stroke-linecap:butt;stroke-linejoin:miter;stroke-opacity:1" d="M 433.151,987.747 449.657,987.747 z" id="boundary" inkscape:connector-curvature="0" />
	<path style="fill:none;stroke:red;stroke-width:1px;stroke-linecap:butt;stroke-linejoin:miter;stroke-opacity:1" d="M 436.453,4 451.308,12.2529 z" id="boundary" inkscape:connector-curvature="0" />
	<path style="fill:none;stroke:red;stroke-width:1px;stroke-linecap:butt;stroke-linejoin:miter;stroke-opacity:1" d="M 443.055,294.502 443.055,311.008 z" id="boundary" inkscape:connector-curvature="0" />
	<path style="fill:none;stroke:red;stroke-width:1px;stroke-linecap:butt;stroke-linejoin:miter;stroke-opacity:1" d="M 443.055,294.502 456.26,282.948 z" id="boundary" inkscape:connector-curvature="0" />
	<path style="fill:none;stroke:red;stroke-width:1px;stroke-linecap:butt;stroke-linejoin:miter;stroke-opacity:1" d="M 443.055,311.008 446.356,327.514 z" id="boundary" inkscape:connector-curvature="0" />
	<path style="fill:none;stroke:red;stroke-width:1px;stroke-linecap:butt;stroke-linejoin:miter;stroke-opacity:1" d="M 446.356,327.514 462.862,334.116 z" id="boundary" inkscape:connector-curvature="0" />
	<path style="fill:none;stroke:red;stroke-width:1px;stroke-linecap:butt;stroke-linejoin:miter;stroke-opacity:1" d="M 449.657,987.747 464.512,996 z" id="boundary" inkscape:connector-curvature="0" />
	<path style="fill:none;stroke:red;stroke-width:1px;stroke-linecap:butt;stroke-linejoin:miter;stroke-opacity:1" d="M 451.308,12.2529 467.814,17.2047 z" id="boundary" inkscape:connector-curvature="0" />
	<path style="fill:none;stroke:red;stroke-width:1px;stroke-linecap:butt;stroke-linejoin:miter;stroke-opacity:1" d="M 456.26,282.948 464.512,266.443 z" id="boundary" inkscape:connector-curvature="0" />
	<path style="fill:none;stroke:red;stroke-width:1px;stroke-linecap:butt;stroke-linejoin:miter;stroke-opacity:1" d="M 462.862,334.116 477.717,342.369 z" id="boundary" inkscape:connector-curvature="0" />
	<path style="fill:none;stroke:red;stroke-width:1px;stroke-linecap:butt;stroke-linejoin:miter;stroke-opacity:1" d="M 464.512,266.443 472.765,249.937 z" id="boundary" inkscape:connector-curvature="0" />
	<path style="fill:none;stroke:red;stroke-width:1px;stroke-linecap:butt;stroke-linejoin:miter;stroke-opacity:1" d="M 464.512,996 481.018,996 z" id="boundary" inkscape:connector-curvature="0" />
	<path style="fill:none;stroke:red;stroke-width:1px;stroke-linecap:butt;stroke-linejoin:miter;stroke-opacity:1" d="M 467.814,17.2047 482.669,25.4576 z" id="boundary" inkscape:connector-curvature="0" />
	<path style="fill:none;stroke:red;stroke-width:1px;stroke-linecap:butt;stroke-linejoin:miter;stroke-opacity:1" d="M 472.765,249.937 484.319,236.732 z" id="boundary" inkscape:connector-curvature="0" />
	<path style="fill:none;stroke:red;stroke-width:1px;stroke-linecap:butt;stroke-linejoin:miter;stroke-opacity:1" d="M 477.717,342.369 494.223,342.369 z" id="boundary" inkscape:connector-curvature="0" />
	<path style="fill:none;stroke:red;stroke-width:1px;stroke-linecap:butt;stroke-linejoin:miter;stroke-opacity:1" d="M 481.018,996 497.524,996 z" id="boundary" inkscape:connector-curvature="0" />
	<path style="fill:none;stroke:red;stroke-width:1px;stroke-linecap:butt;stroke-linejoin:miter;stroke-opacity:1" d="M 482.669,25.4576 495.874,37.0116 z" id="boundary" inkscape:connector-curvature="0" />
	<path style="fill:none;stroke:red;stroke-width:1px;stroke-linecap:butt;stroke-linejoin:miter;stroke-opacity:1" d="M 484.319,236.732 492.572,220.226 z" id="boundary" inkscape:connector-curvature="0" />
	<path style="fill:none;stroke:red;stroke-width:1px;stroke-linecap:butt;stroke-linejoin:miter;stroke-opacity:1" d="M 492.572,220.226 505.777,208.672 z" id="boundary" inkscape:connector-curvature="0" />
	<path style="fill:none;stroke:red;stroke-width:1px;stroke-linecap:butt;stroke-linejoin:miter;stroke-opacity:1" d="M 494.223,342.369 510.729,342.369 z" id="boundary" inkscape:connector-curvature="0" />
	<path style="fill:none;stroke:red;stroke-width:1px;stroke-linecap:butt;stroke-linejoin:miter;stroke-opacity:1" d="M 495.874,37.0116 509.078,46.9151 z" id="boundary" inkscape:connector-curvature="0" />
	<path style="fill:none;stroke:red;stroke-width:1px;stroke-linecap:butt;stroke-linejoin:miter;stroke-opacity:1" d="M 497.524,996 514.03,996 z" id="boundary" inkscape:connector-curvature="0" />
	<path style="fill:none;stroke:red;stroke-width:1px;stroke-linecap:butt;stroke-linejoin:miter;stroke-opacity:1" d="M 505.777,208.672 517.331,195.468 z" id="boundary" inkscape:connector-curvature="0" />
	<path style="fill:none;stroke:red;stroke-width:1px;stroke-linecap:butt;stroke-linejoin:miter;stroke-opacity:1" d="M 509.078,46.9151 517.331,61.7704 z" id="boundary" inkscape:connector-curvature="0" />
	<path style="fill:none;stroke:red;stroke-width:1px;stroke-linecap:butt;stroke-linejoin:miter;stroke-opacity:1" d="M 509.078,756.666 509.078,773.171 z" id="boundary" inkscape:connector-curvature="0" />
	<path style="fill:none;stroke:red;stroke-width:1px;stroke-linecap:butt;stroke-linejoin:miter;stroke-opacity:1" d="M 509.078,756.666 517.331,740.16 z" id="boundary" inkscape:connector-curvature="0" />
	<path style="fill:none;stroke:red;stroke-width:1px;stroke-linecap:butt;stroke-linejoin:miter;stroke-opacity:1" d="M 509.078,773.171 517.331,788.027 z" id="boundary" inkscape:connector-curvature="0" />
	<path style="fill:none;stroke:red;stroke-width:1px;stroke-linecap:butt;stroke-linejoin:miter;stroke-opacity:1" d="M 510.729,342.369 527.235,342.369 z" id="boundary" inkscape:connector-curvature="0" />
	<path style="fill:none;stroke:red;stroke-width:1px;stroke-linecap:butt;stroke-linejoin:miter;stroke-opacity:1" d="M 514.03,996 530.536,996 z" id="boundary" inkscape:connector-curvature="0" />
	<path style="fill:none;stroke:red;stroke-width:1px;stroke-linecap:butt;stroke-linejoin:miter;stroke-opacity:1" d="M 517.331,61.7704 525.584,76.6256 z" id="boundary" inkscape:connector-curvature="0" />
	<path style="fill:none;stroke:red;stroke-width:1px;stroke-linecap:butt;stroke-linejoin:miter;stroke-opacity:1" d="M 517.331,195.468 530.536,183.913 z" id="boundary" inkscape:connector-curvature="0" />
	<path style="fill:none;stroke:red;stroke-width:1px;stroke-linecap:butt;stroke-linejoin:miter;stroke-opacity:1" d="M 517.331,740.16 525.584,723.654 z" id="boundary" inkscape:connector-curvature="0" />
	<path style="fill:none;stroke:red;stroke-width:1px;stroke-linecap:butt;stroke-linejoin:miter;stroke-opacity:1" d="M 517.331,788.027 533.837,788.027 z" id="boundary" inkscape:connector-curvature="0" />
	<path style="fill:none;stroke:red;stroke-width:1px;stroke-linecap:butt;stroke-linejoin:miter;stroke-opacity:1" d="M 525.584,76.6256 538.789,86.5291 z" id="boundary" inkscape:connector-curvature="0" />
	<path style="fill:none;stroke:red;stroke-width:1px;stroke-linecap:butt;stroke-linejoin:miter;stroke-opacity:1" d="M 525.584,723.654 533.837,707.148 z" id="boundary" inkscape:connector-curvature="0" />
	<path style="fill:none;stroke:red;stroke-width:1px;stroke-linecap:butt;stroke-linejoin:miter;stroke-opacity:1" d="M 527.235,342.369 543.74,342.369 z" id="boundary" inkscape:connector-curvature="0" />
	<path style="fill:none;stroke:red;stroke-width:1px;stroke-linecap:butt;stroke-linejoin:miter;stroke-opacity:1" d="M 530.536,183.913 542.09,170.709 z" id="boundary" inkscape:connector-curvature="0" />
	<path style="fill:none;stroke:red;stroke-width:1px;stroke-linecap:butt;stroke-linejoin:miter;stroke-opacity:1" d="M 530.536,996 547.042,996 z" id="boundary" inkscape:connector-curvature="0" />
	<path style="fill:none;stroke:red;stroke-width:1px;stroke-linecap:butt;stroke-linejoin:miter;stroke-opacity:1" d="M 533.837,707.148 547.042,695.594 z" id="boundary" inkscape:connector-curvature="0" />
	<path style="fill:none;stroke:red;stroke-width:1px;stroke-linecap:butt;stroke-linejoin:miter;stroke-opacity:1" d="M 533.837,788.027 550.343,788.027 z" id="boundary" inkscape:connector-curvature="0" />
	<path style="fill:none;stroke:red;stroke-width:1px;stroke-linecap:butt;stroke-linejoin:miter;stroke-opacity:1" d="M 538.789,86.5291 553.644,94.782 z" id="boundary" inkscape:connector-curvature="0" />
	<path style="fill:none;stroke:red;stroke-width:1px;stroke-linecap:butt;stroke-linejoin:miter;stroke-opacity:1" d="M 542.09,170.709 558.596,162.456 z" id="boundary" inkscape:connector-curvature="0" />
	<path style="fill:none;stroke:red;stroke-width:1px;stroke-linecap:butt;stroke-linejoin:miter;stroke-opacity:1" d="M 543.74,342.369 558.596,334.116 z" id="boundary" inkscape:connector-curvature="0" />
	<path style="fill:none;stroke:red;stroke-width:1px;stroke-linecap:butt;stroke-linejoin:miter;stroke-opacity:1" d="M 547.042,695.594 558.596,682.389 z" id="boundary" inkscape:connector-curvature="0" />
	<path style="fill:none;stroke:red;stroke-width:1px;stroke-linecap:butt;stroke-linejoin:miter;stroke-opacity:1" d="M 547.042,996 561.897,987.747 z" id="boundary" inkscape:connector-curvature="0" />
	<path style="fill:none;stroke:red;stroke-width:1px;stroke-linecap:butt;stroke-linejoin:miter;stroke-opacity:1" d="M 550.343,788.027 565.198,796.28 z" id="boundary" inkscape:connector-curvature="0" />
	<path style="fill:none;stroke:red;stroke-width:1px;stroke-linecap:butt;stroke-linejoin:miter;stroke-opacity:1" d="M 553.644,94.782 565.198,107.987 z" id="boundary" inkscape:connector-curvature="0" />
	<path style="fill:none;stroke:red;stroke-width:1px;stroke-linecap:butt;stroke-linejoin:miter;stroke-opacity:1" d="M 558.596,162.456 571.8,150.902 z" id="boundary" inkscape:connector-curvature="0" />
	<path style="fill:none;stroke:red;stroke-width:1px;stroke-linecap:butt;stroke-linejoin:miter;stroke-opacity:1" d="M 558.596,334.116 575.101,334.116 z" id="boundary" inkscape:connector-curvature="0" />
	<path style="fill:none;stroke:red;stroke-width:1px;stroke-linecap:butt;stroke-linejoin:miter;stroke-opacity:1" d="M 558.596,682.389 571.8,670.835 z" id="boundary" inkscape:connector-curvature="0" />
	<path style="fill:none;stroke:red;stroke-width:1px;stroke-linecap:butt;stroke-linejoin:miter;stroke-opacity:1" d="M 561.897,987.747 578.403,987.747 z" id="boundary" inkscape:connector-curvature="0" />
	<path style="fill:none;stroke:red;stroke-width:1px;stroke-linecap:butt;stroke-linejoin:miter;stroke-opacity:1" d="M 565.198,107.987 578.403,119.541 z" id="boundary" inkscape:connector-curvature="0" />
	<path style="fill:none;stroke:red;stroke-width:1px;stroke-linecap:butt;stroke-linejoin:miter;stroke-opacity:1" d="M 565.198,796.28 581.704,799.581 z" id="boundary" inkscape:connector-curvature="0" />
	<path style="fill:none;stroke:red;stroke-width:1px;stroke-linecap:butt;stroke-linejoin:miter;stroke-opacity:1" d="M 571.8,150.902 588.306,142.649 z" id="boundary" inkscape:connector-curvature="0" />
	<path style="fill:none;stroke:red;stroke-width:1px;stroke-linecap:butt;stroke-linejoin:miter;stroke-opacity:1" d="M 571.8,670.835 583.354,657.631 z" id="boundary" inkscape:connector-curvature="0" />
	<path style="fill:none;stroke:red;stroke-width:1px;stroke-linecap:butt;stroke-linejoin:miter;stroke-opacity:1" d="M 575.101,334.116 591.607,334.116 z" id="boundary" inkscape:connector-curvature="0" />
	<path style="fill:none;stroke:red;stroke-width:1px;stroke-linecap:butt;stroke-linejoin:miter;stroke-opacity:1" d="M 578.403,119.541 588.306,142.649 z" id="boundary" inkscape:connector-curvature="0" />
	<path style="fill:none;stroke:red;stroke-width:1px;stroke-linecap:butt;stroke-linejoin:miter;stroke-opacity:1" d="M 578.403,987.747 594.908,987.747 z" id="boundary" inkscape:connector-curvature="0" />
	<path style="fill:none;stroke:red;stroke-width:1px;stroke-linecap:butt;stroke-linejoin:miter;stroke-opacity:1" d="M 581.704,799.581 596.559,807.834 z" id="boundary" inkscape:connector-curvature="0" />
	<path style="fill:none;stroke:red;stroke-width:1px;stroke-linecap:butt;stroke-linejoin:miter;stroke-opacity:1" d="M 583.354,657.631 598.21,649.378 z" id="boundary" inkscape:connector-curvature="0" />
	<path style="fill:none;stroke:red;stroke-width:1px;stroke-linecap:butt;stroke-linejoin:miter;stroke-opacity:1" d="M 591.607,334.116 608.113,329.165 z" id="boundary" inkscape:connector-curvature="0" />
	<path style="fill:none;stroke:red;stroke-width:1px;stroke-linecap:butt;stroke-linejoin:miter;stroke-opacity:1" d="M 594.908,987.747 609.764,979.494 z" id="boundary" inkscape:connector-curvature="0" />
	<path style="fill:none;stroke:red;stroke-width:1px;stroke-linecap:butt;stroke-linejoin:miter;stroke-opacity:1" d="M 596.559,807.834 613.065,812.785 z" id="boundary" inkscape:connector-curvature="0" />
	<path style="fill:none;stroke:red;stroke-width:1px;stroke-linecap:butt;stroke-linejoin:miter;stroke-opacity:1" d="M 598.21,649.378 613.065,641.125 z" id="boundary" inkscape:connector-curvature="0" />
	<path style="fill:none;stroke:red;stroke-width:1px;stroke-linecap:butt;stroke-linejoin:miter;stroke-opacity:1" d="M 608.113,329.165 624.619,325.864 z" id="boundary" inkscape:connector-curvature="0" />
	<path style="fill:none;stroke:red;stroke-width:1px;stroke-linecap:butt;stroke-linejoin:miter;stroke-opacity:1" d="M 609.764,979.494 624.619,971.241 z" id="boundary" inkscape:connector-curvature="0" />
	<path style="fill:none;stroke:red;stroke-width:1px;stroke-linecap:butt;stroke-linejoin:miter;stroke-opacity:1" d="M 613.065,641.125 627.92,632.872 z" id="boundary" inkscape:connector-curvature="0" />
	<path style="fill:none;stroke:red;stroke-width:1px;stroke-linecap:butt;stroke-linejoin:miter;stroke-opacity:1" d="M 613.065,812.785 629.571,812.785 z" id="boundary" inkscape:connector-curvature="0" />
	<path style="fill:none;stroke:red;stroke-width:1px;stroke-linecap:butt;stroke-linejoin:miter;stroke-opacity:1" d="M 624.619,325.864 641.125,325.864 z" id="boundary" inkscape:connector-curvature="0" />
	<path style="fill:none;stroke:red;stroke-width:1px;stroke-linecap:butt;stroke-linejoin:miter;stroke-opacity:1" d="M 624.619,971.241 641.125,971.241 z" id="boundary" inkscape:connector-curvature="0" />
	<path style="fill:none;stroke:red;stroke-width:1px;stroke-linecap:butt;stroke-linejoin:miter;stroke-opacity:1" d="M 627.92,632.872 642.775,624.619 z" id="boundary" inkscape:connector-curvature="0" />
	<path style="fill:none;stroke:red;stroke-width:1px;stroke-linecap:butt;stroke-linejoin:miter;stroke-opacity:1" d="M 629.571,812.785 646.077,814.436 z" id="boundary" inkscape:connector-curvature="0" />
	<path style="fill:none;stroke:red;stroke-width:1px;stroke-linecap:butt;stroke-linejoin:miter;stroke-opacity:1" d="M 641.125,325.864 655.98,317.611 z" id="boundary" inkscape:connector-curvature="0" />
	<path style="fill:none;stroke:red;stroke-width:1px;stroke-linecap:butt;stroke-linejoin:miter;stroke-opacity:1" d="M 641.125,971.241 655.98,962.988 z" id="boundary" inkscape:connector-curvature="0" />
	<path style="fill:none;stroke:red;stroke-width:1px;stroke-linecap:butt;stroke-linejoin:miter;stroke-opacity:1" d="M 642.775,624.619 657.631,616.366 z" id="boundary" inkscape:connector-curvature="0" />
	<path style="fill:none;stroke:red;stroke-width:1px;stroke-linecap:butt;stroke-linejoin:miter;stroke-opacity:1" d="M 646.077,814.436 660.932,822.689 z" id="boundary" inkscape:connector-curvature="0" />
	<path style="fill:none;stroke:red;stroke-width:1px;stroke-linecap:butt;stroke-linejoin:miter;stroke-opacity:1" d="M 655.98,317.611 672.486,314.309 z" id="boundary" inkscape:connector-curvature="0" />
	<path style="fill:none;stroke:red;stroke-width:1px;stroke-linecap:butt;stroke-linejoin:miter;stroke-opacity:1" d="M 655.98,962.988 670.835,954.735 z" id="boundary" inkscape:connector-curvature="0" />
	<path style="fill:none;stroke:red;stroke-width:1px;stroke-linecap:butt;stroke-linejoin:miter;stroke-opacity:1" d="M 657.631,616.366 674.136,616.366 z" id="boundary" inkscape:connector-curvature="0" />
	<path style="fill:none;stroke:red;stroke-width:1px;stroke-linecap:butt;stroke-linejoin:miter;stroke-opacity:1" d="M 660.932,822.689 677.438,829.291 z" id="boundary" inkscape:connector-curvature="0" />
	<path style="fill:none;stroke:red;stroke-width:1px;stroke-linecap:butt;stroke-linejoin:miter;stroke-opacity:1" d="M 670.835,954.735 685.691,946.483 z" id="boundary" inkscape:connector-curvature="0" />
	<path style="fill:none;stroke:red;stroke-width:1px;stroke-linecap:butt;stroke-linejoin:miter;stroke-opacity:1" d="M 672.486,314.309 674.136,330.815 z" id="boundary" inkscape:connector-curvature="0" />
	<path style="fill:none;stroke:red;stroke-width:1px;stroke-linecap:butt;stroke-linejoin:miter;stroke-opacity:1" d="M 674.136,330.815 682.389,345.671 z" id="boundary" inkscape:connector-curvature="0" />
	<path style="fill:none;stroke:red;stroke-width:1px;stroke-linecap:butt;stroke-linejoin:miter;stroke-opacity:1" d="M 674.136,616.366 688.992,608.113 z" id="boundary" inkscape:connector-curvature="0" />
	<path style="fill:none;stroke:red;stroke-width:1px;stroke-linecap:butt;stroke-linejoin:miter;stroke-opacity:1" d="M 677.438,829.291 692.293,837.544 z" id="boundary" inkscape:connector-curvature="0" />
	<path style="fill:none;stroke:red;stroke-width:1px;stroke-linecap:butt;stroke-linejoin:miter;stroke-opacity:1" d="M 682.389,345.671 690.642,360.526 z" id="boundary" inkscape:connector-curvature="0" />
	<path style="fill:none;stroke:red;stroke-width:1px;stroke-linecap:butt;stroke-linejoin:miter;stroke-opacity:1" d="M 685.691,946.483 702.196,944.832 z" id="boundary" inkscape:connector-curvature="0" />
	<path style="fill:none;stroke:red;stroke-width:1px;stroke-linecap:butt;stroke-linejoin:miter;stroke-opacity:1" d="M 688.992,608.113 703.847,599.86 z" id="boundary" inkscape:connector-curvature="0" />
	<path style="fill:none;stroke:red;stroke-width:1px;stroke-linecap:butt;stroke-linejoin:miter;stroke-opacity:1" d="M 690.642,360.526 698.895,375.381 z" id="boundary" inkscape:connector-curvature="0" />
	<path style="fill:none;stroke:red;stroke-width:1px;stroke-linecap:butt;stroke-linejoin:miter;stroke-opacity:1" d="M 692.293,837.544 707.148,845.797 z" id="boundary" inkscape:connector-curvature="0" />
	<path style="fill:none;stroke:red;stroke-width:1px;stroke-linecap:butt;stroke-linejoin:miter;stroke-opacity:1" d="M 698.895,375.381 715.401,375.381 z" id="boundary" inkscape:connector-curvature="0" />
	<path style="fill:none;stroke:red;stroke-width:1px;stroke-linecap:butt;stroke-linejoin:miter;stroke-opacity:1" d="M 702.196,944.832 715.401,929.977 z" id="boundary" inkscape:connector-curvature="0" />
	<path style="fill:none;stroke:red;stroke-width:1px;stroke-linecap:butt;stroke-linejoin:miter;stroke-opacity:1" d="M 703.847,599.86 720.353,596.559 z" id="boundary" inkscape:connector-curvature="0" />
	<path style="fill:none;stroke:red;stroke-width:1px;stroke-linecap:butt;stroke-linejoin:miter;stroke-opacity:1" d="M 707.148,845.797 723.654,850.749 z" id="boundary" inkscape:connector-curvature="0" />
	<path style="fill:none;stroke:red;stroke-width:1px;stroke-linecap:butt;stroke-linejoin:miter;stroke-opacity:1" d="M 715.401,375.381 730.256,383.634 z" id="boundary" inkscape:connector-curvature="0" />
	<path style="fill:none;stroke:red;stroke-width:1px;stroke-linecap:butt;stroke-linejoin:miter;stroke-opacity:1" d="M 715.401,929.977 730.256,921.724 z" id="boundary" inkscape:connector-curvature="0" />
	<path style="fill:none;stroke:red;stroke-width:1px;stroke-linecap:butt;stroke-linejoin:miter;stroke-opacity:1" d="M 720.353,596.559 736.859,588.306 z" id="boundary" inkscape:connector-curvature="0" />
	<path style="fill:none;stroke:red;stroke-width:1px;stroke-linecap:butt;stroke-linejoin:miter;stroke-opacity:1" d="M 723.654,850.749 738.509,859.002 z" id="boundary" inkscape:connector-curvature="0" />
	<path style="fill:none;stroke:red;stroke-width:1px;stroke-linecap:butt;stroke-linejoin:miter;stroke-opacity:1" d="M 730.256,383.634 746.762,386.935 z" id="boundary" inkscape:connector-curvature="0" />
	<path style="fill:none;stroke:red;stroke-width:1px;stroke-linecap:butt;stroke-linejoin:miter;stroke-opacity:1" d="M 730.256,921.724 745.111,913.471 z" id="boundary" inkscape:connector-curvature="0" />
	<path style="fill:none;stroke:red;stroke-width:1px;stroke-linecap:butt;stroke-linejoin:miter;stroke-opacity:1" d="M 736.859,588.306 753.364,583.354 z" id="boundary" inkscape:connector-curvature="0" />
	<path style="fill:none;stroke:red;stroke-width:1px;stroke-linecap:butt;stroke-linejoin:miter;stroke-opacity:1" d="M 738.509,859.002 755.015,865.604 z" id="boundary" inkscape:connector-curvature="0" />
	<path style="fill:none;stroke:red;stroke-width:1px;stroke-linecap:butt;stroke-linejoin:miter;stroke-opacity:1" d="M 745.111,913.471 761.617,910.17 z" id="boundary" inkscape:connector-curvature="0" />
	<path style="fill:none;stroke:red;stroke-width:1px;stroke-linecap:butt;stroke-linejoin:miter;stroke-opacity:1" d="M 746.762,386.935 761.617,395.188 z" id="boundary" inkscape:connector-curvature="0" />
	<path style="fill:none;stroke:red;stroke-width:1px;stroke-linecap:butt;stroke-linejoin:miter;stroke-opacity:1" d="M 753.364,583.354 769.87,583.354 z" id="boundary" inkscape:connector-curvature="0" />
	<path style="fill:none;stroke:red;stroke-width:1px;stroke-linecap:butt;stroke-linejoin:miter;stroke-opacity:1" d="M 755.015,865.604 764.918,878.809 z" id="boundary" inkscape:connector-curvature="0" />
	<path style="fill:none;stroke:red;stroke-width:1px;stroke-linecap:butt;stroke-linejoin:miter;stroke-opacity:1" d="M 761.617,395.188 778.123,400.14 z" id="boundary" inkscape:connector-curvature="0" />
	<path style="fill:none;stroke:red;stroke-width:1px;stroke-linecap:butt;stroke-linejoin:miter;stroke-opacity:1" d="M 761.617,910.17 764.918,878.809 z" id="boundary" inkscape:connector-curvature="0" />
	<path style="fill:none;stroke:red;stroke-width:1px;stroke-linecap:butt;stroke-linejoin:miter;stroke-opacity:1" d="M 769.87,583.354 784.725,575.101 z" id="boundary" inkscape:connector-curvature="0" />
	<path style="fill:none;stroke:red;stroke-width:1px;stroke-linecap:butt;stroke-linejoin:miter;stroke-opacity:1" d="M 778.123,400.14 792.978,408.393 z" id="boundary" inkscape:connector-curvature="0" />
	<path style="fill:none;stroke:red;stroke-width:1px;stroke-linecap:butt;stroke-linejoin:miter;stroke-opacity:1" d="M 784.725,575.101 799.581,566.849 z" id="boundary" inkscape:connector-curvature="0" />
	<path style="fill:none;stroke:red;stroke-width:1px;stroke-linecap:butt;stroke-linejoin:miter;stroke-opacity:1" d="M 792.978,408.393 809.484,408.393 z" id="boundary" inkscape:connector-curvature="0" />
	<path style="fill:none;stroke:red;stroke-width:1px;stroke-linecap:butt;stroke-linejoin:miter;stroke-opacity:1" d="M 799.581,566.849 814.436,558.596 z" id="boundary" inkscape:connector-curvature="0" />
	<path style="fill:none;stroke:red;stroke-width:1px;stroke-linecap:butt;stroke-linejoin:miter;stroke-opacity:1" d="M 809.484,408.393 825.99,408.393 z" id="boundary" inkscape:connector-curvature="0" />
	<path style="fill:none;stroke:red;stroke-width:1px;stroke-linecap:butt;stroke-linejoin:miter;stroke-opacity:1" d="M 814.436,558.596 827.641,547.042 z" id="boundary" inkscape:connector-curvature="0" />
	<path style="fill:none;stroke:red;stroke-width:1px;stroke-linecap:butt;stroke-linejoin:miter;stroke-opacity:1" d="M 825.99,408.393 840.845,416.646 z" id="boundary" inkscape:connector-curvature="0" />
	<path style="fill:none;stroke:red;stroke-width:1px;stroke-linecap:butt;stroke-linejoin:miter;stroke-opacity:1" d="M 827.641,547.042 839.195,533.837 z" id="boundary" inkscape:connector-curvature="0" />
	<path style="fill:none;stroke:red;stroke-width:1px;stroke-linecap:butt;stroke-linejoin:miter;stroke-opacity:1" d="M 839.195,533.837 852.399,522.283 z" id="boundary" inkscape:connector-curvature="0" />
	<path style="fill:none;stroke:red;stroke-width:1px;stroke-linecap:butt;stroke-linejoin:miter;stroke-opacity:1" d="M 840.845,416.646 854.05,428.2 z" id="boundary" inkscape:connector-curvature="0" />
	<path style="fill:none;stroke:red;stroke-width:1px;stroke-linecap:butt;stroke-linejoin:miter;stroke-opacity:1" d="M 852.399,522.283 863.953,507.428 z" id="boundary" inkscape:connector-curvature="0" />
	<path style="fill:none;stroke:red;stroke-width:1px;stroke-linecap:butt;stroke-linejoin:miter;stroke-opacity:1" d="M 854.05,428.2 863.953,441.404 z" id="boundary" inkscape:connector-curvature="0" />
	<path style="fill:none;stroke:red;stroke-width:1px;stroke-linecap:butt;stroke-linejoin:miter;stroke-opacity:1" d="M 863.953,441.404 863.953,457.91 z" id="boundary" inkscape:connector-curvature="0" />
	<path style="fill:none;stroke:red;stroke-width:1px;stroke-linecap:butt;stroke-linejoin:miter;stroke-opacity:1" d="M 863.953,457.91 863.953,474.416 z" id="boundary" inkscape:connector-curvature="0" />
	<path style="fill:none;stroke:red;stroke-width:1px;stroke-linecap:butt;stroke-linejoin:miter;stroke-opacity:1" d="M 863.953,474.416 863.953,490.922 z" id="boundary" inkscape:connector-curvature="0" />
	<path style="fill:none;stroke:red;stroke-width:1px;stroke-linecap:butt;stroke-linejoin:miter;stroke-opacity:1" d="M 863.953,490.922 863.953,507.428 z" id="boundary" inkscape:connector-curvature="0" />
	<circle cx="4" cy="207.022" r="4" fill="#0" id="circle0"/>
	<circle cx="12.2529" cy="190.516" r="4" fill="#0" id="circle1"/>
	<circle cx="12.2529" cy="221.877" r="4" fill="#0" id="circle2"/>
	<circle cx="23.807" cy="235.082" r="4" fill="#0" id="circle3"/>
	<circle cx="25.4576" cy="177.311" r="4" fill="#0" id="circle4"/>
	<circle cx="37.0116" cy="693.943" r="4" fill="#0" id="circle5"/>
	<circle cx="37.0116" cy="710.449" r="4" fill="#0" id="circle6"/>
	<circle cx="40.3128" cy="169.058" r="4" fill="#0" id="circle7"/>
	<circle cx="40.3128" cy="241.684" r="4" fill="#0" id="circle8"/>
	<circle cx="45.2646" cy="669.185" r="4" fill="#0" id="circle9"/>
	<circle cx="45.2646" cy="725.304" r="4" fill="#0" id="circle10"/>
	<circle cx="53.5175" cy="157.504" r="4" fill="#0" id="circle11"/>
	<circle cx="53.5175" cy="253.238" r="4" fill="#0" id="circle12"/>
	<circle cx="53.5175" cy="652.679" r="4" fill="#0" id="circle13"/>
	<circle cx="53.5175" cy="740.16" r="4" fill="#0" id="circle14"/>
	<circle cx="58.4692" cy="756.666" r="4" fill="#0" id="circle15"/>
	<circle cx="61.7704" cy="627.92" r="4" fill="#0" id="circle16"/>
	<circle cx="63.421" cy="266.443" r="4" fill="#0" id="circle17"/>
	<circle cx="66.7221" cy="144.3" r="4" fill="#0" id="circle18"/>
	<circle cx="66.7221" cy="771.521" r="4" fill="#0" id="circle19"/>
	<circle cx="70.0233" cy="611.414" r="4" fill="#0" id="circle20"/>
	<circle cx="76.6256" cy="277.997" r="4" fill="#0" id="circle21"/>
	<circle cx="78.2762" cy="594.908" r="4" fill="#0" id="circle22"/>
	<circle cx="78.2762" cy="784.725" r="4" fill="#0" id="circle23"/>
	<circle cx="83.228" cy="136.047" r="4" fill="#0" id="circle24"/>
	<circle cx="86.5291" cy="578.403" r="4" fill="#0" id="circle25"/>
	<circle cx="88.1797" cy="291.201" r="4" fill="#0" id="circle26"/>
	<circle cx="94.782" cy="561.897" r="4" fill="#0" id="circle27"/>
	<circle cx="94.782" cy="784.725" r="4" fill="#0" id="circle28"/>
	<circle cx="96.4326" cy="122.842" r="4" fill="#0" id="circle29"/>
	<circle cx="101.384" cy="302.755" r="4" fill="#0" id="circle30"/>
	<circle cx="107.987" cy="319.261" r="4" fill="#0" id="circle31"/>
	<circle cx="107.987" cy="548.692" r="4" fill="#0" id="circle32"/>
	<circle cx="109.637" cy="111.288" r="4" fill="#0" id="circle33"/>
	<circle cx="111.288" cy="335.767" r="4" fill="#0" id="circle34"/>
	<circle cx="111.288" cy="528.885" r="4" fill="#0" id="circle35"/>
	<circle cx="111.288" cy="781.424" r="4" fill="#0" id="circle36"/>
	<circle cx="119.541" cy="350.622" r="4" fill="#0" id="circle37"/>
	<circle cx="119.541" cy="512.379" r="4" fill="#0" id="circle38"/>
	<circle cx="121.191" cy="98.0832" r="4" fill="#0" id="circle39"/>
	<circle cx="127.794" cy="365.478" r="4" fill="#0" id="circle40"/>
	<circle cx="127.794" cy="381.983" r="4" fill="#0" id="circle41"/>
	<circle cx="127.794" cy="398.489" r="4" fill="#0" id="circle42"/>
	<circle cx="127.794" cy="446.356" r="4" fill="#0" id="circle43"/>
	<circle cx="127.794" cy="462.862" r="4" fill="#0" id="circle44"/>
	<circle cx="127.794" cy="479.368" r="4" fill="#0" id="circle45"/>
	<circle cx="127.794" cy="495.874" r="4" fill="#0" id="circle46"/>
	<circle cx="127.794" cy="781.424" r="4" fill="#0" id="circle47"/>
	<circle cx="134.396" cy="86.5291" r="4" fill="#0" id="circle48"/>
	<circle cx="136.047" cy="413.344" r="4" fill="#0" id="circle49"/>
	<circle cx="136.047" cy="429.85" r="4" fill="#0" id="circle50"/>
	<circle cx="137.697" cy="794.629" r="4" fill="#0" id="circle51"/>
	<circle cx="149.251" cy="78.2762" r="4" fill="#0" id="circle52"/>
	<circle cx="150.902" cy="806.183" r="4" fill="#0" id="circle53"/>
	<circle cx="160.805" cy="819.388" r="4" fill="#0" id="circle54"/>
	<circle cx="165.757" cy="70.0233" r="4" fill="#0" id="circle55"/>
	<circle cx="169.058" cy="834.243" r="4" fill="#0" id="circle56"/>
	<circle cx="177.311" cy="849.098" r="4" fill="#0" id="circle57"/>
	<circle cx="180.612" cy="61.7704" r="4" fill="#0" id="circle58"/>
	<circle cx="185.564" cy="863.953" r="4" fill="#0" id="circle59"/>
	<circle cx="195.468" cy="53.5175" r="4" fill="#0" id="circle60"/>
	<circle cx="195.468" cy="877.158" r="4" fill="#0" id="circle61"/>
	<circle cx="208.672" cy="888.712" r="4" fill="#0" id="circle62"/>
	<circle cx="210.323" cy="41.9634" r="4" fill="#0" id="circle63"/>
	<circle cx="215.275" cy="905.218" r="4" fill="#0" id="circle64"/>
	<circle cx="223.527" cy="28.7587" r="4" fill="#0" id="circle65"/>
	<circle cx="231.78" cy="911.82" r="4" fill="#0" id="circle66"/>
	<circle cx="240.033" cy="20.5058" r="4" fill="#0" id="circle67"/>
	<circle cx="246.636" cy="920.073" r="4" fill="#0" id="circle68"/>
	<circle cx="256.539" cy="12.2529" r="4" fill="#0" id="circle69"/>
	<circle cx="263.141" cy="921.724" r="4" fill="#0" id="circle70"/>
	<circle cx="273.045" cy="12.2529" r="4" fill="#0" id="circle71"/>
	<circle cx="279.647" cy="921.724" r="4" fill="#0" id="circle72"/>
	<circle cx="287.9" cy="4" r="4" fill="#0" id="circle73"/>
	<circle cx="294.502" cy="929.977" r="4" fill="#0" id="circle74"/>
	<circle cx="304.406" cy="4" r="4" fill="#0" id="circle75"/>
	<circle cx="309.358" cy="938.23" r="4" fill="#0" id="circle76"/>
	<circle cx="320.912" cy="4" r="4" fill="#0" id="circle77"/>
	<circle cx="325.864" cy="938.23" r="4" fill="#0" id="circle78"/>
	<circle cx="337.418" cy="4" r="4" fill="#0" id="circle79"/>
	<circle cx="340.719" cy="946.483" r="4" fill="#0" id="circle80"/>
	<circle cx="353.923" cy="4" r="4" fill="#0" id="circle81"/>
	<circle cx="355.574" cy="954.735" r="4" fill="#0" id="circle82"/>
	<circle cx="370.429" cy="4" r="4" fill="#0" id="circle83"/>
	<circle cx="372.08" cy="961.338" r="4" fill="#0" id="circle84"/>
	<circle cx="386.935" cy="4" r="4" fill="#0" id="circle85"/>
	<circle cx="386.935" cy="969.591" r="4" fill="#0" id="circle86"/>
	<circle cx="403.441" cy="4" r="4" fill="#0" id="circle87"/>
	<circle cx="403.441" cy="971.241" r="4" fill="#0" id="circle88"/>
	<circle cx="418.296" cy="979.494" r="4" fill="#0" id="circle89"/>
	<circle cx="419.947" cy="4" r="4" fill="#0" id="circle90"/>
	<circle cx="433.151" cy="987.747" r="4" fill="#0" id="circle91"/>
	<circle cx="436.453" cy="4" r="4" fill="#0" id="circle92"/>
	<circle cx="443.055" cy="294.502" r="4" fill="#0" id="circle93"/>
	<circle cx="443.055" cy="311.008" r="4" fill="#0" id="circle94"/>
	<circle cx="446.356" cy="327.514" r="4" fill="#0" id="circle95"/>
	<circle cx="449.657" cy="987.747" r="4" fill="#0" id="circle96"/>
	<circle cx="451.308" cy="12.2529" r="4" fill="#0" id="circle97"/>
	<circle cx="456.26" cy="282.948" r="4" fill="#0" id="circle98"/>
	<circle cx="462.862" cy="334.116" r="4" fill="#0" id="circle99"/>
	<circle cx="464.512" cy="266.443" r="4" fill="#0" id="circle100"/>
	<circle cx="464.512" cy="996" r="4" fill="#0" id="circle101"/>
	<circle cx="467.814" cy="17.2047" r="4" fill="#0" id="circle102"/>
	<circle cx="472.765" cy="249.937" r="4" fill="#0" id="circle103"/>
	<circle cx="477.717" cy="342.369" r="4" fill="#0" id="circle104"/>
	<circle cx="481.018" cy="996" r="4" fill="#0" id="circle105"/>
	<circle cx="482.669" cy="25.4576" r="4" fill="#0" id="circle106"/>
	<circle cx="484.319" cy="236.732" r="4" fill="#0" id="circle107"/>
	<circle cx="492.572" cy="220.226" r="4" fill="#0" id="circle108"/>
	<circle cx="494.223" cy="342.369" r="4" fill="#0" id="circle109"/>
	<circle cx="495.874" cy="37.0116" r="4" fill="#0" id="circle110"/>
	<circle cx="497.524" cy="996" r="4" fill="#0" id="circle111"/>
	<circle cx="505.777" cy="208.672" r="4" fill="#0" id="circle112"/>
	<circle cx="509.078" cy="46.9151" r="4" fill="#0" id="circle113"/>
	<circle cx="509.078" cy="756.666" r="4" fill="#0" id="circle114"/>
	<circle cx="509.078" cy="773.171" r="4" fill="#0" id="circle115"/>
	<circle cx="510.729" cy="342.369" r="4" fill="#0" id="circle116"/>
	<circle cx="514.03" cy="996" r="4" fill="#0" id="circle117"/>
	<circle cx="517.331" cy="61.7704" r="4" fill="#0" id="circle118"/>
	<circle cx="517.331" cy="195.468" r="4" fill="#0" id="circle119"/>
	<circle cx="517.331" cy="740.16" r="4" fill="#0" id="circle120"/>
	<circle cx="517.331" cy="788.027" r="4" fill="#0" id="circle121"/>
	<circle cx="525.584" cy="76.6256" r="4" fill="#0" id="circle122"/>
	<circle cx="525.584" cy="723.654" r="4" fill="#0" id="circle123"/>
	<circle cx="527.235" cy="342.369" r="4" fill="#0" id="circle124"/>
	<circle cx="530.536" cy="183.913" r="4" fill="#0" id="circle125"/>
	<circle cx="530.536" cy="996" r="4" fill="#0" id="circle126"/>
	<circle cx="533.837" cy="707.148" r="4" fill="#0" id="circle127"/>
	<circle cx="533.837" cy="788.027" r="4" fill="#0" id="circle128"/>
	<circle cx="538.789" cy="86.5291" r="4" fill="#0" id="circle129"/>
	<circle cx="542.09" cy="170.709" r="4" fill="#0" id="circle130"/>
	<circle cx="543.74" cy="342.369" r="4" fill="#0" id="circle131"/>
	<circle cx="547.042" cy="695.594" r="4" fill="#0" id="circle132"/>
	<circle cx="547.042" cy="996" r="4" fill="#0" id="circle133"/>
	<circle cx="550.343" cy="788.027" r="4" fill="#0" id="circle134"/>
	<circle cx="553.644" cy="94.782" r="4" fill="#0" id="circle135"/>
	<circle cx="558.596" cy="162.456" r="4" fill="#0" id="circle136"/>
	<circle cx="558.596" cy="334.116" r="4" fill="#0" id="circle137"/>
	<circle cx="558.596" cy="682.389" r="4" fill="#0" id="circle138"/>
	<circle cx="561.897" cy="987.747" r="4" fill="#0" id="circle139"/>
	<circle cx="565.198" cy="107.987" r="4" fill="#0" id="circle140"/>
	<circle cx="565.198" cy="796.28" r="4" fill="#0" id="circle141"/>
	<circle cx="571.8" cy="150.902" r="4" fill="#0" id="circle142"/>
	<circle cx="571.8" cy="670.835" r="4" fill="#0" id="circle143"/>
	<circle cx="575.101" cy="334.116" r="4" fill="#0" id="circle144"/>
	<circle cx="578.403" cy="119.541" r="4" fill="#0" id="circle145"/>
	<circle cx="578.403" cy="987.747" r="4" fill="#0" id="circle146"/>
	<circle cx="581.704" cy="799.581" r="4" fill="#0" id="circle147"/>
	<circle cx="583.354" cy="657.631" r="4" fill="#0" id="circle148"/>
	<circle cx="588.306" cy="142.649" r="4" fill="#0" id="circle149"/>
	<circle cx="591.607" cy="334.116" r="4" fill="#0" id="circle150"/>
	<circle cx="594.908" cy="987.747" r="4" fill="#0" id="circle151"/>
	<circle cx="596.559" cy="807.834" r="4" fill="#0" id="circle152"/>
	<circle cx="598.21" cy="649.378" r="4" fill="#0" id="circle153"/>
	<circle cx="608.113" cy="329.165" r="4" fill="#0" id="circle154"/>
	<circle cx="609.764" cy="979.494" r="4" fill="#0" id="circle155"/>
	<circle cx="613.065" cy="641.125" r="4" fill="#0" id="circle156"/>
	<circle cx="613.065" cy="812.785" r="4" fill="#0" id="circle157"/>
	<circle cx="624.619" cy="325.864" r="4" fill="#0" id="circle158"/>
	<circle cx="624.619" cy="971.241" r="4" fill="#0" id="circle159"/>
	<circle cx="627.92" cy="632.872" r="4" fill="#0" id="circle160"/>
	<circle cx="629.571" cy="812.785" r="4" fill="#0" id="circle161"/>
	<circle cx="641.125" cy="325.864" r="4" fill="#0" id="circle162"/>
	<circle cx="641.125" cy="971.241" r="4" fill="#0" id="circle163"/>
	<circle cx="642.775" cy="624.619" r="4" fill="#0" id="circle164"/>
	<circle cx="646.077" cy="814.436" r="4" fill="#0" id="circle165"/>
	<circle cx="655.98" cy="317.611" r="4" fill="#0" id="circle166"/>
	<circle cx="655.98" cy="962.988" r="4" fill="#0" id="circle167"/>
	<circle cx="657.631" cy="616.366" r="4" fill="#0" id="circle168"/>
	<circle cx="660.932" cy="822.689" r="4" fill="#0" id="circle169"/>
	<circle cx="670.835" cy="954.735" r="4" fill="#0" id="circle170"/>
	<circle cx="672.486" cy="314.309" r="4" fill="#0" id="circle171"/>
	<circle cx="674.136" cy="330.815" r="4" fill="#0" id="circle172"/>
	<circle cx="674.136" cy="616.366" r="4" fill="#0" id="circle173"/>
	<circle cx="677.438" cy="829.291" r="4" fill="#0" id="circle174"/>
	<circle cx="682.389" cy="345.671" r="4" fill="#0" id="circle175"/>
	<circle cx="685.691" cy="946.483" r="4" fill="#0" id="circle176"/>
	<circle cx="688.992" cy="608.113" r="4" fill="#0" id="circle177"/>
	<circle cx="690.642" cy="360.526" r="4" fill="#0" id="circle178"/>
	<circle cx="692.293" cy="837.544" r="4" fill="#0" id="circle179"/>
	<circle cx="698.895" cy="375.381" r="4" fill="#0" id="circle180"/>
	<circle cx="702.196" cy="944.832" r="4" fill="#0" id="circle181"/>
	<circle cx="703.847" cy="599.86" r="4" fill="#0" id="circle182"/>
	<circle cx="707.148" cy="845.797" r="4" fill="#0" id="circle183"/>
	<circle cx="715.401" cy="375.381" r="4" fill="#0" id="circle184"/>
	<circle cx="715.401" cy="929.977" r="4" fill="#0" id="circle185"/>
	<circle cx="720.353" cy="596.559" r="4" fill="#0" id="circle186"/>
	<circle cx="723.654" cy="850.749" r="4" fill="#0" id="circle187"/>
	<circle cx="730.256" cy="383.634" r="4" fill="#0" id="circle188"/>
	<circle cx="730.256" cy="921.724" r="4" fill="#0" id="circle189"/>
	<circle cx="736.859" cy="588.306" r="4" fill="#0" id="circle190"/>
	<circle cx="738.509" cy="859.002" r="4" fill="#0" id="circle191"/>
	<circle cx="745.111" cy="913.471" r="4" fill="#0" id="circle192"/>
	<circle cx="746.762" cy="386.935" r="4" fill="#0" id="circle193"/>
	<circle cx="753.364" cy="583.354" r="4" fill="#0" id="circle194"/>
	<circle cx="755.015" cy="865.604" r="4" fill="#0" id="circle195"/>
	<circle cx="761.617" cy="395.188" r="4" fill="#0" id="circle196"/>
	<circle cx="761.617" cy="910.17" r="4" fill="#0" id="circle197"/>
	<circle cx="764.918" cy="878.809" r="4" fill="#0" id="circle198"/>
	<circle cx="769.87" cy="583.354" r="4" fill="#0" id="circle199"/>
	<circle cx="778.123" cy="400.14" r="4" fill="#0" id="circle200"/>
	<circle cx="784.725" cy="575.101" r="4" fill="#0" id="circle201"/>
	<circle cx="792.978" cy="408.393" r="4" fill="#0" id="circle202"/>
	<circle cx="799.581" cy="566.849" r="4" fill="#0" id="circle203"/>
	<circle cx="809.484" cy="408.393" r="4" fill="#0" id="circle204"/>
	<circle cx="814.436" cy="558.596" r="4" fill="#0" id="circle205"/>
	<circle cx="825.99" cy="408.393" r="4" fill="#0" id="circle206"/>
	<circle cx="827.641" cy="547.042" r="4" fill="#0" id="circle207"/>
	<circle cx="839.195" cy="533.837" r="4" fill="#0" id="circle208"/>
	<circle cx="840.845" cy="416.646" r="4" fill="#0" id="circle209"/>
	<circle cx="852.399" cy="522.283" r="4" fill="#0" id="circle210"/>
	<circle cx="854.05" cy="428.2" r="4" fill="#0" id="circle211"/>
	<circle cx="863.953" cy="441.404" r="4" fill="#0" id="circle212"/>
	<circle cx="863.953" cy="457.91" r="4" fill="#0" id="circle213"/>
	<circle cx="863.953" cy="474.416" r="4" fill="#0" id="circle214"/>
	<circle cx="863.953" cy="490.922" r="4" fill="#0" id="circle215"/>
	<circle cx="863.953" cy="507.428" r="4" fill="#0" id="circle216"/>
	</g>
</svg>