<?xml version="1.0" encoding="UTF-8" standalone="no"?>
<!-- Created with CurveBenchmark -->
<svg
	xmlns:dc="http://purl.org/dc/elements/1.1/"
	xmlns:cc="http://creativecommons.org/ns#"
	xmlns:rdf="http://www.w3.org/1999/02/22-rdf-syntax-ns#"
	xmlns:svg="http://www.w3.org/2000/svg"
	xmlns="http://www.w3.org/2000/svg"
	xmlns:sodipodi="http://sodipodi.sourceforge.net/DTD/sodipodi-0.dtd"
	xmlns:inkscape="http://www.inkscape.org/namespaces/inkscape"
	width="1000"
	height="1000"
	id="svg2"
	version="1.1"
	sodipodi:docname="manifold/fitconnect-flatfish27.png.txt">
<defs
	id="defs4" />
<metadata
	id="metadata7">
	<rdf:RDF>
		<cc:Work
			rdf:about="">
			<dc:format>image/svg+xml</dc:format>
			<dc:type
				rdf:resource="http://purl.org/dc/dcmitype/StillImage" />
			<dc:title></dc:title>
		</cc:Work>
	</rdf:RDF>
</metadata>
<g
	inkscape:label="Layer 1"
	inkscape:groupmode="layer"
	id="layer1">
	<path style="fill:none;stroke:red;stroke-width:1px;stroke-linecap:butt;stroke-linejoin:miter;stroke-opacity:1" d="M 4,395.921 4,412.184 z" id="boundary" inkscape:connector-curvature="0" />
	<path style="fill:none;stroke:red;stroke-width:1px;stroke-linecap:butt;stroke-linejoin:miter;stroke-opacity:1" d="M 4,395.921 12.1311,371.528 z" id="boundary" inkscape:connector-curvature="0" />
	<path style="fill:none;stroke:red;stroke-width:1px;stroke-linecap:butt;stroke-linejoin:miter;stroke-opacity:1" d="M 4,412.184 12.1311,426.82 z" id="boundary" inkscape:connector-curvature="0" />
	<path style="fill:none;stroke:red;stroke-width:1px;stroke-linecap:butt;stroke-linejoin:miter;stroke-opacity:1" d="M 12.1311,322.741 12.1311,339.003 z" id="boundary" inkscape:connector-curvature="0" />
	<path style="fill:none;stroke:red;stroke-width:1px;stroke-linecap:butt;stroke-linejoin:miter;stroke-opacity:1" d="M 12.1311,322.741 25.141,309.731 z" id="boundary" inkscape:connector-curvature="0" />
	<path style="fill:none;stroke:red;stroke-width:1px;stroke-linecap:butt;stroke-linejoin:miter;stroke-opacity:1" d="M 12.1311,339.003 12.1311,355.266 z" id="boundary" inkscape:connector-curvature="0" />
	<path style="fill:none;stroke:red;stroke-width:1px;stroke-linecap:butt;stroke-linejoin:miter;stroke-opacity:1" d="M 12.1311,355.266 12.1311,371.528 z" id="boundary" inkscape:connector-curvature="0" />
	<path style="fill:none;stroke:red;stroke-width:1px;stroke-linecap:butt;stroke-linejoin:miter;stroke-opacity:1" d="M 12.1311,426.82 20.2623,441.456 z" id="boundary" inkscape:connector-curvature="0" />
	<path style="fill:none;stroke:red;stroke-width:1px;stroke-linecap:butt;stroke-linejoin:miter;stroke-opacity:1" d="M 20.2623,441.456 34.8984,449.587 z" id="boundary" inkscape:connector-curvature="0" />
	<path style="fill:none;stroke:red;stroke-width:1px;stroke-linecap:butt;stroke-linejoin:miter;stroke-opacity:1" d="M 25.141,309.731 33.2721,293.469 z" id="boundary" inkscape:connector-curvature="0" />
	<path style="fill:none;stroke:red;stroke-width:1px;stroke-linecap:butt;stroke-linejoin:miter;stroke-opacity:1" d="M 33.2721,293.469 41.4033,277.207 z" id="boundary" inkscape:connector-curvature="0" />
	<path style="fill:none;stroke:red;stroke-width:1px;stroke-linecap:butt;stroke-linejoin:miter;stroke-opacity:1" d="M 34.8984,449.587 49.5344,457.718 z" id="boundary" inkscape:connector-curvature="0" />
	<path style="fill:none;stroke:red;stroke-width:1px;stroke-linecap:butt;stroke-linejoin:miter;stroke-opacity:1" d="M 41.4033,277.207 44.6557,257.692 z" id="boundary" inkscape:connector-curvature="0" />
	<path style="fill:none;stroke:red;stroke-width:1px;stroke-linecap:butt;stroke-linejoin:miter;stroke-opacity:1" d="M 44.6557,257.692 60.918,249.561 z" id="boundary" inkscape:connector-curvature="0" />
	<path style="fill:none;stroke:red;stroke-width:1px;stroke-linecap:butt;stroke-linejoin:miter;stroke-opacity:1" d="M 49.5344,457.718 65.7967,464.223 z" id="boundary" inkscape:connector-curvature="0" />
	<path style="fill:none;stroke:red;stroke-width:1px;stroke-linecap:butt;stroke-linejoin:miter;stroke-opacity:1" d="M 60.918,249.561 69.0492,233.298 z" id="boundary" inkscape:connector-curvature="0" />
	<path style="fill:none;stroke:red;stroke-width:1px;stroke-linecap:butt;stroke-linejoin:miter;stroke-opacity:1" d="M 65.7967,464.223 77.1803,477.233 z" id="boundary" inkscape:connector-curvature="0" />
	<path style="fill:none;stroke:red;stroke-width:1px;stroke-linecap:butt;stroke-linejoin:miter;stroke-opacity:1" d="M 69.0492,233.298 82.059,220.289 z" id="boundary" inkscape:connector-curvature="0" />
	<path style="fill:none;stroke:red;stroke-width:1px;stroke-linecap:butt;stroke-linejoin:miter;stroke-opacity:1" d="M 77.1803,477.233 90.1902,488.616 z" id="boundary" inkscape:connector-curvature="0" />
	<path style="fill:none;stroke:red;stroke-width:1px;stroke-linecap:butt;stroke-linejoin:miter;stroke-opacity:1" d="M 82.059,220.289 95.0689,207.279 z" id="boundary" inkscape:connector-curvature="0" />
	<path style="fill:none;stroke:red;stroke-width:1px;stroke-linecap:butt;stroke-linejoin:miter;stroke-opacity:1" d="M 90.1902,488.616 103.2,498.374 z" id="boundary" inkscape:connector-curvature="0" />
	<path style="fill:none;stroke:red;stroke-width:1px;stroke-linecap:butt;stroke-linejoin:miter;stroke-opacity:1" d="M 95.0689,207.279 108.079,195.895 z" id="boundary" inkscape:connector-curvature="0" />
	<path style="fill:none;stroke:red;stroke-width:1px;stroke-linecap:butt;stroke-linejoin:miter;stroke-opacity:1" d="M 103.2,498.374 119.462,501.626 z" id="boundary" inkscape:connector-curvature="0" />
	<path style="fill:none;stroke:red;stroke-width:1px;stroke-linecap:butt;stroke-linejoin:miter;stroke-opacity:1" d="M 108.079,195.895 117.836,176.38 z" id="boundary" inkscape:connector-curvature="0" />
	<path style="fill:none;stroke:red;stroke-width:1px;stroke-linecap:butt;stroke-linejoin:miter;stroke-opacity:1" d="M 117.836,176.38 130.846,163.37 z" id="boundary" inkscape:connector-curvature="0" />
	<path style="fill:none;stroke:red;stroke-width:1px;stroke-linecap:butt;stroke-linejoin:miter;stroke-opacity:1" d="M 119.462,501.626 130.846,514.636 z" id="boundary" inkscape:connector-curvature="0" />
	<path style="fill:none;stroke:red;stroke-width:1px;stroke-linecap:butt;stroke-linejoin:miter;stroke-opacity:1" d="M 130.846,163.37 143.856,150.361 z" id="boundary" inkscape:connector-curvature="0" />
	<path style="fill:none;stroke:red;stroke-width:1px;stroke-linecap:butt;stroke-linejoin:miter;stroke-opacity:1" d="M 130.846,514.636 147.108,521.141 z" id="boundary" inkscape:connector-curvature="0" />
	<path style="fill:none;stroke:red;stroke-width:1px;stroke-linecap:butt;stroke-linejoin:miter;stroke-opacity:1" d="M 143.856,150.361 150.361,119.462 z" id="boundary" inkscape:connector-curvature="0" />
	<path style="fill:none;stroke:red;stroke-width:1px;stroke-linecap:butt;stroke-linejoin:miter;stroke-opacity:1" d="M 147.108,521.141 163.37,522.767 z" id="boundary" inkscape:connector-curvature="0" />
	<path style="fill:none;stroke:red;stroke-width:1px;stroke-linecap:butt;stroke-linejoin:miter;stroke-opacity:1" d="M 150.361,119.462 163.37,106.452 z" id="boundary" inkscape:connector-curvature="0" />
	<path style="fill:none;stroke:red;stroke-width:1px;stroke-linecap:butt;stroke-linejoin:miter;stroke-opacity:1" d="M 163.37,106.452 176.38,93.4426 z" id="boundary" inkscape:connector-curvature="0" />
	<path style="fill:none;stroke:red;stroke-width:1px;stroke-linecap:butt;stroke-linejoin:miter;stroke-opacity:1" d="M 163.37,522.767 176.38,534.151 z" id="boundary" inkscape:connector-curvature="0" />
	<path style="fill:none;stroke:red;stroke-width:1px;stroke-linecap:butt;stroke-linejoin:miter;stroke-opacity:1" d="M 176.38,93.4426 189.39,82.059 z" id="boundary" inkscape:connector-curvature="0" />
	<path style="fill:none;stroke:red;stroke-width:1px;stroke-linecap:butt;stroke-linejoin:miter;stroke-opacity:1" d="M 176.38,534.151 191.016,542.282 z" id="boundary" inkscape:connector-curvature="0" />
	<path style="fill:none;stroke:red;stroke-width:1px;stroke-linecap:butt;stroke-linejoin:miter;stroke-opacity:1" d="M 189.39,82.059 200.774,69.0492 z" id="boundary" inkscape:connector-curvature="0" />
	<path style="fill:none;stroke:red;stroke-width:1px;stroke-linecap:butt;stroke-linejoin:miter;stroke-opacity:1" d="M 191.016,542.282 207.279,539.03 z" id="boundary" inkscape:connector-curvature="0" />
	<path style="fill:none;stroke:red;stroke-width:1px;stroke-linecap:butt;stroke-linejoin:miter;stroke-opacity:1" d="M 200.774,69.0492 213.784,57.6656 z" id="boundary" inkscape:connector-curvature="0" />
	<path style="fill:none;stroke:red;stroke-width:1px;stroke-linecap:butt;stroke-linejoin:miter;stroke-opacity:1" d="M 207.279,539.03 221.915,547.161 z" id="boundary" inkscape:connector-curvature="0" />
	<path style="fill:none;stroke:red;stroke-width:1px;stroke-linecap:butt;stroke-linejoin:miter;stroke-opacity:1" d="M 213.784,57.6656 228.42,49.5344 z" id="boundary" inkscape:connector-curvature="0" />
	<path style="fill:none;stroke:red;stroke-width:1px;stroke-linecap:butt;stroke-linejoin:miter;stroke-opacity:1" d="M 221.915,547.161 233.298,560.17 z" id="boundary" inkscape:connector-curvature="0" />
	<path style="fill:none;stroke:red;stroke-width:1px;stroke-linecap:butt;stroke-linejoin:miter;stroke-opacity:1" d="M 228.42,49.5344 244.682,41.4033 z" id="boundary" inkscape:connector-curvature="0" />
	<path style="fill:none;stroke:red;stroke-width:1px;stroke-linecap:butt;stroke-linejoin:miter;stroke-opacity:1" d="M 233.298,560.17 241.43,574.807 z" id="boundary" inkscape:connector-curvature="0" />
	<path style="fill:none;stroke:red;stroke-width:1px;stroke-linecap:butt;stroke-linejoin:miter;stroke-opacity:1" d="M 241.43,574.807 252.813,587.816 z" id="boundary" inkscape:connector-curvature="0" />
	<path style="fill:none;stroke:red;stroke-width:1px;stroke-linecap:butt;stroke-linejoin:miter;stroke-opacity:1" d="M 244.682,41.4033 260.944,41.4033 z" id="boundary" inkscape:connector-curvature="0" />
	<path style="fill:none;stroke:red;stroke-width:1px;stroke-linecap:butt;stroke-linejoin:miter;stroke-opacity:1" d="M 252.813,587.816 256.066,604.079 z" id="boundary" inkscape:connector-curvature="0" />
	<path style="fill:none;stroke:red;stroke-width:1px;stroke-linecap:butt;stroke-linejoin:miter;stroke-opacity:1" d="M 256.066,604.079 265.823,617.089 z" id="boundary" inkscape:connector-curvature="0" />
	<path style="fill:none;stroke:red;stroke-width:1px;stroke-linecap:butt;stroke-linejoin:miter;stroke-opacity:1" d="M 260.944,41.4033 275.58,33.2721 z" id="boundary" inkscape:connector-curvature="0" />
	<path style="fill:none;stroke:red;stroke-width:1px;stroke-linecap:butt;stroke-linejoin:miter;stroke-opacity:1" d="M 265.823,617.089 278.833,628.472 z" id="boundary" inkscape:connector-curvature="0" />
	<path style="fill:none;stroke:red;stroke-width:1px;stroke-linecap:butt;stroke-linejoin:miter;stroke-opacity:1" d="M 275.58,33.2721 291.843,26.7672 z" id="boundary" inkscape:connector-curvature="0" />
	<path style="fill:none;stroke:red;stroke-width:1px;stroke-linecap:butt;stroke-linejoin:miter;stroke-opacity:1" d="M 278.833,628.472 290.216,641.482 z" id="boundary" inkscape:connector-curvature="0" />
	<path style="fill:none;stroke:red;stroke-width:1px;stroke-linecap:butt;stroke-linejoin:miter;stroke-opacity:1" d="M 290.216,641.482 303.226,652.866 z" id="boundary" inkscape:connector-curvature="0" />
	<path style="fill:none;stroke:red;stroke-width:1px;stroke-linecap:butt;stroke-linejoin:miter;stroke-opacity:1" d="M 291.843,26.7672 308.105,33.2721 z" id="boundary" inkscape:connector-curvature="0" />
	<path style="fill:none;stroke:red;stroke-width:1px;stroke-linecap:butt;stroke-linejoin:miter;stroke-opacity:1" d="M 303.226,652.866 314.61,665.875 z" id="boundary" inkscape:connector-curvature="0" />
	<path style="fill:none;stroke:red;stroke-width:1px;stroke-linecap:butt;stroke-linejoin:miter;stroke-opacity:1" d="M 308.105,33.2721 321.115,21.8885 z" id="boundary" inkscape:connector-curvature="0" />
	<path style="fill:none;stroke:red;stroke-width:1px;stroke-linecap:butt;stroke-linejoin:miter;stroke-opacity:1" d="M 314.61,665.875 327.62,677.259 z" id="boundary" inkscape:connector-curvature="0" />
	<path style="fill:none;stroke:red;stroke-width:1px;stroke-linecap:butt;stroke-linejoin:miter;stroke-opacity:1" d="M 321.115,21.8885 337.377,17.0098 z" id="boundary" inkscape:connector-curvature="0" />
	<path style="fill:none;stroke:red;stroke-width:1px;stroke-linecap:butt;stroke-linejoin:miter;stroke-opacity:1" d="M 327.62,677.259 342.256,685.39 z" id="boundary" inkscape:connector-curvature="0" />
	<path style="fill:none;stroke:red;stroke-width:1px;stroke-linecap:butt;stroke-linejoin:miter;stroke-opacity:1" d="M 337.377,17.0098 353.639,17.0098 z" id="boundary" inkscape:connector-curvature="0" />
	<path style="fill:none;stroke:red;stroke-width:1px;stroke-linecap:butt;stroke-linejoin:miter;stroke-opacity:1" d="M 342.256,685.39 347.134,669.128 z" id="boundary" inkscape:connector-curvature="0" />
	<path style="fill:none;stroke:red;stroke-width:1px;stroke-linecap:butt;stroke-linejoin:miter;stroke-opacity:1" d="M 347.134,620.341 347.134,636.603 z" id="boundary" inkscape:connector-curvature="0" />
	<path style="fill:none;stroke:red;stroke-width:1px;stroke-linecap:butt;stroke-linejoin:miter;stroke-opacity:1" d="M 347.134,620.341 363.397,612.21 z" id="boundary" inkscape:connector-curvature="0" />
	<path style="fill:none;stroke:red;stroke-width:1px;stroke-linecap:butt;stroke-linejoin:miter;stroke-opacity:1" d="M 347.134,636.603 347.134,652.866 z" id="boundary" inkscape:connector-curvature="0" />
	<path style="fill:none;stroke:red;stroke-width:1px;stroke-linecap:butt;stroke-linejoin:miter;stroke-opacity:1" d="M 347.134,652.866 347.134,669.128 z" id="boundary" inkscape:connector-curvature="0" />
	<path style="fill:none;stroke:red;stroke-width:1px;stroke-linecap:butt;stroke-linejoin:miter;stroke-opacity:1" d="M 353.639,17.0098 369.902,17.0098 z" id="boundary" inkscape:connector-curvature="0" />
	<path style="fill:none;stroke:red;stroke-width:1px;stroke-linecap:butt;stroke-linejoin:miter;stroke-opacity:1" d="M 363.397,612.21 379.659,612.21 z" id="boundary" inkscape:connector-curvature="0" />
	<path style="fill:none;stroke:red;stroke-width:1px;stroke-linecap:butt;stroke-linejoin:miter;stroke-opacity:1" d="M 369.902,17.0098 386.164,17.0098 z" id="boundary" inkscape:connector-curvature="0" />
	<path style="fill:none;stroke:red;stroke-width:1px;stroke-linecap:butt;stroke-linejoin:miter;stroke-opacity:1" d="M 379.659,612.21 395.921,612.21 z" id="boundary" inkscape:connector-curvature="0" />
	<path style="fill:none;stroke:red;stroke-width:1px;stroke-linecap:butt;stroke-linejoin:miter;stroke-opacity:1" d="M 386.164,17.0098 402.426,17.0098 z" id="boundary" inkscape:connector-curvature="0" />
	<path style="fill:none;stroke:red;stroke-width:1px;stroke-linecap:butt;stroke-linejoin:miter;stroke-opacity:1" d="M 395.921,612.21 412.184,612.21 z" id="boundary" inkscape:connector-curvature="0" />
	<path style="fill:none;stroke:red;stroke-width:1px;stroke-linecap:butt;stroke-linejoin:miter;stroke-opacity:1" d="M 402.426,17.0098 418.689,13.7574 z" id="boundary" inkscape:connector-curvature="0" />
	<path style="fill:none;stroke:red;stroke-width:1px;stroke-linecap:butt;stroke-linejoin:miter;stroke-opacity:1" d="M 412.184,612.21 428.446,612.21 z" id="boundary" inkscape:connector-curvature="0" />
	<path style="fill:none;stroke:red;stroke-width:1px;stroke-linecap:butt;stroke-linejoin:miter;stroke-opacity:1" d="M 418.689,13.7574 434.951,8.87869 z" id="boundary" inkscape:connector-curvature="0" />
	<path style="fill:none;stroke:red;stroke-width:1px;stroke-linecap:butt;stroke-linejoin:miter;stroke-opacity:1" d="M 428.446,612.21 444.708,612.21 z" id="boundary" inkscape:connector-curvature="0" />
	<path style="fill:none;stroke:red;stroke-width:1px;stroke-linecap:butt;stroke-linejoin:miter;stroke-opacity:1" d="M 434.951,8.87869 451.213,8.87869 z" id="boundary" inkscape:connector-curvature="0" />
	<path style="fill:none;stroke:red;stroke-width:1px;stroke-linecap:butt;stroke-linejoin:miter;stroke-opacity:1" d="M 444.708,612.21 460.97,612.21 z" id="boundary" inkscape:connector-curvature="0" />
	<path style="fill:none;stroke:red;stroke-width:1px;stroke-linecap:butt;stroke-linejoin:miter;stroke-opacity:1" d="M 451.213,8.87869 467.475,8.87869 z" id="boundary" inkscape:connector-curvature="0" />
	<path style="fill:none;stroke:red;stroke-width:1px;stroke-linecap:butt;stroke-linejoin:miter;stroke-opacity:1" d="M 460.97,612.21 477.233,612.21 z" id="boundary" inkscape:connector-curvature="0" />
	<path style="fill:none;stroke:red;stroke-width:1px;stroke-linecap:butt;stroke-linejoin:miter;stroke-opacity:1" d="M 467.475,8.87869 483.738,4 z" id="boundary" inkscape:connector-curvature="0" />
	<path style="fill:none;stroke:red;stroke-width:1px;stroke-linecap:butt;stroke-linejoin:miter;stroke-opacity:1" d="M 477.233,612.21 493.495,612.21 z" id="boundary" inkscape:connector-curvature="0" />
	<path style="fill:none;stroke:red;stroke-width:1px;stroke-linecap:butt;stroke-linejoin:miter;stroke-opacity:1" d="M 483.738,4 493.495,17.0098 z" id="boundary" inkscape:connector-curvature="0" />
	<path style="fill:none;stroke:red;stroke-width:1px;stroke-linecap:butt;stroke-linejoin:miter;stroke-opacity:1" d="M 493.495,17.0098 508.131,25.141 z" id="boundary" inkscape:connector-curvature="0" />
	<path style="fill:none;stroke:red;stroke-width:1px;stroke-linecap:butt;stroke-linejoin:miter;stroke-opacity:1" d="M 493.495,612.21 508.131,604.079 z" id="boundary" inkscape:connector-curvature="0" />
	<path style="fill:none;stroke:red;stroke-width:1px;stroke-linecap:butt;stroke-linejoin:miter;stroke-opacity:1" d="M 508.131,25.141 524.393,25.141 z" id="boundary" inkscape:connector-curvature="0" />
	<path style="fill:none;stroke:red;stroke-width:1px;stroke-linecap:butt;stroke-linejoin:miter;stroke-opacity:1" d="M 508.131,604.079 524.393,599.2 z" id="boundary" inkscape:connector-curvature="0" />
	<path style="fill:none;stroke:red;stroke-width:1px;stroke-linecap:butt;stroke-linejoin:miter;stroke-opacity:1" d="M 524.393,25.141 540.656,28.3934 z" id="boundary" inkscape:connector-curvature="0" />
	<path style="fill:none;stroke:red;stroke-width:1px;stroke-linecap:butt;stroke-linejoin:miter;stroke-opacity:1" d="M 524.393,599.2 540.656,595.948 z" id="boundary" inkscape:connector-curvature="0" />
	<path style="fill:none;stroke:red;stroke-width:1px;stroke-linecap:butt;stroke-linejoin:miter;stroke-opacity:1" d="M 540.656,28.3934 556.918,33.2721 z" id="boundary" inkscape:connector-curvature="0" />
	<path style="fill:none;stroke:red;stroke-width:1px;stroke-linecap:butt;stroke-linejoin:miter;stroke-opacity:1" d="M 540.656,595.948 555.292,587.816 z" id="boundary" inkscape:connector-curvature="0" />
	<path style="fill:none;stroke:red;stroke-width:1px;stroke-linecap:butt;stroke-linejoin:miter;stroke-opacity:1" d="M 555.292,587.816 569.928,579.685 z" id="boundary" inkscape:connector-curvature="0" />
	<path style="fill:none;stroke:red;stroke-width:1px;stroke-linecap:butt;stroke-linejoin:miter;stroke-opacity:1" d="M 556.918,33.2721 573.18,33.2721 z" id="boundary" inkscape:connector-curvature="0" />
	<path style="fill:none;stroke:red;stroke-width:1px;stroke-linecap:butt;stroke-linejoin:miter;stroke-opacity:1" d="M 569.928,579.685 584.564,571.554 z" id="boundary" inkscape:connector-curvature="0" />
	<path style="fill:none;stroke:red;stroke-width:1px;stroke-linecap:butt;stroke-linejoin:miter;stroke-opacity:1" d="M 573.18,33.2721 586.19,43.0295 z" id="boundary" inkscape:connector-curvature="0" />
	<path style="fill:none;stroke:red;stroke-width:1px;stroke-linecap:butt;stroke-linejoin:miter;stroke-opacity:1" d="M 584.564,571.554 599.2,563.423 z" id="boundary" inkscape:connector-curvature="0" />
	<path style="fill:none;stroke:red;stroke-width:1px;stroke-linecap:butt;stroke-linejoin:miter;stroke-opacity:1" d="M 586.19,43.0295 599.2,54.4131 z" id="boundary" inkscape:connector-curvature="0" />
	<path style="fill:none;stroke:red;stroke-width:1px;stroke-linecap:butt;stroke-linejoin:miter;stroke-opacity:1" d="M 599.2,54.4131 615.462,49.5344 z" id="boundary" inkscape:connector-curvature="0" />
	<path style="fill:none;stroke:red;stroke-width:1px;stroke-linecap:butt;stroke-linejoin:miter;stroke-opacity:1" d="M 599.2,563.423 613.836,555.292 z" id="boundary" inkscape:connector-curvature="0" />
	<path style="fill:none;stroke:red;stroke-width:1px;stroke-linecap:butt;stroke-linejoin:miter;stroke-opacity:1" d="M 613.836,555.292 630.098,550.413 z" id="boundary" inkscape:connector-curvature="0" />
	<path style="fill:none;stroke:red;stroke-width:1px;stroke-linecap:butt;stroke-linejoin:miter;stroke-opacity:1" d="M 615.462,49.5344 628.472,59.2918 z" id="boundary" inkscape:connector-curvature="0" />
	<path style="fill:none;stroke:red;stroke-width:1px;stroke-linecap:butt;stroke-linejoin:miter;stroke-opacity:1" d="M 628.472,59.2918 639.856,72.3016 z" id="boundary" inkscape:connector-curvature="0" />
	<path style="fill:none;stroke:red;stroke-width:1px;stroke-linecap:butt;stroke-linejoin:miter;stroke-opacity:1" d="M 630.098,550.413 646.361,542.282 z" id="boundary" inkscape:connector-curvature="0" />
	<path style="fill:none;stroke:red;stroke-width:1px;stroke-linecap:butt;stroke-linejoin:miter;stroke-opacity:1" d="M 639.856,72.3016 647.987,86.9377 z" id="boundary" inkscape:connector-curvature="0" />
	<path style="fill:none;stroke:red;stroke-width:1px;stroke-linecap:butt;stroke-linejoin:miter;stroke-opacity:1" d="M 646.361,542.282 662.623,534.151 z" id="boundary" inkscape:connector-curvature="0" />
	<path style="fill:none;stroke:red;stroke-width:1px;stroke-linecap:butt;stroke-linejoin:miter;stroke-opacity:1" d="M 647.987,86.9377 662.623,95.0689 z" id="boundary" inkscape:connector-curvature="0" />
	<path style="fill:none;stroke:red;stroke-width:1px;stroke-linecap:butt;stroke-linejoin:miter;stroke-opacity:1" d="M 662.623,95.0689 675.633,106.452 z" id="boundary" inkscape:connector-curvature="0" />
	<path style="fill:none;stroke:red;stroke-width:1px;stroke-linecap:butt;stroke-linejoin:miter;stroke-opacity:1" d="M 662.623,534.151 675.633,521.141 z" id="boundary" inkscape:connector-curvature="0" />
	<path style="fill:none;stroke:red;stroke-width:1px;stroke-linecap:butt;stroke-linejoin:miter;stroke-opacity:1" d="M 675.633,106.452 687.016,119.462 z" id="boundary" inkscape:connector-curvature="0" />
	<path style="fill:none;stroke:red;stroke-width:1px;stroke-linecap:butt;stroke-linejoin:miter;stroke-opacity:1" d="M 675.633,521.141 688.643,506.505 z" id="boundary" inkscape:connector-curvature="0" />
	<path style="fill:none;stroke:red;stroke-width:1px;stroke-linecap:butt;stroke-linejoin:miter;stroke-opacity:1" d="M 687.016,119.462 703.279,125.967 z" id="boundary" inkscape:connector-curvature="0" />
	<path style="fill:none;stroke:red;stroke-width:1px;stroke-linecap:butt;stroke-linejoin:miter;stroke-opacity:1" d="M 688.643,506.505 703.279,498.374 z" id="boundary" inkscape:connector-curvature="0" />
	<path style="fill:none;stroke:red;stroke-width:1px;stroke-linecap:butt;stroke-linejoin:miter;stroke-opacity:1" d="M 703.279,125.967 713.036,138.977 z" id="boundary" inkscape:connector-curvature="0" />
	<path style="fill:none;stroke:red;stroke-width:1px;stroke-linecap:butt;stroke-linejoin:miter;stroke-opacity:1" d="M 703.279,498.374 713.036,482.111 z" id="boundary" inkscape:connector-curvature="0" />
	<path style="fill:none;stroke:red;stroke-width:1px;stroke-linecap:butt;stroke-linejoin:miter;stroke-opacity:1" d="M 713.036,138.977 726.046,148.734 z" id="boundary" inkscape:connector-curvature="0" />
	<path style="fill:none;stroke:red;stroke-width:1px;stroke-linecap:butt;stroke-linejoin:miter;stroke-opacity:1" d="M 713.036,238.177 721.167,252.813 z" id="boundary" inkscape:connector-curvature="0" />
	<path style="fill:none;stroke:red;stroke-width:1px;stroke-linecap:butt;stroke-linejoin:miter;stroke-opacity:1" d="M 713.036,238.177 729.298,230.046 z" id="boundary" inkscape:connector-curvature="0" />
	<path style="fill:none;stroke:red;stroke-width:1px;stroke-linecap:butt;stroke-linejoin:miter;stroke-opacity:1" d="M 713.036,482.111 729.298,482.111 z" id="boundary" inkscape:connector-curvature="0" />
	<path style="fill:none;stroke:red;stroke-width:1px;stroke-linecap:butt;stroke-linejoin:miter;stroke-opacity:1" d="M 721.167,252.813 737.43,252.813 z" id="boundary" inkscape:connector-curvature="0" />
	<path style="fill:none;stroke:red;stroke-width:1px;stroke-linecap:butt;stroke-linejoin:miter;stroke-opacity:1" d="M 726.046,148.734 729.298,164.997 z" id="boundary" inkscape:connector-curvature="0" />
	<path style="fill:none;stroke:red;stroke-width:1px;stroke-linecap:butt;stroke-linejoin:miter;stroke-opacity:1" d="M 729.298,164.997 737.43,179.633 z" id="boundary" inkscape:connector-curvature="0" />
	<path style="fill:none;stroke:red;stroke-width:1px;stroke-linecap:butt;stroke-linejoin:miter;stroke-opacity:1" d="M 729.298,213.784 729.298,230.046 z" id="boundary" inkscape:connector-curvature="0" />
	<path style="fill:none;stroke:red;stroke-width:1px;stroke-linecap:butt;stroke-linejoin:miter;stroke-opacity:1" d="M 729.298,213.784 737.43,195.895 z" id="boundary" inkscape:connector-curvature="0" />
	<path style="fill:none;stroke:red;stroke-width:1px;stroke-linecap:butt;stroke-linejoin:miter;stroke-opacity:1" d="M 729.298,482.111 742.308,470.728 z" id="boundary" inkscape:connector-curvature="0" />
	<path style="fill:none;stroke:red;stroke-width:1px;stroke-linecap:butt;stroke-linejoin:miter;stroke-opacity:1" d="M 737.43,179.633 737.43,195.895 z" id="boundary" inkscape:connector-curvature="0" />
	<path style="fill:none;stroke:red;stroke-width:1px;stroke-linecap:butt;stroke-linejoin:miter;stroke-opacity:1" d="M 737.43,252.813 752.066,241.43 z" id="boundary" inkscape:connector-curvature="0" />
	<path style="fill:none;stroke:red;stroke-width:1px;stroke-linecap:butt;stroke-linejoin:miter;stroke-opacity:1" d="M 742.308,470.728 753.692,457.718 z" id="boundary" inkscape:connector-curvature="0" />
	<path style="fill:none;stroke:red;stroke-width:1px;stroke-linecap:butt;stroke-linejoin:miter;stroke-opacity:1" d="M 752.066,241.43 768.328,225.167 z" id="boundary" inkscape:connector-curvature="0" />
	<path style="fill:none;stroke:red;stroke-width:1px;stroke-linecap:butt;stroke-linejoin:miter;stroke-opacity:1" d="M 753.692,457.718 761.823,441.456 z" id="boundary" inkscape:connector-curvature="0" />
	<path style="fill:none;stroke:red;stroke-width:1px;stroke-linecap:butt;stroke-linejoin:miter;stroke-opacity:1" d="M 761.823,441.456 769.954,425.193 z" id="boundary" inkscape:connector-curvature="0" />
	<path style="fill:none;stroke:red;stroke-width:1px;stroke-linecap:butt;stroke-linejoin:miter;stroke-opacity:1" d="M 768.328,225.167 784.59,220.289 z" id="boundary" inkscape:connector-curvature="0" />
	<path style="fill:none;stroke:red;stroke-width:1px;stroke-linecap:butt;stroke-linejoin:miter;stroke-opacity:1" d="M 769.954,425.193 784.59,417.062 z" id="boundary" inkscape:connector-curvature="0" />
	<path style="fill:none;stroke:red;stroke-width:1px;stroke-linecap:butt;stroke-linejoin:miter;stroke-opacity:1" d="M 784.59,220.289 799.226,212.157 z" id="boundary" inkscape:connector-curvature="0" />
	<path style="fill:none;stroke:red;stroke-width:1px;stroke-linecap:butt;stroke-linejoin:miter;stroke-opacity:1" d="M 784.59,417.062 794.348,430.072 z" id="boundary" inkscape:connector-curvature="0" />
	<path style="fill:none;stroke:red;stroke-width:1px;stroke-linecap:butt;stroke-linejoin:miter;stroke-opacity:1" d="M 794.348,430.072 810.61,436.577 z" id="boundary" inkscape:connector-curvature="0" />
	<path style="fill:none;stroke:red;stroke-width:1px;stroke-linecap:butt;stroke-linejoin:miter;stroke-opacity:1" d="M 799.226,212.157 810.61,199.148 z" id="boundary" inkscape:connector-curvature="0" />
	<path style="fill:none;stroke:red;stroke-width:1px;stroke-linecap:butt;stroke-linejoin:miter;stroke-opacity:1" d="M 810.61,199.148 823.62,187.764 z" id="boundary" inkscape:connector-curvature="0" />
	<path style="fill:none;stroke:red;stroke-width:1px;stroke-linecap:butt;stroke-linejoin:miter;stroke-opacity:1" d="M 810.61,436.577 825.246,444.708 z" id="boundary" inkscape:connector-curvature="0" />
	<path style="fill:none;stroke:red;stroke-width:1px;stroke-linecap:butt;stroke-linejoin:miter;stroke-opacity:1" d="M 823.62,187.764 839.882,187.764 z" id="boundary" inkscape:connector-curvature="0" />
	<path style="fill:none;stroke:red;stroke-width:1px;stroke-linecap:butt;stroke-linejoin:miter;stroke-opacity:1" d="M 825.246,444.708 835.003,457.718 z" id="boundary" inkscape:connector-curvature="0" />
	<path style="fill:none;stroke:red;stroke-width:1px;stroke-linecap:butt;stroke-linejoin:miter;stroke-opacity:1" d="M 835.003,457.718 849.639,465.849 z" id="boundary" inkscape:connector-curvature="0" />
	<path style="fill:none;stroke:red;stroke-width:1px;stroke-linecap:butt;stroke-linejoin:miter;stroke-opacity:1" d="M 839.882,187.764 854.518,179.633 z" id="boundary" inkscape:connector-curvature="0" />
	<path style="fill:none;stroke:red;stroke-width:1px;stroke-linecap:butt;stroke-linejoin:miter;stroke-opacity:1" d="M 849.639,465.849 865.902,465.849 z" id="boundary" inkscape:connector-curvature="0" />
	<path style="fill:none;stroke:red;stroke-width:1px;stroke-linecap:butt;stroke-linejoin:miter;stroke-opacity:1" d="M 854.518,179.633 869.154,171.502 z" id="boundary" inkscape:connector-curvature="0" />
	<path style="fill:none;stroke:red;stroke-width:1px;stroke-linecap:butt;stroke-linejoin:miter;stroke-opacity:1" d="M 865.902,465.849 875.659,478.859 z" id="boundary" inkscape:connector-curvature="0" />
	<path style="fill:none;stroke:red;stroke-width:1px;stroke-linecap:butt;stroke-linejoin:miter;stroke-opacity:1" d="M 869.154,171.502 882.164,160.118 z" id="boundary" inkscape:connector-curvature="0" />
	<path style="fill:none;stroke:red;stroke-width:1px;stroke-linecap:butt;stroke-linejoin:miter;stroke-opacity:1" d="M 875.659,478.859 891.921,485.364 z" id="boundary" inkscape:connector-curvature="0" />
	<path style="fill:none;stroke:red;stroke-width:1px;stroke-linecap:butt;stroke-linejoin:miter;stroke-opacity:1" d="M 882.164,160.118 898.426,155.239 z" id="boundary" inkscape:connector-curvature="0" />
	<path style="fill:none;stroke:red;stroke-width:1px;stroke-linecap:butt;stroke-linejoin:miter;stroke-opacity:1" d="M 891.921,230.046 891.921,246.308 z" id="boundary" inkscape:connector-curvature="0" />
	<path style="fill:none;stroke:red;stroke-width:1px;stroke-linecap:butt;stroke-linejoin:miter;stroke-opacity:1" d="M 891.921,230.046 900.052,213.784 z" id="boundary" inkscape:connector-curvature="0" />
	<path style="fill:none;stroke:red;stroke-width:1px;stroke-linecap:butt;stroke-linejoin:miter;stroke-opacity:1" d="M 891.921,246.308 891.921,262.57 z" id="boundary" inkscape:connector-curvature="0" />
	<path style="fill:none;stroke:red;stroke-width:1px;stroke-linecap:butt;stroke-linejoin:miter;stroke-opacity:1" d="M 891.921,262.57 891.921,278.833 z" id="boundary" inkscape:connector-curvature="0" />
	<path style="fill:none;stroke:red;stroke-width:1px;stroke-linecap:butt;stroke-linejoin:miter;stroke-opacity:1" d="M 891.921,278.833 891.921,295.095 z" id="boundary" inkscape:connector-curvature="0" />
	<path style="fill:none;stroke:red;stroke-width:1px;stroke-linecap:butt;stroke-linejoin:miter;stroke-opacity:1" d="M 891.921,295.095 891.921,311.357 z" id="boundary" inkscape:connector-curvature="0" />
	<path style="fill:none;stroke:red;stroke-width:1px;stroke-linecap:butt;stroke-linejoin:miter;stroke-opacity:1" d="M 891.921,311.357 891.921,327.62 z" id="boundary" inkscape:connector-curvature="0" />
	<path style="fill:none;stroke:red;stroke-width:1px;stroke-linecap:butt;stroke-linejoin:miter;stroke-opacity:1" d="M 891.921,327.62 891.921,343.882 z" id="boundary" inkscape:connector-curvature="0" />
	<path style="fill:none;stroke:red;stroke-width:1px;stroke-linecap:butt;stroke-linejoin:miter;stroke-opacity:1" d="M 891.921,343.882 891.921,360.144 z" id="boundary" inkscape:connector-curvature="0" />
	<path style="fill:none;stroke:red;stroke-width:1px;stroke-linecap:butt;stroke-linejoin:miter;stroke-opacity:1" d="M 891.921,360.144 891.921,376.407 z" id="boundary" inkscape:connector-curvature="0" />
	<path style="fill:none;stroke:red;stroke-width:1px;stroke-linecap:butt;stroke-linejoin:miter;stroke-opacity:1" d="M 891.921,376.407 891.921,392.669 z" id="boundary" inkscape:connector-curvature="0" />
	<path style="fill:none;stroke:red;stroke-width:1px;stroke-linecap:butt;stroke-linejoin:miter;stroke-opacity:1" d="M 891.921,392.669 891.921,408.931 z" id="boundary" inkscape:connector-curvature="0" />
	<path style="fill:none;stroke:red;stroke-width:1px;stroke-linecap:butt;stroke-linejoin:miter;stroke-opacity:1" d="M 891.921,408.931 895.174,425.193 z" id="boundary" inkscape:connector-curvature="0" />
	<path style="fill:none;stroke:red;stroke-width:1px;stroke-linecap:butt;stroke-linejoin:miter;stroke-opacity:1" d="M 891.921,485.364 908.184,490.243 z" id="boundary" inkscape:connector-curvature="0" />
	<path style="fill:none;stroke:red;stroke-width:1px;stroke-linecap:butt;stroke-linejoin:miter;stroke-opacity:1" d="M 895.174,425.193 908.184,436.577 z" id="boundary" inkscape:connector-curvature="0" />
	<path style="fill:none;stroke:red;stroke-width:1px;stroke-linecap:butt;stroke-linejoin:miter;stroke-opacity:1" d="M 898.426,155.239 914.689,155.239 z" id="boundary" inkscape:connector-curvature="0" />
	<path style="fill:none;stroke:red;stroke-width:1px;stroke-linecap:butt;stroke-linejoin:miter;stroke-opacity:1" d="M 900.052,213.784 913.062,202.4 z" id="boundary" inkscape:connector-curvature="0" />
	<path style="fill:none;stroke:red;stroke-width:1px;stroke-linecap:butt;stroke-linejoin:miter;stroke-opacity:1" d="M 908.184,436.577 921.193,447.961 z" id="boundary" inkscape:connector-curvature="0" />
	<path style="fill:none;stroke:red;stroke-width:1px;stroke-linecap:butt;stroke-linejoin:miter;stroke-opacity:1" d="M 908.184,490.243 924.446,490.243 z" id="boundary" inkscape:connector-curvature="0" />
	<path style="fill:none;stroke:red;stroke-width:1px;stroke-linecap:butt;stroke-linejoin:miter;stroke-opacity:1" d="M 913.062,202.4 924.446,189.39 z" id="boundary" inkscape:connector-curvature="0" />
	<path style="fill:none;stroke:red;stroke-width:1px;stroke-linecap:butt;stroke-linejoin:miter;stroke-opacity:1" d="M 914.689,155.239 930.951,155.239 z" id="boundary" inkscape:connector-curvature="0" />
	<path style="fill:none;stroke:red;stroke-width:1px;stroke-linecap:butt;stroke-linejoin:miter;stroke-opacity:1" d="M 921.193,447.961 935.83,456.092 z" id="boundary" inkscape:connector-curvature="0" />
	<path style="fill:none;stroke:red;stroke-width:1px;stroke-linecap:butt;stroke-linejoin:miter;stroke-opacity:1" d="M 924.446,189.39 939.082,181.259 z" id="boundary" inkscape:connector-curvature="0" />
	<path style="fill:none;stroke:red;stroke-width:1px;stroke-linecap:butt;stroke-linejoin:miter;stroke-opacity:1" d="M 924.446,490.243 940.708,490.243 z" id="boundary" inkscape:connector-curvature="0" />
	<path style="fill:none;stroke:red;stroke-width:1px;stroke-linecap:butt;stroke-linejoin:miter;stroke-opacity:1" d="M 930.951,155.239 947.213,155.239 z" id="boundary" inkscape:connector-curvature="0" />
	<path style="fill:none;stroke:red;stroke-width:1px;stroke-linecap:butt;stroke-linejoin:miter;stroke-opacity:1" d="M 935.83,456.092 950.466,464.223 z" id="boundary" inkscape:connector-curvature="0" />
	<path style="fill:none;stroke:red;stroke-width:1px;stroke-linecap:butt;stroke-linejoin:miter;stroke-opacity:1" d="M 939.082,181.259 955.344,181.259 z" id="boundary" inkscape:connector-curvature="0" />
	<path style="fill:none;stroke:red;stroke-width:1px;stroke-linecap:butt;stroke-linejoin:miter;stroke-opacity:1" d="M 940.708,490.243 956.97,490.243 z" id="boundary" inkscape:connector-curvature="0" />
	<path style="fill:none;stroke:red;stroke-width:1px;stroke-linecap:butt;stroke-linejoin:miter;stroke-opacity:1" d="M 947.213,155.239 963.475,158.492 z" id="boundary" inkscape:connector-curvature="0" />
	<path style="fill:none;stroke:red;stroke-width:1px;stroke-linecap:butt;stroke-linejoin:miter;stroke-opacity:1" d="M 950.466,464.223 966.728,464.223 z" id="boundary" inkscape:connector-curvature="0" />
	<path style="fill:none;stroke:red;stroke-width:1px;stroke-linecap:butt;stroke-linejoin:miter;stroke-opacity:1" d="M 955.344,181.259 971.607,181.259 z" id="boundary" inkscape:connector-curvature="0" />
	<path style="fill:none;stroke:red;stroke-width:1px;stroke-linecap:butt;stroke-linejoin:miter;stroke-opacity:1" d="M 956.97,490.243 973.233,490.243 z" id="boundary" inkscape:connector-curvature="0" />
	<path style="fill:none;stroke:red;stroke-width:1px;stroke-linecap:butt;stroke-linejoin:miter;stroke-opacity:1" d="M 963.475,158.492 979.738,160.118 z" id="boundary" inkscape:connector-curvature="0" />
	<path style="fill:none;stroke:red;stroke-width:1px;stroke-linecap:butt;stroke-linejoin:miter;stroke-opacity:1" d="M 966.728,464.223 981.364,472.354 z" id="boundary" inkscape:connector-curvature="0" />
	<path style="fill:none;stroke:red;stroke-width:1px;stroke-linecap:butt;stroke-linejoin:miter;stroke-opacity:1" d="M 971.607,181.259 987.869,181.259 z" id="boundary" inkscape:connector-curvature="0" />
	<path style="fill:none;stroke:red;stroke-width:1px;stroke-linecap:butt;stroke-linejoin:miter;stroke-opacity:1" d="M 973.233,490.243 981.364,472.354 z" id="boundary" inkscape:connector-curvature="0" />
	<path style="fill:none;stroke:red;stroke-width:1px;stroke-linecap:butt;stroke-linejoin:miter;stroke-opacity:1" d="M 979.738,160.118 996,166.623 z" id="boundary" inkscape:connector-curvature="0" />
	<path style="fill:none;stroke:red;stroke-width:1px;stroke-linecap:butt;stroke-linejoin:miter;stroke-opacity:1" d="M 987.869,181.259 996,166.623 z" id="boundary" inkscape:connector-curvature="0" />
	<circle cx="4" cy="395.921" r="4" fill="#0" id="circle0"/>
	<circle cx="4" cy="412.184" r="4" fill="#0" id="circle1"/>
	<circle cx="12.1311" cy="322.741" r="4" fill="#0" id="circle2"/>
	<circle cx="12.1311" cy="339.003" r="4" fill="#0" id="circle3"/>
	<circle cx="12.1311" cy="355.266" r="4" fill="#0" id="circle4"/>
	<circle cx="12.1311" cy="371.528" r="4" fill="#0" id="circle5"/>
	<circle cx="12.1311" cy="426.82" r="4" fill="#0" id="circle6"/>
	<circle cx="20.2623" cy="441.456" r="4" fill="#0" id="circle7"/>
	<circle cx="25.141" cy="309.731" r="4" fill="#0" id="circle8"/>
	<circle cx="33.2721" cy="293.469" r="4" fill="#0" id="circle9"/>
	<circle cx="34.8984" cy="449.587" r="4" fill="#0" id="circle10"/>
	<circle cx="41.4033" cy="277.207" r="4" fill="#0" id="circle11"/>
	<circle cx="44.6557" cy="257.692" r="4" fill="#0" id="circle12"/>
	<circle cx="49.5344" cy="457.718" r="4" fill="#0" id="circle13"/>
	<circle cx="60.918" cy="249.561" r="4" fill="#0" id="circle14"/>
	<circle cx="65.7967" cy="464.223" r="4" fill="#0" id="circle15"/>
	<circle cx="69.0492" cy="233.298" r="4" fill="#0" id="circle16"/>
	<circle cx="77.1803" cy="477.233" r="4" fill="#0" id="circle17"/>
	<circle cx="82.059" cy="220.289" r="4" fill="#0" id="circle18"/>
	<circle cx="90.1902" cy="488.616" r="4" fill="#0" id="circle19"/>
	<circle cx="95.0689" cy="207.279" r="4" fill="#0" id="circle20"/>
	<circle cx="103.2" cy="498.374" r="4" fill="#0" id="circle21"/>
	<circle cx="108.079" cy="195.895" r="4" fill="#0" id="circle22"/>
	<circle cx="117.836" cy="176.38" r="4" fill="#0" id="circle23"/>
	<circle cx="119.462" cy="501.626" r="4" fill="#0" id="circle24"/>
	<circle cx="130.846" cy="163.37" r="4" fill="#0" id="circle25"/>
	<circle cx="130.846" cy="514.636" r="4" fill="#0" id="circle26"/>
	<circle cx="143.856" cy="150.361" r="4" fill="#0" id="circle27"/>
	<circle cx="147.108" cy="521.141" r="4" fill="#0" id="circle28"/>
	<circle cx="150.361" cy="119.462" r="4" fill="#0" id="circle29"/>
	<circle cx="163.37" cy="106.452" r="4" fill="#0" id="circle30"/>
	<circle cx="163.37" cy="522.767" r="4" fill="#0" id="circle31"/>
	<circle cx="176.38" cy="93.4426" r="4" fill="#0" id="circle32"/>
	<circle cx="176.38" cy="534.151" r="4" fill="#0" id="circle33"/>
	<circle cx="189.39" cy="82.059" r="4" fill="#0" id="circle34"/>
	<circle cx="191.016" cy="542.282" r="4" fill="#0" id="circle35"/>
	<circle cx="200.774" cy="69.0492" r="4" fill="#0" id="circle36"/>
	<circle cx="207.279" cy="539.03" r="4" fill="#0" id="circle37"/>
	<circle cx="213.784" cy="57.6656" r="4" fill="#0" id="circle38"/>
	<circle cx="221.915" cy="547.161" r="4" fill="#0" id="circle39"/>
	<circle cx="228.42" cy="49.5344" r="4" fill="#0" id="circle40"/>
	<circle cx="233.298" cy="560.17" r="4" fill="#0" id="circle41"/>
	<circle cx="241.43" cy="574.807" r="4" fill="#0" id="circle42"/>
	<circle cx="244.682" cy="41.4033" r="4" fill="#0" id="circle43"/>
	<circle cx="252.813" cy="587.816" r="4" fill="#0" id="circle44"/>
	<circle cx="256.066" cy="604.079" r="4" fill="#0" id="circle45"/>
	<circle cx="260.944" cy="41.4033" r="4" fill="#0" id="circle46"/>
	<circle cx="265.823" cy="617.089" r="4" fill="#0" id="circle47"/>
	<circle cx="275.58" cy="33.2721" r="4" fill="#0" id="circle48"/>
	<circle cx="278.833" cy="628.472" r="4" fill="#0" id="circle49"/>
	<circle cx="290.216" cy="641.482" r="4" fill="#0" id="circle50"/>
	<circle cx="291.843" cy="26.7672" r="4" fill="#0" id="circle51"/>
	<circle cx="303.226" cy="652.866" r="4" fill="#0" id="circle52"/>
	<circle cx="308.105" cy="33.2721" r="4" fill="#0" id="circle53"/>
	<circle cx="314.61" cy="665.875" r="4" fill="#0" id="circle54"/>
	<circle cx="321.115" cy="21.8885" r="4" fill="#0" id="circle55"/>
	<circle cx="327.62" cy="677.259" r="4" fill="#0" id="circle56"/>
	<circle cx="337.377" cy="17.0098" r="4" fill="#0" id="circle57"/>
	<circle cx="342.256" cy="685.39" r="4" fill="#0" id="circle58"/>
	<circle cx="347.134" cy="620.341" r="4" fill="#0" id="circle59"/>
	<circle cx="347.134" cy="636.603" r="4" fill="#0" id="circle60"/>
	<circle cx="347.134" cy="652.866" r="4" fill="#0" id="circle61"/>
	<circle cx="347.134" cy="669.128" r="4" fill="#0" id="circle62"/>
	<circle cx="353.639" cy="17.0098" r="4" fill="#0" id="circle63"/>
	<circle cx="363.397" cy="612.21" r="4" fill="#0" id="circle64"/>
	<circle cx="369.902" cy="17.0098" r="4" fill="#0" id="circle65"/>
	<circle cx="379.659" cy="612.21" r="4" fill="#0" id="circle66"/>
	<circle cx="386.164" cy="17.0098" r="4" fill="#0" id="circle67"/>
	<circle cx="395.921" cy="612.21" r="4" fill="#0" id="circle68"/>
	<circle cx="402.426" cy="17.0098" r="4" fill="#0" id="circle69"/>
	<circle cx="412.184" cy="612.21" r="4" fill="#0" id="circle70"/>
	<circle cx="418.689" cy="13.7574" r="4" fill="#0" id="circle71"/>
	<circle cx="428.446" cy="612.21" r="4" fill="#0" id="circle72"/>
	<circle cx="434.951" cy="8.87869" r="4" fill="#0" id="circle73"/>
	<circle cx="444.708" cy="612.21" r="4" fill="#0" id="circle74"/>
	<circle cx="451.213" cy="8.87869" r="4" fill="#0" id="circle75"/>
	<circle cx="460.97" cy="612.21" r="4" fill="#0" id="circle76"/>
	<circle cx="467.475" cy="8.87869" r="4" fill="#0" id="circle77"/>
	<circle cx="477.233" cy="612.21" r="4" fill="#0" id="circle78"/>
	<circle cx="483.738" cy="4" r="4" fill="#0" id="circle79"/>
	<circle cx="493.495" cy="17.0098" r="4" fill="#0" id="circle80"/>
	<circle cx="493.495" cy="612.21" r="4" fill="#0" id="circle81"/>
	<circle cx="508.131" cy="25.141" r="4" fill="#0" id="circle82"/>
	<circle cx="508.131" cy="604.079" r="4" fill="#0" id="circle83"/>
	<circle cx="524.393" cy="25.141" r="4" fill="#0" id="circle84"/>
	<circle cx="524.393" cy="599.2" r="4" fill="#0" id="circle85"/>
	<circle cx="540.656" cy="28.3934" r="4" fill="#0" id="circle86"/>
	<circle cx="540.656" cy="595.948" r="4" fill="#0" id="circle87"/>
	<circle cx="555.292" cy="587.816" r="4" fill="#0" id="circle88"/>
	<circle cx="556.918" cy="33.2721" r="4" fill="#0" id="circle89"/>
	<circle cx="569.928" cy="579.685" r="4" fill="#0" id="circle90"/>
	<circle cx="573.18" cy="33.2721" r="4" fill="#0" id="circle91"/>
	<circle cx="584.564" cy="571.554" r="4" fill="#0" id="circle92"/>
	<circle cx="586.19" cy="43.0295" r="4" fill="#0" id="circle93"/>
	<circle cx="599.2" cy="54.4131" r="4" fill="#0" id="circle94"/>
	<circle cx="599.2" cy="563.423" r="4" fill="#0" id="circle95"/>
	<circle cx="613.836" cy="555.292" r="4" fill="#0" id="circle96"/>
	<circle cx="615.462" cy="49.5344" r="4" fill="#0" id="circle97"/>
	<circle cx="628.472" cy="59.2918" r="4" fill="#0" id="circle98"/>
	<circle cx="630.098" cy="550.413" r="4" fill="#0" id="circle99"/>
	<circle cx="639.856" cy="72.3016" r="4" fill="#0" id="circle100"/>
	<circle cx="646.361" cy="542.282" r="4" fill="#0" id="circle101"/>
	<circle cx="647.987" cy="86.9377" r="4" fill="#0" id="circle102"/>
	<circle cx="662.623" cy="95.0689" r="4" fill="#0" id="circle103"/>
	<circle cx="662.623" cy="534.151" r="4" fill="#0" id="circle104"/>
	<circle cx="675.633" cy="106.452" r="4" fill="#0" id="circle105"/>
	<circle cx="675.633" cy="521.141" r="4" fill="#0" id="circle106"/>
	<circle cx="687.016" cy="119.462" r="4" fill="#0" id="circle107"/>
	<circle cx="688.643" cy="506.505" r="4" fill="#0" id="circle108"/>
	<circle cx="703.279" cy="125.967" r="4" fill="#0" id="circle109"/>
	<circle cx="703.279" cy="498.374" r="4" fill="#0" id="circle110"/>
	<circle cx="713.036" cy="138.977" r="4" fill="#0" id="circle111"/>
	<circle cx="713.036" cy="238.177" r="4" fill="#0" id="circle112"/>
	<circle cx="713.036" cy="482.111" r="4" fill="#0" id="circle113"/>
	<circle cx="721.167" cy="252.813" r="4" fill="#0" id="circle114"/>
	<circle cx="726.046" cy="148.734" r="4" fill="#0" id="circle115"/>
	<circle cx="729.298" cy="164.997" r="4" fill="#0" id="circle116"/>
	<circle cx="729.298" cy="213.784" r="4" fill="#0" id="circle117"/>
	<circle cx="729.298" cy="230.046" r="4" fill="#0" id="circle118"/>
	<circle cx="729.298" cy="482.111" r="4" fill="#0" id="circle119"/>
	<circle cx="737.43" cy="179.633" r="4" fill="#0" id="circle120"/>
	<circle cx="737.43" cy="195.895" r="4" fill="#0" id="circle121"/>
	<circle cx="737.43" cy="252.813" r="4" fill="#0" id="circle122"/>
	<circle cx="742.308" cy="470.728" r="4" fill="#0" id="circle123"/>
	<circle cx="752.066" cy="241.43" r="4" fill="#0" id="circle124"/>
	<circle cx="753.692" cy="457.718" r="4" fill="#0" id="circle125"/>
	<circle cx="761.823" cy="441.456" r="4" fill="#0" id="circle126"/>
	<circle cx="768.328" cy="225.167" r="4" fill="#0" id="circle127"/>
	<circle cx="769.954" cy="425.193" r="4" fill="#0" id="circle128"/>
	<circle cx="784.59" cy="220.289" r="4" fill="#0" id="circle129"/>
	<circle cx="784.59" cy="417.062" r="4" fill="#0" id="circle130"/>
	<circle cx="794.348" cy="430.072" r="4" fill="#0" id="circle131"/>
	<circle cx="799.226" cy="212.157" r="4" fill="#0" id="circle132"/>
	<circle cx="810.61" cy="199.148" r="4" fill="#0" id="circle133"/>
	<circle cx="810.61" cy="436.577" r="4" fill="#0" id="circle134"/>
	<circle cx="823.62" cy="187.764" r="4" fill="#0" id="circle135"/>
	<circle cx="825.246" cy="444.708" r="4" fill="#0" id="circle136"/>
	<circle cx="835.003" cy="457.718" r="4" fill="#0" id="circle137"/>
	<circle cx="839.882" cy="187.764" r="4" fill="#0" id="circle138"/>
	<circle cx="849.639" cy="465.849" r="4" fill="#0" id="circle139"/>
	<circle cx="854.518" cy="179.633" r="4" fill="#0" id="circle140"/>
	<circle cx="865.902" cy="465.849" r="4" fill="#0" id="circle141"/>
	<circle cx="869.154" cy="171.502" r="4" fill="#0" id="circle142"/>
	<circle cx="875.659" cy="478.859" r="4" fill="#0" id="circle143"/>
	<circle cx="882.164" cy="160.118" r="4" fill="#0" id="circle144"/>
	<circle cx="891.921" cy="230.046" r="4" fill="#0" id="circle145"/>
	<circle cx="891.921" cy="246.308" r="4" fill="#0" id="circle146"/>
	<circle cx="891.921" cy="262.57" r="4" fill="#0" id="circle147"/>
	<circle cx="891.921" cy="278.833" r="4" fill="#0" id="circle148"/>
	<circle cx="891.921" cy="295.095" r="4" fill="#0" id="circle149"/>
	<circle cx="891.921" cy="311.357" r="4" fill="#0" id="circle150"/>
	<circle cx="891.921" cy="327.62" r="4" fill="#0" id="circle151"/>
	<circle cx="891.921" cy="343.882" r="4" fill="#0" id="circle152"/>
	<circle cx="891.921" cy="360.144" r="4" fill="#0" id="circle153"/>
	<circle cx="891.921" cy="376.407" r="4" fill="#0" id="circle154"/>
	<circle cx="891.921" cy="392.669" r="4" fill="#0" id="circle155"/>
	<circle cx="891.921" cy="408.931" r="4" fill="#0" id="circle156"/>
	<circle cx="891.921" cy="485.364" r="4" fill="#0" id="circle157"/>
	<circle cx="895.174" cy="425.193" r="4" fill="#0" id="circle158"/>
	<circle cx="898.426" cy="155.239" r="4" fill="#0" id="circle159"/>
	<circle cx="900.052" cy="213.784" r="4" fill="#0" id="circle160"/>
	<circle cx="908.184" cy="436.577" r="4" fill="#0" id="circle161"/>
	<circle cx="908.184" cy="490.243" r="4" fill="#0" id="circle162"/>
	<circle cx="913.062" cy="202.4" r="4" fill="#0" id="circle163"/>
	<circle cx="914.689" cy="155.239" r="4" fill="#0" id="circle164"/>
	<circle cx="921.193" cy="447.961" r="4" fill="#0" id="circle165"/>
	<circle cx="924.446" cy="189.39" r="4" fill="#0" id="circle166"/>
	<circle cx="924.446" cy="490.243" r="4" fill="#0" id="circle167"/>
	<circle cx="930.951" cy="155.239" r="4" fill="#0" id="circle168"/>
	<circle cx="935.83" cy="456.092" r="4" fill="#0" id="circle169"/>
	<circle cx="939.082" cy="181.259" r="4" fill="#0" id="circle170"/>
	<circle cx="940.708" cy="490.243" r="4" fill="#0" id="circle171"/>
	<circle cx="947.213" cy="155.239" r="4" fill="#0" id="circle172"/>
	<circle cx="950.466" cy="464.223" r="4" fill="#0" id="circle173"/>
	<circle cx="955.344" cy="181.259" r="4" fill="#0" id="circle174"/>
	<circle cx="956.97" cy="490.243" r="4" fill="#0" id="circle175"/>
	<circle cx="963.475" cy="158.492" r="4" fill="#0" id="circle176"/>
	<circle cx="966.728" cy="464.223" r="4" fill="#0" id="circle177"/>
	<circle cx="971.607" cy="181.259" r="4" fill="#0" id="circle178"/>
	<circle cx="973.233" cy="490.243" r="4" fill="#0" id="circle179"/>
	<circle cx="979.738" cy="160.118" r="4" fill="#0" id="circle180"/>
	<circle cx="981.364" cy="472.354" r="4" fill="#0" id="circle181"/>
	<circle cx="987.869" cy="181.259" r="4" fill="#0" id="circle182"/>
	<circle cx="996" cy="166.623" r="4" fill="#0" id="circle183"/>
	</g>
</svg>