<?xml version="1.0" encoding="UTF-8" standalone="no"?>
<!-- Created with CurveBenchmark -->
<svg
	xmlns:dc="http://purl.org/dc/elements/1.1/"
	xmlns:cc="http://creativecommons.org/ns#"
	xmlns:rdf="http://www.w3.org/1999/02/22-rdf-syntax-ns#"
	xmlns:svg="http://www.w3.org/2000/svg"
	xmlns="http://www.w3.org/2000/svg"
	xmlns:sodipodi="http://sodipodi.sourceforge.net/DTD/sodipodi-0.dtd"
	xmlns:inkscape="http://www.inkscape.org/namespaces/inkscape"
	width="1000"
	height="1000"
	id="svg2"
	version="1.1"
	sodipodi:docname="manifold/fitconnect-carriage-09.png.txt">
<defs
	id="defs4" />
<metadata
	id="metadata7">
	<rdf:RDF>
		<cc:Work
			rdf:about="">
			<dc:format>image/svg+xml</dc:format>
			<dc:type
				rdf:resource="http://purl.org/dc/dcmitype/StillImage" />
			<dc:title></dc:title>
		</cc:Work>
	</rdf:RDF>
</metadata>
<g
	inkscape:label="Layer 1"
	inkscape:groupmode="layer"
	id="layer1">
	<path style="fill:none;stroke:red;stroke-width:1px;stroke-linecap:butt;stroke-linejoin:miter;stroke-opacity:1" d="M 4,151.212 8.81086,141.591 z" id="boundary" inkscape:connector-curvature="0" />
	<path style="fill:none;stroke:red;stroke-width:1px;stroke-linecap:butt;stroke-linejoin:miter;stroke-opacity:1" d="M 4,151.212 11.6974,157.948 z" id="boundary" inkscape:connector-curvature="0" />
	<path style="fill:none;stroke:red;stroke-width:1px;stroke-linecap:butt;stroke-linejoin:miter;stroke-opacity:1" d="M 8.81086,141.591 16.5082,133.893 z" id="boundary" inkscape:connector-curvature="0" />
	<path style="fill:none;stroke:red;stroke-width:1px;stroke-linecap:butt;stroke-linejoin:miter;stroke-opacity:1" d="M 11.6974,157.948 19.3948,163.721 z" id="boundary" inkscape:connector-curvature="0" />
	<path style="fill:none;stroke:red;stroke-width:1px;stroke-linecap:butt;stroke-linejoin:miter;stroke-opacity:1" d="M 16.5082,133.893 21.3191,124.272 z" id="boundary" inkscape:connector-curvature="0" />
	<path style="fill:none;stroke:red;stroke-width:1px;stroke-linecap:butt;stroke-linejoin:miter;stroke-opacity:1" d="M 19.3948,163.721 29.0165,163.721 z" id="boundary" inkscape:connector-curvature="0" />
	<path style="fill:none;stroke:red;stroke-width:1px;stroke-linecap:butt;stroke-linejoin:miter;stroke-opacity:1" d="M 21.3191,124.272 26.13,114.65 z" id="boundary" inkscape:connector-curvature="0" />
	<path style="fill:none;stroke:red;stroke-width:1px;stroke-linecap:butt;stroke-linejoin:miter;stroke-opacity:1" d="M 26.13,114.65 30.9408,105.028 z" id="boundary" inkscape:connector-curvature="0" />
	<path style="fill:none;stroke:red;stroke-width:1px;stroke-linecap:butt;stroke-linejoin:miter;stroke-opacity:1" d="M 29.0165,163.721 38.6382,154.099 z" id="boundary" inkscape:connector-curvature="0" />
	<path style="fill:none;stroke:red;stroke-width:1px;stroke-linecap:butt;stroke-linejoin:miter;stroke-opacity:1" d="M 30.9408,105.028 35.7517,95.4064 z" id="boundary" inkscape:connector-curvature="0" />
	<path style="fill:none;stroke:red;stroke-width:1px;stroke-linecap:butt;stroke-linejoin:miter;stroke-opacity:1" d="M 35.7517,95.4064 40.5626,85.7847 z" id="boundary" inkscape:connector-curvature="0" />
	<path style="fill:none;stroke:red;stroke-width:1px;stroke-linecap:butt;stroke-linejoin:miter;stroke-opacity:1" d="M 38.6382,154.099 46.3356,147.364 z" id="boundary" inkscape:connector-curvature="0" />
	<path style="fill:none;stroke:red;stroke-width:1px;stroke-linecap:butt;stroke-linejoin:miter;stroke-opacity:1" d="M 40.5626,85.7847 45.3734,76.1629 z" id="boundary" inkscape:connector-curvature="0" />
	<path style="fill:none;stroke:red;stroke-width:1px;stroke-linecap:butt;stroke-linejoin:miter;stroke-opacity:1" d="M 45.3734,76.1629 54.033,71.3521 z" id="boundary" inkscape:connector-curvature="0" />
	<path style="fill:none;stroke:red;stroke-width:1px;stroke-linecap:butt;stroke-linejoin:miter;stroke-opacity:1" d="M 46.3356,147.364 55.9573,144.477 z" id="boundary" inkscape:connector-curvature="0" />
	<path style="fill:none;stroke:red;stroke-width:1px;stroke-linecap:butt;stroke-linejoin:miter;stroke-opacity:1" d="M 54.033,71.3521 62.6925,66.5412 z" id="boundary" inkscape:connector-curvature="0" />
	<path style="fill:none;stroke:red;stroke-width:1px;stroke-linecap:butt;stroke-linejoin:miter;stroke-opacity:1" d="M 55.9573,144.477 65.579,144.477 z" id="boundary" inkscape:connector-curvature="0" />
	<path style="fill:none;stroke:red;stroke-width:1px;stroke-linecap:butt;stroke-linejoin:miter;stroke-opacity:1" d="M 62.6925,66.5412 72.3143,66.5412 z" id="boundary" inkscape:connector-curvature="0" />
	<path style="fill:none;stroke:red;stroke-width:1px;stroke-linecap:butt;stroke-linejoin:miter;stroke-opacity:1" d="M 65.579,144.477 71.3521,152.175 z" id="boundary" inkscape:connector-curvature="0" />
	<path style="fill:none;stroke:red;stroke-width:1px;stroke-linecap:butt;stroke-linejoin:miter;stroke-opacity:1" d="M 71.3521,152.175 72.3143,161.796 z" id="boundary" inkscape:connector-curvature="0" />
	<path style="fill:none;stroke:red;stroke-width:1px;stroke-linecap:butt;stroke-linejoin:miter;stroke-opacity:1" d="M 72.3143,66.5412 80.9738,71.3521 z" id="boundary" inkscape:connector-curvature="0" />
	<path style="fill:none;stroke:red;stroke-width:1px;stroke-linecap:butt;stroke-linejoin:miter;stroke-opacity:1" d="M 72.3143,161.796 77.1251,170.456 z" id="boundary" inkscape:connector-curvature="0" />
	<path style="fill:none;stroke:red;stroke-width:1px;stroke-linecap:butt;stroke-linejoin:miter;stroke-opacity:1" d="M 77.1251,170.456 85.7847,175.267 z" id="boundary" inkscape:connector-curvature="0" />
	<path style="fill:none;stroke:red;stroke-width:1px;stroke-linecap:butt;stroke-linejoin:miter;stroke-opacity:1" d="M 80.9738,71.3521 89.6334,76.1629 z" id="boundary" inkscape:connector-curvature="0" />
	<path style="fill:none;stroke:red;stroke-width:1px;stroke-linecap:butt;stroke-linejoin:miter;stroke-opacity:1" d="M 85.7847,175.267 90.5955,183.926 z" id="boundary" inkscape:connector-curvature="0" />
	<path style="fill:none;stroke:red;stroke-width:1px;stroke-linecap:butt;stroke-linejoin:miter;stroke-opacity:1" d="M 89.6334,76.1629 99.2551,77.1251 z" id="boundary" inkscape:connector-curvature="0" />
	<path style="fill:none;stroke:red;stroke-width:1px;stroke-linecap:butt;stroke-linejoin:miter;stroke-opacity:1" d="M 90.5955,183.926 90.5955,193.548 z" id="boundary" inkscape:connector-curvature="0" />
	<path style="fill:none;stroke:red;stroke-width:1px;stroke-linecap:butt;stroke-linejoin:miter;stroke-opacity:1" d="M 90.5955,193.548 90.5955,203.17 z" id="boundary" inkscape:connector-curvature="0" />
	<path style="fill:none;stroke:red;stroke-width:1px;stroke-linecap:butt;stroke-linejoin:miter;stroke-opacity:1" d="M 90.5955,203.17 90.5955,212.791 z" id="boundary" inkscape:connector-curvature="0" />
	<path style="fill:none;stroke:red;stroke-width:1px;stroke-linecap:butt;stroke-linejoin:miter;stroke-opacity:1" d="M 90.5955,212.791 90.5955,222.413 z" id="boundary" inkscape:connector-curvature="0" />
	<path style="fill:none;stroke:red;stroke-width:1px;stroke-linecap:butt;stroke-linejoin:miter;stroke-opacity:1" d="M 90.5955,222.413 97.3307,230.111 z" id="boundary" inkscape:connector-curvature="0" />
	<path style="fill:none;stroke:red;stroke-width:1px;stroke-linecap:butt;stroke-linejoin:miter;stroke-opacity:1" d="M 95.4064,391.756 100.217,377.323 z" id="boundary" inkscape:connector-curvature="0" />
	<path style="fill:none;stroke:red;stroke-width:1px;stroke-linecap:butt;stroke-linejoin:miter;stroke-opacity:1" d="M 95.4064,391.756 103.104,398.491 z" id="boundary" inkscape:connector-curvature="0" />
	<path style="fill:none;stroke:red;stroke-width:1px;stroke-linecap:butt;stroke-linejoin:miter;stroke-opacity:1" d="M 97.3307,230.111 105.028,235.884 z" id="boundary" inkscape:connector-curvature="0" />
	<path style="fill:none;stroke:red;stroke-width:1px;stroke-linecap:butt;stroke-linejoin:miter;stroke-opacity:1" d="M 99.2551,77.1251 107.915,81.936 z" id="boundary" inkscape:connector-curvature="0" />
	<path style="fill:none;stroke:red;stroke-width:1px;stroke-linecap:butt;stroke-linejoin:miter;stroke-opacity:1" d="M 100.217,377.323 105.028,367.701 z" id="boundary" inkscape:connector-curvature="0" />
	<path style="fill:none;stroke:red;stroke-width:1px;stroke-linecap:butt;stroke-linejoin:miter;stroke-opacity:1" d="M 103.104,398.491 110.801,404.264 z" id="boundary" inkscape:connector-curvature="0" />
	<path style="fill:none;stroke:red;stroke-width:1px;stroke-linecap:butt;stroke-linejoin:miter;stroke-opacity:1" d="M 105.028,235.884 109.839,244.543 z" id="boundary" inkscape:connector-curvature="0" />
	<path style="fill:none;stroke:red;stroke-width:1px;stroke-linecap:butt;stroke-linejoin:miter;stroke-opacity:1" d="M 105.028,367.701 109.839,350.382 z" id="boundary" inkscape:connector-curvature="0" />
	<path style="fill:none;stroke:red;stroke-width:1px;stroke-linecap:butt;stroke-linejoin:miter;stroke-opacity:1" d="M 107.915,81.936 115.612,88.6712 z" id="boundary" inkscape:connector-curvature="0" />
	<path style="fill:none;stroke:red;stroke-width:1px;stroke-linecap:butt;stroke-linejoin:miter;stroke-opacity:1" d="M 109.839,244.543 109.839,254.165 z" id="boundary" inkscape:connector-curvature="0" />
	<path style="fill:none;stroke:red;stroke-width:1px;stroke-linecap:butt;stroke-linejoin:miter;stroke-opacity:1" d="M 109.839,254.165 109.839,263.787 z" id="boundary" inkscape:connector-curvature="0" />
	<path style="fill:none;stroke:red;stroke-width:1px;stroke-linecap:butt;stroke-linejoin:miter;stroke-opacity:1" d="M 109.839,263.787 109.839,273.408 z" id="boundary" inkscape:connector-curvature="0" />
	<path style="fill:none;stroke:red;stroke-width:1px;stroke-linecap:butt;stroke-linejoin:miter;stroke-opacity:1" d="M 109.839,273.408 109.839,283.03 z" id="boundary" inkscape:connector-curvature="0" />
	<path style="fill:none;stroke:red;stroke-width:1px;stroke-linecap:butt;stroke-linejoin:miter;stroke-opacity:1" d="M 109.839,283.03 109.839,292.652 z" id="boundary" inkscape:connector-curvature="0" />
	<path style="fill:none;stroke:red;stroke-width:1px;stroke-linecap:butt;stroke-linejoin:miter;stroke-opacity:1" d="M 109.839,292.652 109.839,302.274 z" id="boundary" inkscape:connector-curvature="0" />
	<path style="fill:none;stroke:red;stroke-width:1px;stroke-linecap:butt;stroke-linejoin:miter;stroke-opacity:1" d="M 109.839,302.274 109.839,311.895 z" id="boundary" inkscape:connector-curvature="0" />
	<path style="fill:none;stroke:red;stroke-width:1px;stroke-linecap:butt;stroke-linejoin:miter;stroke-opacity:1" d="M 109.839,311.895 109.839,321.517 z" id="boundary" inkscape:connector-curvature="0" />
	<path style="fill:none;stroke:red;stroke-width:1px;stroke-linecap:butt;stroke-linejoin:miter;stroke-opacity:1" d="M 109.839,321.517 109.839,331.139 z" id="boundary" inkscape:connector-curvature="0" />
	<path style="fill:none;stroke:red;stroke-width:1px;stroke-linecap:butt;stroke-linejoin:miter;stroke-opacity:1" d="M 109.839,331.139 109.839,340.76 z" id="boundary" inkscape:connector-curvature="0" />
	<path style="fill:none;stroke:red;stroke-width:1px;stroke-linecap:butt;stroke-linejoin:miter;stroke-opacity:1" d="M 109.839,340.76 109.839,350.382 z" id="boundary" inkscape:connector-curvature="0" />
	<path style="fill:none;stroke:red;stroke-width:1px;stroke-linecap:butt;stroke-linejoin:miter;stroke-opacity:1" d="M 110.801,404.264 120.423,404.264 z" id="boundary" inkscape:connector-curvature="0" />
	<path style="fill:none;stroke:red;stroke-width:1px;stroke-linecap:butt;stroke-linejoin:miter;stroke-opacity:1" d="M 115.612,88.6712 124.272,93.4821 z" id="boundary" inkscape:connector-curvature="0" />
	<path style="fill:none;stroke:red;stroke-width:1px;stroke-linecap:butt;stroke-linejoin:miter;stroke-opacity:1" d="M 120.423,404.264 130.045,404.264 z" id="boundary" inkscape:connector-curvature="0" />
	<path style="fill:none;stroke:red;stroke-width:1px;stroke-linecap:butt;stroke-linejoin:miter;stroke-opacity:1" d="M 124.272,93.4821 129.082,102.142 z" id="boundary" inkscape:connector-curvature="0" />
	<path style="fill:none;stroke:red;stroke-width:1px;stroke-linecap:butt;stroke-linejoin:miter;stroke-opacity:1" d="M 129.082,102.142 134.855,109.839 z" id="boundary" inkscape:connector-curvature="0" />
	<path style="fill:none;stroke:red;stroke-width:1px;stroke-linecap:butt;stroke-linejoin:miter;stroke-opacity:1" d="M 130.045,404.264 139.666,399.453 z" id="boundary" inkscape:connector-curvature="0" />
	<path style="fill:none;stroke:red;stroke-width:1px;stroke-linecap:butt;stroke-linejoin:miter;stroke-opacity:1" d="M 134.855,109.839 142.553,115.612 z" id="boundary" inkscape:connector-curvature="0" />
	<path style="fill:none;stroke:red;stroke-width:1px;stroke-linecap:butt;stroke-linejoin:miter;stroke-opacity:1" d="M 139.666,399.453 149.288,389.831 z" id="boundary" inkscape:connector-curvature="0" />
	<path style="fill:none;stroke:red;stroke-width:1px;stroke-linecap:butt;stroke-linejoin:miter;stroke-opacity:1" d="M 142.553,115.612 151.212,120.423 z" id="boundary" inkscape:connector-curvature="0" />
	<path style="fill:none;stroke:red;stroke-width:1px;stroke-linecap:butt;stroke-linejoin:miter;stroke-opacity:1" d="M 149.288,389.831 154.099,375.399 z" id="boundary" inkscape:connector-curvature="0" />
	<path style="fill:none;stroke:red;stroke-width:1px;stroke-linecap:butt;stroke-linejoin:miter;stroke-opacity:1" d="M 151.212,120.423 156.023,129.082 z" id="boundary" inkscape:connector-curvature="0" />
	<path style="fill:none;stroke:red;stroke-width:1px;stroke-linecap:butt;stroke-linejoin:miter;stroke-opacity:1" d="M 154.099,269.56 154.099,279.181 z" id="boundary" inkscape:connector-curvature="0" />
	<path style="fill:none;stroke:red;stroke-width:1px;stroke-linecap:butt;stroke-linejoin:miter;stroke-opacity:1" d="M 154.099,269.56 163.721,264.749 z" id="boundary" inkscape:connector-curvature="0" />
	<path style="fill:none;stroke:red;stroke-width:1px;stroke-linecap:butt;stroke-linejoin:miter;stroke-opacity:1" d="M 154.099,279.181 154.099,288.803 z" id="boundary" inkscape:connector-curvature="0" />
	<path style="fill:none;stroke:red;stroke-width:1px;stroke-linecap:butt;stroke-linejoin:miter;stroke-opacity:1" d="M 154.099,288.803 154.099,298.425 z" id="boundary" inkscape:connector-curvature="0" />
	<path style="fill:none;stroke:red;stroke-width:1px;stroke-linecap:butt;stroke-linejoin:miter;stroke-opacity:1" d="M 154.099,298.425 154.099,308.047 z" id="boundary" inkscape:connector-curvature="0" />
	<path style="fill:none;stroke:red;stroke-width:1px;stroke-linecap:butt;stroke-linejoin:miter;stroke-opacity:1" d="M 154.099,308.047 154.099,317.668 z" id="boundary" inkscape:connector-curvature="0" />
	<path style="fill:none;stroke:red;stroke-width:1px;stroke-linecap:butt;stroke-linejoin:miter;stroke-opacity:1" d="M 154.099,317.668 154.099,327.29 z" id="boundary" inkscape:connector-curvature="0" />
	<path style="fill:none;stroke:red;stroke-width:1px;stroke-linecap:butt;stroke-linejoin:miter;stroke-opacity:1" d="M 154.099,327.29 154.099,336.912 z" id="boundary" inkscape:connector-curvature="0" />
	<path style="fill:none;stroke:red;stroke-width:1px;stroke-linecap:butt;stroke-linejoin:miter;stroke-opacity:1" d="M 154.099,336.912 154.099,346.533 z" id="boundary" inkscape:connector-curvature="0" />
	<path style="fill:none;stroke:red;stroke-width:1px;stroke-linecap:butt;stroke-linejoin:miter;stroke-opacity:1" d="M 154.099,346.533 154.099,356.155 z" id="boundary" inkscape:connector-curvature="0" />
	<path style="fill:none;stroke:red;stroke-width:1px;stroke-linecap:butt;stroke-linejoin:miter;stroke-opacity:1" d="M 154.099,356.155 154.099,365.777 z" id="boundary" inkscape:connector-curvature="0" />
	<path style="fill:none;stroke:red;stroke-width:1px;stroke-linecap:butt;stroke-linejoin:miter;stroke-opacity:1" d="M 154.099,365.777 154.099,375.399 z" id="boundary" inkscape:connector-curvature="0" />
	<path style="fill:none;stroke:red;stroke-width:1px;stroke-linecap:butt;stroke-linejoin:miter;stroke-opacity:1" d="M 156.023,129.082 162.758,136.78 z" id="boundary" inkscape:connector-curvature="0" />
	<path style="fill:none;stroke:red;stroke-width:1px;stroke-linecap:butt;stroke-linejoin:miter;stroke-opacity:1" d="M 162.758,136.78 170.456,143.515 z" id="boundary" inkscape:connector-curvature="0" />
	<path style="fill:none;stroke:red;stroke-width:1px;stroke-linecap:butt;stroke-linejoin:miter;stroke-opacity:1" d="M 163.721,264.749 173.342,264.749 z" id="boundary" inkscape:connector-curvature="0" />
	<path style="fill:none;stroke:red;stroke-width:1px;stroke-linecap:butt;stroke-linejoin:miter;stroke-opacity:1" d="M 170.456,143.515 180.078,143.515 z" id="boundary" inkscape:connector-curvature="0" />
	<path style="fill:none;stroke:red;stroke-width:1px;stroke-linecap:butt;stroke-linejoin:miter;stroke-opacity:1" d="M 173.342,264.749 182.964,264.749 z" id="boundary" inkscape:connector-curvature="0" />
	<path style="fill:none;stroke:red;stroke-width:1px;stroke-linecap:butt;stroke-linejoin:miter;stroke-opacity:1" d="M 180.078,143.515 189.699,143.515 z" id="boundary" inkscape:connector-curvature="0" />
	<path style="fill:none;stroke:red;stroke-width:1px;stroke-linecap:butt;stroke-linejoin:miter;stroke-opacity:1" d="M 182.964,264.749 192.586,264.749 z" id="boundary" inkscape:connector-curvature="0" />
	<path style="fill:none;stroke:red;stroke-width:1px;stroke-linecap:butt;stroke-linejoin:miter;stroke-opacity:1" d="M 189.699,143.515 199.321,143.515 z" id="boundary" inkscape:connector-curvature="0" />
	<path style="fill:none;stroke:red;stroke-width:1px;stroke-linecap:butt;stroke-linejoin:miter;stroke-opacity:1" d="M 192.586,264.749 202.208,264.749 z" id="boundary" inkscape:connector-curvature="0" />
	<path style="fill:none;stroke:red;stroke-width:1px;stroke-linecap:butt;stroke-linejoin:miter;stroke-opacity:1" d="M 199.321,143.515 208.943,143.515 z" id="boundary" inkscape:connector-curvature="0" />
	<path style="fill:none;stroke:red;stroke-width:1px;stroke-linecap:butt;stroke-linejoin:miter;stroke-opacity:1" d="M 202.208,264.749 210.867,269.56 z" id="boundary" inkscape:connector-curvature="0" />
	<path style="fill:none;stroke:red;stroke-width:1px;stroke-linecap:butt;stroke-linejoin:miter;stroke-opacity:1" d="M 208.943,143.515 218.565,143.515 z" id="boundary" inkscape:connector-curvature="0" />
	<path style="fill:none;stroke:red;stroke-width:1px;stroke-linecap:butt;stroke-linejoin:miter;stroke-opacity:1" d="M 210.867,269.56 220.489,269.56 z" id="boundary" inkscape:connector-curvature="0" />
	<path style="fill:none;stroke:red;stroke-width:1px;stroke-linecap:butt;stroke-linejoin:miter;stroke-opacity:1" d="M 218.565,143.515 228.186,143.515 z" id="boundary" inkscape:connector-curvature="0" />
	<path style="fill:none;stroke:red;stroke-width:1px;stroke-linecap:butt;stroke-linejoin:miter;stroke-opacity:1" d="M 220.489,269.56 230.111,269.56 z" id="boundary" inkscape:connector-curvature="0" />
	<path style="fill:none;stroke:red;stroke-width:1px;stroke-linecap:butt;stroke-linejoin:miter;stroke-opacity:1" d="M 228.186,143.515 236.846,148.326 z" id="boundary" inkscape:connector-curvature="0" />
	<path style="fill:none;stroke:red;stroke-width:1px;stroke-linecap:butt;stroke-linejoin:miter;stroke-opacity:1" d="M 230.111,269.56 239.732,269.56 z" id="boundary" inkscape:connector-curvature="0" />
	<path style="fill:none;stroke:red;stroke-width:1px;stroke-linecap:butt;stroke-linejoin:miter;stroke-opacity:1" d="M 236.846,148.326 246.468,148.326 z" id="boundary" inkscape:connector-curvature="0" />
	<path style="fill:none;stroke:red;stroke-width:1px;stroke-linecap:butt;stroke-linejoin:miter;stroke-opacity:1" d="M 239.732,269.56 249.354,269.56 z" id="boundary" inkscape:connector-curvature="0" />
	<path style="fill:none;stroke:red;stroke-width:1px;stroke-linecap:butt;stroke-linejoin:miter;stroke-opacity:1" d="M 246.468,148.326 256.089,148.326 z" id="boundary" inkscape:connector-curvature="0" />
	<path style="fill:none;stroke:red;stroke-width:1px;stroke-linecap:butt;stroke-linejoin:miter;stroke-opacity:1" d="M 249.354,269.56 258.976,269.56 z" id="boundary" inkscape:connector-curvature="0" />
	<path style="fill:none;stroke:red;stroke-width:1px;stroke-linecap:butt;stroke-linejoin:miter;stroke-opacity:1" d="M 256.089,148.326 265.711,148.326 z" id="boundary" inkscape:connector-curvature="0" />
	<path style="fill:none;stroke:red;stroke-width:1px;stroke-linecap:butt;stroke-linejoin:miter;stroke-opacity:1" d="M 258.976,269.56 268.597,269.56 z" id="boundary" inkscape:connector-curvature="0" />
	<path style="fill:none;stroke:red;stroke-width:1px;stroke-linecap:butt;stroke-linejoin:miter;stroke-opacity:1" d="M 265.711,148.326 275.333,148.326 z" id="boundary" inkscape:connector-curvature="0" />
	<path style="fill:none;stroke:red;stroke-width:1px;stroke-linecap:butt;stroke-linejoin:miter;stroke-opacity:1" d="M 268.597,269.56 278.219,269.56 z" id="boundary" inkscape:connector-curvature="0" />
	<path style="fill:none;stroke:red;stroke-width:1px;stroke-linecap:butt;stroke-linejoin:miter;stroke-opacity:1" d="M 275.333,148.326 284.954,148.326 z" id="boundary" inkscape:connector-curvature="0" />
	<path style="fill:none;stroke:red;stroke-width:1px;stroke-linecap:butt;stroke-linejoin:miter;stroke-opacity:1" d="M 278.219,269.56 287.841,269.56 z" id="boundary" inkscape:connector-curvature="0" />
	<path style="fill:none;stroke:red;stroke-width:1px;stroke-linecap:butt;stroke-linejoin:miter;stroke-opacity:1" d="M 284.954,148.326 294.576,148.326 z" id="boundary" inkscape:connector-curvature="0" />
	<path style="fill:none;stroke:red;stroke-width:1px;stroke-linecap:butt;stroke-linejoin:miter;stroke-opacity:1" d="M 287.841,269.56 293.614,277.257 z" id="boundary" inkscape:connector-curvature="0" />
	<path style="fill:none;stroke:red;stroke-width:1px;stroke-linecap:butt;stroke-linejoin:miter;stroke-opacity:1" d="M 293.614,277.257 297.463,286.879 z" id="boundary" inkscape:connector-curvature="0" />
	<path style="fill:none;stroke:red;stroke-width:1px;stroke-linecap:butt;stroke-linejoin:miter;stroke-opacity:1" d="M 294.576,148.326 304.198,148.326 z" id="boundary" inkscape:connector-curvature="0" />
	<path style="fill:none;stroke:red;stroke-width:1px;stroke-linecap:butt;stroke-linejoin:miter;stroke-opacity:1" d="M 297.463,286.879 297.463,296.5 z" id="boundary" inkscape:connector-curvature="0" />
	<path style="fill:none;stroke:red;stroke-width:1px;stroke-linecap:butt;stroke-linejoin:miter;stroke-opacity:1" d="M 297.463,296.5 297.463,306.122 z" id="boundary" inkscape:connector-curvature="0" />
	<path style="fill:none;stroke:red;stroke-width:1px;stroke-linecap:butt;stroke-linejoin:miter;stroke-opacity:1" d="M 297.463,306.122 297.463,315.744 z" id="boundary" inkscape:connector-curvature="0" />
	<path style="fill:none;stroke:red;stroke-width:1px;stroke-linecap:butt;stroke-linejoin:miter;stroke-opacity:1" d="M 297.463,315.744 297.463,325.366 z" id="boundary" inkscape:connector-curvature="0" />
	<path style="fill:none;stroke:red;stroke-width:1px;stroke-linecap:butt;stroke-linejoin:miter;stroke-opacity:1" d="M 297.463,325.366 297.463,334.987 z" id="boundary" inkscape:connector-curvature="0" />
	<path style="fill:none;stroke:red;stroke-width:1px;stroke-linecap:butt;stroke-linejoin:miter;stroke-opacity:1" d="M 297.463,334.987 297.463,344.609 z" id="boundary" inkscape:connector-curvature="0" />
	<path style="fill:none;stroke:red;stroke-width:1px;stroke-linecap:butt;stroke-linejoin:miter;stroke-opacity:1" d="M 297.463,344.609 297.463,354.231 z" id="boundary" inkscape:connector-curvature="0" />
	<path style="fill:none;stroke:red;stroke-width:1px;stroke-linecap:butt;stroke-linejoin:miter;stroke-opacity:1" d="M 297.463,354.231 297.463,363.853 z" id="boundary" inkscape:connector-curvature="0" />
	<path style="fill:none;stroke:red;stroke-width:1px;stroke-linecap:butt;stroke-linejoin:miter;stroke-opacity:1" d="M 297.463,363.853 297.463,373.474 z" id="boundary" inkscape:connector-curvature="0" />
	<path style="fill:none;stroke:red;stroke-width:1px;stroke-linecap:butt;stroke-linejoin:miter;stroke-opacity:1" d="M 297.463,373.474 297.463,383.096 z" id="boundary" inkscape:connector-curvature="0" />
	<path style="fill:none;stroke:red;stroke-width:1px;stroke-linecap:butt;stroke-linejoin:miter;stroke-opacity:1" d="M 297.463,383.096 298.425,392.718 z" id="boundary" inkscape:connector-curvature="0" />
	<path style="fill:none;stroke:red;stroke-width:1px;stroke-linecap:butt;stroke-linejoin:miter;stroke-opacity:1" d="M 298.425,392.718 306.122,399.453 z" id="boundary" inkscape:connector-curvature="0" />
	<path style="fill:none;stroke:red;stroke-width:1px;stroke-linecap:butt;stroke-linejoin:miter;stroke-opacity:1" d="M 304.198,148.326 313.82,148.326 z" id="boundary" inkscape:connector-curvature="0" />
	<path style="fill:none;stroke:red;stroke-width:1px;stroke-linecap:butt;stroke-linejoin:miter;stroke-opacity:1" d="M 306.122,399.453 314.782,404.264 z" id="boundary" inkscape:connector-curvature="0" />
	<path style="fill:none;stroke:red;stroke-width:1px;stroke-linecap:butt;stroke-linejoin:miter;stroke-opacity:1" d="M 313.82,148.326 323.441,148.326 z" id="boundary" inkscape:connector-curvature="0" />
	<path style="fill:none;stroke:red;stroke-width:1px;stroke-linecap:butt;stroke-linejoin:miter;stroke-opacity:1" d="M 314.782,404.264 324.403,404.264 z" id="boundary" inkscape:connector-curvature="0" />
	<path style="fill:none;stroke:red;stroke-width:1px;stroke-linecap:butt;stroke-linejoin:miter;stroke-opacity:1" d="M 323.441,148.326 332.101,153.137 z" id="boundary" inkscape:connector-curvature="0" />
	<path style="fill:none;stroke:red;stroke-width:1px;stroke-linecap:butt;stroke-linejoin:miter;stroke-opacity:1" d="M 324.403,404.264 334.025,404.264 z" id="boundary" inkscape:connector-curvature="0" />
	<path style="fill:none;stroke:red;stroke-width:1px;stroke-linecap:butt;stroke-linejoin:miter;stroke-opacity:1" d="M 332.101,153.137 340.76,157.948 z" id="boundary" inkscape:connector-curvature="0" />
	<path style="fill:none;stroke:red;stroke-width:1px;stroke-linecap:butt;stroke-linejoin:miter;stroke-opacity:1" d="M 334.025,404.264 343.647,408.113 z" id="boundary" inkscape:connector-curvature="0" />
	<path style="fill:none;stroke:red;stroke-width:1px;stroke-linecap:butt;stroke-linejoin:miter;stroke-opacity:1" d="M 340.76,157.948 348.458,163.721 z" id="boundary" inkscape:connector-curvature="0" />
	<path style="fill:none;stroke:red;stroke-width:1px;stroke-linecap:butt;stroke-linejoin:miter;stroke-opacity:1" d="M 343.647,408.113 353.269,408.113 z" id="boundary" inkscape:connector-curvature="0" />
	<path style="fill:none;stroke:red;stroke-width:1px;stroke-linecap:butt;stroke-linejoin:miter;stroke-opacity:1" d="M 348.458,163.721 358.08,167.569 z" id="boundary" inkscape:connector-curvature="0" />
	<path style="fill:none;stroke:red;stroke-width:1px;stroke-linecap:butt;stroke-linejoin:miter;stroke-opacity:1" d="M 353.269,408.113 360.966,399.453 z" id="boundary" inkscape:connector-curvature="0" />
	<path style="fill:none;stroke:red;stroke-width:1px;stroke-linecap:butt;stroke-linejoin:miter;stroke-opacity:1" d="M 358.08,167.569 366.739,172.38 z" id="boundary" inkscape:connector-curvature="0" />
	<path style="fill:none;stroke:red;stroke-width:1px;stroke-linecap:butt;stroke-linejoin:miter;stroke-opacity:1" d="M 360.966,399.453 365.777,389.831 z" id="boundary" inkscape:connector-curvature="0" />
	<path style="fill:none;stroke:red;stroke-width:1px;stroke-linecap:butt;stroke-linejoin:miter;stroke-opacity:1" d="M 365.777,389.831 370.588,375.399 z" id="boundary" inkscape:connector-curvature="0" />
	<path style="fill:none;stroke:red;stroke-width:1px;stroke-linecap:butt;stroke-linejoin:miter;stroke-opacity:1" d="M 366.739,172.38 376.361,172.38 z" id="boundary" inkscape:connector-curvature="0" />
	<path style="fill:none;stroke:red;stroke-width:1px;stroke-linecap:butt;stroke-linejoin:miter;stroke-opacity:1" d="M 370.588,375.399 375.399,365.777 z" id="boundary" inkscape:connector-curvature="0" />
	<path style="fill:none;stroke:red;stroke-width:1px;stroke-linecap:butt;stroke-linejoin:miter;stroke-opacity:1" d="M 375.399,279.181 375.399,288.803 z" id="boundary" inkscape:connector-curvature="0" />
	<path style="fill:none;stroke:red;stroke-width:1px;stroke-linecap:butt;stroke-linejoin:miter;stroke-opacity:1" d="M 375.399,279.181 385.02,279.181 z" id="boundary" inkscape:connector-curvature="0" />
	<path style="fill:none;stroke:red;stroke-width:1px;stroke-linecap:butt;stroke-linejoin:miter;stroke-opacity:1" d="M 375.399,288.803 375.399,298.425 z" id="boundary" inkscape:connector-curvature="0" />
	<path style="fill:none;stroke:red;stroke-width:1px;stroke-linecap:butt;stroke-linejoin:miter;stroke-opacity:1" d="M 375.399,298.425 375.399,308.047 z" id="boundary" inkscape:connector-curvature="0" />
	<path style="fill:none;stroke:red;stroke-width:1px;stroke-linecap:butt;stroke-linejoin:miter;stroke-opacity:1" d="M 375.399,308.047 375.399,317.668 z" id="boundary" inkscape:connector-curvature="0" />
	<path style="fill:none;stroke:red;stroke-width:1px;stroke-linecap:butt;stroke-linejoin:miter;stroke-opacity:1" d="M 375.399,317.668 375.399,327.29 z" id="boundary" inkscape:connector-curvature="0" />
	<path style="fill:none;stroke:red;stroke-width:1px;stroke-linecap:butt;stroke-linejoin:miter;stroke-opacity:1" d="M 375.399,327.29 375.399,336.912 z" id="boundary" inkscape:connector-curvature="0" />
	<path style="fill:none;stroke:red;stroke-width:1px;stroke-linecap:butt;stroke-linejoin:miter;stroke-opacity:1" d="M 375.399,336.912 375.399,346.533 z" id="boundary" inkscape:connector-curvature="0" />
	<path style="fill:none;stroke:red;stroke-width:1px;stroke-linecap:butt;stroke-linejoin:miter;stroke-opacity:1" d="M 375.399,346.533 375.399,356.155 z" id="boundary" inkscape:connector-curvature="0" />
	<path style="fill:none;stroke:red;stroke-width:1px;stroke-linecap:butt;stroke-linejoin:miter;stroke-opacity:1" d="M 375.399,356.155 375.399,365.777 z" id="boundary" inkscape:connector-curvature="0" />
	<path style="fill:none;stroke:red;stroke-width:1px;stroke-linecap:butt;stroke-linejoin:miter;stroke-opacity:1" d="M 376.361,172.38 384.058,179.115 z" id="boundary" inkscape:connector-curvature="0" />
	<path style="fill:none;stroke:red;stroke-width:1px;stroke-linecap:butt;stroke-linejoin:miter;stroke-opacity:1" d="M 384.058,179.115 389.831,186.813 z" id="boundary" inkscape:connector-curvature="0" />
	<path style="fill:none;stroke:red;stroke-width:1px;stroke-linecap:butt;stroke-linejoin:miter;stroke-opacity:1" d="M 385.02,279.181 394.642,279.181 z" id="boundary" inkscape:connector-curvature="0" />
	<path style="fill:none;stroke:red;stroke-width:1px;stroke-linecap:butt;stroke-linejoin:miter;stroke-opacity:1" d="M 389.831,186.813 389.831,196.435 z" id="boundary" inkscape:connector-curvature="0" />
	<path style="fill:none;stroke:red;stroke-width:1px;stroke-linecap:butt;stroke-linejoin:miter;stroke-opacity:1" d="M 389.831,196.435 389.831,206.056 z" id="boundary" inkscape:connector-curvature="0" />
	<path style="fill:none;stroke:red;stroke-width:1px;stroke-linecap:butt;stroke-linejoin:miter;stroke-opacity:1" d="M 389.831,206.056 389.831,215.678 z" id="boundary" inkscape:connector-curvature="0" />
	<path style="fill:none;stroke:red;stroke-width:1px;stroke-linecap:butt;stroke-linejoin:miter;stroke-opacity:1" d="M 389.831,215.678 389.831,225.3 z" id="boundary" inkscape:connector-curvature="0" />
	<path style="fill:none;stroke:red;stroke-width:1px;stroke-linecap:butt;stroke-linejoin:miter;stroke-opacity:1" d="M 389.831,225.3 389.831,234.921 z" id="boundary" inkscape:connector-curvature="0" />
	<path style="fill:none;stroke:red;stroke-width:1px;stroke-linecap:butt;stroke-linejoin:miter;stroke-opacity:1" d="M 389.831,234.921 398.491,239.732 z" id="boundary" inkscape:connector-curvature="0" />
	<path style="fill:none;stroke:red;stroke-width:1px;stroke-linecap:butt;stroke-linejoin:miter;stroke-opacity:1" d="M 394.642,279.181 404.264,279.181 z" id="boundary" inkscape:connector-curvature="0" />
	<path style="fill:none;stroke:red;stroke-width:1px;stroke-linecap:butt;stroke-linejoin:miter;stroke-opacity:1" d="M 398.491,239.732 408.113,239.732 z" id="boundary" inkscape:connector-curvature="0" />
	<path style="fill:none;stroke:red;stroke-width:1px;stroke-linecap:butt;stroke-linejoin:miter;stroke-opacity:1" d="M 404.264,279.181 413.886,279.181 z" id="boundary" inkscape:connector-curvature="0" />
	<path style="fill:none;stroke:red;stroke-width:1px;stroke-linecap:butt;stroke-linejoin:miter;stroke-opacity:1" d="M 408.113,239.732 417.734,239.732 z" id="boundary" inkscape:connector-curvature="0" />
	<path style="fill:none;stroke:red;stroke-width:1px;stroke-linecap:butt;stroke-linejoin:miter;stroke-opacity:1" d="M 413.886,279.181 423.507,279.181 z" id="boundary" inkscape:connector-curvature="0" />
	<path style="fill:none;stroke:red;stroke-width:1px;stroke-linecap:butt;stroke-linejoin:miter;stroke-opacity:1" d="M 417.734,239.732 427.356,239.732 z" id="boundary" inkscape:connector-curvature="0" />
	<path style="fill:none;stroke:red;stroke-width:1px;stroke-linecap:butt;stroke-linejoin:miter;stroke-opacity:1" d="M 423.507,279.181 432.167,283.992 z" id="boundary" inkscape:connector-curvature="0" />
	<path style="fill:none;stroke:red;stroke-width:1px;stroke-linecap:butt;stroke-linejoin:miter;stroke-opacity:1" d="M 427.356,239.732 436.978,239.732 z" id="boundary" inkscape:connector-curvature="0" />
	<path style="fill:none;stroke:red;stroke-width:1px;stroke-linecap:butt;stroke-linejoin:miter;stroke-opacity:1" d="M 432.167,283.992 437.94,291.69 z" id="boundary" inkscape:connector-curvature="0" />
	<path style="fill:none;stroke:red;stroke-width:1px;stroke-linecap:butt;stroke-linejoin:miter;stroke-opacity:1" d="M 436.978,239.732 446.599,239.732 z" id="boundary" inkscape:connector-curvature="0" />
	<path style="fill:none;stroke:red;stroke-width:1px;stroke-linecap:butt;stroke-linejoin:miter;stroke-opacity:1" d="M 437.94,291.69 441.789,301.311 z" id="boundary" inkscape:connector-curvature="0" />
	<path style="fill:none;stroke:red;stroke-width:1px;stroke-linecap:butt;stroke-linejoin:miter;stroke-opacity:1" d="M 441.789,301.311 441.789,310.933 z" id="boundary" inkscape:connector-curvature="0" />
	<path style="fill:none;stroke:red;stroke-width:1px;stroke-linecap:butt;stroke-linejoin:miter;stroke-opacity:1" d="M 441.789,310.933 441.789,320.555 z" id="boundary" inkscape:connector-curvature="0" />
	<path style="fill:none;stroke:red;stroke-width:1px;stroke-linecap:butt;stroke-linejoin:miter;stroke-opacity:1" d="M 441.789,320.555 441.789,330.177 z" id="boundary" inkscape:connector-curvature="0" />
	<path style="fill:none;stroke:red;stroke-width:1px;stroke-linecap:butt;stroke-linejoin:miter;stroke-opacity:1" d="M 441.789,330.177 442.751,339.798 z" id="boundary" inkscape:connector-curvature="0" />
	<path style="fill:none;stroke:red;stroke-width:1px;stroke-linecap:butt;stroke-linejoin:miter;stroke-opacity:1" d="M 442.751,339.798 446.599,349.42 z" id="boundary" inkscape:connector-curvature="0" />
	<path style="fill:none;stroke:red;stroke-width:1px;stroke-linecap:butt;stroke-linejoin:miter;stroke-opacity:1" d="M 446.599,239.732 456.221,239.732 z" id="boundary" inkscape:connector-curvature="0" />
	<path style="fill:none;stroke:red;stroke-width:1px;stroke-linecap:butt;stroke-linejoin:miter;stroke-opacity:1" d="M 446.599,349.42 446.599,359.042 z" id="boundary" inkscape:connector-curvature="0" />
	<path style="fill:none;stroke:red;stroke-width:1px;stroke-linecap:butt;stroke-linejoin:miter;stroke-opacity:1" d="M 446.599,359.042 447.562,368.663 z" id="boundary" inkscape:connector-curvature="0" />
	<path style="fill:none;stroke:red;stroke-width:1px;stroke-linecap:butt;stroke-linejoin:miter;stroke-opacity:1" d="M 447.562,368.663 451.41,378.285 z" id="boundary" inkscape:connector-curvature="0" />
	<path style="fill:none;stroke:red;stroke-width:1px;stroke-linecap:butt;stroke-linejoin:miter;stroke-opacity:1" d="M 451.41,378.285 452.372,387.907 z" id="boundary" inkscape:connector-curvature="0" />
	<path style="fill:none;stroke:red;stroke-width:1px;stroke-linecap:butt;stroke-linejoin:miter;stroke-opacity:1" d="M 452.372,387.907 457.183,396.566 z" id="boundary" inkscape:connector-curvature="0" />
	<path style="fill:none;stroke:red;stroke-width:1px;stroke-linecap:butt;stroke-linejoin:miter;stroke-opacity:1" d="M 456.221,239.732 465.843,239.732 z" id="boundary" inkscape:connector-curvature="0" />
	<path style="fill:none;stroke:red;stroke-width:1px;stroke-linecap:butt;stroke-linejoin:miter;stroke-opacity:1" d="M 457.183,396.566 463.919,404.264 z" id="boundary" inkscape:connector-curvature="0" />
	<path style="fill:none;stroke:red;stroke-width:1px;stroke-linecap:butt;stroke-linejoin:miter;stroke-opacity:1" d="M 463.919,404.264 471.616,410.999 z" id="boundary" inkscape:connector-curvature="0" />
	<path style="fill:none;stroke:red;stroke-width:1px;stroke-linecap:butt;stroke-linejoin:miter;stroke-opacity:1" d="M 465.843,239.732 475.465,237.808 z" id="boundary" inkscape:connector-curvature="0" />
	<path style="fill:none;stroke:red;stroke-width:1px;stroke-linecap:butt;stroke-linejoin:miter;stroke-opacity:1" d="M 471.616,410.999 478.351,418.696 z" id="boundary" inkscape:connector-curvature="0" />
	<path style="fill:none;stroke:red;stroke-width:1px;stroke-linecap:butt;stroke-linejoin:miter;stroke-opacity:1" d="M 475.465,237.808 483.162,230.111 z" id="boundary" inkscape:connector-curvature="0" />
	<path style="fill:none;stroke:red;stroke-width:1px;stroke-linecap:butt;stroke-linejoin:miter;stroke-opacity:1" d="M 478.351,418.696 486.048,425.432 z" id="boundary" inkscape:connector-curvature="0" />
	<path style="fill:none;stroke:red;stroke-width:1px;stroke-linecap:butt;stroke-linejoin:miter;stroke-opacity:1" d="M 483.162,230.111 490.859,222.413 z" id="boundary" inkscape:connector-curvature="0" />
	<path style="fill:none;stroke:red;stroke-width:1px;stroke-linecap:butt;stroke-linejoin:miter;stroke-opacity:1" d="M 486.048,425.432 492.784,433.129 z" id="boundary" inkscape:connector-curvature="0" />
	<path style="fill:none;stroke:red;stroke-width:1px;stroke-linecap:butt;stroke-linejoin:miter;stroke-opacity:1" d="M 490.859,222.413 498.557,215.678 z" id="boundary" inkscape:connector-curvature="0" />
	<path style="fill:none;stroke:red;stroke-width:1px;stroke-linecap:butt;stroke-linejoin:miter;stroke-opacity:1" d="M 492.784,433.129 502.405,433.129 z" id="boundary" inkscape:connector-curvature="0" />
	<path style="fill:none;stroke:red;stroke-width:1px;stroke-linecap:butt;stroke-linejoin:miter;stroke-opacity:1" d="M 498.557,215.678 504.33,204.132 z" id="boundary" inkscape:connector-curvature="0" />
	<path style="fill:none;stroke:red;stroke-width:1px;stroke-linecap:butt;stroke-linejoin:miter;stroke-opacity:1" d="M 502.405,433.129 511.065,437.94 z" id="boundary" inkscape:connector-curvature="0" />
	<path style="fill:none;stroke:red;stroke-width:1px;stroke-linecap:butt;stroke-linejoin:miter;stroke-opacity:1" d="M 504.33,156.023 504.33,165.645 z" id="boundary" inkscape:connector-curvature="0" />
	<path style="fill:none;stroke:red;stroke-width:1px;stroke-linecap:butt;stroke-linejoin:miter;stroke-opacity:1" d="M 504.33,156.023 509.141,146.402 z" id="boundary" inkscape:connector-curvature="0" />
	<path style="fill:none;stroke:red;stroke-width:1px;stroke-linecap:butt;stroke-linejoin:miter;stroke-opacity:1" d="M 504.33,165.645 504.33,175.267 z" id="boundary" inkscape:connector-curvature="0" />
	<path style="fill:none;stroke:red;stroke-width:1px;stroke-linecap:butt;stroke-linejoin:miter;stroke-opacity:1" d="M 504.33,175.267 504.33,184.888 z" id="boundary" inkscape:connector-curvature="0" />
	<path style="fill:none;stroke:red;stroke-width:1px;stroke-linecap:butt;stroke-linejoin:miter;stroke-opacity:1" d="M 504.33,184.888 504.33,194.51 z" id="boundary" inkscape:connector-curvature="0" />
	<path style="fill:none;stroke:red;stroke-width:1px;stroke-linecap:butt;stroke-linejoin:miter;stroke-opacity:1" d="M 504.33,194.51 504.33,204.132 z" id="boundary" inkscape:connector-curvature="0" />
	<path style="fill:none;stroke:red;stroke-width:1px;stroke-linecap:butt;stroke-linejoin:miter;stroke-opacity:1" d="M 509.141,146.402 513.952,136.78 z" id="boundary" inkscape:connector-curvature="0" />
	<path style="fill:none;stroke:red;stroke-width:1px;stroke-linecap:butt;stroke-linejoin:miter;stroke-opacity:1" d="M 511.065,437.94 520.687,437.94 z" id="boundary" inkscape:connector-curvature="0" />
	<path style="fill:none;stroke:red;stroke-width:1px;stroke-linecap:butt;stroke-linejoin:miter;stroke-opacity:1" d="M 513.952,136.78 521.649,129.082 z" id="boundary" inkscape:connector-curvature="0" />
	<path style="fill:none;stroke:red;stroke-width:1px;stroke-linecap:butt;stroke-linejoin:miter;stroke-opacity:1" d="M 520.687,437.94 529.346,433.129 z" id="boundary" inkscape:connector-curvature="0" />
	<path style="fill:none;stroke:red;stroke-width:1px;stroke-linecap:butt;stroke-linejoin:miter;stroke-opacity:1" d="M 521.649,129.082 531.271,124.272 z" id="boundary" inkscape:connector-curvature="0" />
	<path style="fill:none;stroke:red;stroke-width:1px;stroke-linecap:butt;stroke-linejoin:miter;stroke-opacity:1" d="M 529.346,433.129 538.968,428.318 z" id="boundary" inkscape:connector-curvature="0" />
	<path style="fill:none;stroke:red;stroke-width:1px;stroke-linecap:butt;stroke-linejoin:miter;stroke-opacity:1" d="M 531.271,124.272 539.93,119.461 z" id="boundary" inkscape:connector-curvature="0" />
	<path style="fill:none;stroke:red;stroke-width:1px;stroke-linecap:butt;stroke-linejoin:miter;stroke-opacity:1" d="M 538.006,35.7517 538.006,45.3734 z" id="boundary" inkscape:connector-curvature="0" />
	<path style="fill:none;stroke:red;stroke-width:1px;stroke-linecap:butt;stroke-linejoin:miter;stroke-opacity:1" d="M 538.006,35.7517 542.817,26.13 z" id="boundary" inkscape:connector-curvature="0" />
	<path style="fill:none;stroke:red;stroke-width:1px;stroke-linecap:butt;stroke-linejoin:miter;stroke-opacity:1" d="M 538.006,45.3734 542.817,54.033 z" id="boundary" inkscape:connector-curvature="0" />
	<path style="fill:none;stroke:red;stroke-width:1px;stroke-linecap:butt;stroke-linejoin:miter;stroke-opacity:1" d="M 538.968,428.318 546.665,421.583 z" id="boundary" inkscape:connector-curvature="0" />
	<path style="fill:none;stroke:red;stroke-width:1px;stroke-linecap:butt;stroke-linejoin:miter;stroke-opacity:1" d="M 539.93,119.461 547.628,112.726 z" id="boundary" inkscape:connector-curvature="0" />
	<path style="fill:none;stroke:red;stroke-width:1px;stroke-linecap:butt;stroke-linejoin:miter;stroke-opacity:1" d="M 542.817,26.13 550.514,18.4326 z" id="boundary" inkscape:connector-curvature="0" />
	<path style="fill:none;stroke:red;stroke-width:1px;stroke-linecap:butt;stroke-linejoin:miter;stroke-opacity:1" d="M 542.817,54.033 542.817,63.6547 z" id="boundary" inkscape:connector-curvature="0" />
	<path style="fill:none;stroke:red;stroke-width:1px;stroke-linecap:butt;stroke-linejoin:miter;stroke-opacity:1" d="M 542.817,63.6547 547.628,72.3143 z" id="boundary" inkscape:connector-curvature="0" />
	<path style="fill:none;stroke:red;stroke-width:1px;stroke-linecap:butt;stroke-linejoin:miter;stroke-opacity:1" d="M 546.665,421.583 553.401,409.075 z" id="boundary" inkscape:connector-curvature="0" />
	<path style="fill:none;stroke:red;stroke-width:1px;stroke-linecap:butt;stroke-linejoin:miter;stroke-opacity:1" d="M 547.628,72.3143 550.514,81.936 z" id="boundary" inkscape:connector-curvature="0" />
	<path style="fill:none;stroke:red;stroke-width:1px;stroke-linecap:butt;stroke-linejoin:miter;stroke-opacity:1" d="M 547.628,112.726 552.438,101.179 z" id="boundary" inkscape:connector-curvature="0" />
	<path style="fill:none;stroke:red;stroke-width:1px;stroke-linecap:butt;stroke-linejoin:miter;stroke-opacity:1" d="M 550.514,18.4326 555.325,8.81086 z" id="boundary" inkscape:connector-curvature="0" />
	<path style="fill:none;stroke:red;stroke-width:1px;stroke-linecap:butt;stroke-linejoin:miter;stroke-opacity:1" d="M 550.514,81.936 552.438,91.5577 z" id="boundary" inkscape:connector-curvature="0" />
	<path style="fill:none;stroke:red;stroke-width:1px;stroke-linecap:butt;stroke-linejoin:miter;stroke-opacity:1" d="M 552.438,91.5577 552.438,101.179 z" id="boundary" inkscape:connector-curvature="0" />
	<path style="fill:none;stroke:red;stroke-width:1px;stroke-linecap:butt;stroke-linejoin:miter;stroke-opacity:1" d="M 553.401,409.075 558.211,394.642 z" id="boundary" inkscape:connector-curvature="0" />
	<path style="fill:none;stroke:red;stroke-width:1px;stroke-linecap:butt;stroke-linejoin:miter;stroke-opacity:1" d="M 555.325,8.81086 563.984,4 z" id="boundary" inkscape:connector-curvature="0" />
	<path style="fill:none;stroke:red;stroke-width:1px;stroke-linecap:butt;stroke-linejoin:miter;stroke-opacity:1" d="M 558.211,394.642 563.022,385.02 z" id="boundary" inkscape:connector-curvature="0" />
	<path style="fill:none;stroke:red;stroke-width:1px;stroke-linecap:butt;stroke-linejoin:miter;stroke-opacity:1" d="M 563.022,385.02 567.833,370.588 z" id="boundary" inkscape:connector-curvature="0" />
	<path style="fill:none;stroke:red;stroke-width:1px;stroke-linecap:butt;stroke-linejoin:miter;stroke-opacity:1" d="M 563.984,4 573.606,4 z" id="boundary" inkscape:connector-curvature="0" />
	<path style="fill:none;stroke:red;stroke-width:1px;stroke-linecap:butt;stroke-linejoin:miter;stroke-opacity:1" d="M 567.833,370.588 572.644,360.966 z" id="boundary" inkscape:connector-curvature="0" />
	<path style="fill:none;stroke:red;stroke-width:1px;stroke-linecap:butt;stroke-linejoin:miter;stroke-opacity:1" d="M 572.644,360.966 577.455,346.533 z" id="boundary" inkscape:connector-curvature="0" />
	<path style="fill:none;stroke:red;stroke-width:1px;stroke-linecap:butt;stroke-linejoin:miter;stroke-opacity:1" d="M 573.606,4 582.266,8.81086 z" id="boundary" inkscape:connector-curvature="0" />
	<path style="fill:none;stroke:red;stroke-width:1px;stroke-linecap:butt;stroke-linejoin:miter;stroke-opacity:1" d="M 577.455,288.803 577.455,298.425 z" id="boundary" inkscape:connector-curvature="0" />
	<path style="fill:none;stroke:red;stroke-width:1px;stroke-linecap:butt;stroke-linejoin:miter;stroke-opacity:1" d="M 577.455,288.803 586.114,283.992 z" id="boundary" inkscape:connector-curvature="0" />
	<path style="fill:none;stroke:red;stroke-width:1px;stroke-linecap:butt;stroke-linejoin:miter;stroke-opacity:1" d="M 577.455,298.425 577.455,308.047 z" id="boundary" inkscape:connector-curvature="0" />
	<path style="fill:none;stroke:red;stroke-width:1px;stroke-linecap:butt;stroke-linejoin:miter;stroke-opacity:1" d="M 577.455,308.047 577.455,317.668 z" id="boundary" inkscape:connector-curvature="0" />
	<path style="fill:none;stroke:red;stroke-width:1px;stroke-linecap:butt;stroke-linejoin:miter;stroke-opacity:1" d="M 577.455,317.668 577.455,327.29 z" id="boundary" inkscape:connector-curvature="0" />
	<path style="fill:none;stroke:red;stroke-width:1px;stroke-linecap:butt;stroke-linejoin:miter;stroke-opacity:1" d="M 577.455,327.29 577.455,336.912 z" id="boundary" inkscape:connector-curvature="0" />
	<path style="fill:none;stroke:red;stroke-width:1px;stroke-linecap:butt;stroke-linejoin:miter;stroke-opacity:1" d="M 577.455,336.912 577.455,346.533 z" id="boundary" inkscape:connector-curvature="0" />
	<path style="fill:none;stroke:red;stroke-width:1px;stroke-linecap:butt;stroke-linejoin:miter;stroke-opacity:1" d="M 582.266,8.81086 587.077,17.4704 z" id="boundary" inkscape:connector-curvature="0" />
	<path style="fill:none;stroke:red;stroke-width:1px;stroke-linecap:butt;stroke-linejoin:miter;stroke-opacity:1" d="M 586.114,283.992 594.774,279.181 z" id="boundary" inkscape:connector-curvature="0" />
	<path style="fill:none;stroke:red;stroke-width:1px;stroke-linecap:butt;stroke-linejoin:miter;stroke-opacity:1" d="M 587.077,17.4704 587.077,27.0921 z" id="boundary" inkscape:connector-curvature="0" />
	<path style="fill:none;stroke:red;stroke-width:1px;stroke-linecap:butt;stroke-linejoin:miter;stroke-opacity:1" d="M 587.077,27.0921 587.077,36.7139 z" id="boundary" inkscape:connector-curvature="0" />
	<path style="fill:none;stroke:red;stroke-width:1px;stroke-linecap:butt;stroke-linejoin:miter;stroke-opacity:1" d="M 587.077,36.7139 591.887,45.3734 z" id="boundary" inkscape:connector-curvature="0" />
	<path style="fill:none;stroke:red;stroke-width:1px;stroke-linecap:butt;stroke-linejoin:miter;stroke-opacity:1" d="M 591.887,45.3734 591.887,54.9952 z" id="boundary" inkscape:connector-curvature="0" />
	<path style="fill:none;stroke:red;stroke-width:1px;stroke-linecap:butt;stroke-linejoin:miter;stroke-opacity:1" d="M 591.887,54.9952 591.887,64.6169 z" id="boundary" inkscape:connector-curvature="0" />
	<path style="fill:none;stroke:red;stroke-width:1px;stroke-linecap:butt;stroke-linejoin:miter;stroke-opacity:1" d="M 591.887,64.6169 598.623,72.3143 z" id="boundary" inkscape:connector-curvature="0" />
	<path style="fill:none;stroke:red;stroke-width:1px;stroke-linecap:butt;stroke-linejoin:miter;stroke-opacity:1" d="M 594.774,279.181 604.396,279.181 z" id="boundary" inkscape:connector-curvature="0" />
	<path style="fill:none;stroke:red;stroke-width:1px;stroke-linecap:butt;stroke-linejoin:miter;stroke-opacity:1" d="M 598.623,72.3143 606.32,79.0495 z" id="boundary" inkscape:connector-curvature="0" />
	<path style="fill:none;stroke:red;stroke-width:1px;stroke-linecap:butt;stroke-linejoin:miter;stroke-opacity:1" d="M 604.396,279.181 614.017,279.181 z" id="boundary" inkscape:connector-curvature="0" />
	<path style="fill:none;stroke:red;stroke-width:1px;stroke-linecap:butt;stroke-linejoin:miter;stroke-opacity:1" d="M 606.32,79.0495 610.169,88.6712 z" id="boundary" inkscape:connector-curvature="0" />
	<path style="fill:none;stroke:red;stroke-width:1px;stroke-linecap:butt;stroke-linejoin:miter;stroke-opacity:1" d="M 610.169,88.6712 611.131,98.2929 z" id="boundary" inkscape:connector-curvature="0" />
	<path style="fill:none;stroke:red;stroke-width:1px;stroke-linecap:butt;stroke-linejoin:miter;stroke-opacity:1" d="M 611.131,98.2929 611.131,107.915 z" id="boundary" inkscape:connector-curvature="0" />
	<path style="fill:none;stroke:red;stroke-width:1px;stroke-linecap:butt;stroke-linejoin:miter;stroke-opacity:1" d="M 611.131,107.915 611.131,117.536 z" id="boundary" inkscape:connector-curvature="0" />
	<path style="fill:none;stroke:red;stroke-width:1px;stroke-linecap:butt;stroke-linejoin:miter;stroke-opacity:1" d="M 611.131,117.536 614.98,127.158 z" id="boundary" inkscape:connector-curvature="0" />
	<path style="fill:none;stroke:red;stroke-width:1px;stroke-linecap:butt;stroke-linejoin:miter;stroke-opacity:1" d="M 614.017,279.181 622.677,283.992 z" id="boundary" inkscape:connector-curvature="0" />
	<path style="fill:none;stroke:red;stroke-width:1px;stroke-linecap:butt;stroke-linejoin:miter;stroke-opacity:1" d="M 614.98,127.158 619.79,135.818 z" id="boundary" inkscape:connector-curvature="0" />
	<path style="fill:none;stroke:red;stroke-width:1px;stroke-linecap:butt;stroke-linejoin:miter;stroke-opacity:1" d="M 619.79,135.818 623.639,145.439 z" id="boundary" inkscape:connector-curvature="0" />
	<path style="fill:none;stroke:red;stroke-width:1px;stroke-linecap:butt;stroke-linejoin:miter;stroke-opacity:1" d="M 622.677,283.992 631.337,288.803 z" id="boundary" inkscape:connector-curvature="0" />
	<path style="fill:none;stroke:red;stroke-width:1px;stroke-linecap:butt;stroke-linejoin:miter;stroke-opacity:1" d="M 623.639,145.439 628.45,154.099 z" id="boundary" inkscape:connector-curvature="0" />
	<path style="fill:none;stroke:red;stroke-width:1px;stroke-linecap:butt;stroke-linejoin:miter;stroke-opacity:1" d="M 628.45,154.099 632.299,163.721 z" id="boundary" inkscape:connector-curvature="0" />
	<path style="fill:none;stroke:red;stroke-width:1px;stroke-linecap:butt;stroke-linejoin:miter;stroke-opacity:1" d="M 631.337,288.803 639.034,294.576 z" id="boundary" inkscape:connector-curvature="0" />
	<path style="fill:none;stroke:red;stroke-width:1px;stroke-linecap:butt;stroke-linejoin:miter;stroke-opacity:1" d="M 632.299,163.721 635.185,173.342 z" id="boundary" inkscape:connector-curvature="0" />
	<path style="fill:none;stroke:red;stroke-width:1px;stroke-linecap:butt;stroke-linejoin:miter;stroke-opacity:1" d="M 635.185,173.342 639.996,182.002 z" id="boundary" inkscape:connector-curvature="0" />
	<path style="fill:none;stroke:red;stroke-width:1px;stroke-linecap:butt;stroke-linejoin:miter;stroke-opacity:1" d="M 639.034,294.576 645.769,302.274 z" id="boundary" inkscape:connector-curvature="0" />
	<path style="fill:none;stroke:red;stroke-width:1px;stroke-linecap:butt;stroke-linejoin:miter;stroke-opacity:1" d="M 639.996,182.002 639.996,191.624 z" id="boundary" inkscape:connector-curvature="0" />
	<path style="fill:none;stroke:red;stroke-width:1px;stroke-linecap:butt;stroke-linejoin:miter;stroke-opacity:1" d="M 639.996,191.624 644.807,200.283 z" id="boundary" inkscape:connector-curvature="0" />
	<path style="fill:none;stroke:red;stroke-width:1px;stroke-linecap:butt;stroke-linejoin:miter;stroke-opacity:1" d="M 644.807,200.283 644.807,209.905 z" id="boundary" inkscape:connector-curvature="0" />
	<path style="fill:none;stroke:red;stroke-width:1px;stroke-linecap:butt;stroke-linejoin:miter;stroke-opacity:1" d="M 644.807,209.905 649.618,218.565 z" id="boundary" inkscape:connector-curvature="0" />
	<path style="fill:none;stroke:red;stroke-width:1px;stroke-linecap:butt;stroke-linejoin:miter;stroke-opacity:1" d="M 645.769,302.274 653.467,308.047 z" id="boundary" inkscape:connector-curvature="0" />
	<path style="fill:none;stroke:red;stroke-width:1px;stroke-linecap:butt;stroke-linejoin:miter;stroke-opacity:1" d="M 649.618,218.565 657.315,225.3 z" id="boundary" inkscape:connector-curvature="0" />
	<path style="fill:none;stroke:red;stroke-width:1px;stroke-linecap:butt;stroke-linejoin:miter;stroke-opacity:1" d="M 653.467,308.047 653.467,317.668 z" id="boundary" inkscape:connector-curvature="0" />
	<path style="fill:none;stroke:red;stroke-width:1px;stroke-linecap:butt;stroke-linejoin:miter;stroke-opacity:1" d="M 653.467,317.668 656.353,327.29 z" id="boundary" inkscape:connector-curvature="0" />
	<path style="fill:none;stroke:red;stroke-width:1px;stroke-linecap:butt;stroke-linejoin:miter;stroke-opacity:1" d="M 656.353,327.29 661.164,335.95 z" id="boundary" inkscape:connector-curvature="0" />
	<path style="fill:none;stroke:red;stroke-width:1px;stroke-linecap:butt;stroke-linejoin:miter;stroke-opacity:1" d="M 657.315,225.3 666.937,225.3 z" id="boundary" inkscape:connector-curvature="0" />
	<path style="fill:none;stroke:red;stroke-width:1px;stroke-linecap:butt;stroke-linejoin:miter;stroke-opacity:1" d="M 661.164,335.95 667.899,343.647 z" id="boundary" inkscape:connector-curvature="0" />
	<path style="fill:none;stroke:red;stroke-width:1px;stroke-linecap:butt;stroke-linejoin:miter;stroke-opacity:1" d="M 666.937,225.3 676.559,225.3 z" id="boundary" inkscape:connector-curvature="0" />
	<path style="fill:none;stroke:red;stroke-width:1px;stroke-linecap:butt;stroke-linejoin:miter;stroke-opacity:1" d="M 667.899,343.647 677.521,346.533 z" id="boundary" inkscape:connector-curvature="0" />
	<path style="fill:none;stroke:red;stroke-width:1px;stroke-linecap:butt;stroke-linejoin:miter;stroke-opacity:1" d="M 676.559,225.3 683.294,217.602 z" id="boundary" inkscape:connector-curvature="0" />
	<path style="fill:none;stroke:red;stroke-width:1px;stroke-linecap:butt;stroke-linejoin:miter;stroke-opacity:1" d="M 677.521,346.533 687.143,346.533 z" id="boundary" inkscape:connector-curvature="0" />
	<path style="fill:none;stroke:red;stroke-width:1px;stroke-linecap:butt;stroke-linejoin:miter;stroke-opacity:1" d="M 683.294,217.602 688.105,207.981 z" id="boundary" inkscape:connector-curvature="0" />
	<path style="fill:none;stroke:red;stroke-width:1px;stroke-linecap:butt;stroke-linejoin:miter;stroke-opacity:1" d="M 687.143,346.533 696.764,346.533 z" id="boundary" inkscape:connector-curvature="0" />
	<path style="fill:none;stroke:red;stroke-width:1px;stroke-linecap:butt;stroke-linejoin:miter;stroke-opacity:1" d="M 688.105,207.981 695.802,201.245 z" id="boundary" inkscape:connector-curvature="0" />
	<path style="fill:none;stroke:red;stroke-width:1px;stroke-linecap:butt;stroke-linejoin:miter;stroke-opacity:1" d="M 695.802,201.245 699.651,191.624 z" id="boundary" inkscape:connector-curvature="0" />
	<path style="fill:none;stroke:red;stroke-width:1px;stroke-linecap:butt;stroke-linejoin:miter;stroke-opacity:1" d="M 696.764,346.533 706.386,346.533 z" id="boundary" inkscape:connector-curvature="0" />
	<path style="fill:none;stroke:red;stroke-width:1px;stroke-linecap:butt;stroke-linejoin:miter;stroke-opacity:1" d="M 699.651,191.624 706.386,175.267 z" id="boundary" inkscape:connector-curvature="0" />
	<path style="fill:none;stroke:red;stroke-width:1px;stroke-linecap:butt;stroke-linejoin:miter;stroke-opacity:1" d="M 706.386,175.267 711.197,160.834 z" id="boundary" inkscape:connector-curvature="0" />
	<path style="fill:none;stroke:red;stroke-width:1px;stroke-linecap:butt;stroke-linejoin:miter;stroke-opacity:1" d="M 706.386,346.533 716.008,346.533 z" id="boundary" inkscape:connector-curvature="0" />
	<path style="fill:none;stroke:red;stroke-width:1px;stroke-linecap:butt;stroke-linejoin:miter;stroke-opacity:1" d="M 711.197,160.834 716.008,151.212 z" id="boundary" inkscape:connector-curvature="0" />
	<path style="fill:none;stroke:red;stroke-width:1px;stroke-linecap:butt;stroke-linejoin:miter;stroke-opacity:1" d="M 716.008,151.212 723.705,143.515 z" id="boundary" inkscape:connector-curvature="0" />
	<path style="fill:none;stroke:red;stroke-width:1px;stroke-linecap:butt;stroke-linejoin:miter;stroke-opacity:1" d="M 716.008,346.533 725.629,346.533 z" id="boundary" inkscape:connector-curvature="0" />
	<path style="fill:none;stroke:red;stroke-width:1px;stroke-linecap:butt;stroke-linejoin:miter;stroke-opacity:1" d="M 723.705,143.515 728.516,133.893 z" id="boundary" inkscape:connector-curvature="0" />
	<path style="fill:none;stroke:red;stroke-width:1px;stroke-linecap:butt;stroke-linejoin:miter;stroke-opacity:1" d="M 725.629,346.533 735.251,346.533 z" id="boundary" inkscape:connector-curvature="0" />
	<path style="fill:none;stroke:red;stroke-width:1px;stroke-linecap:butt;stroke-linejoin:miter;stroke-opacity:1" d="M 728.516,133.893 733.327,124.272 z" id="boundary" inkscape:connector-curvature="0" />
	<path style="fill:none;stroke:red;stroke-width:1px;stroke-linecap:butt;stroke-linejoin:miter;stroke-opacity:1" d="M 733.327,124.272 742.949,119.461 z" id="boundary" inkscape:connector-curvature="0" />
	<path style="fill:none;stroke:red;stroke-width:1px;stroke-linecap:butt;stroke-linejoin:miter;stroke-opacity:1" d="M 735.251,346.533 744.873,346.533 z" id="boundary" inkscape:connector-curvature="0" />
	<path style="fill:none;stroke:red;stroke-width:1px;stroke-linecap:butt;stroke-linejoin:miter;stroke-opacity:1" d="M 742.949,119.461 752.57,114.65 z" id="boundary" inkscape:connector-curvature="0" />
	<path style="fill:none;stroke:red;stroke-width:1px;stroke-linecap:butt;stroke-linejoin:miter;stroke-opacity:1" d="M 744.873,346.533 754.495,346.533 z" id="boundary" inkscape:connector-curvature="0" />
	<path style="fill:none;stroke:red;stroke-width:1px;stroke-linecap:butt;stroke-linejoin:miter;stroke-opacity:1" d="M 752.57,114.65 762.192,114.65 z" id="boundary" inkscape:connector-curvature="0" />
	<path style="fill:none;stroke:red;stroke-width:1px;stroke-linecap:butt;stroke-linejoin:miter;stroke-opacity:1" d="M 754.495,346.533 763.154,351.344 z" id="boundary" inkscape:connector-curvature="0" />
	<path style="fill:none;stroke:red;stroke-width:1px;stroke-linecap:butt;stroke-linejoin:miter;stroke-opacity:1" d="M 762.192,114.65 771.814,114.65 z" id="boundary" inkscape:connector-curvature="0" />
	<path style="fill:none;stroke:red;stroke-width:1px;stroke-linecap:butt;stroke-linejoin:miter;stroke-opacity:1" d="M 763.154,351.344 769.889,359.042 z" id="boundary" inkscape:connector-curvature="0" />
	<path style="fill:none;stroke:red;stroke-width:1px;stroke-linecap:butt;stroke-linejoin:miter;stroke-opacity:1" d="M 769.889,359.042 777.587,365.777 z" id="boundary" inkscape:connector-curvature="0" />
	<path style="fill:none;stroke:red;stroke-width:1px;stroke-linecap:butt;stroke-linejoin:miter;stroke-opacity:1" d="M 771.814,114.65 778.549,103.104 z" id="boundary" inkscape:connector-curvature="0" />
	<path style="fill:none;stroke:red;stroke-width:1px;stroke-linecap:butt;stroke-linejoin:miter;stroke-opacity:1" d="M 777.587,365.777 783.36,373.474 z" id="boundary" inkscape:connector-curvature="0" />
	<path style="fill:none;stroke:red;stroke-width:1px;stroke-linecap:butt;stroke-linejoin:miter;stroke-opacity:1" d="M 778.549,93.4821 778.549,103.104 z" id="boundary" inkscape:connector-curvature="0" />
	<path style="fill:none;stroke:red;stroke-width:1px;stroke-linecap:butt;stroke-linejoin:miter;stroke-opacity:1" d="M 778.549,93.4821 783.36,83.8603 z" id="boundary" inkscape:connector-curvature="0" />
	<path style="fill:none;stroke:red;stroke-width:1px;stroke-linecap:butt;stroke-linejoin:miter;stroke-opacity:1" d="M 783.36,83.8603 792.982,79.0495 z" id="boundary" inkscape:connector-curvature="0" />
	<path style="fill:none;stroke:red;stroke-width:1px;stroke-linecap:butt;stroke-linejoin:miter;stroke-opacity:1" d="M 783.36,373.474 788.171,382.134 z" id="boundary" inkscape:connector-curvature="0" />
	<path style="fill:none;stroke:red;stroke-width:1px;stroke-linecap:butt;stroke-linejoin:miter;stroke-opacity:1" d="M 788.171,382.134 795.868,388.869 z" id="boundary" inkscape:connector-curvature="0" />
	<path style="fill:none;stroke:red;stroke-width:1px;stroke-linecap:butt;stroke-linejoin:miter;stroke-opacity:1" d="M 792.982,79.0495 802.603,76.1629 z" id="boundary" inkscape:connector-curvature="0" />
	<path style="fill:none;stroke:red;stroke-width:1px;stroke-linecap:butt;stroke-linejoin:miter;stroke-opacity:1" d="M 795.868,388.869 802.603,396.566 z" id="boundary" inkscape:connector-curvature="0" />
	<path style="fill:none;stroke:red;stroke-width:1px;stroke-linecap:butt;stroke-linejoin:miter;stroke-opacity:1" d="M 802.603,76.1629 812.225,76.1629 z" id="boundary" inkscape:connector-curvature="0" />
	<path style="fill:none;stroke:red;stroke-width:1px;stroke-linecap:butt;stroke-linejoin:miter;stroke-opacity:1" d="M 802.603,396.566 807.414,405.226 z" id="boundary" inkscape:connector-curvature="0" />
	<path style="fill:none;stroke:red;stroke-width:1px;stroke-linecap:butt;stroke-linejoin:miter;stroke-opacity:1" d="M 807.414,405.226 812.225,413.886 z" id="boundary" inkscape:connector-curvature="0" />
	<path style="fill:none;stroke:red;stroke-width:1px;stroke-linecap:butt;stroke-linejoin:miter;stroke-opacity:1" d="M 812.225,76.1629 821.847,78.0873 z" id="boundary" inkscape:connector-curvature="0" />
	<path style="fill:none;stroke:red;stroke-width:1px;stroke-linecap:butt;stroke-linejoin:miter;stroke-opacity:1" d="M 812.225,413.886 817.998,421.583 z" id="boundary" inkscape:connector-curvature="0" />
	<path style="fill:none;stroke:red;stroke-width:1px;stroke-linecap:butt;stroke-linejoin:miter;stroke-opacity:1" d="M 817.998,421.583 827.62,425.432 z" id="boundary" inkscape:connector-curvature="0" />
	<path style="fill:none;stroke:red;stroke-width:1px;stroke-linecap:butt;stroke-linejoin:miter;stroke-opacity:1" d="M 821.847,78.0873 830.506,82.8982 z" id="boundary" inkscape:connector-curvature="0" />
	<path style="fill:none;stroke:red;stroke-width:1px;stroke-linecap:butt;stroke-linejoin:miter;stroke-opacity:1" d="M 827.62,425.432 836.279,430.242 z" id="boundary" inkscape:connector-curvature="0" />
	<path style="fill:none;stroke:red;stroke-width:1px;stroke-linecap:butt;stroke-linejoin:miter;stroke-opacity:1" d="M 830.506,82.8982 837.242,90.5955 z" id="boundary" inkscape:connector-curvature="0" />
	<path style="fill:none;stroke:red;stroke-width:1px;stroke-linecap:butt;stroke-linejoin:miter;stroke-opacity:1" d="M 836.279,430.242 845.901,433.129 z" id="boundary" inkscape:connector-curvature="0" />
	<path style="fill:none;stroke:red;stroke-width:1px;stroke-linecap:butt;stroke-linejoin:miter;stroke-opacity:1" d="M 837.242,90.5955 844.939,96.3686 z" id="boundary" inkscape:connector-curvature="0" />
	<path style="fill:none;stroke:red;stroke-width:1px;stroke-linecap:butt;stroke-linejoin:miter;stroke-opacity:1" d="M 844.939,96.3686 848.788,105.99 z" id="boundary" inkscape:connector-curvature="0" />
	<path style="fill:none;stroke:red;stroke-width:1px;stroke-linecap:butt;stroke-linejoin:miter;stroke-opacity:1" d="M 845.901,433.129 855.523,433.129 z" id="boundary" inkscape:connector-curvature="0" />
	<path style="fill:none;stroke:red;stroke-width:1px;stroke-linecap:butt;stroke-linejoin:miter;stroke-opacity:1" d="M 848.788,105.99 856.485,112.726 z" id="boundary" inkscape:connector-curvature="0" />
	<path style="fill:none;stroke:red;stroke-width:1px;stroke-linecap:butt;stroke-linejoin:miter;stroke-opacity:1" d="M 855.523,433.129 865.145,433.129 z" id="boundary" inkscape:connector-curvature="0" />
	<path style="fill:none;stroke:red;stroke-width:1px;stroke-linecap:butt;stroke-linejoin:miter;stroke-opacity:1" d="M 856.485,112.726 865.145,117.536 z" id="boundary" inkscape:connector-curvature="0" />
	<path style="fill:none;stroke:red;stroke-width:1px;stroke-linecap:butt;stroke-linejoin:miter;stroke-opacity:1" d="M 865.145,117.536 872.842,124.272 z" id="boundary" inkscape:connector-curvature="0" />
	<path style="fill:none;stroke:red;stroke-width:1px;stroke-linecap:butt;stroke-linejoin:miter;stroke-opacity:1" d="M 865.145,433.129 873.804,437.94 z" id="boundary" inkscape:connector-curvature="0" />
	<path style="fill:none;stroke:red;stroke-width:1px;stroke-linecap:butt;stroke-linejoin:miter;stroke-opacity:1" d="M 872.842,124.272 882.464,124.272 z" id="boundary" inkscape:connector-curvature="0" />
	<path style="fill:none;stroke:red;stroke-width:1px;stroke-linecap:butt;stroke-linejoin:miter;stroke-opacity:1" d="M 873.804,437.94 883.426,437.94 z" id="boundary" inkscape:connector-curvature="0" />
	<path style="fill:none;stroke:red;stroke-width:1px;stroke-linecap:butt;stroke-linejoin:miter;stroke-opacity:1" d="M 882.464,124.272 892.085,124.272 z" id="boundary" inkscape:connector-curvature="0" />
	<path style="fill:none;stroke:red;stroke-width:1px;stroke-linecap:butt;stroke-linejoin:miter;stroke-opacity:1" d="M 883.426,437.94 893.048,437.94 z" id="boundary" inkscape:connector-curvature="0" />
	<path style="fill:none;stroke:red;stroke-width:1px;stroke-linecap:butt;stroke-linejoin:miter;stroke-opacity:1" d="M 892.085,124.272 901.707,124.272 z" id="boundary" inkscape:connector-curvature="0" />
	<path style="fill:none;stroke:red;stroke-width:1px;stroke-linecap:butt;stroke-linejoin:miter;stroke-opacity:1" d="M 893.048,437.94 902.669,437.94 z" id="boundary" inkscape:connector-curvature="0" />
	<path style="fill:none;stroke:red;stroke-width:1px;stroke-linecap:butt;stroke-linejoin:miter;stroke-opacity:1" d="M 901.707,124.272 911.329,124.272 z" id="boundary" inkscape:connector-curvature="0" />
	<path style="fill:none;stroke:red;stroke-width:1px;stroke-linecap:butt;stroke-linejoin:miter;stroke-opacity:1" d="M 902.669,437.94 912.291,437.94 z" id="boundary" inkscape:connector-curvature="0" />
	<path style="fill:none;stroke:red;stroke-width:1px;stroke-linecap:butt;stroke-linejoin:miter;stroke-opacity:1" d="M 911.329,124.272 920.951,124.272 z" id="boundary" inkscape:connector-curvature="0" />
	<path style="fill:none;stroke:red;stroke-width:1px;stroke-linecap:butt;stroke-linejoin:miter;stroke-opacity:1" d="M 912.291,437.94 921.913,437.94 z" id="boundary" inkscape:connector-curvature="0" />
	<path style="fill:none;stroke:red;stroke-width:1px;stroke-linecap:butt;stroke-linejoin:miter;stroke-opacity:1" d="M 920.951,124.272 930.572,124.272 z" id="boundary" inkscape:connector-curvature="0" />
	<path style="fill:none;stroke:red;stroke-width:1px;stroke-linecap:butt;stroke-linejoin:miter;stroke-opacity:1" d="M 921.913,437.94 931.534,437.94 z" id="boundary" inkscape:connector-curvature="0" />
	<path style="fill:none;stroke:red;stroke-width:1px;stroke-linecap:butt;stroke-linejoin:miter;stroke-opacity:1" d="M 930.572,124.272 937.307,131.969 z" id="boundary" inkscape:connector-curvature="0" />
	<path style="fill:none;stroke:red;stroke-width:1px;stroke-linecap:butt;stroke-linejoin:miter;stroke-opacity:1" d="M 931.534,437.94 941.156,436.016 z" id="boundary" inkscape:connector-curvature="0" />
	<path style="fill:none;stroke:red;stroke-width:1px;stroke-linecap:butt;stroke-linejoin:miter;stroke-opacity:1" d="M 937.307,131.969 943.081,139.666 z" id="boundary" inkscape:connector-curvature="0" />
	<path style="fill:none;stroke:red;stroke-width:1px;stroke-linecap:butt;stroke-linejoin:miter;stroke-opacity:1" d="M 941.156,436.016 950.778,431.205 z" id="boundary" inkscape:connector-curvature="0" />
	<path style="fill:none;stroke:red;stroke-width:1px;stroke-linecap:butt;stroke-linejoin:miter;stroke-opacity:1" d="M 943.081,139.666 943.081,149.288 z" id="boundary" inkscape:connector-curvature="0" />
	<path style="fill:none;stroke:red;stroke-width:1px;stroke-linecap:butt;stroke-linejoin:miter;stroke-opacity:1" d="M 943.081,149.288 947.891,157.948 z" id="boundary" inkscape:connector-curvature="0" />
	<path style="fill:none;stroke:red;stroke-width:1px;stroke-linecap:butt;stroke-linejoin:miter;stroke-opacity:1" d="M 947.891,157.948 947.891,167.569 z" id="boundary" inkscape:connector-curvature="0" />
	<path style="fill:none;stroke:red;stroke-width:1px;stroke-linecap:butt;stroke-linejoin:miter;stroke-opacity:1" d="M 947.891,167.569 947.891,177.191 z" id="boundary" inkscape:connector-curvature="0" />
	<path style="fill:none;stroke:red;stroke-width:1px;stroke-linecap:butt;stroke-linejoin:miter;stroke-opacity:1" d="M 947.891,177.191 947.891,186.813 z" id="boundary" inkscape:connector-curvature="0" />
	<path style="fill:none;stroke:red;stroke-width:1px;stroke-linecap:butt;stroke-linejoin:miter;stroke-opacity:1" d="M 947.891,186.813 947.891,196.435 z" id="boundary" inkscape:connector-curvature="0" />
	<path style="fill:none;stroke:red;stroke-width:1px;stroke-linecap:butt;stroke-linejoin:miter;stroke-opacity:1" d="M 947.891,196.435 952.702,205.094 z" id="boundary" inkscape:connector-curvature="0" />
	<path style="fill:none;stroke:red;stroke-width:1px;stroke-linecap:butt;stroke-linejoin:miter;stroke-opacity:1" d="M 950.778,431.205 957.513,423.507 z" id="boundary" inkscape:connector-curvature="0" />
	<path style="fill:none;stroke:red;stroke-width:1px;stroke-linecap:butt;stroke-linejoin:miter;stroke-opacity:1" d="M 952.702,205.094 952.702,214.716 z" id="boundary" inkscape:connector-curvature="0" />
	<path style="fill:none;stroke:red;stroke-width:1px;stroke-linecap:butt;stroke-linejoin:miter;stroke-opacity:1" d="M 952.702,214.716 952.702,224.338 z" id="boundary" inkscape:connector-curvature="0" />
	<path style="fill:none;stroke:red;stroke-width:1px;stroke-linecap:butt;stroke-linejoin:miter;stroke-opacity:1" d="M 952.702,224.338 952.702,233.959 z" id="boundary" inkscape:connector-curvature="0" />
	<path style="fill:none;stroke:red;stroke-width:1px;stroke-linecap:butt;stroke-linejoin:miter;stroke-opacity:1" d="M 952.702,233.959 957.513,242.619 z" id="boundary" inkscape:connector-curvature="0" />
	<path style="fill:none;stroke:red;stroke-width:1px;stroke-linecap:butt;stroke-linejoin:miter;stroke-opacity:1" d="M 957.513,242.619 957.513,252.241 z" id="boundary" inkscape:connector-curvature="0" />
	<path style="fill:none;stroke:red;stroke-width:1px;stroke-linecap:butt;stroke-linejoin:miter;stroke-opacity:1" d="M 957.513,252.241 964.248,259.938 z" id="boundary" inkscape:connector-curvature="0" />
	<path style="fill:none;stroke:red;stroke-width:1px;stroke-linecap:butt;stroke-linejoin:miter;stroke-opacity:1" d="M 957.513,423.507 965.21,416.772 z" id="boundary" inkscape:connector-curvature="0" />
	<path style="fill:none;stroke:red;stroke-width:1px;stroke-linecap:butt;stroke-linejoin:miter;stroke-opacity:1" d="M 964.248,259.938 971.946,266.673 z" id="boundary" inkscape:connector-curvature="0" />
	<path style="fill:none;stroke:red;stroke-width:1px;stroke-linecap:butt;stroke-linejoin:miter;stroke-opacity:1" d="M 965.21,416.772 970.021,407.15 z" id="boundary" inkscape:connector-curvature="0" />
	<path style="fill:none;stroke:red;stroke-width:1px;stroke-linecap:butt;stroke-linejoin:miter;stroke-opacity:1" d="M 970.021,407.15 974.832,397.529 z" id="boundary" inkscape:connector-curvature="0" />
	<path style="fill:none;stroke:red;stroke-width:1px;stroke-linecap:butt;stroke-linejoin:miter;stroke-opacity:1" d="M 971.946,266.673 978.681,274.371 z" id="boundary" inkscape:connector-curvature="0" />
	<path style="fill:none;stroke:red;stroke-width:1px;stroke-linecap:butt;stroke-linejoin:miter;stroke-opacity:1" d="M 974.832,397.529 979.643,387.907 z" id="boundary" inkscape:connector-curvature="0" />
	<path style="fill:none;stroke:red;stroke-width:1px;stroke-linecap:butt;stroke-linejoin:miter;stroke-opacity:1" d="M 978.681,274.371 986.378,281.106 z" id="boundary" inkscape:connector-curvature="0" />
	<path style="fill:none;stroke:red;stroke-width:1px;stroke-linecap:butt;stroke-linejoin:miter;stroke-opacity:1" d="M 979.643,387.907 984.454,378.285 z" id="boundary" inkscape:connector-curvature="0" />
	<path style="fill:none;stroke:red;stroke-width:1px;stroke-linecap:butt;stroke-linejoin:miter;stroke-opacity:1" d="M 984.454,378.285 989.265,368.663 z" id="boundary" inkscape:connector-curvature="0" />
	<path style="fill:none;stroke:red;stroke-width:1px;stroke-linecap:butt;stroke-linejoin:miter;stroke-opacity:1" d="M 986.378,281.106 991.189,289.765 z" id="boundary" inkscape:connector-curvature="0" />
	<path style="fill:none;stroke:red;stroke-width:1px;stroke-linecap:butt;stroke-linejoin:miter;stroke-opacity:1" d="M 989.265,368.663 991.189,351.344 z" id="boundary" inkscape:connector-curvature="0" />
	<path style="fill:none;stroke:red;stroke-width:1px;stroke-linecap:butt;stroke-linejoin:miter;stroke-opacity:1" d="M 991.189,289.765 996,298.425 z" id="boundary" inkscape:connector-curvature="0" />
	<path style="fill:none;stroke:red;stroke-width:1px;stroke-linecap:butt;stroke-linejoin:miter;stroke-opacity:1" d="M 991.189,351.344 996,336.912 z" id="boundary" inkscape:connector-curvature="0" />
	<path style="fill:none;stroke:red;stroke-width:1px;stroke-linecap:butt;stroke-linejoin:miter;stroke-opacity:1" d="M 996,298.425 996,308.047 z" id="boundary" inkscape:connector-curvature="0" />
	<path style="fill:none;stroke:red;stroke-width:1px;stroke-linecap:butt;stroke-linejoin:miter;stroke-opacity:1" d="M 996,308.047 996,317.668 z" id="boundary" inkscape:connector-curvature="0" />
	<path style="fill:none;stroke:red;stroke-width:1px;stroke-linecap:butt;stroke-linejoin:miter;stroke-opacity:1" d="M 996,317.668 996,327.29 z" id="boundary" inkscape:connector-curvature="0" />
	<path style="fill:none;stroke:red;stroke-width:1px;stroke-linecap:butt;stroke-linejoin:miter;stroke-opacity:1" d="M 996,327.29 996,336.912 z" id="boundary" inkscape:connector-curvature="0" />
	<circle cx="4" cy="151.212" r="4" fill="#0" id="circle0"/>
	<circle cx="8.81086" cy="141.591" r="4" fill="#0" id="circle1"/>
	<circle cx="11.6974" cy="157.948" r="4" fill="#0" id="circle2"/>
	<circle cx="16.5082" cy="133.893" r="4" fill="#0" id="circle3"/>
	<circle cx="19.3948" cy="163.721" r="4" fill="#0" id="circle4"/>
	<circle cx="21.3191" cy="124.272" r="4" fill="#0" id="circle5"/>
	<circle cx="26.13" cy="114.65" r="4" fill="#0" id="circle6"/>
	<circle cx="29.0165" cy="163.721" r="4" fill="#0" id="circle7"/>
	<circle cx="30.9408" cy="105.028" r="4" fill="#0" id="circle8"/>
	<circle cx="35.7517" cy="95.4064" r="4" fill="#0" id="circle9"/>
	<circle cx="38.6382" cy="154.099" r="4" fill="#0" id="circle10"/>
	<circle cx="40.5626" cy="85.7847" r="4" fill="#0" id="circle11"/>
	<circle cx="45.3734" cy="76.1629" r="4" fill="#0" id="circle12"/>
	<circle cx="46.3356" cy="147.364" r="4" fill="#0" id="circle13"/>
	<circle cx="54.033" cy="71.3521" r="4" fill="#0" id="circle14"/>
	<circle cx="55.9573" cy="144.477" r="4" fill="#0" id="circle15"/>
	<circle cx="62.6925" cy="66.5412" r="4" fill="#0" id="circle16"/>
	<circle cx="65.579" cy="144.477" r="4" fill="#0" id="circle17"/>
	<circle cx="71.3521" cy="152.175" r="4" fill="#0" id="circle18"/>
	<circle cx="72.3143" cy="66.5412" r="4" fill="#0" id="circle19"/>
	<circle cx="72.3143" cy="161.796" r="4" fill="#0" id="circle20"/>
	<circle cx="77.1251" cy="170.456" r="4" fill="#0" id="circle21"/>
	<circle cx="80.9738" cy="71.3521" r="4" fill="#0" id="circle22"/>
	<circle cx="85.7847" cy="175.267" r="4" fill="#0" id="circle23"/>
	<circle cx="89.6334" cy="76.1629" r="4" fill="#0" id="circle24"/>
	<circle cx="90.5955" cy="183.926" r="4" fill="#0" id="circle25"/>
	<circle cx="90.5955" cy="193.548" r="4" fill="#0" id="circle26"/>
	<circle cx="90.5955" cy="203.17" r="4" fill="#0" id="circle27"/>
	<circle cx="90.5955" cy="212.791" r="4" fill="#0" id="circle28"/>
	<circle cx="90.5955" cy="222.413" r="4" fill="#0" id="circle29"/>
	<circle cx="95.4064" cy="391.756" r="4" fill="#0" id="circle30"/>
	<circle cx="97.3307" cy="230.111" r="4" fill="#0" id="circle31"/>
	<circle cx="99.2551" cy="77.1251" r="4" fill="#0" id="circle32"/>
	<circle cx="100.217" cy="377.323" r="4" fill="#0" id="circle33"/>
	<circle cx="103.104" cy="398.491" r="4" fill="#0" id="circle34"/>
	<circle cx="105.028" cy="235.884" r="4" fill="#0" id="circle35"/>
	<circle cx="105.028" cy="367.701" r="4" fill="#0" id="circle36"/>
	<circle cx="107.915" cy="81.936" r="4" fill="#0" id="circle37"/>
	<circle cx="109.839" cy="244.543" r="4" fill="#0" id="circle38"/>
	<circle cx="109.839" cy="254.165" r="4" fill="#0" id="circle39"/>
	<circle cx="109.839" cy="263.787" r="4" fill="#0" id="circle40"/>
	<circle cx="109.839" cy="273.408" r="4" fill="#0" id="circle41"/>
	<circle cx="109.839" cy="283.03" r="4" fill="#0" id="circle42"/>
	<circle cx="109.839" cy="292.652" r="4" fill="#0" id="circle43"/>
	<circle cx="109.839" cy="302.274" r="4" fill="#0" id="circle44"/>
	<circle cx="109.839" cy="311.895" r="4" fill="#0" id="circle45"/>
	<circle cx="109.839" cy="321.517" r="4" fill="#0" id="circle46"/>
	<circle cx="109.839" cy="331.139" r="4" fill="#0" id="circle47"/>
	<circle cx="109.839" cy="340.76" r="4" fill="#0" id="circle48"/>
	<circle cx="109.839" cy="350.382" r="4" fill="#0" id="circle49"/>
	<circle cx="110.801" cy="404.264" r="4" fill="#0" id="circle50"/>
	<circle cx="115.612" cy="88.6712" r="4" fill="#0" id="circle51"/>
	<circle cx="120.423" cy="404.264" r="4" fill="#0" id="circle52"/>
	<circle cx="124.272" cy="93.4821" r="4" fill="#0" id="circle53"/>
	<circle cx="129.082" cy="102.142" r="4" fill="#0" id="circle54"/>
	<circle cx="130.045" cy="404.264" r="4" fill="#0" id="circle55"/>
	<circle cx="134.855" cy="109.839" r="4" fill="#0" id="circle56"/>
	<circle cx="139.666" cy="399.453" r="4" fill="#0" id="circle57"/>
	<circle cx="142.553" cy="115.612" r="4" fill="#0" id="circle58"/>
	<circle cx="149.288" cy="389.831" r="4" fill="#0" id="circle59"/>
	<circle cx="151.212" cy="120.423" r="4" fill="#0" id="circle60"/>
	<circle cx="154.099" cy="269.56" r="4" fill="#0" id="circle61"/>
	<circle cx="154.099" cy="279.181" r="4" fill="#0" id="circle62"/>
	<circle cx="154.099" cy="288.803" r="4" fill="#0" id="circle63"/>
	<circle cx="154.099" cy="298.425" r="4" fill="#0" id="circle64"/>
	<circle cx="154.099" cy="308.047" r="4" fill="#0" id="circle65"/>
	<circle cx="154.099" cy="317.668" r="4" fill="#0" id="circle66"/>
	<circle cx="154.099" cy="327.29" r="4" fill="#0" id="circle67"/>
	<circle cx="154.099" cy="336.912" r="4" fill="#0" id="circle68"/>
	<circle cx="154.099" cy="346.533" r="4" fill="#0" id="circle69"/>
	<circle cx="154.099" cy="356.155" r="4" fill="#0" id="circle70"/>
	<circle cx="154.099" cy="365.777" r="4" fill="#0" id="circle71"/>
	<circle cx="154.099" cy="375.399" r="4" fill="#0" id="circle72"/>
	<circle cx="156.023" cy="129.082" r="4" fill="#0" id="circle73"/>
	<circle cx="162.758" cy="136.78" r="4" fill="#0" id="circle74"/>
	<circle cx="163.721" cy="264.749" r="4" fill="#0" id="circle75"/>
	<circle cx="170.456" cy="143.515" r="4" fill="#0" id="circle76"/>
	<circle cx="173.342" cy="264.749" r="4" fill="#0" id="circle77"/>
	<circle cx="180.078" cy="143.515" r="4" fill="#0" id="circle78"/>
	<circle cx="182.964" cy="264.749" r="4" fill="#0" id="circle79"/>
	<circle cx="189.699" cy="143.515" r="4" fill="#0" id="circle80"/>
	<circle cx="192.586" cy="264.749" r="4" fill="#0" id="circle81"/>
	<circle cx="199.321" cy="143.515" r="4" fill="#0" id="circle82"/>
	<circle cx="202.208" cy="264.749" r="4" fill="#0" id="circle83"/>
	<circle cx="208.943" cy="143.515" r="4" fill="#0" id="circle84"/>
	<circle cx="210.867" cy="269.56" r="4" fill="#0" id="circle85"/>
	<circle cx="218.565" cy="143.515" r="4" fill="#0" id="circle86"/>
	<circle cx="220.489" cy="269.56" r="4" fill="#0" id="circle87"/>
	<circle cx="228.186" cy="143.515" r="4" fill="#0" id="circle88"/>
	<circle cx="230.111" cy="269.56" r="4" fill="#0" id="circle89"/>
	<circle cx="236.846" cy="148.326" r="4" fill="#0" id="circle90"/>
	<circle cx="239.732" cy="269.56" r="4" fill="#0" id="circle91"/>
	<circle cx="246.468" cy="148.326" r="4" fill="#0" id="circle92"/>
	<circle cx="249.354" cy="269.56" r="4" fill="#0" id="circle93"/>
	<circle cx="256.089" cy="148.326" r="4" fill="#0" id="circle94"/>
	<circle cx="258.976" cy="269.56" r="4" fill="#0" id="circle95"/>
	<circle cx="265.711" cy="148.326" r="4" fill="#0" id="circle96"/>
	<circle cx="268.597" cy="269.56" r="4" fill="#0" id="circle97"/>
	<circle cx="275.333" cy="148.326" r="4" fill="#0" id="circle98"/>
	<circle cx="278.219" cy="269.56" r="4" fill="#0" id="circle99"/>
	<circle cx="284.954" cy="148.326" r="4" fill="#0" id="circle100"/>
	<circle cx="287.841" cy="269.56" r="4" fill="#0" id="circle101"/>
	<circle cx="293.614" cy="277.257" r="4" fill="#0" id="circle102"/>
	<circle cx="294.576" cy="148.326" r="4" fill="#0" id="circle103"/>
	<circle cx="297.463" cy="286.879" r="4" fill="#0" id="circle104"/>
	<circle cx="297.463" cy="296.5" r="4" fill="#0" id="circle105"/>
	<circle cx="297.463" cy="306.122" r="4" fill="#0" id="circle106"/>
	<circle cx="297.463" cy="315.744" r="4" fill="#0" id="circle107"/>
	<circle cx="297.463" cy="325.366" r="4" fill="#0" id="circle108"/>
	<circle cx="297.463" cy="334.987" r="4" fill="#0" id="circle109"/>
	<circle cx="297.463" cy="344.609" r="4" fill="#0" id="circle110"/>
	<circle cx="297.463" cy="354.231" r="4" fill="#0" id="circle111"/>
	<circle cx="297.463" cy="363.853" r="4" fill="#0" id="circle112"/>
	<circle cx="297.463" cy="373.474" r="4" fill="#0" id="circle113"/>
	<circle cx="297.463" cy="383.096" r="4" fill="#0" id="circle114"/>
	<circle cx="298.425" cy="392.718" r="4" fill="#0" id="circle115"/>
	<circle cx="304.198" cy="148.326" r="4" fill="#0" id="circle116"/>
	<circle cx="306.122" cy="399.453" r="4" fill="#0" id="circle117"/>
	<circle cx="313.82" cy="148.326" r="4" fill="#0" id="circle118"/>
	<circle cx="314.782" cy="404.264" r="4" fill="#0" id="circle119"/>
	<circle cx="323.441" cy="148.326" r="4" fill="#0" id="circle120"/>
	<circle cx="324.403" cy="404.264" r="4" fill="#0" id="circle121"/>
	<circle cx="332.101" cy="153.137" r="4" fill="#0" id="circle122"/>
	<circle cx="334.025" cy="404.264" r="4" fill="#0" id="circle123"/>
	<circle cx="340.76" cy="157.948" r="4" fill="#0" id="circle124"/>
	<circle cx="343.647" cy="408.113" r="4" fill="#0" id="circle125"/>
	<circle cx="348.458" cy="163.721" r="4" fill="#0" id="circle126"/>
	<circle cx="353.269" cy="408.113" r="4" fill="#0" id="circle127"/>
	<circle cx="358.08" cy="167.569" r="4" fill="#0" id="circle128"/>
	<circle cx="360.966" cy="399.453" r="4" fill="#0" id="circle129"/>
	<circle cx="365.777" cy="389.831" r="4" fill="#0" id="circle130"/>
	<circle cx="366.739" cy="172.38" r="4" fill="#0" id="circle131"/>
	<circle cx="370.588" cy="375.399" r="4" fill="#0" id="circle132"/>
	<circle cx="375.399" cy="279.181" r="4" fill="#0" id="circle133"/>
	<circle cx="375.399" cy="288.803" r="4" fill="#0" id="circle134"/>
	<circle cx="375.399" cy="298.425" r="4" fill="#0" id="circle135"/>
	<circle cx="375.399" cy="308.047" r="4" fill="#0" id="circle136"/>
	<circle cx="375.399" cy="317.668" r="4" fill="#0" id="circle137"/>
	<circle cx="375.399" cy="327.29" r="4" fill="#0" id="circle138"/>
	<circle cx="375.399" cy="336.912" r="4" fill="#0" id="circle139"/>
	<circle cx="375.399" cy="346.533" r="4" fill="#0" id="circle140"/>
	<circle cx="375.399" cy="356.155" r="4" fill="#0" id="circle141"/>
	<circle cx="375.399" cy="365.777" r="4" fill="#0" id="circle142"/>
	<circle cx="376.361" cy="172.38" r="4" fill="#0" id="circle143"/>
	<circle cx="384.058" cy="179.115" r="4" fill="#0" id="circle144"/>
	<circle cx="385.02" cy="279.181" r="4" fill="#0" id="circle145"/>
	<circle cx="389.831" cy="186.813" r="4" fill="#0" id="circle146"/>
	<circle cx="389.831" cy="196.435" r="4" fill="#0" id="circle147"/>
	<circle cx="389.831" cy="206.056" r="4" fill="#0" id="circle148"/>
	<circle cx="389.831" cy="215.678" r="4" fill="#0" id="circle149"/>
	<circle cx="389.831" cy="225.3" r="4" fill="#0" id="circle150"/>
	<circle cx="389.831" cy="234.921" r="4" fill="#0" id="circle151"/>
	<circle cx="394.642" cy="279.181" r="4" fill="#0" id="circle152"/>
	<circle cx="398.491" cy="239.732" r="4" fill="#0" id="circle153"/>
	<circle cx="404.264" cy="279.181" r="4" fill="#0" id="circle154"/>
	<circle cx="408.113" cy="239.732" r="4" fill="#0" id="circle155"/>
	<circle cx="413.886" cy="279.181" r="4" fill="#0" id="circle156"/>
	<circle cx="417.734" cy="239.732" r="4" fill="#0" id="circle157"/>
	<circle cx="423.507" cy="279.181" r="4" fill="#0" id="circle158"/>
	<circle cx="427.356" cy="239.732" r="4" fill="#0" id="circle159"/>
	<circle cx="432.167" cy="283.992" r="4" fill="#0" id="circle160"/>
	<circle cx="436.978" cy="239.732" r="4" fill="#0" id="circle161"/>
	<circle cx="437.94" cy="291.69" r="4" fill="#0" id="circle162"/>
	<circle cx="441.789" cy="301.311" r="4" fill="#0" id="circle163"/>
	<circle cx="441.789" cy="310.933" r="4" fill="#0" id="circle164"/>
	<circle cx="441.789" cy="320.555" r="4" fill="#0" id="circle165"/>
	<circle cx="441.789" cy="330.177" r="4" fill="#0" id="circle166"/>
	<circle cx="442.751" cy="339.798" r="4" fill="#0" id="circle167"/>
	<circle cx="446.599" cy="239.732" r="4" fill="#0" id="circle168"/>
	<circle cx="446.599" cy="349.42" r="4" fill="#0" id="circle169"/>
	<circle cx="446.599" cy="359.042" r="4" fill="#0" id="circle170"/>
	<circle cx="447.562" cy="368.663" r="4" fill="#0" id="circle171"/>
	<circle cx="451.41" cy="378.285" r="4" fill="#0" id="circle172"/>
	<circle cx="452.372" cy="387.907" r="4" fill="#0" id="circle173"/>
	<circle cx="456.221" cy="239.732" r="4" fill="#0" id="circle174"/>
	<circle cx="457.183" cy="396.566" r="4" fill="#0" id="circle175"/>
	<circle cx="463.919" cy="404.264" r="4" fill="#0" id="circle176"/>
	<circle cx="465.843" cy="239.732" r="4" fill="#0" id="circle177"/>
	<circle cx="471.616" cy="410.999" r="4" fill="#0" id="circle178"/>
	<circle cx="475.465" cy="237.808" r="4" fill="#0" id="circle179"/>
	<circle cx="478.351" cy="418.696" r="4" fill="#0" id="circle180"/>
	<circle cx="483.162" cy="230.111" r="4" fill="#0" id="circle181"/>
	<circle cx="486.048" cy="425.432" r="4" fill="#0" id="circle182"/>
	<circle cx="490.859" cy="222.413" r="4" fill="#0" id="circle183"/>
	<circle cx="492.784" cy="433.129" r="4" fill="#0" id="circle184"/>
	<circle cx="498.557" cy="215.678" r="4" fill="#0" id="circle185"/>
	<circle cx="502.405" cy="433.129" r="4" fill="#0" id="circle186"/>
	<circle cx="504.33" cy="156.023" r="4" fill="#0" id="circle187"/>
	<circle cx="504.33" cy="165.645" r="4" fill="#0" id="circle188"/>
	<circle cx="504.33" cy="175.267" r="4" fill="#0" id="circle189"/>
	<circle cx="504.33" cy="184.888" r="4" fill="#0" id="circle190"/>
	<circle cx="504.33" cy="194.51" r="4" fill="#0" id="circle191"/>
	<circle cx="504.33" cy="204.132" r="4" fill="#0" id="circle192"/>
	<circle cx="509.141" cy="146.402" r="4" fill="#0" id="circle193"/>
	<circle cx="511.065" cy="437.94" r="4" fill="#0" id="circle194"/>
	<circle cx="513.952" cy="136.78" r="4" fill="#0" id="circle195"/>
	<circle cx="520.687" cy="437.94" r="4" fill="#0" id="circle196"/>
	<circle cx="521.649" cy="129.082" r="4" fill="#0" id="circle197"/>
	<circle cx="529.346" cy="433.129" r="4" fill="#0" id="circle198"/>
	<circle cx="531.271" cy="124.272" r="4" fill="#0" id="circle199"/>
	<circle cx="538.006" cy="35.7517" r="4" fill="#0" id="circle200"/>
	<circle cx="538.006" cy="45.3734" r="4" fill="#0" id="circle201"/>
	<circle cx="538.968" cy="428.318" r="4" fill="#0" id="circle202"/>
	<circle cx="539.93" cy="119.461" r="4" fill="#0" id="circle203"/>
	<circle cx="542.817" cy="26.13" r="4" fill="#0" id="circle204"/>
	<circle cx="542.817" cy="54.033" r="4" fill="#0" id="circle205"/>
	<circle cx="542.817" cy="63.6547" r="4" fill="#0" id="circle206"/>
	<circle cx="546.665" cy="421.583" r="4" fill="#0" id="circle207"/>
	<circle cx="547.628" cy="72.3143" r="4" fill="#0" id="circle208"/>
	<circle cx="547.628" cy="112.726" r="4" fill="#0" id="circle209"/>
	<circle cx="550.514" cy="18.4326" r="4" fill="#0" id="circle210"/>
	<circle cx="550.514" cy="81.936" r="4" fill="#0" id="circle211"/>
	<circle cx="552.438" cy="91.5577" r="4" fill="#0" id="circle212"/>
	<circle cx="552.438" cy="101.179" r="4" fill="#0" id="circle213"/>
	<circle cx="553.401" cy="409.075" r="4" fill="#0" id="circle214"/>
	<circle cx="555.325" cy="8.81086" r="4" fill="#0" id="circle215"/>
	<circle cx="558.211" cy="394.642" r="4" fill="#0" id="circle216"/>
	<circle cx="563.022" cy="385.02" r="4" fill="#0" id="circle217"/>
	<circle cx="563.984" cy="4" r="4" fill="#0" id="circle218"/>
	<circle cx="567.833" cy="370.588" r="4" fill="#0" id="circle219"/>
	<circle cx="572.644" cy="360.966" r="4" fill="#0" id="circle220"/>
	<circle cx="573.606" cy="4" r="4" fill="#0" id="circle221"/>
	<circle cx="577.455" cy="288.803" r="4" fill="#0" id="circle222"/>
	<circle cx="577.455" cy="298.425" r="4" fill="#0" id="circle223"/>
	<circle cx="577.455" cy="308.047" r="4" fill="#0" id="circle224"/>
	<circle cx="577.455" cy="317.668" r="4" fill="#0" id="circle225"/>
	<circle cx="577.455" cy="327.29" r="4" fill="#0" id="circle226"/>
	<circle cx="577.455" cy="336.912" r="4" fill="#0" id="circle227"/>
	<circle cx="577.455" cy="346.533" r="4" fill="#0" id="circle228"/>
	<circle cx="582.266" cy="8.81086" r="4" fill="#0" id="circle229"/>
	<circle cx="586.114" cy="283.992" r="4" fill="#0" id="circle230"/>
	<circle cx="587.077" cy="17.4704" r="4" fill="#0" id="circle231"/>
	<circle cx="587.077" cy="27.0921" r="4" fill="#0" id="circle232"/>
	<circle cx="587.077" cy="36.7139" r="4" fill="#0" id="circle233"/>
	<circle cx="591.887" cy="45.3734" r="4" fill="#0" id="circle234"/>
	<circle cx="591.887" cy="54.9952" r="4" fill="#0" id="circle235"/>
	<circle cx="591.887" cy="64.6169" r="4" fill="#0" id="circle236"/>
	<circle cx="594.774" cy="279.181" r="4" fill="#0" id="circle237"/>
	<circle cx="598.623" cy="72.3143" r="4" fill="#0" id="circle238"/>
	<circle cx="604.396" cy="279.181" r="4" fill="#0" id="circle239"/>
	<circle cx="606.32" cy="79.0495" r="4" fill="#0" id="circle240"/>
	<circle cx="610.169" cy="88.6712" r="4" fill="#0" id="circle241"/>
	<circle cx="611.131" cy="98.2929" r="4" fill="#0" id="circle242"/>
	<circle cx="611.131" cy="107.915" r="4" fill="#0" id="circle243"/>
	<circle cx="611.131" cy="117.536" r="4" fill="#0" id="circle244"/>
	<circle cx="614.017" cy="279.181" r="4" fill="#0" id="circle245"/>
	<circle cx="614.98" cy="127.158" r="4" fill="#0" id="circle246"/>
	<circle cx="619.79" cy="135.818" r="4" fill="#0" id="circle247"/>
	<circle cx="622.677" cy="283.992" r="4" fill="#0" id="circle248"/>
	<circle cx="623.639" cy="145.439" r="4" fill="#0" id="circle249"/>
	<circle cx="628.45" cy="154.099" r="4" fill="#0" id="circle250"/>
	<circle cx="631.337" cy="288.803" r="4" fill="#0" id="circle251"/>
	<circle cx="632.299" cy="163.721" r="4" fill="#0" id="circle252"/>
	<circle cx="635.185" cy="173.342" r="4" fill="#0" id="circle253"/>
	<circle cx="639.034" cy="294.576" r="4" fill="#0" id="circle254"/>
	<circle cx="639.996" cy="182.002" r="4" fill="#0" id="circle255"/>
	<circle cx="639.996" cy="191.624" r="4" fill="#0" id="circle256"/>
	<circle cx="644.807" cy="200.283" r="4" fill="#0" id="circle257"/>
	<circle cx="644.807" cy="209.905" r="4" fill="#0" id="circle258"/>
	<circle cx="645.769" cy="302.274" r="4" fill="#0" id="circle259"/>
	<circle cx="649.618" cy="218.565" r="4" fill="#0" id="circle260"/>
	<circle cx="653.467" cy="308.047" r="4" fill="#0" id="circle261"/>
	<circle cx="653.467" cy="317.668" r="4" fill="#0" id="circle262"/>
	<circle cx="656.353" cy="327.29" r="4" fill="#0" id="circle263"/>
	<circle cx="657.315" cy="225.3" r="4" fill="#0" id="circle264"/>
	<circle cx="661.164" cy="335.95" r="4" fill="#0" id="circle265"/>
	<circle cx="666.937" cy="225.3" r="4" fill="#0" id="circle266"/>
	<circle cx="667.899" cy="343.647" r="4" fill="#0" id="circle267"/>
	<circle cx="676.559" cy="225.3" r="4" fill="#0" id="circle268"/>
	<circle cx="677.521" cy="346.533" r="4" fill="#0" id="circle269"/>
	<circle cx="683.294" cy="217.602" r="4" fill="#0" id="circle270"/>
	<circle cx="687.143" cy="346.533" r="4" fill="#0" id="circle271"/>
	<circle cx="688.105" cy="207.981" r="4" fill="#0" id="circle272"/>
	<circle cx="695.802" cy="201.245" r="4" fill="#0" id="circle273"/>
	<circle cx="696.764" cy="346.533" r="4" fill="#0" id="circle274"/>
	<circle cx="699.651" cy="191.624" r="4" fill="#0" id="circle275"/>
	<circle cx="706.386" cy="175.267" r="4" fill="#0" id="circle276"/>
	<circle cx="706.386" cy="346.533" r="4" fill="#0" id="circle277"/>
	<circle cx="711.197" cy="160.834" r="4" fill="#0" id="circle278"/>
	<circle cx="716.008" cy="151.212" r="4" fill="#0" id="circle279"/>
	<circle cx="716.008" cy="346.533" r="4" fill="#0" id="circle280"/>
	<circle cx="723.705" cy="143.515" r="4" fill="#0" id="circle281"/>
	<circle cx="725.629" cy="346.533" r="4" fill="#0" id="circle282"/>
	<circle cx="728.516" cy="133.893" r="4" fill="#0" id="circle283"/>
	<circle cx="733.327" cy="124.272" r="4" fill="#0" id="circle284"/>
	<circle cx="735.251" cy="346.533" r="4" fill="#0" id="circle285"/>
	<circle cx="742.949" cy="119.461" r="4" fill="#0" id="circle286"/>
	<circle cx="744.873" cy="346.533" r="4" fill="#0" id="circle287"/>
	<circle cx="752.57" cy="114.65" r="4" fill="#0" id="circle288"/>
	<circle cx="754.495" cy="346.533" r="4" fill="#0" id="circle289"/>
	<circle cx="762.192" cy="114.65" r="4" fill="#0" id="circle290"/>
	<circle cx="763.154" cy="351.344" r="4" fill="#0" id="circle291"/>
	<circle cx="769.889" cy="359.042" r="4" fill="#0" id="circle292"/>
	<circle cx="771.814" cy="114.65" r="4" fill="#0" id="circle293"/>
	<circle cx="777.587" cy="365.777" r="4" fill="#0" id="circle294"/>
	<circle cx="778.549" cy="93.4821" r="4" fill="#0" id="circle295"/>
	<circle cx="778.549" cy="103.104" r="4" fill="#0" id="circle296"/>
	<circle cx="783.36" cy="83.8603" r="4" fill="#0" id="circle297"/>
	<circle cx="783.36" cy="373.474" r="4" fill="#0" id="circle298"/>
	<circle cx="788.171" cy="382.134" r="4" fill="#0" id="circle299"/>
	<circle cx="792.982" cy="79.0495" r="4" fill="#0" id="circle300"/>
	<circle cx="795.868" cy="388.869" r="4" fill="#0" id="circle301"/>
	<circle cx="802.603" cy="76.1629" r="4" fill="#0" id="circle302"/>
	<circle cx="802.603" cy="396.566" r="4" fill="#0" id="circle303"/>
	<circle cx="807.414" cy="405.226" r="4" fill="#0" id="circle304"/>
	<circle cx="812.225" cy="76.1629" r="4" fill="#0" id="circle305"/>
	<circle cx="812.225" cy="413.886" r="4" fill="#0" id="circle306"/>
	<circle cx="817.998" cy="421.583" r="4" fill="#0" id="circle307"/>
	<circle cx="821.847" cy="78.0873" r="4" fill="#0" id="circle308"/>
	<circle cx="827.62" cy="425.432" r="4" fill="#0" id="circle309"/>
	<circle cx="830.506" cy="82.8982" r="4" fill="#0" id="circle310"/>
	<circle cx="836.279" cy="430.242" r="4" fill="#0" id="circle311"/>
	<circle cx="837.242" cy="90.5955" r="4" fill="#0" id="circle312"/>
	<circle cx="844.939" cy="96.3686" r="4" fill="#0" id="circle313"/>
	<circle cx="845.901" cy="433.129" r="4" fill="#0" id="circle314"/>
	<circle cx="848.788" cy="105.99" r="4" fill="#0" id="circle315"/>
	<circle cx="855.523" cy="433.129" r="4" fill="#0" id="circle316"/>
	<circle cx="856.485" cy="112.726" r="4" fill="#0" id="circle317"/>
	<circle cx="865.145" cy="117.536" r="4" fill="#0" id="circle318"/>
	<circle cx="865.145" cy="433.129" r="4" fill="#0" id="circle319"/>
	<circle cx="872.842" cy="124.272" r="4" fill="#0" id="circle320"/>
	<circle cx="873.804" cy="437.94" r="4" fill="#0" id="circle321"/>
	<circle cx="882.464" cy="124.272" r="4" fill="#0" id="circle322"/>
	<circle cx="883.426" cy="437.94" r="4" fill="#0" id="circle323"/>
	<circle cx="892.085" cy="124.272" r="4" fill="#0" id="circle324"/>
	<circle cx="893.048" cy="437.94" r="4" fill="#0" id="circle325"/>
	<circle cx="901.707" cy="124.272" r="4" fill="#0" id="circle326"/>
	<circle cx="902.669" cy="437.94" r="4" fill="#0" id="circle327"/>
	<circle cx="911.329" cy="124.272" r="4" fill="#0" id="circle328"/>
	<circle cx="912.291" cy="437.94" r="4" fill="#0" id="circle329"/>
	<circle cx="920.951" cy="124.272" r="4" fill="#0" id="circle330"/>
	<circle cx="921.913" cy="437.94" r="4" fill="#0" id="circle331"/>
	<circle cx="930.572" cy="124.272" r="4" fill="#0" id="circle332"/>
	<circle cx="931.534" cy="437.94" r="4" fill="#0" id="circle333"/>
	<circle cx="937.307" cy="131.969" r="4" fill="#0" id="circle334"/>
	<circle cx="941.156" cy="436.016" r="4" fill="#0" id="circle335"/>
	<circle cx="943.081" cy="139.666" r="4" fill="#0" id="circle336"/>
	<circle cx="943.081" cy="149.288" r="4" fill="#0" id="circle337"/>
	<circle cx="947.891" cy="157.948" r="4" fill="#0" id="circle338"/>
	<circle cx="947.891" cy="167.569" r="4" fill="#0" id="circle339"/>
	<circle cx="947.891" cy="177.191" r="4" fill="#0" id="circle340"/>
	<circle cx="947.891" cy="186.813" r="4" fill="#0" id="circle341"/>
	<circle cx="947.891" cy="196.435" r="4" fill="#0" id="circle342"/>
	<circle cx="950.778" cy="431.205" r="4" fill="#0" id="circle343"/>
	<circle cx="952.702" cy="205.094" r="4" fill="#0" id="circle344"/>
	<circle cx="952.702" cy="214.716" r="4" fill="#0" id="circle345"/>
	<circle cx="952.702" cy="224.338" r="4" fill="#0" id="circle346"/>
	<circle cx="952.702" cy="233.959" r="4" fill="#0" id="circle347"/>
	<circle cx="957.513" cy="242.619" r="4" fill="#0" id="circle348"/>
	<circle cx="957.513" cy="252.241" r="4" fill="#0" id="circle349"/>
	<circle cx="957.513" cy="423.507" r="4" fill="#0" id="circle350"/>
	<circle cx="964.248" cy="259.938" r="4" fill="#0" id="circle351"/>
	<circle cx="965.21" cy="416.772" r="4" fill="#0" id="circle352"/>
	<circle cx="970.021" cy="407.15" r="4" fill="#0" id="circle353"/>
	<circle cx="971.946" cy="266.673" r="4" fill="#0" id="circle354"/>
	<circle cx="974.832" cy="397.529" r="4" fill="#0" id="circle355"/>
	<circle cx="978.681" cy="274.371" r="4" fill="#0" id="circle356"/>
	<circle cx="979.643" cy="387.907" r="4" fill="#0" id="circle357"/>
	<circle cx="984.454" cy="378.285" r="4" fill="#0" id="circle358"/>
	<circle cx="986.378" cy="281.106" r="4" fill="#0" id="circle359"/>
	<circle cx="989.265" cy="368.663" r="4" fill="#0" id="circle360"/>
	<circle cx="991.189" cy="289.765" r="4" fill="#0" id="circle361"/>
	<circle cx="991.189" cy="351.344" r="4" fill="#0" id="circle362"/>
	<circle cx="996" cy="298.425" r="4" fill="#0" id="circle363"/>
	<circle cx="996" cy="308.047" r="4" fill="#0" id="circle364"/>
	<circle cx="996" cy="317.668" r="4" fill="#0" id="circle365"/>
	<circle cx="996" cy="327.29" r="4" fill="#0" id="circle366"/>
	<circle cx="996" cy="336.912" r="4" fill="#0" id="circle367"/>
	</g>
</svg>