<?xml version="1.0" encoding="UTF-8" standalone="no"?>
<!-- Created with CurveBenchmark -->
<svg
	xmlns:dc="http://purl.org/dc/elements/1.1/"
	xmlns:cc="http://creativecommons.org/ns#"
	xmlns:rdf="http://www.w3.org/1999/02/22-rdf-syntax-ns#"
	xmlns:svg="http://www.w3.org/2000/svg"
	xmlns="http://www.w3.org/2000/svg"
	xmlns:sodipodi="http://sodipodi.sourceforge.net/DTD/sodipodi-0.dtd"
	xmlns:inkscape="http://www.inkscape.org/namespaces/inkscape"
	width="1000"
	height="1000"
	id="svg2"
	version="1.1"
	sodipodi:docname="manifold/fitconnect-cthand06.png.txt">
<defs
	id="defs4" />
<metadata
	id="metadata7">
	<rdf:RDF>
		<cc:Work
			rdf:about="">
			<dc:format>image/svg+xml</dc:format>
			<dc:type
				rdf:resource="http://purl.org/dc/dcmitype/StillImage" />
			<dc:title></dc:title>
		</cc:Work>
	</rdf:RDF>
</metadata>
<g
	inkscape:label="Layer 1"
	inkscape:groupmode="layer"
	id="layer1">
	<path style="fill:none;stroke:red;stroke-width:1px;stroke-linecap:butt;stroke-linejoin:miter;stroke-opacity:1" d="M 4,287.205 4,302.852 z" id="boundary" inkscape:connector-curvature="0" />
	<path style="fill:none;stroke:red;stroke-width:1px;stroke-linecap:butt;stroke-linejoin:miter;stroke-opacity:1" d="M 4,287.205 11.8233,271.558 z" id="boundary" inkscape:connector-curvature="0" />
	<path style="fill:none;stroke:red;stroke-width:1px;stroke-linecap:butt;stroke-linejoin:miter;stroke-opacity:1" d="M 4,302.852 4,318.498 z" id="boundary" inkscape:connector-curvature="0" />
	<path style="fill:none;stroke:red;stroke-width:1px;stroke-linecap:butt;stroke-linejoin:miter;stroke-opacity:1" d="M 4,318.498 11.8233,332.58 z" id="boundary" inkscape:connector-curvature="0" />
	<path style="fill:none;stroke:red;stroke-width:1px;stroke-linecap:butt;stroke-linejoin:miter;stroke-opacity:1" d="M 11.8233,271.558 19.6467,248.088 z" id="boundary" inkscape:connector-curvature="0" />
	<path style="fill:none;stroke:red;stroke-width:1px;stroke-linecap:butt;stroke-linejoin:miter;stroke-opacity:1" d="M 11.8233,332.58 11.8233,348.227 z" id="boundary" inkscape:connector-curvature="0" />
	<path style="fill:none;stroke:red;stroke-width:1px;stroke-linecap:butt;stroke-linejoin:miter;stroke-opacity:1" d="M 11.8233,348.227 11.8233,363.874 z" id="boundary" inkscape:connector-curvature="0" />
	<path style="fill:none;stroke:red;stroke-width:1px;stroke-linecap:butt;stroke-linejoin:miter;stroke-opacity:1" d="M 11.8233,363.874 19.6467,377.956 z" id="boundary" inkscape:connector-curvature="0" />
	<path style="fill:none;stroke:red;stroke-width:1px;stroke-linecap:butt;stroke-linejoin:miter;stroke-opacity:1" d="M 19.6467,248.088 32.164,235.571 z" id="boundary" inkscape:connector-curvature="0" />
	<path style="fill:none;stroke:red;stroke-width:1px;stroke-linecap:butt;stroke-linejoin:miter;stroke-opacity:1" d="M 19.6467,377.956 19.6467,393.603 z" id="boundary" inkscape:connector-curvature="0" />
	<path style="fill:none;stroke:red;stroke-width:1px;stroke-linecap:butt;stroke-linejoin:miter;stroke-opacity:1" d="M 19.6467,393.603 19.6467,409.249 z" id="boundary" inkscape:connector-curvature="0" />
	<path style="fill:none;stroke:red;stroke-width:1px;stroke-linecap:butt;stroke-linejoin:miter;stroke-opacity:1" d="M 19.6467,409.249 24.3407,424.896 z" id="boundary" inkscape:connector-curvature="0" />
	<path style="fill:none;stroke:red;stroke-width:1px;stroke-linecap:butt;stroke-linejoin:miter;stroke-opacity:1" d="M 24.3407,424.896 32.164,438.978 z" id="boundary" inkscape:connector-curvature="0" />
	<path style="fill:none;stroke:red;stroke-width:1px;stroke-linecap:butt;stroke-linejoin:miter;stroke-opacity:1" d="M 32.164,235.571 46.2461,243.394 z" id="boundary" inkscape:connector-curvature="0" />
	<path style="fill:none;stroke:red;stroke-width:1px;stroke-linecap:butt;stroke-linejoin:miter;stroke-opacity:1" d="M 32.164,438.978 35.2934,454.625 z" id="boundary" inkscape:connector-curvature="0" />
	<path style="fill:none;stroke:red;stroke-width:1px;stroke-linecap:butt;stroke-linejoin:miter;stroke-opacity:1" d="M 35.2934,454.625 44.6814,467.142 z" id="boundary" inkscape:connector-curvature="0" />
	<path style="fill:none;stroke:red;stroke-width:1px;stroke-linecap:butt;stroke-linejoin:miter;stroke-opacity:1" d="M 44.6814,467.142 50.9401,482.789 z" id="boundary" inkscape:connector-curvature="0" />
	<path style="fill:none;stroke:red;stroke-width:1px;stroke-linecap:butt;stroke-linejoin:miter;stroke-opacity:1" d="M 46.2461,243.394 52.5047,259.041 z" id="boundary" inkscape:connector-curvature="0" />
	<path style="fill:none;stroke:red;stroke-width:1px;stroke-linecap:butt;stroke-linejoin:miter;stroke-opacity:1" d="M 50.9401,482.789 50.9401,498.435 z" id="boundary" inkscape:connector-curvature="0" />
	<path style="fill:none;stroke:red;stroke-width:1px;stroke-linecap:butt;stroke-linejoin:miter;stroke-opacity:1" d="M 50.9401,498.435 50.9401,514.082 z" id="boundary" inkscape:connector-curvature="0" />
	<path style="fill:none;stroke:red;stroke-width:1px;stroke-linecap:butt;stroke-linejoin:miter;stroke-opacity:1" d="M 50.9401,514.082 58.7634,528.164 z" id="boundary" inkscape:connector-curvature="0" />
	<path style="fill:none;stroke:red;stroke-width:1px;stroke-linecap:butt;stroke-linejoin:miter;stroke-opacity:1" d="M 52.5047,259.041 65.0221,268.429 z" id="boundary" inkscape:connector-curvature="0" />
	<path style="fill:none;stroke:red;stroke-width:1px;stroke-linecap:butt;stroke-linejoin:miter;stroke-opacity:1" d="M 58.7634,528.164 58.7634,543.811 z" id="boundary" inkscape:connector-curvature="0" />
	<path style="fill:none;stroke:red;stroke-width:1px;stroke-linecap:butt;stroke-linejoin:miter;stroke-opacity:1" d="M 58.7634,543.811 66.5868,557.893 z" id="boundary" inkscape:connector-curvature="0" />
	<path style="fill:none;stroke:red;stroke-width:1px;stroke-linecap:butt;stroke-linejoin:miter;stroke-opacity:1" d="M 65.0221,268.429 68.1514,284.076 z" id="boundary" inkscape:connector-curvature="0" />
	<path style="fill:none;stroke:red;stroke-width:1px;stroke-linecap:butt;stroke-linejoin:miter;stroke-opacity:1" d="M 66.5868,557.893 66.5868,573.539 z" id="boundary" inkscape:connector-curvature="0" />
	<path style="fill:none;stroke:red;stroke-width:1px;stroke-linecap:butt;stroke-linejoin:miter;stroke-opacity:1" d="M 66.5868,573.539 71.2808,589.186 z" id="boundary" inkscape:connector-curvature="0" />
	<path style="fill:none;stroke:red;stroke-width:1px;stroke-linecap:butt;stroke-linejoin:miter;stroke-opacity:1" d="M 68.1514,284.076 71.2808,299.722 z" id="boundary" inkscape:connector-curvature="0" />
	<path style="fill:none;stroke:red;stroke-width:1px;stroke-linecap:butt;stroke-linejoin:miter;stroke-opacity:1" d="M 71.2808,299.722 75.9748,315.369 z" id="boundary" inkscape:connector-curvature="0" />
	<path style="fill:none;stroke:red;stroke-width:1px;stroke-linecap:butt;stroke-linejoin:miter;stroke-opacity:1" d="M 71.2808,589.186 74.4101,604.833 z" id="boundary" inkscape:connector-curvature="0" />
	<path style="fill:none;stroke:red;stroke-width:1px;stroke-linecap:butt;stroke-linejoin:miter;stroke-opacity:1" d="M 74.4101,604.833 74.4101,620.479 z" id="boundary" inkscape:connector-curvature="0" />
	<path style="fill:none;stroke:red;stroke-width:1px;stroke-linecap:butt;stroke-linejoin:miter;stroke-opacity:1" d="M 74.4101,620.479 82.2334,634.562 z" id="boundary" inkscape:connector-curvature="0" />
	<path style="fill:none;stroke:red;stroke-width:1px;stroke-linecap:butt;stroke-linejoin:miter;stroke-opacity:1" d="M 75.9748,315.369 83.7981,329.451 z" id="boundary" inkscape:connector-curvature="0" />
	<path style="fill:none;stroke:red;stroke-width:1px;stroke-linecap:butt;stroke-linejoin:miter;stroke-opacity:1" d="M 82.2334,634.562 82.2334,650.208 z" id="boundary" inkscape:connector-curvature="0" />
	<path style="fill:none;stroke:red;stroke-width:1px;stroke-linecap:butt;stroke-linejoin:miter;stroke-opacity:1" d="M 82.2334,650.208 82.2334,665.855 z" id="boundary" inkscape:connector-curvature="0" />
	<path style="fill:none;stroke:red;stroke-width:1px;stroke-linecap:butt;stroke-linejoin:miter;stroke-opacity:1" d="M 82.2334,665.855 82.2334,681.502 z" id="boundary" inkscape:connector-curvature="0" />
	<path style="fill:none;stroke:red;stroke-width:1px;stroke-linecap:butt;stroke-linejoin:miter;stroke-opacity:1" d="M 82.2334,681.502 82.2334,697.148 z" id="boundary" inkscape:connector-curvature="0" />
	<path style="fill:none;stroke:red;stroke-width:1px;stroke-linecap:butt;stroke-linejoin:miter;stroke-opacity:1" d="M 82.2334,697.148 82.2334,712.795 z" id="boundary" inkscape:connector-curvature="0" />
	<path style="fill:none;stroke:red;stroke-width:1px;stroke-linecap:butt;stroke-linejoin:miter;stroke-opacity:1" d="M 82.2334,712.795 82.2334,728.442 z" id="boundary" inkscape:connector-curvature="0" />
	<path style="fill:none;stroke:red;stroke-width:1px;stroke-linecap:butt;stroke-linejoin:miter;stroke-opacity:1" d="M 82.2334,728.442 90.0568,742.524 z" id="boundary" inkscape:connector-curvature="0" />
	<path style="fill:none;stroke:red;stroke-width:1px;stroke-linecap:butt;stroke-linejoin:miter;stroke-opacity:1" d="M 83.7981,329.451 83.7981,345.098 z" id="boundary" inkscape:connector-curvature="0" />
	<path style="fill:none;stroke:red;stroke-width:1px;stroke-linecap:butt;stroke-linejoin:miter;stroke-opacity:1" d="M 83.7981,345.098 83.7981,360.744 z" id="boundary" inkscape:connector-curvature="0" />
	<path style="fill:none;stroke:red;stroke-width:1px;stroke-linecap:butt;stroke-linejoin:miter;stroke-opacity:1" d="M 83.7981,360.744 91.6215,374.826 z" id="boundary" inkscape:connector-curvature="0" />
	<path style="fill:none;stroke:red;stroke-width:1px;stroke-linecap:butt;stroke-linejoin:miter;stroke-opacity:1" d="M 90.0568,742.524 90.0568,758.17 z" id="boundary" inkscape:connector-curvature="0" />
	<path style="fill:none;stroke:red;stroke-width:1px;stroke-linecap:butt;stroke-linejoin:miter;stroke-opacity:1" d="M 90.0568,758.17 91.6215,773.817 z" id="boundary" inkscape:connector-curvature="0" />
	<path style="fill:none;stroke:red;stroke-width:1px;stroke-linecap:butt;stroke-linejoin:miter;stroke-opacity:1" d="M 91.6215,374.826 99.4448,388.909 z" id="boundary" inkscape:connector-curvature="0" />
	<path style="fill:none;stroke:red;stroke-width:1px;stroke-linecap:butt;stroke-linejoin:miter;stroke-opacity:1" d="M 91.6215,773.817 97.8801,789.464 z" id="boundary" inkscape:connector-curvature="0" />
	<path style="fill:none;stroke:red;stroke-width:1px;stroke-linecap:butt;stroke-linejoin:miter;stroke-opacity:1" d="M 97.8801,789.464 99.4448,805.11 z" id="boundary" inkscape:connector-curvature="0" />
	<path style="fill:none;stroke:red;stroke-width:1px;stroke-linecap:butt;stroke-linejoin:miter;stroke-opacity:1" d="M 99.4448,388.909 105.703,404.555 z" id="boundary" inkscape:connector-curvature="0" />
	<path style="fill:none;stroke:red;stroke-width:1px;stroke-linecap:butt;stroke-linejoin:miter;stroke-opacity:1" d="M 99.4448,805.11 107.268,819.192 z" id="boundary" inkscape:connector-curvature="0" />
	<path style="fill:none;stroke:red;stroke-width:1px;stroke-linecap:butt;stroke-linejoin:miter;stroke-opacity:1" d="M 105.703,404.555 107.268,420.202 z" id="boundary" inkscape:connector-curvature="0" />
	<path style="fill:none;stroke:red;stroke-width:1px;stroke-linecap:butt;stroke-linejoin:miter;stroke-opacity:1" d="M 107.268,420.202 113.527,435.849 z" id="boundary" inkscape:connector-curvature="0" />
	<path style="fill:none;stroke:red;stroke-width:1px;stroke-linecap:butt;stroke-linejoin:miter;stroke-opacity:1" d="M 107.268,819.192 113.527,834.839 z" id="boundary" inkscape:connector-curvature="0" />
	<path style="fill:none;stroke:red;stroke-width:1px;stroke-linecap:butt;stroke-linejoin:miter;stroke-opacity:1" d="M 113.527,435.849 121.35,449.931 z" id="boundary" inkscape:connector-curvature="0" />
	<path style="fill:none;stroke:red;stroke-width:1px;stroke-linecap:butt;stroke-linejoin:miter;stroke-opacity:1" d="M 113.527,834.839 113.527,850.486 z" id="boundary" inkscape:connector-curvature="0" />
	<path style="fill:none;stroke:red;stroke-width:1px;stroke-linecap:butt;stroke-linejoin:miter;stroke-opacity:1" d="M 113.527,850.486 121.35,864.568 z" id="boundary" inkscape:connector-curvature="0" />
	<path style="fill:none;stroke:red;stroke-width:1px;stroke-linecap:butt;stroke-linejoin:miter;stroke-opacity:1" d="M 121.35,130.738 121.35,146.385 z" id="boundary" inkscape:connector-curvature="0" />
	<path style="fill:none;stroke:red;stroke-width:1px;stroke-linecap:butt;stroke-linejoin:miter;stroke-opacity:1" d="M 121.35,130.738 129.174,115.091 z" id="boundary" inkscape:connector-curvature="0" />
	<path style="fill:none;stroke:red;stroke-width:1px;stroke-linecap:butt;stroke-linejoin:miter;stroke-opacity:1" d="M 121.35,146.385 121.35,162.032 z" id="boundary" inkscape:connector-curvature="0" />
	<path style="fill:none;stroke:red;stroke-width:1px;stroke-linecap:butt;stroke-linejoin:miter;stroke-opacity:1" d="M 121.35,162.032 121.35,177.678 z" id="boundary" inkscape:connector-curvature="0" />
	<path style="fill:none;stroke:red;stroke-width:1px;stroke-linecap:butt;stroke-linejoin:miter;stroke-opacity:1" d="M 121.35,177.678 121.35,193.325 z" id="boundary" inkscape:connector-curvature="0" />
	<path style="fill:none;stroke:red;stroke-width:1px;stroke-linecap:butt;stroke-linejoin:miter;stroke-opacity:1" d="M 121.35,193.325 121.35,208.972 z" id="boundary" inkscape:connector-curvature="0" />
	<path style="fill:none;stroke:red;stroke-width:1px;stroke-linecap:butt;stroke-linejoin:miter;stroke-opacity:1" d="M 121.35,208.972 121.35,224.618 z" id="boundary" inkscape:connector-curvature="0" />
	<path style="fill:none;stroke:red;stroke-width:1px;stroke-linecap:butt;stroke-linejoin:miter;stroke-opacity:1" d="M 121.35,224.618 129.174,238.7 z" id="boundary" inkscape:connector-curvature="0" />
	<path style="fill:none;stroke:red;stroke-width:1px;stroke-linecap:butt;stroke-linejoin:miter;stroke-opacity:1" d="M 121.35,449.931 127.609,465.577 z" id="boundary" inkscape:connector-curvature="0" />
	<path style="fill:none;stroke:red;stroke-width:1px;stroke-linecap:butt;stroke-linejoin:miter;stroke-opacity:1" d="M 121.35,864.568 129.174,878.65 z" id="boundary" inkscape:connector-curvature="0" />
	<path style="fill:none;stroke:red;stroke-width:1px;stroke-linecap:butt;stroke-linejoin:miter;stroke-opacity:1" d="M 127.609,465.577 138.562,478.095 z" id="boundary" inkscape:connector-curvature="0" />
	<path style="fill:none;stroke:red;stroke-width:1px;stroke-linecap:butt;stroke-linejoin:miter;stroke-opacity:1" d="M 129.174,115.091 141.691,102.574 z" id="boundary" inkscape:connector-curvature="0" />
	<path style="fill:none;stroke:red;stroke-width:1px;stroke-linecap:butt;stroke-linejoin:miter;stroke-opacity:1" d="M 129.174,238.7 129.174,254.347 z" id="boundary" inkscape:connector-curvature="0" />
	<path style="fill:none;stroke:red;stroke-width:1px;stroke-linecap:butt;stroke-linejoin:miter;stroke-opacity:1" d="M 129.174,254.347 129.174,269.994 z" id="boundary" inkscape:connector-curvature="0" />
	<path style="fill:none;stroke:red;stroke-width:1px;stroke-linecap:butt;stroke-linejoin:miter;stroke-opacity:1" d="M 129.174,269.994 129.174,285.64 z" id="boundary" inkscape:connector-curvature="0" />
	<path style="fill:none;stroke:red;stroke-width:1px;stroke-linecap:butt;stroke-linejoin:miter;stroke-opacity:1" d="M 129.174,285.64 129.174,301.287 z" id="boundary" inkscape:connector-curvature="0" />
	<path style="fill:none;stroke:red;stroke-width:1px;stroke-linecap:butt;stroke-linejoin:miter;stroke-opacity:1" d="M 129.174,301.287 129.174,316.934 z" id="boundary" inkscape:connector-curvature="0" />
	<path style="fill:none;stroke:red;stroke-width:1px;stroke-linecap:butt;stroke-linejoin:miter;stroke-opacity:1" d="M 129.174,316.934 129.174,332.58 z" id="boundary" inkscape:connector-curvature="0" />
	<path style="fill:none;stroke:red;stroke-width:1px;stroke-linecap:butt;stroke-linejoin:miter;stroke-opacity:1" d="M 129.174,332.58 129.174,348.227 z" id="boundary" inkscape:connector-curvature="0" />
	<path style="fill:none;stroke:red;stroke-width:1px;stroke-linecap:butt;stroke-linejoin:miter;stroke-opacity:1" d="M 129.174,348.227 136.997,362.309 z" id="boundary" inkscape:connector-curvature="0" />
	<path style="fill:none;stroke:red;stroke-width:1px;stroke-linecap:butt;stroke-linejoin:miter;stroke-opacity:1" d="M 129.174,878.65 136.997,892.732 z" id="boundary" inkscape:connector-curvature="0" />
	<path style="fill:none;stroke:red;stroke-width:1px;stroke-linecap:butt;stroke-linejoin:miter;stroke-opacity:1" d="M 129.174,991.306 136.997,975.659 z" id="boundary" inkscape:connector-curvature="0" />
	<path style="fill:none;stroke:red;stroke-width:1px;stroke-linecap:butt;stroke-linejoin:miter;stroke-opacity:1" d="M 129.174,991.306 144.82,996 z" id="boundary" inkscape:connector-curvature="0" />
	<path style="fill:none;stroke:red;stroke-width:1px;stroke-linecap:butt;stroke-linejoin:miter;stroke-opacity:1" d="M 136.997,362.309 136.997,377.956 z" id="boundary" inkscape:connector-curvature="0" />
	<path style="fill:none;stroke:red;stroke-width:1px;stroke-linecap:butt;stroke-linejoin:miter;stroke-opacity:1" d="M 136.997,377.956 144.82,392.038 z" id="boundary" inkscape:connector-curvature="0" />
	<path style="fill:none;stroke:red;stroke-width:1px;stroke-linecap:butt;stroke-linejoin:miter;stroke-opacity:1" d="M 136.997,892.732 144.82,906.814 z" id="boundary" inkscape:connector-curvature="0" />
	<path style="fill:none;stroke:red;stroke-width:1px;stroke-linecap:butt;stroke-linejoin:miter;stroke-opacity:1" d="M 136.997,975.659 144.82,960.013 z" id="boundary" inkscape:connector-curvature="0" />
	<path style="fill:none;stroke:red;stroke-width:1px;stroke-linecap:butt;stroke-linejoin:miter;stroke-opacity:1" d="M 138.562,478.095 152.644,470.271 z" id="boundary" inkscape:connector-curvature="0" />
	<path style="fill:none;stroke:red;stroke-width:1px;stroke-linecap:butt;stroke-linejoin:miter;stroke-opacity:1" d="M 141.691,102.574 152.644,75.9748 z" id="boundary" inkscape:connector-curvature="0" />
	<path style="fill:none;stroke:red;stroke-width:1px;stroke-linecap:butt;stroke-linejoin:miter;stroke-opacity:1" d="M 144.82,392.038 147.95,407.685 z" id="boundary" inkscape:connector-curvature="0" />
	<path style="fill:none;stroke:red;stroke-width:1px;stroke-linecap:butt;stroke-linejoin:miter;stroke-opacity:1" d="M 144.82,906.814 152.644,920.896 z" id="boundary" inkscape:connector-curvature="0" />
	<path style="fill:none;stroke:red;stroke-width:1px;stroke-linecap:butt;stroke-linejoin:miter;stroke-opacity:1" d="M 144.82,944.366 144.82,960.013 z" id="boundary" inkscape:connector-curvature="0" />
	<path style="fill:none;stroke:red;stroke-width:1px;stroke-linecap:butt;stroke-linejoin:miter;stroke-opacity:1" d="M 144.82,944.366 152.644,920.896 z" id="boundary" inkscape:connector-curvature="0" />
	<path style="fill:none;stroke:red;stroke-width:1px;stroke-linecap:butt;stroke-linejoin:miter;stroke-opacity:1" d="M 144.82,996 160.467,996 z" id="boundary" inkscape:connector-curvature="0" />
	<path style="fill:none;stroke:red;stroke-width:1px;stroke-linecap:butt;stroke-linejoin:miter;stroke-opacity:1" d="M 147.95,407.685 152.644,423.331 z" id="boundary" inkscape:connector-curvature="0" />
	<path style="fill:none;stroke:red;stroke-width:1px;stroke-linecap:butt;stroke-linejoin:miter;stroke-opacity:1" d="M 152.644,75.9748 168.29,71.2808 z" id="boundary" inkscape:connector-curvature="0" />
	<path style="fill:none;stroke:red;stroke-width:1px;stroke-linecap:butt;stroke-linejoin:miter;stroke-opacity:1" d="M 152.644,423.331 152.644,438.978 z" id="boundary" inkscape:connector-curvature="0" />
	<path style="fill:none;stroke:red;stroke-width:1px;stroke-linecap:butt;stroke-linejoin:miter;stroke-opacity:1" d="M 152.644,438.978 152.644,454.625 z" id="boundary" inkscape:connector-curvature="0" />
	<path style="fill:none;stroke:red;stroke-width:1px;stroke-linecap:butt;stroke-linejoin:miter;stroke-opacity:1" d="M 152.644,454.625 152.644,470.271 z" id="boundary" inkscape:connector-curvature="0" />
	<path style="fill:none;stroke:red;stroke-width:1px;stroke-linecap:butt;stroke-linejoin:miter;stroke-opacity:1" d="M 160.467,996 176.114,996 z" id="boundary" inkscape:connector-curvature="0" />
	<path style="fill:none;stroke:red;stroke-width:1px;stroke-linecap:butt;stroke-linejoin:miter;stroke-opacity:1" d="M 168.29,71.2808 180.808,80.6688 z" id="boundary" inkscape:connector-curvature="0" />
	<path style="fill:none;stroke:red;stroke-width:1px;stroke-linecap:butt;stroke-linejoin:miter;stroke-opacity:1" d="M 176.114,996 191.76,996 z" id="boundary" inkscape:connector-curvature="0" />
	<path style="fill:none;stroke:red;stroke-width:1px;stroke-linecap:butt;stroke-linejoin:miter;stroke-opacity:1" d="M 180.808,80.6688 188.631,94.7508 z" id="boundary" inkscape:connector-curvature="0" />
	<path style="fill:none;stroke:red;stroke-width:1px;stroke-linecap:butt;stroke-linejoin:miter;stroke-opacity:1" d="M 188.631,94.7508 199.584,107.268 z" id="boundary" inkscape:connector-curvature="0" />
	<path style="fill:none;stroke:red;stroke-width:1px;stroke-linecap:butt;stroke-linejoin:miter;stroke-opacity:1" d="M 191.76,996 207.407,996 z" id="boundary" inkscape:connector-curvature="0" />
	<path style="fill:none;stroke:red;stroke-width:1px;stroke-linecap:butt;stroke-linejoin:miter;stroke-opacity:1" d="M 199.584,107.268 201.148,122.915 z" id="boundary" inkscape:connector-curvature="0" />
	<path style="fill:none;stroke:red;stroke-width:1px;stroke-linecap:butt;stroke-linejoin:miter;stroke-opacity:1" d="M 201.148,122.915 207.407,138.562 z" id="boundary" inkscape:connector-curvature="0" />
	<path style="fill:none;stroke:red;stroke-width:1px;stroke-linecap:butt;stroke-linejoin:miter;stroke-opacity:1" d="M 207.407,138.562 208.972,154.208 z" id="boundary" inkscape:connector-curvature="0" />
	<path style="fill:none;stroke:red;stroke-width:1px;stroke-linecap:butt;stroke-linejoin:miter;stroke-opacity:1" d="M 207.407,996 223.054,996 z" id="boundary" inkscape:connector-curvature="0" />
	<path style="fill:none;stroke:red;stroke-width:1px;stroke-linecap:butt;stroke-linejoin:miter;stroke-opacity:1" d="M 208.972,154.208 208.972,169.855 z" id="boundary" inkscape:connector-curvature="0" />
	<path style="fill:none;stroke:red;stroke-width:1px;stroke-linecap:butt;stroke-linejoin:miter;stroke-opacity:1" d="M 208.972,169.855 208.972,185.502 z" id="boundary" inkscape:connector-curvature="0" />
	<path style="fill:none;stroke:red;stroke-width:1px;stroke-linecap:butt;stroke-linejoin:miter;stroke-opacity:1" d="M 208.972,185.502 208.972,201.148 z" id="boundary" inkscape:connector-curvature="0" />
	<path style="fill:none;stroke:red;stroke-width:1px;stroke-linecap:butt;stroke-linejoin:miter;stroke-opacity:1" d="M 208.972,201.148 208.972,216.795 z" id="boundary" inkscape:connector-curvature="0" />
	<path style="fill:none;stroke:red;stroke-width:1px;stroke-linecap:butt;stroke-linejoin:miter;stroke-opacity:1" d="M 208.972,216.795 208.972,232.442 z" id="boundary" inkscape:connector-curvature="0" />
	<path style="fill:none;stroke:red;stroke-width:1px;stroke-linecap:butt;stroke-linejoin:miter;stroke-opacity:1" d="M 208.972,232.442 208.972,248.088 z" id="boundary" inkscape:connector-curvature="0" />
	<path style="fill:none;stroke:red;stroke-width:1px;stroke-linecap:butt;stroke-linejoin:miter;stroke-opacity:1" d="M 208.972,248.088 215.23,263.735 z" id="boundary" inkscape:connector-curvature="0" />
	<path style="fill:none;stroke:red;stroke-width:1px;stroke-linecap:butt;stroke-linejoin:miter;stroke-opacity:1" d="M 215.23,263.735 216.795,279.382 z" id="boundary" inkscape:connector-curvature="0" />
	<path style="fill:none;stroke:red;stroke-width:1px;stroke-linecap:butt;stroke-linejoin:miter;stroke-opacity:1" d="M 216.795,279.382 216.795,295.028 z" id="boundary" inkscape:connector-curvature="0" />
	<path style="fill:none;stroke:red;stroke-width:1px;stroke-linecap:butt;stroke-linejoin:miter;stroke-opacity:1" d="M 216.795,295.028 216.795,310.675 z" id="boundary" inkscape:connector-curvature="0" />
	<path style="fill:none;stroke:red;stroke-width:1px;stroke-linecap:butt;stroke-linejoin:miter;stroke-opacity:1" d="M 216.795,310.675 216.795,326.322 z" id="boundary" inkscape:connector-curvature="0" />
	<path style="fill:none;stroke:red;stroke-width:1px;stroke-linecap:butt;stroke-linejoin:miter;stroke-opacity:1" d="M 216.795,326.322 223.054,341.968 z" id="boundary" inkscape:connector-curvature="0" />
	<path style="fill:none;stroke:red;stroke-width:1px;stroke-linecap:butt;stroke-linejoin:miter;stroke-opacity:1" d="M 223.054,341.968 224.618,357.615 z" id="boundary" inkscape:connector-curvature="0" />
	<path style="fill:none;stroke:red;stroke-width:1px;stroke-linecap:butt;stroke-linejoin:miter;stroke-opacity:1" d="M 223.054,996 238.7,996 z" id="boundary" inkscape:connector-curvature="0" />
	<path style="fill:none;stroke:red;stroke-width:1px;stroke-linecap:butt;stroke-linejoin:miter;stroke-opacity:1" d="M 224.618,357.615 232.442,371.697 z" id="boundary" inkscape:connector-curvature="0" />
	<path style="fill:none;stroke:red;stroke-width:1px;stroke-linecap:butt;stroke-linejoin:miter;stroke-opacity:1" d="M 232.442,371.697 241.83,384.215 z" id="boundary" inkscape:connector-curvature="0" />
	<path style="fill:none;stroke:red;stroke-width:1px;stroke-linecap:butt;stroke-linejoin:miter;stroke-opacity:1" d="M 238.7,996 254.347,996 z" id="boundary" inkscape:connector-curvature="0" />
	<path style="fill:none;stroke:red;stroke-width:1px;stroke-linecap:butt;stroke-linejoin:miter;stroke-opacity:1" d="M 241.83,384.215 254.347,365.438 z" id="boundary" inkscape:connector-curvature="0" />
	<path style="fill:none;stroke:red;stroke-width:1px;stroke-linecap:butt;stroke-linejoin:miter;stroke-opacity:1" d="M 254.347,255.912 254.347,271.558 z" id="boundary" inkscape:connector-curvature="0" />
	<path style="fill:none;stroke:red;stroke-width:1px;stroke-linecap:butt;stroke-linejoin:miter;stroke-opacity:1" d="M 254.347,255.912 262.17,232.442 z" id="boundary" inkscape:connector-curvature="0" />
	<path style="fill:none;stroke:red;stroke-width:1px;stroke-linecap:butt;stroke-linejoin:miter;stroke-opacity:1" d="M 254.347,271.558 254.347,287.205 z" id="boundary" inkscape:connector-curvature="0" />
	<path style="fill:none;stroke:red;stroke-width:1px;stroke-linecap:butt;stroke-linejoin:miter;stroke-opacity:1" d="M 254.347,287.205 262.17,301.287 z" id="boundary" inkscape:connector-curvature="0" />
	<path style="fill:none;stroke:red;stroke-width:1px;stroke-linecap:butt;stroke-linejoin:miter;stroke-opacity:1" d="M 254.347,365.438 262.17,348.227 z" id="boundary" inkscape:connector-curvature="0" />
	<path style="fill:none;stroke:red;stroke-width:1px;stroke-linecap:butt;stroke-linejoin:miter;stroke-opacity:1" d="M 254.347,996 269.994,996 z" id="boundary" inkscape:connector-curvature="0" />
	<path style="fill:none;stroke:red;stroke-width:1px;stroke-linecap:butt;stroke-linejoin:miter;stroke-opacity:1" d="M 262.17,216.795 262.17,232.442 z" id="boundary" inkscape:connector-curvature="0" />
	<path style="fill:none;stroke:red;stroke-width:1px;stroke-linecap:butt;stroke-linejoin:miter;stroke-opacity:1" d="M 262.17,216.795 269.994,193.325 z" id="boundary" inkscape:connector-curvature="0" />
	<path style="fill:none;stroke:red;stroke-width:1px;stroke-linecap:butt;stroke-linejoin:miter;stroke-opacity:1" d="M 262.17,301.287 262.17,316.934 z" id="boundary" inkscape:connector-curvature="0" />
	<path style="fill:none;stroke:red;stroke-width:1px;stroke-linecap:butt;stroke-linejoin:miter;stroke-opacity:1" d="M 262.17,316.934 262.17,332.58 z" id="boundary" inkscape:connector-curvature="0" />
	<path style="fill:none;stroke:red;stroke-width:1px;stroke-linecap:butt;stroke-linejoin:miter;stroke-opacity:1" d="M 262.17,332.58 262.17,348.227 z" id="boundary" inkscape:connector-curvature="0" />
	<path style="fill:none;stroke:red;stroke-width:1px;stroke-linecap:butt;stroke-linejoin:miter;stroke-opacity:1" d="M 269.994,52.5047 269.994,68.1514 z" id="boundary" inkscape:connector-curvature="0" />
	<path style="fill:none;stroke:red;stroke-width:1px;stroke-linecap:butt;stroke-linejoin:miter;stroke-opacity:1" d="M 269.994,52.5047 282.511,39.9874 z" id="boundary" inkscape:connector-curvature="0" />
	<path style="fill:none;stroke:red;stroke-width:1px;stroke-linecap:butt;stroke-linejoin:miter;stroke-opacity:1" d="M 269.994,68.1514 269.994,83.7981 z" id="boundary" inkscape:connector-curvature="0" />
	<path style="fill:none;stroke:red;stroke-width:1px;stroke-linecap:butt;stroke-linejoin:miter;stroke-opacity:1" d="M 269.994,83.7981 269.994,99.4448 z" id="boundary" inkscape:connector-curvature="0" />
	<path style="fill:none;stroke:red;stroke-width:1px;stroke-linecap:butt;stroke-linejoin:miter;stroke-opacity:1" d="M 269.994,99.4448 269.994,115.091 z" id="boundary" inkscape:connector-curvature="0" />
	<path style="fill:none;stroke:red;stroke-width:1px;stroke-linecap:butt;stroke-linejoin:miter;stroke-opacity:1" d="M 269.994,115.091 269.994,130.738 z" id="boundary" inkscape:connector-curvature="0" />
	<path style="fill:none;stroke:red;stroke-width:1px;stroke-linecap:butt;stroke-linejoin:miter;stroke-opacity:1" d="M 269.994,130.738 269.994,146.385 z" id="boundary" inkscape:connector-curvature="0" />
	<path style="fill:none;stroke:red;stroke-width:1px;stroke-linecap:butt;stroke-linejoin:miter;stroke-opacity:1" d="M 269.994,146.385 269.994,162.032 z" id="boundary" inkscape:connector-curvature="0" />
	<path style="fill:none;stroke:red;stroke-width:1px;stroke-linecap:butt;stroke-linejoin:miter;stroke-opacity:1" d="M 269.994,162.032 269.994,177.678 z" id="boundary" inkscape:connector-curvature="0" />
	<path style="fill:none;stroke:red;stroke-width:1px;stroke-linecap:butt;stroke-linejoin:miter;stroke-opacity:1" d="M 269.994,177.678 269.994,193.325 z" id="boundary" inkscape:connector-curvature="0" />
	<path style="fill:none;stroke:red;stroke-width:1px;stroke-linecap:butt;stroke-linejoin:miter;stroke-opacity:1" d="M 269.994,996 285.64,996 z" id="boundary" inkscape:connector-curvature="0" />
	<path style="fill:none;stroke:red;stroke-width:1px;stroke-linecap:butt;stroke-linejoin:miter;stroke-opacity:1" d="M 282.511,39.9874 290.334,24.3407 z" id="boundary" inkscape:connector-curvature="0" />
	<path style="fill:none;stroke:red;stroke-width:1px;stroke-linecap:butt;stroke-linejoin:miter;stroke-opacity:1" d="M 285.64,996 301.287,996 z" id="boundary" inkscape:connector-curvature="0" />
	<path style="fill:none;stroke:red;stroke-width:1px;stroke-linecap:butt;stroke-linejoin:miter;stroke-opacity:1" d="M 290.334,24.3407 301.287,5.56467 z" id="boundary" inkscape:connector-curvature="0" />
	<path style="fill:none;stroke:red;stroke-width:1px;stroke-linecap:butt;stroke-linejoin:miter;stroke-opacity:1" d="M 301.287,5.56467 316.934,4 z" id="boundary" inkscape:connector-curvature="0" />
	<path style="fill:none;stroke:red;stroke-width:1px;stroke-linecap:butt;stroke-linejoin:miter;stroke-opacity:1" d="M 301.287,996 316.934,996 z" id="boundary" inkscape:connector-curvature="0" />
	<path style="fill:none;stroke:red;stroke-width:1px;stroke-linecap:butt;stroke-linejoin:miter;stroke-opacity:1" d="M 316.934,4 326.322,16.5174 z" id="boundary" inkscape:connector-curvature="0" />
	<path style="fill:none;stroke:red;stroke-width:1px;stroke-linecap:butt;stroke-linejoin:miter;stroke-opacity:1" d="M 316.934,996 332.58,996 z" id="boundary" inkscape:connector-curvature="0" />
	<path style="fill:none;stroke:red;stroke-width:1px;stroke-linecap:butt;stroke-linejoin:miter;stroke-opacity:1" d="M 326.322,16.5174 334.145,30.5994 z" id="boundary" inkscape:connector-curvature="0" />
	<path style="fill:none;stroke:red;stroke-width:1px;stroke-linecap:butt;stroke-linejoin:miter;stroke-opacity:1" d="M 332.58,996 348.227,996 z" id="boundary" inkscape:connector-curvature="0" />
	<path style="fill:none;stroke:red;stroke-width:1px;stroke-linecap:butt;stroke-linejoin:miter;stroke-opacity:1" d="M 334.145,30.5994 346.662,41.5521 z" id="boundary" inkscape:connector-curvature="0" />
	<path style="fill:none;stroke:red;stroke-width:1px;stroke-linecap:butt;stroke-linejoin:miter;stroke-opacity:1" d="M 341.968,244.959 341.968,260.606 z" id="boundary" inkscape:connector-curvature="0" />
	<path style="fill:none;stroke:red;stroke-width:1px;stroke-linecap:butt;stroke-linejoin:miter;stroke-opacity:1" d="M 341.968,244.959 349.792,229.312 z" id="boundary" inkscape:connector-curvature="0" />
	<path style="fill:none;stroke:red;stroke-width:1px;stroke-linecap:butt;stroke-linejoin:miter;stroke-opacity:1" d="M 341.968,260.606 341.968,276.252 z" id="boundary" inkscape:connector-curvature="0" />
	<path style="fill:none;stroke:red;stroke-width:1px;stroke-linecap:butt;stroke-linejoin:miter;stroke-opacity:1" d="M 341.968,276.252 341.968,291.899 z" id="boundary" inkscape:connector-curvature="0" />
	<path style="fill:none;stroke:red;stroke-width:1px;stroke-linecap:butt;stroke-linejoin:miter;stroke-opacity:1" d="M 341.968,291.899 341.968,307.546 z" id="boundary" inkscape:connector-curvature="0" />
	<path style="fill:none;stroke:red;stroke-width:1px;stroke-linecap:butt;stroke-linejoin:miter;stroke-opacity:1" d="M 341.968,307.546 345.098,323.192 z" id="boundary" inkscape:connector-curvature="0" />
	<path style="fill:none;stroke:red;stroke-width:1px;stroke-linecap:butt;stroke-linejoin:miter;stroke-opacity:1" d="M 345.098,323.192 349.792,338.839 z" id="boundary" inkscape:connector-curvature="0" />
	<path style="fill:none;stroke:red;stroke-width:1px;stroke-linecap:butt;stroke-linejoin:miter;stroke-opacity:1" d="M 346.662,41.5521 349.792,57.1987 z" id="boundary" inkscape:connector-curvature="0" />
	<path style="fill:none;stroke:red;stroke-width:1px;stroke-linecap:butt;stroke-linejoin:miter;stroke-opacity:1" d="M 348.227,996 363.874,996 z" id="boundary" inkscape:connector-curvature="0" />
	<path style="fill:none;stroke:red;stroke-width:1px;stroke-linecap:butt;stroke-linejoin:miter;stroke-opacity:1" d="M 349.792,57.1987 349.792,72.8454 z" id="boundary" inkscape:connector-curvature="0" />
	<path style="fill:none;stroke:red;stroke-width:1px;stroke-linecap:butt;stroke-linejoin:miter;stroke-opacity:1" d="M 349.792,72.8454 357.615,86.9274 z" id="boundary" inkscape:connector-curvature="0" />
	<path style="fill:none;stroke:red;stroke-width:1px;stroke-linecap:butt;stroke-linejoin:miter;stroke-opacity:1" d="M 349.792,166.726 349.792,182.372 z" id="boundary" inkscape:connector-curvature="0" />
	<path style="fill:none;stroke:red;stroke-width:1px;stroke-linecap:butt;stroke-linejoin:miter;stroke-opacity:1" d="M 349.792,166.726 357.615,149.514 z" id="boundary" inkscape:connector-curvature="0" />
	<path style="fill:none;stroke:red;stroke-width:1px;stroke-linecap:butt;stroke-linejoin:miter;stroke-opacity:1" d="M 349.792,182.372 349.792,198.019 z" id="boundary" inkscape:connector-curvature="0" />
	<path style="fill:none;stroke:red;stroke-width:1px;stroke-linecap:butt;stroke-linejoin:miter;stroke-opacity:1" d="M 349.792,198.019 349.792,213.666 z" id="boundary" inkscape:connector-curvature="0" />
	<path style="fill:none;stroke:red;stroke-width:1px;stroke-linecap:butt;stroke-linejoin:miter;stroke-opacity:1" d="M 349.792,213.666 349.792,229.312 z" id="boundary" inkscape:connector-curvature="0" />
	<path style="fill:none;stroke:red;stroke-width:1px;stroke-linecap:butt;stroke-linejoin:miter;stroke-opacity:1" d="M 349.792,338.839 349.792,354.486 z" id="boundary" inkscape:connector-curvature="0" />
	<path style="fill:none;stroke:red;stroke-width:1px;stroke-linecap:butt;stroke-linejoin:miter;stroke-opacity:1" d="M 349.792,354.486 352.921,370.132 z" id="boundary" inkscape:connector-curvature="0" />
	<path style="fill:none;stroke:red;stroke-width:1px;stroke-linecap:butt;stroke-linejoin:miter;stroke-opacity:1" d="M 352.921,370.132 357.615,385.779 z" id="boundary" inkscape:connector-curvature="0" />
	<path style="fill:none;stroke:red;stroke-width:1px;stroke-linecap:butt;stroke-linejoin:miter;stroke-opacity:1" d="M 357.615,86.9274 357.615,102.574 z" id="boundary" inkscape:connector-curvature="0" />
	<path style="fill:none;stroke:red;stroke-width:1px;stroke-linecap:butt;stroke-linejoin:miter;stroke-opacity:1" d="M 357.615,102.574 357.615,118.221 z" id="boundary" inkscape:connector-curvature="0" />
	<path style="fill:none;stroke:red;stroke-width:1px;stroke-linecap:butt;stroke-linejoin:miter;stroke-opacity:1" d="M 357.615,118.221 357.615,133.868 z" id="boundary" inkscape:connector-curvature="0" />
	<path style="fill:none;stroke:red;stroke-width:1px;stroke-linecap:butt;stroke-linejoin:miter;stroke-opacity:1" d="M 357.615,133.868 357.615,149.514 z" id="boundary" inkscape:connector-curvature="0" />
	<path style="fill:none;stroke:red;stroke-width:1px;stroke-linecap:butt;stroke-linejoin:miter;stroke-opacity:1" d="M 357.615,385.779 357.615,401.426 z" id="boundary" inkscape:connector-curvature="0" />
	<path style="fill:none;stroke:red;stroke-width:1px;stroke-linecap:butt;stroke-linejoin:miter;stroke-opacity:1" d="M 357.615,401.426 371.697,393.603 z" id="boundary" inkscape:connector-curvature="0" />
	<path style="fill:none;stroke:red;stroke-width:1px;stroke-linecap:butt;stroke-linejoin:miter;stroke-opacity:1" d="M 363.874,996 379.521,996 z" id="boundary" inkscape:connector-curvature="0" />
	<path style="fill:none;stroke:red;stroke-width:1px;stroke-linecap:butt;stroke-linejoin:miter;stroke-opacity:1" d="M 371.697,393.603 379.521,365.438 z" id="boundary" inkscape:connector-curvature="0" />
	<path style="fill:none;stroke:red;stroke-width:1px;stroke-linecap:butt;stroke-linejoin:miter;stroke-opacity:1" d="M 379.521,271.558 379.521,287.205 z" id="boundary" inkscape:connector-curvature="0" />
	<path style="fill:none;stroke:red;stroke-width:1px;stroke-linecap:butt;stroke-linejoin:miter;stroke-opacity:1" d="M 379.521,271.558 387.344,255.912 z" id="boundary" inkscape:connector-curvature="0" />
	<path style="fill:none;stroke:red;stroke-width:1px;stroke-linecap:butt;stroke-linejoin:miter;stroke-opacity:1" d="M 379.521,287.205 379.521,302.852 z" id="boundary" inkscape:connector-curvature="0" />
	<path style="fill:none;stroke:red;stroke-width:1px;stroke-linecap:butt;stroke-linejoin:miter;stroke-opacity:1" d="M 379.521,302.852 379.521,318.498 z" id="boundary" inkscape:connector-curvature="0" />
	<path style="fill:none;stroke:red;stroke-width:1px;stroke-linecap:butt;stroke-linejoin:miter;stroke-opacity:1" d="M 379.521,318.498 379.521,334.145 z" id="boundary" inkscape:connector-curvature="0" />
	<path style="fill:none;stroke:red;stroke-width:1px;stroke-linecap:butt;stroke-linejoin:miter;stroke-opacity:1" d="M 379.521,334.145 379.521,349.792 z" id="boundary" inkscape:connector-curvature="0" />
	<path style="fill:none;stroke:red;stroke-width:1px;stroke-linecap:butt;stroke-linejoin:miter;stroke-opacity:1" d="M 379.521,349.792 379.521,365.438 z" id="boundary" inkscape:connector-curvature="0" />
	<path style="fill:none;stroke:red;stroke-width:1px;stroke-linecap:butt;stroke-linejoin:miter;stroke-opacity:1" d="M 379.521,996 395.167,996 z" id="boundary" inkscape:connector-curvature="0" />
	<path style="fill:none;stroke:red;stroke-width:1px;stroke-linecap:butt;stroke-linejoin:miter;stroke-opacity:1" d="M 387.344,240.265 387.344,255.912 z" id="boundary" inkscape:connector-curvature="0" />
	<path style="fill:none;stroke:red;stroke-width:1px;stroke-linecap:butt;stroke-linejoin:miter;stroke-opacity:1" d="M 387.344,240.265 395.167,216.795 z" id="boundary" inkscape:connector-curvature="0" />
	<path style="fill:none;stroke:red;stroke-width:1px;stroke-linecap:butt;stroke-linejoin:miter;stroke-opacity:1" d="M 395.167,122.915 395.167,138.562 z" id="boundary" inkscape:connector-curvature="0" />
	<path style="fill:none;stroke:red;stroke-width:1px;stroke-linecap:butt;stroke-linejoin:miter;stroke-opacity:1" d="M 395.167,122.915 402.991,99.4448 z" id="boundary" inkscape:connector-curvature="0" />
	<path style="fill:none;stroke:red;stroke-width:1px;stroke-linecap:butt;stroke-linejoin:miter;stroke-opacity:1" d="M 395.167,138.562 395.167,154.208 z" id="boundary" inkscape:connector-curvature="0" />
	<path style="fill:none;stroke:red;stroke-width:1px;stroke-linecap:butt;stroke-linejoin:miter;stroke-opacity:1" d="M 395.167,154.208 395.167,169.855 z" id="boundary" inkscape:connector-curvature="0" />
	<path style="fill:none;stroke:red;stroke-width:1px;stroke-linecap:butt;stroke-linejoin:miter;stroke-opacity:1" d="M 395.167,169.855 395.167,185.502 z" id="boundary" inkscape:connector-curvature="0" />
	<path style="fill:none;stroke:red;stroke-width:1px;stroke-linecap:butt;stroke-linejoin:miter;stroke-opacity:1" d="M 395.167,185.502 395.167,201.148 z" id="boundary" inkscape:connector-curvature="0" />
	<path style="fill:none;stroke:red;stroke-width:1px;stroke-linecap:butt;stroke-linejoin:miter;stroke-opacity:1" d="M 395.167,201.148 395.167,216.795 z" id="boundary" inkscape:connector-curvature="0" />
	<path style="fill:none;stroke:red;stroke-width:1px;stroke-linecap:butt;stroke-linejoin:miter;stroke-opacity:1" d="M 395.167,996 410.814,996 z" id="boundary" inkscape:connector-curvature="0" />
	<path style="fill:none;stroke:red;stroke-width:1px;stroke-linecap:butt;stroke-linejoin:miter;stroke-opacity:1" d="M 402.991,83.7981 402.991,99.4448 z" id="boundary" inkscape:connector-curvature="0" />
	<path style="fill:none;stroke:red;stroke-width:1px;stroke-linecap:butt;stroke-linejoin:miter;stroke-opacity:1" d="M 402.991,83.7981 415.508,71.2808 z" id="boundary" inkscape:connector-curvature="0" />
	<path style="fill:none;stroke:red;stroke-width:1px;stroke-linecap:butt;stroke-linejoin:miter;stroke-opacity:1" d="M 410.814,996 426.461,996 z" id="boundary" inkscape:connector-curvature="0" />
	<path style="fill:none;stroke:red;stroke-width:1px;stroke-linecap:butt;stroke-linejoin:miter;stroke-opacity:1" d="M 415.508,71.2808 429.59,63.4574 z" id="boundary" inkscape:connector-curvature="0" />
	<path style="fill:none;stroke:red;stroke-width:1px;stroke-linecap:butt;stroke-linejoin:miter;stroke-opacity:1" d="M 426.461,996 442.107,996 z" id="boundary" inkscape:connector-curvature="0" />
	<path style="fill:none;stroke:red;stroke-width:1px;stroke-linecap:butt;stroke-linejoin:miter;stroke-opacity:1" d="M 429.59,63.4574 442.107,52.5047 z" id="boundary" inkscape:connector-curvature="0" />
	<path style="fill:none;stroke:red;stroke-width:1px;stroke-linecap:butt;stroke-linejoin:miter;stroke-opacity:1" d="M 442.107,52.5047 454.625,63.4574 z" id="boundary" inkscape:connector-curvature="0" />
	<path style="fill:none;stroke:red;stroke-width:1px;stroke-linecap:butt;stroke-linejoin:miter;stroke-opacity:1" d="M 442.107,996 451.495,972.53 z" id="boundary" inkscape:connector-curvature="0" />
	<path style="fill:none;stroke:red;stroke-width:1px;stroke-linecap:butt;stroke-linejoin:miter;stroke-opacity:1" d="M 451.495,972.53 467.142,956.883 z" id="boundary" inkscape:connector-curvature="0" />
	<path style="fill:none;stroke:red;stroke-width:1px;stroke-linecap:butt;stroke-linejoin:miter;stroke-opacity:1" d="M 454.625,63.4574 465.577,75.9748 z" id="boundary" inkscape:connector-curvature="0" />
	<path style="fill:none;stroke:red;stroke-width:1px;stroke-linecap:butt;stroke-linejoin:miter;stroke-opacity:1" d="M 465.577,75.9748 467.142,91.6215 z" id="boundary" inkscape:connector-curvature="0" />
	<path style="fill:none;stroke:red;stroke-width:1px;stroke-linecap:butt;stroke-linejoin:miter;stroke-opacity:1" d="M 467.142,91.6215 478.095,104.139 z" id="boundary" inkscape:connector-curvature="0" />
	<path style="fill:none;stroke:red;stroke-width:1px;stroke-linecap:butt;stroke-linejoin:miter;stroke-opacity:1" d="M 467.142,956.883 479.659,945.931 z" id="boundary" inkscape:connector-curvature="0" />
	<path style="fill:none;stroke:red;stroke-width:1px;stroke-linecap:butt;stroke-linejoin:miter;stroke-opacity:1" d="M 478.095,104.139 482.789,119.785 z" id="boundary" inkscape:connector-curvature="0" />
	<path style="fill:none;stroke:red;stroke-width:1px;stroke-linecap:butt;stroke-linejoin:miter;stroke-opacity:1" d="M 479.659,945.931 490.612,933.413 z" id="boundary" inkscape:connector-curvature="0" />
	<path style="fill:none;stroke:red;stroke-width:1px;stroke-linecap:butt;stroke-linejoin:miter;stroke-opacity:1" d="M 482.789,119.785 482.789,135.432 z" id="boundary" inkscape:connector-curvature="0" />
	<path style="fill:none;stroke:red;stroke-width:1px;stroke-linecap:butt;stroke-linejoin:miter;stroke-opacity:1" d="M 482.789,135.432 482.789,151.079 z" id="boundary" inkscape:connector-curvature="0" />
	<path style="fill:none;stroke:red;stroke-width:1px;stroke-linecap:butt;stroke-linejoin:miter;stroke-opacity:1" d="M 482.789,151.079 482.789,166.726 z" id="boundary" inkscape:connector-curvature="0" />
	<path style="fill:none;stroke:red;stroke-width:1px;stroke-linecap:butt;stroke-linejoin:miter;stroke-opacity:1" d="M 482.789,166.726 482.789,182.372 z" id="boundary" inkscape:connector-curvature="0" />
	<path style="fill:none;stroke:red;stroke-width:1px;stroke-linecap:butt;stroke-linejoin:miter;stroke-opacity:1" d="M 482.789,182.372 482.789,198.019 z" id="boundary" inkscape:connector-curvature="0" />
	<path style="fill:none;stroke:red;stroke-width:1px;stroke-linecap:butt;stroke-linejoin:miter;stroke-opacity:1" d="M 482.789,198.019 482.789,213.666 z" id="boundary" inkscape:connector-curvature="0" />
	<path style="fill:none;stroke:red;stroke-width:1px;stroke-linecap:butt;stroke-linejoin:miter;stroke-opacity:1" d="M 482.789,213.666 482.789,229.312 z" id="boundary" inkscape:connector-curvature="0" />
	<path style="fill:none;stroke:red;stroke-width:1px;stroke-linecap:butt;stroke-linejoin:miter;stroke-opacity:1" d="M 482.789,229.312 482.789,244.959 z" id="boundary" inkscape:connector-curvature="0" />
	<path style="fill:none;stroke:red;stroke-width:1px;stroke-linecap:butt;stroke-linejoin:miter;stroke-opacity:1" d="M 482.789,244.959 482.789,260.606 z" id="boundary" inkscape:connector-curvature="0" />
	<path style="fill:none;stroke:red;stroke-width:1px;stroke-linecap:butt;stroke-linejoin:miter;stroke-opacity:1" d="M 482.789,260.606 482.789,276.252 z" id="boundary" inkscape:connector-curvature="0" />
	<path style="fill:none;stroke:red;stroke-width:1px;stroke-linecap:butt;stroke-linejoin:miter;stroke-opacity:1" d="M 482.789,276.252 482.789,291.899 z" id="boundary" inkscape:connector-curvature="0" />
	<path style="fill:none;stroke:red;stroke-width:1px;stroke-linecap:butt;stroke-linejoin:miter;stroke-opacity:1" d="M 482.789,291.899 482.789,307.546 z" id="boundary" inkscape:connector-curvature="0" />
	<path style="fill:none;stroke:red;stroke-width:1px;stroke-linecap:butt;stroke-linejoin:miter;stroke-opacity:1" d="M 482.789,307.546 482.789,323.192 z" id="boundary" inkscape:connector-curvature="0" />
	<path style="fill:none;stroke:red;stroke-width:1px;stroke-linecap:butt;stroke-linejoin:miter;stroke-opacity:1" d="M 482.789,323.192 482.789,338.839 z" id="boundary" inkscape:connector-curvature="0" />
	<path style="fill:none;stroke:red;stroke-width:1px;stroke-linecap:butt;stroke-linejoin:miter;stroke-opacity:1" d="M 482.789,338.839 482.789,354.486 z" id="boundary" inkscape:connector-curvature="0" />
	<path style="fill:none;stroke:red;stroke-width:1px;stroke-linecap:butt;stroke-linejoin:miter;stroke-opacity:1" d="M 482.789,354.486 482.789,370.132 z" id="boundary" inkscape:connector-curvature="0" />
	<path style="fill:none;stroke:red;stroke-width:1px;stroke-linecap:butt;stroke-linejoin:miter;stroke-opacity:1" d="M 482.789,370.132 482.789,385.779 z" id="boundary" inkscape:connector-curvature="0" />
	<path style="fill:none;stroke:red;stroke-width:1px;stroke-linecap:butt;stroke-linejoin:miter;stroke-opacity:1" d="M 482.789,385.779 482.789,401.426 z" id="boundary" inkscape:connector-curvature="0" />
	<path style="fill:none;stroke:red;stroke-width:1px;stroke-linecap:butt;stroke-linejoin:miter;stroke-opacity:1" d="M 482.789,401.426 482.789,417.073 z" id="boundary" inkscape:connector-curvature="0" />
	<path style="fill:none;stroke:red;stroke-width:1px;stroke-linecap:butt;stroke-linejoin:miter;stroke-opacity:1" d="M 482.789,417.073 482.789,432.719 z" id="boundary" inkscape:connector-curvature="0" />
	<path style="fill:none;stroke:red;stroke-width:1px;stroke-linecap:butt;stroke-linejoin:miter;stroke-opacity:1" d="M 482.789,432.719 482.789,448.366 z" id="boundary" inkscape:connector-curvature="0" />
	<path style="fill:none;stroke:red;stroke-width:1px;stroke-linecap:butt;stroke-linejoin:miter;stroke-opacity:1" d="M 482.789,448.366 482.789,464.013 z" id="boundary" inkscape:connector-curvature="0" />
	<path style="fill:none;stroke:red;stroke-width:1px;stroke-linecap:butt;stroke-linejoin:miter;stroke-opacity:1" d="M 482.789,464.013 482.789,479.659 z" id="boundary" inkscape:connector-curvature="0" />
	<path style="fill:none;stroke:red;stroke-width:1px;stroke-linecap:butt;stroke-linejoin:miter;stroke-opacity:1" d="M 482.789,479.659 490.612,493.741 z" id="boundary" inkscape:connector-curvature="0" />
	<path style="fill:none;stroke:red;stroke-width:1px;stroke-linecap:butt;stroke-linejoin:miter;stroke-opacity:1" d="M 490.612,493.741 490.612,509.388 z" id="boundary" inkscape:connector-curvature="0" />
	<path style="fill:none;stroke:red;stroke-width:1px;stroke-linecap:butt;stroke-linejoin:miter;stroke-opacity:1" d="M 490.612,509.388 490.612,525.035 z" id="boundary" inkscape:connector-curvature="0" />
	<path style="fill:none;stroke:red;stroke-width:1px;stroke-linecap:butt;stroke-linejoin:miter;stroke-opacity:1" d="M 490.612,525.035 498.435,539.117 z" id="boundary" inkscape:connector-curvature="0" />
	<path style="fill:none;stroke:red;stroke-width:1px;stroke-linecap:butt;stroke-linejoin:miter;stroke-opacity:1" d="M 490.612,933.413 506.259,925.59 z" id="boundary" inkscape:connector-curvature="0" />
	<path style="fill:none;stroke:red;stroke-width:1px;stroke-linecap:butt;stroke-linejoin:miter;stroke-opacity:1" d="M 498.435,539.117 506.259,553.199 z" id="boundary" inkscape:connector-curvature="0" />
	<path style="fill:none;stroke:red;stroke-width:1px;stroke-linecap:butt;stroke-linejoin:miter;stroke-opacity:1" d="M 506.259,553.199 512.517,568.845 z" id="boundary" inkscape:connector-curvature="0" />
	<path style="fill:none;stroke:red;stroke-width:1px;stroke-linecap:butt;stroke-linejoin:miter;stroke-opacity:1" d="M 506.259,925.59 518.776,914.637 z" id="boundary" inkscape:connector-curvature="0" />
	<path style="fill:none;stroke:red;stroke-width:1px;stroke-linecap:butt;stroke-linejoin:miter;stroke-opacity:1" d="M 512.517,568.845 521.905,581.363 z" id="boundary" inkscape:connector-curvature="0" />
	<path style="fill:none;stroke:red;stroke-width:1px;stroke-linecap:butt;stroke-linejoin:miter;stroke-opacity:1" d="M 518.776,914.637 526.599,898.991 z" id="boundary" inkscape:connector-curvature="0" />
	<path style="fill:none;stroke:red;stroke-width:1px;stroke-linecap:butt;stroke-linejoin:miter;stroke-opacity:1" d="M 521.905,581.363 521.905,597.009 z" id="boundary" inkscape:connector-curvature="0" />
	<path style="fill:none;stroke:red;stroke-width:1px;stroke-linecap:butt;stroke-linejoin:miter;stroke-opacity:1" d="M 521.905,597.009 529.729,611.091 z" id="boundary" inkscape:connector-curvature="0" />
	<path style="fill:none;stroke:red;stroke-width:1px;stroke-linecap:butt;stroke-linejoin:miter;stroke-opacity:1" d="M 526.599,898.991 534.423,883.344 z" id="boundary" inkscape:connector-curvature="0" />
	<path style="fill:none;stroke:red;stroke-width:1px;stroke-linecap:butt;stroke-linejoin:miter;stroke-opacity:1" d="M 529.729,611.091 537.552,625.174 z" id="boundary" inkscape:connector-curvature="0" />
	<path style="fill:none;stroke:red;stroke-width:1px;stroke-linecap:butt;stroke-linejoin:miter;stroke-opacity:1" d="M 534.423,883.344 543.811,870.826 z" id="boundary" inkscape:connector-curvature="0" />
	<path style="fill:none;stroke:red;stroke-width:1px;stroke-linecap:butt;stroke-linejoin:miter;stroke-opacity:1" d="M 537.552,625.174 553.199,622.044 z" id="boundary" inkscape:connector-curvature="0" />
	<path style="fill:none;stroke:red;stroke-width:1px;stroke-linecap:butt;stroke-linejoin:miter;stroke-opacity:1" d="M 543.811,870.826 553.199,847.356 z" id="boundary" inkscape:connector-curvature="0" />
	<path style="fill:none;stroke:red;stroke-width:1px;stroke-linecap:butt;stroke-linejoin:miter;stroke-opacity:1" d="M 553.199,622.044 568.845,614.221 z" id="boundary" inkscape:connector-curvature="0" />
	<path style="fill:none;stroke:red;stroke-width:1px;stroke-linecap:butt;stroke-linejoin:miter;stroke-opacity:1" d="M 553.199,847.356 565.716,836.404 z" id="boundary" inkscape:connector-curvature="0" />
	<path style="fill:none;stroke:red;stroke-width:1px;stroke-linecap:butt;stroke-linejoin:miter;stroke-opacity:1" d="M 565.716,836.404 576.669,823.886 z" id="boundary" inkscape:connector-curvature="0" />
	<path style="fill:none;stroke:red;stroke-width:1px;stroke-linecap:butt;stroke-linejoin:miter;stroke-opacity:1" d="M 568.845,614.221 582.927,592.315 z" id="boundary" inkscape:connector-curvature="0" />
	<path style="fill:none;stroke:red;stroke-width:1px;stroke-linecap:butt;stroke-linejoin:miter;stroke-opacity:1" d="M 576.669,823.886 584.492,800.416 z" id="boundary" inkscape:connector-curvature="0" />
	<path style="fill:none;stroke:red;stroke-width:1px;stroke-linecap:butt;stroke-linejoin:miter;stroke-opacity:1" d="M 582.927,592.315 590.751,576.669 z" id="boundary" inkscape:connector-curvature="0" />
	<path style="fill:none;stroke:red;stroke-width:1px;stroke-linecap:butt;stroke-linejoin:miter;stroke-opacity:1" d="M 584.492,800.416 592.315,784.77 z" id="boundary" inkscape:connector-curvature="0" />
	<path style="fill:none;stroke:red;stroke-width:1px;stroke-linecap:butt;stroke-linejoin:miter;stroke-opacity:1" d="M 590.751,576.669 598.574,561.022 z" id="boundary" inkscape:connector-curvature="0" />
	<path style="fill:none;stroke:red;stroke-width:1px;stroke-linecap:butt;stroke-linejoin:miter;stroke-opacity:1" d="M 592.315,784.77 604.833,773.817 z" id="boundary" inkscape:connector-curvature="0" />
	<path style="fill:none;stroke:red;stroke-width:1px;stroke-linecap:butt;stroke-linejoin:miter;stroke-opacity:1" d="M 598.574,561.022 606.397,545.375 z" id="boundary" inkscape:connector-curvature="0" />
	<path style="fill:none;stroke:red;stroke-width:1px;stroke-linecap:butt;stroke-linejoin:miter;stroke-opacity:1" d="M 604.833,773.817 615.785,753.476 z" id="boundary" inkscape:connector-curvature="0" />
	<path style="fill:none;stroke:red;stroke-width:1px;stroke-linecap:butt;stroke-linejoin:miter;stroke-opacity:1" d="M 606.397,545.375 614.221,521.905 z" id="boundary" inkscape:connector-curvature="0" />
	<path style="fill:none;stroke:red;stroke-width:1px;stroke-linecap:butt;stroke-linejoin:miter;stroke-opacity:1" d="M 614.221,506.259 614.221,521.905 z" id="boundary" inkscape:connector-curvature="0" />
	<path style="fill:none;stroke:red;stroke-width:1px;stroke-linecap:butt;stroke-linejoin:miter;stroke-opacity:1" d="M 614.221,506.259 626.738,493.741 z" id="boundary" inkscape:connector-curvature="0" />
	<path style="fill:none;stroke:red;stroke-width:1px;stroke-linecap:butt;stroke-linejoin:miter;stroke-opacity:1" d="M 615.785,753.476 628.303,742.524 z" id="boundary" inkscape:connector-curvature="0" />
	<path style="fill:none;stroke:red;stroke-width:1px;stroke-linecap:butt;stroke-linejoin:miter;stroke-opacity:1" d="M 626.738,493.741 634.562,478.095 z" id="boundary" inkscape:connector-curvature="0" />
	<path style="fill:none;stroke:red;stroke-width:1px;stroke-linecap:butt;stroke-linejoin:miter;stroke-opacity:1" d="M 628.303,742.524 639.256,722.183 z" id="boundary" inkscape:connector-curvature="0" />
	<path style="fill:none;stroke:red;stroke-width:1px;stroke-linecap:butt;stroke-linejoin:miter;stroke-opacity:1" d="M 634.562,478.095 647.079,465.577 z" id="boundary" inkscape:connector-curvature="0" />
	<path style="fill:none;stroke:red;stroke-width:1px;stroke-linecap:butt;stroke-linejoin:miter;stroke-opacity:1" d="M 639.256,722.183 647.079,698.713 z" id="boundary" inkscape:connector-curvature="0" />
	<path style="fill:none;stroke:red;stroke-width:1px;stroke-linecap:butt;stroke-linejoin:miter;stroke-opacity:1" d="M 647.079,465.577 654.902,449.931 z" id="boundary" inkscape:connector-curvature="0" />
	<path style="fill:none;stroke:red;stroke-width:1px;stroke-linecap:butt;stroke-linejoin:miter;stroke-opacity:1" d="M 647.079,698.713 654.902,683.066 z" id="boundary" inkscape:connector-curvature="0" />
	<path style="fill:none;stroke:red;stroke-width:1px;stroke-linecap:butt;stroke-linejoin:miter;stroke-opacity:1" d="M 654.902,449.931 667.42,438.978 z" id="boundary" inkscape:connector-curvature="0" />
	<path style="fill:none;stroke:red;stroke-width:1px;stroke-linecap:butt;stroke-linejoin:miter;stroke-opacity:1" d="M 654.902,667.42 654.902,683.066 z" id="boundary" inkscape:connector-curvature="0" />
	<path style="fill:none;stroke:red;stroke-width:1px;stroke-linecap:butt;stroke-linejoin:miter;stroke-opacity:1" d="M 654.902,667.42 662.726,651.773 z" id="boundary" inkscape:connector-curvature="0" />
	<path style="fill:none;stroke:red;stroke-width:1px;stroke-linecap:butt;stroke-linejoin:miter;stroke-opacity:1" d="M 662.726,651.773 670.549,636.126 z" id="boundary" inkscape:connector-curvature="0" />
	<path style="fill:none;stroke:red;stroke-width:1px;stroke-linecap:butt;stroke-linejoin:miter;stroke-opacity:1" d="M 667.42,438.978 678.372,426.461 z" id="boundary" inkscape:connector-curvature="0" />
	<path style="fill:none;stroke:red;stroke-width:1px;stroke-linecap:butt;stroke-linejoin:miter;stroke-opacity:1" d="M 670.549,636.126 683.066,625.174 z" id="boundary" inkscape:connector-curvature="0" />
	<path style="fill:none;stroke:red;stroke-width:1px;stroke-linecap:butt;stroke-linejoin:miter;stroke-opacity:1" d="M 678.372,426.461 690.89,415.508 z" id="boundary" inkscape:connector-curvature="0" />
	<path style="fill:none;stroke:red;stroke-width:1px;stroke-linecap:butt;stroke-linejoin:miter;stroke-opacity:1" d="M 683.066,625.174 686.196,604.833 z" id="boundary" inkscape:connector-curvature="0" />
	<path style="fill:none;stroke:red;stroke-width:1px;stroke-linecap:butt;stroke-linejoin:miter;stroke-opacity:1" d="M 686.196,604.833 694.019,589.186 z" id="boundary" inkscape:connector-curvature="0" />
	<path style="fill:none;stroke:red;stroke-width:1px;stroke-linecap:butt;stroke-linejoin:miter;stroke-opacity:1" d="M 690.89,415.508 706.536,415.508 z" id="boundary" inkscape:connector-curvature="0" />
	<path style="fill:none;stroke:red;stroke-width:1px;stroke-linecap:butt;stroke-linejoin:miter;stroke-opacity:1" d="M 694.019,589.186 701.842,573.539 z" id="boundary" inkscape:connector-curvature="0" />
	<path style="fill:none;stroke:red;stroke-width:1px;stroke-linecap:butt;stroke-linejoin:miter;stroke-opacity:1" d="M 701.842,573.539 709.666,557.893 z" id="boundary" inkscape:connector-curvature="0" />
	<path style="fill:none;stroke:red;stroke-width:1px;stroke-linecap:butt;stroke-linejoin:miter;stroke-opacity:1" d="M 706.536,415.508 722.183,417.073 z" id="boundary" inkscape:connector-curvature="0" />
	<path style="fill:none;stroke:red;stroke-width:1px;stroke-linecap:butt;stroke-linejoin:miter;stroke-opacity:1" d="M 709.666,542.246 709.666,557.893 z" id="boundary" inkscape:connector-curvature="0" />
	<path style="fill:none;stroke:red;stroke-width:1px;stroke-linecap:butt;stroke-linejoin:miter;stroke-opacity:1" d="M 709.666,542.246 717.489,518.776 z" id="boundary" inkscape:connector-curvature="0" />
	<path style="fill:none;stroke:red;stroke-width:1px;stroke-linecap:butt;stroke-linejoin:miter;stroke-opacity:1" d="M 717.489,503.129 717.489,518.776 z" id="boundary" inkscape:connector-curvature="0" />
	<path style="fill:none;stroke:red;stroke-width:1px;stroke-linecap:butt;stroke-linejoin:miter;stroke-opacity:1" d="M 717.489,503.129 725.312,479.659 z" id="boundary" inkscape:connector-curvature="0" />
	<path style="fill:none;stroke:red;stroke-width:1px;stroke-linecap:butt;stroke-linejoin:miter;stroke-opacity:1" d="M 722.183,417.073 725.312,432.719 z" id="boundary" inkscape:connector-curvature="0" />
	<path style="fill:none;stroke:red;stroke-width:1px;stroke-linecap:butt;stroke-linejoin:miter;stroke-opacity:1" d="M 725.312,432.719 733.136,446.801 z" id="boundary" inkscape:connector-curvature="0" />
	<path style="fill:none;stroke:red;stroke-width:1px;stroke-linecap:butt;stroke-linejoin:miter;stroke-opacity:1" d="M 725.312,479.659 733.136,462.448 z" id="boundary" inkscape:connector-curvature="0" />
	<path style="fill:none;stroke:red;stroke-width:1px;stroke-linecap:butt;stroke-linejoin:miter;stroke-opacity:1" d="M 733.136,446.801 733.136,462.448 z" id="boundary" inkscape:connector-curvature="0" />
	<circle cx="4" cy="287.205" r="4" fill="#0" id="circle0"/>
	<circle cx="4" cy="302.852" r="4" fill="#0" id="circle1"/>
	<circle cx="4" cy="318.498" r="4" fill="#0" id="circle2"/>
	<circle cx="11.8233" cy="271.558" r="4" fill="#0" id="circle3"/>
	<circle cx="11.8233" cy="332.58" r="4" fill="#0" id="circle4"/>
	<circle cx="11.8233" cy="348.227" r="4" fill="#0" id="circle5"/>
	<circle cx="11.8233" cy="363.874" r="4" fill="#0" id="circle6"/>
	<circle cx="19.6467" cy="248.088" r="4" fill="#0" id="circle7"/>
	<circle cx="19.6467" cy="377.956" r="4" fill="#0" id="circle8"/>
	<circle cx="19.6467" cy="393.603" r="4" fill="#0" id="circle9"/>
	<circle cx="19.6467" cy="409.249" r="4" fill="#0" id="circle10"/>
	<circle cx="24.3407" cy="424.896" r="4" fill="#0" id="circle11"/>
	<circle cx="32.164" cy="235.571" r="4" fill="#0" id="circle12"/>
	<circle cx="32.164" cy="438.978" r="4" fill="#0" id="circle13"/>
	<circle cx="35.2934" cy="454.625" r="4" fill="#0" id="circle14"/>
	<circle cx="44.6814" cy="467.142" r="4" fill="#0" id="circle15"/>
	<circle cx="46.2461" cy="243.394" r="4" fill="#0" id="circle16"/>
	<circle cx="50.9401" cy="482.789" r="4" fill="#0" id="circle17"/>
	<circle cx="50.9401" cy="498.435" r="4" fill="#0" id="circle18"/>
	<circle cx="50.9401" cy="514.082" r="4" fill="#0" id="circle19"/>
	<circle cx="52.5047" cy="259.041" r="4" fill="#0" id="circle20"/>
	<circle cx="58.7634" cy="528.164" r="4" fill="#0" id="circle21"/>
	<circle cx="58.7634" cy="543.811" r="4" fill="#0" id="circle22"/>
	<circle cx="65.0221" cy="268.429" r="4" fill="#0" id="circle23"/>
	<circle cx="66.5868" cy="557.893" r="4" fill="#0" id="circle24"/>
	<circle cx="66.5868" cy="573.539" r="4" fill="#0" id="circle25"/>
	<circle cx="68.1514" cy="284.076" r="4" fill="#0" id="circle26"/>
	<circle cx="71.2808" cy="299.722" r="4" fill="#0" id="circle27"/>
	<circle cx="71.2808" cy="589.186" r="4" fill="#0" id="circle28"/>
	<circle cx="74.4101" cy="604.833" r="4" fill="#0" id="circle29"/>
	<circle cx="74.4101" cy="620.479" r="4" fill="#0" id="circle30"/>
	<circle cx="75.9748" cy="315.369" r="4" fill="#0" id="circle31"/>
	<circle cx="82.2334" cy="634.562" r="4" fill="#0" id="circle32"/>
	<circle cx="82.2334" cy="650.208" r="4" fill="#0" id="circle33"/>
	<circle cx="82.2334" cy="665.855" r="4" fill="#0" id="circle34"/>
	<circle cx="82.2334" cy="681.502" r="4" fill="#0" id="circle35"/>
	<circle cx="82.2334" cy="697.148" r="4" fill="#0" id="circle36"/>
	<circle cx="82.2334" cy="712.795" r="4" fill="#0" id="circle37"/>
	<circle cx="82.2334" cy="728.442" r="4" fill="#0" id="circle38"/>
	<circle cx="83.7981" cy="329.451" r="4" fill="#0" id="circle39"/>
	<circle cx="83.7981" cy="345.098" r="4" fill="#0" id="circle40"/>
	<circle cx="83.7981" cy="360.744" r="4" fill="#0" id="circle41"/>
	<circle cx="90.0568" cy="742.524" r="4" fill="#0" id="circle42"/>
	<circle cx="90.0568" cy="758.17" r="4" fill="#0" id="circle43"/>
	<circle cx="91.6215" cy="374.826" r="4" fill="#0" id="circle44"/>
	<circle cx="91.6215" cy="773.817" r="4" fill="#0" id="circle45"/>
	<circle cx="97.8801" cy="789.464" r="4" fill="#0" id="circle46"/>
	<circle cx="99.4448" cy="388.909" r="4" fill="#0" id="circle47"/>
	<circle cx="99.4448" cy="805.11" r="4" fill="#0" id="circle48"/>
	<circle cx="105.703" cy="404.555" r="4" fill="#0" id="circle49"/>
	<circle cx="107.268" cy="420.202" r="4" fill="#0" id="circle50"/>
	<circle cx="107.268" cy="819.192" r="4" fill="#0" id="circle51"/>
	<circle cx="113.527" cy="435.849" r="4" fill="#0" id="circle52"/>
	<circle cx="113.527" cy="834.839" r="4" fill="#0" id="circle53"/>
	<circle cx="113.527" cy="850.486" r="4" fill="#0" id="circle54"/>
	<circle cx="121.35" cy="130.738" r="4" fill="#0" id="circle55"/>
	<circle cx="121.35" cy="146.385" r="4" fill="#0" id="circle56"/>
	<circle cx="121.35" cy="162.032" r="4" fill="#0" id="circle57"/>
	<circle cx="121.35" cy="177.678" r="4" fill="#0" id="circle58"/>
	<circle cx="121.35" cy="193.325" r="4" fill="#0" id="circle59"/>
	<circle cx="121.35" cy="208.972" r="4" fill="#0" id="circle60"/>
	<circle cx="121.35" cy="224.618" r="4" fill="#0" id="circle61"/>
	<circle cx="121.35" cy="449.931" r="4" fill="#0" id="circle62"/>
	<circle cx="121.35" cy="864.568" r="4" fill="#0" id="circle63"/>
	<circle cx="127.609" cy="465.577" r="4" fill="#0" id="circle64"/>
	<circle cx="129.174" cy="115.091" r="4" fill="#0" id="circle65"/>
	<circle cx="129.174" cy="238.7" r="4" fill="#0" id="circle66"/>
	<circle cx="129.174" cy="254.347" r="4" fill="#0" id="circle67"/>
	<circle cx="129.174" cy="269.994" r="4" fill="#0" id="circle68"/>
	<circle cx="129.174" cy="285.64" r="4" fill="#0" id="circle69"/>
	<circle cx="129.174" cy="301.287" r="4" fill="#0" id="circle70"/>
	<circle cx="129.174" cy="316.934" r="4" fill="#0" id="circle71"/>
	<circle cx="129.174" cy="332.58" r="4" fill="#0" id="circle72"/>
	<circle cx="129.174" cy="348.227" r="4" fill="#0" id="circle73"/>
	<circle cx="129.174" cy="878.65" r="4" fill="#0" id="circle74"/>
	<circle cx="129.174" cy="991.306" r="4" fill="#0" id="circle75"/>
	<circle cx="136.997" cy="362.309" r="4" fill="#0" id="circle76"/>
	<circle cx="136.997" cy="377.956" r="4" fill="#0" id="circle77"/>
	<circle cx="136.997" cy="892.732" r="4" fill="#0" id="circle78"/>
	<circle cx="136.997" cy="975.659" r="4" fill="#0" id="circle79"/>
	<circle cx="138.562" cy="478.095" r="4" fill="#0" id="circle80"/>
	<circle cx="141.691" cy="102.574" r="4" fill="#0" id="circle81"/>
	<circle cx="144.82" cy="392.038" r="4" fill="#0" id="circle82"/>
	<circle cx="144.82" cy="906.814" r="4" fill="#0" id="circle83"/>
	<circle cx="144.82" cy="944.366" r="4" fill="#0" id="circle84"/>
	<circle cx="144.82" cy="960.013" r="4" fill="#0" id="circle85"/>
	<circle cx="144.82" cy="996" r="4" fill="#0" id="circle86"/>
	<circle cx="147.95" cy="407.685" r="4" fill="#0" id="circle87"/>
	<circle cx="152.644" cy="75.9748" r="4" fill="#0" id="circle88"/>
	<circle cx="152.644" cy="423.331" r="4" fill="#0" id="circle89"/>
	<circle cx="152.644" cy="438.978" r="4" fill="#0" id="circle90"/>
	<circle cx="152.644" cy="454.625" r="4" fill="#0" id="circle91"/>
	<circle cx="152.644" cy="470.271" r="4" fill="#0" id="circle92"/>
	<circle cx="152.644" cy="485.918" r="4" fill="#0" id="circle93"/>
	<circle cx="152.644" cy="920.896" r="4" fill="#0" id="circle94"/>
	<circle cx="160.467" cy="996" r="4" fill="#0" id="circle95"/>
	<circle cx="168.29" cy="71.2808" r="4" fill="#0" id="circle96"/>
	<circle cx="176.114" cy="996" r="4" fill="#0" id="circle97"/>
	<circle cx="180.808" cy="80.6688" r="4" fill="#0" id="circle98"/>
	<circle cx="188.631" cy="94.7508" r="4" fill="#0" id="circle99"/>
	<circle cx="191.76" cy="996" r="4" fill="#0" id="circle100"/>
	<circle cx="199.584" cy="107.268" r="4" fill="#0" id="circle101"/>
	<circle cx="201.148" cy="122.915" r="4" fill="#0" id="circle102"/>
	<circle cx="207.407" cy="138.562" r="4" fill="#0" id="circle103"/>
	<circle cx="207.407" cy="996" r="4" fill="#0" id="circle104"/>
	<circle cx="208.972" cy="154.208" r="4" fill="#0" id="circle105"/>
	<circle cx="208.972" cy="169.855" r="4" fill="#0" id="circle106"/>
	<circle cx="208.972" cy="185.502" r="4" fill="#0" id="circle107"/>
	<circle cx="208.972" cy="201.148" r="4" fill="#0" id="circle108"/>
	<circle cx="208.972" cy="216.795" r="4" fill="#0" id="circle109"/>
	<circle cx="208.972" cy="232.442" r="4" fill="#0" id="circle110"/>
	<circle cx="208.972" cy="248.088" r="4" fill="#0" id="circle111"/>
	<circle cx="215.23" cy="263.735" r="4" fill="#0" id="circle112"/>
	<circle cx="216.795" cy="279.382" r="4" fill="#0" id="circle113"/>
	<circle cx="216.795" cy="295.028" r="4" fill="#0" id="circle114"/>
	<circle cx="216.795" cy="310.675" r="4" fill="#0" id="circle115"/>
	<circle cx="216.795" cy="326.322" r="4" fill="#0" id="circle116"/>
	<circle cx="223.054" cy="341.968" r="4" fill="#0" id="circle117"/>
	<circle cx="223.054" cy="996" r="4" fill="#0" id="circle118"/>
	<circle cx="224.618" cy="357.615" r="4" fill="#0" id="circle119"/>
	<circle cx="232.442" cy="371.697" r="4" fill="#0" id="circle120"/>
	<circle cx="238.7" cy="996" r="4" fill="#0" id="circle121"/>
	<circle cx="241.83" cy="384.215" r="4" fill="#0" id="circle122"/>
	<circle cx="254.347" cy="255.912" r="4" fill="#0" id="circle123"/>
	<circle cx="254.347" cy="271.558" r="4" fill="#0" id="circle124"/>
	<circle cx="254.347" cy="287.205" r="4" fill="#0" id="circle125"/>
	<circle cx="254.347" cy="365.438" r="4" fill="#0" id="circle126"/>
	<circle cx="254.347" cy="996" r="4" fill="#0" id="circle127"/>
	<circle cx="262.17" cy="216.795" r="4" fill="#0" id="circle128"/>
	<circle cx="262.17" cy="232.442" r="4" fill="#0" id="circle129"/>
	<circle cx="262.17" cy="301.287" r="4" fill="#0" id="circle130"/>
	<circle cx="262.17" cy="316.934" r="4" fill="#0" id="circle131"/>
	<circle cx="262.17" cy="332.58" r="4" fill="#0" id="circle132"/>
	<circle cx="262.17" cy="348.227" r="4" fill="#0" id="circle133"/>
	<circle cx="269.994" cy="52.5047" r="4" fill="#0" id="circle134"/>
	<circle cx="269.994" cy="68.1514" r="4" fill="#0" id="circle135"/>
	<circle cx="269.994" cy="83.7981" r="4" fill="#0" id="circle136"/>
	<circle cx="269.994" cy="99.4448" r="4" fill="#0" id="circle137"/>
	<circle cx="269.994" cy="115.091" r="4" fill="#0" id="circle138"/>
	<circle cx="269.994" cy="130.738" r="4" fill="#0" id="circle139"/>
	<circle cx="269.994" cy="146.385" r="4" fill="#0" id="circle140"/>
	<circle cx="269.994" cy="162.032" r="4" fill="#0" id="circle141"/>
	<circle cx="269.994" cy="177.678" r="4" fill="#0" id="circle142"/>
	<circle cx="269.994" cy="193.325" r="4" fill="#0" id="circle143"/>
	<circle cx="269.994" cy="996" r="4" fill="#0" id="circle144"/>
	<circle cx="282.511" cy="39.9874" r="4" fill="#0" id="circle145"/>
	<circle cx="285.64" cy="996" r="4" fill="#0" id="circle146"/>
	<circle cx="290.334" cy="24.3407" r="4" fill="#0" id="circle147"/>
	<circle cx="301.287" cy="5.56467" r="4" fill="#0" id="circle148"/>
	<circle cx="301.287" cy="996" r="4" fill="#0" id="circle149"/>
	<circle cx="316.934" cy="4" r="4" fill="#0" id="circle150"/>
	<circle cx="316.934" cy="996" r="4" fill="#0" id="circle151"/>
	<circle cx="326.322" cy="16.5174" r="4" fill="#0" id="circle152"/>
	<circle cx="332.58" cy="996" r="4" fill="#0" id="circle153"/>
	<circle cx="334.145" cy="30.5994" r="4" fill="#0" id="circle154"/>
	<circle cx="341.968" cy="244.959" r="4" fill="#0" id="circle155"/>
	<circle cx="341.968" cy="260.606" r="4" fill="#0" id="circle156"/>
	<circle cx="341.968" cy="276.252" r="4" fill="#0" id="circle157"/>
	<circle cx="341.968" cy="291.899" r="4" fill="#0" id="circle158"/>
	<circle cx="341.968" cy="307.546" r="4" fill="#0" id="circle159"/>
	<circle cx="345.098" cy="323.192" r="4" fill="#0" id="circle160"/>
	<circle cx="346.662" cy="41.5521" r="4" fill="#0" id="circle161"/>
	<circle cx="348.227" cy="996" r="4" fill="#0" id="circle162"/>
	<circle cx="349.792" cy="57.1987" r="4" fill="#0" id="circle163"/>
	<circle cx="349.792" cy="72.8454" r="4" fill="#0" id="circle164"/>
	<circle cx="349.792" cy="166.726" r="4" fill="#0" id="circle165"/>
	<circle cx="349.792" cy="182.372" r="4" fill="#0" id="circle166"/>
	<circle cx="349.792" cy="198.019" r="4" fill="#0" id="circle167"/>
	<circle cx="349.792" cy="213.666" r="4" fill="#0" id="circle168"/>
	<circle cx="349.792" cy="229.312" r="4" fill="#0" id="circle169"/>
	<circle cx="349.792" cy="338.839" r="4" fill="#0" id="circle170"/>
	<circle cx="349.792" cy="354.486" r="4" fill="#0" id="circle171"/>
	<circle cx="352.921" cy="370.132" r="4" fill="#0" id="circle172"/>
	<circle cx="357.615" cy="86.9274" r="4" fill="#0" id="circle173"/>
	<circle cx="357.615" cy="102.574" r="4" fill="#0" id="circle174"/>
	<circle cx="357.615" cy="118.221" r="4" fill="#0" id="circle175"/>
	<circle cx="357.615" cy="133.868" r="4" fill="#0" id="circle176"/>
	<circle cx="357.615" cy="149.514" r="4" fill="#0" id="circle177"/>
	<circle cx="357.615" cy="385.779" r="4" fill="#0" id="circle178"/>
	<circle cx="357.615" cy="401.426" r="4" fill="#0" id="circle179"/>
	<circle cx="363.874" cy="996" r="4" fill="#0" id="circle180"/>
	<circle cx="371.697" cy="393.603" r="4" fill="#0" id="circle181"/>
	<circle cx="379.521" cy="271.558" r="4" fill="#0" id="circle182"/>
	<circle cx="379.521" cy="287.205" r="4" fill="#0" id="circle183"/>
	<circle cx="379.521" cy="302.852" r="4" fill="#0" id="circle184"/>
	<circle cx="379.521" cy="318.498" r="4" fill="#0" id="circle185"/>
	<circle cx="379.521" cy="334.145" r="4" fill="#0" id="circle186"/>
	<circle cx="379.521" cy="349.792" r="4" fill="#0" id="circle187"/>
	<circle cx="379.521" cy="365.438" r="4" fill="#0" id="circle188"/>
	<circle cx="379.521" cy="996" r="4" fill="#0" id="circle189"/>
	<circle cx="387.344" cy="240.265" r="4" fill="#0" id="circle190"/>
	<circle cx="387.344" cy="255.912" r="4" fill="#0" id="circle191"/>
	<circle cx="395.167" cy="122.915" r="4" fill="#0" id="circle192"/>
	<circle cx="395.167" cy="138.562" r="4" fill="#0" id="circle193"/>
	<circle cx="395.167" cy="154.208" r="4" fill="#0" id="circle194"/>
	<circle cx="395.167" cy="169.855" r="4" fill="#0" id="circle195"/>
	<circle cx="395.167" cy="185.502" r="4" fill="#0" id="circle196"/>
	<circle cx="395.167" cy="201.148" r="4" fill="#0" id="circle197"/>
	<circle cx="395.167" cy="216.795" r="4" fill="#0" id="circle198"/>
	<circle cx="395.167" cy="996" r="4" fill="#0" id="circle199"/>
	<circle cx="402.991" cy="83.7981" r="4" fill="#0" id="circle200"/>
	<circle cx="402.991" cy="99.4448" r="4" fill="#0" id="circle201"/>
	<circle cx="410.814" cy="996" r="4" fill="#0" id="circle202"/>
	<circle cx="415.508" cy="71.2808" r="4" fill="#0" id="circle203"/>
	<circle cx="426.461" cy="996" r="4" fill="#0" id="circle204"/>
	<circle cx="429.59" cy="63.4574" r="4" fill="#0" id="circle205"/>
	<circle cx="442.107" cy="52.5047" r="4" fill="#0" id="circle206"/>
	<circle cx="442.107" cy="996" r="4" fill="#0" id="circle207"/>
	<circle cx="451.495" cy="972.53" r="4" fill="#0" id="circle208"/>
	<circle cx="454.625" cy="63.4574" r="4" fill="#0" id="circle209"/>
	<circle cx="465.577" cy="75.9748" r="4" fill="#0" id="circle210"/>
	<circle cx="467.142" cy="91.6215" r="4" fill="#0" id="circle211"/>
	<circle cx="467.142" cy="956.883" r="4" fill="#0" id="circle212"/>
	<circle cx="478.095" cy="104.139" r="4" fill="#0" id="circle213"/>
	<circle cx="479.659" cy="945.931" r="4" fill="#0" id="circle214"/>
	<circle cx="482.789" cy="119.785" r="4" fill="#0" id="circle215"/>
	<circle cx="482.789" cy="135.432" r="4" fill="#0" id="circle216"/>
	<circle cx="482.789" cy="151.079" r="4" fill="#0" id="circle217"/>
	<circle cx="482.789" cy="166.726" r="4" fill="#0" id="circle218"/>
	<circle cx="482.789" cy="182.372" r="4" fill="#0" id="circle219"/>
	<circle cx="482.789" cy="198.019" r="4" fill="#0" id="circle220"/>
	<circle cx="482.789" cy="213.666" r="4" fill="#0" id="circle221"/>
	<circle cx="482.789" cy="229.312" r="4" fill="#0" id="circle222"/>
	<circle cx="482.789" cy="244.959" r="4" fill="#0" id="circle223"/>
	<circle cx="482.789" cy="260.606" r="4" fill="#0" id="circle224"/>
	<circle cx="482.789" cy="276.252" r="4" fill="#0" id="circle225"/>
	<circle cx="482.789" cy="291.899" r="4" fill="#0" id="circle226"/>
	<circle cx="482.789" cy="307.546" r="4" fill="#0" id="circle227"/>
	<circle cx="482.789" cy="323.192" r="4" fill="#0" id="circle228"/>
	<circle cx="482.789" cy="338.839" r="4" fill="#0" id="circle229"/>
	<circle cx="482.789" cy="354.486" r="4" fill="#0" id="circle230"/>
	<circle cx="482.789" cy="370.132" r="4" fill="#0" id="circle231"/>
	<circle cx="482.789" cy="385.779" r="4" fill="#0" id="circle232"/>
	<circle cx="482.789" cy="401.426" r="4" fill="#0" id="circle233"/>
	<circle cx="482.789" cy="417.073" r="4" fill="#0" id="circle234"/>
	<circle cx="482.789" cy="432.719" r="4" fill="#0" id="circle235"/>
	<circle cx="482.789" cy="448.366" r="4" fill="#0" id="circle236"/>
	<circle cx="482.789" cy="464.013" r="4" fill="#0" id="circle237"/>
	<circle cx="482.789" cy="479.659" r="4" fill="#0" id="circle238"/>
	<circle cx="490.612" cy="493.741" r="4" fill="#0" id="circle239"/>
	<circle cx="490.612" cy="509.388" r="4" fill="#0" id="circle240"/>
	<circle cx="490.612" cy="525.035" r="4" fill="#0" id="circle241"/>
	<circle cx="490.612" cy="933.413" r="4" fill="#0" id="circle242"/>
	<circle cx="498.435" cy="539.117" r="4" fill="#0" id="circle243"/>
	<circle cx="506.259" cy="553.199" r="4" fill="#0" id="circle244"/>
	<circle cx="506.259" cy="925.59" r="4" fill="#0" id="circle245"/>
	<circle cx="512.517" cy="568.845" r="4" fill="#0" id="circle246"/>
	<circle cx="518.776" cy="914.637" r="4" fill="#0" id="circle247"/>
	<circle cx="521.905" cy="581.363" r="4" fill="#0" id="circle248"/>
	<circle cx="521.905" cy="597.009" r="4" fill="#0" id="circle249"/>
	<circle cx="526.599" cy="898.991" r="4" fill="#0" id="circle250"/>
	<circle cx="529.729" cy="611.091" r="4" fill="#0" id="circle251"/>
	<circle cx="534.423" cy="883.344" r="4" fill="#0" id="circle252"/>
	<circle cx="537.552" cy="625.174" r="4" fill="#0" id="circle253"/>
	<circle cx="543.811" cy="870.826" r="4" fill="#0" id="circle254"/>
	<circle cx="553.199" cy="622.044" r="4" fill="#0" id="circle255"/>
	<circle cx="553.199" cy="847.356" r="4" fill="#0" id="circle256"/>
	<circle cx="565.716" cy="836.404" r="4" fill="#0" id="circle257"/>
	<circle cx="568.845" cy="614.221" r="4" fill="#0" id="circle258"/>
	<circle cx="576.669" cy="823.886" r="4" fill="#0" id="circle259"/>
	<circle cx="582.927" cy="592.315" r="4" fill="#0" id="circle260"/>
	<circle cx="584.492" cy="800.416" r="4" fill="#0" id="circle261"/>
	<circle cx="590.751" cy="576.669" r="4" fill="#0" id="circle262"/>
	<circle cx="592.315" cy="784.77" r="4" fill="#0" id="circle263"/>
	<circle cx="598.574" cy="561.022" r="4" fill="#0" id="circle264"/>
	<circle cx="604.833" cy="773.817" r="4" fill="#0" id="circle265"/>
	<circle cx="606.397" cy="545.375" r="4" fill="#0" id="circle266"/>
	<circle cx="614.221" cy="506.259" r="4" fill="#0" id="circle267"/>
	<circle cx="614.221" cy="521.905" r="4" fill="#0" id="circle268"/>
	<circle cx="615.785" cy="753.476" r="4" fill="#0" id="circle269"/>
	<circle cx="626.738" cy="493.741" r="4" fill="#0" id="circle270"/>
	<circle cx="628.303" cy="742.524" r="4" fill="#0" id="circle271"/>
	<circle cx="634.562" cy="478.095" r="4" fill="#0" id="circle272"/>
	<circle cx="639.256" cy="722.183" r="4" fill="#0" id="circle273"/>
	<circle cx="647.079" cy="465.577" r="4" fill="#0" id="circle274"/>
	<circle cx="647.079" cy="698.713" r="4" fill="#0" id="circle275"/>
	<circle cx="654.902" cy="449.931" r="4" fill="#0" id="circle276"/>
	<circle cx="654.902" cy="667.42" r="4" fill="#0" id="circle277"/>
	<circle cx="654.902" cy="683.066" r="4" fill="#0" id="circle278"/>
	<circle cx="662.726" cy="651.773" r="4" fill="#0" id="circle279"/>
	<circle cx="667.42" cy="438.978" r="4" fill="#0" id="circle280"/>
	<circle cx="670.549" cy="636.126" r="4" fill="#0" id="circle281"/>
	<circle cx="678.372" cy="426.461" r="4" fill="#0" id="circle282"/>
	<circle cx="683.066" cy="625.174" r="4" fill="#0" id="circle283"/>
	<circle cx="686.196" cy="604.833" r="4" fill="#0" id="circle284"/>
	<circle cx="690.89" cy="415.508" r="4" fill="#0" id="circle285"/>
	<circle cx="694.019" cy="589.186" r="4" fill="#0" id="circle286"/>
	<circle cx="701.842" cy="573.539" r="4" fill="#0" id="circle287"/>
	<circle cx="706.536" cy="415.508" r="4" fill="#0" id="circle288"/>
	<circle cx="709.666" cy="542.246" r="4" fill="#0" id="circle289"/>
	<circle cx="709.666" cy="557.893" r="4" fill="#0" id="circle290"/>
	<circle cx="717.489" cy="503.129" r="4" fill="#0" id="circle291"/>
	<circle cx="717.489" cy="518.776" r="4" fill="#0" id="circle292"/>
	<circle cx="722.183" cy="417.073" r="4" fill="#0" id="circle293"/>
	<circle cx="725.312" cy="432.719" r="4" fill="#0" id="circle294"/>
	<circle cx="725.312" cy="479.659" r="4" fill="#0" id="circle295"/>
	<circle cx="733.136" cy="446.801" r="4" fill="#0" id="circle296"/>
	<circle cx="733.136" cy="462.448" r="4" fill="#0" id="circle297"/>
	</g>
</svg>