<?xml version="1.0" encoding="UTF-8" standalone="no"?>
<!-- Created with CurveBenchmark -->
<svg
	xmlns:dc="http://purl.org/dc/elements/1.1/"
	xmlns:cc="http://creativecommons.org/ns#"
	xmlns:rdf="http://www.w3.org/1999/02/22-rdf-syntax-ns#"
	xmlns:svg="http://www.w3.org/2000/svg"
	xmlns="http://www.w3.org/2000/svg"
	xmlns:sodipodi="http://sodipodi.sourceforge.net/DTD/sodipodi-0.dtd"
	xmlns:inkscape="http://www.inkscape.org/namespaces/inkscape"
	width="1000"
	height="1000"
	id="svg2"
	version="1.1"
	sodipodi:docname="manifold/fitconnect-rat13.png.txt">
<defs
	id="defs4" />
<metadata
	id="metadata7">
	<rdf:RDF>
		<cc:Work
			rdf:about="">
			<dc:format>image/svg+xml</dc:format>
			<dc:type
				rdf:resource="http://purl.org/dc/dcmitype/StillImage" />
			<dc:title></dc:title>
		</cc:Work>
	</rdf:RDF>
</metadata>
<g
	inkscape:label="Layer 1"
	inkscape:groupmode="layer"
	id="layer1">
	<path style="fill:none;stroke:red;stroke-width:1px;stroke-linecap:butt;stroke-linejoin:miter;stroke-opacity:1" d="M 4,957.065 12.4642,972.3 z" id="boundary" inkscape:connector-curvature="0" />
	<path style="fill:none;stroke:red;stroke-width:1px;stroke-linecap:butt;stroke-linejoin:miter;stroke-opacity:1" d="M 4,957.065 17.5427,943.522 z" id="boundary" inkscape:connector-curvature="0" />
	<path style="fill:none;stroke:red;stroke-width:1px;stroke-linecap:butt;stroke-linejoin:miter;stroke-opacity:1" d="M 12.4642,972.3 24.314,985.843 z" id="boundary" inkscape:connector-curvature="0" />
	<path style="fill:none;stroke:red;stroke-width:1px;stroke-linecap:butt;stroke-linejoin:miter;stroke-opacity:1" d="M 17.5427,943.522 32.7782,935.058 z" id="boundary" inkscape:connector-curvature="0" />
	<path style="fill:none;stroke:red;stroke-width:1px;stroke-linecap:butt;stroke-linejoin:miter;stroke-opacity:1" d="M 24.314,985.843 41.2423,984.15 z" id="boundary" inkscape:connector-curvature="0" />
	<path style="fill:none;stroke:red;stroke-width:1px;stroke-linecap:butt;stroke-linejoin:miter;stroke-opacity:1" d="M 32.7782,935.058 49.7065,935.058 z" id="boundary" inkscape:connector-curvature="0" />
	<path style="fill:none;stroke:red;stroke-width:1px;stroke-linecap:butt;stroke-linejoin:miter;stroke-opacity:1" d="M 41.2423,984.15 58.1706,987.536 z" id="boundary" inkscape:connector-curvature="0" />
	<path style="fill:none;stroke:red;stroke-width:1px;stroke-linecap:butt;stroke-linejoin:miter;stroke-opacity:1" d="M 49.7065,935.058 66.6348,935.058 z" id="boundary" inkscape:connector-curvature="0" />
	<path style="fill:none;stroke:red;stroke-width:1px;stroke-linecap:butt;stroke-linejoin:miter;stroke-opacity:1" d="M 58.1706,987.536 75.099,987.536 z" id="boundary" inkscape:connector-curvature="0" />
	<path style="fill:none;stroke:red;stroke-width:1px;stroke-linecap:butt;stroke-linejoin:miter;stroke-opacity:1" d="M 66.6348,935.058 83.5631,935.058 z" id="boundary" inkscape:connector-curvature="0" />
	<path style="fill:none;stroke:red;stroke-width:1px;stroke-linecap:butt;stroke-linejoin:miter;stroke-opacity:1" d="M 71.7133,533.857 80.1775,516.928 z" id="boundary" inkscape:connector-curvature="0" />
	<path style="fill:none;stroke:red;stroke-width:1px;stroke-linecap:butt;stroke-linejoin:miter;stroke-opacity:1" d="M 71.7133,533.857 80.1775,549.092 z" id="boundary" inkscape:connector-curvature="0" />
	<path style="fill:none;stroke:red;stroke-width:1px;stroke-linecap:butt;stroke-linejoin:miter;stroke-opacity:1" d="M 71.7133,601.57 80.1775,582.949 z" id="boundary" inkscape:connector-curvature="0" />
	<path style="fill:none;stroke:red;stroke-width:1px;stroke-linecap:butt;stroke-linejoin:miter;stroke-opacity:1" d="M 71.7133,601.57 88.6416,606.648 z" id="boundary" inkscape:connector-curvature="0" />
	<path style="fill:none;stroke:red;stroke-width:1px;stroke-linecap:butt;stroke-linejoin:miter;stroke-opacity:1" d="M 75.099,987.536 92.0273,987.536 z" id="boundary" inkscape:connector-curvature="0" />
	<path style="fill:none;stroke:red;stroke-width:1px;stroke-linecap:butt;stroke-linejoin:miter;stroke-opacity:1" d="M 80.1775,516.928 88.6416,500 z" id="boundary" inkscape:connector-curvature="0" />
	<path style="fill:none;stroke:red;stroke-width:1px;stroke-linecap:butt;stroke-linejoin:miter;stroke-opacity:1" d="M 80.1775,549.092 80.1775,566.02 z" id="boundary" inkscape:connector-curvature="0" />
	<path style="fill:none;stroke:red;stroke-width:1px;stroke-linecap:butt;stroke-linejoin:miter;stroke-opacity:1" d="M 80.1775,566.02 80.1775,582.949 z" id="boundary" inkscape:connector-curvature="0" />
	<path style="fill:none;stroke:red;stroke-width:1px;stroke-linecap:butt;stroke-linejoin:miter;stroke-opacity:1" d="M 83.5631,935.058 100.491,935.058 z" id="boundary" inkscape:connector-curvature="0" />
	<path style="fill:none;stroke:red;stroke-width:1px;stroke-linecap:butt;stroke-linejoin:miter;stroke-opacity:1" d="M 88.6416,500 102.184,486.457 z" id="boundary" inkscape:connector-curvature="0" />
	<path style="fill:none;stroke:red;stroke-width:1px;stroke-linecap:butt;stroke-linejoin:miter;stroke-opacity:1" d="M 88.6416,606.648 105.57,606.648 z" id="boundary" inkscape:connector-curvature="0" />
	<path style="fill:none;stroke:red;stroke-width:1px;stroke-linecap:butt;stroke-linejoin:miter;stroke-opacity:1" d="M 92.0273,987.536 108.956,987.536 z" id="boundary" inkscape:connector-curvature="0" />
	<path style="fill:none;stroke:red;stroke-width:1px;stroke-linecap:butt;stroke-linejoin:miter;stroke-opacity:1" d="M 100.491,935.058 117.42,935.058 z" id="boundary" inkscape:connector-curvature="0" />
	<path style="fill:none;stroke:red;stroke-width:1px;stroke-linecap:butt;stroke-linejoin:miter;stroke-opacity:1" d="M 102.184,486.457 110.648,469.529 z" id="boundary" inkscape:connector-curvature="0" />
	<path style="fill:none;stroke:red;stroke-width:1px;stroke-linecap:butt;stroke-linejoin:miter;stroke-opacity:1" d="M 105.57,606.648 122.498,601.57 z" id="boundary" inkscape:connector-curvature="0" />
	<path style="fill:none;stroke:red;stroke-width:1px;stroke-linecap:butt;stroke-linejoin:miter;stroke-opacity:1" d="M 108.956,987.536 125.884,987.536 z" id="boundary" inkscape:connector-curvature="0" />
	<path style="fill:none;stroke:red;stroke-width:1px;stroke-linecap:butt;stroke-linejoin:miter;stroke-opacity:1" d="M 110.648,469.529 119.113,452.601 z" id="boundary" inkscape:connector-curvature="0" />
	<path style="fill:none;stroke:red;stroke-width:1px;stroke-linecap:butt;stroke-linejoin:miter;stroke-opacity:1" d="M 117.42,935.058 134.348,935.058 z" id="boundary" inkscape:connector-curvature="0" />
	<path style="fill:none;stroke:red;stroke-width:1px;stroke-linecap:butt;stroke-linejoin:miter;stroke-opacity:1" d="M 119.113,452.601 134.348,444.137 z" id="boundary" inkscape:connector-curvature="0" />
	<path style="fill:none;stroke:red;stroke-width:1px;stroke-linecap:butt;stroke-linejoin:miter;stroke-opacity:1" d="M 122.498,601.57 139.427,598.184 z" id="boundary" inkscape:connector-curvature="0" />
	<path style="fill:none;stroke:red;stroke-width:1px;stroke-linecap:butt;stroke-linejoin:miter;stroke-opacity:1" d="M 125.884,987.536 142.812,987.536 z" id="boundary" inkscape:connector-curvature="0" />
	<path style="fill:none;stroke:red;stroke-width:1px;stroke-linecap:butt;stroke-linejoin:miter;stroke-opacity:1" d="M 134.348,444.137 139.427,423.823 z" id="boundary" inkscape:connector-curvature="0" />
	<path style="fill:none;stroke:red;stroke-width:1px;stroke-linecap:butt;stroke-linejoin:miter;stroke-opacity:1" d="M 134.348,935.058 151.276,935.058 z" id="boundary" inkscape:connector-curvature="0" />
	<path style="fill:none;stroke:red;stroke-width:1px;stroke-linecap:butt;stroke-linejoin:miter;stroke-opacity:1" d="M 139.427,423.823 156.355,406.894 z" id="boundary" inkscape:connector-curvature="0" />
	<path style="fill:none;stroke:red;stroke-width:1px;stroke-linecap:butt;stroke-linejoin:miter;stroke-opacity:1" d="M 139.427,598.184 156.355,598.184 z" id="boundary" inkscape:connector-curvature="0" />
	<path style="fill:none;stroke:red;stroke-width:1px;stroke-linecap:butt;stroke-linejoin:miter;stroke-opacity:1" d="M 142.812,987.536 159.741,987.536 z" id="boundary" inkscape:connector-curvature="0" />
	<path style="fill:none;stroke:red;stroke-width:1px;stroke-linecap:butt;stroke-linejoin:miter;stroke-opacity:1" d="M 151.276,935.058 168.205,935.058 z" id="boundary" inkscape:connector-curvature="0" />
	<path style="fill:none;stroke:red;stroke-width:1px;stroke-linecap:butt;stroke-linejoin:miter;stroke-opacity:1" d="M 156.355,76.7918 156.355,93.7201 z" id="boundary" inkscape:connector-curvature="0" />
	<path style="fill:none;stroke:red;stroke-width:1px;stroke-linecap:butt;stroke-linejoin:miter;stroke-opacity:1" d="M 156.355,76.7918 164.819,59.8635 z" id="boundary" inkscape:connector-curvature="0" />
	<path style="fill:none;stroke:red;stroke-width:1px;stroke-linecap:butt;stroke-linejoin:miter;stroke-opacity:1" d="M 156.355,93.7201 156.355,110.648 z" id="boundary" inkscape:connector-curvature="0" />
	<path style="fill:none;stroke:red;stroke-width:1px;stroke-linecap:butt;stroke-linejoin:miter;stroke-opacity:1" d="M 156.355,110.648 156.355,127.577 z" id="boundary" inkscape:connector-curvature="0" />
	<path style="fill:none;stroke:red;stroke-width:1px;stroke-linecap:butt;stroke-linejoin:miter;stroke-opacity:1" d="M 156.355,127.577 156.355,144.505 z" id="boundary" inkscape:connector-curvature="0" />
	<path style="fill:none;stroke:red;stroke-width:1px;stroke-linecap:butt;stroke-linejoin:miter;stroke-opacity:1" d="M 156.355,144.505 156.355,161.433 z" id="boundary" inkscape:connector-curvature="0" />
	<path style="fill:none;stroke:red;stroke-width:1px;stroke-linecap:butt;stroke-linejoin:miter;stroke-opacity:1" d="M 156.355,161.433 156.355,178.362 z" id="boundary" inkscape:connector-curvature="0" />
	<path style="fill:none;stroke:red;stroke-width:1px;stroke-linecap:butt;stroke-linejoin:miter;stroke-opacity:1" d="M 156.355,178.362 156.355,195.29 z" id="boundary" inkscape:connector-curvature="0" />
	<path style="fill:none;stroke:red;stroke-width:1px;stroke-linecap:butt;stroke-linejoin:miter;stroke-opacity:1" d="M 156.355,195.29 169.898,207.14 z" id="boundary" inkscape:connector-curvature="0" />
	<path style="fill:none;stroke:red;stroke-width:1px;stroke-linecap:butt;stroke-linejoin:miter;stroke-opacity:1" d="M 156.355,406.894 169.898,393.352 z" id="boundary" inkscape:connector-curvature="0" />
	<path style="fill:none;stroke:red;stroke-width:1px;stroke-linecap:butt;stroke-linejoin:miter;stroke-opacity:1" d="M 156.355,598.184 171.59,589.72 z" id="boundary" inkscape:connector-curvature="0" />
	<path style="fill:none;stroke:red;stroke-width:1px;stroke-linecap:butt;stroke-linejoin:miter;stroke-opacity:1" d="M 159.741,987.536 176.669,987.536 z" id="boundary" inkscape:connector-curvature="0" />
	<path style="fill:none;stroke:red;stroke-width:1px;stroke-linecap:butt;stroke-linejoin:miter;stroke-opacity:1" d="M 164.819,59.8635 178.362,46.3208 z" id="boundary" inkscape:connector-curvature="0" />
	<path style="fill:none;stroke:red;stroke-width:1px;stroke-linecap:butt;stroke-linejoin:miter;stroke-opacity:1" d="M 168.205,935.058 185.133,935.058 z" id="boundary" inkscape:connector-curvature="0" />
	<path style="fill:none;stroke:red;stroke-width:1px;stroke-linecap:butt;stroke-linejoin:miter;stroke-opacity:1" d="M 169.898,207.14 181.747,220.683 z" id="boundary" inkscape:connector-curvature="0" />
	<path style="fill:none;stroke:red;stroke-width:1px;stroke-linecap:butt;stroke-linejoin:miter;stroke-opacity:1" d="M 169.898,393.352 181.747,364.573 z" id="boundary" inkscape:connector-curvature="0" />
	<path style="fill:none;stroke:red;stroke-width:1px;stroke-linecap:butt;stroke-linejoin:miter;stroke-opacity:1" d="M 171.59,589.72 186.826,581.256 z" id="boundary" inkscape:connector-curvature="0" />
	<path style="fill:none;stroke:red;stroke-width:1px;stroke-linecap:butt;stroke-linejoin:miter;stroke-opacity:1" d="M 173.283,753.925 173.283,770.853 z" id="boundary" inkscape:connector-curvature="0" />
	<path style="fill:none;stroke:red;stroke-width:1px;stroke-linecap:butt;stroke-linejoin:miter;stroke-opacity:1" d="M 173.283,753.925 181.747,728.532 z" id="boundary" inkscape:connector-curvature="0" />
	<path style="fill:none;stroke:red;stroke-width:1px;stroke-linecap:butt;stroke-linejoin:miter;stroke-opacity:1" d="M 173.283,770.853 173.283,787.782 z" id="boundary" inkscape:connector-curvature="0" />
	<path style="fill:none;stroke:red;stroke-width:1px;stroke-linecap:butt;stroke-linejoin:miter;stroke-opacity:1" d="M 173.283,787.782 173.283,804.71 z" id="boundary" inkscape:connector-curvature="0" />
	<path style="fill:none;stroke:red;stroke-width:1px;stroke-linecap:butt;stroke-linejoin:miter;stroke-opacity:1" d="M 173.283,804.71 173.283,821.638 z" id="boundary" inkscape:connector-curvature="0" />
	<path style="fill:none;stroke:red;stroke-width:1px;stroke-linecap:butt;stroke-linejoin:miter;stroke-opacity:1" d="M 173.283,821.638 173.283,838.567 z" id="boundary" inkscape:connector-curvature="0" />
	<path style="fill:none;stroke:red;stroke-width:1px;stroke-linecap:butt;stroke-linejoin:miter;stroke-opacity:1" d="M 173.283,838.567 173.283,855.495 z" id="boundary" inkscape:connector-curvature="0" />
	<path style="fill:none;stroke:red;stroke-width:1px;stroke-linecap:butt;stroke-linejoin:miter;stroke-opacity:1" d="M 173.283,855.495 173.283,872.423 z" id="boundary" inkscape:connector-curvature="0" />
	<path style="fill:none;stroke:red;stroke-width:1px;stroke-linecap:butt;stroke-linejoin:miter;stroke-opacity:1" d="M 173.283,872.423 186.826,884.273 z" id="boundary" inkscape:connector-curvature="0" />
	<path style="fill:none;stroke:red;stroke-width:1px;stroke-linecap:butt;stroke-linejoin:miter;stroke-opacity:1" d="M 176.669,987.536 193.597,987.536 z" id="boundary" inkscape:connector-curvature="0" />
	<path style="fill:none;stroke:red;stroke-width:1px;stroke-linecap:butt;stroke-linejoin:miter;stroke-opacity:1" d="M 178.362,46.3208 186.826,29.3925 z" id="boundary" inkscape:connector-curvature="0" />
	<path style="fill:none;stroke:red;stroke-width:1px;stroke-linecap:butt;stroke-linejoin:miter;stroke-opacity:1" d="M 181.747,220.683 198.676,225.761 z" id="boundary" inkscape:connector-curvature="0" />
	<path style="fill:none;stroke:red;stroke-width:1px;stroke-linecap:butt;stroke-linejoin:miter;stroke-opacity:1" d="M 181.747,364.573 195.29,351.031 z" id="boundary" inkscape:connector-curvature="0" />
	<path style="fill:none;stroke:red;stroke-width:1px;stroke-linecap:butt;stroke-linejoin:miter;stroke-opacity:1" d="M 181.747,728.532 190.212,703.14 z" id="boundary" inkscape:connector-curvature="0" />
	<path style="fill:none;stroke:red;stroke-width:1px;stroke-linecap:butt;stroke-linejoin:miter;stroke-opacity:1" d="M 185.133,935.058 202.061,936.751 z" id="boundary" inkscape:connector-curvature="0" />
	<path style="fill:none;stroke:red;stroke-width:1px;stroke-linecap:butt;stroke-linejoin:miter;stroke-opacity:1" d="M 186.826,29.3925 203.754,29.3925 z" id="boundary" inkscape:connector-curvature="0" />
	<path style="fill:none;stroke:red;stroke-width:1px;stroke-linecap:butt;stroke-linejoin:miter;stroke-opacity:1" d="M 186.826,581.256 202.061,572.792 z" id="boundary" inkscape:connector-curvature="0" />
	<path style="fill:none;stroke:red;stroke-width:1px;stroke-linecap:butt;stroke-linejoin:miter;stroke-opacity:1" d="M 186.826,884.273 193.597,901.201 z" id="boundary" inkscape:connector-curvature="0" />
	<path style="fill:none;stroke:red;stroke-width:1px;stroke-linecap:butt;stroke-linejoin:miter;stroke-opacity:1" d="M 190.212,703.14 198.676,677.747 z" id="boundary" inkscape:connector-curvature="0" />
	<path style="fill:none;stroke:red;stroke-width:1px;stroke-linecap:butt;stroke-linejoin:miter;stroke-opacity:1" d="M 193.597,901.201 207.14,911.358 z" id="boundary" inkscape:connector-curvature="0" />
	<path style="fill:none;stroke:red;stroke-width:1px;stroke-linecap:butt;stroke-linejoin:miter;stroke-opacity:1" d="M 193.597,987.536 210.526,987.536 z" id="boundary" inkscape:connector-curvature="0" />
	<path style="fill:none;stroke:red;stroke-width:1px;stroke-linecap:butt;stroke-linejoin:miter;stroke-opacity:1" d="M 195.29,351.031 198.676,330.717 z" id="boundary" inkscape:connector-curvature="0" />
	<path style="fill:none;stroke:red;stroke-width:1px;stroke-linecap:butt;stroke-linejoin:miter;stroke-opacity:1" d="M 198.676,225.761 208.833,239.304 z" id="boundary" inkscape:connector-curvature="0" />
	<path style="fill:none;stroke:red;stroke-width:1px;stroke-linecap:butt;stroke-linejoin:miter;stroke-opacity:1" d="M 198.676,330.717 207.14,305.324 z" id="boundary" inkscape:connector-curvature="0" />
	<path style="fill:none;stroke:red;stroke-width:1px;stroke-linecap:butt;stroke-linejoin:miter;stroke-opacity:1" d="M 198.676,677.747 207.14,652.355 z" id="boundary" inkscape:connector-curvature="0" />
	<path style="fill:none;stroke:red;stroke-width:1px;stroke-linecap:butt;stroke-linejoin:miter;stroke-opacity:1" d="M 202.061,572.792 217.297,564.328 z" id="boundary" inkscape:connector-curvature="0" />
	<path style="fill:none;stroke:red;stroke-width:1px;stroke-linecap:butt;stroke-linejoin:miter;stroke-opacity:1" d="M 202.061,936.751 215.604,926.594 z" id="boundary" inkscape:connector-curvature="0" />
	<path style="fill:none;stroke:red;stroke-width:1px;stroke-linecap:butt;stroke-linejoin:miter;stroke-opacity:1" d="M 203.754,29.3925 218.99,20.9283 z" id="boundary" inkscape:connector-curvature="0" />
	<path style="fill:none;stroke:red;stroke-width:1px;stroke-linecap:butt;stroke-linejoin:miter;stroke-opacity:1" d="M 207.14,305.324 220.683,291.782 z" id="boundary" inkscape:connector-curvature="0" />
	<path style="fill:none;stroke:red;stroke-width:1px;stroke-linecap:butt;stroke-linejoin:miter;stroke-opacity:1" d="M 207.14,652.355 215.604,635.427 z" id="boundary" inkscape:connector-curvature="0" />
	<path style="fill:none;stroke:red;stroke-width:1px;stroke-linecap:butt;stroke-linejoin:miter;stroke-opacity:1" d="M 207.14,911.358 215.604,926.594 z" id="boundary" inkscape:connector-curvature="0" />
	<path style="fill:none;stroke:red;stroke-width:1px;stroke-linecap:butt;stroke-linejoin:miter;stroke-opacity:1" d="M 208.833,239.304 222.375,251.154 z" id="boundary" inkscape:connector-curvature="0" />
	<path style="fill:none;stroke:red;stroke-width:1px;stroke-linecap:butt;stroke-linejoin:miter;stroke-opacity:1" d="M 210.526,987.536 225.761,979.072 z" id="boundary" inkscape:connector-curvature="0" />
	<path style="fill:none;stroke:red;stroke-width:1px;stroke-linecap:butt;stroke-linejoin:miter;stroke-opacity:1" d="M 215.604,635.427 224.068,618.498 z" id="boundary" inkscape:connector-curvature="0" />
	<path style="fill:none;stroke:red;stroke-width:1px;stroke-linecap:butt;stroke-linejoin:miter;stroke-opacity:1" d="M 217.297,564.328 234.225,555.863 z" id="boundary" inkscape:connector-curvature="0" />
	<path style="fill:none;stroke:red;stroke-width:1px;stroke-linecap:butt;stroke-linejoin:miter;stroke-opacity:1" d="M 218.99,20.9283 235.918,14.157 z" id="boundary" inkscape:connector-curvature="0" />
	<path style="fill:none;stroke:red;stroke-width:1px;stroke-linecap:butt;stroke-linejoin:miter;stroke-opacity:1" d="M 220.683,291.782 224.068,268.082 z" id="boundary" inkscape:connector-curvature="0" />
	<path style="fill:none;stroke:red;stroke-width:1px;stroke-linecap:butt;stroke-linejoin:miter;stroke-opacity:1" d="M 222.375,251.154 224.068,268.082 z" id="boundary" inkscape:connector-curvature="0" />
	<path style="fill:none;stroke:red;stroke-width:1px;stroke-linecap:butt;stroke-linejoin:miter;stroke-opacity:1" d="M 224.068,618.498 237.611,604.956 z" id="boundary" inkscape:connector-curvature="0" />
	<path style="fill:none;stroke:red;stroke-width:1px;stroke-linecap:butt;stroke-linejoin:miter;stroke-opacity:1" d="M 225.761,979.072 242.689,970.608 z" id="boundary" inkscape:connector-curvature="0" />
	<path style="fill:none;stroke:red;stroke-width:1px;stroke-linecap:butt;stroke-linejoin:miter;stroke-opacity:1" d="M 234.225,555.863 251.154,555.863 z" id="boundary" inkscape:connector-curvature="0" />
	<path style="fill:none;stroke:red;stroke-width:1px;stroke-linecap:butt;stroke-linejoin:miter;stroke-opacity:1" d="M 235.918,14.157 252.846,12.4642 z" id="boundary" inkscape:connector-curvature="0" />
	<path style="fill:none;stroke:red;stroke-width:1px;stroke-linecap:butt;stroke-linejoin:miter;stroke-opacity:1" d="M 237.611,604.956 246.075,588.027 z" id="boundary" inkscape:connector-curvature="0" />
	<path style="fill:none;stroke:red;stroke-width:1px;stroke-linecap:butt;stroke-linejoin:miter;stroke-opacity:1" d="M 242.689,970.608 251.154,953.679 z" id="boundary" inkscape:connector-curvature="0" />
	<path style="fill:none;stroke:red;stroke-width:1px;stroke-linecap:butt;stroke-linejoin:miter;stroke-opacity:1" d="M 246.075,588.027 254.539,572.792 z" id="boundary" inkscape:connector-curvature="0" />
	<path style="fill:none;stroke:red;stroke-width:1px;stroke-linecap:butt;stroke-linejoin:miter;stroke-opacity:1" d="M 251.154,555.863 254.539,572.792 z" id="boundary" inkscape:connector-curvature="0" />
	<path style="fill:none;stroke:red;stroke-width:1px;stroke-linecap:butt;stroke-linejoin:miter;stroke-opacity:1" d="M 251.154,936.751 251.154,953.679 z" id="boundary" inkscape:connector-curvature="0" />
	<path style="fill:none;stroke:red;stroke-width:1px;stroke-linecap:butt;stroke-linejoin:miter;stroke-opacity:1" d="M 251.154,936.751 259.618,919.823 z" id="boundary" inkscape:connector-curvature="0" />
	<path style="fill:none;stroke:red;stroke-width:1px;stroke-linecap:butt;stroke-linejoin:miter;stroke-opacity:1" d="M 252.846,12.4642 268.082,4 z" id="boundary" inkscape:connector-curvature="0" />
	<path style="fill:none;stroke:red;stroke-width:1px;stroke-linecap:butt;stroke-linejoin:miter;stroke-opacity:1" d="M 259.618,902.894 259.618,919.823 z" id="boundary" inkscape:connector-curvature="0" />
	<path style="fill:none;stroke:red;stroke-width:1px;stroke-linecap:butt;stroke-linejoin:miter;stroke-opacity:1" d="M 259.618,902.894 268.082,877.502 z" id="boundary" inkscape:connector-curvature="0" />
	<path style="fill:none;stroke:red;stroke-width:1px;stroke-linecap:butt;stroke-linejoin:miter;stroke-opacity:1" d="M 268.082,4 285.01,4 z" id="boundary" inkscape:connector-curvature="0" />
	<path style="fill:none;stroke:red;stroke-width:1px;stroke-linecap:butt;stroke-linejoin:miter;stroke-opacity:1" d="M 268.082,843.645 268.082,860.573 z" id="boundary" inkscape:connector-curvature="0" />
	<path style="fill:none;stroke:red;stroke-width:1px;stroke-linecap:butt;stroke-linejoin:miter;stroke-opacity:1" d="M 268.082,843.645 285.01,843.645 z" id="boundary" inkscape:connector-curvature="0" />
	<path style="fill:none;stroke:red;stroke-width:1px;stroke-linecap:butt;stroke-linejoin:miter;stroke-opacity:1" d="M 268.082,860.573 268.082,877.502 z" id="boundary" inkscape:connector-curvature="0" />
	<path style="fill:none;stroke:red;stroke-width:1px;stroke-linecap:butt;stroke-linejoin:miter;stroke-opacity:1" d="M 285.01,4 301.939,4 z" id="boundary" inkscape:connector-curvature="0" />
	<path style="fill:none;stroke:red;stroke-width:1px;stroke-linecap:butt;stroke-linejoin:miter;stroke-opacity:1" d="M 285.01,843.645 301.939,843.645 z" id="boundary" inkscape:connector-curvature="0" />
	<path style="fill:none;stroke:red;stroke-width:1px;stroke-linecap:butt;stroke-linejoin:miter;stroke-opacity:1" d="M 301.939,4 318.867,9.0785 z" id="boundary" inkscape:connector-curvature="0" />
	<path style="fill:none;stroke:red;stroke-width:1px;stroke-linecap:butt;stroke-linejoin:miter;stroke-opacity:1" d="M 301.939,843.645 318.867,843.645 z" id="boundary" inkscape:connector-curvature="0" />
	<path style="fill:none;stroke:red;stroke-width:1px;stroke-linecap:butt;stroke-linejoin:miter;stroke-opacity:1" d="M 318.867,9.0785 330.717,22.6212 z" id="boundary" inkscape:connector-curvature="0" />
	<path style="fill:none;stroke:red;stroke-width:1px;stroke-linecap:butt;stroke-linejoin:miter;stroke-opacity:1" d="M 318.867,843.645 335.795,843.645 z" id="boundary" inkscape:connector-curvature="0" />
	<path style="fill:none;stroke:red;stroke-width:1px;stroke-linecap:butt;stroke-linejoin:miter;stroke-opacity:1" d="M 325.638,931.672 325.638,948.601 z" id="boundary" inkscape:connector-curvature="0" />
	<path style="fill:none;stroke:red;stroke-width:1px;stroke-linecap:butt;stroke-linejoin:miter;stroke-opacity:1" d="M 325.638,931.672 339.181,918.13 z" id="boundary" inkscape:connector-curvature="0" />
	<path style="fill:none;stroke:red;stroke-width:1px;stroke-linecap:butt;stroke-linejoin:miter;stroke-opacity:1" d="M 325.638,948.601 325.638,965.529 z" id="boundary" inkscape:connector-curvature="0" />
	<path style="fill:none;stroke:red;stroke-width:1px;stroke-linecap:butt;stroke-linejoin:miter;stroke-opacity:1" d="M 325.638,965.529 325.638,982.457 z" id="boundary" inkscape:connector-curvature="0" />
	<path style="fill:none;stroke:red;stroke-width:1px;stroke-linecap:butt;stroke-linejoin:miter;stroke-opacity:1" d="M 325.638,982.457 339.181,994.307 z" id="boundary" inkscape:connector-curvature="0" />
	<path style="fill:none;stroke:red;stroke-width:1px;stroke-linecap:butt;stroke-linejoin:miter;stroke-opacity:1" d="M 330.717,22.6212 339.181,37.8567 z" id="boundary" inkscape:connector-curvature="0" />
	<path style="fill:none;stroke:red;stroke-width:1px;stroke-linecap:butt;stroke-linejoin:miter;stroke-opacity:1" d="M 335.795,843.645 351.031,852.109 z" id="boundary" inkscape:connector-curvature="0" />
	<path style="fill:none;stroke:red;stroke-width:1px;stroke-linecap:butt;stroke-linejoin:miter;stroke-opacity:1" d="M 339.181,37.8567 354.416,46.3208 z" id="boundary" inkscape:connector-curvature="0" />
	<path style="fill:none;stroke:red;stroke-width:1px;stroke-linecap:butt;stroke-linejoin:miter;stroke-opacity:1" d="M 339.181,918.13 347.645,901.201 z" id="boundary" inkscape:connector-curvature="0" />
	<path style="fill:none;stroke:red;stroke-width:1px;stroke-linecap:butt;stroke-linejoin:miter;stroke-opacity:1" d="M 339.181,994.307 356.109,996 z" id="boundary" inkscape:connector-curvature="0" />
	<path style="fill:none;stroke:red;stroke-width:1px;stroke-linecap:butt;stroke-linejoin:miter;stroke-opacity:1" d="M 347.645,901.201 356.109,885.966 z" id="boundary" inkscape:connector-curvature="0" />
	<path style="fill:none;stroke:red;stroke-width:1px;stroke-linecap:butt;stroke-linejoin:miter;stroke-opacity:1" d="M 351.031,852.109 351.031,869.038 z" id="boundary" inkscape:connector-curvature="0" />
	<path style="fill:none;stroke:red;stroke-width:1px;stroke-linecap:butt;stroke-linejoin:miter;stroke-opacity:1" d="M 351.031,869.038 356.109,885.966 z" id="boundary" inkscape:connector-curvature="0" />
	<path style="fill:none;stroke:red;stroke-width:1px;stroke-linecap:butt;stroke-linejoin:miter;stroke-opacity:1" d="M 354.416,46.3208 367.959,58.1706 z" id="boundary" inkscape:connector-curvature="0" />
	<path style="fill:none;stroke:red;stroke-width:1px;stroke-linecap:butt;stroke-linejoin:miter;stroke-opacity:1" d="M 356.109,996 373.038,996 z" id="boundary" inkscape:connector-curvature="0" />
	<path style="fill:none;stroke:red;stroke-width:1px;stroke-linecap:butt;stroke-linejoin:miter;stroke-opacity:1" d="M 367.959,58.1706 378.116,73.4061 z" id="boundary" inkscape:connector-curvature="0" />
	<path style="fill:none;stroke:red;stroke-width:1px;stroke-linecap:butt;stroke-linejoin:miter;stroke-opacity:1" d="M 369.652,496.614 383.195,484.765 z" id="boundary" inkscape:connector-curvature="0" />
	<path style="fill:none;stroke:red;stroke-width:1px;stroke-linecap:butt;stroke-linejoin:miter;stroke-opacity:1" d="M 369.652,496.614 386.58,503.386 z" id="boundary" inkscape:connector-curvature="0" />
	<path style="fill:none;stroke:red;stroke-width:1px;stroke-linecap:butt;stroke-linejoin:miter;stroke-opacity:1" d="M 373.038,996 389.966,996 z" id="boundary" inkscape:connector-curvature="0" />
	<path style="fill:none;stroke:red;stroke-width:1px;stroke-linecap:butt;stroke-linejoin:miter;stroke-opacity:1" d="M 378.116,73.4061 386.58,88.6416 z" id="boundary" inkscape:connector-curvature="0" />
	<path style="fill:none;stroke:red;stroke-width:1px;stroke-linecap:butt;stroke-linejoin:miter;stroke-opacity:1" d="M 383.195,484.765 391.659,467.836 z" id="boundary" inkscape:connector-curvature="0" />
	<path style="fill:none;stroke:red;stroke-width:1px;stroke-linecap:butt;stroke-linejoin:miter;stroke-opacity:1" d="M 386.58,88.6416 395.044,103.877 z" id="boundary" inkscape:connector-curvature="0" />
	<path style="fill:none;stroke:red;stroke-width:1px;stroke-linecap:butt;stroke-linejoin:miter;stroke-opacity:1" d="M 386.58,503.386 403.509,503.386 z" id="boundary" inkscape:connector-curvature="0" />
	<path style="fill:none;stroke:red;stroke-width:1px;stroke-linecap:butt;stroke-linejoin:miter;stroke-opacity:1" d="M 386.58,936.751 403.509,902.894 z" id="boundary" inkscape:connector-curvature="0" />
	<path style="fill:none;stroke:red;stroke-width:1px;stroke-linecap:butt;stroke-linejoin:miter;stroke-opacity:1" d="M 386.58,936.751 403.509,943.522 z" id="boundary" inkscape:connector-curvature="0" />
	<path style="fill:none;stroke:red;stroke-width:1px;stroke-linecap:butt;stroke-linejoin:miter;stroke-opacity:1" d="M 389.966,996 406.894,996 z" id="boundary" inkscape:connector-curvature="0" />
	<path style="fill:none;stroke:red;stroke-width:1px;stroke-linecap:butt;stroke-linejoin:miter;stroke-opacity:1" d="M 391.659,467.836 408.587,459.372 z" id="boundary" inkscape:connector-curvature="0" />
	<path style="fill:none;stroke:red;stroke-width:1px;stroke-linecap:butt;stroke-linejoin:miter;stroke-opacity:1" d="M 395.044,103.877 395.044,120.805 z" id="boundary" inkscape:connector-curvature="0" />
	<path style="fill:none;stroke:red;stroke-width:1px;stroke-linecap:butt;stroke-linejoin:miter;stroke-opacity:1" d="M 395.044,120.805 395.044,137.734 z" id="boundary" inkscape:connector-curvature="0" />
	<path style="fill:none;stroke:red;stroke-width:1px;stroke-linecap:butt;stroke-linejoin:miter;stroke-opacity:1" d="M 395.044,137.734 395.044,154.662 z" id="boundary" inkscape:connector-curvature="0" />
	<path style="fill:none;stroke:red;stroke-width:1px;stroke-linecap:butt;stroke-linejoin:miter;stroke-opacity:1" d="M 395.044,154.662 395.044,171.59 z" id="boundary" inkscape:connector-curvature="0" />
	<path style="fill:none;stroke:red;stroke-width:1px;stroke-linecap:butt;stroke-linejoin:miter;stroke-opacity:1" d="M 395.044,171.59 411.973,164.819 z" id="boundary" inkscape:connector-curvature="0" />
	<path style="fill:none;stroke:red;stroke-width:1px;stroke-linecap:butt;stroke-linejoin:miter;stroke-opacity:1" d="M 395.044,555.863 395.044,572.792 z" id="boundary" inkscape:connector-curvature="0" />
	<path style="fill:none;stroke:red;stroke-width:1px;stroke-linecap:butt;stroke-linejoin:miter;stroke-opacity:1" d="M 395.044,555.863 411.973,555.863 z" id="boundary" inkscape:connector-curvature="0" />
	<path style="fill:none;stroke:red;stroke-width:1px;stroke-linecap:butt;stroke-linejoin:miter;stroke-opacity:1" d="M 395.044,572.792 395.044,589.72 z" id="boundary" inkscape:connector-curvature="0" />
	<path style="fill:none;stroke:red;stroke-width:1px;stroke-linecap:butt;stroke-linejoin:miter;stroke-opacity:1" d="M 395.044,589.72 395.044,606.648 z" id="boundary" inkscape:connector-curvature="0" />
	<path style="fill:none;stroke:red;stroke-width:1px;stroke-linecap:butt;stroke-linejoin:miter;stroke-opacity:1" d="M 395.044,606.648 395.044,632.041 z" id="boundary" inkscape:connector-curvature="0" />
	<path style="fill:none;stroke:red;stroke-width:1px;stroke-linecap:butt;stroke-linejoin:miter;stroke-opacity:1" d="M 395.044,632.041 403.509,647.276 z" id="boundary" inkscape:connector-curvature="0" />
	<path style="fill:none;stroke:red;stroke-width:1px;stroke-linecap:butt;stroke-linejoin:miter;stroke-opacity:1" d="M 403.509,503.386 420.437,503.386 z" id="boundary" inkscape:connector-curvature="0" />
	<path style="fill:none;stroke:red;stroke-width:1px;stroke-linecap:butt;stroke-linejoin:miter;stroke-opacity:1" d="M 403.509,647.276 403.509,664.205 z" id="boundary" inkscape:connector-curvature="0" />
	<path style="fill:none;stroke:red;stroke-width:1px;stroke-linecap:butt;stroke-linejoin:miter;stroke-opacity:1" d="M 403.509,664.205 403.509,681.133 z" id="boundary" inkscape:connector-curvature="0" />
	<path style="fill:none;stroke:red;stroke-width:1px;stroke-linecap:butt;stroke-linejoin:miter;stroke-opacity:1" d="M 403.509,681.133 403.509,698.061 z" id="boundary" inkscape:connector-curvature="0" />
	<path style="fill:none;stroke:red;stroke-width:1px;stroke-linecap:butt;stroke-linejoin:miter;stroke-opacity:1" d="M 403.509,698.061 411.973,713.297 z" id="boundary" inkscape:connector-curvature="0" />
	<path style="fill:none;stroke:red;stroke-width:1px;stroke-linecap:butt;stroke-linejoin:miter;stroke-opacity:1" d="M 403.509,902.894 417.051,891.044 z" id="boundary" inkscape:connector-curvature="0" />
	<path style="fill:none;stroke:red;stroke-width:1px;stroke-linecap:butt;stroke-linejoin:miter;stroke-opacity:1" d="M 403.509,943.522 420.437,943.522 z" id="boundary" inkscape:connector-curvature="0" />
	<path style="fill:none;stroke:red;stroke-width:1px;stroke-linecap:butt;stroke-linejoin:miter;stroke-opacity:1" d="M 406.894,996 423.823,996 z" id="boundary" inkscape:connector-curvature="0" />
	<path style="fill:none;stroke:red;stroke-width:1px;stroke-linecap:butt;stroke-linejoin:miter;stroke-opacity:1" d="M 408.587,459.372 417.051,442.444 z" id="boundary" inkscape:connector-curvature="0" />
	<path style="fill:none;stroke:red;stroke-width:1px;stroke-linecap:butt;stroke-linejoin:miter;stroke-opacity:1" d="M 411.973,164.819 420.437,180.055 z" id="boundary" inkscape:connector-curvature="0" />
	<path style="fill:none;stroke:red;stroke-width:1px;stroke-linecap:butt;stroke-linejoin:miter;stroke-opacity:1" d="M 411.973,555.863 427.208,564.328 z" id="boundary" inkscape:connector-curvature="0" />
	<path style="fill:none;stroke:red;stroke-width:1px;stroke-linecap:butt;stroke-linejoin:miter;stroke-opacity:1" d="M 411.973,713.297 425.515,725.147 z" id="boundary" inkscape:connector-curvature="0" />
	<path style="fill:none;stroke:red;stroke-width:1px;stroke-linecap:butt;stroke-linejoin:miter;stroke-opacity:1" d="M 417.051,442.444 428.901,420.437 z" id="boundary" inkscape:connector-curvature="0" />
	<path style="fill:none;stroke:red;stroke-width:1px;stroke-linecap:butt;stroke-linejoin:miter;stroke-opacity:1" d="M 417.051,891.044 428.901,877.502 z" id="boundary" inkscape:connector-curvature="0" />
	<path style="fill:none;stroke:red;stroke-width:1px;stroke-linecap:butt;stroke-linejoin:miter;stroke-opacity:1" d="M 420.437,180.055 437.365,176.669 z" id="boundary" inkscape:connector-curvature="0" />
	<path style="fill:none;stroke:red;stroke-width:1px;stroke-linecap:butt;stroke-linejoin:miter;stroke-opacity:1" d="M 420.437,503.386 437.365,508.464 z" id="boundary" inkscape:connector-curvature="0" />
	<path style="fill:none;stroke:red;stroke-width:1px;stroke-linecap:butt;stroke-linejoin:miter;stroke-opacity:1" d="M 420.437,943.522 437.365,943.522 z" id="boundary" inkscape:connector-curvature="0" />
	<path style="fill:none;stroke:red;stroke-width:1px;stroke-linecap:butt;stroke-linejoin:miter;stroke-opacity:1" d="M 423.823,996 440.751,996 z" id="boundary" inkscape:connector-curvature="0" />
	<path style="fill:none;stroke:red;stroke-width:1px;stroke-linecap:butt;stroke-linejoin:miter;stroke-opacity:1" d="M 425.515,725.147 428.901,742.075 z" id="boundary" inkscape:connector-curvature="0" />
	<path style="fill:none;stroke:red;stroke-width:1px;stroke-linecap:butt;stroke-linejoin:miter;stroke-opacity:1" d="M 427.208,564.328 437.365,577.87 z" id="boundary" inkscape:connector-curvature="0" />
	<path style="fill:none;stroke:red;stroke-width:1px;stroke-linecap:butt;stroke-linejoin:miter;stroke-opacity:1" d="M 428.901,420.437 445.829,411.973 z" id="boundary" inkscape:connector-curvature="0" />
	<path style="fill:none;stroke:red;stroke-width:1px;stroke-linecap:butt;stroke-linejoin:miter;stroke-opacity:1" d="M 428.901,742.075 432.287,759.003 z" id="boundary" inkscape:connector-curvature="0" />
	<path style="fill:none;stroke:red;stroke-width:1px;stroke-linecap:butt;stroke-linejoin:miter;stroke-opacity:1" d="M 428.901,877.502 444.137,869.038 z" id="boundary" inkscape:connector-curvature="0" />
	<path style="fill:none;stroke:red;stroke-width:1px;stroke-linecap:butt;stroke-linejoin:miter;stroke-opacity:1" d="M 432.287,759.003 445.829,770.853 z" id="boundary" inkscape:connector-curvature="0" />
	<path style="fill:none;stroke:red;stroke-width:1px;stroke-linecap:butt;stroke-linejoin:miter;stroke-opacity:1" d="M 437.365,176.669 454.294,168.205 z" id="boundary" inkscape:connector-curvature="0" />
	<path style="fill:none;stroke:red;stroke-width:1px;stroke-linecap:butt;stroke-linejoin:miter;stroke-opacity:1" d="M 437.365,508.464 449.215,522.007 z" id="boundary" inkscape:connector-curvature="0" />
	<path style="fill:none;stroke:red;stroke-width:1px;stroke-linecap:butt;stroke-linejoin:miter;stroke-opacity:1" d="M 437.365,577.87 450.908,589.72 z" id="boundary" inkscape:connector-curvature="0" />
	<path style="fill:none;stroke:red;stroke-width:1px;stroke-linecap:butt;stroke-linejoin:miter;stroke-opacity:1" d="M 437.365,943.522 452.601,935.058 z" id="boundary" inkscape:connector-curvature="0" />
	<path style="fill:none;stroke:red;stroke-width:1px;stroke-linecap:butt;stroke-linejoin:miter;stroke-opacity:1" d="M 440.751,996 457.679,996 z" id="boundary" inkscape:connector-curvature="0" />
	<path style="fill:none;stroke:red;stroke-width:1px;stroke-linecap:butt;stroke-linejoin:miter;stroke-opacity:1" d="M 444.137,869.038 457.679,858.881 z" id="boundary" inkscape:connector-curvature="0" />
	<path style="fill:none;stroke:red;stroke-width:1px;stroke-linecap:butt;stroke-linejoin:miter;stroke-opacity:1" d="M 445.829,411.973 459.372,400.123 z" id="boundary" inkscape:connector-curvature="0" />
	<path style="fill:none;stroke:red;stroke-width:1px;stroke-linecap:butt;stroke-linejoin:miter;stroke-opacity:1" d="M 445.829,770.853 452.601,787.782 z" id="boundary" inkscape:connector-curvature="0" />
	<path style="fill:none;stroke:red;stroke-width:1px;stroke-linecap:butt;stroke-linejoin:miter;stroke-opacity:1" d="M 449.215,522.007 462.758,533.857 z" id="boundary" inkscape:connector-curvature="0" />
	<path style="fill:none;stroke:red;stroke-width:1px;stroke-linecap:butt;stroke-linejoin:miter;stroke-opacity:1" d="M 450.908,589.72 462.758,603.263 z" id="boundary" inkscape:connector-curvature="0" />
	<path style="fill:none;stroke:red;stroke-width:1px;stroke-linecap:butt;stroke-linejoin:miter;stroke-opacity:1" d="M 452.601,787.782 469.529,791.167 z" id="boundary" inkscape:connector-curvature="0" />
	<path style="fill:none;stroke:red;stroke-width:1px;stroke-linecap:butt;stroke-linejoin:miter;stroke-opacity:1" d="M 452.601,935.058 469.529,929.98 z" id="boundary" inkscape:connector-curvature="0" />
	<path style="fill:none;stroke:red;stroke-width:1px;stroke-linecap:butt;stroke-linejoin:miter;stroke-opacity:1" d="M 454.294,168.205 467.836,156.355 z" id="boundary" inkscape:connector-curvature="0" />
	<path style="fill:none;stroke:red;stroke-width:1px;stroke-linecap:butt;stroke-linejoin:miter;stroke-opacity:1" d="M 457.679,858.881 462.758,835.181 z" id="boundary" inkscape:connector-curvature="0" />
	<path style="fill:none;stroke:red;stroke-width:1px;stroke-linecap:butt;stroke-linejoin:miter;stroke-opacity:1" d="M 457.679,996 474.608,996 z" id="boundary" inkscape:connector-curvature="0" />
	<path style="fill:none;stroke:red;stroke-width:1px;stroke-linecap:butt;stroke-linejoin:miter;stroke-opacity:1" d="M 459.372,400.123 471.222,378.116 z" id="boundary" inkscape:connector-curvature="0" />
	<path style="fill:none;stroke:red;stroke-width:1px;stroke-linecap:butt;stroke-linejoin:miter;stroke-opacity:1" d="M 462.758,533.857 474.608,547.399 z" id="boundary" inkscape:connector-curvature="0" />
	<path style="fill:none;stroke:red;stroke-width:1px;stroke-linecap:butt;stroke-linejoin:miter;stroke-opacity:1" d="M 462.758,603.263 476.3,615.113 z" id="boundary" inkscape:connector-curvature="0" />
	<path style="fill:none;stroke:red;stroke-width:1px;stroke-linecap:butt;stroke-linejoin:miter;stroke-opacity:1" d="M 462.758,835.181 479.686,835.181 z" id="boundary" inkscape:connector-curvature="0" />
	<path style="fill:none;stroke:red;stroke-width:1px;stroke-linecap:butt;stroke-linejoin:miter;stroke-opacity:1" d="M 467.836,156.355 469.529,136.041 z" id="boundary" inkscape:connector-curvature="0" />
	<path style="fill:none;stroke:red;stroke-width:1px;stroke-linecap:butt;stroke-linejoin:miter;stroke-opacity:1" d="M 469.529,136.041 483.072,122.498 z" id="boundary" inkscape:connector-curvature="0" />
	<path style="fill:none;stroke:red;stroke-width:1px;stroke-linecap:butt;stroke-linejoin:miter;stroke-opacity:1" d="M 469.529,791.167 486.457,791.167 z" id="boundary" inkscape:connector-curvature="0" />
	<path style="fill:none;stroke:red;stroke-width:1px;stroke-linecap:butt;stroke-linejoin:miter;stroke-opacity:1" d="M 469.529,929.98 486.457,926.594 z" id="boundary" inkscape:connector-curvature="0" />
	<path style="fill:none;stroke:red;stroke-width:1px;stroke-linecap:butt;stroke-linejoin:miter;stroke-opacity:1" d="M 471.222,378.116 488.15,369.652 z" id="boundary" inkscape:connector-curvature="0" />
	<path style="fill:none;stroke:red;stroke-width:1px;stroke-linecap:butt;stroke-linejoin:miter;stroke-opacity:1" d="M 474.608,547.399 479.686,572.792 z" id="boundary" inkscape:connector-curvature="0" />
	<path style="fill:none;stroke:red;stroke-width:1px;stroke-linecap:butt;stroke-linejoin:miter;stroke-opacity:1" d="M 474.608,996 491.536,996 z" id="boundary" inkscape:connector-curvature="0" />
	<path style="fill:none;stroke:red;stroke-width:1px;stroke-linecap:butt;stroke-linejoin:miter;stroke-opacity:1" d="M 476.3,615.113 483.072,632.041 z" id="boundary" inkscape:connector-curvature="0" />
	<path style="fill:none;stroke:red;stroke-width:1px;stroke-linecap:butt;stroke-linejoin:miter;stroke-opacity:1" d="M 479.686,572.792 488.15,588.027 z" id="boundary" inkscape:connector-curvature="0" />
	<path style="fill:none;stroke:red;stroke-width:1px;stroke-linecap:butt;stroke-linejoin:miter;stroke-opacity:1" d="M 479.686,835.181 496.614,835.181 z" id="boundary" inkscape:connector-curvature="0" />
	<path style="fill:none;stroke:red;stroke-width:1px;stroke-linecap:butt;stroke-linejoin:miter;stroke-opacity:1" d="M 483.072,122.498 498.307,114.034 z" id="boundary" inkscape:connector-curvature="0" />
	<path style="fill:none;stroke:red;stroke-width:1px;stroke-linecap:butt;stroke-linejoin:miter;stroke-opacity:1" d="M 483.072,632.041 496.614,643.891 z" id="boundary" inkscape:connector-curvature="0" />
	<path style="fill:none;stroke:red;stroke-width:1px;stroke-linecap:butt;stroke-linejoin:miter;stroke-opacity:1" d="M 486.457,791.167 503.386,791.167 z" id="boundary" inkscape:connector-curvature="0" />
	<path style="fill:none;stroke:red;stroke-width:1px;stroke-linecap:butt;stroke-linejoin:miter;stroke-opacity:1" d="M 486.457,926.594 503.386,926.594 z" id="boundary" inkscape:connector-curvature="0" />
	<path style="fill:none;stroke:red;stroke-width:1px;stroke-linecap:butt;stroke-linejoin:miter;stroke-opacity:1" d="M 488.15,369.652 505.078,373.038 z" id="boundary" inkscape:connector-curvature="0" />
	<path style="fill:none;stroke:red;stroke-width:1px;stroke-linecap:butt;stroke-linejoin:miter;stroke-opacity:1" d="M 488.15,588.027 505.078,588.027 z" id="boundary" inkscape:connector-curvature="0" />
	<path style="fill:none;stroke:red;stroke-width:1px;stroke-linecap:butt;stroke-linejoin:miter;stroke-opacity:1" d="M 491.536,996 508.464,996 z" id="boundary" inkscape:connector-curvature="0" />
	<path style="fill:none;stroke:red;stroke-width:1px;stroke-linecap:butt;stroke-linejoin:miter;stroke-opacity:1" d="M 496.614,643.891 508.464,657.433 z" id="boundary" inkscape:connector-curvature="0" />
	<path style="fill:none;stroke:red;stroke-width:1px;stroke-linecap:butt;stroke-linejoin:miter;stroke-opacity:1" d="M 496.614,835.181 513.543,835.181 z" id="boundary" inkscape:connector-curvature="0" />
	<path style="fill:none;stroke:red;stroke-width:1px;stroke-linecap:butt;stroke-linejoin:miter;stroke-opacity:1" d="M 498.307,114.034 513.543,105.57 z" id="boundary" inkscape:connector-curvature="0" />
	<path style="fill:none;stroke:red;stroke-width:1px;stroke-linecap:butt;stroke-linejoin:miter;stroke-opacity:1" d="M 503.386,791.167 520.314,791.167 z" id="boundary" inkscape:connector-curvature="0" />
	<path style="fill:none;stroke:red;stroke-width:1px;stroke-linecap:butt;stroke-linejoin:miter;stroke-opacity:1" d="M 503.386,926.594 520.314,926.594 z" id="boundary" inkscape:connector-curvature="0" />
	<path style="fill:none;stroke:red;stroke-width:1px;stroke-linecap:butt;stroke-linejoin:miter;stroke-opacity:1" d="M 505.078,373.038 520.314,381.502 z" id="boundary" inkscape:connector-curvature="0" />
	<path style="fill:none;stroke:red;stroke-width:1px;stroke-linecap:butt;stroke-linejoin:miter;stroke-opacity:1" d="M 505.078,588.027 522.007,588.027 z" id="boundary" inkscape:connector-curvature="0" />
	<path style="fill:none;stroke:red;stroke-width:1px;stroke-linecap:butt;stroke-linejoin:miter;stroke-opacity:1" d="M 508.464,657.433 520.314,670.976 z" id="boundary" inkscape:connector-curvature="0" />
	<path style="fill:none;stroke:red;stroke-width:1px;stroke-linecap:butt;stroke-linejoin:miter;stroke-opacity:1" d="M 508.464,996 525.392,996 z" id="boundary" inkscape:connector-curvature="0" />
	<path style="fill:none;stroke:red;stroke-width:1px;stroke-linecap:butt;stroke-linejoin:miter;stroke-opacity:1" d="M 513.543,105.57 530.471,105.57 z" id="boundary" inkscape:connector-curvature="0" />
	<path style="fill:none;stroke:red;stroke-width:1px;stroke-linecap:butt;stroke-linejoin:miter;stroke-opacity:1" d="M 513.543,835.181 530.471,835.181 z" id="boundary" inkscape:connector-curvature="0" />
	<path style="fill:none;stroke:red;stroke-width:1px;stroke-linecap:butt;stroke-linejoin:miter;stroke-opacity:1" d="M 520.314,381.502 533.857,393.352 z" id="boundary" inkscape:connector-curvature="0" />
	<path style="fill:none;stroke:red;stroke-width:1px;stroke-linecap:butt;stroke-linejoin:miter;stroke-opacity:1" d="M 520.314,670.976 533.857,681.133 z" id="boundary" inkscape:connector-curvature="0" />
	<path style="fill:none;stroke:red;stroke-width:1px;stroke-linecap:butt;stroke-linejoin:miter;stroke-opacity:1" d="M 520.314,791.167 537.242,791.167 z" id="boundary" inkscape:connector-curvature="0" />
	<path style="fill:none;stroke:red;stroke-width:1px;stroke-linecap:butt;stroke-linejoin:miter;stroke-opacity:1" d="M 520.314,926.594 535.549,935.058 z" id="boundary" inkscape:connector-curvature="0" />
	<path style="fill:none;stroke:red;stroke-width:1px;stroke-linecap:butt;stroke-linejoin:miter;stroke-opacity:1" d="M 522.007,588.027 538.935,588.027 z" id="boundary" inkscape:connector-curvature="0" />
	<path style="fill:none;stroke:red;stroke-width:1px;stroke-linecap:butt;stroke-linejoin:miter;stroke-opacity:1" d="M 525.392,996 542.321,996 z" id="boundary" inkscape:connector-curvature="0" />
	<path style="fill:none;stroke:red;stroke-width:1px;stroke-linecap:butt;stroke-linejoin:miter;stroke-opacity:1" d="M 530.471,105.57 547.399,105.57 z" id="boundary" inkscape:connector-curvature="0" />
	<path style="fill:none;stroke:red;stroke-width:1px;stroke-linecap:butt;stroke-linejoin:miter;stroke-opacity:1" d="M 530.471,835.181 547.399,835.181 z" id="boundary" inkscape:connector-curvature="0" />
	<path style="fill:none;stroke:red;stroke-width:1px;stroke-linecap:butt;stroke-linejoin:miter;stroke-opacity:1" d="M 533.857,393.352 550.785,393.352 z" id="boundary" inkscape:connector-curvature="0" />
	<path style="fill:none;stroke:red;stroke-width:1px;stroke-linecap:butt;stroke-linejoin:miter;stroke-opacity:1" d="M 533.857,681.133 550.785,674.362 z" id="boundary" inkscape:connector-curvature="0" />
	<path style="fill:none;stroke:red;stroke-width:1px;stroke-linecap:butt;stroke-linejoin:miter;stroke-opacity:1" d="M 535.549,935.058 552.478,935.058 z" id="boundary" inkscape:connector-curvature="0" />
	<path style="fill:none;stroke:red;stroke-width:1px;stroke-linecap:butt;stroke-linejoin:miter;stroke-opacity:1" d="M 537.242,791.167 554.171,791.167 z" id="boundary" inkscape:connector-curvature="0" />
	<path style="fill:none;stroke:red;stroke-width:1px;stroke-linecap:butt;stroke-linejoin:miter;stroke-opacity:1" d="M 538.935,588.027 555.863,593.106 z" id="boundary" inkscape:connector-curvature="0" />
	<path style="fill:none;stroke:red;stroke-width:1px;stroke-linecap:butt;stroke-linejoin:miter;stroke-opacity:1" d="M 542.321,996 559.249,996 z" id="boundary" inkscape:connector-curvature="0" />
	<path style="fill:none;stroke:red;stroke-width:1px;stroke-linecap:butt;stroke-linejoin:miter;stroke-opacity:1" d="M 547.399,105.57 564.328,105.57 z" id="boundary" inkscape:connector-curvature="0" />
	<path style="fill:none;stroke:red;stroke-width:1px;stroke-linecap:butt;stroke-linejoin:miter;stroke-opacity:1" d="M 547.399,640.505 547.399,657.433 z" id="boundary" inkscape:connector-curvature="0" />
	<path style="fill:none;stroke:red;stroke-width:1px;stroke-linecap:butt;stroke-linejoin:miter;stroke-opacity:1" d="M 547.399,640.505 564.328,640.505 z" id="boundary" inkscape:connector-curvature="0" />
	<path style="fill:none;stroke:red;stroke-width:1px;stroke-linecap:butt;stroke-linejoin:miter;stroke-opacity:1" d="M 547.399,657.433 550.785,674.362 z" id="boundary" inkscape:connector-curvature="0" />
	<path style="fill:none;stroke:red;stroke-width:1px;stroke-linecap:butt;stroke-linejoin:miter;stroke-opacity:1" d="M 547.399,835.181 564.328,835.181 z" id="boundary" inkscape:connector-curvature="0" />
	<path style="fill:none;stroke:red;stroke-width:1px;stroke-linecap:butt;stroke-linejoin:miter;stroke-opacity:1" d="M 550.785,393.352 566.02,401.816 z" id="boundary" inkscape:connector-curvature="0" />
	<path style="fill:none;stroke:red;stroke-width:1px;stroke-linecap:butt;stroke-linejoin:miter;stroke-opacity:1" d="M 552.478,935.058 564.328,948.601 z" id="boundary" inkscape:connector-curvature="0" />
	<path style="fill:none;stroke:red;stroke-width:1px;stroke-linecap:butt;stroke-linejoin:miter;stroke-opacity:1" d="M 554.171,791.167 571.099,791.167 z" id="boundary" inkscape:connector-curvature="0" />
	<path style="fill:none;stroke:red;stroke-width:1px;stroke-linecap:butt;stroke-linejoin:miter;stroke-opacity:1" d="M 555.863,593.106 571.099,601.57 z" id="boundary" inkscape:connector-curvature="0" />
	<path style="fill:none;stroke:red;stroke-width:1px;stroke-linecap:butt;stroke-linejoin:miter;stroke-opacity:1" d="M 559.249,996 576.177,996 z" id="boundary" inkscape:connector-curvature="0" />
	<path style="fill:none;stroke:red;stroke-width:1px;stroke-linecap:butt;stroke-linejoin:miter;stroke-opacity:1" d="M 564.328,105.57 581.256,105.57 z" id="boundary" inkscape:connector-curvature="0" />
	<path style="fill:none;stroke:red;stroke-width:1px;stroke-linecap:butt;stroke-linejoin:miter;stroke-opacity:1" d="M 564.328,640.505 581.256,640.505 z" id="boundary" inkscape:connector-curvature="0" />
	<path style="fill:none;stroke:red;stroke-width:1px;stroke-linecap:butt;stroke-linejoin:miter;stroke-opacity:1" d="M 564.328,835.181 581.256,835.181 z" id="boundary" inkscape:connector-curvature="0" />
	<path style="fill:none;stroke:red;stroke-width:1px;stroke-linecap:butt;stroke-linejoin:miter;stroke-opacity:1" d="M 564.328,948.601 576.177,962.143 z" id="boundary" inkscape:connector-curvature="0" />
	<path style="fill:none;stroke:red;stroke-width:1px;stroke-linecap:butt;stroke-linejoin:miter;stroke-opacity:1" d="M 566.02,401.816 582.949,403.509 z" id="boundary" inkscape:connector-curvature="0" />
	<path style="fill:none;stroke:red;stroke-width:1px;stroke-linecap:butt;stroke-linejoin:miter;stroke-opacity:1" d="M 571.099,601.57 581.256,615.113 z" id="boundary" inkscape:connector-curvature="0" />
	<path style="fill:none;stroke:red;stroke-width:1px;stroke-linecap:butt;stroke-linejoin:miter;stroke-opacity:1" d="M 571.099,791.167 588.027,794.553 z" id="boundary" inkscape:connector-curvature="0" />
	<path style="fill:none;stroke:red;stroke-width:1px;stroke-linecap:butt;stroke-linejoin:miter;stroke-opacity:1" d="M 576.177,962.143 589.72,973.993 z" id="boundary" inkscape:connector-curvature="0" />
	<path style="fill:none;stroke:red;stroke-width:1px;stroke-linecap:butt;stroke-linejoin:miter;stroke-opacity:1" d="M 576.177,996 589.72,973.993 z" id="boundary" inkscape:connector-curvature="0" />
	<path style="fill:none;stroke:red;stroke-width:1px;stroke-linecap:butt;stroke-linejoin:miter;stroke-opacity:1" d="M 581.256,105.57 598.184,105.57 z" id="boundary" inkscape:connector-curvature="0" />
	<path style="fill:none;stroke:red;stroke-width:1px;stroke-linecap:butt;stroke-linejoin:miter;stroke-opacity:1" d="M 581.256,615.113 581.256,640.505 z" id="boundary" inkscape:connector-curvature="0" />
	<path style="fill:none;stroke:red;stroke-width:1px;stroke-linecap:butt;stroke-linejoin:miter;stroke-opacity:1" d="M 581.256,835.181 598.184,826.717 z" id="boundary" inkscape:connector-curvature="0" />
	<path style="fill:none;stroke:red;stroke-width:1px;stroke-linecap:butt;stroke-linejoin:miter;stroke-opacity:1" d="M 582.949,403.509 599.877,403.509 z" id="boundary" inkscape:connector-curvature="0" />
	<path style="fill:none;stroke:red;stroke-width:1px;stroke-linecap:butt;stroke-linejoin:miter;stroke-opacity:1" d="M 588.027,794.553 604.956,779.317 z" id="boundary" inkscape:connector-curvature="0" />
	<path style="fill:none;stroke:red;stroke-width:1px;stroke-linecap:butt;stroke-linejoin:miter;stroke-opacity:1" d="M 598.184,105.57 615.113,100.491 z" id="boundary" inkscape:connector-curvature="0" />
	<path style="fill:none;stroke:red;stroke-width:1px;stroke-linecap:butt;stroke-linejoin:miter;stroke-opacity:1" d="M 598.184,826.717 615.113,818.253 z" id="boundary" inkscape:connector-curvature="0" />
	<path style="fill:none;stroke:red;stroke-width:1px;stroke-linecap:butt;stroke-linejoin:miter;stroke-opacity:1" d="M 599.877,403.509 615.113,395.044 z" id="boundary" inkscape:connector-curvature="0" />
	<path style="fill:none;stroke:red;stroke-width:1px;stroke-linecap:butt;stroke-linejoin:miter;stroke-opacity:1" d="M 604.956,779.317 613.42,762.389 z" id="boundary" inkscape:connector-curvature="0" />
	<path style="fill:none;stroke:red;stroke-width:1px;stroke-linecap:butt;stroke-linejoin:miter;stroke-opacity:1" d="M 613.42,762.389 621.884,736.997 z" id="boundary" inkscape:connector-curvature="0" />
	<path style="fill:none;stroke:red;stroke-width:1px;stroke-linecap:butt;stroke-linejoin:miter;stroke-opacity:1" d="M 615.113,100.491 625.27,114.034 z" id="boundary" inkscape:connector-curvature="0" />
	<path style="fill:none;stroke:red;stroke-width:1px;stroke-linecap:butt;stroke-linejoin:miter;stroke-opacity:1" d="M 615.113,395.044 632.041,395.044 z" id="boundary" inkscape:connector-curvature="0" />
	<path style="fill:none;stroke:red;stroke-width:1px;stroke-linecap:butt;stroke-linejoin:miter;stroke-opacity:1" d="M 615.113,818.253 632.041,818.253 z" id="boundary" inkscape:connector-curvature="0" />
	<path style="fill:none;stroke:red;stroke-width:1px;stroke-linecap:butt;stroke-linejoin:miter;stroke-opacity:1" d="M 621.884,720.068 621.884,736.997 z" id="boundary" inkscape:connector-curvature="0" />
	<path style="fill:none;stroke:red;stroke-width:1px;stroke-linecap:butt;stroke-linejoin:miter;stroke-opacity:1" d="M 621.884,720.068 630.348,703.14 z" id="boundary" inkscape:connector-curvature="0" />
	<path style="fill:none;stroke:red;stroke-width:1px;stroke-linecap:butt;stroke-linejoin:miter;stroke-opacity:1" d="M 625.27,114.034 640.505,122.498 z" id="boundary" inkscape:connector-curvature="0" />
	<path style="fill:none;stroke:red;stroke-width:1px;stroke-linecap:butt;stroke-linejoin:miter;stroke-opacity:1" d="M 630.348,703.14 643.891,689.597 z" id="boundary" inkscape:connector-curvature="0" />
	<path style="fill:none;stroke:red;stroke-width:1px;stroke-linecap:butt;stroke-linejoin:miter;stroke-opacity:1" d="M 632.041,395.044 647.276,386.58 z" id="boundary" inkscape:connector-curvature="0" />
	<path style="fill:none;stroke:red;stroke-width:1px;stroke-linecap:butt;stroke-linejoin:miter;stroke-opacity:1" d="M 632.041,818.253 647.276,809.788 z" id="boundary" inkscape:connector-curvature="0" />
	<path style="fill:none;stroke:red;stroke-width:1px;stroke-linecap:butt;stroke-linejoin:miter;stroke-opacity:1" d="M 638.812,660.819 643.891,689.597 z" id="boundary" inkscape:connector-curvature="0" />
	<path style="fill:none;stroke:red;stroke-width:1px;stroke-linecap:butt;stroke-linejoin:miter;stroke-opacity:1" d="M 638.812,660.819 647.276,635.427 z" id="boundary" inkscape:connector-curvature="0" />
	<path style="fill:none;stroke:red;stroke-width:1px;stroke-linecap:butt;stroke-linejoin:miter;stroke-opacity:1" d="M 640.505,122.498 657.433,122.498 z" id="boundary" inkscape:connector-curvature="0" />
	<path style="fill:none;stroke:red;stroke-width:1px;stroke-linecap:butt;stroke-linejoin:miter;stroke-opacity:1" d="M 647.276,386.58 662.512,378.116 z" id="boundary" inkscape:connector-curvature="0" />
	<path style="fill:none;stroke:red;stroke-width:1px;stroke-linecap:butt;stroke-linejoin:miter;stroke-opacity:1" d="M 647.276,618.498 647.276,635.427 z" id="boundary" inkscape:connector-curvature="0" />
	<path style="fill:none;stroke:red;stroke-width:1px;stroke-linecap:butt;stroke-linejoin:miter;stroke-opacity:1" d="M 647.276,618.498 655.741,601.57 z" id="boundary" inkscape:connector-curvature="0" />
	<path style="fill:none;stroke:red;stroke-width:1px;stroke-linecap:butt;stroke-linejoin:miter;stroke-opacity:1" d="M 647.276,809.788 657.433,792.86 z" id="boundary" inkscape:connector-curvature="0" />
	<path style="fill:none;stroke:red;stroke-width:1px;stroke-linecap:butt;stroke-linejoin:miter;stroke-opacity:1" d="M 655.741,601.57 664.205,584.642 z" id="boundary" inkscape:connector-curvature="0" />
	<path style="fill:none;stroke:red;stroke-width:1px;stroke-linecap:butt;stroke-linejoin:miter;stroke-opacity:1" d="M 657.433,122.498 657.433,139.427 z" id="boundary" inkscape:connector-curvature="0" />
	<path style="fill:none;stroke:red;stroke-width:1px;stroke-linecap:butt;stroke-linejoin:miter;stroke-opacity:1" d="M 657.433,139.427 670.976,149.584 z" id="boundary" inkscape:connector-curvature="0" />
	<path style="fill:none;stroke:red;stroke-width:1px;stroke-linecap:butt;stroke-linejoin:miter;stroke-opacity:1" d="M 657.433,792.86 665.898,775.932 z" id="boundary" inkscape:connector-curvature="0" />
	<path style="fill:none;stroke:red;stroke-width:1px;stroke-linecap:butt;stroke-linejoin:miter;stroke-opacity:1" d="M 662.512,378.116 674.362,351.031 z" id="boundary" inkscape:connector-curvature="0" />
	<path style="fill:none;stroke:red;stroke-width:1px;stroke-linecap:butt;stroke-linejoin:miter;stroke-opacity:1" d="M 664.205,567.713 664.205,584.642 z" id="boundary" inkscape:connector-curvature="0" />
	<path style="fill:none;stroke:red;stroke-width:1px;stroke-linecap:butt;stroke-linejoin:miter;stroke-opacity:1" d="M 664.205,567.713 672.669,550.785 z" id="boundary" inkscape:connector-curvature="0" />
	<path style="fill:none;stroke:red;stroke-width:1px;stroke-linecap:butt;stroke-linejoin:miter;stroke-opacity:1" d="M 665.898,217.297 674.362,200.369 z" id="boundary" inkscape:connector-curvature="0" />
	<path style="fill:none;stroke:red;stroke-width:1px;stroke-linecap:butt;stroke-linejoin:miter;stroke-opacity:1" d="M 665.898,217.297 674.362,232.532 z" id="boundary" inkscape:connector-curvature="0" />
	<path style="fill:none;stroke:red;stroke-width:1px;stroke-linecap:butt;stroke-linejoin:miter;stroke-opacity:1" d="M 665.898,775.932 679.44,764.082 z" id="boundary" inkscape:connector-curvature="0" />
	<path style="fill:none;stroke:red;stroke-width:1px;stroke-linecap:butt;stroke-linejoin:miter;stroke-opacity:1" d="M 670.976,149.584 674.362,166.512 z" id="boundary" inkscape:connector-curvature="0" />
	<path style="fill:none;stroke:red;stroke-width:1px;stroke-linecap:butt;stroke-linejoin:miter;stroke-opacity:1" d="M 672.669,550.785 689.597,533.857 z" id="boundary" inkscape:connector-curvature="0" />
	<path style="fill:none;stroke:red;stroke-width:1px;stroke-linecap:butt;stroke-linejoin:miter;stroke-opacity:1" d="M 674.362,166.512 674.362,183.44 z" id="boundary" inkscape:connector-curvature="0" />
	<path style="fill:none;stroke:red;stroke-width:1px;stroke-linecap:butt;stroke-linejoin:miter;stroke-opacity:1" d="M 674.362,183.44 674.362,200.369 z" id="boundary" inkscape:connector-curvature="0" />
	<path style="fill:none;stroke:red;stroke-width:1px;stroke-linecap:butt;stroke-linejoin:miter;stroke-opacity:1" d="M 674.362,232.532 674.362,249.461 z" id="boundary" inkscape:connector-curvature="0" />
	<path style="fill:none;stroke:red;stroke-width:1px;stroke-linecap:butt;stroke-linejoin:miter;stroke-opacity:1" d="M 674.362,249.461 674.362,266.389 z" id="boundary" inkscape:connector-curvature="0" />
	<path style="fill:none;stroke:red;stroke-width:1px;stroke-linecap:butt;stroke-linejoin:miter;stroke-opacity:1" d="M 674.362,266.389 674.362,283.317 z" id="boundary" inkscape:connector-curvature="0" />
	<path style="fill:none;stroke:red;stroke-width:1px;stroke-linecap:butt;stroke-linejoin:miter;stroke-opacity:1" d="M 674.362,283.317 674.362,300.246 z" id="boundary" inkscape:connector-curvature="0" />
	<path style="fill:none;stroke:red;stroke-width:1px;stroke-linecap:butt;stroke-linejoin:miter;stroke-opacity:1" d="M 674.362,300.246 674.362,317.174 z" id="boundary" inkscape:connector-curvature="0" />
	<path style="fill:none;stroke:red;stroke-width:1px;stroke-linecap:butt;stroke-linejoin:miter;stroke-opacity:1" d="M 674.362,317.174 674.362,334.102 z" id="boundary" inkscape:connector-curvature="0" />
	<path style="fill:none;stroke:red;stroke-width:1px;stroke-linecap:butt;stroke-linejoin:miter;stroke-opacity:1" d="M 674.362,334.102 674.362,351.031 z" id="boundary" inkscape:connector-curvature="0" />
	<path style="fill:none;stroke:red;stroke-width:1px;stroke-linecap:butt;stroke-linejoin:miter;stroke-opacity:1" d="M 679.44,764.082 691.29,742.075 z" id="boundary" inkscape:connector-curvature="0" />
	<path style="fill:none;stroke:red;stroke-width:1px;stroke-linecap:butt;stroke-linejoin:miter;stroke-opacity:1" d="M 689.597,533.857 706.526,528.778 z" id="boundary" inkscape:connector-curvature="0" />
	<path style="fill:none;stroke:red;stroke-width:1px;stroke-linecap:butt;stroke-linejoin:miter;stroke-opacity:1" d="M 691.29,742.075 699.754,725.147 z" id="boundary" inkscape:connector-curvature="0" />
	<path style="fill:none;stroke:red;stroke-width:1px;stroke-linecap:butt;stroke-linejoin:miter;stroke-opacity:1" d="M 699.754,623.577 699.754,640.505 z" id="boundary" inkscape:connector-curvature="0" />
	<path style="fill:none;stroke:red;stroke-width:1px;stroke-linecap:butt;stroke-linejoin:miter;stroke-opacity:1" d="M 699.754,623.577 708.218,606.648 z" id="boundary" inkscape:connector-curvature="0" />
	<path style="fill:none;stroke:red;stroke-width:1px;stroke-linecap:butt;stroke-linejoin:miter;stroke-opacity:1" d="M 699.754,640.505 699.754,657.433 z" id="boundary" inkscape:connector-curvature="0" />
	<path style="fill:none;stroke:red;stroke-width:1px;stroke-linecap:butt;stroke-linejoin:miter;stroke-opacity:1" d="M 699.754,657.433 699.754,674.362 z" id="boundary" inkscape:connector-curvature="0" />
	<path style="fill:none;stroke:red;stroke-width:1px;stroke-linecap:butt;stroke-linejoin:miter;stroke-opacity:1" d="M 699.754,674.362 699.754,691.29 z" id="boundary" inkscape:connector-curvature="0" />
	<path style="fill:none;stroke:red;stroke-width:1px;stroke-linecap:butt;stroke-linejoin:miter;stroke-opacity:1" d="M 699.754,691.29 699.754,708.218 z" id="boundary" inkscape:connector-curvature="0" />
	<path style="fill:none;stroke:red;stroke-width:1px;stroke-linecap:butt;stroke-linejoin:miter;stroke-opacity:1" d="M 699.754,708.218 699.754,725.147 z" id="boundary" inkscape:connector-curvature="0" />
	<path style="fill:none;stroke:red;stroke-width:1px;stroke-linecap:butt;stroke-linejoin:miter;stroke-opacity:1" d="M 706.526,528.778 721.761,520.314 z" id="boundary" inkscape:connector-curvature="0" />
	<path style="fill:none;stroke:red;stroke-width:1px;stroke-linecap:butt;stroke-linejoin:miter;stroke-opacity:1" d="M 708.218,606.648 716.683,589.72 z" id="boundary" inkscape:connector-curvature="0" />
	<path style="fill:none;stroke:red;stroke-width:1px;stroke-linecap:butt;stroke-linejoin:miter;stroke-opacity:1" d="M 716.683,589.72 731.918,581.256 z" id="boundary" inkscape:connector-curvature="0" />
	<path style="fill:none;stroke:red;stroke-width:1px;stroke-linecap:butt;stroke-linejoin:miter;stroke-opacity:1" d="M 721.761,520.314 736.997,511.85 z" id="boundary" inkscape:connector-curvature="0" />
	<path style="fill:none;stroke:red;stroke-width:1px;stroke-linecap:butt;stroke-linejoin:miter;stroke-opacity:1" d="M 731.918,581.256 748.846,581.256 z" id="boundary" inkscape:connector-curvature="0" />
	<path style="fill:none;stroke:red;stroke-width:1px;stroke-linecap:butt;stroke-linejoin:miter;stroke-opacity:1" d="M 736.997,511.85 752.232,520.314 z" id="boundary" inkscape:connector-curvature="0" />
	<path style="fill:none;stroke:red;stroke-width:1px;stroke-linecap:butt;stroke-linejoin:miter;stroke-opacity:1" d="M 748.846,581.256 765.775,581.256 z" id="boundary" inkscape:connector-curvature="0" />
	<path style="fill:none;stroke:red;stroke-width:1px;stroke-linecap:butt;stroke-linejoin:miter;stroke-opacity:1" d="M 752.232,520.314 767.468,528.778 z" id="boundary" inkscape:connector-curvature="0" />
	<path style="fill:none;stroke:red;stroke-width:1px;stroke-linecap:butt;stroke-linejoin:miter;stroke-opacity:1" d="M 765.775,581.256 782.703,576.177 z" id="boundary" inkscape:connector-curvature="0" />
	<path style="fill:none;stroke:red;stroke-width:1px;stroke-linecap:butt;stroke-linejoin:miter;stroke-opacity:1" d="M 767.468,528.778 781.01,538.935 z" id="boundary" inkscape:connector-curvature="0" />
	<path style="fill:none;stroke:red;stroke-width:1px;stroke-linecap:butt;stroke-linejoin:miter;stroke-opacity:1" d="M 781.01,538.935 784.396,555.863 z" id="boundary" inkscape:connector-curvature="0" />
	<path style="fill:none;stroke:red;stroke-width:1px;stroke-linecap:butt;stroke-linejoin:miter;stroke-opacity:1" d="M 782.703,576.177 784.396,555.863 z" id="boundary" inkscape:connector-curvature="0" />
	<circle cx="4" cy="957.065" r="4" fill="#0" id="circle0"/>
	<circle cx="12.4642" cy="972.3" r="4" fill="#0" id="circle1"/>
	<circle cx="17.5427" cy="943.522" r="4" fill="#0" id="circle2"/>
	<circle cx="24.314" cy="985.843" r="4" fill="#0" id="circle3"/>
	<circle cx="32.7782" cy="935.058" r="4" fill="#0" id="circle4"/>
	<circle cx="41.2423" cy="984.15" r="4" fill="#0" id="circle5"/>
	<circle cx="49.7065" cy="935.058" r="4" fill="#0" id="circle6"/>
	<circle cx="58.1706" cy="987.536" r="4" fill="#0" id="circle7"/>
	<circle cx="66.6348" cy="935.058" r="4" fill="#0" id="circle8"/>
	<circle cx="71.7133" cy="533.857" r="4" fill="#0" id="circle9"/>
	<circle cx="71.7133" cy="601.57" r="4" fill="#0" id="circle10"/>
	<circle cx="75.099" cy="987.536" r="4" fill="#0" id="circle11"/>
	<circle cx="80.1775" cy="516.928" r="4" fill="#0" id="circle12"/>
	<circle cx="80.1775" cy="549.092" r="4" fill="#0" id="circle13"/>
	<circle cx="80.1775" cy="566.02" r="4" fill="#0" id="circle14"/>
	<circle cx="80.1775" cy="582.949" r="4" fill="#0" id="circle15"/>
	<circle cx="83.5631" cy="935.058" r="4" fill="#0" id="circle16"/>
	<circle cx="88.6416" cy="500" r="4" fill="#0" id="circle17"/>
	<circle cx="88.6416" cy="606.648" r="4" fill="#0" id="circle18"/>
	<circle cx="92.0273" cy="987.536" r="4" fill="#0" id="circle19"/>
	<circle cx="100.491" cy="935.058" r="4" fill="#0" id="circle20"/>
	<circle cx="102.184" cy="486.457" r="4" fill="#0" id="circle21"/>
	<circle cx="105.57" cy="606.648" r="4" fill="#0" id="circle22"/>
	<circle cx="108.956" cy="987.536" r="4" fill="#0" id="circle23"/>
	<circle cx="110.648" cy="469.529" r="4" fill="#0" id="circle24"/>
	<circle cx="117.42" cy="935.058" r="4" fill="#0" id="circle25"/>
	<circle cx="119.113" cy="452.601" r="4" fill="#0" id="circle26"/>
	<circle cx="122.498" cy="601.57" r="4" fill="#0" id="circle27"/>
	<circle cx="125.884" cy="987.536" r="4" fill="#0" id="circle28"/>
	<circle cx="134.348" cy="444.137" r="4" fill="#0" id="circle29"/>
	<circle cx="134.348" cy="935.058" r="4" fill="#0" id="circle30"/>
	<circle cx="139.427" cy="423.823" r="4" fill="#0" id="circle31"/>
	<circle cx="139.427" cy="598.184" r="4" fill="#0" id="circle32"/>
	<circle cx="142.812" cy="987.536" r="4" fill="#0" id="circle33"/>
	<circle cx="151.276" cy="935.058" r="4" fill="#0" id="circle34"/>
	<circle cx="156.355" cy="76.7918" r="4" fill="#0" id="circle35"/>
	<circle cx="156.355" cy="93.7201" r="4" fill="#0" id="circle36"/>
	<circle cx="156.355" cy="110.648" r="4" fill="#0" id="circle37"/>
	<circle cx="156.355" cy="127.577" r="4" fill="#0" id="circle38"/>
	<circle cx="156.355" cy="144.505" r="4" fill="#0" id="circle39"/>
	<circle cx="156.355" cy="161.433" r="4" fill="#0" id="circle40"/>
	<circle cx="156.355" cy="178.362" r="4" fill="#0" id="circle41"/>
	<circle cx="156.355" cy="195.29" r="4" fill="#0" id="circle42"/>
	<circle cx="156.355" cy="406.894" r="4" fill="#0" id="circle43"/>
	<circle cx="156.355" cy="598.184" r="4" fill="#0" id="circle44"/>
	<circle cx="159.741" cy="987.536" r="4" fill="#0" id="circle45"/>
	<circle cx="164.819" cy="59.8635" r="4" fill="#0" id="circle46"/>
	<circle cx="168.205" cy="935.058" r="4" fill="#0" id="circle47"/>
	<circle cx="169.898" cy="207.14" r="4" fill="#0" id="circle48"/>
	<circle cx="169.898" cy="393.352" r="4" fill="#0" id="circle49"/>
	<circle cx="171.59" cy="589.72" r="4" fill="#0" id="circle50"/>
	<circle cx="173.283" cy="753.925" r="4" fill="#0" id="circle51"/>
	<circle cx="173.283" cy="770.853" r="4" fill="#0" id="circle52"/>
	<circle cx="173.283" cy="787.782" r="4" fill="#0" id="circle53"/>
	<circle cx="173.283" cy="804.71" r="4" fill="#0" id="circle54"/>
	<circle cx="173.283" cy="821.638" r="4" fill="#0" id="circle55"/>
	<circle cx="173.283" cy="838.567" r="4" fill="#0" id="circle56"/>
	<circle cx="173.283" cy="855.495" r="4" fill="#0" id="circle57"/>
	<circle cx="173.283" cy="872.423" r="4" fill="#0" id="circle58"/>
	<circle cx="176.669" cy="987.536" r="4" fill="#0" id="circle59"/>
	<circle cx="178.362" cy="46.3208" r="4" fill="#0" id="circle60"/>
	<circle cx="181.747" cy="220.683" r="4" fill="#0" id="circle61"/>
	<circle cx="181.747" cy="364.573" r="4" fill="#0" id="circle62"/>
	<circle cx="181.747" cy="728.532" r="4" fill="#0" id="circle63"/>
	<circle cx="185.133" cy="935.058" r="4" fill="#0" id="circle64"/>
	<circle cx="186.826" cy="29.3925" r="4" fill="#0" id="circle65"/>
	<circle cx="186.826" cy="581.256" r="4" fill="#0" id="circle66"/>
	<circle cx="186.826" cy="884.273" r="4" fill="#0" id="circle67"/>
	<circle cx="190.212" cy="703.14" r="4" fill="#0" id="circle68"/>
	<circle cx="193.597" cy="901.201" r="4" fill="#0" id="circle69"/>
	<circle cx="193.597" cy="987.536" r="4" fill="#0" id="circle70"/>
	<circle cx="195.29" cy="351.031" r="4" fill="#0" id="circle71"/>
	<circle cx="198.676" cy="225.761" r="4" fill="#0" id="circle72"/>
	<circle cx="198.676" cy="330.717" r="4" fill="#0" id="circle73"/>
	<circle cx="198.676" cy="677.747" r="4" fill="#0" id="circle74"/>
	<circle cx="202.061" cy="572.792" r="4" fill="#0" id="circle75"/>
	<circle cx="202.061" cy="936.751" r="4" fill="#0" id="circle76"/>
	<circle cx="203.754" cy="29.3925" r="4" fill="#0" id="circle77"/>
	<circle cx="207.14" cy="305.324" r="4" fill="#0" id="circle78"/>
	<circle cx="207.14" cy="652.355" r="4" fill="#0" id="circle79"/>
	<circle cx="207.14" cy="911.358" r="4" fill="#0" id="circle80"/>
	<circle cx="208.833" cy="239.304" r="4" fill="#0" id="circle81"/>
	<circle cx="210.526" cy="987.536" r="4" fill="#0" id="circle82"/>
	<circle cx="215.604" cy="635.427" r="4" fill="#0" id="circle83"/>
	<circle cx="215.604" cy="926.594" r="4" fill="#0" id="circle84"/>
	<circle cx="217.297" cy="564.328" r="4" fill="#0" id="circle85"/>
	<circle cx="218.99" cy="20.9283" r="4" fill="#0" id="circle86"/>
	<circle cx="220.683" cy="291.782" r="4" fill="#0" id="circle87"/>
	<circle cx="222.375" cy="251.154" r="4" fill="#0" id="circle88"/>
	<circle cx="224.068" cy="268.082" r="4" fill="#0" id="circle89"/>
	<circle cx="224.068" cy="618.498" r="4" fill="#0" id="circle90"/>
	<circle cx="225.761" cy="979.072" r="4" fill="#0" id="circle91"/>
	<circle cx="234.225" cy="555.863" r="4" fill="#0" id="circle92"/>
	<circle cx="235.918" cy="14.157" r="4" fill="#0" id="circle93"/>
	<circle cx="237.611" cy="604.956" r="4" fill="#0" id="circle94"/>
	<circle cx="242.689" cy="970.608" r="4" fill="#0" id="circle95"/>
	<circle cx="246.075" cy="588.027" r="4" fill="#0" id="circle96"/>
	<circle cx="251.154" cy="555.863" r="4" fill="#0" id="circle97"/>
	<circle cx="251.154" cy="936.751" r="4" fill="#0" id="circle98"/>
	<circle cx="251.154" cy="953.679" r="4" fill="#0" id="circle99"/>
	<circle cx="252.846" cy="12.4642" r="4" fill="#0" id="circle100"/>
	<circle cx="254.539" cy="572.792" r="4" fill="#0" id="circle101"/>
	<circle cx="259.618" cy="902.894" r="4" fill="#0" id="circle102"/>
	<circle cx="259.618" cy="919.823" r="4" fill="#0" id="circle103"/>
	<circle cx="268.082" cy="4" r="4" fill="#0" id="circle104"/>
	<circle cx="268.082" cy="843.645" r="4" fill="#0" id="circle105"/>
	<circle cx="268.082" cy="860.573" r="4" fill="#0" id="circle106"/>
	<circle cx="268.082" cy="877.502" r="4" fill="#0" id="circle107"/>
	<circle cx="285.01" cy="4" r="4" fill="#0" id="circle108"/>
	<circle cx="285.01" cy="843.645" r="4" fill="#0" id="circle109"/>
	<circle cx="301.939" cy="4" r="4" fill="#0" id="circle110"/>
	<circle cx="301.939" cy="843.645" r="4" fill="#0" id="circle111"/>
	<circle cx="318.867" cy="9.0785" r="4" fill="#0" id="circle112"/>
	<circle cx="318.867" cy="843.645" r="4" fill="#0" id="circle113"/>
	<circle cx="325.638" cy="931.672" r="4" fill="#0" id="circle114"/>
	<circle cx="325.638" cy="948.601" r="4" fill="#0" id="circle115"/>
	<circle cx="325.638" cy="965.529" r="4" fill="#0" id="circle116"/>
	<circle cx="325.638" cy="982.457" r="4" fill="#0" id="circle117"/>
	<circle cx="330.717" cy="22.6212" r="4" fill="#0" id="circle118"/>
	<circle cx="335.795" cy="843.645" r="4" fill="#0" id="circle119"/>
	<circle cx="339.181" cy="37.8567" r="4" fill="#0" id="circle120"/>
	<circle cx="339.181" cy="918.13" r="4" fill="#0" id="circle121"/>
	<circle cx="339.181" cy="994.307" r="4" fill="#0" id="circle122"/>
	<circle cx="347.645" cy="901.201" r="4" fill="#0" id="circle123"/>
	<circle cx="351.031" cy="852.109" r="4" fill="#0" id="circle124"/>
	<circle cx="351.031" cy="869.038" r="4" fill="#0" id="circle125"/>
	<circle cx="354.416" cy="46.3208" r="4" fill="#0" id="circle126"/>
	<circle cx="356.109" cy="885.966" r="4" fill="#0" id="circle127"/>
	<circle cx="356.109" cy="996" r="4" fill="#0" id="circle128"/>
	<circle cx="367.959" cy="58.1706" r="4" fill="#0" id="circle129"/>
	<circle cx="369.652" cy="496.614" r="4" fill="#0" id="circle130"/>
	<circle cx="373.038" cy="996" r="4" fill="#0" id="circle131"/>
	<circle cx="378.116" cy="73.4061" r="4" fill="#0" id="circle132"/>
	<circle cx="383.195" cy="484.765" r="4" fill="#0" id="circle133"/>
	<circle cx="386.58" cy="88.6416" r="4" fill="#0" id="circle134"/>
	<circle cx="386.58" cy="503.386" r="4" fill="#0" id="circle135"/>
	<circle cx="386.58" cy="936.751" r="4" fill="#0" id="circle136"/>
	<circle cx="389.966" cy="996" r="4" fill="#0" id="circle137"/>
	<circle cx="391.659" cy="467.836" r="4" fill="#0" id="circle138"/>
	<circle cx="395.044" cy="103.877" r="4" fill="#0" id="circle139"/>
	<circle cx="395.044" cy="120.805" r="4" fill="#0" id="circle140"/>
	<circle cx="395.044" cy="137.734" r="4" fill="#0" id="circle141"/>
	<circle cx="395.044" cy="154.662" r="4" fill="#0" id="circle142"/>
	<circle cx="395.044" cy="171.59" r="4" fill="#0" id="circle143"/>
	<circle cx="395.044" cy="555.863" r="4" fill="#0" id="circle144"/>
	<circle cx="395.044" cy="572.792" r="4" fill="#0" id="circle145"/>
	<circle cx="395.044" cy="589.72" r="4" fill="#0" id="circle146"/>
	<circle cx="395.044" cy="606.648" r="4" fill="#0" id="circle147"/>
	<circle cx="395.044" cy="632.041" r="4" fill="#0" id="circle148"/>
	<circle cx="400.123" cy="924.901" r="4" fill="#0" id="circle149"/>
	<circle cx="403.509" cy="503.386" r="4" fill="#0" id="circle150"/>
	<circle cx="403.509" cy="647.276" r="4" fill="#0" id="circle151"/>
	<circle cx="403.509" cy="664.205" r="4" fill="#0" id="circle152"/>
	<circle cx="403.509" cy="681.133" r="4" fill="#0" id="circle153"/>
	<circle cx="403.509" cy="698.061" r="4" fill="#0" id="circle154"/>
	<circle cx="403.509" cy="902.894" r="4" fill="#0" id="circle155"/>
	<circle cx="403.509" cy="943.522" r="4" fill="#0" id="circle156"/>
	<circle cx="406.894" cy="996" r="4" fill="#0" id="circle157"/>
	<circle cx="408.587" cy="459.372" r="4" fill="#0" id="circle158"/>
	<circle cx="411.973" cy="164.819" r="4" fill="#0" id="circle159"/>
	<circle cx="411.973" cy="555.863" r="4" fill="#0" id="circle160"/>
	<circle cx="411.973" cy="713.297" r="4" fill="#0" id="circle161"/>
	<circle cx="417.051" cy="442.444" r="4" fill="#0" id="circle162"/>
	<circle cx="417.051" cy="891.044" r="4" fill="#0" id="circle163"/>
	<circle cx="420.437" cy="180.055" r="4" fill="#0" id="circle164"/>
	<circle cx="420.437" cy="503.386" r="4" fill="#0" id="circle165"/>
	<circle cx="420.437" cy="943.522" r="4" fill="#0" id="circle166"/>
	<circle cx="423.823" cy="996" r="4" fill="#0" id="circle167"/>
	<circle cx="425.515" cy="725.147" r="4" fill="#0" id="circle168"/>
	<circle cx="427.208" cy="564.328" r="4" fill="#0" id="circle169"/>
	<circle cx="428.901" cy="420.437" r="4" fill="#0" id="circle170"/>
	<circle cx="428.901" cy="742.075" r="4" fill="#0" id="circle171"/>
	<circle cx="428.901" cy="877.502" r="4" fill="#0" id="circle172"/>
	<circle cx="432.287" cy="759.003" r="4" fill="#0" id="circle173"/>
	<circle cx="437.365" cy="176.669" r="4" fill="#0" id="circle174"/>
	<circle cx="437.365" cy="508.464" r="4" fill="#0" id="circle175"/>
	<circle cx="437.365" cy="577.87" r="4" fill="#0" id="circle176"/>
	<circle cx="437.365" cy="943.522" r="4" fill="#0" id="circle177"/>
	<circle cx="440.751" cy="996" r="4" fill="#0" id="circle178"/>
	<circle cx="444.137" cy="869.038" r="4" fill="#0" id="circle179"/>
	<circle cx="445.829" cy="411.973" r="4" fill="#0" id="circle180"/>
	<circle cx="445.829" cy="770.853" r="4" fill="#0" id="circle181"/>
	<circle cx="449.215" cy="522.007" r="4" fill="#0" id="circle182"/>
	<circle cx="450.908" cy="589.72" r="4" fill="#0" id="circle183"/>
	<circle cx="452.601" cy="787.782" r="4" fill="#0" id="circle184"/>
	<circle cx="452.601" cy="935.058" r="4" fill="#0" id="circle185"/>
	<circle cx="454.294" cy="168.205" r="4" fill="#0" id="circle186"/>
	<circle cx="457.679" cy="858.881" r="4" fill="#0" id="circle187"/>
	<circle cx="457.679" cy="996" r="4" fill="#0" id="circle188"/>
	<circle cx="459.372" cy="400.123" r="4" fill="#0" id="circle189"/>
	<circle cx="462.758" cy="533.857" r="4" fill="#0" id="circle190"/>
	<circle cx="462.758" cy="603.263" r="4" fill="#0" id="circle191"/>
	<circle cx="462.758" cy="835.181" r="4" fill="#0" id="circle192"/>
	<circle cx="467.836" cy="156.355" r="4" fill="#0" id="circle193"/>
	<circle cx="469.529" cy="136.041" r="4" fill="#0" id="circle194"/>
	<circle cx="469.529" cy="791.167" r="4" fill="#0" id="circle195"/>
	<circle cx="469.529" cy="929.98" r="4" fill="#0" id="circle196"/>
	<circle cx="471.222" cy="378.116" r="4" fill="#0" id="circle197"/>
	<circle cx="474.608" cy="547.399" r="4" fill="#0" id="circle198"/>
	<circle cx="474.608" cy="996" r="4" fill="#0" id="circle199"/>
	<circle cx="476.3" cy="615.113" r="4" fill="#0" id="circle200"/>
	<circle cx="479.686" cy="572.792" r="4" fill="#0" id="circle201"/>
	<circle cx="479.686" cy="835.181" r="4" fill="#0" id="circle202"/>
	<circle cx="483.072" cy="122.498" r="4" fill="#0" id="circle203"/>
	<circle cx="483.072" cy="632.041" r="4" fill="#0" id="circle204"/>
	<circle cx="486.457" cy="791.167" r="4" fill="#0" id="circle205"/>
	<circle cx="486.457" cy="926.594" r="4" fill="#0" id="circle206"/>
	<circle cx="488.15" cy="369.652" r="4" fill="#0" id="circle207"/>
	<circle cx="488.15" cy="588.027" r="4" fill="#0" id="circle208"/>
	<circle cx="491.536" cy="996" r="4" fill="#0" id="circle209"/>
	<circle cx="496.614" cy="643.891" r="4" fill="#0" id="circle210"/>
	<circle cx="496.614" cy="835.181" r="4" fill="#0" id="circle211"/>
	<circle cx="498.307" cy="114.034" r="4" fill="#0" id="circle212"/>
	<circle cx="503.386" cy="791.167" r="4" fill="#0" id="circle213"/>
	<circle cx="503.386" cy="926.594" r="4" fill="#0" id="circle214"/>
	<circle cx="505.078" cy="373.038" r="4" fill="#0" id="circle215"/>
	<circle cx="505.078" cy="588.027" r="4" fill="#0" id="circle216"/>
	<circle cx="508.464" cy="657.433" r="4" fill="#0" id="circle217"/>
	<circle cx="508.464" cy="996" r="4" fill="#0" id="circle218"/>
	<circle cx="513.543" cy="105.57" r="4" fill="#0" id="circle219"/>
	<circle cx="513.543" cy="835.181" r="4" fill="#0" id="circle220"/>
	<circle cx="520.314" cy="381.502" r="4" fill="#0" id="circle221"/>
	<circle cx="520.314" cy="670.976" r="4" fill="#0" id="circle222"/>
	<circle cx="520.314" cy="791.167" r="4" fill="#0" id="circle223"/>
	<circle cx="520.314" cy="926.594" r="4" fill="#0" id="circle224"/>
	<circle cx="522.007" cy="588.027" r="4" fill="#0" id="circle225"/>
	<circle cx="525.392" cy="996" r="4" fill="#0" id="circle226"/>
	<circle cx="530.471" cy="105.57" r="4" fill="#0" id="circle227"/>
	<circle cx="530.471" cy="835.181" r="4" fill="#0" id="circle228"/>
	<circle cx="533.857" cy="393.352" r="4" fill="#0" id="circle229"/>
	<circle cx="533.857" cy="681.133" r="4" fill="#0" id="circle230"/>
	<circle cx="535.549" cy="935.058" r="4" fill="#0" id="circle231"/>
	<circle cx="537.242" cy="791.167" r="4" fill="#0" id="circle232"/>
	<circle cx="538.935" cy="588.027" r="4" fill="#0" id="circle233"/>
	<circle cx="542.321" cy="996" r="4" fill="#0" id="circle234"/>
	<circle cx="547.399" cy="105.57" r="4" fill="#0" id="circle235"/>
	<circle cx="547.399" cy="640.505" r="4" fill="#0" id="circle236"/>
	<circle cx="547.399" cy="657.433" r="4" fill="#0" id="circle237"/>
	<circle cx="547.399" cy="835.181" r="4" fill="#0" id="circle238"/>
	<circle cx="550.785" cy="393.352" r="4" fill="#0" id="circle239"/>
	<circle cx="550.785" cy="674.362" r="4" fill="#0" id="circle240"/>
	<circle cx="552.478" cy="935.058" r="4" fill="#0" id="circle241"/>
	<circle cx="554.171" cy="791.167" r="4" fill="#0" id="circle242"/>
	<circle cx="555.863" cy="593.106" r="4" fill="#0" id="circle243"/>
	<circle cx="559.249" cy="996" r="4" fill="#0" id="circle244"/>
	<circle cx="564.328" cy="105.57" r="4" fill="#0" id="circle245"/>
	<circle cx="564.328" cy="640.505" r="4" fill="#0" id="circle246"/>
	<circle cx="564.328" cy="835.181" r="4" fill="#0" id="circle247"/>
	<circle cx="564.328" cy="948.601" r="4" fill="#0" id="circle248"/>
	<circle cx="566.02" cy="401.816" r="4" fill="#0" id="circle249"/>
	<circle cx="571.099" cy="601.57" r="4" fill="#0" id="circle250"/>
	<circle cx="571.099" cy="791.167" r="4" fill="#0" id="circle251"/>
	<circle cx="576.177" cy="962.143" r="4" fill="#0" id="circle252"/>
	<circle cx="576.177" cy="996" r="4" fill="#0" id="circle253"/>
	<circle cx="581.256" cy="105.57" r="4" fill="#0" id="circle254"/>
	<circle cx="581.256" cy="615.113" r="4" fill="#0" id="circle255"/>
	<circle cx="581.256" cy="640.505" r="4" fill="#0" id="circle256"/>
	<circle cx="581.256" cy="835.181" r="4" fill="#0" id="circle257"/>
	<circle cx="582.949" cy="403.509" r="4" fill="#0" id="circle258"/>
	<circle cx="588.027" cy="794.553" r="4" fill="#0" id="circle259"/>
	<circle cx="589.72" cy="973.993" r="4" fill="#0" id="circle260"/>
	<circle cx="598.184" cy="105.57" r="4" fill="#0" id="circle261"/>
	<circle cx="598.184" cy="826.717" r="4" fill="#0" id="circle262"/>
	<circle cx="599.877" cy="403.509" r="4" fill="#0" id="circle263"/>
	<circle cx="604.956" cy="779.317" r="4" fill="#0" id="circle264"/>
	<circle cx="613.42" cy="762.389" r="4" fill="#0" id="circle265"/>
	<circle cx="615.113" cy="100.491" r="4" fill="#0" id="circle266"/>
	<circle cx="615.113" cy="395.044" r="4" fill="#0" id="circle267"/>
	<circle cx="615.113" cy="818.253" r="4" fill="#0" id="circle268"/>
	<circle cx="621.884" cy="720.068" r="4" fill="#0" id="circle269"/>
	<circle cx="621.884" cy="736.997" r="4" fill="#0" id="circle270"/>
	<circle cx="625.27" cy="114.034" r="4" fill="#0" id="circle271"/>
	<circle cx="630.348" cy="703.14" r="4" fill="#0" id="circle272"/>
	<circle cx="632.041" cy="395.044" r="4" fill="#0" id="circle273"/>
	<circle cx="632.041" cy="818.253" r="4" fill="#0" id="circle274"/>
	<circle cx="638.812" cy="660.819" r="4" fill="#0" id="circle275"/>
	<circle cx="640.505" cy="122.498" r="4" fill="#0" id="circle276"/>
	<circle cx="643.891" cy="689.597" r="4" fill="#0" id="circle277"/>
	<circle cx="647.276" cy="386.58" r="4" fill="#0" id="circle278"/>
	<circle cx="647.276" cy="618.498" r="4" fill="#0" id="circle279"/>
	<circle cx="647.276" cy="635.427" r="4" fill="#0" id="circle280"/>
	<circle cx="647.276" cy="809.788" r="4" fill="#0" id="circle281"/>
	<circle cx="655.741" cy="601.57" r="4" fill="#0" id="circle282"/>
	<circle cx="657.433" cy="122.498" r="4" fill="#0" id="circle283"/>
	<circle cx="657.433" cy="139.427" r="4" fill="#0" id="circle284"/>
	<circle cx="657.433" cy="792.86" r="4" fill="#0" id="circle285"/>
	<circle cx="662.512" cy="378.116" r="4" fill="#0" id="circle286"/>
	<circle cx="664.205" cy="567.713" r="4" fill="#0" id="circle287"/>
	<circle cx="664.205" cy="584.642" r="4" fill="#0" id="circle288"/>
	<circle cx="665.898" cy="217.297" r="4" fill="#0" id="circle289"/>
	<circle cx="665.898" cy="775.932" r="4" fill="#0" id="circle290"/>
	<circle cx="670.976" cy="149.584" r="4" fill="#0" id="circle291"/>
	<circle cx="672.669" cy="550.785" r="4" fill="#0" id="circle292"/>
	<circle cx="674.362" cy="166.512" r="4" fill="#0" id="circle293"/>
	<circle cx="674.362" cy="183.44" r="4" fill="#0" id="circle294"/>
	<circle cx="674.362" cy="200.369" r="4" fill="#0" id="circle295"/>
	<circle cx="674.362" cy="232.532" r="4" fill="#0" id="circle296"/>
	<circle cx="674.362" cy="249.461" r="4" fill="#0" id="circle297"/>
	<circle cx="674.362" cy="266.389" r="4" fill="#0" id="circle298"/>
	<circle cx="674.362" cy="283.317" r="4" fill="#0" id="circle299"/>
	<circle cx="674.362" cy="300.246" r="4" fill="#0" id="circle300"/>
	<circle cx="674.362" cy="317.174" r="4" fill="#0" id="circle301"/>
	<circle cx="674.362" cy="334.102" r="4" fill="#0" id="circle302"/>
	<circle cx="674.362" cy="351.031" r="4" fill="#0" id="circle303"/>
	<circle cx="679.44" cy="764.082" r="4" fill="#0" id="circle304"/>
	<circle cx="689.597" cy="533.857" r="4" fill="#0" id="circle305"/>
	<circle cx="691.29" cy="742.075" r="4" fill="#0" id="circle306"/>
	<circle cx="699.754" cy="623.577" r="4" fill="#0" id="circle307"/>
	<circle cx="699.754" cy="640.505" r="4" fill="#0" id="circle308"/>
	<circle cx="699.754" cy="657.433" r="4" fill="#0" id="circle309"/>
	<circle cx="699.754" cy="674.362" r="4" fill="#0" id="circle310"/>
	<circle cx="699.754" cy="691.29" r="4" fill="#0" id="circle311"/>
	<circle cx="699.754" cy="708.218" r="4" fill="#0" id="circle312"/>
	<circle cx="699.754" cy="725.147" r="4" fill="#0" id="circle313"/>
	<circle cx="706.526" cy="528.778" r="4" fill="#0" id="circle314"/>
	<circle cx="708.218" cy="606.648" r="4" fill="#0" id="circle315"/>
	<circle cx="716.683" cy="589.72" r="4" fill="#0" id="circle316"/>
	<circle cx="721.761" cy="520.314" r="4" fill="#0" id="circle317"/>
	<circle cx="731.918" cy="581.256" r="4" fill="#0" id="circle318"/>
	<circle cx="736.997" cy="511.85" r="4" fill="#0" id="circle319"/>
	<circle cx="748.846" cy="581.256" r="4" fill="#0" id="circle320"/>
	<circle cx="752.232" cy="520.314" r="4" fill="#0" id="circle321"/>
	<circle cx="765.775" cy="581.256" r="4" fill="#0" id="circle322"/>
	<circle cx="767.468" cy="528.778" r="4" fill="#0" id="circle323"/>
	<circle cx="781.01" cy="538.935" r="4" fill="#0" id="circle324"/>
	<circle cx="782.703" cy="576.177" r="4" fill="#0" id="circle325"/>
	<circle cx="784.396" cy="555.863" r="4" fill="#0" id="circle326"/>
	</g>
</svg>