<?xml version="1.0" encoding="UTF-8" standalone="no"?>
<!-- Created with CurveBenchmark -->
<svg
	xmlns:dc="http://purl.org/dc/elements/1.1/"
	xmlns:cc="http://creativecommons.org/ns#"
	xmlns:rdf="http://www.w3.org/1999/02/22-rdf-syntax-ns#"
	xmlns:svg="http://www.w3.org/2000/svg"
	xmlns="http://www.w3.org/2000/svg"
	xmlns:sodipodi="http://sodipodi.sourceforge.net/DTD/sodipodi-0.dtd"
	xmlns:inkscape="http://www.inkscape.org/namespaces/inkscape"
	width="1000"
	height="1000"
	id="svg2"
	version="1.1"
	sodipodi:docname="manifold/fitconnect-ray03.png.txt">
<defs
	id="defs4" />
<metadata
	id="metadata7">
	<rdf:RDF>
		<cc:Work
			rdf:about="">
			<dc:format>image/svg+xml</dc:format>
			<dc:type
				rdf:resource="http://purl.org/dc/dcmitype/StillImage" />
			<dc:title></dc:title>
		</cc:Work>
	</rdf:RDF>
</metadata>
<g
	inkscape:label="Layer 1"
	inkscape:groupmode="layer"
	id="layer1">
	<path style="fill:none;stroke:red;stroke-width:1px;stroke-linecap:butt;stroke-linejoin:miter;stroke-opacity:1" d="M 4,397.162 4,411.154 z" id="boundary" inkscape:connector-curvature="0" />
	<path style="fill:none;stroke:red;stroke-width:1px;stroke-linecap:butt;stroke-linejoin:miter;stroke-opacity:1" d="M 4,397.162 15.1932,385.969 z" id="boundary" inkscape:connector-curvature="0" />
	<path style="fill:none;stroke:red;stroke-width:1px;stroke-linecap:butt;stroke-linejoin:miter;stroke-opacity:1" d="M 4,411.154 4,425.145 z" id="boundary" inkscape:connector-curvature="0" />
	<path style="fill:none;stroke:red;stroke-width:1px;stroke-linecap:butt;stroke-linejoin:miter;stroke-opacity:1" d="M 4,425.145 4,439.137 z" id="boundary" inkscape:connector-curvature="0" />
	<path style="fill:none;stroke:red;stroke-width:1px;stroke-linecap:butt;stroke-linejoin:miter;stroke-opacity:1" d="M 4,439.137 10.9958,451.729 z" id="boundary" inkscape:connector-curvature="0" />
	<path style="fill:none;stroke:red;stroke-width:1px;stroke-linecap:butt;stroke-linejoin:miter;stroke-opacity:1" d="M 10.9958,451.729 17.9915,464.322 z" id="boundary" inkscape:connector-curvature="0" />
	<path style="fill:none;stroke:red;stroke-width:1px;stroke-linecap:butt;stroke-linejoin:miter;stroke-opacity:1" d="M 15.1932,385.969 26.3865,374.776 z" id="boundary" inkscape:connector-curvature="0" />
	<path style="fill:none;stroke:red;stroke-width:1px;stroke-linecap:butt;stroke-linejoin:miter;stroke-opacity:1" d="M 17.9915,464.322 22.189,478.313 z" id="boundary" inkscape:connector-curvature="0" />
	<path style="fill:none;stroke:red;stroke-width:1px;stroke-linecap:butt;stroke-linejoin:miter;stroke-opacity:1" d="M 22.189,478.313 33.3822,488.107 z" id="boundary" inkscape:connector-curvature="0" />
	<path style="fill:none;stroke:red;stroke-width:1px;stroke-linecap:butt;stroke-linejoin:miter;stroke-opacity:1" d="M 26.3865,374.776 37.5797,364.982 z" id="boundary" inkscape:connector-curvature="0" />
	<path style="fill:none;stroke:red;stroke-width:1px;stroke-linecap:butt;stroke-linejoin:miter;stroke-opacity:1" d="M 33.3822,488.107 43.1763,499.3 z" id="boundary" inkscape:connector-curvature="0" />
	<path style="fill:none;stroke:red;stroke-width:1px;stroke-linecap:butt;stroke-linejoin:miter;stroke-opacity:1" d="M 37.5797,364.982 47.3738,353.788 z" id="boundary" inkscape:connector-curvature="0" />
	<path style="fill:none;stroke:red;stroke-width:1px;stroke-linecap:butt;stroke-linejoin:miter;stroke-opacity:1" d="M 43.1763,499.3 54.3695,509.094 z" id="boundary" inkscape:connector-curvature="0" />
	<path style="fill:none;stroke:red;stroke-width:1px;stroke-linecap:butt;stroke-linejoin:miter;stroke-opacity:1" d="M 47.3738,353.788 58.567,343.994 z" id="boundary" inkscape:connector-curvature="0" />
	<path style="fill:none;stroke:red;stroke-width:1px;stroke-linecap:butt;stroke-linejoin:miter;stroke-opacity:1" d="M 54.3695,509.094 66.9619,516.09 z" id="boundary" inkscape:connector-curvature="0" />
	<path style="fill:none;stroke:red;stroke-width:1px;stroke-linecap:butt;stroke-linejoin:miter;stroke-opacity:1" d="M 58.567,343.994 68.3611,332.801 z" id="boundary" inkscape:connector-curvature="0" />
	<path style="fill:none;stroke:red;stroke-width:1px;stroke-linecap:butt;stroke-linejoin:miter;stroke-opacity:1" d="M 66.9619,516.09 73.9577,528.683 z" id="boundary" inkscape:connector-curvature="0" />
	<path style="fill:none;stroke:red;stroke-width:1px;stroke-linecap:butt;stroke-linejoin:miter;stroke-opacity:1" d="M 68.3611,332.801 79.5543,323.007 z" id="boundary" inkscape:connector-curvature="0" />
	<path style="fill:none;stroke:red;stroke-width:1px;stroke-linecap:butt;stroke-linejoin:miter;stroke-opacity:1" d="M 73.9577,528.683 83.7518,539.876 z" id="boundary" inkscape:connector-curvature="0" />
	<path style="fill:none;stroke:red;stroke-width:1px;stroke-linecap:butt;stroke-linejoin:miter;stroke-opacity:1" d="M 79.5543,323.007 89.3484,311.814 z" id="boundary" inkscape:connector-curvature="0" />
	<path style="fill:none;stroke:red;stroke-width:1px;stroke-linecap:butt;stroke-linejoin:miter;stroke-opacity:1" d="M 83.7518,539.876 94.945,548.271 z" id="boundary" inkscape:connector-curvature="0" />
	<path style="fill:none;stroke:red;stroke-width:1px;stroke-linecap:butt;stroke-linejoin:miter;stroke-opacity:1" d="M 89.3484,311.814 100.542,302.02 z" id="boundary" inkscape:connector-curvature="0" />
	<path style="fill:none;stroke:red;stroke-width:1px;stroke-linecap:butt;stroke-linejoin:miter;stroke-opacity:1" d="M 94.945,548.271 107.537,555.267 z" id="boundary" inkscape:connector-curvature="0" />
	<path style="fill:none;stroke:red;stroke-width:1px;stroke-linecap:butt;stroke-linejoin:miter;stroke-opacity:1" d="M 100.542,302.02 113.134,295.024 z" id="boundary" inkscape:connector-curvature="0" />
	<path style="fill:none;stroke:red;stroke-width:1px;stroke-linecap:butt;stroke-linejoin:miter;stroke-opacity:1" d="M 107.537,555.267 120.13,562.262 z" id="boundary" inkscape:connector-curvature="0" />
	<path style="fill:none;stroke:red;stroke-width:1px;stroke-linecap:butt;stroke-linejoin:miter;stroke-opacity:1" d="M 113.134,295.024 125.726,288.028 z" id="boundary" inkscape:connector-curvature="0" />
	<path style="fill:none;stroke:red;stroke-width:1px;stroke-linecap:butt;stroke-linejoin:miter;stroke-opacity:1" d="M 120.13,562.262 132.722,569.258 z" id="boundary" inkscape:connector-curvature="0" />
	<path style="fill:none;stroke:red;stroke-width:1px;stroke-linecap:butt;stroke-linejoin:miter;stroke-opacity:1" d="M 125.726,288.028 136.92,278.234 z" id="boundary" inkscape:connector-curvature="0" />
	<path style="fill:none;stroke:red;stroke-width:1px;stroke-linecap:butt;stroke-linejoin:miter;stroke-opacity:1" d="M 132.722,569.258 145.315,576.254 z" id="boundary" inkscape:connector-curvature="0" />
	<path style="fill:none;stroke:red;stroke-width:1px;stroke-linecap:butt;stroke-linejoin:miter;stroke-opacity:1" d="M 136.92,278.234 148.113,267.041 z" id="boundary" inkscape:connector-curvature="0" />
	<path style="fill:none;stroke:red;stroke-width:1px;stroke-linecap:butt;stroke-linejoin:miter;stroke-opacity:1" d="M 145.315,576.254 157.907,583.25 z" id="boundary" inkscape:connector-curvature="0" />
	<path style="fill:none;stroke:red;stroke-width:1px;stroke-linecap:butt;stroke-linejoin:miter;stroke-opacity:1" d="M 148.113,267.041 162.104,260.045 z" id="boundary" inkscape:connector-curvature="0" />
	<path style="fill:none;stroke:red;stroke-width:1px;stroke-linecap:butt;stroke-linejoin:miter;stroke-opacity:1" d="M 157.907,583.25 170.499,590.245 z" id="boundary" inkscape:connector-curvature="0" />
	<path style="fill:none;stroke:red;stroke-width:1px;stroke-linecap:butt;stroke-linejoin:miter;stroke-opacity:1" d="M 162.104,260.045 173.298,248.852 z" id="boundary" inkscape:connector-curvature="0" />
	<path style="fill:none;stroke:red;stroke-width:1px;stroke-linecap:butt;stroke-linejoin:miter;stroke-opacity:1" d="M 170.499,590.245 180.293,601.439 z" id="boundary" inkscape:connector-curvature="0" />
	<path style="fill:none;stroke:red;stroke-width:1px;stroke-linecap:butt;stroke-linejoin:miter;stroke-opacity:1" d="M 173.298,248.852 180.293,234.86 z" id="boundary" inkscape:connector-curvature="0" />
	<path style="fill:none;stroke:red;stroke-width:1px;stroke-linecap:butt;stroke-linejoin:miter;stroke-opacity:1" d="M 180.293,234.86 191.487,225.066 z" id="boundary" inkscape:connector-curvature="0" />
	<path style="fill:none;stroke:red;stroke-width:1px;stroke-linecap:butt;stroke-linejoin:miter;stroke-opacity:1" d="M 180.293,601.439 191.487,611.233 z" id="boundary" inkscape:connector-curvature="0" />
	<path style="fill:none;stroke:red;stroke-width:1px;stroke-linecap:butt;stroke-linejoin:miter;stroke-opacity:1" d="M 191.487,225.066 201.281,213.873 z" id="boundary" inkscape:connector-curvature="0" />
	<path style="fill:none;stroke:red;stroke-width:1px;stroke-linecap:butt;stroke-linejoin:miter;stroke-opacity:1" d="M 191.487,611.233 204.079,618.228 z" id="boundary" inkscape:connector-curvature="0" />
	<path style="fill:none;stroke:red;stroke-width:1px;stroke-linecap:butt;stroke-linejoin:miter;stroke-opacity:1" d="M 201.281,213.873 212.474,204.079 z" id="boundary" inkscape:connector-curvature="0" />
	<path style="fill:none;stroke:red;stroke-width:1px;stroke-linecap:butt;stroke-linejoin:miter;stroke-opacity:1" d="M 204.079,618.228 218.071,623.825 z" id="boundary" inkscape:connector-curvature="0" />
	<path style="fill:none;stroke:red;stroke-width:1px;stroke-linecap:butt;stroke-linejoin:miter;stroke-opacity:1" d="M 212.474,204.079 225.066,197.083 z" id="boundary" inkscape:connector-curvature="0" />
	<path style="fill:none;stroke:red;stroke-width:1px;stroke-linecap:butt;stroke-linejoin:miter;stroke-opacity:1" d="M 218.071,623.825 230.663,630.821 z" id="boundary" inkscape:connector-curvature="0" />
	<path style="fill:none;stroke:red;stroke-width:1px;stroke-linecap:butt;stroke-linejoin:miter;stroke-opacity:1" d="M 225.066,197.083 232.062,183.092 z" id="boundary" inkscape:connector-curvature="0" />
	<path style="fill:none;stroke:red;stroke-width:1px;stroke-linecap:butt;stroke-linejoin:miter;stroke-opacity:1" d="M 230.663,630.821 241.856,639.216 z" id="boundary" inkscape:connector-curvature="0" />
	<path style="fill:none;stroke:red;stroke-width:1px;stroke-linecap:butt;stroke-linejoin:miter;stroke-opacity:1" d="M 232.062,183.092 243.255,171.898 z" id="boundary" inkscape:connector-curvature="0" />
	<path style="fill:none;stroke:red;stroke-width:1px;stroke-linecap:butt;stroke-linejoin:miter;stroke-opacity:1" d="M 241.856,639.216 255.848,639.216 z" id="boundary" inkscape:connector-curvature="0" />
	<path style="fill:none;stroke:red;stroke-width:1px;stroke-linecap:butt;stroke-linejoin:miter;stroke-opacity:1" d="M 243.255,171.898 250.251,157.907 z" id="boundary" inkscape:connector-curvature="0" />
	<path style="fill:none;stroke:red;stroke-width:1px;stroke-linecap:butt;stroke-linejoin:miter;stroke-opacity:1" d="M 250.251,157.907 261.444,148.113 z" id="boundary" inkscape:connector-curvature="0" />
	<path style="fill:none;stroke:red;stroke-width:1px;stroke-linecap:butt;stroke-linejoin:miter;stroke-opacity:1" d="M 255.848,639.216 268.44,646.212 z" id="boundary" inkscape:connector-curvature="0" />
	<path style="fill:none;stroke:red;stroke-width:1px;stroke-linecap:butt;stroke-linejoin:miter;stroke-opacity:1" d="M 261.444,148.113 271.238,136.92 z" id="boundary" inkscape:connector-curvature="0" />
	<path style="fill:none;stroke:red;stroke-width:1px;stroke-linecap:butt;stroke-linejoin:miter;stroke-opacity:1" d="M 268.44,646.212 281.032,653.207 z" id="boundary" inkscape:connector-curvature="0" />
	<path style="fill:none;stroke:red;stroke-width:1px;stroke-linecap:butt;stroke-linejoin:miter;stroke-opacity:1" d="M 271.238,136.92 282.432,127.126 z" id="boundary" inkscape:connector-curvature="0" />
	<path style="fill:none;stroke:red;stroke-width:1px;stroke-linecap:butt;stroke-linejoin:miter;stroke-opacity:1" d="M 281.032,653.207 295.024,658.804 z" id="boundary" inkscape:connector-curvature="0" />
	<path style="fill:none;stroke:red;stroke-width:1px;stroke-linecap:butt;stroke-linejoin:miter;stroke-opacity:1" d="M 282.432,127.126 290.827,110.336 z" id="boundary" inkscape:connector-curvature="0" />
	<path style="fill:none;stroke:red;stroke-width:1px;stroke-linecap:butt;stroke-linejoin:miter;stroke-opacity:1" d="M 290.827,110.336 302.02,99.1425 z" id="boundary" inkscape:connector-curvature="0" />
	<path style="fill:none;stroke:red;stroke-width:1px;stroke-linecap:butt;stroke-linejoin:miter;stroke-opacity:1" d="M 295.024,658.804 297.822,672.795 z" id="boundary" inkscape:connector-curvature="0" />
	<path style="fill:none;stroke:red;stroke-width:1px;stroke-linecap:butt;stroke-linejoin:miter;stroke-opacity:1" d="M 297.822,672.795 297.822,686.787 z" id="boundary" inkscape:connector-curvature="0" />
	<path style="fill:none;stroke:red;stroke-width:1px;stroke-linecap:butt;stroke-linejoin:miter;stroke-opacity:1" d="M 297.822,686.787 297.822,700.779 z" id="boundary" inkscape:connector-curvature="0" />
	<path style="fill:none;stroke:red;stroke-width:1px;stroke-linecap:butt;stroke-linejoin:miter;stroke-opacity:1" d="M 297.822,700.779 300.621,714.77 z" id="boundary" inkscape:connector-curvature="0" />
	<path style="fill:none;stroke:red;stroke-width:1px;stroke-linecap:butt;stroke-linejoin:miter;stroke-opacity:1" d="M 300.621,714.77 314.612,720.367 z" id="boundary" inkscape:connector-curvature="0" />
	<path style="fill:none;stroke:red;stroke-width:1px;stroke-linecap:butt;stroke-linejoin:miter;stroke-opacity:1" d="M 302.02,99.1425 311.814,82.3526 z" id="boundary" inkscape:connector-curvature="0" />
	<path style="fill:none;stroke:red;stroke-width:1px;stroke-linecap:butt;stroke-linejoin:miter;stroke-opacity:1" d="M 311.814,82.3526 318.81,68.3611 z" id="boundary" inkscape:connector-curvature="0" />
	<path style="fill:none;stroke:red;stroke-width:1px;stroke-linecap:butt;stroke-linejoin:miter;stroke-opacity:1" d="M 314.612,720.367 327.205,727.362 z" id="boundary" inkscape:connector-curvature="0" />
	<path style="fill:none;stroke:red;stroke-width:1px;stroke-linecap:butt;stroke-linejoin:miter;stroke-opacity:1" d="M 318.81,68.3611 330.003,57.1678 z" id="boundary" inkscape:connector-curvature="0" />
	<path style="fill:none;stroke:red;stroke-width:1px;stroke-linecap:butt;stroke-linejoin:miter;stroke-opacity:1" d="M 327.205,727.362 341.196,732.959 z" id="boundary" inkscape:connector-curvature="0" />
	<path style="fill:none;stroke:red;stroke-width:1px;stroke-linecap:butt;stroke-linejoin:miter;stroke-opacity:1" d="M 330.003,57.1678 336.999,43.1763 z" id="boundary" inkscape:connector-curvature="0" />
	<path style="fill:none;stroke:red;stroke-width:1px;stroke-linecap:butt;stroke-linejoin:miter;stroke-opacity:1" d="M 336.999,43.1763 339.797,26.3865 z" id="boundary" inkscape:connector-curvature="0" />
	<path style="fill:none;stroke:red;stroke-width:1px;stroke-linecap:butt;stroke-linejoin:miter;stroke-opacity:1" d="M 339.797,26.3865 346.793,12.3949 z" id="boundary" inkscape:connector-curvature="0" />
	<path style="fill:none;stroke:red;stroke-width:1px;stroke-linecap:butt;stroke-linejoin:miter;stroke-opacity:1" d="M 339.797,788.925 346.793,774.934 z" id="boundary" inkscape:connector-curvature="0" />
	<path style="fill:none;stroke:red;stroke-width:1px;stroke-linecap:butt;stroke-linejoin:miter;stroke-opacity:1" d="M 339.797,788.925 346.793,801.518 z" id="boundary" inkscape:connector-curvature="0" />
	<path style="fill:none;stroke:red;stroke-width:1px;stroke-linecap:butt;stroke-linejoin:miter;stroke-opacity:1" d="M 341.196,732.959 346.793,746.951 z" id="boundary" inkscape:connector-curvature="0" />
	<path style="fill:none;stroke:red;stroke-width:1px;stroke-linecap:butt;stroke-linejoin:miter;stroke-opacity:1" d="M 346.793,12.3949 360.784,5.39915 z" id="boundary" inkscape:connector-curvature="0" />
	<path style="fill:none;stroke:red;stroke-width:1px;stroke-linecap:butt;stroke-linejoin:miter;stroke-opacity:1" d="M 346.793,746.951 346.793,760.942 z" id="boundary" inkscape:connector-curvature="0" />
	<path style="fill:none;stroke:red;stroke-width:1px;stroke-linecap:butt;stroke-linejoin:miter;stroke-opacity:1" d="M 346.793,760.942 346.793,774.934 z" id="boundary" inkscape:connector-curvature="0" />
	<path style="fill:none;stroke:red;stroke-width:1px;stroke-linecap:butt;stroke-linejoin:miter;stroke-opacity:1" d="M 346.793,801.518 346.793,815.509 z" id="boundary" inkscape:connector-curvature="0" />
	<path style="fill:none;stroke:red;stroke-width:1px;stroke-linecap:butt;stroke-linejoin:miter;stroke-opacity:1" d="M 346.793,815.509 346.793,829.501 z" id="boundary" inkscape:connector-curvature="0" />
	<path style="fill:none;stroke:red;stroke-width:1px;stroke-linecap:butt;stroke-linejoin:miter;stroke-opacity:1" d="M 346.793,829.501 353.788,842.093 z" id="boundary" inkscape:connector-curvature="0" />
	<path style="fill:none;stroke:red;stroke-width:1px;stroke-linecap:butt;stroke-linejoin:miter;stroke-opacity:1" d="M 353.788,842.093 353.788,856.085 z" id="boundary" inkscape:connector-curvature="0" />
	<path style="fill:none;stroke:red;stroke-width:1px;stroke-linecap:butt;stroke-linejoin:miter;stroke-opacity:1" d="M 353.788,856.085 353.788,870.076 z" id="boundary" inkscape:connector-curvature="0" />
	<path style="fill:none;stroke:red;stroke-width:1px;stroke-linecap:butt;stroke-linejoin:miter;stroke-opacity:1" d="M 353.788,870.076 353.788,884.068 z" id="boundary" inkscape:connector-curvature="0" />
	<path style="fill:none;stroke:red;stroke-width:1px;stroke-linecap:butt;stroke-linejoin:miter;stroke-opacity:1" d="M 353.788,884.068 360.784,896.66 z" id="boundary" inkscape:connector-curvature="0" />
	<path style="fill:none;stroke:red;stroke-width:1px;stroke-linecap:butt;stroke-linejoin:miter;stroke-opacity:1" d="M 360.784,5.39915 374.776,4 z" id="boundary" inkscape:connector-curvature="0" />
	<path style="fill:none;stroke:red;stroke-width:1px;stroke-linecap:butt;stroke-linejoin:miter;stroke-opacity:1" d="M 360.784,896.66 367.78,909.252 z" id="boundary" inkscape:connector-curvature="0" />
	<path style="fill:none;stroke:red;stroke-width:1px;stroke-linecap:butt;stroke-linejoin:miter;stroke-opacity:1" d="M 367.78,909.252 374.776,921.845 z" id="boundary" inkscape:connector-curvature="0" />
	<path style="fill:none;stroke:red;stroke-width:1px;stroke-linecap:butt;stroke-linejoin:miter;stroke-opacity:1" d="M 374.776,4 383.171,15.1932 z" id="boundary" inkscape:connector-curvature="0" />
	<path style="fill:none;stroke:red;stroke-width:1px;stroke-linecap:butt;stroke-linejoin:miter;stroke-opacity:1" d="M 374.776,921.845 381.772,934.437 z" id="boundary" inkscape:connector-curvature="0" />
	<path style="fill:none;stroke:red;stroke-width:1px;stroke-linecap:butt;stroke-linejoin:miter;stroke-opacity:1" d="M 381.772,934.437 391.566,945.63 z" id="boundary" inkscape:connector-curvature="0" />
	<path style="fill:none;stroke:red;stroke-width:1px;stroke-linecap:butt;stroke-linejoin:miter;stroke-opacity:1" d="M 383.171,15.1932 390.166,27.7856 z" id="boundary" inkscape:connector-curvature="0" />
	<path style="fill:none;stroke:red;stroke-width:1px;stroke-linecap:butt;stroke-linejoin:miter;stroke-opacity:1" d="M 390.166,27.7856 397.162,40.378 z" id="boundary" inkscape:connector-curvature="0" />
	<path style="fill:none;stroke:red;stroke-width:1px;stroke-linecap:butt;stroke-linejoin:miter;stroke-opacity:1" d="M 391.566,945.63 402.759,954.025 z" id="boundary" inkscape:connector-curvature="0" />
	<path style="fill:none;stroke:red;stroke-width:1px;stroke-linecap:butt;stroke-linejoin:miter;stroke-opacity:1" d="M 397.162,40.378 406.956,51.5712 z" id="boundary" inkscape:connector-curvature="0" />
	<path style="fill:none;stroke:red;stroke-width:1px;stroke-linecap:butt;stroke-linejoin:miter;stroke-opacity:1" d="M 397.162,779.131 397.162,793.123 z" id="boundary" inkscape:connector-curvature="0" />
	<path style="fill:none;stroke:red;stroke-width:1px;stroke-linecap:butt;stroke-linejoin:miter;stroke-opacity:1" d="M 397.162,779.131 404.158,758.144 z" id="boundary" inkscape:connector-curvature="0" />
	<path style="fill:none;stroke:red;stroke-width:1px;stroke-linecap:butt;stroke-linejoin:miter;stroke-opacity:1" d="M 397.162,793.123 397.162,807.114 z" id="boundary" inkscape:connector-curvature="0" />
	<path style="fill:none;stroke:red;stroke-width:1px;stroke-linecap:butt;stroke-linejoin:miter;stroke-opacity:1" d="M 397.162,807.114 397.162,821.106 z" id="boundary" inkscape:connector-curvature="0" />
	<path style="fill:none;stroke:red;stroke-width:1px;stroke-linecap:butt;stroke-linejoin:miter;stroke-opacity:1" d="M 397.162,821.106 397.162,835.097 z" id="boundary" inkscape:connector-curvature="0" />
	<path style="fill:none;stroke:red;stroke-width:1px;stroke-linecap:butt;stroke-linejoin:miter;stroke-opacity:1" d="M 397.162,835.097 404.158,847.69 z" id="boundary" inkscape:connector-curvature="0" />
	<path style="fill:none;stroke:red;stroke-width:1px;stroke-linecap:butt;stroke-linejoin:miter;stroke-opacity:1" d="M 402.759,954.025 411.154,965.219 z" id="boundary" inkscape:connector-curvature="0" />
	<path style="fill:none;stroke:red;stroke-width:1px;stroke-linecap:butt;stroke-linejoin:miter;stroke-opacity:1" d="M 404.158,758.144 411.154,744.152 z" id="boundary" inkscape:connector-curvature="0" />
	<path style="fill:none;stroke:red;stroke-width:1px;stroke-linecap:butt;stroke-linejoin:miter;stroke-opacity:1" d="M 404.158,847.69 404.158,861.681 z" id="boundary" inkscape:connector-curvature="0" />
	<path style="fill:none;stroke:red;stroke-width:1px;stroke-linecap:butt;stroke-linejoin:miter;stroke-opacity:1" d="M 404.158,861.681 404.158,875.673 z" id="boundary" inkscape:connector-curvature="0" />
	<path style="fill:none;stroke:red;stroke-width:1px;stroke-linecap:butt;stroke-linejoin:miter;stroke-opacity:1" d="M 404.158,875.673 411.154,888.265 z" id="boundary" inkscape:connector-curvature="0" />
	<path style="fill:none;stroke:red;stroke-width:1px;stroke-linecap:butt;stroke-linejoin:miter;stroke-opacity:1" d="M 406.956,51.5712 413.952,64.1636 z" id="boundary" inkscape:connector-curvature="0" />
	<path style="fill:none;stroke:red;stroke-width:1px;stroke-linecap:butt;stroke-linejoin:miter;stroke-opacity:1" d="M 411.154,744.152 422.347,734.358 z" id="boundary" inkscape:connector-curvature="0" />
	<path style="fill:none;stroke:red;stroke-width:1px;stroke-linecap:butt;stroke-linejoin:miter;stroke-opacity:1" d="M 411.154,888.265 418.15,900.858 z" id="boundary" inkscape:connector-curvature="0" />
	<path style="fill:none;stroke:red;stroke-width:1px;stroke-linecap:butt;stroke-linejoin:miter;stroke-opacity:1" d="M 411.154,965.219 425.145,970.815 z" id="boundary" inkscape:connector-curvature="0" />
	<path style="fill:none;stroke:red;stroke-width:1px;stroke-linecap:butt;stroke-linejoin:miter;stroke-opacity:1" d="M 413.952,64.1636 418.15,78.1551 z" id="boundary" inkscape:connector-curvature="0" />
	<path style="fill:none;stroke:red;stroke-width:1px;stroke-linecap:butt;stroke-linejoin:miter;stroke-opacity:1" d="M 418.15,78.1551 429.343,86.5501 z" id="boundary" inkscape:connector-curvature="0" />
	<path style="fill:none;stroke:red;stroke-width:1px;stroke-linecap:butt;stroke-linejoin:miter;stroke-opacity:1" d="M 418.15,900.858 425.145,913.45 z" id="boundary" inkscape:connector-curvature="0" />
	<path style="fill:none;stroke:red;stroke-width:1px;stroke-linecap:butt;stroke-linejoin:miter;stroke-opacity:1" d="M 422.347,734.358 432.141,723.165 z" id="boundary" inkscape:connector-curvature="0" />
	<path style="fill:none;stroke:red;stroke-width:1px;stroke-linecap:butt;stroke-linejoin:miter;stroke-opacity:1" d="M 425.145,913.45 432.141,926.042 z" id="boundary" inkscape:connector-curvature="0" />
	<path style="fill:none;stroke:red;stroke-width:1px;stroke-linecap:butt;stroke-linejoin:miter;stroke-opacity:1" d="M 425.145,970.815 434.939,982.008 z" id="boundary" inkscape:connector-curvature="0" />
	<path style="fill:none;stroke:red;stroke-width:1px;stroke-linecap:butt;stroke-linejoin:miter;stroke-opacity:1" d="M 429.343,86.5501 439.137,97.7433 z" id="boundary" inkscape:connector-curvature="0" />
	<path style="fill:none;stroke:red;stroke-width:1px;stroke-linecap:butt;stroke-linejoin:miter;stroke-opacity:1" d="M 432.141,723.165 444.733,716.169 z" id="boundary" inkscape:connector-curvature="0" />
	<path style="fill:none;stroke:red;stroke-width:1px;stroke-linecap:butt;stroke-linejoin:miter;stroke-opacity:1" d="M 432.141,926.042 439.137,938.635 z" id="boundary" inkscape:connector-curvature="0" />
	<path style="fill:none;stroke:red;stroke-width:1px;stroke-linecap:butt;stroke-linejoin:miter;stroke-opacity:1" d="M 434.939,982.008 447.532,989.004 z" id="boundary" inkscape:connector-curvature="0" />
	<path style="fill:none;stroke:red;stroke-width:1px;stroke-linecap:butt;stroke-linejoin:miter;stroke-opacity:1" d="M 439.137,97.7433 450.33,107.537 z" id="boundary" inkscape:connector-curvature="0" />
	<path style="fill:none;stroke:red;stroke-width:1px;stroke-linecap:butt;stroke-linejoin:miter;stroke-opacity:1" d="M 439.137,938.635 453.128,942.832 z" id="boundary" inkscape:connector-curvature="0" />
	<path style="fill:none;stroke:red;stroke-width:1px;stroke-linecap:butt;stroke-linejoin:miter;stroke-opacity:1" d="M 444.733,716.169 455.927,707.774 z" id="boundary" inkscape:connector-curvature="0" />
	<path style="fill:none;stroke:red;stroke-width:1px;stroke-linecap:butt;stroke-linejoin:miter;stroke-opacity:1" d="M 447.532,989.004 461.523,989.004 z" id="boundary" inkscape:connector-curvature="0" />
	<path style="fill:none;stroke:red;stroke-width:1px;stroke-linecap:butt;stroke-linejoin:miter;stroke-opacity:1" d="M 450.33,107.537 460.124,118.731 z" id="boundary" inkscape:connector-curvature="0" />
	<path style="fill:none;stroke:red;stroke-width:1px;stroke-linecap:butt;stroke-linejoin:miter;stroke-opacity:1" d="M 453.128,942.832 464.322,952.626 z" id="boundary" inkscape:connector-curvature="0" />
	<path style="fill:none;stroke:red;stroke-width:1px;stroke-linecap:butt;stroke-linejoin:miter;stroke-opacity:1" d="M 455.927,707.774 460.124,688.186 z" id="boundary" inkscape:connector-curvature="0" />
	<path style="fill:none;stroke:red;stroke-width:1px;stroke-linecap:butt;stroke-linejoin:miter;stroke-opacity:1" d="M 460.124,118.731 467.12,131.323 z" id="boundary" inkscape:connector-curvature="0" />
	<path style="fill:none;stroke:red;stroke-width:1px;stroke-linecap:butt;stroke-linejoin:miter;stroke-opacity:1" d="M 460.124,660.203 460.124,674.195 z" id="boundary" inkscape:connector-curvature="0" />
	<path style="fill:none;stroke:red;stroke-width:1px;stroke-linecap:butt;stroke-linejoin:miter;stroke-opacity:1" d="M 460.124,660.203 467.12,646.212 z" id="boundary" inkscape:connector-curvature="0" />
	<path style="fill:none;stroke:red;stroke-width:1px;stroke-linecap:butt;stroke-linejoin:miter;stroke-opacity:1" d="M 460.124,674.195 460.124,688.186 z" id="boundary" inkscape:connector-curvature="0" />
	<path style="fill:none;stroke:red;stroke-width:1px;stroke-linecap:butt;stroke-linejoin:miter;stroke-opacity:1" d="M 461.523,989.004 475.515,993.202 z" id="boundary" inkscape:connector-curvature="0" />
	<path style="fill:none;stroke:red;stroke-width:1px;stroke-linecap:butt;stroke-linejoin:miter;stroke-opacity:1" d="M 464.322,952.626 478.313,952.626 z" id="boundary" inkscape:connector-curvature="0" />
	<path style="fill:none;stroke:red;stroke-width:1px;stroke-linecap:butt;stroke-linejoin:miter;stroke-opacity:1" d="M 467.12,131.323 476.914,142.516 z" id="boundary" inkscape:connector-curvature="0" />
	<path style="fill:none;stroke:red;stroke-width:1px;stroke-linecap:butt;stroke-linejoin:miter;stroke-opacity:1" d="M 467.12,646.212 481.111,646.212 z" id="boundary" inkscape:connector-curvature="0" />
	<path style="fill:none;stroke:red;stroke-width:1px;stroke-linecap:butt;stroke-linejoin:miter;stroke-opacity:1" d="M 475.515,993.202 489.506,996 z" id="boundary" inkscape:connector-curvature="0" />
	<path style="fill:none;stroke:red;stroke-width:1px;stroke-linecap:butt;stroke-linejoin:miter;stroke-opacity:1" d="M 476.914,142.516 488.107,152.31 z" id="boundary" inkscape:connector-curvature="0" />
	<path style="fill:none;stroke:red;stroke-width:1px;stroke-linecap:butt;stroke-linejoin:miter;stroke-opacity:1" d="M 478.313,952.626 492.305,952.626 z" id="boundary" inkscape:connector-curvature="0" />
	<path style="fill:none;stroke:red;stroke-width:1px;stroke-linecap:butt;stroke-linejoin:miter;stroke-opacity:1" d="M 481.111,646.212 495.103,646.212 z" id="boundary" inkscape:connector-curvature="0" />
	<path style="fill:none;stroke:red;stroke-width:1px;stroke-linecap:butt;stroke-linejoin:miter;stroke-opacity:1" d="M 488.107,152.31 497.901,163.504 z" id="boundary" inkscape:connector-curvature="0" />
	<path style="fill:none;stroke:red;stroke-width:1px;stroke-linecap:butt;stroke-linejoin:miter;stroke-opacity:1" d="M 489.506,996 503.498,996 z" id="boundary" inkscape:connector-curvature="0" />
	<path style="fill:none;stroke:red;stroke-width:1px;stroke-linecap:butt;stroke-linejoin:miter;stroke-opacity:1" d="M 492.305,952.626 504.897,945.63 z" id="boundary" inkscape:connector-curvature="0" />
	<path style="fill:none;stroke:red;stroke-width:1px;stroke-linecap:butt;stroke-linejoin:miter;stroke-opacity:1" d="M 495.103,646.212 507.695,639.216 z" id="boundary" inkscape:connector-curvature="0" />
	<path style="fill:none;stroke:red;stroke-width:1px;stroke-linecap:butt;stroke-linejoin:miter;stroke-opacity:1" d="M 497.901,163.504 504.897,176.096 z" id="boundary" inkscape:connector-curvature="0" />
	<path style="fill:none;stroke:red;stroke-width:1px;stroke-linecap:butt;stroke-linejoin:miter;stroke-opacity:1" d="M 503.498,996 516.09,989.004 z" id="boundary" inkscape:connector-curvature="0" />
	<path style="fill:none;stroke:red;stroke-width:1px;stroke-linecap:butt;stroke-linejoin:miter;stroke-opacity:1" d="M 504.897,176.096 514.691,187.289 z" id="boundary" inkscape:connector-curvature="0" />
	<path style="fill:none;stroke:red;stroke-width:1px;stroke-linecap:butt;stroke-linejoin:miter;stroke-opacity:1" d="M 504.897,945.63 517.489,938.635 z" id="boundary" inkscape:connector-curvature="0" />
	<path style="fill:none;stroke:red;stroke-width:1px;stroke-linecap:butt;stroke-linejoin:miter;stroke-opacity:1" d="M 507.695,639.216 521.687,635.018 z" id="boundary" inkscape:connector-curvature="0" />
	<path style="fill:none;stroke:red;stroke-width:1px;stroke-linecap:butt;stroke-linejoin:miter;stroke-opacity:1" d="M 514.691,187.289 525.884,197.083 z" id="boundary" inkscape:connector-curvature="0" />
	<path style="fill:none;stroke:red;stroke-width:1px;stroke-linecap:butt;stroke-linejoin:miter;stroke-opacity:1" d="M 516.09,989.004 530.082,989.004 z" id="boundary" inkscape:connector-curvature="0" />
	<path style="fill:none;stroke:red;stroke-width:1px;stroke-linecap:butt;stroke-linejoin:miter;stroke-opacity:1" d="M 517.489,938.635 531.481,938.635 z" id="boundary" inkscape:connector-curvature="0" />
	<path style="fill:none;stroke:red;stroke-width:1px;stroke-linecap:butt;stroke-linejoin:miter;stroke-opacity:1" d="M 521.687,635.018 535.678,628.023 z" id="boundary" inkscape:connector-curvature="0" />
	<path style="fill:none;stroke:red;stroke-width:1px;stroke-linecap:butt;stroke-linejoin:miter;stroke-opacity:1" d="M 525.884,197.083 535.678,208.276 z" id="boundary" inkscape:connector-curvature="0" />
	<path style="fill:none;stroke:red;stroke-width:1px;stroke-linecap:butt;stroke-linejoin:miter;stroke-opacity:1" d="M 530.082,989.004 542.674,982.008 z" id="boundary" inkscape:connector-curvature="0" />
	<path style="fill:none;stroke:red;stroke-width:1px;stroke-linecap:butt;stroke-linejoin:miter;stroke-opacity:1" d="M 531.481,938.635 544.073,945.63 z" id="boundary" inkscape:connector-curvature="0" />
	<path style="fill:none;stroke:red;stroke-width:1px;stroke-linecap:butt;stroke-linejoin:miter;stroke-opacity:1" d="M 535.678,208.276 546.872,218.071 z" id="boundary" inkscape:connector-curvature="0" />
	<path style="fill:none;stroke:red;stroke-width:1px;stroke-linecap:butt;stroke-linejoin:miter;stroke-opacity:1" d="M 535.678,628.023 546.872,616.829 z" id="boundary" inkscape:connector-curvature="0" />
	<path style="fill:none;stroke:red;stroke-width:1px;stroke-linecap:butt;stroke-linejoin:miter;stroke-opacity:1" d="M 542.674,982.008 556.666,977.811 z" id="boundary" inkscape:connector-curvature="0" />
	<path style="fill:none;stroke:red;stroke-width:1px;stroke-linecap:butt;stroke-linejoin:miter;stroke-opacity:1" d="M 544.073,945.63 556.666,935.836 z" id="boundary" inkscape:connector-curvature="0" />
	<path style="fill:none;stroke:red;stroke-width:1px;stroke-linecap:butt;stroke-linejoin:miter;stroke-opacity:1" d="M 546.872,218.071 559.464,225.066 z" id="boundary" inkscape:connector-curvature="0" />
	<path style="fill:none;stroke:red;stroke-width:1px;stroke-linecap:butt;stroke-linejoin:miter;stroke-opacity:1" d="M 546.872,616.829 560.863,609.834 z" id="boundary" inkscape:connector-curvature="0" />
	<path style="fill:none;stroke:red;stroke-width:1px;stroke-linecap:butt;stroke-linejoin:miter;stroke-opacity:1" d="M 556.666,935.836 567.859,924.643 z" id="boundary" inkscape:connector-curvature="0" />
	<path style="fill:none;stroke:red;stroke-width:1px;stroke-linecap:butt;stroke-linejoin:miter;stroke-opacity:1" d="M 556.666,977.811 570.657,975.013 z" id="boundary" inkscape:connector-curvature="0" />
	<path style="fill:none;stroke:red;stroke-width:1px;stroke-linecap:butt;stroke-linejoin:miter;stroke-opacity:1" d="M 559.464,225.066 572.056,232.062 z" id="boundary" inkscape:connector-curvature="0" />
	<path style="fill:none;stroke:red;stroke-width:1px;stroke-linecap:butt;stroke-linejoin:miter;stroke-opacity:1" d="M 560.863,609.834 572.056,597.241 z" id="boundary" inkscape:connector-curvature="0" />
	<path style="fill:none;stroke:red;stroke-width:1px;stroke-linecap:butt;stroke-linejoin:miter;stroke-opacity:1" d="M 567.859,924.643 581.85,917.647 z" id="boundary" inkscape:connector-curvature="0" />
	<path style="fill:none;stroke:red;stroke-width:1px;stroke-linecap:butt;stroke-linejoin:miter;stroke-opacity:1" d="M 570.657,975.013 583.25,968.017 z" id="boundary" inkscape:connector-curvature="0" />
	<path style="fill:none;stroke:red;stroke-width:1px;stroke-linecap:butt;stroke-linejoin:miter;stroke-opacity:1" d="M 572.056,232.062 584.649,239.058 z" id="boundary" inkscape:connector-curvature="0" />
	<path style="fill:none;stroke:red;stroke-width:1px;stroke-linecap:butt;stroke-linejoin:miter;stroke-opacity:1" d="M 572.056,597.241 583.25,587.447 z" id="boundary" inkscape:connector-curvature="0" />
	<path style="fill:none;stroke:red;stroke-width:1px;stroke-linecap:butt;stroke-linejoin:miter;stroke-opacity:1" d="M 581.85,917.647 595.842,917.647 z" id="boundary" inkscape:connector-curvature="0" />
	<path style="fill:none;stroke:red;stroke-width:1px;stroke-linecap:butt;stroke-linejoin:miter;stroke-opacity:1" d="M 583.25,587.447 593.044,576.254 z" id="boundary" inkscape:connector-curvature="0" />
	<path style="fill:none;stroke:red;stroke-width:1px;stroke-linecap:butt;stroke-linejoin:miter;stroke-opacity:1" d="M 583.25,968.017 595.842,959.622 z" id="boundary" inkscape:connector-curvature="0" />
	<path style="fill:none;stroke:red;stroke-width:1px;stroke-linecap:butt;stroke-linejoin:miter;stroke-opacity:1" d="M 584.649,239.058 595.842,247.453 z" id="boundary" inkscape:connector-curvature="0" />
	<path style="fill:none;stroke:red;stroke-width:1px;stroke-linecap:butt;stroke-linejoin:miter;stroke-opacity:1" d="M 593.044,576.254 605.636,569.258 z" id="boundary" inkscape:connector-curvature="0" />
	<path style="fill:none;stroke:red;stroke-width:1px;stroke-linecap:butt;stroke-linejoin:miter;stroke-opacity:1" d="M 595.842,247.453 607.035,257.247 z" id="boundary" inkscape:connector-curvature="0" />
	<path style="fill:none;stroke:red;stroke-width:1px;stroke-linecap:butt;stroke-linejoin:miter;stroke-opacity:1" d="M 595.842,917.647 608.434,924.643 z" id="boundary" inkscape:connector-curvature="0" />
	<path style="fill:none;stroke:red;stroke-width:1px;stroke-linecap:butt;stroke-linejoin:miter;stroke-opacity:1" d="M 595.842,959.622 607.035,940.034 z" id="boundary" inkscape:connector-curvature="0" />
	<path style="fill:none;stroke:red;stroke-width:1px;stroke-linecap:butt;stroke-linejoin:miter;stroke-opacity:1" d="M 605.636,569.258 616.829,560.863 z" id="boundary" inkscape:connector-curvature="0" />
	<path style="fill:none;stroke:red;stroke-width:1px;stroke-linecap:butt;stroke-linejoin:miter;stroke-opacity:1" d="M 607.035,257.247 619.628,264.243 z" id="boundary" inkscape:connector-curvature="0" />
	<path style="fill:none;stroke:red;stroke-width:1px;stroke-linecap:butt;stroke-linejoin:miter;stroke-opacity:1" d="M 607.035,940.034 608.434,924.643 z" id="boundary" inkscape:connector-curvature="0" />
	<path style="fill:none;stroke:red;stroke-width:1px;stroke-linecap:butt;stroke-linejoin:miter;stroke-opacity:1" d="M 616.829,560.863 628.023,548.271 z" id="boundary" inkscape:connector-curvature="0" />
	<path style="fill:none;stroke:red;stroke-width:1px;stroke-linecap:butt;stroke-linejoin:miter;stroke-opacity:1" d="M 619.628,264.243 633.619,269.839 z" id="boundary" inkscape:connector-curvature="0" />
	<path style="fill:none;stroke:red;stroke-width:1px;stroke-linecap:butt;stroke-linejoin:miter;stroke-opacity:1" d="M 628.023,548.271 639.216,538.477 z" id="boundary" inkscape:connector-curvature="0" />
	<path style="fill:none;stroke:red;stroke-width:1px;stroke-linecap:butt;stroke-linejoin:miter;stroke-opacity:1" d="M 633.619,269.839 646.212,276.835 z" id="boundary" inkscape:connector-curvature="0" />
	<path style="fill:none;stroke:red;stroke-width:1px;stroke-linecap:butt;stroke-linejoin:miter;stroke-opacity:1" d="M 639.216,538.477 649.01,527.283 z" id="boundary" inkscape:connector-curvature="0" />
	<path style="fill:none;stroke:red;stroke-width:1px;stroke-linecap:butt;stroke-linejoin:miter;stroke-opacity:1" d="M 646.212,276.835 656.006,288.028 z" id="boundary" inkscape:connector-curvature="0" />
	<path style="fill:none;stroke:red;stroke-width:1px;stroke-linecap:butt;stroke-linejoin:miter;stroke-opacity:1" d="M 649.01,527.283 660.203,517.489 z" id="boundary" inkscape:connector-curvature="0" />
	<path style="fill:none;stroke:red;stroke-width:1px;stroke-linecap:butt;stroke-linejoin:miter;stroke-opacity:1" d="M 656.006,288.028 668.598,295.024 z" id="boundary" inkscape:connector-curvature="0" />
	<path style="fill:none;stroke:red;stroke-width:1px;stroke-linecap:butt;stroke-linejoin:miter;stroke-opacity:1" d="M 660.203,517.489 674.195,510.494 z" id="boundary" inkscape:connector-curvature="0" />
	<path style="fill:none;stroke:red;stroke-width:1px;stroke-linecap:butt;stroke-linejoin:miter;stroke-opacity:1" d="M 668.598,295.024 681.19,302.02 z" id="boundary" inkscape:connector-curvature="0" />
	<path style="fill:none;stroke:red;stroke-width:1px;stroke-linecap:butt;stroke-linejoin:miter;stroke-opacity:1" d="M 674.195,510.494 683.989,499.3 z" id="boundary" inkscape:connector-curvature="0" />
	<path style="fill:none;stroke:red;stroke-width:1px;stroke-linecap:butt;stroke-linejoin:miter;stroke-opacity:1" d="M 681.19,302.02 693.783,309.016 z" id="boundary" inkscape:connector-curvature="0" />
	<path style="fill:none;stroke:red;stroke-width:1px;stroke-linecap:butt;stroke-linejoin:miter;stroke-opacity:1" d="M 683.989,499.3 695.182,489.506 z" id="boundary" inkscape:connector-curvature="0" />
	<path style="fill:none;stroke:red;stroke-width:1px;stroke-linecap:butt;stroke-linejoin:miter;stroke-opacity:1" d="M 693.783,309.016 703.577,320.209 z" id="boundary" inkscape:connector-curvature="0" />
	<path style="fill:none;stroke:red;stroke-width:1px;stroke-linecap:butt;stroke-linejoin:miter;stroke-opacity:1" d="M 695.182,489.506 704.976,478.313 z" id="boundary" inkscape:connector-curvature="0" />
	<path style="fill:none;stroke:red;stroke-width:1px;stroke-linecap:butt;stroke-linejoin:miter;stroke-opacity:1" d="M 703.577,320.209 717.568,325.805 z" id="boundary" inkscape:connector-curvature="0" />
	<path style="fill:none;stroke:red;stroke-width:1px;stroke-linecap:butt;stroke-linejoin:miter;stroke-opacity:1" d="M 704.976,478.313 717.568,471.317 z" id="boundary" inkscape:connector-curvature="0" />
	<path style="fill:none;stroke:red;stroke-width:1px;stroke-linecap:butt;stroke-linejoin:miter;stroke-opacity:1" d="M 717.568,325.805 725.963,336.999 z" id="boundary" inkscape:connector-curvature="0" />
	<path style="fill:none;stroke:red;stroke-width:1px;stroke-linecap:butt;stroke-linejoin:miter;stroke-opacity:1" d="M 717.568,471.317 725.963,457.326 z" id="boundary" inkscape:connector-curvature="0" />
	<path style="fill:none;stroke:red;stroke-width:1px;stroke-linecap:butt;stroke-linejoin:miter;stroke-opacity:1" d="M 725.963,336.999 737.157,345.394 z" id="boundary" inkscape:connector-curvature="0" />
	<path style="fill:none;stroke:red;stroke-width:1px;stroke-linecap:butt;stroke-linejoin:miter;stroke-opacity:1" d="M 725.963,457.326 732.959,436.339 z" id="boundary" inkscape:connector-curvature="0" />
	<path style="fill:none;stroke:red;stroke-width:1px;stroke-linecap:butt;stroke-linejoin:miter;stroke-opacity:1" d="M 732.959,436.339 739.955,422.347 z" id="boundary" inkscape:connector-curvature="0" />
	<path style="fill:none;stroke:red;stroke-width:1px;stroke-linecap:butt;stroke-linejoin:miter;stroke-opacity:1" d="M 737.157,345.394 742.753,359.385 z" id="boundary" inkscape:connector-curvature="0" />
	<path style="fill:none;stroke:red;stroke-width:1px;stroke-linecap:butt;stroke-linejoin:miter;stroke-opacity:1" d="M 739.955,422.347 746.951,401.36 z" id="boundary" inkscape:connector-curvature="0" />
	<path style="fill:none;stroke:red;stroke-width:1px;stroke-linecap:butt;stroke-linejoin:miter;stroke-opacity:1" d="M 742.753,359.385 749.749,371.977 z" id="boundary" inkscape:connector-curvature="0" />
	<path style="fill:none;stroke:red;stroke-width:1px;stroke-linecap:butt;stroke-linejoin:miter;stroke-opacity:1" d="M 746.951,401.36 753.946,385.969 z" id="boundary" inkscape:connector-curvature="0" />
	<path style="fill:none;stroke:red;stroke-width:1px;stroke-linecap:butt;stroke-linejoin:miter;stroke-opacity:1" d="M 749.749,371.977 753.946,385.969 z" id="boundary" inkscape:connector-curvature="0" />
	<circle cx="4" cy="397.162" r="4" fill="#0" id="circle0"/>
	<circle cx="4" cy="411.154" r="4" fill="#0" id="circle1"/>
	<circle cx="4" cy="425.145" r="4" fill="#0" id="circle2"/>
	<circle cx="4" cy="439.137" r="4" fill="#0" id="circle3"/>
	<circle cx="10.9958" cy="451.729" r="4" fill="#0" id="circle4"/>
	<circle cx="15.1932" cy="385.969" r="4" fill="#0" id="circle5"/>
	<circle cx="17.9915" cy="464.322" r="4" fill="#0" id="circle6"/>
	<circle cx="22.189" cy="478.313" r="4" fill="#0" id="circle7"/>
	<circle cx="26.3865" cy="374.776" r="4" fill="#0" id="circle8"/>
	<circle cx="33.3822" cy="488.107" r="4" fill="#0" id="circle9"/>
	<circle cx="37.5797" cy="364.982" r="4" fill="#0" id="circle10"/>
	<circle cx="43.1763" cy="499.3" r="4" fill="#0" id="circle11"/>
	<circle cx="47.3738" cy="353.788" r="4" fill="#0" id="circle12"/>
	<circle cx="54.3695" cy="509.094" r="4" fill="#0" id="circle13"/>
	<circle cx="58.567" cy="343.994" r="4" fill="#0" id="circle14"/>
	<circle cx="66.9619" cy="516.09" r="4" fill="#0" id="circle15"/>
	<circle cx="68.3611" cy="332.801" r="4" fill="#0" id="circle16"/>
	<circle cx="73.9577" cy="528.683" r="4" fill="#0" id="circle17"/>
	<circle cx="79.5543" cy="323.007" r="4" fill="#0" id="circle18"/>
	<circle cx="83.7518" cy="539.876" r="4" fill="#0" id="circle19"/>
	<circle cx="89.3484" cy="311.814" r="4" fill="#0" id="circle20"/>
	<circle cx="94.945" cy="548.271" r="4" fill="#0" id="circle21"/>
	<circle cx="100.542" cy="302.02" r="4" fill="#0" id="circle22"/>
	<circle cx="107.537" cy="555.267" r="4" fill="#0" id="circle23"/>
	<circle cx="113.134" cy="295.024" r="4" fill="#0" id="circle24"/>
	<circle cx="120.13" cy="562.262" r="4" fill="#0" id="circle25"/>
	<circle cx="125.726" cy="288.028" r="4" fill="#0" id="circle26"/>
	<circle cx="132.722" cy="569.258" r="4" fill="#0" id="circle27"/>
	<circle cx="136.92" cy="278.234" r="4" fill="#0" id="circle28"/>
	<circle cx="145.315" cy="576.254" r="4" fill="#0" id="circle29"/>
	<circle cx="148.113" cy="267.041" r="4" fill="#0" id="circle30"/>
	<circle cx="157.907" cy="583.25" r="4" fill="#0" id="circle31"/>
	<circle cx="162.104" cy="260.045" r="4" fill="#0" id="circle32"/>
	<circle cx="170.499" cy="590.245" r="4" fill="#0" id="circle33"/>
	<circle cx="173.298" cy="248.852" r="4" fill="#0" id="circle34"/>
	<circle cx="180.293" cy="234.86" r="4" fill="#0" id="circle35"/>
	<circle cx="180.293" cy="601.439" r="4" fill="#0" id="circle36"/>
	<circle cx="191.487" cy="225.066" r="4" fill="#0" id="circle37"/>
	<circle cx="191.487" cy="611.233" r="4" fill="#0" id="circle38"/>
	<circle cx="201.281" cy="213.873" r="4" fill="#0" id="circle39"/>
	<circle cx="204.079" cy="618.228" r="4" fill="#0" id="circle40"/>
	<circle cx="212.474" cy="204.079" r="4" fill="#0" id="circle41"/>
	<circle cx="218.071" cy="623.825" r="4" fill="#0" id="circle42"/>
	<circle cx="225.066" cy="197.083" r="4" fill="#0" id="circle43"/>
	<circle cx="230.663" cy="630.821" r="4" fill="#0" id="circle44"/>
	<circle cx="232.062" cy="183.092" r="4" fill="#0" id="circle45"/>
	<circle cx="241.856" cy="639.216" r="4" fill="#0" id="circle46"/>
	<circle cx="243.255" cy="171.898" r="4" fill="#0" id="circle47"/>
	<circle cx="250.251" cy="157.907" r="4" fill="#0" id="circle48"/>
	<circle cx="255.848" cy="639.216" r="4" fill="#0" id="circle49"/>
	<circle cx="261.444" cy="148.113" r="4" fill="#0" id="circle50"/>
	<circle cx="268.44" cy="646.212" r="4" fill="#0" id="circle51"/>
	<circle cx="271.238" cy="136.92" r="4" fill="#0" id="circle52"/>
	<circle cx="281.032" cy="653.207" r="4" fill="#0" id="circle53"/>
	<circle cx="282.432" cy="127.126" r="4" fill="#0" id="circle54"/>
	<circle cx="290.827" cy="110.336" r="4" fill="#0" id="circle55"/>
	<circle cx="295.024" cy="658.804" r="4" fill="#0" id="circle56"/>
	<circle cx="297.822" cy="672.795" r="4" fill="#0" id="circle57"/>
	<circle cx="297.822" cy="686.787" r="4" fill="#0" id="circle58"/>
	<circle cx="297.822" cy="700.779" r="4" fill="#0" id="circle59"/>
	<circle cx="300.621" cy="714.77" r="4" fill="#0" id="circle60"/>
	<circle cx="302.02" cy="99.1425" r="4" fill="#0" id="circle61"/>
	<circle cx="311.814" cy="82.3526" r="4" fill="#0" id="circle62"/>
	<circle cx="314.612" cy="720.367" r="4" fill="#0" id="circle63"/>
	<circle cx="318.81" cy="68.3611" r="4" fill="#0" id="circle64"/>
	<circle cx="327.205" cy="727.362" r="4" fill="#0" id="circle65"/>
	<circle cx="330.003" cy="57.1678" r="4" fill="#0" id="circle66"/>
	<circle cx="336.999" cy="43.1763" r="4" fill="#0" id="circle67"/>
	<circle cx="339.797" cy="26.3865" r="4" fill="#0" id="circle68"/>
	<circle cx="339.797" cy="788.925" r="4" fill="#0" id="circle69"/>
	<circle cx="341.196" cy="732.959" r="4" fill="#0" id="circle70"/>
	<circle cx="346.793" cy="12.3949" r="4" fill="#0" id="circle71"/>
	<circle cx="346.793" cy="746.951" r="4" fill="#0" id="circle72"/>
	<circle cx="346.793" cy="760.942" r="4" fill="#0" id="circle73"/>
	<circle cx="346.793" cy="774.934" r="4" fill="#0" id="circle74"/>
	<circle cx="346.793" cy="801.518" r="4" fill="#0" id="circle75"/>
	<circle cx="346.793" cy="815.509" r="4" fill="#0" id="circle76"/>
	<circle cx="346.793" cy="829.501" r="4" fill="#0" id="circle77"/>
	<circle cx="353.788" cy="842.093" r="4" fill="#0" id="circle78"/>
	<circle cx="353.788" cy="856.085" r="4" fill="#0" id="circle79"/>
	<circle cx="353.788" cy="870.076" r="4" fill="#0" id="circle80"/>
	<circle cx="353.788" cy="884.068" r="4" fill="#0" id="circle81"/>
	<circle cx="360.784" cy="5.39915" r="4" fill="#0" id="circle82"/>
	<circle cx="360.784" cy="896.66" r="4" fill="#0" id="circle83"/>
	<circle cx="367.78" cy="909.252" r="4" fill="#0" id="circle84"/>
	<circle cx="374.776" cy="4" r="4" fill="#0" id="circle85"/>
	<circle cx="374.776" cy="921.845" r="4" fill="#0" id="circle86"/>
	<circle cx="381.772" cy="934.437" r="4" fill="#0" id="circle87"/>
	<circle cx="383.171" cy="15.1932" r="4" fill="#0" id="circle88"/>
	<circle cx="390.166" cy="27.7856" r="4" fill="#0" id="circle89"/>
	<circle cx="391.566" cy="945.63" r="4" fill="#0" id="circle90"/>
	<circle cx="397.162" cy="40.378" r="4" fill="#0" id="circle91"/>
	<circle cx="397.162" cy="779.131" r="4" fill="#0" id="circle92"/>
	<circle cx="397.162" cy="793.123" r="4" fill="#0" id="circle93"/>
	<circle cx="397.162" cy="807.114" r="4" fill="#0" id="circle94"/>
	<circle cx="397.162" cy="821.106" r="4" fill="#0" id="circle95"/>
	<circle cx="397.162" cy="835.097" r="4" fill="#0" id="circle96"/>
	<circle cx="402.759" cy="954.025" r="4" fill="#0" id="circle97"/>
	<circle cx="404.158" cy="758.144" r="4" fill="#0" id="circle98"/>
	<circle cx="404.158" cy="847.69" r="4" fill="#0" id="circle99"/>
	<circle cx="404.158" cy="861.681" r="4" fill="#0" id="circle100"/>
	<circle cx="404.158" cy="875.673" r="4" fill="#0" id="circle101"/>
	<circle cx="406.956" cy="51.5712" r="4" fill="#0" id="circle102"/>
	<circle cx="411.154" cy="744.152" r="4" fill="#0" id="circle103"/>
	<circle cx="411.154" cy="888.265" r="4" fill="#0" id="circle104"/>
	<circle cx="411.154" cy="965.219" r="4" fill="#0" id="circle105"/>
	<circle cx="413.952" cy="64.1636" r="4" fill="#0" id="circle106"/>
	<circle cx="418.15" cy="78.1551" r="4" fill="#0" id="circle107"/>
	<circle cx="418.15" cy="900.858" r="4" fill="#0" id="circle108"/>
	<circle cx="422.347" cy="734.358" r="4" fill="#0" id="circle109"/>
	<circle cx="425.145" cy="913.45" r="4" fill="#0" id="circle110"/>
	<circle cx="425.145" cy="970.815" r="4" fill="#0" id="circle111"/>
	<circle cx="429.343" cy="86.5501" r="4" fill="#0" id="circle112"/>
	<circle cx="432.141" cy="723.165" r="4" fill="#0" id="circle113"/>
	<circle cx="432.141" cy="926.042" r="4" fill="#0" id="circle114"/>
	<circle cx="434.939" cy="982.008" r="4" fill="#0" id="circle115"/>
	<circle cx="439.137" cy="97.7433" r="4" fill="#0" id="circle116"/>
	<circle cx="439.137" cy="938.635" r="4" fill="#0" id="circle117"/>
	<circle cx="444.733" cy="716.169" r="4" fill="#0" id="circle118"/>
	<circle cx="447.532" cy="989.004" r="4" fill="#0" id="circle119"/>
	<circle cx="450.33" cy="107.537" r="4" fill="#0" id="circle120"/>
	<circle cx="453.128" cy="942.832" r="4" fill="#0" id="circle121"/>
	<circle cx="455.927" cy="707.774" r="4" fill="#0" id="circle122"/>
	<circle cx="460.124" cy="118.731" r="4" fill="#0" id="circle123"/>
	<circle cx="460.124" cy="660.203" r="4" fill="#0" id="circle124"/>
	<circle cx="460.124" cy="674.195" r="4" fill="#0" id="circle125"/>
	<circle cx="460.124" cy="688.186" r="4" fill="#0" id="circle126"/>
	<circle cx="461.523" cy="989.004" r="4" fill="#0" id="circle127"/>
	<circle cx="464.322" cy="952.626" r="4" fill="#0" id="circle128"/>
	<circle cx="467.12" cy="131.323" r="4" fill="#0" id="circle129"/>
	<circle cx="467.12" cy="646.212" r="4" fill="#0" id="circle130"/>
	<circle cx="475.515" cy="993.202" r="4" fill="#0" id="circle131"/>
	<circle cx="476.914" cy="142.516" r="4" fill="#0" id="circle132"/>
	<circle cx="478.313" cy="952.626" r="4" fill="#0" id="circle133"/>
	<circle cx="481.111" cy="646.212" r="4" fill="#0" id="circle134"/>
	<circle cx="488.107" cy="152.31" r="4" fill="#0" id="circle135"/>
	<circle cx="489.506" cy="996" r="4" fill="#0" id="circle136"/>
	<circle cx="492.305" cy="952.626" r="4" fill="#0" id="circle137"/>
	<circle cx="495.103" cy="646.212" r="4" fill="#0" id="circle138"/>
	<circle cx="497.901" cy="163.504" r="4" fill="#0" id="circle139"/>
	<circle cx="503.498" cy="996" r="4" fill="#0" id="circle140"/>
	<circle cx="504.897" cy="176.096" r="4" fill="#0" id="circle141"/>
	<circle cx="504.897" cy="945.63" r="4" fill="#0" id="circle142"/>
	<circle cx="507.695" cy="639.216" r="4" fill="#0" id="circle143"/>
	<circle cx="514.691" cy="187.289" r="4" fill="#0" id="circle144"/>
	<circle cx="516.09" cy="989.004" r="4" fill="#0" id="circle145"/>
	<circle cx="517.489" cy="938.635" r="4" fill="#0" id="circle146"/>
	<circle cx="521.687" cy="635.018" r="4" fill="#0" id="circle147"/>
	<circle cx="525.884" cy="197.083" r="4" fill="#0" id="circle148"/>
	<circle cx="530.082" cy="989.004" r="4" fill="#0" id="circle149"/>
	<circle cx="531.481" cy="938.635" r="4" fill="#0" id="circle150"/>
	<circle cx="535.678" cy="208.276" r="4" fill="#0" id="circle151"/>
	<circle cx="535.678" cy="628.023" r="4" fill="#0" id="circle152"/>
	<circle cx="542.674" cy="982.008" r="4" fill="#0" id="circle153"/>
	<circle cx="544.073" cy="945.63" r="4" fill="#0" id="circle154"/>
	<circle cx="546.872" cy="218.071" r="4" fill="#0" id="circle155"/>
	<circle cx="546.872" cy="616.829" r="4" fill="#0" id="circle156"/>
	<circle cx="556.666" cy="935.836" r="4" fill="#0" id="circle157"/>
	<circle cx="556.666" cy="977.811" r="4" fill="#0" id="circle158"/>
	<circle cx="559.464" cy="225.066" r="4" fill="#0" id="circle159"/>
	<circle cx="560.863" cy="609.834" r="4" fill="#0" id="circle160"/>
	<circle cx="567.859" cy="924.643" r="4" fill="#0" id="circle161"/>
	<circle cx="570.657" cy="975.013" r="4" fill="#0" id="circle162"/>
	<circle cx="572.056" cy="232.062" r="4" fill="#0" id="circle163"/>
	<circle cx="572.056" cy="597.241" r="4" fill="#0" id="circle164"/>
	<circle cx="581.85" cy="917.647" r="4" fill="#0" id="circle165"/>
	<circle cx="583.25" cy="587.447" r="4" fill="#0" id="circle166"/>
	<circle cx="583.25" cy="968.017" r="4" fill="#0" id="circle167"/>
	<circle cx="584.649" cy="239.058" r="4" fill="#0" id="circle168"/>
	<circle cx="593.044" cy="576.254" r="4" fill="#0" id="circle169"/>
	<circle cx="595.842" cy="247.453" r="4" fill="#0" id="circle170"/>
	<circle cx="595.842" cy="917.647" r="4" fill="#0" id="circle171"/>
	<circle cx="595.842" cy="959.622" r="4" fill="#0" id="circle172"/>
	<circle cx="605.636" cy="569.258" r="4" fill="#0" id="circle173"/>
	<circle cx="607.035" cy="257.247" r="4" fill="#0" id="circle174"/>
	<circle cx="607.035" cy="940.034" r="4" fill="#0" id="circle175"/>
	<circle cx="608.434" cy="924.643" r="4" fill="#0" id="circle176"/>
	<circle cx="616.829" cy="560.863" r="4" fill="#0" id="circle177"/>
	<circle cx="619.628" cy="264.243" r="4" fill="#0" id="circle178"/>
	<circle cx="628.023" cy="548.271" r="4" fill="#0" id="circle179"/>
	<circle cx="633.619" cy="269.839" r="4" fill="#0" id="circle180"/>
	<circle cx="639.216" cy="538.477" r="4" fill="#0" id="circle181"/>
	<circle cx="646.212" cy="276.835" r="4" fill="#0" id="circle182"/>
	<circle cx="649.01" cy="527.283" r="4" fill="#0" id="circle183"/>
	<circle cx="656.006" cy="288.028" r="4" fill="#0" id="circle184"/>
	<circle cx="660.203" cy="517.489" r="4" fill="#0" id="circle185"/>
	<circle cx="668.598" cy="295.024" r="4" fill="#0" id="circle186"/>
	<circle cx="674.195" cy="510.494" r="4" fill="#0" id="circle187"/>
	<circle cx="681.19" cy="302.02" r="4" fill="#0" id="circle188"/>
	<circle cx="683.989" cy="499.3" r="4" fill="#0" id="circle189"/>
	<circle cx="693.783" cy="309.016" r="4" fill="#0" id="circle190"/>
	<circle cx="695.182" cy="489.506" r="4" fill="#0" id="circle191"/>
	<circle cx="703.577" cy="320.209" r="4" fill="#0" id="circle192"/>
	<circle cx="704.976" cy="478.313" r="4" fill="#0" id="circle193"/>
	<circle cx="717.568" cy="325.805" r="4" fill="#0" id="circle194"/>
	<circle cx="717.568" cy="471.317" r="4" fill="#0" id="circle195"/>
	<circle cx="725.963" cy="336.999" r="4" fill="#0" id="circle196"/>
	<circle cx="725.963" cy="457.326" r="4" fill="#0" id="circle197"/>
	<circle cx="732.959" cy="436.339" r="4" fill="#0" id="circle198"/>
	<circle cx="737.157" cy="345.394" r="4" fill="#0" id="circle199"/>
	<circle cx="739.955" cy="422.347" r="4" fill="#0" id="circle200"/>
	<circle cx="742.753" cy="359.385" r="4" fill="#0" id="circle201"/>
	<circle cx="746.951" cy="401.36" r="4" fill="#0" id="circle202"/>
	<circle cx="749.749" cy="371.977" r="4" fill="#0" id="circle203"/>
	<circle cx="753.946" cy="385.969" r="4" fill="#0" id="circle204"/>
	</g>
</svg>