<?xml version="1.0" encoding="UTF-8" standalone="no"?>
<!-- Created with CurveBenchmark -->
<svg
	xmlns:dc="http://purl.org/dc/elements/1.1/"
	xmlns:cc="http://creativecommons.org/ns#"
	xmlns:rdf="http://www.w3.org/1999/02/22-rdf-syntax-ns#"
	xmlns:svg="http://www.w3.org/2000/svg"
	xmlns="http://www.w3.org/2000/svg"
	xmlns:sodipodi="http://sodipodi.sourceforge.net/DTD/sodipodi-0.dtd"
	xmlns:inkscape="http://www.inkscape.org/namespaces/inkscape"
	width="1000"
	height="1000"
	id="svg2"
	version="1.1"
	sodipodi:docname="manifold/fitconnect-guitar005.png.txt">
<defs
	id="defs4" />
<metadata
	id="metadata7">
	<rdf:RDF>
		<cc:Work
			rdf:about="">
			<dc:format>image/svg+xml</dc:format>
			<dc:type
				rdf:resource="http://purl.org/dc/dcmitype/StillImage" />
			<dc:title></dc:title>
		</cc:Work>
	</rdf:RDF>
</metadata>
<g
	inkscape:label="Layer 1"
	inkscape:groupmode="layer"
	id="layer1">
	<path style="fill:none;stroke:red;stroke-width:1px;stroke-linecap:butt;stroke-linejoin:miter;stroke-opacity:1" d="M 4,822.4 53.6,949.943 z" id="boundary" inkscape:connector-curvature="0" />
	<path style="fill:none;stroke:red;stroke-width:1px;stroke-linecap:butt;stroke-linejoin:miter;stroke-opacity:1" d="M 4,822.4 60.6857,716.114 z" id="boundary" inkscape:connector-curvature="0" />
	<path style="fill:none;stroke:red;stroke-width:1px;stroke-linecap:butt;stroke-linejoin:miter;stroke-opacity:1" d="M 53.6,949.943 152.8,996 z" id="boundary" inkscape:connector-curvature="0" />
	<path style="fill:none;stroke:red;stroke-width:1px;stroke-linecap:butt;stroke-linejoin:miter;stroke-opacity:1" d="M 60.6857,716.114 159.886,28.8 z" id="boundary" inkscape:connector-curvature="0" />
	<path style="fill:none;stroke:red;stroke-width:1px;stroke-linecap:butt;stroke-linejoin:miter;stroke-opacity:1" d="M 152.8,996 223.657,996 z" id="boundary" inkscape:connector-curvature="0" />
	<path style="fill:none;stroke:red;stroke-width:1px;stroke-linecap:butt;stroke-linejoin:miter;stroke-opacity:1" d="M 159.886,28.8 241.371,42.9714 z" id="boundary" inkscape:connector-curvature="0" />
	<path style="fill:none;stroke:red;stroke-width:1px;stroke-linecap:butt;stroke-linejoin:miter;stroke-opacity:1" d="M 223.657,996 358.286,946.4 z" id="boundary" inkscape:connector-curvature="0" />
	<path style="fill:none;stroke:red;stroke-width:1px;stroke-linecap:butt;stroke-linejoin:miter;stroke-opacity:1" d="M 241.371,42.9714 333.486,652.343 z" id="boundary" inkscape:connector-curvature="0" />
	<path style="fill:none;stroke:red;stroke-width:1px;stroke-linecap:butt;stroke-linejoin:miter;stroke-opacity:1" d="M 333.486,652.343 358.286,946.4 z" id="boundary" inkscape:connector-curvature="0" />
	<circle cx="4" cy="822.4" r="4" fill="#0" id="circle0"/>
	<circle cx="4" cy="857.829" r="4" fill="#0" id="circle1"/>
	<circle cx="11.0857" cy="893.257" r="4" fill="#0" id="circle2"/>
	<circle cx="18.1714" cy="779.886" r="4" fill="#0" id="circle3"/>
	<circle cx="32.3429" cy="921.6" r="4" fill="#0" id="circle4"/>
	<circle cx="39.4286" cy="744.457" r="4" fill="#0" id="circle5"/>
	<circle cx="53.6" cy="560.229" r="4" fill="#0" id="circle6"/>
	<circle cx="53.6" cy="595.657" r="4" fill="#0" id="circle7"/>
	<circle cx="53.6" cy="949.943" r="4" fill="#0" id="circle8"/>
	<circle cx="60.6857" cy="716.114" r="4" fill="#0" id="circle9"/>
	<circle cx="64.2286" cy="631.086" r="4" fill="#0" id="circle10"/>
	<circle cx="74.8571" cy="531.886" r="4" fill="#0" id="circle11"/>
	<circle cx="74.8571" cy="666.514" r="4" fill="#0" id="circle12"/>
	<circle cx="81.9429" cy="971.2" r="4" fill="#0" id="circle13"/>
	<circle cx="103.2" cy="510.629" r="4" fill="#0" id="circle14"/>
	<circle cx="117.371" cy="985.371" r="4" fill="#0" id="circle15"/>
	<circle cx="138.629" cy="503.543" r="4" fill="#0" id="circle16"/>
	<circle cx="152.8" cy="996" r="4" fill="#0" id="circle17"/>
	<circle cx="159.886" cy="28.8" r="4" fill="#0" id="circle18"/>
	<circle cx="159.886" cy="64.2286" r="4" fill="#0" id="circle19"/>
	<circle cx="159.886" cy="99.6571" r="4" fill="#0" id="circle20"/>
	<circle cx="174.057" cy="489.371" r="4" fill="#0" id="circle21"/>
	<circle cx="181.143" cy="262.629" r="4" fill="#0" id="circle22"/>
	<circle cx="181.143" cy="298.057" r="4" fill="#0" id="circle23"/>
	<circle cx="181.143" cy="333.486" r="4" fill="#0" id="circle24"/>
	<circle cx="181.143" cy="368.914" r="4" fill="#0" id="circle25"/>
	<circle cx="181.143" cy="404.343" r="4" fill="#0" id="circle26"/>
	<circle cx="181.143" cy="439.771" r="4" fill="#0" id="circle27"/>
	<circle cx="184.686" cy="128" r="4" fill="#0" id="circle28"/>
	<circle cx="188.229" cy="7.54286" r="4" fill="#0" id="circle29"/>
	<circle cx="188.229" cy="163.429" r="4" fill="#0" id="circle30"/>
	<circle cx="188.229" cy="198.857" r="4" fill="#0" id="circle31"/>
	<circle cx="188.229" cy="996" r="4" fill="#0" id="circle32"/>
	<circle cx="223.657" cy="4" r="4" fill="#0" id="circle33"/>
	<circle cx="223.657" cy="996" r="4" fill="#0" id="circle34"/>
	<circle cx="234.286" cy="128" r="4" fill="#0" id="circle35"/>
	<circle cx="234.286" cy="163.429" r="4" fill="#0" id="circle36"/>
	<circle cx="234.286" cy="198.857" r="4" fill="#0" id="circle37"/>
	<circle cx="234.286" cy="234.286" r="4" fill="#0" id="circle38"/>
	<circle cx="234.286" cy="269.714" r="4" fill="#0" id="circle39"/>
	<circle cx="234.286" cy="305.143" r="4" fill="#0" id="circle40"/>
	<circle cx="237.829" cy="340.571" r="4" fill="#0" id="circle41"/>
	<circle cx="241.371" cy="42.9714" r="4" fill="#0" id="circle42"/>
	<circle cx="241.371" cy="78.4" r="4" fill="#0" id="circle43"/>
	<circle cx="241.371" cy="376" r="4" fill="#0" id="circle44"/>
	<circle cx="241.371" cy="411.429" r="4" fill="#0" id="circle45"/>
	<circle cx="241.371" cy="446.857" r="4" fill="#0" id="circle46"/>
	<circle cx="241.371" cy="482.286" r="4" fill="#0" id="circle47"/>
	<circle cx="241.371" cy="517.714" r="4" fill="#0" id="circle48"/>
	<circle cx="248.457" cy="553.143" r="4" fill="#0" id="circle49"/>
	<circle cx="259.086" cy="988.914" r="4" fill="#0" id="circle50"/>
	<circle cx="273.257" cy="581.486" r="4" fill="#0" id="circle51"/>
	<circle cx="294.514" cy="981.829" r="4" fill="#0" id="circle52"/>
	<circle cx="308.686" cy="574.4" r="4" fill="#0" id="circle53"/>
	<circle cx="329.943" cy="546.057" r="4" fill="#0" id="circle54"/>
	<circle cx="329.943" cy="967.657" r="4" fill="#0" id="circle55"/>
	<circle cx="333.486" cy="652.343" r="4" fill="#0" id="circle56"/>
	<circle cx="333.486" cy="687.771" r="4" fill="#0" id="circle57"/>
	<circle cx="351.2" cy="620.457" r="4" fill="#0" id="circle58"/>
	<circle cx="351.2" cy="719.657" r="4" fill="#0" id="circle59"/>
	<circle cx="358.286" cy="567.314" r="4" fill="#0" id="circle60"/>
	<circle cx="358.286" cy="946.4" r="4" fill="#0" id="circle61"/>
	<circle cx="372.457" cy="748" r="4" fill="#0" id="circle62"/>
	<circle cx="379.543" cy="918.057" r="4" fill="#0" id="circle63"/>
	<circle cx="390.171" cy="779.886" r="4" fill="#0" id="circle64"/>
	<circle cx="397.257" cy="815.314" r="4" fill="#0" id="circle65"/>
	<circle cx="397.257" cy="872" r="4" fill="#0" id="circle66"/>
	</g>
</svg>