<?xml version="1.0" encoding="UTF-8" standalone="no"?>
<!-- Created with CurveBenchmark -->
<svg
	xmlns:dc="http://purl.org/dc/elements/1.1/"
	xmlns:cc="http://creativecommons.org/ns#"
	xmlns:rdf="http://www.w3.org/1999/02/22-rdf-syntax-ns#"
	xmlns:svg="http://www.w3.org/2000/svg"
	xmlns="http://www.w3.org/2000/svg"
	xmlns:sodipodi="http://sodipodi.sourceforge.net/DTD/sodipodi-0.dtd"
	xmlns:inkscape="http://www.inkscape.org/namespaces/inkscape"
	width="1000"
	height="1000"
	id="svg2"
	version="1.1"
	sodipodi:docname="manifold/fitconnect-textbox54.png.txt">
<defs
	id="defs4" />
<metadata
	id="metadata7">
	<rdf:RDF>
		<cc:Work
			rdf:about="">
			<dc:format>image/svg+xml</dc:format>
			<dc:type
				rdf:resource="http://purl.org/dc/dcmitype/StillImage" />
			<dc:title></dc:title>
		</cc:Work>
	</rdf:RDF>
</metadata>
<g
	inkscape:label="Layer 1"
	inkscape:groupmode="layer"
	id="layer1">
	<path style="fill:none;stroke:red;stroke-width:1px;stroke-linecap:butt;stroke-linejoin:miter;stroke-opacity:1" d="M 4,375.108 4,392.95 z" id="boundary" inkscape:connector-curvature="0" />
	<path style="fill:none;stroke:red;stroke-width:1px;stroke-linecap:butt;stroke-linejoin:miter;stroke-opacity:1" d="M 4,375.108 21.8417,357.266 z" id="boundary" inkscape:connector-curvature="0" />
	<path style="fill:none;stroke:red;stroke-width:1px;stroke-linecap:butt;stroke-linejoin:miter;stroke-opacity:1" d="M 4,392.95 4,410.791 z" id="boundary" inkscape:connector-curvature="0" />
	<path style="fill:none;stroke:red;stroke-width:1px;stroke-linecap:butt;stroke-linejoin:miter;stroke-opacity:1" d="M 4,410.791 14.705,425.065 z" id="boundary" inkscape:connector-curvature="0" />
	<path style="fill:none;stroke:red;stroke-width:1px;stroke-linecap:butt;stroke-linejoin:miter;stroke-opacity:1" d="M 14.705,425.065 21.8417,442.906 z" id="boundary" inkscape:connector-curvature="0" />
	<path style="fill:none;stroke:red;stroke-width:1px;stroke-linecap:butt;stroke-linejoin:miter;stroke-opacity:1" d="M 21.8417,339.424 21.8417,357.266 z" id="boundary" inkscape:connector-curvature="0" />
	<path style="fill:none;stroke:red;stroke-width:1px;stroke-linecap:butt;stroke-linejoin:miter;stroke-opacity:1" d="M 21.8417,339.424 30.7626,321.583 z" id="boundary" inkscape:connector-curvature="0" />
	<path style="fill:none;stroke:red;stroke-width:1px;stroke-linecap:butt;stroke-linejoin:miter;stroke-opacity:1" d="M 21.8417,442.906 30.7626,458.964 z" id="boundary" inkscape:connector-curvature="0" />
	<path style="fill:none;stroke:red;stroke-width:1px;stroke-linecap:butt;stroke-linejoin:miter;stroke-opacity:1" d="M 21.8417,535.683 21.8417,553.525 z" id="boundary" inkscape:connector-curvature="0" />
	<path style="fill:none;stroke:red;stroke-width:1px;stroke-linecap:butt;stroke-linejoin:miter;stroke-opacity:1" d="M 21.8417,535.683 30.7626,517.842 z" id="boundary" inkscape:connector-curvature="0" />
	<path style="fill:none;stroke:red;stroke-width:1px;stroke-linecap:butt;stroke-linejoin:miter;stroke-opacity:1" d="M 21.8417,553.525 21.8417,571.367 z" id="boundary" inkscape:connector-curvature="0" />
	<path style="fill:none;stroke:red;stroke-width:1px;stroke-linecap:butt;stroke-linejoin:miter;stroke-opacity:1" d="M 21.8417,571.367 30.7626,587.424 z" id="boundary" inkscape:connector-curvature="0" />
	<path style="fill:none;stroke:red;stroke-width:1px;stroke-linecap:butt;stroke-linejoin:miter;stroke-opacity:1" d="M 30.7626,303.741 30.7626,321.583 z" id="boundary" inkscape:connector-curvature="0" />
	<path style="fill:none;stroke:red;stroke-width:1px;stroke-linecap:butt;stroke-linejoin:miter;stroke-opacity:1" d="M 30.7626,303.741 48.6043,294.82 z" id="boundary" inkscape:connector-curvature="0" />
	<path style="fill:none;stroke:red;stroke-width:1px;stroke-linecap:butt;stroke-linejoin:miter;stroke-opacity:1" d="M 30.7626,458.964 34.3309,476.806 z" id="boundary" inkscape:connector-curvature="0" />
	<path style="fill:none;stroke:red;stroke-width:1px;stroke-linecap:butt;stroke-linejoin:miter;stroke-opacity:1" d="M 30.7626,500 30.7626,517.842 z" id="boundary" inkscape:connector-curvature="0" />
	<path style="fill:none;stroke:red;stroke-width:1px;stroke-linecap:butt;stroke-linejoin:miter;stroke-opacity:1" d="M 30.7626,500 48.6043,487.511 z" id="boundary" inkscape:connector-curvature="0" />
	<path style="fill:none;stroke:red;stroke-width:1px;stroke-linecap:butt;stroke-linejoin:miter;stroke-opacity:1" d="M 30.7626,587.424 39.6835,603.482 z" id="boundary" inkscape:connector-curvature="0" />
	<path style="fill:none;stroke:red;stroke-width:1px;stroke-linecap:butt;stroke-linejoin:miter;stroke-opacity:1" d="M 34.3309,476.806 48.6043,487.511 z" id="boundary" inkscape:connector-curvature="0" />
	<path style="fill:none;stroke:red;stroke-width:1px;stroke-linecap:butt;stroke-linejoin:miter;stroke-opacity:1" d="M 39.6835,603.482 50.3885,617.755 z" id="boundary" inkscape:connector-curvature="0" />
	<path style="fill:none;stroke:red;stroke-width:1px;stroke-linecap:butt;stroke-linejoin:miter;stroke-opacity:1" d="M 48.6043,294.82 66.446,285.899 z" id="boundary" inkscape:connector-curvature="0" />
	<path style="fill:none;stroke:red;stroke-width:1px;stroke-linecap:butt;stroke-linejoin:miter;stroke-opacity:1" d="M 50.3885,617.755 66.446,626.676 z" id="boundary" inkscape:connector-curvature="0" />
	<path style="fill:none;stroke:red;stroke-width:1px;stroke-linecap:butt;stroke-linejoin:miter;stroke-opacity:1" d="M 66.446,285.899 84.2878,268.058 z" id="boundary" inkscape:connector-curvature="0" />
	<path style="fill:none;stroke:red;stroke-width:1px;stroke-linecap:butt;stroke-linejoin:miter;stroke-opacity:1" d="M 66.446,626.676 75.3669,642.734 z" id="boundary" inkscape:connector-curvature="0" />
	<path style="fill:none;stroke:red;stroke-width:1px;stroke-linecap:butt;stroke-linejoin:miter;stroke-opacity:1" d="M 75.3669,642.734 89.6403,655.223 z" id="boundary" inkscape:connector-curvature="0" />
	<path style="fill:none;stroke:red;stroke-width:1px;stroke-linecap:butt;stroke-linejoin:miter;stroke-opacity:1" d="M 84.2878,232.374 84.2878,250.216 z" id="boundary" inkscape:connector-curvature="0" />
	<path style="fill:none;stroke:red;stroke-width:1px;stroke-linecap:butt;stroke-linejoin:miter;stroke-opacity:1" d="M 84.2878,232.374 102.129,214.532 z" id="boundary" inkscape:connector-curvature="0" />
	<path style="fill:none;stroke:red;stroke-width:1px;stroke-linecap:butt;stroke-linejoin:miter;stroke-opacity:1" d="M 84.2878,250.216 84.2878,268.058 z" id="boundary" inkscape:connector-curvature="0" />
	<path style="fill:none;stroke:red;stroke-width:1px;stroke-linecap:butt;stroke-linejoin:miter;stroke-opacity:1" d="M 89.6403,655.223 107.482,657.007 z" id="boundary" inkscape:connector-curvature="0" />
	<path style="fill:none;stroke:red;stroke-width:1px;stroke-linecap:butt;stroke-linejoin:miter;stroke-opacity:1" d="M 102.129,196.691 102.129,214.532 z" id="boundary" inkscape:connector-curvature="0" />
	<path style="fill:none;stroke:red;stroke-width:1px;stroke-linecap:butt;stroke-linejoin:miter;stroke-opacity:1" d="M 102.129,196.691 111.05,169.928 z" id="boundary" inkscape:connector-curvature="0" />
	<path style="fill:none;stroke:red;stroke-width:1px;stroke-linecap:butt;stroke-linejoin:miter;stroke-opacity:1" d="M 107.482,657.007 116.403,673.065 z" id="boundary" inkscape:connector-curvature="0" />
	<path style="fill:none;stroke:red;stroke-width:1px;stroke-linecap:butt;stroke-linejoin:miter;stroke-opacity:1" d="M 111.05,169.928 119.971,143.165 z" id="boundary" inkscape:connector-curvature="0" />
	<path style="fill:none;stroke:red;stroke-width:1px;stroke-linecap:butt;stroke-linejoin:miter;stroke-opacity:1" d="M 116.403,673.065 134.245,674.849 z" id="boundary" inkscape:connector-curvature="0" />
	<path style="fill:none;stroke:red;stroke-width:1px;stroke-linecap:butt;stroke-linejoin:miter;stroke-opacity:1" d="M 119.971,143.165 137.813,137.813 z" id="boundary" inkscape:connector-curvature="0" />
	<path style="fill:none;stroke:red;stroke-width:1px;stroke-linecap:butt;stroke-linejoin:miter;stroke-opacity:1" d="M 134.245,674.849 152.086,681.986 z" id="boundary" inkscape:connector-curvature="0" />
	<path style="fill:none;stroke:red;stroke-width:1px;stroke-linecap:butt;stroke-linejoin:miter;stroke-opacity:1" d="M 137.813,137.813 153.871,128.892 z" id="boundary" inkscape:connector-curvature="0" />
	<path style="fill:none;stroke:red;stroke-width:1px;stroke-linecap:butt;stroke-linejoin:miter;stroke-opacity:1" d="M 152.086,681.986 164.576,696.259 z" id="boundary" inkscape:connector-curvature="0" />
	<path style="fill:none;stroke:red;stroke-width:1px;stroke-linecap:butt;stroke-linejoin:miter;stroke-opacity:1" d="M 153.871,128.892 169.928,119.971 z" id="boundary" inkscape:connector-curvature="0" />
	<path style="fill:none;stroke:red;stroke-width:1px;stroke-linecap:butt;stroke-linejoin:miter;stroke-opacity:1" d="M 164.576,696.259 175.281,710.532 z" id="boundary" inkscape:connector-curvature="0" />
	<path style="fill:none;stroke:red;stroke-width:1px;stroke-linecap:butt;stroke-linejoin:miter;stroke-opacity:1" d="M 169.928,119.971 182.417,98.5612 z" id="boundary" inkscape:connector-curvature="0" />
	<path style="fill:none;stroke:red;stroke-width:1px;stroke-linecap:butt;stroke-linejoin:miter;stroke-opacity:1" d="M 175.281,710.532 185.986,724.806 z" id="boundary" inkscape:connector-curvature="0" />
	<path style="fill:none;stroke:red;stroke-width:1px;stroke-linecap:butt;stroke-linejoin:miter;stroke-opacity:1" d="M 182.417,98.5612 200.259,89.6403 z" id="boundary" inkscape:connector-curvature="0" />
	<path style="fill:none;stroke:red;stroke-width:1px;stroke-linecap:butt;stroke-linejoin:miter;stroke-opacity:1" d="M 185.986,724.806 200.259,737.295 z" id="boundary" inkscape:connector-curvature="0" />
	<path style="fill:none;stroke:red;stroke-width:1px;stroke-linecap:butt;stroke-linejoin:miter;stroke-opacity:1" d="M 200.259,89.6403 218.101,84.2878 z" id="boundary" inkscape:connector-curvature="0" />
	<path style="fill:none;stroke:red;stroke-width:1px;stroke-linecap:butt;stroke-linejoin:miter;stroke-opacity:1" d="M 200.259,737.295 216.317,746.216 z" id="boundary" inkscape:connector-curvature="0" />
	<path style="fill:none;stroke:red;stroke-width:1px;stroke-linecap:butt;stroke-linejoin:miter;stroke-opacity:1" d="M 216.317,746.216 228.806,760.489 z" id="boundary" inkscape:connector-curvature="0" />
	<path style="fill:none;stroke:red;stroke-width:1px;stroke-linecap:butt;stroke-linejoin:miter;stroke-opacity:1" d="M 218.101,84.2878 235.942,84.2878 z" id="boundary" inkscape:connector-curvature="0" />
	<path style="fill:none;stroke:red;stroke-width:1px;stroke-linecap:butt;stroke-linejoin:miter;stroke-opacity:1" d="M 228.806,760.489 246.647,764.058 z" id="boundary" inkscape:connector-curvature="0" />
	<path style="fill:none;stroke:red;stroke-width:1px;stroke-linecap:butt;stroke-linejoin:miter;stroke-opacity:1" d="M 235.942,84.2878 253.784,84.2878 z" id="boundary" inkscape:connector-curvature="0" />
	<path style="fill:none;stroke:red;stroke-width:1px;stroke-linecap:butt;stroke-linejoin:miter;stroke-opacity:1" d="M 246.647,764.058 264.489,764.058 z" id="boundary" inkscape:connector-curvature="0" />
	<path style="fill:none;stroke:red;stroke-width:1px;stroke-linecap:butt;stroke-linejoin:miter;stroke-opacity:1" d="M 253.784,84.2878 271.626,84.2878 z" id="boundary" inkscape:connector-curvature="0" />
	<path style="fill:none;stroke:red;stroke-width:1px;stroke-linecap:butt;stroke-linejoin:miter;stroke-opacity:1" d="M 264.489,764.058 282.331,764.058 z" id="boundary" inkscape:connector-curvature="0" />
	<path style="fill:none;stroke:red;stroke-width:1px;stroke-linecap:butt;stroke-linejoin:miter;stroke-opacity:1" d="M 271.626,84.2878 289.468,84.2878 z" id="boundary" inkscape:connector-curvature="0" />
	<path style="fill:none;stroke:red;stroke-width:1px;stroke-linecap:butt;stroke-linejoin:miter;stroke-opacity:1" d="M 282.331,764.058 300.173,764.058 z" id="boundary" inkscape:connector-curvature="0" />
	<path style="fill:none;stroke:red;stroke-width:1px;stroke-linecap:butt;stroke-linejoin:miter;stroke-opacity:1" d="M 289.468,84.2878 305.525,93.2086 z" id="boundary" inkscape:connector-curvature="0" />
	<path style="fill:none;stroke:red;stroke-width:1px;stroke-linecap:butt;stroke-linejoin:miter;stroke-opacity:1" d="M 298.388,803.309 298.388,821.151 z" id="boundary" inkscape:connector-curvature="0" />
	<path style="fill:none;stroke:red;stroke-width:1px;stroke-linecap:butt;stroke-linejoin:miter;stroke-opacity:1" d="M 298.388,803.309 307.309,785.468 z" id="boundary" inkscape:connector-curvature="0" />
	<path style="fill:none;stroke:red;stroke-width:1px;stroke-linecap:butt;stroke-linejoin:miter;stroke-opacity:1" d="M 298.388,821.151 298.388,838.993 z" id="boundary" inkscape:connector-curvature="0" />
	<path style="fill:none;stroke:red;stroke-width:1px;stroke-linecap:butt;stroke-linejoin:miter;stroke-opacity:1" d="M 298.388,838.993 298.388,856.835 z" id="boundary" inkscape:connector-curvature="0" />
	<path style="fill:none;stroke:red;stroke-width:1px;stroke-linecap:butt;stroke-linejoin:miter;stroke-opacity:1" d="M 298.388,856.835 298.388,874.676 z" id="boundary" inkscape:connector-curvature="0" />
	<path style="fill:none;stroke:red;stroke-width:1px;stroke-linecap:butt;stroke-linejoin:miter;stroke-opacity:1" d="M 298.388,874.676 298.388,901.439 z" id="boundary" inkscape:connector-curvature="0" />
	<path style="fill:none;stroke:red;stroke-width:1px;stroke-linecap:butt;stroke-linejoin:miter;stroke-opacity:1" d="M 298.388,901.439 298.388,919.281 z" id="boundary" inkscape:connector-curvature="0" />
	<path style="fill:none;stroke:red;stroke-width:1px;stroke-linecap:butt;stroke-linejoin:miter;stroke-opacity:1" d="M 298.388,919.281 298.388,937.122 z" id="boundary" inkscape:connector-curvature="0" />
	<path style="fill:none;stroke:red;stroke-width:1px;stroke-linecap:butt;stroke-linejoin:miter;stroke-opacity:1" d="M 298.388,937.122 307.309,953.18 z" id="boundary" inkscape:connector-curvature="0" />
	<path style="fill:none;stroke:red;stroke-width:1px;stroke-linecap:butt;stroke-linejoin:miter;stroke-opacity:1" d="M 300.173,764.058 318.014,764.058 z" id="boundary" inkscape:connector-curvature="0" />
	<path style="fill:none;stroke:red;stroke-width:1px;stroke-linecap:butt;stroke-linejoin:miter;stroke-opacity:1" d="M 305.525,93.2086 321.583,84.2878 z" id="boundary" inkscape:connector-curvature="0" />
	<path style="fill:none;stroke:red;stroke-width:1px;stroke-linecap:butt;stroke-linejoin:miter;stroke-opacity:1" d="M 307.309,785.468 318.014,764.058 z" id="boundary" inkscape:connector-curvature="0" />
	<path style="fill:none;stroke:red;stroke-width:1px;stroke-linecap:butt;stroke-linejoin:miter;stroke-opacity:1" d="M 307.309,953.18 307.309,971.022 z" id="boundary" inkscape:connector-curvature="0" />
	<path style="fill:none;stroke:red;stroke-width:1px;stroke-linecap:butt;stroke-linejoin:miter;stroke-opacity:1" d="M 307.309,971.022 316.23,987.079 z" id="boundary" inkscape:connector-curvature="0" />
	<path style="fill:none;stroke:red;stroke-width:1px;stroke-linecap:butt;stroke-linejoin:miter;stroke-opacity:1" d="M 316.23,987.079 332.288,996 z" id="boundary" inkscape:connector-curvature="0" />
	<path style="fill:none;stroke:red;stroke-width:1px;stroke-linecap:butt;stroke-linejoin:miter;stroke-opacity:1" d="M 321.583,84.2878 339.424,84.2878 z" id="boundary" inkscape:connector-curvature="0" />
	<path style="fill:none;stroke:red;stroke-width:1px;stroke-linecap:butt;stroke-linejoin:miter;stroke-opacity:1" d="M 332.288,996 350.129,996 z" id="boundary" inkscape:connector-curvature="0" />
	<path style="fill:none;stroke:red;stroke-width:1px;stroke-linecap:butt;stroke-linejoin:miter;stroke-opacity:1" d="M 339.424,84.2878 342.993,62.8777 z" id="boundary" inkscape:connector-curvature="0" />
	<path style="fill:none;stroke:red;stroke-width:1px;stroke-linecap:butt;stroke-linejoin:miter;stroke-opacity:1" d="M 342.993,62.8777 357.266,48.6043 z" id="boundary" inkscape:connector-curvature="0" />
	<path style="fill:none;stroke:red;stroke-width:1px;stroke-linecap:butt;stroke-linejoin:miter;stroke-opacity:1" d="M 350.129,996 362.619,978.158 z" id="boundary" inkscape:connector-curvature="0" />
	<path style="fill:none;stroke:red;stroke-width:1px;stroke-linecap:butt;stroke-linejoin:miter;stroke-opacity:1" d="M 357.266,48.6043 375.108,48.6043 z" id="boundary" inkscape:connector-curvature="0" />
	<path style="fill:none;stroke:red;stroke-width:1px;stroke-linecap:butt;stroke-linejoin:miter;stroke-opacity:1" d="M 362.619,978.158 380.46,969.237 z" id="boundary" inkscape:connector-curvature="0" />
	<path style="fill:none;stroke:red;stroke-width:1px;stroke-linecap:butt;stroke-linejoin:miter;stroke-opacity:1" d="M 375.108,48.6043 392.95,39.6835 z" id="boundary" inkscape:connector-curvature="0" />
	<path style="fill:none;stroke:red;stroke-width:1px;stroke-linecap:butt;stroke-linejoin:miter;stroke-opacity:1" d="M 380.46,969.237 394.734,956.748 z" id="boundary" inkscape:connector-curvature="0" />
	<path style="fill:none;stroke:red;stroke-width:1px;stroke-linecap:butt;stroke-linejoin:miter;stroke-opacity:1" d="M 392.95,39.6835 410.791,39.6835 z" id="boundary" inkscape:connector-curvature="0" />
	<path style="fill:none;stroke:red;stroke-width:1px;stroke-linecap:butt;stroke-linejoin:miter;stroke-opacity:1" d="M 394.734,956.748 405.439,942.475 z" id="boundary" inkscape:connector-curvature="0" />
	<path style="fill:none;stroke:red;stroke-width:1px;stroke-linecap:butt;stroke-linejoin:miter;stroke-opacity:1" d="M 405.439,942.475 416.144,915.712 z" id="boundary" inkscape:connector-curvature="0" />
	<path style="fill:none;stroke:red;stroke-width:1px;stroke-linecap:butt;stroke-linejoin:miter;stroke-opacity:1" d="M 410.791,39.6835 428.633,39.6835 z" id="boundary" inkscape:connector-curvature="0" />
	<path style="fill:none;stroke:red;stroke-width:1px;stroke-linecap:butt;stroke-linejoin:miter;stroke-opacity:1" d="M 416.144,897.871 416.144,915.712 z" id="boundary" inkscape:connector-curvature="0" />
	<path style="fill:none;stroke:red;stroke-width:1px;stroke-linecap:butt;stroke-linejoin:miter;stroke-opacity:1" d="M 416.144,897.871 430.417,885.381 z" id="boundary" inkscape:connector-curvature="0" />
	<path style="fill:none;stroke:red;stroke-width:1px;stroke-linecap:butt;stroke-linejoin:miter;stroke-opacity:1" d="M 428.633,39.6835 444.691,48.6043 z" id="boundary" inkscape:connector-curvature="0" />
	<path style="fill:none;stroke:red;stroke-width:1px;stroke-linecap:butt;stroke-linejoin:miter;stroke-opacity:1" d="M 430.417,885.381 448.259,880.029 z" id="boundary" inkscape:connector-curvature="0" />
	<path style="fill:none;stroke:red;stroke-width:1px;stroke-linecap:butt;stroke-linejoin:miter;stroke-opacity:1" d="M 444.691,48.6043 462.532,48.6043 z" id="boundary" inkscape:connector-curvature="0" />
	<path style="fill:none;stroke:red;stroke-width:1px;stroke-linecap:butt;stroke-linejoin:miter;stroke-opacity:1" d="M 448.259,880.029 460.748,862.187 z" id="boundary" inkscape:connector-curvature="0" />
	<path style="fill:none;stroke:red;stroke-width:1px;stroke-linecap:butt;stroke-linejoin:miter;stroke-opacity:1" d="M 460.748,808.662 460.748,826.504 z" id="boundary" inkscape:connector-curvature="0" />
	<path style="fill:none;stroke:red;stroke-width:1px;stroke-linecap:butt;stroke-linejoin:miter;stroke-opacity:1" d="M 460.748,808.662 478.59,808.662 z" id="boundary" inkscape:connector-curvature="0" />
	<path style="fill:none;stroke:red;stroke-width:1px;stroke-linecap:butt;stroke-linejoin:miter;stroke-opacity:1" d="M 460.748,826.504 460.748,844.345 z" id="boundary" inkscape:connector-curvature="0" />
	<path style="fill:none;stroke:red;stroke-width:1px;stroke-linecap:butt;stroke-linejoin:miter;stroke-opacity:1" d="M 460.748,844.345 460.748,862.187 z" id="boundary" inkscape:connector-curvature="0" />
	<path style="fill:none;stroke:red;stroke-width:1px;stroke-linecap:butt;stroke-linejoin:miter;stroke-opacity:1" d="M 462.532,48.6043 478.59,57.5252 z" id="boundary" inkscape:connector-curvature="0" />
	<path style="fill:none;stroke:red;stroke-width:1px;stroke-linecap:butt;stroke-linejoin:miter;stroke-opacity:1" d="M 478.59,57.5252 496.432,62.8777 z" id="boundary" inkscape:connector-curvature="0" />
	<path style="fill:none;stroke:red;stroke-width:1px;stroke-linecap:butt;stroke-linejoin:miter;stroke-opacity:1" d="M 478.59,808.662 496.432,808.662 z" id="boundary" inkscape:connector-curvature="0" />
	<path style="fill:none;stroke:red;stroke-width:1px;stroke-linecap:butt;stroke-linejoin:miter;stroke-opacity:1" d="M 496.432,62.8777 508.921,48.6043 z" id="boundary" inkscape:connector-curvature="0" />
	<path style="fill:none;stroke:red;stroke-width:1px;stroke-linecap:butt;stroke-linejoin:miter;stroke-opacity:1" d="M 496.432,808.662 512.489,799.741 z" id="boundary" inkscape:connector-curvature="0" />
	<path style="fill:none;stroke:red;stroke-width:1px;stroke-linecap:butt;stroke-linejoin:miter;stroke-opacity:1" d="M 508.921,48.6043 512.489,27.1942 z" id="boundary" inkscape:connector-curvature="0" />
	<path style="fill:none;stroke:red;stroke-width:1px;stroke-linecap:butt;stroke-linejoin:miter;stroke-opacity:1" d="M 512.489,27.1942 530.331,21.8417 z" id="boundary" inkscape:connector-curvature="0" />
	<path style="fill:none;stroke:red;stroke-width:1px;stroke-linecap:butt;stroke-linejoin:miter;stroke-opacity:1" d="M 512.489,799.741 530.331,799.741 z" id="boundary" inkscape:connector-curvature="0" />
	<path style="fill:none;stroke:red;stroke-width:1px;stroke-linecap:butt;stroke-linejoin:miter;stroke-opacity:1" d="M 530.331,21.8417 548.173,9.35252 z" id="boundary" inkscape:connector-curvature="0" />
	<path style="fill:none;stroke:red;stroke-width:1px;stroke-linecap:butt;stroke-linejoin:miter;stroke-opacity:1" d="M 530.331,799.741 548.173,794.388 z" id="boundary" inkscape:connector-curvature="0" />
	<path style="fill:none;stroke:red;stroke-width:1px;stroke-linecap:butt;stroke-linejoin:miter;stroke-opacity:1" d="M 548.173,9.35252 566.014,4 z" id="boundary" inkscape:connector-curvature="0" />
	<path style="fill:none;stroke:red;stroke-width:1px;stroke-linecap:butt;stroke-linejoin:miter;stroke-opacity:1" d="M 548.173,794.388 562.446,781.899 z" id="boundary" inkscape:connector-curvature="0" />
	<path style="fill:none;stroke:red;stroke-width:1px;stroke-linecap:butt;stroke-linejoin:miter;stroke-opacity:1" d="M 562.446,781.899 578.504,772.978 z" id="boundary" inkscape:connector-curvature="0" />
	<path style="fill:none;stroke:red;stroke-width:1px;stroke-linecap:butt;stroke-linejoin:miter;stroke-opacity:1" d="M 566.014,4 583.856,4 z" id="boundary" inkscape:connector-curvature="0" />
	<path style="fill:none;stroke:red;stroke-width:1px;stroke-linecap:butt;stroke-linejoin:miter;stroke-opacity:1" d="M 578.504,772.978 592.777,758.705 z" id="boundary" inkscape:connector-curvature="0" />
	<path style="fill:none;stroke:red;stroke-width:1px;stroke-linecap:butt;stroke-linejoin:miter;stroke-opacity:1" d="M 583.856,4 594.561,18.2734 z" id="boundary" inkscape:connector-curvature="0" />
	<path style="fill:none;stroke:red;stroke-width:1px;stroke-linecap:butt;stroke-linejoin:miter;stroke-opacity:1" d="M 592.777,758.705 594.561,737.295 z" id="boundary" inkscape:connector-curvature="0" />
	<path style="fill:none;stroke:red;stroke-width:1px;stroke-linecap:butt;stroke-linejoin:miter;stroke-opacity:1" d="M 594.561,18.2734 612.403,21.8417 z" id="boundary" inkscape:connector-curvature="0" />
	<path style="fill:none;stroke:red;stroke-width:1px;stroke-linecap:butt;stroke-linejoin:miter;stroke-opacity:1" d="M 594.561,737.295 612.403,728.374 z" id="boundary" inkscape:connector-curvature="0" />
	<path style="fill:none;stroke:red;stroke-width:1px;stroke-linecap:butt;stroke-linejoin:miter;stroke-opacity:1" d="M 612.403,21.8417 621.324,37.8993 z" id="boundary" inkscape:connector-curvature="0" />
	<path style="fill:none;stroke:red;stroke-width:1px;stroke-linecap:butt;stroke-linejoin:miter;stroke-opacity:1" d="M 612.403,728.374 621.324,710.532 z" id="boundary" inkscape:connector-curvature="0" />
	<path style="fill:none;stroke:red;stroke-width:1px;stroke-linecap:butt;stroke-linejoin:miter;stroke-opacity:1" d="M 621.324,37.8993 639.165,39.6835 z" id="boundary" inkscape:connector-curvature="0" />
	<path style="fill:none;stroke:red;stroke-width:1px;stroke-linecap:butt;stroke-linejoin:miter;stroke-opacity:1" d="M 621.324,692.691 621.324,710.532 z" id="boundary" inkscape:connector-curvature="0" />
	<path style="fill:none;stroke:red;stroke-width:1px;stroke-linecap:butt;stroke-linejoin:miter;stroke-opacity:1" d="M 621.324,692.691 639.165,692.691 z" id="boundary" inkscape:connector-curvature="0" />
	<path style="fill:none;stroke:red;stroke-width:1px;stroke-linecap:butt;stroke-linejoin:miter;stroke-opacity:1" d="M 639.165,39.6835 657.007,45.036 z" id="boundary" inkscape:connector-curvature="0" />
	<path style="fill:none;stroke:red;stroke-width:1px;stroke-linecap:butt;stroke-linejoin:miter;stroke-opacity:1" d="M 639.165,692.691 655.223,701.612 z" id="boundary" inkscape:connector-curvature="0" />
	<path style="fill:none;stroke:red;stroke-width:1px;stroke-linecap:butt;stroke-linejoin:miter;stroke-opacity:1" d="M 655.223,701.612 671.281,710.532 z" id="boundary" inkscape:connector-curvature="0" />
	<path style="fill:none;stroke:red;stroke-width:1px;stroke-linecap:butt;stroke-linejoin:miter;stroke-opacity:1" d="M 657.007,45.036 674.849,39.6835 z" id="boundary" inkscape:connector-curvature="0" />
	<path style="fill:none;stroke:red;stroke-width:1px;stroke-linecap:butt;stroke-linejoin:miter;stroke-opacity:1" d="M 671.281,710.532 678.417,728.374 z" id="boundary" inkscape:connector-curvature="0" />
	<path style="fill:none;stroke:red;stroke-width:1px;stroke-linecap:butt;stroke-linejoin:miter;stroke-opacity:1" d="M 674.849,39.6835 690.906,27.1942 z" id="boundary" inkscape:connector-curvature="0" />
	<path style="fill:none;stroke:red;stroke-width:1px;stroke-linecap:butt;stroke-linejoin:miter;stroke-opacity:1" d="M 678.417,728.374 696.259,728.374 z" id="boundary" inkscape:connector-curvature="0" />
	<path style="fill:none;stroke:red;stroke-width:1px;stroke-linecap:butt;stroke-linejoin:miter;stroke-opacity:1" d="M 690.906,27.1942 708.748,9.35252 z" id="boundary" inkscape:connector-curvature="0" />
	<path style="fill:none;stroke:red;stroke-width:1px;stroke-linecap:butt;stroke-linejoin:miter;stroke-opacity:1" d="M 696.259,728.374 710.532,710.532 z" id="boundary" inkscape:connector-curvature="0" />
	<path style="fill:none;stroke:red;stroke-width:1px;stroke-linecap:butt;stroke-linejoin:miter;stroke-opacity:1" d="M 708.748,9.35252 726.59,4 z" id="boundary" inkscape:connector-curvature="0" />
	<path style="fill:none;stroke:red;stroke-width:1px;stroke-linecap:butt;stroke-linejoin:miter;stroke-opacity:1" d="M 710.532,710.532 728.374,710.532 z" id="boundary" inkscape:connector-curvature="0" />
	<path style="fill:none;stroke:red;stroke-width:1px;stroke-linecap:butt;stroke-linejoin:miter;stroke-opacity:1" d="M 726.59,4 744.432,4 z" id="boundary" inkscape:connector-curvature="0" />
	<path style="fill:none;stroke:red;stroke-width:1px;stroke-linecap:butt;stroke-linejoin:miter;stroke-opacity:1" d="M 728.374,710.532 746.216,710.532 z" id="boundary" inkscape:connector-curvature="0" />
	<path style="fill:none;stroke:red;stroke-width:1px;stroke-linecap:butt;stroke-linejoin:miter;stroke-opacity:1" d="M 744.432,4 755.137,18.2734 z" id="boundary" inkscape:connector-curvature="0" />
	<path style="fill:none;stroke:red;stroke-width:1px;stroke-linecap:butt;stroke-linejoin:miter;stroke-opacity:1" d="M 746.216,710.532 755.137,692.691 z" id="boundary" inkscape:connector-curvature="0" />
	<path style="fill:none;stroke:red;stroke-width:1px;stroke-linecap:butt;stroke-linejoin:miter;stroke-opacity:1" d="M 755.137,18.2734 772.978,21.8417 z" id="boundary" inkscape:connector-curvature="0" />
	<path style="fill:none;stroke:red;stroke-width:1px;stroke-linecap:butt;stroke-linejoin:miter;stroke-opacity:1" d="M 755.137,692.691 772.978,683.77 z" id="boundary" inkscape:connector-curvature="0" />
	<path style="fill:none;stroke:red;stroke-width:1px;stroke-linecap:butt;stroke-linejoin:miter;stroke-opacity:1" d="M 772.978,21.8417 790.82,27.1942 z" id="boundary" inkscape:connector-curvature="0" />
	<path style="fill:none;stroke:red;stroke-width:1px;stroke-linecap:butt;stroke-linejoin:miter;stroke-opacity:1" d="M 772.978,683.77 787.252,671.281 z" id="boundary" inkscape:connector-curvature="0" />
	<path style="fill:none;stroke:red;stroke-width:1px;stroke-linecap:butt;stroke-linejoin:miter;stroke-opacity:1" d="M 787.252,671.281 790.82,648.086 z" id="boundary" inkscape:connector-curvature="0" />
	<path style="fill:none;stroke:red;stroke-width:1px;stroke-linecap:butt;stroke-linejoin:miter;stroke-opacity:1" d="M 790.82,27.1942 803.309,41.4676 z" id="boundary" inkscape:connector-curvature="0" />
	<path style="fill:none;stroke:red;stroke-width:1px;stroke-linecap:butt;stroke-linejoin:miter;stroke-opacity:1" d="M 790.82,648.086 808.662,630.245 z" id="boundary" inkscape:connector-curvature="0" />
	<path style="fill:none;stroke:red;stroke-width:1px;stroke-linecap:butt;stroke-linejoin:miter;stroke-opacity:1" d="M 803.309,41.4676 812.23,57.5252 z" id="boundary" inkscape:connector-curvature="0" />
	<path style="fill:none;stroke:red;stroke-width:1px;stroke-linecap:butt;stroke-linejoin:miter;stroke-opacity:1" d="M 808.662,594.561 808.662,612.403 z" id="boundary" inkscape:connector-curvature="0" />
	<path style="fill:none;stroke:red;stroke-width:1px;stroke-linecap:butt;stroke-linejoin:miter;stroke-opacity:1" d="M 808.662,594.561 817.583,567.799 z" id="boundary" inkscape:connector-curvature="0" />
	<path style="fill:none;stroke:red;stroke-width:1px;stroke-linecap:butt;stroke-linejoin:miter;stroke-opacity:1" d="M 808.662,612.403 808.662,630.245 z" id="boundary" inkscape:connector-curvature="0" />
	<path style="fill:none;stroke:red;stroke-width:1px;stroke-linecap:butt;stroke-linejoin:miter;stroke-opacity:1" d="M 812.23,57.5252 817.583,75.3669 z" id="boundary" inkscape:connector-curvature="0" />
	<path style="fill:none;stroke:red;stroke-width:1px;stroke-linecap:butt;stroke-linejoin:miter;stroke-opacity:1" d="M 817.583,75.3669 826.504,91.4245 z" id="boundary" inkscape:connector-curvature="0" />
	<path style="fill:none;stroke:red;stroke-width:1px;stroke-linecap:butt;stroke-linejoin:miter;stroke-opacity:1" d="M 817.583,567.799 833.64,558.878 z" id="boundary" inkscape:connector-curvature="0" />
	<path style="fill:none;stroke:red;stroke-width:1px;stroke-linecap:butt;stroke-linejoin:miter;stroke-opacity:1" d="M 826.504,91.4245 826.504,109.266 z" id="boundary" inkscape:connector-curvature="0" />
	<path style="fill:none;stroke:red;stroke-width:1px;stroke-linecap:butt;stroke-linejoin:miter;stroke-opacity:1" d="M 826.504,109.266 840.777,119.971 z" id="boundary" inkscape:connector-curvature="0" />
	<path style="fill:none;stroke:red;stroke-width:1px;stroke-linecap:butt;stroke-linejoin:miter;stroke-opacity:1" d="M 833.64,558.878 851.482,558.878 z" id="boundary" inkscape:connector-curvature="0" />
	<path style="fill:none;stroke:red;stroke-width:1px;stroke-linecap:butt;stroke-linejoin:miter;stroke-opacity:1" d="M 840.777,119.971 858.619,121.755 z" id="boundary" inkscape:connector-curvature="0" />
	<path style="fill:none;stroke:red;stroke-width:1px;stroke-linecap:butt;stroke-linejoin:miter;stroke-opacity:1" d="M 851.482,558.878 869.324,553.525 z" id="boundary" inkscape:connector-curvature="0" />
	<path style="fill:none;stroke:red;stroke-width:1px;stroke-linecap:butt;stroke-linejoin:miter;stroke-opacity:1" d="M 858.619,121.755 876.46,128.892 z" id="boundary" inkscape:connector-curvature="0" />
	<path style="fill:none;stroke:red;stroke-width:1px;stroke-linecap:butt;stroke-linejoin:miter;stroke-opacity:1" d="M 869.324,553.525 883.597,539.252 z" id="boundary" inkscape:connector-curvature="0" />
	<path style="fill:none;stroke:red;stroke-width:1px;stroke-linecap:butt;stroke-linejoin:miter;stroke-opacity:1" d="M 876.46,128.892 892.518,137.813 z" id="boundary" inkscape:connector-curvature="0" />
	<path style="fill:none;stroke:red;stroke-width:1px;stroke-linecap:butt;stroke-linejoin:miter;stroke-opacity:1" d="M 883.597,539.252 897.871,523.194 z" id="boundary" inkscape:connector-curvature="0" />
	<path style="fill:none;stroke:red;stroke-width:1px;stroke-linecap:butt;stroke-linejoin:miter;stroke-opacity:1" d="M 892.518,137.813 897.871,155.655 z" id="boundary" inkscape:connector-curvature="0" />
	<path style="fill:none;stroke:red;stroke-width:1px;stroke-linecap:butt;stroke-linejoin:miter;stroke-opacity:1" d="M 897.871,155.655 906.791,171.712 z" id="boundary" inkscape:connector-curvature="0" />
	<path style="fill:none;stroke:red;stroke-width:1px;stroke-linecap:butt;stroke-linejoin:miter;stroke-opacity:1" d="M 897.871,523.194 906.791,496.432 z" id="boundary" inkscape:connector-curvature="0" />
	<path style="fill:none;stroke:red;stroke-width:1px;stroke-linecap:butt;stroke-linejoin:miter;stroke-opacity:1" d="M 906.791,171.712 906.791,189.554 z" id="boundary" inkscape:connector-curvature="0" />
	<path style="fill:none;stroke:red;stroke-width:1px;stroke-linecap:butt;stroke-linejoin:miter;stroke-opacity:1" d="M 906.791,189.554 906.791,207.396 z" id="boundary" inkscape:connector-curvature="0" />
	<path style="fill:none;stroke:red;stroke-width:1px;stroke-linecap:butt;stroke-linejoin:miter;stroke-opacity:1" d="M 906.791,207.396 921.065,219.885 z" id="boundary" inkscape:connector-curvature="0" />
	<path style="fill:none;stroke:red;stroke-width:1px;stroke-linecap:butt;stroke-linejoin:miter;stroke-opacity:1" d="M 906.791,291.252 906.791,309.094 z" id="boundary" inkscape:connector-curvature="0" />
	<path style="fill:none;stroke:red;stroke-width:1px;stroke-linecap:butt;stroke-linejoin:miter;stroke-opacity:1" d="M 906.791,291.252 924.633,273.41 z" id="boundary" inkscape:connector-curvature="0" />
	<path style="fill:none;stroke:red;stroke-width:1px;stroke-linecap:butt;stroke-linejoin:miter;stroke-opacity:1" d="M 906.791,309.094 915.712,325.151 z" id="boundary" inkscape:connector-curvature="0" />
	<path style="fill:none;stroke:red;stroke-width:1px;stroke-linecap:butt;stroke-linejoin:miter;stroke-opacity:1" d="M 906.791,496.432 924.633,478.59 z" id="boundary" inkscape:connector-curvature="0" />
	<path style="fill:none;stroke:red;stroke-width:1px;stroke-linecap:butt;stroke-linejoin:miter;stroke-opacity:1" d="M 915.712,325.151 924.633,341.209 z" id="boundary" inkscape:connector-curvature="0" />
	<path style="fill:none;stroke:red;stroke-width:1px;stroke-linecap:butt;stroke-linejoin:miter;stroke-opacity:1" d="M 921.065,219.885 924.633,237.727 z" id="boundary" inkscape:connector-curvature="0" />
	<path style="fill:none;stroke:red;stroke-width:1px;stroke-linecap:butt;stroke-linejoin:miter;stroke-opacity:1" d="M 924.633,237.727 924.633,255.568 z" id="boundary" inkscape:connector-curvature="0" />
	<path style="fill:none;stroke:red;stroke-width:1px;stroke-linecap:butt;stroke-linejoin:miter;stroke-opacity:1" d="M 924.633,255.568 924.633,273.41 z" id="boundary" inkscape:connector-curvature="0" />
	<path style="fill:none;stroke:red;stroke-width:1px;stroke-linecap:butt;stroke-linejoin:miter;stroke-opacity:1" d="M 924.633,341.209 942.475,348.345 z" id="boundary" inkscape:connector-curvature="0" />
	<path style="fill:none;stroke:red;stroke-width:1px;stroke-linecap:butt;stroke-linejoin:miter;stroke-opacity:1" d="M 924.633,478.59 942.475,460.748 z" id="boundary" inkscape:connector-curvature="0" />
	<path style="fill:none;stroke:red;stroke-width:1px;stroke-linecap:butt;stroke-linejoin:miter;stroke-opacity:1" d="M 942.475,348.345 942.475,366.187 z" id="boundary" inkscape:connector-curvature="0" />
	<path style="fill:none;stroke:red;stroke-width:1px;stroke-linecap:butt;stroke-linejoin:miter;stroke-opacity:1" d="M 942.475,366.187 949.612,384.029 z" id="boundary" inkscape:connector-curvature="0" />
	<path style="fill:none;stroke:red;stroke-width:1px;stroke-linecap:butt;stroke-linejoin:miter;stroke-opacity:1" d="M 942.475,442.906 942.475,460.748 z" id="boundary" inkscape:connector-curvature="0" />
	<path style="fill:none;stroke:red;stroke-width:1px;stroke-linecap:butt;stroke-linejoin:miter;stroke-opacity:1" d="M 942.475,442.906 951.396,419.712 z" id="boundary" inkscape:connector-curvature="0" />
	<path style="fill:none;stroke:red;stroke-width:1px;stroke-linecap:butt;stroke-linejoin:miter;stroke-opacity:1" d="M 949.612,384.029 951.396,401.871 z" id="boundary" inkscape:connector-curvature="0" />
	<path style="fill:none;stroke:red;stroke-width:1px;stroke-linecap:butt;stroke-linejoin:miter;stroke-opacity:1" d="M 951.396,401.871 951.396,419.712 z" id="boundary" inkscape:connector-curvature="0" />
	<circle cx="4" cy="375.108" r="4" fill="#0" id="circle0"/>
	<circle cx="4" cy="392.95" r="4" fill="#0" id="circle1"/>
	<circle cx="4" cy="410.791" r="4" fill="#0" id="circle2"/>
	<circle cx="14.705" cy="425.065" r="4" fill="#0" id="circle3"/>
	<circle cx="21.8417" cy="339.424" r="4" fill="#0" id="circle4"/>
	<circle cx="21.8417" cy="357.266" r="4" fill="#0" id="circle5"/>
	<circle cx="21.8417" cy="442.906" r="4" fill="#0" id="circle6"/>
	<circle cx="21.8417" cy="535.683" r="4" fill="#0" id="circle7"/>
	<circle cx="21.8417" cy="553.525" r="4" fill="#0" id="circle8"/>
	<circle cx="21.8417" cy="571.367" r="4" fill="#0" id="circle9"/>
	<circle cx="30.7626" cy="303.741" r="4" fill="#0" id="circle10"/>
	<circle cx="30.7626" cy="321.583" r="4" fill="#0" id="circle11"/>
	<circle cx="30.7626" cy="458.964" r="4" fill="#0" id="circle12"/>
	<circle cx="30.7626" cy="500" r="4" fill="#0" id="circle13"/>
	<circle cx="30.7626" cy="517.842" r="4" fill="#0" id="circle14"/>
	<circle cx="30.7626" cy="587.424" r="4" fill="#0" id="circle15"/>
	<circle cx="34.3309" cy="476.806" r="4" fill="#0" id="circle16"/>
	<circle cx="39.6835" cy="603.482" r="4" fill="#0" id="circle17"/>
	<circle cx="48.6043" cy="294.82" r="4" fill="#0" id="circle18"/>
	<circle cx="48.6043" cy="487.511" r="4" fill="#0" id="circle19"/>
	<circle cx="50.3885" cy="617.755" r="4" fill="#0" id="circle20"/>
	<circle cx="66.446" cy="285.899" r="4" fill="#0" id="circle21"/>
	<circle cx="66.446" cy="626.676" r="4" fill="#0" id="circle22"/>
	<circle cx="75.3669" cy="642.734" r="4" fill="#0" id="circle23"/>
	<circle cx="84.2878" cy="232.374" r="4" fill="#0" id="circle24"/>
	<circle cx="84.2878" cy="250.216" r="4" fill="#0" id="circle25"/>
	<circle cx="84.2878" cy="268.058" r="4" fill="#0" id="circle26"/>
	<circle cx="89.6403" cy="655.223" r="4" fill="#0" id="circle27"/>
	<circle cx="102.129" cy="196.691" r="4" fill="#0" id="circle28"/>
	<circle cx="102.129" cy="214.532" r="4" fill="#0" id="circle29"/>
	<circle cx="107.482" cy="657.007" r="4" fill="#0" id="circle30"/>
	<circle cx="111.05" cy="169.928" r="4" fill="#0" id="circle31"/>
	<circle cx="116.403" cy="673.065" r="4" fill="#0" id="circle32"/>
	<circle cx="119.971" cy="143.165" r="4" fill="#0" id="circle33"/>
	<circle cx="134.245" cy="674.849" r="4" fill="#0" id="circle34"/>
	<circle cx="137.813" cy="137.813" r="4" fill="#0" id="circle35"/>
	<circle cx="152.086" cy="681.986" r="4" fill="#0" id="circle36"/>
	<circle cx="153.871" cy="128.892" r="4" fill="#0" id="circle37"/>
	<circle cx="164.576" cy="696.259" r="4" fill="#0" id="circle38"/>
	<circle cx="169.928" cy="119.971" r="4" fill="#0" id="circle39"/>
	<circle cx="175.281" cy="710.532" r="4" fill="#0" id="circle40"/>
	<circle cx="182.417" cy="98.5612" r="4" fill="#0" id="circle41"/>
	<circle cx="185.986" cy="724.806" r="4" fill="#0" id="circle42"/>
	<circle cx="200.259" cy="89.6403" r="4" fill="#0" id="circle43"/>
	<circle cx="200.259" cy="737.295" r="4" fill="#0" id="circle44"/>
	<circle cx="216.317" cy="746.216" r="4" fill="#0" id="circle45"/>
	<circle cx="218.101" cy="84.2878" r="4" fill="#0" id="circle46"/>
	<circle cx="228.806" cy="760.489" r="4" fill="#0" id="circle47"/>
	<circle cx="235.942" cy="84.2878" r="4" fill="#0" id="circle48"/>
	<circle cx="246.647" cy="764.058" r="4" fill="#0" id="circle49"/>
	<circle cx="253.784" cy="84.2878" r="4" fill="#0" id="circle50"/>
	<circle cx="264.489" cy="764.058" r="4" fill="#0" id="circle51"/>
	<circle cx="271.626" cy="84.2878" r="4" fill="#0" id="circle52"/>
	<circle cx="282.331" cy="764.058" r="4" fill="#0" id="circle53"/>
	<circle cx="289.468" cy="84.2878" r="4" fill="#0" id="circle54"/>
	<circle cx="298.388" cy="803.309" r="4" fill="#0" id="circle55"/>
	<circle cx="298.388" cy="821.151" r="4" fill="#0" id="circle56"/>
	<circle cx="298.388" cy="838.993" r="4" fill="#0" id="circle57"/>
	<circle cx="298.388" cy="856.835" r="4" fill="#0" id="circle58"/>
	<circle cx="298.388" cy="874.676" r="4" fill="#0" id="circle59"/>
	<circle cx="298.388" cy="901.439" r="4" fill="#0" id="circle60"/>
	<circle cx="298.388" cy="919.281" r="4" fill="#0" id="circle61"/>
	<circle cx="298.388" cy="937.122" r="4" fill="#0" id="circle62"/>
	<circle cx="300.173" cy="764.058" r="4" fill="#0" id="circle63"/>
	<circle cx="305.525" cy="93.2086" r="4" fill="#0" id="circle64"/>
	<circle cx="307.309" cy="785.468" r="4" fill="#0" id="circle65"/>
	<circle cx="307.309" cy="953.18" r="4" fill="#0" id="circle66"/>
	<circle cx="307.309" cy="971.022" r="4" fill="#0" id="circle67"/>
	<circle cx="316.23" cy="987.079" r="4" fill="#0" id="circle68"/>
	<circle cx="318.014" cy="764.058" r="4" fill="#0" id="circle69"/>
	<circle cx="321.583" cy="84.2878" r="4" fill="#0" id="circle70"/>
	<circle cx="332.288" cy="996" r="4" fill="#0" id="circle71"/>
	<circle cx="335.856" cy="764.058" r="4" fill="#0" id="circle72"/>
	<circle cx="339.424" cy="84.2878" r="4" fill="#0" id="circle73"/>
	<circle cx="342.993" cy="62.8777" r="4" fill="#0" id="circle74"/>
	<circle cx="350.129" cy="996" r="4" fill="#0" id="circle75"/>
	<circle cx="357.266" cy="48.6043" r="4" fill="#0" id="circle76"/>
	<circle cx="362.619" cy="978.158" r="4" fill="#0" id="circle77"/>
	<circle cx="375.108" cy="48.6043" r="4" fill="#0" id="circle78"/>
	<circle cx="380.46" cy="969.237" r="4" fill="#0" id="circle79"/>
	<circle cx="392.95" cy="39.6835" r="4" fill="#0" id="circle80"/>
	<circle cx="394.734" cy="956.748" r="4" fill="#0" id="circle81"/>
	<circle cx="405.439" cy="942.475" r="4" fill="#0" id="circle82"/>
	<circle cx="410.791" cy="39.6835" r="4" fill="#0" id="circle83"/>
	<circle cx="416.144" cy="897.871" r="4" fill="#0" id="circle84"/>
	<circle cx="416.144" cy="915.712" r="4" fill="#0" id="circle85"/>
	<circle cx="428.633" cy="39.6835" r="4" fill="#0" id="circle86"/>
	<circle cx="430.417" cy="885.381" r="4" fill="#0" id="circle87"/>
	<circle cx="444.691" cy="48.6043" r="4" fill="#0" id="circle88"/>
	<circle cx="448.259" cy="880.029" r="4" fill="#0" id="circle89"/>
	<circle cx="460.748" cy="808.662" r="4" fill="#0" id="circle90"/>
	<circle cx="460.748" cy="826.504" r="4" fill="#0" id="circle91"/>
	<circle cx="460.748" cy="844.345" r="4" fill="#0" id="circle92"/>
	<circle cx="460.748" cy="862.187" r="4" fill="#0" id="circle93"/>
	<circle cx="462.532" cy="48.6043" r="4" fill="#0" id="circle94"/>
	<circle cx="478.59" cy="57.5252" r="4" fill="#0" id="circle95"/>
	<circle cx="478.59" cy="808.662" r="4" fill="#0" id="circle96"/>
	<circle cx="496.432" cy="62.8777" r="4" fill="#0" id="circle97"/>
	<circle cx="496.432" cy="808.662" r="4" fill="#0" id="circle98"/>
	<circle cx="508.921" cy="48.6043" r="4" fill="#0" id="circle99"/>
	<circle cx="512.489" cy="27.1942" r="4" fill="#0" id="circle100"/>
	<circle cx="512.489" cy="799.741" r="4" fill="#0" id="circle101"/>
	<circle cx="530.331" cy="21.8417" r="4" fill="#0" id="circle102"/>
	<circle cx="530.331" cy="799.741" r="4" fill="#0" id="circle103"/>
	<circle cx="548.173" cy="9.35252" r="4" fill="#0" id="circle104"/>
	<circle cx="548.173" cy="794.388" r="4" fill="#0" id="circle105"/>
	<circle cx="562.446" cy="781.899" r="4" fill="#0" id="circle106"/>
	<circle cx="566.014" cy="4" r="4" fill="#0" id="circle107"/>
	<circle cx="578.504" cy="772.978" r="4" fill="#0" id="circle108"/>
	<circle cx="583.856" cy="4" r="4" fill="#0" id="circle109"/>
	<circle cx="592.777" cy="758.705" r="4" fill="#0" id="circle110"/>
	<circle cx="594.561" cy="18.2734" r="4" fill="#0" id="circle111"/>
	<circle cx="594.561" cy="737.295" r="4" fill="#0" id="circle112"/>
	<circle cx="612.403" cy="21.8417" r="4" fill="#0" id="circle113"/>
	<circle cx="612.403" cy="728.374" r="4" fill="#0" id="circle114"/>
	<circle cx="621.324" cy="37.8993" r="4" fill="#0" id="circle115"/>
	<circle cx="621.324" cy="692.691" r="4" fill="#0" id="circle116"/>
	<circle cx="621.324" cy="710.532" r="4" fill="#0" id="circle117"/>
	<circle cx="639.165" cy="39.6835" r="4" fill="#0" id="circle118"/>
	<circle cx="639.165" cy="692.691" r="4" fill="#0" id="circle119"/>
	<circle cx="655.223" cy="701.612" r="4" fill="#0" id="circle120"/>
	<circle cx="657.007" cy="45.036" r="4" fill="#0" id="circle121"/>
	<circle cx="671.281" cy="710.532" r="4" fill="#0" id="circle122"/>
	<circle cx="674.849" cy="39.6835" r="4" fill="#0" id="circle123"/>
	<circle cx="678.417" cy="728.374" r="4" fill="#0" id="circle124"/>
	<circle cx="690.906" cy="27.1942" r="4" fill="#0" id="circle125"/>
	<circle cx="696.259" cy="728.374" r="4" fill="#0" id="circle126"/>
	<circle cx="708.748" cy="9.35252" r="4" fill="#0" id="circle127"/>
	<circle cx="710.532" cy="710.532" r="4" fill="#0" id="circle128"/>
	<circle cx="726.59" cy="4" r="4" fill="#0" id="circle129"/>
	<circle cx="728.374" cy="710.532" r="4" fill="#0" id="circle130"/>
	<circle cx="744.432" cy="4" r="4" fill="#0" id="circle131"/>
	<circle cx="746.216" cy="710.532" r="4" fill="#0" id="circle132"/>
	<circle cx="755.137" cy="18.2734" r="4" fill="#0" id="circle133"/>
	<circle cx="755.137" cy="692.691" r="4" fill="#0" id="circle134"/>
	<circle cx="772.978" cy="21.8417" r="4" fill="#0" id="circle135"/>
	<circle cx="772.978" cy="683.77" r="4" fill="#0" id="circle136"/>
	<circle cx="787.252" cy="671.281" r="4" fill="#0" id="circle137"/>
	<circle cx="790.82" cy="27.1942" r="4" fill="#0" id="circle138"/>
	<circle cx="790.82" cy="648.086" r="4" fill="#0" id="circle139"/>
	<circle cx="803.309" cy="41.4676" r="4" fill="#0" id="circle140"/>
	<circle cx="808.662" cy="594.561" r="4" fill="#0" id="circle141"/>
	<circle cx="808.662" cy="612.403" r="4" fill="#0" id="circle142"/>
	<circle cx="808.662" cy="630.245" r="4" fill="#0" id="circle143"/>
	<circle cx="812.23" cy="57.5252" r="4" fill="#0" id="circle144"/>
	<circle cx="817.583" cy="75.3669" r="4" fill="#0" id="circle145"/>
	<circle cx="817.583" cy="567.799" r="4" fill="#0" id="circle146"/>
	<circle cx="826.504" cy="91.4245" r="4" fill="#0" id="circle147"/>
	<circle cx="826.504" cy="109.266" r="4" fill="#0" id="circle148"/>
	<circle cx="833.64" cy="558.878" r="4" fill="#0" id="circle149"/>
	<circle cx="840.777" cy="119.971" r="4" fill="#0" id="circle150"/>
	<circle cx="851.482" cy="558.878" r="4" fill="#0" id="circle151"/>
	<circle cx="858.619" cy="121.755" r="4" fill="#0" id="circle152"/>
	<circle cx="869.324" cy="553.525" r="4" fill="#0" id="circle153"/>
	<circle cx="876.46" cy="128.892" r="4" fill="#0" id="circle154"/>
	<circle cx="883.597" cy="539.252" r="4" fill="#0" id="circle155"/>
	<circle cx="892.518" cy="137.813" r="4" fill="#0" id="circle156"/>
	<circle cx="897.871" cy="155.655" r="4" fill="#0" id="circle157"/>
	<circle cx="897.871" cy="523.194" r="4" fill="#0" id="circle158"/>
	<circle cx="906.791" cy="171.712" r="4" fill="#0" id="circle159"/>
	<circle cx="906.791" cy="189.554" r="4" fill="#0" id="circle160"/>
	<circle cx="906.791" cy="207.396" r="4" fill="#0" id="circle161"/>
	<circle cx="906.791" cy="291.252" r="4" fill="#0" id="circle162"/>
	<circle cx="906.791" cy="309.094" r="4" fill="#0" id="circle163"/>
	<circle cx="906.791" cy="496.432" r="4" fill="#0" id="circle164"/>
	<circle cx="915.712" cy="325.151" r="4" fill="#0" id="circle165"/>
	<circle cx="921.065" cy="219.885" r="4" fill="#0" id="circle166"/>
	<circle cx="924.633" cy="237.727" r="4" fill="#0" id="circle167"/>
	<circle cx="924.633" cy="255.568" r="4" fill="#0" id="circle168"/>
	<circle cx="924.633" cy="273.41" r="4" fill="#0" id="circle169"/>
	<circle cx="924.633" cy="341.209" r="4" fill="#0" id="circle170"/>
	<circle cx="924.633" cy="478.59" r="4" fill="#0" id="circle171"/>
	<circle cx="942.475" cy="348.345" r="4" fill="#0" id="circle172"/>
	<circle cx="942.475" cy="366.187" r="4" fill="#0" id="circle173"/>
	<circle cx="942.475" cy="442.906" r="4" fill="#0" id="circle174"/>
	<circle cx="942.475" cy="460.748" r="4" fill="#0" id="circle175"/>
	<circle cx="949.612" cy="384.029" r="4" fill="#0" id="circle176"/>
	<circle cx="951.396" cy="401.871" r="4" fill="#0" id="circle177"/>
	<circle cx="951.396" cy="419.712" r="4" fill="#0" id="circle178"/>
	</g>
</svg>