<?xml version="1.0" encoding="UTF-8" standalone="no"?>
<!-- Created with CurveBenchmark -->
<svg
	xmlns:dc="http://purl.org/dc/elements/1.1/"
	xmlns:cc="http://creativecommons.org/ns#"
	xmlns:rdf="http://www.w3.org/1999/02/22-rdf-syntax-ns#"
	xmlns:svg="http://www.w3.org/2000/svg"
	xmlns="http://www.w3.org/2000/svg"
	xmlns:sodipodi="http://sodipodi.sourceforge.net/DTD/sodipodi-0.dtd"
	xmlns:inkscape="http://www.inkscape.org/namespaces/inkscape"
	width="1000"
	height="1000"
	id="svg2"
	version="1.1"
	sodipodi:docname="manifold/fitconnect-guitar105.png.txt">
<defs
	id="defs4" />
<metadata
	id="metadata7">
	<rdf:RDF>
		<cc:Work
			rdf:about="">
			<dc:format>image/svg+xml</dc:format>
			<dc:type
				rdf:resource="http://purl.org/dc/dcmitype/StillImage" />
			<dc:title></dc:title>
		</cc:Work>
	</rdf:RDF>
</metadata>
<g
	inkscape:label="Layer 1"
	inkscape:groupmode="layer"
	id="layer1">
	<path style="fill:none;stroke:red;stroke-width:1px;stroke-linecap:butt;stroke-linejoin:miter;stroke-opacity:1" d="M 21.6512,964.228 191.103,928.925 z" id="boundary" inkscape:connector-curvature="0" />
	<path style="fill:none;stroke:red;stroke-width:1px;stroke-linecap:butt;stroke-linejoin:miter;stroke-opacity:1" d="M 134.619,46.363 191.103,928.925 z" id="boundary" inkscape:connector-curvature="0" />
	<circle cx="4" cy="787.715" r="4" fill="#0" id="circle0"/>
	<circle cx="4" cy="823.018" r="4" fill="#0" id="circle1"/>
	<circle cx="4" cy="858.32" r="4" fill="#0" id="circle2"/>
	<circle cx="4" cy="893.623" r="4" fill="#0" id="circle3"/>
	<circle cx="11.0605" cy="738.292" r="4" fill="#0" id="circle4"/>
	<circle cx="11.0605" cy="928.925" r="4" fill="#0" id="circle5"/>
	<circle cx="18.121" cy="547.658" r="4" fill="#0" id="circle6"/>
	<circle cx="18.121" cy="582.961" r="4" fill="#0" id="circle7"/>
	<circle cx="18.121" cy="618.263" r="4" fill="#0" id="circle8"/>
	<circle cx="18.121" cy="653.566" r="4" fill="#0" id="circle9"/>
	<circle cx="18.121" cy="688.868" r="4" fill="#0" id="circle10"/>
	<circle cx="21.6512" cy="964.228" r="4" fill="#0" id="circle11"/>
	<circle cx="39.3025" cy="996" r="4" fill="#0" id="circle12"/>
	<circle cx="46.363" cy="498.235" r="4" fill="#0" id="circle13"/>
	<circle cx="74.605" cy="996" r="4" fill="#0" id="circle14"/>
	<circle cx="81.6655" cy="484.114" r="4" fill="#0" id="circle15"/>
	<circle cx="88.726" cy="32.242" r="4" fill="#0" id="circle16"/>
	<circle cx="95.7865" cy="74.605" r="4" fill="#0" id="circle17"/>
	<circle cx="109.907" cy="4" r="4" fill="#0" id="circle18"/>
	<circle cx="109.907" cy="996" r="4" fill="#0" id="circle19"/>
	<circle cx="113.438" cy="106.377" r="4" fill="#0" id="circle20"/>
	<circle cx="116.968" cy="469.993" r="4" fill="#0" id="circle21"/>
	<circle cx="124.028" cy="420.569" r="4" fill="#0" id="circle22"/>
	<circle cx="131.089" cy="138.149" r="4" fill="#0" id="circle23"/>
	<circle cx="131.089" cy="173.452" r="4" fill="#0" id="circle24"/>
	<circle cx="131.089" cy="208.754" r="4" fill="#0" id="circle25"/>
	<circle cx="131.089" cy="244.057" r="4" fill="#0" id="circle26"/>
	<circle cx="131.089" cy="279.359" r="4" fill="#0" id="circle27"/>
	<circle cx="131.089" cy="314.662" r="4" fill="#0" id="circle28"/>
	<circle cx="131.089" cy="349.964" r="4" fill="#0" id="circle29"/>
	<circle cx="131.089" cy="385.267" r="4" fill="#0" id="circle30"/>
	<circle cx="134.619" cy="46.363" r="4" fill="#0" id="circle31"/>
	<circle cx="145.21" cy="996" r="4" fill="#0" id="circle32"/>
	<circle cx="148.74" cy="81.6655" r="4" fill="#0" id="circle33"/>
	<circle cx="162.861" cy="155.801" r="4" fill="#0" id="circle34"/>
	<circle cx="162.861" cy="191.103" r="4" fill="#0" id="circle35"/>
	<circle cx="162.861" cy="226.406" r="4" fill="#0" id="circle36"/>
	<circle cx="162.861" cy="261.708" r="4" fill="#0" id="circle37"/>
	<circle cx="162.861" cy="297.011" r="4" fill="#0" id="circle38"/>
	<circle cx="162.861" cy="332.313" r="4" fill="#0" id="circle39"/>
	<circle cx="162.861" cy="367.616" r="4" fill="#0" id="circle40"/>
	<circle cx="169.922" cy="402.918" r="4" fill="#0" id="circle41"/>
	<circle cx="169.922" cy="438.221" r="4" fill="#0" id="circle42"/>
	<circle cx="169.922" cy="473.523" r="4" fill="#0" id="circle43"/>
	<circle cx="169.922" cy="508.826" r="4" fill="#0" id="circle44"/>
	<circle cx="176.982" cy="978.349" r="4" fill="#0" id="circle45"/>
	<circle cx="184.043" cy="544.128" r="4" fill="#0" id="circle46"/>
	<circle cx="184.043" cy="618.263" r="4" fill="#0" id="circle47"/>
	<circle cx="184.043" cy="653.566" r="4" fill="#0" id="circle48"/>
	<circle cx="184.043" cy="688.868" r="4" fill="#0" id="circle49"/>
	<circle cx="187.573" cy="724.171" r="4" fill="#0" id="circle50"/>
	<circle cx="191.103" cy="579.431" r="4" fill="#0" id="circle51"/>
	<circle cx="191.103" cy="928.925" r="4" fill="#0" id="circle52"/>
	<circle cx="194.633" cy="759.473" r="4" fill="#0" id="circle53"/>
	<circle cx="198.164" cy="794.776" r="4" fill="#0" id="circle54"/>
	<circle cx="198.164" cy="830.078" r="4" fill="#0" id="circle55"/>
	<circle cx="198.164" cy="865.381" r="4" fill="#0" id="circle56"/>
	</g>
</svg>