<?xml version="1.0" encoding="UTF-8" standalone="no"?>
<!-- Created with CurveBenchmark -->
<svg
	xmlns:dc="http://purl.org/dc/elements/1.1/"
	xmlns:cc="http://creativecommons.org/ns#"
	xmlns:rdf="http://www.w3.org/1999/02/22-rdf-syntax-ns#"
	xmlns:svg="http://www.w3.org/2000/svg"
	xmlns="http://www.w3.org/2000/svg"
	xmlns:sodipodi="http://sodipodi.sourceforge.net/DTD/sodipodi-0.dtd"
	xmlns:inkscape="http://www.inkscape.org/namespaces/inkscape"
	width="1000"
	height="1000"
	id="svg2"
	version="1.1"
	sodipodi:docname="manifold/fitconnect-cat11.png.txt">
<defs
	id="defs4" />
<metadata
	id="metadata7">
	<rdf:RDF>
		<cc:Work
			rdf:about="">
			<dc:format>image/svg+xml</dc:format>
			<dc:type
				rdf:resource="http://purl.org/dc/dcmitype/StillImage" />
			<dc:title></dc:title>
		</cc:Work>
	</rdf:RDF>
</metadata>
<g
	inkscape:label="Layer 1"
	inkscape:groupmode="layer"
	id="layer1">
	<path style="fill:none;stroke:red;stroke-width:1px;stroke-linecap:butt;stroke-linejoin:miter;stroke-opacity:1" d="M 4,173.178 4,192.403 z" id="boundary" inkscape:connector-curvature="0" />
	<path style="fill:none;stroke:red;stroke-width:1px;stroke-linecap:butt;stroke-linejoin:miter;stroke-opacity:1" d="M 4,173.178 13.6124,153.953 z" id="boundary" inkscape:connector-curvature="0" />
	<path style="fill:none;stroke:red;stroke-width:1px;stroke-linecap:butt;stroke-linejoin:miter;stroke-opacity:1" d="M 4,192.403 4,211.628 z" id="boundary" inkscape:connector-curvature="0" />
	<path style="fill:none;stroke:red;stroke-width:1px;stroke-linecap:butt;stroke-linejoin:miter;stroke-opacity:1" d="M 4,211.628 4,230.853 z" id="boundary" inkscape:connector-curvature="0" />
	<path style="fill:none;stroke:red;stroke-width:1px;stroke-linecap:butt;stroke-linejoin:miter;stroke-opacity:1" d="M 4,230.853 4,250.078 z" id="boundary" inkscape:connector-curvature="0" />
	<path style="fill:none;stroke:red;stroke-width:1px;stroke-linecap:butt;stroke-linejoin:miter;stroke-opacity:1" d="M 4,250.078 13.6124,267.38 z" id="boundary" inkscape:connector-curvature="0" />
	<path style="fill:none;stroke:red;stroke-width:1px;stroke-linecap:butt;stroke-linejoin:miter;stroke-opacity:1" d="M 13.6124,134.729 13.6124,153.953 z" id="boundary" inkscape:connector-curvature="0" />
	<path style="fill:none;stroke:red;stroke-width:1px;stroke-linecap:butt;stroke-linejoin:miter;stroke-opacity:1" d="M 13.6124,134.729 23.2248,105.891 z" id="boundary" inkscape:connector-curvature="0" />
	<path style="fill:none;stroke:red;stroke-width:1px;stroke-linecap:butt;stroke-linejoin:miter;stroke-opacity:1" d="M 13.6124,267.38 23.2248,284.682 z" id="boundary" inkscape:connector-curvature="0" />
	<path style="fill:none;stroke:red;stroke-width:1px;stroke-linecap:butt;stroke-linejoin:miter;stroke-opacity:1" d="M 23.2248,67.4419 23.2248,86.6667 z" id="boundary" inkscape:connector-curvature="0" />
	<path style="fill:none;stroke:red;stroke-width:1px;stroke-linecap:butt;stroke-linejoin:miter;stroke-opacity:1" d="M 23.2248,67.4419 38.6047,52.062 z" id="boundary" inkscape:connector-curvature="0" />
	<path style="fill:none;stroke:red;stroke-width:1px;stroke-linecap:butt;stroke-linejoin:miter;stroke-opacity:1" d="M 23.2248,86.6667 23.2248,105.891 z" id="boundary" inkscape:connector-curvature="0" />
	<path style="fill:none;stroke:red;stroke-width:1px;stroke-linecap:butt;stroke-linejoin:miter;stroke-opacity:1" d="M 23.2248,284.682 23.2248,303.907 z" id="boundary" inkscape:connector-curvature="0" />
	<path style="fill:none;stroke:red;stroke-width:1px;stroke-linecap:butt;stroke-linejoin:miter;stroke-opacity:1" d="M 23.2248,303.907 32.8372,321.209 z" id="boundary" inkscape:connector-curvature="0" />
	<path style="fill:none;stroke:red;stroke-width:1px;stroke-linecap:butt;stroke-linejoin:miter;stroke-opacity:1" d="M 32.8372,321.209 42.4496,338.512 z" id="boundary" inkscape:connector-curvature="0" />
	<path style="fill:none;stroke:red;stroke-width:1px;stroke-linecap:butt;stroke-linejoin:miter;stroke-opacity:1" d="M 38.6047,52.062 57.8295,52.062 z" id="boundary" inkscape:connector-curvature="0" />
	<path style="fill:none;stroke:red;stroke-width:1px;stroke-linecap:butt;stroke-linejoin:miter;stroke-opacity:1" d="M 42.4496,338.512 42.4496,357.736 z" id="boundary" inkscape:connector-curvature="0" />
	<path style="fill:none;stroke:red;stroke-width:1px;stroke-linecap:butt;stroke-linejoin:miter;stroke-opacity:1" d="M 42.4496,357.736 42.4496,384.651 z" id="boundary" inkscape:connector-curvature="0" />
	<path style="fill:none;stroke:red;stroke-width:1px;stroke-linecap:butt;stroke-linejoin:miter;stroke-opacity:1" d="M 42.4496,384.651 42.4496,403.876 z" id="boundary" inkscape:connector-curvature="0" />
	<path style="fill:none;stroke:red;stroke-width:1px;stroke-linecap:butt;stroke-linejoin:miter;stroke-opacity:1" d="M 42.4496,403.876 42.4496,423.101 z" id="boundary" inkscape:connector-curvature="0" />
	<path style="fill:none;stroke:red;stroke-width:1px;stroke-linecap:butt;stroke-linejoin:miter;stroke-opacity:1" d="M 42.4496,423.101 52.062,440.403 z" id="boundary" inkscape:connector-curvature="0" />
	<path style="fill:none;stroke:red;stroke-width:1px;stroke-linecap:butt;stroke-linejoin:miter;stroke-opacity:1" d="M 52.062,440.403 52.062,459.628 z" id="boundary" inkscape:connector-curvature="0" />
	<path style="fill:none;stroke:red;stroke-width:1px;stroke-linecap:butt;stroke-linejoin:miter;stroke-opacity:1" d="M 52.062,459.628 52.062,478.853 z" id="boundary" inkscape:connector-curvature="0" />
	<path style="fill:none;stroke:red;stroke-width:1px;stroke-linecap:butt;stroke-linejoin:miter;stroke-opacity:1" d="M 52.062,478.853 52.062,498.078 z" id="boundary" inkscape:connector-curvature="0" />
	<path style="fill:none;stroke:red;stroke-width:1px;stroke-linecap:butt;stroke-linejoin:miter;stroke-opacity:1" d="M 52.062,498.078 61.6744,515.38 z" id="boundary" inkscape:connector-curvature="0" />
	<path style="fill:none;stroke:red;stroke-width:1px;stroke-linecap:butt;stroke-linejoin:miter;stroke-opacity:1" d="M 52.062,846.047 52.062,865.271 z" id="boundary" inkscape:connector-curvature="0" />
	<path style="fill:none;stroke:red;stroke-width:1px;stroke-linecap:butt;stroke-linejoin:miter;stroke-opacity:1" d="M 52.062,846.047 71.2868,836.434 z" id="boundary" inkscape:connector-curvature="0" />
	<path style="fill:none;stroke:red;stroke-width:1px;stroke-linecap:butt;stroke-linejoin:miter;stroke-opacity:1" d="M 52.062,865.271 63.5969,880.651 z" id="boundary" inkscape:connector-curvature="0" />
	<path style="fill:none;stroke:red;stroke-width:1px;stroke-linecap:butt;stroke-linejoin:miter;stroke-opacity:1" d="M 57.8295,52.062 73.2093,63.5969 z" id="boundary" inkscape:connector-curvature="0" />
	<path style="fill:none;stroke:red;stroke-width:1px;stroke-linecap:butt;stroke-linejoin:miter;stroke-opacity:1" d="M 61.6744,515.38 71.2868,532.682 z" id="boundary" inkscape:connector-curvature="0" />
	<path style="fill:none;stroke:red;stroke-width:1px;stroke-linecap:butt;stroke-linejoin:miter;stroke-opacity:1" d="M 63.5969,880.651 82.8217,880.651 z" id="boundary" inkscape:connector-curvature="0" />
	<path style="fill:none;stroke:red;stroke-width:1px;stroke-linecap:butt;stroke-linejoin:miter;stroke-opacity:1" d="M 71.2868,532.682 82.8217,548.062 z" id="boundary" inkscape:connector-curvature="0" />
	<path style="fill:none;stroke:red;stroke-width:1px;stroke-linecap:butt;stroke-linejoin:miter;stroke-opacity:1" d="M 71.2868,836.434 86.6667,821.054 z" id="boundary" inkscape:connector-curvature="0" />
	<path style="fill:none;stroke:red;stroke-width:1px;stroke-linecap:butt;stroke-linejoin:miter;stroke-opacity:1" d="M 73.2093,63.5969 88.5891,75.1318 z" id="boundary" inkscape:connector-curvature="0" />
	<path style="fill:none;stroke:red;stroke-width:1px;stroke-linecap:butt;stroke-linejoin:miter;stroke-opacity:1" d="M 82.8217,548.062 90.5116,567.287 z" id="boundary" inkscape:connector-curvature="0" />
	<path style="fill:none;stroke:red;stroke-width:1px;stroke-linecap:butt;stroke-linejoin:miter;stroke-opacity:1" d="M 82.8217,880.651 102.047,880.651 z" id="boundary" inkscape:connector-curvature="0" />
	<path style="fill:none;stroke:red;stroke-width:1px;stroke-linecap:butt;stroke-linejoin:miter;stroke-opacity:1" d="M 86.6667,821.054 90.5116,797.984 z" id="boundary" inkscape:connector-curvature="0" />
	<path style="fill:none;stroke:red;stroke-width:1px;stroke-linecap:butt;stroke-linejoin:miter;stroke-opacity:1" d="M 88.5891,75.1318 98.2016,92.4341 z" id="boundary" inkscape:connector-curvature="0" />
	<path style="fill:none;stroke:red;stroke-width:1px;stroke-linecap:butt;stroke-linejoin:miter;stroke-opacity:1" d="M 90.5116,567.287 100.124,584.589 z" id="boundary" inkscape:connector-curvature="0" />
	<path style="fill:none;stroke:red;stroke-width:1px;stroke-linecap:butt;stroke-linejoin:miter;stroke-opacity:1" d="M 90.5116,778.76 90.5116,797.984 z" id="boundary" inkscape:connector-curvature="0" />
	<path style="fill:none;stroke:red;stroke-width:1px;stroke-linecap:butt;stroke-linejoin:miter;stroke-opacity:1" d="M 90.5116,778.76 100.124,749.922 z" id="boundary" inkscape:connector-curvature="0" />
	<path style="fill:none;stroke:red;stroke-width:1px;stroke-linecap:butt;stroke-linejoin:miter;stroke-opacity:1" d="M 98.2016,92.4341 111.659,107.814 z" id="boundary" inkscape:connector-curvature="0" />
	<path style="fill:none;stroke:red;stroke-width:1px;stroke-linecap:butt;stroke-linejoin:miter;stroke-opacity:1" d="M 100.124,584.589 100.124,603.814 z" id="boundary" inkscape:connector-curvature="0" />
	<path style="fill:none;stroke:red;stroke-width:1px;stroke-linecap:butt;stroke-linejoin:miter;stroke-opacity:1" d="M 100.124,603.814 100.124,623.039 z" id="boundary" inkscape:connector-curvature="0" />
	<path style="fill:none;stroke:red;stroke-width:1px;stroke-linecap:butt;stroke-linejoin:miter;stroke-opacity:1" d="M 100.124,623.039 109.736,640.341 z" id="boundary" inkscape:connector-curvature="0" />
	<path style="fill:none;stroke:red;stroke-width:1px;stroke-linecap:butt;stroke-linejoin:miter;stroke-opacity:1" d="M 100.124,692.248 100.124,711.473 z" id="boundary" inkscape:connector-curvature="0" />
	<path style="fill:none;stroke:red;stroke-width:1px;stroke-linecap:butt;stroke-linejoin:miter;stroke-opacity:1" d="M 100.124,692.248 109.736,659.566 z" id="boundary" inkscape:connector-curvature="0" />
	<path style="fill:none;stroke:red;stroke-width:1px;stroke-linecap:butt;stroke-linejoin:miter;stroke-opacity:1" d="M 100.124,711.473 100.124,730.698 z" id="boundary" inkscape:connector-curvature="0" />
	<path style="fill:none;stroke:red;stroke-width:1px;stroke-linecap:butt;stroke-linejoin:miter;stroke-opacity:1" d="M 100.124,730.698 100.124,749.922 z" id="boundary" inkscape:connector-curvature="0" />
	<path style="fill:none;stroke:red;stroke-width:1px;stroke-linecap:butt;stroke-linejoin:miter;stroke-opacity:1" d="M 102.047,880.651 119.349,871.039 z" id="boundary" inkscape:connector-curvature="0" />
	<path style="fill:none;stroke:red;stroke-width:1px;stroke-linecap:butt;stroke-linejoin:miter;stroke-opacity:1" d="M 109.736,640.341 109.736,659.566 z" id="boundary" inkscape:connector-curvature="0" />
	<path style="fill:none;stroke:red;stroke-width:1px;stroke-linecap:butt;stroke-linejoin:miter;stroke-opacity:1" d="M 111.659,107.814 130.884,109.736 z" id="boundary" inkscape:connector-curvature="0" />
	<path style="fill:none;stroke:red;stroke-width:1px;stroke-linecap:butt;stroke-linejoin:miter;stroke-opacity:1" d="M 119.349,871.039 134.729,859.504 z" id="boundary" inkscape:connector-curvature="0" />
	<path style="fill:none;stroke:red;stroke-width:1px;stroke-linecap:butt;stroke-linejoin:miter;stroke-opacity:1" d="M 130.884,109.736 150.109,109.736 z" id="boundary" inkscape:connector-curvature="0" />
	<path style="fill:none;stroke:red;stroke-width:1px;stroke-linecap:butt;stroke-linejoin:miter;stroke-opacity:1" d="M 134.729,859.504 150.109,832.589 z" id="boundary" inkscape:connector-curvature="0" />
	<path style="fill:none;stroke:red;stroke-width:1px;stroke-linecap:butt;stroke-linejoin:miter;stroke-opacity:1" d="M 150.109,109.736 169.333,109.736 z" id="boundary" inkscape:connector-curvature="0" />
	<path style="fill:none;stroke:red;stroke-width:1px;stroke-linecap:butt;stroke-linejoin:miter;stroke-opacity:1" d="M 150.109,794.14 150.109,813.364 z" id="boundary" inkscape:connector-curvature="0" />
	<path style="fill:none;stroke:red;stroke-width:1px;stroke-linecap:butt;stroke-linejoin:miter;stroke-opacity:1" d="M 150.109,794.14 159.721,774.915 z" id="boundary" inkscape:connector-curvature="0" />
	<path style="fill:none;stroke:red;stroke-width:1px;stroke-linecap:butt;stroke-linejoin:miter;stroke-opacity:1" d="M 150.109,813.364 150.109,832.589 z" id="boundary" inkscape:connector-curvature="0" />
	<path style="fill:none;stroke:red;stroke-width:1px;stroke-linecap:butt;stroke-linejoin:miter;stroke-opacity:1" d="M 159.721,755.69 159.721,774.915 z" id="boundary" inkscape:connector-curvature="0" />
	<path style="fill:none;stroke:red;stroke-width:1px;stroke-linecap:butt;stroke-linejoin:miter;stroke-opacity:1" d="M 159.721,755.69 169.333,726.853 z" id="boundary" inkscape:connector-curvature="0" />
	<path style="fill:none;stroke:red;stroke-width:1px;stroke-linecap:butt;stroke-linejoin:miter;stroke-opacity:1" d="M 169.333,109.736 188.558,103.969 z" id="boundary" inkscape:connector-curvature="0" />
	<path style="fill:none;stroke:red;stroke-width:1px;stroke-linecap:butt;stroke-linejoin:miter;stroke-opacity:1" d="M 169.333,726.853 178.946,707.628 z" id="boundary" inkscape:connector-curvature="0" />
	<path style="fill:none;stroke:red;stroke-width:1px;stroke-linecap:butt;stroke-linejoin:miter;stroke-opacity:1" d="M 178.946,707.628 188.558,678.791 z" id="boundary" inkscape:connector-curvature="0" />
	<path style="fill:none;stroke:red;stroke-width:1px;stroke-linecap:butt;stroke-linejoin:miter;stroke-opacity:1" d="M 188.558,103.969 203.938,90.5116 z" id="boundary" inkscape:connector-curvature="0" />
	<path style="fill:none;stroke:red;stroke-width:1px;stroke-linecap:butt;stroke-linejoin:miter;stroke-opacity:1" d="M 188.558,678.791 205.86,669.178 z" id="boundary" inkscape:connector-curvature="0" />
	<path style="fill:none;stroke:red;stroke-width:1px;stroke-linecap:butt;stroke-linejoin:miter;stroke-opacity:1" d="M 196.248,865.271 196.248,884.496 z" id="boundary" inkscape:connector-curvature="0" />
	<path style="fill:none;stroke:red;stroke-width:1px;stroke-linecap:butt;stroke-linejoin:miter;stroke-opacity:1" d="M 196.248,865.271 205.86,846.047 z" id="boundary" inkscape:connector-curvature="0" />
	<path style="fill:none;stroke:red;stroke-width:1px;stroke-linecap:butt;stroke-linejoin:miter;stroke-opacity:1" d="M 196.248,884.496 215.473,890.264 z" id="boundary" inkscape:connector-curvature="0" />
	<path style="fill:none;stroke:red;stroke-width:1px;stroke-linecap:butt;stroke-linejoin:miter;stroke-opacity:1" d="M 203.938,90.5116 221.24,80.8992 z" id="boundary" inkscape:connector-curvature="0" />
	<path style="fill:none;stroke:red;stroke-width:1px;stroke-linecap:butt;stroke-linejoin:miter;stroke-opacity:1" d="M 205.86,669.178 223.163,678.791 z" id="boundary" inkscape:connector-curvature="0" />
	<path style="fill:none;stroke:red;stroke-width:1px;stroke-linecap:butt;stroke-linejoin:miter;stroke-opacity:1" d="M 205.86,846.047 221.24,830.667 z" id="boundary" inkscape:connector-curvature="0" />
	<path style="fill:none;stroke:red;stroke-width:1px;stroke-linecap:butt;stroke-linejoin:miter;stroke-opacity:1" d="M 215.473,890.264 234.698,890.264 z" id="boundary" inkscape:connector-curvature="0" />
	<path style="fill:none;stroke:red;stroke-width:1px;stroke-linecap:butt;stroke-linejoin:miter;stroke-opacity:1" d="M 221.24,80.8992 238.543,71.2868 z" id="boundary" inkscape:connector-curvature="0" />
	<path style="fill:none;stroke:red;stroke-width:1px;stroke-linecap:butt;stroke-linejoin:miter;stroke-opacity:1" d="M 221.24,830.667 225.085,794.14 z" id="boundary" inkscape:connector-curvature="0" />
	<path style="fill:none;stroke:red;stroke-width:1px;stroke-linecap:butt;stroke-linejoin:miter;stroke-opacity:1" d="M 223.163,678.791 225.085,698.016 z" id="boundary" inkscape:connector-curvature="0" />
	<path style="fill:none;stroke:red;stroke-width:1px;stroke-linecap:butt;stroke-linejoin:miter;stroke-opacity:1" d="M 225.085,698.016 225.085,717.24 z" id="boundary" inkscape:connector-curvature="0" />
	<path style="fill:none;stroke:red;stroke-width:1px;stroke-linecap:butt;stroke-linejoin:miter;stroke-opacity:1" d="M 225.085,717.24 225.085,736.465 z" id="boundary" inkscape:connector-curvature="0" />
	<path style="fill:none;stroke:red;stroke-width:1px;stroke-linecap:butt;stroke-linejoin:miter;stroke-opacity:1" d="M 225.085,736.465 225.085,755.69 z" id="boundary" inkscape:connector-curvature="0" />
	<path style="fill:none;stroke:red;stroke-width:1px;stroke-linecap:butt;stroke-linejoin:miter;stroke-opacity:1" d="M 225.085,755.69 225.085,774.915 z" id="boundary" inkscape:connector-curvature="0" />
	<path style="fill:none;stroke:red;stroke-width:1px;stroke-linecap:butt;stroke-linejoin:miter;stroke-opacity:1" d="M 225.085,774.915 225.085,794.14 z" id="boundary" inkscape:connector-curvature="0" />
	<path style="fill:none;stroke:red;stroke-width:1px;stroke-linecap:butt;stroke-linejoin:miter;stroke-opacity:1" d="M 234.698,890.264 253.922,884.496 z" id="boundary" inkscape:connector-curvature="0" />
	<path style="fill:none;stroke:red;stroke-width:1px;stroke-linecap:butt;stroke-linejoin:miter;stroke-opacity:1" d="M 238.543,71.2868 255.845,61.6744 z" id="boundary" inkscape:connector-curvature="0" />
	<path style="fill:none;stroke:red;stroke-width:1px;stroke-linecap:butt;stroke-linejoin:miter;stroke-opacity:1" d="M 253.922,884.496 269.302,869.116 z" id="boundary" inkscape:connector-curvature="0" />
	<path style="fill:none;stroke:red;stroke-width:1px;stroke-linecap:butt;stroke-linejoin:miter;stroke-opacity:1" d="M 255.845,61.6744 265.457,78.9767 z" id="boundary" inkscape:connector-curvature="0" />
	<path style="fill:none;stroke:red;stroke-width:1px;stroke-linecap:butt;stroke-linejoin:miter;stroke-opacity:1" d="M 265.457,78.9767 275.07,96.2791 z" id="boundary" inkscape:connector-curvature="0" />
	<path style="fill:none;stroke:red;stroke-width:1px;stroke-linecap:butt;stroke-linejoin:miter;stroke-opacity:1" d="M 269.302,869.116 275.07,842.202 z" id="boundary" inkscape:connector-curvature="0" />
	<path style="fill:none;stroke:red;stroke-width:1px;stroke-linecap:butt;stroke-linejoin:miter;stroke-opacity:1" d="M 275.07,96.2791 275.07,115.504 z" id="boundary" inkscape:connector-curvature="0" />
	<path style="fill:none;stroke:red;stroke-width:1px;stroke-linecap:butt;stroke-linejoin:miter;stroke-opacity:1" d="M 275.07,115.504 275.07,134.729 z" id="boundary" inkscape:connector-curvature="0" />
	<path style="fill:none;stroke:red;stroke-width:1px;stroke-linecap:butt;stroke-linejoin:miter;stroke-opacity:1" d="M 275.07,134.729 275.07,153.953 z" id="boundary" inkscape:connector-curvature="0" />
	<path style="fill:none;stroke:red;stroke-width:1px;stroke-linecap:butt;stroke-linejoin:miter;stroke-opacity:1" d="M 275.07,153.953 275.07,173.178 z" id="boundary" inkscape:connector-curvature="0" />
	<path style="fill:none;stroke:red;stroke-width:1px;stroke-linecap:butt;stroke-linejoin:miter;stroke-opacity:1" d="M 275.07,173.178 275.07,192.403 z" id="boundary" inkscape:connector-curvature="0" />
	<path style="fill:none;stroke:red;stroke-width:1px;stroke-linecap:butt;stroke-linejoin:miter;stroke-opacity:1" d="M 275.07,192.403 275.07,211.628 z" id="boundary" inkscape:connector-curvature="0" />
	<path style="fill:none;stroke:red;stroke-width:1px;stroke-linecap:butt;stroke-linejoin:miter;stroke-opacity:1" d="M 275.07,211.628 284.682,228.93 z" id="boundary" inkscape:connector-curvature="0" />
	<path style="fill:none;stroke:red;stroke-width:1px;stroke-linecap:butt;stroke-linejoin:miter;stroke-opacity:1" d="M 275.07,822.977 275.07,842.202 z" id="boundary" inkscape:connector-curvature="0" />
	<path style="fill:none;stroke:red;stroke-width:1px;stroke-linecap:butt;stroke-linejoin:miter;stroke-opacity:1" d="M 275.07,822.977 284.682,803.752 z" id="boundary" inkscape:connector-curvature="0" />
	<path style="fill:none;stroke:red;stroke-width:1px;stroke-linecap:butt;stroke-linejoin:miter;stroke-opacity:1" d="M 284.682,228.93 296.217,244.31 z" id="boundary" inkscape:connector-curvature="0" />
	<path style="fill:none;stroke:red;stroke-width:1px;stroke-linecap:butt;stroke-linejoin:miter;stroke-opacity:1" d="M 284.682,784.527 284.682,803.752 z" id="boundary" inkscape:connector-curvature="0" />
	<path style="fill:none;stroke:red;stroke-width:1px;stroke-linecap:butt;stroke-linejoin:miter;stroke-opacity:1" d="M 284.682,784.527 294.295,755.69 z" id="boundary" inkscape:connector-curvature="0" />
	<path style="fill:none;stroke:red;stroke-width:1px;stroke-linecap:butt;stroke-linejoin:miter;stroke-opacity:1" d="M 294.295,755.69 303.907,736.465 z" id="boundary" inkscape:connector-curvature="0" />
	<path style="fill:none;stroke:red;stroke-width:1px;stroke-linecap:butt;stroke-linejoin:miter;stroke-opacity:1" d="M 296.217,244.31 313.519,234.698 z" id="boundary" inkscape:connector-curvature="0" />
	<path style="fill:none;stroke:red;stroke-width:1px;stroke-linecap:butt;stroke-linejoin:miter;stroke-opacity:1" d="M 303.907,736.465 313.519,707.628 z" id="boundary" inkscape:connector-curvature="0" />
	<path style="fill:none;stroke:red;stroke-width:1px;stroke-linecap:butt;stroke-linejoin:miter;stroke-opacity:1" d="M 313.519,234.698 330.822,225.085 z" id="boundary" inkscape:connector-curvature="0" />
	<path style="fill:none;stroke:red;stroke-width:1px;stroke-linecap:butt;stroke-linejoin:miter;stroke-opacity:1" d="M 313.519,707.628 323.132,688.403 z" id="boundary" inkscape:connector-curvature="0" />
	<path style="fill:none;stroke:red;stroke-width:1px;stroke-linecap:butt;stroke-linejoin:miter;stroke-opacity:1" d="M 323.132,669.178 323.132,688.403 z" id="boundary" inkscape:connector-curvature="0" />
	<path style="fill:none;stroke:red;stroke-width:1px;stroke-linecap:butt;stroke-linejoin:miter;stroke-opacity:1" d="M 323.132,669.178 332.744,649.953 z" id="boundary" inkscape:connector-curvature="0" />
	<path style="fill:none;stroke:red;stroke-width:1px;stroke-linecap:butt;stroke-linejoin:miter;stroke-opacity:1" d="M 330.822,225.085 350.047,225.085 z" id="boundary" inkscape:connector-curvature="0" />
	<path style="fill:none;stroke:red;stroke-width:1px;stroke-linecap:butt;stroke-linejoin:miter;stroke-opacity:1" d="M 332.744,649.953 348.124,636.496 z" id="boundary" inkscape:connector-curvature="0" />
	<path style="fill:none;stroke:red;stroke-width:1px;stroke-linecap:butt;stroke-linejoin:miter;stroke-opacity:1" d="M 348.124,636.496 361.581,621.116 z" id="boundary" inkscape:connector-curvature="0" />
	<path style="fill:none;stroke:red;stroke-width:1px;stroke-linecap:butt;stroke-linejoin:miter;stroke-opacity:1" d="M 350.047,225.085 369.271,225.085 z" id="boundary" inkscape:connector-curvature="0" />
	<path style="fill:none;stroke:red;stroke-width:1px;stroke-linecap:butt;stroke-linejoin:miter;stroke-opacity:1" d="M 361.581,621.116 380.806,621.116 z" id="boundary" inkscape:connector-curvature="0" />
	<path style="fill:none;stroke:red;stroke-width:1px;stroke-linecap:butt;stroke-linejoin:miter;stroke-opacity:1" d="M 369.271,225.085 388.496,225.085 z" id="boundary" inkscape:connector-curvature="0" />
	<path style="fill:none;stroke:red;stroke-width:1px;stroke-linecap:butt;stroke-linejoin:miter;stroke-opacity:1" d="M 380.806,621.116 400.031,621.116 z" id="boundary" inkscape:connector-curvature="0" />
	<path style="fill:none;stroke:red;stroke-width:1px;stroke-linecap:butt;stroke-linejoin:miter;stroke-opacity:1" d="M 388.496,225.085 407.721,225.085 z" id="boundary" inkscape:connector-curvature="0" />
	<path style="fill:none;stroke:red;stroke-width:1px;stroke-linecap:butt;stroke-linejoin:miter;stroke-opacity:1" d="M 400.031,621.116 419.256,621.116 z" id="boundary" inkscape:connector-curvature="0" />
	<path style="fill:none;stroke:red;stroke-width:1px;stroke-linecap:butt;stroke-linejoin:miter;stroke-opacity:1" d="M 407.721,225.085 426.946,225.085 z" id="boundary" inkscape:connector-curvature="0" />
	<path style="fill:none;stroke:red;stroke-width:1px;stroke-linecap:butt;stroke-linejoin:miter;stroke-opacity:1" d="M 419.256,621.116 438.481,621.116 z" id="boundary" inkscape:connector-curvature="0" />
	<path style="fill:none;stroke:red;stroke-width:1px;stroke-linecap:butt;stroke-linejoin:miter;stroke-opacity:1" d="M 426.946,225.085 446.171,225.085 z" id="boundary" inkscape:connector-curvature="0" />
	<path style="fill:none;stroke:red;stroke-width:1px;stroke-linecap:butt;stroke-linejoin:miter;stroke-opacity:1" d="M 438.481,621.116 457.705,624.961 z" id="boundary" inkscape:connector-curvature="0" />
	<path style="fill:none;stroke:red;stroke-width:1px;stroke-linecap:butt;stroke-linejoin:miter;stroke-opacity:1" d="M 446.171,225.085 465.395,225.085 z" id="boundary" inkscape:connector-curvature="0" />
	<path style="fill:none;stroke:red;stroke-width:1px;stroke-linecap:butt;stroke-linejoin:miter;stroke-opacity:1" d="M 455.783,817.209 455.783,836.434 z" id="boundary" inkscape:connector-curvature="0" />
	<path style="fill:none;stroke:red;stroke-width:1px;stroke-linecap:butt;stroke-linejoin:miter;stroke-opacity:1" d="M 455.783,817.209 475.008,807.597 z" id="boundary" inkscape:connector-curvature="0" />
	<path style="fill:none;stroke:red;stroke-width:1px;stroke-linecap:butt;stroke-linejoin:miter;stroke-opacity:1" d="M 455.783,836.434 475.008,842.202 z" id="boundary" inkscape:connector-curvature="0" />
	<path style="fill:none;stroke:red;stroke-width:1px;stroke-linecap:butt;stroke-linejoin:miter;stroke-opacity:1" d="M 457.705,624.961 471.163,640.341 z" id="boundary" inkscape:connector-curvature="0" />
	<path style="fill:none;stroke:red;stroke-width:1px;stroke-linecap:butt;stroke-linejoin:miter;stroke-opacity:1" d="M 465.395,225.085 484.62,225.085 z" id="boundary" inkscape:connector-curvature="0" />
	<path style="fill:none;stroke:red;stroke-width:1px;stroke-linecap:butt;stroke-linejoin:miter;stroke-opacity:1" d="M 471.163,640.341 490.388,640.341 z" id="boundary" inkscape:connector-curvature="0" />
	<path style="fill:none;stroke:red;stroke-width:1px;stroke-linecap:butt;stroke-linejoin:miter;stroke-opacity:1" d="M 475.008,807.597 494.233,801.829 z" id="boundary" inkscape:connector-curvature="0" />
	<path style="fill:none;stroke:red;stroke-width:1px;stroke-linecap:butt;stroke-linejoin:miter;stroke-opacity:1" d="M 475.008,842.202 494.233,842.202 z" id="boundary" inkscape:connector-curvature="0" />
	<path style="fill:none;stroke:red;stroke-width:1px;stroke-linecap:butt;stroke-linejoin:miter;stroke-opacity:1" d="M 484.62,225.085 503.845,225.085 z" id="boundary" inkscape:connector-curvature="0" />
	<path style="fill:none;stroke:red;stroke-width:1px;stroke-linecap:butt;stroke-linejoin:miter;stroke-opacity:1" d="M 490.388,640.341 509.612,640.341 z" id="boundary" inkscape:connector-curvature="0" />
	<path style="fill:none;stroke:red;stroke-width:1px;stroke-linecap:butt;stroke-linejoin:miter;stroke-opacity:1" d="M 494.233,801.829 511.535,792.217 z" id="boundary" inkscape:connector-curvature="0" />
	<path style="fill:none;stroke:red;stroke-width:1px;stroke-linecap:butt;stroke-linejoin:miter;stroke-opacity:1" d="M 494.233,842.202 513.457,842.202 z" id="boundary" inkscape:connector-curvature="0" />
	<path style="fill:none;stroke:red;stroke-width:1px;stroke-linecap:butt;stroke-linejoin:miter;stroke-opacity:1" d="M 503.845,225.085 523.07,225.085 z" id="boundary" inkscape:connector-curvature="0" />
	<path style="fill:none;stroke:red;stroke-width:1px;stroke-linecap:butt;stroke-linejoin:miter;stroke-opacity:1" d="M 509.612,640.341 513.457,659.566 z" id="boundary" inkscape:connector-curvature="0" />
	<path style="fill:none;stroke:red;stroke-width:1px;stroke-linecap:butt;stroke-linejoin:miter;stroke-opacity:1" d="M 511.535,792.217 528.837,782.605 z" id="boundary" inkscape:connector-curvature="0" />
	<path style="fill:none;stroke:red;stroke-width:1px;stroke-linecap:butt;stroke-linejoin:miter;stroke-opacity:1" d="M 513.457,659.566 523.07,676.868 z" id="boundary" inkscape:connector-curvature="0" />
	<path style="fill:none;stroke:red;stroke-width:1px;stroke-linecap:butt;stroke-linejoin:miter;stroke-opacity:1" d="M 513.457,842.202 532.682,842.202 z" id="boundary" inkscape:connector-curvature="0" />
	<path style="fill:none;stroke:red;stroke-width:1px;stroke-linecap:butt;stroke-linejoin:miter;stroke-opacity:1" d="M 523.07,225.085 542.295,225.085 z" id="boundary" inkscape:connector-curvature="0" />
	<path style="fill:none;stroke:red;stroke-width:1px;stroke-linecap:butt;stroke-linejoin:miter;stroke-opacity:1" d="M 523.07,676.868 534.605,692.248 z" id="boundary" inkscape:connector-curvature="0" />
	<path style="fill:none;stroke:red;stroke-width:1px;stroke-linecap:butt;stroke-linejoin:miter;stroke-opacity:1" d="M 528.837,782.605 544.217,767.225 z" id="boundary" inkscape:connector-curvature="0" />
	<path style="fill:none;stroke:red;stroke-width:1px;stroke-linecap:butt;stroke-linejoin:miter;stroke-opacity:1" d="M 532.682,842.202 549.984,832.589 z" id="boundary" inkscape:connector-curvature="0" />
	<path style="fill:none;stroke:red;stroke-width:1px;stroke-linecap:butt;stroke-linejoin:miter;stroke-opacity:1" d="M 534.605,692.248 542.295,711.473 z" id="boundary" inkscape:connector-curvature="0" />
	<path style="fill:none;stroke:red;stroke-width:1px;stroke-linecap:butt;stroke-linejoin:miter;stroke-opacity:1" d="M 542.295,225.085 561.519,225.085 z" id="boundary" inkscape:connector-curvature="0" />
	<path style="fill:none;stroke:red;stroke-width:1px;stroke-linecap:butt;stroke-linejoin:miter;stroke-opacity:1" d="M 542.295,711.473 551.907,728.775 z" id="boundary" inkscape:connector-curvature="0" />
	<path style="fill:none;stroke:red;stroke-width:1px;stroke-linecap:butt;stroke-linejoin:miter;stroke-opacity:1" d="M 544.217,767.225 551.907,748 z" id="boundary" inkscape:connector-curvature="0" />
	<path style="fill:none;stroke:red;stroke-width:1px;stroke-linecap:butt;stroke-linejoin:miter;stroke-opacity:1" d="M 549.984,832.589 567.287,821.054 z" id="boundary" inkscape:connector-curvature="0" />
	<path style="fill:none;stroke:red;stroke-width:1px;stroke-linecap:butt;stroke-linejoin:miter;stroke-opacity:1" d="M 551.907,728.775 551.907,748 z" id="boundary" inkscape:connector-curvature="0" />
	<path style="fill:none;stroke:red;stroke-width:1px;stroke-linecap:butt;stroke-linejoin:miter;stroke-opacity:1" d="M 561.519,225.085 578.822,234.698 z" id="boundary" inkscape:connector-curvature="0" />
	<path style="fill:none;stroke:red;stroke-width:1px;stroke-linecap:butt;stroke-linejoin:miter;stroke-opacity:1" d="M 567.287,821.054 576.899,801.829 z" id="boundary" inkscape:connector-curvature="0" />
	<path style="fill:none;stroke:red;stroke-width:1px;stroke-linecap:butt;stroke-linejoin:miter;stroke-opacity:1" d="M 576.899,801.829 592.279,784.527 z" id="boundary" inkscape:connector-curvature="0" />
	<path style="fill:none;stroke:red;stroke-width:1px;stroke-linecap:butt;stroke-linejoin:miter;stroke-opacity:1" d="M 578.822,234.698 598.047,234.698 z" id="boundary" inkscape:connector-curvature="0" />
	<path style="fill:none;stroke:red;stroke-width:1px;stroke-linecap:butt;stroke-linejoin:miter;stroke-opacity:1" d="M 592.279,784.527 607.659,771.07 z" id="boundary" inkscape:connector-curvature="0" />
	<path style="fill:none;stroke:red;stroke-width:1px;stroke-linecap:butt;stroke-linejoin:miter;stroke-opacity:1" d="M 598.047,234.698 615.349,244.31 z" id="boundary" inkscape:connector-curvature="0" />
	<path style="fill:none;stroke:red;stroke-width:1px;stroke-linecap:butt;stroke-linejoin:miter;stroke-opacity:1" d="M 607.659,771.07 621.116,755.69 z" id="boundary" inkscape:connector-curvature="0" />
	<path style="fill:none;stroke:red;stroke-width:1px;stroke-linecap:butt;stroke-linejoin:miter;stroke-opacity:1" d="M 615.349,244.31 634.574,244.31 z" id="boundary" inkscape:connector-curvature="0" />
	<path style="fill:none;stroke:red;stroke-width:1px;stroke-linecap:butt;stroke-linejoin:miter;stroke-opacity:1" d="M 621.116,755.69 630.729,736.465 z" id="boundary" inkscape:connector-curvature="0" />
	<path style="fill:none;stroke:red;stroke-width:1px;stroke-linecap:butt;stroke-linejoin:miter;stroke-opacity:1" d="M 630.729,736.465 646.109,723.008 z" id="boundary" inkscape:connector-curvature="0" />
	<path style="fill:none;stroke:red;stroke-width:1px;stroke-linecap:butt;stroke-linejoin:miter;stroke-opacity:1" d="M 634.574,244.31 651.876,253.922 z" id="boundary" inkscape:connector-curvature="0" />
	<path style="fill:none;stroke:red;stroke-width:1px;stroke-linecap:butt;stroke-linejoin:miter;stroke-opacity:1" d="M 646.109,723.008 659.566,707.628 z" id="boundary" inkscape:connector-curvature="0" />
	<path style="fill:none;stroke:red;stroke-width:1px;stroke-linecap:butt;stroke-linejoin:miter;stroke-opacity:1" d="M 651.876,253.922 671.101,253.922 z" id="boundary" inkscape:connector-curvature="0" />
	<path style="fill:none;stroke:red;stroke-width:1px;stroke-linecap:butt;stroke-linejoin:miter;stroke-opacity:1" d="M 659.566,688.403 659.566,707.628 z" id="boundary" inkscape:connector-curvature="0" />
	<path style="fill:none;stroke:red;stroke-width:1px;stroke-linecap:butt;stroke-linejoin:miter;stroke-opacity:1" d="M 659.566,688.403 678.791,692.248 z" id="boundary" inkscape:connector-curvature="0" />
	<path style="fill:none;stroke:red;stroke-width:1px;stroke-linecap:butt;stroke-linejoin:miter;stroke-opacity:1" d="M 667.256,855.659 678.791,871.039 z" id="boundary" inkscape:connector-curvature="0" />
	<path style="fill:none;stroke:red;stroke-width:1px;stroke-linecap:butt;stroke-linejoin:miter;stroke-opacity:1" d="M 667.256,855.659 686.481,846.047 z" id="boundary" inkscape:connector-curvature="0" />
	<path style="fill:none;stroke:red;stroke-width:1px;stroke-linecap:butt;stroke-linejoin:miter;stroke-opacity:1" d="M 671.101,253.922 690.326,253.922 z" id="boundary" inkscape:connector-curvature="0" />
	<path style="fill:none;stroke:red;stroke-width:1px;stroke-linecap:butt;stroke-linejoin:miter;stroke-opacity:1" d="M 678.791,692.248 692.248,707.628 z" id="boundary" inkscape:connector-curvature="0" />
	<path style="fill:none;stroke:red;stroke-width:1px;stroke-linecap:butt;stroke-linejoin:miter;stroke-opacity:1" d="M 678.791,871.039 698.016,874.884 z" id="boundary" inkscape:connector-curvature="0" />
	<path style="fill:none;stroke:red;stroke-width:1px;stroke-linecap:butt;stroke-linejoin:miter;stroke-opacity:1" d="M 686.481,846.047 705.705,836.434 z" id="boundary" inkscape:connector-curvature="0" />
	<path style="fill:none;stroke:red;stroke-width:1px;stroke-linecap:butt;stroke-linejoin:miter;stroke-opacity:1" d="M 690.326,253.922 705.705,267.38 z" id="boundary" inkscape:connector-curvature="0" />
	<path style="fill:none;stroke:red;stroke-width:1px;stroke-linecap:butt;stroke-linejoin:miter;stroke-opacity:1" d="M 692.248,707.628 709.55,717.24 z" id="boundary" inkscape:connector-curvature="0" />
	<path style="fill:none;stroke:red;stroke-width:1px;stroke-linecap:butt;stroke-linejoin:miter;stroke-opacity:1" d="M 698.016,874.884 717.24,880.651 z" id="boundary" inkscape:connector-curvature="0" />
	<path style="fill:none;stroke:red;stroke-width:1px;stroke-linecap:butt;stroke-linejoin:miter;stroke-opacity:1" d="M 705.705,267.38 724.93,273.147 z" id="boundary" inkscape:connector-curvature="0" />
	<path style="fill:none;stroke:red;stroke-width:1px;stroke-linecap:butt;stroke-linejoin:miter;stroke-opacity:1" d="M 705.705,836.434 721.085,821.054 z" id="boundary" inkscape:connector-curvature="0" />
	<path style="fill:none;stroke:red;stroke-width:1px;stroke-linecap:butt;stroke-linejoin:miter;stroke-opacity:1" d="M 709.55,717.24 724.93,728.775 z" id="boundary" inkscape:connector-curvature="0" />
	<path style="fill:none;stroke:red;stroke-width:1px;stroke-linecap:butt;stroke-linejoin:miter;stroke-opacity:1" d="M 717.24,880.651 736.465,880.651 z" id="boundary" inkscape:connector-curvature="0" />
	<path style="fill:none;stroke:red;stroke-width:1px;stroke-linecap:butt;stroke-linejoin:miter;stroke-opacity:1" d="M 721.085,821.054 730.698,801.829 z" id="boundary" inkscape:connector-curvature="0" />
	<path style="fill:none;stroke:red;stroke-width:1px;stroke-linecap:butt;stroke-linejoin:miter;stroke-opacity:1" d="M 724.93,273.147 744.155,276.992 z" id="boundary" inkscape:connector-curvature="0" />
	<path style="fill:none;stroke:red;stroke-width:1px;stroke-linecap:butt;stroke-linejoin:miter;stroke-opacity:1" d="M 724.93,728.775 738.388,744.155 z" id="boundary" inkscape:connector-curvature="0" />
	<path style="fill:none;stroke:red;stroke-width:1px;stroke-linecap:butt;stroke-linejoin:miter;stroke-opacity:1" d="M 730.698,801.829 740.31,782.605 z" id="boundary" inkscape:connector-curvature="0" />
	<path style="fill:none;stroke:red;stroke-width:1px;stroke-linecap:butt;stroke-linejoin:miter;stroke-opacity:1" d="M 736.465,880.651 753.767,871.039 z" id="boundary" inkscape:connector-curvature="0" />
	<path style="fill:none;stroke:red;stroke-width:1px;stroke-linecap:butt;stroke-linejoin:miter;stroke-opacity:1" d="M 738.388,744.155 744.155,763.38 z" id="boundary" inkscape:connector-curvature="0" />
	<path style="fill:none;stroke:red;stroke-width:1px;stroke-linecap:butt;stroke-linejoin:miter;stroke-opacity:1" d="M 740.31,782.605 744.155,763.38 z" id="boundary" inkscape:connector-curvature="0" />
	<path style="fill:none;stroke:red;stroke-width:1px;stroke-linecap:butt;stroke-linejoin:miter;stroke-opacity:1" d="M 744.155,276.992 763.38,282.76 z" id="boundary" inkscape:connector-curvature="0" />
	<path style="fill:none;stroke:red;stroke-width:1px;stroke-linecap:butt;stroke-linejoin:miter;stroke-opacity:1" d="M 753.767,871.039 769.147,859.504 z" id="boundary" inkscape:connector-curvature="0" />
	<path style="fill:none;stroke:red;stroke-width:1px;stroke-linecap:butt;stroke-linejoin:miter;stroke-opacity:1" d="M 763.38,282.76 782.605,282.76 z" id="boundary" inkscape:connector-curvature="0" />
	<path style="fill:none;stroke:red;stroke-width:1px;stroke-linecap:butt;stroke-linejoin:miter;stroke-opacity:1" d="M 769.147,859.504 774.915,832.589 z" id="boundary" inkscape:connector-curvature="0" />
	<path style="fill:none;stroke:red;stroke-width:1px;stroke-linecap:butt;stroke-linejoin:miter;stroke-opacity:1" d="M 774.915,832.589 784.527,813.364 z" id="boundary" inkscape:connector-curvature="0" />
	<path style="fill:none;stroke:red;stroke-width:1px;stroke-linecap:butt;stroke-linejoin:miter;stroke-opacity:1" d="M 782.605,282.76 801.829,278.915 z" id="boundary" inkscape:connector-curvature="0" />
	<path style="fill:none;stroke:red;stroke-width:1px;stroke-linecap:butt;stroke-linejoin:miter;stroke-opacity:1" d="M 784.527,813.364 799.907,799.907 z" id="boundary" inkscape:connector-curvature="0" />
	<path style="fill:none;stroke:red;stroke-width:1px;stroke-linecap:butt;stroke-linejoin:miter;stroke-opacity:1" d="M 799.907,799.907 813.364,774.915 z" id="boundary" inkscape:connector-curvature="0" />
	<path style="fill:none;stroke:red;stroke-width:1px;stroke-linecap:butt;stroke-linejoin:miter;stroke-opacity:1" d="M 801.829,278.915 821.054,273.147 z" id="boundary" inkscape:connector-curvature="0" />
	<path style="fill:none;stroke:red;stroke-width:1px;stroke-linecap:butt;stroke-linejoin:miter;stroke-opacity:1" d="M 803.752,592.279 803.752,611.504 z" id="boundary" inkscape:connector-curvature="0" />
	<path style="fill:none;stroke:red;stroke-width:1px;stroke-linecap:butt;stroke-linejoin:miter;stroke-opacity:1" d="M 803.752,592.279 813.364,573.054 z" id="boundary" inkscape:connector-curvature="0" />
	<path style="fill:none;stroke:red;stroke-width:1px;stroke-linecap:butt;stroke-linejoin:miter;stroke-opacity:1" d="M 803.752,611.504 803.752,630.729 z" id="boundary" inkscape:connector-curvature="0" />
	<path style="fill:none;stroke:red;stroke-width:1px;stroke-linecap:butt;stroke-linejoin:miter;stroke-opacity:1" d="M 803.752,630.729 807.597,649.953 z" id="boundary" inkscape:connector-curvature="0" />
	<path style="fill:none;stroke:red;stroke-width:1px;stroke-linecap:butt;stroke-linejoin:miter;stroke-opacity:1" d="M 807.597,649.953 822.977,663.411 z" id="boundary" inkscape:connector-curvature="0" />
	<path style="fill:none;stroke:red;stroke-width:1px;stroke-linecap:butt;stroke-linejoin:miter;stroke-opacity:1" d="M 813.364,553.829 813.364,573.054 z" id="boundary" inkscape:connector-curvature="0" />
	<path style="fill:none;stroke:red;stroke-width:1px;stroke-linecap:butt;stroke-linejoin:miter;stroke-opacity:1" d="M 813.364,553.829 822.977,524.992 z" id="boundary" inkscape:connector-curvature="0" />
	<path style="fill:none;stroke:red;stroke-width:1px;stroke-linecap:butt;stroke-linejoin:miter;stroke-opacity:1" d="M 813.364,774.915 822.977,740.31 z" id="boundary" inkscape:connector-curvature="0" />
	<path style="fill:none;stroke:red;stroke-width:1px;stroke-linecap:butt;stroke-linejoin:miter;stroke-opacity:1" d="M 821.054,273.147 838.357,263.535 z" id="boundary" inkscape:connector-curvature="0" />
	<path style="fill:none;stroke:red;stroke-width:1px;stroke-linecap:butt;stroke-linejoin:miter;stroke-opacity:1" d="M 822.977,524.992 832.589,496.155 z" id="boundary" inkscape:connector-curvature="0" />
	<path style="fill:none;stroke:red;stroke-width:1px;stroke-linecap:butt;stroke-linejoin:miter;stroke-opacity:1" d="M 822.977,663.411 822.977,682.636 z" id="boundary" inkscape:connector-curvature="0" />
	<path style="fill:none;stroke:red;stroke-width:1px;stroke-linecap:butt;stroke-linejoin:miter;stroke-opacity:1" d="M 822.977,682.636 822.977,701.86 z" id="boundary" inkscape:connector-curvature="0" />
	<path style="fill:none;stroke:red;stroke-width:1px;stroke-linecap:butt;stroke-linejoin:miter;stroke-opacity:1" d="M 822.977,701.86 822.977,721.085 z" id="boundary" inkscape:connector-curvature="0" />
	<path style="fill:none;stroke:red;stroke-width:1px;stroke-linecap:butt;stroke-linejoin:miter;stroke-opacity:1" d="M 822.977,721.085 822.977,740.31 z" id="boundary" inkscape:connector-curvature="0" />
	<path style="fill:none;stroke:red;stroke-width:1px;stroke-linecap:butt;stroke-linejoin:miter;stroke-opacity:1" d="M 832.589,457.705 832.589,476.93 z" id="boundary" inkscape:connector-curvature="0" />
	<path style="fill:none;stroke:red;stroke-width:1px;stroke-linecap:butt;stroke-linejoin:miter;stroke-opacity:1" d="M 832.589,457.705 842.202,438.481 z" id="boundary" inkscape:connector-curvature="0" />
	<path style="fill:none;stroke:red;stroke-width:1px;stroke-linecap:butt;stroke-linejoin:miter;stroke-opacity:1" d="M 832.589,476.93 832.589,496.155 z" id="boundary" inkscape:connector-curvature="0" />
	<path style="fill:none;stroke:red;stroke-width:1px;stroke-linecap:butt;stroke-linejoin:miter;stroke-opacity:1" d="M 838.357,263.535 857.581,263.535 z" id="boundary" inkscape:connector-curvature="0" />
	<path style="fill:none;stroke:red;stroke-width:1px;stroke-linecap:butt;stroke-linejoin:miter;stroke-opacity:1" d="M 842.202,380.806 842.202,400.031 z" id="boundary" inkscape:connector-curvature="0" />
	<path style="fill:none;stroke:red;stroke-width:1px;stroke-linecap:butt;stroke-linejoin:miter;stroke-opacity:1" d="M 842.202,380.806 859.504,371.194 z" id="boundary" inkscape:connector-curvature="0" />
	<path style="fill:none;stroke:red;stroke-width:1px;stroke-linecap:butt;stroke-linejoin:miter;stroke-opacity:1" d="M 842.202,400.031 842.202,419.256 z" id="boundary" inkscape:connector-curvature="0" />
	<path style="fill:none;stroke:red;stroke-width:1px;stroke-linecap:butt;stroke-linejoin:miter;stroke-opacity:1" d="M 842.202,419.256 842.202,438.481 z" id="boundary" inkscape:connector-curvature="0" />
	<path style="fill:none;stroke:red;stroke-width:1px;stroke-linecap:butt;stroke-linejoin:miter;stroke-opacity:1" d="M 857.581,263.535 874.884,253.922 z" id="boundary" inkscape:connector-curvature="0" />
	<path style="fill:none;stroke:red;stroke-width:1px;stroke-linecap:butt;stroke-linejoin:miter;stroke-opacity:1" d="M 859.504,371.194 874.884,359.659 z" id="boundary" inkscape:connector-curvature="0" />
	<path style="fill:none;stroke:red;stroke-width:1px;stroke-linecap:butt;stroke-linejoin:miter;stroke-opacity:1" d="M 874.884,253.922 892.186,244.31 z" id="boundary" inkscape:connector-curvature="0" />
	<path style="fill:none;stroke:red;stroke-width:1px;stroke-linecap:butt;stroke-linejoin:miter;stroke-opacity:1" d="M 874.884,359.659 884.496,342.357 z" id="boundary" inkscape:connector-curvature="0" />
	<path style="fill:none;stroke:red;stroke-width:1px;stroke-linecap:butt;stroke-linejoin:miter;stroke-opacity:1" d="M 878.729,19.3798 894.109,4 z" id="boundary" inkscape:connector-curvature="0" />
	<path style="fill:none;stroke:red;stroke-width:1px;stroke-linecap:butt;stroke-linejoin:miter;stroke-opacity:1" d="M 878.729,19.3798 894.109,32.8372 z" id="boundary" inkscape:connector-curvature="0" />
	<path style="fill:none;stroke:red;stroke-width:1px;stroke-linecap:butt;stroke-linejoin:miter;stroke-opacity:1" d="M 884.496,342.357 901.798,332.744 z" id="boundary" inkscape:connector-curvature="0" />
	<path style="fill:none;stroke:red;stroke-width:1px;stroke-linecap:butt;stroke-linejoin:miter;stroke-opacity:1" d="M 892.186,244.31 907.566,230.853 z" id="boundary" inkscape:connector-curvature="0" />
	<path style="fill:none;stroke:red;stroke-width:1px;stroke-linecap:butt;stroke-linejoin:miter;stroke-opacity:1" d="M 894.109,4 913.333,4 z" id="boundary" inkscape:connector-curvature="0" />
	<path style="fill:none;stroke:red;stroke-width:1px;stroke-linecap:butt;stroke-linejoin:miter;stroke-opacity:1" d="M 894.109,32.8372 901.798,52.062 z" id="boundary" inkscape:connector-curvature="0" />
	<path style="fill:none;stroke:red;stroke-width:1px;stroke-linecap:butt;stroke-linejoin:miter;stroke-opacity:1" d="M 901.798,52.062 921.023,59.7519 z" id="boundary" inkscape:connector-curvature="0" />
	<path style="fill:none;stroke:red;stroke-width:1px;stroke-linecap:butt;stroke-linejoin:miter;stroke-opacity:1" d="M 901.798,332.744 919.101,323.132 z" id="boundary" inkscape:connector-curvature="0" />
	<path style="fill:none;stroke:red;stroke-width:1px;stroke-linecap:butt;stroke-linejoin:miter;stroke-opacity:1" d="M 907.566,230.853 926.791,211.628 z" id="boundary" inkscape:connector-curvature="0" />
	<path style="fill:none;stroke:red;stroke-width:1px;stroke-linecap:butt;stroke-linejoin:miter;stroke-opacity:1" d="M 913.333,4 930.636,13.6124 z" id="boundary" inkscape:connector-curvature="0" />
	<path style="fill:none;stroke:red;stroke-width:1px;stroke-linecap:butt;stroke-linejoin:miter;stroke-opacity:1" d="M 919.101,323.132 928.713,303.907 z" id="boundary" inkscape:connector-curvature="0" />
	<path style="fill:none;stroke:red;stroke-width:1px;stroke-linecap:butt;stroke-linejoin:miter;stroke-opacity:1" d="M 921.023,59.7519 928.713,78.9767 z" id="boundary" inkscape:connector-curvature="0" />
	<path style="fill:none;stroke:red;stroke-width:1px;stroke-linecap:butt;stroke-linejoin:miter;stroke-opacity:1" d="M 926.791,211.628 936.403,182.791 z" id="boundary" inkscape:connector-curvature="0" />
	<path style="fill:none;stroke:red;stroke-width:1px;stroke-linecap:butt;stroke-linejoin:miter;stroke-opacity:1" d="M 928.713,78.9767 936.403,98.2016 z" id="boundary" inkscape:connector-curvature="0" />
	<path style="fill:none;stroke:red;stroke-width:1px;stroke-linecap:butt;stroke-linejoin:miter;stroke-opacity:1" d="M 928.713,303.907 947.938,284.682 z" id="boundary" inkscape:connector-curvature="0" />
	<path style="fill:none;stroke:red;stroke-width:1px;stroke-linecap:butt;stroke-linejoin:miter;stroke-opacity:1" d="M 930.636,13.6124 946.016,27.0698 z" id="boundary" inkscape:connector-curvature="0" />
	<path style="fill:none;stroke:red;stroke-width:1px;stroke-linecap:butt;stroke-linejoin:miter;stroke-opacity:1" d="M 936.403,98.2016 946.016,115.504 z" id="boundary" inkscape:connector-curvature="0" />
	<path style="fill:none;stroke:red;stroke-width:1px;stroke-linecap:butt;stroke-linejoin:miter;stroke-opacity:1" d="M 936.403,182.791 946.016,153.953 z" id="boundary" inkscape:connector-curvature="0" />
	<path style="fill:none;stroke:red;stroke-width:1px;stroke-linecap:butt;stroke-linejoin:miter;stroke-opacity:1" d="M 946.016,27.0698 957.55,42.4496 z" id="boundary" inkscape:connector-curvature="0" />
	<path style="fill:none;stroke:red;stroke-width:1px;stroke-linecap:butt;stroke-linejoin:miter;stroke-opacity:1" d="M 946.016,115.504 946.016,134.729 z" id="boundary" inkscape:connector-curvature="0" />
	<path style="fill:none;stroke:red;stroke-width:1px;stroke-linecap:butt;stroke-linejoin:miter;stroke-opacity:1" d="M 946.016,134.729 946.016,153.953 z" id="boundary" inkscape:connector-curvature="0" />
	<path style="fill:none;stroke:red;stroke-width:1px;stroke-linecap:butt;stroke-linejoin:miter;stroke-opacity:1" d="M 947.938,284.682 957.55,265.457 z" id="boundary" inkscape:connector-curvature="0" />
	<path style="fill:none;stroke:red;stroke-width:1px;stroke-linecap:butt;stroke-linejoin:miter;stroke-opacity:1" d="M 957.55,42.4496 967.163,59.7519 z" id="boundary" inkscape:connector-curvature="0" />
	<path style="fill:none;stroke:red;stroke-width:1px;stroke-linecap:butt;stroke-linejoin:miter;stroke-opacity:1" d="M 957.55,265.457 967.163,246.233 z" id="boundary" inkscape:connector-curvature="0" />
	<path style="fill:none;stroke:red;stroke-width:1px;stroke-linecap:butt;stroke-linejoin:miter;stroke-opacity:1" d="M 967.163,59.7519 982.543,73.2093 z" id="boundary" inkscape:connector-curvature="0" />
	<path style="fill:none;stroke:red;stroke-width:1px;stroke-linecap:butt;stroke-linejoin:miter;stroke-opacity:1" d="M 967.163,246.233 976.775,227.008 z" id="boundary" inkscape:connector-curvature="0" />
	<path style="fill:none;stroke:red;stroke-width:1px;stroke-linecap:butt;stroke-linejoin:miter;stroke-opacity:1" d="M 976.775,227.008 992.155,213.55 z" id="boundary" inkscape:connector-curvature="0" />
	<path style="fill:none;stroke:red;stroke-width:1px;stroke-linecap:butt;stroke-linejoin:miter;stroke-opacity:1" d="M 982.543,73.2093 990.233,92.4341 z" id="boundary" inkscape:connector-curvature="0" />
	<path style="fill:none;stroke:red;stroke-width:1px;stroke-linecap:butt;stroke-linejoin:miter;stroke-opacity:1" d="M 990.233,92.4341 996,111.659 z" id="boundary" inkscape:connector-curvature="0" />
	<path style="fill:none;stroke:red;stroke-width:1px;stroke-linecap:butt;stroke-linejoin:miter;stroke-opacity:1" d="M 992.155,213.55 996,188.558 z" id="boundary" inkscape:connector-curvature="0" />
	<path style="fill:none;stroke:red;stroke-width:1px;stroke-linecap:butt;stroke-linejoin:miter;stroke-opacity:1" d="M 996,111.659 996,130.884 z" id="boundary" inkscape:connector-curvature="0" />
	<path style="fill:none;stroke:red;stroke-width:1px;stroke-linecap:butt;stroke-linejoin:miter;stroke-opacity:1" d="M 996,130.884 996,150.109 z" id="boundary" inkscape:connector-curvature="0" />
	<path style="fill:none;stroke:red;stroke-width:1px;stroke-linecap:butt;stroke-linejoin:miter;stroke-opacity:1" d="M 996,150.109 996,169.333 z" id="boundary" inkscape:connector-curvature="0" />
	<path style="fill:none;stroke:red;stroke-width:1px;stroke-linecap:butt;stroke-linejoin:miter;stroke-opacity:1" d="M 996,169.333 996,188.558 z" id="boundary" inkscape:connector-curvature="0" />
	<circle cx="4" cy="173.178" r="4" fill="#0" id="circle0"/>
	<circle cx="4" cy="192.403" r="4" fill="#0" id="circle1"/>
	<circle cx="4" cy="211.628" r="4" fill="#0" id="circle2"/>
	<circle cx="4" cy="230.853" r="4" fill="#0" id="circle3"/>
	<circle cx="4" cy="250.078" r="4" fill="#0" id="circle4"/>
	<circle cx="13.6124" cy="134.729" r="4" fill="#0" id="circle5"/>
	<circle cx="13.6124" cy="153.953" r="4" fill="#0" id="circle6"/>
	<circle cx="13.6124" cy="267.38" r="4" fill="#0" id="circle7"/>
	<circle cx="23.2248" cy="67.4419" r="4" fill="#0" id="circle8"/>
	<circle cx="23.2248" cy="86.6667" r="4" fill="#0" id="circle9"/>
	<circle cx="23.2248" cy="105.891" r="4" fill="#0" id="circle10"/>
	<circle cx="23.2248" cy="284.682" r="4" fill="#0" id="circle11"/>
	<circle cx="23.2248" cy="303.907" r="4" fill="#0" id="circle12"/>
	<circle cx="32.8372" cy="321.209" r="4" fill="#0" id="circle13"/>
	<circle cx="38.6047" cy="52.062" r="4" fill="#0" id="circle14"/>
	<circle cx="42.4496" cy="338.512" r="4" fill="#0" id="circle15"/>
	<circle cx="42.4496" cy="357.736" r="4" fill="#0" id="circle16"/>
	<circle cx="42.4496" cy="384.651" r="4" fill="#0" id="circle17"/>
	<circle cx="42.4496" cy="403.876" r="4" fill="#0" id="circle18"/>
	<circle cx="42.4496" cy="423.101" r="4" fill="#0" id="circle19"/>
	<circle cx="52.062" cy="440.403" r="4" fill="#0" id="circle20"/>
	<circle cx="52.062" cy="459.628" r="4" fill="#0" id="circle21"/>
	<circle cx="52.062" cy="478.853" r="4" fill="#0" id="circle22"/>
	<circle cx="52.062" cy="498.078" r="4" fill="#0" id="circle23"/>
	<circle cx="52.062" cy="846.047" r="4" fill="#0" id="circle24"/>
	<circle cx="52.062" cy="865.271" r="4" fill="#0" id="circle25"/>
	<circle cx="57.8295" cy="52.062" r="4" fill="#0" id="circle26"/>
	<circle cx="61.6744" cy="515.38" r="4" fill="#0" id="circle27"/>
	<circle cx="63.5969" cy="880.651" r="4" fill="#0" id="circle28"/>
	<circle cx="71.2868" cy="532.682" r="4" fill="#0" id="circle29"/>
	<circle cx="71.2868" cy="836.434" r="4" fill="#0" id="circle30"/>
	<circle cx="73.2093" cy="63.5969" r="4" fill="#0" id="circle31"/>
	<circle cx="82.8217" cy="548.062" r="4" fill="#0" id="circle32"/>
	<circle cx="82.8217" cy="880.651" r="4" fill="#0" id="circle33"/>
	<circle cx="86.6667" cy="821.054" r="4" fill="#0" id="circle34"/>
	<circle cx="88.5891" cy="75.1318" r="4" fill="#0" id="circle35"/>
	<circle cx="90.5116" cy="567.287" r="4" fill="#0" id="circle36"/>
	<circle cx="90.5116" cy="778.76" r="4" fill="#0" id="circle37"/>
	<circle cx="90.5116" cy="797.984" r="4" fill="#0" id="circle38"/>
	<circle cx="98.2016" cy="92.4341" r="4" fill="#0" id="circle39"/>
	<circle cx="100.124" cy="584.589" r="4" fill="#0" id="circle40"/>
	<circle cx="100.124" cy="603.814" r="4" fill="#0" id="circle41"/>
	<circle cx="100.124" cy="623.039" r="4" fill="#0" id="circle42"/>
	<circle cx="100.124" cy="692.248" r="4" fill="#0" id="circle43"/>
	<circle cx="100.124" cy="711.473" r="4" fill="#0" id="circle44"/>
	<circle cx="100.124" cy="730.698" r="4" fill="#0" id="circle45"/>
	<circle cx="100.124" cy="749.922" r="4" fill="#0" id="circle46"/>
	<circle cx="102.047" cy="880.651" r="4" fill="#0" id="circle47"/>
	<circle cx="109.736" cy="640.341" r="4" fill="#0" id="circle48"/>
	<circle cx="109.736" cy="659.566" r="4" fill="#0" id="circle49"/>
	<circle cx="111.659" cy="107.814" r="4" fill="#0" id="circle50"/>
	<circle cx="119.349" cy="871.039" r="4" fill="#0" id="circle51"/>
	<circle cx="130.884" cy="109.736" r="4" fill="#0" id="circle52"/>
	<circle cx="134.729" cy="859.504" r="4" fill="#0" id="circle53"/>
	<circle cx="150.109" cy="109.736" r="4" fill="#0" id="circle54"/>
	<circle cx="150.109" cy="794.14" r="4" fill="#0" id="circle55"/>
	<circle cx="150.109" cy="813.364" r="4" fill="#0" id="circle56"/>
	<circle cx="150.109" cy="832.589" r="4" fill="#0" id="circle57"/>
	<circle cx="159.721" cy="755.69" r="4" fill="#0" id="circle58"/>
	<circle cx="159.721" cy="774.915" r="4" fill="#0" id="circle59"/>
	<circle cx="169.333" cy="109.736" r="4" fill="#0" id="circle60"/>
	<circle cx="169.333" cy="726.853" r="4" fill="#0" id="circle61"/>
	<circle cx="178.946" cy="707.628" r="4" fill="#0" id="circle62"/>
	<circle cx="188.558" cy="103.969" r="4" fill="#0" id="circle63"/>
	<circle cx="188.558" cy="678.791" r="4" fill="#0" id="circle64"/>
	<circle cx="196.248" cy="865.271" r="4" fill="#0" id="circle65"/>
	<circle cx="196.248" cy="884.496" r="4" fill="#0" id="circle66"/>
	<circle cx="203.938" cy="90.5116" r="4" fill="#0" id="circle67"/>
	<circle cx="205.86" cy="669.178" r="4" fill="#0" id="circle68"/>
	<circle cx="205.86" cy="846.047" r="4" fill="#0" id="circle69"/>
	<circle cx="215.473" cy="890.264" r="4" fill="#0" id="circle70"/>
	<circle cx="221.24" cy="80.8992" r="4" fill="#0" id="circle71"/>
	<circle cx="221.24" cy="830.667" r="4" fill="#0" id="circle72"/>
	<circle cx="223.163" cy="678.791" r="4" fill="#0" id="circle73"/>
	<circle cx="225.085" cy="698.016" r="4" fill="#0" id="circle74"/>
	<circle cx="225.085" cy="717.24" r="4" fill="#0" id="circle75"/>
	<circle cx="225.085" cy="736.465" r="4" fill="#0" id="circle76"/>
	<circle cx="225.085" cy="755.69" r="4" fill="#0" id="circle77"/>
	<circle cx="225.085" cy="774.915" r="4" fill="#0" id="circle78"/>
	<circle cx="225.085" cy="794.14" r="4" fill="#0" id="circle79"/>
	<circle cx="234.698" cy="890.264" r="4" fill="#0" id="circle80"/>
	<circle cx="238.543" cy="71.2868" r="4" fill="#0" id="circle81"/>
	<circle cx="253.922" cy="884.496" r="4" fill="#0" id="circle82"/>
	<circle cx="255.845" cy="61.6744" r="4" fill="#0" id="circle83"/>
	<circle cx="265.457" cy="78.9767" r="4" fill="#0" id="circle84"/>
	<circle cx="269.302" cy="869.116" r="4" fill="#0" id="circle85"/>
	<circle cx="275.07" cy="96.2791" r="4" fill="#0" id="circle86"/>
	<circle cx="275.07" cy="115.504" r="4" fill="#0" id="circle87"/>
	<circle cx="275.07" cy="134.729" r="4" fill="#0" id="circle88"/>
	<circle cx="275.07" cy="153.953" r="4" fill="#0" id="circle89"/>
	<circle cx="275.07" cy="173.178" r="4" fill="#0" id="circle90"/>
	<circle cx="275.07" cy="192.403" r="4" fill="#0" id="circle91"/>
	<circle cx="275.07" cy="211.628" r="4" fill="#0" id="circle92"/>
	<circle cx="275.07" cy="822.977" r="4" fill="#0" id="circle93"/>
	<circle cx="275.07" cy="842.202" r="4" fill="#0" id="circle94"/>
	<circle cx="284.682" cy="228.93" r="4" fill="#0" id="circle95"/>
	<circle cx="284.682" cy="784.527" r="4" fill="#0" id="circle96"/>
	<circle cx="284.682" cy="803.752" r="4" fill="#0" id="circle97"/>
	<circle cx="294.295" cy="755.69" r="4" fill="#0" id="circle98"/>
	<circle cx="296.217" cy="244.31" r="4" fill="#0" id="circle99"/>
	<circle cx="303.907" cy="736.465" r="4" fill="#0" id="circle100"/>
	<circle cx="313.519" cy="234.698" r="4" fill="#0" id="circle101"/>
	<circle cx="313.519" cy="707.628" r="4" fill="#0" id="circle102"/>
	<circle cx="323.132" cy="669.178" r="4" fill="#0" id="circle103"/>
	<circle cx="323.132" cy="688.403" r="4" fill="#0" id="circle104"/>
	<circle cx="330.822" cy="225.085" r="4" fill="#0" id="circle105"/>
	<circle cx="332.744" cy="649.953" r="4" fill="#0" id="circle106"/>
	<circle cx="348.124" cy="636.496" r="4" fill="#0" id="circle107"/>
	<circle cx="350.047" cy="225.085" r="4" fill="#0" id="circle108"/>
	<circle cx="361.581" cy="621.116" r="4" fill="#0" id="circle109"/>
	<circle cx="369.271" cy="225.085" r="4" fill="#0" id="circle110"/>
	<circle cx="380.806" cy="621.116" r="4" fill="#0" id="circle111"/>
	<circle cx="388.496" cy="225.085" r="4" fill="#0" id="circle112"/>
	<circle cx="400.031" cy="621.116" r="4" fill="#0" id="circle113"/>
	<circle cx="407.721" cy="225.085" r="4" fill="#0" id="circle114"/>
	<circle cx="419.256" cy="621.116" r="4" fill="#0" id="circle115"/>
	<circle cx="426.946" cy="225.085" r="4" fill="#0" id="circle116"/>
	<circle cx="438.481" cy="621.116" r="4" fill="#0" id="circle117"/>
	<circle cx="446.171" cy="225.085" r="4" fill="#0" id="circle118"/>
	<circle cx="455.783" cy="817.209" r="4" fill="#0" id="circle119"/>
	<circle cx="455.783" cy="836.434" r="4" fill="#0" id="circle120"/>
	<circle cx="457.705" cy="624.961" r="4" fill="#0" id="circle121"/>
	<circle cx="465.395" cy="225.085" r="4" fill="#0" id="circle122"/>
	<circle cx="471.163" cy="640.341" r="4" fill="#0" id="circle123"/>
	<circle cx="475.008" cy="807.597" r="4" fill="#0" id="circle124"/>
	<circle cx="475.008" cy="842.202" r="4" fill="#0" id="circle125"/>
	<circle cx="484.62" cy="225.085" r="4" fill="#0" id="circle126"/>
	<circle cx="490.388" cy="640.341" r="4" fill="#0" id="circle127"/>
	<circle cx="494.233" cy="801.829" r="4" fill="#0" id="circle128"/>
	<circle cx="494.233" cy="842.202" r="4" fill="#0" id="circle129"/>
	<circle cx="503.845" cy="225.085" r="4" fill="#0" id="circle130"/>
	<circle cx="509.612" cy="640.341" r="4" fill="#0" id="circle131"/>
	<circle cx="511.535" cy="792.217" r="4" fill="#0" id="circle132"/>
	<circle cx="513.457" cy="659.566" r="4" fill="#0" id="circle133"/>
	<circle cx="513.457" cy="842.202" r="4" fill="#0" id="circle134"/>
	<circle cx="523.07" cy="225.085" r="4" fill="#0" id="circle135"/>
	<circle cx="523.07" cy="676.868" r="4" fill="#0" id="circle136"/>
	<circle cx="528.837" cy="782.605" r="4" fill="#0" id="circle137"/>
	<circle cx="532.682" cy="842.202" r="4" fill="#0" id="circle138"/>
	<circle cx="534.605" cy="692.248" r="4" fill="#0" id="circle139"/>
	<circle cx="542.295" cy="225.085" r="4" fill="#0" id="circle140"/>
	<circle cx="542.295" cy="711.473" r="4" fill="#0" id="circle141"/>
	<circle cx="544.217" cy="767.225" r="4" fill="#0" id="circle142"/>
	<circle cx="549.984" cy="832.589" r="4" fill="#0" id="circle143"/>
	<circle cx="551.907" cy="728.775" r="4" fill="#0" id="circle144"/>
	<circle cx="551.907" cy="748" r="4" fill="#0" id="circle145"/>
	<circle cx="561.519" cy="225.085" r="4" fill="#0" id="circle146"/>
	<circle cx="567.287" cy="821.054" r="4" fill="#0" id="circle147"/>
	<circle cx="576.899" cy="801.829" r="4" fill="#0" id="circle148"/>
	<circle cx="578.822" cy="234.698" r="4" fill="#0" id="circle149"/>
	<circle cx="592.279" cy="784.527" r="4" fill="#0" id="circle150"/>
	<circle cx="598.047" cy="234.698" r="4" fill="#0" id="circle151"/>
	<circle cx="607.659" cy="771.07" r="4" fill="#0" id="circle152"/>
	<circle cx="615.349" cy="244.31" r="4" fill="#0" id="circle153"/>
	<circle cx="621.116" cy="755.69" r="4" fill="#0" id="circle154"/>
	<circle cx="630.729" cy="736.465" r="4" fill="#0" id="circle155"/>
	<circle cx="634.574" cy="244.31" r="4" fill="#0" id="circle156"/>
	<circle cx="646.109" cy="723.008" r="4" fill="#0" id="circle157"/>
	<circle cx="651.876" cy="253.922" r="4" fill="#0" id="circle158"/>
	<circle cx="659.566" cy="688.403" r="4" fill="#0" id="circle159"/>
	<circle cx="659.566" cy="707.628" r="4" fill="#0" id="circle160"/>
	<circle cx="667.256" cy="855.659" r="4" fill="#0" id="circle161"/>
	<circle cx="671.101" cy="253.922" r="4" fill="#0" id="circle162"/>
	<circle cx="678.791" cy="692.248" r="4" fill="#0" id="circle163"/>
	<circle cx="678.791" cy="871.039" r="4" fill="#0" id="circle164"/>
	<circle cx="686.481" cy="846.047" r="4" fill="#0" id="circle165"/>
	<circle cx="690.326" cy="253.922" r="4" fill="#0" id="circle166"/>
	<circle cx="692.248" cy="707.628" r="4" fill="#0" id="circle167"/>
	<circle cx="698.016" cy="874.884" r="4" fill="#0" id="circle168"/>
	<circle cx="705.705" cy="267.38" r="4" fill="#0" id="circle169"/>
	<circle cx="705.705" cy="836.434" r="4" fill="#0" id="circle170"/>
	<circle cx="709.55" cy="717.24" r="4" fill="#0" id="circle171"/>
	<circle cx="717.24" cy="880.651" r="4" fill="#0" id="circle172"/>
	<circle cx="721.085" cy="821.054" r="4" fill="#0" id="circle173"/>
	<circle cx="724.93" cy="273.147" r="4" fill="#0" id="circle174"/>
	<circle cx="724.93" cy="728.775" r="4" fill="#0" id="circle175"/>
	<circle cx="730.698" cy="801.829" r="4" fill="#0" id="circle176"/>
	<circle cx="736.465" cy="880.651" r="4" fill="#0" id="circle177"/>
	<circle cx="738.388" cy="744.155" r="4" fill="#0" id="circle178"/>
	<circle cx="740.31" cy="782.605" r="4" fill="#0" id="circle179"/>
	<circle cx="744.155" cy="276.992" r="4" fill="#0" id="circle180"/>
	<circle cx="744.155" cy="763.38" r="4" fill="#0" id="circle181"/>
	<circle cx="753.767" cy="871.039" r="4" fill="#0" id="circle182"/>
	<circle cx="763.38" cy="282.76" r="4" fill="#0" id="circle183"/>
	<circle cx="769.147" cy="859.504" r="4" fill="#0" id="circle184"/>
	<circle cx="774.915" cy="832.589" r="4" fill="#0" id="circle185"/>
	<circle cx="782.605" cy="282.76" r="4" fill="#0" id="circle186"/>
	<circle cx="784.527" cy="813.364" r="4" fill="#0" id="circle187"/>
	<circle cx="799.907" cy="799.907" r="4" fill="#0" id="circle188"/>
	<circle cx="801.829" cy="278.915" r="4" fill="#0" id="circle189"/>
	<circle cx="803.752" cy="592.279" r="4" fill="#0" id="circle190"/>
	<circle cx="803.752" cy="611.504" r="4" fill="#0" id="circle191"/>
	<circle cx="803.752" cy="630.729" r="4" fill="#0" id="circle192"/>
	<circle cx="807.597" cy="649.953" r="4" fill="#0" id="circle193"/>
	<circle cx="813.364" cy="553.829" r="4" fill="#0" id="circle194"/>
	<circle cx="813.364" cy="573.054" r="4" fill="#0" id="circle195"/>
	<circle cx="813.364" cy="774.915" r="4" fill="#0" id="circle196"/>
	<circle cx="821.054" cy="273.147" r="4" fill="#0" id="circle197"/>
	<circle cx="822.977" cy="524.992" r="4" fill="#0" id="circle198"/>
	<circle cx="822.977" cy="663.411" r="4" fill="#0" id="circle199"/>
	<circle cx="822.977" cy="682.636" r="4" fill="#0" id="circle200"/>
	<circle cx="822.977" cy="701.86" r="4" fill="#0" id="circle201"/>
	<circle cx="822.977" cy="721.085" r="4" fill="#0" id="circle202"/>
	<circle cx="822.977" cy="740.31" r="4" fill="#0" id="circle203"/>
	<circle cx="832.589" cy="457.705" r="4" fill="#0" id="circle204"/>
	<circle cx="832.589" cy="476.93" r="4" fill="#0" id="circle205"/>
	<circle cx="832.589" cy="496.155" r="4" fill="#0" id="circle206"/>
	<circle cx="838.357" cy="263.535" r="4" fill="#0" id="circle207"/>
	<circle cx="842.202" cy="380.806" r="4" fill="#0" id="circle208"/>
	<circle cx="842.202" cy="400.031" r="4" fill="#0" id="circle209"/>
	<circle cx="842.202" cy="419.256" r="4" fill="#0" id="circle210"/>
	<circle cx="842.202" cy="438.481" r="4" fill="#0" id="circle211"/>
	<circle cx="857.581" cy="263.535" r="4" fill="#0" id="circle212"/>
	<circle cx="859.504" cy="371.194" r="4" fill="#0" id="circle213"/>
	<circle cx="874.884" cy="253.922" r="4" fill="#0" id="circle214"/>
	<circle cx="874.884" cy="359.659" r="4" fill="#0" id="circle215"/>
	<circle cx="878.729" cy="19.3798" r="4" fill="#0" id="circle216"/>
	<circle cx="884.496" cy="342.357" r="4" fill="#0" id="circle217"/>
	<circle cx="892.186" cy="244.31" r="4" fill="#0" id="circle218"/>
	<circle cx="894.109" cy="4" r="4" fill="#0" id="circle219"/>
	<circle cx="894.109" cy="32.8372" r="4" fill="#0" id="circle220"/>
	<circle cx="901.798" cy="52.062" r="4" fill="#0" id="circle221"/>
	<circle cx="901.798" cy="332.744" r="4" fill="#0" id="circle222"/>
	<circle cx="907.566" cy="230.853" r="4" fill="#0" id="circle223"/>
	<circle cx="913.333" cy="4" r="4" fill="#0" id="circle224"/>
	<circle cx="919.101" cy="323.132" r="4" fill="#0" id="circle225"/>
	<circle cx="921.023" cy="59.7519" r="4" fill="#0" id="circle226"/>
	<circle cx="926.791" cy="211.628" r="4" fill="#0" id="circle227"/>
	<circle cx="928.713" cy="78.9767" r="4" fill="#0" id="circle228"/>
	<circle cx="928.713" cy="303.907" r="4" fill="#0" id="circle229"/>
	<circle cx="930.636" cy="13.6124" r="4" fill="#0" id="circle230"/>
	<circle cx="936.403" cy="98.2016" r="4" fill="#0" id="circle231"/>
	<circle cx="936.403" cy="182.791" r="4" fill="#0" id="circle232"/>
	<circle cx="946.016" cy="27.0698" r="4" fill="#0" id="circle233"/>
	<circle cx="946.016" cy="115.504" r="4" fill="#0" id="circle234"/>
	<circle cx="946.016" cy="134.729" r="4" fill="#0" id="circle235"/>
	<circle cx="946.016" cy="153.953" r="4" fill="#0" id="circle236"/>
	<circle cx="947.938" cy="284.682" r="4" fill="#0" id="circle237"/>
	<circle cx="957.55" cy="42.4496" r="4" fill="#0" id="circle238"/>
	<circle cx="957.55" cy="265.457" r="4" fill="#0" id="circle239"/>
	<circle cx="967.163" cy="59.7519" r="4" fill="#0" id="circle240"/>
	<circle cx="967.163" cy="246.233" r="4" fill="#0" id="circle241"/>
	<circle cx="976.775" cy="227.008" r="4" fill="#0" id="circle242"/>
	<circle cx="982.543" cy="73.2093" r="4" fill="#0" id="circle243"/>
	<circle cx="990.233" cy="92.4341" r="4" fill="#0" id="circle244"/>
	<circle cx="992.155" cy="213.55" r="4" fill="#0" id="circle245"/>
	<circle cx="996" cy="111.659" r="4" fill="#0" id="circle246"/>
	<circle cx="996" cy="130.884" r="4" fill="#0" id="circle247"/>
	<circle cx="996" cy="150.109" r="4" fill="#0" id="circle248"/>
	<circle cx="996" cy="169.333" r="4" fill="#0" id="circle249"/>
	<circle cx="996" cy="188.558" r="4" fill="#0" id="circle250"/>
	</g>
</svg>