<?xml version="1.0" encoding="UTF-8" standalone="no"?>
<!-- Created with CurveBenchmark -->
<svg
	xmlns:dc="http://purl.org/dc/elements/1.1/"
	xmlns:cc="http://creativecommons.org/ns#"
	xmlns:rdf="http://www.w3.org/1999/02/22-rdf-syntax-ns#"
	xmlns:svg="http://www.w3.org/2000/svg"
	xmlns="http://www.w3.org/2000/svg"
	xmlns:sodipodi="http://sodipodi.sourceforge.net/DTD/sodipodi-0.dtd"
	xmlns:inkscape="http://www.inkscape.org/namespaces/inkscape"
	width="1000"
	height="1000"
	id="svg2"
	version="1.1"
	sodipodi:docname="manifold/fitconnect-tree-15.png.txt">
<defs
	id="defs4" />
<metadata
	id="metadata7">
	<rdf:RDF>
		<cc:Work
			rdf:about="">
			<dc:format>image/svg+xml</dc:format>
			<dc:type
				rdf:resource="http://purl.org/dc/dcmitype/StillImage" />
			<dc:title></dc:title>
		</cc:Work>
	</rdf:RDF>
</metadata>
<g
	inkscape:label="Layer 1"
	inkscape:groupmode="layer"
	id="layer1">
	<path style="fill:none;stroke:red;stroke-width:1px;stroke-linecap:butt;stroke-linejoin:miter;stroke-opacity:1" d="M 4,568.062 4,576.569 z" id="boundary" inkscape:connector-curvature="0" />
	<path style="fill:none;stroke:red;stroke-width:1px;stroke-linecap:butt;stroke-linejoin:miter;stroke-opacity:1" d="M 4,568.062 10.8062,561.256 z" id="boundary" inkscape:connector-curvature="0" />
	<path style="fill:none;stroke:red;stroke-width:1px;stroke-linecap:butt;stroke-linejoin:miter;stroke-opacity:1" d="M 4,576.569 8.25386,584.226 z" id="boundary" inkscape:connector-curvature="0" />
	<path style="fill:none;stroke:red;stroke-width:1px;stroke-linecap:butt;stroke-linejoin:miter;stroke-opacity:1" d="M 8.25386,584.226 16.7616,587.63 z" id="boundary" inkscape:connector-curvature="0" />
	<path style="fill:none;stroke:red;stroke-width:1px;stroke-linecap:butt;stroke-linejoin:miter;stroke-opacity:1" d="M 10.8062,561.256 19.3139,561.256 z" id="boundary" inkscape:connector-curvature="0" />
	<path style="fill:none;stroke:red;stroke-width:1px;stroke-linecap:butt;stroke-linejoin:miter;stroke-opacity:1" d="M 16.7616,587.63 25.2693,587.63 z" id="boundary" inkscape:connector-curvature="0" />
	<path style="fill:none;stroke:red;stroke-width:1px;stroke-linecap:butt;stroke-linejoin:miter;stroke-opacity:1" d="M 19.3139,561.256 26.9708,557.002 z" id="boundary" inkscape:connector-curvature="0" />
	<path style="fill:none;stroke:red;stroke-width:1px;stroke-linecap:butt;stroke-linejoin:miter;stroke-opacity:1" d="M 25.2693,587.63 33.777,587.63 z" id="boundary" inkscape:connector-curvature="0" />
	<path style="fill:none;stroke:red;stroke-width:1px;stroke-linecap:butt;stroke-linejoin:miter;stroke-opacity:1" d="M 26.9708,557.002 33.777,551.046 z" id="boundary" inkscape:connector-curvature="0" />
	<path style="fill:none;stroke:red;stroke-width:1px;stroke-linecap:butt;stroke-linejoin:miter;stroke-opacity:1" d="M 33.777,551.046 40.5832,544.24 z" id="boundary" inkscape:connector-curvature="0" />
	<path style="fill:none;stroke:red;stroke-width:1px;stroke-linecap:butt;stroke-linejoin:miter;stroke-opacity:1" d="M 33.777,587.63 42.2847,587.63 z" id="boundary" inkscape:connector-curvature="0" />
	<path style="fill:none;stroke:red;stroke-width:1px;stroke-linecap:butt;stroke-linejoin:miter;stroke-opacity:1" d="M 38.0309,274.545 38.0309,283.053 z" id="boundary" inkscape:connector-curvature="0" />
	<path style="fill:none;stroke:red;stroke-width:1px;stroke-linecap:butt;stroke-linejoin:miter;stroke-opacity:1" d="M 38.0309,274.545 44.837,267.739 z" id="boundary" inkscape:connector-curvature="0" />
	<path style="fill:none;stroke:red;stroke-width:1px;stroke-linecap:butt;stroke-linejoin:miter;stroke-opacity:1" d="M 38.0309,283.053 42.2847,290.71 z" id="boundary" inkscape:connector-curvature="0" />
	<path style="fill:none;stroke:red;stroke-width:1px;stroke-linecap:butt;stroke-linejoin:miter;stroke-opacity:1" d="M 38.0309,831.801 38.0309,840.309 z" id="boundary" inkscape:connector-curvature="0" />
	<path style="fill:none;stroke:red;stroke-width:1px;stroke-linecap:butt;stroke-linejoin:miter;stroke-opacity:1" d="M 38.0309,831.801 44.837,824.995 z" id="boundary" inkscape:connector-curvature="0" />
	<path style="fill:none;stroke:red;stroke-width:1px;stroke-linecap:butt;stroke-linejoin:miter;stroke-opacity:1" d="M 38.0309,840.309 44.837,846.264 z" id="boundary" inkscape:connector-curvature="0" />
	<path style="fill:none;stroke:red;stroke-width:1px;stroke-linecap:butt;stroke-linejoin:miter;stroke-opacity:1" d="M 40.5832,544.24 47.3894,537.434 z" id="boundary" inkscape:connector-curvature="0" />
	<path style="fill:none;stroke:red;stroke-width:1px;stroke-linecap:butt;stroke-linejoin:miter;stroke-opacity:1" d="M 42.2847,290.71 50.7925,294.113 z" id="boundary" inkscape:connector-curvature="0" />
	<path style="fill:none;stroke:red;stroke-width:1px;stroke-linecap:butt;stroke-linejoin:miter;stroke-opacity:1" d="M 42.2847,587.63 50.7925,587.63 z" id="boundary" inkscape:connector-curvature="0" />
	<path style="fill:none;stroke:red;stroke-width:1px;stroke-linecap:butt;stroke-linejoin:miter;stroke-opacity:1" d="M 44.837,267.739 52.494,263.485 z" id="boundary" inkscape:connector-curvature="0" />
	<path style="fill:none;stroke:red;stroke-width:1px;stroke-linecap:butt;stroke-linejoin:miter;stroke-opacity:1" d="M 44.837,824.995 52.494,820.741 z" id="boundary" inkscape:connector-curvature="0" />
	<path style="fill:none;stroke:red;stroke-width:1px;stroke-linecap:butt;stroke-linejoin:miter;stroke-opacity:1" d="M 44.837,846.264 53.3448,847.115 z" id="boundary" inkscape:connector-curvature="0" />
	<path style="fill:none;stroke:red;stroke-width:1px;stroke-linecap:butt;stroke-linejoin:miter;stroke-opacity:1" d="M 47.3894,537.434 54.1955,531.479 z" id="boundary" inkscape:connector-curvature="0" />
	<path style="fill:none;stroke:red;stroke-width:1px;stroke-linecap:butt;stroke-linejoin:miter;stroke-opacity:1" d="M 50.7925,294.113 59.3002,294.113 z" id="boundary" inkscape:connector-curvature="0" />
	<path style="fill:none;stroke:red;stroke-width:1px;stroke-linecap:butt;stroke-linejoin:miter;stroke-opacity:1" d="M 50.7925,587.63 59.3002,587.63 z" id="boundary" inkscape:connector-curvature="0" />
	<path style="fill:none;stroke:red;stroke-width:1px;stroke-linecap:butt;stroke-linejoin:miter;stroke-opacity:1" d="M 52.494,263.485 59.3002,257.53 z" id="boundary" inkscape:connector-curvature="0" />
	<path style="fill:none;stroke:red;stroke-width:1px;stroke-linecap:butt;stroke-linejoin:miter;stroke-opacity:1" d="M 52.494,820.741 55.0463,806.278 z" id="boundary" inkscape:connector-curvature="0" />
	<path style="fill:none;stroke:red;stroke-width:1px;stroke-linecap:butt;stroke-linejoin:miter;stroke-opacity:1" d="M 53.3448,847.115 61.8525,847.115 z" id="boundary" inkscape:connector-curvature="0" />
	<path style="fill:none;stroke:red;stroke-width:1px;stroke-linecap:butt;stroke-linejoin:miter;stroke-opacity:1" d="M 54.1955,531.479 59.3002,517.015 z" id="boundary" inkscape:connector-curvature="0" />
	<path style="fill:none;stroke:red;stroke-width:1px;stroke-linecap:butt;stroke-linejoin:miter;stroke-opacity:1" d="M 55.0463,797.77 55.0463,806.278 z" id="boundary" inkscape:connector-curvature="0" />
	<path style="fill:none;stroke:red;stroke-width:1px;stroke-linecap:butt;stroke-linejoin:miter;stroke-opacity:1" d="M 55.0463,797.77 59.3002,789.262 z" id="boundary" inkscape:connector-curvature="0" />
	<path style="fill:none;stroke:red;stroke-width:1px;stroke-linecap:butt;stroke-linejoin:miter;stroke-opacity:1" d="M 59.3002,257.53 66.1063,250.724 z" id="boundary" inkscape:connector-curvature="0" />
	<path style="fill:none;stroke:red;stroke-width:1px;stroke-linecap:butt;stroke-linejoin:miter;stroke-opacity:1" d="M 59.3002,294.113 67.8079,294.113 z" id="boundary" inkscape:connector-curvature="0" />
	<path style="fill:none;stroke:red;stroke-width:1px;stroke-linecap:butt;stroke-linejoin:miter;stroke-opacity:1" d="M 59.3002,517.015 63.554,508.508 z" id="boundary" inkscape:connector-curvature="0" />
	<path style="fill:none;stroke:red;stroke-width:1px;stroke-linecap:butt;stroke-linejoin:miter;stroke-opacity:1" d="M 59.3002,587.63 67.8079,587.63 z" id="boundary" inkscape:connector-curvature="0" />
	<path style="fill:none;stroke:red;stroke-width:1px;stroke-linecap:butt;stroke-linejoin:miter;stroke-opacity:1" d="M 59.3002,780.755 59.3002,789.262 z" id="boundary" inkscape:connector-curvature="0" />
	<path style="fill:none;stroke:red;stroke-width:1px;stroke-linecap:butt;stroke-linejoin:miter;stroke-opacity:1" d="M 59.3002,780.755 63.554,767.993 z" id="boundary" inkscape:connector-curvature="0" />
	<path style="fill:none;stroke:red;stroke-width:1px;stroke-linecap:butt;stroke-linejoin:miter;stroke-opacity:1" d="M 61.8525,847.115 69.5094,842.861 z" id="boundary" inkscape:connector-curvature="0" />
	<path style="fill:none;stroke:red;stroke-width:1px;stroke-linecap:butt;stroke-linejoin:miter;stroke-opacity:1" d="M 63.554,508.508 70.3602,501.702 z" id="boundary" inkscape:connector-curvature="0" />
	<path style="fill:none;stroke:red;stroke-width:1px;stroke-linecap:butt;stroke-linejoin:miter;stroke-opacity:1" d="M 63.554,767.993 67.8079,759.485 z" id="boundary" inkscape:connector-curvature="0" />
	<path style="fill:none;stroke:red;stroke-width:1px;stroke-linecap:butt;stroke-linejoin:miter;stroke-opacity:1" d="M 66.1063,250.724 72.9125,243.918 z" id="boundary" inkscape:connector-curvature="0" />
	<path style="fill:none;stroke:red;stroke-width:1px;stroke-linecap:butt;stroke-linejoin:miter;stroke-opacity:1" d="M 67.8079,294.113 76.3156,294.113 z" id="boundary" inkscape:connector-curvature="0" />
	<path style="fill:none;stroke:red;stroke-width:1px;stroke-linecap:butt;stroke-linejoin:miter;stroke-opacity:1" d="M 67.8079,587.63 76.3156,587.63 z" id="boundary" inkscape:connector-curvature="0" />
	<path style="fill:none;stroke:red;stroke-width:1px;stroke-linecap:butt;stroke-linejoin:miter;stroke-opacity:1" d="M 67.8079,750.978 67.8079,759.485 z" id="boundary" inkscape:connector-curvature="0" />
	<path style="fill:none;stroke:red;stroke-width:1px;stroke-linecap:butt;stroke-linejoin:miter;stroke-opacity:1" d="M 67.8079,750.978 72.0617,742.47 z" id="boundary" inkscape:connector-curvature="0" />
	<path style="fill:none;stroke:red;stroke-width:1px;stroke-linecap:butt;stroke-linejoin:miter;stroke-opacity:1" d="M 69.5094,842.861 78.0172,842.861 z" id="boundary" inkscape:connector-curvature="0" />
	<path style="fill:none;stroke:red;stroke-width:1px;stroke-linecap:butt;stroke-linejoin:miter;stroke-opacity:1" d="M 70.3602,501.702 74.6141,493.194 z" id="boundary" inkscape:connector-curvature="0" />
	<path style="fill:none;stroke:red;stroke-width:1px;stroke-linecap:butt;stroke-linejoin:miter;stroke-opacity:1" d="M 72.0617,733.962 72.0617,742.47 z" id="boundary" inkscape:connector-curvature="0" />
	<path style="fill:none;stroke:red;stroke-width:1px;stroke-linecap:butt;stroke-linejoin:miter;stroke-opacity:1" d="M 72.0617,733.962 76.3156,721.201 z" id="boundary" inkscape:connector-curvature="0" />
	<path style="fill:none;stroke:red;stroke-width:1px;stroke-linecap:butt;stroke-linejoin:miter;stroke-opacity:1" d="M 72.9125,243.918 79.7187,237.962 z" id="boundary" inkscape:connector-curvature="0" />
	<path style="fill:none;stroke:red;stroke-width:1px;stroke-linecap:butt;stroke-linejoin:miter;stroke-opacity:1" d="M 74.6141,493.194 76.3156,478.731 z" id="boundary" inkscape:connector-curvature="0" />
	<path style="fill:none;stroke:red;stroke-width:1px;stroke-linecap:butt;stroke-linejoin:miter;stroke-opacity:1" d="M 76.3156,294.113 84.8233,294.113 z" id="boundary" inkscape:connector-curvature="0" />
	<path style="fill:none;stroke:red;stroke-width:1px;stroke-linecap:butt;stroke-linejoin:miter;stroke-opacity:1" d="M 76.3156,478.731 80.5695,470.223 z" id="boundary" inkscape:connector-curvature="0" />
	<path style="fill:none;stroke:red;stroke-width:1px;stroke-linecap:butt;stroke-linejoin:miter;stroke-opacity:1" d="M 76.3156,587.63 84.8233,587.63 z" id="boundary" inkscape:connector-curvature="0" />
	<path style="fill:none;stroke:red;stroke-width:1px;stroke-linecap:butt;stroke-linejoin:miter;stroke-opacity:1" d="M 76.3156,721.201 80.5695,708.439 z" id="boundary" inkscape:connector-curvature="0" />
	<path style="fill:none;stroke:red;stroke-width:1px;stroke-linecap:butt;stroke-linejoin:miter;stroke-opacity:1" d="M 78.0172,842.861 86.5249,842.861 z" id="boundary" inkscape:connector-curvature="0" />
	<path style="fill:none;stroke:red;stroke-width:1px;stroke-linecap:butt;stroke-linejoin:miter;stroke-opacity:1" d="M 79.7187,237.962 83.1218,229.455 z" id="boundary" inkscape:connector-curvature="0" />
	<path style="fill:none;stroke:red;stroke-width:1px;stroke-linecap:butt;stroke-linejoin:miter;stroke-opacity:1" d="M 80.5695,470.223 84.8233,457.461 z" id="boundary" inkscape:connector-curvature="0" />
	<path style="fill:none;stroke:red;stroke-width:1px;stroke-linecap:butt;stroke-linejoin:miter;stroke-opacity:1" d="M 80.5695,708.439 84.8233,699.931 z" id="boundary" inkscape:connector-curvature="0" />
	<path style="fill:none;stroke:red;stroke-width:1px;stroke-linecap:butt;stroke-linejoin:miter;stroke-opacity:1" d="M 83.1218,229.455 89.928,222.648 z" id="boundary" inkscape:connector-curvature="0" />
	<path style="fill:none;stroke:red;stroke-width:1px;stroke-linecap:butt;stroke-linejoin:miter;stroke-opacity:1" d="M 84.8233,294.113 93.331,294.113 z" id="boundary" inkscape:connector-curvature="0" />
	<path style="fill:none;stroke:red;stroke-width:1px;stroke-linecap:butt;stroke-linejoin:miter;stroke-opacity:1" d="M 84.8233,457.461 89.0772,444.7 z" id="boundary" inkscape:connector-curvature="0" />
	<path style="fill:none;stroke:red;stroke-width:1px;stroke-linecap:butt;stroke-linejoin:miter;stroke-opacity:1" d="M 84.8233,587.63 92.4803,583.376 z" id="boundary" inkscape:connector-curvature="0" />
	<path style="fill:none;stroke:red;stroke-width:1px;stroke-linecap:butt;stroke-linejoin:miter;stroke-opacity:1" d="M 84.8233,691.424 84.8233,699.931 z" id="boundary" inkscape:connector-curvature="0" />
	<path style="fill:none;stroke:red;stroke-width:1px;stroke-linecap:butt;stroke-linejoin:miter;stroke-opacity:1" d="M 84.8233,691.424 89.0772,682.916 z" id="boundary" inkscape:connector-curvature="0" />
	<path style="fill:none;stroke:red;stroke-width:1px;stroke-linecap:butt;stroke-linejoin:miter;stroke-opacity:1" d="M 86.5249,842.861 95.0326,842.861 z" id="boundary" inkscape:connector-curvature="0" />
	<path style="fill:none;stroke:red;stroke-width:1px;stroke-linecap:butt;stroke-linejoin:miter;stroke-opacity:1" d="M 89.0772,444.7 93.331,431.938 z" id="boundary" inkscape:connector-curvature="0" />
	<path style="fill:none;stroke:red;stroke-width:1px;stroke-linecap:butt;stroke-linejoin:miter;stroke-opacity:1" d="M 89.0772,682.916 93.331,674.408 z" id="boundary" inkscape:connector-curvature="0" />
	<path style="fill:none;stroke:red;stroke-width:1px;stroke-linecap:butt;stroke-linejoin:miter;stroke-opacity:1" d="M 89.928,222.648 96.7341,216.693 z" id="boundary" inkscape:connector-curvature="0" />
	<path style="fill:none;stroke:red;stroke-width:1px;stroke-linecap:butt;stroke-linejoin:miter;stroke-opacity:1" d="M 92.4803,583.376 100.988,583.376 z" id="boundary" inkscape:connector-curvature="0" />
	<path style="fill:none;stroke:red;stroke-width:1px;stroke-linecap:butt;stroke-linejoin:miter;stroke-opacity:1" d="M 93.331,294.113 100.988,289.859 z" id="boundary" inkscape:connector-curvature="0" />
	<path style="fill:none;stroke:red;stroke-width:1px;stroke-linecap:butt;stroke-linejoin:miter;stroke-opacity:1" d="M 93.331,431.938 97.5849,419.177 z" id="boundary" inkscape:connector-curvature="0" />
	<path style="fill:none;stroke:red;stroke-width:1px;stroke-linecap:butt;stroke-linejoin:miter;stroke-opacity:1" d="M 93.331,665.901 93.331,674.408 z" id="boundary" inkscape:connector-curvature="0" />
	<path style="fill:none;stroke:red;stroke-width:1px;stroke-linecap:butt;stroke-linejoin:miter;stroke-opacity:1" d="M 93.331,665.901 97.5849,657.393 z" id="boundary" inkscape:connector-curvature="0" />
	<path style="fill:none;stroke:red;stroke-width:1px;stroke-linecap:butt;stroke-linejoin:miter;stroke-opacity:1" d="M 95.0326,842.861 102.69,838.607 z" id="boundary" inkscape:connector-curvature="0" />
	<path style="fill:none;stroke:red;stroke-width:1px;stroke-linecap:butt;stroke-linejoin:miter;stroke-opacity:1" d="M 96.7341,216.693 102.69,209.887 z" id="boundary" inkscape:connector-curvature="0" />
	<path style="fill:none;stroke:red;stroke-width:1px;stroke-linecap:butt;stroke-linejoin:miter;stroke-opacity:1" d="M 97.5849,410.669 97.5849,419.177 z" id="boundary" inkscape:connector-curvature="0" />
	<path style="fill:none;stroke:red;stroke-width:1px;stroke-linecap:butt;stroke-linejoin:miter;stroke-opacity:1" d="M 97.5849,410.669 104.391,403.863 z" id="boundary" inkscape:connector-curvature="0" />
	<path style="fill:none;stroke:red;stroke-width:1px;stroke-linecap:butt;stroke-linejoin:miter;stroke-opacity:1" d="M 97.5849,648.885 97.5849,657.393 z" id="boundary" inkscape:connector-curvature="0" />
	<path style="fill:none;stroke:red;stroke-width:1px;stroke-linecap:butt;stroke-linejoin:miter;stroke-opacity:1" d="M 97.5849,648.885 101.839,640.377 z" id="boundary" inkscape:connector-curvature="0" />
	<path style="fill:none;stroke:red;stroke-width:1px;stroke-linecap:butt;stroke-linejoin:miter;stroke-opacity:1" d="M 100.988,289.859 109.496,289.859 z" id="boundary" inkscape:connector-curvature="0" />
	<path style="fill:none;stroke:red;stroke-width:1px;stroke-linecap:butt;stroke-linejoin:miter;stroke-opacity:1" d="M 100.988,583.376 109.496,583.376 z" id="boundary" inkscape:connector-curvature="0" />
	<path style="fill:none;stroke:red;stroke-width:1px;stroke-linecap:butt;stroke-linejoin:miter;stroke-opacity:1" d="M 101.839,631.87 101.839,640.377 z" id="boundary" inkscape:connector-curvature="0" />
	<path style="fill:none;stroke:red;stroke-width:1px;stroke-linecap:butt;stroke-linejoin:miter;stroke-opacity:1" d="M 101.839,631.87 106.093,623.362 z" id="boundary" inkscape:connector-curvature="0" />
	<path style="fill:none;stroke:red;stroke-width:1px;stroke-linecap:butt;stroke-linejoin:miter;stroke-opacity:1" d="M 102.69,209.887 109.496,203.931 z" id="boundary" inkscape:connector-curvature="0" />
	<path style="fill:none;stroke:red;stroke-width:1px;stroke-linecap:butt;stroke-linejoin:miter;stroke-opacity:1" d="M 102.69,838.607 111.197,838.607 z" id="boundary" inkscape:connector-curvature="0" />
	<path style="fill:none;stroke:red;stroke-width:1px;stroke-linecap:butt;stroke-linejoin:miter;stroke-opacity:1" d="M 104.391,403.863 106.093,389.4 z" id="boundary" inkscape:connector-curvature="0" />
	<path style="fill:none;stroke:red;stroke-width:1px;stroke-linecap:butt;stroke-linejoin:miter;stroke-opacity:1" d="M 106.093,380.892 106.093,389.4 z" id="boundary" inkscape:connector-curvature="0" />
	<path style="fill:none;stroke:red;stroke-width:1px;stroke-linecap:butt;stroke-linejoin:miter;stroke-opacity:1" d="M 106.093,380.892 110.346,366.429 z" id="boundary" inkscape:connector-curvature="0" />
	<path style="fill:none;stroke:red;stroke-width:1px;stroke-linecap:butt;stroke-linejoin:miter;stroke-opacity:1" d="M 106.093,606.346 106.093,614.854 z" id="boundary" inkscape:connector-curvature="0" />
	<path style="fill:none;stroke:red;stroke-width:1px;stroke-linecap:butt;stroke-linejoin:miter;stroke-opacity:1" d="M 106.093,606.346 110.346,593.585 z" id="boundary" inkscape:connector-curvature="0" />
	<path style="fill:none;stroke:red;stroke-width:1px;stroke-linecap:butt;stroke-linejoin:miter;stroke-opacity:1" d="M 106.093,614.854 106.093,623.362 z" id="boundary" inkscape:connector-curvature="0" />
	<path style="fill:none;stroke:red;stroke-width:1px;stroke-linecap:butt;stroke-linejoin:miter;stroke-opacity:1" d="M 109.496,203.931 114.6,193.722 z" id="boundary" inkscape:connector-curvature="0" />
	<path style="fill:none;stroke:red;stroke-width:1px;stroke-linecap:butt;stroke-linejoin:miter;stroke-opacity:1" d="M 109.496,289.859 110.346,298.367 z" id="boundary" inkscape:connector-curvature="0" />
	<path style="fill:none;stroke:red;stroke-width:1px;stroke-linecap:butt;stroke-linejoin:miter;stroke-opacity:1" d="M 109.496,583.376 110.346,593.585 z" id="boundary" inkscape:connector-curvature="0" />
	<path style="fill:none;stroke:red;stroke-width:1px;stroke-linecap:butt;stroke-linejoin:miter;stroke-opacity:1" d="M 110.346,298.367 110.346,306.875 z" id="boundary" inkscape:connector-curvature="0" />
	<path style="fill:none;stroke:red;stroke-width:1px;stroke-linecap:butt;stroke-linejoin:miter;stroke-opacity:1" d="M 110.346,306.875 110.346,315.383 z" id="boundary" inkscape:connector-curvature="0" />
	<path style="fill:none;stroke:red;stroke-width:1px;stroke-linecap:butt;stroke-linejoin:miter;stroke-opacity:1" d="M 110.346,315.383 110.346,323.89 z" id="boundary" inkscape:connector-curvature="0" />
	<path style="fill:none;stroke:red;stroke-width:1px;stroke-linecap:butt;stroke-linejoin:miter;stroke-opacity:1" d="M 110.346,323.89 110.346,332.398 z" id="boundary" inkscape:connector-curvature="0" />
	<path style="fill:none;stroke:red;stroke-width:1px;stroke-linecap:butt;stroke-linejoin:miter;stroke-opacity:1" d="M 110.346,332.398 110.346,340.906 z" id="boundary" inkscape:connector-curvature="0" />
	<path style="fill:none;stroke:red;stroke-width:1px;stroke-linecap:butt;stroke-linejoin:miter;stroke-opacity:1" d="M 110.346,340.906 110.346,349.413 z" id="boundary" inkscape:connector-curvature="0" />
	<path style="fill:none;stroke:red;stroke-width:1px;stroke-linecap:butt;stroke-linejoin:miter;stroke-opacity:1" d="M 110.346,349.413 110.346,357.921 z" id="boundary" inkscape:connector-curvature="0" />
	<path style="fill:none;stroke:red;stroke-width:1px;stroke-linecap:butt;stroke-linejoin:miter;stroke-opacity:1" d="M 110.346,357.921 110.346,366.429 z" id="boundary" inkscape:connector-curvature="0" />
	<path style="fill:none;stroke:red;stroke-width:1px;stroke-linecap:butt;stroke-linejoin:miter;stroke-opacity:1" d="M 111.197,838.607 119.705,838.607 z" id="boundary" inkscape:connector-curvature="0" />
	<path style="fill:none;stroke:red;stroke-width:1px;stroke-linecap:butt;stroke-linejoin:miter;stroke-opacity:1" d="M 114.6,193.722 121.407,186.916 z" id="boundary" inkscape:connector-curvature="0" />
	<path style="fill:none;stroke:red;stroke-width:1px;stroke-linecap:butt;stroke-linejoin:miter;stroke-opacity:1" d="M 119.705,838.607 128.213,838.607 z" id="boundary" inkscape:connector-curvature="0" />
	<path style="fill:none;stroke:red;stroke-width:1px;stroke-linecap:butt;stroke-linejoin:miter;stroke-opacity:1" d="M 121.407,186.916 127.362,176.707 z" id="boundary" inkscape:connector-curvature="0" />
	<path style="fill:none;stroke:red;stroke-width:1px;stroke-linecap:butt;stroke-linejoin:miter;stroke-opacity:1" d="M 127.362,176.707 131.616,168.199 z" id="boundary" inkscape:connector-curvature="0" />
	<path style="fill:none;stroke:red;stroke-width:1px;stroke-linecap:butt;stroke-linejoin:miter;stroke-opacity:1" d="M 128.213,838.607 136.72,838.607 z" id="boundary" inkscape:connector-curvature="0" />
	<path style="fill:none;stroke:red;stroke-width:1px;stroke-linecap:butt;stroke-linejoin:miter;stroke-opacity:1" d="M 131.616,168.199 138.422,161.393 z" id="boundary" inkscape:connector-curvature="0" />
	<path style="fill:none;stroke:red;stroke-width:1px;stroke-linecap:butt;stroke-linejoin:miter;stroke-opacity:1" d="M 136.72,838.607 145.228,838.607 z" id="boundary" inkscape:connector-curvature="0" />
	<path style="fill:none;stroke:red;stroke-width:1px;stroke-linecap:butt;stroke-linejoin:miter;stroke-opacity:1" d="M 138.422,161.393 142.676,152.885 z" id="boundary" inkscape:connector-curvature="0" />
	<path style="fill:none;stroke:red;stroke-width:1px;stroke-linecap:butt;stroke-linejoin:miter;stroke-opacity:1" d="M 142.676,152.885 148.631,142.676 z" id="boundary" inkscape:connector-curvature="0" />
	<path style="fill:none;stroke:red;stroke-width:1px;stroke-linecap:butt;stroke-linejoin:miter;stroke-opacity:1" d="M 145.228,838.607 153.736,838.607 z" id="boundary" inkscape:connector-curvature="0" />
	<path style="fill:none;stroke:red;stroke-width:1px;stroke-linecap:butt;stroke-linejoin:miter;stroke-opacity:1" d="M 148.631,134.168 148.631,142.676 z" id="boundary" inkscape:connector-curvature="0" />
	<path style="fill:none;stroke:red;stroke-width:1px;stroke-linecap:butt;stroke-linejoin:miter;stroke-opacity:1" d="M 148.631,134.168 152.885,125.66 z" id="boundary" inkscape:connector-curvature="0" />
	<path style="fill:none;stroke:red;stroke-width:1px;stroke-linecap:butt;stroke-linejoin:miter;stroke-opacity:1" d="M 152.885,125.66 159.691,118.854 z" id="boundary" inkscape:connector-curvature="0" />
	<path style="fill:none;stroke:red;stroke-width:1px;stroke-linecap:butt;stroke-linejoin:miter;stroke-opacity:1" d="M 153.736,838.607 162.244,838.607 z" id="boundary" inkscape:connector-curvature="0" />
	<path style="fill:none;stroke:red;stroke-width:1px;stroke-linecap:butt;stroke-linejoin:miter;stroke-opacity:1" d="M 159.691,118.854 161.393,108.645 z" id="boundary" inkscape:connector-curvature="0" />
	<path style="fill:none;stroke:red;stroke-width:1px;stroke-linecap:butt;stroke-linejoin:miter;stroke-opacity:1" d="M 161.393,108.645 165.647,100.137 z" id="boundary" inkscape:connector-curvature="0" />
	<path style="fill:none;stroke:red;stroke-width:1px;stroke-linecap:butt;stroke-linejoin:miter;stroke-opacity:1" d="M 162.244,838.607 170.751,838.607 z" id="boundary" inkscape:connector-curvature="0" />
	<path style="fill:none;stroke:red;stroke-width:1px;stroke-linecap:butt;stroke-linejoin:miter;stroke-opacity:1" d="M 165.647,91.6295 165.647,100.137 z" id="boundary" inkscape:connector-curvature="0" />
	<path style="fill:none;stroke:red;stroke-width:1px;stroke-linecap:butt;stroke-linejoin:miter;stroke-opacity:1" d="M 165.647,91.6295 169.901,78.8679 z" id="boundary" inkscape:connector-curvature="0" />
	<path style="fill:none;stroke:red;stroke-width:1px;stroke-linecap:butt;stroke-linejoin:miter;stroke-opacity:1" d="M 169.901,78.8679 174.154,70.3602 z" id="boundary" inkscape:connector-curvature="0" />
	<path style="fill:none;stroke:red;stroke-width:1px;stroke-linecap:butt;stroke-linejoin:miter;stroke-opacity:1" d="M 170.751,838.607 179.259,838.607 z" id="boundary" inkscape:connector-curvature="0" />
	<path style="fill:none;stroke:red;stroke-width:1px;stroke-linecap:butt;stroke-linejoin:miter;stroke-opacity:1" d="M 174.154,70.3602 178.408,61.8525 z" id="boundary" inkscape:connector-curvature="0" />
	<path style="fill:none;stroke:red;stroke-width:1px;stroke-linecap:butt;stroke-linejoin:miter;stroke-opacity:1" d="M 178.408,53.3448 178.408,61.8525 z" id="boundary" inkscape:connector-curvature="0" />
	<path style="fill:none;stroke:red;stroke-width:1px;stroke-linecap:butt;stroke-linejoin:miter;stroke-opacity:1" d="M 178.408,53.3448 185.214,46.5386 z" id="boundary" inkscape:connector-curvature="0" />
	<path style="fill:none;stroke:red;stroke-width:1px;stroke-linecap:butt;stroke-linejoin:miter;stroke-opacity:1" d="M 179.259,838.607 186.916,834.353 z" id="boundary" inkscape:connector-curvature="0" />
	<path style="fill:none;stroke:red;stroke-width:1px;stroke-linecap:butt;stroke-linejoin:miter;stroke-opacity:1" d="M 185.214,46.5386 186.916,36.3293 z" id="boundary" inkscape:connector-curvature="0" />
	<path style="fill:none;stroke:red;stroke-width:1px;stroke-linecap:butt;stroke-linejoin:miter;stroke-opacity:1" d="M 186.916,36.3293 191.17,27.8216 z" id="boundary" inkscape:connector-curvature="0" />
	<path style="fill:none;stroke:red;stroke-width:1px;stroke-linecap:butt;stroke-linejoin:miter;stroke-opacity:1" d="M 186.916,834.353 195.424,834.353 z" id="boundary" inkscape:connector-curvature="0" />
	<path style="fill:none;stroke:red;stroke-width:1px;stroke-linecap:butt;stroke-linejoin:miter;stroke-opacity:1" d="M 191.17,10.8062 191.17,19.3139 z" id="boundary" inkscape:connector-curvature="0" />
	<path style="fill:none;stroke:red;stroke-width:1px;stroke-linecap:butt;stroke-linejoin:miter;stroke-opacity:1" d="M 191.17,10.8062 197.976,4 z" id="boundary" inkscape:connector-curvature="0" />
	<path style="fill:none;stroke:red;stroke-width:1px;stroke-linecap:butt;stroke-linejoin:miter;stroke-opacity:1" d="M 191.17,19.3139 191.17,27.8216 z" id="boundary" inkscape:connector-curvature="0" />
	<path style="fill:none;stroke:red;stroke-width:1px;stroke-linecap:butt;stroke-linejoin:miter;stroke-opacity:1" d="M 195.424,834.353 199.678,842.01 z" id="boundary" inkscape:connector-curvature="0" />
	<path style="fill:none;stroke:red;stroke-width:1px;stroke-linecap:butt;stroke-linejoin:miter;stroke-opacity:1" d="M 197.976,4 206.484,4 z" id="boundary" inkscape:connector-curvature="0" />
	<path style="fill:none;stroke:red;stroke-width:1px;stroke-linecap:butt;stroke-linejoin:miter;stroke-opacity:1" d="M 199.678,842.01 199.678,850.518 z" id="boundary" inkscape:connector-curvature="0" />
	<path style="fill:none;stroke:red;stroke-width:1px;stroke-linecap:butt;stroke-linejoin:miter;stroke-opacity:1" d="M 199.678,850.518 199.678,859.026 z" id="boundary" inkscape:connector-curvature="0" />
	<path style="fill:none;stroke:red;stroke-width:1px;stroke-linecap:butt;stroke-linejoin:miter;stroke-opacity:1" d="M 199.678,859.026 203.931,866.683 z" id="boundary" inkscape:connector-curvature="0" />
	<path style="fill:none;stroke:red;stroke-width:1px;stroke-linecap:butt;stroke-linejoin:miter;stroke-opacity:1" d="M 203.931,866.683 203.931,875.19 z" id="boundary" inkscape:connector-curvature="0" />
	<path style="fill:none;stroke:red;stroke-width:1px;stroke-linecap:butt;stroke-linejoin:miter;stroke-opacity:1" d="M 203.931,875.19 208.185,882.847 z" id="boundary" inkscape:connector-curvature="0" />
	<path style="fill:none;stroke:red;stroke-width:1px;stroke-linecap:butt;stroke-linejoin:miter;stroke-opacity:1" d="M 206.484,4 212.439,10.8062 z" id="boundary" inkscape:connector-curvature="0" />
	<path style="fill:none;stroke:red;stroke-width:1px;stroke-linecap:butt;stroke-linejoin:miter;stroke-opacity:1" d="M 208.185,882.847 208.185,891.355 z" id="boundary" inkscape:connector-curvature="0" />
	<path style="fill:none;stroke:red;stroke-width:1px;stroke-linecap:butt;stroke-linejoin:miter;stroke-opacity:1" d="M 208.185,891.355 208.185,899.863 z" id="boundary" inkscape:connector-curvature="0" />
	<path style="fill:none;stroke:red;stroke-width:1px;stroke-linecap:butt;stroke-linejoin:miter;stroke-opacity:1" d="M 208.185,899.863 212.439,907.52 z" id="boundary" inkscape:connector-curvature="0" />
	<path style="fill:none;stroke:red;stroke-width:1px;stroke-linecap:butt;stroke-linejoin:miter;stroke-opacity:1" d="M 212.439,10.8062 217.544,17.6123 z" id="boundary" inkscape:connector-curvature="0" />
	<path style="fill:none;stroke:red;stroke-width:1px;stroke-linecap:butt;stroke-linejoin:miter;stroke-opacity:1" d="M 212.439,907.52 212.439,916.027 z" id="boundary" inkscape:connector-curvature="0" />
	<path style="fill:none;stroke:red;stroke-width:1px;stroke-linecap:butt;stroke-linejoin:miter;stroke-opacity:1" d="M 212.439,916.027 216.693,923.684 z" id="boundary" inkscape:connector-curvature="0" />
	<path style="fill:none;stroke:red;stroke-width:1px;stroke-linecap:butt;stroke-linejoin:miter;stroke-opacity:1" d="M 216.693,923.684 216.693,932.192 z" id="boundary" inkscape:connector-curvature="0" />
	<path style="fill:none;stroke:red;stroke-width:1px;stroke-linecap:butt;stroke-linejoin:miter;stroke-opacity:1" d="M 216.693,932.192 216.693,940.7 z" id="boundary" inkscape:connector-curvature="0" />
	<path style="fill:none;stroke:red;stroke-width:1px;stroke-linecap:butt;stroke-linejoin:miter;stroke-opacity:1" d="M 216.693,940.7 216.693,949.208 z" id="boundary" inkscape:connector-curvature="0" />
	<path style="fill:none;stroke:red;stroke-width:1px;stroke-linecap:butt;stroke-linejoin:miter;stroke-opacity:1" d="M 216.693,949.208 216.693,957.715 z" id="boundary" inkscape:connector-curvature="0" />
	<path style="fill:none;stroke:red;stroke-width:1px;stroke-linecap:butt;stroke-linejoin:miter;stroke-opacity:1" d="M 216.693,957.715 216.693,966.223 z" id="boundary" inkscape:connector-curvature="0" />
	<path style="fill:none;stroke:red;stroke-width:1px;stroke-linecap:butt;stroke-linejoin:miter;stroke-opacity:1" d="M 216.693,966.223 216.693,974.731 z" id="boundary" inkscape:connector-curvature="0" />
	<path style="fill:none;stroke:red;stroke-width:1px;stroke-linecap:butt;stroke-linejoin:miter;stroke-opacity:1" d="M 216.693,974.731 216.693,983.238 z" id="boundary" inkscape:connector-curvature="0" />
	<path style="fill:none;stroke:red;stroke-width:1px;stroke-linecap:butt;stroke-linejoin:miter;stroke-opacity:1" d="M 216.693,983.238 219.245,991.746 z" id="boundary" inkscape:connector-curvature="0" />
	<path style="fill:none;stroke:red;stroke-width:1px;stroke-linecap:butt;stroke-linejoin:miter;stroke-opacity:1" d="M 217.544,17.6123 219.245,26.1201 z" id="boundary" inkscape:connector-curvature="0" />
	<path style="fill:none;stroke:red;stroke-width:1px;stroke-linecap:butt;stroke-linejoin:miter;stroke-opacity:1" d="M 219.245,26.1201 226.051,32.0755 z" id="boundary" inkscape:connector-curvature="0" />
	<path style="fill:none;stroke:red;stroke-width:1px;stroke-linecap:butt;stroke-linejoin:miter;stroke-opacity:1" d="M 219.245,991.746 226.902,996 z" id="boundary" inkscape:connector-curvature="0" />
	<path style="fill:none;stroke:red;stroke-width:1px;stroke-linecap:butt;stroke-linejoin:miter;stroke-opacity:1" d="M 226.051,32.0755 230.305,39.7324 z" id="boundary" inkscape:connector-curvature="0" />
	<path style="fill:none;stroke:red;stroke-width:1px;stroke-linecap:butt;stroke-linejoin:miter;stroke-opacity:1" d="M 226.902,996 235.41,996 z" id="boundary" inkscape:connector-curvature="0" />
	<path style="fill:none;stroke:red;stroke-width:1px;stroke-linecap:butt;stroke-linejoin:miter;stroke-opacity:1" d="M 230.305,39.7324 234.559,47.3894 z" id="boundary" inkscape:connector-curvature="0" />
	<path style="fill:none;stroke:red;stroke-width:1px;stroke-linecap:butt;stroke-linejoin:miter;stroke-opacity:1" d="M 234.559,47.3894 238.813,55.0463 z" id="boundary" inkscape:connector-curvature="0" />
	<path style="fill:none;stroke:red;stroke-width:1px;stroke-linecap:butt;stroke-linejoin:miter;stroke-opacity:1" d="M 235.41,996 243.918,996 z" id="boundary" inkscape:connector-curvature="0" />
	<path style="fill:none;stroke:red;stroke-width:1px;stroke-linecap:butt;stroke-linejoin:miter;stroke-opacity:1" d="M 238.813,55.0463 245.619,60.1509 z" id="boundary" inkscape:connector-curvature="0" />
	<path style="fill:none;stroke:red;stroke-width:1px;stroke-linecap:butt;stroke-linejoin:miter;stroke-opacity:1" d="M 243.918,996 252.425,996 z" id="boundary" inkscape:connector-curvature="0" />
	<path style="fill:none;stroke:red;stroke-width:1px;stroke-linecap:butt;stroke-linejoin:miter;stroke-opacity:1" d="M 245.619,60.1509 249.022,68.6587 z" id="boundary" inkscape:connector-curvature="0" />
	<path style="fill:none;stroke:red;stroke-width:1px;stroke-linecap:butt;stroke-linejoin:miter;stroke-opacity:1" d="M 249.022,68.6587 255.828,74.6141 z" id="boundary" inkscape:connector-curvature="0" />
	<path style="fill:none;stroke:red;stroke-width:1px;stroke-linecap:butt;stroke-linejoin:miter;stroke-opacity:1" d="M 252.425,996 260.082,991.746 z" id="boundary" inkscape:connector-curvature="0" />
	<path style="fill:none;stroke:red;stroke-width:1px;stroke-linecap:butt;stroke-linejoin:miter;stroke-opacity:1" d="M 255.828,74.6141 259.232,83.1218 z" id="boundary" inkscape:connector-curvature="0" />
	<path style="fill:none;stroke:red;stroke-width:1px;stroke-linecap:butt;stroke-linejoin:miter;stroke-opacity:1" d="M 259.232,83.1218 260.082,91.6295 z" id="boundary" inkscape:connector-curvature="0" />
	<path style="fill:none;stroke:red;stroke-width:1px;stroke-linecap:butt;stroke-linejoin:miter;stroke-opacity:1" d="M 260.082,91.6295 264.336,99.2864 z" id="boundary" inkscape:connector-curvature="0" />
	<path style="fill:none;stroke:red;stroke-width:1px;stroke-linecap:butt;stroke-linejoin:miter;stroke-opacity:1" d="M 260.082,991.746 268.59,991.746 z" id="boundary" inkscape:connector-curvature="0" />
	<path style="fill:none;stroke:red;stroke-width:1px;stroke-linecap:butt;stroke-linejoin:miter;stroke-opacity:1" d="M 264.336,99.2864 269.441,106.093 z" id="boundary" inkscape:connector-curvature="0" />
	<path style="fill:none;stroke:red;stroke-width:1px;stroke-linecap:butt;stroke-linejoin:miter;stroke-opacity:1" d="M 268.59,991.746 277.098,991.746 z" id="boundary" inkscape:connector-curvature="0" />
	<path style="fill:none;stroke:red;stroke-width:1px;stroke-linecap:butt;stroke-linejoin:miter;stroke-opacity:1" d="M 269.441,106.093 272.844,114.6 z" id="boundary" inkscape:connector-curvature="0" />
	<path style="fill:none;stroke:red;stroke-width:1px;stroke-linecap:butt;stroke-linejoin:miter;stroke-opacity:1" d="M 272.844,114.6 277.098,122.257 z" id="boundary" inkscape:connector-curvature="0" />
	<path style="fill:none;stroke:red;stroke-width:1px;stroke-linecap:butt;stroke-linejoin:miter;stroke-opacity:1" d="M 277.098,122.257 281.352,129.914 z" id="boundary" inkscape:connector-curvature="0" />
	<path style="fill:none;stroke:red;stroke-width:1px;stroke-linecap:butt;stroke-linejoin:miter;stroke-opacity:1" d="M 277.098,991.746 285.605,991.746 z" id="boundary" inkscape:connector-curvature="0" />
	<path style="fill:none;stroke:red;stroke-width:1px;stroke-linecap:butt;stroke-linejoin:miter;stroke-opacity:1" d="M 281.352,129.914 284.755,138.422 z" id="boundary" inkscape:connector-curvature="0" />
	<path style="fill:none;stroke:red;stroke-width:1px;stroke-linecap:butt;stroke-linejoin:miter;stroke-opacity:1" d="M 284.755,138.422 285.605,146.93 z" id="boundary" inkscape:connector-curvature="0" />
	<path style="fill:none;stroke:red;stroke-width:1px;stroke-linecap:butt;stroke-linejoin:miter;stroke-opacity:1" d="M 285.605,146.93 289.859,154.587 z" id="boundary" inkscape:connector-curvature="0" />
	<path style="fill:none;stroke:red;stroke-width:1px;stroke-linecap:butt;stroke-linejoin:miter;stroke-opacity:1" d="M 285.605,991.746 294.113,991.746 z" id="boundary" inkscape:connector-curvature="0" />
	<path style="fill:none;stroke:red;stroke-width:1px;stroke-linecap:butt;stroke-linejoin:miter;stroke-opacity:1" d="M 289.859,154.587 292.412,163.094 z" id="boundary" inkscape:connector-curvature="0" />
	<path style="fill:none;stroke:red;stroke-width:1px;stroke-linecap:butt;stroke-linejoin:miter;stroke-opacity:1" d="M 292.412,163.094 296.666,170.751 z" id="boundary" inkscape:connector-curvature="0" />
	<path style="fill:none;stroke:red;stroke-width:1px;stroke-linecap:butt;stroke-linejoin:miter;stroke-opacity:1" d="M 294.113,991.746 301.77,987.492 z" id="boundary" inkscape:connector-curvature="0" />
	<path style="fill:none;stroke:red;stroke-width:1px;stroke-linecap:butt;stroke-linejoin:miter;stroke-opacity:1" d="M 296.666,170.751 300.069,179.259 z" id="boundary" inkscape:connector-curvature="0" />
	<path style="fill:none;stroke:red;stroke-width:1px;stroke-linecap:butt;stroke-linejoin:miter;stroke-opacity:1" d="M 300.069,179.259 304.322,186.916 z" id="boundary" inkscape:connector-curvature="0" />
	<path style="fill:none;stroke:red;stroke-width:1px;stroke-linecap:butt;stroke-linejoin:miter;stroke-opacity:1" d="M 301.77,987.492 310.278,987.492 z" id="boundary" inkscape:connector-curvature="0" />
	<path style="fill:none;stroke:red;stroke-width:1px;stroke-linecap:butt;stroke-linejoin:miter;stroke-opacity:1" d="M 304.322,186.916 310.278,193.722 z" id="boundary" inkscape:connector-curvature="0" />
	<path style="fill:none;stroke:red;stroke-width:1px;stroke-linecap:butt;stroke-linejoin:miter;stroke-opacity:1" d="M 310.278,193.722 311.129,202.23 z" id="boundary" inkscape:connector-curvature="0" />
	<path style="fill:none;stroke:red;stroke-width:1px;stroke-linecap:butt;stroke-linejoin:miter;stroke-opacity:1" d="M 310.278,987.492 318.786,987.492 z" id="boundary" inkscape:connector-curvature="0" />
	<path style="fill:none;stroke:red;stroke-width:1px;stroke-linecap:butt;stroke-linejoin:miter;stroke-opacity:1" d="M 311.129,202.23 317.084,209.036 z" id="boundary" inkscape:connector-curvature="0" />
	<path style="fill:none;stroke:red;stroke-width:1px;stroke-linecap:butt;stroke-linejoin:miter;stroke-opacity:1" d="M 315.383,294.113 317.084,302.621 z" id="boundary" inkscape:connector-curvature="0" />
	<path style="fill:none;stroke:red;stroke-width:1px;stroke-linecap:butt;stroke-linejoin:miter;stroke-opacity:1" d="M 315.383,294.113 323.89,294.113 z" id="boundary" inkscape:connector-curvature="0" />
	<path style="fill:none;stroke:red;stroke-width:1px;stroke-linecap:butt;stroke-linejoin:miter;stroke-opacity:1" d="M 317.084,209.036 321.338,216.693 z" id="boundary" inkscape:connector-curvature="0" />
	<path style="fill:none;stroke:red;stroke-width:1px;stroke-linecap:butt;stroke-linejoin:miter;stroke-opacity:1" d="M 317.084,302.621 319.636,311.129 z" id="boundary" inkscape:connector-curvature="0" />
	<path style="fill:none;stroke:red;stroke-width:1px;stroke-linecap:butt;stroke-linejoin:miter;stroke-opacity:1" d="M 318.786,987.492 327.293,987.492 z" id="boundary" inkscape:connector-curvature="0" />
	<path style="fill:none;stroke:red;stroke-width:1px;stroke-linecap:butt;stroke-linejoin:miter;stroke-opacity:1" d="M 319.636,311.129 319.636,319.636 z" id="boundary" inkscape:connector-curvature="0" />
	<path style="fill:none;stroke:red;stroke-width:1px;stroke-linecap:butt;stroke-linejoin:miter;stroke-opacity:1" d="M 319.636,319.636 323.89,327.293 z" id="boundary" inkscape:connector-curvature="0" />
	<path style="fill:none;stroke:red;stroke-width:1px;stroke-linecap:butt;stroke-linejoin:miter;stroke-opacity:1" d="M 321.338,216.693 323.89,225.201 z" id="boundary" inkscape:connector-curvature="0" />
	<path style="fill:none;stroke:red;stroke-width:1px;stroke-linecap:butt;stroke-linejoin:miter;stroke-opacity:1" d="M 323.89,225.201 330.696,230.305 z" id="boundary" inkscape:connector-curvature="0" />
	<path style="fill:none;stroke:red;stroke-width:1px;stroke-linecap:butt;stroke-linejoin:miter;stroke-opacity:1" d="M 323.89,294.113 331.547,298.367 z" id="boundary" inkscape:connector-curvature="0" />
	<path style="fill:none;stroke:red;stroke-width:1px;stroke-linecap:butt;stroke-linejoin:miter;stroke-opacity:1" d="M 323.89,327.293 323.89,335.801 z" id="boundary" inkscape:connector-curvature="0" />
	<path style="fill:none;stroke:red;stroke-width:1px;stroke-linecap:butt;stroke-linejoin:miter;stroke-opacity:1" d="M 323.89,335.801 328.144,343.458 z" id="boundary" inkscape:connector-curvature="0" />
	<path style="fill:none;stroke:red;stroke-width:1px;stroke-linecap:butt;stroke-linejoin:miter;stroke-opacity:1" d="M 327.293,987.492 335.801,987.492 z" id="boundary" inkscape:connector-curvature="0" />
	<path style="fill:none;stroke:red;stroke-width:1px;stroke-linecap:butt;stroke-linejoin:miter;stroke-opacity:1" d="M 328.144,343.458 332.398,351.115 z" id="boundary" inkscape:connector-curvature="0" />
	<path style="fill:none;stroke:red;stroke-width:1px;stroke-linecap:butt;stroke-linejoin:miter;stroke-opacity:1" d="M 330.696,230.305 334.099,238.813 z" id="boundary" inkscape:connector-curvature="0" />
	<path style="fill:none;stroke:red;stroke-width:1px;stroke-linecap:butt;stroke-linejoin:miter;stroke-opacity:1" d="M 331.547,298.367 340.055,298.367 z" id="boundary" inkscape:connector-curvature="0" />
	<path style="fill:none;stroke:red;stroke-width:1px;stroke-linecap:butt;stroke-linejoin:miter;stroke-opacity:1" d="M 332.398,351.115 332.398,359.623 z" id="boundary" inkscape:connector-curvature="0" />
	<path style="fill:none;stroke:red;stroke-width:1px;stroke-linecap:butt;stroke-linejoin:miter;stroke-opacity:1" d="M 332.398,359.623 336.652,367.28 z" id="boundary" inkscape:connector-curvature="0" />
	<path style="fill:none;stroke:red;stroke-width:1px;stroke-linecap:butt;stroke-linejoin:miter;stroke-opacity:1" d="M 334.099,238.813 340.906,244.768 z" id="boundary" inkscape:connector-curvature="0" />
	<path style="fill:none;stroke:red;stroke-width:1px;stroke-linecap:butt;stroke-linejoin:miter;stroke-opacity:1" d="M 335.801,987.492 344.309,987.492 z" id="boundary" inkscape:connector-curvature="0" />
	<path style="fill:none;stroke:red;stroke-width:1px;stroke-linecap:butt;stroke-linejoin:miter;stroke-opacity:1" d="M 336.652,367.28 339.204,375.787 z" id="boundary" inkscape:connector-curvature="0" />
	<path style="fill:none;stroke:red;stroke-width:1px;stroke-linecap:butt;stroke-linejoin:miter;stroke-opacity:1" d="M 339.204,375.787 340.906,384.295 z" id="boundary" inkscape:connector-curvature="0" />
	<path style="fill:none;stroke:red;stroke-width:1px;stroke-linecap:butt;stroke-linejoin:miter;stroke-opacity:1" d="M 340.055,298.367 347.712,302.621 z" id="boundary" inkscape:connector-curvature="0" />
	<path style="fill:none;stroke:red;stroke-width:1px;stroke-linecap:butt;stroke-linejoin:miter;stroke-opacity:1" d="M 340.906,244.768 348.563,249.022 z" id="boundary" inkscape:connector-curvature="0" />
	<path style="fill:none;stroke:red;stroke-width:1px;stroke-linecap:butt;stroke-linejoin:miter;stroke-opacity:1" d="M 340.906,384.295 345.16,391.952 z" id="boundary" inkscape:connector-curvature="0" />
	<path style="fill:none;stroke:red;stroke-width:1px;stroke-linecap:butt;stroke-linejoin:miter;stroke-opacity:1" d="M 344.309,987.492 352.816,987.492 z" id="boundary" inkscape:connector-curvature="0" />
	<path style="fill:none;stroke:red;stroke-width:1px;stroke-linecap:butt;stroke-linejoin:miter;stroke-opacity:1" d="M 345.16,391.952 346.861,400.46 z" id="boundary" inkscape:connector-curvature="0" />
	<path style="fill:none;stroke:red;stroke-width:1px;stroke-linecap:butt;stroke-linejoin:miter;stroke-opacity:1" d="M 346.861,400.46 349.413,408.967 z" id="boundary" inkscape:connector-curvature="0" />
	<path style="fill:none;stroke:red;stroke-width:1px;stroke-linecap:butt;stroke-linejoin:miter;stroke-opacity:1" d="M 347.712,302.621 356.22,302.621 z" id="boundary" inkscape:connector-curvature="0" />
	<path style="fill:none;stroke:red;stroke-width:1px;stroke-linecap:butt;stroke-linejoin:miter;stroke-opacity:1" d="M 348.563,249.022 355.369,254.978 z" id="boundary" inkscape:connector-curvature="0" />
	<path style="fill:none;stroke:red;stroke-width:1px;stroke-linecap:butt;stroke-linejoin:miter;stroke-opacity:1" d="M 349.413,408.967 353.667,416.624 z" id="boundary" inkscape:connector-curvature="0" />
	<path style="fill:none;stroke:red;stroke-width:1px;stroke-linecap:butt;stroke-linejoin:miter;stroke-opacity:1" d="M 352.816,987.492 360.473,983.238 z" id="boundary" inkscape:connector-curvature="0" />
	<path style="fill:none;stroke:red;stroke-width:1px;stroke-linecap:butt;stroke-linejoin:miter;stroke-opacity:1" d="M 353.667,416.624 353.667,425.132 z" id="boundary" inkscape:connector-curvature="0" />
	<path style="fill:none;stroke:red;stroke-width:1px;stroke-linecap:butt;stroke-linejoin:miter;stroke-opacity:1" d="M 353.667,425.132 357.921,432.789 z" id="boundary" inkscape:connector-curvature="0" />
	<path style="fill:none;stroke:red;stroke-width:1px;stroke-linecap:butt;stroke-linejoin:miter;stroke-opacity:1" d="M 355.369,254.978 363.026,259.232 z" id="boundary" inkscape:connector-curvature="0" />
	<path style="fill:none;stroke:red;stroke-width:1px;stroke-linecap:butt;stroke-linejoin:miter;stroke-opacity:1" d="M 356.22,302.621 364.727,302.621 z" id="boundary" inkscape:connector-curvature="0" />
	<path style="fill:none;stroke:red;stroke-width:1px;stroke-linecap:butt;stroke-linejoin:miter;stroke-opacity:1" d="M 357.921,432.789 362.175,440.446 z" id="boundary" inkscape:connector-curvature="0" />
	<path style="fill:none;stroke:red;stroke-width:1px;stroke-linecap:butt;stroke-linejoin:miter;stroke-opacity:1" d="M 360.473,983.238 368.981,983.238 z" id="boundary" inkscape:connector-curvature="0" />
	<path style="fill:none;stroke:red;stroke-width:1px;stroke-linecap:butt;stroke-linejoin:miter;stroke-opacity:1" d="M 362.175,440.446 366.429,448.103 z" id="boundary" inkscape:connector-curvature="0" />
	<path style="fill:none;stroke:red;stroke-width:1px;stroke-linecap:butt;stroke-linejoin:miter;stroke-opacity:1" d="M 362.175,824.995 362.175,833.503 z" id="boundary" inkscape:connector-curvature="0" />
	<path style="fill:none;stroke:red;stroke-width:1px;stroke-linecap:butt;stroke-linejoin:miter;stroke-opacity:1" d="M 362.175,824.995 366.429,817.338 z" id="boundary" inkscape:connector-curvature="0" />
	<path style="fill:none;stroke:red;stroke-width:1px;stroke-linecap:butt;stroke-linejoin:miter;stroke-opacity:1" d="M 362.175,833.503 362.175,842.01 z" id="boundary" inkscape:connector-curvature="0" />
	<path style="fill:none;stroke:red;stroke-width:1px;stroke-linecap:butt;stroke-linejoin:miter;stroke-opacity:1" d="M 362.175,842.01 366.429,849.667 z" id="boundary" inkscape:connector-curvature="0" />
	<path style="fill:none;stroke:red;stroke-width:1px;stroke-linecap:butt;stroke-linejoin:miter;stroke-opacity:1" d="M 363.026,259.232 370.683,263.485 z" id="boundary" inkscape:connector-curvature="0" />
	<path style="fill:none;stroke:red;stroke-width:1px;stroke-linecap:butt;stroke-linejoin:miter;stroke-opacity:1" d="M 364.727,302.621 373.235,302.621 z" id="boundary" inkscape:connector-curvature="0" />
	<path style="fill:none;stroke:red;stroke-width:1px;stroke-linecap:butt;stroke-linejoin:miter;stroke-opacity:1" d="M 366.429,448.103 370.683,455.76 z" id="boundary" inkscape:connector-curvature="0" />
	<path style="fill:none;stroke:red;stroke-width:1px;stroke-linecap:butt;stroke-linejoin:miter;stroke-opacity:1" d="M 366.429,817.338 374.937,817.338 z" id="boundary" inkscape:connector-curvature="0" />
	<path style="fill:none;stroke:red;stroke-width:1px;stroke-linecap:butt;stroke-linejoin:miter;stroke-opacity:1" d="M 366.429,849.667 370.683,857.324 z" id="boundary" inkscape:connector-curvature="0" />
	<path style="fill:none;stroke:red;stroke-width:1px;stroke-linecap:butt;stroke-linejoin:miter;stroke-opacity:1" d="M 368.981,983.238 377.489,983.238 z" id="boundary" inkscape:connector-curvature="0" />
	<path style="fill:none;stroke:red;stroke-width:1px;stroke-linecap:butt;stroke-linejoin:miter;stroke-opacity:1" d="M 370.683,263.485 379.19,266.038 z" id="boundary" inkscape:connector-curvature="0" />
	<path style="fill:none;stroke:red;stroke-width:1px;stroke-linecap:butt;stroke-linejoin:miter;stroke-opacity:1" d="M 370.683,455.76 374.937,463.417 z" id="boundary" inkscape:connector-curvature="0" />
	<path style="fill:none;stroke:red;stroke-width:1px;stroke-linecap:butt;stroke-linejoin:miter;stroke-opacity:1" d="M 370.683,857.324 374.937,864.981 z" id="boundary" inkscape:connector-curvature="0" />
	<path style="fill:none;stroke:red;stroke-width:1px;stroke-linecap:butt;stroke-linejoin:miter;stroke-opacity:1" d="M 373.235,302.621 381.743,300.919 z" id="boundary" inkscape:connector-curvature="0" />
	<path style="fill:none;stroke:red;stroke-width:1px;stroke-linecap:butt;stroke-linejoin:miter;stroke-opacity:1" d="M 374.937,463.417 379.19,471.074 z" id="boundary" inkscape:connector-curvature="0" />
	<path style="fill:none;stroke:red;stroke-width:1px;stroke-linecap:butt;stroke-linejoin:miter;stroke-opacity:1" d="M 374.937,817.338 383.444,817.338 z" id="boundary" inkscape:connector-curvature="0" />
	<path style="fill:none;stroke:red;stroke-width:1px;stroke-linecap:butt;stroke-linejoin:miter;stroke-opacity:1" d="M 374.937,864.981 377.489,873.489 z" id="boundary" inkscape:connector-curvature="0" />
	<path style="fill:none;stroke:red;stroke-width:1px;stroke-linecap:butt;stroke-linejoin:miter;stroke-opacity:1" d="M 377.489,873.489 379.19,881.997 z" id="boundary" inkscape:connector-curvature="0" />
	<path style="fill:none;stroke:red;stroke-width:1px;stroke-linecap:butt;stroke-linejoin:miter;stroke-opacity:1" d="M 377.489,983.238 385.146,978.134 z" id="boundary" inkscape:connector-curvature="0" />
	<path style="fill:none;stroke:red;stroke-width:1px;stroke-linecap:butt;stroke-linejoin:miter;stroke-opacity:1" d="M 379.19,266.038 386.847,270.292 z" id="boundary" inkscape:connector-curvature="0" />
	<path style="fill:none;stroke:red;stroke-width:1px;stroke-linecap:butt;stroke-linejoin:miter;stroke-opacity:1" d="M 379.19,471.074 383.444,478.731 z" id="boundary" inkscape:connector-curvature="0" />
	<path style="fill:none;stroke:red;stroke-width:1px;stroke-linecap:butt;stroke-linejoin:miter;stroke-opacity:1" d="M 379.19,881.997 383.444,889.654 z" id="boundary" inkscape:connector-curvature="0" />
	<path style="fill:none;stroke:red;stroke-width:1px;stroke-linecap:butt;stroke-linejoin:miter;stroke-opacity:1" d="M 381.743,300.919 390.25,296.666 z" id="boundary" inkscape:connector-curvature="0" />
	<path style="fill:none;stroke:red;stroke-width:1px;stroke-linecap:butt;stroke-linejoin:miter;stroke-opacity:1" d="M 383.444,478.731 389.4,485.537 z" id="boundary" inkscape:connector-curvature="0" />
	<path style="fill:none;stroke:red;stroke-width:1px;stroke-linecap:butt;stroke-linejoin:miter;stroke-opacity:1" d="M 383.444,599.54 383.444,608.048 z" id="boundary" inkscape:connector-curvature="0" />
	<path style="fill:none;stroke:red;stroke-width:1px;stroke-linecap:butt;stroke-linejoin:miter;stroke-opacity:1" d="M 383.444,599.54 387.698,591.883 z" id="boundary" inkscape:connector-curvature="0" />
	<path style="fill:none;stroke:red;stroke-width:1px;stroke-linecap:butt;stroke-linejoin:miter;stroke-opacity:1" d="M 383.444,608.048 387.698,615.705 z" id="boundary" inkscape:connector-curvature="0" />
	<path style="fill:none;stroke:red;stroke-width:1px;stroke-linecap:butt;stroke-linejoin:miter;stroke-opacity:1" d="M 383.444,817.338 391.952,817.338 z" id="boundary" inkscape:connector-curvature="0" />
	<path style="fill:none;stroke:red;stroke-width:1px;stroke-linecap:butt;stroke-linejoin:miter;stroke-opacity:1" d="M 383.444,889.654 383.444,898.161 z" id="boundary" inkscape:connector-curvature="0" />
	<path style="fill:none;stroke:red;stroke-width:1px;stroke-linecap:butt;stroke-linejoin:miter;stroke-opacity:1" d="M 383.444,898.161 387.698,905.818 z" id="boundary" inkscape:connector-curvature="0" />
	<path style="fill:none;stroke:red;stroke-width:1px;stroke-linecap:butt;stroke-linejoin:miter;stroke-opacity:1" d="M 385.146,978.134 391.952,970.477 z" id="boundary" inkscape:connector-curvature="0" />
	<path style="fill:none;stroke:red;stroke-width:1px;stroke-linecap:butt;stroke-linejoin:miter;stroke-opacity:1" d="M 386.847,270.292 393.654,276.247 z" id="boundary" inkscape:connector-curvature="0" />
	<path style="fill:none;stroke:red;stroke-width:1px;stroke-linecap:butt;stroke-linejoin:miter;stroke-opacity:1" d="M 387.698,591.883 396.206,587.63 z" id="boundary" inkscape:connector-curvature="0" />
	<path style="fill:none;stroke:red;stroke-width:1px;stroke-linecap:butt;stroke-linejoin:miter;stroke-opacity:1" d="M 387.698,615.705 391.952,623.362 z" id="boundary" inkscape:connector-curvature="0" />
	<path style="fill:none;stroke:red;stroke-width:1px;stroke-linecap:butt;stroke-linejoin:miter;stroke-opacity:1" d="M 387.698,905.818 391.952,913.475 z" id="boundary" inkscape:connector-curvature="0" />
	<path style="fill:none;stroke:red;stroke-width:1px;stroke-linecap:butt;stroke-linejoin:miter;stroke-opacity:1" d="M 389.4,485.537 396.206,491.492 z" id="boundary" inkscape:connector-curvature="0" />
	<path style="fill:none;stroke:red;stroke-width:1px;stroke-linecap:butt;stroke-linejoin:miter;stroke-opacity:1" d="M 390.25,296.666 396.206,284.755 z" id="boundary" inkscape:connector-curvature="0" />
	<path style="fill:none;stroke:red;stroke-width:1px;stroke-linecap:butt;stroke-linejoin:miter;stroke-opacity:1" d="M 391.952,623.362 391.952,631.87 z" id="boundary" inkscape:connector-curvature="0" />
	<path style="fill:none;stroke:red;stroke-width:1px;stroke-linecap:butt;stroke-linejoin:miter;stroke-opacity:1" d="M 391.952,631.87 395.355,640.377 z" id="boundary" inkscape:connector-curvature="0" />
	<path style="fill:none;stroke:red;stroke-width:1px;stroke-linecap:butt;stroke-linejoin:miter;stroke-opacity:1" d="M 391.952,817.338 400.46,817.338 z" id="boundary" inkscape:connector-curvature="0" />
	<path style="fill:none;stroke:red;stroke-width:1px;stroke-linecap:butt;stroke-linejoin:miter;stroke-opacity:1" d="M 391.952,913.475 396.206,921.132 z" id="boundary" inkscape:connector-curvature="0" />
	<path style="fill:none;stroke:red;stroke-width:1px;stroke-linecap:butt;stroke-linejoin:miter;stroke-opacity:1" d="M 391.952,970.477 396.206,955.163 z" id="boundary" inkscape:connector-curvature="0" />
	<path style="fill:none;stroke:red;stroke-width:1px;stroke-linecap:butt;stroke-linejoin:miter;stroke-opacity:1" d="M 393.654,276.247 396.206,284.755 z" id="boundary" inkscape:connector-curvature="0" />
	<path style="fill:none;stroke:red;stroke-width:1px;stroke-linecap:butt;stroke-linejoin:miter;stroke-opacity:1" d="M 395.355,640.377 399.609,648.034 z" id="boundary" inkscape:connector-curvature="0" />
	<path style="fill:none;stroke:red;stroke-width:1px;stroke-linecap:butt;stroke-linejoin:miter;stroke-opacity:1" d="M 396.206,491.492 400.46,499.149 z" id="boundary" inkscape:connector-curvature="0" />
	<path style="fill:none;stroke:red;stroke-width:1px;stroke-linecap:butt;stroke-linejoin:miter;stroke-opacity:1" d="M 396.206,587.63 404.714,587.63 z" id="boundary" inkscape:connector-curvature="0" />
	<path style="fill:none;stroke:red;stroke-width:1px;stroke-linecap:butt;stroke-linejoin:miter;stroke-opacity:1" d="M 396.206,921.132 396.206,929.64 z" id="boundary" inkscape:connector-curvature="0" />
	<path style="fill:none;stroke:red;stroke-width:1px;stroke-linecap:butt;stroke-linejoin:miter;stroke-opacity:1" d="M 396.206,929.64 396.206,938.148 z" id="boundary" inkscape:connector-curvature="0" />
	<path style="fill:none;stroke:red;stroke-width:1px;stroke-linecap:butt;stroke-linejoin:miter;stroke-opacity:1" d="M 396.206,938.148 396.206,946.655 z" id="boundary" inkscape:connector-curvature="0" />
	<path style="fill:none;stroke:red;stroke-width:1px;stroke-linecap:butt;stroke-linejoin:miter;stroke-opacity:1" d="M 396.206,946.655 396.206,955.163 z" id="boundary" inkscape:connector-curvature="0" />
	<path style="fill:none;stroke:red;stroke-width:1px;stroke-linecap:butt;stroke-linejoin:miter;stroke-opacity:1" d="M 399.609,648.034 400.46,656.542 z" id="boundary" inkscape:connector-curvature="0" />
	<path style="fill:none;stroke:red;stroke-width:1px;stroke-linecap:butt;stroke-linejoin:miter;stroke-opacity:1" d="M 400.46,499.149 404.714,506.806 z" id="boundary" inkscape:connector-curvature="0" />
	<path style="fill:none;stroke:red;stroke-width:1px;stroke-linecap:butt;stroke-linejoin:miter;stroke-opacity:1" d="M 400.46,656.542 404.714,664.199 z" id="boundary" inkscape:connector-curvature="0" />
	<path style="fill:none;stroke:red;stroke-width:1px;stroke-linecap:butt;stroke-linejoin:miter;stroke-opacity:1" d="M 400.46,817.338 408.967,817.338 z" id="boundary" inkscape:connector-curvature="0" />
	<path style="fill:none;stroke:red;stroke-width:1px;stroke-linecap:butt;stroke-linejoin:miter;stroke-opacity:1" d="M 404.714,506.806 408.967,514.463 z" id="boundary" inkscape:connector-curvature="0" />
	<path style="fill:none;stroke:red;stroke-width:1px;stroke-linecap:butt;stroke-linejoin:miter;stroke-opacity:1" d="M 404.714,587.63 413.221,587.63 z" id="boundary" inkscape:connector-curvature="0" />
	<path style="fill:none;stroke:red;stroke-width:1px;stroke-linecap:butt;stroke-linejoin:miter;stroke-opacity:1" d="M 404.714,664.199 408.967,671.856 z" id="boundary" inkscape:connector-curvature="0" />
	<path style="fill:none;stroke:red;stroke-width:1px;stroke-linecap:butt;stroke-linejoin:miter;stroke-opacity:1" d="M 408.967,514.463 415.774,519.568 z" id="boundary" inkscape:connector-curvature="0" />
	<path style="fill:none;stroke:red;stroke-width:1px;stroke-linecap:butt;stroke-linejoin:miter;stroke-opacity:1" d="M 408.967,671.856 413.221,679.513 z" id="boundary" inkscape:connector-curvature="0" />
	<path style="fill:none;stroke:red;stroke-width:1px;stroke-linecap:butt;stroke-linejoin:miter;stroke-opacity:1" d="M 408.967,817.338 417.475,817.338 z" id="boundary" inkscape:connector-curvature="0" />
	<path style="fill:none;stroke:red;stroke-width:1px;stroke-linecap:butt;stroke-linejoin:miter;stroke-opacity:1" d="M 413.221,587.63 421.729,587.63 z" id="boundary" inkscape:connector-curvature="0" />
	<path style="fill:none;stroke:red;stroke-width:1px;stroke-linecap:butt;stroke-linejoin:miter;stroke-opacity:1" d="M 413.221,679.513 420.027,685.468 z" id="boundary" inkscape:connector-curvature="0" />
	<path style="fill:none;stroke:red;stroke-width:1px;stroke-linecap:butt;stroke-linejoin:miter;stroke-opacity:1" d="M 415.774,519.568 419.177,528.075 z" id="boundary" inkscape:connector-curvature="0" />
	<path style="fill:none;stroke:red;stroke-width:1px;stroke-linecap:butt;stroke-linejoin:miter;stroke-opacity:1" d="M 417.475,817.338 425.983,817.338 z" id="boundary" inkscape:connector-curvature="0" />
	<path style="fill:none;stroke:red;stroke-width:1px;stroke-linecap:butt;stroke-linejoin:miter;stroke-opacity:1" d="M 419.177,528.075 427.684,531.479 z" id="boundary" inkscape:connector-curvature="0" />
	<path style="fill:none;stroke:red;stroke-width:1px;stroke-linecap:butt;stroke-linejoin:miter;stroke-opacity:1" d="M 420.027,685.468 423.431,693.976 z" id="boundary" inkscape:connector-curvature="0" />
	<path style="fill:none;stroke:red;stroke-width:1px;stroke-linecap:butt;stroke-linejoin:miter;stroke-opacity:1" d="M 421.729,587.63 430.237,587.63 z" id="boundary" inkscape:connector-curvature="0" />
	<path style="fill:none;stroke:red;stroke-width:1px;stroke-linecap:butt;stroke-linejoin:miter;stroke-opacity:1" d="M 423.431,693.976 430.237,699.931 z" id="boundary" inkscape:connector-curvature="0" />
	<path style="fill:none;stroke:red;stroke-width:1px;stroke-linecap:butt;stroke-linejoin:miter;stroke-opacity:1" d="M 425.983,817.338 434.491,817.338 z" id="boundary" inkscape:connector-curvature="0" />
	<path style="fill:none;stroke:red;stroke-width:1px;stroke-linecap:butt;stroke-linejoin:miter;stroke-opacity:1" d="M 427.684,531.479 433.64,538.285 z" id="boundary" inkscape:connector-curvature="0" />
	<path style="fill:none;stroke:red;stroke-width:1px;stroke-linecap:butt;stroke-linejoin:miter;stroke-opacity:1" d="M 430.237,587.63 437.894,583.376 z" id="boundary" inkscape:connector-curvature="0" />
	<path style="fill:none;stroke:red;stroke-width:1px;stroke-linecap:butt;stroke-linejoin:miter;stroke-opacity:1" d="M 430.237,699.931 434.491,707.588 z" id="boundary" inkscape:connector-curvature="0" />
	<path style="fill:none;stroke:red;stroke-width:1px;stroke-linecap:butt;stroke-linejoin:miter;stroke-opacity:1" d="M 433.64,538.285 437.894,545.942 z" id="boundary" inkscape:connector-curvature="0" />
	<path style="fill:none;stroke:red;stroke-width:1px;stroke-linecap:butt;stroke-linejoin:miter;stroke-opacity:1" d="M 434.491,707.588 439.595,714.395 z" id="boundary" inkscape:connector-curvature="0" />
	<path style="fill:none;stroke:red;stroke-width:1px;stroke-linecap:butt;stroke-linejoin:miter;stroke-opacity:1" d="M 434.491,817.338 442.998,817.338 z" id="boundary" inkscape:connector-curvature="0" />
	<path style="fill:none;stroke:red;stroke-width:1px;stroke-linecap:butt;stroke-linejoin:miter;stroke-opacity:1" d="M 437.894,545.942 442.998,552.748 z" id="boundary" inkscape:connector-curvature="0" />
	<path style="fill:none;stroke:red;stroke-width:1px;stroke-linecap:butt;stroke-linejoin:miter;stroke-opacity:1" d="M 437.894,583.376 446.401,583.376 z" id="boundary" inkscape:connector-curvature="0" />
	<path style="fill:none;stroke:red;stroke-width:1px;stroke-linecap:butt;stroke-linejoin:miter;stroke-opacity:1" d="M 439.595,714.395 446.401,720.35 z" id="boundary" inkscape:connector-curvature="0" />
	<path style="fill:none;stroke:red;stroke-width:1px;stroke-linecap:butt;stroke-linejoin:miter;stroke-opacity:1" d="M 442.998,552.748 450.655,557.002 z" id="boundary" inkscape:connector-curvature="0" />
	<path style="fill:none;stroke:red;stroke-width:1px;stroke-linecap:butt;stroke-linejoin:miter;stroke-opacity:1" d="M 442.998,817.338 451.506,817.338 z" id="boundary" inkscape:connector-curvature="0" />
	<path style="fill:none;stroke:red;stroke-width:1px;stroke-linecap:butt;stroke-linejoin:miter;stroke-opacity:1" d="M 446.401,583.376 454.909,580.823 z" id="boundary" inkscape:connector-curvature="0" />
	<path style="fill:none;stroke:red;stroke-width:1px;stroke-linecap:butt;stroke-linejoin:miter;stroke-opacity:1" d="M 446.401,720.35 451.506,727.156 z" id="boundary" inkscape:connector-curvature="0" />
	<path style="fill:none;stroke:red;stroke-width:1px;stroke-linecap:butt;stroke-linejoin:miter;stroke-opacity:1" d="M 450.655,557.002 457.461,562.106 z" id="boundary" inkscape:connector-curvature="0" />
	<path style="fill:none;stroke:red;stroke-width:1px;stroke-linecap:butt;stroke-linejoin:miter;stroke-opacity:1" d="M 451.506,727.156 451.506,735.664 z" id="boundary" inkscape:connector-curvature="0" />
	<path style="fill:none;stroke:red;stroke-width:1px;stroke-linecap:butt;stroke-linejoin:miter;stroke-opacity:1" d="M 451.506,735.664 455.76,743.321 z" id="boundary" inkscape:connector-curvature="0" />
	<path style="fill:none;stroke:red;stroke-width:1px;stroke-linecap:butt;stroke-linejoin:miter;stroke-opacity:1" d="M 451.506,817.338 460.014,817.338 z" id="boundary" inkscape:connector-curvature="0" />
	<path style="fill:none;stroke:red;stroke-width:1px;stroke-linecap:butt;stroke-linejoin:miter;stroke-opacity:1" d="M 454.909,580.823 460.014,570.614 z" id="boundary" inkscape:connector-curvature="0" />
	<path style="fill:none;stroke:red;stroke-width:1px;stroke-linecap:butt;stroke-linejoin:miter;stroke-opacity:1" d="M 455.76,743.321 460.014,750.978 z" id="boundary" inkscape:connector-curvature="0" />
	<path style="fill:none;stroke:red;stroke-width:1px;stroke-linecap:butt;stroke-linejoin:miter;stroke-opacity:1" d="M 457.461,562.106 460.014,570.614 z" id="boundary" inkscape:connector-curvature="0" />
	<path style="fill:none;stroke:red;stroke-width:1px;stroke-linecap:butt;stroke-linejoin:miter;stroke-opacity:1" d="M 460.014,750.978 464.268,758.635 z" id="boundary" inkscape:connector-curvature="0" />
	<path style="fill:none;stroke:red;stroke-width:1px;stroke-linecap:butt;stroke-linejoin:miter;stroke-opacity:1" d="M 460.014,817.338 468.521,817.338 z" id="boundary" inkscape:connector-curvature="0" />
	<path style="fill:none;stroke:red;stroke-width:1px;stroke-linecap:butt;stroke-linejoin:miter;stroke-opacity:1" d="M 464.268,758.635 468.521,766.292 z" id="boundary" inkscape:connector-curvature="0" />
	<path style="fill:none;stroke:red;stroke-width:1px;stroke-linecap:butt;stroke-linejoin:miter;stroke-opacity:1" d="M 468.521,766.292 472.775,773.949 z" id="boundary" inkscape:connector-curvature="0" />
	<path style="fill:none;stroke:red;stroke-width:1px;stroke-linecap:butt;stroke-linejoin:miter;stroke-opacity:1" d="M 468.521,817.338 475.328,811.383 z" id="boundary" inkscape:connector-curvature="0" />
	<path style="fill:none;stroke:red;stroke-width:1px;stroke-linecap:butt;stroke-linejoin:miter;stroke-opacity:1" d="M 472.775,773.949 472.775,782.456 z" id="boundary" inkscape:connector-curvature="0" />
	<path style="fill:none;stroke:red;stroke-width:1px;stroke-linecap:butt;stroke-linejoin:miter;stroke-opacity:1" d="M 472.775,782.456 477.029,790.113 z" id="boundary" inkscape:connector-curvature="0" />
	<path style="fill:none;stroke:red;stroke-width:1px;stroke-linecap:butt;stroke-linejoin:miter;stroke-opacity:1" d="M 475.328,811.383 477.029,798.621 z" id="boundary" inkscape:connector-curvature="0" />
	<path style="fill:none;stroke:red;stroke-width:1px;stroke-linecap:butt;stroke-linejoin:miter;stroke-opacity:1" d="M 477.029,790.113 477.029,798.621 z" id="boundary" inkscape:connector-curvature="0" />
	<circle cx="4" cy="568.062" r="4" fill="#0" id="circle0"/>
	<circle cx="4" cy="576.569" r="4" fill="#0" id="circle1"/>
	<circle cx="8.25386" cy="584.226" r="4" fill="#0" id="circle2"/>
	<circle cx="10.8062" cy="561.256" r="4" fill="#0" id="circle3"/>
	<circle cx="16.7616" cy="587.63" r="4" fill="#0" id="circle4"/>
	<circle cx="19.3139" cy="561.256" r="4" fill="#0" id="circle5"/>
	<circle cx="25.2693" cy="587.63" r="4" fill="#0" id="circle6"/>
	<circle cx="26.9708" cy="557.002" r="4" fill="#0" id="circle7"/>
	<circle cx="33.777" cy="551.046" r="4" fill="#0" id="circle8"/>
	<circle cx="33.777" cy="587.63" r="4" fill="#0" id="circle9"/>
	<circle cx="38.0309" cy="274.545" r="4" fill="#0" id="circle10"/>
	<circle cx="38.0309" cy="283.053" r="4" fill="#0" id="circle11"/>
	<circle cx="38.0309" cy="831.801" r="4" fill="#0" id="circle12"/>
	<circle cx="38.0309" cy="840.309" r="4" fill="#0" id="circle13"/>
	<circle cx="40.5832" cy="544.24" r="4" fill="#0" id="circle14"/>
	<circle cx="42.2847" cy="290.71" r="4" fill="#0" id="circle15"/>
	<circle cx="42.2847" cy="587.63" r="4" fill="#0" id="circle16"/>
	<circle cx="44.837" cy="267.739" r="4" fill="#0" id="circle17"/>
	<circle cx="44.837" cy="824.995" r="4" fill="#0" id="circle18"/>
	<circle cx="44.837" cy="846.264" r="4" fill="#0" id="circle19"/>
	<circle cx="47.3894" cy="537.434" r="4" fill="#0" id="circle20"/>
	<circle cx="50.7925" cy="294.113" r="4" fill="#0" id="circle21"/>
	<circle cx="50.7925" cy="587.63" r="4" fill="#0" id="circle22"/>
	<circle cx="52.494" cy="263.485" r="4" fill="#0" id="circle23"/>
	<circle cx="52.494" cy="820.741" r="4" fill="#0" id="circle24"/>
	<circle cx="53.3448" cy="847.115" r="4" fill="#0" id="circle25"/>
	<circle cx="54.1955" cy="531.479" r="4" fill="#0" id="circle26"/>
	<circle cx="55.0463" cy="797.77" r="4" fill="#0" id="circle27"/>
	<circle cx="55.0463" cy="806.278" r="4" fill="#0" id="circle28"/>
	<circle cx="59.3002" cy="257.53" r="4" fill="#0" id="circle29"/>
	<circle cx="59.3002" cy="294.113" r="4" fill="#0" id="circle30"/>
	<circle cx="59.3002" cy="517.015" r="4" fill="#0" id="circle31"/>
	<circle cx="59.3002" cy="587.63" r="4" fill="#0" id="circle32"/>
	<circle cx="59.3002" cy="780.755" r="4" fill="#0" id="circle33"/>
	<circle cx="59.3002" cy="789.262" r="4" fill="#0" id="circle34"/>
	<circle cx="61.8525" cy="847.115" r="4" fill="#0" id="circle35"/>
	<circle cx="63.554" cy="508.508" r="4" fill="#0" id="circle36"/>
	<circle cx="63.554" cy="767.993" r="4" fill="#0" id="circle37"/>
	<circle cx="66.1063" cy="250.724" r="4" fill="#0" id="circle38"/>
	<circle cx="67.8079" cy="294.113" r="4" fill="#0" id="circle39"/>
	<circle cx="67.8079" cy="587.63" r="4" fill="#0" id="circle40"/>
	<circle cx="67.8079" cy="750.978" r="4" fill="#0" id="circle41"/>
	<circle cx="67.8079" cy="759.485" r="4" fill="#0" id="circle42"/>
	<circle cx="69.5094" cy="842.861" r="4" fill="#0" id="circle43"/>
	<circle cx="70.3602" cy="501.702" r="4" fill="#0" id="circle44"/>
	<circle cx="72.0617" cy="733.962" r="4" fill="#0" id="circle45"/>
	<circle cx="72.0617" cy="742.47" r="4" fill="#0" id="circle46"/>
	<circle cx="72.9125" cy="243.918" r="4" fill="#0" id="circle47"/>
	<circle cx="74.6141" cy="493.194" r="4" fill="#0" id="circle48"/>
	<circle cx="76.3156" cy="294.113" r="4" fill="#0" id="circle49"/>
	<circle cx="76.3156" cy="478.731" r="4" fill="#0" id="circle50"/>
	<circle cx="76.3156" cy="587.63" r="4" fill="#0" id="circle51"/>
	<circle cx="76.3156" cy="721.201" r="4" fill="#0" id="circle52"/>
	<circle cx="78.0172" cy="842.861" r="4" fill="#0" id="circle53"/>
	<circle cx="79.7187" cy="237.962" r="4" fill="#0" id="circle54"/>
	<circle cx="80.5695" cy="470.223" r="4" fill="#0" id="circle55"/>
	<circle cx="80.5695" cy="708.439" r="4" fill="#0" id="circle56"/>
	<circle cx="83.1218" cy="229.455" r="4" fill="#0" id="circle57"/>
	<circle cx="84.8233" cy="294.113" r="4" fill="#0" id="circle58"/>
	<circle cx="84.8233" cy="457.461" r="4" fill="#0" id="circle59"/>
	<circle cx="84.8233" cy="587.63" r="4" fill="#0" id="circle60"/>
	<circle cx="84.8233" cy="691.424" r="4" fill="#0" id="circle61"/>
	<circle cx="84.8233" cy="699.931" r="4" fill="#0" id="circle62"/>
	<circle cx="86.5249" cy="842.861" r="4" fill="#0" id="circle63"/>
	<circle cx="89.0772" cy="444.7" r="4" fill="#0" id="circle64"/>
	<circle cx="89.0772" cy="682.916" r="4" fill="#0" id="circle65"/>
	<circle cx="89.928" cy="222.648" r="4" fill="#0" id="circle66"/>
	<circle cx="92.4803" cy="583.376" r="4" fill="#0" id="circle67"/>
	<circle cx="93.331" cy="294.113" r="4" fill="#0" id="circle68"/>
	<circle cx="93.331" cy="431.938" r="4" fill="#0" id="circle69"/>
	<circle cx="93.331" cy="665.901" r="4" fill="#0" id="circle70"/>
	<circle cx="93.331" cy="674.408" r="4" fill="#0" id="circle71"/>
	<circle cx="95.0326" cy="842.861" r="4" fill="#0" id="circle72"/>
	<circle cx="96.7341" cy="216.693" r="4" fill="#0" id="circle73"/>
	<circle cx="97.5849" cy="410.669" r="4" fill="#0" id="circle74"/>
	<circle cx="97.5849" cy="419.177" r="4" fill="#0" id="circle75"/>
	<circle cx="97.5849" cy="648.885" r="4" fill="#0" id="circle76"/>
	<circle cx="97.5849" cy="657.393" r="4" fill="#0" id="circle77"/>
	<circle cx="100.988" cy="289.859" r="4" fill="#0" id="circle78"/>
	<circle cx="100.988" cy="583.376" r="4" fill="#0" id="circle79"/>
	<circle cx="101.839" cy="631.87" r="4" fill="#0" id="circle80"/>
	<circle cx="101.839" cy="640.377" r="4" fill="#0" id="circle81"/>
	<circle cx="102.69" cy="209.887" r="4" fill="#0" id="circle82"/>
	<circle cx="102.69" cy="838.607" r="4" fill="#0" id="circle83"/>
	<circle cx="104.391" cy="403.863" r="4" fill="#0" id="circle84"/>
	<circle cx="106.093" cy="380.892" r="4" fill="#0" id="circle85"/>
	<circle cx="106.093" cy="389.4" r="4" fill="#0" id="circle86"/>
	<circle cx="106.093" cy="606.346" r="4" fill="#0" id="circle87"/>
	<circle cx="106.093" cy="614.854" r="4" fill="#0" id="circle88"/>
	<circle cx="106.093" cy="623.362" r="4" fill="#0" id="circle89"/>
	<circle cx="109.496" cy="203.931" r="4" fill="#0" id="circle90"/>
	<circle cx="109.496" cy="289.859" r="4" fill="#0" id="circle91"/>
	<circle cx="109.496" cy="583.376" r="4" fill="#0" id="circle92"/>
	<circle cx="110.346" cy="298.367" r="4" fill="#0" id="circle93"/>
	<circle cx="110.346" cy="306.875" r="4" fill="#0" id="circle94"/>
	<circle cx="110.346" cy="315.383" r="4" fill="#0" id="circle95"/>
	<circle cx="110.346" cy="323.89" r="4" fill="#0" id="circle96"/>
	<circle cx="110.346" cy="332.398" r="4" fill="#0" id="circle97"/>
	<circle cx="110.346" cy="340.906" r="4" fill="#0" id="circle98"/>
	<circle cx="110.346" cy="349.413" r="4" fill="#0" id="circle99"/>
	<circle cx="110.346" cy="357.921" r="4" fill="#0" id="circle100"/>
	<circle cx="110.346" cy="366.429" r="4" fill="#0" id="circle101"/>
	<circle cx="110.346" cy="593.585" r="4" fill="#0" id="circle102"/>
	<circle cx="111.197" cy="838.607" r="4" fill="#0" id="circle103"/>
	<circle cx="114.6" cy="193.722" r="4" fill="#0" id="circle104"/>
	<circle cx="119.705" cy="838.607" r="4" fill="#0" id="circle105"/>
	<circle cx="121.407" cy="186.916" r="4" fill="#0" id="circle106"/>
	<circle cx="127.362" cy="176.707" r="4" fill="#0" id="circle107"/>
	<circle cx="128.213" cy="838.607" r="4" fill="#0" id="circle108"/>
	<circle cx="131.616" cy="168.199" r="4" fill="#0" id="circle109"/>
	<circle cx="136.72" cy="838.607" r="4" fill="#0" id="circle110"/>
	<circle cx="138.422" cy="161.393" r="4" fill="#0" id="circle111"/>
	<circle cx="142.676" cy="152.885" r="4" fill="#0" id="circle112"/>
	<circle cx="145.228" cy="838.607" r="4" fill="#0" id="circle113"/>
	<circle cx="148.631" cy="134.168" r="4" fill="#0" id="circle114"/>
	<circle cx="148.631" cy="142.676" r="4" fill="#0" id="circle115"/>
	<circle cx="152.885" cy="125.66" r="4" fill="#0" id="circle116"/>
	<circle cx="153.736" cy="838.607" r="4" fill="#0" id="circle117"/>
	<circle cx="159.691" cy="118.854" r="4" fill="#0" id="circle118"/>
	<circle cx="161.393" cy="108.645" r="4" fill="#0" id="circle119"/>
	<circle cx="162.244" cy="838.607" r="4" fill="#0" id="circle120"/>
	<circle cx="165.647" cy="91.6295" r="4" fill="#0" id="circle121"/>
	<circle cx="165.647" cy="100.137" r="4" fill="#0" id="circle122"/>
	<circle cx="169.901" cy="78.8679" r="4" fill="#0" id="circle123"/>
	<circle cx="170.751" cy="838.607" r="4" fill="#0" id="circle124"/>
	<circle cx="174.154" cy="70.3602" r="4" fill="#0" id="circle125"/>
	<circle cx="178.408" cy="53.3448" r="4" fill="#0" id="circle126"/>
	<circle cx="178.408" cy="61.8525" r="4" fill="#0" id="circle127"/>
	<circle cx="179.259" cy="838.607" r="4" fill="#0" id="circle128"/>
	<circle cx="185.214" cy="46.5386" r="4" fill="#0" id="circle129"/>
	<circle cx="186.916" cy="36.3293" r="4" fill="#0" id="circle130"/>
	<circle cx="186.916" cy="834.353" r="4" fill="#0" id="circle131"/>
	<circle cx="191.17" cy="10.8062" r="4" fill="#0" id="circle132"/>
	<circle cx="191.17" cy="19.3139" r="4" fill="#0" id="circle133"/>
	<circle cx="191.17" cy="27.8216" r="4" fill="#0" id="circle134"/>
	<circle cx="195.424" cy="834.353" r="4" fill="#0" id="circle135"/>
	<circle cx="197.976" cy="4" r="4" fill="#0" id="circle136"/>
	<circle cx="199.678" cy="842.01" r="4" fill="#0" id="circle137"/>
	<circle cx="199.678" cy="850.518" r="4" fill="#0" id="circle138"/>
	<circle cx="199.678" cy="859.026" r="4" fill="#0" id="circle139"/>
	<circle cx="203.931" cy="866.683" r="4" fill="#0" id="circle140"/>
	<circle cx="203.931" cy="875.19" r="4" fill="#0" id="circle141"/>
	<circle cx="206.484" cy="4" r="4" fill="#0" id="circle142"/>
	<circle cx="208.185" cy="882.847" r="4" fill="#0" id="circle143"/>
	<circle cx="208.185" cy="891.355" r="4" fill="#0" id="circle144"/>
	<circle cx="208.185" cy="899.863" r="4" fill="#0" id="circle145"/>
	<circle cx="212.439" cy="10.8062" r="4" fill="#0" id="circle146"/>
	<circle cx="212.439" cy="907.52" r="4" fill="#0" id="circle147"/>
	<circle cx="212.439" cy="916.027" r="4" fill="#0" id="circle148"/>
	<circle cx="216.693" cy="923.684" r="4" fill="#0" id="circle149"/>
	<circle cx="216.693" cy="932.192" r="4" fill="#0" id="circle150"/>
	<circle cx="216.693" cy="940.7" r="4" fill="#0" id="circle151"/>
	<circle cx="216.693" cy="949.208" r="4" fill="#0" id="circle152"/>
	<circle cx="216.693" cy="957.715" r="4" fill="#0" id="circle153"/>
	<circle cx="216.693" cy="966.223" r="4" fill="#0" id="circle154"/>
	<circle cx="216.693" cy="974.731" r="4" fill="#0" id="circle155"/>
	<circle cx="216.693" cy="983.238" r="4" fill="#0" id="circle156"/>
	<circle cx="217.544" cy="17.6123" r="4" fill="#0" id="circle157"/>
	<circle cx="219.245" cy="26.1201" r="4" fill="#0" id="circle158"/>
	<circle cx="219.245" cy="991.746" r="4" fill="#0" id="circle159"/>
	<circle cx="226.051" cy="32.0755" r="4" fill="#0" id="circle160"/>
	<circle cx="226.902" cy="996" r="4" fill="#0" id="circle161"/>
	<circle cx="230.305" cy="39.7324" r="4" fill="#0" id="circle162"/>
	<circle cx="234.559" cy="47.3894" r="4" fill="#0" id="circle163"/>
	<circle cx="235.41" cy="996" r="4" fill="#0" id="circle164"/>
	<circle cx="238.813" cy="55.0463" r="4" fill="#0" id="circle165"/>
	<circle cx="243.918" cy="996" r="4" fill="#0" id="circle166"/>
	<circle cx="245.619" cy="60.1509" r="4" fill="#0" id="circle167"/>
	<circle cx="249.022" cy="68.6587" r="4" fill="#0" id="circle168"/>
	<circle cx="252.425" cy="996" r="4" fill="#0" id="circle169"/>
	<circle cx="255.828" cy="74.6141" r="4" fill="#0" id="circle170"/>
	<circle cx="259.232" cy="83.1218" r="4" fill="#0" id="circle171"/>
	<circle cx="260.082" cy="91.6295" r="4" fill="#0" id="circle172"/>
	<circle cx="260.082" cy="991.746" r="4" fill="#0" id="circle173"/>
	<circle cx="264.336" cy="99.2864" r="4" fill="#0" id="circle174"/>
	<circle cx="268.59" cy="991.746" r="4" fill="#0" id="circle175"/>
	<circle cx="269.441" cy="106.093" r="4" fill="#0" id="circle176"/>
	<circle cx="272.844" cy="114.6" r="4" fill="#0" id="circle177"/>
	<circle cx="277.098" cy="122.257" r="4" fill="#0" id="circle178"/>
	<circle cx="277.098" cy="991.746" r="4" fill="#0" id="circle179"/>
	<circle cx="281.352" cy="129.914" r="4" fill="#0" id="circle180"/>
	<circle cx="284.755" cy="138.422" r="4" fill="#0" id="circle181"/>
	<circle cx="285.605" cy="146.93" r="4" fill="#0" id="circle182"/>
	<circle cx="285.605" cy="991.746" r="4" fill="#0" id="circle183"/>
	<circle cx="289.859" cy="154.587" r="4" fill="#0" id="circle184"/>
	<circle cx="292.412" cy="163.094" r="4" fill="#0" id="circle185"/>
	<circle cx="294.113" cy="991.746" r="4" fill="#0" id="circle186"/>
	<circle cx="296.666" cy="170.751" r="4" fill="#0" id="circle187"/>
	<circle cx="300.069" cy="179.259" r="4" fill="#0" id="circle188"/>
	<circle cx="301.77" cy="987.492" r="4" fill="#0" id="circle189"/>
	<circle cx="304.322" cy="186.916" r="4" fill="#0" id="circle190"/>
	<circle cx="310.278" cy="193.722" r="4" fill="#0" id="circle191"/>
	<circle cx="310.278" cy="987.492" r="4" fill="#0" id="circle192"/>
	<circle cx="311.129" cy="202.23" r="4" fill="#0" id="circle193"/>
	<circle cx="315.383" cy="294.113" r="4" fill="#0" id="circle194"/>
	<circle cx="317.084" cy="209.036" r="4" fill="#0" id="circle195"/>
	<circle cx="317.084" cy="302.621" r="4" fill="#0" id="circle196"/>
	<circle cx="318.786" cy="987.492" r="4" fill="#0" id="circle197"/>
	<circle cx="319.636" cy="311.129" r="4" fill="#0" id="circle198"/>
	<circle cx="319.636" cy="319.636" r="4" fill="#0" id="circle199"/>
	<circle cx="321.338" cy="216.693" r="4" fill="#0" id="circle200"/>
	<circle cx="323.89" cy="225.201" r="4" fill="#0" id="circle201"/>
	<circle cx="323.89" cy="294.113" r="4" fill="#0" id="circle202"/>
	<circle cx="323.89" cy="327.293" r="4" fill="#0" id="circle203"/>
	<circle cx="323.89" cy="335.801" r="4" fill="#0" id="circle204"/>
	<circle cx="327.293" cy="987.492" r="4" fill="#0" id="circle205"/>
	<circle cx="328.144" cy="343.458" r="4" fill="#0" id="circle206"/>
	<circle cx="330.696" cy="230.305" r="4" fill="#0" id="circle207"/>
	<circle cx="331.547" cy="298.367" r="4" fill="#0" id="circle208"/>
	<circle cx="332.398" cy="351.115" r="4" fill="#0" id="circle209"/>
	<circle cx="332.398" cy="359.623" r="4" fill="#0" id="circle210"/>
	<circle cx="334.099" cy="238.813" r="4" fill="#0" id="circle211"/>
	<circle cx="335.801" cy="987.492" r="4" fill="#0" id="circle212"/>
	<circle cx="336.652" cy="367.28" r="4" fill="#0" id="circle213"/>
	<circle cx="339.204" cy="375.787" r="4" fill="#0" id="circle214"/>
	<circle cx="340.055" cy="298.367" r="4" fill="#0" id="circle215"/>
	<circle cx="340.906" cy="244.768" r="4" fill="#0" id="circle216"/>
	<circle cx="340.906" cy="384.295" r="4" fill="#0" id="circle217"/>
	<circle cx="344.309" cy="987.492" r="4" fill="#0" id="circle218"/>
	<circle cx="345.16" cy="391.952" r="4" fill="#0" id="circle219"/>
	<circle cx="346.861" cy="400.46" r="4" fill="#0" id="circle220"/>
	<circle cx="347.712" cy="302.621" r="4" fill="#0" id="circle221"/>
	<circle cx="348.563" cy="249.022" r="4" fill="#0" id="circle222"/>
	<circle cx="349.413" cy="277.098" r="4" fill="#0" id="circle223"/>
	<circle cx="349.413" cy="408.967" r="4" fill="#0" id="circle224"/>
	<circle cx="352.816" cy="987.492" r="4" fill="#0" id="circle225"/>
	<circle cx="353.667" cy="416.624" r="4" fill="#0" id="circle226"/>
	<circle cx="353.667" cy="425.132" r="4" fill="#0" id="circle227"/>
	<circle cx="355.369" cy="254.978" r="4" fill="#0" id="circle228"/>
	<circle cx="356.22" cy="302.621" r="4" fill="#0" id="circle229"/>
	<circle cx="357.921" cy="432.789" r="4" fill="#0" id="circle230"/>
	<circle cx="357.921" cy="817.338" r="4" fill="#0" id="circle231"/>
	<circle cx="360.473" cy="983.238" r="4" fill="#0" id="circle232"/>
	<circle cx="362.175" cy="440.446" r="4" fill="#0" id="circle233"/>
	<circle cx="362.175" cy="824.995" r="4" fill="#0" id="circle234"/>
	<circle cx="362.175" cy="833.503" r="4" fill="#0" id="circle235"/>
	<circle cx="362.175" cy="842.01" r="4" fill="#0" id="circle236"/>
	<circle cx="363.026" cy="259.232" r="4" fill="#0" id="circle237"/>
	<circle cx="364.727" cy="302.621" r="4" fill="#0" id="circle238"/>
	<circle cx="366.429" cy="448.103" r="4" fill="#0" id="circle239"/>
	<circle cx="366.429" cy="817.338" r="4" fill="#0" id="circle240"/>
	<circle cx="366.429" cy="849.667" r="4" fill="#0" id="circle241"/>
	<circle cx="368.981" cy="983.238" r="4" fill="#0" id="circle242"/>
	<circle cx="370.683" cy="263.485" r="4" fill="#0" id="circle243"/>
	<circle cx="370.683" cy="455.76" r="4" fill="#0" id="circle244"/>
	<circle cx="370.683" cy="857.324" r="4" fill="#0" id="circle245"/>
	<circle cx="373.235" cy="302.621" r="4" fill="#0" id="circle246"/>
	<circle cx="374.937" cy="463.417" r="4" fill="#0" id="circle247"/>
	<circle cx="374.937" cy="817.338" r="4" fill="#0" id="circle248"/>
	<circle cx="374.937" cy="864.981" r="4" fill="#0" id="circle249"/>
	<circle cx="377.489" cy="873.489" r="4" fill="#0" id="circle250"/>
	<circle cx="377.489" cy="983.238" r="4" fill="#0" id="circle251"/>
	<circle cx="379.19" cy="266.038" r="4" fill="#0" id="circle252"/>
	<circle cx="379.19" cy="471.074" r="4" fill="#0" id="circle253"/>
	<circle cx="379.19" cy="591.883" r="4" fill="#0" id="circle254"/>
	<circle cx="379.19" cy="881.997" r="4" fill="#0" id="circle255"/>
	<circle cx="381.743" cy="300.919" r="4" fill="#0" id="circle256"/>
	<circle cx="383.444" cy="478.731" r="4" fill="#0" id="circle257"/>
	<circle cx="383.444" cy="599.54" r="4" fill="#0" id="circle258"/>
	<circle cx="383.444" cy="608.048" r="4" fill="#0" id="circle259"/>
	<circle cx="383.444" cy="817.338" r="4" fill="#0" id="circle260"/>
	<circle cx="383.444" cy="889.654" r="4" fill="#0" id="circle261"/>
	<circle cx="383.444" cy="898.161" r="4" fill="#0" id="circle262"/>
	<circle cx="385.146" cy="978.134" r="4" fill="#0" id="circle263"/>
	<circle cx="386.847" cy="270.292" r="4" fill="#0" id="circle264"/>
	<circle cx="387.698" cy="591.883" r="4" fill="#0" id="circle265"/>
	<circle cx="387.698" cy="615.705" r="4" fill="#0" id="circle266"/>
	<circle cx="387.698" cy="905.818" r="4" fill="#0" id="circle267"/>
	<circle cx="389.4" cy="485.537" r="4" fill="#0" id="circle268"/>
	<circle cx="390.25" cy="296.666" r="4" fill="#0" id="circle269"/>
	<circle cx="391.952" cy="623.362" r="4" fill="#0" id="circle270"/>
	<circle cx="391.952" cy="631.87" r="4" fill="#0" id="circle271"/>
	<circle cx="391.952" cy="817.338" r="4" fill="#0" id="circle272"/>
	<circle cx="391.952" cy="913.475" r="4" fill="#0" id="circle273"/>
	<circle cx="391.952" cy="970.477" r="4" fill="#0" id="circle274"/>
	<circle cx="393.654" cy="276.247" r="4" fill="#0" id="circle275"/>
	<circle cx="395.355" cy="640.377" r="4" fill="#0" id="circle276"/>
	<circle cx="396.206" cy="284.755" r="4" fill="#0" id="circle277"/>
	<circle cx="396.206" cy="491.492" r="4" fill="#0" id="circle278"/>
	<circle cx="396.206" cy="587.63" r="4" fill="#0" id="circle279"/>
	<circle cx="396.206" cy="921.132" r="4" fill="#0" id="circle280"/>
	<circle cx="396.206" cy="929.64" r="4" fill="#0" id="circle281"/>
	<circle cx="396.206" cy="938.148" r="4" fill="#0" id="circle282"/>
	<circle cx="396.206" cy="946.655" r="4" fill="#0" id="circle283"/>
	<circle cx="396.206" cy="955.163" r="4" fill="#0" id="circle284"/>
	<circle cx="399.609" cy="648.034" r="4" fill="#0" id="circle285"/>
	<circle cx="400.46" cy="499.149" r="4" fill="#0" id="circle286"/>
	<circle cx="400.46" cy="656.542" r="4" fill="#0" id="circle287"/>
	<circle cx="400.46" cy="817.338" r="4" fill="#0" id="circle288"/>
	<circle cx="404.714" cy="506.806" r="4" fill="#0" id="circle289"/>
	<circle cx="404.714" cy="587.63" r="4" fill="#0" id="circle290"/>
	<circle cx="404.714" cy="664.199" r="4" fill="#0" id="circle291"/>
	<circle cx="408.967" cy="514.463" r="4" fill="#0" id="circle292"/>
	<circle cx="408.967" cy="671.856" r="4" fill="#0" id="circle293"/>
	<circle cx="408.967" cy="817.338" r="4" fill="#0" id="circle294"/>
	<circle cx="413.221" cy="587.63" r="4" fill="#0" id="circle295"/>
	<circle cx="413.221" cy="679.513" r="4" fill="#0" id="circle296"/>
	<circle cx="415.774" cy="519.568" r="4" fill="#0" id="circle297"/>
	<circle cx="417.475" cy="817.338" r="4" fill="#0" id="circle298"/>
	<circle cx="419.177" cy="528.075" r="4" fill="#0" id="circle299"/>
	<circle cx="420.027" cy="685.468" r="4" fill="#0" id="circle300"/>
	<circle cx="421.729" cy="587.63" r="4" fill="#0" id="circle301"/>
	<circle cx="423.431" cy="693.976" r="4" fill="#0" id="circle302"/>
	<circle cx="425.983" cy="817.338" r="4" fill="#0" id="circle303"/>
	<circle cx="427.684" cy="531.479" r="4" fill="#0" id="circle304"/>
	<circle cx="430.237" cy="587.63" r="4" fill="#0" id="circle305"/>
	<circle cx="430.237" cy="699.931" r="4" fill="#0" id="circle306"/>
	<circle cx="433.64" cy="538.285" r="4" fill="#0" id="circle307"/>
	<circle cx="434.491" cy="707.588" r="4" fill="#0" id="circle308"/>
	<circle cx="434.491" cy="817.338" r="4" fill="#0" id="circle309"/>
	<circle cx="437.894" cy="545.942" r="4" fill="#0" id="circle310"/>
	<circle cx="437.894" cy="583.376" r="4" fill="#0" id="circle311"/>
	<circle cx="439.595" cy="714.395" r="4" fill="#0" id="circle312"/>
	<circle cx="442.998" cy="552.748" r="4" fill="#0" id="circle313"/>
	<circle cx="442.998" cy="817.338" r="4" fill="#0" id="circle314"/>
	<circle cx="446.401" cy="583.376" r="4" fill="#0" id="circle315"/>
	<circle cx="446.401" cy="720.35" r="4" fill="#0" id="circle316"/>
	<circle cx="450.655" cy="557.002" r="4" fill="#0" id="circle317"/>
	<circle cx="451.506" cy="727.156" r="4" fill="#0" id="circle318"/>
	<circle cx="451.506" cy="735.664" r="4" fill="#0" id="circle319"/>
	<circle cx="451.506" cy="817.338" r="4" fill="#0" id="circle320"/>
	<circle cx="454.909" cy="580.823" r="4" fill="#0" id="circle321"/>
	<circle cx="455.76" cy="743.321" r="4" fill="#0" id="circle322"/>
	<circle cx="457.461" cy="562.106" r="4" fill="#0" id="circle323"/>
	<circle cx="460.014" cy="570.614" r="4" fill="#0" id="circle324"/>
	<circle cx="460.014" cy="750.978" r="4" fill="#0" id="circle325"/>
	<circle cx="460.014" cy="817.338" r="4" fill="#0" id="circle326"/>
	<circle cx="464.268" cy="758.635" r="4" fill="#0" id="circle327"/>
	<circle cx="468.521" cy="766.292" r="4" fill="#0" id="circle328"/>
	<circle cx="468.521" cy="817.338" r="4" fill="#0" id="circle329"/>
	<circle cx="472.775" cy="773.949" r="4" fill="#0" id="circle330"/>
	<circle cx="472.775" cy="782.456" r="4" fill="#0" id="circle331"/>
	<circle cx="475.328" cy="811.383" r="4" fill="#0" id="circle332"/>
	<circle cx="477.029" cy="790.113" r="4" fill="#0" id="circle333"/>
	<circle cx="477.029" cy="798.621" r="4" fill="#0" id="circle334"/>
	</g>
</svg>