<?xml version="1.0" encoding="UTF-8" standalone="no"?>
<!-- Created with CurveBenchmark -->
<svg
	xmlns:dc="http://purl.org/dc/elements/1.1/"
	xmlns:cc="http://creativecommons.org/ns#"
	xmlns:rdf="http://www.w3.org/1999/02/22-rdf-syntax-ns#"
	xmlns:svg="http://www.w3.org/2000/svg"
	xmlns="http://www.w3.org/2000/svg"
	xmlns:sodipodi="http://sodipodi.sourceforge.net/DTD/sodipodi-0.dtd"
	xmlns:inkscape="http://www.inkscape.org/namespaces/inkscape"
	width="1000"
	height="1000"
	id="svg2"
	version="1.1"
	sodipodi:docname="manifold/fitconnect-children20.png.txt">
<defs
	id="defs4" />
<metadata
	id="metadata7">
	<rdf:RDF>
		<cc:Work
			rdf:about="">
			<dc:format>image/svg+xml</dc:format>
			<dc:type
				rdf:resource="http://purl.org/dc/dcmitype/StillImage" />
			<dc:title></dc:title>
		</cc:Work>
	</rdf:RDF>
</metadata>
<g
	inkscape:label="Layer 1"
	inkscape:groupmode="layer"
	id="layer1">
	<path style="fill:none;stroke:red;stroke-width:1px;stroke-linecap:butt;stroke-linejoin:miter;stroke-opacity:1" d="M 4,308.591 4,325.235 z" id="boundary" inkscape:connector-curvature="0" />
	<path style="fill:none;stroke:red;stroke-width:1px;stroke-linecap:butt;stroke-linejoin:miter;stroke-opacity:1" d="M 4,308.591 12.3221,291.946 z" id="boundary" inkscape:connector-curvature="0" />
	<path style="fill:none;stroke:red;stroke-width:1px;stroke-linecap:butt;stroke-linejoin:miter;stroke-opacity:1" d="M 4,325.235 4,341.879 z" id="boundary" inkscape:connector-curvature="0" />
	<path style="fill:none;stroke:red;stroke-width:1px;stroke-linecap:butt;stroke-linejoin:miter;stroke-opacity:1" d="M 4,341.879 4,358.523 z" id="boundary" inkscape:connector-curvature="0" />
	<path style="fill:none;stroke:red;stroke-width:1px;stroke-linecap:butt;stroke-linejoin:miter;stroke-opacity:1" d="M 4,358.523 4,375.168 z" id="boundary" inkscape:connector-curvature="0" />
	<path style="fill:none;stroke:red;stroke-width:1px;stroke-linecap:butt;stroke-linejoin:miter;stroke-opacity:1" d="M 4,375.168 12.3221,390.148 z" id="boundary" inkscape:connector-curvature="0" />
	<path style="fill:none;stroke:red;stroke-width:1px;stroke-linecap:butt;stroke-linejoin:miter;stroke-opacity:1" d="M 12.3221,92.2148 20.6443,67.2483 z" id="boundary" inkscape:connector-curvature="0" />
	<path style="fill:none;stroke:red;stroke-width:1px;stroke-linecap:butt;stroke-linejoin:miter;stroke-opacity:1" d="M 12.3221,92.2148 20.6443,107.195 z" id="boundary" inkscape:connector-curvature="0" />
	<path style="fill:none;stroke:red;stroke-width:1px;stroke-linecap:butt;stroke-linejoin:miter;stroke-opacity:1" d="M 12.3221,291.946 20.6443,275.302 z" id="boundary" inkscape:connector-curvature="0" />
	<path style="fill:none;stroke:red;stroke-width:1px;stroke-linecap:butt;stroke-linejoin:miter;stroke-opacity:1" d="M 12.3221,390.148 20.6443,405.128 z" id="boundary" inkscape:connector-curvature="0" />
	<path style="fill:none;stroke:red;stroke-width:1px;stroke-linecap:butt;stroke-linejoin:miter;stroke-opacity:1" d="M 12.3221,441.745 20.6443,421.772 z" id="boundary" inkscape:connector-curvature="0" />
	<path style="fill:none;stroke:red;stroke-width:1px;stroke-linecap:butt;stroke-linejoin:miter;stroke-opacity:1" d="M 12.3221,441.745 20.6443,456.725 z" id="boundary" inkscape:connector-curvature="0" />
	<path style="fill:none;stroke:red;stroke-width:1px;stroke-linecap:butt;stroke-linejoin:miter;stroke-opacity:1" d="M 20.6443,67.2483 28.9664,50.604 z" id="boundary" inkscape:connector-curvature="0" />
	<path style="fill:none;stroke:red;stroke-width:1px;stroke-linecap:butt;stroke-linejoin:miter;stroke-opacity:1" d="M 20.6443,107.195 28.9664,122.174 z" id="boundary" inkscape:connector-curvature="0" />
	<path style="fill:none;stroke:red;stroke-width:1px;stroke-linecap:butt;stroke-linejoin:miter;stroke-opacity:1" d="M 20.6443,275.302 33.9597,261.987 z" id="boundary" inkscape:connector-curvature="0" />
	<path style="fill:none;stroke:red;stroke-width:1px;stroke-linecap:butt;stroke-linejoin:miter;stroke-opacity:1" d="M 20.6443,405.128 20.6443,421.772 z" id="boundary" inkscape:connector-curvature="0" />
	<path style="fill:none;stroke:red;stroke-width:1px;stroke-linecap:butt;stroke-linejoin:miter;stroke-opacity:1" d="M 20.6443,456.725 28.9664,471.705 z" id="boundary" inkscape:connector-curvature="0" />
	<path style="fill:none;stroke:red;stroke-width:1px;stroke-linecap:butt;stroke-linejoin:miter;stroke-opacity:1" d="M 28.9664,50.604 42.2819,37.2886 z" id="boundary" inkscape:connector-curvature="0" />
	<path style="fill:none;stroke:red;stroke-width:1px;stroke-linecap:butt;stroke-linejoin:miter;stroke-opacity:1" d="M 28.9664,122.174 28.9664,138.819 z" id="boundary" inkscape:connector-curvature="0" />
	<path style="fill:none;stroke:red;stroke-width:1px;stroke-linecap:butt;stroke-linejoin:miter;stroke-opacity:1" d="M 28.9664,138.819 37.2886,153.799 z" id="boundary" inkscape:connector-curvature="0" />
	<path style="fill:none;stroke:red;stroke-width:1px;stroke-linecap:butt;stroke-linejoin:miter;stroke-opacity:1" d="M 28.9664,471.705 28.9664,488.349 z" id="boundary" inkscape:connector-curvature="0" />
	<path style="fill:none;stroke:red;stroke-width:1px;stroke-linecap:butt;stroke-linejoin:miter;stroke-opacity:1" d="M 28.9664,488.349 28.9664,504.993 z" id="boundary" inkscape:connector-curvature="0" />
	<path style="fill:none;stroke:red;stroke-width:1px;stroke-linecap:butt;stroke-linejoin:miter;stroke-opacity:1" d="M 28.9664,504.993 37.2886,519.973 z" id="boundary" inkscape:connector-curvature="0" />
	<path style="fill:none;stroke:red;stroke-width:1px;stroke-linecap:butt;stroke-linejoin:miter;stroke-opacity:1" d="M 33.9597,261.987 47.2752,248.671 z" id="boundary" inkscape:connector-curvature="0" />
	<path style="fill:none;stroke:red;stroke-width:1px;stroke-linecap:butt;stroke-linejoin:miter;stroke-opacity:1" d="M 37.2886,153.799 45.6107,168.779 z" id="boundary" inkscape:connector-curvature="0" />
	<path style="fill:none;stroke:red;stroke-width:1px;stroke-linecap:butt;stroke-linejoin:miter;stroke-opacity:1" d="M 37.2886,519.973 37.2886,536.617 z" id="boundary" inkscape:connector-curvature="0" />
	<path style="fill:none;stroke:red;stroke-width:1px;stroke-linecap:butt;stroke-linejoin:miter;stroke-opacity:1" d="M 37.2886,536.617 40.6174,553.262 z" id="boundary" inkscape:connector-curvature="0" />
	<path style="fill:none;stroke:red;stroke-width:1px;stroke-linecap:butt;stroke-linejoin:miter;stroke-opacity:1" d="M 40.6174,553.262 45.6107,569.906 z" id="boundary" inkscape:connector-curvature="0" />
	<path style="fill:none;stroke:red;stroke-width:1px;stroke-linecap:butt;stroke-linejoin:miter;stroke-opacity:1" d="M 42.2819,37.2886 55.5973,23.9732 z" id="boundary" inkscape:connector-curvature="0" />
	<path style="fill:none;stroke:red;stroke-width:1px;stroke-linecap:butt;stroke-linejoin:miter;stroke-opacity:1" d="M 45.6107,168.779 53.9329,183.758 z" id="boundary" inkscape:connector-curvature="0" />
	<path style="fill:none;stroke:red;stroke-width:1px;stroke-linecap:butt;stroke-linejoin:miter;stroke-opacity:1" d="M 45.6107,569.906 45.6107,586.55 z" id="boundary" inkscape:connector-curvature="0" />
	<path style="fill:none;stroke:red;stroke-width:1px;stroke-linecap:butt;stroke-linejoin:miter;stroke-opacity:1" d="M 45.6107,586.55 48.9396,603.195 z" id="boundary" inkscape:connector-curvature="0" />
	<path style="fill:none;stroke:red;stroke-width:1px;stroke-linecap:butt;stroke-linejoin:miter;stroke-opacity:1" d="M 47.2752,248.671 60.5906,237.02 z" id="boundary" inkscape:connector-curvature="0" />
	<path style="fill:none;stroke:red;stroke-width:1px;stroke-linecap:butt;stroke-linejoin:miter;stroke-opacity:1" d="M 48.9396,603.195 53.9329,619.839 z" id="boundary" inkscape:connector-curvature="0" />
	<path style="fill:none;stroke:red;stroke-width:1px;stroke-linecap:butt;stroke-linejoin:miter;stroke-opacity:1" d="M 53.9329,183.758 62.255,198.738 z" id="boundary" inkscape:connector-curvature="0" />
	<path style="fill:none;stroke:red;stroke-width:1px;stroke-linecap:butt;stroke-linejoin:miter;stroke-opacity:1" d="M 53.9329,619.839 62.255,634.819 z" id="boundary" inkscape:connector-curvature="0" />
	<path style="fill:none;stroke:red;stroke-width:1px;stroke-linecap:butt;stroke-linejoin:miter;stroke-opacity:1" d="M 55.5973,23.9732 68.9128,12.3221 z" id="boundary" inkscape:connector-curvature="0" />
	<path style="fill:none;stroke:red;stroke-width:1px;stroke-linecap:butt;stroke-linejoin:miter;stroke-opacity:1" d="M 60.5906,237.02 62.255,215.383 z" id="boundary" inkscape:connector-curvature="0" />
	<path style="fill:none;stroke:red;stroke-width:1px;stroke-linecap:butt;stroke-linejoin:miter;stroke-opacity:1" d="M 62.255,198.738 62.255,215.383 z" id="boundary" inkscape:connector-curvature="0" />
	<path style="fill:none;stroke:red;stroke-width:1px;stroke-linecap:butt;stroke-linejoin:miter;stroke-opacity:1" d="M 62.255,634.819 63.9195,651.463 z" id="boundary" inkscape:connector-curvature="0" />
	<path style="fill:none;stroke:red;stroke-width:1px;stroke-linecap:butt;stroke-linejoin:miter;stroke-opacity:1" d="M 63.9195,651.463 72.2416,666.443 z" id="boundary" inkscape:connector-curvature="0" />
	<path style="fill:none;stroke:red;stroke-width:1px;stroke-linecap:butt;stroke-linejoin:miter;stroke-opacity:1" d="M 68.9128,12.3221 83.8926,4 z" id="boundary" inkscape:connector-curvature="0" />
	<path style="fill:none;stroke:red;stroke-width:1px;stroke-linecap:butt;stroke-linejoin:miter;stroke-opacity:1" d="M 72.2416,666.443 83.8926,679.758 z" id="boundary" inkscape:connector-curvature="0" />
	<path style="fill:none;stroke:red;stroke-width:1px;stroke-linecap:butt;stroke-linejoin:miter;stroke-opacity:1" d="M 83.8926,4 100.537,4 z" id="boundary" inkscape:connector-curvature="0" />
	<path style="fill:none;stroke:red;stroke-width:1px;stroke-linecap:butt;stroke-linejoin:miter;stroke-opacity:1" d="M 83.8926,679.758 95.5436,693.074 z" id="boundary" inkscape:connector-curvature="0" />
	<path style="fill:none;stroke:red;stroke-width:1px;stroke-linecap:butt;stroke-linejoin:miter;stroke-opacity:1" d="M 87.2215,791.275 87.2215,807.919 z" id="boundary" inkscape:connector-curvature="0" />
	<path style="fill:none;stroke:red;stroke-width:1px;stroke-linecap:butt;stroke-linejoin:miter;stroke-opacity:1" d="M 87.2215,791.275 95.5436,766.309 z" id="boundary" inkscape:connector-curvature="0" />
	<path style="fill:none;stroke:red;stroke-width:1px;stroke-linecap:butt;stroke-linejoin:miter;stroke-opacity:1" d="M 87.2215,807.919 87.2215,824.564 z" id="boundary" inkscape:connector-curvature="0" />
	<path style="fill:none;stroke:red;stroke-width:1px;stroke-linecap:butt;stroke-linejoin:miter;stroke-opacity:1" d="M 87.2215,824.564 87.2215,841.208 z" id="boundary" inkscape:connector-curvature="0" />
	<path style="fill:none;stroke:red;stroke-width:1px;stroke-linecap:butt;stroke-linejoin:miter;stroke-opacity:1" d="M 87.2215,841.208 95.5436,856.188 z" id="boundary" inkscape:connector-curvature="0" />
	<path style="fill:none;stroke:red;stroke-width:1px;stroke-linecap:butt;stroke-linejoin:miter;stroke-opacity:1" d="M 95.5436,693.074 103.866,708.054 z" id="boundary" inkscape:connector-curvature="0" />
	<path style="fill:none;stroke:red;stroke-width:1px;stroke-linecap:butt;stroke-linejoin:miter;stroke-opacity:1" d="M 95.5436,766.309 103.866,741.342 z" id="boundary" inkscape:connector-curvature="0" />
	<path style="fill:none;stroke:red;stroke-width:1px;stroke-linecap:butt;stroke-linejoin:miter;stroke-opacity:1" d="M 95.5436,856.188 103.866,871.168 z" id="boundary" inkscape:connector-curvature="0" />
	<path style="fill:none;stroke:red;stroke-width:1px;stroke-linecap:butt;stroke-linejoin:miter;stroke-opacity:1" d="M 95.5436,907.785 95.5436,924.43 z" id="boundary" inkscape:connector-curvature="0" />
	<path style="fill:none;stroke:red;stroke-width:1px;stroke-linecap:butt;stroke-linejoin:miter;stroke-opacity:1" d="M 95.5436,907.785 103.866,887.812 z" id="boundary" inkscape:connector-curvature="0" />
	<path style="fill:none;stroke:red;stroke-width:1px;stroke-linecap:butt;stroke-linejoin:miter;stroke-opacity:1" d="M 95.5436,924.43 95.5436,941.074 z" id="boundary" inkscape:connector-curvature="0" />
	<path style="fill:none;stroke:red;stroke-width:1px;stroke-linecap:butt;stroke-linejoin:miter;stroke-opacity:1" d="M 95.5436,941.074 95.5436,957.718 z" id="boundary" inkscape:connector-curvature="0" />
	<path style="fill:none;stroke:red;stroke-width:1px;stroke-linecap:butt;stroke-linejoin:miter;stroke-opacity:1" d="M 95.5436,957.718 108.859,969.369 z" id="boundary" inkscape:connector-curvature="0" />
	<path style="fill:none;stroke:red;stroke-width:1px;stroke-linecap:butt;stroke-linejoin:miter;stroke-opacity:1" d="M 100.537,4 117.181,4 z" id="boundary" inkscape:connector-curvature="0" />
	<path style="fill:none;stroke:red;stroke-width:1px;stroke-linecap:butt;stroke-linejoin:miter;stroke-opacity:1" d="M 103.866,708.054 103.866,724.698 z" id="boundary" inkscape:connector-curvature="0" />
	<path style="fill:none;stroke:red;stroke-width:1px;stroke-linecap:butt;stroke-linejoin:miter;stroke-opacity:1" d="M 103.866,724.698 103.866,741.342 z" id="boundary" inkscape:connector-curvature="0" />
	<path style="fill:none;stroke:red;stroke-width:1px;stroke-linecap:butt;stroke-linejoin:miter;stroke-opacity:1" d="M 103.866,871.168 103.866,887.812 z" id="boundary" inkscape:connector-curvature="0" />
	<path style="fill:none;stroke:red;stroke-width:1px;stroke-linecap:butt;stroke-linejoin:miter;stroke-opacity:1" d="M 108.859,969.369 122.174,979.356 z" id="boundary" inkscape:connector-curvature="0" />
	<path style="fill:none;stroke:red;stroke-width:1px;stroke-linecap:butt;stroke-linejoin:miter;stroke-opacity:1" d="M 117.181,4 133.826,4 z" id="boundary" inkscape:connector-curvature="0" />
	<path style="fill:none;stroke:red;stroke-width:1px;stroke-linecap:butt;stroke-linejoin:miter;stroke-opacity:1" d="M 122.174,979.356 138.819,982.685 z" id="boundary" inkscape:connector-curvature="0" />
	<path style="fill:none;stroke:red;stroke-width:1px;stroke-linecap:butt;stroke-linejoin:miter;stroke-opacity:1" d="M 133.826,4 150.47,4 z" id="boundary" inkscape:connector-curvature="0" />
	<path style="fill:none;stroke:red;stroke-width:1px;stroke-linecap:butt;stroke-linejoin:miter;stroke-opacity:1" d="M 138.819,982.685 155.463,987.678 z" id="boundary" inkscape:connector-curvature="0" />
	<path style="fill:none;stroke:red;stroke-width:1px;stroke-linecap:butt;stroke-linejoin:miter;stroke-opacity:1" d="M 150.47,4 167.114,4 z" id="boundary" inkscape:connector-curvature="0" />
	<path style="fill:none;stroke:red;stroke-width:1px;stroke-linecap:butt;stroke-linejoin:miter;stroke-opacity:1" d="M 155.463,987.678 170.443,996 z" id="boundary" inkscape:connector-curvature="0" />
	<path style="fill:none;stroke:red;stroke-width:1px;stroke-linecap:butt;stroke-linejoin:miter;stroke-opacity:1" d="M 167.114,4 182.094,12.3221 z" id="boundary" inkscape:connector-curvature="0" />
	<path style="fill:none;stroke:red;stroke-width:1px;stroke-linecap:butt;stroke-linejoin:miter;stroke-opacity:1" d="M 170.443,996 187.087,996 z" id="boundary" inkscape:connector-curvature="0" />
	<path style="fill:none;stroke:red;stroke-width:1px;stroke-linecap:butt;stroke-linejoin:miter;stroke-opacity:1" d="M 182.094,12.3221 197.074,20.6443 z" id="boundary" inkscape:connector-curvature="0" />
	<path style="fill:none;stroke:red;stroke-width:1px;stroke-linecap:butt;stroke-linejoin:miter;stroke-opacity:1" d="M 187.087,996 203.732,996 z" id="boundary" inkscape:connector-curvature="0" />
	<path style="fill:none;stroke:red;stroke-width:1px;stroke-linecap:butt;stroke-linejoin:miter;stroke-opacity:1" d="M 197.074,20.6443 213.718,25.6376 z" id="boundary" inkscape:connector-curvature="0" />
	<path style="fill:none;stroke:red;stroke-width:1px;stroke-linecap:butt;stroke-linejoin:miter;stroke-opacity:1" d="M 203.732,996 220.376,996 z" id="boundary" inkscape:connector-curvature="0" />
	<path style="fill:none;stroke:red;stroke-width:1px;stroke-linecap:butt;stroke-linejoin:miter;stroke-opacity:1" d="M 213.718,25.6376 225.369,38.953 z" id="boundary" inkscape:connector-curvature="0" />
	<path style="fill:none;stroke:red;stroke-width:1px;stroke-linecap:butt;stroke-linejoin:miter;stroke-opacity:1" d="M 220.376,996 237.02,996 z" id="boundary" inkscape:connector-curvature="0" />
	<path style="fill:none;stroke:red;stroke-width:1px;stroke-linecap:butt;stroke-linejoin:miter;stroke-opacity:1" d="M 225.369,38.953 242.013,45.6107 z" id="boundary" inkscape:connector-curvature="0" />
	<path style="fill:none;stroke:red;stroke-width:1px;stroke-linecap:butt;stroke-linejoin:miter;stroke-opacity:1" d="M 237.02,996 253.664,996 z" id="boundary" inkscape:connector-curvature="0" />
	<path style="fill:none;stroke:red;stroke-width:1px;stroke-linecap:butt;stroke-linejoin:miter;stroke-opacity:1" d="M 238.685,871.168 247.007,846.201 z" id="boundary" inkscape:connector-curvature="0" />
	<path style="fill:none;stroke:red;stroke-width:1px;stroke-linecap:butt;stroke-linejoin:miter;stroke-opacity:1" d="M 238.685,871.168 247.007,886.148 z" id="boundary" inkscape:connector-curvature="0" />
	<path style="fill:none;stroke:red;stroke-width:1px;stroke-linecap:butt;stroke-linejoin:miter;stroke-opacity:1" d="M 242.013,45.6107 253.664,58.9262 z" id="boundary" inkscape:connector-curvature="0" />
	<path style="fill:none;stroke:red;stroke-width:1px;stroke-linecap:butt;stroke-linejoin:miter;stroke-opacity:1" d="M 247.007,205.396 247.007,222.04 z" id="boundary" inkscape:connector-curvature="0" />
	<path style="fill:none;stroke:red;stroke-width:1px;stroke-linecap:butt;stroke-linejoin:miter;stroke-opacity:1" d="M 247.007,205.396 255.329,180.43 z" id="boundary" inkscape:connector-curvature="0" />
	<path style="fill:none;stroke:red;stroke-width:1px;stroke-linecap:butt;stroke-linejoin:miter;stroke-opacity:1" d="M 247.007,222.04 250.336,238.685 z" id="boundary" inkscape:connector-curvature="0" />
	<path style="fill:none;stroke:red;stroke-width:1px;stroke-linecap:butt;stroke-linejoin:miter;stroke-opacity:1" d="M 247.007,846.201 255.329,829.557 z" id="boundary" inkscape:connector-curvature="0" />
	<path style="fill:none;stroke:red;stroke-width:1px;stroke-linecap:butt;stroke-linejoin:miter;stroke-opacity:1" d="M 247.007,886.148 260.322,896.134 z" id="boundary" inkscape:connector-curvature="0" />
	<path style="fill:none;stroke:red;stroke-width:1px;stroke-linecap:butt;stroke-linejoin:miter;stroke-opacity:1" d="M 250.336,238.685 258.658,253.664 z" id="boundary" inkscape:connector-curvature="0" />
	<path style="fill:none;stroke:red;stroke-width:1px;stroke-linecap:butt;stroke-linejoin:miter;stroke-opacity:1" d="M 253.664,58.9262 255.329,75.5705 z" id="boundary" inkscape:connector-curvature="0" />
	<path style="fill:none;stroke:red;stroke-width:1px;stroke-linecap:butt;stroke-linejoin:miter;stroke-opacity:1" d="M 253.664,996 270.309,991.007 z" id="boundary" inkscape:connector-curvature="0" />
	<path style="fill:none;stroke:red;stroke-width:1px;stroke-linecap:butt;stroke-linejoin:miter;stroke-opacity:1" d="M 255.329,75.5705 255.329,92.2148 z" id="boundary" inkscape:connector-curvature="0" />
	<path style="fill:none;stroke:red;stroke-width:1px;stroke-linecap:butt;stroke-linejoin:miter;stroke-opacity:1" d="M 255.329,92.2148 255.329,108.859 z" id="boundary" inkscape:connector-curvature="0" />
	<path style="fill:none;stroke:red;stroke-width:1px;stroke-linecap:butt;stroke-linejoin:miter;stroke-opacity:1" d="M 255.329,108.859 255.329,125.503 z" id="boundary" inkscape:connector-curvature="0" />
	<path style="fill:none;stroke:red;stroke-width:1px;stroke-linecap:butt;stroke-linejoin:miter;stroke-opacity:1" d="M 255.329,125.503 255.329,142.148 z" id="boundary" inkscape:connector-curvature="0" />
	<path style="fill:none;stroke:red;stroke-width:1px;stroke-linecap:butt;stroke-linejoin:miter;stroke-opacity:1" d="M 255.329,142.148 263.651,157.128 z" id="boundary" inkscape:connector-curvature="0" />
	<path style="fill:none;stroke:red;stroke-width:1px;stroke-linecap:butt;stroke-linejoin:miter;stroke-opacity:1" d="M 255.329,180.43 263.651,157.128 z" id="boundary" inkscape:connector-curvature="0" />
	<path style="fill:none;stroke:red;stroke-width:1px;stroke-linecap:butt;stroke-linejoin:miter;stroke-opacity:1" d="M 255.329,829.557 263.651,812.913 z" id="boundary" inkscape:connector-curvature="0" />
	<path style="fill:none;stroke:red;stroke-width:1px;stroke-linecap:butt;stroke-linejoin:miter;stroke-opacity:1" d="M 258.658,253.664 270.309,266.98 z" id="boundary" inkscape:connector-curvature="0" />
	<path style="fill:none;stroke:red;stroke-width:1px;stroke-linecap:butt;stroke-linejoin:miter;stroke-opacity:1" d="M 260.322,896.134 275.302,904.456 z" id="boundary" inkscape:connector-curvature="0" />
	<path style="fill:none;stroke:red;stroke-width:1px;stroke-linecap:butt;stroke-linejoin:miter;stroke-opacity:1" d="M 263.651,779.624 263.651,796.268 z" id="boundary" inkscape:connector-curvature="0" />
	<path style="fill:none;stroke:red;stroke-width:1px;stroke-linecap:butt;stroke-linejoin:miter;stroke-opacity:1" d="M 263.651,779.624 271.973,762.98 z" id="boundary" inkscape:connector-curvature="0" />
	<path style="fill:none;stroke:red;stroke-width:1px;stroke-linecap:butt;stroke-linejoin:miter;stroke-opacity:1" d="M 263.651,796.268 263.651,812.913 z" id="boundary" inkscape:connector-curvature="0" />
	<path style="fill:none;stroke:red;stroke-width:1px;stroke-linecap:butt;stroke-linejoin:miter;stroke-opacity:1" d="M 270.309,266.98 271.973,283.624 z" id="boundary" inkscape:connector-curvature="0" />
	<path style="fill:none;stroke:red;stroke-width:1px;stroke-linecap:butt;stroke-linejoin:miter;stroke-opacity:1" d="M 270.309,991.007 283.624,979.356 z" id="boundary" inkscape:connector-curvature="0" />
	<path style="fill:none;stroke:red;stroke-width:1px;stroke-linecap:butt;stroke-linejoin:miter;stroke-opacity:1" d="M 271.973,283.624 278.631,300.268 z" id="boundary" inkscape:connector-curvature="0" />
	<path style="fill:none;stroke:red;stroke-width:1px;stroke-linecap:butt;stroke-linejoin:miter;stroke-opacity:1" d="M 271.973,762.98 280.295,738.013 z" id="boundary" inkscape:connector-curvature="0" />
	<path style="fill:none;stroke:red;stroke-width:1px;stroke-linecap:butt;stroke-linejoin:miter;stroke-opacity:1" d="M 275.302,904.456 283.624,919.436 z" id="boundary" inkscape:connector-curvature="0" />
	<path style="fill:none;stroke:red;stroke-width:1px;stroke-linecap:butt;stroke-linejoin:miter;stroke-opacity:1" d="M 278.631,300.268 280.295,316.913 z" id="boundary" inkscape:connector-curvature="0" />
	<path style="fill:none;stroke:red;stroke-width:1px;stroke-linecap:butt;stroke-linejoin:miter;stroke-opacity:1" d="M 280.295,316.913 288.617,331.893 z" id="boundary" inkscape:connector-curvature="0" />
	<path style="fill:none;stroke:red;stroke-width:1px;stroke-linecap:butt;stroke-linejoin:miter;stroke-opacity:1" d="M 280.295,371.839 283.624,388.483 z" id="boundary" inkscape:connector-curvature="0" />
	<path style="fill:none;stroke:red;stroke-width:1px;stroke-linecap:butt;stroke-linejoin:miter;stroke-opacity:1" d="M 280.295,371.839 288.617,348.537 z" id="boundary" inkscape:connector-curvature="0" />
	<path style="fill:none;stroke:red;stroke-width:1px;stroke-linecap:butt;stroke-linejoin:miter;stroke-opacity:1" d="M 280.295,688.081 280.295,704.725 z" id="boundary" inkscape:connector-curvature="0" />
	<path style="fill:none;stroke:red;stroke-width:1px;stroke-linecap:butt;stroke-linejoin:miter;stroke-opacity:1" d="M 280.295,688.081 288.617,671.436 z" id="boundary" inkscape:connector-curvature="0" />
	<path style="fill:none;stroke:red;stroke-width:1px;stroke-linecap:butt;stroke-linejoin:miter;stroke-opacity:1" d="M 280.295,704.725 280.295,721.369 z" id="boundary" inkscape:connector-curvature="0" />
	<path style="fill:none;stroke:red;stroke-width:1px;stroke-linecap:butt;stroke-linejoin:miter;stroke-opacity:1" d="M 280.295,721.369 280.295,738.013 z" id="boundary" inkscape:connector-curvature="0" />
	<path style="fill:none;stroke:red;stroke-width:1px;stroke-linecap:butt;stroke-linejoin:miter;stroke-opacity:1" d="M 283.624,388.483 291.946,403.463 z" id="boundary" inkscape:connector-curvature="0" />
	<path style="fill:none;stroke:red;stroke-width:1px;stroke-linecap:butt;stroke-linejoin:miter;stroke-opacity:1" d="M 283.624,919.436 298.604,927.758 z" id="boundary" inkscape:connector-curvature="0" />
	<path style="fill:none;stroke:red;stroke-width:1px;stroke-linecap:butt;stroke-linejoin:miter;stroke-opacity:1" d="M 283.624,979.356 298.604,971.034 z" id="boundary" inkscape:connector-curvature="0" />
	<path style="fill:none;stroke:red;stroke-width:1px;stroke-linecap:butt;stroke-linejoin:miter;stroke-opacity:1" d="M 288.617,331.893 288.617,348.537 z" id="boundary" inkscape:connector-curvature="0" />
	<path style="fill:none;stroke:red;stroke-width:1px;stroke-linecap:butt;stroke-linejoin:miter;stroke-opacity:1" d="M 288.617,671.436 301.933,659.785 z" id="boundary" inkscape:connector-curvature="0" />
	<path style="fill:none;stroke:red;stroke-width:1px;stroke-linecap:butt;stroke-linejoin:miter;stroke-opacity:1" d="M 291.946,403.463 296.94,420.107 z" id="boundary" inkscape:connector-curvature="0" />
	<path style="fill:none;stroke:red;stroke-width:1px;stroke-linecap:butt;stroke-linejoin:miter;stroke-opacity:1" d="M 296.94,420.107 305.262,435.087 z" id="boundary" inkscape:connector-curvature="0" />
	<path style="fill:none;stroke:red;stroke-width:1px;stroke-linecap:butt;stroke-linejoin:miter;stroke-opacity:1" d="M 298.604,927.758 313.584,936.081 z" id="boundary" inkscape:connector-curvature="0" />
	<path style="fill:none;stroke:red;stroke-width:1px;stroke-linecap:butt;stroke-linejoin:miter;stroke-opacity:1" d="M 298.604,971.034 315.248,971.034 z" id="boundary" inkscape:connector-curvature="0" />
	<path style="fill:none;stroke:red;stroke-width:1px;stroke-linecap:butt;stroke-linejoin:miter;stroke-opacity:1" d="M 301.933,659.785 313.584,646.47 z" id="boundary" inkscape:connector-curvature="0" />
	<path style="fill:none;stroke:red;stroke-width:1px;stroke-linecap:butt;stroke-linejoin:miter;stroke-opacity:1" d="M 305.262,435.087 305.262,451.732 z" id="boundary" inkscape:connector-curvature="0" />
	<path style="fill:none;stroke:red;stroke-width:1px;stroke-linecap:butt;stroke-linejoin:miter;stroke-opacity:1" d="M 305.262,451.732 313.584,466.711 z" id="boundary" inkscape:connector-curvature="0" />
	<path style="fill:none;stroke:red;stroke-width:1px;stroke-linecap:butt;stroke-linejoin:miter;stroke-opacity:1" d="M 313.584,466.711 321.906,481.691 z" id="boundary" inkscape:connector-curvature="0" />
	<path style="fill:none;stroke:red;stroke-width:1px;stroke-linecap:butt;stroke-linejoin:miter;stroke-opacity:1" d="M 313.584,646.47 321.906,629.826 z" id="boundary" inkscape:connector-curvature="0" />
	<path style="fill:none;stroke:red;stroke-width:1px;stroke-linecap:butt;stroke-linejoin:miter;stroke-opacity:1" d="M 313.584,936.081 321.906,951.06 z" id="boundary" inkscape:connector-curvature="0" />
	<path style="fill:none;stroke:red;stroke-width:1px;stroke-linecap:butt;stroke-linejoin:miter;stroke-opacity:1" d="M 315.248,971.034 321.906,951.06 z" id="boundary" inkscape:connector-curvature="0" />
	<path style="fill:none;stroke:red;stroke-width:1px;stroke-linecap:butt;stroke-linejoin:miter;stroke-opacity:1" d="M 321.906,481.691 326.899,498.336 z" id="boundary" inkscape:connector-curvature="0" />
	<path style="fill:none;stroke:red;stroke-width:1px;stroke-linecap:butt;stroke-linejoin:miter;stroke-opacity:1" d="M 321.906,613.181 321.906,629.826 z" id="boundary" inkscape:connector-curvature="0" />
	<path style="fill:none;stroke:red;stroke-width:1px;stroke-linecap:butt;stroke-linejoin:miter;stroke-opacity:1" d="M 321.906,613.181 335.221,601.53 z" id="boundary" inkscape:connector-curvature="0" />
	<path style="fill:none;stroke:red;stroke-width:1px;stroke-linecap:butt;stroke-linejoin:miter;stroke-opacity:1" d="M 326.899,498.336 330.228,514.98 z" id="boundary" inkscape:connector-curvature="0" />
	<path style="fill:none;stroke:red;stroke-width:1px;stroke-linecap:butt;stroke-linejoin:miter;stroke-opacity:1" d="M 330.228,514.98 338.55,529.96 z" id="boundary" inkscape:connector-curvature="0" />
	<path style="fill:none;stroke:red;stroke-width:1px;stroke-linecap:butt;stroke-linejoin:miter;stroke-opacity:1" d="M 335.221,601.53 346.872,578.228 z" id="boundary" inkscape:connector-curvature="0" />
	<path style="fill:none;stroke:red;stroke-width:1px;stroke-linecap:butt;stroke-linejoin:miter;stroke-opacity:1" d="M 338.55,529.96 346.872,544.94 z" id="boundary" inkscape:connector-curvature="0" />
	<path style="fill:none;stroke:red;stroke-width:1px;stroke-linecap:butt;stroke-linejoin:miter;stroke-opacity:1" d="M 346.872,544.94 346.872,561.584 z" id="boundary" inkscape:connector-curvature="0" />
	<path style="fill:none;stroke:red;stroke-width:1px;stroke-linecap:butt;stroke-linejoin:miter;stroke-opacity:1" d="M 346.872,561.584 346.872,578.228 z" id="boundary" inkscape:connector-curvature="0" />
	<circle cx="4" cy="308.591" r="4" fill="#0" id="circle0"/>
	<circle cx="4" cy="325.235" r="4" fill="#0" id="circle1"/>
	<circle cx="4" cy="341.879" r="4" fill="#0" id="circle2"/>
	<circle cx="4" cy="358.523" r="4" fill="#0" id="circle3"/>
	<circle cx="4" cy="375.168" r="4" fill="#0" id="circle4"/>
	<circle cx="12.3221" cy="92.2148" r="4" fill="#0" id="circle5"/>
	<circle cx="12.3221" cy="291.946" r="4" fill="#0" id="circle6"/>
	<circle cx="12.3221" cy="390.148" r="4" fill="#0" id="circle7"/>
	<circle cx="12.3221" cy="441.745" r="4" fill="#0" id="circle8"/>
	<circle cx="20.6443" cy="67.2483" r="4" fill="#0" id="circle9"/>
	<circle cx="20.6443" cy="107.195" r="4" fill="#0" id="circle10"/>
	<circle cx="20.6443" cy="275.302" r="4" fill="#0" id="circle11"/>
	<circle cx="20.6443" cy="405.128" r="4" fill="#0" id="circle12"/>
	<circle cx="20.6443" cy="421.772" r="4" fill="#0" id="circle13"/>
	<circle cx="20.6443" cy="456.725" r="4" fill="#0" id="circle14"/>
	<circle cx="28.9664" cy="50.604" r="4" fill="#0" id="circle15"/>
	<circle cx="28.9664" cy="122.174" r="4" fill="#0" id="circle16"/>
	<circle cx="28.9664" cy="138.819" r="4" fill="#0" id="circle17"/>
	<circle cx="28.9664" cy="471.705" r="4" fill="#0" id="circle18"/>
	<circle cx="28.9664" cy="488.349" r="4" fill="#0" id="circle19"/>
	<circle cx="28.9664" cy="504.993" r="4" fill="#0" id="circle20"/>
	<circle cx="33.9597" cy="261.987" r="4" fill="#0" id="circle21"/>
	<circle cx="37.2886" cy="153.799" r="4" fill="#0" id="circle22"/>
	<circle cx="37.2886" cy="519.973" r="4" fill="#0" id="circle23"/>
	<circle cx="37.2886" cy="536.617" r="4" fill="#0" id="circle24"/>
	<circle cx="40.6174" cy="553.262" r="4" fill="#0" id="circle25"/>
	<circle cx="42.2819" cy="37.2886" r="4" fill="#0" id="circle26"/>
	<circle cx="45.6107" cy="168.779" r="4" fill="#0" id="circle27"/>
	<circle cx="45.6107" cy="569.906" r="4" fill="#0" id="circle28"/>
	<circle cx="45.6107" cy="586.55" r="4" fill="#0" id="circle29"/>
	<circle cx="47.2752" cy="248.671" r="4" fill="#0" id="circle30"/>
	<circle cx="48.9396" cy="603.195" r="4" fill="#0" id="circle31"/>
	<circle cx="53.9329" cy="183.758" r="4" fill="#0" id="circle32"/>
	<circle cx="53.9329" cy="619.839" r="4" fill="#0" id="circle33"/>
	<circle cx="55.5973" cy="23.9732" r="4" fill="#0" id="circle34"/>
	<circle cx="60.5906" cy="237.02" r="4" fill="#0" id="circle35"/>
	<circle cx="62.255" cy="198.738" r="4" fill="#0" id="circle36"/>
	<circle cx="62.255" cy="215.383" r="4" fill="#0" id="circle37"/>
	<circle cx="62.255" cy="634.819" r="4" fill="#0" id="circle38"/>
	<circle cx="63.9195" cy="651.463" r="4" fill="#0" id="circle39"/>
	<circle cx="68.9128" cy="12.3221" r="4" fill="#0" id="circle40"/>
	<circle cx="72.2416" cy="666.443" r="4" fill="#0" id="circle41"/>
	<circle cx="83.8926" cy="4" r="4" fill="#0" id="circle42"/>
	<circle cx="83.8926" cy="679.758" r="4" fill="#0" id="circle43"/>
	<circle cx="87.2215" cy="791.275" r="4" fill="#0" id="circle44"/>
	<circle cx="87.2215" cy="807.919" r="4" fill="#0" id="circle45"/>
	<circle cx="87.2215" cy="824.564" r="4" fill="#0" id="circle46"/>
	<circle cx="87.2215" cy="841.208" r="4" fill="#0" id="circle47"/>
	<circle cx="95.5436" cy="693.074" r="4" fill="#0" id="circle48"/>
	<circle cx="95.5436" cy="766.309" r="4" fill="#0" id="circle49"/>
	<circle cx="95.5436" cy="856.188" r="4" fill="#0" id="circle50"/>
	<circle cx="95.5436" cy="907.785" r="4" fill="#0" id="circle51"/>
	<circle cx="95.5436" cy="924.43" r="4" fill="#0" id="circle52"/>
	<circle cx="95.5436" cy="941.074" r="4" fill="#0" id="circle53"/>
	<circle cx="95.5436" cy="957.718" r="4" fill="#0" id="circle54"/>
	<circle cx="100.537" cy="4" r="4" fill="#0" id="circle55"/>
	<circle cx="103.866" cy="708.054" r="4" fill="#0" id="circle56"/>
	<circle cx="103.866" cy="724.698" r="4" fill="#0" id="circle57"/>
	<circle cx="103.866" cy="741.342" r="4" fill="#0" id="circle58"/>
	<circle cx="103.866" cy="871.168" r="4" fill="#0" id="circle59"/>
	<circle cx="103.866" cy="887.812" r="4" fill="#0" id="circle60"/>
	<circle cx="108.859" cy="969.369" r="4" fill="#0" id="circle61"/>
	<circle cx="117.181" cy="4" r="4" fill="#0" id="circle62"/>
	<circle cx="122.174" cy="979.356" r="4" fill="#0" id="circle63"/>
	<circle cx="133.826" cy="4" r="4" fill="#0" id="circle64"/>
	<circle cx="138.819" cy="982.685" r="4" fill="#0" id="circle65"/>
	<circle cx="150.47" cy="4" r="4" fill="#0" id="circle66"/>
	<circle cx="155.463" cy="987.678" r="4" fill="#0" id="circle67"/>
	<circle cx="167.114" cy="4" r="4" fill="#0" id="circle68"/>
	<circle cx="170.443" cy="996" r="4" fill="#0" id="circle69"/>
	<circle cx="182.094" cy="12.3221" r="4" fill="#0" id="circle70"/>
	<circle cx="187.087" cy="996" r="4" fill="#0" id="circle71"/>
	<circle cx="197.074" cy="20.6443" r="4" fill="#0" id="circle72"/>
	<circle cx="203.732" cy="996" r="4" fill="#0" id="circle73"/>
	<circle cx="213.718" cy="25.6376" r="4" fill="#0" id="circle74"/>
	<circle cx="220.376" cy="996" r="4" fill="#0" id="circle75"/>
	<circle cx="225.369" cy="38.953" r="4" fill="#0" id="circle76"/>
	<circle cx="237.02" cy="996" r="4" fill="#0" id="circle77"/>
	<circle cx="238.685" cy="871.168" r="4" fill="#0" id="circle78"/>
	<circle cx="242.013" cy="45.6107" r="4" fill="#0" id="circle79"/>
	<circle cx="247.007" cy="205.396" r="4" fill="#0" id="circle80"/>
	<circle cx="247.007" cy="222.04" r="4" fill="#0" id="circle81"/>
	<circle cx="247.007" cy="846.201" r="4" fill="#0" id="circle82"/>
	<circle cx="247.007" cy="886.148" r="4" fill="#0" id="circle83"/>
	<circle cx="250.336" cy="238.685" r="4" fill="#0" id="circle84"/>
	<circle cx="253.664" cy="58.9262" r="4" fill="#0" id="circle85"/>
	<circle cx="253.664" cy="996" r="4" fill="#0" id="circle86"/>
	<circle cx="255.329" cy="75.5705" r="4" fill="#0" id="circle87"/>
	<circle cx="255.329" cy="92.2148" r="4" fill="#0" id="circle88"/>
	<circle cx="255.329" cy="108.859" r="4" fill="#0" id="circle89"/>
	<circle cx="255.329" cy="125.503" r="4" fill="#0" id="circle90"/>
	<circle cx="255.329" cy="142.148" r="4" fill="#0" id="circle91"/>
	<circle cx="255.329" cy="180.43" r="4" fill="#0" id="circle92"/>
	<circle cx="255.329" cy="829.557" r="4" fill="#0" id="circle93"/>
	<circle cx="258.658" cy="253.664" r="4" fill="#0" id="circle94"/>
	<circle cx="260.322" cy="896.134" r="4" fill="#0" id="circle95"/>
	<circle cx="263.651" cy="157.128" r="4" fill="#0" id="circle96"/>
	<circle cx="263.651" cy="779.624" r="4" fill="#0" id="circle97"/>
	<circle cx="263.651" cy="796.268" r="4" fill="#0" id="circle98"/>
	<circle cx="263.651" cy="812.913" r="4" fill="#0" id="circle99"/>
	<circle cx="270.309" cy="266.98" r="4" fill="#0" id="circle100"/>
	<circle cx="270.309" cy="991.007" r="4" fill="#0" id="circle101"/>
	<circle cx="271.973" cy="283.624" r="4" fill="#0" id="circle102"/>
	<circle cx="271.973" cy="762.98" r="4" fill="#0" id="circle103"/>
	<circle cx="275.302" cy="904.456" r="4" fill="#0" id="circle104"/>
	<circle cx="278.631" cy="300.268" r="4" fill="#0" id="circle105"/>
	<circle cx="280.295" cy="316.913" r="4" fill="#0" id="circle106"/>
	<circle cx="280.295" cy="371.839" r="4" fill="#0" id="circle107"/>
	<circle cx="280.295" cy="688.081" r="4" fill="#0" id="circle108"/>
	<circle cx="280.295" cy="704.725" r="4" fill="#0" id="circle109"/>
	<circle cx="280.295" cy="721.369" r="4" fill="#0" id="circle110"/>
	<circle cx="280.295" cy="738.013" r="4" fill="#0" id="circle111"/>
	<circle cx="283.624" cy="388.483" r="4" fill="#0" id="circle112"/>
	<circle cx="283.624" cy="919.436" r="4" fill="#0" id="circle113"/>
	<circle cx="283.624" cy="979.356" r="4" fill="#0" id="circle114"/>
	<circle cx="288.617" cy="331.893" r="4" fill="#0" id="circle115"/>
	<circle cx="288.617" cy="348.537" r="4" fill="#0" id="circle116"/>
	<circle cx="288.617" cy="671.436" r="4" fill="#0" id="circle117"/>
	<circle cx="291.946" cy="403.463" r="4" fill="#0" id="circle118"/>
	<circle cx="296.94" cy="420.107" r="4" fill="#0" id="circle119"/>
	<circle cx="298.604" cy="927.758" r="4" fill="#0" id="circle120"/>
	<circle cx="298.604" cy="971.034" r="4" fill="#0" id="circle121"/>
	<circle cx="301.933" cy="659.785" r="4" fill="#0" id="circle122"/>
	<circle cx="305.262" cy="435.087" r="4" fill="#0" id="circle123"/>
	<circle cx="305.262" cy="451.732" r="4" fill="#0" id="circle124"/>
	<circle cx="313.584" cy="466.711" r="4" fill="#0" id="circle125"/>
	<circle cx="313.584" cy="646.47" r="4" fill="#0" id="circle126"/>
	<circle cx="313.584" cy="936.081" r="4" fill="#0" id="circle127"/>
	<circle cx="315.248" cy="971.034" r="4" fill="#0" id="circle128"/>
	<circle cx="321.906" cy="481.691" r="4" fill="#0" id="circle129"/>
	<circle cx="321.906" cy="613.181" r="4" fill="#0" id="circle130"/>
	<circle cx="321.906" cy="629.826" r="4" fill="#0" id="circle131"/>
	<circle cx="321.906" cy="951.06" r="4" fill="#0" id="circle132"/>
	<circle cx="326.899" cy="498.336" r="4" fill="#0" id="circle133"/>
	<circle cx="330.228" cy="514.98" r="4" fill="#0" id="circle134"/>
	<circle cx="335.221" cy="601.53" r="4" fill="#0" id="circle135"/>
	<circle cx="338.55" cy="529.96" r="4" fill="#0" id="circle136"/>
	<circle cx="346.872" cy="544.94" r="4" fill="#0" id="circle137"/>
	<circle cx="346.872" cy="561.584" r="4" fill="#0" id="circle138"/>
	<circle cx="346.872" cy="578.228" r="4" fill="#0" id="circle139"/>
	</g>
</svg>