<?xml version="1.0" encoding="UTF-8" standalone="no"?>
<!-- Created with CurveBenchmark -->
<svg
	xmlns:dc="http://purl.org/dc/elements/1.1/"
	xmlns:cc="http://creativecommons.org/ns#"
	xmlns:rdf="http://www.w3.org/1999/02/22-rdf-syntax-ns#"
	xmlns:svg="http://www.w3.org/2000/svg"
	xmlns="http://www.w3.org/2000/svg"
	xmlns:sodipodi="http://sodipodi.sourceforge.net/DTD/sodipodi-0.dtd"
	xmlns:inkscape="http://www.inkscape.org/namespaces/inkscape"
	width="1000"
	height="1000"
	id="svg2"
	version="1.1"
	sodipodi:docname="manifold/fitconnect-stef06.png.txt">
<defs
	id="defs4" />
<metadata
	id="metadata7">
	<rdf:RDF>
		<cc:Work
			rdf:about="">
			<dc:format>image/svg+xml</dc:format>
			<dc:type
				rdf:resource="http://purl.org/dc/dcmitype/StillImage" />
			<dc:title></dc:title>
		</cc:Work>
	</rdf:RDF>
</metadata>
<g
	inkscape:label="Layer 1"
	inkscape:groupmode="layer"
	id="layer1">
	<path style="fill:none;stroke:red;stroke-width:1px;stroke-linecap:butt;stroke-linejoin:miter;stroke-opacity:1" d="M 4,89.4785 15.2472,66.9841 z" id="boundary" inkscape:connector-curvature="0" />
	<path style="fill:none;stroke:red;stroke-width:1px;stroke-linecap:butt;stroke-linejoin:miter;stroke-opacity:1" d="M 4,89.4785 15.2472,109.723 z" id="boundary" inkscape:connector-curvature="0" />
	<path style="fill:none;stroke:red;stroke-width:1px;stroke-linecap:butt;stroke-linejoin:miter;stroke-opacity:1" d="M 15.2472,66.9841 26.4943,44.4898 z" id="boundary" inkscape:connector-curvature="0" />
	<path style="fill:none;stroke:red;stroke-width:1px;stroke-linecap:butt;stroke-linejoin:miter;stroke-opacity:1" d="M 15.2472,109.723 26.4943,129.968 z" id="boundary" inkscape:connector-curvature="0" />
	<path style="fill:none;stroke:red;stroke-width:1px;stroke-linecap:butt;stroke-linejoin:miter;stroke-opacity:1" d="M 26.4943,44.4898 44.4898,26.4943 z" id="boundary" inkscape:connector-curvature="0" />
	<path style="fill:none;stroke:red;stroke-width:1px;stroke-linecap:butt;stroke-linejoin:miter;stroke-opacity:1" d="M 26.4943,129.968 46.7392,141.215 z" id="boundary" inkscape:connector-curvature="0" />
	<path style="fill:none;stroke:red;stroke-width:1px;stroke-linecap:butt;stroke-linejoin:miter;stroke-opacity:1" d="M 44.4898,26.4943 64.7347,15.2472 z" id="boundary" inkscape:connector-curvature="0" />
	<path style="fill:none;stroke:red;stroke-width:1px;stroke-linecap:butt;stroke-linejoin:miter;stroke-opacity:1" d="M 46.7392,141.215 66.9841,152.463 z" id="boundary" inkscape:connector-curvature="0" />
	<path style="fill:none;stroke:red;stroke-width:1px;stroke-linecap:butt;stroke-linejoin:miter;stroke-opacity:1" d="M 64.7347,15.2472 84.9796,4 z" id="boundary" inkscape:connector-curvature="0" />
	<path style="fill:none;stroke:red;stroke-width:1px;stroke-linecap:butt;stroke-linejoin:miter;stroke-opacity:1" d="M 66.9841,152.463 89.4785,152.463 z" id="boundary" inkscape:connector-curvature="0" />
	<path style="fill:none;stroke:red;stroke-width:1px;stroke-linecap:butt;stroke-linejoin:miter;stroke-opacity:1" d="M 84.9796,4 107.474,4 z" id="boundary" inkscape:connector-curvature="0" />
	<path style="fill:none;stroke:red;stroke-width:1px;stroke-linecap:butt;stroke-linejoin:miter;stroke-opacity:1" d="M 89.4785,152.463 109.723,163.71 z" id="boundary" inkscape:connector-curvature="0" />
	<path style="fill:none;stroke:red;stroke-width:1px;stroke-linecap:butt;stroke-linejoin:miter;stroke-opacity:1" d="M 107.474,4 129.968,4 z" id="boundary" inkscape:connector-curvature="0" />
	<path style="fill:none;stroke:red;stroke-width:1px;stroke-linecap:butt;stroke-linejoin:miter;stroke-opacity:1" d="M 109.723,163.71 127.719,177.206 z" id="boundary" inkscape:connector-curvature="0" />
	<path style="fill:none;stroke:red;stroke-width:1px;stroke-linecap:butt;stroke-linejoin:miter;stroke-opacity:1" d="M 127.719,177.206 138.966,197.451 z" id="boundary" inkscape:connector-curvature="0" />
	<path style="fill:none;stroke:red;stroke-width:1px;stroke-linecap:butt;stroke-linejoin:miter;stroke-opacity:1" d="M 127.719,516.871 127.719,539.365 z" id="boundary" inkscape:connector-curvature="0" />
	<path style="fill:none;stroke:red;stroke-width:1px;stroke-linecap:butt;stroke-linejoin:miter;stroke-opacity:1" d="M 127.719,516.871 138.966,494.376 z" id="boundary" inkscape:connector-curvature="0" />
	<path style="fill:none;stroke:red;stroke-width:1px;stroke-linecap:butt;stroke-linejoin:miter;stroke-opacity:1" d="M 127.719,539.365 138.966,559.61 z" id="boundary" inkscape:connector-curvature="0" />
	<path style="fill:none;stroke:red;stroke-width:1px;stroke-linecap:butt;stroke-linejoin:miter;stroke-opacity:1" d="M 129.968,4 150.213,15.2472 z" id="boundary" inkscape:connector-curvature="0" />
	<path style="fill:none;stroke:red;stroke-width:1px;stroke-linecap:butt;stroke-linejoin:miter;stroke-opacity:1" d="M 138.966,197.451 152.463,215.447 z" id="boundary" inkscape:connector-curvature="0" />
	<path style="fill:none;stroke:red;stroke-width:1px;stroke-linecap:butt;stroke-linejoin:miter;stroke-opacity:1" d="M 138.966,494.376 156.961,476.381 z" id="boundary" inkscape:connector-curvature="0" />
	<path style="fill:none;stroke:red;stroke-width:1px;stroke-linecap:butt;stroke-linejoin:miter;stroke-opacity:1" d="M 138.966,559.61 150.213,579.855 z" id="boundary" inkscape:connector-curvature="0" />
	<path style="fill:none;stroke:red;stroke-width:1px;stroke-linecap:butt;stroke-linejoin:miter;stroke-opacity:1" d="M 150.213,15.2472 168.209,28.7438 z" id="boundary" inkscape:connector-curvature="0" />
	<path style="fill:none;stroke:red;stroke-width:1px;stroke-linecap:butt;stroke-linejoin:miter;stroke-opacity:1" d="M 150.213,579.855 163.71,597.85 z" id="boundary" inkscape:connector-curvature="0" />
	<path style="fill:none;stroke:red;stroke-width:1px;stroke-linecap:butt;stroke-linejoin:miter;stroke-opacity:1" d="M 152.463,215.447 170.458,231.193 z" id="boundary" inkscape:connector-curvature="0" />
	<path style="fill:none;stroke:red;stroke-width:1px;stroke-linecap:butt;stroke-linejoin:miter;stroke-opacity:1" d="M 156.961,476.381 172.707,449.388 z" id="boundary" inkscape:connector-curvature="0" />
	<path style="fill:none;stroke:red;stroke-width:1px;stroke-linecap:butt;stroke-linejoin:miter;stroke-opacity:1" d="M 163.71,597.85 186.204,606.848 z" id="boundary" inkscape:connector-curvature="0" />
	<path style="fill:none;stroke:red;stroke-width:1px;stroke-linecap:butt;stroke-linejoin:miter;stroke-opacity:1" d="M 168.209,28.7438 179.456,48.9887 z" id="boundary" inkscape:connector-curvature="0" />
	<path style="fill:none;stroke:red;stroke-width:1px;stroke-linecap:butt;stroke-linejoin:miter;stroke-opacity:1" d="M 170.458,231.193 192.952,231.193 z" id="boundary" inkscape:connector-curvature="0" />
	<path style="fill:none;stroke:red;stroke-width:1px;stroke-linecap:butt;stroke-linejoin:miter;stroke-opacity:1" d="M 172.707,449.388 183.955,426.893 z" id="boundary" inkscape:connector-curvature="0" />
	<path style="fill:none;stroke:red;stroke-width:1px;stroke-linecap:butt;stroke-linejoin:miter;stroke-opacity:1" d="M 179.456,48.9887 186.204,71.483 z" id="boundary" inkscape:connector-curvature="0" />
	<path style="fill:none;stroke:red;stroke-width:1px;stroke-linecap:butt;stroke-linejoin:miter;stroke-opacity:1" d="M 183.955,426.893 206.449,415.646 z" id="boundary" inkscape:connector-curvature="0" />
	<path style="fill:none;stroke:red;stroke-width:1px;stroke-linecap:butt;stroke-linejoin:miter;stroke-opacity:1" d="M 186.204,71.483 204.2,84.9796 z" id="boundary" inkscape:connector-curvature="0" />
	<path style="fill:none;stroke:red;stroke-width:1px;stroke-linecap:butt;stroke-linejoin:miter;stroke-opacity:1" d="M 186.204,606.848 206.449,618.095 z" id="boundary" inkscape:connector-curvature="0" />
	<path style="fill:none;stroke:red;stroke-width:1px;stroke-linecap:butt;stroke-linejoin:miter;stroke-opacity:1" d="M 192.952,231.193 213.197,242.44 z" id="boundary" inkscape:connector-curvature="0" />
	<path style="fill:none;stroke:red;stroke-width:1px;stroke-linecap:butt;stroke-linejoin:miter;stroke-opacity:1" d="M 204.2,84.9796 226.694,84.9796 z" id="boundary" inkscape:connector-curvature="0" />
	<path style="fill:none;stroke:red;stroke-width:1px;stroke-linecap:butt;stroke-linejoin:miter;stroke-opacity:1" d="M 206.449,415.646 224.444,397.651 z" id="boundary" inkscape:connector-curvature="0" />
	<path style="fill:none;stroke:red;stroke-width:1px;stroke-linecap:butt;stroke-linejoin:miter;stroke-opacity:1" d="M 206.449,618.095 224.444,633.841 z" id="boundary" inkscape:connector-curvature="0" />
	<path style="fill:none;stroke:red;stroke-width:1px;stroke-linecap:butt;stroke-linejoin:miter;stroke-opacity:1" d="M 213.197,242.44 233.442,253.687 z" id="boundary" inkscape:connector-curvature="0" />
	<path style="fill:none;stroke:red;stroke-width:1px;stroke-linecap:butt;stroke-linejoin:miter;stroke-opacity:1" d="M 224.444,397.651 244.689,386.404 z" id="boundary" inkscape:connector-curvature="0" />
	<path style="fill:none;stroke:red;stroke-width:1px;stroke-linecap:butt;stroke-linejoin:miter;stroke-opacity:1" d="M 224.444,633.841 240.19,651.837 z" id="boundary" inkscape:connector-curvature="0" />
	<path style="fill:none;stroke:red;stroke-width:1px;stroke-linecap:butt;stroke-linejoin:miter;stroke-opacity:1" d="M 226.694,84.9796 246.939,96.2268 z" id="boundary" inkscape:connector-curvature="0" />
	<path style="fill:none;stroke:red;stroke-width:1px;stroke-linecap:butt;stroke-linejoin:miter;stroke-opacity:1" d="M 233.442,253.687 251.438,267.184 z" id="boundary" inkscape:connector-curvature="0" />
	<path style="fill:none;stroke:red;stroke-width:1px;stroke-linecap:butt;stroke-linejoin:miter;stroke-opacity:1" d="M 240.19,651.837 251.438,672.082 z" id="boundary" inkscape:connector-curvature="0" />
	<path style="fill:none;stroke:red;stroke-width:1px;stroke-linecap:butt;stroke-linejoin:miter;stroke-opacity:1" d="M 244.689,386.404 264.934,375.156 z" id="boundary" inkscape:connector-curvature="0" />
	<path style="fill:none;stroke:red;stroke-width:1px;stroke-linecap:butt;stroke-linejoin:miter;stroke-opacity:1" d="M 246.939,96.2268 269.433,105.224 z" id="boundary" inkscape:connector-curvature="0" />
	<path style="fill:none;stroke:red;stroke-width:1px;stroke-linecap:butt;stroke-linejoin:miter;stroke-opacity:1" d="M 251.438,267.184 267.184,285.179 z" id="boundary" inkscape:connector-curvature="0" />
	<path style="fill:none;stroke:red;stroke-width:1px;stroke-linecap:butt;stroke-linejoin:miter;stroke-opacity:1" d="M 251.438,672.082 262.685,692.327 z" id="boundary" inkscape:connector-curvature="0" />
	<path style="fill:none;stroke:red;stroke-width:1px;stroke-linecap:butt;stroke-linejoin:miter;stroke-opacity:1" d="M 251.438,865.533 251.438,888.027 z" id="boundary" inkscape:connector-curvature="0" />
	<path style="fill:none;stroke:red;stroke-width:1px;stroke-linecap:butt;stroke-linejoin:miter;stroke-opacity:1" d="M 251.438,865.533 262.685,843.039 z" id="boundary" inkscape:connector-curvature="0" />
	<path style="fill:none;stroke:red;stroke-width:1px;stroke-linecap:butt;stroke-linejoin:miter;stroke-opacity:1" d="M 251.438,888.027 273.932,894.776 z" id="boundary" inkscape:connector-curvature="0" />
	<path style="fill:none;stroke:red;stroke-width:1px;stroke-linecap:butt;stroke-linejoin:miter;stroke-opacity:1" d="M 262.685,692.327 276.181,710.322 z" id="boundary" inkscape:connector-curvature="0" />
	<path style="fill:none;stroke:red;stroke-width:1px;stroke-linecap:butt;stroke-linejoin:miter;stroke-opacity:1" d="M 262.685,843.039 280.68,825.043 z" id="boundary" inkscape:connector-curvature="0" />
	<path style="fill:none;stroke:red;stroke-width:1px;stroke-linecap:butt;stroke-linejoin:miter;stroke-opacity:1" d="M 264.934,375.156 287.429,368.408 z" id="boundary" inkscape:connector-curvature="0" />
	<path style="fill:none;stroke:red;stroke-width:1px;stroke-linecap:butt;stroke-linejoin:miter;stroke-opacity:1" d="M 267.184,285.179 285.179,298.676 z" id="boundary" inkscape:connector-curvature="0" />
	<path style="fill:none;stroke:red;stroke-width:1px;stroke-linecap:butt;stroke-linejoin:miter;stroke-opacity:1" d="M 269.433,105.224 289.678,116.472 z" id="boundary" inkscape:connector-curvature="0" />
	<path style="fill:none;stroke:red;stroke-width:1px;stroke-linecap:butt;stroke-linejoin:miter;stroke-opacity:1" d="M 273.932,894.776 296.426,899.274 z" id="boundary" inkscape:connector-curvature="0" />
	<path style="fill:none;stroke:red;stroke-width:1px;stroke-linecap:butt;stroke-linejoin:miter;stroke-opacity:1" d="M 276.181,546.113 280.68,568.608 z" id="boundary" inkscape:connector-curvature="0" />
	<path style="fill:none;stroke:red;stroke-width:1px;stroke-linecap:butt;stroke-linejoin:miter;stroke-opacity:1" d="M 276.181,546.113 298.676,546.113 z" id="boundary" inkscape:connector-curvature="0" />
	<path style="fill:none;stroke:red;stroke-width:1px;stroke-linecap:butt;stroke-linejoin:miter;stroke-opacity:1" d="M 276.181,710.322 287.429,730.567 z" id="boundary" inkscape:connector-curvature="0" />
	<path style="fill:none;stroke:red;stroke-width:1px;stroke-linecap:butt;stroke-linejoin:miter;stroke-opacity:1" d="M 280.68,568.608 303.175,577.605 z" id="boundary" inkscape:connector-curvature="0" />
	<path style="fill:none;stroke:red;stroke-width:1px;stroke-linecap:butt;stroke-linejoin:miter;stroke-opacity:1" d="M 280.68,825.043 303.175,813.796 z" id="boundary" inkscape:connector-curvature="0" />
	<path style="fill:none;stroke:red;stroke-width:1px;stroke-linecap:butt;stroke-linejoin:miter;stroke-opacity:1" d="M 285.179,298.676 298.676,316.671 z" id="boundary" inkscape:connector-curvature="0" />
	<path style="fill:none;stroke:red;stroke-width:1px;stroke-linecap:butt;stroke-linejoin:miter;stroke-opacity:1" d="M 287.429,368.408 309.923,363.909 z" id="boundary" inkscape:connector-curvature="0" />
	<path style="fill:none;stroke:red;stroke-width:1px;stroke-linecap:butt;stroke-linejoin:miter;stroke-opacity:1" d="M 287.429,730.567 296.426,753.061 z" id="boundary" inkscape:connector-curvature="0" />
	<path style="fill:none;stroke:red;stroke-width:1px;stroke-linecap:butt;stroke-linejoin:miter;stroke-opacity:1" d="M 289.678,116.472 309.923,127.719 z" id="boundary" inkscape:connector-curvature="0" />
	<path style="fill:none;stroke:red;stroke-width:1px;stroke-linecap:butt;stroke-linejoin:miter;stroke-opacity:1" d="M 296.426,753.061 314.422,768.807 z" id="boundary" inkscape:connector-curvature="0" />
	<path style="fill:none;stroke:red;stroke-width:1px;stroke-linecap:butt;stroke-linejoin:miter;stroke-opacity:1" d="M 296.426,899.274 318.921,899.274 z" id="boundary" inkscape:connector-curvature="0" />
	<path style="fill:none;stroke:red;stroke-width:1px;stroke-linecap:butt;stroke-linejoin:miter;stroke-opacity:1" d="M 298.676,316.671 316.671,332.417 z" id="boundary" inkscape:connector-curvature="0" />
	<path style="fill:none;stroke:red;stroke-width:1px;stroke-linecap:butt;stroke-linejoin:miter;stroke-opacity:1" d="M 298.676,546.113 321.17,534.866 z" id="boundary" inkscape:connector-curvature="0" />
	<path style="fill:none;stroke:red;stroke-width:1px;stroke-linecap:butt;stroke-linejoin:miter;stroke-opacity:1" d="M 303.175,577.605 323.42,588.853 z" id="boundary" inkscape:connector-curvature="0" />
	<path style="fill:none;stroke:red;stroke-width:1px;stroke-linecap:butt;stroke-linejoin:miter;stroke-opacity:1" d="M 303.175,813.796 314.422,791.302 z" id="boundary" inkscape:connector-curvature="0" />
	<path style="fill:none;stroke:red;stroke-width:1px;stroke-linecap:butt;stroke-linejoin:miter;stroke-opacity:1" d="M 309.923,127.719 327.918,141.215 z" id="boundary" inkscape:connector-curvature="0" />
	<path style="fill:none;stroke:red;stroke-width:1px;stroke-linecap:butt;stroke-linejoin:miter;stroke-opacity:1" d="M 309.923,363.909 330.168,350.413 z" id="boundary" inkscape:connector-curvature="0" />
	<path style="fill:none;stroke:red;stroke-width:1px;stroke-linecap:butt;stroke-linejoin:miter;stroke-opacity:1" d="M 314.422,768.807 314.422,791.302 z" id="boundary" inkscape:connector-curvature="0" />
	<path style="fill:none;stroke:red;stroke-width:1px;stroke-linecap:butt;stroke-linejoin:miter;stroke-opacity:1" d="M 316.671,332.417 330.168,350.413 z" id="boundary" inkscape:connector-curvature="0" />
	<path style="fill:none;stroke:red;stroke-width:1px;stroke-linecap:butt;stroke-linejoin:miter;stroke-opacity:1" d="M 318.921,899.274 341.415,894.776 z" id="boundary" inkscape:connector-curvature="0" />
	<path style="fill:none;stroke:red;stroke-width:1px;stroke-linecap:butt;stroke-linejoin:miter;stroke-opacity:1" d="M 321.17,534.866 343.664,534.866 z" id="boundary" inkscape:connector-curvature="0" />
	<path style="fill:none;stroke:red;stroke-width:1px;stroke-linecap:butt;stroke-linejoin:miter;stroke-opacity:1" d="M 323.42,588.853 332.417,611.347 z" id="boundary" inkscape:connector-curvature="0" />
	<path style="fill:none;stroke:red;stroke-width:1px;stroke-linecap:butt;stroke-linejoin:miter;stroke-opacity:1" d="M 327.918,141.215 348.163,152.463 z" id="boundary" inkscape:connector-curvature="0" />
	<path style="fill:none;stroke:red;stroke-width:1px;stroke-linecap:butt;stroke-linejoin:miter;stroke-opacity:1" d="M 332.417,611.347 343.664,631.592 z" id="boundary" inkscape:connector-curvature="0" />
	<path style="fill:none;stroke:red;stroke-width:1px;stroke-linecap:butt;stroke-linejoin:miter;stroke-opacity:1" d="M 341.415,894.776 361.66,883.528 z" id="boundary" inkscape:connector-curvature="0" />
	<path style="fill:none;stroke:red;stroke-width:1px;stroke-linecap:butt;stroke-linejoin:miter;stroke-opacity:1" d="M 343.664,534.866 366.159,523.619 z" id="boundary" inkscape:connector-curvature="0" />
	<path style="fill:none;stroke:red;stroke-width:1px;stroke-linecap:butt;stroke-linejoin:miter;stroke-opacity:1" d="M 343.664,631.592 354.912,651.837 z" id="boundary" inkscape:connector-curvature="0" />
	<path style="fill:none;stroke:red;stroke-width:1px;stroke-linecap:butt;stroke-linejoin:miter;stroke-opacity:1" d="M 348.163,152.463 366.159,168.209 z" id="boundary" inkscape:connector-curvature="0" />
	<path style="fill:none;stroke:red;stroke-width:1px;stroke-linecap:butt;stroke-linejoin:miter;stroke-opacity:1" d="M 354.912,651.837 366.159,672.082 z" id="boundary" inkscape:connector-curvature="0" />
	<path style="fill:none;stroke:red;stroke-width:1px;stroke-linecap:butt;stroke-linejoin:miter;stroke-opacity:1" d="M 361.66,883.528 384.154,879.029 z" id="boundary" inkscape:connector-curvature="0" />
	<path style="fill:none;stroke:red;stroke-width:1px;stroke-linecap:butt;stroke-linejoin:miter;stroke-opacity:1" d="M 366.159,168.209 386.404,179.456 z" id="boundary" inkscape:connector-curvature="0" />
	<path style="fill:none;stroke:red;stroke-width:1px;stroke-linecap:butt;stroke-linejoin:miter;stroke-opacity:1" d="M 366.159,523.619 388.653,512.372 z" id="boundary" inkscape:connector-curvature="0" />
	<path style="fill:none;stroke:red;stroke-width:1px;stroke-linecap:butt;stroke-linejoin:miter;stroke-opacity:1" d="M 366.159,672.082 372.907,694.576 z" id="boundary" inkscape:connector-curvature="0" />
	<path style="fill:none;stroke:red;stroke-width:1px;stroke-linecap:butt;stroke-linejoin:miter;stroke-opacity:1" d="M 372.907,694.576 384.154,714.821 z" id="boundary" inkscape:connector-curvature="0" />
	<path style="fill:none;stroke:red;stroke-width:1px;stroke-linecap:butt;stroke-linejoin:miter;stroke-opacity:1" d="M 384.154,714.821 393.152,737.315 z" id="boundary" inkscape:connector-curvature="0" />
	<path style="fill:none;stroke:red;stroke-width:1px;stroke-linecap:butt;stroke-linejoin:miter;stroke-opacity:1" d="M 384.154,879.029 406.649,867.782 z" id="boundary" inkscape:connector-curvature="0" />
	<path style="fill:none;stroke:red;stroke-width:1px;stroke-linecap:butt;stroke-linejoin:miter;stroke-opacity:1" d="M 386.404,179.456 404.399,195.202 z" id="boundary" inkscape:connector-curvature="0" />
	<path style="fill:none;stroke:red;stroke-width:1px;stroke-linecap:butt;stroke-linejoin:miter;stroke-opacity:1" d="M 388.653,512.372 411.147,512.372 z" id="boundary" inkscape:connector-curvature="0" />
	<path style="fill:none;stroke:red;stroke-width:1px;stroke-linecap:butt;stroke-linejoin:miter;stroke-opacity:1" d="M 393.152,737.315 399.9,759.81 z" id="boundary" inkscape:connector-curvature="0" />
	<path style="fill:none;stroke:red;stroke-width:1px;stroke-linecap:butt;stroke-linejoin:miter;stroke-opacity:1" d="M 399.9,759.81 411.147,780.054 z" id="boundary" inkscape:connector-curvature="0" />
	<path style="fill:none;stroke:red;stroke-width:1px;stroke-linecap:butt;stroke-linejoin:miter;stroke-opacity:1" d="M 404.399,195.202 424.644,206.449 z" id="boundary" inkscape:connector-curvature="0" />
	<path style="fill:none;stroke:red;stroke-width:1px;stroke-linecap:butt;stroke-linejoin:miter;stroke-opacity:1" d="M 406.649,867.782 422.395,849.787 z" id="boundary" inkscape:connector-curvature="0" />
	<path style="fill:none;stroke:red;stroke-width:1px;stroke-linecap:butt;stroke-linejoin:miter;stroke-opacity:1" d="M 411.147,512.372 431.392,501.125 z" id="boundary" inkscape:connector-curvature="0" />
	<path style="fill:none;stroke:red;stroke-width:1px;stroke-linecap:butt;stroke-linejoin:miter;stroke-opacity:1" d="M 411.147,780.054 422.395,800.299 z" id="boundary" inkscape:connector-curvature="0" />
	<path style="fill:none;stroke:red;stroke-width:1px;stroke-linecap:butt;stroke-linejoin:miter;stroke-opacity:1" d="M 422.395,800.299 433.642,827.293 z" id="boundary" inkscape:connector-curvature="0" />
	<path style="fill:none;stroke:red;stroke-width:1px;stroke-linecap:butt;stroke-linejoin:miter;stroke-opacity:1" d="M 422.395,849.787 433.642,827.293 z" id="boundary" inkscape:connector-curvature="0" />
	<path style="fill:none;stroke:red;stroke-width:1px;stroke-linecap:butt;stroke-linejoin:miter;stroke-opacity:1" d="M 424.644,206.449 442.639,222.195 z" id="boundary" inkscape:connector-curvature="0" />
	<path style="fill:none;stroke:red;stroke-width:1px;stroke-linecap:butt;stroke-linejoin:miter;stroke-opacity:1" d="M 431.392,501.125 451.637,489.878 z" id="boundary" inkscape:connector-curvature="0" />
	<path style="fill:none;stroke:red;stroke-width:1px;stroke-linecap:butt;stroke-linejoin:miter;stroke-opacity:1" d="M 442.639,222.195 456.136,240.19 z" id="boundary" inkscape:connector-curvature="0" />
	<path style="fill:none;stroke:red;stroke-width:1px;stroke-linecap:butt;stroke-linejoin:miter;stroke-opacity:1" d="M 451.637,489.878 471.882,478.63 z" id="boundary" inkscape:connector-curvature="0" />
	<path style="fill:none;stroke:red;stroke-width:1px;stroke-linecap:butt;stroke-linejoin:miter;stroke-opacity:1" d="M 456.136,240.19 474.132,253.687 z" id="boundary" inkscape:connector-curvature="0" />
	<path style="fill:none;stroke:red;stroke-width:1px;stroke-linecap:butt;stroke-linejoin:miter;stroke-opacity:1" d="M 471.882,478.63 476.381,501.125 z" id="boundary" inkscape:connector-curvature="0" />
	<path style="fill:none;stroke:red;stroke-width:1px;stroke-linecap:butt;stroke-linejoin:miter;stroke-opacity:1" d="M 474.132,253.687 489.878,271.683 z" id="boundary" inkscape:connector-curvature="0" />
	<path style="fill:none;stroke:red;stroke-width:1px;stroke-linecap:butt;stroke-linejoin:miter;stroke-opacity:1" d="M 476.381,501.125 476.381,523.619 z" id="boundary" inkscape:connector-curvature="0" />
	<path style="fill:none;stroke:red;stroke-width:1px;stroke-linecap:butt;stroke-linejoin:miter;stroke-opacity:1" d="M 476.381,523.619 487.628,543.864 z" id="boundary" inkscape:connector-curvature="0" />
	<path style="fill:none;stroke:red;stroke-width:1px;stroke-linecap:butt;stroke-linejoin:miter;stroke-opacity:1" d="M 487.628,543.864 492.127,566.358 z" id="boundary" inkscape:connector-curvature="0" />
	<path style="fill:none;stroke:red;stroke-width:1px;stroke-linecap:butt;stroke-linejoin:miter;stroke-opacity:1" d="M 489.878,271.683 501.125,291.927 z" id="boundary" inkscape:connector-curvature="0" />
	<path style="fill:none;stroke:red;stroke-width:1px;stroke-linecap:butt;stroke-linejoin:miter;stroke-opacity:1" d="M 492.127,566.358 503.374,586.603 z" id="boundary" inkscape:connector-curvature="0" />
	<path style="fill:none;stroke:red;stroke-width:1px;stroke-linecap:butt;stroke-linejoin:miter;stroke-opacity:1" d="M 501.125,291.927 510.122,314.422 z" id="boundary" inkscape:connector-curvature="0" />
	<path style="fill:none;stroke:red;stroke-width:1px;stroke-linecap:butt;stroke-linejoin:miter;stroke-opacity:1" d="M 503.374,586.603 512.372,609.098 z" id="boundary" inkscape:connector-curvature="0" />
	<path style="fill:none;stroke:red;stroke-width:1px;stroke-linecap:butt;stroke-linejoin:miter;stroke-opacity:1" d="M 510.122,314.422 528.118,330.168 z" id="boundary" inkscape:connector-curvature="0" />
	<path style="fill:none;stroke:red;stroke-width:1px;stroke-linecap:butt;stroke-linejoin:miter;stroke-opacity:1" d="M 512.372,609.098 530.367,624.844 z" id="boundary" inkscape:connector-curvature="0" />
	<path style="fill:none;stroke:red;stroke-width:1px;stroke-linecap:butt;stroke-linejoin:miter;stroke-opacity:1" d="M 528.118,330.168 534.866,352.662 z" id="boundary" inkscape:connector-curvature="0" />
	<path style="fill:none;stroke:red;stroke-width:1px;stroke-linecap:butt;stroke-linejoin:miter;stroke-opacity:1" d="M 530.367,624.844 539.365,647.338 z" id="boundary" inkscape:connector-curvature="0" />
	<path style="fill:none;stroke:red;stroke-width:1px;stroke-linecap:butt;stroke-linejoin:miter;stroke-opacity:1" d="M 534.866,352.662 552.862,366.159 z" id="boundary" inkscape:connector-curvature="0" />
	<path style="fill:none;stroke:red;stroke-width:1px;stroke-linecap:butt;stroke-linejoin:miter;stroke-opacity:1" d="M 539.365,647.338 550.612,667.583 z" id="boundary" inkscape:connector-curvature="0" />
	<path style="fill:none;stroke:red;stroke-width:1px;stroke-linecap:butt;stroke-linejoin:miter;stroke-opacity:1" d="M 550.612,667.583 568.608,681.079 z" id="boundary" inkscape:connector-curvature="0" />
	<path style="fill:none;stroke:red;stroke-width:1px;stroke-linecap:butt;stroke-linejoin:miter;stroke-opacity:1" d="M 552.862,366.159 564.109,386.404 z" id="boundary" inkscape:connector-curvature="0" />
	<path style="fill:none;stroke:red;stroke-width:1px;stroke-linecap:butt;stroke-linejoin:miter;stroke-opacity:1" d="M 564.109,386.404 579.855,404.399 z" id="boundary" inkscape:connector-curvature="0" />
	<path style="fill:none;stroke:red;stroke-width:1px;stroke-linecap:butt;stroke-linejoin:miter;stroke-opacity:1" d="M 568.608,681.079 591.102,685.578 z" id="boundary" inkscape:connector-curvature="0" />
	<path style="fill:none;stroke:red;stroke-width:1px;stroke-linecap:butt;stroke-linejoin:miter;stroke-opacity:1" d="M 579.855,404.399 591.102,424.644 z" id="boundary" inkscape:connector-curvature="0" />
	<path style="fill:none;stroke:red;stroke-width:1px;stroke-linecap:butt;stroke-linejoin:miter;stroke-opacity:1" d="M 591.102,424.644 597.85,447.138 z" id="boundary" inkscape:connector-curvature="0" />
	<path style="fill:none;stroke:red;stroke-width:1px;stroke-linecap:butt;stroke-linejoin:miter;stroke-opacity:1" d="M 591.102,685.578 606.848,703.574 z" id="boundary" inkscape:connector-curvature="0" />
	<path style="fill:none;stroke:red;stroke-width:1px;stroke-linecap:butt;stroke-linejoin:miter;stroke-opacity:1" d="M 597.85,447.138 609.098,467.383 z" id="boundary" inkscape:connector-curvature="0" />
	<path style="fill:none;stroke:red;stroke-width:1px;stroke-linecap:butt;stroke-linejoin:miter;stroke-opacity:1" d="M 606.848,703.574 627.093,714.821 z" id="boundary" inkscape:connector-curvature="0" />
	<path style="fill:none;stroke:red;stroke-width:1px;stroke-linecap:butt;stroke-linejoin:miter;stroke-opacity:1" d="M 609.098,467.383 613.596,489.878 z" id="boundary" inkscape:connector-curvature="0" />
	<path style="fill:none;stroke:red;stroke-width:1px;stroke-linecap:butt;stroke-linejoin:miter;stroke-opacity:1" d="M 613.596,489.878 613.596,512.372 z" id="boundary" inkscape:connector-curvature="0" />
	<path style="fill:none;stroke:red;stroke-width:1px;stroke-linecap:butt;stroke-linejoin:miter;stroke-opacity:1" d="M 613.596,512.372 613.596,534.866 z" id="boundary" inkscape:connector-curvature="0" />
	<path style="fill:none;stroke:red;stroke-width:1px;stroke-linecap:butt;stroke-linejoin:miter;stroke-opacity:1" d="M 613.596,534.866 613.596,557.361 z" id="boundary" inkscape:connector-curvature="0" />
	<path style="fill:none;stroke:red;stroke-width:1px;stroke-linecap:butt;stroke-linejoin:miter;stroke-opacity:1" d="M 613.596,557.361 618.095,579.855 z" id="boundary" inkscape:connector-curvature="0" />
	<path style="fill:none;stroke:red;stroke-width:1px;stroke-linecap:butt;stroke-linejoin:miter;stroke-opacity:1" d="M 618.095,579.855 636.091,595.601 z" id="boundary" inkscape:connector-curvature="0" />
	<path style="fill:none;stroke:red;stroke-width:1px;stroke-linecap:butt;stroke-linejoin:miter;stroke-opacity:1" d="M 627.093,714.821 647.338,726.068 z" id="boundary" inkscape:connector-curvature="0" />
	<path style="fill:none;stroke:red;stroke-width:1px;stroke-linecap:butt;stroke-linejoin:miter;stroke-opacity:1" d="M 636.091,595.601 654.086,611.347 z" id="boundary" inkscape:connector-curvature="0" />
	<path style="fill:none;stroke:red;stroke-width:1px;stroke-linecap:butt;stroke-linejoin:miter;stroke-opacity:1" d="M 647.338,726.068 667.583,737.315 z" id="boundary" inkscape:connector-curvature="0" />
	<path style="fill:none;stroke:red;stroke-width:1px;stroke-linecap:butt;stroke-linejoin:miter;stroke-opacity:1" d="M 654.086,611.347 674.331,622.594 z" id="boundary" inkscape:connector-curvature="0" />
	<path style="fill:none;stroke:red;stroke-width:1px;stroke-linecap:butt;stroke-linejoin:miter;stroke-opacity:1" d="M 667.583,737.315 687.828,748.562 z" id="boundary" inkscape:connector-curvature="0" />
	<path style="fill:none;stroke:red;stroke-width:1px;stroke-linecap:butt;stroke-linejoin:miter;stroke-opacity:1" d="M 674.331,622.594 690.077,640.59 z" id="boundary" inkscape:connector-curvature="0" />
	<path style="fill:none;stroke:red;stroke-width:1px;stroke-linecap:butt;stroke-linejoin:miter;stroke-opacity:1" d="M 687.828,748.562 708.073,759.81 z" id="boundary" inkscape:connector-curvature="0" />
	<path style="fill:none;stroke:red;stroke-width:1px;stroke-linecap:butt;stroke-linejoin:miter;stroke-opacity:1" d="M 690.077,640.59 712.571,649.587 z" id="boundary" inkscape:connector-curvature="0" />
	<path style="fill:none;stroke:red;stroke-width:1px;stroke-linecap:butt;stroke-linejoin:miter;stroke-opacity:1" d="M 708.073,759.81 730.567,759.81 z" id="boundary" inkscape:connector-curvature="0" />
	<path style="fill:none;stroke:red;stroke-width:1px;stroke-linecap:butt;stroke-linejoin:miter;stroke-opacity:1" d="M 712.571,649.587 735.066,649.587 z" id="boundary" inkscape:connector-curvature="0" />
	<path style="fill:none;stroke:red;stroke-width:1px;stroke-linecap:butt;stroke-linejoin:miter;stroke-opacity:1" d="M 730.567,759.81 750.812,771.057 z" id="boundary" inkscape:connector-curvature="0" />
	<path style="fill:none;stroke:red;stroke-width:1px;stroke-linecap:butt;stroke-linejoin:miter;stroke-opacity:1" d="M 735.066,649.587 748.562,667.583 z" id="boundary" inkscape:connector-curvature="0" />
	<path style="fill:none;stroke:red;stroke-width:1px;stroke-linecap:butt;stroke-linejoin:miter;stroke-opacity:1" d="M 748.562,667.583 766.558,681.079 z" id="boundary" inkscape:connector-curvature="0" />
	<path style="fill:none;stroke:red;stroke-width:1px;stroke-linecap:butt;stroke-linejoin:miter;stroke-opacity:1" d="M 750.812,771.057 771.057,782.304 z" id="boundary" inkscape:connector-curvature="0" />
	<path style="fill:none;stroke:red;stroke-width:1px;stroke-linecap:butt;stroke-linejoin:miter;stroke-opacity:1" d="M 766.558,681.079 782.304,699.075 z" id="boundary" inkscape:connector-curvature="0" />
	<path style="fill:none;stroke:red;stroke-width:1px;stroke-linecap:butt;stroke-linejoin:miter;stroke-opacity:1" d="M 771.057,782.304 791.302,793.551 z" id="boundary" inkscape:connector-curvature="0" />
	<path style="fill:none;stroke:red;stroke-width:1px;stroke-linecap:butt;stroke-linejoin:miter;stroke-opacity:1" d="M 782.304,699.075 804.798,708.073 z" id="boundary" inkscape:connector-curvature="0" />
	<path style="fill:none;stroke:red;stroke-width:1px;stroke-linecap:butt;stroke-linejoin:miter;stroke-opacity:1" d="M 791.302,793.551 813.796,793.551 z" id="boundary" inkscape:connector-curvature="0" />
	<path style="fill:none;stroke:red;stroke-width:1px;stroke-linecap:butt;stroke-linejoin:miter;stroke-opacity:1" d="M 804.798,708.073 820.544,726.068 z" id="boundary" inkscape:connector-curvature="0" />
	<path style="fill:none;stroke:red;stroke-width:1px;stroke-linecap:butt;stroke-linejoin:miter;stroke-opacity:1" d="M 813.796,793.551 834.041,804.798 z" id="boundary" inkscape:connector-curvature="0" />
	<path style="fill:none;stroke:red;stroke-width:1px;stroke-linecap:butt;stroke-linejoin:miter;stroke-opacity:1" d="M 820.544,726.068 838.54,741.814 z" id="boundary" inkscape:connector-curvature="0" />
	<path style="fill:none;stroke:red;stroke-width:1px;stroke-linecap:butt;stroke-linejoin:miter;stroke-opacity:1" d="M 834.041,804.798 854.286,816.045 z" id="boundary" inkscape:connector-curvature="0" />
	<path style="fill:none;stroke:red;stroke-width:1px;stroke-linecap:butt;stroke-linejoin:miter;stroke-opacity:1" d="M 838.54,741.814 854.286,759.81 z" id="boundary" inkscape:connector-curvature="0" />
	<path style="fill:none;stroke:red;stroke-width:1px;stroke-linecap:butt;stroke-linejoin:miter;stroke-opacity:1" d="M 854.286,759.81 876.78,768.807 z" id="boundary" inkscape:connector-curvature="0" />
	<path style="fill:none;stroke:red;stroke-width:1px;stroke-linecap:butt;stroke-linejoin:miter;stroke-opacity:1" d="M 854.286,816.045 858.785,838.54 z" id="boundary" inkscape:connector-curvature="0" />
	<path style="fill:none;stroke:red;stroke-width:1px;stroke-linecap:butt;stroke-linejoin:miter;stroke-opacity:1" d="M 858.785,838.54 865.533,861.034 z" id="boundary" inkscape:connector-curvature="0" />
	<path style="fill:none;stroke:red;stroke-width:1px;stroke-linecap:butt;stroke-linejoin:miter;stroke-opacity:1" d="M 865.533,861.034 870.032,883.528 z" id="boundary" inkscape:connector-curvature="0" />
	<path style="fill:none;stroke:red;stroke-width:1px;stroke-linecap:butt;stroke-linejoin:miter;stroke-opacity:1" d="M 870.032,883.528 870.032,906.023 z" id="boundary" inkscape:connector-curvature="0" />
	<path style="fill:none;stroke:red;stroke-width:1px;stroke-linecap:butt;stroke-linejoin:miter;stroke-opacity:1" d="M 870.032,906.023 870.032,928.517 z" id="boundary" inkscape:connector-curvature="0" />
	<path style="fill:none;stroke:red;stroke-width:1px;stroke-linecap:butt;stroke-linejoin:miter;stroke-opacity:1" d="M 870.032,928.517 870.032,951.011 z" id="boundary" inkscape:connector-curvature="0" />
	<path style="fill:none;stroke:red;stroke-width:1px;stroke-linecap:butt;stroke-linejoin:miter;stroke-opacity:1" d="M 870.032,951.011 883.528,969.007 z" id="boundary" inkscape:connector-curvature="0" />
	<path style="fill:none;stroke:red;stroke-width:1px;stroke-linecap:butt;stroke-linejoin:miter;stroke-opacity:1" d="M 876.78,768.807 897.025,780.054 z" id="boundary" inkscape:connector-curvature="0" />
	<path style="fill:none;stroke:red;stroke-width:1px;stroke-linecap:butt;stroke-linejoin:miter;stroke-opacity:1" d="M 883.528,969.007 901.524,982.503 z" id="boundary" inkscape:connector-curvature="0" />
	<path style="fill:none;stroke:red;stroke-width:1px;stroke-linecap:butt;stroke-linejoin:miter;stroke-opacity:1" d="M 897.025,780.054 917.27,791.302 z" id="boundary" inkscape:connector-curvature="0" />
	<path style="fill:none;stroke:red;stroke-width:1px;stroke-linecap:butt;stroke-linejoin:miter;stroke-opacity:1" d="M 901.524,982.503 917.27,962.259 z" id="boundary" inkscape:connector-curvature="0" />
	<path style="fill:none;stroke:red;stroke-width:1px;stroke-linecap:butt;stroke-linejoin:miter;stroke-opacity:1" d="M 917.27,791.302 939.764,786.803 z" id="boundary" inkscape:connector-curvature="0" />
	<path style="fill:none;stroke:red;stroke-width:1px;stroke-linecap:butt;stroke-linejoin:miter;stroke-opacity:1" d="M 917.27,962.259 939.764,951.011 z" id="boundary" inkscape:connector-curvature="0" />
	<path style="fill:none;stroke:red;stroke-width:1px;stroke-linecap:butt;stroke-linejoin:miter;stroke-opacity:1" d="M 939.764,786.803 962.259,786.803 z" id="boundary" inkscape:connector-curvature="0" />
	<path style="fill:none;stroke:red;stroke-width:1px;stroke-linecap:butt;stroke-linejoin:miter;stroke-opacity:1" d="M 939.764,951.011 951.011,917.27 z" id="boundary" inkscape:connector-curvature="0" />
	<path style="fill:none;stroke:red;stroke-width:1px;stroke-linecap:butt;stroke-linejoin:miter;stroke-opacity:1" d="M 951.011,917.27 969.007,901.524 z" id="boundary" inkscape:connector-curvature="0" />
	<path style="fill:none;stroke:red;stroke-width:1px;stroke-linecap:butt;stroke-linejoin:miter;stroke-opacity:1" d="M 962.259,786.803 978.005,804.798 z" id="boundary" inkscape:connector-curvature="0" />
	<path style="fill:none;stroke:red;stroke-width:1px;stroke-linecap:butt;stroke-linejoin:miter;stroke-opacity:1" d="M 969.007,901.524 980.254,879.029 z" id="boundary" inkscape:connector-curvature="0" />
	<path style="fill:none;stroke:red;stroke-width:1px;stroke-linecap:butt;stroke-linejoin:miter;stroke-opacity:1" d="M 978.005,804.798 996,820.544 z" id="boundary" inkscape:connector-curvature="0" />
	<path style="fill:none;stroke:red;stroke-width:1px;stroke-linecap:butt;stroke-linejoin:miter;stroke-opacity:1" d="M 980.254,879.029 991.501,856.535 z" id="boundary" inkscape:connector-curvature="0" />
	<path style="fill:none;stroke:red;stroke-width:1px;stroke-linecap:butt;stroke-linejoin:miter;stroke-opacity:1" d="M 991.501,856.535 996,820.544 z" id="boundary" inkscape:connector-curvature="0" />
	<circle cx="4" cy="89.4785" r="4" fill="#0" id="circle0"/>
	<circle cx="15.2472" cy="66.9841" r="4" fill="#0" id="circle1"/>
	<circle cx="15.2472" cy="109.723" r="4" fill="#0" id="circle2"/>
	<circle cx="26.4943" cy="44.4898" r="4" fill="#0" id="circle3"/>
	<circle cx="26.4943" cy="129.968" r="4" fill="#0" id="circle4"/>
	<circle cx="44.4898" cy="26.4943" r="4" fill="#0" id="circle5"/>
	<circle cx="46.7392" cy="141.215" r="4" fill="#0" id="circle6"/>
	<circle cx="64.7347" cy="15.2472" r="4" fill="#0" id="circle7"/>
	<circle cx="66.9841" cy="152.463" r="4" fill="#0" id="circle8"/>
	<circle cx="84.9796" cy="4" r="4" fill="#0" id="circle9"/>
	<circle cx="89.4785" cy="152.463" r="4" fill="#0" id="circle10"/>
	<circle cx="107.474" cy="4" r="4" fill="#0" id="circle11"/>
	<circle cx="109.723" cy="163.71" r="4" fill="#0" id="circle12"/>
	<circle cx="127.719" cy="177.206" r="4" fill="#0" id="circle13"/>
	<circle cx="127.719" cy="516.871" r="4" fill="#0" id="circle14"/>
	<circle cx="127.719" cy="539.365" r="4" fill="#0" id="circle15"/>
	<circle cx="129.968" cy="4" r="4" fill="#0" id="circle16"/>
	<circle cx="138.966" cy="197.451" r="4" fill="#0" id="circle17"/>
	<circle cx="138.966" cy="494.376" r="4" fill="#0" id="circle18"/>
	<circle cx="138.966" cy="559.61" r="4" fill="#0" id="circle19"/>
	<circle cx="150.213" cy="15.2472" r="4" fill="#0" id="circle20"/>
	<circle cx="150.213" cy="579.855" r="4" fill="#0" id="circle21"/>
	<circle cx="152.463" cy="215.447" r="4" fill="#0" id="circle22"/>
	<circle cx="156.961" cy="476.381" r="4" fill="#0" id="circle23"/>
	<circle cx="163.71" cy="597.85" r="4" fill="#0" id="circle24"/>
	<circle cx="168.209" cy="28.7438" r="4" fill="#0" id="circle25"/>
	<circle cx="170.458" cy="231.193" r="4" fill="#0" id="circle26"/>
	<circle cx="172.707" cy="449.388" r="4" fill="#0" id="circle27"/>
	<circle cx="179.456" cy="48.9887" r="4" fill="#0" id="circle28"/>
	<circle cx="183.955" cy="426.893" r="4" fill="#0" id="circle29"/>
	<circle cx="186.204" cy="71.483" r="4" fill="#0" id="circle30"/>
	<circle cx="186.204" cy="606.848" r="4" fill="#0" id="circle31"/>
	<circle cx="192.952" cy="231.193" r="4" fill="#0" id="circle32"/>
	<circle cx="204.2" cy="84.9796" r="4" fill="#0" id="circle33"/>
	<circle cx="206.449" cy="415.646" r="4" fill="#0" id="circle34"/>
	<circle cx="206.449" cy="618.095" r="4" fill="#0" id="circle35"/>
	<circle cx="213.197" cy="242.44" r="4" fill="#0" id="circle36"/>
	<circle cx="224.444" cy="397.651" r="4" fill="#0" id="circle37"/>
	<circle cx="224.444" cy="633.841" r="4" fill="#0" id="circle38"/>
	<circle cx="226.694" cy="84.9796" r="4" fill="#0" id="circle39"/>
	<circle cx="233.442" cy="253.687" r="4" fill="#0" id="circle40"/>
	<circle cx="240.19" cy="651.837" r="4" fill="#0" id="circle41"/>
	<circle cx="244.689" cy="386.404" r="4" fill="#0" id="circle42"/>
	<circle cx="246.939" cy="96.2268" r="4" fill="#0" id="circle43"/>
	<circle cx="251.438" cy="267.184" r="4" fill="#0" id="circle44"/>
	<circle cx="251.438" cy="672.082" r="4" fill="#0" id="circle45"/>
	<circle cx="251.438" cy="865.533" r="4" fill="#0" id="circle46"/>
	<circle cx="251.438" cy="888.027" r="4" fill="#0" id="circle47"/>
	<circle cx="262.685" cy="692.327" r="4" fill="#0" id="circle48"/>
	<circle cx="262.685" cy="843.039" r="4" fill="#0" id="circle49"/>
	<circle cx="264.934" cy="375.156" r="4" fill="#0" id="circle50"/>
	<circle cx="267.184" cy="285.179" r="4" fill="#0" id="circle51"/>
	<circle cx="269.433" cy="105.224" r="4" fill="#0" id="circle52"/>
	<circle cx="273.932" cy="894.776" r="4" fill="#0" id="circle53"/>
	<circle cx="276.181" cy="546.113" r="4" fill="#0" id="circle54"/>
	<circle cx="276.181" cy="710.322" r="4" fill="#0" id="circle55"/>
	<circle cx="280.68" cy="568.608" r="4" fill="#0" id="circle56"/>
	<circle cx="280.68" cy="825.043" r="4" fill="#0" id="circle57"/>
	<circle cx="285.179" cy="298.676" r="4" fill="#0" id="circle58"/>
	<circle cx="287.429" cy="368.408" r="4" fill="#0" id="circle59"/>
	<circle cx="287.429" cy="730.567" r="4" fill="#0" id="circle60"/>
	<circle cx="289.678" cy="116.472" r="4" fill="#0" id="circle61"/>
	<circle cx="296.426" cy="753.061" r="4" fill="#0" id="circle62"/>
	<circle cx="296.426" cy="899.274" r="4" fill="#0" id="circle63"/>
	<circle cx="298.676" cy="316.671" r="4" fill="#0" id="circle64"/>
	<circle cx="298.676" cy="546.113" r="4" fill="#0" id="circle65"/>
	<circle cx="303.175" cy="577.605" r="4" fill="#0" id="circle66"/>
	<circle cx="303.175" cy="813.796" r="4" fill="#0" id="circle67"/>
	<circle cx="309.923" cy="127.719" r="4" fill="#0" id="circle68"/>
	<circle cx="309.923" cy="363.909" r="4" fill="#0" id="circle69"/>
	<circle cx="314.422" cy="768.807" r="4" fill="#0" id="circle70"/>
	<circle cx="314.422" cy="791.302" r="4" fill="#0" id="circle71"/>
	<circle cx="316.671" cy="332.417" r="4" fill="#0" id="circle72"/>
	<circle cx="318.921" cy="899.274" r="4" fill="#0" id="circle73"/>
	<circle cx="321.17" cy="534.866" r="4" fill="#0" id="circle74"/>
	<circle cx="323.42" cy="588.853" r="4" fill="#0" id="circle75"/>
	<circle cx="327.918" cy="141.215" r="4" fill="#0" id="circle76"/>
	<circle cx="330.168" cy="350.413" r="4" fill="#0" id="circle77"/>
	<circle cx="332.417" cy="611.347" r="4" fill="#0" id="circle78"/>
	<circle cx="341.415" cy="894.776" r="4" fill="#0" id="circle79"/>
	<circle cx="343.664" cy="534.866" r="4" fill="#0" id="circle80"/>
	<circle cx="343.664" cy="631.592" r="4" fill="#0" id="circle81"/>
	<circle cx="348.163" cy="152.463" r="4" fill="#0" id="circle82"/>
	<circle cx="354.912" cy="651.837" r="4" fill="#0" id="circle83"/>
	<circle cx="361.66" cy="883.528" r="4" fill="#0" id="circle84"/>
	<circle cx="366.159" cy="168.209" r="4" fill="#0" id="circle85"/>
	<circle cx="366.159" cy="523.619" r="4" fill="#0" id="circle86"/>
	<circle cx="366.159" cy="672.082" r="4" fill="#0" id="circle87"/>
	<circle cx="372.907" cy="694.576" r="4" fill="#0" id="circle88"/>
	<circle cx="384.154" cy="714.821" r="4" fill="#0" id="circle89"/>
	<circle cx="384.154" cy="879.029" r="4" fill="#0" id="circle90"/>
	<circle cx="386.404" cy="179.456" r="4" fill="#0" id="circle91"/>
	<circle cx="388.653" cy="512.372" r="4" fill="#0" id="circle92"/>
	<circle cx="393.152" cy="737.315" r="4" fill="#0" id="circle93"/>
	<circle cx="399.9" cy="759.81" r="4" fill="#0" id="circle94"/>
	<circle cx="404.399" cy="195.202" r="4" fill="#0" id="circle95"/>
	<circle cx="406.649" cy="867.782" r="4" fill="#0" id="circle96"/>
	<circle cx="411.147" cy="512.372" r="4" fill="#0" id="circle97"/>
	<circle cx="411.147" cy="780.054" r="4" fill="#0" id="circle98"/>
	<circle cx="422.395" cy="800.299" r="4" fill="#0" id="circle99"/>
	<circle cx="422.395" cy="849.787" r="4" fill="#0" id="circle100"/>
	<circle cx="424.644" cy="206.449" r="4" fill="#0" id="circle101"/>
	<circle cx="431.392" cy="501.125" r="4" fill="#0" id="circle102"/>
	<circle cx="433.642" cy="827.293" r="4" fill="#0" id="circle103"/>
	<circle cx="442.639" cy="222.195" r="4" fill="#0" id="circle104"/>
	<circle cx="451.637" cy="489.878" r="4" fill="#0" id="circle105"/>
	<circle cx="456.136" cy="240.19" r="4" fill="#0" id="circle106"/>
	<circle cx="471.882" cy="478.63" r="4" fill="#0" id="circle107"/>
	<circle cx="474.132" cy="253.687" r="4" fill="#0" id="circle108"/>
	<circle cx="476.381" cy="501.125" r="4" fill="#0" id="circle109"/>
	<circle cx="476.381" cy="523.619" r="4" fill="#0" id="circle110"/>
	<circle cx="487.628" cy="543.864" r="4" fill="#0" id="circle111"/>
	<circle cx="489.878" cy="271.683" r="4" fill="#0" id="circle112"/>
	<circle cx="492.127" cy="566.358" r="4" fill="#0" id="circle113"/>
	<circle cx="501.125" cy="291.927" r="4" fill="#0" id="circle114"/>
	<circle cx="503.374" cy="586.603" r="4" fill="#0" id="circle115"/>
	<circle cx="510.122" cy="314.422" r="4" fill="#0" id="circle116"/>
	<circle cx="512.372" cy="609.098" r="4" fill="#0" id="circle117"/>
	<circle cx="528.118" cy="330.168" r="4" fill="#0" id="circle118"/>
	<circle cx="530.367" cy="624.844" r="4" fill="#0" id="circle119"/>
	<circle cx="534.866" cy="352.662" r="4" fill="#0" id="circle120"/>
	<circle cx="539.365" cy="647.338" r="4" fill="#0" id="circle121"/>
	<circle cx="550.612" cy="667.583" r="4" fill="#0" id="circle122"/>
	<circle cx="552.862" cy="366.159" r="4" fill="#0" id="circle123"/>
	<circle cx="564.109" cy="386.404" r="4" fill="#0" id="circle124"/>
	<circle cx="568.608" cy="681.079" r="4" fill="#0" id="circle125"/>
	<circle cx="579.855" cy="404.399" r="4" fill="#0" id="circle126"/>
	<circle cx="591.102" cy="424.644" r="4" fill="#0" id="circle127"/>
	<circle cx="591.102" cy="685.578" r="4" fill="#0" id="circle128"/>
	<circle cx="597.85" cy="447.138" r="4" fill="#0" id="circle129"/>
	<circle cx="606.848" cy="703.574" r="4" fill="#0" id="circle130"/>
	<circle cx="609.098" cy="467.383" r="4" fill="#0" id="circle131"/>
	<circle cx="613.596" cy="489.878" r="4" fill="#0" id="circle132"/>
	<circle cx="613.596" cy="512.372" r="4" fill="#0" id="circle133"/>
	<circle cx="613.596" cy="534.866" r="4" fill="#0" id="circle134"/>
	<circle cx="613.596" cy="557.361" r="4" fill="#0" id="circle135"/>
	<circle cx="618.095" cy="579.855" r="4" fill="#0" id="circle136"/>
	<circle cx="627.093" cy="714.821" r="4" fill="#0" id="circle137"/>
	<circle cx="636.091" cy="595.601" r="4" fill="#0" id="circle138"/>
	<circle cx="647.338" cy="726.068" r="4" fill="#0" id="circle139"/>
	<circle cx="654.086" cy="611.347" r="4" fill="#0" id="circle140"/>
	<circle cx="667.583" cy="737.315" r="4" fill="#0" id="circle141"/>
	<circle cx="674.331" cy="622.594" r="4" fill="#0" id="circle142"/>
	<circle cx="687.828" cy="748.562" r="4" fill="#0" id="circle143"/>
	<circle cx="690.077" cy="640.59" r="4" fill="#0" id="circle144"/>
	<circle cx="708.073" cy="759.81" r="4" fill="#0" id="circle145"/>
	<circle cx="712.571" cy="649.587" r="4" fill="#0" id="circle146"/>
	<circle cx="730.567" cy="759.81" r="4" fill="#0" id="circle147"/>
	<circle cx="735.066" cy="649.587" r="4" fill="#0" id="circle148"/>
	<circle cx="748.562" cy="667.583" r="4" fill="#0" id="circle149"/>
	<circle cx="750.812" cy="771.057" r="4" fill="#0" id="circle150"/>
	<circle cx="766.558" cy="681.079" r="4" fill="#0" id="circle151"/>
	<circle cx="771.057" cy="782.304" r="4" fill="#0" id="circle152"/>
	<circle cx="782.304" cy="699.075" r="4" fill="#0" id="circle153"/>
	<circle cx="791.302" cy="793.551" r="4" fill="#0" id="circle154"/>
	<circle cx="804.798" cy="708.073" r="4" fill="#0" id="circle155"/>
	<circle cx="813.796" cy="793.551" r="4" fill="#0" id="circle156"/>
	<circle cx="820.544" cy="726.068" r="4" fill="#0" id="circle157"/>
	<circle cx="834.041" cy="804.798" r="4" fill="#0" id="circle158"/>
	<circle cx="838.54" cy="741.814" r="4" fill="#0" id="circle159"/>
	<circle cx="854.286" cy="759.81" r="4" fill="#0" id="circle160"/>
	<circle cx="854.286" cy="816.045" r="4" fill="#0" id="circle161"/>
	<circle cx="858.785" cy="838.54" r="4" fill="#0" id="circle162"/>
	<circle cx="865.533" cy="861.034" r="4" fill="#0" id="circle163"/>
	<circle cx="870.032" cy="883.528" r="4" fill="#0" id="circle164"/>
	<circle cx="870.032" cy="906.023" r="4" fill="#0" id="circle165"/>
	<circle cx="870.032" cy="928.517" r="4" fill="#0" id="circle166"/>
	<circle cx="870.032" cy="951.011" r="4" fill="#0" id="circle167"/>
	<circle cx="876.78" cy="768.807" r="4" fill="#0" id="circle168"/>
	<circle cx="883.528" cy="969.007" r="4" fill="#0" id="circle169"/>
	<circle cx="897.025" cy="780.054" r="4" fill="#0" id="circle170"/>
	<circle cx="901.524" cy="982.503" r="4" fill="#0" id="circle171"/>
	<circle cx="917.27" cy="791.302" r="4" fill="#0" id="circle172"/>
	<circle cx="917.27" cy="962.259" r="4" fill="#0" id="circle173"/>
	<circle cx="939.764" cy="786.803" r="4" fill="#0" id="circle174"/>
	<circle cx="939.764" cy="951.011" r="4" fill="#0" id="circle175"/>
	<circle cx="951.011" cy="917.27" r="4" fill="#0" id="circle176"/>
	<circle cx="962.259" cy="786.803" r="4" fill="#0" id="circle177"/>
	<circle cx="969.007" cy="901.524" r="4" fill="#0" id="circle178"/>
	<circle cx="978.005" cy="804.798" r="4" fill="#0" id="circle179"/>
	<circle cx="980.254" cy="879.029" r="4" fill="#0" id="circle180"/>
	<circle cx="991.501" cy="856.535" r="4" fill="#0" id="circle181"/>
	<circle cx="996" cy="820.544" r="4" fill="#0" id="circle182"/>
	</g>
</svg>