<?xml version="1.0" encoding="UTF-8" standalone="no"?>
<!-- Created with CurveBenchmark -->
<svg
	xmlns:dc="http://purl.org/dc/elements/1.1/"
	xmlns:cc="http://creativecommons.org/ns#"
	xmlns:rdf="http://www.w3.org/1999/02/22-rdf-syntax-ns#"
	xmlns:svg="http://www.w3.org/2000/svg"
	xmlns="http://www.w3.org/2000/svg"
	xmlns:sodipodi="http://sodipodi.sourceforge.net/DTD/sodipodi-0.dtd"
	xmlns:inkscape="http://www.inkscape.org/namespaces/inkscape"
	width="1000"
	height="1000"
	id="svg2"
	version="1.1"
	sodipodi:docname="manifold/fitconnect-cow2.png.txt">
<defs
	id="defs4" />
<metadata
	id="metadata7">
	<rdf:RDF>
		<cc:Work
			rdf:about="">
			<dc:format>image/svg+xml</dc:format>
			<dc:type
				rdf:resource="http://purl.org/dc/dcmitype/StillImage" />
			<dc:title></dc:title>
		</cc:Work>
	</rdf:RDF>
</metadata>
<g
	inkscape:label="Layer 1"
	inkscape:groupmode="layer"
	id="layer1">
	<path style="fill:none;stroke:red;stroke-width:1px;stroke-linecap:butt;stroke-linejoin:miter;stroke-opacity:1" d="M 4,168.343 4,188.144 z" id="boundary" inkscape:connector-curvature="0" />
	<path style="fill:none;stroke:red;stroke-width:1px;stroke-linecap:butt;stroke-linejoin:miter;stroke-opacity:1" d="M 4,168.343 23.8004,162.403 z" id="boundary" inkscape:connector-curvature="0" />
	<path style="fill:none;stroke:red;stroke-width:1px;stroke-linecap:butt;stroke-linejoin:miter;stroke-opacity:1" d="M 4,188.144 4,207.944 z" id="boundary" inkscape:connector-curvature="0" />
	<path style="fill:none;stroke:red;stroke-width:1px;stroke-linecap:butt;stroke-linejoin:miter;stroke-opacity:1" d="M 4,207.944 15.8802,223.784 z" id="boundary" inkscape:connector-curvature="0" />
	<path style="fill:none;stroke:red;stroke-width:1px;stroke-linecap:butt;stroke-linejoin:miter;stroke-opacity:1" d="M 15.8802,223.784 33.7006,233.685 z" id="boundary" inkscape:connector-curvature="0" />
	<path style="fill:none;stroke:red;stroke-width:1px;stroke-linecap:butt;stroke-linejoin:miter;stroke-opacity:1" d="M 23.8004,162.403 91.1218,112.902 z" id="boundary" inkscape:connector-curvature="0" />
	<path style="fill:none;stroke:red;stroke-width:1px;stroke-linecap:butt;stroke-linejoin:miter;stroke-opacity:1" d="M 33.7006,233.685 51.521,243.585 z" id="boundary" inkscape:connector-curvature="0" />
	<path style="fill:none;stroke:red;stroke-width:1px;stroke-linecap:butt;stroke-linejoin:miter;stroke-opacity:1" d="M 51.521,243.585 71.3214,243.585 z" id="boundary" inkscape:connector-curvature="0" />
	<path style="fill:none;stroke:red;stroke-width:1px;stroke-linecap:butt;stroke-linejoin:miter;stroke-opacity:1" d="M 71.3214,243.585 91.1218,243.585 z" id="boundary" inkscape:connector-curvature="0" />
	<path style="fill:none;stroke:red;stroke-width:1px;stroke-linecap:butt;stroke-linejoin:miter;stroke-opacity:1" d="M 91.1218,112.902 126.762,63.4012 z" id="boundary" inkscape:connector-curvature="0" />
	<path style="fill:none;stroke:red;stroke-width:1px;stroke-linecap:butt;stroke-linejoin:miter;stroke-opacity:1" d="M 91.1218,243.585 110.922,243.585 z" id="boundary" inkscape:connector-curvature="0" />
	<path style="fill:none;stroke:red;stroke-width:1px;stroke-linecap:butt;stroke-linejoin:miter;stroke-opacity:1" d="M 110.922,243.585 188.144,253.485 z" id="boundary" inkscape:connector-curvature="0" />
	<path style="fill:none;stroke:red;stroke-width:1px;stroke-linecap:butt;stroke-linejoin:miter;stroke-opacity:1" d="M 126.762,63.4012 146.563,53.501 z" id="boundary" inkscape:connector-curvature="0" />
	<path style="fill:none;stroke:red;stroke-width:1px;stroke-linecap:butt;stroke-linejoin:miter;stroke-opacity:1" d="M 146.563,53.501 156.463,35.6806 z" id="boundary" inkscape:connector-curvature="0" />
	<path style="fill:none;stroke:red;stroke-width:1px;stroke-linecap:butt;stroke-linejoin:miter;stroke-opacity:1" d="M 156.463,35.6806 182.204,4 z" id="boundary" inkscape:connector-curvature="0" />
	<path style="fill:none;stroke:red;stroke-width:1px;stroke-linecap:butt;stroke-linejoin:miter;stroke-opacity:1" d="M 182.204,4 202.004,4 z" id="boundary" inkscape:connector-curvature="0" />
	<path style="fill:none;stroke:red;stroke-width:1px;stroke-linecap:butt;stroke-linejoin:miter;stroke-opacity:1" d="M 188.144,253.485 316.846,372.287 z" id="boundary" inkscape:connector-curvature="0" />
	<path style="fill:none;stroke:red;stroke-width:1px;stroke-linecap:butt;stroke-linejoin:miter;stroke-opacity:1" d="M 202.004,4 221.804,4 z" id="boundary" inkscape:connector-curvature="0" />
	<path style="fill:none;stroke:red;stroke-width:1px;stroke-linecap:butt;stroke-linejoin:miter;stroke-opacity:1" d="M 221.804,4 237.645,15.8802 z" id="boundary" inkscape:connector-curvature="0" />
	<path style="fill:none;stroke:red;stroke-width:1px;stroke-linecap:butt;stroke-linejoin:miter;stroke-opacity:1" d="M 237.645,15.8802 247.545,33.7006 z" id="boundary" inkscape:connector-curvature="0" />
	<path style="fill:none;stroke:red;stroke-width:1px;stroke-linecap:butt;stroke-linejoin:miter;stroke-opacity:1" d="M 247.545,33.7006 265.365,43.6008 z" id="boundary" inkscape:connector-curvature="0" />
	<path style="fill:none;stroke:red;stroke-width:1px;stroke-linecap:butt;stroke-linejoin:miter;stroke-opacity:1" d="M 265.365,43.6008 281.206,57.4611 z" id="boundary" inkscape:connector-curvature="0" />
	<path style="fill:none;stroke:red;stroke-width:1px;stroke-linecap:butt;stroke-linejoin:miter;stroke-opacity:1" d="M 281.206,57.4611 299.026,67.3613 z" id="boundary" inkscape:connector-curvature="0" />
	<path style="fill:none;stroke:red;stroke-width:1px;stroke-linecap:butt;stroke-linejoin:miter;stroke-opacity:1" d="M 299.026,67.3613 318.826,75.2814 z" id="boundary" inkscape:connector-curvature="0" />
	<path style="fill:none;stroke:red;stroke-width:1px;stroke-linecap:butt;stroke-linejoin:miter;stroke-opacity:1" d="M 316.846,372.287 530.691,560.391 z" id="boundary" inkscape:connector-curvature="0" />
	<path style="fill:none;stroke:red;stroke-width:1px;stroke-linecap:butt;stroke-linejoin:miter;stroke-opacity:1" d="M 318.826,75.2814 338.627,83.2016 z" id="boundary" inkscape:connector-curvature="0" />
	<path style="fill:none;stroke:red;stroke-width:1px;stroke-linecap:butt;stroke-linejoin:miter;stroke-opacity:1" d="M 338.627,83.2016 433.669,103.002 z" id="boundary" inkscape:connector-curvature="0" />
	<path style="fill:none;stroke:red;stroke-width:1px;stroke-linecap:butt;stroke-linejoin:miter;stroke-opacity:1" d="M 433.669,103.002 493.07,103.002 z" id="boundary" inkscape:connector-curvature="0" />
	<path style="fill:none;stroke:red;stroke-width:1px;stroke-linecap:butt;stroke-linejoin:miter;stroke-opacity:1" d="M 493.07,103.002 512.87,103.002 z" id="boundary" inkscape:connector-curvature="0" />
	<path style="fill:none;stroke:red;stroke-width:1px;stroke-linecap:butt;stroke-linejoin:miter;stroke-opacity:1" d="M 512.87,103.002 552.471,103.002 z" id="boundary" inkscape:connector-curvature="0" />
	<path style="fill:none;stroke:red;stroke-width:1px;stroke-linecap:butt;stroke-linejoin:miter;stroke-opacity:1" d="M 530.691,560.391 762.355,471.289 z" id="boundary" inkscape:connector-curvature="0" />
	<path style="fill:none;stroke:red;stroke-width:1px;stroke-linecap:butt;stroke-linejoin:miter;stroke-opacity:1" d="M 552.471,103.002 572.271,103.002 z" id="boundary" inkscape:connector-curvature="0" />
	<path style="fill:none;stroke:red;stroke-width:1px;stroke-linecap:butt;stroke-linejoin:miter;stroke-opacity:1" d="M 572.271,103.002 592.072,103.002 z" id="boundary" inkscape:connector-curvature="0" />
	<path style="fill:none;stroke:red;stroke-width:1px;stroke-linecap:butt;stroke-linejoin:miter;stroke-opacity:1" d="M 592.072,103.002 611.872,103.002 z" id="boundary" inkscape:connector-curvature="0" />
	<path style="fill:none;stroke:red;stroke-width:1px;stroke-linecap:butt;stroke-linejoin:miter;stroke-opacity:1" d="M 611.872,103.002 631.673,103.002 z" id="boundary" inkscape:connector-curvature="0" />
	<path style="fill:none;stroke:red;stroke-width:1px;stroke-linecap:butt;stroke-linejoin:miter;stroke-opacity:1" d="M 631.673,103.002 651.473,103.002 z" id="boundary" inkscape:connector-curvature="0" />
	<path style="fill:none;stroke:red;stroke-width:1px;stroke-linecap:butt;stroke-linejoin:miter;stroke-opacity:1" d="M 651.473,103.002 671.273,103.002 z" id="boundary" inkscape:connector-curvature="0" />
	<path style="fill:none;stroke:red;stroke-width:1px;stroke-linecap:butt;stroke-linejoin:miter;stroke-opacity:1" d="M 671.273,103.002 691.074,103.002 z" id="boundary" inkscape:connector-curvature="0" />
	<path style="fill:none;stroke:red;stroke-width:1px;stroke-linecap:butt;stroke-linejoin:miter;stroke-opacity:1" d="M 691.074,103.002 710.874,103.002 z" id="boundary" inkscape:connector-curvature="0" />
	<path style="fill:none;stroke:red;stroke-width:1px;stroke-linecap:butt;stroke-linejoin:miter;stroke-opacity:1" d="M 710.874,103.002 728.695,93.1018 z" id="boundary" inkscape:connector-curvature="0" />
	<path style="fill:none;stroke:red;stroke-width:1px;stroke-linecap:butt;stroke-linejoin:miter;stroke-opacity:1" d="M 728.695,93.1018 748.495,93.1018 z" id="boundary" inkscape:connector-curvature="0" />
	<path style="fill:none;stroke:red;stroke-width:1px;stroke-linecap:butt;stroke-linejoin:miter;stroke-opacity:1" d="M 748.495,93.1018 768.295,93.1018 z" id="boundary" inkscape:connector-curvature="0" />
	<path style="fill:none;stroke:red;stroke-width:1px;stroke-linecap:butt;stroke-linejoin:miter;stroke-opacity:1" d="M 762.355,471.289 896.998,461.389 z" id="boundary" inkscape:connector-curvature="0" />
	<path style="fill:none;stroke:red;stroke-width:1px;stroke-linecap:butt;stroke-linejoin:miter;stroke-opacity:1" d="M 768.295,93.1018 786.116,83.2016 z" id="boundary" inkscape:connector-curvature="0" />
	<path style="fill:none;stroke:red;stroke-width:1px;stroke-linecap:butt;stroke-linejoin:miter;stroke-opacity:1" d="M 786.116,83.2016 805.916,83.2016 z" id="boundary" inkscape:connector-curvature="0" />
	<path style="fill:none;stroke:red;stroke-width:1px;stroke-linecap:butt;stroke-linejoin:miter;stroke-opacity:1" d="M 805.916,83.2016 825.717,83.2016 z" id="boundary" inkscape:connector-curvature="0" />
	<path style="fill:none;stroke:red;stroke-width:1px;stroke-linecap:butt;stroke-linejoin:miter;stroke-opacity:1" d="M 825.717,83.2016 845.517,83.2016 z" id="boundary" inkscape:connector-curvature="0" />
	<path style="fill:none;stroke:red;stroke-width:1px;stroke-linecap:butt;stroke-linejoin:miter;stroke-opacity:1" d="M 845.517,83.2016 863.337,73.3014 z" id="boundary" inkscape:connector-curvature="0" />
	<path style="fill:none;stroke:red;stroke-width:1px;stroke-linecap:butt;stroke-linejoin:miter;stroke-opacity:1" d="M 863.337,73.3014 883.138,73.3014 z" id="boundary" inkscape:connector-curvature="0" />
	<path style="fill:none;stroke:red;stroke-width:1px;stroke-linecap:butt;stroke-linejoin:miter;stroke-opacity:1" d="M 883.138,73.3014 900.958,63.4012 z" id="boundary" inkscape:connector-curvature="0" />
	<path style="fill:none;stroke:red;stroke-width:1px;stroke-linecap:butt;stroke-linejoin:miter;stroke-opacity:1" d="M 896.998,461.389 996,388.128 z" id="boundary" inkscape:connector-curvature="0" />
	<path style="fill:none;stroke:red;stroke-width:1px;stroke-linecap:butt;stroke-linejoin:miter;stroke-opacity:1" d="M 900.958,63.4012 920.758,63.4012 z" id="boundary" inkscape:connector-curvature="0" />
	<path style="fill:none;stroke:red;stroke-width:1px;stroke-linecap:butt;stroke-linejoin:miter;stroke-opacity:1" d="M 920.758,63.4012 938.579,73.3014 z" id="boundary" inkscape:connector-curvature="0" />
	<path style="fill:none;stroke:red;stroke-width:1px;stroke-linecap:butt;stroke-linejoin:miter;stroke-opacity:1" d="M 938.579,73.3014 956.399,83.2016 z" id="boundary" inkscape:connector-curvature="0" />
	<path style="fill:none;stroke:red;stroke-width:1px;stroke-linecap:butt;stroke-linejoin:miter;stroke-opacity:1" d="M 956.399,83.2016 966.299,101.022 z" id="boundary" inkscape:connector-curvature="0" />
	<path style="fill:none;stroke:red;stroke-width:1px;stroke-linecap:butt;stroke-linejoin:miter;stroke-opacity:1" d="M 966.299,101.022 982.14,114.882 z" id="boundary" inkscape:connector-curvature="0" />
	<path style="fill:none;stroke:red;stroke-width:1px;stroke-linecap:butt;stroke-linejoin:miter;stroke-opacity:1" d="M 976.2,312.886 986.1,283.186 z" id="boundary" inkscape:connector-curvature="0" />
	<path style="fill:none;stroke:red;stroke-width:1px;stroke-linecap:butt;stroke-linejoin:miter;stroke-opacity:1" d="M 976.2,312.886 996,388.128 z" id="boundary" inkscape:connector-curvature="0" />
	<path style="fill:none;stroke:red;stroke-width:1px;stroke-linecap:butt;stroke-linejoin:miter;stroke-opacity:1" d="M 982.14,114.882 986.1,134.683 z" id="boundary" inkscape:connector-curvature="0" />
	<path style="fill:none;stroke:red;stroke-width:1px;stroke-linecap:butt;stroke-linejoin:miter;stroke-opacity:1" d="M 986.1,134.683 996,152.503 z" id="boundary" inkscape:connector-curvature="0" />
	<path style="fill:none;stroke:red;stroke-width:1px;stroke-linecap:butt;stroke-linejoin:miter;stroke-opacity:1" d="M 986.1,263.385 986.1,283.186 z" id="boundary" inkscape:connector-curvature="0" />
	<path style="fill:none;stroke:red;stroke-width:1px;stroke-linecap:butt;stroke-linejoin:miter;stroke-opacity:1" d="M 986.1,263.385 996,231.705 z" id="boundary" inkscape:connector-curvature="0" />
	<path style="fill:none;stroke:red;stroke-width:1px;stroke-linecap:butt;stroke-linejoin:miter;stroke-opacity:1" d="M 996,152.503 996,172.303 z" id="boundary" inkscape:connector-curvature="0" />
	<path style="fill:none;stroke:red;stroke-width:1px;stroke-linecap:butt;stroke-linejoin:miter;stroke-opacity:1" d="M 996,172.303 996,192.104 z" id="boundary" inkscape:connector-curvature="0" />
	<path style="fill:none;stroke:red;stroke-width:1px;stroke-linecap:butt;stroke-linejoin:miter;stroke-opacity:1" d="M 996,192.104 996,211.904 z" id="boundary" inkscape:connector-curvature="0" />
	<path style="fill:none;stroke:red;stroke-width:1px;stroke-linecap:butt;stroke-linejoin:miter;stroke-opacity:1" d="M 996,211.904 996,231.705 z" id="boundary" inkscape:connector-curvature="0" />
	<circle cx="4" cy="168.343" r="4" fill="#0" id="circle0"/>
	<circle cx="4" cy="188.144" r="4" fill="#0" id="circle1"/>
	<circle cx="4" cy="207.944" r="4" fill="#0" id="circle2"/>
	<circle cx="15.8802" cy="223.784" r="4" fill="#0" id="circle3"/>
	<circle cx="23.8004" cy="162.403" r="4" fill="#0" id="circle4"/>
	<circle cx="33.7006" cy="233.685" r="4" fill="#0" id="circle5"/>
	<circle cx="41.6208" cy="152.503" r="4" fill="#0" id="circle6"/>
	<circle cx="51.521" cy="243.585" r="4" fill="#0" id="circle7"/>
	<circle cx="59.4411" cy="142.603" r="4" fill="#0" id="circle8"/>
	<circle cx="71.3214" cy="243.585" r="4" fill="#0" id="circle9"/>
	<circle cx="75.2814" cy="126.762" r="4" fill="#0" id="circle10"/>
	<circle cx="83.2016" cy="9.94012" r="4" fill="#0" id="circle11"/>
	<circle cx="91.1218" cy="112.902" r="4" fill="#0" id="circle12"/>
	<circle cx="91.1218" cy="243.585" r="4" fill="#0" id="circle13"/>
	<circle cx="99.0419" cy="23.8004" r="4" fill="#0" id="circle14"/>
	<circle cx="99.0419" cy="93.1018" r="4" fill="#0" id="circle15"/>
	<circle cx="103.002" cy="4" r="4" fill="#0" id="circle16"/>
	<circle cx="108.942" cy="73.3014" r="4" fill="#0" id="circle17"/>
	<circle cx="110.922" cy="243.585" r="4" fill="#0" id="circle18"/>
	<circle cx="116.862" cy="33.7006" r="4" fill="#0" id="circle19"/>
	<circle cx="122.802" cy="4" r="4" fill="#0" id="circle20"/>
	<circle cx="126.762" cy="63.4012" r="4" fill="#0" id="circle21"/>
	<circle cx="130.723" cy="243.585" r="4" fill="#0" id="circle22"/>
	<circle cx="136.663" cy="35.6806" r="4" fill="#0" id="circle23"/>
	<circle cx="142.603" cy="4" r="4" fill="#0" id="circle24"/>
	<circle cx="146.563" cy="53.501" r="4" fill="#0" id="circle25"/>
	<circle cx="150.523" cy="243.585" r="4" fill="#0" id="circle26"/>
	<circle cx="156.463" cy="35.6806" r="4" fill="#0" id="circle27"/>
	<circle cx="162.403" cy="4" r="4" fill="#0" id="circle28"/>
	<circle cx="170.323" cy="243.585" r="4" fill="#0" id="circle29"/>
	<circle cx="182.204" cy="4" r="4" fill="#0" id="circle30"/>
	<circle cx="188.144" cy="253.485" r="4" fill="#0" id="circle31"/>
	<circle cx="202.004" cy="4" r="4" fill="#0" id="circle32"/>
	<circle cx="207.944" cy="253.485" r="4" fill="#0" id="circle33"/>
	<circle cx="221.804" cy="4" r="4" fill="#0" id="circle34"/>
	<circle cx="227.745" cy="261.405" r="4" fill="#0" id="circle35"/>
	<circle cx="237.645" cy="15.8802" r="4" fill="#0" id="circle36"/>
	<circle cx="241.605" cy="277.246" r="4" fill="#0" id="circle37"/>
	<circle cx="247.545" cy="33.7006" r="4" fill="#0" id="circle38"/>
	<circle cx="257.445" cy="291.106" r="4" fill="#0" id="circle39"/>
	<circle cx="265.365" cy="43.6008" r="4" fill="#0" id="circle40"/>
	<circle cx="271.305" cy="306.946" r="4" fill="#0" id="circle41"/>
	<circle cx="281.206" cy="57.4611" r="4" fill="#0" id="circle42"/>
	<circle cx="281.206" cy="324.766" r="4" fill="#0" id="circle43"/>
	<circle cx="295.066" cy="340.607" r="4" fill="#0" id="circle44"/>
	<circle cx="299.026" cy="67.3613" r="4" fill="#0" id="circle45"/>
	<circle cx="310.906" cy="352.487" r="4" fill="#0" id="circle46"/>
	<circle cx="316.846" cy="372.287" r="4" fill="#0" id="circle47"/>
	<circle cx="318.826" cy="75.2814" r="4" fill="#0" id="circle48"/>
	<circle cx="332.687" cy="386.148" r="4" fill="#0" id="circle49"/>
	<circle cx="338.627" cy="83.2016" r="4" fill="#0" id="circle50"/>
	<circle cx="340.607" cy="405.948" r="4" fill="#0" id="circle51"/>
	<circle cx="350.507" cy="423.768" r="4" fill="#0" id="circle52"/>
	<circle cx="350.507" cy="443.569" r="4" fill="#0" id="circle53"/>
	<circle cx="356.447" cy="93.1018" r="4" fill="#0" id="circle54"/>
	<circle cx="364.367" cy="459.409" r="4" fill="#0" id="circle55"/>
	<circle cx="370.307" cy="623.752" r="4" fill="#0" id="circle56"/>
	<circle cx="376.248" cy="93.1018" r="4" fill="#0" id="circle57"/>
	<circle cx="380.208" cy="471.289" r="4" fill="#0" id="circle58"/>
	<circle cx="382.188" cy="639.593" r="4" fill="#0" id="circle59"/>
	<circle cx="390.108" cy="603.952" r="4" fill="#0" id="circle60"/>
	<circle cx="394.068" cy="103.002" r="4" fill="#0" id="circle61"/>
	<circle cx="398.028" cy="481.19" r="4" fill="#0" id="circle62"/>
	<circle cx="400.008" cy="649.493" r="4" fill="#0" id="circle63"/>
	<circle cx="405.948" cy="588.112" r="4" fill="#0" id="circle64"/>
	<circle cx="409.908" cy="564.351" r="4" fill="#0" id="circle65"/>
	<circle cx="413.868" cy="103.002" r="4" fill="#0" id="circle66"/>
	<circle cx="415.848" cy="491.09" r="4" fill="#0" id="circle67"/>
	<circle cx="419.808" cy="510.89" r="4" fill="#0" id="circle68"/>
	<circle cx="419.808" cy="530.691" r="4" fill="#0" id="circle69"/>
	<circle cx="419.808" cy="649.493" r="4" fill="#0" id="circle70"/>
	<circle cx="433.669" cy="103.002" r="4" fill="#0" id="circle71"/>
	<circle cx="435.649" cy="637.613" r="4" fill="#0" id="circle72"/>
	<circle cx="441.589" cy="609.892" r="4" fill="#0" id="circle73"/>
	<circle cx="449.509" cy="673.253" r="4" fill="#0" id="circle74"/>
	<circle cx="449.509" cy="693.054" r="4" fill="#0" id="circle75"/>
	<circle cx="453.469" cy="103.002" r="4" fill="#0" id="circle76"/>
	<circle cx="457.429" cy="596.032" r="4" fill="#0" id="circle77"/>
	<circle cx="461.389" cy="510.89" r="4" fill="#0" id="circle78"/>
	<circle cx="461.389" cy="530.691" r="4" fill="#0" id="circle79"/>
	<circle cx="461.389" cy="550.491" r="4" fill="#0" id="circle80"/>
	<circle cx="461.389" cy="570.291" r="4" fill="#0" id="circle81"/>
	<circle cx="461.389" cy="708.894" r="4" fill="#0" id="circle82"/>
	<circle cx="465.349" cy="657.413" r="4" fill="#0" id="circle83"/>
	<circle cx="471.289" cy="481.19" r="4" fill="#0" id="circle84"/>
	<circle cx="473.269" cy="103.002" r="4" fill="#0" id="circle85"/>
	<circle cx="475.25" cy="637.613" r="4" fill="#0" id="circle86"/>
	<circle cx="479.21" cy="500.99" r="4" fill="#0" id="circle87"/>
	<circle cx="479.21" cy="520.79" r="4" fill="#0" id="circle88"/>
	<circle cx="479.21" cy="540.591" r="4" fill="#0" id="circle89"/>
	<circle cx="479.21" cy="594.052" r="4" fill="#0" id="circle90"/>
	<circle cx="479.21" cy="613.852" r="4" fill="#0" id="circle91"/>
	<circle cx="481.19" cy="708.894" r="4" fill="#0" id="circle92"/>
	<circle cx="485.15" cy="560.391" r="4" fill="#0" id="circle93"/>
	<circle cx="493.07" cy="103.002" r="4" fill="#0" id="circle94"/>
	<circle cx="500.99" cy="708.894" r="4" fill="#0" id="circle95"/>
	<circle cx="512.87" cy="103.002" r="4" fill="#0" id="circle96"/>
	<circle cx="516.83" cy="695.034" r="4" fill="#0" id="circle97"/>
	<circle cx="520.79" cy="649.493" r="4" fill="#0" id="circle98"/>
	<circle cx="520.79" cy="669.293" r="4" fill="#0" id="circle99"/>
	<circle cx="530.691" cy="560.391" r="4" fill="#0" id="circle100"/>
	<circle cx="530.691" cy="580.192" r="4" fill="#0" id="circle101"/>
	<circle cx="530.691" cy="599.992" r="4" fill="#0" id="circle102"/>
	<circle cx="530.691" cy="619.792" r="4" fill="#0" id="circle103"/>
	<circle cx="532.671" cy="103.002" r="4" fill="#0" id="circle104"/>
	<circle cx="540.591" cy="530.691" r="4" fill="#0" id="circle105"/>
	<circle cx="550.491" cy="471.289" r="4" fill="#0" id="circle106"/>
	<circle cx="550.491" cy="491.09" r="4" fill="#0" id="circle107"/>
	<circle cx="550.491" cy="510.89" r="4" fill="#0" id="circle108"/>
	<circle cx="552.471" cy="103.002" r="4" fill="#0" id="circle109"/>
	<circle cx="568.311" cy="461.389" r="4" fill="#0" id="circle110"/>
	<circle cx="572.271" cy="103.002" r="4" fill="#0" id="circle111"/>
	<circle cx="588.112" cy="461.389" r="4" fill="#0" id="circle112"/>
	<circle cx="592.072" cy="103.002" r="4" fill="#0" id="circle113"/>
	<circle cx="607.912" cy="461.389" r="4" fill="#0" id="circle114"/>
	<circle cx="611.872" cy="103.002" r="4" fill="#0" id="circle115"/>
	<circle cx="625.733" cy="471.289" r="4" fill="#0" id="circle116"/>
	<circle cx="631.673" cy="103.002" r="4" fill="#0" id="circle117"/>
	<circle cx="645.533" cy="471.289" r="4" fill="#0" id="circle118"/>
	<circle cx="651.473" cy="103.002" r="4" fill="#0" id="circle119"/>
	<circle cx="663.353" cy="481.19" r="4" fill="#0" id="circle120"/>
	<circle cx="671.273" cy="103.002" r="4" fill="#0" id="circle121"/>
	<circle cx="683.154" cy="479.21" r="4" fill="#0" id="circle122"/>
	<circle cx="691.074" cy="103.002" r="4" fill="#0" id="circle123"/>
	<circle cx="702.954" cy="471.289" r="4" fill="#0" id="circle124"/>
	<circle cx="710.874" cy="103.002" r="4" fill="#0" id="circle125"/>
	<circle cx="722.754" cy="479.21" r="4" fill="#0" id="circle126"/>
	<circle cx="728.695" cy="93.1018" r="4" fill="#0" id="circle127"/>
	<circle cx="742.555" cy="479.21" r="4" fill="#0" id="circle128"/>
	<circle cx="748.495" cy="93.1018" r="4" fill="#0" id="circle129"/>
	<circle cx="762.355" cy="471.289" r="4" fill="#0" id="circle130"/>
	<circle cx="768.295" cy="93.1018" r="4" fill="#0" id="circle131"/>
	<circle cx="780.176" cy="461.389" r="4" fill="#0" id="circle132"/>
	<circle cx="786.116" cy="83.2016" r="4" fill="#0" id="circle133"/>
	<circle cx="786.116" cy="564.351" r="4" fill="#0" id="circle134"/>
	<circle cx="797.996" cy="471.289" r="4" fill="#0" id="circle135"/>
	<circle cx="801.956" cy="548.511" r="4" fill="#0" id="circle136"/>
	<circle cx="801.956" cy="578.212" r="4" fill="#0" id="circle137"/>
	<circle cx="805.916" cy="83.2016" r="4" fill="#0" id="circle138"/>
	<circle cx="815.816" cy="524.75" r="4" fill="#0" id="circle139"/>
	<circle cx="817.796" cy="471.289" r="4" fill="#0" id="circle140"/>
	<circle cx="821.756" cy="580.192" r="4" fill="#0" id="circle141"/>
	<circle cx="825.717" cy="83.2016" r="4" fill="#0" id="circle142"/>
	<circle cx="825.717" cy="504.95" r="4" fill="#0" id="circle143"/>
	<circle cx="841.557" cy="578.212" r="4" fill="#0" id="circle144"/>
	<circle cx="845.517" cy="83.2016" r="4" fill="#0" id="circle145"/>
	<circle cx="857.397" cy="540.591" r="4" fill="#0" id="circle146"/>
	<circle cx="857.397" cy="560.391" r="4" fill="#0" id="circle147"/>
	<circle cx="863.337" cy="73.3014" r="4" fill="#0" id="circle148"/>
	<circle cx="867.297" cy="500.99" r="4" fill="#0" id="circle149"/>
	<circle cx="867.297" cy="520.79" r="4" fill="#0" id="circle150"/>
	<circle cx="883.138" cy="73.3014" r="4" fill="#0" id="circle151"/>
	<circle cx="885.118" cy="491.09" r="4" fill="#0" id="circle152"/>
	<circle cx="896.998" cy="461.389" r="4" fill="#0" id="circle153"/>
	<circle cx="900.958" cy="63.4012" r="4" fill="#0" id="circle154"/>
	<circle cx="904.918" cy="613.852" r="4" fill="#0" id="circle155"/>
	<circle cx="914.818" cy="451.489" r="4" fill="#0" id="circle156"/>
	<circle cx="914.818" cy="594.052" r="4" fill="#0" id="circle157"/>
	<circle cx="914.818" cy="631.673" r="4" fill="#0" id="circle158"/>
	<circle cx="920.758" cy="63.4012" r="4" fill="#0" id="circle159"/>
	<circle cx="924.719" cy="469.309" r="4" fill="#0" id="circle160"/>
	<circle cx="924.719" cy="574.251" r="4" fill="#0" id="circle161"/>
	<circle cx="934.619" cy="487.13" r="4" fill="#0" id="circle162"/>
	<circle cx="934.619" cy="506.93" r="4" fill="#0" id="circle163"/>
	<circle cx="934.619" cy="526.731" r="4" fill="#0" id="circle164"/>
	<circle cx="934.619" cy="546.531" r="4" fill="#0" id="circle165"/>
	<circle cx="934.619" cy="639.593" r="4" fill="#0" id="circle166"/>
	<circle cx="938.579" cy="73.3014" r="4" fill="#0" id="circle167"/>
	<circle cx="954.419" cy="639.593" r="4" fill="#0" id="circle168"/>
	<circle cx="956.399" cy="83.2016" r="4" fill="#0" id="circle169"/>
	<circle cx="966.299" cy="101.022" r="4" fill="#0" id="circle170"/>
	<circle cx="966.299" cy="619.792" r="4" fill="#0" id="circle171"/>
	<circle cx="976.2" cy="312.886" r="4" fill="#0" id="circle172"/>
	<circle cx="976.2" cy="491.09" r="4" fill="#0" id="circle173"/>
	<circle cx="976.2" cy="510.89" r="4" fill="#0" id="circle174"/>
	<circle cx="976.2" cy="530.691" r="4" fill="#0" id="circle175"/>
	<circle cx="976.2" cy="550.491" r="4" fill="#0" id="circle176"/>
	<circle cx="976.2" cy="580.192" r="4" fill="#0" id="circle177"/>
	<circle cx="976.2" cy="599.992" r="4" fill="#0" id="circle178"/>
	<circle cx="982.14" cy="114.882" r="4" fill="#0" id="circle179"/>
	<circle cx="986.1" cy="134.683" r="4" fill="#0" id="circle180"/>
	<circle cx="986.1" cy="263.385" r="4" fill="#0" id="circle181"/>
	<circle cx="986.1" cy="283.186" r="4" fill="#0" id="circle182"/>
	<circle cx="986.1" cy="330.707" r="4" fill="#0" id="circle183"/>
	<circle cx="986.1" cy="441.589" r="4" fill="#0" id="circle184"/>
	<circle cx="986.1" cy="461.389" r="4" fill="#0" id="circle185"/>
	<circle cx="996" cy="152.503" r="4" fill="#0" id="circle186"/>
	<circle cx="996" cy="172.303" r="4" fill="#0" id="circle187"/>
	<circle cx="996" cy="192.104" r="4" fill="#0" id="circle188"/>
	<circle cx="996" cy="211.904" r="4" fill="#0" id="circle189"/>
	<circle cx="996" cy="231.705" r="4" fill="#0" id="circle190"/>
	<circle cx="996" cy="348.527" r="4" fill="#0" id="circle191"/>
	<circle cx="996" cy="368.327" r="4" fill="#0" id="circle192"/>
	<circle cx="996" cy="388.128" r="4" fill="#0" id="circle193"/>
	<circle cx="996" cy="407.928" r="4" fill="#0" id="circle194"/>
	</g>
</svg>