<?xml version="1.0" encoding="UTF-8" standalone="no"?>
<!-- Created with CurveBenchmark -->
<svg
	xmlns:dc="http://purl.org/dc/elements/1.1/"
	xmlns:cc="http://creativecommons.org/ns#"
	xmlns:rdf="http://www.w3.org/1999/02/22-rdf-syntax-ns#"
	xmlns:svg="http://www.w3.org/2000/svg"
	xmlns="http://www.w3.org/2000/svg"
	xmlns:sodipodi="http://sodipodi.sourceforge.net/DTD/sodipodi-0.dtd"
	xmlns:inkscape="http://www.inkscape.org/namespaces/inkscape"
	width="1000"
	height="1000"
	id="svg2"
	version="1.1"
	sodipodi:docname="manifold/fitconnect-sink255.png.txt">
<defs
	id="defs4" />
<metadata
	id="metadata7">
	<rdf:RDF>
		<cc:Work
			rdf:about="">
			<dc:format>image/svg+xml</dc:format>
			<dc:type
				rdf:resource="http://purl.org/dc/dcmitype/StillImage" />
			<dc:title></dc:title>
		</cc:Work>
	</rdf:RDF>
</metadata>
<g
	inkscape:label="Layer 1"
	inkscape:groupmode="layer"
	id="layer1">
	<path style="fill:none;stroke:red;stroke-width:1px;stroke-linecap:butt;stroke-linejoin:miter;stroke-opacity:1" d="M 4,297.202 33.3202,258.108 z" id="boundary" inkscape:connector-curvature="0" />
	<path style="fill:none;stroke:red;stroke-width:1px;stroke-linecap:butt;stroke-linejoin:miter;stroke-opacity:1" d="M 4,297.202 52.867,311.862 z" id="boundary" inkscape:connector-curvature="0" />
	<path style="fill:none;stroke:red;stroke-width:1px;stroke-linecap:butt;stroke-linejoin:miter;stroke-opacity:1" d="M 33.3202,258.108 82.1872,258.108 z" id="boundary" inkscape:connector-curvature="0" />
	<path style="fill:none;stroke:red;stroke-width:1px;stroke-linecap:butt;stroke-linejoin:miter;stroke-opacity:1" d="M 52.867,311.862 101.734,311.862 z" id="boundary" inkscape:connector-curvature="0" />
	<path style="fill:none;stroke:red;stroke-width:1px;stroke-linecap:butt;stroke-linejoin:miter;stroke-opacity:1" d="M 82.1872,258.108 131.054,258.108 z" id="boundary" inkscape:connector-curvature="0" />
	<path style="fill:none;stroke:red;stroke-width:1px;stroke-linecap:butt;stroke-linejoin:miter;stroke-opacity:1" d="M 101.734,311.862 150.601,311.862 z" id="boundary" inkscape:connector-curvature="0" />
	<path style="fill:none;stroke:red;stroke-width:1px;stroke-linecap:butt;stroke-linejoin:miter;stroke-opacity:1" d="M 131.054,258.108 179.921,228.788 z" id="boundary" inkscape:connector-curvature="0" />
	<path style="fill:none;stroke:red;stroke-width:1px;stroke-linecap:butt;stroke-linejoin:miter;stroke-opacity:1" d="M 150.601,311.862 189.695,341.182 z" id="boundary" inkscape:connector-curvature="0" />
	<path style="fill:none;stroke:red;stroke-width:1px;stroke-linecap:butt;stroke-linejoin:miter;stroke-opacity:1" d="M 179.921,228.788 199.468,170.148 z" id="boundary" inkscape:connector-curvature="0" />
	<path style="fill:none;stroke:red;stroke-width:1px;stroke-linecap:butt;stroke-linejoin:miter;stroke-opacity:1" d="M 189.695,341.182 219.015,380.276 z" id="boundary" inkscape:connector-curvature="0" />
	<path style="fill:none;stroke:red;stroke-width:1px;stroke-linecap:butt;stroke-linejoin:miter;stroke-opacity:1" d="M 199.468,170.148 248.335,160.374 z" id="boundary" inkscape:connector-curvature="0" />
	<path style="fill:none;stroke:red;stroke-width:1px;stroke-linecap:butt;stroke-linejoin:miter;stroke-opacity:1" d="M 209.241,952.02 233.675,996 z" id="boundary" inkscape:connector-curvature="0" />
	<path style="fill:none;stroke:red;stroke-width:1px;stroke-linecap:butt;stroke-linejoin:miter;stroke-opacity:1" d="M 209.241,952.02 248.335,893.379 z" id="boundary" inkscape:connector-curvature="0" />
	<path style="fill:none;stroke:red;stroke-width:1px;stroke-linecap:butt;stroke-linejoin:miter;stroke-opacity:1" d="M 219.015,380.276 258.108,414.483 z" id="boundary" inkscape:connector-curvature="0" />
	<path style="fill:none;stroke:red;stroke-width:1px;stroke-linecap:butt;stroke-linejoin:miter;stroke-opacity:1" d="M 233.675,996 282.542,996 z" id="boundary" inkscape:connector-curvature="0" />
	<path style="fill:none;stroke:red;stroke-width:1px;stroke-linecap:butt;stroke-linejoin:miter;stroke-opacity:1" d="M 248.335,160.374 297.202,160.374 z" id="boundary" inkscape:connector-curvature="0" />
	<path style="fill:none;stroke:red;stroke-width:1px;stroke-linecap:butt;stroke-linejoin:miter;stroke-opacity:1" d="M 248.335,893.379 267.882,805.419 z" id="boundary" inkscape:connector-curvature="0" />
	<path style="fill:none;stroke:red;stroke-width:1px;stroke-linecap:butt;stroke-linejoin:miter;stroke-opacity:1" d="M 258.108,414.483 267.882,463.35 z" id="boundary" inkscape:connector-curvature="0" />
	<path style="fill:none;stroke:red;stroke-width:1px;stroke-linecap:butt;stroke-linejoin:miter;stroke-opacity:1" d="M 267.882,463.35 267.882,512.217 z" id="boundary" inkscape:connector-curvature="0" />
	<path style="fill:none;stroke:red;stroke-width:1px;stroke-linecap:butt;stroke-linejoin:miter;stroke-opacity:1" d="M 267.882,512.217 267.882,561.084 z" id="boundary" inkscape:connector-curvature="0" />
	<path style="fill:none;stroke:red;stroke-width:1px;stroke-linecap:butt;stroke-linejoin:miter;stroke-opacity:1" d="M 267.882,561.084 267.882,609.951 z" id="boundary" inkscape:connector-curvature="0" />
	<path style="fill:none;stroke:red;stroke-width:1px;stroke-linecap:butt;stroke-linejoin:miter;stroke-opacity:1" d="M 267.882,609.951 267.882,658.818 z" id="boundary" inkscape:connector-curvature="0" />
	<path style="fill:none;stroke:red;stroke-width:1px;stroke-linecap:butt;stroke-linejoin:miter;stroke-opacity:1" d="M 267.882,658.818 267.882,707.685 z" id="boundary" inkscape:connector-curvature="0" />
	<path style="fill:none;stroke:red;stroke-width:1px;stroke-linecap:butt;stroke-linejoin:miter;stroke-opacity:1" d="M 267.882,707.685 267.882,756.552 z" id="boundary" inkscape:connector-curvature="0" />
	<path style="fill:none;stroke:red;stroke-width:1px;stroke-linecap:butt;stroke-linejoin:miter;stroke-opacity:1" d="M 267.882,756.552 267.882,805.419 z" id="boundary" inkscape:connector-curvature="0" />
	<path style="fill:none;stroke:red;stroke-width:1px;stroke-linecap:butt;stroke-linejoin:miter;stroke-opacity:1" d="M 282.542,996 331.409,996 z" id="boundary" inkscape:connector-curvature="0" />
	<path style="fill:none;stroke:red;stroke-width:1px;stroke-linecap:butt;stroke-linejoin:miter;stroke-opacity:1" d="M 297.202,160.374 346.069,160.374 z" id="boundary" inkscape:connector-curvature="0" />
	<path style="fill:none;stroke:red;stroke-width:1px;stroke-linecap:butt;stroke-linejoin:miter;stroke-opacity:1" d="M 331.409,996 380.276,996 z" id="boundary" inkscape:connector-curvature="0" />
	<path style="fill:none;stroke:red;stroke-width:1px;stroke-linecap:butt;stroke-linejoin:miter;stroke-opacity:1" d="M 346.069,160.374 394.936,160.374 z" id="boundary" inkscape:connector-curvature="0" />
	<path style="fill:none;stroke:red;stroke-width:1px;stroke-linecap:butt;stroke-linejoin:miter;stroke-opacity:1" d="M 380.276,996 429.143,996 z" id="boundary" inkscape:connector-curvature="0" />
	<path style="fill:none;stroke:red;stroke-width:1px;stroke-linecap:butt;stroke-linejoin:miter;stroke-opacity:1" d="M 394.936,160.374 438.916,87.0739 z" id="boundary" inkscape:connector-curvature="0" />
	<path style="fill:none;stroke:red;stroke-width:1px;stroke-linecap:butt;stroke-linejoin:miter;stroke-opacity:1" d="M 429.143,996 478.01,996 z" id="boundary" inkscape:connector-curvature="0" />
	<path style="fill:none;stroke:red;stroke-width:1px;stroke-linecap:butt;stroke-linejoin:miter;stroke-opacity:1" d="M 438.916,87.0739 492.67,160.374 z" id="boundary" inkscape:connector-curvature="0" />
	<path style="fill:none;stroke:red;stroke-width:1px;stroke-linecap:butt;stroke-linejoin:miter;stroke-opacity:1" d="M 438.916,463.35 438.916,512.217 z" id="boundary" inkscape:connector-curvature="0" />
	<path style="fill:none;stroke:red;stroke-width:1px;stroke-linecap:butt;stroke-linejoin:miter;stroke-opacity:1" d="M 438.916,463.35 487.783,448.69 z" id="boundary" inkscape:connector-curvature="0" />
	<path style="fill:none;stroke:red;stroke-width:1px;stroke-linecap:butt;stroke-linejoin:miter;stroke-opacity:1" d="M 438.916,512.217 438.916,561.084 z" id="boundary" inkscape:connector-curvature="0" />
	<path style="fill:none;stroke:red;stroke-width:1px;stroke-linecap:butt;stroke-linejoin:miter;stroke-opacity:1" d="M 438.916,561.084 438.916,609.951 z" id="boundary" inkscape:connector-curvature="0" />
	<path style="fill:none;stroke:red;stroke-width:1px;stroke-linecap:butt;stroke-linejoin:miter;stroke-opacity:1" d="M 438.916,609.951 438.916,658.818 z" id="boundary" inkscape:connector-curvature="0" />
	<path style="fill:none;stroke:red;stroke-width:1px;stroke-linecap:butt;stroke-linejoin:miter;stroke-opacity:1" d="M 438.916,658.818 438.916,707.685 z" id="boundary" inkscape:connector-curvature="0" />
	<path style="fill:none;stroke:red;stroke-width:1px;stroke-linecap:butt;stroke-linejoin:miter;stroke-opacity:1" d="M 438.916,707.685 438.916,756.552 z" id="boundary" inkscape:connector-curvature="0" />
	<path style="fill:none;stroke:red;stroke-width:1px;stroke-linecap:butt;stroke-linejoin:miter;stroke-opacity:1" d="M 438.916,756.552 438.916,805.419 z" id="boundary" inkscape:connector-curvature="0" />
	<path style="fill:none;stroke:red;stroke-width:1px;stroke-linecap:butt;stroke-linejoin:miter;stroke-opacity:1" d="M 438.916,805.419 438.916,854.286 z" id="boundary" inkscape:connector-curvature="0" />
	<path style="fill:none;stroke:red;stroke-width:1px;stroke-linecap:butt;stroke-linejoin:miter;stroke-opacity:1" d="M 438.916,854.286 458.463,903.153 z" id="boundary" inkscape:connector-curvature="0" />
	<path style="fill:none;stroke:red;stroke-width:1px;stroke-linecap:butt;stroke-linejoin:miter;stroke-opacity:1" d="M 458.463,903.153 487.783,942.246 z" id="boundary" inkscape:connector-curvature="0" />
	<path style="fill:none;stroke:red;stroke-width:1px;stroke-linecap:butt;stroke-linejoin:miter;stroke-opacity:1" d="M 478.01,996 487.783,942.246 z" id="boundary" inkscape:connector-curvature="0" />
	<path style="fill:none;stroke:red;stroke-width:1px;stroke-linecap:butt;stroke-linejoin:miter;stroke-opacity:1" d="M 487.783,448.69 536.65,429.143 z" id="boundary" inkscape:connector-curvature="0" />
	<path style="fill:none;stroke:red;stroke-width:1px;stroke-linecap:butt;stroke-linejoin:miter;stroke-opacity:1" d="M 492.67,160.374 556.197,155.488 z" id="boundary" inkscape:connector-curvature="0" />
	<path style="fill:none;stroke:red;stroke-width:1px;stroke-linecap:butt;stroke-linejoin:miter;stroke-opacity:1" d="M 536.65,429.143 580.631,399.823 z" id="boundary" inkscape:connector-curvature="0" />
	<path style="fill:none;stroke:red;stroke-width:1px;stroke-linecap:butt;stroke-linejoin:miter;stroke-opacity:1" d="M 556.197,155.488 605.064,160.374 z" id="boundary" inkscape:connector-curvature="0" />
	<path style="fill:none;stroke:red;stroke-width:1px;stroke-linecap:butt;stroke-linejoin:miter;stroke-opacity:1" d="M 580.631,399.823 609.951,360.729 z" id="boundary" inkscape:connector-curvature="0" />
	<path style="fill:none;stroke:red;stroke-width:1px;stroke-linecap:butt;stroke-linejoin:miter;stroke-opacity:1" d="M 605.064,160.374 653.931,160.374 z" id="boundary" inkscape:connector-curvature="0" />
	<path style="fill:none;stroke:red;stroke-width:1px;stroke-linecap:butt;stroke-linejoin:miter;stroke-opacity:1" d="M 609.951,360.729 629.498,311.862 z" id="boundary" inkscape:connector-curvature="0" />
	<path style="fill:none;stroke:red;stroke-width:1px;stroke-linecap:butt;stroke-linejoin:miter;stroke-opacity:1" d="M 629.498,311.862 678.365,311.862 z" id="boundary" inkscape:connector-curvature="0" />
	<path style="fill:none;stroke:red;stroke-width:1px;stroke-linecap:butt;stroke-linejoin:miter;stroke-opacity:1" d="M 653.931,160.374 702.798,160.374 z" id="boundary" inkscape:connector-curvature="0" />
	<path style="fill:none;stroke:red;stroke-width:1px;stroke-linecap:butt;stroke-linejoin:miter;stroke-opacity:1" d="M 678.365,311.862 727.232,311.862 z" id="boundary" inkscape:connector-curvature="0" />
	<path style="fill:none;stroke:red;stroke-width:1px;stroke-linecap:butt;stroke-linejoin:miter;stroke-opacity:1" d="M 702.798,160.374 751.665,160.374 z" id="boundary" inkscape:connector-curvature="0" />
	<path style="fill:none;stroke:red;stroke-width:1px;stroke-linecap:butt;stroke-linejoin:miter;stroke-opacity:1" d="M 727.232,311.862 776.099,311.862 z" id="boundary" inkscape:connector-curvature="0" />
	<path style="fill:none;stroke:red;stroke-width:1px;stroke-linecap:butt;stroke-linejoin:miter;stroke-opacity:1" d="M 751.665,160.374 800.532,160.374 z" id="boundary" inkscape:connector-curvature="0" />
	<path style="fill:none;stroke:red;stroke-width:1px;stroke-linecap:butt;stroke-linejoin:miter;stroke-opacity:1" d="M 776.099,311.862 824.966,311.862 z" id="boundary" inkscape:connector-curvature="0" />
	<path style="fill:none;stroke:red;stroke-width:1px;stroke-linecap:butt;stroke-linejoin:miter;stroke-opacity:1" d="M 800.532,160.374 829.852,199.468 z" id="boundary" inkscape:connector-curvature="0" />
	<path style="fill:none;stroke:red;stroke-width:1px;stroke-linecap:butt;stroke-linejoin:miter;stroke-opacity:1" d="M 824.966,311.862 829.852,248.335 z" id="boundary" inkscape:connector-curvature="0" />
	<path style="fill:none;stroke:red;stroke-width:1px;stroke-linecap:butt;stroke-linejoin:miter;stroke-opacity:1" d="M 829.852,199.468 829.852,248.335 z" id="boundary" inkscape:connector-curvature="0" />
	<circle cx="4" cy="297.202" r="4" fill="#0" id="circle0"/>
	<circle cx="33.3202" cy="258.108" r="4" fill="#0" id="circle1"/>
	<circle cx="52.867" cy="311.862" r="4" fill="#0" id="circle2"/>
	<circle cx="82.1872" cy="258.108" r="4" fill="#0" id="circle3"/>
	<circle cx="101.734" cy="311.862" r="4" fill="#0" id="circle4"/>
	<circle cx="131.054" cy="258.108" r="4" fill="#0" id="circle5"/>
	<circle cx="150.601" cy="311.862" r="4" fill="#0" id="circle6"/>
	<circle cx="179.921" cy="228.788" r="4" fill="#0" id="circle7"/>
	<circle cx="189.695" cy="341.182" r="4" fill="#0" id="circle8"/>
	<circle cx="199.468" cy="170.148" r="4" fill="#0" id="circle9"/>
	<circle cx="209.241" cy="952.02" r="4" fill="#0" id="circle10"/>
	<circle cx="219.015" cy="380.276" r="4" fill="#0" id="circle11"/>
	<circle cx="233.675" cy="996" r="4" fill="#0" id="circle12"/>
	<circle cx="248.335" cy="160.374" r="4" fill="#0" id="circle13"/>
	<circle cx="248.335" cy="893.379" r="4" fill="#0" id="circle14"/>
	<circle cx="258.108" cy="414.483" r="4" fill="#0" id="circle15"/>
	<circle cx="267.882" cy="463.35" r="4" fill="#0" id="circle16"/>
	<circle cx="267.882" cy="512.217" r="4" fill="#0" id="circle17"/>
	<circle cx="267.882" cy="561.084" r="4" fill="#0" id="circle18"/>
	<circle cx="267.882" cy="609.951" r="4" fill="#0" id="circle19"/>
	<circle cx="267.882" cy="658.818" r="4" fill="#0" id="circle20"/>
	<circle cx="267.882" cy="707.685" r="4" fill="#0" id="circle21"/>
	<circle cx="267.882" cy="756.552" r="4" fill="#0" id="circle22"/>
	<circle cx="267.882" cy="805.419" r="4" fill="#0" id="circle23"/>
	<circle cx="282.542" cy="996" r="4" fill="#0" id="circle24"/>
	<circle cx="297.202" cy="160.374" r="4" fill="#0" id="circle25"/>
	<circle cx="331.409" cy="996" r="4" fill="#0" id="circle26"/>
	<circle cx="346.069" cy="160.374" r="4" fill="#0" id="circle27"/>
	<circle cx="380.276" cy="996" r="4" fill="#0" id="circle28"/>
	<circle cx="394.936" cy="160.374" r="4" fill="#0" id="circle29"/>
	<circle cx="414.483" cy="43.0936" r="4" fill="#0" id="circle30"/>
	<circle cx="429.143" cy="996" r="4" fill="#0" id="circle31"/>
	<circle cx="438.916" cy="87.0739" r="4" fill="#0" id="circle32"/>
	<circle cx="438.916" cy="463.35" r="4" fill="#0" id="circle33"/>
	<circle cx="438.916" cy="512.217" r="4" fill="#0" id="circle34"/>
	<circle cx="438.916" cy="561.084" r="4" fill="#0" id="circle35"/>
	<circle cx="438.916" cy="609.951" r="4" fill="#0" id="circle36"/>
	<circle cx="438.916" cy="658.818" r="4" fill="#0" id="circle37"/>
	<circle cx="438.916" cy="707.685" r="4" fill="#0" id="circle38"/>
	<circle cx="438.916" cy="756.552" r="4" fill="#0" id="circle39"/>
	<circle cx="438.916" cy="805.419" r="4" fill="#0" id="circle40"/>
	<circle cx="438.916" cy="854.286" r="4" fill="#0" id="circle41"/>
	<circle cx="443.803" cy="4" r="4" fill="#0" id="circle42"/>
	<circle cx="443.803" cy="160.374" r="4" fill="#0" id="circle43"/>
	<circle cx="458.463" cy="903.153" r="4" fill="#0" id="circle44"/>
	<circle cx="478.01" cy="996" r="4" fill="#0" id="circle45"/>
	<circle cx="487.783" cy="28.4335" r="4" fill="#0" id="circle46"/>
	<circle cx="487.783" cy="448.69" r="4" fill="#0" id="circle47"/>
	<circle cx="487.783" cy="942.246" r="4" fill="#0" id="circle48"/>
	<circle cx="492.67" cy="160.374" r="4" fill="#0" id="circle49"/>
	<circle cx="521.99" cy="67.5271" r="4" fill="#0" id="circle50"/>
	<circle cx="521.99" cy="116.394" r="4" fill="#0" id="circle51"/>
	<circle cx="536.65" cy="429.143" r="4" fill="#0" id="circle52"/>
	<circle cx="556.197" cy="155.488" r="4" fill="#0" id="circle53"/>
	<circle cx="580.631" cy="399.823" r="4" fill="#0" id="circle54"/>
	<circle cx="605.064" cy="160.374" r="4" fill="#0" id="circle55"/>
	<circle cx="609.951" cy="360.729" r="4" fill="#0" id="circle56"/>
	<circle cx="629.498" cy="311.862" r="4" fill="#0" id="circle57"/>
	<circle cx="653.931" cy="160.374" r="4" fill="#0" id="circle58"/>
	<circle cx="678.365" cy="311.862" r="4" fill="#0" id="circle59"/>
	<circle cx="702.798" cy="160.374" r="4" fill="#0" id="circle60"/>
	<circle cx="727.232" cy="311.862" r="4" fill="#0" id="circle61"/>
	<circle cx="751.665" cy="160.374" r="4" fill="#0" id="circle62"/>
	<circle cx="776.099" cy="311.862" r="4" fill="#0" id="circle63"/>
	<circle cx="800.532" cy="160.374" r="4" fill="#0" id="circle64"/>
	<circle cx="824.966" cy="311.862" r="4" fill="#0" id="circle65"/>
	<circle cx="829.852" cy="199.468" r="4" fill="#0" id="circle66"/>
	<circle cx="829.852" cy="248.335" r="4" fill="#0" id="circle67"/>
	</g>
</svg>