<?xml version="1.0" encoding="UTF-8" standalone="no"?>
<!-- Created with CurveBenchmark -->
<svg
	xmlns:dc="http://purl.org/dc/elements/1.1/"
	xmlns:cc="http://creativecommons.org/ns#"
	xmlns:rdf="http://www.w3.org/1999/02/22-rdf-syntax-ns#"
	xmlns:svg="http://www.w3.org/2000/svg"
	xmlns="http://www.w3.org/2000/svg"
	xmlns:sodipodi="http://sodipodi.sourceforge.net/DTD/sodipodi-0.dtd"
	xmlns:inkscape="http://www.inkscape.org/namespaces/inkscape"
	width="1000"
	height="1000"
	id="svg2"
	version="1.1"
	sodipodi:docname="manifold/fitconnect-hand3.png.txt">
<defs
	id="defs4" />
<metadata
	id="metadata7">
	<rdf:RDF>
		<cc:Work
			rdf:about="">
			<dc:format>image/svg+xml</dc:format>
			<dc:type
				rdf:resource="http://purl.org/dc/dcmitype/StillImage" />
			<dc:title></dc:title>
		</cc:Work>
	</rdf:RDF>
</metadata>
<g
	inkscape:label="Layer 1"
	inkscape:groupmode="layer"
	id="layer1">
	<path style="fill:none;stroke:red;stroke-width:1px;stroke-linecap:butt;stroke-linejoin:miter;stroke-opacity:1" d="M 4,504.421 4,522.103 z" id="boundary" inkscape:connector-curvature="0" />
	<path style="fill:none;stroke:red;stroke-width:1px;stroke-linecap:butt;stroke-linejoin:miter;stroke-opacity:1" d="M 4,504.421 18.1462,490.275 z" id="boundary" inkscape:connector-curvature="0" />
	<path style="fill:none;stroke:red;stroke-width:1px;stroke-linecap:butt;stroke-linejoin:miter;stroke-opacity:1" d="M 4,522.103 12.8414,538.018 z" id="boundary" inkscape:connector-curvature="0" />
	<path style="fill:none;stroke:red;stroke-width:1px;stroke-linecap:butt;stroke-linejoin:miter;stroke-opacity:1" d="M 12.8414,538.018 25.2193,552.164 z" id="boundary" inkscape:connector-curvature="0" />
	<path style="fill:none;stroke:red;stroke-width:1px;stroke-linecap:butt;stroke-linejoin:miter;stroke-opacity:1" d="M 18.1462,490.275 26.9875,472.592 z" id="boundary" inkscape:connector-curvature="0" />
	<path style="fill:none;stroke:red;stroke-width:1px;stroke-linecap:butt;stroke-linejoin:miter;stroke-opacity:1" d="M 25.2193,552.164 42.902,553.932 z" id="boundary" inkscape:connector-curvature="0" />
	<path style="fill:none;stroke:red;stroke-width:1px;stroke-linecap:butt;stroke-linejoin:miter;stroke-opacity:1" d="M 26.9875,472.592 44.6702,463.75 z" id="boundary" inkscape:connector-curvature="0" />
	<path style="fill:none;stroke:red;stroke-width:1px;stroke-linecap:butt;stroke-linejoin:miter;stroke-opacity:1" d="M 39.3654,707.772 39.3654,725.455 z" id="boundary" inkscape:connector-curvature="0" />
	<path style="fill:none;stroke:red;stroke-width:1px;stroke-linecap:butt;stroke-linejoin:miter;stroke-opacity:1" d="M 39.3654,707.772 53.5116,693.626 z" id="boundary" inkscape:connector-curvature="0" />
	<path style="fill:none;stroke:red;stroke-width:1px;stroke-linecap:butt;stroke-linejoin:miter;stroke-opacity:1" d="M 39.3654,725.455 39.3654,743.137 z" id="boundary" inkscape:connector-curvature="0" />
	<path style="fill:none;stroke:red;stroke-width:1px;stroke-linecap:butt;stroke-linejoin:miter;stroke-opacity:1" d="M 39.3654,743.137 53.5116,755.515 z" id="boundary" inkscape:connector-curvature="0" />
	<path style="fill:none;stroke:red;stroke-width:1px;stroke-linecap:butt;stroke-linejoin:miter;stroke-opacity:1" d="M 42.902,553.932 60.5847,553.932 z" id="boundary" inkscape:connector-curvature="0" />
	<path style="fill:none;stroke:red;stroke-width:1px;stroke-linecap:butt;stroke-linejoin:miter;stroke-opacity:1" d="M 44.6702,463.75 62.3529,454.909 z" id="boundary" inkscape:connector-curvature="0" />
	<path style="fill:none;stroke:red;stroke-width:1px;stroke-linecap:butt;stroke-linejoin:miter;stroke-opacity:1" d="M 53.5116,693.626 67.6578,679.48 z" id="boundary" inkscape:connector-curvature="0" />
	<path style="fill:none;stroke:red;stroke-width:1px;stroke-linecap:butt;stroke-linejoin:miter;stroke-opacity:1" d="M 53.5116,755.515 67.6578,766.125 z" id="boundary" inkscape:connector-curvature="0" />
	<path style="fill:none;stroke:red;stroke-width:1px;stroke-linecap:butt;stroke-linejoin:miter;stroke-opacity:1" d="M 60.5847,553.932 78.2674,553.932 z" id="boundary" inkscape:connector-curvature="0" />
	<path style="fill:none;stroke:red;stroke-width:1px;stroke-linecap:butt;stroke-linejoin:miter;stroke-opacity:1" d="M 62.3529,454.909 80.0357,446.068 z" id="boundary" inkscape:connector-curvature="0" />
	<path style="fill:none;stroke:red;stroke-width:1px;stroke-linecap:butt;stroke-linejoin:miter;stroke-opacity:1" d="M 67.6578,679.48 85.3405,670.638 z" id="boundary" inkscape:connector-curvature="0" />
	<path style="fill:none;stroke:red;stroke-width:1px;stroke-linecap:butt;stroke-linejoin:miter;stroke-opacity:1" d="M 67.6578,766.125 85.3405,766.125 z" id="boundary" inkscape:connector-curvature="0" />
	<path style="fill:none;stroke:red;stroke-width:1px;stroke-linecap:butt;stroke-linejoin:miter;stroke-opacity:1" d="M 78.2674,553.932 94.1818,545.091 z" id="boundary" inkscape:connector-curvature="0" />
	<path style="fill:none;stroke:red;stroke-width:1px;stroke-linecap:butt;stroke-linejoin:miter;stroke-opacity:1" d="M 80.0357,446.068 97.7184,437.226 z" id="boundary" inkscape:connector-curvature="0" />
	<path style="fill:none;stroke:red;stroke-width:1px;stroke-linecap:butt;stroke-linejoin:miter;stroke-opacity:1" d="M 85.3405,670.638 99.4866,658.26 z" id="boundary" inkscape:connector-curvature="0" />
	<path style="fill:none;stroke:red;stroke-width:1px;stroke-linecap:butt;stroke-linejoin:miter;stroke-opacity:1" d="M 85.3405,766.125 103.023,757.283 z" id="boundary" inkscape:connector-curvature="0" />
	<path style="fill:none;stroke:red;stroke-width:1px;stroke-linecap:butt;stroke-linejoin:miter;stroke-opacity:1" d="M 94.1818,545.091 111.865,536.25 z" id="boundary" inkscape:connector-curvature="0" />
	<path style="fill:none;stroke:red;stroke-width:1px;stroke-linecap:butt;stroke-linejoin:miter;stroke-opacity:1" d="M 97.7184,437.226 115.401,437.226 z" id="boundary" inkscape:connector-curvature="0" />
	<path style="fill:none;stroke:red;stroke-width:1px;stroke-linecap:butt;stroke-linejoin:miter;stroke-opacity:1" d="M 99.4866,658.26 115.401,649.419 z" id="boundary" inkscape:connector-curvature="0" />
	<path style="fill:none;stroke:red;stroke-width:1px;stroke-linecap:butt;stroke-linejoin:miter;stroke-opacity:1" d="M 103.023,757.283 120.706,748.442 z" id="boundary" inkscape:connector-curvature="0" />
	<path style="fill:none;stroke:red;stroke-width:1px;stroke-linecap:butt;stroke-linejoin:miter;stroke-opacity:1" d="M 111.865,536.25 129.547,536.25 z" id="boundary" inkscape:connector-curvature="0" />
	<path style="fill:none;stroke:red;stroke-width:1px;stroke-linecap:butt;stroke-linejoin:miter;stroke-opacity:1" d="M 115.401,437.226 131.316,428.385 z" id="boundary" inkscape:connector-curvature="0" />
	<path style="fill:none;stroke:red;stroke-width:1px;stroke-linecap:butt;stroke-linejoin:miter;stroke-opacity:1" d="M 115.401,649.419 133.084,640.578 z" id="boundary" inkscape:connector-curvature="0" />
	<path style="fill:none;stroke:red;stroke-width:1px;stroke-linecap:butt;stroke-linejoin:miter;stroke-opacity:1" d="M 120.706,748.442 138.389,748.442 z" id="boundary" inkscape:connector-curvature="0" />
	<path style="fill:none;stroke:red;stroke-width:1px;stroke-linecap:butt;stroke-linejoin:miter;stroke-opacity:1" d="M 129.547,536.25 145.462,527.408 z" id="boundary" inkscape:connector-curvature="0" />
	<path style="fill:none;stroke:red;stroke-width:1px;stroke-linecap:butt;stroke-linejoin:miter;stroke-opacity:1" d="M 131.316,428.385 148.998,428.385 z" id="boundary" inkscape:connector-curvature="0" />
	<path style="fill:none;stroke:red;stroke-width:1px;stroke-linecap:butt;stroke-linejoin:miter;stroke-opacity:1" d="M 133.084,640.578 150.766,631.736 z" id="boundary" inkscape:connector-curvature="0" />
	<path style="fill:none;stroke:red;stroke-width:1px;stroke-linecap:butt;stroke-linejoin:miter;stroke-opacity:1" d="M 138.389,748.442 154.303,739.601 z" id="boundary" inkscape:connector-curvature="0" />
	<path style="fill:none;stroke:red;stroke-width:1px;stroke-linecap:butt;stroke-linejoin:miter;stroke-opacity:1" d="M 145.462,527.408 163.144,527.408 z" id="boundary" inkscape:connector-curvature="0" />
	<path style="fill:none;stroke:red;stroke-width:1px;stroke-linecap:butt;stroke-linejoin:miter;stroke-opacity:1" d="M 148.998,428.385 164.913,419.544 z" id="boundary" inkscape:connector-curvature="0" />
	<path style="fill:none;stroke:red;stroke-width:1px;stroke-linecap:butt;stroke-linejoin:miter;stroke-opacity:1" d="M 150.766,631.736 168.449,622.895 z" id="boundary" inkscape:connector-curvature="0" />
	<path style="fill:none;stroke:red;stroke-width:1px;stroke-linecap:butt;stroke-linejoin:miter;stroke-opacity:1" d="M 154.303,739.601 170.217,730.759 z" id="boundary" inkscape:connector-curvature="0" />
	<path style="fill:none;stroke:red;stroke-width:1px;stroke-linecap:butt;stroke-linejoin:miter;stroke-opacity:1" d="M 154.303,813.868 154.303,831.551 z" id="boundary" inkscape:connector-curvature="0" />
	<path style="fill:none;stroke:red;stroke-width:1px;stroke-linecap:butt;stroke-linejoin:miter;stroke-opacity:1" d="M 154.303,813.868 168.449,799.722 z" id="boundary" inkscape:connector-curvature="0" />
	<path style="fill:none;stroke:red;stroke-width:1px;stroke-linecap:butt;stroke-linejoin:miter;stroke-opacity:1" d="M 154.303,831.551 154.303,849.234 z" id="boundary" inkscape:connector-curvature="0" />
	<path style="fill:none;stroke:red;stroke-width:1px;stroke-linecap:butt;stroke-linejoin:miter;stroke-opacity:1" d="M 154.303,849.234 168.449,861.611 z" id="boundary" inkscape:connector-curvature="0" />
	<path style="fill:none;stroke:red;stroke-width:1px;stroke-linecap:butt;stroke-linejoin:miter;stroke-opacity:1" d="M 163.144,527.408 180.827,522.103 z" id="boundary" inkscape:connector-curvature="0" />
	<path style="fill:none;stroke:red;stroke-width:1px;stroke-linecap:butt;stroke-linejoin:miter;stroke-opacity:1" d="M 164.913,419.544 182.595,414.239 z" id="boundary" inkscape:connector-curvature="0" />
	<path style="fill:none;stroke:red;stroke-width:1px;stroke-linecap:butt;stroke-linejoin:miter;stroke-opacity:1" d="M 168.449,622.895 186.132,614.053 z" id="boundary" inkscape:connector-curvature="0" />
	<path style="fill:none;stroke:red;stroke-width:1px;stroke-linecap:butt;stroke-linejoin:miter;stroke-opacity:1" d="M 168.449,799.722 186.132,790.881 z" id="boundary" inkscape:connector-curvature="0" />
	<path style="fill:none;stroke:red;stroke-width:1px;stroke-linecap:butt;stroke-linejoin:miter;stroke-opacity:1" d="M 168.449,861.611 182.595,872.221 z" id="boundary" inkscape:connector-curvature="0" />
	<path style="fill:none;stroke:red;stroke-width:1px;stroke-linecap:butt;stroke-linejoin:miter;stroke-opacity:1" d="M 170.217,730.759 186.132,721.918 z" id="boundary" inkscape:connector-curvature="0" />
	<path style="fill:none;stroke:red;stroke-width:1px;stroke-linecap:butt;stroke-linejoin:miter;stroke-opacity:1" d="M 180.827,522.103 198.51,518.567 z" id="boundary" inkscape:connector-curvature="0" />
	<path style="fill:none;stroke:red;stroke-width:1px;stroke-linecap:butt;stroke-linejoin:miter;stroke-opacity:1" d="M 182.595,414.239 200.278,410.702 z" id="boundary" inkscape:connector-curvature="0" />
	<path style="fill:none;stroke:red;stroke-width:1px;stroke-linecap:butt;stroke-linejoin:miter;stroke-opacity:1" d="M 182.595,872.221 200.278,872.221 z" id="boundary" inkscape:connector-curvature="0" />
	<path style="fill:none;stroke:red;stroke-width:1px;stroke-linecap:butt;stroke-linejoin:miter;stroke-opacity:1" d="M 186.132,614.053 203.815,605.212 z" id="boundary" inkscape:connector-curvature="0" />
	<path style="fill:none;stroke:red;stroke-width:1px;stroke-linecap:butt;stroke-linejoin:miter;stroke-opacity:1" d="M 186.132,721.918 203.815,720.15 z" id="boundary" inkscape:connector-curvature="0" />
	<path style="fill:none;stroke:red;stroke-width:1px;stroke-linecap:butt;stroke-linejoin:miter;stroke-opacity:1" d="M 186.132,790.881 200.278,776.734 z" id="boundary" inkscape:connector-curvature="0" />
	<path style="fill:none;stroke:red;stroke-width:1px;stroke-linecap:butt;stroke-linejoin:miter;stroke-opacity:1" d="M 198.51,518.567 216.193,518.567 z" id="boundary" inkscape:connector-curvature="0" />
	<path style="fill:none;stroke:red;stroke-width:1px;stroke-linecap:butt;stroke-linejoin:miter;stroke-opacity:1" d="M 200.278,410.702 216.193,401.861 z" id="boundary" inkscape:connector-curvature="0" />
	<path style="fill:none;stroke:red;stroke-width:1px;stroke-linecap:butt;stroke-linejoin:miter;stroke-opacity:1" d="M 200.278,776.734 217.961,767.893 z" id="boundary" inkscape:connector-curvature="0" />
	<path style="fill:none;stroke:red;stroke-width:1px;stroke-linecap:butt;stroke-linejoin:miter;stroke-opacity:1" d="M 200.278,872.221 217.961,863.38 z" id="boundary" inkscape:connector-curvature="0" />
	<path style="fill:none;stroke:red;stroke-width:1px;stroke-linecap:butt;stroke-linejoin:miter;stroke-opacity:1" d="M 203.815,605.212 219.729,596.371 z" id="boundary" inkscape:connector-curvature="0" />
	<path style="fill:none;stroke:red;stroke-width:1px;stroke-linecap:butt;stroke-linejoin:miter;stroke-opacity:1" d="M 203.815,720.15 221.497,713.077 z" id="boundary" inkscape:connector-curvature="0" />
	<path style="fill:none;stroke:red;stroke-width:1px;stroke-linecap:butt;stroke-linejoin:miter;stroke-opacity:1" d="M 216.193,401.861 233.875,401.861 z" id="boundary" inkscape:connector-curvature="0" />
	<path style="fill:none;stroke:red;stroke-width:1px;stroke-linecap:butt;stroke-linejoin:miter;stroke-opacity:1" d="M 216.193,518.567 233.875,513.262 z" id="boundary" inkscape:connector-curvature="0" />
	<path style="fill:none;stroke:red;stroke-width:1px;stroke-linecap:butt;stroke-linejoin:miter;stroke-opacity:1" d="M 217.961,767.893 235.643,759.052 z" id="boundary" inkscape:connector-curvature="0" />
	<path style="fill:none;stroke:red;stroke-width:1px;stroke-linecap:butt;stroke-linejoin:miter;stroke-opacity:1" d="M 217.961,863.38 235.643,863.38 z" id="boundary" inkscape:connector-curvature="0" />
	<path style="fill:none;stroke:red;stroke-width:1px;stroke-linecap:butt;stroke-linejoin:miter;stroke-opacity:1" d="M 219.729,596.371 237.412,589.298 z" id="boundary" inkscape:connector-curvature="0" />
	<path style="fill:none;stroke:red;stroke-width:1px;stroke-linecap:butt;stroke-linejoin:miter;stroke-opacity:1" d="M 221.497,713.077 237.412,704.235 z" id="boundary" inkscape:connector-curvature="0" />
	<path style="fill:none;stroke:red;stroke-width:1px;stroke-linecap:butt;stroke-linejoin:miter;stroke-opacity:1" d="M 233.875,401.861 251.558,401.861 z" id="boundary" inkscape:connector-curvature="0" />
	<path style="fill:none;stroke:red;stroke-width:1px;stroke-linecap:butt;stroke-linejoin:miter;stroke-opacity:1" d="M 233.875,513.262 251.558,509.725 z" id="boundary" inkscape:connector-curvature="0" />
	<path style="fill:none;stroke:red;stroke-width:1px;stroke-linecap:butt;stroke-linejoin:miter;stroke-opacity:1" d="M 235.643,759.052 253.326,750.21 z" id="boundary" inkscape:connector-curvature="0" />
	<path style="fill:none;stroke:red;stroke-width:1px;stroke-linecap:butt;stroke-linejoin:miter;stroke-opacity:1" d="M 235.643,863.38 251.558,854.538 z" id="boundary" inkscape:connector-curvature="0" />
	<path style="fill:none;stroke:red;stroke-width:1px;stroke-linecap:butt;stroke-linejoin:miter;stroke-opacity:1" d="M 237.412,589.298 255.094,580.456 z" id="boundary" inkscape:connector-curvature="0" />
	<path style="fill:none;stroke:red;stroke-width:1px;stroke-linecap:butt;stroke-linejoin:miter;stroke-opacity:1" d="M 237.412,704.235 255.094,704.235 z" id="boundary" inkscape:connector-curvature="0" />
	<path style="fill:none;stroke:red;stroke-width:1px;stroke-linecap:butt;stroke-linejoin:miter;stroke-opacity:1" d="M 251.558,401.861 267.472,393.02 z" id="boundary" inkscape:connector-curvature="0" />
	<path style="fill:none;stroke:red;stroke-width:1px;stroke-linecap:butt;stroke-linejoin:miter;stroke-opacity:1" d="M 251.558,509.725 269.241,509.725 z" id="boundary" inkscape:connector-curvature="0" />
	<path style="fill:none;stroke:red;stroke-width:1px;stroke-linecap:butt;stroke-linejoin:miter;stroke-opacity:1" d="M 251.558,854.538 269.241,854.538 z" id="boundary" inkscape:connector-curvature="0" />
	<path style="fill:none;stroke:red;stroke-width:1px;stroke-linecap:butt;stroke-linejoin:miter;stroke-opacity:1" d="M 253.326,750.21 271.009,746.674 z" id="boundary" inkscape:connector-curvature="0" />
	<path style="fill:none;stroke:red;stroke-width:1px;stroke-linecap:butt;stroke-linejoin:miter;stroke-opacity:1" d="M 255.094,580.456 272.777,578.688 z" id="boundary" inkscape:connector-curvature="0" />
	<path style="fill:none;stroke:red;stroke-width:1px;stroke-linecap:butt;stroke-linejoin:miter;stroke-opacity:1" d="M 255.094,704.235 271.009,695.394 z" id="boundary" inkscape:connector-curvature="0" />
	<path style="fill:none;stroke:red;stroke-width:1px;stroke-linecap:butt;stroke-linejoin:miter;stroke-opacity:1" d="M 267.472,393.02 285.155,393.02 z" id="boundary" inkscape:connector-curvature="0" />
	<path style="fill:none;stroke:red;stroke-width:1px;stroke-linecap:butt;stroke-linejoin:miter;stroke-opacity:1" d="M 269.241,509.725 285.155,500.884 z" id="boundary" inkscape:connector-curvature="0" />
	<path style="fill:none;stroke:red;stroke-width:1px;stroke-linecap:butt;stroke-linejoin:miter;stroke-opacity:1" d="M 269.241,854.538 285.155,845.697 z" id="boundary" inkscape:connector-curvature="0" />
	<path style="fill:none;stroke:red;stroke-width:1px;stroke-linecap:butt;stroke-linejoin:miter;stroke-opacity:1" d="M 271.009,695.394 288.692,695.394 z" id="boundary" inkscape:connector-curvature="0" />
	<path style="fill:none;stroke:red;stroke-width:1px;stroke-linecap:butt;stroke-linejoin:miter;stroke-opacity:1" d="M 271.009,746.674 286.923,737.832 z" id="boundary" inkscape:connector-curvature="0" />
	<path style="fill:none;stroke:red;stroke-width:1px;stroke-linecap:butt;stroke-linejoin:miter;stroke-opacity:1" d="M 272.777,578.688 290.46,571.615 z" id="boundary" inkscape:connector-curvature="0" />
	<path style="fill:none;stroke:red;stroke-width:1px;stroke-linecap:butt;stroke-linejoin:miter;stroke-opacity:1" d="M 285.155,393.02 302.838,393.02 z" id="boundary" inkscape:connector-curvature="0" />
	<path style="fill:none;stroke:red;stroke-width:1px;stroke-linecap:butt;stroke-linejoin:miter;stroke-opacity:1" d="M 285.155,500.884 302.838,500.884 z" id="boundary" inkscape:connector-curvature="0" />
	<path style="fill:none;stroke:red;stroke-width:1px;stroke-linecap:butt;stroke-linejoin:miter;stroke-opacity:1" d="M 285.155,845.697 301.07,836.856 z" id="boundary" inkscape:connector-curvature="0" />
	<path style="fill:none;stroke:red;stroke-width:1px;stroke-linecap:butt;stroke-linejoin:miter;stroke-opacity:1" d="M 286.923,737.832 302.838,728.991 z" id="boundary" inkscape:connector-curvature="0" />
	<path style="fill:none;stroke:red;stroke-width:1px;stroke-linecap:butt;stroke-linejoin:miter;stroke-opacity:1" d="M 288.692,695.394 304.606,686.553 z" id="boundary" inkscape:connector-curvature="0" />
	<path style="fill:none;stroke:red;stroke-width:1px;stroke-linecap:butt;stroke-linejoin:miter;stroke-opacity:1" d="M 290.46,571.615 308.143,569.847 z" id="boundary" inkscape:connector-curvature="0" />
	<path style="fill:none;stroke:red;stroke-width:1px;stroke-linecap:butt;stroke-linejoin:miter;stroke-opacity:1" d="M 301.07,836.856 316.984,828.014 z" id="boundary" inkscape:connector-curvature="0" />
	<path style="fill:none;stroke:red;stroke-width:1px;stroke-linecap:butt;stroke-linejoin:miter;stroke-opacity:1" d="M 302.838,393.02 320.52,393.02 z" id="boundary" inkscape:connector-curvature="0" />
	<path style="fill:none;stroke:red;stroke-width:1px;stroke-linecap:butt;stroke-linejoin:miter;stroke-opacity:1" d="M 302.838,500.884 320.52,500.884 z" id="boundary" inkscape:connector-curvature="0" />
	<path style="fill:none;stroke:red;stroke-width:1px;stroke-linecap:butt;stroke-linejoin:miter;stroke-opacity:1" d="M 302.838,728.991 318.752,720.15 z" id="boundary" inkscape:connector-curvature="0" />
	<path style="fill:none;stroke:red;stroke-width:1px;stroke-linecap:butt;stroke-linejoin:miter;stroke-opacity:1" d="M 304.606,686.553 320.52,677.711 z" id="boundary" inkscape:connector-curvature="0" />
	<path style="fill:none;stroke:red;stroke-width:1px;stroke-linecap:butt;stroke-linejoin:miter;stroke-opacity:1" d="M 308.143,569.847 324.057,561.005 z" id="boundary" inkscape:connector-curvature="0" />
	<path style="fill:none;stroke:red;stroke-width:1px;stroke-linecap:butt;stroke-linejoin:miter;stroke-opacity:1" d="M 316.984,828.014 332.898,819.173 z" id="boundary" inkscape:connector-curvature="0" />
	<path style="fill:none;stroke:red;stroke-width:1px;stroke-linecap:butt;stroke-linejoin:miter;stroke-opacity:1" d="M 318.752,720.15 336.435,711.308 z" id="boundary" inkscape:connector-curvature="0" />
	<path style="fill:none;stroke:red;stroke-width:1px;stroke-linecap:butt;stroke-linejoin:miter;stroke-opacity:1" d="M 320.52,393.02 336.435,384.178 z" id="boundary" inkscape:connector-curvature="0" />
	<path style="fill:none;stroke:red;stroke-width:1px;stroke-linecap:butt;stroke-linejoin:miter;stroke-opacity:1" d="M 320.52,500.884 338.203,500.884 z" id="boundary" inkscape:connector-curvature="0" />
	<path style="fill:none;stroke:red;stroke-width:1px;stroke-linecap:butt;stroke-linejoin:miter;stroke-opacity:1" d="M 320.52,677.711 336.435,668.87 z" id="boundary" inkscape:connector-curvature="0" />
	<path style="fill:none;stroke:red;stroke-width:1px;stroke-linecap:butt;stroke-linejoin:miter;stroke-opacity:1" d="M 324.057,561.005 341.74,555.701 z" id="boundary" inkscape:connector-curvature="0" />
	<path style="fill:none;stroke:red;stroke-width:1px;stroke-linecap:butt;stroke-linejoin:miter;stroke-opacity:1" d="M 331.13,35.8289 331.13,53.5116 z" id="boundary" inkscape:connector-curvature="0" />
	<path style="fill:none;stroke:red;stroke-width:1px;stroke-linecap:butt;stroke-linejoin:miter;stroke-opacity:1" d="M 331.13,35.8289 339.971,9.30481 z" id="boundary" inkscape:connector-curvature="0" />
	<path style="fill:none;stroke:red;stroke-width:1px;stroke-linecap:butt;stroke-linejoin:miter;stroke-opacity:1" d="M 331.13,53.5116 339.971,69.426 z" id="boundary" inkscape:connector-curvature="0" />
	<path style="fill:none;stroke:red;stroke-width:1px;stroke-linecap:butt;stroke-linejoin:miter;stroke-opacity:1" d="M 332.898,819.173 350.581,810.332 z" id="boundary" inkscape:connector-curvature="0" />
	<path style="fill:none;stroke:red;stroke-width:1px;stroke-linecap:butt;stroke-linejoin:miter;stroke-opacity:1" d="M 336.435,384.178 354.118,384.178 z" id="boundary" inkscape:connector-curvature="0" />
	<path style="fill:none;stroke:red;stroke-width:1px;stroke-linecap:butt;stroke-linejoin:miter;stroke-opacity:1" d="M 336.435,668.87 352.349,660.029 z" id="boundary" inkscape:connector-curvature="0" />
	<path style="fill:none;stroke:red;stroke-width:1px;stroke-linecap:butt;stroke-linejoin:miter;stroke-opacity:1" d="M 336.435,711.308 352.349,702.467 z" id="boundary" inkscape:connector-curvature="0" />
	<path style="fill:none;stroke:red;stroke-width:1px;stroke-linecap:butt;stroke-linejoin:miter;stroke-opacity:1" d="M 338.203,500.884 355.886,500.884 z" id="boundary" inkscape:connector-curvature="0" />
	<path style="fill:none;stroke:red;stroke-width:1px;stroke-linecap:butt;stroke-linejoin:miter;stroke-opacity:1" d="M 339.971,9.30481 357.654,4 z" id="boundary" inkscape:connector-curvature="0" />
	<path style="fill:none;stroke:red;stroke-width:1px;stroke-linecap:butt;stroke-linejoin:miter;stroke-opacity:1" d="M 339.971,69.426 348.813,85.3405 z" id="boundary" inkscape:connector-curvature="0" />
	<path style="fill:none;stroke:red;stroke-width:1px;stroke-linecap:butt;stroke-linejoin:miter;stroke-opacity:1" d="M 341.74,555.701 359.422,552.164 z" id="boundary" inkscape:connector-curvature="0" />
	<path style="fill:none;stroke:red;stroke-width:1px;stroke-linecap:butt;stroke-linejoin:miter;stroke-opacity:1" d="M 348.813,85.3405 364.727,94.1818 z" id="boundary" inkscape:connector-curvature="0" />
	<path style="fill:none;stroke:red;stroke-width:1px;stroke-linecap:butt;stroke-linejoin:miter;stroke-opacity:1" d="M 350.581,810.332 368.264,801.49 z" id="boundary" inkscape:connector-curvature="0" />
	<path style="fill:none;stroke:red;stroke-width:1px;stroke-linecap:butt;stroke-linejoin:miter;stroke-opacity:1" d="M 352.349,660.029 370.032,660.029 z" id="boundary" inkscape:connector-curvature="0" />
	<path style="fill:none;stroke:red;stroke-width:1px;stroke-linecap:butt;stroke-linejoin:miter;stroke-opacity:1" d="M 352.349,702.467 368.264,693.626 z" id="boundary" inkscape:connector-curvature="0" />
	<path style="fill:none;stroke:red;stroke-width:1px;stroke-linecap:butt;stroke-linejoin:miter;stroke-opacity:1" d="M 354.118,384.178 371.8,384.178 z" id="boundary" inkscape:connector-curvature="0" />
	<path style="fill:none;stroke:red;stroke-width:1px;stroke-linecap:butt;stroke-linejoin:miter;stroke-opacity:1" d="M 355.886,500.884 371.8,492.043 z" id="boundary" inkscape:connector-curvature="0" />
	<path style="fill:none;stroke:red;stroke-width:1px;stroke-linecap:butt;stroke-linejoin:miter;stroke-opacity:1" d="M 357.654,4 375.337,4 z" id="boundary" inkscape:connector-curvature="0" />
	<path style="fill:none;stroke:red;stroke-width:1px;stroke-linecap:butt;stroke-linejoin:miter;stroke-opacity:1" d="M 359.422,552.164 377.105,546.859 z" id="boundary" inkscape:connector-curvature="0" />
	<path style="fill:none;stroke:red;stroke-width:1px;stroke-linecap:butt;stroke-linejoin:miter;stroke-opacity:1" d="M 364.727,94.1818 371.8,111.865 z" id="boundary" inkscape:connector-curvature="0" />
	<path style="fill:none;stroke:red;stroke-width:1px;stroke-linecap:butt;stroke-linejoin:miter;stroke-opacity:1" d="M 368.264,693.626 384.178,684.784 z" id="boundary" inkscape:connector-curvature="0" />
	<path style="fill:none;stroke:red;stroke-width:1px;stroke-linecap:butt;stroke-linejoin:miter;stroke-opacity:1" d="M 368.264,801.49 385.947,801.49 z" id="boundary" inkscape:connector-curvature="0" />
	<path style="fill:none;stroke:red;stroke-width:1px;stroke-linecap:butt;stroke-linejoin:miter;stroke-opacity:1" d="M 370.032,660.029 385.947,651.187 z" id="boundary" inkscape:connector-curvature="0" />
	<path style="fill:none;stroke:red;stroke-width:1px;stroke-linecap:butt;stroke-linejoin:miter;stroke-opacity:1" d="M 371.8,111.865 389.483,118.938 z" id="boundary" inkscape:connector-curvature="0" />
	<path style="fill:none;stroke:red;stroke-width:1px;stroke-linecap:butt;stroke-linejoin:miter;stroke-opacity:1" d="M 371.8,384.178 389.483,375.337 z" id="boundary" inkscape:connector-curvature="0" />
	<path style="fill:none;stroke:red;stroke-width:1px;stroke-linecap:butt;stroke-linejoin:miter;stroke-opacity:1" d="M 371.8,492.043 389.483,499.116 z" id="boundary" inkscape:connector-curvature="0" />
	<path style="fill:none;stroke:red;stroke-width:1px;stroke-linecap:butt;stroke-linejoin:miter;stroke-opacity:1" d="M 375.337,4 391.251,12.8414 z" id="boundary" inkscape:connector-curvature="0" />
	<path style="fill:none;stroke:red;stroke-width:1px;stroke-linecap:butt;stroke-linejoin:miter;stroke-opacity:1" d="M 377.105,546.859 394.788,538.018 z" id="boundary" inkscape:connector-curvature="0" />
	<path style="fill:none;stroke:red;stroke-width:1px;stroke-linecap:butt;stroke-linejoin:miter;stroke-opacity:1" d="M 384.178,684.784 400.093,675.943 z" id="boundary" inkscape:connector-curvature="0" />
	<path style="fill:none;stroke:red;stroke-width:1px;stroke-linecap:butt;stroke-linejoin:miter;stroke-opacity:1" d="M 385.947,651.187 403.629,642.346 z" id="boundary" inkscape:connector-curvature="0" />
	<path style="fill:none;stroke:red;stroke-width:1px;stroke-linecap:butt;stroke-linejoin:miter;stroke-opacity:1" d="M 385.947,801.49 401.861,792.649 z" id="boundary" inkscape:connector-curvature="0" />
	<path style="fill:none;stroke:red;stroke-width:1px;stroke-linecap:butt;stroke-linejoin:miter;stroke-opacity:1" d="M 389.483,118.938 401.861,133.084 z" id="boundary" inkscape:connector-curvature="0" />
	<path style="fill:none;stroke:red;stroke-width:1px;stroke-linecap:butt;stroke-linejoin:miter;stroke-opacity:1" d="M 389.483,375.337 407.166,366.496 z" id="boundary" inkscape:connector-curvature="0" />
	<path style="fill:none;stroke:red;stroke-width:1px;stroke-linecap:butt;stroke-linejoin:miter;stroke-opacity:1" d="M 389.483,499.116 405.398,507.957 z" id="boundary" inkscape:connector-curvature="0" />
	<path style="fill:none;stroke:red;stroke-width:1px;stroke-linecap:butt;stroke-linejoin:miter;stroke-opacity:1" d="M 391.251,12.8414 407.166,21.6827 z" id="boundary" inkscape:connector-curvature="0" />
	<path style="fill:none;stroke:red;stroke-width:1px;stroke-linecap:butt;stroke-linejoin:miter;stroke-opacity:1" d="M 394.788,538.018 410.702,525.64 z" id="boundary" inkscape:connector-curvature="0" />
	<path style="fill:none;stroke:red;stroke-width:1px;stroke-linecap:butt;stroke-linejoin:miter;stroke-opacity:1" d="M 400.093,675.943 417.775,675.943 z" id="boundary" inkscape:connector-curvature="0" />
	<path style="fill:none;stroke:red;stroke-width:1px;stroke-linecap:butt;stroke-linejoin:miter;stroke-opacity:1" d="M 401.861,133.084 419.544,138.389 z" id="boundary" inkscape:connector-curvature="0" />
	<path style="fill:none;stroke:red;stroke-width:1px;stroke-linecap:butt;stroke-linejoin:miter;stroke-opacity:1" d="M 401.861,792.649 417.775,783.807 z" id="boundary" inkscape:connector-curvature="0" />
	<path style="fill:none;stroke:red;stroke-width:1px;stroke-linecap:butt;stroke-linejoin:miter;stroke-opacity:1" d="M 403.629,642.346 421.312,633.504 z" id="boundary" inkscape:connector-curvature="0" />
	<path style="fill:none;stroke:red;stroke-width:1px;stroke-linecap:butt;stroke-linejoin:miter;stroke-opacity:1" d="M 405.398,507.957 410.702,525.64 z" id="boundary" inkscape:connector-curvature="0" />
	<path style="fill:none;stroke:red;stroke-width:1px;stroke-linecap:butt;stroke-linejoin:miter;stroke-opacity:1" d="M 407.166,21.6827 424.848,21.6827 z" id="boundary" inkscape:connector-curvature="0" />
	<path style="fill:none;stroke:red;stroke-width:1px;stroke-linecap:butt;stroke-linejoin:miter;stroke-opacity:1" d="M 407.166,366.496 424.848,366.496 z" id="boundary" inkscape:connector-curvature="0" />
	<path style="fill:none;stroke:red;stroke-width:1px;stroke-linecap:butt;stroke-linejoin:miter;stroke-opacity:1" d="M 417.775,675.943 433.69,667.102 z" id="boundary" inkscape:connector-curvature="0" />
	<path style="fill:none;stroke:red;stroke-width:1px;stroke-linecap:butt;stroke-linejoin:miter;stroke-opacity:1" d="M 417.775,783.807 433.69,774.966 z" id="boundary" inkscape:connector-curvature="0" />
	<path style="fill:none;stroke:red;stroke-width:1px;stroke-linecap:butt;stroke-linejoin:miter;stroke-opacity:1" d="M 419.544,138.389 435.458,147.23 z" id="boundary" inkscape:connector-curvature="0" />
	<path style="fill:none;stroke:red;stroke-width:1px;stroke-linecap:butt;stroke-linejoin:miter;stroke-opacity:1" d="M 421.312,633.504 438.995,633.504 z" id="boundary" inkscape:connector-curvature="0" />
	<path style="fill:none;stroke:red;stroke-width:1px;stroke-linecap:butt;stroke-linejoin:miter;stroke-opacity:1" d="M 424.848,21.6827 440.763,30.5241 z" id="boundary" inkscape:connector-curvature="0" />
	<path style="fill:none;stroke:red;stroke-width:1px;stroke-linecap:butt;stroke-linejoin:miter;stroke-opacity:1" d="M 424.848,366.496 442.531,357.654 z" id="boundary" inkscape:connector-curvature="0" />
	<path style="fill:none;stroke:red;stroke-width:1px;stroke-linecap:butt;stroke-linejoin:miter;stroke-opacity:1" d="M 433.69,667.102 449.604,658.26 z" id="boundary" inkscape:connector-curvature="0" />
	<path style="fill:none;stroke:red;stroke-width:1px;stroke-linecap:butt;stroke-linejoin:miter;stroke-opacity:1" d="M 433.69,774.966 449.604,766.125 z" id="boundary" inkscape:connector-curvature="0" />
	<path style="fill:none;stroke:red;stroke-width:1px;stroke-linecap:butt;stroke-linejoin:miter;stroke-opacity:1" d="M 435.458,147.23 451.373,156.071 z" id="boundary" inkscape:connector-curvature="0" />
	<path style="fill:none;stroke:red;stroke-width:1px;stroke-linecap:butt;stroke-linejoin:miter;stroke-opacity:1" d="M 438.995,633.504 456.677,624.663 z" id="boundary" inkscape:connector-curvature="0" />
	<path style="fill:none;stroke:red;stroke-width:1px;stroke-linecap:butt;stroke-linejoin:miter;stroke-opacity:1" d="M 440.763,30.5241 458.446,30.5241 z" id="boundary" inkscape:connector-curvature="0" />
	<path style="fill:none;stroke:red;stroke-width:1px;stroke-linecap:butt;stroke-linejoin:miter;stroke-opacity:1" d="M 442.531,357.654 460.214,357.654 z" id="boundary" inkscape:connector-curvature="0" />
	<path style="fill:none;stroke:red;stroke-width:1px;stroke-linecap:butt;stroke-linejoin:miter;stroke-opacity:1" d="M 449.604,658.26 465.519,649.419 z" id="boundary" inkscape:connector-curvature="0" />
	<path style="fill:none;stroke:red;stroke-width:1px;stroke-linecap:butt;stroke-linejoin:miter;stroke-opacity:1" d="M 449.604,766.125 465.519,757.283 z" id="boundary" inkscape:connector-curvature="0" />
	<path style="fill:none;stroke:red;stroke-width:1px;stroke-linecap:butt;stroke-linejoin:miter;stroke-opacity:1" d="M 451.373,156.071 469.055,163.144 z" id="boundary" inkscape:connector-curvature="0" />
	<path style="fill:none;stroke:red;stroke-width:1px;stroke-linecap:butt;stroke-linejoin:miter;stroke-opacity:1" d="M 456.677,624.663 474.36,628.2 z" id="boundary" inkscape:connector-curvature="0" />
	<path style="fill:none;stroke:red;stroke-width:1px;stroke-linecap:butt;stroke-linejoin:miter;stroke-opacity:1" d="M 458.446,30.5241 476.128,30.5241 z" id="boundary" inkscape:connector-curvature="0" />
	<path style="fill:none;stroke:red;stroke-width:1px;stroke-linecap:butt;stroke-linejoin:miter;stroke-opacity:1" d="M 460.214,357.654 476.128,348.813 z" id="boundary" inkscape:connector-curvature="0" />
	<path style="fill:none;stroke:red;stroke-width:1px;stroke-linecap:butt;stroke-linejoin:miter;stroke-opacity:1" d="M 465.519,649.419 474.36,628.2 z" id="boundary" inkscape:connector-curvature="0" />
	<path style="fill:none;stroke:red;stroke-width:1px;stroke-linecap:butt;stroke-linejoin:miter;stroke-opacity:1" d="M 465.519,757.283 481.433,748.442 z" id="boundary" inkscape:connector-curvature="0" />
	<path style="fill:none;stroke:red;stroke-width:1px;stroke-linecap:butt;stroke-linejoin:miter;stroke-opacity:1" d="M 469.055,163.144 484.97,171.986 z" id="boundary" inkscape:connector-curvature="0" />
	<path style="fill:none;stroke:red;stroke-width:1px;stroke-linecap:butt;stroke-linejoin:miter;stroke-opacity:1" d="M 476.128,30.5241 492.043,39.3654 z" id="boundary" inkscape:connector-curvature="0" />
	<path style="fill:none;stroke:red;stroke-width:1px;stroke-linecap:butt;stroke-linejoin:miter;stroke-opacity:1" d="M 476.128,348.813 492.043,339.971 z" id="boundary" inkscape:connector-curvature="0" />
	<path style="fill:none;stroke:red;stroke-width:1px;stroke-linecap:butt;stroke-linejoin:miter;stroke-opacity:1" d="M 481.433,748.442 497.348,739.601 z" id="boundary" inkscape:connector-curvature="0" />
	<path style="fill:none;stroke:red;stroke-width:1px;stroke-linecap:butt;stroke-linejoin:miter;stroke-opacity:1" d="M 484.97,171.986 502.652,179.059 z" id="boundary" inkscape:connector-curvature="0" />
	<path style="fill:none;stroke:red;stroke-width:1px;stroke-linecap:butt;stroke-linejoin:miter;stroke-opacity:1" d="M 492.043,39.3654 509.725,44.6702 z" id="boundary" inkscape:connector-curvature="0" />
	<path style="fill:none;stroke:red;stroke-width:1px;stroke-linecap:butt;stroke-linejoin:miter;stroke-opacity:1" d="M 492.043,339.971 507.957,327.594 z" id="boundary" inkscape:connector-curvature="0" />
	<path style="fill:none;stroke:red;stroke-width:1px;stroke-linecap:butt;stroke-linejoin:miter;stroke-opacity:1" d="M 497.348,739.601 513.262,730.759 z" id="boundary" inkscape:connector-curvature="0" />
	<path style="fill:none;stroke:red;stroke-width:1px;stroke-linecap:butt;stroke-linejoin:miter;stroke-opacity:1" d="M 499.116,955.33 499.116,973.012 z" id="boundary" inkscape:connector-curvature="0" />
	<path style="fill:none;stroke:red;stroke-width:1px;stroke-linecap:butt;stroke-linejoin:miter;stroke-opacity:1" d="M 499.116,955.33 507.957,937.647 z" id="boundary" inkscape:connector-curvature="0" />
	<path style="fill:none;stroke:red;stroke-width:1px;stroke-linecap:butt;stroke-linejoin:miter;stroke-opacity:1" d="M 499.116,973.012 513.262,985.39 z" id="boundary" inkscape:connector-curvature="0" />
	<path style="fill:none;stroke:red;stroke-width:1px;stroke-linecap:butt;stroke-linejoin:miter;stroke-opacity:1" d="M 502.652,179.059 518.567,187.9 z" id="boundary" inkscape:connector-curvature="0" />
	<path style="fill:none;stroke:red;stroke-width:1px;stroke-linecap:butt;stroke-linejoin:miter;stroke-opacity:1" d="M 507.957,327.594 522.103,313.447 z" id="boundary" inkscape:connector-curvature="0" />
	<path style="fill:none;stroke:red;stroke-width:1px;stroke-linecap:butt;stroke-linejoin:miter;stroke-opacity:1" d="M 507.957,937.647 522.103,923.501 z" id="boundary" inkscape:connector-curvature="0" />
	<path style="fill:none;stroke:red;stroke-width:1px;stroke-linecap:butt;stroke-linejoin:miter;stroke-opacity:1" d="M 509.725,44.6702 523.872,57.0481 z" id="boundary" inkscape:connector-curvature="0" />
	<path style="fill:none;stroke:red;stroke-width:1px;stroke-linecap:butt;stroke-linejoin:miter;stroke-opacity:1" d="M 513.262,730.759 529.176,721.918 z" id="boundary" inkscape:connector-curvature="0" />
	<path style="fill:none;stroke:red;stroke-width:1px;stroke-linecap:butt;stroke-linejoin:miter;stroke-opacity:1" d="M 513.262,985.39 529.176,994.232 z" id="boundary" inkscape:connector-curvature="0" />
	<path style="fill:none;stroke:red;stroke-width:1px;stroke-linecap:butt;stroke-linejoin:miter;stroke-opacity:1" d="M 518.567,187.9 536.25,194.973 z" id="boundary" inkscape:connector-curvature="0" />
	<path style="fill:none;stroke:red;stroke-width:1px;stroke-linecap:butt;stroke-linejoin:miter;stroke-opacity:1" d="M 522.103,313.447 536.25,299.301 z" id="boundary" inkscape:connector-curvature="0" />
	<path style="fill:none;stroke:red;stroke-width:1px;stroke-linecap:butt;stroke-linejoin:miter;stroke-opacity:1" d="M 522.103,923.501 530.945,905.818 z" id="boundary" inkscape:connector-curvature="0" />
	<path style="fill:none;stroke:red;stroke-width:1px;stroke-linecap:butt;stroke-linejoin:miter;stroke-opacity:1" d="M 523.872,57.0481 539.786,65.8895 z" id="boundary" inkscape:connector-curvature="0" />
	<path style="fill:none;stroke:red;stroke-width:1px;stroke-linecap:butt;stroke-linejoin:miter;stroke-opacity:1" d="M 529.176,721.918 546.859,721.918 z" id="boundary" inkscape:connector-curvature="0" />
	<path style="fill:none;stroke:red;stroke-width:1px;stroke-linecap:butt;stroke-linejoin:miter;stroke-opacity:1" d="M 529.176,994.232 546.859,987.159 z" id="boundary" inkscape:connector-curvature="0" />
	<path style="fill:none;stroke:red;stroke-width:1px;stroke-linecap:butt;stroke-linejoin:miter;stroke-opacity:1" d="M 530.945,905.818 543.323,884.599 z" id="boundary" inkscape:connector-curvature="0" />
	<path style="fill:none;stroke:red;stroke-width:1px;stroke-linecap:butt;stroke-linejoin:miter;stroke-opacity:1" d="M 536.25,194.973 548.627,209.119 z" id="boundary" inkscape:connector-curvature="0" />
	<path style="fill:none;stroke:red;stroke-width:1px;stroke-linecap:butt;stroke-linejoin:miter;stroke-opacity:1" d="M 536.25,299.301 543.323,274.545 z" id="boundary" inkscape:connector-curvature="0" />
	<path style="fill:none;stroke:red;stroke-width:1px;stroke-linecap:butt;stroke-linejoin:miter;stroke-opacity:1" d="M 539.786,65.8895 555.701,74.7308 z" id="boundary" inkscape:connector-curvature="0" />
	<path style="fill:none;stroke:red;stroke-width:1px;stroke-linecap:butt;stroke-linejoin:miter;stroke-opacity:1" d="M 543.323,274.545 552.164,256.863 z" id="boundary" inkscape:connector-curvature="0" />
	<path style="fill:none;stroke:red;stroke-width:1px;stroke-linecap:butt;stroke-linejoin:miter;stroke-opacity:1" d="M 543.323,884.599 557.469,870.453 z" id="boundary" inkscape:connector-curvature="0" />
	<path style="fill:none;stroke:red;stroke-width:1px;stroke-linecap:butt;stroke-linejoin:miter;stroke-opacity:1" d="M 546.859,721.918 562.774,713.077 z" id="boundary" inkscape:connector-curvature="0" />
	<path style="fill:none;stroke:red;stroke-width:1px;stroke-linecap:butt;stroke-linejoin:miter;stroke-opacity:1" d="M 546.859,987.159 562.774,978.317 z" id="boundary" inkscape:connector-curvature="0" />
	<path style="fill:none;stroke:red;stroke-width:1px;stroke-linecap:butt;stroke-linejoin:miter;stroke-opacity:1" d="M 548.627,209.119 552.164,239.18 z" id="boundary" inkscape:connector-curvature="0" />
	<path style="fill:none;stroke:red;stroke-width:1px;stroke-linecap:butt;stroke-linejoin:miter;stroke-opacity:1" d="M 552.164,239.18 552.164,256.863 z" id="boundary" inkscape:connector-curvature="0" />
	<path style="fill:none;stroke:red;stroke-width:1px;stroke-linecap:butt;stroke-linejoin:miter;stroke-opacity:1" d="M 555.701,74.7308 573.383,74.7308 z" id="boundary" inkscape:connector-curvature="0" />
	<path style="fill:none;stroke:red;stroke-width:1px;stroke-linecap:butt;stroke-linejoin:miter;stroke-opacity:1" d="M 557.469,870.453 571.615,856.307 z" id="boundary" inkscape:connector-curvature="0" />
	<path style="fill:none;stroke:red;stroke-width:1px;stroke-linecap:butt;stroke-linejoin:miter;stroke-opacity:1" d="M 562.774,713.077 580.456,704.235 z" id="boundary" inkscape:connector-curvature="0" />
	<path style="fill:none;stroke:red;stroke-width:1px;stroke-linecap:butt;stroke-linejoin:miter;stroke-opacity:1" d="M 562.774,978.317 580.456,969.476 z" id="boundary" inkscape:connector-curvature="0" />
	<path style="fill:none;stroke:red;stroke-width:1px;stroke-linecap:butt;stroke-linejoin:miter;stroke-opacity:1" d="M 571.615,856.307 585.761,843.929 z" id="boundary" inkscape:connector-curvature="0" />
	<path style="fill:none;stroke:red;stroke-width:1px;stroke-linecap:butt;stroke-linejoin:miter;stroke-opacity:1" d="M 573.383,74.7308 589.298,83.5722 z" id="boundary" inkscape:connector-curvature="0" />
	<path style="fill:none;stroke:red;stroke-width:1px;stroke-linecap:butt;stroke-linejoin:miter;stroke-opacity:1" d="M 580.456,704.235 598.139,707.772 z" id="boundary" inkscape:connector-curvature="0" />
	<path style="fill:none;stroke:red;stroke-width:1px;stroke-linecap:butt;stroke-linejoin:miter;stroke-opacity:1" d="M 580.456,969.476 594.602,957.098 z" id="boundary" inkscape:connector-curvature="0" />
	<path style="fill:none;stroke:red;stroke-width:1px;stroke-linecap:butt;stroke-linejoin:miter;stroke-opacity:1" d="M 585.761,843.929 592.834,826.246 z" id="boundary" inkscape:connector-curvature="0" />
	<path style="fill:none;stroke:red;stroke-width:1px;stroke-linecap:butt;stroke-linejoin:miter;stroke-opacity:1" d="M 589.298,83.5722 605.212,92.4135 z" id="boundary" inkscape:connector-curvature="0" />
	<path style="fill:none;stroke:red;stroke-width:1px;stroke-linecap:butt;stroke-linejoin:miter;stroke-opacity:1" d="M 592.834,826.246 601.676,808.563 z" id="boundary" inkscape:connector-curvature="0" />
	<path style="fill:none;stroke:red;stroke-width:1px;stroke-linecap:butt;stroke-linejoin:miter;stroke-opacity:1" d="M 594.602,957.098 606.98,942.952 z" id="boundary" inkscape:connector-curvature="0" />
	<path style="fill:none;stroke:red;stroke-width:1px;stroke-linecap:butt;stroke-linejoin:miter;stroke-opacity:1" d="M 598.139,707.772 615.822,713.077 z" id="boundary" inkscape:connector-curvature="0" />
	<path style="fill:none;stroke:red;stroke-width:1px;stroke-linecap:butt;stroke-linejoin:miter;stroke-opacity:1" d="M 601.676,808.563 610.517,790.881 z" id="boundary" inkscape:connector-curvature="0" />
	<path style="fill:none;stroke:red;stroke-width:1px;stroke-linecap:butt;stroke-linejoin:miter;stroke-opacity:1" d="M 605.212,92.4135 622.895,92.4135 z" id="boundary" inkscape:connector-curvature="0" />
	<path style="fill:none;stroke:red;stroke-width:1px;stroke-linecap:butt;stroke-linejoin:miter;stroke-opacity:1" d="M 606.98,942.952 621.127,930.574 z" id="boundary" inkscape:connector-curvature="0" />
	<path style="fill:none;stroke:red;stroke-width:1px;stroke-linecap:butt;stroke-linejoin:miter;stroke-opacity:1" d="M 610.517,790.881 619.358,773.198 z" id="boundary" inkscape:connector-curvature="0" />
	<path style="fill:none;stroke:red;stroke-width:1px;stroke-linecap:butt;stroke-linejoin:miter;stroke-opacity:1" d="M 615.822,713.077 631.736,721.918 z" id="boundary" inkscape:connector-curvature="0" />
	<path style="fill:none;stroke:red;stroke-width:1px;stroke-linecap:butt;stroke-linejoin:miter;stroke-opacity:1" d="M 619.358,773.198 628.2,755.515 z" id="boundary" inkscape:connector-curvature="0" />
	<path style="fill:none;stroke:red;stroke-width:1px;stroke-linecap:butt;stroke-linejoin:miter;stroke-opacity:1" d="M 621.127,930.574 633.504,907.586 z" id="boundary" inkscape:connector-curvature="0" />
	<path style="fill:none;stroke:red;stroke-width:1px;stroke-linecap:butt;stroke-linejoin:miter;stroke-opacity:1" d="M 622.895,92.4135 638.809,101.255 z" id="boundary" inkscape:connector-curvature="0" />
	<path style="fill:none;stroke:red;stroke-width:1px;stroke-linecap:butt;stroke-linejoin:miter;stroke-opacity:1" d="M 628.2,755.515 631.736,721.918 z" id="boundary" inkscape:connector-curvature="0" />
	<path style="fill:none;stroke:red;stroke-width:1px;stroke-linecap:butt;stroke-linejoin:miter;stroke-opacity:1" d="M 633.504,907.586 647.651,895.209 z" id="boundary" inkscape:connector-curvature="0" />
	<path style="fill:none;stroke:red;stroke-width:1px;stroke-linecap:butt;stroke-linejoin:miter;stroke-opacity:1" d="M 638.809,101.255 656.492,103.023 z" id="boundary" inkscape:connector-curvature="0" />
	<path style="fill:none;stroke:red;stroke-width:1px;stroke-linecap:butt;stroke-linejoin:miter;stroke-opacity:1" d="M 647.651,895.209 660.029,872.221 z" id="boundary" inkscape:connector-curvature="0" />
	<path style="fill:none;stroke:red;stroke-width:1px;stroke-linecap:butt;stroke-linejoin:miter;stroke-opacity:1" d="M 656.492,103.023 672.406,111.865 z" id="boundary" inkscape:connector-curvature="0" />
	<path style="fill:none;stroke:red;stroke-width:1px;stroke-linecap:butt;stroke-linejoin:miter;stroke-opacity:1" d="M 660.029,872.221 674.175,859.843 z" id="boundary" inkscape:connector-curvature="0" />
	<path style="fill:none;stroke:red;stroke-width:1px;stroke-linecap:butt;stroke-linejoin:miter;stroke-opacity:1" d="M 672.406,111.865 690.089,118.938 z" id="boundary" inkscape:connector-curvature="0" />
	<path style="fill:none;stroke:red;stroke-width:1px;stroke-linecap:butt;stroke-linejoin:miter;stroke-opacity:1" d="M 674.175,859.843 686.553,845.697 z" id="boundary" inkscape:connector-curvature="0" />
	<path style="fill:none;stroke:red;stroke-width:1px;stroke-linecap:butt;stroke-linejoin:miter;stroke-opacity:1" d="M 686.553,845.697 695.394,828.014 z" id="boundary" inkscape:connector-curvature="0" />
	<path style="fill:none;stroke:red;stroke-width:1px;stroke-linecap:butt;stroke-linejoin:miter;stroke-opacity:1" d="M 690.089,118.938 702.467,133.084 z" id="boundary" inkscape:connector-curvature="0" />
	<path style="fill:none;stroke:red;stroke-width:1px;stroke-linecap:butt;stroke-linejoin:miter;stroke-opacity:1" d="M 695.394,828.014 709.54,815.636 z" id="boundary" inkscape:connector-curvature="0" />
	<path style="fill:none;stroke:red;stroke-width:1px;stroke-linecap:butt;stroke-linejoin:miter;stroke-opacity:1" d="M 702.467,133.084 720.15,136.62 z" id="boundary" inkscape:connector-curvature="0" />
	<path style="fill:none;stroke:red;stroke-width:1px;stroke-linecap:butt;stroke-linejoin:miter;stroke-opacity:1" d="M 709.54,815.636 718.381,797.954 z" id="boundary" inkscape:connector-curvature="0" />
	<path style="fill:none;stroke:red;stroke-width:1px;stroke-linecap:butt;stroke-linejoin:miter;stroke-opacity:1" d="M 718.381,797.954 730.759,774.966 z" id="boundary" inkscape:connector-curvature="0" />
	<path style="fill:none;stroke:red;stroke-width:1px;stroke-linecap:butt;stroke-linejoin:miter;stroke-opacity:1" d="M 720.15,136.62 734.296,147.23 z" id="boundary" inkscape:connector-curvature="0" />
	<path style="fill:none;stroke:red;stroke-width:1px;stroke-linecap:butt;stroke-linejoin:miter;stroke-opacity:1" d="M 730.759,774.966 744.906,762.588 z" id="boundary" inkscape:connector-curvature="0" />
	<path style="fill:none;stroke:red;stroke-width:1px;stroke-linecap:butt;stroke-linejoin:miter;stroke-opacity:1" d="M 734.296,147.23 751.979,154.303 z" id="boundary" inkscape:connector-curvature="0" />
	<path style="fill:none;stroke:red;stroke-width:1px;stroke-linecap:butt;stroke-linejoin:miter;stroke-opacity:1" d="M 744.906,762.588 757.283,739.601 z" id="boundary" inkscape:connector-curvature="0" />
	<path style="fill:none;stroke:red;stroke-width:1px;stroke-linecap:butt;stroke-linejoin:miter;stroke-opacity:1" d="M 751.979,154.303 767.893,163.144 z" id="boundary" inkscape:connector-curvature="0" />
	<path style="fill:none;stroke:red;stroke-width:1px;stroke-linecap:butt;stroke-linejoin:miter;stroke-opacity:1" d="M 757.283,739.601 774.966,730.759 z" id="boundary" inkscape:connector-curvature="0" />
	<path style="fill:none;stroke:red;stroke-width:1px;stroke-linecap:butt;stroke-linejoin:miter;stroke-opacity:1" d="M 767.893,163.144 783.807,171.986 z" id="boundary" inkscape:connector-curvature="0" />
	<path style="fill:none;stroke:red;stroke-width:1px;stroke-linecap:butt;stroke-linejoin:miter;stroke-opacity:1" d="M 774.966,730.759 792.649,721.918 z" id="boundary" inkscape:connector-curvature="0" />
	<path style="fill:none;stroke:red;stroke-width:1px;stroke-linecap:butt;stroke-linejoin:miter;stroke-opacity:1" d="M 783.807,171.986 801.49,177.291 z" id="boundary" inkscape:connector-curvature="0" />
	<path style="fill:none;stroke:red;stroke-width:1px;stroke-linecap:butt;stroke-linejoin:miter;stroke-opacity:1" d="M 792.649,721.918 806.795,709.54 z" id="boundary" inkscape:connector-curvature="0" />
	<path style="fill:none;stroke:red;stroke-width:1px;stroke-linecap:butt;stroke-linejoin:miter;stroke-opacity:1" d="M 801.49,177.291 819.173,180.827 z" id="boundary" inkscape:connector-curvature="0" />
	<path style="fill:none;stroke:red;stroke-width:1px;stroke-linecap:butt;stroke-linejoin:miter;stroke-opacity:1" d="M 806.795,709.54 824.478,700.699 z" id="boundary" inkscape:connector-curvature="0" />
	<path style="fill:none;stroke:red;stroke-width:1px;stroke-linecap:butt;stroke-linejoin:miter;stroke-opacity:1" d="M 819.173,180.827 835.087,189.668 z" id="boundary" inkscape:connector-curvature="0" />
	<path style="fill:none;stroke:red;stroke-width:1px;stroke-linecap:butt;stroke-linejoin:miter;stroke-opacity:1" d="M 824.478,700.699 842.16,691.857 z" id="boundary" inkscape:connector-curvature="0" />
	<path style="fill:none;stroke:red;stroke-width:1px;stroke-linecap:butt;stroke-linejoin:miter;stroke-opacity:1" d="M 835.087,189.668 852.77,189.668 z" id="boundary" inkscape:connector-curvature="0" />
	<path style="fill:none;stroke:red;stroke-width:1px;stroke-linecap:butt;stroke-linejoin:miter;stroke-opacity:1" d="M 842.16,691.857 859.843,683.016 z" id="boundary" inkscape:connector-curvature="0" />
	<path style="fill:none;stroke:red;stroke-width:1px;stroke-linecap:butt;stroke-linejoin:miter;stroke-opacity:1" d="M 852.77,189.668 868.684,198.51 z" id="boundary" inkscape:connector-curvature="0" />
	<path style="fill:none;stroke:red;stroke-width:1px;stroke-linecap:butt;stroke-linejoin:miter;stroke-opacity:1" d="M 859.843,683.016 877.526,674.175 z" id="boundary" inkscape:connector-curvature="0" />
	<path style="fill:none;stroke:red;stroke-width:1px;stroke-linecap:butt;stroke-linejoin:miter;stroke-opacity:1" d="M 868.684,198.51 886.367,198.51 z" id="boundary" inkscape:connector-curvature="0" />
	<path style="fill:none;stroke:red;stroke-width:1px;stroke-linecap:butt;stroke-linejoin:miter;stroke-opacity:1" d="M 877.526,674.175 895.209,665.333 z" id="boundary" inkscape:connector-curvature="0" />
	<path style="fill:none;stroke:red;stroke-width:1px;stroke-linecap:butt;stroke-linejoin:miter;stroke-opacity:1" d="M 886.367,198.51 904.05,198.51 z" id="boundary" inkscape:connector-curvature="0" />
	<path style="fill:none;stroke:red;stroke-width:1px;stroke-linecap:butt;stroke-linejoin:miter;stroke-opacity:1" d="M 895.209,665.333 912.891,656.492 z" id="boundary" inkscape:connector-curvature="0" />
	<path style="fill:none;stroke:red;stroke-width:1px;stroke-linecap:butt;stroke-linejoin:miter;stroke-opacity:1" d="M 904.05,198.51 921.733,198.51 z" id="boundary" inkscape:connector-curvature="0" />
	<path style="fill:none;stroke:red;stroke-width:1px;stroke-linecap:butt;stroke-linejoin:miter;stroke-opacity:1" d="M 912.891,656.492 925.269,642.346 z" id="boundary" inkscape:connector-curvature="0" />
	<path style="fill:none;stroke:red;stroke-width:1px;stroke-linecap:butt;stroke-linejoin:miter;stroke-opacity:1" d="M 921.733,198.51 939.415,198.51 z" id="boundary" inkscape:connector-curvature="0" />
	<path style="fill:none;stroke:red;stroke-width:1px;stroke-linecap:butt;stroke-linejoin:miter;stroke-opacity:1" d="M 925.269,642.346 941.184,633.504 z" id="boundary" inkscape:connector-curvature="0" />
	<path style="fill:none;stroke:red;stroke-width:1px;stroke-linecap:butt;stroke-linejoin:miter;stroke-opacity:1" d="M 939.415,198.51 957.098,198.51 z" id="boundary" inkscape:connector-curvature="0" />
	<path style="fill:none;stroke:red;stroke-width:1px;stroke-linecap:butt;stroke-linejoin:miter;stroke-opacity:1" d="M 941.184,633.504 955.33,622.895 z" id="boundary" inkscape:connector-curvature="0" />
	<path style="fill:none;stroke:red;stroke-width:1px;stroke-linecap:butt;stroke-linejoin:miter;stroke-opacity:1" d="M 955.33,622.895 964.171,605.212 z" id="boundary" inkscape:connector-curvature="0" />
	<path style="fill:none;stroke:red;stroke-width:1px;stroke-linecap:butt;stroke-linejoin:miter;stroke-opacity:1" d="M 957.098,198.51 973.012,189.668 z" id="boundary" inkscape:connector-curvature="0" />
	<path style="fill:none;stroke:red;stroke-width:1px;stroke-linecap:butt;stroke-linejoin:miter;stroke-opacity:1" d="M 964.171,605.212 978.317,589.298 z" id="boundary" inkscape:connector-curvature="0" />
	<path style="fill:none;stroke:red;stroke-width:1px;stroke-linecap:butt;stroke-linejoin:miter;stroke-opacity:1" d="M 973.012,189.668 990.695,189.668 z" id="boundary" inkscape:connector-curvature="0" />
	<path style="fill:none;stroke:red;stroke-width:1px;stroke-linecap:butt;stroke-linejoin:miter;stroke-opacity:1" d="M 978.317,589.298 987.159,571.615 z" id="boundary" inkscape:connector-curvature="0" />
	<path style="fill:none;stroke:red;stroke-width:1px;stroke-linecap:butt;stroke-linejoin:miter;stroke-opacity:1" d="M 987.159,571.615 996,543.323 z" id="boundary" inkscape:connector-curvature="0" />
	<path style="fill:none;stroke:red;stroke-width:1px;stroke-linecap:butt;stroke-linejoin:miter;stroke-opacity:1" d="M 990.695,189.668 996,207.351 z" id="boundary" inkscape:connector-curvature="0" />
	<path style="fill:none;stroke:red;stroke-width:1px;stroke-linecap:butt;stroke-linejoin:miter;stroke-opacity:1" d="M 996,207.351 996,225.034 z" id="boundary" inkscape:connector-curvature="0" />
	<path style="fill:none;stroke:red;stroke-width:1px;stroke-linecap:butt;stroke-linejoin:miter;stroke-opacity:1" d="M 996,225.034 996,242.717 z" id="boundary" inkscape:connector-curvature="0" />
	<path style="fill:none;stroke:red;stroke-width:1px;stroke-linecap:butt;stroke-linejoin:miter;stroke-opacity:1" d="M 996,242.717 996,260.399 z" id="boundary" inkscape:connector-curvature="0" />
	<path style="fill:none;stroke:red;stroke-width:1px;stroke-linecap:butt;stroke-linejoin:miter;stroke-opacity:1" d="M 996,260.399 996,278.082 z" id="boundary" inkscape:connector-curvature="0" />
	<path style="fill:none;stroke:red;stroke-width:1px;stroke-linecap:butt;stroke-linejoin:miter;stroke-opacity:1" d="M 996,278.082 996,295.765 z" id="boundary" inkscape:connector-curvature="0" />
	<path style="fill:none;stroke:red;stroke-width:1px;stroke-linecap:butt;stroke-linejoin:miter;stroke-opacity:1" d="M 996,295.765 996,313.447 z" id="boundary" inkscape:connector-curvature="0" />
	<path style="fill:none;stroke:red;stroke-width:1px;stroke-linecap:butt;stroke-linejoin:miter;stroke-opacity:1" d="M 996,313.447 996,331.13 z" id="boundary" inkscape:connector-curvature="0" />
	<path style="fill:none;stroke:red;stroke-width:1px;stroke-linecap:butt;stroke-linejoin:miter;stroke-opacity:1" d="M 996,331.13 996,348.813 z" id="boundary" inkscape:connector-curvature="0" />
	<path style="fill:none;stroke:red;stroke-width:1px;stroke-linecap:butt;stroke-linejoin:miter;stroke-opacity:1" d="M 996,348.813 996,366.496 z" id="boundary" inkscape:connector-curvature="0" />
	<path style="fill:none;stroke:red;stroke-width:1px;stroke-linecap:butt;stroke-linejoin:miter;stroke-opacity:1" d="M 996,366.496 996,384.178 z" id="boundary" inkscape:connector-curvature="0" />
	<path style="fill:none;stroke:red;stroke-width:1px;stroke-linecap:butt;stroke-linejoin:miter;stroke-opacity:1" d="M 996,384.178 996,401.861 z" id="boundary" inkscape:connector-curvature="0" />
	<path style="fill:none;stroke:red;stroke-width:1px;stroke-linecap:butt;stroke-linejoin:miter;stroke-opacity:1" d="M 996,401.861 996,419.544 z" id="boundary" inkscape:connector-curvature="0" />
	<path style="fill:none;stroke:red;stroke-width:1px;stroke-linecap:butt;stroke-linejoin:miter;stroke-opacity:1" d="M 996,419.544 996,437.226 z" id="boundary" inkscape:connector-curvature="0" />
	<path style="fill:none;stroke:red;stroke-width:1px;stroke-linecap:butt;stroke-linejoin:miter;stroke-opacity:1" d="M 996,437.226 996,454.909 z" id="boundary" inkscape:connector-curvature="0" />
	<path style="fill:none;stroke:red;stroke-width:1px;stroke-linecap:butt;stroke-linejoin:miter;stroke-opacity:1" d="M 996,454.909 996,472.592 z" id="boundary" inkscape:connector-curvature="0" />
	<path style="fill:none;stroke:red;stroke-width:1px;stroke-linecap:butt;stroke-linejoin:miter;stroke-opacity:1" d="M 996,472.592 996,490.275 z" id="boundary" inkscape:connector-curvature="0" />
	<path style="fill:none;stroke:red;stroke-width:1px;stroke-linecap:butt;stroke-linejoin:miter;stroke-opacity:1" d="M 996,490.275 996,507.957 z" id="boundary" inkscape:connector-curvature="0" />
	<path style="fill:none;stroke:red;stroke-width:1px;stroke-linecap:butt;stroke-linejoin:miter;stroke-opacity:1" d="M 996,507.957 996,525.64 z" id="boundary" inkscape:connector-curvature="0" />
	<path style="fill:none;stroke:red;stroke-width:1px;stroke-linecap:butt;stroke-linejoin:miter;stroke-opacity:1" d="M 996,525.64 996,543.323 z" id="boundary" inkscape:connector-curvature="0" />
	<circle cx="4" cy="504.421" r="4" fill="#0" id="circle0"/>
	<circle cx="4" cy="522.103" r="4" fill="#0" id="circle1"/>
	<circle cx="12.8414" cy="538.018" r="4" fill="#0" id="circle2"/>
	<circle cx="18.1462" cy="490.275" r="4" fill="#0" id="circle3"/>
	<circle cx="25.2193" cy="552.164" r="4" fill="#0" id="circle4"/>
	<circle cx="26.9875" cy="472.592" r="4" fill="#0" id="circle5"/>
	<circle cx="39.3654" cy="707.772" r="4" fill="#0" id="circle6"/>
	<circle cx="39.3654" cy="725.455" r="4" fill="#0" id="circle7"/>
	<circle cx="39.3654" cy="743.137" r="4" fill="#0" id="circle8"/>
	<circle cx="42.902" cy="553.932" r="4" fill="#0" id="circle9"/>
	<circle cx="44.6702" cy="463.75" r="4" fill="#0" id="circle10"/>
	<circle cx="53.5116" cy="693.626" r="4" fill="#0" id="circle11"/>
	<circle cx="53.5116" cy="755.515" r="4" fill="#0" id="circle12"/>
	<circle cx="60.5847" cy="553.932" r="4" fill="#0" id="circle13"/>
	<circle cx="62.3529" cy="454.909" r="4" fill="#0" id="circle14"/>
	<circle cx="67.6578" cy="679.48" r="4" fill="#0" id="circle15"/>
	<circle cx="67.6578" cy="766.125" r="4" fill="#0" id="circle16"/>
	<circle cx="78.2674" cy="553.932" r="4" fill="#0" id="circle17"/>
	<circle cx="80.0357" cy="446.068" r="4" fill="#0" id="circle18"/>
	<circle cx="85.3405" cy="670.638" r="4" fill="#0" id="circle19"/>
	<circle cx="85.3405" cy="766.125" r="4" fill="#0" id="circle20"/>
	<circle cx="94.1818" cy="545.091" r="4" fill="#0" id="circle21"/>
	<circle cx="97.7184" cy="437.226" r="4" fill="#0" id="circle22"/>
	<circle cx="99.4866" cy="658.26" r="4" fill="#0" id="circle23"/>
	<circle cx="103.023" cy="757.283" r="4" fill="#0" id="circle24"/>
	<circle cx="111.865" cy="536.25" r="4" fill="#0" id="circle25"/>
	<circle cx="115.401" cy="437.226" r="4" fill="#0" id="circle26"/>
	<circle cx="115.401" cy="649.419" r="4" fill="#0" id="circle27"/>
	<circle cx="120.706" cy="748.442" r="4" fill="#0" id="circle28"/>
	<circle cx="129.547" cy="536.25" r="4" fill="#0" id="circle29"/>
	<circle cx="131.316" cy="428.385" r="4" fill="#0" id="circle30"/>
	<circle cx="133.084" cy="640.578" r="4" fill="#0" id="circle31"/>
	<circle cx="138.389" cy="748.442" r="4" fill="#0" id="circle32"/>
	<circle cx="145.462" cy="527.408" r="4" fill="#0" id="circle33"/>
	<circle cx="148.998" cy="428.385" r="4" fill="#0" id="circle34"/>
	<circle cx="150.766" cy="631.736" r="4" fill="#0" id="circle35"/>
	<circle cx="154.303" cy="739.601" r="4" fill="#0" id="circle36"/>
	<circle cx="154.303" cy="813.868" r="4" fill="#0" id="circle37"/>
	<circle cx="154.303" cy="831.551" r="4" fill="#0" id="circle38"/>
	<circle cx="154.303" cy="849.234" r="4" fill="#0" id="circle39"/>
	<circle cx="163.144" cy="527.408" r="4" fill="#0" id="circle40"/>
	<circle cx="164.913" cy="419.544" r="4" fill="#0" id="circle41"/>
	<circle cx="168.449" cy="622.895" r="4" fill="#0" id="circle42"/>
	<circle cx="168.449" cy="799.722" r="4" fill="#0" id="circle43"/>
	<circle cx="168.449" cy="861.611" r="4" fill="#0" id="circle44"/>
	<circle cx="170.217" cy="730.759" r="4" fill="#0" id="circle45"/>
	<circle cx="180.827" cy="522.103" r="4" fill="#0" id="circle46"/>
	<circle cx="182.595" cy="414.239" r="4" fill="#0" id="circle47"/>
	<circle cx="182.595" cy="872.221" r="4" fill="#0" id="circle48"/>
	<circle cx="186.132" cy="614.053" r="4" fill="#0" id="circle49"/>
	<circle cx="186.132" cy="721.918" r="4" fill="#0" id="circle50"/>
	<circle cx="186.132" cy="790.881" r="4" fill="#0" id="circle51"/>
	<circle cx="198.51" cy="518.567" r="4" fill="#0" id="circle52"/>
	<circle cx="200.278" cy="410.702" r="4" fill="#0" id="circle53"/>
	<circle cx="200.278" cy="776.734" r="4" fill="#0" id="circle54"/>
	<circle cx="200.278" cy="872.221" r="4" fill="#0" id="circle55"/>
	<circle cx="203.815" cy="605.212" r="4" fill="#0" id="circle56"/>
	<circle cx="203.815" cy="720.15" r="4" fill="#0" id="circle57"/>
	<circle cx="216.193" cy="401.861" r="4" fill="#0" id="circle58"/>
	<circle cx="216.193" cy="518.567" r="4" fill="#0" id="circle59"/>
	<circle cx="217.961" cy="767.893" r="4" fill="#0" id="circle60"/>
	<circle cx="217.961" cy="863.38" r="4" fill="#0" id="circle61"/>
	<circle cx="219.729" cy="596.371" r="4" fill="#0" id="circle62"/>
	<circle cx="221.497" cy="713.077" r="4" fill="#0" id="circle63"/>
	<circle cx="233.875" cy="401.861" r="4" fill="#0" id="circle64"/>
	<circle cx="233.875" cy="513.262" r="4" fill="#0" id="circle65"/>
	<circle cx="235.643" cy="759.052" r="4" fill="#0" id="circle66"/>
	<circle cx="235.643" cy="863.38" r="4" fill="#0" id="circle67"/>
	<circle cx="237.412" cy="589.298" r="4" fill="#0" id="circle68"/>
	<circle cx="237.412" cy="704.235" r="4" fill="#0" id="circle69"/>
	<circle cx="251.558" cy="401.861" r="4" fill="#0" id="circle70"/>
	<circle cx="251.558" cy="509.725" r="4" fill="#0" id="circle71"/>
	<circle cx="251.558" cy="854.538" r="4" fill="#0" id="circle72"/>
	<circle cx="253.326" cy="750.21" r="4" fill="#0" id="circle73"/>
	<circle cx="255.094" cy="580.456" r="4" fill="#0" id="circle74"/>
	<circle cx="255.094" cy="704.235" r="4" fill="#0" id="circle75"/>
	<circle cx="267.472" cy="393.02" r="4" fill="#0" id="circle76"/>
	<circle cx="269.241" cy="509.725" r="4" fill="#0" id="circle77"/>
	<circle cx="269.241" cy="854.538" r="4" fill="#0" id="circle78"/>
	<circle cx="271.009" cy="695.394" r="4" fill="#0" id="circle79"/>
	<circle cx="271.009" cy="746.674" r="4" fill="#0" id="circle80"/>
	<circle cx="272.777" cy="578.688" r="4" fill="#0" id="circle81"/>
	<circle cx="285.155" cy="393.02" r="4" fill="#0" id="circle82"/>
	<circle cx="285.155" cy="500.884" r="4" fill="#0" id="circle83"/>
	<circle cx="285.155" cy="845.697" r="4" fill="#0" id="circle84"/>
	<circle cx="286.923" cy="737.832" r="4" fill="#0" id="circle85"/>
	<circle cx="288.692" cy="695.394" r="4" fill="#0" id="circle86"/>
	<circle cx="290.46" cy="571.615" r="4" fill="#0" id="circle87"/>
	<circle cx="301.07" cy="836.856" r="4" fill="#0" id="circle88"/>
	<circle cx="302.838" cy="393.02" r="4" fill="#0" id="circle89"/>
	<circle cx="302.838" cy="500.884" r="4" fill="#0" id="circle90"/>
	<circle cx="302.838" cy="728.991" r="4" fill="#0" id="circle91"/>
	<circle cx="304.606" cy="686.553" r="4" fill="#0" id="circle92"/>
	<circle cx="308.143" cy="569.847" r="4" fill="#0" id="circle93"/>
	<circle cx="316.984" cy="828.014" r="4" fill="#0" id="circle94"/>
	<circle cx="318.752" cy="720.15" r="4" fill="#0" id="circle95"/>
	<circle cx="320.52" cy="393.02" r="4" fill="#0" id="circle96"/>
	<circle cx="320.52" cy="500.884" r="4" fill="#0" id="circle97"/>
	<circle cx="320.52" cy="677.711" r="4" fill="#0" id="circle98"/>
	<circle cx="324.057" cy="561.005" r="4" fill="#0" id="circle99"/>
	<circle cx="331.13" cy="35.8289" r="4" fill="#0" id="circle100"/>
	<circle cx="331.13" cy="53.5116" r="4" fill="#0" id="circle101"/>
	<circle cx="332.898" cy="819.173" r="4" fill="#0" id="circle102"/>
	<circle cx="336.435" cy="384.178" r="4" fill="#0" id="circle103"/>
	<circle cx="336.435" cy="668.87" r="4" fill="#0" id="circle104"/>
	<circle cx="336.435" cy="711.308" r="4" fill="#0" id="circle105"/>
	<circle cx="338.203" cy="500.884" r="4" fill="#0" id="circle106"/>
	<circle cx="339.971" cy="9.30481" r="4" fill="#0" id="circle107"/>
	<circle cx="339.971" cy="69.426" r="4" fill="#0" id="circle108"/>
	<circle cx="341.74" cy="555.701" r="4" fill="#0" id="circle109"/>
	<circle cx="348.813" cy="85.3405" r="4" fill="#0" id="circle110"/>
	<circle cx="350.581" cy="810.332" r="4" fill="#0" id="circle111"/>
	<circle cx="352.349" cy="660.029" r="4" fill="#0" id="circle112"/>
	<circle cx="352.349" cy="702.467" r="4" fill="#0" id="circle113"/>
	<circle cx="354.118" cy="384.178" r="4" fill="#0" id="circle114"/>
	<circle cx="355.886" cy="500.884" r="4" fill="#0" id="circle115"/>
	<circle cx="357.654" cy="4" r="4" fill="#0" id="circle116"/>
	<circle cx="359.422" cy="552.164" r="4" fill="#0" id="circle117"/>
	<circle cx="364.727" cy="94.1818" r="4" fill="#0" id="circle118"/>
	<circle cx="368.264" cy="693.626" r="4" fill="#0" id="circle119"/>
	<circle cx="368.264" cy="801.49" r="4" fill="#0" id="circle120"/>
	<circle cx="370.032" cy="660.029" r="4" fill="#0" id="circle121"/>
	<circle cx="371.8" cy="111.865" r="4" fill="#0" id="circle122"/>
	<circle cx="371.8" cy="384.178" r="4" fill="#0" id="circle123"/>
	<circle cx="371.8" cy="492.043" r="4" fill="#0" id="circle124"/>
	<circle cx="375.337" cy="4" r="4" fill="#0" id="circle125"/>
	<circle cx="377.105" cy="546.859" r="4" fill="#0" id="circle126"/>
	<circle cx="384.178" cy="684.784" r="4" fill="#0" id="circle127"/>
	<circle cx="385.947" cy="651.187" r="4" fill="#0" id="circle128"/>
	<circle cx="385.947" cy="801.49" r="4" fill="#0" id="circle129"/>
	<circle cx="389.483" cy="118.938" r="4" fill="#0" id="circle130"/>
	<circle cx="389.483" cy="375.337" r="4" fill="#0" id="circle131"/>
	<circle cx="389.483" cy="499.116" r="4" fill="#0" id="circle132"/>
	<circle cx="391.251" cy="12.8414" r="4" fill="#0" id="circle133"/>
	<circle cx="394.788" cy="538.018" r="4" fill="#0" id="circle134"/>
	<circle cx="400.093" cy="675.943" r="4" fill="#0" id="circle135"/>
	<circle cx="401.861" cy="133.084" r="4" fill="#0" id="circle136"/>
	<circle cx="401.861" cy="792.649" r="4" fill="#0" id="circle137"/>
	<circle cx="403.629" cy="642.346" r="4" fill="#0" id="circle138"/>
	<circle cx="405.398" cy="507.957" r="4" fill="#0" id="circle139"/>
	<circle cx="407.166" cy="21.6827" r="4" fill="#0" id="circle140"/>
	<circle cx="407.166" cy="366.496" r="4" fill="#0" id="circle141"/>
	<circle cx="410.702" cy="525.64" r="4" fill="#0" id="circle142"/>
	<circle cx="417.775" cy="675.943" r="4" fill="#0" id="circle143"/>
	<circle cx="417.775" cy="783.807" r="4" fill="#0" id="circle144"/>
	<circle cx="419.544" cy="138.389" r="4" fill="#0" id="circle145"/>
	<circle cx="421.312" cy="633.504" r="4" fill="#0" id="circle146"/>
	<circle cx="424.848" cy="21.6827" r="4" fill="#0" id="circle147"/>
	<circle cx="424.848" cy="366.496" r="4" fill="#0" id="circle148"/>
	<circle cx="433.69" cy="667.102" r="4" fill="#0" id="circle149"/>
	<circle cx="433.69" cy="774.966" r="4" fill="#0" id="circle150"/>
	<circle cx="435.458" cy="147.23" r="4" fill="#0" id="circle151"/>
	<circle cx="438.995" cy="633.504" r="4" fill="#0" id="circle152"/>
	<circle cx="440.763" cy="30.5241" r="4" fill="#0" id="circle153"/>
	<circle cx="442.531" cy="357.654" r="4" fill="#0" id="circle154"/>
	<circle cx="449.604" cy="658.26" r="4" fill="#0" id="circle155"/>
	<circle cx="449.604" cy="766.125" r="4" fill="#0" id="circle156"/>
	<circle cx="451.373" cy="156.071" r="4" fill="#0" id="circle157"/>
	<circle cx="456.677" cy="624.663" r="4" fill="#0" id="circle158"/>
	<circle cx="458.446" cy="30.5241" r="4" fill="#0" id="circle159"/>
	<circle cx="460.214" cy="357.654" r="4" fill="#0" id="circle160"/>
	<circle cx="465.519" cy="649.419" r="4" fill="#0" id="circle161"/>
	<circle cx="465.519" cy="757.283" r="4" fill="#0" id="circle162"/>
	<circle cx="469.055" cy="163.144" r="4" fill="#0" id="circle163"/>
	<circle cx="474.36" cy="628.2" r="4" fill="#0" id="circle164"/>
	<circle cx="476.128" cy="30.5241" r="4" fill="#0" id="circle165"/>
	<circle cx="476.128" cy="348.813" r="4" fill="#0" id="circle166"/>
	<circle cx="481.433" cy="748.442" r="4" fill="#0" id="circle167"/>
	<circle cx="484.97" cy="171.986" r="4" fill="#0" id="circle168"/>
	<circle cx="492.043" cy="39.3654" r="4" fill="#0" id="circle169"/>
	<circle cx="492.043" cy="339.971" r="4" fill="#0" id="circle170"/>
	<circle cx="497.348" cy="739.601" r="4" fill="#0" id="circle171"/>
	<circle cx="499.116" cy="955.33" r="4" fill="#0" id="circle172"/>
	<circle cx="499.116" cy="973.012" r="4" fill="#0" id="circle173"/>
	<circle cx="502.652" cy="179.059" r="4" fill="#0" id="circle174"/>
	<circle cx="507.957" cy="327.594" r="4" fill="#0" id="circle175"/>
	<circle cx="507.957" cy="937.647" r="4" fill="#0" id="circle176"/>
	<circle cx="509.725" cy="44.6702" r="4" fill="#0" id="circle177"/>
	<circle cx="513.262" cy="730.759" r="4" fill="#0" id="circle178"/>
	<circle cx="513.262" cy="985.39" r="4" fill="#0" id="circle179"/>
	<circle cx="518.567" cy="187.9" r="4" fill="#0" id="circle180"/>
	<circle cx="522.103" cy="313.447" r="4" fill="#0" id="circle181"/>
	<circle cx="522.103" cy="923.501" r="4" fill="#0" id="circle182"/>
	<circle cx="523.872" cy="57.0481" r="4" fill="#0" id="circle183"/>
	<circle cx="529.176" cy="721.918" r="4" fill="#0" id="circle184"/>
	<circle cx="529.176" cy="994.232" r="4" fill="#0" id="circle185"/>
	<circle cx="530.945" cy="905.818" r="4" fill="#0" id="circle186"/>
	<circle cx="536.25" cy="194.973" r="4" fill="#0" id="circle187"/>
	<circle cx="536.25" cy="299.301" r="4" fill="#0" id="circle188"/>
	<circle cx="539.786" cy="65.8895" r="4" fill="#0" id="circle189"/>
	<circle cx="543.323" cy="274.545" r="4" fill="#0" id="circle190"/>
	<circle cx="543.323" cy="884.599" r="4" fill="#0" id="circle191"/>
	<circle cx="546.859" cy="721.918" r="4" fill="#0" id="circle192"/>
	<circle cx="546.859" cy="987.159" r="4" fill="#0" id="circle193"/>
	<circle cx="548.627" cy="209.119" r="4" fill="#0" id="circle194"/>
	<circle cx="552.164" cy="239.18" r="4" fill="#0" id="circle195"/>
	<circle cx="552.164" cy="256.863" r="4" fill="#0" id="circle196"/>
	<circle cx="555.701" cy="74.7308" r="4" fill="#0" id="circle197"/>
	<circle cx="557.469" cy="870.453" r="4" fill="#0" id="circle198"/>
	<circle cx="562.774" cy="713.077" r="4" fill="#0" id="circle199"/>
	<circle cx="562.774" cy="978.317" r="4" fill="#0" id="circle200"/>
	<circle cx="571.615" cy="856.307" r="4" fill="#0" id="circle201"/>
	<circle cx="573.383" cy="74.7308" r="4" fill="#0" id="circle202"/>
	<circle cx="580.456" cy="704.235" r="4" fill="#0" id="circle203"/>
	<circle cx="580.456" cy="969.476" r="4" fill="#0" id="circle204"/>
	<circle cx="585.761" cy="843.929" r="4" fill="#0" id="circle205"/>
	<circle cx="589.298" cy="83.5722" r="4" fill="#0" id="circle206"/>
	<circle cx="592.834" cy="826.246" r="4" fill="#0" id="circle207"/>
	<circle cx="594.602" cy="957.098" r="4" fill="#0" id="circle208"/>
	<circle cx="598.139" cy="707.772" r="4" fill="#0" id="circle209"/>
	<circle cx="601.676" cy="808.563" r="4" fill="#0" id="circle210"/>
	<circle cx="605.212" cy="92.4135" r="4" fill="#0" id="circle211"/>
	<circle cx="606.98" cy="942.952" r="4" fill="#0" id="circle212"/>
	<circle cx="610.517" cy="790.881" r="4" fill="#0" id="circle213"/>
	<circle cx="615.822" cy="713.077" r="4" fill="#0" id="circle214"/>
	<circle cx="619.358" cy="773.198" r="4" fill="#0" id="circle215"/>
	<circle cx="621.127" cy="930.574" r="4" fill="#0" id="circle216"/>
	<circle cx="622.895" cy="92.4135" r="4" fill="#0" id="circle217"/>
	<circle cx="628.2" cy="755.515" r="4" fill="#0" id="circle218"/>
	<circle cx="631.736" cy="721.918" r="4" fill="#0" id="circle219"/>
	<circle cx="633.504" cy="907.586" r="4" fill="#0" id="circle220"/>
	<circle cx="638.809" cy="101.255" r="4" fill="#0" id="circle221"/>
	<circle cx="647.651" cy="895.209" r="4" fill="#0" id="circle222"/>
	<circle cx="656.492" cy="103.023" r="4" fill="#0" id="circle223"/>
	<circle cx="660.029" cy="872.221" r="4" fill="#0" id="circle224"/>
	<circle cx="672.406" cy="111.865" r="4" fill="#0" id="circle225"/>
	<circle cx="674.175" cy="859.843" r="4" fill="#0" id="circle226"/>
	<circle cx="686.553" cy="845.697" r="4" fill="#0" id="circle227"/>
	<circle cx="690.089" cy="118.938" r="4" fill="#0" id="circle228"/>
	<circle cx="695.394" cy="828.014" r="4" fill="#0" id="circle229"/>
	<circle cx="702.467" cy="133.084" r="4" fill="#0" id="circle230"/>
	<circle cx="709.54" cy="815.636" r="4" fill="#0" id="circle231"/>
	<circle cx="718.381" cy="797.954" r="4" fill="#0" id="circle232"/>
	<circle cx="720.15" cy="136.62" r="4" fill="#0" id="circle233"/>
	<circle cx="730.759" cy="774.966" r="4" fill="#0" id="circle234"/>
	<circle cx="734.296" cy="147.23" r="4" fill="#0" id="circle235"/>
	<circle cx="744.906" cy="762.588" r="4" fill="#0" id="circle236"/>
	<circle cx="751.979" cy="154.303" r="4" fill="#0" id="circle237"/>
	<circle cx="757.283" cy="739.601" r="4" fill="#0" id="circle238"/>
	<circle cx="767.893" cy="163.144" r="4" fill="#0" id="circle239"/>
	<circle cx="774.966" cy="730.759" r="4" fill="#0" id="circle240"/>
	<circle cx="783.807" cy="171.986" r="4" fill="#0" id="circle241"/>
	<circle cx="792.649" cy="721.918" r="4" fill="#0" id="circle242"/>
	<circle cx="801.49" cy="177.291" r="4" fill="#0" id="circle243"/>
	<circle cx="806.795" cy="709.54" r="4" fill="#0" id="circle244"/>
	<circle cx="819.173" cy="180.827" r="4" fill="#0" id="circle245"/>
	<circle cx="824.478" cy="700.699" r="4" fill="#0" id="circle246"/>
	<circle cx="835.087" cy="189.668" r="4" fill="#0" id="circle247"/>
	<circle cx="842.16" cy="691.857" r="4" fill="#0" id="circle248"/>
	<circle cx="852.77" cy="189.668" r="4" fill="#0" id="circle249"/>
	<circle cx="859.843" cy="683.016" r="4" fill="#0" id="circle250"/>
	<circle cx="868.684" cy="198.51" r="4" fill="#0" id="circle251"/>
	<circle cx="877.526" cy="674.175" r="4" fill="#0" id="circle252"/>
	<circle cx="886.367" cy="198.51" r="4" fill="#0" id="circle253"/>
	<circle cx="895.209" cy="665.333" r="4" fill="#0" id="circle254"/>
	<circle cx="904.05" cy="198.51" r="4" fill="#0" id="circle255"/>
	<circle cx="912.891" cy="656.492" r="4" fill="#0" id="circle256"/>
	<circle cx="921.733" cy="198.51" r="4" fill="#0" id="circle257"/>
	<circle cx="925.269" cy="642.346" r="4" fill="#0" id="circle258"/>
	<circle cx="939.415" cy="198.51" r="4" fill="#0" id="circle259"/>
	<circle cx="941.184" cy="633.504" r="4" fill="#0" id="circle260"/>
	<circle cx="955.33" cy="622.895" r="4" fill="#0" id="circle261"/>
	<circle cx="957.098" cy="198.51" r="4" fill="#0" id="circle262"/>
	<circle cx="964.171" cy="605.212" r="4" fill="#0" id="circle263"/>
	<circle cx="973.012" cy="189.668" r="4" fill="#0" id="circle264"/>
	<circle cx="978.317" cy="589.298" r="4" fill="#0" id="circle265"/>
	<circle cx="987.159" cy="571.615" r="4" fill="#0" id="circle266"/>
	<circle cx="990.695" cy="189.668" r="4" fill="#0" id="circle267"/>
	<circle cx="996" cy="207.351" r="4" fill="#0" id="circle268"/>
	<circle cx="996" cy="225.034" r="4" fill="#0" id="circle269"/>
	<circle cx="996" cy="242.717" r="4" fill="#0" id="circle270"/>
	<circle cx="996" cy="260.399" r="4" fill="#0" id="circle271"/>
	<circle cx="996" cy="278.082" r="4" fill="#0" id="circle272"/>
	<circle cx="996" cy="295.765" r="4" fill="#0" id="circle273"/>
	<circle cx="996" cy="313.447" r="4" fill="#0" id="circle274"/>
	<circle cx="996" cy="331.13" r="4" fill="#0" id="circle275"/>
	<circle cx="996" cy="348.813" r="4" fill="#0" id="circle276"/>
	<circle cx="996" cy="366.496" r="4" fill="#0" id="circle277"/>
	<circle cx="996" cy="384.178" r="4" fill="#0" id="circle278"/>
	<circle cx="996" cy="401.861" r="4" fill="#0" id="circle279"/>
	<circle cx="996" cy="419.544" r="4" fill="#0" id="circle280"/>
	<circle cx="996" cy="437.226" r="4" fill="#0" id="circle281"/>
	<circle cx="996" cy="454.909" r="4" fill="#0" id="circle282"/>
	<circle cx="996" cy="472.592" r="4" fill="#0" id="circle283"/>
	<circle cx="996" cy="490.275" r="4" fill="#0" id="circle284"/>
	<circle cx="996" cy="507.957" r="4" fill="#0" id="circle285"/>
	<circle cx="996" cy="525.64" r="4" fill="#0" id="circle286"/>
	<circle cx="996" cy="543.323" r="4" fill="#0" id="circle287"/>
	</g>
</svg>