<?xml version="1.0" encoding="UTF-8" standalone="no"?>
<!-- Created with CurveBenchmark -->
<svg
	xmlns:dc="http://purl.org/dc/elements/1.1/"
	xmlns:cc="http://creativecommons.org/ns#"
	xmlns:rdf="http://www.w3.org/1999/02/22-rdf-syntax-ns#"
	xmlns:svg="http://www.w3.org/2000/svg"
	xmlns="http://www.w3.org/2000/svg"
	xmlns:sodipodi="http://sodipodi.sourceforge.net/DTD/sodipodi-0.dtd"
	xmlns:inkscape="http://www.inkscape.org/namespaces/inkscape"
	width="1000"
	height="1000"
	id="svg2"
	version="1.1"
	sodipodi:docname="manifold/fitconnect-face05.png.txt">
<defs
	id="defs4" />
<metadata
	id="metadata7">
	<rdf:RDF>
		<cc:Work
			rdf:about="">
			<dc:format>image/svg+xml</dc:format>
			<dc:type
				rdf:resource="http://purl.org/dc/dcmitype/StillImage" />
			<dc:title></dc:title>
		</cc:Work>
	</rdf:RDF>
</metadata>
<g
	inkscape:label="Layer 1"
	inkscape:groupmode="layer"
	id="layer1">
	<path style="fill:none;stroke:red;stroke-width:1px;stroke-linecap:butt;stroke-linejoin:miter;stroke-opacity:1" d="M 4,483.63 4,500 z" id="boundary" inkscape:connector-curvature="0" />
	<path style="fill:none;stroke:red;stroke-width:1px;stroke-linecap:butt;stroke-linejoin:miter;stroke-opacity:1" d="M 4,483.63 12.1848,467.261 z" id="boundary" inkscape:connector-curvature="0" />
	<path style="fill:none;stroke:red;stroke-width:1px;stroke-linecap:butt;stroke-linejoin:miter;stroke-opacity:1" d="M 4,500 12.1848,514.733 z" id="boundary" inkscape:connector-curvature="0" />
	<path style="fill:none;stroke:red;stroke-width:1px;stroke-linecap:butt;stroke-linejoin:miter;stroke-opacity:1" d="M 12.1848,467.261 25.2805,454.165 z" id="boundary" inkscape:connector-curvature="0" />
	<path style="fill:none;stroke:red;stroke-width:1px;stroke-linecap:butt;stroke-linejoin:miter;stroke-opacity:1" d="M 12.1848,514.733 20.3696,529.465 z" id="boundary" inkscape:connector-curvature="0" />
	<path style="fill:none;stroke:red;stroke-width:1px;stroke-linecap:butt;stroke-linejoin:miter;stroke-opacity:1" d="M 20.3696,529.465 30.1914,542.561 z" id="boundary" inkscape:connector-curvature="0" />
	<path style="fill:none;stroke:red;stroke-width:1px;stroke-linecap:butt;stroke-linejoin:miter;stroke-opacity:1" d="M 25.2805,454.165 40.0132,445.98 z" id="boundary" inkscape:connector-curvature="0" />
	<path style="fill:none;stroke:red;stroke-width:1px;stroke-linecap:butt;stroke-linejoin:miter;stroke-opacity:1" d="M 30.1914,542.561 43.2871,554.02 z" id="boundary" inkscape:connector-curvature="0" />
	<path style="fill:none;stroke:red;stroke-width:1px;stroke-linecap:butt;stroke-linejoin:miter;stroke-opacity:1" d="M 40.0132,445.98 56.3828,445.98 z" id="boundary" inkscape:connector-curvature="0" />
	<path style="fill:none;stroke:red;stroke-width:1px;stroke-linecap:butt;stroke-linejoin:miter;stroke-opacity:1" d="M 43.2871,554.02 53.1089,567.116 z" id="boundary" inkscape:connector-curvature="0" />
	<path style="fill:none;stroke:red;stroke-width:1px;stroke-linecap:butt;stroke-linejoin:miter;stroke-opacity:1" d="M 53.1089,287.195 53.1089,303.564 z" id="boundary" inkscape:connector-curvature="0" />
	<path style="fill:none;stroke:red;stroke-width:1px;stroke-linecap:butt;stroke-linejoin:miter;stroke-opacity:1" d="M 53.1089,287.195 61.2937,270.825 z" id="boundary" inkscape:connector-curvature="0" />
	<path style="fill:none;stroke:red;stroke-width:1px;stroke-linecap:butt;stroke-linejoin:miter;stroke-opacity:1" d="M 53.1089,303.564 53.1089,319.934 z" id="boundary" inkscape:connector-curvature="0" />
	<path style="fill:none;stroke:red;stroke-width:1px;stroke-linecap:butt;stroke-linejoin:miter;stroke-opacity:1" d="M 53.1089,319.934 53.1089,336.304 z" id="boundary" inkscape:connector-curvature="0" />
	<path style="fill:none;stroke:red;stroke-width:1px;stroke-linecap:butt;stroke-linejoin:miter;stroke-opacity:1" d="M 53.1089,336.304 53.1089,352.673 z" id="boundary" inkscape:connector-curvature="0" />
	<path style="fill:none;stroke:red;stroke-width:1px;stroke-linecap:butt;stroke-linejoin:miter;stroke-opacity:1" d="M 53.1089,352.673 53.1089,369.043 z" id="boundary" inkscape:connector-curvature="0" />
	<path style="fill:none;stroke:red;stroke-width:1px;stroke-linecap:butt;stroke-linejoin:miter;stroke-opacity:1" d="M 53.1089,369.043 53.1089,385.413 z" id="boundary" inkscape:connector-curvature="0" />
	<path style="fill:none;stroke:red;stroke-width:1px;stroke-linecap:butt;stroke-linejoin:miter;stroke-opacity:1" d="M 53.1089,385.413 53.1089,401.782 z" id="boundary" inkscape:connector-curvature="0" />
	<path style="fill:none;stroke:red;stroke-width:1px;stroke-linecap:butt;stroke-linejoin:miter;stroke-opacity:1" d="M 53.1089,401.782 61.2937,416.515 z" id="boundary" inkscape:connector-curvature="0" />
	<path style="fill:none;stroke:red;stroke-width:1px;stroke-linecap:butt;stroke-linejoin:miter;stroke-opacity:1" d="M 53.1089,567.116 61.2937,581.848 z" id="boundary" inkscape:connector-curvature="0" />
	<path style="fill:none;stroke:red;stroke-width:1px;stroke-linecap:butt;stroke-linejoin:miter;stroke-opacity:1" d="M 56.3828,445.98 61.2937,416.515 z" id="boundary" inkscape:connector-curvature="0" />
	<path style="fill:none;stroke:red;stroke-width:1px;stroke-linecap:butt;stroke-linejoin:miter;stroke-opacity:1" d="M 61.2937,270.825 69.4785,246.271 z" id="boundary" inkscape:connector-curvature="0" />
	<path style="fill:none;stroke:red;stroke-width:1px;stroke-linecap:butt;stroke-linejoin:miter;stroke-opacity:1" d="M 61.2937,581.848 61.2937,598.218 z" id="boundary" inkscape:connector-curvature="0" />
	<path style="fill:none;stroke:red;stroke-width:1px;stroke-linecap:butt;stroke-linejoin:miter;stroke-opacity:1" d="M 61.2937,598.218 69.4785,612.95 z" id="boundary" inkscape:connector-curvature="0" />
	<path style="fill:none;stroke:red;stroke-width:1px;stroke-linecap:butt;stroke-linejoin:miter;stroke-opacity:1" d="M 69.4785,229.901 69.4785,246.271 z" id="boundary" inkscape:connector-curvature="0" />
	<path style="fill:none;stroke:red;stroke-width:1px;stroke-linecap:butt;stroke-linejoin:miter;stroke-opacity:1" d="M 69.4785,229.901 77.6634,205.347 z" id="boundary" inkscape:connector-curvature="0" />
	<path style="fill:none;stroke:red;stroke-width:1px;stroke-linecap:butt;stroke-linejoin:miter;stroke-opacity:1" d="M 69.4785,612.95 77.6634,627.683 z" id="boundary" inkscape:connector-curvature="0" />
	<path style="fill:none;stroke:red;stroke-width:1px;stroke-linecap:butt;stroke-linejoin:miter;stroke-opacity:1" d="M 77.6634,188.977 77.6634,205.347 z" id="boundary" inkscape:connector-curvature="0" />
	<path style="fill:none;stroke:red;stroke-width:1px;stroke-linecap:butt;stroke-linejoin:miter;stroke-opacity:1" d="M 77.6634,188.977 85.8482,164.422 z" id="boundary" inkscape:connector-curvature="0" />
	<path style="fill:none;stroke:red;stroke-width:1px;stroke-linecap:butt;stroke-linejoin:miter;stroke-opacity:1" d="M 77.6634,627.683 87.4851,640.779 z" id="boundary" inkscape:connector-curvature="0" />
	<path style="fill:none;stroke:red;stroke-width:1px;stroke-linecap:butt;stroke-linejoin:miter;stroke-opacity:1" d="M 85.8482,164.422 94.033,148.053 z" id="boundary" inkscape:connector-curvature="0" />
	<path style="fill:none;stroke:red;stroke-width:1px;stroke-linecap:butt;stroke-linejoin:miter;stroke-opacity:1" d="M 87.4851,640.779 100.581,652.238 z" id="boundary" inkscape:connector-curvature="0" />
	<path style="fill:none;stroke:red;stroke-width:1px;stroke-linecap:butt;stroke-linejoin:miter;stroke-opacity:1" d="M 94.033,148.053 102.218,131.683 z" id="boundary" inkscape:connector-curvature="0" />
	<path style="fill:none;stroke:red;stroke-width:1px;stroke-linecap:butt;stroke-linejoin:miter;stroke-opacity:1" d="M 100.581,652.238 110.403,665.333 z" id="boundary" inkscape:connector-curvature="0" />
	<path style="fill:none;stroke:red;stroke-width:1px;stroke-linecap:butt;stroke-linejoin:miter;stroke-opacity:1" d="M 102.218,131.683 115.314,118.587 z" id="boundary" inkscape:connector-curvature="0" />
	<path style="fill:none;stroke:red;stroke-width:1px;stroke-linecap:butt;stroke-linejoin:miter;stroke-opacity:1" d="M 110.403,665.333 110.403,681.703 z" id="boundary" inkscape:connector-curvature="0" />
	<path style="fill:none;stroke:red;stroke-width:1px;stroke-linecap:butt;stroke-linejoin:miter;stroke-opacity:1" d="M 110.403,681.703 110.403,698.073 z" id="boundary" inkscape:connector-curvature="0" />
	<path style="fill:none;stroke:red;stroke-width:1px;stroke-linecap:butt;stroke-linejoin:miter;stroke-opacity:1" d="M 110.403,698.073 118.587,712.805 z" id="boundary" inkscape:connector-curvature="0" />
	<path style="fill:none;stroke:red;stroke-width:1px;stroke-linecap:butt;stroke-linejoin:miter;stroke-opacity:1" d="M 115.314,118.587 128.409,105.492 z" id="boundary" inkscape:connector-curvature="0" />
	<path style="fill:none;stroke:red;stroke-width:1px;stroke-linecap:butt;stroke-linejoin:miter;stroke-opacity:1" d="M 118.587,712.805 126.772,727.538 z" id="boundary" inkscape:connector-curvature="0" />
	<path style="fill:none;stroke:red;stroke-width:1px;stroke-linecap:butt;stroke-linejoin:miter;stroke-opacity:1" d="M 126.772,727.538 134.957,742.271 z" id="boundary" inkscape:connector-curvature="0" />
	<path style="fill:none;stroke:red;stroke-width:1px;stroke-linecap:butt;stroke-linejoin:miter;stroke-opacity:1" d="M 128.409,105.492 141.505,94.033 z" id="boundary" inkscape:connector-curvature="0" />
	<path style="fill:none;stroke:red;stroke-width:1px;stroke-linecap:butt;stroke-linejoin:miter;stroke-opacity:1" d="M 134.957,742.271 139.868,758.64 z" id="boundary" inkscape:connector-curvature="0" />
	<path style="fill:none;stroke:red;stroke-width:1px;stroke-linecap:butt;stroke-linejoin:miter;stroke-opacity:1" d="M 139.868,758.64 152.964,770.099 z" id="boundary" inkscape:connector-curvature="0" />
	<path style="fill:none;stroke:red;stroke-width:1px;stroke-linecap:butt;stroke-linejoin:miter;stroke-opacity:1" d="M 141.505,94.033 148.053,77.6634 z" id="boundary" inkscape:connector-curvature="0" />
	<path style="fill:none;stroke:red;stroke-width:1px;stroke-linecap:butt;stroke-linejoin:miter;stroke-opacity:1" d="M 148.053,77.6634 164.422,69.4785 z" id="boundary" inkscape:connector-curvature="0" />
	<path style="fill:none;stroke:red;stroke-width:1px;stroke-linecap:butt;stroke-linejoin:miter;stroke-opacity:1" d="M 152.964,770.099 164.422,783.195 z" id="boundary" inkscape:connector-curvature="0" />
	<path style="fill:none;stroke:red;stroke-width:1px;stroke-linecap:butt;stroke-linejoin:miter;stroke-opacity:1" d="M 164.422,69.4785 177.518,56.3828 z" id="boundary" inkscape:connector-curvature="0" />
	<path style="fill:none;stroke:red;stroke-width:1px;stroke-linecap:butt;stroke-linejoin:miter;stroke-opacity:1" d="M 164.422,783.195 167.696,799.564 z" id="boundary" inkscape:connector-curvature="0" />
	<path style="fill:none;stroke:red;stroke-width:1px;stroke-linecap:butt;stroke-linejoin:miter;stroke-opacity:1" d="M 167.696,799.564 167.696,815.934 z" id="boundary" inkscape:connector-curvature="0" />
	<path style="fill:none;stroke:red;stroke-width:1px;stroke-linecap:butt;stroke-linejoin:miter;stroke-opacity:1" d="M 167.696,815.934 172.607,832.304 z" id="boundary" inkscape:connector-curvature="0" />
	<path style="fill:none;stroke:red;stroke-width:1px;stroke-linecap:butt;stroke-linejoin:miter;stroke-opacity:1" d="M 172.607,832.304 180.792,847.036 z" id="boundary" inkscape:connector-curvature="0" />
	<path style="fill:none;stroke:red;stroke-width:1px;stroke-linecap:butt;stroke-linejoin:miter;stroke-opacity:1" d="M 177.518,56.3828 190.614,44.9241 z" id="boundary" inkscape:connector-curvature="0" />
	<path style="fill:none;stroke:red;stroke-width:1px;stroke-linecap:butt;stroke-linejoin:miter;stroke-opacity:1" d="M 180.792,847.036 192.251,860.132 z" id="boundary" inkscape:connector-curvature="0" />
	<path style="fill:none;stroke:red;stroke-width:1px;stroke-linecap:butt;stroke-linejoin:miter;stroke-opacity:1" d="M 190.614,44.9241 202.073,31.8284 z" id="boundary" inkscape:connector-curvature="0" />
	<path style="fill:none;stroke:red;stroke-width:1px;stroke-linecap:butt;stroke-linejoin:miter;stroke-opacity:1" d="M 192.251,860.132 205.347,871.591 z" id="boundary" inkscape:connector-curvature="0" />
	<path style="fill:none;stroke:red;stroke-width:1px;stroke-linecap:butt;stroke-linejoin:miter;stroke-opacity:1" d="M 202.073,31.8284 215.168,20.3696 z" id="boundary" inkscape:connector-curvature="0" />
	<path style="fill:none;stroke:red;stroke-width:1px;stroke-linecap:butt;stroke-linejoin:miter;stroke-opacity:1" d="M 205.347,871.591 220.079,879.776 z" id="boundary" inkscape:connector-curvature="0" />
	<path style="fill:none;stroke:red;stroke-width:1px;stroke-linecap:butt;stroke-linejoin:miter;stroke-opacity:1" d="M 215.168,20.3696 229.901,12.1848 z" id="boundary" inkscape:connector-curvature="0" />
	<path style="fill:none;stroke:red;stroke-width:1px;stroke-linecap:butt;stroke-linejoin:miter;stroke-opacity:1" d="M 220.079,879.776 233.175,889.597 z" id="boundary" inkscape:connector-curvature="0" />
	<path style="fill:none;stroke:red;stroke-width:1px;stroke-linecap:butt;stroke-linejoin:miter;stroke-opacity:1" d="M 229.901,12.1848 246.271,4 z" id="boundary" inkscape:connector-curvature="0" />
	<path style="fill:none;stroke:red;stroke-width:1px;stroke-linecap:butt;stroke-linejoin:miter;stroke-opacity:1" d="M 233.175,889.597 242.997,902.693 z" id="boundary" inkscape:connector-curvature="0" />
	<path style="fill:none;stroke:red;stroke-width:1px;stroke-linecap:butt;stroke-linejoin:miter;stroke-opacity:1" d="M 242.997,902.693 256.092,914.152 z" id="boundary" inkscape:connector-curvature="0" />
	<path style="fill:none;stroke:red;stroke-width:1px;stroke-linecap:butt;stroke-linejoin:miter;stroke-opacity:1" d="M 246.271,4 262.64,4 z" id="boundary" inkscape:connector-curvature="0" />
	<path style="fill:none;stroke:red;stroke-width:1px;stroke-linecap:butt;stroke-linejoin:miter;stroke-opacity:1" d="M 256.092,914.152 267.551,927.248 z" id="boundary" inkscape:connector-curvature="0" />
	<path style="fill:none;stroke:red;stroke-width:1px;stroke-linecap:butt;stroke-linejoin:miter;stroke-opacity:1" d="M 262.64,4 279.01,4 z" id="boundary" inkscape:connector-curvature="0" />
	<path style="fill:none;stroke:red;stroke-width:1px;stroke-linecap:butt;stroke-linejoin:miter;stroke-opacity:1" d="M 267.551,927.248 280.647,938.706 z" id="boundary" inkscape:connector-curvature="0" />
	<path style="fill:none;stroke:red;stroke-width:1px;stroke-linecap:butt;stroke-linejoin:miter;stroke-opacity:1" d="M 279.01,4 295.38,4 z" id="boundary" inkscape:connector-curvature="0" />
	<path style="fill:none;stroke:red;stroke-width:1px;stroke-linecap:butt;stroke-linejoin:miter;stroke-opacity:1" d="M 280.647,938.706 287.195,955.076 z" id="boundary" inkscape:connector-curvature="0" />
	<path style="fill:none;stroke:red;stroke-width:1px;stroke-linecap:butt;stroke-linejoin:miter;stroke-opacity:1" d="M 287.195,955.076 300.29,966.535 z" id="boundary" inkscape:connector-curvature="0" />
	<path style="fill:none;stroke:red;stroke-width:1px;stroke-linecap:butt;stroke-linejoin:miter;stroke-opacity:1" d="M 295.38,4 311.749,4 z" id="boundary" inkscape:connector-curvature="0" />
	<path style="fill:none;stroke:red;stroke-width:1px;stroke-linecap:butt;stroke-linejoin:miter;stroke-opacity:1" d="M 300.29,966.535 306.838,982.904 z" id="boundary" inkscape:connector-curvature="0" />
	<path style="fill:none;stroke:red;stroke-width:1px;stroke-linecap:butt;stroke-linejoin:miter;stroke-opacity:1" d="M 306.838,982.904 323.208,987.815 z" id="boundary" inkscape:connector-curvature="0" />
	<path style="fill:none;stroke:red;stroke-width:1px;stroke-linecap:butt;stroke-linejoin:miter;stroke-opacity:1" d="M 311.749,4 328.119,4 z" id="boundary" inkscape:connector-curvature="0" />
	<path style="fill:none;stroke:red;stroke-width:1px;stroke-linecap:butt;stroke-linejoin:miter;stroke-opacity:1" d="M 323.208,987.815 337.941,996 z" id="boundary" inkscape:connector-curvature="0" />
	<path style="fill:none;stroke:red;stroke-width:1px;stroke-linecap:butt;stroke-linejoin:miter;stroke-opacity:1" d="M 328.119,4 342.851,12.1848 z" id="boundary" inkscape:connector-curvature="0" />
	<path style="fill:none;stroke:red;stroke-width:1px;stroke-linecap:butt;stroke-linejoin:miter;stroke-opacity:1" d="M 337.941,996 354.31,996 z" id="boundary" inkscape:connector-curvature="0" />
	<path style="fill:none;stroke:red;stroke-width:1px;stroke-linecap:butt;stroke-linejoin:miter;stroke-opacity:1" d="M 342.851,12.1848 357.584,20.3696 z" id="boundary" inkscape:connector-curvature="0" />
	<path style="fill:none;stroke:red;stroke-width:1px;stroke-linecap:butt;stroke-linejoin:miter;stroke-opacity:1" d="M 354.31,996 369.043,987.815 z" id="boundary" inkscape:connector-curvature="0" />
	<path style="fill:none;stroke:red;stroke-width:1px;stroke-linecap:butt;stroke-linejoin:miter;stroke-opacity:1" d="M 357.584,20.3696 373.954,20.3696 z" id="boundary" inkscape:connector-curvature="0" />
	<path style="fill:none;stroke:red;stroke-width:1px;stroke-linecap:butt;stroke-linejoin:miter;stroke-opacity:1" d="M 369.043,987.815 383.776,979.63 z" id="boundary" inkscape:connector-curvature="0" />
	<path style="fill:none;stroke:red;stroke-width:1px;stroke-linecap:butt;stroke-linejoin:miter;stroke-opacity:1" d="M 373.954,20.3696 390.323,20.3696 z" id="boundary" inkscape:connector-curvature="0" />
	<path style="fill:none;stroke:red;stroke-width:1px;stroke-linecap:butt;stroke-linejoin:miter;stroke-opacity:1" d="M 383.776,979.63 396.871,966.535 z" id="boundary" inkscape:connector-curvature="0" />
	<path style="fill:none;stroke:red;stroke-width:1px;stroke-linecap:butt;stroke-linejoin:miter;stroke-opacity:1" d="M 390.323,20.3696 403.419,30.1914 z" id="boundary" inkscape:connector-curvature="0" />
	<path style="fill:none;stroke:red;stroke-width:1px;stroke-linecap:butt;stroke-linejoin:miter;stroke-opacity:1" d="M 396.871,966.535 409.967,955.076 z" id="boundary" inkscape:connector-curvature="0" />
	<path style="fill:none;stroke:red;stroke-width:1px;stroke-linecap:butt;stroke-linejoin:miter;stroke-opacity:1" d="M 403.419,30.1914 414.878,43.2871 z" id="boundary" inkscape:connector-curvature="0" />
	<path style="fill:none;stroke:red;stroke-width:1px;stroke-linecap:butt;stroke-linejoin:miter;stroke-opacity:1" d="M 409.967,955.076 424.7,946.891 z" id="boundary" inkscape:connector-curvature="0" />
	<path style="fill:none;stroke:red;stroke-width:1px;stroke-linecap:butt;stroke-linejoin:miter;stroke-opacity:1" d="M 414.878,43.2871 427.974,53.1089 z" id="boundary" inkscape:connector-curvature="0" />
	<path style="fill:none;stroke:red;stroke-width:1px;stroke-linecap:butt;stroke-linejoin:miter;stroke-opacity:1" d="M 424.7,946.891 437.795,933.795 z" id="boundary" inkscape:connector-curvature="0" />
	<path style="fill:none;stroke:red;stroke-width:1px;stroke-linecap:butt;stroke-linejoin:miter;stroke-opacity:1" d="M 427.974,53.1089 442.706,44.9241 z" id="boundary" inkscape:connector-curvature="0" />
	<path style="fill:none;stroke:red;stroke-width:1px;stroke-linecap:butt;stroke-linejoin:miter;stroke-opacity:1" d="M 437.795,933.795 454.165,925.611 z" id="boundary" inkscape:connector-curvature="0" />
	<path style="fill:none;stroke:red;stroke-width:1px;stroke-linecap:butt;stroke-linejoin:miter;stroke-opacity:1" d="M 442.706,44.9241 459.076,36.7393 z" id="boundary" inkscape:connector-curvature="0" />
	<path style="fill:none;stroke:red;stroke-width:1px;stroke-linecap:butt;stroke-linejoin:miter;stroke-opacity:1" d="M 454.165,925.611 467.261,912.515 z" id="boundary" inkscape:connector-curvature="0" />
	<path style="fill:none;stroke:red;stroke-width:1px;stroke-linecap:butt;stroke-linejoin:miter;stroke-opacity:1" d="M 459.076,36.7393 475.446,36.7393 z" id="boundary" inkscape:connector-curvature="0" />
	<path style="fill:none;stroke:red;stroke-width:1px;stroke-linecap:butt;stroke-linejoin:miter;stroke-opacity:1" d="M 467.261,912.515 480.356,897.782 z" id="boundary" inkscape:connector-curvature="0" />
	<path style="fill:none;stroke:red;stroke-width:1px;stroke-linecap:butt;stroke-linejoin:miter;stroke-opacity:1" d="M 475.446,36.7393 491.815,36.7393 z" id="boundary" inkscape:connector-curvature="0" />
	<path style="fill:none;stroke:red;stroke-width:1px;stroke-linecap:butt;stroke-linejoin:miter;stroke-opacity:1" d="M 480.356,897.782 493.452,886.323 z" id="boundary" inkscape:connector-curvature="0" />
	<path style="fill:none;stroke:red;stroke-width:1px;stroke-linecap:butt;stroke-linejoin:miter;stroke-opacity:1" d="M 491.815,36.7393 508.185,36.7393 z" id="boundary" inkscape:connector-curvature="0" />
	<path style="fill:none;stroke:red;stroke-width:1px;stroke-linecap:butt;stroke-linejoin:miter;stroke-opacity:1" d="M 493.452,886.323 504.911,873.228 z" id="boundary" inkscape:connector-curvature="0" />
	<path style="fill:none;stroke:red;stroke-width:1px;stroke-linecap:butt;stroke-linejoin:miter;stroke-opacity:1" d="M 504.911,873.228 518.007,861.769 z" id="boundary" inkscape:connector-curvature="0" />
	<path style="fill:none;stroke:red;stroke-width:1px;stroke-linecap:butt;stroke-linejoin:miter;stroke-opacity:1" d="M 508.185,36.7393 522.917,44.9241 z" id="boundary" inkscape:connector-curvature="0" />
	<path style="fill:none;stroke:red;stroke-width:1px;stroke-linecap:butt;stroke-linejoin:miter;stroke-opacity:1" d="M 518.007,861.769 529.465,848.673 z" id="boundary" inkscape:connector-curvature="0" />
	<path style="fill:none;stroke:red;stroke-width:1px;stroke-linecap:butt;stroke-linejoin:miter;stroke-opacity:1" d="M 522.917,44.9241 537.65,53.1089 z" id="boundary" inkscape:connector-curvature="0" />
	<path style="fill:none;stroke:red;stroke-width:1px;stroke-linecap:butt;stroke-linejoin:miter;stroke-opacity:1" d="M 529.465,832.304 529.465,848.673 z" id="boundary" inkscape:connector-curvature="0" />
	<path style="fill:none;stroke:red;stroke-width:1px;stroke-linecap:butt;stroke-linejoin:miter;stroke-opacity:1" d="M 529.465,832.304 537.65,815.934 z" id="boundary" inkscape:connector-curvature="0" />
	<path style="fill:none;stroke:red;stroke-width:1px;stroke-linecap:butt;stroke-linejoin:miter;stroke-opacity:1" d="M 537.65,53.1089 550.746,62.9307 z" id="boundary" inkscape:connector-curvature="0" />
	<path style="fill:none;stroke:red;stroke-width:1px;stroke-linecap:butt;stroke-linejoin:miter;stroke-opacity:1" d="M 537.65,750.455 537.65,766.825 z" id="boundary" inkscape:connector-curvature="0" />
	<path style="fill:none;stroke:red;stroke-width:1px;stroke-linecap:butt;stroke-linejoin:miter;stroke-opacity:1" d="M 537.65,750.455 545.835,734.086 z" id="boundary" inkscape:connector-curvature="0" />
	<path style="fill:none;stroke:red;stroke-width:1px;stroke-linecap:butt;stroke-linejoin:miter;stroke-opacity:1" d="M 537.65,766.825 537.65,783.195 z" id="boundary" inkscape:connector-curvature="0" />
	<path style="fill:none;stroke:red;stroke-width:1px;stroke-linecap:butt;stroke-linejoin:miter;stroke-opacity:1" d="M 537.65,783.195 537.65,799.564 z" id="boundary" inkscape:connector-curvature="0" />
	<path style="fill:none;stroke:red;stroke-width:1px;stroke-linecap:butt;stroke-linejoin:miter;stroke-opacity:1" d="M 537.65,799.564 537.65,815.934 z" id="boundary" inkscape:connector-curvature="0" />
	<path style="fill:none;stroke:red;stroke-width:1px;stroke-linecap:butt;stroke-linejoin:miter;stroke-opacity:1" d="M 545.835,734.086 554.02,717.716 z" id="boundary" inkscape:connector-curvature="0" />
	<path style="fill:none;stroke:red;stroke-width:1px;stroke-linecap:butt;stroke-linejoin:miter;stroke-opacity:1" d="M 550.746,62.9307 562.205,76.0264 z" id="boundary" inkscape:connector-curvature="0" />
	<path style="fill:none;stroke:red;stroke-width:1px;stroke-linecap:butt;stroke-linejoin:miter;stroke-opacity:1" d="M 554.02,717.716 562.205,693.162 z" id="boundary" inkscape:connector-curvature="0" />
	<path style="fill:none;stroke:red;stroke-width:1px;stroke-linecap:butt;stroke-linejoin:miter;stroke-opacity:1" d="M 562.205,76.0264 575.3,87.4851 z" id="boundary" inkscape:connector-curvature="0" />
	<path style="fill:none;stroke:red;stroke-width:1px;stroke-linecap:butt;stroke-linejoin:miter;stroke-opacity:1" d="M 562.205,693.162 570.389,668.607 z" id="boundary" inkscape:connector-curvature="0" />
	<path style="fill:none;stroke:red;stroke-width:1px;stroke-linecap:butt;stroke-linejoin:miter;stroke-opacity:1" d="M 570.389,635.868 570.389,652.238 z" id="boundary" inkscape:connector-curvature="0" />
	<path style="fill:none;stroke:red;stroke-width:1px;stroke-linecap:butt;stroke-linejoin:miter;stroke-opacity:1" d="M 570.389,635.868 583.485,624.409 z" id="boundary" inkscape:connector-curvature="0" />
	<path style="fill:none;stroke:red;stroke-width:1px;stroke-linecap:butt;stroke-linejoin:miter;stroke-opacity:1" d="M 570.389,652.238 570.389,668.607 z" id="boundary" inkscape:connector-curvature="0" />
	<path style="fill:none;stroke:red;stroke-width:1px;stroke-linecap:butt;stroke-linejoin:miter;stroke-opacity:1" d="M 575.3,87.4851 581.848,103.855 z" id="boundary" inkscape:connector-curvature="0" />
	<path style="fill:none;stroke:red;stroke-width:1px;stroke-linecap:butt;stroke-linejoin:miter;stroke-opacity:1" d="M 581.848,103.855 586.759,120.224 z" id="boundary" inkscape:connector-curvature="0" />
	<path style="fill:none;stroke:red;stroke-width:1px;stroke-linecap:butt;stroke-linejoin:miter;stroke-opacity:1" d="M 583.485,624.409 599.855,616.224 z" id="boundary" inkscape:connector-curvature="0" />
	<path style="fill:none;stroke:red;stroke-width:1px;stroke-linecap:butt;stroke-linejoin:miter;stroke-opacity:1" d="M 586.759,120.224 594.944,134.957 z" id="boundary" inkscape:connector-curvature="0" />
	<path style="fill:none;stroke:red;stroke-width:1px;stroke-linecap:butt;stroke-linejoin:miter;stroke-opacity:1" d="M 594.944,134.957 594.944,151.327 z" id="boundary" inkscape:connector-curvature="0" />
	<path style="fill:none;stroke:red;stroke-width:1px;stroke-linecap:butt;stroke-linejoin:miter;stroke-opacity:1" d="M 594.944,151.327 594.944,167.696 z" id="boundary" inkscape:connector-curvature="0" />
	<path style="fill:none;stroke:red;stroke-width:1px;stroke-linecap:butt;stroke-linejoin:miter;stroke-opacity:1" d="M 594.944,167.696 603.129,182.429 z" id="boundary" inkscape:connector-curvature="0" />
	<path style="fill:none;stroke:red;stroke-width:1px;stroke-linecap:butt;stroke-linejoin:miter;stroke-opacity:1" d="M 594.944,259.366 594.944,275.736 z" id="boundary" inkscape:connector-curvature="0" />
	<path style="fill:none;stroke:red;stroke-width:1px;stroke-linecap:butt;stroke-linejoin:miter;stroke-opacity:1" d="M 594.944,259.366 603.129,231.538 z" id="boundary" inkscape:connector-curvature="0" />
	<path style="fill:none;stroke:red;stroke-width:1px;stroke-linecap:butt;stroke-linejoin:miter;stroke-opacity:1" d="M 594.944,275.736 594.944,292.106 z" id="boundary" inkscape:connector-curvature="0" />
	<path style="fill:none;stroke:red;stroke-width:1px;stroke-linecap:butt;stroke-linejoin:miter;stroke-opacity:1" d="M 594.944,292.106 598.218,308.475 z" id="boundary" inkscape:connector-curvature="0" />
	<path style="fill:none;stroke:red;stroke-width:1px;stroke-linecap:butt;stroke-linejoin:miter;stroke-opacity:1" d="M 598.218,308.475 603.129,324.845 z" id="boundary" inkscape:connector-curvature="0" />
	<path style="fill:none;stroke:red;stroke-width:1px;stroke-linecap:butt;stroke-linejoin:miter;stroke-opacity:1" d="M 599.855,616.224 608.04,599.855 z" id="boundary" inkscape:connector-curvature="0" />
	<path style="fill:none;stroke:red;stroke-width:1px;stroke-linecap:butt;stroke-linejoin:miter;stroke-opacity:1" d="M 603.129,182.429 603.129,198.799 z" id="boundary" inkscape:connector-curvature="0" />
	<path style="fill:none;stroke:red;stroke-width:1px;stroke-linecap:butt;stroke-linejoin:miter;stroke-opacity:1" d="M 603.129,198.799 603.129,215.168 z" id="boundary" inkscape:connector-curvature="0" />
	<path style="fill:none;stroke:red;stroke-width:1px;stroke-linecap:butt;stroke-linejoin:miter;stroke-opacity:1" d="M 603.129,215.168 603.129,231.538 z" id="boundary" inkscape:connector-curvature="0" />
	<path style="fill:none;stroke:red;stroke-width:1px;stroke-linecap:butt;stroke-linejoin:miter;stroke-opacity:1" d="M 603.129,324.845 603.129,341.215 z" id="boundary" inkscape:connector-curvature="0" />
	<path style="fill:none;stroke:red;stroke-width:1px;stroke-linecap:butt;stroke-linejoin:miter;stroke-opacity:1" d="M 603.129,341.215 603.129,357.584 z" id="boundary" inkscape:connector-curvature="0" />
	<path style="fill:none;stroke:red;stroke-width:1px;stroke-linecap:butt;stroke-linejoin:miter;stroke-opacity:1" d="M 603.129,357.584 603.129,373.954 z" id="boundary" inkscape:connector-curvature="0" />
	<path style="fill:none;stroke:red;stroke-width:1px;stroke-linecap:butt;stroke-linejoin:miter;stroke-opacity:1" d="M 603.129,373.954 606.403,390.323 z" id="boundary" inkscape:connector-curvature="0" />
	<path style="fill:none;stroke:red;stroke-width:1px;stroke-linecap:butt;stroke-linejoin:miter;stroke-opacity:1" d="M 606.403,390.323 614.587,405.056 z" id="boundary" inkscape:connector-curvature="0" />
	<path style="fill:none;stroke:red;stroke-width:1px;stroke-linecap:butt;stroke-linejoin:miter;stroke-opacity:1" d="M 608.04,599.855 616.224,583.485 z" id="boundary" inkscape:connector-curvature="0" />
	<path style="fill:none;stroke:red;stroke-width:1px;stroke-linecap:butt;stroke-linejoin:miter;stroke-opacity:1" d="M 614.587,405.056 629.32,413.241 z" id="boundary" inkscape:connector-curvature="0" />
	<path style="fill:none;stroke:red;stroke-width:1px;stroke-linecap:butt;stroke-linejoin:miter;stroke-opacity:1" d="M 616.224,583.485 619.498,562.205 z" id="boundary" inkscape:connector-curvature="0" />
	<path style="fill:none;stroke:red;stroke-width:1px;stroke-linecap:butt;stroke-linejoin:miter;stroke-opacity:1" d="M 619.498,545.835 619.498,562.205 z" id="boundary" inkscape:connector-curvature="0" />
	<path style="fill:none;stroke:red;stroke-width:1px;stroke-linecap:butt;stroke-linejoin:miter;stroke-opacity:1" d="M 619.498,545.835 627.683,529.465 z" id="boundary" inkscape:connector-curvature="0" />
	<path style="fill:none;stroke:red;stroke-width:1px;stroke-linecap:butt;stroke-linejoin:miter;stroke-opacity:1" d="M 627.683,529.465 635.868,504.911 z" id="boundary" inkscape:connector-curvature="0" />
	<path style="fill:none;stroke:red;stroke-width:1px;stroke-linecap:butt;stroke-linejoin:miter;stroke-opacity:1" d="M 629.32,413.241 642.416,424.7 z" id="boundary" inkscape:connector-curvature="0" />
	<path style="fill:none;stroke:red;stroke-width:1px;stroke-linecap:butt;stroke-linejoin:miter;stroke-opacity:1" d="M 635.868,504.911 644.053,488.541 z" id="boundary" inkscape:connector-curvature="0" />
	<path style="fill:none;stroke:red;stroke-width:1px;stroke-linecap:butt;stroke-linejoin:miter;stroke-opacity:1" d="M 642.416,424.7 652.238,437.795 z" id="boundary" inkscape:connector-curvature="0" />
	<path style="fill:none;stroke:red;stroke-width:1px;stroke-linecap:butt;stroke-linejoin:miter;stroke-opacity:1" d="M 644.053,488.541 652.238,470.535 z" id="boundary" inkscape:connector-curvature="0" />
	<path style="fill:none;stroke:red;stroke-width:1px;stroke-linecap:butt;stroke-linejoin:miter;stroke-opacity:1" d="M 652.238,437.795 652.238,454.165 z" id="boundary" inkscape:connector-curvature="0" />
	<path style="fill:none;stroke:red;stroke-width:1px;stroke-linecap:butt;stroke-linejoin:miter;stroke-opacity:1" d="M 652.238,454.165 652.238,470.535 z" id="boundary" inkscape:connector-curvature="0" />
	<circle cx="4" cy="483.63" r="4" fill="#0" id="circle0"/>
	<circle cx="4" cy="500" r="4" fill="#0" id="circle1"/>
	<circle cx="12.1848" cy="467.261" r="4" fill="#0" id="circle2"/>
	<circle cx="12.1848" cy="514.733" r="4" fill="#0" id="circle3"/>
	<circle cx="20.3696" cy="529.465" r="4" fill="#0" id="circle4"/>
	<circle cx="25.2805" cy="454.165" r="4" fill="#0" id="circle5"/>
	<circle cx="30.1914" cy="542.561" r="4" fill="#0" id="circle6"/>
	<circle cx="40.0132" cy="445.98" r="4" fill="#0" id="circle7"/>
	<circle cx="43.2871" cy="554.02" r="4" fill="#0" id="circle8"/>
	<circle cx="53.1089" cy="287.195" r="4" fill="#0" id="circle9"/>
	<circle cx="53.1089" cy="303.564" r="4" fill="#0" id="circle10"/>
	<circle cx="53.1089" cy="319.934" r="4" fill="#0" id="circle11"/>
	<circle cx="53.1089" cy="336.304" r="4" fill="#0" id="circle12"/>
	<circle cx="53.1089" cy="352.673" r="4" fill="#0" id="circle13"/>
	<circle cx="53.1089" cy="369.043" r="4" fill="#0" id="circle14"/>
	<circle cx="53.1089" cy="385.413" r="4" fill="#0" id="circle15"/>
	<circle cx="53.1089" cy="401.782" r="4" fill="#0" id="circle16"/>
	<circle cx="53.1089" cy="567.116" r="4" fill="#0" id="circle17"/>
	<circle cx="56.3828" cy="445.98" r="4" fill="#0" id="circle18"/>
	<circle cx="61.2937" cy="270.825" r="4" fill="#0" id="circle19"/>
	<circle cx="61.2937" cy="416.515" r="4" fill="#0" id="circle20"/>
	<circle cx="61.2937" cy="581.848" r="4" fill="#0" id="circle21"/>
	<circle cx="61.2937" cy="598.218" r="4" fill="#0" id="circle22"/>
	<circle cx="69.4785" cy="229.901" r="4" fill="#0" id="circle23"/>
	<circle cx="69.4785" cy="246.271" r="4" fill="#0" id="circle24"/>
	<circle cx="69.4785" cy="612.95" r="4" fill="#0" id="circle25"/>
	<circle cx="77.6634" cy="188.977" r="4" fill="#0" id="circle26"/>
	<circle cx="77.6634" cy="205.347" r="4" fill="#0" id="circle27"/>
	<circle cx="77.6634" cy="627.683" r="4" fill="#0" id="circle28"/>
	<circle cx="85.8482" cy="164.422" r="4" fill="#0" id="circle29"/>
	<circle cx="87.4851" cy="640.779" r="4" fill="#0" id="circle30"/>
	<circle cx="94.033" cy="148.053" r="4" fill="#0" id="circle31"/>
	<circle cx="100.581" cy="652.238" r="4" fill="#0" id="circle32"/>
	<circle cx="102.218" cy="131.683" r="4" fill="#0" id="circle33"/>
	<circle cx="110.403" cy="665.333" r="4" fill="#0" id="circle34"/>
	<circle cx="110.403" cy="681.703" r="4" fill="#0" id="circle35"/>
	<circle cx="110.403" cy="698.073" r="4" fill="#0" id="circle36"/>
	<circle cx="115.314" cy="118.587" r="4" fill="#0" id="circle37"/>
	<circle cx="118.587" cy="712.805" r="4" fill="#0" id="circle38"/>
	<circle cx="126.772" cy="727.538" r="4" fill="#0" id="circle39"/>
	<circle cx="128.409" cy="105.492" r="4" fill="#0" id="circle40"/>
	<circle cx="134.957" cy="742.271" r="4" fill="#0" id="circle41"/>
	<circle cx="139.868" cy="758.64" r="4" fill="#0" id="circle42"/>
	<circle cx="141.505" cy="94.033" r="4" fill="#0" id="circle43"/>
	<circle cx="148.053" cy="77.6634" r="4" fill="#0" id="circle44"/>
	<circle cx="152.964" cy="770.099" r="4" fill="#0" id="circle45"/>
	<circle cx="164.422" cy="69.4785" r="4" fill="#0" id="circle46"/>
	<circle cx="164.422" cy="783.195" r="4" fill="#0" id="circle47"/>
	<circle cx="167.696" cy="799.564" r="4" fill="#0" id="circle48"/>
	<circle cx="167.696" cy="815.934" r="4" fill="#0" id="circle49"/>
	<circle cx="172.607" cy="832.304" r="4" fill="#0" id="circle50"/>
	<circle cx="177.518" cy="56.3828" r="4" fill="#0" id="circle51"/>
	<circle cx="180.792" cy="847.036" r="4" fill="#0" id="circle52"/>
	<circle cx="190.614" cy="44.9241" r="4" fill="#0" id="circle53"/>
	<circle cx="192.251" cy="860.132" r="4" fill="#0" id="circle54"/>
	<circle cx="202.073" cy="31.8284" r="4" fill="#0" id="circle55"/>
	<circle cx="205.347" cy="871.591" r="4" fill="#0" id="circle56"/>
	<circle cx="215.168" cy="20.3696" r="4" fill="#0" id="circle57"/>
	<circle cx="220.079" cy="879.776" r="4" fill="#0" id="circle58"/>
	<circle cx="229.901" cy="12.1848" r="4" fill="#0" id="circle59"/>
	<circle cx="233.175" cy="889.597" r="4" fill="#0" id="circle60"/>
	<circle cx="242.997" cy="902.693" r="4" fill="#0" id="circle61"/>
	<circle cx="246.271" cy="4" r="4" fill="#0" id="circle62"/>
	<circle cx="256.092" cy="914.152" r="4" fill="#0" id="circle63"/>
	<circle cx="262.64" cy="4" r="4" fill="#0" id="circle64"/>
	<circle cx="267.551" cy="927.248" r="4" fill="#0" id="circle65"/>
	<circle cx="279.01" cy="4" r="4" fill="#0" id="circle66"/>
	<circle cx="280.647" cy="938.706" r="4" fill="#0" id="circle67"/>
	<circle cx="287.195" cy="955.076" r="4" fill="#0" id="circle68"/>
	<circle cx="295.38" cy="4" r="4" fill="#0" id="circle69"/>
	<circle cx="300.29" cy="966.535" r="4" fill="#0" id="circle70"/>
	<circle cx="306.838" cy="982.904" r="4" fill="#0" id="circle71"/>
	<circle cx="311.749" cy="4" r="4" fill="#0" id="circle72"/>
	<circle cx="323.208" cy="987.815" r="4" fill="#0" id="circle73"/>
	<circle cx="328.119" cy="4" r="4" fill="#0" id="circle74"/>
	<circle cx="337.941" cy="996" r="4" fill="#0" id="circle75"/>
	<circle cx="342.851" cy="12.1848" r="4" fill="#0" id="circle76"/>
	<circle cx="354.31" cy="996" r="4" fill="#0" id="circle77"/>
	<circle cx="357.584" cy="20.3696" r="4" fill="#0" id="circle78"/>
	<circle cx="369.043" cy="987.815" r="4" fill="#0" id="circle79"/>
	<circle cx="373.954" cy="20.3696" r="4" fill="#0" id="circle80"/>
	<circle cx="383.776" cy="979.63" r="4" fill="#0" id="circle81"/>
	<circle cx="390.323" cy="20.3696" r="4" fill="#0" id="circle82"/>
	<circle cx="396.871" cy="966.535" r="4" fill="#0" id="circle83"/>
	<circle cx="403.419" cy="30.1914" r="4" fill="#0" id="circle84"/>
	<circle cx="409.967" cy="955.076" r="4" fill="#0" id="circle85"/>
	<circle cx="414.878" cy="43.2871" r="4" fill="#0" id="circle86"/>
	<circle cx="424.7" cy="946.891" r="4" fill="#0" id="circle87"/>
	<circle cx="427.974" cy="53.1089" r="4" fill="#0" id="circle88"/>
	<circle cx="437.795" cy="933.795" r="4" fill="#0" id="circle89"/>
	<circle cx="442.706" cy="44.9241" r="4" fill="#0" id="circle90"/>
	<circle cx="454.165" cy="925.611" r="4" fill="#0" id="circle91"/>
	<circle cx="459.076" cy="36.7393" r="4" fill="#0" id="circle92"/>
	<circle cx="467.261" cy="912.515" r="4" fill="#0" id="circle93"/>
	<circle cx="475.446" cy="36.7393" r="4" fill="#0" id="circle94"/>
	<circle cx="480.356" cy="897.782" r="4" fill="#0" id="circle95"/>
	<circle cx="491.815" cy="36.7393" r="4" fill="#0" id="circle96"/>
	<circle cx="493.452" cy="886.323" r="4" fill="#0" id="circle97"/>
	<circle cx="504.911" cy="873.228" r="4" fill="#0" id="circle98"/>
	<circle cx="508.185" cy="36.7393" r="4" fill="#0" id="circle99"/>
	<circle cx="518.007" cy="861.769" r="4" fill="#0" id="circle100"/>
	<circle cx="522.917" cy="44.9241" r="4" fill="#0" id="circle101"/>
	<circle cx="529.465" cy="832.304" r="4" fill="#0" id="circle102"/>
	<circle cx="529.465" cy="848.673" r="4" fill="#0" id="circle103"/>
	<circle cx="537.65" cy="53.1089" r="4" fill="#0" id="circle104"/>
	<circle cx="537.65" cy="750.455" r="4" fill="#0" id="circle105"/>
	<circle cx="537.65" cy="766.825" r="4" fill="#0" id="circle106"/>
	<circle cx="537.65" cy="783.195" r="4" fill="#0" id="circle107"/>
	<circle cx="537.65" cy="799.564" r="4" fill="#0" id="circle108"/>
	<circle cx="537.65" cy="815.934" r="4" fill="#0" id="circle109"/>
	<circle cx="545.835" cy="734.086" r="4" fill="#0" id="circle110"/>
	<circle cx="550.746" cy="62.9307" r="4" fill="#0" id="circle111"/>
	<circle cx="554.02" cy="717.716" r="4" fill="#0" id="circle112"/>
	<circle cx="562.205" cy="76.0264" r="4" fill="#0" id="circle113"/>
	<circle cx="562.205" cy="693.162" r="4" fill="#0" id="circle114"/>
	<circle cx="570.389" cy="635.868" r="4" fill="#0" id="circle115"/>
	<circle cx="570.389" cy="652.238" r="4" fill="#0" id="circle116"/>
	<circle cx="570.389" cy="668.607" r="4" fill="#0" id="circle117"/>
	<circle cx="575.3" cy="87.4851" r="4" fill="#0" id="circle118"/>
	<circle cx="581.848" cy="103.855" r="4" fill="#0" id="circle119"/>
	<circle cx="583.485" cy="624.409" r="4" fill="#0" id="circle120"/>
	<circle cx="586.759" cy="120.224" r="4" fill="#0" id="circle121"/>
	<circle cx="594.944" cy="134.957" r="4" fill="#0" id="circle122"/>
	<circle cx="594.944" cy="151.327" r="4" fill="#0" id="circle123"/>
	<circle cx="594.944" cy="167.696" r="4" fill="#0" id="circle124"/>
	<circle cx="594.944" cy="259.366" r="4" fill="#0" id="circle125"/>
	<circle cx="594.944" cy="275.736" r="4" fill="#0" id="circle126"/>
	<circle cx="594.944" cy="292.106" r="4" fill="#0" id="circle127"/>
	<circle cx="598.218" cy="308.475" r="4" fill="#0" id="circle128"/>
	<circle cx="599.855" cy="616.224" r="4" fill="#0" id="circle129"/>
	<circle cx="603.129" cy="182.429" r="4" fill="#0" id="circle130"/>
	<circle cx="603.129" cy="198.799" r="4" fill="#0" id="circle131"/>
	<circle cx="603.129" cy="215.168" r="4" fill="#0" id="circle132"/>
	<circle cx="603.129" cy="231.538" r="4" fill="#0" id="circle133"/>
	<circle cx="603.129" cy="324.845" r="4" fill="#0" id="circle134"/>
	<circle cx="603.129" cy="341.215" r="4" fill="#0" id="circle135"/>
	<circle cx="603.129" cy="357.584" r="4" fill="#0" id="circle136"/>
	<circle cx="603.129" cy="373.954" r="4" fill="#0" id="circle137"/>
	<circle cx="606.403" cy="390.323" r="4" fill="#0" id="circle138"/>
	<circle cx="608.04" cy="599.855" r="4" fill="#0" id="circle139"/>
	<circle cx="614.587" cy="405.056" r="4" fill="#0" id="circle140"/>
	<circle cx="616.224" cy="583.485" r="4" fill="#0" id="circle141"/>
	<circle cx="619.498" cy="545.835" r="4" fill="#0" id="circle142"/>
	<circle cx="619.498" cy="562.205" r="4" fill="#0" id="circle143"/>
	<circle cx="627.683" cy="529.465" r="4" fill="#0" id="circle144"/>
	<circle cx="629.32" cy="413.241" r="4" fill="#0" id="circle145"/>
	<circle cx="635.868" cy="504.911" r="4" fill="#0" id="circle146"/>
	<circle cx="642.416" cy="424.7" r="4" fill="#0" id="circle147"/>
	<circle cx="644.053" cy="488.541" r="4" fill="#0" id="circle148"/>
	<circle cx="652.238" cy="437.795" r="4" fill="#0" id="circle149"/>
	<circle cx="652.238" cy="454.165" r="4" fill="#0" id="circle150"/>
	<circle cx="652.238" cy="470.535" r="4" fill="#0" id="circle151"/>
	</g>
</svg>