<?xml version="1.0" encoding="UTF-8" standalone="no"?>
<!-- Created with CurveBenchmark -->
<svg
	xmlns:dc="http://purl.org/dc/elements/1.1/"
	xmlns:cc="http://creativecommons.org/ns#"
	xmlns:rdf="http://www.w3.org/1999/02/22-rdf-syntax-ns#"
	xmlns:svg="http://www.w3.org/2000/svg"
	xmlns="http://www.w3.org/2000/svg"
	xmlns:sodipodi="http://sodipodi.sourceforge.net/DTD/sodipodi-0.dtd"
	xmlns:inkscape="http://www.inkscape.org/namespaces/inkscape"
	width="1000"
	height="1000"
	id="svg2"
	version="1.1"
	sodipodi:docname="manifold/fitconnect-bird010.png.txt">
<defs
	id="defs4" />
<metadata
	id="metadata7">
	<rdf:RDF>
		<cc:Work
			rdf:about="">
			<dc:format>image/svg+xml</dc:format>
			<dc:type
				rdf:resource="http://purl.org/dc/dcmitype/StillImage" />
			<dc:title></dc:title>
		</cc:Work>
	</rdf:RDF>
</metadata>
<g
	inkscape:label="Layer 1"
	inkscape:groupmode="layer"
	id="layer1">
	<path style="fill:none;stroke:red;stroke-width:1px;stroke-linecap:butt;stroke-linejoin:miter;stroke-opacity:1" d="M 4,374.637 18.5348,331.033 z" id="boundary" inkscape:connector-curvature="0" />
	<path style="fill:none;stroke:red;stroke-width:1px;stroke-linecap:butt;stroke-linejoin:miter;stroke-opacity:1" d="M 4,374.637 33.0696,400.073 z" id="boundary" inkscape:connector-curvature="0" />
	<path style="fill:none;stroke:red;stroke-width:1px;stroke-linecap:butt;stroke-linejoin:miter;stroke-opacity:1" d="M 18.5348,331.033 36.7033,298.33 z" id="boundary" inkscape:connector-curvature="0" />
	<path style="fill:none;stroke:red;stroke-width:1px;stroke-linecap:butt;stroke-linejoin:miter;stroke-opacity:1" d="M 33.0696,400.073 69.4066,400.073 z" id="boundary" inkscape:connector-curvature="0" />
	<path style="fill:none;stroke:red;stroke-width:1px;stroke-linecap:butt;stroke-linejoin:miter;stroke-opacity:1" d="M 36.7033,298.33 54.8718,265.626 z" id="boundary" inkscape:connector-curvature="0" />
	<path style="fill:none;stroke:red;stroke-width:1px;stroke-linecap:butt;stroke-linejoin:miter;stroke-opacity:1" d="M 54.8718,265.626 76.674,236.557 z" id="boundary" inkscape:connector-curvature="0" />
	<path style="fill:none;stroke:red;stroke-width:1px;stroke-linecap:butt;stroke-linejoin:miter;stroke-opacity:1" d="M 69.4066,400.073 105.744,389.172 z" id="boundary" inkscape:connector-curvature="0" />
	<path style="fill:none;stroke:red;stroke-width:1px;stroke-linecap:butt;stroke-linejoin:miter;stroke-opacity:1" d="M 76.674,236.557 98.4762,207.487 z" id="boundary" inkscape:connector-curvature="0" />
	<path style="fill:none;stroke:red;stroke-width:1px;stroke-linecap:butt;stroke-linejoin:miter;stroke-opacity:1" d="M 98.4762,207.487 127.546,185.685 z" id="boundary" inkscape:connector-curvature="0" />
	<path style="fill:none;stroke:red;stroke-width:1px;stroke-linecap:butt;stroke-linejoin:miter;stroke-opacity:1" d="M 105.744,389.172 138.447,407.341 z" id="boundary" inkscape:connector-curvature="0" />
	<path style="fill:none;stroke:red;stroke-width:1px;stroke-linecap:butt;stroke-linejoin:miter;stroke-opacity:1" d="M 127.546,185.685 156.615,156.615 z" id="boundary" inkscape:connector-curvature="0" />
	<path style="fill:none;stroke:red;stroke-width:1px;stroke-linecap:butt;stroke-linejoin:miter;stroke-opacity:1" d="M 138.447,407.341 174.784,400.073 z" id="boundary" inkscape:connector-curvature="0" />
	<path style="fill:none;stroke:red;stroke-width:1px;stroke-linecap:butt;stroke-linejoin:miter;stroke-opacity:1" d="M 156.615,156.615 185.685,127.546 z" id="boundary" inkscape:connector-curvature="0" />
	<path style="fill:none;stroke:red;stroke-width:1px;stroke-linecap:butt;stroke-linejoin:miter;stroke-opacity:1" d="M 174.784,400.073 211.121,385.538 z" id="boundary" inkscape:connector-curvature="0" />
	<path style="fill:none;stroke:red;stroke-width:1px;stroke-linecap:butt;stroke-linejoin:miter;stroke-opacity:1" d="M 185.685,127.546 214.755,98.4762 z" id="boundary" inkscape:connector-curvature="0" />
	<path style="fill:none;stroke:red;stroke-width:1px;stroke-linecap:butt;stroke-linejoin:miter;stroke-opacity:1" d="M 211.121,385.538 247.458,378.271 z" id="boundary" inkscape:connector-curvature="0" />
	<path style="fill:none;stroke:red;stroke-width:1px;stroke-linecap:butt;stroke-linejoin:miter;stroke-opacity:1" d="M 214.755,98.4762 243.824,76.674 z" id="boundary" inkscape:connector-curvature="0" />
	<path style="fill:none;stroke:red;stroke-width:1px;stroke-linecap:butt;stroke-linejoin:miter;stroke-opacity:1" d="M 243.824,76.674 272.894,54.8718 z" id="boundary" inkscape:connector-curvature="0" />
	<path style="fill:none;stroke:red;stroke-width:1px;stroke-linecap:butt;stroke-linejoin:miter;stroke-opacity:1" d="M 247.458,378.271 283.795,360.103 z" id="boundary" inkscape:connector-curvature="0" />
	<path style="fill:none;stroke:red;stroke-width:1px;stroke-linecap:butt;stroke-linejoin:miter;stroke-opacity:1" d="M 272.894,54.8718 305.597,36.7033 z" id="boundary" inkscape:connector-curvature="0" />
	<path style="fill:none;stroke:red;stroke-width:1px;stroke-linecap:butt;stroke-linejoin:miter;stroke-opacity:1" d="M 283.795,360.103 316.498,341.934 z" id="boundary" inkscape:connector-curvature="0" />
	<path style="fill:none;stroke:red;stroke-width:1px;stroke-linecap:butt;stroke-linejoin:miter;stroke-opacity:1" d="M 305.597,36.7033 341.934,22.1685 z" id="boundary" inkscape:connector-curvature="0" />
	<path style="fill:none;stroke:red;stroke-width:1px;stroke-linecap:butt;stroke-linejoin:miter;stroke-opacity:1" d="M 316.498,341.934 352.835,334.667 z" id="boundary" inkscape:connector-curvature="0" />
	<path style="fill:none;stroke:red;stroke-width:1px;stroke-linecap:butt;stroke-linejoin:miter;stroke-opacity:1" d="M 341.934,22.1685 378.271,7.6337 z" id="boundary" inkscape:connector-curvature="0" />
	<path style="fill:none;stroke:red;stroke-width:1px;stroke-linecap:butt;stroke-linejoin:miter;stroke-opacity:1" d="M 352.835,334.667 360.103,371.004 z" id="boundary" inkscape:connector-curvature="0" />
	<path style="fill:none;stroke:red;stroke-width:1px;stroke-linecap:butt;stroke-linejoin:miter;stroke-opacity:1" d="M 360.103,371.004 360.103,407.341 z" id="boundary" inkscape:connector-curvature="0" />
	<path style="fill:none;stroke:red;stroke-width:1px;stroke-linecap:butt;stroke-linejoin:miter;stroke-opacity:1" d="M 360.103,407.341 360.103,443.678 z" id="boundary" inkscape:connector-curvature="0" />
	<path style="fill:none;stroke:red;stroke-width:1px;stroke-linecap:butt;stroke-linejoin:miter;stroke-opacity:1" d="M 360.103,443.678 360.103,480.015 z" id="boundary" inkscape:connector-curvature="0" />
	<path style="fill:none;stroke:red;stroke-width:1px;stroke-linecap:butt;stroke-linejoin:miter;stroke-opacity:1" d="M 360.103,480.015 360.103,516.352 z" id="boundary" inkscape:connector-curvature="0" />
	<path style="fill:none;stroke:red;stroke-width:1px;stroke-linecap:butt;stroke-linejoin:miter;stroke-opacity:1" d="M 360.103,516.352 360.103,552.689 z" id="boundary" inkscape:connector-curvature="0" />
	<path style="fill:none;stroke:red;stroke-width:1px;stroke-linecap:butt;stroke-linejoin:miter;stroke-opacity:1" d="M 360.103,552.689 360.103,589.026 z" id="boundary" inkscape:connector-curvature="0" />
	<path style="fill:none;stroke:red;stroke-width:1px;stroke-linecap:butt;stroke-linejoin:miter;stroke-opacity:1" d="M 360.103,589.026 360.103,625.363 z" id="boundary" inkscape:connector-curvature="0" />
	<path style="fill:none;stroke:red;stroke-width:1px;stroke-linecap:butt;stroke-linejoin:miter;stroke-opacity:1" d="M 360.103,625.363 367.37,661.7 z" id="boundary" inkscape:connector-curvature="0" />
	<path style="fill:none;stroke:red;stroke-width:1px;stroke-linecap:butt;stroke-linejoin:miter;stroke-opacity:1" d="M 367.37,661.7 367.37,698.037 z" id="boundary" inkscape:connector-curvature="0" />
	<path style="fill:none;stroke:red;stroke-width:1px;stroke-linecap:butt;stroke-linejoin:miter;stroke-opacity:1" d="M 367.37,698.037 374.637,734.374 z" id="boundary" inkscape:connector-curvature="0" />
	<path style="fill:none;stroke:red;stroke-width:1px;stroke-linecap:butt;stroke-linejoin:miter;stroke-opacity:1" d="M 374.637,734.374 381.905,770.711 z" id="boundary" inkscape:connector-curvature="0" />
	<path style="fill:none;stroke:red;stroke-width:1px;stroke-linecap:butt;stroke-linejoin:miter;stroke-opacity:1" d="M 378.271,7.6337 414.608,4 z" id="boundary" inkscape:connector-curvature="0" />
	<path style="fill:none;stroke:red;stroke-width:1px;stroke-linecap:butt;stroke-linejoin:miter;stroke-opacity:1" d="M 381.905,770.711 389.172,807.048 z" id="boundary" inkscape:connector-curvature="0" />
	<path style="fill:none;stroke:red;stroke-width:1px;stroke-linecap:butt;stroke-linejoin:miter;stroke-opacity:1" d="M 389.172,807.048 389.172,843.385 z" id="boundary" inkscape:connector-curvature="0" />
	<path style="fill:none;stroke:red;stroke-width:1px;stroke-linecap:butt;stroke-linejoin:miter;stroke-opacity:1" d="M 389.172,843.385 396.44,879.722 z" id="boundary" inkscape:connector-curvature="0" />
	<path style="fill:none;stroke:red;stroke-width:1px;stroke-linecap:butt;stroke-linejoin:miter;stroke-opacity:1" d="M 396.44,879.722 396.44,916.059 z" id="boundary" inkscape:connector-curvature="0" />
	<path style="fill:none;stroke:red;stroke-width:1px;stroke-linecap:butt;stroke-linejoin:miter;stroke-opacity:1" d="M 396.44,916.059 432.777,930.593 z" id="boundary" inkscape:connector-curvature="0" />
	<path style="fill:none;stroke:red;stroke-width:1px;stroke-linecap:butt;stroke-linejoin:miter;stroke-opacity:1" d="M 414.608,4 450.945,4 z" id="boundary" inkscape:connector-curvature="0" />
	<path style="fill:none;stroke:red;stroke-width:1px;stroke-linecap:butt;stroke-linejoin:miter;stroke-opacity:1" d="M 421.875,636.264 425.509,672.601 z" id="boundary" inkscape:connector-curvature="0" />
	<path style="fill:none;stroke:red;stroke-width:1px;stroke-linecap:butt;stroke-linejoin:miter;stroke-opacity:1" d="M 421.875,636.264 429.143,599.927 z" id="boundary" inkscape:connector-curvature="0" />
	<path style="fill:none;stroke:red;stroke-width:1px;stroke-linecap:butt;stroke-linejoin:miter;stroke-opacity:1" d="M 425.509,672.601 429.143,708.938 z" id="boundary" inkscape:connector-curvature="0" />
	<path style="fill:none;stroke:red;stroke-width:1px;stroke-linecap:butt;stroke-linejoin:miter;stroke-opacity:1" d="M 429.143,563.59 429.143,599.927 z" id="boundary" inkscape:connector-curvature="0" />
	<path style="fill:none;stroke:red;stroke-width:1px;stroke-linecap:butt;stroke-linejoin:miter;stroke-opacity:1" d="M 429.143,563.59 436.41,527.253 z" id="boundary" inkscape:connector-curvature="0" />
	<path style="fill:none;stroke:red;stroke-width:1px;stroke-linecap:butt;stroke-linejoin:miter;stroke-opacity:1" d="M 429.143,708.938 436.41,745.275 z" id="boundary" inkscape:connector-curvature="0" />
	<path style="fill:none;stroke:red;stroke-width:1px;stroke-linecap:butt;stroke-linejoin:miter;stroke-opacity:1" d="M 432.777,930.593 469.114,930.593 z" id="boundary" inkscape:connector-curvature="0" />
	<path style="fill:none;stroke:red;stroke-width:1px;stroke-linecap:butt;stroke-linejoin:miter;stroke-opacity:1" d="M 436.41,527.253 450.945,469.114 z" id="boundary" inkscape:connector-curvature="0" />
	<path style="fill:none;stroke:red;stroke-width:1px;stroke-linecap:butt;stroke-linejoin:miter;stroke-opacity:1" d="M 436.41,745.275 443.678,781.612 z" id="boundary" inkscape:connector-curvature="0" />
	<path style="fill:none;stroke:red;stroke-width:1px;stroke-linecap:butt;stroke-linejoin:miter;stroke-opacity:1" d="M 443.678,781.612 450.945,817.949 z" id="boundary" inkscape:connector-curvature="0" />
	<path style="fill:none;stroke:red;stroke-width:1px;stroke-linecap:butt;stroke-linejoin:miter;stroke-opacity:1" d="M 450.945,4 487.282,4 z" id="boundary" inkscape:connector-curvature="0" />
	<path style="fill:none;stroke:red;stroke-width:1px;stroke-linecap:butt;stroke-linejoin:miter;stroke-opacity:1" d="M 450.945,469.114 465.48,410.974 z" id="boundary" inkscape:connector-curvature="0" />
	<path style="fill:none;stroke:red;stroke-width:1px;stroke-linecap:butt;stroke-linejoin:miter;stroke-opacity:1" d="M 450.945,817.949 458.212,854.286 z" id="boundary" inkscape:connector-curvature="0" />
	<path style="fill:none;stroke:red;stroke-width:1px;stroke-linecap:butt;stroke-linejoin:miter;stroke-opacity:1" d="M 458.212,854.286 480.015,883.355 z" id="boundary" inkscape:connector-curvature="0" />
	<path style="fill:none;stroke:red;stroke-width:1px;stroke-linecap:butt;stroke-linejoin:miter;stroke-opacity:1" d="M 465.48,410.974 472.747,374.637 z" id="boundary" inkscape:connector-curvature="0" />
	<path style="fill:none;stroke:red;stroke-width:1px;stroke-linecap:butt;stroke-linejoin:miter;stroke-opacity:1" d="M 469.114,930.593 505.451,930.593 z" id="boundary" inkscape:connector-curvature="0" />
	<path style="fill:none;stroke:red;stroke-width:1px;stroke-linecap:butt;stroke-linejoin:miter;stroke-opacity:1" d="M 472.747,374.637 480.015,309.231 z" id="boundary" inkscape:connector-curvature="0" />
	<path style="fill:none;stroke:red;stroke-width:1px;stroke-linecap:butt;stroke-linejoin:miter;stroke-opacity:1" d="M 480.015,309.231 494.549,265.626 z" id="boundary" inkscape:connector-curvature="0" />
	<path style="fill:none;stroke:red;stroke-width:1px;stroke-linecap:butt;stroke-linejoin:miter;stroke-opacity:1" d="M 480.015,883.355 516.352,883.355 z" id="boundary" inkscape:connector-curvature="0" />
	<path style="fill:none;stroke:red;stroke-width:1px;stroke-linecap:butt;stroke-linejoin:miter;stroke-opacity:1" d="M 487.282,4 523.619,11.2674 z" id="boundary" inkscape:connector-curvature="0" />
	<path style="fill:none;stroke:red;stroke-width:1px;stroke-linecap:butt;stroke-linejoin:miter;stroke-opacity:1" d="M 494.549,265.626 523.619,236.557 z" id="boundary" inkscape:connector-curvature="0" />
	<path style="fill:none;stroke:red;stroke-width:1px;stroke-linecap:butt;stroke-linejoin:miter;stroke-opacity:1" d="M 505.451,930.593 541.788,923.326 z" id="boundary" inkscape:connector-curvature="0" />
	<path style="fill:none;stroke:red;stroke-width:1px;stroke-linecap:butt;stroke-linejoin:miter;stroke-opacity:1" d="M 516.352,883.355 559.956,890.623 z" id="boundary" inkscape:connector-curvature="0" />
	<path style="fill:none;stroke:red;stroke-width:1px;stroke-linecap:butt;stroke-linejoin:miter;stroke-opacity:1" d="M 523.619,11.2674 559.956,25.8022 z" id="boundary" inkscape:connector-curvature="0" />
	<path style="fill:none;stroke:red;stroke-width:1px;stroke-linecap:butt;stroke-linejoin:miter;stroke-opacity:1" d="M 523.619,236.557 552.689,214.755 z" id="boundary" inkscape:connector-curvature="0" />
	<path style="fill:none;stroke:red;stroke-width:1px;stroke-linecap:butt;stroke-linejoin:miter;stroke-opacity:1" d="M 541.788,923.326 559.956,890.623 z" id="boundary" inkscape:connector-curvature="0" />
	<path style="fill:none;stroke:red;stroke-width:1px;stroke-linecap:butt;stroke-linejoin:miter;stroke-opacity:1" d="M 552.689,214.755 589.026,218.388 z" id="boundary" inkscape:connector-curvature="0" />
	<path style="fill:none;stroke:red;stroke-width:1px;stroke-linecap:butt;stroke-linejoin:miter;stroke-opacity:1" d="M 559.956,25.8022 596.293,40.337 z" id="boundary" inkscape:connector-curvature="0" />
	<path style="fill:none;stroke:red;stroke-width:1px;stroke-linecap:butt;stroke-linejoin:miter;stroke-opacity:1" d="M 589.026,218.388 599.927,254.725 z" id="boundary" inkscape:connector-curvature="0" />
	<path style="fill:none;stroke:red;stroke-width:1px;stroke-linecap:butt;stroke-linejoin:miter;stroke-opacity:1" d="M 596.293,40.337 625.363,62.1392 z" id="boundary" inkscape:connector-curvature="0" />
	<path style="fill:none;stroke:red;stroke-width:1px;stroke-linecap:butt;stroke-linejoin:miter;stroke-opacity:1" d="M 599.927,254.725 607.194,291.062 z" id="boundary" inkscape:connector-curvature="0" />
	<path style="fill:none;stroke:red;stroke-width:1px;stroke-linecap:butt;stroke-linejoin:miter;stroke-opacity:1" d="M 607.194,291.062 625.363,323.766 z" id="boundary" inkscape:connector-curvature="0" />
	<path style="fill:none;stroke:red;stroke-width:1px;stroke-linecap:butt;stroke-linejoin:miter;stroke-opacity:1" d="M 625.363,62.1392 647.165,91.2088 z" id="boundary" inkscape:connector-curvature="0" />
	<path style="fill:none;stroke:red;stroke-width:1px;stroke-linecap:butt;stroke-linejoin:miter;stroke-opacity:1" d="M 625.363,323.766 654.432,345.568 z" id="boundary" inkscape:connector-curvature="0" />
	<path style="fill:none;stroke:red;stroke-width:1px;stroke-linecap:butt;stroke-linejoin:miter;stroke-opacity:1" d="M 647.165,91.2088 661.7,127.546 z" id="boundary" inkscape:connector-curvature="0" />
	<path style="fill:none;stroke:red;stroke-width:1px;stroke-linecap:butt;stroke-linejoin:miter;stroke-opacity:1" d="M 654.432,345.568 690.769,349.201 z" id="boundary" inkscape:connector-curvature="0" />
	<path style="fill:none;stroke:red;stroke-width:1px;stroke-linecap:butt;stroke-linejoin:miter;stroke-opacity:1" d="M 661.7,127.546 683.502,156.615 z" id="boundary" inkscape:connector-curvature="0" />
	<path style="fill:none;stroke:red;stroke-width:1px;stroke-linecap:butt;stroke-linejoin:miter;stroke-opacity:1" d="M 683.502,156.615 701.67,120.278 z" id="boundary" inkscape:connector-curvature="0" />
	<path style="fill:none;stroke:red;stroke-width:1px;stroke-linecap:butt;stroke-linejoin:miter;stroke-opacity:1" d="M 690.769,349.201 727.106,338.3 z" id="boundary" inkscape:connector-curvature="0" />
	<path style="fill:none;stroke:red;stroke-width:1px;stroke-linecap:butt;stroke-linejoin:miter;stroke-opacity:1" d="M 701.67,120.278 723.473,91.2088 z" id="boundary" inkscape:connector-curvature="0" />
	<path style="fill:none;stroke:red;stroke-width:1px;stroke-linecap:butt;stroke-linejoin:miter;stroke-opacity:1" d="M 723.473,91.2088 759.81,76.674 z" id="boundary" inkscape:connector-curvature="0" />
	<path style="fill:none;stroke:red;stroke-width:1px;stroke-linecap:butt;stroke-linejoin:miter;stroke-opacity:1" d="M 727.106,338.3 756.176,301.963 z" id="boundary" inkscape:connector-curvature="0" />
	<path style="fill:none;stroke:red;stroke-width:1px;stroke-linecap:butt;stroke-linejoin:miter;stroke-opacity:1" d="M 756.176,301.963 767.077,251.092 z" id="boundary" inkscape:connector-curvature="0" />
	<path style="fill:none;stroke:red;stroke-width:1px;stroke-linecap:butt;stroke-linejoin:miter;stroke-opacity:1" d="M 759.81,76.674 796.147,69.4066 z" id="boundary" inkscape:connector-curvature="0" />
	<path style="fill:none;stroke:red;stroke-width:1px;stroke-linecap:butt;stroke-linejoin:miter;stroke-opacity:1" d="M 763.443,178.418 763.443,214.755 z" id="boundary" inkscape:connector-curvature="0" />
	<path style="fill:none;stroke:red;stroke-width:1px;stroke-linecap:butt;stroke-linejoin:miter;stroke-opacity:1" d="M 763.443,178.418 799.78,174.784 z" id="boundary" inkscape:connector-curvature="0" />
	<path style="fill:none;stroke:red;stroke-width:1px;stroke-linecap:butt;stroke-linejoin:miter;stroke-opacity:1" d="M 763.443,214.755 767.077,251.092 z" id="boundary" inkscape:connector-curvature="0" />
	<path style="fill:none;stroke:red;stroke-width:1px;stroke-linecap:butt;stroke-linejoin:miter;stroke-opacity:1" d="M 796.147,69.4066 832.484,69.4066 z" id="boundary" inkscape:connector-curvature="0" />
	<path style="fill:none;stroke:red;stroke-width:1px;stroke-linecap:butt;stroke-linejoin:miter;stroke-opacity:1" d="M 799.78,174.784 832.484,192.952 z" id="boundary" inkscape:connector-curvature="0" />
	<path style="fill:none;stroke:red;stroke-width:1px;stroke-linecap:butt;stroke-linejoin:miter;stroke-opacity:1" d="M 832.484,69.4066 868.821,80.3077 z" id="boundary" inkscape:connector-curvature="0" />
	<path style="fill:none;stroke:red;stroke-width:1px;stroke-linecap:butt;stroke-linejoin:miter;stroke-opacity:1" d="M 832.484,192.952 868.821,207.487 z" id="boundary" inkscape:connector-curvature="0" />
	<path style="fill:none;stroke:red;stroke-width:1px;stroke-linecap:butt;stroke-linejoin:miter;stroke-opacity:1" d="M 868.821,80.3077 897.89,102.11 z" id="boundary" inkscape:connector-curvature="0" />
	<path style="fill:none;stroke:red;stroke-width:1px;stroke-linecap:butt;stroke-linejoin:miter;stroke-opacity:1" d="M 868.821,207.487 901.524,225.656 z" id="boundary" inkscape:connector-curvature="0" />
	<path style="fill:none;stroke:red;stroke-width:1px;stroke-linecap:butt;stroke-linejoin:miter;stroke-opacity:1" d="M 897.89,102.11 908.791,138.447 z" id="boundary" inkscape:connector-curvature="0" />
	<path style="fill:none;stroke:red;stroke-width:1px;stroke-linecap:butt;stroke-linejoin:miter;stroke-opacity:1" d="M 901.524,225.656 930.593,247.458 z" id="boundary" inkscape:connector-curvature="0" />
	<path style="fill:none;stroke:red;stroke-width:1px;stroke-linecap:butt;stroke-linejoin:miter;stroke-opacity:1" d="M 908.791,138.447 926.96,171.15 z" id="boundary" inkscape:connector-curvature="0" />
	<path style="fill:none;stroke:red;stroke-width:1px;stroke-linecap:butt;stroke-linejoin:miter;stroke-opacity:1" d="M 926.96,171.15 948.762,200.22 z" id="boundary" inkscape:connector-curvature="0" />
	<path style="fill:none;stroke:red;stroke-width:1px;stroke-linecap:butt;stroke-linejoin:miter;stroke-opacity:1" d="M 930.593,247.458 959.663,269.26 z" id="boundary" inkscape:connector-curvature="0" />
	<path style="fill:none;stroke:red;stroke-width:1px;stroke-linecap:butt;stroke-linejoin:miter;stroke-opacity:1" d="M 948.762,200.22 977.832,225.656 z" id="boundary" inkscape:connector-curvature="0" />
	<path style="fill:none;stroke:red;stroke-width:1px;stroke-linecap:butt;stroke-linejoin:miter;stroke-opacity:1" d="M 959.663,269.26 996,258.359 z" id="boundary" inkscape:connector-curvature="0" />
	<path style="fill:none;stroke:red;stroke-width:1px;stroke-linecap:butt;stroke-linejoin:miter;stroke-opacity:1" d="M 977.832,225.656 996,258.359 z" id="boundary" inkscape:connector-curvature="0" />
	<circle cx="4" cy="374.637" r="4" fill="#0" id="circle0"/>
	<circle cx="18.5348" cy="331.033" r="4" fill="#0" id="circle1"/>
	<circle cx="33.0696" cy="400.073" r="4" fill="#0" id="circle2"/>
	<circle cx="36.7033" cy="298.33" r="4" fill="#0" id="circle3"/>
	<circle cx="54.8718" cy="265.626" r="4" fill="#0" id="circle4"/>
	<circle cx="69.4066" cy="400.073" r="4" fill="#0" id="circle5"/>
	<circle cx="76.674" cy="236.557" r="4" fill="#0" id="circle6"/>
	<circle cx="98.4762" cy="207.487" r="4" fill="#0" id="circle7"/>
	<circle cx="105.744" cy="389.172" r="4" fill="#0" id="circle8"/>
	<circle cx="127.546" cy="185.685" r="4" fill="#0" id="circle9"/>
	<circle cx="138.447" cy="407.341" r="4" fill="#0" id="circle10"/>
	<circle cx="156.615" cy="156.615" r="4" fill="#0" id="circle11"/>
	<circle cx="174.784" cy="400.073" r="4" fill="#0" id="circle12"/>
	<circle cx="185.685" cy="127.546" r="4" fill="#0" id="circle13"/>
	<circle cx="211.121" cy="385.538" r="4" fill="#0" id="circle14"/>
	<circle cx="214.755" cy="98.4762" r="4" fill="#0" id="circle15"/>
	<circle cx="243.824" cy="76.674" r="4" fill="#0" id="circle16"/>
	<circle cx="247.458" cy="378.271" r="4" fill="#0" id="circle17"/>
	<circle cx="272.894" cy="54.8718" r="4" fill="#0" id="circle18"/>
	<circle cx="283.795" cy="360.103" r="4" fill="#0" id="circle19"/>
	<circle cx="305.597" cy="36.7033" r="4" fill="#0" id="circle20"/>
	<circle cx="316.498" cy="341.934" r="4" fill="#0" id="circle21"/>
	<circle cx="341.934" cy="22.1685" r="4" fill="#0" id="circle22"/>
	<circle cx="352.835" cy="334.667" r="4" fill="#0" id="circle23"/>
	<circle cx="360.103" cy="371.004" r="4" fill="#0" id="circle24"/>
	<circle cx="360.103" cy="407.341" r="4" fill="#0" id="circle25"/>
	<circle cx="360.103" cy="443.678" r="4" fill="#0" id="circle26"/>
	<circle cx="360.103" cy="480.015" r="4" fill="#0" id="circle27"/>
	<circle cx="360.103" cy="516.352" r="4" fill="#0" id="circle28"/>
	<circle cx="360.103" cy="552.689" r="4" fill="#0" id="circle29"/>
	<circle cx="360.103" cy="589.026" r="4" fill="#0" id="circle30"/>
	<circle cx="360.103" cy="625.363" r="4" fill="#0" id="circle31"/>
	<circle cx="367.37" cy="661.7" r="4" fill="#0" id="circle32"/>
	<circle cx="367.37" cy="698.037" r="4" fill="#0" id="circle33"/>
	<circle cx="374.637" cy="734.374" r="4" fill="#0" id="circle34"/>
	<circle cx="378.271" cy="7.6337" r="4" fill="#0" id="circle35"/>
	<circle cx="381.905" cy="770.711" r="4" fill="#0" id="circle36"/>
	<circle cx="389.172" cy="807.048" r="4" fill="#0" id="circle37"/>
	<circle cx="389.172" cy="843.385" r="4" fill="#0" id="circle38"/>
	<circle cx="396.44" cy="879.722" r="4" fill="#0" id="circle39"/>
	<circle cx="396.44" cy="916.059" r="4" fill="#0" id="circle40"/>
	<circle cx="414.608" cy="4" r="4" fill="#0" id="circle41"/>
	<circle cx="421.875" cy="636.264" r="4" fill="#0" id="circle42"/>
	<circle cx="425.509" cy="672.601" r="4" fill="#0" id="circle43"/>
	<circle cx="429.143" cy="563.59" r="4" fill="#0" id="circle44"/>
	<circle cx="429.143" cy="599.927" r="4" fill="#0" id="circle45"/>
	<circle cx="429.143" cy="708.938" r="4" fill="#0" id="circle46"/>
	<circle cx="432.777" cy="930.593" r="4" fill="#0" id="circle47"/>
	<circle cx="436.41" cy="527.253" r="4" fill="#0" id="circle48"/>
	<circle cx="436.41" cy="745.275" r="4" fill="#0" id="circle49"/>
	<circle cx="443.678" cy="781.612" r="4" fill="#0" id="circle50"/>
	<circle cx="450.945" cy="4" r="4" fill="#0" id="circle51"/>
	<circle cx="450.945" cy="469.114" r="4" fill="#0" id="circle52"/>
	<circle cx="450.945" cy="817.949" r="4" fill="#0" id="circle53"/>
	<circle cx="458.212" cy="854.286" r="4" fill="#0" id="circle54"/>
	<circle cx="465.48" cy="410.974" r="4" fill="#0" id="circle55"/>
	<circle cx="469.114" cy="930.593" r="4" fill="#0" id="circle56"/>
	<circle cx="472.747" cy="374.637" r="4" fill="#0" id="circle57"/>
	<circle cx="480.015" cy="309.231" r="4" fill="#0" id="circle58"/>
	<circle cx="480.015" cy="883.355" r="4" fill="#0" id="circle59"/>
	<circle cx="487.282" cy="4" r="4" fill="#0" id="circle60"/>
	<circle cx="494.549" cy="265.626" r="4" fill="#0" id="circle61"/>
	<circle cx="505.451" cy="930.593" r="4" fill="#0" id="circle62"/>
	<circle cx="516.352" cy="883.355" r="4" fill="#0" id="circle63"/>
	<circle cx="523.619" cy="11.2674" r="4" fill="#0" id="circle64"/>
	<circle cx="523.619" cy="236.557" r="4" fill="#0" id="circle65"/>
	<circle cx="541.788" cy="923.326" r="4" fill="#0" id="circle66"/>
	<circle cx="552.689" cy="214.755" r="4" fill="#0" id="circle67"/>
	<circle cx="559.956" cy="25.8022" r="4" fill="#0" id="circle68"/>
	<circle cx="559.956" cy="890.623" r="4" fill="#0" id="circle69"/>
	<circle cx="589.026" cy="218.388" r="4" fill="#0" id="circle70"/>
	<circle cx="596.293" cy="40.337" r="4" fill="#0" id="circle71"/>
	<circle cx="599.927" cy="254.725" r="4" fill="#0" id="circle72"/>
	<circle cx="607.194" cy="291.062" r="4" fill="#0" id="circle73"/>
	<circle cx="625.363" cy="62.1392" r="4" fill="#0" id="circle74"/>
	<circle cx="625.363" cy="323.766" r="4" fill="#0" id="circle75"/>
	<circle cx="647.165" cy="91.2088" r="4" fill="#0" id="circle76"/>
	<circle cx="654.432" cy="345.568" r="4" fill="#0" id="circle77"/>
	<circle cx="661.7" cy="127.546" r="4" fill="#0" id="circle78"/>
	<circle cx="683.502" cy="156.615" r="4" fill="#0" id="circle79"/>
	<circle cx="690.769" cy="349.201" r="4" fill="#0" id="circle80"/>
	<circle cx="701.67" cy="120.278" r="4" fill="#0" id="circle81"/>
	<circle cx="723.473" cy="91.2088" r="4" fill="#0" id="circle82"/>
	<circle cx="727.106" cy="338.3" r="4" fill="#0" id="circle83"/>
	<circle cx="756.176" cy="301.963" r="4" fill="#0" id="circle84"/>
	<circle cx="759.81" cy="76.674" r="4" fill="#0" id="circle85"/>
	<circle cx="763.443" cy="178.418" r="4" fill="#0" id="circle86"/>
	<circle cx="763.443" cy="214.755" r="4" fill="#0" id="circle87"/>
	<circle cx="767.077" cy="251.092" r="4" fill="#0" id="circle88"/>
	<circle cx="796.147" cy="69.4066" r="4" fill="#0" id="circle89"/>
	<circle cx="799.78" cy="174.784" r="4" fill="#0" id="circle90"/>
	<circle cx="832.484" cy="69.4066" r="4" fill="#0" id="circle91"/>
	<circle cx="832.484" cy="192.952" r="4" fill="#0" id="circle92"/>
	<circle cx="868.821" cy="80.3077" r="4" fill="#0" id="circle93"/>
	<circle cx="868.821" cy="207.487" r="4" fill="#0" id="circle94"/>
	<circle cx="897.89" cy="102.11" r="4" fill="#0" id="circle95"/>
	<circle cx="901.524" cy="225.656" r="4" fill="#0" id="circle96"/>
	<circle cx="908.791" cy="138.447" r="4" fill="#0" id="circle97"/>
	<circle cx="926.96" cy="171.15" r="4" fill="#0" id="circle98"/>
	<circle cx="930.593" cy="247.458" r="4" fill="#0" id="circle99"/>
	<circle cx="948.762" cy="200.22" r="4" fill="#0" id="circle100"/>
	<circle cx="959.663" cy="269.26" r="4" fill="#0" id="circle101"/>
	<circle cx="977.832" cy="225.656" r="4" fill="#0" id="circle102"/>
	<circle cx="996" cy="258.359" r="4" fill="#0" id="circle103"/>
	</g>
</svg>