<?xml version="1.0" encoding="UTF-8" standalone="no"?>
<!-- Created with CurveBenchmark -->
<svg
	xmlns:dc="http://purl.org/dc/elements/1.1/"
	xmlns:cc="http://creativecommons.org/ns#"
	xmlns:rdf="http://www.w3.org/1999/02/22-rdf-syntax-ns#"
	xmlns:svg="http://www.w3.org/2000/svg"
	xmlns="http://www.w3.org/2000/svg"
	xmlns:sodipodi="http://sodipodi.sourceforge.net/DTD/sodipodi-0.dtd"
	xmlns:inkscape="http://www.inkscape.org/namespaces/inkscape"
	width="1000"
	height="1000"
	id="svg2"
	version="1.1"
	sodipodi:docname="manifold/fitconnect-ray0742.png.txt">
<defs
	id="defs4" />
<metadata
	id="metadata7">
	<rdf:RDF>
		<cc:Work
			rdf:about="">
			<dc:format>image/svg+xml</dc:format>
			<dc:type
				rdf:resource="http://purl.org/dc/dcmitype/StillImage" />
			<dc:title></dc:title>
		</cc:Work>
	</rdf:RDF>
</metadata>
<g
	inkscape:label="Layer 1"
	inkscape:groupmode="layer"
	id="layer1">
	<path style="fill:none;stroke:red;stroke-width:1px;stroke-linecap:butt;stroke-linejoin:miter;stroke-opacity:1" d="M 4,327.131 4,340.429 z" id="boundary" inkscape:connector-curvature="0" />
	<path style="fill:none;stroke:red;stroke-width:1px;stroke-linecap:butt;stroke-linejoin:miter;stroke-opacity:1" d="M 4,327.131 10.6488,313.834 z" id="boundary" inkscape:connector-curvature="0" />
	<path style="fill:none;stroke:red;stroke-width:1px;stroke-linecap:butt;stroke-linejoin:miter;stroke-opacity:1" d="M 4,340.429 4,353.727 z" id="boundary" inkscape:connector-curvature="0" />
	<path style="fill:none;stroke:red;stroke-width:1px;stroke-linecap:butt;stroke-linejoin:miter;stroke-opacity:1" d="M 4,353.727 4,367.024 z" id="boundary" inkscape:connector-curvature="0" />
	<path style="fill:none;stroke:red;stroke-width:1px;stroke-linecap:butt;stroke-linejoin:miter;stroke-opacity:1" d="M 4,367.024 10.6488,378.992 z" id="boundary" inkscape:connector-curvature="0" />
	<path style="fill:none;stroke:red;stroke-width:1px;stroke-linecap:butt;stroke-linejoin:miter;stroke-opacity:1" d="M 10.6488,313.834 17.2976,300.536 z" id="boundary" inkscape:connector-curvature="0" />
	<path style="fill:none;stroke:red;stroke-width:1px;stroke-linecap:butt;stroke-linejoin:miter;stroke-opacity:1" d="M 10.6488,378.992 17.2976,390.96 z" id="boundary" inkscape:connector-curvature="0" />
	<path style="fill:none;stroke:red;stroke-width:1px;stroke-linecap:butt;stroke-linejoin:miter;stroke-opacity:1" d="M 17.2976,300.536 23.9464,287.239 z" id="boundary" inkscape:connector-curvature="0" />
	<path style="fill:none;stroke:red;stroke-width:1px;stroke-linecap:butt;stroke-linejoin:miter;stroke-opacity:1" d="M 17.2976,390.96 25.2761,401.598 z" id="boundary" inkscape:connector-curvature="0" />
	<path style="fill:none;stroke:red;stroke-width:1px;stroke-linecap:butt;stroke-linejoin:miter;stroke-opacity:1" d="M 23.9464,287.239 34.5845,276.601 z" id="boundary" inkscape:connector-curvature="0" />
	<path style="fill:none;stroke:red;stroke-width:1px;stroke-linecap:butt;stroke-linejoin:miter;stroke-opacity:1" d="M 25.2761,401.598 35.9142,410.906 z" id="boundary" inkscape:connector-curvature="0" />
	<path style="fill:none;stroke:red;stroke-width:1px;stroke-linecap:butt;stroke-linejoin:miter;stroke-opacity:1" d="M 34.5845,276.601 45.2225,265.962 z" id="boundary" inkscape:connector-curvature="0" />
	<path style="fill:none;stroke:red;stroke-width:1px;stroke-linecap:butt;stroke-linejoin:miter;stroke-opacity:1" d="M 35.9142,410.906 45.2225,421.544 z" id="boundary" inkscape:connector-curvature="0" />
	<path style="fill:none;stroke:red;stroke-width:1px;stroke-linecap:butt;stroke-linejoin:miter;stroke-opacity:1" d="M 45.2225,265.962 55.8606,256.654 z" id="boundary" inkscape:connector-curvature="0" />
	<path style="fill:none;stroke:red;stroke-width:1px;stroke-linecap:butt;stroke-linejoin:miter;stroke-opacity:1" d="M 45.2225,421.544 55.8606,430.853 z" id="boundary" inkscape:connector-curvature="0" />
	<path style="fill:none;stroke:red;stroke-width:1px;stroke-linecap:butt;stroke-linejoin:miter;stroke-opacity:1" d="M 55.8606,256.654 65.1689,246.016 z" id="boundary" inkscape:connector-curvature="0" />
	<path style="fill:none;stroke:red;stroke-width:1px;stroke-linecap:butt;stroke-linejoin:miter;stroke-opacity:1" d="M 55.8606,430.853 67.8284,437.501 z" id="boundary" inkscape:connector-curvature="0" />
	<path style="fill:none;stroke:red;stroke-width:1px;stroke-linecap:butt;stroke-linejoin:miter;stroke-opacity:1" d="M 65.1689,246.016 71.8177,232.718 z" id="boundary" inkscape:connector-curvature="0" />
	<path style="fill:none;stroke:red;stroke-width:1px;stroke-linecap:butt;stroke-linejoin:miter;stroke-opacity:1" d="M 67.8284,437.501 78.4665,446.81 z" id="boundary" inkscape:connector-curvature="0" />
	<path style="fill:none;stroke:red;stroke-width:1px;stroke-linecap:butt;stroke-linejoin:miter;stroke-opacity:1" d="M 71.8177,232.718 85.1153,226.07 z" id="boundary" inkscape:connector-curvature="0" />
	<path style="fill:none;stroke:red;stroke-width:1px;stroke-linecap:butt;stroke-linejoin:miter;stroke-opacity:1" d="M 78.4665,446.81 87.7748,457.448 z" id="boundary" inkscape:connector-curvature="0" />
	<path style="fill:none;stroke:red;stroke-width:1px;stroke-linecap:butt;stroke-linejoin:miter;stroke-opacity:1" d="M 85.1153,226.07 95.7534,216.761 z" id="boundary" inkscape:connector-curvature="0" />
	<path style="fill:none;stroke:red;stroke-width:1px;stroke-linecap:butt;stroke-linejoin:miter;stroke-opacity:1" d="M 87.7748,457.448 98.4129,466.756 z" id="boundary" inkscape:connector-curvature="0" />
	<path style="fill:none;stroke:red;stroke-width:1px;stroke-linecap:butt;stroke-linejoin:miter;stroke-opacity:1" d="M 95.7534,216.761 105.062,206.123 z" id="boundary" inkscape:connector-curvature="0" />
	<path style="fill:none;stroke:red;stroke-width:1px;stroke-linecap:butt;stroke-linejoin:miter;stroke-opacity:1" d="M 98.4129,466.756 107.721,477.394 z" id="boundary" inkscape:connector-curvature="0" />
	<path style="fill:none;stroke:red;stroke-width:1px;stroke-linecap:butt;stroke-linejoin:miter;stroke-opacity:1" d="M 105.062,206.123 115.7,196.815 z" id="boundary" inkscape:connector-curvature="0" />
	<path style="fill:none;stroke:red;stroke-width:1px;stroke-linecap:butt;stroke-linejoin:miter;stroke-opacity:1" d="M 107.721,477.394 119.689,484.043 z" id="boundary" inkscape:connector-curvature="0" />
	<path style="fill:none;stroke:red;stroke-width:1px;stroke-linecap:butt;stroke-linejoin:miter;stroke-opacity:1" d="M 115.7,196.815 125.008,186.177 z" id="boundary" inkscape:connector-curvature="0" />
	<path style="fill:none;stroke:red;stroke-width:1px;stroke-linecap:butt;stroke-linejoin:miter;stroke-opacity:1" d="M 119.689,484.043 130.327,492.021 z" id="boundary" inkscape:connector-curvature="0" />
	<path style="fill:none;stroke:red;stroke-width:1px;stroke-linecap:butt;stroke-linejoin:miter;stroke-opacity:1" d="M 125.008,186.177 135.646,176.869 z" id="boundary" inkscape:connector-curvature="0" />
	<path style="fill:none;stroke:red;stroke-width:1px;stroke-linecap:butt;stroke-linejoin:miter;stroke-opacity:1" d="M 130.327,492.021 139.635,502.66 z" id="boundary" inkscape:connector-curvature="0" />
	<path style="fill:none;stroke:red;stroke-width:1px;stroke-linecap:butt;stroke-linejoin:miter;stroke-opacity:1" d="M 135.646,176.869 144.954,166.231 z" id="boundary" inkscape:connector-curvature="0" />
	<path style="fill:none;stroke:red;stroke-width:1px;stroke-linecap:butt;stroke-linejoin:miter;stroke-opacity:1" d="M 139.635,502.66 152.933,507.979 z" id="boundary" inkscape:connector-curvature="0" />
	<path style="fill:none;stroke:red;stroke-width:1px;stroke-linecap:butt;stroke-linejoin:miter;stroke-opacity:1" d="M 144.954,166.231 155.592,156.922 z" id="boundary" inkscape:connector-curvature="0" />
	<path style="fill:none;stroke:red;stroke-width:1px;stroke-linecap:butt;stroke-linejoin:miter;stroke-opacity:1" d="M 152.933,507.979 164.901,514.627 z" id="boundary" inkscape:connector-curvature="0" />
	<path style="fill:none;stroke:red;stroke-width:1px;stroke-linecap:butt;stroke-linejoin:miter;stroke-opacity:1" d="M 155.592,156.922 160.912,143.625 z" id="boundary" inkscape:connector-curvature="0" />
	<path style="fill:none;stroke:red;stroke-width:1px;stroke-linecap:butt;stroke-linejoin:miter;stroke-opacity:1" d="M 160.912,143.625 171.55,132.987 z" id="boundary" inkscape:connector-curvature="0" />
	<path style="fill:none;stroke:red;stroke-width:1px;stroke-linecap:butt;stroke-linejoin:miter;stroke-opacity:1" d="M 164.901,514.627 178.198,519.946 z" id="boundary" inkscape:connector-curvature="0" />
	<path style="fill:none;stroke:red;stroke-width:1px;stroke-linecap:butt;stroke-linejoin:miter;stroke-opacity:1" d="M 171.55,132.987 178.198,119.689 z" id="boundary" inkscape:connector-curvature="0" />
	<path style="fill:none;stroke:red;stroke-width:1px;stroke-linecap:butt;stroke-linejoin:miter;stroke-opacity:1" d="M 178.198,119.689 188.836,110.381 z" id="boundary" inkscape:connector-curvature="0" />
	<path style="fill:none;stroke:red;stroke-width:1px;stroke-linecap:butt;stroke-linejoin:miter;stroke-opacity:1" d="M 178.198,519.946 190.166,526.595 z" id="boundary" inkscape:connector-curvature="0" />
	<path style="fill:none;stroke:red;stroke-width:1px;stroke-linecap:butt;stroke-linejoin:miter;stroke-opacity:1" d="M 188.836,110.381 196.815,94.4236 z" id="boundary" inkscape:connector-curvature="0" />
	<path style="fill:none;stroke:red;stroke-width:1px;stroke-linecap:butt;stroke-linejoin:miter;stroke-opacity:1" d="M 190.166,526.595 203.464,530.584 z" id="boundary" inkscape:connector-curvature="0" />
	<path style="fill:none;stroke:red;stroke-width:1px;stroke-linecap:butt;stroke-linejoin:miter;stroke-opacity:1" d="M 196.815,94.4236 207.453,83.7855 z" id="boundary" inkscape:connector-curvature="0" />
	<path style="fill:none;stroke:red;stroke-width:1px;stroke-linecap:butt;stroke-linejoin:miter;stroke-opacity:1" d="M 203.464,530.584 211.442,541.223 z" id="boundary" inkscape:connector-curvature="0" />
	<path style="fill:none;stroke:red;stroke-width:1px;stroke-linecap:butt;stroke-linejoin:miter;stroke-opacity:1" d="M 207.453,83.7855 218.091,73.1475 z" id="boundary" inkscape:connector-curvature="0" />
	<path style="fill:none;stroke:red;stroke-width:1px;stroke-linecap:butt;stroke-linejoin:miter;stroke-opacity:1" d="M 211.442,541.223 218.091,553.19 z" id="boundary" inkscape:connector-curvature="0" />
	<path style="fill:none;stroke:red;stroke-width:1px;stroke-linecap:butt;stroke-linejoin:miter;stroke-opacity:1" d="M 218.091,73.1475 228.729,63.8391 z" id="boundary" inkscape:connector-curvature="0" />
	<path style="fill:none;stroke:red;stroke-width:1px;stroke-linecap:butt;stroke-linejoin:miter;stroke-opacity:1" d="M 218.091,553.19 223.41,566.488 z" id="boundary" inkscape:connector-curvature="0" />
	<path style="fill:none;stroke:red;stroke-width:1px;stroke-linecap:butt;stroke-linejoin:miter;stroke-opacity:1" d="M 223.41,566.488 230.059,578.456 z" id="boundary" inkscape:connector-curvature="0" />
	<path style="fill:none;stroke:red;stroke-width:1px;stroke-linecap:butt;stroke-linejoin:miter;stroke-opacity:1" d="M 228.729,63.8391 238.038,53.2011 z" id="boundary" inkscape:connector-curvature="0" />
	<path style="fill:none;stroke:red;stroke-width:1px;stroke-linecap:butt;stroke-linejoin:miter;stroke-opacity:1" d="M 230.059,578.456 230.059,591.753 z" id="boundary" inkscape:connector-curvature="0" />
	<path style="fill:none;stroke:red;stroke-width:1px;stroke-linecap:butt;stroke-linejoin:miter;stroke-opacity:1" d="M 230.059,591.753 243.357,597.072 z" id="boundary" inkscape:connector-curvature="0" />
	<path style="fill:none;stroke:red;stroke-width:1px;stroke-linecap:butt;stroke-linejoin:miter;stroke-opacity:1" d="M 238.038,53.2011 248.676,43.8928 z" id="boundary" inkscape:connector-curvature="0" />
	<path style="fill:none;stroke:red;stroke-width:1px;stroke-linecap:butt;stroke-linejoin:miter;stroke-opacity:1" d="M 243.357,597.072 255.324,603.721 z" id="boundary" inkscape:connector-curvature="0" />
	<path style="fill:none;stroke:red;stroke-width:1px;stroke-linecap:butt;stroke-linejoin:miter;stroke-opacity:1" d="M 248.676,43.8928 256.654,27.9357 z" id="boundary" inkscape:connector-curvature="0" />
	<path style="fill:none;stroke:red;stroke-width:1px;stroke-linecap:butt;stroke-linejoin:miter;stroke-opacity:1" d="M 255.324,603.721 268.622,603.721 z" id="boundary" inkscape:connector-curvature="0" />
	<path style="fill:none;stroke:red;stroke-width:1px;stroke-linecap:butt;stroke-linejoin:miter;stroke-opacity:1" d="M 256.654,27.9357 267.292,17.2976 z" id="boundary" inkscape:connector-curvature="0" />
	<path style="fill:none;stroke:red;stroke-width:1px;stroke-linecap:butt;stroke-linejoin:miter;stroke-opacity:1" d="M 267.292,17.2976 277.93,6.65952 z" id="boundary" inkscape:connector-curvature="0" />
	<path style="fill:none;stroke:red;stroke-width:1px;stroke-linecap:butt;stroke-linejoin:miter;stroke-opacity:1" d="M 268.622,603.721 269.952,617.019 z" id="boundary" inkscape:connector-curvature="0" />
	<path style="fill:none;stroke:red;stroke-width:1px;stroke-linecap:butt;stroke-linejoin:miter;stroke-opacity:1" d="M 269.952,617.019 269.952,630.316 z" id="boundary" inkscape:connector-curvature="0" />
	<path style="fill:none;stroke:red;stroke-width:1px;stroke-linecap:butt;stroke-linejoin:miter;stroke-opacity:1" d="M 269.952,630.316 276.601,642.284 z" id="boundary" inkscape:connector-curvature="0" />
	<path style="fill:none;stroke:red;stroke-width:1px;stroke-linecap:butt;stroke-linejoin:miter;stroke-opacity:1" d="M 276.601,642.284 276.601,655.582 z" id="boundary" inkscape:connector-curvature="0" />
	<path style="fill:none;stroke:red;stroke-width:1px;stroke-linecap:butt;stroke-linejoin:miter;stroke-opacity:1" d="M 276.601,655.582 276.601,668.879 z" id="boundary" inkscape:connector-curvature="0" />
	<path style="fill:none;stroke:red;stroke-width:1px;stroke-linecap:butt;stroke-linejoin:miter;stroke-opacity:1" d="M 276.601,668.879 276.601,682.177 z" id="boundary" inkscape:connector-curvature="0" />
	<path style="fill:none;stroke:red;stroke-width:1px;stroke-linecap:butt;stroke-linejoin:miter;stroke-opacity:1" d="M 276.601,682.177 276.601,695.475 z" id="boundary" inkscape:connector-curvature="0" />
	<path style="fill:none;stroke:red;stroke-width:1px;stroke-linecap:butt;stroke-linejoin:miter;stroke-opacity:1" d="M 276.601,695.475 279.26,708.772 z" id="boundary" inkscape:connector-curvature="0" />
	<path style="fill:none;stroke:red;stroke-width:1px;stroke-linecap:butt;stroke-linejoin:miter;stroke-opacity:1" d="M 277.93,6.65952 291.228,4 z" id="boundary" inkscape:connector-curvature="0" />
	<path style="fill:none;stroke:red;stroke-width:1px;stroke-linecap:butt;stroke-linejoin:miter;stroke-opacity:1" d="M 279.26,708.772 283.249,722.07 z" id="boundary" inkscape:connector-curvature="0" />
	<path style="fill:none;stroke:red;stroke-width:1px;stroke-linecap:butt;stroke-linejoin:miter;stroke-opacity:1" d="M 283.249,722.07 283.249,735.367 z" id="boundary" inkscape:connector-curvature="0" />
	<path style="fill:none;stroke:red;stroke-width:1px;stroke-linecap:butt;stroke-linejoin:miter;stroke-opacity:1" d="M 283.249,735.367 283.249,748.665 z" id="boundary" inkscape:connector-curvature="0" />
	<path style="fill:none;stroke:red;stroke-width:1px;stroke-linecap:butt;stroke-linejoin:miter;stroke-opacity:1" d="M 283.249,748.665 283.249,761.962 z" id="boundary" inkscape:connector-curvature="0" />
	<path style="fill:none;stroke:red;stroke-width:1px;stroke-linecap:butt;stroke-linejoin:miter;stroke-opacity:1" d="M 283.249,761.962 285.909,775.26 z" id="boundary" inkscape:connector-curvature="0" />
	<path style="fill:none;stroke:red;stroke-width:1px;stroke-linecap:butt;stroke-linejoin:miter;stroke-opacity:1" d="M 285.909,775.26 289.898,788.558 z" id="boundary" inkscape:connector-curvature="0" />
	<path style="fill:none;stroke:red;stroke-width:1px;stroke-linecap:butt;stroke-linejoin:miter;stroke-opacity:1" d="M 289.898,788.558 289.898,801.855 z" id="boundary" inkscape:connector-curvature="0" />
	<path style="fill:none;stroke:red;stroke-width:1px;stroke-linecap:butt;stroke-linejoin:miter;stroke-opacity:1" d="M 289.898,801.855 289.898,815.153 z" id="boundary" inkscape:connector-curvature="0" />
	<path style="fill:none;stroke:red;stroke-width:1px;stroke-linecap:butt;stroke-linejoin:miter;stroke-opacity:1" d="M 289.898,815.153 289.898,828.45 z" id="boundary" inkscape:connector-curvature="0" />
	<path style="fill:none;stroke:red;stroke-width:1px;stroke-linecap:butt;stroke-linejoin:miter;stroke-opacity:1" d="M 289.898,828.45 296.547,840.418 z" id="boundary" inkscape:connector-curvature="0" />
	<path style="fill:none;stroke:red;stroke-width:1px;stroke-linecap:butt;stroke-linejoin:miter;stroke-opacity:1" d="M 289.898,872.332 289.898,885.63 z" id="boundary" inkscape:connector-curvature="0" />
	<path style="fill:none;stroke:red;stroke-width:1px;stroke-linecap:butt;stroke-linejoin:miter;stroke-opacity:1" d="M 289.898,872.332 296.547,853.716 z" id="boundary" inkscape:connector-curvature="0" />
	<path style="fill:none;stroke:red;stroke-width:1px;stroke-linecap:butt;stroke-linejoin:miter;stroke-opacity:1" d="M 289.898,885.63 289.898,898.928 z" id="boundary" inkscape:connector-curvature="0" />
	<path style="fill:none;stroke:red;stroke-width:1px;stroke-linecap:butt;stroke-linejoin:miter;stroke-opacity:1" d="M 289.898,898.928 289.898,912.225 z" id="boundary" inkscape:connector-curvature="0" />
	<path style="fill:none;stroke:red;stroke-width:1px;stroke-linecap:butt;stroke-linejoin:miter;stroke-opacity:1" d="M 289.898,912.225 296.547,924.193 z" id="boundary" inkscape:connector-curvature="0" />
	<path style="fill:none;stroke:red;stroke-width:1px;stroke-linecap:butt;stroke-linejoin:miter;stroke-opacity:1" d="M 291.228,4 301.866,11.9786 z" id="boundary" inkscape:connector-curvature="0" />
	<path style="fill:none;stroke:red;stroke-width:1px;stroke-linecap:butt;stroke-linejoin:miter;stroke-opacity:1" d="M 296.547,840.418 296.547,853.716 z" id="boundary" inkscape:connector-curvature="0" />
	<path style="fill:none;stroke:red;stroke-width:1px;stroke-linecap:butt;stroke-linejoin:miter;stroke-opacity:1" d="M 296.547,924.193 296.547,937.491 z" id="boundary" inkscape:connector-curvature="0" />
	<path style="fill:none;stroke:red;stroke-width:1px;stroke-linecap:butt;stroke-linejoin:miter;stroke-opacity:1" d="M 296.547,937.491 296.547,950.788 z" id="boundary" inkscape:connector-curvature="0" />
	<path style="fill:none;stroke:red;stroke-width:1px;stroke-linecap:butt;stroke-linejoin:miter;stroke-opacity:1" d="M 296.547,950.788 296.547,964.086 z" id="boundary" inkscape:connector-curvature="0" />
	<path style="fill:none;stroke:red;stroke-width:1px;stroke-linecap:butt;stroke-linejoin:miter;stroke-opacity:1" d="M 296.547,964.086 303.196,976.054 z" id="boundary" inkscape:connector-curvature="0" />
	<path style="fill:none;stroke:red;stroke-width:1px;stroke-linecap:butt;stroke-linejoin:miter;stroke-opacity:1" d="M 301.866,11.9786 311.174,22.6166 z" id="boundary" inkscape:connector-curvature="0" />
	<path style="fill:none;stroke:red;stroke-width:1px;stroke-linecap:butt;stroke-linejoin:miter;stroke-opacity:1" d="M 303.196,976.054 309.845,988.021 z" id="boundary" inkscape:connector-curvature="0" />
	<path style="fill:none;stroke:red;stroke-width:1px;stroke-linecap:butt;stroke-linejoin:miter;stroke-opacity:1" d="M 309.845,988.021 320.483,996 z" id="boundary" inkscape:connector-curvature="0" />
	<path style="fill:none;stroke:red;stroke-width:1px;stroke-linecap:butt;stroke-linejoin:miter;stroke-opacity:1" d="M 311.174,22.6166 321.812,31.9249 z" id="boundary" inkscape:connector-curvature="0" />
	<path style="fill:none;stroke:red;stroke-width:1px;stroke-linecap:butt;stroke-linejoin:miter;stroke-opacity:1" d="M 320.483,996 324.472,982.702 z" id="boundary" inkscape:connector-curvature="0" />
	<path style="fill:none;stroke:red;stroke-width:1px;stroke-linecap:butt;stroke-linejoin:miter;stroke-opacity:1" d="M 321.812,31.9249 331.121,42.563 z" id="boundary" inkscape:connector-curvature="0" />
	<path style="fill:none;stroke:red;stroke-width:1px;stroke-linecap:butt;stroke-linejoin:miter;stroke-opacity:1" d="M 324.472,636.965 324.472,650.263 z" id="boundary" inkscape:connector-curvature="0" />
	<path style="fill:none;stroke:red;stroke-width:1px;stroke-linecap:butt;stroke-linejoin:miter;stroke-opacity:1" d="M 324.472,636.965 331.121,617.019 z" id="boundary" inkscape:connector-curvature="0" />
	<path style="fill:none;stroke:red;stroke-width:1px;stroke-linecap:butt;stroke-linejoin:miter;stroke-opacity:1" d="M 324.472,650.263 324.472,663.56 z" id="boundary" inkscape:connector-curvature="0" />
	<path style="fill:none;stroke:red;stroke-width:1px;stroke-linecap:butt;stroke-linejoin:miter;stroke-opacity:1" d="M 324.472,663.56 324.472,676.858 z" id="boundary" inkscape:connector-curvature="0" />
	<path style="fill:none;stroke:red;stroke-width:1px;stroke-linecap:butt;stroke-linejoin:miter;stroke-opacity:1" d="M 324.472,676.858 324.472,690.155 z" id="boundary" inkscape:connector-curvature="0" />
	<path style="fill:none;stroke:red;stroke-width:1px;stroke-linecap:butt;stroke-linejoin:miter;stroke-opacity:1" d="M 324.472,690.155 324.472,703.453 z" id="boundary" inkscape:connector-curvature="0" />
	<path style="fill:none;stroke:red;stroke-width:1px;stroke-linecap:butt;stroke-linejoin:miter;stroke-opacity:1" d="M 324.472,703.453 324.472,716.751 z" id="boundary" inkscape:connector-curvature="0" />
	<path style="fill:none;stroke:red;stroke-width:1px;stroke-linecap:butt;stroke-linejoin:miter;stroke-opacity:1" d="M 324.472,716.751 324.472,730.048 z" id="boundary" inkscape:connector-curvature="0" />
	<path style="fill:none;stroke:red;stroke-width:1px;stroke-linecap:butt;stroke-linejoin:miter;stroke-opacity:1" d="M 324.472,730.048 324.472,743.346 z" id="boundary" inkscape:connector-curvature="0" />
	<path style="fill:none;stroke:red;stroke-width:1px;stroke-linecap:butt;stroke-linejoin:miter;stroke-opacity:1" d="M 324.472,743.346 324.472,756.643 z" id="boundary" inkscape:connector-curvature="0" />
	<path style="fill:none;stroke:red;stroke-width:1px;stroke-linecap:butt;stroke-linejoin:miter;stroke-opacity:1" d="M 324.472,756.643 324.472,769.941 z" id="boundary" inkscape:connector-curvature="0" />
	<path style="fill:none;stroke:red;stroke-width:1px;stroke-linecap:butt;stroke-linejoin:miter;stroke-opacity:1" d="M 324.472,769.941 324.472,783.239 z" id="boundary" inkscape:connector-curvature="0" />
	<path style="fill:none;stroke:red;stroke-width:1px;stroke-linecap:butt;stroke-linejoin:miter;stroke-opacity:1" d="M 324.472,783.239 324.472,796.536 z" id="boundary" inkscape:connector-curvature="0" />
	<path style="fill:none;stroke:red;stroke-width:1px;stroke-linecap:butt;stroke-linejoin:miter;stroke-opacity:1" d="M 324.472,796.536 324.472,809.834 z" id="boundary" inkscape:connector-curvature="0" />
	<path style="fill:none;stroke:red;stroke-width:1px;stroke-linecap:butt;stroke-linejoin:miter;stroke-opacity:1" d="M 324.472,809.834 324.472,823.131 z" id="boundary" inkscape:connector-curvature="0" />
	<path style="fill:none;stroke:red;stroke-width:1px;stroke-linecap:butt;stroke-linejoin:miter;stroke-opacity:1" d="M 324.472,823.131 324.472,836.429 z" id="boundary" inkscape:connector-curvature="0" />
	<path style="fill:none;stroke:red;stroke-width:1px;stroke-linecap:butt;stroke-linejoin:miter;stroke-opacity:1" d="M 324.472,836.429 324.472,849.727 z" id="boundary" inkscape:connector-curvature="0" />
	<path style="fill:none;stroke:red;stroke-width:1px;stroke-linecap:butt;stroke-linejoin:miter;stroke-opacity:1" d="M 324.472,849.727 324.472,863.024 z" id="boundary" inkscape:connector-curvature="0" />
	<path style="fill:none;stroke:red;stroke-width:1px;stroke-linecap:butt;stroke-linejoin:miter;stroke-opacity:1" d="M 324.472,863.024 324.472,876.322 z" id="boundary" inkscape:connector-curvature="0" />
	<path style="fill:none;stroke:red;stroke-width:1px;stroke-linecap:butt;stroke-linejoin:miter;stroke-opacity:1" d="M 324.472,876.322 324.472,889.619 z" id="boundary" inkscape:connector-curvature="0" />
	<path style="fill:none;stroke:red;stroke-width:1px;stroke-linecap:butt;stroke-linejoin:miter;stroke-opacity:1" d="M 324.472,889.619 324.472,902.917 z" id="boundary" inkscape:connector-curvature="0" />
	<path style="fill:none;stroke:red;stroke-width:1px;stroke-linecap:butt;stroke-linejoin:miter;stroke-opacity:1" d="M 324.472,902.917 327.131,916.214 z" id="boundary" inkscape:connector-curvature="0" />
	<path style="fill:none;stroke:red;stroke-width:1px;stroke-linecap:butt;stroke-linejoin:miter;stroke-opacity:1" d="M 324.472,969.405 324.472,982.702 z" id="boundary" inkscape:connector-curvature="0" />
	<path style="fill:none;stroke:red;stroke-width:1px;stroke-linecap:butt;stroke-linejoin:miter;stroke-opacity:1" d="M 324.472,969.405 331.121,956.107 z" id="boundary" inkscape:connector-curvature="0" />
	<path style="fill:none;stroke:red;stroke-width:1px;stroke-linecap:butt;stroke-linejoin:miter;stroke-opacity:1" d="M 327.131,916.214 331.121,929.512 z" id="boundary" inkscape:connector-curvature="0" />
	<path style="fill:none;stroke:red;stroke-width:1px;stroke-linecap:butt;stroke-linejoin:miter;stroke-opacity:1" d="M 331.121,42.563 341.759,51.8713 z" id="boundary" inkscape:connector-curvature="0" />
	<path style="fill:none;stroke:red;stroke-width:1px;stroke-linecap:butt;stroke-linejoin:miter;stroke-opacity:1" d="M 331.121,617.019 341.759,607.71 z" id="boundary" inkscape:connector-curvature="0" />
	<path style="fill:none;stroke:red;stroke-width:1px;stroke-linecap:butt;stroke-linejoin:miter;stroke-opacity:1" d="M 331.121,929.512 331.121,942.81 z" id="boundary" inkscape:connector-curvature="0" />
	<path style="fill:none;stroke:red;stroke-width:1px;stroke-linecap:butt;stroke-linejoin:miter;stroke-opacity:1" d="M 331.121,942.81 331.121,956.107 z" id="boundary" inkscape:connector-curvature="0" />
	<path style="fill:none;stroke:red;stroke-width:1px;stroke-linecap:butt;stroke-linejoin:miter;stroke-opacity:1" d="M 341.759,51.8713 353.727,58.5201 z" id="boundary" inkscape:connector-curvature="0" />
	<path style="fill:none;stroke:red;stroke-width:1px;stroke-linecap:butt;stroke-linejoin:miter;stroke-opacity:1" d="M 341.759,607.71 351.067,597.072 z" id="boundary" inkscape:connector-curvature="0" />
	<path style="fill:none;stroke:red;stroke-width:1px;stroke-linecap:butt;stroke-linejoin:miter;stroke-opacity:1" d="M 351.067,597.072 357.716,583.775 z" id="boundary" inkscape:connector-curvature="0" />
	<path style="fill:none;stroke:red;stroke-width:1px;stroke-linecap:butt;stroke-linejoin:miter;stroke-opacity:1" d="M 353.727,58.5201 360.375,70.4879 z" id="boundary" inkscape:connector-curvature="0" />
	<path style="fill:none;stroke:red;stroke-width:1px;stroke-linecap:butt;stroke-linejoin:miter;stroke-opacity:1" d="M 357.716,583.775 364.365,570.477 z" id="boundary" inkscape:connector-curvature="0" />
	<path style="fill:none;stroke:red;stroke-width:1px;stroke-linecap:butt;stroke-linejoin:miter;stroke-opacity:1" d="M 360.375,70.4879 369.684,81.126 z" id="boundary" inkscape:connector-curvature="0" />
	<path style="fill:none;stroke:red;stroke-width:1px;stroke-linecap:butt;stroke-linejoin:miter;stroke-opacity:1" d="M 364.365,570.477 371.013,557.18 z" id="boundary" inkscape:connector-curvature="0" />
	<path style="fill:none;stroke:red;stroke-width:1px;stroke-linecap:butt;stroke-linejoin:miter;stroke-opacity:1" d="M 369.684,81.126 380.322,90.4343 z" id="boundary" inkscape:connector-curvature="0" />
	<path style="fill:none;stroke:red;stroke-width:1px;stroke-linecap:butt;stroke-linejoin:miter;stroke-opacity:1" d="M 371.013,557.18 377.662,537.233 z" id="boundary" inkscape:connector-curvature="0" />
	<path style="fill:none;stroke:red;stroke-width:1px;stroke-linecap:butt;stroke-linejoin:miter;stroke-opacity:1" d="M 377.662,537.233 388.3,527.925 z" id="boundary" inkscape:connector-curvature="0" />
	<path style="fill:none;stroke:red;stroke-width:1px;stroke-linecap:butt;stroke-linejoin:miter;stroke-opacity:1" d="M 380.322,90.4343 389.63,101.072 z" id="boundary" inkscape:connector-curvature="0" />
	<path style="fill:none;stroke:red;stroke-width:1px;stroke-linecap:butt;stroke-linejoin:miter;stroke-opacity:1" d="M 388.3,527.925 397.609,517.287 z" id="boundary" inkscape:connector-curvature="0" />
	<path style="fill:none;stroke:red;stroke-width:1px;stroke-linecap:butt;stroke-linejoin:miter;stroke-opacity:1" d="M 389.63,101.072 397.609,111.71 z" id="boundary" inkscape:connector-curvature="0" />
	<path style="fill:none;stroke:red;stroke-width:1px;stroke-linecap:butt;stroke-linejoin:miter;stroke-opacity:1" d="M 397.609,111.71 404.257,123.678 z" id="boundary" inkscape:connector-curvature="0" />
	<path style="fill:none;stroke:red;stroke-width:1px;stroke-linecap:butt;stroke-linejoin:miter;stroke-opacity:1" d="M 397.609,517.287 410.906,517.287 z" id="boundary" inkscape:connector-curvature="0" />
	<path style="fill:none;stroke:red;stroke-width:1px;stroke-linecap:butt;stroke-linejoin:miter;stroke-opacity:1" d="M 404.257,123.678 416.225,130.327 z" id="boundary" inkscape:connector-curvature="0" />
	<path style="fill:none;stroke:red;stroke-width:1px;stroke-linecap:butt;stroke-linejoin:miter;stroke-opacity:1" d="M 410.906,517.287 422.874,510.638 z" id="boundary" inkscape:connector-curvature="0" />
	<path style="fill:none;stroke:red;stroke-width:1px;stroke-linecap:butt;stroke-linejoin:miter;stroke-opacity:1" d="M 416.225,130.327 424.204,140.965 z" id="boundary" inkscape:connector-curvature="0" />
	<path style="fill:none;stroke:red;stroke-width:1px;stroke-linecap:butt;stroke-linejoin:miter;stroke-opacity:1" d="M 422.874,510.638 434.842,503.989 z" id="boundary" inkscape:connector-curvature="0" />
	<path style="fill:none;stroke:red;stroke-width:1px;stroke-linecap:butt;stroke-linejoin:miter;stroke-opacity:1" d="M 424.204,140.965 433.512,151.603 z" id="boundary" inkscape:connector-curvature="0" />
	<path style="fill:none;stroke:red;stroke-width:1px;stroke-linecap:butt;stroke-linejoin:miter;stroke-opacity:1" d="M 433.512,151.603 444.15,160.912 z" id="boundary" inkscape:connector-curvature="0" />
	<path style="fill:none;stroke:red;stroke-width:1px;stroke-linecap:butt;stroke-linejoin:miter;stroke-opacity:1" d="M 434.842,503.989 446.81,497.34 z" id="boundary" inkscape:connector-curvature="0" />
	<path style="fill:none;stroke:red;stroke-width:1px;stroke-linecap:butt;stroke-linejoin:miter;stroke-opacity:1" d="M 444.15,160.912 453.458,171.55 z" id="boundary" inkscape:connector-curvature="0" />
	<path style="fill:none;stroke:red;stroke-width:1px;stroke-linecap:butt;stroke-linejoin:miter;stroke-opacity:1" d="M 446.81,497.34 458.777,490.692 z" id="boundary" inkscape:connector-curvature="0" />
	<path style="fill:none;stroke:red;stroke-width:1px;stroke-linecap:butt;stroke-linejoin:miter;stroke-opacity:1" d="M 453.458,171.55 464.097,180.858 z" id="boundary" inkscape:connector-curvature="0" />
	<path style="fill:none;stroke:red;stroke-width:1px;stroke-linecap:butt;stroke-linejoin:miter;stroke-opacity:1" d="M 458.777,490.692 469.416,480.054 z" id="boundary" inkscape:connector-curvature="0" />
	<path style="fill:none;stroke:red;stroke-width:1px;stroke-linecap:butt;stroke-linejoin:miter;stroke-opacity:1" d="M 464.097,180.858 476.064,187.507 z" id="boundary" inkscape:connector-curvature="0" />
	<path style="fill:none;stroke:red;stroke-width:1px;stroke-linecap:butt;stroke-linejoin:miter;stroke-opacity:1" d="M 469.416,480.054 482.713,473.405 z" id="boundary" inkscape:connector-curvature="0" />
	<path style="fill:none;stroke:red;stroke-width:1px;stroke-linecap:butt;stroke-linejoin:miter;stroke-opacity:1" d="M 476.064,187.507 486.702,196.815 z" id="boundary" inkscape:connector-curvature="0" />
	<path style="fill:none;stroke:red;stroke-width:1px;stroke-linecap:butt;stroke-linejoin:miter;stroke-opacity:1" d="M 482.713,473.405 493.351,462.767 z" id="boundary" inkscape:connector-curvature="0" />
	<path style="fill:none;stroke:red;stroke-width:1px;stroke-linecap:butt;stroke-linejoin:miter;stroke-opacity:1" d="M 486.702,196.815 496.011,207.453 z" id="boundary" inkscape:connector-curvature="0" />
	<path style="fill:none;stroke:red;stroke-width:1px;stroke-linecap:butt;stroke-linejoin:miter;stroke-opacity:1" d="M 493.351,462.767 503.989,450.799 z" id="boundary" inkscape:connector-curvature="0" />
	<path style="fill:none;stroke:red;stroke-width:1px;stroke-linecap:butt;stroke-linejoin:miter;stroke-opacity:1" d="M 496.011,207.453 506.649,216.761 z" id="boundary" inkscape:connector-curvature="0" />
	<path style="fill:none;stroke:red;stroke-width:1px;stroke-linecap:butt;stroke-linejoin:miter;stroke-opacity:1" d="M 503.989,450.799 514.627,441.491 z" id="boundary" inkscape:connector-curvature="0" />
	<path style="fill:none;stroke:red;stroke-width:1px;stroke-linecap:butt;stroke-linejoin:miter;stroke-opacity:1" d="M 506.649,216.761 515.957,227.399 z" id="boundary" inkscape:connector-curvature="0" />
	<path style="fill:none;stroke:red;stroke-width:1px;stroke-linecap:butt;stroke-linejoin:miter;stroke-opacity:1" d="M 514.627,441.491 522.606,430.853 z" id="boundary" inkscape:connector-curvature="0" />
	<path style="fill:none;stroke:red;stroke-width:1px;stroke-linecap:butt;stroke-linejoin:miter;stroke-opacity:1" d="M 515.957,227.399 526.595,236.708 z" id="boundary" inkscape:connector-curvature="0" />
	<path style="fill:none;stroke:red;stroke-width:1px;stroke-linecap:butt;stroke-linejoin:miter;stroke-opacity:1" d="M 522.606,430.853 533.244,422.874 z" id="boundary" inkscape:connector-curvature="0" />
	<path style="fill:none;stroke:red;stroke-width:1px;stroke-linecap:butt;stroke-linejoin:miter;stroke-opacity:1" d="M 526.595,236.708 535.903,247.346 z" id="boundary" inkscape:connector-curvature="0" />
	<path style="fill:none;stroke:red;stroke-width:1px;stroke-linecap:butt;stroke-linejoin:miter;stroke-opacity:1" d="M 533.244,422.874 543.882,404.257 z" id="boundary" inkscape:connector-curvature="0" />
	<path style="fill:none;stroke:red;stroke-width:1px;stroke-linecap:butt;stroke-linejoin:miter;stroke-opacity:1" d="M 535.903,247.346 546.542,256.654 z" id="boundary" inkscape:connector-curvature="0" />
	<path style="fill:none;stroke:red;stroke-width:1px;stroke-linecap:butt;stroke-linejoin:miter;stroke-opacity:1" d="M 543.882,404.257 554.52,394.949 z" id="boundary" inkscape:connector-curvature="0" />
	<path style="fill:none;stroke:red;stroke-width:1px;stroke-linecap:butt;stroke-linejoin:miter;stroke-opacity:1" d="M 546.542,256.654 555.85,267.292 z" id="boundary" inkscape:connector-curvature="0" />
	<path style="fill:none;stroke:red;stroke-width:1px;stroke-linecap:butt;stroke-linejoin:miter;stroke-opacity:1" d="M 554.52,394.949 563.828,384.311 z" id="boundary" inkscape:connector-curvature="0" />
	<path style="fill:none;stroke:red;stroke-width:1px;stroke-linecap:butt;stroke-linejoin:miter;stroke-opacity:1" d="M 555.85,267.292 563.828,277.93 z" id="boundary" inkscape:connector-curvature="0" />
	<path style="fill:none;stroke:red;stroke-width:1px;stroke-linecap:butt;stroke-linejoin:miter;stroke-opacity:1" d="M 563.828,277.93 570.477,289.898 z" id="boundary" inkscape:connector-curvature="0" />
	<path style="fill:none;stroke:red;stroke-width:1px;stroke-linecap:butt;stroke-linejoin:miter;stroke-opacity:1" d="M 563.828,384.311 570.477,371.013 z" id="boundary" inkscape:connector-curvature="0" />
	<path style="fill:none;stroke:red;stroke-width:1px;stroke-linecap:butt;stroke-linejoin:miter;stroke-opacity:1" d="M 570.477,289.898 577.126,301.866 z" id="boundary" inkscape:connector-curvature="0" />
	<path style="fill:none;stroke:red;stroke-width:1px;stroke-linecap:butt;stroke-linejoin:miter;stroke-opacity:1" d="M 570.477,371.013 581.115,361.705 z" id="boundary" inkscape:connector-curvature="0" />
	<path style="fill:none;stroke:red;stroke-width:1px;stroke-linecap:butt;stroke-linejoin:miter;stroke-opacity:1" d="M 577.126,301.866 583.775,313.834 z" id="boundary" inkscape:connector-curvature="0" />
	<path style="fill:none;stroke:red;stroke-width:1px;stroke-linecap:butt;stroke-linejoin:miter;stroke-opacity:1" d="M 581.115,361.705 583.775,340.429 z" id="boundary" inkscape:connector-curvature="0" />
	<path style="fill:none;stroke:red;stroke-width:1px;stroke-linecap:butt;stroke-linejoin:miter;stroke-opacity:1" d="M 583.775,313.834 583.775,327.131 z" id="boundary" inkscape:connector-curvature="0" />
	<path style="fill:none;stroke:red;stroke-width:1px;stroke-linecap:butt;stroke-linejoin:miter;stroke-opacity:1" d="M 583.775,327.131 583.775,340.429 z" id="boundary" inkscape:connector-curvature="0" />
	<circle cx="4" cy="327.131" r="4" fill="#0" id="circle0"/>
	<circle cx="4" cy="340.429" r="4" fill="#0" id="circle1"/>
	<circle cx="4" cy="353.727" r="4" fill="#0" id="circle2"/>
	<circle cx="4" cy="367.024" r="4" fill="#0" id="circle3"/>
	<circle cx="10.6488" cy="313.834" r="4" fill="#0" id="circle4"/>
	<circle cx="10.6488" cy="378.992" r="4" fill="#0" id="circle5"/>
	<circle cx="17.2976" cy="300.536" r="4" fill="#0" id="circle6"/>
	<circle cx="17.2976" cy="390.96" r="4" fill="#0" id="circle7"/>
	<circle cx="23.9464" cy="287.239" r="4" fill="#0" id="circle8"/>
	<circle cx="25.2761" cy="401.598" r="4" fill="#0" id="circle9"/>
	<circle cx="34.5845" cy="276.601" r="4" fill="#0" id="circle10"/>
	<circle cx="35.9142" cy="410.906" r="4" fill="#0" id="circle11"/>
	<circle cx="45.2225" cy="265.962" r="4" fill="#0" id="circle12"/>
	<circle cx="45.2225" cy="421.544" r="4" fill="#0" id="circle13"/>
	<circle cx="55.8606" cy="256.654" r="4" fill="#0" id="circle14"/>
	<circle cx="55.8606" cy="430.853" r="4" fill="#0" id="circle15"/>
	<circle cx="65.1689" cy="246.016" r="4" fill="#0" id="circle16"/>
	<circle cx="67.8284" cy="437.501" r="4" fill="#0" id="circle17"/>
	<circle cx="71.8177" cy="232.718" r="4" fill="#0" id="circle18"/>
	<circle cx="78.4665" cy="446.81" r="4" fill="#0" id="circle19"/>
	<circle cx="85.1153" cy="226.07" r="4" fill="#0" id="circle20"/>
	<circle cx="87.7748" cy="457.448" r="4" fill="#0" id="circle21"/>
	<circle cx="95.7534" cy="216.761" r="4" fill="#0" id="circle22"/>
	<circle cx="98.4129" cy="466.756" r="4" fill="#0" id="circle23"/>
	<circle cx="105.062" cy="206.123" r="4" fill="#0" id="circle24"/>
	<circle cx="107.721" cy="477.394" r="4" fill="#0" id="circle25"/>
	<circle cx="115.7" cy="196.815" r="4" fill="#0" id="circle26"/>
	<circle cx="119.689" cy="484.043" r="4" fill="#0" id="circle27"/>
	<circle cx="125.008" cy="186.177" r="4" fill="#0" id="circle28"/>
	<circle cx="130.327" cy="492.021" r="4" fill="#0" id="circle29"/>
	<circle cx="135.646" cy="176.869" r="4" fill="#0" id="circle30"/>
	<circle cx="139.635" cy="502.66" r="4" fill="#0" id="circle31"/>
	<circle cx="144.954" cy="166.231" r="4" fill="#0" id="circle32"/>
	<circle cx="152.933" cy="507.979" r="4" fill="#0" id="circle33"/>
	<circle cx="155.592" cy="156.922" r="4" fill="#0" id="circle34"/>
	<circle cx="160.912" cy="143.625" r="4" fill="#0" id="circle35"/>
	<circle cx="164.901" cy="514.627" r="4" fill="#0" id="circle36"/>
	<circle cx="171.55" cy="132.987" r="4" fill="#0" id="circle37"/>
	<circle cx="178.198" cy="119.689" r="4" fill="#0" id="circle38"/>
	<circle cx="178.198" cy="519.946" r="4" fill="#0" id="circle39"/>
	<circle cx="188.836" cy="110.381" r="4" fill="#0" id="circle40"/>
	<circle cx="190.166" cy="526.595" r="4" fill="#0" id="circle41"/>
	<circle cx="196.815" cy="94.4236" r="4" fill="#0" id="circle42"/>
	<circle cx="203.464" cy="530.584" r="4" fill="#0" id="circle43"/>
	<circle cx="207.453" cy="83.7855" r="4" fill="#0" id="circle44"/>
	<circle cx="211.442" cy="541.223" r="4" fill="#0" id="circle45"/>
	<circle cx="218.091" cy="73.1475" r="4" fill="#0" id="circle46"/>
	<circle cx="218.091" cy="553.19" r="4" fill="#0" id="circle47"/>
	<circle cx="223.41" cy="566.488" r="4" fill="#0" id="circle48"/>
	<circle cx="228.729" cy="63.8391" r="4" fill="#0" id="circle49"/>
	<circle cx="230.059" cy="578.456" r="4" fill="#0" id="circle50"/>
	<circle cx="230.059" cy="591.753" r="4" fill="#0" id="circle51"/>
	<circle cx="238.038" cy="53.2011" r="4" fill="#0" id="circle52"/>
	<circle cx="243.357" cy="597.072" r="4" fill="#0" id="circle53"/>
	<circle cx="248.676" cy="43.8928" r="4" fill="#0" id="circle54"/>
	<circle cx="255.324" cy="603.721" r="4" fill="#0" id="circle55"/>
	<circle cx="256.654" cy="27.9357" r="4" fill="#0" id="circle56"/>
	<circle cx="267.292" cy="17.2976" r="4" fill="#0" id="circle57"/>
	<circle cx="268.622" cy="603.721" r="4" fill="#0" id="circle58"/>
	<circle cx="269.952" cy="617.019" r="4" fill="#0" id="circle59"/>
	<circle cx="269.952" cy="630.316" r="4" fill="#0" id="circle60"/>
	<circle cx="276.601" cy="642.284" r="4" fill="#0" id="circle61"/>
	<circle cx="276.601" cy="655.582" r="4" fill="#0" id="circle62"/>
	<circle cx="276.601" cy="668.879" r="4" fill="#0" id="circle63"/>
	<circle cx="276.601" cy="682.177" r="4" fill="#0" id="circle64"/>
	<circle cx="276.601" cy="695.475" r="4" fill="#0" id="circle65"/>
	<circle cx="277.93" cy="6.65952" r="4" fill="#0" id="circle66"/>
	<circle cx="279.26" cy="708.772" r="4" fill="#0" id="circle67"/>
	<circle cx="283.249" cy="722.07" r="4" fill="#0" id="circle68"/>
	<circle cx="283.249" cy="735.367" r="4" fill="#0" id="circle69"/>
	<circle cx="283.249" cy="748.665" r="4" fill="#0" id="circle70"/>
	<circle cx="283.249" cy="761.962" r="4" fill="#0" id="circle71"/>
	<circle cx="285.909" cy="775.26" r="4" fill="#0" id="circle72"/>
	<circle cx="289.898" cy="788.558" r="4" fill="#0" id="circle73"/>
	<circle cx="289.898" cy="801.855" r="4" fill="#0" id="circle74"/>
	<circle cx="289.898" cy="815.153" r="4" fill="#0" id="circle75"/>
	<circle cx="289.898" cy="828.45" r="4" fill="#0" id="circle76"/>
	<circle cx="289.898" cy="872.332" r="4" fill="#0" id="circle77"/>
	<circle cx="289.898" cy="885.63" r="4" fill="#0" id="circle78"/>
	<circle cx="289.898" cy="898.928" r="4" fill="#0" id="circle79"/>
	<circle cx="289.898" cy="912.225" r="4" fill="#0" id="circle80"/>
	<circle cx="291.228" cy="4" r="4" fill="#0" id="circle81"/>
	<circle cx="296.547" cy="840.418" r="4" fill="#0" id="circle82"/>
	<circle cx="296.547" cy="853.716" r="4" fill="#0" id="circle83"/>
	<circle cx="296.547" cy="924.193" r="4" fill="#0" id="circle84"/>
	<circle cx="296.547" cy="937.491" r="4" fill="#0" id="circle85"/>
	<circle cx="296.547" cy="950.788" r="4" fill="#0" id="circle86"/>
	<circle cx="296.547" cy="964.086" r="4" fill="#0" id="circle87"/>
	<circle cx="301.866" cy="11.9786" r="4" fill="#0" id="circle88"/>
	<circle cx="303.196" cy="976.054" r="4" fill="#0" id="circle89"/>
	<circle cx="309.845" cy="988.021" r="4" fill="#0" id="circle90"/>
	<circle cx="311.174" cy="22.6166" r="4" fill="#0" id="circle91"/>
	<circle cx="320.483" cy="996" r="4" fill="#0" id="circle92"/>
	<circle cx="321.812" cy="31.9249" r="4" fill="#0" id="circle93"/>
	<circle cx="324.472" cy="636.965" r="4" fill="#0" id="circle94"/>
	<circle cx="324.472" cy="650.263" r="4" fill="#0" id="circle95"/>
	<circle cx="324.472" cy="663.56" r="4" fill="#0" id="circle96"/>
	<circle cx="324.472" cy="676.858" r="4" fill="#0" id="circle97"/>
	<circle cx="324.472" cy="690.155" r="4" fill="#0" id="circle98"/>
	<circle cx="324.472" cy="703.453" r="4" fill="#0" id="circle99"/>
	<circle cx="324.472" cy="716.751" r="4" fill="#0" id="circle100"/>
	<circle cx="324.472" cy="730.048" r="4" fill="#0" id="circle101"/>
	<circle cx="324.472" cy="743.346" r="4" fill="#0" id="circle102"/>
	<circle cx="324.472" cy="756.643" r="4" fill="#0" id="circle103"/>
	<circle cx="324.472" cy="769.941" r="4" fill="#0" id="circle104"/>
	<circle cx="324.472" cy="783.239" r="4" fill="#0" id="circle105"/>
	<circle cx="324.472" cy="796.536" r="4" fill="#0" id="circle106"/>
	<circle cx="324.472" cy="809.834" r="4" fill="#0" id="circle107"/>
	<circle cx="324.472" cy="823.131" r="4" fill="#0" id="circle108"/>
	<circle cx="324.472" cy="836.429" r="4" fill="#0" id="circle109"/>
	<circle cx="324.472" cy="849.727" r="4" fill="#0" id="circle110"/>
	<circle cx="324.472" cy="863.024" r="4" fill="#0" id="circle111"/>
	<circle cx="324.472" cy="876.322" r="4" fill="#0" id="circle112"/>
	<circle cx="324.472" cy="889.619" r="4" fill="#0" id="circle113"/>
	<circle cx="324.472" cy="902.917" r="4" fill="#0" id="circle114"/>
	<circle cx="324.472" cy="969.405" r="4" fill="#0" id="circle115"/>
	<circle cx="324.472" cy="982.702" r="4" fill="#0" id="circle116"/>
	<circle cx="327.131" cy="916.214" r="4" fill="#0" id="circle117"/>
	<circle cx="331.121" cy="42.563" r="4" fill="#0" id="circle118"/>
	<circle cx="331.121" cy="617.019" r="4" fill="#0" id="circle119"/>
	<circle cx="331.121" cy="929.512" r="4" fill="#0" id="circle120"/>
	<circle cx="331.121" cy="942.81" r="4" fill="#0" id="circle121"/>
	<circle cx="331.121" cy="956.107" r="4" fill="#0" id="circle122"/>
	<circle cx="341.759" cy="51.8713" r="4" fill="#0" id="circle123"/>
	<circle cx="341.759" cy="607.71" r="4" fill="#0" id="circle124"/>
	<circle cx="351.067" cy="597.072" r="4" fill="#0" id="circle125"/>
	<circle cx="353.727" cy="58.5201" r="4" fill="#0" id="circle126"/>
	<circle cx="357.716" cy="583.775" r="4" fill="#0" id="circle127"/>
	<circle cx="360.375" cy="70.4879" r="4" fill="#0" id="circle128"/>
	<circle cx="364.365" cy="570.477" r="4" fill="#0" id="circle129"/>
	<circle cx="369.684" cy="81.126" r="4" fill="#0" id="circle130"/>
	<circle cx="371.013" cy="557.18" r="4" fill="#0" id="circle131"/>
	<circle cx="377.662" cy="537.233" r="4" fill="#0" id="circle132"/>
	<circle cx="380.322" cy="90.4343" r="4" fill="#0" id="circle133"/>
	<circle cx="388.3" cy="527.925" r="4" fill="#0" id="circle134"/>
	<circle cx="389.63" cy="101.072" r="4" fill="#0" id="circle135"/>
	<circle cx="397.609" cy="111.71" r="4" fill="#0" id="circle136"/>
	<circle cx="397.609" cy="517.287" r="4" fill="#0" id="circle137"/>
	<circle cx="404.257" cy="123.678" r="4" fill="#0" id="circle138"/>
	<circle cx="410.906" cy="517.287" r="4" fill="#0" id="circle139"/>
	<circle cx="416.225" cy="130.327" r="4" fill="#0" id="circle140"/>
	<circle cx="422.874" cy="510.638" r="4" fill="#0" id="circle141"/>
	<circle cx="424.204" cy="140.965" r="4" fill="#0" id="circle142"/>
	<circle cx="433.512" cy="151.603" r="4" fill="#0" id="circle143"/>
	<circle cx="434.842" cy="503.989" r="4" fill="#0" id="circle144"/>
	<circle cx="444.15" cy="160.912" r="4" fill="#0" id="circle145"/>
	<circle cx="446.81" cy="497.34" r="4" fill="#0" id="circle146"/>
	<circle cx="453.458" cy="171.55" r="4" fill="#0" id="circle147"/>
	<circle cx="458.777" cy="490.692" r="4" fill="#0" id="circle148"/>
	<circle cx="464.097" cy="180.858" r="4" fill="#0" id="circle149"/>
	<circle cx="469.416" cy="480.054" r="4" fill="#0" id="circle150"/>
	<circle cx="476.064" cy="187.507" r="4" fill="#0" id="circle151"/>
	<circle cx="482.713" cy="473.405" r="4" fill="#0" id="circle152"/>
	<circle cx="486.702" cy="196.815" r="4" fill="#0" id="circle153"/>
	<circle cx="493.351" cy="462.767" r="4" fill="#0" id="circle154"/>
	<circle cx="496.011" cy="207.453" r="4" fill="#0" id="circle155"/>
	<circle cx="503.989" cy="450.799" r="4" fill="#0" id="circle156"/>
	<circle cx="506.649" cy="216.761" r="4" fill="#0" id="circle157"/>
	<circle cx="514.627" cy="441.491" r="4" fill="#0" id="circle158"/>
	<circle cx="515.957" cy="227.399" r="4" fill="#0" id="circle159"/>
	<circle cx="522.606" cy="430.853" r="4" fill="#0" id="circle160"/>
	<circle cx="526.595" cy="236.708" r="4" fill="#0" id="circle161"/>
	<circle cx="533.244" cy="422.874" r="4" fill="#0" id="circle162"/>
	<circle cx="535.903" cy="247.346" r="4" fill="#0" id="circle163"/>
	<circle cx="543.882" cy="404.257" r="4" fill="#0" id="circle164"/>
	<circle cx="546.542" cy="256.654" r="4" fill="#0" id="circle165"/>
	<circle cx="554.52" cy="394.949" r="4" fill="#0" id="circle166"/>
	<circle cx="555.85" cy="267.292" r="4" fill="#0" id="circle167"/>
	<circle cx="563.828" cy="277.93" r="4" fill="#0" id="circle168"/>
	<circle cx="563.828" cy="384.311" r="4" fill="#0" id="circle169"/>
	<circle cx="570.477" cy="289.898" r="4" fill="#0" id="circle170"/>
	<circle cx="570.477" cy="371.013" r="4" fill="#0" id="circle171"/>
	<circle cx="577.126" cy="301.866" r="4" fill="#0" id="circle172"/>
	<circle cx="581.115" cy="361.705" r="4" fill="#0" id="circle173"/>
	<circle cx="583.775" cy="313.834" r="4" fill="#0" id="circle174"/>
	<circle cx="583.775" cy="327.131" r="4" fill="#0" id="circle175"/>
	<circle cx="583.775" cy="340.429" r="4" fill="#0" id="circle176"/>
	</g>
</svg>