<?xml version="1.0" encoding="UTF-8" standalone="no"?>
<!-- Created with CurveBenchmark -->
<svg
	xmlns:dc="http://purl.org/dc/elements/1.1/"
	xmlns:cc="http://creativecommons.org/ns#"
	xmlns:rdf="http://www.w3.org/1999/02/22-rdf-syntax-ns#"
	xmlns:svg="http://www.w3.org/2000/svg"
	xmlns="http://www.w3.org/2000/svg"
	xmlns:sodipodi="http://sodipodi.sourceforge.net/DTD/sodipodi-0.dtd"
	xmlns:inkscape="http://www.inkscape.org/namespaces/inkscape"
	width="1000"
	height="1000"
	id="svg2"
	version="1.1"
	sodipodi:docname="manifold/fitconnect-swamprabbitocc4.png.txt">
<defs
	id="defs4" />
<metadata
	id="metadata7">
	<rdf:RDF>
		<cc:Work
			rdf:about="">
			<dc:format>image/svg+xml</dc:format>
			<dc:type
				rdf:resource="http://purl.org/dc/dcmitype/StillImage" />
			<dc:title></dc:title>
		</cc:Work>
	</rdf:RDF>
</metadata>
<g
	inkscape:label="Layer 1"
	inkscape:groupmode="layer"
	id="layer1">
	<path style="fill:none;stroke:red;stroke-width:1px;stroke-linecap:butt;stroke-linejoin:miter;stroke-opacity:1" d="M 4,254.377 4,270.224 z" id="boundary" inkscape:connector-curvature="0" />
	<path style="fill:none;stroke:red;stroke-width:1px;stroke-linecap:butt;stroke-linejoin:miter;stroke-opacity:1" d="M 4,254.377 19.8466,249.623 z" id="boundary" inkscape:connector-curvature="0" />
	<path style="fill:none;stroke:red;stroke-width:1px;stroke-linecap:butt;stroke-linejoin:miter;stroke-opacity:1" d="M 4,270.224 4,286.07 z" id="boundary" inkscape:connector-curvature="0" />
	<path style="fill:none;stroke:red;stroke-width:1px;stroke-linecap:butt;stroke-linejoin:miter;stroke-opacity:1" d="M 4,286.07 13.508,298.748 z" id="boundary" inkscape:connector-curvature="0" />
	<path style="fill:none;stroke:red;stroke-width:1px;stroke-linecap:butt;stroke-linejoin:miter;stroke-opacity:1" d="M 13.508,298.748 29.3546,298.748 z" id="boundary" inkscape:connector-curvature="0" />
	<path style="fill:none;stroke:red;stroke-width:1px;stroke-linecap:butt;stroke-linejoin:miter;stroke-opacity:1" d="M 19.8466,249.623 35.6933,249.623 z" id="boundary" inkscape:connector-curvature="0" />
	<path style="fill:none;stroke:red;stroke-width:1px;stroke-linecap:butt;stroke-linejoin:miter;stroke-opacity:1" d="M 29.3546,298.748 45.2013,298.748 z" id="boundary" inkscape:connector-curvature="0" />
	<path style="fill:none;stroke:red;stroke-width:1px;stroke-linecap:butt;stroke-linejoin:miter;stroke-opacity:1" d="M 35.6933,249.623 49.9553,257.546 z" id="boundary" inkscape:connector-curvature="0" />
	<path style="fill:none;stroke:red;stroke-width:1px;stroke-linecap:butt;stroke-linejoin:miter;stroke-opacity:1" d="M 45.2013,298.748 61.0479,301.917 z" id="boundary" inkscape:connector-curvature="0" />
	<path style="fill:none;stroke:red;stroke-width:1px;stroke-linecap:butt;stroke-linejoin:miter;stroke-opacity:1" d="M 49.9553,257.546 65.8019,257.546 z" id="boundary" inkscape:connector-curvature="0" />
	<path style="fill:none;stroke:red;stroke-width:1px;stroke-linecap:butt;stroke-linejoin:miter;stroke-opacity:1" d="M 61.0479,301.917 76.8946,306.671 z" id="boundary" inkscape:connector-curvature="0" />
	<path style="fill:none;stroke:red;stroke-width:1px;stroke-linecap:butt;stroke-linejoin:miter;stroke-opacity:1" d="M 65.8019,257.546 81.6486,257.546 z" id="boundary" inkscape:connector-curvature="0" />
	<path style="fill:none;stroke:red;stroke-width:1px;stroke-linecap:butt;stroke-linejoin:miter;stroke-opacity:1" d="M 76.8946,306.671 92.7412,309.84 z" id="boundary" inkscape:connector-curvature="0" />
	<path style="fill:none;stroke:red;stroke-width:1px;stroke-linecap:butt;stroke-linejoin:miter;stroke-opacity:1" d="M 81.6486,257.546 97.4952,257.546 z" id="boundary" inkscape:connector-curvature="0" />
	<path style="fill:none;stroke:red;stroke-width:1px;stroke-linecap:butt;stroke-linejoin:miter;stroke-opacity:1" d="M 92.7412,309.84 108.588,314.594 z" id="boundary" inkscape:connector-curvature="0" />
	<path style="fill:none;stroke:red;stroke-width:1px;stroke-linecap:butt;stroke-linejoin:miter;stroke-opacity:1" d="M 97.4952,257.546 113.342,257.546 z" id="boundary" inkscape:connector-curvature="0" />
	<path style="fill:none;stroke:red;stroke-width:1px;stroke-linecap:butt;stroke-linejoin:miter;stroke-opacity:1" d="M 108.588,314.594 124.435,314.594 z" id="boundary" inkscape:connector-curvature="0" />
	<path style="fill:none;stroke:red;stroke-width:1px;stroke-linecap:butt;stroke-linejoin:miter;stroke-opacity:1" d="M 113.342,257.546 129.188,257.546 z" id="boundary" inkscape:connector-curvature="0" />
	<path style="fill:none;stroke:red;stroke-width:1px;stroke-linecap:butt;stroke-linejoin:miter;stroke-opacity:1" d="M 124.435,314.594 138.696,322.518 z" id="boundary" inkscape:connector-curvature="0" />
	<path style="fill:none;stroke:red;stroke-width:1px;stroke-linecap:butt;stroke-linejoin:miter;stroke-opacity:1" d="M 129.188,257.546 138.696,238.53 z" id="boundary" inkscape:connector-curvature="0" />
	<path style="fill:none;stroke:red;stroke-width:1px;stroke-linecap:butt;stroke-linejoin:miter;stroke-opacity:1" d="M 138.696,238.53 146.62,222.684 z" id="boundary" inkscape:connector-curvature="0" />
	<path style="fill:none;stroke:red;stroke-width:1px;stroke-linecap:butt;stroke-linejoin:miter;stroke-opacity:1" d="M 138.696,322.518 148.204,335.195 z" id="boundary" inkscape:connector-curvature="0" />
	<path style="fill:none;stroke:red;stroke-width:1px;stroke-linecap:butt;stroke-linejoin:miter;stroke-opacity:1" d="M 146.62,222.684 159.297,210.006 z" id="boundary" inkscape:connector-curvature="0" />
	<path style="fill:none;stroke:red;stroke-width:1px;stroke-linecap:butt;stroke-linejoin:miter;stroke-opacity:1" d="M 148.204,335.195 164.051,341.534 z" id="boundary" inkscape:connector-curvature="0" />
	<path style="fill:none;stroke:red;stroke-width:1px;stroke-linecap:butt;stroke-linejoin:miter;stroke-opacity:1" d="M 159.297,210.006 167.22,194.16 z" id="boundary" inkscape:connector-curvature="0" />
	<path style="fill:none;stroke:red;stroke-width:1px;stroke-linecap:butt;stroke-linejoin:miter;stroke-opacity:1" d="M 164.051,341.534 179.898,346.288 z" id="boundary" inkscape:connector-curvature="0" />
	<path style="fill:none;stroke:red;stroke-width:1px;stroke-linecap:butt;stroke-linejoin:miter;stroke-opacity:1" d="M 167.22,194.16 183.067,186.236 z" id="boundary" inkscape:connector-curvature="0" />
	<path style="fill:none;stroke:red;stroke-width:1px;stroke-linecap:butt;stroke-linejoin:miter;stroke-opacity:1" d="M 179.898,346.288 194.16,354.211 z" id="boundary" inkscape:connector-curvature="0" />
	<path style="fill:none;stroke:red;stroke-width:1px;stroke-linecap:butt;stroke-linejoin:miter;stroke-opacity:1" d="M 183.067,186.236 198.914,178.313 z" id="boundary" inkscape:connector-curvature="0" />
	<path style="fill:none;stroke:red;stroke-width:1px;stroke-linecap:butt;stroke-linejoin:miter;stroke-opacity:1" d="M 194.16,354.211 208.422,362.134 z" id="boundary" inkscape:connector-curvature="0" />
	<path style="fill:none;stroke:red;stroke-width:1px;stroke-linecap:butt;stroke-linejoin:miter;stroke-opacity:1" d="M 198.914,178.313 211.591,165.636 z" id="boundary" inkscape:connector-curvature="0" />
	<path style="fill:none;stroke:red;stroke-width:1px;stroke-linecap:butt;stroke-linejoin:miter;stroke-opacity:1" d="M 208.422,362.134 222.684,370.058 z" id="boundary" inkscape:connector-curvature="0" />
	<path style="fill:none;stroke:red;stroke-width:1px;stroke-linecap:butt;stroke-linejoin:miter;stroke-opacity:1" d="M 211.591,165.636 224.268,154.543 z" id="boundary" inkscape:connector-curvature="0" />
	<path style="fill:none;stroke:red;stroke-width:1px;stroke-linecap:butt;stroke-linejoin:miter;stroke-opacity:1" d="M 222.684,370.058 238.53,370.058 z" id="boundary" inkscape:connector-curvature="0" />
	<path style="fill:none;stroke:red;stroke-width:1px;stroke-linecap:butt;stroke-linejoin:miter;stroke-opacity:1" d="M 224.268,154.543 238.53,146.62 z" id="boundary" inkscape:connector-curvature="0" />
	<path style="fill:none;stroke:red;stroke-width:1px;stroke-linecap:butt;stroke-linejoin:miter;stroke-opacity:1" d="M 238.53,146.62 249.623,133.942 z" id="boundary" inkscape:connector-curvature="0" />
	<path style="fill:none;stroke:red;stroke-width:1px;stroke-linecap:butt;stroke-linejoin:miter;stroke-opacity:1" d="M 238.53,370.058 251.208,381.15 z" id="boundary" inkscape:connector-curvature="0" />
	<path style="fill:none;stroke:red;stroke-width:1px;stroke-linecap:butt;stroke-linejoin:miter;stroke-opacity:1" d="M 241.7,56.2939 241.7,72.1406 z" id="boundary" inkscape:connector-curvature="0" />
	<path style="fill:none;stroke:red;stroke-width:1px;stroke-linecap:butt;stroke-linejoin:miter;stroke-opacity:1" d="M 241.7,56.2939 249.623,32.524 z" id="boundary" inkscape:connector-curvature="0" />
	<path style="fill:none;stroke:red;stroke-width:1px;stroke-linecap:butt;stroke-linejoin:miter;stroke-opacity:1" d="M 241.7,72.1406 241.7,87.9872 z" id="boundary" inkscape:connector-curvature="0" />
	<path style="fill:none;stroke:red;stroke-width:1px;stroke-linecap:butt;stroke-linejoin:miter;stroke-opacity:1" d="M 241.7,87.9872 241.7,103.834 z" id="boundary" inkscape:connector-curvature="0" />
	<path style="fill:none;stroke:red;stroke-width:1px;stroke-linecap:butt;stroke-linejoin:miter;stroke-opacity:1" d="M 241.7,103.834 241.7,119.681 z" id="boundary" inkscape:connector-curvature="0" />
	<path style="fill:none;stroke:red;stroke-width:1px;stroke-linecap:butt;stroke-linejoin:miter;stroke-opacity:1" d="M 241.7,119.681 249.623,133.942 z" id="boundary" inkscape:connector-curvature="0" />
	<path style="fill:none;stroke:red;stroke-width:1px;stroke-linecap:butt;stroke-linejoin:miter;stroke-opacity:1" d="M 249.623,32.524 257.546,16.6773 z" id="boundary" inkscape:connector-curvature="0" />
	<path style="fill:none;stroke:red;stroke-width:1px;stroke-linecap:butt;stroke-linejoin:miter;stroke-opacity:1" d="M 251.208,381.15 262.3,393.827 z" id="boundary" inkscape:connector-curvature="0" />
	<path style="fill:none;stroke:red;stroke-width:1px;stroke-linecap:butt;stroke-linejoin:miter;stroke-opacity:1" d="M 257.546,16.6773 273.393,8.75399 z" id="boundary" inkscape:connector-curvature="0" />
	<path style="fill:none;stroke:red;stroke-width:1px;stroke-linecap:butt;stroke-linejoin:miter;stroke-opacity:1" d="M 262.3,393.827 276.562,401.751 z" id="boundary" inkscape:connector-curvature="0" />
	<path style="fill:none;stroke:red;stroke-width:1px;stroke-linecap:butt;stroke-linejoin:miter;stroke-opacity:1" d="M 273.393,8.75399 289.24,4 z" id="boundary" inkscape:connector-curvature="0" />
	<path style="fill:none;stroke:red;stroke-width:1px;stroke-linecap:butt;stroke-linejoin:miter;stroke-opacity:1" d="M 276.562,401.751 289.24,411.259 z" id="boundary" inkscape:connector-curvature="0" />
	<path style="fill:none;stroke:red;stroke-width:1px;stroke-linecap:butt;stroke-linejoin:miter;stroke-opacity:1" d="M 289.24,4 305.086,4 z" id="boundary" inkscape:connector-curvature="0" />
	<path style="fill:none;stroke:red;stroke-width:1px;stroke-linecap:butt;stroke-linejoin:miter;stroke-opacity:1" d="M 289.24,411.259 305.086,417.597 z" id="boundary" inkscape:connector-curvature="0" />
	<path style="fill:none;stroke:red;stroke-width:1px;stroke-linecap:butt;stroke-linejoin:miter;stroke-opacity:1" d="M 289.24,507.923 298.748,520.601 z" id="boundary" inkscape:connector-curvature="0" />
	<path style="fill:none;stroke:red;stroke-width:1px;stroke-linecap:butt;stroke-linejoin:miter;stroke-opacity:1" d="M 289.24,507.923 305.086,500 z" id="boundary" inkscape:connector-curvature="0" />
	<path style="fill:none;stroke:red;stroke-width:1px;stroke-linecap:butt;stroke-linejoin:miter;stroke-opacity:1" d="M 298.748,520.601 313.01,528.524 z" id="boundary" inkscape:connector-curvature="0" />
	<path style="fill:none;stroke:red;stroke-width:1px;stroke-linecap:butt;stroke-linejoin:miter;stroke-opacity:1" d="M 305.086,4 320.933,4 z" id="boundary" inkscape:connector-curvature="0" />
	<path style="fill:none;stroke:red;stroke-width:1px;stroke-linecap:butt;stroke-linejoin:miter;stroke-opacity:1" d="M 305.086,417.597 314.594,430.275 z" id="boundary" inkscape:connector-curvature="0" />
	<path style="fill:none;stroke:red;stroke-width:1px;stroke-linecap:butt;stroke-linejoin:miter;stroke-opacity:1" d="M 305.086,500 320.933,495.246 z" id="boundary" inkscape:connector-curvature="0" />
	<path style="fill:none;stroke:red;stroke-width:1px;stroke-linecap:butt;stroke-linejoin:miter;stroke-opacity:1" d="M 313.01,528.524 328.856,528.524 z" id="boundary" inkscape:connector-curvature="0" />
	<path style="fill:none;stroke:red;stroke-width:1px;stroke-linecap:butt;stroke-linejoin:miter;stroke-opacity:1" d="M 314.594,430.275 322.518,444.537 z" id="boundary" inkscape:connector-curvature="0" />
	<path style="fill:none;stroke:red;stroke-width:1px;stroke-linecap:butt;stroke-linejoin:miter;stroke-opacity:1" d="M 320.933,4 336.78,4 z" id="boundary" inkscape:connector-curvature="0" />
	<path style="fill:none;stroke:red;stroke-width:1px;stroke-linecap:butt;stroke-linejoin:miter;stroke-opacity:1" d="M 320.933,495.246 335.195,487.323 z" id="boundary" inkscape:connector-curvature="0" />
	<path style="fill:none;stroke:red;stroke-width:1px;stroke-linecap:butt;stroke-linejoin:miter;stroke-opacity:1" d="M 322.518,444.537 328.856,460.383 z" id="boundary" inkscape:connector-curvature="0" />
	<path style="fill:none;stroke:red;stroke-width:1px;stroke-linecap:butt;stroke-linejoin:miter;stroke-opacity:1" d="M 328.856,460.383 335.195,487.323 z" id="boundary" inkscape:connector-curvature="0" />
	<path style="fill:none;stroke:red;stroke-width:1px;stroke-linecap:butt;stroke-linejoin:miter;stroke-opacity:1" d="M 328.856,528.524 344.703,523.77 z" id="boundary" inkscape:connector-curvature="0" />
	<path style="fill:none;stroke:red;stroke-width:1px;stroke-linecap:butt;stroke-linejoin:miter;stroke-opacity:1" d="M 336.78,4 352.626,7.16933 z" id="boundary" inkscape:connector-curvature="0" />
	<path style="fill:none;stroke:red;stroke-width:1px;stroke-linecap:butt;stroke-linejoin:miter;stroke-opacity:1" d="M 344.703,523.77 360.55,520.601 z" id="boundary" inkscape:connector-curvature="0" />
	<path style="fill:none;stroke:red;stroke-width:1px;stroke-linecap:butt;stroke-linejoin:miter;stroke-opacity:1" d="M 352.626,7.16933 354.211,23.016 z" id="boundary" inkscape:connector-curvature="0" />
	<path style="fill:none;stroke:red;stroke-width:1px;stroke-linecap:butt;stroke-linejoin:miter;stroke-opacity:1" d="M 354.211,23.016 354.211,38.8626 z" id="boundary" inkscape:connector-curvature="0" />
	<path style="fill:none;stroke:red;stroke-width:1px;stroke-linecap:butt;stroke-linejoin:miter;stroke-opacity:1" d="M 354.211,38.8626 362.134,53.1246 z" id="boundary" inkscape:connector-curvature="0" />
	<path style="fill:none;stroke:red;stroke-width:1px;stroke-linecap:butt;stroke-linejoin:miter;stroke-opacity:1" d="M 354.211,124.435 362.134,100.665 z" id="boundary" inkscape:connector-curvature="0" />
	<path style="fill:none;stroke:red;stroke-width:1px;stroke-linecap:butt;stroke-linejoin:miter;stroke-opacity:1" d="M 354.211,124.435 362.134,138.696 z" id="boundary" inkscape:connector-curvature="0" />
	<path style="fill:none;stroke:red;stroke-width:1px;stroke-linecap:butt;stroke-linejoin:miter;stroke-opacity:1" d="M 360.55,520.601 374.812,512.677 z" id="boundary" inkscape:connector-curvature="0" />
	<path style="fill:none;stroke:red;stroke-width:1px;stroke-linecap:butt;stroke-linejoin:miter;stroke-opacity:1" d="M 362.134,53.1246 370.058,67.3866 z" id="boundary" inkscape:connector-curvature="0" />
	<path style="fill:none;stroke:red;stroke-width:1px;stroke-linecap:butt;stroke-linejoin:miter;stroke-opacity:1" d="M 362.134,84.8179 362.134,100.665 z" id="boundary" inkscape:connector-curvature="0" />
	<path style="fill:none;stroke:red;stroke-width:1px;stroke-linecap:butt;stroke-linejoin:miter;stroke-opacity:1" d="M 362.134,84.8179 370.058,67.3866 z" id="boundary" inkscape:connector-curvature="0" />
	<path style="fill:none;stroke:red;stroke-width:1px;stroke-linecap:butt;stroke-linejoin:miter;stroke-opacity:1" d="M 362.134,138.696 377.981,138.696 z" id="boundary" inkscape:connector-curvature="0" />
	<path style="fill:none;stroke:red;stroke-width:1px;stroke-linecap:butt;stroke-linejoin:miter;stroke-opacity:1" d="M 374.812,512.677 390.658,512.677 z" id="boundary" inkscape:connector-curvature="0" />
	<path style="fill:none;stroke:red;stroke-width:1px;stroke-linecap:butt;stroke-linejoin:miter;stroke-opacity:1" d="M 377.981,138.696 393.827,138.696 z" id="boundary" inkscape:connector-curvature="0" />
	<path style="fill:none;stroke:red;stroke-width:1px;stroke-linecap:butt;stroke-linejoin:miter;stroke-opacity:1" d="M 390.658,512.677 406.505,512.677 z" id="boundary" inkscape:connector-curvature="0" />
	<path style="fill:none;stroke:red;stroke-width:1px;stroke-linecap:butt;stroke-linejoin:miter;stroke-opacity:1" d="M 393.827,138.696 408.089,146.62 z" id="boundary" inkscape:connector-curvature="0" />
	<path style="fill:none;stroke:red;stroke-width:1px;stroke-linecap:butt;stroke-linejoin:miter;stroke-opacity:1" d="M 406.505,512.677 420.767,520.601 z" id="boundary" inkscape:connector-curvature="0" />
	<path style="fill:none;stroke:red;stroke-width:1px;stroke-linecap:butt;stroke-linejoin:miter;stroke-opacity:1" d="M 408.089,146.62 422.351,138.696 z" id="boundary" inkscape:connector-curvature="0" />
	<path style="fill:none;stroke:red;stroke-width:1px;stroke-linecap:butt;stroke-linejoin:miter;stroke-opacity:1" d="M 420.767,520.601 435.029,512.677 z" id="boundary" inkscape:connector-curvature="0" />
	<path style="fill:none;stroke:red;stroke-width:1px;stroke-linecap:butt;stroke-linejoin:miter;stroke-opacity:1" d="M 422.351,138.696 438.198,138.696 z" id="boundary" inkscape:connector-curvature="0" />
	<path style="fill:none;stroke:red;stroke-width:1px;stroke-linecap:butt;stroke-linejoin:miter;stroke-opacity:1" d="M 435.029,512.677 450.875,512.677 z" id="boundary" inkscape:connector-curvature="0" />
	<path style="fill:none;stroke:red;stroke-width:1px;stroke-linecap:butt;stroke-linejoin:miter;stroke-opacity:1" d="M 438.198,138.696 452.46,130.773 z" id="boundary" inkscape:connector-curvature="0" />
	<path style="fill:none;stroke:red;stroke-width:1px;stroke-linecap:butt;stroke-linejoin:miter;stroke-opacity:1" d="M 450.875,512.677 465.137,504.754 z" id="boundary" inkscape:connector-curvature="0" />
	<path style="fill:none;stroke:red;stroke-width:1px;stroke-linecap:butt;stroke-linejoin:miter;stroke-opacity:1" d="M 452.46,130.773 466.722,122.85 z" id="boundary" inkscape:connector-curvature="0" />
	<path style="fill:none;stroke:red;stroke-width:1px;stroke-linecap:butt;stroke-linejoin:miter;stroke-opacity:1" d="M 465.137,504.754 480.984,504.754 z" id="boundary" inkscape:connector-curvature="0" />
	<path style="fill:none;stroke:red;stroke-width:1px;stroke-linecap:butt;stroke-linejoin:miter;stroke-opacity:1" d="M 466.722,122.85 480.984,114.927 z" id="boundary" inkscape:connector-curvature="0" />
	<path style="fill:none;stroke:red;stroke-width:1px;stroke-linecap:butt;stroke-linejoin:miter;stroke-opacity:1" d="M 480.984,114.927 496.831,114.927 z" id="boundary" inkscape:connector-curvature="0" />
	<path style="fill:none;stroke:red;stroke-width:1px;stroke-linecap:butt;stroke-linejoin:miter;stroke-opacity:1" d="M 480.984,504.754 496.831,504.754 z" id="boundary" inkscape:connector-curvature="0" />
	<path style="fill:none;stroke:red;stroke-width:1px;stroke-linecap:butt;stroke-linejoin:miter;stroke-opacity:1" d="M 487.323,539.617 496.831,552.294 z" id="boundary" inkscape:connector-curvature="0" />
	<path style="fill:none;stroke:red;stroke-width:1px;stroke-linecap:butt;stroke-linejoin:miter;stroke-opacity:1" d="M 487.323,539.617 500,526.939 z" id="boundary" inkscape:connector-curvature="0" />
	<path style="fill:none;stroke:red;stroke-width:1px;stroke-linecap:butt;stroke-linejoin:miter;stroke-opacity:1" d="M 496.831,114.927 512.677,114.927 z" id="boundary" inkscape:connector-curvature="0" />
	<path style="fill:none;stroke:red;stroke-width:1px;stroke-linecap:butt;stroke-linejoin:miter;stroke-opacity:1" d="M 496.831,504.754 500,526.939 z" id="boundary" inkscape:connector-curvature="0" />
	<path style="fill:none;stroke:red;stroke-width:1px;stroke-linecap:butt;stroke-linejoin:miter;stroke-opacity:1" d="M 496.831,552.294 511.093,560.217 z" id="boundary" inkscape:connector-curvature="0" />
	<path style="fill:none;stroke:red;stroke-width:1px;stroke-linecap:butt;stroke-linejoin:miter;stroke-opacity:1" d="M 511.093,560.217 525.355,568.141 z" id="boundary" inkscape:connector-curvature="0" />
	<path style="fill:none;stroke:red;stroke-width:1px;stroke-linecap:butt;stroke-linejoin:miter;stroke-opacity:1" d="M 512.677,114.927 528.524,114.927 z" id="boundary" inkscape:connector-curvature="0" />
	<path style="fill:none;stroke:red;stroke-width:1px;stroke-linecap:butt;stroke-linejoin:miter;stroke-opacity:1" d="M 525.355,568.141 541.201,568.141 z" id="boundary" inkscape:connector-curvature="0" />
	<path style="fill:none;stroke:red;stroke-width:1px;stroke-linecap:butt;stroke-linejoin:miter;stroke-opacity:1" d="M 528.524,114.927 542.786,107.003 z" id="boundary" inkscape:connector-curvature="0" />
	<path style="fill:none;stroke:red;stroke-width:1px;stroke-linecap:butt;stroke-linejoin:miter;stroke-opacity:1" d="M 541.201,568.141 557.048,568.141 z" id="boundary" inkscape:connector-curvature="0" />
	<path style="fill:none;stroke:red;stroke-width:1px;stroke-linecap:butt;stroke-linejoin:miter;stroke-opacity:1" d="M 542.786,107.003 558.633,107.003 z" id="boundary" inkscape:connector-curvature="0" />
	<path style="fill:none;stroke:red;stroke-width:1px;stroke-linecap:butt;stroke-linejoin:miter;stroke-opacity:1" d="M 557.048,568.141 572.895,568.141 z" id="boundary" inkscape:connector-curvature="0" />
	<path style="fill:none;stroke:red;stroke-width:1px;stroke-linecap:butt;stroke-linejoin:miter;stroke-opacity:1" d="M 558.633,107.003 574.479,107.003 z" id="boundary" inkscape:connector-curvature="0" />
	<path style="fill:none;stroke:red;stroke-width:1px;stroke-linecap:butt;stroke-linejoin:miter;stroke-opacity:1" d="M 572.895,568.141 588.741,568.141 z" id="boundary" inkscape:connector-curvature="0" />
	<path style="fill:none;stroke:red;stroke-width:1px;stroke-linecap:butt;stroke-linejoin:miter;stroke-opacity:1" d="M 574.479,107.003 590.326,107.003 z" id="boundary" inkscape:connector-curvature="0" />
	<path style="fill:none;stroke:red;stroke-width:1px;stroke-linecap:butt;stroke-linejoin:miter;stroke-opacity:1" d="M 588.741,568.141 603.003,560.217 z" id="boundary" inkscape:connector-curvature="0" />
	<path style="fill:none;stroke:red;stroke-width:1px;stroke-linecap:butt;stroke-linejoin:miter;stroke-opacity:1" d="M 590.326,107.003 604.588,114.927 z" id="boundary" inkscape:connector-curvature="0" />
	<path style="fill:none;stroke:red;stroke-width:1px;stroke-linecap:butt;stroke-linejoin:miter;stroke-opacity:1" d="M 603.003,560.217 618.85,560.217 z" id="boundary" inkscape:connector-curvature="0" />
	<path style="fill:none;stroke:red;stroke-width:1px;stroke-linecap:butt;stroke-linejoin:miter;stroke-opacity:1" d="M 604.588,114.927 620.435,116.511 z" id="boundary" inkscape:connector-curvature="0" />
	<path style="fill:none;stroke:red;stroke-width:1px;stroke-linecap:butt;stroke-linejoin:miter;stroke-opacity:1" d="M 618.85,560.217 634.696,560.217 z" id="boundary" inkscape:connector-curvature="0" />
	<path style="fill:none;stroke:red;stroke-width:1px;stroke-linecap:butt;stroke-linejoin:miter;stroke-opacity:1" d="M 620.435,116.511 636.281,122.85 z" id="boundary" inkscape:connector-curvature="0" />
	<path style="fill:none;stroke:red;stroke-width:1px;stroke-linecap:butt;stroke-linejoin:miter;stroke-opacity:1" d="M 634.696,560.217 650.543,560.217 z" id="boundary" inkscape:connector-curvature="0" />
	<path style="fill:none;stroke:red;stroke-width:1px;stroke-linecap:butt;stroke-linejoin:miter;stroke-opacity:1" d="M 636.281,122.85 652.128,122.85 z" id="boundary" inkscape:connector-curvature="0" />
	<path style="fill:none;stroke:red;stroke-width:1px;stroke-linecap:butt;stroke-linejoin:miter;stroke-opacity:1" d="M 650.543,560.217 666.39,560.217 z" id="boundary" inkscape:connector-curvature="0" />
	<path style="fill:none;stroke:red;stroke-width:1px;stroke-linecap:butt;stroke-linejoin:miter;stroke-opacity:1" d="M 652.128,122.85 666.39,130.773 z" id="boundary" inkscape:connector-curvature="0" />
	<path style="fill:none;stroke:red;stroke-width:1px;stroke-linecap:butt;stroke-linejoin:miter;stroke-opacity:1" d="M 666.39,130.773 680.652,138.696 z" id="boundary" inkscape:connector-curvature="0" />
	<path style="fill:none;stroke:red;stroke-width:1px;stroke-linecap:butt;stroke-linejoin:miter;stroke-opacity:1" d="M 666.39,560.217 682.236,558.633 z" id="boundary" inkscape:connector-curvature="0" />
	<path style="fill:none;stroke:red;stroke-width:1px;stroke-linecap:butt;stroke-linejoin:miter;stroke-opacity:1" d="M 680.652,138.696 694.914,146.62 z" id="boundary" inkscape:connector-curvature="0" />
	<path style="fill:none;stroke:red;stroke-width:1px;stroke-linecap:butt;stroke-linejoin:miter;stroke-opacity:1" d="M 682.236,558.633 698.083,552.294 z" id="boundary" inkscape:connector-curvature="0" />
	<path style="fill:none;stroke:red;stroke-width:1px;stroke-linecap:butt;stroke-linejoin:miter;stroke-opacity:1" d="M 694.914,146.62 707.591,156.128 z" id="boundary" inkscape:connector-curvature="0" />
	<path style="fill:none;stroke:red;stroke-width:1px;stroke-linecap:butt;stroke-linejoin:miter;stroke-opacity:1" d="M 698.083,552.294 713.93,552.294 z" id="boundary" inkscape:connector-curvature="0" />
	<path style="fill:none;stroke:red;stroke-width:1px;stroke-linecap:butt;stroke-linejoin:miter;stroke-opacity:1" d="M 707.591,156.128 718.684,168.805 z" id="boundary" inkscape:connector-curvature="0" />
	<path style="fill:none;stroke:red;stroke-width:1px;stroke-linecap:butt;stroke-linejoin:miter;stroke-opacity:1" d="M 713.93,552.294 729.776,550.709 z" id="boundary" inkscape:connector-curvature="0" />
	<path style="fill:none;stroke:red;stroke-width:1px;stroke-linecap:butt;stroke-linejoin:miter;stroke-opacity:1" d="M 718.684,168.805 734.53,175.144 z" id="boundary" inkscape:connector-curvature="0" />
	<path style="fill:none;stroke:red;stroke-width:1px;stroke-linecap:butt;stroke-linejoin:miter;stroke-opacity:1" d="M 729.776,550.709 745.623,544.371 z" id="boundary" inkscape:connector-curvature="0" />
	<path style="fill:none;stroke:red;stroke-width:1px;stroke-linecap:butt;stroke-linejoin:miter;stroke-opacity:1" d="M 734.53,175.144 745.623,187.821 z" id="boundary" inkscape:connector-curvature="0" />
	<path style="fill:none;stroke:red;stroke-width:1px;stroke-linecap:butt;stroke-linejoin:miter;stroke-opacity:1" d="M 745.623,187.821 758.3,198.914 z" id="boundary" inkscape:connector-curvature="0" />
	<path style="fill:none;stroke:red;stroke-width:1px;stroke-linecap:butt;stroke-linejoin:miter;stroke-opacity:1" d="M 745.623,544.371 761.47,544.371 z" id="boundary" inkscape:connector-curvature="0" />
	<path style="fill:none;stroke:red;stroke-width:1px;stroke-linecap:butt;stroke-linejoin:miter;stroke-opacity:1" d="M 758.3,198.914 772.562,206.837 z" id="boundary" inkscape:connector-curvature="0" />
	<path style="fill:none;stroke:red;stroke-width:1px;stroke-linecap:butt;stroke-linejoin:miter;stroke-opacity:1" d="M 761.47,544.371 777.316,544.371 z" id="boundary" inkscape:connector-curvature="0" />
	<path style="fill:none;stroke:red;stroke-width:1px;stroke-linecap:butt;stroke-linejoin:miter;stroke-opacity:1" d="M 772.562,206.837 785.24,217.93 z" id="boundary" inkscape:connector-curvature="0" />
	<path style="fill:none;stroke:red;stroke-width:1px;stroke-linecap:butt;stroke-linejoin:miter;stroke-opacity:1" d="M 777.316,544.371 793.163,544.371 z" id="boundary" inkscape:connector-curvature="0" />
	<path style="fill:none;stroke:red;stroke-width:1px;stroke-linecap:butt;stroke-linejoin:miter;stroke-opacity:1" d="M 785.24,217.93 796.332,230.607 z" id="boundary" inkscape:connector-curvature="0" />
	<path style="fill:none;stroke:red;stroke-width:1px;stroke-linecap:butt;stroke-linejoin:miter;stroke-opacity:1" d="M 793.163,544.371 807.425,536.447 z" id="boundary" inkscape:connector-curvature="0" />
	<path style="fill:none;stroke:red;stroke-width:1px;stroke-linecap:butt;stroke-linejoin:miter;stroke-opacity:1" d="M 796.332,230.607 797.917,246.454 z" id="boundary" inkscape:connector-curvature="0" />
	<path style="fill:none;stroke:red;stroke-width:1px;stroke-linecap:butt;stroke-linejoin:miter;stroke-opacity:1" d="M 797.917,246.454 813.764,249.623 z" id="boundary" inkscape:connector-curvature="0" />
	<path style="fill:none;stroke:red;stroke-width:1px;stroke-linecap:butt;stroke-linejoin:miter;stroke-opacity:1" d="M 807.425,536.447 821.687,528.524 z" id="boundary" inkscape:connector-curvature="0" />
	<path style="fill:none;stroke:red;stroke-width:1px;stroke-linecap:butt;stroke-linejoin:miter;stroke-opacity:1" d="M 813.764,249.623 829.61,249.623 z" id="boundary" inkscape:connector-curvature="0" />
	<path style="fill:none;stroke:red;stroke-width:1px;stroke-linecap:butt;stroke-linejoin:miter;stroke-opacity:1" d="M 821.687,528.524 834.364,517.431 z" id="boundary" inkscape:connector-curvature="0" />
	<path style="fill:none;stroke:red;stroke-width:1px;stroke-linecap:butt;stroke-linejoin:miter;stroke-opacity:1" d="M 829.61,249.623 845.457,249.623 z" id="boundary" inkscape:connector-curvature="0" />
	<path style="fill:none;stroke:red;stroke-width:1px;stroke-linecap:butt;stroke-linejoin:miter;stroke-opacity:1" d="M 834.364,517.431 842.288,501.585 z" id="boundary" inkscape:connector-curvature="0" />
	<path style="fill:none;stroke:red;stroke-width:1px;stroke-linecap:butt;stroke-linejoin:miter;stroke-opacity:1" d="M 837.534,314.594 837.534,330.441 z" id="boundary" inkscape:connector-curvature="0" />
	<path style="fill:none;stroke:red;stroke-width:1px;stroke-linecap:butt;stroke-linejoin:miter;stroke-opacity:1" d="M 837.534,314.594 853.38,314.594 z" id="boundary" inkscape:connector-curvature="0" />
	<path style="fill:none;stroke:red;stroke-width:1px;stroke-linecap:butt;stroke-linejoin:miter;stroke-opacity:1" d="M 837.534,330.441 840.703,346.288 z" id="boundary" inkscape:connector-curvature="0" />
	<path style="fill:none;stroke:red;stroke-width:1px;stroke-linecap:butt;stroke-linejoin:miter;stroke-opacity:1" d="M 837.534,433.444 837.534,449.291 z" id="boundary" inkscape:connector-curvature="0" />
	<path style="fill:none;stroke:red;stroke-width:1px;stroke-linecap:butt;stroke-linejoin:miter;stroke-opacity:1" d="M 837.534,433.444 845.457,409.674 z" id="boundary" inkscape:connector-curvature="0" />
	<path style="fill:none;stroke:red;stroke-width:1px;stroke-linecap:butt;stroke-linejoin:miter;stroke-opacity:1" d="M 837.534,449.291 840.703,465.137 z" id="boundary" inkscape:connector-curvature="0" />
	<path style="fill:none;stroke:red;stroke-width:1px;stroke-linecap:butt;stroke-linejoin:miter;stroke-opacity:1" d="M 840.703,346.288 853.38,357.38 z" id="boundary" inkscape:connector-curvature="0" />
	<path style="fill:none;stroke:red;stroke-width:1px;stroke-linecap:butt;stroke-linejoin:miter;stroke-opacity:1" d="M 840.703,465.137 845.457,480.984 z" id="boundary" inkscape:connector-curvature="0" />
	<path style="fill:none;stroke:red;stroke-width:1px;stroke-linecap:butt;stroke-linejoin:miter;stroke-opacity:1" d="M 842.288,501.585 845.457,480.984 z" id="boundary" inkscape:connector-curvature="0" />
	<path style="fill:none;stroke:red;stroke-width:1px;stroke-linecap:butt;stroke-linejoin:miter;stroke-opacity:1" d="M 845.457,249.623 861.304,249.623 z" id="boundary" inkscape:connector-curvature="0" />
	<path style="fill:none;stroke:red;stroke-width:1px;stroke-linecap:butt;stroke-linejoin:miter;stroke-opacity:1" d="M 845.457,393.827 845.457,409.674 z" id="boundary" inkscape:connector-curvature="0" />
	<path style="fill:none;stroke:red;stroke-width:1px;stroke-linecap:butt;stroke-linejoin:miter;stroke-opacity:1" d="M 845.457,393.827 853.38,373.227 z" id="boundary" inkscape:connector-curvature="0" />
	<path style="fill:none;stroke:red;stroke-width:1px;stroke-linecap:butt;stroke-linejoin:miter;stroke-opacity:1" d="M 853.38,314.594 869.227,314.594 z" id="boundary" inkscape:connector-curvature="0" />
	<path style="fill:none;stroke:red;stroke-width:1px;stroke-linecap:butt;stroke-linejoin:miter;stroke-opacity:1" d="M 853.38,357.38 853.38,373.227 z" id="boundary" inkscape:connector-curvature="0" />
	<path style="fill:none;stroke:red;stroke-width:1px;stroke-linecap:butt;stroke-linejoin:miter;stroke-opacity:1" d="M 861.304,249.623 875.565,257.546 z" id="boundary" inkscape:connector-curvature="0" />
	<path style="fill:none;stroke:red;stroke-width:1px;stroke-linecap:butt;stroke-linejoin:miter;stroke-opacity:1" d="M 869.227,314.594 885.073,314.594 z" id="boundary" inkscape:connector-curvature="0" />
	<path style="fill:none;stroke:red;stroke-width:1px;stroke-linecap:butt;stroke-linejoin:miter;stroke-opacity:1" d="M 875.565,257.546 891.412,257.546 z" id="boundary" inkscape:connector-curvature="0" />
	<path style="fill:none;stroke:red;stroke-width:1px;stroke-linecap:butt;stroke-linejoin:miter;stroke-opacity:1" d="M 885.073,314.594 900.92,314.594 z" id="boundary" inkscape:connector-curvature="0" />
	<path style="fill:none;stroke:red;stroke-width:1px;stroke-linecap:butt;stroke-linejoin:miter;stroke-opacity:1" d="M 891.412,257.546 907.259,257.546 z" id="boundary" inkscape:connector-curvature="0" />
	<path style="fill:none;stroke:red;stroke-width:1px;stroke-linecap:butt;stroke-linejoin:miter;stroke-opacity:1" d="M 900.92,314.594 916.767,314.594 z" id="boundary" inkscape:connector-curvature="0" />
	<path style="fill:none;stroke:red;stroke-width:1px;stroke-linecap:butt;stroke-linejoin:miter;stroke-opacity:1" d="M 907.259,257.546 923.105,257.546 z" id="boundary" inkscape:connector-curvature="0" />
	<path style="fill:none;stroke:red;stroke-width:1px;stroke-linecap:butt;stroke-linejoin:miter;stroke-opacity:1" d="M 916.767,314.594 931.029,322.518 z" id="boundary" inkscape:connector-curvature="0" />
	<path style="fill:none;stroke:red;stroke-width:1px;stroke-linecap:butt;stroke-linejoin:miter;stroke-opacity:1" d="M 923.105,257.546 937.367,265.47 z" id="boundary" inkscape:connector-curvature="0" />
	<path style="fill:none;stroke:red;stroke-width:1px;stroke-linecap:butt;stroke-linejoin:miter;stroke-opacity:1" d="M 931.029,322.518 946.875,322.518 z" id="boundary" inkscape:connector-curvature="0" />
	<path style="fill:none;stroke:red;stroke-width:1px;stroke-linecap:butt;stroke-linejoin:miter;stroke-opacity:1" d="M 937.367,265.47 953.214,265.47 z" id="boundary" inkscape:connector-curvature="0" />
	<path style="fill:none;stroke:red;stroke-width:1px;stroke-linecap:butt;stroke-linejoin:miter;stroke-opacity:1" d="M 946.875,322.518 962.722,322.518 z" id="boundary" inkscape:connector-curvature="0" />
	<path style="fill:none;stroke:red;stroke-width:1px;stroke-linecap:butt;stroke-linejoin:miter;stroke-opacity:1" d="M 953.214,265.47 969.061,265.47 z" id="boundary" inkscape:connector-curvature="0" />
	<path style="fill:none;stroke:red;stroke-width:1px;stroke-linecap:butt;stroke-linejoin:miter;stroke-opacity:1" d="M 962.722,322.518 978.569,322.518 z" id="boundary" inkscape:connector-curvature="0" />
	<path style="fill:none;stroke:red;stroke-width:1px;stroke-linecap:butt;stroke-linejoin:miter;stroke-opacity:1" d="M 969.061,265.47 984.907,265.47 z" id="boundary" inkscape:connector-curvature="0" />
	<path style="fill:none;stroke:red;stroke-width:1px;stroke-linecap:butt;stroke-linejoin:miter;stroke-opacity:1" d="M 978.569,322.518 991.246,313.01 z" id="boundary" inkscape:connector-curvature="0" />
	<path style="fill:none;stroke:red;stroke-width:1px;stroke-linecap:butt;stroke-linejoin:miter;stroke-opacity:1" d="M 984.907,265.47 996,278.147 z" id="boundary" inkscape:connector-curvature="0" />
	<path style="fill:none;stroke:red;stroke-width:1px;stroke-linecap:butt;stroke-linejoin:miter;stroke-opacity:1" d="M 991.246,313.01 996,293.994 z" id="boundary" inkscape:connector-curvature="0" />
	<path style="fill:none;stroke:red;stroke-width:1px;stroke-linecap:butt;stroke-linejoin:miter;stroke-opacity:1" d="M 996,278.147 996,293.994 z" id="boundary" inkscape:connector-curvature="0" />
	<circle cx="4" cy="254.377" r="4" fill="#0" id="circle0"/>
	<circle cx="4" cy="270.224" r="4" fill="#0" id="circle1"/>
	<circle cx="4" cy="286.07" r="4" fill="#0" id="circle2"/>
	<circle cx="13.508" cy="298.748" r="4" fill="#0" id="circle3"/>
	<circle cx="19.8466" cy="249.623" r="4" fill="#0" id="circle4"/>
	<circle cx="29.3546" cy="298.748" r="4" fill="#0" id="circle5"/>
	<circle cx="35.6933" cy="249.623" r="4" fill="#0" id="circle6"/>
	<circle cx="45.2013" cy="298.748" r="4" fill="#0" id="circle7"/>
	<circle cx="49.9553" cy="257.546" r="4" fill="#0" id="circle8"/>
	<circle cx="61.0479" cy="301.917" r="4" fill="#0" id="circle9"/>
	<circle cx="65.8019" cy="257.546" r="4" fill="#0" id="circle10"/>
	<circle cx="76.8946" cy="306.671" r="4" fill="#0" id="circle11"/>
	<circle cx="81.6486" cy="257.546" r="4" fill="#0" id="circle12"/>
	<circle cx="92.7412" cy="309.84" r="4" fill="#0" id="circle13"/>
	<circle cx="97.4952" cy="257.546" r="4" fill="#0" id="circle14"/>
	<circle cx="108.588" cy="314.594" r="4" fill="#0" id="circle15"/>
	<circle cx="113.342" cy="257.546" r="4" fill="#0" id="circle16"/>
	<circle cx="124.435" cy="314.594" r="4" fill="#0" id="circle17"/>
	<circle cx="129.188" cy="257.546" r="4" fill="#0" id="circle18"/>
	<circle cx="138.696" cy="238.53" r="4" fill="#0" id="circle19"/>
	<circle cx="138.696" cy="322.518" r="4" fill="#0" id="circle20"/>
	<circle cx="146.62" cy="222.684" r="4" fill="#0" id="circle21"/>
	<circle cx="148.204" cy="335.195" r="4" fill="#0" id="circle22"/>
	<circle cx="159.297" cy="210.006" r="4" fill="#0" id="circle23"/>
	<circle cx="164.051" cy="341.534" r="4" fill="#0" id="circle24"/>
	<circle cx="167.22" cy="194.16" r="4" fill="#0" id="circle25"/>
	<circle cx="179.898" cy="346.288" r="4" fill="#0" id="circle26"/>
	<circle cx="183.067" cy="186.236" r="4" fill="#0" id="circle27"/>
	<circle cx="194.16" cy="354.211" r="4" fill="#0" id="circle28"/>
	<circle cx="198.914" cy="178.313" r="4" fill="#0" id="circle29"/>
	<circle cx="208.422" cy="362.134" r="4" fill="#0" id="circle30"/>
	<circle cx="211.591" cy="165.636" r="4" fill="#0" id="circle31"/>
	<circle cx="222.684" cy="370.058" r="4" fill="#0" id="circle32"/>
	<circle cx="224.268" cy="154.543" r="4" fill="#0" id="circle33"/>
	<circle cx="238.53" cy="146.62" r="4" fill="#0" id="circle34"/>
	<circle cx="238.53" cy="370.058" r="4" fill="#0" id="circle35"/>
	<circle cx="241.7" cy="56.2939" r="4" fill="#0" id="circle36"/>
	<circle cx="241.7" cy="72.1406" r="4" fill="#0" id="circle37"/>
	<circle cx="241.7" cy="87.9872" r="4" fill="#0" id="circle38"/>
	<circle cx="241.7" cy="103.834" r="4" fill="#0" id="circle39"/>
	<circle cx="241.7" cy="119.681" r="4" fill="#0" id="circle40"/>
	<circle cx="249.623" cy="32.524" r="4" fill="#0" id="circle41"/>
	<circle cx="249.623" cy="133.942" r="4" fill="#0" id="circle42"/>
	<circle cx="251.208" cy="381.15" r="4" fill="#0" id="circle43"/>
	<circle cx="257.546" cy="16.6773" r="4" fill="#0" id="circle44"/>
	<circle cx="262.3" cy="393.827" r="4" fill="#0" id="circle45"/>
	<circle cx="273.393" cy="8.75399" r="4" fill="#0" id="circle46"/>
	<circle cx="276.562" cy="401.751" r="4" fill="#0" id="circle47"/>
	<circle cx="289.24" cy="4" r="4" fill="#0" id="circle48"/>
	<circle cx="289.24" cy="411.259" r="4" fill="#0" id="circle49"/>
	<circle cx="289.24" cy="507.923" r="4" fill="#0" id="circle50"/>
	<circle cx="298.748" cy="520.601" r="4" fill="#0" id="circle51"/>
	<circle cx="305.086" cy="4" r="4" fill="#0" id="circle52"/>
	<circle cx="305.086" cy="417.597" r="4" fill="#0" id="circle53"/>
	<circle cx="305.086" cy="500" r="4" fill="#0" id="circle54"/>
	<circle cx="313.01" cy="528.524" r="4" fill="#0" id="circle55"/>
	<circle cx="314.594" cy="430.275" r="4" fill="#0" id="circle56"/>
	<circle cx="320.933" cy="4" r="4" fill="#0" id="circle57"/>
	<circle cx="320.933" cy="495.246" r="4" fill="#0" id="circle58"/>
	<circle cx="322.518" cy="444.537" r="4" fill="#0" id="circle59"/>
	<circle cx="328.856" cy="460.383" r="4" fill="#0" id="circle60"/>
	<circle cx="328.856" cy="528.524" r="4" fill="#0" id="circle61"/>
	<circle cx="335.195" cy="487.323" r="4" fill="#0" id="circle62"/>
	<circle cx="336.78" cy="4" r="4" fill="#0" id="circle63"/>
	<circle cx="344.703" cy="523.77" r="4" fill="#0" id="circle64"/>
	<circle cx="352.626" cy="7.16933" r="4" fill="#0" id="circle65"/>
	<circle cx="354.211" cy="23.016" r="4" fill="#0" id="circle66"/>
	<circle cx="354.211" cy="38.8626" r="4" fill="#0" id="circle67"/>
	<circle cx="354.211" cy="124.435" r="4" fill="#0" id="circle68"/>
	<circle cx="360.55" cy="520.601" r="4" fill="#0" id="circle69"/>
	<circle cx="362.134" cy="53.1246" r="4" fill="#0" id="circle70"/>
	<circle cx="362.134" cy="84.8179" r="4" fill="#0" id="circle71"/>
	<circle cx="362.134" cy="100.665" r="4" fill="#0" id="circle72"/>
	<circle cx="362.134" cy="138.696" r="4" fill="#0" id="circle73"/>
	<circle cx="370.058" cy="67.3866" r="4" fill="#0" id="circle74"/>
	<circle cx="374.812" cy="512.677" r="4" fill="#0" id="circle75"/>
	<circle cx="377.981" cy="138.696" r="4" fill="#0" id="circle76"/>
	<circle cx="390.658" cy="512.677" r="4" fill="#0" id="circle77"/>
	<circle cx="393.827" cy="138.696" r="4" fill="#0" id="circle78"/>
	<circle cx="406.505" cy="512.677" r="4" fill="#0" id="circle79"/>
	<circle cx="408.089" cy="146.62" r="4" fill="#0" id="circle80"/>
	<circle cx="420.767" cy="520.601" r="4" fill="#0" id="circle81"/>
	<circle cx="422.351" cy="138.696" r="4" fill="#0" id="circle82"/>
	<circle cx="435.029" cy="512.677" r="4" fill="#0" id="circle83"/>
	<circle cx="438.198" cy="138.696" r="4" fill="#0" id="circle84"/>
	<circle cx="450.875" cy="512.677" r="4" fill="#0" id="circle85"/>
	<circle cx="452.46" cy="130.773" r="4" fill="#0" id="circle86"/>
	<circle cx="465.137" cy="504.754" r="4" fill="#0" id="circle87"/>
	<circle cx="466.722" cy="122.85" r="4" fill="#0" id="circle88"/>
	<circle cx="480.984" cy="114.927" r="4" fill="#0" id="circle89"/>
	<circle cx="480.984" cy="504.754" r="4" fill="#0" id="circle90"/>
	<circle cx="487.323" cy="539.617" r="4" fill="#0" id="circle91"/>
	<circle cx="496.831" cy="114.927" r="4" fill="#0" id="circle92"/>
	<circle cx="496.831" cy="504.754" r="4" fill="#0" id="circle93"/>
	<circle cx="496.831" cy="552.294" r="4" fill="#0" id="circle94"/>
	<circle cx="500" cy="526.939" r="4" fill="#0" id="circle95"/>
	<circle cx="511.093" cy="560.217" r="4" fill="#0" id="circle96"/>
	<circle cx="512.677" cy="114.927" r="4" fill="#0" id="circle97"/>
	<circle cx="525.355" cy="568.141" r="4" fill="#0" id="circle98"/>
	<circle cx="528.524" cy="114.927" r="4" fill="#0" id="circle99"/>
	<circle cx="541.201" cy="568.141" r="4" fill="#0" id="circle100"/>
	<circle cx="542.786" cy="107.003" r="4" fill="#0" id="circle101"/>
	<circle cx="557.048" cy="568.141" r="4" fill="#0" id="circle102"/>
	<circle cx="558.633" cy="107.003" r="4" fill="#0" id="circle103"/>
	<circle cx="572.895" cy="568.141" r="4" fill="#0" id="circle104"/>
	<circle cx="574.479" cy="107.003" r="4" fill="#0" id="circle105"/>
	<circle cx="588.741" cy="568.141" r="4" fill="#0" id="circle106"/>
	<circle cx="590.326" cy="107.003" r="4" fill="#0" id="circle107"/>
	<circle cx="603.003" cy="560.217" r="4" fill="#0" id="circle108"/>
	<circle cx="604.588" cy="114.927" r="4" fill="#0" id="circle109"/>
	<circle cx="618.85" cy="560.217" r="4" fill="#0" id="circle110"/>
	<circle cx="620.435" cy="116.511" r="4" fill="#0" id="circle111"/>
	<circle cx="634.696" cy="560.217" r="4" fill="#0" id="circle112"/>
	<circle cx="636.281" cy="122.85" r="4" fill="#0" id="circle113"/>
	<circle cx="650.543" cy="560.217" r="4" fill="#0" id="circle114"/>
	<circle cx="652.128" cy="122.85" r="4" fill="#0" id="circle115"/>
	<circle cx="666.39" cy="130.773" r="4" fill="#0" id="circle116"/>
	<circle cx="666.39" cy="560.217" r="4" fill="#0" id="circle117"/>
	<circle cx="680.652" cy="138.696" r="4" fill="#0" id="circle118"/>
	<circle cx="682.236" cy="558.633" r="4" fill="#0" id="circle119"/>
	<circle cx="694.914" cy="146.62" r="4" fill="#0" id="circle120"/>
	<circle cx="698.083" cy="552.294" r="4" fill="#0" id="circle121"/>
	<circle cx="707.591" cy="156.128" r="4" fill="#0" id="circle122"/>
	<circle cx="713.93" cy="552.294" r="4" fill="#0" id="circle123"/>
	<circle cx="718.684" cy="168.805" r="4" fill="#0" id="circle124"/>
	<circle cx="729.776" cy="550.709" r="4" fill="#0" id="circle125"/>
	<circle cx="734.53" cy="175.144" r="4" fill="#0" id="circle126"/>
	<circle cx="745.623" cy="187.821" r="4" fill="#0" id="circle127"/>
	<circle cx="745.623" cy="544.371" r="4" fill="#0" id="circle128"/>
	<circle cx="758.3" cy="198.914" r="4" fill="#0" id="circle129"/>
	<circle cx="761.47" cy="544.371" r="4" fill="#0" id="circle130"/>
	<circle cx="772.562" cy="206.837" r="4" fill="#0" id="circle131"/>
	<circle cx="777.316" cy="544.371" r="4" fill="#0" id="circle132"/>
	<circle cx="785.24" cy="217.93" r="4" fill="#0" id="circle133"/>
	<circle cx="793.163" cy="544.371" r="4" fill="#0" id="circle134"/>
	<circle cx="796.332" cy="230.607" r="4" fill="#0" id="circle135"/>
	<circle cx="797.917" cy="246.454" r="4" fill="#0" id="circle136"/>
	<circle cx="807.425" cy="536.447" r="4" fill="#0" id="circle137"/>
	<circle cx="813.764" cy="249.623" r="4" fill="#0" id="circle138"/>
	<circle cx="821.687" cy="528.524" r="4" fill="#0" id="circle139"/>
	<circle cx="829.61" cy="249.623" r="4" fill="#0" id="circle140"/>
	<circle cx="834.364" cy="517.431" r="4" fill="#0" id="circle141"/>
	<circle cx="837.534" cy="314.594" r="4" fill="#0" id="circle142"/>
	<circle cx="837.534" cy="330.441" r="4" fill="#0" id="circle143"/>
	<circle cx="837.534" cy="433.444" r="4" fill="#0" id="circle144"/>
	<circle cx="837.534" cy="449.291" r="4" fill="#0" id="circle145"/>
	<circle cx="840.703" cy="346.288" r="4" fill="#0" id="circle146"/>
	<circle cx="840.703" cy="465.137" r="4" fill="#0" id="circle147"/>
	<circle cx="842.288" cy="501.585" r="4" fill="#0" id="circle148"/>
	<circle cx="845.457" cy="249.623" r="4" fill="#0" id="circle149"/>
	<circle cx="845.457" cy="393.827" r="4" fill="#0" id="circle150"/>
	<circle cx="845.457" cy="409.674" r="4" fill="#0" id="circle151"/>
	<circle cx="845.457" cy="480.984" r="4" fill="#0" id="circle152"/>
	<circle cx="853.38" cy="314.594" r="4" fill="#0" id="circle153"/>
	<circle cx="853.38" cy="357.38" r="4" fill="#0" id="circle154"/>
	<circle cx="853.38" cy="373.227" r="4" fill="#0" id="circle155"/>
	<circle cx="861.304" cy="249.623" r="4" fill="#0" id="circle156"/>
	<circle cx="869.227" cy="314.594" r="4" fill="#0" id="circle157"/>
	<circle cx="875.565" cy="257.546" r="4" fill="#0" id="circle158"/>
	<circle cx="885.073" cy="314.594" r="4" fill="#0" id="circle159"/>
	<circle cx="891.412" cy="257.546" r="4" fill="#0" id="circle160"/>
	<circle cx="900.92" cy="314.594" r="4" fill="#0" id="circle161"/>
	<circle cx="907.259" cy="257.546" r="4" fill="#0" id="circle162"/>
	<circle cx="916.767" cy="314.594" r="4" fill="#0" id="circle163"/>
	<circle cx="923.105" cy="257.546" r="4" fill="#0" id="circle164"/>
	<circle cx="931.029" cy="322.518" r="4" fill="#0" id="circle165"/>
	<circle cx="937.367" cy="265.47" r="4" fill="#0" id="circle166"/>
	<circle cx="946.875" cy="322.518" r="4" fill="#0" id="circle167"/>
	<circle cx="953.214" cy="265.47" r="4" fill="#0" id="circle168"/>
	<circle cx="962.722" cy="322.518" r="4" fill="#0" id="circle169"/>
	<circle cx="969.061" cy="265.47" r="4" fill="#0" id="circle170"/>
	<circle cx="978.569" cy="322.518" r="4" fill="#0" id="circle171"/>
	<circle cx="984.907" cy="265.47" r="4" fill="#0" id="circle172"/>
	<circle cx="991.246" cy="313.01" r="4" fill="#0" id="circle173"/>
	<circle cx="996" cy="278.147" r="4" fill="#0" id="circle174"/>
	<circle cx="996" cy="293.994" r="4" fill="#0" id="circle175"/>
	</g>
</svg>