<?xml version="1.0" encoding="UTF-8" standalone="no"?>
<!-- Created with CurveBenchmark -->
<svg
	xmlns:dc="http://purl.org/dc/elements/1.1/"
	xmlns:cc="http://creativecommons.org/ns#"
	xmlns:rdf="http://www.w3.org/1999/02/22-rdf-syntax-ns#"
	xmlns:svg="http://www.w3.org/2000/svg"
	xmlns="http://www.w3.org/2000/svg"
	xmlns:sodipodi="http://sodipodi.sourceforge.net/DTD/sodipodi-0.dtd"
	xmlns:inkscape="http://www.inkscape.org/namespaces/inkscape"
	width="1000"
	height="1000"
	id="svg2"
	version="1.1"
	sodipodi:docname="manifold/fitconnect-car-12.png.txt">
<defs
	id="defs4" />
<metadata
	id="metadata7">
	<rdf:RDF>
		<cc:Work
			rdf:about="">
			<dc:format>image/svg+xml</dc:format>
			<dc:type
				rdf:resource="http://purl.org/dc/dcmitype/StillImage" />
			<dc:title></dc:title>
		</cc:Work>
	</rdf:RDF>
</metadata>
<g
	inkscape:label="Layer 1"
	inkscape:groupmode="layer"
	id="layer1">
	<path style="fill:none;stroke:red;stroke-width:1px;stroke-linecap:butt;stroke-linejoin:miter;stroke-opacity:1" d="M 4,260.267 9.16667,249.933 z" id="boundary" inkscape:connector-curvature="0" />
	<path style="fill:none;stroke:red;stroke-width:1px;stroke-linecap:butt;stroke-linejoin:miter;stroke-opacity:1" d="M 4,260.267 12.2667,267.5 z" id="boundary" inkscape:connector-curvature="0" />
	<path style="fill:none;stroke:red;stroke-width:1px;stroke-linecap:butt;stroke-linejoin:miter;stroke-opacity:1" d="M 9.16667,239.6 9.16667,249.933 z" id="boundary" inkscape:connector-curvature="0" />
	<path style="fill:none;stroke:red;stroke-width:1px;stroke-linecap:butt;stroke-linejoin:miter;stroke-opacity:1" d="M 9.16667,239.6 14.3333,229.267 z" id="boundary" inkscape:connector-curvature="0" />
	<path style="fill:none;stroke:red;stroke-width:1px;stroke-linecap:butt;stroke-linejoin:miter;stroke-opacity:1" d="M 12.2667,267.5 19.5,275.767 z" id="boundary" inkscape:connector-curvature="0" />
	<path style="fill:none;stroke:red;stroke-width:1px;stroke-linecap:butt;stroke-linejoin:miter;stroke-opacity:1" d="M 14.3333,229.267 22.6,221 z" id="boundary" inkscape:connector-curvature="0" />
	<path style="fill:none;stroke:red;stroke-width:1px;stroke-linecap:butt;stroke-linejoin:miter;stroke-opacity:1" d="M 19.5,275.767 24.6667,285.067 z" id="boundary" inkscape:connector-curvature="0" />
	<path style="fill:none;stroke:red;stroke-width:1px;stroke-linecap:butt;stroke-linejoin:miter;stroke-opacity:1" d="M 22.6,221 31.9,215.833 z" id="boundary" inkscape:connector-curvature="0" />
	<path style="fill:none;stroke:red;stroke-width:1px;stroke-linecap:butt;stroke-linejoin:miter;stroke-opacity:1" d="M 24.6667,285.067 29.8333,294.367 z" id="boundary" inkscape:connector-curvature="0" />
	<path style="fill:none;stroke:red;stroke-width:1px;stroke-linecap:butt;stroke-linejoin:miter;stroke-opacity:1" d="M 24.6667,353.267 24.6667,363.6 z" id="boundary" inkscape:connector-curvature="0" />
	<path style="fill:none;stroke:red;stroke-width:1px;stroke-linecap:butt;stroke-linejoin:miter;stroke-opacity:1" d="M 24.6667,353.267 29.8333,335.7 z" id="boundary" inkscape:connector-curvature="0" />
	<path style="fill:none;stroke:red;stroke-width:1px;stroke-linecap:butt;stroke-linejoin:miter;stroke-opacity:1" d="M 24.6667,363.6 24.6667,373.933 z" id="boundary" inkscape:connector-curvature="0" />
	<path style="fill:none;stroke:red;stroke-width:1px;stroke-linecap:butt;stroke-linejoin:miter;stroke-opacity:1" d="M 24.6667,373.933 24.6667,384.267 z" id="boundary" inkscape:connector-curvature="0" />
	<path style="fill:none;stroke:red;stroke-width:1px;stroke-linecap:butt;stroke-linejoin:miter;stroke-opacity:1" d="M 24.6667,384.267 24.6667,394.6 z" id="boundary" inkscape:connector-curvature="0" />
	<path style="fill:none;stroke:red;stroke-width:1px;stroke-linecap:butt;stroke-linejoin:miter;stroke-opacity:1" d="M 24.6667,394.6 29.8333,403.9 z" id="boundary" inkscape:connector-curvature="0" />
	<path style="fill:none;stroke:red;stroke-width:1px;stroke-linecap:butt;stroke-linejoin:miter;stroke-opacity:1" d="M 29.8333,294.367 29.8333,304.7 z" id="boundary" inkscape:connector-curvature="0" />
	<path style="fill:none;stroke:red;stroke-width:1px;stroke-linecap:butt;stroke-linejoin:miter;stroke-opacity:1" d="M 29.8333,304.7 29.8333,315.033 z" id="boundary" inkscape:connector-curvature="0" />
	<path style="fill:none;stroke:red;stroke-width:1px;stroke-linecap:butt;stroke-linejoin:miter;stroke-opacity:1" d="M 29.8333,315.033 29.8333,325.367 z" id="boundary" inkscape:connector-curvature="0" />
	<path style="fill:none;stroke:red;stroke-width:1px;stroke-linecap:butt;stroke-linejoin:miter;stroke-opacity:1" d="M 29.8333,325.367 29.8333,335.7 z" id="boundary" inkscape:connector-curvature="0" />
	<path style="fill:none;stroke:red;stroke-width:1px;stroke-linecap:butt;stroke-linejoin:miter;stroke-opacity:1" d="M 29.8333,403.9 37.0667,412.167 z" id="boundary" inkscape:connector-curvature="0" />
	<path style="fill:none;stroke:red;stroke-width:1px;stroke-linecap:butt;stroke-linejoin:miter;stroke-opacity:1" d="M 31.9,215.833 40.1667,208.6 z" id="boundary" inkscape:connector-curvature="0" />
	<path style="fill:none;stroke:red;stroke-width:1px;stroke-linecap:butt;stroke-linejoin:miter;stroke-opacity:1" d="M 37.0667,412.167 47.4,416.3 z" id="boundary" inkscape:connector-curvature="0" />
	<path style="fill:none;stroke:red;stroke-width:1px;stroke-linecap:butt;stroke-linejoin:miter;stroke-opacity:1" d="M 40.1667,208.6 50.5,203.433 z" id="boundary" inkscape:connector-curvature="0" />
	<path style="fill:none;stroke:red;stroke-width:1px;stroke-linecap:butt;stroke-linejoin:miter;stroke-opacity:1" d="M 47.4,416.3 57.7333,418.367 z" id="boundary" inkscape:connector-curvature="0" />
	<path style="fill:none;stroke:red;stroke-width:1px;stroke-linecap:butt;stroke-linejoin:miter;stroke-opacity:1" d="M 50.5,203.433 60.8333,198.267 z" id="boundary" inkscape:connector-curvature="0" />
	<path style="fill:none;stroke:red;stroke-width:1px;stroke-linecap:butt;stroke-linejoin:miter;stroke-opacity:1" d="M 57.7333,418.367 66,424.567 z" id="boundary" inkscape:connector-curvature="0" />
	<path style="fill:none;stroke:red;stroke-width:1px;stroke-linecap:butt;stroke-linejoin:miter;stroke-opacity:1" d="M 60.8333,198.267 69.1,190 z" id="boundary" inkscape:connector-curvature="0" />
	<path style="fill:none;stroke:red;stroke-width:1px;stroke-linecap:butt;stroke-linejoin:miter;stroke-opacity:1" d="M 66,424.567 71.1667,433.867 z" id="boundary" inkscape:connector-curvature="0" />
	<path style="fill:none;stroke:red;stroke-width:1px;stroke-linecap:butt;stroke-linejoin:miter;stroke-opacity:1" d="M 69.1,190 79.4333,184.833 z" id="boundary" inkscape:connector-curvature="0" />
	<path style="fill:none;stroke:red;stroke-width:1px;stroke-linecap:butt;stroke-linejoin:miter;stroke-opacity:1" d="M 71.1667,433.867 71.1667,444.2 z" id="boundary" inkscape:connector-curvature="0" />
	<path style="fill:none;stroke:red;stroke-width:1px;stroke-linecap:butt;stroke-linejoin:miter;stroke-opacity:1" d="M 71.1667,444.2 77.3667,452.467 z" id="boundary" inkscape:connector-curvature="0" />
	<path style="fill:none;stroke:red;stroke-width:1px;stroke-linecap:butt;stroke-linejoin:miter;stroke-opacity:1" d="M 77.3667,452.467 85.6333,459.7 z" id="boundary" inkscape:connector-curvature="0" />
	<path style="fill:none;stroke:red;stroke-width:1px;stroke-linecap:butt;stroke-linejoin:miter;stroke-opacity:1" d="M 79.4333,184.833 89.7667,184.833 z" id="boundary" inkscape:connector-curvature="0" />
	<path style="fill:none;stroke:red;stroke-width:1px;stroke-linecap:butt;stroke-linejoin:miter;stroke-opacity:1" d="M 85.6333,459.7 95.9667,459.7 z" id="boundary" inkscape:connector-curvature="0" />
	<path style="fill:none;stroke:red;stroke-width:1px;stroke-linecap:butt;stroke-linejoin:miter;stroke-opacity:1" d="M 89.7667,184.833 99.0667,179.667 z" id="boundary" inkscape:connector-curvature="0" />
	<path style="fill:none;stroke:red;stroke-width:1px;stroke-linecap:butt;stroke-linejoin:miter;stroke-opacity:1" d="M 95.9667,459.7 105.267,464.867 z" id="boundary" inkscape:connector-curvature="0" />
	<path style="fill:none;stroke:red;stroke-width:1px;stroke-linecap:butt;stroke-linejoin:miter;stroke-opacity:1" d="M 99.0667,179.667 109.4,179.667 z" id="boundary" inkscape:connector-curvature="0" />
	<path style="fill:none;stroke:red;stroke-width:1px;stroke-linecap:butt;stroke-linejoin:miter;stroke-opacity:1" d="M 105.267,464.867 114.567,470.033 z" id="boundary" inkscape:connector-curvature="0" />
	<path style="fill:none;stroke:red;stroke-width:1px;stroke-linecap:butt;stroke-linejoin:miter;stroke-opacity:1" d="M 109.4,179.667 118.7,174.5 z" id="boundary" inkscape:connector-curvature="0" />
	<path style="fill:none;stroke:red;stroke-width:1px;stroke-linecap:butt;stroke-linejoin:miter;stroke-opacity:1" d="M 114.567,470.033 124.9,473.133 z" id="boundary" inkscape:connector-curvature="0" />
	<path style="fill:none;stroke:red;stroke-width:1px;stroke-linecap:butt;stroke-linejoin:miter;stroke-opacity:1" d="M 118.7,174.5 129.033,174.5 z" id="boundary" inkscape:connector-curvature="0" />
	<path style="fill:none;stroke:red;stroke-width:1px;stroke-linecap:butt;stroke-linejoin:miter;stroke-opacity:1" d="M 124.9,473.133 135.233,475.2 z" id="boundary" inkscape:connector-curvature="0" />
	<path style="fill:none;stroke:red;stroke-width:1px;stroke-linecap:butt;stroke-linejoin:miter;stroke-opacity:1" d="M 129.033,174.5 139.367,174.5 z" id="boundary" inkscape:connector-curvature="0" />
	<path style="fill:none;stroke:red;stroke-width:1px;stroke-linecap:butt;stroke-linejoin:miter;stroke-opacity:1" d="M 135.233,475.2 144.533,480.367 z" id="boundary" inkscape:connector-curvature="0" />
	<path style="fill:none;stroke:red;stroke-width:1px;stroke-linecap:butt;stroke-linejoin:miter;stroke-opacity:1" d="M 139.367,174.5 149.7,174.5 z" id="boundary" inkscape:connector-curvature="0" />
	<path style="fill:none;stroke:red;stroke-width:1px;stroke-linecap:butt;stroke-linejoin:miter;stroke-opacity:1" d="M 144.533,480.367 154.867,480.367 z" id="boundary" inkscape:connector-curvature="0" />
	<path style="fill:none;stroke:red;stroke-width:1px;stroke-linecap:butt;stroke-linejoin:miter;stroke-opacity:1" d="M 149.7,174.5 160.033,174.5 z" id="boundary" inkscape:connector-curvature="0" />
	<path style="fill:none;stroke:red;stroke-width:1px;stroke-linecap:butt;stroke-linejoin:miter;stroke-opacity:1" d="M 154.867,480.367 165.2,480.367 z" id="boundary" inkscape:connector-curvature="0" />
	<path style="fill:none;stroke:red;stroke-width:1px;stroke-linecap:butt;stroke-linejoin:miter;stroke-opacity:1" d="M 160.033,174.5 169.333,169.333 z" id="boundary" inkscape:connector-curvature="0" />
	<path style="fill:none;stroke:red;stroke-width:1px;stroke-linecap:butt;stroke-linejoin:miter;stroke-opacity:1" d="M 165.2,480.367 175.533,480.367 z" id="boundary" inkscape:connector-curvature="0" />
	<path style="fill:none;stroke:red;stroke-width:1px;stroke-linecap:butt;stroke-linejoin:miter;stroke-opacity:1" d="M 169.333,169.333 179.667,169.333 z" id="boundary" inkscape:connector-curvature="0" />
	<path style="fill:none;stroke:red;stroke-width:1px;stroke-linecap:butt;stroke-linejoin:miter;stroke-opacity:1" d="M 175.533,480.367 185.867,480.367 z" id="boundary" inkscape:connector-curvature="0" />
	<path style="fill:none;stroke:red;stroke-width:1px;stroke-linecap:butt;stroke-linejoin:miter;stroke-opacity:1" d="M 179.667,169.333 190,167.267 z" id="boundary" inkscape:connector-curvature="0" />
	<path style="fill:none;stroke:red;stroke-width:1px;stroke-linecap:butt;stroke-linejoin:miter;stroke-opacity:1" d="M 185.867,480.367 194.133,473.133 z" id="boundary" inkscape:connector-curvature="0" />
	<path style="fill:none;stroke:red;stroke-width:1px;stroke-linecap:butt;stroke-linejoin:miter;stroke-opacity:1" d="M 190,167.267 200.333,164.167 z" id="boundary" inkscape:connector-curvature="0" />
	<path style="fill:none;stroke:red;stroke-width:1px;stroke-linecap:butt;stroke-linejoin:miter;stroke-opacity:1" d="M 194.133,473.133 201.367,463.833 z" id="boundary" inkscape:connector-curvature="0" />
	<path style="fill:none;stroke:red;stroke-width:1px;stroke-linecap:butt;stroke-linejoin:miter;stroke-opacity:1" d="M 196.2,444.2 201.367,453.5 z" id="boundary" inkscape:connector-curvature="0" />
	<path style="fill:none;stroke:red;stroke-width:1px;stroke-linecap:butt;stroke-linejoin:miter;stroke-opacity:1" d="M 196.2,444.2 205.5,439.033 z" id="boundary" inkscape:connector-curvature="0" />
	<path style="fill:none;stroke:red;stroke-width:1px;stroke-linecap:butt;stroke-linejoin:miter;stroke-opacity:1" d="M 200.333,164.167 210.667,164.167 z" id="boundary" inkscape:connector-curvature="0" />
	<path style="fill:none;stroke:red;stroke-width:1px;stroke-linecap:butt;stroke-linejoin:miter;stroke-opacity:1" d="M 201.367,453.5 201.367,463.833 z" id="boundary" inkscape:connector-curvature="0" />
	<path style="fill:none;stroke:red;stroke-width:1px;stroke-linecap:butt;stroke-linejoin:miter;stroke-opacity:1" d="M 205.5,439.033 215.833,439.033 z" id="boundary" inkscape:connector-curvature="0" />
	<path style="fill:none;stroke:red;stroke-width:1px;stroke-linecap:butt;stroke-linejoin:miter;stroke-opacity:1" d="M 210.667,164.167 221,164.167 z" id="boundary" inkscape:connector-curvature="0" />
	<path style="fill:none;stroke:red;stroke-width:1px;stroke-linecap:butt;stroke-linejoin:miter;stroke-opacity:1" d="M 215.833,439.033 225.133,444.2 z" id="boundary" inkscape:connector-curvature="0" />
	<path style="fill:none;stroke:red;stroke-width:1px;stroke-linecap:butt;stroke-linejoin:miter;stroke-opacity:1" d="M 221,164.167 231.333,164.167 z" id="boundary" inkscape:connector-curvature="0" />
	<path style="fill:none;stroke:red;stroke-width:1px;stroke-linecap:butt;stroke-linejoin:miter;stroke-opacity:1" d="M 225.133,444.2 235.467,444.2 z" id="boundary" inkscape:connector-curvature="0" />
	<path style="fill:none;stroke:red;stroke-width:1px;stroke-linecap:butt;stroke-linejoin:miter;stroke-opacity:1" d="M 231.333,164.167 241.667,164.167 z" id="boundary" inkscape:connector-curvature="0" />
	<path style="fill:none;stroke:red;stroke-width:1px;stroke-linecap:butt;stroke-linejoin:miter;stroke-opacity:1" d="M 235.467,444.2 245.8,444.2 z" id="boundary" inkscape:connector-curvature="0" />
	<path style="fill:none;stroke:red;stroke-width:1px;stroke-linecap:butt;stroke-linejoin:miter;stroke-opacity:1" d="M 241.667,164.167 252,164.167 z" id="boundary" inkscape:connector-curvature="0" />
	<path style="fill:none;stroke:red;stroke-width:1px;stroke-linecap:butt;stroke-linejoin:miter;stroke-opacity:1" d="M 245.8,444.2 256.133,444.2 z" id="boundary" inkscape:connector-curvature="0" />
	<path style="fill:none;stroke:red;stroke-width:1px;stroke-linecap:butt;stroke-linejoin:miter;stroke-opacity:1" d="M 252,164.167 261.3,159 z" id="boundary" inkscape:connector-curvature="0" />
	<path style="fill:none;stroke:red;stroke-width:1px;stroke-linecap:butt;stroke-linejoin:miter;stroke-opacity:1" d="M 256.133,444.2 266.467,444.2 z" id="boundary" inkscape:connector-curvature="0" />
	<path style="fill:none;stroke:red;stroke-width:1px;stroke-linecap:butt;stroke-linejoin:miter;stroke-opacity:1" d="M 261.3,159 267.5,146.6 z" id="boundary" inkscape:connector-curvature="0" />
	<path style="fill:none;stroke:red;stroke-width:1px;stroke-linecap:butt;stroke-linejoin:miter;stroke-opacity:1" d="M 266.467,444.2 276.8,444.2 z" id="boundary" inkscape:connector-curvature="0" />
	<path style="fill:none;stroke:red;stroke-width:1px;stroke-linecap:butt;stroke-linejoin:miter;stroke-opacity:1" d="M 267.5,146.6 275.767,138.333 z" id="boundary" inkscape:connector-curvature="0" />
	<path style="fill:none;stroke:red;stroke-width:1px;stroke-linecap:butt;stroke-linejoin:miter;stroke-opacity:1" d="M 275.767,138.333 285.067,133.167 z" id="boundary" inkscape:connector-curvature="0" />
	<path style="fill:none;stroke:red;stroke-width:1px;stroke-linecap:butt;stroke-linejoin:miter;stroke-opacity:1" d="M 276.8,444.2 287.133,444.2 z" id="boundary" inkscape:connector-curvature="0" />
	<path style="fill:none;stroke:red;stroke-width:1px;stroke-linecap:butt;stroke-linejoin:miter;stroke-opacity:1" d="M 285.067,133.167 295.4,129.033 z" id="boundary" inkscape:connector-curvature="0" />
	<path style="fill:none;stroke:red;stroke-width:1px;stroke-linecap:butt;stroke-linejoin:miter;stroke-opacity:1" d="M 287.133,444.2 297.467,444.2 z" id="boundary" inkscape:connector-curvature="0" />
	<path style="fill:none;stroke:red;stroke-width:1px;stroke-linecap:butt;stroke-linejoin:miter;stroke-opacity:1" d="M 295.4,129.033 305.733,128 z" id="boundary" inkscape:connector-curvature="0" />
	<path style="fill:none;stroke:red;stroke-width:1px;stroke-linecap:butt;stroke-linejoin:miter;stroke-opacity:1" d="M 297.467,444.2 307.8,444.2 z" id="boundary" inkscape:connector-curvature="0" />
	<path style="fill:none;stroke:red;stroke-width:1px;stroke-linecap:butt;stroke-linejoin:miter;stroke-opacity:1" d="M 305.733,128 316.067,128 z" id="boundary" inkscape:connector-curvature="0" />
	<path style="fill:none;stroke:red;stroke-width:1px;stroke-linecap:butt;stroke-linejoin:miter;stroke-opacity:1" d="M 307.8,444.2 318.133,444.2 z" id="boundary" inkscape:connector-curvature="0" />
	<path style="fill:none;stroke:red;stroke-width:1px;stroke-linecap:butt;stroke-linejoin:miter;stroke-opacity:1" d="M 316.067,128 326.4,128 z" id="boundary" inkscape:connector-curvature="0" />
	<path style="fill:none;stroke:red;stroke-width:1px;stroke-linecap:butt;stroke-linejoin:miter;stroke-opacity:1" d="M 318.133,444.2 328.467,444.2 z" id="boundary" inkscape:connector-curvature="0" />
	<path style="fill:none;stroke:red;stroke-width:1px;stroke-linecap:butt;stroke-linejoin:miter;stroke-opacity:1" d="M 326.4,128 336.733,123.867 z" id="boundary" inkscape:connector-curvature="0" />
	<path style="fill:none;stroke:red;stroke-width:1px;stroke-linecap:butt;stroke-linejoin:miter;stroke-opacity:1" d="M 328.467,444.2 338.8,444.2 z" id="boundary" inkscape:connector-curvature="0" />
	<path style="fill:none;stroke:red;stroke-width:1px;stroke-linecap:butt;stroke-linejoin:miter;stroke-opacity:1" d="M 336.733,123.867 345,115.6 z" id="boundary" inkscape:connector-curvature="0" />
	<path style="fill:none;stroke:red;stroke-width:1px;stroke-linecap:butt;stroke-linejoin:miter;stroke-opacity:1" d="M 338.8,444.2 349.133,444.2 z" id="boundary" inkscape:connector-curvature="0" />
	<path style="fill:none;stroke:red;stroke-width:1px;stroke-linecap:butt;stroke-linejoin:miter;stroke-opacity:1" d="M 345,115.6 353.267,107.333 z" id="boundary" inkscape:connector-curvature="0" />
	<path style="fill:none;stroke:red;stroke-width:1px;stroke-linecap:butt;stroke-linejoin:miter;stroke-opacity:1" d="M 349.133,444.2 359.467,444.2 z" id="boundary" inkscape:connector-curvature="0" />
	<path style="fill:none;stroke:red;stroke-width:1px;stroke-linecap:butt;stroke-linejoin:miter;stroke-opacity:1" d="M 353.267,107.333 363.6,102.167 z" id="boundary" inkscape:connector-curvature="0" />
	<path style="fill:none;stroke:red;stroke-width:1px;stroke-linecap:butt;stroke-linejoin:miter;stroke-opacity:1" d="M 359.467,444.2 369.8,444.2 z" id="boundary" inkscape:connector-curvature="0" />
	<path style="fill:none;stroke:red;stroke-width:1px;stroke-linecap:butt;stroke-linejoin:miter;stroke-opacity:1" d="M 363.6,102.167 373.933,102.167 z" id="boundary" inkscape:connector-curvature="0" />
	<path style="fill:none;stroke:red;stroke-width:1px;stroke-linecap:butt;stroke-linejoin:miter;stroke-opacity:1" d="M 369.8,444.2 380.133,444.2 z" id="boundary" inkscape:connector-curvature="0" />
	<path style="fill:none;stroke:red;stroke-width:1px;stroke-linecap:butt;stroke-linejoin:miter;stroke-opacity:1" d="M 373.933,102.167 384.267,102.167 z" id="boundary" inkscape:connector-curvature="0" />
	<path style="fill:none;stroke:red;stroke-width:1px;stroke-linecap:butt;stroke-linejoin:miter;stroke-opacity:1" d="M 380.133,444.2 390.467,444.2 z" id="boundary" inkscape:connector-curvature="0" />
	<path style="fill:none;stroke:red;stroke-width:1px;stroke-linecap:butt;stroke-linejoin:miter;stroke-opacity:1" d="M 384.267,102.167 393.567,107.333 z" id="boundary" inkscape:connector-curvature="0" />
	<path style="fill:none;stroke:red;stroke-width:1px;stroke-linecap:butt;stroke-linejoin:miter;stroke-opacity:1" d="M 390.467,444.2 400.8,444.2 z" id="boundary" inkscape:connector-curvature="0" />
	<path style="fill:none;stroke:red;stroke-width:1px;stroke-linecap:butt;stroke-linejoin:miter;stroke-opacity:1" d="M 393.567,107.333 402.867,112.5 z" id="boundary" inkscape:connector-curvature="0" />
	<path style="fill:none;stroke:red;stroke-width:1px;stroke-linecap:butt;stroke-linejoin:miter;stroke-opacity:1" d="M 400.8,444.2 411.133,444.2 z" id="boundary" inkscape:connector-curvature="0" />
	<path style="fill:none;stroke:red;stroke-width:1px;stroke-linecap:butt;stroke-linejoin:miter;stroke-opacity:1" d="M 402.867,112.5 412.167,117.667 z" id="boundary" inkscape:connector-curvature="0" />
	<path style="fill:none;stroke:red;stroke-width:1px;stroke-linecap:butt;stroke-linejoin:miter;stroke-opacity:1" d="M 411.133,444.2 430.767,438 z" id="boundary" inkscape:connector-curvature="0" />
	<path style="fill:none;stroke:red;stroke-width:1px;stroke-linecap:butt;stroke-linejoin:miter;stroke-opacity:1" d="M 412.167,117.667 422.5,117.667 z" id="boundary" inkscape:connector-curvature="0" />
	<path style="fill:none;stroke:red;stroke-width:1px;stroke-linecap:butt;stroke-linejoin:miter;stroke-opacity:1" d="M 422.5,117.667 432.833,117.667 z" id="boundary" inkscape:connector-curvature="0" />
	<path style="fill:none;stroke:red;stroke-width:1px;stroke-linecap:butt;stroke-linejoin:miter;stroke-opacity:1" d="M 430.767,438 439.033,423.533 z" id="boundary" inkscape:connector-curvature="0" />
	<path style="fill:none;stroke:red;stroke-width:1px;stroke-linecap:butt;stroke-linejoin:miter;stroke-opacity:1" d="M 432.833,117.667 443.167,117.667 z" id="boundary" inkscape:connector-curvature="0" />
	<path style="fill:none;stroke:red;stroke-width:1px;stroke-linecap:butt;stroke-linejoin:miter;stroke-opacity:1" d="M 439.033,423.533 453.5,438 z" id="boundary" inkscape:connector-curvature="0" />
	<path style="fill:none;stroke:red;stroke-width:1px;stroke-linecap:butt;stroke-linejoin:miter;stroke-opacity:1" d="M 443.167,117.667 453.5,115.6 z" id="boundary" inkscape:connector-curvature="0" />
	<path style="fill:none;stroke:red;stroke-width:1px;stroke-linecap:butt;stroke-linejoin:miter;stroke-opacity:1" d="M 453.5,63.9333 453.5,74.2667 z" id="boundary" inkscape:connector-curvature="0" />
	<path style="fill:none;stroke:red;stroke-width:1px;stroke-linecap:butt;stroke-linejoin:miter;stroke-opacity:1" d="M 453.5,63.9333 458.667,53.6 z" id="boundary" inkscape:connector-curvature="0" />
	<path style="fill:none;stroke:red;stroke-width:1px;stroke-linecap:butt;stroke-linejoin:miter;stroke-opacity:1" d="M 453.5,74.2667 453.5,84.6 z" id="boundary" inkscape:connector-curvature="0" />
	<path style="fill:none;stroke:red;stroke-width:1px;stroke-linecap:butt;stroke-linejoin:miter;stroke-opacity:1" d="M 453.5,84.6 453.5,94.9333 z" id="boundary" inkscape:connector-curvature="0" />
	<path style="fill:none;stroke:red;stroke-width:1px;stroke-linecap:butt;stroke-linejoin:miter;stroke-opacity:1" d="M 453.5,94.9333 453.5,105.267 z" id="boundary" inkscape:connector-curvature="0" />
	<path style="fill:none;stroke:red;stroke-width:1px;stroke-linecap:butt;stroke-linejoin:miter;stroke-opacity:1" d="M 453.5,105.267 453.5,115.6 z" id="boundary" inkscape:connector-curvature="0" />
	<path style="fill:none;stroke:red;stroke-width:1px;stroke-linecap:butt;stroke-linejoin:miter;stroke-opacity:1" d="M 453.5,438 453.5,448.333 z" id="boundary" inkscape:connector-curvature="0" />
	<path style="fill:none;stroke:red;stroke-width:1px;stroke-linecap:butt;stroke-linejoin:miter;stroke-opacity:1" d="M 453.5,448.333 453.5,458.667 z" id="boundary" inkscape:connector-curvature="0" />
	<path style="fill:none;stroke:red;stroke-width:1px;stroke-linecap:butt;stroke-linejoin:miter;stroke-opacity:1" d="M 453.5,458.667 455.567,469 z" id="boundary" inkscape:connector-curvature="0" />
	<path style="fill:none;stroke:red;stroke-width:1px;stroke-linecap:butt;stroke-linejoin:miter;stroke-opacity:1" d="M 455.567,469 460.733,478.3 z" id="boundary" inkscape:connector-curvature="0" />
	<path style="fill:none;stroke:red;stroke-width:1px;stroke-linecap:butt;stroke-linejoin:miter;stroke-opacity:1" d="M 458.667,53.6 463.833,38.1 z" id="boundary" inkscape:connector-curvature="0" />
	<path style="fill:none;stroke:red;stroke-width:1px;stroke-linecap:butt;stroke-linejoin:miter;stroke-opacity:1" d="M 460.733,478.3 464.867,488.633 z" id="boundary" inkscape:connector-curvature="0" />
	<path style="fill:none;stroke:red;stroke-width:1px;stroke-linecap:butt;stroke-linejoin:miter;stroke-opacity:1" d="M 463.833,38.1 469,27.7667 z" id="boundary" inkscape:connector-curvature="0" />
	<path style="fill:none;stroke:red;stroke-width:1px;stroke-linecap:butt;stroke-linejoin:miter;stroke-opacity:1" d="M 464.867,488.633 473.133,495.867 z" id="boundary" inkscape:connector-curvature="0" />
	<path style="fill:none;stroke:red;stroke-width:1px;stroke-linecap:butt;stroke-linejoin:miter;stroke-opacity:1" d="M 469,27.7667 477.267,19.5 z" id="boundary" inkscape:connector-curvature="0" />
	<path style="fill:none;stroke:red;stroke-width:1px;stroke-linecap:butt;stroke-linejoin:miter;stroke-opacity:1" d="M 473.133,495.867 482.433,501.033 z" id="boundary" inkscape:connector-curvature="0" />
	<path style="fill:none;stroke:red;stroke-width:1px;stroke-linecap:butt;stroke-linejoin:miter;stroke-opacity:1" d="M 477.267,19.5 482.433,9.16667 z" id="boundary" inkscape:connector-curvature="0" />
	<path style="fill:none;stroke:red;stroke-width:1px;stroke-linecap:butt;stroke-linejoin:miter;stroke-opacity:1" d="M 482.433,9.16667 492.767,4 z" id="boundary" inkscape:connector-curvature="0" />
	<path style="fill:none;stroke:red;stroke-width:1px;stroke-linecap:butt;stroke-linejoin:miter;stroke-opacity:1" d="M 482.433,501.033 492.767,501.033 z" id="boundary" inkscape:connector-curvature="0" />
	<path style="fill:none;stroke:red;stroke-width:1px;stroke-linecap:butt;stroke-linejoin:miter;stroke-opacity:1" d="M 492.767,4 503.1,4 z" id="boundary" inkscape:connector-curvature="0" />
	<path style="fill:none;stroke:red;stroke-width:1px;stroke-linecap:butt;stroke-linejoin:miter;stroke-opacity:1" d="M 492.767,501.033 503.1,501.033 z" id="boundary" inkscape:connector-curvature="0" />
	<path style="fill:none;stroke:red;stroke-width:1px;stroke-linecap:butt;stroke-linejoin:miter;stroke-opacity:1" d="M 503.1,4 513.433,4 z" id="boundary" inkscape:connector-curvature="0" />
	<path style="fill:none;stroke:red;stroke-width:1px;stroke-linecap:butt;stroke-linejoin:miter;stroke-opacity:1" d="M 503.1,501.033 512.4,495.867 z" id="boundary" inkscape:connector-curvature="0" />
	<path style="fill:none;stroke:red;stroke-width:1px;stroke-linecap:butt;stroke-linejoin:miter;stroke-opacity:1" d="M 512.4,495.867 521.7,490.7 z" id="boundary" inkscape:connector-curvature="0" />
	<path style="fill:none;stroke:red;stroke-width:1px;stroke-linecap:butt;stroke-linejoin:miter;stroke-opacity:1" d="M 513.433,4 523.767,4 z" id="boundary" inkscape:connector-curvature="0" />
	<path style="fill:none;stroke:red;stroke-width:1px;stroke-linecap:butt;stroke-linejoin:miter;stroke-opacity:1" d="M 521.7,490.7 529.967,483.467 z" id="boundary" inkscape:connector-curvature="0" />
	<path style="fill:none;stroke:red;stroke-width:1px;stroke-linecap:butt;stroke-linejoin:miter;stroke-opacity:1" d="M 523.767,4 534.1,4 z" id="boundary" inkscape:connector-curvature="0" />
	<path style="fill:none;stroke:red;stroke-width:1px;stroke-linecap:butt;stroke-linejoin:miter;stroke-opacity:1" d="M 529.967,483.467 537.2,475.2 z" id="boundary" inkscape:connector-curvature="0" />
	<path style="fill:none;stroke:red;stroke-width:1px;stroke-linecap:butt;stroke-linejoin:miter;stroke-opacity:1" d="M 534.1,4 543.4,9.16667 z" id="boundary" inkscape:connector-curvature="0" />
	<path style="fill:none;stroke:red;stroke-width:1px;stroke-linecap:butt;stroke-linejoin:miter;stroke-opacity:1" d="M 537.2,475.2 542.367,464.867 z" id="boundary" inkscape:connector-curvature="0" />
	<path style="fill:none;stroke:red;stroke-width:1px;stroke-linecap:butt;stroke-linejoin:miter;stroke-opacity:1" d="M 542.367,464.867 547.533,454.533 z" id="boundary" inkscape:connector-curvature="0" />
	<path style="fill:none;stroke:red;stroke-width:1px;stroke-linecap:butt;stroke-linejoin:miter;stroke-opacity:1" d="M 543.4,9.16667 553.733,9.16667 z" id="boundary" inkscape:connector-curvature="0" />
	<path style="fill:none;stroke:red;stroke-width:1px;stroke-linecap:butt;stroke-linejoin:miter;stroke-opacity:1" d="M 547.533,454.533 552.7,444.2 z" id="boundary" inkscape:connector-curvature="0" />
	<path style="fill:none;stroke:red;stroke-width:1px;stroke-linecap:butt;stroke-linejoin:miter;stroke-opacity:1" d="M 552.7,444.2 557.867,433.867 z" id="boundary" inkscape:connector-curvature="0" />
	<path style="fill:none;stroke:red;stroke-width:1px;stroke-linecap:butt;stroke-linejoin:miter;stroke-opacity:1" d="M 553.733,9.16667 564.067,9.16667 z" id="boundary" inkscape:connector-curvature="0" />
	<path style="fill:none;stroke:red;stroke-width:1px;stroke-linecap:butt;stroke-linejoin:miter;stroke-opacity:1" d="M 557.867,433.867 563.033,423.533 z" id="boundary" inkscape:connector-curvature="0" />
	<path style="fill:none;stroke:red;stroke-width:1px;stroke-linecap:butt;stroke-linejoin:miter;stroke-opacity:1" d="M 563.033,413.2 563.033,423.533 z" id="boundary" inkscape:connector-curvature="0" />
	<path style="fill:none;stroke:red;stroke-width:1px;stroke-linecap:butt;stroke-linejoin:miter;stroke-opacity:1" d="M 563.033,413.2 573.367,413.2 z" id="boundary" inkscape:connector-curvature="0" />
	<path style="fill:none;stroke:red;stroke-width:1px;stroke-linecap:butt;stroke-linejoin:miter;stroke-opacity:1" d="M 564.067,9.16667 574.4,9.16667 z" id="boundary" inkscape:connector-curvature="0" />
	<path style="fill:none;stroke:red;stroke-width:1px;stroke-linecap:butt;stroke-linejoin:miter;stroke-opacity:1" d="M 573.367,413.2 583.7,413.2 z" id="boundary" inkscape:connector-curvature="0" />
	<path style="fill:none;stroke:red;stroke-width:1px;stroke-linecap:butt;stroke-linejoin:miter;stroke-opacity:1" d="M 574.4,9.16667 584.733,9.16667 z" id="boundary" inkscape:connector-curvature="0" />
	<path style="fill:none;stroke:red;stroke-width:1px;stroke-linecap:butt;stroke-linejoin:miter;stroke-opacity:1" d="M 583.7,413.2 594.033,413.2 z" id="boundary" inkscape:connector-curvature="0" />
	<path style="fill:none;stroke:red;stroke-width:1px;stroke-linecap:butt;stroke-linejoin:miter;stroke-opacity:1" d="M 584.733,9.16667 595.067,9.16667 z" id="boundary" inkscape:connector-curvature="0" />
	<path style="fill:none;stroke:red;stroke-width:1px;stroke-linecap:butt;stroke-linejoin:miter;stroke-opacity:1" d="M 594.033,413.2 604.367,413.2 z" id="boundary" inkscape:connector-curvature="0" />
	<path style="fill:none;stroke:red;stroke-width:1px;stroke-linecap:butt;stroke-linejoin:miter;stroke-opacity:1" d="M 595.067,9.16667 605.4,9.16667 z" id="boundary" inkscape:connector-curvature="0" />
	<path style="fill:none;stroke:red;stroke-width:1px;stroke-linecap:butt;stroke-linejoin:miter;stroke-opacity:1" d="M 604.367,413.2 614.7,413.2 z" id="boundary" inkscape:connector-curvature="0" />
	<path style="fill:none;stroke:red;stroke-width:1px;stroke-linecap:butt;stroke-linejoin:miter;stroke-opacity:1" d="M 605.4,9.16667 615.733,9.16667 z" id="boundary" inkscape:connector-curvature="0" />
	<path style="fill:none;stroke:red;stroke-width:1px;stroke-linecap:butt;stroke-linejoin:miter;stroke-opacity:1" d="M 614.7,413.2 625.033,413.2 z" id="boundary" inkscape:connector-curvature="0" />
	<path style="fill:none;stroke:red;stroke-width:1px;stroke-linecap:butt;stroke-linejoin:miter;stroke-opacity:1" d="M 615.733,9.16667 626.067,9.16667 z" id="boundary" inkscape:connector-curvature="0" />
	<path style="fill:none;stroke:red;stroke-width:1px;stroke-linecap:butt;stroke-linejoin:miter;stroke-opacity:1" d="M 625.033,413.2 635.367,413.2 z" id="boundary" inkscape:connector-curvature="0" />
	<path style="fill:none;stroke:red;stroke-width:1px;stroke-linecap:butt;stroke-linejoin:miter;stroke-opacity:1" d="M 626.067,9.16667 636.4,9.16667 z" id="boundary" inkscape:connector-curvature="0" />
	<path style="fill:none;stroke:red;stroke-width:1px;stroke-linecap:butt;stroke-linejoin:miter;stroke-opacity:1" d="M 635.367,413.2 645.7,413.2 z" id="boundary" inkscape:connector-curvature="0" />
	<path style="fill:none;stroke:red;stroke-width:1px;stroke-linecap:butt;stroke-linejoin:miter;stroke-opacity:1" d="M 636.4,9.16667 646.733,9.16667 z" id="boundary" inkscape:connector-curvature="0" />
	<path style="fill:none;stroke:red;stroke-width:1px;stroke-linecap:butt;stroke-linejoin:miter;stroke-opacity:1" d="M 645.7,413.2 656.033,413.2 z" id="boundary" inkscape:connector-curvature="0" />
	<path style="fill:none;stroke:red;stroke-width:1px;stroke-linecap:butt;stroke-linejoin:miter;stroke-opacity:1" d="M 646.733,9.16667 657.067,9.16667 z" id="boundary" inkscape:connector-curvature="0" />
	<path style="fill:none;stroke:red;stroke-width:1px;stroke-linecap:butt;stroke-linejoin:miter;stroke-opacity:1" d="M 656.033,413.2 666.367,413.2 z" id="boundary" inkscape:connector-curvature="0" />
	<path style="fill:none;stroke:red;stroke-width:1px;stroke-linecap:butt;stroke-linejoin:miter;stroke-opacity:1" d="M 657.067,9.16667 667.4,9.16667 z" id="boundary" inkscape:connector-curvature="0" />
	<path style="fill:none;stroke:red;stroke-width:1px;stroke-linecap:butt;stroke-linejoin:miter;stroke-opacity:1" d="M 666.367,413.2 676.7,413.2 z" id="boundary" inkscape:connector-curvature="0" />
	<path style="fill:none;stroke:red;stroke-width:1px;stroke-linecap:butt;stroke-linejoin:miter;stroke-opacity:1" d="M 667.4,9.16667 677.733,9.16667 z" id="boundary" inkscape:connector-curvature="0" />
	<path style="fill:none;stroke:red;stroke-width:1px;stroke-linecap:butt;stroke-linejoin:miter;stroke-opacity:1" d="M 676.7,413.2 687.033,413.2 z" id="boundary" inkscape:connector-curvature="0" />
	<path style="fill:none;stroke:red;stroke-width:1px;stroke-linecap:butt;stroke-linejoin:miter;stroke-opacity:1" d="M 677.733,9.16667 687.033,14.3333 z" id="boundary" inkscape:connector-curvature="0" />
	<path style="fill:none;stroke:red;stroke-width:1px;stroke-linecap:butt;stroke-linejoin:miter;stroke-opacity:1" d="M 687.033,14.3333 697.367,14.3333 z" id="boundary" inkscape:connector-curvature="0" />
	<path style="fill:none;stroke:red;stroke-width:1px;stroke-linecap:butt;stroke-linejoin:miter;stroke-opacity:1" d="M 687.033,413.2 697.367,413.2 z" id="boundary" inkscape:connector-curvature="0" />
	<path style="fill:none;stroke:red;stroke-width:1px;stroke-linecap:butt;stroke-linejoin:miter;stroke-opacity:1" d="M 697.367,14.3333 707.7,14.3333 z" id="boundary" inkscape:connector-curvature="0" />
	<path style="fill:none;stroke:red;stroke-width:1px;stroke-linecap:butt;stroke-linejoin:miter;stroke-opacity:1" d="M 697.367,413.2 707.7,413.2 z" id="boundary" inkscape:connector-curvature="0" />
	<path style="fill:none;stroke:red;stroke-width:1px;stroke-linecap:butt;stroke-linejoin:miter;stroke-opacity:1" d="M 707.7,14.3333 718.033,14.3333 z" id="boundary" inkscape:connector-curvature="0" />
	<path style="fill:none;stroke:red;stroke-width:1px;stroke-linecap:butt;stroke-linejoin:miter;stroke-opacity:1" d="M 707.7,413.2 718.033,413.2 z" id="boundary" inkscape:connector-curvature="0" />
	<path style="fill:none;stroke:red;stroke-width:1px;stroke-linecap:butt;stroke-linejoin:miter;stroke-opacity:1" d="M 718.033,14.3333 727.333,19.5 z" id="boundary" inkscape:connector-curvature="0" />
	<path style="fill:none;stroke:red;stroke-width:1px;stroke-linecap:butt;stroke-linejoin:miter;stroke-opacity:1" d="M 718.033,413.2 728.367,413.2 z" id="boundary" inkscape:connector-curvature="0" />
	<path style="fill:none;stroke:red;stroke-width:1px;stroke-linecap:butt;stroke-linejoin:miter;stroke-opacity:1" d="M 727.333,19.5 736.633,24.6667 z" id="boundary" inkscape:connector-curvature="0" />
	<path style="fill:none;stroke:red;stroke-width:1px;stroke-linecap:butt;stroke-linejoin:miter;stroke-opacity:1" d="M 728.367,413.2 738.7,413.2 z" id="boundary" inkscape:connector-curvature="0" />
	<path style="fill:none;stroke:red;stroke-width:1px;stroke-linecap:butt;stroke-linejoin:miter;stroke-opacity:1" d="M 736.633,24.6667 745.933,29.8333 z" id="boundary" inkscape:connector-curvature="0" />
	<path style="fill:none;stroke:red;stroke-width:1px;stroke-linecap:butt;stroke-linejoin:miter;stroke-opacity:1" d="M 738.7,413.2 748,408.033 z" id="boundary" inkscape:connector-curvature="0" />
	<path style="fill:none;stroke:red;stroke-width:1px;stroke-linecap:butt;stroke-linejoin:miter;stroke-opacity:1" d="M 745.933,29.8333 753.167,38.1 z" id="boundary" inkscape:connector-curvature="0" />
	<path style="fill:none;stroke:red;stroke-width:1px;stroke-linecap:butt;stroke-linejoin:miter;stroke-opacity:1" d="M 748,408.033 758.333,408.033 z" id="boundary" inkscape:connector-curvature="0" />
	<path style="fill:none;stroke:red;stroke-width:1px;stroke-linecap:butt;stroke-linejoin:miter;stroke-opacity:1" d="M 753.167,38.1 758.333,47.4 z" id="boundary" inkscape:connector-curvature="0" />
	<path style="fill:none;stroke:red;stroke-width:1px;stroke-linecap:butt;stroke-linejoin:miter;stroke-opacity:1" d="M 758.333,47.4 762.467,57.7333 z" id="boundary" inkscape:connector-curvature="0" />
	<path style="fill:none;stroke:red;stroke-width:1px;stroke-linecap:butt;stroke-linejoin:miter;stroke-opacity:1" d="M 758.333,408.033 768.667,408.033 z" id="boundary" inkscape:connector-curvature="0" />
	<path style="fill:none;stroke:red;stroke-width:1px;stroke-linecap:butt;stroke-linejoin:miter;stroke-opacity:1" d="M 762.467,57.7333 767.633,67.0333 z" id="boundary" inkscape:connector-curvature="0" />
	<path style="fill:none;stroke:red;stroke-width:1px;stroke-linecap:butt;stroke-linejoin:miter;stroke-opacity:1" d="M 767.633,67.0333 769.7,77.3667 z" id="boundary" inkscape:connector-curvature="0" />
	<path style="fill:none;stroke:red;stroke-width:1px;stroke-linecap:butt;stroke-linejoin:miter;stroke-opacity:1" d="M 768.667,408.033 777.967,402.867 z" id="boundary" inkscape:connector-curvature="0" />
	<path style="fill:none;stroke:red;stroke-width:1px;stroke-linecap:butt;stroke-linejoin:miter;stroke-opacity:1" d="M 769.7,77.3667 769.7,87.7 z" id="boundary" inkscape:connector-curvature="0" />
	<path style="fill:none;stroke:red;stroke-width:1px;stroke-linecap:butt;stroke-linejoin:miter;stroke-opacity:1" d="M 769.7,87.7 774.867,97 z" id="boundary" inkscape:connector-curvature="0" />
	<path style="fill:none;stroke:red;stroke-width:1px;stroke-linecap:butt;stroke-linejoin:miter;stroke-opacity:1" d="M 774.867,97 774.867,107.333 z" id="boundary" inkscape:connector-curvature="0" />
	<path style="fill:none;stroke:red;stroke-width:1px;stroke-linecap:butt;stroke-linejoin:miter;stroke-opacity:1" d="M 774.867,107.333 774.867,117.667 z" id="boundary" inkscape:connector-curvature="0" />
	<path style="fill:none;stroke:red;stroke-width:1px;stroke-linecap:butt;stroke-linejoin:miter;stroke-opacity:1" d="M 774.867,117.667 780.033,126.967 z" id="boundary" inkscape:connector-curvature="0" />
	<path style="fill:none;stroke:red;stroke-width:1px;stroke-linecap:butt;stroke-linejoin:miter;stroke-opacity:1" d="M 777.967,402.867 788.3,402.867 z" id="boundary" inkscape:connector-curvature="0" />
	<path style="fill:none;stroke:red;stroke-width:1px;stroke-linecap:butt;stroke-linejoin:miter;stroke-opacity:1" d="M 780.033,126.967 788.3,134.2 z" id="boundary" inkscape:connector-curvature="0" />
	<path style="fill:none;stroke:red;stroke-width:1px;stroke-linecap:butt;stroke-linejoin:miter;stroke-opacity:1" d="M 788.3,134.2 797.6,139.367 z" id="boundary" inkscape:connector-curvature="0" />
	<path style="fill:none;stroke:red;stroke-width:1px;stroke-linecap:butt;stroke-linejoin:miter;stroke-opacity:1" d="M 788.3,402.867 789.333,413.2 z" id="boundary" inkscape:connector-curvature="0" />
	<path style="fill:none;stroke:red;stroke-width:1px;stroke-linecap:butt;stroke-linejoin:miter;stroke-opacity:1" d="M 789.333,413.2 794.5,422.5 z" id="boundary" inkscape:connector-curvature="0" />
	<path style="fill:none;stroke:red;stroke-width:1px;stroke-linecap:butt;stroke-linejoin:miter;stroke-opacity:1" d="M 794.5,422.5 794.5,432.833 z" id="boundary" inkscape:connector-curvature="0" />
	<path style="fill:none;stroke:red;stroke-width:1px;stroke-linecap:butt;stroke-linejoin:miter;stroke-opacity:1" d="M 794.5,432.833 799.667,442.133 z" id="boundary" inkscape:connector-curvature="0" />
	<path style="fill:none;stroke:red;stroke-width:1px;stroke-linecap:butt;stroke-linejoin:miter;stroke-opacity:1" d="M 797.6,139.367 807.933,143.5 z" id="boundary" inkscape:connector-curvature="0" />
	<path style="fill:none;stroke:red;stroke-width:1px;stroke-linecap:butt;stroke-linejoin:miter;stroke-opacity:1" d="M 799.667,442.133 804.833,451.433 z" id="boundary" inkscape:connector-curvature="0" />
	<path style="fill:none;stroke:red;stroke-width:1px;stroke-linecap:butt;stroke-linejoin:miter;stroke-opacity:1" d="M 804.833,451.433 815.167,454.533 z" id="boundary" inkscape:connector-curvature="0" />
	<path style="fill:none;stroke:red;stroke-width:1px;stroke-linecap:butt;stroke-linejoin:miter;stroke-opacity:1" d="M 807.933,143.5 818.267,143.5 z" id="boundary" inkscape:connector-curvature="0" />
	<path style="fill:none;stroke:red;stroke-width:1px;stroke-linecap:butt;stroke-linejoin:miter;stroke-opacity:1" d="M 815.167,454.533 824.467,459.7 z" id="boundary" inkscape:connector-curvature="0" />
	<path style="fill:none;stroke:red;stroke-width:1px;stroke-linecap:butt;stroke-linejoin:miter;stroke-opacity:1" d="M 818.267,143.5 827.567,148.667 z" id="boundary" inkscape:connector-curvature="0" />
	<path style="fill:none;stroke:red;stroke-width:1px;stroke-linecap:butt;stroke-linejoin:miter;stroke-opacity:1" d="M 824.467,459.7 834.8,459.7 z" id="boundary" inkscape:connector-curvature="0" />
	<path style="fill:none;stroke:red;stroke-width:1px;stroke-linecap:butt;stroke-linejoin:miter;stroke-opacity:1" d="M 827.567,148.667 837.9,148.667 z" id="boundary" inkscape:connector-curvature="0" />
	<path style="fill:none;stroke:red;stroke-width:1px;stroke-linecap:butt;stroke-linejoin:miter;stroke-opacity:1" d="M 834.8,459.7 845.133,457.633 z" id="boundary" inkscape:connector-curvature="0" />
	<path style="fill:none;stroke:red;stroke-width:1px;stroke-linecap:butt;stroke-linejoin:miter;stroke-opacity:1" d="M 837.9,148.667 848.233,148.667 z" id="boundary" inkscape:connector-curvature="0" />
	<path style="fill:none;stroke:red;stroke-width:1px;stroke-linecap:butt;stroke-linejoin:miter;stroke-opacity:1" d="M 845.133,457.633 855.467,452.467 z" id="boundary" inkscape:connector-curvature="0" />
	<path style="fill:none;stroke:red;stroke-width:1px;stroke-linecap:butt;stroke-linejoin:miter;stroke-opacity:1" d="M 848.233,148.667 858.567,148.667 z" id="boundary" inkscape:connector-curvature="0" />
	<path style="fill:none;stroke:red;stroke-width:1px;stroke-linecap:butt;stroke-linejoin:miter;stroke-opacity:1" d="M 855.467,452.467 862.7,444.2 z" id="boundary" inkscape:connector-curvature="0" />
	<path style="fill:none;stroke:red;stroke-width:1px;stroke-linecap:butt;stroke-linejoin:miter;stroke-opacity:1" d="M 858.567,148.667 867.867,153.833 z" id="boundary" inkscape:connector-curvature="0" />
	<path style="fill:none;stroke:red;stroke-width:1px;stroke-linecap:butt;stroke-linejoin:miter;stroke-opacity:1" d="M 862.7,444.2 867.867,433.867 z" id="boundary" inkscape:connector-curvature="0" />
	<path style="fill:none;stroke:red;stroke-width:1px;stroke-linecap:butt;stroke-linejoin:miter;stroke-opacity:1" d="M 867.867,153.833 878.2,153.833 z" id="boundary" inkscape:connector-curvature="0" />
	<path style="fill:none;stroke:red;stroke-width:1px;stroke-linecap:butt;stroke-linejoin:miter;stroke-opacity:1" d="M 867.867,433.867 876.133,426.633 z" id="boundary" inkscape:connector-curvature="0" />
	<path style="fill:none;stroke:red;stroke-width:1px;stroke-linecap:butt;stroke-linejoin:miter;stroke-opacity:1" d="M 876.133,426.633 883.367,413.2 z" id="boundary" inkscape:connector-curvature="0" />
	<path style="fill:none;stroke:red;stroke-width:1px;stroke-linecap:butt;stroke-linejoin:miter;stroke-opacity:1" d="M 878.2,153.833 888.533,153.833 z" id="boundary" inkscape:connector-curvature="0" />
	<path style="fill:none;stroke:red;stroke-width:1px;stroke-linecap:butt;stroke-linejoin:miter;stroke-opacity:1" d="M 883.367,413.2 888.533,402.867 z" id="boundary" inkscape:connector-curvature="0" />
	<path style="fill:none;stroke:red;stroke-width:1px;stroke-linecap:butt;stroke-linejoin:miter;stroke-opacity:1" d="M 888.533,153.833 898.867,153.833 z" id="boundary" inkscape:connector-curvature="0" />
	<path style="fill:none;stroke:red;stroke-width:1px;stroke-linecap:butt;stroke-linejoin:miter;stroke-opacity:1" d="M 888.533,402.867 893.7,392.533 z" id="boundary" inkscape:connector-curvature="0" />
	<path style="fill:none;stroke:red;stroke-width:1px;stroke-linecap:butt;stroke-linejoin:miter;stroke-opacity:1" d="M 893.7,371.867 893.7,382.2 z" id="boundary" inkscape:connector-curvature="0" />
	<path style="fill:none;stroke:red;stroke-width:1px;stroke-linecap:butt;stroke-linejoin:miter;stroke-opacity:1" d="M 893.7,371.867 903,366.7 z" id="boundary" inkscape:connector-curvature="0" />
	<path style="fill:none;stroke:red;stroke-width:1px;stroke-linecap:butt;stroke-linejoin:miter;stroke-opacity:1" d="M 893.7,382.2 893.7,392.533 z" id="boundary" inkscape:connector-curvature="0" />
	<path style="fill:none;stroke:red;stroke-width:1px;stroke-linecap:butt;stroke-linejoin:miter;stroke-opacity:1" d="M 898.867,153.833 909.2,153.833 z" id="boundary" inkscape:connector-curvature="0" />
	<path style="fill:none;stroke:red;stroke-width:1px;stroke-linecap:butt;stroke-linejoin:miter;stroke-opacity:1" d="M 903,366.7 913.333,366.7 z" id="boundary" inkscape:connector-curvature="0" />
	<path style="fill:none;stroke:red;stroke-width:1px;stroke-linecap:butt;stroke-linejoin:miter;stroke-opacity:1" d="M 909.2,153.833 919.533,153.833 z" id="boundary" inkscape:connector-curvature="0" />
	<path style="fill:none;stroke:red;stroke-width:1px;stroke-linecap:butt;stroke-linejoin:miter;stroke-opacity:1" d="M 913.333,366.7 922.633,361.533 z" id="boundary" inkscape:connector-curvature="0" />
	<path style="fill:none;stroke:red;stroke-width:1px;stroke-linecap:butt;stroke-linejoin:miter;stroke-opacity:1" d="M 919.533,153.833 929.867,153.833 z" id="boundary" inkscape:connector-curvature="0" />
	<path style="fill:none;stroke:red;stroke-width:1px;stroke-linecap:butt;stroke-linejoin:miter;stroke-opacity:1" d="M 922.633,361.533 931.933,355.333 z" id="boundary" inkscape:connector-curvature="0" />
	<path style="fill:none;stroke:red;stroke-width:1px;stroke-linecap:butt;stroke-linejoin:miter;stroke-opacity:1" d="M 929.867,153.833 940.2,153.833 z" id="boundary" inkscape:connector-curvature="0" />
	<path style="fill:none;stroke:red;stroke-width:1px;stroke-linecap:butt;stroke-linejoin:miter;stroke-opacity:1" d="M 931.933,355.333 940.2,346.033 z" id="boundary" inkscape:connector-curvature="0" />
	<path style="fill:none;stroke:red;stroke-width:1px;stroke-linecap:butt;stroke-linejoin:miter;stroke-opacity:1" d="M 940.2,153.833 950.533,153.833 z" id="boundary" inkscape:connector-curvature="0" />
	<path style="fill:none;stroke:red;stroke-width:1px;stroke-linecap:butt;stroke-linejoin:miter;stroke-opacity:1" d="M 940.2,346.033 948.467,338.8 z" id="boundary" inkscape:connector-curvature="0" />
	<path style="fill:none;stroke:red;stroke-width:1px;stroke-linecap:butt;stroke-linejoin:miter;stroke-opacity:1" d="M 948.467,338.8 955.7,325.367 z" id="boundary" inkscape:connector-curvature="0" />
	<path style="fill:none;stroke:red;stroke-width:1px;stroke-linecap:butt;stroke-linejoin:miter;stroke-opacity:1" d="M 950.533,153.833 960.867,156.933 z" id="boundary" inkscape:connector-curvature="0" />
	<path style="fill:none;stroke:red;stroke-width:1px;stroke-linecap:butt;stroke-linejoin:miter;stroke-opacity:1" d="M 955.7,325.367 960.867,315.033 z" id="boundary" inkscape:connector-curvature="0" />
	<path style="fill:none;stroke:red;stroke-width:1px;stroke-linecap:butt;stroke-linejoin:miter;stroke-opacity:1" d="M 960.867,156.933 970.167,162.1 z" id="boundary" inkscape:connector-curvature="0" />
	<path style="fill:none;stroke:red;stroke-width:1px;stroke-linecap:butt;stroke-linejoin:miter;stroke-opacity:1" d="M 960.867,315.033 966.033,299.533 z" id="boundary" inkscape:connector-curvature="0" />
	<path style="fill:none;stroke:red;stroke-width:1px;stroke-linecap:butt;stroke-linejoin:miter;stroke-opacity:1" d="M 966.033,289.2 966.033,299.533 z" id="boundary" inkscape:connector-curvature="0" />
	<path style="fill:none;stroke:red;stroke-width:1px;stroke-linecap:butt;stroke-linejoin:miter;stroke-opacity:1" d="M 966.033,289.2 971.2,278.867 z" id="boundary" inkscape:connector-curvature="0" />
	<path style="fill:none;stroke:red;stroke-width:1px;stroke-linecap:butt;stroke-linejoin:miter;stroke-opacity:1" d="M 970.167,162.1 975.333,171.4 z" id="boundary" inkscape:connector-curvature="0" />
	<path style="fill:none;stroke:red;stroke-width:1px;stroke-linecap:butt;stroke-linejoin:miter;stroke-opacity:1" d="M 971.2,258.2 971.2,268.533 z" id="boundary" inkscape:connector-curvature="0" />
	<path style="fill:none;stroke:red;stroke-width:1px;stroke-linecap:butt;stroke-linejoin:miter;stroke-opacity:1" d="M 971.2,258.2 981.533,253.033 z" id="boundary" inkscape:connector-curvature="0" />
	<path style="fill:none;stroke:red;stroke-width:1px;stroke-linecap:butt;stroke-linejoin:miter;stroke-opacity:1" d="M 971.2,268.533 971.2,278.867 z" id="boundary" inkscape:connector-curvature="0" />
	<path style="fill:none;stroke:red;stroke-width:1px;stroke-linecap:butt;stroke-linejoin:miter;stroke-opacity:1" d="M 975.333,171.4 981.533,179.667 z" id="boundary" inkscape:connector-curvature="0" />
	<path style="fill:none;stroke:red;stroke-width:1px;stroke-linecap:butt;stroke-linejoin:miter;stroke-opacity:1" d="M 981.533,179.667 986.7,188.967 z" id="boundary" inkscape:connector-curvature="0" />
	<path style="fill:none;stroke:red;stroke-width:1px;stroke-linecap:butt;stroke-linejoin:miter;stroke-opacity:1" d="M 981.533,253.033 991.867,242.7 z" id="boundary" inkscape:connector-curvature="0" />
	<path style="fill:none;stroke:red;stroke-width:1px;stroke-linecap:butt;stroke-linejoin:miter;stroke-opacity:1" d="M 986.7,188.967 991.867,198.267 z" id="boundary" inkscape:connector-curvature="0" />
	<path style="fill:none;stroke:red;stroke-width:1px;stroke-linecap:butt;stroke-linejoin:miter;stroke-opacity:1" d="M 991.867,198.267 991.867,208.6 z" id="boundary" inkscape:connector-curvature="0" />
	<path style="fill:none;stroke:red;stroke-width:1px;stroke-linecap:butt;stroke-linejoin:miter;stroke-opacity:1" d="M 991.867,208.6 991.867,218.933 z" id="boundary" inkscape:connector-curvature="0" />
	<path style="fill:none;stroke:red;stroke-width:1px;stroke-linecap:butt;stroke-linejoin:miter;stroke-opacity:1" d="M 991.867,218.933 996,229.267 z" id="boundary" inkscape:connector-curvature="0" />
	<path style="fill:none;stroke:red;stroke-width:1px;stroke-linecap:butt;stroke-linejoin:miter;stroke-opacity:1" d="M 991.867,242.7 996,229.267 z" id="boundary" inkscape:connector-curvature="0" />
	<circle cx="4" cy="260.267" r="4" fill="#0" id="circle0"/>
	<circle cx="9.16667" cy="239.6" r="4" fill="#0" id="circle1"/>
	<circle cx="9.16667" cy="249.933" r="4" fill="#0" id="circle2"/>
	<circle cx="12.2667" cy="267.5" r="4" fill="#0" id="circle3"/>
	<circle cx="14.3333" cy="229.267" r="4" fill="#0" id="circle4"/>
	<circle cx="19.5" cy="275.767" r="4" fill="#0" id="circle5"/>
	<circle cx="22.6" cy="221" r="4" fill="#0" id="circle6"/>
	<circle cx="24.6667" cy="285.067" r="4" fill="#0" id="circle7"/>
	<circle cx="24.6667" cy="353.267" r="4" fill="#0" id="circle8"/>
	<circle cx="24.6667" cy="363.6" r="4" fill="#0" id="circle9"/>
	<circle cx="24.6667" cy="373.933" r="4" fill="#0" id="circle10"/>
	<circle cx="24.6667" cy="384.267" r="4" fill="#0" id="circle11"/>
	<circle cx="24.6667" cy="394.6" r="4" fill="#0" id="circle12"/>
	<circle cx="29.8333" cy="294.367" r="4" fill="#0" id="circle13"/>
	<circle cx="29.8333" cy="304.7" r="4" fill="#0" id="circle14"/>
	<circle cx="29.8333" cy="315.033" r="4" fill="#0" id="circle15"/>
	<circle cx="29.8333" cy="325.367" r="4" fill="#0" id="circle16"/>
	<circle cx="29.8333" cy="335.7" r="4" fill="#0" id="circle17"/>
	<circle cx="29.8333" cy="403.9" r="4" fill="#0" id="circle18"/>
	<circle cx="31.9" cy="215.833" r="4" fill="#0" id="circle19"/>
	<circle cx="37.0667" cy="412.167" r="4" fill="#0" id="circle20"/>
	<circle cx="40.1667" cy="208.6" r="4" fill="#0" id="circle21"/>
	<circle cx="47.4" cy="416.3" r="4" fill="#0" id="circle22"/>
	<circle cx="50.5" cy="203.433" r="4" fill="#0" id="circle23"/>
	<circle cx="57.7333" cy="418.367" r="4" fill="#0" id="circle24"/>
	<circle cx="60.8333" cy="198.267" r="4" fill="#0" id="circle25"/>
	<circle cx="66" cy="424.567" r="4" fill="#0" id="circle26"/>
	<circle cx="69.1" cy="190" r="4" fill="#0" id="circle27"/>
	<circle cx="71.1667" cy="433.867" r="4" fill="#0" id="circle28"/>
	<circle cx="71.1667" cy="444.2" r="4" fill="#0" id="circle29"/>
	<circle cx="77.3667" cy="452.467" r="4" fill="#0" id="circle30"/>
	<circle cx="79.4333" cy="184.833" r="4" fill="#0" id="circle31"/>
	<circle cx="85.6333" cy="459.7" r="4" fill="#0" id="circle32"/>
	<circle cx="89.7667" cy="184.833" r="4" fill="#0" id="circle33"/>
	<circle cx="95.9667" cy="459.7" r="4" fill="#0" id="circle34"/>
	<circle cx="99.0667" cy="179.667" r="4" fill="#0" id="circle35"/>
	<circle cx="105.267" cy="464.867" r="4" fill="#0" id="circle36"/>
	<circle cx="109.4" cy="179.667" r="4" fill="#0" id="circle37"/>
	<circle cx="114.567" cy="470.033" r="4" fill="#0" id="circle38"/>
	<circle cx="118.7" cy="174.5" r="4" fill="#0" id="circle39"/>
	<circle cx="124.9" cy="473.133" r="4" fill="#0" id="circle40"/>
	<circle cx="129.033" cy="174.5" r="4" fill="#0" id="circle41"/>
	<circle cx="135.233" cy="475.2" r="4" fill="#0" id="circle42"/>
	<circle cx="139.367" cy="174.5" r="4" fill="#0" id="circle43"/>
	<circle cx="144.533" cy="480.367" r="4" fill="#0" id="circle44"/>
	<circle cx="149.7" cy="174.5" r="4" fill="#0" id="circle45"/>
	<circle cx="154.867" cy="480.367" r="4" fill="#0" id="circle46"/>
	<circle cx="160.033" cy="174.5" r="4" fill="#0" id="circle47"/>
	<circle cx="165.2" cy="480.367" r="4" fill="#0" id="circle48"/>
	<circle cx="169.333" cy="169.333" r="4" fill="#0" id="circle49"/>
	<circle cx="175.533" cy="480.367" r="4" fill="#0" id="circle50"/>
	<circle cx="179.667" cy="169.333" r="4" fill="#0" id="circle51"/>
	<circle cx="185.867" cy="480.367" r="4" fill="#0" id="circle52"/>
	<circle cx="190" cy="167.267" r="4" fill="#0" id="circle53"/>
	<circle cx="194.133" cy="473.133" r="4" fill="#0" id="circle54"/>
	<circle cx="196.2" cy="444.2" r="4" fill="#0" id="circle55"/>
	<circle cx="200.333" cy="164.167" r="4" fill="#0" id="circle56"/>
	<circle cx="201.367" cy="453.5" r="4" fill="#0" id="circle57"/>
	<circle cx="201.367" cy="463.833" r="4" fill="#0" id="circle58"/>
	<circle cx="205.5" cy="439.033" r="4" fill="#0" id="circle59"/>
	<circle cx="210.667" cy="164.167" r="4" fill="#0" id="circle60"/>
	<circle cx="215.833" cy="439.033" r="4" fill="#0" id="circle61"/>
	<circle cx="221" cy="164.167" r="4" fill="#0" id="circle62"/>
	<circle cx="225.133" cy="444.2" r="4" fill="#0" id="circle63"/>
	<circle cx="231.333" cy="164.167" r="4" fill="#0" id="circle64"/>
	<circle cx="235.467" cy="444.2" r="4" fill="#0" id="circle65"/>
	<circle cx="241.667" cy="164.167" r="4" fill="#0" id="circle66"/>
	<circle cx="245.8" cy="444.2" r="4" fill="#0" id="circle67"/>
	<circle cx="252" cy="164.167" r="4" fill="#0" id="circle68"/>
	<circle cx="256.133" cy="444.2" r="4" fill="#0" id="circle69"/>
	<circle cx="261.3" cy="159" r="4" fill="#0" id="circle70"/>
	<circle cx="266.467" cy="444.2" r="4" fill="#0" id="circle71"/>
	<circle cx="267.5" cy="146.6" r="4" fill="#0" id="circle72"/>
	<circle cx="275.767" cy="138.333" r="4" fill="#0" id="circle73"/>
	<circle cx="276.8" cy="444.2" r="4" fill="#0" id="circle74"/>
	<circle cx="285.067" cy="133.167" r="4" fill="#0" id="circle75"/>
	<circle cx="287.133" cy="444.2" r="4" fill="#0" id="circle76"/>
	<circle cx="295.4" cy="129.033" r="4" fill="#0" id="circle77"/>
	<circle cx="297.467" cy="444.2" r="4" fill="#0" id="circle78"/>
	<circle cx="305.733" cy="128" r="4" fill="#0" id="circle79"/>
	<circle cx="307.8" cy="444.2" r="4" fill="#0" id="circle80"/>
	<circle cx="316.067" cy="128" r="4" fill="#0" id="circle81"/>
	<circle cx="318.133" cy="444.2" r="4" fill="#0" id="circle82"/>
	<circle cx="326.4" cy="128" r="4" fill="#0" id="circle83"/>
	<circle cx="328.467" cy="444.2" r="4" fill="#0" id="circle84"/>
	<circle cx="336.733" cy="123.867" r="4" fill="#0" id="circle85"/>
	<circle cx="338.8" cy="444.2" r="4" fill="#0" id="circle86"/>
	<circle cx="345" cy="115.6" r="4" fill="#0" id="circle87"/>
	<circle cx="349.133" cy="444.2" r="4" fill="#0" id="circle88"/>
	<circle cx="353.267" cy="107.333" r="4" fill="#0" id="circle89"/>
	<circle cx="359.467" cy="444.2" r="4" fill="#0" id="circle90"/>
	<circle cx="363.6" cy="102.167" r="4" fill="#0" id="circle91"/>
	<circle cx="369.8" cy="444.2" r="4" fill="#0" id="circle92"/>
	<circle cx="373.933" cy="102.167" r="4" fill="#0" id="circle93"/>
	<circle cx="380.133" cy="444.2" r="4" fill="#0" id="circle94"/>
	<circle cx="384.267" cy="102.167" r="4" fill="#0" id="circle95"/>
	<circle cx="390.467" cy="444.2" r="4" fill="#0" id="circle96"/>
	<circle cx="393.567" cy="107.333" r="4" fill="#0" id="circle97"/>
	<circle cx="400.8" cy="444.2" r="4" fill="#0" id="circle98"/>
	<circle cx="402.867" cy="112.5" r="4" fill="#0" id="circle99"/>
	<circle cx="411.133" cy="444.2" r="4" fill="#0" id="circle100"/>
	<circle cx="412.167" cy="117.667" r="4" fill="#0" id="circle101"/>
	<circle cx="421.467" cy="444.2" r="4" fill="#0" id="circle102"/>
	<circle cx="422.5" cy="117.667" r="4" fill="#0" id="circle103"/>
	<circle cx="430.767" cy="438" r="4" fill="#0" id="circle104"/>
	<circle cx="432.833" cy="117.667" r="4" fill="#0" id="circle105"/>
	<circle cx="439.033" cy="423.533" r="4" fill="#0" id="circle106"/>
	<circle cx="443.167" cy="117.667" r="4" fill="#0" id="circle107"/>
	<circle cx="444.2" cy="413.2" r="4" fill="#0" id="circle108"/>
	<circle cx="448.333" cy="428.7" r="4" fill="#0" id="circle109"/>
	<circle cx="453.5" cy="63.9333" r="4" fill="#0" id="circle110"/>
	<circle cx="453.5" cy="74.2667" r="4" fill="#0" id="circle111"/>
	<circle cx="453.5" cy="84.6" r="4" fill="#0" id="circle112"/>
	<circle cx="453.5" cy="94.9333" r="4" fill="#0" id="circle113"/>
	<circle cx="453.5" cy="105.267" r="4" fill="#0" id="circle114"/>
	<circle cx="453.5" cy="115.6" r="4" fill="#0" id="circle115"/>
	<circle cx="453.5" cy="438" r="4" fill="#0" id="circle116"/>
	<circle cx="453.5" cy="448.333" r="4" fill="#0" id="circle117"/>
	<circle cx="453.5" cy="458.667" r="4" fill="#0" id="circle118"/>
	<circle cx="455.567" cy="469" r="4" fill="#0" id="circle119"/>
	<circle cx="458.667" cy="53.6" r="4" fill="#0" id="circle120"/>
	<circle cx="460.733" cy="478.3" r="4" fill="#0" id="circle121"/>
	<circle cx="463.833" cy="38.1" r="4" fill="#0" id="circle122"/>
	<circle cx="464.867" cy="488.633" r="4" fill="#0" id="circle123"/>
	<circle cx="469" cy="27.7667" r="4" fill="#0" id="circle124"/>
	<circle cx="473.133" cy="495.867" r="4" fill="#0" id="circle125"/>
	<circle cx="477.267" cy="19.5" r="4" fill="#0" id="circle126"/>
	<circle cx="482.433" cy="9.16667" r="4" fill="#0" id="circle127"/>
	<circle cx="482.433" cy="501.033" r="4" fill="#0" id="circle128"/>
	<circle cx="492.767" cy="4" r="4" fill="#0" id="circle129"/>
	<circle cx="492.767" cy="501.033" r="4" fill="#0" id="circle130"/>
	<circle cx="503.1" cy="4" r="4" fill="#0" id="circle131"/>
	<circle cx="503.1" cy="501.033" r="4" fill="#0" id="circle132"/>
	<circle cx="512.4" cy="495.867" r="4" fill="#0" id="circle133"/>
	<circle cx="513.433" cy="4" r="4" fill="#0" id="circle134"/>
	<circle cx="521.7" cy="490.7" r="4" fill="#0" id="circle135"/>
	<circle cx="523.767" cy="4" r="4" fill="#0" id="circle136"/>
	<circle cx="529.967" cy="483.467" r="4" fill="#0" id="circle137"/>
	<circle cx="534.1" cy="4" r="4" fill="#0" id="circle138"/>
	<circle cx="537.2" cy="475.2" r="4" fill="#0" id="circle139"/>
	<circle cx="542.367" cy="464.867" r="4" fill="#0" id="circle140"/>
	<circle cx="543.4" cy="9.16667" r="4" fill="#0" id="circle141"/>
	<circle cx="547.533" cy="454.533" r="4" fill="#0" id="circle142"/>
	<circle cx="552.7" cy="444.2" r="4" fill="#0" id="circle143"/>
	<circle cx="553.733" cy="9.16667" r="4" fill="#0" id="circle144"/>
	<circle cx="557.867" cy="433.867" r="4" fill="#0" id="circle145"/>
	<circle cx="563.033" cy="413.2" r="4" fill="#0" id="circle146"/>
	<circle cx="563.033" cy="423.533" r="4" fill="#0" id="circle147"/>
	<circle cx="564.067" cy="9.16667" r="4" fill="#0" id="circle148"/>
	<circle cx="573.367" cy="413.2" r="4" fill="#0" id="circle149"/>
	<circle cx="574.4" cy="9.16667" r="4" fill="#0" id="circle150"/>
	<circle cx="583.7" cy="413.2" r="4" fill="#0" id="circle151"/>
	<circle cx="584.733" cy="9.16667" r="4" fill="#0" id="circle152"/>
	<circle cx="594.033" cy="413.2" r="4" fill="#0" id="circle153"/>
	<circle cx="595.067" cy="9.16667" r="4" fill="#0" id="circle154"/>
	<circle cx="604.367" cy="413.2" r="4" fill="#0" id="circle155"/>
	<circle cx="605.4" cy="9.16667" r="4" fill="#0" id="circle156"/>
	<circle cx="614.7" cy="413.2" r="4" fill="#0" id="circle157"/>
	<circle cx="615.733" cy="9.16667" r="4" fill="#0" id="circle158"/>
	<circle cx="625.033" cy="413.2" r="4" fill="#0" id="circle159"/>
	<circle cx="626.067" cy="9.16667" r="4" fill="#0" id="circle160"/>
	<circle cx="635.367" cy="413.2" r="4" fill="#0" id="circle161"/>
	<circle cx="636.4" cy="9.16667" r="4" fill="#0" id="circle162"/>
	<circle cx="645.7" cy="413.2" r="4" fill="#0" id="circle163"/>
	<circle cx="646.733" cy="9.16667" r="4" fill="#0" id="circle164"/>
	<circle cx="656.033" cy="413.2" r="4" fill="#0" id="circle165"/>
	<circle cx="657.067" cy="9.16667" r="4" fill="#0" id="circle166"/>
	<circle cx="666.367" cy="413.2" r="4" fill="#0" id="circle167"/>
	<circle cx="667.4" cy="9.16667" r="4" fill="#0" id="circle168"/>
	<circle cx="676.7" cy="413.2" r="4" fill="#0" id="circle169"/>
	<circle cx="677.733" cy="9.16667" r="4" fill="#0" id="circle170"/>
	<circle cx="687.033" cy="14.3333" r="4" fill="#0" id="circle171"/>
	<circle cx="687.033" cy="413.2" r="4" fill="#0" id="circle172"/>
	<circle cx="697.367" cy="14.3333" r="4" fill="#0" id="circle173"/>
	<circle cx="697.367" cy="413.2" r="4" fill="#0" id="circle174"/>
	<circle cx="707.7" cy="14.3333" r="4" fill="#0" id="circle175"/>
	<circle cx="707.7" cy="413.2" r="4" fill="#0" id="circle176"/>
	<circle cx="718.033" cy="14.3333" r="4" fill="#0" id="circle177"/>
	<circle cx="718.033" cy="413.2" r="4" fill="#0" id="circle178"/>
	<circle cx="727.333" cy="19.5" r="4" fill="#0" id="circle179"/>
	<circle cx="728.367" cy="413.2" r="4" fill="#0" id="circle180"/>
	<circle cx="736.633" cy="24.6667" r="4" fill="#0" id="circle181"/>
	<circle cx="738.7" cy="413.2" r="4" fill="#0" id="circle182"/>
	<circle cx="745.933" cy="29.8333" r="4" fill="#0" id="circle183"/>
	<circle cx="748" cy="408.033" r="4" fill="#0" id="circle184"/>
	<circle cx="753.167" cy="38.1" r="4" fill="#0" id="circle185"/>
	<circle cx="758.333" cy="47.4" r="4" fill="#0" id="circle186"/>
	<circle cx="758.333" cy="408.033" r="4" fill="#0" id="circle187"/>
	<circle cx="762.467" cy="57.7333" r="4" fill="#0" id="circle188"/>
	<circle cx="767.633" cy="67.0333" r="4" fill="#0" id="circle189"/>
	<circle cx="768.667" cy="408.033" r="4" fill="#0" id="circle190"/>
	<circle cx="769.7" cy="77.3667" r="4" fill="#0" id="circle191"/>
	<circle cx="769.7" cy="87.7" r="4" fill="#0" id="circle192"/>
	<circle cx="774.867" cy="97" r="4" fill="#0" id="circle193"/>
	<circle cx="774.867" cy="107.333" r="4" fill="#0" id="circle194"/>
	<circle cx="774.867" cy="117.667" r="4" fill="#0" id="circle195"/>
	<circle cx="777.967" cy="402.867" r="4" fill="#0" id="circle196"/>
	<circle cx="780.033" cy="126.967" r="4" fill="#0" id="circle197"/>
	<circle cx="788.3" cy="134.2" r="4" fill="#0" id="circle198"/>
	<circle cx="788.3" cy="402.867" r="4" fill="#0" id="circle199"/>
	<circle cx="789.333" cy="413.2" r="4" fill="#0" id="circle200"/>
	<circle cx="794.5" cy="422.5" r="4" fill="#0" id="circle201"/>
	<circle cx="794.5" cy="432.833" r="4" fill="#0" id="circle202"/>
	<circle cx="797.6" cy="139.367" r="4" fill="#0" id="circle203"/>
	<circle cx="799.667" cy="442.133" r="4" fill="#0" id="circle204"/>
	<circle cx="804.833" cy="451.433" r="4" fill="#0" id="circle205"/>
	<circle cx="807.933" cy="143.5" r="4" fill="#0" id="circle206"/>
	<circle cx="815.167" cy="454.533" r="4" fill="#0" id="circle207"/>
	<circle cx="818.267" cy="143.5" r="4" fill="#0" id="circle208"/>
	<circle cx="824.467" cy="459.7" r="4" fill="#0" id="circle209"/>
	<circle cx="827.567" cy="148.667" r="4" fill="#0" id="circle210"/>
	<circle cx="834.8" cy="459.7" r="4" fill="#0" id="circle211"/>
	<circle cx="837.9" cy="148.667" r="4" fill="#0" id="circle212"/>
	<circle cx="845.133" cy="457.633" r="4" fill="#0" id="circle213"/>
	<circle cx="848.233" cy="148.667" r="4" fill="#0" id="circle214"/>
	<circle cx="855.467" cy="452.467" r="4" fill="#0" id="circle215"/>
	<circle cx="858.567" cy="148.667" r="4" fill="#0" id="circle216"/>
	<circle cx="862.7" cy="444.2" r="4" fill="#0" id="circle217"/>
	<circle cx="867.867" cy="153.833" r="4" fill="#0" id="circle218"/>
	<circle cx="867.867" cy="433.867" r="4" fill="#0" id="circle219"/>
	<circle cx="876.133" cy="426.633" r="4" fill="#0" id="circle220"/>
	<circle cx="878.2" cy="153.833" r="4" fill="#0" id="circle221"/>
	<circle cx="883.367" cy="413.2" r="4" fill="#0" id="circle222"/>
	<circle cx="888.533" cy="153.833" r="4" fill="#0" id="circle223"/>
	<circle cx="888.533" cy="402.867" r="4" fill="#0" id="circle224"/>
	<circle cx="893.7" cy="371.867" r="4" fill="#0" id="circle225"/>
	<circle cx="893.7" cy="382.2" r="4" fill="#0" id="circle226"/>
	<circle cx="893.7" cy="392.533" r="4" fill="#0" id="circle227"/>
	<circle cx="898.867" cy="153.833" r="4" fill="#0" id="circle228"/>
	<circle cx="903" cy="366.7" r="4" fill="#0" id="circle229"/>
	<circle cx="909.2" cy="153.833" r="4" fill="#0" id="circle230"/>
	<circle cx="913.333" cy="366.7" r="4" fill="#0" id="circle231"/>
	<circle cx="919.533" cy="153.833" r="4" fill="#0" id="circle232"/>
	<circle cx="922.633" cy="361.533" r="4" fill="#0" id="circle233"/>
	<circle cx="929.867" cy="153.833" r="4" fill="#0" id="circle234"/>
	<circle cx="931.933" cy="355.333" r="4" fill="#0" id="circle235"/>
	<circle cx="940.2" cy="153.833" r="4" fill="#0" id="circle236"/>
	<circle cx="940.2" cy="346.033" r="4" fill="#0" id="circle237"/>
	<circle cx="948.467" cy="338.8" r="4" fill="#0" id="circle238"/>
	<circle cx="950.533" cy="153.833" r="4" fill="#0" id="circle239"/>
	<circle cx="955.7" cy="325.367" r="4" fill="#0" id="circle240"/>
	<circle cx="960.867" cy="156.933" r="4" fill="#0" id="circle241"/>
	<circle cx="960.867" cy="315.033" r="4" fill="#0" id="circle242"/>
	<circle cx="966.033" cy="289.2" r="4" fill="#0" id="circle243"/>
	<circle cx="966.033" cy="299.533" r="4" fill="#0" id="circle244"/>
	<circle cx="970.167" cy="162.1" r="4" fill="#0" id="circle245"/>
	<circle cx="971.2" cy="258.2" r="4" fill="#0" id="circle246"/>
	<circle cx="971.2" cy="268.533" r="4" fill="#0" id="circle247"/>
	<circle cx="971.2" cy="278.867" r="4" fill="#0" id="circle248"/>
	<circle cx="975.333" cy="171.4" r="4" fill="#0" id="circle249"/>
	<circle cx="981.533" cy="179.667" r="4" fill="#0" id="circle250"/>
	<circle cx="981.533" cy="253.033" r="4" fill="#0" id="circle251"/>
	<circle cx="986.7" cy="188.967" r="4" fill="#0" id="circle252"/>
	<circle cx="991.867" cy="198.267" r="4" fill="#0" id="circle253"/>
	<circle cx="991.867" cy="208.6" r="4" fill="#0" id="circle254"/>
	<circle cx="991.867" cy="218.933" r="4" fill="#0" id="circle255"/>
	<circle cx="991.867" cy="242.7" r="4" fill="#0" id="circle256"/>
	<circle cx="996" cy="229.267" r="4" fill="#0" id="circle257"/>
	</g>
</svg>