<?xml version="1.0" encoding="UTF-8" standalone="no"?>
<!-- Created with CurveBenchmark -->
<svg
	xmlns:dc="http://purl.org/dc/elements/1.1/"
	xmlns:cc="http://creativecommons.org/ns#"
	xmlns:rdf="http://www.w3.org/1999/02/22-rdf-syntax-ns#"
	xmlns:svg="http://www.w3.org/2000/svg"
	xmlns="http://www.w3.org/2000/svg"
	xmlns:sodipodi="http://sodipodi.sourceforge.net/DTD/sodipodi-0.dtd"
	xmlns:inkscape="http://www.inkscape.org/namespaces/inkscape"
	width="1000"
	height="1000"
	id="svg2"
	version="1.1"
	sodipodi:docname="manifold/fitconnect-elephant26.png.txt">
<defs
	id="defs4" />
<metadata
	id="metadata7">
	<rdf:RDF>
		<cc:Work
			rdf:about="">
			<dc:format>image/svg+xml</dc:format>
			<dc:type
				rdf:resource="http://purl.org/dc/dcmitype/StillImage" />
			<dc:title></dc:title>
		</cc:Work>
	</rdf:RDF>
</metadata>
<g
	inkscape:label="Layer 1"
	inkscape:groupmode="layer"
	id="layer1">
	<path style="fill:none;stroke:red;stroke-width:1px;stroke-linecap:butt;stroke-linejoin:miter;stroke-opacity:1" d="M 4,126.118 4,142.847 z" id="boundary" inkscape:connector-curvature="0" />
	<path style="fill:none;stroke:red;stroke-width:1px;stroke-linecap:butt;stroke-linejoin:miter;stroke-opacity:1" d="M 4,126.118 12.3642,109.39 z" id="boundary" inkscape:connector-curvature="0" />
	<path style="fill:none;stroke:red;stroke-width:1px;stroke-linecap:butt;stroke-linejoin:miter;stroke-opacity:1" d="M 4,142.847 4,159.575 z" id="boundary" inkscape:connector-curvature="0" />
	<path style="fill:none;stroke:red;stroke-width:1px;stroke-linecap:butt;stroke-linejoin:miter;stroke-opacity:1" d="M 4,159.575 12.3642,174.631 z" id="boundary" inkscape:connector-curvature="0" />
	<path style="fill:none;stroke:red;stroke-width:1px;stroke-linecap:butt;stroke-linejoin:miter;stroke-opacity:1" d="M 12.3642,109.39 20.7285,92.661 z" id="boundary" inkscape:connector-curvature="0" />
	<path style="fill:none;stroke:red;stroke-width:1px;stroke-linecap:butt;stroke-linejoin:miter;stroke-opacity:1" d="M 12.3642,174.631 20.7285,189.686 z" id="boundary" inkscape:connector-curvature="0" />
	<path style="fill:none;stroke:red;stroke-width:1px;stroke-linecap:butt;stroke-linejoin:miter;stroke-opacity:1" d="M 20.7285,92.661 34.1113,79.2782 z" id="boundary" inkscape:connector-curvature="0" />
	<path style="fill:none;stroke:red;stroke-width:1px;stroke-linecap:butt;stroke-linejoin:miter;stroke-opacity:1" d="M 20.7285,189.686 30.7656,203.069 z" id="boundary" inkscape:connector-curvature="0" />
	<path style="fill:none;stroke:red;stroke-width:1px;stroke-linecap:butt;stroke-linejoin:miter;stroke-opacity:1" d="M 30.7656,203.069 44.1484,214.779 z" id="boundary" inkscape:connector-curvature="0" />
	<path style="fill:none;stroke:red;stroke-width:1px;stroke-linecap:butt;stroke-linejoin:miter;stroke-opacity:1" d="M 34.1113,79.2782 47.4941,65.8954 z" id="boundary" inkscape:connector-curvature="0" />
	<path style="fill:none;stroke:red;stroke-width:1px;stroke-linecap:butt;stroke-linejoin:miter;stroke-opacity:1" d="M 44.1484,214.779 59.204,223.143 z" id="boundary" inkscape:connector-curvature="0" />
	<path style="fill:none;stroke:red;stroke-width:1px;stroke-linecap:butt;stroke-linejoin:miter;stroke-opacity:1" d="M 47.4941,65.8954 60.8769,54.1855 z" id="boundary" inkscape:connector-curvature="0" />
	<path style="fill:none;stroke:red;stroke-width:1px;stroke-linecap:butt;stroke-linejoin:miter;stroke-opacity:1" d="M 47.4941,131.137 47.4941,147.865 z" id="boundary" inkscape:connector-curvature="0" />
	<path style="fill:none;stroke:red;stroke-width:1px;stroke-linecap:butt;stroke-linejoin:miter;stroke-opacity:1" d="M 47.4941,131.137 55.8583,114.408 z" id="boundary" inkscape:connector-curvature="0" />
	<path style="fill:none;stroke:red;stroke-width:1px;stroke-linecap:butt;stroke-linejoin:miter;stroke-opacity:1" d="M 47.4941,147.865 50.8398,164.594 z" id="boundary" inkscape:connector-curvature="0" />
	<path style="fill:none;stroke:red;stroke-width:1px;stroke-linecap:butt;stroke-linejoin:miter;stroke-opacity:1" d="M 50.8398,164.594 55.8583,181.322 z" id="boundary" inkscape:connector-curvature="0" />
	<path style="fill:none;stroke:red;stroke-width:1px;stroke-linecap:butt;stroke-linejoin:miter;stroke-opacity:1" d="M 55.8583,114.408 70.914,106.044 z" id="boundary" inkscape:connector-curvature="0" />
	<path style="fill:none;stroke:red;stroke-width:1px;stroke-linecap:butt;stroke-linejoin:miter;stroke-opacity:1" d="M 55.8583,181.322 69.2411,191.359 z" id="boundary" inkscape:connector-curvature="0" />
	<path style="fill:none;stroke:red;stroke-width:1px;stroke-linecap:butt;stroke-linejoin:miter;stroke-opacity:1" d="M 59.204,223.143 75.9325,229.835 z" id="boundary" inkscape:connector-curvature="0" />
	<path style="fill:none;stroke:red;stroke-width:1px;stroke-linecap:butt;stroke-linejoin:miter;stroke-opacity:1" d="M 60.8769,54.1855 75.9325,45.8212 z" id="boundary" inkscape:connector-curvature="0" />
	<path style="fill:none;stroke:red;stroke-width:1px;stroke-linecap:butt;stroke-linejoin:miter;stroke-opacity:1" d="M 69.2411,191.359 80.9511,204.742 z" id="boundary" inkscape:connector-curvature="0" />
	<path style="fill:none;stroke:red;stroke-width:1px;stroke-linecap:butt;stroke-linejoin:miter;stroke-opacity:1" d="M 70.914,106.044 85.9696,97.6796 z" id="boundary" inkscape:connector-curvature="0" />
	<path style="fill:none;stroke:red;stroke-width:1px;stroke-linecap:butt;stroke-linejoin:miter;stroke-opacity:1" d="M 75.9325,45.8212 92.661,45.8212 z" id="boundary" inkscape:connector-curvature="0" />
	<path style="fill:none;stroke:red;stroke-width:1px;stroke-linecap:butt;stroke-linejoin:miter;stroke-opacity:1" d="M 75.9325,229.835 90.9882,238.199 z" id="boundary" inkscape:connector-curvature="0" />
	<path style="fill:none;stroke:red;stroke-width:1px;stroke-linecap:butt;stroke-linejoin:miter;stroke-opacity:1" d="M 80.9511,204.742 97.6796,204.742 z" id="boundary" inkscape:connector-curvature="0" />
	<path style="fill:none;stroke:red;stroke-width:1px;stroke-linecap:butt;stroke-linejoin:miter;stroke-opacity:1" d="M 85.9696,97.6796 102.698,97.6796 z" id="boundary" inkscape:connector-curvature="0" />
	<path style="fill:none;stroke:red;stroke-width:1px;stroke-linecap:butt;stroke-linejoin:miter;stroke-opacity:1" d="M 90.9882,238.199 107.717,239.872 z" id="boundary" inkscape:connector-curvature="0" />
	<path style="fill:none;stroke:red;stroke-width:1px;stroke-linecap:butt;stroke-linejoin:miter;stroke-opacity:1" d="M 92.661,45.8212 109.39,45.8212 z" id="boundary" inkscape:connector-curvature="0" />
	<path style="fill:none;stroke:red;stroke-width:1px;stroke-linecap:butt;stroke-linejoin:miter;stroke-opacity:1" d="M 97.6796,204.742 114.408,209.761 z" id="boundary" inkscape:connector-curvature="0" />
	<path style="fill:none;stroke:red;stroke-width:1px;stroke-linecap:butt;stroke-linejoin:miter;stroke-opacity:1" d="M 102.698,97.6796 119.427,97.6796 z" id="boundary" inkscape:connector-curvature="0" />
	<path style="fill:none;stroke:red;stroke-width:1px;stroke-linecap:butt;stroke-linejoin:miter;stroke-opacity:1" d="M 107.717,239.872 122.772,248.236 z" id="boundary" inkscape:connector-curvature="0" />
	<path style="fill:none;stroke:red;stroke-width:1px;stroke-linecap:butt;stroke-linejoin:miter;stroke-opacity:1" d="M 109.39,45.8212 124.445,37.457 z" id="boundary" inkscape:connector-curvature="0" />
	<path style="fill:none;stroke:red;stroke-width:1px;stroke-linecap:butt;stroke-linejoin:miter;stroke-opacity:1" d="M 114.408,209.761 127.791,221.47 z" id="boundary" inkscape:connector-curvature="0" />
	<path style="fill:none;stroke:red;stroke-width:1px;stroke-linecap:butt;stroke-linejoin:miter;stroke-opacity:1" d="M 119.427,97.6796 129.464,134.482 z" id="boundary" inkscape:connector-curvature="0" />
	<path style="fill:none;stroke:red;stroke-width:1px;stroke-linecap:butt;stroke-linejoin:miter;stroke-opacity:1" d="M 122.772,248.236 139.501,251.582 z" id="boundary" inkscape:connector-curvature="0" />
	<path style="fill:none;stroke:red;stroke-width:1px;stroke-linecap:butt;stroke-linejoin:miter;stroke-opacity:1" d="M 124.445,37.457 141.174,37.457 z" id="boundary" inkscape:connector-curvature="0" />
	<path style="fill:none;stroke:red;stroke-width:1px;stroke-linecap:butt;stroke-linejoin:miter;stroke-opacity:1" d="M 127.791,221.47 144.519,223.143 z" id="boundary" inkscape:connector-curvature="0" />
	<path style="fill:none;stroke:red;stroke-width:1px;stroke-linecap:butt;stroke-linejoin:miter;stroke-opacity:1" d="M 129.464,134.482 142.847,146.192 z" id="boundary" inkscape:connector-curvature="0" />
	<path style="fill:none;stroke:red;stroke-width:1px;stroke-linecap:butt;stroke-linejoin:miter;stroke-opacity:1" d="M 139.501,251.582 151.211,264.965 z" id="boundary" inkscape:connector-curvature="0" />
	<path style="fill:none;stroke:red;stroke-width:1px;stroke-linecap:butt;stroke-linejoin:miter;stroke-opacity:1" d="M 141.174,37.457 157.902,39.1298 z" id="boundary" inkscape:connector-curvature="0" />
	<path style="fill:none;stroke:red;stroke-width:1px;stroke-linecap:butt;stroke-linejoin:miter;stroke-opacity:1" d="M 142.847,146.192 159.575,147.865 z" id="boundary" inkscape:connector-curvature="0" />
	<path style="fill:none;stroke:red;stroke-width:1px;stroke-linecap:butt;stroke-linejoin:miter;stroke-opacity:1" d="M 144.519,223.143 161.248,223.143 z" id="boundary" inkscape:connector-curvature="0" />
	<path style="fill:none;stroke:red;stroke-width:1px;stroke-linecap:butt;stroke-linejoin:miter;stroke-opacity:1" d="M 151.211,264.965 166.266,273.329 z" id="boundary" inkscape:connector-curvature="0" />
	<path style="fill:none;stroke:red;stroke-width:1px;stroke-linecap:butt;stroke-linejoin:miter;stroke-opacity:1" d="M 157.902,39.1298 174.631,37.457 z" id="boundary" inkscape:connector-curvature="0" />
	<path style="fill:none;stroke:red;stroke-width:1px;stroke-linecap:butt;stroke-linejoin:miter;stroke-opacity:1" d="M 159.575,147.865 206.415,164.594 z" id="boundary" inkscape:connector-curvature="0" />
	<path style="fill:none;stroke:red;stroke-width:1px;stroke-linecap:butt;stroke-linejoin:miter;stroke-opacity:1" d="M 161.248,223.143 164.594,239.872 z" id="boundary" inkscape:connector-curvature="0" />
	<path style="fill:none;stroke:red;stroke-width:1px;stroke-linecap:butt;stroke-linejoin:miter;stroke-opacity:1" d="M 164.594,239.872 172.958,254.927 z" id="boundary" inkscape:connector-curvature="0" />
	<path style="fill:none;stroke:red;stroke-width:1px;stroke-linecap:butt;stroke-linejoin:miter;stroke-opacity:1" d="M 166.266,273.329 172.958,254.927 z" id="boundary" inkscape:connector-curvature="0" />
	<path style="fill:none;stroke:red;stroke-width:1px;stroke-linecap:butt;stroke-linejoin:miter;stroke-opacity:1" d="M 174.631,37.457 189.686,45.8212 z" id="boundary" inkscape:connector-curvature="0" />
	<path style="fill:none;stroke:red;stroke-width:1px;stroke-linecap:butt;stroke-linejoin:miter;stroke-opacity:1" d="M 189.686,45.8212 206.415,45.8212 z" id="boundary" inkscape:connector-curvature="0" />
	<path style="fill:none;stroke:red;stroke-width:1px;stroke-linecap:butt;stroke-linejoin:miter;stroke-opacity:1" d="M 201.396,114.408 234.853,114.408 z" id="boundary" inkscape:connector-curvature="0" />
	<path style="fill:none;stroke:red;stroke-width:1px;stroke-linecap:butt;stroke-linejoin:miter;stroke-opacity:1" d="M 201.396,114.408 273.329,167.939 z" id="boundary" inkscape:connector-curvature="0" />
	<path style="fill:none;stroke:red;stroke-width:1px;stroke-linecap:butt;stroke-linejoin:miter;stroke-opacity:1" d="M 206.415,45.8212 223.143,45.8212 z" id="boundary" inkscape:connector-curvature="0" />
	<path style="fill:none;stroke:red;stroke-width:1px;stroke-linecap:butt;stroke-linejoin:miter;stroke-opacity:1" d="M 206.415,164.594 234.853,114.408 z" id="boundary" inkscape:connector-curvature="0" />
	<path style="fill:none;stroke:red;stroke-width:1px;stroke-linecap:butt;stroke-linejoin:miter;stroke-opacity:1" d="M 223.143,45.8212 239.872,50.8398 z" id="boundary" inkscape:connector-curvature="0" />
	<path style="fill:none;stroke:red;stroke-width:1px;stroke-linecap:butt;stroke-linejoin:miter;stroke-opacity:1" d="M 239.872,50.8398 256.6,49.1669 z" id="boundary" inkscape:connector-curvature="0" />
	<path style="fill:none;stroke:red;stroke-width:1px;stroke-linecap:butt;stroke-linejoin:miter;stroke-opacity:1" d="M 256.6,49.1669 273.329,50.8398 z" id="boundary" inkscape:connector-curvature="0" />
	<path style="fill:none;stroke:red;stroke-width:1px;stroke-linecap:butt;stroke-linejoin:miter;stroke-opacity:1" d="M 271.656,678.159 271.656,694.887 z" id="boundary" inkscape:connector-curvature="0" />
	<path style="fill:none;stroke:red;stroke-width:1px;stroke-linecap:butt;stroke-linejoin:miter;stroke-opacity:1" d="M 271.656,678.159 285.039,664.776 z" id="boundary" inkscape:connector-curvature="0" />
	<path style="fill:none;stroke:red;stroke-width:1px;stroke-linecap:butt;stroke-linejoin:miter;stroke-opacity:1" d="M 271.656,694.887 288.384,699.906 z" id="boundary" inkscape:connector-curvature="0" />
	<path style="fill:none;stroke:red;stroke-width:1px;stroke-linecap:butt;stroke-linejoin:miter;stroke-opacity:1" d="M 273.329,50.8398 285.039,37.457 z" id="boundary" inkscape:connector-curvature="0" />
	<path style="fill:none;stroke:red;stroke-width:1px;stroke-linecap:butt;stroke-linejoin:miter;stroke-opacity:1" d="M 273.329,167.939 296.749,181.322 z" id="boundary" inkscape:connector-curvature="0" />
	<path style="fill:none;stroke:red;stroke-width:1px;stroke-linecap:butt;stroke-linejoin:miter;stroke-opacity:1" d="M 285.039,37.457 301.767,37.457 z" id="boundary" inkscape:connector-curvature="0" />
	<path style="fill:none;stroke:red;stroke-width:1px;stroke-linecap:butt;stroke-linejoin:miter;stroke-opacity:1" d="M 285.039,664.776 300.094,656.411 z" id="boundary" inkscape:connector-curvature="0" />
	<path style="fill:none;stroke:red;stroke-width:1px;stroke-linecap:butt;stroke-linejoin:miter;stroke-opacity:1" d="M 288.384,699.906 305.113,699.906 z" id="boundary" inkscape:connector-curvature="0" />
	<path style="fill:none;stroke:red;stroke-width:1px;stroke-linecap:butt;stroke-linejoin:miter;stroke-opacity:1" d="M 296.749,181.322 311.804,189.686 z" id="boundary" inkscape:connector-curvature="0" />
	<path style="fill:none;stroke:red;stroke-width:1px;stroke-linecap:butt;stroke-linejoin:miter;stroke-opacity:1" d="M 300.094,656.411 313.477,636.337 z" id="boundary" inkscape:connector-curvature="0" />
	<path style="fill:none;stroke:red;stroke-width:1px;stroke-linecap:butt;stroke-linejoin:miter;stroke-opacity:1" d="M 301.767,37.457 318.496,29.0927 z" id="boundary" inkscape:connector-curvature="0" />
	<path style="fill:none;stroke:red;stroke-width:1px;stroke-linecap:butt;stroke-linejoin:miter;stroke-opacity:1" d="M 305.113,699.906 320.169,708.27 z" id="boundary" inkscape:connector-curvature="0" />
	<path style="fill:none;stroke:red;stroke-width:1px;stroke-linecap:butt;stroke-linejoin:miter;stroke-opacity:1" d="M 311.804,189.686 323.514,203.069 z" id="boundary" inkscape:connector-curvature="0" />
	<path style="fill:none;stroke:red;stroke-width:1px;stroke-linecap:butt;stroke-linejoin:miter;stroke-opacity:1" d="M 313.477,636.337 330.206,619.609 z" id="boundary" inkscape:connector-curvature="0" />
	<path style="fill:none;stroke:red;stroke-width:1px;stroke-linecap:butt;stroke-linejoin:miter;stroke-opacity:1" d="M 318.496,29.0927 335.224,20.7285 z" id="boundary" inkscape:connector-curvature="0" />
	<path style="fill:none;stroke:red;stroke-width:1px;stroke-linecap:butt;stroke-linejoin:miter;stroke-opacity:1" d="M 320.169,708.27 335.224,699.906 z" id="boundary" inkscape:connector-curvature="0" />
	<path style="fill:none;stroke:red;stroke-width:1px;stroke-linecap:butt;stroke-linejoin:miter;stroke-opacity:1" d="M 323.514,203.069 331.879,218.125 z" id="boundary" inkscape:connector-curvature="0" />
	<path style="fill:none;stroke:red;stroke-width:1px;stroke-linecap:butt;stroke-linejoin:miter;stroke-opacity:1" d="M 330.206,586.152 330.206,602.88 z" id="boundary" inkscape:connector-curvature="0" />
	<path style="fill:none;stroke:red;stroke-width:1px;stroke-linecap:butt;stroke-linejoin:miter;stroke-opacity:1" d="M 330.206,586.152 343.589,572.769 z" id="boundary" inkscape:connector-curvature="0" />
	<path style="fill:none;stroke:red;stroke-width:1px;stroke-linecap:butt;stroke-linejoin:miter;stroke-opacity:1" d="M 330.206,602.88 330.206,619.609 z" id="boundary" inkscape:connector-curvature="0" />
	<path style="fill:none;stroke:red;stroke-width:1px;stroke-linecap:butt;stroke-linejoin:miter;stroke-opacity:1" d="M 331.879,218.125 338.57,234.853 z" id="boundary" inkscape:connector-curvature="0" />
	<path style="fill:none;stroke:red;stroke-width:1px;stroke-linecap:butt;stroke-linejoin:miter;stroke-opacity:1" d="M 335.224,20.7285 351.953,20.7285 z" id="boundary" inkscape:connector-curvature="0" />
	<path style="fill:none;stroke:red;stroke-width:1px;stroke-linecap:butt;stroke-linejoin:miter;stroke-opacity:1" d="M 335.224,699.906 351.953,706.597 z" id="boundary" inkscape:connector-curvature="0" />
	<path style="fill:none;stroke:red;stroke-width:1px;stroke-linecap:butt;stroke-linejoin:miter;stroke-opacity:1" d="M 338.57,234.853 346.934,249.909 z" id="boundary" inkscape:connector-curvature="0" />
	<path style="fill:none;stroke:red;stroke-width:1px;stroke-linecap:butt;stroke-linejoin:miter;stroke-opacity:1" d="M 343.589,572.769 346.934,544.331 z" id="boundary" inkscape:connector-curvature="0" />
	<path style="fill:none;stroke:red;stroke-width:1px;stroke-linecap:butt;stroke-linejoin:miter;stroke-opacity:1" d="M 346.934,249.909 355.298,264.965 z" id="boundary" inkscape:connector-curvature="0" />
	<path style="fill:none;stroke:red;stroke-width:1px;stroke-linecap:butt;stroke-linejoin:miter;stroke-opacity:1" d="M 346.934,343.589 346.934,360.317 z" id="boundary" inkscape:connector-curvature="0" />
	<path style="fill:none;stroke:red;stroke-width:1px;stroke-linecap:butt;stroke-linejoin:miter;stroke-opacity:1" d="M 346.934,343.589 355.298,326.86 z" id="boundary" inkscape:connector-curvature="0" />
	<path style="fill:none;stroke:red;stroke-width:1px;stroke-linecap:butt;stroke-linejoin:miter;stroke-opacity:1" d="M 346.934,360.317 355.298,375.373 z" id="boundary" inkscape:connector-curvature="0" />
	<path style="fill:none;stroke:red;stroke-width:1px;stroke-linecap:butt;stroke-linejoin:miter;stroke-opacity:1" d="M 346.934,527.602 346.934,544.331 z" id="boundary" inkscape:connector-curvature="0" />
	<path style="fill:none;stroke:red;stroke-width:1px;stroke-linecap:butt;stroke-linejoin:miter;stroke-opacity:1" d="M 346.934,527.602 355.298,510.874 z" id="boundary" inkscape:connector-curvature="0" />
	<path style="fill:none;stroke:red;stroke-width:1px;stroke-linecap:butt;stroke-linejoin:miter;stroke-opacity:1" d="M 351.953,20.7285 368.681,20.7285 z" id="boundary" inkscape:connector-curvature="0" />
	<path style="fill:none;stroke:red;stroke-width:1px;stroke-linecap:butt;stroke-linejoin:miter;stroke-opacity:1" d="M 351.953,706.597 368.681,699.906 z" id="boundary" inkscape:connector-curvature="0" />
	<path style="fill:none;stroke:red;stroke-width:1px;stroke-linecap:butt;stroke-linejoin:miter;stroke-opacity:1" d="M 355.298,264.965 355.298,285.039 z" id="boundary" inkscape:connector-curvature="0" />
	<path style="fill:none;stroke:red;stroke-width:1px;stroke-linecap:butt;stroke-linejoin:miter;stroke-opacity:1" d="M 355.298,285.039 355.298,310.132 z" id="boundary" inkscape:connector-curvature="0" />
	<path style="fill:none;stroke:red;stroke-width:1px;stroke-linecap:butt;stroke-linejoin:miter;stroke-opacity:1" d="M 355.298,310.132 355.298,326.86 z" id="boundary" inkscape:connector-curvature="0" />
	<path style="fill:none;stroke:red;stroke-width:1px;stroke-linecap:butt;stroke-linejoin:miter;stroke-opacity:1" d="M 355.298,375.373 355.298,392.101 z" id="boundary" inkscape:connector-curvature="0" />
	<path style="fill:none;stroke:red;stroke-width:1px;stroke-linecap:butt;stroke-linejoin:miter;stroke-opacity:1" d="M 355.298,392.101 355.298,408.83 z" id="boundary" inkscape:connector-curvature="0" />
	<path style="fill:none;stroke:red;stroke-width:1px;stroke-linecap:butt;stroke-linejoin:miter;stroke-opacity:1" d="M 355.298,408.83 363.663,423.885 z" id="boundary" inkscape:connector-curvature="0" />
	<path style="fill:none;stroke:red;stroke-width:1px;stroke-linecap:butt;stroke-linejoin:miter;stroke-opacity:1" d="M 355.298,494.145 355.298,510.874 z" id="boundary" inkscape:connector-curvature="0" />
	<path style="fill:none;stroke:red;stroke-width:1px;stroke-linecap:butt;stroke-linejoin:miter;stroke-opacity:1" d="M 355.298,494.145 363.663,469.052 z" id="boundary" inkscape:connector-curvature="0" />
	<path style="fill:none;stroke:red;stroke-width:1px;stroke-linecap:butt;stroke-linejoin:miter;stroke-opacity:1" d="M 363.663,423.885 372.027,438.941 z" id="boundary" inkscape:connector-curvature="0" />
	<path style="fill:none;stroke:red;stroke-width:1px;stroke-linecap:butt;stroke-linejoin:miter;stroke-opacity:1" d="M 363.663,469.052 372.027,438.941 z" id="boundary" inkscape:connector-curvature="0" />
	<path style="fill:none;stroke:red;stroke-width:1px;stroke-linecap:butt;stroke-linejoin:miter;stroke-opacity:1" d="M 368.681,20.7285 383.737,12.3642 z" id="boundary" inkscape:connector-curvature="0" />
	<path style="fill:none;stroke:red;stroke-width:1px;stroke-linecap:butt;stroke-linejoin:miter;stroke-opacity:1" d="M 368.681,699.906 385.41,699.906 z" id="boundary" inkscape:connector-curvature="0" />
	<path style="fill:none;stroke:red;stroke-width:1px;stroke-linecap:butt;stroke-linejoin:miter;stroke-opacity:1" d="M 383.737,12.3642 400.465,12.3642 z" id="boundary" inkscape:connector-curvature="0" />
	<path style="fill:none;stroke:red;stroke-width:1px;stroke-linecap:butt;stroke-linejoin:miter;stroke-opacity:1" d="M 385.41,699.906 402.138,698.233 z" id="boundary" inkscape:connector-curvature="0" />
	<path style="fill:none;stroke:red;stroke-width:1px;stroke-linecap:butt;stroke-linejoin:miter;stroke-opacity:1" d="M 400.465,12.3642 417.194,12.3642 z" id="boundary" inkscape:connector-curvature="0" />
	<path style="fill:none;stroke:red;stroke-width:1px;stroke-linecap:butt;stroke-linejoin:miter;stroke-opacity:1" d="M 402.138,698.233 415.521,673.14 z" id="boundary" inkscape:connector-curvature="0" />
	<path style="fill:none;stroke:red;stroke-width:1px;stroke-linecap:butt;stroke-linejoin:miter;stroke-opacity:1" d="M 407.157,658.084 415.521,673.14 z" id="boundary" inkscape:connector-curvature="0" />
	<path style="fill:none;stroke:red;stroke-width:1px;stroke-linecap:butt;stroke-linejoin:miter;stroke-opacity:1" d="M 407.157,658.084 420.54,646.374 z" id="boundary" inkscape:connector-curvature="0" />
	<path style="fill:none;stroke:red;stroke-width:1px;stroke-linecap:butt;stroke-linejoin:miter;stroke-opacity:1" d="M 417.194,12.3642 433.922,5.67285 z" id="boundary" inkscape:connector-curvature="0" />
	<path style="fill:none;stroke:red;stroke-width:1px;stroke-linecap:butt;stroke-linejoin:miter;stroke-opacity:1" d="M 420.54,646.374 423.885,616.263 z" id="boundary" inkscape:connector-curvature="0" />
	<path style="fill:none;stroke:red;stroke-width:1px;stroke-linecap:butt;stroke-linejoin:miter;stroke-opacity:1" d="M 423.885,616.263 432.25,591.17 z" id="boundary" inkscape:connector-curvature="0" />
	<path style="fill:none;stroke:red;stroke-width:1px;stroke-linecap:butt;stroke-linejoin:miter;stroke-opacity:1" d="M 432.25,591.17 445.632,579.46 z" id="boundary" inkscape:connector-curvature="0" />
	<path style="fill:none;stroke:red;stroke-width:1px;stroke-linecap:butt;stroke-linejoin:miter;stroke-opacity:1" d="M 433.922,5.67285 450.651,4 z" id="boundary" inkscape:connector-curvature="0" />
	<path style="fill:none;stroke:red;stroke-width:1px;stroke-linecap:butt;stroke-linejoin:miter;stroke-opacity:1" d="M 445.632,579.46 457.342,566.078 z" id="boundary" inkscape:connector-curvature="0" />
	<path style="fill:none;stroke:red;stroke-width:1px;stroke-linecap:butt;stroke-linejoin:miter;stroke-opacity:1" d="M 450.651,4 465.707,12.3642 z" id="boundary" inkscape:connector-curvature="0" />
	<path style="fill:none;stroke:red;stroke-width:1px;stroke-linecap:butt;stroke-linejoin:miter;stroke-opacity:1" d="M 457.342,549.349 457.342,566.078 z" id="boundary" inkscape:connector-curvature="0" />
	<path style="fill:none;stroke:red;stroke-width:1px;stroke-linecap:butt;stroke-linejoin:miter;stroke-opacity:1" d="M 457.342,549.349 470.725,537.639 z" id="boundary" inkscape:connector-curvature="0" />
	<path style="fill:none;stroke:red;stroke-width:1px;stroke-linecap:butt;stroke-linejoin:miter;stroke-opacity:1" d="M 465.707,12.3642 482.435,17.3828 z" id="boundary" inkscape:connector-curvature="0" />
	<path style="fill:none;stroke:red;stroke-width:1px;stroke-linecap:butt;stroke-linejoin:miter;stroke-opacity:1" d="M 470.725,537.639 474.071,515.892 z" id="boundary" inkscape:connector-curvature="0" />
	<path style="fill:none;stroke:red;stroke-width:1px;stroke-linecap:butt;stroke-linejoin:miter;stroke-opacity:1" d="M 474.071,515.892 487.454,504.182 z" id="boundary" inkscape:connector-curvature="0" />
	<path style="fill:none;stroke:red;stroke-width:1px;stroke-linecap:butt;stroke-linejoin:miter;stroke-opacity:1" d="M 482.435,17.3828 495.818,29.0927 z" id="boundary" inkscape:connector-curvature="0" />
	<path style="fill:none;stroke:red;stroke-width:1px;stroke-linecap:butt;stroke-linejoin:miter;stroke-opacity:1" d="M 487.454,504.182 499.164,490.799 z" id="boundary" inkscape:connector-curvature="0" />
	<path style="fill:none;stroke:red;stroke-width:1px;stroke-linecap:butt;stroke-linejoin:miter;stroke-opacity:1" d="M 495.818,29.0927 512.546,29.0927 z" id="boundary" inkscape:connector-curvature="0" />
	<path style="fill:none;stroke:red;stroke-width:1px;stroke-linecap:butt;stroke-linejoin:miter;stroke-opacity:1" d="M 499.164,490.799 515.892,490.799 z" id="boundary" inkscape:connector-curvature="0" />
	<path style="fill:none;stroke:red;stroke-width:1px;stroke-linecap:butt;stroke-linejoin:miter;stroke-opacity:1" d="M 512.546,29.0927 529.275,29.0927 z" id="boundary" inkscape:connector-curvature="0" />
	<path style="fill:none;stroke:red;stroke-width:1px;stroke-linecap:butt;stroke-linejoin:miter;stroke-opacity:1" d="M 515.892,490.799 532.621,490.799 z" id="boundary" inkscape:connector-curvature="0" />
	<path style="fill:none;stroke:red;stroke-width:1px;stroke-linecap:butt;stroke-linejoin:miter;stroke-opacity:1" d="M 529.275,29.0927 546.003,29.0927 z" id="boundary" inkscape:connector-curvature="0" />
	<path style="fill:none;stroke:red;stroke-width:1px;stroke-linecap:butt;stroke-linejoin:miter;stroke-opacity:1" d="M 532.621,490.799 549.349,490.799 z" id="boundary" inkscape:connector-curvature="0" />
	<path style="fill:none;stroke:red;stroke-width:1px;stroke-linecap:butt;stroke-linejoin:miter;stroke-opacity:1" d="M 546.003,29.0927 562.732,30.7656 z" id="boundary" inkscape:connector-curvature="0" />
	<path style="fill:none;stroke:red;stroke-width:1px;stroke-linecap:butt;stroke-linejoin:miter;stroke-opacity:1" d="M 549.349,490.799 564.405,499.164 z" id="boundary" inkscape:connector-curvature="0" />
	<path style="fill:none;stroke:red;stroke-width:1px;stroke-linecap:butt;stroke-linejoin:miter;stroke-opacity:1" d="M 562.732,30.7656 579.46,37.457 z" id="boundary" inkscape:connector-curvature="0" />
	<path style="fill:none;stroke:red;stroke-width:1px;stroke-linecap:butt;stroke-linejoin:miter;stroke-opacity:1" d="M 564.405,499.164 569.423,515.892 z" id="boundary" inkscape:connector-curvature="0" />
	<path style="fill:none;stroke:red;stroke-width:1px;stroke-linecap:butt;stroke-linejoin:miter;stroke-opacity:1" d="M 569.423,515.892 577.788,530.948 z" id="boundary" inkscape:connector-curvature="0" />
	<path style="fill:none;stroke:red;stroke-width:1px;stroke-linecap:butt;stroke-linejoin:miter;stroke-opacity:1" d="M 577.788,530.948 589.497,544.331 z" id="boundary" inkscape:connector-curvature="0" />
	<path style="fill:none;stroke:red;stroke-width:1px;stroke-linecap:butt;stroke-linejoin:miter;stroke-opacity:1" d="M 579.46,37.457 596.189,37.457 z" id="boundary" inkscape:connector-curvature="0" />
	<path style="fill:none;stroke:red;stroke-width:1px;stroke-linecap:butt;stroke-linejoin:miter;stroke-opacity:1" d="M 581.133,686.523 581.133,703.251 z" id="boundary" inkscape:connector-curvature="0" />
	<path style="fill:none;stroke:red;stroke-width:1px;stroke-linecap:butt;stroke-linejoin:miter;stroke-opacity:1" d="M 581.133,686.523 597.862,686.523 z" id="boundary" inkscape:connector-curvature="0" />
	<path style="fill:none;stroke:red;stroke-width:1px;stroke-linecap:butt;stroke-linejoin:miter;stroke-opacity:1" d="M 581.133,703.251 581.133,719.98 z" id="boundary" inkscape:connector-curvature="0" />
	<path style="fill:none;stroke:red;stroke-width:1px;stroke-linecap:butt;stroke-linejoin:miter;stroke-opacity:1" d="M 581.133,719.98 594.516,731.69 z" id="boundary" inkscape:connector-curvature="0" />
	<path style="fill:none;stroke:red;stroke-width:1px;stroke-linecap:butt;stroke-linejoin:miter;stroke-opacity:1" d="M 589.497,544.331 597.862,559.386 z" id="boundary" inkscape:connector-curvature="0" />
	<path style="fill:none;stroke:red;stroke-width:1px;stroke-linecap:butt;stroke-linejoin:miter;stroke-opacity:1" d="M 594.516,731.69 611.245,733.363 z" id="boundary" inkscape:connector-curvature="0" />
	<path style="fill:none;stroke:red;stroke-width:1px;stroke-linecap:butt;stroke-linejoin:miter;stroke-opacity:1" d="M 596.189,37.457 612.917,39.1298 z" id="boundary" inkscape:connector-curvature="0" />
	<path style="fill:none;stroke:red;stroke-width:1px;stroke-linecap:butt;stroke-linejoin:miter;stroke-opacity:1" d="M 597.862,559.386 597.862,576.115 z" id="boundary" inkscape:connector-curvature="0" />
	<path style="fill:none;stroke:red;stroke-width:1px;stroke-linecap:butt;stroke-linejoin:miter;stroke-opacity:1" d="M 597.862,576.115 597.862,592.843 z" id="boundary" inkscape:connector-curvature="0" />
	<path style="fill:none;stroke:red;stroke-width:1px;stroke-linecap:butt;stroke-linejoin:miter;stroke-opacity:1" d="M 597.862,592.843 606.226,607.899 z" id="boundary" inkscape:connector-curvature="0" />
	<path style="fill:none;stroke:red;stroke-width:1px;stroke-linecap:butt;stroke-linejoin:miter;stroke-opacity:1" d="M 597.862,653.066 597.862,669.794 z" id="boundary" inkscape:connector-curvature="0" />
	<path style="fill:none;stroke:red;stroke-width:1px;stroke-linecap:butt;stroke-linejoin:miter;stroke-opacity:1" d="M 597.862,653.066 606.226,636.337 z" id="boundary" inkscape:connector-curvature="0" />
	<path style="fill:none;stroke:red;stroke-width:1px;stroke-linecap:butt;stroke-linejoin:miter;stroke-opacity:1" d="M 597.862,669.794 597.862,686.523 z" id="boundary" inkscape:connector-curvature="0" />
	<path style="fill:none;stroke:red;stroke-width:1px;stroke-linecap:butt;stroke-linejoin:miter;stroke-opacity:1" d="M 606.226,607.899 606.226,636.337 z" id="boundary" inkscape:connector-curvature="0" />
	<path style="fill:none;stroke:red;stroke-width:1px;stroke-linecap:butt;stroke-linejoin:miter;stroke-opacity:1" d="M 611.245,733.363 626.3,724.998 z" id="boundary" inkscape:connector-curvature="0" />
	<path style="fill:none;stroke:red;stroke-width:1px;stroke-linecap:butt;stroke-linejoin:miter;stroke-opacity:1" d="M 612.917,39.1298 624.627,52.5126 z" id="boundary" inkscape:connector-curvature="0" />
	<path style="fill:none;stroke:red;stroke-width:1px;stroke-linecap:butt;stroke-linejoin:miter;stroke-opacity:1" d="M 624.627,52.5126 641.356,59.204 z" id="boundary" inkscape:connector-curvature="0" />
	<path style="fill:none;stroke:red;stroke-width:1px;stroke-linecap:butt;stroke-linejoin:miter;stroke-opacity:1" d="M 626.3,724.998 641.356,733.363 z" id="boundary" inkscape:connector-curvature="0" />
	<path style="fill:none;stroke:red;stroke-width:1px;stroke-linecap:butt;stroke-linejoin:miter;stroke-opacity:1" d="M 641.356,59.204 656.411,67.5683 z" id="boundary" inkscape:connector-curvature="0" />
	<path style="fill:none;stroke:red;stroke-width:1px;stroke-linecap:butt;stroke-linejoin:miter;stroke-opacity:1" d="M 641.356,733.363 658.084,733.363 z" id="boundary" inkscape:connector-curvature="0" />
	<path style="fill:none;stroke:red;stroke-width:1px;stroke-linecap:butt;stroke-linejoin:miter;stroke-opacity:1" d="M 656.411,67.5683 669.794,79.2782 z" id="boundary" inkscape:connector-curvature="0" />
	<path style="fill:none;stroke:red;stroke-width:1px;stroke-linecap:butt;stroke-linejoin:miter;stroke-opacity:1" d="M 658.084,733.363 674.813,733.363 z" id="boundary" inkscape:connector-curvature="0" />
	<path style="fill:none;stroke:red;stroke-width:1px;stroke-linecap:butt;stroke-linejoin:miter;stroke-opacity:1" d="M 669.794,79.2782 686.523,79.2782 z" id="boundary" inkscape:connector-curvature="0" />
	<path style="fill:none;stroke:red;stroke-width:1px;stroke-linecap:butt;stroke-linejoin:miter;stroke-opacity:1" d="M 674.813,733.363 691.541,724.998 z" id="boundary" inkscape:connector-curvature="0" />
	<path style="fill:none;stroke:red;stroke-width:1px;stroke-linecap:butt;stroke-linejoin:miter;stroke-opacity:1" d="M 686.523,79.2782 703.251,79.2782 z" id="boundary" inkscape:connector-curvature="0" />
	<path style="fill:none;stroke:red;stroke-width:1px;stroke-linecap:butt;stroke-linejoin:miter;stroke-opacity:1" d="M 691.541,566.078 691.541,582.806 z" id="boundary" inkscape:connector-curvature="0" />
	<path style="fill:none;stroke:red;stroke-width:1px;stroke-linecap:butt;stroke-linejoin:miter;stroke-opacity:1" d="M 691.541,566.078 699.906,540.985 z" id="boundary" inkscape:connector-curvature="0" />
	<path style="fill:none;stroke:red;stroke-width:1px;stroke-linecap:butt;stroke-linejoin:miter;stroke-opacity:1" d="M 691.541,582.806 699.906,597.862 z" id="boundary" inkscape:connector-curvature="0" />
	<path style="fill:none;stroke:red;stroke-width:1px;stroke-linecap:butt;stroke-linejoin:miter;stroke-opacity:1" d="M 691.541,724.998 706.597,716.634 z" id="boundary" inkscape:connector-curvature="0" />
	<path style="fill:none;stroke:red;stroke-width:1px;stroke-linecap:butt;stroke-linejoin:miter;stroke-opacity:1" d="M 699.906,524.256 699.906,540.985 z" id="boundary" inkscape:connector-curvature="0" />
	<path style="fill:none;stroke:red;stroke-width:1px;stroke-linecap:butt;stroke-linejoin:miter;stroke-opacity:1" d="M 699.906,524.256 708.27,507.528 z" id="boundary" inkscape:connector-curvature="0" />
	<path style="fill:none;stroke:red;stroke-width:1px;stroke-linecap:butt;stroke-linejoin:miter;stroke-opacity:1" d="M 699.906,597.862 699.906,614.59 z" id="boundary" inkscape:connector-curvature="0" />
	<path style="fill:none;stroke:red;stroke-width:1px;stroke-linecap:butt;stroke-linejoin:miter;stroke-opacity:1" d="M 699.906,614.59 699.906,631.319 z" id="boundary" inkscape:connector-curvature="0" />
	<path style="fill:none;stroke:red;stroke-width:1px;stroke-linecap:butt;stroke-linejoin:miter;stroke-opacity:1" d="M 699.906,631.319 708.27,646.374 z" id="boundary" inkscape:connector-curvature="0" />
	<path style="fill:none;stroke:red;stroke-width:1px;stroke-linecap:butt;stroke-linejoin:miter;stroke-opacity:1" d="M 703.251,79.2782 719.98,79.2782 z" id="boundary" inkscape:connector-curvature="0" />
	<path style="fill:none;stroke:red;stroke-width:1px;stroke-linecap:butt;stroke-linejoin:miter;stroke-opacity:1" d="M 706.597,716.634 716.634,694.887 z" id="boundary" inkscape:connector-curvature="0" />
	<path style="fill:none;stroke:red;stroke-width:1px;stroke-linecap:butt;stroke-linejoin:miter;stroke-opacity:1" d="M 708.27,507.528 724.998,507.528 z" id="boundary" inkscape:connector-curvature="0" />
	<path style="fill:none;stroke:red;stroke-width:1px;stroke-linecap:butt;stroke-linejoin:miter;stroke-opacity:1" d="M 708.27,646.374 716.634,661.43 z" id="boundary" inkscape:connector-curvature="0" />
	<path style="fill:none;stroke:red;stroke-width:1px;stroke-linecap:butt;stroke-linejoin:miter;stroke-opacity:1" d="M 716.634,661.43 716.634,678.159 z" id="boundary" inkscape:connector-curvature="0" />
	<path style="fill:none;stroke:red;stroke-width:1px;stroke-linecap:butt;stroke-linejoin:miter;stroke-opacity:1" d="M 716.634,678.159 716.634,694.887 z" id="boundary" inkscape:connector-curvature="0" />
	<path style="fill:none;stroke:red;stroke-width:1px;stroke-linecap:butt;stroke-linejoin:miter;stroke-opacity:1" d="M 719.98,79.2782 736.708,79.2782 z" id="boundary" inkscape:connector-curvature="0" />
	<path style="fill:none;stroke:red;stroke-width:1px;stroke-linecap:butt;stroke-linejoin:miter;stroke-opacity:1" d="M 724.998,507.528 741.727,507.528 z" id="boundary" inkscape:connector-curvature="0" />
	<path style="fill:none;stroke:red;stroke-width:1px;stroke-linecap:butt;stroke-linejoin:miter;stroke-opacity:1" d="M 736.708,79.2782 751.764,87.6425 z" id="boundary" inkscape:connector-curvature="0" />
	<path style="fill:none;stroke:red;stroke-width:1px;stroke-linecap:butt;stroke-linejoin:miter;stroke-opacity:1" d="M 741.727,507.528 756.782,515.892 z" id="boundary" inkscape:connector-curvature="0" />
	<path style="fill:none;stroke:red;stroke-width:1px;stroke-linecap:butt;stroke-linejoin:miter;stroke-opacity:1" d="M 751.764,87.6425 766.82,96.0067 z" id="boundary" inkscape:connector-curvature="0" />
	<path style="fill:none;stroke:red;stroke-width:1px;stroke-linecap:butt;stroke-linejoin:miter;stroke-opacity:1" d="M 756.782,515.892 766.82,529.275 z" id="boundary" inkscape:connector-curvature="0" />
	<path style="fill:none;stroke:red;stroke-width:1px;stroke-linecap:butt;stroke-linejoin:miter;stroke-opacity:1" d="M 766.82,96.0067 783.548,101.025 z" id="boundary" inkscape:connector-curvature="0" />
	<path style="fill:none;stroke:red;stroke-width:1px;stroke-linecap:butt;stroke-linejoin:miter;stroke-opacity:1" d="M 766.82,529.275 773.511,546.003 z" id="boundary" inkscape:connector-curvature="0" />
	<path style="fill:none;stroke:red;stroke-width:1px;stroke-linecap:butt;stroke-linejoin:miter;stroke-opacity:1" d="M 773.511,546.003 773.511,562.732 z" id="boundary" inkscape:connector-curvature="0" />
	<path style="fill:none;stroke:red;stroke-width:1px;stroke-linecap:butt;stroke-linejoin:miter;stroke-opacity:1" d="M 773.511,562.732 781.875,577.788 z" id="boundary" inkscape:connector-curvature="0" />
	<path style="fill:none;stroke:red;stroke-width:1px;stroke-linecap:butt;stroke-linejoin:miter;stroke-opacity:1" d="M 781.875,577.788 790.239,609.572 z" id="boundary" inkscape:connector-curvature="0" />
	<path style="fill:none;stroke:red;stroke-width:1px;stroke-linecap:butt;stroke-linejoin:miter;stroke-opacity:1" d="M 781.875,686.523 781.875,703.251 z" id="boundary" inkscape:connector-curvature="0" />
	<path style="fill:none;stroke:red;stroke-width:1px;stroke-linecap:butt;stroke-linejoin:miter;stroke-opacity:1" d="M 781.875,686.523 795.258,673.14 z" id="boundary" inkscape:connector-curvature="0" />
	<path style="fill:none;stroke:red;stroke-width:1px;stroke-linecap:butt;stroke-linejoin:miter;stroke-opacity:1" d="M 781.875,703.251 798.604,708.27 z" id="boundary" inkscape:connector-curvature="0" />
	<path style="fill:none;stroke:red;stroke-width:1px;stroke-linecap:butt;stroke-linejoin:miter;stroke-opacity:1" d="M 783.548,101.025 796.931,112.735 z" id="boundary" inkscape:connector-curvature="0" />
	<path style="fill:none;stroke:red;stroke-width:1px;stroke-linecap:butt;stroke-linejoin:miter;stroke-opacity:1" d="M 790.239,609.572 790.239,643.029 z" id="boundary" inkscape:connector-curvature="0" />
	<path style="fill:none;stroke:red;stroke-width:1px;stroke-linecap:butt;stroke-linejoin:miter;stroke-opacity:1" d="M 790.239,643.029 795.258,673.14 z" id="boundary" inkscape:connector-curvature="0" />
	<path style="fill:none;stroke:red;stroke-width:1px;stroke-linecap:butt;stroke-linejoin:miter;stroke-opacity:1" d="M 796.931,112.735 811.987,121.099 z" id="boundary" inkscape:connector-curvature="0" />
	<path style="fill:none;stroke:red;stroke-width:1px;stroke-linecap:butt;stroke-linejoin:miter;stroke-opacity:1" d="M 798.604,708.27 813.659,716.634 z" id="boundary" inkscape:connector-curvature="0" />
	<path style="fill:none;stroke:red;stroke-width:1px;stroke-linecap:butt;stroke-linejoin:miter;stroke-opacity:1" d="M 811.987,121.099 828.715,121.099 z" id="boundary" inkscape:connector-curvature="0" />
	<path style="fill:none;stroke:red;stroke-width:1px;stroke-linecap:butt;stroke-linejoin:miter;stroke-opacity:1" d="M 813.659,716.634 828.715,724.998 z" id="boundary" inkscape:connector-curvature="0" />
	<path style="fill:none;stroke:red;stroke-width:1px;stroke-linecap:butt;stroke-linejoin:miter;stroke-opacity:1" d="M 828.715,121.099 840.425,134.482 z" id="boundary" inkscape:connector-curvature="0" />
	<path style="fill:none;stroke:red;stroke-width:1px;stroke-linecap:butt;stroke-linejoin:miter;stroke-opacity:1" d="M 828.715,724.998 843.771,716.634 z" id="boundary" inkscape:connector-curvature="0" />
	<path style="fill:none;stroke:red;stroke-width:1px;stroke-linecap:butt;stroke-linejoin:miter;stroke-opacity:1" d="M 840.425,134.482 857.153,141.174 z" id="boundary" inkscape:connector-curvature="0" />
	<path style="fill:none;stroke:red;stroke-width:1px;stroke-linecap:butt;stroke-linejoin:miter;stroke-opacity:1" d="M 843.771,716.634 858.826,708.27 z" id="boundary" inkscape:connector-curvature="0" />
	<path style="fill:none;stroke:red;stroke-width:1px;stroke-linecap:butt;stroke-linejoin:miter;stroke-opacity:1" d="M 857.153,141.174 867.191,154.556 z" id="boundary" inkscape:connector-curvature="0" />
	<path style="fill:none;stroke:red;stroke-width:1px;stroke-linecap:butt;stroke-linejoin:miter;stroke-opacity:1" d="M 858.826,708.27 873.882,699.906 z" id="boundary" inkscape:connector-curvature="0" />
	<path style="fill:none;stroke:red;stroke-width:1px;stroke-linecap:butt;stroke-linejoin:miter;stroke-opacity:1" d="M 867.191,154.556 880.573,164.594 z" id="boundary" inkscape:connector-curvature="0" />
	<path style="fill:none;stroke:red;stroke-width:1px;stroke-linecap:butt;stroke-linejoin:miter;stroke-opacity:1" d="M 873.882,699.906 883.919,666.449 z" id="boundary" inkscape:connector-curvature="0" />
	<path style="fill:none;stroke:red;stroke-width:1px;stroke-linecap:butt;stroke-linejoin:miter;stroke-opacity:1" d="M 880.573,164.594 892.283,177.976 z" id="boundary" inkscape:connector-curvature="0" />
	<path style="fill:none;stroke:red;stroke-width:1px;stroke-linecap:butt;stroke-linejoin:miter;stroke-opacity:1" d="M 883.919,666.449 940.796,669.794 z" id="boundary" inkscape:connector-curvature="0" />
	<path style="fill:none;stroke:red;stroke-width:1px;stroke-linecap:butt;stroke-linejoin:miter;stroke-opacity:1" d="M 892.283,177.976 900.648,193.032 z" id="boundary" inkscape:connector-curvature="0" />
	<path style="fill:none;stroke:red;stroke-width:1px;stroke-linecap:butt;stroke-linejoin:miter;stroke-opacity:1" d="M 900.648,193.032 912.358,206.415 z" id="boundary" inkscape:connector-curvature="0" />
	<path style="fill:none;stroke:red;stroke-width:1px;stroke-linecap:butt;stroke-linejoin:miter;stroke-opacity:1" d="M 912.358,206.415 920.722,221.47 z" id="boundary" inkscape:connector-curvature="0" />
	<path style="fill:none;stroke:red;stroke-width:1px;stroke-linecap:butt;stroke-linejoin:miter;stroke-opacity:1" d="M 920.722,221.47 932.432,234.853 z" id="boundary" inkscape:connector-curvature="0" />
	<path style="fill:none;stroke:red;stroke-width:1px;stroke-linecap:butt;stroke-linejoin:miter;stroke-opacity:1" d="M 932.432,234.853 940.796,249.909 z" id="boundary" inkscape:connector-curvature="0" />
	<path style="fill:none;stroke:red;stroke-width:1px;stroke-linecap:butt;stroke-linejoin:miter;stroke-opacity:1" d="M 940.796,249.909 950.833,263.292 z" id="boundary" inkscape:connector-curvature="0" />
	<path style="fill:none;stroke:red;stroke-width:1px;stroke-linecap:butt;stroke-linejoin:miter;stroke-opacity:1" d="M 940.796,669.794 975.926,636.337 z" id="boundary" inkscape:connector-curvature="0" />
	<path style="fill:none;stroke:red;stroke-width:1px;stroke-linecap:butt;stroke-linejoin:miter;stroke-opacity:1" d="M 942.469,474.071 942.469,507.528 z" id="boundary" inkscape:connector-curvature="0" />
	<path style="fill:none;stroke:red;stroke-width:1px;stroke-linecap:butt;stroke-linejoin:miter;stroke-opacity:1" d="M 942.469,474.071 965.889,423.885 z" id="boundary" inkscape:connector-curvature="0" />
	<path style="fill:none;stroke:red;stroke-width:1px;stroke-linecap:butt;stroke-linejoin:miter;stroke-opacity:1" d="M 942.469,507.528 959.197,572.769 z" id="boundary" inkscape:connector-curvature="0" />
	<path style="fill:none;stroke:red;stroke-width:1px;stroke-linecap:butt;stroke-linejoin:miter;stroke-opacity:1" d="M 950.833,263.292 959.197,278.347 z" id="boundary" inkscape:connector-curvature="0" />
	<path style="fill:none;stroke:red;stroke-width:1px;stroke-linecap:butt;stroke-linejoin:miter;stroke-opacity:1" d="M 959.197,278.347 967.562,310.132 z" id="boundary" inkscape:connector-curvature="0" />
	<path style="fill:none;stroke:red;stroke-width:1px;stroke-linecap:butt;stroke-linejoin:miter;stroke-opacity:1" d="M 959.197,572.769 967.562,604.553 z" id="boundary" inkscape:connector-curvature="0" />
	<path style="fill:none;stroke:red;stroke-width:1px;stroke-linecap:butt;stroke-linejoin:miter;stroke-opacity:1" d="M 965.889,423.885 984.29,373.7 z" id="boundary" inkscape:connector-curvature="0" />
	<path style="fill:none;stroke:red;stroke-width:1px;stroke-linecap:butt;stroke-linejoin:miter;stroke-opacity:1" d="M 967.562,310.132 975.926,341.916 z" id="boundary" inkscape:connector-curvature="0" />
	<path style="fill:none;stroke:red;stroke-width:1px;stroke-linecap:butt;stroke-linejoin:miter;stroke-opacity:1" d="M 967.562,604.553 975.926,636.337 z" id="boundary" inkscape:connector-curvature="0" />
	<path style="fill:none;stroke:red;stroke-width:1px;stroke-linecap:butt;stroke-linejoin:miter;stroke-opacity:1" d="M 975.926,341.916 984.29,373.7 z" id="boundary" inkscape:connector-curvature="0" />
	<circle cx="4" cy="126.118" r="4" fill="#0" id="circle0"/>
	<circle cx="4" cy="142.847" r="4" fill="#0" id="circle1"/>
	<circle cx="4" cy="159.575" r="4" fill="#0" id="circle2"/>
	<circle cx="12.3642" cy="109.39" r="4" fill="#0" id="circle3"/>
	<circle cx="12.3642" cy="174.631" r="4" fill="#0" id="circle4"/>
	<circle cx="20.7285" cy="92.661" r="4" fill="#0" id="circle5"/>
	<circle cx="20.7285" cy="189.686" r="4" fill="#0" id="circle6"/>
	<circle cx="30.7656" cy="203.069" r="4" fill="#0" id="circle7"/>
	<circle cx="34.1113" cy="79.2782" r="4" fill="#0" id="circle8"/>
	<circle cx="44.1484" cy="214.779" r="4" fill="#0" id="circle9"/>
	<circle cx="47.4941" cy="65.8954" r="4" fill="#0" id="circle10"/>
	<circle cx="47.4941" cy="131.137" r="4" fill="#0" id="circle11"/>
	<circle cx="47.4941" cy="147.865" r="4" fill="#0" id="circle12"/>
	<circle cx="50.8398" cy="164.594" r="4" fill="#0" id="circle13"/>
	<circle cx="55.8583" cy="114.408" r="4" fill="#0" id="circle14"/>
	<circle cx="55.8583" cy="181.322" r="4" fill="#0" id="circle15"/>
	<circle cx="59.204" cy="223.143" r="4" fill="#0" id="circle16"/>
	<circle cx="60.8769" cy="54.1855" r="4" fill="#0" id="circle17"/>
	<circle cx="69.2411" cy="191.359" r="4" fill="#0" id="circle18"/>
	<circle cx="70.914" cy="106.044" r="4" fill="#0" id="circle19"/>
	<circle cx="75.9325" cy="45.8212" r="4" fill="#0" id="circle20"/>
	<circle cx="75.9325" cy="229.835" r="4" fill="#0" id="circle21"/>
	<circle cx="80.9511" cy="204.742" r="4" fill="#0" id="circle22"/>
	<circle cx="85.9696" cy="97.6796" r="4" fill="#0" id="circle23"/>
	<circle cx="90.9882" cy="238.199" r="4" fill="#0" id="circle24"/>
	<circle cx="92.661" cy="45.8212" r="4" fill="#0" id="circle25"/>
	<circle cx="97.6796" cy="204.742" r="4" fill="#0" id="circle26"/>
	<circle cx="102.698" cy="97.6796" r="4" fill="#0" id="circle27"/>
	<circle cx="107.717" cy="239.872" r="4" fill="#0" id="circle28"/>
	<circle cx="109.39" cy="45.8212" r="4" fill="#0" id="circle29"/>
	<circle cx="114.408" cy="209.761" r="4" fill="#0" id="circle30"/>
	<circle cx="119.427" cy="97.6796" r="4" fill="#0" id="circle31"/>
	<circle cx="122.772" cy="248.236" r="4" fill="#0" id="circle32"/>
	<circle cx="124.445" cy="37.457" r="4" fill="#0" id="circle33"/>
	<circle cx="127.791" cy="221.47" r="4" fill="#0" id="circle34"/>
	<circle cx="129.464" cy="134.482" r="4" fill="#0" id="circle35"/>
	<circle cx="136.155" cy="97.6796" r="4" fill="#0" id="circle36"/>
	<circle cx="139.501" cy="251.582" r="4" fill="#0" id="circle37"/>
	<circle cx="141.174" cy="37.457" r="4" fill="#0" id="circle38"/>
	<circle cx="142.847" cy="121.099" r="4" fill="#0" id="circle39"/>
	<circle cx="142.847" cy="146.192" r="4" fill="#0" id="circle40"/>
	<circle cx="144.519" cy="223.143" r="4" fill="#0" id="circle41"/>
	<circle cx="151.211" cy="264.965" r="4" fill="#0" id="circle42"/>
	<circle cx="152.884" cy="97.6796" r="4" fill="#0" id="circle43"/>
	<circle cx="157.902" cy="39.1298" r="4" fill="#0" id="circle44"/>
	<circle cx="157.902" cy="129.464" r="4" fill="#0" id="circle45"/>
	<circle cx="159.575" cy="147.865" r="4" fill="#0" id="circle46"/>
	<circle cx="161.248" cy="223.143" r="4" fill="#0" id="circle47"/>
	<circle cx="164.594" cy="239.872" r="4" fill="#0" id="circle48"/>
	<circle cx="166.266" cy="273.329" r="4" fill="#0" id="circle49"/>
	<circle cx="167.939" cy="106.044" r="4" fill="#0" id="circle50"/>
	<circle cx="172.958" cy="254.927" r="4" fill="#0" id="circle51"/>
	<circle cx="174.631" cy="37.457" r="4" fill="#0" id="circle52"/>
	<circle cx="174.631" cy="129.464" r="4" fill="#0" id="circle53"/>
	<circle cx="174.631" cy="156.229" r="4" fill="#0" id="circle54"/>
	<circle cx="184.668" cy="112.735" r="4" fill="#0" id="circle55"/>
	<circle cx="189.686" cy="45.8212" r="4" fill="#0" id="circle56"/>
	<circle cx="189.686" cy="137.828" r="4" fill="#0" id="circle57"/>
	<circle cx="191.359" cy="156.229" r="4" fill="#0" id="circle58"/>
	<circle cx="201.396" cy="114.408" r="4" fill="#0" id="circle59"/>
	<circle cx="206.415" cy="45.8212" r="4" fill="#0" id="circle60"/>
	<circle cx="206.415" cy="137.828" r="4" fill="#0" id="circle61"/>
	<circle cx="206.415" cy="164.594" r="4" fill="#0" id="circle62"/>
	<circle cx="218.125" cy="114.408" r="4" fill="#0" id="circle63"/>
	<circle cx="221.47" cy="146.192" r="4" fill="#0" id="circle64"/>
	<circle cx="223.143" cy="45.8212" r="4" fill="#0" id="circle65"/>
	<circle cx="223.143" cy="164.594" r="4" fill="#0" id="circle66"/>
	<circle cx="234.853" cy="114.408" r="4" fill="#0" id="circle67"/>
	<circle cx="236.526" cy="137.828" r="4" fill="#0" id="circle68"/>
	<circle cx="239.872" cy="50.8398" r="4" fill="#0" id="circle69"/>
	<circle cx="239.872" cy="164.594" r="4" fill="#0" id="circle70"/>
	<circle cx="249.909" cy="122.772" r="4" fill="#0" id="circle71"/>
	<circle cx="256.6" cy="49.1669" r="4" fill="#0" id="circle72"/>
	<circle cx="256.6" cy="167.939" r="4" fill="#0" id="circle73"/>
	<circle cx="258.273" cy="137.828" r="4" fill="#0" id="circle74"/>
	<circle cx="266.637" cy="122.772" r="4" fill="#0" id="circle75"/>
	<circle cx="271.656" cy="678.159" r="4" fill="#0" id="circle76"/>
	<circle cx="271.656" cy="694.887" r="4" fill="#0" id="circle77"/>
	<circle cx="273.329" cy="50.8398" r="4" fill="#0" id="circle78"/>
	<circle cx="273.329" cy="167.939" r="4" fill="#0" id="circle79"/>
	<circle cx="285.039" cy="37.457" r="4" fill="#0" id="circle80"/>
	<circle cx="285.039" cy="664.776" r="4" fill="#0" id="circle81"/>
	<circle cx="288.384" cy="699.906" r="4" fill="#0" id="circle82"/>
	<circle cx="290.057" cy="164.594" r="4" fill="#0" id="circle83"/>
	<circle cx="296.749" cy="181.322" r="4" fill="#0" id="circle84"/>
	<circle cx="300.094" cy="656.411" r="4" fill="#0" id="circle85"/>
	<circle cx="301.767" cy="37.457" r="4" fill="#0" id="circle86"/>
	<circle cx="305.113" cy="699.906" r="4" fill="#0" id="circle87"/>
	<circle cx="311.804" cy="189.686" r="4" fill="#0" id="circle88"/>
	<circle cx="313.477" cy="636.337" r="4" fill="#0" id="circle89"/>
	<circle cx="318.496" cy="29.0927" r="4" fill="#0" id="circle90"/>
	<circle cx="320.169" cy="708.27" r="4" fill="#0" id="circle91"/>
	<circle cx="323.514" cy="203.069" r="4" fill="#0" id="circle92"/>
	<circle cx="330.206" cy="586.152" r="4" fill="#0" id="circle93"/>
	<circle cx="330.206" cy="602.88" r="4" fill="#0" id="circle94"/>
	<circle cx="330.206" cy="619.609" r="4" fill="#0" id="circle95"/>
	<circle cx="331.879" cy="218.125" r="4" fill="#0" id="circle96"/>
	<circle cx="335.224" cy="20.7285" r="4" fill="#0" id="circle97"/>
	<circle cx="335.224" cy="699.906" r="4" fill="#0" id="circle98"/>
	<circle cx="338.57" cy="234.853" r="4" fill="#0" id="circle99"/>
	<circle cx="343.589" cy="572.769" r="4" fill="#0" id="circle100"/>
	<circle cx="346.934" cy="249.909" r="4" fill="#0" id="circle101"/>
	<circle cx="346.934" cy="343.589" r="4" fill="#0" id="circle102"/>
	<circle cx="346.934" cy="360.317" r="4" fill="#0" id="circle103"/>
	<circle cx="346.934" cy="527.602" r="4" fill="#0" id="circle104"/>
	<circle cx="346.934" cy="544.331" r="4" fill="#0" id="circle105"/>
	<circle cx="351.953" cy="20.7285" r="4" fill="#0" id="circle106"/>
	<circle cx="351.953" cy="706.597" r="4" fill="#0" id="circle107"/>
	<circle cx="355.298" cy="264.965" r="4" fill="#0" id="circle108"/>
	<circle cx="355.298" cy="285.039" r="4" fill="#0" id="circle109"/>
	<circle cx="355.298" cy="310.132" r="4" fill="#0" id="circle110"/>
	<circle cx="355.298" cy="326.86" r="4" fill="#0" id="circle111"/>
	<circle cx="355.298" cy="375.373" r="4" fill="#0" id="circle112"/>
	<circle cx="355.298" cy="392.101" r="4" fill="#0" id="circle113"/>
	<circle cx="355.298" cy="408.83" r="4" fill="#0" id="circle114"/>
	<circle cx="355.298" cy="494.145" r="4" fill="#0" id="circle115"/>
	<circle cx="355.298" cy="510.874" r="4" fill="#0" id="circle116"/>
	<circle cx="363.663" cy="423.885" r="4" fill="#0" id="circle117"/>
	<circle cx="363.663" cy="469.052" r="4" fill="#0" id="circle118"/>
	<circle cx="368.681" cy="20.7285" r="4" fill="#0" id="circle119"/>
	<circle cx="368.681" cy="699.906" r="4" fill="#0" id="circle120"/>
	<circle cx="372.027" cy="438.941" r="4" fill="#0" id="circle121"/>
	<circle cx="383.737" cy="12.3642" r="4" fill="#0" id="circle122"/>
	<circle cx="385.41" cy="699.906" r="4" fill="#0" id="circle123"/>
	<circle cx="400.465" cy="12.3642" r="4" fill="#0" id="circle124"/>
	<circle cx="402.138" cy="698.233" r="4" fill="#0" id="circle125"/>
	<circle cx="407.157" cy="658.084" r="4" fill="#0" id="circle126"/>
	<circle cx="415.521" cy="673.14" r="4" fill="#0" id="circle127"/>
	<circle cx="417.194" cy="12.3642" r="4" fill="#0" id="circle128"/>
	<circle cx="420.54" cy="646.374" r="4" fill="#0" id="circle129"/>
	<circle cx="423.885" cy="616.263" r="4" fill="#0" id="circle130"/>
	<circle cx="432.25" cy="591.17" r="4" fill="#0" id="circle131"/>
	<circle cx="433.922" cy="5.67285" r="4" fill="#0" id="circle132"/>
	<circle cx="445.632" cy="579.46" r="4" fill="#0" id="circle133"/>
	<circle cx="450.651" cy="4" r="4" fill="#0" id="circle134"/>
	<circle cx="457.342" cy="549.349" r="4" fill="#0" id="circle135"/>
	<circle cx="457.342" cy="566.078" r="4" fill="#0" id="circle136"/>
	<circle cx="465.707" cy="12.3642" r="4" fill="#0" id="circle137"/>
	<circle cx="470.725" cy="537.639" r="4" fill="#0" id="circle138"/>
	<circle cx="474.071" cy="515.892" r="4" fill="#0" id="circle139"/>
	<circle cx="482.435" cy="17.3828" r="4" fill="#0" id="circle140"/>
	<circle cx="487.454" cy="504.182" r="4" fill="#0" id="circle141"/>
	<circle cx="495.818" cy="29.0927" r="4" fill="#0" id="circle142"/>
	<circle cx="499.164" cy="490.799" r="4" fill="#0" id="circle143"/>
	<circle cx="512.546" cy="29.0927" r="4" fill="#0" id="circle144"/>
	<circle cx="515.892" cy="490.799" r="4" fill="#0" id="circle145"/>
	<circle cx="529.275" cy="29.0927" r="4" fill="#0" id="circle146"/>
	<circle cx="532.621" cy="490.799" r="4" fill="#0" id="circle147"/>
	<circle cx="546.003" cy="29.0927" r="4" fill="#0" id="circle148"/>
	<circle cx="549.349" cy="490.799" r="4" fill="#0" id="circle149"/>
	<circle cx="562.732" cy="30.7656" r="4" fill="#0" id="circle150"/>
	<circle cx="564.405" cy="499.164" r="4" fill="#0" id="circle151"/>
	<circle cx="569.423" cy="515.892" r="4" fill="#0" id="circle152"/>
	<circle cx="577.788" cy="530.948" r="4" fill="#0" id="circle153"/>
	<circle cx="579.46" cy="37.457" r="4" fill="#0" id="circle154"/>
	<circle cx="581.133" cy="686.523" r="4" fill="#0" id="circle155"/>
	<circle cx="581.133" cy="703.251" r="4" fill="#0" id="circle156"/>
	<circle cx="581.133" cy="719.98" r="4" fill="#0" id="circle157"/>
	<circle cx="589.497" cy="544.331" r="4" fill="#0" id="circle158"/>
	<circle cx="594.516" cy="731.69" r="4" fill="#0" id="circle159"/>
	<circle cx="596.189" cy="37.457" r="4" fill="#0" id="circle160"/>
	<circle cx="597.862" cy="559.386" r="4" fill="#0" id="circle161"/>
	<circle cx="597.862" cy="576.115" r="4" fill="#0" id="circle162"/>
	<circle cx="597.862" cy="592.843" r="4" fill="#0" id="circle163"/>
	<circle cx="597.862" cy="653.066" r="4" fill="#0" id="circle164"/>
	<circle cx="597.862" cy="669.794" r="4" fill="#0" id="circle165"/>
	<circle cx="597.862" cy="686.523" r="4" fill="#0" id="circle166"/>
	<circle cx="606.226" cy="607.899" r="4" fill="#0" id="circle167"/>
	<circle cx="606.226" cy="636.337" r="4" fill="#0" id="circle168"/>
	<circle cx="611.245" cy="733.363" r="4" fill="#0" id="circle169"/>
	<circle cx="612.917" cy="39.1298" r="4" fill="#0" id="circle170"/>
	<circle cx="624.627" cy="52.5126" r="4" fill="#0" id="circle171"/>
	<circle cx="626.3" cy="724.998" r="4" fill="#0" id="circle172"/>
	<circle cx="641.356" cy="59.204" r="4" fill="#0" id="circle173"/>
	<circle cx="641.356" cy="733.363" r="4" fill="#0" id="circle174"/>
	<circle cx="656.411" cy="67.5683" r="4" fill="#0" id="circle175"/>
	<circle cx="658.084" cy="733.363" r="4" fill="#0" id="circle176"/>
	<circle cx="669.794" cy="79.2782" r="4" fill="#0" id="circle177"/>
	<circle cx="674.813" cy="733.363" r="4" fill="#0" id="circle178"/>
	<circle cx="686.523" cy="79.2782" r="4" fill="#0" id="circle179"/>
	<circle cx="691.541" cy="566.078" r="4" fill="#0" id="circle180"/>
	<circle cx="691.541" cy="582.806" r="4" fill="#0" id="circle181"/>
	<circle cx="691.541" cy="724.998" r="4" fill="#0" id="circle182"/>
	<circle cx="699.906" cy="524.256" r="4" fill="#0" id="circle183"/>
	<circle cx="699.906" cy="540.985" r="4" fill="#0" id="circle184"/>
	<circle cx="699.906" cy="597.862" r="4" fill="#0" id="circle185"/>
	<circle cx="699.906" cy="614.59" r="4" fill="#0" id="circle186"/>
	<circle cx="699.906" cy="631.319" r="4" fill="#0" id="circle187"/>
	<circle cx="703.251" cy="79.2782" r="4" fill="#0" id="circle188"/>
	<circle cx="706.597" cy="716.634" r="4" fill="#0" id="circle189"/>
	<circle cx="708.27" cy="507.528" r="4" fill="#0" id="circle190"/>
	<circle cx="708.27" cy="646.374" r="4" fill="#0" id="circle191"/>
	<circle cx="716.634" cy="661.43" r="4" fill="#0" id="circle192"/>
	<circle cx="716.634" cy="678.159" r="4" fill="#0" id="circle193"/>
	<circle cx="716.634" cy="694.887" r="4" fill="#0" id="circle194"/>
	<circle cx="719.98" cy="79.2782" r="4" fill="#0" id="circle195"/>
	<circle cx="724.998" cy="507.528" r="4" fill="#0" id="circle196"/>
	<circle cx="736.708" cy="79.2782" r="4" fill="#0" id="circle197"/>
	<circle cx="741.727" cy="507.528" r="4" fill="#0" id="circle198"/>
	<circle cx="751.764" cy="87.6425" r="4" fill="#0" id="circle199"/>
	<circle cx="756.782" cy="515.892" r="4" fill="#0" id="circle200"/>
	<circle cx="766.82" cy="96.0067" r="4" fill="#0" id="circle201"/>
	<circle cx="766.82" cy="529.275" r="4" fill="#0" id="circle202"/>
	<circle cx="773.511" cy="546.003" r="4" fill="#0" id="circle203"/>
	<circle cx="773.511" cy="562.732" r="4" fill="#0" id="circle204"/>
	<circle cx="781.875" cy="577.788" r="4" fill="#0" id="circle205"/>
	<circle cx="781.875" cy="594.516" r="4" fill="#0" id="circle206"/>
	<circle cx="781.875" cy="686.523" r="4" fill="#0" id="circle207"/>
	<circle cx="781.875" cy="703.251" r="4" fill="#0" id="circle208"/>
	<circle cx="783.548" cy="101.025" r="4" fill="#0" id="circle209"/>
	<circle cx="790.239" cy="609.572" r="4" fill="#0" id="circle210"/>
	<circle cx="790.239" cy="626.3" r="4" fill="#0" id="circle211"/>
	<circle cx="790.239" cy="643.029" r="4" fill="#0" id="circle212"/>
	<circle cx="795.258" cy="673.14" r="4" fill="#0" id="circle213"/>
	<circle cx="796.931" cy="112.735" r="4" fill="#0" id="circle214"/>
	<circle cx="798.604" cy="708.27" r="4" fill="#0" id="circle215"/>
	<circle cx="811.987" cy="121.099" r="4" fill="#0" id="circle216"/>
	<circle cx="813.659" cy="716.634" r="4" fill="#0" id="circle217"/>
	<circle cx="828.715" cy="121.099" r="4" fill="#0" id="circle218"/>
	<circle cx="828.715" cy="724.998" r="4" fill="#0" id="circle219"/>
	<circle cx="840.425" cy="134.482" r="4" fill="#0" id="circle220"/>
	<circle cx="843.771" cy="716.634" r="4" fill="#0" id="circle221"/>
	<circle cx="857.153" cy="141.174" r="4" fill="#0" id="circle222"/>
	<circle cx="858.826" cy="708.27" r="4" fill="#0" id="circle223"/>
	<circle cx="867.191" cy="154.556" r="4" fill="#0" id="circle224"/>
	<circle cx="873.882" cy="699.906" r="4" fill="#0" id="circle225"/>
	<circle cx="880.573" cy="164.594" r="4" fill="#0" id="circle226"/>
	<circle cx="883.919" cy="599.535" r="4" fill="#0" id="circle227"/>
	<circle cx="883.919" cy="616.263" r="4" fill="#0" id="circle228"/>
	<circle cx="883.919" cy="632.992" r="4" fill="#0" id="circle229"/>
	<circle cx="883.919" cy="649.72" r="4" fill="#0" id="circle230"/>
	<circle cx="883.919" cy="666.449" r="4" fill="#0" id="circle231"/>
	<circle cx="887.265" cy="683.177" r="4" fill="#0" id="circle232"/>
	<circle cx="892.283" cy="177.976" r="4" fill="#0" id="circle233"/>
	<circle cx="898.975" cy="607.899" r="4" fill="#0" id="circle234"/>
	<circle cx="900.648" cy="193.032" r="4" fill="#0" id="circle235"/>
	<circle cx="900.648" cy="651.393" r="4" fill="#0" id="circle236"/>
	<circle cx="903.993" cy="624.627" r="4" fill="#0" id="circle237"/>
	<circle cx="907.339" cy="668.121" r="4" fill="#0" id="circle238"/>
	<circle cx="912.358" cy="206.415" r="4" fill="#0" id="circle239"/>
	<circle cx="920.722" cy="221.47" r="4" fill="#0" id="circle240"/>
	<circle cx="924.067" cy="674.813" r="4" fill="#0" id="circle241"/>
	<circle cx="932.432" cy="234.853" r="4" fill="#0" id="circle242"/>
	<circle cx="934.105" cy="407.157" r="4" fill="#0" id="circle243"/>
	<circle cx="934.105" cy="423.885" r="4" fill="#0" id="circle244"/>
	<circle cx="934.105" cy="440.614" r="4" fill="#0" id="circle245"/>
	<circle cx="937.45" cy="457.342" r="4" fill="#0" id="circle246"/>
	<circle cx="940.796" cy="249.909" r="4" fill="#0" id="circle247"/>
	<circle cx="940.796" cy="669.794" r="4" fill="#0" id="circle248"/>
	<circle cx="942.469" cy="390.428" r="4" fill="#0" id="circle249"/>
	<circle cx="942.469" cy="474.071" r="4" fill="#0" id="circle250"/>
	<circle cx="942.469" cy="490.799" r="4" fill="#0" id="circle251"/>
	<circle cx="942.469" cy="507.528" r="4" fill="#0" id="circle252"/>
	<circle cx="942.469" cy="524.256" r="4" fill="#0" id="circle253"/>
	<circle cx="945.815" cy="540.985" r="4" fill="#0" id="circle254"/>
	<circle cx="950.833" cy="263.292" r="4" fill="#0" id="circle255"/>
	<circle cx="950.833" cy="365.336" r="4" fill="#0" id="circle256"/>
	<circle cx="950.833" cy="557.713" r="4" fill="#0" id="circle257"/>
	<circle cx="957.524" cy="661.43" r="4" fill="#0" id="circle258"/>
	<circle cx="959.197" cy="278.347" r="4" fill="#0" id="circle259"/>
	<circle cx="959.197" cy="295.076" r="4" fill="#0" id="circle260"/>
	<circle cx="959.197" cy="572.769" r="4" fill="#0" id="circle261"/>
	<circle cx="965.889" cy="373.7" r="4" fill="#0" id="circle262"/>
	<circle cx="965.889" cy="390.428" r="4" fill="#0" id="circle263"/>
	<circle cx="965.889" cy="407.157" r="4" fill="#0" id="circle264"/>
	<circle cx="965.889" cy="423.885" r="4" fill="#0" id="circle265"/>
	<circle cx="967.562" cy="310.132" r="4" fill="#0" id="circle266"/>
	<circle cx="967.562" cy="326.86" r="4" fill="#0" id="circle267"/>
	<circle cx="967.562" cy="587.825" r="4" fill="#0" id="circle268"/>
	<circle cx="967.562" cy="604.553" r="4" fill="#0" id="circle269"/>
	<circle cx="970.907" cy="440.614" r="4" fill="#0" id="circle270"/>
	<circle cx="974.253" cy="653.066" r="4" fill="#0" id="circle271"/>
	<circle cx="975.926" cy="341.916" r="4" fill="#0" id="circle272"/>
	<circle cx="975.926" cy="358.644" r="4" fill="#0" id="circle273"/>
	<circle cx="975.926" cy="619.609" r="4" fill="#0" id="circle274"/>
	<circle cx="975.926" cy="636.337" r="4" fill="#0" id="circle275"/>
	<circle cx="979.272" cy="455.669" r="4" fill="#0" id="circle276"/>
	<circle cx="984.29" cy="373.7" r="4" fill="#0" id="circle277"/>
	<circle cx="984.29" cy="390.428" r="4" fill="#0" id="circle278"/>
	<circle cx="984.29" cy="407.157" r="4" fill="#0" id="circle279"/>
	<circle cx="984.29" cy="423.885" r="4" fill="#0" id="circle280"/>
	<circle cx="987.636" cy="440.614" r="4" fill="#0" id="circle281"/>
	<circle cx="996" cy="455.669" r="4" fill="#0" id="circle282"/>
	</g>
</svg>