<?xml version="1.0" encoding="UTF-8" standalone="no"?>
<!-- Created with CurveBenchmark -->
<svg
	xmlns:dc="http://purl.org/dc/elements/1.1/"
	xmlns:cc="http://creativecommons.org/ns#"
	xmlns:rdf="http://www.w3.org/1999/02/22-rdf-syntax-ns#"
	xmlns:svg="http://www.w3.org/2000/svg"
	xmlns="http://www.w3.org/2000/svg"
	xmlns:sodipodi="http://sodipodi.sourceforge.net/DTD/sodipodi-0.dtd"
	xmlns:inkscape="http://www.inkscape.org/namespaces/inkscape"
	width="1000"
	height="1000"
	id="svg2"
	version="1.1"
	sodipodi:docname="manifold/fitconnect-bed200.png.txt">
<defs
	id="defs4" />
<metadata
	id="metadata7">
	<rdf:RDF>
		<cc:Work
			rdf:about="">
			<dc:format>image/svg+xml</dc:format>
			<dc:type
				rdf:resource="http://purl.org/dc/dcmitype/StillImage" />
			<dc:title></dc:title>
		</cc:Work>
	</rdf:RDF>
</metadata>
<g
	inkscape:label="Layer 1"
	inkscape:groupmode="layer"
	id="layer1">
	<path style="fill:none;stroke:red;stroke-width:1px;stroke-linecap:butt;stroke-linejoin:miter;stroke-opacity:1" d="M 4,375.275 4,394.612 z" id="boundary" inkscape:connector-curvature="0" />
	<path style="fill:none;stroke:red;stroke-width:1px;stroke-linecap:butt;stroke-linejoin:miter;stroke-opacity:1" d="M 4,375.275 19.4698,359.805 z" id="boundary" inkscape:connector-curvature="0" />
	<path style="fill:none;stroke:red;stroke-width:1px;stroke-linecap:butt;stroke-linejoin:miter;stroke-opacity:1" d="M 4,394.612 17.5361,410.082 z" id="boundary" inkscape:connector-curvature="0" />
	<path style="fill:none;stroke:red;stroke-width:1px;stroke-linecap:butt;stroke-linejoin:miter;stroke-opacity:1" d="M 17.5361,410.082 27.2047,427.485 z" id="boundary" inkscape:connector-curvature="0" />
	<path style="fill:none;stroke:red;stroke-width:1px;stroke-linecap:butt;stroke-linejoin:miter;stroke-opacity:1" d="M 19.4698,359.805 36.8733,350.136 z" id="boundary" inkscape:connector-curvature="0" />
	<path style="fill:none;stroke:red;stroke-width:1px;stroke-linecap:butt;stroke-linejoin:miter;stroke-opacity:1" d="M 27.2047,427.485 27.2047,466.16 z" id="boundary" inkscape:connector-curvature="0" />
	<path style="fill:none;stroke:red;stroke-width:1px;stroke-linecap:butt;stroke-linejoin:miter;stroke-opacity:1" d="M 27.2047,466.16 27.2047,504.834 z" id="boundary" inkscape:connector-curvature="0" />
	<path style="fill:none;stroke:red;stroke-width:1px;stroke-linecap:butt;stroke-linejoin:miter;stroke-opacity:1" d="M 27.2047,504.834 94.885,528.039 z" id="boundary" inkscape:connector-curvature="0" />
	<path style="fill:none;stroke:red;stroke-width:1px;stroke-linecap:butt;stroke-linejoin:miter;stroke-opacity:1" d="M 36.8733,350.136 56.2105,342.402 z" id="boundary" inkscape:connector-curvature="0" />
	<path style="fill:none;stroke:red;stroke-width:1px;stroke-linecap:butt;stroke-linejoin:miter;stroke-opacity:1" d="M 56.2105,342.402 75.5478,336.6 z" id="boundary" inkscape:connector-curvature="0" />
	<path style="fill:none;stroke:red;stroke-width:1px;stroke-linecap:butt;stroke-linejoin:miter;stroke-opacity:1" d="M 75.5478,336.6 94.885,332.733 z" id="boundary" inkscape:connector-curvature="0" />
	<path style="fill:none;stroke:red;stroke-width:1px;stroke-linecap:butt;stroke-linejoin:miter;stroke-opacity:1" d="M 94.885,332.733 114.222,328.865 z" id="boundary" inkscape:connector-curvature="0" />
	<path style="fill:none;stroke:red;stroke-width:1px;stroke-linecap:butt;stroke-linejoin:miter;stroke-opacity:1" d="M 94.885,528.039 168.366,529.973 z" id="boundary" inkscape:connector-curvature="0" />
	<path style="fill:none;stroke:red;stroke-width:1px;stroke-linecap:butt;stroke-linejoin:miter;stroke-opacity:1" d="M 114.222,328.865 133.559,321.131 z" id="boundary" inkscape:connector-curvature="0" />
	<path style="fill:none;stroke:red;stroke-width:1px;stroke-linecap:butt;stroke-linejoin:miter;stroke-opacity:1" d="M 133.559,321.131 152.897,321.131 z" id="boundary" inkscape:connector-curvature="0" />
	<path style="fill:none;stroke:red;stroke-width:1px;stroke-linecap:butt;stroke-linejoin:miter;stroke-opacity:1" d="M 152.897,321.131 172.234,317.263 z" id="boundary" inkscape:connector-curvature="0" />
	<path style="fill:none;stroke:red;stroke-width:1px;stroke-linecap:butt;stroke-linejoin:miter;stroke-opacity:1" d="M 168.366,529.973 245.715,531.906 z" id="boundary" inkscape:connector-curvature="0" />
	<path style="fill:none;stroke:red;stroke-width:1px;stroke-linecap:butt;stroke-linejoin:miter;stroke-opacity:1" d="M 172.234,317.263 191.571,317.263 z" id="boundary" inkscape:connector-curvature="0" />
	<path style="fill:none;stroke:red;stroke-width:1px;stroke-linecap:butt;stroke-linejoin:miter;stroke-opacity:1" d="M 191.571,317.263 210.908,313.396 z" id="boundary" inkscape:connector-curvature="0" />
	<path style="fill:none;stroke:red;stroke-width:1px;stroke-linecap:butt;stroke-linejoin:miter;stroke-opacity:1" d="M 210.908,313.396 230.246,313.396 z" id="boundary" inkscape:connector-curvature="0" />
	<path style="fill:none;stroke:red;stroke-width:1px;stroke-linecap:butt;stroke-linejoin:miter;stroke-opacity:1" d="M 230.246,313.396 249.583,313.396 z" id="boundary" inkscape:connector-curvature="0" />
	<path style="fill:none;stroke:red;stroke-width:1px;stroke-linecap:butt;stroke-linejoin:miter;stroke-opacity:1" d="M 245.715,531.906 280.522,547.376 z" id="boundary" inkscape:connector-curvature="0" />
	<path style="fill:none;stroke:red;stroke-width:1px;stroke-linecap:butt;stroke-linejoin:miter;stroke-opacity:1" d="M 249.583,313.396 268.92,303.727 z" id="boundary" inkscape:connector-curvature="0" />
	<path style="fill:none;stroke:red;stroke-width:1px;stroke-linecap:butt;stroke-linejoin:miter;stroke-opacity:1" d="M 268.92,303.727 286.324,294.058 z" id="boundary" inkscape:connector-curvature="0" />
	<path style="fill:none;stroke:red;stroke-width:1px;stroke-linecap:butt;stroke-linejoin:miter;stroke-opacity:1" d="M 280.522,547.376 319.197,558.979 z" id="boundary" inkscape:connector-curvature="0" />
	<path style="fill:none;stroke:red;stroke-width:1px;stroke-linecap:butt;stroke-linejoin:miter;stroke-opacity:1" d="M 286.324,294.058 305.661,290.191 z" id="boundary" inkscape:connector-curvature="0" />
	<path style="fill:none;stroke:red;stroke-width:1px;stroke-linecap:butt;stroke-linejoin:miter;stroke-opacity:1" d="M 305.661,290.191 323.064,280.522 z" id="boundary" inkscape:connector-curvature="0" />
	<path style="fill:none;stroke:red;stroke-width:1px;stroke-linecap:butt;stroke-linejoin:miter;stroke-opacity:1" d="M 319.197,558.979 338.534,562.846 z" id="boundary" inkscape:connector-curvature="0" />
	<path style="fill:none;stroke:red;stroke-width:1px;stroke-linecap:butt;stroke-linejoin:miter;stroke-opacity:1" d="M 323.064,280.522 340.468,270.854 z" id="boundary" inkscape:connector-curvature="0" />
	<path style="fill:none;stroke:red;stroke-width:1px;stroke-linecap:butt;stroke-linejoin:miter;stroke-opacity:1" d="M 338.534,562.846 357.871,566.713 z" id="boundary" inkscape:connector-curvature="0" />
	<path style="fill:none;stroke:red;stroke-width:1px;stroke-linecap:butt;stroke-linejoin:miter;stroke-opacity:1" d="M 340.468,270.854 359.805,263.119 z" id="boundary" inkscape:connector-curvature="0" />
	<path style="fill:none;stroke:red;stroke-width:1px;stroke-linecap:butt;stroke-linejoin:miter;stroke-opacity:1" d="M 357.871,566.713 384.943,564.78 z" id="boundary" inkscape:connector-curvature="0" />
	<path style="fill:none;stroke:red;stroke-width:1px;stroke-linecap:butt;stroke-linejoin:miter;stroke-opacity:1" d="M 359.805,263.119 379.142,268.92 z" id="boundary" inkscape:connector-curvature="0" />
	<path style="fill:none;stroke:red;stroke-width:1px;stroke-linecap:butt;stroke-linejoin:miter;stroke-opacity:1" d="M 367.54,143.228 367.54,162.565 z" id="boundary" inkscape:connector-curvature="0" />
	<path style="fill:none;stroke:red;stroke-width:1px;stroke-linecap:butt;stroke-linejoin:miter;stroke-opacity:1" d="M 367.54,143.228 383.01,127.758 z" id="boundary" inkscape:connector-curvature="0" />
	<path style="fill:none;stroke:red;stroke-width:1px;stroke-linecap:butt;stroke-linejoin:miter;stroke-opacity:1" d="M 367.54,162.565 377.209,179.969 z" id="boundary" inkscape:connector-curvature="0" />
	<path style="fill:none;stroke:red;stroke-width:1px;stroke-linecap:butt;stroke-linejoin:miter;stroke-opacity:1" d="M 377.209,179.969 383.01,199.306 z" id="boundary" inkscape:connector-curvature="0" />
	<path style="fill:none;stroke:red;stroke-width:1px;stroke-linecap:butt;stroke-linejoin:miter;stroke-opacity:1" d="M 379.142,268.92 386.877,237.981 z" id="boundary" inkscape:connector-curvature="0" />
	<path style="fill:none;stroke:red;stroke-width:1px;stroke-linecap:butt;stroke-linejoin:miter;stroke-opacity:1" d="M 383.01,127.758 402.347,120.023 z" id="boundary" inkscape:connector-curvature="0" />
	<path style="fill:none;stroke:red;stroke-width:1px;stroke-linecap:butt;stroke-linejoin:miter;stroke-opacity:1" d="M 383.01,199.306 383.01,218.643 z" id="boundary" inkscape:connector-curvature="0" />
	<path style="fill:none;stroke:red;stroke-width:1px;stroke-linecap:butt;stroke-linejoin:miter;stroke-opacity:1" d="M 383.01,218.643 386.877,237.981 z" id="boundary" inkscape:connector-curvature="0" />
	<path style="fill:none;stroke:red;stroke-width:1px;stroke-linecap:butt;stroke-linejoin:miter;stroke-opacity:1" d="M 384.943,564.78 404.281,558.979 z" id="boundary" inkscape:connector-curvature="0" />
	<path style="fill:none;stroke:red;stroke-width:1px;stroke-linecap:butt;stroke-linejoin:miter;stroke-opacity:1" d="M 402.347,120.023 421.684,112.288 z" id="boundary" inkscape:connector-curvature="0" />
	<path style="fill:none;stroke:red;stroke-width:1px;stroke-linecap:butt;stroke-linejoin:miter;stroke-opacity:1" d="M 404.281,558.979 423.618,555.111 z" id="boundary" inkscape:connector-curvature="0" />
	<path style="fill:none;stroke:red;stroke-width:1px;stroke-linecap:butt;stroke-linejoin:miter;stroke-opacity:1" d="M 421.684,112.288 441.021,104.554 z" id="boundary" inkscape:connector-curvature="0" />
	<path style="fill:none;stroke:red;stroke-width:1px;stroke-linecap:butt;stroke-linejoin:miter;stroke-opacity:1" d="M 423.618,555.111 442.955,549.31 z" id="boundary" inkscape:connector-curvature="0" />
	<path style="fill:none;stroke:red;stroke-width:1px;stroke-linecap:butt;stroke-linejoin:miter;stroke-opacity:1" d="M 441.021,104.554 460.359,96.8187 z" id="boundary" inkscape:connector-curvature="0" />
	<path style="fill:none;stroke:red;stroke-width:1px;stroke-linecap:butt;stroke-linejoin:miter;stroke-opacity:1" d="M 442.955,549.31 462.292,541.575 z" id="boundary" inkscape:connector-curvature="0" />
	<path style="fill:none;stroke:red;stroke-width:1px;stroke-linecap:butt;stroke-linejoin:miter;stroke-opacity:1" d="M 460.359,96.8187 479.696,92.9513 z" id="boundary" inkscape:connector-curvature="0" />
	<path style="fill:none;stroke:red;stroke-width:1px;stroke-linecap:butt;stroke-linejoin:miter;stroke-opacity:1" d="M 462.292,541.575 479.696,531.906 z" id="boundary" inkscape:connector-curvature="0" />
	<path style="fill:none;stroke:red;stroke-width:1px;stroke-linecap:butt;stroke-linejoin:miter;stroke-opacity:1" d="M 479.696,92.9513 499.033,89.0838 z" id="boundary" inkscape:connector-curvature="0" />
	<path style="fill:none;stroke:red;stroke-width:1px;stroke-linecap:butt;stroke-linejoin:miter;stroke-opacity:1" d="M 479.696,531.906 499.033,528.039 z" id="boundary" inkscape:connector-curvature="0" />
	<path style="fill:none;stroke:red;stroke-width:1px;stroke-linecap:butt;stroke-linejoin:miter;stroke-opacity:1" d="M 499.033,89.0838 518.37,85.2164 z" id="boundary" inkscape:connector-curvature="0" />
	<path style="fill:none;stroke:red;stroke-width:1px;stroke-linecap:butt;stroke-linejoin:miter;stroke-opacity:1" d="M 499.033,528.039 518.37,524.172 z" id="boundary" inkscape:connector-curvature="0" />
	<path style="fill:none;stroke:red;stroke-width:1px;stroke-linecap:butt;stroke-linejoin:miter;stroke-opacity:1" d="M 518.37,85.2164 537.708,81.3489 z" id="boundary" inkscape:connector-curvature="0" />
	<path style="fill:none;stroke:red;stroke-width:1px;stroke-linecap:butt;stroke-linejoin:miter;stroke-opacity:1" d="M 518.37,524.172 537.708,526.105 z" id="boundary" inkscape:connector-curvature="0" />
	<path style="fill:none;stroke:red;stroke-width:1px;stroke-linecap:butt;stroke-linejoin:miter;stroke-opacity:1" d="M 537.708,81.3489 557.045,77.4815 z" id="boundary" inkscape:connector-curvature="0" />
	<path style="fill:none;stroke:red;stroke-width:1px;stroke-linecap:butt;stroke-linejoin:miter;stroke-opacity:1" d="M 537.708,526.105 557.045,533.84 z" id="boundary" inkscape:connector-curvature="0" />
	<path style="fill:none;stroke:red;stroke-width:1px;stroke-linecap:butt;stroke-linejoin:miter;stroke-opacity:1" d="M 557.045,77.4815 576.382,77.4815 z" id="boundary" inkscape:connector-curvature="0" />
	<path style="fill:none;stroke:red;stroke-width:1px;stroke-linecap:butt;stroke-linejoin:miter;stroke-opacity:1" d="M 557.045,533.84 572.515,545.442 z" id="boundary" inkscape:connector-curvature="0" />
	<path style="fill:none;stroke:red;stroke-width:1px;stroke-linecap:butt;stroke-linejoin:miter;stroke-opacity:1" d="M 572.515,545.442 591.852,539.641 z" id="boundary" inkscape:connector-curvature="0" />
	<path style="fill:none;stroke:red;stroke-width:1px;stroke-linecap:butt;stroke-linejoin:miter;stroke-opacity:1" d="M 576.382,77.4815 584.117,58.1442 z" id="boundary" inkscape:connector-curvature="0" />
	<path style="fill:none;stroke:red;stroke-width:1px;stroke-linecap:butt;stroke-linejoin:miter;stroke-opacity:1" d="M 584.117,58.1442 603.454,50.4094 z" id="boundary" inkscape:connector-curvature="0" />
	<path style="fill:none;stroke:red;stroke-width:1px;stroke-linecap:butt;stroke-linejoin:miter;stroke-opacity:1" d="M 591.852,539.641 611.189,531.906 z" id="boundary" inkscape:connector-curvature="0" />
	<path style="fill:none;stroke:red;stroke-width:1px;stroke-linecap:butt;stroke-linejoin:miter;stroke-opacity:1" d="M 603.454,50.4094 622.791,46.5419 z" id="boundary" inkscape:connector-curvature="0" />
	<path style="fill:none;stroke:red;stroke-width:1px;stroke-linecap:butt;stroke-linejoin:miter;stroke-opacity:1" d="M 611.189,531.906 630.526,528.039 z" id="boundary" inkscape:connector-curvature="0" />
	<path style="fill:none;stroke:red;stroke-width:1px;stroke-linecap:butt;stroke-linejoin:miter;stroke-opacity:1" d="M 622.791,46.5419 642.129,31.0721 z" id="boundary" inkscape:connector-curvature="0" />
	<path style="fill:none;stroke:red;stroke-width:1px;stroke-linecap:butt;stroke-linejoin:miter;stroke-opacity:1" d="M 630.526,528.039 649.864,528.039 z" id="boundary" inkscape:connector-curvature="0" />
	<path style="fill:none;stroke:red;stroke-width:1px;stroke-linecap:butt;stroke-linejoin:miter;stroke-opacity:1" d="M 642.129,31.0721 657.598,19.4698 z" id="boundary" inkscape:connector-curvature="0" />
	<path style="fill:none;stroke:red;stroke-width:1px;stroke-linecap:butt;stroke-linejoin:miter;stroke-opacity:1" d="M 649.864,528.039 669.201,528.039 z" id="boundary" inkscape:connector-curvature="0" />
	<path style="fill:none;stroke:red;stroke-width:1px;stroke-linecap:butt;stroke-linejoin:miter;stroke-opacity:1" d="M 657.598,19.4698 669.201,4 z" id="boundary" inkscape:connector-curvature="0" />
	<path style="fill:none;stroke:red;stroke-width:1px;stroke-linecap:butt;stroke-linejoin:miter;stroke-opacity:1" d="M 669.201,4 688.538,4 z" id="boundary" inkscape:connector-curvature="0" />
	<path style="fill:none;stroke:red;stroke-width:1px;stroke-linecap:butt;stroke-linejoin:miter;stroke-opacity:1" d="M 669.201,528.039 684.671,539.641 z" id="boundary" inkscape:connector-curvature="0" />
	<path style="fill:none;stroke:red;stroke-width:1px;stroke-linecap:butt;stroke-linejoin:miter;stroke-opacity:1" d="M 684.671,539.641 684.671,558.979 z" id="boundary" inkscape:connector-curvature="0" />
	<path style="fill:none;stroke:red;stroke-width:1px;stroke-linecap:butt;stroke-linejoin:miter;stroke-opacity:1" d="M 684.671,558.979 692.405,578.316 z" id="boundary" inkscape:connector-curvature="0" />
	<path style="fill:none;stroke:red;stroke-width:1px;stroke-linecap:butt;stroke-linejoin:miter;stroke-opacity:1" d="M 688.538,4 700.14,19.4698 z" id="boundary" inkscape:connector-curvature="0" />
	<path style="fill:none;stroke:red;stroke-width:1px;stroke-linecap:butt;stroke-linejoin:miter;stroke-opacity:1" d="M 692.405,578.316 709.809,560.912 z" id="boundary" inkscape:connector-curvature="0" />
	<path style="fill:none;stroke:red;stroke-width:1px;stroke-linecap:butt;stroke-linejoin:miter;stroke-opacity:1" d="M 700.14,19.4698 707.875,38.807 z" id="boundary" inkscape:connector-curvature="0" />
	<path style="fill:none;stroke:red;stroke-width:1px;stroke-linecap:butt;stroke-linejoin:miter;stroke-opacity:1" d="M 705.942,522.238 709.809,541.575 z" id="boundary" inkscape:connector-curvature="0" />
	<path style="fill:none;stroke:red;stroke-width:1px;stroke-linecap:butt;stroke-linejoin:miter;stroke-opacity:1" d="M 705.942,522.238 725.279,520.304 z" id="boundary" inkscape:connector-curvature="0" />
	<path style="fill:none;stroke:red;stroke-width:1px;stroke-linecap:butt;stroke-linejoin:miter;stroke-opacity:1" d="M 707.875,38.807 727.212,42.6745 z" id="boundary" inkscape:connector-curvature="0" />
	<path style="fill:none;stroke:red;stroke-width:1px;stroke-linecap:butt;stroke-linejoin:miter;stroke-opacity:1" d="M 709.809,541.575 709.809,560.912 z" id="boundary" inkscape:connector-curvature="0" />
	<path style="fill:none;stroke:red;stroke-width:1px;stroke-linecap:butt;stroke-linejoin:miter;stroke-opacity:1" d="M 725.279,520.304 744.616,520.304 z" id="boundary" inkscape:connector-curvature="0" />
	<path style="fill:none;stroke:red;stroke-width:1px;stroke-linecap:butt;stroke-linejoin:miter;stroke-opacity:1" d="M 727.212,42.6745 746.55,50.4094 z" id="boundary" inkscape:connector-curvature="0" />
	<path style="fill:none;stroke:red;stroke-width:1px;stroke-linecap:butt;stroke-linejoin:miter;stroke-opacity:1" d="M 744.616,520.304 763.953,520.304 z" id="boundary" inkscape:connector-curvature="0" />
	<path style="fill:none;stroke:red;stroke-width:1px;stroke-linecap:butt;stroke-linejoin:miter;stroke-opacity:1" d="M 746.55,50.4094 765.887,58.1442 z" id="boundary" inkscape:connector-curvature="0" />
	<path style="fill:none;stroke:red;stroke-width:1px;stroke-linecap:butt;stroke-linejoin:miter;stroke-opacity:1" d="M 763.953,520.304 783.29,520.304 z" id="boundary" inkscape:connector-curvature="0" />
	<path style="fill:none;stroke:red;stroke-width:1px;stroke-linecap:butt;stroke-linejoin:miter;stroke-opacity:1" d="M 765.887,58.1442 777.489,73.614 z" id="boundary" inkscape:connector-curvature="0" />
	<path style="fill:none;stroke:red;stroke-width:1px;stroke-linecap:butt;stroke-linejoin:miter;stroke-opacity:1" d="M 777.489,73.614 796.827,77.4815 z" id="boundary" inkscape:connector-curvature="0" />
	<path style="fill:none;stroke:red;stroke-width:1px;stroke-linecap:butt;stroke-linejoin:miter;stroke-opacity:1" d="M 783.29,520.304 802.628,520.304 z" id="boundary" inkscape:connector-curvature="0" />
	<path style="fill:none;stroke:red;stroke-width:1px;stroke-linecap:butt;stroke-linejoin:miter;stroke-opacity:1" d="M 796.827,77.4815 816.164,81.3489 z" id="boundary" inkscape:connector-curvature="0" />
	<path style="fill:none;stroke:red;stroke-width:1px;stroke-linecap:butt;stroke-linejoin:miter;stroke-opacity:1" d="M 802.628,520.304 821.965,520.304 z" id="boundary" inkscape:connector-curvature="0" />
	<path style="fill:none;stroke:red;stroke-width:1px;stroke-linecap:butt;stroke-linejoin:miter;stroke-opacity:1" d="M 816.164,81.3489 835.501,83.2827 z" id="boundary" inkscape:connector-curvature="0" />
	<path style="fill:none;stroke:red;stroke-width:1px;stroke-linecap:butt;stroke-linejoin:miter;stroke-opacity:1" d="M 821.965,520.304 841.302,520.304 z" id="boundary" inkscape:connector-curvature="0" />
	<path style="fill:none;stroke:red;stroke-width:1px;stroke-linecap:butt;stroke-linejoin:miter;stroke-opacity:1" d="M 835.501,83.2827 854.838,85.2164 z" id="boundary" inkscape:connector-curvature="0" />
	<path style="fill:none;stroke:red;stroke-width:1px;stroke-linecap:butt;stroke-linejoin:miter;stroke-opacity:1" d="M 841.302,520.304 860.639,520.304 z" id="boundary" inkscape:connector-curvature="0" />
	<path style="fill:none;stroke:red;stroke-width:1px;stroke-linecap:butt;stroke-linejoin:miter;stroke-opacity:1" d="M 854.838,85.2164 874.175,91.0175 z" id="boundary" inkscape:connector-curvature="0" />
	<path style="fill:none;stroke:red;stroke-width:1px;stroke-linecap:butt;stroke-linejoin:miter;stroke-opacity:1" d="M 860.639,520.304 879.977,520.304 z" id="boundary" inkscape:connector-curvature="0" />
	<path style="fill:none;stroke:red;stroke-width:1px;stroke-linecap:butt;stroke-linejoin:miter;stroke-opacity:1" d="M 874.175,91.0175 893.513,96.8187 z" id="boundary" inkscape:connector-curvature="0" />
	<path style="fill:none;stroke:red;stroke-width:1px;stroke-linecap:butt;stroke-linejoin:miter;stroke-opacity:1" d="M 879.977,520.304 899.314,520.304 z" id="boundary" inkscape:connector-curvature="0" />
	<path style="fill:none;stroke:red;stroke-width:1px;stroke-linecap:butt;stroke-linejoin:miter;stroke-opacity:1" d="M 893.513,96.8187 912.85,100.686 z" id="boundary" inkscape:connector-curvature="0" />
	<path style="fill:none;stroke:red;stroke-width:1px;stroke-linecap:butt;stroke-linejoin:miter;stroke-opacity:1" d="M 899.314,520.304 918.651,520.304 z" id="boundary" inkscape:connector-curvature="0" />
	<path style="fill:none;stroke:red;stroke-width:1px;stroke-linecap:butt;stroke-linejoin:miter;stroke-opacity:1" d="M 912.85,100.686 932.187,106.487 z" id="boundary" inkscape:connector-curvature="0" />
	<path style="fill:none;stroke:red;stroke-width:1px;stroke-linecap:butt;stroke-linejoin:miter;stroke-opacity:1" d="M 918.651,520.304 937.988,520.304 z" id="boundary" inkscape:connector-curvature="0" />
	<path style="fill:none;stroke:red;stroke-width:1px;stroke-linecap:butt;stroke-linejoin:miter;stroke-opacity:1" d="M 932.187,106.487 949.591,116.156 z" id="boundary" inkscape:connector-curvature="0" />
	<path style="fill:none;stroke:red;stroke-width:1px;stroke-linecap:butt;stroke-linejoin:miter;stroke-opacity:1" d="M 937.988,520.304 957.326,520.304 z" id="boundary" inkscape:connector-curvature="0" />
	<path style="fill:none;stroke:red;stroke-width:1px;stroke-linecap:butt;stroke-linejoin:miter;stroke-opacity:1" d="M 949.591,116.156 968.928,123.891 z" id="boundary" inkscape:connector-curvature="0" />
	<path style="fill:none;stroke:red;stroke-width:1px;stroke-linecap:butt;stroke-linejoin:miter;stroke-opacity:1" d="M 957.326,520.304 970.862,535.774 z" id="boundary" inkscape:connector-curvature="0" />
	<path style="fill:none;stroke:red;stroke-width:1px;stroke-linecap:butt;stroke-linejoin:miter;stroke-opacity:1" d="M 968.928,123.891 986.331,133.559 z" id="boundary" inkscape:connector-curvature="0" />
	<path style="fill:none;stroke:red;stroke-width:1px;stroke-linecap:butt;stroke-linejoin:miter;stroke-opacity:1" d="M 970.862,535.774 970.862,555.111 z" id="boundary" inkscape:connector-curvature="0" />
	<path style="fill:none;stroke:red;stroke-width:1px;stroke-linecap:butt;stroke-linejoin:miter;stroke-opacity:1" d="M 970.862,555.111 974.729,574.448 z" id="boundary" inkscape:connector-curvature="0" />
	<path style="fill:none;stroke:red;stroke-width:1px;stroke-linecap:butt;stroke-linejoin:miter;stroke-opacity:1" d="M 974.729,574.448 992.133,557.045 z" id="boundary" inkscape:connector-curvature="0" />
	<path style="fill:none;stroke:red;stroke-width:1px;stroke-linecap:butt;stroke-linejoin:miter;stroke-opacity:1" d="M 980.53,208.975 980.53,228.312 z" id="boundary" inkscape:connector-curvature="0" />
	<path style="fill:none;stroke:red;stroke-width:1px;stroke-linecap:butt;stroke-linejoin:miter;stroke-opacity:1" d="M 980.53,208.975 984.398,181.903 z" id="boundary" inkscape:connector-curvature="0" />
	<path style="fill:none;stroke:red;stroke-width:1px;stroke-linecap:butt;stroke-linejoin:miter;stroke-opacity:1" d="M 980.53,228.312 980.53,247.649 z" id="boundary" inkscape:connector-curvature="0" />
	<path style="fill:none;stroke:red;stroke-width:1px;stroke-linecap:butt;stroke-linejoin:miter;stroke-opacity:1" d="M 980.53,247.649 980.53,266.986 z" id="boundary" inkscape:connector-curvature="0" />
	<path style="fill:none;stroke:red;stroke-width:1px;stroke-linecap:butt;stroke-linejoin:miter;stroke-opacity:1" d="M 980.53,266.986 980.53,286.324 z" id="boundary" inkscape:connector-curvature="0" />
	<path style="fill:none;stroke:red;stroke-width:1px;stroke-linecap:butt;stroke-linejoin:miter;stroke-opacity:1" d="M 980.53,286.324 980.53,305.661 z" id="boundary" inkscape:connector-curvature="0" />
	<path style="fill:none;stroke:red;stroke-width:1px;stroke-linecap:butt;stroke-linejoin:miter;stroke-opacity:1" d="M 980.53,305.661 980.53,324.998 z" id="boundary" inkscape:connector-curvature="0" />
	<path style="fill:none;stroke:red;stroke-width:1px;stroke-linecap:butt;stroke-linejoin:miter;stroke-opacity:1" d="M 980.53,324.998 984.398,344.335 z" id="boundary" inkscape:connector-curvature="0" />
	<path style="fill:none;stroke:red;stroke-width:1px;stroke-linecap:butt;stroke-linejoin:miter;stroke-opacity:1" d="M 984.398,181.903 996,150.963 z" id="boundary" inkscape:connector-curvature="0" />
	<path style="fill:none;stroke:red;stroke-width:1px;stroke-linecap:butt;stroke-linejoin:miter;stroke-opacity:1" d="M 984.398,344.335 988.265,363.673 z" id="boundary" inkscape:connector-curvature="0" />
	<path style="fill:none;stroke:red;stroke-width:1px;stroke-linecap:butt;stroke-linejoin:miter;stroke-opacity:1" d="M 986.331,133.559 996,150.963 z" id="boundary" inkscape:connector-curvature="0" />
	<path style="fill:none;stroke:red;stroke-width:1px;stroke-linecap:butt;stroke-linejoin:miter;stroke-opacity:1" d="M 988.265,363.673 988.265,383.01 z" id="boundary" inkscape:connector-curvature="0" />
	<path style="fill:none;stroke:red;stroke-width:1px;stroke-linecap:butt;stroke-linejoin:miter;stroke-opacity:1" d="M 988.265,383.01 992.133,402.347 z" id="boundary" inkscape:connector-curvature="0" />
	<path style="fill:none;stroke:red;stroke-width:1px;stroke-linecap:butt;stroke-linejoin:miter;stroke-opacity:1" d="M 992.133,402.347 992.133,421.684 z" id="boundary" inkscape:connector-curvature="0" />
	<path style="fill:none;stroke:red;stroke-width:1px;stroke-linecap:butt;stroke-linejoin:miter;stroke-opacity:1" d="M 992.133,421.684 992.133,441.021 z" id="boundary" inkscape:connector-curvature="0" />
	<path style="fill:none;stroke:red;stroke-width:1px;stroke-linecap:butt;stroke-linejoin:miter;stroke-opacity:1" d="M 992.133,441.021 992.133,460.359 z" id="boundary" inkscape:connector-curvature="0" />
	<path style="fill:none;stroke:red;stroke-width:1px;stroke-linecap:butt;stroke-linejoin:miter;stroke-opacity:1" d="M 992.133,460.359 992.133,479.696 z" id="boundary" inkscape:connector-curvature="0" />
	<path style="fill:none;stroke:red;stroke-width:1px;stroke-linecap:butt;stroke-linejoin:miter;stroke-opacity:1" d="M 992.133,479.696 992.133,499.033 z" id="boundary" inkscape:connector-curvature="0" />
	<path style="fill:none;stroke:red;stroke-width:1px;stroke-linecap:butt;stroke-linejoin:miter;stroke-opacity:1" d="M 992.133,499.033 992.133,518.37 z" id="boundary" inkscape:connector-curvature="0" />
	<path style="fill:none;stroke:red;stroke-width:1px;stroke-linecap:butt;stroke-linejoin:miter;stroke-opacity:1" d="M 992.133,518.37 992.133,537.708 z" id="boundary" inkscape:connector-curvature="0" />
	<path style="fill:none;stroke:red;stroke-width:1px;stroke-linecap:butt;stroke-linejoin:miter;stroke-opacity:1" d="M 992.133,537.708 992.133,557.045 z" id="boundary" inkscape:connector-curvature="0" />
	<circle cx="4" cy="375.275" r="4" fill="#0" id="circle0"/>
	<circle cx="4" cy="394.612" r="4" fill="#0" id="circle1"/>
	<circle cx="15.6023" cy="545.442" r="4" fill="#0" id="circle2"/>
	<circle cx="15.6023" cy="564.78" r="4" fill="#0" id="circle3"/>
	<circle cx="15.6023" cy="595.719" r="4" fill="#0" id="circle4"/>
	<circle cx="17.5361" cy="410.082" r="4" fill="#0" id="circle5"/>
	<circle cx="19.4698" cy="359.805" r="4" fill="#0" id="circle6"/>
	<circle cx="25.271" cy="528.039" r="4" fill="#0" id="circle7"/>
	<circle cx="27.2047" cy="427.485" r="4" fill="#0" id="circle8"/>
	<circle cx="27.2047" cy="446.823" r="4" fill="#0" id="circle9"/>
	<circle cx="27.2047" cy="466.16" r="4" fill="#0" id="circle10"/>
	<circle cx="27.2047" cy="485.497" r="4" fill="#0" id="circle11"/>
	<circle cx="27.2047" cy="504.834" r="4" fill="#0" id="circle12"/>
	<circle cx="34.9396" cy="558.979" r="4" fill="#0" id="circle13"/>
	<circle cx="34.9396" cy="593.786" r="4" fill="#0" id="circle14"/>
	<circle cx="36.8733" cy="350.136" r="4" fill="#0" id="circle15"/>
	<circle cx="40.7407" cy="539.641" r="4" fill="#0" id="circle16"/>
	<circle cx="56.2105" cy="342.402" r="4" fill="#0" id="circle17"/>
	<circle cx="56.2105" cy="528.039" r="4" fill="#0" id="circle18"/>
	<circle cx="75.5478" cy="336.6" r="4" fill="#0" id="circle19"/>
	<circle cx="75.5478" cy="528.039" r="4" fill="#0" id="circle20"/>
	<circle cx="94.885" cy="332.733" r="4" fill="#0" id="circle21"/>
	<circle cx="94.885" cy="528.039" r="4" fill="#0" id="circle22"/>
	<circle cx="114.222" cy="328.865" r="4" fill="#0" id="circle23"/>
	<circle cx="114.222" cy="535.774" r="4" fill="#0" id="circle24"/>
	<circle cx="133.559" cy="321.131" r="4" fill="#0" id="circle25"/>
	<circle cx="133.559" cy="543.509" r="4" fill="#0" id="circle26"/>
	<circle cx="152.897" cy="321.131" r="4" fill="#0" id="circle27"/>
	<circle cx="152.897" cy="541.575" r="4" fill="#0" id="circle28"/>
	<circle cx="168.366" cy="529.973" r="4" fill="#0" id="circle29"/>
	<circle cx="172.234" cy="317.263" r="4" fill="#0" id="circle30"/>
	<circle cx="187.704" cy="524.172" r="4" fill="#0" id="circle31"/>
	<circle cx="191.571" cy="317.263" r="4" fill="#0" id="circle32"/>
	<circle cx="207.041" cy="524.172" r="4" fill="#0" id="circle33"/>
	<circle cx="210.908" cy="313.396" r="4" fill="#0" id="circle34"/>
	<circle cx="226.378" cy="528.039" r="4" fill="#0" id="circle35"/>
	<circle cx="230.246" cy="313.396" r="4" fill="#0" id="circle36"/>
	<circle cx="245.715" cy="531.906" r="4" fill="#0" id="circle37"/>
	<circle cx="249.583" cy="313.396" r="4" fill="#0" id="circle38"/>
	<circle cx="261.185" cy="543.509" r="4" fill="#0" id="circle39"/>
	<circle cx="268.92" cy="303.727" r="4" fill="#0" id="circle40"/>
	<circle cx="280.522" cy="547.376" r="4" fill="#0" id="circle41"/>
	<circle cx="286.324" cy="294.058" r="4" fill="#0" id="circle42"/>
	<circle cx="299.86" cy="555.111" r="4" fill="#0" id="circle43"/>
	<circle cx="305.661" cy="290.191" r="4" fill="#0" id="circle44"/>
	<circle cx="319.197" cy="558.979" r="4" fill="#0" id="circle45"/>
	<circle cx="323.064" cy="280.522" r="4" fill="#0" id="circle46"/>
	<circle cx="338.534" cy="562.846" r="4" fill="#0" id="circle47"/>
	<circle cx="340.468" cy="270.854" r="4" fill="#0" id="circle48"/>
	<circle cx="357.871" cy="566.713" r="4" fill="#0" id="circle49"/>
	<circle cx="359.805" cy="263.119" r="4" fill="#0" id="circle50"/>
	<circle cx="367.54" cy="143.228" r="4" fill="#0" id="circle51"/>
	<circle cx="367.54" cy="162.565" r="4" fill="#0" id="circle52"/>
	<circle cx="371.407" cy="591.852" r="4" fill="#0" id="circle53"/>
	<circle cx="377.209" cy="179.969" r="4" fill="#0" id="circle54"/>
	<circle cx="379.142" cy="268.92" r="4" fill="#0" id="circle55"/>
	<circle cx="383.01" cy="127.758" r="4" fill="#0" id="circle56"/>
	<circle cx="383.01" cy="199.306" r="4" fill="#0" id="circle57"/>
	<circle cx="383.01" cy="218.643" r="4" fill="#0" id="circle58"/>
	<circle cx="384.943" cy="564.78" r="4" fill="#0" id="circle59"/>
	<circle cx="386.877" cy="237.981" r="4" fill="#0" id="circle60"/>
	<circle cx="402.347" cy="120.023" r="4" fill="#0" id="circle61"/>
	<circle cx="404.281" cy="558.979" r="4" fill="#0" id="circle62"/>
	<circle cx="421.684" cy="112.288" r="4" fill="#0" id="circle63"/>
	<circle cx="423.618" cy="555.111" r="4" fill="#0" id="circle64"/>
	<circle cx="441.021" cy="104.554" r="4" fill="#0" id="circle65"/>
	<circle cx="442.955" cy="549.31" r="4" fill="#0" id="circle66"/>
	<circle cx="460.359" cy="96.8187" r="4" fill="#0" id="circle67"/>
	<circle cx="462.292" cy="541.575" r="4" fill="#0" id="circle68"/>
	<circle cx="479.696" cy="92.9513" r="4" fill="#0" id="circle69"/>
	<circle cx="479.696" cy="531.906" r="4" fill="#0" id="circle70"/>
	<circle cx="499.033" cy="89.0838" r="4" fill="#0" id="circle71"/>
	<circle cx="499.033" cy="528.039" r="4" fill="#0" id="circle72"/>
	<circle cx="518.37" cy="85.2164" r="4" fill="#0" id="circle73"/>
	<circle cx="518.37" cy="524.172" r="4" fill="#0" id="circle74"/>
	<circle cx="537.708" cy="81.3489" r="4" fill="#0" id="circle75"/>
	<circle cx="537.708" cy="526.105" r="4" fill="#0" id="circle76"/>
	<circle cx="557.045" cy="77.4815" r="4" fill="#0" id="circle77"/>
	<circle cx="557.045" cy="533.84" r="4" fill="#0" id="circle78"/>
	<circle cx="572.515" cy="545.442" r="4" fill="#0" id="circle79"/>
	<circle cx="576.382" cy="77.4815" r="4" fill="#0" id="circle80"/>
	<circle cx="584.117" cy="58.1442" r="4" fill="#0" id="circle81"/>
	<circle cx="591.852" cy="539.641" r="4" fill="#0" id="circle82"/>
	<circle cx="603.454" cy="50.4094" r="4" fill="#0" id="circle83"/>
	<circle cx="611.189" cy="531.906" r="4" fill="#0" id="circle84"/>
	<circle cx="622.791" cy="46.5419" r="4" fill="#0" id="circle85"/>
	<circle cx="630.526" cy="528.039" r="4" fill="#0" id="circle86"/>
	<circle cx="642.129" cy="31.0721" r="4" fill="#0" id="circle87"/>
	<circle cx="649.864" cy="528.039" r="4" fill="#0" id="circle88"/>
	<circle cx="657.598" cy="19.4698" r="4" fill="#0" id="circle89"/>
	<circle cx="669.201" cy="4" r="4" fill="#0" id="circle90"/>
	<circle cx="669.201" cy="528.039" r="4" fill="#0" id="circle91"/>
	<circle cx="684.671" cy="539.641" r="4" fill="#0" id="circle92"/>
	<circle cx="684.671" cy="558.979" r="4" fill="#0" id="circle93"/>
	<circle cx="688.538" cy="4" r="4" fill="#0" id="circle94"/>
	<circle cx="692.405" cy="578.316" r="4" fill="#0" id="circle95"/>
	<circle cx="692.405" cy="597.653" r="4" fill="#0" id="circle96"/>
	<circle cx="700.14" cy="19.4698" r="4" fill="#0" id="circle97"/>
	<circle cx="705.942" cy="522.238" r="4" fill="#0" id="circle98"/>
	<circle cx="707.875" cy="38.807" r="4" fill="#0" id="circle99"/>
	<circle cx="709.809" cy="541.575" r="4" fill="#0" id="circle100"/>
	<circle cx="709.809" cy="560.912" r="4" fill="#0" id="circle101"/>
	<circle cx="725.279" cy="520.304" r="4" fill="#0" id="circle102"/>
	<circle cx="727.212" cy="42.6745" r="4" fill="#0" id="circle103"/>
	<circle cx="744.616" cy="520.304" r="4" fill="#0" id="circle104"/>
	<circle cx="746.55" cy="50.4094" r="4" fill="#0" id="circle105"/>
	<circle cx="763.953" cy="520.304" r="4" fill="#0" id="circle106"/>
	<circle cx="765.887" cy="58.1442" r="4" fill="#0" id="circle107"/>
	<circle cx="777.489" cy="73.614" r="4" fill="#0" id="circle108"/>
	<circle cx="783.29" cy="520.304" r="4" fill="#0" id="circle109"/>
	<circle cx="796.827" cy="77.4815" r="4" fill="#0" id="circle110"/>
	<circle cx="802.628" cy="520.304" r="4" fill="#0" id="circle111"/>
	<circle cx="816.164" cy="81.3489" r="4" fill="#0" id="circle112"/>
	<circle cx="821.965" cy="520.304" r="4" fill="#0" id="circle113"/>
	<circle cx="835.501" cy="83.2827" r="4" fill="#0" id="circle114"/>
	<circle cx="841.302" cy="520.304" r="4" fill="#0" id="circle115"/>
	<circle cx="854.838" cy="85.2164" r="4" fill="#0" id="circle116"/>
	<circle cx="860.639" cy="520.304" r="4" fill="#0" id="circle117"/>
	<circle cx="874.175" cy="91.0175" r="4" fill="#0" id="circle118"/>
	<circle cx="879.977" cy="520.304" r="4" fill="#0" id="circle119"/>
	<circle cx="893.513" cy="96.8187" r="4" fill="#0" id="circle120"/>
	<circle cx="899.314" cy="520.304" r="4" fill="#0" id="circle121"/>
	<circle cx="912.85" cy="100.686" r="4" fill="#0" id="circle122"/>
	<circle cx="918.651" cy="520.304" r="4" fill="#0" id="circle123"/>
	<circle cx="932.187" cy="106.487" r="4" fill="#0" id="circle124"/>
	<circle cx="937.988" cy="520.304" r="4" fill="#0" id="circle125"/>
	<circle cx="949.591" cy="116.156" r="4" fill="#0" id="circle126"/>
	<circle cx="957.326" cy="520.304" r="4" fill="#0" id="circle127"/>
	<circle cx="968.928" cy="123.891" r="4" fill="#0" id="circle128"/>
	<circle cx="970.862" cy="535.774" r="4" fill="#0" id="circle129"/>
	<circle cx="970.862" cy="555.111" r="4" fill="#0" id="circle130"/>
	<circle cx="974.729" cy="574.448" r="4" fill="#0" id="circle131"/>
	<circle cx="974.729" cy="593.786" r="4" fill="#0" id="circle132"/>
	<circle cx="980.53" cy="208.975" r="4" fill="#0" id="circle133"/>
	<circle cx="980.53" cy="228.312" r="4" fill="#0" id="circle134"/>
	<circle cx="980.53" cy="247.649" r="4" fill="#0" id="circle135"/>
	<circle cx="980.53" cy="266.986" r="4" fill="#0" id="circle136"/>
	<circle cx="980.53" cy="286.324" r="4" fill="#0" id="circle137"/>
	<circle cx="980.53" cy="305.661" r="4" fill="#0" id="circle138"/>
	<circle cx="980.53" cy="324.998" r="4" fill="#0" id="circle139"/>
	<circle cx="984.398" cy="181.903" r="4" fill="#0" id="circle140"/>
	<circle cx="984.398" cy="344.335" r="4" fill="#0" id="circle141"/>
	<circle cx="986.331" cy="133.559" r="4" fill="#0" id="circle142"/>
	<circle cx="988.265" cy="363.673" r="4" fill="#0" id="circle143"/>
	<circle cx="988.265" cy="383.01" r="4" fill="#0" id="circle144"/>
	<circle cx="992.133" cy="402.347" r="4" fill="#0" id="circle145"/>
	<circle cx="992.133" cy="421.684" r="4" fill="#0" id="circle146"/>
	<circle cx="992.133" cy="441.021" r="4" fill="#0" id="circle147"/>
	<circle cx="992.133" cy="460.359" r="4" fill="#0" id="circle148"/>
	<circle cx="992.133" cy="479.696" r="4" fill="#0" id="circle149"/>
	<circle cx="992.133" cy="499.033" r="4" fill="#0" id="circle150"/>
	<circle cx="992.133" cy="518.37" r="4" fill="#0" id="circle151"/>
	<circle cx="992.133" cy="537.708" r="4" fill="#0" id="circle152"/>
	<circle cx="992.133" cy="557.045" r="4" fill="#0" id="circle153"/>
	<circle cx="996" cy="150.963" r="4" fill="#0" id="circle154"/>
	</g>
</svg>