<?xml version="1.0" encoding="UTF-8" standalone="no"?>
<!-- Created with CurveBenchmark -->
<svg
	xmlns:dc="http://purl.org/dc/elements/1.1/"
	xmlns:cc="http://creativecommons.org/ns#"
	xmlns:rdf="http://www.w3.org/1999/02/22-rdf-syntax-ns#"
	xmlns:svg="http://www.w3.org/2000/svg"
	xmlns="http://www.w3.org/2000/svg"
	xmlns:sodipodi="http://sodipodi.sourceforge.net/DTD/sodipodi-0.dtd"
	xmlns:inkscape="http://www.inkscape.org/namespaces/inkscape"
	width="1000"
	height="1000"
	id="svg2"
	version="1.1"
	sodipodi:docname="manifold/gathan1-sink115.png.txt">
<defs
	id="defs4" />
<metadata
	id="metadata7">
	<rdf:RDF>
		<cc:Work
			rdf:about="">
			<dc:format>image/svg+xml</dc:format>
			<dc:type
				rdf:resource="http://purl.org/dc/dcmitype/StillImage" />
			<dc:title></dc:title>
		</cc:Work>
	</rdf:RDF>
</metadata>
<g
	inkscape:label="Layer 1"
	inkscape:groupmode="layer"
	id="layer1">
	<path style="fill:none;stroke:red;stroke-width:1px;stroke-linecap:butt;stroke-linejoin:miter;stroke-opacity:1" d="M 4,221.154 4,171.801 z" id="boundary" inkscape:connector-curvature="0" />
	<path style="fill:none;stroke:red;stroke-width:1px;stroke-linecap:butt;stroke-linejoin:miter;stroke-opacity:1" d="M 4,171.801 53.3532,152.06 z" id="boundary" inkscape:connector-curvature="0" />
	<path style="fill:none;stroke:red;stroke-width:1px;stroke-linecap:butt;stroke-linejoin:miter;stroke-opacity:1" d="M 102.706,152.06 53.3532,152.06 z" id="boundary" inkscape:connector-curvature="0" />
	<path style="fill:none;stroke:red;stroke-width:1px;stroke-linecap:butt;stroke-linejoin:miter;stroke-opacity:1" d="M 4,270.507 4,221.154 z" id="boundary" inkscape:connector-curvature="0" />
	<path style="fill:none;stroke:red;stroke-width:1px;stroke-linecap:butt;stroke-linejoin:miter;stroke-opacity:1" d="M 43.4826,305.055 4,270.507 z" id="boundary" inkscape:connector-curvature="0" />
	<path style="fill:none;stroke:red;stroke-width:1px;stroke-linecap:butt;stroke-linejoin:miter;stroke-opacity:1" d="M 43.4826,305.055 92.8358,305.055 z" id="boundary" inkscape:connector-curvature="0" />
	<path style="fill:none;stroke:red;stroke-width:1px;stroke-linecap:butt;stroke-linejoin:miter;stroke-opacity:1" d="M 92.8358,305.055 122.448,344.537 z" id="boundary" inkscape:connector-curvature="0" />
	<path style="fill:none;stroke:red;stroke-width:1px;stroke-linecap:butt;stroke-linejoin:miter;stroke-opacity:1" d="M 102.706,152.06 152.06,152.06 z" id="boundary" inkscape:connector-curvature="0" />
	<path style="fill:none;stroke:red;stroke-width:1px;stroke-linecap:butt;stroke-linejoin:miter;stroke-opacity:1" d="M 329.731,4 329.731,53.3532 z" id="boundary" inkscape:connector-curvature="0" />
	<path style="fill:none;stroke:red;stroke-width:1px;stroke-linecap:butt;stroke-linejoin:miter;stroke-opacity:1" d="M 201.413,161.93 152.06,152.06 z" id="boundary" inkscape:connector-curvature="0" />
	<path style="fill:none;stroke:red;stroke-width:1px;stroke-linecap:butt;stroke-linejoin:miter;stroke-opacity:1" d="M 329.731,102.706 329.731,53.3532 z" id="boundary" inkscape:connector-curvature="0" />
	<path style="fill:none;stroke:red;stroke-width:1px;stroke-linecap:butt;stroke-linejoin:miter;stroke-opacity:1" d="M 329.731,4 374.149,28.6766 z" id="boundary" inkscape:connector-curvature="0" />
	<path style="fill:none;stroke:red;stroke-width:1px;stroke-linecap:butt;stroke-linejoin:miter;stroke-opacity:1" d="M 161.93,379.085 122.448,344.537 z" id="boundary" inkscape:connector-curvature="0" />
	<path style="fill:none;stroke:red;stroke-width:1px;stroke-linecap:butt;stroke-linejoin:miter;stroke-opacity:1" d="M 201.413,161.93 250.766,161.93 z" id="boundary" inkscape:connector-curvature="0" />
	<path style="fill:none;stroke:red;stroke-width:1px;stroke-linecap:butt;stroke-linejoin:miter;stroke-opacity:1" d="M 300.119,161.93 250.766,161.93 z" id="boundary" inkscape:connector-curvature="0" />
	<path style="fill:none;stroke:red;stroke-width:1px;stroke-linecap:butt;stroke-linejoin:miter;stroke-opacity:1" d="M 201.413,408.697 161.93,379.085 z" id="boundary" inkscape:connector-curvature="0" />
	<path style="fill:none;stroke:red;stroke-width:1px;stroke-linecap:butt;stroke-linejoin:miter;stroke-opacity:1" d="M 245.831,433.373 201.413,408.697 z" id="boundary" inkscape:connector-curvature="0" />
	<path style="fill:none;stroke:red;stroke-width:1px;stroke-linecap:butt;stroke-linejoin:miter;stroke-opacity:1" d="M 295.184,996 245.831,996 z" id="boundary" inkscape:connector-curvature="0" />
	<path style="fill:none;stroke:red;stroke-width:1px;stroke-linecap:butt;stroke-linejoin:miter;stroke-opacity:1" d="M 245.831,996 221.154,951.582 z" id="boundary" inkscape:connector-curvature="0" />
	<path style="fill:none;stroke:red;stroke-width:1px;stroke-linecap:butt;stroke-linejoin:miter;stroke-opacity:1" d="M 221.154,951.582 250.766,902.229 z" id="boundary" inkscape:connector-curvature="0" />
	<path style="fill:none;stroke:red;stroke-width:1px;stroke-linecap:butt;stroke-linejoin:miter;stroke-opacity:1" d="M 270.507,833.134 250.766,902.229 z" id="boundary" inkscape:connector-curvature="0" />
	<path style="fill:none;stroke:red;stroke-width:1px;stroke-linecap:butt;stroke-linejoin:miter;stroke-opacity:1" d="M 344.537,996 295.184,996 z" id="boundary" inkscape:connector-curvature="0" />
	<path style="fill:none;stroke:red;stroke-width:1px;stroke-linecap:butt;stroke-linejoin:miter;stroke-opacity:1" d="M 280.378,472.856 280.378,522.209 z" id="boundary" inkscape:connector-curvature="0" />
	<path style="fill:none;stroke:red;stroke-width:1px;stroke-linecap:butt;stroke-linejoin:miter;stroke-opacity:1" d="M 245.831,433.373 280.378,472.856 z" id="boundary" inkscape:connector-curvature="0" />
	<path style="fill:none;stroke:red;stroke-width:1px;stroke-linecap:butt;stroke-linejoin:miter;stroke-opacity:1" d="M 280.378,571.562 280.378,620.915 z" id="boundary" inkscape:connector-curvature="0" />
	<path style="fill:none;stroke:red;stroke-width:1px;stroke-linecap:butt;stroke-linejoin:miter;stroke-opacity:1" d="M 280.378,571.562 280.378,522.209 z" id="boundary" inkscape:connector-curvature="0" />
	<path style="fill:none;stroke:red;stroke-width:1px;stroke-linecap:butt;stroke-linejoin:miter;stroke-opacity:1" d="M 280.378,670.269 280.378,719.622 z" id="boundary" inkscape:connector-curvature="0" />
	<path style="fill:none;stroke:red;stroke-width:1px;stroke-linecap:butt;stroke-linejoin:miter;stroke-opacity:1" d="M 280.378,768.975 280.378,719.622 z" id="boundary" inkscape:connector-curvature="0" />
	<path style="fill:none;stroke:red;stroke-width:1px;stroke-linecap:butt;stroke-linejoin:miter;stroke-opacity:1" d="M 270.507,833.134 280.378,768.975 z" id="boundary" inkscape:connector-curvature="0" />
	<path style="fill:none;stroke:red;stroke-width:1px;stroke-linecap:butt;stroke-linejoin:miter;stroke-opacity:1" d="M 280.378,670.269 280.378,620.915 z" id="boundary" inkscape:connector-curvature="0" />
	<path style="fill:none;stroke:red;stroke-width:1px;stroke-linecap:butt;stroke-linejoin:miter;stroke-opacity:1" d="M 329.731,102.706 364.279,142.189 z" id="boundary" inkscape:connector-curvature="0" />
	<path style="fill:none;stroke:red;stroke-width:1px;stroke-linecap:butt;stroke-linejoin:miter;stroke-opacity:1" d="M 413.632,161.93 364.279,142.189 z" id="boundary" inkscape:connector-curvature="0" />
	<path style="fill:none;stroke:red;stroke-width:1px;stroke-linecap:butt;stroke-linejoin:miter;stroke-opacity:1" d="M 561.692,152.06 512.338,152.06 z" id="boundary" inkscape:connector-curvature="0" />
	<path style="fill:none;stroke:red;stroke-width:1px;stroke-linecap:butt;stroke-linejoin:miter;stroke-opacity:1" d="M 512.338,152.06 462.985,161.93 z" id="boundary" inkscape:connector-curvature="0" />
	<path style="fill:none;stroke:red;stroke-width:1px;stroke-linecap:butt;stroke-linejoin:miter;stroke-opacity:1" d="M 413.632,161.93 462.985,161.93 z" id="boundary" inkscape:connector-curvature="0" />
	<path style="fill:none;stroke:red;stroke-width:1px;stroke-linecap:butt;stroke-linejoin:miter;stroke-opacity:1" d="M 586.368,354.408 546.886,393.891 z" id="boundary" inkscape:connector-curvature="0" />
	<path style="fill:none;stroke:red;stroke-width:1px;stroke-linecap:butt;stroke-linejoin:miter;stroke-opacity:1" d="M 611.045,152.06 561.692,152.06 z" id="boundary" inkscape:connector-curvature="0" />
	<path style="fill:none;stroke:red;stroke-width:1px;stroke-linecap:butt;stroke-linejoin:miter;stroke-opacity:1" d="M 546.886,393.891 502.468,418.567 z" id="boundary" inkscape:connector-curvature="0" />
	<path style="fill:none;stroke:red;stroke-width:1px;stroke-linecap:butt;stroke-linejoin:miter;stroke-opacity:1" d="M 611.045,152.06 660.398,152.06 z" id="boundary" inkscape:connector-curvature="0" />
	<path style="fill:none;stroke:red;stroke-width:1px;stroke-linecap:butt;stroke-linejoin:miter;stroke-opacity:1" d="M 660.398,152.06 690.01,191.542 z" id="boundary" inkscape:connector-curvature="0" />
	<path style="fill:none;stroke:red;stroke-width:1px;stroke-linecap:butt;stroke-linejoin:miter;stroke-opacity:1" d="M 690.01,191.542 690.01,240.896 z" id="boundary" inkscape:connector-curvature="0" />
	<path style="fill:none;stroke:red;stroke-width:1px;stroke-linecap:butt;stroke-linejoin:miter;stroke-opacity:1" d="M 709.751,290.249 690.01,240.896 z" id="boundary" inkscape:connector-curvature="0" />
	<path style="fill:none;stroke:red;stroke-width:1px;stroke-linecap:butt;stroke-linejoin:miter;stroke-opacity:1" d="M 586.368,354.408 611.045,309.99 z" id="boundary" inkscape:connector-curvature="0" />
	<path style="fill:none;stroke:red;stroke-width:1px;stroke-linecap:butt;stroke-linejoin:miter;stroke-opacity:1" d="M 611.045,309.99 660.398,305.055 z" id="boundary" inkscape:connector-curvature="0" />
	<path style="fill:none;stroke:red;stroke-width:1px;stroke-linecap:butt;stroke-linejoin:miter;stroke-opacity:1" d="M 660.398,305.055 709.751,290.249 z" id="boundary" inkscape:connector-curvature="0" />
	<path style="fill:none;stroke:red;stroke-width:1px;stroke-linecap:butt;stroke-linejoin:miter;stroke-opacity:1" d="M 453.114,487.662 453.114,537.015 z" id="boundary" inkscape:connector-curvature="0" />
	<path style="fill:none;stroke:red;stroke-width:1px;stroke-linecap:butt;stroke-linejoin:miter;stroke-opacity:1" d="M 453.114,487.662 453.114,438.308 z" id="boundary" inkscape:connector-curvature="0" />
	<path style="fill:none;stroke:red;stroke-width:1px;stroke-linecap:butt;stroke-linejoin:miter;stroke-opacity:1" d="M 453.114,438.308 502.468,418.567 z" id="boundary" inkscape:connector-curvature="0" />
	<path style="fill:none;stroke:red;stroke-width:1px;stroke-linecap:butt;stroke-linejoin:miter;stroke-opacity:1" d="M 453.114,586.368 453.114,635.721 z" id="boundary" inkscape:connector-curvature="0" />
	<path style="fill:none;stroke:red;stroke-width:1px;stroke-linecap:butt;stroke-linejoin:miter;stroke-opacity:1" d="M 453.114,537.015 453.114,586.368 z" id="boundary" inkscape:connector-curvature="0" />
	<path style="fill:none;stroke:red;stroke-width:1px;stroke-linecap:butt;stroke-linejoin:miter;stroke-opacity:1" d="M 393.891,996 344.537,996 z" id="boundary" inkscape:connector-curvature="0" />
	<path style="fill:none;stroke:red;stroke-width:1px;stroke-linecap:butt;stroke-linejoin:miter;stroke-opacity:1" d="M 453.114,685.075 453.114,734.428 z" id="boundary" inkscape:connector-curvature="0" />
	<path style="fill:none;stroke:red;stroke-width:1px;stroke-linecap:butt;stroke-linejoin:miter;stroke-opacity:1" d="M 443.244,996 393.891,996 z" id="boundary" inkscape:connector-curvature="0" />
	<path style="fill:none;stroke:red;stroke-width:1px;stroke-linecap:butt;stroke-linejoin:miter;stroke-opacity:1" d="M 453.114,635.721 453.114,685.075 z" id="boundary" inkscape:connector-curvature="0" />
	<path style="fill:none;stroke:red;stroke-width:1px;stroke-linecap:butt;stroke-linejoin:miter;stroke-opacity:1" d="M 453.114,734.428 453.114,783.781 z" id="boundary" inkscape:connector-curvature="0" />
	<path style="fill:none;stroke:red;stroke-width:1px;stroke-linecap:butt;stroke-linejoin:miter;stroke-opacity:1" d="M 453.114,783.781 453.114,833.134 z" id="boundary" inkscape:connector-curvature="0" />
	<path style="fill:none;stroke:red;stroke-width:1px;stroke-linecap:butt;stroke-linejoin:miter;stroke-opacity:1" d="M 462.985,882.488 453.114,833.134 z" id="boundary" inkscape:connector-curvature="0" />
	<path style="fill:none;stroke:red;stroke-width:1px;stroke-linecap:butt;stroke-linejoin:miter;stroke-opacity:1" d="M 487.662,926.905 462.985,882.488 z" id="boundary" inkscape:connector-curvature="0" />
	<path style="fill:none;stroke:red;stroke-width:1px;stroke-linecap:butt;stroke-linejoin:miter;stroke-opacity:1" d="M 492.597,996 443.244,996 z" id="boundary" inkscape:connector-curvature="0" />
	<path style="fill:none;stroke:red;stroke-width:1px;stroke-linecap:butt;stroke-linejoin:miter;stroke-opacity:1" d="M 487.662,926.905 492.597,996 z" id="boundary" inkscape:connector-curvature="0" />
	<circle cx="4" cy="171.801" r="4" fill="#0" id="circle0"/>
	<circle cx="4" cy="221.154" r="4" fill="#0" id="circle1"/>
	<circle cx="4" cy="270.507" r="4" fill="#0" id="circle2"/>
	<circle cx="43.4826" cy="305.055" r="4" fill="#0" id="circle3"/>
	<circle cx="53.3532" cy="152.06" r="4" fill="#0" id="circle4"/>
	<circle cx="92.8358" cy="305.055" r="4" fill="#0" id="circle5"/>
	<circle cx="102.706" cy="152.06" r="4" fill="#0" id="circle6"/>
	<circle cx="122.448" cy="344.537" r="4" fill="#0" id="circle7"/>
	<circle cx="152.06" cy="152.06" r="4" fill="#0" id="circle8"/>
	<circle cx="161.93" cy="379.085" r="4" fill="#0" id="circle9"/>
	<circle cx="201.413" cy="161.93" r="4" fill="#0" id="circle10"/>
	<circle cx="201.413" cy="408.697" r="4" fill="#0" id="circle11"/>
	<circle cx="221.154" cy="951.582" r="4" fill="#0" id="circle12"/>
	<circle cx="245.831" cy="433.373" r="4" fill="#0" id="circle13"/>
	<circle cx="245.831" cy="996" r="4" fill="#0" id="circle14"/>
	<circle cx="250.766" cy="161.93" r="4" fill="#0" id="circle15"/>
	<circle cx="250.766" cy="902.229" r="4" fill="#0" id="circle16"/>
	<circle cx="270.507" cy="833.134" r="4" fill="#0" id="circle17"/>
	<circle cx="280.378" cy="472.856" r="4" fill="#0" id="circle18"/>
	<circle cx="280.378" cy="522.209" r="4" fill="#0" id="circle19"/>
	<circle cx="280.378" cy="571.562" r="4" fill="#0" id="circle20"/>
	<circle cx="280.378" cy="620.915" r="4" fill="#0" id="circle21"/>
	<circle cx="280.378" cy="670.269" r="4" fill="#0" id="circle22"/>
	<circle cx="280.378" cy="719.622" r="4" fill="#0" id="circle23"/>
	<circle cx="280.378" cy="768.975" r="4" fill="#0" id="circle24"/>
	<circle cx="295.184" cy="996" r="4" fill="#0" id="circle25"/>
	<circle cx="300.119" cy="161.93" r="4" fill="#0" id="circle26"/>
	<circle cx="329.731" cy="4" r="4" fill="#0" id="circle27"/>
	<circle cx="329.731" cy="53.3532" r="4" fill="#0" id="circle28"/>
	<circle cx="329.731" cy="102.706" r="4" fill="#0" id="circle29"/>
	<circle cx="344.537" cy="996" r="4" fill="#0" id="circle30"/>
	<circle cx="364.279" cy="142.189" r="4" fill="#0" id="circle31"/>
	<circle cx="374.149" cy="28.6766" r="4" fill="#0" id="circle32"/>
	<circle cx="393.891" cy="996" r="4" fill="#0" id="circle33"/>
	<circle cx="413.632" cy="161.93" r="4" fill="#0" id="circle34"/>
	<circle cx="443.244" cy="996" r="4" fill="#0" id="circle35"/>
	<circle cx="453.114" cy="438.308" r="4" fill="#0" id="circle36"/>
	<circle cx="453.114" cy="487.662" r="4" fill="#0" id="circle37"/>
	<circle cx="453.114" cy="537.015" r="4" fill="#0" id="circle38"/>
	<circle cx="453.114" cy="586.368" r="4" fill="#0" id="circle39"/>
	<circle cx="453.114" cy="635.721" r="4" fill="#0" id="circle40"/>
	<circle cx="453.114" cy="685.075" r="4" fill="#0" id="circle41"/>
	<circle cx="453.114" cy="734.428" r="4" fill="#0" id="circle42"/>
	<circle cx="453.114" cy="783.781" r="4" fill="#0" id="circle43"/>
	<circle cx="453.114" cy="833.134" r="4" fill="#0" id="circle44"/>
	<circle cx="462.985" cy="161.93" r="4" fill="#0" id="circle45"/>
	<circle cx="462.985" cy="882.488" r="4" fill="#0" id="circle46"/>
	<circle cx="487.662" cy="926.905" r="4" fill="#0" id="circle47"/>
	<circle cx="492.597" cy="996" r="4" fill="#0" id="circle48"/>
	<circle cx="502.468" cy="418.567" r="4" fill="#0" id="circle49"/>
	<circle cx="512.338" cy="152.06" r="4" fill="#0" id="circle50"/>
	<circle cx="546.886" cy="393.891" r="4" fill="#0" id="circle51"/>
	<circle cx="561.692" cy="152.06" r="4" fill="#0" id="circle52"/>
	<circle cx="586.368" cy="354.408" r="4" fill="#0" id="circle53"/>
	<circle cx="611.045" cy="152.06" r="4" fill="#0" id="circle54"/>
	<circle cx="611.045" cy="309.99" r="4" fill="#0" id="circle55"/>
	<circle cx="660.398" cy="152.06" r="4" fill="#0" id="circle56"/>
	<circle cx="660.398" cy="305.055" r="4" fill="#0" id="circle57"/>
	<circle cx="690.01" cy="191.542" r="4" fill="#0" id="circle58"/>
	<circle cx="690.01" cy="240.896" r="4" fill="#0" id="circle59"/>
	<circle cx="709.751" cy="290.249" r="4" fill="#0" id="circle60"/>
	</g>
</svg>