<?xml version="1.0" encoding="UTF-8" standalone="no"?>
<!-- Created with CurveBenchmark -->
<svg
	xmlns:dc="http://purl.org/dc/elements/1.1/"
	xmlns:cc="http://creativecommons.org/ns#"
	xmlns:rdf="http://www.w3.org/1999/02/22-rdf-syntax-ns#"
	xmlns:svg="http://www.w3.org/2000/svg"
	xmlns="http://www.w3.org/2000/svg"
	xmlns:sodipodi="http://sodipodi.sourceforge.net/DTD/sodipodi-0.dtd"
	xmlns:inkscape="http://www.inkscape.org/namespaces/inkscape"
	width="1000"
	height="1000"
	id="svg2"
	version="1.1"
	sodipodi:docname="manifold/gathan1-cat26.png.txt">
<defs
	id="defs4" />
<metadata
	id="metadata7">
	<rdf:RDF>
		<cc:Work
			rdf:about="">
			<dc:format>image/svg+xml</dc:format>
			<dc:type
				rdf:resource="http://purl.org/dc/dcmitype/StillImage" />
			<dc:title></dc:title>
		</cc:Work>
	</rdf:RDF>
</metadata>
<g
	inkscape:label="Layer 1"
	inkscape:groupmode="layer"
	id="layer1">
	<path style="fill:none;stroke:red;stroke-width:1px;stroke-linecap:butt;stroke-linejoin:miter;stroke-opacity:1" d="M 18.1714,8.25143 32.3429,4 z" id="boundary" inkscape:connector-curvature="0" />
	<path style="fill:none;stroke:red;stroke-width:1px;stroke-linecap:butt;stroke-linejoin:miter;stroke-opacity:1" d="M 18.1714,22.4229 18.1714,8.25143 z" id="boundary" inkscape:connector-curvature="0" />
	<path style="fill:none;stroke:red;stroke-width:1px;stroke-linecap:butt;stroke-linejoin:miter;stroke-opacity:1" d="M 29.5086,32.3429 18.1714,22.4229 z" id="boundary" inkscape:connector-curvature="0" />
	<path style="fill:none;stroke:red;stroke-width:1px;stroke-linecap:butt;stroke-linejoin:miter;stroke-opacity:1" d="M 11.0857,72.0229 18.1714,84.7771 z" id="boundary" inkscape:connector-curvature="0" />
	<path style="fill:none;stroke:red;stroke-width:1px;stroke-linecap:butt;stroke-linejoin:miter;stroke-opacity:1" d="M 18.1714,84.7771 11.0857,100.366 z" id="boundary" inkscape:connector-curvature="0" />
	<path style="fill:none;stroke:red;stroke-width:1px;stroke-linecap:butt;stroke-linejoin:miter;stroke-opacity:1" d="M 11.0857,72.0229 22.4229,60.6857 z" id="boundary" inkscape:connector-curvature="0" />
	<path style="fill:none;stroke:red;stroke-width:1px;stroke-linecap:butt;stroke-linejoin:miter;stroke-opacity:1" d="M 22.4229,60.6857 32.3429,46.5143 z" id="boundary" inkscape:connector-curvature="0" />
	<path style="fill:none;stroke:red;stroke-width:1px;stroke-linecap:butt;stroke-linejoin:miter;stroke-opacity:1" d="M 29.5086,32.3429 32.3429,46.5143 z" id="boundary" inkscape:connector-curvature="0" />
	<path style="fill:none;stroke:red;stroke-width:1px;stroke-linecap:butt;stroke-linejoin:miter;stroke-opacity:1" d="M 32.3429,4 46.5143,4 z" id="boundary" inkscape:connector-curvature="0" />
	<path style="fill:none;stroke:red;stroke-width:1px;stroke-linecap:butt;stroke-linejoin:miter;stroke-opacity:1" d="M 59.2686,11.0857 46.5143,4 z" id="boundary" inkscape:connector-curvature="0" />
	<path style="fill:none;stroke:red;stroke-width:1px;stroke-linecap:butt;stroke-linejoin:miter;stroke-opacity:1" d="M 73.44,11.0857 59.2686,11.0857 z" id="boundary" inkscape:connector-curvature="0" />
	<path style="fill:none;stroke:red;stroke-width:1px;stroke-linecap:butt;stroke-linejoin:miter;stroke-opacity:1" d="M 73.44,11.0857 87.6114,11.0857 z" id="boundary" inkscape:connector-curvature="0" />
	<path style="fill:none;stroke:red;stroke-width:1px;stroke-linecap:butt;stroke-linejoin:miter;stroke-opacity:1" d="M 101.783,11.0857 87.6114,11.0857 z" id="boundary" inkscape:connector-curvature="0" />
	<path style="fill:none;stroke:red;stroke-width:1px;stroke-linecap:butt;stroke-linejoin:miter;stroke-opacity:1" d="M 115.954,11.0857 101.783,11.0857 z" id="boundary" inkscape:connector-curvature="0" />
	<path style="fill:none;stroke:red;stroke-width:1px;stroke-linecap:butt;stroke-linejoin:miter;stroke-opacity:1" d="M 130.126,12.5029 115.954,11.0857 z" id="boundary" inkscape:connector-curvature="0" />
	<path style="fill:none;stroke:red;stroke-width:1px;stroke-linecap:butt;stroke-linejoin:miter;stroke-opacity:1" d="M 4,114.537 11.0857,100.366 z" id="boundary" inkscape:connector-curvature="0" />
	<path style="fill:none;stroke:red;stroke-width:1px;stroke-linecap:butt;stroke-linejoin:miter;stroke-opacity:1" d="M 4,128.709 4,114.537 z" id="boundary" inkscape:connector-curvature="0" />
	<path style="fill:none;stroke:red;stroke-width:1px;stroke-linecap:butt;stroke-linejoin:miter;stroke-opacity:1" d="M 4,142.88 11.0857,155.634 z" id="boundary" inkscape:connector-curvature="0" />
	<path style="fill:none;stroke:red;stroke-width:1px;stroke-linecap:butt;stroke-linejoin:miter;stroke-opacity:1" d="M 25.2571,161.303 11.0857,155.634 z" id="boundary" inkscape:connector-curvature="0" />
	<path style="fill:none;stroke:red;stroke-width:1px;stroke-linecap:butt;stroke-linejoin:miter;stroke-opacity:1" d="M 25.2571,161.303 38.0114,168.389 z" id="boundary" inkscape:connector-curvature="0" />
	<path style="fill:none;stroke:red;stroke-width:1px;stroke-linecap:butt;stroke-linejoin:miter;stroke-opacity:1" d="M 4,142.88 4,128.709 z" id="boundary" inkscape:connector-curvature="0" />
	<path style="fill:none;stroke:red;stroke-width:1px;stroke-linecap:butt;stroke-linejoin:miter;stroke-opacity:1" d="M 50.7657,175.474 64.9371,175.474 z" id="boundary" inkscape:connector-curvature="0" />
	<path style="fill:none;stroke:red;stroke-width:1px;stroke-linecap:butt;stroke-linejoin:miter;stroke-opacity:1" d="M 50.7657,175.474 38.0114,168.389 z" id="boundary" inkscape:connector-curvature="0" />
	<path style="fill:none;stroke:red;stroke-width:1px;stroke-linecap:butt;stroke-linejoin:miter;stroke-opacity:1" d="M 79.1086,175.474 93.28,175.474 z" id="boundary" inkscape:connector-curvature="0" />
	<path style="fill:none;stroke:red;stroke-width:1px;stroke-linecap:butt;stroke-linejoin:miter;stroke-opacity:1" d="M 79.1086,175.474 64.9371,175.474 z" id="boundary" inkscape:connector-curvature="0" />
	<path style="fill:none;stroke:red;stroke-width:1px;stroke-linecap:butt;stroke-linejoin:miter;stroke-opacity:1" d="M 118.789,185.394 124.457,199.566 z" id="boundary" inkscape:connector-curvature="0" />
	<path style="fill:none;stroke:red;stroke-width:1px;stroke-linecap:butt;stroke-linejoin:miter;stroke-opacity:1" d="M 118.789,185.394 107.451,175.474 z" id="boundary" inkscape:connector-curvature="0" />
	<path style="fill:none;stroke:red;stroke-width:1px;stroke-linecap:butt;stroke-linejoin:miter;stroke-opacity:1" d="M 135.794,209.486 124.457,199.566 z" id="boundary" inkscape:connector-curvature="0" />
	<path style="fill:none;stroke:red;stroke-width:1px;stroke-linecap:butt;stroke-linejoin:miter;stroke-opacity:1" d="M 93.28,175.474 107.451,175.474 z" id="boundary" inkscape:connector-curvature="0" />
	<path style="fill:none;stroke:red;stroke-width:1px;stroke-linecap:butt;stroke-linejoin:miter;stroke-opacity:1" d="M 135.794,209.486 145.714,220.823 z" id="boundary" inkscape:connector-curvature="0" />
	<path style="fill:none;stroke:red;stroke-width:1px;stroke-linecap:butt;stroke-linejoin:miter;stroke-opacity:1" d="M 130.126,12.5029 140.046,23.84 z" id="boundary" inkscape:connector-curvature="0" />
	<path style="fill:none;stroke:red;stroke-width:1px;stroke-linecap:butt;stroke-linejoin:miter;stroke-opacity:1" d="M 140.046,23.84 154.217,25.2571 z" id="boundary" inkscape:connector-curvature="0" />
	<path style="fill:none;stroke:red;stroke-width:1px;stroke-linecap:butt;stroke-linejoin:miter;stroke-opacity:1" d="M 154.217,25.2571 166.971,32.3429 z" id="boundary" inkscape:connector-curvature="0" />
	<path style="fill:none;stroke:red;stroke-width:1px;stroke-linecap:butt;stroke-linejoin:miter;stroke-opacity:1" d="M 166.971,32.3429 179.726,39.4286 z" id="boundary" inkscape:connector-curvature="0" />
	<path style="fill:none;stroke:red;stroke-width:1px;stroke-linecap:butt;stroke-linejoin:miter;stroke-opacity:1" d="M 179.726,39.4286 192.48,46.5143 z" id="boundary" inkscape:connector-curvature="0" />
	<path style="fill:none;stroke:red;stroke-width:1px;stroke-linecap:butt;stroke-linejoin:miter;stroke-opacity:1" d="M 205.234,53.6 192.48,46.5143 z" id="boundary" inkscape:connector-curvature="0" />
	<path style="fill:none;stroke:red;stroke-width:1px;stroke-linecap:butt;stroke-linejoin:miter;stroke-opacity:1" d="M 205.234,53.6 217.989,60.6857 z" id="boundary" inkscape:connector-curvature="0" />
	<path style="fill:none;stroke:red;stroke-width:1px;stroke-linecap:butt;stroke-linejoin:miter;stroke-opacity:1" d="M 420.64,39.4286 434.811,39.4286 z" id="boundary" inkscape:connector-curvature="0" />
	<path style="fill:none;stroke:red;stroke-width:1px;stroke-linecap:butt;stroke-linejoin:miter;stroke-opacity:1" d="M 407.886,46.5143 420.64,39.4286 z" id="boundary" inkscape:connector-curvature="0" />
	<path style="fill:none;stroke:red;stroke-width:1px;stroke-linecap:butt;stroke-linejoin:miter;stroke-opacity:1" d="M 448.983,39.4286 463.154,39.4286 z" id="boundary" inkscape:connector-curvature="0" />
	<path style="fill:none;stroke:red;stroke-width:1px;stroke-linecap:butt;stroke-linejoin:miter;stroke-opacity:1" d="M 448.983,39.4286 434.811,39.4286 z" id="boundary" inkscape:connector-curvature="0" />
	<path style="fill:none;stroke:red;stroke-width:1px;stroke-linecap:butt;stroke-linejoin:miter;stroke-opacity:1" d="M 366.789,53.6 352.617,53.6 z" id="boundary" inkscape:connector-curvature="0" />
	<path style="fill:none;stroke:red;stroke-width:1px;stroke-linecap:butt;stroke-linejoin:miter;stroke-opacity:1" d="M 352.617,53.6 338.446,53.6 z" id="boundary" inkscape:connector-curvature="0" />
	<path style="fill:none;stroke:red;stroke-width:1px;stroke-linecap:butt;stroke-linejoin:miter;stroke-opacity:1" d="M 380.96,53.6 393.714,46.5143 z" id="boundary" inkscape:connector-curvature="0" />
	<path style="fill:none;stroke:red;stroke-width:1px;stroke-linecap:butt;stroke-linejoin:miter;stroke-opacity:1" d="M 393.714,46.5143 407.886,46.5143 z" id="boundary" inkscape:connector-curvature="0" />
	<path style="fill:none;stroke:red;stroke-width:1px;stroke-linecap:butt;stroke-linejoin:miter;stroke-opacity:1" d="M 491.497,39.4286 477.326,40.8457 z" id="boundary" inkscape:connector-curvature="0" />
	<path style="fill:none;stroke:red;stroke-width:1px;stroke-linecap:butt;stroke-linejoin:miter;stroke-opacity:1" d="M 477.326,40.8457 463.154,39.4286 z" id="boundary" inkscape:connector-curvature="0" />
	<path style="fill:none;stroke:red;stroke-width:1px;stroke-linecap:butt;stroke-linejoin:miter;stroke-opacity:1" d="M 325.691,60.6857 338.446,53.6 z" id="boundary" inkscape:connector-curvature="0" />
	<path style="fill:none;stroke:red;stroke-width:1px;stroke-linecap:butt;stroke-linejoin:miter;stroke-opacity:1" d="M 232.16,60.6857 244.914,67.7714 z" id="boundary" inkscape:connector-curvature="0" />
	<path style="fill:none;stroke:red;stroke-width:1px;stroke-linecap:butt;stroke-linejoin:miter;stroke-opacity:1" d="M 217.989,60.6857 232.16,60.6857 z" id="boundary" inkscape:connector-curvature="0" />
	<path style="fill:none;stroke:red;stroke-width:1px;stroke-linecap:butt;stroke-linejoin:miter;stroke-opacity:1" d="M 157.051,230.743 145.714,220.823 z" id="boundary" inkscape:connector-curvature="0" />
	<path style="fill:none;stroke:red;stroke-width:1px;stroke-linecap:butt;stroke-linejoin:miter;stroke-opacity:1" d="M 157.051,230.743 166.971,242.08 z" id="boundary" inkscape:connector-curvature="0" />
	<path style="fill:none;stroke:red;stroke-width:1px;stroke-linecap:butt;stroke-linejoin:miter;stroke-opacity:1" d="M 166.971,242.08 174.057,254.834 z" id="boundary" inkscape:connector-curvature="0" />
	<path style="fill:none;stroke:red;stroke-width:1px;stroke-linecap:butt;stroke-linejoin:miter;stroke-opacity:1" d="M 174.057,254.834 181.143,267.589 z" id="boundary" inkscape:connector-curvature="0" />
	<path style="fill:none;stroke:red;stroke-width:1px;stroke-linecap:butt;stroke-linejoin:miter;stroke-opacity:1" d="M 244.914,67.7714 257.669,74.8571 z" id="boundary" inkscape:connector-curvature="0" />
	<path style="fill:none;stroke:red;stroke-width:1px;stroke-linecap:butt;stroke-linejoin:miter;stroke-opacity:1" d="M 297.349,60.6857 311.52,60.6857 z" id="boundary" inkscape:connector-curvature="0" />
	<path style="fill:none;stroke:red;stroke-width:1px;stroke-linecap:butt;stroke-linejoin:miter;stroke-opacity:1" d="M 284.594,67.7714 297.349,60.6857 z" id="boundary" inkscape:connector-curvature="0" />
	<path style="fill:none;stroke:red;stroke-width:1px;stroke-linecap:butt;stroke-linejoin:miter;stroke-opacity:1" d="M 325.691,60.6857 311.52,60.6857 z" id="boundary" inkscape:connector-curvature="0" />
	<path style="fill:none;stroke:red;stroke-width:1px;stroke-linecap:butt;stroke-linejoin:miter;stroke-opacity:1" d="M 380.96,53.6 366.789,53.6 z" id="boundary" inkscape:connector-curvature="0" />
	<path style="fill:none;stroke:red;stroke-width:1px;stroke-linecap:butt;stroke-linejoin:miter;stroke-opacity:1" d="M 257.669,74.8571 271.84,74.8571 z" id="boundary" inkscape:connector-curvature="0" />
	<path style="fill:none;stroke:red;stroke-width:1px;stroke-linecap:butt;stroke-linejoin:miter;stroke-opacity:1" d="M 284.594,67.7714 271.84,74.8571 z" id="boundary" inkscape:connector-curvature="0" />
	<path style="fill:none;stroke:red;stroke-width:1px;stroke-linecap:butt;stroke-linejoin:miter;stroke-opacity:1" d="M 189.646,278.926 200.983,288.846 z" id="boundary" inkscape:connector-curvature="0" />
	<path style="fill:none;stroke:red;stroke-width:1px;stroke-linecap:butt;stroke-linejoin:miter;stroke-opacity:1" d="M 189.646,278.926 181.143,267.589 z" id="boundary" inkscape:connector-curvature="0" />
	<path style="fill:none;stroke:red;stroke-width:1px;stroke-linecap:butt;stroke-linejoin:miter;stroke-opacity:1" d="M 210.903,300.183 200.983,288.846 z" id="boundary" inkscape:connector-curvature="0" />
	<path style="fill:none;stroke:red;stroke-width:1px;stroke-linecap:butt;stroke-linejoin:miter;stroke-opacity:1" d="M 222.24,310.103 210.903,300.183 z" id="boundary" inkscape:connector-curvature="0" />
	<path style="fill:none;stroke:red;stroke-width:1px;stroke-linecap:butt;stroke-linejoin:miter;stroke-opacity:1" d="M 222.24,310.103 223.657,324.274 z" id="boundary" inkscape:connector-curvature="0" />
	<path style="fill:none;stroke:red;stroke-width:1px;stroke-linecap:butt;stroke-linejoin:miter;stroke-opacity:1" d="M 223.657,324.274 223.657,341.28 z" id="boundary" inkscape:connector-curvature="0" />
	<path style="fill:none;stroke:red;stroke-width:1px;stroke-linecap:butt;stroke-linejoin:miter;stroke-opacity:1" d="M 223.657,355.451 223.657,341.28 z" id="boundary" inkscape:connector-curvature="0" />
	<path style="fill:none;stroke:red;stroke-width:1px;stroke-linecap:butt;stroke-linejoin:miter;stroke-opacity:1" d="M 223.657,355.451 223.657,369.623 z" id="boundary" inkscape:connector-curvature="0" />
	<path style="fill:none;stroke:red;stroke-width:1px;stroke-linecap:butt;stroke-linejoin:miter;stroke-opacity:1" d="M 230.743,382.377 223.657,369.623 z" id="boundary" inkscape:connector-curvature="0" />
	<path style="fill:none;stroke:red;stroke-width:1px;stroke-linecap:butt;stroke-linejoin:miter;stroke-opacity:1" d="M 223.657,397.966 230.743,382.377 z" id="boundary" inkscape:connector-curvature="0" />
	<path style="fill:none;stroke:red;stroke-width:1px;stroke-linecap:butt;stroke-linejoin:miter;stroke-opacity:1" d="M 281.76,395.131 274.674,409.303 z" id="boundary" inkscape:connector-curvature="0" />
	<path style="fill:none;stroke:red;stroke-width:1px;stroke-linecap:butt;stroke-linejoin:miter;stroke-opacity:1" d="M 223.657,412.137 223.657,426.309 z" id="boundary" inkscape:connector-curvature="0" />
	<path style="fill:none;stroke:red;stroke-width:1px;stroke-linecap:butt;stroke-linejoin:miter;stroke-opacity:1" d="M 223.657,426.309 216.571,440.48 z" id="boundary" inkscape:connector-curvature="0" />
	<path style="fill:none;stroke:red;stroke-width:1px;stroke-linecap:butt;stroke-linejoin:miter;stroke-opacity:1" d="M 274.674,409.303 274.674,423.474 z" id="boundary" inkscape:connector-curvature="0" />
	<path style="fill:none;stroke:red;stroke-width:1px;stroke-linecap:butt;stroke-linejoin:miter;stroke-opacity:1" d="M 223.657,412.137 223.657,397.966 z" id="boundary" inkscape:connector-curvature="0" />
	<path style="fill:none;stroke:red;stroke-width:1px;stroke-linecap:butt;stroke-linejoin:miter;stroke-opacity:1" d="M 188.229,475.909 188.229,490.08 z" id="boundary" inkscape:connector-curvature="0" />
	<path style="fill:none;stroke:red;stroke-width:1px;stroke-linecap:butt;stroke-linejoin:miter;stroke-opacity:1" d="M 199.566,500 188.229,490.08 z" id="boundary" inkscape:connector-curvature="0" />
	<path style="fill:none;stroke:red;stroke-width:1px;stroke-linecap:butt;stroke-linejoin:miter;stroke-opacity:1" d="M 188.229,475.909 199.566,464.571 z" id="boundary" inkscape:connector-curvature="0" />
	<path style="fill:none;stroke:red;stroke-width:1px;stroke-linecap:butt;stroke-linejoin:miter;stroke-opacity:1" d="M 213.737,457.486 199.566,464.571 z" id="boundary" inkscape:connector-curvature="0" />
	<path style="fill:none;stroke:red;stroke-width:1px;stroke-linecap:butt;stroke-linejoin:miter;stroke-opacity:1" d="M 216.571,440.48 213.737,457.486 z" id="boundary" inkscape:connector-curvature="0" />
	<path style="fill:none;stroke:red;stroke-width:1px;stroke-linecap:butt;stroke-linejoin:miter;stroke-opacity:1" d="M 210.903,508.503 199.566,500 z" id="boundary" inkscape:connector-curvature="0" />
	<path style="fill:none;stroke:red;stroke-width:1px;stroke-linecap:butt;stroke-linejoin:miter;stroke-opacity:1" d="M 225.074,508.503 210.903,508.503 z" id="boundary" inkscape:connector-curvature="0" />
	<path style="fill:none;stroke:red;stroke-width:1px;stroke-linecap:butt;stroke-linejoin:miter;stroke-opacity:1" d="M 225.074,508.503 239.246,501.417 z" id="boundary" inkscape:connector-curvature="0" />
	<path style="fill:none;stroke:red;stroke-width:1px;stroke-linecap:butt;stroke-linejoin:miter;stroke-opacity:1" d="M 250.583,491.497 239.246,501.417 z" id="boundary" inkscape:connector-curvature="0" />
	<path style="fill:none;stroke:red;stroke-width:1px;stroke-linecap:butt;stroke-linejoin:miter;stroke-opacity:1" d="M 280.343,490.08 270.423,507.086 z" id="boundary" inkscape:connector-curvature="0" />
	<path style="fill:none;stroke:red;stroke-width:1px;stroke-linecap:butt;stroke-linejoin:miter;stroke-opacity:1" d="M 257.669,477.326 250.583,491.497 z" id="boundary" inkscape:connector-curvature="0" />
	<path style="fill:none;stroke:red;stroke-width:1px;stroke-linecap:butt;stroke-linejoin:miter;stroke-opacity:1" d="M 257.669,477.326 264.754,463.154 z" id="boundary" inkscape:connector-curvature="0" />
	<path style="fill:none;stroke:red;stroke-width:1px;stroke-linecap:butt;stroke-linejoin:miter;stroke-opacity:1" d="M 259.086,518.423 259.086,532.594 z" id="boundary" inkscape:connector-curvature="0" />
	<path style="fill:none;stroke:red;stroke-width:1px;stroke-linecap:butt;stroke-linejoin:miter;stroke-opacity:1" d="M 270.423,542.514 259.086,532.594 z" id="boundary" inkscape:connector-curvature="0" />
	<path style="fill:none;stroke:red;stroke-width:1px;stroke-linecap:butt;stroke-linejoin:miter;stroke-opacity:1" d="M 259.086,518.423 270.423,507.086 z" id="boundary" inkscape:connector-curvature="0" />
	<path style="fill:none;stroke:red;stroke-width:1px;stroke-linecap:butt;stroke-linejoin:miter;stroke-opacity:1" d="M 284.594,543.931 270.423,542.514 z" id="boundary" inkscape:connector-curvature="0" />
	<path style="fill:none;stroke:red;stroke-width:1px;stroke-linecap:butt;stroke-linejoin:miter;stroke-opacity:1" d="M 264.754,463.154 267.589,444.731 z" id="boundary" inkscape:connector-curvature="0" />
	<path style="fill:none;stroke:red;stroke-width:1px;stroke-linecap:butt;stroke-linejoin:miter;stroke-opacity:1" d="M 366.789,352.617 366.789,338.446 z" id="boundary" inkscape:connector-curvature="0" />
	<path style="fill:none;stroke:red;stroke-width:1px;stroke-linecap:butt;stroke-linejoin:miter;stroke-opacity:1" d="M 366.789,338.446 373.874,317.189 z" id="boundary" inkscape:connector-curvature="0" />
	<path style="fill:none;stroke:red;stroke-width:1px;stroke-linecap:butt;stroke-linejoin:miter;stroke-opacity:1" d="M 373.874,317.189 388.046,317.189 z" id="boundary" inkscape:connector-curvature="0" />
	<path style="fill:none;stroke:red;stroke-width:1px;stroke-linecap:butt;stroke-linejoin:miter;stroke-opacity:1" d="M 366.789,352.617 359.703,366.789 z" id="boundary" inkscape:connector-curvature="0" />
	<path style="fill:none;stroke:red;stroke-width:1px;stroke-linecap:butt;stroke-linejoin:miter;stroke-opacity:1" d="M 294.514,402.217 294.514,416.389 z" id="boundary" inkscape:connector-curvature="0" />
	<path style="fill:none;stroke:red;stroke-width:1px;stroke-linecap:butt;stroke-linejoin:miter;stroke-opacity:1" d="M 294.514,402.217 281.76,395.131 z" id="boundary" inkscape:connector-curvature="0" />
	<path style="fill:none;stroke:red;stroke-width:1px;stroke-linecap:butt;stroke-linejoin:miter;stroke-opacity:1" d="M 352.617,402.217 352.617,388.046 z" id="boundary" inkscape:connector-curvature="0" />
	<path style="fill:none;stroke:red;stroke-width:1px;stroke-linecap:butt;stroke-linejoin:miter;stroke-opacity:1" d="M 352.617,388.046 359.703,366.789 z" id="boundary" inkscape:connector-curvature="0" />
	<path style="fill:none;stroke:red;stroke-width:1px;stroke-linecap:butt;stroke-linejoin:miter;stroke-opacity:1" d="M 443.314,310.103 457.486,310.103 z" id="boundary" inkscape:connector-curvature="0" />
	<path style="fill:none;stroke:red;stroke-width:1px;stroke-linecap:butt;stroke-linejoin:miter;stroke-opacity:1" d="M 430.56,317.189 443.314,310.103 z" id="boundary" inkscape:connector-curvature="0" />
	<path style="fill:none;stroke:red;stroke-width:1px;stroke-linecap:butt;stroke-linejoin:miter;stroke-opacity:1" d="M 485.829,305.851 471.657,310.103 z" id="boundary" inkscape:connector-curvature="0" />
	<path style="fill:none;stroke:red;stroke-width:1px;stroke-linecap:butt;stroke-linejoin:miter;stroke-opacity:1" d="M 471.657,310.103 457.486,310.103 z" id="boundary" inkscape:connector-curvature="0" />
	<path style="fill:none;stroke:red;stroke-width:1px;stroke-linecap:butt;stroke-linejoin:miter;stroke-opacity:1" d="M 388.046,317.189 402.217,317.189 z" id="boundary" inkscape:connector-curvature="0" />
	<path style="fill:none;stroke:red;stroke-width:1px;stroke-linecap:butt;stroke-linejoin:miter;stroke-opacity:1" d="M 416.389,317.189 430.56,317.189 z" id="boundary" inkscape:connector-curvature="0" />
	<path style="fill:none;stroke:red;stroke-width:1px;stroke-linecap:butt;stroke-linejoin:miter;stroke-opacity:1" d="M 416.389,317.189 402.217,317.189 z" id="boundary" inkscape:connector-curvature="0" />
	<path style="fill:none;stroke:red;stroke-width:1px;stroke-linecap:butt;stroke-linejoin:miter;stroke-opacity:1" d="M 287.429,468.823 280.343,490.08 z" id="boundary" inkscape:connector-curvature="0" />
	<path style="fill:none;stroke:red;stroke-width:1px;stroke-linecap:butt;stroke-linejoin:miter;stroke-opacity:1" d="M 287.429,468.823 287.429,454.651 z" id="boundary" inkscape:connector-curvature="0" />
	<path style="fill:none;stroke:red;stroke-width:1px;stroke-linecap:butt;stroke-linejoin:miter;stroke-opacity:1" d="M 297.349,536.846 284.594,543.931 z" id="boundary" inkscape:connector-curvature="0" />
	<path style="fill:none;stroke:red;stroke-width:1px;stroke-linecap:butt;stroke-linejoin:miter;stroke-opacity:1" d="M 297.349,536.846 310.103,529.76 z" id="boundary" inkscape:connector-curvature="0" />
	<path style="fill:none;stroke:red;stroke-width:1px;stroke-linecap:butt;stroke-linejoin:miter;stroke-opacity:1" d="M 324.274,515.589 310.103,529.76 z" id="boundary" inkscape:connector-curvature="0" />
	<path style="fill:none;stroke:red;stroke-width:1px;stroke-linecap:butt;stroke-linejoin:miter;stroke-opacity:1" d="M 294.514,430.56 294.514,416.389 z" id="boundary" inkscape:connector-curvature="0" />
	<path style="fill:none;stroke:red;stroke-width:1px;stroke-linecap:butt;stroke-linejoin:miter;stroke-opacity:1" d="M 345.531,451.817 338.446,473.074 z" id="boundary" inkscape:connector-curvature="0" />
	<path style="fill:none;stroke:red;stroke-width:1px;stroke-linecap:butt;stroke-linejoin:miter;stroke-opacity:1" d="M 345.531,451.817 345.531,437.646 z" id="boundary" inkscape:connector-curvature="0" />
	<path style="fill:none;stroke:red;stroke-width:1px;stroke-linecap:butt;stroke-linejoin:miter;stroke-opacity:1" d="M 345.531,437.646 352.617,416.389 z" id="boundary" inkscape:connector-curvature="0" />
	<path style="fill:none;stroke:red;stroke-width:1px;stroke-linecap:butt;stroke-linejoin:miter;stroke-opacity:1" d="M 352.617,416.389 352.617,402.217 z" id="boundary" inkscape:connector-curvature="0" />
	<path style="fill:none;stroke:red;stroke-width:1px;stroke-linecap:butt;stroke-linejoin:miter;stroke-opacity:1" d="M 324.274,515.589 331.36,501.417 z" id="boundary" inkscape:connector-curvature="0" />
	<path style="fill:none;stroke:red;stroke-width:1px;stroke-linecap:butt;stroke-linejoin:miter;stroke-opacity:1" d="M 338.446,487.246 331.36,501.417 z" id="boundary" inkscape:connector-curvature="0" />
	<path style="fill:none;stroke:red;stroke-width:1px;stroke-linecap:butt;stroke-linejoin:miter;stroke-opacity:1" d="M 338.446,487.246 338.446,473.074 z" id="boundary" inkscape:connector-curvature="0" />
	<path style="fill:none;stroke:red;stroke-width:1px;stroke-linecap:butt;stroke-linejoin:miter;stroke-opacity:1" d="M 500,303.017 485.829,305.851 z" id="boundary" inkscape:connector-curvature="0" />
	<path style="fill:none;stroke:red;stroke-width:1px;stroke-linecap:butt;stroke-linejoin:miter;stroke-opacity:1" d="M 491.497,39.4286 505.669,39.4286 z" id="boundary" inkscape:connector-curvature="0" />
	<path style="fill:none;stroke:red;stroke-width:1px;stroke-linecap:butt;stroke-linejoin:miter;stroke-opacity:1" d="M 519.84,39.4286 505.669,39.4286 z" id="boundary" inkscape:connector-curvature="0" />
	<path style="fill:none;stroke:red;stroke-width:1px;stroke-linecap:butt;stroke-linejoin:miter;stroke-opacity:1" d="M 534.011,39.4286 548.183,39.4286 z" id="boundary" inkscape:connector-curvature="0" />
	<path style="fill:none;stroke:red;stroke-width:1px;stroke-linecap:butt;stroke-linejoin:miter;stroke-opacity:1" d="M 562.354,39.4286 576.526,39.4286 z" id="boundary" inkscape:connector-curvature="0" />
	<path style="fill:none;stroke:red;stroke-width:1px;stroke-linecap:butt;stroke-linejoin:miter;stroke-opacity:1" d="M 576.526,39.4286 589.28,46.5143 z" id="boundary" inkscape:connector-curvature="0" />
	<path style="fill:none;stroke:red;stroke-width:1px;stroke-linecap:butt;stroke-linejoin:miter;stroke-opacity:1" d="M 562.354,39.4286 548.183,39.4286 z" id="boundary" inkscape:connector-curvature="0" />
	<path style="fill:none;stroke:red;stroke-width:1px;stroke-linecap:butt;stroke-linejoin:miter;stroke-opacity:1" d="M 534.011,39.4286 519.84,39.4286 z" id="boundary" inkscape:connector-curvature="0" />
	<path style="fill:none;stroke:red;stroke-width:1px;stroke-linecap:butt;stroke-linejoin:miter;stroke-opacity:1" d="M 589.28,46.5143 602.034,39.4286 z" id="boundary" inkscape:connector-curvature="0" />
	<path style="fill:none;stroke:red;stroke-width:1px;stroke-linecap:butt;stroke-linejoin:miter;stroke-opacity:1" d="M 602.034,39.4286 614.789,46.5143 z" id="boundary" inkscape:connector-curvature="0" />
	<path style="fill:none;stroke:red;stroke-width:1px;stroke-linecap:butt;stroke-linejoin:miter;stroke-opacity:1" d="M 628.96,50.7657 614.789,46.5143 z" id="boundary" inkscape:connector-curvature="0" />
	<path style="fill:none;stroke:red;stroke-width:1px;stroke-linecap:butt;stroke-linejoin:miter;stroke-opacity:1" d="M 628.96,50.7657 641.714,57.8514 z" id="boundary" inkscape:connector-curvature="0" />
	<path style="fill:none;stroke:red;stroke-width:1px;stroke-linecap:butt;stroke-linejoin:miter;stroke-opacity:1" d="M 641.714,57.8514 655.886,60.6857 z" id="boundary" inkscape:connector-curvature="0" />
	<path style="fill:none;stroke:red;stroke-width:1px;stroke-linecap:butt;stroke-linejoin:miter;stroke-opacity:1" d="M 655.886,60.6857 667.223,69.1886 z" id="boundary" inkscape:connector-curvature="0" />
	<path style="fill:none;stroke:red;stroke-width:1px;stroke-linecap:butt;stroke-linejoin:miter;stroke-opacity:1" d="M 681.394,74.8571 667.223,69.1886 z" id="boundary" inkscape:connector-curvature="0" />
	<path style="fill:none;stroke:red;stroke-width:1px;stroke-linecap:butt;stroke-linejoin:miter;stroke-opacity:1" d="M 719.657,147.131 706.903,154.217 z" id="boundary" inkscape:connector-curvature="0" />
	<path style="fill:none;stroke:red;stroke-width:1px;stroke-linecap:butt;stroke-linejoin:miter;stroke-opacity:1" d="M 708.32,81.9429 694.149,81.9429 z" id="boundary" inkscape:connector-curvature="0" />
	<path style="fill:none;stroke:red;stroke-width:1px;stroke-linecap:butt;stroke-linejoin:miter;stroke-opacity:1" d="M 694.149,81.9429 681.394,74.8571 z" id="boundary" inkscape:connector-curvature="0" />
	<path style="fill:none;stroke:red;stroke-width:1px;stroke-linecap:butt;stroke-linejoin:miter;stroke-opacity:1" d="M 706.903,168.389 706.903,154.217 z" id="boundary" inkscape:connector-curvature="0" />
	<path style="fill:none;stroke:red;stroke-width:1px;stroke-linecap:butt;stroke-linejoin:miter;stroke-opacity:1" d="M 692.731,217.989 692.731,203.817 z" id="boundary" inkscape:connector-curvature="0" />
	<path style="fill:none;stroke:red;stroke-width:1px;stroke-linecap:butt;stroke-linejoin:miter;stroke-opacity:1" d="M 692.731,203.817 699.817,189.646 z" id="boundary" inkscape:connector-curvature="0" />
	<path style="fill:none;stroke:red;stroke-width:1px;stroke-linecap:butt;stroke-linejoin:miter;stroke-opacity:1" d="M 706.903,168.389 699.817,189.646 z" id="boundary" inkscape:connector-curvature="0" />
	<path style="fill:none;stroke:red;stroke-width:1px;stroke-linecap:butt;stroke-linejoin:miter;stroke-opacity:1" d="M 708.32,81.9429 721.074,89.0286 z" id="boundary" inkscape:connector-curvature="0" />
	<path style="fill:none;stroke:red;stroke-width:1px;stroke-linecap:butt;stroke-linejoin:miter;stroke-opacity:1" d="M 721.074,89.0286 735.246,89.0286 z" id="boundary" inkscape:connector-curvature="0" />
	<path style="fill:none;stroke:red;stroke-width:1px;stroke-linecap:butt;stroke-linejoin:miter;stroke-opacity:1" d="M 749.417,89.0286 763.589,89.0286 z" id="boundary" inkscape:connector-curvature="0" />
	<path style="fill:none;stroke:red;stroke-width:1px;stroke-linecap:butt;stroke-linejoin:miter;stroke-opacity:1" d="M 749.417,89.0286 735.246,89.0286 z" id="boundary" inkscape:connector-curvature="0" />
	<path style="fill:none;stroke:red;stroke-width:1px;stroke-linecap:butt;stroke-linejoin:miter;stroke-opacity:1" d="M 733.829,147.131 719.657,147.131 z" id="boundary" inkscape:connector-curvature="0" />
	<path style="fill:none;stroke:red;stroke-width:1px;stroke-linecap:butt;stroke-linejoin:miter;stroke-opacity:1" d="M 748,147.131 760.754,154.217 z" id="boundary" inkscape:connector-curvature="0" />
	<path style="fill:none;stroke:red;stroke-width:1px;stroke-linecap:butt;stroke-linejoin:miter;stroke-opacity:1" d="M 733.829,147.131 748,147.131 z" id="boundary" inkscape:connector-curvature="0" />
	<path style="fill:none;stroke:red;stroke-width:1px;stroke-linecap:butt;stroke-linejoin:miter;stroke-opacity:1" d="M 774.926,154.217 760.754,154.217 z" id="boundary" inkscape:connector-curvature="0" />
	<path style="fill:none;stroke:red;stroke-width:1px;stroke-linecap:butt;stroke-linejoin:miter;stroke-opacity:1" d="M 763.589,89.0286 777.76,93.28 z" id="boundary" inkscape:connector-curvature="0" />
	<path style="fill:none;stroke:red;stroke-width:1px;stroke-linecap:butt;stroke-linejoin:miter;stroke-opacity:1" d="M 777.76,93.28 791.931,96.1143 z" id="boundary" inkscape:connector-curvature="0" />
	<path style="fill:none;stroke:red;stroke-width:1px;stroke-linecap:butt;stroke-linejoin:miter;stroke-opacity:1" d="M 804.686,103.2 791.931,96.1143 z" id="boundary" inkscape:connector-curvature="0" />
	<path style="fill:none;stroke:red;stroke-width:1px;stroke-linecap:butt;stroke-linejoin:miter;stroke-opacity:1" d="M 787.68,161.303 800.434,168.389 z" id="boundary" inkscape:connector-curvature="0" />
	<path style="fill:none;stroke:red;stroke-width:1px;stroke-linecap:butt;stroke-linejoin:miter;stroke-opacity:1" d="M 787.68,161.303 774.926,154.217 z" id="boundary" inkscape:connector-curvature="0" />
	<path style="fill:none;stroke:red;stroke-width:1px;stroke-linecap:butt;stroke-linejoin:miter;stroke-opacity:1" d="M 817.44,110.286 830.194,117.371 z" id="boundary" inkscape:connector-curvature="0" />
	<path style="fill:none;stroke:red;stroke-width:1px;stroke-linecap:butt;stroke-linejoin:miter;stroke-opacity:1" d="M 804.686,103.2 817.44,110.286 z" id="boundary" inkscape:connector-curvature="0" />
	<path style="fill:none;stroke:red;stroke-width:1px;stroke-linecap:butt;stroke-linejoin:miter;stroke-opacity:1" d="M 692.731,232.16 692.731,217.989 z" id="boundary" inkscape:connector-curvature="0" />
	<path style="fill:none;stroke:red;stroke-width:1px;stroke-linecap:butt;stroke-linejoin:miter;stroke-opacity:1" d="M 811.771,176.891 800.434,168.389 z" id="boundary" inkscape:connector-curvature="0" />
	<path style="fill:none;stroke:red;stroke-width:1px;stroke-linecap:butt;stroke-linejoin:miter;stroke-opacity:1" d="M 842.949,124.457 830.194,117.371 z" id="boundary" inkscape:connector-curvature="0" />
	<path style="fill:none;stroke:red;stroke-width:1px;stroke-linecap:butt;stroke-linejoin:miter;stroke-opacity:1" d="M 842.949,124.457 855.703,131.543 z" id="boundary" inkscape:connector-curvature="0" />
	<path style="fill:none;stroke:red;stroke-width:1px;stroke-linecap:butt;stroke-linejoin:miter;stroke-opacity:1" d="M 855.703,131.543 867.04,140.046 z" id="boundary" inkscape:connector-curvature="0" />
	<path style="fill:none;stroke:red;stroke-width:1px;stroke-linecap:butt;stroke-linejoin:miter;stroke-opacity:1" d="M 876.96,151.383 891.131,157.051 z" id="boundary" inkscape:connector-curvature="0" />
	<path style="fill:none;stroke:red;stroke-width:1px;stroke-linecap:butt;stroke-linejoin:miter;stroke-opacity:1" d="M 876.96,151.383 867.04,140.046 z" id="boundary" inkscape:connector-curvature="0" />
	<path style="fill:none;stroke:red;stroke-width:1px;stroke-linecap:butt;stroke-linejoin:miter;stroke-opacity:1" d="M 891.131,157.051 903.886,164.137 z" id="boundary" inkscape:connector-curvature="0" />
	<path style="fill:none;stroke:red;stroke-width:1px;stroke-linecap:butt;stroke-linejoin:miter;stroke-opacity:1" d="M 915.223,174.057 903.886,164.137 z" id="boundary" inkscape:connector-curvature="0" />
	<path style="fill:none;stroke:red;stroke-width:1px;stroke-linecap:butt;stroke-linejoin:miter;stroke-opacity:1" d="M 929.394,174.057 915.223,174.057 z" id="boundary" inkscape:connector-curvature="0" />
	<path style="fill:none;stroke:red;stroke-width:1px;stroke-linecap:butt;stroke-linejoin:miter;stroke-opacity:1" d="M 811.771,176.891 825.943,182.56 z" id="boundary" inkscape:connector-curvature="0" />
	<path style="fill:none;stroke:red;stroke-width:1px;stroke-linecap:butt;stroke-linejoin:miter;stroke-opacity:1" d="M 825.943,182.56 838.697,189.646 z" id="boundary" inkscape:connector-curvature="0" />
	<path style="fill:none;stroke:red;stroke-width:1px;stroke-linecap:butt;stroke-linejoin:miter;stroke-opacity:1" d="M 876.96,210.903 862.789,206.651 z" id="boundary" inkscape:connector-curvature="0" />
	<path style="fill:none;stroke:red;stroke-width:1px;stroke-linecap:butt;stroke-linejoin:miter;stroke-opacity:1" d="M 851.451,196.731 838.697,189.646 z" id="boundary" inkscape:connector-curvature="0" />
	<path style="fill:none;stroke:red;stroke-width:1px;stroke-linecap:butt;stroke-linejoin:miter;stroke-opacity:1" d="M 851.451,196.731 862.789,206.651 z" id="boundary" inkscape:connector-curvature="0" />
	<path style="fill:none;stroke:red;stroke-width:1px;stroke-linecap:butt;stroke-linejoin:miter;stroke-opacity:1" d="M 876.96,210.903 891.131,213.737 z" id="boundary" inkscape:connector-curvature="0" />
	<path style="fill:none;stroke:red;stroke-width:1px;stroke-linecap:butt;stroke-linejoin:miter;stroke-opacity:1" d="M 905.303,217.989 891.131,213.737 z" id="boundary" inkscape:connector-curvature="0" />
	<path style="fill:none;stroke:red;stroke-width:1px;stroke-linecap:butt;stroke-linejoin:miter;stroke-opacity:1" d="M 905.303,217.989 918.057,225.074 z" id="boundary" inkscape:connector-curvature="0" />
	<path style="fill:none;stroke:red;stroke-width:1px;stroke-linecap:butt;stroke-linejoin:miter;stroke-opacity:1" d="M 929.394,174.057 943.566,174.057 z" id="boundary" inkscape:connector-curvature="0" />
	<path style="fill:none;stroke:red;stroke-width:1px;stroke-linecap:butt;stroke-linejoin:miter;stroke-opacity:1" d="M 956.32,181.143 970.491,181.143 z" id="boundary" inkscape:connector-curvature="0" />
	<path style="fill:none;stroke:red;stroke-width:1px;stroke-linecap:butt;stroke-linejoin:miter;stroke-opacity:1" d="M 956.32,181.143 943.566,174.057 z" id="boundary" inkscape:connector-curvature="0" />
	<path style="fill:none;stroke:red;stroke-width:1px;stroke-linecap:butt;stroke-linejoin:miter;stroke-opacity:1" d="M 984.663,181.143 970.491,181.143 z" id="boundary" inkscape:connector-curvature="0" />
	<path style="fill:none;stroke:red;stroke-width:1px;stroke-linecap:butt;stroke-linejoin:miter;stroke-opacity:1" d="M 932.229,225.074 918.057,225.074 z" id="boundary" inkscape:connector-curvature="0" />
	<path style="fill:none;stroke:red;stroke-width:1px;stroke-linecap:butt;stroke-linejoin:miter;stroke-opacity:1" d="M 984.663,181.143 996,191.063 z" id="boundary" inkscape:connector-curvature="0" />
	<path style="fill:none;stroke:red;stroke-width:1px;stroke-linecap:butt;stroke-linejoin:miter;stroke-opacity:1" d="M 996,191.063 994.583,215.154 z" id="boundary" inkscape:connector-curvature="0" />
	<path style="fill:none;stroke:red;stroke-width:1px;stroke-linecap:butt;stroke-linejoin:miter;stroke-opacity:1" d="M 500,303.017 514.171,303.017 z" id="boundary" inkscape:connector-curvature="0" />
	<path style="fill:none;stroke:red;stroke-width:1px;stroke-linecap:butt;stroke-linejoin:miter;stroke-opacity:1" d="M 528.343,303.017 514.171,303.017 z" id="boundary" inkscape:connector-curvature="0" />
	<path style="fill:none;stroke:red;stroke-width:1px;stroke-linecap:butt;stroke-linejoin:miter;stroke-opacity:1" d="M 528.343,303.017 536.846,314.354 z" id="boundary" inkscape:connector-curvature="0" />
	<path style="fill:none;stroke:red;stroke-width:1px;stroke-linecap:butt;stroke-linejoin:miter;stroke-opacity:1" d="M 536.846,314.354 549.6,321.44 z" id="boundary" inkscape:connector-curvature="0" />
	<path style="fill:none;stroke:red;stroke-width:1px;stroke-linecap:butt;stroke-linejoin:miter;stroke-opacity:1" d="M 560.937,331.36 568.023,344.114 z" id="boundary" inkscape:connector-curvature="0" />
	<path style="fill:none;stroke:red;stroke-width:1px;stroke-linecap:butt;stroke-linejoin:miter;stroke-opacity:1" d="M 549.6,321.44 560.937,331.36 z" id="boundary" inkscape:connector-curvature="0" />
	<path style="fill:none;stroke:red;stroke-width:1px;stroke-linecap:butt;stroke-linejoin:miter;stroke-opacity:1" d="M 580.777,351.2 568.023,344.114 z" id="boundary" inkscape:connector-curvature="0" />
	<path style="fill:none;stroke:red;stroke-width:1px;stroke-linecap:butt;stroke-linejoin:miter;stroke-opacity:1" d="M 580.777,351.2 592.114,359.703 z" id="boundary" inkscape:connector-curvature="0" />
	<path style="fill:none;stroke:red;stroke-width:1px;stroke-linecap:butt;stroke-linejoin:miter;stroke-opacity:1" d="M 592.114,359.703 596.366,373.874 z" id="boundary" inkscape:connector-curvature="0" />
	<path style="fill:none;stroke:red;stroke-width:1px;stroke-linecap:butt;stroke-linejoin:miter;stroke-opacity:1" d="M 592.114,390.88 596.366,373.874 z" id="boundary" inkscape:connector-curvature="0" />
	<path style="fill:none;stroke:red;stroke-width:1px;stroke-linecap:butt;stroke-linejoin:miter;stroke-opacity:1" d="M 661.554,409.303 647.383,413.554 z" id="boundary" inkscape:connector-curvature="0" />
	<path style="fill:none;stroke:red;stroke-width:1px;stroke-linecap:butt;stroke-linejoin:miter;stroke-opacity:1" d="M 592.114,390.88 585.029,412.137 z" id="boundary" inkscape:connector-curvature="0" />
	<path style="fill:none;stroke:red;stroke-width:1px;stroke-linecap:butt;stroke-linejoin:miter;stroke-opacity:1" d="M 577.943,433.394 585.029,412.137 z" id="boundary" inkscape:connector-curvature="0" />
	<path style="fill:none;stroke:red;stroke-width:1px;stroke-linecap:butt;stroke-linejoin:miter;stroke-opacity:1" d="M 628.96,437.646 640.297,427.726 z" id="boundary" inkscape:connector-curvature="0" />
	<path style="fill:none;stroke:red;stroke-width:1px;stroke-linecap:butt;stroke-linejoin:miter;stroke-opacity:1" d="M 647.383,413.554 640.297,427.726 z" id="boundary" inkscape:connector-curvature="0" />
	<path style="fill:none;stroke:red;stroke-width:1px;stroke-linecap:butt;stroke-linejoin:miter;stroke-opacity:1" d="M 546.766,485.829 535.429,475.909 z" id="boundary" inkscape:connector-curvature="0" />
	<path style="fill:none;stroke:red;stroke-width:1px;stroke-linecap:butt;stroke-linejoin:miter;stroke-opacity:1" d="M 535.429,475.909 542.514,461.737 z" id="boundary" inkscape:connector-curvature="0" />
	<path style="fill:none;stroke:red;stroke-width:1px;stroke-linecap:butt;stroke-linejoin:miter;stroke-opacity:1" d="M 553.851,450.4 568.023,450.4 z" id="boundary" inkscape:connector-curvature="0" />
	<path style="fill:none;stroke:red;stroke-width:1px;stroke-linecap:butt;stroke-linejoin:miter;stroke-opacity:1" d="M 542.514,461.737 553.851,450.4 z" id="boundary" inkscape:connector-curvature="0" />
	<path style="fill:none;stroke:red;stroke-width:1px;stroke-linecap:butt;stroke-linejoin:miter;stroke-opacity:1" d="M 577.943,433.394 568.023,450.4 z" id="boundary" inkscape:connector-curvature="0" />
	<path style="fill:none;stroke:red;stroke-width:1px;stroke-linecap:butt;stroke-linejoin:miter;stroke-opacity:1" d="M 546.766,485.829 559.52,492.914 z" id="boundary" inkscape:connector-curvature="0" />
	<path style="fill:none;stroke:red;stroke-width:1px;stroke-linecap:butt;stroke-linejoin:miter;stroke-opacity:1" d="M 573.691,494.331 586.446,487.246 z" id="boundary" inkscape:connector-curvature="0" />
	<path style="fill:none;stroke:red;stroke-width:1px;stroke-linecap:butt;stroke-linejoin:miter;stroke-opacity:1" d="M 573.691,494.331 559.52,492.914 z" id="boundary" inkscape:connector-curvature="0" />
	<path style="fill:none;stroke:red;stroke-width:1px;stroke-linecap:butt;stroke-linejoin:miter;stroke-opacity:1" d="M 600.617,480.16 586.446,487.246 z" id="boundary" inkscape:connector-curvature="0" />
	<path style="fill:none;stroke:red;stroke-width:1px;stroke-linecap:butt;stroke-linejoin:miter;stroke-opacity:1" d="M 614.789,465.989 626.126,456.069 z" id="boundary" inkscape:connector-curvature="0" />
	<path style="fill:none;stroke:red;stroke-width:1px;stroke-linecap:butt;stroke-linejoin:miter;stroke-opacity:1" d="M 628.96,437.646 626.126,456.069 z" id="boundary" inkscape:connector-curvature="0" />
	<path style="fill:none;stroke:red;stroke-width:1px;stroke-linecap:butt;stroke-linejoin:miter;stroke-opacity:1" d="M 660.137,457.486 648.8,468.823 z" id="boundary" inkscape:connector-curvature="0" />
	<path style="fill:none;stroke:red;stroke-width:1px;stroke-linecap:butt;stroke-linejoin:miter;stroke-opacity:1" d="M 614.789,465.989 600.617,480.16 z" id="boundary" inkscape:connector-curvature="0" />
	<path style="fill:none;stroke:red;stroke-width:1px;stroke-linecap:butt;stroke-linejoin:miter;stroke-opacity:1" d="M 648.8,468.823 638.88,485.829 z" id="boundary" inkscape:connector-curvature="0" />
	<path style="fill:none;stroke:red;stroke-width:1px;stroke-linecap:butt;stroke-linejoin:miter;stroke-opacity:1" d="M 627.543,497.166 636.046,508.503 z" id="boundary" inkscape:connector-curvature="0" />
	<path style="fill:none;stroke:red;stroke-width:1px;stroke-linecap:butt;stroke-linejoin:miter;stroke-opacity:1" d="M 650.217,508.503 636.046,508.503 z" id="boundary" inkscape:connector-curvature="0" />
	<path style="fill:none;stroke:red;stroke-width:1px;stroke-linecap:butt;stroke-linejoin:miter;stroke-opacity:1" d="M 692.731,246.331 692.731,260.503 z" id="boundary" inkscape:connector-curvature="0" />
	<path style="fill:none;stroke:red;stroke-width:1px;stroke-linecap:butt;stroke-linejoin:miter;stroke-opacity:1" d="M 692.731,260.503 692.731,274.674 z" id="boundary" inkscape:connector-curvature="0" />
	<path style="fill:none;stroke:red;stroke-width:1px;stroke-linecap:butt;stroke-linejoin:miter;stroke-opacity:1" d="M 692.731,288.846 695.566,303.017 z" id="boundary" inkscape:connector-curvature="0" />
	<path style="fill:none;stroke:red;stroke-width:1px;stroke-linecap:butt;stroke-linejoin:miter;stroke-opacity:1" d="M 692.731,288.846 692.731,274.674 z" id="boundary" inkscape:connector-curvature="0" />
	<path style="fill:none;stroke:red;stroke-width:1px;stroke-linecap:butt;stroke-linejoin:miter;stroke-opacity:1" d="M 702.651,315.771 706.903,329.943 z" id="boundary" inkscape:connector-curvature="0" />
	<path style="fill:none;stroke:red;stroke-width:1px;stroke-linecap:butt;stroke-linejoin:miter;stroke-opacity:1" d="M 702.651,315.771 695.566,303.017 z" id="boundary" inkscape:connector-curvature="0" />
	<path style="fill:none;stroke:red;stroke-width:1px;stroke-linecap:butt;stroke-linejoin:miter;stroke-opacity:1" d="M 692.731,246.331 692.731,232.16 z" id="boundary" inkscape:connector-curvature="0" />
	<path style="fill:none;stroke:red;stroke-width:1px;stroke-linecap:butt;stroke-linejoin:miter;stroke-opacity:1" d="M 932.229,225.074 946.4,225.074 z" id="boundary" inkscape:connector-curvature="0" />
	<path style="fill:none;stroke:red;stroke-width:1px;stroke-linecap:butt;stroke-linejoin:miter;stroke-opacity:1" d="M 946.4,225.074 959.154,232.16 z" id="boundary" inkscape:connector-curvature="0" />
	<path style="fill:none;stroke:red;stroke-width:1px;stroke-linecap:butt;stroke-linejoin:miter;stroke-opacity:1" d="M 973.326,232.16 959.154,232.16 z" id="boundary" inkscape:connector-curvature="0" />
	<path style="fill:none;stroke:red;stroke-width:1px;stroke-linecap:butt;stroke-linejoin:miter;stroke-opacity:1" d="M 994.583,215.154 987.497,229.326 z" id="boundary" inkscape:connector-curvature="0" />
	<path style="fill:none;stroke:red;stroke-width:1px;stroke-linecap:butt;stroke-linejoin:miter;stroke-opacity:1" d="M 987.497,229.326 973.326,232.16 z" id="boundary" inkscape:connector-curvature="0" />
	<path style="fill:none;stroke:red;stroke-width:1px;stroke-linecap:butt;stroke-linejoin:miter;stroke-opacity:1" d="M 706.903,329.943 713.989,342.697 z" id="boundary" inkscape:connector-curvature="0" />
	<path style="fill:none;stroke:red;stroke-width:1px;stroke-linecap:butt;stroke-linejoin:miter;stroke-opacity:1" d="M 713.989,342.697 713.989,356.869 z" id="boundary" inkscape:connector-curvature="0" />
	<path style="fill:none;stroke:red;stroke-width:1px;stroke-linecap:butt;stroke-linejoin:miter;stroke-opacity:1" d="M 721.074,369.623 713.989,356.869 z" id="boundary" inkscape:connector-curvature="0" />
	<path style="fill:none;stroke:red;stroke-width:1px;stroke-linecap:butt;stroke-linejoin:miter;stroke-opacity:1" d="M 662.971,423.474 662.971,437.646 z" id="boundary" inkscape:connector-curvature="0" />
	<path style="fill:none;stroke:red;stroke-width:1px;stroke-linecap:butt;stroke-linejoin:miter;stroke-opacity:1" d="M 662.971,437.646 660.137,457.486 z" id="boundary" inkscape:connector-curvature="0" />
	<path style="fill:none;stroke:red;stroke-width:1px;stroke-linecap:butt;stroke-linejoin:miter;stroke-opacity:1" d="M 695.566,478.743 688.48,492.914 z" id="boundary" inkscape:connector-curvature="0" />
	<path style="fill:none;stroke:red;stroke-width:1px;stroke-linecap:butt;stroke-linejoin:miter;stroke-opacity:1" d="M 650.217,508.503 664.389,508.503 z" id="boundary" inkscape:connector-curvature="0" />
	<path style="fill:none;stroke:red;stroke-width:1px;stroke-linecap:butt;stroke-linejoin:miter;stroke-opacity:1" d="M 677.143,501.417 664.389,508.503 z" id="boundary" inkscape:connector-curvature="0" />
	<path style="fill:none;stroke:red;stroke-width:1px;stroke-linecap:butt;stroke-linejoin:miter;stroke-opacity:1" d="M 688.48,492.914 677.143,501.417 z" id="boundary" inkscape:connector-curvature="0" />
	<path style="fill:none;stroke:red;stroke-width:1px;stroke-linecap:butt;stroke-linejoin:miter;stroke-opacity:1" d="M 662.971,423.474 661.554,409.303 z" id="boundary" inkscape:connector-curvature="0" />
	<path style="fill:none;stroke:red;stroke-width:1px;stroke-linecap:butt;stroke-linejoin:miter;stroke-opacity:1" d="M 721.074,416.389 713.989,430.56 z" id="boundary" inkscape:connector-curvature="0" />
	<path style="fill:none;stroke:red;stroke-width:1px;stroke-linecap:butt;stroke-linejoin:miter;stroke-opacity:1" d="M 728.16,396.549 721.074,416.389 z" id="boundary" inkscape:connector-curvature="0" />
	<path style="fill:none;stroke:red;stroke-width:1px;stroke-linecap:butt;stroke-linejoin:miter;stroke-opacity:1" d="M 728.16,382.377 728.16,396.549 z" id="boundary" inkscape:connector-curvature="0" />
	<path style="fill:none;stroke:red;stroke-width:1px;stroke-linecap:butt;stroke-linejoin:miter;stroke-opacity:1" d="M 721.074,369.623 728.16,382.377 z" id="boundary" inkscape:connector-curvature="0" />
	<path style="fill:none;stroke:red;stroke-width:1px;stroke-linecap:butt;stroke-linejoin:miter;stroke-opacity:1" d="M 695.566,478.743 702.651,464.571 z" id="boundary" inkscape:connector-curvature="0" />
	<path style="fill:none;stroke:red;stroke-width:1px;stroke-linecap:butt;stroke-linejoin:miter;stroke-opacity:1" d="M 709.737,450.4 713.989,430.56 z" id="boundary" inkscape:connector-curvature="0" />
	<path style="fill:none;stroke:red;stroke-width:1px;stroke-linecap:butt;stroke-linejoin:miter;stroke-opacity:1" d="M 709.737,450.4 702.651,464.571 z" id="boundary" inkscape:connector-curvature="0" />
	<circle cx="4" cy="114.537" r="4" fill="#0" id="circle0"/>
	<circle cx="4" cy="128.709" r="4" fill="#0" id="circle1"/>
	<circle cx="4" cy="142.88" r="4" fill="#0" id="circle2"/>
	<circle cx="11.0857" cy="72.0229" r="4" fill="#0" id="circle3"/>
	<circle cx="11.0857" cy="100.366" r="4" fill="#0" id="circle4"/>
	<circle cx="11.0857" cy="155.634" r="4" fill="#0" id="circle5"/>
	<circle cx="18.1714" cy="8.25143" r="4" fill="#0" id="circle6"/>
	<circle cx="18.1714" cy="22.4229" r="4" fill="#0" id="circle7"/>
	<circle cx="18.1714" cy="84.7771" r="4" fill="#0" id="circle8"/>
	<circle cx="22.4229" cy="60.6857" r="4" fill="#0" id="circle9"/>
	<circle cx="25.2571" cy="161.303" r="4" fill="#0" id="circle10"/>
	<circle cx="29.5086" cy="32.3429" r="4" fill="#0" id="circle11"/>
	<circle cx="32.3429" cy="4" r="4" fill="#0" id="circle12"/>
	<circle cx="32.3429" cy="46.5143" r="4" fill="#0" id="circle13"/>
	<circle cx="38.0114" cy="168.389" r="4" fill="#0" id="circle14"/>
	<circle cx="46.5143" cy="4" r="4" fill="#0" id="circle15"/>
	<circle cx="50.7657" cy="175.474" r="4" fill="#0" id="circle16"/>
	<circle cx="59.2686" cy="11.0857" r="4" fill="#0" id="circle17"/>
	<circle cx="64.9371" cy="175.474" r="4" fill="#0" id="circle18"/>
	<circle cx="73.44" cy="11.0857" r="4" fill="#0" id="circle19"/>
	<circle cx="79.1086" cy="175.474" r="4" fill="#0" id="circle20"/>
	<circle cx="87.6114" cy="11.0857" r="4" fill="#0" id="circle21"/>
	<circle cx="93.28" cy="175.474" r="4" fill="#0" id="circle22"/>
	<circle cx="101.783" cy="11.0857" r="4" fill="#0" id="circle23"/>
	<circle cx="107.451" cy="175.474" r="4" fill="#0" id="circle24"/>
	<circle cx="115.954" cy="11.0857" r="4" fill="#0" id="circle25"/>
	<circle cx="118.789" cy="185.394" r="4" fill="#0" id="circle26"/>
	<circle cx="124.457" cy="199.566" r="4" fill="#0" id="circle27"/>
	<circle cx="130.126" cy="12.5029" r="4" fill="#0" id="circle28"/>
	<circle cx="135.794" cy="209.486" r="4" fill="#0" id="circle29"/>
	<circle cx="140.046" cy="23.84" r="4" fill="#0" id="circle30"/>
	<circle cx="145.714" cy="220.823" r="4" fill="#0" id="circle31"/>
	<circle cx="154.217" cy="25.2571" r="4" fill="#0" id="circle32"/>
	<circle cx="157.051" cy="230.743" r="4" fill="#0" id="circle33"/>
	<circle cx="166.971" cy="32.3429" r="4" fill="#0" id="circle34"/>
	<circle cx="166.971" cy="242.08" r="4" fill="#0" id="circle35"/>
	<circle cx="174.057" cy="254.834" r="4" fill="#0" id="circle36"/>
	<circle cx="179.726" cy="39.4286" r="4" fill="#0" id="circle37"/>
	<circle cx="181.143" cy="267.589" r="4" fill="#0" id="circle38"/>
	<circle cx="188.229" cy="475.909" r="4" fill="#0" id="circle39"/>
	<circle cx="188.229" cy="490.08" r="4" fill="#0" id="circle40"/>
	<circle cx="189.646" cy="278.926" r="4" fill="#0" id="circle41"/>
	<circle cx="192.48" cy="46.5143" r="4" fill="#0" id="circle42"/>
	<circle cx="199.566" cy="464.571" r="4" fill="#0" id="circle43"/>
	<circle cx="199.566" cy="500" r="4" fill="#0" id="circle44"/>
	<circle cx="200.983" cy="288.846" r="4" fill="#0" id="circle45"/>
	<circle cx="205.234" cy="53.6" r="4" fill="#0" id="circle46"/>
	<circle cx="210.903" cy="300.183" r="4" fill="#0" id="circle47"/>
	<circle cx="210.903" cy="508.503" r="4" fill="#0" id="circle48"/>
	<circle cx="213.737" cy="457.486" r="4" fill="#0" id="circle49"/>
	<circle cx="216.571" cy="440.48" r="4" fill="#0" id="circle50"/>
	<circle cx="217.989" cy="60.6857" r="4" fill="#0" id="circle51"/>
	<circle cx="222.24" cy="310.103" r="4" fill="#0" id="circle52"/>
	<circle cx="223.657" cy="324.274" r="4" fill="#0" id="circle53"/>
	<circle cx="223.657" cy="341.28" r="4" fill="#0" id="circle54"/>
	<circle cx="223.657" cy="355.451" r="4" fill="#0" id="circle55"/>
	<circle cx="223.657" cy="369.623" r="4" fill="#0" id="circle56"/>
	<circle cx="223.657" cy="397.966" r="4" fill="#0" id="circle57"/>
	<circle cx="223.657" cy="412.137" r="4" fill="#0" id="circle58"/>
	<circle cx="223.657" cy="426.309" r="4" fill="#0" id="circle59"/>
	<circle cx="225.074" cy="508.503" r="4" fill="#0" id="circle60"/>
	<circle cx="230.743" cy="382.377" r="4" fill="#0" id="circle61"/>
	<circle cx="232.16" cy="60.6857" r="4" fill="#0" id="circle62"/>
	<circle cx="239.246" cy="501.417" r="4" fill="#0" id="circle63"/>
	<circle cx="244.914" cy="67.7714" r="4" fill="#0" id="circle64"/>
	<circle cx="250.583" cy="491.497" r="4" fill="#0" id="circle65"/>
	<circle cx="257.669" cy="74.8571" r="4" fill="#0" id="circle66"/>
	<circle cx="257.669" cy="477.326" r="4" fill="#0" id="circle67"/>
	<circle cx="259.086" cy="518.423" r="4" fill="#0" id="circle68"/>
	<circle cx="259.086" cy="532.594" r="4" fill="#0" id="circle69"/>
	<circle cx="264.754" cy="463.154" r="4" fill="#0" id="circle70"/>
	<circle cx="267.589" cy="444.731" r="4" fill="#0" id="circle71"/>
	<circle cx="270.423" cy="507.086" r="4" fill="#0" id="circle72"/>
	<circle cx="270.423" cy="542.514" r="4" fill="#0" id="circle73"/>
	<circle cx="271.84" cy="74.8571" r="4" fill="#0" id="circle74"/>
	<circle cx="274.674" cy="409.303" r="4" fill="#0" id="circle75"/>
	<circle cx="274.674" cy="423.474" r="4" fill="#0" id="circle76"/>
	<circle cx="280.343" cy="490.08" r="4" fill="#0" id="circle77"/>
	<circle cx="281.76" cy="395.131" r="4" fill="#0" id="circle78"/>
	<circle cx="284.594" cy="67.7714" r="4" fill="#0" id="circle79"/>
	<circle cx="284.594" cy="543.931" r="4" fill="#0" id="circle80"/>
	<circle cx="287.429" cy="454.651" r="4" fill="#0" id="circle81"/>
	<circle cx="287.429" cy="468.823" r="4" fill="#0" id="circle82"/>
	<circle cx="294.514" cy="402.217" r="4" fill="#0" id="circle83"/>
	<circle cx="294.514" cy="416.389" r="4" fill="#0" id="circle84"/>
	<circle cx="294.514" cy="430.56" r="4" fill="#0" id="circle85"/>
	<circle cx="297.349" cy="60.6857" r="4" fill="#0" id="circle86"/>
	<circle cx="297.349" cy="536.846" r="4" fill="#0" id="circle87"/>
	<circle cx="310.103" cy="529.76" r="4" fill="#0" id="circle88"/>
	<circle cx="311.52" cy="60.6857" r="4" fill="#0" id="circle89"/>
	<circle cx="324.274" cy="515.589" r="4" fill="#0" id="circle90"/>
	<circle cx="325.691" cy="60.6857" r="4" fill="#0" id="circle91"/>
	<circle cx="331.36" cy="501.417" r="4" fill="#0" id="circle92"/>
	<circle cx="338.446" cy="53.6" r="4" fill="#0" id="circle93"/>
	<circle cx="338.446" cy="473.074" r="4" fill="#0" id="circle94"/>
	<circle cx="338.446" cy="487.246" r="4" fill="#0" id="circle95"/>
	<circle cx="345.531" cy="437.646" r="4" fill="#0" id="circle96"/>
	<circle cx="345.531" cy="451.817" r="4" fill="#0" id="circle97"/>
	<circle cx="352.617" cy="53.6" r="4" fill="#0" id="circle98"/>
	<circle cx="352.617" cy="388.046" r="4" fill="#0" id="circle99"/>
	<circle cx="352.617" cy="402.217" r="4" fill="#0" id="circle100"/>
	<circle cx="352.617" cy="416.389" r="4" fill="#0" id="circle101"/>
	<circle cx="359.703" cy="366.789" r="4" fill="#0" id="circle102"/>
	<circle cx="366.789" cy="53.6" r="4" fill="#0" id="circle103"/>
	<circle cx="366.789" cy="338.446" r="4" fill="#0" id="circle104"/>
	<circle cx="366.789" cy="352.617" r="4" fill="#0" id="circle105"/>
	<circle cx="373.874" cy="317.189" r="4" fill="#0" id="circle106"/>
	<circle cx="380.96" cy="53.6" r="4" fill="#0" id="circle107"/>
	<circle cx="388.046" cy="317.189" r="4" fill="#0" id="circle108"/>
	<circle cx="393.714" cy="46.5143" r="4" fill="#0" id="circle109"/>
	<circle cx="402.217" cy="317.189" r="4" fill="#0" id="circle110"/>
	<circle cx="407.886" cy="46.5143" r="4" fill="#0" id="circle111"/>
	<circle cx="416.389" cy="317.189" r="4" fill="#0" id="circle112"/>
	<circle cx="420.64" cy="39.4286" r="4" fill="#0" id="circle113"/>
	<circle cx="430.56" cy="317.189" r="4" fill="#0" id="circle114"/>
	<circle cx="434.811" cy="39.4286" r="4" fill="#0" id="circle115"/>
	<circle cx="443.314" cy="310.103" r="4" fill="#0" id="circle116"/>
	<circle cx="448.983" cy="39.4286" r="4" fill="#0" id="circle117"/>
	<circle cx="457.486" cy="310.103" r="4" fill="#0" id="circle118"/>
	<circle cx="463.154" cy="39.4286" r="4" fill="#0" id="circle119"/>
	<circle cx="471.657" cy="310.103" r="4" fill="#0" id="circle120"/>
	<circle cx="477.326" cy="40.8457" r="4" fill="#0" id="circle121"/>
	<circle cx="485.829" cy="305.851" r="4" fill="#0" id="circle122"/>
	<circle cx="491.497" cy="39.4286" r="4" fill="#0" id="circle123"/>
	<circle cx="500" cy="303.017" r="4" fill="#0" id="circle124"/>
	<circle cx="505.669" cy="39.4286" r="4" fill="#0" id="circle125"/>
	<circle cx="514.171" cy="303.017" r="4" fill="#0" id="circle126"/>
	<circle cx="519.84" cy="39.4286" r="4" fill="#0" id="circle127"/>
	<circle cx="528.343" cy="303.017" r="4" fill="#0" id="circle128"/>
	<circle cx="534.011" cy="39.4286" r="4" fill="#0" id="circle129"/>
	<circle cx="535.429" cy="475.909" r="4" fill="#0" id="circle130"/>
	<circle cx="536.846" cy="314.354" r="4" fill="#0" id="circle131"/>
	<circle cx="542.514" cy="461.737" r="4" fill="#0" id="circle132"/>
	<circle cx="546.766" cy="485.829" r="4" fill="#0" id="circle133"/>
	<circle cx="548.183" cy="39.4286" r="4" fill="#0" id="circle134"/>
	<circle cx="549.6" cy="321.44" r="4" fill="#0" id="circle135"/>
	<circle cx="553.851" cy="450.4" r="4" fill="#0" id="circle136"/>
	<circle cx="559.52" cy="492.914" r="4" fill="#0" id="circle137"/>
	<circle cx="560.937" cy="331.36" r="4" fill="#0" id="circle138"/>
	<circle cx="562.354" cy="39.4286" r="4" fill="#0" id="circle139"/>
	<circle cx="568.023" cy="344.114" r="4" fill="#0" id="circle140"/>
	<circle cx="568.023" cy="450.4" r="4" fill="#0" id="circle141"/>
	<circle cx="573.691" cy="494.331" r="4" fill="#0" id="circle142"/>
	<circle cx="576.526" cy="39.4286" r="4" fill="#0" id="circle143"/>
	<circle cx="577.943" cy="433.394" r="4" fill="#0" id="circle144"/>
	<circle cx="580.777" cy="351.2" r="4" fill="#0" id="circle145"/>
	<circle cx="585.029" cy="412.137" r="4" fill="#0" id="circle146"/>
	<circle cx="586.446" cy="487.246" r="4" fill="#0" id="circle147"/>
	<circle cx="589.28" cy="46.5143" r="4" fill="#0" id="circle148"/>
	<circle cx="592.114" cy="359.703" r="4" fill="#0" id="circle149"/>
	<circle cx="592.114" cy="390.88" r="4" fill="#0" id="circle150"/>
	<circle cx="596.366" cy="373.874" r="4" fill="#0" id="circle151"/>
	<circle cx="600.617" cy="480.16" r="4" fill="#0" id="circle152"/>
	<circle cx="602.034" cy="39.4286" r="4" fill="#0" id="circle153"/>
	<circle cx="614.789" cy="46.5143" r="4" fill="#0" id="circle154"/>
	<circle cx="614.789" cy="465.989" r="4" fill="#0" id="circle155"/>
	<circle cx="626.126" cy="456.069" r="4" fill="#0" id="circle156"/>
	<circle cx="627.543" cy="497.166" r="4" fill="#0" id="circle157"/>
	<circle cx="628.96" cy="50.7657" r="4" fill="#0" id="circle158"/>
	<circle cx="628.96" cy="437.646" r="4" fill="#0" id="circle159"/>
	<circle cx="636.046" cy="508.503" r="4" fill="#0" id="circle160"/>
	<circle cx="638.88" cy="485.829" r="4" fill="#0" id="circle161"/>
	<circle cx="640.297" cy="427.726" r="4" fill="#0" id="circle162"/>
	<circle cx="641.714" cy="57.8514" r="4" fill="#0" id="circle163"/>
	<circle cx="647.383" cy="413.554" r="4" fill="#0" id="circle164"/>
	<circle cx="648.8" cy="468.823" r="4" fill="#0" id="circle165"/>
	<circle cx="650.217" cy="508.503" r="4" fill="#0" id="circle166"/>
	<circle cx="655.886" cy="60.6857" r="4" fill="#0" id="circle167"/>
	<circle cx="660.137" cy="457.486" r="4" fill="#0" id="circle168"/>
	<circle cx="661.554" cy="409.303" r="4" fill="#0" id="circle169"/>
	<circle cx="662.971" cy="423.474" r="4" fill="#0" id="circle170"/>
	<circle cx="662.971" cy="437.646" r="4" fill="#0" id="circle171"/>
	<circle cx="664.389" cy="508.503" r="4" fill="#0" id="circle172"/>
	<circle cx="667.223" cy="69.1886" r="4" fill="#0" id="circle173"/>
	<circle cx="677.143" cy="501.417" r="4" fill="#0" id="circle174"/>
	<circle cx="681.394" cy="74.8571" r="4" fill="#0" id="circle175"/>
	<circle cx="688.48" cy="492.914" r="4" fill="#0" id="circle176"/>
	<circle cx="692.731" cy="203.817" r="4" fill="#0" id="circle177"/>
	<circle cx="692.731" cy="217.989" r="4" fill="#0" id="circle178"/>
	<circle cx="692.731" cy="232.16" r="4" fill="#0" id="circle179"/>
	<circle cx="692.731" cy="246.331" r="4" fill="#0" id="circle180"/>
	<circle cx="692.731" cy="260.503" r="4" fill="#0" id="circle181"/>
	<circle cx="692.731" cy="274.674" r="4" fill="#0" id="circle182"/>
	<circle cx="692.731" cy="288.846" r="4" fill="#0" id="circle183"/>
	<circle cx="694.149" cy="81.9429" r="4" fill="#0" id="circle184"/>
	<circle cx="695.566" cy="303.017" r="4" fill="#0" id="circle185"/>
	<circle cx="695.566" cy="478.743" r="4" fill="#0" id="circle186"/>
	<circle cx="699.817" cy="189.646" r="4" fill="#0" id="circle187"/>
	<circle cx="702.651" cy="315.771" r="4" fill="#0" id="circle188"/>
	<circle cx="702.651" cy="464.571" r="4" fill="#0" id="circle189"/>
	<circle cx="706.903" cy="154.217" r="4" fill="#0" id="circle190"/>
	<circle cx="706.903" cy="168.389" r="4" fill="#0" id="circle191"/>
	<circle cx="706.903" cy="329.943" r="4" fill="#0" id="circle192"/>
	<circle cx="708.32" cy="81.9429" r="4" fill="#0" id="circle193"/>
	<circle cx="709.737" cy="450.4" r="4" fill="#0" id="circle194"/>
	<circle cx="713.989" cy="342.697" r="4" fill="#0" id="circle195"/>
	<circle cx="713.989" cy="356.869" r="4" fill="#0" id="circle196"/>
	<circle cx="713.989" cy="430.56" r="4" fill="#0" id="circle197"/>
	<circle cx="719.657" cy="147.131" r="4" fill="#0" id="circle198"/>
	<circle cx="721.074" cy="89.0286" r="4" fill="#0" id="circle199"/>
	<circle cx="721.074" cy="369.623" r="4" fill="#0" id="circle200"/>
	<circle cx="721.074" cy="416.389" r="4" fill="#0" id="circle201"/>
	<circle cx="728.16" cy="382.377" r="4" fill="#0" id="circle202"/>
	<circle cx="728.16" cy="396.549" r="4" fill="#0" id="circle203"/>
	<circle cx="733.829" cy="147.131" r="4" fill="#0" id="circle204"/>
	<circle cx="735.246" cy="89.0286" r="4" fill="#0" id="circle205"/>
	<circle cx="748" cy="147.131" r="4" fill="#0" id="circle206"/>
	<circle cx="749.417" cy="89.0286" r="4" fill="#0" id="circle207"/>
	<circle cx="760.754" cy="154.217" r="4" fill="#0" id="circle208"/>
	<circle cx="763.589" cy="89.0286" r="4" fill="#0" id="circle209"/>
	<circle cx="774.926" cy="154.217" r="4" fill="#0" id="circle210"/>
	<circle cx="777.76" cy="93.28" r="4" fill="#0" id="circle211"/>
	<circle cx="787.68" cy="161.303" r="4" fill="#0" id="circle212"/>
	<circle cx="791.931" cy="96.1143" r="4" fill="#0" id="circle213"/>
	<circle cx="800.434" cy="168.389" r="4" fill="#0" id="circle214"/>
	<circle cx="804.686" cy="103.2" r="4" fill="#0" id="circle215"/>
	<circle cx="811.771" cy="176.891" r="4" fill="#0" id="circle216"/>
	<circle cx="817.44" cy="110.286" r="4" fill="#0" id="circle217"/>
	<circle cx="825.943" cy="182.56" r="4" fill="#0" id="circle218"/>
	<circle cx="830.194" cy="117.371" r="4" fill="#0" id="circle219"/>
	<circle cx="838.697" cy="189.646" r="4" fill="#0" id="circle220"/>
	<circle cx="842.949" cy="124.457" r="4" fill="#0" id="circle221"/>
	<circle cx="851.451" cy="196.731" r="4" fill="#0" id="circle222"/>
	<circle cx="855.703" cy="131.543" r="4" fill="#0" id="circle223"/>
	<circle cx="862.789" cy="206.651" r="4" fill="#0" id="circle224"/>
	<circle cx="867.04" cy="140.046" r="4" fill="#0" id="circle225"/>
	<circle cx="876.96" cy="151.383" r="4" fill="#0" id="circle226"/>
	<circle cx="876.96" cy="210.903" r="4" fill="#0" id="circle227"/>
	<circle cx="891.131" cy="157.051" r="4" fill="#0" id="circle228"/>
	<circle cx="891.131" cy="213.737" r="4" fill="#0" id="circle229"/>
	<circle cx="903.886" cy="164.137" r="4" fill="#0" id="circle230"/>
	<circle cx="905.303" cy="217.989" r="4" fill="#0" id="circle231"/>
	<circle cx="915.223" cy="174.057" r="4" fill="#0" id="circle232"/>
	<circle cx="918.057" cy="225.074" r="4" fill="#0" id="circle233"/>
	<circle cx="929.394" cy="174.057" r="4" fill="#0" id="circle234"/>
	<circle cx="932.229" cy="225.074" r="4" fill="#0" id="circle235"/>
	<circle cx="943.566" cy="174.057" r="4" fill="#0" id="circle236"/>
	<circle cx="946.4" cy="225.074" r="4" fill="#0" id="circle237"/>
	<circle cx="956.32" cy="181.143" r="4" fill="#0" id="circle238"/>
	<circle cx="959.154" cy="232.16" r="4" fill="#0" id="circle239"/>
	<circle cx="970.491" cy="181.143" r="4" fill="#0" id="circle240"/>
	<circle cx="973.326" cy="232.16" r="4" fill="#0" id="circle241"/>
	<circle cx="984.663" cy="181.143" r="4" fill="#0" id="circle242"/>
	<circle cx="987.497" cy="229.326" r="4" fill="#0" id="circle243"/>
	<circle cx="994.583" cy="215.154" r="4" fill="#0" id="circle244"/>
	<circle cx="996" cy="191.063" r="4" fill="#0" id="circle245"/>
	</g>
</svg>