<?xml version="1.0" encoding="UTF-8" standalone="no"?>
<!-- Created with CurveBenchmark -->
<svg
	xmlns:dc="http://purl.org/dc/elements/1.1/"
	xmlns:cc="http://creativecommons.org/ns#"
	xmlns:rdf="http://www.w3.org/1999/02/22-rdf-syntax-ns#"
	xmlns:svg="http://www.w3.org/2000/svg"
	xmlns="http://www.w3.org/2000/svg"
	xmlns:sodipodi="http://sodipodi.sourceforge.net/DTD/sodipodi-0.dtd"
	xmlns:inkscape="http://www.inkscape.org/namespaces/inkscape"
	width="1000"
	height="1000"
	id="svg2"
	version="1.1"
	sodipodi:docname="manifold/gathang-fish0704.png.txt">
<defs
	id="defs4" />
<metadata
	id="metadata7">
	<rdf:RDF>
		<cc:Work
			rdf:about="">
			<dc:format>image/svg+xml</dc:format>
			<dc:type
				rdf:resource="http://purl.org/dc/dcmitype/StillImage" />
			<dc:title></dc:title>
		</cc:Work>
	</rdf:RDF>
</metadata>
<g
	inkscape:label="Layer 1"
	inkscape:groupmode="layer"
	id="layer1">
	<path style="fill:none;stroke:red;stroke-width:1px;stroke-linecap:butt;stroke-linejoin:miter;stroke-opacity:1" d="M 90.3861,25.5965 75.9884,25.5965 z" id="boundary" inkscape:connector-curvature="0" />
	<path style="fill:none;stroke:red;stroke-width:1px;stroke-linecap:butt;stroke-linejoin:miter;stroke-opacity:1" d="M 132.139,18.3977 117.742,18.3977 z" id="boundary" inkscape:connector-curvature="0" />
	<path style="fill:none;stroke:red;stroke-width:1px;stroke-linecap:butt;stroke-linejoin:miter;stroke-opacity:1" d="M 104.784,25.5965 117.742,18.3977 z" id="boundary" inkscape:connector-curvature="0" />
	<path style="fill:none;stroke:red;stroke-width:1px;stroke-linecap:butt;stroke-linejoin:miter;stroke-opacity:1" d="M 146.537,18.3977 132.139,18.3977 z" id="boundary" inkscape:connector-curvature="0" />
	<path style="fill:none;stroke:red;stroke-width:1px;stroke-linecap:butt;stroke-linejoin:miter;stroke-opacity:1" d="M 175.332,18.3977 160.935,18.3977 z" id="boundary" inkscape:connector-curvature="0" />
	<path style="fill:none;stroke:red;stroke-width:1px;stroke-linecap:butt;stroke-linejoin:miter;stroke-opacity:1" d="M 204.128,18.3977 189.73,18.3977 z" id="boundary" inkscape:connector-curvature="0" />
	<path style="fill:none;stroke:red;stroke-width:1px;stroke-linecap:butt;stroke-linejoin:miter;stroke-opacity:1" d="M 218.525,18.3977 204.128,18.3977 z" id="boundary" inkscape:connector-curvature="0" />
	<path style="fill:none;stroke:red;stroke-width:1px;stroke-linecap:butt;stroke-linejoin:miter;stroke-opacity:1" d="M 175.332,18.3977 189.73,18.3977 z" id="boundary" inkscape:connector-curvature="0" />
	<path style="fill:none;stroke:red;stroke-width:1px;stroke-linecap:butt;stroke-linejoin:miter;stroke-opacity:1" d="M 146.537,18.3977 160.935,18.3977 z" id="boundary" inkscape:connector-curvature="0" />
	<path style="fill:none;stroke:red;stroke-width:1px;stroke-linecap:butt;stroke-linejoin:miter;stroke-opacity:1" d="M 4,44.3135 18.3977,37.1147 z" id="boundary" inkscape:connector-curvature="0" />
	<path style="fill:none;stroke:red;stroke-width:1px;stroke-linecap:butt;stroke-linejoin:miter;stroke-opacity:1" d="M 4,58.7112 18.3977,63.0305 z" id="boundary" inkscape:connector-curvature="0" />
	<path style="fill:none;stroke:red;stroke-width:1px;stroke-linecap:butt;stroke-linejoin:miter;stroke-opacity:1" d="M 4,58.7112 4,44.3135 z" id="boundary" inkscape:connector-curvature="0" />
	<path style="fill:none;stroke:red;stroke-width:1px;stroke-linecap:butt;stroke-linejoin:miter;stroke-opacity:1" d="M 18.3977,37.1147 32.7954,32.7954 z" id="boundary" inkscape:connector-curvature="0" />
	<path style="fill:none;stroke:red;stroke-width:1px;stroke-linecap:butt;stroke-linejoin:miter;stroke-opacity:1" d="M 104.784,25.5965 90.3861,25.5965 z" id="boundary" inkscape:connector-curvature="0" />
	<path style="fill:none;stroke:red;stroke-width:1px;stroke-linecap:butt;stroke-linejoin:miter;stroke-opacity:1" d="M 61.5907,29.9158 47.193,32.7954 z" id="boundary" inkscape:connector-curvature="0" />
	<path style="fill:none;stroke:red;stroke-width:1px;stroke-linecap:butt;stroke-linejoin:miter;stroke-opacity:1" d="M 47.193,32.7954 32.7954,32.7954 z" id="boundary" inkscape:connector-curvature="0" />
	<path style="fill:none;stroke:red;stroke-width:1px;stroke-linecap:butt;stroke-linejoin:miter;stroke-opacity:1" d="M 75.9884,25.5965 61.5907,29.9158 z" id="boundary" inkscape:connector-curvature="0" />
	<path style="fill:none;stroke:red;stroke-width:1px;stroke-linecap:butt;stroke-linejoin:miter;stroke-opacity:1" d="M 31.3556,70.2293 18.3977,63.0305 z" id="boundary" inkscape:connector-curvature="0" />
	<path style="fill:none;stroke:red;stroke-width:1px;stroke-linecap:butt;stroke-linejoin:miter;stroke-opacity:1" d="M 232.923,18.3977 247.321,18.3977 z" id="boundary" inkscape:connector-curvature="0" />
	<path style="fill:none;stroke:red;stroke-width:1px;stroke-linecap:butt;stroke-linejoin:miter;stroke-opacity:1" d="M 261.718,18.3977 276.116,18.3977 z" id="boundary" inkscape:connector-curvature="0" />
	<path style="fill:none;stroke:red;stroke-width:1px;stroke-linecap:butt;stroke-linejoin:miter;stroke-opacity:1" d="M 261.718,18.3977 247.321,18.3977 z" id="boundary" inkscape:connector-curvature="0" />
	<path style="fill:none;stroke:red;stroke-width:1px;stroke-linecap:butt;stroke-linejoin:miter;stroke-opacity:1" d="M 290.514,18.3977 304.911,18.3977 z" id="boundary" inkscape:connector-curvature="0" />
	<path style="fill:none;stroke:red;stroke-width:1px;stroke-linecap:butt;stroke-linejoin:miter;stroke-opacity:1" d="M 319.309,18.3977 333.707,18.3977 z" id="boundary" inkscape:connector-curvature="0" />
	<path style="fill:none;stroke:red;stroke-width:1px;stroke-linecap:butt;stroke-linejoin:miter;stroke-opacity:1" d="M 348.104,18.3977 333.707,18.3977 z" id="boundary" inkscape:connector-curvature="0" />
	<path style="fill:none;stroke:red;stroke-width:1px;stroke-linecap:butt;stroke-linejoin:miter;stroke-opacity:1" d="M 348.104,18.3977 361.062,25.5965 z" id="boundary" inkscape:connector-curvature="0" />
	<path style="fill:none;stroke:red;stroke-width:1px;stroke-linecap:butt;stroke-linejoin:miter;stroke-opacity:1" d="M 319.309,18.3977 304.911,18.3977 z" id="boundary" inkscape:connector-curvature="0" />
	<path style="fill:none;stroke:red;stroke-width:1px;stroke-linecap:butt;stroke-linejoin:miter;stroke-opacity:1" d="M 290.514,18.3977 276.116,18.3977 z" id="boundary" inkscape:connector-curvature="0" />
	<path style="fill:none;stroke:red;stroke-width:1px;stroke-linecap:butt;stroke-linejoin:miter;stroke-opacity:1" d="M 361.062,25.5965 375.46,25.5965 z" id="boundary" inkscape:connector-curvature="0" />
	<path style="fill:none;stroke:red;stroke-width:1px;stroke-linecap:butt;stroke-linejoin:miter;stroke-opacity:1" d="M 389.858,25.5965 404.255,25.5965 z" id="boundary" inkscape:connector-curvature="0" />
	<path style="fill:none;stroke:red;stroke-width:1px;stroke-linecap:butt;stroke-linejoin:miter;stroke-opacity:1" d="M 418.653,25.5965 404.255,25.5965 z" id="boundary" inkscape:connector-curvature="0" />
	<path style="fill:none;stroke:red;stroke-width:1px;stroke-linecap:butt;stroke-linejoin:miter;stroke-opacity:1" d="M 389.858,25.5965 375.46,25.5965 z" id="boundary" inkscape:connector-curvature="0" />
	<path style="fill:none;stroke:red;stroke-width:1px;stroke-linecap:butt;stroke-linejoin:miter;stroke-opacity:1" d="M 433.051,25.5965 447.448,25.5965 z" id="boundary" inkscape:connector-curvature="0" />
	<path style="fill:none;stroke:red;stroke-width:1px;stroke-linecap:butt;stroke-linejoin:miter;stroke-opacity:1" d="M 447.448,25.5965 460.406,32.7954 z" id="boundary" inkscape:connector-curvature="0" />
	<path style="fill:none;stroke:red;stroke-width:1px;stroke-linecap:butt;stroke-linejoin:miter;stroke-opacity:1" d="M 474.804,32.7954 460.406,32.7954 z" id="boundary" inkscape:connector-curvature="0" />
	<path style="fill:none;stroke:red;stroke-width:1px;stroke-linecap:butt;stroke-linejoin:miter;stroke-opacity:1" d="M 489.202,32.7954 474.804,32.7954 z" id="boundary" inkscape:connector-curvature="0" />
	<path style="fill:none;stroke:red;stroke-width:1px;stroke-linecap:butt;stroke-linejoin:miter;stroke-opacity:1" d="M 503.599,32.7954 489.202,32.7954 z" id="boundary" inkscape:connector-curvature="0" />
	<path style="fill:none;stroke:red;stroke-width:1px;stroke-linecap:butt;stroke-linejoin:miter;stroke-opacity:1" d="M 418.653,25.5965 433.051,25.5965 z" id="boundary" inkscape:connector-curvature="0" />
	<path style="fill:none;stroke:red;stroke-width:1px;stroke-linecap:butt;stroke-linejoin:miter;stroke-opacity:1" d="M 218.525,18.3977 232.923,18.3977 z" id="boundary" inkscape:connector-curvature="0" />
	<path style="fill:none;stroke:red;stroke-width:1px;stroke-linecap:butt;stroke-linejoin:miter;stroke-opacity:1" d="M 31.3556,70.2293 37.1147,84.627 z" id="boundary" inkscape:connector-curvature="0" />
	<path style="fill:none;stroke:red;stroke-width:1px;stroke-linecap:butt;stroke-linejoin:miter;stroke-opacity:1" d="M 48.6328,94.7054 37.1147,84.627 z" id="boundary" inkscape:connector-curvature="0" />
	<path style="fill:none;stroke:red;stroke-width:1px;stroke-linecap:butt;stroke-linejoin:miter;stroke-opacity:1" d="M 48.6328,94.7054 58.7112,106.224 z" id="boundary" inkscape:connector-curvature="0" />
	<path style="fill:none;stroke:red;stroke-width:1px;stroke-linecap:butt;stroke-linejoin:miter;stroke-opacity:1" d="M 73.1089,106.224 58.7112,106.224 z" id="boundary" inkscape:connector-curvature="0" />
	<path style="fill:none;stroke:red;stroke-width:1px;stroke-linecap:butt;stroke-linejoin:miter;stroke-opacity:1" d="M 73.1089,106.224 87.5065,111.983 z" id="boundary" inkscape:connector-curvature="0" />
	<path style="fill:none;stroke:red;stroke-width:1px;stroke-linecap:butt;stroke-linejoin:miter;stroke-opacity:1" d="M 101.904,113.422 116.302,113.422 z" id="boundary" inkscape:connector-curvature="0" />
	<path style="fill:none;stroke:red;stroke-width:1px;stroke-linecap:butt;stroke-linejoin:miter;stroke-opacity:1" d="M 116.302,113.422 129.26,120.621 z" id="boundary" inkscape:connector-curvature="0" />
	<path style="fill:none;stroke:red;stroke-width:1px;stroke-linecap:butt;stroke-linejoin:miter;stroke-opacity:1" d="M 101.904,113.422 87.5065,111.983 z" id="boundary" inkscape:connector-curvature="0" />
	<path style="fill:none;stroke:red;stroke-width:1px;stroke-linecap:butt;stroke-linejoin:miter;stroke-opacity:1" d="M 143.657,120.621 129.26,120.621 z" id="boundary" inkscape:connector-curvature="0" />
	<path style="fill:none;stroke:red;stroke-width:1px;stroke-linecap:butt;stroke-linejoin:miter;stroke-opacity:1" d="M 143.657,120.621 158.055,120.621 z" id="boundary" inkscape:connector-curvature="0" />
	<path style="fill:none;stroke:red;stroke-width:1px;stroke-linecap:butt;stroke-linejoin:miter;stroke-opacity:1" d="M 158.055,120.621 171.013,127.82 z" id="boundary" inkscape:connector-curvature="0" />
	<path style="fill:none;stroke:red;stroke-width:1px;stroke-linecap:butt;stroke-linejoin:miter;stroke-opacity:1" d="M 171.013,127.82 185.411,130.7 z" id="boundary" inkscape:connector-curvature="0" />
	<path style="fill:none;stroke:red;stroke-width:1px;stroke-linecap:butt;stroke-linejoin:miter;stroke-opacity:1" d="M 185.411,130.7 198.369,137.898 z" id="boundary" inkscape:connector-curvature="0" />
	<path style="fill:none;stroke:red;stroke-width:1px;stroke-linecap:butt;stroke-linejoin:miter;stroke-opacity:1" d="M 198.369,137.898 209.887,147.977 z" id="boundary" inkscape:connector-curvature="0" />
	<path style="fill:none;stroke:red;stroke-width:1px;stroke-linecap:butt;stroke-linejoin:miter;stroke-opacity:1" d="M 209.887,147.977 215.646,162.374 z" id="boundary" inkscape:connector-curvature="0" />
	<path style="fill:none;stroke:red;stroke-width:1px;stroke-linecap:butt;stroke-linejoin:miter;stroke-opacity:1" d="M 215.646,162.374 227.164,171.013 z" id="boundary" inkscape:connector-curvature="0" />
	<path style="fill:none;stroke:red;stroke-width:1px;stroke-linecap:butt;stroke-linejoin:miter;stroke-opacity:1" d="M 227.164,171.013 235.803,182.531 z" id="boundary" inkscape:connector-curvature="0" />
	<path style="fill:none;stroke:red;stroke-width:1px;stroke-linecap:butt;stroke-linejoin:miter;stroke-opacity:1" d="M 235.803,182.531 247.321,192.61 z" id="boundary" inkscape:connector-curvature="0" />
	<path style="fill:none;stroke:red;stroke-width:1px;stroke-linecap:butt;stroke-linejoin:miter;stroke-opacity:1" d="M 340.906,142.218 326.508,142.218 z" id="boundary" inkscape:connector-curvature="0" />
	<path style="fill:none;stroke:red;stroke-width:1px;stroke-linecap:butt;stroke-linejoin:miter;stroke-opacity:1" d="M 312.11,142.218 326.508,142.218 z" id="boundary" inkscape:connector-curvature="0" />
	<path style="fill:none;stroke:red;stroke-width:1px;stroke-linecap:butt;stroke-linejoin:miter;stroke-opacity:1" d="M 355.303,142.218 368.261,135.019 z" id="boundary" inkscape:connector-curvature="0" />
	<path style="fill:none;stroke:red;stroke-width:1px;stroke-linecap:butt;stroke-linejoin:miter;stroke-opacity:1" d="M 368.261,135.019 382.659,135.019 z" id="boundary" inkscape:connector-curvature="0" />
	<path style="fill:none;stroke:red;stroke-width:1px;stroke-linecap:butt;stroke-linejoin:miter;stroke-opacity:1" d="M 312.11,142.218 297.713,146.537 z" id="boundary" inkscape:connector-curvature="0" />
	<path style="fill:none;stroke:red;stroke-width:1px;stroke-linecap:butt;stroke-linejoin:miter;stroke-opacity:1" d="M 382.659,135.019 397.057,135.019 z" id="boundary" inkscape:connector-curvature="0" />
	<path style="fill:none;stroke:red;stroke-width:1px;stroke-linecap:butt;stroke-linejoin:miter;stroke-opacity:1" d="M 411.454,135.019 425.852,135.019 z" id="boundary" inkscape:connector-curvature="0" />
	<path style="fill:none;stroke:red;stroke-width:1px;stroke-linecap:butt;stroke-linejoin:miter;stroke-opacity:1" d="M 440.25,135.019 425.852,135.019 z" id="boundary" inkscape:connector-curvature="0" />
	<path style="fill:none;stroke:red;stroke-width:1px;stroke-linecap:butt;stroke-linejoin:miter;stroke-opacity:1" d="M 411.454,135.019 397.057,135.019 z" id="boundary" inkscape:connector-curvature="0" />
	<path style="fill:none;stroke:red;stroke-width:1px;stroke-linecap:butt;stroke-linejoin:miter;stroke-opacity:1" d="M 440.25,135.019 454.647,135.019 z" id="boundary" inkscape:connector-curvature="0" />
	<path style="fill:none;stroke:red;stroke-width:1px;stroke-linecap:butt;stroke-linejoin:miter;stroke-opacity:1" d="M 454.647,135.019 466.165,145.097 z" id="boundary" inkscape:connector-curvature="0" />
	<path style="fill:none;stroke:red;stroke-width:1px;stroke-linecap:butt;stroke-linejoin:miter;stroke-opacity:1" d="M 278.996,171.013 290.514,160.935 z" id="boundary" inkscape:connector-curvature="0" />
	<path style="fill:none;stroke:red;stroke-width:1px;stroke-linecap:butt;stroke-linejoin:miter;stroke-opacity:1" d="M 270.357,188.29 278.996,171.013 z" id="boundary" inkscape:connector-curvature="0" />
	<path style="fill:none;stroke:red;stroke-width:1px;stroke-linecap:butt;stroke-linejoin:miter;stroke-opacity:1" d="M 297.713,146.537 290.514,160.935 z" id="boundary" inkscape:connector-curvature="0" />
	<path style="fill:none;stroke:red;stroke-width:1px;stroke-linecap:butt;stroke-linejoin:miter;stroke-opacity:1" d="M 270.357,188.29 260.279,199.808 z" id="boundary" inkscape:connector-curvature="0" />
	<path style="fill:none;stroke:red;stroke-width:1px;stroke-linecap:butt;stroke-linejoin:miter;stroke-opacity:1" d="M 260.279,199.808 247.321,192.61 z" id="boundary" inkscape:connector-curvature="0" />
	<path style="fill:none;stroke:red;stroke-width:1px;stroke-linecap:butt;stroke-linejoin:miter;stroke-opacity:1" d="M 340.906,142.218 355.303,142.218 z" id="boundary" inkscape:connector-curvature="0" />
	<path style="fill:none;stroke:red;stroke-width:1px;stroke-linecap:butt;stroke-linejoin:miter;stroke-opacity:1" d="M 466.165,145.097 480.563,149.417 z" id="boundary" inkscape:connector-curvature="0" />
	<path style="fill:none;stroke:red;stroke-width:1px;stroke-linecap:butt;stroke-linejoin:miter;stroke-opacity:1" d="M 480.563,149.417 494.961,149.417 z" id="boundary" inkscape:connector-curvature="0" />
	<path style="fill:none;stroke:red;stroke-width:1px;stroke-linecap:butt;stroke-linejoin:miter;stroke-opacity:1" d="M 584.226,18.3977 571.269,25.5965 z" id="boundary" inkscape:connector-curvature="0" />
	<path style="fill:none;stroke:red;stroke-width:1px;stroke-linecap:butt;stroke-linejoin:miter;stroke-opacity:1" d="M 517.997,32.7954 503.599,32.7954 z" id="boundary" inkscape:connector-curvature="0" />
	<path style="fill:none;stroke:red;stroke-width:1px;stroke-linecap:butt;stroke-linejoin:miter;stroke-opacity:1" d="M 558.311,32.7954 545.353,39.9942 z" id="boundary" inkscape:connector-curvature="0" />
	<path style="fill:none;stroke:red;stroke-width:1px;stroke-linecap:butt;stroke-linejoin:miter;stroke-opacity:1" d="M 571.269,25.5965 558.311,32.7954 z" id="boundary" inkscape:connector-curvature="0" />
	<path style="fill:none;stroke:red;stroke-width:1px;stroke-linecap:butt;stroke-linejoin:miter;stroke-opacity:1" d="M 517.997,32.7954 530.955,39.9942 z" id="boundary" inkscape:connector-curvature="0" />
	<path style="fill:none;stroke:red;stroke-width:1px;stroke-linecap:butt;stroke-linejoin:miter;stroke-opacity:1" d="M 584.226,18.3977 597.184,11.1988 z" id="boundary" inkscape:connector-curvature="0" />
	<path style="fill:none;stroke:red;stroke-width:1px;stroke-linecap:butt;stroke-linejoin:miter;stroke-opacity:1" d="M 597.184,11.1988 614.462,34.2351 z" id="boundary" inkscape:connector-curvature="0" />
	<path style="fill:none;stroke:red;stroke-width:1px;stroke-linecap:butt;stroke-linejoin:miter;stroke-opacity:1" d="M 803.071,25.5965 790.113,32.7954 z" id="boundary" inkscape:connector-curvature="0" />
	<path style="fill:none;stroke:red;stroke-width:1px;stroke-linecap:butt;stroke-linejoin:miter;stroke-opacity:1" d="M 790.113,32.7954 775.716,32.7954 z" id="boundary" inkscape:connector-curvature="0" />
	<path style="fill:none;stroke:red;stroke-width:1px;stroke-linecap:butt;stroke-linejoin:miter;stroke-opacity:1" d="M 545.353,39.9942 530.955,39.9942 z" id="boundary" inkscape:connector-curvature="0" />
	<path style="fill:none;stroke:red;stroke-width:1px;stroke-linecap:butt;stroke-linejoin:miter;stroke-opacity:1" d="M 624.54,45.7533 614.462,34.2351 z" id="boundary" inkscape:connector-curvature="0" />
	<path style="fill:none;stroke:red;stroke-width:1px;stroke-linecap:butt;stroke-linejoin:miter;stroke-opacity:1" d="M 762.758,39.9942 748.36,41.434 z" id="boundary" inkscape:connector-curvature="0" />
	<path style="fill:none;stroke:red;stroke-width:1px;stroke-linecap:butt;stroke-linejoin:miter;stroke-opacity:1" d="M 775.716,32.7954 762.758,39.9942 z" id="boundary" inkscape:connector-curvature="0" />
	<path style="fill:none;stroke:red;stroke-width:1px;stroke-linecap:butt;stroke-linejoin:miter;stroke-opacity:1" d="M 748.36,41.434 733.962,47.193 z" id="boundary" inkscape:connector-curvature="0" />
	<path style="fill:none;stroke:red;stroke-width:1px;stroke-linecap:butt;stroke-linejoin:miter;stroke-opacity:1" d="M 733.962,47.193 719.565,48.6328 z" id="boundary" inkscape:connector-curvature="0" />
	<path style="fill:none;stroke:red;stroke-width:1px;stroke-linecap:butt;stroke-linejoin:miter;stroke-opacity:1" d="M 719.565,48.6328 705.167,54.3919 z" id="boundary" inkscape:connector-curvature="0" />
	<path style="fill:none;stroke:red;stroke-width:1px;stroke-linecap:butt;stroke-linejoin:miter;stroke-opacity:1" d="M 803.071,25.5965 817.469,25.5965 z" id="boundary" inkscape:connector-curvature="0" />
	<path style="fill:none;stroke:red;stroke-width:1px;stroke-linecap:butt;stroke-linejoin:miter;stroke-opacity:1" d="M 886.578,11.1988 900.975,4 z" id="boundary" inkscape:connector-curvature="0" />
	<path style="fill:none;stroke:red;stroke-width:1px;stroke-linecap:butt;stroke-linejoin:miter;stroke-opacity:1" d="M 859.222,18.3977 872.18,11.1988 z" id="boundary" inkscape:connector-curvature="0" />
	<path style="fill:none;stroke:red;stroke-width:1px;stroke-linecap:butt;stroke-linejoin:miter;stroke-opacity:1" d="M 886.578,11.1988 872.18,11.1988 z" id="boundary" inkscape:connector-curvature="0" />
	<path style="fill:none;stroke:red;stroke-width:1px;stroke-linecap:butt;stroke-linejoin:miter;stroke-opacity:1" d="M 900.975,4 915.373,4 z" id="boundary" inkscape:connector-curvature="0" />
	<path style="fill:none;stroke:red;stroke-width:1px;stroke-linecap:butt;stroke-linejoin:miter;stroke-opacity:1" d="M 915.373,4 929.771,4 z" id="boundary" inkscape:connector-curvature="0" />
	<path style="fill:none;stroke:red;stroke-width:1px;stroke-linecap:butt;stroke-linejoin:miter;stroke-opacity:1" d="M 944.168,4 958.566,4 z" id="boundary" inkscape:connector-curvature="0" />
	<path style="fill:none;stroke:red;stroke-width:1px;stroke-linecap:butt;stroke-linejoin:miter;stroke-opacity:1" d="M 958.566,4 972.964,4 z" id="boundary" inkscape:connector-curvature="0" />
	<path style="fill:none;stroke:red;stroke-width:1px;stroke-linecap:butt;stroke-linejoin:miter;stroke-opacity:1" d="M 929.771,4 944.168,4 z" id="boundary" inkscape:connector-curvature="0" />
	<path style="fill:none;stroke:red;stroke-width:1px;stroke-linecap:butt;stroke-linejoin:miter;stroke-opacity:1" d="M 972.964,4 987.361,4 z" id="boundary" inkscape:connector-curvature="0" />
	<path style="fill:none;stroke:red;stroke-width:1px;stroke-linecap:butt;stroke-linejoin:miter;stroke-opacity:1" d="M 830.427,18.3977 844.824,18.3977 z" id="boundary" inkscape:connector-curvature="0" />
	<path style="fill:none;stroke:red;stroke-width:1px;stroke-linecap:butt;stroke-linejoin:miter;stroke-opacity:1" d="M 817.469,25.5965 830.427,18.3977 z" id="boundary" inkscape:connector-curvature="0" />
	<path style="fill:none;stroke:red;stroke-width:1px;stroke-linecap:butt;stroke-linejoin:miter;stroke-opacity:1" d="M 844.824,18.3977 859.222,18.3977 z" id="boundary" inkscape:connector-curvature="0" />
	<path style="fill:none;stroke:red;stroke-width:1px;stroke-linecap:butt;stroke-linejoin:miter;stroke-opacity:1" d="M 984.482,34.2351 970.084,34.2351 z" id="boundary" inkscape:connector-curvature="0" />
	<path style="fill:none;stroke:red;stroke-width:1px;stroke-linecap:butt;stroke-linejoin:miter;stroke-opacity:1" d="M 941.289,41.434 926.891,41.434 z" id="boundary" inkscape:connector-curvature="0" />
	<path style="fill:none;stroke:red;stroke-width:1px;stroke-linecap:butt;stroke-linejoin:miter;stroke-opacity:1" d="M 955.687,41.434 941.289,41.434 z" id="boundary" inkscape:connector-curvature="0" />
	<path style="fill:none;stroke:red;stroke-width:1px;stroke-linecap:butt;stroke-linejoin:miter;stroke-opacity:1" d="M 955.687,41.434 970.084,34.2351 z" id="boundary" inkscape:connector-curvature="0" />
	<path style="fill:none;stroke:red;stroke-width:1px;stroke-linecap:butt;stroke-linejoin:miter;stroke-opacity:1" d="M 912.493,48.6328 926.891,41.434 z" id="boundary" inkscape:connector-curvature="0" />
	<path style="fill:none;stroke:red;stroke-width:1px;stroke-linecap:butt;stroke-linejoin:miter;stroke-opacity:1" d="M 996,24.1567 984.482,34.2351 z" id="boundary" inkscape:connector-curvature="0" />
	<path style="fill:none;stroke:red;stroke-width:1px;stroke-linecap:butt;stroke-linejoin:miter;stroke-opacity:1" d="M 987.361,4 996,24.1567 z" id="boundary" inkscape:connector-curvature="0" />
	<path style="fill:none;stroke:red;stroke-width:1px;stroke-linecap:butt;stroke-linejoin:miter;stroke-opacity:1" d="M 589.985,120.621 577.028,113.422 z" id="boundary" inkscape:connector-curvature="0" />
	<path style="fill:none;stroke:red;stroke-width:1px;stroke-linecap:butt;stroke-linejoin:miter;stroke-opacity:1" d="M 636.058,54.3919 624.54,45.7533 z" id="boundary" inkscape:connector-curvature="0" />
	<path style="fill:none;stroke:red;stroke-width:1px;stroke-linecap:butt;stroke-linejoin:miter;stroke-opacity:1" d="M 650.456,54.3919 636.058,54.3919 z" id="boundary" inkscape:connector-curvature="0" />
	<path style="fill:none;stroke:red;stroke-width:1px;stroke-linecap:butt;stroke-linejoin:miter;stroke-opacity:1" d="M 562.63,119.181 577.028,113.422 z" id="boundary" inkscape:connector-curvature="0" />
	<path style="fill:none;stroke:red;stroke-width:1px;stroke-linecap:butt;stroke-linejoin:miter;stroke-opacity:1" d="M 650.456,54.3919 663.414,61.5907 z" id="boundary" inkscape:connector-curvature="0" />
	<path style="fill:none;stroke:red;stroke-width:1px;stroke-linecap:butt;stroke-linejoin:miter;stroke-opacity:1" d="M 663.414,61.5907 677.811,61.5907 z" id="boundary" inkscape:connector-curvature="0" />
	<path style="fill:none;stroke:red;stroke-width:1px;stroke-linecap:butt;stroke-linejoin:miter;stroke-opacity:1" d="M 659.094,113.422 646.136,120.621 z" id="boundary" inkscape:connector-curvature="0" />
	<path style="fill:none;stroke:red;stroke-width:1px;stroke-linecap:butt;stroke-linejoin:miter;stroke-opacity:1" d="M 673.492,113.422 659.094,113.422 z" id="boundary" inkscape:connector-curvature="0" />
	<path style="fill:none;stroke:red;stroke-width:1px;stroke-linecap:butt;stroke-linejoin:miter;stroke-opacity:1" d="M 687.89,113.422 673.492,113.422 z" id="boundary" inkscape:connector-curvature="0" />
	<path style="fill:none;stroke:red;stroke-width:1px;stroke-linecap:butt;stroke-linejoin:miter;stroke-opacity:1" d="M 677.811,61.5907 692.209,61.5907 z" id="boundary" inkscape:connector-curvature="0" />
	<path style="fill:none;stroke:red;stroke-width:1px;stroke-linecap:butt;stroke-linejoin:miter;stroke-opacity:1" d="M 536.714,135.019 551.112,130.7 z" id="boundary" inkscape:connector-curvature="0" />
	<path style="fill:none;stroke:red;stroke-width:1px;stroke-linecap:butt;stroke-linejoin:miter;stroke-opacity:1" d="M 523.756,142.218 536.714,135.019 z" id="boundary" inkscape:connector-curvature="0" />
	<path style="fill:none;stroke:red;stroke-width:1px;stroke-linecap:butt;stroke-linejoin:miter;stroke-opacity:1" d="M 494.961,149.417 509.358,142.218 z" id="boundary" inkscape:connector-curvature="0" />
	<path style="fill:none;stroke:red;stroke-width:1px;stroke-linecap:butt;stroke-linejoin:miter;stroke-opacity:1" d="M 509.358,142.218 523.756,142.218 z" id="boundary" inkscape:connector-curvature="0" />
	<path style="fill:none;stroke:red;stroke-width:1px;stroke-linecap:butt;stroke-linejoin:miter;stroke-opacity:1" d="M 562.63,119.181 551.112,130.7 z" id="boundary" inkscape:connector-curvature="0" />
	<path style="fill:none;stroke:red;stroke-width:1px;stroke-linecap:butt;stroke-linejoin:miter;stroke-opacity:1" d="M 604.383,124.94 589.985,120.621 z" id="boundary" inkscape:connector-curvature="0" />
	<path style="fill:none;stroke:red;stroke-width:1px;stroke-linecap:butt;stroke-linejoin:miter;stroke-opacity:1" d="M 618.781,127.82 604.383,124.94 z" id="boundary" inkscape:connector-curvature="0" />
	<path style="fill:none;stroke:red;stroke-width:1px;stroke-linecap:butt;stroke-linejoin:miter;stroke-opacity:1" d="M 646.136,120.621 633.179,127.82 z" id="boundary" inkscape:connector-curvature="0" />
	<path style="fill:none;stroke:red;stroke-width:1px;stroke-linecap:butt;stroke-linejoin:miter;stroke-opacity:1" d="M 633.179,127.82 618.781,127.82 z" id="boundary" inkscape:connector-curvature="0" />
	<path style="fill:none;stroke:red;stroke-width:1px;stroke-linecap:butt;stroke-linejoin:miter;stroke-opacity:1" d="M 687.89,113.422 700.848,120.621 z" id="boundary" inkscape:connector-curvature="0" />
	<path style="fill:none;stroke:red;stroke-width:1px;stroke-linecap:butt;stroke-linejoin:miter;stroke-opacity:1" d="M 692.209,61.5907 705.167,54.3919 z" id="boundary" inkscape:connector-curvature="0" />
	<path style="fill:none;stroke:red;stroke-width:1px;stroke-linecap:butt;stroke-linejoin:miter;stroke-opacity:1" d="M 831.866,91.8258 844.824,84.627 z" id="boundary" inkscape:connector-curvature="0" />
	<path style="fill:none;stroke:red;stroke-width:1px;stroke-linecap:butt;stroke-linejoin:miter;stroke-opacity:1" d="M 831.866,91.8258 818.909,99.0247 z" id="boundary" inkscape:connector-curvature="0" />
	<path style="fill:none;stroke:red;stroke-width:1px;stroke-linecap:butt;stroke-linejoin:miter;stroke-opacity:1" d="M 818.909,99.0247 804.511,106.224 z" id="boundary" inkscape:connector-curvature="0" />
	<path style="fill:none;stroke:red;stroke-width:1px;stroke-linecap:butt;stroke-linejoin:miter;stroke-opacity:1" d="M 898.096,55.8316 912.493,48.6328 z" id="boundary" inkscape:connector-curvature="0" />
	<path style="fill:none;stroke:red;stroke-width:1px;stroke-linecap:butt;stroke-linejoin:miter;stroke-opacity:1" d="M 898.096,55.8316 885.138,63.0305 z" id="boundary" inkscape:connector-curvature="0" />
	<path style="fill:none;stroke:red;stroke-width:1px;stroke-linecap:butt;stroke-linejoin:miter;stroke-opacity:1" d="M 872.18,70.2293 857.782,75.9884 z" id="boundary" inkscape:connector-curvature="0" />
	<path style="fill:none;stroke:red;stroke-width:1px;stroke-linecap:butt;stroke-linejoin:miter;stroke-opacity:1" d="M 857.782,75.9884 844.824,84.627 z" id="boundary" inkscape:connector-curvature="0" />
	<path style="fill:none;stroke:red;stroke-width:1px;stroke-linecap:butt;stroke-linejoin:miter;stroke-opacity:1" d="M 872.18,70.2293 885.138,63.0305 z" id="boundary" inkscape:connector-curvature="0" />
	<path style="fill:none;stroke:red;stroke-width:1px;stroke-linecap:butt;stroke-linejoin:miter;stroke-opacity:1" d="M 700.848,120.621 713.806,127.82 z" id="boundary" inkscape:connector-curvature="0" />
	<path style="fill:none;stroke:red;stroke-width:1px;stroke-linecap:butt;stroke-linejoin:miter;stroke-opacity:1" d="M 754.119,142.218 739.721,142.218 z" id="boundary" inkscape:connector-curvature="0" />
	<path style="fill:none;stroke:red;stroke-width:1px;stroke-linecap:butt;stroke-linejoin:miter;stroke-opacity:1" d="M 739.721,142.218 726.763,135.019 z" id="boundary" inkscape:connector-curvature="0" />
	<path style="fill:none;stroke:red;stroke-width:1px;stroke-linecap:butt;stroke-linejoin:miter;stroke-opacity:1" d="M 768.517,135.019 754.119,142.218 z" id="boundary" inkscape:connector-curvature="0" />
	<path style="fill:none;stroke:red;stroke-width:1px;stroke-linecap:butt;stroke-linejoin:miter;stroke-opacity:1" d="M 713.806,127.82 726.763,135.019 z" id="boundary" inkscape:connector-curvature="0" />
	<path style="fill:none;stroke:red;stroke-width:1px;stroke-linecap:butt;stroke-linejoin:miter;stroke-opacity:1" d="M 794.433,117.742 804.511,106.224 z" id="boundary" inkscape:connector-curvature="0" />
	<path style="fill:none;stroke:red;stroke-width:1px;stroke-linecap:butt;stroke-linejoin:miter;stroke-opacity:1" d="M 768.517,135.019 780.035,124.94 z" id="boundary" inkscape:connector-curvature="0" />
	<path style="fill:none;stroke:red;stroke-width:1px;stroke-linecap:butt;stroke-linejoin:miter;stroke-opacity:1" d="M 780.035,124.94 794.433,117.742 z" id="boundary" inkscape:connector-curvature="0" />
	<circle cx="4" cy="44.3135" r="4" fill="#0" id="circle0"/>
	<circle cx="4" cy="58.7112" r="4" fill="#0" id="circle1"/>
	<circle cx="18.3977" cy="37.1147" r="4" fill="#0" id="circle2"/>
	<circle cx="18.3977" cy="63.0305" r="4" fill="#0" id="circle3"/>
	<circle cx="31.3556" cy="70.2293" r="4" fill="#0" id="circle4"/>
	<circle cx="32.7954" cy="32.7954" r="4" fill="#0" id="circle5"/>
	<circle cx="37.1147" cy="84.627" r="4" fill="#0" id="circle6"/>
	<circle cx="47.193" cy="32.7954" r="4" fill="#0" id="circle7"/>
	<circle cx="48.6328" cy="94.7054" r="4" fill="#0" id="circle8"/>
	<circle cx="58.7112" cy="106.224" r="4" fill="#0" id="circle9"/>
	<circle cx="61.5907" cy="29.9158" r="4" fill="#0" id="circle10"/>
	<circle cx="73.1089" cy="106.224" r="4" fill="#0" id="circle11"/>
	<circle cx="75.9884" cy="25.5965" r="4" fill="#0" id="circle12"/>
	<circle cx="87.5065" cy="111.983" r="4" fill="#0" id="circle13"/>
	<circle cx="90.3861" cy="25.5965" r="4" fill="#0" id="circle14"/>
	<circle cx="101.904" cy="113.422" r="4" fill="#0" id="circle15"/>
	<circle cx="104.784" cy="25.5965" r="4" fill="#0" id="circle16"/>
	<circle cx="116.302" cy="113.422" r="4" fill="#0" id="circle17"/>
	<circle cx="117.742" cy="18.3977" r="4" fill="#0" id="circle18"/>
	<circle cx="129.26" cy="120.621" r="4" fill="#0" id="circle19"/>
	<circle cx="132.139" cy="18.3977" r="4" fill="#0" id="circle20"/>
	<circle cx="143.657" cy="120.621" r="4" fill="#0" id="circle21"/>
	<circle cx="146.537" cy="18.3977" r="4" fill="#0" id="circle22"/>
	<circle cx="158.055" cy="120.621" r="4" fill="#0" id="circle23"/>
	<circle cx="160.935" cy="18.3977" r="4" fill="#0" id="circle24"/>
	<circle cx="171.013" cy="127.82" r="4" fill="#0" id="circle25"/>
	<circle cx="175.332" cy="18.3977" r="4" fill="#0" id="circle26"/>
	<circle cx="185.411" cy="130.7" r="4" fill="#0" id="circle27"/>
	<circle cx="189.73" cy="18.3977" r="4" fill="#0" id="circle28"/>
	<circle cx="198.369" cy="137.898" r="4" fill="#0" id="circle29"/>
	<circle cx="204.128" cy="18.3977" r="4" fill="#0" id="circle30"/>
	<circle cx="209.887" cy="147.977" r="4" fill="#0" id="circle31"/>
	<circle cx="215.646" cy="162.374" r="4" fill="#0" id="circle32"/>
	<circle cx="218.525" cy="18.3977" r="4" fill="#0" id="circle33"/>
	<circle cx="227.164" cy="171.013" r="4" fill="#0" id="circle34"/>
	<circle cx="232.923" cy="18.3977" r="4" fill="#0" id="circle35"/>
	<circle cx="235.803" cy="182.531" r="4" fill="#0" id="circle36"/>
	<circle cx="247.321" cy="18.3977" r="4" fill="#0" id="circle37"/>
	<circle cx="247.321" cy="192.61" r="4" fill="#0" id="circle38"/>
	<circle cx="260.279" cy="199.808" r="4" fill="#0" id="circle39"/>
	<circle cx="261.718" cy="18.3977" r="4" fill="#0" id="circle40"/>
	<circle cx="270.357" cy="188.29" r="4" fill="#0" id="circle41"/>
	<circle cx="276.116" cy="18.3977" r="4" fill="#0" id="circle42"/>
	<circle cx="278.996" cy="171.013" r="4" fill="#0" id="circle43"/>
	<circle cx="290.514" cy="18.3977" r="4" fill="#0" id="circle44"/>
	<circle cx="290.514" cy="160.935" r="4" fill="#0" id="circle45"/>
	<circle cx="297.713" cy="146.537" r="4" fill="#0" id="circle46"/>
	<circle cx="304.911" cy="18.3977" r="4" fill="#0" id="circle47"/>
	<circle cx="312.11" cy="142.218" r="4" fill="#0" id="circle48"/>
	<circle cx="319.309" cy="18.3977" r="4" fill="#0" id="circle49"/>
	<circle cx="326.508" cy="142.218" r="4" fill="#0" id="circle50"/>
	<circle cx="333.707" cy="18.3977" r="4" fill="#0" id="circle51"/>
	<circle cx="340.906" cy="142.218" r="4" fill="#0" id="circle52"/>
	<circle cx="348.104" cy="18.3977" r="4" fill="#0" id="circle53"/>
	<circle cx="355.303" cy="142.218" r="4" fill="#0" id="circle54"/>
	<circle cx="361.062" cy="25.5965" r="4" fill="#0" id="circle55"/>
	<circle cx="368.261" cy="135.019" r="4" fill="#0" id="circle56"/>
	<circle cx="375.46" cy="25.5965" r="4" fill="#0" id="circle57"/>
	<circle cx="382.659" cy="135.019" r="4" fill="#0" id="circle58"/>
	<circle cx="389.858" cy="25.5965" r="4" fill="#0" id="circle59"/>
	<circle cx="397.057" cy="135.019" r="4" fill="#0" id="circle60"/>
	<circle cx="404.255" cy="25.5965" r="4" fill="#0" id="circle61"/>
	<circle cx="411.454" cy="135.019" r="4" fill="#0" id="circle62"/>
	<circle cx="418.653" cy="25.5965" r="4" fill="#0" id="circle63"/>
	<circle cx="425.852" cy="135.019" r="4" fill="#0" id="circle64"/>
	<circle cx="433.051" cy="25.5965" r="4" fill="#0" id="circle65"/>
	<circle cx="440.25" cy="135.019" r="4" fill="#0" id="circle66"/>
	<circle cx="447.448" cy="25.5965" r="4" fill="#0" id="circle67"/>
	<circle cx="454.647" cy="135.019" r="4" fill="#0" id="circle68"/>
	<circle cx="460.406" cy="32.7954" r="4" fill="#0" id="circle69"/>
	<circle cx="466.165" cy="145.097" r="4" fill="#0" id="circle70"/>
	<circle cx="474.804" cy="32.7954" r="4" fill="#0" id="circle71"/>
	<circle cx="480.563" cy="149.417" r="4" fill="#0" id="circle72"/>
	<circle cx="489.202" cy="32.7954" r="4" fill="#0" id="circle73"/>
	<circle cx="494.961" cy="149.417" r="4" fill="#0" id="circle74"/>
	<circle cx="503.599" cy="32.7954" r="4" fill="#0" id="circle75"/>
	<circle cx="509.358" cy="142.218" r="4" fill="#0" id="circle76"/>
	<circle cx="517.997" cy="32.7954" r="4" fill="#0" id="circle77"/>
	<circle cx="523.756" cy="142.218" r="4" fill="#0" id="circle78"/>
	<circle cx="530.955" cy="39.9942" r="4" fill="#0" id="circle79"/>
	<circle cx="536.714" cy="135.019" r="4" fill="#0" id="circle80"/>
	<circle cx="545.353" cy="39.9942" r="4" fill="#0" id="circle81"/>
	<circle cx="551.112" cy="130.7" r="4" fill="#0" id="circle82"/>
	<circle cx="558.311" cy="32.7954" r="4" fill="#0" id="circle83"/>
	<circle cx="562.63" cy="119.181" r="4" fill="#0" id="circle84"/>
	<circle cx="571.269" cy="25.5965" r="4" fill="#0" id="circle85"/>
	<circle cx="577.028" cy="113.422" r="4" fill="#0" id="circle86"/>
	<circle cx="584.226" cy="18.3977" r="4" fill="#0" id="circle87"/>
	<circle cx="589.985" cy="120.621" r="4" fill="#0" id="circle88"/>
	<circle cx="597.184" cy="11.1988" r="4" fill="#0" id="circle89"/>
	<circle cx="602.943" cy="25.5965" r="4" fill="#0" id="circle90"/>
	<circle cx="604.383" cy="124.94" r="4" fill="#0" id="circle91"/>
	<circle cx="614.462" cy="34.2351" r="4" fill="#0" id="circle92"/>
	<circle cx="618.781" cy="127.82" r="4" fill="#0" id="circle93"/>
	<circle cx="624.54" cy="45.7533" r="4" fill="#0" id="circle94"/>
	<circle cx="633.179" cy="127.82" r="4" fill="#0" id="circle95"/>
	<circle cx="636.058" cy="54.3919" r="4" fill="#0" id="circle96"/>
	<circle cx="646.136" cy="120.621" r="4" fill="#0" id="circle97"/>
	<circle cx="650.456" cy="54.3919" r="4" fill="#0" id="circle98"/>
	<circle cx="659.094" cy="113.422" r="4" fill="#0" id="circle99"/>
	<circle cx="663.414" cy="61.5907" r="4" fill="#0" id="circle100"/>
	<circle cx="673.492" cy="113.422" r="4" fill="#0" id="circle101"/>
	<circle cx="677.811" cy="61.5907" r="4" fill="#0" id="circle102"/>
	<circle cx="687.89" cy="113.422" r="4" fill="#0" id="circle103"/>
	<circle cx="692.209" cy="61.5907" r="4" fill="#0" id="circle104"/>
	<circle cx="700.848" cy="120.621" r="4" fill="#0" id="circle105"/>
	<circle cx="705.167" cy="54.3919" r="4" fill="#0" id="circle106"/>
	<circle cx="713.806" cy="127.82" r="4" fill="#0" id="circle107"/>
	<circle cx="719.565" cy="48.6328" r="4" fill="#0" id="circle108"/>
	<circle cx="726.763" cy="135.019" r="4" fill="#0" id="circle109"/>
	<circle cx="733.962" cy="47.193" r="4" fill="#0" id="circle110"/>
	<circle cx="739.721" cy="142.218" r="4" fill="#0" id="circle111"/>
	<circle cx="748.36" cy="41.434" r="4" fill="#0" id="circle112"/>
	<circle cx="754.119" cy="142.218" r="4" fill="#0" id="circle113"/>
	<circle cx="762.758" cy="39.9942" r="4" fill="#0" id="circle114"/>
	<circle cx="768.517" cy="135.019" r="4" fill="#0" id="circle115"/>
	<circle cx="775.716" cy="32.7954" r="4" fill="#0" id="circle116"/>
	<circle cx="780.035" cy="124.94" r="4" fill="#0" id="circle117"/>
	<circle cx="790.113" cy="32.7954" r="4" fill="#0" id="circle118"/>
	<circle cx="794.433" cy="117.742" r="4" fill="#0" id="circle119"/>
	<circle cx="803.071" cy="25.5965" r="4" fill="#0" id="circle120"/>
	<circle cx="804.511" cy="106.224" r="4" fill="#0" id="circle121"/>
	<circle cx="817.469" cy="25.5965" r="4" fill="#0" id="circle122"/>
	<circle cx="818.909" cy="99.0247" r="4" fill="#0" id="circle123"/>
	<circle cx="830.427" cy="18.3977" r="4" fill="#0" id="circle124"/>
	<circle cx="831.866" cy="91.8258" r="4" fill="#0" id="circle125"/>
	<circle cx="844.824" cy="18.3977" r="4" fill="#0" id="circle126"/>
	<circle cx="844.824" cy="84.627" r="4" fill="#0" id="circle127"/>
	<circle cx="857.782" cy="75.9884" r="4" fill="#0" id="circle128"/>
	<circle cx="859.222" cy="18.3977" r="4" fill="#0" id="circle129"/>
	<circle cx="872.18" cy="11.1988" r="4" fill="#0" id="circle130"/>
	<circle cx="872.18" cy="70.2293" r="4" fill="#0" id="circle131"/>
	<circle cx="885.138" cy="63.0305" r="4" fill="#0" id="circle132"/>
	<circle cx="886.578" cy="11.1988" r="4" fill="#0" id="circle133"/>
	<circle cx="898.096" cy="55.8316" r="4" fill="#0" id="circle134"/>
	<circle cx="900.975" cy="4" r="4" fill="#0" id="circle135"/>
	<circle cx="912.493" cy="48.6328" r="4" fill="#0" id="circle136"/>
	<circle cx="915.373" cy="4" r="4" fill="#0" id="circle137"/>
	<circle cx="926.891" cy="41.434" r="4" fill="#0" id="circle138"/>
	<circle cx="929.771" cy="4" r="4" fill="#0" id="circle139"/>
	<circle cx="941.289" cy="41.434" r="4" fill="#0" id="circle140"/>
	<circle cx="944.168" cy="4" r="4" fill="#0" id="circle141"/>
	<circle cx="955.687" cy="41.434" r="4" fill="#0" id="circle142"/>
	<circle cx="958.566" cy="4" r="4" fill="#0" id="circle143"/>
	<circle cx="970.084" cy="34.2351" r="4" fill="#0" id="circle144"/>
	<circle cx="972.964" cy="4" r="4" fill="#0" id="circle145"/>
	<circle cx="984.482" cy="34.2351" r="4" fill="#0" id="circle146"/>
	<circle cx="987.361" cy="4" r="4" fill="#0" id="circle147"/>
	<circle cx="996" cy="24.1567" r="4" fill="#0" id="circle148"/>
	</g>
</svg>