<?xml version="1.0" encoding="UTF-8" standalone="no"?>
<!-- Created with CurveBenchmark -->
<svg
	xmlns:dc="http://purl.org/dc/elements/1.1/"
	xmlns:cc="http://creativecommons.org/ns#"
	xmlns:rdf="http://www.w3.org/1999/02/22-rdf-syntax-ns#"
	xmlns:svg="http://www.w3.org/2000/svg"
	xmlns="http://www.w3.org/2000/svg"
	xmlns:sodipodi="http://sodipodi.sourceforge.net/DTD/sodipodi-0.dtd"
	xmlns:inkscape="http://www.inkscape.org/namespaces/inkscape"
	width="1000"
	height="1000"
	id="svg2"
	version="1.1"
	sodipodi:docname="manifold/gathan1-textbox05.png.txt">
<defs
	id="defs4" />
<metadata
	id="metadata7">
	<rdf:RDF>
		<cc:Work
			rdf:about="">
			<dc:format>image/svg+xml</dc:format>
			<dc:type
				rdf:resource="http://purl.org/dc/dcmitype/StillImage" />
			<dc:title></dc:title>
		</cc:Work>
	</rdf:RDF>
</metadata>
<g
	inkscape:label="Layer 1"
	inkscape:groupmode="layer"
	id="layer1">
	<path style="fill:none;stroke:red;stroke-width:1px;stroke-linecap:butt;stroke-linejoin:miter;stroke-opacity:1" d="M 21.8417,250.216 21.8417,232.374 z" id="boundary" inkscape:connector-curvature="0" />
	<path style="fill:none;stroke:red;stroke-width:1px;stroke-linecap:butt;stroke-linejoin:miter;stroke-opacity:1" d="M 30.7626,205.612 21.8417,232.374 z" id="boundary" inkscape:connector-curvature="0" />
	<path style="fill:none;stroke:red;stroke-width:1px;stroke-linecap:butt;stroke-linejoin:miter;stroke-opacity:1" d="M 4,268.058 21.8417,250.216 z" id="boundary" inkscape:connector-curvature="0" />
	<path style="fill:none;stroke:red;stroke-width:1px;stroke-linecap:butt;stroke-linejoin:miter;stroke-opacity:1" d="M 4,285.899 4,268.058 z" id="boundary" inkscape:connector-curvature="0" />
	<path style="fill:none;stroke:red;stroke-width:1px;stroke-linecap:butt;stroke-linejoin:miter;stroke-opacity:1" d="M 30.7626,205.612 48.6043,196.691 z" id="boundary" inkscape:connector-curvature="0" />
	<path style="fill:none;stroke:red;stroke-width:1px;stroke-linecap:butt;stroke-linejoin:miter;stroke-opacity:1" d="M 75.3669,134.245 75.3669,152.086 z" id="boundary" inkscape:connector-curvature="0" />
	<path style="fill:none;stroke:red;stroke-width:1px;stroke-linecap:butt;stroke-linejoin:miter;stroke-opacity:1" d="M 75.3669,152.086 57.5252,161.007 z" id="boundary" inkscape:connector-curvature="0" />
	<path style="fill:none;stroke:red;stroke-width:1px;stroke-linecap:butt;stroke-linejoin:miter;stroke-opacity:1" d="M 48.6043,178.849 57.5252,161.007 z" id="boundary" inkscape:connector-curvature="0" />
	<path style="fill:none;stroke:red;stroke-width:1px;stroke-linecap:butt;stroke-linejoin:miter;stroke-opacity:1" d="M 48.6043,196.691 48.6043,178.849 z" id="boundary" inkscape:connector-curvature="0" />
	<path style="fill:none;stroke:red;stroke-width:1px;stroke-linecap:butt;stroke-linejoin:miter;stroke-opacity:1" d="M 4,303.741 14.705,318.014 z" id="boundary" inkscape:connector-curvature="0" />
	<path style="fill:none;stroke:red;stroke-width:1px;stroke-linecap:butt;stroke-linejoin:miter;stroke-opacity:1" d="M 14.705,318.014 21.8417,335.856 z" id="boundary" inkscape:connector-curvature="0" />
	<path style="fill:none;stroke:red;stroke-width:1px;stroke-linecap:butt;stroke-linejoin:miter;stroke-opacity:1" d="M 4,303.741 4,285.899 z" id="boundary" inkscape:connector-curvature="0" />
	<path style="fill:none;stroke:red;stroke-width:1px;stroke-linecap:butt;stroke-linejoin:miter;stroke-opacity:1" d="M 27.1942,353.698 30.7626,371.54 z" id="boundary" inkscape:connector-curvature="0" />
	<path style="fill:none;stroke:red;stroke-width:1px;stroke-linecap:butt;stroke-linejoin:miter;stroke-opacity:1" d="M 27.1942,353.698 21.8417,335.856 z" id="boundary" inkscape:connector-curvature="0" />
	<path style="fill:none;stroke:red;stroke-width:1px;stroke-linecap:butt;stroke-linejoin:miter;stroke-opacity:1" d="M 46.8201,380.46 30.7626,371.54 z" id="boundary" inkscape:connector-curvature="0" />
	<path style="fill:none;stroke:red;stroke-width:1px;stroke-linecap:butt;stroke-linejoin:miter;stroke-opacity:1" d="M 46.8201,380.46 48.6043,398.302 z" id="boundary" inkscape:connector-curvature="0" />
	<path style="fill:none;stroke:red;stroke-width:1px;stroke-linecap:butt;stroke-linejoin:miter;stroke-opacity:1" d="M 57.5252,414.36 71.7986,425.065 z" id="boundary" inkscape:connector-curvature="0" />
	<path style="fill:none;stroke:red;stroke-width:1px;stroke-linecap:butt;stroke-linejoin:miter;stroke-opacity:1" d="M 71.7986,425.065 86.0719,437.554 z" id="boundary" inkscape:connector-curvature="0" />
	<path style="fill:none;stroke:red;stroke-width:1px;stroke-linecap:butt;stroke-linejoin:miter;stroke-opacity:1" d="M 57.5252,414.36 48.6043,398.302 z" id="boundary" inkscape:connector-curvature="0" />
	<path style="fill:none;stroke:red;stroke-width:1px;stroke-linecap:butt;stroke-linejoin:miter;stroke-opacity:1" d="M 103.914,442.906 86.0719,437.554 z" id="boundary" inkscape:connector-curvature="0" />
	<path style="fill:none;stroke:red;stroke-width:1px;stroke-linecap:butt;stroke-linejoin:miter;stroke-opacity:1" d="M 75.3669,134.245 89.6403,119.971 z" id="boundary" inkscape:connector-curvature="0" />
	<path style="fill:none;stroke:red;stroke-width:1px;stroke-linecap:butt;stroke-linejoin:miter;stroke-opacity:1" d="M 293.036,32.5468 275.194,39.6835 z" id="boundary" inkscape:connector-curvature="0" />
	<path style="fill:none;stroke:red;stroke-width:1px;stroke-linecap:butt;stroke-linejoin:miter;stroke-opacity:1" d="M 275.194,39.6835 257.353,41.4676 z" id="boundary" inkscape:connector-curvature="0" />
	<path style="fill:none;stroke:red;stroke-width:1px;stroke-linecap:butt;stroke-linejoin:miter;stroke-opacity:1" d="M 257.353,41.4676 248.432,57.5252 z" id="boundary" inkscape:connector-curvature="0" />
	<path style="fill:none;stroke:red;stroke-width:1px;stroke-linecap:butt;stroke-linejoin:miter;stroke-opacity:1" d="M 248.432,57.5252 230.59,57.5252 z" id="boundary" inkscape:connector-curvature="0" />
	<path style="fill:none;stroke:red;stroke-width:1px;stroke-linecap:butt;stroke-linejoin:miter;stroke-opacity:1" d="M 214.532,66.446 230.59,57.5252 z" id="boundary" inkscape:connector-curvature="0" />
	<path style="fill:none;stroke:red;stroke-width:1px;stroke-linecap:butt;stroke-linejoin:miter;stroke-opacity:1" d="M 293.036,32.5468 310.878,30.7626 z" id="boundary" inkscape:connector-curvature="0" />
	<path style="fill:none;stroke:red;stroke-width:1px;stroke-linecap:butt;stroke-linejoin:miter;stroke-opacity:1" d="M 360.835,18.2734 378.676,12.9209 z" id="boundary" inkscape:connector-curvature="0" />
	<path style="fill:none;stroke:red;stroke-width:1px;stroke-linecap:butt;stroke-linejoin:miter;stroke-opacity:1" d="M 346.561,30.7626 360.835,18.2734 z" id="boundary" inkscape:connector-curvature="0" />
	<path style="fill:none;stroke:red;stroke-width:1px;stroke-linecap:butt;stroke-linejoin:miter;stroke-opacity:1" d="M 310.878,30.7626 328.719,30.7626 z" id="boundary" inkscape:connector-curvature="0" />
	<path style="fill:none;stroke:red;stroke-width:1px;stroke-linecap:butt;stroke-linejoin:miter;stroke-opacity:1" d="M 346.561,30.7626 328.719,30.7626 z" id="boundary" inkscape:connector-curvature="0" />
	<path style="fill:none;stroke:red;stroke-width:1px;stroke-linecap:butt;stroke-linejoin:miter;stroke-opacity:1" d="M 119.971,98.5612 137.813,93.2086 z" id="boundary" inkscape:connector-curvature="0" />
	<path style="fill:none;stroke:red;stroke-width:1px;stroke-linecap:butt;stroke-linejoin:miter;stroke-opacity:1" d="M 105.698,111.05 119.971,98.5612 z" id="boundary" inkscape:connector-curvature="0" />
	<path style="fill:none;stroke:red;stroke-width:1px;stroke-linecap:butt;stroke-linejoin:miter;stroke-opacity:1" d="M 153.871,84.2878 137.813,93.2086 z" id="boundary" inkscape:connector-curvature="0" />
	<path style="fill:none;stroke:red;stroke-width:1px;stroke-linecap:butt;stroke-linejoin:miter;stroke-opacity:1" d="M 105.698,111.05 89.6403,119.971 z" id="boundary" inkscape:connector-curvature="0" />
	<path style="fill:none;stroke:red;stroke-width:1px;stroke-linecap:butt;stroke-linejoin:miter;stroke-opacity:1" d="M 178.849,66.446 196.691,66.446 z" id="boundary" inkscape:connector-curvature="0" />
	<path style="fill:none;stroke:red;stroke-width:1px;stroke-linecap:butt;stroke-linejoin:miter;stroke-opacity:1" d="M 171.712,84.2878 153.871,84.2878 z" id="boundary" inkscape:connector-curvature="0" />
	<path style="fill:none;stroke:red;stroke-width:1px;stroke-linecap:butt;stroke-linejoin:miter;stroke-opacity:1" d="M 196.691,66.446 214.532,66.446 z" id="boundary" inkscape:connector-curvature="0" />
	<path style="fill:none;stroke:red;stroke-width:1px;stroke-linecap:butt;stroke-linejoin:miter;stroke-opacity:1" d="M 103.914,442.906 114.619,457.18 z" id="boundary" inkscape:connector-curvature="0" />
	<path style="fill:none;stroke:red;stroke-width:1px;stroke-linecap:butt;stroke-linejoin:miter;stroke-opacity:1" d="M 114.619,457.18 128.892,469.669 z" id="boundary" inkscape:connector-curvature="0" />
	<path style="fill:none;stroke:red;stroke-width:1px;stroke-linecap:butt;stroke-linejoin:miter;stroke-opacity:1" d="M 128.892,469.669 139.597,483.942 z" id="boundary" inkscape:connector-curvature="0" />
	<path style="fill:none;stroke:red;stroke-width:1px;stroke-linecap:butt;stroke-linejoin:miter;stroke-opacity:1" d="M 139.597,483.942 157.439,487.511 z" id="boundary" inkscape:connector-curvature="0" />
	<path style="fill:none;stroke:red;stroke-width:1px;stroke-linecap:butt;stroke-linejoin:miter;stroke-opacity:1" d="M 157.439,487.511 173.496,496.432 z" id="boundary" inkscape:connector-curvature="0" />
	<path style="fill:none;stroke:red;stroke-width:1px;stroke-linecap:butt;stroke-linejoin:miter;stroke-opacity:1" d="M 191.338,496.432 173.496,496.432 z" id="boundary" inkscape:connector-curvature="0" />
	<path style="fill:none;stroke:red;stroke-width:1px;stroke-linecap:butt;stroke-linejoin:miter;stroke-opacity:1" d="M 200.259,580.288 191.338,607.05 z" id="boundary" inkscape:connector-curvature="0" />
	<path style="fill:none;stroke:red;stroke-width:1px;stroke-linecap:butt;stroke-linejoin:miter;stroke-opacity:1" d="M 214.532,514.273 196.691,514.273 z" id="boundary" inkscape:connector-curvature="0" />
	<path style="fill:none;stroke:red;stroke-width:1px;stroke-linecap:butt;stroke-linejoin:miter;stroke-opacity:1" d="M 191.338,607.05 191.338,624.892 z" id="boundary" inkscape:connector-curvature="0" />
	<path style="fill:none;stroke:red;stroke-width:1px;stroke-linecap:butt;stroke-linejoin:miter;stroke-opacity:1" d="M 191.338,624.892 173.496,642.734 z" id="boundary" inkscape:connector-curvature="0" />
	<path style="fill:none;stroke:red;stroke-width:1px;stroke-linecap:butt;stroke-linejoin:miter;stroke-opacity:1" d="M 173.496,660.576 173.496,642.734 z" id="boundary" inkscape:connector-curvature="0" />
	<path style="fill:none;stroke:red;stroke-width:1px;stroke-linecap:butt;stroke-linejoin:miter;stroke-opacity:1" d="M 146.734,714.101 146.734,731.942 z" id="boundary" inkscape:connector-curvature="0" />
	<path style="fill:none;stroke:red;stroke-width:1px;stroke-linecap:butt;stroke-linejoin:miter;stroke-opacity:1" d="M 146.734,731.942 137.813,749.784 z" id="boundary" inkscape:connector-curvature="0" />
	<path style="fill:none;stroke:red;stroke-width:1px;stroke-linecap:butt;stroke-linejoin:miter;stroke-opacity:1" d="M 155.655,764.058 137.813,767.626 z" id="boundary" inkscape:connector-curvature="0" />
	<path style="fill:none;stroke:red;stroke-width:1px;stroke-linecap:butt;stroke-linejoin:miter;stroke-opacity:1" d="M 137.813,767.626 137.813,749.784 z" id="boundary" inkscape:connector-curvature="0" />
	<path style="fill:none;stroke:red;stroke-width:1px;stroke-linecap:butt;stroke-linejoin:miter;stroke-opacity:1" d="M 146.734,714.101 164.576,705.18 z" id="boundary" inkscape:connector-curvature="0" />
	<path style="fill:none;stroke:red;stroke-width:1px;stroke-linecap:butt;stroke-linejoin:miter;stroke-opacity:1" d="M 164.576,705.18 164.576,687.338 z" id="boundary" inkscape:connector-curvature="0" />
	<path style="fill:none;stroke:red;stroke-width:1px;stroke-linecap:butt;stroke-linejoin:miter;stroke-opacity:1" d="M 184.201,746.216 166.36,746.216 z" id="boundary" inkscape:connector-curvature="0" />
	<path style="fill:none;stroke:red;stroke-width:1px;stroke-linecap:butt;stroke-linejoin:miter;stroke-opacity:1" d="M 198.475,733.727 184.201,746.216 z" id="boundary" inkscape:connector-curvature="0" />
	<path style="fill:none;stroke:red;stroke-width:1px;stroke-linecap:butt;stroke-linejoin:miter;stroke-opacity:1" d="M 164.576,687.338 173.496,660.576 z" id="boundary" inkscape:connector-curvature="0" />
	<path style="fill:none;stroke:red;stroke-width:1px;stroke-linecap:butt;stroke-linejoin:miter;stroke-opacity:1" d="M 214.532,514.273 227.022,528.547 z" id="boundary" inkscape:connector-curvature="0" />
	<path style="fill:none;stroke:red;stroke-width:1px;stroke-linecap:butt;stroke-linejoin:miter;stroke-opacity:1" d="M 227.022,528.547 218.101,544.604 z" id="boundary" inkscape:connector-curvature="0" />
	<path style="fill:none;stroke:red;stroke-width:1px;stroke-linecap:butt;stroke-linejoin:miter;stroke-opacity:1" d="M 218.101,544.604 218.101,562.446 z" id="boundary" inkscape:connector-curvature="0" />
	<path style="fill:none;stroke:red;stroke-width:1px;stroke-linecap:butt;stroke-linejoin:miter;stroke-opacity:1" d="M 218.101,562.446 200.259,580.288 z" id="boundary" inkscape:connector-curvature="0" />
	<path style="fill:none;stroke:red;stroke-width:1px;stroke-linecap:butt;stroke-linejoin:miter;stroke-opacity:1" d="M 385.813,590.993 394.734,573.151 z" id="boundary" inkscape:connector-curvature="0" />
	<path style="fill:none;stroke:red;stroke-width:1px;stroke-linecap:butt;stroke-linejoin:miter;stroke-opacity:1" d="M 394.734,573.151 412.576,567.799 z" id="boundary" inkscape:connector-curvature="0" />
	<path style="fill:none;stroke:red;stroke-width:1px;stroke-linecap:butt;stroke-linejoin:miter;stroke-opacity:1" d="M 385.813,590.993 367.971,594.561 z" id="boundary" inkscape:connector-curvature="0" />
	<path style="fill:none;stroke:red;stroke-width:1px;stroke-linecap:butt;stroke-linejoin:miter;stroke-opacity:1" d="M 325.151,630.245 335.856,612.403 z" id="boundary" inkscape:connector-curvature="0" />
	<path style="fill:none;stroke:red;stroke-width:1px;stroke-linecap:butt;stroke-linejoin:miter;stroke-opacity:1" d="M 335.856,612.403 351.914,603.482 z" id="boundary" inkscape:connector-curvature="0" />
	<path style="fill:none;stroke:red;stroke-width:1px;stroke-linecap:butt;stroke-linejoin:miter;stroke-opacity:1" d="M 367.971,594.561 351.914,603.482 z" id="boundary" inkscape:connector-curvature="0" />
	<path style="fill:none;stroke:red;stroke-width:1px;stroke-linecap:butt;stroke-linejoin:miter;stroke-opacity:1" d="M 232.374,692.691 250.216,690.906 z" id="boundary" inkscape:connector-curvature="0" />
	<path style="fill:none;stroke:red;stroke-width:1px;stroke-linecap:butt;stroke-linejoin:miter;stroke-opacity:1" d="M 223.453,708.748 232.374,692.691 z" id="boundary" inkscape:connector-curvature="0" />
	<path style="fill:none;stroke:red;stroke-width:1px;stroke-linecap:butt;stroke-linejoin:miter;stroke-opacity:1" d="M 264.489,665.928 250.216,690.906 z" id="boundary" inkscape:connector-curvature="0" />
	<path style="fill:none;stroke:red;stroke-width:1px;stroke-linecap:butt;stroke-linejoin:miter;stroke-opacity:1" d="M 198.475,733.727 209.18,719.453 z" id="boundary" inkscape:connector-curvature="0" />
	<path style="fill:none;stroke:red;stroke-width:1px;stroke-linecap:butt;stroke-linejoin:miter;stroke-opacity:1" d="M 209.18,719.453 223.453,708.748 z" id="boundary" inkscape:connector-curvature="0" />
	<path style="fill:none;stroke:red;stroke-width:1px;stroke-linecap:butt;stroke-linejoin:miter;stroke-opacity:1" d="M 325.151,630.245 309.094,639.165 z" id="boundary" inkscape:connector-curvature="0" />
	<path style="fill:none;stroke:red;stroke-width:1px;stroke-linecap:butt;stroke-linejoin:miter;stroke-opacity:1" d="M 309.094,639.165 291.252,639.165 z" id="boundary" inkscape:connector-curvature="0" />
	<path style="fill:none;stroke:red;stroke-width:1px;stroke-linecap:butt;stroke-linejoin:miter;stroke-opacity:1" d="M 291.252,639.165 282.331,657.007 z" id="boundary" inkscape:connector-curvature="0" />
	<path style="fill:none;stroke:red;stroke-width:1px;stroke-linecap:butt;stroke-linejoin:miter;stroke-opacity:1" d="M 282.331,657.007 264.489,665.928 z" id="boundary" inkscape:connector-curvature="0" />
	<path style="fill:none;stroke:red;stroke-width:1px;stroke-linecap:butt;stroke-linejoin:miter;stroke-opacity:1" d="M 378.676,12.9209 396.518,12.9209 z" id="boundary" inkscape:connector-curvature="0" />
	<path style="fill:none;stroke:red;stroke-width:1px;stroke-linecap:butt;stroke-linejoin:miter;stroke-opacity:1" d="M 450.043,9.35252 467.885,4 z" id="boundary" inkscape:connector-curvature="0" />
	<path style="fill:none;stroke:red;stroke-width:1px;stroke-linecap:butt;stroke-linejoin:miter;stroke-opacity:1" d="M 467.885,4 485.727,4 z" id="boundary" inkscape:connector-curvature="0" />
	<path style="fill:none;stroke:red;stroke-width:1px;stroke-linecap:butt;stroke-linejoin:miter;stroke-opacity:1" d="M 414.36,12.9209 432.201,12.9209 z" id="boundary" inkscape:connector-curvature="0" />
	<path style="fill:none;stroke:red;stroke-width:1px;stroke-linecap:butt;stroke-linejoin:miter;stroke-opacity:1" d="M 414.36,12.9209 396.518,12.9209 z" id="boundary" inkscape:connector-curvature="0" />
	<path style="fill:none;stroke:red;stroke-width:1px;stroke-linecap:butt;stroke-linejoin:miter;stroke-opacity:1" d="M 450.043,9.35252 432.201,12.9209 z" id="boundary" inkscape:connector-curvature="0" />
	<path style="fill:none;stroke:red;stroke-width:1px;stroke-linecap:butt;stroke-linejoin:miter;stroke-opacity:1" d="M 539.252,7.56835 557.094,12.9209 z" id="boundary" inkscape:connector-curvature="0" />
	<path style="fill:none;stroke:red;stroke-width:1px;stroke-linecap:butt;stroke-linejoin:miter;stroke-opacity:1" d="M 539.252,7.56835 521.41,4 z" id="boundary" inkscape:connector-curvature="0" />
	<path style="fill:none;stroke:red;stroke-width:1px;stroke-linecap:butt;stroke-linejoin:miter;stroke-opacity:1" d="M 574.935,12.9209 557.094,12.9209 z" id="boundary" inkscape:connector-curvature="0" />
	<path style="fill:none;stroke:red;stroke-width:1px;stroke-linecap:butt;stroke-linejoin:miter;stroke-opacity:1" d="M 503.568,4 521.41,4 z" id="boundary" inkscape:connector-curvature="0" />
	<path style="fill:none;stroke:red;stroke-width:1px;stroke-linecap:butt;stroke-linejoin:miter;stroke-opacity:1" d="M 485.727,4 503.568,4 z" id="boundary" inkscape:connector-curvature="0" />
	<path style="fill:none;stroke:red;stroke-width:1px;stroke-linecap:butt;stroke-linejoin:miter;stroke-opacity:1" d="M 574.935,12.9209 592.777,12.9209 z" id="boundary" inkscape:connector-curvature="0" />
	<path style="fill:none;stroke:red;stroke-width:1px;stroke-linecap:butt;stroke-linejoin:miter;stroke-opacity:1" d="M 610.619,12.9209 628.46,12.9209 z" id="boundary" inkscape:connector-curvature="0" />
	<path style="fill:none;stroke:red;stroke-width:1px;stroke-linecap:butt;stroke-linejoin:miter;stroke-opacity:1" d="M 592.777,12.9209 610.619,12.9209 z" id="boundary" inkscape:connector-curvature="0" />
	<path style="fill:none;stroke:red;stroke-width:1px;stroke-linecap:butt;stroke-linejoin:miter;stroke-opacity:1" d="M 628.46,12.9209 646.302,16.4892 z" id="boundary" inkscape:connector-curvature="0" />
	<path style="fill:none;stroke:red;stroke-width:1px;stroke-linecap:butt;stroke-linejoin:miter;stroke-opacity:1" d="M 646.302,16.4892 657.007,30.7626 z" id="boundary" inkscape:connector-curvature="0" />
	<path style="fill:none;stroke:red;stroke-width:1px;stroke-linecap:butt;stroke-linejoin:miter;stroke-opacity:1" d="M 657.007,30.7626 674.849,30.7626 z" id="boundary" inkscape:connector-curvature="0" />
	<path style="fill:none;stroke:red;stroke-width:1px;stroke-linecap:butt;stroke-linejoin:miter;stroke-opacity:1" d="M 728.374,39.6835 710.532,36.1151 z" id="boundary" inkscape:connector-curvature="0" />
	<path style="fill:none;stroke:red;stroke-width:1px;stroke-linecap:butt;stroke-linejoin:miter;stroke-opacity:1" d="M 710.532,36.1151 692.691,30.7626 z" id="boundary" inkscape:connector-curvature="0" />
	<path style="fill:none;stroke:red;stroke-width:1px;stroke-linecap:butt;stroke-linejoin:miter;stroke-opacity:1" d="M 674.849,30.7626 692.691,30.7626 z" id="boundary" inkscape:connector-curvature="0" />
	<path style="fill:none;stroke:red;stroke-width:1px;stroke-linecap:butt;stroke-linejoin:miter;stroke-opacity:1" d="M 746.216,45.036 760.489,57.5252 z" id="boundary" inkscape:connector-curvature="0" />
	<path style="fill:none;stroke:red;stroke-width:1px;stroke-linecap:butt;stroke-linejoin:miter;stroke-opacity:1" d="M 728.374,39.6835 746.216,45.036 z" id="boundary" inkscape:connector-curvature="0" />
	<path style="fill:none;stroke:red;stroke-width:1px;stroke-linecap:butt;stroke-linejoin:miter;stroke-opacity:1" d="M 778.331,57.5252 760.489,57.5252 z" id="boundary" inkscape:connector-curvature="0" />
	<path style="fill:none;stroke:red;stroke-width:1px;stroke-linecap:butt;stroke-linejoin:miter;stroke-opacity:1" d="M 812.23,66.446 794.388,66.446 z" id="boundary" inkscape:connector-curvature="0" />
	<path style="fill:none;stroke:red;stroke-width:1px;stroke-linecap:butt;stroke-linejoin:miter;stroke-opacity:1" d="M 794.388,66.446 778.331,57.5252 z" id="boundary" inkscape:connector-curvature="0" />
	<path style="fill:none;stroke:red;stroke-width:1px;stroke-linecap:butt;stroke-linejoin:miter;stroke-opacity:1" d="M 812.23,66.446 826.504,77.1511 z" id="boundary" inkscape:connector-curvature="0" />
	<path style="fill:none;stroke:red;stroke-width:1px;stroke-linecap:butt;stroke-linejoin:miter;stroke-opacity:1" d="M 826.504,77.1511 844.345,84.2878 z" id="boundary" inkscape:connector-curvature="0" />
	<path style="fill:none;stroke:red;stroke-width:1px;stroke-linecap:butt;stroke-linejoin:miter;stroke-opacity:1" d="M 844.345,84.2878 860.403,93.2086 z" id="boundary" inkscape:connector-curvature="0" />
	<path style="fill:none;stroke:red;stroke-width:1px;stroke-linecap:butt;stroke-linejoin:miter;stroke-opacity:1" d="M 860.403,93.2086 878.245,96.777 z" id="boundary" inkscape:connector-curvature="0" />
	<path style="fill:none;stroke:red;stroke-width:1px;stroke-linecap:butt;stroke-linejoin:miter;stroke-opacity:1" d="M 878.245,96.777 888.95,111.05 z" id="boundary" inkscape:connector-curvature="0" />
	<path style="fill:none;stroke:red;stroke-width:1px;stroke-linecap:butt;stroke-linejoin:miter;stroke-opacity:1" d="M 906.791,116.403 888.95,111.05 z" id="boundary" inkscape:connector-curvature="0" />
	<path style="fill:none;stroke:red;stroke-width:1px;stroke-linecap:butt;stroke-linejoin:miter;stroke-opacity:1" d="M 954.964,173.496 940.691,161.007 z" id="boundary" inkscape:connector-curvature="0" />
	<path style="fill:none;stroke:red;stroke-width:1px;stroke-linecap:butt;stroke-linejoin:miter;stroke-opacity:1" d="M 940.691,161.007 933.554,143.165 z" id="boundary" inkscape:connector-curvature="0" />
	<path style="fill:none;stroke:red;stroke-width:1px;stroke-linecap:butt;stroke-linejoin:miter;stroke-opacity:1" d="M 954.964,173.496 960.317,191.338 z" id="boundary" inkscape:connector-curvature="0" />
	<path style="fill:none;stroke:red;stroke-width:1px;stroke-linecap:butt;stroke-linejoin:miter;stroke-opacity:1" d="M 921.065,128.892 933.554,143.165 z" id="boundary" inkscape:connector-curvature="0" />
	<path style="fill:none;stroke:red;stroke-width:1px;stroke-linecap:butt;stroke-linejoin:miter;stroke-opacity:1" d="M 960.317,191.338 969.237,207.396 z" id="boundary" inkscape:connector-curvature="0" />
	<path style="fill:none;stroke:red;stroke-width:1px;stroke-linecap:butt;stroke-linejoin:miter;stroke-opacity:1" d="M 969.237,207.396 969.237,225.237 z" id="boundary" inkscape:connector-curvature="0" />
	<path style="fill:none;stroke:red;stroke-width:1px;stroke-linecap:butt;stroke-linejoin:miter;stroke-opacity:1" d="M 987.079,232.374 987.079,250.216 z" id="boundary" inkscape:connector-curvature="0" />
	<path style="fill:none;stroke:red;stroke-width:1px;stroke-linecap:butt;stroke-linejoin:miter;stroke-opacity:1" d="M 994.216,268.058 987.079,250.216 z" id="boundary" inkscape:connector-curvature="0" />
	<path style="fill:none;stroke:red;stroke-width:1px;stroke-linecap:butt;stroke-linejoin:miter;stroke-opacity:1" d="M 906.791,116.403 921.065,128.892 z" id="boundary" inkscape:connector-curvature="0" />
	<path style="fill:none;stroke:red;stroke-width:1px;stroke-linecap:butt;stroke-linejoin:miter;stroke-opacity:1" d="M 642.734,566.014 651.655,549.957 z" id="boundary" inkscape:connector-curvature="0" />
	<path style="fill:none;stroke:red;stroke-width:1px;stroke-linecap:butt;stroke-linejoin:miter;stroke-opacity:1" d="M 651.655,549.957 669.496,549.957 z" id="boundary" inkscape:connector-curvature="0" />
	<path style="fill:none;stroke:red;stroke-width:1px;stroke-linecap:butt;stroke-linejoin:miter;stroke-opacity:1" d="M 571.367,567.799 553.525,567.799 z" id="boundary" inkscape:connector-curvature="0" />
	<path style="fill:none;stroke:red;stroke-width:1px;stroke-linecap:butt;stroke-linejoin:miter;stroke-opacity:1" d="M 412.576,567.799 430.417,567.799 z" id="boundary" inkscape:connector-curvature="0" />
	<path style="fill:none;stroke:red;stroke-width:1px;stroke-linecap:butt;stroke-linejoin:miter;stroke-opacity:1" d="M 430.417,567.799 446.475,576.719 z" id="boundary" inkscape:connector-curvature="0" />
	<path style="fill:none;stroke:red;stroke-width:1px;stroke-linecap:butt;stroke-linejoin:miter;stroke-opacity:1" d="M 642.734,566.014 624.892,567.799 z" id="boundary" inkscape:connector-curvature="0" />
	<path style="fill:none;stroke:red;stroke-width:1px;stroke-linecap:butt;stroke-linejoin:miter;stroke-opacity:1" d="M 723.022,541.036 740.863,539.252 z" id="boundary" inkscape:connector-curvature="0" />
	<path style="fill:none;stroke:red;stroke-width:1px;stroke-linecap:butt;stroke-linejoin:miter;stroke-opacity:1" d="M 705.18,548.173 723.022,541.036 z" id="boundary" inkscape:connector-curvature="0" />
	<path style="fill:none;stroke:red;stroke-width:1px;stroke-linecap:butt;stroke-linejoin:miter;stroke-opacity:1" d="M 749.784,523.194 740.863,539.252 z" id="boundary" inkscape:connector-curvature="0" />
	<path style="fill:none;stroke:red;stroke-width:1px;stroke-linecap:butt;stroke-linejoin:miter;stroke-opacity:1" d="M 705.18,548.173 687.338,549.957 z" id="boundary" inkscape:connector-curvature="0" />
	<path style="fill:none;stroke:red;stroke-width:1px;stroke-linecap:butt;stroke-linejoin:miter;stroke-opacity:1" d="M 669.496,549.957 687.338,549.957 z" id="boundary" inkscape:connector-curvature="0" />
	<path style="fill:none;stroke:red;stroke-width:1px;stroke-linecap:butt;stroke-linejoin:miter;stroke-opacity:1" d="M 446.475,576.719 464.317,576.719 z" id="boundary" inkscape:connector-curvature="0" />
	<path style="fill:none;stroke:red;stroke-width:1px;stroke-linecap:butt;stroke-linejoin:miter;stroke-opacity:1" d="M 482.158,576.719 500,576.719 z" id="boundary" inkscape:connector-curvature="0" />
	<path style="fill:none;stroke:red;stroke-width:1px;stroke-linecap:butt;stroke-linejoin:miter;stroke-opacity:1" d="M 517.842,576.719 500,576.719 z" id="boundary" inkscape:connector-curvature="0" />
	<path style="fill:none;stroke:red;stroke-width:1px;stroke-linecap:butt;stroke-linejoin:miter;stroke-opacity:1" d="M 482.158,576.719 464.317,576.719 z" id="boundary" inkscape:connector-curvature="0" />
	<path style="fill:none;stroke:red;stroke-width:1px;stroke-linecap:butt;stroke-linejoin:miter;stroke-opacity:1" d="M 571.367,567.799 589.209,567.799 z" id="boundary" inkscape:connector-curvature="0" />
	<path style="fill:none;stroke:red;stroke-width:1px;stroke-linecap:butt;stroke-linejoin:miter;stroke-opacity:1" d="M 607.05,567.799 624.892,567.799 z" id="boundary" inkscape:connector-curvature="0" />
	<path style="fill:none;stroke:red;stroke-width:1px;stroke-linecap:butt;stroke-linejoin:miter;stroke-opacity:1" d="M 589.209,567.799 607.05,567.799 z" id="boundary" inkscape:connector-curvature="0" />
	<path style="fill:none;stroke:red;stroke-width:1px;stroke-linecap:butt;stroke-linejoin:miter;stroke-opacity:1" d="M 553.525,567.799 535.683,574.935 z" id="boundary" inkscape:connector-curvature="0" />
	<path style="fill:none;stroke:red;stroke-width:1px;stroke-linecap:butt;stroke-linejoin:miter;stroke-opacity:1" d="M 535.683,574.935 517.842,576.719 z" id="boundary" inkscape:connector-curvature="0" />
	<path style="fill:none;stroke:red;stroke-width:1px;stroke-linecap:butt;stroke-linejoin:miter;stroke-opacity:1" d="M 946.043,407.223 960.317,380.46 z" id="boundary" inkscape:connector-curvature="0" />
	<path style="fill:none;stroke:red;stroke-width:1px;stroke-linecap:butt;stroke-linejoin:miter;stroke-opacity:1" d="M 922.849,433.986 906.791,442.906 z" id="boundary" inkscape:connector-curvature="0" />
	<path style="fill:none;stroke:red;stroke-width:1px;stroke-linecap:butt;stroke-linejoin:miter;stroke-opacity:1" d="M 946.043,407.223 937.122,423.281 z" id="boundary" inkscape:connector-curvature="0" />
	<path style="fill:none;stroke:red;stroke-width:1px;stroke-linecap:butt;stroke-linejoin:miter;stroke-opacity:1" d="M 937.122,423.281 922.849,433.986 z" id="boundary" inkscape:connector-curvature="0" />
	<path style="fill:none;stroke:red;stroke-width:1px;stroke-linecap:butt;stroke-linejoin:miter;stroke-opacity:1" d="M 896.086,460.748 906.791,442.906 z" id="boundary" inkscape:connector-curvature="0" />
	<path style="fill:none;stroke:red;stroke-width:1px;stroke-linecap:butt;stroke-linejoin:miter;stroke-opacity:1" d="M 969.237,353.698 960.317,380.46 z" id="boundary" inkscape:connector-curvature="0" />
	<path style="fill:none;stroke:red;stroke-width:1px;stroke-linecap:butt;stroke-linejoin:miter;stroke-opacity:1" d="M 996,285.899 987.079,318.014 z" id="boundary" inkscape:connector-curvature="0" />
	<path style="fill:none;stroke:red;stroke-width:1px;stroke-linecap:butt;stroke-linejoin:miter;stroke-opacity:1" d="M 987.079,318.014 987.079,335.856 z" id="boundary" inkscape:connector-curvature="0" />
	<path style="fill:none;stroke:red;stroke-width:1px;stroke-linecap:butt;stroke-linejoin:miter;stroke-opacity:1" d="M 987.079,335.856 969.237,353.698 z" id="boundary" inkscape:connector-curvature="0" />
	<path style="fill:none;stroke:red;stroke-width:1px;stroke-linecap:butt;stroke-linejoin:miter;stroke-opacity:1" d="M 803.309,514.273 821.151,512.489 z" id="boundary" inkscape:connector-curvature="0" />
	<path style="fill:none;stroke:red;stroke-width:1px;stroke-linecap:butt;stroke-linejoin:miter;stroke-opacity:1" d="M 785.468,521.41 803.309,514.273 z" id="boundary" inkscape:connector-curvature="0" />
	<path style="fill:none;stroke:red;stroke-width:1px;stroke-linecap:butt;stroke-linejoin:miter;stroke-opacity:1" d="M 830.072,496.432 821.151,512.489 z" id="boundary" inkscape:connector-curvature="0" />
	<path style="fill:none;stroke:red;stroke-width:1px;stroke-linecap:butt;stroke-linejoin:miter;stroke-opacity:1" d="M 785.468,521.41 767.626,523.194 z" id="boundary" inkscape:connector-curvature="0" />
	<path style="fill:none;stroke:red;stroke-width:1px;stroke-linecap:butt;stroke-linejoin:miter;stroke-opacity:1" d="M 749.784,523.194 767.626,523.194 z" id="boundary" inkscape:connector-curvature="0" />
	<path style="fill:none;stroke:red;stroke-width:1px;stroke-linecap:butt;stroke-linejoin:miter;stroke-opacity:1" d="M 896.086,460.748 880.029,469.669 z" id="boundary" inkscape:connector-curvature="0" />
	<path style="fill:none;stroke:red;stroke-width:1px;stroke-linecap:butt;stroke-linejoin:miter;stroke-opacity:1" d="M 880.029,469.669 862.187,469.669 z" id="boundary" inkscape:connector-curvature="0" />
	<path style="fill:none;stroke:red;stroke-width:1px;stroke-linecap:butt;stroke-linejoin:miter;stroke-opacity:1" d="M 847.914,494.647 830.072,496.432 z" id="boundary" inkscape:connector-curvature="0" />
	<path style="fill:none;stroke:red;stroke-width:1px;stroke-linecap:butt;stroke-linejoin:miter;stroke-opacity:1" d="M 994.216,268.058 996,285.899 z" id="boundary" inkscape:connector-curvature="0" />
	<circle cx="4" cy="268.058" r="4" fill="#0" id="circle0"/>
	<circle cx="4" cy="285.899" r="4" fill="#0" id="circle1"/>
	<circle cx="4" cy="303.741" r="4" fill="#0" id="circle2"/>
	<circle cx="14.705" cy="318.014" r="4" fill="#0" id="circle3"/>
	<circle cx="21.8417" cy="232.374" r="4" fill="#0" id="circle4"/>
	<circle cx="21.8417" cy="250.216" r="4" fill="#0" id="circle5"/>
	<circle cx="21.8417" cy="335.856" r="4" fill="#0" id="circle6"/>
	<circle cx="27.1942" cy="353.698" r="4" fill="#0" id="circle7"/>
	<circle cx="30.7626" cy="205.612" r="4" fill="#0" id="circle8"/>
	<circle cx="30.7626" cy="371.54" r="4" fill="#0" id="circle9"/>
	<circle cx="46.8201" cy="380.46" r="4" fill="#0" id="circle10"/>
	<circle cx="48.6043" cy="178.849" r="4" fill="#0" id="circle11"/>
	<circle cx="48.6043" cy="196.691" r="4" fill="#0" id="circle12"/>
	<circle cx="48.6043" cy="398.302" r="4" fill="#0" id="circle13"/>
	<circle cx="57.5252" cy="161.007" r="4" fill="#0" id="circle14"/>
	<circle cx="57.5252" cy="414.36" r="4" fill="#0" id="circle15"/>
	<circle cx="71.7986" cy="425.065" r="4" fill="#0" id="circle16"/>
	<circle cx="75.3669" cy="134.245" r="4" fill="#0" id="circle17"/>
	<circle cx="75.3669" cy="152.086" r="4" fill="#0" id="circle18"/>
	<circle cx="86.0719" cy="437.554" r="4" fill="#0" id="circle19"/>
	<circle cx="89.6403" cy="119.971" r="4" fill="#0" id="circle20"/>
	<circle cx="103.914" cy="442.906" r="4" fill="#0" id="circle21"/>
	<circle cx="105.698" cy="111.05" r="4" fill="#0" id="circle22"/>
	<circle cx="114.619" cy="457.18" r="4" fill="#0" id="circle23"/>
	<circle cx="119.971" cy="98.5612" r="4" fill="#0" id="circle24"/>
	<circle cx="128.892" cy="469.669" r="4" fill="#0" id="circle25"/>
	<circle cx="137.813" cy="93.2086" r="4" fill="#0" id="circle26"/>
	<circle cx="137.813" cy="749.784" r="4" fill="#0" id="circle27"/>
	<circle cx="137.813" cy="767.626" r="4" fill="#0" id="circle28"/>
	<circle cx="139.597" cy="483.942" r="4" fill="#0" id="circle29"/>
	<circle cx="146.734" cy="714.101" r="4" fill="#0" id="circle30"/>
	<circle cx="146.734" cy="731.942" r="4" fill="#0" id="circle31"/>
	<circle cx="153.871" cy="84.2878" r="4" fill="#0" id="circle32"/>
	<circle cx="155.655" cy="764.058" r="4" fill="#0" id="circle33"/>
	<circle cx="157.439" cy="487.511" r="4" fill="#0" id="circle34"/>
	<circle cx="164.576" cy="687.338" r="4" fill="#0" id="circle35"/>
	<circle cx="164.576" cy="705.18" r="4" fill="#0" id="circle36"/>
	<circle cx="166.36" cy="746.216" r="4" fill="#0" id="circle37"/>
	<circle cx="171.712" cy="84.2878" r="4" fill="#0" id="circle38"/>
	<circle cx="173.496" cy="496.432" r="4" fill="#0" id="circle39"/>
	<circle cx="173.496" cy="642.734" r="4" fill="#0" id="circle40"/>
	<circle cx="173.496" cy="660.576" r="4" fill="#0" id="circle41"/>
	<circle cx="178.849" cy="66.446" r="4" fill="#0" id="circle42"/>
	<circle cx="184.201" cy="746.216" r="4" fill="#0" id="circle43"/>
	<circle cx="191.338" cy="496.432" r="4" fill="#0" id="circle44"/>
	<circle cx="191.338" cy="607.05" r="4" fill="#0" id="circle45"/>
	<circle cx="191.338" cy="624.892" r="4" fill="#0" id="circle46"/>
	<circle cx="196.691" cy="66.446" r="4" fill="#0" id="circle47"/>
	<circle cx="196.691" cy="514.273" r="4" fill="#0" id="circle48"/>
	<circle cx="198.475" cy="733.727" r="4" fill="#0" id="circle49"/>
	<circle cx="200.259" cy="580.288" r="4" fill="#0" id="circle50"/>
	<circle cx="209.18" cy="719.453" r="4" fill="#0" id="circle51"/>
	<circle cx="214.532" cy="66.446" r="4" fill="#0" id="circle52"/>
	<circle cx="214.532" cy="514.273" r="4" fill="#0" id="circle53"/>
	<circle cx="218.101" cy="544.604" r="4" fill="#0" id="circle54"/>
	<circle cx="218.101" cy="562.446" r="4" fill="#0" id="circle55"/>
	<circle cx="223.453" cy="708.748" r="4" fill="#0" id="circle56"/>
	<circle cx="227.022" cy="528.547" r="4" fill="#0" id="circle57"/>
	<circle cx="230.59" cy="57.5252" r="4" fill="#0" id="circle58"/>
	<circle cx="232.374" cy="692.691" r="4" fill="#0" id="circle59"/>
	<circle cx="248.432" cy="57.5252" r="4" fill="#0" id="circle60"/>
	<circle cx="250.216" cy="690.906" r="4" fill="#0" id="circle61"/>
	<circle cx="257.353" cy="41.4676" r="4" fill="#0" id="circle62"/>
	<circle cx="264.489" cy="665.928" r="4" fill="#0" id="circle63"/>
	<circle cx="275.194" cy="39.6835" r="4" fill="#0" id="circle64"/>
	<circle cx="282.331" cy="657.007" r="4" fill="#0" id="circle65"/>
	<circle cx="291.252" cy="639.165" r="4" fill="#0" id="circle66"/>
	<circle cx="293.036" cy="32.5468" r="4" fill="#0" id="circle67"/>
	<circle cx="309.094" cy="639.165" r="4" fill="#0" id="circle68"/>
	<circle cx="310.878" cy="30.7626" r="4" fill="#0" id="circle69"/>
	<circle cx="325.151" cy="630.245" r="4" fill="#0" id="circle70"/>
	<circle cx="328.719" cy="30.7626" r="4" fill="#0" id="circle71"/>
	<circle cx="335.856" cy="612.403" r="4" fill="#0" id="circle72"/>
	<circle cx="346.561" cy="30.7626" r="4" fill="#0" id="circle73"/>
	<circle cx="351.914" cy="603.482" r="4" fill="#0" id="circle74"/>
	<circle cx="360.835" cy="18.2734" r="4" fill="#0" id="circle75"/>
	<circle cx="367.971" cy="594.561" r="4" fill="#0" id="circle76"/>
	<circle cx="378.676" cy="12.9209" r="4" fill="#0" id="circle77"/>
	<circle cx="385.813" cy="590.993" r="4" fill="#0" id="circle78"/>
	<circle cx="394.734" cy="573.151" r="4" fill="#0" id="circle79"/>
	<circle cx="396.518" cy="12.9209" r="4" fill="#0" id="circle80"/>
	<circle cx="412.576" cy="567.799" r="4" fill="#0" id="circle81"/>
	<circle cx="414.36" cy="12.9209" r="4" fill="#0" id="circle82"/>
	<circle cx="430.417" cy="567.799" r="4" fill="#0" id="circle83"/>
	<circle cx="432.201" cy="12.9209" r="4" fill="#0" id="circle84"/>
	<circle cx="446.475" cy="576.719" r="4" fill="#0" id="circle85"/>
	<circle cx="450.043" cy="9.35252" r="4" fill="#0" id="circle86"/>
	<circle cx="464.317" cy="576.719" r="4" fill="#0" id="circle87"/>
	<circle cx="467.885" cy="4" r="4" fill="#0" id="circle88"/>
	<circle cx="482.158" cy="576.719" r="4" fill="#0" id="circle89"/>
	<circle cx="485.727" cy="4" r="4" fill="#0" id="circle90"/>
	<circle cx="500" cy="576.719" r="4" fill="#0" id="circle91"/>
	<circle cx="503.568" cy="4" r="4" fill="#0" id="circle92"/>
	<circle cx="517.842" cy="576.719" r="4" fill="#0" id="circle93"/>
	<circle cx="521.41" cy="4" r="4" fill="#0" id="circle94"/>
	<circle cx="535.683" cy="574.935" r="4" fill="#0" id="circle95"/>
	<circle cx="539.252" cy="7.56835" r="4" fill="#0" id="circle96"/>
	<circle cx="553.525" cy="567.799" r="4" fill="#0" id="circle97"/>
	<circle cx="557.094" cy="12.9209" r="4" fill="#0" id="circle98"/>
	<circle cx="571.367" cy="567.799" r="4" fill="#0" id="circle99"/>
	<circle cx="574.935" cy="12.9209" r="4" fill="#0" id="circle100"/>
	<circle cx="589.209" cy="567.799" r="4" fill="#0" id="circle101"/>
	<circle cx="592.777" cy="12.9209" r="4" fill="#0" id="circle102"/>
	<circle cx="607.05" cy="567.799" r="4" fill="#0" id="circle103"/>
	<circle cx="610.619" cy="12.9209" r="4" fill="#0" id="circle104"/>
	<circle cx="624.892" cy="567.799" r="4" fill="#0" id="circle105"/>
	<circle cx="628.46" cy="12.9209" r="4" fill="#0" id="circle106"/>
	<circle cx="642.734" cy="566.014" r="4" fill="#0" id="circle107"/>
	<circle cx="646.302" cy="16.4892" r="4" fill="#0" id="circle108"/>
	<circle cx="651.655" cy="549.957" r="4" fill="#0" id="circle109"/>
	<circle cx="657.007" cy="30.7626" r="4" fill="#0" id="circle110"/>
	<circle cx="669.496" cy="549.957" r="4" fill="#0" id="circle111"/>
	<circle cx="674.849" cy="30.7626" r="4" fill="#0" id="circle112"/>
	<circle cx="687.338" cy="549.957" r="4" fill="#0" id="circle113"/>
	<circle cx="692.691" cy="30.7626" r="4" fill="#0" id="circle114"/>
	<circle cx="705.18" cy="548.173" r="4" fill="#0" id="circle115"/>
	<circle cx="710.532" cy="36.1151" r="4" fill="#0" id="circle116"/>
	<circle cx="723.022" cy="541.036" r="4" fill="#0" id="circle117"/>
	<circle cx="728.374" cy="39.6835" r="4" fill="#0" id="circle118"/>
	<circle cx="740.863" cy="539.252" r="4" fill="#0" id="circle119"/>
	<circle cx="746.216" cy="45.036" r="4" fill="#0" id="circle120"/>
	<circle cx="749.784" cy="523.194" r="4" fill="#0" id="circle121"/>
	<circle cx="760.489" cy="57.5252" r="4" fill="#0" id="circle122"/>
	<circle cx="767.626" cy="523.194" r="4" fill="#0" id="circle123"/>
	<circle cx="778.331" cy="57.5252" r="4" fill="#0" id="circle124"/>
	<circle cx="785.468" cy="521.41" r="4" fill="#0" id="circle125"/>
	<circle cx="794.388" cy="66.446" r="4" fill="#0" id="circle126"/>
	<circle cx="803.309" cy="514.273" r="4" fill="#0" id="circle127"/>
	<circle cx="812.23" cy="66.446" r="4" fill="#0" id="circle128"/>
	<circle cx="821.151" cy="512.489" r="4" fill="#0" id="circle129"/>
	<circle cx="826.504" cy="77.1511" r="4" fill="#0" id="circle130"/>
	<circle cx="830.072" cy="496.432" r="4" fill="#0" id="circle131"/>
	<circle cx="844.345" cy="84.2878" r="4" fill="#0" id="circle132"/>
	<circle cx="847.914" cy="494.647" r="4" fill="#0" id="circle133"/>
	<circle cx="860.403" cy="93.2086" r="4" fill="#0" id="circle134"/>
	<circle cx="862.187" cy="469.669" r="4" fill="#0" id="circle135"/>
	<circle cx="878.245" cy="96.777" r="4" fill="#0" id="circle136"/>
	<circle cx="880.029" cy="469.669" r="4" fill="#0" id="circle137"/>
	<circle cx="888.95" cy="111.05" r="4" fill="#0" id="circle138"/>
	<circle cx="896.086" cy="460.748" r="4" fill="#0" id="circle139"/>
	<circle cx="906.791" cy="116.403" r="4" fill="#0" id="circle140"/>
	<circle cx="906.791" cy="442.906" r="4" fill="#0" id="circle141"/>
	<circle cx="921.065" cy="128.892" r="4" fill="#0" id="circle142"/>
	<circle cx="922.849" cy="433.986" r="4" fill="#0" id="circle143"/>
	<circle cx="933.554" cy="143.165" r="4" fill="#0" id="circle144"/>
	<circle cx="937.122" cy="423.281" r="4" fill="#0" id="circle145"/>
	<circle cx="940.691" cy="161.007" r="4" fill="#0" id="circle146"/>
	<circle cx="946.043" cy="407.223" r="4" fill="#0" id="circle147"/>
	<circle cx="954.964" cy="173.496" r="4" fill="#0" id="circle148"/>
	<circle cx="960.317" cy="191.338" r="4" fill="#0" id="circle149"/>
	<circle cx="960.317" cy="380.46" r="4" fill="#0" id="circle150"/>
	<circle cx="969.237" cy="207.396" r="4" fill="#0" id="circle151"/>
	<circle cx="969.237" cy="225.237" r="4" fill="#0" id="circle152"/>
	<circle cx="969.237" cy="353.698" r="4" fill="#0" id="circle153"/>
	<circle cx="987.079" cy="232.374" r="4" fill="#0" id="circle154"/>
	<circle cx="987.079" cy="250.216" r="4" fill="#0" id="circle155"/>
	<circle cx="987.079" cy="318.014" r="4" fill="#0" id="circle156"/>
	<circle cx="987.079" cy="335.856" r="4" fill="#0" id="circle157"/>
	<circle cx="994.216" cy="268.058" r="4" fill="#0" id="circle158"/>
	<circle cx="996" cy="285.899" r="4" fill="#0" id="circle159"/>
	</g>
</svg>