<?xml version="1.0" encoding="UTF-8" standalone="no"?>
<!-- Created with CurveBenchmark -->
<svg
	xmlns:dc="http://purl.org/dc/elements/1.1/"
	xmlns:cc="http://creativecommons.org/ns#"
	xmlns:rdf="http://www.w3.org/1999/02/22-rdf-syntax-ns#"
	xmlns:svg="http://www.w3.org/2000/svg"
	xmlns="http://www.w3.org/2000/svg"
	xmlns:sodipodi="http://sodipodi.sourceforge.net/DTD/sodipodi-0.dtd"
	xmlns:inkscape="http://www.inkscape.org/namespaces/inkscape"
	width="1000"
	height="1000"
	id="svg2"
	version="1.1"
	sodipodi:docname="manifold/gathan1-textbox30.png.txt">
<defs
	id="defs4" />
<metadata
	id="metadata7">
	<rdf:RDF>
		<cc:Work
			rdf:about="">
			<dc:format>image/svg+xml</dc:format>
			<dc:type
				rdf:resource="http://purl.org/dc/dcmitype/StillImage" />
			<dc:title></dc:title>
		</cc:Work>
	</rdf:RDF>
</metadata>
<g
	inkscape:label="Layer 1"
	inkscape:groupmode="layer"
	id="layer1">
	<path style="fill:none;stroke:red;stroke-width:1px;stroke-linecap:butt;stroke-linejoin:miter;stroke-opacity:1" d="M 137.813,227.022 121.755,235.942 z" id="boundary" inkscape:connector-curvature="0" />
	<path style="fill:none;stroke:red;stroke-width:1px;stroke-linecap:butt;stroke-linejoin:miter;stroke-opacity:1" d="M 121.755,235.942 103.914,239.511 z" id="boundary" inkscape:connector-curvature="0" />
	<path style="fill:none;stroke:red;stroke-width:1px;stroke-linecap:butt;stroke-linejoin:miter;stroke-opacity:1" d="M 89.6403,253.784 103.914,239.511 z" id="boundary" inkscape:connector-curvature="0" />
	<path style="fill:none;stroke:red;stroke-width:1px;stroke-linecap:butt;stroke-linejoin:miter;stroke-opacity:1" d="M 75.3669,268.058 89.6403,253.784 z" id="boundary" inkscape:connector-curvature="0" />
	<path style="fill:none;stroke:red;stroke-width:1px;stroke-linecap:butt;stroke-linejoin:miter;stroke-opacity:1" d="M 155.655,214.532 137.813,227.022 z" id="boundary" inkscape:connector-curvature="0" />
	<path style="fill:none;stroke:red;stroke-width:1px;stroke-linecap:butt;stroke-linejoin:miter;stroke-opacity:1" d="M 219.885,185.986 209.18,200.259 z" id="boundary" inkscape:connector-curvature="0" />
	<path style="fill:none;stroke:red;stroke-width:1px;stroke-linecap:butt;stroke-linejoin:miter;stroke-opacity:1" d="M 209.18,200.259 191.338,200.259 z" id="boundary" inkscape:connector-curvature="0" />
	<path style="fill:none;stroke:red;stroke-width:1px;stroke-linecap:butt;stroke-linejoin:miter;stroke-opacity:1" d="M 191.338,200.259 173.496,205.612 z" id="boundary" inkscape:connector-curvature="0" />
	<path style="fill:none;stroke:red;stroke-width:1px;stroke-linecap:butt;stroke-linejoin:miter;stroke-opacity:1" d="M 155.655,214.532 173.496,205.612 z" id="boundary" inkscape:connector-curvature="0" />
	<path style="fill:none;stroke:red;stroke-width:1px;stroke-linecap:butt;stroke-linejoin:miter;stroke-opacity:1" d="M 219.885,185.986 237.727,182.417 z" id="boundary" inkscape:connector-curvature="0" />
	<path style="fill:none;stroke:red;stroke-width:1px;stroke-linecap:butt;stroke-linejoin:miter;stroke-opacity:1" d="M 4,401.871 4,384.029 z" id="boundary" inkscape:connector-curvature="0" />
	<path style="fill:none;stroke:red;stroke-width:1px;stroke-linecap:butt;stroke-linejoin:miter;stroke-opacity:1" d="M 4,384.029 21.8417,366.187 z" id="boundary" inkscape:connector-curvature="0" />
	<path style="fill:none;stroke:red;stroke-width:1px;stroke-linecap:butt;stroke-linejoin:miter;stroke-opacity:1" d="M 30.7626,321.583 21.8417,348.345 z" id="boundary" inkscape:connector-curvature="0" />
	<path style="fill:none;stroke:red;stroke-width:1px;stroke-linecap:butt;stroke-linejoin:miter;stroke-opacity:1" d="M 14.705,433.986 4,419.712 z" id="boundary" inkscape:connector-curvature="0" />
	<path style="fill:none;stroke:red;stroke-width:1px;stroke-linecap:butt;stroke-linejoin:miter;stroke-opacity:1" d="M 4,419.712 4,401.871 z" id="boundary" inkscape:connector-curvature="0" />
	<path style="fill:none;stroke:red;stroke-width:1px;stroke-linecap:butt;stroke-linejoin:miter;stroke-opacity:1" d="M 21.8417,348.345 21.8417,366.187 z" id="boundary" inkscape:connector-curvature="0" />
	<path style="fill:none;stroke:red;stroke-width:1px;stroke-linecap:butt;stroke-linejoin:miter;stroke-opacity:1" d="M 57.5252,285.899 75.3669,268.058 z" id="boundary" inkscape:connector-curvature="0" />
	<path style="fill:none;stroke:red;stroke-width:1px;stroke-linecap:butt;stroke-linejoin:miter;stroke-opacity:1" d="M 48.6043,303.741 57.5252,285.899 z" id="boundary" inkscape:connector-curvature="0" />
	<path style="fill:none;stroke:red;stroke-width:1px;stroke-linecap:butt;stroke-linejoin:miter;stroke-opacity:1" d="M 30.7626,321.583 48.6043,303.741 z" id="boundary" inkscape:connector-curvature="0" />
	<path style="fill:none;stroke:red;stroke-width:1px;stroke-linecap:butt;stroke-linejoin:miter;stroke-opacity:1" d="M 371.54,146.734 389.381,146.734 z" id="boundary" inkscape:connector-curvature="0" />
	<path style="fill:none;stroke:red;stroke-width:1px;stroke-linecap:butt;stroke-linejoin:miter;stroke-opacity:1" d="M 355.482,155.655 371.54,146.734 z" id="boundary" inkscape:connector-curvature="0" />
	<path style="fill:none;stroke:red;stroke-width:1px;stroke-linecap:butt;stroke-linejoin:miter;stroke-opacity:1" d="M 407.223,146.734 425.065,146.734 z" id="boundary" inkscape:connector-curvature="0" />
	<path style="fill:none;stroke:red;stroke-width:1px;stroke-linecap:butt;stroke-linejoin:miter;stroke-opacity:1" d="M 407.223,146.734 389.381,146.734 z" id="boundary" inkscape:connector-curvature="0" />
	<path style="fill:none;stroke:red;stroke-width:1px;stroke-linecap:butt;stroke-linejoin:miter;stroke-opacity:1" d="M 460.748,146.734 471.453,130.676 z" id="boundary" inkscape:connector-curvature="0" />
	<path style="fill:none;stroke:red;stroke-width:1px;stroke-linecap:butt;stroke-linejoin:miter;stroke-opacity:1" d="M 471.453,130.676 489.295,128.892 z" id="boundary" inkscape:connector-curvature="0" />
	<path style="fill:none;stroke:red;stroke-width:1px;stroke-linecap:butt;stroke-linejoin:miter;stroke-opacity:1" d="M 507.137,128.892 489.295,128.892 z" id="boundary" inkscape:connector-curvature="0" />
	<path style="fill:none;stroke:red;stroke-width:1px;stroke-linecap:butt;stroke-linejoin:miter;stroke-opacity:1" d="M 460.748,146.734 442.906,146.734 z" id="boundary" inkscape:connector-curvature="0" />
	<path style="fill:none;stroke:red;stroke-width:1px;stroke-linecap:butt;stroke-linejoin:miter;stroke-opacity:1" d="M 442.906,146.734 425.065,146.734 z" id="boundary" inkscape:connector-curvature="0" />
	<path style="fill:none;stroke:red;stroke-width:1px;stroke-linecap:butt;stroke-linejoin:miter;stroke-opacity:1" d="M 507.137,128.892 524.978,128.892 z" id="boundary" inkscape:connector-curvature="0" />
	<path style="fill:none;stroke:red;stroke-width:1px;stroke-linecap:butt;stroke-linejoin:miter;stroke-opacity:1" d="M 273.41,173.496 291.252,173.496 z" id="boundary" inkscape:connector-curvature="0" />
	<path style="fill:none;stroke:red;stroke-width:1px;stroke-linecap:butt;stroke-linejoin:miter;stroke-opacity:1" d="M 255.568,177.065 273.41,173.496 z" id="boundary" inkscape:connector-curvature="0" />
	<path style="fill:none;stroke:red;stroke-width:1px;stroke-linecap:butt;stroke-linejoin:miter;stroke-opacity:1" d="M 301.957,157.439 291.252,173.496 z" id="boundary" inkscape:connector-curvature="0" />
	<path style="fill:none;stroke:red;stroke-width:1px;stroke-linecap:butt;stroke-linejoin:miter;stroke-opacity:1" d="M 255.568,177.065 237.727,182.417 z" id="boundary" inkscape:connector-curvature="0" />
	<path style="fill:none;stroke:red;stroke-width:1px;stroke-linecap:butt;stroke-linejoin:miter;stroke-opacity:1" d="M 337.64,155.655 319.799,155.655 z" id="boundary" inkscape:connector-curvature="0" />
	<path style="fill:none;stroke:red;stroke-width:1px;stroke-linecap:butt;stroke-linejoin:miter;stroke-opacity:1" d="M 337.64,155.655 355.482,155.655 z" id="boundary" inkscape:connector-curvature="0" />
	<path style="fill:none;stroke:red;stroke-width:1px;stroke-linecap:butt;stroke-linejoin:miter;stroke-opacity:1" d="M 301.957,157.439 319.799,155.655 z" id="boundary" inkscape:connector-curvature="0" />
	<path style="fill:none;stroke:red;stroke-width:1px;stroke-linecap:butt;stroke-linejoin:miter;stroke-opacity:1" d="M 21.8417,451.827 27.1942,469.669 z" id="boundary" inkscape:connector-curvature="0" />
	<path style="fill:none;stroke:red;stroke-width:1px;stroke-linecap:butt;stroke-linejoin:miter;stroke-opacity:1" d="M 21.8417,451.827 14.705,433.986 z" id="boundary" inkscape:connector-curvature="0" />
	<path style="fill:none;stroke:red;stroke-width:1px;stroke-linecap:butt;stroke-linejoin:miter;stroke-opacity:1" d="M 27.1942,469.669 30.7626,487.511 z" id="boundary" inkscape:connector-curvature="0" />
	<path style="fill:none;stroke:red;stroke-width:1px;stroke-linecap:butt;stroke-linejoin:miter;stroke-opacity:1" d="M 46.8201,496.432 30.7626,487.511 z" id="boundary" inkscape:connector-curvature="0" />
	<path style="fill:none;stroke:red;stroke-width:1px;stroke-linecap:butt;stroke-linejoin:miter;stroke-opacity:1" d="M 46.8201,496.432 48.6043,514.273 z" id="boundary" inkscape:connector-curvature="0" />
	<path style="fill:none;stroke:red;stroke-width:1px;stroke-linecap:butt;stroke-linejoin:miter;stroke-opacity:1" d="M 57.5252,530.331 71.7986,541.036 z" id="boundary" inkscape:connector-curvature="0" />
	<path style="fill:none;stroke:red;stroke-width:1px;stroke-linecap:butt;stroke-linejoin:miter;stroke-opacity:1" d="M 71.7986,541.036 75.3669,558.878 z" id="boundary" inkscape:connector-curvature="0" />
	<path style="fill:none;stroke:red;stroke-width:1px;stroke-linecap:butt;stroke-linejoin:miter;stroke-opacity:1" d="M 57.5252,530.331 48.6043,514.273 z" id="boundary" inkscape:connector-curvature="0" />
	<path style="fill:none;stroke:red;stroke-width:1px;stroke-linecap:butt;stroke-linejoin:miter;stroke-opacity:1" d="M 86.0719,573.151 75.3669,558.878 z" id="boundary" inkscape:connector-curvature="0" />
	<path style="fill:none;stroke:red;stroke-width:1px;stroke-linecap:butt;stroke-linejoin:miter;stroke-opacity:1" d="M 86.0719,573.151 102.129,582.072 z" id="boundary" inkscape:connector-curvature="0" />
	<path style="fill:none;stroke:red;stroke-width:1px;stroke-linecap:butt;stroke-linejoin:miter;stroke-opacity:1" d="M 102.129,582.072 116.403,594.561 z" id="boundary" inkscape:connector-curvature="0" />
	<path style="fill:none;stroke:red;stroke-width:1px;stroke-linecap:butt;stroke-linejoin:miter;stroke-opacity:1" d="M 116.403,594.561 134.245,601.698 z" id="boundary" inkscape:connector-curvature="0" />
	<path style="fill:none;stroke:red;stroke-width:1px;stroke-linecap:butt;stroke-linejoin:miter;stroke-opacity:1" d="M 152.086,603.482 134.245,601.698 z" id="boundary" inkscape:connector-curvature="0" />
	<path style="fill:none;stroke:red;stroke-width:1px;stroke-linecap:butt;stroke-linejoin:miter;stroke-opacity:1" d="M 152.086,603.482 168.144,612.403 z" id="boundary" inkscape:connector-curvature="0" />
	<path style="fill:none;stroke:red;stroke-width:1px;stroke-linecap:butt;stroke-linejoin:miter;stroke-opacity:1" d="M 168.144,612.403 177.065,628.46 z" id="boundary" inkscape:connector-curvature="0" />
	<path style="fill:none;stroke:red;stroke-width:1px;stroke-linecap:butt;stroke-linejoin:miter;stroke-opacity:1" d="M 194.906,630.245 177.065,628.46 z" id="boundary" inkscape:connector-curvature="0" />
	<path style="fill:none;stroke:red;stroke-width:1px;stroke-linecap:butt;stroke-linejoin:miter;stroke-opacity:1" d="M 212.748,630.245 194.906,630.245 z" id="boundary" inkscape:connector-curvature="0" />
	<path style="fill:none;stroke:red;stroke-width:1px;stroke-linecap:butt;stroke-linejoin:miter;stroke-opacity:1" d="M 212.748,630.245 228.806,639.165 z" id="boundary" inkscape:connector-curvature="0" />
	<path style="fill:none;stroke:red;stroke-width:1px;stroke-linecap:butt;stroke-linejoin:miter;stroke-opacity:1" d="M 228.806,639.165 246.647,639.165 z" id="boundary" inkscape:connector-curvature="0" />
	<path style="fill:none;stroke:red;stroke-width:1px;stroke-linecap:butt;stroke-linejoin:miter;stroke-opacity:1" d="M 246.647,639.165 257.353,653.439 z" id="boundary" inkscape:connector-curvature="0" />
	<path style="fill:none;stroke:red;stroke-width:1px;stroke-linecap:butt;stroke-linejoin:miter;stroke-opacity:1" d="M 257.353,653.439 275.194,657.007 z" id="boundary" inkscape:connector-curvature="0" />
	<path style="fill:none;stroke:red;stroke-width:1px;stroke-linecap:butt;stroke-linejoin:miter;stroke-opacity:1" d="M 293.036,657.007 275.194,657.007 z" id="boundary" inkscape:connector-curvature="0" />
	<path style="fill:none;stroke:red;stroke-width:1px;stroke-linecap:butt;stroke-linejoin:miter;stroke-opacity:1" d="M 293.036,657.007 309.094,665.928 z" id="boundary" inkscape:connector-curvature="0" />
	<path style="fill:none;stroke:red;stroke-width:1px;stroke-linecap:butt;stroke-linejoin:miter;stroke-opacity:1" d="M 326.935,665.928 309.094,665.928 z" id="boundary" inkscape:connector-curvature="0" />
	<path style="fill:none;stroke:red;stroke-width:1px;stroke-linecap:butt;stroke-linejoin:miter;stroke-opacity:1" d="M 326.935,665.928 344.777,665.928 z" id="boundary" inkscape:connector-curvature="0" />
	<path style="fill:none;stroke:red;stroke-width:1px;stroke-linecap:butt;stroke-linejoin:miter;stroke-opacity:1" d="M 344.777,665.928 360.835,674.849 z" id="boundary" inkscape:connector-curvature="0" />
	<path style="fill:none;stroke:red;stroke-width:1px;stroke-linecap:butt;stroke-linejoin:miter;stroke-opacity:1" d="M 360.835,674.849 376.892,683.77 z" id="boundary" inkscape:connector-curvature="0" />
	<path style="fill:none;stroke:red;stroke-width:1px;stroke-linecap:butt;stroke-linejoin:miter;stroke-opacity:1" d="M 376.892,683.77 394.734,683.77 z" id="boundary" inkscape:connector-curvature="0" />
	<path style="fill:none;stroke:red;stroke-width:1px;stroke-linecap:butt;stroke-linejoin:miter;stroke-opacity:1" d="M 412.576,683.77 430.417,683.77 z" id="boundary" inkscape:connector-curvature="0" />
	<path style="fill:none;stroke:red;stroke-width:1px;stroke-linecap:butt;stroke-linejoin:miter;stroke-opacity:1" d="M 448.259,683.77 430.417,683.77 z" id="boundary" inkscape:connector-curvature="0" />
	<path style="fill:none;stroke:red;stroke-width:1px;stroke-linecap:butt;stroke-linejoin:miter;stroke-opacity:1" d="M 412.576,683.77 394.734,683.77 z" id="boundary" inkscape:connector-curvature="0" />
	<path style="fill:none;stroke:red;stroke-width:1px;stroke-linecap:butt;stroke-linejoin:miter;stroke-opacity:1" d="M 466.101,683.77 482.158,692.691 z" id="boundary" inkscape:connector-curvature="0" />
	<path style="fill:none;stroke:red;stroke-width:1px;stroke-linecap:butt;stroke-linejoin:miter;stroke-opacity:1" d="M 448.259,683.77 466.101,683.77 z" id="boundary" inkscape:connector-curvature="0" />
	<path style="fill:none;stroke:red;stroke-width:1px;stroke-linecap:butt;stroke-linejoin:miter;stroke-opacity:1" d="M 500,692.691 482.158,692.691 z" id="boundary" inkscape:connector-curvature="0" />
	<path style="fill:none;stroke:red;stroke-width:1px;stroke-linecap:butt;stroke-linejoin:miter;stroke-opacity:1" d="M 517.842,692.691 500,692.691 z" id="boundary" inkscape:connector-curvature="0" />
	<path style="fill:none;stroke:red;stroke-width:1px;stroke-linecap:butt;stroke-linejoin:miter;stroke-opacity:1" d="M 535.683,692.691 517.842,692.691 z" id="boundary" inkscape:connector-curvature="0" />
	<path style="fill:none;stroke:red;stroke-width:1px;stroke-linecap:butt;stroke-linejoin:miter;stroke-opacity:1" d="M 524.978,128.892 542.82,128.892 z" id="boundary" inkscape:connector-curvature="0" />
	<path style="fill:none;stroke:red;stroke-width:1px;stroke-linecap:butt;stroke-linejoin:miter;stroke-opacity:1" d="M 715.885,30.7626 733.727,30.7626 z" id="boundary" inkscape:connector-curvature="0" />
	<path style="fill:none;stroke:red;stroke-width:1px;stroke-linecap:butt;stroke-linejoin:miter;stroke-opacity:1" d="M 701.612,43.2518 715.885,30.7626 z" id="boundary" inkscape:connector-curvature="0" />
	<path style="fill:none;stroke:red;stroke-width:1px;stroke-linecap:butt;stroke-linejoin:miter;stroke-opacity:1" d="M 689.122,57.5252 701.612,43.2518 z" id="boundary" inkscape:connector-curvature="0" />
	<path style="fill:none;stroke:red;stroke-width:1px;stroke-linecap:butt;stroke-linejoin:miter;stroke-opacity:1" d="M 689.122,57.5252 673.065,66.446 z" id="boundary" inkscape:connector-curvature="0" />
	<path style="fill:none;stroke:red;stroke-width:1px;stroke-linecap:butt;stroke-linejoin:miter;stroke-opacity:1" d="M 740.863,12.9209 758.705,4 z" id="boundary" inkscape:connector-curvature="0" />
	<path style="fill:none;stroke:red;stroke-width:1px;stroke-linecap:butt;stroke-linejoin:miter;stroke-opacity:1" d="M 758.705,4 764.058,21.8417 z" id="boundary" inkscape:connector-curvature="0" />
	<path style="fill:none;stroke:red;stroke-width:1px;stroke-linecap:butt;stroke-linejoin:miter;stroke-opacity:1" d="M 764.058,21.8417 764.058,39.6835 z" id="boundary" inkscape:connector-curvature="0" />
	<path style="fill:none;stroke:red;stroke-width:1px;stroke-linecap:butt;stroke-linejoin:miter;stroke-opacity:1" d="M 764.058,57.5252 764.058,39.6835 z" id="boundary" inkscape:connector-curvature="0" />
	<path style="fill:none;stroke:red;stroke-width:1px;stroke-linecap:butt;stroke-linejoin:miter;stroke-opacity:1" d="M 560.662,128.892 542.82,128.892 z" id="boundary" inkscape:connector-curvature="0" />
	<path style="fill:none;stroke:red;stroke-width:1px;stroke-linecap:butt;stroke-linejoin:miter;stroke-opacity:1" d="M 560.662,128.892 578.504,128.892 z" id="boundary" inkscape:connector-curvature="0" />
	<path style="fill:none;stroke:red;stroke-width:1px;stroke-linecap:butt;stroke-linejoin:miter;stroke-opacity:1" d="M 596.345,121.755 578.504,128.892 z" id="boundary" inkscape:connector-curvature="0" />
	<path style="fill:none;stroke:red;stroke-width:1px;stroke-linecap:butt;stroke-linejoin:miter;stroke-opacity:1" d="M 655.223,71.7986 673.065,66.446 z" id="boundary" inkscape:connector-curvature="0" />
	<path style="fill:none;stroke:red;stroke-width:1px;stroke-linecap:butt;stroke-linejoin:miter;stroke-opacity:1" d="M 646.302,89.6403 655.223,71.7986 z" id="boundary" inkscape:connector-curvature="0" />
	<path style="fill:none;stroke:red;stroke-width:1px;stroke-linecap:butt;stroke-linejoin:miter;stroke-opacity:1" d="M 614.187,112.835 628.46,98.5612 z" id="boundary" inkscape:connector-curvature="0" />
	<path style="fill:none;stroke:red;stroke-width:1px;stroke-linecap:butt;stroke-linejoin:miter;stroke-opacity:1" d="M 628.46,98.5612 646.302,89.6403 z" id="boundary" inkscape:connector-curvature="0" />
	<path style="fill:none;stroke:red;stroke-width:1px;stroke-linecap:butt;stroke-linejoin:miter;stroke-opacity:1" d="M 614.187,112.835 596.345,121.755 z" id="boundary" inkscape:connector-curvature="0" />
	<path style="fill:none;stroke:red;stroke-width:1px;stroke-linecap:butt;stroke-linejoin:miter;stroke-opacity:1" d="M 764.058,57.5252 764.058,75.3669 z" id="boundary" inkscape:connector-curvature="0" />
	<path style="fill:none;stroke:red;stroke-width:1px;stroke-linecap:butt;stroke-linejoin:miter;stroke-opacity:1" d="M 764.058,75.3669 764.058,93.2086 z" id="boundary" inkscape:connector-curvature="0" />
	<path style="fill:none;stroke:red;stroke-width:1px;stroke-linecap:butt;stroke-linejoin:miter;stroke-opacity:1" d="M 764.058,111.05 764.058,93.2086 z" id="boundary" inkscape:connector-curvature="0" />
	<path style="fill:none;stroke:red;stroke-width:1px;stroke-linecap:butt;stroke-linejoin:miter;stroke-opacity:1" d="M 764.058,111.05 764.058,128.892 z" id="boundary" inkscape:connector-curvature="0" />
	<path style="fill:none;stroke:red;stroke-width:1px;stroke-linecap:butt;stroke-linejoin:miter;stroke-opacity:1" d="M 764.058,146.734 764.058,164.576 z" id="boundary" inkscape:connector-curvature="0" />
	<path style="fill:none;stroke:red;stroke-width:1px;stroke-linecap:butt;stroke-linejoin:miter;stroke-opacity:1" d="M 778.331,175.281 764.058,164.576 z" id="boundary" inkscape:connector-curvature="0" />
	<path style="fill:none;stroke:red;stroke-width:1px;stroke-linecap:butt;stroke-linejoin:miter;stroke-opacity:1" d="M 778.331,175.281 794.388,184.201 z" id="boundary" inkscape:connector-curvature="0" />
	<path style="fill:none;stroke:red;stroke-width:1px;stroke-linecap:butt;stroke-linejoin:miter;stroke-opacity:1" d="M 794.388,184.201 803.309,200.259 z" id="boundary" inkscape:connector-curvature="0" />
	<path style="fill:none;stroke:red;stroke-width:1px;stroke-linecap:butt;stroke-linejoin:miter;stroke-opacity:1" d="M 821.151,200.259 803.309,200.259 z" id="boundary" inkscape:connector-curvature="0" />
	<path style="fill:none;stroke:red;stroke-width:1px;stroke-linecap:butt;stroke-linejoin:miter;stroke-opacity:1" d="M 764.058,146.734 764.058,128.892 z" id="boundary" inkscape:connector-curvature="0" />
	<path style="fill:none;stroke:red;stroke-width:1px;stroke-linecap:butt;stroke-linejoin:miter;stroke-opacity:1" d="M 837.209,209.18 853.266,218.101 z" id="boundary" inkscape:connector-curvature="0" />
	<path style="fill:none;stroke:red;stroke-width:1px;stroke-linecap:butt;stroke-linejoin:miter;stroke-opacity:1" d="M 837.209,209.18 821.151,200.259 z" id="boundary" inkscape:connector-curvature="0" />
	<path style="fill:none;stroke:red;stroke-width:1px;stroke-linecap:butt;stroke-linejoin:miter;stroke-opacity:1" d="M 853.266,218.101 869.324,227.022 z" id="boundary" inkscape:connector-curvature="0" />
	<path style="fill:none;stroke:red;stroke-width:1px;stroke-linecap:butt;stroke-linejoin:miter;stroke-opacity:1" d="M 869.324,227.022 885.381,235.942 z" id="boundary" inkscape:connector-curvature="0" />
	<path style="fill:none;stroke:red;stroke-width:1px;stroke-linecap:butt;stroke-linejoin:miter;stroke-opacity:1" d="M 885.381,235.942 897.871,250.216 z" id="boundary" inkscape:connector-curvature="0" />
	<path style="fill:none;stroke:red;stroke-width:1px;stroke-linecap:butt;stroke-linejoin:miter;stroke-opacity:1" d="M 897.871,250.216 915.712,253.784 z" id="boundary" inkscape:connector-curvature="0" />
	<path style="fill:none;stroke:red;stroke-width:1px;stroke-linecap:butt;stroke-linejoin:miter;stroke-opacity:1" d="M 915.712,253.784 929.986,264.489 z" id="boundary" inkscape:connector-curvature="0" />
	<path style="fill:none;stroke:red;stroke-width:1px;stroke-linecap:butt;stroke-linejoin:miter;stroke-opacity:1" d="M 954.964,289.468 938.906,280.547 z" id="boundary" inkscape:connector-curvature="0" />
	<path style="fill:none;stroke:red;stroke-width:1px;stroke-linecap:butt;stroke-linejoin:miter;stroke-opacity:1" d="M 938.906,280.547 929.986,264.489 z" id="boundary" inkscape:connector-curvature="0" />
	<path style="fill:none;stroke:red;stroke-width:1px;stroke-linecap:butt;stroke-linejoin:miter;stroke-opacity:1" d="M 954.964,289.468 960.317,307.309 z" id="boundary" inkscape:connector-curvature="0" />
	<path style="fill:none;stroke:red;stroke-width:1px;stroke-linecap:butt;stroke-linejoin:miter;stroke-opacity:1" d="M 755.137,639.165 740.863,657.007 z" id="boundary" inkscape:connector-curvature="0" />
	<path style="fill:none;stroke:red;stroke-width:1px;stroke-linecap:butt;stroke-linejoin:miter;stroke-opacity:1" d="M 740.863,657.007 723.022,657.007 z" id="boundary" inkscape:connector-curvature="0" />
	<path style="fill:none;stroke:red;stroke-width:1px;stroke-linecap:butt;stroke-linejoin:miter;stroke-opacity:1" d="M 705.18,664.144 723.022,657.007 z" id="boundary" inkscape:connector-curvature="0" />
	<path style="fill:none;stroke:red;stroke-width:1px;stroke-linecap:butt;stroke-linejoin:miter;stroke-opacity:1" d="M 755.137,639.165 772.978,639.165 z" id="boundary" inkscape:connector-curvature="0" />
	<path style="fill:none;stroke:red;stroke-width:1px;stroke-linecap:butt;stroke-linejoin:miter;stroke-opacity:1" d="M 705.18,664.144 687.338,665.928 z" id="boundary" inkscape:connector-curvature="0" />
	<path style="fill:none;stroke:red;stroke-width:1px;stroke-linecap:butt;stroke-linejoin:miter;stroke-opacity:1" d="M 826.504,612.403 844.345,612.403 z" id="boundary" inkscape:connector-curvature="0" />
	<path style="fill:none;stroke:red;stroke-width:1px;stroke-linecap:butt;stroke-linejoin:miter;stroke-opacity:1" d="M 808.662,630.245 826.504,612.403 z" id="boundary" inkscape:connector-curvature="0" />
	<path style="fill:none;stroke:red;stroke-width:1px;stroke-linecap:butt;stroke-linejoin:miter;stroke-opacity:1" d="M 860.403,603.482 844.345,612.403 z" id="boundary" inkscape:connector-curvature="0" />
	<path style="fill:none;stroke:red;stroke-width:1px;stroke-linecap:butt;stroke-linejoin:miter;stroke-opacity:1" d="M 772.978,639.165 790.82,630.245 z" id="boundary" inkscape:connector-curvature="0" />
	<path style="fill:none;stroke:red;stroke-width:1px;stroke-linecap:butt;stroke-linejoin:miter;stroke-opacity:1" d="M 790.82,630.245 808.662,630.245 z" id="boundary" inkscape:connector-curvature="0" />
	<path style="fill:none;stroke:red;stroke-width:1px;stroke-linecap:butt;stroke-linejoin:miter;stroke-opacity:1" d="M 571.367,683.77 589.209,683.77 z" id="boundary" inkscape:connector-curvature="0" />
	<path style="fill:none;stroke:red;stroke-width:1px;stroke-linecap:butt;stroke-linejoin:miter;stroke-opacity:1" d="M 553.525,690.906 571.367,683.77 z" id="boundary" inkscape:connector-curvature="0" />
	<path style="fill:none;stroke:red;stroke-width:1px;stroke-linecap:butt;stroke-linejoin:miter;stroke-opacity:1" d="M 607.05,683.77 624.892,683.77 z" id="boundary" inkscape:connector-curvature="0" />
	<path style="fill:none;stroke:red;stroke-width:1px;stroke-linecap:butt;stroke-linejoin:miter;stroke-opacity:1" d="M 589.209,683.77 607.05,683.77 z" id="boundary" inkscape:connector-curvature="0" />
	<path style="fill:none;stroke:red;stroke-width:1px;stroke-linecap:butt;stroke-linejoin:miter;stroke-opacity:1" d="M 553.525,690.906 535.683,692.691 z" id="boundary" inkscape:connector-curvature="0" />
	<path style="fill:none;stroke:red;stroke-width:1px;stroke-linecap:butt;stroke-linejoin:miter;stroke-opacity:1" d="M 651.655,665.928 669.496,665.928 z" id="boundary" inkscape:connector-curvature="0" />
	<path style="fill:none;stroke:red;stroke-width:1px;stroke-linecap:butt;stroke-linejoin:miter;stroke-opacity:1" d="M 642.734,681.986 651.655,665.928 z" id="boundary" inkscape:connector-curvature="0" />
	<path style="fill:none;stroke:red;stroke-width:1px;stroke-linecap:butt;stroke-linejoin:miter;stroke-opacity:1" d="M 642.734,681.986 624.892,683.77 z" id="boundary" inkscape:connector-curvature="0" />
	<path style="fill:none;stroke:red;stroke-width:1px;stroke-linecap:butt;stroke-linejoin:miter;stroke-opacity:1" d="M 669.496,665.928 687.338,665.928 z" id="boundary" inkscape:connector-curvature="0" />
	<path style="fill:none;stroke:red;stroke-width:1px;stroke-linecap:butt;stroke-linejoin:miter;stroke-opacity:1" d="M 969.237,323.367 960.317,307.309 z" id="boundary" inkscape:connector-curvature="0" />
	<path style="fill:none;stroke:red;stroke-width:1px;stroke-linecap:butt;stroke-linejoin:miter;stroke-opacity:1" d="M 987.079,330.504 969.237,323.367 z" id="boundary" inkscape:connector-curvature="0" />
	<path style="fill:none;stroke:red;stroke-width:1px;stroke-linecap:butt;stroke-linejoin:miter;stroke-opacity:1" d="M 987.079,330.504 987.079,348.345 z" id="boundary" inkscape:connector-curvature="0" />
	<path style="fill:none;stroke:red;stroke-width:1px;stroke-linecap:butt;stroke-linejoin:miter;stroke-opacity:1" d="M 987.079,348.345 987.079,366.187 z" id="boundary" inkscape:connector-curvature="0" />
	<path style="fill:none;stroke:red;stroke-width:1px;stroke-linecap:butt;stroke-linejoin:miter;stroke-opacity:1" d="M 987.079,366.187 996,382.245 z" id="boundary" inkscape:connector-curvature="0" />
	<path style="fill:none;stroke:red;stroke-width:1px;stroke-linecap:butt;stroke-linejoin:miter;stroke-opacity:1" d="M 996,382.245 996,400.086 z" id="boundary" inkscape:connector-curvature="0" />
	<path style="fill:none;stroke:red;stroke-width:1px;stroke-linecap:butt;stroke-linejoin:miter;stroke-opacity:1" d="M 996,400.086 996,417.928 z" id="boundary" inkscape:connector-curvature="0" />
	<path style="fill:none;stroke:red;stroke-width:1px;stroke-linecap:butt;stroke-linejoin:miter;stroke-opacity:1" d="M 996,417.928 987.079,433.986 z" id="boundary" inkscape:connector-curvature="0" />
	<path style="fill:none;stroke:red;stroke-width:1px;stroke-linecap:butt;stroke-linejoin:miter;stroke-opacity:1" d="M 987.079,451.827 987.079,433.986 z" id="boundary" inkscape:connector-curvature="0" />
	<path style="fill:none;stroke:red;stroke-width:1px;stroke-linecap:butt;stroke-linejoin:miter;stroke-opacity:1" d="M 906.791,576.719 924.633,567.799 z" id="boundary" inkscape:connector-curvature="0" />
	<path style="fill:none;stroke:red;stroke-width:1px;stroke-linecap:butt;stroke-linejoin:miter;stroke-opacity:1" d="M 896.086,594.561 906.791,576.719 z" id="boundary" inkscape:connector-curvature="0" />
	<path style="fill:none;stroke:red;stroke-width:1px;stroke-linecap:butt;stroke-linejoin:miter;stroke-opacity:1" d="M 933.554,541.036 924.633,567.799 z" id="boundary" inkscape:connector-curvature="0" />
	<path style="fill:none;stroke:red;stroke-width:1px;stroke-linecap:butt;stroke-linejoin:miter;stroke-opacity:1" d="M 878.245,598.129 896.086,594.561 z" id="boundary" inkscape:connector-curvature="0" />
	<path style="fill:none;stroke:red;stroke-width:1px;stroke-linecap:butt;stroke-linejoin:miter;stroke-opacity:1" d="M 878.245,598.129 860.403,603.482 z" id="boundary" inkscape:connector-curvature="0" />
	<path style="fill:none;stroke:red;stroke-width:1px;stroke-linecap:butt;stroke-linejoin:miter;stroke-opacity:1" d="M 969.237,469.669 987.079,451.827 z" id="boundary" inkscape:connector-curvature="0" />
	<path style="fill:none;stroke:red;stroke-width:1px;stroke-linecap:butt;stroke-linejoin:miter;stroke-opacity:1" d="M 960.317,496.432 969.237,469.669 z" id="boundary" inkscape:connector-curvature="0" />
	<path style="fill:none;stroke:red;stroke-width:1px;stroke-linecap:butt;stroke-linejoin:miter;stroke-opacity:1" d="M 960.317,496.432 951.396,523.194 z" id="boundary" inkscape:connector-curvature="0" />
	<path style="fill:none;stroke:red;stroke-width:1px;stroke-linecap:butt;stroke-linejoin:miter;stroke-opacity:1" d="M 951.396,523.194 933.554,541.036 z" id="boundary" inkscape:connector-curvature="0" />
	<circle cx="4" cy="384.029" r="4" fill="#0" id="circle0"/>
	<circle cx="4" cy="401.871" r="4" fill="#0" id="circle1"/>
	<circle cx="4" cy="419.712" r="4" fill="#0" id="circle2"/>
	<circle cx="14.705" cy="433.986" r="4" fill="#0" id="circle3"/>
	<circle cx="21.8417" cy="348.345" r="4" fill="#0" id="circle4"/>
	<circle cx="21.8417" cy="366.187" r="4" fill="#0" id="circle5"/>
	<circle cx="21.8417" cy="451.827" r="4" fill="#0" id="circle6"/>
	<circle cx="27.1942" cy="469.669" r="4" fill="#0" id="circle7"/>
	<circle cx="30.7626" cy="321.583" r="4" fill="#0" id="circle8"/>
	<circle cx="30.7626" cy="487.511" r="4" fill="#0" id="circle9"/>
	<circle cx="46.8201" cy="496.432" r="4" fill="#0" id="circle10"/>
	<circle cx="48.6043" cy="303.741" r="4" fill="#0" id="circle11"/>
	<circle cx="48.6043" cy="514.273" r="4" fill="#0" id="circle12"/>
	<circle cx="57.5252" cy="285.899" r="4" fill="#0" id="circle13"/>
	<circle cx="57.5252" cy="530.331" r="4" fill="#0" id="circle14"/>
	<circle cx="71.7986" cy="541.036" r="4" fill="#0" id="circle15"/>
	<circle cx="75.3669" cy="268.058" r="4" fill="#0" id="circle16"/>
	<circle cx="75.3669" cy="558.878" r="4" fill="#0" id="circle17"/>
	<circle cx="86.0719" cy="573.151" r="4" fill="#0" id="circle18"/>
	<circle cx="89.6403" cy="253.784" r="4" fill="#0" id="circle19"/>
	<circle cx="102.129" cy="582.072" r="4" fill="#0" id="circle20"/>
	<circle cx="103.914" cy="239.511" r="4" fill="#0" id="circle21"/>
	<circle cx="116.403" cy="594.561" r="4" fill="#0" id="circle22"/>
	<circle cx="121.755" cy="235.942" r="4" fill="#0" id="circle23"/>
	<circle cx="134.245" cy="601.698" r="4" fill="#0" id="circle24"/>
	<circle cx="137.813" cy="227.022" r="4" fill="#0" id="circle25"/>
	<circle cx="152.086" cy="603.482" r="4" fill="#0" id="circle26"/>
	<circle cx="155.655" cy="214.532" r="4" fill="#0" id="circle27"/>
	<circle cx="168.144" cy="612.403" r="4" fill="#0" id="circle28"/>
	<circle cx="173.496" cy="205.612" r="4" fill="#0" id="circle29"/>
	<circle cx="177.065" cy="628.46" r="4" fill="#0" id="circle30"/>
	<circle cx="191.338" cy="200.259" r="4" fill="#0" id="circle31"/>
	<circle cx="194.906" cy="630.245" r="4" fill="#0" id="circle32"/>
	<circle cx="209.18" cy="200.259" r="4" fill="#0" id="circle33"/>
	<circle cx="212.748" cy="630.245" r="4" fill="#0" id="circle34"/>
	<circle cx="219.885" cy="185.986" r="4" fill="#0" id="circle35"/>
	<circle cx="228.806" cy="639.165" r="4" fill="#0" id="circle36"/>
	<circle cx="237.727" cy="182.417" r="4" fill="#0" id="circle37"/>
	<circle cx="246.647" cy="639.165" r="4" fill="#0" id="circle38"/>
	<circle cx="255.568" cy="177.065" r="4" fill="#0" id="circle39"/>
	<circle cx="257.353" cy="653.439" r="4" fill="#0" id="circle40"/>
	<circle cx="273.41" cy="173.496" r="4" fill="#0" id="circle41"/>
	<circle cx="275.194" cy="657.007" r="4" fill="#0" id="circle42"/>
	<circle cx="291.252" cy="173.496" r="4" fill="#0" id="circle43"/>
	<circle cx="293.036" cy="657.007" r="4" fill="#0" id="circle44"/>
	<circle cx="301.957" cy="157.439" r="4" fill="#0" id="circle45"/>
	<circle cx="309.094" cy="665.928" r="4" fill="#0" id="circle46"/>
	<circle cx="319.799" cy="155.655" r="4" fill="#0" id="circle47"/>
	<circle cx="326.935" cy="665.928" r="4" fill="#0" id="circle48"/>
	<circle cx="337.64" cy="155.655" r="4" fill="#0" id="circle49"/>
	<circle cx="344.777" cy="665.928" r="4" fill="#0" id="circle50"/>
	<circle cx="355.482" cy="155.655" r="4" fill="#0" id="circle51"/>
	<circle cx="360.835" cy="674.849" r="4" fill="#0" id="circle52"/>
	<circle cx="371.54" cy="146.734" r="4" fill="#0" id="circle53"/>
	<circle cx="376.892" cy="683.77" r="4" fill="#0" id="circle54"/>
	<circle cx="389.381" cy="146.734" r="4" fill="#0" id="circle55"/>
	<circle cx="394.734" cy="683.77" r="4" fill="#0" id="circle56"/>
	<circle cx="407.223" cy="146.734" r="4" fill="#0" id="circle57"/>
	<circle cx="412.576" cy="683.77" r="4" fill="#0" id="circle58"/>
	<circle cx="425.065" cy="146.734" r="4" fill="#0" id="circle59"/>
	<circle cx="430.417" cy="683.77" r="4" fill="#0" id="circle60"/>
	<circle cx="442.906" cy="146.734" r="4" fill="#0" id="circle61"/>
	<circle cx="448.259" cy="683.77" r="4" fill="#0" id="circle62"/>
	<circle cx="460.748" cy="146.734" r="4" fill="#0" id="circle63"/>
	<circle cx="466.101" cy="683.77" r="4" fill="#0" id="circle64"/>
	<circle cx="471.453" cy="130.676" r="4" fill="#0" id="circle65"/>
	<circle cx="482.158" cy="692.691" r="4" fill="#0" id="circle66"/>
	<circle cx="489.295" cy="128.892" r="4" fill="#0" id="circle67"/>
	<circle cx="500" cy="692.691" r="4" fill="#0" id="circle68"/>
	<circle cx="507.137" cy="128.892" r="4" fill="#0" id="circle69"/>
	<circle cx="517.842" cy="692.691" r="4" fill="#0" id="circle70"/>
	<circle cx="524.978" cy="128.892" r="4" fill="#0" id="circle71"/>
	<circle cx="535.683" cy="692.691" r="4" fill="#0" id="circle72"/>
	<circle cx="542.82" cy="128.892" r="4" fill="#0" id="circle73"/>
	<circle cx="553.525" cy="690.906" r="4" fill="#0" id="circle74"/>
	<circle cx="560.662" cy="128.892" r="4" fill="#0" id="circle75"/>
	<circle cx="571.367" cy="683.77" r="4" fill="#0" id="circle76"/>
	<circle cx="578.504" cy="128.892" r="4" fill="#0" id="circle77"/>
	<circle cx="589.209" cy="683.77" r="4" fill="#0" id="circle78"/>
	<circle cx="596.345" cy="121.755" r="4" fill="#0" id="circle79"/>
	<circle cx="607.05" cy="683.77" r="4" fill="#0" id="circle80"/>
	<circle cx="614.187" cy="112.835" r="4" fill="#0" id="circle81"/>
	<circle cx="624.892" cy="683.77" r="4" fill="#0" id="circle82"/>
	<circle cx="628.46" cy="98.5612" r="4" fill="#0" id="circle83"/>
	<circle cx="642.734" cy="681.986" r="4" fill="#0" id="circle84"/>
	<circle cx="646.302" cy="89.6403" r="4" fill="#0" id="circle85"/>
	<circle cx="651.655" cy="665.928" r="4" fill="#0" id="circle86"/>
	<circle cx="655.223" cy="71.7986" r="4" fill="#0" id="circle87"/>
	<circle cx="669.496" cy="665.928" r="4" fill="#0" id="circle88"/>
	<circle cx="673.065" cy="66.446" r="4" fill="#0" id="circle89"/>
	<circle cx="687.338" cy="665.928" r="4" fill="#0" id="circle90"/>
	<circle cx="689.122" cy="57.5252" r="4" fill="#0" id="circle91"/>
	<circle cx="701.612" cy="43.2518" r="4" fill="#0" id="circle92"/>
	<circle cx="705.18" cy="664.144" r="4" fill="#0" id="circle93"/>
	<circle cx="715.885" cy="30.7626" r="4" fill="#0" id="circle94"/>
	<circle cx="723.022" cy="657.007" r="4" fill="#0" id="circle95"/>
	<circle cx="733.727" cy="30.7626" r="4" fill="#0" id="circle96"/>
	<circle cx="740.863" cy="12.9209" r="4" fill="#0" id="circle97"/>
	<circle cx="740.863" cy="657.007" r="4" fill="#0" id="circle98"/>
	<circle cx="755.137" cy="639.165" r="4" fill="#0" id="circle99"/>
	<circle cx="758.705" cy="4" r="4" fill="#0" id="circle100"/>
	<circle cx="764.058" cy="21.8417" r="4" fill="#0" id="circle101"/>
	<circle cx="764.058" cy="39.6835" r="4" fill="#0" id="circle102"/>
	<circle cx="764.058" cy="57.5252" r="4" fill="#0" id="circle103"/>
	<circle cx="764.058" cy="75.3669" r="4" fill="#0" id="circle104"/>
	<circle cx="764.058" cy="93.2086" r="4" fill="#0" id="circle105"/>
	<circle cx="764.058" cy="111.05" r="4" fill="#0" id="circle106"/>
	<circle cx="764.058" cy="128.892" r="4" fill="#0" id="circle107"/>
	<circle cx="764.058" cy="146.734" r="4" fill="#0" id="circle108"/>
	<circle cx="764.058" cy="164.576" r="4" fill="#0" id="circle109"/>
	<circle cx="772.978" cy="639.165" r="4" fill="#0" id="circle110"/>
	<circle cx="778.331" cy="175.281" r="4" fill="#0" id="circle111"/>
	<circle cx="790.82" cy="630.245" r="4" fill="#0" id="circle112"/>
	<circle cx="794.388" cy="184.201" r="4" fill="#0" id="circle113"/>
	<circle cx="803.309" cy="200.259" r="4" fill="#0" id="circle114"/>
	<circle cx="808.662" cy="630.245" r="4" fill="#0" id="circle115"/>
	<circle cx="821.151" cy="200.259" r="4" fill="#0" id="circle116"/>
	<circle cx="826.504" cy="612.403" r="4" fill="#0" id="circle117"/>
	<circle cx="837.209" cy="209.18" r="4" fill="#0" id="circle118"/>
	<circle cx="844.345" cy="612.403" r="4" fill="#0" id="circle119"/>
	<circle cx="853.266" cy="218.101" r="4" fill="#0" id="circle120"/>
	<circle cx="860.403" cy="603.482" r="4" fill="#0" id="circle121"/>
	<circle cx="869.324" cy="227.022" r="4" fill="#0" id="circle122"/>
	<circle cx="878.245" cy="598.129" r="4" fill="#0" id="circle123"/>
	<circle cx="885.381" cy="235.942" r="4" fill="#0" id="circle124"/>
	<circle cx="896.086" cy="594.561" r="4" fill="#0" id="circle125"/>
	<circle cx="897.871" cy="250.216" r="4" fill="#0" id="circle126"/>
	<circle cx="906.791" cy="576.719" r="4" fill="#0" id="circle127"/>
	<circle cx="915.712" cy="253.784" r="4" fill="#0" id="circle128"/>
	<circle cx="924.633" cy="567.799" r="4" fill="#0" id="circle129"/>
	<circle cx="929.986" cy="264.489" r="4" fill="#0" id="circle130"/>
	<circle cx="933.554" cy="541.036" r="4" fill="#0" id="circle131"/>
	<circle cx="938.906" cy="280.547" r="4" fill="#0" id="circle132"/>
	<circle cx="951.396" cy="523.194" r="4" fill="#0" id="circle133"/>
	<circle cx="954.964" cy="289.468" r="4" fill="#0" id="circle134"/>
	<circle cx="960.317" cy="307.309" r="4" fill="#0" id="circle135"/>
	<circle cx="960.317" cy="496.432" r="4" fill="#0" id="circle136"/>
	<circle cx="969.237" cy="323.367" r="4" fill="#0" id="circle137"/>
	<circle cx="969.237" cy="469.669" r="4" fill="#0" id="circle138"/>
	<circle cx="987.079" cy="330.504" r="4" fill="#0" id="circle139"/>
	<circle cx="987.079" cy="348.345" r="4" fill="#0" id="circle140"/>
	<circle cx="987.079" cy="366.187" r="4" fill="#0" id="circle141"/>
	<circle cx="987.079" cy="433.986" r="4" fill="#0" id="circle142"/>
	<circle cx="987.079" cy="451.827" r="4" fill="#0" id="circle143"/>
	<circle cx="996" cy="382.245" r="4" fill="#0" id="circle144"/>
	<circle cx="996" cy="400.086" r="4" fill="#0" id="circle145"/>
	<circle cx="996" cy="417.928" r="4" fill="#0" id="circle146"/>
	</g>
</svg>