<?xml version="1.0" encoding="UTF-8" standalone="no"?>
<!-- Created with CurveBenchmark -->
<svg
	xmlns:dc="http://purl.org/dc/elements/1.1/"
	xmlns:cc="http://creativecommons.org/ns#"
	xmlns:rdf="http://www.w3.org/1999/02/22-rdf-syntax-ns#"
	xmlns:svg="http://www.w3.org/2000/svg"
	xmlns="http://www.w3.org/2000/svg"
	xmlns:sodipodi="http://sodipodi.sourceforge.net/DTD/sodipodi-0.dtd"
	xmlns:inkscape="http://www.inkscape.org/namespaces/inkscape"
	width="1000"
	height="1000"
	id="svg2"
	version="1.1"
	sodipodi:docname="manifold/gathan1-Heart02.png.txt">
<defs
	id="defs4" />
<metadata
	id="metadata7">
	<rdf:RDF>
		<cc:Work
			rdf:about="">
			<dc:format>image/svg+xml</dc:format>
			<dc:type
				rdf:resource="http://purl.org/dc/dcmitype/StillImage" />
			<dc:title></dc:title>
		</cc:Work>
	</rdf:RDF>
</metadata>
<g
	inkscape:label="Layer 1"
	inkscape:groupmode="layer"
	id="layer1">
	<path style="fill:none;stroke:red;stroke-width:1px;stroke-linecap:butt;stroke-linejoin:miter;stroke-opacity:1" d="M 83.2091,41.7186 98.2966,28.5171 z" id="boundary" inkscape:connector-curvature="0" />
	<path style="fill:none;stroke:red;stroke-width:1px;stroke-linecap:butt;stroke-linejoin:miter;stroke-opacity:1" d="M 98.2966,28.5171 117.156,19.0875 z" id="boundary" inkscape:connector-curvature="0" />
	<path style="fill:none;stroke:red;stroke-width:1px;stroke-linecap:butt;stroke-linejoin:miter;stroke-opacity:1" d="M 83.2091,41.7186 66.2357,51.1483 z" id="boundary" inkscape:connector-curvature="0" />
	<path style="fill:none;stroke:red;stroke-width:1px;stroke-linecap:butt;stroke-linejoin:miter;stroke-opacity:1" d="M 41.7186,85.0951 51.1483,66.2357 z" id="boundary" inkscape:connector-curvature="0" />
	<path style="fill:none;stroke:red;stroke-width:1px;stroke-linecap:butt;stroke-linejoin:miter;stroke-opacity:1" d="M 51.1483,66.2357 66.2357,51.1483 z" id="boundary" inkscape:connector-curvature="0" />
	<path style="fill:none;stroke:red;stroke-width:1px;stroke-linecap:butt;stroke-linejoin:miter;stroke-opacity:1" d="M 154.875,4 173.734,4 z" id="boundary" inkscape:connector-curvature="0" />
	<path style="fill:none;stroke:red;stroke-width:1px;stroke-linecap:butt;stroke-linejoin:miter;stroke-opacity:1" d="M 136.015,9.65779 154.875,4 z" id="boundary" inkscape:connector-curvature="0" />
	<path style="fill:none;stroke:red;stroke-width:1px;stroke-linecap:butt;stroke-linejoin:miter;stroke-opacity:1" d="M 117.156,19.0875 136.015,9.65779 z" id="boundary" inkscape:connector-curvature="0" />
	<path style="fill:none;stroke:red;stroke-width:1px;stroke-linecap:butt;stroke-linejoin:miter;stroke-opacity:1" d="M 173.734,4 192.593,4 z" id="boundary" inkscape:connector-curvature="0" />
	<path style="fill:none;stroke:red;stroke-width:1px;stroke-linecap:butt;stroke-linejoin:miter;stroke-opacity:1" d="M 4,198.251 4,179.392 z" id="boundary" inkscape:connector-curvature="0" />
	<path style="fill:none;stroke:red;stroke-width:1px;stroke-linecap:butt;stroke-linejoin:miter;stroke-opacity:1" d="M 4,179.392 13.4297,160.532 z" id="boundary" inkscape:connector-curvature="0" />
	<path style="fill:none;stroke:red;stroke-width:1px;stroke-linecap:butt;stroke-linejoin:miter;stroke-opacity:1" d="M 4,235.97 4,217.11 z" id="boundary" inkscape:connector-curvature="0" />
	<path style="fill:none;stroke:red;stroke-width:1px;stroke-linecap:butt;stroke-linejoin:miter;stroke-opacity:1" d="M 4,217.11 4,198.251 z" id="boundary" inkscape:connector-curvature="0" />
	<path style="fill:none;stroke:red;stroke-width:1px;stroke-linecap:butt;stroke-linejoin:miter;stroke-opacity:1" d="M 32.289,103.954 41.7186,85.0951 z" id="boundary" inkscape:connector-curvature="0" />
	<path style="fill:none;stroke:red;stroke-width:1px;stroke-linecap:butt;stroke-linejoin:miter;stroke-opacity:1" d="M 22.8593,122.814 22.8593,141.673 z" id="boundary" inkscape:connector-curvature="0" />
	<path style="fill:none;stroke:red;stroke-width:1px;stroke-linecap:butt;stroke-linejoin:miter;stroke-opacity:1" d="M 22.8593,141.673 13.4297,160.532 z" id="boundary" inkscape:connector-curvature="0" />
	<path style="fill:none;stroke:red;stroke-width:1px;stroke-linecap:butt;stroke-linejoin:miter;stroke-opacity:1" d="M 22.8593,122.814 32.289,103.954 z" id="boundary" inkscape:connector-curvature="0" />
	<path style="fill:none;stroke:red;stroke-width:1px;stroke-linecap:butt;stroke-linejoin:miter;stroke-opacity:1" d="M 192.593,4 211.452,4 z" id="boundary" inkscape:connector-curvature="0" />
	<path style="fill:none;stroke:red;stroke-width:1px;stroke-linecap:butt;stroke-linejoin:miter;stroke-opacity:1" d="M 211.452,4 230.312,4 z" id="boundary" inkscape:connector-curvature="0" />
	<path style="fill:none;stroke:red;stroke-width:1px;stroke-linecap:butt;stroke-linejoin:miter;stroke-opacity:1" d="M 230.312,4 249.171,4 z" id="boundary" inkscape:connector-curvature="0" />
	<path style="fill:none;stroke:red;stroke-width:1px;stroke-linecap:butt;stroke-linejoin:miter;stroke-opacity:1" d="M 268.03,7.77186 249.171,4 z" id="boundary" inkscape:connector-curvature="0" />
	<path style="fill:none;stroke:red;stroke-width:1px;stroke-linecap:butt;stroke-linejoin:miter;stroke-opacity:1" d="M 268.03,7.77186 285.004,17.2015 z" id="boundary" inkscape:connector-curvature="0" />
	<path style="fill:none;stroke:red;stroke-width:1px;stroke-linecap:butt;stroke-linejoin:miter;stroke-opacity:1" d="M 285.004,17.2015 303.863,24.7452 z" id="boundary" inkscape:connector-curvature="0" />
	<path style="fill:none;stroke:red;stroke-width:1px;stroke-linecap:butt;stroke-linejoin:miter;stroke-opacity:1" d="M 303.863,24.7452 320.837,34.1749 z" id="boundary" inkscape:connector-curvature="0" />
	<path style="fill:none;stroke:red;stroke-width:1px;stroke-linecap:butt;stroke-linejoin:miter;stroke-opacity:1" d="M 320.837,34.1749 339.696,41.7186 z" id="boundary" inkscape:connector-curvature="0" />
	<path style="fill:none;stroke:red;stroke-width:1px;stroke-linecap:butt;stroke-linejoin:miter;stroke-opacity:1" d="M 339.696,41.7186 356.669,51.1483 z" id="boundary" inkscape:connector-curvature="0" />
	<path style="fill:none;stroke:red;stroke-width:1px;stroke-linecap:butt;stroke-linejoin:miter;stroke-opacity:1" d="M 373.643,60.5779 388.73,71.8935 z" id="boundary" inkscape:connector-curvature="0" />
	<path style="fill:none;stroke:red;stroke-width:1px;stroke-linecap:butt;stroke-linejoin:miter;stroke-opacity:1" d="M 388.73,71.8935 401.932,86.981 z" id="boundary" inkscape:connector-curvature="0" />
	<path style="fill:none;stroke:red;stroke-width:1px;stroke-linecap:butt;stroke-linejoin:miter;stroke-opacity:1" d="M 417.019,98.2966 401.932,86.981 z" id="boundary" inkscape:connector-curvature="0" />
	<path style="fill:none;stroke:red;stroke-width:1px;stroke-linecap:butt;stroke-linejoin:miter;stroke-opacity:1" d="M 433.992,107.726 417.019,98.2966 z" id="boundary" inkscape:connector-curvature="0" />
	<path style="fill:none;stroke:red;stroke-width:1px;stroke-linecap:butt;stroke-linejoin:miter;stroke-opacity:1" d="M 433.992,107.726 447.194,122.814 z" id="boundary" inkscape:connector-curvature="0" />
	<path style="fill:none;stroke:red;stroke-width:1px;stroke-linecap:butt;stroke-linejoin:miter;stroke-opacity:1" d="M 447.194,122.814 466.053,130.357 z" id="boundary" inkscape:connector-curvature="0" />
	<path style="fill:none;stroke:red;stroke-width:1px;stroke-linecap:butt;stroke-linejoin:miter;stroke-opacity:1" d="M 466.053,130.357 473.597,149.217 z" id="boundary" inkscape:connector-curvature="0" />
	<path style="fill:none;stroke:red;stroke-width:1px;stroke-linecap:butt;stroke-linejoin:miter;stroke-opacity:1" d="M 496.228,181.278 483.027,166.19 z" id="boundary" inkscape:connector-curvature="0" />
	<path style="fill:none;stroke:red;stroke-width:1px;stroke-linecap:butt;stroke-linejoin:miter;stroke-opacity:1" d="M 483.027,166.19 473.597,149.217 z" id="boundary" inkscape:connector-curvature="0" />
	<path style="fill:none;stroke:red;stroke-width:1px;stroke-linecap:butt;stroke-linejoin:miter;stroke-opacity:1" d="M 356.669,51.1483 373.643,60.5779 z" id="boundary" inkscape:connector-curvature="0" />
	<path style="fill:none;stroke:red;stroke-width:1px;stroke-linecap:butt;stroke-linejoin:miter;stroke-opacity:1" d="M 4,273.688 4,254.829 z" id="boundary" inkscape:connector-curvature="0" />
	<path style="fill:none;stroke:red;stroke-width:1px;stroke-linecap:butt;stroke-linejoin:miter;stroke-opacity:1" d="M 4,292.548 13.4297,309.521 z" id="boundary" inkscape:connector-curvature="0" />
	<path style="fill:none;stroke:red;stroke-width:1px;stroke-linecap:butt;stroke-linejoin:miter;stroke-opacity:1" d="M 13.4297,309.521 13.4297,328.38 z" id="boundary" inkscape:connector-curvature="0" />
	<path style="fill:none;stroke:red;stroke-width:1px;stroke-linecap:butt;stroke-linejoin:miter;stroke-opacity:1" d="M 4,292.548 4,273.688 z" id="boundary" inkscape:connector-curvature="0" />
	<path style="fill:none;stroke:red;stroke-width:1px;stroke-linecap:butt;stroke-linejoin:miter;stroke-opacity:1" d="M 13.4297,328.38 22.8593,345.354 z" id="boundary" inkscape:connector-curvature="0" />
	<path style="fill:none;stroke:red;stroke-width:1px;stroke-linecap:butt;stroke-linejoin:miter;stroke-opacity:1" d="M 22.8593,345.354 28.5171,364.213 z" id="boundary" inkscape:connector-curvature="0" />
	<path style="fill:none;stroke:red;stroke-width:1px;stroke-linecap:butt;stroke-linejoin:miter;stroke-opacity:1" d="M 28.5171,364.213 37.9468,381.186 z" id="boundary" inkscape:connector-curvature="0" />
	<path style="fill:none;stroke:red;stroke-width:1px;stroke-linecap:butt;stroke-linejoin:miter;stroke-opacity:1" d="M 37.9468,381.186 45.4905,400.046 z" id="boundary" inkscape:connector-curvature="0" />
	<path style="fill:none;stroke:red;stroke-width:1px;stroke-linecap:butt;stroke-linejoin:miter;stroke-opacity:1" d="M 4,254.829 4,235.97 z" id="boundary" inkscape:connector-curvature="0" />
	<path style="fill:none;stroke:red;stroke-width:1px;stroke-linecap:butt;stroke-linejoin:miter;stroke-opacity:1" d="M 54.9202,417.019 70.0076,430.221 z" id="boundary" inkscape:connector-curvature="0" />
	<path style="fill:none;stroke:red;stroke-width:1px;stroke-linecap:butt;stroke-linejoin:miter;stroke-opacity:1" d="M 70.0076,430.221 81.3232,445.308 z" id="boundary" inkscape:connector-curvature="0" />
	<path style="fill:none;stroke:red;stroke-width:1px;stroke-linecap:butt;stroke-linejoin:miter;stroke-opacity:1" d="M 54.9202,417.019 45.4905,400.046 z" id="boundary" inkscape:connector-curvature="0" />
	<path style="fill:none;stroke:red;stroke-width:1px;stroke-linecap:butt;stroke-linejoin:miter;stroke-opacity:1" d="M 81.3232,445.308 96.4106,458.51 z" id="boundary" inkscape:connector-curvature="0" />
	<path style="fill:none;stroke:red;stroke-width:1px;stroke-linecap:butt;stroke-linejoin:miter;stroke-opacity:1" d="M 96.4106,458.51 107.726,473.597 z" id="boundary" inkscape:connector-curvature="0" />
	<path style="fill:none;stroke:red;stroke-width:1px;stroke-linecap:butt;stroke-linejoin:miter;stroke-opacity:1" d="M 107.726,473.597 117.156,490.57 z" id="boundary" inkscape:connector-curvature="0" />
	<path style="fill:none;stroke:red;stroke-width:1px;stroke-linecap:butt;stroke-linejoin:miter;stroke-opacity:1" d="M 136.015,496.228 117.156,490.57 z" id="boundary" inkscape:connector-curvature="0" />
	<path style="fill:none;stroke:red;stroke-width:1px;stroke-linecap:butt;stroke-linejoin:miter;stroke-opacity:1" d="M 136.015,496.228 152.989,505.658 z" id="boundary" inkscape:connector-curvature="0" />
	<path style="fill:none;stroke:red;stroke-width:1px;stroke-linecap:butt;stroke-linejoin:miter;stroke-opacity:1" d="M 152.989,505.658 160.532,524.517 z" id="boundary" inkscape:connector-curvature="0" />
	<path style="fill:none;stroke:red;stroke-width:1px;stroke-linecap:butt;stroke-linejoin:miter;stroke-opacity:1" d="M 177.506,533.947 160.532,524.517 z" id="boundary" inkscape:connector-curvature="0" />
	<path style="fill:none;stroke:red;stroke-width:1px;stroke-linecap:butt;stroke-linejoin:miter;stroke-opacity:1" d="M 228.426,562.236 211.452,552.806 z" id="boundary" inkscape:connector-curvature="0" />
	<path style="fill:none;stroke:red;stroke-width:1px;stroke-linecap:butt;stroke-linejoin:miter;stroke-opacity:1" d="M 211.452,552.806 194.479,543.376 z" id="boundary" inkscape:connector-curvature="0" />
	<path style="fill:none;stroke:red;stroke-width:1px;stroke-linecap:butt;stroke-linejoin:miter;stroke-opacity:1" d="M 245.399,571.665 264.259,579.209 z" id="boundary" inkscape:connector-curvature="0" />
	<path style="fill:none;stroke:red;stroke-width:1px;stroke-linecap:butt;stroke-linejoin:miter;stroke-opacity:1" d="M 264.259,579.209 281.232,588.639 z" id="boundary" inkscape:connector-curvature="0" />
	<path style="fill:none;stroke:red;stroke-width:1px;stroke-linecap:butt;stroke-linejoin:miter;stroke-opacity:1" d="M 245.399,571.665 228.426,562.236 z" id="boundary" inkscape:connector-curvature="0" />
	<path style="fill:none;stroke:red;stroke-width:1px;stroke-linecap:butt;stroke-linejoin:miter;stroke-opacity:1" d="M 281.232,588.639 300.091,596.183 z" id="boundary" inkscape:connector-curvature="0" />
	<path style="fill:none;stroke:red;stroke-width:1px;stroke-linecap:butt;stroke-linejoin:miter;stroke-opacity:1" d="M 300.091,596.183 317.065,605.612 z" id="boundary" inkscape:connector-curvature="0" />
	<path style="fill:none;stroke:red;stroke-width:1px;stroke-linecap:butt;stroke-linejoin:miter;stroke-opacity:1" d="M 335.924,613.156 317.065,605.612 z" id="boundary" inkscape:connector-curvature="0" />
	<path style="fill:none;stroke:red;stroke-width:1px;stroke-linecap:butt;stroke-linejoin:miter;stroke-opacity:1" d="M 194.479,543.376 177.506,533.947 z" id="boundary" inkscape:connector-curvature="0" />
	<path style="fill:none;stroke:red;stroke-width:1px;stroke-linecap:butt;stroke-linejoin:miter;stroke-opacity:1" d="M 335.924,613.156 354.783,618.814 z" id="boundary" inkscape:connector-curvature="0" />
	<path style="fill:none;stroke:red;stroke-width:1px;stroke-linecap:butt;stroke-linejoin:miter;stroke-opacity:1" d="M 409.475,637.673 390.616,632.015 z" id="boundary" inkscape:connector-curvature="0" />
	<path style="fill:none;stroke:red;stroke-width:1px;stroke-linecap:butt;stroke-linejoin:miter;stroke-opacity:1" d="M 390.616,632.015 373.643,622.586 z" id="boundary" inkscape:connector-curvature="0" />
	<path style="fill:none;stroke:red;stroke-width:1px;stroke-linecap:butt;stroke-linejoin:miter;stroke-opacity:1" d="M 409.475,637.673 426.449,647.103 z" id="boundary" inkscape:connector-curvature="0" />
	<path style="fill:none;stroke:red;stroke-width:1px;stroke-linecap:butt;stroke-linejoin:miter;stroke-opacity:1" d="M 354.783,618.814 373.643,622.586 z" id="boundary" inkscape:connector-curvature="0" />
	<path style="fill:none;stroke:red;stroke-width:1px;stroke-linecap:butt;stroke-linejoin:miter;stroke-opacity:1" d="M 426.449,647.103 443.422,656.532 z" id="boundary" inkscape:connector-curvature="0" />
	<path style="fill:none;stroke:red;stroke-width:1px;stroke-linecap:butt;stroke-linejoin:miter;stroke-opacity:1" d="M 443.422,656.532 458.51,669.734 z" id="boundary" inkscape:connector-curvature="0" />
	<path style="fill:none;stroke:red;stroke-width:1px;stroke-linecap:butt;stroke-linejoin:miter;stroke-opacity:1" d="M 490.57,692.365 471.711,684.821 z" id="boundary" inkscape:connector-curvature="0" />
	<path style="fill:none;stroke:red;stroke-width:1px;stroke-linecap:butt;stroke-linejoin:miter;stroke-opacity:1" d="M 471.711,684.821 458.51,669.734 z" id="boundary" inkscape:connector-curvature="0" />
	<path style="fill:none;stroke:red;stroke-width:1px;stroke-linecap:butt;stroke-linejoin:miter;stroke-opacity:1" d="M 490.57,692.365 503.772,707.452 z" id="boundary" inkscape:connector-curvature="0" />
	<path style="fill:none;stroke:red;stroke-width:1px;stroke-linecap:butt;stroke-linejoin:miter;stroke-opacity:1" d="M 496.228,181.278 505.658,198.251 z" id="boundary" inkscape:connector-curvature="0" />
	<path style="fill:none;stroke:red;stroke-width:1px;stroke-linecap:butt;stroke-linejoin:miter;stroke-opacity:1" d="M 665.962,45.4905 684.821,36.0608 z" id="boundary" inkscape:connector-curvature="0" />
	<path style="fill:none;stroke:red;stroke-width:1px;stroke-linecap:butt;stroke-linejoin:miter;stroke-opacity:1" d="M 615.042,79.4373 628.243,64.3498 z" id="boundary" inkscape:connector-curvature="0" />
	<path style="fill:none;stroke:red;stroke-width:1px;stroke-linecap:butt;stroke-linejoin:miter;stroke-opacity:1" d="M 628.243,64.3498 647.103,54.9202 z" id="boundary" inkscape:connector-curvature="0" />
	<path style="fill:none;stroke:red;stroke-width:1px;stroke-linecap:butt;stroke-linejoin:miter;stroke-opacity:1" d="M 647.103,54.9202 665.962,45.4905 z" id="boundary" inkscape:connector-curvature="0" />
	<path style="fill:none;stroke:red;stroke-width:1px;stroke-linecap:butt;stroke-linejoin:miter;stroke-opacity:1" d="M 722.54,22.8593 741.399,22.8593 z" id="boundary" inkscape:connector-curvature="0" />
	<path style="fill:none;stroke:red;stroke-width:1px;stroke-linecap:butt;stroke-linejoin:miter;stroke-opacity:1" d="M 741.399,22.8593 760.259,22.8593 z" id="boundary" inkscape:connector-curvature="0" />
	<path style="fill:none;stroke:red;stroke-width:1px;stroke-linecap:butt;stroke-linejoin:miter;stroke-opacity:1" d="M 779.118,22.8593 760.259,22.8593 z" id="boundary" inkscape:connector-curvature="0" />
	<path style="fill:none;stroke:red;stroke-width:1px;stroke-linecap:butt;stroke-linejoin:miter;stroke-opacity:1" d="M 703.681,26.6312 722.54,22.8593 z" id="boundary" inkscape:connector-curvature="0" />
	<path style="fill:none;stroke:red;stroke-width:1px;stroke-linecap:butt;stroke-linejoin:miter;stroke-opacity:1" d="M 684.821,36.0608 703.681,26.6312 z" id="boundary" inkscape:connector-curvature="0" />
	<path style="fill:none;stroke:red;stroke-width:1px;stroke-linecap:butt;stroke-linejoin:miter;stroke-opacity:1" d="M 528.289,164.304 537.719,145.445 z" id="boundary" inkscape:connector-curvature="0" />
	<path style="fill:none;stroke:red;stroke-width:1px;stroke-linecap:butt;stroke-linejoin:miter;stroke-opacity:1" d="M 537.719,145.445 552.806,130.357 z" id="boundary" inkscape:connector-curvature="0" />
	<path style="fill:none;stroke:red;stroke-width:1px;stroke-linecap:butt;stroke-linejoin:miter;stroke-opacity:1" d="M 528.289,164.304 518.859,183.163 z" id="boundary" inkscape:connector-curvature="0" />
	<path style="fill:none;stroke:red;stroke-width:1px;stroke-linecap:butt;stroke-linejoin:miter;stroke-opacity:1" d="M 518.859,183.163 505.658,198.251 z" id="boundary" inkscape:connector-curvature="0" />
	<path style="fill:none;stroke:red;stroke-width:1px;stroke-linecap:butt;stroke-linejoin:miter;stroke-opacity:1" d="M 599.954,92.6388 615.042,79.4373 z" id="boundary" inkscape:connector-curvature="0" />
	<path style="fill:none;stroke:red;stroke-width:1px;stroke-linecap:butt;stroke-linejoin:miter;stroke-opacity:1" d="M 599.954,92.6388 581.095,102.068 z" id="boundary" inkscape:connector-curvature="0" />
	<path style="fill:none;stroke:red;stroke-width:1px;stroke-linecap:butt;stroke-linejoin:miter;stroke-opacity:1" d="M 552.806,130.357 562.236,111.498 z" id="boundary" inkscape:connector-curvature="0" />
	<path style="fill:none;stroke:red;stroke-width:1px;stroke-linecap:butt;stroke-linejoin:miter;stroke-opacity:1" d="M 562.236,111.498 581.095,102.068 z" id="boundary" inkscape:connector-curvature="0" />
	<path style="fill:none;stroke:red;stroke-width:1px;stroke-linecap:butt;stroke-linejoin:miter;stroke-opacity:1" d="M 814.951,32.289 831.924,41.7186 z" id="boundary" inkscape:connector-curvature="0" />
	<path style="fill:none;stroke:red;stroke-width:1px;stroke-linecap:butt;stroke-linejoin:miter;stroke-opacity:1" d="M 814.951,32.289 797.977,22.8593 z" id="boundary" inkscape:connector-curvature="0" />
	<path style="fill:none;stroke:red;stroke-width:1px;stroke-linecap:butt;stroke-linejoin:miter;stroke-opacity:1" d="M 831.924,41.7186 850.783,41.7186 z" id="boundary" inkscape:connector-curvature="0" />
	<path style="fill:none;stroke:red;stroke-width:1px;stroke-linecap:butt;stroke-linejoin:miter;stroke-opacity:1" d="M 850.783,41.7186 867.757,51.1483 z" id="boundary" inkscape:connector-curvature="0" />
	<path style="fill:none;stroke:red;stroke-width:1px;stroke-linecap:butt;stroke-linejoin:miter;stroke-opacity:1" d="M 867.757,51.1483 880.958,66.2357 z" id="boundary" inkscape:connector-curvature="0" />
	<path style="fill:none;stroke:red;stroke-width:1px;stroke-linecap:butt;stroke-linejoin:miter;stroke-opacity:1" d="M 896.046,79.4373 913.019,88.8669 z" id="boundary" inkscape:connector-curvature="0" />
	<path style="fill:none;stroke:red;stroke-width:1px;stroke-linecap:butt;stroke-linejoin:miter;stroke-opacity:1" d="M 896.046,79.4373 880.958,66.2357 z" id="boundary" inkscape:connector-curvature="0" />
	<path style="fill:none;stroke:red;stroke-width:1px;stroke-linecap:butt;stroke-linejoin:miter;stroke-opacity:1" d="M 929.992,98.2966 913.019,88.8669 z" id="boundary" inkscape:connector-curvature="0" />
	<path style="fill:none;stroke:red;stroke-width:1px;stroke-linecap:butt;stroke-linejoin:miter;stroke-opacity:1" d="M 945.08,109.612 929.992,98.2966 z" id="boundary" inkscape:connector-curvature="0" />
	<path style="fill:none;stroke:red;stroke-width:1px;stroke-linecap:butt;stroke-linejoin:miter;stroke-opacity:1" d="M 952.624,128.471 945.08,109.612 z" id="boundary" inkscape:connector-curvature="0" />
	<path style="fill:none;stroke:red;stroke-width:1px;stroke-linecap:butt;stroke-linejoin:miter;stroke-opacity:1" d="M 967.711,141.673 952.624,128.471 z" id="boundary" inkscape:connector-curvature="0" />
	<path style="fill:none;stroke:red;stroke-width:1px;stroke-linecap:butt;stroke-linejoin:miter;stroke-opacity:1" d="M 977.141,177.506 967.711,160.532 z" id="boundary" inkscape:connector-curvature="0" />
	<path style="fill:none;stroke:red;stroke-width:1px;stroke-linecap:butt;stroke-linejoin:miter;stroke-opacity:1" d="M 967.711,160.532 967.711,141.673 z" id="boundary" inkscape:connector-curvature="0" />
	<path style="fill:none;stroke:red;stroke-width:1px;stroke-linecap:butt;stroke-linejoin:miter;stroke-opacity:1" d="M 986.57,194.479 977.141,177.506 z" id="boundary" inkscape:connector-curvature="0" />
	<path style="fill:none;stroke:red;stroke-width:1px;stroke-linecap:butt;stroke-linejoin:miter;stroke-opacity:1" d="M 986.57,194.479 986.57,213.338 z" id="boundary" inkscape:connector-curvature="0" />
	<path style="fill:none;stroke:red;stroke-width:1px;stroke-linecap:butt;stroke-linejoin:miter;stroke-opacity:1" d="M 996,230.312 986.57,213.338 z" id="boundary" inkscape:connector-curvature="0" />
	<path style="fill:none;stroke:red;stroke-width:1px;stroke-linecap:butt;stroke-linejoin:miter;stroke-opacity:1" d="M 996,230.312 996,249.171 z" id="boundary" inkscape:connector-curvature="0" />
	<path style="fill:none;stroke:red;stroke-width:1px;stroke-linecap:butt;stroke-linejoin:miter;stroke-opacity:1" d="M 996,249.171 996,268.03 z" id="boundary" inkscape:connector-curvature="0" />
	<path style="fill:none;stroke:red;stroke-width:1px;stroke-linecap:butt;stroke-linejoin:miter;stroke-opacity:1" d="M 779.118,22.8593 797.977,22.8593 z" id="boundary" inkscape:connector-curvature="0" />
	<path style="fill:none;stroke:red;stroke-width:1px;stroke-linecap:butt;stroke-linejoin:miter;stroke-opacity:1" d="M 996,268.03 996,286.89 z" id="boundary" inkscape:connector-curvature="0" />
	<path style="fill:none;stroke:red;stroke-width:1px;stroke-linecap:butt;stroke-linejoin:miter;stroke-opacity:1" d="M 699.909,656.532 718.768,652.76 z" id="boundary" inkscape:connector-curvature="0" />
	<path style="fill:none;stroke:red;stroke-width:1px;stroke-linecap:butt;stroke-linejoin:miter;stroke-opacity:1" d="M 662.19,671.62 681.049,662.19 z" id="boundary" inkscape:connector-curvature="0" />
	<path style="fill:none;stroke:red;stroke-width:1px;stroke-linecap:butt;stroke-linejoin:miter;stroke-opacity:1" d="M 681.049,662.19 699.909,656.532 z" id="boundary" inkscape:connector-curvature="0" />
	<path style="fill:none;stroke:red;stroke-width:1px;stroke-linecap:butt;stroke-linejoin:miter;stroke-opacity:1" d="M 662.19,671.62 643.331,675.392 z" id="boundary" inkscape:connector-curvature="0" />
	<path style="fill:none;stroke:red;stroke-width:1px;stroke-linecap:butt;stroke-linejoin:miter;stroke-opacity:1" d="M 822.494,605.612 807.407,618.814 z" id="boundary" inkscape:connector-curvature="0" />
	<path style="fill:none;stroke:red;stroke-width:1px;stroke-linecap:butt;stroke-linejoin:miter;stroke-opacity:1" d="M 807.407,618.814 790.433,628.243 z" id="boundary" inkscape:connector-curvature="0" />
	<path style="fill:none;stroke:red;stroke-width:1px;stroke-linecap:butt;stroke-linejoin:miter;stroke-opacity:1" d="M 737.627,647.103 754.601,637.673 z" id="boundary" inkscape:connector-curvature="0" />
	<path style="fill:none;stroke:red;stroke-width:1px;stroke-linecap:butt;stroke-linejoin:miter;stroke-opacity:1" d="M 754.601,637.673 773.46,637.673 z" id="boundary" inkscape:connector-curvature="0" />
	<path style="fill:none;stroke:red;stroke-width:1px;stroke-linecap:butt;stroke-linejoin:miter;stroke-opacity:1" d="M 737.627,647.103 718.768,652.76 z" id="boundary" inkscape:connector-curvature="0" />
	<path style="fill:none;stroke:red;stroke-width:1px;stroke-linecap:butt;stroke-linejoin:miter;stroke-opacity:1" d="M 790.433,628.243 773.46,637.673 z" id="boundary" inkscape:connector-curvature="0" />
	<path style="fill:none;stroke:red;stroke-width:1px;stroke-linecap:butt;stroke-linejoin:miter;stroke-opacity:1" d="M 503.772,707.452 518.859,720.654 z" id="boundary" inkscape:connector-curvature="0" />
	<path style="fill:none;stroke:red;stroke-width:1px;stroke-linecap:butt;stroke-linejoin:miter;stroke-opacity:1" d="M 535.833,730.084 554.692,722.54 z" id="boundary" inkscape:connector-curvature="0" />
	<path style="fill:none;stroke:red;stroke-width:1px;stroke-linecap:butt;stroke-linejoin:miter;stroke-opacity:1" d="M 535.833,730.084 518.859,720.654 z" id="boundary" inkscape:connector-curvature="0" />
	<path style="fill:none;stroke:red;stroke-width:1px;stroke-linecap:butt;stroke-linejoin:miter;stroke-opacity:1" d="M 571.665,713.11 554.692,722.54 z" id="boundary" inkscape:connector-curvature="0" />
	<path style="fill:none;stroke:red;stroke-width:1px;stroke-linecap:butt;stroke-linejoin:miter;stroke-opacity:1" d="M 624.471,681.049 643.331,675.392 z" id="boundary" inkscape:connector-curvature="0" />
	<path style="fill:none;stroke:red;stroke-width:1px;stroke-linecap:butt;stroke-linejoin:miter;stroke-opacity:1" d="M 605.612,690.479 624.471,681.049 z" id="boundary" inkscape:connector-curvature="0" />
	<path style="fill:none;stroke:red;stroke-width:1px;stroke-linecap:butt;stroke-linejoin:miter;stroke-opacity:1" d="M 571.665,713.11 586.753,699.909 z" id="boundary" inkscape:connector-curvature="0" />
	<path style="fill:none;stroke:red;stroke-width:1px;stroke-linecap:butt;stroke-linejoin:miter;stroke-opacity:1" d="M 586.753,699.909 605.612,690.479 z" id="boundary" inkscape:connector-curvature="0" />
	<path style="fill:none;stroke:red;stroke-width:1px;stroke-linecap:butt;stroke-linejoin:miter;stroke-opacity:1" d="M 977.141,392.502 977.141,411.361 z" id="boundary" inkscape:connector-curvature="0" />
	<path style="fill:none;stroke:red;stroke-width:1px;stroke-linecap:butt;stroke-linejoin:miter;stroke-opacity:1" d="M 977.141,411.361 967.711,430.221 z" id="boundary" inkscape:connector-curvature="0" />
	<path style="fill:none;stroke:red;stroke-width:1px;stroke-linecap:butt;stroke-linejoin:miter;stroke-opacity:1" d="M 977.141,392.502 986.57,364.213 z" id="boundary" inkscape:connector-curvature="0" />
	<path style="fill:none;stroke:red;stroke-width:1px;stroke-linecap:butt;stroke-linejoin:miter;stroke-opacity:1" d="M 967.711,430.221 958.281,449.08 z" id="boundary" inkscape:connector-curvature="0" />
	<path style="fill:none;stroke:red;stroke-width:1px;stroke-linecap:butt;stroke-linejoin:miter;stroke-opacity:1" d="M 996,286.89 996,305.749 z" id="boundary" inkscape:connector-curvature="0" />
	<path style="fill:none;stroke:red;stroke-width:1px;stroke-linecap:butt;stroke-linejoin:miter;stroke-opacity:1" d="M 996,324.608 996,343.468 z" id="boundary" inkscape:connector-curvature="0" />
	<path style="fill:none;stroke:red;stroke-width:1px;stroke-linecap:butt;stroke-linejoin:miter;stroke-opacity:1" d="M 996,343.468 986.57,364.213 z" id="boundary" inkscape:connector-curvature="0" />
	<path style="fill:none;stroke:red;stroke-width:1px;stroke-linecap:butt;stroke-linejoin:miter;stroke-opacity:1" d="M 996,305.749 996,324.608 z" id="boundary" inkscape:connector-curvature="0" />
	<path style="fill:none;stroke:red;stroke-width:1px;stroke-linecap:butt;stroke-linejoin:miter;stroke-opacity:1" d="M 869.643,567.894 882.844,552.806 z" id="boundary" inkscape:connector-curvature="0" />
	<path style="fill:none;stroke:red;stroke-width:1px;stroke-linecap:butt;stroke-linejoin:miter;stroke-opacity:1" d="M 882.844,552.806 897.932,539.605 z" id="boundary" inkscape:connector-curvature="0" />
	<path style="fill:none;stroke:red;stroke-width:1px;stroke-linecap:butt;stroke-linejoin:miter;stroke-opacity:1" d="M 822.494,605.612 835.696,590.525 z" id="boundary" inkscape:connector-curvature="0" />
	<path style="fill:none;stroke:red;stroke-width:1px;stroke-linecap:butt;stroke-linejoin:miter;stroke-opacity:1" d="M 835.696,590.525 854.555,581.095 z" id="boundary" inkscape:connector-curvature="0" />
	<path style="fill:none;stroke:red;stroke-width:1px;stroke-linecap:butt;stroke-linejoin:miter;stroke-opacity:1" d="M 869.643,567.894 854.555,581.095 z" id="boundary" inkscape:connector-curvature="0" />
	<path style="fill:none;stroke:red;stroke-width:1px;stroke-linecap:butt;stroke-linejoin:miter;stroke-opacity:1" d="M 948.852,467.939 939.422,486.798 z" id="boundary" inkscape:connector-curvature="0" />
	<path style="fill:none;stroke:red;stroke-width:1px;stroke-linecap:butt;stroke-linejoin:miter;stroke-opacity:1" d="M 939.422,486.798 926.221,501.886 z" id="boundary" inkscape:connector-curvature="0" />
	<path style="fill:none;stroke:red;stroke-width:1px;stroke-linecap:butt;stroke-linejoin:miter;stroke-opacity:1" d="M 897.932,539.605 911.133,515.087 z" id="boundary" inkscape:connector-curvature="0" />
	<path style="fill:none;stroke:red;stroke-width:1px;stroke-linecap:butt;stroke-linejoin:miter;stroke-opacity:1" d="M 911.133,515.087 926.221,501.886 z" id="boundary" inkscape:connector-curvature="0" />
	<path style="fill:none;stroke:red;stroke-width:1px;stroke-linecap:butt;stroke-linejoin:miter;stroke-opacity:1" d="M 958.281,449.08 948.852,467.939 z" id="boundary" inkscape:connector-curvature="0" />
	<circle cx="4" cy="179.392" r="4" fill="#0" id="circle0"/>
	<circle cx="4" cy="198.251" r="4" fill="#0" id="circle1"/>
	<circle cx="4" cy="217.11" r="4" fill="#0" id="circle2"/>
	<circle cx="4" cy="235.97" r="4" fill="#0" id="circle3"/>
	<circle cx="4" cy="254.829" r="4" fill="#0" id="circle4"/>
	<circle cx="4" cy="273.688" r="4" fill="#0" id="circle5"/>
	<circle cx="4" cy="292.548" r="4" fill="#0" id="circle6"/>
	<circle cx="13.4297" cy="160.532" r="4" fill="#0" id="circle7"/>
	<circle cx="13.4297" cy="309.521" r="4" fill="#0" id="circle8"/>
	<circle cx="13.4297" cy="328.38" r="4" fill="#0" id="circle9"/>
	<circle cx="22.8593" cy="122.814" r="4" fill="#0" id="circle10"/>
	<circle cx="22.8593" cy="141.673" r="4" fill="#0" id="circle11"/>
	<circle cx="22.8593" cy="345.354" r="4" fill="#0" id="circle12"/>
	<circle cx="28.5171" cy="364.213" r="4" fill="#0" id="circle13"/>
	<circle cx="32.289" cy="103.954" r="4" fill="#0" id="circle14"/>
	<circle cx="37.9468" cy="381.186" r="4" fill="#0" id="circle15"/>
	<circle cx="41.7186" cy="85.0951" r="4" fill="#0" id="circle16"/>
	<circle cx="45.4905" cy="400.046" r="4" fill="#0" id="circle17"/>
	<circle cx="51.1483" cy="66.2357" r="4" fill="#0" id="circle18"/>
	<circle cx="54.9202" cy="417.019" r="4" fill="#0" id="circle19"/>
	<circle cx="66.2357" cy="51.1483" r="4" fill="#0" id="circle20"/>
	<circle cx="70.0076" cy="430.221" r="4" fill="#0" id="circle21"/>
	<circle cx="81.3232" cy="445.308" r="4" fill="#0" id="circle22"/>
	<circle cx="83.2091" cy="41.7186" r="4" fill="#0" id="circle23"/>
	<circle cx="96.4106" cy="458.51" r="4" fill="#0" id="circle24"/>
	<circle cx="98.2966" cy="28.5171" r="4" fill="#0" id="circle25"/>
	<circle cx="107.726" cy="473.597" r="4" fill="#0" id="circle26"/>
	<circle cx="117.156" cy="19.0875" r="4" fill="#0" id="circle27"/>
	<circle cx="117.156" cy="490.57" r="4" fill="#0" id="circle28"/>
	<circle cx="136.015" cy="9.65779" r="4" fill="#0" id="circle29"/>
	<circle cx="136.015" cy="496.228" r="4" fill="#0" id="circle30"/>
	<circle cx="152.989" cy="505.658" r="4" fill="#0" id="circle31"/>
	<circle cx="154.875" cy="4" r="4" fill="#0" id="circle32"/>
	<circle cx="160.532" cy="524.517" r="4" fill="#0" id="circle33"/>
	<circle cx="173.734" cy="4" r="4" fill="#0" id="circle34"/>
	<circle cx="177.506" cy="533.947" r="4" fill="#0" id="circle35"/>
	<circle cx="192.593" cy="4" r="4" fill="#0" id="circle36"/>
	<circle cx="194.479" cy="543.376" r="4" fill="#0" id="circle37"/>
	<circle cx="211.452" cy="4" r="4" fill="#0" id="circle38"/>
	<circle cx="211.452" cy="552.806" r="4" fill="#0" id="circle39"/>
	<circle cx="228.426" cy="562.236" r="4" fill="#0" id="circle40"/>
	<circle cx="230.312" cy="4" r="4" fill="#0" id="circle41"/>
	<circle cx="245.399" cy="571.665" r="4" fill="#0" id="circle42"/>
	<circle cx="249.171" cy="4" r="4" fill="#0" id="circle43"/>
	<circle cx="264.259" cy="579.209" r="4" fill="#0" id="circle44"/>
	<circle cx="268.03" cy="7.77186" r="4" fill="#0" id="circle45"/>
	<circle cx="281.232" cy="588.639" r="4" fill="#0" id="circle46"/>
	<circle cx="285.004" cy="17.2015" r="4" fill="#0" id="circle47"/>
	<circle cx="300.091" cy="596.183" r="4" fill="#0" id="circle48"/>
	<circle cx="303.863" cy="24.7452" r="4" fill="#0" id="circle49"/>
	<circle cx="317.065" cy="605.612" r="4" fill="#0" id="circle50"/>
	<circle cx="320.837" cy="34.1749" r="4" fill="#0" id="circle51"/>
	<circle cx="335.924" cy="613.156" r="4" fill="#0" id="circle52"/>
	<circle cx="339.696" cy="41.7186" r="4" fill="#0" id="circle53"/>
	<circle cx="354.783" cy="618.814" r="4" fill="#0" id="circle54"/>
	<circle cx="356.669" cy="51.1483" r="4" fill="#0" id="circle55"/>
	<circle cx="373.643" cy="60.5779" r="4" fill="#0" id="circle56"/>
	<circle cx="373.643" cy="622.586" r="4" fill="#0" id="circle57"/>
	<circle cx="388.73" cy="71.8935" r="4" fill="#0" id="circle58"/>
	<circle cx="390.616" cy="632.015" r="4" fill="#0" id="circle59"/>
	<circle cx="401.932" cy="86.981" r="4" fill="#0" id="circle60"/>
	<circle cx="409.475" cy="637.673" r="4" fill="#0" id="circle61"/>
	<circle cx="417.019" cy="98.2966" r="4" fill="#0" id="circle62"/>
	<circle cx="426.449" cy="647.103" r="4" fill="#0" id="circle63"/>
	<circle cx="433.992" cy="107.726" r="4" fill="#0" id="circle64"/>
	<circle cx="443.422" cy="656.532" r="4" fill="#0" id="circle65"/>
	<circle cx="447.194" cy="122.814" r="4" fill="#0" id="circle66"/>
	<circle cx="458.51" cy="669.734" r="4" fill="#0" id="circle67"/>
	<circle cx="466.053" cy="130.357" r="4" fill="#0" id="circle68"/>
	<circle cx="471.711" cy="684.821" r="4" fill="#0" id="circle69"/>
	<circle cx="473.597" cy="149.217" r="4" fill="#0" id="circle70"/>
	<circle cx="483.027" cy="166.19" r="4" fill="#0" id="circle71"/>
	<circle cx="490.57" cy="692.365" r="4" fill="#0" id="circle72"/>
	<circle cx="496.228" cy="181.278" r="4" fill="#0" id="circle73"/>
	<circle cx="503.772" cy="707.452" r="4" fill="#0" id="circle74"/>
	<circle cx="505.658" cy="198.251" r="4" fill="#0" id="circle75"/>
	<circle cx="518.859" cy="183.163" r="4" fill="#0" id="circle76"/>
	<circle cx="518.859" cy="720.654" r="4" fill="#0" id="circle77"/>
	<circle cx="528.289" cy="164.304" r="4" fill="#0" id="circle78"/>
	<circle cx="535.833" cy="730.084" r="4" fill="#0" id="circle79"/>
	<circle cx="537.719" cy="145.445" r="4" fill="#0" id="circle80"/>
	<circle cx="552.806" cy="130.357" r="4" fill="#0" id="circle81"/>
	<circle cx="554.692" cy="722.54" r="4" fill="#0" id="circle82"/>
	<circle cx="562.236" cy="111.498" r="4" fill="#0" id="circle83"/>
	<circle cx="571.665" cy="713.11" r="4" fill="#0" id="circle84"/>
	<circle cx="581.095" cy="102.068" r="4" fill="#0" id="circle85"/>
	<circle cx="586.753" cy="699.909" r="4" fill="#0" id="circle86"/>
	<circle cx="599.954" cy="92.6388" r="4" fill="#0" id="circle87"/>
	<circle cx="605.612" cy="690.479" r="4" fill="#0" id="circle88"/>
	<circle cx="615.042" cy="79.4373" r="4" fill="#0" id="circle89"/>
	<circle cx="624.471" cy="681.049" r="4" fill="#0" id="circle90"/>
	<circle cx="628.243" cy="64.3498" r="4" fill="#0" id="circle91"/>
	<circle cx="643.331" cy="675.392" r="4" fill="#0" id="circle92"/>
	<circle cx="647.103" cy="54.9202" r="4" fill="#0" id="circle93"/>
	<circle cx="662.19" cy="671.62" r="4" fill="#0" id="circle94"/>
	<circle cx="665.962" cy="45.4905" r="4" fill="#0" id="circle95"/>
	<circle cx="681.049" cy="662.19" r="4" fill="#0" id="circle96"/>
	<circle cx="684.821" cy="36.0608" r="4" fill="#0" id="circle97"/>
	<circle cx="699.909" cy="656.532" r="4" fill="#0" id="circle98"/>
	<circle cx="703.681" cy="26.6312" r="4" fill="#0" id="circle99"/>
	<circle cx="718.768" cy="652.76" r="4" fill="#0" id="circle100"/>
	<circle cx="722.54" cy="22.8593" r="4" fill="#0" id="circle101"/>
	<circle cx="737.627" cy="647.103" r="4" fill="#0" id="circle102"/>
	<circle cx="741.399" cy="22.8593" r="4" fill="#0" id="circle103"/>
	<circle cx="754.601" cy="637.673" r="4" fill="#0" id="circle104"/>
	<circle cx="760.259" cy="22.8593" r="4" fill="#0" id="circle105"/>
	<circle cx="773.46" cy="637.673" r="4" fill="#0" id="circle106"/>
	<circle cx="779.118" cy="22.8593" r="4" fill="#0" id="circle107"/>
	<circle cx="790.433" cy="628.243" r="4" fill="#0" id="circle108"/>
	<circle cx="797.977" cy="22.8593" r="4" fill="#0" id="circle109"/>
	<circle cx="807.407" cy="618.814" r="4" fill="#0" id="circle110"/>
	<circle cx="814.951" cy="32.289" r="4" fill="#0" id="circle111"/>
	<circle cx="822.494" cy="605.612" r="4" fill="#0" id="circle112"/>
	<circle cx="831.924" cy="41.7186" r="4" fill="#0" id="circle113"/>
	<circle cx="835.696" cy="590.525" r="4" fill="#0" id="circle114"/>
	<circle cx="850.783" cy="41.7186" r="4" fill="#0" id="circle115"/>
	<circle cx="854.555" cy="581.095" r="4" fill="#0" id="circle116"/>
	<circle cx="867.757" cy="51.1483" r="4" fill="#0" id="circle117"/>
	<circle cx="869.643" cy="567.894" r="4" fill="#0" id="circle118"/>
	<circle cx="880.958" cy="66.2357" r="4" fill="#0" id="circle119"/>
	<circle cx="882.844" cy="552.806" r="4" fill="#0" id="circle120"/>
	<circle cx="896.046" cy="79.4373" r="4" fill="#0" id="circle121"/>
	<circle cx="897.932" cy="539.605" r="4" fill="#0" id="circle122"/>
	<circle cx="911.133" cy="515.087" r="4" fill="#0" id="circle123"/>
	<circle cx="913.019" cy="88.8669" r="4" fill="#0" id="circle124"/>
	<circle cx="926.221" cy="501.886" r="4" fill="#0" id="circle125"/>
	<circle cx="929.992" cy="98.2966" r="4" fill="#0" id="circle126"/>
	<circle cx="939.422" cy="486.798" r="4" fill="#0" id="circle127"/>
	<circle cx="945.08" cy="109.612" r="4" fill="#0" id="circle128"/>
	<circle cx="948.852" cy="467.939" r="4" fill="#0" id="circle129"/>
	<circle cx="952.624" cy="128.471" r="4" fill="#0" id="circle130"/>
	<circle cx="958.281" cy="449.08" r="4" fill="#0" id="circle131"/>
	<circle cx="967.711" cy="141.673" r="4" fill="#0" id="circle132"/>
	<circle cx="967.711" cy="160.532" r="4" fill="#0" id="circle133"/>
	<circle cx="967.711" cy="430.221" r="4" fill="#0" id="circle134"/>
	<circle cx="977.141" cy="177.506" r="4" fill="#0" id="circle135"/>
	<circle cx="977.141" cy="392.502" r="4" fill="#0" id="circle136"/>
	<circle cx="977.141" cy="411.361" r="4" fill="#0" id="circle137"/>
	<circle cx="986.57" cy="194.479" r="4" fill="#0" id="circle138"/>
	<circle cx="986.57" cy="213.338" r="4" fill="#0" id="circle139"/>
	<circle cx="986.57" cy="364.213" r="4" fill="#0" id="circle140"/>
	<circle cx="996" cy="230.312" r="4" fill="#0" id="circle141"/>
	<circle cx="996" cy="249.171" r="4" fill="#0" id="circle142"/>
	<circle cx="996" cy="268.03" r="4" fill="#0" id="circle143"/>
	<circle cx="996" cy="286.89" r="4" fill="#0" id="circle144"/>
	<circle cx="996" cy="305.749" r="4" fill="#0" id="circle145"/>
	<circle cx="996" cy="324.608" r="4" fill="#0" id="circle146"/>
	<circle cx="996" cy="343.468" r="4" fill="#0" id="circle147"/>
	</g>
</svg>