<?xml version="1.0" encoding="UTF-8" standalone="no"?>
<!-- Created with CurveBenchmark -->
<svg
	xmlns:dc="http://purl.org/dc/elements/1.1/"
	xmlns:cc="http://creativecommons.org/ns#"
	xmlns:rdf="http://www.w3.org/1999/02/22-rdf-syntax-ns#"
	xmlns:svg="http://www.w3.org/2000/svg"
	xmlns="http://www.w3.org/2000/svg"
	xmlns:sodipodi="http://sodipodi.sourceforge.net/DTD/sodipodi-0.dtd"
	xmlns:inkscape="http://www.inkscape.org/namespaces/inkscape"
	width="1000"
	height="1000"
	id="svg2"
	version="1.1"
	sodipodi:docname="manifold/gathang-cat16.png.txt">
<defs
	id="defs4" />
<metadata
	id="metadata7">
	<rdf:RDF>
		<cc:Work
			rdf:about="">
			<dc:format>image/svg+xml</dc:format>
			<dc:type
				rdf:resource="http://purl.org/dc/dcmitype/StillImage" />
			<dc:title></dc:title>
		</cc:Work>
	</rdf:RDF>
</metadata>
<g
	inkscape:label="Layer 1"
	inkscape:groupmode="layer"
	id="layer1">
	<path style="fill:none;stroke:red;stroke-width:1px;stroke-linecap:butt;stroke-linejoin:miter;stroke-opacity:1" d="M 41.4568,471.605 53.5396,469.189 z" id="boundary" inkscape:connector-curvature="0" />
	<path style="fill:none;stroke:red;stroke-width:1px;stroke-linecap:butt;stroke-linejoin:miter;stroke-opacity:1" d="M 150.202,447.44 140.536,457.106 z" id="boundary" inkscape:connector-curvature="0" />
	<path style="fill:none;stroke:red;stroke-width:1px;stroke-linecap:butt;stroke-linejoin:miter;stroke-opacity:1" d="M 140.536,457.106 129.661,463.147 z" id="boundary" inkscape:connector-curvature="0" />
	<path style="fill:none;stroke:red;stroke-width:1px;stroke-linecap:butt;stroke-linejoin:miter;stroke-opacity:1" d="M 119.995,471.605 129.661,463.147 z" id="boundary" inkscape:connector-curvature="0" />
	<path style="fill:none;stroke:red;stroke-width:1px;stroke-linecap:butt;stroke-linejoin:miter;stroke-opacity:1" d="M 53.5396,469.189 64.4141,475.23 z" id="boundary" inkscape:connector-curvature="0" />
	<path style="fill:none;stroke:red;stroke-width:1px;stroke-linecap:butt;stroke-linejoin:miter;stroke-opacity:1" d="M 34.2071,481.272 22.1242,477.647 z" id="boundary" inkscape:connector-curvature="0" />
	<path style="fill:none;stroke:red;stroke-width:1px;stroke-linecap:butt;stroke-linejoin:miter;stroke-opacity:1" d="M 119.995,471.605 107.912,477.647 z" id="boundary" inkscape:connector-curvature="0" />
	<path style="fill:none;stroke:red;stroke-width:1px;stroke-linecap:butt;stroke-linejoin:miter;stroke-opacity:1" d="M 76.497,477.647 64.4141,475.23 z" id="boundary" inkscape:connector-curvature="0" />
	<path style="fill:none;stroke:red;stroke-width:1px;stroke-linecap:butt;stroke-linejoin:miter;stroke-opacity:1" d="M 99.4543,487.313 107.912,477.647 z" id="boundary" inkscape:connector-curvature="0" />
	<path style="fill:none;stroke:red;stroke-width:1px;stroke-linecap:butt;stroke-linejoin:miter;stroke-opacity:1" d="M 87.3715,483.688 76.497,477.647 z" id="boundary" inkscape:connector-curvature="0" />
	<path style="fill:none;stroke:red;stroke-width:1px;stroke-linecap:butt;stroke-linejoin:miter;stroke-opacity:1" d="M 200.95,384.609 209.408,370.11 z" id="boundary" inkscape:connector-curvature="0" />
	<path style="fill:none;stroke:red;stroke-width:1px;stroke-linecap:butt;stroke-linejoin:miter;stroke-opacity:1" d="M 215.449,358.027 209.408,370.11 z" id="boundary" inkscape:connector-curvature="0" />
	<path style="fill:none;stroke:red;stroke-width:1px;stroke-linecap:butt;stroke-linejoin:miter;stroke-opacity:1" d="M 215.449,358.027 227.532,345.944 z" id="boundary" inkscape:connector-curvature="0" />
	<path style="fill:none;stroke:red;stroke-width:1px;stroke-linecap:butt;stroke-linejoin:miter;stroke-opacity:1" d="M 227.532,345.944 239.615,342.319 z" id="boundary" inkscape:connector-curvature="0" />
	<path style="fill:none;stroke:red;stroke-width:1px;stroke-linecap:butt;stroke-linejoin:miter;stroke-opacity:1" d="M 200.95,384.609 191.284,394.275 z" id="boundary" inkscape:connector-curvature="0" />
	<path style="fill:none;stroke:red;stroke-width:1px;stroke-linecap:butt;stroke-linejoin:miter;stroke-opacity:1" d="M 159.868,438.982 168.326,429.315 z" id="boundary" inkscape:connector-curvature="0" />
	<path style="fill:none;stroke:red;stroke-width:1px;stroke-linecap:butt;stroke-linejoin:miter;stroke-opacity:1" d="M 159.868,438.982 150.202,447.44 z" id="boundary" inkscape:connector-curvature="0" />
	<path style="fill:none;stroke:red;stroke-width:1px;stroke-linecap:butt;stroke-linejoin:miter;stroke-opacity:1" d="M 191.284,394.275 186.451,411.191 z" id="boundary" inkscape:connector-curvature="0" />
	<path style="fill:none;stroke:red;stroke-width:1px;stroke-linecap:butt;stroke-linejoin:miter;stroke-opacity:1" d="M 186.451,411.191 177.993,420.857 z" id="boundary" inkscape:connector-curvature="0" />
	<path style="fill:none;stroke:red;stroke-width:1px;stroke-linecap:butt;stroke-linejoin:miter;stroke-opacity:1" d="M 177.993,420.857 168.326,429.315 z" id="boundary" inkscape:connector-curvature="0" />
	<path style="fill:none;stroke:red;stroke-width:1px;stroke-linecap:butt;stroke-linejoin:miter;stroke-opacity:1" d="M 22.1242,477.647 10.0414,478.855 z" id="boundary" inkscape:connector-curvature="0" />
	<path style="fill:none;stroke:red;stroke-width:1px;stroke-linecap:butt;stroke-linejoin:miter;stroke-opacity:1" d="M 4,490.938 10.0414,478.855 z" id="boundary" inkscape:connector-curvature="0" />
	<path style="fill:none;stroke:red;stroke-width:1px;stroke-linecap:butt;stroke-linejoin:miter;stroke-opacity:1" d="M 13.6663,499.396 4,490.938 z" id="boundary" inkscape:connector-curvature="0" />
	<path style="fill:none;stroke:red;stroke-width:1px;stroke-linecap:butt;stroke-linejoin:miter;stroke-opacity:1" d="M 22.1242,509.062 13.6663,499.396 z" id="boundary" inkscape:connector-curvature="0" />
	<path style="fill:none;stroke:red;stroke-width:1px;stroke-linecap:butt;stroke-linejoin:miter;stroke-opacity:1" d="M 31.7905,517.52 22.1242,509.062 z" id="boundary" inkscape:connector-curvature="0" />
	<path style="fill:none;stroke:red;stroke-width:1px;stroke-linecap:butt;stroke-linejoin:miter;stroke-opacity:1" d="M 31.7905,517.52 28.1657,539.269 z" id="boundary" inkscape:connector-curvature="0" />
	<path style="fill:none;stroke:red;stroke-width:1px;stroke-linecap:butt;stroke-linejoin:miter;stroke-opacity:1" d="M 22.1242,587.6 22.1242,575.518 z" id="boundary" inkscape:connector-curvature="0" />
	<path style="fill:none;stroke:red;stroke-width:1px;stroke-linecap:butt;stroke-linejoin:miter;stroke-opacity:1" d="M 22.1242,575.518 28.1657,563.435 z" id="boundary" inkscape:connector-curvature="0" />
	<path style="fill:none;stroke:red;stroke-width:1px;stroke-linecap:butt;stroke-linejoin:miter;stroke-opacity:1" d="M 28.1657,551.352 28.1657,539.269 z" id="boundary" inkscape:connector-curvature="0" />
	<path style="fill:none;stroke:red;stroke-width:1px;stroke-linecap:butt;stroke-linejoin:miter;stroke-opacity:1" d="M 28.1657,563.435 28.1657,551.352 z" id="boundary" inkscape:connector-curvature="0" />
	<path style="fill:none;stroke:red;stroke-width:1px;stroke-linecap:butt;stroke-linejoin:miter;stroke-opacity:1" d="M 87.3715,483.688 99.4543,487.313 z" id="boundary" inkscape:connector-curvature="0" />
	<path style="fill:none;stroke:red;stroke-width:1px;stroke-linecap:butt;stroke-linejoin:miter;stroke-opacity:1" d="M 190.076,567.06 177.993,570.685 z" id="boundary" inkscape:connector-curvature="0" />
	<path style="fill:none;stroke:red;stroke-width:1px;stroke-linecap:butt;stroke-linejoin:miter;stroke-opacity:1" d="M 202.158,567.06 190.076,567.06 z" id="boundary" inkscape:connector-curvature="0" />
	<path style="fill:none;stroke:red;stroke-width:1px;stroke-linecap:butt;stroke-linejoin:miter;stroke-opacity:1" d="M 202.158,567.06 213.033,573.101 z" id="boundary" inkscape:connector-curvature="0" />
	<path style="fill:none;stroke:red;stroke-width:1px;stroke-linecap:butt;stroke-linejoin:miter;stroke-opacity:1" d="M 162.285,591.225 168.326,579.143 z" id="boundary" inkscape:connector-curvature="0" />
	<path style="fill:none;stroke:red;stroke-width:1px;stroke-linecap:butt;stroke-linejoin:miter;stroke-opacity:1" d="M 177.993,570.685 168.326,579.143 z" id="boundary" inkscape:connector-curvature="0" />
	<path style="fill:none;stroke:red;stroke-width:1px;stroke-linecap:butt;stroke-linejoin:miter;stroke-opacity:1" d="M 245.657,591.225 233.574,587.6 z" id="boundary" inkscape:connector-curvature="0" />
	<path style="fill:none;stroke:red;stroke-width:1px;stroke-linecap:butt;stroke-linejoin:miter;stroke-opacity:1" d="M 233.574,587.6 222.699,581.559 z" id="boundary" inkscape:connector-curvature="0" />
	<path style="fill:none;stroke:red;stroke-width:1px;stroke-linecap:butt;stroke-linejoin:miter;stroke-opacity:1" d="M 156.244,609.35 162.285,591.225 z" id="boundary" inkscape:connector-curvature="0" />
	<path style="fill:none;stroke:red;stroke-width:1px;stroke-linecap:butt;stroke-linejoin:miter;stroke-opacity:1" d="M 213.033,573.101 222.699,581.559 z" id="boundary" inkscape:connector-curvature="0" />
	<path style="fill:none;stroke:red;stroke-width:1px;stroke-linecap:butt;stroke-linejoin:miter;stroke-opacity:1" d="M 239.615,342.319 251.698,342.319 z" id="boundary" inkscape:connector-curvature="0" />
	<path style="fill:none;stroke:red;stroke-width:1px;stroke-linecap:butt;stroke-linejoin:miter;stroke-opacity:1" d="M 362.86,287.946 372.526,273.447 z" id="boundary" inkscape:connector-curvature="0" />
	<path style="fill:none;stroke:red;stroke-width:1px;stroke-linecap:butt;stroke-linejoin:miter;stroke-opacity:1" d="M 372.526,273.447 384.609,267.406 z" id="boundary" inkscape:connector-curvature="0" />
	<path style="fill:none;stroke:red;stroke-width:1px;stroke-linecap:butt;stroke-linejoin:miter;stroke-opacity:1" d="M 394.275,257.739 384.609,267.406 z" id="boundary" inkscape:connector-curvature="0" />
	<path style="fill:none;stroke:red;stroke-width:1px;stroke-linecap:butt;stroke-linejoin:miter;stroke-opacity:1" d="M 416.024,248.073 406.358,257.739 z" id="boundary" inkscape:connector-curvature="0" />
	<path style="fill:none;stroke:red;stroke-width:1px;stroke-linecap:butt;stroke-linejoin:miter;stroke-opacity:1" d="M 406.358,257.739 394.275,257.739 z" id="boundary" inkscape:connector-curvature="0" />
	<path style="fill:none;stroke:red;stroke-width:1px;stroke-linecap:butt;stroke-linejoin:miter;stroke-opacity:1" d="M 428.107,242.032 416.024,248.073 z" id="boundary" inkscape:connector-curvature="0" />
	<path style="fill:none;stroke:red;stroke-width:1px;stroke-linecap:butt;stroke-linejoin:miter;stroke-opacity:1" d="M 309.695,324.195 319.362,314.529 z" id="boundary" inkscape:connector-curvature="0" />
	<path style="fill:none;stroke:red;stroke-width:1px;stroke-linecap:butt;stroke-linejoin:miter;stroke-opacity:1" d="M 319.362,314.529 331.445,308.487 z" id="boundary" inkscape:connector-curvature="0" />
	<path style="fill:none;stroke:red;stroke-width:1px;stroke-linecap:butt;stroke-linejoin:miter;stroke-opacity:1" d="M 341.111,300.029 331.445,308.487 z" id="boundary" inkscape:connector-curvature="0" />
	<path style="fill:none;stroke:red;stroke-width:1px;stroke-linecap:butt;stroke-linejoin:miter;stroke-opacity:1" d="M 341.111,300.029 351.985,293.988 z" id="boundary" inkscape:connector-curvature="0" />
	<path style="fill:none;stroke:red;stroke-width:1px;stroke-linecap:butt;stroke-linejoin:miter;stroke-opacity:1" d="M 362.86,287.946 351.985,293.988 z" id="boundary" inkscape:connector-curvature="0" />
	<path style="fill:none;stroke:red;stroke-width:1px;stroke-linecap:butt;stroke-linejoin:miter;stroke-opacity:1" d="M 499.396,206.991 511.479,203.367 z" id="boundary" inkscape:connector-curvature="0" />
	<path style="fill:none;stroke:red;stroke-width:1px;stroke-linecap:butt;stroke-linejoin:miter;stroke-opacity:1" d="M 511.479,203.367 523.562,203.367 z" id="boundary" inkscape:connector-curvature="0" />
	<path style="fill:none;stroke:red;stroke-width:1px;stroke-linecap:butt;stroke-linejoin:miter;stroke-opacity:1" d="M 487.313,213.033 499.396,206.991 z" id="boundary" inkscape:connector-curvature="0" />
	<path style="fill:none;stroke:red;stroke-width:1px;stroke-linecap:butt;stroke-linejoin:miter;stroke-opacity:1" d="M 535.644,203.367 523.562,203.367 z" id="boundary" inkscape:connector-curvature="0" />
	<path style="fill:none;stroke:red;stroke-width:1px;stroke-linecap:butt;stroke-linejoin:miter;stroke-opacity:1" d="M 547.727,203.367 535.644,203.367 z" id="boundary" inkscape:connector-curvature="0" />
	<path style="fill:none;stroke:red;stroke-width:1px;stroke-linecap:butt;stroke-linejoin:miter;stroke-opacity:1" d="M 428.107,242.032 440.19,235.99 z" id="boundary" inkscape:connector-curvature="0" />
	<path style="fill:none;stroke:red;stroke-width:1px;stroke-linecap:butt;stroke-linejoin:miter;stroke-opacity:1" d="M 440.19,235.99 452.273,233.574 z" id="boundary" inkscape:connector-curvature="0" />
	<path style="fill:none;stroke:red;stroke-width:1px;stroke-linecap:butt;stroke-linejoin:miter;stroke-opacity:1" d="M 463.147,225.116 452.273,233.574 z" id="boundary" inkscape:connector-curvature="0" />
	<path style="fill:none;stroke:red;stroke-width:1px;stroke-linecap:butt;stroke-linejoin:miter;stroke-opacity:1" d="M 463.147,225.116 475.23,219.074 z" id="boundary" inkscape:connector-curvature="0" />
	<path style="fill:none;stroke:red;stroke-width:1px;stroke-linecap:butt;stroke-linejoin:miter;stroke-opacity:1" d="M 487.313,213.033 475.23,219.074 z" id="boundary" inkscape:connector-curvature="0" />
	<path style="fill:none;stroke:red;stroke-width:1px;stroke-linecap:butt;stroke-linejoin:miter;stroke-opacity:1" d="M 262.572,336.278 273.447,330.236 z" id="boundary" inkscape:connector-curvature="0" />
	<path style="fill:none;stroke:red;stroke-width:1px;stroke-linecap:butt;stroke-linejoin:miter;stroke-opacity:1" d="M 273.447,330.236 285.53,330.236 z" id="boundary" inkscape:connector-curvature="0" />
	<path style="fill:none;stroke:red;stroke-width:1px;stroke-linecap:butt;stroke-linejoin:miter;stroke-opacity:1" d="M 309.695,324.195 297.613,330.236 z" id="boundary" inkscape:connector-curvature="0" />
	<path style="fill:none;stroke:red;stroke-width:1px;stroke-linecap:butt;stroke-linejoin:miter;stroke-opacity:1" d="M 297.613,330.236 285.53,330.236 z" id="boundary" inkscape:connector-curvature="0" />
	<path style="fill:none;stroke:red;stroke-width:1px;stroke-linecap:butt;stroke-linejoin:miter;stroke-opacity:1" d="M 251.698,342.319 262.572,336.278 z" id="boundary" inkscape:connector-curvature="0" />
	<path style="fill:none;stroke:red;stroke-width:1px;stroke-linecap:butt;stroke-linejoin:miter;stroke-opacity:1" d="M 257.739,593.642 245.657,591.225 z" id="boundary" inkscape:connector-curvature="0" />
	<path style="fill:none;stroke:red;stroke-width:1px;stroke-linecap:butt;stroke-linejoin:miter;stroke-opacity:1" d="M 269.822,597.267 257.739,593.642 z" id="boundary" inkscape:connector-curvature="0" />
	<path style="fill:none;stroke:red;stroke-width:1px;stroke-linecap:butt;stroke-linejoin:miter;stroke-opacity:1" d="M 416.024,573.101 409.983,591.225 z" id="boundary" inkscape:connector-curvature="0" />
	<path style="fill:none;stroke:red;stroke-width:1px;stroke-linecap:butt;stroke-linejoin:miter;stroke-opacity:1" d="M 422.066,554.977 428.107,542.894 z" id="boundary" inkscape:connector-curvature="0" />
	<path style="fill:none;stroke:red;stroke-width:1px;stroke-linecap:butt;stroke-linejoin:miter;stroke-opacity:1" d="M 428.107,542.894 440.19,536.853 z" id="boundary" inkscape:connector-curvature="0" />
	<path style="fill:none;stroke:red;stroke-width:1px;stroke-linecap:butt;stroke-linejoin:miter;stroke-opacity:1" d="M 452.273,536.853 463.147,542.894 z" id="boundary" inkscape:connector-curvature="0" />
	<path style="fill:none;stroke:red;stroke-width:1px;stroke-linecap:butt;stroke-linejoin:miter;stroke-opacity:1" d="M 463.147,542.894 469.189,553.769 z" id="boundary" inkscape:connector-curvature="0" />
	<path style="fill:none;stroke:red;stroke-width:1px;stroke-linecap:butt;stroke-linejoin:miter;stroke-opacity:1" d="M 452.273,536.853 440.19,536.853 z" id="boundary" inkscape:connector-curvature="0" />
	<path style="fill:none;stroke:red;stroke-width:1px;stroke-linecap:butt;stroke-linejoin:miter;stroke-opacity:1" d="M 476.438,563.435 469.189,553.769 z" id="boundary" inkscape:connector-curvature="0" />
	<path style="fill:none;stroke:red;stroke-width:1px;stroke-linecap:butt;stroke-linejoin:miter;stroke-opacity:1" d="M 416.024,573.101 422.066,554.977 z" id="boundary" inkscape:connector-curvature="0" />
	<path style="fill:none;stroke:red;stroke-width:1px;stroke-linecap:butt;stroke-linejoin:miter;stroke-opacity:1" d="M 476.438,563.435 481.272,575.518 z" id="boundary" inkscape:connector-curvature="0" />
	<path style="fill:none;stroke:red;stroke-width:1px;stroke-linecap:butt;stroke-linejoin:miter;stroke-opacity:1" d="M 409.983,603.308 409.983,591.225 z" id="boundary" inkscape:connector-curvature="0" />
	<path style="fill:none;stroke:red;stroke-width:1px;stroke-linecap:butt;stroke-linejoin:miter;stroke-opacity:1" d="M 487.313,586.392 481.272,575.518 z" id="boundary" inkscape:connector-curvature="0" />
	<path style="fill:none;stroke:red;stroke-width:1px;stroke-linecap:butt;stroke-linejoin:miter;stroke-opacity:1" d="M 500.604,606.933 493.354,597.267 z" id="boundary" inkscape:connector-curvature="0" />
	<path style="fill:none;stroke:red;stroke-width:1px;stroke-linecap:butt;stroke-linejoin:miter;stroke-opacity:1" d="M 493.354,597.267 487.313,586.392 z" id="boundary" inkscape:connector-curvature="0" />
	<path style="fill:none;stroke:red;stroke-width:1px;stroke-linecap:butt;stroke-linejoin:miter;stroke-opacity:1" d="M 269.822,597.267 277.072,606.933 z" id="boundary" inkscape:connector-curvature="0" />
	<path style="fill:none;stroke:red;stroke-width:1px;stroke-linecap:butt;stroke-linejoin:miter;stroke-opacity:1" d="M 4,641.973 4,629.89 z" id="boundary" inkscape:connector-curvature="0" />
	<path style="fill:none;stroke:red;stroke-width:1px;stroke-linecap:butt;stroke-linejoin:miter;stroke-opacity:1" d="M 4,629.89 13.6663,620.224 z" id="boundary" inkscape:connector-curvature="0" />
	<path style="fill:none;stroke:red;stroke-width:1px;stroke-linecap:butt;stroke-linejoin:miter;stroke-opacity:1" d="M 13.6663,620.224 22.1242,599.683 z" id="boundary" inkscape:connector-curvature="0" />
	<path style="fill:none;stroke:red;stroke-width:1px;stroke-linecap:butt;stroke-linejoin:miter;stroke-opacity:1" d="M 113.954,639.557 105.496,649.223 z" id="boundary" inkscape:connector-curvature="0" />
	<path style="fill:none;stroke:red;stroke-width:1px;stroke-linecap:butt;stroke-linejoin:miter;stroke-opacity:1" d="M 10.0414,652.848 4,641.973 z" id="boundary" inkscape:connector-curvature="0" />
	<path style="fill:none;stroke:red;stroke-width:1px;stroke-linecap:butt;stroke-linejoin:miter;stroke-opacity:1" d="M 22.1242,587.6 22.1242,599.683 z" id="boundary" inkscape:connector-curvature="0" />
	<path style="fill:none;stroke:red;stroke-width:1px;stroke-linecap:butt;stroke-linejoin:miter;stroke-opacity:1" d="M 18.4994,662.514 10.0414,652.848 z" id="boundary" inkscape:connector-curvature="0" />
	<path style="fill:none;stroke:red;stroke-width:1px;stroke-linecap:butt;stroke-linejoin:miter;stroke-opacity:1" d="M 30.5822,667.347 18.4994,662.514 z" id="boundary" inkscape:connector-curvature="0" />
	<path style="fill:none;stroke:red;stroke-width:1px;stroke-linecap:butt;stroke-linejoin:miter;stroke-opacity:1" d="M 77.7052,675.805 87.3715,667.347 z" id="boundary" inkscape:connector-curvature="0" />
	<path style="fill:none;stroke:red;stroke-width:1px;stroke-linecap:butt;stroke-linejoin:miter;stroke-opacity:1" d="M 87.3715,667.347 99.4543,661.306 z" id="boundary" inkscape:connector-curvature="0" />
	<path style="fill:none;stroke:red;stroke-width:1px;stroke-linecap:butt;stroke-linejoin:miter;stroke-opacity:1" d="M 105.496,649.223 99.4543,661.306 z" id="boundary" inkscape:connector-curvature="0" />
	<path style="fill:none;stroke:red;stroke-width:1px;stroke-linecap:butt;stroke-linejoin:miter;stroke-opacity:1" d="M 30.5822,667.347 41.4568,673.389 z" id="boundary" inkscape:connector-curvature="0" />
	<path style="fill:none;stroke:red;stroke-width:1px;stroke-linecap:butt;stroke-linejoin:miter;stroke-opacity:1" d="M 156.244,609.35 156.244,621.432 z" id="boundary" inkscape:connector-curvature="0" />
	<path style="fill:none;stroke:red;stroke-width:1px;stroke-linecap:butt;stroke-linejoin:miter;stroke-opacity:1" d="M 156.244,621.432 150.202,633.515 z" id="boundary" inkscape:connector-curvature="0" />
	<path style="fill:none;stroke:red;stroke-width:1px;stroke-linecap:butt;stroke-linejoin:miter;stroke-opacity:1" d="M 150.202,633.515 138.119,639.557 z" id="boundary" inkscape:connector-curvature="0" />
	<path style="fill:none;stroke:red;stroke-width:1px;stroke-linecap:butt;stroke-linejoin:miter;stroke-opacity:1" d="M 275.864,623.849 275.864,635.932 z" id="boundary" inkscape:connector-curvature="0" />
	<path style="fill:none;stroke:red;stroke-width:1px;stroke-linecap:butt;stroke-linejoin:miter;stroke-opacity:1" d="M 126.037,639.557 138.119,639.557 z" id="boundary" inkscape:connector-curvature="0" />
	<path style="fill:none;stroke:red;stroke-width:1px;stroke-linecap:butt;stroke-linejoin:miter;stroke-opacity:1" d="M 126.037,639.557 113.954,639.557 z" id="boundary" inkscape:connector-curvature="0" />
	<path style="fill:none;stroke:red;stroke-width:1px;stroke-linecap:butt;stroke-linejoin:miter;stroke-opacity:1" d="M 275.864,648.015 275.864,635.932 z" id="boundary" inkscape:connector-curvature="0" />
	<path style="fill:none;stroke:red;stroke-width:1px;stroke-linecap:butt;stroke-linejoin:miter;stroke-opacity:1" d="M 322.987,655.264 313.32,663.722 z" id="boundary" inkscape:connector-curvature="0" />
	<path style="fill:none;stroke:red;stroke-width:1px;stroke-linecap:butt;stroke-linejoin:miter;stroke-opacity:1" d="M 243.24,686.68 231.157,692.721 z" id="boundary" inkscape:connector-curvature="0" />
	<path style="fill:none;stroke:red;stroke-width:1px;stroke-linecap:butt;stroke-linejoin:miter;stroke-opacity:1" d="M 275.864,623.849 277.072,606.933 z" id="boundary" inkscape:connector-curvature="0" />
	<path style="fill:none;stroke:red;stroke-width:1px;stroke-linecap:butt;stroke-linejoin:miter;stroke-opacity:1" d="M 274.655,668.555 275.864,648.015 z" id="boundary" inkscape:connector-curvature="0" />
	<path style="fill:none;stroke:red;stroke-width:1px;stroke-linecap:butt;stroke-linejoin:miter;stroke-opacity:1" d="M 41.4568,673.389 53.5396,675.805 z" id="boundary" inkscape:connector-curvature="0" />
	<path style="fill:none;stroke:red;stroke-width:1px;stroke-linecap:butt;stroke-linejoin:miter;stroke-opacity:1" d="M 65.6224,675.805 77.7052,675.805 z" id="boundary" inkscape:connector-curvature="0" />
	<path style="fill:none;stroke:red;stroke-width:1px;stroke-linecap:butt;stroke-linejoin:miter;stroke-opacity:1" d="M 65.6224,675.805 53.5396,675.805 z" id="boundary" inkscape:connector-curvature="0" />
	<path style="fill:none;stroke:red;stroke-width:1px;stroke-linecap:butt;stroke-linejoin:miter;stroke-opacity:1" d="M 231.157,692.721 221.491,702.387 z" id="boundary" inkscape:connector-curvature="0" />
	<path style="fill:none;stroke:red;stroke-width:1px;stroke-linecap:butt;stroke-linejoin:miter;stroke-opacity:1" d="M 221.491,714.47 221.491,702.387 z" id="boundary" inkscape:connector-curvature="0" />
	<path style="fill:none;stroke:red;stroke-width:1px;stroke-linecap:butt;stroke-linejoin:miter;stroke-opacity:1" d="M 231.157,722.928 221.491,714.47 z" id="boundary" inkscape:connector-curvature="0" />
	<path style="fill:none;stroke:red;stroke-width:1px;stroke-linecap:butt;stroke-linejoin:miter;stroke-opacity:1" d="M 240.823,730.178 231.157,722.928 z" id="boundary" inkscape:connector-curvature="0" />
	<path style="fill:none;stroke:red;stroke-width:1px;stroke-linecap:butt;stroke-linejoin:miter;stroke-opacity:1" d="M 252.906,730.178 240.823,730.178 z" id="boundary" inkscape:connector-curvature="0" />
	<path style="fill:none;stroke:red;stroke-width:1px;stroke-linecap:butt;stroke-linejoin:miter;stroke-opacity:1" d="M 255.323,686.68 264.989,677.013 z" id="boundary" inkscape:connector-curvature="0" />
	<path style="fill:none;stroke:red;stroke-width:1px;stroke-linecap:butt;stroke-linejoin:miter;stroke-opacity:1" d="M 255.323,686.68 243.24,686.68 z" id="boundary" inkscape:connector-curvature="0" />
	<path style="fill:none;stroke:red;stroke-width:1px;stroke-linecap:butt;stroke-linejoin:miter;stroke-opacity:1" d="M 307.279,675.805 301.238,687.888 z" id="boundary" inkscape:connector-curvature="0" />
	<path style="fill:none;stroke:red;stroke-width:1px;stroke-linecap:butt;stroke-linejoin:miter;stroke-opacity:1" d="M 313.32,663.722 307.279,675.805 z" id="boundary" inkscape:connector-curvature="0" />
	<path style="fill:none;stroke:red;stroke-width:1px;stroke-linecap:butt;stroke-linejoin:miter;stroke-opacity:1" d="M 301.238,699.971 301.238,687.888 z" id="boundary" inkscape:connector-curvature="0" />
	<path style="fill:none;stroke:red;stroke-width:1px;stroke-linecap:butt;stroke-linejoin:miter;stroke-opacity:1" d="M 264.989,677.013 274.655,668.555 z" id="boundary" inkscape:connector-curvature="0" />
	<path style="fill:none;stroke:red;stroke-width:1px;stroke-linecap:butt;stroke-linejoin:miter;stroke-opacity:1" d="M 252.906,730.178 264.989,730.178 z" id="boundary" inkscape:connector-curvature="0" />
	<path style="fill:none;stroke:red;stroke-width:1px;stroke-linecap:butt;stroke-linejoin:miter;stroke-opacity:1" d="M 277.072,730.178 264.989,730.178 z" id="boundary" inkscape:connector-curvature="0" />
	<path style="fill:none;stroke:red;stroke-width:1px;stroke-linecap:butt;stroke-linejoin:miter;stroke-opacity:1" d="M 287.946,724.136 277.072,730.178 z" id="boundary" inkscape:connector-curvature="0" />
	<path style="fill:none;stroke:red;stroke-width:1px;stroke-linecap:butt;stroke-linejoin:miter;stroke-opacity:1" d="M 295.196,712.054 287.946,724.136 z" id="boundary" inkscape:connector-curvature="0" />
	<path style="fill:none;stroke:red;stroke-width:1px;stroke-linecap:butt;stroke-linejoin:miter;stroke-opacity:1" d="M 295.196,712.054 301.238,699.971 z" id="boundary" inkscape:connector-curvature="0" />
	<path style="fill:none;stroke:red;stroke-width:1px;stroke-linecap:butt;stroke-linejoin:miter;stroke-opacity:1" d="M 322.987,655.264 329.028,643.181 z" id="boundary" inkscape:connector-curvature="0" />
	<path style="fill:none;stroke:red;stroke-width:1px;stroke-linecap:butt;stroke-linejoin:miter;stroke-opacity:1" d="M 348.361,639.557 345.944,656.473 z" id="boundary" inkscape:connector-curvature="0" />
	<path style="fill:none;stroke:red;stroke-width:1px;stroke-linecap:butt;stroke-linejoin:miter;stroke-opacity:1" d="M 403.942,651.639 397.9,663.722 z" id="boundary" inkscape:connector-curvature="0" />
	<path style="fill:none;stroke:red;stroke-width:1px;stroke-linecap:butt;stroke-linejoin:miter;stroke-opacity:1" d="M 329.028,643.181 337.486,633.515 z" id="boundary" inkscape:connector-curvature="0" />
	<path style="fill:none;stroke:red;stroke-width:1px;stroke-linecap:butt;stroke-linejoin:miter;stroke-opacity:1" d="M 337.486,633.515 348.361,639.557 z" id="boundary" inkscape:connector-curvature="0" />
	<path style="fill:none;stroke:red;stroke-width:1px;stroke-linecap:butt;stroke-linejoin:miter;stroke-opacity:1" d="M 345.944,656.473 339.903,668.555 z" id="boundary" inkscape:connector-curvature="0" />
	<path style="fill:none;stroke:red;stroke-width:1px;stroke-linecap:butt;stroke-linejoin:miter;stroke-opacity:1" d="M 324.195,690.305 330.236,678.222 z" id="boundary" inkscape:connector-curvature="0" />
	<path style="fill:none;stroke:red;stroke-width:1px;stroke-linecap:butt;stroke-linejoin:miter;stroke-opacity:1" d="M 397.9,663.722 394.275,686.68 z" id="boundary" inkscape:connector-curvature="0" />
	<path style="fill:none;stroke:red;stroke-width:1px;stroke-linecap:butt;stroke-linejoin:miter;stroke-opacity:1" d="M 330.236,678.222 339.903,668.555 z" id="boundary" inkscape:connector-curvature="0" />
	<path style="fill:none;stroke:red;stroke-width:1px;stroke-linecap:butt;stroke-linejoin:miter;stroke-opacity:1" d="M 409.983,615.391 409.983,627.474 z" id="boundary" inkscape:connector-curvature="0" />
	<path style="fill:none;stroke:red;stroke-width:1px;stroke-linecap:butt;stroke-linejoin:miter;stroke-opacity:1" d="M 409.983,615.391 409.983,603.308 z" id="boundary" inkscape:connector-curvature="0" />
	<path style="fill:none;stroke:red;stroke-width:1px;stroke-linecap:butt;stroke-linejoin:miter;stroke-opacity:1" d="M 409.983,639.557 409.983,627.474 z" id="boundary" inkscape:connector-curvature="0" />
	<path style="fill:none;stroke:red;stroke-width:1px;stroke-linecap:butt;stroke-linejoin:miter;stroke-opacity:1" d="M 510.27,615.391 500.604,606.933 z" id="boundary" inkscape:connector-curvature="0" />
	<path style="fill:none;stroke:red;stroke-width:1px;stroke-linecap:butt;stroke-linejoin:miter;stroke-opacity:1" d="M 510.27,615.391 515.104,627.474 z" id="boundary" inkscape:connector-curvature="0" />
	<path style="fill:none;stroke:red;stroke-width:1px;stroke-linecap:butt;stroke-linejoin:miter;stroke-opacity:1" d="M 403.942,651.639 409.983,639.557 z" id="boundary" inkscape:connector-curvature="0" />
	<path style="fill:none;stroke:red;stroke-width:1px;stroke-linecap:butt;stroke-linejoin:miter;stroke-opacity:1" d="M 511.479,648.015 511.479,660.097 z" id="boundary" inkscape:connector-curvature="0" />
	<path style="fill:none;stroke:red;stroke-width:1px;stroke-linecap:butt;stroke-linejoin:miter;stroke-opacity:1" d="M 505.437,692.721 511.479,678.222 z" id="boundary" inkscape:connector-curvature="0" />
	<path style="fill:none;stroke:red;stroke-width:1px;stroke-linecap:butt;stroke-linejoin:miter;stroke-opacity:1" d="M 511.479,678.222 511.479,660.097 z" id="boundary" inkscape:connector-curvature="0" />
	<path style="fill:none;stroke:red;stroke-width:1px;stroke-linecap:butt;stroke-linejoin:miter;stroke-opacity:1" d="M 515.104,627.474 511.479,648.015 z" id="boundary" inkscape:connector-curvature="0" />
	<path style="fill:none;stroke:red;stroke-width:1px;stroke-linecap:butt;stroke-linejoin:miter;stroke-opacity:1" d="M 336.278,693.929 339.903,706.012 z" id="boundary" inkscape:connector-curvature="0" />
	<path style="fill:none;stroke:red;stroke-width:1px;stroke-linecap:butt;stroke-linejoin:miter;stroke-opacity:1" d="M 351.985,706.012 339.903,706.012 z" id="boundary" inkscape:connector-curvature="0" />
	<path style="fill:none;stroke:red;stroke-width:1px;stroke-linecap:butt;stroke-linejoin:miter;stroke-opacity:1" d="M 364.068,706.012 351.985,706.012 z" id="boundary" inkscape:connector-curvature="0" />
	<path style="fill:none;stroke:red;stroke-width:1px;stroke-linecap:butt;stroke-linejoin:miter;stroke-opacity:1" d="M 376.151,704.804 388.234,698.762 z" id="boundary" inkscape:connector-curvature="0" />
	<path style="fill:none;stroke:red;stroke-width:1px;stroke-linecap:butt;stroke-linejoin:miter;stroke-opacity:1" d="M 376.151,704.804 364.068,706.012 z" id="boundary" inkscape:connector-curvature="0" />
	<path style="fill:none;stroke:red;stroke-width:1px;stroke-linecap:butt;stroke-linejoin:miter;stroke-opacity:1" d="M 394.275,686.68 388.234,698.762 z" id="boundary" inkscape:connector-curvature="0" />
	<path style="fill:none;stroke:red;stroke-width:1px;stroke-linecap:butt;stroke-linejoin:miter;stroke-opacity:1" d="M 451.065,720.512 451.065,732.594 z" id="boundary" inkscape:connector-curvature="0" />
	<path style="fill:none;stroke:red;stroke-width:1px;stroke-linecap:butt;stroke-linejoin:miter;stroke-opacity:1" d="M 460.731,741.052 451.065,732.594 z" id="boundary" inkscape:connector-curvature="0" />
	<path style="fill:none;stroke:red;stroke-width:1px;stroke-linecap:butt;stroke-linejoin:miter;stroke-opacity:1" d="M 451.065,720.512 460.731,710.845 z" id="boundary" inkscape:connector-curvature="0" />
	<path style="fill:none;stroke:red;stroke-width:1px;stroke-linecap:butt;stroke-linejoin:miter;stroke-opacity:1" d="M 472.814,742.261 460.731,741.052 z" id="boundary" inkscape:connector-curvature="0" />
	<path style="fill:none;stroke:red;stroke-width:1px;stroke-linecap:butt;stroke-linejoin:miter;stroke-opacity:1" d="M 471.605,704.804 483.688,704.804 z" id="boundary" inkscape:connector-curvature="0" />
	<path style="fill:none;stroke:red;stroke-width:1px;stroke-linecap:butt;stroke-linejoin:miter;stroke-opacity:1" d="M 495.771,699.971 483.688,704.804 z" id="boundary" inkscape:connector-curvature="0" />
	<path style="fill:none;stroke:red;stroke-width:1px;stroke-linecap:butt;stroke-linejoin:miter;stroke-opacity:1" d="M 495.771,699.971 505.437,692.721 z" id="boundary" inkscape:connector-curvature="0" />
	<path style="fill:none;stroke:red;stroke-width:1px;stroke-linecap:butt;stroke-linejoin:miter;stroke-opacity:1" d="M 552.56,721.72 542.894,730.178 z" id="boundary" inkscape:connector-curvature="0" />
	<path style="fill:none;stroke:red;stroke-width:1px;stroke-linecap:butt;stroke-linejoin:miter;stroke-opacity:1" d="M 471.605,704.804 460.731,710.845 z" id="boundary" inkscape:connector-curvature="0" />
	<path style="fill:none;stroke:red;stroke-width:1px;stroke-linecap:butt;stroke-linejoin:miter;stroke-opacity:1" d="M 484.896,742.261 472.814,742.261 z" id="boundary" inkscape:connector-curvature="0" />
	<path style="fill:none;stroke:red;stroke-width:1px;stroke-linecap:butt;stroke-linejoin:miter;stroke-opacity:1" d="M 496.979,742.261 484.896,742.261 z" id="boundary" inkscape:connector-curvature="0" />
	<path style="fill:none;stroke:red;stroke-width:1px;stroke-linecap:butt;stroke-linejoin:miter;stroke-opacity:1" d="M 521.145,742.261 509.062,742.261 z" id="boundary" inkscape:connector-curvature="0" />
	<path style="fill:none;stroke:red;stroke-width:1px;stroke-linecap:butt;stroke-linejoin:miter;stroke-opacity:1" d="M 509.062,742.261 496.979,742.261 z" id="boundary" inkscape:connector-curvature="0" />
	<path style="fill:none;stroke:red;stroke-width:1px;stroke-linecap:butt;stroke-linejoin:miter;stroke-opacity:1" d="M 542.894,730.178 533.228,741.052 z" id="boundary" inkscape:connector-curvature="0" />
	<path style="fill:none;stroke:red;stroke-width:1px;stroke-linecap:butt;stroke-linejoin:miter;stroke-opacity:1" d="M 533.228,741.052 521.145,742.261 z" id="boundary" inkscape:connector-curvature="0" />
	<path style="fill:none;stroke:red;stroke-width:1px;stroke-linecap:butt;stroke-linejoin:miter;stroke-opacity:1" d="M 559.81,203.367 571.893,203.367 z" id="boundary" inkscape:connector-curvature="0" />
	<path style="fill:none;stroke:red;stroke-width:1px;stroke-linecap:butt;stroke-linejoin:miter;stroke-opacity:1" d="M 583.976,203.367 596.058,203.367 z" id="boundary" inkscape:connector-curvature="0" />
	<path style="fill:none;stroke:red;stroke-width:1px;stroke-linecap:butt;stroke-linejoin:miter;stroke-opacity:1" d="M 608.141,203.367 596.058,203.367 z" id="boundary" inkscape:connector-curvature="0" />
	<path style="fill:none;stroke:red;stroke-width:1px;stroke-linecap:butt;stroke-linejoin:miter;stroke-opacity:1" d="M 608.141,203.367 617.808,210.616 z" id="boundary" inkscape:connector-curvature="0" />
	<path style="fill:none;stroke:red;stroke-width:1px;stroke-linecap:butt;stroke-linejoin:miter;stroke-opacity:1" d="M 583.976,203.367 571.893,203.367 z" id="boundary" inkscape:connector-curvature="0" />
	<path style="fill:none;stroke:red;stroke-width:1px;stroke-linecap:butt;stroke-linejoin:miter;stroke-opacity:1" d="M 617.808,210.616 627.474,219.074 z" id="boundary" inkscape:connector-curvature="0" />
	<path style="fill:none;stroke:red;stroke-width:1px;stroke-linecap:butt;stroke-linejoin:miter;stroke-opacity:1" d="M 638.348,225.116 627.474,219.074 z" id="boundary" inkscape:connector-curvature="0" />
	<path style="fill:none;stroke:red;stroke-width:1px;stroke-linecap:butt;stroke-linejoin:miter;stroke-opacity:1" d="M 638.348,225.116 650.431,229.949 z" id="boundary" inkscape:connector-curvature="0" />
	<path style="fill:none;stroke:red;stroke-width:1px;stroke-linecap:butt;stroke-linejoin:miter;stroke-opacity:1" d="M 650.431,229.949 657.681,239.615 z" id="boundary" inkscape:connector-curvature="0" />
	<path style="fill:none;stroke:red;stroke-width:1px;stroke-linecap:butt;stroke-linejoin:miter;stroke-opacity:1" d="M 669.764,243.24 657.681,239.615 z" id="boundary" inkscape:connector-curvature="0" />
	<path style="fill:none;stroke:red;stroke-width:1px;stroke-linecap:butt;stroke-linejoin:miter;stroke-opacity:1" d="M 928.336,31.7905 928.336,43.8733 z" id="boundary" inkscape:connector-curvature="0" />
	<path style="fill:none;stroke:red;stroke-width:1px;stroke-linecap:butt;stroke-linejoin:miter;stroke-opacity:1" d="M 928.336,31.7905 928.336,19.7077 z" id="boundary" inkscape:connector-curvature="0" />
	<path style="fill:none;stroke:red;stroke-width:1px;stroke-linecap:butt;stroke-linejoin:miter;stroke-opacity:1" d="M 928.336,55.9562 928.336,43.8733 z" id="boundary" inkscape:connector-curvature="0" />
	<path style="fill:none;stroke:red;stroke-width:1px;stroke-linecap:butt;stroke-linejoin:miter;stroke-opacity:1" d="M 928.336,68.039 928.336,55.9562 z" id="boundary" inkscape:connector-curvature="0" />
	<path style="fill:none;stroke:red;stroke-width:1px;stroke-linecap:butt;stroke-linejoin:miter;stroke-opacity:1" d="M 669.764,243.24 681.847,245.657 z" id="boundary" inkscape:connector-curvature="0" />
	<path style="fill:none;stroke:red;stroke-width:1px;stroke-linecap:butt;stroke-linejoin:miter;stroke-opacity:1" d="M 693.929,245.657 681.847,245.657 z" id="boundary" inkscape:connector-curvature="0" />
	<path style="fill:none;stroke:red;stroke-width:1px;stroke-linecap:butt;stroke-linejoin:miter;stroke-opacity:1" d="M 928.336,80.1218 934.378,90.9963 z" id="boundary" inkscape:connector-curvature="0" />
	<path style="fill:none;stroke:red;stroke-width:1px;stroke-linecap:butt;stroke-linejoin:miter;stroke-opacity:1" d="M 928.336,68.039 928.336,80.1218 z" id="boundary" inkscape:connector-curvature="0" />
	<path style="fill:none;stroke:red;stroke-width:1px;stroke-linecap:butt;stroke-linejoin:miter;stroke-opacity:1" d="M 693.929,245.657 704.804,251.698 z" id="boundary" inkscape:connector-curvature="0" />
	<path style="fill:none;stroke:red;stroke-width:1px;stroke-linecap:butt;stroke-linejoin:miter;stroke-opacity:1" d="M 559.81,203.367 547.727,203.367 z" id="boundary" inkscape:connector-curvature="0" />
	<path style="fill:none;stroke:red;stroke-width:1px;stroke-linecap:butt;stroke-linejoin:miter;stroke-opacity:1" d="M 704.804,251.698 716.887,254.114 z" id="boundary" inkscape:connector-curvature="0" />
	<path style="fill:none;stroke:red;stroke-width:1px;stroke-linecap:butt;stroke-linejoin:miter;stroke-opacity:1" d="M 716.887,254.114 727.761,260.156 z" id="boundary" inkscape:connector-curvature="0" />
	<path style="fill:none;stroke:red;stroke-width:1px;stroke-linecap:butt;stroke-linejoin:miter;stroke-opacity:1" d="M 727.761,260.156 739.844,264.989 z" id="boundary" inkscape:connector-curvature="0" />
	<path style="fill:none;stroke:red;stroke-width:1px;stroke-linecap:butt;stroke-linejoin:miter;stroke-opacity:1" d="M 750.719,271.03 739.844,264.989 z" id="boundary" inkscape:connector-curvature="0" />
	<path style="fill:none;stroke:red;stroke-width:1px;stroke-linecap:butt;stroke-linejoin:miter;stroke-opacity:1" d="M 762.801,275.864 774.884,275.864 z" id="boundary" inkscape:connector-curvature="0" />
	<path style="fill:none;stroke:red;stroke-width:1px;stroke-linecap:butt;stroke-linejoin:miter;stroke-opacity:1" d="M 774.884,275.864 783.342,285.53 z" id="boundary" inkscape:connector-curvature="0" />
	<path style="fill:none;stroke:red;stroke-width:1px;stroke-linecap:butt;stroke-linejoin:miter;stroke-opacity:1" d="M 762.801,275.864 750.719,271.03 z" id="boundary" inkscape:connector-curvature="0" />
	<path style="fill:none;stroke:red;stroke-width:1px;stroke-linecap:butt;stroke-linejoin:miter;stroke-opacity:1" d="M 783.342,285.53 795.425,285.53 z" id="boundary" inkscape:connector-curvature="0" />
	<path style="fill:none;stroke:red;stroke-width:1px;stroke-linecap:butt;stroke-linejoin:miter;stroke-opacity:1" d="M 807.508,287.946 795.425,285.53 z" id="boundary" inkscape:connector-curvature="0" />
	<path style="fill:none;stroke:red;stroke-width:1px;stroke-linecap:butt;stroke-linejoin:miter;stroke-opacity:1" d="M 819.591,290.363 807.508,287.946 z" id="boundary" inkscape:connector-curvature="0" />
	<path style="fill:none;stroke:red;stroke-width:1px;stroke-linecap:butt;stroke-linejoin:miter;stroke-opacity:1" d="M 878.797,287.946 889.671,281.905 z" id="boundary" inkscape:connector-curvature="0" />
	<path style="fill:none;stroke:red;stroke-width:1px;stroke-linecap:butt;stroke-linejoin:miter;stroke-opacity:1" d="M 889.671,281.905 901.754,275.864 z" id="boundary" inkscape:connector-curvature="0" />
	<path style="fill:none;stroke:red;stroke-width:1px;stroke-linecap:butt;stroke-linejoin:miter;stroke-opacity:1" d="M 911.42,266.197 901.754,275.864 z" id="boundary" inkscape:connector-curvature="0" />
	<path style="fill:none;stroke:red;stroke-width:1px;stroke-linecap:butt;stroke-linejoin:miter;stroke-opacity:1" d="M 928.336,327.82 918.67,337.486 z" id="boundary" inkscape:connector-curvature="0" />
	<path style="fill:none;stroke:red;stroke-width:1px;stroke-linecap:butt;stroke-linejoin:miter;stroke-opacity:1" d="M 843.756,293.988 831.674,293.988 z" id="boundary" inkscape:connector-curvature="0" />
	<path style="fill:none;stroke:red;stroke-width:1px;stroke-linecap:butt;stroke-linejoin:miter;stroke-opacity:1" d="M 831.674,293.988 819.591,290.363 z" id="boundary" inkscape:connector-curvature="0" />
	<path style="fill:none;stroke:red;stroke-width:1px;stroke-linecap:butt;stroke-linejoin:miter;stroke-opacity:1" d="M 855.839,293.988 867.922,293.988 z" id="boundary" inkscape:connector-curvature="0" />
	<path style="fill:none;stroke:red;stroke-width:1px;stroke-linecap:butt;stroke-linejoin:miter;stroke-opacity:1" d="M 855.839,293.988 843.756,293.988 z" id="boundary" inkscape:connector-curvature="0" />
	<path style="fill:none;stroke:red;stroke-width:1px;stroke-linecap:butt;stroke-linejoin:miter;stroke-opacity:1" d="M 867.922,293.988 878.797,287.946 z" id="boundary" inkscape:connector-curvature="0" />
	<path style="fill:none;stroke:red;stroke-width:1px;stroke-linecap:butt;stroke-linejoin:miter;stroke-opacity:1" d="M 911.42,266.197 921.086,257.739 z" id="boundary" inkscape:connector-curvature="0" />
	<path style="fill:none;stroke:red;stroke-width:1px;stroke-linecap:butt;stroke-linejoin:miter;stroke-opacity:1" d="M 934.378,231.157 928.336,243.24 z" id="boundary" inkscape:connector-curvature="0" />
	<path style="fill:none;stroke:red;stroke-width:1px;stroke-linecap:butt;stroke-linejoin:miter;stroke-opacity:1" d="M 928.336,243.24 921.086,257.739 z" id="boundary" inkscape:connector-curvature="0" />
	<path style="fill:none;stroke:red;stroke-width:1px;stroke-linecap:butt;stroke-linejoin:miter;stroke-opacity:1" d="M 918.67,337.486 907.795,343.527 z" id="boundary" inkscape:connector-curvature="0" />
	<path style="fill:none;stroke:red;stroke-width:1px;stroke-linecap:butt;stroke-linejoin:miter;stroke-opacity:1" d="M 959.752,34.2071 965.793,45.0816 z" id="boundary" inkscape:connector-curvature="0" />
	<path style="fill:none;stroke:red;stroke-width:1px;stroke-linecap:butt;stroke-linejoin:miter;stroke-opacity:1" d="M 928.336,19.7077 938.002,10.0414 z" id="boundary" inkscape:connector-curvature="0" />
	<path style="fill:none;stroke:red;stroke-width:1px;stroke-linecap:butt;stroke-linejoin:miter;stroke-opacity:1" d="M 948.877,4 959.752,10.0414 z" id="boundary" inkscape:connector-curvature="0" />
	<path style="fill:none;stroke:red;stroke-width:1px;stroke-linecap:butt;stroke-linejoin:miter;stroke-opacity:1" d="M 959.752,10.0414 959.752,22.1242 z" id="boundary" inkscape:connector-curvature="0" />
	<path style="fill:none;stroke:red;stroke-width:1px;stroke-linecap:butt;stroke-linejoin:miter;stroke-opacity:1" d="M 938.002,10.0414 948.877,4 z" id="boundary" inkscape:connector-curvature="0" />
	<path style="fill:none;stroke:red;stroke-width:1px;stroke-linecap:butt;stroke-linejoin:miter;stroke-opacity:1" d="M 940.419,101.871 934.378,90.9963 z" id="boundary" inkscape:connector-curvature="0" />
	<path style="fill:none;stroke:red;stroke-width:1px;stroke-linecap:butt;stroke-linejoin:miter;stroke-opacity:1" d="M 944.044,113.954 946.46,126.037 z" id="boundary" inkscape:connector-curvature="0" />
	<path style="fill:none;stroke:red;stroke-width:1px;stroke-linecap:butt;stroke-linejoin:miter;stroke-opacity:1" d="M 944.044,113.954 940.419,101.871 z" id="boundary" inkscape:connector-curvature="0" />
	<path style="fill:none;stroke:red;stroke-width:1px;stroke-linecap:butt;stroke-linejoin:miter;stroke-opacity:1" d="M 946.46,126.037 952.502,136.911 z" id="boundary" inkscape:connector-curvature="0" />
	<path style="fill:none;stroke:red;stroke-width:1px;stroke-linecap:butt;stroke-linejoin:miter;stroke-opacity:1" d="M 952.502,136.911 952.502,148.994 z" id="boundary" inkscape:connector-curvature="0" />
	<path style="fill:none;stroke:red;stroke-width:1px;stroke-linecap:butt;stroke-linejoin:miter;stroke-opacity:1" d="M 959.752,22.1242 959.752,34.2071 z" id="boundary" inkscape:connector-curvature="0" />
	<path style="fill:none;stroke:red;stroke-width:1px;stroke-linecap:butt;stroke-linejoin:miter;stroke-opacity:1" d="M 952.502,148.994 952.502,161.077 z" id="boundary" inkscape:connector-curvature="0" />
	<path style="fill:none;stroke:red;stroke-width:1px;stroke-linecap:butt;stroke-linejoin:miter;stroke-opacity:1" d="M 971.834,55.9562 976.667,68.039 z" id="boundary" inkscape:connector-curvature="0" />
	<path style="fill:none;stroke:red;stroke-width:1px;stroke-linecap:butt;stroke-linejoin:miter;stroke-opacity:1" d="M 976.667,68.039 977.876,80.1218 z" id="boundary" inkscape:connector-curvature="0" />
	<path style="fill:none;stroke:red;stroke-width:1px;stroke-linecap:butt;stroke-linejoin:miter;stroke-opacity:1" d="M 983.917,90.9963 977.876,80.1218 z" id="boundary" inkscape:connector-curvature="0" />
	<path style="fill:none;stroke:red;stroke-width:1px;stroke-linecap:butt;stroke-linejoin:miter;stroke-opacity:1" d="M 971.834,55.9562 965.793,45.0816 z" id="boundary" inkscape:connector-curvature="0" />
	<path style="fill:none;stroke:red;stroke-width:1px;stroke-linecap:butt;stroke-linejoin:miter;stroke-opacity:1" d="M 989.959,101.871 989.959,113.954 z" id="boundary" inkscape:connector-curvature="0" />
	<path style="fill:none;stroke:red;stroke-width:1px;stroke-linecap:butt;stroke-linejoin:miter;stroke-opacity:1" d="M 989.959,101.871 983.917,90.9963 z" id="boundary" inkscape:connector-curvature="0" />
	<path style="fill:none;stroke:red;stroke-width:1px;stroke-linecap:butt;stroke-linejoin:miter;stroke-opacity:1" d="M 992.375,126.037 989.959,113.954 z" id="boundary" inkscape:connector-curvature="0" />
	<path style="fill:none;stroke:red;stroke-width:1px;stroke-linecap:butt;stroke-linejoin:miter;stroke-opacity:1" d="M 996,138.119 996,150.202 z" id="boundary" inkscape:connector-curvature="0" />
	<path style="fill:none;stroke:red;stroke-width:1px;stroke-linecap:butt;stroke-linejoin:miter;stroke-opacity:1" d="M 996,138.119 992.375,126.037 z" id="boundary" inkscape:connector-curvature="0" />
	<path style="fill:none;stroke:red;stroke-width:1px;stroke-linecap:butt;stroke-linejoin:miter;stroke-opacity:1" d="M 934.378,231.157 940.419,219.074 z" id="boundary" inkscape:connector-curvature="0" />
	<path style="fill:none;stroke:red;stroke-width:1px;stroke-linecap:butt;stroke-linejoin:miter;stroke-opacity:1" d="M 946.46,206.991 940.419,219.074 z" id="boundary" inkscape:connector-curvature="0" />
	<path style="fill:none;stroke:red;stroke-width:1px;stroke-linecap:butt;stroke-linejoin:miter;stroke-opacity:1" d="M 952.502,161.077 952.502,173.16 z" id="boundary" inkscape:connector-curvature="0" />
	<path style="fill:none;stroke:red;stroke-width:1px;stroke-linecap:butt;stroke-linejoin:miter;stroke-opacity:1" d="M 952.502,185.242 952.502,173.16 z" id="boundary" inkscape:connector-curvature="0" />
	<path style="fill:none;stroke:red;stroke-width:1px;stroke-linecap:butt;stroke-linejoin:miter;stroke-opacity:1" d="M 946.46,206.991 952.502,185.242 z" id="boundary" inkscape:connector-curvature="0" />
	<path style="fill:none;stroke:red;stroke-width:1px;stroke-linecap:butt;stroke-linejoin:miter;stroke-opacity:1" d="M 938.002,318.153 928.336,327.82 z" id="boundary" inkscape:connector-curvature="0" />
	<path style="fill:none;stroke:red;stroke-width:1px;stroke-linecap:butt;stroke-linejoin:miter;stroke-opacity:1" d="M 938.002,318.153 947.669,307.279 z" id="boundary" inkscape:connector-curvature="0" />
	<path style="fill:none;stroke:red;stroke-width:1px;stroke-linecap:butt;stroke-linejoin:miter;stroke-opacity:1" d="M 947.669,307.279 957.335,298.821 z" id="boundary" inkscape:connector-curvature="0" />
	<path style="fill:none;stroke:red;stroke-width:1px;stroke-linecap:butt;stroke-linejoin:miter;stroke-opacity:1" d="M 965.793,289.155 957.335,298.821 z" id="boundary" inkscape:connector-curvature="0" />
	<path style="fill:none;stroke:red;stroke-width:1px;stroke-linecap:butt;stroke-linejoin:miter;stroke-opacity:1" d="M 996,174.368 996,186.451 z" id="boundary" inkscape:connector-curvature="0" />
	<path style="fill:none;stroke:red;stroke-width:1px;stroke-linecap:butt;stroke-linejoin:miter;stroke-opacity:1" d="M 996,198.533 996,210.616 z" id="boundary" inkscape:connector-curvature="0" />
	<path style="fill:none;stroke:red;stroke-width:1px;stroke-linecap:butt;stroke-linejoin:miter;stroke-opacity:1" d="M 996,210.616 996,222.699 z" id="boundary" inkscape:connector-curvature="0" />
	<path style="fill:none;stroke:red;stroke-width:1px;stroke-linecap:butt;stroke-linejoin:miter;stroke-opacity:1" d="M 996,186.451 996,198.533 z" id="boundary" inkscape:connector-curvature="0" />
	<path style="fill:none;stroke:red;stroke-width:1px;stroke-linecap:butt;stroke-linejoin:miter;stroke-opacity:1" d="M 977.876,264.989 975.459,280.697 z" id="boundary" inkscape:connector-curvature="0" />
	<path style="fill:none;stroke:red;stroke-width:1px;stroke-linecap:butt;stroke-linejoin:miter;stroke-opacity:1" d="M 975.459,280.697 965.793,289.155 z" id="boundary" inkscape:connector-curvature="0" />
	<path style="fill:none;stroke:red;stroke-width:1px;stroke-linecap:butt;stroke-linejoin:miter;stroke-opacity:1" d="M 977.876,264.989 983.917,252.906 z" id="boundary" inkscape:connector-curvature="0" />
	<path style="fill:none;stroke:red;stroke-width:1px;stroke-linecap:butt;stroke-linejoin:miter;stroke-opacity:1" d="M 983.917,252.906 989.959,234.782 z" id="boundary" inkscape:connector-curvature="0" />
	<path style="fill:none;stroke:red;stroke-width:1px;stroke-linecap:butt;stroke-linejoin:miter;stroke-opacity:1" d="M 989.959,234.782 996,222.699 z" id="boundary" inkscape:connector-curvature="0" />
	<path style="fill:none;stroke:red;stroke-width:1px;stroke-linecap:butt;stroke-linejoin:miter;stroke-opacity:1" d="M 996,162.285 996,174.368 z" id="boundary" inkscape:connector-curvature="0" />
	<path style="fill:none;stroke:red;stroke-width:1px;stroke-linecap:butt;stroke-linejoin:miter;stroke-opacity:1" d="M 996,150.202 996,162.285 z" id="boundary" inkscape:connector-curvature="0" />
	<path style="fill:none;stroke:red;stroke-width:1px;stroke-linecap:butt;stroke-linejoin:miter;stroke-opacity:1" d="M 561.018,573.101 561.018,585.184 z" id="boundary" inkscape:connector-curvature="0" />
	<path style="fill:none;stroke:red;stroke-width:1px;stroke-linecap:butt;stroke-linejoin:miter;stroke-opacity:1" d="M 561.018,573.101 561.018,561.018 z" id="boundary" inkscape:connector-curvature="0" />
	<path style="fill:none;stroke:red;stroke-width:1px;stroke-linecap:butt;stroke-linejoin:miter;stroke-opacity:1" d="M 567.06,596.058 561.018,585.184 z" id="boundary" inkscape:connector-curvature="0" />
	<path style="fill:none;stroke:red;stroke-width:1px;stroke-linecap:butt;stroke-linejoin:miter;stroke-opacity:1" d="M 561.018,561.018 567.06,548.935 z" id="boundary" inkscape:connector-curvature="0" />
	<path style="fill:none;stroke:red;stroke-width:1px;stroke-linecap:butt;stroke-linejoin:miter;stroke-opacity:1" d="M 567.06,548.935 579.143,548.935 z" id="boundary" inkscape:connector-curvature="0" />
	<path style="fill:none;stroke:red;stroke-width:1px;stroke-linecap:butt;stroke-linejoin:miter;stroke-opacity:1" d="M 657.681,518.728 651.639,536.853 z" id="boundary" inkscape:connector-curvature="0" />
	<path style="fill:none;stroke:red;stroke-width:1px;stroke-linecap:butt;stroke-linejoin:miter;stroke-opacity:1" d="M 573.101,606.933 579.143,617.808 z" id="boundary" inkscape:connector-curvature="0" />
	<path style="fill:none;stroke:red;stroke-width:1px;stroke-linecap:butt;stroke-linejoin:miter;stroke-opacity:1" d="M 573.101,606.933 567.06,596.058 z" id="boundary" inkscape:connector-curvature="0" />
	<path style="fill:none;stroke:red;stroke-width:1px;stroke-linecap:butt;stroke-linejoin:miter;stroke-opacity:1" d="M 579.143,617.808 585.184,628.682 z" id="boundary" inkscape:connector-curvature="0" />
	<path style="fill:none;stroke:red;stroke-width:1px;stroke-linecap:butt;stroke-linejoin:miter;stroke-opacity:1" d="M 585.184,628.682 585.184,640.765 z" id="boundary" inkscape:connector-curvature="0" />
	<path style="fill:none;stroke:red;stroke-width:1px;stroke-linecap:butt;stroke-linejoin:miter;stroke-opacity:1" d="M 579.143,548.935 586.392,558.602 z" id="boundary" inkscape:connector-curvature="0" />
	<path style="fill:none;stroke:red;stroke-width:1px;stroke-linecap:butt;stroke-linejoin:miter;stroke-opacity:1" d="M 591.225,570.685 596.058,582.767 z" id="boundary" inkscape:connector-curvature="0" />
	<path style="fill:none;stroke:red;stroke-width:1px;stroke-linecap:butt;stroke-linejoin:miter;stroke-opacity:1" d="M 591.225,570.685 586.392,558.602 z" id="boundary" inkscape:connector-curvature="0" />
	<path style="fill:none;stroke:red;stroke-width:1px;stroke-linecap:butt;stroke-linejoin:miter;stroke-opacity:1" d="M 645.598,548.935 651.639,536.853 z" id="boundary" inkscape:connector-curvature="0" />
	<path style="fill:none;stroke:red;stroke-width:1px;stroke-linecap:butt;stroke-linejoin:miter;stroke-opacity:1" d="M 645.598,561.018 645.598,548.935 z" id="boundary" inkscape:connector-curvature="0" />
	<path style="fill:none;stroke:red;stroke-width:1px;stroke-linecap:butt;stroke-linejoin:miter;stroke-opacity:1" d="M 648.015,573.101 645.598,561.018 z" id="boundary" inkscape:connector-curvature="0" />
	<path style="fill:none;stroke:red;stroke-width:1px;stroke-linecap:butt;stroke-linejoin:miter;stroke-opacity:1" d="M 654.056,583.976 648.015,573.101 z" id="boundary" inkscape:connector-curvature="0" />
	<path style="fill:none;stroke:red;stroke-width:1px;stroke-linecap:butt;stroke-linejoin:miter;stroke-opacity:1" d="M 602.1,606.933 597.267,594.85 z" id="boundary" inkscape:connector-curvature="0" />
	<path style="fill:none;stroke:red;stroke-width:1px;stroke-linecap:butt;stroke-linejoin:miter;stroke-opacity:1" d="M 597.267,594.85 596.058,582.767 z" id="boundary" inkscape:connector-curvature="0" />
	<path style="fill:none;stroke:red;stroke-width:1px;stroke-linecap:butt;stroke-linejoin:miter;stroke-opacity:1" d="M 602.1,606.933 608.141,617.808 z" id="boundary" inkscape:connector-curvature="0" />
	<path style="fill:none;stroke:red;stroke-width:1px;stroke-linecap:butt;stroke-linejoin:miter;stroke-opacity:1" d="M 608.141,629.89 608.141,617.808 z" id="boundary" inkscape:connector-curvature="0" />
	<path style="fill:none;stroke:red;stroke-width:1px;stroke-linecap:butt;stroke-linejoin:miter;stroke-opacity:1" d="M 608.141,641.973 608.141,629.89 z" id="boundary" inkscape:connector-curvature="0" />
	<path style="fill:none;stroke:red;stroke-width:1px;stroke-linecap:butt;stroke-linejoin:miter;stroke-opacity:1" d="M 567.06,699.971 573.101,687.888 z" id="boundary" inkscape:connector-curvature="0" />
	<path style="fill:none;stroke:red;stroke-width:1px;stroke-linecap:butt;stroke-linejoin:miter;stroke-opacity:1" d="M 579.143,675.805 579.143,663.722 z" id="boundary" inkscape:connector-curvature="0" />
	<path style="fill:none;stroke:red;stroke-width:1px;stroke-linecap:butt;stroke-linejoin:miter;stroke-opacity:1" d="M 585.184,652.848 579.143,663.722 z" id="boundary" inkscape:connector-curvature="0" />
	<path style="fill:none;stroke:red;stroke-width:1px;stroke-linecap:butt;stroke-linejoin:miter;stroke-opacity:1" d="M 585.184,640.765 585.184,652.848 z" id="boundary" inkscape:connector-curvature="0" />
	<path style="fill:none;stroke:red;stroke-width:1px;stroke-linecap:butt;stroke-linejoin:miter;stroke-opacity:1" d="M 573.101,687.888 579.143,675.805 z" id="boundary" inkscape:connector-curvature="0" />
	<path style="fill:none;stroke:red;stroke-width:1px;stroke-linecap:butt;stroke-linejoin:miter;stroke-opacity:1" d="M 567.06,699.971 561.018,712.054 z" id="boundary" inkscape:connector-curvature="0" />
	<path style="fill:none;stroke:red;stroke-width:1px;stroke-linecap:butt;stroke-linejoin:miter;stroke-opacity:1" d="M 596.058,696.346 583.976,702.387 z" id="boundary" inkscape:connector-curvature="0" />
	<path style="fill:none;stroke:red;stroke-width:1px;stroke-linecap:butt;stroke-linejoin:miter;stroke-opacity:1" d="M 552.56,721.72 561.018,712.054 z" id="boundary" inkscape:connector-curvature="0" />
	<path style="fill:none;stroke:red;stroke-width:1px;stroke-linecap:butt;stroke-linejoin:miter;stroke-opacity:1" d="M 587.6,722.928 577.934,714.47 z" id="boundary" inkscape:connector-curvature="0" />
	<path style="fill:none;stroke:red;stroke-width:1px;stroke-linecap:butt;stroke-linejoin:miter;stroke-opacity:1" d="M 587.6,722.928 597.267,730.178 z" id="boundary" inkscape:connector-curvature="0" />
	<path style="fill:none;stroke:red;stroke-width:1px;stroke-linecap:butt;stroke-linejoin:miter;stroke-opacity:1" d="M 608.141,654.056 608.141,666.139 z" id="boundary" inkscape:connector-curvature="0" />
	<path style="fill:none;stroke:red;stroke-width:1px;stroke-linecap:butt;stroke-linejoin:miter;stroke-opacity:1" d="M 602.1,678.222 596.058,696.346 z" id="boundary" inkscape:connector-curvature="0" />
	<path style="fill:none;stroke:red;stroke-width:1px;stroke-linecap:butt;stroke-linejoin:miter;stroke-opacity:1" d="M 657.681,657.681 651.639,675.805 z" id="boundary" inkscape:connector-curvature="0" />
	<path style="fill:none;stroke:red;stroke-width:1px;stroke-linecap:butt;stroke-linejoin:miter;stroke-opacity:1" d="M 602.1,678.222 608.141,666.139 z" id="boundary" inkscape:connector-curvature="0" />
	<path style="fill:none;stroke:red;stroke-width:1px;stroke-linecap:butt;stroke-linejoin:miter;stroke-opacity:1" d="M 608.141,654.056 608.141,641.973 z" id="boundary" inkscape:connector-curvature="0" />
	<path style="fill:none;stroke:red;stroke-width:1px;stroke-linecap:butt;stroke-linejoin:miter;stroke-opacity:1" d="M 651.639,699.971 643.181,715.678 z" id="boundary" inkscape:connector-curvature="0" />
	<path style="fill:none;stroke:red;stroke-width:1px;stroke-linecap:butt;stroke-linejoin:miter;stroke-opacity:1" d="M 609.35,730.178 597.267,730.178 z" id="boundary" inkscape:connector-curvature="0" />
	<path style="fill:none;stroke:red;stroke-width:1px;stroke-linecap:butt;stroke-linejoin:miter;stroke-opacity:1" d="M 621.432,730.178 609.35,730.178 z" id="boundary" inkscape:connector-curvature="0" />
	<path style="fill:none;stroke:red;stroke-width:1px;stroke-linecap:butt;stroke-linejoin:miter;stroke-opacity:1" d="M 633.515,724.136 621.432,730.178 z" id="boundary" inkscape:connector-curvature="0" />
	<path style="fill:none;stroke:red;stroke-width:1px;stroke-linecap:butt;stroke-linejoin:miter;stroke-opacity:1" d="M 643.181,715.678 633.515,724.136 z" id="boundary" inkscape:connector-curvature="0" />
	<path style="fill:none;stroke:red;stroke-width:1px;stroke-linecap:butt;stroke-linejoin:miter;stroke-opacity:1" d="M 651.639,675.805 651.639,687.888 z" id="boundary" inkscape:connector-curvature="0" />
	<path style="fill:none;stroke:red;stroke-width:1px;stroke-linecap:butt;stroke-linejoin:miter;stroke-opacity:1" d="M 691.513,359.235 693.929,343.527 z" id="boundary" inkscape:connector-curvature="0" />
	<path style="fill:none;stroke:red;stroke-width:1px;stroke-linecap:butt;stroke-linejoin:miter;stroke-opacity:1" d="M 693.929,343.527 706.012,343.527 z" id="boundary" inkscape:connector-curvature="0" />
	<path style="fill:none;stroke:red;stroke-width:1px;stroke-linecap:butt;stroke-linejoin:miter;stroke-opacity:1" d="M 730.178,349.569 718.095,345.944 z" id="boundary" inkscape:connector-curvature="0" />
	<path style="fill:none;stroke:red;stroke-width:1px;stroke-linecap:butt;stroke-linejoin:miter;stroke-opacity:1" d="M 718.095,345.944 706.012,343.527 z" id="boundary" inkscape:connector-curvature="0" />
	<path style="fill:none;stroke:red;stroke-width:1px;stroke-linecap:butt;stroke-linejoin:miter;stroke-opacity:1" d="M 730.178,349.569 742.261,349.569 z" id="boundary" inkscape:connector-curvature="0" />
	<path style="fill:none;stroke:red;stroke-width:1px;stroke-linecap:butt;stroke-linejoin:miter;stroke-opacity:1" d="M 742.261,349.569 753.135,355.61 z" id="boundary" inkscape:connector-curvature="0" />
	<path style="fill:none;stroke:red;stroke-width:1px;stroke-linecap:butt;stroke-linejoin:miter;stroke-opacity:1" d="M 681.847,367.693 691.513,359.235 z" id="boundary" inkscape:connector-curvature="0" />
	<path style="fill:none;stroke:red;stroke-width:1px;stroke-linecap:butt;stroke-linejoin:miter;stroke-opacity:1" d="M 681.847,379.776 681.847,367.693 z" id="boundary" inkscape:connector-curvature="0" />
	<path style="fill:none;stroke:red;stroke-width:1px;stroke-linecap:butt;stroke-linejoin:miter;stroke-opacity:1" d="M 765.218,355.61 753.135,355.61 z" id="boundary" inkscape:connector-curvature="0" />
	<path style="fill:none;stroke:red;stroke-width:1px;stroke-linecap:butt;stroke-linejoin:miter;stroke-opacity:1" d="M 765.218,355.61 777.301,355.61 z" id="boundary" inkscape:connector-curvature="0" />
	<path style="fill:none;stroke:red;stroke-width:1px;stroke-linecap:butt;stroke-linejoin:miter;stroke-opacity:1" d="M 777.301,355.61 789.384,355.61 z" id="boundary" inkscape:connector-curvature="0" />
	<path style="fill:none;stroke:red;stroke-width:1px;stroke-linecap:butt;stroke-linejoin:miter;stroke-opacity:1" d="M 825.632,355.61 813.549,355.61 z" id="boundary" inkscape:connector-curvature="0" />
	<path style="fill:none;stroke:red;stroke-width:1px;stroke-linecap:butt;stroke-linejoin:miter;stroke-opacity:1" d="M 801.467,355.61 789.384,355.61 z" id="boundary" inkscape:connector-curvature="0" />
	<path style="fill:none;stroke:red;stroke-width:1px;stroke-linecap:butt;stroke-linejoin:miter;stroke-opacity:1" d="M 896.921,349.569 907.795,343.527 z" id="boundary" inkscape:connector-curvature="0" />
	<path style="fill:none;stroke:red;stroke-width:1px;stroke-linecap:butt;stroke-linejoin:miter;stroke-opacity:1" d="M 813.549,355.61 801.467,355.61 z" id="boundary" inkscape:connector-curvature="0" />
	<path style="fill:none;stroke:red;stroke-width:1px;stroke-linecap:butt;stroke-linejoin:miter;stroke-opacity:1" d="M 837.715,355.61 825.632,355.61 z" id="boundary" inkscape:connector-curvature="0" />
	<path style="fill:none;stroke:red;stroke-width:1px;stroke-linecap:butt;stroke-linejoin:miter;stroke-opacity:1" d="M 849.798,355.61 837.715,355.61 z" id="boundary" inkscape:connector-curvature="0" />
	<path style="fill:none;stroke:red;stroke-width:1px;stroke-linecap:butt;stroke-linejoin:miter;stroke-opacity:1" d="M 849.798,355.61 861.881,355.61 z" id="boundary" inkscape:connector-curvature="0" />
	<path style="fill:none;stroke:red;stroke-width:1px;stroke-linecap:butt;stroke-linejoin:miter;stroke-opacity:1" d="M 873.963,355.61 861.881,355.61 z" id="boundary" inkscape:connector-curvature="0" />
	<path style="fill:none;stroke:red;stroke-width:1px;stroke-linecap:butt;stroke-linejoin:miter;stroke-opacity:1" d="M 886.046,355.61 873.963,355.61 z" id="boundary" inkscape:connector-curvature="0" />
	<path style="fill:none;stroke:red;stroke-width:1px;stroke-linecap:butt;stroke-linejoin:miter;stroke-opacity:1" d="M 896.921,349.569 886.046,355.61 z" id="boundary" inkscape:connector-curvature="0" />
	<path style="fill:none;stroke:red;stroke-width:1px;stroke-linecap:butt;stroke-linejoin:miter;stroke-opacity:1" d="M 663.722,606.933 657.681,596.058 z" id="boundary" inkscape:connector-curvature="0" />
	<path style="fill:none;stroke:red;stroke-width:1px;stroke-linecap:butt;stroke-linejoin:miter;stroke-opacity:1" d="M 657.681,596.058 654.056,583.976 z" id="boundary" inkscape:connector-curvature="0" />
	<path style="fill:none;stroke:red;stroke-width:1px;stroke-linecap:butt;stroke-linejoin:miter;stroke-opacity:1" d="M 657.681,518.728 663.722,500.604 z" id="boundary" inkscape:connector-curvature="0" />
	<path style="fill:none;stroke:red;stroke-width:1px;stroke-linecap:butt;stroke-linejoin:miter;stroke-opacity:1" d="M 663.722,500.604 669.764,488.521 z" id="boundary" inkscape:connector-curvature="0" />
	<path style="fill:none;stroke:red;stroke-width:1px;stroke-linecap:butt;stroke-linejoin:miter;stroke-opacity:1" d="M 663.722,606.933 663.722,619.016 z" id="boundary" inkscape:connector-curvature="0" />
	<path style="fill:none;stroke:red;stroke-width:1px;stroke-linecap:butt;stroke-linejoin:miter;stroke-opacity:1" d="M 651.639,687.888 651.639,699.971 z" id="boundary" inkscape:connector-curvature="0" />
	<path style="fill:none;stroke:red;stroke-width:1px;stroke-linecap:butt;stroke-linejoin:miter;stroke-opacity:1" d="M 657.681,657.681 657.681,645.598 z" id="boundary" inkscape:connector-curvature="0" />
	<path style="fill:none;stroke:red;stroke-width:1px;stroke-linecap:butt;stroke-linejoin:miter;stroke-opacity:1" d="M 657.681,645.598 663.722,631.099 z" id="boundary" inkscape:connector-curvature="0" />
	<path style="fill:none;stroke:red;stroke-width:1px;stroke-linecap:butt;stroke-linejoin:miter;stroke-opacity:1" d="M 663.722,619.016 663.722,631.099 z" id="boundary" inkscape:connector-curvature="0" />
	<path style="fill:none;stroke:red;stroke-width:1px;stroke-linecap:butt;stroke-linejoin:miter;stroke-opacity:1" d="M 681.847,391.859 681.847,403.942 z" id="boundary" inkscape:connector-curvature="0" />
	<path style="fill:none;stroke:red;stroke-width:1px;stroke-linecap:butt;stroke-linejoin:miter;stroke-opacity:1" d="M 681.847,391.859 681.847,379.776 z" id="boundary" inkscape:connector-curvature="0" />
	<path style="fill:none;stroke:red;stroke-width:1px;stroke-linecap:butt;stroke-linejoin:miter;stroke-opacity:1" d="M 681.847,416.024 681.847,403.942 z" id="boundary" inkscape:connector-curvature="0" />
	<path style="fill:none;stroke:red;stroke-width:1px;stroke-linecap:butt;stroke-linejoin:miter;stroke-opacity:1" d="M 681.847,428.107 681.847,416.024 z" id="boundary" inkscape:connector-curvature="0" />
	<path style="fill:none;stroke:red;stroke-width:1px;stroke-linecap:butt;stroke-linejoin:miter;stroke-opacity:1" d="M 669.764,488.521 675.805,476.438 z" id="boundary" inkscape:connector-curvature="0" />
	<path style="fill:none;stroke:red;stroke-width:1px;stroke-linecap:butt;stroke-linejoin:miter;stroke-opacity:1" d="M 675.805,452.273 675.805,464.356 z" id="boundary" inkscape:connector-curvature="0" />
	<path style="fill:none;stroke:red;stroke-width:1px;stroke-linecap:butt;stroke-linejoin:miter;stroke-opacity:1" d="M 675.805,476.438 675.805,464.356 z" id="boundary" inkscape:connector-curvature="0" />
	<path style="fill:none;stroke:red;stroke-width:1px;stroke-linecap:butt;stroke-linejoin:miter;stroke-opacity:1" d="M 675.805,452.273 681.847,440.19 z" id="boundary" inkscape:connector-curvature="0" />
	<path style="fill:none;stroke:red;stroke-width:1px;stroke-linecap:butt;stroke-linejoin:miter;stroke-opacity:1" d="M 681.847,428.107 681.847,440.19 z" id="boundary" inkscape:connector-curvature="0" />
	<circle cx="4" cy="490.938" r="4" fill="#0" id="circle0"/>
	<circle cx="4" cy="629.89" r="4" fill="#0" id="circle1"/>
	<circle cx="4" cy="641.973" r="4" fill="#0" id="circle2"/>
	<circle cx="10.0414" cy="478.855" r="4" fill="#0" id="circle3"/>
	<circle cx="10.0414" cy="652.848" r="4" fill="#0" id="circle4"/>
	<circle cx="13.6663" cy="499.396" r="4" fill="#0" id="circle5"/>
	<circle cx="13.6663" cy="620.224" r="4" fill="#0" id="circle6"/>
	<circle cx="18.4994" cy="662.514" r="4" fill="#0" id="circle7"/>
	<circle cx="22.1242" cy="477.647" r="4" fill="#0" id="circle8"/>
	<circle cx="22.1242" cy="509.062" r="4" fill="#0" id="circle9"/>
	<circle cx="22.1242" cy="575.518" r="4" fill="#0" id="circle10"/>
	<circle cx="22.1242" cy="587.6" r="4" fill="#0" id="circle11"/>
	<circle cx="22.1242" cy="599.683" r="4" fill="#0" id="circle12"/>
	<circle cx="28.1657" cy="539.269" r="4" fill="#0" id="circle13"/>
	<circle cx="28.1657" cy="551.352" r="4" fill="#0" id="circle14"/>
	<circle cx="28.1657" cy="563.435" r="4" fill="#0" id="circle15"/>
	<circle cx="30.5822" cy="667.347" r="4" fill="#0" id="circle16"/>
	<circle cx="31.7905" cy="517.52" r="4" fill="#0" id="circle17"/>
	<circle cx="34.2071" cy="481.272" r="4" fill="#0" id="circle18"/>
	<circle cx="41.4568" cy="471.605" r="4" fill="#0" id="circle19"/>
	<circle cx="41.4568" cy="673.389" r="4" fill="#0" id="circle20"/>
	<circle cx="53.5396" cy="469.189" r="4" fill="#0" id="circle21"/>
	<circle cx="53.5396" cy="675.805" r="4" fill="#0" id="circle22"/>
	<circle cx="64.4141" cy="475.23" r="4" fill="#0" id="circle23"/>
	<circle cx="65.6224" cy="675.805" r="4" fill="#0" id="circle24"/>
	<circle cx="76.497" cy="477.647" r="4" fill="#0" id="circle25"/>
	<circle cx="77.7052" cy="675.805" r="4" fill="#0" id="circle26"/>
	<circle cx="87.3715" cy="483.688" r="4" fill="#0" id="circle27"/>
	<circle cx="87.3715" cy="667.347" r="4" fill="#0" id="circle28"/>
	<circle cx="99.4543" cy="487.313" r="4" fill="#0" id="circle29"/>
	<circle cx="99.4543" cy="661.306" r="4" fill="#0" id="circle30"/>
	<circle cx="105.496" cy="649.223" r="4" fill="#0" id="circle31"/>
	<circle cx="107.912" cy="477.647" r="4" fill="#0" id="circle32"/>
	<circle cx="113.954" cy="639.557" r="4" fill="#0" id="circle33"/>
	<circle cx="119.995" cy="471.605" r="4" fill="#0" id="circle34"/>
	<circle cx="126.037" cy="639.557" r="4" fill="#0" id="circle35"/>
	<circle cx="129.661" cy="463.147" r="4" fill="#0" id="circle36"/>
	<circle cx="138.119" cy="639.557" r="4" fill="#0" id="circle37"/>
	<circle cx="140.536" cy="457.106" r="4" fill="#0" id="circle38"/>
	<circle cx="150.202" cy="447.44" r="4" fill="#0" id="circle39"/>
	<circle cx="150.202" cy="633.515" r="4" fill="#0" id="circle40"/>
	<circle cx="156.244" cy="609.35" r="4" fill="#0" id="circle41"/>
	<circle cx="156.244" cy="621.432" r="4" fill="#0" id="circle42"/>
	<circle cx="159.868" cy="438.982" r="4" fill="#0" id="circle43"/>
	<circle cx="162.285" cy="591.225" r="4" fill="#0" id="circle44"/>
	<circle cx="168.326" cy="429.315" r="4" fill="#0" id="circle45"/>
	<circle cx="168.326" cy="579.143" r="4" fill="#0" id="circle46"/>
	<circle cx="177.993" cy="420.857" r="4" fill="#0" id="circle47"/>
	<circle cx="177.993" cy="570.685" r="4" fill="#0" id="circle48"/>
	<circle cx="186.451" cy="411.191" r="4" fill="#0" id="circle49"/>
	<circle cx="190.076" cy="567.06" r="4" fill="#0" id="circle50"/>
	<circle cx="191.284" cy="394.275" r="4" fill="#0" id="circle51"/>
	<circle cx="200.95" cy="384.609" r="4" fill="#0" id="circle52"/>
	<circle cx="202.158" cy="567.06" r="4" fill="#0" id="circle53"/>
	<circle cx="209.408" cy="370.11" r="4" fill="#0" id="circle54"/>
	<circle cx="213.033" cy="573.101" r="4" fill="#0" id="circle55"/>
	<circle cx="215.449" cy="358.027" r="4" fill="#0" id="circle56"/>
	<circle cx="221.491" cy="702.387" r="4" fill="#0" id="circle57"/>
	<circle cx="221.491" cy="714.47" r="4" fill="#0" id="circle58"/>
	<circle cx="222.699" cy="581.559" r="4" fill="#0" id="circle59"/>
	<circle cx="227.532" cy="345.944" r="4" fill="#0" id="circle60"/>
	<circle cx="231.157" cy="692.721" r="4" fill="#0" id="circle61"/>
	<circle cx="231.157" cy="722.928" r="4" fill="#0" id="circle62"/>
	<circle cx="233.574" cy="587.6" r="4" fill="#0" id="circle63"/>
	<circle cx="239.615" cy="342.319" r="4" fill="#0" id="circle64"/>
	<circle cx="240.823" cy="730.178" r="4" fill="#0" id="circle65"/>
	<circle cx="243.24" cy="686.68" r="4" fill="#0" id="circle66"/>
	<circle cx="245.657" cy="591.225" r="4" fill="#0" id="circle67"/>
	<circle cx="251.698" cy="342.319" r="4" fill="#0" id="circle68"/>
	<circle cx="252.906" cy="730.178" r="4" fill="#0" id="circle69"/>
	<circle cx="255.323" cy="686.68" r="4" fill="#0" id="circle70"/>
	<circle cx="257.739" cy="593.642" r="4" fill="#0" id="circle71"/>
	<circle cx="262.572" cy="336.278" r="4" fill="#0" id="circle72"/>
	<circle cx="264.989" cy="677.013" r="4" fill="#0" id="circle73"/>
	<circle cx="264.989" cy="730.178" r="4" fill="#0" id="circle74"/>
	<circle cx="269.822" cy="597.267" r="4" fill="#0" id="circle75"/>
	<circle cx="273.447" cy="330.236" r="4" fill="#0" id="circle76"/>
	<circle cx="274.655" cy="668.555" r="4" fill="#0" id="circle77"/>
	<circle cx="275.864" cy="623.849" r="4" fill="#0" id="circle78"/>
	<circle cx="275.864" cy="635.932" r="4" fill="#0" id="circle79"/>
	<circle cx="275.864" cy="648.015" r="4" fill="#0" id="circle80"/>
	<circle cx="277.072" cy="606.933" r="4" fill="#0" id="circle81"/>
	<circle cx="277.072" cy="730.178" r="4" fill="#0" id="circle82"/>
	<circle cx="285.53" cy="330.236" r="4" fill="#0" id="circle83"/>
	<circle cx="287.946" cy="724.136" r="4" fill="#0" id="circle84"/>
	<circle cx="295.196" cy="712.054" r="4" fill="#0" id="circle85"/>
	<circle cx="297.613" cy="330.236" r="4" fill="#0" id="circle86"/>
	<circle cx="301.238" cy="687.888" r="4" fill="#0" id="circle87"/>
	<circle cx="301.238" cy="699.971" r="4" fill="#0" id="circle88"/>
	<circle cx="307.279" cy="675.805" r="4" fill="#0" id="circle89"/>
	<circle cx="309.695" cy="324.195" r="4" fill="#0" id="circle90"/>
	<circle cx="313.32" cy="663.722" r="4" fill="#0" id="circle91"/>
	<circle cx="319.362" cy="314.529" r="4" fill="#0" id="circle92"/>
	<circle cx="322.987" cy="655.264" r="4" fill="#0" id="circle93"/>
	<circle cx="324.195" cy="690.305" r="4" fill="#0" id="circle94"/>
	<circle cx="329.028" cy="643.181" r="4" fill="#0" id="circle95"/>
	<circle cx="330.236" cy="678.222" r="4" fill="#0" id="circle96"/>
	<circle cx="331.445" cy="308.487" r="4" fill="#0" id="circle97"/>
	<circle cx="336.278" cy="693.929" r="4" fill="#0" id="circle98"/>
	<circle cx="337.486" cy="633.515" r="4" fill="#0" id="circle99"/>
	<circle cx="339.903" cy="668.555" r="4" fill="#0" id="circle100"/>
	<circle cx="339.903" cy="706.012" r="4" fill="#0" id="circle101"/>
	<circle cx="341.111" cy="300.029" r="4" fill="#0" id="circle102"/>
	<circle cx="345.944" cy="656.473" r="4" fill="#0" id="circle103"/>
	<circle cx="348.361" cy="639.557" r="4" fill="#0" id="circle104"/>
	<circle cx="351.985" cy="293.988" r="4" fill="#0" id="circle105"/>
	<circle cx="351.985" cy="706.012" r="4" fill="#0" id="circle106"/>
	<circle cx="362.86" cy="287.946" r="4" fill="#0" id="circle107"/>
	<circle cx="364.068" cy="706.012" r="4" fill="#0" id="circle108"/>
	<circle cx="372.526" cy="273.447" r="4" fill="#0" id="circle109"/>
	<circle cx="376.151" cy="704.804" r="4" fill="#0" id="circle110"/>
	<circle cx="384.609" cy="267.406" r="4" fill="#0" id="circle111"/>
	<circle cx="388.234" cy="698.762" r="4" fill="#0" id="circle112"/>
	<circle cx="394.275" cy="257.739" r="4" fill="#0" id="circle113"/>
	<circle cx="394.275" cy="686.68" r="4" fill="#0" id="circle114"/>
	<circle cx="397.9" cy="663.722" r="4" fill="#0" id="circle115"/>
	<circle cx="403.942" cy="651.639" r="4" fill="#0" id="circle116"/>
	<circle cx="406.358" cy="257.739" r="4" fill="#0" id="circle117"/>
	<circle cx="409.983" cy="591.225" r="4" fill="#0" id="circle118"/>
	<circle cx="409.983" cy="603.308" r="4" fill="#0" id="circle119"/>
	<circle cx="409.983" cy="615.391" r="4" fill="#0" id="circle120"/>
	<circle cx="409.983" cy="627.474" r="4" fill="#0" id="circle121"/>
	<circle cx="409.983" cy="639.557" r="4" fill="#0" id="circle122"/>
	<circle cx="416.024" cy="248.073" r="4" fill="#0" id="circle123"/>
	<circle cx="416.024" cy="573.101" r="4" fill="#0" id="circle124"/>
	<circle cx="422.066" cy="554.977" r="4" fill="#0" id="circle125"/>
	<circle cx="428.107" cy="242.032" r="4" fill="#0" id="circle126"/>
	<circle cx="428.107" cy="542.894" r="4" fill="#0" id="circle127"/>
	<circle cx="440.19" cy="235.99" r="4" fill="#0" id="circle128"/>
	<circle cx="440.19" cy="536.853" r="4" fill="#0" id="circle129"/>
	<circle cx="451.065" cy="720.512" r="4" fill="#0" id="circle130"/>
	<circle cx="451.065" cy="732.594" r="4" fill="#0" id="circle131"/>
	<circle cx="452.273" cy="233.574" r="4" fill="#0" id="circle132"/>
	<circle cx="452.273" cy="536.853" r="4" fill="#0" id="circle133"/>
	<circle cx="460.731" cy="710.845" r="4" fill="#0" id="circle134"/>
	<circle cx="460.731" cy="741.052" r="4" fill="#0" id="circle135"/>
	<circle cx="463.147" cy="225.116" r="4" fill="#0" id="circle136"/>
	<circle cx="463.147" cy="542.894" r="4" fill="#0" id="circle137"/>
	<circle cx="469.189" cy="553.769" r="4" fill="#0" id="circle138"/>
	<circle cx="471.605" cy="704.804" r="4" fill="#0" id="circle139"/>
	<circle cx="472.814" cy="742.261" r="4" fill="#0" id="circle140"/>
	<circle cx="475.23" cy="219.074" r="4" fill="#0" id="circle141"/>
	<circle cx="476.438" cy="563.435" r="4" fill="#0" id="circle142"/>
	<circle cx="481.272" cy="575.518" r="4" fill="#0" id="circle143"/>
	<circle cx="483.688" cy="704.804" r="4" fill="#0" id="circle144"/>
	<circle cx="484.896" cy="742.261" r="4" fill="#0" id="circle145"/>
	<circle cx="487.313" cy="213.033" r="4" fill="#0" id="circle146"/>
	<circle cx="487.313" cy="586.392" r="4" fill="#0" id="circle147"/>
	<circle cx="493.354" cy="597.267" r="4" fill="#0" id="circle148"/>
	<circle cx="495.771" cy="699.971" r="4" fill="#0" id="circle149"/>
	<circle cx="496.979" cy="742.261" r="4" fill="#0" id="circle150"/>
	<circle cx="499.396" cy="206.991" r="4" fill="#0" id="circle151"/>
	<circle cx="500.604" cy="606.933" r="4" fill="#0" id="circle152"/>
	<circle cx="505.437" cy="692.721" r="4" fill="#0" id="circle153"/>
	<circle cx="509.062" cy="742.261" r="4" fill="#0" id="circle154"/>
	<circle cx="510.27" cy="615.391" r="4" fill="#0" id="circle155"/>
	<circle cx="511.479" cy="203.367" r="4" fill="#0" id="circle156"/>
	<circle cx="511.479" cy="648.015" r="4" fill="#0" id="circle157"/>
	<circle cx="511.479" cy="660.097" r="4" fill="#0" id="circle158"/>
	<circle cx="511.479" cy="678.222" r="4" fill="#0" id="circle159"/>
	<circle cx="515.104" cy="627.474" r="4" fill="#0" id="circle160"/>
	<circle cx="521.145" cy="742.261" r="4" fill="#0" id="circle161"/>
	<circle cx="523.562" cy="203.367" r="4" fill="#0" id="circle162"/>
	<circle cx="533.228" cy="741.052" r="4" fill="#0" id="circle163"/>
	<circle cx="535.644" cy="203.367" r="4" fill="#0" id="circle164"/>
	<circle cx="542.894" cy="730.178" r="4" fill="#0" id="circle165"/>
	<circle cx="547.727" cy="203.367" r="4" fill="#0" id="circle166"/>
	<circle cx="552.56" cy="721.72" r="4" fill="#0" id="circle167"/>
	<circle cx="559.81" cy="203.367" r="4" fill="#0" id="circle168"/>
	<circle cx="561.018" cy="561.018" r="4" fill="#0" id="circle169"/>
	<circle cx="561.018" cy="573.101" r="4" fill="#0" id="circle170"/>
	<circle cx="561.018" cy="585.184" r="4" fill="#0" id="circle171"/>
	<circle cx="561.018" cy="712.054" r="4" fill="#0" id="circle172"/>
	<circle cx="567.06" cy="548.935" r="4" fill="#0" id="circle173"/>
	<circle cx="567.06" cy="596.058" r="4" fill="#0" id="circle174"/>
	<circle cx="567.06" cy="699.971" r="4" fill="#0" id="circle175"/>
	<circle cx="571.893" cy="203.367" r="4" fill="#0" id="circle176"/>
	<circle cx="573.101" cy="606.933" r="4" fill="#0" id="circle177"/>
	<circle cx="573.101" cy="687.888" r="4" fill="#0" id="circle178"/>
	<circle cx="577.934" cy="714.47" r="4" fill="#0" id="circle179"/>
	<circle cx="579.143" cy="548.935" r="4" fill="#0" id="circle180"/>
	<circle cx="579.143" cy="617.808" r="4" fill="#0" id="circle181"/>
	<circle cx="579.143" cy="663.722" r="4" fill="#0" id="circle182"/>
	<circle cx="579.143" cy="675.805" r="4" fill="#0" id="circle183"/>
	<circle cx="583.976" cy="203.367" r="4" fill="#0" id="circle184"/>
	<circle cx="583.976" cy="702.387" r="4" fill="#0" id="circle185"/>
	<circle cx="585.184" cy="628.682" r="4" fill="#0" id="circle186"/>
	<circle cx="585.184" cy="640.765" r="4" fill="#0" id="circle187"/>
	<circle cx="585.184" cy="652.848" r="4" fill="#0" id="circle188"/>
	<circle cx="586.392" cy="558.602" r="4" fill="#0" id="circle189"/>
	<circle cx="587.6" cy="722.928" r="4" fill="#0" id="circle190"/>
	<circle cx="591.225" cy="570.685" r="4" fill="#0" id="circle191"/>
	<circle cx="596.058" cy="203.367" r="4" fill="#0" id="circle192"/>
	<circle cx="596.058" cy="582.767" r="4" fill="#0" id="circle193"/>
	<circle cx="596.058" cy="696.346" r="4" fill="#0" id="circle194"/>
	<circle cx="597.267" cy="594.85" r="4" fill="#0" id="circle195"/>
	<circle cx="597.267" cy="730.178" r="4" fill="#0" id="circle196"/>
	<circle cx="602.1" cy="606.933" r="4" fill="#0" id="circle197"/>
	<circle cx="602.1" cy="678.222" r="4" fill="#0" id="circle198"/>
	<circle cx="608.141" cy="203.367" r="4" fill="#0" id="circle199"/>
	<circle cx="608.141" cy="617.808" r="4" fill="#0" id="circle200"/>
	<circle cx="608.141" cy="629.89" r="4" fill="#0" id="circle201"/>
	<circle cx="608.141" cy="641.973" r="4" fill="#0" id="circle202"/>
	<circle cx="608.141" cy="654.056" r="4" fill="#0" id="circle203"/>
	<circle cx="608.141" cy="666.139" r="4" fill="#0" id="circle204"/>
	<circle cx="609.35" cy="730.178" r="4" fill="#0" id="circle205"/>
	<circle cx="617.808" cy="210.616" r="4" fill="#0" id="circle206"/>
	<circle cx="621.432" cy="730.178" r="4" fill="#0" id="circle207"/>
	<circle cx="627.474" cy="219.074" r="4" fill="#0" id="circle208"/>
	<circle cx="633.515" cy="724.136" r="4" fill="#0" id="circle209"/>
	<circle cx="638.348" cy="225.116" r="4" fill="#0" id="circle210"/>
	<circle cx="643.181" cy="715.678" r="4" fill="#0" id="circle211"/>
	<circle cx="645.598" cy="548.935" r="4" fill="#0" id="circle212"/>
	<circle cx="645.598" cy="561.018" r="4" fill="#0" id="circle213"/>
	<circle cx="648.015" cy="573.101" r="4" fill="#0" id="circle214"/>
	<circle cx="650.431" cy="229.949" r="4" fill="#0" id="circle215"/>
	<circle cx="651.639" cy="536.853" r="4" fill="#0" id="circle216"/>
	<circle cx="651.639" cy="675.805" r="4" fill="#0" id="circle217"/>
	<circle cx="651.639" cy="687.888" r="4" fill="#0" id="circle218"/>
	<circle cx="651.639" cy="699.971" r="4" fill="#0" id="circle219"/>
	<circle cx="654.056" cy="583.976" r="4" fill="#0" id="circle220"/>
	<circle cx="657.681" cy="239.615" r="4" fill="#0" id="circle221"/>
	<circle cx="657.681" cy="518.728" r="4" fill="#0" id="circle222"/>
	<circle cx="657.681" cy="596.058" r="4" fill="#0" id="circle223"/>
	<circle cx="657.681" cy="645.598" r="4" fill="#0" id="circle224"/>
	<circle cx="657.681" cy="657.681" r="4" fill="#0" id="circle225"/>
	<circle cx="663.722" cy="500.604" r="4" fill="#0" id="circle226"/>
	<circle cx="663.722" cy="606.933" r="4" fill="#0" id="circle227"/>
	<circle cx="663.722" cy="619.016" r="4" fill="#0" id="circle228"/>
	<circle cx="663.722" cy="631.099" r="4" fill="#0" id="circle229"/>
	<circle cx="669.764" cy="243.24" r="4" fill="#0" id="circle230"/>
	<circle cx="669.764" cy="488.521" r="4" fill="#0" id="circle231"/>
	<circle cx="675.805" cy="452.273" r="4" fill="#0" id="circle232"/>
	<circle cx="675.805" cy="464.356" r="4" fill="#0" id="circle233"/>
	<circle cx="675.805" cy="476.438" r="4" fill="#0" id="circle234"/>
	<circle cx="681.847" cy="245.657" r="4" fill="#0" id="circle235"/>
	<circle cx="681.847" cy="367.693" r="4" fill="#0" id="circle236"/>
	<circle cx="681.847" cy="379.776" r="4" fill="#0" id="circle237"/>
	<circle cx="681.847" cy="391.859" r="4" fill="#0" id="circle238"/>
	<circle cx="681.847" cy="403.942" r="4" fill="#0" id="circle239"/>
	<circle cx="681.847" cy="416.024" r="4" fill="#0" id="circle240"/>
	<circle cx="681.847" cy="428.107" r="4" fill="#0" id="circle241"/>
	<circle cx="681.847" cy="440.19" r="4" fill="#0" id="circle242"/>
	<circle cx="691.513" cy="359.235" r="4" fill="#0" id="circle243"/>
	<circle cx="693.929" cy="245.657" r="4" fill="#0" id="circle244"/>
	<circle cx="693.929" cy="343.527" r="4" fill="#0" id="circle245"/>
	<circle cx="704.804" cy="251.698" r="4" fill="#0" id="circle246"/>
	<circle cx="706.012" cy="343.527" r="4" fill="#0" id="circle247"/>
	<circle cx="716.887" cy="254.114" r="4" fill="#0" id="circle248"/>
	<circle cx="718.095" cy="345.944" r="4" fill="#0" id="circle249"/>
	<circle cx="727.761" cy="260.156" r="4" fill="#0" id="circle250"/>
	<circle cx="730.178" cy="349.569" r="4" fill="#0" id="circle251"/>
	<circle cx="739.844" cy="264.989" r="4" fill="#0" id="circle252"/>
	<circle cx="742.261" cy="349.569" r="4" fill="#0" id="circle253"/>
	<circle cx="750.719" cy="271.03" r="4" fill="#0" id="circle254"/>
	<circle cx="753.135" cy="355.61" r="4" fill="#0" id="circle255"/>
	<circle cx="762.801" cy="275.864" r="4" fill="#0" id="circle256"/>
	<circle cx="765.218" cy="355.61" r="4" fill="#0" id="circle257"/>
	<circle cx="774.884" cy="275.864" r="4" fill="#0" id="circle258"/>
	<circle cx="777.301" cy="355.61" r="4" fill="#0" id="circle259"/>
	<circle cx="783.342" cy="285.53" r="4" fill="#0" id="circle260"/>
	<circle cx="789.384" cy="355.61" r="4" fill="#0" id="circle261"/>
	<circle cx="795.425" cy="285.53" r="4" fill="#0" id="circle262"/>
	<circle cx="801.467" cy="355.61" r="4" fill="#0" id="circle263"/>
	<circle cx="807.508" cy="287.946" r="4" fill="#0" id="circle264"/>
	<circle cx="813.549" cy="355.61" r="4" fill="#0" id="circle265"/>
	<circle cx="819.591" cy="290.363" r="4" fill="#0" id="circle266"/>
	<circle cx="825.632" cy="355.61" r="4" fill="#0" id="circle267"/>
	<circle cx="831.674" cy="293.988" r="4" fill="#0" id="circle268"/>
	<circle cx="837.715" cy="355.61" r="4" fill="#0" id="circle269"/>
	<circle cx="843.756" cy="293.988" r="4" fill="#0" id="circle270"/>
	<circle cx="849.798" cy="355.61" r="4" fill="#0" id="circle271"/>
	<circle cx="855.839" cy="293.988" r="4" fill="#0" id="circle272"/>
	<circle cx="861.881" cy="355.61" r="4" fill="#0" id="circle273"/>
	<circle cx="867.922" cy="293.988" r="4" fill="#0" id="circle274"/>
	<circle cx="873.963" cy="355.61" r="4" fill="#0" id="circle275"/>
	<circle cx="878.797" cy="287.946" r="4" fill="#0" id="circle276"/>
	<circle cx="886.046" cy="355.61" r="4" fill="#0" id="circle277"/>
	<circle cx="889.671" cy="281.905" r="4" fill="#0" id="circle278"/>
	<circle cx="896.921" cy="349.569" r="4" fill="#0" id="circle279"/>
	<circle cx="901.754" cy="275.864" r="4" fill="#0" id="circle280"/>
	<circle cx="907.795" cy="343.527" r="4" fill="#0" id="circle281"/>
	<circle cx="911.42" cy="266.197" r="4" fill="#0" id="circle282"/>
	<circle cx="918.67" cy="337.486" r="4" fill="#0" id="circle283"/>
	<circle cx="921.086" cy="257.739" r="4" fill="#0" id="circle284"/>
	<circle cx="928.336" cy="19.7077" r="4" fill="#0" id="circle285"/>
	<circle cx="928.336" cy="31.7905" r="4" fill="#0" id="circle286"/>
	<circle cx="928.336" cy="43.8733" r="4" fill="#0" id="circle287"/>
	<circle cx="928.336" cy="55.9562" r="4" fill="#0" id="circle288"/>
	<circle cx="928.336" cy="68.039" r="4" fill="#0" id="circle289"/>
	<circle cx="928.336" cy="80.1218" r="4" fill="#0" id="circle290"/>
	<circle cx="928.336" cy="243.24" r="4" fill="#0" id="circle291"/>
	<circle cx="928.336" cy="327.82" r="4" fill="#0" id="circle292"/>
	<circle cx="934.378" cy="90.9963" r="4" fill="#0" id="circle293"/>
	<circle cx="934.378" cy="231.157" r="4" fill="#0" id="circle294"/>
	<circle cx="938.002" cy="10.0414" r="4" fill="#0" id="circle295"/>
	<circle cx="938.002" cy="318.153" r="4" fill="#0" id="circle296"/>
	<circle cx="940.419" cy="101.871" r="4" fill="#0" id="circle297"/>
	<circle cx="940.419" cy="219.074" r="4" fill="#0" id="circle298"/>
	<circle cx="944.044" cy="113.954" r="4" fill="#0" id="circle299"/>
	<circle cx="946.46" cy="126.037" r="4" fill="#0" id="circle300"/>
	<circle cx="946.46" cy="206.991" r="4" fill="#0" id="circle301"/>
	<circle cx="947.669" cy="307.279" r="4" fill="#0" id="circle302"/>
	<circle cx="948.877" cy="4" r="4" fill="#0" id="circle303"/>
	<circle cx="952.502" cy="136.911" r="4" fill="#0" id="circle304"/>
	<circle cx="952.502" cy="148.994" r="4" fill="#0" id="circle305"/>
	<circle cx="952.502" cy="161.077" r="4" fill="#0" id="circle306"/>
	<circle cx="952.502" cy="173.16" r="4" fill="#0" id="circle307"/>
	<circle cx="952.502" cy="185.242" r="4" fill="#0" id="circle308"/>
	<circle cx="957.335" cy="298.821" r="4" fill="#0" id="circle309"/>
	<circle cx="959.752" cy="10.0414" r="4" fill="#0" id="circle310"/>
	<circle cx="959.752" cy="22.1242" r="4" fill="#0" id="circle311"/>
	<circle cx="959.752" cy="34.2071" r="4" fill="#0" id="circle312"/>
	<circle cx="965.793" cy="45.0816" r="4" fill="#0" id="circle313"/>
	<circle cx="965.793" cy="289.155" r="4" fill="#0" id="circle314"/>
	<circle cx="971.834" cy="55.9562" r="4" fill="#0" id="circle315"/>
	<circle cx="975.459" cy="280.697" r="4" fill="#0" id="circle316"/>
	<circle cx="976.667" cy="68.039" r="4" fill="#0" id="circle317"/>
	<circle cx="977.876" cy="80.1218" r="4" fill="#0" id="circle318"/>
	<circle cx="977.876" cy="264.989" r="4" fill="#0" id="circle319"/>
	<circle cx="983.917" cy="90.9963" r="4" fill="#0" id="circle320"/>
	<circle cx="983.917" cy="252.906" r="4" fill="#0" id="circle321"/>
	<circle cx="989.959" cy="101.871" r="4" fill="#0" id="circle322"/>
	<circle cx="989.959" cy="113.954" r="4" fill="#0" id="circle323"/>
	<circle cx="989.959" cy="234.782" r="4" fill="#0" id="circle324"/>
	<circle cx="992.375" cy="126.037" r="4" fill="#0" id="circle325"/>
	<circle cx="996" cy="138.119" r="4" fill="#0" id="circle326"/>
	<circle cx="996" cy="150.202" r="4" fill="#0" id="circle327"/>
	<circle cx="996" cy="162.285" r="4" fill="#0" id="circle328"/>
	<circle cx="996" cy="174.368" r="4" fill="#0" id="circle329"/>
	<circle cx="996" cy="186.451" r="4" fill="#0" id="circle330"/>
	<circle cx="996" cy="198.533" r="4" fill="#0" id="circle331"/>
	<circle cx="996" cy="210.616" r="4" fill="#0" id="circle332"/>
	<circle cx="996" cy="222.699" r="4" fill="#0" id="circle333"/>
	</g>
</svg>