<?xml version="1.0" encoding="UTF-8" standalone="no"?>
<!-- Created with CurveBenchmark -->
<svg
	xmlns:dc="http://purl.org/dc/elements/1.1/"
	xmlns:cc="http://creativecommons.org/ns#"
	xmlns:rdf="http://www.w3.org/1999/02/22-rdf-syntax-ns#"
	xmlns:svg="http://www.w3.org/2000/svg"
	xmlns="http://www.w3.org/2000/svg"
	xmlns:sodipodi="http://sodipodi.sourceforge.net/DTD/sodipodi-0.dtd"
	xmlns:inkscape="http://www.inkscape.org/namespaces/inkscape"
	width="1000"
	height="1000"
	id="svg2"
	version="1.1"
	sodipodi:docname="manifold/gathan1-lmfish-17.png.txt">
<defs
	id="defs4" />
<metadata
	id="metadata7">
	<rdf:RDF>
		<cc:Work
			rdf:about="">
			<dc:format>image/svg+xml</dc:format>
			<dc:type
				rdf:resource="http://purl.org/dc/dcmitype/StillImage" />
			<dc:title></dc:title>
		</cc:Work>
	</rdf:RDF>
</metadata>
<g
	inkscape:label="Layer 1"
	inkscape:groupmode="layer"
	id="layer1">
	<path style="fill:none;stroke:red;stroke-width:1px;stroke-linecap:butt;stroke-linejoin:miter;stroke-opacity:1" d="M 241.01,266.813 248.655,259.168 z" id="boundary" inkscape:connector-curvature="0" />
	<path style="fill:none;stroke:red;stroke-width:1px;stroke-linecap:butt;stroke-linejoin:miter;stroke-opacity:1" d="M 248.655,259.168 258.212,254.389 z" id="boundary" inkscape:connector-curvature="0" />
	<path style="fill:none;stroke:red;stroke-width:1px;stroke-linecap:butt;stroke-linejoin:miter;stroke-opacity:1" d="M 258.212,254.389 267.769,252.478 z" id="boundary" inkscape:connector-curvature="0" />
	<path style="fill:none;stroke:red;stroke-width:1px;stroke-linecap:butt;stroke-linejoin:miter;stroke-opacity:1" d="M 228.586,293.572 228.586,303.129 z" id="boundary" inkscape:connector-curvature="0" />
	<path style="fill:none;stroke:red;stroke-width:1px;stroke-linecap:butt;stroke-linejoin:miter;stroke-opacity:1" d="M 228.586,303.129 223.807,312.686 z" id="boundary" inkscape:connector-curvature="0" />
	<path style="fill:none;stroke:red;stroke-width:1px;stroke-linecap:butt;stroke-linejoin:miter;stroke-opacity:1" d="M 228.586,293.572 233.364,284.015 z" id="boundary" inkscape:connector-curvature="0" />
	<path style="fill:none;stroke:red;stroke-width:1px;stroke-linecap:butt;stroke-linejoin:miter;stroke-opacity:1" d="M 233.364,274.459 233.364,284.015 z" id="boundary" inkscape:connector-curvature="0" />
	<path style="fill:none;stroke:red;stroke-width:1px;stroke-linecap:butt;stroke-linejoin:miter;stroke-opacity:1" d="M 233.364,274.459 241.01,266.813 z" id="boundary" inkscape:connector-curvature="0" />
	<path style="fill:none;stroke:red;stroke-width:1px;stroke-linecap:butt;stroke-linejoin:miter;stroke-opacity:1" d="M 267.769,252.478 277.326,252.478 z" id="boundary" inkscape:connector-curvature="0" />
	<path style="fill:none;stroke:red;stroke-width:1px;stroke-linecap:butt;stroke-linejoin:miter;stroke-opacity:1" d="M 286.882,252.478 277.326,252.478 z" id="boundary" inkscape:connector-curvature="0" />
	<path style="fill:none;stroke:red;stroke-width:1px;stroke-linecap:butt;stroke-linejoin:miter;stroke-opacity:1" d="M 296.439,252.478 305.996,255.345 z" id="boundary" inkscape:connector-curvature="0" />
	<path style="fill:none;stroke:red;stroke-width:1px;stroke-linecap:butt;stroke-linejoin:miter;stroke-opacity:1" d="M 286.882,252.478 296.439,252.478 z" id="boundary" inkscape:connector-curvature="0" />
	<path style="fill:none;stroke:red;stroke-width:1px;stroke-linecap:butt;stroke-linejoin:miter;stroke-opacity:1" d="M 305.996,255.345 315.553,257.256 z" id="boundary" inkscape:connector-curvature="0" />
	<path style="fill:none;stroke:red;stroke-width:1px;stroke-linecap:butt;stroke-linejoin:miter;stroke-opacity:1" d="M 315.553,257.256 325.11,257.256 z" id="boundary" inkscape:connector-curvature="0" />
	<path style="fill:none;stroke:red;stroke-width:1px;stroke-linecap:butt;stroke-linejoin:miter;stroke-opacity:1" d="M 325.11,257.256 333.711,262.035 z" id="boundary" inkscape:connector-curvature="0" />
	<path style="fill:none;stroke:red;stroke-width:1px;stroke-linecap:butt;stroke-linejoin:miter;stroke-opacity:1" d="M 343.268,262.035 333.711,262.035 z" id="boundary" inkscape:connector-curvature="0" />
	<path style="fill:none;stroke:red;stroke-width:1px;stroke-linecap:butt;stroke-linejoin:miter;stroke-opacity:1" d="M 150.22,410.166 157.865,402.52 z" id="boundary" inkscape:connector-curvature="0" />
	<path style="fill:none;stroke:red;stroke-width:1px;stroke-linecap:butt;stroke-linejoin:miter;stroke-opacity:1" d="M 150.22,410.166 141.618,414.944 z" id="boundary" inkscape:connector-curvature="0" />
	<path style="fill:none;stroke:red;stroke-width:1px;stroke-linecap:butt;stroke-linejoin:miter;stroke-opacity:1" d="M 165.511,395.83 172.2,388.185 z" id="boundary" inkscape:connector-curvature="0" />
	<path style="fill:none;stroke:red;stroke-width:1px;stroke-linecap:butt;stroke-linejoin:miter;stroke-opacity:1" d="M 165.511,395.83 157.865,402.52 z" id="boundary" inkscape:connector-curvature="0" />
	<path style="fill:none;stroke:red;stroke-width:1px;stroke-linecap:butt;stroke-linejoin:miter;stroke-opacity:1" d="M 119.638,435.969 127.283,429.279 z" id="boundary" inkscape:connector-curvature="0" />
	<path style="fill:none;stroke:red;stroke-width:1px;stroke-linecap:butt;stroke-linejoin:miter;stroke-opacity:1" d="M 133.973,421.634 127.283,429.279 z" id="boundary" inkscape:connector-curvature="0" />
	<path style="fill:none;stroke:red;stroke-width:1px;stroke-linecap:butt;stroke-linejoin:miter;stroke-opacity:1" d="M 133.973,421.634 141.618,414.944 z" id="boundary" inkscape:connector-curvature="0" />
	<path style="fill:none;stroke:red;stroke-width:1px;stroke-linecap:butt;stroke-linejoin:miter;stroke-opacity:1" d="M 208.516,352.825 215.206,345.179 z" id="boundary" inkscape:connector-curvature="0" />
	<path style="fill:none;stroke:red;stroke-width:1px;stroke-linecap:butt;stroke-linejoin:miter;stroke-opacity:1" d="M 219.029,327.021 215.206,345.179 z" id="boundary" inkscape:connector-curvature="0" />
	<path style="fill:none;stroke:red;stroke-width:1px;stroke-linecap:butt;stroke-linejoin:miter;stroke-opacity:1" d="M 219.029,327.021 223.807,312.686 z" id="boundary" inkscape:connector-curvature="0" />
	<path style="fill:none;stroke:red;stroke-width:1px;stroke-linecap:butt;stroke-linejoin:miter;stroke-opacity:1" d="M 179.846,381.495 186.536,373.85 z" id="boundary" inkscape:connector-curvature="0" />
	<path style="fill:none;stroke:red;stroke-width:1px;stroke-linecap:butt;stroke-linejoin:miter;stroke-opacity:1" d="M 191.314,364.293 186.536,373.85 z" id="boundary" inkscape:connector-curvature="0" />
	<path style="fill:none;stroke:red;stroke-width:1px;stroke-linecap:butt;stroke-linejoin:miter;stroke-opacity:1" d="M 191.314,364.293 200.871,359.514 z" id="boundary" inkscape:connector-curvature="0" />
	<path style="fill:none;stroke:red;stroke-width:1px;stroke-linecap:butt;stroke-linejoin:miter;stroke-opacity:1" d="M 208.516,352.825 200.871,359.514 z" id="boundary" inkscape:connector-curvature="0" />
	<path style="fill:none;stroke:red;stroke-width:1px;stroke-linecap:butt;stroke-linejoin:miter;stroke-opacity:1" d="M 179.846,381.495 172.2,388.185 z" id="boundary" inkscape:connector-curvature="0" />
	<path style="fill:none;stroke:red;stroke-width:1px;stroke-linecap:butt;stroke-linejoin:miter;stroke-opacity:1" d="M 343.268,262.035 352.825,263.946 z" id="boundary" inkscape:connector-curvature="0" />
	<path style="fill:none;stroke:red;stroke-width:1px;stroke-linecap:butt;stroke-linejoin:miter;stroke-opacity:1" d="M 119.638,435.969 110.081,440.748 z" id="boundary" inkscape:connector-curvature="0" />
	<path style="fill:none;stroke:red;stroke-width:1px;stroke-linecap:butt;stroke-linejoin:miter;stroke-opacity:1" d="M 417.811,238.143 424.501,226.674 z" id="boundary" inkscape:connector-curvature="0" />
	<path style="fill:none;stroke:red;stroke-width:1px;stroke-linecap:butt;stroke-linejoin:miter;stroke-opacity:1" d="M 424.501,226.674 432.146,219.029 z" id="boundary" inkscape:connector-curvature="0" />
	<path style="fill:none;stroke:red;stroke-width:1px;stroke-linecap:butt;stroke-linejoin:miter;stroke-opacity:1" d="M 417.811,238.143 408.254,242.921 z" id="boundary" inkscape:connector-curvature="0" />
	<path style="fill:none;stroke:red;stroke-width:1px;stroke-linecap:butt;stroke-linejoin:miter;stroke-opacity:1" d="M 432.146,219.029 438.836,207.561 z" id="boundary" inkscape:connector-curvature="0" />
	<path style="fill:none;stroke:red;stroke-width:1px;stroke-linecap:butt;stroke-linejoin:miter;stroke-opacity:1" d="M 438.836,207.561 446.482,199.915 z" id="boundary" inkscape:connector-curvature="0" />
	<path style="fill:none;stroke:red;stroke-width:1px;stroke-linecap:butt;stroke-linejoin:miter;stroke-opacity:1" d="M 379.584,257.256 389.141,252.478 z" id="boundary" inkscape:connector-curvature="0" />
	<path style="fill:none;stroke:red;stroke-width:1px;stroke-linecap:butt;stroke-linejoin:miter;stroke-opacity:1" d="M 398.697,247.699 408.254,242.921 z" id="boundary" inkscape:connector-curvature="0" />
	<path style="fill:none;stroke:red;stroke-width:1px;stroke-linecap:butt;stroke-linejoin:miter;stroke-opacity:1" d="M 398.697,247.699 389.141,252.478 z" id="boundary" inkscape:connector-curvature="0" />
	<path style="fill:none;stroke:red;stroke-width:1px;stroke-linecap:butt;stroke-linejoin:miter;stroke-opacity:1" d="M 475.152,171.245 483.753,166.466 z" id="boundary" inkscape:connector-curvature="0" />
	<path style="fill:none;stroke:red;stroke-width:1px;stroke-linecap:butt;stroke-linejoin:miter;stroke-opacity:1" d="M 500.956,154.998 492.355,161.688 z" id="boundary" inkscape:connector-curvature="0" />
	<path style="fill:none;stroke:red;stroke-width:1px;stroke-linecap:butt;stroke-linejoin:miter;stroke-opacity:1" d="M 492.355,161.688 483.753,166.466 z" id="boundary" inkscape:connector-curvature="0" />
	<path style="fill:none;stroke:red;stroke-width:1px;stroke-linecap:butt;stroke-linejoin:miter;stroke-opacity:1" d="M 475.152,171.245 466.551,176.023 z" id="boundary" inkscape:connector-curvature="0" />
	<path style="fill:none;stroke:red;stroke-width:1px;stroke-linecap:butt;stroke-linejoin:miter;stroke-opacity:1" d="M 446.482,199.915 454.127,192.27 z" id="boundary" inkscape:connector-curvature="0" />
	<path style="fill:none;stroke:red;stroke-width:1px;stroke-linecap:butt;stroke-linejoin:miter;stroke-opacity:1" d="M 458.906,182.713 454.127,192.27 z" id="boundary" inkscape:connector-curvature="0" />
	<path style="fill:none;stroke:red;stroke-width:1px;stroke-linecap:butt;stroke-linejoin:miter;stroke-opacity:1" d="M 458.906,182.713 466.551,176.023 z" id="boundary" inkscape:connector-curvature="0" />
	<path style="fill:none;stroke:red;stroke-width:1px;stroke-linecap:butt;stroke-linejoin:miter;stroke-opacity:1" d="M 362.382,266.813 352.825,263.946 z" id="boundary" inkscape:connector-curvature="0" />
	<path style="fill:none;stroke:red;stroke-width:1px;stroke-linecap:butt;stroke-linejoin:miter;stroke-opacity:1" d="M 370.983,262.035 362.382,266.813 z" id="boundary" inkscape:connector-curvature="0" />
	<path style="fill:none;stroke:red;stroke-width:1px;stroke-linecap:butt;stroke-linejoin:miter;stroke-opacity:1" d="M 433.102,399.653 423.545,404.432 z" id="boundary" inkscape:connector-curvature="0" />
	<path style="fill:none;stroke:red;stroke-width:1px;stroke-linecap:butt;stroke-linejoin:miter;stroke-opacity:1" d="M 379.584,257.256 370.983,262.035 z" id="boundary" inkscape:connector-curvature="0" />
	<path style="fill:none;stroke:red;stroke-width:1px;stroke-linecap:butt;stroke-linejoin:miter;stroke-opacity:1" d="M 423.545,404.432 415.9,411.121 z" id="boundary" inkscape:connector-curvature="0" />
	<path style="fill:none;stroke:red;stroke-width:1px;stroke-linecap:butt;stroke-linejoin:miter;stroke-opacity:1" d="M 415.9,411.121 420.678,419.723 z" id="boundary" inkscape:connector-curvature="0" />
	<path style="fill:none;stroke:red;stroke-width:1px;stroke-linecap:butt;stroke-linejoin:miter;stroke-opacity:1" d="M 423.545,433.102 430.235,422.59 z" id="boundary" inkscape:connector-curvature="0" />
	<path style="fill:none;stroke:red;stroke-width:1px;stroke-linecap:butt;stroke-linejoin:miter;stroke-opacity:1" d="M 478.019,372.894 486.62,368.116 z" id="boundary" inkscape:connector-curvature="0" />
	<path style="fill:none;stroke:red;stroke-width:1px;stroke-linecap:butt;stroke-linejoin:miter;stroke-opacity:1" d="M 478.019,372.894 468.462,377.672 z" id="boundary" inkscape:connector-curvature="0" />
	<path style="fill:none;stroke:red;stroke-width:1px;stroke-linecap:butt;stroke-linejoin:miter;stroke-opacity:1" d="M 468.462,377.672 458.906,382.451 z" id="boundary" inkscape:connector-curvature="0" />
	<path style="fill:none;stroke:red;stroke-width:1px;stroke-linecap:butt;stroke-linejoin:miter;stroke-opacity:1" d="M 486.62,368.116 495.222,363.337 z" id="boundary" inkscape:connector-curvature="0" />
	<path style="fill:none;stroke:red;stroke-width:1px;stroke-linecap:butt;stroke-linejoin:miter;stroke-opacity:1" d="M 433.102,399.653 442.659,394.875 z" id="boundary" inkscape:connector-curvature="0" />
	<path style="fill:none;stroke:red;stroke-width:1px;stroke-linecap:butt;stroke-linejoin:miter;stroke-opacity:1" d="M 449.349,387.229 442.659,394.875 z" id="boundary" inkscape:connector-curvature="0" />
	<path style="fill:none;stroke:red;stroke-width:1px;stroke-linecap:butt;stroke-linejoin:miter;stroke-opacity:1" d="M 449.349,387.229 458.906,382.451 z" id="boundary" inkscape:connector-curvature="0" />
	<path style="fill:none;stroke:red;stroke-width:1px;stroke-linecap:butt;stroke-linejoin:miter;stroke-opacity:1" d="M 511.468,349.002 503.823,357.603 z" id="boundary" inkscape:connector-curvature="0" />
	<path style="fill:none;stroke:red;stroke-width:1px;stroke-linecap:butt;stroke-linejoin:miter;stroke-opacity:1" d="M 503.823,357.603 495.222,363.337 z" id="boundary" inkscape:connector-curvature="0" />
	<path style="fill:none;stroke:red;stroke-width:1px;stroke-linecap:butt;stroke-linejoin:miter;stroke-opacity:1" d="M 500.956,154.998 510.513,150.22 z" id="boundary" inkscape:connector-curvature="0" />
	<path style="fill:none;stroke:red;stroke-width:1px;stroke-linecap:butt;stroke-linejoin:miter;stroke-opacity:1" d="M 423.545,433.102 415.9,439.792 z" id="boundary" inkscape:connector-curvature="0" />
	<path style="fill:none;stroke:red;stroke-width:1px;stroke-linecap:butt;stroke-linejoin:miter;stroke-opacity:1" d="M 41.2717,515.291 33.6262,521.981 z" id="boundary" inkscape:connector-curvature="0" />
	<path style="fill:none;stroke:red;stroke-width:1px;stroke-linecap:butt;stroke-linejoin:miter;stroke-opacity:1" d="M 47.9615,507.645 41.2717,515.291 z" id="boundary" inkscape:connector-curvature="0" />
	<path style="fill:none;stroke:red;stroke-width:1px;stroke-linecap:butt;stroke-linejoin:miter;stroke-opacity:1" d="M 55.6069,500.956 47.9615,507.645 z" id="boundary" inkscape:connector-curvature="0" />
	<path style="fill:none;stroke:red;stroke-width:1px;stroke-linecap:butt;stroke-linejoin:miter;stroke-opacity:1" d="M 59.4297,491.399 55.6069,500.956 z" id="boundary" inkscape:connector-curvature="0" />
	<path style="fill:none;stroke:red;stroke-width:1px;stroke-linecap:butt;stroke-linejoin:miter;stroke-opacity:1" d="M 11.6455,558.297 16.4239,548.74 z" id="boundary" inkscape:connector-curvature="0" />
	<path style="fill:none;stroke:red;stroke-width:1px;stroke-linecap:butt;stroke-linejoin:miter;stroke-opacity:1" d="M 11.6455,558.297 4,565.942 z" id="boundary" inkscape:connector-curvature="0" />
	<path style="fill:none;stroke:red;stroke-width:1px;stroke-linecap:butt;stroke-linejoin:miter;stroke-opacity:1" d="M 21.2023,539.183 25.9807,529.626 z" id="boundary" inkscape:connector-curvature="0" />
	<path style="fill:none;stroke:red;stroke-width:1px;stroke-linecap:butt;stroke-linejoin:miter;stroke-opacity:1" d="M 25.9807,529.626 33.6262,521.981 z" id="boundary" inkscape:connector-curvature="0" />
	<path style="fill:none;stroke:red;stroke-width:1px;stroke-linecap:butt;stroke-linejoin:miter;stroke-opacity:1" d="M 21.2023,539.183 16.4239,548.74 z" id="boundary" inkscape:connector-curvature="0" />
	<path style="fill:none;stroke:red;stroke-width:1px;stroke-linecap:butt;stroke-linejoin:miter;stroke-opacity:1" d="M 81.4104,469.418 89.0559,462.728 z" id="boundary" inkscape:connector-curvature="0" />
	<path style="fill:none;stroke:red;stroke-width:1px;stroke-linecap:butt;stroke-linejoin:miter;stroke-opacity:1" d="M 95.7457,455.083 89.0559,462.728 z" id="boundary" inkscape:connector-curvature="0" />
	<path style="fill:none;stroke:red;stroke-width:1px;stroke-linecap:butt;stroke-linejoin:miter;stroke-opacity:1" d="M 110.081,440.748 103.391,448.393 z" id="boundary" inkscape:connector-curvature="0" />
	<path style="fill:none;stroke:red;stroke-width:1px;stroke-linecap:butt;stroke-linejoin:miter;stroke-opacity:1" d="M 103.391,448.393 95.7457,455.083 z" id="boundary" inkscape:connector-curvature="0" />
	<path style="fill:none;stroke:red;stroke-width:1px;stroke-linecap:butt;stroke-linejoin:miter;stroke-opacity:1" d="M 74.7206,477.064 81.4104,469.418 z" id="boundary" inkscape:connector-curvature="0" />
	<path style="fill:none;stroke:red;stroke-width:1px;stroke-linecap:butt;stroke-linejoin:miter;stroke-opacity:1" d="M 67.0751,483.753 59.4297,491.399 z" id="boundary" inkscape:connector-curvature="0" />
	<path style="fill:none;stroke:red;stroke-width:1px;stroke-linecap:butt;stroke-linejoin:miter;stroke-opacity:1" d="M 74.7206,477.064 67.0751,483.753 z" id="boundary" inkscape:connector-curvature="0" />
	<path style="fill:none;stroke:red;stroke-width:1px;stroke-linecap:butt;stroke-linejoin:miter;stroke-opacity:1" d="M 4,575.499 4,565.942 z" id="boundary" inkscape:connector-curvature="0" />
	<path style="fill:none;stroke:red;stroke-width:1px;stroke-linecap:butt;stroke-linejoin:miter;stroke-opacity:1" d="M 11.6455,591.746 4,585.056 z" id="boundary" inkscape:connector-curvature="0" />
	<path style="fill:none;stroke:red;stroke-width:1px;stroke-linecap:butt;stroke-linejoin:miter;stroke-opacity:1" d="M 4,585.056 4,575.499 z" id="boundary" inkscape:connector-curvature="0" />
	<path style="fill:none;stroke:red;stroke-width:1px;stroke-linecap:butt;stroke-linejoin:miter;stroke-opacity:1" d="M 57.5183,583.145 48.9171,587.923 z" id="boundary" inkscape:connector-curvature="0" />
	<path style="fill:none;stroke:red;stroke-width:1px;stroke-linecap:butt;stroke-linejoin:miter;stroke-opacity:1" d="M 48.9171,587.923 39.3603,587.923 z" id="boundary" inkscape:connector-curvature="0" />
	<path style="fill:none;stroke:red;stroke-width:1px;stroke-linecap:butt;stroke-linejoin:miter;stroke-opacity:1" d="M 21.2023,592.701 11.6455,591.746 z" id="boundary" inkscape:connector-curvature="0" />
	<path style="fill:none;stroke:red;stroke-width:1px;stroke-linecap:butt;stroke-linejoin:miter;stroke-opacity:1" d="M 30.7592,592.701 21.2023,592.701 z" id="boundary" inkscape:connector-curvature="0" />
	<path style="fill:none;stroke:red;stroke-width:1px;stroke-linecap:butt;stroke-linejoin:miter;stroke-opacity:1" d="M 39.3603,587.923 30.7592,592.701 z" id="boundary" inkscape:connector-curvature="0" />
	<path style="fill:none;stroke:red;stroke-width:1px;stroke-linecap:butt;stroke-linejoin:miter;stroke-opacity:1" d="M 94.79,575.499 104.347,573.588 z" id="boundary" inkscape:connector-curvature="0" />
	<path style="fill:none;stroke:red;stroke-width:1px;stroke-linecap:butt;stroke-linejoin:miter;stroke-opacity:1" d="M 112.948,568.809 104.347,573.588 z" id="boundary" inkscape:connector-curvature="0" />
	<path style="fill:none;stroke:red;stroke-width:1px;stroke-linecap:butt;stroke-linejoin:miter;stroke-opacity:1" d="M 112.948,568.809 122.505,566.898 z" id="boundary" inkscape:connector-curvature="0" />
	<path style="fill:none;stroke:red;stroke-width:1px;stroke-linecap:butt;stroke-linejoin:miter;stroke-opacity:1" d="M 57.5183,583.145 67.0751,583.145 z" id="boundary" inkscape:connector-curvature="0" />
	<path style="fill:none;stroke:red;stroke-width:1px;stroke-linecap:butt;stroke-linejoin:miter;stroke-opacity:1" d="M 76.632,583.145 85.2331,578.366 z" id="boundary" inkscape:connector-curvature="0" />
	<path style="fill:none;stroke:red;stroke-width:1px;stroke-linecap:butt;stroke-linejoin:miter;stroke-opacity:1" d="M 85.2331,578.366 94.79,575.499 z" id="boundary" inkscape:connector-curvature="0" />
	<path style="fill:none;stroke:red;stroke-width:1px;stroke-linecap:butt;stroke-linejoin:miter;stroke-opacity:1" d="M 76.632,583.145 67.0751,583.145 z" id="boundary" inkscape:connector-curvature="0" />
	<path style="fill:none;stroke:red;stroke-width:1px;stroke-linecap:butt;stroke-linejoin:miter;stroke-opacity:1" d="M 132.062,562.119 122.505,566.898 z" id="boundary" inkscape:connector-curvature="0" />
	<path style="fill:none;stroke:red;stroke-width:1px;stroke-linecap:butt;stroke-linejoin:miter;stroke-opacity:1" d="M 311.73,487.576 321.287,487.576 z" id="boundary" inkscape:connector-curvature="0" />
	<path style="fill:none;stroke:red;stroke-width:1px;stroke-linecap:butt;stroke-linejoin:miter;stroke-opacity:1" d="M 303.129,492.355 311.73,487.576 z" id="boundary" inkscape:connector-curvature="0" />
	<path style="fill:none;stroke:red;stroke-width:1px;stroke-linecap:butt;stroke-linejoin:miter;stroke-opacity:1" d="M 349.002,482.798 340.401,487.576 z" id="boundary" inkscape:connector-curvature="0" />
	<path style="fill:none;stroke:red;stroke-width:1px;stroke-linecap:butt;stroke-linejoin:miter;stroke-opacity:1" d="M 340.401,487.576 330.844,487.576 z" id="boundary" inkscape:connector-curvature="0" />
	<path style="fill:none;stroke:red;stroke-width:1px;stroke-linecap:butt;stroke-linejoin:miter;stroke-opacity:1" d="M 330.844,487.576 321.287,487.576 z" id="boundary" inkscape:connector-curvature="0" />
	<path style="fill:none;stroke:red;stroke-width:1px;stroke-linecap:butt;stroke-linejoin:miter;stroke-opacity:1" d="M 303.129,492.355 293.572,496.177 z" id="boundary" inkscape:connector-curvature="0" />
	<path style="fill:none;stroke:red;stroke-width:1px;stroke-linecap:butt;stroke-linejoin:miter;stroke-opacity:1" d="M 293.572,496.177 284.015,497.133 z" id="boundary" inkscape:connector-curvature="0" />
	<path style="fill:none;stroke:red;stroke-width:1px;stroke-linecap:butt;stroke-linejoin:miter;stroke-opacity:1" d="M 274.459,497.133 264.902,497.133 z" id="boundary" inkscape:connector-curvature="0" />
	<path style="fill:none;stroke:red;stroke-width:1px;stroke-linecap:butt;stroke-linejoin:miter;stroke-opacity:1" d="M 349.002,482.798 358.559,482.798 z" id="boundary" inkscape:connector-curvature="0" />
	<path style="fill:none;stroke:red;stroke-width:1px;stroke-linecap:butt;stroke-linejoin:miter;stroke-opacity:1" d="M 392.008,458.906 400.609,454.127 z" id="boundary" inkscape:connector-curvature="0" />
	<path style="fill:none;stroke:red;stroke-width:1px;stroke-linecap:butt;stroke-linejoin:miter;stroke-opacity:1" d="M 385.318,466.551 392.008,458.906 z" id="boundary" inkscape:connector-curvature="0" />
	<path style="fill:none;stroke:red;stroke-width:1px;stroke-linecap:butt;stroke-linejoin:miter;stroke-opacity:1" d="M 408.254,448.393 415.9,439.792 z" id="boundary" inkscape:connector-curvature="0" />
	<path style="fill:none;stroke:red;stroke-width:1px;stroke-linecap:butt;stroke-linejoin:miter;stroke-opacity:1" d="M 408.254,448.393 400.609,454.127 z" id="boundary" inkscape:connector-curvature="0" />
	<path style="fill:none;stroke:red;stroke-width:1px;stroke-linecap:butt;stroke-linejoin:miter;stroke-opacity:1" d="M 358.559,482.798 366.204,476.108 z" id="boundary" inkscape:connector-curvature="0" />
	<path style="fill:none;stroke:red;stroke-width:1px;stroke-linecap:butt;stroke-linejoin:miter;stroke-opacity:1" d="M 366.204,476.108 375.761,471.329 z" id="boundary" inkscape:connector-curvature="0" />
	<path style="fill:none;stroke:red;stroke-width:1px;stroke-linecap:butt;stroke-linejoin:miter;stroke-opacity:1" d="M 375.761,471.329 385.318,466.551 z" id="boundary" inkscape:connector-curvature="0" />
	<path style="fill:none;stroke:red;stroke-width:1px;stroke-linecap:butt;stroke-linejoin:miter;stroke-opacity:1" d="M 246.744,501.911 238.143,506.69 z" id="boundary" inkscape:connector-curvature="0" />
	<path style="fill:none;stroke:red;stroke-width:1px;stroke-linecap:butt;stroke-linejoin:miter;stroke-opacity:1" d="M 167.422,544.917 176.979,540.139 z" id="boundary" inkscape:connector-curvature="0" />
	<path style="fill:none;stroke:red;stroke-width:1px;stroke-linecap:butt;stroke-linejoin:miter;stroke-opacity:1" d="M 160.732,552.563 167.422,544.917 z" id="boundary" inkscape:connector-curvature="0" />
	<path style="fill:none;stroke:red;stroke-width:1px;stroke-linecap:butt;stroke-linejoin:miter;stroke-opacity:1" d="M 186.536,535.36 176.979,540.139 z" id="boundary" inkscape:connector-curvature="0" />
	<path style="fill:none;stroke:red;stroke-width:1px;stroke-linecap:butt;stroke-linejoin:miter;stroke-opacity:1" d="M 186.536,535.36 195.137,530.582 z" id="boundary" inkscape:connector-curvature="0" />
	<path style="fill:none;stroke:red;stroke-width:1px;stroke-linecap:butt;stroke-linejoin:miter;stroke-opacity:1" d="M 141.618,559.252 151.175,557.341 z" id="boundary" inkscape:connector-curvature="0" />
	<path style="fill:none;stroke:red;stroke-width:1px;stroke-linecap:butt;stroke-linejoin:miter;stroke-opacity:1" d="M 141.618,559.252 132.062,562.119 z" id="boundary" inkscape:connector-curvature="0" />
	<path style="fill:none;stroke:red;stroke-width:1px;stroke-linecap:butt;stroke-linejoin:miter;stroke-opacity:1" d="M 160.732,552.563 151.175,557.341 z" id="boundary" inkscape:connector-curvature="0" />
	<path style="fill:none;stroke:red;stroke-width:1px;stroke-linecap:butt;stroke-linejoin:miter;stroke-opacity:1" d="M 195.137,530.582 203.738,525.803 z" id="boundary" inkscape:connector-curvature="0" />
	<path style="fill:none;stroke:red;stroke-width:1px;stroke-linecap:butt;stroke-linejoin:miter;stroke-opacity:1" d="M 246.744,501.911 256.301,501.911 z" id="boundary" inkscape:connector-curvature="0" />
	<path style="fill:none;stroke:red;stroke-width:1px;stroke-linecap:butt;stroke-linejoin:miter;stroke-opacity:1" d="M 264.902,497.133 256.301,501.911 z" id="boundary" inkscape:connector-curvature="0" />
	<path style="fill:none;stroke:red;stroke-width:1px;stroke-linecap:butt;stroke-linejoin:miter;stroke-opacity:1" d="M 274.459,497.133 284.015,497.133 z" id="boundary" inkscape:connector-curvature="0" />
	<path style="fill:none;stroke:red;stroke-width:1px;stroke-linecap:butt;stroke-linejoin:miter;stroke-opacity:1" d="M 220.94,516.247 229.541,511.468 z" id="boundary" inkscape:connector-curvature="0" />
	<path style="fill:none;stroke:red;stroke-width:1px;stroke-linecap:butt;stroke-linejoin:miter;stroke-opacity:1" d="M 212.339,521.025 203.738,525.803 z" id="boundary" inkscape:connector-curvature="0" />
	<path style="fill:none;stroke:red;stroke-width:1px;stroke-linecap:butt;stroke-linejoin:miter;stroke-opacity:1" d="M 220.94,516.247 212.339,521.025 z" id="boundary" inkscape:connector-curvature="0" />
	<path style="fill:none;stroke:red;stroke-width:1px;stroke-linecap:butt;stroke-linejoin:miter;stroke-opacity:1" d="M 229.541,511.468 238.143,506.69 z" id="boundary" inkscape:connector-curvature="0" />
	<path style="fill:none;stroke:red;stroke-width:1px;stroke-linecap:butt;stroke-linejoin:miter;stroke-opacity:1" d="M 692.092,73.7649 699.738,66.1195 z" id="boundary" inkscape:connector-curvature="0" />
	<path style="fill:none;stroke:red;stroke-width:1px;stroke-linecap:butt;stroke-linejoin:miter;stroke-opacity:1" d="M 699.738,66.1195 709.295,66.1195 z" id="boundary" inkscape:connector-curvature="0" />
	<path style="fill:none;stroke:red;stroke-width:1px;stroke-linecap:butt;stroke-linejoin:miter;stroke-opacity:1" d="M 692.092,73.7649 682.536,75.6763 z" id="boundary" inkscape:connector-curvature="0" />
	<path style="fill:none;stroke:red;stroke-width:1px;stroke-linecap:butt;stroke-linejoin:miter;stroke-opacity:1" d="M 801.996,59.4297 792.439,64.2081 z" id="boundary" inkscape:connector-curvature="0" />
	<path style="fill:none;stroke:red;stroke-width:1px;stroke-linecap:butt;stroke-linejoin:miter;stroke-opacity:1" d="M 718.852,66.1195 709.295,66.1195 z" id="boundary" inkscape:connector-curvature="0" />
	<path style="fill:none;stroke:red;stroke-width:1px;stroke-linecap:butt;stroke-linejoin:miter;stroke-opacity:1" d="M 645.264,90.0116 653.865,83.3218 z" id="boundary" inkscape:connector-curvature="0" />
	<path style="fill:none;stroke:red;stroke-width:1px;stroke-linecap:butt;stroke-linejoin:miter;stroke-opacity:1" d="M 653.865,83.3218 663.422,80.4547 z" id="boundary" inkscape:connector-curvature="0" />
	<path style="fill:none;stroke:red;stroke-width:1px;stroke-linecap:butt;stroke-linejoin:miter;stroke-opacity:1" d="M 672.979,78.5434 682.536,75.6763 z" id="boundary" inkscape:connector-curvature="0" />
	<path style="fill:none;stroke:red;stroke-width:1px;stroke-linecap:butt;stroke-linejoin:miter;stroke-opacity:1" d="M 672.979,78.5434 663.422,80.4547 z" id="boundary" inkscape:connector-curvature="0" />
	<path style="fill:none;stroke:red;stroke-width:1px;stroke-linecap:butt;stroke-linejoin:miter;stroke-opacity:1" d="M 775.237,75.6763 766.636,80.4547 z" id="boundary" inkscape:connector-curvature="0" />
	<path style="fill:none;stroke:red;stroke-width:1px;stroke-linecap:butt;stroke-linejoin:miter;stroke-opacity:1" d="M 782.882,68.9865 775.237,75.6763 z" id="boundary" inkscape:connector-curvature="0" />
	<path style="fill:none;stroke:red;stroke-width:1px;stroke-linecap:butt;stroke-linejoin:miter;stroke-opacity:1" d="M 782.882,68.9865 792.439,64.2081 z" id="boundary" inkscape:connector-curvature="0" />
	<path style="fill:none;stroke:red;stroke-width:1px;stroke-linecap:butt;stroke-linejoin:miter;stroke-opacity:1" d="M 727.453,70.8979 718.852,66.1195 z" id="boundary" inkscape:connector-curvature="0" />
	<path style="fill:none;stroke:red;stroke-width:1px;stroke-linecap:butt;stroke-linejoin:miter;stroke-opacity:1" d="M 724.586,89.0559 731.276,80.4547 z" id="boundary" inkscape:connector-curvature="0" />
	<path style="fill:none;stroke:red;stroke-width:1px;stroke-linecap:butt;stroke-linejoin:miter;stroke-opacity:1" d="M 727.453,70.8979 731.276,80.4547 z" id="boundary" inkscape:connector-curvature="0" />
	<path style="fill:none;stroke:red;stroke-width:1px;stroke-linecap:butt;stroke-linejoin:miter;stroke-opacity:1" d="M 758.035,85.2331 766.636,80.4547 z" id="boundary" inkscape:connector-curvature="0" />
	<path style="fill:none;stroke:red;stroke-width:1px;stroke-linecap:butt;stroke-linejoin:miter;stroke-opacity:1" d="M 750.389,91.9229 758.035,85.2331 z" id="boundary" inkscape:connector-curvature="0" />
	<path style="fill:none;stroke:red;stroke-width:1px;stroke-linecap:butt;stroke-linejoin:miter;stroke-opacity:1" d="M 724.586,89.0559 719.807,98.6127 z" id="boundary" inkscape:connector-curvature="0" />
	<path style="fill:none;stroke:red;stroke-width:1px;stroke-linecap:butt;stroke-linejoin:miter;stroke-opacity:1" d="M 609.904,104.347 618.505,99.5684 z" id="boundary" inkscape:connector-curvature="0" />
	<path style="fill:none;stroke:red;stroke-width:1px;stroke-linecap:butt;stroke-linejoin:miter;stroke-opacity:1" d="M 627.106,94.79 636.663,94.79 z" id="boundary" inkscape:connector-curvature="0" />
	<path style="fill:none;stroke:red;stroke-width:1px;stroke-linecap:butt;stroke-linejoin:miter;stroke-opacity:1" d="M 618.505,99.5684 627.106,94.79 z" id="boundary" inkscape:connector-curvature="0" />
	<path style="fill:none;stroke:red;stroke-width:1px;stroke-linecap:butt;stroke-linejoin:miter;stroke-opacity:1" d="M 645.264,90.0116 636.663,94.79 z" id="boundary" inkscape:connector-curvature="0" />
	<path style="fill:none;stroke:red;stroke-width:1px;stroke-linecap:butt;stroke-linejoin:miter;stroke-opacity:1" d="M 601.303,109.125 609.904,104.347 z" id="boundary" inkscape:connector-curvature="0" />
	<path style="fill:none;stroke:red;stroke-width:1px;stroke-linecap:butt;stroke-linejoin:miter;stroke-opacity:1" d="M 574.543,118.682 583.145,113.904 z" id="boundary" inkscape:connector-curvature="0" />
	<path style="fill:none;stroke:red;stroke-width:1px;stroke-linecap:butt;stroke-linejoin:miter;stroke-opacity:1" d="M 591.746,109.125 601.303,109.125 z" id="boundary" inkscape:connector-curvature="0" />
	<path style="fill:none;stroke:red;stroke-width:1px;stroke-linecap:butt;stroke-linejoin:miter;stroke-opacity:1" d="M 583.145,113.904 591.746,109.125 z" id="boundary" inkscape:connector-curvature="0" />
	<path style="fill:none;stroke:red;stroke-width:1px;stroke-linecap:butt;stroke-linejoin:miter;stroke-opacity:1" d="M 719.807,98.6127 712.162,105.303 z" id="boundary" inkscape:connector-curvature="0" />
	<path style="fill:none;stroke:red;stroke-width:1px;stroke-linecap:butt;stroke-linejoin:miter;stroke-opacity:1" d="M 742.744,99.5684 750.389,91.9229 z" id="boundary" inkscape:connector-curvature="0" />
	<path style="fill:none;stroke:red;stroke-width:1px;stroke-linecap:butt;stroke-linejoin:miter;stroke-opacity:1" d="M 742.744,99.5684 734.143,104.347 z" id="boundary" inkscape:connector-curvature="0" />
	<path style="fill:none;stroke:red;stroke-width:1px;stroke-linecap:butt;stroke-linejoin:miter;stroke-opacity:1" d="M 712.162,105.303 716.94,113.904 z" id="boundary" inkscape:connector-curvature="0" />
	<path style="fill:none;stroke:red;stroke-width:1px;stroke-linecap:butt;stroke-linejoin:miter;stroke-opacity:1" d="M 725.541,109.125 716.94,113.904 z" id="boundary" inkscape:connector-curvature="0" />
	<path style="fill:none;stroke:red;stroke-width:1px;stroke-linecap:butt;stroke-linejoin:miter;stroke-opacity:1" d="M 725.541,109.125 734.143,104.347 z" id="boundary" inkscape:connector-curvature="0" />
	<path style="fill:none;stroke:red;stroke-width:1px;stroke-linecap:butt;stroke-linejoin:miter;stroke-opacity:1" d="M 891.83,13.5568 901.387,13.5568 z" id="boundary" inkscape:connector-curvature="0" />
	<path style="fill:none;stroke:red;stroke-width:1px;stroke-linecap:butt;stroke-linejoin:miter;stroke-opacity:1" d="M 883.229,18.3353 891.83,13.5568 z" id="boundary" inkscape:connector-curvature="0" />
	<path style="fill:none;stroke:red;stroke-width:1px;stroke-linecap:butt;stroke-linejoin:miter;stroke-opacity:1" d="M 910.944,13.5568 919.545,8.77842 z" id="boundary" inkscape:connector-curvature="0" />
	<path style="fill:none;stroke:red;stroke-width:1px;stroke-linecap:butt;stroke-linejoin:miter;stroke-opacity:1" d="M 919.545,8.77842 929.102,8.77842 z" id="boundary" inkscape:connector-curvature="0" />
	<path style="fill:none;stroke:red;stroke-width:1px;stroke-linecap:butt;stroke-linejoin:miter;stroke-opacity:1" d="M 910.944,13.5568 901.387,13.5568 z" id="boundary" inkscape:connector-curvature="0" />
	<path style="fill:none;stroke:red;stroke-width:1px;stroke-linecap:butt;stroke-linejoin:miter;stroke-opacity:1" d="M 856.47,27.8921 865.071,23.1137 z" id="boundary" inkscape:connector-curvature="0" />
	<path style="fill:none;stroke:red;stroke-width:1px;stroke-linecap:butt;stroke-linejoin:miter;stroke-opacity:1" d="M 873.672,18.3353 883.229,18.3353 z" id="boundary" inkscape:connector-curvature="0" />
	<path style="fill:none;stroke:red;stroke-width:1px;stroke-linecap:butt;stroke-linejoin:miter;stroke-opacity:1" d="M 865.071,23.1137 873.672,18.3353 z" id="boundary" inkscape:connector-curvature="0" />
	<path style="fill:none;stroke:red;stroke-width:1px;stroke-linecap:butt;stroke-linejoin:miter;stroke-opacity:1" d="M 937.703,4 947.26,4 z" id="boundary" inkscape:connector-curvature="0" />
	<path style="fill:none;stroke:red;stroke-width:1px;stroke-linecap:butt;stroke-linejoin:miter;stroke-opacity:1" d="M 929.102,8.77842 937.703,4 z" id="boundary" inkscape:connector-curvature="0" />
	<path style="fill:none;stroke:red;stroke-width:1px;stroke-linecap:butt;stroke-linejoin:miter;stroke-opacity:1" d="M 956.817,4 966.374,4 z" id="boundary" inkscape:connector-curvature="0" />
	<path style="fill:none;stroke:red;stroke-width:1px;stroke-linecap:butt;stroke-linejoin:miter;stroke-opacity:1" d="M 966.374,4 974.019,10.6898 z" id="boundary" inkscape:connector-curvature="0" />
	<path style="fill:none;stroke:red;stroke-width:1px;stroke-linecap:butt;stroke-linejoin:miter;stroke-opacity:1" d="M 947.26,4 956.817,4 z" id="boundary" inkscape:connector-curvature="0" />
	<path style="fill:none;stroke:red;stroke-width:1px;stroke-linecap:butt;stroke-linejoin:miter;stroke-opacity:1" d="M 982.62,15.4682 989.31,23.1137 z" id="boundary" inkscape:connector-curvature="0" />
	<path style="fill:none;stroke:red;stroke-width:1px;stroke-linecap:butt;stroke-linejoin:miter;stroke-opacity:1" d="M 974.019,10.6898 982.62,15.4682 z" id="boundary" inkscape:connector-curvature="0" />
	<path style="fill:none;stroke:red;stroke-width:1px;stroke-linecap:butt;stroke-linejoin:miter;stroke-opacity:1" d="M 819.198,47.0058 828.755,42.2274 z" id="boundary" inkscape:connector-curvature="0" />
	<path style="fill:none;stroke:red;stroke-width:1px;stroke-linecap:butt;stroke-linejoin:miter;stroke-opacity:1" d="M 811.553,54.6513 819.198,47.0058 z" id="boundary" inkscape:connector-curvature="0" />
	<path style="fill:none;stroke:red;stroke-width:1px;stroke-linecap:butt;stroke-linejoin:miter;stroke-opacity:1" d="M 838.312,37.4489 847.869,32.6705 z" id="boundary" inkscape:connector-curvature="0" />
	<path style="fill:none;stroke:red;stroke-width:1px;stroke-linecap:butt;stroke-linejoin:miter;stroke-opacity:1" d="M 856.47,27.8921 847.869,32.6705 z" id="boundary" inkscape:connector-curvature="0" />
	<path style="fill:none;stroke:red;stroke-width:1px;stroke-linecap:butt;stroke-linejoin:miter;stroke-opacity:1" d="M 838.312,37.4489 828.755,42.2274 z" id="boundary" inkscape:connector-curvature="0" />
	<path style="fill:none;stroke:red;stroke-width:1px;stroke-linecap:butt;stroke-linejoin:miter;stroke-opacity:1" d="M 801.996,59.4297 811.553,54.6513 z" id="boundary" inkscape:connector-curvature="0" />
	<path style="fill:none;stroke:red;stroke-width:1px;stroke-linecap:butt;stroke-linejoin:miter;stroke-opacity:1" d="M 945.349,119.638 953.95,114.859 z" id="boundary" inkscape:connector-curvature="0" />
	<path style="fill:none;stroke:red;stroke-width:1px;stroke-linecap:butt;stroke-linejoin:miter;stroke-opacity:1" d="M 994.089,43.183 994.089,31.7148 z" id="boundary" inkscape:connector-curvature="0" />
	<path style="fill:none;stroke:red;stroke-width:1px;stroke-linecap:butt;stroke-linejoin:miter;stroke-opacity:1" d="M 996,52.7399 994.089,43.183 z" id="boundary" inkscape:connector-curvature="0" />
	<path style="fill:none;stroke:red;stroke-width:1px;stroke-linecap:butt;stroke-linejoin:miter;stroke-opacity:1" d="M 996,52.7399 994.089,62.2967 z" id="boundary" inkscape:connector-curvature="0" />
	<path style="fill:none;stroke:red;stroke-width:1px;stroke-linecap:butt;stroke-linejoin:miter;stroke-opacity:1" d="M 994.089,62.2967 989.31,71.8536 z" id="boundary" inkscape:connector-curvature="0" />
	<path style="fill:none;stroke:red;stroke-width:1px;stroke-linecap:butt;stroke-linejoin:miter;stroke-opacity:1" d="M 962.551,109.125 970.197,100.524 z" id="boundary" inkscape:connector-curvature="0" />
	<path style="fill:none;stroke:red;stroke-width:1px;stroke-linecap:butt;stroke-linejoin:miter;stroke-opacity:1" d="M 970.197,100.524 977.842,93.8343 z" id="boundary" inkscape:connector-curvature="0" />
	<path style="fill:none;stroke:red;stroke-width:1px;stroke-linecap:butt;stroke-linejoin:miter;stroke-opacity:1" d="M 962.551,109.125 953.95,114.859 z" id="boundary" inkscape:connector-curvature="0" />
	<path style="fill:none;stroke:red;stroke-width:1px;stroke-linecap:butt;stroke-linejoin:miter;stroke-opacity:1" d="M 984.532,81.4104 977.842,93.8343 z" id="boundary" inkscape:connector-curvature="0" />
	<path style="fill:none;stroke:red;stroke-width:1px;stroke-linecap:butt;stroke-linejoin:miter;stroke-opacity:1" d="M 989.31,71.8536 984.532,81.4104 z" id="boundary" inkscape:connector-curvature="0" />
	<path style="fill:none;stroke:red;stroke-width:1px;stroke-linecap:butt;stroke-linejoin:miter;stroke-opacity:1" d="M 989.31,23.1137 994.089,31.7148 z" id="boundary" inkscape:connector-curvature="0" />
	<path style="fill:none;stroke:red;stroke-width:1px;stroke-linecap:butt;stroke-linejoin:miter;stroke-opacity:1" d="M 945.349,119.638 936.748,124.416 z" id="boundary" inkscape:connector-curvature="0" />
	<path style="fill:none;stroke:red;stroke-width:1px;stroke-linecap:butt;stroke-linejoin:miter;stroke-opacity:1" d="M 529.626,140.663 537.272,133.017 z" id="boundary" inkscape:connector-curvature="0" />
	<path style="fill:none;stroke:red;stroke-width:1px;stroke-linecap:butt;stroke-linejoin:miter;stroke-opacity:1" d="M 537.272,133.017 546.829,128.239 z" id="boundary" inkscape:connector-curvature="0" />
	<path style="fill:none;stroke:red;stroke-width:1px;stroke-linecap:butt;stroke-linejoin:miter;stroke-opacity:1" d="M 556.385,123.461 565.942,123.461 z" id="boundary" inkscape:connector-curvature="0" />
	<path style="fill:none;stroke:red;stroke-width:1px;stroke-linecap:butt;stroke-linejoin:miter;stroke-opacity:1" d="M 546.829,128.239 556.385,123.461 z" id="boundary" inkscape:connector-curvature="0" />
	<path style="fill:none;stroke:red;stroke-width:1px;stroke-linecap:butt;stroke-linejoin:miter;stroke-opacity:1" d="M 574.543,118.682 565.942,123.461 z" id="boundary" inkscape:connector-curvature="0" />
	<path style="fill:none;stroke:red;stroke-width:1px;stroke-linecap:butt;stroke-linejoin:miter;stroke-opacity:1" d="M 510.513,150.22 520.069,145.441 z" id="boundary" inkscape:connector-curvature="0" />
	<path style="fill:none;stroke:red;stroke-width:1px;stroke-linecap:butt;stroke-linejoin:miter;stroke-opacity:1" d="M 520.069,145.441 529.626,140.663 z" id="boundary" inkscape:connector-curvature="0" />
	<path style="fill:none;stroke:red;stroke-width:1px;stroke-linecap:butt;stroke-linejoin:miter;stroke-opacity:1" d="M 669.156,305.996 659.599,310.775 z" id="boundary" inkscape:connector-curvature="0" />
	<path style="fill:none;stroke:red;stroke-width:1px;stroke-linecap:butt;stroke-linejoin:miter;stroke-opacity:1" d="M 707.383,242.921 702.605,234.32 z" id="boundary" inkscape:connector-curvature="0" />
	<path style="fill:none;stroke:red;stroke-width:1px;stroke-linecap:butt;stroke-linejoin:miter;stroke-opacity:1" d="M 702.605,234.32 710.25,227.63 z" id="boundary" inkscape:connector-curvature="0" />
	<path style="fill:none;stroke:red;stroke-width:1px;stroke-linecap:butt;stroke-linejoin:miter;stroke-opacity:1" d="M 722.674,282.104 714.073,286.882 z" id="boundary" inkscape:connector-curvature="0" />
	<path style="fill:none;stroke:red;stroke-width:1px;stroke-linecap:butt;stroke-linejoin:miter;stroke-opacity:1" d="M 716.94,241.01 707.383,242.921 z" id="boundary" inkscape:connector-curvature="0" />
	<path style="fill:none;stroke:red;stroke-width:1px;stroke-linecap:butt;stroke-linejoin:miter;stroke-opacity:1" d="M 714.073,286.882 705.472,291.661 z" id="boundary" inkscape:connector-curvature="0" />
	<path style="fill:none;stroke:red;stroke-width:1px;stroke-linecap:butt;stroke-linejoin:miter;stroke-opacity:1" d="M 678.713,305.996 688.27,301.218 z" id="boundary" inkscape:connector-curvature="0" />
	<path style="fill:none;stroke:red;stroke-width:1px;stroke-linecap:butt;stroke-linejoin:miter;stroke-opacity:1" d="M 678.713,305.996 669.156,305.996 z" id="boundary" inkscape:connector-curvature="0" />
	<path style="fill:none;stroke:red;stroke-width:1px;stroke-linecap:butt;stroke-linejoin:miter;stroke-opacity:1" d="M 696.871,296.439 688.27,301.218 z" id="boundary" inkscape:connector-curvature="0" />
	<path style="fill:none;stroke:red;stroke-width:1px;stroke-linecap:butt;stroke-linejoin:miter;stroke-opacity:1" d="M 705.472,291.661 696.871,296.439 z" id="boundary" inkscape:connector-curvature="0" />
	<path style="fill:none;stroke:red;stroke-width:1px;stroke-linecap:butt;stroke-linejoin:miter;stroke-opacity:1" d="M 520.069,344.224 529.626,344.224 z" id="boundary" inkscape:connector-curvature="0" />
	<path style="fill:none;stroke:red;stroke-width:1px;stroke-linecap:butt;stroke-linejoin:miter;stroke-opacity:1" d="M 511.468,349.002 520.069,344.224 z" id="boundary" inkscape:connector-curvature="0" />
	<path style="fill:none;stroke:red;stroke-width:1px;stroke-linecap:butt;stroke-linejoin:miter;stroke-opacity:1" d="M 539.183,344.224 548.74,344.224 z" id="boundary" inkscape:connector-curvature="0" />
	<path style="fill:none;stroke:red;stroke-width:1px;stroke-linecap:butt;stroke-linejoin:miter;stroke-opacity:1" d="M 539.183,344.224 529.626,344.224 z" id="boundary" inkscape:connector-curvature="0" />
	<path style="fill:none;stroke:red;stroke-width:1px;stroke-linecap:butt;stroke-linejoin:miter;stroke-opacity:1" d="M 558.297,344.224 567.854,344.224 z" id="boundary" inkscape:connector-curvature="0" />
	<path style="fill:none;stroke:red;stroke-width:1px;stroke-linecap:butt;stroke-linejoin:miter;stroke-opacity:1" d="M 548.74,344.224 558.297,344.224 z" id="boundary" inkscape:connector-curvature="0" />
	<path style="fill:none;stroke:red;stroke-width:1px;stroke-linecap:butt;stroke-linejoin:miter;stroke-opacity:1" d="M 567.854,344.224 577.41,344.224 z" id="boundary" inkscape:connector-curvature="0" />
	<path style="fill:none;stroke:red;stroke-width:1px;stroke-linecap:butt;stroke-linejoin:miter;stroke-opacity:1" d="M 577.41,344.224 586.967,344.224 z" id="boundary" inkscape:connector-curvature="0" />
	<path style="fill:none;stroke:red;stroke-width:1px;stroke-linecap:butt;stroke-linejoin:miter;stroke-opacity:1" d="M 632.84,325.11 642.397,324.154 z" id="boundary" inkscape:connector-curvature="0" />
	<path style="fill:none;stroke:red;stroke-width:1px;stroke-linecap:butt;stroke-linejoin:miter;stroke-opacity:1" d="M 623.283,328.933 632.84,325.11 z" id="boundary" inkscape:connector-curvature="0" />
	<path style="fill:none;stroke:red;stroke-width:1px;stroke-linecap:butt;stroke-linejoin:miter;stroke-opacity:1" d="M 650.042,315.553 642.397,324.154 z" id="boundary" inkscape:connector-curvature="0" />
	<path style="fill:none;stroke:red;stroke-width:1px;stroke-linecap:butt;stroke-linejoin:miter;stroke-opacity:1" d="M 650.042,315.553 659.599,310.775 z" id="boundary" inkscape:connector-curvature="0" />
	<path style="fill:none;stroke:red;stroke-width:1px;stroke-linecap:butt;stroke-linejoin:miter;stroke-opacity:1" d="M 586.967,344.224 595.568,339.445 z" id="boundary" inkscape:connector-curvature="0" />
	<path style="fill:none;stroke:red;stroke-width:1px;stroke-linecap:butt;stroke-linejoin:miter;stroke-opacity:1" d="M 623.283,328.933 613.726,333.711 z" id="boundary" inkscape:connector-curvature="0" />
	<path style="fill:none;stroke:red;stroke-width:1px;stroke-linecap:butt;stroke-linejoin:miter;stroke-opacity:1" d="M 613.726,333.711 604.17,334.667 z" id="boundary" inkscape:connector-curvature="0" />
	<path style="fill:none;stroke:red;stroke-width:1px;stroke-linecap:butt;stroke-linejoin:miter;stroke-opacity:1" d="M 595.568,339.445 604.17,334.667 z" id="boundary" inkscape:connector-curvature="0" />
	<path style="fill:none;stroke:red;stroke-width:1px;stroke-linecap:butt;stroke-linejoin:miter;stroke-opacity:1" d="M 836.401,172.2 845.958,172.2 z" id="boundary" inkscape:connector-curvature="0" />
	<path style="fill:none;stroke:red;stroke-width:1px;stroke-linecap:butt;stroke-linejoin:miter;stroke-opacity:1" d="M 827.8,176.979 836.401,172.2 z" id="boundary" inkscape:connector-curvature="0" />
	<path style="fill:none;stroke:red;stroke-width:1px;stroke-linecap:butt;stroke-linejoin:miter;stroke-opacity:1" d="M 854.559,167.422 845.958,172.2 z" id="boundary" inkscape:connector-curvature="0" />
	<path style="fill:none;stroke:red;stroke-width:1px;stroke-linecap:butt;stroke-linejoin:miter;stroke-opacity:1" d="M 854.559,167.422 863.16,162.644 z" id="boundary" inkscape:connector-curvature="0" />
	<path style="fill:none;stroke:red;stroke-width:1px;stroke-linecap:butt;stroke-linejoin:miter;stroke-opacity:1" d="M 863.16,162.644 872.717,160.732 z" id="boundary" inkscape:connector-curvature="0" />
	<path style="fill:none;stroke:red;stroke-width:1px;stroke-linecap:butt;stroke-linejoin:miter;stroke-opacity:1" d="M 809.642,181.757 801.04,186.536 z" id="boundary" inkscape:connector-curvature="0" />
	<path style="fill:none;stroke:red;stroke-width:1px;stroke-linecap:butt;stroke-linejoin:miter;stroke-opacity:1" d="M 801.04,186.536 791.484,186.536 z" id="boundary" inkscape:connector-curvature="0" />
	<path style="fill:none;stroke:red;stroke-width:1px;stroke-linecap:butt;stroke-linejoin:miter;stroke-opacity:1" d="M 818.243,176.979 827.8,176.979 z" id="boundary" inkscape:connector-curvature="0" />
	<path style="fill:none;stroke:red;stroke-width:1px;stroke-linecap:butt;stroke-linejoin:miter;stroke-opacity:1" d="M 809.642,181.757 818.243,176.979 z" id="boundary" inkscape:connector-curvature="0" />
	<path style="fill:none;stroke:red;stroke-width:1px;stroke-linecap:butt;stroke-linejoin:miter;stroke-opacity:1" d="M 791.484,186.536 782.882,191.314 z" id="boundary" inkscape:connector-curvature="0" />
	<path style="fill:none;stroke:red;stroke-width:1px;stroke-linecap:butt;stroke-linejoin:miter;stroke-opacity:1" d="M 910.944,141.618 917.634,133.973 z" id="boundary" inkscape:connector-curvature="0" />
	<path style="fill:none;stroke:red;stroke-width:1px;stroke-linecap:butt;stroke-linejoin:miter;stroke-opacity:1" d="M 917.634,133.973 927.191,129.195 z" id="boundary" inkscape:connector-curvature="0" />
	<path style="fill:none;stroke:red;stroke-width:1px;stroke-linecap:butt;stroke-linejoin:miter;stroke-opacity:1" d="M 910.944,141.618 901.387,146.397 z" id="boundary" inkscape:connector-curvature="0" />
	<path style="fill:none;stroke:red;stroke-width:1px;stroke-linecap:butt;stroke-linejoin:miter;stroke-opacity:1" d="M 927.191,129.195 936.748,124.416 z" id="boundary" inkscape:connector-curvature="0" />
	<path style="fill:none;stroke:red;stroke-width:1px;stroke-linecap:butt;stroke-linejoin:miter;stroke-opacity:1" d="M 872.717,160.732 882.274,155.954 z" id="boundary" inkscape:connector-curvature="0" />
	<path style="fill:none;stroke:red;stroke-width:1px;stroke-linecap:butt;stroke-linejoin:miter;stroke-opacity:1" d="M 891.83,151.175 901.387,146.397 z" id="boundary" inkscape:connector-curvature="0" />
	<path style="fill:none;stroke:red;stroke-width:1px;stroke-linecap:butt;stroke-linejoin:miter;stroke-opacity:1" d="M 882.274,155.954 891.83,151.175 z" id="boundary" inkscape:connector-curvature="0" />
	<path style="fill:none;stroke:red;stroke-width:1px;stroke-linecap:butt;stroke-linejoin:miter;stroke-opacity:1" d="M 726.497,242.921 716.94,241.01 z" id="boundary" inkscape:connector-curvature="0" />
	<path style="fill:none;stroke:red;stroke-width:1px;stroke-linecap:butt;stroke-linejoin:miter;stroke-opacity:1" d="M 710.25,227.63 719.807,222.852 z" id="boundary" inkscape:connector-curvature="0" />
	<path style="fill:none;stroke:red;stroke-width:1px;stroke-linecap:butt;stroke-linejoin:miter;stroke-opacity:1" d="M 719.807,222.852 729.364,218.073 z" id="boundary" inkscape:connector-curvature="0" />
	<path style="fill:none;stroke:red;stroke-width:1px;stroke-linecap:butt;stroke-linejoin:miter;stroke-opacity:1" d="M 738.921,215.206 729.364,218.073 z" id="boundary" inkscape:connector-curvature="0" />
	<path style="fill:none;stroke:red;stroke-width:1px;stroke-linecap:butt;stroke-linejoin:miter;stroke-opacity:1" d="M 747.522,210.428 738.921,215.206 z" id="boundary" inkscape:connector-curvature="0" />
	<path style="fill:none;stroke:red;stroke-width:1px;stroke-linecap:butt;stroke-linejoin:miter;stroke-opacity:1" d="M 731.276,277.326 722.674,282.104 z" id="boundary" inkscape:connector-curvature="0" />
	<path style="fill:none;stroke:red;stroke-width:1px;stroke-linecap:butt;stroke-linejoin:miter;stroke-opacity:1" d="M 726.497,242.921 736.054,245.788 z" id="boundary" inkscape:connector-curvature="0" />
	<path style="fill:none;stroke:red;stroke-width:1px;stroke-linecap:butt;stroke-linejoin:miter;stroke-opacity:1" d="M 738.921,270.636 731.276,277.326 z" id="boundary" inkscape:connector-curvature="0" />
	<path style="fill:none;stroke:red;stroke-width:1px;stroke-linecap:butt;stroke-linejoin:miter;stroke-opacity:1" d="M 764.724,200.871 774.281,196.092 z" id="boundary" inkscape:connector-curvature="0" />
	<path style="fill:none;stroke:red;stroke-width:1px;stroke-linecap:butt;stroke-linejoin:miter;stroke-opacity:1" d="M 764.724,200.871 756.123,205.649 z" id="boundary" inkscape:connector-curvature="0" />
	<path style="fill:none;stroke:red;stroke-width:1px;stroke-linecap:butt;stroke-linejoin:miter;stroke-opacity:1" d="M 774.281,196.092 782.882,191.314 z" id="boundary" inkscape:connector-curvature="0" />
	<path style="fill:none;stroke:red;stroke-width:1px;stroke-linecap:butt;stroke-linejoin:miter;stroke-opacity:1" d="M 756.123,205.649 747.522,210.428 z" id="boundary" inkscape:connector-curvature="0" />
	<path style="fill:none;stroke:red;stroke-width:1px;stroke-linecap:butt;stroke-linejoin:miter;stroke-opacity:1" d="M 742.744,253.434 745.611,262.99 z" id="boundary" inkscape:connector-curvature="0" />
	<path style="fill:none;stroke:red;stroke-width:1px;stroke-linecap:butt;stroke-linejoin:miter;stroke-opacity:1" d="M 745.611,262.99 738.921,270.636 z" id="boundary" inkscape:connector-curvature="0" />
	<path style="fill:none;stroke:red;stroke-width:1px;stroke-linecap:butt;stroke-linejoin:miter;stroke-opacity:1" d="M 736.054,245.788 742.744,253.434 z" id="boundary" inkscape:connector-curvature="0" />
	<circle cx="4" cy="565.942" r="4" fill="#0" id="circle0"/>
	<circle cx="4" cy="575.499" r="4" fill="#0" id="circle1"/>
	<circle cx="4" cy="585.056" r="4" fill="#0" id="circle2"/>
	<circle cx="11.6455" cy="558.297" r="4" fill="#0" id="circle3"/>
	<circle cx="11.6455" cy="591.746" r="4" fill="#0" id="circle4"/>
	<circle cx="16.4239" cy="548.74" r="4" fill="#0" id="circle5"/>
	<circle cx="21.2023" cy="539.183" r="4" fill="#0" id="circle6"/>
	<circle cx="21.2023" cy="592.701" r="4" fill="#0" id="circle7"/>
	<circle cx="25.9807" cy="529.626" r="4" fill="#0" id="circle8"/>
	<circle cx="30.7592" cy="592.701" r="4" fill="#0" id="circle9"/>
	<circle cx="33.6262" cy="521.981" r="4" fill="#0" id="circle10"/>
	<circle cx="39.3603" cy="587.923" r="4" fill="#0" id="circle11"/>
	<circle cx="41.2717" cy="515.291" r="4" fill="#0" id="circle12"/>
	<circle cx="47.9615" cy="507.645" r="4" fill="#0" id="circle13"/>
	<circle cx="48.9171" cy="587.923" r="4" fill="#0" id="circle14"/>
	<circle cx="55.6069" cy="500.956" r="4" fill="#0" id="circle15"/>
	<circle cx="57.5183" cy="583.145" r="4" fill="#0" id="circle16"/>
	<circle cx="59.4297" cy="491.399" r="4" fill="#0" id="circle17"/>
	<circle cx="67.0751" cy="483.753" r="4" fill="#0" id="circle18"/>
	<circle cx="67.0751" cy="583.145" r="4" fill="#0" id="circle19"/>
	<circle cx="74.7206" cy="477.064" r="4" fill="#0" id="circle20"/>
	<circle cx="76.632" cy="583.145" r="4" fill="#0" id="circle21"/>
	<circle cx="81.4104" cy="469.418" r="4" fill="#0" id="circle22"/>
	<circle cx="85.2331" cy="578.366" r="4" fill="#0" id="circle23"/>
	<circle cx="89.0559" cy="462.728" r="4" fill="#0" id="circle24"/>
	<circle cx="94.79" cy="575.499" r="4" fill="#0" id="circle25"/>
	<circle cx="95.7457" cy="455.083" r="4" fill="#0" id="circle26"/>
	<circle cx="103.391" cy="448.393" r="4" fill="#0" id="circle27"/>
	<circle cx="104.347" cy="573.588" r="4" fill="#0" id="circle28"/>
	<circle cx="110.081" cy="440.748" r="4" fill="#0" id="circle29"/>
	<circle cx="112.948" cy="568.809" r="4" fill="#0" id="circle30"/>
	<circle cx="119.638" cy="435.969" r="4" fill="#0" id="circle31"/>
	<circle cx="122.505" cy="566.898" r="4" fill="#0" id="circle32"/>
	<circle cx="127.283" cy="429.279" r="4" fill="#0" id="circle33"/>
	<circle cx="132.062" cy="562.119" r="4" fill="#0" id="circle34"/>
	<circle cx="133.973" cy="421.634" r="4" fill="#0" id="circle35"/>
	<circle cx="141.618" cy="414.944" r="4" fill="#0" id="circle36"/>
	<circle cx="141.618" cy="559.252" r="4" fill="#0" id="circle37"/>
	<circle cx="150.22" cy="410.166" r="4" fill="#0" id="circle38"/>
	<circle cx="151.175" cy="557.341" r="4" fill="#0" id="circle39"/>
	<circle cx="157.865" cy="402.52" r="4" fill="#0" id="circle40"/>
	<circle cx="160.732" cy="552.563" r="4" fill="#0" id="circle41"/>
	<circle cx="165.511" cy="395.83" r="4" fill="#0" id="circle42"/>
	<circle cx="167.422" cy="544.917" r="4" fill="#0" id="circle43"/>
	<circle cx="172.2" cy="388.185" r="4" fill="#0" id="circle44"/>
	<circle cx="176.979" cy="540.139" r="4" fill="#0" id="circle45"/>
	<circle cx="179.846" cy="381.495" r="4" fill="#0" id="circle46"/>
	<circle cx="186.536" cy="373.85" r="4" fill="#0" id="circle47"/>
	<circle cx="186.536" cy="535.36" r="4" fill="#0" id="circle48"/>
	<circle cx="191.314" cy="364.293" r="4" fill="#0" id="circle49"/>
	<circle cx="195.137" cy="530.582" r="4" fill="#0" id="circle50"/>
	<circle cx="200.871" cy="359.514" r="4" fill="#0" id="circle51"/>
	<circle cx="203.738" cy="525.803" r="4" fill="#0" id="circle52"/>
	<circle cx="208.516" cy="352.825" r="4" fill="#0" id="circle53"/>
	<circle cx="212.339" cy="521.025" r="4" fill="#0" id="circle54"/>
	<circle cx="215.206" cy="345.179" r="4" fill="#0" id="circle55"/>
	<circle cx="219.029" cy="327.021" r="4" fill="#0" id="circle56"/>
	<circle cx="220.94" cy="516.247" r="4" fill="#0" id="circle57"/>
	<circle cx="223.807" cy="312.686" r="4" fill="#0" id="circle58"/>
	<circle cx="228.586" cy="293.572" r="4" fill="#0" id="circle59"/>
	<circle cx="228.586" cy="303.129" r="4" fill="#0" id="circle60"/>
	<circle cx="229.541" cy="511.468" r="4" fill="#0" id="circle61"/>
	<circle cx="233.364" cy="274.459" r="4" fill="#0" id="circle62"/>
	<circle cx="233.364" cy="284.015" r="4" fill="#0" id="circle63"/>
	<circle cx="238.143" cy="506.69" r="4" fill="#0" id="circle64"/>
	<circle cx="241.01" cy="266.813" r="4" fill="#0" id="circle65"/>
	<circle cx="246.744" cy="501.911" r="4" fill="#0" id="circle66"/>
	<circle cx="248.655" cy="259.168" r="4" fill="#0" id="circle67"/>
	<circle cx="256.301" cy="501.911" r="4" fill="#0" id="circle68"/>
	<circle cx="258.212" cy="254.389" r="4" fill="#0" id="circle69"/>
	<circle cx="264.902" cy="497.133" r="4" fill="#0" id="circle70"/>
	<circle cx="267.769" cy="252.478" r="4" fill="#0" id="circle71"/>
	<circle cx="274.459" cy="497.133" r="4" fill="#0" id="circle72"/>
	<circle cx="277.326" cy="252.478" r="4" fill="#0" id="circle73"/>
	<circle cx="284.015" cy="497.133" r="4" fill="#0" id="circle74"/>
	<circle cx="286.882" cy="252.478" r="4" fill="#0" id="circle75"/>
	<circle cx="293.572" cy="496.177" r="4" fill="#0" id="circle76"/>
	<circle cx="296.439" cy="252.478" r="4" fill="#0" id="circle77"/>
	<circle cx="303.129" cy="492.355" r="4" fill="#0" id="circle78"/>
	<circle cx="305.996" cy="255.345" r="4" fill="#0" id="circle79"/>
	<circle cx="311.73" cy="487.576" r="4" fill="#0" id="circle80"/>
	<circle cx="315.553" cy="257.256" r="4" fill="#0" id="circle81"/>
	<circle cx="321.287" cy="487.576" r="4" fill="#0" id="circle82"/>
	<circle cx="325.11" cy="257.256" r="4" fill="#0" id="circle83"/>
	<circle cx="330.844" cy="487.576" r="4" fill="#0" id="circle84"/>
	<circle cx="333.711" cy="262.035" r="4" fill="#0" id="circle85"/>
	<circle cx="340.401" cy="487.576" r="4" fill="#0" id="circle86"/>
	<circle cx="343.268" cy="262.035" r="4" fill="#0" id="circle87"/>
	<circle cx="349.002" cy="482.798" r="4" fill="#0" id="circle88"/>
	<circle cx="352.825" cy="263.946" r="4" fill="#0" id="circle89"/>
	<circle cx="358.559" cy="482.798" r="4" fill="#0" id="circle90"/>
	<circle cx="362.382" cy="266.813" r="4" fill="#0" id="circle91"/>
	<circle cx="366.204" cy="476.108" r="4" fill="#0" id="circle92"/>
	<circle cx="370.983" cy="262.035" r="4" fill="#0" id="circle93"/>
	<circle cx="375.761" cy="471.329" r="4" fill="#0" id="circle94"/>
	<circle cx="379.584" cy="257.256" r="4" fill="#0" id="circle95"/>
	<circle cx="385.318" cy="466.551" r="4" fill="#0" id="circle96"/>
	<circle cx="389.141" cy="252.478" r="4" fill="#0" id="circle97"/>
	<circle cx="392.008" cy="458.906" r="4" fill="#0" id="circle98"/>
	<circle cx="398.697" cy="247.699" r="4" fill="#0" id="circle99"/>
	<circle cx="400.609" cy="454.127" r="4" fill="#0" id="circle100"/>
	<circle cx="408.254" cy="242.921" r="4" fill="#0" id="circle101"/>
	<circle cx="408.254" cy="448.393" r="4" fill="#0" id="circle102"/>
	<circle cx="415.9" cy="411.121" r="4" fill="#0" id="circle103"/>
	<circle cx="415.9" cy="439.792" r="4" fill="#0" id="circle104"/>
	<circle cx="417.811" cy="238.143" r="4" fill="#0" id="circle105"/>
	<circle cx="420.678" cy="419.723" r="4" fill="#0" id="circle106"/>
	<circle cx="423.545" cy="404.432" r="4" fill="#0" id="circle107"/>
	<circle cx="423.545" cy="433.102" r="4" fill="#0" id="circle108"/>
	<circle cx="424.501" cy="226.674" r="4" fill="#0" id="circle109"/>
	<circle cx="430.235" cy="422.59" r="4" fill="#0" id="circle110"/>
	<circle cx="432.146" cy="219.029" r="4" fill="#0" id="circle111"/>
	<circle cx="433.102" cy="399.653" r="4" fill="#0" id="circle112"/>
	<circle cx="438.836" cy="207.561" r="4" fill="#0" id="circle113"/>
	<circle cx="442.659" cy="394.875" r="4" fill="#0" id="circle114"/>
	<circle cx="446.482" cy="199.915" r="4" fill="#0" id="circle115"/>
	<circle cx="449.349" cy="387.229" r="4" fill="#0" id="circle116"/>
	<circle cx="454.127" cy="192.27" r="4" fill="#0" id="circle117"/>
	<circle cx="458.906" cy="182.713" r="4" fill="#0" id="circle118"/>
	<circle cx="458.906" cy="382.451" r="4" fill="#0" id="circle119"/>
	<circle cx="466.551" cy="176.023" r="4" fill="#0" id="circle120"/>
	<circle cx="468.462" cy="377.672" r="4" fill="#0" id="circle121"/>
	<circle cx="475.152" cy="171.245" r="4" fill="#0" id="circle122"/>
	<circle cx="478.019" cy="372.894" r="4" fill="#0" id="circle123"/>
	<circle cx="483.753" cy="166.466" r="4" fill="#0" id="circle124"/>
	<circle cx="486.62" cy="368.116" r="4" fill="#0" id="circle125"/>
	<circle cx="492.355" cy="161.688" r="4" fill="#0" id="circle126"/>
	<circle cx="495.222" cy="363.337" r="4" fill="#0" id="circle127"/>
	<circle cx="500.956" cy="154.998" r="4" fill="#0" id="circle128"/>
	<circle cx="503.823" cy="357.603" r="4" fill="#0" id="circle129"/>
	<circle cx="510.513" cy="150.22" r="4" fill="#0" id="circle130"/>
	<circle cx="511.468" cy="349.002" r="4" fill="#0" id="circle131"/>
	<circle cx="520.069" cy="145.441" r="4" fill="#0" id="circle132"/>
	<circle cx="520.069" cy="344.224" r="4" fill="#0" id="circle133"/>
	<circle cx="529.626" cy="140.663" r="4" fill="#0" id="circle134"/>
	<circle cx="529.626" cy="344.224" r="4" fill="#0" id="circle135"/>
	<circle cx="537.272" cy="133.017" r="4" fill="#0" id="circle136"/>
	<circle cx="539.183" cy="344.224" r="4" fill="#0" id="circle137"/>
	<circle cx="546.829" cy="128.239" r="4" fill="#0" id="circle138"/>
	<circle cx="548.74" cy="344.224" r="4" fill="#0" id="circle139"/>
	<circle cx="556.385" cy="123.461" r="4" fill="#0" id="circle140"/>
	<circle cx="558.297" cy="344.224" r="4" fill="#0" id="circle141"/>
	<circle cx="565.942" cy="123.461" r="4" fill="#0" id="circle142"/>
	<circle cx="567.854" cy="344.224" r="4" fill="#0" id="circle143"/>
	<circle cx="574.543" cy="118.682" r="4" fill="#0" id="circle144"/>
	<circle cx="577.41" cy="344.224" r="4" fill="#0" id="circle145"/>
	<circle cx="583.145" cy="113.904" r="4" fill="#0" id="circle146"/>
	<circle cx="586.967" cy="344.224" r="4" fill="#0" id="circle147"/>
	<circle cx="591.746" cy="109.125" r="4" fill="#0" id="circle148"/>
	<circle cx="595.568" cy="339.445" r="4" fill="#0" id="circle149"/>
	<circle cx="601.303" cy="109.125" r="4" fill="#0" id="circle150"/>
	<circle cx="604.17" cy="334.667" r="4" fill="#0" id="circle151"/>
	<circle cx="609.904" cy="104.347" r="4" fill="#0" id="circle152"/>
	<circle cx="613.726" cy="333.711" r="4" fill="#0" id="circle153"/>
	<circle cx="618.505" cy="99.5684" r="4" fill="#0" id="circle154"/>
	<circle cx="623.283" cy="328.933" r="4" fill="#0" id="circle155"/>
	<circle cx="627.106" cy="94.79" r="4" fill="#0" id="circle156"/>
	<circle cx="632.84" cy="325.11" r="4" fill="#0" id="circle157"/>
	<circle cx="636.663" cy="94.79" r="4" fill="#0" id="circle158"/>
	<circle cx="642.397" cy="324.154" r="4" fill="#0" id="circle159"/>
	<circle cx="645.264" cy="90.0116" r="4" fill="#0" id="circle160"/>
	<circle cx="650.042" cy="315.553" r="4" fill="#0" id="circle161"/>
	<circle cx="653.865" cy="83.3218" r="4" fill="#0" id="circle162"/>
	<circle cx="659.599" cy="310.775" r="4" fill="#0" id="circle163"/>
	<circle cx="663.422" cy="80.4547" r="4" fill="#0" id="circle164"/>
	<circle cx="669.156" cy="305.996" r="4" fill="#0" id="circle165"/>
	<circle cx="672.979" cy="78.5434" r="4" fill="#0" id="circle166"/>
	<circle cx="678.713" cy="305.996" r="4" fill="#0" id="circle167"/>
	<circle cx="682.536" cy="75.6763" r="4" fill="#0" id="circle168"/>
	<circle cx="688.27" cy="301.218" r="4" fill="#0" id="circle169"/>
	<circle cx="692.092" cy="73.7649" r="4" fill="#0" id="circle170"/>
	<circle cx="696.871" cy="296.439" r="4" fill="#0" id="circle171"/>
	<circle cx="699.738" cy="66.1195" r="4" fill="#0" id="circle172"/>
	<circle cx="702.605" cy="234.32" r="4" fill="#0" id="circle173"/>
	<circle cx="705.472" cy="291.661" r="4" fill="#0" id="circle174"/>
	<circle cx="707.383" cy="242.921" r="4" fill="#0" id="circle175"/>
	<circle cx="709.295" cy="66.1195" r="4" fill="#0" id="circle176"/>
	<circle cx="710.25" cy="227.63" r="4" fill="#0" id="circle177"/>
	<circle cx="712.162" cy="105.303" r="4" fill="#0" id="circle178"/>
	<circle cx="714.073" cy="286.882" r="4" fill="#0" id="circle179"/>
	<circle cx="716.94" cy="113.904" r="4" fill="#0" id="circle180"/>
	<circle cx="716.94" cy="241.01" r="4" fill="#0" id="circle181"/>
	<circle cx="718.852" cy="66.1195" r="4" fill="#0" id="circle182"/>
	<circle cx="719.807" cy="98.6127" r="4" fill="#0" id="circle183"/>
	<circle cx="719.807" cy="222.852" r="4" fill="#0" id="circle184"/>
	<circle cx="722.674" cy="282.104" r="4" fill="#0" id="circle185"/>
	<circle cx="724.586" cy="89.0559" r="4" fill="#0" id="circle186"/>
	<circle cx="725.541" cy="109.125" r="4" fill="#0" id="circle187"/>
	<circle cx="726.497" cy="242.921" r="4" fill="#0" id="circle188"/>
	<circle cx="727.453" cy="70.8979" r="4" fill="#0" id="circle189"/>
	<circle cx="729.364" cy="218.073" r="4" fill="#0" id="circle190"/>
	<circle cx="731.276" cy="80.4547" r="4" fill="#0" id="circle191"/>
	<circle cx="731.276" cy="277.326" r="4" fill="#0" id="circle192"/>
	<circle cx="734.143" cy="104.347" r="4" fill="#0" id="circle193"/>
	<circle cx="736.054" cy="245.788" r="4" fill="#0" id="circle194"/>
	<circle cx="738.921" cy="215.206" r="4" fill="#0" id="circle195"/>
	<circle cx="738.921" cy="270.636" r="4" fill="#0" id="circle196"/>
	<circle cx="742.744" cy="99.5684" r="4" fill="#0" id="circle197"/>
	<circle cx="742.744" cy="253.434" r="4" fill="#0" id="circle198"/>
	<circle cx="745.611" cy="262.99" r="4" fill="#0" id="circle199"/>
	<circle cx="747.522" cy="210.428" r="4" fill="#0" id="circle200"/>
	<circle cx="750.389" cy="91.9229" r="4" fill="#0" id="circle201"/>
	<circle cx="756.123" cy="205.649" r="4" fill="#0" id="circle202"/>
	<circle cx="758.035" cy="85.2331" r="4" fill="#0" id="circle203"/>
	<circle cx="764.724" cy="200.871" r="4" fill="#0" id="circle204"/>
	<circle cx="766.636" cy="80.4547" r="4" fill="#0" id="circle205"/>
	<circle cx="774.281" cy="196.092" r="4" fill="#0" id="circle206"/>
	<circle cx="775.237" cy="75.6763" r="4" fill="#0" id="circle207"/>
	<circle cx="782.882" cy="68.9865" r="4" fill="#0" id="circle208"/>
	<circle cx="782.882" cy="191.314" r="4" fill="#0" id="circle209"/>
	<circle cx="791.484" cy="186.536" r="4" fill="#0" id="circle210"/>
	<circle cx="792.439" cy="64.2081" r="4" fill="#0" id="circle211"/>
	<circle cx="801.04" cy="186.536" r="4" fill="#0" id="circle212"/>
	<circle cx="801.996" cy="59.4297" r="4" fill="#0" id="circle213"/>
	<circle cx="809.642" cy="181.757" r="4" fill="#0" id="circle214"/>
	<circle cx="811.553" cy="54.6513" r="4" fill="#0" id="circle215"/>
	<circle cx="818.243" cy="176.979" r="4" fill="#0" id="circle216"/>
	<circle cx="819.198" cy="47.0058" r="4" fill="#0" id="circle217"/>
	<circle cx="827.8" cy="176.979" r="4" fill="#0" id="circle218"/>
	<circle cx="828.755" cy="42.2274" r="4" fill="#0" id="circle219"/>
	<circle cx="836.401" cy="172.2" r="4" fill="#0" id="circle220"/>
	<circle cx="838.312" cy="37.4489" r="4" fill="#0" id="circle221"/>
	<circle cx="845.958" cy="172.2" r="4" fill="#0" id="circle222"/>
	<circle cx="847.869" cy="32.6705" r="4" fill="#0" id="circle223"/>
	<circle cx="854.559" cy="167.422" r="4" fill="#0" id="circle224"/>
	<circle cx="856.47" cy="27.8921" r="4" fill="#0" id="circle225"/>
	<circle cx="863.16" cy="162.644" r="4" fill="#0" id="circle226"/>
	<circle cx="865.071" cy="23.1137" r="4" fill="#0" id="circle227"/>
	<circle cx="872.717" cy="160.732" r="4" fill="#0" id="circle228"/>
	<circle cx="873.672" cy="18.3353" r="4" fill="#0" id="circle229"/>
	<circle cx="882.274" cy="155.954" r="4" fill="#0" id="circle230"/>
	<circle cx="883.229" cy="18.3353" r="4" fill="#0" id="circle231"/>
	<circle cx="891.83" cy="13.5568" r="4" fill="#0" id="circle232"/>
	<circle cx="891.83" cy="151.175" r="4" fill="#0" id="circle233"/>
	<circle cx="901.387" cy="13.5568" r="4" fill="#0" id="circle234"/>
	<circle cx="901.387" cy="146.397" r="4" fill="#0" id="circle235"/>
	<circle cx="910.944" cy="13.5568" r="4" fill="#0" id="circle236"/>
	<circle cx="910.944" cy="141.618" r="4" fill="#0" id="circle237"/>
	<circle cx="917.634" cy="133.973" r="4" fill="#0" id="circle238"/>
	<circle cx="919.545" cy="8.77842" r="4" fill="#0" id="circle239"/>
	<circle cx="927.191" cy="129.195" r="4" fill="#0" id="circle240"/>
	<circle cx="929.102" cy="8.77842" r="4" fill="#0" id="circle241"/>
	<circle cx="936.748" cy="124.416" r="4" fill="#0" id="circle242"/>
	<circle cx="937.703" cy="4" r="4" fill="#0" id="circle243"/>
	<circle cx="945.349" cy="119.638" r="4" fill="#0" id="circle244"/>
	<circle cx="947.26" cy="4" r="4" fill="#0" id="circle245"/>
	<circle cx="953.95" cy="114.859" r="4" fill="#0" id="circle246"/>
	<circle cx="956.817" cy="4" r="4" fill="#0" id="circle247"/>
	<circle cx="962.551" cy="109.125" r="4" fill="#0" id="circle248"/>
	<circle cx="966.374" cy="4" r="4" fill="#0" id="circle249"/>
	<circle cx="970.197" cy="100.524" r="4" fill="#0" id="circle250"/>
	<circle cx="974.019" cy="10.6898" r="4" fill="#0" id="circle251"/>
	<circle cx="977.842" cy="93.8343" r="4" fill="#0" id="circle252"/>
	<circle cx="982.62" cy="15.4682" r="4" fill="#0" id="circle253"/>
	<circle cx="984.532" cy="81.4104" r="4" fill="#0" id="circle254"/>
	<circle cx="989.31" cy="23.1137" r="4" fill="#0" id="circle255"/>
	<circle cx="989.31" cy="71.8536" r="4" fill="#0" id="circle256"/>
	<circle cx="994.089" cy="31.7148" r="4" fill="#0" id="circle257"/>
	<circle cx="994.089" cy="43.183" r="4" fill="#0" id="circle258"/>
	<circle cx="994.089" cy="62.2967" r="4" fill="#0" id="circle259"/>
	<circle cx="996" cy="52.7399" r="4" fill="#0" id="circle260"/>
	</g>
</svg>