<?xml version="1.0" encoding="UTF-8" standalone="no"?>
<!-- Created with CurveBenchmark -->
<svg
	xmlns:dc="http://purl.org/dc/elements/1.1/"
	xmlns:cc="http://creativecommons.org/ns#"
	xmlns:rdf="http://www.w3.org/1999/02/22-rdf-syntax-ns#"
	xmlns:svg="http://www.w3.org/2000/svg"
	xmlns="http://www.w3.org/2000/svg"
	xmlns:sodipodi="http://sodipodi.sourceforge.net/DTD/sodipodi-0.dtd"
	xmlns:inkscape="http://www.inkscape.org/namespaces/inkscape"
	width="1000"
	height="1000"
	id="svg2"
	version="1.1"
	sodipodi:docname="manifold/gathan1-swordfishes.png.txt">
<defs
	id="defs4" />
<metadata
	id="metadata7">
	<rdf:RDF>
		<cc:Work
			rdf:about="">
			<dc:format>image/svg+xml</dc:format>
			<dc:type
				rdf:resource="http://purl.org/dc/dcmitype/StillImage" />
			<dc:title></dc:title>
		</cc:Work>
	</rdf:RDF>
</metadata>
<g
	inkscape:label="Layer 1"
	inkscape:groupmode="layer"
	id="layer1">
	<path style="fill:none;stroke:red;stroke-width:1px;stroke-linecap:butt;stroke-linejoin:miter;stroke-opacity:1" d="M 4,4 28.2863,7.73635 z" id="boundary" inkscape:connector-curvature="0" />
	<path style="fill:none;stroke:red;stroke-width:1px;stroke-linecap:butt;stroke-linejoin:miter;stroke-opacity:1" d="M 13.3409,20.8136 4,4 z" id="boundary" inkscape:connector-curvature="0" />
	<path style="fill:none;stroke:red;stroke-width:1px;stroke-linecap:butt;stroke-linejoin:miter;stroke-opacity:1" d="M 26.4181,35.7589 13.3409,20.8136 z" id="boundary" inkscape:connector-curvature="0" />
	<path style="fill:none;stroke:red;stroke-width:1px;stroke-linecap:butt;stroke-linejoin:miter;stroke-opacity:1" d="M 28.2863,7.73635 41.3635,22.6817 z" id="boundary" inkscape:connector-curvature="0" />
	<path style="fill:none;stroke:red;stroke-width:1px;stroke-linecap:butt;stroke-linejoin:miter;stroke-opacity:1" d="M 41.3635,46.968 26.4181,35.7589 z" id="boundary" inkscape:connector-curvature="0" />
	<path style="fill:none;stroke:red;stroke-width:1px;stroke-linecap:butt;stroke-linejoin:miter;stroke-opacity:1" d="M 60.0452,30.1544 41.3635,22.6817 z" id="boundary" inkscape:connector-curvature="0" />
	<path style="fill:none;stroke:red;stroke-width:1px;stroke-linecap:butt;stroke-linejoin:miter;stroke-opacity:1" d="M 60.0452,30.1544 73.1224,45.0998 z" id="boundary" inkscape:connector-curvature="0" />
	<path style="fill:none;stroke:red;stroke-width:1px;stroke-linecap:butt;stroke-linejoin:miter;stroke-opacity:1" d="M 89.936,54.4407 73.1224,45.0998 z" id="boundary" inkscape:connector-curvature="0" />
	<path style="fill:none;stroke:red;stroke-width:1px;stroke-linecap:butt;stroke-linejoin:miter;stroke-opacity:1" d="M 58.177,56.3089 41.3635,46.968 z" id="boundary" inkscape:connector-curvature="0" />
	<path style="fill:none;stroke:red;stroke-width:1px;stroke-linecap:butt;stroke-linejoin:miter;stroke-opacity:1" d="M 71.2542,71.2542 58.177,56.3089 z" id="boundary" inkscape:connector-curvature="0" />
	<path style="fill:none;stroke:red;stroke-width:1px;stroke-linecap:butt;stroke-linejoin:miter;stroke-opacity:1" d="M 86.1996,84.3315 71.2542,71.2542 z" id="boundary" inkscape:connector-curvature="0" />
	<path style="fill:none;stroke:red;stroke-width:1px;stroke-linecap:butt;stroke-linejoin:miter;stroke-opacity:1" d="M 89.936,54.4407 104.881,65.6497 z" id="boundary" inkscape:connector-curvature="0" />
	<path style="fill:none;stroke:red;stroke-width:1px;stroke-linecap:butt;stroke-linejoin:miter;stroke-opacity:1" d="M 86.1996,84.3315 103.013,93.6723 z" id="boundary" inkscape:connector-curvature="0" />
	<path style="fill:none;stroke:red;stroke-width:1px;stroke-linecap:butt;stroke-linejoin:miter;stroke-opacity:1" d="M 103.013,93.6723 117.959,106.75 z" id="boundary" inkscape:connector-curvature="0" />
	<path style="fill:none;stroke:red;stroke-width:1px;stroke-linecap:butt;stroke-linejoin:miter;stroke-opacity:1" d="M 117.959,106.75 131.036,121.695 z" id="boundary" inkscape:connector-curvature="0" />
	<path style="fill:none;stroke:red;stroke-width:1px;stroke-linecap:butt;stroke-linejoin:miter;stroke-opacity:1" d="M 104.881,65.6497 121.695,74.9906 z" id="boundary" inkscape:connector-curvature="0" />
	<path style="fill:none;stroke:red;stroke-width:1px;stroke-linecap:butt;stroke-linejoin:miter;stroke-opacity:1" d="M 140.377,82.4633 153.454,97.4087 z" id="boundary" inkscape:connector-curvature="0" />
	<path style="fill:none;stroke:red;stroke-width:1px;stroke-linecap:butt;stroke-linejoin:miter;stroke-opacity:1" d="M 172.136,104.881 153.454,97.4087 z" id="boundary" inkscape:connector-curvature="0" />
	<path style="fill:none;stroke:red;stroke-width:1px;stroke-linecap:butt;stroke-linejoin:miter;stroke-opacity:1" d="M 131.036,121.695 145.981,134.772 z" id="boundary" inkscape:connector-curvature="0" />
	<path style="fill:none;stroke:red;stroke-width:1px;stroke-linecap:butt;stroke-linejoin:miter;stroke-opacity:1" d="M 159.058,149.718 145.981,134.772 z" id="boundary" inkscape:connector-curvature="0" />
	<path style="fill:none;stroke:red;stroke-width:1px;stroke-linecap:butt;stroke-linejoin:miter;stroke-opacity:1" d="M 121.695,74.9906 140.377,82.4633 z" id="boundary" inkscape:connector-curvature="0" />
	<path style="fill:none;stroke:red;stroke-width:1px;stroke-linecap:butt;stroke-linejoin:miter;stroke-opacity:1" d="M 174.004,162.795 159.058,149.718 z" id="boundary" inkscape:connector-curvature="0" />
	<path style="fill:none;stroke:red;stroke-width:1px;stroke-linecap:butt;stroke-linejoin:miter;stroke-opacity:1" d="M 188.949,114.222 172.136,104.881 z" id="boundary" inkscape:connector-curvature="0" />
	<path style="fill:none;stroke:red;stroke-width:1px;stroke-linecap:butt;stroke-linejoin:miter;stroke-opacity:1" d="M 207.631,119.827 188.949,114.222 z" id="boundary" inkscape:connector-curvature="0" />
	<path style="fill:none;stroke:red;stroke-width:1px;stroke-linecap:butt;stroke-linejoin:miter;stroke-opacity:1" d="M 243.126,129.168 224.444,129.168 z" id="boundary" inkscape:connector-curvature="0" />
	<path style="fill:none;stroke:red;stroke-width:1px;stroke-linecap:butt;stroke-linejoin:miter;stroke-opacity:1" d="M 224.444,129.168 207.631,119.827 z" id="boundary" inkscape:connector-curvature="0" />
	<path style="fill:none;stroke:red;stroke-width:1px;stroke-linecap:butt;stroke-linejoin:miter;stroke-opacity:1" d="M 261.808,129.168 243.126,129.168 z" id="boundary" inkscape:connector-curvature="0" />
	<path style="fill:none;stroke:red;stroke-width:1px;stroke-linecap:butt;stroke-linejoin:miter;stroke-opacity:1" d="M 476.648,129.168 495.33,119.827 z" id="boundary" inkscape:connector-curvature="0" />
	<path style="fill:none;stroke:red;stroke-width:1px;stroke-linecap:butt;stroke-linejoin:miter;stroke-opacity:1" d="M 476.648,129.168 457.966,129.168 z" id="boundary" inkscape:connector-curvature="0" />
	<path style="fill:none;stroke:red;stroke-width:1px;stroke-linecap:butt;stroke-linejoin:miter;stroke-opacity:1" d="M 439.284,138.508 457.966,129.168 z" id="boundary" inkscape:connector-curvature="0" />
	<path style="fill:none;stroke:red;stroke-width:1px;stroke-linecap:butt;stroke-linejoin:miter;stroke-opacity:1" d="M 514.011,119.827 495.33,119.827 z" id="boundary" inkscape:connector-curvature="0" />
	<path style="fill:none;stroke:red;stroke-width:1px;stroke-linecap:butt;stroke-linejoin:miter;stroke-opacity:1" d="M 261.808,129.168 278.621,138.508 z" id="boundary" inkscape:connector-curvature="0" />
	<path style="fill:none;stroke:red;stroke-width:1px;stroke-linecap:butt;stroke-linejoin:miter;stroke-opacity:1" d="M 278.621,138.508 297.303,138.508 z" id="boundary" inkscape:connector-curvature="0" />
	<path style="fill:none;stroke:red;stroke-width:1px;stroke-linecap:butt;stroke-linejoin:miter;stroke-opacity:1" d="M 297.303,138.508 315.985,138.508 z" id="boundary" inkscape:connector-curvature="0" />
	<path style="fill:none;stroke:red;stroke-width:1px;stroke-linecap:butt;stroke-linejoin:miter;stroke-opacity:1" d="M 315.985,138.508 332.798,147.849 z" id="boundary" inkscape:connector-curvature="0" />
	<path style="fill:none;stroke:red;stroke-width:1px;stroke-linecap:butt;stroke-linejoin:miter;stroke-opacity:1" d="M 351.48,147.849 332.798,147.849 z" id="boundary" inkscape:connector-curvature="0" />
	<path style="fill:none;stroke:red;stroke-width:1px;stroke-linecap:butt;stroke-linejoin:miter;stroke-opacity:1" d="M 439.284,138.508 422.471,147.849 z" id="boundary" inkscape:connector-curvature="0" />
	<path style="fill:none;stroke:red;stroke-width:1px;stroke-linecap:butt;stroke-linejoin:miter;stroke-opacity:1" d="M 422.471,147.849 403.789,147.849 z" id="boundary" inkscape:connector-curvature="0" />
	<path style="fill:none;stroke:red;stroke-width:1px;stroke-linecap:butt;stroke-linejoin:miter;stroke-opacity:1" d="M 403.789,147.849 386.976,157.19 z" id="boundary" inkscape:connector-curvature="0" />
	<path style="fill:none;stroke:red;stroke-width:1px;stroke-linecap:butt;stroke-linejoin:miter;stroke-opacity:1" d="M 386.976,157.19 368.294,157.19 z" id="boundary" inkscape:connector-curvature="0" />
	<path style="fill:none;stroke:red;stroke-width:1px;stroke-linecap:butt;stroke-linejoin:miter;stroke-opacity:1" d="M 368.294,157.19 351.48,147.849 z" id="boundary" inkscape:connector-curvature="0" />
	<path style="fill:none;stroke:red;stroke-width:1px;stroke-linecap:butt;stroke-linejoin:miter;stroke-opacity:1" d="M 532.693,119.827 514.011,119.827 z" id="boundary" inkscape:connector-curvature="0" />
	<path style="fill:none;stroke:red;stroke-width:1px;stroke-linecap:butt;stroke-linejoin:miter;stroke-opacity:1" d="M 162.795,181.476 177.74,194.554 z" id="boundary" inkscape:connector-curvature="0" />
	<path style="fill:none;stroke:red;stroke-width:1px;stroke-linecap:butt;stroke-linejoin:miter;stroke-opacity:1" d="M 177.74,194.554 190.817,209.499 z" id="boundary" inkscape:connector-curvature="0" />
	<path style="fill:none;stroke:red;stroke-width:1px;stroke-linecap:butt;stroke-linejoin:miter;stroke-opacity:1" d="M 190.817,209.499 205.763,222.576 z" id="boundary" inkscape:connector-curvature="0" />
	<path style="fill:none;stroke:red;stroke-width:1px;stroke-linecap:butt;stroke-linejoin:miter;stroke-opacity:1" d="M 205.763,222.576 213.235,241.258 z" id="boundary" inkscape:connector-curvature="0" />
	<path style="fill:none;stroke:red;stroke-width:1px;stroke-linecap:butt;stroke-linejoin:miter;stroke-opacity:1" d="M 228.181,252.467 213.235,241.258 z" id="boundary" inkscape:connector-curvature="0" />
	<path style="fill:none;stroke:red;stroke-width:1px;stroke-linecap:butt;stroke-linejoin:miter;stroke-opacity:1" d="M 239.39,267.412 228.181,252.467 z" id="boundary" inkscape:connector-curvature="0" />
	<path style="fill:none;stroke:red;stroke-width:1px;stroke-linecap:butt;stroke-linejoin:miter;stroke-opacity:1" d="M 274.885,314.117 261.808,299.171 z" id="boundary" inkscape:connector-curvature="0" />
	<path style="fill:none;stroke:red;stroke-width:1px;stroke-linecap:butt;stroke-linejoin:miter;stroke-opacity:1" d="M 261.808,299.171 254.335,280.49 z" id="boundary" inkscape:connector-curvature="0" />
	<path style="fill:none;stroke:red;stroke-width:1px;stroke-linecap:butt;stroke-linejoin:miter;stroke-opacity:1" d="M 274.885,314.117 265.544,330.93 z" id="boundary" inkscape:connector-curvature="0" />
	<path style="fill:none;stroke:red;stroke-width:1px;stroke-linecap:butt;stroke-linejoin:miter;stroke-opacity:1" d="M 239.39,267.412 254.335,280.49 z" id="boundary" inkscape:connector-curvature="0" />
	<path style="fill:none;stroke:red;stroke-width:1px;stroke-linecap:butt;stroke-linejoin:miter;stroke-opacity:1" d="M 265.544,330.93 265.544,349.612 z" id="boundary" inkscape:connector-curvature="0" />
	<path style="fill:none;stroke:red;stroke-width:1px;stroke-linecap:butt;stroke-linejoin:miter;stroke-opacity:1" d="M 265.544,368.294 265.544,349.612 z" id="boundary" inkscape:connector-curvature="0" />
	<path style="fill:none;stroke:red;stroke-width:1px;stroke-linecap:butt;stroke-linejoin:miter;stroke-opacity:1" d="M 274.885,403.789 265.544,386.976 z" id="boundary" inkscape:connector-curvature="0" />
	<path style="fill:none;stroke:red;stroke-width:1px;stroke-linecap:butt;stroke-linejoin:miter;stroke-opacity:1" d="M 265.544,386.976 265.544,368.294 z" id="boundary" inkscape:connector-curvature="0" />
	<path style="fill:none;stroke:red;stroke-width:1px;stroke-linecap:butt;stroke-linejoin:miter;stroke-opacity:1" d="M 314.117,355.217 332.798,358.953 z" id="boundary" inkscape:connector-curvature="0" />
	<path style="fill:none;stroke:red;stroke-width:1px;stroke-linecap:butt;stroke-linejoin:miter;stroke-opacity:1" d="M 314.117,373.898 314.117,355.217 z" id="boundary" inkscape:connector-curvature="0" />
	<path style="fill:none;stroke:red;stroke-width:1px;stroke-linecap:butt;stroke-linejoin:miter;stroke-opacity:1" d="M 314.117,392.58 314.117,373.898 z" id="boundary" inkscape:connector-curvature="0" />
	<path style="fill:none;stroke:red;stroke-width:1px;stroke-linecap:butt;stroke-linejoin:miter;stroke-opacity:1" d="M 302.908,424.339 284.226,420.603 z" id="boundary" inkscape:connector-curvature="0" />
	<path style="fill:none;stroke:red;stroke-width:1px;stroke-linecap:butt;stroke-linejoin:miter;stroke-opacity:1" d="M 284.226,420.603 274.885,403.789 z" id="boundary" inkscape:connector-curvature="0" />
	<path style="fill:none;stroke:red;stroke-width:1px;stroke-linecap:butt;stroke-linejoin:miter;stroke-opacity:1" d="M 332.798,358.953 345.876,373.898 z" id="boundary" inkscape:connector-curvature="0" />
	<path style="fill:none;stroke:red;stroke-width:1px;stroke-linecap:butt;stroke-linejoin:miter;stroke-opacity:1" d="M 377.635,396.316 392.58,409.394 z" id="boundary" inkscape:connector-curvature="0" />
	<path style="fill:none;stroke:red;stroke-width:1px;stroke-linecap:butt;stroke-linejoin:miter;stroke-opacity:1" d="M 377.635,396.316 360.821,386.976 z" id="boundary" inkscape:connector-curvature="0" />
	<path style="fill:none;stroke:red;stroke-width:1px;stroke-linecap:butt;stroke-linejoin:miter;stroke-opacity:1" d="M 360.821,386.976 345.876,373.898 z" id="boundary" inkscape:connector-curvature="0" />
	<path style="fill:none;stroke:red;stroke-width:1px;stroke-linecap:butt;stroke-linejoin:miter;stroke-opacity:1" d="M 409.394,418.734 392.58,409.394 z" id="boundary" inkscape:connector-curvature="0" />
	<path style="fill:none;stroke:red;stroke-width:1px;stroke-linecap:butt;stroke-linejoin:miter;stroke-opacity:1" d="M 510.275,187.081 525.22,174.004 z" id="boundary" inkscape:connector-curvature="0" />
	<path style="fill:none;stroke:red;stroke-width:1px;stroke-linecap:butt;stroke-linejoin:miter;stroke-opacity:1" d="M 510.275,187.081 500.934,205.763 z" id="boundary" inkscape:connector-curvature="0" />
	<path style="fill:none;stroke:red;stroke-width:1px;stroke-linecap:butt;stroke-linejoin:miter;stroke-opacity:1" d="M 504.67,224.444 514.011,241.258 z" id="boundary" inkscape:connector-curvature="0" />
	<path style="fill:none;stroke:red;stroke-width:1px;stroke-linecap:butt;stroke-linejoin:miter;stroke-opacity:1" d="M 514.011,241.258 519.616,259.94 z" id="boundary" inkscape:connector-curvature="0" />
	<path style="fill:none;stroke:red;stroke-width:1px;stroke-linecap:butt;stroke-linejoin:miter;stroke-opacity:1" d="M 534.561,271.149 519.616,259.94 z" id="boundary" inkscape:connector-curvature="0" />
	<path style="fill:none;stroke:red;stroke-width:1px;stroke-linecap:butt;stroke-linejoin:miter;stroke-opacity:1" d="M 504.67,224.444 500.934,205.763 z" id="boundary" inkscape:connector-curvature="0" />
	<path style="fill:none;stroke:red;stroke-width:1px;stroke-linecap:butt;stroke-linejoin:miter;stroke-opacity:1" d="M 424.339,429.944 441.153,439.284 z" id="boundary" inkscape:connector-curvature="0" />
	<path style="fill:none;stroke:red;stroke-width:1px;stroke-linecap:butt;stroke-linejoin:miter;stroke-opacity:1" d="M 424.339,429.944 409.394,418.734 z" id="boundary" inkscape:connector-curvature="0" />
	<path style="fill:none;stroke:red;stroke-width:1px;stroke-linecap:butt;stroke-linejoin:miter;stroke-opacity:1" d="M 441.153,439.284 457.966,448.625 z" id="boundary" inkscape:connector-curvature="0" />
	<path style="fill:none;stroke:red;stroke-width:1px;stroke-linecap:butt;stroke-linejoin:miter;stroke-opacity:1" d="M 457.966,448.625 472.911,461.702 z" id="boundary" inkscape:connector-curvature="0" />
	<path style="fill:none;stroke:red;stroke-width:1px;stroke-linecap:butt;stroke-linejoin:miter;stroke-opacity:1" d="M 489.725,471.043 472.911,461.702 z" id="boundary" inkscape:connector-curvature="0" />
	<path style="fill:none;stroke:red;stroke-width:1px;stroke-linecap:butt;stroke-linejoin:miter;stroke-opacity:1" d="M 489.725,471.043 504.67,484.121 z" id="boundary" inkscape:connector-curvature="0" />
	<path style="fill:none;stroke:red;stroke-width:1px;stroke-linecap:butt;stroke-linejoin:miter;stroke-opacity:1" d="M 504.67,484.121 508.407,502.802 z" id="boundary" inkscape:connector-curvature="0" />
	<path style="fill:none;stroke:red;stroke-width:1px;stroke-linecap:butt;stroke-linejoin:miter;stroke-opacity:1" d="M 517.748,519.616 508.407,502.802 z" id="boundary" inkscape:connector-curvature="0" />
	<path style="fill:none;stroke:red;stroke-width:1px;stroke-linecap:butt;stroke-linejoin:miter;stroke-opacity:1" d="M 527.089,555.111 517.748,538.298 z" id="boundary" inkscape:connector-curvature="0" />
	<path style="fill:none;stroke:red;stroke-width:1px;stroke-linecap:butt;stroke-linejoin:miter;stroke-opacity:1" d="M 517.748,538.298 517.748,519.616 z" id="boundary" inkscape:connector-curvature="0" />
	<path style="fill:none;stroke:red;stroke-width:1px;stroke-linecap:butt;stroke-linejoin:miter;stroke-opacity:1" d="M 527.089,555.111 527.089,573.793 z" id="boundary" inkscape:connector-curvature="0" />
	<path style="fill:none;stroke:red;stroke-width:1px;stroke-linecap:butt;stroke-linejoin:miter;stroke-opacity:1" d="M 538.298,159.058 525.22,174.004 z" id="boundary" inkscape:connector-curvature="0" />
	<path style="fill:none;stroke:red;stroke-width:1px;stroke-linecap:butt;stroke-linejoin:miter;stroke-opacity:1" d="M 555.111,149.718 538.298,159.058 z" id="boundary" inkscape:connector-curvature="0" />
	<path style="fill:none;stroke:red;stroke-width:1px;stroke-linecap:butt;stroke-linejoin:miter;stroke-opacity:1" d="M 551.375,119.827 532.693,119.827 z" id="boundary" inkscape:connector-curvature="0" />
	<path style="fill:none;stroke:red;stroke-width:1px;stroke-linecap:butt;stroke-linejoin:miter;stroke-opacity:1" d="M 547.638,286.094 534.561,271.149 z" id="boundary" inkscape:connector-curvature="0" />
	<path style="fill:none;stroke:red;stroke-width:1px;stroke-linecap:butt;stroke-linejoin:miter;stroke-opacity:1" d="M 547.638,286.094 562.584,299.171 z" id="boundary" inkscape:connector-curvature="0" />
	<path style="fill:none;stroke:red;stroke-width:1px;stroke-linecap:butt;stroke-linejoin:miter;stroke-opacity:1" d="M 573.793,144.113 555.111,149.718 z" id="boundary" inkscape:connector-curvature="0" />
	<path style="fill:none;stroke:red;stroke-width:1px;stroke-linecap:butt;stroke-linejoin:miter;stroke-opacity:1" d="M 575.661,314.117 562.584,299.171 z" id="boundary" inkscape:connector-curvature="0" />
	<path style="fill:none;stroke:red;stroke-width:1px;stroke-linecap:butt;stroke-linejoin:miter;stroke-opacity:1" d="M 590.606,327.194 575.661,314.117 z" id="boundary" inkscape:connector-curvature="0" />
	<path style="fill:none;stroke:red;stroke-width:1px;stroke-linecap:butt;stroke-linejoin:miter;stroke-opacity:1" d="M 551.375,119.827 570.056,119.827 z" id="boundary" inkscape:connector-curvature="0" />
	<path style="fill:none;stroke:red;stroke-width:1px;stroke-linecap:butt;stroke-linejoin:miter;stroke-opacity:1" d="M 570.056,119.827 573.793,144.113 z" id="boundary" inkscape:connector-curvature="0" />
	<path style="fill:none;stroke:red;stroke-width:1px;stroke-linecap:butt;stroke-linejoin:miter;stroke-opacity:1" d="M 603.684,342.139 618.629,355.217 z" id="boundary" inkscape:connector-curvature="0" />
	<path style="fill:none;stroke:red;stroke-width:1px;stroke-linecap:butt;stroke-linejoin:miter;stroke-opacity:1" d="M 603.684,342.139 590.606,327.194 z" id="boundary" inkscape:connector-curvature="0" />
	<path style="fill:none;stroke:red;stroke-width:1px;stroke-linecap:butt;stroke-linejoin:miter;stroke-opacity:1" d="M 631.706,370.162 641.047,386.976 z" id="boundary" inkscape:connector-curvature="0" />
	<path style="fill:none;stroke:red;stroke-width:1px;stroke-linecap:butt;stroke-linejoin:miter;stroke-opacity:1" d="M 618.629,355.217 631.706,370.162 z" id="boundary" inkscape:connector-curvature="0" />
	<path style="fill:none;stroke:red;stroke-width:1px;stroke-linecap:butt;stroke-linejoin:miter;stroke-opacity:1" d="M 669.07,414.998 654.124,401.921 z" id="boundary" inkscape:connector-curvature="0" />
	<path style="fill:none;stroke:red;stroke-width:1px;stroke-linecap:butt;stroke-linejoin:miter;stroke-opacity:1" d="M 654.124,401.921 641.047,386.976 z" id="boundary" inkscape:connector-curvature="0" />
	<path style="fill:none;stroke:red;stroke-width:1px;stroke-linecap:butt;stroke-linejoin:miter;stroke-opacity:1" d="M 700.829,437.416 682.147,429.944 z" id="boundary" inkscape:connector-curvature="0" />
	<path style="fill:none;stroke:red;stroke-width:1px;stroke-linecap:butt;stroke-linejoin:miter;stroke-opacity:1" d="M 682.147,429.944 669.07,414.998 z" id="boundary" inkscape:connector-curvature="0" />
	<path style="fill:none;stroke:red;stroke-width:1px;stroke-linecap:butt;stroke-linejoin:miter;stroke-opacity:1" d="M 719.51,437.416 700.829,437.416 z" id="boundary" inkscape:connector-curvature="0" />
	<path style="fill:none;stroke:red;stroke-width:1px;stroke-linecap:butt;stroke-linejoin:miter;stroke-opacity:1" d="M 719.51,437.416 732.588,452.362 z" id="boundary" inkscape:connector-curvature="0" />
	<path style="fill:none;stroke:red;stroke-width:1px;stroke-linecap:butt;stroke-linejoin:miter;stroke-opacity:1" d="M 592.475,504.67 581.266,519.616 z" id="boundary" inkscape:connector-curvature="0" />
	<path style="fill:none;stroke:red;stroke-width:1px;stroke-linecap:butt;stroke-linejoin:miter;stroke-opacity:1" d="M 732.588,452.362 734.456,471.043 z" id="boundary" inkscape:connector-curvature="0" />
	<path style="fill:none;stroke:red;stroke-width:1px;stroke-linecap:butt;stroke-linejoin:miter;stroke-opacity:1" d="M 865.228,484.121 883.91,478.516 z" id="boundary" inkscape:connector-curvature="0" />
	<path style="fill:none;stroke:red;stroke-width:1px;stroke-linecap:butt;stroke-linejoin:miter;stroke-opacity:1" d="M 883.91,478.516 902.591,474.78 z" id="boundary" inkscape:connector-curvature="0" />
	<path style="fill:none;stroke:red;stroke-width:1px;stroke-linecap:butt;stroke-linejoin:miter;stroke-opacity:1" d="M 939.955,469.175 958.637,465.439 z" id="boundary" inkscape:connector-curvature="0" />
	<path style="fill:none;stroke:red;stroke-width:1px;stroke-linecap:butt;stroke-linejoin:miter;stroke-opacity:1" d="M 921.273,474.78 939.955,469.175 z" id="boundary" inkscape:connector-curvature="0" />
	<path style="fill:none;stroke:red;stroke-width:1px;stroke-linecap:butt;stroke-linejoin:miter;stroke-opacity:1" d="M 958.637,465.439 977.318,471.043 z" id="boundary" inkscape:connector-curvature="0" />
	<path style="fill:none;stroke:red;stroke-width:1px;stroke-linecap:butt;stroke-linejoin:miter;stroke-opacity:1" d="M 996,480.384 977.318,471.043 z" id="boundary" inkscape:connector-curvature="0" />
	<path style="fill:none;stroke:red;stroke-width:1px;stroke-linecap:butt;stroke-linejoin:miter;stroke-opacity:1" d="M 902.591,474.78 921.273,474.78 z" id="boundary" inkscape:connector-curvature="0" />
	<path style="fill:none;stroke:red;stroke-width:1px;stroke-linecap:butt;stroke-linejoin:miter;stroke-opacity:1" d="M 996,480.384 981.055,493.461 z" id="boundary" inkscape:connector-curvature="0" />
	<path style="fill:none;stroke:red;stroke-width:1px;stroke-linecap:butt;stroke-linejoin:miter;stroke-opacity:1" d="M 734.456,471.043 741.928,489.725 z" id="boundary" inkscape:connector-curvature="0" />
	<path style="fill:none;stroke:red;stroke-width:1px;stroke-linecap:butt;stroke-linejoin:miter;stroke-opacity:1" d="M 756.874,502.802 741.928,489.725 z" id="boundary" inkscape:connector-curvature="0" />
	<path style="fill:none;stroke:red;stroke-width:1px;stroke-linecap:butt;stroke-linejoin:miter;stroke-opacity:1" d="M 792.369,512.143 773.687,512.143 z" id="boundary" inkscape:connector-curvature="0" />
	<path style="fill:none;stroke:red;stroke-width:1px;stroke-linecap:butt;stroke-linejoin:miter;stroke-opacity:1" d="M 773.687,512.143 756.874,502.802 z" id="boundary" inkscape:connector-curvature="0" />
	<path style="fill:none;stroke:red;stroke-width:1px;stroke-linecap:butt;stroke-linejoin:miter;stroke-opacity:1" d="M 811.051,504.67 792.369,512.143 z" id="boundary" inkscape:connector-curvature="0" />
	<path style="fill:none;stroke:red;stroke-width:1px;stroke-linecap:butt;stroke-linejoin:miter;stroke-opacity:1" d="M 829.733,495.33 848.414,493.461 z" id="boundary" inkscape:connector-curvature="0" />
	<path style="fill:none;stroke:red;stroke-width:1px;stroke-linecap:butt;stroke-linejoin:miter;stroke-opacity:1" d="M 829.733,495.33 811.051,504.67 z" id="boundary" inkscape:connector-curvature="0" />
	<path style="fill:none;stroke:red;stroke-width:1px;stroke-linecap:butt;stroke-linejoin:miter;stroke-opacity:1" d="M 865.228,484.121 848.414,493.461 z" id="boundary" inkscape:connector-curvature="0" />
	<path style="fill:none;stroke:red;stroke-width:1px;stroke-linecap:butt;stroke-linejoin:miter;stroke-opacity:1" d="M 962.373,495.33 945.559,504.67 z" id="boundary" inkscape:connector-curvature="0" />
	<path style="fill:none;stroke:red;stroke-width:1px;stroke-linecap:butt;stroke-linejoin:miter;stroke-opacity:1" d="M 945.559,504.67 926.878,510.275 z" id="boundary" inkscape:connector-curvature="0" />
	<path style="fill:none;stroke:red;stroke-width:1px;stroke-linecap:butt;stroke-linejoin:miter;stroke-opacity:1" d="M 962.373,495.33 981.055,493.461 z" id="boundary" inkscape:connector-curvature="0" />
	<path style="fill:none;stroke:red;stroke-width:1px;stroke-linecap:butt;stroke-linejoin:miter;stroke-opacity:1" d="M 908.196,519.616 926.878,510.275 z" id="boundary" inkscape:connector-curvature="0" />
	<path style="fill:none;stroke:red;stroke-width:1px;stroke-linecap:butt;stroke-linejoin:miter;stroke-opacity:1" d="M 627.97,514.011 609.288,514.011 z" id="boundary" inkscape:connector-curvature="0" />
	<path style="fill:none;stroke:red;stroke-width:1px;stroke-linecap:butt;stroke-linejoin:miter;stroke-opacity:1" d="M 609.288,514.011 592.475,504.67 z" id="boundary" inkscape:connector-curvature="0" />
	<path style="fill:none;stroke:red;stroke-width:1px;stroke-linecap:butt;stroke-linejoin:miter;stroke-opacity:1" d="M 566.32,532.693 581.266,519.616 z" id="boundary" inkscape:connector-curvature="0" />
	<path style="fill:none;stroke:red;stroke-width:1px;stroke-linecap:butt;stroke-linejoin:miter;stroke-opacity:1" d="M 556.979,551.375 545.77,573.793 z" id="boundary" inkscape:connector-curvature="0" />
	<path style="fill:none;stroke:red;stroke-width:1px;stroke-linecap:butt;stroke-linejoin:miter;stroke-opacity:1" d="M 556.979,551.375 566.32,532.693 z" id="boundary" inkscape:connector-curvature="0" />
	<path style="fill:none;stroke:red;stroke-width:1px;stroke-linecap:butt;stroke-linejoin:miter;stroke-opacity:1" d="M 627.97,514.011 644.783,523.352 z" id="boundary" inkscape:connector-curvature="0" />
	<path style="fill:none;stroke:red;stroke-width:1px;stroke-linecap:butt;stroke-linejoin:miter;stroke-opacity:1" d="M 659.729,536.429 672.806,551.375 z" id="boundary" inkscape:connector-curvature="0" />
	<path style="fill:none;stroke:red;stroke-width:1px;stroke-linecap:butt;stroke-linejoin:miter;stroke-opacity:1" d="M 659.729,536.429 644.783,523.352 z" id="boundary" inkscape:connector-curvature="0" />
	<path style="fill:none;stroke:red;stroke-width:1px;stroke-linecap:butt;stroke-linejoin:miter;stroke-opacity:1" d="M 672.806,551.375 691.488,551.375 z" id="boundary" inkscape:connector-curvature="0" />
	<path style="fill:none;stroke:red;stroke-width:1px;stroke-linecap:butt;stroke-linejoin:miter;stroke-opacity:1" d="M 691.488,551.375 710.169,551.375 z" id="boundary" inkscape:connector-curvature="0" />
	<path style="fill:none;stroke:red;stroke-width:1px;stroke-linecap:butt;stroke-linejoin:miter;stroke-opacity:1" d="M 728.851,551.375 710.169,551.375 z" id="boundary" inkscape:connector-curvature="0" />
	<path style="fill:none;stroke:red;stroke-width:1px;stroke-linecap:butt;stroke-linejoin:miter;stroke-opacity:1" d="M 743.797,564.452 751.269,583.134 z" id="boundary" inkscape:connector-curvature="0" />
	<path style="fill:none;stroke:red;stroke-width:1px;stroke-linecap:butt;stroke-linejoin:miter;stroke-opacity:1" d="M 743.797,564.452 728.851,551.375 z" id="boundary" inkscape:connector-curvature="0" />
	<path style="fill:none;stroke:red;stroke-width:1px;stroke-linecap:butt;stroke-linejoin:miter;stroke-opacity:1" d="M 527.089,573.793 545.77,573.793 z" id="boundary" inkscape:connector-curvature="0" />
	<path style="fill:none;stroke:red;stroke-width:1px;stroke-linecap:butt;stroke-linejoin:miter;stroke-opacity:1" d="M 751.269,620.497 751.269,639.179 z" id="boundary" inkscape:connector-curvature="0" />
	<path style="fill:none;stroke:red;stroke-width:1px;stroke-linecap:butt;stroke-linejoin:miter;stroke-opacity:1" d="M 751.269,583.134 751.269,601.815 z" id="boundary" inkscape:connector-curvature="0" />
	<path style="fill:none;stroke:red;stroke-width:1px;stroke-linecap:butt;stroke-linejoin:miter;stroke-opacity:1" d="M 751.269,601.815 751.269,620.497 z" id="boundary" inkscape:connector-curvature="0" />
	<path style="fill:none;stroke:red;stroke-width:1px;stroke-linecap:butt;stroke-linejoin:miter;stroke-opacity:1" d="M 751.269,657.861 751.269,639.179 z" id="boundary" inkscape:connector-curvature="0" />
	<path style="fill:none;stroke:red;stroke-width:1px;stroke-linecap:butt;stroke-linejoin:miter;stroke-opacity:1" d="M 760.61,693.356 751.269,676.542 z" id="boundary" inkscape:connector-curvature="0" />
	<path style="fill:none;stroke:red;stroke-width:1px;stroke-linecap:butt;stroke-linejoin:miter;stroke-opacity:1" d="M 751.269,676.542 751.269,657.861 z" id="boundary" inkscape:connector-curvature="0" />
	<path style="fill:none;stroke:red;stroke-width:1px;stroke-linecap:butt;stroke-linejoin:miter;stroke-opacity:1" d="M 760.61,693.356 760.61,712.038 z" id="boundary" inkscape:connector-curvature="0" />
	<path style="fill:none;stroke:red;stroke-width:1px;stroke-linecap:butt;stroke-linejoin:miter;stroke-opacity:1" d="M 809.183,616.761 818.524,598.079 z" id="boundary" inkscape:connector-curvature="0" />
	<path style="fill:none;stroke:red;stroke-width:1px;stroke-linecap:butt;stroke-linejoin:miter;stroke-opacity:1" d="M 809.183,635.443 809.183,616.761 z" id="boundary" inkscape:connector-curvature="0" />
	<path style="fill:none;stroke:red;stroke-width:1px;stroke-linecap:butt;stroke-linejoin:miter;stroke-opacity:1" d="M 799.842,654.124 809.183,635.443 z" id="boundary" inkscape:connector-curvature="0" />
	<path style="fill:none;stroke:red;stroke-width:1px;stroke-linecap:butt;stroke-linejoin:miter;stroke-opacity:1" d="M 799.842,672.806 799.842,654.124 z" id="boundary" inkscape:connector-curvature="0" />
	<path style="fill:none;stroke:red;stroke-width:1px;stroke-linecap:butt;stroke-linejoin:miter;stroke-opacity:1" d="M 799.842,691.488 799.842,672.806 z" id="boundary" inkscape:connector-curvature="0" />
	<path style="fill:none;stroke:red;stroke-width:1px;stroke-linecap:butt;stroke-linejoin:miter;stroke-opacity:1" d="M 818.524,598.079 833.469,585.002 z" id="boundary" inkscape:connector-curvature="0" />
	<path style="fill:none;stroke:red;stroke-width:1px;stroke-linecap:butt;stroke-linejoin:miter;stroke-opacity:1" d="M 870.832,538.298 889.514,528.957 z" id="boundary" inkscape:connector-curvature="0" />
	<path style="fill:none;stroke:red;stroke-width:1px;stroke-linecap:butt;stroke-linejoin:miter;stroke-opacity:1" d="M 855.887,551.375 870.832,538.298 z" id="boundary" inkscape:connector-curvature="0" />
	<path style="fill:none;stroke:red;stroke-width:1px;stroke-linecap:butt;stroke-linejoin:miter;stroke-opacity:1" d="M 889.514,528.957 908.196,519.616 z" id="boundary" inkscape:connector-curvature="0" />
	<path style="fill:none;stroke:red;stroke-width:1px;stroke-linecap:butt;stroke-linejoin:miter;stroke-opacity:1" d="M 833.469,585.002 842.81,566.32 z" id="boundary" inkscape:connector-curvature="0" />
	<path style="fill:none;stroke:red;stroke-width:1px;stroke-linecap:butt;stroke-linejoin:miter;stroke-opacity:1" d="M 842.81,566.32 855.887,551.375 z" id="boundary" inkscape:connector-curvature="0" />
	<path style="fill:none;stroke:red;stroke-width:1px;stroke-linecap:butt;stroke-linejoin:miter;stroke-opacity:1" d="M 760.61,712.038 760.61,730.719 z" id="boundary" inkscape:connector-curvature="0" />
	<path style="fill:none;stroke:red;stroke-width:1px;stroke-linecap:butt;stroke-linejoin:miter;stroke-opacity:1" d="M 769.951,747.533 760.61,730.719 z" id="boundary" inkscape:connector-curvature="0" />
	<path style="fill:none;stroke:red;stroke-width:1px;stroke-linecap:butt;stroke-linejoin:miter;stroke-opacity:1" d="M 779.292,783.028 769.951,766.215 z" id="boundary" inkscape:connector-curvature="0" />
	<path style="fill:none;stroke:red;stroke-width:1px;stroke-linecap:butt;stroke-linejoin:miter;stroke-opacity:1" d="M 769.951,766.215 769.951,747.533 z" id="boundary" inkscape:connector-curvature="0" />
	<path style="fill:none;stroke:red;stroke-width:1px;stroke-linecap:butt;stroke-linejoin:miter;stroke-opacity:1" d="M 799.842,710.169 799.842,728.851 z" id="boundary" inkscape:connector-curvature="0" />
	<path style="fill:none;stroke:red;stroke-width:1px;stroke-linecap:butt;stroke-linejoin:miter;stroke-opacity:1" d="M 799.842,710.169 799.842,691.488 z" id="boundary" inkscape:connector-curvature="0" />
	<path style="fill:none;stroke:red;stroke-width:1px;stroke-linecap:butt;stroke-linejoin:miter;stroke-opacity:1" d="M 799.842,728.851 799.842,747.533 z" id="boundary" inkscape:connector-curvature="0" />
	<path style="fill:none;stroke:red;stroke-width:1px;stroke-linecap:butt;stroke-linejoin:miter;stroke-opacity:1" d="M 799.842,766.215 794.237,794.237 z" id="boundary" inkscape:connector-curvature="0" />
	<path style="fill:none;stroke:red;stroke-width:1px;stroke-linecap:butt;stroke-linejoin:miter;stroke-opacity:1" d="M 794.237,794.237 779.292,783.028 z" id="boundary" inkscape:connector-curvature="0" />
	<path style="fill:none;stroke:red;stroke-width:1px;stroke-linecap:butt;stroke-linejoin:miter;stroke-opacity:1" d="M 799.842,747.533 799.842,766.215 z" id="boundary" inkscape:connector-curvature="0" />
	<circle cx="4" cy="4" r="4" fill="#0" id="circle0"/>
	<circle cx="13.3409" cy="20.8136" r="4" fill="#0" id="circle1"/>
	<circle cx="26.4181" cy="35.7589" r="4" fill="#0" id="circle2"/>
	<circle cx="28.2863" cy="7.73635" r="4" fill="#0" id="circle3"/>
	<circle cx="41.3635" cy="22.6817" r="4" fill="#0" id="circle4"/>
	<circle cx="41.3635" cy="46.968" r="4" fill="#0" id="circle5"/>
	<circle cx="58.177" cy="56.3089" r="4" fill="#0" id="circle6"/>
	<circle cx="60.0452" cy="30.1544" r="4" fill="#0" id="circle7"/>
	<circle cx="71.2542" cy="71.2542" r="4" fill="#0" id="circle8"/>
	<circle cx="73.1224" cy="45.0998" r="4" fill="#0" id="circle9"/>
	<circle cx="86.1996" cy="84.3315" r="4" fill="#0" id="circle10"/>
	<circle cx="89.936" cy="54.4407" r="4" fill="#0" id="circle11"/>
	<circle cx="103.013" cy="93.6723" r="4" fill="#0" id="circle12"/>
	<circle cx="104.881" cy="65.6497" r="4" fill="#0" id="circle13"/>
	<circle cx="117.959" cy="106.75" r="4" fill="#0" id="circle14"/>
	<circle cx="121.695" cy="74.9906" r="4" fill="#0" id="circle15"/>
	<circle cx="131.036" cy="121.695" r="4" fill="#0" id="circle16"/>
	<circle cx="140.377" cy="82.4633" r="4" fill="#0" id="circle17"/>
	<circle cx="145.981" cy="134.772" r="4" fill="#0" id="circle18"/>
	<circle cx="153.454" cy="97.4087" r="4" fill="#0" id="circle19"/>
	<circle cx="159.058" cy="149.718" r="4" fill="#0" id="circle20"/>
	<circle cx="162.795" cy="181.476" r="4" fill="#0" id="circle21"/>
	<circle cx="172.136" cy="104.881" r="4" fill="#0" id="circle22"/>
	<circle cx="174.004" cy="162.795" r="4" fill="#0" id="circle23"/>
	<circle cx="177.74" cy="194.554" r="4" fill="#0" id="circle24"/>
	<circle cx="188.949" cy="114.222" r="4" fill="#0" id="circle25"/>
	<circle cx="190.817" cy="209.499" r="4" fill="#0" id="circle26"/>
	<circle cx="205.763" cy="222.576" r="4" fill="#0" id="circle27"/>
	<circle cx="207.631" cy="119.827" r="4" fill="#0" id="circle28"/>
	<circle cx="213.235" cy="241.258" r="4" fill="#0" id="circle29"/>
	<circle cx="224.444" cy="129.168" r="4" fill="#0" id="circle30"/>
	<circle cx="228.181" cy="252.467" r="4" fill="#0" id="circle31"/>
	<circle cx="239.39" cy="267.412" r="4" fill="#0" id="circle32"/>
	<circle cx="243.126" cy="129.168" r="4" fill="#0" id="circle33"/>
	<circle cx="254.335" cy="280.49" r="4" fill="#0" id="circle34"/>
	<circle cx="261.808" cy="129.168" r="4" fill="#0" id="circle35"/>
	<circle cx="261.808" cy="299.171" r="4" fill="#0" id="circle36"/>
	<circle cx="265.544" cy="330.93" r="4" fill="#0" id="circle37"/>
	<circle cx="265.544" cy="349.612" r="4" fill="#0" id="circle38"/>
	<circle cx="265.544" cy="368.294" r="4" fill="#0" id="circle39"/>
	<circle cx="265.544" cy="386.976" r="4" fill="#0" id="circle40"/>
	<circle cx="274.885" cy="314.117" r="4" fill="#0" id="circle41"/>
	<circle cx="274.885" cy="403.789" r="4" fill="#0" id="circle42"/>
	<circle cx="278.621" cy="138.508" r="4" fill="#0" id="circle43"/>
	<circle cx="284.226" cy="420.603" r="4" fill="#0" id="circle44"/>
	<circle cx="297.303" cy="138.508" r="4" fill="#0" id="circle45"/>
	<circle cx="302.908" cy="424.339" r="4" fill="#0" id="circle46"/>
	<circle cx="314.117" cy="355.217" r="4" fill="#0" id="circle47"/>
	<circle cx="314.117" cy="373.898" r="4" fill="#0" id="circle48"/>
	<circle cx="314.117" cy="392.58" r="4" fill="#0" id="circle49"/>
	<circle cx="315.985" cy="138.508" r="4" fill="#0" id="circle50"/>
	<circle cx="332.798" cy="147.849" r="4" fill="#0" id="circle51"/>
	<circle cx="332.798" cy="358.953" r="4" fill="#0" id="circle52"/>
	<circle cx="345.876" cy="373.898" r="4" fill="#0" id="circle53"/>
	<circle cx="351.48" cy="147.849" r="4" fill="#0" id="circle54"/>
	<circle cx="360.821" cy="386.976" r="4" fill="#0" id="circle55"/>
	<circle cx="368.294" cy="157.19" r="4" fill="#0" id="circle56"/>
	<circle cx="377.635" cy="396.316" r="4" fill="#0" id="circle57"/>
	<circle cx="386.976" cy="157.19" r="4" fill="#0" id="circle58"/>
	<circle cx="392.58" cy="409.394" r="4" fill="#0" id="circle59"/>
	<circle cx="403.789" cy="147.849" r="4" fill="#0" id="circle60"/>
	<circle cx="409.394" cy="418.734" r="4" fill="#0" id="circle61"/>
	<circle cx="422.471" cy="147.849" r="4" fill="#0" id="circle62"/>
	<circle cx="424.339" cy="429.944" r="4" fill="#0" id="circle63"/>
	<circle cx="439.284" cy="138.508" r="4" fill="#0" id="circle64"/>
	<circle cx="441.153" cy="439.284" r="4" fill="#0" id="circle65"/>
	<circle cx="457.966" cy="129.168" r="4" fill="#0" id="circle66"/>
	<circle cx="457.966" cy="448.625" r="4" fill="#0" id="circle67"/>
	<circle cx="472.911" cy="461.702" r="4" fill="#0" id="circle68"/>
	<circle cx="476.648" cy="129.168" r="4" fill="#0" id="circle69"/>
	<circle cx="489.725" cy="471.043" r="4" fill="#0" id="circle70"/>
	<circle cx="495.33" cy="119.827" r="4" fill="#0" id="circle71"/>
	<circle cx="500.934" cy="205.763" r="4" fill="#0" id="circle72"/>
	<circle cx="504.67" cy="224.444" r="4" fill="#0" id="circle73"/>
	<circle cx="504.67" cy="484.121" r="4" fill="#0" id="circle74"/>
	<circle cx="508.407" cy="502.802" r="4" fill="#0" id="circle75"/>
	<circle cx="510.275" cy="187.081" r="4" fill="#0" id="circle76"/>
	<circle cx="514.011" cy="119.827" r="4" fill="#0" id="circle77"/>
	<circle cx="514.011" cy="241.258" r="4" fill="#0" id="circle78"/>
	<circle cx="517.748" cy="519.616" r="4" fill="#0" id="circle79"/>
	<circle cx="517.748" cy="538.298" r="4" fill="#0" id="circle80"/>
	<circle cx="519.616" cy="259.94" r="4" fill="#0" id="circle81"/>
	<circle cx="525.22" cy="174.004" r="4" fill="#0" id="circle82"/>
	<circle cx="527.089" cy="555.111" r="4" fill="#0" id="circle83"/>
	<circle cx="527.089" cy="573.793" r="4" fill="#0" id="circle84"/>
	<circle cx="532.693" cy="119.827" r="4" fill="#0" id="circle85"/>
	<circle cx="534.561" cy="271.149" r="4" fill="#0" id="circle86"/>
	<circle cx="538.298" cy="159.058" r="4" fill="#0" id="circle87"/>
	<circle cx="545.77" cy="573.793" r="4" fill="#0" id="circle88"/>
	<circle cx="547.638" cy="286.094" r="4" fill="#0" id="circle89"/>
	<circle cx="551.375" cy="119.827" r="4" fill="#0" id="circle90"/>
	<circle cx="555.111" cy="149.718" r="4" fill="#0" id="circle91"/>
	<circle cx="556.979" cy="551.375" r="4" fill="#0" id="circle92"/>
	<circle cx="562.584" cy="299.171" r="4" fill="#0" id="circle93"/>
	<circle cx="566.32" cy="532.693" r="4" fill="#0" id="circle94"/>
	<circle cx="570.056" cy="119.827" r="4" fill="#0" id="circle95"/>
	<circle cx="573.793" cy="144.113" r="4" fill="#0" id="circle96"/>
	<circle cx="575.661" cy="314.117" r="4" fill="#0" id="circle97"/>
	<circle cx="581.266" cy="519.616" r="4" fill="#0" id="circle98"/>
	<circle cx="590.606" cy="327.194" r="4" fill="#0" id="circle99"/>
	<circle cx="592.475" cy="504.67" r="4" fill="#0" id="circle100"/>
	<circle cx="603.684" cy="342.139" r="4" fill="#0" id="circle101"/>
	<circle cx="609.288" cy="514.011" r="4" fill="#0" id="circle102"/>
	<circle cx="618.629" cy="355.217" r="4" fill="#0" id="circle103"/>
	<circle cx="627.97" cy="514.011" r="4" fill="#0" id="circle104"/>
	<circle cx="631.706" cy="370.162" r="4" fill="#0" id="circle105"/>
	<circle cx="641.047" cy="386.976" r="4" fill="#0" id="circle106"/>
	<circle cx="644.783" cy="523.352" r="4" fill="#0" id="circle107"/>
	<circle cx="654.124" cy="401.921" r="4" fill="#0" id="circle108"/>
	<circle cx="659.729" cy="536.429" r="4" fill="#0" id="circle109"/>
	<circle cx="669.07" cy="414.998" r="4" fill="#0" id="circle110"/>
	<circle cx="672.806" cy="551.375" r="4" fill="#0" id="circle111"/>
	<circle cx="682.147" cy="429.944" r="4" fill="#0" id="circle112"/>
	<circle cx="691.488" cy="551.375" r="4" fill="#0" id="circle113"/>
	<circle cx="700.829" cy="437.416" r="4" fill="#0" id="circle114"/>
	<circle cx="710.169" cy="551.375" r="4" fill="#0" id="circle115"/>
	<circle cx="719.51" cy="437.416" r="4" fill="#0" id="circle116"/>
	<circle cx="728.851" cy="551.375" r="4" fill="#0" id="circle117"/>
	<circle cx="732.588" cy="452.362" r="4" fill="#0" id="circle118"/>
	<circle cx="734.456" cy="471.043" r="4" fill="#0" id="circle119"/>
	<circle cx="741.928" cy="489.725" r="4" fill="#0" id="circle120"/>
	<circle cx="743.797" cy="564.452" r="4" fill="#0" id="circle121"/>
	<circle cx="751.269" cy="583.134" r="4" fill="#0" id="circle122"/>
	<circle cx="751.269" cy="601.815" r="4" fill="#0" id="circle123"/>
	<circle cx="751.269" cy="620.497" r="4" fill="#0" id="circle124"/>
	<circle cx="751.269" cy="639.179" r="4" fill="#0" id="circle125"/>
	<circle cx="751.269" cy="657.861" r="4" fill="#0" id="circle126"/>
	<circle cx="751.269" cy="676.542" r="4" fill="#0" id="circle127"/>
	<circle cx="756.874" cy="502.802" r="4" fill="#0" id="circle128"/>
	<circle cx="760.61" cy="693.356" r="4" fill="#0" id="circle129"/>
	<circle cx="760.61" cy="712.038" r="4" fill="#0" id="circle130"/>
	<circle cx="760.61" cy="730.719" r="4" fill="#0" id="circle131"/>
	<circle cx="769.951" cy="747.533" r="4" fill="#0" id="circle132"/>
	<circle cx="769.951" cy="766.215" r="4" fill="#0" id="circle133"/>
	<circle cx="773.687" cy="512.143" r="4" fill="#0" id="circle134"/>
	<circle cx="779.292" cy="783.028" r="4" fill="#0" id="circle135"/>
	<circle cx="792.369" cy="512.143" r="4" fill="#0" id="circle136"/>
	<circle cx="794.237" cy="794.237" r="4" fill="#0" id="circle137"/>
	<circle cx="799.842" cy="654.124" r="4" fill="#0" id="circle138"/>
	<circle cx="799.842" cy="672.806" r="4" fill="#0" id="circle139"/>
	<circle cx="799.842" cy="691.488" r="4" fill="#0" id="circle140"/>
	<circle cx="799.842" cy="710.169" r="4" fill="#0" id="circle141"/>
	<circle cx="799.842" cy="728.851" r="4" fill="#0" id="circle142"/>
	<circle cx="799.842" cy="747.533" r="4" fill="#0" id="circle143"/>
	<circle cx="799.842" cy="766.215" r="4" fill="#0" id="circle144"/>
	<circle cx="809.183" cy="616.761" r="4" fill="#0" id="circle145"/>
	<circle cx="809.183" cy="635.443" r="4" fill="#0" id="circle146"/>
	<circle cx="811.051" cy="504.67" r="4" fill="#0" id="circle147"/>
	<circle cx="818.524" cy="598.079" r="4" fill="#0" id="circle148"/>
	<circle cx="829.733" cy="495.33" r="4" fill="#0" id="circle149"/>
	<circle cx="833.469" cy="585.002" r="4" fill="#0" id="circle150"/>
	<circle cx="842.81" cy="566.32" r="4" fill="#0" id="circle151"/>
	<circle cx="848.414" cy="493.461" r="4" fill="#0" id="circle152"/>
	<circle cx="855.887" cy="551.375" r="4" fill="#0" id="circle153"/>
	<circle cx="865.228" cy="484.121" r="4" fill="#0" id="circle154"/>
	<circle cx="870.832" cy="538.298" r="4" fill="#0" id="circle155"/>
	<circle cx="883.91" cy="478.516" r="4" fill="#0" id="circle156"/>
	<circle cx="889.514" cy="528.957" r="4" fill="#0" id="circle157"/>
	<circle cx="902.591" cy="474.78" r="4" fill="#0" id="circle158"/>
	<circle cx="908.196" cy="519.616" r="4" fill="#0" id="circle159"/>
	<circle cx="921.273" cy="474.78" r="4" fill="#0" id="circle160"/>
	<circle cx="926.878" cy="510.275" r="4" fill="#0" id="circle161"/>
	<circle cx="939.955" cy="469.175" r="4" fill="#0" id="circle162"/>
	<circle cx="945.559" cy="504.67" r="4" fill="#0" id="circle163"/>
	<circle cx="958.637" cy="465.439" r="4" fill="#0" id="circle164"/>
	<circle cx="962.373" cy="495.33" r="4" fill="#0" id="circle165"/>
	<circle cx="977.318" cy="471.043" r="4" fill="#0" id="circle166"/>
	<circle cx="981.055" cy="493.461" r="4" fill="#0" id="circle167"/>
	<circle cx="996" cy="480.384" r="4" fill="#0" id="circle168"/>
	</g>
</svg>