<?xml version="1.0" encoding="UTF-8" standalone="no"?>
<!-- Created with CurveBenchmark -->
<svg
	xmlns:dc="http://purl.org/dc/elements/1.1/"
	xmlns:cc="http://creativecommons.org/ns#"
	xmlns:rdf="http://www.w3.org/1999/02/22-rdf-syntax-ns#"
	xmlns:svg="http://www.w3.org/2000/svg"
	xmlns="http://www.w3.org/2000/svg"
	xmlns:sodipodi="http://sodipodi.sourceforge.net/DTD/sodipodi-0.dtd"
	xmlns:inkscape="http://www.inkscape.org/namespaces/inkscape"
	width="1000"
	height="1000"
	id="svg2"
	version="1.1"
	sodipodi:docname="manifold/gathang-woodenspoonbinary1.png.txt">
<defs
	id="defs4" />
<metadata
	id="metadata7">
	<rdf:RDF>
		<cc:Work
			rdf:about="">
			<dc:format>image/svg+xml</dc:format>
			<dc:type
				rdf:resource="http://purl.org/dc/dcmitype/StillImage" />
			<dc:title></dc:title>
		</cc:Work>
	</rdf:RDF>
</metadata>
<g
	inkscape:label="Layer 1"
	inkscape:groupmode="layer"
	id="layer1">
	<path style="fill:none;stroke:red;stroke-width:1px;stroke-linecap:butt;stroke-linejoin:miter;stroke-opacity:1" d="M 13.8518,49.4698 17.6409,42.6494 z" id="boundary" inkscape:connector-curvature="0" />
	<path style="fill:none;stroke:red;stroke-width:1px;stroke-linecap:butt;stroke-linejoin:miter;stroke-opacity:1" d="M 21.4301,35.071 17.6409,42.6494 z" id="boundary" inkscape:connector-curvature="0" />
	<path style="fill:none;stroke:red;stroke-width:1px;stroke-linecap:butt;stroke-linejoin:miter;stroke-opacity:1" d="M 21.4301,35.071 26.7349,28.2506 z" id="boundary" inkscape:connector-curvature="0" />
	<path style="fill:none;stroke:red;stroke-width:1px;stroke-linecap:butt;stroke-linejoin:miter;stroke-opacity:1" d="M 26.7349,28.2506 34.3132,25.2193 z" id="boundary" inkscape:connector-curvature="0" />
	<path style="fill:none;stroke:red;stroke-width:1px;stroke-linecap:butt;stroke-linejoin:miter;stroke-opacity:1" d="M 40.3759,19.1566 34.3132,25.2193 z" id="boundary" inkscape:connector-curvature="0" />
	<path style="fill:none;stroke:red;stroke-width:1px;stroke-linecap:butt;stroke-linejoin:miter;stroke-opacity:1" d="M 5.51566,101.002 4,87.3613 z" id="boundary" inkscape:connector-curvature="0" />
	<path style="fill:none;stroke:red;stroke-width:1px;stroke-linecap:butt;stroke-linejoin:miter;stroke-opacity:1" d="M 5.51566,101.002 6.27349,108.581 z" id="boundary" inkscape:connector-curvature="0" />
	<path style="fill:none;stroke:red;stroke-width:1px;stroke-linecap:butt;stroke-linejoin:miter;stroke-opacity:1" d="M 7.03132,66.1421 10.0626,57.806 z" id="boundary" inkscape:connector-curvature="0" />
	<path style="fill:none;stroke:red;stroke-width:1px;stroke-linecap:butt;stroke-linejoin:miter;stroke-opacity:1" d="M 10.0626,57.806 13.8518,49.4698 z" id="boundary" inkscape:connector-curvature="0" />
	<path style="fill:none;stroke:red;stroke-width:1px;stroke-linecap:butt;stroke-linejoin:miter;stroke-opacity:1" d="M 5.51566,73.7204 7.03132,66.1421 z" id="boundary" inkscape:connector-curvature="0" />
	<path style="fill:none;stroke:red;stroke-width:1px;stroke-linecap:butt;stroke-linejoin:miter;stroke-opacity:1" d="M 77.5095,6.27349 85.0879,4.75783 z" id="boundary" inkscape:connector-curvature="0" />
	<path style="fill:none;stroke:red;stroke-width:1px;stroke-linecap:butt;stroke-linejoin:miter;stroke-opacity:1" d="M 85.0879,4.75783 92.6662,4 z" id="boundary" inkscape:connector-curvature="0" />
	<path style="fill:none;stroke:red;stroke-width:1px;stroke-linecap:butt;stroke-linejoin:miter;stroke-opacity:1" d="M 92.6662,4 100.244,4 z" id="boundary" inkscape:connector-curvature="0" />
	<path style="fill:none;stroke:red;stroke-width:1px;stroke-linecap:butt;stroke-linejoin:miter;stroke-opacity:1" d="M 100.244,4 107.823,4 z" id="boundary" inkscape:connector-curvature="0" />
	<path style="fill:none;stroke:red;stroke-width:1px;stroke-linecap:butt;stroke-linejoin:miter;stroke-opacity:1" d="M 107.823,4 115.401,4 z" id="boundary" inkscape:connector-curvature="0" />
	<path style="fill:none;stroke:red;stroke-width:1px;stroke-linecap:butt;stroke-linejoin:miter;stroke-opacity:1" d="M 115.401,4 122.979,6.27349 z" id="boundary" inkscape:connector-curvature="0" />
	<path style="fill:none;stroke:red;stroke-width:1px;stroke-linecap:butt;stroke-linejoin:miter;stroke-opacity:1" d="M 54.7746,12.3361 47.9542,16.1253 z" id="boundary" inkscape:connector-curvature="0" />
	<path style="fill:none;stroke:red;stroke-width:1px;stroke-linecap:butt;stroke-linejoin:miter;stroke-opacity:1" d="M 47.9542,16.1253 40.3759,19.1566 z" id="boundary" inkscape:connector-curvature="0" />
	<path style="fill:none;stroke:red;stroke-width:1px;stroke-linecap:butt;stroke-linejoin:miter;stroke-opacity:1" d="M 69.9312,7.78915 77.5095,6.27349 z" id="boundary" inkscape:connector-curvature="0" />
	<path style="fill:none;stroke:red;stroke-width:1px;stroke-linecap:butt;stroke-linejoin:miter;stroke-opacity:1" d="M 54.7746,12.3361 62.3529,9.30481 z" id="boundary" inkscape:connector-curvature="0" />
	<path style="fill:none;stroke:red;stroke-width:1px;stroke-linecap:butt;stroke-linejoin:miter;stroke-opacity:1" d="M 62.3529,9.30481 69.9312,7.78915 z" id="boundary" inkscape:connector-curvature="0" />
	<path style="fill:none;stroke:red;stroke-width:1px;stroke-linecap:butt;stroke-linejoin:miter;stroke-opacity:1" d="M 130.558,7.78915 122.979,6.27349 z" id="boundary" inkscape:connector-curvature="0" />
	<path style="fill:none;stroke:red;stroke-width:1px;stroke-linecap:butt;stroke-linejoin:miter;stroke-opacity:1" d="M 6.27349,108.581 10.0626,115.401 z" id="boundary" inkscape:connector-curvature="0" />
	<path style="fill:none;stroke:red;stroke-width:1px;stroke-linecap:butt;stroke-linejoin:miter;stroke-opacity:1" d="M 10.0626,115.401 10.0626,123.737 z" id="boundary" inkscape:connector-curvature="0" />
	<path style="fill:none;stroke:red;stroke-width:1px;stroke-linecap:butt;stroke-linejoin:miter;stroke-opacity:1" d="M 14.6096,138.136 10.8205,131.316 z" id="boundary" inkscape:connector-curvature="0" />
	<path style="fill:none;stroke:red;stroke-width:1px;stroke-linecap:butt;stroke-linejoin:miter;stroke-opacity:1" d="M 10.8205,131.316 10.0626,123.737 z" id="boundary" inkscape:connector-curvature="0" />
	<path style="fill:none;stroke:red;stroke-width:1px;stroke-linecap:butt;stroke-linejoin:miter;stroke-opacity:1" d="M 14.6096,138.136 15.3675,145.714 z" id="boundary" inkscape:connector-curvature="0" />
	<path style="fill:none;stroke:red;stroke-width:1px;stroke-linecap:butt;stroke-linejoin:miter;stroke-opacity:1" d="M 15.3675,145.714 21.4301,150.261 z" id="boundary" inkscape:connector-curvature="0" />
	<path style="fill:none;stroke:red;stroke-width:1px;stroke-linecap:butt;stroke-linejoin:miter;stroke-opacity:1" d="M 21.4301,150.261 20.6723,158.597 z" id="boundary" inkscape:connector-curvature="0" />
	<path style="fill:none;stroke:red;stroke-width:1px;stroke-linecap:butt;stroke-linejoin:miter;stroke-opacity:1" d="M 22.9458,166.176 20.6723,158.597 z" id="boundary" inkscape:connector-curvature="0" />
	<path style="fill:none;stroke:red;stroke-width:1px;stroke-linecap:butt;stroke-linejoin:miter;stroke-opacity:1" d="M 29.0084,180.574 25.2193,173.754 z" id="boundary" inkscape:connector-curvature="0" />
	<path style="fill:none;stroke:red;stroke-width:1px;stroke-linecap:butt;stroke-linejoin:miter;stroke-opacity:1" d="M 25.2193,173.754 22.9458,166.176 z" id="boundary" inkscape:connector-curvature="0" />
	<path style="fill:none;stroke:red;stroke-width:1px;stroke-linecap:butt;stroke-linejoin:miter;stroke-opacity:1" d="M 29.0084,180.574 32.0397,188.153 z" id="boundary" inkscape:connector-curvature="0" />
	<path style="fill:none;stroke:red;stroke-width:1px;stroke-linecap:butt;stroke-linejoin:miter;stroke-opacity:1" d="M 32.0397,188.153 38.1024,193.458 z" id="boundary" inkscape:connector-curvature="0" />
	<path style="fill:none;stroke:red;stroke-width:1px;stroke-linecap:butt;stroke-linejoin:miter;stroke-opacity:1" d="M 38.1024,193.458 41.8915,200.278 z" id="boundary" inkscape:connector-curvature="0" />
	<path style="fill:none;stroke:red;stroke-width:1px;stroke-linecap:butt;stroke-linejoin:miter;stroke-opacity:1" d="M 41.8915,200.278 45.6807,207.099 z" id="boundary" inkscape:connector-curvature="0" />
	<path style="fill:none;stroke:red;stroke-width:1px;stroke-linecap:butt;stroke-linejoin:miter;stroke-opacity:1" d="M 45.6807,207.099 49.4698,213.919 z" id="boundary" inkscape:connector-curvature="0" />
	<path style="fill:none;stroke:red;stroke-width:1px;stroke-linecap:butt;stroke-linejoin:miter;stroke-opacity:1" d="M 53.259,220.739 49.4698,213.919 z" id="boundary" inkscape:connector-curvature="0" />
	<path style="fill:none;stroke:red;stroke-width:1px;stroke-linecap:butt;stroke-linejoin:miter;stroke-opacity:1" d="M 70.6891,232.107 63.8686,228.318 z" id="boundary" inkscape:connector-curvature="0" />
	<path style="fill:none;stroke:red;stroke-width:1px;stroke-linecap:butt;stroke-linejoin:miter;stroke-opacity:1" d="M 70.6891,232.107 74.4782,238.927 z" id="boundary" inkscape:connector-curvature="0" />
	<path style="fill:none;stroke:red;stroke-width:1px;stroke-linecap:butt;stroke-linejoin:miter;stroke-opacity:1" d="M 63.8686,228.318 53.259,220.739 z" id="boundary" inkscape:connector-curvature="0" />
	<path style="fill:none;stroke:red;stroke-width:1px;stroke-linecap:butt;stroke-linejoin:miter;stroke-opacity:1" d="M 74.4782,238.927 79.783,244.99 z" id="boundary" inkscape:connector-curvature="0" />
	<path style="fill:none;stroke:red;stroke-width:1px;stroke-linecap:butt;stroke-linejoin:miter;stroke-opacity:1" d="M 79.783,244.99 82.0565,252.568 z" id="boundary" inkscape:connector-curvature="0" />
	<path style="fill:none;stroke:red;stroke-width:1px;stroke-linecap:butt;stroke-linejoin:miter;stroke-opacity:1" d="M 87.3613,258.631 82.0565,252.568 z" id="boundary" inkscape:connector-curvature="0" />
	<path style="fill:none;stroke:red;stroke-width:1px;stroke-linecap:butt;stroke-linejoin:miter;stroke-opacity:1" d="M 160.113,16.8831 152.535,16.1253 z" id="boundary" inkscape:connector-curvature="0" />
	<path style="fill:none;stroke:red;stroke-width:1px;stroke-linecap:butt;stroke-linejoin:miter;stroke-opacity:1" d="M 152.535,16.1253 145.714,12.3361 z" id="boundary" inkscape:connector-curvature="0" />
	<path style="fill:none;stroke:red;stroke-width:1px;stroke-linecap:butt;stroke-linejoin:miter;stroke-opacity:1" d="M 160.113,16.8831 166.176,21.4301 z" id="boundary" inkscape:connector-curvature="0" />
	<path style="fill:none;stroke:red;stroke-width:1px;stroke-linecap:butt;stroke-linejoin:miter;stroke-opacity:1" d="M 138.136,10.0626 145.714,12.3361 z" id="boundary" inkscape:connector-curvature="0" />
	<path style="fill:none;stroke:red;stroke-width:1px;stroke-linecap:butt;stroke-linejoin:miter;stroke-opacity:1" d="M 166.176,21.4301 173.754,24.4614 z" id="boundary" inkscape:connector-curvature="0" />
	<path style="fill:none;stroke:red;stroke-width:1px;stroke-linecap:butt;stroke-linejoin:miter;stroke-opacity:1" d="M 173.754,24.4614 180.574,28.2506 z" id="boundary" inkscape:connector-curvature="0" />
	<path style="fill:none;stroke:red;stroke-width:1px;stroke-linecap:butt;stroke-linejoin:miter;stroke-opacity:1" d="M 188.153,30.5241 180.574,28.2506 z" id="boundary" inkscape:connector-curvature="0" />
	<path style="fill:none;stroke:red;stroke-width:1px;stroke-linecap:butt;stroke-linejoin:miter;stroke-opacity:1" d="M 201.036,39.618 194.215,35.8289 z" id="boundary" inkscape:connector-curvature="0" />
	<path style="fill:none;stroke:red;stroke-width:1px;stroke-linecap:butt;stroke-linejoin:miter;stroke-opacity:1" d="M 194.215,35.8289 188.153,30.5241 z" id="boundary" inkscape:connector-curvature="0" />
	<path style="fill:none;stroke:red;stroke-width:1px;stroke-linecap:butt;stroke-linejoin:miter;stroke-opacity:1" d="M 207.856,43.4072 201.036,39.618 z" id="boundary" inkscape:connector-curvature="0" />
	<path style="fill:none;stroke:red;stroke-width:1px;stroke-linecap:butt;stroke-linejoin:miter;stroke-opacity:1" d="M 221.497,50.9855 213.919,47.9542 z" id="boundary" inkscape:connector-curvature="0" />
	<path style="fill:none;stroke:red;stroke-width:1px;stroke-linecap:butt;stroke-linejoin:miter;stroke-opacity:1" d="M 213.919,47.9542 207.856,43.4072 z" id="boundary" inkscape:connector-curvature="0" />
	<path style="fill:none;stroke:red;stroke-width:1px;stroke-linecap:butt;stroke-linejoin:miter;stroke-opacity:1" d="M 221.497,50.9855 226.802,57.0481 z" id="boundary" inkscape:connector-curvature="0" />
	<path style="fill:none;stroke:red;stroke-width:1px;stroke-linecap:butt;stroke-linejoin:miter;stroke-opacity:1" d="M 232.865,62.3529 226.802,57.0481 z" id="boundary" inkscape:connector-curvature="0" />
	<path style="fill:none;stroke:red;stroke-width:1px;stroke-linecap:butt;stroke-linejoin:miter;stroke-opacity:1" d="M 238.927,66.8999 232.865,62.3529 z" id="boundary" inkscape:connector-curvature="0" />
	<path style="fill:none;stroke:red;stroke-width:1px;stroke-linecap:butt;stroke-linejoin:miter;stroke-opacity:1" d="M 244.99,71.4469 238.927,66.8999 z" id="boundary" inkscape:connector-curvature="0" />
	<path style="fill:none;stroke:red;stroke-width:1px;stroke-linecap:butt;stroke-linejoin:miter;stroke-opacity:1" d="M 256.358,82.0565 250.295,77.5095 z" id="boundary" inkscape:connector-curvature="0" />
	<path style="fill:none;stroke:red;stroke-width:1px;stroke-linecap:butt;stroke-linejoin:miter;stroke-opacity:1" d="M 250.295,77.5095 244.99,71.4469 z" id="boundary" inkscape:connector-curvature="0" />
	<path style="fill:none;stroke:red;stroke-width:1px;stroke-linecap:butt;stroke-linejoin:miter;stroke-opacity:1" d="M 262.42,86.6035 256.358,82.0565 z" id="boundary" inkscape:connector-curvature="0" />
	<path style="fill:none;stroke:red;stroke-width:1px;stroke-linecap:butt;stroke-linejoin:miter;stroke-opacity:1" d="M 272.272,98.7288 266.967,92.6662 z" id="boundary" inkscape:connector-curvature="0" />
	<path style="fill:none;stroke:red;stroke-width:1px;stroke-linecap:butt;stroke-linejoin:miter;stroke-opacity:1" d="M 266.967,92.6662 262.42,86.6035 z" id="boundary" inkscape:connector-curvature="0" />
	<path style="fill:none;stroke:red;stroke-width:1px;stroke-linecap:butt;stroke-linejoin:miter;stroke-opacity:1" d="M 272.272,98.7288 276.819,104.791 z" id="boundary" inkscape:connector-curvature="0" />
	<path style="fill:none;stroke:red;stroke-width:1px;stroke-linecap:butt;stroke-linejoin:miter;stroke-opacity:1" d="M 276.819,104.791 282.882,109.338 z" id="boundary" inkscape:connector-curvature="0" />
	<path style="fill:none;stroke:red;stroke-width:1px;stroke-linecap:butt;stroke-linejoin:miter;stroke-opacity:1" d="M 282.882,109.338 287.429,115.401 z" id="boundary" inkscape:connector-curvature="0" />
	<path style="fill:none;stroke:red;stroke-width:1px;stroke-linecap:butt;stroke-linejoin:miter;stroke-opacity:1" d="M 287.429,115.401 291.976,121.464 z" id="boundary" inkscape:connector-curvature="0" />
	<path style="fill:none;stroke:red;stroke-width:1px;stroke-linecap:butt;stroke-linejoin:miter;stroke-opacity:1" d="M 296.523,127.526 291.976,121.464 z" id="boundary" inkscape:connector-curvature="0" />
	<path style="fill:none;stroke:red;stroke-width:1px;stroke-linecap:butt;stroke-linejoin:miter;stroke-opacity:1" d="M 309.406,146.472 304.859,140.409 z" id="boundary" inkscape:connector-curvature="0" />
	<path style="fill:none;stroke:red;stroke-width:1px;stroke-linecap:butt;stroke-linejoin:miter;stroke-opacity:1" d="M 304.859,140.409 301.07,133.589 z" id="boundary" inkscape:connector-curvature="0" />
	<path style="fill:none;stroke:red;stroke-width:1px;stroke-linecap:butt;stroke-linejoin:miter;stroke-opacity:1" d="M 313.953,152.535 309.406,146.472 z" id="boundary" inkscape:connector-curvature="0" />
	<path style="fill:none;stroke:red;stroke-width:1px;stroke-linecap:butt;stroke-linejoin:miter;stroke-opacity:1" d="M 296.523,127.526 301.07,133.589 z" id="boundary" inkscape:connector-curvature="0" />
	<path style="fill:none;stroke:red;stroke-width:1px;stroke-linecap:butt;stroke-linejoin:miter;stroke-opacity:1" d="M 313.953,152.535 317.742,159.355 z" id="boundary" inkscape:connector-curvature="0" />
	<path style="fill:none;stroke:red;stroke-width:1px;stroke-linecap:butt;stroke-linejoin:miter;stroke-opacity:1" d="M 317.742,159.355 320.015,166.934 z" id="boundary" inkscape:connector-curvature="0" />
	<path style="fill:none;stroke:red;stroke-width:1px;stroke-linecap:butt;stroke-linejoin:miter;stroke-opacity:1" d="M 324.562,172.996 320.015,166.934 z" id="boundary" inkscape:connector-curvature="0" />
	<path style="fill:none;stroke:red;stroke-width:1px;stroke-linecap:butt;stroke-linejoin:miter;stroke-opacity:1" d="M 332.141,186.637 327.594,180.574 z" id="boundary" inkscape:connector-curvature="0" />
	<path style="fill:none;stroke:red;stroke-width:1px;stroke-linecap:butt;stroke-linejoin:miter;stroke-opacity:1" d="M 327.594,180.574 324.562,172.996 z" id="boundary" inkscape:connector-curvature="0" />
	<path style="fill:none;stroke:red;stroke-width:1px;stroke-linecap:butt;stroke-linejoin:miter;stroke-opacity:1" d="M 332.141,186.637 333.656,194.215 z" id="boundary" inkscape:connector-curvature="0" />
	<path style="fill:none;stroke:red;stroke-width:1px;stroke-linecap:butt;stroke-linejoin:miter;stroke-opacity:1" d="M 336.688,201.794 333.656,194.215 z" id="boundary" inkscape:connector-curvature="0" />
	<path style="fill:none;stroke:red;stroke-width:1px;stroke-linecap:butt;stroke-linejoin:miter;stroke-opacity:1" d="M 344.266,215.435 339.719,209.372 z" id="boundary" inkscape:connector-curvature="0" />
	<path style="fill:none;stroke:red;stroke-width:1px;stroke-linecap:butt;stroke-linejoin:miter;stroke-opacity:1" d="M 339.719,209.372 336.688,201.794 z" id="boundary" inkscape:connector-curvature="0" />
	<path style="fill:none;stroke:red;stroke-width:1px;stroke-linecap:butt;stroke-linejoin:miter;stroke-opacity:1" d="M 347.297,223.013 349.571,230.591 z" id="boundary" inkscape:connector-curvature="0" />
	<path style="fill:none;stroke:red;stroke-width:1px;stroke-linecap:butt;stroke-linejoin:miter;stroke-opacity:1" d="M 347.297,223.013 344.266,215.435 z" id="boundary" inkscape:connector-curvature="0" />
	<path style="fill:none;stroke:red;stroke-width:1px;stroke-linecap:butt;stroke-linejoin:miter;stroke-opacity:1" d="M 349.571,230.591 351.086,238.17 z" id="boundary" inkscape:connector-curvature="0" />
	<path style="fill:none;stroke:red;stroke-width:1px;stroke-linecap:butt;stroke-linejoin:miter;stroke-opacity:1" d="M 351.086,238.17 356.391,244.232 z" id="boundary" inkscape:connector-curvature="0" />
	<path style="fill:none;stroke:red;stroke-width:1px;stroke-linecap:butt;stroke-linejoin:miter;stroke-opacity:1" d="M 356.391,244.232 357.907,251.811 z" id="boundary" inkscape:connector-curvature="0" />
	<path style="fill:none;stroke:red;stroke-width:1px;stroke-linecap:butt;stroke-linejoin:miter;stroke-opacity:1" d="M 360.938,259.389 357.907,251.811 z" id="boundary" inkscape:connector-curvature="0" />
	<path style="fill:none;stroke:red;stroke-width:1px;stroke-linecap:butt;stroke-linejoin:miter;stroke-opacity:1" d="M 130.558,7.78915 138.136,10.0626 z" id="boundary" inkscape:connector-curvature="0" />
	<path style="fill:none;stroke:red;stroke-width:1px;stroke-linecap:butt;stroke-linejoin:miter;stroke-opacity:1" d="M 93.424,263.936 87.3613,258.631 z" id="boundary" inkscape:connector-curvature="0" />
	<path style="fill:none;stroke:red;stroke-width:1px;stroke-linecap:butt;stroke-linejoin:miter;stroke-opacity:1" d="M 99.4866,269.241 107.065,272.272 z" id="boundary" inkscape:connector-curvature="0" />
	<path style="fill:none;stroke:red;stroke-width:1px;stroke-linecap:butt;stroke-linejoin:miter;stroke-opacity:1" d="M 107.065,272.272 110.854,279.092 z" id="boundary" inkscape:connector-curvature="0" />
	<path style="fill:none;stroke:red;stroke-width:1px;stroke-linecap:butt;stroke-linejoin:miter;stroke-opacity:1" d="M 99.4866,269.241 93.424,263.936 z" id="boundary" inkscape:connector-curvature="0" />
	<path style="fill:none;stroke:red;stroke-width:1px;stroke-linecap:butt;stroke-linejoin:miter;stroke-opacity:1" d="M 116.917,283.639 110.854,279.092 z" id="boundary" inkscape:connector-curvature="0" />
	<path style="fill:none;stroke:red;stroke-width:1px;stroke-linecap:butt;stroke-linejoin:miter;stroke-opacity:1" d="M 116.917,283.639 122.979,288.186 z" id="boundary" inkscape:connector-curvature="0" />
	<path style="fill:none;stroke:red;stroke-width:1px;stroke-linecap:butt;stroke-linejoin:miter;stroke-opacity:1" d="M 129.042,292.733 122.979,288.186 z" id="boundary" inkscape:connector-curvature="0" />
	<path style="fill:none;stroke:red;stroke-width:1px;stroke-linecap:butt;stroke-linejoin:miter;stroke-opacity:1" d="M 136.62,295.765 129.042,292.733 z" id="boundary" inkscape:connector-curvature="0" />
	<path style="fill:none;stroke:red;stroke-width:1px;stroke-linecap:butt;stroke-linejoin:miter;stroke-opacity:1" d="M 147.988,306.374 141.925,301.827 z" id="boundary" inkscape:connector-curvature="0" />
	<path style="fill:none;stroke:red;stroke-width:1px;stroke-linecap:butt;stroke-linejoin:miter;stroke-opacity:1" d="M 141.925,301.827 136.62,295.765 z" id="boundary" inkscape:connector-curvature="0" />
	<path style="fill:none;stroke:red;stroke-width:1px;stroke-linecap:butt;stroke-linejoin:miter;stroke-opacity:1" d="M 154.808,310.163 147.988,306.374 z" id="boundary" inkscape:connector-curvature="0" />
	<path style="fill:none;stroke:red;stroke-width:1px;stroke-linecap:butt;stroke-linejoin:miter;stroke-opacity:1" d="M 160.871,314.71 154.808,310.163 z" id="boundary" inkscape:connector-curvature="0" />
	<path style="fill:none;stroke:red;stroke-width:1px;stroke-linecap:butt;stroke-linejoin:miter;stroke-opacity:1" d="M 168.449,317.742 160.871,314.71 z" id="boundary" inkscape:connector-curvature="0" />
	<path style="fill:none;stroke:red;stroke-width:1px;stroke-linecap:butt;stroke-linejoin:miter;stroke-opacity:1" d="M 370.032,281.366 367.001,273.788 z" id="boundary" inkscape:connector-curvature="0" />
	<path style="fill:none;stroke:red;stroke-width:1px;stroke-linecap:butt;stroke-linejoin:miter;stroke-opacity:1" d="M 367.001,273.788 364.727,266.209 z" id="boundary" inkscape:connector-curvature="0" />
	<path style="fill:none;stroke:red;stroke-width:1px;stroke-linecap:butt;stroke-linejoin:miter;stroke-opacity:1" d="M 360.938,259.389 364.727,266.209 z" id="boundary" inkscape:connector-curvature="0" />
	<path style="fill:none;stroke:red;stroke-width:1px;stroke-linecap:butt;stroke-linejoin:miter;stroke-opacity:1" d="M 188.911,327.594 181.332,326.078 z" id="boundary" inkscape:connector-curvature="0" />
	<path style="fill:none;stroke:red;stroke-width:1px;stroke-linecap:butt;stroke-linejoin:miter;stroke-opacity:1" d="M 181.332,326.078 174.512,322.289 z" id="boundary" inkscape:connector-curvature="0" />
	<path style="fill:none;stroke:red;stroke-width:1px;stroke-linecap:butt;stroke-linejoin:miter;stroke-opacity:1" d="M 174.512,322.289 168.449,317.742 z" id="boundary" inkscape:connector-curvature="0" />
	<path style="fill:none;stroke:red;stroke-width:1px;stroke-linecap:butt;stroke-linejoin:miter;stroke-opacity:1" d="M 188.911,327.594 195.731,331.383 z" id="boundary" inkscape:connector-curvature="0" />
	<path style="fill:none;stroke:red;stroke-width:1px;stroke-linecap:butt;stroke-linejoin:miter;stroke-opacity:1" d="M 202.552,335.172 195.731,331.383 z" id="boundary" inkscape:connector-curvature="0" />
	<path style="fill:none;stroke:red;stroke-width:1px;stroke-linecap:butt;stroke-linejoin:miter;stroke-opacity:1" d="M 202.552,335.172 209.372,338.961 z" id="boundary" inkscape:connector-curvature="0" />
	<path style="fill:none;stroke:red;stroke-width:1px;stroke-linecap:butt;stroke-linejoin:miter;stroke-opacity:1" d="M 209.372,338.961 216.95,341.992 z" id="boundary" inkscape:connector-curvature="0" />
	<path style="fill:none;stroke:red;stroke-width:1px;stroke-linecap:butt;stroke-linejoin:miter;stroke-opacity:1" d="M 238.927,351.086 231.349,348.813 z" id="boundary" inkscape:connector-curvature="0" />
	<path style="fill:none;stroke:red;stroke-width:1px;stroke-linecap:butt;stroke-linejoin:miter;stroke-opacity:1" d="M 231.349,348.813 224.529,345.024 z" id="boundary" inkscape:connector-curvature="0" />
	<path style="fill:none;stroke:red;stroke-width:1px;stroke-linecap:butt;stroke-linejoin:miter;stroke-opacity:1" d="M 216.95,341.992 224.529,345.024 z" id="boundary" inkscape:connector-curvature="0" />
	<path style="fill:none;stroke:red;stroke-width:1px;stroke-linecap:butt;stroke-linejoin:miter;stroke-opacity:1" d="M 260.905,358.665 253.326,357.149 z" id="boundary" inkscape:connector-curvature="0" />
	<path style="fill:none;stroke:red;stroke-width:1px;stroke-linecap:butt;stroke-linejoin:miter;stroke-opacity:1" d="M 253.326,357.149 246.506,353.36 z" id="boundary" inkscape:connector-curvature="0" />
	<path style="fill:none;stroke:red;stroke-width:1px;stroke-linecap:butt;stroke-linejoin:miter;stroke-opacity:1" d="M 260.905,358.665 268.483,361.696 z" id="boundary" inkscape:connector-curvature="0" />
	<path style="fill:none;stroke:red;stroke-width:1px;stroke-linecap:butt;stroke-linejoin:miter;stroke-opacity:1" d="M 238.927,351.086 246.506,353.36 z" id="boundary" inkscape:connector-curvature="0" />
	<path style="fill:none;stroke:red;stroke-width:1px;stroke-linecap:butt;stroke-linejoin:miter;stroke-opacity:1" d="M 283.639,366.243 276.061,364.727 z" id="boundary" inkscape:connector-curvature="0" />
	<path style="fill:none;stroke:red;stroke-width:1px;stroke-linecap:butt;stroke-linejoin:miter;stroke-opacity:1" d="M 276.061,364.727 268.483,361.696 z" id="boundary" inkscape:connector-curvature="0" />
	<path style="fill:none;stroke:red;stroke-width:1px;stroke-linecap:butt;stroke-linejoin:miter;stroke-opacity:1" d="M 283.639,366.243 289.702,370.79 z" id="boundary" inkscape:connector-curvature="0" />
	<path style="fill:none;stroke:red;stroke-width:1px;stroke-linecap:butt;stroke-linejoin:miter;stroke-opacity:1" d="M 289.702,370.79 297.28,373.063 z" id="boundary" inkscape:connector-curvature="0" />
	<path style="fill:none;stroke:red;stroke-width:1px;stroke-linecap:butt;stroke-linejoin:miter;stroke-opacity:1" d="M 297.28,373.063 304.101,376.853 z" id="boundary" inkscape:connector-curvature="0" />
	<path style="fill:none;stroke:red;stroke-width:1px;stroke-linecap:butt;stroke-linejoin:miter;stroke-opacity:1" d="M 311.679,379.884 319.257,382.157 z" id="boundary" inkscape:connector-curvature="0" />
	<path style="fill:none;stroke:red;stroke-width:1px;stroke-linecap:butt;stroke-linejoin:miter;stroke-opacity:1" d="M 311.679,379.884 304.101,376.853 z" id="boundary" inkscape:connector-curvature="0" />
	<path style="fill:none;stroke:red;stroke-width:1px;stroke-linecap:butt;stroke-linejoin:miter;stroke-opacity:1" d="M 319.257,382.157 326.836,385.189 z" id="boundary" inkscape:connector-curvature="0" />
	<path style="fill:none;stroke:red;stroke-width:1px;stroke-linecap:butt;stroke-linejoin:miter;stroke-opacity:1" d="M 326.836,385.189 332.898,389.736 z" id="boundary" inkscape:connector-curvature="0" />
	<path style="fill:none;stroke:red;stroke-width:1px;stroke-linecap:butt;stroke-linejoin:miter;stroke-opacity:1" d="M 347.297,395.798 339.719,393.525 z" id="boundary" inkscape:connector-curvature="0" />
	<path style="fill:none;stroke:red;stroke-width:1px;stroke-linecap:butt;stroke-linejoin:miter;stroke-opacity:1" d="M 339.719,393.525 332.898,389.736 z" id="boundary" inkscape:connector-curvature="0" />
	<path style="fill:none;stroke:red;stroke-width:1px;stroke-linecap:butt;stroke-linejoin:miter;stroke-opacity:1" d="M 347.297,395.798 354.118,399.587 z" id="boundary" inkscape:connector-curvature="0" />
	<path style="fill:none;stroke:red;stroke-width:1px;stroke-linecap:butt;stroke-linejoin:miter;stroke-opacity:1" d="M 354.118,399.587 361.696,402.619 z" id="boundary" inkscape:connector-curvature="0" />
	<path style="fill:none;stroke:red;stroke-width:1px;stroke-linecap:butt;stroke-linejoin:miter;stroke-opacity:1" d="M 361.696,402.619 367.759,407.166 z" id="boundary" inkscape:connector-curvature="0" />
	<path style="fill:none;stroke:red;stroke-width:1px;stroke-linecap:butt;stroke-linejoin:miter;stroke-opacity:1" d="M 370.032,281.366 372.306,288.944 z" id="boundary" inkscape:connector-curvature="0" />
	<path style="fill:none;stroke:red;stroke-width:1px;stroke-linecap:butt;stroke-linejoin:miter;stroke-opacity:1" d="M 372.306,288.944 376.095,295.765 z" id="boundary" inkscape:connector-curvature="0" />
	<path style="fill:none;stroke:red;stroke-width:1px;stroke-linecap:butt;stroke-linejoin:miter;stroke-opacity:1" d="M 376.095,295.765 376.853,303.343 z" id="boundary" inkscape:connector-curvature="0" />
	<path style="fill:none;stroke:red;stroke-width:1px;stroke-linecap:butt;stroke-linejoin:miter;stroke-opacity:1" d="M 380.642,310.163 376.853,303.343 z" id="boundary" inkscape:connector-curvature="0" />
	<path style="fill:none;stroke:red;stroke-width:1px;stroke-linecap:butt;stroke-linejoin:miter;stroke-opacity:1" d="M 385.189,316.226 380.642,310.163 z" id="boundary" inkscape:connector-curvature="0" />
	<path style="fill:none;stroke:red;stroke-width:1px;stroke-linecap:butt;stroke-linejoin:miter;stroke-opacity:1" d="M 385.189,316.226 385.947,323.804 z" id="boundary" inkscape:connector-curvature="0" />
	<path style="fill:none;stroke:red;stroke-width:1px;stroke-linecap:butt;stroke-linejoin:miter;stroke-opacity:1" d="M 388.22,331.383 392.767,337.445 z" id="boundary" inkscape:connector-curvature="0" />
	<path style="fill:none;stroke:red;stroke-width:1px;stroke-linecap:butt;stroke-linejoin:miter;stroke-opacity:1" d="M 385.947,323.804 388.22,331.383 z" id="boundary" inkscape:connector-curvature="0" />
	<path style="fill:none;stroke:red;stroke-width:1px;stroke-linecap:butt;stroke-linejoin:miter;stroke-opacity:1" d="M 392.767,337.445 397.314,343.508 z" id="boundary" inkscape:connector-curvature="0" />
	<path style="fill:none;stroke:red;stroke-width:1px;stroke-linecap:butt;stroke-linejoin:miter;stroke-opacity:1" d="M 401.103,350.328 397.314,343.508 z" id="boundary" inkscape:connector-curvature="0" />
	<path style="fill:none;stroke:red;stroke-width:1px;stroke-linecap:butt;stroke-linejoin:miter;stroke-opacity:1" d="M 401.103,350.328 401.103,357.907 z" id="boundary" inkscape:connector-curvature="0" />
	<path style="fill:none;stroke:red;stroke-width:1px;stroke-linecap:butt;stroke-linejoin:miter;stroke-opacity:1" d="M 401.103,357.907 408.681,360.938 z" id="boundary" inkscape:connector-curvature="0" />
	<path style="fill:none;stroke:red;stroke-width:1px;stroke-linecap:butt;stroke-linejoin:miter;stroke-opacity:1" d="M 408.681,360.938 413.986,367.001 z" id="boundary" inkscape:connector-curvature="0" />
	<path style="fill:none;stroke:red;stroke-width:1px;stroke-linecap:butt;stroke-linejoin:miter;stroke-opacity:1" d="M 413.986,367.001 418.533,373.063 z" id="boundary" inkscape:connector-curvature="0" />
	<path style="fill:none;stroke:red;stroke-width:1px;stroke-linecap:butt;stroke-linejoin:miter;stroke-opacity:1" d="M 418.533,373.063 424.596,378.368 z" id="boundary" inkscape:connector-curvature="0" />
	<path style="fill:none;stroke:red;stroke-width:1px;stroke-linecap:butt;stroke-linejoin:miter;stroke-opacity:1" d="M 424.596,378.368 428.385,385.189 z" id="boundary" inkscape:connector-curvature="0" />
	<path style="fill:none;stroke:red;stroke-width:1px;stroke-linecap:butt;stroke-linejoin:miter;stroke-opacity:1" d="M 434.448,389.736 428.385,385.189 z" id="boundary" inkscape:connector-curvature="0" />
	<path style="fill:none;stroke:red;stroke-width:1px;stroke-linecap:butt;stroke-linejoin:miter;stroke-opacity:1" d="M 438.995,395.798 434.448,389.736 z" id="boundary" inkscape:connector-curvature="0" />
	<path style="fill:none;stroke:red;stroke-width:1px;stroke-linecap:butt;stroke-linejoin:miter;stroke-opacity:1" d="M 443.542,401.861 438.995,395.798 z" id="boundary" inkscape:connector-curvature="0" />
	<path style="fill:none;stroke:red;stroke-width:1px;stroke-linecap:butt;stroke-linejoin:miter;stroke-opacity:1" d="M 450.362,405.65 443.542,401.861 z" id="boundary" inkscape:connector-curvature="0" />
	<path style="fill:none;stroke:red;stroke-width:1px;stroke-linecap:butt;stroke-linejoin:miter;stroke-opacity:1" d="M 466.277,422.322 460.214,417.775 z" id="boundary" inkscape:connector-curvature="0" />
	<path style="fill:none;stroke:red;stroke-width:1px;stroke-linecap:butt;stroke-linejoin:miter;stroke-opacity:1" d="M 460.214,417.775 454.909,411.713 z" id="boundary" inkscape:connector-curvature="0" />
	<path style="fill:none;stroke:red;stroke-width:1px;stroke-linecap:butt;stroke-linejoin:miter;stroke-opacity:1" d="M 454.909,411.713 450.362,405.65 z" id="boundary" inkscape:connector-curvature="0" />
	<path style="fill:none;stroke:red;stroke-width:1px;stroke-linecap:butt;stroke-linejoin:miter;stroke-opacity:1" d="M 373.821,412.471 367.759,407.166 z" id="boundary" inkscape:connector-curvature="0" />
	<path style="fill:none;stroke:red;stroke-width:1px;stroke-linecap:butt;stroke-linejoin:miter;stroke-opacity:1" d="M 378.368,418.533 385.947,420.807 z" id="boundary" inkscape:connector-curvature="0" />
	<path style="fill:none;stroke:red;stroke-width:1px;stroke-linecap:butt;stroke-linejoin:miter;stroke-opacity:1" d="M 385.947,420.807 390.494,426.869 z" id="boundary" inkscape:connector-curvature="0" />
	<path style="fill:none;stroke:red;stroke-width:1px;stroke-linecap:butt;stroke-linejoin:miter;stroke-opacity:1" d="M 378.368,418.533 373.821,412.471 z" id="boundary" inkscape:connector-curvature="0" />
	<path style="fill:none;stroke:red;stroke-width:1px;stroke-linecap:butt;stroke-linejoin:miter;stroke-opacity:1" d="M 398.072,426.112 390.494,426.869 z" id="boundary" inkscape:connector-curvature="0" />
	<path style="fill:none;stroke:red;stroke-width:1px;stroke-linecap:butt;stroke-linejoin:miter;stroke-opacity:1" d="M 412.471,445.815 406.408,441.268 z" id="boundary" inkscape:connector-curvature="0" />
	<path style="fill:none;stroke:red;stroke-width:1px;stroke-linecap:butt;stroke-linejoin:miter;stroke-opacity:1" d="M 406.408,441.268 402.619,434.448 z" id="boundary" inkscape:connector-curvature="0" />
	<path style="fill:none;stroke:red;stroke-width:1px;stroke-linecap:butt;stroke-linejoin:miter;stroke-opacity:1" d="M 398.072,426.112 402.619,434.448 z" id="boundary" inkscape:connector-curvature="0" />
	<path style="fill:none;stroke:red;stroke-width:1px;stroke-linecap:butt;stroke-linejoin:miter;stroke-opacity:1" d="M 412.471,445.815 419.291,450.362 z" id="boundary" inkscape:connector-curvature="0" />
	<path style="fill:none;stroke:red;stroke-width:1px;stroke-linecap:butt;stroke-linejoin:miter;stroke-opacity:1" d="M 419.291,450.362 423.838,456.425 z" id="boundary" inkscape:connector-curvature="0" />
	<path style="fill:none;stroke:red;stroke-width:1px;stroke-linecap:butt;stroke-linejoin:miter;stroke-opacity:1" d="M 429.901,461.73 437.479,462.487 z" id="boundary" inkscape:connector-curvature="0" />
	<path style="fill:none;stroke:red;stroke-width:1px;stroke-linecap:butt;stroke-linejoin:miter;stroke-opacity:1" d="M 437.479,462.487 442.784,468.55 z" id="boundary" inkscape:connector-curvature="0" />
	<path style="fill:none;stroke:red;stroke-width:1px;stroke-linecap:butt;stroke-linejoin:miter;stroke-opacity:1" d="M 429.901,461.73 423.838,456.425 z" id="boundary" inkscape:connector-curvature="0" />
	<path style="fill:none;stroke:red;stroke-width:1px;stroke-linecap:butt;stroke-linejoin:miter;stroke-opacity:1" d="M 451.12,480.675 448.846,473.097 z" id="boundary" inkscape:connector-curvature="0" />
	<path style="fill:none;stroke:red;stroke-width:1px;stroke-linecap:butt;stroke-linejoin:miter;stroke-opacity:1" d="M 466.277,422.322 472.339,426.869 z" id="boundary" inkscape:connector-curvature="0" />
	<path style="fill:none;stroke:red;stroke-width:1px;stroke-linecap:butt;stroke-linejoin:miter;stroke-opacity:1" d="M 448.846,473.097 442.784,468.55 z" id="boundary" inkscape:connector-curvature="0" />
	<path style="fill:none;stroke:red;stroke-width:1px;stroke-linecap:butt;stroke-linejoin:miter;stroke-opacity:1" d="M 482.949,437.479 476.886,432.932 z" id="boundary" inkscape:connector-curvature="0" />
	<path style="fill:none;stroke:red;stroke-width:1px;stroke-linecap:butt;stroke-linejoin:miter;stroke-opacity:1" d="M 476.886,432.932 472.339,426.869 z" id="boundary" inkscape:connector-curvature="0" />
	<path style="fill:none;stroke:red;stroke-width:1px;stroke-linecap:butt;stroke-linejoin:miter;stroke-opacity:1" d="M 454.909,487.496 461.73,491.285 z" id="boundary" inkscape:connector-curvature="0" />
	<path style="fill:none;stroke:red;stroke-width:1px;stroke-linecap:butt;stroke-linejoin:miter;stroke-opacity:1" d="M 461.73,491.285 465.519,498.105 z" id="boundary" inkscape:connector-curvature="0" />
	<path style="fill:none;stroke:red;stroke-width:1px;stroke-linecap:butt;stroke-linejoin:miter;stroke-opacity:1" d="M 454.909,487.496 451.12,480.675 z" id="boundary" inkscape:connector-curvature="0" />
	<path style="fill:none;stroke:red;stroke-width:1px;stroke-linecap:butt;stroke-linejoin:miter;stroke-opacity:1" d="M 472.339,501.895 465.519,498.105 z" id="boundary" inkscape:connector-curvature="0" />
	<path style="fill:none;stroke:red;stroke-width:1px;stroke-linecap:butt;stroke-linejoin:miter;stroke-opacity:1" d="M 472.339,501.895 479.917,503.41 z" id="boundary" inkscape:connector-curvature="0" />
	<path style="fill:none;stroke:red;stroke-width:1px;stroke-linecap:butt;stroke-linejoin:miter;stroke-opacity:1" d="M 479.917,503.41 484.464,511.746 z" id="boundary" inkscape:connector-curvature="0" />
	<path style="fill:none;stroke:red;stroke-width:1px;stroke-linecap:butt;stroke-linejoin:miter;stroke-opacity:1" d="M 482.949,437.479 488.254,443.542 z" id="boundary" inkscape:connector-curvature="0" />
	<path style="fill:none;stroke:red;stroke-width:1px;stroke-linecap:butt;stroke-linejoin:miter;stroke-opacity:1" d="M 484.464,511.746 489.011,517.809 z" id="boundary" inkscape:connector-curvature="0" />
	<path style="fill:none;stroke:red;stroke-width:1px;stroke-linecap:butt;stroke-linejoin:miter;stroke-opacity:1" d="M 494.316,448.089 488.254,443.542 z" id="boundary" inkscape:connector-curvature="0" />
	<path style="fill:none;stroke:red;stroke-width:1px;stroke-linecap:butt;stroke-linejoin:miter;stroke-opacity:1" d="M 510.989,463.245 504.926,458.698 z" id="boundary" inkscape:connector-curvature="0" />
	<path style="fill:none;stroke:red;stroke-width:1px;stroke-linecap:butt;stroke-linejoin:miter;stroke-opacity:1" d="M 504.926,458.698 500.379,452.636 z" id="boundary" inkscape:connector-curvature="0" />
	<path style="fill:none;stroke:red;stroke-width:1px;stroke-linecap:butt;stroke-linejoin:miter;stroke-opacity:1" d="M 510.989,463.245 516.293,469.308 z" id="boundary" inkscape:connector-curvature="0" />
	<path style="fill:none;stroke:red;stroke-width:1px;stroke-linecap:butt;stroke-linejoin:miter;stroke-opacity:1" d="M 494.316,448.089 500.379,452.636 z" id="boundary" inkscape:connector-curvature="0" />
	<path style="fill:none;stroke:red;stroke-width:1px;stroke-linecap:butt;stroke-linejoin:miter;stroke-opacity:1" d="M 500.379,529.176 494.316,523.872 z" id="boundary" inkscape:connector-curvature="0" />
	<path style="fill:none;stroke:red;stroke-width:1px;stroke-linecap:butt;stroke-linejoin:miter;stroke-opacity:1" d="M 494.316,523.872 489.011,517.809 z" id="boundary" inkscape:connector-curvature="0" />
	<path style="fill:none;stroke:red;stroke-width:1px;stroke-linecap:butt;stroke-linejoin:miter;stroke-opacity:1" d="M 514.02,536.755 506.442,534.481 z" id="boundary" inkscape:connector-curvature="0" />
	<path style="fill:none;stroke:red;stroke-width:1px;stroke-linecap:butt;stroke-linejoin:miter;stroke-opacity:1" d="M 506.442,534.481 500.379,529.176 z" id="boundary" inkscape:connector-curvature="0" />
	<path style="fill:none;stroke:red;stroke-width:1px;stroke-linecap:butt;stroke-linejoin:miter;stroke-opacity:1" d="M 516.293,469.308 520.84,475.371 z" id="boundary" inkscape:connector-curvature="0" />
	<path style="fill:none;stroke:red;stroke-width:1px;stroke-linecap:butt;stroke-linejoin:miter;stroke-opacity:1" d="M 526.903,479.917 532.208,485.98 z" id="boundary" inkscape:connector-curvature="0" />
	<path style="fill:none;stroke:red;stroke-width:1px;stroke-linecap:butt;stroke-linejoin:miter;stroke-opacity:1" d="M 526.903,479.917 520.84,475.371 z" id="boundary" inkscape:connector-curvature="0" />
	<path style="fill:none;stroke:red;stroke-width:1px;stroke-linecap:butt;stroke-linejoin:miter;stroke-opacity:1" d="M 538.27,490.527 532.208,485.98 z" id="boundary" inkscape:connector-curvature="0" />
	<path style="fill:none;stroke:red;stroke-width:1px;stroke-linecap:butt;stroke-linejoin:miter;stroke-opacity:1" d="M 548.88,501.137 542.817,496.59 z" id="boundary" inkscape:connector-curvature="0" />
	<path style="fill:none;stroke:red;stroke-width:1px;stroke-linecap:butt;stroke-linejoin:miter;stroke-opacity:1" d="M 542.817,496.59 538.27,490.527 z" id="boundary" inkscape:connector-curvature="0" />
	<path style="fill:none;stroke:red;stroke-width:1px;stroke-linecap:butt;stroke-linejoin:miter;stroke-opacity:1" d="M 548.88,501.137 552.669,507.957 z" id="boundary" inkscape:connector-curvature="0" />
	<path style="fill:none;stroke:red;stroke-width:1px;stroke-linecap:butt;stroke-linejoin:miter;stroke-opacity:1" d="M 552.669,507.957 558.732,512.504 z" id="boundary" inkscape:connector-curvature="0" />
	<path style="fill:none;stroke:red;stroke-width:1px;stroke-linecap:butt;stroke-linejoin:miter;stroke-opacity:1" d="M 564.794,517.051 558.732,512.504 z" id="boundary" inkscape:connector-curvature="0" />
	<path style="fill:none;stroke:red;stroke-width:1px;stroke-linecap:butt;stroke-linejoin:miter;stroke-opacity:1" d="M 571.615,520.84 576.92,526.903 z" id="boundary" inkscape:connector-curvature="0" />
	<path style="fill:none;stroke:red;stroke-width:1px;stroke-linecap:butt;stroke-linejoin:miter;stroke-opacity:1" d="M 564.794,517.051 571.615,520.84 z" id="boundary" inkscape:connector-curvature="0" />
	<path style="fill:none;stroke:red;stroke-width:1px;stroke-linecap:butt;stroke-linejoin:miter;stroke-opacity:1" d="M 582.225,532.966 576.92,526.903 z" id="boundary" inkscape:connector-curvature="0" />
	<path style="fill:none;stroke:red;stroke-width:1px;stroke-linecap:butt;stroke-linejoin:miter;stroke-opacity:1" d="M 588.287,538.27 582.225,532.966 z" id="boundary" inkscape:connector-curvature="0" />
	<path style="fill:none;stroke:red;stroke-width:1px;stroke-linecap:butt;stroke-linejoin:miter;stroke-opacity:1" d="M 515.536,544.333 522.356,548.122 z" id="boundary" inkscape:connector-curvature="0" />
	<path style="fill:none;stroke:red;stroke-width:1px;stroke-linecap:butt;stroke-linejoin:miter;stroke-opacity:1" d="M 539.786,562.521 532.208,560.248 z" id="boundary" inkscape:connector-curvature="0" />
	<path style="fill:none;stroke:red;stroke-width:1px;stroke-linecap:butt;stroke-linejoin:miter;stroke-opacity:1" d="M 532.208,560.248 528.419,553.427 z" id="boundary" inkscape:connector-curvature="0" />
	<path style="fill:none;stroke:red;stroke-width:1px;stroke-linecap:butt;stroke-linejoin:miter;stroke-opacity:1" d="M 539.786,562.521 545.091,568.584 z" id="boundary" inkscape:connector-curvature="0" />
	<path style="fill:none;stroke:red;stroke-width:1px;stroke-linecap:butt;stroke-linejoin:miter;stroke-opacity:1" d="M 522.356,548.122 528.419,553.427 z" id="boundary" inkscape:connector-curvature="0" />
	<path style="fill:none;stroke:red;stroke-width:1px;stroke-linecap:butt;stroke-linejoin:miter;stroke-opacity:1" d="M 545.091,568.584 551.154,573.888 z" id="boundary" inkscape:connector-curvature="0" />
	<path style="fill:none;stroke:red;stroke-width:1px;stroke-linecap:butt;stroke-linejoin:miter;stroke-opacity:1" d="M 551.154,573.888 555.701,579.951 z" id="boundary" inkscape:connector-curvature="0" />
	<path style="fill:none;stroke:red;stroke-width:1px;stroke-linecap:butt;stroke-linejoin:miter;stroke-opacity:1" d="M 561.763,584.498 555.701,579.951 z" id="boundary" inkscape:connector-curvature="0" />
	<path style="fill:none;stroke:red;stroke-width:1px;stroke-linecap:butt;stroke-linejoin:miter;stroke-opacity:1" d="M 571.615,595.866 565.552,591.319 z" id="boundary" inkscape:connector-curvature="0" />
	<path style="fill:none;stroke:red;stroke-width:1px;stroke-linecap:butt;stroke-linejoin:miter;stroke-opacity:1" d="M 565.552,591.319 561.763,584.498 z" id="boundary" inkscape:connector-curvature="0" />
	<path style="fill:none;stroke:red;stroke-width:1px;stroke-linecap:butt;stroke-linejoin:miter;stroke-opacity:1" d="M 571.615,595.866 575.404,602.686 z" id="boundary" inkscape:connector-curvature="0" />
	<path style="fill:none;stroke:red;stroke-width:1px;stroke-linecap:butt;stroke-linejoin:miter;stroke-opacity:1" d="M 592.834,544.333 598.897,548.88 z" id="boundary" inkscape:connector-curvature="0" />
	<path style="fill:none;stroke:red;stroke-width:1px;stroke-linecap:butt;stroke-linejoin:miter;stroke-opacity:1" d="M 588.287,538.27 592.834,544.333 z" id="boundary" inkscape:connector-curvature="0" />
	<path style="fill:none;stroke:red;stroke-width:1px;stroke-linecap:butt;stroke-linejoin:miter;stroke-opacity:1" d="M 598.897,548.88 604.202,554.943 z" id="boundary" inkscape:connector-curvature="0" />
	<path style="fill:none;stroke:red;stroke-width:1px;stroke-linecap:butt;stroke-linejoin:miter;stroke-opacity:1" d="M 608.749,561.005 604.202,554.943 z" id="boundary" inkscape:connector-curvature="0" />
	<path style="fill:none;stroke:red;stroke-width:1px;stroke-linecap:butt;stroke-linejoin:miter;stroke-opacity:1" d="M 615.569,564.794 608.749,561.005 z" id="boundary" inkscape:connector-curvature="0" />
	<path style="fill:none;stroke:red;stroke-width:1px;stroke-linecap:butt;stroke-linejoin:miter;stroke-opacity:1" d="M 581.467,607.233 575.404,602.686 z" id="boundary" inkscape:connector-curvature="0" />
	<path style="fill:none;stroke:red;stroke-width:1px;stroke-linecap:butt;stroke-linejoin:miter;stroke-opacity:1" d="M 587.529,612.538 581.467,607.233 z" id="boundary" inkscape:connector-curvature="0" />
	<path style="fill:none;stroke:red;stroke-width:1px;stroke-linecap:butt;stroke-linejoin:miter;stroke-opacity:1" d="M 594.35,616.327 587.529,612.538 z" id="boundary" inkscape:connector-curvature="0" />
	<path style="fill:none;stroke:red;stroke-width:1px;stroke-linecap:butt;stroke-linejoin:miter;stroke-opacity:1" d="M 604.202,628.452 600.413,621.632 z" id="boundary" inkscape:connector-curvature="0" />
	<path style="fill:none;stroke:red;stroke-width:1px;stroke-linecap:butt;stroke-linejoin:miter;stroke-opacity:1" d="M 608.749,634.515 604.202,628.452 z" id="boundary" inkscape:connector-curvature="0" />
	<path style="fill:none;stroke:red;stroke-width:1px;stroke-linecap:butt;stroke-linejoin:miter;stroke-opacity:1" d="M 594.35,616.327 600.413,621.632 z" id="boundary" inkscape:connector-curvature="0" />
	<path style="fill:none;stroke:red;stroke-width:1px;stroke-linecap:butt;stroke-linejoin:miter;stroke-opacity:1" d="M 608.749,634.515 614.053,640.578 z" id="boundary" inkscape:connector-curvature="0" />
	<path style="fill:none;stroke:red;stroke-width:1px;stroke-linecap:butt;stroke-linejoin:miter;stroke-opacity:1" d="M 621.632,570.099 626.179,576.162 z" id="boundary" inkscape:connector-curvature="0" />
	<path style="fill:none;stroke:red;stroke-width:1px;stroke-linecap:butt;stroke-linejoin:miter;stroke-opacity:1" d="M 621.632,570.099 615.569,564.794 z" id="boundary" inkscape:connector-curvature="0" />
	<path style="fill:none;stroke:red;stroke-width:1px;stroke-linecap:butt;stroke-linejoin:miter;stroke-opacity:1" d="M 632.241,581.467 636.788,587.529 z" id="boundary" inkscape:connector-curvature="0" />
	<path style="fill:none;stroke:red;stroke-width:1px;stroke-linecap:butt;stroke-linejoin:miter;stroke-opacity:1" d="M 632.241,581.467 626.179,576.162 z" id="boundary" inkscape:connector-curvature="0" />
	<path style="fill:none;stroke:red;stroke-width:1px;stroke-linecap:butt;stroke-linejoin:miter;stroke-opacity:1" d="M 642.851,592.076 636.788,587.529 z" id="boundary" inkscape:connector-curvature="0" />
	<path style="fill:none;stroke:red;stroke-width:1px;stroke-linecap:butt;stroke-linejoin:miter;stroke-opacity:1" d="M 650.429,595.108 642.851,592.076 z" id="boundary" inkscape:connector-curvature="0" />
	<path style="fill:none;stroke:red;stroke-width:1px;stroke-linecap:butt;stroke-linejoin:miter;stroke-opacity:1" d="M 614.053,640.578 621.632,642.851 z" id="boundary" inkscape:connector-curvature="0" />
	<path style="fill:none;stroke:red;stroke-width:1px;stroke-linecap:butt;stroke-linejoin:miter;stroke-opacity:1" d="M 621.632,642.851 627.694,647.398 z" id="boundary" inkscape:connector-curvature="0" />
	<path style="fill:none;stroke:red;stroke-width:1px;stroke-linecap:butt;stroke-linejoin:miter;stroke-opacity:1" d="M 627.694,647.398 633.757,652.703 z" id="boundary" inkscape:connector-curvature="0" />
	<path style="fill:none;stroke:red;stroke-width:1px;stroke-linecap:butt;stroke-linejoin:miter;stroke-opacity:1" d="M 640.578,656.492 633.757,652.703 z" id="boundary" inkscape:connector-curvature="0" />
	<path style="fill:none;stroke:red;stroke-width:1px;stroke-linecap:butt;stroke-linejoin:miter;stroke-opacity:1" d="M 640.578,656.492 645.125,662.555 z" id="boundary" inkscape:connector-curvature="0" />
	<path style="fill:none;stroke:red;stroke-width:1px;stroke-linecap:butt;stroke-linejoin:miter;stroke-opacity:1" d="M 660.281,606.475 654.218,601.928 z" id="boundary" inkscape:connector-curvature="0" />
	<path style="fill:none;stroke:red;stroke-width:1px;stroke-linecap:butt;stroke-linejoin:miter;stroke-opacity:1" d="M 654.218,601.928 650.429,595.108 z" id="boundary" inkscape:connector-curvature="0" />
	<path style="fill:none;stroke:red;stroke-width:1px;stroke-linecap:butt;stroke-linejoin:miter;stroke-opacity:1" d="M 660.281,606.475 664.828,612.538 z" id="boundary" inkscape:connector-curvature="0" />
	<path style="fill:none;stroke:red;stroke-width:1px;stroke-linecap:butt;stroke-linejoin:miter;stroke-opacity:1" d="M 670.891,617.085 675.438,623.147 z" id="boundary" inkscape:connector-curvature="0" />
	<path style="fill:none;stroke:red;stroke-width:1px;stroke-linecap:butt;stroke-linejoin:miter;stroke-opacity:1" d="M 670.891,617.085 664.828,612.538 z" id="boundary" inkscape:connector-curvature="0" />
	<path style="fill:none;stroke:red;stroke-width:1px;stroke-linecap:butt;stroke-linejoin:miter;stroke-opacity:1" d="M 681.5,627.694 675.438,623.147 z" id="boundary" inkscape:connector-curvature="0" />
	<path style="fill:none;stroke:red;stroke-width:1px;stroke-linecap:butt;stroke-linejoin:miter;stroke-opacity:1" d="M 681.5,627.694 686.805,633.757 z" id="boundary" inkscape:connector-curvature="0" />
	<path style="fill:none;stroke:red;stroke-width:1px;stroke-linecap:butt;stroke-linejoin:miter;stroke-opacity:1" d="M 691.352,639.82 686.805,633.757 z" id="boundary" inkscape:connector-curvature="0" />
	<path style="fill:none;stroke:red;stroke-width:1px;stroke-linecap:butt;stroke-linejoin:miter;stroke-opacity:1" d="M 698.173,643.609 691.352,639.82 z" id="boundary" inkscape:connector-curvature="0" />
	<path style="fill:none;stroke:red;stroke-width:1px;stroke-linecap:butt;stroke-linejoin:miter;stroke-opacity:1" d="M 698.173,643.609 704.235,648.156 z" id="boundary" inkscape:connector-curvature="0" />
	<path style="fill:none;stroke:red;stroke-width:1px;stroke-linecap:butt;stroke-linejoin:miter;stroke-opacity:1" d="M 709.54,654.218 704.235,648.156 z" id="boundary" inkscape:connector-curvature="0" />
	<path style="fill:none;stroke:red;stroke-width:1px;stroke-linecap:butt;stroke-linejoin:miter;stroke-opacity:1" d="M 715.603,658.765 709.54,654.218 z" id="boundary" inkscape:connector-curvature="0" />
	<path style="fill:none;stroke:red;stroke-width:1px;stroke-linecap:butt;stroke-linejoin:miter;stroke-opacity:1" d="M 657.25,672.406 650.429,668.617 z" id="boundary" inkscape:connector-curvature="0" />
	<path style="fill:none;stroke:red;stroke-width:1px;stroke-linecap:butt;stroke-linejoin:miter;stroke-opacity:1" d="M 650.429,668.617 645.125,662.555 z" id="boundary" inkscape:connector-curvature="0" />
	<path style="fill:none;stroke:red;stroke-width:1px;stroke-linecap:butt;stroke-linejoin:miter;stroke-opacity:1" d="M 657.25,672.406 661.039,679.227 z" id="boundary" inkscape:connector-curvature="0" />
	<path style="fill:none;stroke:red;stroke-width:1px;stroke-linecap:butt;stroke-linejoin:miter;stroke-opacity:1" d="M 661.039,679.227 667.102,683.774 z" id="boundary" inkscape:connector-curvature="0" />
	<path style="fill:none;stroke:red;stroke-width:1px;stroke-linecap:butt;stroke-linejoin:miter;stroke-opacity:1" d="M 667.102,683.774 670.891,690.594 z" id="boundary" inkscape:connector-curvature="0" />
	<path style="fill:none;stroke:red;stroke-width:1px;stroke-linecap:butt;stroke-linejoin:miter;stroke-opacity:1" d="M 676.953,695.141 670.891,690.594 z" id="boundary" inkscape:connector-curvature="0" />
	<path style="fill:none;stroke:red;stroke-width:1px;stroke-linecap:butt;stroke-linejoin:miter;stroke-opacity:1" d="M 689.837,704.235 683.016,700.446 z" id="boundary" inkscape:connector-curvature="0" />
	<path style="fill:none;stroke:red;stroke-width:1px;stroke-linecap:butt;stroke-linejoin:miter;stroke-opacity:1" d="M 683.016,700.446 676.953,695.141 z" id="boundary" inkscape:connector-curvature="0" />
	<path style="fill:none;stroke:red;stroke-width:1px;stroke-linecap:butt;stroke-linejoin:miter;stroke-opacity:1" d="M 700.446,714.845 695.899,708.782 z" id="boundary" inkscape:connector-curvature="0" />
	<path style="fill:none;stroke:red;stroke-width:1px;stroke-linecap:butt;stroke-linejoin:miter;stroke-opacity:1" d="M 708.024,714.845 709.54,722.423 z" id="boundary" inkscape:connector-curvature="0" />
	<path style="fill:none;stroke:red;stroke-width:1px;stroke-linecap:butt;stroke-linejoin:miter;stroke-opacity:1" d="M 689.837,704.235 695.899,708.782 z" id="boundary" inkscape:connector-curvature="0" />
	<path style="fill:none;stroke:red;stroke-width:1px;stroke-linecap:butt;stroke-linejoin:miter;stroke-opacity:1" d="M 720.908,664.828 724.697,671.649 z" id="boundary" inkscape:connector-curvature="0" />
	<path style="fill:none;stroke:red;stroke-width:1px;stroke-linecap:butt;stroke-linejoin:miter;stroke-opacity:1" d="M 720.908,664.828 715.603,658.765 z" id="boundary" inkscape:connector-curvature="0" />
	<path style="fill:none;stroke:red;stroke-width:1px;stroke-linecap:butt;stroke-linejoin:miter;stroke-opacity:1" d="M 730.759,676.953 724.697,671.649 z" id="boundary" inkscape:connector-curvature="0" />
	<path style="fill:none;stroke:red;stroke-width:1px;stroke-linecap:butt;stroke-linejoin:miter;stroke-opacity:1" d="M 730.759,676.953 737.58,680.743 z" id="boundary" inkscape:connector-curvature="0" />
	<path style="fill:none;stroke:red;stroke-width:1px;stroke-linecap:butt;stroke-linejoin:miter;stroke-opacity:1" d="M 737.58,680.743 742.127,686.805 z" id="boundary" inkscape:connector-curvature="0" />
	<path style="fill:none;stroke:red;stroke-width:1px;stroke-linecap:butt;stroke-linejoin:miter;stroke-opacity:1" d="M 748.189,691.352 742.127,686.805 z" id="boundary" inkscape:connector-curvature="0" />
	<path style="fill:none;stroke:red;stroke-width:1px;stroke-linecap:butt;stroke-linejoin:miter;stroke-opacity:1" d="M 748.189,691.352 754.252,695.899 z" id="boundary" inkscape:connector-curvature="0" />
	<path style="fill:none;stroke:red;stroke-width:1px;stroke-linecap:butt;stroke-linejoin:miter;stroke-opacity:1" d="M 759.557,701.962 754.252,695.899 z" id="boundary" inkscape:connector-curvature="0" />
	<path style="fill:none;stroke:red;stroke-width:1px;stroke-linecap:butt;stroke-linejoin:miter;stroke-opacity:1" d="M 765.62,706.509 759.557,701.962 z" id="boundary" inkscape:connector-curvature="0" />
	<path style="fill:none;stroke:red;stroke-width:1px;stroke-linecap:butt;stroke-linejoin:miter;stroke-opacity:1" d="M 773.956,714.845 779.261,720.908 z" id="boundary" inkscape:connector-curvature="0" />
	<path style="fill:none;stroke:red;stroke-width:1px;stroke-linecap:butt;stroke-linejoin:miter;stroke-opacity:1" d="M 709.54,722.423 712.571,730.002 z" id="boundary" inkscape:connector-curvature="0" />
	<path style="fill:none;stroke:red;stroke-width:1px;stroke-linecap:butt;stroke-linejoin:miter;stroke-opacity:1" d="M 720.15,729.244 712.571,730.002 z" id="boundary" inkscape:connector-curvature="0" />
	<path style="fill:none;stroke:red;stroke-width:1px;stroke-linecap:butt;stroke-linejoin:miter;stroke-opacity:1" d="M 724.697,735.306 720.15,729.244 z" id="boundary" inkscape:connector-curvature="0" />
	<path style="fill:none;stroke:red;stroke-width:1px;stroke-linecap:butt;stroke-linejoin:miter;stroke-opacity:1" d="M 737.58,743.642 730.759,739.853 z" id="boundary" inkscape:connector-curvature="0" />
	<path style="fill:none;stroke:red;stroke-width:1px;stroke-linecap:butt;stroke-linejoin:miter;stroke-opacity:1" d="M 724.697,735.306 730.759,739.853 z" id="boundary" inkscape:connector-curvature="0" />
	<path style="fill:none;stroke:red;stroke-width:1px;stroke-linecap:butt;stroke-linejoin:miter;stroke-opacity:1" d="M 748.947,753.494 742.127,749.705 z" id="boundary" inkscape:connector-curvature="0" />
	<path style="fill:none;stroke:red;stroke-width:1px;stroke-linecap:butt;stroke-linejoin:miter;stroke-opacity:1" d="M 742.127,749.705 737.58,743.642 z" id="boundary" inkscape:connector-curvature="0" />
	<path style="fill:none;stroke:red;stroke-width:1px;stroke-linecap:butt;stroke-linejoin:miter;stroke-opacity:1" d="M 748.947,753.494 753.494,759.557 z" id="boundary" inkscape:connector-curvature="0" />
	<path style="fill:none;stroke:red;stroke-width:1px;stroke-linecap:butt;stroke-linejoin:miter;stroke-opacity:1" d="M 753.494,759.557 759.557,764.104 z" id="boundary" inkscape:connector-curvature="0" />
	<path style="fill:none;stroke:red;stroke-width:1px;stroke-linecap:butt;stroke-linejoin:miter;stroke-opacity:1" d="M 759.557,764.104 763.346,770.924 z" id="boundary" inkscape:connector-curvature="0" />
	<path style="fill:none;stroke:red;stroke-width:1px;stroke-linecap:butt;stroke-linejoin:miter;stroke-opacity:1" d="M 785.323,725.455 791.386,730.759 z" id="boundary" inkscape:connector-curvature="0" />
	<path style="fill:none;stroke:red;stroke-width:1px;stroke-linecap:butt;stroke-linejoin:miter;stroke-opacity:1" d="M 785.323,725.455 779.261,720.908 z" id="boundary" inkscape:connector-curvature="0" />
	<path style="fill:none;stroke:red;stroke-width:1px;stroke-linecap:butt;stroke-linejoin:miter;stroke-opacity:1" d="M 791.386,730.759 797.448,736.064 z" id="boundary" inkscape:connector-curvature="0" />
	<path style="fill:none;stroke:red;stroke-width:1px;stroke-linecap:butt;stroke-linejoin:miter;stroke-opacity:1" d="M 767.893,776.987 763.346,770.924 z" id="boundary" inkscape:connector-curvature="0" />
	<path style="fill:none;stroke:red;stroke-width:1px;stroke-linecap:butt;stroke-linejoin:miter;stroke-opacity:1" d="M 803.511,741.369 797.448,736.064 z" id="boundary" inkscape:connector-curvature="0" />
	<path style="fill:none;stroke:red;stroke-width:1px;stroke-linecap:butt;stroke-linejoin:miter;stroke-opacity:1" d="M 808.058,747.432 803.511,741.369 z" id="boundary" inkscape:connector-curvature="0" />
	<path style="fill:none;stroke:red;stroke-width:1px;stroke-linecap:butt;stroke-linejoin:miter;stroke-opacity:1" d="M 814.121,752.736 808.058,747.432 z" id="boundary" inkscape:connector-curvature="0" />
	<path style="fill:none;stroke:red;stroke-width:1px;stroke-linecap:butt;stroke-linejoin:miter;stroke-opacity:1" d="M 772.44,784.565 767.893,776.987 z" id="boundary" inkscape:connector-curvature="0" />
	<path style="fill:none;stroke:red;stroke-width:1px;stroke-linecap:butt;stroke-linejoin:miter;stroke-opacity:1" d="M 819.426,758.799 814.121,752.736 z" id="boundary" inkscape:connector-curvature="0" />
	<path style="fill:none;stroke:red;stroke-width:1px;stroke-linecap:butt;stroke-linejoin:miter;stroke-opacity:1" d="M 823.215,765.62 830.793,767.893 z" id="boundary" inkscape:connector-curvature="0" />
	<path style="fill:none;stroke:red;stroke-width:1px;stroke-linecap:butt;stroke-linejoin:miter;stroke-opacity:1" d="M 830.793,767.893 836.098,773.956 z" id="boundary" inkscape:connector-curvature="0" />
	<path style="fill:none;stroke:red;stroke-width:1px;stroke-linecap:butt;stroke-linejoin:miter;stroke-opacity:1" d="M 823.215,765.62 819.426,758.799 z" id="boundary" inkscape:connector-curvature="0" />
	<path style="fill:none;stroke:red;stroke-width:1px;stroke-linecap:butt;stroke-linejoin:miter;stroke-opacity:1" d="M 842.16,778.503 836.098,773.956 z" id="boundary" inkscape:connector-curvature="0" />
	<path style="fill:none;stroke:red;stroke-width:1px;stroke-linecap:butt;stroke-linejoin:miter;stroke-opacity:1" d="M 772.44,784.565 776.987,790.628 z" id="boundary" inkscape:connector-curvature="0" />
	<path style="fill:none;stroke:red;stroke-width:1px;stroke-linecap:butt;stroke-linejoin:miter;stroke-opacity:1" d="M 783.807,794.417 776.987,790.628 z" id="boundary" inkscape:connector-curvature="0" />
	<path style="fill:none;stroke:red;stroke-width:1px;stroke-linecap:butt;stroke-linejoin:miter;stroke-opacity:1" d="M 788.354,800.48 783.807,794.417 z" id="boundary" inkscape:connector-curvature="0" />
	<path style="fill:none;stroke:red;stroke-width:1px;stroke-linecap:butt;stroke-linejoin:miter;stroke-opacity:1" d="M 800.48,809.574 794.417,805.027 z" id="boundary" inkscape:connector-curvature="0" />
	<path style="fill:none;stroke:red;stroke-width:1px;stroke-linecap:butt;stroke-linejoin:miter;stroke-opacity:1" d="M 788.354,800.48 794.417,805.027 z" id="boundary" inkscape:connector-curvature="0" />
	<path style="fill:none;stroke:red;stroke-width:1px;stroke-linecap:butt;stroke-linejoin:miter;stroke-opacity:1" d="M 800.48,809.574 807.3,813.363 z" id="boundary" inkscape:connector-curvature="0" />
	<path style="fill:none;stroke:red;stroke-width:1px;stroke-linecap:butt;stroke-linejoin:miter;stroke-opacity:1" d="M 813.363,817.91 807.3,813.363 z" id="boundary" inkscape:connector-curvature="0" />
	<path style="fill:none;stroke:red;stroke-width:1px;stroke-linecap:butt;stroke-linejoin:miter;stroke-opacity:1" d="M 813.363,817.91 817.152,824.73 z" id="boundary" inkscape:connector-curvature="0" />
	<path style="fill:none;stroke:red;stroke-width:1px;stroke-linecap:butt;stroke-linejoin:miter;stroke-opacity:1" d="M 817.152,824.73 823.972,828.519 z" id="boundary" inkscape:connector-curvature="0" />
	<path style="fill:none;stroke:red;stroke-width:1px;stroke-linecap:butt;stroke-linejoin:miter;stroke-opacity:1" d="M 823.972,828.519 827.004,836.098 z" id="boundary" inkscape:connector-curvature="0" />
	<path style="fill:none;stroke:red;stroke-width:1px;stroke-linecap:butt;stroke-linejoin:miter;stroke-opacity:1" d="M 832.309,842.16 827.004,836.098 z" id="boundary" inkscape:connector-curvature="0" />
	<path style="fill:none;stroke:red;stroke-width:1px;stroke-linecap:butt;stroke-linejoin:miter;stroke-opacity:1" d="M 847.465,784.565 853.528,789.112 z" id="boundary" inkscape:connector-curvature="0" />
	<path style="fill:none;stroke:red;stroke-width:1px;stroke-linecap:butt;stroke-linejoin:miter;stroke-opacity:1" d="M 842.16,778.503 847.465,784.565 z" id="boundary" inkscape:connector-curvature="0" />
	<path style="fill:none;stroke:red;stroke-width:1px;stroke-linecap:butt;stroke-linejoin:miter;stroke-opacity:1" d="M 858.075,795.175 864.138,800.48 z" id="boundary" inkscape:connector-curvature="0" />
	<path style="fill:none;stroke:red;stroke-width:1px;stroke-linecap:butt;stroke-linejoin:miter;stroke-opacity:1" d="M 858.075,795.175 853.528,789.112 z" id="boundary" inkscape:connector-curvature="0" />
	<path style="fill:none;stroke:red;stroke-width:1px;stroke-linecap:butt;stroke-linejoin:miter;stroke-opacity:1" d="M 838.371,846.707 832.309,842.16 z" id="boundary" inkscape:connector-curvature="0" />
	<path style="fill:none;stroke:red;stroke-width:1px;stroke-linecap:butt;stroke-linejoin:miter;stroke-opacity:1" d="M 838.371,846.707 845.192,850.497 z" id="boundary" inkscape:connector-curvature="0" />
	<path style="fill:none;stroke:red;stroke-width:1px;stroke-linecap:butt;stroke-linejoin:miter;stroke-opacity:1" d="M 845.192,850.497 849.739,856.559 z" id="boundary" inkscape:connector-curvature="0" />
	<path style="fill:none;stroke:red;stroke-width:1px;stroke-linecap:butt;stroke-linejoin:miter;stroke-opacity:1" d="M 849.739,856.559 854.286,862.622 z" id="boundary" inkscape:connector-curvature="0" />
	<path style="fill:none;stroke:red;stroke-width:1px;stroke-linecap:butt;stroke-linejoin:miter;stroke-opacity:1" d="M 854.286,862.622 861.864,865.653 z" id="boundary" inkscape:connector-curvature="0" />
	<path style="fill:none;stroke:red;stroke-width:1px;stroke-linecap:butt;stroke-linejoin:miter;stroke-opacity:1" d="M 861.864,865.653 866.411,871.716 z" id="boundary" inkscape:connector-curvature="0" />
	<path style="fill:none;stroke:red;stroke-width:1px;stroke-linecap:butt;stroke-linejoin:miter;stroke-opacity:1" d="M 866.411,871.716 870.958,877.778 z" id="boundary" inkscape:connector-curvature="0" />
	<path style="fill:none;stroke:red;stroke-width:1px;stroke-linecap:butt;stroke-linejoin:miter;stroke-opacity:1" d="M 864.138,800.48 869.442,806.542 z" id="boundary" inkscape:connector-curvature="0" />
	<path style="fill:none;stroke:red;stroke-width:1px;stroke-linecap:butt;stroke-linejoin:miter;stroke-opacity:1" d="M 869.442,806.542 876.263,810.332 z" id="boundary" inkscape:connector-curvature="0" />
	<path style="fill:none;stroke:red;stroke-width:1px;stroke-linecap:butt;stroke-linejoin:miter;stroke-opacity:1" d="M 876.263,810.332 880.81,816.394 z" id="boundary" inkscape:connector-curvature="0" />
	<path style="fill:none;stroke:red;stroke-width:1px;stroke-linecap:butt;stroke-linejoin:miter;stroke-opacity:1" d="M 886.872,820.941 892.935,825.488 z" id="boundary" inkscape:connector-curvature="0" />
	<path style="fill:none;stroke:red;stroke-width:1px;stroke-linecap:butt;stroke-linejoin:miter;stroke-opacity:1" d="M 886.872,820.941 880.81,816.394 z" id="boundary" inkscape:connector-curvature="0" />
	<path style="fill:none;stroke:red;stroke-width:1px;stroke-linecap:butt;stroke-linejoin:miter;stroke-opacity:1" d="M 892.935,825.488 897.482,831.551 z" id="boundary" inkscape:connector-curvature="0" />
	<path style="fill:none;stroke:red;stroke-width:1px;stroke-linecap:butt;stroke-linejoin:miter;stroke-opacity:1" d="M 883.841,885.357 876.263,883.841 z" id="boundary" inkscape:connector-curvature="0" />
	<path style="fill:none;stroke:red;stroke-width:1px;stroke-linecap:butt;stroke-linejoin:miter;stroke-opacity:1" d="M 876.263,883.841 870.958,877.778 z" id="boundary" inkscape:connector-curvature="0" />
	<path style="fill:none;stroke:red;stroke-width:1px;stroke-linecap:butt;stroke-linejoin:miter;stroke-opacity:1" d="M 883.841,885.357 888.388,891.419 z" id="boundary" inkscape:connector-curvature="0" />
	<path style="fill:none;stroke:red;stroke-width:1px;stroke-linecap:butt;stroke-linejoin:miter;stroke-opacity:1" d="M 895.966,892.177 888.388,891.419 z" id="boundary" inkscape:connector-curvature="0" />
	<path style="fill:none;stroke:red;stroke-width:1px;stroke-linecap:butt;stroke-linejoin:miter;stroke-opacity:1" d="M 895.966,892.177 902.029,896.724 z" id="boundary" inkscape:connector-curvature="0" />
	<path style="fill:none;stroke:red;stroke-width:1px;stroke-linecap:butt;stroke-linejoin:miter;stroke-opacity:1" d="M 904.303,835.34 897.482,831.551 z" id="boundary" inkscape:connector-curvature="0" />
	<path style="fill:none;stroke:red;stroke-width:1px;stroke-linecap:butt;stroke-linejoin:miter;stroke-opacity:1" d="M 914.912,845.95 908.85,841.403 z" id="boundary" inkscape:connector-curvature="0" />
	<path style="fill:none;stroke:red;stroke-width:1px;stroke-linecap:butt;stroke-linejoin:miter;stroke-opacity:1" d="M 908.85,841.403 904.303,835.34 z" id="boundary" inkscape:connector-curvature="0" />
	<path style="fill:none;stroke:red;stroke-width:1px;stroke-linecap:butt;stroke-linejoin:miter;stroke-opacity:1" d="M 920.975,851.254 914.912,845.95 z" id="boundary" inkscape:connector-curvature="0" />
	<path style="fill:none;stroke:red;stroke-width:1px;stroke-linecap:butt;stroke-linejoin:miter;stroke-opacity:1" d="M 932.342,861.864 926.28,857.317 z" id="boundary" inkscape:connector-curvature="0" />
	<path style="fill:none;stroke:red;stroke-width:1px;stroke-linecap:butt;stroke-linejoin:miter;stroke-opacity:1" d="M 926.28,857.317 920.975,851.254 z" id="boundary" inkscape:connector-curvature="0" />
	<path style="fill:none;stroke:red;stroke-width:1px;stroke-linecap:butt;stroke-linejoin:miter;stroke-opacity:1" d="M 936.889,867.927 943.71,871.716 z" id="boundary" inkscape:connector-curvature="0" />
	<path style="fill:none;stroke:red;stroke-width:1px;stroke-linecap:butt;stroke-linejoin:miter;stroke-opacity:1" d="M 943.71,871.716 949.015,877.778 z" id="boundary" inkscape:connector-curvature="0" />
	<path style="fill:none;stroke:red;stroke-width:1px;stroke-linecap:butt;stroke-linejoin:miter;stroke-opacity:1" d="M 936.889,867.927 932.342,861.864 z" id="boundary" inkscape:connector-curvature="0" />
	<path style="fill:none;stroke:red;stroke-width:1px;stroke-linecap:butt;stroke-linejoin:miter;stroke-opacity:1" d="M 955.077,883.083 949.015,877.778 z" id="boundary" inkscape:connector-curvature="0" />
	<path style="fill:none;stroke:red;stroke-width:1px;stroke-linecap:butt;stroke-linejoin:miter;stroke-opacity:1" d="M 965.687,894.451 959.624,889.146 z" id="boundary" inkscape:connector-curvature="0" />
	<path style="fill:none;stroke:red;stroke-width:1px;stroke-linecap:butt;stroke-linejoin:miter;stroke-opacity:1" d="M 959.624,889.146 955.077,883.083 z" id="boundary" inkscape:connector-curvature="0" />
	<path style="fill:none;stroke:red;stroke-width:1px;stroke-linecap:butt;stroke-linejoin:miter;stroke-opacity:1" d="M 906.576,902.787 902.029,896.724 z" id="boundary" inkscape:connector-curvature="0" />
	<path style="fill:none;stroke:red;stroke-width:1px;stroke-linecap:butt;stroke-linejoin:miter;stroke-opacity:1" d="M 918.701,913.396 912.639,908.092 z" id="boundary" inkscape:connector-curvature="0" />
	<path style="fill:none;stroke:red;stroke-width:1px;stroke-linecap:butt;stroke-linejoin:miter;stroke-opacity:1" d="M 928.553,925.522 924.006,919.459 z" id="boundary" inkscape:connector-curvature="0" />
	<path style="fill:none;stroke:red;stroke-width:1px;stroke-linecap:butt;stroke-linejoin:miter;stroke-opacity:1" d="M 918.701,913.396 924.006,919.459 z" id="boundary" inkscape:connector-curvature="0" />
	<path style="fill:none;stroke:red;stroke-width:1px;stroke-linecap:butt;stroke-linejoin:miter;stroke-opacity:1" d="M 928.553,925.522 932.342,932.342 z" id="boundary" inkscape:connector-curvature="0" />
	<path style="fill:none;stroke:red;stroke-width:1px;stroke-linecap:butt;stroke-linejoin:miter;stroke-opacity:1" d="M 932.342,932.342 938.405,936.889 z" id="boundary" inkscape:connector-curvature="0" />
	<path style="fill:none;stroke:red;stroke-width:1px;stroke-linecap:butt;stroke-linejoin:miter;stroke-opacity:1" d="M 944.468,942.194 938.405,936.889 z" id="boundary" inkscape:connector-curvature="0" />
	<path style="fill:none;stroke:red;stroke-width:1px;stroke-linecap:butt;stroke-linejoin:miter;stroke-opacity:1" d="M 944.468,942.194 949.015,950.53 z" id="boundary" inkscape:connector-curvature="0" />
	<path style="fill:none;stroke:red;stroke-width:1px;stroke-linecap:butt;stroke-linejoin:miter;stroke-opacity:1" d="M 949.015,950.53 956.593,952.046 z" id="boundary" inkscape:connector-curvature="0" />
	<path style="fill:none;stroke:red;stroke-width:1px;stroke-linecap:butt;stroke-linejoin:miter;stroke-opacity:1" d="M 956.593,952.046 962.655,956.593 z" id="boundary" inkscape:connector-curvature="0" />
	<path style="fill:none;stroke:red;stroke-width:1px;stroke-linecap:butt;stroke-linejoin:miter;stroke-opacity:1" d="M 912.639,908.092 906.576,902.787 z" id="boundary" inkscape:connector-curvature="0" />
	<path style="fill:none;stroke:red;stroke-width:1px;stroke-linecap:butt;stroke-linejoin:miter;stroke-opacity:1" d="M 984.633,908.85 977.054,905.818 z" id="boundary" inkscape:connector-curvature="0" />
	<path style="fill:none;stroke:red;stroke-width:1px;stroke-linecap:butt;stroke-linejoin:miter;stroke-opacity:1" d="M 977.054,905.818 971.749,899.756 z" id="boundary" inkscape:connector-curvature="0" />
	<path style="fill:none;stroke:red;stroke-width:1px;stroke-linecap:butt;stroke-linejoin:miter;stroke-opacity:1" d="M 971.749,899.756 965.687,894.451 z" id="boundary" inkscape:connector-curvature="0" />
	<path style="fill:none;stroke:red;stroke-width:1px;stroke-linecap:butt;stroke-linejoin:miter;stroke-opacity:1" d="M 984.633,908.85 987.664,916.428 z" id="boundary" inkscape:connector-curvature="0" />
	<path style="fill:none;stroke:red;stroke-width:1px;stroke-linecap:butt;stroke-linejoin:miter;stroke-opacity:1" d="M 987.664,916.428 992.211,922.49 z" id="boundary" inkscape:connector-curvature="0" />
	<path style="fill:none;stroke:red;stroke-width:1px;stroke-linecap:butt;stroke-linejoin:miter;stroke-opacity:1" d="M 992.211,922.49 994.484,931.584 z" id="boundary" inkscape:connector-curvature="0" />
	<path style="fill:none;stroke:red;stroke-width:1px;stroke-linecap:butt;stroke-linejoin:miter;stroke-opacity:1" d="M 994.484,931.584 995.242,939.163 z" id="boundary" inkscape:connector-curvature="0" />
	<path style="fill:none;stroke:red;stroke-width:1px;stroke-linecap:butt;stroke-linejoin:miter;stroke-opacity:1" d="M 989.937,952.046 985.39,958.108 z" id="boundary" inkscape:connector-curvature="0" />
	<path style="fill:none;stroke:red;stroke-width:1px;stroke-linecap:butt;stroke-linejoin:miter;stroke-opacity:1" d="M 985.39,958.108 977.812,959.624 z" id="boundary" inkscape:connector-curvature="0" />
	<path style="fill:none;stroke:red;stroke-width:1px;stroke-linecap:butt;stroke-linejoin:miter;stroke-opacity:1" d="M 977.812,959.624 970.234,959.624 z" id="boundary" inkscape:connector-curvature="0" />
	<path style="fill:none;stroke:red;stroke-width:1px;stroke-linecap:butt;stroke-linejoin:miter;stroke-opacity:1" d="M 995.242,939.163 996,946.741 z" id="boundary" inkscape:connector-curvature="0" />
	<path style="fill:none;stroke:red;stroke-width:1px;stroke-linecap:butt;stroke-linejoin:miter;stroke-opacity:1" d="M 996,946.741 989.937,952.046 z" id="boundary" inkscape:connector-curvature="0" />
	<path style="fill:none;stroke:red;stroke-width:1px;stroke-linecap:butt;stroke-linejoin:miter;stroke-opacity:1" d="M 970.234,959.624 962.655,956.593 z" id="boundary" inkscape:connector-curvature="0" />
	<circle cx="4" cy="87.3613" r="4" fill="#0" id="circle0"/>
	<circle cx="5.51566" cy="73.7204" r="4" fill="#0" id="circle1"/>
	<circle cx="5.51566" cy="101.002" r="4" fill="#0" id="circle2"/>
	<circle cx="6.27349" cy="108.581" r="4" fill="#0" id="circle3"/>
	<circle cx="7.03132" cy="66.1421" r="4" fill="#0" id="circle4"/>
	<circle cx="10.0626" cy="57.806" r="4" fill="#0" id="circle5"/>
	<circle cx="10.0626" cy="82.8144" r="4" fill="#0" id="circle6"/>
	<circle cx="10.0626" cy="115.401" r="4" fill="#0" id="circle7"/>
	<circle cx="10.0626" cy="123.737" r="4" fill="#0" id="circle8"/>
	<circle cx="10.8205" cy="131.316" r="4" fill="#0" id="circle9"/>
	<circle cx="13.8518" cy="49.4698" r="4" fill="#0" id="circle10"/>
	<circle cx="14.6096" cy="138.136" r="4" fill="#0" id="circle11"/>
	<circle cx="15.3675" cy="145.714" r="4" fill="#0" id="circle12"/>
	<circle cx="17.6409" cy="42.6494" r="4" fill="#0" id="circle13"/>
	<circle cx="20.6723" cy="158.597" r="4" fill="#0" id="circle14"/>
	<circle cx="21.4301" cy="35.071" r="4" fill="#0" id="circle15"/>
	<circle cx="21.4301" cy="150.261" r="4" fill="#0" id="circle16"/>
	<circle cx="22.9458" cy="166.176" r="4" fill="#0" id="circle17"/>
	<circle cx="25.2193" cy="173.754" r="4" fill="#0" id="circle18"/>
	<circle cx="26.7349" cy="28.2506" r="4" fill="#0" id="circle19"/>
	<circle cx="29.0084" cy="180.574" r="4" fill="#0" id="circle20"/>
	<circle cx="32.0397" cy="188.153" r="4" fill="#0" id="circle21"/>
	<circle cx="34.3132" cy="25.2193" r="4" fill="#0" id="circle22"/>
	<circle cx="38.1024" cy="193.458" r="4" fill="#0" id="circle23"/>
	<circle cx="40.3759" cy="19.1566" r="4" fill="#0" id="circle24"/>
	<circle cx="41.8915" cy="200.278" r="4" fill="#0" id="circle25"/>
	<circle cx="45.6807" cy="207.099" r="4" fill="#0" id="circle26"/>
	<circle cx="47.9542" cy="16.1253" r="4" fill="#0" id="circle27"/>
	<circle cx="49.4698" cy="213.919" r="4" fill="#0" id="circle28"/>
	<circle cx="53.259" cy="220.739" r="4" fill="#0" id="circle29"/>
	<circle cx="54.7746" cy="12.3361" r="4" fill="#0" id="circle30"/>
	<circle cx="60.8373" cy="220.739" r="4" fill="#0" id="circle31"/>
	<circle cx="62.3529" cy="9.30481" r="4" fill="#0" id="circle32"/>
	<circle cx="63.8686" cy="228.318" r="4" fill="#0" id="circle33"/>
	<circle cx="69.9312" cy="7.78915" r="4" fill="#0" id="circle34"/>
	<circle cx="70.6891" cy="232.107" r="4" fill="#0" id="circle35"/>
	<circle cx="74.4782" cy="238.927" r="4" fill="#0" id="circle36"/>
	<circle cx="77.5095" cy="6.27349" r="4" fill="#0" id="circle37"/>
	<circle cx="79.783" cy="244.99" r="4" fill="#0" id="circle38"/>
	<circle cx="82.0565" cy="252.568" r="4" fill="#0" id="circle39"/>
	<circle cx="85.0879" cy="4.75783" r="4" fill="#0" id="circle40"/>
	<circle cx="87.3613" cy="258.631" r="4" fill="#0" id="circle41"/>
	<circle cx="92.6662" cy="4" r="4" fill="#0" id="circle42"/>
	<circle cx="93.424" cy="263.936" r="4" fill="#0" id="circle43"/>
	<circle cx="99.4866" cy="269.241" r="4" fill="#0" id="circle44"/>
	<circle cx="100.244" cy="4" r="4" fill="#0" id="circle45"/>
	<circle cx="107.065" cy="272.272" r="4" fill="#0" id="circle46"/>
	<circle cx="107.823" cy="4" r="4" fill="#0" id="circle47"/>
	<circle cx="110.854" cy="279.092" r="4" fill="#0" id="circle48"/>
	<circle cx="115.401" cy="4" r="4" fill="#0" id="circle49"/>
	<circle cx="116.917" cy="283.639" r="4" fill="#0" id="circle50"/>
	<circle cx="122.979" cy="6.27349" r="4" fill="#0" id="circle51"/>
	<circle cx="122.979" cy="288.186" r="4" fill="#0" id="circle52"/>
	<circle cx="129.042" cy="292.733" r="4" fill="#0" id="circle53"/>
	<circle cx="130.558" cy="7.78915" r="4" fill="#0" id="circle54"/>
	<circle cx="136.62" cy="295.765" r="4" fill="#0" id="circle55"/>
	<circle cx="138.136" cy="10.0626" r="4" fill="#0" id="circle56"/>
	<circle cx="141.925" cy="301.827" r="4" fill="#0" id="circle57"/>
	<circle cx="145.714" cy="12.3361" r="4" fill="#0" id="circle58"/>
	<circle cx="147.988" cy="306.374" r="4" fill="#0" id="circle59"/>
	<circle cx="152.535" cy="16.1253" r="4" fill="#0" id="circle60"/>
	<circle cx="154.808" cy="310.163" r="4" fill="#0" id="circle61"/>
	<circle cx="160.113" cy="16.8831" r="4" fill="#0" id="circle62"/>
	<circle cx="160.871" cy="314.71" r="4" fill="#0" id="circle63"/>
	<circle cx="166.176" cy="21.4301" r="4" fill="#0" id="circle64"/>
	<circle cx="168.449" cy="317.742" r="4" fill="#0" id="circle65"/>
	<circle cx="173.754" cy="24.4614" r="4" fill="#0" id="circle66"/>
	<circle cx="174.512" cy="322.289" r="4" fill="#0" id="circle67"/>
	<circle cx="180.574" cy="28.2506" r="4" fill="#0" id="circle68"/>
	<circle cx="181.332" cy="326.078" r="4" fill="#0" id="circle69"/>
	<circle cx="188.153" cy="30.5241" r="4" fill="#0" id="circle70"/>
	<circle cx="188.911" cy="327.594" r="4" fill="#0" id="circle71"/>
	<circle cx="194.215" cy="35.8289" r="4" fill="#0" id="circle72"/>
	<circle cx="195.731" cy="331.383" r="4" fill="#0" id="circle73"/>
	<circle cx="201.036" cy="39.618" r="4" fill="#0" id="circle74"/>
	<circle cx="202.552" cy="335.172" r="4" fill="#0" id="circle75"/>
	<circle cx="207.856" cy="43.4072" r="4" fill="#0" id="circle76"/>
	<circle cx="209.372" cy="338.961" r="4" fill="#0" id="circle77"/>
	<circle cx="213.919" cy="47.9542" r="4" fill="#0" id="circle78"/>
	<circle cx="216.95" cy="341.992" r="4" fill="#0" id="circle79"/>
	<circle cx="221.497" cy="50.9855" r="4" fill="#0" id="circle80"/>
	<circle cx="224.529" cy="345.024" r="4" fill="#0" id="circle81"/>
	<circle cx="226.802" cy="57.0481" r="4" fill="#0" id="circle82"/>
	<circle cx="231.349" cy="348.813" r="4" fill="#0" id="circle83"/>
	<circle cx="232.865" cy="62.3529" r="4" fill="#0" id="circle84"/>
	<circle cx="238.927" cy="66.8999" r="4" fill="#0" id="circle85"/>
	<circle cx="238.927" cy="351.086" r="4" fill="#0" id="circle86"/>
	<circle cx="244.99" cy="71.4469" r="4" fill="#0" id="circle87"/>
	<circle cx="246.506" cy="353.36" r="4" fill="#0" id="circle88"/>
	<circle cx="250.295" cy="77.5095" r="4" fill="#0" id="circle89"/>
	<circle cx="253.326" cy="357.149" r="4" fill="#0" id="circle90"/>
	<circle cx="256.358" cy="82.0565" r="4" fill="#0" id="circle91"/>
	<circle cx="260.905" cy="358.665" r="4" fill="#0" id="circle92"/>
	<circle cx="262.42" cy="86.6035" r="4" fill="#0" id="circle93"/>
	<circle cx="266.967" cy="92.6662" r="4" fill="#0" id="circle94"/>
	<circle cx="268.483" cy="361.696" r="4" fill="#0" id="circle95"/>
	<circle cx="272.272" cy="98.7288" r="4" fill="#0" id="circle96"/>
	<circle cx="276.061" cy="364.727" r="4" fill="#0" id="circle97"/>
	<circle cx="276.819" cy="104.791" r="4" fill="#0" id="circle98"/>
	<circle cx="282.882" cy="109.338" r="4" fill="#0" id="circle99"/>
	<circle cx="283.639" cy="366.243" r="4" fill="#0" id="circle100"/>
	<circle cx="287.429" cy="115.401" r="4" fill="#0" id="circle101"/>
	<circle cx="289.702" cy="370.79" r="4" fill="#0" id="circle102"/>
	<circle cx="291.976" cy="121.464" r="4" fill="#0" id="circle103"/>
	<circle cx="296.523" cy="127.526" r="4" fill="#0" id="circle104"/>
	<circle cx="297.28" cy="373.063" r="4" fill="#0" id="circle105"/>
	<circle cx="301.07" cy="133.589" r="4" fill="#0" id="circle106"/>
	<circle cx="304.101" cy="376.853" r="4" fill="#0" id="circle107"/>
	<circle cx="304.859" cy="140.409" r="4" fill="#0" id="circle108"/>
	<circle cx="309.406" cy="146.472" r="4" fill="#0" id="circle109"/>
	<circle cx="311.679" cy="379.884" r="4" fill="#0" id="circle110"/>
	<circle cx="313.953" cy="152.535" r="4" fill="#0" id="circle111"/>
	<circle cx="317.742" cy="159.355" r="4" fill="#0" id="circle112"/>
	<circle cx="319.257" cy="382.157" r="4" fill="#0" id="circle113"/>
	<circle cx="320.015" cy="166.934" r="4" fill="#0" id="circle114"/>
	<circle cx="324.562" cy="172.996" r="4" fill="#0" id="circle115"/>
	<circle cx="326.836" cy="385.189" r="4" fill="#0" id="circle116"/>
	<circle cx="327.594" cy="180.574" r="4" fill="#0" id="circle117"/>
	<circle cx="332.141" cy="186.637" r="4" fill="#0" id="circle118"/>
	<circle cx="332.898" cy="389.736" r="4" fill="#0" id="circle119"/>
	<circle cx="333.656" cy="194.215" r="4" fill="#0" id="circle120"/>
	<circle cx="336.688" cy="201.794" r="4" fill="#0" id="circle121"/>
	<circle cx="339.719" cy="209.372" r="4" fill="#0" id="circle122"/>
	<circle cx="339.719" cy="393.525" r="4" fill="#0" id="circle123"/>
	<circle cx="344.266" cy="215.435" r="4" fill="#0" id="circle124"/>
	<circle cx="347.297" cy="223.013" r="4" fill="#0" id="circle125"/>
	<circle cx="347.297" cy="395.798" r="4" fill="#0" id="circle126"/>
	<circle cx="349.571" cy="230.591" r="4" fill="#0" id="circle127"/>
	<circle cx="351.086" cy="238.17" r="4" fill="#0" id="circle128"/>
	<circle cx="354.118" cy="399.587" r="4" fill="#0" id="circle129"/>
	<circle cx="356.391" cy="244.232" r="4" fill="#0" id="circle130"/>
	<circle cx="357.907" cy="251.811" r="4" fill="#0" id="circle131"/>
	<circle cx="360.938" cy="259.389" r="4" fill="#0" id="circle132"/>
	<circle cx="361.696" cy="402.619" r="4" fill="#0" id="circle133"/>
	<circle cx="364.727" cy="266.209" r="4" fill="#0" id="circle134"/>
	<circle cx="367.001" cy="273.788" r="4" fill="#0" id="circle135"/>
	<circle cx="367.759" cy="407.166" r="4" fill="#0" id="circle136"/>
	<circle cx="370.032" cy="281.366" r="4" fill="#0" id="circle137"/>
	<circle cx="372.306" cy="288.944" r="4" fill="#0" id="circle138"/>
	<circle cx="373.821" cy="412.471" r="4" fill="#0" id="circle139"/>
	<circle cx="376.095" cy="295.765" r="4" fill="#0" id="circle140"/>
	<circle cx="376.853" cy="303.343" r="4" fill="#0" id="circle141"/>
	<circle cx="378.368" cy="418.533" r="4" fill="#0" id="circle142"/>
	<circle cx="380.642" cy="310.163" r="4" fill="#0" id="circle143"/>
	<circle cx="385.189" cy="316.226" r="4" fill="#0" id="circle144"/>
	<circle cx="385.947" cy="323.804" r="4" fill="#0" id="circle145"/>
	<circle cx="385.947" cy="420.807" r="4" fill="#0" id="circle146"/>
	<circle cx="388.22" cy="331.383" r="4" fill="#0" id="circle147"/>
	<circle cx="390.494" cy="426.869" r="4" fill="#0" id="circle148"/>
	<circle cx="392.767" cy="337.445" r="4" fill="#0" id="circle149"/>
	<circle cx="397.314" cy="343.508" r="4" fill="#0" id="circle150"/>
	<circle cx="398.072" cy="426.112" r="4" fill="#0" id="circle151"/>
	<circle cx="401.103" cy="350.328" r="4" fill="#0" id="circle152"/>
	<circle cx="401.103" cy="357.907" r="4" fill="#0" id="circle153"/>
	<circle cx="402.619" cy="434.448" r="4" fill="#0" id="circle154"/>
	<circle cx="406.408" cy="441.268" r="4" fill="#0" id="circle155"/>
	<circle cx="408.681" cy="360.938" r="4" fill="#0" id="circle156"/>
	<circle cx="412.471" cy="445.815" r="4" fill="#0" id="circle157"/>
	<circle cx="413.986" cy="367.001" r="4" fill="#0" id="circle158"/>
	<circle cx="418.533" cy="373.063" r="4" fill="#0" id="circle159"/>
	<circle cx="419.291" cy="450.362" r="4" fill="#0" id="circle160"/>
	<circle cx="423.838" cy="456.425" r="4" fill="#0" id="circle161"/>
	<circle cx="424.596" cy="378.368" r="4" fill="#0" id="circle162"/>
	<circle cx="428.385" cy="385.189" r="4" fill="#0" id="circle163"/>
	<circle cx="429.901" cy="461.73" r="4" fill="#0" id="circle164"/>
	<circle cx="434.448" cy="389.736" r="4" fill="#0" id="circle165"/>
	<circle cx="437.479" cy="462.487" r="4" fill="#0" id="circle166"/>
	<circle cx="438.995" cy="395.798" r="4" fill="#0" id="circle167"/>
	<circle cx="442.784" cy="468.55" r="4" fill="#0" id="circle168"/>
	<circle cx="443.542" cy="401.861" r="4" fill="#0" id="circle169"/>
	<circle cx="448.846" cy="473.097" r="4" fill="#0" id="circle170"/>
	<circle cx="450.362" cy="405.65" r="4" fill="#0" id="circle171"/>
	<circle cx="451.12" cy="480.675" r="4" fill="#0" id="circle172"/>
	<circle cx="454.909" cy="411.713" r="4" fill="#0" id="circle173"/>
	<circle cx="454.909" cy="487.496" r="4" fill="#0" id="circle174"/>
	<circle cx="460.214" cy="417.775" r="4" fill="#0" id="circle175"/>
	<circle cx="461.73" cy="491.285" r="4" fill="#0" id="circle176"/>
	<circle cx="465.519" cy="498.105" r="4" fill="#0" id="circle177"/>
	<circle cx="466.277" cy="422.322" r="4" fill="#0" id="circle178"/>
	<circle cx="472.339" cy="426.869" r="4" fill="#0" id="circle179"/>
	<circle cx="472.339" cy="501.895" r="4" fill="#0" id="circle180"/>
	<circle cx="476.886" cy="432.932" r="4" fill="#0" id="circle181"/>
	<circle cx="479.917" cy="503.41" r="4" fill="#0" id="circle182"/>
	<circle cx="482.949" cy="437.479" r="4" fill="#0" id="circle183"/>
	<circle cx="484.464" cy="511.746" r="4" fill="#0" id="circle184"/>
	<circle cx="488.254" cy="443.542" r="4" fill="#0" id="circle185"/>
	<circle cx="489.011" cy="517.809" r="4" fill="#0" id="circle186"/>
	<circle cx="494.316" cy="448.089" r="4" fill="#0" id="circle187"/>
	<circle cx="494.316" cy="523.872" r="4" fill="#0" id="circle188"/>
	<circle cx="500.379" cy="452.636" r="4" fill="#0" id="circle189"/>
	<circle cx="500.379" cy="529.176" r="4" fill="#0" id="circle190"/>
	<circle cx="504.926" cy="458.698" r="4" fill="#0" id="circle191"/>
	<circle cx="506.442" cy="534.481" r="4" fill="#0" id="circle192"/>
	<circle cx="510.989" cy="463.245" r="4" fill="#0" id="circle193"/>
	<circle cx="514.02" cy="536.755" r="4" fill="#0" id="circle194"/>
	<circle cx="515.536" cy="544.333" r="4" fill="#0" id="circle195"/>
	<circle cx="516.293" cy="469.308" r="4" fill="#0" id="circle196"/>
	<circle cx="520.84" cy="475.371" r="4" fill="#0" id="circle197"/>
	<circle cx="522.356" cy="548.122" r="4" fill="#0" id="circle198"/>
	<circle cx="526.903" cy="479.917" r="4" fill="#0" id="circle199"/>
	<circle cx="528.419" cy="553.427" r="4" fill="#0" id="circle200"/>
	<circle cx="532.208" cy="485.98" r="4" fill="#0" id="circle201"/>
	<circle cx="532.208" cy="560.248" r="4" fill="#0" id="circle202"/>
	<circle cx="538.27" cy="490.527" r="4" fill="#0" id="circle203"/>
	<circle cx="539.786" cy="562.521" r="4" fill="#0" id="circle204"/>
	<circle cx="542.817" cy="496.59" r="4" fill="#0" id="circle205"/>
	<circle cx="545.091" cy="568.584" r="4" fill="#0" id="circle206"/>
	<circle cx="548.88" cy="501.137" r="4" fill="#0" id="circle207"/>
	<circle cx="551.154" cy="573.888" r="4" fill="#0" id="circle208"/>
	<circle cx="552.669" cy="507.957" r="4" fill="#0" id="circle209"/>
	<circle cx="555.701" cy="579.951" r="4" fill="#0" id="circle210"/>
	<circle cx="558.732" cy="512.504" r="4" fill="#0" id="circle211"/>
	<circle cx="561.763" cy="584.498" r="4" fill="#0" id="circle212"/>
	<circle cx="564.794" cy="517.051" r="4" fill="#0" id="circle213"/>
	<circle cx="565.552" cy="591.319" r="4" fill="#0" id="circle214"/>
	<circle cx="571.615" cy="520.84" r="4" fill="#0" id="circle215"/>
	<circle cx="571.615" cy="595.866" r="4" fill="#0" id="circle216"/>
	<circle cx="575.404" cy="602.686" r="4" fill="#0" id="circle217"/>
	<circle cx="576.92" cy="526.903" r="4" fill="#0" id="circle218"/>
	<circle cx="581.467" cy="607.233" r="4" fill="#0" id="circle219"/>
	<circle cx="582.225" cy="532.966" r="4" fill="#0" id="circle220"/>
	<circle cx="587.529" cy="612.538" r="4" fill="#0" id="circle221"/>
	<circle cx="588.287" cy="538.27" r="4" fill="#0" id="circle222"/>
	<circle cx="592.834" cy="544.333" r="4" fill="#0" id="circle223"/>
	<circle cx="594.35" cy="616.327" r="4" fill="#0" id="circle224"/>
	<circle cx="598.897" cy="548.88" r="4" fill="#0" id="circle225"/>
	<circle cx="600.413" cy="621.632" r="4" fill="#0" id="circle226"/>
	<circle cx="604.202" cy="554.943" r="4" fill="#0" id="circle227"/>
	<circle cx="604.202" cy="628.452" r="4" fill="#0" id="circle228"/>
	<circle cx="608.749" cy="561.005" r="4" fill="#0" id="circle229"/>
	<circle cx="608.749" cy="634.515" r="4" fill="#0" id="circle230"/>
	<circle cx="614.053" cy="640.578" r="4" fill="#0" id="circle231"/>
	<circle cx="615.569" cy="564.794" r="4" fill="#0" id="circle232"/>
	<circle cx="621.632" cy="570.099" r="4" fill="#0" id="circle233"/>
	<circle cx="621.632" cy="642.851" r="4" fill="#0" id="circle234"/>
	<circle cx="626.179" cy="576.162" r="4" fill="#0" id="circle235"/>
	<circle cx="627.694" cy="647.398" r="4" fill="#0" id="circle236"/>
	<circle cx="632.241" cy="581.467" r="4" fill="#0" id="circle237"/>
	<circle cx="633.757" cy="652.703" r="4" fill="#0" id="circle238"/>
	<circle cx="636.788" cy="587.529" r="4" fill="#0" id="circle239"/>
	<circle cx="640.578" cy="656.492" r="4" fill="#0" id="circle240"/>
	<circle cx="642.851" cy="592.076" r="4" fill="#0" id="circle241"/>
	<circle cx="645.125" cy="662.555" r="4" fill="#0" id="circle242"/>
	<circle cx="650.429" cy="595.108" r="4" fill="#0" id="circle243"/>
	<circle cx="650.429" cy="668.617" r="4" fill="#0" id="circle244"/>
	<circle cx="654.218" cy="601.928" r="4" fill="#0" id="circle245"/>
	<circle cx="657.25" cy="672.406" r="4" fill="#0" id="circle246"/>
	<circle cx="660.281" cy="606.475" r="4" fill="#0" id="circle247"/>
	<circle cx="661.039" cy="679.227" r="4" fill="#0" id="circle248"/>
	<circle cx="664.828" cy="612.538" r="4" fill="#0" id="circle249"/>
	<circle cx="667.102" cy="683.774" r="4" fill="#0" id="circle250"/>
	<circle cx="670.891" cy="617.085" r="4" fill="#0" id="circle251"/>
	<circle cx="670.891" cy="690.594" r="4" fill="#0" id="circle252"/>
	<circle cx="675.438" cy="623.147" r="4" fill="#0" id="circle253"/>
	<circle cx="676.953" cy="695.141" r="4" fill="#0" id="circle254"/>
	<circle cx="681.5" cy="627.694" r="4" fill="#0" id="circle255"/>
	<circle cx="683.016" cy="700.446" r="4" fill="#0" id="circle256"/>
	<circle cx="686.805" cy="633.757" r="4" fill="#0" id="circle257"/>
	<circle cx="689.837" cy="704.235" r="4" fill="#0" id="circle258"/>
	<circle cx="691.352" cy="639.82" r="4" fill="#0" id="circle259"/>
	<circle cx="695.899" cy="708.782" r="4" fill="#0" id="circle260"/>
	<circle cx="698.173" cy="643.609" r="4" fill="#0" id="circle261"/>
	<circle cx="700.446" cy="714.845" r="4" fill="#0" id="circle262"/>
	<circle cx="704.235" cy="648.156" r="4" fill="#0" id="circle263"/>
	<circle cx="708.024" cy="714.845" r="4" fill="#0" id="circle264"/>
	<circle cx="709.54" cy="654.218" r="4" fill="#0" id="circle265"/>
	<circle cx="709.54" cy="722.423" r="4" fill="#0" id="circle266"/>
	<circle cx="712.571" cy="730.002" r="4" fill="#0" id="circle267"/>
	<circle cx="715.603" cy="658.765" r="4" fill="#0" id="circle268"/>
	<circle cx="720.15" cy="729.244" r="4" fill="#0" id="circle269"/>
	<circle cx="720.908" cy="664.828" r="4" fill="#0" id="circle270"/>
	<circle cx="724.697" cy="671.649" r="4" fill="#0" id="circle271"/>
	<circle cx="724.697" cy="735.306" r="4" fill="#0" id="circle272"/>
	<circle cx="730.759" cy="676.953" r="4" fill="#0" id="circle273"/>
	<circle cx="730.759" cy="739.853" r="4" fill="#0" id="circle274"/>
	<circle cx="737.58" cy="680.743" r="4" fill="#0" id="circle275"/>
	<circle cx="737.58" cy="743.642" r="4" fill="#0" id="circle276"/>
	<circle cx="742.127" cy="686.805" r="4" fill="#0" id="circle277"/>
	<circle cx="742.127" cy="749.705" r="4" fill="#0" id="circle278"/>
	<circle cx="748.189" cy="691.352" r="4" fill="#0" id="circle279"/>
	<circle cx="748.947" cy="753.494" r="4" fill="#0" id="circle280"/>
	<circle cx="753.494" cy="759.557" r="4" fill="#0" id="circle281"/>
	<circle cx="754.252" cy="695.899" r="4" fill="#0" id="circle282"/>
	<circle cx="759.557" cy="701.962" r="4" fill="#0" id="circle283"/>
	<circle cx="759.557" cy="764.104" r="4" fill="#0" id="circle284"/>
	<circle cx="763.346" cy="770.924" r="4" fill="#0" id="circle285"/>
	<circle cx="765.62" cy="706.509" r="4" fill="#0" id="circle286"/>
	<circle cx="766.377" cy="714.087" r="4" fill="#0" id="circle287"/>
	<circle cx="767.893" cy="776.987" r="4" fill="#0" id="circle288"/>
	<circle cx="772.44" cy="784.565" r="4" fill="#0" id="circle289"/>
	<circle cx="773.956" cy="714.845" r="4" fill="#0" id="circle290"/>
	<circle cx="776.987" cy="790.628" r="4" fill="#0" id="circle291"/>
	<circle cx="779.261" cy="720.908" r="4" fill="#0" id="circle292"/>
	<circle cx="783.807" cy="794.417" r="4" fill="#0" id="circle293"/>
	<circle cx="785.323" cy="725.455" r="4" fill="#0" id="circle294"/>
	<circle cx="788.354" cy="800.48" r="4" fill="#0" id="circle295"/>
	<circle cx="791.386" cy="730.759" r="4" fill="#0" id="circle296"/>
	<circle cx="794.417" cy="805.027" r="4" fill="#0" id="circle297"/>
	<circle cx="797.448" cy="736.064" r="4" fill="#0" id="circle298"/>
	<circle cx="800.48" cy="809.574" r="4" fill="#0" id="circle299"/>
	<circle cx="803.511" cy="741.369" r="4" fill="#0" id="circle300"/>
	<circle cx="807.3" cy="813.363" r="4" fill="#0" id="circle301"/>
	<circle cx="808.058" cy="747.432" r="4" fill="#0" id="circle302"/>
	<circle cx="813.363" cy="817.91" r="4" fill="#0" id="circle303"/>
	<circle cx="814.121" cy="752.736" r="4" fill="#0" id="circle304"/>
	<circle cx="817.152" cy="824.73" r="4" fill="#0" id="circle305"/>
	<circle cx="819.426" cy="758.799" r="4" fill="#0" id="circle306"/>
	<circle cx="823.215" cy="765.62" r="4" fill="#0" id="circle307"/>
	<circle cx="823.972" cy="828.519" r="4" fill="#0" id="circle308"/>
	<circle cx="827.004" cy="836.098" r="4" fill="#0" id="circle309"/>
	<circle cx="830.793" cy="767.893" r="4" fill="#0" id="circle310"/>
	<circle cx="832.309" cy="842.16" r="4" fill="#0" id="circle311"/>
	<circle cx="836.098" cy="773.956" r="4" fill="#0" id="circle312"/>
	<circle cx="838.371" cy="846.707" r="4" fill="#0" id="circle313"/>
	<circle cx="842.16" cy="778.503" r="4" fill="#0" id="circle314"/>
	<circle cx="845.192" cy="850.497" r="4" fill="#0" id="circle315"/>
	<circle cx="847.465" cy="784.565" r="4" fill="#0" id="circle316"/>
	<circle cx="849.739" cy="856.559" r="4" fill="#0" id="circle317"/>
	<circle cx="853.528" cy="789.112" r="4" fill="#0" id="circle318"/>
	<circle cx="854.286" cy="862.622" r="4" fill="#0" id="circle319"/>
	<circle cx="858.075" cy="795.175" r="4" fill="#0" id="circle320"/>
	<circle cx="861.864" cy="865.653" r="4" fill="#0" id="circle321"/>
	<circle cx="864.138" cy="800.48" r="4" fill="#0" id="circle322"/>
	<circle cx="866.411" cy="871.716" r="4" fill="#0" id="circle323"/>
	<circle cx="869.442" cy="806.542" r="4" fill="#0" id="circle324"/>
	<circle cx="870.958" cy="877.778" r="4" fill="#0" id="circle325"/>
	<circle cx="876.263" cy="810.332" r="4" fill="#0" id="circle326"/>
	<circle cx="876.263" cy="883.841" r="4" fill="#0" id="circle327"/>
	<circle cx="880.81" cy="816.394" r="4" fill="#0" id="circle328"/>
	<circle cx="883.841" cy="885.357" r="4" fill="#0" id="circle329"/>
	<circle cx="886.872" cy="820.941" r="4" fill="#0" id="circle330"/>
	<circle cx="888.388" cy="891.419" r="4" fill="#0" id="circle331"/>
	<circle cx="892.935" cy="825.488" r="4" fill="#0" id="circle332"/>
	<circle cx="895.966" cy="892.177" r="4" fill="#0" id="circle333"/>
	<circle cx="897.482" cy="831.551" r="4" fill="#0" id="circle334"/>
	<circle cx="902.029" cy="896.724" r="4" fill="#0" id="circle335"/>
	<circle cx="904.303" cy="835.34" r="4" fill="#0" id="circle336"/>
	<circle cx="906.576" cy="902.787" r="4" fill="#0" id="circle337"/>
	<circle cx="908.85" cy="841.403" r="4" fill="#0" id="circle338"/>
	<circle cx="912.639" cy="908.092" r="4" fill="#0" id="circle339"/>
	<circle cx="914.912" cy="845.95" r="4" fill="#0" id="circle340"/>
	<circle cx="918.701" cy="913.396" r="4" fill="#0" id="circle341"/>
	<circle cx="920.975" cy="851.254" r="4" fill="#0" id="circle342"/>
	<circle cx="924.006" cy="919.459" r="4" fill="#0" id="circle343"/>
	<circle cx="926.28" cy="857.317" r="4" fill="#0" id="circle344"/>
	<circle cx="928.553" cy="925.522" r="4" fill="#0" id="circle345"/>
	<circle cx="932.342" cy="861.864" r="4" fill="#0" id="circle346"/>
	<circle cx="932.342" cy="932.342" r="4" fill="#0" id="circle347"/>
	<circle cx="936.889" cy="867.927" r="4" fill="#0" id="circle348"/>
	<circle cx="938.405" cy="936.889" r="4" fill="#0" id="circle349"/>
	<circle cx="943.71" cy="871.716" r="4" fill="#0" id="circle350"/>
	<circle cx="944.468" cy="942.194" r="4" fill="#0" id="circle351"/>
	<circle cx="949.015" cy="877.778" r="4" fill="#0" id="circle352"/>
	<circle cx="949.015" cy="950.53" r="4" fill="#0" id="circle353"/>
	<circle cx="955.077" cy="883.083" r="4" fill="#0" id="circle354"/>
	<circle cx="956.593" cy="952.046" r="4" fill="#0" id="circle355"/>
	<circle cx="959.624" cy="889.146" r="4" fill="#0" id="circle356"/>
	<circle cx="962.655" cy="956.593" r="4" fill="#0" id="circle357"/>
	<circle cx="965.687" cy="894.451" r="4" fill="#0" id="circle358"/>
	<circle cx="970.234" cy="959.624" r="4" fill="#0" id="circle359"/>
	<circle cx="971.749" cy="899.756" r="4" fill="#0" id="circle360"/>
	<circle cx="977.054" cy="905.818" r="4" fill="#0" id="circle361"/>
	<circle cx="977.812" cy="959.624" r="4" fill="#0" id="circle362"/>
	<circle cx="984.633" cy="908.85" r="4" fill="#0" id="circle363"/>
	<circle cx="985.39" cy="958.108" r="4" fill="#0" id="circle364"/>
	<circle cx="987.664" cy="916.428" r="4" fill="#0" id="circle365"/>
	<circle cx="989.937" cy="952.046" r="4" fill="#0" id="circle366"/>
	<circle cx="992.211" cy="922.49" r="4" fill="#0" id="circle367"/>
	<circle cx="994.484" cy="931.584" r="4" fill="#0" id="circle368"/>
	<circle cx="995.242" cy="939.163" r="4" fill="#0" id="circle369"/>
	<circle cx="996" cy="946.741" r="4" fill="#0" id="circle370"/>
	</g>
</svg>