<?xml version="1.0" encoding="UTF-8" standalone="no"?>
<!-- Created with CurveBenchmark -->
<svg
	xmlns:dc="http://purl.org/dc/elements/1.1/"
	xmlns:cc="http://creativecommons.org/ns#"
	xmlns:rdf="http://www.w3.org/1999/02/22-rdf-syntax-ns#"
	xmlns:svg="http://www.w3.org/2000/svg"
	xmlns="http://www.w3.org/2000/svg"
	xmlns:sodipodi="http://sodipodi.sourceforge.net/DTD/sodipodi-0.dtd"
	xmlns:inkscape="http://www.inkscape.org/namespaces/inkscape"
	width="1000"
	height="1000"
	id="svg2"
	version="1.1"
	sodipodi:docname="manifold/gathan1-sink000.png.txt">
<defs
	id="defs4" />
<metadata
	id="metadata7">
	<rdf:RDF>
		<cc:Work
			rdf:about="">
			<dc:format>image/svg+xml</dc:format>
			<dc:type
				rdf:resource="http://purl.org/dc/dcmitype/StillImage" />
			<dc:title></dc:title>
		</cc:Work>
	</rdf:RDF>
</metadata>
<g
	inkscape:label="Layer 1"
	inkscape:groupmode="layer"
	id="layer1">
	<path style="fill:none;stroke:red;stroke-width:1px;stroke-linecap:butt;stroke-linejoin:miter;stroke-opacity:1" d="M 13.678,168.527 62.0683,168.527 z" id="boundary" inkscape:connector-curvature="0" />
	<path style="fill:none;stroke:red;stroke-width:1px;stroke-linecap:butt;stroke-linejoin:miter;stroke-opacity:1" d="M 4,255.629 13.678,168.527 z" id="boundary" inkscape:connector-curvature="0" />
	<path style="fill:none;stroke:red;stroke-width:1px;stroke-linecap:butt;stroke-linejoin:miter;stroke-opacity:1" d="M 158.849,168.527 110.459,168.527 z" id="boundary" inkscape:connector-curvature="0" />
	<path style="fill:none;stroke:red;stroke-width:1px;stroke-linecap:butt;stroke-linejoin:miter;stroke-opacity:1" d="M 110.459,168.527 62.0683,168.527 z" id="boundary" inkscape:connector-curvature="0" />
	<path style="fill:none;stroke:red;stroke-width:1px;stroke-linecap:butt;stroke-linejoin:miter;stroke-opacity:1" d="M 231.434,37.8732 207.239,81.4244 z" id="boundary" inkscape:connector-curvature="0" />
	<path style="fill:none;stroke:red;stroke-width:1px;stroke-linecap:butt;stroke-linejoin:miter;stroke-opacity:1" d="M 4,304.02 4,255.629 z" id="boundary" inkscape:connector-curvature="0" />
	<path style="fill:none;stroke:red;stroke-width:1px;stroke-linecap:butt;stroke-linejoin:miter;stroke-opacity:1" d="M 52.3902,318.537 4,304.02 z" id="boundary" inkscape:connector-curvature="0" />
	<path style="fill:none;stroke:red;stroke-width:1px;stroke-linecap:butt;stroke-linejoin:miter;stroke-opacity:1" d="M 100.78,318.537 52.3902,318.537 z" id="boundary" inkscape:connector-curvature="0" />
	<path style="fill:none;stroke:red;stroke-width:1px;stroke-linecap:butt;stroke-linejoin:miter;stroke-opacity:1" d="M 207.239,81.4244 207.239,129.815 z" id="boundary" inkscape:connector-curvature="0" />
	<path style="fill:none;stroke:red;stroke-width:1px;stroke-linecap:butt;stroke-linejoin:miter;stroke-opacity:1" d="M 231.434,37.8732 270.146,4 z" id="boundary" inkscape:connector-curvature="0" />
	<path style="fill:none;stroke:red;stroke-width:1px;stroke-linecap:butt;stroke-linejoin:miter;stroke-opacity:1" d="M 270.146,4 308.859,37.8732 z" id="boundary" inkscape:connector-curvature="0" />
	<path style="fill:none;stroke:red;stroke-width:1px;stroke-linecap:butt;stroke-linejoin:miter;stroke-opacity:1" d="M 347.571,66.9073 308.859,37.8732 z" id="boundary" inkscape:connector-curvature="0" />
	<path style="fill:none;stroke:red;stroke-width:1px;stroke-linecap:butt;stroke-linejoin:miter;stroke-opacity:1" d="M 207.239,129.815 245.951,163.688 z" id="boundary" inkscape:connector-curvature="0" />
	<path style="fill:none;stroke:red;stroke-width:1px;stroke-linecap:butt;stroke-linejoin:miter;stroke-opacity:1" d="M 245.951,163.688 294.341,168.527 z" id="boundary" inkscape:connector-curvature="0" />
	<path style="fill:none;stroke:red;stroke-width:1px;stroke-linecap:butt;stroke-linejoin:miter;stroke-opacity:1" d="M 342.732,168.527 294.341,168.527 z" id="boundary" inkscape:connector-curvature="0" />
	<path style="fill:none;stroke:red;stroke-width:1px;stroke-linecap:butt;stroke-linejoin:miter;stroke-opacity:1" d="M 342.732,168.527 391.122,168.527 z" id="boundary" inkscape:connector-curvature="0" />
	<path style="fill:none;stroke:red;stroke-width:1px;stroke-linecap:butt;stroke-linejoin:miter;stroke-opacity:1" d="M 100.78,318.537 149.171,318.537 z" id="boundary" inkscape:connector-curvature="0" />
	<path style="fill:none;stroke:red;stroke-width:1px;stroke-linecap:butt;stroke-linejoin:miter;stroke-opacity:1" d="M 197.561,323.376 212.078,371.766 z" id="boundary" inkscape:connector-curvature="0" />
	<path style="fill:none;stroke:red;stroke-width:1px;stroke-linecap:butt;stroke-linejoin:miter;stroke-opacity:1" d="M 149.171,318.537 197.561,323.376 z" id="boundary" inkscape:connector-curvature="0" />
	<path style="fill:none;stroke:red;stroke-width:1px;stroke-linecap:butt;stroke-linejoin:miter;stroke-opacity:1" d="M 212.078,371.766 236.273,415.317 z" id="boundary" inkscape:connector-curvature="0" />
	<path style="fill:none;stroke:red;stroke-width:1px;stroke-linecap:butt;stroke-linejoin:miter;stroke-opacity:1" d="M 274.985,444.351 236.273,415.317 z" id="boundary" inkscape:connector-curvature="0" />
	<path style="fill:none;stroke:red;stroke-width:1px;stroke-linecap:butt;stroke-linejoin:miter;stroke-opacity:1" d="M 323.376,454.029 274.985,444.351 z" id="boundary" inkscape:connector-curvature="0" />
	<path style="fill:none;stroke:red;stroke-width:1px;stroke-linecap:butt;stroke-linejoin:miter;stroke-opacity:1" d="M 381.444,512.098 381.444,560.488 z" id="boundary" inkscape:connector-curvature="0" />
	<path style="fill:none;stroke:red;stroke-width:1px;stroke-linecap:butt;stroke-linejoin:miter;stroke-opacity:1" d="M 381.444,512.098 371.766,463.707 z" id="boundary" inkscape:connector-curvature="0" />
	<path style="fill:none;stroke:red;stroke-width:1px;stroke-linecap:butt;stroke-linejoin:miter;stroke-opacity:1" d="M 381.444,560.488 381.444,608.878 z" id="boundary" inkscape:connector-curvature="0" />
	<path style="fill:none;stroke:red;stroke-width:1px;stroke-linecap:butt;stroke-linejoin:miter;stroke-opacity:1" d="M 381.444,608.878 381.444,657.268 z" id="boundary" inkscape:connector-curvature="0" />
	<path style="fill:none;stroke:red;stroke-width:1px;stroke-linecap:butt;stroke-linejoin:miter;stroke-opacity:1" d="M 323.376,952.449 352.41,894.38 z" id="boundary" inkscape:connector-curvature="0" />
	<path style="fill:none;stroke:red;stroke-width:1px;stroke-linecap:butt;stroke-linejoin:miter;stroke-opacity:1" d="M 395.961,996 347.571,996 z" id="boundary" inkscape:connector-curvature="0" />
	<path style="fill:none;stroke:red;stroke-width:1px;stroke-linecap:butt;stroke-linejoin:miter;stroke-opacity:1" d="M 347.571,996 323.376,952.449 z" id="boundary" inkscape:connector-curvature="0" />
	<path style="fill:none;stroke:red;stroke-width:1px;stroke-linecap:butt;stroke-linejoin:miter;stroke-opacity:1" d="M 381.444,657.268 381.444,705.659 z" id="boundary" inkscape:connector-curvature="0" />
	<path style="fill:none;stroke:red;stroke-width:1px;stroke-linecap:butt;stroke-linejoin:miter;stroke-opacity:1" d="M 371.766,826.634 352.41,894.38 z" id="boundary" inkscape:connector-curvature="0" />
	<path style="fill:none;stroke:red;stroke-width:1px;stroke-linecap:butt;stroke-linejoin:miter;stroke-opacity:1" d="M 381.444,754.049 371.766,826.634 z" id="boundary" inkscape:connector-curvature="0" />
	<path style="fill:none;stroke:red;stroke-width:1px;stroke-linecap:butt;stroke-linejoin:miter;stroke-opacity:1" d="M 323.376,454.029 371.766,463.707 z" id="boundary" inkscape:connector-curvature="0" />
	<path style="fill:none;stroke:red;stroke-width:1px;stroke-linecap:butt;stroke-linejoin:miter;stroke-opacity:1" d="M 391.122,168.527 439.512,168.527 z" id="boundary" inkscape:connector-curvature="0" />
	<path style="fill:none;stroke:red;stroke-width:1px;stroke-linecap:butt;stroke-linejoin:miter;stroke-opacity:1" d="M 487.902,168.527 512.098,212.078 z" id="boundary" inkscape:connector-curvature="0" />
	<path style="fill:none;stroke:red;stroke-width:1px;stroke-linecap:butt;stroke-linejoin:miter;stroke-opacity:1" d="M 439.512,168.527 487.902,168.527 z" id="boundary" inkscape:connector-curvature="0" />
	<path style="fill:none;stroke:red;stroke-width:1px;stroke-linecap:butt;stroke-linejoin:miter;stroke-opacity:1" d="M 541.132,250.79 512.098,212.078 z" id="boundary" inkscape:connector-curvature="0" />
	<path style="fill:none;stroke:red;stroke-width:1px;stroke-linecap:butt;stroke-linejoin:miter;stroke-opacity:1" d="M 589.522,265.307 541.132,250.79 z" id="boundary" inkscape:connector-curvature="0" />
	<path style="fill:none;stroke:red;stroke-width:1px;stroke-linecap:butt;stroke-linejoin:miter;stroke-opacity:1" d="M 550.81,410.478 541.132,458.868 z" id="boundary" inkscape:connector-curvature="0" />
	<path style="fill:none;stroke:red;stroke-width:1px;stroke-linecap:butt;stroke-linejoin:miter;stroke-opacity:1" d="M 550.81,410.478 579.844,371.766 z" id="boundary" inkscape:connector-curvature="0" />
	<path style="fill:none;stroke:red;stroke-width:1px;stroke-linecap:butt;stroke-linejoin:miter;stroke-opacity:1" d="M 599.2,323.376 579.844,371.766 z" id="boundary" inkscape:connector-curvature="0" />
	<path style="fill:none;stroke:red;stroke-width:1px;stroke-linecap:butt;stroke-linejoin:miter;stroke-opacity:1" d="M 541.132,458.868 541.132,507.259 z" id="boundary" inkscape:connector-curvature="0" />
	<path style="fill:none;stroke:red;stroke-width:1px;stroke-linecap:butt;stroke-linejoin:miter;stroke-opacity:1" d="M 589.522,265.307 637.912,265.307 z" id="boundary" inkscape:connector-curvature="0" />
	<path style="fill:none;stroke:red;stroke-width:1px;stroke-linecap:butt;stroke-linejoin:miter;stroke-opacity:1" d="M 686.302,265.307 734.693,265.307 z" id="boundary" inkscape:connector-curvature="0" />
	<path style="fill:none;stroke:red;stroke-width:1px;stroke-linecap:butt;stroke-linejoin:miter;stroke-opacity:1" d="M 686.302,265.307 637.912,265.307 z" id="boundary" inkscape:connector-curvature="0" />
	<path style="fill:none;stroke:red;stroke-width:1px;stroke-linecap:butt;stroke-linejoin:miter;stroke-opacity:1" d="M 647.59,318.537 695.98,318.537 z" id="boundary" inkscape:connector-curvature="0" />
	<path style="fill:none;stroke:red;stroke-width:1px;stroke-linecap:butt;stroke-linejoin:miter;stroke-opacity:1" d="M 744.371,318.537 695.98,318.537 z" id="boundary" inkscape:connector-curvature="0" />
	<path style="fill:none;stroke:red;stroke-width:1px;stroke-linecap:butt;stroke-linejoin:miter;stroke-opacity:1" d="M 734.693,265.307 744.371,318.537 z" id="boundary" inkscape:connector-curvature="0" />
	<path style="fill:none;stroke:red;stroke-width:1px;stroke-linecap:butt;stroke-linejoin:miter;stroke-opacity:1" d="M 541.132,555.649 541.132,604.039 z" id="boundary" inkscape:connector-curvature="0" />
	<path style="fill:none;stroke:red;stroke-width:1px;stroke-linecap:butt;stroke-linejoin:miter;stroke-opacity:1" d="M 541.132,507.259 541.132,555.649 z" id="boundary" inkscape:connector-curvature="0" />
	<path style="fill:none;stroke:red;stroke-width:1px;stroke-linecap:butt;stroke-linejoin:miter;stroke-opacity:1" d="M 541.132,604.039 541.132,652.429 z" id="boundary" inkscape:connector-curvature="0" />
	<path style="fill:none;stroke:red;stroke-width:1px;stroke-linecap:butt;stroke-linejoin:miter;stroke-opacity:1" d="M 381.444,754.049 381.444,705.659 z" id="boundary" inkscape:connector-curvature="0" />
	<path style="fill:none;stroke:red;stroke-width:1px;stroke-linecap:butt;stroke-linejoin:miter;stroke-opacity:1" d="M 444.351,996 395.961,996 z" id="boundary" inkscape:connector-curvature="0" />
	<path style="fill:none;stroke:red;stroke-width:1px;stroke-linecap:butt;stroke-linejoin:miter;stroke-opacity:1" d="M 492.741,996 444.351,996 z" id="boundary" inkscape:connector-curvature="0" />
	<path style="fill:none;stroke:red;stroke-width:1px;stroke-linecap:butt;stroke-linejoin:miter;stroke-opacity:1" d="M 550.81,845.99 560.488,894.38 z" id="boundary" inkscape:connector-curvature="0" />
	<path style="fill:none;stroke:red;stroke-width:1px;stroke-linecap:butt;stroke-linejoin:miter;stroke-opacity:1" d="M 541.132,652.429 541.132,700.82 z" id="boundary" inkscape:connector-curvature="0" />
	<path style="fill:none;stroke:red;stroke-width:1px;stroke-linecap:butt;stroke-linejoin:miter;stroke-opacity:1" d="M 541.132,749.21 541.132,797.6 z" id="boundary" inkscape:connector-curvature="0" />
	<path style="fill:none;stroke:red;stroke-width:1px;stroke-linecap:butt;stroke-linejoin:miter;stroke-opacity:1" d="M 550.81,845.99 541.132,797.6 z" id="boundary" inkscape:connector-curvature="0" />
	<path style="fill:none;stroke:red;stroke-width:1px;stroke-linecap:butt;stroke-linejoin:miter;stroke-opacity:1" d="M 541.132,749.21 541.132,700.82 z" id="boundary" inkscape:connector-curvature="0" />
	<path style="fill:none;stroke:red;stroke-width:1px;stroke-linecap:butt;stroke-linejoin:miter;stroke-opacity:1" d="M 541.132,996 492.741,996 z" id="boundary" inkscape:connector-curvature="0" />
	<path style="fill:none;stroke:red;stroke-width:1px;stroke-linecap:butt;stroke-linejoin:miter;stroke-opacity:1" d="M 584.683,937.932 589.522,996 z" id="boundary" inkscape:connector-curvature="0" />
	<path style="fill:none;stroke:red;stroke-width:1px;stroke-linecap:butt;stroke-linejoin:miter;stroke-opacity:1" d="M 589.522,996 541.132,996 z" id="boundary" inkscape:connector-curvature="0" />
	<path style="fill:none;stroke:red;stroke-width:1px;stroke-linecap:butt;stroke-linejoin:miter;stroke-opacity:1" d="M 584.683,937.932 560.488,894.38 z" id="boundary" inkscape:connector-curvature="0" />
	<circle cx="4" cy="255.629" r="4" fill="#0" id="circle0"/>
	<circle cx="4" cy="304.02" r="4" fill="#0" id="circle1"/>
	<circle cx="13.678" cy="168.527" r="4" fill="#0" id="circle2"/>
	<circle cx="52.3902" cy="318.537" r="4" fill="#0" id="circle3"/>
	<circle cx="62.0683" cy="168.527" r="4" fill="#0" id="circle4"/>
	<circle cx="100.78" cy="318.537" r="4" fill="#0" id="circle5"/>
	<circle cx="110.459" cy="168.527" r="4" fill="#0" id="circle6"/>
	<circle cx="149.171" cy="318.537" r="4" fill="#0" id="circle7"/>
	<circle cx="158.849" cy="168.527" r="4" fill="#0" id="circle8"/>
	<circle cx="197.561" cy="323.376" r="4" fill="#0" id="circle9"/>
	<circle cx="207.239" cy="81.4244" r="4" fill="#0" id="circle10"/>
	<circle cx="207.239" cy="129.815" r="4" fill="#0" id="circle11"/>
	<circle cx="212.078" cy="371.766" r="4" fill="#0" id="circle12"/>
	<circle cx="231.434" cy="37.8732" r="4" fill="#0" id="circle13"/>
	<circle cx="236.273" cy="415.317" r="4" fill="#0" id="circle14"/>
	<circle cx="245.951" cy="163.688" r="4" fill="#0" id="circle15"/>
	<circle cx="270.146" cy="4" r="4" fill="#0" id="circle16"/>
	<circle cx="274.985" cy="444.351" r="4" fill="#0" id="circle17"/>
	<circle cx="294.341" cy="168.527" r="4" fill="#0" id="circle18"/>
	<circle cx="308.859" cy="37.8732" r="4" fill="#0" id="circle19"/>
	<circle cx="323.376" cy="454.029" r="4" fill="#0" id="circle20"/>
	<circle cx="323.376" cy="952.449" r="4" fill="#0" id="circle21"/>
	<circle cx="342.732" cy="168.527" r="4" fill="#0" id="circle22"/>
	<circle cx="347.571" cy="66.9073" r="4" fill="#0" id="circle23"/>
	<circle cx="347.571" cy="996" r="4" fill="#0" id="circle24"/>
	<circle cx="352.41" cy="894.38" r="4" fill="#0" id="circle25"/>
	<circle cx="371.766" cy="463.707" r="4" fill="#0" id="circle26"/>
	<circle cx="371.766" cy="826.634" r="4" fill="#0" id="circle27"/>
	<circle cx="381.444" cy="512.098" r="4" fill="#0" id="circle28"/>
	<circle cx="381.444" cy="560.488" r="4" fill="#0" id="circle29"/>
	<circle cx="381.444" cy="608.878" r="4" fill="#0" id="circle30"/>
	<circle cx="381.444" cy="657.268" r="4" fill="#0" id="circle31"/>
	<circle cx="381.444" cy="705.659" r="4" fill="#0" id="circle32"/>
	<circle cx="381.444" cy="754.049" r="4" fill="#0" id="circle33"/>
	<circle cx="391.122" cy="168.527" r="4" fill="#0" id="circle34"/>
	<circle cx="395.961" cy="996" r="4" fill="#0" id="circle35"/>
	<circle cx="439.512" cy="168.527" r="4" fill="#0" id="circle36"/>
	<circle cx="444.351" cy="996" r="4" fill="#0" id="circle37"/>
	<circle cx="487.902" cy="168.527" r="4" fill="#0" id="circle38"/>
	<circle cx="492.741" cy="996" r="4" fill="#0" id="circle39"/>
	<circle cx="512.098" cy="212.078" r="4" fill="#0" id="circle40"/>
	<circle cx="541.132" cy="250.79" r="4" fill="#0" id="circle41"/>
	<circle cx="541.132" cy="458.868" r="4" fill="#0" id="circle42"/>
	<circle cx="541.132" cy="507.259" r="4" fill="#0" id="circle43"/>
	<circle cx="541.132" cy="555.649" r="4" fill="#0" id="circle44"/>
	<circle cx="541.132" cy="604.039" r="4" fill="#0" id="circle45"/>
	<circle cx="541.132" cy="652.429" r="4" fill="#0" id="circle46"/>
	<circle cx="541.132" cy="700.82" r="4" fill="#0" id="circle47"/>
	<circle cx="541.132" cy="749.21" r="4" fill="#0" id="circle48"/>
	<circle cx="541.132" cy="797.6" r="4" fill="#0" id="circle49"/>
	<circle cx="541.132" cy="996" r="4" fill="#0" id="circle50"/>
	<circle cx="550.81" cy="410.478" r="4" fill="#0" id="circle51"/>
	<circle cx="550.81" cy="845.99" r="4" fill="#0" id="circle52"/>
	<circle cx="560.488" cy="894.38" r="4" fill="#0" id="circle53"/>
	<circle cx="579.844" cy="371.766" r="4" fill="#0" id="circle54"/>
	<circle cx="584.683" cy="937.932" r="4" fill="#0" id="circle55"/>
	<circle cx="589.522" cy="265.307" r="4" fill="#0" id="circle56"/>
	<circle cx="589.522" cy="996" r="4" fill="#0" id="circle57"/>
	<circle cx="599.2" cy="323.376" r="4" fill="#0" id="circle58"/>
	<circle cx="637.912" cy="265.307" r="4" fill="#0" id="circle59"/>
	<circle cx="647.59" cy="318.537" r="4" fill="#0" id="circle60"/>
	<circle cx="686.302" cy="265.307" r="4" fill="#0" id="circle61"/>
	<circle cx="695.98" cy="318.537" r="4" fill="#0" id="circle62"/>
	<circle cx="734.693" cy="265.307" r="4" fill="#0" id="circle63"/>
	<circle cx="744.371" cy="318.537" r="4" fill="#0" id="circle64"/>
	</g>
</svg>