<?xml version="1.0" encoding="UTF-8" standalone="no"?>
<!-- Created with CurveBenchmark -->
<svg
	xmlns:dc="http://purl.org/dc/elements/1.1/"
	xmlns:cc="http://creativecommons.org/ns#"
	xmlns:rdf="http://www.w3.org/1999/02/22-rdf-syntax-ns#"
	xmlns:svg="http://www.w3.org/2000/svg"
	xmlns="http://www.w3.org/2000/svg"
	xmlns:sodipodi="http://sodipodi.sourceforge.net/DTD/sodipodi-0.dtd"
	xmlns:inkscape="http://www.inkscape.org/namespaces/inkscape"
	width="1000"
	height="1000"
	id="svg2"
	version="1.1"
	sodipodi:docname="manifold/gathang-stef-05.png.txt">
<defs
	id="defs4" />
<metadata
	id="metadata7">
	<rdf:RDF>
		<cc:Work
			rdf:about="">
			<dc:format>image/svg+xml</dc:format>
			<dc:type
				rdf:resource="http://purl.org/dc/dcmitype/StillImage" />
			<dc:title></dc:title>
		</cc:Work>
	</rdf:RDF>
</metadata>
<g
	inkscape:label="Layer 1"
	inkscape:groupmode="layer"
	id="layer1">
	<path style="fill:none;stroke:red;stroke-width:1px;stroke-linecap:butt;stroke-linejoin:miter;stroke-opacity:1" d="M 29.2368,33.1194 44.7671,17.589 z" id="boundary" inkscape:connector-curvature="0" />
	<path style="fill:none;stroke:red;stroke-width:1px;stroke-linecap:butt;stroke-linejoin:miter;stroke-opacity:1" d="M 44.7671,17.589 64.18,7.88258 z" id="boundary" inkscape:connector-curvature="0" />
	<path style="fill:none;stroke:red;stroke-width:1px;stroke-linecap:butt;stroke-linejoin:miter;stroke-opacity:1" d="M 4,68.0626 13.7065,48.6497 z" id="boundary" inkscape:connector-curvature="0" />
	<path style="fill:none;stroke:red;stroke-width:1px;stroke-linecap:butt;stroke-linejoin:miter;stroke-opacity:1" d="M 13.7065,48.6497 29.2368,33.1194 z" id="boundary" inkscape:connector-curvature="0" />
	<path style="fill:none;stroke:red;stroke-width:1px;stroke-linecap:butt;stroke-linejoin:miter;stroke-opacity:1" d="M 64.18,7.88258 83.593,4 z" id="boundary" inkscape:connector-curvature="0" />
	<path style="fill:none;stroke:red;stroke-width:1px;stroke-linecap:butt;stroke-linejoin:miter;stroke-opacity:1" d="M 103.006,4 122.419,4 z" id="boundary" inkscape:connector-curvature="0" />
	<path style="fill:none;stroke:red;stroke-width:1px;stroke-linecap:butt;stroke-linejoin:miter;stroke-opacity:1" d="M 122.419,4 141.832,4 z" id="boundary" inkscape:connector-curvature="0" />
	<path style="fill:none;stroke:red;stroke-width:1px;stroke-linecap:butt;stroke-linejoin:miter;stroke-opacity:1" d="M 141.832,4 157.362,15.6477 z" id="boundary" inkscape:connector-curvature="0" />
	<path style="fill:none;stroke:red;stroke-width:1px;stroke-linecap:butt;stroke-linejoin:miter;stroke-opacity:1" d="M 170.951,31.1781 180.658,48.6497 z" id="boundary" inkscape:connector-curvature="0" />
	<path style="fill:none;stroke:red;stroke-width:1px;stroke-linecap:butt;stroke-linejoin:miter;stroke-opacity:1" d="M 170.951,31.1781 157.362,15.6477 z" id="boundary" inkscape:connector-curvature="0" />
	<path style="fill:none;stroke:red;stroke-width:1px;stroke-linecap:butt;stroke-linejoin:miter;stroke-opacity:1" d="M 188.423,68.0626 180.658,48.6497 z" id="boundary" inkscape:connector-curvature="0" />
	<path style="fill:none;stroke:red;stroke-width:1px;stroke-linecap:butt;stroke-linejoin:miter;stroke-opacity:1" d="M 83.593,4 103.006,4 z" id="boundary" inkscape:connector-curvature="0" />
	<path style="fill:none;stroke:red;stroke-width:1px;stroke-linecap:butt;stroke-linejoin:miter;stroke-opacity:1" d="M 4,87.4755 19.5303,101.065 z" id="boundary" inkscape:connector-curvature="0" />
	<path style="fill:none;stroke:red;stroke-width:1px;stroke-linecap:butt;stroke-linejoin:miter;stroke-opacity:1" d="M 19.5303,101.065 33.1194,116.595 z" id="boundary" inkscape:connector-curvature="0" />
	<path style="fill:none;stroke:red;stroke-width:1px;stroke-linecap:butt;stroke-linejoin:miter;stroke-opacity:1" d="M 4,87.4755 4,68.0626 z" id="boundary" inkscape:connector-curvature="0" />
	<path style="fill:none;stroke:red;stroke-width:1px;stroke-linecap:butt;stroke-linejoin:miter;stroke-opacity:1" d="M 48.6497,130.184 66.1213,139.89 z" id="boundary" inkscape:connector-curvature="0" />
	<path style="fill:none;stroke:red;stroke-width:1px;stroke-linecap:butt;stroke-linejoin:miter;stroke-opacity:1" d="M 85.5342,141.832 66.1213,139.89 z" id="boundary" inkscape:connector-curvature="0" />
	<path style="fill:none;stroke:red;stroke-width:1px;stroke-linecap:butt;stroke-linejoin:miter;stroke-opacity:1" d="M 85.5342,141.832 101.065,153.479 z" id="boundary" inkscape:connector-curvature="0" />
	<path style="fill:none;stroke:red;stroke-width:1px;stroke-linecap:butt;stroke-linejoin:miter;stroke-opacity:1" d="M 48.6497,130.184 33.1194,116.595 z" id="boundary" inkscape:connector-curvature="0" />
	<path style="fill:none;stroke:red;stroke-width:1px;stroke-linecap:butt;stroke-linejoin:miter;stroke-opacity:1" d="M 110.771,170.951 110.771,190.364 z" id="boundary" inkscape:connector-curvature="0" />
	<path style="fill:none;stroke:red;stroke-width:1px;stroke-linecap:butt;stroke-linejoin:miter;stroke-opacity:1" d="M 101.065,153.479 110.771,170.951 z" id="boundary" inkscape:connector-curvature="0" />
	<path style="fill:none;stroke:red;stroke-width:1px;stroke-linecap:butt;stroke-linejoin:miter;stroke-opacity:1" d="M 110.771,209.777 110.771,190.364 z" id="boundary" inkscape:connector-curvature="0" />
	<path style="fill:none;stroke:red;stroke-width:1px;stroke-linecap:butt;stroke-linejoin:miter;stroke-opacity:1" d="M 122.419,225.307 110.771,209.777 z" id="boundary" inkscape:connector-curvature="0" />
	<path style="fill:none;stroke:red;stroke-width:1px;stroke-linecap:butt;stroke-linejoin:miter;stroke-opacity:1" d="M 122.419,225.307 137.949,238.896 z" id="boundary" inkscape:connector-curvature="0" />
	<path style="fill:none;stroke:red;stroke-width:1px;stroke-linecap:butt;stroke-linejoin:miter;stroke-opacity:1" d="M 155.421,248.603 174.834,248.603 z" id="boundary" inkscape:connector-curvature="0" />
	<path style="fill:none;stroke:red;stroke-width:1px;stroke-linecap:butt;stroke-linejoin:miter;stroke-opacity:1" d="M 174.834,248.603 190.364,262.192 z" id="boundary" inkscape:connector-curvature="0" />
	<path style="fill:none;stroke:red;stroke-width:1px;stroke-linecap:butt;stroke-linejoin:miter;stroke-opacity:1" d="M 155.421,248.603 137.949,238.896 z" id="boundary" inkscape:connector-curvature="0" />
	<path style="fill:none;stroke:red;stroke-width:1px;stroke-linecap:butt;stroke-linejoin:miter;stroke-opacity:1" d="M 188.423,68.0626 190.364,87.4755 z" id="boundary" inkscape:connector-curvature="0" />
	<path style="fill:none;stroke:red;stroke-width:1px;stroke-linecap:butt;stroke-linejoin:miter;stroke-opacity:1" d="M 203.953,103.006 190.364,87.4755 z" id="boundary" inkscape:connector-curvature="0" />
	<path style="fill:none;stroke:red;stroke-width:1px;stroke-linecap:butt;stroke-linejoin:miter;stroke-opacity:1" d="M 223.366,110.771 203.953,103.006 z" id="boundary" inkscape:connector-curvature="0" />
	<path style="fill:none;stroke:red;stroke-width:1px;stroke-linecap:butt;stroke-linejoin:miter;stroke-opacity:1" d="M 223.366,110.771 240.838,120.477 z" id="boundary" inkscape:connector-curvature="0" />
	<path style="fill:none;stroke:red;stroke-width:1px;stroke-linecap:butt;stroke-linejoin:miter;stroke-opacity:1" d="M 207.836,271.898 190.364,262.192 z" id="boundary" inkscape:connector-curvature="0" />
	<path style="fill:none;stroke:red;stroke-width:1px;stroke-linecap:butt;stroke-linejoin:miter;stroke-opacity:1" d="M 227.249,277.722 207.836,271.898 z" id="boundary" inkscape:connector-curvature="0" />
	<path style="fill:none;stroke:red;stroke-width:1px;stroke-linecap:butt;stroke-linejoin:miter;stroke-opacity:1" d="M 260.25,120.477 279.663,120.477 z" id="boundary" inkscape:connector-curvature="0" />
	<path style="fill:none;stroke:red;stroke-width:1px;stroke-linecap:butt;stroke-linejoin:miter;stroke-opacity:1" d="M 260.25,120.477 240.838,120.477 z" id="boundary" inkscape:connector-curvature="0" />
	<path style="fill:none;stroke:red;stroke-width:1px;stroke-linecap:butt;stroke-linejoin:miter;stroke-opacity:1" d="M 299.076,120.477 316.548,130.184 z" id="boundary" inkscape:connector-curvature="0" />
	<path style="fill:none;stroke:red;stroke-width:1px;stroke-linecap:butt;stroke-linejoin:miter;stroke-opacity:1" d="M 279.663,120.477 299.076,120.477 z" id="boundary" inkscape:connector-curvature="0" />
	<path style="fill:none;stroke:red;stroke-width:1px;stroke-linecap:butt;stroke-linejoin:miter;stroke-opacity:1" d="M 335.961,130.184 316.548,130.184 z" id="boundary" inkscape:connector-curvature="0" />
	<path style="fill:none;stroke:red;stroke-width:1px;stroke-linecap:butt;stroke-linejoin:miter;stroke-opacity:1" d="M 335.961,130.184 353.432,139.89 z" id="boundary" inkscape:connector-curvature="0" />
	<path style="fill:none;stroke:red;stroke-width:1px;stroke-linecap:butt;stroke-linejoin:miter;stroke-opacity:1" d="M 244.72,287.429 227.249,277.722 z" id="boundary" inkscape:connector-curvature="0" />
	<path style="fill:none;stroke:red;stroke-width:1px;stroke-linecap:butt;stroke-linejoin:miter;stroke-opacity:1" d="M 277.722,310.724 258.309,302.959 z" id="boundary" inkscape:connector-curvature="0" />
	<path style="fill:none;stroke:red;stroke-width:1px;stroke-linecap:butt;stroke-linejoin:miter;stroke-opacity:1" d="M 258.309,302.959 244.72,287.429 z" id="boundary" inkscape:connector-curvature="0" />
	<path style="fill:none;stroke:red;stroke-width:1px;stroke-linecap:butt;stroke-linejoin:miter;stroke-opacity:1" d="M 314.607,326.254 295.194,320.431 z" id="boundary" inkscape:connector-curvature="0" />
	<path style="fill:none;stroke:red;stroke-width:1px;stroke-linecap:butt;stroke-linejoin:miter;stroke-opacity:1" d="M 301.018,460.204 285.487,475.734 z" id="boundary" inkscape:connector-curvature="0" />
	<path style="fill:none;stroke:red;stroke-width:1px;stroke-linecap:butt;stroke-linejoin:miter;stroke-opacity:1" d="M 266.074,514.56 275.781,495.147 z" id="boundary" inkscape:connector-curvature="0" />
	<path style="fill:none;stroke:red;stroke-width:1px;stroke-linecap:butt;stroke-linejoin:miter;stroke-opacity:1" d="M 277.722,310.724 295.194,320.431 z" id="boundary" inkscape:connector-curvature="0" />
	<path style="fill:none;stroke:red;stroke-width:1px;stroke-linecap:butt;stroke-linejoin:miter;stroke-opacity:1" d="M 285.487,475.734 275.781,495.147 z" id="boundary" inkscape:connector-curvature="0" />
	<path style="fill:none;stroke:red;stroke-width:1px;stroke-linecap:butt;stroke-linejoin:miter;stroke-opacity:1" d="M 314.607,326.254 332.078,335.961 z" id="boundary" inkscape:connector-curvature="0" />
	<path style="fill:none;stroke:red;stroke-width:1px;stroke-linecap:butt;stroke-linejoin:miter;stroke-opacity:1" d="M 349.55,345.667 332.078,335.961 z" id="boundary" inkscape:connector-curvature="0" />
	<path style="fill:none;stroke:red;stroke-width:1px;stroke-linecap:butt;stroke-linejoin:miter;stroke-opacity:1" d="M 318.489,450.497 301.018,460.204 z" id="boundary" inkscape:connector-curvature="0" />
	<path style="fill:none;stroke:red;stroke-width:1px;stroke-linecap:butt;stroke-linejoin:miter;stroke-opacity:1" d="M 374.787,500.971 365.08,520.384 z" id="boundary" inkscape:connector-curvature="0" />
	<path style="fill:none;stroke:red;stroke-width:1px;stroke-linecap:butt;stroke-linejoin:miter;stroke-opacity:1" d="M 353.432,431.084 335.961,440.791 z" id="boundary" inkscape:connector-curvature="0" />
	<path style="fill:none;stroke:red;stroke-width:1px;stroke-linecap:butt;stroke-linejoin:miter;stroke-opacity:1" d="M 335.961,440.791 318.489,450.497 z" id="boundary" inkscape:connector-curvature="0" />
	<path style="fill:none;stroke:red;stroke-width:1px;stroke-linecap:butt;stroke-linejoin:miter;stroke-opacity:1" d="M 349.55,345.667 367.022,355.374 z" id="boundary" inkscape:connector-curvature="0" />
	<path style="fill:none;stroke:red;stroke-width:1px;stroke-linecap:butt;stroke-linejoin:miter;stroke-opacity:1" d="M 370.904,149.597 353.432,139.89 z" id="boundary" inkscape:connector-curvature="0" />
	<path style="fill:none;stroke:red;stroke-width:1px;stroke-linecap:butt;stroke-linejoin:miter;stroke-opacity:1" d="M 227.249,592.211 227.249,572.798 z" id="boundary" inkscape:connector-curvature="0" />
	<path style="fill:none;stroke:red;stroke-width:1px;stroke-linecap:butt;stroke-linejoin:miter;stroke-opacity:1" d="M 236.955,553.386 227.249,572.798 z" id="boundary" inkscape:connector-curvature="0" />
	<path style="fill:none;stroke:red;stroke-width:1px;stroke-linecap:butt;stroke-linejoin:miter;stroke-opacity:1" d="M 227.249,611.624 227.249,592.211 z" id="boundary" inkscape:connector-curvature="0" />
	<path style="fill:none;stroke:red;stroke-width:1px;stroke-linecap:butt;stroke-linejoin:miter;stroke-opacity:1" d="M 236.955,648.509 227.249,631.037 z" id="boundary" inkscape:connector-curvature="0" />
	<path style="fill:none;stroke:red;stroke-width:1px;stroke-linecap:butt;stroke-linejoin:miter;stroke-opacity:1" d="M 227.249,631.037 227.249,611.624 z" id="boundary" inkscape:connector-curvature="0" />
	<path style="fill:none;stroke:red;stroke-width:1px;stroke-linecap:butt;stroke-linejoin:miter;stroke-opacity:1" d="M 297.135,568.916 297.135,588.329 z" id="boundary" inkscape:connector-curvature="0" />
	<path style="fill:none;stroke:red;stroke-width:1px;stroke-linecap:butt;stroke-linejoin:miter;stroke-opacity:1" d="M 252.485,537.855 266.074,514.56 z" id="boundary" inkscape:connector-curvature="0" />
	<path style="fill:none;stroke:red;stroke-width:1px;stroke-linecap:butt;stroke-linejoin:miter;stroke-opacity:1" d="M 297.135,568.916 314.607,559.209 z" id="boundary" inkscape:connector-curvature="0" />
	<path style="fill:none;stroke:red;stroke-width:1px;stroke-linecap:butt;stroke-linejoin:miter;stroke-opacity:1" d="M 246.661,665.98 236.955,648.509 z" id="boundary" inkscape:connector-curvature="0" />
	<path style="fill:none;stroke:red;stroke-width:1px;stroke-linecap:butt;stroke-linejoin:miter;stroke-opacity:1" d="M 246.661,665.98 252.485,685.393 z" id="boundary" inkscape:connector-curvature="0" />
	<path style="fill:none;stroke:red;stroke-width:1px;stroke-linecap:butt;stroke-linejoin:miter;stroke-opacity:1" d="M 262.192,702.865 275.781,718.395 z" id="boundary" inkscape:connector-curvature="0" />
	<path style="fill:none;stroke:red;stroke-width:1px;stroke-linecap:butt;stroke-linejoin:miter;stroke-opacity:1" d="M 275.781,718.395 285.487,735.867 z" id="boundary" inkscape:connector-curvature="0" />
	<path style="fill:none;stroke:red;stroke-width:1px;stroke-linecap:butt;stroke-linejoin:miter;stroke-opacity:1" d="M 262.192,702.865 252.485,685.393 z" id="boundary" inkscape:connector-curvature="0" />
	<path style="fill:none;stroke:red;stroke-width:1px;stroke-linecap:butt;stroke-linejoin:miter;stroke-opacity:1" d="M 236.955,553.386 252.485,537.855 z" id="boundary" inkscape:connector-curvature="0" />
	<path style="fill:none;stroke:red;stroke-width:1px;stroke-linecap:butt;stroke-linejoin:miter;stroke-opacity:1" d="M 207.836,922.231 223.366,906.701 z" id="boundary" inkscape:connector-curvature="0" />
	<path style="fill:none;stroke:red;stroke-width:1px;stroke-linecap:butt;stroke-linejoin:miter;stroke-opacity:1" d="M 242.779,896.994 223.366,906.701 z" id="boundary" inkscape:connector-curvature="0" />
	<path style="fill:none;stroke:red;stroke-width:1px;stroke-linecap:butt;stroke-linejoin:miter;stroke-opacity:1" d="M 198.129,941.644 207.836,922.231 z" id="boundary" inkscape:connector-curvature="0" />
	<path style="fill:none;stroke:red;stroke-width:1px;stroke-linecap:butt;stroke-linejoin:miter;stroke-opacity:1" d="M 217.542,947.468 198.129,941.644 z" id="boundary" inkscape:connector-curvature="0" />
	<path style="fill:none;stroke:red;stroke-width:1px;stroke-linecap:butt;stroke-linejoin:miter;stroke-opacity:1" d="M 236.955,947.468 254.427,957.174 z" id="boundary" inkscape:connector-curvature="0" />
	<path style="fill:none;stroke:red;stroke-width:1px;stroke-linecap:butt;stroke-linejoin:miter;stroke-opacity:1" d="M 217.542,947.468 236.955,947.468 z" id="boundary" inkscape:connector-curvature="0" />
	<path style="fill:none;stroke:red;stroke-width:1px;stroke-linecap:butt;stroke-linejoin:miter;stroke-opacity:1" d="M 273.84,957.174 254.427,957.174 z" id="boundary" inkscape:connector-curvature="0" />
	<path style="fill:none;stroke:red;stroke-width:1px;stroke-linecap:butt;stroke-linejoin:miter;stroke-opacity:1" d="M 285.487,735.867 295.194,753.339 z" id="boundary" inkscape:connector-curvature="0" />
	<path style="fill:none;stroke:red;stroke-width:1px;stroke-linecap:butt;stroke-linejoin:miter;stroke-opacity:1" d="M 295.194,753.339 295.194,772.751 z" id="boundary" inkscape:connector-curvature="0" />
	<path style="fill:none;stroke:red;stroke-width:1px;stroke-linecap:butt;stroke-linejoin:miter;stroke-opacity:1" d="M 262.192,887.288 242.779,896.994 z" id="boundary" inkscape:connector-curvature="0" />
	<path style="fill:none;stroke:red;stroke-width:1px;stroke-linecap:butt;stroke-linejoin:miter;stroke-opacity:1" d="M 262.192,887.288 281.605,887.288 z" id="boundary" inkscape:connector-curvature="0" />
	<path style="fill:none;stroke:red;stroke-width:1px;stroke-linecap:butt;stroke-linejoin:miter;stroke-opacity:1" d="M 310.724,966.881 291.311,966.881 z" id="boundary" inkscape:connector-curvature="0" />
	<path style="fill:none;stroke:red;stroke-width:1px;stroke-linecap:butt;stroke-linejoin:miter;stroke-opacity:1" d="M 291.311,966.881 273.84,957.174 z" id="boundary" inkscape:connector-curvature="0" />
	<path style="fill:none;stroke:red;stroke-width:1px;stroke-linecap:butt;stroke-linejoin:miter;stroke-opacity:1" d="M 297.135,588.329 301.018,607.742 z" id="boundary" inkscape:connector-curvature="0" />
	<path style="fill:none;stroke:red;stroke-width:1px;stroke-linecap:butt;stroke-linejoin:miter;stroke-opacity:1" d="M 306.841,627.155 301.018,607.742 z" id="boundary" inkscape:connector-curvature="0" />
	<path style="fill:none;stroke:red;stroke-width:1px;stroke-linecap:butt;stroke-linejoin:miter;stroke-opacity:1" d="M 310.724,646.568 306.841,627.155 z" id="boundary" inkscape:connector-curvature="0" />
	<path style="fill:none;stroke:red;stroke-width:1px;stroke-linecap:butt;stroke-linejoin:miter;stroke-opacity:1" d="M 326.254,683.452 316.548,665.98 z" id="boundary" inkscape:connector-curvature="0" />
	<path style="fill:none;stroke:red;stroke-width:1px;stroke-linecap:butt;stroke-linejoin:miter;stroke-opacity:1" d="M 316.548,665.98 310.724,646.568 z" id="boundary" inkscape:connector-curvature="0" />
	<path style="fill:none;stroke:red;stroke-width:1px;stroke-linecap:butt;stroke-linejoin:miter;stroke-opacity:1" d="M 326.254,683.452 335.961,700.924 z" id="boundary" inkscape:connector-curvature="0" />
	<path style="fill:none;stroke:red;stroke-width:1px;stroke-linecap:butt;stroke-linejoin:miter;stroke-opacity:1" d="M 314.607,559.209 332.078,549.503 z" id="boundary" inkscape:connector-curvature="0" />
	<path style="fill:none;stroke:red;stroke-width:1px;stroke-linecap:butt;stroke-linejoin:miter;stroke-opacity:1" d="M 332.078,549.503 349.55,537.855 z" id="boundary" inkscape:connector-curvature="0" />
	<path style="fill:none;stroke:red;stroke-width:1px;stroke-linecap:butt;stroke-linejoin:miter;stroke-opacity:1" d="M 335.961,700.924 335.961,720.337 z" id="boundary" inkscape:connector-curvature="0" />
	<path style="fill:none;stroke:red;stroke-width:1px;stroke-linecap:butt;stroke-linejoin:miter;stroke-opacity:1" d="M 304.9,790.223 295.194,772.751 z" id="boundary" inkscape:connector-curvature="0" />
	<path style="fill:none;stroke:red;stroke-width:1px;stroke-linecap:butt;stroke-linejoin:miter;stroke-opacity:1" d="M 345.667,757.221 335.961,739.75 z" id="boundary" inkscape:connector-curvature="0" />
	<path style="fill:none;stroke:red;stroke-width:1px;stroke-linecap:butt;stroke-linejoin:miter;stroke-opacity:1" d="M 335.961,739.75 335.961,720.337 z" id="boundary" inkscape:connector-curvature="0" />
	<path style="fill:none;stroke:red;stroke-width:1px;stroke-linecap:butt;stroke-linejoin:miter;stroke-opacity:1" d="M 353.432,776.634 345.667,757.221 z" id="boundary" inkscape:connector-curvature="0" />
	<path style="fill:none;stroke:red;stroke-width:1px;stroke-linecap:butt;stroke-linejoin:miter;stroke-opacity:1" d="M 304.9,809.636 304.9,829.049 z" id="boundary" inkscape:connector-curvature="0" />
	<path style="fill:none;stroke:red;stroke-width:1px;stroke-linecap:butt;stroke-linejoin:miter;stroke-opacity:1" d="M 304.9,848.462 304.9,829.049 z" id="boundary" inkscape:connector-curvature="0" />
	<path style="fill:none;stroke:red;stroke-width:1px;stroke-linecap:butt;stroke-linejoin:miter;stroke-opacity:1" d="M 299.076,877.581 281.605,887.288 z" id="boundary" inkscape:connector-curvature="0" />
	<path style="fill:none;stroke:red;stroke-width:1px;stroke-linecap:butt;stroke-linejoin:miter;stroke-opacity:1" d="M 304.9,848.462 299.076,877.581 z" id="boundary" inkscape:connector-curvature="0" />
	<path style="fill:none;stroke:red;stroke-width:1px;stroke-linecap:butt;stroke-linejoin:miter;stroke-opacity:1" d="M 330.137,966.881 310.724,966.881 z" id="boundary" inkscape:connector-curvature="0" />
	<path style="fill:none;stroke:red;stroke-width:1px;stroke-linecap:butt;stroke-linejoin:miter;stroke-opacity:1" d="M 304.9,809.636 304.9,790.223 z" id="boundary" inkscape:connector-curvature="0" />
	<path style="fill:none;stroke:red;stroke-width:1px;stroke-linecap:butt;stroke-linejoin:miter;stroke-opacity:1" d="M 355.374,796.047 355.374,815.46 z" id="boundary" inkscape:connector-curvature="0" />
	<path style="fill:none;stroke:red;stroke-width:1px;stroke-linecap:butt;stroke-linejoin:miter;stroke-opacity:1" d="M 365.08,832.932 355.374,815.46 z" id="boundary" inkscape:connector-curvature="0" />
	<path style="fill:none;stroke:red;stroke-width:1px;stroke-linecap:butt;stroke-linejoin:miter;stroke-opacity:1" d="M 365.08,832.932 365.08,852.344 z" id="boundary" inkscape:connector-curvature="0" />
	<path style="fill:none;stroke:red;stroke-width:1px;stroke-linecap:butt;stroke-linejoin:miter;stroke-opacity:1" d="M 365.08,947.468 349.55,964.939 z" id="boundary" inkscape:connector-curvature="0" />
	<path style="fill:none;stroke:red;stroke-width:1px;stroke-linecap:butt;stroke-linejoin:miter;stroke-opacity:1" d="M 349.55,964.939 330.137,966.881 z" id="boundary" inkscape:connector-curvature="0" />
	<path style="fill:none;stroke:red;stroke-width:1px;stroke-linecap:butt;stroke-linejoin:miter;stroke-opacity:1" d="M 365.08,852.344 374.787,869.816 z" id="boundary" inkscape:connector-curvature="0" />
	<path style="fill:none;stroke:red;stroke-width:1px;stroke-linecap:butt;stroke-linejoin:miter;stroke-opacity:1" d="M 355.374,796.047 353.432,776.634 z" id="boundary" inkscape:connector-curvature="0" />
	<path style="fill:none;stroke:red;stroke-width:1px;stroke-linecap:butt;stroke-linejoin:miter;stroke-opacity:1" d="M 349.55,537.855 365.08,520.384 z" id="boundary" inkscape:connector-curvature="0" />
	<path style="fill:none;stroke:red;stroke-width:1px;stroke-linecap:butt;stroke-linejoin:miter;stroke-opacity:1" d="M 370.904,149.597 388.376,159.303 z" id="boundary" inkscape:connector-curvature="0" />
	<path style="fill:none;stroke:red;stroke-width:1px;stroke-linecap:butt;stroke-linejoin:miter;stroke-opacity:1" d="M 388.376,159.303 401.965,174.834 z" id="boundary" inkscape:connector-curvature="0" />
	<path style="fill:none;stroke:red;stroke-width:1px;stroke-linecap:butt;stroke-linejoin:miter;stroke-opacity:1" d="M 417.495,188.423 401.965,174.834 z" id="boundary" inkscape:connector-curvature="0" />
	<path style="fill:none;stroke:red;stroke-width:1px;stroke-linecap:butt;stroke-linejoin:miter;stroke-opacity:1" d="M 446.614,217.542 431.084,203.953 z" id="boundary" inkscape:connector-curvature="0" />
	<path style="fill:none;stroke:red;stroke-width:1px;stroke-linecap:butt;stroke-linejoin:miter;stroke-opacity:1" d="M 431.084,203.953 417.495,188.423 z" id="boundary" inkscape:connector-curvature="0" />
	<path style="fill:none;stroke:red;stroke-width:1px;stroke-linecap:butt;stroke-linejoin:miter;stroke-opacity:1" d="M 446.614,217.542 460.204,233.072 z" id="boundary" inkscape:connector-curvature="0" />
	<path style="fill:none;stroke:red;stroke-width:1px;stroke-linecap:butt;stroke-linejoin:miter;stroke-opacity:1" d="M 493.205,256.368 475.734,246.661 z" id="boundary" inkscape:connector-curvature="0" />
	<path style="fill:none;stroke:red;stroke-width:1px;stroke-linecap:butt;stroke-linejoin:miter;stroke-opacity:1" d="M 475.734,246.661 460.204,233.072 z" id="boundary" inkscape:connector-curvature="0" />
	<path style="fill:none;stroke:red;stroke-width:1px;stroke-linecap:butt;stroke-linejoin:miter;stroke-opacity:1" d="M 508.736,269.957 526.207,279.663 z" id="boundary" inkscape:connector-curvature="0" />
	<path style="fill:none;stroke:red;stroke-width:1px;stroke-linecap:butt;stroke-linejoin:miter;stroke-opacity:1" d="M 526.207,279.663 539.796,295.194 z" id="boundary" inkscape:connector-curvature="0" />
	<path style="fill:none;stroke:red;stroke-width:1px;stroke-linecap:butt;stroke-linejoin:miter;stroke-opacity:1" d="M 508.736,269.957 493.205,256.368 z" id="boundary" inkscape:connector-curvature="0" />
	<path style="fill:none;stroke:red;stroke-width:1px;stroke-linecap:butt;stroke-linejoin:miter;stroke-opacity:1" d="M 539.796,295.194 549.503,312.665 z" id="boundary" inkscape:connector-curvature="0" />
	<path style="fill:none;stroke:red;stroke-width:1px;stroke-linecap:butt;stroke-linejoin:miter;stroke-opacity:1" d="M 367.022,355.374 382.552,367.022 z" id="boundary" inkscape:connector-curvature="0" />
	<path style="fill:none;stroke:red;stroke-width:1px;stroke-linecap:butt;stroke-linejoin:miter;stroke-opacity:1" d="M 382.552,367.022 382.552,386.434 z" id="boundary" inkscape:connector-curvature="0" />
	<path style="fill:none;stroke:red;stroke-width:1px;stroke-linecap:butt;stroke-linejoin:miter;stroke-opacity:1" d="M 382.552,405.847 382.552,386.434 z" id="boundary" inkscape:connector-curvature="0" />
	<path style="fill:none;stroke:red;stroke-width:1px;stroke-linecap:butt;stroke-linejoin:miter;stroke-opacity:1" d="M 370.904,421.378 353.432,431.084 z" id="boundary" inkscape:connector-curvature="0" />
	<path style="fill:none;stroke:red;stroke-width:1px;stroke-linecap:butt;stroke-linejoin:miter;stroke-opacity:1" d="M 390.317,487.382 374.787,500.971 z" id="boundary" inkscape:connector-curvature="0" />
	<path style="fill:none;stroke:red;stroke-width:1px;stroke-linecap:butt;stroke-linejoin:miter;stroke-opacity:1" d="M 409.73,491.264 390.317,487.382 z" id="boundary" inkscape:connector-curvature="0" />
	<path style="fill:none;stroke:red;stroke-width:1px;stroke-linecap:butt;stroke-linejoin:miter;stroke-opacity:1" d="M 370.904,421.378 382.552,405.847 z" id="boundary" inkscape:connector-curvature="0" />
	<path style="fill:none;stroke:red;stroke-width:1px;stroke-linecap:butt;stroke-linejoin:miter;stroke-opacity:1" d="M 417.495,530.09 411.671,510.677 z" id="boundary" inkscape:connector-curvature="0" />
	<path style="fill:none;stroke:red;stroke-width:1px;stroke-linecap:butt;stroke-linejoin:miter;stroke-opacity:1" d="M 411.671,510.677 409.73,491.264 z" id="boundary" inkscape:connector-curvature="0" />
	<path style="fill:none;stroke:red;stroke-width:1px;stroke-linecap:butt;stroke-linejoin:miter;stroke-opacity:1" d="M 417.495,530.09 421.378,549.503 z" id="boundary" inkscape:connector-curvature="0" />
	<path style="fill:none;stroke:red;stroke-width:1px;stroke-linecap:butt;stroke-linejoin:miter;stroke-opacity:1" d="M 431.084,566.975 421.378,549.503 z" id="boundary" inkscape:connector-curvature="0" />
	<path style="fill:none;stroke:red;stroke-width:1px;stroke-linecap:butt;stroke-linejoin:miter;stroke-opacity:1" d="M 431.084,566.975 440.791,584.446 z" id="boundary" inkscape:connector-curvature="0" />
	<path style="fill:none;stroke:red;stroke-width:1px;stroke-linecap:butt;stroke-linejoin:miter;stroke-opacity:1" d="M 549.503,312.665 559.209,330.137 z" id="boundary" inkscape:connector-curvature="0" />
	<path style="fill:none;stroke:red;stroke-width:1px;stroke-linecap:butt;stroke-linejoin:miter;stroke-opacity:1" d="M 559.209,330.137 559.209,349.55 z" id="boundary" inkscape:connector-curvature="0" />
	<path style="fill:none;stroke:red;stroke-width:1px;stroke-linecap:butt;stroke-linejoin:miter;stroke-opacity:1" d="M 559.209,349.55 568.916,367.022 z" id="boundary" inkscape:connector-curvature="0" />
	<path style="fill:none;stroke:red;stroke-width:1px;stroke-linecap:butt;stroke-linejoin:miter;stroke-opacity:1" d="M 568.916,367.022 568.916,386.434 z" id="boundary" inkscape:connector-curvature="0" />
	<path style="fill:none;stroke:red;stroke-width:1px;stroke-linecap:butt;stroke-linejoin:miter;stroke-opacity:1" d="M 568.916,386.434 568.916,405.847 z" id="boundary" inkscape:connector-curvature="0" />
	<path style="fill:none;stroke:red;stroke-width:1px;stroke-linecap:butt;stroke-linejoin:miter;stroke-opacity:1" d="M 568.916,405.847 568.916,425.26 z" id="boundary" inkscape:connector-curvature="0" />
	<path style="fill:none;stroke:red;stroke-width:1px;stroke-linecap:butt;stroke-linejoin:miter;stroke-opacity:1" d="M 568.916,444.673 568.916,425.26 z" id="boundary" inkscape:connector-curvature="0" />
	<path style="fill:none;stroke:red;stroke-width:1px;stroke-linecap:butt;stroke-linejoin:miter;stroke-opacity:1" d="M 568.916,444.673 568.916,464.086 z" id="boundary" inkscape:connector-curvature="0" />
	<path style="fill:none;stroke:red;stroke-width:1px;stroke-linecap:butt;stroke-linejoin:miter;stroke-opacity:1" d="M 568.916,483.499 568.916,464.086 z" id="boundary" inkscape:connector-curvature="0" />
	<path style="fill:none;stroke:red;stroke-width:1px;stroke-linecap:butt;stroke-linejoin:miter;stroke-opacity:1" d="M 893.112,489.323 873.699,499.029 z" id="boundary" inkscape:connector-curvature="0" />
	<path style="fill:none;stroke:red;stroke-width:1px;stroke-linecap:butt;stroke-linejoin:miter;stroke-opacity:1" d="M 873.699,499.029 856.227,508.736 z" id="boundary" inkscape:connector-curvature="0" />
	<path style="fill:none;stroke:red;stroke-width:1px;stroke-linecap:butt;stroke-linejoin:miter;stroke-opacity:1" d="M 856.227,508.736 840.697,522.325 z" id="boundary" inkscape:connector-curvature="0" />
	<path style="fill:none;stroke:red;stroke-width:1px;stroke-linecap:butt;stroke-linejoin:miter;stroke-opacity:1" d="M 568.916,502.912 568.916,483.499 z" id="boundary" inkscape:connector-curvature="0" />
	<path style="fill:none;stroke:red;stroke-width:1px;stroke-linecap:butt;stroke-linejoin:miter;stroke-opacity:1" d="M 893.112,489.323 910.583,499.029 z" id="boundary" inkscape:connector-curvature="0" />
	<path style="fill:none;stroke:red;stroke-width:1px;stroke-linecap:butt;stroke-linejoin:miter;stroke-opacity:1" d="M 910.583,499.029 928.055,508.736 z" id="boundary" inkscape:connector-curvature="0" />
	<path style="fill:none;stroke:red;stroke-width:1px;stroke-linecap:butt;stroke-linejoin:miter;stroke-opacity:1" d="M 568.916,502.912 568.916,522.325 z" id="boundary" inkscape:connector-curvature="0" />
	<path style="fill:none;stroke:red;stroke-width:1px;stroke-linecap:butt;stroke-linejoin:miter;stroke-opacity:1" d="M 568.916,541.738 568.916,522.325 z" id="boundary" inkscape:connector-curvature="0" />
	<path style="fill:none;stroke:red;stroke-width:1px;stroke-linecap:butt;stroke-linejoin:miter;stroke-opacity:1" d="M 450.497,601.918 440.791,584.446 z" id="boundary" inkscape:connector-curvature="0" />
	<path style="fill:none;stroke:red;stroke-width:1px;stroke-linecap:butt;stroke-linejoin:miter;stroke-opacity:1" d="M 568.916,580.564 568.916,561.151 z" id="boundary" inkscape:connector-curvature="0" />
	<path style="fill:none;stroke:red;stroke-width:1px;stroke-linecap:butt;stroke-linejoin:miter;stroke-opacity:1" d="M 780.517,576.681 797.988,566.975 z" id="boundary" inkscape:connector-curvature="0" />
	<path style="fill:none;stroke:red;stroke-width:1px;stroke-linecap:butt;stroke-linejoin:miter;stroke-opacity:1" d="M 568.916,561.151 568.916,541.738 z" id="boundary" inkscape:connector-curvature="0" />
	<path style="fill:none;stroke:red;stroke-width:1px;stroke-linecap:butt;stroke-linejoin:miter;stroke-opacity:1" d="M 811.577,551.444 797.988,566.975 z" id="boundary" inkscape:connector-curvature="0" />
	<path style="fill:none;stroke:red;stroke-width:1px;stroke-linecap:butt;stroke-linejoin:miter;stroke-opacity:1" d="M 840.697,522.325 827.108,537.855 z" id="boundary" inkscape:connector-curvature="0" />
	<path style="fill:none;stroke:red;stroke-width:1px;stroke-linecap:butt;stroke-linejoin:miter;stroke-opacity:1" d="M 928.055,508.736 943.585,520.384 z" id="boundary" inkscape:connector-curvature="0" />
	<path style="fill:none;stroke:red;stroke-width:1px;stroke-linecap:butt;stroke-linejoin:miter;stroke-opacity:1" d="M 943.585,520.384 951.35,539.796 z" id="boundary" inkscape:connector-curvature="0" />
	<path style="fill:none;stroke:red;stroke-width:1px;stroke-linecap:butt;stroke-linejoin:miter;stroke-opacity:1" d="M 966.881,553.386 974.646,572.798 z" id="boundary" inkscape:connector-curvature="0" />
	<path style="fill:none;stroke:red;stroke-width:1px;stroke-linecap:butt;stroke-linejoin:miter;stroke-opacity:1" d="M 951.35,539.796 966.881,553.386 z" id="boundary" inkscape:connector-curvature="0" />
	<path style="fill:none;stroke:red;stroke-width:1px;stroke-linecap:butt;stroke-linejoin:miter;stroke-opacity:1" d="M 811.577,551.444 827.108,537.855 z" id="boundary" inkscape:connector-curvature="0" />
	<path style="fill:none;stroke:red;stroke-width:1px;stroke-linecap:butt;stroke-linejoin:miter;stroke-opacity:1" d="M 450.497,621.331 450.497,601.918 z" id="boundary" inkscape:connector-curvature="0" />
	<path style="fill:none;stroke:red;stroke-width:1px;stroke-linecap:butt;stroke-linejoin:miter;stroke-opacity:1" d="M 460.204,638.802 450.497,621.331 z" id="boundary" inkscape:connector-curvature="0" />
	<path style="fill:none;stroke:red;stroke-width:1px;stroke-linecap:butt;stroke-linejoin:miter;stroke-opacity:1" d="M 568.916,580.564 568.916,599.977 z" id="boundary" inkscape:connector-curvature="0" />
	<path style="fill:none;stroke:red;stroke-width:1px;stroke-linecap:butt;stroke-linejoin:miter;stroke-opacity:1" d="M 469.91,675.687 460.204,658.215 z" id="boundary" inkscape:connector-curvature="0" />
	<path style="fill:none;stroke:red;stroke-width:1px;stroke-linecap:butt;stroke-linejoin:miter;stroke-opacity:1" d="M 460.204,658.215 460.204,638.802 z" id="boundary" inkscape:connector-curvature="0" />
	<path style="fill:none;stroke:red;stroke-width:1px;stroke-linecap:butt;stroke-linejoin:miter;stroke-opacity:1" d="M 469.91,675.687 479.616,693.159 z" id="boundary" inkscape:connector-curvature="0" />
	<path style="fill:none;stroke:red;stroke-width:1px;stroke-linecap:butt;stroke-linejoin:miter;stroke-opacity:1" d="M 568.916,599.977 568.916,619.389 z" id="boundary" inkscape:connector-curvature="0" />
	<path style="fill:none;stroke:red;stroke-width:1px;stroke-linecap:butt;stroke-linejoin:miter;stroke-opacity:1" d="M 611.624,634.92 631.037,634.92 z" id="boundary" inkscape:connector-curvature="0" />
	<path style="fill:none;stroke:red;stroke-width:1px;stroke-linecap:butt;stroke-linejoin:miter;stroke-opacity:1" d="M 611.624,634.92 594.153,644.626 z" id="boundary" inkscape:connector-curvature="0" />
	<path style="fill:none;stroke:red;stroke-width:1px;stroke-linecap:butt;stroke-linejoin:miter;stroke-opacity:1" d="M 574.74,638.802 594.153,644.626 z" id="boundary" inkscape:connector-curvature="0" />
	<path style="fill:none;stroke:red;stroke-width:1px;stroke-linecap:butt;stroke-linejoin:miter;stroke-opacity:1" d="M 574.74,638.802 568.916,619.389 z" id="boundary" inkscape:connector-curvature="0" />
	<path style="fill:none;stroke:red;stroke-width:1px;stroke-linecap:butt;stroke-linejoin:miter;stroke-opacity:1" d="M 631.037,634.92 650.45,634.92 z" id="boundary" inkscape:connector-curvature="0" />
	<path style="fill:none;stroke:red;stroke-width:1px;stroke-linecap:butt;stroke-linejoin:miter;stroke-opacity:1" d="M 654.333,675.687 636.861,685.393 z" id="boundary" inkscape:connector-curvature="0" />
	<path style="fill:none;stroke:red;stroke-width:1px;stroke-linecap:butt;stroke-linejoin:miter;stroke-opacity:1" d="M 636.861,685.393 617.448,695.1 z" id="boundary" inkscape:connector-curvature="0" />
	<path style="fill:none;stroke:red;stroke-width:1px;stroke-linecap:butt;stroke-linejoin:miter;stroke-opacity:1" d="M 489.323,710.63 499.029,728.102 z" id="boundary" inkscape:connector-curvature="0" />
	<path style="fill:none;stroke:red;stroke-width:1px;stroke-linecap:butt;stroke-linejoin:miter;stroke-opacity:1" d="M 489.323,710.63 479.616,693.159 z" id="boundary" inkscape:connector-curvature="0" />
	<path style="fill:none;stroke:red;stroke-width:1px;stroke-linecap:butt;stroke-linejoin:miter;stroke-opacity:1" d="M 499.029,728.102 514.56,741.691 z" id="boundary" inkscape:connector-curvature="0" />
	<path style="fill:none;stroke:red;stroke-width:1px;stroke-linecap:butt;stroke-linejoin:miter;stroke-opacity:1" d="M 374.787,869.816 374.787,889.229 z" id="boundary" inkscape:connector-curvature="0" />
	<path style="fill:none;stroke:red;stroke-width:1px;stroke-linecap:butt;stroke-linejoin:miter;stroke-opacity:1" d="M 374.787,928.055 365.08,947.468 z" id="boundary" inkscape:connector-curvature="0" />
	<path style="fill:none;stroke:red;stroke-width:1px;stroke-linecap:butt;stroke-linejoin:miter;stroke-opacity:1" d="M 374.787,908.642 374.787,928.055 z" id="boundary" inkscape:connector-curvature="0" />
	<path style="fill:none;stroke:red;stroke-width:1px;stroke-linecap:butt;stroke-linejoin:miter;stroke-opacity:1" d="M 374.787,908.642 374.787,889.229 z" id="boundary" inkscape:connector-curvature="0" />
	<path style="fill:none;stroke:red;stroke-width:1px;stroke-linecap:butt;stroke-linejoin:miter;stroke-opacity:1" d="M 586.387,724.219 568.916,733.926 z" id="boundary" inkscape:connector-curvature="0" />
	<path style="fill:none;stroke:red;stroke-width:1px;stroke-linecap:butt;stroke-linejoin:miter;stroke-opacity:1" d="M 601.918,712.571 617.448,695.1 z" id="boundary" inkscape:connector-curvature="0" />
	<path style="fill:none;stroke:red;stroke-width:1px;stroke-linecap:butt;stroke-linejoin:miter;stroke-opacity:1" d="M 514.56,741.691 532.031,751.397 z" id="boundary" inkscape:connector-curvature="0" />
	<path style="fill:none;stroke:red;stroke-width:1px;stroke-linecap:butt;stroke-linejoin:miter;stroke-opacity:1" d="M 551.444,743.632 532.031,751.397 z" id="boundary" inkscape:connector-curvature="0" />
	<path style="fill:none;stroke:red;stroke-width:1px;stroke-linecap:butt;stroke-linejoin:miter;stroke-opacity:1" d="M 551.444,743.632 568.916,733.926 z" id="boundary" inkscape:connector-curvature="0" />
	<path style="fill:none;stroke:red;stroke-width:1px;stroke-linecap:butt;stroke-linejoin:miter;stroke-opacity:1" d="M 601.918,712.571 586.387,724.219 z" id="boundary" inkscape:connector-curvature="0" />
	<path style="fill:none;stroke:red;stroke-width:1px;stroke-linecap:butt;stroke-linejoin:miter;stroke-opacity:1" d="M 706.748,617.448 726.16,607.742 z" id="boundary" inkscape:connector-curvature="0" />
	<path style="fill:none;stroke:red;stroke-width:1px;stroke-linecap:butt;stroke-linejoin:miter;stroke-opacity:1" d="M 706.748,617.448 687.335,625.213 z" id="boundary" inkscape:connector-curvature="0" />
	<path style="fill:none;stroke:red;stroke-width:1px;stroke-linecap:butt;stroke-linejoin:miter;stroke-opacity:1" d="M 726.16,607.742 745.573,598.035 z" id="boundary" inkscape:connector-curvature="0" />
	<path style="fill:none;stroke:red;stroke-width:1px;stroke-linecap:butt;stroke-linejoin:miter;stroke-opacity:1" d="M 669.863,634.92 687.335,625.213 z" id="boundary" inkscape:connector-curvature="0" />
	<path style="fill:none;stroke:red;stroke-width:1px;stroke-linecap:butt;stroke-linejoin:miter;stroke-opacity:1" d="M 669.863,634.92 650.45,634.92 z" id="boundary" inkscape:connector-curvature="0" />
	<path style="fill:none;stroke:red;stroke-width:1px;stroke-linecap:butt;stroke-linejoin:miter;stroke-opacity:1" d="M 749.456,646.568 730.043,652.391 z" id="boundary" inkscape:connector-curvature="0" />
	<path style="fill:none;stroke:red;stroke-width:1px;stroke-linecap:butt;stroke-linejoin:miter;stroke-opacity:1" d="M 768.869,646.568 749.456,646.568 z" id="boundary" inkscape:connector-curvature="0" />
	<path style="fill:none;stroke:red;stroke-width:1px;stroke-linecap:butt;stroke-linejoin:miter;stroke-opacity:1" d="M 764.986,588.329 780.517,576.681 z" id="boundary" inkscape:connector-curvature="0" />
	<path style="fill:none;stroke:red;stroke-width:1px;stroke-linecap:butt;stroke-linejoin:miter;stroke-opacity:1" d="M 974.646,572.798 976.587,592.211 z" id="boundary" inkscape:connector-curvature="0" />
	<path style="fill:none;stroke:red;stroke-width:1px;stroke-linecap:butt;stroke-linejoin:miter;stroke-opacity:1" d="M 990.176,607.742 976.587,592.211 z" id="boundary" inkscape:connector-curvature="0" />
	<path style="fill:none;stroke:red;stroke-width:1px;stroke-linecap:butt;stroke-linejoin:miter;stroke-opacity:1" d="M 768.869,646.568 788.282,646.568 z" id="boundary" inkscape:connector-curvature="0" />
	<path style="fill:none;stroke:red;stroke-width:1px;stroke-linecap:butt;stroke-linejoin:miter;stroke-opacity:1" d="M 865.933,646.568 846.521,646.568 z" id="boundary" inkscape:connector-curvature="0" />
	<path style="fill:none;stroke:red;stroke-width:1px;stroke-linecap:butt;stroke-linejoin:miter;stroke-opacity:1" d="M 996,627.155 982.411,642.685 z" id="boundary" inkscape:connector-curvature="0" />
	<path style="fill:none;stroke:red;stroke-width:1px;stroke-linecap:butt;stroke-linejoin:miter;stroke-opacity:1" d="M 990.176,607.742 996,627.155 z" id="boundary" inkscape:connector-curvature="0" />
	<path style="fill:none;stroke:red;stroke-width:1px;stroke-linecap:butt;stroke-linejoin:miter;stroke-opacity:1" d="M 982.411,642.685 962.998,646.568 z" id="boundary" inkscape:connector-curvature="0" />
	<path style="fill:none;stroke:red;stroke-width:1px;stroke-linecap:butt;stroke-linejoin:miter;stroke-opacity:1" d="M 745.573,598.035 764.986,588.329 z" id="boundary" inkscape:connector-curvature="0" />
	<path style="fill:none;stroke:red;stroke-width:1px;stroke-linecap:butt;stroke-linejoin:miter;stroke-opacity:1" d="M 788.282,646.568 807.695,646.568 z" id="boundary" inkscape:connector-curvature="0" />
	<path style="fill:none;stroke:red;stroke-width:1px;stroke-linecap:butt;stroke-linejoin:miter;stroke-opacity:1" d="M 807.695,646.568 827.108,646.568 z" id="boundary" inkscape:connector-curvature="0" />
	<path style="fill:none;stroke:red;stroke-width:1px;stroke-linecap:butt;stroke-linejoin:miter;stroke-opacity:1" d="M 673.746,669.863 693.159,665.98 z" id="boundary" inkscape:connector-curvature="0" />
	<path style="fill:none;stroke:red;stroke-width:1px;stroke-linecap:butt;stroke-linejoin:miter;stroke-opacity:1" d="M 673.746,669.863 654.333,675.687 z" id="boundary" inkscape:connector-curvature="0" />
	<path style="fill:none;stroke:red;stroke-width:1px;stroke-linecap:butt;stroke-linejoin:miter;stroke-opacity:1" d="M 693.159,665.98 710.63,656.274 z" id="boundary" inkscape:connector-curvature="0" />
	<path style="fill:none;stroke:red;stroke-width:1px;stroke-linecap:butt;stroke-linejoin:miter;stroke-opacity:1" d="M 710.63,656.274 730.043,652.391 z" id="boundary" inkscape:connector-curvature="0" />
	<path style="fill:none;stroke:red;stroke-width:1px;stroke-linecap:butt;stroke-linejoin:miter;stroke-opacity:1" d="M 827.108,646.568 846.521,646.568 z" id="boundary" inkscape:connector-curvature="0" />
	<path style="fill:none;stroke:red;stroke-width:1px;stroke-linecap:butt;stroke-linejoin:miter;stroke-opacity:1" d="M 885.346,646.568 865.933,646.568 z" id="boundary" inkscape:connector-curvature="0" />
	<path style="fill:none;stroke:red;stroke-width:1px;stroke-linecap:butt;stroke-linejoin:miter;stroke-opacity:1" d="M 904.759,646.568 924.172,646.568 z" id="boundary" inkscape:connector-curvature="0" />
	<path style="fill:none;stroke:red;stroke-width:1px;stroke-linecap:butt;stroke-linejoin:miter;stroke-opacity:1" d="M 943.585,646.568 962.998,646.568 z" id="boundary" inkscape:connector-curvature="0" />
	<path style="fill:none;stroke:red;stroke-width:1px;stroke-linecap:butt;stroke-linejoin:miter;stroke-opacity:1" d="M 943.585,646.568 924.172,646.568 z" id="boundary" inkscape:connector-curvature="0" />
	<path style="fill:none;stroke:red;stroke-width:1px;stroke-linecap:butt;stroke-linejoin:miter;stroke-opacity:1" d="M 904.759,646.568 885.346,646.568 z" id="boundary" inkscape:connector-curvature="0" />
	<circle cx="4" cy="68.0626" r="4" fill="#0" id="circle0"/>
	<circle cx="4" cy="87.4755" r="4" fill="#0" id="circle1"/>
	<circle cx="13.7065" cy="48.6497" r="4" fill="#0" id="circle2"/>
	<circle cx="19.5303" cy="101.065" r="4" fill="#0" id="circle3"/>
	<circle cx="29.2368" cy="33.1194" r="4" fill="#0" id="circle4"/>
	<circle cx="33.1194" cy="116.595" r="4" fill="#0" id="circle5"/>
	<circle cx="44.7671" cy="17.589" r="4" fill="#0" id="circle6"/>
	<circle cx="48.6497" cy="130.184" r="4" fill="#0" id="circle7"/>
	<circle cx="64.18" cy="7.88258" r="4" fill="#0" id="circle8"/>
	<circle cx="66.1213" cy="139.89" r="4" fill="#0" id="circle9"/>
	<circle cx="83.593" cy="4" r="4" fill="#0" id="circle10"/>
	<circle cx="85.5342" cy="141.832" r="4" fill="#0" id="circle11"/>
	<circle cx="101.065" cy="153.479" r="4" fill="#0" id="circle12"/>
	<circle cx="103.006" cy="4" r="4" fill="#0" id="circle13"/>
	<circle cx="110.771" cy="170.951" r="4" fill="#0" id="circle14"/>
	<circle cx="110.771" cy="190.364" r="4" fill="#0" id="circle15"/>
	<circle cx="110.771" cy="209.777" r="4" fill="#0" id="circle16"/>
	<circle cx="122.419" cy="4" r="4" fill="#0" id="circle17"/>
	<circle cx="122.419" cy="225.307" r="4" fill="#0" id="circle18"/>
	<circle cx="137.949" cy="238.896" r="4" fill="#0" id="circle19"/>
	<circle cx="141.832" cy="4" r="4" fill="#0" id="circle20"/>
	<circle cx="155.421" cy="248.603" r="4" fill="#0" id="circle21"/>
	<circle cx="157.362" cy="15.6477" r="4" fill="#0" id="circle22"/>
	<circle cx="170.951" cy="31.1781" r="4" fill="#0" id="circle23"/>
	<circle cx="174.834" cy="248.603" r="4" fill="#0" id="circle24"/>
	<circle cx="180.658" cy="48.6497" r="4" fill="#0" id="circle25"/>
	<circle cx="188.423" cy="68.0626" r="4" fill="#0" id="circle26"/>
	<circle cx="190.364" cy="87.4755" r="4" fill="#0" id="circle27"/>
	<circle cx="190.364" cy="262.192" r="4" fill="#0" id="circle28"/>
	<circle cx="198.129" cy="941.644" r="4" fill="#0" id="circle29"/>
	<circle cx="203.953" cy="103.006" r="4" fill="#0" id="circle30"/>
	<circle cx="207.836" cy="271.898" r="4" fill="#0" id="circle31"/>
	<circle cx="207.836" cy="922.231" r="4" fill="#0" id="circle32"/>
	<circle cx="217.542" cy="947.468" r="4" fill="#0" id="circle33"/>
	<circle cx="223.366" cy="110.771" r="4" fill="#0" id="circle34"/>
	<circle cx="223.366" cy="906.701" r="4" fill="#0" id="circle35"/>
	<circle cx="227.249" cy="277.722" r="4" fill="#0" id="circle36"/>
	<circle cx="227.249" cy="572.798" r="4" fill="#0" id="circle37"/>
	<circle cx="227.249" cy="592.211" r="4" fill="#0" id="circle38"/>
	<circle cx="227.249" cy="611.624" r="4" fill="#0" id="circle39"/>
	<circle cx="227.249" cy="631.037" r="4" fill="#0" id="circle40"/>
	<circle cx="236.955" cy="553.386" r="4" fill="#0" id="circle41"/>
	<circle cx="236.955" cy="648.509" r="4" fill="#0" id="circle42"/>
	<circle cx="236.955" cy="947.468" r="4" fill="#0" id="circle43"/>
	<circle cx="240.838" cy="120.477" r="4" fill="#0" id="circle44"/>
	<circle cx="242.779" cy="896.994" r="4" fill="#0" id="circle45"/>
	<circle cx="244.72" cy="287.429" r="4" fill="#0" id="circle46"/>
	<circle cx="246.661" cy="665.98" r="4" fill="#0" id="circle47"/>
	<circle cx="252.485" cy="537.855" r="4" fill="#0" id="circle48"/>
	<circle cx="252.485" cy="685.393" r="4" fill="#0" id="circle49"/>
	<circle cx="254.427" cy="957.174" r="4" fill="#0" id="circle50"/>
	<circle cx="258.309" cy="302.959" r="4" fill="#0" id="circle51"/>
	<circle cx="260.25" cy="120.477" r="4" fill="#0" id="circle52"/>
	<circle cx="262.192" cy="702.865" r="4" fill="#0" id="circle53"/>
	<circle cx="262.192" cy="887.288" r="4" fill="#0" id="circle54"/>
	<circle cx="266.074" cy="514.56" r="4" fill="#0" id="circle55"/>
	<circle cx="273.84" cy="957.174" r="4" fill="#0" id="circle56"/>
	<circle cx="275.781" cy="495.147" r="4" fill="#0" id="circle57"/>
	<circle cx="275.781" cy="718.395" r="4" fill="#0" id="circle58"/>
	<circle cx="277.722" cy="310.724" r="4" fill="#0" id="circle59"/>
	<circle cx="279.663" cy="120.477" r="4" fill="#0" id="circle60"/>
	<circle cx="281.605" cy="887.288" r="4" fill="#0" id="circle61"/>
	<circle cx="285.487" cy="475.734" r="4" fill="#0" id="circle62"/>
	<circle cx="285.487" cy="735.867" r="4" fill="#0" id="circle63"/>
	<circle cx="291.311" cy="966.881" r="4" fill="#0" id="circle64"/>
	<circle cx="295.194" cy="320.431" r="4" fill="#0" id="circle65"/>
	<circle cx="295.194" cy="753.339" r="4" fill="#0" id="circle66"/>
	<circle cx="295.194" cy="772.751" r="4" fill="#0" id="circle67"/>
	<circle cx="297.135" cy="568.916" r="4" fill="#0" id="circle68"/>
	<circle cx="297.135" cy="588.329" r="4" fill="#0" id="circle69"/>
	<circle cx="299.076" cy="120.477" r="4" fill="#0" id="circle70"/>
	<circle cx="299.076" cy="877.581" r="4" fill="#0" id="circle71"/>
	<circle cx="301.018" cy="460.204" r="4" fill="#0" id="circle72"/>
	<circle cx="301.018" cy="607.742" r="4" fill="#0" id="circle73"/>
	<circle cx="304.9" cy="790.223" r="4" fill="#0" id="circle74"/>
	<circle cx="304.9" cy="809.636" r="4" fill="#0" id="circle75"/>
	<circle cx="304.9" cy="829.049" r="4" fill="#0" id="circle76"/>
	<circle cx="304.9" cy="848.462" r="4" fill="#0" id="circle77"/>
	<circle cx="306.841" cy="627.155" r="4" fill="#0" id="circle78"/>
	<circle cx="310.724" cy="646.568" r="4" fill="#0" id="circle79"/>
	<circle cx="310.724" cy="966.881" r="4" fill="#0" id="circle80"/>
	<circle cx="314.607" cy="326.254" r="4" fill="#0" id="circle81"/>
	<circle cx="314.607" cy="559.209" r="4" fill="#0" id="circle82"/>
	<circle cx="316.548" cy="130.184" r="4" fill="#0" id="circle83"/>
	<circle cx="316.548" cy="665.98" r="4" fill="#0" id="circle84"/>
	<circle cx="318.489" cy="450.497" r="4" fill="#0" id="circle85"/>
	<circle cx="326.254" cy="683.452" r="4" fill="#0" id="circle86"/>
	<circle cx="330.137" cy="966.881" r="4" fill="#0" id="circle87"/>
	<circle cx="332.078" cy="335.961" r="4" fill="#0" id="circle88"/>
	<circle cx="332.078" cy="549.503" r="4" fill="#0" id="circle89"/>
	<circle cx="335.961" cy="130.184" r="4" fill="#0" id="circle90"/>
	<circle cx="335.961" cy="440.791" r="4" fill="#0" id="circle91"/>
	<circle cx="335.961" cy="700.924" r="4" fill="#0" id="circle92"/>
	<circle cx="335.961" cy="720.337" r="4" fill="#0" id="circle93"/>
	<circle cx="335.961" cy="739.75" r="4" fill="#0" id="circle94"/>
	<circle cx="345.667" cy="757.221" r="4" fill="#0" id="circle95"/>
	<circle cx="349.55" cy="345.667" r="4" fill="#0" id="circle96"/>
	<circle cx="349.55" cy="537.855" r="4" fill="#0" id="circle97"/>
	<circle cx="349.55" cy="964.939" r="4" fill="#0" id="circle98"/>
	<circle cx="353.432" cy="139.89" r="4" fill="#0" id="circle99"/>
	<circle cx="353.432" cy="431.084" r="4" fill="#0" id="circle100"/>
	<circle cx="353.432" cy="776.634" r="4" fill="#0" id="circle101"/>
	<circle cx="355.374" cy="796.047" r="4" fill="#0" id="circle102"/>
	<circle cx="355.374" cy="815.46" r="4" fill="#0" id="circle103"/>
	<circle cx="365.08" cy="520.384" r="4" fill="#0" id="circle104"/>
	<circle cx="365.08" cy="832.932" r="4" fill="#0" id="circle105"/>
	<circle cx="365.08" cy="852.344" r="4" fill="#0" id="circle106"/>
	<circle cx="365.08" cy="947.468" r="4" fill="#0" id="circle107"/>
	<circle cx="367.022" cy="355.374" r="4" fill="#0" id="circle108"/>
	<circle cx="370.904" cy="149.597" r="4" fill="#0" id="circle109"/>
	<circle cx="370.904" cy="421.378" r="4" fill="#0" id="circle110"/>
	<circle cx="374.787" cy="500.971" r="4" fill="#0" id="circle111"/>
	<circle cx="374.787" cy="869.816" r="4" fill="#0" id="circle112"/>
	<circle cx="374.787" cy="889.229" r="4" fill="#0" id="circle113"/>
	<circle cx="374.787" cy="908.642" r="4" fill="#0" id="circle114"/>
	<circle cx="374.787" cy="928.055" r="4" fill="#0" id="circle115"/>
	<circle cx="382.552" cy="367.022" r="4" fill="#0" id="circle116"/>
	<circle cx="382.552" cy="386.434" r="4" fill="#0" id="circle117"/>
	<circle cx="382.552" cy="405.847" r="4" fill="#0" id="circle118"/>
	<circle cx="388.376" cy="159.303" r="4" fill="#0" id="circle119"/>
	<circle cx="390.317" cy="487.382" r="4" fill="#0" id="circle120"/>
	<circle cx="401.965" cy="174.834" r="4" fill="#0" id="circle121"/>
	<circle cx="409.73" cy="491.264" r="4" fill="#0" id="circle122"/>
	<circle cx="411.671" cy="510.677" r="4" fill="#0" id="circle123"/>
	<circle cx="417.495" cy="188.423" r="4" fill="#0" id="circle124"/>
	<circle cx="417.495" cy="530.09" r="4" fill="#0" id="circle125"/>
	<circle cx="421.378" cy="549.503" r="4" fill="#0" id="circle126"/>
	<circle cx="431.084" cy="203.953" r="4" fill="#0" id="circle127"/>
	<circle cx="431.084" cy="566.975" r="4" fill="#0" id="circle128"/>
	<circle cx="440.791" cy="584.446" r="4" fill="#0" id="circle129"/>
	<circle cx="446.614" cy="217.542" r="4" fill="#0" id="circle130"/>
	<circle cx="450.497" cy="601.918" r="4" fill="#0" id="circle131"/>
	<circle cx="450.497" cy="621.331" r="4" fill="#0" id="circle132"/>
	<circle cx="460.204" cy="233.072" r="4" fill="#0" id="circle133"/>
	<circle cx="460.204" cy="638.802" r="4" fill="#0" id="circle134"/>
	<circle cx="460.204" cy="658.215" r="4" fill="#0" id="circle135"/>
	<circle cx="469.91" cy="675.687" r="4" fill="#0" id="circle136"/>
	<circle cx="475.734" cy="246.661" r="4" fill="#0" id="circle137"/>
	<circle cx="479.616" cy="693.159" r="4" fill="#0" id="circle138"/>
	<circle cx="489.323" cy="710.63" r="4" fill="#0" id="circle139"/>
	<circle cx="493.205" cy="256.368" r="4" fill="#0" id="circle140"/>
	<circle cx="499.029" cy="728.102" r="4" fill="#0" id="circle141"/>
	<circle cx="508.736" cy="269.957" r="4" fill="#0" id="circle142"/>
	<circle cx="514.56" cy="741.691" r="4" fill="#0" id="circle143"/>
	<circle cx="526.207" cy="279.663" r="4" fill="#0" id="circle144"/>
	<circle cx="532.031" cy="751.397" r="4" fill="#0" id="circle145"/>
	<circle cx="539.796" cy="295.194" r="4" fill="#0" id="circle146"/>
	<circle cx="549.503" cy="312.665" r="4" fill="#0" id="circle147"/>
	<circle cx="551.444" cy="743.632" r="4" fill="#0" id="circle148"/>
	<circle cx="559.209" cy="330.137" r="4" fill="#0" id="circle149"/>
	<circle cx="559.209" cy="349.55" r="4" fill="#0" id="circle150"/>
	<circle cx="568.916" cy="367.022" r="4" fill="#0" id="circle151"/>
	<circle cx="568.916" cy="386.434" r="4" fill="#0" id="circle152"/>
	<circle cx="568.916" cy="405.847" r="4" fill="#0" id="circle153"/>
	<circle cx="568.916" cy="425.26" r="4" fill="#0" id="circle154"/>
	<circle cx="568.916" cy="444.673" r="4" fill="#0" id="circle155"/>
	<circle cx="568.916" cy="464.086" r="4" fill="#0" id="circle156"/>
	<circle cx="568.916" cy="483.499" r="4" fill="#0" id="circle157"/>
	<circle cx="568.916" cy="502.912" r="4" fill="#0" id="circle158"/>
	<circle cx="568.916" cy="522.325" r="4" fill="#0" id="circle159"/>
	<circle cx="568.916" cy="541.738" r="4" fill="#0" id="circle160"/>
	<circle cx="568.916" cy="561.151" r="4" fill="#0" id="circle161"/>
	<circle cx="568.916" cy="580.564" r="4" fill="#0" id="circle162"/>
	<circle cx="568.916" cy="599.977" r="4" fill="#0" id="circle163"/>
	<circle cx="568.916" cy="619.389" r="4" fill="#0" id="circle164"/>
	<circle cx="568.916" cy="733.926" r="4" fill="#0" id="circle165"/>
	<circle cx="574.74" cy="638.802" r="4" fill="#0" id="circle166"/>
	<circle cx="586.387" cy="724.219" r="4" fill="#0" id="circle167"/>
	<circle cx="594.153" cy="644.626" r="4" fill="#0" id="circle168"/>
	<circle cx="601.918" cy="712.571" r="4" fill="#0" id="circle169"/>
	<circle cx="611.624" cy="634.92" r="4" fill="#0" id="circle170"/>
	<circle cx="617.448" cy="695.1" r="4" fill="#0" id="circle171"/>
	<circle cx="631.037" cy="634.92" r="4" fill="#0" id="circle172"/>
	<circle cx="636.861" cy="685.393" r="4" fill="#0" id="circle173"/>
	<circle cx="650.45" cy="634.92" r="4" fill="#0" id="circle174"/>
	<circle cx="654.333" cy="675.687" r="4" fill="#0" id="circle175"/>
	<circle cx="669.863" cy="634.92" r="4" fill="#0" id="circle176"/>
	<circle cx="673.746" cy="669.863" r="4" fill="#0" id="circle177"/>
	<circle cx="687.335" cy="625.213" r="4" fill="#0" id="circle178"/>
	<circle cx="693.159" cy="665.98" r="4" fill="#0" id="circle179"/>
	<circle cx="706.748" cy="617.448" r="4" fill="#0" id="circle180"/>
	<circle cx="710.63" cy="656.274" r="4" fill="#0" id="circle181"/>
	<circle cx="726.16" cy="607.742" r="4" fill="#0" id="circle182"/>
	<circle cx="730.043" cy="652.391" r="4" fill="#0" id="circle183"/>
	<circle cx="745.573" cy="598.035" r="4" fill="#0" id="circle184"/>
	<circle cx="749.456" cy="646.568" r="4" fill="#0" id="circle185"/>
	<circle cx="764.986" cy="588.329" r="4" fill="#0" id="circle186"/>
	<circle cx="768.869" cy="646.568" r="4" fill="#0" id="circle187"/>
	<circle cx="780.517" cy="576.681" r="4" fill="#0" id="circle188"/>
	<circle cx="788.282" cy="646.568" r="4" fill="#0" id="circle189"/>
	<circle cx="797.988" cy="566.975" r="4" fill="#0" id="circle190"/>
	<circle cx="807.695" cy="646.568" r="4" fill="#0" id="circle191"/>
	<circle cx="811.577" cy="551.444" r="4" fill="#0" id="circle192"/>
	<circle cx="827.108" cy="537.855" r="4" fill="#0" id="circle193"/>
	<circle cx="827.108" cy="646.568" r="4" fill="#0" id="circle194"/>
	<circle cx="840.697" cy="522.325" r="4" fill="#0" id="circle195"/>
	<circle cx="846.521" cy="646.568" r="4" fill="#0" id="circle196"/>
	<circle cx="856.227" cy="508.736" r="4" fill="#0" id="circle197"/>
	<circle cx="865.933" cy="646.568" r="4" fill="#0" id="circle198"/>
	<circle cx="873.699" cy="499.029" r="4" fill="#0" id="circle199"/>
	<circle cx="885.346" cy="646.568" r="4" fill="#0" id="circle200"/>
	<circle cx="893.112" cy="489.323" r="4" fill="#0" id="circle201"/>
	<circle cx="904.759" cy="646.568" r="4" fill="#0" id="circle202"/>
	<circle cx="910.583" cy="499.029" r="4" fill="#0" id="circle203"/>
	<circle cx="924.172" cy="646.568" r="4" fill="#0" id="circle204"/>
	<circle cx="928.055" cy="508.736" r="4" fill="#0" id="circle205"/>
	<circle cx="943.585" cy="520.384" r="4" fill="#0" id="circle206"/>
	<circle cx="943.585" cy="646.568" r="4" fill="#0" id="circle207"/>
	<circle cx="951.35" cy="539.796" r="4" fill="#0" id="circle208"/>
	<circle cx="962.998" cy="646.568" r="4" fill="#0" id="circle209"/>
	<circle cx="966.881" cy="553.386" r="4" fill="#0" id="circle210"/>
	<circle cx="974.646" cy="572.798" r="4" fill="#0" id="circle211"/>
	<circle cx="976.587" cy="592.211" r="4" fill="#0" id="circle212"/>
	<circle cx="982.411" cy="642.685" r="4" fill="#0" id="circle213"/>
	<circle cx="990.176" cy="607.742" r="4" fill="#0" id="circle214"/>
	<circle cx="996" cy="627.155" r="4" fill="#0" id="circle215"/>
	</g>
</svg>