<?xml version="1.0" encoding="UTF-8" standalone="no"?>
<!-- Created with CurveBenchmark -->
<svg
	xmlns:dc="http://purl.org/dc/elements/1.1/"
	xmlns:cc="http://creativecommons.org/ns#"
	xmlns:rdf="http://www.w3.org/1999/02/22-rdf-syntax-ns#"
	xmlns:svg="http://www.w3.org/2000/svg"
	xmlns="http://www.w3.org/2000/svg"
	xmlns:sodipodi="http://sodipodi.sourceforge.net/DTD/sodipodi-0.dtd"
	xmlns:inkscape="http://www.inkscape.org/namespaces/inkscape"
	width="1000"
	height="1000"
	id="svg2"
	version="1.1"
	sodipodi:docname="manifold/gathan1-hammer25.png.txt">
<defs
	id="defs4" />
<metadata
	id="metadata7">
	<rdf:RDF>
		<cc:Work
			rdf:about="">
			<dc:format>image/svg+xml</dc:format>
			<dc:type
				rdf:resource="http://purl.org/dc/dcmitype/StillImage" />
			<dc:title></dc:title>
		</cc:Work>
	</rdf:RDF>
</metadata>
<g
	inkscape:label="Layer 1"
	inkscape:groupmode="layer"
	id="layer1">
	<path style="fill:none;stroke:red;stroke-width:1px;stroke-linecap:butt;stroke-linejoin:miter;stroke-opacity:1" d="M 4,54.2278 24.0911,34.1367 z" id="boundary" inkscape:connector-curvature="0" />
	<path style="fill:none;stroke:red;stroke-width:1px;stroke-linecap:butt;stroke-linejoin:miter;stroke-opacity:1" d="M 4,79.3418 4,54.2278 z" id="boundary" inkscape:connector-curvature="0" />
	<path style="fill:none;stroke:red;stroke-width:1px;stroke-linecap:butt;stroke-linejoin:miter;stroke-opacity:1" d="M 16.557,101.944 4,79.3418 z" id="boundary" inkscape:connector-curvature="0" />
	<path style="fill:none;stroke:red;stroke-width:1px;stroke-linecap:butt;stroke-linejoin:miter;stroke-opacity:1" d="M 44.1823,14.0456 69.2962,9.02278 z" id="boundary" inkscape:connector-curvature="0" />
	<path style="fill:none;stroke:red;stroke-width:1px;stroke-linecap:butt;stroke-linejoin:miter;stroke-opacity:1" d="M 24.0911,34.1367 44.1823,14.0456 z" id="boundary" inkscape:connector-curvature="0" />
	<path style="fill:none;stroke:red;stroke-width:1px;stroke-linecap:butt;stroke-linejoin:miter;stroke-opacity:1" d="M 29.1139,124.547 16.557,101.944 z" id="boundary" inkscape:connector-curvature="0" />
	<path style="fill:none;stroke:red;stroke-width:1px;stroke-linecap:butt;stroke-linejoin:miter;stroke-opacity:1" d="M 44.1823,144.638 29.1139,124.547 z" id="boundary" inkscape:connector-curvature="0" />
	<path style="fill:none;stroke:red;stroke-width:1px;stroke-linecap:butt;stroke-linejoin:miter;stroke-opacity:1" d="M 44.1823,144.638 56.7392,167.241 z" id="boundary" inkscape:connector-curvature="0" />
	<path style="fill:none;stroke:red;stroke-width:1px;stroke-linecap:butt;stroke-linejoin:miter;stroke-opacity:1" d="M 56.7392,167.241 74.319,187.332 z" id="boundary" inkscape:connector-curvature="0" />
	<path style="fill:none;stroke:red;stroke-width:1px;stroke-linecap:butt;stroke-linejoin:miter;stroke-opacity:1" d="M 74.319,187.332 86.8759,209.934 z" id="boundary" inkscape:connector-curvature="0" />
	<path style="fill:none;stroke:red;stroke-width:1px;stroke-linecap:butt;stroke-linejoin:miter;stroke-opacity:1" d="M 86.8759,209.934 104.456,230.025 z" id="boundary" inkscape:connector-curvature="0" />
	<path style="fill:none;stroke:red;stroke-width:1px;stroke-linecap:butt;stroke-linejoin:miter;stroke-opacity:1" d="M 104.456,230.025 117.013,252.628 z" id="boundary" inkscape:connector-curvature="0" />
	<path style="fill:none;stroke:red;stroke-width:1px;stroke-linecap:butt;stroke-linejoin:miter;stroke-opacity:1" d="M 69.2962,9.02278 94.4101,4 z" id="boundary" inkscape:connector-curvature="0" />
	<path style="fill:none;stroke:red;stroke-width:1px;stroke-linecap:butt;stroke-linejoin:miter;stroke-opacity:1" d="M 94.4101,4 111.99,24.0911 z" id="boundary" inkscape:connector-curvature="0" />
	<path style="fill:none;stroke:red;stroke-width:1px;stroke-linecap:butt;stroke-linejoin:miter;stroke-opacity:1" d="M 111.99,24.0911 132.081,41.6709 z" id="boundary" inkscape:connector-curvature="0" />
	<path style="fill:none;stroke:red;stroke-width:1px;stroke-linecap:butt;stroke-linejoin:miter;stroke-opacity:1" d="M 132.081,41.6709 142.127,66.7848 z" id="boundary" inkscape:connector-curvature="0" />
	<path style="fill:none;stroke:red;stroke-width:1px;stroke-linecap:butt;stroke-linejoin:miter;stroke-opacity:1" d="M 157.195,86.8759 142.127,66.7848 z" id="boundary" inkscape:connector-curvature="0" />
	<path style="fill:none;stroke:red;stroke-width:1px;stroke-linecap:butt;stroke-linejoin:miter;stroke-opacity:1" d="M 157.195,86.8759 169.752,109.478 z" id="boundary" inkscape:connector-curvature="0" />
	<path style="fill:none;stroke:red;stroke-width:1px;stroke-linecap:butt;stroke-linejoin:miter;stroke-opacity:1" d="M 182.309,132.081 194.866,154.684 z" id="boundary" inkscape:connector-curvature="0" />
	<path style="fill:none;stroke:red;stroke-width:1px;stroke-linecap:butt;stroke-linejoin:miter;stroke-opacity:1" d="M 212.446,174.775 194.866,154.684 z" id="boundary" inkscape:connector-curvature="0" />
	<path style="fill:none;stroke:red;stroke-width:1px;stroke-linecap:butt;stroke-linejoin:miter;stroke-opacity:1" d="M 182.309,132.081 169.752,109.478 z" id="boundary" inkscape:connector-curvature="0" />
	<path style="fill:none;stroke:red;stroke-width:1px;stroke-linecap:butt;stroke-linejoin:miter;stroke-opacity:1" d="M 129.57,275.23 117.013,252.628 z" id="boundary" inkscape:connector-curvature="0" />
	<path style="fill:none;stroke:red;stroke-width:1px;stroke-linecap:butt;stroke-linejoin:miter;stroke-opacity:1" d="M 212.446,174.775 225.003,197.377 z" id="boundary" inkscape:connector-curvature="0" />
	<path style="fill:none;stroke:red;stroke-width:1px;stroke-linecap:butt;stroke-linejoin:miter;stroke-opacity:1" d="M 225.003,197.377 232.537,222.491 z" id="boundary" inkscape:connector-curvature="0" />
	<path style="fill:none;stroke:red;stroke-width:1px;stroke-linecap:butt;stroke-linejoin:miter;stroke-opacity:1" d="M 252.628,237.559 232.537,222.491 z" id="boundary" inkscape:connector-curvature="0" />
	<path style="fill:none;stroke:red;stroke-width:1px;stroke-linecap:butt;stroke-linejoin:miter;stroke-opacity:1" d="M 270.208,257.651 252.628,237.559 z" id="boundary" inkscape:connector-curvature="0" />
	<path style="fill:none;stroke:red;stroke-width:1px;stroke-linecap:butt;stroke-linejoin:miter;stroke-opacity:1" d="M 144.638,295.322 129.57,275.23 z" id="boundary" inkscape:connector-curvature="0" />
	<path style="fill:none;stroke:red;stroke-width:1px;stroke-linecap:butt;stroke-linejoin:miter;stroke-opacity:1" d="M 174.775,338.015 157.195,317.924 z" id="boundary" inkscape:connector-curvature="0" />
	<path style="fill:none;stroke:red;stroke-width:1px;stroke-linecap:butt;stroke-linejoin:miter;stroke-opacity:1" d="M 157.195,317.924 144.638,295.322 z" id="boundary" inkscape:connector-curvature="0" />
	<path style="fill:none;stroke:red;stroke-width:1px;stroke-linecap:butt;stroke-linejoin:miter;stroke-opacity:1" d="M 174.775,338.015 187.332,360.618 z" id="boundary" inkscape:connector-curvature="0" />
	<path style="fill:none;stroke:red;stroke-width:1px;stroke-linecap:butt;stroke-linejoin:miter;stroke-opacity:1" d="M 282.765,280.253 292.81,305.367 z" id="boundary" inkscape:connector-curvature="0" />
	<path style="fill:none;stroke:red;stroke-width:1px;stroke-linecap:butt;stroke-linejoin:miter;stroke-opacity:1" d="M 307.878,325.458 292.81,305.367 z" id="boundary" inkscape:connector-curvature="0" />
	<path style="fill:none;stroke:red;stroke-width:1px;stroke-linecap:butt;stroke-linejoin:miter;stroke-opacity:1" d="M 204.911,380.709 187.332,360.618 z" id="boundary" inkscape:connector-curvature="0" />
	<path style="fill:none;stroke:red;stroke-width:1px;stroke-linecap:butt;stroke-linejoin:miter;stroke-opacity:1" d="M 270.208,257.651 282.765,280.253 z" id="boundary" inkscape:connector-curvature="0" />
	<path style="fill:none;stroke:red;stroke-width:1px;stroke-linecap:butt;stroke-linejoin:miter;stroke-opacity:1" d="M 217.468,403.311 204.911,380.709 z" id="boundary" inkscape:connector-curvature="0" />
	<path style="fill:none;stroke:red;stroke-width:1px;stroke-linecap:butt;stroke-linejoin:miter;stroke-opacity:1" d="M 235.048,423.403 217.468,403.311 z" id="boundary" inkscape:connector-curvature="0" />
	<path style="fill:none;stroke:red;stroke-width:1px;stroke-linecap:butt;stroke-linejoin:miter;stroke-opacity:1" d="M 235.048,423.403 247.605,446.005 z" id="boundary" inkscape:connector-curvature="0" />
	<path style="fill:none;stroke:red;stroke-width:1px;stroke-linecap:butt;stroke-linejoin:miter;stroke-opacity:1" d="M 247.605,446.005 267.696,463.585 z" id="boundary" inkscape:connector-curvature="0" />
	<path style="fill:none;stroke:red;stroke-width:1px;stroke-linecap:butt;stroke-linejoin:miter;stroke-opacity:1" d="M 267.696,463.585 280.253,486.187 z" id="boundary" inkscape:connector-curvature="0" />
	<path style="fill:none;stroke:red;stroke-width:1px;stroke-linecap:butt;stroke-linejoin:miter;stroke-opacity:1" d="M 295.322,506.278 280.253,486.187 z" id="boundary" inkscape:connector-curvature="0" />
	<path style="fill:none;stroke:red;stroke-width:1px;stroke-linecap:butt;stroke-linejoin:miter;stroke-opacity:1" d="M 295.322,506.278 305.367,531.392 z" id="boundary" inkscape:connector-curvature="0" />
	<path style="fill:none;stroke:red;stroke-width:1px;stroke-linecap:butt;stroke-linejoin:miter;stroke-opacity:1" d="M 320.435,348.061 332.992,370.663 z" id="boundary" inkscape:connector-curvature="0" />
	<path style="fill:none;stroke:red;stroke-width:1px;stroke-linecap:butt;stroke-linejoin:miter;stroke-opacity:1" d="M 320.435,348.061 307.878,325.458 z" id="boundary" inkscape:connector-curvature="0" />
	<path style="fill:none;stroke:red;stroke-width:1px;stroke-linecap:butt;stroke-linejoin:miter;stroke-opacity:1" d="M 353.084,388.243 332.992,370.663 z" id="boundary" inkscape:connector-curvature="0" />
	<path style="fill:none;stroke:red;stroke-width:1px;stroke-linecap:butt;stroke-linejoin:miter;stroke-opacity:1" d="M 353.084,388.243 363.129,413.357 z" id="boundary" inkscape:connector-curvature="0" />
	<path style="fill:none;stroke:red;stroke-width:1px;stroke-linecap:butt;stroke-linejoin:miter;stroke-opacity:1" d="M 383.22,430.937 363.129,413.357 z" id="boundary" inkscape:connector-curvature="0" />
	<path style="fill:none;stroke:red;stroke-width:1px;stroke-linecap:butt;stroke-linejoin:miter;stroke-opacity:1" d="M 383.22,430.937 393.266,456.051 z" id="boundary" inkscape:connector-curvature="0" />
	<path style="fill:none;stroke:red;stroke-width:1px;stroke-linecap:butt;stroke-linejoin:miter;stroke-opacity:1" d="M 408.334,476.142 393.266,456.051 z" id="boundary" inkscape:connector-curvature="0" />
	<path style="fill:none;stroke:red;stroke-width:1px;stroke-linecap:butt;stroke-linejoin:miter;stroke-opacity:1" d="M 305.367,531.392 325.458,548.972 z" id="boundary" inkscape:connector-curvature="0" />
	<path style="fill:none;stroke:red;stroke-width:1px;stroke-linecap:butt;stroke-linejoin:miter;stroke-opacity:1" d="M 343.038,569.063 325.458,548.972 z" id="boundary" inkscape:connector-curvature="0" />
	<path style="fill:none;stroke:red;stroke-width:1px;stroke-linecap:butt;stroke-linejoin:miter;stroke-opacity:1" d="M 343.038,569.063 355.595,591.666 z" id="boundary" inkscape:connector-curvature="0" />
	<path style="fill:none;stroke:red;stroke-width:1px;stroke-linecap:butt;stroke-linejoin:miter;stroke-opacity:1" d="M 355.595,591.666 368.152,614.268 z" id="boundary" inkscape:connector-curvature="0" />
	<path style="fill:none;stroke:red;stroke-width:1px;stroke-linecap:butt;stroke-linejoin:miter;stroke-opacity:1" d="M 383.22,634.359 395.777,656.962 z" id="boundary" inkscape:connector-curvature="0" />
	<path style="fill:none;stroke:red;stroke-width:1px;stroke-linecap:butt;stroke-linejoin:miter;stroke-opacity:1" d="M 368.152,614.268 383.22,634.359 z" id="boundary" inkscape:connector-curvature="0" />
	<path style="fill:none;stroke:red;stroke-width:1px;stroke-linecap:butt;stroke-linejoin:miter;stroke-opacity:1" d="M 420.891,498.744 433.448,521.347 z" id="boundary" inkscape:connector-curvature="0" />
	<path style="fill:none;stroke:red;stroke-width:1px;stroke-linecap:butt;stroke-linejoin:miter;stroke-opacity:1" d="M 420.891,498.744 408.334,476.142 z" id="boundary" inkscape:connector-curvature="0" />
	<path style="fill:none;stroke:red;stroke-width:1px;stroke-linecap:butt;stroke-linejoin:miter;stroke-opacity:1" d="M 433.448,521.347 446.005,543.949 z" id="boundary" inkscape:connector-curvature="0" />
	<path style="fill:none;stroke:red;stroke-width:1px;stroke-linecap:butt;stroke-linejoin:miter;stroke-opacity:1" d="M 458.562,566.552 471.119,589.154 z" id="boundary" inkscape:connector-curvature="0" />
	<path style="fill:none;stroke:red;stroke-width:1px;stroke-linecap:butt;stroke-linejoin:miter;stroke-opacity:1" d="M 458.562,566.552 446.005,543.949 z" id="boundary" inkscape:connector-curvature="0" />
	<path style="fill:none;stroke:red;stroke-width:1px;stroke-linecap:butt;stroke-linejoin:miter;stroke-opacity:1" d="M 471.119,589.154 483.676,611.757 z" id="boundary" inkscape:connector-curvature="0" />
	<path style="fill:none;stroke:red;stroke-width:1px;stroke-linecap:butt;stroke-linejoin:miter;stroke-opacity:1" d="M 443.494,719.747 425.914,699.656 z" id="boundary" inkscape:connector-curvature="0" />
	<path style="fill:none;stroke:red;stroke-width:1px;stroke-linecap:butt;stroke-linejoin:miter;stroke-opacity:1" d="M 425.914,699.656 413.357,677.053 z" id="boundary" inkscape:connector-curvature="0" />
	<path style="fill:none;stroke:red;stroke-width:1px;stroke-linecap:butt;stroke-linejoin:miter;stroke-opacity:1" d="M 443.494,719.747 456.051,742.349 z" id="boundary" inkscape:connector-curvature="0" />
	<path style="fill:none;stroke:red;stroke-width:1px;stroke-linecap:butt;stroke-linejoin:miter;stroke-opacity:1" d="M 496.233,634.359 483.676,611.757 z" id="boundary" inkscape:connector-curvature="0" />
	<path style="fill:none;stroke:red;stroke-width:1px;stroke-linecap:butt;stroke-linejoin:miter;stroke-opacity:1" d="M 468.608,764.952 456.051,742.349 z" id="boundary" inkscape:connector-curvature="0" />
	<path style="fill:none;stroke:red;stroke-width:1px;stroke-linecap:butt;stroke-linejoin:miter;stroke-opacity:1" d="M 496.233,634.359 508.79,656.962 z" id="boundary" inkscape:connector-curvature="0" />
	<path style="fill:none;stroke:red;stroke-width:1px;stroke-linecap:butt;stroke-linejoin:miter;stroke-opacity:1" d="M 413.357,677.053 395.777,656.962 z" id="boundary" inkscape:connector-curvature="0" />
	<path style="fill:none;stroke:red;stroke-width:1px;stroke-linecap:butt;stroke-linejoin:miter;stroke-opacity:1" d="M 526.37,677.053 538.927,699.656 z" id="boundary" inkscape:connector-curvature="0" />
	<path style="fill:none;stroke:red;stroke-width:1px;stroke-linecap:butt;stroke-linejoin:miter;stroke-opacity:1" d="M 526.37,677.053 508.79,656.962 z" id="boundary" inkscape:connector-curvature="0" />
	<path style="fill:none;stroke:red;stroke-width:1px;stroke-linecap:butt;stroke-linejoin:miter;stroke-opacity:1" d="M 556.506,719.747 538.927,699.656 z" id="boundary" inkscape:connector-curvature="0" />
	<path style="fill:none;stroke:red;stroke-width:1px;stroke-linecap:butt;stroke-linejoin:miter;stroke-opacity:1" d="M 571.575,739.838 556.506,719.747 z" id="boundary" inkscape:connector-curvature="0" />
	<path style="fill:none;stroke:red;stroke-width:1px;stroke-linecap:butt;stroke-linejoin:miter;stroke-opacity:1" d="M 719.747,737.327 744.861,742.349 z" id="boundary" inkscape:connector-curvature="0" />
	<path style="fill:none;stroke:red;stroke-width:1px;stroke-linecap:butt;stroke-linejoin:miter;stroke-opacity:1" d="M 744.861,742.349 759.929,762.441 z" id="boundary" inkscape:connector-curvature="0" />
	<path style="fill:none;stroke:red;stroke-width:1px;stroke-linecap:butt;stroke-linejoin:miter;stroke-opacity:1" d="M 481.165,787.554 468.608,764.952 z" id="boundary" inkscape:connector-curvature="0" />
	<path style="fill:none;stroke:red;stroke-width:1px;stroke-linecap:butt;stroke-linejoin:miter;stroke-opacity:1" d="M 672.03,754.906 651.939,774.997 z" id="boundary" inkscape:connector-curvature="0" />
	<path style="fill:none;stroke:red;stroke-width:1px;stroke-linecap:butt;stroke-linejoin:miter;stroke-opacity:1" d="M 606.734,774.997 584.132,762.441 z" id="boundary" inkscape:connector-curvature="0" />
	<path style="fill:none;stroke:red;stroke-width:1px;stroke-linecap:butt;stroke-linejoin:miter;stroke-opacity:1" d="M 584.132,762.441 571.575,739.838 z" id="boundary" inkscape:connector-curvature="0" />
	<path style="fill:none;stroke:red;stroke-width:1px;stroke-linecap:butt;stroke-linejoin:miter;stroke-opacity:1" d="M 629.337,787.554 606.734,774.997 z" id="boundary" inkscape:connector-curvature="0" />
	<path style="fill:none;stroke:red;stroke-width:1px;stroke-linecap:butt;stroke-linejoin:miter;stroke-opacity:1" d="M 651.939,774.997 629.337,787.554 z" id="boundary" inkscape:connector-curvature="0" />
	<path style="fill:none;stroke:red;stroke-width:1px;stroke-linecap:butt;stroke-linejoin:miter;stroke-opacity:1" d="M 759.929,762.441 772.486,785.043 z" id="boundary" inkscape:connector-curvature="0" />
	<path style="fill:none;stroke:red;stroke-width:1px;stroke-linecap:butt;stroke-linejoin:miter;stroke-opacity:1" d="M 697.144,749.884 719.747,737.327 z" id="boundary" inkscape:connector-curvature="0" />
	<path style="fill:none;stroke:red;stroke-width:1px;stroke-linecap:butt;stroke-linejoin:miter;stroke-opacity:1" d="M 672.03,754.906 697.144,749.884 z" id="boundary" inkscape:connector-curvature="0" />
	<path style="fill:none;stroke:red;stroke-width:1px;stroke-linecap:butt;stroke-linejoin:miter;stroke-opacity:1" d="M 481.165,787.554 496.233,807.646 z" id="boundary" inkscape:connector-curvature="0" />
	<path style="fill:none;stroke:red;stroke-width:1px;stroke-linecap:butt;stroke-linejoin:miter;stroke-opacity:1" d="M 513.813,827.737 496.233,807.646 z" id="boundary" inkscape:connector-curvature="0" />
	<path style="fill:none;stroke:red;stroke-width:1px;stroke-linecap:butt;stroke-linejoin:miter;stroke-opacity:1" d="M 488.699,875.453 463.585,888.01 z" id="boundary" inkscape:connector-curvature="0" />
	<path style="fill:none;stroke:red;stroke-width:1px;stroke-linecap:butt;stroke-linejoin:miter;stroke-opacity:1" d="M 526.37,850.339 513.813,875.453 z" id="boundary" inkscape:connector-curvature="0" />
	<path style="fill:none;stroke:red;stroke-width:1px;stroke-linecap:butt;stroke-linejoin:miter;stroke-opacity:1" d="M 513.813,875.453 488.699,875.453 z" id="boundary" inkscape:connector-curvature="0" />
	<path style="fill:none;stroke:red;stroke-width:1px;stroke-linecap:butt;stroke-linejoin:miter;stroke-opacity:1" d="M 526.37,850.339 513.813,827.737 z" id="boundary" inkscape:connector-curvature="0" />
	<path style="fill:none;stroke:red;stroke-width:1px;stroke-linecap:butt;stroke-linejoin:miter;stroke-opacity:1" d="M 443.494,908.101 443.494,933.215 z" id="boundary" inkscape:connector-curvature="0" />
	<path style="fill:none;stroke:red;stroke-width:1px;stroke-linecap:butt;stroke-linejoin:miter;stroke-opacity:1" d="M 443.494,908.101 463.585,888.01 z" id="boundary" inkscape:connector-curvature="0" />
	<path style="fill:none;stroke:red;stroke-width:1px;stroke-linecap:butt;stroke-linejoin:miter;stroke-opacity:1" d="M 443.494,958.329 443.494,933.215 z" id="boundary" inkscape:connector-curvature="0" />
	<path style="fill:none;stroke:red;stroke-width:1px;stroke-linecap:butt;stroke-linejoin:miter;stroke-opacity:1" d="M 481.165,990.977 456.051,980.932 z" id="boundary" inkscape:connector-curvature="0" />
	<path style="fill:none;stroke:red;stroke-width:1px;stroke-linecap:butt;stroke-linejoin:miter;stroke-opacity:1" d="M 456.051,980.932 443.494,958.329 z" id="boundary" inkscape:connector-curvature="0" />
	<path style="fill:none;stroke:red;stroke-width:1px;stroke-linecap:butt;stroke-linejoin:miter;stroke-opacity:1" d="M 531.392,983.443 506.278,996 z" id="boundary" inkscape:connector-curvature="0" />
	<path style="fill:none;stroke:red;stroke-width:1px;stroke-linecap:butt;stroke-linejoin:miter;stroke-opacity:1" d="M 506.278,996 481.165,990.977 z" id="boundary" inkscape:connector-curvature="0" />
	<path style="fill:none;stroke:red;stroke-width:1px;stroke-linecap:butt;stroke-linejoin:miter;stroke-opacity:1" d="M 712.213,890.522 689.61,903.078 z" id="boundary" inkscape:connector-curvature="0" />
	<path style="fill:none;stroke:red;stroke-width:1px;stroke-linecap:butt;stroke-linejoin:miter;stroke-opacity:1" d="M 669.519,920.658 689.61,903.078 z" id="boundary" inkscape:connector-curvature="0" />
	<path style="fill:none;stroke:red;stroke-width:1px;stroke-linecap:butt;stroke-linejoin:miter;stroke-opacity:1" d="M 785.043,807.646 780.02,847.828 z" id="boundary" inkscape:connector-curvature="0" />
	<path style="fill:none;stroke:red;stroke-width:1px;stroke-linecap:butt;stroke-linejoin:miter;stroke-opacity:1" d="M 780.02,847.828 754.906,860.385 z" id="boundary" inkscape:connector-curvature="0" />
	<path style="fill:none;stroke:red;stroke-width:1px;stroke-linecap:butt;stroke-linejoin:miter;stroke-opacity:1" d="M 734.815,877.965 754.906,860.385 z" id="boundary" inkscape:connector-curvature="0" />
	<path style="fill:none;stroke:red;stroke-width:1px;stroke-linecap:butt;stroke-linejoin:miter;stroke-opacity:1" d="M 734.815,877.965 712.213,890.522 z" id="boundary" inkscape:connector-curvature="0" />
	<path style="fill:none;stroke:red;stroke-width:1px;stroke-linecap:butt;stroke-linejoin:miter;stroke-opacity:1" d="M 772.486,785.043 785.043,807.646 z" id="boundary" inkscape:connector-curvature="0" />
	<path style="fill:none;stroke:red;stroke-width:1px;stroke-linecap:butt;stroke-linejoin:miter;stroke-opacity:1" d="M 531.392,983.443 551.484,963.352 z" id="boundary" inkscape:connector-curvature="0" />
	<path style="fill:none;stroke:red;stroke-width:1px;stroke-linecap:butt;stroke-linejoin:miter;stroke-opacity:1" d="M 551.484,963.352 576.597,953.306 z" id="boundary" inkscape:connector-curvature="0" />
	<path style="fill:none;stroke:red;stroke-width:1px;stroke-linecap:butt;stroke-linejoin:miter;stroke-opacity:1" d="M 576.597,953.306 601.711,953.306 z" id="boundary" inkscape:connector-curvature="0" />
	<path style="fill:none;stroke:red;stroke-width:1px;stroke-linecap:butt;stroke-linejoin:miter;stroke-opacity:1" d="M 649.428,940.749 669.519,920.658 z" id="boundary" inkscape:connector-curvature="0" />
	<path style="fill:none;stroke:red;stroke-width:1px;stroke-linecap:butt;stroke-linejoin:miter;stroke-opacity:1" d="M 601.711,953.306 626.825,953.306 z" id="boundary" inkscape:connector-curvature="0" />
	<path style="fill:none;stroke:red;stroke-width:1px;stroke-linecap:butt;stroke-linejoin:miter;stroke-opacity:1" d="M 649.428,940.749 626.825,953.306 z" id="boundary" inkscape:connector-curvature="0" />
	<circle cx="4" cy="54.2278" r="4" fill="#0" id="circle0"/>
	<circle cx="4" cy="79.3418" r="4" fill="#0" id="circle1"/>
	<circle cx="16.557" cy="101.944" r="4" fill="#0" id="circle2"/>
	<circle cx="24.0911" cy="34.1367" r="4" fill="#0" id="circle3"/>
	<circle cx="29.1139" cy="124.547" r="4" fill="#0" id="circle4"/>
	<circle cx="44.1823" cy="14.0456" r="4" fill="#0" id="circle5"/>
	<circle cx="44.1823" cy="144.638" r="4" fill="#0" id="circle6"/>
	<circle cx="56.7392" cy="167.241" r="4" fill="#0" id="circle7"/>
	<circle cx="69.2962" cy="9.02278" r="4" fill="#0" id="circle8"/>
	<circle cx="74.319" cy="187.332" r="4" fill="#0" id="circle9"/>
	<circle cx="86.8759" cy="209.934" r="4" fill="#0" id="circle10"/>
	<circle cx="94.4101" cy="4" r="4" fill="#0" id="circle11"/>
	<circle cx="104.456" cy="230.025" r="4" fill="#0" id="circle12"/>
	<circle cx="111.99" cy="24.0911" r="4" fill="#0" id="circle13"/>
	<circle cx="117.013" cy="252.628" r="4" fill="#0" id="circle14"/>
	<circle cx="129.57" cy="275.23" r="4" fill="#0" id="circle15"/>
	<circle cx="132.081" cy="41.6709" r="4" fill="#0" id="circle16"/>
	<circle cx="142.127" cy="66.7848" r="4" fill="#0" id="circle17"/>
	<circle cx="144.638" cy="295.322" r="4" fill="#0" id="circle18"/>
	<circle cx="157.195" cy="86.8759" r="4" fill="#0" id="circle19"/>
	<circle cx="157.195" cy="317.924" r="4" fill="#0" id="circle20"/>
	<circle cx="169.752" cy="109.478" r="4" fill="#0" id="circle21"/>
	<circle cx="174.775" cy="338.015" r="4" fill="#0" id="circle22"/>
	<circle cx="182.309" cy="132.081" r="4" fill="#0" id="circle23"/>
	<circle cx="187.332" cy="360.618" r="4" fill="#0" id="circle24"/>
	<circle cx="194.866" cy="154.684" r="4" fill="#0" id="circle25"/>
	<circle cx="204.911" cy="380.709" r="4" fill="#0" id="circle26"/>
	<circle cx="212.446" cy="174.775" r="4" fill="#0" id="circle27"/>
	<circle cx="217.468" cy="403.311" r="4" fill="#0" id="circle28"/>
	<circle cx="225.003" cy="197.377" r="4" fill="#0" id="circle29"/>
	<circle cx="232.537" cy="222.491" r="4" fill="#0" id="circle30"/>
	<circle cx="235.048" cy="423.403" r="4" fill="#0" id="circle31"/>
	<circle cx="247.605" cy="446.005" r="4" fill="#0" id="circle32"/>
	<circle cx="252.628" cy="237.559" r="4" fill="#0" id="circle33"/>
	<circle cx="267.696" cy="463.585" r="4" fill="#0" id="circle34"/>
	<circle cx="270.208" cy="257.651" r="4" fill="#0" id="circle35"/>
	<circle cx="280.253" cy="486.187" r="4" fill="#0" id="circle36"/>
	<circle cx="282.765" cy="280.253" r="4" fill="#0" id="circle37"/>
	<circle cx="292.81" cy="305.367" r="4" fill="#0" id="circle38"/>
	<circle cx="295.322" cy="506.278" r="4" fill="#0" id="circle39"/>
	<circle cx="305.367" cy="531.392" r="4" fill="#0" id="circle40"/>
	<circle cx="307.878" cy="325.458" r="4" fill="#0" id="circle41"/>
	<circle cx="320.435" cy="348.061" r="4" fill="#0" id="circle42"/>
	<circle cx="325.458" cy="548.972" r="4" fill="#0" id="circle43"/>
	<circle cx="332.992" cy="370.663" r="4" fill="#0" id="circle44"/>
	<circle cx="343.038" cy="569.063" r="4" fill="#0" id="circle45"/>
	<circle cx="353.084" cy="388.243" r="4" fill="#0" id="circle46"/>
	<circle cx="355.595" cy="591.666" r="4" fill="#0" id="circle47"/>
	<circle cx="363.129" cy="413.357" r="4" fill="#0" id="circle48"/>
	<circle cx="368.152" cy="614.268" r="4" fill="#0" id="circle49"/>
	<circle cx="383.22" cy="430.937" r="4" fill="#0" id="circle50"/>
	<circle cx="383.22" cy="634.359" r="4" fill="#0" id="circle51"/>
	<circle cx="393.266" cy="456.051" r="4" fill="#0" id="circle52"/>
	<circle cx="395.777" cy="656.962" r="4" fill="#0" id="circle53"/>
	<circle cx="408.334" cy="476.142" r="4" fill="#0" id="circle54"/>
	<circle cx="413.357" cy="677.053" r="4" fill="#0" id="circle55"/>
	<circle cx="420.891" cy="498.744" r="4" fill="#0" id="circle56"/>
	<circle cx="425.914" cy="699.656" r="4" fill="#0" id="circle57"/>
	<circle cx="433.448" cy="521.347" r="4" fill="#0" id="circle58"/>
	<circle cx="443.494" cy="719.747" r="4" fill="#0" id="circle59"/>
	<circle cx="443.494" cy="908.101" r="4" fill="#0" id="circle60"/>
	<circle cx="443.494" cy="933.215" r="4" fill="#0" id="circle61"/>
	<circle cx="443.494" cy="958.329" r="4" fill="#0" id="circle62"/>
	<circle cx="446.005" cy="543.949" r="4" fill="#0" id="circle63"/>
	<circle cx="456.051" cy="742.349" r="4" fill="#0" id="circle64"/>
	<circle cx="456.051" cy="980.932" r="4" fill="#0" id="circle65"/>
	<circle cx="458.562" cy="566.552" r="4" fill="#0" id="circle66"/>
	<circle cx="463.585" cy="888.01" r="4" fill="#0" id="circle67"/>
	<circle cx="468.608" cy="764.952" r="4" fill="#0" id="circle68"/>
	<circle cx="471.119" cy="589.154" r="4" fill="#0" id="circle69"/>
	<circle cx="481.165" cy="787.554" r="4" fill="#0" id="circle70"/>
	<circle cx="481.165" cy="990.977" r="4" fill="#0" id="circle71"/>
	<circle cx="483.676" cy="611.757" r="4" fill="#0" id="circle72"/>
	<circle cx="488.699" cy="875.453" r="4" fill="#0" id="circle73"/>
	<circle cx="496.233" cy="634.359" r="4" fill="#0" id="circle74"/>
	<circle cx="496.233" cy="807.646" r="4" fill="#0" id="circle75"/>
	<circle cx="506.278" cy="996" r="4" fill="#0" id="circle76"/>
	<circle cx="508.79" cy="656.962" r="4" fill="#0" id="circle77"/>
	<circle cx="513.813" cy="827.737" r="4" fill="#0" id="circle78"/>
	<circle cx="513.813" cy="875.453" r="4" fill="#0" id="circle79"/>
	<circle cx="526.37" cy="677.053" r="4" fill="#0" id="circle80"/>
	<circle cx="526.37" cy="850.339" r="4" fill="#0" id="circle81"/>
	<circle cx="531.392" cy="983.443" r="4" fill="#0" id="circle82"/>
	<circle cx="538.927" cy="699.656" r="4" fill="#0" id="circle83"/>
	<circle cx="551.484" cy="963.352" r="4" fill="#0" id="circle84"/>
	<circle cx="556.506" cy="719.747" r="4" fill="#0" id="circle85"/>
	<circle cx="571.575" cy="739.838" r="4" fill="#0" id="circle86"/>
	<circle cx="576.597" cy="953.306" r="4" fill="#0" id="circle87"/>
	<circle cx="584.132" cy="762.441" r="4" fill="#0" id="circle88"/>
	<circle cx="601.711" cy="953.306" r="4" fill="#0" id="circle89"/>
	<circle cx="606.734" cy="774.997" r="4" fill="#0" id="circle90"/>
	<circle cx="626.825" cy="953.306" r="4" fill="#0" id="circle91"/>
	<circle cx="629.337" cy="787.554" r="4" fill="#0" id="circle92"/>
	<circle cx="649.428" cy="940.749" r="4" fill="#0" id="circle93"/>
	<circle cx="651.939" cy="774.997" r="4" fill="#0" id="circle94"/>
	<circle cx="669.519" cy="920.658" r="4" fill="#0" id="circle95"/>
	<circle cx="672.03" cy="754.906" r="4" fill="#0" id="circle96"/>
	<circle cx="689.61" cy="903.078" r="4" fill="#0" id="circle97"/>
	<circle cx="697.144" cy="749.884" r="4" fill="#0" id="circle98"/>
	<circle cx="712.213" cy="890.522" r="4" fill="#0" id="circle99"/>
	<circle cx="719.747" cy="737.327" r="4" fill="#0" id="circle100"/>
	<circle cx="734.815" cy="877.965" r="4" fill="#0" id="circle101"/>
	<circle cx="744.861" cy="742.349" r="4" fill="#0" id="circle102"/>
	<circle cx="754.906" cy="860.385" r="4" fill="#0" id="circle103"/>
	<circle cx="759.929" cy="762.441" r="4" fill="#0" id="circle104"/>
	<circle cx="772.486" cy="785.043" r="4" fill="#0" id="circle105"/>
	<circle cx="780.02" cy="847.828" r="4" fill="#0" id="circle106"/>
	<circle cx="785.043" cy="807.646" r="4" fill="#0" id="circle107"/>
	</g>
</svg>