<?xml version="1.0" encoding="UTF-8" standalone="no"?>
<!-- Created with CurveBenchmark -->
<svg
	xmlns:dc="http://purl.org/dc/elements/1.1/"
	xmlns:cc="http://creativecommons.org/ns#"
	xmlns:rdf="http://www.w3.org/1999/02/22-rdf-syntax-ns#"
	xmlns:svg="http://www.w3.org/2000/svg"
	xmlns="http://www.w3.org/2000/svg"
	xmlns:sodipodi="http://sodipodi.sourceforge.net/DTD/sodipodi-0.dtd"
	xmlns:inkscape="http://www.inkscape.org/namespaces/inkscape"
	width="1000"
	height="1000"
	id="svg2"
	version="1.1"
	sodipodi:docname="manifold/gathan1-chopper17.png.txt">
<defs
	id="defs4" />
<metadata
	id="metadata7">
	<rdf:RDF>
		<cc:Work
			rdf:about="">
			<dc:format>image/svg+xml</dc:format>
			<dc:type
				rdf:resource="http://purl.org/dc/dcmitype/StillImage" />
			<dc:title></dc:title>
		</cc:Work>
	</rdf:RDF>
</metadata>
<g
	inkscape:label="Layer 1"
	inkscape:groupmode="layer"
	id="layer1">
	<path style="fill:none;stroke:red;stroke-width:1px;stroke-linecap:butt;stroke-linejoin:miter;stroke-opacity:1" d="M 149.829,169.633 167.833,166.033 z" id="boundary" inkscape:connector-curvature="0" />
	<path style="fill:none;stroke:red;stroke-width:1px;stroke-linecap:butt;stroke-linejoin:miter;stroke-opacity:1" d="M 135.426,184.036 149.829,169.633 z" id="boundary" inkscape:connector-curvature="0" />
	<path style="fill:none;stroke:red;stroke-width:1px;stroke-linecap:butt;stroke-linejoin:miter;stroke-opacity:1" d="M 184.036,153.43 167.833,166.033 z" id="boundary" inkscape:connector-curvature="0" />
	<path style="fill:none;stroke:red;stroke-width:1px;stroke-linecap:butt;stroke-linejoin:miter;stroke-opacity:1" d="M 104.82,205.641 119.223,193.038 z" id="boundary" inkscape:connector-curvature="0" />
	<path style="fill:none;stroke:red;stroke-width:1px;stroke-linecap:butt;stroke-linejoin:miter;stroke-opacity:1" d="M 119.223,193.038 135.426,184.036 z" id="boundary" inkscape:connector-curvature="0" />
	<path style="fill:none;stroke:red;stroke-width:1px;stroke-linecap:butt;stroke-linejoin:miter;stroke-opacity:1" d="M 92.2178,220.044 104.82,205.641 z" id="boundary" inkscape:connector-curvature="0" />
	<path style="fill:none;stroke:red;stroke-width:1px;stroke-linecap:butt;stroke-linejoin:miter;stroke-opacity:1" d="M 274.054,130.025 256.051,135.426 z" id="boundary" inkscape:connector-curvature="0" />
	<path style="fill:none;stroke:red;stroke-width:1px;stroke-linecap:butt;stroke-linejoin:miter;stroke-opacity:1" d="M 256.051,135.426 238.047,139.027 z" id="boundary" inkscape:connector-curvature="0" />
	<path style="fill:none;stroke:red;stroke-width:1px;stroke-linecap:butt;stroke-linejoin:miter;stroke-opacity:1" d="M 220.044,144.428 202.04,153.43 z" id="boundary" inkscape:connector-curvature="0" />
	<path style="fill:none;stroke:red;stroke-width:1px;stroke-linecap:butt;stroke-linejoin:miter;stroke-opacity:1" d="M 202.04,153.43 184.036,153.43 z" id="boundary" inkscape:connector-curvature="0" />
	<path style="fill:none;stroke:red;stroke-width:1px;stroke-linecap:butt;stroke-linejoin:miter;stroke-opacity:1" d="M 238.047,139.027 220.044,144.428 z" id="boundary" inkscape:connector-curvature="0" />
	<path style="fill:none;stroke:red;stroke-width:1px;stroke-linecap:butt;stroke-linejoin:miter;stroke-opacity:1" d="M 4,360.472 4,333.466 z" id="boundary" inkscape:connector-curvature="0" />
	<path style="fill:none;stroke:red;stroke-width:1px;stroke-linecap:butt;stroke-linejoin:miter;stroke-opacity:1" d="M 4,378.475 4,360.472 z" id="boundary" inkscape:connector-curvature="0" />
	<path style="fill:none;stroke:red;stroke-width:1px;stroke-linecap:butt;stroke-linejoin:miter;stroke-opacity:1" d="M 13.0018,412.682 4,396.479 z" id="boundary" inkscape:connector-curvature="0" />
	<path style="fill:none;stroke:red;stroke-width:1px;stroke-linecap:butt;stroke-linejoin:miter;stroke-opacity:1" d="M 4,396.479 4,378.475 z" id="boundary" inkscape:connector-curvature="0" />
	<path style="fill:none;stroke:red;stroke-width:1px;stroke-linecap:butt;stroke-linejoin:miter;stroke-opacity:1" d="M 13.0018,306.461 27.4047,292.058 z" id="boundary" inkscape:connector-curvature="0" />
	<path style="fill:none;stroke:red;stroke-width:1px;stroke-linecap:butt;stroke-linejoin:miter;stroke-opacity:1" d="M 4,333.466 13.0018,306.461 z" id="boundary" inkscape:connector-curvature="0" />
	<path style="fill:none;stroke:red;stroke-width:1px;stroke-linecap:butt;stroke-linejoin:miter;stroke-opacity:1" d="M 54.4102,265.053 63.412,247.049 z" id="boundary" inkscape:connector-curvature="0" />
	<path style="fill:none;stroke:red;stroke-width:1px;stroke-linecap:butt;stroke-linejoin:miter;stroke-opacity:1" d="M 63.412,247.049 77.8149,232.646 z" id="boundary" inkscape:connector-curvature="0" />
	<path style="fill:none;stroke:red;stroke-width:1px;stroke-linecap:butt;stroke-linejoin:miter;stroke-opacity:1" d="M 92.2178,220.044 77.8149,232.646 z" id="boundary" inkscape:connector-curvature="0" />
	<path style="fill:none;stroke:red;stroke-width:1px;stroke-linecap:butt;stroke-linejoin:miter;stroke-opacity:1" d="M 27.4047,292.058 36.4065,274.054 z" id="boundary" inkscape:connector-curvature="0" />
	<path style="fill:none;stroke:red;stroke-width:1px;stroke-linecap:butt;stroke-linejoin:miter;stroke-opacity:1" d="M 36.4065,274.054 54.4102,265.053 z" id="boundary" inkscape:connector-curvature="0" />
	<path style="fill:none;stroke:red;stroke-width:1px;stroke-linecap:butt;stroke-linejoin:miter;stroke-opacity:1" d="M 274.054,130.025 292.058,130.025 z" id="boundary" inkscape:connector-curvature="0" />
	<path style="fill:none;stroke:red;stroke-width:1px;stroke-linecap:butt;stroke-linejoin:miter;stroke-opacity:1" d="M 328.065,22.0036 346.069,18.4029 z" id="boundary" inkscape:connector-curvature="0" />
	<path style="fill:none;stroke:red;stroke-width:1px;stroke-linecap:butt;stroke-linejoin:miter;stroke-opacity:1" d="M 360.472,4 346.069,18.4029 z" id="boundary" inkscape:connector-curvature="0" />
	<path style="fill:none;stroke:red;stroke-width:1px;stroke-linecap:butt;stroke-linejoin:miter;stroke-opacity:1" d="M 310.062,27.4047 331.666,40.0073 z" id="boundary" inkscape:connector-curvature="0" />
	<path style="fill:none;stroke:red;stroke-width:1px;stroke-linecap:butt;stroke-linejoin:miter;stroke-opacity:1" d="M 310.062,27.4047 328.065,22.0036 z" id="boundary" inkscape:connector-curvature="0" />
	<path style="fill:none;stroke:red;stroke-width:1px;stroke-linecap:butt;stroke-linejoin:miter;stroke-opacity:1" d="M 346.069,50.8094 331.666,40.0073 z" id="boundary" inkscape:connector-curvature="0" />
	<path style="fill:none;stroke:red;stroke-width:1px;stroke-linecap:butt;stroke-linejoin:miter;stroke-opacity:1" d="M 364.073,50.8094 346.069,50.8094 z" id="boundary" inkscape:connector-curvature="0" />
	<path style="fill:none;stroke:red;stroke-width:1px;stroke-linecap:butt;stroke-linejoin:miter;stroke-opacity:1" d="M 360.472,4 378.475,4 z" id="boundary" inkscape:connector-curvature="0" />
	<path style="fill:none;stroke:red;stroke-width:1px;stroke-linecap:butt;stroke-linejoin:miter;stroke-opacity:1" d="M 378.475,4 396.479,4 z" id="boundary" inkscape:connector-curvature="0" />
	<path style="fill:none;stroke:red;stroke-width:1px;stroke-linecap:butt;stroke-linejoin:miter;stroke-opacity:1" d="M 378.475,67.0127 364.073,50.8094 z" id="boundary" inkscape:connector-curvature="0" />
	<path style="fill:none;stroke:red;stroke-width:1px;stroke-linecap:butt;stroke-linejoin:miter;stroke-opacity:1" d="M 396.479,4 414.483,4 z" id="boundary" inkscape:connector-curvature="0" />
	<path style="fill:none;stroke:red;stroke-width:1px;stroke-linecap:butt;stroke-linejoin:miter;stroke-opacity:1" d="M 419.884,41.8076 416.283,65.2123 z" id="boundary" inkscape:connector-curvature="0" />
	<path style="fill:none;stroke:red;stroke-width:1px;stroke-linecap:butt;stroke-linejoin:miter;stroke-opacity:1" d="M 310.062,130.025 292.058,130.025 z" id="boundary" inkscape:connector-curvature="0" />
	<path style="fill:none;stroke:red;stroke-width:1px;stroke-linecap:butt;stroke-linejoin:miter;stroke-opacity:1" d="M 328.065,130.025 310.062,130.025 z" id="boundary" inkscape:connector-curvature="0" />
	<path style="fill:none;stroke:red;stroke-width:1px;stroke-linecap:butt;stroke-linejoin:miter;stroke-opacity:1" d="M 346.069,130.025 328.065,130.025 z" id="boundary" inkscape:connector-curvature="0" />
	<path style="fill:none;stroke:red;stroke-width:1px;stroke-linecap:butt;stroke-linejoin:miter;stroke-opacity:1" d="M 364.073,81.4156 364.073,108.421 z" id="boundary" inkscape:connector-curvature="0" />
	<path style="fill:none;stroke:red;stroke-width:1px;stroke-linecap:butt;stroke-linejoin:miter;stroke-opacity:1" d="M 401.88,77.8149 401.88,95.8185 z" id="boundary" inkscape:connector-curvature="0" />
	<path style="fill:none;stroke:red;stroke-width:1px;stroke-linecap:butt;stroke-linejoin:miter;stroke-opacity:1" d="M 416.283,65.2123 401.88,77.8149 z" id="boundary" inkscape:connector-curvature="0" />
	<path style="fill:none;stroke:red;stroke-width:1px;stroke-linecap:butt;stroke-linejoin:miter;stroke-opacity:1" d="M 364.073,126.425 364.073,108.421 z" id="boundary" inkscape:connector-curvature="0" />
	<path style="fill:none;stroke:red;stroke-width:1px;stroke-linecap:butt;stroke-linejoin:miter;stroke-opacity:1" d="M 401.88,95.8185 405.481,113.822 z" id="boundary" inkscape:connector-curvature="0" />
	<path style="fill:none;stroke:red;stroke-width:1px;stroke-linecap:butt;stroke-linejoin:miter;stroke-opacity:1" d="M 364.073,126.425 346.069,130.025 z" id="boundary" inkscape:connector-curvature="0" />
	<path style="fill:none;stroke:red;stroke-width:1px;stroke-linecap:butt;stroke-linejoin:miter;stroke-opacity:1" d="M 423.485,121.024 405.481,113.822 z" id="boundary" inkscape:connector-curvature="0" />
	<path style="fill:none;stroke:red;stroke-width:1px;stroke-linecap:butt;stroke-linejoin:miter;stroke-opacity:1" d="M 13.0018,412.682 22.0036,428.886 z" id="boundary" inkscape:connector-curvature="0" />
	<path style="fill:none;stroke:red;stroke-width:1px;stroke-linecap:butt;stroke-linejoin:miter;stroke-opacity:1" d="M 38.2069,437.887 22.0036,428.886 z" id="boundary" inkscape:connector-curvature="0" />
	<path style="fill:none;stroke:red;stroke-width:1px;stroke-linecap:butt;stroke-linejoin:miter;stroke-opacity:1" d="M 38.2069,437.887 50.8094,452.29 z" id="boundary" inkscape:connector-curvature="0" />
	<path style="fill:none;stroke:red;stroke-width:1px;stroke-linecap:butt;stroke-linejoin:miter;stroke-opacity:1" d="M 68.8131,446.889 50.8094,452.29 z" id="boundary" inkscape:connector-curvature="0" />
	<path style="fill:none;stroke:red;stroke-width:1px;stroke-linecap:butt;stroke-linejoin:miter;stroke-opacity:1" d="M 63.412,490.098 49.0091,504.501 z" id="boundary" inkscape:connector-curvature="0" />
	<path style="fill:none;stroke:red;stroke-width:1px;stroke-linecap:butt;stroke-linejoin:miter;stroke-opacity:1" d="M 103.02,455.891 85.0163,455.891 z" id="boundary" inkscape:connector-curvature="0" />
	<path style="fill:none;stroke:red;stroke-width:1px;stroke-linecap:butt;stroke-linejoin:miter;stroke-opacity:1" d="M 85.0163,455.891 68.8131,446.889 z" id="boundary" inkscape:connector-curvature="0" />
	<path style="fill:none;stroke:red;stroke-width:1px;stroke-linecap:butt;stroke-linejoin:miter;stroke-opacity:1" d="M 81.4156,490.098 63.412,490.098 z" id="boundary" inkscape:connector-curvature="0" />
	<path style="fill:none;stroke:red;stroke-width:1px;stroke-linecap:butt;stroke-linejoin:miter;stroke-opacity:1" d="M 103.02,455.891 121.024,455.891 z" id="boundary" inkscape:connector-curvature="0" />
	<path style="fill:none;stroke:red;stroke-width:1px;stroke-linecap:butt;stroke-linejoin:miter;stroke-opacity:1" d="M 121.024,455.891 139.027,455.891 z" id="boundary" inkscape:connector-curvature="0" />
	<path style="fill:none;stroke:red;stroke-width:1px;stroke-linecap:butt;stroke-linejoin:miter;stroke-opacity:1" d="M 157.031,455.891 139.027,455.891 z" id="boundary" inkscape:connector-curvature="0" />
	<path style="fill:none;stroke:red;stroke-width:1px;stroke-linecap:butt;stroke-linejoin:miter;stroke-opacity:1" d="M 58.0109,520.704 49.0091,504.501 z" id="boundary" inkscape:connector-curvature="0" />
	<path style="fill:none;stroke:red;stroke-width:1px;stroke-linecap:butt;stroke-linejoin:miter;stroke-opacity:1" d="M 76.0145,527.906 58.0109,520.704 z" id="boundary" inkscape:connector-curvature="0" />
	<path style="fill:none;stroke:red;stroke-width:1px;stroke-linecap:butt;stroke-linejoin:miter;stroke-opacity:1" d="M 94.0181,527.906 76.0145,527.906 z" id="boundary" inkscape:connector-curvature="0" />
	<path style="fill:none;stroke:red;stroke-width:1px;stroke-linecap:butt;stroke-linejoin:miter;stroke-opacity:1" d="M 81.4156,490.098 97.6189,499.1 z" id="boundary" inkscape:connector-curvature="0" />
	<path style="fill:none;stroke:red;stroke-width:1px;stroke-linecap:butt;stroke-linejoin:miter;stroke-opacity:1" d="M 112.022,511.702 97.6189,499.1 z" id="boundary" inkscape:connector-curvature="0" />
	<path style="fill:none;stroke:red;stroke-width:1px;stroke-linecap:butt;stroke-linejoin:miter;stroke-opacity:1" d="M 131.826,511.702 112.022,511.702 z" id="boundary" inkscape:connector-curvature="0" />
	<path style="fill:none;stroke:red;stroke-width:1px;stroke-linecap:butt;stroke-linejoin:miter;stroke-opacity:1" d="M 121.024,527.906 94.0181,527.906 z" id="boundary" inkscape:connector-curvature="0" />
	<path style="fill:none;stroke:red;stroke-width:1px;stroke-linecap:butt;stroke-linejoin:miter;stroke-opacity:1" d="M 140.828,527.906 121.024,527.906 z" id="boundary" inkscape:connector-curvature="0" />
	<path style="fill:none;stroke:red;stroke-width:1px;stroke-linecap:butt;stroke-linejoin:miter;stroke-opacity:1" d="M 131.826,511.702 149.829,508.102 z" id="boundary" inkscape:connector-curvature="0" />
	<path style="fill:none;stroke:red;stroke-width:1px;stroke-linecap:butt;stroke-linejoin:miter;stroke-opacity:1" d="M 158.831,527.906 140.828,527.906 z" id="boundary" inkscape:connector-curvature="0" />
	<path style="fill:none;stroke:red;stroke-width:1px;stroke-linecap:butt;stroke-linejoin:miter;stroke-opacity:1" d="M 167.833,502.701 149.829,508.102 z" id="boundary" inkscape:connector-curvature="0" />
	<path style="fill:none;stroke:red;stroke-width:1px;stroke-linecap:butt;stroke-linejoin:miter;stroke-opacity:1" d="M 175.034,455.891 193.038,455.891 z" id="boundary" inkscape:connector-curvature="0" />
	<path style="fill:none;stroke:red;stroke-width:1px;stroke-linecap:butt;stroke-linejoin:miter;stroke-opacity:1" d="M 175.034,455.891 157.031,455.891 z" id="boundary" inkscape:connector-curvature="0" />
	<path style="fill:none;stroke:red;stroke-width:1px;stroke-linecap:butt;stroke-linejoin:miter;stroke-opacity:1" d="M 185.837,502.701 167.833,502.701 z" id="boundary" inkscape:connector-curvature="0" />
	<path style="fill:none;stroke:red;stroke-width:1px;stroke-linecap:butt;stroke-linejoin:miter;stroke-opacity:1" d="M 203.84,499.1 185.837,502.701 z" id="boundary" inkscape:connector-curvature="0" />
	<path style="fill:none;stroke:red;stroke-width:1px;stroke-linecap:butt;stroke-linejoin:miter;stroke-opacity:1" d="M 220.044,490.098 211.042,473.895 z" id="boundary" inkscape:connector-curvature="0" />
	<path style="fill:none;stroke:red;stroke-width:1px;stroke-linecap:butt;stroke-linejoin:miter;stroke-opacity:1" d="M 211.042,473.895 211.042,455.891 z" id="boundary" inkscape:connector-curvature="0" />
	<path style="fill:none;stroke:red;stroke-width:1px;stroke-linecap:butt;stroke-linejoin:miter;stroke-opacity:1" d="M 193.038,455.891 211.042,455.891 z" id="boundary" inkscape:connector-curvature="0" />
	<path style="fill:none;stroke:red;stroke-width:1px;stroke-linecap:butt;stroke-linejoin:miter;stroke-opacity:1" d="M 391.078,500.9 373.074,500.9 z" id="boundary" inkscape:connector-curvature="0" />
	<path style="fill:none;stroke:red;stroke-width:1px;stroke-linecap:butt;stroke-linejoin:miter;stroke-opacity:1" d="M 356.871,509.902 373.074,500.9 z" id="boundary" inkscape:connector-curvature="0" />
	<path style="fill:none;stroke:red;stroke-width:1px;stroke-linecap:butt;stroke-linejoin:miter;stroke-opacity:1" d="M 409.082,500.9 391.078,500.9 z" id="boundary" inkscape:connector-curvature="0" />
	<path style="fill:none;stroke:red;stroke-width:1px;stroke-linecap:butt;stroke-linejoin:miter;stroke-opacity:1" d="M 176.835,527.906 158.831,527.906 z" id="boundary" inkscape:connector-curvature="0" />
	<path style="fill:none;stroke:red;stroke-width:1px;stroke-linecap:butt;stroke-linejoin:miter;stroke-opacity:1" d="M 248.849,518.904 230.846,527.906 z" id="boundary" inkscape:connector-curvature="0" />
	<path style="fill:none;stroke:red;stroke-width:1px;stroke-linecap:butt;stroke-linejoin:miter;stroke-opacity:1" d="M 194.838,527.906 176.835,527.906 z" id="boundary" inkscape:connector-curvature="0" />
	<path style="fill:none;stroke:red;stroke-width:1px;stroke-linecap:butt;stroke-linejoin:miter;stroke-opacity:1" d="M 212.842,527.906 194.838,527.906 z" id="boundary" inkscape:connector-curvature="0" />
	<path style="fill:none;stroke:red;stroke-width:1px;stroke-linecap:butt;stroke-linejoin:miter;stroke-opacity:1" d="M 230.846,527.906 212.842,527.906 z" id="boundary" inkscape:connector-curvature="0" />
	<path style="fill:none;stroke:red;stroke-width:1px;stroke-linecap:butt;stroke-linejoin:miter;stroke-opacity:1" d="M 248.849,518.904 266.853,518.904 z" id="boundary" inkscape:connector-curvature="0" />
	<path style="fill:none;stroke:red;stroke-width:1px;stroke-linecap:butt;stroke-linejoin:miter;stroke-opacity:1" d="M 284.857,509.902 302.86,509.902 z" id="boundary" inkscape:connector-curvature="0" />
	<path style="fill:none;stroke:red;stroke-width:1px;stroke-linecap:butt;stroke-linejoin:miter;stroke-opacity:1" d="M 266.853,518.904 284.857,509.902 z" id="boundary" inkscape:connector-curvature="0" />
	<path style="fill:none;stroke:red;stroke-width:1px;stroke-linecap:butt;stroke-linejoin:miter;stroke-opacity:1" d="M 338.868,509.902 320.864,513.503 z" id="boundary" inkscape:connector-curvature="0" />
	<path style="fill:none;stroke:red;stroke-width:1px;stroke-linecap:butt;stroke-linejoin:miter;stroke-opacity:1" d="M 320.864,513.503 302.86,509.902 z" id="boundary" inkscape:connector-curvature="0" />
	<path style="fill:none;stroke:red;stroke-width:1px;stroke-linecap:butt;stroke-linejoin:miter;stroke-opacity:1" d="M 338.868,509.902 356.871,509.902 z" id="boundary" inkscape:connector-curvature="0" />
	<path style="fill:none;stroke:red;stroke-width:1px;stroke-linecap:butt;stroke-linejoin:miter;stroke-opacity:1" d="M 409.082,500.9 427.085,500.9 z" id="boundary" inkscape:connector-curvature="0" />
	<path style="fill:none;stroke:red;stroke-width:1px;stroke-linecap:butt;stroke-linejoin:miter;stroke-opacity:1" d="M 427.085,18.4029 437.887,32.8058 z" id="boundary" inkscape:connector-curvature="0" />
	<path style="fill:none;stroke:red;stroke-width:1px;stroke-linecap:butt;stroke-linejoin:miter;stroke-opacity:1" d="M 455.891,106.621 441.488,121.024 z" id="boundary" inkscape:connector-curvature="0" />
	<path style="fill:none;stroke:red;stroke-width:1px;stroke-linecap:butt;stroke-linejoin:miter;stroke-opacity:1" d="M 441.488,121.024 423.485,121.024 z" id="boundary" inkscape:connector-curvature="0" />
	<path style="fill:none;stroke:red;stroke-width:1px;stroke-linecap:butt;stroke-linejoin:miter;stroke-opacity:1" d="M 414.483,4 427.085,18.4029 z" id="boundary" inkscape:connector-curvature="0" />
	<path style="fill:none;stroke:red;stroke-width:1px;stroke-linecap:butt;stroke-linejoin:miter;stroke-opacity:1" d="M 473.895,112.022 455.891,106.621 z" id="boundary" inkscape:connector-curvature="0" />
	<path style="fill:none;stroke:red;stroke-width:1px;stroke-linecap:butt;stroke-linejoin:miter;stroke-opacity:1" d="M 491.898,112.022 473.895,112.022 z" id="boundary" inkscape:connector-curvature="0" />
	<path style="fill:none;stroke:red;stroke-width:1px;stroke-linecap:butt;stroke-linejoin:miter;stroke-opacity:1" d="M 527.906,117.423 509.902,112.022 z" id="boundary" inkscape:connector-curvature="0" />
	<path style="fill:none;stroke:red;stroke-width:1px;stroke-linecap:butt;stroke-linejoin:miter;stroke-opacity:1" d="M 527.906,117.423 542.309,130.025 z" id="boundary" inkscape:connector-curvature="0" />
	<path style="fill:none;stroke:red;stroke-width:1px;stroke-linecap:butt;stroke-linejoin:miter;stroke-opacity:1" d="M 491.898,112.022 509.902,112.022 z" id="boundary" inkscape:connector-curvature="0" />
	<path style="fill:none;stroke:red;stroke-width:1px;stroke-linecap:butt;stroke-linejoin:miter;stroke-opacity:1" d="M 558.512,121.024 542.309,130.025 z" id="boundary" inkscape:connector-curvature="0" />
	<path style="fill:none;stroke:red;stroke-width:1px;stroke-linecap:butt;stroke-linejoin:miter;stroke-opacity:1" d="M 558.512,121.024 574.715,130.025 z" id="boundary" inkscape:connector-curvature="0" />
	<path style="fill:none;stroke:red;stroke-width:1px;stroke-linecap:butt;stroke-linejoin:miter;stroke-opacity:1" d="M 599.92,185.837 617.924,185.837 z" id="boundary" inkscape:connector-curvature="0" />
	<path style="fill:none;stroke:red;stroke-width:1px;stroke-linecap:butt;stroke-linejoin:miter;stroke-opacity:1" d="M 608.922,202.04 599.92,185.837 z" id="boundary" inkscape:connector-curvature="0" />
	<path style="fill:none;stroke:red;stroke-width:1px;stroke-linecap:butt;stroke-linejoin:miter;stroke-opacity:1" d="M 592.719,130.025 610.722,130.025 z" id="boundary" inkscape:connector-curvature="0" />
	<path style="fill:none;stroke:red;stroke-width:1px;stroke-linecap:butt;stroke-linejoin:miter;stroke-opacity:1" d="M 574.715,130.025 592.719,130.025 z" id="boundary" inkscape:connector-curvature="0" />
	<path style="fill:none;stroke:red;stroke-width:1px;stroke-linecap:butt;stroke-linejoin:miter;stroke-opacity:1" d="M 610.722,130.025 628.726,130.025 z" id="boundary" inkscape:connector-curvature="0" />
	<path style="fill:none;stroke:red;stroke-width:1px;stroke-linecap:butt;stroke-linejoin:miter;stroke-opacity:1" d="M 634.127,176.835 652.131,176.835 z" id="boundary" inkscape:connector-curvature="0" />
	<path style="fill:none;stroke:red;stroke-width:1px;stroke-linecap:butt;stroke-linejoin:miter;stroke-opacity:1" d="M 634.127,176.835 617.924,185.837 z" id="boundary" inkscape:connector-curvature="0" />
	<path style="fill:none;stroke:red;stroke-width:1px;stroke-linecap:butt;stroke-linejoin:miter;stroke-opacity:1" d="M 643.129,211.042 625.125,211.042 z" id="boundary" inkscape:connector-curvature="0" />
	<path style="fill:none;stroke:red;stroke-width:1px;stroke-linecap:butt;stroke-linejoin:miter;stroke-opacity:1" d="M 625.125,211.042 608.922,202.04 z" id="boundary" inkscape:connector-curvature="0" />
	<path style="fill:none;stroke:red;stroke-width:1px;stroke-linecap:butt;stroke-linejoin:miter;stroke-opacity:1" d="M 628.726,130.025 644.929,139.027 z" id="boundary" inkscape:connector-curvature="0" />
	<path style="fill:none;stroke:red;stroke-width:1px;stroke-linecap:butt;stroke-linejoin:miter;stroke-opacity:1" d="M 659.332,149.829 652.131,176.835 z" id="boundary" inkscape:connector-curvature="0" />
	<path style="fill:none;stroke:red;stroke-width:1px;stroke-linecap:butt;stroke-linejoin:miter;stroke-opacity:1" d="M 659.332,149.829 644.929,139.027 z" id="boundary" inkscape:connector-curvature="0" />
	<path style="fill:none;stroke:red;stroke-width:1px;stroke-linecap:butt;stroke-linejoin:miter;stroke-opacity:1" d="M 841.169,184.036 857.372,175.034 z" id="boundary" inkscape:connector-curvature="0" />
	<path style="fill:none;stroke:red;stroke-width:1px;stroke-linecap:butt;stroke-linejoin:miter;stroke-opacity:1" d="M 857.372,175.034 875.376,175.034 z" id="boundary" inkscape:connector-curvature="0" />
	<path style="fill:none;stroke:red;stroke-width:1px;stroke-linecap:butt;stroke-linejoin:miter;stroke-opacity:1" d="M 893.379,175.034 875.376,175.034 z" id="boundary" inkscape:connector-curvature="0" />
	<path style="fill:none;stroke:red;stroke-width:1px;stroke-linecap:butt;stroke-linejoin:miter;stroke-opacity:1" d="M 929.387,175.034 947.39,175.034 z" id="boundary" inkscape:connector-curvature="0" />
	<path style="fill:none;stroke:red;stroke-width:1px;stroke-linecap:butt;stroke-linejoin:miter;stroke-opacity:1" d="M 929.387,175.034 911.383,175.034 z" id="boundary" inkscape:connector-curvature="0" />
	<path style="fill:none;stroke:red;stroke-width:1px;stroke-linecap:butt;stroke-linejoin:miter;stroke-opacity:1" d="M 947.39,175.034 965.394,175.034 z" id="boundary" inkscape:connector-curvature="0" />
	<path style="fill:none;stroke:red;stroke-width:1px;stroke-linecap:butt;stroke-linejoin:miter;stroke-opacity:1" d="M 911.383,175.034 893.379,175.034 z" id="boundary" inkscape:connector-curvature="0" />
	<path style="fill:none;stroke:red;stroke-width:1px;stroke-linecap:butt;stroke-linejoin:miter;stroke-opacity:1" d="M 965.394,175.034 983.397,175.034 z" id="boundary" inkscape:connector-curvature="0" />
	<path style="fill:none;stroke:red;stroke-width:1px;stroke-linecap:butt;stroke-linejoin:miter;stroke-opacity:1" d="M 983.397,175.034 996,194.838 z" id="boundary" inkscape:connector-curvature="0" />
	<path style="fill:none;stroke:red;stroke-width:1px;stroke-linecap:butt;stroke-linejoin:miter;stroke-opacity:1" d="M 733.147,202.04 715.143,202.04 z" id="boundary" inkscape:connector-curvature="0" />
	<path style="fill:none;stroke:red;stroke-width:1px;stroke-linecap:butt;stroke-linejoin:miter;stroke-opacity:1" d="M 751.151,198.439 733.147,202.04 z" id="boundary" inkscape:connector-curvature="0" />
	<path style="fill:none;stroke:red;stroke-width:1px;stroke-linecap:butt;stroke-linejoin:miter;stroke-opacity:1" d="M 679.136,211.042 661.132,207.441 z" id="boundary" inkscape:connector-curvature="0" />
	<path style="fill:none;stroke:red;stroke-width:1px;stroke-linecap:butt;stroke-linejoin:miter;stroke-opacity:1" d="M 697.14,207.441 715.143,202.04 z" id="boundary" inkscape:connector-curvature="0" />
	<path style="fill:none;stroke:red;stroke-width:1px;stroke-linecap:butt;stroke-linejoin:miter;stroke-opacity:1" d="M 643.129,211.042 661.132,207.441 z" id="boundary" inkscape:connector-curvature="0" />
	<path style="fill:none;stroke:red;stroke-width:1px;stroke-linecap:butt;stroke-linejoin:miter;stroke-opacity:1" d="M 805.162,187.637 823.165,184.036 z" id="boundary" inkscape:connector-curvature="0" />
	<path style="fill:none;stroke:red;stroke-width:1px;stroke-linecap:butt;stroke-linejoin:miter;stroke-opacity:1" d="M 805.162,187.637 787.158,193.038 z" id="boundary" inkscape:connector-curvature="0" />
	<path style="fill:none;stroke:red;stroke-width:1px;stroke-linecap:butt;stroke-linejoin:miter;stroke-opacity:1" d="M 841.169,184.036 823.165,184.036 z" id="boundary" inkscape:connector-curvature="0" />
	<path style="fill:none;stroke:red;stroke-width:1px;stroke-linecap:butt;stroke-linejoin:miter;stroke-opacity:1" d="M 769.154,198.439 787.158,193.038 z" id="boundary" inkscape:connector-curvature="0" />
	<path style="fill:none;stroke:red;stroke-width:1px;stroke-linecap:butt;stroke-linejoin:miter;stroke-opacity:1" d="M 769.154,198.439 751.151,198.439 z" id="boundary" inkscape:connector-curvature="0" />
	<path style="fill:none;stroke:red;stroke-width:1px;stroke-linecap:butt;stroke-linejoin:miter;stroke-opacity:1" d="M 697.14,207.441 679.136,211.042 z" id="boundary" inkscape:connector-curvature="0" />
	<path style="fill:none;stroke:red;stroke-width:1px;stroke-linecap:butt;stroke-linejoin:miter;stroke-opacity:1" d="M 996,194.838 986.998,212.842 z" id="boundary" inkscape:connector-curvature="0" />
	<path style="fill:none;stroke:red;stroke-width:1px;stroke-linecap:butt;stroke-linejoin:miter;stroke-opacity:1" d="M 590.918,338.868 608.922,329.866 z" id="boundary" inkscape:connector-curvature="0" />
	<path style="fill:none;stroke:red;stroke-width:1px;stroke-linecap:butt;stroke-linejoin:miter;stroke-opacity:1" d="M 599.92,355.071 590.918,338.868 z" id="boundary" inkscape:connector-curvature="0" />
	<path style="fill:none;stroke:red;stroke-width:1px;stroke-linecap:butt;stroke-linejoin:miter;stroke-opacity:1" d="M 616.123,419.884 598.12,419.884 z" id="boundary" inkscape:connector-curvature="0" />
	<path style="fill:none;stroke:red;stroke-width:1px;stroke-linecap:butt;stroke-linejoin:miter;stroke-opacity:1" d="M 598.12,419.884 581.917,428.886 z" id="boundary" inkscape:connector-curvature="0" />
	<path style="fill:none;stroke:red;stroke-width:1px;stroke-linecap:butt;stroke-linejoin:miter;stroke-opacity:1" d="M 617.924,355.071 599.92,355.071 z" id="boundary" inkscape:connector-curvature="0" />
	<path style="fill:none;stroke:red;stroke-width:1px;stroke-linecap:butt;stroke-linejoin:miter;stroke-opacity:1" d="M 608.922,329.866 626.926,329.866 z" id="boundary" inkscape:connector-curvature="0" />
	<path style="fill:none;stroke:red;stroke-width:1px;stroke-linecap:butt;stroke-linejoin:miter;stroke-opacity:1" d="M 643.129,320.864 626.926,329.866 z" id="boundary" inkscape:connector-curvature="0" />
	<path style="fill:none;stroke:red;stroke-width:1px;stroke-linecap:butt;stroke-linejoin:miter;stroke-opacity:1" d="M 644.929,389.278 634.127,414.483 z" id="boundary" inkscape:connector-curvature="0" />
	<path style="fill:none;stroke:red;stroke-width:1px;stroke-linecap:butt;stroke-linejoin:miter;stroke-opacity:1" d="M 634.127,414.483 616.123,419.884 z" id="boundary" inkscape:connector-curvature="0" />
	<path style="fill:none;stroke:red;stroke-width:1px;stroke-linecap:butt;stroke-linejoin:miter;stroke-opacity:1" d="M 635.927,355.071 644.929,371.274 z" id="boundary" inkscape:connector-curvature="0" />
	<path style="fill:none;stroke:red;stroke-width:1px;stroke-linecap:butt;stroke-linejoin:miter;stroke-opacity:1" d="M 643.129,320.864 661.132,320.864 z" id="boundary" inkscape:connector-curvature="0" />
	<path style="fill:none;stroke:red;stroke-width:1px;stroke-linecap:butt;stroke-linejoin:miter;stroke-opacity:1" d="M 446.889,455.891 463.093,446.889 z" id="boundary" inkscape:connector-curvature="0" />
	<path style="fill:none;stroke:red;stroke-width:1px;stroke-linecap:butt;stroke-linejoin:miter;stroke-opacity:1" d="M 446.889,473.895 446.889,455.891 z" id="boundary" inkscape:connector-curvature="0" />
	<path style="fill:none;stroke:red;stroke-width:1px;stroke-linecap:butt;stroke-linejoin:miter;stroke-opacity:1" d="M 446.889,473.895 445.089,495.499 z" id="boundary" inkscape:connector-curvature="0" />
	<path style="fill:none;stroke:red;stroke-width:1px;stroke-linecap:butt;stroke-linejoin:miter;stroke-opacity:1" d="M 445.089,495.499 427.085,500.9 z" id="boundary" inkscape:connector-curvature="0" />
	<path style="fill:none;stroke:red;stroke-width:1px;stroke-linecap:butt;stroke-linejoin:miter;stroke-opacity:1" d="M 463.093,446.889 481.096,446.889 z" id="boundary" inkscape:connector-curvature="0" />
	<path style="fill:none;stroke:red;stroke-width:1px;stroke-linecap:butt;stroke-linejoin:miter;stroke-opacity:1" d="M 549.51,428.886 533.307,437.887 z" id="boundary" inkscape:connector-curvature="0" />
	<path style="fill:none;stroke:red;stroke-width:1px;stroke-linecap:butt;stroke-linejoin:miter;stroke-opacity:1" d="M 533.307,437.887 515.303,437.887 z" id="boundary" inkscape:connector-curvature="0" />
	<path style="fill:none;stroke:red;stroke-width:1px;stroke-linecap:butt;stroke-linejoin:miter;stroke-opacity:1" d="M 581.917,428.886 565.713,437.887 z" id="boundary" inkscape:connector-curvature="0" />
	<path style="fill:none;stroke:red;stroke-width:1px;stroke-linecap:butt;stroke-linejoin:miter;stroke-opacity:1" d="M 565.713,437.887 549.51,428.886 z" id="boundary" inkscape:connector-curvature="0" />
	<path style="fill:none;stroke:red;stroke-width:1px;stroke-linecap:butt;stroke-linejoin:miter;stroke-opacity:1" d="M 499.1,446.889 515.303,437.887 z" id="boundary" inkscape:connector-curvature="0" />
	<path style="fill:none;stroke:red;stroke-width:1px;stroke-linecap:butt;stroke-linejoin:miter;stroke-opacity:1" d="M 499.1,446.889 481.096,446.889 z" id="boundary" inkscape:connector-curvature="0" />
	<path style="fill:none;stroke:red;stroke-width:1px;stroke-linecap:butt;stroke-linejoin:miter;stroke-opacity:1" d="M 886.178,261.452 868.174,266.853 z" id="boundary" inkscape:connector-curvature="0" />
	<path style="fill:none;stroke:red;stroke-width:1px;stroke-linecap:butt;stroke-linejoin:miter;stroke-opacity:1" d="M 833.967,275.855 815.964,275.855 z" id="boundary" inkscape:connector-curvature="0" />
	<path style="fill:none;stroke:red;stroke-width:1px;stroke-linecap:butt;stroke-linejoin:miter;stroke-opacity:1" d="M 850.171,266.853 833.967,275.855 z" id="boundary" inkscape:connector-curvature="0" />
	<path style="fill:none;stroke:red;stroke-width:1px;stroke-linecap:butt;stroke-linejoin:miter;stroke-opacity:1" d="M 815.964,275.855 797.96,284.857 z" id="boundary" inkscape:connector-curvature="0" />
	<path style="fill:none;stroke:red;stroke-width:1px;stroke-linecap:butt;stroke-linejoin:miter;stroke-opacity:1" d="M 868.174,266.853 850.171,266.853 z" id="boundary" inkscape:connector-curvature="0" />
	<path style="fill:none;stroke:red;stroke-width:1px;stroke-linecap:butt;stroke-linejoin:miter;stroke-opacity:1" d="M 886.178,261.452 904.181,257.851 z" id="boundary" inkscape:connector-curvature="0" />
	<path style="fill:none;stroke:red;stroke-width:1px;stroke-linecap:butt;stroke-linejoin:miter;stroke-opacity:1" d="M 986.998,212.842 972.595,229.045 z" id="boundary" inkscape:connector-curvature="0" />
	<path style="fill:none;stroke:red;stroke-width:1px;stroke-linecap:butt;stroke-linejoin:miter;stroke-opacity:1" d="M 972.595,229.045 954.592,230.846 z" id="boundary" inkscape:connector-curvature="0" />
	<path style="fill:none;stroke:red;stroke-width:1px;stroke-linecap:butt;stroke-linejoin:miter;stroke-opacity:1" d="M 954.592,230.846 936.588,238.047 z" id="boundary" inkscape:connector-curvature="0" />
	<path style="fill:none;stroke:red;stroke-width:1px;stroke-linecap:butt;stroke-linejoin:miter;stroke-opacity:1" d="M 904.181,257.851 918.584,247.049 z" id="boundary" inkscape:connector-curvature="0" />
	<path style="fill:none;stroke:red;stroke-width:1px;stroke-linecap:butt;stroke-linejoin:miter;stroke-opacity:1" d="M 918.584,247.049 936.588,238.047 z" id="boundary" inkscape:connector-curvature="0" />
	<path style="fill:none;stroke:red;stroke-width:1px;stroke-linecap:butt;stroke-linejoin:miter;stroke-opacity:1" d="M 715.143,311.862 697.14,315.463 z" id="boundary" inkscape:connector-curvature="0" />
	<path style="fill:none;stroke:red;stroke-width:1px;stroke-linecap:butt;stroke-linejoin:miter;stroke-opacity:1" d="M 697.14,315.463 679.136,320.864 z" id="boundary" inkscape:connector-curvature="0" />
	<path style="fill:none;stroke:red;stroke-width:1px;stroke-linecap:butt;stroke-linejoin:miter;stroke-opacity:1" d="M 679.136,320.864 661.132,320.864 z" id="boundary" inkscape:connector-curvature="0" />
	<path style="fill:none;stroke:red;stroke-width:1px;stroke-linecap:butt;stroke-linejoin:miter;stroke-opacity:1" d="M 644.929,389.278 644.929,371.274 z" id="boundary" inkscape:connector-curvature="0" />
	<path style="fill:none;stroke:red;stroke-width:1px;stroke-linecap:butt;stroke-linejoin:miter;stroke-opacity:1" d="M 715.143,311.862 733.147,311.862 z" id="boundary" inkscape:connector-curvature="0" />
	<path style="fill:none;stroke:red;stroke-width:1px;stroke-linecap:butt;stroke-linejoin:miter;stroke-opacity:1" d="M 783.557,301.06 765.554,301.06 z" id="boundary" inkscape:connector-curvature="0" />
	<path style="fill:none;stroke:red;stroke-width:1px;stroke-linecap:butt;stroke-linejoin:miter;stroke-opacity:1" d="M 797.96,284.857 783.557,301.06 z" id="boundary" inkscape:connector-curvature="0" />
	<path style="fill:none;stroke:red;stroke-width:1px;stroke-linecap:butt;stroke-linejoin:miter;stroke-opacity:1" d="M 765.554,301.06 751.151,311.862 z" id="boundary" inkscape:connector-curvature="0" />
	<path style="fill:none;stroke:red;stroke-width:1px;stroke-linecap:butt;stroke-linejoin:miter;stroke-opacity:1" d="M 751.151,311.862 733.147,311.862 z" id="boundary" inkscape:connector-curvature="0" />
	<circle cx="4" cy="333.466" r="4" fill="#0" id="circle0"/>
	<circle cx="4" cy="360.472" r="4" fill="#0" id="circle1"/>
	<circle cx="4" cy="378.475" r="4" fill="#0" id="circle2"/>
	<circle cx="4" cy="396.479" r="4" fill="#0" id="circle3"/>
	<circle cx="13.0018" cy="306.461" r="4" fill="#0" id="circle4"/>
	<circle cx="13.0018" cy="412.682" r="4" fill="#0" id="circle5"/>
	<circle cx="22.0036" cy="428.886" r="4" fill="#0" id="circle6"/>
	<circle cx="27.4047" cy="292.058" r="4" fill="#0" id="circle7"/>
	<circle cx="36.4065" cy="274.054" r="4" fill="#0" id="circle8"/>
	<circle cx="38.2069" cy="437.887" r="4" fill="#0" id="circle9"/>
	<circle cx="49.0091" cy="504.501" r="4" fill="#0" id="circle10"/>
	<circle cx="50.8094" cy="452.29" r="4" fill="#0" id="circle11"/>
	<circle cx="54.4102" cy="265.053" r="4" fill="#0" id="circle12"/>
	<circle cx="58.0109" cy="520.704" r="4" fill="#0" id="circle13"/>
	<circle cx="63.412" cy="247.049" r="4" fill="#0" id="circle14"/>
	<circle cx="63.412" cy="490.098" r="4" fill="#0" id="circle15"/>
	<circle cx="68.8131" cy="446.889" r="4" fill="#0" id="circle16"/>
	<circle cx="76.0145" cy="527.906" r="4" fill="#0" id="circle17"/>
	<circle cx="77.8149" cy="232.646" r="4" fill="#0" id="circle18"/>
	<circle cx="81.4156" cy="490.098" r="4" fill="#0" id="circle19"/>
	<circle cx="85.0163" cy="455.891" r="4" fill="#0" id="circle20"/>
	<circle cx="92.2178" cy="220.044" r="4" fill="#0" id="circle21"/>
	<circle cx="94.0181" cy="527.906" r="4" fill="#0" id="circle22"/>
	<circle cx="97.6189" cy="499.1" r="4" fill="#0" id="circle23"/>
	<circle cx="103.02" cy="455.891" r="4" fill="#0" id="circle24"/>
	<circle cx="104.82" cy="205.641" r="4" fill="#0" id="circle25"/>
	<circle cx="112.022" cy="511.702" r="4" fill="#0" id="circle26"/>
	<circle cx="119.223" cy="193.038" r="4" fill="#0" id="circle27"/>
	<circle cx="121.024" cy="455.891" r="4" fill="#0" id="circle28"/>
	<circle cx="121.024" cy="527.906" r="4" fill="#0" id="circle29"/>
	<circle cx="131.826" cy="511.702" r="4" fill="#0" id="circle30"/>
	<circle cx="135.426" cy="184.036" r="4" fill="#0" id="circle31"/>
	<circle cx="139.027" cy="455.891" r="4" fill="#0" id="circle32"/>
	<circle cx="140.828" cy="527.906" r="4" fill="#0" id="circle33"/>
	<circle cx="149.829" cy="169.633" r="4" fill="#0" id="circle34"/>
	<circle cx="149.829" cy="508.102" r="4" fill="#0" id="circle35"/>
	<circle cx="157.031" cy="455.891" r="4" fill="#0" id="circle36"/>
	<circle cx="158.831" cy="527.906" r="4" fill="#0" id="circle37"/>
	<circle cx="167.833" cy="166.033" r="4" fill="#0" id="circle38"/>
	<circle cx="167.833" cy="502.701" r="4" fill="#0" id="circle39"/>
	<circle cx="175.034" cy="455.891" r="4" fill="#0" id="circle40"/>
	<circle cx="176.835" cy="527.906" r="4" fill="#0" id="circle41"/>
	<circle cx="184.036" cy="153.43" r="4" fill="#0" id="circle42"/>
	<circle cx="185.837" cy="502.701" r="4" fill="#0" id="circle43"/>
	<circle cx="193.038" cy="455.891" r="4" fill="#0" id="circle44"/>
	<circle cx="194.838" cy="527.906" r="4" fill="#0" id="circle45"/>
	<circle cx="202.04" cy="153.43" r="4" fill="#0" id="circle46"/>
	<circle cx="203.84" cy="499.1" r="4" fill="#0" id="circle47"/>
	<circle cx="211.042" cy="455.891" r="4" fill="#0" id="circle48"/>
	<circle cx="211.042" cy="473.895" r="4" fill="#0" id="circle49"/>
	<circle cx="212.842" cy="527.906" r="4" fill="#0" id="circle50"/>
	<circle cx="220.044" cy="144.428" r="4" fill="#0" id="circle51"/>
	<circle cx="220.044" cy="490.098" r="4" fill="#0" id="circle52"/>
	<circle cx="230.846" cy="527.906" r="4" fill="#0" id="circle53"/>
	<circle cx="238.047" cy="139.027" r="4" fill="#0" id="circle54"/>
	<circle cx="248.849" cy="518.904" r="4" fill="#0" id="circle55"/>
	<circle cx="256.051" cy="135.426" r="4" fill="#0" id="circle56"/>
	<circle cx="266.853" cy="518.904" r="4" fill="#0" id="circle57"/>
	<circle cx="274.054" cy="130.025" r="4" fill="#0" id="circle58"/>
	<circle cx="284.857" cy="509.902" r="4" fill="#0" id="circle59"/>
	<circle cx="292.058" cy="130.025" r="4" fill="#0" id="circle60"/>
	<circle cx="302.86" cy="509.902" r="4" fill="#0" id="circle61"/>
	<circle cx="310.062" cy="27.4047" r="4" fill="#0" id="circle62"/>
	<circle cx="310.062" cy="130.025" r="4" fill="#0" id="circle63"/>
	<circle cx="320.864" cy="513.503" r="4" fill="#0" id="circle64"/>
	<circle cx="328.065" cy="22.0036" r="4" fill="#0" id="circle65"/>
	<circle cx="328.065" cy="130.025" r="4" fill="#0" id="circle66"/>
	<circle cx="331.666" cy="40.0073" r="4" fill="#0" id="circle67"/>
	<circle cx="338.868" cy="509.902" r="4" fill="#0" id="circle68"/>
	<circle cx="346.069" cy="18.4029" r="4" fill="#0" id="circle69"/>
	<circle cx="346.069" cy="50.8094" r="4" fill="#0" id="circle70"/>
	<circle cx="346.069" cy="130.025" r="4" fill="#0" id="circle71"/>
	<circle cx="356.871" cy="509.902" r="4" fill="#0" id="circle72"/>
	<circle cx="360.472" cy="4" r="4" fill="#0" id="circle73"/>
	<circle cx="364.073" cy="50.8094" r="4" fill="#0" id="circle74"/>
	<circle cx="364.073" cy="81.4156" r="4" fill="#0" id="circle75"/>
	<circle cx="364.073" cy="108.421" r="4" fill="#0" id="circle76"/>
	<circle cx="364.073" cy="126.425" r="4" fill="#0" id="circle77"/>
	<circle cx="373.074" cy="500.9" r="4" fill="#0" id="circle78"/>
	<circle cx="378.475" cy="4" r="4" fill="#0" id="circle79"/>
	<circle cx="378.475" cy="67.0127" r="4" fill="#0" id="circle80"/>
	<circle cx="391.078" cy="500.9" r="4" fill="#0" id="circle81"/>
	<circle cx="396.479" cy="4" r="4" fill="#0" id="circle82"/>
	<circle cx="401.88" cy="77.8149" r="4" fill="#0" id="circle83"/>
	<circle cx="401.88" cy="95.8185" r="4" fill="#0" id="circle84"/>
	<circle cx="405.481" cy="113.822" r="4" fill="#0" id="circle85"/>
	<circle cx="409.082" cy="500.9" r="4" fill="#0" id="circle86"/>
	<circle cx="414.483" cy="4" r="4" fill="#0" id="circle87"/>
	<circle cx="416.283" cy="65.2123" r="4" fill="#0" id="circle88"/>
	<circle cx="419.884" cy="41.8076" r="4" fill="#0" id="circle89"/>
	<circle cx="423.485" cy="121.024" r="4" fill="#0" id="circle90"/>
	<circle cx="427.085" cy="18.4029" r="4" fill="#0" id="circle91"/>
	<circle cx="427.085" cy="500.9" r="4" fill="#0" id="circle92"/>
	<circle cx="437.887" cy="32.8058" r="4" fill="#0" id="circle93"/>
	<circle cx="441.488" cy="121.024" r="4" fill="#0" id="circle94"/>
	<circle cx="445.089" cy="495.499" r="4" fill="#0" id="circle95"/>
	<circle cx="446.889" cy="455.891" r="4" fill="#0" id="circle96"/>
	<circle cx="446.889" cy="473.895" r="4" fill="#0" id="circle97"/>
	<circle cx="455.891" cy="106.621" r="4" fill="#0" id="circle98"/>
	<circle cx="463.093" cy="446.889" r="4" fill="#0" id="circle99"/>
	<circle cx="473.895" cy="112.022" r="4" fill="#0" id="circle100"/>
	<circle cx="481.096" cy="446.889" r="4" fill="#0" id="circle101"/>
	<circle cx="491.898" cy="112.022" r="4" fill="#0" id="circle102"/>
	<circle cx="499.1" cy="446.889" r="4" fill="#0" id="circle103"/>
	<circle cx="509.902" cy="112.022" r="4" fill="#0" id="circle104"/>
	<circle cx="515.303" cy="437.887" r="4" fill="#0" id="circle105"/>
	<circle cx="527.906" cy="117.423" r="4" fill="#0" id="circle106"/>
	<circle cx="533.307" cy="437.887" r="4" fill="#0" id="circle107"/>
	<circle cx="542.309" cy="130.025" r="4" fill="#0" id="circle108"/>
	<circle cx="549.51" cy="428.886" r="4" fill="#0" id="circle109"/>
	<circle cx="558.512" cy="121.024" r="4" fill="#0" id="circle110"/>
	<circle cx="565.713" cy="437.887" r="4" fill="#0" id="circle111"/>
	<circle cx="574.715" cy="130.025" r="4" fill="#0" id="circle112"/>
	<circle cx="581.917" cy="428.886" r="4" fill="#0" id="circle113"/>
	<circle cx="590.918" cy="338.868" r="4" fill="#0" id="circle114"/>
	<circle cx="592.719" cy="130.025" r="4" fill="#0" id="circle115"/>
	<circle cx="598.12" cy="419.884" r="4" fill="#0" id="circle116"/>
	<circle cx="599.92" cy="185.837" r="4" fill="#0" id="circle117"/>
	<circle cx="599.92" cy="355.071" r="4" fill="#0" id="circle118"/>
	<circle cx="608.922" cy="202.04" r="4" fill="#0" id="circle119"/>
	<circle cx="608.922" cy="329.866" r="4" fill="#0" id="circle120"/>
	<circle cx="610.722" cy="130.025" r="4" fill="#0" id="circle121"/>
	<circle cx="616.123" cy="419.884" r="4" fill="#0" id="circle122"/>
	<circle cx="617.924" cy="185.837" r="4" fill="#0" id="circle123"/>
	<circle cx="617.924" cy="355.071" r="4" fill="#0" id="circle124"/>
	<circle cx="625.125" cy="211.042" r="4" fill="#0" id="circle125"/>
	<circle cx="626.926" cy="329.866" r="4" fill="#0" id="circle126"/>
	<circle cx="628.726" cy="130.025" r="4" fill="#0" id="circle127"/>
	<circle cx="634.127" cy="176.835" r="4" fill="#0" id="circle128"/>
	<circle cx="634.127" cy="414.483" r="4" fill="#0" id="circle129"/>
	<circle cx="635.927" cy="355.071" r="4" fill="#0" id="circle130"/>
	<circle cx="643.129" cy="211.042" r="4" fill="#0" id="circle131"/>
	<circle cx="643.129" cy="320.864" r="4" fill="#0" id="circle132"/>
	<circle cx="644.929" cy="139.027" r="4" fill="#0" id="circle133"/>
	<circle cx="644.929" cy="371.274" r="4" fill="#0" id="circle134"/>
	<circle cx="644.929" cy="389.278" r="4" fill="#0" id="circle135"/>
	<circle cx="652.131" cy="176.835" r="4" fill="#0" id="circle136"/>
	<circle cx="659.332" cy="149.829" r="4" fill="#0" id="circle137"/>
	<circle cx="661.132" cy="207.441" r="4" fill="#0" id="circle138"/>
	<circle cx="661.132" cy="320.864" r="4" fill="#0" id="circle139"/>
	<circle cx="679.136" cy="211.042" r="4" fill="#0" id="circle140"/>
	<circle cx="679.136" cy="320.864" r="4" fill="#0" id="circle141"/>
	<circle cx="697.14" cy="207.441" r="4" fill="#0" id="circle142"/>
	<circle cx="697.14" cy="315.463" r="4" fill="#0" id="circle143"/>
	<circle cx="715.143" cy="202.04" r="4" fill="#0" id="circle144"/>
	<circle cx="715.143" cy="311.862" r="4" fill="#0" id="circle145"/>
	<circle cx="733.147" cy="202.04" r="4" fill="#0" id="circle146"/>
	<circle cx="733.147" cy="311.862" r="4" fill="#0" id="circle147"/>
	<circle cx="751.151" cy="198.439" r="4" fill="#0" id="circle148"/>
	<circle cx="751.151" cy="311.862" r="4" fill="#0" id="circle149"/>
	<circle cx="765.554" cy="301.06" r="4" fill="#0" id="circle150"/>
	<circle cx="769.154" cy="198.439" r="4" fill="#0" id="circle151"/>
	<circle cx="783.557" cy="301.06" r="4" fill="#0" id="circle152"/>
	<circle cx="787.158" cy="193.038" r="4" fill="#0" id="circle153"/>
	<circle cx="797.96" cy="284.857" r="4" fill="#0" id="circle154"/>
	<circle cx="805.162" cy="187.637" r="4" fill="#0" id="circle155"/>
	<circle cx="815.964" cy="275.855" r="4" fill="#0" id="circle156"/>
	<circle cx="823.165" cy="184.036" r="4" fill="#0" id="circle157"/>
	<circle cx="833.967" cy="275.855" r="4" fill="#0" id="circle158"/>
	<circle cx="841.169" cy="184.036" r="4" fill="#0" id="circle159"/>
	<circle cx="850.171" cy="266.853" r="4" fill="#0" id="circle160"/>
	<circle cx="857.372" cy="175.034" r="4" fill="#0" id="circle161"/>
	<circle cx="868.174" cy="266.853" r="4" fill="#0" id="circle162"/>
	<circle cx="875.376" cy="175.034" r="4" fill="#0" id="circle163"/>
	<circle cx="886.178" cy="261.452" r="4" fill="#0" id="circle164"/>
	<circle cx="893.379" cy="175.034" r="4" fill="#0" id="circle165"/>
	<circle cx="904.181" cy="257.851" r="4" fill="#0" id="circle166"/>
	<circle cx="911.383" cy="175.034" r="4" fill="#0" id="circle167"/>
	<circle cx="918.584" cy="247.049" r="4" fill="#0" id="circle168"/>
	<circle cx="929.387" cy="175.034" r="4" fill="#0" id="circle169"/>
	<circle cx="936.588" cy="238.047" r="4" fill="#0" id="circle170"/>
	<circle cx="947.39" cy="175.034" r="4" fill="#0" id="circle171"/>
	<circle cx="954.592" cy="230.846" r="4" fill="#0" id="circle172"/>
	<circle cx="965.394" cy="175.034" r="4" fill="#0" id="circle173"/>
	<circle cx="972.595" cy="229.045" r="4" fill="#0" id="circle174"/>
	<circle cx="983.397" cy="175.034" r="4" fill="#0" id="circle175"/>
	<circle cx="986.998" cy="212.842" r="4" fill="#0" id="circle176"/>
	<circle cx="996" cy="194.838" r="4" fill="#0" id="circle177"/>
	</g>
</svg>