<?xml version="1.0" encoding="UTF-8" standalone="no"?>
<!-- Created with CurveBenchmark -->
<svg
	xmlns:dc="http://purl.org/dc/elements/1.1/"
	xmlns:cc="http://creativecommons.org/ns#"
	xmlns:rdf="http://www.w3.org/1999/02/22-rdf-syntax-ns#"
	xmlns:svg="http://www.w3.org/2000/svg"
	xmlns="http://www.w3.org/2000/svg"
	xmlns:sodipodi="http://sodipodi.sourceforge.net/DTD/sodipodi-0.dtd"
	xmlns:inkscape="http://www.inkscape.org/namespaces/inkscape"
	width="1000"
	height="1000"
	id="svg2"
	version="1.1"
	sodipodi:docname="manifold/gathang-spoon-8.png.txt">
<defs
	id="defs4" />
<metadata
	id="metadata7">
	<rdf:RDF>
		<cc:Work
			rdf:about="">
			<dc:format>image/svg+xml</dc:format>
			<dc:type
				rdf:resource="http://purl.org/dc/dcmitype/StillImage" />
			<dc:title></dc:title>
		</cc:Work>
	</rdf:RDF>
</metadata>
<g
	inkscape:label="Layer 1"
	inkscape:groupmode="layer"
	id="layer1">
	<path style="fill:none;stroke:red;stroke-width:1px;stroke-linecap:butt;stroke-linejoin:miter;stroke-opacity:1" d="M 40.7105,30.9211 40.7105,39.0789 z" id="boundary" inkscape:connector-curvature="0" />
	<path style="fill:none;stroke:red;stroke-width:1px;stroke-linecap:butt;stroke-linejoin:miter;stroke-opacity:1" d="M 40.7105,30.9211 44.7895,22.7632 z" id="boundary" inkscape:connector-curvature="0" />
	<path style="fill:none;stroke:red;stroke-width:1px;stroke-linecap:butt;stroke-linejoin:miter;stroke-opacity:1" d="M 44.7895,22.7632 51.3158,16.2368 z" id="boundary" inkscape:connector-curvature="0" />
	<path style="fill:none;stroke:red;stroke-width:1px;stroke-linecap:butt;stroke-linejoin:miter;stroke-opacity:1" d="M 40.7105,47.2368 40.7105,39.0789 z" id="boundary" inkscape:connector-curvature="0" />
	<path style="fill:none;stroke:red;stroke-width:1px;stroke-linecap:butt;stroke-linejoin:miter;stroke-opacity:1" d="M 40.7105,47.2368 40.7105,55.3947 z" id="boundary" inkscape:connector-curvature="0" />
	<path style="fill:none;stroke:red;stroke-width:1px;stroke-linecap:butt;stroke-linejoin:miter;stroke-opacity:1" d="M 44.7895,62.7368 40.7105,55.3947 z" id="boundary" inkscape:connector-curvature="0" />
	<path style="fill:none;stroke:red;stroke-width:1px;stroke-linecap:butt;stroke-linejoin:miter;stroke-opacity:1" d="M 44.7895,62.7368 50.5,69.2632 z" id="boundary" inkscape:connector-curvature="0" />
	<path style="fill:none;stroke:red;stroke-width:1px;stroke-linecap:butt;stroke-linejoin:miter;stroke-opacity:1" d="M 57.0263,74.1579 50.5,69.2632 z" id="boundary" inkscape:connector-curvature="0" />
	<path style="fill:none;stroke:red;stroke-width:1px;stroke-linecap:butt;stroke-linejoin:miter;stroke-opacity:1" d="M 66,5.63158 74.1579,4 z" id="boundary" inkscape:connector-curvature="0" />
	<path style="fill:none;stroke:red;stroke-width:1px;stroke-linecap:butt;stroke-linejoin:miter;stroke-opacity:1" d="M 74.1579,4 82.3158,4 z" id="boundary" inkscape:connector-curvature="0" />
	<path style="fill:none;stroke:red;stroke-width:1px;stroke-linecap:butt;stroke-linejoin:miter;stroke-opacity:1" d="M 57.0263,74.1579 57.0263,82.3158 z" id="boundary" inkscape:connector-curvature="0" />
	<path style="fill:none;stroke:red;stroke-width:1px;stroke-linecap:butt;stroke-linejoin:miter;stroke-opacity:1" d="M 61.1053,89.6579 57.0263,82.3158 z" id="boundary" inkscape:connector-curvature="0" />
	<path style="fill:none;stroke:red;stroke-width:1px;stroke-linecap:butt;stroke-linejoin:miter;stroke-opacity:1" d="M 61.1053,89.6579 61.1053,97.8158 z" id="boundary" inkscape:connector-curvature="0" />
	<path style="fill:none;stroke:red;stroke-width:1px;stroke-linecap:butt;stroke-linejoin:miter;stroke-opacity:1" d="M 65.1842,105.158 61.1053,97.8158 z" id="boundary" inkscape:connector-curvature="0" />
	<path style="fill:none;stroke:red;stroke-width:1px;stroke-linecap:butt;stroke-linejoin:miter;stroke-opacity:1" d="M 57.8421,9.71053 66,5.63158 z" id="boundary" inkscape:connector-curvature="0" />
	<path style="fill:none;stroke:red;stroke-width:1px;stroke-linecap:butt;stroke-linejoin:miter;stroke-opacity:1" d="M 51.3158,16.2368 57.8421,9.71053 z" id="boundary" inkscape:connector-curvature="0" />
	<path style="fill:none;stroke:red;stroke-width:1px;stroke-linecap:butt;stroke-linejoin:miter;stroke-opacity:1" d="M 65.1842,105.158 65.1842,113.316 z" id="boundary" inkscape:connector-curvature="0" />
	<path style="fill:none;stroke:red;stroke-width:1px;stroke-linecap:butt;stroke-linejoin:miter;stroke-opacity:1" d="M 66,121.474 69.2632,129.632 z" id="boundary" inkscape:connector-curvature="0" />
	<path style="fill:none;stroke:red;stroke-width:1px;stroke-linecap:butt;stroke-linejoin:miter;stroke-opacity:1" d="M 69.2632,129.632 70.0789,137.789 z" id="boundary" inkscape:connector-curvature="0" />
	<path style="fill:none;stroke:red;stroke-width:1px;stroke-linecap:butt;stroke-linejoin:miter;stroke-opacity:1" d="M 66,121.474 65.1842,113.316 z" id="boundary" inkscape:connector-curvature="0" />
	<path style="fill:none;stroke:red;stroke-width:1px;stroke-linecap:butt;stroke-linejoin:miter;stroke-opacity:1" d="M 70.0789,137.789 73.3421,145.947 z" id="boundary" inkscape:connector-curvature="0" />
	<path style="fill:none;stroke:red;stroke-width:1px;stroke-linecap:butt;stroke-linejoin:miter;stroke-opacity:1" d="M 73.3421,145.947 73.3421,154.105 z" id="boundary" inkscape:connector-curvature="0" />
	<path style="fill:none;stroke:red;stroke-width:1px;stroke-linecap:butt;stroke-linejoin:miter;stroke-opacity:1" d="M 73.3421,154.105 77.4211,161.447 z" id="boundary" inkscape:connector-curvature="0" />
	<path style="fill:none;stroke:red;stroke-width:1px;stroke-linecap:butt;stroke-linejoin:miter;stroke-opacity:1" d="M 77.4211,161.447 77.4211,169.605 z" id="boundary" inkscape:connector-curvature="0" />
	<path style="fill:none;stroke:red;stroke-width:1px;stroke-linecap:butt;stroke-linejoin:miter;stroke-opacity:1" d="M 77.4211,169.605 81.5,176.947 z" id="boundary" inkscape:connector-curvature="0" />
	<path style="fill:none;stroke:red;stroke-width:1px;stroke-linecap:butt;stroke-linejoin:miter;stroke-opacity:1" d="M 81.5,176.947 81.5,185.105 z" id="boundary" inkscape:connector-curvature="0" />
	<path style="fill:none;stroke:red;stroke-width:1px;stroke-linecap:butt;stroke-linejoin:miter;stroke-opacity:1" d="M 81.5,185.105 81.5,193.263 z" id="boundary" inkscape:connector-curvature="0" />
	<path style="fill:none;stroke:red;stroke-width:1px;stroke-linecap:butt;stroke-linejoin:miter;stroke-opacity:1" d="M 85.5789,200.605 81.5,193.263 z" id="boundary" inkscape:connector-curvature="0" />
	<path style="fill:none;stroke:red;stroke-width:1px;stroke-linecap:butt;stroke-linejoin:miter;stroke-opacity:1" d="M 85.5789,200.605 85.5789,208.763 z" id="boundary" inkscape:connector-curvature="0" />
	<path style="fill:none;stroke:red;stroke-width:1px;stroke-linecap:butt;stroke-linejoin:miter;stroke-opacity:1" d="M 88.0263,216.921 85.5789,208.763 z" id="boundary" inkscape:connector-curvature="0" />
	<path style="fill:none;stroke:red;stroke-width:1px;stroke-linecap:butt;stroke-linejoin:miter;stroke-opacity:1" d="M 89.6579,225.079 88.0263,216.921 z" id="boundary" inkscape:connector-curvature="0" />
	<path style="fill:none;stroke:red;stroke-width:1px;stroke-linecap:butt;stroke-linejoin:miter;stroke-opacity:1" d="M 89.6579,225.079 89.6579,233.237 z" id="boundary" inkscape:connector-curvature="0" />
	<path style="fill:none;stroke:red;stroke-width:1px;stroke-linecap:butt;stroke-linejoin:miter;stroke-opacity:1" d="M 89.6579,233.237 89.6579,241.395 z" id="boundary" inkscape:connector-curvature="0" />
	<path style="fill:none;stroke:red;stroke-width:1px;stroke-linecap:butt;stroke-linejoin:miter;stroke-opacity:1" d="M 93.7368,256.895 89.6579,249.553 z" id="boundary" inkscape:connector-curvature="0" />
	<path style="fill:none;stroke:red;stroke-width:1px;stroke-linecap:butt;stroke-linejoin:miter;stroke-opacity:1" d="M 89.6579,249.553 89.6579,241.395 z" id="boundary" inkscape:connector-curvature="0" />
	<path style="fill:none;stroke:red;stroke-width:1px;stroke-linecap:butt;stroke-linejoin:miter;stroke-opacity:1" d="M 90.4737,4 97.8158,8.07895 z" id="boundary" inkscape:connector-curvature="0" />
	<path style="fill:none;stroke:red;stroke-width:1px;stroke-linecap:butt;stroke-linejoin:miter;stroke-opacity:1" d="M 82.3158,4 90.4737,4 z" id="boundary" inkscape:connector-curvature="0" />
	<path style="fill:none;stroke:red;stroke-width:1px;stroke-linecap:butt;stroke-linejoin:miter;stroke-opacity:1" d="M 93.7368,256.895 93.7368,265.053 z" id="boundary" inkscape:connector-curvature="0" />
	<path style="fill:none;stroke:red;stroke-width:1px;stroke-linecap:butt;stroke-linejoin:miter;stroke-opacity:1" d="M 93.7368,273.211 93.7368,265.053 z" id="boundary" inkscape:connector-curvature="0" />
	<path style="fill:none;stroke:red;stroke-width:1px;stroke-linecap:butt;stroke-linejoin:miter;stroke-opacity:1" d="M 93.7368,273.211 93.7368,281.368 z" id="boundary" inkscape:connector-curvature="0" />
	<path style="fill:none;stroke:red;stroke-width:1px;stroke-linecap:butt;stroke-linejoin:miter;stroke-opacity:1" d="M 95.3684,289.526 93.7368,281.368 z" id="boundary" inkscape:connector-curvature="0" />
	<path style="fill:none;stroke:red;stroke-width:1px;stroke-linecap:butt;stroke-linejoin:miter;stroke-opacity:1" d="M 97.8158,8.07895 104.342,12.9737 z" id="boundary" inkscape:connector-curvature="0" />
	<path style="fill:none;stroke:red;stroke-width:1px;stroke-linecap:butt;stroke-linejoin:miter;stroke-opacity:1" d="M 97.8158,314 97.8158,305.842 z" id="boundary" inkscape:connector-curvature="0" />
	<path style="fill:none;stroke:red;stroke-width:1px;stroke-linecap:butt;stroke-linejoin:miter;stroke-opacity:1" d="M 97.8158,297.684 95.3684,289.526 z" id="boundary" inkscape:connector-curvature="0" />
	<path style="fill:none;stroke:red;stroke-width:1px;stroke-linecap:butt;stroke-linejoin:miter;stroke-opacity:1" d="M 97.8158,297.684 97.8158,305.842 z" id="boundary" inkscape:connector-curvature="0" />
	<path style="fill:none;stroke:red;stroke-width:1px;stroke-linecap:butt;stroke-linejoin:miter;stroke-opacity:1" d="M 101.895,338.474 99.4474,330.316 z" id="boundary" inkscape:connector-curvature="0" />
	<path style="fill:none;stroke:red;stroke-width:1px;stroke-linecap:butt;stroke-linejoin:miter;stroke-opacity:1" d="M 97.8158,322.158 99.4474,330.316 z" id="boundary" inkscape:connector-curvature="0" />
	<path style="fill:none;stroke:red;stroke-width:1px;stroke-linecap:butt;stroke-linejoin:miter;stroke-opacity:1" d="M 97.8158,322.158 97.8158,314 z" id="boundary" inkscape:connector-curvature="0" />
	<path style="fill:none;stroke:red;stroke-width:1px;stroke-linecap:butt;stroke-linejoin:miter;stroke-opacity:1" d="M 101.895,338.474 101.895,346.632 z" id="boundary" inkscape:connector-curvature="0" />
	<path style="fill:none;stroke:red;stroke-width:1px;stroke-linecap:butt;stroke-linejoin:miter;stroke-opacity:1" d="M 101.895,354.789 101.895,346.632 z" id="boundary" inkscape:connector-curvature="0" />
	<path style="fill:none;stroke:red;stroke-width:1px;stroke-linecap:butt;stroke-linejoin:miter;stroke-opacity:1" d="M 101.895,354.789 101.895,362.947 z" id="boundary" inkscape:connector-curvature="0" />
	<path style="fill:none;stroke:red;stroke-width:1px;stroke-linecap:butt;stroke-linejoin:miter;stroke-opacity:1" d="M 105.974,370.289 101.895,362.947 z" id="boundary" inkscape:connector-curvature="0" />
	<path style="fill:none;stroke:red;stroke-width:1px;stroke-linecap:butt;stroke-linejoin:miter;stroke-opacity:1" d="M 105.974,370.289 105.974,378.447 z" id="boundary" inkscape:connector-curvature="0" />
	<path style="fill:none;stroke:red;stroke-width:1px;stroke-linecap:butt;stroke-linejoin:miter;stroke-opacity:1" d="M 105.974,386.605 105.974,394.763 z" id="boundary" inkscape:connector-curvature="0" />
	<path style="fill:none;stroke:red;stroke-width:1px;stroke-linecap:butt;stroke-linejoin:miter;stroke-opacity:1" d="M 105.974,386.605 105.974,378.447 z" id="boundary" inkscape:connector-curvature="0" />
	<path style="fill:none;stroke:red;stroke-width:1px;stroke-linecap:butt;stroke-linejoin:miter;stroke-opacity:1" d="M 105.974,394.763 105.974,402.921 z" id="boundary" inkscape:connector-curvature="0" />
	<path style="fill:none;stroke:red;stroke-width:1px;stroke-linecap:butt;stroke-linejoin:miter;stroke-opacity:1" d="M 105.974,402.921 105.974,411.079 z" id="boundary" inkscape:connector-curvature="0" />
	<path style="fill:none;stroke:red;stroke-width:1px;stroke-linecap:butt;stroke-linejoin:miter;stroke-opacity:1" d="M 105.974,427.395 105.974,419.237 z" id="boundary" inkscape:connector-curvature="0" />
	<path style="fill:none;stroke:red;stroke-width:1px;stroke-linecap:butt;stroke-linejoin:miter;stroke-opacity:1" d="M 105.974,419.237 105.974,411.079 z" id="boundary" inkscape:connector-curvature="0" />
	<path style="fill:none;stroke:red;stroke-width:1px;stroke-linecap:butt;stroke-linejoin:miter;stroke-opacity:1" d="M 105.974,427.395 105.974,435.553 z" id="boundary" inkscape:connector-curvature="0" />
	<path style="fill:none;stroke:red;stroke-width:1px;stroke-linecap:butt;stroke-linejoin:miter;stroke-opacity:1" d="M 105.974,443.711 105.974,435.553 z" id="boundary" inkscape:connector-curvature="0" />
	<path style="fill:none;stroke:red;stroke-width:1px;stroke-linecap:butt;stroke-linejoin:miter;stroke-opacity:1" d="M 105.974,443.711 105.974,451.868 z" id="boundary" inkscape:connector-curvature="0" />
	<path style="fill:none;stroke:red;stroke-width:1px;stroke-linecap:butt;stroke-linejoin:miter;stroke-opacity:1" d="M 105.974,460.026 105.974,451.868 z" id="boundary" inkscape:connector-curvature="0" />
	<path style="fill:none;stroke:red;stroke-width:1px;stroke-linecap:butt;stroke-linejoin:miter;stroke-opacity:1" d="M 104.342,12.9737 110.868,18.6842 z" id="boundary" inkscape:connector-curvature="0" />
	<path style="fill:none;stroke:red;stroke-width:1px;stroke-linecap:butt;stroke-linejoin:miter;stroke-opacity:1" d="M 8.07895,736.579 8.07895,744.737 z" id="boundary" inkscape:connector-curvature="0" />
	<path style="fill:none;stroke:red;stroke-width:1px;stroke-linecap:butt;stroke-linejoin:miter;stroke-opacity:1" d="M 8.07895,744.737 4,756.974 z" id="boundary" inkscape:connector-curvature="0" />
	<path style="fill:none;stroke:red;stroke-width:1px;stroke-linecap:butt;stroke-linejoin:miter;stroke-opacity:1" d="M 8.07895,736.579 12.1579,728.421 z" id="boundary" inkscape:connector-curvature="0" />
	<path style="fill:none;stroke:red;stroke-width:1px;stroke-linecap:butt;stroke-linejoin:miter;stroke-opacity:1" d="M 4,765.132 4,756.974 z" id="boundary" inkscape:connector-curvature="0" />
	<path style="fill:none;stroke:red;stroke-width:1px;stroke-linecap:butt;stroke-linejoin:miter;stroke-opacity:1" d="M 4,773.289 4,765.132 z" id="boundary" inkscape:connector-curvature="0" />
	<path style="fill:none;stroke:red;stroke-width:1px;stroke-linecap:butt;stroke-linejoin:miter;stroke-opacity:1" d="M 4,789.605 4,781.447 z" id="boundary" inkscape:connector-curvature="0" />
	<path style="fill:none;stroke:red;stroke-width:1px;stroke-linecap:butt;stroke-linejoin:miter;stroke-opacity:1" d="M 4,781.447 4,773.289 z" id="boundary" inkscape:connector-curvature="0" />
	<path style="fill:none;stroke:red;stroke-width:1px;stroke-linecap:butt;stroke-linejoin:miter;stroke-opacity:1" d="M 12.1579,720.263 12.1579,728.421 z" id="boundary" inkscape:connector-curvature="0" />
	<path style="fill:none;stroke:red;stroke-width:1px;stroke-linecap:butt;stroke-linejoin:miter;stroke-opacity:1" d="M 20.3158,683.553 24.3947,675.395 z" id="boundary" inkscape:connector-curvature="0" />
	<path style="fill:none;stroke:red;stroke-width:1px;stroke-linecap:butt;stroke-linejoin:miter;stroke-opacity:1" d="M 20.3158,691.711 20.3158,683.553 z" id="boundary" inkscape:connector-curvature="0" />
	<path style="fill:none;stroke:red;stroke-width:1px;stroke-linecap:butt;stroke-linejoin:miter;stroke-opacity:1" d="M 28.4737,663.158 24.3947,675.395 z" id="boundary" inkscape:connector-curvature="0" />
	<path style="fill:none;stroke:red;stroke-width:1px;stroke-linecap:butt;stroke-linejoin:miter;stroke-opacity:1" d="M 32.5526,655 28.4737,663.158 z" id="boundary" inkscape:connector-curvature="0" />
	<path style="fill:none;stroke:red;stroke-width:1px;stroke-linecap:butt;stroke-linejoin:miter;stroke-opacity:1" d="M 12.1579,720.263 16.2368,708.026 z" id="boundary" inkscape:connector-curvature="0" />
	<path style="fill:none;stroke:red;stroke-width:1px;stroke-linecap:butt;stroke-linejoin:miter;stroke-opacity:1" d="M 16.2368,699.868 16.2368,708.026 z" id="boundary" inkscape:connector-curvature="0" />
	<path style="fill:none;stroke:red;stroke-width:1px;stroke-linecap:butt;stroke-linejoin:miter;stroke-opacity:1" d="M 16.2368,699.868 20.3158,691.711 z" id="boundary" inkscape:connector-curvature="0" />
	<path style="fill:none;stroke:red;stroke-width:1px;stroke-linecap:butt;stroke-linejoin:miter;stroke-opacity:1" d="M 4,797.763 4,789.605 z" id="boundary" inkscape:connector-curvature="0" />
	<path style="fill:none;stroke:red;stroke-width:1px;stroke-linecap:butt;stroke-linejoin:miter;stroke-opacity:1" d="M 4,805.921 4,797.763 z" id="boundary" inkscape:connector-curvature="0" />
	<path style="fill:none;stroke:red;stroke-width:1px;stroke-linecap:butt;stroke-linejoin:miter;stroke-opacity:1" d="M 4,822.237 4,814.079 z" id="boundary" inkscape:connector-curvature="0" />
	<path style="fill:none;stroke:red;stroke-width:1px;stroke-linecap:butt;stroke-linejoin:miter;stroke-opacity:1" d="M 4,838.553 4,830.395 z" id="boundary" inkscape:connector-curvature="0" />
	<path style="fill:none;stroke:red;stroke-width:1px;stroke-linecap:butt;stroke-linejoin:miter;stroke-opacity:1" d="M 8.07895,845.895 4,838.553 z" id="boundary" inkscape:connector-curvature="0" />
	<path style="fill:none;stroke:red;stroke-width:1px;stroke-linecap:butt;stroke-linejoin:miter;stroke-opacity:1" d="M 8.07895,845.895 8.07895,854.053 z" id="boundary" inkscape:connector-curvature="0" />
	<path style="fill:none;stroke:red;stroke-width:1px;stroke-linecap:butt;stroke-linejoin:miter;stroke-opacity:1" d="M 12.1579,861.395 8.07895,854.053 z" id="boundary" inkscape:connector-curvature="0" />
	<path style="fill:none;stroke:red;stroke-width:1px;stroke-linecap:butt;stroke-linejoin:miter;stroke-opacity:1" d="M 4,830.395 4,822.237 z" id="boundary" inkscape:connector-curvature="0" />
	<path style="fill:none;stroke:red;stroke-width:1px;stroke-linecap:butt;stroke-linejoin:miter;stroke-opacity:1" d="M 12.1579,861.395 12.1579,869.553 z" id="boundary" inkscape:connector-curvature="0" />
	<path style="fill:none;stroke:red;stroke-width:1px;stroke-linecap:butt;stroke-linejoin:miter;stroke-opacity:1" d="M 14.6053,877.711 12.1579,869.553 z" id="boundary" inkscape:connector-curvature="0" />
	<path style="fill:none;stroke:red;stroke-width:1px;stroke-linecap:butt;stroke-linejoin:miter;stroke-opacity:1" d="M 14.6053,877.711 16.2368,885.868 z" id="boundary" inkscape:connector-curvature="0" />
	<path style="fill:none;stroke:red;stroke-width:1px;stroke-linecap:butt;stroke-linejoin:miter;stroke-opacity:1" d="M 18.6842,894.026 16.2368,885.868 z" id="boundary" inkscape:connector-curvature="0" />
	<path style="fill:none;stroke:red;stroke-width:1px;stroke-linecap:butt;stroke-linejoin:miter;stroke-opacity:1" d="M 22.7632,901.368 18.6842,894.026 z" id="boundary" inkscape:connector-curvature="0" />
	<path style="fill:none;stroke:red;stroke-width:1px;stroke-linecap:butt;stroke-linejoin:miter;stroke-opacity:1" d="M 28.4737,907.895 32.5526,915.237 z" id="boundary" inkscape:connector-curvature="0" />
	<path style="fill:none;stroke:red;stroke-width:1px;stroke-linecap:butt;stroke-linejoin:miter;stroke-opacity:1" d="M 22.7632,901.368 28.4737,907.895 z" id="boundary" inkscape:connector-curvature="0" />
	<path style="fill:none;stroke:red;stroke-width:1px;stroke-linecap:butt;stroke-linejoin:miter;stroke-opacity:1" d="M 38.2632,921.763 32.5526,915.237 z" id="boundary" inkscape:connector-curvature="0" />
	<path style="fill:none;stroke:red;stroke-width:1px;stroke-linecap:butt;stroke-linejoin:miter;stroke-opacity:1" d="M 4,814.079 4,805.921 z" id="boundary" inkscape:connector-curvature="0" />
	<path style="fill:none;stroke:red;stroke-width:1px;stroke-linecap:butt;stroke-linejoin:miter;stroke-opacity:1" d="M 97.8158,548.947 97.8158,557.105 z" id="boundary" inkscape:connector-curvature="0" />
	<path style="fill:none;stroke:red;stroke-width:1px;stroke-linecap:butt;stroke-linejoin:miter;stroke-opacity:1" d="M 97.8158,548.947 101.895,536.711 z" id="boundary" inkscape:connector-curvature="0" />
	<path style="fill:none;stroke:red;stroke-width:1px;stroke-linecap:butt;stroke-linejoin:miter;stroke-opacity:1" d="M 97.8158,565.263 97.8158,573.421 z" id="boundary" inkscape:connector-curvature="0" />
	<path style="fill:none;stroke:red;stroke-width:1px;stroke-linecap:butt;stroke-linejoin:miter;stroke-opacity:1" d="M 97.8158,573.421 90.4737,584.842 z" id="boundary" inkscape:connector-curvature="0" />
	<path style="fill:none;stroke:red;stroke-width:1px;stroke-linecap:butt;stroke-linejoin:miter;stroke-opacity:1" d="M 97.8158,565.263 97.8158,557.105 z" id="boundary" inkscape:connector-curvature="0" />
	<path style="fill:none;stroke:red;stroke-width:1px;stroke-linecap:butt;stroke-linejoin:miter;stroke-opacity:1" d="M 78.2368,597.079 71.7105,603.605 z" id="boundary" inkscape:connector-curvature="0" />
	<path style="fill:none;stroke:red;stroke-width:1px;stroke-linecap:butt;stroke-linejoin:miter;stroke-opacity:1" d="M 78.2368,597.079 84.7632,591.368 z" id="boundary" inkscape:connector-curvature="0" />
	<path style="fill:none;stroke:red;stroke-width:1px;stroke-linecap:butt;stroke-linejoin:miter;stroke-opacity:1" d="M 90.4737,584.842 84.7632,591.368 z" id="boundary" inkscape:connector-curvature="0" />
	<path style="fill:none;stroke:red;stroke-width:1px;stroke-linecap:butt;stroke-linejoin:miter;stroke-opacity:1" d="M 105.974,468.184 105.974,476.342 z" id="boundary" inkscape:connector-curvature="0" />
	<path style="fill:none;stroke:red;stroke-width:1px;stroke-linecap:butt;stroke-linejoin:miter;stroke-opacity:1" d="M 105.974,484.5 105.974,492.658 z" id="boundary" inkscape:connector-curvature="0" />
	<path style="fill:none;stroke:red;stroke-width:1px;stroke-linecap:butt;stroke-linejoin:miter;stroke-opacity:1" d="M 105.974,484.5 105.974,476.342 z" id="boundary" inkscape:connector-curvature="0" />
	<path style="fill:none;stroke:red;stroke-width:1px;stroke-linecap:butt;stroke-linejoin:miter;stroke-opacity:1" d="M 101.895,512.237 101.895,520.395 z" id="boundary" inkscape:connector-curvature="0" />
	<path style="fill:none;stroke:red;stroke-width:1px;stroke-linecap:butt;stroke-linejoin:miter;stroke-opacity:1" d="M 101.895,512.237 105.974,500.816 z" id="boundary" inkscape:connector-curvature="0" />
	<path style="fill:none;stroke:red;stroke-width:1px;stroke-linecap:butt;stroke-linejoin:miter;stroke-opacity:1" d="M 101.895,528.553 101.895,536.711 z" id="boundary" inkscape:connector-curvature="0" />
	<path style="fill:none;stroke:red;stroke-width:1px;stroke-linecap:butt;stroke-linejoin:miter;stroke-opacity:1" d="M 101.895,528.553 101.895,520.395 z" id="boundary" inkscape:connector-curvature="0" />
	<path style="fill:none;stroke:red;stroke-width:1px;stroke-linecap:butt;stroke-linejoin:miter;stroke-opacity:1" d="M 71.7105,603.605 65.1842,610.132 z" id="boundary" inkscape:connector-curvature="0" />
	<path style="fill:none;stroke:red;stroke-width:1px;stroke-linecap:butt;stroke-linejoin:miter;stroke-opacity:1" d="M 36.6316,646.842 40.7105,638.684 z" id="boundary" inkscape:connector-curvature="0" />
	<path style="fill:none;stroke:red;stroke-width:1px;stroke-linecap:butt;stroke-linejoin:miter;stroke-opacity:1" d="M 40.7105,638.684 47.2368,632.158 z" id="boundary" inkscape:connector-curvature="0" />
	<path style="fill:none;stroke:red;stroke-width:1px;stroke-linecap:butt;stroke-linejoin:miter;stroke-opacity:1" d="M 53.7632,625.632 47.2368,632.158 z" id="boundary" inkscape:connector-curvature="0" />
	<path style="fill:none;stroke:red;stroke-width:1px;stroke-linecap:butt;stroke-linejoin:miter;stroke-opacity:1" d="M 38.2632,921.763 44.7895,926.658 z" id="boundary" inkscape:connector-curvature="0" />
	<path style="fill:none;stroke:red;stroke-width:1px;stroke-linecap:butt;stroke-linejoin:miter;stroke-opacity:1" d="M 44.7895,926.658 47.2368,934.816 z" id="boundary" inkscape:connector-curvature="0" />
	<path style="fill:none;stroke:red;stroke-width:1px;stroke-linecap:butt;stroke-linejoin:miter;stroke-opacity:1" d="M 47.2368,934.816 53.7632,940.526 z" id="boundary" inkscape:connector-curvature="0" />
	<path style="fill:none;stroke:red;stroke-width:1px;stroke-linecap:butt;stroke-linejoin:miter;stroke-opacity:1" d="M 53.7632,940.526 59.4737,947.053 z" id="boundary" inkscape:connector-curvature="0" />
	<path style="fill:none;stroke:red;stroke-width:1px;stroke-linecap:butt;stroke-linejoin:miter;stroke-opacity:1" d="M 32.5526,655 36.6316,646.842 z" id="boundary" inkscape:connector-curvature="0" />
	<path style="fill:none;stroke:red;stroke-width:1px;stroke-linecap:butt;stroke-linejoin:miter;stroke-opacity:1" d="M 66,952.763 59.4737,947.053 z" id="boundary" inkscape:connector-curvature="0" />
	<path style="fill:none;stroke:red;stroke-width:1px;stroke-linecap:butt;stroke-linejoin:miter;stroke-opacity:1" d="M 60.2895,619.921 65.1842,610.132 z" id="boundary" inkscape:connector-curvature="0" />
	<path style="fill:none;stroke:red;stroke-width:1px;stroke-linecap:butt;stroke-linejoin:miter;stroke-opacity:1" d="M 60.2895,619.921 53.7632,625.632 z" id="boundary" inkscape:connector-curvature="0" />
	<path style="fill:none;stroke:red;stroke-width:1px;stroke-linecap:butt;stroke-linejoin:miter;stroke-opacity:1" d="M 66,952.763 71.7105,959.289 z" id="boundary" inkscape:connector-curvature="0" />
	<path style="fill:none;stroke:red;stroke-width:1px;stroke-linecap:butt;stroke-linejoin:miter;stroke-opacity:1" d="M 71.7105,959.289 79.8684,962.553 z" id="boundary" inkscape:connector-curvature="0" />
	<path style="fill:none;stroke:red;stroke-width:1px;stroke-linecap:butt;stroke-linejoin:miter;stroke-opacity:1" d="M 79.8684,962.553 85.5789,969.079 z" id="boundary" inkscape:connector-curvature="0" />
	<path style="fill:none;stroke:red;stroke-width:1px;stroke-linecap:butt;stroke-linejoin:miter;stroke-opacity:1" d="M 85.5789,969.079 93.7368,971.526 z" id="boundary" inkscape:connector-curvature="0" />
	<path style="fill:none;stroke:red;stroke-width:1px;stroke-linecap:butt;stroke-linejoin:miter;stroke-opacity:1" d="M 93.7368,971.526 101.079,975.605 z" id="boundary" inkscape:connector-curvature="0" />
	<path style="fill:none;stroke:red;stroke-width:1px;stroke-linecap:butt;stroke-linejoin:miter;stroke-opacity:1" d="M 101.079,975.605 108.421,979.684 z" id="boundary" inkscape:connector-curvature="0" />
	<path style="fill:none;stroke:red;stroke-width:1px;stroke-linecap:butt;stroke-linejoin:miter;stroke-opacity:1" d="M 105.974,492.658 105.974,500.816 z" id="boundary" inkscape:connector-curvature="0" />
	<path style="fill:none;stroke:red;stroke-width:1px;stroke-linecap:butt;stroke-linejoin:miter;stroke-opacity:1" d="M 105.974,460.026 105.974,468.184 z" id="boundary" inkscape:connector-curvature="0" />
	<path style="fill:none;stroke:red;stroke-width:1px;stroke-linecap:butt;stroke-linejoin:miter;stroke-opacity:1" d="M 116.579,25.2105 110.868,18.6842 z" id="boundary" inkscape:connector-curvature="0" />
	<path style="fill:none;stroke:red;stroke-width:1px;stroke-linecap:butt;stroke-linejoin:miter;stroke-opacity:1" d="M 123.105,30.9211 116.579,25.2105 z" id="boundary" inkscape:connector-curvature="0" />
	<path style="fill:none;stroke:red;stroke-width:1px;stroke-linecap:butt;stroke-linejoin:miter;stroke-opacity:1" d="M 123.105,30.9211 127.184,38.2632 z" id="boundary" inkscape:connector-curvature="0" />
	<path style="fill:none;stroke:red;stroke-width:1px;stroke-linecap:butt;stroke-linejoin:miter;stroke-opacity:1" d="M 131.263,45.6053 131.263,53.7632 z" id="boundary" inkscape:connector-curvature="0" />
	<path style="fill:none;stroke:red;stroke-width:1px;stroke-linecap:butt;stroke-linejoin:miter;stroke-opacity:1" d="M 127.184,38.2632 131.263,45.6053 z" id="boundary" inkscape:connector-curvature="0" />
	<path style="fill:none;stroke:red;stroke-width:1px;stroke-linecap:butt;stroke-linejoin:miter;stroke-opacity:1" d="M 135.342,61.1053 131.263,53.7632 z" id="boundary" inkscape:connector-curvature="0" />
	<path style="fill:none;stroke:red;stroke-width:1px;stroke-linecap:butt;stroke-linejoin:miter;stroke-opacity:1" d="M 135.342,61.1053 135.342,69.2632 z" id="boundary" inkscape:connector-curvature="0" />
	<path style="fill:none;stroke:red;stroke-width:1px;stroke-linecap:butt;stroke-linejoin:miter;stroke-opacity:1" d="M 139.421,76.6053 135.342,69.2632 z" id="boundary" inkscape:connector-curvature="0" />
	<path style="fill:none;stroke:red;stroke-width:1px;stroke-linecap:butt;stroke-linejoin:miter;stroke-opacity:1" d="M 139.421,76.6053 139.421,84.7632 z" id="boundary" inkscape:connector-curvature="0" />
	<path style="fill:none;stroke:red;stroke-width:1px;stroke-linecap:butt;stroke-linejoin:miter;stroke-opacity:1" d="M 139.421,92.9211 143.5,100.263 z" id="boundary" inkscape:connector-curvature="0" />
	<path style="fill:none;stroke:red;stroke-width:1px;stroke-linecap:butt;stroke-linejoin:miter;stroke-opacity:1" d="M 143.5,100.263 143.5,108.421 z" id="boundary" inkscape:connector-curvature="0" />
	<path style="fill:none;stroke:red;stroke-width:1px;stroke-linecap:butt;stroke-linejoin:miter;stroke-opacity:1" d="M 139.421,92.9211 139.421,84.7632 z" id="boundary" inkscape:connector-curvature="0" />
	<path style="fill:none;stroke:red;stroke-width:1px;stroke-linecap:butt;stroke-linejoin:miter;stroke-opacity:1" d="M 143.5,108.421 147.579,115.763 z" id="boundary" inkscape:connector-curvature="0" />
	<path style="fill:none;stroke:red;stroke-width:1px;stroke-linecap:butt;stroke-linejoin:miter;stroke-opacity:1" d="M 147.579,115.763 147.579,123.921 z" id="boundary" inkscape:connector-curvature="0" />
	<path style="fill:none;stroke:red;stroke-width:1px;stroke-linecap:butt;stroke-linejoin:miter;stroke-opacity:1" d="M 147.579,123.921 150.026,132.079 z" id="boundary" inkscape:connector-curvature="0" />
	<path style="fill:none;stroke:red;stroke-width:1px;stroke-linecap:butt;stroke-linejoin:miter;stroke-opacity:1" d="M 150.026,132.079 151.658,140.237 z" id="boundary" inkscape:connector-curvature="0" />
	<path style="fill:none;stroke:red;stroke-width:1px;stroke-linecap:butt;stroke-linejoin:miter;stroke-opacity:1" d="M 154.105,148.395 155.737,156.553 z" id="boundary" inkscape:connector-curvature="0" />
	<path style="fill:none;stroke:red;stroke-width:1px;stroke-linecap:butt;stroke-linejoin:miter;stroke-opacity:1" d="M 154.105,148.395 151.658,140.237 z" id="boundary" inkscape:connector-curvature="0" />
	<path style="fill:none;stroke:red;stroke-width:1px;stroke-linecap:butt;stroke-linejoin:miter;stroke-opacity:1" d="M 155.737,156.553 155.737,164.711 z" id="boundary" inkscape:connector-curvature="0" />
	<path style="fill:none;stroke:red;stroke-width:1px;stroke-linecap:butt;stroke-linejoin:miter;stroke-opacity:1" d="M 159.816,172.053 155.737,164.711 z" id="boundary" inkscape:connector-curvature="0" />
	<path style="fill:none;stroke:red;stroke-width:1px;stroke-linecap:butt;stroke-linejoin:miter;stroke-opacity:1" d="M 159.816,180.211 161.447,188.368 z" id="boundary" inkscape:connector-curvature="0" />
	<path style="fill:none;stroke:red;stroke-width:1px;stroke-linecap:butt;stroke-linejoin:miter;stroke-opacity:1" d="M 159.816,172.053 159.816,180.211 z" id="boundary" inkscape:connector-curvature="0" />
	<path style="fill:none;stroke:red;stroke-width:1px;stroke-linecap:butt;stroke-linejoin:miter;stroke-opacity:1" d="M 163.895,196.526 161.447,188.368 z" id="boundary" inkscape:connector-curvature="0" />
	<path style="fill:none;stroke:red;stroke-width:1px;stroke-linecap:butt;stroke-linejoin:miter;stroke-opacity:1" d="M 165.526,204.684 163.895,196.526 z" id="boundary" inkscape:connector-curvature="0" />
	<path style="fill:none;stroke:red;stroke-width:1px;stroke-linecap:butt;stroke-linejoin:miter;stroke-opacity:1" d="M 167.974,212.842 165.526,204.684 z" id="boundary" inkscape:connector-curvature="0" />
	<path style="fill:none;stroke:red;stroke-width:1px;stroke-linecap:butt;stroke-linejoin:miter;stroke-opacity:1" d="M 167.974,212.842 167.974,221 z" id="boundary" inkscape:connector-curvature="0" />
	<path style="fill:none;stroke:red;stroke-width:1px;stroke-linecap:butt;stroke-linejoin:miter;stroke-opacity:1" d="M 167.974,221 167.974,229.158 z" id="boundary" inkscape:connector-curvature="0" />
	<path style="fill:none;stroke:red;stroke-width:1px;stroke-linecap:butt;stroke-linejoin:miter;stroke-opacity:1" d="M 167.974,229.158 167.974,237.316 z" id="boundary" inkscape:connector-curvature="0" />
	<path style="fill:none;stroke:red;stroke-width:1px;stroke-linecap:butt;stroke-linejoin:miter;stroke-opacity:1" d="M 172.053,244.658 167.974,237.316 z" id="boundary" inkscape:connector-curvature="0" />
	<path style="fill:none;stroke:red;stroke-width:1px;stroke-linecap:butt;stroke-linejoin:miter;stroke-opacity:1" d="M 172.053,244.658 172.053,252.816 z" id="boundary" inkscape:connector-curvature="0" />
	<path style="fill:none;stroke:red;stroke-width:1px;stroke-linecap:butt;stroke-linejoin:miter;stroke-opacity:1" d="M 172.053,252.816 172.053,260.974 z" id="boundary" inkscape:connector-curvature="0" />
	<path style="fill:none;stroke:red;stroke-width:1px;stroke-linecap:butt;stroke-linejoin:miter;stroke-opacity:1" d="M 172.053,260.974 172.053,269.132 z" id="boundary" inkscape:connector-curvature="0" />
	<path style="fill:none;stroke:red;stroke-width:1px;stroke-linecap:butt;stroke-linejoin:miter;stroke-opacity:1" d="M 172.053,277.289 176.132,284.632 z" id="boundary" inkscape:connector-curvature="0" />
	<path style="fill:none;stroke:red;stroke-width:1px;stroke-linecap:butt;stroke-linejoin:miter;stroke-opacity:1" d="M 176.132,284.632 176.132,292.789 z" id="boundary" inkscape:connector-curvature="0" />
	<path style="fill:none;stroke:red;stroke-width:1px;stroke-linecap:butt;stroke-linejoin:miter;stroke-opacity:1" d="M 172.053,277.289 172.053,269.132 z" id="boundary" inkscape:connector-curvature="0" />
	<path style="fill:none;stroke:red;stroke-width:1px;stroke-linecap:butt;stroke-linejoin:miter;stroke-opacity:1" d="M 176.132,292.789 176.132,300.947 z" id="boundary" inkscape:connector-curvature="0" />
	<path style="fill:none;stroke:red;stroke-width:1px;stroke-linecap:butt;stroke-linejoin:miter;stroke-opacity:1" d="M 176.132,309.105 176.132,317.263 z" id="boundary" inkscape:connector-curvature="0" />
	<path style="fill:none;stroke:red;stroke-width:1px;stroke-linecap:butt;stroke-linejoin:miter;stroke-opacity:1" d="M 180.211,324.605 176.132,317.263 z" id="boundary" inkscape:connector-curvature="0" />
	<path style="fill:none;stroke:red;stroke-width:1px;stroke-linecap:butt;stroke-linejoin:miter;stroke-opacity:1" d="M 176.132,309.105 176.132,300.947 z" id="boundary" inkscape:connector-curvature="0" />
	<path style="fill:none;stroke:red;stroke-width:1px;stroke-linecap:butt;stroke-linejoin:miter;stroke-opacity:1" d="M 180.211,324.605 180.211,332.763 z" id="boundary" inkscape:connector-curvature="0" />
	<path style="fill:none;stroke:red;stroke-width:1px;stroke-linecap:butt;stroke-linejoin:miter;stroke-opacity:1" d="M 180.211,340.921 180.211,349.079 z" id="boundary" inkscape:connector-curvature="0" />
	<path style="fill:none;stroke:red;stroke-width:1px;stroke-linecap:butt;stroke-linejoin:miter;stroke-opacity:1" d="M 183.474,357.237 180.211,349.079 z" id="boundary" inkscape:connector-curvature="0" />
	<path style="fill:none;stroke:red;stroke-width:1px;stroke-linecap:butt;stroke-linejoin:miter;stroke-opacity:1" d="M 180.211,340.921 180.211,332.763 z" id="boundary" inkscape:connector-curvature="0" />
	<path style="fill:none;stroke:red;stroke-width:1px;stroke-linecap:butt;stroke-linejoin:miter;stroke-opacity:1" d="M 184.289,365.395 184.289,373.553 z" id="boundary" inkscape:connector-curvature="0" />
	<path style="fill:none;stroke:red;stroke-width:1px;stroke-linecap:butt;stroke-linejoin:miter;stroke-opacity:1" d="M 184.289,373.553 184.289,381.711 z" id="boundary" inkscape:connector-curvature="0" />
	<path style="fill:none;stroke:red;stroke-width:1px;stroke-linecap:butt;stroke-linejoin:miter;stroke-opacity:1" d="M 183.474,357.237 184.289,365.395 z" id="boundary" inkscape:connector-curvature="0" />
	<path style="fill:none;stroke:red;stroke-width:1px;stroke-linecap:butt;stroke-linejoin:miter;stroke-opacity:1" d="M 184.289,381.711 184.289,389.868 z" id="boundary" inkscape:connector-curvature="0" />
	<path style="fill:none;stroke:red;stroke-width:1px;stroke-linecap:butt;stroke-linejoin:miter;stroke-opacity:1" d="M 184.289,389.868 184.289,398.026 z" id="boundary" inkscape:connector-curvature="0" />
	<path style="fill:none;stroke:red;stroke-width:1px;stroke-linecap:butt;stroke-linejoin:miter;stroke-opacity:1" d="M 184.289,406.184 184.289,414.342 z" id="boundary" inkscape:connector-curvature="0" />
	<path style="fill:none;stroke:red;stroke-width:1px;stroke-linecap:butt;stroke-linejoin:miter;stroke-opacity:1" d="M 184.289,422.5 184.289,430.658 z" id="boundary" inkscape:connector-curvature="0" />
	<path style="fill:none;stroke:red;stroke-width:1px;stroke-linecap:butt;stroke-linejoin:miter;stroke-opacity:1" d="M 184.289,406.184 184.289,398.026 z" id="boundary" inkscape:connector-curvature="0" />
	<path style="fill:none;stroke:red;stroke-width:1px;stroke-linecap:butt;stroke-linejoin:miter;stroke-opacity:1" d="M 184.289,414.342 184.289,422.5 z" id="boundary" inkscape:connector-curvature="0" />
	<path style="fill:none;stroke:red;stroke-width:1px;stroke-linecap:butt;stroke-linejoin:miter;stroke-opacity:1" d="M 184.289,438.816 184.289,446.974 z" id="boundary" inkscape:connector-curvature="0" />
	<path style="fill:none;stroke:red;stroke-width:1px;stroke-linecap:butt;stroke-linejoin:miter;stroke-opacity:1" d="M 184.289,430.658 184.289,438.816 z" id="boundary" inkscape:connector-curvature="0" />
	<path style="fill:none;stroke:red;stroke-width:1px;stroke-linecap:butt;stroke-linejoin:miter;stroke-opacity:1" d="M 184.289,446.974 184.289,455.132 z" id="boundary" inkscape:connector-curvature="0" />
	<path style="fill:none;stroke:red;stroke-width:1px;stroke-linecap:butt;stroke-linejoin:miter;stroke-opacity:1" d="M 184.289,455.132 184.289,463.289 z" id="boundary" inkscape:connector-curvature="0" />
	<path style="fill:none;stroke:red;stroke-width:1px;stroke-linecap:butt;stroke-linejoin:miter;stroke-opacity:1" d="M 184.289,463.289 184.289,471.447 z" id="boundary" inkscape:connector-curvature="0" />
	<path style="fill:none;stroke:red;stroke-width:1px;stroke-linecap:butt;stroke-linejoin:miter;stroke-opacity:1" d="M 184.289,479.605 184.289,487.763 z" id="boundary" inkscape:connector-curvature="0" />
	<path style="fill:none;stroke:red;stroke-width:1px;stroke-linecap:butt;stroke-linejoin:miter;stroke-opacity:1" d="M 184.289,471.447 184.289,479.605 z" id="boundary" inkscape:connector-curvature="0" />
	<path style="fill:none;stroke:red;stroke-width:1px;stroke-linecap:butt;stroke-linejoin:miter;stroke-opacity:1" d="M 184.289,504.079 180.211,518.763 z" id="boundary" inkscape:connector-curvature="0" />
	<path style="fill:none;stroke:red;stroke-width:1px;stroke-linecap:butt;stroke-linejoin:miter;stroke-opacity:1" d="M 184.289,504.079 184.289,495.921 z" id="boundary" inkscape:connector-curvature="0" />
	<path style="fill:none;stroke:red;stroke-width:1px;stroke-linecap:butt;stroke-linejoin:miter;stroke-opacity:1" d="M 184.289,495.921 184.289,487.763 z" id="boundary" inkscape:connector-curvature="0" />
	<path style="fill:none;stroke:red;stroke-width:1px;stroke-linecap:butt;stroke-linejoin:miter;stroke-opacity:1" d="M 180.211,526.921 180.211,518.763 z" id="boundary" inkscape:connector-curvature="0" />
	<path style="fill:none;stroke:red;stroke-width:1px;stroke-linecap:butt;stroke-linejoin:miter;stroke-opacity:1" d="M 163.895,677.842 163.895,686 z" id="boundary" inkscape:connector-curvature="0" />
	<path style="fill:none;stroke:red;stroke-width:1px;stroke-linecap:butt;stroke-linejoin:miter;stroke-opacity:1" d="M 163.895,677.842 163.895,669.684 z" id="boundary" inkscape:connector-curvature="0" />
	<path style="fill:none;stroke:red;stroke-width:1px;stroke-linecap:butt;stroke-linejoin:miter;stroke-opacity:1" d="M 163.895,669.684 167.974,657.447 z" id="boundary" inkscape:connector-curvature="0" />
	<path style="fill:none;stroke:red;stroke-width:1px;stroke-linecap:butt;stroke-linejoin:miter;stroke-opacity:1" d="M 163.895,694.158 163.895,702.316 z" id="boundary" inkscape:connector-curvature="0" />
	<path style="fill:none;stroke:red;stroke-width:1px;stroke-linecap:butt;stroke-linejoin:miter;stroke-opacity:1" d="M 163.895,694.158 163.895,686 z" id="boundary" inkscape:connector-curvature="0" />
	<path style="fill:none;stroke:red;stroke-width:1px;stroke-linecap:butt;stroke-linejoin:miter;stroke-opacity:1" d="M 163.895,710.474 163.895,718.632 z" id="boundary" inkscape:connector-curvature="0" />
	<path style="fill:none;stroke:red;stroke-width:1px;stroke-linecap:butt;stroke-linejoin:miter;stroke-opacity:1" d="M 163.895,710.474 163.895,702.316 z" id="boundary" inkscape:connector-curvature="0" />
	<path style="fill:none;stroke:red;stroke-width:1px;stroke-linecap:butt;stroke-linejoin:miter;stroke-opacity:1" d="M 163.895,726.789 163.895,734.947 z" id="boundary" inkscape:connector-curvature="0" />
	<path style="fill:none;stroke:red;stroke-width:1px;stroke-linecap:butt;stroke-linejoin:miter;stroke-opacity:1" d="M 163.895,726.789 163.895,718.632 z" id="boundary" inkscape:connector-curvature="0" />
	<path style="fill:none;stroke:red;stroke-width:1px;stroke-linecap:butt;stroke-linejoin:miter;stroke-opacity:1" d="M 167.974,641.132 167.974,632.974 z" id="boundary" inkscape:connector-curvature="0" />
	<path style="fill:none;stroke:red;stroke-width:1px;stroke-linecap:butt;stroke-linejoin:miter;stroke-opacity:1" d="M 167.974,632.974 172.053,620.737 z" id="boundary" inkscape:connector-curvature="0" />
	<path style="fill:none;stroke:red;stroke-width:1px;stroke-linecap:butt;stroke-linejoin:miter;stroke-opacity:1" d="M 167.974,657.447 167.974,649.289 z" id="boundary" inkscape:connector-curvature="0" />
	<path style="fill:none;stroke:red;stroke-width:1px;stroke-linecap:butt;stroke-linejoin:miter;stroke-opacity:1" d="M 167.974,649.289 167.974,641.132 z" id="boundary" inkscape:connector-curvature="0" />
	<path style="fill:none;stroke:red;stroke-width:1px;stroke-linecap:butt;stroke-linejoin:miter;stroke-opacity:1" d="M 163.895,743.105 163.895,751.263 z" id="boundary" inkscape:connector-curvature="0" />
	<path style="fill:none;stroke:red;stroke-width:1px;stroke-linecap:butt;stroke-linejoin:miter;stroke-opacity:1" d="M 163.895,743.105 163.895,734.947 z" id="boundary" inkscape:connector-curvature="0" />
	<path style="fill:none;stroke:red;stroke-width:1px;stroke-linecap:butt;stroke-linejoin:miter;stroke-opacity:1" d="M 163.895,759.421 163.895,767.579 z" id="boundary" inkscape:connector-curvature="0" />
	<path style="fill:none;stroke:red;stroke-width:1px;stroke-linecap:butt;stroke-linejoin:miter;stroke-opacity:1" d="M 163.895,759.421 163.895,751.263 z" id="boundary" inkscape:connector-curvature="0" />
	<path style="fill:none;stroke:red;stroke-width:1px;stroke-linecap:butt;stroke-linejoin:miter;stroke-opacity:1" d="M 108.421,979.684 115.763,983.763 z" id="boundary" inkscape:connector-curvature="0" />
	<path style="fill:none;stroke:red;stroke-width:1px;stroke-linecap:butt;stroke-linejoin:miter;stroke-opacity:1" d="M 123.105,987.842 115.763,983.763 z" id="boundary" inkscape:connector-curvature="0" />
	<path style="fill:none;stroke:red;stroke-width:1px;stroke-linecap:butt;stroke-linejoin:miter;stroke-opacity:1" d="M 123.105,987.842 130.447,991.921 z" id="boundary" inkscape:connector-curvature="0" />
	<path style="fill:none;stroke:red;stroke-width:1px;stroke-linecap:butt;stroke-linejoin:miter;stroke-opacity:1" d="M 138.605,991.921 130.447,991.921 z" id="boundary" inkscape:connector-curvature="0" />
	<path style="fill:none;stroke:red;stroke-width:1px;stroke-linecap:butt;stroke-linejoin:miter;stroke-opacity:1" d="M 138.605,991.921 145.947,996 z" id="boundary" inkscape:connector-curvature="0" />
	<path style="fill:none;stroke:red;stroke-width:1px;stroke-linecap:butt;stroke-linejoin:miter;stroke-opacity:1" d="M 154.105,996 145.947,996 z" id="boundary" inkscape:connector-curvature="0" />
	<path style="fill:none;stroke:red;stroke-width:1px;stroke-linecap:butt;stroke-linejoin:miter;stroke-opacity:1" d="M 169.605,991.921 162.263,996 z" id="boundary" inkscape:connector-curvature="0" />
	<path style="fill:none;stroke:red;stroke-width:1px;stroke-linecap:butt;stroke-linejoin:miter;stroke-opacity:1" d="M 162.263,996 154.105,996 z" id="boundary" inkscape:connector-curvature="0" />
	<path style="fill:none;stroke:red;stroke-width:1px;stroke-linecap:butt;stroke-linejoin:miter;stroke-opacity:1" d="M 163.895,775.737 163.895,783.895 z" id="boundary" inkscape:connector-curvature="0" />
	<path style="fill:none;stroke:red;stroke-width:1px;stroke-linecap:butt;stroke-linejoin:miter;stroke-opacity:1" d="M 163.895,775.737 163.895,767.579 z" id="boundary" inkscape:connector-curvature="0" />
	<path style="fill:none;stroke:red;stroke-width:1px;stroke-linecap:butt;stroke-linejoin:miter;stroke-opacity:1" d="M 163.895,792.053 163.895,800.211 z" id="boundary" inkscape:connector-curvature="0" />
	<path style="fill:none;stroke:red;stroke-width:1px;stroke-linecap:butt;stroke-linejoin:miter;stroke-opacity:1" d="M 163.895,792.053 163.895,783.895 z" id="boundary" inkscape:connector-curvature="0" />
	<path style="fill:none;stroke:red;stroke-width:1px;stroke-linecap:butt;stroke-linejoin:miter;stroke-opacity:1" d="M 163.895,808.368 165.526,816.526 z" id="boundary" inkscape:connector-curvature="0" />
	<path style="fill:none;stroke:red;stroke-width:1px;stroke-linecap:butt;stroke-linejoin:miter;stroke-opacity:1" d="M 163.895,808.368 163.895,800.211 z" id="boundary" inkscape:connector-curvature="0" />
	<path style="fill:none;stroke:red;stroke-width:1px;stroke-linecap:butt;stroke-linejoin:miter;stroke-opacity:1" d="M 167.974,824.684 165.526,816.526 z" id="boundary" inkscape:connector-curvature="0" />
	<path style="fill:none;stroke:red;stroke-width:1px;stroke-linecap:butt;stroke-linejoin:miter;stroke-opacity:1" d="M 167.974,824.684 167.974,832.842 z" id="boundary" inkscape:connector-curvature="0" />
	<path style="fill:none;stroke:red;stroke-width:1px;stroke-linecap:butt;stroke-linejoin:miter;stroke-opacity:1" d="M 172.053,604.421 172.053,596.263 z" id="boundary" inkscape:connector-curvature="0" />
	<path style="fill:none;stroke:red;stroke-width:1px;stroke-linecap:butt;stroke-linejoin:miter;stroke-opacity:1" d="M 172.053,596.263 176.132,584.026 z" id="boundary" inkscape:connector-curvature="0" />
	<path style="fill:none;stroke:red;stroke-width:1px;stroke-linecap:butt;stroke-linejoin:miter;stroke-opacity:1" d="M 172.053,620.737 172.053,612.579 z" id="boundary" inkscape:connector-curvature="0" />
	<path style="fill:none;stroke:red;stroke-width:1px;stroke-linecap:butt;stroke-linejoin:miter;stroke-opacity:1" d="M 172.053,612.579 172.053,604.421 z" id="boundary" inkscape:connector-curvature="0" />
	<path style="fill:none;stroke:red;stroke-width:1px;stroke-linecap:butt;stroke-linejoin:miter;stroke-opacity:1" d="M 167.974,832.842 167.974,841 z" id="boundary" inkscape:connector-curvature="0" />
	<path style="fill:none;stroke:red;stroke-width:1px;stroke-linecap:butt;stroke-linejoin:miter;stroke-opacity:1" d="M 167.974,849.158 172.053,856.5 z" id="boundary" inkscape:connector-curvature="0" />
	<path style="fill:none;stroke:red;stroke-width:1px;stroke-linecap:butt;stroke-linejoin:miter;stroke-opacity:1" d="M 172.053,856.5 172.053,864.658 z" id="boundary" inkscape:connector-curvature="0" />
	<path style="fill:none;stroke:red;stroke-width:1px;stroke-linecap:butt;stroke-linejoin:miter;stroke-opacity:1" d="M 167.974,849.158 167.974,841 z" id="boundary" inkscape:connector-curvature="0" />
	<path style="fill:none;stroke:red;stroke-width:1px;stroke-linecap:butt;stroke-linejoin:miter;stroke-opacity:1" d="M 180.211,535.079 180.211,543.237 z" id="boundary" inkscape:connector-curvature="0" />
	<path style="fill:none;stroke:red;stroke-width:1px;stroke-linecap:butt;stroke-linejoin:miter;stroke-opacity:1" d="M 180.211,535.079 180.211,526.921 z" id="boundary" inkscape:connector-curvature="0" />
	<path style="fill:none;stroke:red;stroke-width:1px;stroke-linecap:butt;stroke-linejoin:miter;stroke-opacity:1" d="M 180.211,543.237 180.211,551.395 z" id="boundary" inkscape:connector-curvature="0" />
	<path style="fill:none;stroke:red;stroke-width:1px;stroke-linecap:butt;stroke-linejoin:miter;stroke-opacity:1" d="M 180.211,551.395 176.132,559.553 z" id="boundary" inkscape:connector-curvature="0" />
	<path style="fill:none;stroke:red;stroke-width:1px;stroke-linecap:butt;stroke-linejoin:miter;stroke-opacity:1" d="M 176.132,567.711 176.132,575.868 z" id="boundary" inkscape:connector-curvature="0" />
	<path style="fill:none;stroke:red;stroke-width:1px;stroke-linecap:butt;stroke-linejoin:miter;stroke-opacity:1" d="M 176.132,567.711 176.132,559.553 z" id="boundary" inkscape:connector-curvature="0" />
	<path style="fill:none;stroke:red;stroke-width:1px;stroke-linecap:butt;stroke-linejoin:miter;stroke-opacity:1" d="M 176.132,575.868 176.132,584.026 z" id="boundary" inkscape:connector-curvature="0" />
	<path style="fill:none;stroke:red;stroke-width:1px;stroke-linecap:butt;stroke-linejoin:miter;stroke-opacity:1" d="M 172.053,864.658 176.132,872 z" id="boundary" inkscape:connector-curvature="0" />
	<path style="fill:none;stroke:red;stroke-width:1px;stroke-linecap:butt;stroke-linejoin:miter;stroke-opacity:1" d="M 176.132,872 176.132,880.158 z" id="boundary" inkscape:connector-curvature="0" />
	<path style="fill:none;stroke:red;stroke-width:1px;stroke-linecap:butt;stroke-linejoin:miter;stroke-opacity:1" d="M 176.132,880.158 176.132,888.316 z" id="boundary" inkscape:connector-curvature="0" />
	<path style="fill:none;stroke:red;stroke-width:1px;stroke-linecap:butt;stroke-linejoin:miter;stroke-opacity:1" d="M 180.211,895.658 176.132,888.316 z" id="boundary" inkscape:connector-curvature="0" />
	<path style="fill:none;stroke:red;stroke-width:1px;stroke-linecap:butt;stroke-linejoin:miter;stroke-opacity:1" d="M 176.947,987.842 169.605,991.921 z" id="boundary" inkscape:connector-curvature="0" />
	<path style="fill:none;stroke:red;stroke-width:1px;stroke-linecap:butt;stroke-linejoin:miter;stroke-opacity:1" d="M 180.211,903.816 180.211,895.658 z" id="boundary" inkscape:connector-curvature="0" />
	<path style="fill:none;stroke:red;stroke-width:1px;stroke-linecap:butt;stroke-linejoin:miter;stroke-opacity:1" d="M 184.289,911.158 180.211,903.816 z" id="boundary" inkscape:connector-curvature="0" />
	<path style="fill:none;stroke:red;stroke-width:1px;stroke-linecap:butt;stroke-linejoin:miter;stroke-opacity:1" d="M 188.368,934.816 190,942.974 z" id="boundary" inkscape:connector-curvature="0" />
	<path style="fill:none;stroke:red;stroke-width:1px;stroke-linecap:butt;stroke-linejoin:miter;stroke-opacity:1" d="M 184.289,919.316 184.289,911.158 z" id="boundary" inkscape:connector-curvature="0" />
	<path style="fill:none;stroke:red;stroke-width:1px;stroke-linecap:butt;stroke-linejoin:miter;stroke-opacity:1" d="M 188.368,926.658 184.289,919.316 z" id="boundary" inkscape:connector-curvature="0" />
	<path style="fill:none;stroke:red;stroke-width:1px;stroke-linecap:butt;stroke-linejoin:miter;stroke-opacity:1" d="M 188.368,926.658 188.368,934.816 z" id="boundary" inkscape:connector-curvature="0" />
	<path style="fill:none;stroke:red;stroke-width:1px;stroke-linecap:butt;stroke-linejoin:miter;stroke-opacity:1" d="M 183.474,981.316 176.947,987.842 z" id="boundary" inkscape:connector-curvature="0" />
	<path style="fill:none;stroke:red;stroke-width:1px;stroke-linecap:butt;stroke-linejoin:miter;stroke-opacity:1" d="M 188.368,971.526 183.474,981.316 z" id="boundary" inkscape:connector-curvature="0" />
	<path style="fill:none;stroke:red;stroke-width:1px;stroke-linecap:butt;stroke-linejoin:miter;stroke-opacity:1" d="M 190,942.974 192.447,951.132 z" id="boundary" inkscape:connector-curvature="0" />
	<path style="fill:none;stroke:red;stroke-width:1px;stroke-linecap:butt;stroke-linejoin:miter;stroke-opacity:1" d="M 192.447,951.132 192.447,959.289 z" id="boundary" inkscape:connector-curvature="0" />
	<path style="fill:none;stroke:red;stroke-width:1px;stroke-linecap:butt;stroke-linejoin:miter;stroke-opacity:1" d="M 192.447,959.289 188.368,971.526 z" id="boundary" inkscape:connector-curvature="0" />
	<circle cx="4" cy="756.974" r="4" fill="#0" id="circle0"/>
	<circle cx="4" cy="765.132" r="4" fill="#0" id="circle1"/>
	<circle cx="4" cy="773.289" r="4" fill="#0" id="circle2"/>
	<circle cx="4" cy="781.447" r="4" fill="#0" id="circle3"/>
	<circle cx="4" cy="789.605" r="4" fill="#0" id="circle4"/>
	<circle cx="4" cy="797.763" r="4" fill="#0" id="circle5"/>
	<circle cx="4" cy="805.921" r="4" fill="#0" id="circle6"/>
	<circle cx="4" cy="814.079" r="4" fill="#0" id="circle7"/>
	<circle cx="4" cy="822.237" r="4" fill="#0" id="circle8"/>
	<circle cx="4" cy="830.395" r="4" fill="#0" id="circle9"/>
	<circle cx="4" cy="838.553" r="4" fill="#0" id="circle10"/>
	<circle cx="8.07895" cy="736.579" r="4" fill="#0" id="circle11"/>
	<circle cx="8.07895" cy="744.737" r="4" fill="#0" id="circle12"/>
	<circle cx="8.07895" cy="845.895" r="4" fill="#0" id="circle13"/>
	<circle cx="8.07895" cy="854.053" r="4" fill="#0" id="circle14"/>
	<circle cx="12.1579" cy="720.263" r="4" fill="#0" id="circle15"/>
	<circle cx="12.1579" cy="728.421" r="4" fill="#0" id="circle16"/>
	<circle cx="12.1579" cy="861.395" r="4" fill="#0" id="circle17"/>
	<circle cx="12.1579" cy="869.553" r="4" fill="#0" id="circle18"/>
	<circle cx="14.6053" cy="877.711" r="4" fill="#0" id="circle19"/>
	<circle cx="16.2368" cy="699.868" r="4" fill="#0" id="circle20"/>
	<circle cx="16.2368" cy="708.026" r="4" fill="#0" id="circle21"/>
	<circle cx="16.2368" cy="885.868" r="4" fill="#0" id="circle22"/>
	<circle cx="18.6842" cy="894.026" r="4" fill="#0" id="circle23"/>
	<circle cx="20.3158" cy="683.553" r="4" fill="#0" id="circle24"/>
	<circle cx="20.3158" cy="691.711" r="4" fill="#0" id="circle25"/>
	<circle cx="22.7632" cy="901.368" r="4" fill="#0" id="circle26"/>
	<circle cx="24.3947" cy="675.395" r="4" fill="#0" id="circle27"/>
	<circle cx="28.4737" cy="663.158" r="4" fill="#0" id="circle28"/>
	<circle cx="28.4737" cy="907.895" r="4" fill="#0" id="circle29"/>
	<circle cx="32.5526" cy="655" r="4" fill="#0" id="circle30"/>
	<circle cx="32.5526" cy="915.237" r="4" fill="#0" id="circle31"/>
	<circle cx="36.6316" cy="646.842" r="4" fill="#0" id="circle32"/>
	<circle cx="38.2632" cy="921.763" r="4" fill="#0" id="circle33"/>
	<circle cx="40.7105" cy="30.9211" r="4" fill="#0" id="circle34"/>
	<circle cx="40.7105" cy="39.0789" r="4" fill="#0" id="circle35"/>
	<circle cx="40.7105" cy="47.2368" r="4" fill="#0" id="circle36"/>
	<circle cx="40.7105" cy="55.3947" r="4" fill="#0" id="circle37"/>
	<circle cx="40.7105" cy="638.684" r="4" fill="#0" id="circle38"/>
	<circle cx="44.7895" cy="22.7632" r="4" fill="#0" id="circle39"/>
	<circle cx="44.7895" cy="62.7368" r="4" fill="#0" id="circle40"/>
	<circle cx="44.7895" cy="926.658" r="4" fill="#0" id="circle41"/>
	<circle cx="47.2368" cy="632.158" r="4" fill="#0" id="circle42"/>
	<circle cx="47.2368" cy="934.816" r="4" fill="#0" id="circle43"/>
	<circle cx="50.5" cy="69.2632" r="4" fill="#0" id="circle44"/>
	<circle cx="51.3158" cy="16.2368" r="4" fill="#0" id="circle45"/>
	<circle cx="53.7632" cy="625.632" r="4" fill="#0" id="circle46"/>
	<circle cx="53.7632" cy="940.526" r="4" fill="#0" id="circle47"/>
	<circle cx="57.0263" cy="74.1579" r="4" fill="#0" id="circle48"/>
	<circle cx="57.0263" cy="82.3158" r="4" fill="#0" id="circle49"/>
	<circle cx="57.8421" cy="9.71053" r="4" fill="#0" id="circle50"/>
	<circle cx="59.4737" cy="947.053" r="4" fill="#0" id="circle51"/>
	<circle cx="60.2895" cy="619.921" r="4" fill="#0" id="circle52"/>
	<circle cx="61.1053" cy="89.6579" r="4" fill="#0" id="circle53"/>
	<circle cx="61.1053" cy="97.8158" r="4" fill="#0" id="circle54"/>
	<circle cx="65.1842" cy="105.158" r="4" fill="#0" id="circle55"/>
	<circle cx="65.1842" cy="113.316" r="4" fill="#0" id="circle56"/>
	<circle cx="65.1842" cy="610.132" r="4" fill="#0" id="circle57"/>
	<circle cx="66" cy="5.63158" r="4" fill="#0" id="circle58"/>
	<circle cx="66" cy="121.474" r="4" fill="#0" id="circle59"/>
	<circle cx="66" cy="952.763" r="4" fill="#0" id="circle60"/>
	<circle cx="69.2632" cy="129.632" r="4" fill="#0" id="circle61"/>
	<circle cx="70.0789" cy="137.789" r="4" fill="#0" id="circle62"/>
	<circle cx="71.7105" cy="603.605" r="4" fill="#0" id="circle63"/>
	<circle cx="71.7105" cy="959.289" r="4" fill="#0" id="circle64"/>
	<circle cx="73.3421" cy="145.947" r="4" fill="#0" id="circle65"/>
	<circle cx="73.3421" cy="154.105" r="4" fill="#0" id="circle66"/>
	<circle cx="74.1579" cy="4" r="4" fill="#0" id="circle67"/>
	<circle cx="77.4211" cy="161.447" r="4" fill="#0" id="circle68"/>
	<circle cx="77.4211" cy="169.605" r="4" fill="#0" id="circle69"/>
	<circle cx="78.2368" cy="597.079" r="4" fill="#0" id="circle70"/>
	<circle cx="79.8684" cy="962.553" r="4" fill="#0" id="circle71"/>
	<circle cx="81.5" cy="176.947" r="4" fill="#0" id="circle72"/>
	<circle cx="81.5" cy="185.105" r="4" fill="#0" id="circle73"/>
	<circle cx="81.5" cy="193.263" r="4" fill="#0" id="circle74"/>
	<circle cx="82.3158" cy="4" r="4" fill="#0" id="circle75"/>
	<circle cx="84.7632" cy="591.368" r="4" fill="#0" id="circle76"/>
	<circle cx="85.5789" cy="200.605" r="4" fill="#0" id="circle77"/>
	<circle cx="85.5789" cy="208.763" r="4" fill="#0" id="circle78"/>
	<circle cx="85.5789" cy="969.079" r="4" fill="#0" id="circle79"/>
	<circle cx="88.0263" cy="216.921" r="4" fill="#0" id="circle80"/>
	<circle cx="89.6579" cy="225.079" r="4" fill="#0" id="circle81"/>
	<circle cx="89.6579" cy="233.237" r="4" fill="#0" id="circle82"/>
	<circle cx="89.6579" cy="241.395" r="4" fill="#0" id="circle83"/>
	<circle cx="89.6579" cy="249.553" r="4" fill="#0" id="circle84"/>
	<circle cx="90.4737" cy="4" r="4" fill="#0" id="circle85"/>
	<circle cx="90.4737" cy="584.842" r="4" fill="#0" id="circle86"/>
	<circle cx="93.7368" cy="256.895" r="4" fill="#0" id="circle87"/>
	<circle cx="93.7368" cy="265.053" r="4" fill="#0" id="circle88"/>
	<circle cx="93.7368" cy="273.211" r="4" fill="#0" id="circle89"/>
	<circle cx="93.7368" cy="281.368" r="4" fill="#0" id="circle90"/>
	<circle cx="93.7368" cy="971.526" r="4" fill="#0" id="circle91"/>
	<circle cx="95.3684" cy="289.526" r="4" fill="#0" id="circle92"/>
	<circle cx="97.8158" cy="8.07895" r="4" fill="#0" id="circle93"/>
	<circle cx="97.8158" cy="297.684" r="4" fill="#0" id="circle94"/>
	<circle cx="97.8158" cy="305.842" r="4" fill="#0" id="circle95"/>
	<circle cx="97.8158" cy="314" r="4" fill="#0" id="circle96"/>
	<circle cx="97.8158" cy="322.158" r="4" fill="#0" id="circle97"/>
	<circle cx="97.8158" cy="548.947" r="4" fill="#0" id="circle98"/>
	<circle cx="97.8158" cy="557.105" r="4" fill="#0" id="circle99"/>
	<circle cx="97.8158" cy="565.263" r="4" fill="#0" id="circle100"/>
	<circle cx="97.8158" cy="573.421" r="4" fill="#0" id="circle101"/>
	<circle cx="99.4474" cy="330.316" r="4" fill="#0" id="circle102"/>
	<circle cx="101.079" cy="975.605" r="4" fill="#0" id="circle103"/>
	<circle cx="101.895" cy="338.474" r="4" fill="#0" id="circle104"/>
	<circle cx="101.895" cy="346.632" r="4" fill="#0" id="circle105"/>
	<circle cx="101.895" cy="354.789" r="4" fill="#0" id="circle106"/>
	<circle cx="101.895" cy="362.947" r="4" fill="#0" id="circle107"/>
	<circle cx="101.895" cy="512.237" r="4" fill="#0" id="circle108"/>
	<circle cx="101.895" cy="520.395" r="4" fill="#0" id="circle109"/>
	<circle cx="101.895" cy="528.553" r="4" fill="#0" id="circle110"/>
	<circle cx="101.895" cy="536.711" r="4" fill="#0" id="circle111"/>
	<circle cx="104.342" cy="12.9737" r="4" fill="#0" id="circle112"/>
	<circle cx="105.974" cy="370.289" r="4" fill="#0" id="circle113"/>
	<circle cx="105.974" cy="378.447" r="4" fill="#0" id="circle114"/>
	<circle cx="105.974" cy="386.605" r="4" fill="#0" id="circle115"/>
	<circle cx="105.974" cy="394.763" r="4" fill="#0" id="circle116"/>
	<circle cx="105.974" cy="402.921" r="4" fill="#0" id="circle117"/>
	<circle cx="105.974" cy="411.079" r="4" fill="#0" id="circle118"/>
	<circle cx="105.974" cy="419.237" r="4" fill="#0" id="circle119"/>
	<circle cx="105.974" cy="427.395" r="4" fill="#0" id="circle120"/>
	<circle cx="105.974" cy="435.553" r="4" fill="#0" id="circle121"/>
	<circle cx="105.974" cy="443.711" r="4" fill="#0" id="circle122"/>
	<circle cx="105.974" cy="451.868" r="4" fill="#0" id="circle123"/>
	<circle cx="105.974" cy="460.026" r="4" fill="#0" id="circle124"/>
	<circle cx="105.974" cy="468.184" r="4" fill="#0" id="circle125"/>
	<circle cx="105.974" cy="476.342" r="4" fill="#0" id="circle126"/>
	<circle cx="105.974" cy="484.5" r="4" fill="#0" id="circle127"/>
	<circle cx="105.974" cy="492.658" r="4" fill="#0" id="circle128"/>
	<circle cx="105.974" cy="500.816" r="4" fill="#0" id="circle129"/>
	<circle cx="108.421" cy="979.684" r="4" fill="#0" id="circle130"/>
	<circle cx="110.868" cy="18.6842" r="4" fill="#0" id="circle131"/>
	<circle cx="115.763" cy="983.763" r="4" fill="#0" id="circle132"/>
	<circle cx="116.579" cy="25.2105" r="4" fill="#0" id="circle133"/>
	<circle cx="123.105" cy="30.9211" r="4" fill="#0" id="circle134"/>
	<circle cx="123.105" cy="987.842" r="4" fill="#0" id="circle135"/>
	<circle cx="127.184" cy="38.2632" r="4" fill="#0" id="circle136"/>
	<circle cx="130.447" cy="991.921" r="4" fill="#0" id="circle137"/>
	<circle cx="131.263" cy="45.6053" r="4" fill="#0" id="circle138"/>
	<circle cx="131.263" cy="53.7632" r="4" fill="#0" id="circle139"/>
	<circle cx="135.342" cy="61.1053" r="4" fill="#0" id="circle140"/>
	<circle cx="135.342" cy="69.2632" r="4" fill="#0" id="circle141"/>
	<circle cx="138.605" cy="991.921" r="4" fill="#0" id="circle142"/>
	<circle cx="139.421" cy="76.6053" r="4" fill="#0" id="circle143"/>
	<circle cx="139.421" cy="84.7632" r="4" fill="#0" id="circle144"/>
	<circle cx="139.421" cy="92.9211" r="4" fill="#0" id="circle145"/>
	<circle cx="143.5" cy="100.263" r="4" fill="#0" id="circle146"/>
	<circle cx="143.5" cy="108.421" r="4" fill="#0" id="circle147"/>
	<circle cx="145.947" cy="996" r="4" fill="#0" id="circle148"/>
	<circle cx="147.579" cy="115.763" r="4" fill="#0" id="circle149"/>
	<circle cx="147.579" cy="123.921" r="4" fill="#0" id="circle150"/>
	<circle cx="150.026" cy="132.079" r="4" fill="#0" id="circle151"/>
	<circle cx="151.658" cy="140.237" r="4" fill="#0" id="circle152"/>
	<circle cx="154.105" cy="148.395" r="4" fill="#0" id="circle153"/>
	<circle cx="154.105" cy="996" r="4" fill="#0" id="circle154"/>
	<circle cx="155.737" cy="156.553" r="4" fill="#0" id="circle155"/>
	<circle cx="155.737" cy="164.711" r="4" fill="#0" id="circle156"/>
	<circle cx="159.816" cy="172.053" r="4" fill="#0" id="circle157"/>
	<circle cx="159.816" cy="180.211" r="4" fill="#0" id="circle158"/>
	<circle cx="161.447" cy="188.368" r="4" fill="#0" id="circle159"/>
	<circle cx="162.263" cy="996" r="4" fill="#0" id="circle160"/>
	<circle cx="163.895" cy="196.526" r="4" fill="#0" id="circle161"/>
	<circle cx="163.895" cy="669.684" r="4" fill="#0" id="circle162"/>
	<circle cx="163.895" cy="677.842" r="4" fill="#0" id="circle163"/>
	<circle cx="163.895" cy="686" r="4" fill="#0" id="circle164"/>
	<circle cx="163.895" cy="694.158" r="4" fill="#0" id="circle165"/>
	<circle cx="163.895" cy="702.316" r="4" fill="#0" id="circle166"/>
	<circle cx="163.895" cy="710.474" r="4" fill="#0" id="circle167"/>
	<circle cx="163.895" cy="718.632" r="4" fill="#0" id="circle168"/>
	<circle cx="163.895" cy="726.789" r="4" fill="#0" id="circle169"/>
	<circle cx="163.895" cy="734.947" r="4" fill="#0" id="circle170"/>
	<circle cx="163.895" cy="743.105" r="4" fill="#0" id="circle171"/>
	<circle cx="163.895" cy="751.263" r="4" fill="#0" id="circle172"/>
	<circle cx="163.895" cy="759.421" r="4" fill="#0" id="circle173"/>
	<circle cx="163.895" cy="767.579" r="4" fill="#0" id="circle174"/>
	<circle cx="163.895" cy="775.737" r="4" fill="#0" id="circle175"/>
	<circle cx="163.895" cy="783.895" r="4" fill="#0" id="circle176"/>
	<circle cx="163.895" cy="792.053" r="4" fill="#0" id="circle177"/>
	<circle cx="163.895" cy="800.211" r="4" fill="#0" id="circle178"/>
	<circle cx="163.895" cy="808.368" r="4" fill="#0" id="circle179"/>
	<circle cx="165.526" cy="204.684" r="4" fill="#0" id="circle180"/>
	<circle cx="165.526" cy="816.526" r="4" fill="#0" id="circle181"/>
	<circle cx="167.974" cy="212.842" r="4" fill="#0" id="circle182"/>
	<circle cx="167.974" cy="221" r="4" fill="#0" id="circle183"/>
	<circle cx="167.974" cy="229.158" r="4" fill="#0" id="circle184"/>
	<circle cx="167.974" cy="237.316" r="4" fill="#0" id="circle185"/>
	<circle cx="167.974" cy="632.974" r="4" fill="#0" id="circle186"/>
	<circle cx="167.974" cy="641.132" r="4" fill="#0" id="circle187"/>
	<circle cx="167.974" cy="649.289" r="4" fill="#0" id="circle188"/>
	<circle cx="167.974" cy="657.447" r="4" fill="#0" id="circle189"/>
	<circle cx="167.974" cy="824.684" r="4" fill="#0" id="circle190"/>
	<circle cx="167.974" cy="832.842" r="4" fill="#0" id="circle191"/>
	<circle cx="167.974" cy="841" r="4" fill="#0" id="circle192"/>
	<circle cx="167.974" cy="849.158" r="4" fill="#0" id="circle193"/>
	<circle cx="169.605" cy="991.921" r="4" fill="#0" id="circle194"/>
	<circle cx="172.053" cy="244.658" r="4" fill="#0" id="circle195"/>
	<circle cx="172.053" cy="252.816" r="4" fill="#0" id="circle196"/>
	<circle cx="172.053" cy="260.974" r="4" fill="#0" id="circle197"/>
	<circle cx="172.053" cy="269.132" r="4" fill="#0" id="circle198"/>
	<circle cx="172.053" cy="277.289" r="4" fill="#0" id="circle199"/>
	<circle cx="172.053" cy="596.263" r="4" fill="#0" id="circle200"/>
	<circle cx="172.053" cy="604.421" r="4" fill="#0" id="circle201"/>
	<circle cx="172.053" cy="612.579" r="4" fill="#0" id="circle202"/>
	<circle cx="172.053" cy="620.737" r="4" fill="#0" id="circle203"/>
	<circle cx="172.053" cy="856.5" r="4" fill="#0" id="circle204"/>
	<circle cx="172.053" cy="864.658" r="4" fill="#0" id="circle205"/>
	<circle cx="176.132" cy="284.632" r="4" fill="#0" id="circle206"/>
	<circle cx="176.132" cy="292.789" r="4" fill="#0" id="circle207"/>
	<circle cx="176.132" cy="300.947" r="4" fill="#0" id="circle208"/>
	<circle cx="176.132" cy="309.105" r="4" fill="#0" id="circle209"/>
	<circle cx="176.132" cy="317.263" r="4" fill="#0" id="circle210"/>
	<circle cx="176.132" cy="559.553" r="4" fill="#0" id="circle211"/>
	<circle cx="176.132" cy="567.711" r="4" fill="#0" id="circle212"/>
	<circle cx="176.132" cy="575.868" r="4" fill="#0" id="circle213"/>
	<circle cx="176.132" cy="584.026" r="4" fill="#0" id="circle214"/>
	<circle cx="176.132" cy="872" r="4" fill="#0" id="circle215"/>
	<circle cx="176.132" cy="880.158" r="4" fill="#0" id="circle216"/>
	<circle cx="176.132" cy="888.316" r="4" fill="#0" id="circle217"/>
	<circle cx="176.947" cy="987.842" r="4" fill="#0" id="circle218"/>
	<circle cx="180.211" cy="324.605" r="4" fill="#0" id="circle219"/>
	<circle cx="180.211" cy="332.763" r="4" fill="#0" id="circle220"/>
	<circle cx="180.211" cy="340.921" r="4" fill="#0" id="circle221"/>
	<circle cx="180.211" cy="349.079" r="4" fill="#0" id="circle222"/>
	<circle cx="180.211" cy="518.763" r="4" fill="#0" id="circle223"/>
	<circle cx="180.211" cy="526.921" r="4" fill="#0" id="circle224"/>
	<circle cx="180.211" cy="535.079" r="4" fill="#0" id="circle225"/>
	<circle cx="180.211" cy="543.237" r="4" fill="#0" id="circle226"/>
	<circle cx="180.211" cy="551.395" r="4" fill="#0" id="circle227"/>
	<circle cx="180.211" cy="895.658" r="4" fill="#0" id="circle228"/>
	<circle cx="180.211" cy="903.816" r="4" fill="#0" id="circle229"/>
	<circle cx="183.474" cy="357.237" r="4" fill="#0" id="circle230"/>
	<circle cx="183.474" cy="981.316" r="4" fill="#0" id="circle231"/>
	<circle cx="184.289" cy="365.395" r="4" fill="#0" id="circle232"/>
	<circle cx="184.289" cy="373.553" r="4" fill="#0" id="circle233"/>
	<circle cx="184.289" cy="381.711" r="4" fill="#0" id="circle234"/>
	<circle cx="184.289" cy="389.868" r="4" fill="#0" id="circle235"/>
	<circle cx="184.289" cy="398.026" r="4" fill="#0" id="circle236"/>
	<circle cx="184.289" cy="406.184" r="4" fill="#0" id="circle237"/>
	<circle cx="184.289" cy="414.342" r="4" fill="#0" id="circle238"/>
	<circle cx="184.289" cy="422.5" r="4" fill="#0" id="circle239"/>
	<circle cx="184.289" cy="430.658" r="4" fill="#0" id="circle240"/>
	<circle cx="184.289" cy="438.816" r="4" fill="#0" id="circle241"/>
	<circle cx="184.289" cy="446.974" r="4" fill="#0" id="circle242"/>
	<circle cx="184.289" cy="455.132" r="4" fill="#0" id="circle243"/>
	<circle cx="184.289" cy="463.289" r="4" fill="#0" id="circle244"/>
	<circle cx="184.289" cy="471.447" r="4" fill="#0" id="circle245"/>
	<circle cx="184.289" cy="479.605" r="4" fill="#0" id="circle246"/>
	<circle cx="184.289" cy="487.763" r="4" fill="#0" id="circle247"/>
	<circle cx="184.289" cy="495.921" r="4" fill="#0" id="circle248"/>
	<circle cx="184.289" cy="504.079" r="4" fill="#0" id="circle249"/>
	<circle cx="184.289" cy="911.158" r="4" fill="#0" id="circle250"/>
	<circle cx="184.289" cy="919.316" r="4" fill="#0" id="circle251"/>
	<circle cx="188.368" cy="926.658" r="4" fill="#0" id="circle252"/>
	<circle cx="188.368" cy="934.816" r="4" fill="#0" id="circle253"/>
	<circle cx="188.368" cy="971.526" r="4" fill="#0" id="circle254"/>
	<circle cx="190" cy="942.974" r="4" fill="#0" id="circle255"/>
	<circle cx="192.447" cy="951.132" r="4" fill="#0" id="circle256"/>
	<circle cx="192.447" cy="959.289" r="4" fill="#0" id="circle257"/>
	</g>
</svg>