<?xml version="1.0" encoding="UTF-8" standalone="no"?>
<!-- Created with CurveBenchmark -->
<svg
	xmlns:dc="http://purl.org/dc/elements/1.1/"
	xmlns:cc="http://creativecommons.org/ns#"
	xmlns:rdf="http://www.w3.org/1999/02/22-rdf-syntax-ns#"
	xmlns:svg="http://www.w3.org/2000/svg"
	xmlns="http://www.w3.org/2000/svg"
	xmlns:sodipodi="http://sodipodi.sourceforge.net/DTD/sodipodi-0.dtd"
	xmlns:inkscape="http://www.inkscape.org/namespaces/inkscape"
	width="1000"
	height="1000"
	id="svg2"
	version="1.1"
	sodipodi:docname="manifold/gathang-woodenspoonbinary30.png.txt">
<defs
	id="defs4" />
<metadata
	id="metadata7">
	<rdf:RDF>
		<cc:Work
			rdf:about="">
			<dc:format>image/svg+xml</dc:format>
			<dc:type
				rdf:resource="http://purl.org/dc/dcmitype/StillImage" />
			<dc:title></dc:title>
		</cc:Work>
	</rdf:RDF>
</metadata>
<g
	inkscape:label="Layer 1"
	inkscape:groupmode="layer"
	id="layer1">
	<path style="fill:none;stroke:red;stroke-width:1px;stroke-linecap:butt;stroke-linejoin:miter;stroke-opacity:1" d="M 30.1719,23.4179 36.926,18.3523 z" id="boundary" inkscape:connector-curvature="0" />
	<path style="fill:none;stroke:red;stroke-width:1px;stroke-linecap:butt;stroke-linejoin:miter;stroke-opacity:1" d="M 44.5243,13.2868 52.9668,9.90979 z" id="boundary" inkscape:connector-curvature="0" />
	<path style="fill:none;stroke:red;stroke-width:1px;stroke-linecap:butt;stroke-linejoin:miter;stroke-opacity:1" d="M 36.926,18.3523 44.5243,13.2868 z" id="boundary" inkscape:connector-curvature="0" />
	<path style="fill:none;stroke:red;stroke-width:1px;stroke-linecap:butt;stroke-linejoin:miter;stroke-opacity:1" d="M 6.53277,61.4094 9.06553,52.9668 z" id="boundary" inkscape:connector-curvature="0" />
	<path style="fill:none;stroke:red;stroke-width:1px;stroke-linecap:butt;stroke-linejoin:miter;stroke-opacity:1" d="M 9.06553,52.9668 13.2868,44.5243 z" id="boundary" inkscape:connector-curvature="0" />
	<path style="fill:none;stroke:red;stroke-width:1px;stroke-linecap:butt;stroke-linejoin:miter;stroke-opacity:1" d="M 23.4179,30.1719 30.1719,23.4179 z" id="boundary" inkscape:connector-curvature="0" />
	<path style="fill:none;stroke:red;stroke-width:1px;stroke-linecap:butt;stroke-linejoin:miter;stroke-opacity:1" d="M 18.3523,36.926 23.4179,30.1719 z" id="boundary" inkscape:connector-curvature="0" />
	<path style="fill:none;stroke:red;stroke-width:1px;stroke-linecap:butt;stroke-linejoin:miter;stroke-opacity:1" d="M 13.2868,44.5243 18.3523,36.926 z" id="boundary" inkscape:connector-curvature="0" />
	<path style="fill:none;stroke:red;stroke-width:1px;stroke-linecap:butt;stroke-linejoin:miter;stroke-opacity:1" d="M 52.9668,9.90979 61.4094,7.37702 z" id="boundary" inkscape:connector-curvature="0" />
	<path style="fill:none;stroke:red;stroke-width:1px;stroke-linecap:butt;stroke-linejoin:miter;stroke-opacity:1" d="M 86.737,4 95.1796,4 z" id="boundary" inkscape:connector-curvature="0" />
	<path style="fill:none;stroke:red;stroke-width:1px;stroke-linecap:butt;stroke-linejoin:miter;stroke-opacity:1" d="M 78.2945,4.84426 86.737,4 z" id="boundary" inkscape:connector-curvature="0" />
	<path style="fill:none;stroke:red;stroke-width:1px;stroke-linecap:butt;stroke-linejoin:miter;stroke-opacity:1" d="M 103.622,4 112.065,5.68851 z" id="boundary" inkscape:connector-curvature="0" />
	<path style="fill:none;stroke:red;stroke-width:1px;stroke-linecap:butt;stroke-linejoin:miter;stroke-opacity:1" d="M 95.1796,4 103.622,4 z" id="boundary" inkscape:connector-curvature="0" />
	<path style="fill:none;stroke:red;stroke-width:1px;stroke-linecap:butt;stroke-linejoin:miter;stroke-opacity:1" d="M 69.8519,5.68851 78.2945,4.84426 z" id="boundary" inkscape:connector-curvature="0" />
	<path style="fill:none;stroke:red;stroke-width:1px;stroke-linecap:butt;stroke-linejoin:miter;stroke-opacity:1" d="M 120.507,6.53277 128.95,9.06553 z" id="boundary" inkscape:connector-curvature="0" />
	<path style="fill:none;stroke:red;stroke-width:1px;stroke-linecap:butt;stroke-linejoin:miter;stroke-opacity:1" d="M 112.065,5.68851 120.507,6.53277 z" id="boundary" inkscape:connector-curvature="0" />
	<path style="fill:none;stroke:red;stroke-width:1px;stroke-linecap:butt;stroke-linejoin:miter;stroke-opacity:1" d="M 61.4094,7.37702 69.8519,5.68851 z" id="boundary" inkscape:connector-curvature="0" />
	<path style="fill:none;stroke:red;stroke-width:1px;stroke-linecap:butt;stroke-linejoin:miter;stroke-opacity:1" d="M 128.95,9.06553 137.392,11.5983 z" id="boundary" inkscape:connector-curvature="0" />
	<path style="fill:none;stroke:red;stroke-width:1px;stroke-linecap:butt;stroke-linejoin:miter;stroke-opacity:1" d="M 4.84426,98.5566 4,90.114 z" id="boundary" inkscape:connector-curvature="0" />
	<path style="fill:none;stroke:red;stroke-width:1px;stroke-linecap:butt;stroke-linejoin:miter;stroke-opacity:1" d="M 4,90.114 4,81.6715 z" id="boundary" inkscape:connector-curvature="0" />
	<path style="fill:none;stroke:red;stroke-width:1px;stroke-linecap:butt;stroke-linejoin:miter;stroke-opacity:1" d="M 4,73.2289 6.53277,61.4094 z" id="boundary" inkscape:connector-curvature="0" />
	<path style="fill:none;stroke:red;stroke-width:1px;stroke-linecap:butt;stroke-linejoin:miter;stroke-opacity:1" d="M 4,81.6715 4,73.2289 z" id="boundary" inkscape:connector-curvature="0" />
	<path style="fill:none;stroke:red;stroke-width:1px;stroke-linecap:butt;stroke-linejoin:miter;stroke-opacity:1" d="M 5.68851,106.999 4.84426,98.5566 z" id="boundary" inkscape:connector-curvature="0" />
	<path style="fill:none;stroke:red;stroke-width:1px;stroke-linecap:butt;stroke-linejoin:miter;stroke-opacity:1" d="M 7.37702,115.442 5.68851,106.999 z" id="boundary" inkscape:connector-curvature="0" />
	<path style="fill:none;stroke:red;stroke-width:1px;stroke-linecap:butt;stroke-linejoin:miter;stroke-opacity:1" d="M 9.06553,123.884 11.5983,132.327 z" id="boundary" inkscape:connector-curvature="0" />
	<path style="fill:none;stroke:red;stroke-width:1px;stroke-linecap:butt;stroke-linejoin:miter;stroke-opacity:1" d="M 11.5983,132.327 12.4426,140.769 z" id="boundary" inkscape:connector-curvature="0" />
	<path style="fill:none;stroke:red;stroke-width:1px;stroke-linecap:butt;stroke-linejoin:miter;stroke-opacity:1" d="M 9.06553,123.884 7.37702,115.442 z" id="boundary" inkscape:connector-curvature="0" />
	<path style="fill:none;stroke:red;stroke-width:1px;stroke-linecap:butt;stroke-linejoin:miter;stroke-opacity:1" d="M 15.8196,149.212 12.4426,140.769 z" id="boundary" inkscape:connector-curvature="0" />
	<path style="fill:none;stroke:red;stroke-width:1px;stroke-linecap:butt;stroke-linejoin:miter;stroke-opacity:1" d="M 15.8196,149.212 19.1966,157.654 z" id="boundary" inkscape:connector-curvature="0" />
	<path style="fill:none;stroke:red;stroke-width:1px;stroke-linecap:butt;stroke-linejoin:miter;stroke-opacity:1" d="M 19.1966,157.654 21.7294,166.097 z" id="boundary" inkscape:connector-curvature="0" />
	<path style="fill:none;stroke:red;stroke-width:1px;stroke-linecap:butt;stroke-linejoin:miter;stroke-opacity:1" d="M 21.7294,166.097 25.9506,173.695 z" id="boundary" inkscape:connector-curvature="0" />
	<path style="fill:none;stroke:red;stroke-width:1px;stroke-linecap:butt;stroke-linejoin:miter;stroke-opacity:1" d="M 25.9506,173.695 29.3277,182.138 z" id="boundary" inkscape:connector-curvature="0" />
	<path style="fill:none;stroke:red;stroke-width:1px;stroke-linecap:butt;stroke-linejoin:miter;stroke-opacity:1" d="M 34.3932,188.892 29.3277,182.138 z" id="boundary" inkscape:connector-curvature="0" />
	<path style="fill:none;stroke:red;stroke-width:1px;stroke-linecap:butt;stroke-linejoin:miter;stroke-opacity:1" d="M 34.3932,188.892 38.6145,196.49 z" id="boundary" inkscape:connector-curvature="0" />
	<path style="fill:none;stroke:red;stroke-width:1px;stroke-linecap:butt;stroke-linejoin:miter;stroke-opacity:1" d="M 52.1226,218.441 47.057,211.687 z" id="boundary" inkscape:connector-curvature="0" />
	<path style="fill:none;stroke:red;stroke-width:1px;stroke-linecap:butt;stroke-linejoin:miter;stroke-opacity:1" d="M 47.057,211.687 42.8357,204.089 z" id="boundary" inkscape:connector-curvature="0" />
	<path style="fill:none;stroke:red;stroke-width:1px;stroke-linecap:butt;stroke-linejoin:miter;stroke-opacity:1" d="M 42.8357,204.089 38.6145,196.49 z" id="boundary" inkscape:connector-curvature="0" />
	<path style="fill:none;stroke:red;stroke-width:1px;stroke-linecap:butt;stroke-linejoin:miter;stroke-opacity:1" d="M 137.392,11.5983 145.835,14.9753 z" id="boundary" inkscape:connector-curvature="0" />
	<path style="fill:none;stroke:red;stroke-width:1px;stroke-linecap:butt;stroke-linejoin:miter;stroke-opacity:1" d="M 145.835,14.9753 154.277,16.6638 z" id="boundary" inkscape:connector-curvature="0" />
	<path style="fill:none;stroke:red;stroke-width:1px;stroke-linecap:butt;stroke-linejoin:miter;stroke-opacity:1" d="M 154.277,16.6638 162.72,20.0409 z" id="boundary" inkscape:connector-curvature="0" />
	<path style="fill:none;stroke:red;stroke-width:1px;stroke-linecap:butt;stroke-linejoin:miter;stroke-opacity:1" d="M 162.72,20.0409 171.163,23.4179 z" id="boundary" inkscape:connector-curvature="0" />
	<path style="fill:none;stroke:red;stroke-width:1px;stroke-linecap:butt;stroke-linejoin:miter;stroke-opacity:1" d="M 171.163,23.4179 178.761,27.6391 z" id="boundary" inkscape:connector-curvature="0" />
	<path style="fill:none;stroke:red;stroke-width:1px;stroke-linecap:butt;stroke-linejoin:miter;stroke-opacity:1" d="M 187.203,31.0162 178.761,27.6391 z" id="boundary" inkscape:connector-curvature="0" />
	<path style="fill:none;stroke:red;stroke-width:1px;stroke-linecap:butt;stroke-linejoin:miter;stroke-opacity:1" d="M 195.646,34.3932 203.244,38.6145 z" id="boundary" inkscape:connector-curvature="0" />
	<path style="fill:none;stroke:red;stroke-width:1px;stroke-linecap:butt;stroke-linejoin:miter;stroke-opacity:1" d="M 187.203,31.0162 195.646,34.3932 z" id="boundary" inkscape:connector-curvature="0" />
	<path style="fill:none;stroke:red;stroke-width:1px;stroke-linecap:butt;stroke-linejoin:miter;stroke-opacity:1" d="M 203.244,38.6145 210.843,42.8357 z" id="boundary" inkscape:connector-curvature="0" />
	<path style="fill:none;stroke:red;stroke-width:1px;stroke-linecap:butt;stroke-linejoin:miter;stroke-opacity:1" d="M 210.843,42.8357 217.597,47.9013 z" id="boundary" inkscape:connector-curvature="0" />
	<path style="fill:none;stroke:red;stroke-width:1px;stroke-linecap:butt;stroke-linejoin:miter;stroke-opacity:1" d="M 217.597,47.9013 225.195,52.1226 z" id="boundary" inkscape:connector-curvature="0" />
	<path style="fill:none;stroke:red;stroke-width:1px;stroke-linecap:butt;stroke-linejoin:miter;stroke-opacity:1" d="M 247.146,65.6306 239.547,61.4094 z" id="boundary" inkscape:connector-curvature="0" />
	<path style="fill:none;stroke:red;stroke-width:1px;stroke-linecap:butt;stroke-linejoin:miter;stroke-opacity:1" d="M 239.547,61.4094 232.793,56.3438 z" id="boundary" inkscape:connector-curvature="0" />
	<path style="fill:none;stroke:red;stroke-width:1px;stroke-linecap:butt;stroke-linejoin:miter;stroke-opacity:1" d="M 247.146,65.6306 253.9,70.6962 z" id="boundary" inkscape:connector-curvature="0" />
	<path style="fill:none;stroke:red;stroke-width:1px;stroke-linecap:butt;stroke-linejoin:miter;stroke-opacity:1" d="M 225.195,52.1226 232.793,56.3438 z" id="boundary" inkscape:connector-curvature="0" />
	<path style="fill:none;stroke:red;stroke-width:1px;stroke-linecap:butt;stroke-linejoin:miter;stroke-opacity:1" d="M 253.9,70.6962 261.498,74.9174 z" id="boundary" inkscape:connector-curvature="0" />
	<path style="fill:none;stroke:red;stroke-width:1px;stroke-linecap:butt;stroke-linejoin:miter;stroke-opacity:1" d="M 261.498,74.9174 268.252,80.8272 z" id="boundary" inkscape:connector-curvature="0" />
	<path style="fill:none;stroke:red;stroke-width:1px;stroke-linecap:butt;stroke-linejoin:miter;stroke-opacity:1" d="M 275.006,85.8928 268.252,80.8272 z" id="boundary" inkscape:connector-curvature="0" />
	<path style="fill:none;stroke:red;stroke-width:1px;stroke-linecap:butt;stroke-linejoin:miter;stroke-opacity:1" d="M 281.76,90.9583 275.006,85.8928 z" id="boundary" inkscape:connector-curvature="0" />
	<path style="fill:none;stroke:red;stroke-width:1px;stroke-linecap:butt;stroke-linejoin:miter;stroke-opacity:1" d="M 288.514,96.0238 281.76,90.9583 z" id="boundary" inkscape:connector-curvature="0" />
	<path style="fill:none;stroke:red;stroke-width:1px;stroke-linecap:butt;stroke-linejoin:miter;stroke-opacity:1" d="M 57.1881,225.195 52.1226,218.441 z" id="boundary" inkscape:connector-curvature="0" />
	<path style="fill:none;stroke:red;stroke-width:1px;stroke-linecap:butt;stroke-linejoin:miter;stroke-opacity:1" d="M 288.514,96.0238 295.268,101.089 z" id="boundary" inkscape:connector-curvature="0" />
	<path style="fill:none;stroke:red;stroke-width:1px;stroke-linecap:butt;stroke-linejoin:miter;stroke-opacity:1" d="M 295.268,101.089 302.022,106.999 z" id="boundary" inkscape:connector-curvature="0" />
	<path style="fill:none;stroke:red;stroke-width:1px;stroke-linecap:butt;stroke-linejoin:miter;stroke-opacity:1" d="M 302.022,106.999 308.776,112.909 z" id="boundary" inkscape:connector-curvature="0" />
	<path style="fill:none;stroke:red;stroke-width:1px;stroke-linecap:butt;stroke-linejoin:miter;stroke-opacity:1" d="M 308.776,112.909 315.53,118.819 z" id="boundary" inkscape:connector-curvature="0" />
	<path style="fill:none;stroke:red;stroke-width:1px;stroke-linecap:butt;stroke-linejoin:miter;stroke-opacity:1" d="M 322.284,124.729 329.038,130.638 z" id="boundary" inkscape:connector-curvature="0" />
	<path style="fill:none;stroke:red;stroke-width:1px;stroke-linecap:butt;stroke-linejoin:miter;stroke-opacity:1" d="M 329.038,130.638 334.104,137.392 z" id="boundary" inkscape:connector-curvature="0" />
	<path style="fill:none;stroke:red;stroke-width:1px;stroke-linecap:butt;stroke-linejoin:miter;stroke-opacity:1" d="M 334.104,137.392 340.858,142.458 z" id="boundary" inkscape:connector-curvature="0" />
	<path style="fill:none;stroke:red;stroke-width:1px;stroke-linecap:butt;stroke-linejoin:miter;stroke-opacity:1" d="M 340.858,142.458 346.768,149.212 z" id="boundary" inkscape:connector-curvature="0" />
	<path style="fill:none;stroke:red;stroke-width:1px;stroke-linecap:butt;stroke-linejoin:miter;stroke-opacity:1" d="M 315.53,118.819 322.284,124.729 z" id="boundary" inkscape:connector-curvature="0" />
	<path style="fill:none;stroke:red;stroke-width:1px;stroke-linecap:butt;stroke-linejoin:miter;stroke-opacity:1" d="M 346.768,149.212 351.833,155.966 z" id="boundary" inkscape:connector-curvature="0" />
	<path style="fill:none;stroke:red;stroke-width:1px;stroke-linecap:butt;stroke-linejoin:miter;stroke-opacity:1" d="M 351.833,155.966 358.587,161.876 z" id="boundary" inkscape:connector-curvature="0" />
	<path style="fill:none;stroke:red;stroke-width:1px;stroke-linecap:butt;stroke-linejoin:miter;stroke-opacity:1" d="M 358.587,161.876 364.497,168.63 z" id="boundary" inkscape:connector-curvature="0" />
	<path style="fill:none;stroke:red;stroke-width:1px;stroke-linecap:butt;stroke-linejoin:miter;stroke-opacity:1" d="M 364.497,168.63 370.407,175.384 z" id="boundary" inkscape:connector-curvature="0" />
	<path style="fill:none;stroke:red;stroke-width:1px;stroke-linecap:butt;stroke-linejoin:miter;stroke-opacity:1" d="M 370.407,175.384 375.472,182.138 z" id="boundary" inkscape:connector-curvature="0" />
	<path style="fill:none;stroke:red;stroke-width:1px;stroke-linecap:butt;stroke-linejoin:miter;stroke-opacity:1" d="M 381.382,188.892 375.472,182.138 z" id="boundary" inkscape:connector-curvature="0" />
	<path style="fill:none;stroke:red;stroke-width:1px;stroke-linecap:butt;stroke-linejoin:miter;stroke-opacity:1" d="M 381.382,188.892 386.448,195.646 z" id="boundary" inkscape:connector-curvature="0" />
	<path style="fill:none;stroke:red;stroke-width:1px;stroke-linecap:butt;stroke-linejoin:miter;stroke-opacity:1" d="M 386.448,195.646 391.513,202.4 z" id="boundary" inkscape:connector-curvature="0" />
	<path style="fill:none;stroke:red;stroke-width:1px;stroke-linecap:butt;stroke-linejoin:miter;stroke-opacity:1" d="M 396.579,209.154 391.513,202.4 z" id="boundary" inkscape:connector-curvature="0" />
	<path style="fill:none;stroke:red;stroke-width:1px;stroke-linecap:butt;stroke-linejoin:miter;stroke-opacity:1" d="M 401.644,215.908 396.579,209.154 z" id="boundary" inkscape:connector-curvature="0" />
	<path style="fill:none;stroke:red;stroke-width:1px;stroke-linecap:butt;stroke-linejoin:miter;stroke-opacity:1" d="M 407.554,222.662 401.644,215.908 z" id="boundary" inkscape:connector-curvature="0" />
	<path style="fill:none;stroke:red;stroke-width:1px;stroke-linecap:butt;stroke-linejoin:miter;stroke-opacity:1" d="M 62.2536,231.949 57.1881,225.195 z" id="boundary" inkscape:connector-curvature="0" />
	<path style="fill:none;stroke:red;stroke-width:1px;stroke-linecap:butt;stroke-linejoin:miter;stroke-opacity:1" d="M 67.3191,238.703 74.0732,244.613 z" id="boundary" inkscape:connector-curvature="0" />
	<path style="fill:none;stroke:red;stroke-width:1px;stroke-linecap:butt;stroke-linejoin:miter;stroke-opacity:1" d="M 74.0732,244.613 79.1387,251.367 z" id="boundary" inkscape:connector-curvature="0" />
	<path style="fill:none;stroke:red;stroke-width:1px;stroke-linecap:butt;stroke-linejoin:miter;stroke-opacity:1" d="M 67.3191,238.703 62.2536,231.949 z" id="boundary" inkscape:connector-curvature="0" />
	<path style="fill:none;stroke:red;stroke-width:1px;stroke-linecap:butt;stroke-linejoin:miter;stroke-opacity:1" d="M 79.1387,251.367 84.2043,258.121 z" id="boundary" inkscape:connector-curvature="0" />
	<path style="fill:none;stroke:red;stroke-width:1px;stroke-linecap:butt;stroke-linejoin:miter;stroke-opacity:1" d="M 90.114,264.875 96.8681,270.785 z" id="boundary" inkscape:connector-curvature="0" />
	<path style="fill:none;stroke:red;stroke-width:1px;stroke-linecap:butt;stroke-linejoin:miter;stroke-opacity:1" d="M 96.8681,270.785 101.089,278.383 z" id="boundary" inkscape:connector-curvature="0" />
	<path style="fill:none;stroke:red;stroke-width:1px;stroke-linecap:butt;stroke-linejoin:miter;stroke-opacity:1" d="M 90.114,264.875 84.2043,258.121 z" id="boundary" inkscape:connector-curvature="0" />
	<path style="fill:none;stroke:red;stroke-width:1px;stroke-linecap:butt;stroke-linejoin:miter;stroke-opacity:1" d="M 107.843,284.293 101.089,278.383 z" id="boundary" inkscape:connector-curvature="0" />
	<path style="fill:none;stroke:red;stroke-width:1px;stroke-linecap:butt;stroke-linejoin:miter;stroke-opacity:1" d="M 173.695,338.325 166.941,333.26 z" id="boundary" inkscape:connector-curvature="0" />
	<path style="fill:none;stroke:red;stroke-width:1px;stroke-linecap:butt;stroke-linejoin:miter;stroke-opacity:1" d="M 107.843,284.293 114.597,289.358 z" id="boundary" inkscape:connector-curvature="0" />
	<path style="fill:none;stroke:red;stroke-width:1px;stroke-linecap:butt;stroke-linejoin:miter;stroke-opacity:1" d="M 114.597,289.358 120.507,296.112 z" id="boundary" inkscape:connector-curvature="0" />
	<path style="fill:none;stroke:red;stroke-width:1px;stroke-linecap:butt;stroke-linejoin:miter;stroke-opacity:1" d="M 120.507,296.112 127.261,301.178 z" id="boundary" inkscape:connector-curvature="0" />
	<path style="fill:none;stroke:red;stroke-width:1px;stroke-linecap:butt;stroke-linejoin:miter;stroke-opacity:1" d="M 127.261,301.178 133.171,307.932 z" id="boundary" inkscape:connector-curvature="0" />
	<path style="fill:none;stroke:red;stroke-width:1px;stroke-linecap:butt;stroke-linejoin:miter;stroke-opacity:1" d="M 139.925,312.997 133.171,307.932 z" id="boundary" inkscape:connector-curvature="0" />
	<path style="fill:none;stroke:red;stroke-width:1px;stroke-linecap:butt;stroke-linejoin:miter;stroke-opacity:1" d="M 139.925,312.997 144.991,319.751 z" id="boundary" inkscape:connector-curvature="0" />
	<path style="fill:none;stroke:red;stroke-width:1px;stroke-linecap:butt;stroke-linejoin:miter;stroke-opacity:1" d="M 152.589,323.973 144.991,319.751 z" id="boundary" inkscape:connector-curvature="0" />
	<path style="fill:none;stroke:red;stroke-width:1px;stroke-linecap:butt;stroke-linejoin:miter;stroke-opacity:1" d="M 166.941,333.26 159.343,329.038 z" id="boundary" inkscape:connector-curvature="0" />
	<path style="fill:none;stroke:red;stroke-width:1px;stroke-linecap:butt;stroke-linejoin:miter;stroke-opacity:1" d="M 159.343,329.038 152.589,323.973 z" id="boundary" inkscape:connector-curvature="0" />
	<path style="fill:none;stroke:red;stroke-width:1px;stroke-linecap:butt;stroke-linejoin:miter;stroke-opacity:1" d="M 173.695,338.325 180.449,343.391 z" id="boundary" inkscape:connector-curvature="0" />
	<path style="fill:none;stroke:red;stroke-width:1px;stroke-linecap:butt;stroke-linejoin:miter;stroke-opacity:1" d="M 187.203,348.456 180.449,343.391 z" id="boundary" inkscape:connector-curvature="0" />
	<path style="fill:none;stroke:red;stroke-width:1px;stroke-linecap:butt;stroke-linejoin:miter;stroke-opacity:1" d="M 187.203,348.456 193.957,353.522 z" id="boundary" inkscape:connector-curvature="0" />
	<path style="fill:none;stroke:red;stroke-width:1px;stroke-linecap:butt;stroke-linejoin:miter;stroke-opacity:1" d="M 200.711,358.587 193.957,353.522 z" id="boundary" inkscape:connector-curvature="0" />
	<path style="fill:none;stroke:red;stroke-width:1px;stroke-linecap:butt;stroke-linejoin:miter;stroke-opacity:1" d="M 209.154,361.964 200.711,358.587 z" id="boundary" inkscape:connector-curvature="0" />
	<path style="fill:none;stroke:red;stroke-width:1px;stroke-linecap:butt;stroke-linejoin:miter;stroke-opacity:1" d="M 209.154,361.964 215.908,367.03 z" id="boundary" inkscape:connector-curvature="0" />
	<path style="fill:none;stroke:red;stroke-width:1px;stroke-linecap:butt;stroke-linejoin:miter;stroke-opacity:1" d="M 222.662,372.095 231.105,375.472 z" id="boundary" inkscape:connector-curvature="0" />
	<path style="fill:none;stroke:red;stroke-width:1px;stroke-linecap:butt;stroke-linejoin:miter;stroke-opacity:1" d="M 222.662,372.095 215.908,367.03 z" id="boundary" inkscape:connector-curvature="0" />
	<path style="fill:none;stroke:red;stroke-width:1px;stroke-linecap:butt;stroke-linejoin:miter;stroke-opacity:1" d="M 231.105,375.472 238.703,379.694 z" id="boundary" inkscape:connector-curvature="0" />
	<path style="fill:none;stroke:red;stroke-width:1px;stroke-linecap:butt;stroke-linejoin:miter;stroke-opacity:1" d="M 238.703,379.694 245.457,384.759 z" id="boundary" inkscape:connector-curvature="0" />
	<path style="fill:none;stroke:red;stroke-width:1px;stroke-linecap:butt;stroke-linejoin:miter;stroke-opacity:1" d="M 245.457,384.759 253.9,388.136 z" id="boundary" inkscape:connector-curvature="0" />
	<path style="fill:none;stroke:red;stroke-width:1px;stroke-linecap:butt;stroke-linejoin:miter;stroke-opacity:1" d="M 253.9,388.136 261.498,392.357 z" id="boundary" inkscape:connector-curvature="0" />
	<path style="fill:none;stroke:red;stroke-width:1px;stroke-linecap:butt;stroke-linejoin:miter;stroke-opacity:1" d="M 261.498,392.357 269.94,394.89 z" id="boundary" inkscape:connector-curvature="0" />
	<path style="fill:none;stroke:red;stroke-width:1px;stroke-linecap:butt;stroke-linejoin:miter;stroke-opacity:1" d="M 269.94,394.89 278.383,398.267 z" id="boundary" inkscape:connector-curvature="0" />
	<path style="fill:none;stroke:red;stroke-width:1px;stroke-linecap:butt;stroke-linejoin:miter;stroke-opacity:1" d="M 278.383,398.267 285.981,402.489 z" id="boundary" inkscape:connector-curvature="0" />
	<path style="fill:none;stroke:red;stroke-width:1px;stroke-linecap:butt;stroke-linejoin:miter;stroke-opacity:1" d="M 285.981,402.489 294.424,405.866 z" id="boundary" inkscape:connector-curvature="0" />
	<path style="fill:none;stroke:red;stroke-width:1px;stroke-linecap:butt;stroke-linejoin:miter;stroke-opacity:1" d="M 294.424,405.866 302.022,410.087 z" id="boundary" inkscape:connector-curvature="0" />
	<path style="fill:none;stroke:red;stroke-width:1px;stroke-linecap:butt;stroke-linejoin:miter;stroke-opacity:1" d="M 318.907,414.308 310.465,413.464 z" id="boundary" inkscape:connector-curvature="0" />
	<path style="fill:none;stroke:red;stroke-width:1px;stroke-linecap:butt;stroke-linejoin:miter;stroke-opacity:1" d="M 310.465,413.464 302.022,410.087 z" id="boundary" inkscape:connector-curvature="0" />
	<path style="fill:none;stroke:red;stroke-width:1px;stroke-linecap:butt;stroke-linejoin:miter;stroke-opacity:1" d="M 318.907,414.308 327.35,417.685 z" id="boundary" inkscape:connector-curvature="0" />
	<path style="fill:none;stroke:red;stroke-width:1px;stroke-linecap:butt;stroke-linejoin:miter;stroke-opacity:1" d="M 411.775,230.26 416.841,237.014 z" id="boundary" inkscape:connector-curvature="0" />
	<path style="fill:none;stroke:red;stroke-width:1px;stroke-linecap:butt;stroke-linejoin:miter;stroke-opacity:1" d="M 411.775,230.26 407.554,222.662 z" id="boundary" inkscape:connector-curvature="0" />
	<path style="fill:none;stroke:red;stroke-width:1px;stroke-linecap:butt;stroke-linejoin:miter;stroke-opacity:1" d="M 416.841,237.014 421.906,243.769 z" id="boundary" inkscape:connector-curvature="0" />
	<path style="fill:none;stroke:red;stroke-width:1px;stroke-linecap:butt;stroke-linejoin:miter;stroke-opacity:1" d="M 421.906,243.769 426.128,251.367 z" id="boundary" inkscape:connector-curvature="0" />
	<path style="fill:none;stroke:red;stroke-width:1px;stroke-linecap:butt;stroke-linejoin:miter;stroke-opacity:1" d="M 426.128,251.367 430.349,258.965 z" id="boundary" inkscape:connector-curvature="0" />
	<path style="fill:none;stroke:red;stroke-width:1px;stroke-linecap:butt;stroke-linejoin:miter;stroke-opacity:1" d="M 435.414,265.719 430.349,258.965 z" id="boundary" inkscape:connector-curvature="0" />
	<path style="fill:none;stroke:red;stroke-width:1px;stroke-linecap:butt;stroke-linejoin:miter;stroke-opacity:1" d="M 435.414,265.719 439.636,273.317 z" id="boundary" inkscape:connector-curvature="0" />
	<path style="fill:none;stroke:red;stroke-width:1px;stroke-linecap:butt;stroke-linejoin:miter;stroke-opacity:1" d="M 443.857,280.916 439.636,273.317 z" id="boundary" inkscape:connector-curvature="0" />
	<path style="fill:none;stroke:red;stroke-width:1px;stroke-linecap:butt;stroke-linejoin:miter;stroke-opacity:1" d="M 448.078,288.514 443.857,280.916 z" id="boundary" inkscape:connector-curvature="0" />
	<path style="fill:none;stroke:red;stroke-width:1px;stroke-linecap:butt;stroke-linejoin:miter;stroke-opacity:1" d="M 456.521,303.711 452.3,296.112 z" id="boundary" inkscape:connector-curvature="0" />
	<path style="fill:none;stroke:red;stroke-width:1px;stroke-linecap:butt;stroke-linejoin:miter;stroke-opacity:1" d="M 464.963,318.907 460.742,311.309 z" id="boundary" inkscape:connector-curvature="0" />
	<path style="fill:none;stroke:red;stroke-width:1px;stroke-linecap:butt;stroke-linejoin:miter;stroke-opacity:1" d="M 469.185,326.506 464.963,318.907 z" id="boundary" inkscape:connector-curvature="0" />
	<path style="fill:none;stroke:red;stroke-width:1px;stroke-linecap:butt;stroke-linejoin:miter;stroke-opacity:1" d="M 456.521,303.711 460.742,311.309 z" id="boundary" inkscape:connector-curvature="0" />
	<path style="fill:none;stroke:red;stroke-width:1px;stroke-linecap:butt;stroke-linejoin:miter;stroke-opacity:1" d="M 448.078,288.514 452.3,296.112 z" id="boundary" inkscape:connector-curvature="0" />
	<path style="fill:none;stroke:red;stroke-width:1px;stroke-linecap:butt;stroke-linejoin:miter;stroke-opacity:1" d="M 473.406,334.104 469.185,326.506 z" id="boundary" inkscape:connector-curvature="0" />
	<path style="fill:none;stroke:red;stroke-width:1px;stroke-linecap:butt;stroke-linejoin:miter;stroke-opacity:1" d="M 486.914,356.054 481.849,349.3 z" id="boundary" inkscape:connector-curvature="0" />
	<path style="fill:none;stroke:red;stroke-width:1px;stroke-linecap:butt;stroke-linejoin:miter;stroke-opacity:1" d="M 481.849,349.3 477.627,341.702 z" id="boundary" inkscape:connector-curvature="0" />
	<path style="fill:none;stroke:red;stroke-width:1px;stroke-linecap:butt;stroke-linejoin:miter;stroke-opacity:1" d="M 477.627,341.702 473.406,334.104 z" id="boundary" inkscape:connector-curvature="0" />
	<path style="fill:none;stroke:red;stroke-width:1px;stroke-linecap:butt;stroke-linejoin:miter;stroke-opacity:1" d="M 327.35,417.685 335.792,421.062 z" id="boundary" inkscape:connector-curvature="0" />
	<path style="fill:none;stroke:red;stroke-width:1px;stroke-linecap:butt;stroke-linejoin:miter;stroke-opacity:1" d="M 335.792,421.062 343.391,425.283 z" id="boundary" inkscape:connector-curvature="0" />
	<path style="fill:none;stroke:red;stroke-width:1px;stroke-linecap:butt;stroke-linejoin:miter;stroke-opacity:1" d="M 351.833,428.66 343.391,425.283 z" id="boundary" inkscape:connector-curvature="0" />
	<path style="fill:none;stroke:red;stroke-width:1px;stroke-linecap:butt;stroke-linejoin:miter;stroke-opacity:1" d="M 351.833,428.66 360.276,431.193 z" id="boundary" inkscape:connector-curvature="0" />
	<path style="fill:none;stroke:red;stroke-width:1px;stroke-linecap:butt;stroke-linejoin:miter;stroke-opacity:1" d="M 368.718,433.726 377.161,436.259 z" id="boundary" inkscape:connector-curvature="0" />
	<path style="fill:none;stroke:red;stroke-width:1px;stroke-linecap:butt;stroke-linejoin:miter;stroke-opacity:1" d="M 377.161,436.259 384.759,440.48 z" id="boundary" inkscape:connector-curvature="0" />
	<path style="fill:none;stroke:red;stroke-width:1px;stroke-linecap:butt;stroke-linejoin:miter;stroke-opacity:1" d="M 368.718,433.726 360.276,431.193 z" id="boundary" inkscape:connector-curvature="0" />
	<path style="fill:none;stroke:red;stroke-width:1px;stroke-linecap:butt;stroke-linejoin:miter;stroke-opacity:1" d="M 384.759,440.48 393.202,443.013 z" id="boundary" inkscape:connector-curvature="0" />
	<path style="fill:none;stroke:red;stroke-width:1px;stroke-linecap:butt;stroke-linejoin:miter;stroke-opacity:1" d="M 393.202,443.013 401.644,446.39 z" id="boundary" inkscape:connector-curvature="0" />
	<path style="fill:none;stroke:red;stroke-width:1px;stroke-linecap:butt;stroke-linejoin:miter;stroke-opacity:1" d="M 401.644,446.39 410.087,449.767 z" id="boundary" inkscape:connector-curvature="0" />
	<path style="fill:none;stroke:red;stroke-width:1px;stroke-linecap:butt;stroke-linejoin:miter;stroke-opacity:1" d="M 410.087,449.767 418.529,453.144 z" id="boundary" inkscape:connector-curvature="0" />
	<path style="fill:none;stroke:red;stroke-width:1px;stroke-linecap:butt;stroke-linejoin:miter;stroke-opacity:1" d="M 426.972,456.521 435.414,459.898 z" id="boundary" inkscape:connector-curvature="0" />
	<path style="fill:none;stroke:red;stroke-width:1px;stroke-linecap:butt;stroke-linejoin:miter;stroke-opacity:1" d="M 435.414,459.898 443.013,464.119 z" id="boundary" inkscape:connector-curvature="0" />
	<path style="fill:none;stroke:red;stroke-width:1px;stroke-linecap:butt;stroke-linejoin:miter;stroke-opacity:1" d="M 426.972,456.521 418.529,453.144 z" id="boundary" inkscape:connector-curvature="0" />
	<path style="fill:none;stroke:red;stroke-width:1px;stroke-linecap:butt;stroke-linejoin:miter;stroke-opacity:1" d="M 443.013,464.119 450.611,468.34 z" id="boundary" inkscape:connector-curvature="0" />
	<path style="fill:none;stroke:red;stroke-width:1px;stroke-linecap:butt;stroke-linejoin:miter;stroke-opacity:1" d="M 450.611,468.34 459.054,470.873 z" id="boundary" inkscape:connector-curvature="0" />
	<path style="fill:none;stroke:red;stroke-width:1px;stroke-linecap:butt;stroke-linejoin:miter;stroke-opacity:1" d="M 459.054,470.873 466.652,475.094 z" id="boundary" inkscape:connector-curvature="0" />
	<path style="fill:none;stroke:red;stroke-width:1px;stroke-linecap:butt;stroke-linejoin:miter;stroke-opacity:1" d="M 466.652,475.094 474.25,479.316 z" id="boundary" inkscape:connector-curvature="0" />
	<path style="fill:none;stroke:red;stroke-width:1px;stroke-linecap:butt;stroke-linejoin:miter;stroke-opacity:1" d="M 481.849,483.537 474.25,479.316 z" id="boundary" inkscape:connector-curvature="0" />
	<path style="fill:none;stroke:red;stroke-width:1px;stroke-linecap:butt;stroke-linejoin:miter;stroke-opacity:1" d="M 486.914,356.054 491.135,363.653 z" id="boundary" inkscape:connector-curvature="0" />
	<path style="fill:none;stroke:red;stroke-width:1px;stroke-linecap:butt;stroke-linejoin:miter;stroke-opacity:1" d="M 496.201,370.407 501.266,377.161 z" id="boundary" inkscape:connector-curvature="0" />
	<path style="fill:none;stroke:red;stroke-width:1px;stroke-linecap:butt;stroke-linejoin:miter;stroke-opacity:1" d="M 501.266,377.161 505.488,384.759 z" id="boundary" inkscape:connector-curvature="0" />
	<path style="fill:none;stroke:red;stroke-width:1px;stroke-linecap:butt;stroke-linejoin:miter;stroke-opacity:1" d="M 510.553,391.513 505.488,384.759 z" id="boundary" inkscape:connector-curvature="0" />
	<path style="fill:none;stroke:red;stroke-width:1px;stroke-linecap:butt;stroke-linejoin:miter;stroke-opacity:1" d="M 515.619,398.267 521.529,405.021 z" id="boundary" inkscape:connector-curvature="0" />
	<path style="fill:none;stroke:red;stroke-width:1px;stroke-linecap:butt;stroke-linejoin:miter;stroke-opacity:1" d="M 515.619,398.267 510.553,391.513 z" id="boundary" inkscape:connector-curvature="0" />
	<path style="fill:none;stroke:red;stroke-width:1px;stroke-linecap:butt;stroke-linejoin:miter;stroke-opacity:1" d="M 532.504,418.529 526.594,411.775 z" id="boundary" inkscape:connector-curvature="0" />
	<path style="fill:none;stroke:red;stroke-width:1px;stroke-linecap:butt;stroke-linejoin:miter;stroke-opacity:1" d="M 526.594,411.775 521.529,405.021 z" id="boundary" inkscape:connector-curvature="0" />
	<path style="fill:none;stroke:red;stroke-width:1px;stroke-linecap:butt;stroke-linejoin:miter;stroke-opacity:1" d="M 490.291,486.914 481.849,483.537 z" id="boundary" inkscape:connector-curvature="0" />
	<path style="fill:none;stroke:red;stroke-width:1px;stroke-linecap:butt;stroke-linejoin:miter;stroke-opacity:1" d="M 496.201,370.407 491.135,363.653 z" id="boundary" inkscape:connector-curvature="0" />
	<path style="fill:none;stroke:red;stroke-width:1px;stroke-linecap:butt;stroke-linejoin:miter;stroke-opacity:1" d="M 538.414,425.283 545.168,431.193 z" id="boundary" inkscape:connector-curvature="0" />
	<path style="fill:none;stroke:red;stroke-width:1px;stroke-linecap:butt;stroke-linejoin:miter;stroke-opacity:1" d="M 538.414,425.283 532.504,418.529 z" id="boundary" inkscape:connector-curvature="0" />
	<path style="fill:none;stroke:red;stroke-width:1px;stroke-linecap:butt;stroke-linejoin:miter;stroke-opacity:1" d="M 551.077,437.947 557.831,443.857 z" id="boundary" inkscape:connector-curvature="0" />
	<path style="fill:none;stroke:red;stroke-width:1px;stroke-linecap:butt;stroke-linejoin:miter;stroke-opacity:1" d="M 551.077,437.947 545.168,431.193 z" id="boundary" inkscape:connector-curvature="0" />
	<path style="fill:none;stroke:red;stroke-width:1px;stroke-linecap:butt;stroke-linejoin:miter;stroke-opacity:1" d="M 563.741,450.611 557.831,443.857 z" id="boundary" inkscape:connector-curvature="0" />
	<path style="fill:none;stroke:red;stroke-width:1px;stroke-linecap:butt;stroke-linejoin:miter;stroke-opacity:1" d="M 570.495,455.677 563.741,450.611 z" id="boundary" inkscape:connector-curvature="0" />
	<path style="fill:none;stroke:red;stroke-width:1px;stroke-linecap:butt;stroke-linejoin:miter;stroke-opacity:1" d="M 577.249,461.586 570.495,455.677 z" id="boundary" inkscape:connector-curvature="0" />
	<path style="fill:none;stroke:red;stroke-width:1px;stroke-linecap:butt;stroke-linejoin:miter;stroke-opacity:1" d="M 597.511,478.471 590.757,473.406 z" id="boundary" inkscape:connector-curvature="0" />
	<path style="fill:none;stroke:red;stroke-width:1px;stroke-linecap:butt;stroke-linejoin:miter;stroke-opacity:1" d="M 590.757,473.406 584.003,467.496 z" id="boundary" inkscape:connector-curvature="0" />
	<path style="fill:none;stroke:red;stroke-width:1px;stroke-linecap:butt;stroke-linejoin:miter;stroke-opacity:1" d="M 584.003,467.496 577.249,461.586 z" id="boundary" inkscape:connector-curvature="0" />
	<path style="fill:none;stroke:red;stroke-width:1px;stroke-linecap:butt;stroke-linejoin:miter;stroke-opacity:1" d="M 497.045,491.98 490.291,486.914 z" id="boundary" inkscape:connector-curvature="0" />
	<path style="fill:none;stroke:red;stroke-width:1px;stroke-linecap:butt;stroke-linejoin:miter;stroke-opacity:1" d="M 511.397,501.266 518.151,507.176 z" id="boundary" inkscape:connector-curvature="0" />
	<path style="fill:none;stroke:red;stroke-width:1px;stroke-linecap:butt;stroke-linejoin:miter;stroke-opacity:1" d="M 525.75,511.397 518.151,507.176 z" id="boundary" inkscape:connector-curvature="0" />
	<path style="fill:none;stroke:red;stroke-width:1px;stroke-linecap:butt;stroke-linejoin:miter;stroke-opacity:1" d="M 497.045,491.98 504.643,496.201 z" id="boundary" inkscape:connector-curvature="0" />
	<path style="fill:none;stroke:red;stroke-width:1px;stroke-linecap:butt;stroke-linejoin:miter;stroke-opacity:1" d="M 504.643,496.201 511.397,501.266 z" id="boundary" inkscape:connector-curvature="0" />
	<path style="fill:none;stroke:red;stroke-width:1px;stroke-linecap:butt;stroke-linejoin:miter;stroke-opacity:1" d="M 525.75,511.397 533.348,515.619 z" id="boundary" inkscape:connector-curvature="0" />
	<path style="fill:none;stroke:red;stroke-width:1px;stroke-linecap:butt;stroke-linejoin:miter;stroke-opacity:1" d="M 533.348,515.619 539.258,522.373 z" id="boundary" inkscape:connector-curvature="0" />
	<path style="fill:none;stroke:red;stroke-width:1px;stroke-linecap:butt;stroke-linejoin:miter;stroke-opacity:1" d="M 539.258,522.373 546.012,527.438 z" id="boundary" inkscape:connector-curvature="0" />
	<path style="fill:none;stroke:red;stroke-width:1px;stroke-linecap:butt;stroke-linejoin:miter;stroke-opacity:1" d="M 546.012,527.438 551.077,534.192 z" id="boundary" inkscape:connector-curvature="0" />
	<path style="fill:none;stroke:red;stroke-width:1px;stroke-linecap:butt;stroke-linejoin:miter;stroke-opacity:1" d="M 557.831,539.258 551.077,534.192 z" id="boundary" inkscape:connector-curvature="0" />
	<path style="fill:none;stroke:red;stroke-width:1px;stroke-linecap:butt;stroke-linejoin:miter;stroke-opacity:1" d="M 557.831,539.258 563.741,546.012 z" id="boundary" inkscape:connector-curvature="0" />
	<path style="fill:none;stroke:red;stroke-width:1px;stroke-linecap:butt;stroke-linejoin:miter;stroke-opacity:1" d="M 571.34,550.233 563.741,546.012 z" id="boundary" inkscape:connector-curvature="0" />
	<path style="fill:none;stroke:red;stroke-width:1px;stroke-linecap:butt;stroke-linejoin:miter;stroke-opacity:1" d="M 604.266,484.381 611.02,490.291 z" id="boundary" inkscape:connector-curvature="0" />
	<path style="fill:none;stroke:red;stroke-width:1px;stroke-linecap:butt;stroke-linejoin:miter;stroke-opacity:1" d="M 604.266,484.381 597.511,478.471 z" id="boundary" inkscape:connector-curvature="0" />
	<path style="fill:none;stroke:red;stroke-width:1px;stroke-linecap:butt;stroke-linejoin:miter;stroke-opacity:1" d="M 571.34,550.233 577.249,556.987 z" id="boundary" inkscape:connector-curvature="0" />
	<path style="fill:none;stroke:red;stroke-width:1px;stroke-linecap:butt;stroke-linejoin:miter;stroke-opacity:1" d="M 577.249,556.987 584.848,561.209 z" id="boundary" inkscape:connector-curvature="0" />
	<path style="fill:none;stroke:red;stroke-width:1px;stroke-linecap:butt;stroke-linejoin:miter;stroke-opacity:1" d="M 604.266,578.094 597.511,573.028 z" id="boundary" inkscape:connector-curvature="0" />
	<path style="fill:none;stroke:red;stroke-width:1px;stroke-linecap:butt;stroke-linejoin:miter;stroke-opacity:1" d="M 597.511,573.028 591.602,566.274 z" id="boundary" inkscape:connector-curvature="0" />
	<path style="fill:none;stroke:red;stroke-width:1px;stroke-linecap:butt;stroke-linejoin:miter;stroke-opacity:1" d="M 584.848,561.209 591.602,566.274 z" id="boundary" inkscape:connector-curvature="0" />
	<path style="fill:none;stroke:red;stroke-width:1px;stroke-linecap:butt;stroke-linejoin:miter;stroke-opacity:1" d="M 611.02,490.291 617.774,496.201 z" id="boundary" inkscape:connector-curvature="0" />
	<path style="fill:none;stroke:red;stroke-width:1px;stroke-linecap:butt;stroke-linejoin:miter;stroke-opacity:1" d="M 624.528,502.111 630.437,508.865 z" id="boundary" inkscape:connector-curvature="0" />
	<path style="fill:none;stroke:red;stroke-width:1px;stroke-linecap:butt;stroke-linejoin:miter;stroke-opacity:1" d="M 624.528,502.111 617.774,496.201 z" id="boundary" inkscape:connector-curvature="0" />
	<path style="fill:none;stroke:red;stroke-width:1px;stroke-linecap:butt;stroke-linejoin:miter;stroke-opacity:1" d="M 637.191,513.93 643.946,518.996 z" id="boundary" inkscape:connector-curvature="0" />
	<path style="fill:none;stroke:red;stroke-width:1px;stroke-linecap:butt;stroke-linejoin:miter;stroke-opacity:1" d="M 637.191,513.93 630.437,508.865 z" id="boundary" inkscape:connector-curvature="0" />
	<path style="fill:none;stroke:red;stroke-width:1px;stroke-linecap:butt;stroke-linejoin:miter;stroke-opacity:1" d="M 611.02,583.159 617.774,588.225 z" id="boundary" inkscape:connector-curvature="0" />
	<path style="fill:none;stroke:red;stroke-width:1px;stroke-linecap:butt;stroke-linejoin:miter;stroke-opacity:1" d="M 617.774,588.225 624.528,594.134 z" id="boundary" inkscape:connector-curvature="0" />
	<path style="fill:none;stroke:red;stroke-width:1px;stroke-linecap:butt;stroke-linejoin:miter;stroke-opacity:1" d="M 611.02,583.159 604.266,578.094 z" id="boundary" inkscape:connector-curvature="0" />
	<path style="fill:none;stroke:red;stroke-width:1px;stroke-linecap:butt;stroke-linejoin:miter;stroke-opacity:1" d="M 650.7,524.906 643.946,518.996 z" id="boundary" inkscape:connector-curvature="0" />
	<path style="fill:none;stroke:red;stroke-width:1px;stroke-linecap:butt;stroke-linejoin:miter;stroke-opacity:1" d="M 657.454,530.815 650.7,524.906 z" id="boundary" inkscape:connector-curvature="0" />
	<path style="fill:none;stroke:red;stroke-width:1px;stroke-linecap:butt;stroke-linejoin:miter;stroke-opacity:1" d="M 657.454,530.815 664.208,536.725 z" id="boundary" inkscape:connector-curvature="0" />
	<path style="fill:none;stroke:red;stroke-width:1px;stroke-linecap:butt;stroke-linejoin:miter;stroke-opacity:1" d="M 664.208,536.725 670.962,542.635 z" id="boundary" inkscape:connector-curvature="0" />
	<path style="fill:none;stroke:red;stroke-width:1px;stroke-linecap:butt;stroke-linejoin:miter;stroke-opacity:1" d="M 677.716,547.7 670.962,542.635 z" id="boundary" inkscape:connector-curvature="0" />
	<path style="fill:none;stroke:red;stroke-width:1px;stroke-linecap:butt;stroke-linejoin:miter;stroke-opacity:1" d="M 677.716,547.7 684.47,553.61 z" id="boundary" inkscape:connector-curvature="0" />
	<path style="fill:none;stroke:red;stroke-width:1px;stroke-linecap:butt;stroke-linejoin:miter;stroke-opacity:1" d="M 690.38,560.364 684.47,553.61 z" id="boundary" inkscape:connector-curvature="0" />
	<path style="fill:none;stroke:red;stroke-width:1px;stroke-linecap:butt;stroke-linejoin:miter;stroke-opacity:1" d="M 697.134,565.43 690.38,560.364 z" id="boundary" inkscape:connector-curvature="0" />
	<path style="fill:none;stroke:red;stroke-width:1px;stroke-linecap:butt;stroke-linejoin:miter;stroke-opacity:1" d="M 697.134,565.43 703.888,570.495 z" id="boundary" inkscape:connector-curvature="0" />
	<path style="fill:none;stroke:red;stroke-width:1px;stroke-linecap:butt;stroke-linejoin:miter;stroke-opacity:1" d="M 724.15,587.38 717.396,582.315 z" id="boundary" inkscape:connector-curvature="0" />
	<path style="fill:none;stroke:red;stroke-width:1px;stroke-linecap:butt;stroke-linejoin:miter;stroke-opacity:1" d="M 717.396,582.315 710.642,576.405 z" id="boundary" inkscape:connector-curvature="0" />
	<path style="fill:none;stroke:red;stroke-width:1px;stroke-linecap:butt;stroke-linejoin:miter;stroke-opacity:1" d="M 710.642,576.405 703.888,570.495 z" id="boundary" inkscape:connector-curvature="0" />
	<path style="fill:none;stroke:red;stroke-width:1px;stroke-linecap:butt;stroke-linejoin:miter;stroke-opacity:1" d="M 624.528,594.134 631.282,599.2 z" id="boundary" inkscape:connector-curvature="0" />
	<path style="fill:none;stroke:red;stroke-width:1px;stroke-linecap:butt;stroke-linejoin:miter;stroke-opacity:1" d="M 631.282,599.2 638.036,605.11 z" id="boundary" inkscape:connector-curvature="0" />
	<path style="fill:none;stroke:red;stroke-width:1px;stroke-linecap:butt;stroke-linejoin:miter;stroke-opacity:1" d="M 644.79,611.02 638.036,605.11 z" id="boundary" inkscape:connector-curvature="0" />
	<path style="fill:none;stroke:red;stroke-width:1px;stroke-linecap:butt;stroke-linejoin:miter;stroke-opacity:1" d="M 652.388,615.241 644.79,611.02 z" id="boundary" inkscape:connector-curvature="0" />
	<path style="fill:none;stroke:red;stroke-width:1px;stroke-linecap:butt;stroke-linejoin:miter;stroke-opacity:1" d="M 652.388,615.241 657.454,621.995 z" id="boundary" inkscape:connector-curvature="0" />
	<path style="fill:none;stroke:red;stroke-width:1px;stroke-linecap:butt;stroke-linejoin:miter;stroke-opacity:1" d="M 657.454,621.995 664.208,627.06 z" id="boundary" inkscape:connector-curvature="0" />
	<path style="fill:none;stroke:red;stroke-width:1px;stroke-linecap:butt;stroke-linejoin:miter;stroke-opacity:1" d="M 664.208,627.06 670.962,632.97 z" id="boundary" inkscape:connector-curvature="0" />
	<path style="fill:none;stroke:red;stroke-width:1px;stroke-linecap:butt;stroke-linejoin:miter;stroke-opacity:1" d="M 670.962,632.97 677.716,638.036 z" id="boundary" inkscape:connector-curvature="0" />
	<path style="fill:none;stroke:red;stroke-width:1px;stroke-linecap:butt;stroke-linejoin:miter;stroke-opacity:1" d="M 677.716,638.036 684.47,643.946 z" id="boundary" inkscape:connector-curvature="0" />
	<path style="fill:none;stroke:red;stroke-width:1px;stroke-linecap:butt;stroke-linejoin:miter;stroke-opacity:1" d="M 730.904,593.29 736.814,600.044 z" id="boundary" inkscape:connector-curvature="0" />
	<path style="fill:none;stroke:red;stroke-width:1px;stroke-linecap:butt;stroke-linejoin:miter;stroke-opacity:1" d="M 743.568,605.11 736.814,600.044 z" id="boundary" inkscape:connector-curvature="0" />
	<path style="fill:none;stroke:red;stroke-width:1px;stroke-linecap:butt;stroke-linejoin:miter;stroke-opacity:1" d="M 743.568,605.11 750.322,610.175 z" id="boundary" inkscape:connector-curvature="0" />
	<path style="fill:none;stroke:red;stroke-width:1px;stroke-linecap:butt;stroke-linejoin:miter;stroke-opacity:1" d="M 757.076,615.241 750.322,610.175 z" id="boundary" inkscape:connector-curvature="0" />
	<path style="fill:none;stroke:red;stroke-width:1px;stroke-linecap:butt;stroke-linejoin:miter;stroke-opacity:1" d="M 730.904,593.29 724.15,587.38 z" id="boundary" inkscape:connector-curvature="0" />
	<path style="fill:none;stroke:red;stroke-width:1px;stroke-linecap:butt;stroke-linejoin:miter;stroke-opacity:1" d="M 757.076,615.241 763.83,621.151 z" id="boundary" inkscape:connector-curvature="0" />
	<path style="fill:none;stroke:red;stroke-width:1px;stroke-linecap:butt;stroke-linejoin:miter;stroke-opacity:1" d="M 770.584,627.06 763.83,621.151 z" id="boundary" inkscape:connector-curvature="0" />
	<path style="fill:none;stroke:red;stroke-width:1px;stroke-linecap:butt;stroke-linejoin:miter;stroke-opacity:1" d="M 777.338,632.97 784.092,638.036 z" id="boundary" inkscape:connector-curvature="0" />
	<path style="fill:none;stroke:red;stroke-width:1px;stroke-linecap:butt;stroke-linejoin:miter;stroke-opacity:1" d="M 777.338,632.97 770.584,627.06 z" id="boundary" inkscape:connector-curvature="0" />
	<path style="fill:none;stroke:red;stroke-width:1px;stroke-linecap:butt;stroke-linejoin:miter;stroke-opacity:1" d="M 790.846,643.946 784.092,638.036 z" id="boundary" inkscape:connector-curvature="0" />
	<path style="fill:none;stroke:red;stroke-width:1px;stroke-linecap:butt;stroke-linejoin:miter;stroke-opacity:1" d="M 691.224,649.011 684.47,643.946 z" id="boundary" inkscape:connector-curvature="0" />
	<path style="fill:none;stroke:red;stroke-width:1px;stroke-linecap:butt;stroke-linejoin:miter;stroke-opacity:1" d="M 691.224,649.011 696.289,655.765 z" id="boundary" inkscape:connector-curvature="0" />
	<path style="fill:none;stroke:red;stroke-width:1px;stroke-linecap:butt;stroke-linejoin:miter;stroke-opacity:1" d="M 703.043,660.831 696.289,655.765 z" id="boundary" inkscape:connector-curvature="0" />
	<path style="fill:none;stroke:red;stroke-width:1px;stroke-linecap:butt;stroke-linejoin:miter;stroke-opacity:1" d="M 703.043,660.831 709.797,665.896 z" id="boundary" inkscape:connector-curvature="0" />
	<path style="fill:none;stroke:red;stroke-width:1px;stroke-linecap:butt;stroke-linejoin:miter;stroke-opacity:1" d="M 709.797,665.896 715.707,672.65 z" id="boundary" inkscape:connector-curvature="0" />
	<path style="fill:none;stroke:red;stroke-width:1px;stroke-linecap:butt;stroke-linejoin:miter;stroke-opacity:1" d="M 715.707,672.65 723.306,676.871 z" id="boundary" inkscape:connector-curvature="0" />
	<path style="fill:none;stroke:red;stroke-width:1px;stroke-linecap:butt;stroke-linejoin:miter;stroke-opacity:1" d="M 723.306,676.871 730.06,681.937 z" id="boundary" inkscape:connector-curvature="0" />
	<path style="fill:none;stroke:red;stroke-width:1px;stroke-linecap:butt;stroke-linejoin:miter;stroke-opacity:1" d="M 730.06,681.937 736.814,687.003 z" id="boundary" inkscape:connector-curvature="0" />
	<path style="fill:none;stroke:red;stroke-width:1px;stroke-linecap:butt;stroke-linejoin:miter;stroke-opacity:1" d="M 736.814,687.003 743.568,692.912 z" id="boundary" inkscape:connector-curvature="0" />
	<path style="fill:none;stroke:red;stroke-width:1px;stroke-linecap:butt;stroke-linejoin:miter;stroke-opacity:1" d="M 757.076,703.043 750.322,697.978 z" id="boundary" inkscape:connector-curvature="0" />
	<path style="fill:none;stroke:red;stroke-width:1px;stroke-linecap:butt;stroke-linejoin:miter;stroke-opacity:1" d="M 804.354,655.765 797.6,649.855 z" id="boundary" inkscape:connector-curvature="0" />
	<path style="fill:none;stroke:red;stroke-width:1px;stroke-linecap:butt;stroke-linejoin:miter;stroke-opacity:1" d="M 811.108,660.831 804.354,655.765 z" id="boundary" inkscape:connector-curvature="0" />
	<path style="fill:none;stroke:red;stroke-width:1px;stroke-linecap:butt;stroke-linejoin:miter;stroke-opacity:1" d="M 823.772,672.65 817.018,667.585 z" id="boundary" inkscape:connector-curvature="0" />
	<path style="fill:none;stroke:red;stroke-width:1px;stroke-linecap:butt;stroke-linejoin:miter;stroke-opacity:1" d="M 817.018,667.585 811.108,660.831 z" id="boundary" inkscape:connector-curvature="0" />
	<path style="fill:none;stroke:red;stroke-width:1px;stroke-linecap:butt;stroke-linejoin:miter;stroke-opacity:1" d="M 797.6,649.855 790.846,643.946 z" id="boundary" inkscape:connector-curvature="0" />
	<path style="fill:none;stroke:red;stroke-width:1px;stroke-linecap:butt;stroke-linejoin:miter;stroke-opacity:1" d="M 823.772,672.65 830.526,678.56 z" id="boundary" inkscape:connector-curvature="0" />
	<path style="fill:none;stroke:red;stroke-width:1px;stroke-linecap:butt;stroke-linejoin:miter;stroke-opacity:1" d="M 837.28,684.47 844.034,689.535 z" id="boundary" inkscape:connector-curvature="0" />
	<path style="fill:none;stroke:red;stroke-width:1px;stroke-linecap:butt;stroke-linejoin:miter;stroke-opacity:1" d="M 837.28,684.47 830.526,678.56 z" id="boundary" inkscape:connector-curvature="0" />
	<path style="fill:none;stroke:red;stroke-width:1px;stroke-linecap:butt;stroke-linejoin:miter;stroke-opacity:1" d="M 850.788,695.445 844.034,689.535 z" id="boundary" inkscape:connector-curvature="0" />
	<path style="fill:none;stroke:red;stroke-width:1px;stroke-linecap:butt;stroke-linejoin:miter;stroke-opacity:1" d="M 857.542,700.511 850.788,695.445 z" id="boundary" inkscape:connector-curvature="0" />
	<path style="fill:none;stroke:red;stroke-width:1px;stroke-linecap:butt;stroke-linejoin:miter;stroke-opacity:1" d="M 750.322,697.978 743.568,692.912 z" id="boundary" inkscape:connector-curvature="0" />
	<path style="fill:none;stroke:red;stroke-width:1px;stroke-linecap:butt;stroke-linejoin:miter;stroke-opacity:1" d="M 757.076,703.043 763.83,708.953 z" id="boundary" inkscape:connector-curvature="0" />
	<path style="fill:none;stroke:red;stroke-width:1px;stroke-linecap:butt;stroke-linejoin:miter;stroke-opacity:1" d="M 763.83,708.953 768.895,715.707 z" id="boundary" inkscape:connector-curvature="0" />
	<path style="fill:none;stroke:red;stroke-width:1px;stroke-linecap:butt;stroke-linejoin:miter;stroke-opacity:1" d="M 768.895,715.707 775.649,720.773 z" id="boundary" inkscape:connector-curvature="0" />
	<path style="fill:none;stroke:red;stroke-width:1px;stroke-linecap:butt;stroke-linejoin:miter;stroke-opacity:1" d="M 775.649,720.773 782.403,726.683 z" id="boundary" inkscape:connector-curvature="0" />
	<path style="fill:none;stroke:red;stroke-width:1px;stroke-linecap:butt;stroke-linejoin:miter;stroke-opacity:1" d="M 789.157,731.748 782.403,726.683 z" id="boundary" inkscape:connector-curvature="0" />
	<path style="fill:none;stroke:red;stroke-width:1px;stroke-linecap:butt;stroke-linejoin:miter;stroke-opacity:1" d="M 802.666,742.723 795.911,737.658 z" id="boundary" inkscape:connector-curvature="0" />
	<path style="fill:none;stroke:red;stroke-width:1px;stroke-linecap:butt;stroke-linejoin:miter;stroke-opacity:1" d="M 815.329,754.543 808.575,749.477 z" id="boundary" inkscape:connector-curvature="0" />
	<path style="fill:none;stroke:red;stroke-width:1px;stroke-linecap:butt;stroke-linejoin:miter;stroke-opacity:1" d="M 808.575,749.477 802.666,742.723 z" id="boundary" inkscape:connector-curvature="0" />
	<path style="fill:none;stroke:red;stroke-width:1px;stroke-linecap:butt;stroke-linejoin:miter;stroke-opacity:1" d="M 795.911,737.658 789.157,731.748 z" id="boundary" inkscape:connector-curvature="0" />
	<path style="fill:none;stroke:red;stroke-width:1px;stroke-linecap:butt;stroke-linejoin:miter;stroke-opacity:1" d="M 822.083,759.609 828.837,764.674 z" id="boundary" inkscape:connector-curvature="0" />
	<path style="fill:none;stroke:red;stroke-width:1px;stroke-linecap:butt;stroke-linejoin:miter;stroke-opacity:1" d="M 835.591,769.74 828.837,764.674 z" id="boundary" inkscape:connector-curvature="0" />
	<path style="fill:none;stroke:red;stroke-width:1px;stroke-linecap:butt;stroke-linejoin:miter;stroke-opacity:1" d="M 822.083,759.609 815.329,754.543 z" id="boundary" inkscape:connector-curvature="0" />
	<path style="fill:none;stroke:red;stroke-width:1px;stroke-linecap:butt;stroke-linejoin:miter;stroke-opacity:1" d="M 864.296,706.42 857.542,700.511 z" id="boundary" inkscape:connector-curvature="0" />
	<path style="fill:none;stroke:red;stroke-width:1px;stroke-linecap:butt;stroke-linejoin:miter;stroke-opacity:1" d="M 842.346,774.805 835.591,769.74 z" id="boundary" inkscape:connector-curvature="0" />
	<path style="fill:none;stroke:red;stroke-width:1px;stroke-linecap:butt;stroke-linejoin:miter;stroke-opacity:1" d="M 849.1,780.715 842.346,774.805 z" id="boundary" inkscape:connector-curvature="0" />
	<path style="fill:none;stroke:red;stroke-width:1px;stroke-linecap:butt;stroke-linejoin:miter;stroke-opacity:1" d="M 868.517,798.444 861.763,793.379 z" id="boundary" inkscape:connector-curvature="0" />
	<path style="fill:none;stroke:red;stroke-width:1px;stroke-linecap:butt;stroke-linejoin:miter;stroke-opacity:1" d="M 861.763,793.379 855.854,786.625 z" id="boundary" inkscape:connector-curvature="0" />
	<path style="fill:none;stroke:red;stroke-width:1px;stroke-linecap:butt;stroke-linejoin:miter;stroke-opacity:1" d="M 849.1,780.715 855.854,786.625 z" id="boundary" inkscape:connector-curvature="0" />
	<path style="fill:none;stroke:red;stroke-width:1px;stroke-linecap:butt;stroke-linejoin:miter;stroke-opacity:1" d="M 864.296,706.42 871.05,712.33 z" id="boundary" inkscape:connector-curvature="0" />
	<path style="fill:none;stroke:red;stroke-width:1px;stroke-linecap:butt;stroke-linejoin:miter;stroke-opacity:1" d="M 877.804,717.396 884.558,723.306 z" id="boundary" inkscape:connector-curvature="0" />
	<path style="fill:none;stroke:red;stroke-width:1px;stroke-linecap:butt;stroke-linejoin:miter;stroke-opacity:1" d="M 877.804,717.396 871.05,712.33 z" id="boundary" inkscape:connector-curvature="0" />
	<path style="fill:none;stroke:red;stroke-width:1px;stroke-linecap:butt;stroke-linejoin:miter;stroke-opacity:1" d="M 884.558,723.306 890.468,730.06 z" id="boundary" inkscape:connector-curvature="0" />
	<path style="fill:none;stroke:red;stroke-width:1px;stroke-linecap:butt;stroke-linejoin:miter;stroke-opacity:1" d="M 897.222,735.125 890.468,730.06 z" id="boundary" inkscape:connector-curvature="0" />
	<path style="fill:none;stroke:red;stroke-width:1px;stroke-linecap:butt;stroke-linejoin:miter;stroke-opacity:1" d="M 875.271,803.51 882.87,807.731 z" id="boundary" inkscape:connector-curvature="0" />
	<path style="fill:none;stroke:red;stroke-width:1px;stroke-linecap:butt;stroke-linejoin:miter;stroke-opacity:1" d="M 882.87,807.731 888.78,814.485 z" id="boundary" inkscape:connector-curvature="0" />
	<path style="fill:none;stroke:red;stroke-width:1px;stroke-linecap:butt;stroke-linejoin:miter;stroke-opacity:1" d="M 875.271,803.51 868.517,798.444 z" id="boundary" inkscape:connector-curvature="0" />
	<path style="fill:none;stroke:red;stroke-width:1px;stroke-linecap:butt;stroke-linejoin:miter;stroke-opacity:1" d="M 903.976,740.191 897.222,735.125 z" id="boundary" inkscape:connector-curvature="0" />
	<path style="fill:none;stroke:red;stroke-width:1px;stroke-linecap:butt;stroke-linejoin:miter;stroke-opacity:1" d="M 910.73,746.1 903.976,740.191 z" id="boundary" inkscape:connector-curvature="0" />
	<path style="fill:none;stroke:red;stroke-width:1px;stroke-linecap:butt;stroke-linejoin:miter;stroke-opacity:1" d="M 917.484,751.166 910.73,746.1 z" id="boundary" inkscape:connector-curvature="0" />
	<path style="fill:none;stroke:red;stroke-width:1px;stroke-linecap:butt;stroke-linejoin:miter;stroke-opacity:1" d="M 917.484,751.166 923.394,757.92 z" id="boundary" inkscape:connector-curvature="0" />
	<path style="fill:none;stroke:red;stroke-width:1px;stroke-linecap:butt;stroke-linejoin:miter;stroke-opacity:1" d="M 930.148,762.986 923.394,757.92 z" id="boundary" inkscape:connector-curvature="0" />
	<path style="fill:none;stroke:red;stroke-width:1px;stroke-linecap:butt;stroke-linejoin:miter;stroke-opacity:1" d="M 943.656,773.961 936.902,768.895 z" id="boundary" inkscape:connector-curvature="0" />
	<path style="fill:none;stroke:red;stroke-width:1px;stroke-linecap:butt;stroke-linejoin:miter;stroke-opacity:1" d="M 936.902,768.895 930.148,762.986 z" id="boundary" inkscape:connector-curvature="0" />
	<path style="fill:none;stroke:red;stroke-width:1px;stroke-linecap:butt;stroke-linejoin:miter;stroke-opacity:1" d="M 943.656,773.961 950.41,779.871 z" id="boundary" inkscape:connector-curvature="0" />
	<path style="fill:none;stroke:red;stroke-width:1px;stroke-linecap:butt;stroke-linejoin:miter;stroke-opacity:1" d="M 957.164,785.78 950.41,779.871 z" id="boundary" inkscape:connector-curvature="0" />
	<path style="fill:none;stroke:red;stroke-width:1px;stroke-linecap:butt;stroke-linejoin:miter;stroke-opacity:1" d="M 963.918,790.846 957.164,785.78 z" id="boundary" inkscape:connector-curvature="0" />
	<path style="fill:none;stroke:red;stroke-width:1px;stroke-linecap:butt;stroke-linejoin:miter;stroke-opacity:1" d="M 963.918,790.846 970.672,795.911 z" id="boundary" inkscape:connector-curvature="0" />
	<path style="fill:none;stroke:red;stroke-width:1px;stroke-linecap:butt;stroke-linejoin:miter;stroke-opacity:1" d="M 976.582,802.666 970.672,795.911 z" id="boundary" inkscape:connector-curvature="0" />
	<path style="fill:none;stroke:red;stroke-width:1px;stroke-linecap:butt;stroke-linejoin:miter;stroke-opacity:1" d="M 983.336,807.731 976.582,802.666 z" id="boundary" inkscape:connector-curvature="0" />
	<path style="fill:none;stroke:red;stroke-width:1px;stroke-linecap:butt;stroke-linejoin:miter;stroke-opacity:1" d="M 888.78,814.485 895.534,819.551 z" id="boundary" inkscape:connector-curvature="0" />
	<path style="fill:none;stroke:red;stroke-width:1px;stroke-linecap:butt;stroke-linejoin:miter;stroke-opacity:1" d="M 902.288,824.616 895.534,819.551 z" id="boundary" inkscape:connector-curvature="0" />
	<path style="fill:none;stroke:red;stroke-width:1px;stroke-linecap:butt;stroke-linejoin:miter;stroke-opacity:1" d="M 902.288,824.616 909.042,829.682 z" id="boundary" inkscape:connector-curvature="0" />
	<path style="fill:none;stroke:red;stroke-width:1px;stroke-linecap:butt;stroke-linejoin:miter;stroke-opacity:1" d="M 909.042,829.682 915.796,835.591 z" id="boundary" inkscape:connector-curvature="0" />
	<path style="fill:none;stroke:red;stroke-width:1px;stroke-linecap:butt;stroke-linejoin:miter;stroke-opacity:1" d="M 922.55,840.657 915.796,835.591 z" id="boundary" inkscape:connector-curvature="0" />
	<path style="fill:none;stroke:red;stroke-width:1px;stroke-linecap:butt;stroke-linejoin:miter;stroke-opacity:1" d="M 922.55,840.657 929.304,845.723 z" id="boundary" inkscape:connector-curvature="0" />
	<path style="fill:none;stroke:red;stroke-width:1px;stroke-linecap:butt;stroke-linejoin:miter;stroke-opacity:1" d="M 929.304,845.723 936.058,851.632 z" id="boundary" inkscape:connector-curvature="0" />
	<path style="fill:none;stroke:red;stroke-width:1px;stroke-linecap:butt;stroke-linejoin:miter;stroke-opacity:1" d="M 951.254,860.919 942.812,857.542 z" id="boundary" inkscape:connector-curvature="0" />
	<path style="fill:none;stroke:red;stroke-width:1px;stroke-linecap:butt;stroke-linejoin:miter;stroke-opacity:1" d="M 942.812,857.542 936.058,851.632 z" id="boundary" inkscape:connector-curvature="0" />
	<path style="fill:none;stroke:red;stroke-width:1px;stroke-linecap:butt;stroke-linejoin:miter;stroke-opacity:1" d="M 983.336,807.731 989.246,814.485 z" id="boundary" inkscape:connector-curvature="0" />
	<path style="fill:none;stroke:red;stroke-width:1px;stroke-linecap:butt;stroke-linejoin:miter;stroke-opacity:1" d="M 989.246,814.485 994.311,821.239 z" id="boundary" inkscape:connector-curvature="0" />
	<path style="fill:none;stroke:red;stroke-width:1px;stroke-linecap:butt;stroke-linejoin:miter;stroke-opacity:1" d="M 994.311,821.239 996,829.682 z" id="boundary" inkscape:connector-curvature="0" />
	<path style="fill:none;stroke:red;stroke-width:1px;stroke-linecap:butt;stroke-linejoin:miter;stroke-opacity:1" d="M 995.156,840.657 990.09,849.1 z" id="boundary" inkscape:connector-curvature="0" />
	<path style="fill:none;stroke:red;stroke-width:1px;stroke-linecap:butt;stroke-linejoin:miter;stroke-opacity:1" d="M 996,829.682 995.156,840.657 z" id="boundary" inkscape:connector-curvature="0" />
	<path style="fill:none;stroke:red;stroke-width:1px;stroke-linecap:butt;stroke-linejoin:miter;stroke-opacity:1" d="M 959.697,863.452 968.14,861.763 z" id="boundary" inkscape:connector-curvature="0" />
	<path style="fill:none;stroke:red;stroke-width:1px;stroke-linecap:butt;stroke-linejoin:miter;stroke-opacity:1" d="M 968.14,861.763 976.582,860.919 z" id="boundary" inkscape:connector-curvature="0" />
	<path style="fill:none;stroke:red;stroke-width:1px;stroke-linecap:butt;stroke-linejoin:miter;stroke-opacity:1" d="M 959.697,863.452 951.254,860.919 z" id="boundary" inkscape:connector-curvature="0" />
	<path style="fill:none;stroke:red;stroke-width:1px;stroke-linecap:butt;stroke-linejoin:miter;stroke-opacity:1" d="M 983.336,855.854 976.582,860.919 z" id="boundary" inkscape:connector-curvature="0" />
	<path style="fill:none;stroke:red;stroke-width:1px;stroke-linecap:butt;stroke-linejoin:miter;stroke-opacity:1" d="M 990.09,849.1 983.336,855.854 z" id="boundary" inkscape:connector-curvature="0" />
	<circle cx="4" cy="73.2289" r="4" fill="#0" id="circle0"/>
	<circle cx="4" cy="81.6715" r="4" fill="#0" id="circle1"/>
	<circle cx="4" cy="90.114" r="4" fill="#0" id="circle2"/>
	<circle cx="4.84426" cy="98.5566" r="4" fill="#0" id="circle3"/>
	<circle cx="5.68851" cy="106.999" r="4" fill="#0" id="circle4"/>
	<circle cx="6.53277" cy="61.4094" r="4" fill="#0" id="circle5"/>
	<circle cx="7.37702" cy="115.442" r="4" fill="#0" id="circle6"/>
	<circle cx="9.06553" cy="52.9668" r="4" fill="#0" id="circle7"/>
	<circle cx="9.06553" cy="123.884" r="4" fill="#0" id="circle8"/>
	<circle cx="11.5983" cy="132.327" r="4" fill="#0" id="circle9"/>
	<circle cx="12.4426" cy="140.769" r="4" fill="#0" id="circle10"/>
	<circle cx="13.2868" cy="44.5243" r="4" fill="#0" id="circle11"/>
	<circle cx="15.8196" cy="149.212" r="4" fill="#0" id="circle12"/>
	<circle cx="18.3523" cy="36.926" r="4" fill="#0" id="circle13"/>
	<circle cx="19.1966" cy="157.654" r="4" fill="#0" id="circle14"/>
	<circle cx="21.7294" cy="166.097" r="4" fill="#0" id="circle15"/>
	<circle cx="23.4179" cy="30.1719" r="4" fill="#0" id="circle16"/>
	<circle cx="25.9506" cy="173.695" r="4" fill="#0" id="circle17"/>
	<circle cx="29.3277" cy="182.138" r="4" fill="#0" id="circle18"/>
	<circle cx="30.1719" cy="23.4179" r="4" fill="#0" id="circle19"/>
	<circle cx="34.3932" cy="188.892" r="4" fill="#0" id="circle20"/>
	<circle cx="36.926" cy="18.3523" r="4" fill="#0" id="circle21"/>
	<circle cx="38.6145" cy="196.49" r="4" fill="#0" id="circle22"/>
	<circle cx="42.8357" cy="204.089" r="4" fill="#0" id="circle23"/>
	<circle cx="44.5243" cy="13.2868" r="4" fill="#0" id="circle24"/>
	<circle cx="47.057" cy="211.687" r="4" fill="#0" id="circle25"/>
	<circle cx="52.1226" cy="218.441" r="4" fill="#0" id="circle26"/>
	<circle cx="52.9668" cy="9.90979" r="4" fill="#0" id="circle27"/>
	<circle cx="57.1881" cy="225.195" r="4" fill="#0" id="circle28"/>
	<circle cx="61.4094" cy="7.37702" r="4" fill="#0" id="circle29"/>
	<circle cx="62.2536" cy="231.949" r="4" fill="#0" id="circle30"/>
	<circle cx="67.3191" cy="238.703" r="4" fill="#0" id="circle31"/>
	<circle cx="69.8519" cy="5.68851" r="4" fill="#0" id="circle32"/>
	<circle cx="74.0732" cy="244.613" r="4" fill="#0" id="circle33"/>
	<circle cx="78.2945" cy="4.84426" r="4" fill="#0" id="circle34"/>
	<circle cx="79.1387" cy="251.367" r="4" fill="#0" id="circle35"/>
	<circle cx="84.2043" cy="258.121" r="4" fill="#0" id="circle36"/>
	<circle cx="86.737" cy="4" r="4" fill="#0" id="circle37"/>
	<circle cx="90.114" cy="264.875" r="4" fill="#0" id="circle38"/>
	<circle cx="95.1796" cy="4" r="4" fill="#0" id="circle39"/>
	<circle cx="96.8681" cy="270.785" r="4" fill="#0" id="circle40"/>
	<circle cx="101.089" cy="278.383" r="4" fill="#0" id="circle41"/>
	<circle cx="103.622" cy="4" r="4" fill="#0" id="circle42"/>
	<circle cx="107.843" cy="284.293" r="4" fill="#0" id="circle43"/>
	<circle cx="112.065" cy="5.68851" r="4" fill="#0" id="circle44"/>
	<circle cx="114.597" cy="289.358" r="4" fill="#0" id="circle45"/>
	<circle cx="120.507" cy="6.53277" r="4" fill="#0" id="circle46"/>
	<circle cx="120.507" cy="296.112" r="4" fill="#0" id="circle47"/>
	<circle cx="127.261" cy="301.178" r="4" fill="#0" id="circle48"/>
	<circle cx="128.95" cy="9.06553" r="4" fill="#0" id="circle49"/>
	<circle cx="133.171" cy="307.932" r="4" fill="#0" id="circle50"/>
	<circle cx="137.392" cy="11.5983" r="4" fill="#0" id="circle51"/>
	<circle cx="139.925" cy="312.997" r="4" fill="#0" id="circle52"/>
	<circle cx="144.991" cy="319.751" r="4" fill="#0" id="circle53"/>
	<circle cx="145.835" cy="14.9753" r="4" fill="#0" id="circle54"/>
	<circle cx="152.589" cy="323.973" r="4" fill="#0" id="circle55"/>
	<circle cx="154.277" cy="16.6638" r="4" fill="#0" id="circle56"/>
	<circle cx="159.343" cy="329.038" r="4" fill="#0" id="circle57"/>
	<circle cx="162.72" cy="20.0409" r="4" fill="#0" id="circle58"/>
	<circle cx="166.941" cy="333.26" r="4" fill="#0" id="circle59"/>
	<circle cx="171.163" cy="23.4179" r="4" fill="#0" id="circle60"/>
	<circle cx="173.695" cy="338.325" r="4" fill="#0" id="circle61"/>
	<circle cx="178.761" cy="27.6391" r="4" fill="#0" id="circle62"/>
	<circle cx="180.449" cy="343.391" r="4" fill="#0" id="circle63"/>
	<circle cx="187.203" cy="31.0162" r="4" fill="#0" id="circle64"/>
	<circle cx="187.203" cy="348.456" r="4" fill="#0" id="circle65"/>
	<circle cx="193.957" cy="353.522" r="4" fill="#0" id="circle66"/>
	<circle cx="195.646" cy="34.3932" r="4" fill="#0" id="circle67"/>
	<circle cx="200.711" cy="358.587" r="4" fill="#0" id="circle68"/>
	<circle cx="203.244" cy="38.6145" r="4" fill="#0" id="circle69"/>
	<circle cx="209.154" cy="361.964" r="4" fill="#0" id="circle70"/>
	<circle cx="210.843" cy="42.8357" r="4" fill="#0" id="circle71"/>
	<circle cx="215.908" cy="367.03" r="4" fill="#0" id="circle72"/>
	<circle cx="217.597" cy="47.9013" r="4" fill="#0" id="circle73"/>
	<circle cx="222.662" cy="372.095" r="4" fill="#0" id="circle74"/>
	<circle cx="225.195" cy="52.1226" r="4" fill="#0" id="circle75"/>
	<circle cx="231.105" cy="375.472" r="4" fill="#0" id="circle76"/>
	<circle cx="232.793" cy="56.3438" r="4" fill="#0" id="circle77"/>
	<circle cx="238.703" cy="379.694" r="4" fill="#0" id="circle78"/>
	<circle cx="239.547" cy="61.4094" r="4" fill="#0" id="circle79"/>
	<circle cx="245.457" cy="384.759" r="4" fill="#0" id="circle80"/>
	<circle cx="247.146" cy="65.6306" r="4" fill="#0" id="circle81"/>
	<circle cx="253.9" cy="70.6962" r="4" fill="#0" id="circle82"/>
	<circle cx="253.9" cy="388.136" r="4" fill="#0" id="circle83"/>
	<circle cx="261.498" cy="74.9174" r="4" fill="#0" id="circle84"/>
	<circle cx="261.498" cy="392.357" r="4" fill="#0" id="circle85"/>
	<circle cx="268.252" cy="80.8272" r="4" fill="#0" id="circle86"/>
	<circle cx="269.94" cy="394.89" r="4" fill="#0" id="circle87"/>
	<circle cx="275.006" cy="85.8928" r="4" fill="#0" id="circle88"/>
	<circle cx="278.383" cy="398.267" r="4" fill="#0" id="circle89"/>
	<circle cx="281.76" cy="90.9583" r="4" fill="#0" id="circle90"/>
	<circle cx="285.981" cy="402.489" r="4" fill="#0" id="circle91"/>
	<circle cx="288.514" cy="96.0238" r="4" fill="#0" id="circle92"/>
	<circle cx="294.424" cy="405.866" r="4" fill="#0" id="circle93"/>
	<circle cx="295.268" cy="101.089" r="4" fill="#0" id="circle94"/>
	<circle cx="302.022" cy="106.999" r="4" fill="#0" id="circle95"/>
	<circle cx="302.022" cy="410.087" r="4" fill="#0" id="circle96"/>
	<circle cx="308.776" cy="112.909" r="4" fill="#0" id="circle97"/>
	<circle cx="310.465" cy="413.464" r="4" fill="#0" id="circle98"/>
	<circle cx="315.53" cy="118.819" r="4" fill="#0" id="circle99"/>
	<circle cx="318.907" cy="414.308" r="4" fill="#0" id="circle100"/>
	<circle cx="322.284" cy="124.729" r="4" fill="#0" id="circle101"/>
	<circle cx="327.35" cy="417.685" r="4" fill="#0" id="circle102"/>
	<circle cx="329.038" cy="130.638" r="4" fill="#0" id="circle103"/>
	<circle cx="334.104" cy="137.392" r="4" fill="#0" id="circle104"/>
	<circle cx="335.792" cy="421.062" r="4" fill="#0" id="circle105"/>
	<circle cx="340.858" cy="142.458" r="4" fill="#0" id="circle106"/>
	<circle cx="343.391" cy="425.283" r="4" fill="#0" id="circle107"/>
	<circle cx="346.768" cy="149.212" r="4" fill="#0" id="circle108"/>
	<circle cx="351.833" cy="155.966" r="4" fill="#0" id="circle109"/>
	<circle cx="351.833" cy="428.66" r="4" fill="#0" id="circle110"/>
	<circle cx="358.587" cy="161.876" r="4" fill="#0" id="circle111"/>
	<circle cx="360.276" cy="431.193" r="4" fill="#0" id="circle112"/>
	<circle cx="364.497" cy="168.63" r="4" fill="#0" id="circle113"/>
	<circle cx="368.718" cy="433.726" r="4" fill="#0" id="circle114"/>
	<circle cx="370.407" cy="175.384" r="4" fill="#0" id="circle115"/>
	<circle cx="375.472" cy="182.138" r="4" fill="#0" id="circle116"/>
	<circle cx="377.161" cy="436.259" r="4" fill="#0" id="circle117"/>
	<circle cx="381.382" cy="188.892" r="4" fill="#0" id="circle118"/>
	<circle cx="384.759" cy="440.48" r="4" fill="#0" id="circle119"/>
	<circle cx="386.448" cy="195.646" r="4" fill="#0" id="circle120"/>
	<circle cx="391.513" cy="202.4" r="4" fill="#0" id="circle121"/>
	<circle cx="393.202" cy="443.013" r="4" fill="#0" id="circle122"/>
	<circle cx="396.579" cy="209.154" r="4" fill="#0" id="circle123"/>
	<circle cx="401.644" cy="215.908" r="4" fill="#0" id="circle124"/>
	<circle cx="401.644" cy="446.39" r="4" fill="#0" id="circle125"/>
	<circle cx="407.554" cy="222.662" r="4" fill="#0" id="circle126"/>
	<circle cx="410.087" cy="449.767" r="4" fill="#0" id="circle127"/>
	<circle cx="411.775" cy="230.26" r="4" fill="#0" id="circle128"/>
	<circle cx="416.841" cy="237.014" r="4" fill="#0" id="circle129"/>
	<circle cx="418.529" cy="453.144" r="4" fill="#0" id="circle130"/>
	<circle cx="421.906" cy="243.769" r="4" fill="#0" id="circle131"/>
	<circle cx="426.128" cy="251.367" r="4" fill="#0" id="circle132"/>
	<circle cx="426.972" cy="456.521" r="4" fill="#0" id="circle133"/>
	<circle cx="430.349" cy="258.965" r="4" fill="#0" id="circle134"/>
	<circle cx="435.414" cy="265.719" r="4" fill="#0" id="circle135"/>
	<circle cx="435.414" cy="459.898" r="4" fill="#0" id="circle136"/>
	<circle cx="439.636" cy="273.317" r="4" fill="#0" id="circle137"/>
	<circle cx="443.013" cy="464.119" r="4" fill="#0" id="circle138"/>
	<circle cx="443.857" cy="280.916" r="4" fill="#0" id="circle139"/>
	<circle cx="448.078" cy="288.514" r="4" fill="#0" id="circle140"/>
	<circle cx="450.611" cy="468.34" r="4" fill="#0" id="circle141"/>
	<circle cx="452.3" cy="296.112" r="4" fill="#0" id="circle142"/>
	<circle cx="456.521" cy="303.711" r="4" fill="#0" id="circle143"/>
	<circle cx="459.054" cy="470.873" r="4" fill="#0" id="circle144"/>
	<circle cx="460.742" cy="311.309" r="4" fill="#0" id="circle145"/>
	<circle cx="464.963" cy="318.907" r="4" fill="#0" id="circle146"/>
	<circle cx="466.652" cy="475.094" r="4" fill="#0" id="circle147"/>
	<circle cx="469.185" cy="326.506" r="4" fill="#0" id="circle148"/>
	<circle cx="473.406" cy="334.104" r="4" fill="#0" id="circle149"/>
	<circle cx="474.25" cy="479.316" r="4" fill="#0" id="circle150"/>
	<circle cx="477.627" cy="341.702" r="4" fill="#0" id="circle151"/>
	<circle cx="481.849" cy="349.3" r="4" fill="#0" id="circle152"/>
	<circle cx="481.849" cy="483.537" r="4" fill="#0" id="circle153"/>
	<circle cx="486.914" cy="356.054" r="4" fill="#0" id="circle154"/>
	<circle cx="490.291" cy="486.914" r="4" fill="#0" id="circle155"/>
	<circle cx="491.135" cy="363.653" r="4" fill="#0" id="circle156"/>
	<circle cx="496.201" cy="370.407" r="4" fill="#0" id="circle157"/>
	<circle cx="497.045" cy="491.98" r="4" fill="#0" id="circle158"/>
	<circle cx="501.266" cy="377.161" r="4" fill="#0" id="circle159"/>
	<circle cx="504.643" cy="496.201" r="4" fill="#0" id="circle160"/>
	<circle cx="505.488" cy="384.759" r="4" fill="#0" id="circle161"/>
	<circle cx="510.553" cy="391.513" r="4" fill="#0" id="circle162"/>
	<circle cx="511.397" cy="501.266" r="4" fill="#0" id="circle163"/>
	<circle cx="515.619" cy="398.267" r="4" fill="#0" id="circle164"/>
	<circle cx="518.151" cy="507.176" r="4" fill="#0" id="circle165"/>
	<circle cx="521.529" cy="405.021" r="4" fill="#0" id="circle166"/>
	<circle cx="525.75" cy="511.397" r="4" fill="#0" id="circle167"/>
	<circle cx="526.594" cy="411.775" r="4" fill="#0" id="circle168"/>
	<circle cx="532.504" cy="418.529" r="4" fill="#0" id="circle169"/>
	<circle cx="533.348" cy="515.619" r="4" fill="#0" id="circle170"/>
	<circle cx="538.414" cy="425.283" r="4" fill="#0" id="circle171"/>
	<circle cx="539.258" cy="522.373" r="4" fill="#0" id="circle172"/>
	<circle cx="545.168" cy="431.193" r="4" fill="#0" id="circle173"/>
	<circle cx="546.012" cy="527.438" r="4" fill="#0" id="circle174"/>
	<circle cx="551.077" cy="437.947" r="4" fill="#0" id="circle175"/>
	<circle cx="551.077" cy="534.192" r="4" fill="#0" id="circle176"/>
	<circle cx="557.831" cy="443.857" r="4" fill="#0" id="circle177"/>
	<circle cx="557.831" cy="539.258" r="4" fill="#0" id="circle178"/>
	<circle cx="563.741" cy="450.611" r="4" fill="#0" id="circle179"/>
	<circle cx="563.741" cy="546.012" r="4" fill="#0" id="circle180"/>
	<circle cx="570.495" cy="455.677" r="4" fill="#0" id="circle181"/>
	<circle cx="571.34" cy="550.233" r="4" fill="#0" id="circle182"/>
	<circle cx="577.249" cy="461.586" r="4" fill="#0" id="circle183"/>
	<circle cx="577.249" cy="556.987" r="4" fill="#0" id="circle184"/>
	<circle cx="584.003" cy="467.496" r="4" fill="#0" id="circle185"/>
	<circle cx="584.848" cy="561.209" r="4" fill="#0" id="circle186"/>
	<circle cx="590.757" cy="473.406" r="4" fill="#0" id="circle187"/>
	<circle cx="591.602" cy="566.274" r="4" fill="#0" id="circle188"/>
	<circle cx="597.511" cy="478.471" r="4" fill="#0" id="circle189"/>
	<circle cx="597.511" cy="573.028" r="4" fill="#0" id="circle190"/>
	<circle cx="604.266" cy="484.381" r="4" fill="#0" id="circle191"/>
	<circle cx="604.266" cy="578.094" r="4" fill="#0" id="circle192"/>
	<circle cx="611.02" cy="490.291" r="4" fill="#0" id="circle193"/>
	<circle cx="611.02" cy="583.159" r="4" fill="#0" id="circle194"/>
	<circle cx="617.774" cy="496.201" r="4" fill="#0" id="circle195"/>
	<circle cx="617.774" cy="588.225" r="4" fill="#0" id="circle196"/>
	<circle cx="624.528" cy="502.111" r="4" fill="#0" id="circle197"/>
	<circle cx="624.528" cy="594.134" r="4" fill="#0" id="circle198"/>
	<circle cx="630.437" cy="508.865" r="4" fill="#0" id="circle199"/>
	<circle cx="631.282" cy="599.2" r="4" fill="#0" id="circle200"/>
	<circle cx="637.191" cy="513.93" r="4" fill="#0" id="circle201"/>
	<circle cx="638.036" cy="605.11" r="4" fill="#0" id="circle202"/>
	<circle cx="643.946" cy="518.996" r="4" fill="#0" id="circle203"/>
	<circle cx="644.79" cy="611.02" r="4" fill="#0" id="circle204"/>
	<circle cx="650.7" cy="524.906" r="4" fill="#0" id="circle205"/>
	<circle cx="652.388" cy="615.241" r="4" fill="#0" id="circle206"/>
	<circle cx="657.454" cy="530.815" r="4" fill="#0" id="circle207"/>
	<circle cx="657.454" cy="621.995" r="4" fill="#0" id="circle208"/>
	<circle cx="664.208" cy="536.725" r="4" fill="#0" id="circle209"/>
	<circle cx="664.208" cy="627.06" r="4" fill="#0" id="circle210"/>
	<circle cx="670.962" cy="542.635" r="4" fill="#0" id="circle211"/>
	<circle cx="670.962" cy="632.97" r="4" fill="#0" id="circle212"/>
	<circle cx="677.716" cy="547.7" r="4" fill="#0" id="circle213"/>
	<circle cx="677.716" cy="638.036" r="4" fill="#0" id="circle214"/>
	<circle cx="684.47" cy="553.61" r="4" fill="#0" id="circle215"/>
	<circle cx="684.47" cy="643.946" r="4" fill="#0" id="circle216"/>
	<circle cx="690.38" cy="560.364" r="4" fill="#0" id="circle217"/>
	<circle cx="691.224" cy="649.011" r="4" fill="#0" id="circle218"/>
	<circle cx="696.289" cy="655.765" r="4" fill="#0" id="circle219"/>
	<circle cx="697.134" cy="565.43" r="4" fill="#0" id="circle220"/>
	<circle cx="703.043" cy="660.831" r="4" fill="#0" id="circle221"/>
	<circle cx="703.888" cy="570.495" r="4" fill="#0" id="circle222"/>
	<circle cx="709.797" cy="665.896" r="4" fill="#0" id="circle223"/>
	<circle cx="710.642" cy="576.405" r="4" fill="#0" id="circle224"/>
	<circle cx="715.707" cy="672.65" r="4" fill="#0" id="circle225"/>
	<circle cx="717.396" cy="582.315" r="4" fill="#0" id="circle226"/>
	<circle cx="723.306" cy="676.871" r="4" fill="#0" id="circle227"/>
	<circle cx="724.15" cy="587.38" r="4" fill="#0" id="circle228"/>
	<circle cx="730.06" cy="681.937" r="4" fill="#0" id="circle229"/>
	<circle cx="730.904" cy="593.29" r="4" fill="#0" id="circle230"/>
	<circle cx="736.814" cy="600.044" r="4" fill="#0" id="circle231"/>
	<circle cx="736.814" cy="687.003" r="4" fill="#0" id="circle232"/>
	<circle cx="743.568" cy="605.11" r="4" fill="#0" id="circle233"/>
	<circle cx="743.568" cy="692.912" r="4" fill="#0" id="circle234"/>
	<circle cx="750.322" cy="610.175" r="4" fill="#0" id="circle235"/>
	<circle cx="750.322" cy="697.978" r="4" fill="#0" id="circle236"/>
	<circle cx="757.076" cy="615.241" r="4" fill="#0" id="circle237"/>
	<circle cx="757.076" cy="703.043" r="4" fill="#0" id="circle238"/>
	<circle cx="763.83" cy="621.151" r="4" fill="#0" id="circle239"/>
	<circle cx="763.83" cy="708.953" r="4" fill="#0" id="circle240"/>
	<circle cx="768.895" cy="715.707" r="4" fill="#0" id="circle241"/>
	<circle cx="770.584" cy="627.06" r="4" fill="#0" id="circle242"/>
	<circle cx="775.649" cy="720.773" r="4" fill="#0" id="circle243"/>
	<circle cx="777.338" cy="632.97" r="4" fill="#0" id="circle244"/>
	<circle cx="782.403" cy="726.683" r="4" fill="#0" id="circle245"/>
	<circle cx="784.092" cy="638.036" r="4" fill="#0" id="circle246"/>
	<circle cx="789.157" cy="731.748" r="4" fill="#0" id="circle247"/>
	<circle cx="790.846" cy="643.946" r="4" fill="#0" id="circle248"/>
	<circle cx="795.911" cy="737.658" r="4" fill="#0" id="circle249"/>
	<circle cx="797.6" cy="649.855" r="4" fill="#0" id="circle250"/>
	<circle cx="802.666" cy="742.723" r="4" fill="#0" id="circle251"/>
	<circle cx="804.354" cy="655.765" r="4" fill="#0" id="circle252"/>
	<circle cx="808.575" cy="749.477" r="4" fill="#0" id="circle253"/>
	<circle cx="811.108" cy="660.831" r="4" fill="#0" id="circle254"/>
	<circle cx="815.329" cy="754.543" r="4" fill="#0" id="circle255"/>
	<circle cx="817.018" cy="667.585" r="4" fill="#0" id="circle256"/>
	<circle cx="822.083" cy="759.609" r="4" fill="#0" id="circle257"/>
	<circle cx="823.772" cy="672.65" r="4" fill="#0" id="circle258"/>
	<circle cx="828.837" cy="764.674" r="4" fill="#0" id="circle259"/>
	<circle cx="830.526" cy="678.56" r="4" fill="#0" id="circle260"/>
	<circle cx="835.591" cy="769.74" r="4" fill="#0" id="circle261"/>
	<circle cx="837.28" cy="684.47" r="4" fill="#0" id="circle262"/>
	<circle cx="842.346" cy="774.805" r="4" fill="#0" id="circle263"/>
	<circle cx="844.034" cy="689.535" r="4" fill="#0" id="circle264"/>
	<circle cx="849.1" cy="780.715" r="4" fill="#0" id="circle265"/>
	<circle cx="850.788" cy="695.445" r="4" fill="#0" id="circle266"/>
	<circle cx="855.854" cy="786.625" r="4" fill="#0" id="circle267"/>
	<circle cx="857.542" cy="700.511" r="4" fill="#0" id="circle268"/>
	<circle cx="861.763" cy="793.379" r="4" fill="#0" id="circle269"/>
	<circle cx="864.296" cy="706.42" r="4" fill="#0" id="circle270"/>
	<circle cx="868.517" cy="798.444" r="4" fill="#0" id="circle271"/>
	<circle cx="871.05" cy="712.33" r="4" fill="#0" id="circle272"/>
	<circle cx="875.271" cy="803.51" r="4" fill="#0" id="circle273"/>
	<circle cx="877.804" cy="717.396" r="4" fill="#0" id="circle274"/>
	<circle cx="882.87" cy="807.731" r="4" fill="#0" id="circle275"/>
	<circle cx="884.558" cy="723.306" r="4" fill="#0" id="circle276"/>
	<circle cx="888.78" cy="814.485" r="4" fill="#0" id="circle277"/>
	<circle cx="890.468" cy="730.06" r="4" fill="#0" id="circle278"/>
	<circle cx="895.534" cy="819.551" r="4" fill="#0" id="circle279"/>
	<circle cx="897.222" cy="735.125" r="4" fill="#0" id="circle280"/>
	<circle cx="902.288" cy="824.616" r="4" fill="#0" id="circle281"/>
	<circle cx="903.976" cy="740.191" r="4" fill="#0" id="circle282"/>
	<circle cx="909.042" cy="829.682" r="4" fill="#0" id="circle283"/>
	<circle cx="910.73" cy="746.1" r="4" fill="#0" id="circle284"/>
	<circle cx="915.796" cy="835.591" r="4" fill="#0" id="circle285"/>
	<circle cx="917.484" cy="751.166" r="4" fill="#0" id="circle286"/>
	<circle cx="922.55" cy="840.657" r="4" fill="#0" id="circle287"/>
	<circle cx="923.394" cy="757.92" r="4" fill="#0" id="circle288"/>
	<circle cx="929.304" cy="845.723" r="4" fill="#0" id="circle289"/>
	<circle cx="930.148" cy="762.986" r="4" fill="#0" id="circle290"/>
	<circle cx="936.058" cy="851.632" r="4" fill="#0" id="circle291"/>
	<circle cx="936.902" cy="768.895" r="4" fill="#0" id="circle292"/>
	<circle cx="942.812" cy="857.542" r="4" fill="#0" id="circle293"/>
	<circle cx="943.656" cy="773.961" r="4" fill="#0" id="circle294"/>
	<circle cx="950.41" cy="779.871" r="4" fill="#0" id="circle295"/>
	<circle cx="951.254" cy="860.919" r="4" fill="#0" id="circle296"/>
	<circle cx="957.164" cy="785.78" r="4" fill="#0" id="circle297"/>
	<circle cx="959.697" cy="863.452" r="4" fill="#0" id="circle298"/>
	<circle cx="963.918" cy="790.846" r="4" fill="#0" id="circle299"/>
	<circle cx="968.14" cy="861.763" r="4" fill="#0" id="circle300"/>
	<circle cx="970.672" cy="795.911" r="4" fill="#0" id="circle301"/>
	<circle cx="976.582" cy="802.666" r="4" fill="#0" id="circle302"/>
	<circle cx="976.582" cy="860.919" r="4" fill="#0" id="circle303"/>
	<circle cx="983.336" cy="807.731" r="4" fill="#0" id="circle304"/>
	<circle cx="983.336" cy="855.854" r="4" fill="#0" id="circle305"/>
	<circle cx="989.246" cy="814.485" r="4" fill="#0" id="circle306"/>
	<circle cx="990.09" cy="849.1" r="4" fill="#0" id="circle307"/>
	<circle cx="994.311" cy="821.239" r="4" fill="#0" id="circle308"/>
	<circle cx="995.156" cy="840.657" r="4" fill="#0" id="circle309"/>
	<circle cx="996" cy="829.682" r="4" fill="#0" id="circle310"/>
	</g>
</svg>