<?xml version="1.0" encoding="UTF-8" standalone="no"?>
<!-- Created with CurveBenchmark -->
<svg
	xmlns:dc="http://purl.org/dc/elements/1.1/"
	xmlns:cc="http://creativecommons.org/ns#"
	xmlns:rdf="http://www.w3.org/1999/02/22-rdf-syntax-ns#"
	xmlns:svg="http://www.w3.org/2000/svg"
	xmlns="http://www.w3.org/2000/svg"
	xmlns:sodipodi="http://sodipodi.sourceforge.net/DTD/sodipodi-0.dtd"
	xmlns:inkscape="http://www.inkscape.org/namespaces/inkscape"
	width="1000"
	height="1000"
	id="svg2"
	version="1.1"
	sodipodi:docname="manifold/gathan1-car-06.png.txt">
<defs
	id="defs4" />
<metadata
	id="metadata7">
	<rdf:RDF>
		<cc:Work
			rdf:about="">
			<dc:format>image/svg+xml</dc:format>
			<dc:type
				rdf:resource="http://purl.org/dc/dcmitype/StillImage" />
			<dc:title></dc:title>
		</cc:Work>
	</rdf:RDF>
</metadata>
<g
	inkscape:label="Layer 1"
	inkscape:groupmode="layer"
	id="layer1">
	<path style="fill:none;stroke:red;stroke-width:1px;stroke-linecap:butt;stroke-linejoin:miter;stroke-opacity:1" d="M 163.449,166.866 152.06,169.144 z" id="boundary" inkscape:connector-curvature="0" />
	<path style="fill:none;stroke:red;stroke-width:1px;stroke-linecap:butt;stroke-linejoin:miter;stroke-opacity:1" d="M 152.06,169.144 140.67,169.144 z" id="boundary" inkscape:connector-curvature="0" />
	<path style="fill:none;stroke:red;stroke-width:1px;stroke-linecap:butt;stroke-linejoin:miter;stroke-opacity:1" d="M 174.838,163.449 163.449,166.866 z" id="boundary" inkscape:connector-curvature="0" />
	<path style="fill:none;stroke:red;stroke-width:1px;stroke-linecap:butt;stroke-linejoin:miter;stroke-opacity:1" d="M 129.281,172.56 140.67,169.144 z" id="boundary" inkscape:connector-curvature="0" />
	<path style="fill:none;stroke:red;stroke-width:1px;stroke-linecap:butt;stroke-linejoin:miter;stroke-opacity:1" d="M 95.1137,174.838 106.503,174.838 z" id="boundary" inkscape:connector-curvature="0" />
	<path style="fill:none;stroke:red;stroke-width:1px;stroke-linecap:butt;stroke-linejoin:miter;stroke-opacity:1" d="M 84.8634,180.533 95.1137,174.838 z" id="boundary" inkscape:connector-curvature="0" />
	<path style="fill:none;stroke:red;stroke-width:1px;stroke-linecap:butt;stroke-linejoin:miter;stroke-opacity:1" d="M 129.281,172.56 117.892,174.838 z" id="boundary" inkscape:connector-curvature="0" />
	<path style="fill:none;stroke:red;stroke-width:1px;stroke-linecap:butt;stroke-linejoin:miter;stroke-opacity:1" d="M 117.892,174.838 106.503,174.838 z" id="boundary" inkscape:connector-curvature="0" />
	<path style="fill:none;stroke:red;stroke-width:1px;stroke-linecap:butt;stroke-linejoin:miter;stroke-opacity:1" d="M 220.395,161.171 231.784,157.754 z" id="boundary" inkscape:connector-curvature="0" />
	<path style="fill:none;stroke:red;stroke-width:1px;stroke-linecap:butt;stroke-linejoin:miter;stroke-opacity:1" d="M 231.784,157.754 243.173,157.754 z" id="boundary" inkscape:connector-curvature="0" />
	<path style="fill:none;stroke:red;stroke-width:1px;stroke-linecap:butt;stroke-linejoin:miter;stroke-opacity:1" d="M 209.006,163.449 220.395,161.171 z" id="boundary" inkscape:connector-curvature="0" />
	<path style="fill:none;stroke:red;stroke-width:1px;stroke-linecap:butt;stroke-linejoin:miter;stroke-opacity:1" d="M 174.838,163.449 186.227,163.449 z" id="boundary" inkscape:connector-curvature="0" />
	<path style="fill:none;stroke:red;stroke-width:1px;stroke-linecap:butt;stroke-linejoin:miter;stroke-opacity:1" d="M 197.617,163.449 186.227,163.449 z" id="boundary" inkscape:connector-curvature="0" />
	<path style="fill:none;stroke:red;stroke-width:1px;stroke-linecap:butt;stroke-linejoin:miter;stroke-opacity:1" d="M 209.006,163.449 197.617,163.449 z" id="boundary" inkscape:connector-curvature="0" />
	<path style="fill:none;stroke:red;stroke-width:1px;stroke-linecap:butt;stroke-linejoin:miter;stroke-opacity:1" d="M 4,223.812 13.1114,214.7 z" id="boundary" inkscape:connector-curvature="0" />
	<path style="fill:none;stroke:red;stroke-width:1px;stroke-linecap:butt;stroke-linejoin:miter;stroke-opacity:1" d="M 4,235.201 4,223.812 z" id="boundary" inkscape:connector-curvature="0" />
	<path style="fill:none;stroke:red;stroke-width:1px;stroke-linecap:butt;stroke-linejoin:miter;stroke-opacity:1" d="M 4,246.59 4,235.201 z" id="boundary" inkscape:connector-curvature="0" />
	<path style="fill:none;stroke:red;stroke-width:1px;stroke-linecap:butt;stroke-linejoin:miter;stroke-opacity:1" d="M 4,257.979 4,246.59 z" id="boundary" inkscape:connector-curvature="0" />
	<path style="fill:none;stroke:red;stroke-width:1px;stroke-linecap:butt;stroke-linejoin:miter;stroke-opacity:1" d="M 9.6946,291.008 4,280.758 z" id="boundary" inkscape:connector-curvature="0" />
	<path style="fill:none;stroke:red;stroke-width:1px;stroke-linecap:butt;stroke-linejoin:miter;stroke-opacity:1" d="M 4,280.758 4,269.369 z" id="boundary" inkscape:connector-curvature="0" />
	<path style="fill:none;stroke:red;stroke-width:1px;stroke-linecap:butt;stroke-linejoin:miter;stroke-opacity:1" d="M 4,269.369 4,257.979 z" id="boundary" inkscape:connector-curvature="0" />
	<path style="fill:none;stroke:red;stroke-width:1px;stroke-linecap:butt;stroke-linejoin:miter;stroke-opacity:1" d="M 13.1114,214.7 22.2227,205.589 z" id="boundary" inkscape:connector-curvature="0" />
	<path style="fill:none;stroke:red;stroke-width:1px;stroke-linecap:butt;stroke-linejoin:miter;stroke-opacity:1" d="M 62.085,180.533 73.4742,180.533 z" id="boundary" inkscape:connector-curvature="0" />
	<path style="fill:none;stroke:red;stroke-width:1px;stroke-linecap:butt;stroke-linejoin:miter;stroke-opacity:1" d="M 51.8347,186.227 62.085,180.533 z" id="boundary" inkscape:connector-curvature="0" />
	<path style="fill:none;stroke:red;stroke-width:1px;stroke-linecap:butt;stroke-linejoin:miter;stroke-opacity:1" d="M 84.8634,180.533 73.4742,180.533 z" id="boundary" inkscape:connector-curvature="0" />
	<path style="fill:none;stroke:red;stroke-width:1px;stroke-linecap:butt;stroke-linejoin:miter;stroke-opacity:1" d="M 22.2227,205.589 31.3341,197.617 z" id="boundary" inkscape:connector-curvature="0" />
	<path style="fill:none;stroke:red;stroke-width:1px;stroke-linecap:butt;stroke-linejoin:miter;stroke-opacity:1" d="M 31.3341,197.617 41.5844,191.922 z" id="boundary" inkscape:connector-curvature="0" />
	<path style="fill:none;stroke:red;stroke-width:1px;stroke-linecap:butt;stroke-linejoin:miter;stroke-opacity:1" d="M 41.5844,191.922 51.8347,186.227 z" id="boundary" inkscape:connector-curvature="0" />
	<path style="fill:none;stroke:red;stroke-width:1px;stroke-linecap:butt;stroke-linejoin:miter;stroke-opacity:1" d="M 243.173,157.754 254.563,157.754 z" id="boundary" inkscape:connector-curvature="0" />
	<path style="fill:none;stroke:red;stroke-width:1px;stroke-linecap:butt;stroke-linejoin:miter;stroke-opacity:1" d="M 369.594,100.808 380.983,100.808 z" id="boundary" inkscape:connector-curvature="0" />
	<path style="fill:none;stroke:red;stroke-width:1px;stroke-linecap:butt;stroke-linejoin:miter;stroke-opacity:1" d="M 359.343,106.503 369.594,100.808 z" id="boundary" inkscape:connector-curvature="0" />
	<path style="fill:none;stroke:red;stroke-width:1px;stroke-linecap:butt;stroke-linejoin:miter;stroke-opacity:1" d="M 392.372,100.808 380.983,100.808 z" id="boundary" inkscape:connector-curvature="0" />
	<path style="fill:none;stroke:red;stroke-width:1px;stroke-linecap:butt;stroke-linejoin:miter;stroke-opacity:1" d="M 392.372,100.808 403.761,100.808 z" id="boundary" inkscape:connector-curvature="0" />
	<path style="fill:none;stroke:red;stroke-width:1px;stroke-linecap:butt;stroke-linejoin:miter;stroke-opacity:1" d="M 403.761,100.808 415.15,104.225 z" id="boundary" inkscape:connector-curvature="0" />
	<path style="fill:none;stroke:red;stroke-width:1px;stroke-linecap:butt;stroke-linejoin:miter;stroke-opacity:1" d="M 465.263,87.1412 462.985,100.808 z" id="boundary" inkscape:connector-curvature="0" />
	<path style="fill:none;stroke:red;stroke-width:1px;stroke-linecap:butt;stroke-linejoin:miter;stroke-opacity:1" d="M 465.263,75.752 465.263,87.1412 z" id="boundary" inkscape:connector-curvature="0" />
	<path style="fill:none;stroke:red;stroke-width:1px;stroke-linecap:butt;stroke-linejoin:miter;stroke-opacity:1" d="M 415.15,104.225 425.401,109.92 z" id="boundary" inkscape:connector-curvature="0" />
	<path style="fill:none;stroke:red;stroke-width:1px;stroke-linecap:butt;stroke-linejoin:miter;stroke-opacity:1" d="M 470.958,41.5844 480.069,32.473 z" id="boundary" inkscape:connector-curvature="0" />
	<path style="fill:none;stroke:red;stroke-width:1px;stroke-linecap:butt;stroke-linejoin:miter;stroke-opacity:1" d="M 489.18,23.3617 480.069,32.473 z" id="boundary" inkscape:connector-curvature="0" />
	<path style="fill:none;stroke:red;stroke-width:1px;stroke-linecap:butt;stroke-linejoin:miter;stroke-opacity:1" d="M 465.263,52.9736 465.263,64.3628 z" id="boundary" inkscape:connector-curvature="0" />
	<path style="fill:none;stroke:red;stroke-width:1px;stroke-linecap:butt;stroke-linejoin:miter;stroke-opacity:1" d="M 465.263,52.9736 470.958,41.5844 z" id="boundary" inkscape:connector-curvature="0" />
	<path style="fill:none;stroke:red;stroke-width:1px;stroke-linecap:butt;stroke-linejoin:miter;stroke-opacity:1" d="M 465.263,75.752 465.263,64.3628 z" id="boundary" inkscape:connector-curvature="0" />
	<path style="fill:none;stroke:red;stroke-width:1px;stroke-linecap:butt;stroke-linejoin:miter;stroke-opacity:1" d="M 457.29,112.197 462.985,100.808 z" id="boundary" inkscape:connector-curvature="0" />
	<path style="fill:none;stroke:red;stroke-width:1px;stroke-linecap:butt;stroke-linejoin:miter;stroke-opacity:1" d="M 294.425,127.003 305.814,123.587 z" id="boundary" inkscape:connector-curvature="0" />
	<path style="fill:none;stroke:red;stroke-width:1px;stroke-linecap:butt;stroke-linejoin:miter;stroke-opacity:1" d="M 305.814,123.587 317.203,123.587 z" id="boundary" inkscape:connector-curvature="0" />
	<path style="fill:none;stroke:red;stroke-width:1px;stroke-linecap:butt;stroke-linejoin:miter;stroke-opacity:1" d="M 283.036,132.698 294.425,127.003 z" id="boundary" inkscape:connector-curvature="0" />
	<path style="fill:none;stroke:red;stroke-width:1px;stroke-linecap:butt;stroke-linejoin:miter;stroke-opacity:1" d="M 254.563,157.754 265.952,149.782 z" id="boundary" inkscape:connector-curvature="0" />
	<path style="fill:none;stroke:red;stroke-width:1px;stroke-linecap:butt;stroke-linejoin:miter;stroke-opacity:1" d="M 271.646,138.393 283.036,132.698 z" id="boundary" inkscape:connector-curvature="0" />
	<path style="fill:none;stroke:red;stroke-width:1px;stroke-linecap:butt;stroke-linejoin:miter;stroke-opacity:1" d="M 265.952,149.782 271.646,138.393 z" id="boundary" inkscape:connector-curvature="0" />
	<path style="fill:none;stroke:red;stroke-width:1px;stroke-linecap:butt;stroke-linejoin:miter;stroke-opacity:1" d="M 317.203,123.587 328.592,123.587 z" id="boundary" inkscape:connector-curvature="0" />
	<path style="fill:none;stroke:red;stroke-width:1px;stroke-linecap:butt;stroke-linejoin:miter;stroke-opacity:1" d="M 349.093,112.197 359.343,106.503 z" id="boundary" inkscape:connector-curvature="0" />
	<path style="fill:none;stroke:red;stroke-width:1px;stroke-linecap:butt;stroke-linejoin:miter;stroke-opacity:1" d="M 339.982,121.309 349.093,112.197 z" id="boundary" inkscape:connector-curvature="0" />
	<path style="fill:none;stroke:red;stroke-width:1px;stroke-linecap:butt;stroke-linejoin:miter;stroke-opacity:1" d="M 425.401,109.92 434.512,117.892 z" id="boundary" inkscape:connector-curvature="0" />
	<path style="fill:none;stroke:red;stroke-width:1px;stroke-linecap:butt;stroke-linejoin:miter;stroke-opacity:1" d="M 457.29,112.197 445.901,117.892 z" id="boundary" inkscape:connector-curvature="0" />
	<path style="fill:none;stroke:red;stroke-width:1px;stroke-linecap:butt;stroke-linejoin:miter;stroke-opacity:1" d="M 328.592,123.587 339.982,121.309 z" id="boundary" inkscape:connector-curvature="0" />
	<path style="fill:none;stroke:red;stroke-width:1px;stroke-linecap:butt;stroke-linejoin:miter;stroke-opacity:1" d="M 445.901,117.892 434.512,117.892 z" id="boundary" inkscape:connector-curvature="0" />
	<path style="fill:none;stroke:red;stroke-width:1px;stroke-linecap:butt;stroke-linejoin:miter;stroke-opacity:1" d="M 500.569,17.667 489.18,23.3617 z" id="boundary" inkscape:connector-curvature="0" />
	<path style="fill:none;stroke:red;stroke-width:1px;stroke-linecap:butt;stroke-linejoin:miter;stroke-opacity:1" d="M 9.6946,291.008 15.3892,301.258 z" id="boundary" inkscape:connector-curvature="0" />
	<path style="fill:none;stroke:red;stroke-width:1px;stroke-linecap:butt;stroke-linejoin:miter;stroke-opacity:1" d="M 15.3892,301.258 15.3892,312.648 z" id="boundary" inkscape:connector-curvature="0" />
	<path style="fill:none;stroke:red;stroke-width:1px;stroke-linecap:butt;stroke-linejoin:miter;stroke-opacity:1" d="M 182.811,415.15 171.421,415.15 z" id="boundary" inkscape:connector-curvature="0" />
	<path style="fill:none;stroke:red;stroke-width:1px;stroke-linecap:butt;stroke-linejoin:miter;stroke-opacity:1" d="M 15.3892,312.648 15.3892,324.037 z" id="boundary" inkscape:connector-curvature="0" />
	<path style="fill:none;stroke:red;stroke-width:1px;stroke-linecap:butt;stroke-linejoin:miter;stroke-opacity:1" d="M 15.3892,324.037 15.3892,335.426 z" id="boundary" inkscape:connector-curvature="0" />
	<path style="fill:none;stroke:red;stroke-width:1px;stroke-linecap:butt;stroke-linejoin:miter;stroke-opacity:1" d="M 15.3892,346.815 15.3892,358.204 z" id="boundary" inkscape:connector-curvature="0" />
	<path style="fill:none;stroke:red;stroke-width:1px;stroke-linecap:butt;stroke-linejoin:miter;stroke-opacity:1" d="M 18.806,369.594 15.3892,358.204 z" id="boundary" inkscape:connector-curvature="0" />
	<path style="fill:none;stroke:red;stroke-width:1px;stroke-linecap:butt;stroke-linejoin:miter;stroke-opacity:1" d="M 15.3892,346.815 15.3892,335.426 z" id="boundary" inkscape:connector-curvature="0" />
	<path style="fill:none;stroke:red;stroke-width:1px;stroke-linecap:butt;stroke-linejoin:miter;stroke-opacity:1" d="M 18.806,369.594 24.5006,379.844 z" id="boundary" inkscape:connector-curvature="0" />
	<path style="fill:none;stroke:red;stroke-width:1px;stroke-linecap:butt;stroke-linejoin:miter;stroke-opacity:1" d="M 24.5006,379.844 29.0563,391.233 z" id="boundary" inkscape:connector-curvature="0" />
	<path style="fill:none;stroke:red;stroke-width:1px;stroke-linecap:butt;stroke-linejoin:miter;stroke-opacity:1" d="M 29.0563,391.233 32.473,402.622 z" id="boundary" inkscape:connector-curvature="0" />
	<path style="fill:none;stroke:red;stroke-width:1px;stroke-linecap:butt;stroke-linejoin:miter;stroke-opacity:1" d="M 32.473,402.622 38.1676,412.873 z" id="boundary" inkscape:connector-curvature="0" />
	<path style="fill:none;stroke:red;stroke-width:1px;stroke-linecap:butt;stroke-linejoin:miter;stroke-opacity:1" d="M 38.1676,412.873 38.1676,424.262 z" id="boundary" inkscape:connector-curvature="0" />
	<path style="fill:none;stroke:red;stroke-width:1px;stroke-linecap:butt;stroke-linejoin:miter;stroke-opacity:1" d="M 161.171,420.845 171.421,415.15 z" id="boundary" inkscape:connector-curvature="0" />
	<path style="fill:none;stroke:red;stroke-width:1px;stroke-linecap:butt;stroke-linejoin:miter;stroke-opacity:1" d="M 55.2514,451.596 45.0011,445.901 z" id="boundary" inkscape:connector-curvature="0" />
	<path style="fill:none;stroke:red;stroke-width:1px;stroke-linecap:butt;stroke-linejoin:miter;stroke-opacity:1" d="M 45.0011,445.901 39.3065,435.651 z" id="boundary" inkscape:connector-curvature="0" />
	<path style="fill:none;stroke:red;stroke-width:1px;stroke-linecap:butt;stroke-linejoin:miter;stroke-opacity:1" d="M 39.3065,435.651 38.1676,424.262 z" id="boundary" inkscape:connector-curvature="0" />
	<path style="fill:none;stroke:red;stroke-width:1px;stroke-linecap:butt;stroke-linejoin:miter;stroke-opacity:1" d="M 66.6406,455.013 55.2514,451.596 z" id="boundary" inkscape:connector-curvature="0" />
	<path style="fill:none;stroke:red;stroke-width:1px;stroke-linecap:butt;stroke-linejoin:miter;stroke-opacity:1" d="M 78.0299,455.013 89.4191,455.013 z" id="boundary" inkscape:connector-curvature="0" />
	<path style="fill:none;stroke:red;stroke-width:1px;stroke-linecap:butt;stroke-linejoin:miter;stroke-opacity:1" d="M 78.0299,455.013 66.6406,455.013 z" id="boundary" inkscape:connector-curvature="0" />
	<path style="fill:none;stroke:red;stroke-width:1px;stroke-linecap:butt;stroke-linejoin:miter;stroke-opacity:1" d="M 99.6693,449.318 89.4191,455.013 z" id="boundary" inkscape:connector-curvature="0" />
	<path style="fill:none;stroke:red;stroke-width:1px;stroke-linecap:butt;stroke-linejoin:miter;stroke-opacity:1" d="M 140.67,428.817 149.782,420.845 z" id="boundary" inkscape:connector-curvature="0" />
	<path style="fill:none;stroke:red;stroke-width:1px;stroke-linecap:butt;stroke-linejoin:miter;stroke-opacity:1" d="M 149.782,420.845 161.171,420.845 z" id="boundary" inkscape:connector-curvature="0" />
	<path style="fill:none;stroke:red;stroke-width:1px;stroke-linecap:butt;stroke-linejoin:miter;stroke-opacity:1" d="M 131.559,437.929 140.67,428.817 z" id="boundary" inkscape:connector-curvature="0" />
	<path style="fill:none;stroke:red;stroke-width:1px;stroke-linecap:butt;stroke-linejoin:miter;stroke-opacity:1" d="M 99.6693,449.318 111.059,449.318 z" id="boundary" inkscape:connector-curvature="0" />
	<path style="fill:none;stroke:red;stroke-width:1px;stroke-linecap:butt;stroke-linejoin:miter;stroke-opacity:1" d="M 121.309,443.623 111.059,449.318 z" id="boundary" inkscape:connector-curvature="0" />
	<path style="fill:none;stroke:red;stroke-width:1px;stroke-linecap:butt;stroke-linejoin:miter;stroke-opacity:1" d="M 121.309,443.623 131.559,437.929 z" id="boundary" inkscape:connector-curvature="0" />
	<path style="fill:none;stroke:red;stroke-width:1px;stroke-linecap:butt;stroke-linejoin:miter;stroke-opacity:1" d="M 182.811,415.15 194.2,415.15 z" id="boundary" inkscape:connector-curvature="0" />
	<path style="fill:none;stroke:red;stroke-width:1px;stroke-linecap:butt;stroke-linejoin:miter;stroke-opacity:1" d="M 272.785,403.761 261.396,409.456 z" id="boundary" inkscape:connector-curvature="0" />
	<path style="fill:none;stroke:red;stroke-width:1px;stroke-linecap:butt;stroke-linejoin:miter;stroke-opacity:1" d="M 261.396,409.456 250.007,409.456 z" id="boundary" inkscape:connector-curvature="0" />
	<path style="fill:none;stroke:red;stroke-width:1px;stroke-linecap:butt;stroke-linejoin:miter;stroke-opacity:1" d="M 284.175,403.761 272.785,403.761 z" id="boundary" inkscape:connector-curvature="0" />
	<path style="fill:none;stroke:red;stroke-width:1px;stroke-linecap:butt;stroke-linejoin:miter;stroke-opacity:1" d="M 238.618,409.456 250.007,409.456 z" id="boundary" inkscape:connector-curvature="0" />
	<path style="fill:none;stroke:red;stroke-width:1px;stroke-linecap:butt;stroke-linejoin:miter;stroke-opacity:1" d="M 228.367,415.15 238.618,409.456 z" id="boundary" inkscape:connector-curvature="0" />
	<path style="fill:none;stroke:red;stroke-width:1px;stroke-linecap:butt;stroke-linejoin:miter;stroke-opacity:1" d="M 295.564,403.761 306.953,403.761 z" id="boundary" inkscape:connector-curvature="0" />
	<path style="fill:none;stroke:red;stroke-width:1px;stroke-linecap:butt;stroke-linejoin:miter;stroke-opacity:1" d="M 284.175,403.761 295.564,403.761 z" id="boundary" inkscape:connector-curvature="0" />
	<path style="fill:none;stroke:red;stroke-width:1px;stroke-linecap:butt;stroke-linejoin:miter;stroke-opacity:1" d="M 306.953,403.761 318.342,403.761 z" id="boundary" inkscape:connector-curvature="0" />
	<path style="fill:none;stroke:red;stroke-width:1px;stroke-linecap:butt;stroke-linejoin:miter;stroke-opacity:1" d="M 329.731,403.761 341.121,403.761 z" id="boundary" inkscape:connector-curvature="0" />
	<path style="fill:none;stroke:red;stroke-width:1px;stroke-linecap:butt;stroke-linejoin:miter;stroke-opacity:1" d="M 329.731,403.761 318.342,403.761 z" id="boundary" inkscape:connector-curvature="0" />
	<path style="fill:none;stroke:red;stroke-width:1px;stroke-linecap:butt;stroke-linejoin:miter;stroke-opacity:1" d="M 341.121,403.761 352.51,403.761 z" id="boundary" inkscape:connector-curvature="0" />
	<path style="fill:none;stroke:red;stroke-width:1px;stroke-linecap:butt;stroke-linejoin:miter;stroke-opacity:1" d="M 363.899,403.761 375.288,403.761 z" id="boundary" inkscape:connector-curvature="0" />
	<path style="fill:none;stroke:red;stroke-width:1px;stroke-linecap:butt;stroke-linejoin:miter;stroke-opacity:1" d="M 363.899,403.761 352.51,403.761 z" id="boundary" inkscape:connector-curvature="0" />
	<path style="fill:none;stroke:red;stroke-width:1px;stroke-linecap:butt;stroke-linejoin:miter;stroke-opacity:1" d="M 375.288,403.761 386.677,403.761 z" id="boundary" inkscape:connector-curvature="0" />
	<path style="fill:none;stroke:red;stroke-width:1px;stroke-linecap:butt;stroke-linejoin:miter;stroke-opacity:1" d="M 398.067,406.039 402.622,417.428 z" id="boundary" inkscape:connector-curvature="0" />
	<path style="fill:none;stroke:red;stroke-width:1px;stroke-linecap:butt;stroke-linejoin:miter;stroke-opacity:1" d="M 386.677,403.761 398.067,406.039 z" id="boundary" inkscape:connector-curvature="0" />
	<path style="fill:none;stroke:red;stroke-width:1px;stroke-linecap:butt;stroke-linejoin:miter;stroke-opacity:1" d="M 205.589,415.15 194.2,415.15 z" id="boundary" inkscape:connector-curvature="0" />
	<path style="fill:none;stroke:red;stroke-width:1px;stroke-linecap:butt;stroke-linejoin:miter;stroke-opacity:1" d="M 216.978,415.15 205.589,415.15 z" id="boundary" inkscape:connector-curvature="0" />
	<path style="fill:none;stroke:red;stroke-width:1px;stroke-linecap:butt;stroke-linejoin:miter;stroke-opacity:1" d="M 228.367,415.15 216.978,415.15 z" id="boundary" inkscape:connector-curvature="0" />
	<path style="fill:none;stroke:red;stroke-width:1px;stroke-linecap:butt;stroke-linejoin:miter;stroke-opacity:1" d="M 408.317,427.679 402.622,417.428 z" id="boundary" inkscape:connector-curvature="0" />
	<path style="fill:none;stroke:red;stroke-width:1px;stroke-linecap:butt;stroke-linejoin:miter;stroke-opacity:1" d="M 416.289,436.79 408.317,427.679 z" id="boundary" inkscape:connector-curvature="0" />
	<path style="fill:none;stroke:red;stroke-width:1px;stroke-linecap:butt;stroke-linejoin:miter;stroke-opacity:1" d="M 416.289,436.79 421.984,447.04 z" id="boundary" inkscape:connector-curvature="0" />
	<path style="fill:none;stroke:red;stroke-width:1px;stroke-linecap:butt;stroke-linejoin:miter;stroke-opacity:1" d="M 432.234,452.735 421.984,447.04 z" id="boundary" inkscape:connector-curvature="0" />
	<path style="fill:none;stroke:red;stroke-width:1px;stroke-linecap:butt;stroke-linejoin:miter;stroke-opacity:1" d="M 432.234,452.735 441.346,460.707 z" id="boundary" inkscape:connector-curvature="0" />
	<path style="fill:none;stroke:red;stroke-width:1px;stroke-linecap:butt;stroke-linejoin:miter;stroke-opacity:1" d="M 462.985,466.402 451.596,466.402 z" id="boundary" inkscape:connector-curvature="0" />
	<path style="fill:none;stroke:red;stroke-width:1px;stroke-linecap:butt;stroke-linejoin:miter;stroke-opacity:1" d="M 451.596,466.402 441.346,460.707 z" id="boundary" inkscape:connector-curvature="0" />
	<path style="fill:none;stroke:red;stroke-width:1px;stroke-linecap:butt;stroke-linejoin:miter;stroke-opacity:1" d="M 485.763,466.402 474.374,466.402 z" id="boundary" inkscape:connector-curvature="0" />
	<path style="fill:none;stroke:red;stroke-width:1px;stroke-linecap:butt;stroke-linejoin:miter;stroke-opacity:1" d="M 474.374,466.402 462.985,466.402 z" id="boundary" inkscape:connector-curvature="0" />
	<path style="fill:none;stroke:red;stroke-width:1px;stroke-linecap:butt;stroke-linejoin:miter;stroke-opacity:1" d="M 523.348,6.27784 534.737,4 z" id="boundary" inkscape:connector-curvature="0" />
	<path style="fill:none;stroke:red;stroke-width:1px;stroke-linecap:butt;stroke-linejoin:miter;stroke-opacity:1" d="M 511.959,11.9724 523.348,6.27784 z" id="boundary" inkscape:connector-curvature="0" />
	<path style="fill:none;stroke:red;stroke-width:1px;stroke-linecap:butt;stroke-linejoin:miter;stroke-opacity:1" d="M 534.737,4 546.126,4 z" id="boundary" inkscape:connector-curvature="0" />
	<path style="fill:none;stroke:red;stroke-width:1px;stroke-linecap:butt;stroke-linejoin:miter;stroke-opacity:1" d="M 546.126,4 557.515,4 z" id="boundary" inkscape:connector-curvature="0" />
	<path style="fill:none;stroke:red;stroke-width:1px;stroke-linecap:butt;stroke-linejoin:miter;stroke-opacity:1" d="M 580.294,4 591.683,7.41676 z" id="boundary" inkscape:connector-curvature="0" />
	<path style="fill:none;stroke:red;stroke-width:1px;stroke-linecap:butt;stroke-linejoin:miter;stroke-opacity:1" d="M 568.905,4 580.294,4 z" id="boundary" inkscape:connector-curvature="0" />
	<path style="fill:none;stroke:red;stroke-width:1px;stroke-linecap:butt;stroke-linejoin:miter;stroke-opacity:1" d="M 557.515,4 568.905,4 z" id="boundary" inkscape:connector-curvature="0" />
	<path style="fill:none;stroke:red;stroke-width:1px;stroke-linecap:butt;stroke-linejoin:miter;stroke-opacity:1" d="M 614.462,9.6946 603.072,9.6946 z" id="boundary" inkscape:connector-curvature="0" />
	<path style="fill:none;stroke:red;stroke-width:1px;stroke-linecap:butt;stroke-linejoin:miter;stroke-opacity:1" d="M 603.072,9.6946 591.683,7.41676 z" id="boundary" inkscape:connector-curvature="0" />
	<path style="fill:none;stroke:red;stroke-width:1px;stroke-linecap:butt;stroke-linejoin:miter;stroke-opacity:1" d="M 625.851,9.6946 614.462,9.6946 z" id="boundary" inkscape:connector-curvature="0" />
	<path style="fill:none;stroke:red;stroke-width:1px;stroke-linecap:butt;stroke-linejoin:miter;stroke-opacity:1" d="M 637.24,9.6946 648.629,9.6946 z" id="boundary" inkscape:connector-curvature="0" />
	<path style="fill:none;stroke:red;stroke-width:1px;stroke-linecap:butt;stroke-linejoin:miter;stroke-opacity:1" d="M 660.018,9.6946 671.408,9.6946 z" id="boundary" inkscape:connector-curvature="0" />
	<path style="fill:none;stroke:red;stroke-width:1px;stroke-linecap:butt;stroke-linejoin:miter;stroke-opacity:1" d="M 660.018,9.6946 648.629,9.6946 z" id="boundary" inkscape:connector-curvature="0" />
	<path style="fill:none;stroke:red;stroke-width:1px;stroke-linecap:butt;stroke-linejoin:miter;stroke-opacity:1" d="M 637.24,9.6946 625.851,9.6946 z" id="boundary" inkscape:connector-curvature="0" />
	<path style="fill:none;stroke:red;stroke-width:1px;stroke-linecap:butt;stroke-linejoin:miter;stroke-opacity:1" d="M 682.797,9.6946 671.408,9.6946 z" id="boundary" inkscape:connector-curvature="0" />
	<path style="fill:none;stroke:red;stroke-width:1px;stroke-linecap:butt;stroke-linejoin:miter;stroke-opacity:1" d="M 694.186,9.6946 682.797,9.6946 z" id="boundary" inkscape:connector-curvature="0" />
	<path style="fill:none;stroke:red;stroke-width:1px;stroke-linecap:butt;stroke-linejoin:miter;stroke-opacity:1" d="M 705.575,9.6946 694.186,9.6946 z" id="boundary" inkscape:connector-curvature="0" />
	<path style="fill:none;stroke:red;stroke-width:1px;stroke-linecap:butt;stroke-linejoin:miter;stroke-opacity:1" d="M 511.959,11.9724 500.569,17.667 z" id="boundary" inkscape:connector-curvature="0" />
	<path style="fill:none;stroke:red;stroke-width:1px;stroke-linecap:butt;stroke-linejoin:miter;stroke-opacity:1" d="M 705.575,9.6946 716.964,9.6946 z" id="boundary" inkscape:connector-curvature="0" />
	<path style="fill:none;stroke:red;stroke-width:1px;stroke-linecap:butt;stroke-linejoin:miter;stroke-opacity:1" d="M 728.354,9.6946 716.964,9.6946 z" id="boundary" inkscape:connector-curvature="0" />
	<path style="fill:none;stroke:red;stroke-width:1px;stroke-linecap:butt;stroke-linejoin:miter;stroke-opacity:1" d="M 749.993,15.3892 756.827,24.5006 z" id="boundary" inkscape:connector-curvature="0" />
	<path style="fill:none;stroke:red;stroke-width:1px;stroke-linecap:butt;stroke-linejoin:miter;stroke-opacity:1" d="M 762.521,34.7509 762.521,46.1401 z" id="boundary" inkscape:connector-curvature="0" />
	<path style="fill:none;stroke:red;stroke-width:1px;stroke-linecap:butt;stroke-linejoin:miter;stroke-opacity:1" d="M 756.827,24.5006 762.521,34.7509 z" id="boundary" inkscape:connector-curvature="0" />
	<path style="fill:none;stroke:red;stroke-width:1px;stroke-linecap:butt;stroke-linejoin:miter;stroke-opacity:1" d="M 762.521,57.5293 762.521,68.9185 z" id="boundary" inkscape:connector-curvature="0" />
	<path style="fill:none;stroke:red;stroke-width:1px;stroke-linecap:butt;stroke-linejoin:miter;stroke-opacity:1" d="M 762.521,57.5293 762.521,46.1401 z" id="boundary" inkscape:connector-curvature="0" />
	<path style="fill:none;stroke:red;stroke-width:1px;stroke-linecap:butt;stroke-linejoin:miter;stroke-opacity:1" d="M 728.354,9.6946 739.743,9.6946 z" id="boundary" inkscape:connector-curvature="0" />
	<path style="fill:none;stroke:red;stroke-width:1px;stroke-linecap:butt;stroke-linejoin:miter;stroke-opacity:1" d="M 739.743,9.6946 749.993,15.3892 z" id="boundary" inkscape:connector-curvature="0" />
	<path style="fill:none;stroke:red;stroke-width:1px;stroke-linecap:butt;stroke-linejoin:miter;stroke-opacity:1" d="M 762.521,68.9185 762.521,80.3077 z" id="boundary" inkscape:connector-curvature="0" />
	<path style="fill:none;stroke:red;stroke-width:1px;stroke-linecap:butt;stroke-linejoin:miter;stroke-opacity:1" d="M 777.327,96.2526 765.938,91.6969 z" id="boundary" inkscape:connector-curvature="0" />
	<path style="fill:none;stroke:red;stroke-width:1px;stroke-linecap:butt;stroke-linejoin:miter;stroke-opacity:1" d="M 765.938,91.6969 762.521,80.3077 z" id="boundary" inkscape:connector-curvature="0" />
	<path style="fill:none;stroke:red;stroke-width:1px;stroke-linecap:butt;stroke-linejoin:miter;stroke-opacity:1" d="M 787.577,101.947 796.689,109.92 z" id="boundary" inkscape:connector-curvature="0" />
	<path style="fill:none;stroke:red;stroke-width:1px;stroke-linecap:butt;stroke-linejoin:miter;stroke-opacity:1" d="M 796.689,109.92 801.245,121.309 z" id="boundary" inkscape:connector-curvature="0" />
	<path style="fill:none;stroke:red;stroke-width:1px;stroke-linecap:butt;stroke-linejoin:miter;stroke-opacity:1" d="M 801.245,121.309 812.634,125.865 z" id="boundary" inkscape:connector-curvature="0" />
	<path style="fill:none;stroke:red;stroke-width:1px;stroke-linecap:butt;stroke-linejoin:miter;stroke-opacity:1" d="M 812.634,125.865 819.467,134.976 z" id="boundary" inkscape:connector-curvature="0" />
	<path style="fill:none;stroke:red;stroke-width:1px;stroke-linecap:butt;stroke-linejoin:miter;stroke-opacity:1" d="M 777.327,96.2526 787.577,101.947 z" id="boundary" inkscape:connector-curvature="0" />
	<path style="fill:none;stroke:red;stroke-width:1px;stroke-linecap:butt;stroke-linejoin:miter;stroke-opacity:1" d="M 830.856,138.393 819.467,134.976 z" id="boundary" inkscape:connector-curvature="0" />
	<path style="fill:none;stroke:red;stroke-width:1px;stroke-linecap:butt;stroke-linejoin:miter;stroke-opacity:1" d="M 842.246,140.67 830.856,138.393 z" id="boundary" inkscape:connector-curvature="0" />
	<path style="fill:none;stroke:red;stroke-width:1px;stroke-linecap:butt;stroke-linejoin:miter;stroke-opacity:1" d="M 842.246,140.67 852.496,146.365 z" id="boundary" inkscape:connector-curvature="0" />
	<path style="fill:none;stroke:red;stroke-width:1px;stroke-linecap:butt;stroke-linejoin:miter;stroke-opacity:1" d="M 852.496,146.365 863.885,146.365 z" id="boundary" inkscape:connector-curvature="0" />
	<path style="fill:none;stroke:red;stroke-width:1px;stroke-linecap:butt;stroke-linejoin:miter;stroke-opacity:1" d="M 875.274,146.365 885.525,152.06 z" id="boundary" inkscape:connector-curvature="0" />
	<path style="fill:none;stroke:red;stroke-width:1px;stroke-linecap:butt;stroke-linejoin:miter;stroke-opacity:1" d="M 863.885,146.365 875.274,146.365 z" id="boundary" inkscape:connector-curvature="0" />
	<path style="fill:none;stroke:red;stroke-width:1px;stroke-linecap:butt;stroke-linejoin:miter;stroke-opacity:1" d="M 896.914,152.06 885.525,152.06 z" id="boundary" inkscape:connector-curvature="0" />
	<path style="fill:none;stroke:red;stroke-width:1px;stroke-linecap:butt;stroke-linejoin:miter;stroke-opacity:1" d="M 896.914,152.06 908.303,152.06 z" id="boundary" inkscape:connector-curvature="0" />
	<path style="fill:none;stroke:red;stroke-width:1px;stroke-linecap:butt;stroke-linejoin:miter;stroke-opacity:1" d="M 908.303,152.06 919.692,153.199 z" id="boundary" inkscape:connector-curvature="0" />
	<path style="fill:none;stroke:red;stroke-width:1px;stroke-linecap:butt;stroke-linejoin:miter;stroke-opacity:1" d="M 919.692,153.199 931.082,157.754 z" id="boundary" inkscape:connector-curvature="0" />
	<path style="fill:none;stroke:red;stroke-width:1px;stroke-linecap:butt;stroke-linejoin:miter;stroke-opacity:1" d="M 931.082,157.754 942.471,157.754 z" id="boundary" inkscape:connector-curvature="0" />
	<path style="fill:none;stroke:red;stroke-width:1px;stroke-linecap:butt;stroke-linejoin:miter;stroke-opacity:1" d="M 953.86,157.754 965.249,157.754 z" id="boundary" inkscape:connector-curvature="0" />
	<path style="fill:none;stroke:red;stroke-width:1px;stroke-linecap:butt;stroke-linejoin:miter;stroke-opacity:1" d="M 965.249,157.754 975.499,163.449 z" id="boundary" inkscape:connector-curvature="0" />
	<path style="fill:none;stroke:red;stroke-width:1px;stroke-linecap:butt;stroke-linejoin:miter;stroke-opacity:1" d="M 953.86,157.754 942.471,157.754 z" id="boundary" inkscape:connector-curvature="0" />
	<path style="fill:none;stroke:red;stroke-width:1px;stroke-linecap:butt;stroke-linejoin:miter;stroke-opacity:1" d="M 975.499,163.449 985.75,169.144 z" id="boundary" inkscape:connector-curvature="0" />
	<path style="fill:none;stroke:red;stroke-width:1px;stroke-linecap:butt;stroke-linejoin:miter;stroke-opacity:1" d="M 985.75,169.144 990.305,180.533 z" id="boundary" inkscape:connector-curvature="0" />
	<path style="fill:none;stroke:red;stroke-width:1px;stroke-linecap:butt;stroke-linejoin:miter;stroke-opacity:1" d="M 996,190.783 990.305,180.533 z" id="boundary" inkscape:connector-curvature="0" />
	<path style="fill:none;stroke:red;stroke-width:1px;stroke-linecap:butt;stroke-linejoin:miter;stroke-opacity:1" d="M 996,190.783 996,202.172 z" id="boundary" inkscape:connector-curvature="0" />
	<path style="fill:none;stroke:red;stroke-width:1px;stroke-linecap:butt;stroke-linejoin:miter;stroke-opacity:1" d="M 996,213.561 996,224.951 z" id="boundary" inkscape:connector-curvature="0" />
	<path style="fill:none;stroke:red;stroke-width:1px;stroke-linecap:butt;stroke-linejoin:miter;stroke-opacity:1" d="M 996,202.172 996,213.561 z" id="boundary" inkscape:connector-curvature="0" />
	<path style="fill:none;stroke:red;stroke-width:1px;stroke-linecap:butt;stroke-linejoin:miter;stroke-opacity:1" d="M 996,224.951 996,236.34 z" id="boundary" inkscape:connector-curvature="0" />
	<path style="fill:none;stroke:red;stroke-width:1px;stroke-linecap:butt;stroke-linejoin:miter;stroke-opacity:1" d="M 616.739,409.456 628.129,409.456 z" id="boundary" inkscape:connector-curvature="0" />
	<path style="fill:none;stroke:red;stroke-width:1px;stroke-linecap:butt;stroke-linejoin:miter;stroke-opacity:1" d="M 606.489,415.15 616.739,409.456 z" id="boundary" inkscape:connector-curvature="0" />
	<path style="fill:none;stroke:red;stroke-width:1px;stroke-linecap:butt;stroke-linejoin:miter;stroke-opacity:1" d="M 639.518,409.456 628.129,409.456 z" id="boundary" inkscape:connector-curvature="0" />
	<path style="fill:none;stroke:red;stroke-width:1px;stroke-linecap:butt;stroke-linejoin:miter;stroke-opacity:1" d="M 650.907,409.456 662.296,409.456 z" id="boundary" inkscape:connector-curvature="0" />
	<path style="fill:none;stroke:red;stroke-width:1px;stroke-linecap:butt;stroke-linejoin:miter;stroke-opacity:1" d="M 673.685,409.456 685.075,409.456 z" id="boundary" inkscape:connector-curvature="0" />
	<path style="fill:none;stroke:red;stroke-width:1px;stroke-linecap:butt;stroke-linejoin:miter;stroke-opacity:1" d="M 673.685,409.456 662.296,409.456 z" id="boundary" inkscape:connector-curvature="0" />
	<path style="fill:none;stroke:red;stroke-width:1px;stroke-linecap:butt;stroke-linejoin:miter;stroke-opacity:1" d="M 650.907,409.456 639.518,409.456 z" id="boundary" inkscape:connector-curvature="0" />
	<path style="fill:none;stroke:red;stroke-width:1px;stroke-linecap:butt;stroke-linejoin:miter;stroke-opacity:1" d="M 685.075,409.456 696.464,409.456 z" id="boundary" inkscape:connector-curvature="0" />
	<path style="fill:none;stroke:red;stroke-width:1px;stroke-linecap:butt;stroke-linejoin:miter;stroke-opacity:1" d="M 707.853,409.456 696.464,409.456 z" id="boundary" inkscape:connector-curvature="0" />
	<path style="fill:none;stroke:red;stroke-width:1px;stroke-linecap:butt;stroke-linejoin:miter;stroke-opacity:1" d="M 719.242,409.456 707.853,409.456 z" id="boundary" inkscape:connector-curvature="0" />
	<path style="fill:none;stroke:red;stroke-width:1px;stroke-linecap:butt;stroke-linejoin:miter;stroke-opacity:1" d="M 730.631,409.456 742.021,409.456 z" id="boundary" inkscape:connector-curvature="0" />
	<path style="fill:none;stroke:red;stroke-width:1px;stroke-linecap:butt;stroke-linejoin:miter;stroke-opacity:1" d="M 753.41,409.456 764.799,409.456 z" id="boundary" inkscape:connector-curvature="0" />
	<path style="fill:none;stroke:red;stroke-width:1px;stroke-linecap:butt;stroke-linejoin:miter;stroke-opacity:1" d="M 753.41,409.456 742.021,409.456 z" id="boundary" inkscape:connector-curvature="0" />
	<path style="fill:none;stroke:red;stroke-width:1px;stroke-linecap:butt;stroke-linejoin:miter;stroke-opacity:1" d="M 730.631,409.456 719.242,409.456 z" id="boundary" inkscape:connector-curvature="0" />
	<path style="fill:none;stroke:red;stroke-width:1px;stroke-linecap:butt;stroke-linejoin:miter;stroke-opacity:1" d="M 551.821,426.54 546.126,437.929 z" id="boundary" inkscape:connector-curvature="0" />
	<path style="fill:none;stroke:red;stroke-width:1px;stroke-linecap:butt;stroke-linejoin:miter;stroke-opacity:1" d="M 546.126,437.929 537.015,448.179 z" id="boundary" inkscape:connector-curvature="0" />
	<path style="fill:none;stroke:red;stroke-width:1px;stroke-linecap:butt;stroke-linejoin:miter;stroke-opacity:1" d="M 497.153,466.402 485.763,466.402 z" id="boundary" inkscape:connector-curvature="0" />
	<path style="fill:none;stroke:red;stroke-width:1px;stroke-linecap:butt;stroke-linejoin:miter;stroke-opacity:1" d="M 531.32,459.568 537.015,448.179 z" id="boundary" inkscape:connector-curvature="0" />
	<path style="fill:none;stroke:red;stroke-width:1px;stroke-linecap:butt;stroke-linejoin:miter;stroke-opacity:1" d="M 508.542,466.402 497.153,466.402 z" id="boundary" inkscape:connector-curvature="0" />
	<path style="fill:none;stroke:red;stroke-width:1px;stroke-linecap:butt;stroke-linejoin:miter;stroke-opacity:1" d="M 519.931,465.263 531.32,459.568 z" id="boundary" inkscape:connector-curvature="0" />
	<path style="fill:none;stroke:red;stroke-width:1px;stroke-linecap:butt;stroke-linejoin:miter;stroke-opacity:1" d="M 519.931,465.263 508.542,466.402 z" id="boundary" inkscape:connector-curvature="0" />
	<path style="fill:none;stroke:red;stroke-width:1px;stroke-linecap:butt;stroke-linejoin:miter;stroke-opacity:1" d="M 583.711,415.15 572.321,415.15 z" id="boundary" inkscape:connector-curvature="0" />
	<path style="fill:none;stroke:red;stroke-width:1px;stroke-linecap:butt;stroke-linejoin:miter;stroke-opacity:1" d="M 764.799,409.456 776.188,409.456 z" id="boundary" inkscape:connector-curvature="0" />
	<path style="fill:none;stroke:red;stroke-width:1px;stroke-linecap:butt;stroke-linejoin:miter;stroke-opacity:1" d="M 787.577,414.011 776.188,409.456 z" id="boundary" inkscape:connector-curvature="0" />
	<path style="fill:none;stroke:red;stroke-width:1px;stroke-linecap:butt;stroke-linejoin:miter;stroke-opacity:1" d="M 583.711,415.15 595.1,415.15 z" id="boundary" inkscape:connector-curvature="0" />
	<path style="fill:none;stroke:red;stroke-width:1px;stroke-linecap:butt;stroke-linejoin:miter;stroke-opacity:1" d="M 595.1,415.15 606.489,415.15 z" id="boundary" inkscape:connector-curvature="0" />
	<path style="fill:none;stroke:red;stroke-width:1px;stroke-linecap:butt;stroke-linejoin:miter;stroke-opacity:1" d="M 551.821,426.54 560.932,418.567 z" id="boundary" inkscape:connector-curvature="0" />
	<path style="fill:none;stroke:red;stroke-width:1px;stroke-linecap:butt;stroke-linejoin:miter;stroke-opacity:1" d="M 560.932,418.567 572.321,415.15 z" id="boundary" inkscape:connector-curvature="0" />
	<path style="fill:none;stroke:red;stroke-width:1px;stroke-linecap:butt;stroke-linejoin:miter;stroke-opacity:1" d="M 787.577,414.011 789.855,425.401 z" id="boundary" inkscape:connector-curvature="0" />
	<path style="fill:none;stroke:red;stroke-width:1px;stroke-linecap:butt;stroke-linejoin:miter;stroke-opacity:1" d="M 956.138,335.426 961.832,324.037 z" id="boundary" inkscape:connector-curvature="0" />
	<path style="fill:none;stroke:red;stroke-width:1px;stroke-linecap:butt;stroke-linejoin:miter;stroke-opacity:1" d="M 961.832,324.037 970.944,316.064 z" id="boundary" inkscape:connector-curvature="0" />
	<path style="fill:none;stroke:red;stroke-width:1px;stroke-linecap:butt;stroke-linejoin:miter;stroke-opacity:1" d="M 956.138,335.426 948.165,344.537 z" id="boundary" inkscape:connector-curvature="0" />
	<path style="fill:none;stroke:red;stroke-width:1px;stroke-linecap:butt;stroke-linejoin:miter;stroke-opacity:1" d="M 970.944,316.064 978.916,306.953 z" id="boundary" inkscape:connector-curvature="0" />
	<path style="fill:none;stroke:red;stroke-width:1px;stroke-linecap:butt;stroke-linejoin:miter;stroke-opacity:1" d="M 920.831,369.594 929.943,362.76 z" id="boundary" inkscape:connector-curvature="0" />
	<path style="fill:none;stroke:red;stroke-width:1px;stroke-linecap:butt;stroke-linejoin:miter;stroke-opacity:1" d="M 939.054,352.51 929.943,362.76 z" id="boundary" inkscape:connector-curvature="0" />
	<path style="fill:none;stroke:red;stroke-width:1px;stroke-linecap:butt;stroke-linejoin:miter;stroke-opacity:1" d="M 939.054,352.51 948.165,344.537 z" id="boundary" inkscape:connector-curvature="0" />
	<path style="fill:none;stroke:red;stroke-width:1px;stroke-linecap:butt;stroke-linejoin:miter;stroke-opacity:1" d="M 996,247.729 996,259.118 z" id="boundary" inkscape:connector-curvature="0" />
	<path style="fill:none;stroke:red;stroke-width:1px;stroke-linecap:butt;stroke-linejoin:miter;stroke-opacity:1" d="M 984.611,295.564 978.916,306.953 z" id="boundary" inkscape:connector-curvature="0" />
	<path style="fill:none;stroke:red;stroke-width:1px;stroke-linecap:butt;stroke-linejoin:miter;stroke-opacity:1" d="M 990.305,284.175 984.611,295.564 z" id="boundary" inkscape:connector-curvature="0" />
	<path style="fill:none;stroke:red;stroke-width:1px;stroke-linecap:butt;stroke-linejoin:miter;stroke-opacity:1" d="M 996,270.507 990.305,284.175 z" id="boundary" inkscape:connector-curvature="0" />
	<path style="fill:none;stroke:red;stroke-width:1px;stroke-linecap:butt;stroke-linejoin:miter;stroke-opacity:1" d="M 996,259.118 996,270.507 z" id="boundary" inkscape:connector-curvature="0" />
	<path style="fill:none;stroke:red;stroke-width:1px;stroke-linecap:butt;stroke-linejoin:miter;stroke-opacity:1" d="M 920.831,369.594 910.581,375.288 z" id="boundary" inkscape:connector-curvature="0" />
	<path style="fill:none;stroke:red;stroke-width:1px;stroke-linecap:butt;stroke-linejoin:miter;stroke-opacity:1" d="M 804.661,443.623 795.55,435.651 z" id="boundary" inkscape:connector-curvature="0" />
	<path style="fill:none;stroke:red;stroke-width:1px;stroke-linecap:butt;stroke-linejoin:miter;stroke-opacity:1" d="M 795.55,435.651 789.855,425.401 z" id="boundary" inkscape:connector-curvature="0" />
	<path style="fill:none;stroke:red;stroke-width:1px;stroke-linecap:butt;stroke-linejoin:miter;stroke-opacity:1" d="M 814.912,449.318 825.162,443.623 z" id="boundary" inkscape:connector-curvature="0" />
	<path style="fill:none;stroke:red;stroke-width:1px;stroke-linecap:butt;stroke-linejoin:miter;stroke-opacity:1" d="M 825.162,443.623 836.551,443.623 z" id="boundary" inkscape:connector-curvature="0" />
	<path style="fill:none;stroke:red;stroke-width:1px;stroke-linecap:butt;stroke-linejoin:miter;stroke-opacity:1" d="M 814.912,449.318 804.661,443.623 z" id="boundary" inkscape:connector-curvature="0" />
	<path style="fill:none;stroke:red;stroke-width:1px;stroke-linecap:butt;stroke-linejoin:miter;stroke-opacity:1" d="M 836.551,443.623 847.94,443.623 z" id="boundary" inkscape:connector-curvature="0" />
	<path style="fill:none;stroke:red;stroke-width:1px;stroke-linecap:butt;stroke-linejoin:miter;stroke-opacity:1" d="M 858.191,437.929 847.94,443.623 z" id="boundary" inkscape:connector-curvature="0" />
	<path style="fill:none;stroke:red;stroke-width:1px;stroke-linecap:butt;stroke-linejoin:miter;stroke-opacity:1" d="M 898.053,411.734 899.192,398.067 z" id="boundary" inkscape:connector-curvature="0" />
	<path style="fill:none;stroke:red;stroke-width:1px;stroke-linecap:butt;stroke-linejoin:miter;stroke-opacity:1" d="M 899.192,398.067 904.886,386.677 z" id="boundary" inkscape:connector-curvature="0" />
	<path style="fill:none;stroke:red;stroke-width:1px;stroke-linecap:butt;stroke-linejoin:miter;stroke-opacity:1" d="M 898.053,411.734 888.941,420.845 z" id="boundary" inkscape:connector-curvature="0" />
	<path style="fill:none;stroke:red;stroke-width:1px;stroke-linecap:butt;stroke-linejoin:miter;stroke-opacity:1" d="M 904.886,386.677 910.581,375.288 z" id="boundary" inkscape:connector-curvature="0" />
	<path style="fill:none;stroke:red;stroke-width:1px;stroke-linecap:butt;stroke-linejoin:miter;stroke-opacity:1" d="M 868.441,432.234 858.191,437.929 z" id="boundary" inkscape:connector-curvature="0" />
	<path style="fill:none;stroke:red;stroke-width:1px;stroke-linecap:butt;stroke-linejoin:miter;stroke-opacity:1" d="M 888.941,420.845 878.691,426.54 z" id="boundary" inkscape:connector-curvature="0" />
	<path style="fill:none;stroke:red;stroke-width:1px;stroke-linecap:butt;stroke-linejoin:miter;stroke-opacity:1" d="M 878.691,426.54 868.441,432.234 z" id="boundary" inkscape:connector-curvature="0" />
	<path style="fill:none;stroke:red;stroke-width:1px;stroke-linecap:butt;stroke-linejoin:miter;stroke-opacity:1" d="M 996,236.34 996,247.729 z" id="boundary" inkscape:connector-curvature="0" />
	<circle cx="4" cy="223.812" r="4" fill="#0" id="circle0"/>
	<circle cx="4" cy="235.201" r="4" fill="#0" id="circle1"/>
	<circle cx="4" cy="246.59" r="4" fill="#0" id="circle2"/>
	<circle cx="4" cy="257.979" r="4" fill="#0" id="circle3"/>
	<circle cx="4" cy="269.369" r="4" fill="#0" id="circle4"/>
	<circle cx="4" cy="280.758" r="4" fill="#0" id="circle5"/>
	<circle cx="9.6946" cy="291.008" r="4" fill="#0" id="circle6"/>
	<circle cx="13.1114" cy="214.7" r="4" fill="#0" id="circle7"/>
	<circle cx="15.3892" cy="301.258" r="4" fill="#0" id="circle8"/>
	<circle cx="15.3892" cy="312.648" r="4" fill="#0" id="circle9"/>
	<circle cx="15.3892" cy="324.037" r="4" fill="#0" id="circle10"/>
	<circle cx="15.3892" cy="335.426" r="4" fill="#0" id="circle11"/>
	<circle cx="15.3892" cy="346.815" r="4" fill="#0" id="circle12"/>
	<circle cx="15.3892" cy="358.204" r="4" fill="#0" id="circle13"/>
	<circle cx="18.806" cy="369.594" r="4" fill="#0" id="circle14"/>
	<circle cx="22.2227" cy="205.589" r="4" fill="#0" id="circle15"/>
	<circle cx="24.5006" cy="379.844" r="4" fill="#0" id="circle16"/>
	<circle cx="29.0563" cy="391.233" r="4" fill="#0" id="circle17"/>
	<circle cx="31.3341" cy="197.617" r="4" fill="#0" id="circle18"/>
	<circle cx="32.473" cy="402.622" r="4" fill="#0" id="circle19"/>
	<circle cx="38.1676" cy="412.873" r="4" fill="#0" id="circle20"/>
	<circle cx="38.1676" cy="424.262" r="4" fill="#0" id="circle21"/>
	<circle cx="39.3065" cy="435.651" r="4" fill="#0" id="circle22"/>
	<circle cx="41.5844" cy="191.922" r="4" fill="#0" id="circle23"/>
	<circle cx="45.0011" cy="445.901" r="4" fill="#0" id="circle24"/>
	<circle cx="51.8347" cy="186.227" r="4" fill="#0" id="circle25"/>
	<circle cx="55.2514" cy="451.596" r="4" fill="#0" id="circle26"/>
	<circle cx="62.085" cy="180.533" r="4" fill="#0" id="circle27"/>
	<circle cx="66.6406" cy="455.013" r="4" fill="#0" id="circle28"/>
	<circle cx="73.4742" cy="180.533" r="4" fill="#0" id="circle29"/>
	<circle cx="78.0299" cy="455.013" r="4" fill="#0" id="circle30"/>
	<circle cx="84.8634" cy="180.533" r="4" fill="#0" id="circle31"/>
	<circle cx="89.4191" cy="455.013" r="4" fill="#0" id="circle32"/>
	<circle cx="95.1137" cy="174.838" r="4" fill="#0" id="circle33"/>
	<circle cx="99.6693" cy="449.318" r="4" fill="#0" id="circle34"/>
	<circle cx="106.503" cy="174.838" r="4" fill="#0" id="circle35"/>
	<circle cx="111.059" cy="449.318" r="4" fill="#0" id="circle36"/>
	<circle cx="117.892" cy="174.838" r="4" fill="#0" id="circle37"/>
	<circle cx="121.309" cy="443.623" r="4" fill="#0" id="circle38"/>
	<circle cx="129.281" cy="172.56" r="4" fill="#0" id="circle39"/>
	<circle cx="131.559" cy="437.929" r="4" fill="#0" id="circle40"/>
	<circle cx="140.67" cy="169.144" r="4" fill="#0" id="circle41"/>
	<circle cx="140.67" cy="428.817" r="4" fill="#0" id="circle42"/>
	<circle cx="149.782" cy="420.845" r="4" fill="#0" id="circle43"/>
	<circle cx="152.06" cy="169.144" r="4" fill="#0" id="circle44"/>
	<circle cx="161.171" cy="420.845" r="4" fill="#0" id="circle45"/>
	<circle cx="163.449" cy="166.866" r="4" fill="#0" id="circle46"/>
	<circle cx="171.421" cy="415.15" r="4" fill="#0" id="circle47"/>
	<circle cx="174.838" cy="163.449" r="4" fill="#0" id="circle48"/>
	<circle cx="182.811" cy="415.15" r="4" fill="#0" id="circle49"/>
	<circle cx="186.227" cy="163.449" r="4" fill="#0" id="circle50"/>
	<circle cx="194.2" cy="415.15" r="4" fill="#0" id="circle51"/>
	<circle cx="197.617" cy="163.449" r="4" fill="#0" id="circle52"/>
	<circle cx="205.589" cy="415.15" r="4" fill="#0" id="circle53"/>
	<circle cx="209.006" cy="163.449" r="4" fill="#0" id="circle54"/>
	<circle cx="216.978" cy="415.15" r="4" fill="#0" id="circle55"/>
	<circle cx="220.395" cy="161.171" r="4" fill="#0" id="circle56"/>
	<circle cx="228.367" cy="415.15" r="4" fill="#0" id="circle57"/>
	<circle cx="231.784" cy="157.754" r="4" fill="#0" id="circle58"/>
	<circle cx="238.618" cy="409.456" r="4" fill="#0" id="circle59"/>
	<circle cx="243.173" cy="157.754" r="4" fill="#0" id="circle60"/>
	<circle cx="250.007" cy="409.456" r="4" fill="#0" id="circle61"/>
	<circle cx="254.563" cy="157.754" r="4" fill="#0" id="circle62"/>
	<circle cx="261.396" cy="409.456" r="4" fill="#0" id="circle63"/>
	<circle cx="265.952" cy="149.782" r="4" fill="#0" id="circle64"/>
	<circle cx="271.646" cy="138.393" r="4" fill="#0" id="circle65"/>
	<circle cx="272.785" cy="403.761" r="4" fill="#0" id="circle66"/>
	<circle cx="283.036" cy="132.698" r="4" fill="#0" id="circle67"/>
	<circle cx="284.175" cy="403.761" r="4" fill="#0" id="circle68"/>
	<circle cx="294.425" cy="127.003" r="4" fill="#0" id="circle69"/>
	<circle cx="295.564" cy="403.761" r="4" fill="#0" id="circle70"/>
	<circle cx="305.814" cy="123.587" r="4" fill="#0" id="circle71"/>
	<circle cx="306.953" cy="403.761" r="4" fill="#0" id="circle72"/>
	<circle cx="317.203" cy="123.587" r="4" fill="#0" id="circle73"/>
	<circle cx="318.342" cy="403.761" r="4" fill="#0" id="circle74"/>
	<circle cx="328.592" cy="123.587" r="4" fill="#0" id="circle75"/>
	<circle cx="329.731" cy="403.761" r="4" fill="#0" id="circle76"/>
	<circle cx="339.982" cy="121.309" r="4" fill="#0" id="circle77"/>
	<circle cx="341.121" cy="403.761" r="4" fill="#0" id="circle78"/>
	<circle cx="349.093" cy="112.197" r="4" fill="#0" id="circle79"/>
	<circle cx="352.51" cy="403.761" r="4" fill="#0" id="circle80"/>
	<circle cx="359.343" cy="106.503" r="4" fill="#0" id="circle81"/>
	<circle cx="363.899" cy="403.761" r="4" fill="#0" id="circle82"/>
	<circle cx="369.594" cy="100.808" r="4" fill="#0" id="circle83"/>
	<circle cx="375.288" cy="403.761" r="4" fill="#0" id="circle84"/>
	<circle cx="380.983" cy="100.808" r="4" fill="#0" id="circle85"/>
	<circle cx="386.677" cy="403.761" r="4" fill="#0" id="circle86"/>
	<circle cx="392.372" cy="100.808" r="4" fill="#0" id="circle87"/>
	<circle cx="398.067" cy="406.039" r="4" fill="#0" id="circle88"/>
	<circle cx="402.622" cy="417.428" r="4" fill="#0" id="circle89"/>
	<circle cx="403.761" cy="100.808" r="4" fill="#0" id="circle90"/>
	<circle cx="408.317" cy="427.679" r="4" fill="#0" id="circle91"/>
	<circle cx="415.15" cy="104.225" r="4" fill="#0" id="circle92"/>
	<circle cx="416.289" cy="436.79" r="4" fill="#0" id="circle93"/>
	<circle cx="421.984" cy="447.04" r="4" fill="#0" id="circle94"/>
	<circle cx="425.401" cy="109.92" r="4" fill="#0" id="circle95"/>
	<circle cx="432.234" cy="452.735" r="4" fill="#0" id="circle96"/>
	<circle cx="434.512" cy="117.892" r="4" fill="#0" id="circle97"/>
	<circle cx="441.346" cy="460.707" r="4" fill="#0" id="circle98"/>
	<circle cx="445.901" cy="117.892" r="4" fill="#0" id="circle99"/>
	<circle cx="451.596" cy="466.402" r="4" fill="#0" id="circle100"/>
	<circle cx="457.29" cy="112.197" r="4" fill="#0" id="circle101"/>
	<circle cx="462.985" cy="100.808" r="4" fill="#0" id="circle102"/>
	<circle cx="462.985" cy="466.402" r="4" fill="#0" id="circle103"/>
	<circle cx="465.263" cy="52.9736" r="4" fill="#0" id="circle104"/>
	<circle cx="465.263" cy="64.3628" r="4" fill="#0" id="circle105"/>
	<circle cx="465.263" cy="75.752" r="4" fill="#0" id="circle106"/>
	<circle cx="465.263" cy="87.1412" r="4" fill="#0" id="circle107"/>
	<circle cx="470.958" cy="41.5844" r="4" fill="#0" id="circle108"/>
	<circle cx="474.374" cy="466.402" r="4" fill="#0" id="circle109"/>
	<circle cx="480.069" cy="32.473" r="4" fill="#0" id="circle110"/>
	<circle cx="485.763" cy="466.402" r="4" fill="#0" id="circle111"/>
	<circle cx="489.18" cy="23.3617" r="4" fill="#0" id="circle112"/>
	<circle cx="497.153" cy="466.402" r="4" fill="#0" id="circle113"/>
	<circle cx="500.569" cy="17.667" r="4" fill="#0" id="circle114"/>
	<circle cx="508.542" cy="466.402" r="4" fill="#0" id="circle115"/>
	<circle cx="511.959" cy="11.9724" r="4" fill="#0" id="circle116"/>
	<circle cx="519.931" cy="465.263" r="4" fill="#0" id="circle117"/>
	<circle cx="523.348" cy="6.27784" r="4" fill="#0" id="circle118"/>
	<circle cx="531.32" cy="459.568" r="4" fill="#0" id="circle119"/>
	<circle cx="534.737" cy="4" r="4" fill="#0" id="circle120"/>
	<circle cx="537.015" cy="448.179" r="4" fill="#0" id="circle121"/>
	<circle cx="546.126" cy="4" r="4" fill="#0" id="circle122"/>
	<circle cx="546.126" cy="437.929" r="4" fill="#0" id="circle123"/>
	<circle cx="551.821" cy="426.54" r="4" fill="#0" id="circle124"/>
	<circle cx="557.515" cy="4" r="4" fill="#0" id="circle125"/>
	<circle cx="560.932" cy="418.567" r="4" fill="#0" id="circle126"/>
	<circle cx="568.905" cy="4" r="4" fill="#0" id="circle127"/>
	<circle cx="572.321" cy="415.15" r="4" fill="#0" id="circle128"/>
	<circle cx="580.294" cy="4" r="4" fill="#0" id="circle129"/>
	<circle cx="583.711" cy="415.15" r="4" fill="#0" id="circle130"/>
	<circle cx="591.683" cy="7.41676" r="4" fill="#0" id="circle131"/>
	<circle cx="595.1" cy="415.15" r="4" fill="#0" id="circle132"/>
	<circle cx="603.072" cy="9.6946" r="4" fill="#0" id="circle133"/>
	<circle cx="606.489" cy="415.15" r="4" fill="#0" id="circle134"/>
	<circle cx="614.462" cy="9.6946" r="4" fill="#0" id="circle135"/>
	<circle cx="616.739" cy="409.456" r="4" fill="#0" id="circle136"/>
	<circle cx="625.851" cy="9.6946" r="4" fill="#0" id="circle137"/>
	<circle cx="628.129" cy="409.456" r="4" fill="#0" id="circle138"/>
	<circle cx="637.24" cy="9.6946" r="4" fill="#0" id="circle139"/>
	<circle cx="639.518" cy="409.456" r="4" fill="#0" id="circle140"/>
	<circle cx="648.629" cy="9.6946" r="4" fill="#0" id="circle141"/>
	<circle cx="650.907" cy="409.456" r="4" fill="#0" id="circle142"/>
	<circle cx="660.018" cy="9.6946" r="4" fill="#0" id="circle143"/>
	<circle cx="662.296" cy="409.456" r="4" fill="#0" id="circle144"/>
	<circle cx="671.408" cy="9.6946" r="4" fill="#0" id="circle145"/>
	<circle cx="673.685" cy="409.456" r="4" fill="#0" id="circle146"/>
	<circle cx="682.797" cy="9.6946" r="4" fill="#0" id="circle147"/>
	<circle cx="685.075" cy="409.456" r="4" fill="#0" id="circle148"/>
	<circle cx="694.186" cy="9.6946" r="4" fill="#0" id="circle149"/>
	<circle cx="696.464" cy="409.456" r="4" fill="#0" id="circle150"/>
	<circle cx="705.575" cy="9.6946" r="4" fill="#0" id="circle151"/>
	<circle cx="707.853" cy="409.456" r="4" fill="#0" id="circle152"/>
	<circle cx="716.964" cy="9.6946" r="4" fill="#0" id="circle153"/>
	<circle cx="719.242" cy="409.456" r="4" fill="#0" id="circle154"/>
	<circle cx="728.354" cy="9.6946" r="4" fill="#0" id="circle155"/>
	<circle cx="730.631" cy="409.456" r="4" fill="#0" id="circle156"/>
	<circle cx="739.743" cy="9.6946" r="4" fill="#0" id="circle157"/>
	<circle cx="742.021" cy="409.456" r="4" fill="#0" id="circle158"/>
	<circle cx="749.993" cy="15.3892" r="4" fill="#0" id="circle159"/>
	<circle cx="753.41" cy="409.456" r="4" fill="#0" id="circle160"/>
	<circle cx="756.827" cy="24.5006" r="4" fill="#0" id="circle161"/>
	<circle cx="762.521" cy="34.7509" r="4" fill="#0" id="circle162"/>
	<circle cx="762.521" cy="46.1401" r="4" fill="#0" id="circle163"/>
	<circle cx="762.521" cy="57.5293" r="4" fill="#0" id="circle164"/>
	<circle cx="762.521" cy="68.9185" r="4" fill="#0" id="circle165"/>
	<circle cx="762.521" cy="80.3077" r="4" fill="#0" id="circle166"/>
	<circle cx="764.799" cy="409.456" r="4" fill="#0" id="circle167"/>
	<circle cx="765.938" cy="91.6969" r="4" fill="#0" id="circle168"/>
	<circle cx="776.188" cy="409.456" r="4" fill="#0" id="circle169"/>
	<circle cx="777.327" cy="96.2526" r="4" fill="#0" id="circle170"/>
	<circle cx="787.577" cy="101.947" r="4" fill="#0" id="circle171"/>
	<circle cx="787.577" cy="414.011" r="4" fill="#0" id="circle172"/>
	<circle cx="789.855" cy="425.401" r="4" fill="#0" id="circle173"/>
	<circle cx="795.55" cy="435.651" r="4" fill="#0" id="circle174"/>
	<circle cx="796.689" cy="109.92" r="4" fill="#0" id="circle175"/>
	<circle cx="801.245" cy="121.309" r="4" fill="#0" id="circle176"/>
	<circle cx="804.661" cy="443.623" r="4" fill="#0" id="circle177"/>
	<circle cx="812.634" cy="125.865" r="4" fill="#0" id="circle178"/>
	<circle cx="814.912" cy="449.318" r="4" fill="#0" id="circle179"/>
	<circle cx="819.467" cy="134.976" r="4" fill="#0" id="circle180"/>
	<circle cx="825.162" cy="443.623" r="4" fill="#0" id="circle181"/>
	<circle cx="830.856" cy="138.393" r="4" fill="#0" id="circle182"/>
	<circle cx="836.551" cy="443.623" r="4" fill="#0" id="circle183"/>
	<circle cx="842.246" cy="140.67" r="4" fill="#0" id="circle184"/>
	<circle cx="847.94" cy="443.623" r="4" fill="#0" id="circle185"/>
	<circle cx="852.496" cy="146.365" r="4" fill="#0" id="circle186"/>
	<circle cx="858.191" cy="437.929" r="4" fill="#0" id="circle187"/>
	<circle cx="863.885" cy="146.365" r="4" fill="#0" id="circle188"/>
	<circle cx="868.441" cy="432.234" r="4" fill="#0" id="circle189"/>
	<circle cx="875.274" cy="146.365" r="4" fill="#0" id="circle190"/>
	<circle cx="878.691" cy="426.54" r="4" fill="#0" id="circle191"/>
	<circle cx="885.525" cy="152.06" r="4" fill="#0" id="circle192"/>
	<circle cx="888.941" cy="420.845" r="4" fill="#0" id="circle193"/>
	<circle cx="896.914" cy="152.06" r="4" fill="#0" id="circle194"/>
	<circle cx="898.053" cy="411.734" r="4" fill="#0" id="circle195"/>
	<circle cx="899.192" cy="398.067" r="4" fill="#0" id="circle196"/>
	<circle cx="904.886" cy="386.677" r="4" fill="#0" id="circle197"/>
	<circle cx="908.303" cy="152.06" r="4" fill="#0" id="circle198"/>
	<circle cx="910.581" cy="375.288" r="4" fill="#0" id="circle199"/>
	<circle cx="919.692" cy="153.199" r="4" fill="#0" id="circle200"/>
	<circle cx="920.831" cy="369.594" r="4" fill="#0" id="circle201"/>
	<circle cx="929.943" cy="362.76" r="4" fill="#0" id="circle202"/>
	<circle cx="931.082" cy="157.754" r="4" fill="#0" id="circle203"/>
	<circle cx="939.054" cy="352.51" r="4" fill="#0" id="circle204"/>
	<circle cx="942.471" cy="157.754" r="4" fill="#0" id="circle205"/>
	<circle cx="948.165" cy="344.537" r="4" fill="#0" id="circle206"/>
	<circle cx="953.86" cy="157.754" r="4" fill="#0" id="circle207"/>
	<circle cx="956.138" cy="335.426" r="4" fill="#0" id="circle208"/>
	<circle cx="961.832" cy="324.037" r="4" fill="#0" id="circle209"/>
	<circle cx="965.249" cy="157.754" r="4" fill="#0" id="circle210"/>
	<circle cx="970.944" cy="316.064" r="4" fill="#0" id="circle211"/>
	<circle cx="975.499" cy="163.449" r="4" fill="#0" id="circle212"/>
	<circle cx="978.916" cy="306.953" r="4" fill="#0" id="circle213"/>
	<circle cx="984.611" cy="295.564" r="4" fill="#0" id="circle214"/>
	<circle cx="985.75" cy="169.144" r="4" fill="#0" id="circle215"/>
	<circle cx="990.305" cy="180.533" r="4" fill="#0" id="circle216"/>
	<circle cx="990.305" cy="284.175" r="4" fill="#0" id="circle217"/>
	<circle cx="996" cy="190.783" r="4" fill="#0" id="circle218"/>
	<circle cx="996" cy="202.172" r="4" fill="#0" id="circle219"/>
	<circle cx="996" cy="213.561" r="4" fill="#0" id="circle220"/>
	<circle cx="996" cy="224.951" r="4" fill="#0" id="circle221"/>
	<circle cx="996" cy="236.34" r="4" fill="#0" id="circle222"/>
	<circle cx="996" cy="247.729" r="4" fill="#0" id="circle223"/>
	<circle cx="996" cy="259.118" r="4" fill="#0" id="circle224"/>
	<circle cx="996" cy="270.507" r="4" fill="#0" id="circle225"/>
	</g>
</svg>