<?xml version="1.0" encoding="UTF-8" standalone="no"?>
<!-- Created with CurveBenchmark -->
<svg
	xmlns:dc="http://purl.org/dc/elements/1.1/"
	xmlns:cc="http://creativecommons.org/ns#"
	xmlns:rdf="http://www.w3.org/1999/02/22-rdf-syntax-ns#"
	xmlns:svg="http://www.w3.org/2000/svg"
	xmlns="http://www.w3.org/2000/svg"
	xmlns:sodipodi="http://sodipodi.sourceforge.net/DTD/sodipodi-0.dtd"
	xmlns:inkscape="http://www.inkscape.org/namespaces/inkscape"
	width="1000"
	height="1000"
	id="svg2"
	version="1.1"
	sodipodi:docname="manifold/gathang-tool46.png.txt">
<defs
	id="defs4" />
<metadata
	id="metadata7">
	<rdf:RDF>
		<cc:Work
			rdf:about="">
			<dc:format>image/svg+xml</dc:format>
			<dc:type
				rdf:resource="http://purl.org/dc/dcmitype/StillImage" />
			<dc:title></dc:title>
		</cc:Work>
	</rdf:RDF>
</metadata>
<g
	inkscape:label="Layer 1"
	inkscape:groupmode="layer"
	id="layer1">
	<path style="fill:none;stroke:red;stroke-width:1px;stroke-linecap:butt;stroke-linejoin:miter;stroke-opacity:1" d="M 74.8571,17.1217 98.4762,4 z" id="boundary" inkscape:connector-curvature="0" />
	<path style="fill:none;stroke:red;stroke-width:1px;stroke-linecap:butt;stroke-linejoin:miter;stroke-opacity:1" d="M 98.4762,4 124.72,4 z" id="boundary" inkscape:connector-curvature="0" />
	<path style="fill:none;stroke:red;stroke-width:1px;stroke-linecap:butt;stroke-linejoin:miter;stroke-opacity:1" d="M 124.72,4 150.963,4 z" id="boundary" inkscape:connector-curvature="0" />
	<path style="fill:none;stroke:red;stroke-width:1px;stroke-linecap:butt;stroke-linejoin:miter;stroke-opacity:1" d="M 30.2434,51.2381 51.2381,30.2434 z" id="boundary" inkscape:connector-curvature="0" />
	<path style="fill:none;stroke:red;stroke-width:1px;stroke-linecap:butt;stroke-linejoin:miter;stroke-opacity:1" d="M 56.4868,59.1111 30.2434,51.2381 z" id="boundary" inkscape:connector-curvature="0" />
	<path style="fill:none;stroke:red;stroke-width:1px;stroke-linecap:butt;stroke-linejoin:miter;stroke-opacity:1" d="M 51.2381,30.2434 74.8571,17.1217 z" id="boundary" inkscape:connector-curvature="0" />
	<path style="fill:none;stroke:red;stroke-width:1px;stroke-linecap:butt;stroke-linejoin:miter;stroke-opacity:1" d="M 80.1058,72.2328 103.725,85.3545 z" id="boundary" inkscape:connector-curvature="0" />
	<path style="fill:none;stroke:red;stroke-width:1px;stroke-linecap:butt;stroke-linejoin:miter;stroke-opacity:1" d="M 103.725,85.3545 108.974,111.598 z" id="boundary" inkscape:connector-curvature="0" />
	<path style="fill:none;stroke:red;stroke-width:1px;stroke-linecap:butt;stroke-linejoin:miter;stroke-opacity:1" d="M 80.1058,72.2328 56.4868,59.1111 z" id="boundary" inkscape:connector-curvature="0" />
	<path style="fill:none;stroke:red;stroke-width:1px;stroke-linecap:butt;stroke-linejoin:miter;stroke-opacity:1" d="M 150.963,4 177.206,4 z" id="boundary" inkscape:connector-curvature="0" />
	<path style="fill:none;stroke:red;stroke-width:1px;stroke-linecap:butt;stroke-linejoin:miter;stroke-opacity:1" d="M 177.206,4 200.825,17.1217 z" id="boundary" inkscape:connector-curvature="0" />
	<path style="fill:none;stroke:red;stroke-width:1px;stroke-linecap:butt;stroke-linejoin:miter;stroke-opacity:1" d="M 200.825,17.1217 216.571,38.1164 z" id="boundary" inkscape:connector-curvature="0" />
	<path style="fill:none;stroke:red;stroke-width:1px;stroke-linecap:butt;stroke-linejoin:miter;stroke-opacity:1" d="M 240.19,51.2381 216.571,38.1164 z" id="boundary" inkscape:connector-curvature="0" />
	<path style="fill:none;stroke:red;stroke-width:1px;stroke-linecap:butt;stroke-linejoin:miter;stroke-opacity:1" d="M 240.19,51.2381 266.434,56.4868 z" id="boundary" inkscape:connector-curvature="0" />
	<path style="fill:none;stroke:red;stroke-width:1px;stroke-linecap:butt;stroke-linejoin:miter;stroke-opacity:1" d="M 316.296,69.6085 290.053,69.6085 z" id="boundary" inkscape:connector-curvature="0" />
	<path style="fill:none;stroke:red;stroke-width:1px;stroke-linecap:butt;stroke-linejoin:miter;stroke-opacity:1" d="M 290.053,69.6085 266.434,56.4868 z" id="boundary" inkscape:connector-curvature="0" />
	<path style="fill:none;stroke:red;stroke-width:1px;stroke-linecap:butt;stroke-linejoin:miter;stroke-opacity:1" d="M 342.54,69.6085 316.296,69.6085 z" id="boundary" inkscape:connector-curvature="0" />
	<path style="fill:none;stroke:red;stroke-width:1px;stroke-linecap:butt;stroke-linejoin:miter;stroke-opacity:1" d="M 368.783,69.6085 342.54,69.6085 z" id="boundary" inkscape:connector-curvature="0" />
	<path style="fill:none;stroke:red;stroke-width:1px;stroke-linecap:butt;stroke-linejoin:miter;stroke-opacity:1" d="M 368.783,69.6085 395.026,69.6085 z" id="boundary" inkscape:connector-curvature="0" />
	<path style="fill:none;stroke:red;stroke-width:1px;stroke-linecap:butt;stroke-linejoin:miter;stroke-opacity:1" d="M 421.27,69.6085 395.026,69.6085 z" id="boundary" inkscape:connector-curvature="0" />
	<path style="fill:none;stroke:red;stroke-width:1px;stroke-linecap:butt;stroke-linejoin:miter;stroke-opacity:1" d="M 447.513,69.6085 421.27,69.6085 z" id="boundary" inkscape:connector-curvature="0" />
	<path style="fill:none;stroke:red;stroke-width:1px;stroke-linecap:butt;stroke-linejoin:miter;stroke-opacity:1" d="M 473.757,69.6085 447.513,69.6085 z" id="boundary" inkscape:connector-curvature="0" />
	<path style="fill:none;stroke:red;stroke-width:1px;stroke-linecap:butt;stroke-linejoin:miter;stroke-opacity:1" d="M 24.9947,200.825 4,182.455 z" id="boundary" inkscape:connector-curvature="0" />
	<path style="fill:none;stroke:red;stroke-width:1px;stroke-linecap:butt;stroke-linejoin:miter;stroke-opacity:1" d="M 4,182.455 30.2434,174.582 z" id="boundary" inkscape:connector-curvature="0" />
	<path style="fill:none;stroke:red;stroke-width:1px;stroke-linecap:butt;stroke-linejoin:miter;stroke-opacity:1" d="M 98.4762,153.587 82.7302,174.582 z" id="boundary" inkscape:connector-curvature="0" />
	<path style="fill:none;stroke:red;stroke-width:1px;stroke-linecap:butt;stroke-linejoin:miter;stroke-opacity:1" d="M 82.7302,174.582 56.4868,174.582 z" id="boundary" inkscape:connector-curvature="0" />
	<path style="fill:none;stroke:red;stroke-width:1px;stroke-linecap:butt;stroke-linejoin:miter;stroke-opacity:1" d="M 56.4868,174.582 30.2434,174.582 z" id="boundary" inkscape:connector-curvature="0" />
	<path style="fill:none;stroke:red;stroke-width:1px;stroke-linecap:butt;stroke-linejoin:miter;stroke-opacity:1" d="M 108.974,111.598 98.4762,153.587 z" id="boundary" inkscape:connector-curvature="0" />
	<path style="fill:none;stroke:red;stroke-width:1px;stroke-linecap:butt;stroke-linejoin:miter;stroke-opacity:1" d="M 64.3598,240.19 43.3651,221.82 z" id="boundary" inkscape:connector-curvature="0" />
	<path style="fill:none;stroke:red;stroke-width:1px;stroke-linecap:butt;stroke-linejoin:miter;stroke-opacity:1" d="M 43.3651,221.82 24.9947,200.825 z" id="boundary" inkscape:connector-curvature="0" />
	<path style="fill:none;stroke:red;stroke-width:1px;stroke-linecap:butt;stroke-linejoin:miter;stroke-opacity:1" d="M 135.217,269.058 108.974,269.058 z" id="boundary" inkscape:connector-curvature="0" />
	<path style="fill:none;stroke:red;stroke-width:1px;stroke-linecap:butt;stroke-linejoin:miter;stroke-opacity:1" d="M 108.974,269.058 87.9788,253.312 z" id="boundary" inkscape:connector-curvature="0" />
	<path style="fill:none;stroke:red;stroke-width:1px;stroke-linecap:butt;stroke-linejoin:miter;stroke-opacity:1" d="M 87.9788,253.312 64.3598,240.19 z" id="boundary" inkscape:connector-curvature="0" />
	<path style="fill:none;stroke:red;stroke-width:1px;stroke-linecap:butt;stroke-linejoin:miter;stroke-opacity:1" d="M 161.46,269.058 135.217,269.058 z" id="boundary" inkscape:connector-curvature="0" />
	<path style="fill:none;stroke:red;stroke-width:1px;stroke-linecap:butt;stroke-linejoin:miter;stroke-opacity:1" d="M 295.302,177.206 321.545,177.206 z" id="boundary" inkscape:connector-curvature="0" />
	<path style="fill:none;stroke:red;stroke-width:1px;stroke-linecap:butt;stroke-linejoin:miter;stroke-opacity:1" d="M 271.683,190.328 295.302,177.206 z" id="boundary" inkscape:connector-curvature="0" />
	<path style="fill:none;stroke:red;stroke-width:1px;stroke-linecap:butt;stroke-linejoin:miter;stroke-opacity:1" d="M 321.545,177.206 347.788,177.206 z" id="boundary" inkscape:connector-curvature="0" />
	<path style="fill:none;stroke:red;stroke-width:1px;stroke-linecap:butt;stroke-linejoin:miter;stroke-opacity:1" d="M 374.032,177.206 400.275,177.206 z" id="boundary" inkscape:connector-curvature="0" />
	<path style="fill:none;stroke:red;stroke-width:1px;stroke-linecap:butt;stroke-linejoin:miter;stroke-opacity:1" d="M 374.032,177.206 347.788,177.206 z" id="boundary" inkscape:connector-curvature="0" />
	<path style="fill:none;stroke:red;stroke-width:1px;stroke-linecap:butt;stroke-linejoin:miter;stroke-opacity:1" d="M 400.275,177.206 426.519,177.206 z" id="boundary" inkscape:connector-curvature="0" />
	<path style="fill:none;stroke:red;stroke-width:1px;stroke-linecap:butt;stroke-linejoin:miter;stroke-opacity:1" d="M 227.069,221.82 213.947,248.063 z" id="boundary" inkscape:connector-curvature="0" />
	<path style="fill:none;stroke:red;stroke-width:1px;stroke-linecap:butt;stroke-linejoin:miter;stroke-opacity:1" d="M 213.947,248.063 187.704,261.185 z" id="boundary" inkscape:connector-curvature="0" />
	<path style="fill:none;stroke:red;stroke-width:1px;stroke-linecap:butt;stroke-linejoin:miter;stroke-opacity:1" d="M 187.704,261.185 161.46,269.058 z" id="boundary" inkscape:connector-curvature="0" />
	<path style="fill:none;stroke:red;stroke-width:1px;stroke-linecap:butt;stroke-linejoin:miter;stroke-opacity:1" d="M 248.063,203.45 271.683,190.328 z" id="boundary" inkscape:connector-curvature="0" />
	<path style="fill:none;stroke:red;stroke-width:1px;stroke-linecap:butt;stroke-linejoin:miter;stroke-opacity:1" d="M 248.063,203.45 227.069,221.82 z" id="boundary" inkscape:connector-curvature="0" />
	<path style="fill:none;stroke:red;stroke-width:1px;stroke-linecap:butt;stroke-linejoin:miter;stroke-opacity:1" d="M 426.519,177.206 452.762,177.206 z" id="boundary" inkscape:connector-curvature="0" />
	<path style="fill:none;stroke:red;stroke-width:1px;stroke-linecap:butt;stroke-linejoin:miter;stroke-opacity:1" d="M 473.757,69.6085 500,69.6085 z" id="boundary" inkscape:connector-curvature="0" />
	<path style="fill:none;stroke:red;stroke-width:1px;stroke-linecap:butt;stroke-linejoin:miter;stroke-opacity:1" d="M 526.243,69.6085 552.487,69.6085 z" id="boundary" inkscape:connector-curvature="0" />
	<path style="fill:none;stroke:red;stroke-width:1px;stroke-linecap:butt;stroke-linejoin:miter;stroke-opacity:1" d="M 578.73,69.6085 552.487,69.6085 z" id="boundary" inkscape:connector-curvature="0" />
	<path style="fill:none;stroke:red;stroke-width:1px;stroke-linecap:butt;stroke-linejoin:miter;stroke-opacity:1" d="M 557.735,177.206 531.492,177.206 z" id="boundary" inkscape:connector-curvature="0" />
	<path style="fill:none;stroke:red;stroke-width:1px;stroke-linecap:butt;stroke-linejoin:miter;stroke-opacity:1" d="M 526.243,69.6085 500,69.6085 z" id="boundary" inkscape:connector-curvature="0" />
	<path style="fill:none;stroke:red;stroke-width:1px;stroke-linecap:butt;stroke-linejoin:miter;stroke-opacity:1" d="M 479.005,177.206 505.249,177.206 z" id="boundary" inkscape:connector-curvature="0" />
	<path style="fill:none;stroke:red;stroke-width:1px;stroke-linecap:butt;stroke-linejoin:miter;stroke-opacity:1" d="M 479.005,177.206 452.762,177.206 z" id="boundary" inkscape:connector-curvature="0" />
	<path style="fill:none;stroke:red;stroke-width:1px;stroke-linecap:butt;stroke-linejoin:miter;stroke-opacity:1" d="M 578.73,69.6085 604.974,69.6085 z" id="boundary" inkscape:connector-curvature="0" />
	<path style="fill:none;stroke:red;stroke-width:1px;stroke-linecap:butt;stroke-linejoin:miter;stroke-opacity:1" d="M 531.492,177.206 505.249,177.206 z" id="boundary" inkscape:connector-curvature="0" />
	<path style="fill:none;stroke:red;stroke-width:1px;stroke-linecap:butt;stroke-linejoin:miter;stroke-opacity:1" d="M 631.217,69.6085 604.974,69.6085 z" id="boundary" inkscape:connector-curvature="0" />
	<path style="fill:none;stroke:red;stroke-width:1px;stroke-linecap:butt;stroke-linejoin:miter;stroke-opacity:1" d="M 657.46,69.6085 683.704,69.6085 z" id="boundary" inkscape:connector-curvature="0" />
	<path style="fill:none;stroke:red;stroke-width:1px;stroke-linecap:butt;stroke-linejoin:miter;stroke-opacity:1" d="M 683.704,69.6085 707.323,82.7302 z" id="boundary" inkscape:connector-curvature="0" />
	<path style="fill:none;stroke:red;stroke-width:1px;stroke-linecap:butt;stroke-linejoin:miter;stroke-opacity:1" d="M 757.185,95.8519 730.942,95.8519 z" id="boundary" inkscape:connector-curvature="0" />
	<path style="fill:none;stroke:red;stroke-width:1px;stroke-linecap:butt;stroke-linejoin:miter;stroke-opacity:1" d="M 730.942,95.8519 707.323,82.7302 z" id="boundary" inkscape:connector-curvature="0" />
	<path style="fill:none;stroke:red;stroke-width:1px;stroke-linecap:butt;stroke-linejoin:miter;stroke-opacity:1" d="M 757.185,95.8519 780.804,108.974 z" id="boundary" inkscape:connector-curvature="0" />
	<path style="fill:none;stroke:red;stroke-width:1px;stroke-linecap:butt;stroke-linejoin:miter;stroke-opacity:1" d="M 830.667,127.344 804.423,122.095 z" id="boundary" inkscape:connector-curvature="0" />
	<path style="fill:none;stroke:red;stroke-width:1px;stroke-linecap:butt;stroke-linejoin:miter;stroke-opacity:1" d="M 804.423,122.095 780.804,108.974 z" id="boundary" inkscape:connector-curvature="0" />
	<path style="fill:none;stroke:red;stroke-width:1px;stroke-linecap:butt;stroke-linejoin:miter;stroke-opacity:1" d="M 893.651,174.582 870.032,161.46 z" id="boundary" inkscape:connector-curvature="0" />
	<path style="fill:none;stroke:red;stroke-width:1px;stroke-linecap:butt;stroke-linejoin:miter;stroke-opacity:1" d="M 870.032,161.46 854.286,140.466 z" id="boundary" inkscape:connector-curvature="0" />
	<path style="fill:none;stroke:red;stroke-width:1px;stroke-linecap:butt;stroke-linejoin:miter;stroke-opacity:1" d="M 919.894,177.206 893.651,174.582 z" id="boundary" inkscape:connector-curvature="0" />
	<path style="fill:none;stroke:red;stroke-width:1px;stroke-linecap:butt;stroke-linejoin:miter;stroke-opacity:1" d="M 830.667,127.344 854.286,140.466 z" id="boundary" inkscape:connector-curvature="0" />
	<path style="fill:none;stroke:red;stroke-width:1px;stroke-linecap:butt;stroke-linejoin:miter;stroke-opacity:1" d="M 631.217,69.6085 657.46,69.6085 z" id="boundary" inkscape:connector-curvature="0" />
	<path style="fill:none;stroke:red;stroke-width:1px;stroke-linecap:butt;stroke-linejoin:miter;stroke-opacity:1" d="M 557.735,177.206 583.979,177.206 z" id="boundary" inkscape:connector-curvature="0" />
	<path style="fill:none;stroke:red;stroke-width:1px;stroke-linecap:butt;stroke-linejoin:miter;stroke-opacity:1" d="M 636.466,182.455 610.222,177.206 z" id="boundary" inkscape:connector-curvature="0" />
	<path style="fill:none;stroke:red;stroke-width:1px;stroke-linecap:butt;stroke-linejoin:miter;stroke-opacity:1" d="M 738.815,203.45 712.571,203.45 z" id="boundary" inkscape:connector-curvature="0" />
	<path style="fill:none;stroke:red;stroke-width:1px;stroke-linecap:butt;stroke-linejoin:miter;stroke-opacity:1" d="M 583.979,177.206 610.222,177.206 z" id="boundary" inkscape:connector-curvature="0" />
	<path style="fill:none;stroke:red;stroke-width:1px;stroke-linecap:butt;stroke-linejoin:miter;stroke-opacity:1" d="M 662.709,190.328 686.328,203.45 z" id="boundary" inkscape:connector-curvature="0" />
	<path style="fill:none;stroke:red;stroke-width:1px;stroke-linecap:butt;stroke-linejoin:miter;stroke-opacity:1" d="M 636.466,182.455 662.709,190.328 z" id="boundary" inkscape:connector-curvature="0" />
	<path style="fill:none;stroke:red;stroke-width:1px;stroke-linecap:butt;stroke-linejoin:miter;stroke-opacity:1" d="M 686.328,203.45 712.571,203.45 z" id="boundary" inkscape:connector-curvature="0" />
	<path style="fill:none;stroke:red;stroke-width:1px;stroke-linecap:butt;stroke-linejoin:miter;stroke-opacity:1" d="M 738.815,203.45 762.434,216.571 z" id="boundary" inkscape:connector-curvature="0" />
	<path style="fill:none;stroke:red;stroke-width:1px;stroke-linecap:butt;stroke-linejoin:miter;stroke-opacity:1" d="M 762.434,216.571 788.677,216.571 z" id="boundary" inkscape:connector-curvature="0" />
	<path style="fill:none;stroke:red;stroke-width:1px;stroke-linecap:butt;stroke-linejoin:miter;stroke-opacity:1" d="M 788.677,216.571 812.296,229.693 z" id="boundary" inkscape:connector-curvature="0" />
	<path style="fill:none;stroke:red;stroke-width:1px;stroke-linecap:butt;stroke-linejoin:miter;stroke-opacity:1" d="M 812.296,229.693 838.54,240.19 z" id="boundary" inkscape:connector-curvature="0" />
	<path style="fill:none;stroke:red;stroke-width:1px;stroke-linecap:butt;stroke-linejoin:miter;stroke-opacity:1" d="M 864.783,242.815 838.54,240.19 z" id="boundary" inkscape:connector-curvature="0" />
	<path style="fill:none;stroke:red;stroke-width:1px;stroke-linecap:butt;stroke-linejoin:miter;stroke-opacity:1" d="M 891.026,253.312 864.783,242.815 z" id="boundary" inkscape:connector-curvature="0" />
	<path style="fill:none;stroke:red;stroke-width:1px;stroke-linecap:butt;stroke-linejoin:miter;stroke-opacity:1" d="M 938.265,198.201 964.508,200.825 z" id="boundary" inkscape:connector-curvature="0" />
	<path style="fill:none;stroke:red;stroke-width:1px;stroke-linecap:butt;stroke-linejoin:miter;stroke-opacity:1" d="M 938.265,198.201 919.894,177.206 z" id="boundary" inkscape:connector-curvature="0" />
	<path style="fill:none;stroke:red;stroke-width:1px;stroke-linecap:butt;stroke-linejoin:miter;stroke-opacity:1" d="M 964.508,200.825 985.503,216.571 z" id="boundary" inkscape:connector-curvature="0" />
	<path style="fill:none;stroke:red;stroke-width:1px;stroke-linecap:butt;stroke-linejoin:miter;stroke-opacity:1" d="M 891.026,253.312 917.27,255.937 z" id="boundary" inkscape:connector-curvature="0" />
	<path style="fill:none;stroke:red;stroke-width:1px;stroke-linecap:butt;stroke-linejoin:miter;stroke-opacity:1" d="M 917.27,255.937 943.513,266.434 z" id="boundary" inkscape:connector-curvature="0" />
	<path style="fill:none;stroke:red;stroke-width:1px;stroke-linecap:butt;stroke-linejoin:miter;stroke-opacity:1" d="M 996,242.815 996,269.058 z" id="boundary" inkscape:connector-curvature="0" />
	<path style="fill:none;stroke:red;stroke-width:1px;stroke-linecap:butt;stroke-linejoin:miter;stroke-opacity:1" d="M 996,269.058 969.757,255.937 z" id="boundary" inkscape:connector-curvature="0" />
	<path style="fill:none;stroke:red;stroke-width:1px;stroke-linecap:butt;stroke-linejoin:miter;stroke-opacity:1" d="M 969.757,255.937 943.513,266.434 z" id="boundary" inkscape:connector-curvature="0" />
	<path style="fill:none;stroke:red;stroke-width:1px;stroke-linecap:butt;stroke-linejoin:miter;stroke-opacity:1" d="M 985.503,216.571 996,242.815 z" id="boundary" inkscape:connector-curvature="0" />
	<circle cx="4" cy="182.455" r="4" fill="#0" id="circle0"/>
	<circle cx="24.9947" cy="200.825" r="4" fill="#0" id="circle1"/>
	<circle cx="30.2434" cy="51.2381" r="4" fill="#0" id="circle2"/>
	<circle cx="30.2434" cy="174.582" r="4" fill="#0" id="circle3"/>
	<circle cx="43.3651" cy="221.82" r="4" fill="#0" id="circle4"/>
	<circle cx="51.2381" cy="30.2434" r="4" fill="#0" id="circle5"/>
	<circle cx="56.4868" cy="59.1111" r="4" fill="#0" id="circle6"/>
	<circle cx="56.4868" cy="174.582" r="4" fill="#0" id="circle7"/>
	<circle cx="64.3598" cy="240.19" r="4" fill="#0" id="circle8"/>
	<circle cx="74.8571" cy="17.1217" r="4" fill="#0" id="circle9"/>
	<circle cx="80.1058" cy="72.2328" r="4" fill="#0" id="circle10"/>
	<circle cx="82.7302" cy="174.582" r="4" fill="#0" id="circle11"/>
	<circle cx="87.9788" cy="253.312" r="4" fill="#0" id="circle12"/>
	<circle cx="98.4762" cy="4" r="4" fill="#0" id="circle13"/>
	<circle cx="98.4762" cy="153.587" r="4" fill="#0" id="circle14"/>
	<circle cx="103.725" cy="85.3545" r="4" fill="#0" id="circle15"/>
	<circle cx="108.974" cy="111.598" r="4" fill="#0" id="circle16"/>
	<circle cx="108.974" cy="269.058" r="4" fill="#0" id="circle17"/>
	<circle cx="124.72" cy="4" r="4" fill="#0" id="circle18"/>
	<circle cx="135.217" cy="269.058" r="4" fill="#0" id="circle19"/>
	<circle cx="150.963" cy="4" r="4" fill="#0" id="circle20"/>
	<circle cx="161.46" cy="269.058" r="4" fill="#0" id="circle21"/>
	<circle cx="177.206" cy="4" r="4" fill="#0" id="circle22"/>
	<circle cx="187.704" cy="261.185" r="4" fill="#0" id="circle23"/>
	<circle cx="200.825" cy="17.1217" r="4" fill="#0" id="circle24"/>
	<circle cx="213.947" cy="248.063" r="4" fill="#0" id="circle25"/>
	<circle cx="216.571" cy="38.1164" r="4" fill="#0" id="circle26"/>
	<circle cx="227.069" cy="221.82" r="4" fill="#0" id="circle27"/>
	<circle cx="240.19" cy="51.2381" r="4" fill="#0" id="circle28"/>
	<circle cx="248.063" cy="203.45" r="4" fill="#0" id="circle29"/>
	<circle cx="266.434" cy="56.4868" r="4" fill="#0" id="circle30"/>
	<circle cx="271.683" cy="190.328" r="4" fill="#0" id="circle31"/>
	<circle cx="290.053" cy="69.6085" r="4" fill="#0" id="circle32"/>
	<circle cx="295.302" cy="177.206" r="4" fill="#0" id="circle33"/>
	<circle cx="316.296" cy="69.6085" r="4" fill="#0" id="circle34"/>
	<circle cx="321.545" cy="177.206" r="4" fill="#0" id="circle35"/>
	<circle cx="342.54" cy="69.6085" r="4" fill="#0" id="circle36"/>
	<circle cx="347.788" cy="177.206" r="4" fill="#0" id="circle37"/>
	<circle cx="368.783" cy="69.6085" r="4" fill="#0" id="circle38"/>
	<circle cx="374.032" cy="177.206" r="4" fill="#0" id="circle39"/>
	<circle cx="395.026" cy="69.6085" r="4" fill="#0" id="circle40"/>
	<circle cx="400.275" cy="177.206" r="4" fill="#0" id="circle41"/>
	<circle cx="421.27" cy="69.6085" r="4" fill="#0" id="circle42"/>
	<circle cx="426.519" cy="177.206" r="4" fill="#0" id="circle43"/>
	<circle cx="447.513" cy="69.6085" r="4" fill="#0" id="circle44"/>
	<circle cx="452.762" cy="177.206" r="4" fill="#0" id="circle45"/>
	<circle cx="473.757" cy="69.6085" r="4" fill="#0" id="circle46"/>
	<circle cx="479.005" cy="177.206" r="4" fill="#0" id="circle47"/>
	<circle cx="500" cy="69.6085" r="4" fill="#0" id="circle48"/>
	<circle cx="505.249" cy="177.206" r="4" fill="#0" id="circle49"/>
	<circle cx="526.243" cy="69.6085" r="4" fill="#0" id="circle50"/>
	<circle cx="531.492" cy="177.206" r="4" fill="#0" id="circle51"/>
	<circle cx="552.487" cy="69.6085" r="4" fill="#0" id="circle52"/>
	<circle cx="557.735" cy="177.206" r="4" fill="#0" id="circle53"/>
	<circle cx="578.73" cy="69.6085" r="4" fill="#0" id="circle54"/>
	<circle cx="583.979" cy="177.206" r="4" fill="#0" id="circle55"/>
	<circle cx="604.974" cy="69.6085" r="4" fill="#0" id="circle56"/>
	<circle cx="610.222" cy="177.206" r="4" fill="#0" id="circle57"/>
	<circle cx="631.217" cy="69.6085" r="4" fill="#0" id="circle58"/>
	<circle cx="636.466" cy="182.455" r="4" fill="#0" id="circle59"/>
	<circle cx="657.46" cy="69.6085" r="4" fill="#0" id="circle60"/>
	<circle cx="662.709" cy="190.328" r="4" fill="#0" id="circle61"/>
	<circle cx="683.704" cy="69.6085" r="4" fill="#0" id="circle62"/>
	<circle cx="686.328" cy="203.45" r="4" fill="#0" id="circle63"/>
	<circle cx="707.323" cy="82.7302" r="4" fill="#0" id="circle64"/>
	<circle cx="712.571" cy="203.45" r="4" fill="#0" id="circle65"/>
	<circle cx="730.942" cy="95.8519" r="4" fill="#0" id="circle66"/>
	<circle cx="738.815" cy="203.45" r="4" fill="#0" id="circle67"/>
	<circle cx="757.185" cy="95.8519" r="4" fill="#0" id="circle68"/>
	<circle cx="762.434" cy="216.571" r="4" fill="#0" id="circle69"/>
	<circle cx="780.804" cy="108.974" r="4" fill="#0" id="circle70"/>
	<circle cx="788.677" cy="216.571" r="4" fill="#0" id="circle71"/>
	<circle cx="804.423" cy="122.095" r="4" fill="#0" id="circle72"/>
	<circle cx="812.296" cy="229.693" r="4" fill="#0" id="circle73"/>
	<circle cx="830.667" cy="127.344" r="4" fill="#0" id="circle74"/>
	<circle cx="838.54" cy="240.19" r="4" fill="#0" id="circle75"/>
	<circle cx="854.286" cy="140.466" r="4" fill="#0" id="circle76"/>
	<circle cx="864.783" cy="242.815" r="4" fill="#0" id="circle77"/>
	<circle cx="870.032" cy="161.46" r="4" fill="#0" id="circle78"/>
	<circle cx="891.026" cy="253.312" r="4" fill="#0" id="circle79"/>
	<circle cx="893.651" cy="174.582" r="4" fill="#0" id="circle80"/>
	<circle cx="917.27" cy="255.937" r="4" fill="#0" id="circle81"/>
	<circle cx="919.894" cy="177.206" r="4" fill="#0" id="circle82"/>
	<circle cx="938.265" cy="198.201" r="4" fill="#0" id="circle83"/>
	<circle cx="943.513" cy="266.434" r="4" fill="#0" id="circle84"/>
	<circle cx="964.508" cy="200.825" r="4" fill="#0" id="circle85"/>
	<circle cx="969.757" cy="255.937" r="4" fill="#0" id="circle86"/>
	<circle cx="985.503" cy="216.571" r="4" fill="#0" id="circle87"/>
	<circle cx="996" cy="242.815" r="4" fill="#0" id="circle88"/>
	<circle cx="996" cy="269.058" r="4" fill="#0" id="circle89"/>
	</g>
</svg>