<?xml version="1.0" encoding="UTF-8" standalone="no"?>
<!-- Created with CurveBenchmark -->
<svg
	xmlns:dc="http://purl.org/dc/elements/1.1/"
	xmlns:cc="http://creativecommons.org/ns#"
	xmlns:rdf="http://www.w3.org/1999/02/22-rdf-syntax-ns#"
	xmlns:svg="http://www.w3.org/2000/svg"
	xmlns="http://www.w3.org/2000/svg"
	xmlns:sodipodi="http://sodipodi.sourceforge.net/DTD/sodipodi-0.dtd"
	xmlns:inkscape="http://www.inkscape.org/namespaces/inkscape"
	width="1000"
	height="1000"
	id="svg2"
	version="1.1"
	sodipodi:docname="manifold/gathan1-dude5.png.txt">
<defs
	id="defs4" />
<metadata
	id="metadata7">
	<rdf:RDF>
		<cc:Work
			rdf:about="">
			<dc:format>image/svg+xml</dc:format>
			<dc:type
				rdf:resource="http://purl.org/dc/dcmitype/StillImage" />
			<dc:title></dc:title>
		</cc:Work>
	</rdf:RDF>
</metadata>
<g
	inkscape:label="Layer 1"
	inkscape:groupmode="layer"
	id="layer1">
	<path style="fill:none;stroke:red;stroke-width:1px;stroke-linecap:butt;stroke-linejoin:miter;stroke-opacity:1" d="M 102.047,276.992 111.659,257.767 z" id="boundary" inkscape:connector-curvature="0" />
	<path style="fill:none;stroke:red;stroke-width:1px;stroke-linecap:butt;stroke-linejoin:miter;stroke-opacity:1" d="M 102.047,276.992 86.6667,292.372 z" id="boundary" inkscape:connector-curvature="0" />
	<path style="fill:none;stroke:red;stroke-width:1px;stroke-linecap:butt;stroke-linejoin:miter;stroke-opacity:1" d="M 121.271,238.543 111.659,257.767 z" id="boundary" inkscape:connector-curvature="0" />
	<path style="fill:none;stroke:red;stroke-width:1px;stroke-linecap:butt;stroke-linejoin:miter;stroke-opacity:1" d="M 86.6667,292.372 78.9767,311.597 z" id="boundary" inkscape:connector-curvature="0" />
	<path style="fill:none;stroke:red;stroke-width:1px;stroke-linecap:butt;stroke-linejoin:miter;stroke-opacity:1" d="M 78.9767,311.597 63.5969,325.054 z" id="boundary" inkscape:connector-curvature="0" />
	<path style="fill:none;stroke:red;stroke-width:1px;stroke-linecap:butt;stroke-linejoin:miter;stroke-opacity:1" d="M 169.333,200.093 153.953,215.473 z" id="boundary" inkscape:connector-curvature="0" />
	<path style="fill:none;stroke:red;stroke-width:1px;stroke-linecap:butt;stroke-linejoin:miter;stroke-opacity:1" d="M 153.953,215.473 136.651,225.085 z" id="boundary" inkscape:connector-curvature="0" />
	<path style="fill:none;stroke:red;stroke-width:1px;stroke-linecap:butt;stroke-linejoin:miter;stroke-opacity:1" d="M 184.713,186.636 169.333,200.093 z" id="boundary" inkscape:connector-curvature="0" />
	<path style="fill:none;stroke:red;stroke-width:1px;stroke-linecap:butt;stroke-linejoin:miter;stroke-opacity:1" d="M 202.016,303.907 182.791,311.597 z" id="boundary" inkscape:connector-curvature="0" />
	<path style="fill:none;stroke:red;stroke-width:1px;stroke-linecap:butt;stroke-linejoin:miter;stroke-opacity:1" d="M 167.411,323.132 150.109,332.744 z" id="boundary" inkscape:connector-curvature="0" />
	<path style="fill:none;stroke:red;stroke-width:1px;stroke-linecap:butt;stroke-linejoin:miter;stroke-opacity:1" d="M 182.791,311.597 167.411,323.132 z" id="boundary" inkscape:connector-curvature="0" />
	<path style="fill:none;stroke:red;stroke-width:1px;stroke-linecap:butt;stroke-linejoin:miter;stroke-opacity:1" d="M 140.496,351.969 150.109,332.744 z" id="boundary" inkscape:connector-curvature="0" />
	<path style="fill:none;stroke:red;stroke-width:1px;stroke-linecap:butt;stroke-linejoin:miter;stroke-opacity:1" d="M 121.271,238.543 136.651,225.085 z" id="boundary" inkscape:connector-curvature="0" />
	<path style="fill:none;stroke:red;stroke-width:1px;stroke-linecap:butt;stroke-linejoin:miter;stroke-opacity:1" d="M 38.6047,359.659 28.9922,378.884 z" id="boundary" inkscape:connector-curvature="0" />
	<path style="fill:none;stroke:red;stroke-width:1px;stroke-linecap:butt;stroke-linejoin:miter;stroke-opacity:1" d="M 28.9922,378.884 13.6124,394.264 z" id="boundary" inkscape:connector-curvature="0" />
	<path style="fill:none;stroke:red;stroke-width:1px;stroke-linecap:butt;stroke-linejoin:miter;stroke-opacity:1" d="M 63.5969,419.256 48.2171,436.558 z" id="boundary" inkscape:connector-curvature="0" />
	<path style="fill:none;stroke:red;stroke-width:1px;stroke-linecap:butt;stroke-linejoin:miter;stroke-opacity:1" d="M 4,432.713 4,413.488 z" id="boundary" inkscape:connector-curvature="0" />
	<path style="fill:none;stroke:red;stroke-width:1px;stroke-linecap:butt;stroke-linejoin:miter;stroke-opacity:1" d="M 4,413.488 13.6124,394.264 z" id="boundary" inkscape:connector-curvature="0" />
	<path style="fill:none;stroke:red;stroke-width:1px;stroke-linecap:butt;stroke-linejoin:miter;stroke-opacity:1" d="M 48.2171,436.558 32.8372,451.938 z" id="boundary" inkscape:connector-curvature="0" />
	<path style="fill:none;stroke:red;stroke-width:1px;stroke-linecap:butt;stroke-linejoin:miter;stroke-opacity:1" d="M 127.039,367.349 111.659,380.806 z" id="boundary" inkscape:connector-curvature="0" />
	<path style="fill:none;stroke:red;stroke-width:1px;stroke-linecap:butt;stroke-linejoin:miter;stroke-opacity:1" d="M 140.496,351.969 127.039,367.349 z" id="boundary" inkscape:connector-curvature="0" />
	<path style="fill:none;stroke:red;stroke-width:1px;stroke-linecap:butt;stroke-linejoin:miter;stroke-opacity:1" d="M 53.9845,344.279 63.5969,325.054 z" id="boundary" inkscape:connector-curvature="0" />
	<path style="fill:none;stroke:red;stroke-width:1px;stroke-linecap:butt;stroke-linejoin:miter;stroke-opacity:1" d="M 63.5969,419.256 80.8992,409.643 z" id="boundary" inkscape:connector-curvature="0" />
	<path style="fill:none;stroke:red;stroke-width:1px;stroke-linecap:butt;stroke-linejoin:miter;stroke-opacity:1" d="M 96.2791,398.109 111.659,380.806 z" id="boundary" inkscape:connector-curvature="0" />
	<path style="fill:none;stroke:red;stroke-width:1px;stroke-linecap:butt;stroke-linejoin:miter;stroke-opacity:1" d="M 96.2791,398.109 80.8992,409.643 z" id="boundary" inkscape:connector-curvature="0" />
	<path style="fill:none;stroke:red;stroke-width:1px;stroke-linecap:butt;stroke-linejoin:miter;stroke-opacity:1" d="M 38.6047,359.659 53.9845,344.279 z" id="boundary" inkscape:connector-curvature="0" />
	<path style="fill:none;stroke:red;stroke-width:1px;stroke-linecap:butt;stroke-linejoin:miter;stroke-opacity:1" d="M 282.76,105.891 282.76,86.6667 z" id="boundary" inkscape:connector-curvature="0" />
	<path style="fill:none;stroke:red;stroke-width:1px;stroke-linecap:butt;stroke-linejoin:miter;stroke-opacity:1" d="M 292.372,123.194 282.76,105.891 z" id="boundary" inkscape:connector-curvature="0" />
	<path style="fill:none;stroke:red;stroke-width:1px;stroke-linecap:butt;stroke-linejoin:miter;stroke-opacity:1" d="M 292.372,57.8295 282.76,86.6667 z" id="boundary" inkscape:connector-curvature="0" />
	<path style="fill:none;stroke:red;stroke-width:1px;stroke-linecap:butt;stroke-linejoin:miter;stroke-opacity:1" d="M 240.465,177.023 221.24,177.023 z" id="boundary" inkscape:connector-curvature="0" />
	<path style="fill:none;stroke:red;stroke-width:1px;stroke-linecap:butt;stroke-linejoin:miter;stroke-opacity:1" d="M 292.372,123.194 292.372,142.419 z" id="boundary" inkscape:connector-curvature="0" />
	<path style="fill:none;stroke:red;stroke-width:1px;stroke-linecap:butt;stroke-linejoin:miter;stroke-opacity:1" d="M 278.915,167.411 259.69,177.023 z" id="boundary" inkscape:connector-curvature="0" />
	<path style="fill:none;stroke:red;stroke-width:1px;stroke-linecap:butt;stroke-linejoin:miter;stroke-opacity:1" d="M 292.372,142.419 278.915,167.411 z" id="boundary" inkscape:connector-curvature="0" />
	<path style="fill:none;stroke:red;stroke-width:1px;stroke-linecap:butt;stroke-linejoin:miter;stroke-opacity:1" d="M 292.372,57.8295 307.752,42.4496 z" id="boundary" inkscape:connector-curvature="0" />
	<path style="fill:none;stroke:red;stroke-width:1px;stroke-linecap:butt;stroke-linejoin:miter;stroke-opacity:1" d="M 338.512,13.6124 355.814,4 z" id="boundary" inkscape:connector-curvature="0" />
	<path style="fill:none;stroke:red;stroke-width:1px;stroke-linecap:butt;stroke-linejoin:miter;stroke-opacity:1" d="M 355.814,4 375.039,4 z" id="boundary" inkscape:connector-curvature="0" />
	<path style="fill:none;stroke:red;stroke-width:1px;stroke-linecap:butt;stroke-linejoin:miter;stroke-opacity:1" d="M 375.039,4 392.341,13.6124 z" id="boundary" inkscape:connector-curvature="0" />
	<path style="fill:none;stroke:red;stroke-width:1px;stroke-linecap:butt;stroke-linejoin:miter;stroke-opacity:1" d="M 307.752,42.4496 323.132,27.0698 z" id="boundary" inkscape:connector-curvature="0" />
	<path style="fill:none;stroke:red;stroke-width:1px;stroke-linecap:butt;stroke-linejoin:miter;stroke-opacity:1" d="M 323.132,27.0698 338.512,13.6124 z" id="boundary" inkscape:connector-curvature="0" />
	<path style="fill:none;stroke:red;stroke-width:1px;stroke-linecap:butt;stroke-linejoin:miter;stroke-opacity:1" d="M 221.24,177.023 203.938,186.636 z" id="boundary" inkscape:connector-curvature="0" />
	<path style="fill:none;stroke:red;stroke-width:1px;stroke-linecap:butt;stroke-linejoin:miter;stroke-opacity:1" d="M 203.938,186.636 184.713,186.636 z" id="boundary" inkscape:connector-curvature="0" />
	<path style="fill:none;stroke:red;stroke-width:1px;stroke-linecap:butt;stroke-linejoin:miter;stroke-opacity:1" d="M 221.24,311.597 202.016,303.907 z" id="boundary" inkscape:connector-curvature="0" />
	<path style="fill:none;stroke:red;stroke-width:1px;stroke-linecap:butt;stroke-linejoin:miter;stroke-opacity:1" d="M 228.93,330.822 234.698,350.047 z" id="boundary" inkscape:connector-curvature="0" />
	<path style="fill:none;stroke:red;stroke-width:1px;stroke-linecap:butt;stroke-linejoin:miter;stroke-opacity:1" d="M 244.31,367.349 234.698,350.047 z" id="boundary" inkscape:connector-curvature="0" />
	<path style="fill:none;stroke:red;stroke-width:1px;stroke-linecap:butt;stroke-linejoin:miter;stroke-opacity:1" d="M 221.24,311.597 228.93,330.822 z" id="boundary" inkscape:connector-curvature="0" />
	<path style="fill:none;stroke:red;stroke-width:1px;stroke-linecap:butt;stroke-linejoin:miter;stroke-opacity:1" d="M 259.69,177.023 240.465,177.023 z" id="boundary" inkscape:connector-curvature="0" />
	<path style="fill:none;stroke:red;stroke-width:1px;stroke-linecap:butt;stroke-linejoin:miter;stroke-opacity:1" d="M 246.233,386.574 244.31,367.349 z" id="boundary" inkscape:connector-curvature="0" />
	<path style="fill:none;stroke:red;stroke-width:1px;stroke-linecap:butt;stroke-linejoin:miter;stroke-opacity:1" d="M 253.922,405.798 246.233,386.574 z" id="boundary" inkscape:connector-curvature="0" />
	<path style="fill:none;stroke:red;stroke-width:1px;stroke-linecap:butt;stroke-linejoin:miter;stroke-opacity:1" d="M 263.535,423.101 263.535,442.326 z" id="boundary" inkscape:connector-curvature="0" />
	<path style="fill:none;stroke:red;stroke-width:1px;stroke-linecap:butt;stroke-linejoin:miter;stroke-opacity:1" d="M 253.922,405.798 263.535,423.101 z" id="boundary" inkscape:connector-curvature="0" />
	<path style="fill:none;stroke:red;stroke-width:1px;stroke-linecap:butt;stroke-linejoin:miter;stroke-opacity:1" d="M 273.147,459.628 263.535,442.326 z" id="boundary" inkscape:connector-curvature="0" />
	<path style="fill:none;stroke:red;stroke-width:1px;stroke-linecap:butt;stroke-linejoin:miter;stroke-opacity:1" d="M 157.798,769.147 148.186,788.372 z" id="boundary" inkscape:connector-curvature="0" />
	<path style="fill:none;stroke:red;stroke-width:1px;stroke-linecap:butt;stroke-linejoin:miter;stroke-opacity:1" d="M 13.6124,450.016 4,432.713 z" id="boundary" inkscape:connector-curvature="0" />
	<path style="fill:none;stroke:red;stroke-width:1px;stroke-linecap:butt;stroke-linejoin:miter;stroke-opacity:1" d="M 32.8372,451.938 13.6124,450.016 z" id="boundary" inkscape:connector-curvature="0" />
	<path style="fill:none;stroke:red;stroke-width:1px;stroke-linecap:butt;stroke-linejoin:miter;stroke-opacity:1" d="M 148.186,788.372 138.574,807.597 z" id="boundary" inkscape:connector-curvature="0" />
	<path style="fill:none;stroke:red;stroke-width:1px;stroke-linecap:butt;stroke-linejoin:miter;stroke-opacity:1" d="M 119.349,865.271 119.349,846.047 z" id="boundary" inkscape:connector-curvature="0" />
	<path style="fill:none;stroke:red;stroke-width:1px;stroke-linecap:butt;stroke-linejoin:miter;stroke-opacity:1" d="M 119.349,846.047 128.961,826.822 z" id="boundary" inkscape:connector-curvature="0" />
	<path style="fill:none;stroke:red;stroke-width:1px;stroke-linecap:butt;stroke-linejoin:miter;stroke-opacity:1" d="M 138.574,807.597 128.961,826.822 z" id="boundary" inkscape:connector-curvature="0" />
	<path style="fill:none;stroke:red;stroke-width:1px;stroke-linecap:butt;stroke-linejoin:miter;stroke-opacity:1" d="M 223.163,847.969 207.783,861.426 z" id="boundary" inkscape:connector-curvature="0" />
	<path style="fill:none;stroke:red;stroke-width:1px;stroke-linecap:butt;stroke-linejoin:miter;stroke-opacity:1" d="M 173.178,753.767 182.791,734.543 z" id="boundary" inkscape:connector-curvature="0" />
	<path style="fill:none;stroke:red;stroke-width:1px;stroke-linecap:butt;stroke-linejoin:miter;stroke-opacity:1" d="M 192.403,715.318 182.791,734.543 z" id="boundary" inkscape:connector-curvature="0" />
	<path style="fill:none;stroke:red;stroke-width:1px;stroke-linecap:butt;stroke-linejoin:miter;stroke-opacity:1" d="M 173.178,753.767 157.798,769.147 z" id="boundary" inkscape:connector-curvature="0" />
	<path style="fill:none;stroke:red;stroke-width:1px;stroke-linecap:butt;stroke-linejoin:miter;stroke-opacity:1" d="M 192.403,715.318 205.86,692.248 z" id="boundary" inkscape:connector-curvature="0" />
	<path style="fill:none;stroke:red;stroke-width:1px;stroke-linecap:butt;stroke-linejoin:miter;stroke-opacity:1" d="M 119.349,865.271 119.349,884.496 z" id="boundary" inkscape:connector-curvature="0" />
	<path style="fill:none;stroke:red;stroke-width:1px;stroke-linecap:butt;stroke-linejoin:miter;stroke-opacity:1" d="M 119.349,903.721 119.349,884.496 z" id="boundary" inkscape:connector-curvature="0" />
	<path style="fill:none;stroke:red;stroke-width:1px;stroke-linecap:butt;stroke-linejoin:miter;stroke-opacity:1" d="M 119.349,922.946 119.349,903.721 z" id="boundary" inkscape:connector-curvature="0" />
	<path style="fill:none;stroke:red;stroke-width:1px;stroke-linecap:butt;stroke-linejoin:miter;stroke-opacity:1" d="M 128.961,959.473 119.349,942.171 z" id="boundary" inkscape:connector-curvature="0" />
	<path style="fill:none;stroke:red;stroke-width:1px;stroke-linecap:butt;stroke-linejoin:miter;stroke-opacity:1" d="M 119.349,942.171 119.349,922.946 z" id="boundary" inkscape:connector-curvature="0" />
	<path style="fill:none;stroke:red;stroke-width:1px;stroke-linecap:butt;stroke-linejoin:miter;stroke-opacity:1" d="M 198.171,909.488 198.171,928.713 z" id="boundary" inkscape:connector-curvature="0" />
	<path style="fill:none;stroke:red;stroke-width:1px;stroke-linecap:butt;stroke-linejoin:miter;stroke-opacity:1" d="M 198.171,909.488 198.171,890.264 z" id="boundary" inkscape:connector-curvature="0" />
	<path style="fill:none;stroke:red;stroke-width:1px;stroke-linecap:butt;stroke-linejoin:miter;stroke-opacity:1" d="M 207.783,946.016 198.171,928.713 z" id="boundary" inkscape:connector-curvature="0" />
	<path style="fill:none;stroke:red;stroke-width:1px;stroke-linecap:butt;stroke-linejoin:miter;stroke-opacity:1" d="M 155.876,986.388 138.574,976.775 z" id="boundary" inkscape:connector-curvature="0" />
	<path style="fill:none;stroke:red;stroke-width:1px;stroke-linecap:butt;stroke-linejoin:miter;stroke-opacity:1" d="M 138.574,976.775 128.961,959.473 z" id="boundary" inkscape:connector-curvature="0" />
	<path style="fill:none;stroke:red;stroke-width:1px;stroke-linecap:butt;stroke-linejoin:miter;stroke-opacity:1" d="M 173.178,996 192.403,994.078 z" id="boundary" inkscape:connector-curvature="0" />
	<path style="fill:none;stroke:red;stroke-width:1px;stroke-linecap:butt;stroke-linejoin:miter;stroke-opacity:1" d="M 207.783,965.24 192.403,994.078 z" id="boundary" inkscape:connector-curvature="0" />
	<path style="fill:none;stroke:red;stroke-width:1px;stroke-linecap:butt;stroke-linejoin:miter;stroke-opacity:1" d="M 173.178,996 155.876,986.388 z" id="boundary" inkscape:connector-curvature="0" />
	<path style="fill:none;stroke:red;stroke-width:1px;stroke-linecap:butt;stroke-linejoin:miter;stroke-opacity:1" d="M 207.783,861.426 198.171,890.264 z" id="boundary" inkscape:connector-curvature="0" />
	<path style="fill:none;stroke:red;stroke-width:1px;stroke-linecap:butt;stroke-linejoin:miter;stroke-opacity:1" d="M 263.535,586.512 253.922,615.349 z" id="boundary" inkscape:connector-curvature="0" />
	<path style="fill:none;stroke:red;stroke-width:1px;stroke-linecap:butt;stroke-linejoin:miter;stroke-opacity:1" d="M 253.922,615.349 244.31,634.574 z" id="boundary" inkscape:connector-curvature="0" />
	<path style="fill:none;stroke:red;stroke-width:1px;stroke-linecap:butt;stroke-linejoin:miter;stroke-opacity:1" d="M 221.24,676.868 230.853,657.643 z" id="boundary" inkscape:connector-curvature="0" />
	<path style="fill:none;stroke:red;stroke-width:1px;stroke-linecap:butt;stroke-linejoin:miter;stroke-opacity:1" d="M 221.24,676.868 205.86,692.248 z" id="boundary" inkscape:connector-curvature="0" />
	<path style="fill:none;stroke:red;stroke-width:1px;stroke-linecap:butt;stroke-linejoin:miter;stroke-opacity:1" d="M 244.31,634.574 230.853,657.643 z" id="boundary" inkscape:connector-curvature="0" />
	<path style="fill:none;stroke:red;stroke-width:1px;stroke-linecap:butt;stroke-linejoin:miter;stroke-opacity:1" d="M 273.147,478.853 282.76,496.155 z" id="boundary" inkscape:connector-curvature="0" />
	<path style="fill:none;stroke:red;stroke-width:1px;stroke-linecap:butt;stroke-linejoin:miter;stroke-opacity:1" d="M 282.76,496.155 282.76,515.38 z" id="boundary" inkscape:connector-curvature="0" />
	<path style="fill:none;stroke:red;stroke-width:1px;stroke-linecap:butt;stroke-linejoin:miter;stroke-opacity:1" d="M 273.147,478.853 273.147,459.628 z" id="boundary" inkscape:connector-curvature="0" />
	<path style="fill:none;stroke:red;stroke-width:1px;stroke-linecap:butt;stroke-linejoin:miter;stroke-opacity:1" d="M 282.76,534.605 282.76,515.38 z" id="boundary" inkscape:connector-curvature="0" />
	<path style="fill:none;stroke:red;stroke-width:1px;stroke-linecap:butt;stroke-linejoin:miter;stroke-opacity:1" d="M 273.147,567.287 282.76,534.605 z" id="boundary" inkscape:connector-curvature="0" />
	<path style="fill:none;stroke:red;stroke-width:1px;stroke-linecap:butt;stroke-linejoin:miter;stroke-opacity:1" d="M 357.736,674.946 376.961,669.178 z" id="boundary" inkscape:connector-curvature="0" />
	<path style="fill:none;stroke:red;stroke-width:1px;stroke-linecap:butt;stroke-linejoin:miter;stroke-opacity:1" d="M 376.961,669.178 394.264,678.791 z" id="boundary" inkscape:connector-curvature="0" />
	<path style="fill:none;stroke:red;stroke-width:1px;stroke-linecap:butt;stroke-linejoin:miter;stroke-opacity:1" d="M 263.535,586.512 273.147,567.287 z" id="boundary" inkscape:connector-curvature="0" />
	<path style="fill:none;stroke:red;stroke-width:1px;stroke-linecap:butt;stroke-linejoin:miter;stroke-opacity:1" d="M 357.736,674.946 342.357,688.403 z" id="boundary" inkscape:connector-curvature="0" />
	<path style="fill:none;stroke:red;stroke-width:1px;stroke-linecap:butt;stroke-linejoin:miter;stroke-opacity:1" d="M 252,809.519 236.62,822.977 z" id="boundary" inkscape:connector-curvature="0" />
	<path style="fill:none;stroke:red;stroke-width:1px;stroke-linecap:butt;stroke-linejoin:miter;stroke-opacity:1" d="M 265.457,784.527 252,809.519 z" id="boundary" inkscape:connector-curvature="0" />
	<path style="fill:none;stroke:red;stroke-width:1px;stroke-linecap:butt;stroke-linejoin:miter;stroke-opacity:1" d="M 223.163,847.969 236.62,822.977 z" id="boundary" inkscape:connector-curvature="0" />
	<path style="fill:none;stroke:red;stroke-width:1px;stroke-linecap:butt;stroke-linejoin:miter;stroke-opacity:1" d="M 207.783,965.24 207.783,946.016 z" id="boundary" inkscape:connector-curvature="0" />
	<path style="fill:none;stroke:red;stroke-width:1px;stroke-linecap:butt;stroke-linejoin:miter;stroke-opacity:1" d="M 265.457,784.527 280.837,771.07 z" id="boundary" inkscape:connector-curvature="0" />
	<path style="fill:none;stroke:red;stroke-width:1px;stroke-linecap:butt;stroke-linejoin:miter;stroke-opacity:1" d="M 328.899,703.783 342.357,688.403 z" id="boundary" inkscape:connector-curvature="0" />
	<path style="fill:none;stroke:red;stroke-width:1px;stroke-linecap:butt;stroke-linejoin:miter;stroke-opacity:1" d="M 319.287,723.008 328.899,703.783 z" id="boundary" inkscape:connector-curvature="0" />
	<path style="fill:none;stroke:red;stroke-width:1px;stroke-linecap:butt;stroke-linejoin:miter;stroke-opacity:1" d="M 280.837,771.07 294.295,755.69 z" id="boundary" inkscape:connector-curvature="0" />
	<path style="fill:none;stroke:red;stroke-width:1px;stroke-linecap:butt;stroke-linejoin:miter;stroke-opacity:1" d="M 303.907,736.465 319.287,723.008 z" id="boundary" inkscape:connector-curvature="0" />
	<path style="fill:none;stroke:red;stroke-width:1px;stroke-linecap:butt;stroke-linejoin:miter;stroke-opacity:1" d="M 294.295,755.69 303.907,736.465 z" id="boundary" inkscape:connector-curvature="0" />
	<path style="fill:none;stroke:red;stroke-width:1px;stroke-linecap:butt;stroke-linejoin:miter;stroke-opacity:1" d="M 394.264,678.791 409.643,692.248 z" id="boundary" inkscape:connector-curvature="0" />
	<path style="fill:none;stroke:red;stroke-width:1px;stroke-linecap:butt;stroke-linejoin:miter;stroke-opacity:1" d="M 434.636,53.9845 419.256,40.5271 z" id="boundary" inkscape:connector-curvature="0" />
	<path style="fill:none;stroke:red;stroke-width:1px;stroke-linecap:butt;stroke-linejoin:miter;stroke-opacity:1" d="M 419.256,40.5271 409.643,23.2248 z" id="boundary" inkscape:connector-curvature="0" />
	<path style="fill:none;stroke:red;stroke-width:1px;stroke-linecap:butt;stroke-linejoin:miter;stroke-opacity:1" d="M 434.636,53.9845 438.481,73.2093 z" id="boundary" inkscape:connector-curvature="0" />
	<path style="fill:none;stroke:red;stroke-width:1px;stroke-linecap:butt;stroke-linejoin:miter;stroke-opacity:1" d="M 448.093,109.736 438.481,130.884 z" id="boundary" inkscape:connector-curvature="0" />
	<path style="fill:none;stroke:red;stroke-width:1px;stroke-linecap:butt;stroke-linejoin:miter;stroke-opacity:1" d="M 438.481,150.109 438.481,130.884 z" id="boundary" inkscape:connector-curvature="0" />
	<path style="fill:none;stroke:red;stroke-width:1px;stroke-linecap:butt;stroke-linejoin:miter;stroke-opacity:1" d="M 448.093,167.411 438.481,150.109 z" id="boundary" inkscape:connector-curvature="0" />
	<path style="fill:none;stroke:red;stroke-width:1px;stroke-linecap:butt;stroke-linejoin:miter;stroke-opacity:1" d="M 448.093,90.5116 438.481,73.2093 z" id="boundary" inkscape:connector-curvature="0" />
	<path style="fill:none;stroke:red;stroke-width:1px;stroke-linecap:butt;stroke-linejoin:miter;stroke-opacity:1" d="M 448.093,90.5116 448.093,109.736 z" id="boundary" inkscape:connector-curvature="0" />
	<path style="fill:none;stroke:red;stroke-width:1px;stroke-linecap:butt;stroke-linejoin:miter;stroke-opacity:1" d="M 505.767,186.636 486.543,186.636 z" id="boundary" inkscape:connector-curvature="0" />
	<path style="fill:none;stroke:red;stroke-width:1px;stroke-linecap:butt;stroke-linejoin:miter;stroke-opacity:1" d="M 448.093,186.636 467.318,186.636 z" id="boundary" inkscape:connector-curvature="0" />
	<path style="fill:none;stroke:red;stroke-width:1px;stroke-linecap:butt;stroke-linejoin:miter;stroke-opacity:1" d="M 448.093,186.636 448.093,167.411 z" id="boundary" inkscape:connector-curvature="0" />
	<path style="fill:none;stroke:red;stroke-width:1px;stroke-linecap:butt;stroke-linejoin:miter;stroke-opacity:1" d="M 486.543,186.636 467.318,186.636 z" id="boundary" inkscape:connector-curvature="0" />
	<path style="fill:none;stroke:red;stroke-width:1px;stroke-linecap:butt;stroke-linejoin:miter;stroke-opacity:1" d="M 496.155,313.519 496.155,294.295 z" id="boundary" inkscape:connector-curvature="0" />
	<path style="fill:none;stroke:red;stroke-width:1px;stroke-linecap:butt;stroke-linejoin:miter;stroke-opacity:1" d="M 496.155,294.295 515.38,284.682 z" id="boundary" inkscape:connector-curvature="0" />
	<path style="fill:none;stroke:red;stroke-width:1px;stroke-linecap:butt;stroke-linejoin:miter;stroke-opacity:1" d="M 496.155,332.744 496.155,313.519 z" id="boundary" inkscape:connector-curvature="0" />
	<path style="fill:none;stroke:red;stroke-width:1px;stroke-linecap:butt;stroke-linejoin:miter;stroke-opacity:1" d="M 496.155,332.744 486.543,361.581 z" id="boundary" inkscape:connector-curvature="0" />
	<path style="fill:none;stroke:red;stroke-width:1px;stroke-linecap:butt;stroke-linejoin:miter;stroke-opacity:1" d="M 486.543,361.581 486.543,380.806 z" id="boundary" inkscape:connector-curvature="0" />
	<path style="fill:none;stroke:red;stroke-width:1px;stroke-linecap:butt;stroke-linejoin:miter;stroke-opacity:1" d="M 486.543,380.806 476.93,409.643 z" id="boundary" inkscape:connector-curvature="0" />
	<path style="fill:none;stroke:red;stroke-width:1px;stroke-linecap:butt;stroke-linejoin:miter;stroke-opacity:1" d="M 476.93,428.868 476.93,409.643 z" id="boundary" inkscape:connector-curvature="0" />
	<path style="fill:none;stroke:red;stroke-width:1px;stroke-linecap:butt;stroke-linejoin:miter;stroke-opacity:1" d="M 505.767,186.636 524.992,186.636 z" id="boundary" inkscape:connector-curvature="0" />
	<path style="fill:none;stroke:red;stroke-width:1px;stroke-linecap:butt;stroke-linejoin:miter;stroke-opacity:1" d="M 524.992,186.636 542.295,196.248 z" id="boundary" inkscape:connector-curvature="0" />
	<path style="fill:none;stroke:red;stroke-width:1px;stroke-linecap:butt;stroke-linejoin:miter;stroke-opacity:1" d="M 534.605,288.527 551.907,298.14 z" id="boundary" inkscape:connector-curvature="0" />
	<path style="fill:none;stroke:red;stroke-width:1px;stroke-linecap:butt;stroke-linejoin:miter;stroke-opacity:1" d="M 534.605,288.527 515.38,284.682 z" id="boundary" inkscape:connector-curvature="0" />
	<path style="fill:none;stroke:red;stroke-width:1px;stroke-linecap:butt;stroke-linejoin:miter;stroke-opacity:1" d="M 557.674,207.783 573.054,221.24 z" id="boundary" inkscape:connector-curvature="0" />
	<path style="fill:none;stroke:red;stroke-width:1px;stroke-linecap:butt;stroke-linejoin:miter;stroke-opacity:1" d="M 542.295,196.248 557.674,207.783 z" id="boundary" inkscape:connector-curvature="0" />
	<path style="fill:none;stroke:red;stroke-width:1px;stroke-linecap:butt;stroke-linejoin:miter;stroke-opacity:1" d="M 551.907,298.14 567.287,311.597 z" id="boundary" inkscape:connector-curvature="0" />
	<path style="fill:none;stroke:red;stroke-width:1px;stroke-linecap:butt;stroke-linejoin:miter;stroke-opacity:1" d="M 601.891,250.078 586.512,236.62 z" id="boundary" inkscape:connector-curvature="0" />
	<path style="fill:none;stroke:red;stroke-width:1px;stroke-linecap:butt;stroke-linejoin:miter;stroke-opacity:1" d="M 586.512,236.62 573.054,221.24 z" id="boundary" inkscape:connector-curvature="0" />
	<path style="fill:none;stroke:red;stroke-width:1px;stroke-linecap:butt;stroke-linejoin:miter;stroke-opacity:1" d="M 580.744,326.977 590.357,344.279 z" id="boundary" inkscape:connector-curvature="0" />
	<path style="fill:none;stroke:red;stroke-width:1px;stroke-linecap:butt;stroke-linejoin:miter;stroke-opacity:1" d="M 580.744,326.977 567.287,311.597 z" id="boundary" inkscape:connector-curvature="0" />
	<path style="fill:none;stroke:red;stroke-width:1px;stroke-linecap:butt;stroke-linejoin:miter;stroke-opacity:1" d="M 601.891,250.078 615.349,265.457 z" id="boundary" inkscape:connector-curvature="0" />
	<path style="fill:none;stroke:red;stroke-width:1px;stroke-linecap:butt;stroke-linejoin:miter;stroke-opacity:1" d="M 630.729,278.915 638.419,298.14 z" id="boundary" inkscape:connector-curvature="0" />
	<path style="fill:none;stroke:red;stroke-width:1px;stroke-linecap:butt;stroke-linejoin:miter;stroke-opacity:1" d="M 630.729,278.915 615.349,265.457 z" id="boundary" inkscape:connector-curvature="0" />
	<path style="fill:none;stroke:red;stroke-width:1px;stroke-linecap:butt;stroke-linejoin:miter;stroke-opacity:1" d="M 648.031,315.442 638.419,298.14 z" id="boundary" inkscape:connector-curvature="0" />
	<path style="fill:none;stroke:red;stroke-width:1px;stroke-linecap:butt;stroke-linejoin:miter;stroke-opacity:1" d="M 648.031,315.442 659.566,330.822 z" id="boundary" inkscape:connector-curvature="0" />
	<path style="fill:none;stroke:red;stroke-width:1px;stroke-linecap:butt;stroke-linejoin:miter;stroke-opacity:1" d="M 707.628,350.047 688.403,350.047 z" id="boundary" inkscape:connector-curvature="0" />
	<path style="fill:none;stroke:red;stroke-width:1px;stroke-linecap:butt;stroke-linejoin:miter;stroke-opacity:1" d="M 659.566,330.822 669.178,348.124 z" id="boundary" inkscape:connector-curvature="0" />
	<path style="fill:none;stroke:red;stroke-width:1px;stroke-linecap:butt;stroke-linejoin:miter;stroke-opacity:1" d="M 688.403,350.047 669.178,348.124 z" id="boundary" inkscape:connector-curvature="0" />
	<path style="fill:none;stroke:red;stroke-width:1px;stroke-linecap:butt;stroke-linejoin:miter;stroke-opacity:1" d="M 603.814,359.659 590.357,344.279 z" id="boundary" inkscape:connector-curvature="0" />
	<path style="fill:none;stroke:red;stroke-width:1px;stroke-linecap:butt;stroke-linejoin:miter;stroke-opacity:1" d="M 603.814,359.659 619.194,371.194 z" id="boundary" inkscape:connector-curvature="0" />
	<path style="fill:none;stroke:red;stroke-width:1px;stroke-linecap:butt;stroke-linejoin:miter;stroke-opacity:1" d="M 619.194,371.194 630.729,386.574 z" id="boundary" inkscape:connector-curvature="0" />
	<path style="fill:none;stroke:red;stroke-width:1px;stroke-linecap:butt;stroke-linejoin:miter;stroke-opacity:1" d="M 649.953,394.264 630.729,386.574 z" id="boundary" inkscape:connector-curvature="0" />
	<path style="fill:none;stroke:red;stroke-width:1px;stroke-linecap:butt;stroke-linejoin:miter;stroke-opacity:1" d="M 649.953,394.264 669.178,400.031 z" id="boundary" inkscape:connector-curvature="0" />
	<path style="fill:none;stroke:red;stroke-width:1px;stroke-linecap:butt;stroke-linejoin:miter;stroke-opacity:1" d="M 669.178,400.031 686.481,409.643 z" id="boundary" inkscape:connector-curvature="0" />
	<path style="fill:none;stroke:red;stroke-width:1px;stroke-linecap:butt;stroke-linejoin:miter;stroke-opacity:1" d="M 705.705,403.876 686.481,409.643 z" id="boundary" inkscape:connector-curvature="0" />
	<path style="fill:none;stroke:red;stroke-width:1px;stroke-linecap:butt;stroke-linejoin:miter;stroke-opacity:1" d="M 707.628,350.047 726.853,350.047 z" id="boundary" inkscape:connector-curvature="0" />
	<path style="fill:none;stroke:red;stroke-width:1px;stroke-linecap:butt;stroke-linejoin:miter;stroke-opacity:1" d="M 746.078,355.814 726.853,350.047 z" id="boundary" inkscape:connector-curvature="0" />
	<path style="fill:none;stroke:red;stroke-width:1px;stroke-linecap:butt;stroke-linejoin:miter;stroke-opacity:1" d="M 705.705,403.876 724.93,394.264 z" id="boundary" inkscape:connector-curvature="0" />
	<path style="fill:none;stroke:red;stroke-width:1px;stroke-linecap:butt;stroke-linejoin:miter;stroke-opacity:1" d="M 724.93,394.264 744.155,390.419 z" id="boundary" inkscape:connector-curvature="0" />
	<path style="fill:none;stroke:red;stroke-width:1px;stroke-linecap:butt;stroke-linejoin:miter;stroke-opacity:1" d="M 744.155,390.419 759.535,371.194 z" id="boundary" inkscape:connector-curvature="0" />
	<path style="fill:none;stroke:red;stroke-width:1px;stroke-linecap:butt;stroke-linejoin:miter;stroke-opacity:1" d="M 746.078,355.814 759.535,371.194 z" id="boundary" inkscape:connector-curvature="0" />
	<path style="fill:none;stroke:red;stroke-width:1px;stroke-linecap:butt;stroke-linejoin:miter;stroke-opacity:1" d="M 467.318,457.705 467.318,476.93 z" id="boundary" inkscape:connector-curvature="0" />
	<path style="fill:none;stroke:red;stroke-width:1px;stroke-linecap:butt;stroke-linejoin:miter;stroke-opacity:1" d="M 467.318,476.93 457.705,496.155 z" id="boundary" inkscape:connector-curvature="0" />
	<path style="fill:none;stroke:red;stroke-width:1px;stroke-linecap:butt;stroke-linejoin:miter;stroke-opacity:1" d="M 467.318,457.705 476.93,428.868 z" id="boundary" inkscape:connector-curvature="0" />
	<path style="fill:none;stroke:red;stroke-width:1px;stroke-linecap:butt;stroke-linejoin:miter;stroke-opacity:1" d="M 457.705,515.38 457.705,496.155 z" id="boundary" inkscape:connector-curvature="0" />
	<path style="fill:none;stroke:red;stroke-width:1px;stroke-linecap:butt;stroke-linejoin:miter;stroke-opacity:1" d="M 461.55,553.829 457.705,534.605 z" id="boundary" inkscape:connector-curvature="0" />
	<path style="fill:none;stroke:red;stroke-width:1px;stroke-linecap:butt;stroke-linejoin:miter;stroke-opacity:1" d="M 457.705,534.605 457.705,515.38 z" id="boundary" inkscape:connector-curvature="0" />
	<path style="fill:none;stroke:red;stroke-width:1px;stroke-linecap:butt;stroke-linejoin:miter;stroke-opacity:1" d="M 461.55,553.829 467.318,573.054 z" id="boundary" inkscape:connector-curvature="0" />
	<path style="fill:none;stroke:red;stroke-width:1px;stroke-linecap:butt;stroke-linejoin:miter;stroke-opacity:1" d="M 476.93,590.357 467.318,573.054 z" id="boundary" inkscape:connector-curvature="0" />
	<path style="fill:none;stroke:red;stroke-width:1px;stroke-linecap:butt;stroke-linejoin:miter;stroke-opacity:1" d="M 476.93,590.357 476.93,609.581 z" id="boundary" inkscape:connector-curvature="0" />
	<path style="fill:none;stroke:red;stroke-width:1px;stroke-linecap:butt;stroke-linejoin:miter;stroke-opacity:1" d="M 486.543,626.884 476.93,609.581 z" id="boundary" inkscape:connector-curvature="0" />
	<path style="fill:none;stroke:red;stroke-width:1px;stroke-linecap:butt;stroke-linejoin:miter;stroke-opacity:1" d="M 501.922,640.341 509.612,659.566 z" id="boundary" inkscape:connector-curvature="0" />
	<path style="fill:none;stroke:red;stroke-width:1px;stroke-linecap:butt;stroke-linejoin:miter;stroke-opacity:1" d="M 486.543,626.884 501.922,640.341 z" id="boundary" inkscape:connector-curvature="0" />
	<path style="fill:none;stroke:red;stroke-width:1px;stroke-linecap:butt;stroke-linejoin:miter;stroke-opacity:1" d="M 524.992,673.023 509.612,659.566 z" id="boundary" inkscape:connector-curvature="0" />
	<path style="fill:none;stroke:red;stroke-width:1px;stroke-linecap:butt;stroke-linejoin:miter;stroke-opacity:1" d="M 432.713,724.93 417.333,711.473 z" id="boundary" inkscape:connector-curvature="0" />
	<path style="fill:none;stroke:red;stroke-width:1px;stroke-linecap:butt;stroke-linejoin:miter;stroke-opacity:1" d="M 417.333,711.473 409.643,692.248 z" id="boundary" inkscape:connector-curvature="0" />
	<path style="fill:none;stroke:red;stroke-width:1px;stroke-linecap:butt;stroke-linejoin:miter;stroke-opacity:1" d="M 446.171,740.31 432.713,724.93 z" id="boundary" inkscape:connector-curvature="0" />
	<path style="fill:none;stroke:red;stroke-width:1px;stroke-linecap:butt;stroke-linejoin:miter;stroke-opacity:1" d="M 469.24,772.992 455.783,757.612 z" id="boundary" inkscape:connector-curvature="0" />
	<path style="fill:none;stroke:red;stroke-width:1px;stroke-linecap:butt;stroke-linejoin:miter;stroke-opacity:1" d="M 455.783,757.612 446.171,740.31 z" id="boundary" inkscape:connector-curvature="0" />
	<path style="fill:none;stroke:red;stroke-width:1px;stroke-linecap:butt;stroke-linejoin:miter;stroke-opacity:1" d="M 484.62,784.527 469.24,772.992 z" id="boundary" inkscape:connector-curvature="0" />
	<path style="fill:none;stroke:red;stroke-width:1px;stroke-linecap:butt;stroke-linejoin:miter;stroke-opacity:1" d="M 548.062,705.705 532.682,692.248 z" id="boundary" inkscape:connector-curvature="0" />
	<path style="fill:none;stroke:red;stroke-width:1px;stroke-linecap:butt;stroke-linejoin:miter;stroke-opacity:1" d="M 532.682,692.248 524.992,673.023 z" id="boundary" inkscape:connector-curvature="0" />
	<path style="fill:none;stroke:red;stroke-width:1px;stroke-linecap:butt;stroke-linejoin:miter;stroke-opacity:1" d="M 496.155,799.907 484.62,784.527 z" id="boundary" inkscape:connector-curvature="0" />
	<path style="fill:none;stroke:red;stroke-width:1px;stroke-linecap:butt;stroke-linejoin:miter;stroke-opacity:1" d="M 496.155,799.907 505.767,817.209 z" id="boundary" inkscape:connector-curvature="0" />
	<path style="fill:none;stroke:red;stroke-width:1px;stroke-linecap:butt;stroke-linejoin:miter;stroke-opacity:1" d="M 519.225,832.589 534.605,846.047 z" id="boundary" inkscape:connector-curvature="0" />
	<path style="fill:none;stroke:red;stroke-width:1px;stroke-linecap:butt;stroke-linejoin:miter;stroke-opacity:1" d="M 534.605,846.047 542.295,865.271 z" id="boundary" inkscape:connector-curvature="0" />
	<path style="fill:none;stroke:red;stroke-width:1px;stroke-linecap:butt;stroke-linejoin:miter;stroke-opacity:1" d="M 519.225,832.589 505.767,817.209 z" id="boundary" inkscape:connector-curvature="0" />
	<path style="fill:none;stroke:red;stroke-width:1px;stroke-linecap:butt;stroke-linejoin:miter;stroke-opacity:1" d="M 569.209,736.465 553.829,724.93 z" id="boundary" inkscape:connector-curvature="0" />
	<path style="fill:none;stroke:red;stroke-width:1px;stroke-linecap:butt;stroke-linejoin:miter;stroke-opacity:1" d="M 553.829,724.93 548.062,705.705 z" id="boundary" inkscape:connector-curvature="0" />
	<path style="fill:none;stroke:red;stroke-width:1px;stroke-linecap:butt;stroke-linejoin:miter;stroke-opacity:1" d="M 569.209,736.465 576.899,755.69 z" id="boundary" inkscape:connector-curvature="0" />
	<path style="fill:none;stroke:red;stroke-width:1px;stroke-linecap:butt;stroke-linejoin:miter;stroke-opacity:1" d="M 557.674,878.729 542.295,865.271 z" id="boundary" inkscape:connector-curvature="0" />
	<path style="fill:none;stroke:red;stroke-width:1px;stroke-linecap:butt;stroke-linejoin:miter;stroke-opacity:1" d="M 576.899,755.69 592.279,769.147 z" id="boundary" inkscape:connector-curvature="0" />
	<path style="fill:none;stroke:red;stroke-width:1px;stroke-linecap:butt;stroke-linejoin:miter;stroke-opacity:1" d="M 601.891,786.45 611.504,803.752 z" id="boundary" inkscape:connector-curvature="0" />
	<path style="fill:none;stroke:red;stroke-width:1px;stroke-linecap:butt;stroke-linejoin:miter;stroke-opacity:1" d="M 592.279,769.147 601.891,786.45 z" id="boundary" inkscape:connector-curvature="0" />
	<path style="fill:none;stroke:red;stroke-width:1px;stroke-linecap:butt;stroke-linejoin:miter;stroke-opacity:1" d="M 611.504,803.752 621.116,821.054 z" id="boundary" inkscape:connector-curvature="0" />
	<path style="fill:none;stroke:red;stroke-width:1px;stroke-linecap:butt;stroke-linejoin:miter;stroke-opacity:1" d="M 621.116,821.054 630.729,838.357 z" id="boundary" inkscape:connector-curvature="0" />
	<path style="fill:none;stroke:red;stroke-width:1px;stroke-linecap:butt;stroke-linejoin:miter;stroke-opacity:1" d="M 646.109,851.814 630.729,838.357 z" id="boundary" inkscape:connector-curvature="0" />
	<path style="fill:none;stroke:red;stroke-width:1px;stroke-linecap:butt;stroke-linejoin:miter;stroke-opacity:1" d="M 653.798,871.039 646.109,851.814 z" id="boundary" inkscape:connector-curvature="0" />
	<path style="fill:none;stroke:red;stroke-width:1px;stroke-linecap:butt;stroke-linejoin:miter;stroke-opacity:1" d="M 571.132,894.109 557.674,878.729 z" id="boundary" inkscape:connector-curvature="0" />
	<path style="fill:none;stroke:red;stroke-width:1px;stroke-linecap:butt;stroke-linejoin:miter;stroke-opacity:1" d="M 599.969,919.101 580.744,911.411 z" id="boundary" inkscape:connector-curvature="0" />
	<path style="fill:none;stroke:red;stroke-width:1px;stroke-linecap:butt;stroke-linejoin:miter;stroke-opacity:1" d="M 580.744,911.411 571.132,894.109 z" id="boundary" inkscape:connector-curvature="0" />
	<path style="fill:none;stroke:red;stroke-width:1px;stroke-linecap:butt;stroke-linejoin:miter;stroke-opacity:1" d="M 599.969,919.101 605.736,938.326 z" id="boundary" inkscape:connector-curvature="0" />
	<path style="fill:none;stroke:red;stroke-width:1px;stroke-linecap:butt;stroke-linejoin:miter;stroke-opacity:1" d="M 605.736,938.326 623.039,947.938 z" id="boundary" inkscape:connector-curvature="0" />
	<path style="fill:none;stroke:red;stroke-width:1px;stroke-linecap:butt;stroke-linejoin:miter;stroke-opacity:1" d="M 638.419,959.473 623.039,947.938 z" id="boundary" inkscape:connector-curvature="0" />
	<path style="fill:none;stroke:red;stroke-width:1px;stroke-linecap:butt;stroke-linejoin:miter;stroke-opacity:1" d="M 638.419,959.473 651.876,974.853 z" id="boundary" inkscape:connector-curvature="0" />
	<path style="fill:none;stroke:red;stroke-width:1px;stroke-linecap:butt;stroke-linejoin:miter;stroke-opacity:1" d="M 663.411,888.341 676.868,903.721 z" id="boundary" inkscape:connector-curvature="0" />
	<path style="fill:none;stroke:red;stroke-width:1px;stroke-linecap:butt;stroke-linejoin:miter;stroke-opacity:1" d="M 676.868,903.721 678.791,922.946 z" id="boundary" inkscape:connector-curvature="0" />
	<path style="fill:none;stroke:red;stroke-width:1px;stroke-linecap:butt;stroke-linejoin:miter;stroke-opacity:1" d="M 663.411,888.341 653.798,871.039 z" id="boundary" inkscape:connector-curvature="0" />
	<path style="fill:none;stroke:red;stroke-width:1px;stroke-linecap:butt;stroke-linejoin:miter;stroke-opacity:1" d="M 688.403,940.248 678.791,922.946 z" id="boundary" inkscape:connector-curvature="0" />
	<path style="fill:none;stroke:red;stroke-width:1px;stroke-linecap:butt;stroke-linejoin:miter;stroke-opacity:1" d="M 651.876,974.853 671.101,976.775 z" id="boundary" inkscape:connector-curvature="0" />
	<path style="fill:none;stroke:red;stroke-width:1px;stroke-linecap:butt;stroke-linejoin:miter;stroke-opacity:1" d="M 688.403,959.473 671.101,976.775 z" id="boundary" inkscape:connector-curvature="0" />
	<path style="fill:none;stroke:red;stroke-width:1px;stroke-linecap:butt;stroke-linejoin:miter;stroke-opacity:1" d="M 688.403,959.473 688.403,940.248 z" id="boundary" inkscape:connector-curvature="0" />
	<path style="fill:none;stroke:red;stroke-width:1px;stroke-linecap:butt;stroke-linejoin:miter;stroke-opacity:1" d="M 392.341,13.6124 409.643,23.2248 z" id="boundary" inkscape:connector-curvature="0" />
	<circle cx="4" cy="413.488" r="4" fill="#0" id="circle0"/>
	<circle cx="4" cy="432.713" r="4" fill="#0" id="circle1"/>
	<circle cx="13.6124" cy="394.264" r="4" fill="#0" id="circle2"/>
	<circle cx="13.6124" cy="450.016" r="4" fill="#0" id="circle3"/>
	<circle cx="28.9922" cy="378.884" r="4" fill="#0" id="circle4"/>
	<circle cx="32.8372" cy="451.938" r="4" fill="#0" id="circle5"/>
	<circle cx="38.6047" cy="359.659" r="4" fill="#0" id="circle6"/>
	<circle cx="48.2171" cy="436.558" r="4" fill="#0" id="circle7"/>
	<circle cx="53.9845" cy="344.279" r="4" fill="#0" id="circle8"/>
	<circle cx="63.5969" cy="325.054" r="4" fill="#0" id="circle9"/>
	<circle cx="63.5969" cy="419.256" r="4" fill="#0" id="circle10"/>
	<circle cx="78.9767" cy="311.597" r="4" fill="#0" id="circle11"/>
	<circle cx="80.8992" cy="409.643" r="4" fill="#0" id="circle12"/>
	<circle cx="86.6667" cy="292.372" r="4" fill="#0" id="circle13"/>
	<circle cx="96.2791" cy="398.109" r="4" fill="#0" id="circle14"/>
	<circle cx="102.047" cy="276.992" r="4" fill="#0" id="circle15"/>
	<circle cx="111.659" cy="257.767" r="4" fill="#0" id="circle16"/>
	<circle cx="111.659" cy="380.806" r="4" fill="#0" id="circle17"/>
	<circle cx="119.349" cy="846.047" r="4" fill="#0" id="circle18"/>
	<circle cx="119.349" cy="865.271" r="4" fill="#0" id="circle19"/>
	<circle cx="119.349" cy="884.496" r="4" fill="#0" id="circle20"/>
	<circle cx="119.349" cy="903.721" r="4" fill="#0" id="circle21"/>
	<circle cx="119.349" cy="922.946" r="4" fill="#0" id="circle22"/>
	<circle cx="119.349" cy="942.171" r="4" fill="#0" id="circle23"/>
	<circle cx="121.271" cy="238.543" r="4" fill="#0" id="circle24"/>
	<circle cx="127.039" cy="367.349" r="4" fill="#0" id="circle25"/>
	<circle cx="128.961" cy="826.822" r="4" fill="#0" id="circle26"/>
	<circle cx="128.961" cy="959.473" r="4" fill="#0" id="circle27"/>
	<circle cx="136.651" cy="225.085" r="4" fill="#0" id="circle28"/>
	<circle cx="138.574" cy="807.597" r="4" fill="#0" id="circle29"/>
	<circle cx="138.574" cy="976.775" r="4" fill="#0" id="circle30"/>
	<circle cx="140.496" cy="351.969" r="4" fill="#0" id="circle31"/>
	<circle cx="148.186" cy="788.372" r="4" fill="#0" id="circle32"/>
	<circle cx="150.109" cy="332.744" r="4" fill="#0" id="circle33"/>
	<circle cx="153.953" cy="215.473" r="4" fill="#0" id="circle34"/>
	<circle cx="155.876" cy="986.388" r="4" fill="#0" id="circle35"/>
	<circle cx="157.798" cy="769.147" r="4" fill="#0" id="circle36"/>
	<circle cx="167.411" cy="323.132" r="4" fill="#0" id="circle37"/>
	<circle cx="169.333" cy="200.093" r="4" fill="#0" id="circle38"/>
	<circle cx="173.178" cy="753.767" r="4" fill="#0" id="circle39"/>
	<circle cx="173.178" cy="996" r="4" fill="#0" id="circle40"/>
	<circle cx="182.791" cy="311.597" r="4" fill="#0" id="circle41"/>
	<circle cx="182.791" cy="734.543" r="4" fill="#0" id="circle42"/>
	<circle cx="184.713" cy="186.636" r="4" fill="#0" id="circle43"/>
	<circle cx="192.403" cy="715.318" r="4" fill="#0" id="circle44"/>
	<circle cx="192.403" cy="994.078" r="4" fill="#0" id="circle45"/>
	<circle cx="198.171" cy="890.264" r="4" fill="#0" id="circle46"/>
	<circle cx="198.171" cy="909.488" r="4" fill="#0" id="circle47"/>
	<circle cx="198.171" cy="928.713" r="4" fill="#0" id="circle48"/>
	<circle cx="202.016" cy="303.907" r="4" fill="#0" id="circle49"/>
	<circle cx="203.938" cy="186.636" r="4" fill="#0" id="circle50"/>
	<circle cx="205.86" cy="692.248" r="4" fill="#0" id="circle51"/>
	<circle cx="207.783" cy="861.426" r="4" fill="#0" id="circle52"/>
	<circle cx="207.783" cy="946.016" r="4" fill="#0" id="circle53"/>
	<circle cx="207.783" cy="965.24" r="4" fill="#0" id="circle54"/>
	<circle cx="221.24" cy="177.023" r="4" fill="#0" id="circle55"/>
	<circle cx="221.24" cy="311.597" r="4" fill="#0" id="circle56"/>
	<circle cx="221.24" cy="676.868" r="4" fill="#0" id="circle57"/>
	<circle cx="223.163" cy="847.969" r="4" fill="#0" id="circle58"/>
	<circle cx="228.93" cy="330.822" r="4" fill="#0" id="circle59"/>
	<circle cx="230.853" cy="657.643" r="4" fill="#0" id="circle60"/>
	<circle cx="234.698" cy="350.047" r="4" fill="#0" id="circle61"/>
	<circle cx="236.62" cy="822.977" r="4" fill="#0" id="circle62"/>
	<circle cx="240.465" cy="177.023" r="4" fill="#0" id="circle63"/>
	<circle cx="244.31" cy="367.349" r="4" fill="#0" id="circle64"/>
	<circle cx="244.31" cy="634.574" r="4" fill="#0" id="circle65"/>
	<circle cx="246.233" cy="386.574" r="4" fill="#0" id="circle66"/>
	<circle cx="252" cy="809.519" r="4" fill="#0" id="circle67"/>
	<circle cx="253.922" cy="405.798" r="4" fill="#0" id="circle68"/>
	<circle cx="253.922" cy="615.349" r="4" fill="#0" id="circle69"/>
	<circle cx="259.69" cy="177.023" r="4" fill="#0" id="circle70"/>
	<circle cx="263.535" cy="423.101" r="4" fill="#0" id="circle71"/>
	<circle cx="263.535" cy="442.326" r="4" fill="#0" id="circle72"/>
	<circle cx="263.535" cy="586.512" r="4" fill="#0" id="circle73"/>
	<circle cx="265.457" cy="784.527" r="4" fill="#0" id="circle74"/>
	<circle cx="273.147" cy="459.628" r="4" fill="#0" id="circle75"/>
	<circle cx="273.147" cy="478.853" r="4" fill="#0" id="circle76"/>
	<circle cx="273.147" cy="567.287" r="4" fill="#0" id="circle77"/>
	<circle cx="278.915" cy="167.411" r="4" fill="#0" id="circle78"/>
	<circle cx="280.837" cy="771.07" r="4" fill="#0" id="circle79"/>
	<circle cx="282.76" cy="86.6667" r="4" fill="#0" id="circle80"/>
	<circle cx="282.76" cy="105.891" r="4" fill="#0" id="circle81"/>
	<circle cx="282.76" cy="496.155" r="4" fill="#0" id="circle82"/>
	<circle cx="282.76" cy="515.38" r="4" fill="#0" id="circle83"/>
	<circle cx="282.76" cy="534.605" r="4" fill="#0" id="circle84"/>
	<circle cx="292.372" cy="57.8295" r="4" fill="#0" id="circle85"/>
	<circle cx="292.372" cy="123.194" r="4" fill="#0" id="circle86"/>
	<circle cx="292.372" cy="142.419" r="4" fill="#0" id="circle87"/>
	<circle cx="294.295" cy="755.69" r="4" fill="#0" id="circle88"/>
	<circle cx="303.907" cy="736.465" r="4" fill="#0" id="circle89"/>
	<circle cx="307.752" cy="42.4496" r="4" fill="#0" id="circle90"/>
	<circle cx="319.287" cy="723.008" r="4" fill="#0" id="circle91"/>
	<circle cx="323.132" cy="27.0698" r="4" fill="#0" id="circle92"/>
	<circle cx="328.899" cy="703.783" r="4" fill="#0" id="circle93"/>
	<circle cx="338.512" cy="13.6124" r="4" fill="#0" id="circle94"/>
	<circle cx="342.357" cy="688.403" r="4" fill="#0" id="circle95"/>
	<circle cx="355.814" cy="4" r="4" fill="#0" id="circle96"/>
	<circle cx="357.736" cy="674.946" r="4" fill="#0" id="circle97"/>
	<circle cx="375.039" cy="4" r="4" fill="#0" id="circle98"/>
	<circle cx="376.961" cy="669.178" r="4" fill="#0" id="circle99"/>
	<circle cx="392.341" cy="13.6124" r="4" fill="#0" id="circle100"/>
	<circle cx="394.264" cy="678.791" r="4" fill="#0" id="circle101"/>
	<circle cx="409.643" cy="23.2248" r="4" fill="#0" id="circle102"/>
	<circle cx="409.643" cy="692.248" r="4" fill="#0" id="circle103"/>
	<circle cx="417.333" cy="711.473" r="4" fill="#0" id="circle104"/>
	<circle cx="419.256" cy="40.5271" r="4" fill="#0" id="circle105"/>
	<circle cx="432.713" cy="724.93" r="4" fill="#0" id="circle106"/>
	<circle cx="434.636" cy="53.9845" r="4" fill="#0" id="circle107"/>
	<circle cx="438.481" cy="73.2093" r="4" fill="#0" id="circle108"/>
	<circle cx="438.481" cy="130.884" r="4" fill="#0" id="circle109"/>
	<circle cx="438.481" cy="150.109" r="4" fill="#0" id="circle110"/>
	<circle cx="446.171" cy="740.31" r="4" fill="#0" id="circle111"/>
	<circle cx="448.093" cy="90.5116" r="4" fill="#0" id="circle112"/>
	<circle cx="448.093" cy="109.736" r="4" fill="#0" id="circle113"/>
	<circle cx="448.093" cy="167.411" r="4" fill="#0" id="circle114"/>
	<circle cx="448.093" cy="186.636" r="4" fill="#0" id="circle115"/>
	<circle cx="455.783" cy="757.612" r="4" fill="#0" id="circle116"/>
	<circle cx="457.705" cy="496.155" r="4" fill="#0" id="circle117"/>
	<circle cx="457.705" cy="515.38" r="4" fill="#0" id="circle118"/>
	<circle cx="457.705" cy="534.605" r="4" fill="#0" id="circle119"/>
	<circle cx="461.55" cy="553.829" r="4" fill="#0" id="circle120"/>
	<circle cx="467.318" cy="186.636" r="4" fill="#0" id="circle121"/>
	<circle cx="467.318" cy="457.705" r="4" fill="#0" id="circle122"/>
	<circle cx="467.318" cy="476.93" r="4" fill="#0" id="circle123"/>
	<circle cx="467.318" cy="573.054" r="4" fill="#0" id="circle124"/>
	<circle cx="469.24" cy="772.992" r="4" fill="#0" id="circle125"/>
	<circle cx="476.93" cy="409.643" r="4" fill="#0" id="circle126"/>
	<circle cx="476.93" cy="428.868" r="4" fill="#0" id="circle127"/>
	<circle cx="476.93" cy="590.357" r="4" fill="#0" id="circle128"/>
	<circle cx="476.93" cy="609.581" r="4" fill="#0" id="circle129"/>
	<circle cx="484.62" cy="784.527" r="4" fill="#0" id="circle130"/>
	<circle cx="486.543" cy="186.636" r="4" fill="#0" id="circle131"/>
	<circle cx="486.543" cy="361.581" r="4" fill="#0" id="circle132"/>
	<circle cx="486.543" cy="380.806" r="4" fill="#0" id="circle133"/>
	<circle cx="486.543" cy="626.884" r="4" fill="#0" id="circle134"/>
	<circle cx="496.155" cy="294.295" r="4" fill="#0" id="circle135"/>
	<circle cx="496.155" cy="313.519" r="4" fill="#0" id="circle136"/>
	<circle cx="496.155" cy="332.744" r="4" fill="#0" id="circle137"/>
	<circle cx="496.155" cy="799.907" r="4" fill="#0" id="circle138"/>
	<circle cx="501.922" cy="640.341" r="4" fill="#0" id="circle139"/>
	<circle cx="505.767" cy="186.636" r="4" fill="#0" id="circle140"/>
	<circle cx="505.767" cy="817.209" r="4" fill="#0" id="circle141"/>
	<circle cx="509.612" cy="659.566" r="4" fill="#0" id="circle142"/>
	<circle cx="515.38" cy="284.682" r="4" fill="#0" id="circle143"/>
	<circle cx="519.225" cy="832.589" r="4" fill="#0" id="circle144"/>
	<circle cx="524.992" cy="186.636" r="4" fill="#0" id="circle145"/>
	<circle cx="524.992" cy="673.023" r="4" fill="#0" id="circle146"/>
	<circle cx="532.682" cy="692.248" r="4" fill="#0" id="circle147"/>
	<circle cx="534.605" cy="288.527" r="4" fill="#0" id="circle148"/>
	<circle cx="534.605" cy="846.047" r="4" fill="#0" id="circle149"/>
	<circle cx="542.295" cy="196.248" r="4" fill="#0" id="circle150"/>
	<circle cx="542.295" cy="865.271" r="4" fill="#0" id="circle151"/>
	<circle cx="548.062" cy="705.705" r="4" fill="#0" id="circle152"/>
	<circle cx="551.907" cy="298.14" r="4" fill="#0" id="circle153"/>
	<circle cx="553.829" cy="724.93" r="4" fill="#0" id="circle154"/>
	<circle cx="557.674" cy="207.783" r="4" fill="#0" id="circle155"/>
	<circle cx="557.674" cy="878.729" r="4" fill="#0" id="circle156"/>
	<circle cx="567.287" cy="311.597" r="4" fill="#0" id="circle157"/>
	<circle cx="569.209" cy="736.465" r="4" fill="#0" id="circle158"/>
	<circle cx="571.132" cy="894.109" r="4" fill="#0" id="circle159"/>
	<circle cx="573.054" cy="221.24" r="4" fill="#0" id="circle160"/>
	<circle cx="576.899" cy="755.69" r="4" fill="#0" id="circle161"/>
	<circle cx="580.744" cy="326.977" r="4" fill="#0" id="circle162"/>
	<circle cx="580.744" cy="911.411" r="4" fill="#0" id="circle163"/>
	<circle cx="586.512" cy="236.62" r="4" fill="#0" id="circle164"/>
	<circle cx="590.357" cy="344.279" r="4" fill="#0" id="circle165"/>
	<circle cx="592.279" cy="769.147" r="4" fill="#0" id="circle166"/>
	<circle cx="599.969" cy="919.101" r="4" fill="#0" id="circle167"/>
	<circle cx="601.891" cy="250.078" r="4" fill="#0" id="circle168"/>
	<circle cx="601.891" cy="786.45" r="4" fill="#0" id="circle169"/>
	<circle cx="603.814" cy="359.659" r="4" fill="#0" id="circle170"/>
	<circle cx="605.736" cy="938.326" r="4" fill="#0" id="circle171"/>
	<circle cx="611.504" cy="803.752" r="4" fill="#0" id="circle172"/>
	<circle cx="615.349" cy="265.457" r="4" fill="#0" id="circle173"/>
	<circle cx="619.194" cy="371.194" r="4" fill="#0" id="circle174"/>
	<circle cx="621.116" cy="821.054" r="4" fill="#0" id="circle175"/>
	<circle cx="623.039" cy="947.938" r="4" fill="#0" id="circle176"/>
	<circle cx="630.729" cy="278.915" r="4" fill="#0" id="circle177"/>
	<circle cx="630.729" cy="386.574" r="4" fill="#0" id="circle178"/>
	<circle cx="630.729" cy="838.357" r="4" fill="#0" id="circle179"/>
	<circle cx="638.419" cy="298.14" r="4" fill="#0" id="circle180"/>
	<circle cx="638.419" cy="959.473" r="4" fill="#0" id="circle181"/>
	<circle cx="646.109" cy="851.814" r="4" fill="#0" id="circle182"/>
	<circle cx="648.031" cy="315.442" r="4" fill="#0" id="circle183"/>
	<circle cx="649.953" cy="394.264" r="4" fill="#0" id="circle184"/>
	<circle cx="651.876" cy="974.853" r="4" fill="#0" id="circle185"/>
	<circle cx="653.798" cy="871.039" r="4" fill="#0" id="circle186"/>
	<circle cx="659.566" cy="330.822" r="4" fill="#0" id="circle187"/>
	<circle cx="663.411" cy="888.341" r="4" fill="#0" id="circle188"/>
	<circle cx="669.178" cy="348.124" r="4" fill="#0" id="circle189"/>
	<circle cx="669.178" cy="400.031" r="4" fill="#0" id="circle190"/>
	<circle cx="671.101" cy="976.775" r="4" fill="#0" id="circle191"/>
	<circle cx="676.868" cy="903.721" r="4" fill="#0" id="circle192"/>
	<circle cx="678.791" cy="922.946" r="4" fill="#0" id="circle193"/>
	<circle cx="686.481" cy="409.643" r="4" fill="#0" id="circle194"/>
	<circle cx="688.403" cy="350.047" r="4" fill="#0" id="circle195"/>
	<circle cx="688.403" cy="940.248" r="4" fill="#0" id="circle196"/>
	<circle cx="688.403" cy="959.473" r="4" fill="#0" id="circle197"/>
	<circle cx="705.705" cy="403.876" r="4" fill="#0" id="circle198"/>
	<circle cx="707.628" cy="350.047" r="4" fill="#0" id="circle199"/>
	<circle cx="724.93" cy="394.264" r="4" fill="#0" id="circle200"/>
	<circle cx="726.853" cy="350.047" r="4" fill="#0" id="circle201"/>
	<circle cx="744.155" cy="390.419" r="4" fill="#0" id="circle202"/>
	<circle cx="746.078" cy="355.814" r="4" fill="#0" id="circle203"/>
	<circle cx="759.535" cy="371.194" r="4" fill="#0" id="circle204"/>
	</g>
</svg>