<?xml version="1.0" encoding="UTF-8" standalone="no"?>
<!-- Created with CurveBenchmark -->
<svg
	xmlns:dc="http://purl.org/dc/elements/1.1/"
	xmlns:cc="http://creativecommons.org/ns#"
	xmlns:rdf="http://www.w3.org/1999/02/22-rdf-syntax-ns#"
	xmlns:svg="http://www.w3.org/2000/svg"
	xmlns="http://www.w3.org/2000/svg"
	xmlns:sodipodi="http://sodipodi.sourceforge.net/DTD/sodipodi-0.dtd"
	xmlns:inkscape="http://www.inkscape.org/namespaces/inkscape"
	width="1000"
	height="1000"
	id="svg2"
	version="1.1"
	sodipodi:docname="manifold/gathan1-woodenspoonbinary3.png.txt">
<defs
	id="defs4" />
<metadata
	id="metadata7">
	<rdf:RDF>
		<cc:Work
			rdf:about="">
			<dc:format>image/svg+xml</dc:format>
			<dc:type
				rdf:resource="http://purl.org/dc/dcmitype/StillImage" />
			<dc:title></dc:title>
		</cc:Work>
	</rdf:RDF>
</metadata>
<g
	inkscape:label="Layer 1"
	inkscape:groupmode="layer"
	id="layer1">
	<path style="fill:none;stroke:red;stroke-width:1px;stroke-linecap:butt;stroke-linejoin:miter;stroke-opacity:1" d="M 16.9956,46.5968 21.3275,39.377 z" id="boundary" inkscape:connector-curvature="0" />
	<path style="fill:none;stroke:red;stroke-width:1px;stroke-linecap:butt;stroke-linejoin:miter;stroke-opacity:1" d="M 21.3275,39.377 27.1033,34.3231 z" id="boundary" inkscape:connector-curvature="0" />
	<path style="fill:none;stroke:red;stroke-width:1px;stroke-linecap:butt;stroke-linejoin:miter;stroke-opacity:1" d="M 32.8792,29.2693 37.933,23.4934 z" id="boundary" inkscape:connector-curvature="0" />
	<path style="fill:none;stroke:red;stroke-width:1px;stroke-linecap:butt;stroke-linejoin:miter;stroke-opacity:1" d="M 37.933,23.4934 44.4309,19.8836 z" id="boundary" inkscape:connector-curvature="0" />
	<path style="fill:none;stroke:red;stroke-width:1px;stroke-linecap:butt;stroke-linejoin:miter;stroke-opacity:1" d="M 32.8792,29.2693 27.1033,34.3231 z" id="boundary" inkscape:connector-curvature="0" />
	<path style="fill:none;stroke:red;stroke-width:1px;stroke-linecap:butt;stroke-linejoin:miter;stroke-opacity:1" d="M 50.9287,15.5517 44.4309,19.8836 z" id="boundary" inkscape:connector-curvature="0" />
	<path style="fill:none;stroke:red;stroke-width:1px;stroke-linecap:butt;stroke-linejoin:miter;stroke-opacity:1" d="M 4.72198,102.189 4,91.3595 z" id="boundary" inkscape:connector-curvature="0" />
	<path style="fill:none;stroke:red;stroke-width:1px;stroke-linecap:butt;stroke-linejoin:miter;stroke-opacity:1" d="M 4,91.3595 4.72198,77.6419 z" id="boundary" inkscape:connector-curvature="0" />
	<path style="fill:none;stroke:red;stroke-width:1px;stroke-linecap:butt;stroke-linejoin:miter;stroke-opacity:1" d="M 4.72198,77.6419 6.88792,69.7001 z" id="boundary" inkscape:connector-curvature="0" />
	<path style="fill:none;stroke:red;stroke-width:1px;stroke-linecap:butt;stroke-linejoin:miter;stroke-opacity:1" d="M 8.33188,60.3144 6.88792,69.7001 z" id="boundary" inkscape:connector-curvature="0" />
	<path style="fill:none;stroke:red;stroke-width:1px;stroke-linecap:butt;stroke-linejoin:miter;stroke-opacity:1" d="M 12.6638,53.0946 16.9956,46.5968 z" id="boundary" inkscape:connector-curvature="0" />
	<path style="fill:none;stroke:red;stroke-width:1px;stroke-linecap:butt;stroke-linejoin:miter;stroke-opacity:1" d="M 8.33188,60.3144 12.6638,53.0946 z" id="boundary" inkscape:connector-curvature="0" />
	<path style="fill:none;stroke:red;stroke-width:1px;stroke-linecap:butt;stroke-linejoin:miter;stroke-opacity:1" d="M 78.3639,6.88792 85.5837,5.44396 z" id="boundary" inkscape:connector-curvature="0" />
	<path style="fill:none;stroke:red;stroke-width:1px;stroke-linecap:butt;stroke-linejoin:miter;stroke-opacity:1" d="M 92.8035,4 85.5837,5.44396 z" id="boundary" inkscape:connector-curvature="0" />
	<path style="fill:none;stroke:red;stroke-width:1px;stroke-linecap:butt;stroke-linejoin:miter;stroke-opacity:1" d="M 92.8035,4 100.023,4.72198 z" id="boundary" inkscape:connector-curvature="0" />
	<path style="fill:none;stroke:red;stroke-width:1px;stroke-linecap:butt;stroke-linejoin:miter;stroke-opacity:1" d="M 100.023,4.72198 107.243,4.72198 z" id="boundary" inkscape:connector-curvature="0" />
	<path style="fill:none;stroke:red;stroke-width:1px;stroke-linecap:butt;stroke-linejoin:miter;stroke-opacity:1" d="M 107.243,4.72198 114.463,5.44396 z" id="boundary" inkscape:connector-curvature="0" />
	<path style="fill:none;stroke:red;stroke-width:1px;stroke-linecap:butt;stroke-linejoin:miter;stroke-opacity:1" d="M 71.1441,9.05386 78.3639,6.88792 z" id="boundary" inkscape:connector-curvature="0" />
	<path style="fill:none;stroke:red;stroke-width:1px;stroke-linecap:butt;stroke-linejoin:miter;stroke-opacity:1" d="M 114.463,5.44396 121.683,6.88792 z" id="boundary" inkscape:connector-curvature="0" />
	<path style="fill:none;stroke:red;stroke-width:1px;stroke-linecap:butt;stroke-linejoin:miter;stroke-opacity:1" d="M 63.9243,9.05386 58.1485,13.3857 z" id="boundary" inkscape:connector-curvature="0" />
	<path style="fill:none;stroke:red;stroke-width:1px;stroke-linecap:butt;stroke-linejoin:miter;stroke-opacity:1" d="M 58.1485,13.3857 50.9287,15.5517 z" id="boundary" inkscape:connector-curvature="0" />
	<path style="fill:none;stroke:red;stroke-width:1px;stroke-linecap:butt;stroke-linejoin:miter;stroke-opacity:1" d="M 63.9243,9.05386 71.1441,9.05386 z" id="boundary" inkscape:connector-curvature="0" />
	<path style="fill:none;stroke:red;stroke-width:1px;stroke-linecap:butt;stroke-linejoin:miter;stroke-opacity:1" d="M 128.902,7.6099 121.683,6.88792 z" id="boundary" inkscape:connector-curvature="0" />
	<path style="fill:none;stroke:red;stroke-width:1px;stroke-linecap:butt;stroke-linejoin:miter;stroke-opacity:1" d="M 6.16594,116.629 5.44396,109.409 z" id="boundary" inkscape:connector-curvature="0" />
	<path style="fill:none;stroke:red;stroke-width:1px;stroke-linecap:butt;stroke-linejoin:miter;stroke-opacity:1" d="M 12.6638,136.844 8.33188,131.068 z" id="boundary" inkscape:connector-curvature="0" />
	<path style="fill:none;stroke:red;stroke-width:1px;stroke-linecap:butt;stroke-linejoin:miter;stroke-opacity:1" d="M 8.33188,131.068 6.88792,123.849 z" id="boundary" inkscape:connector-curvature="0" />
	<path style="fill:none;stroke:red;stroke-width:1px;stroke-linecap:butt;stroke-linejoin:miter;stroke-opacity:1" d="M 6.88792,123.849 6.16594,116.629 z" id="boundary" inkscape:connector-curvature="0" />
	<path style="fill:none;stroke:red;stroke-width:1px;stroke-linecap:butt;stroke-linejoin:miter;stroke-opacity:1" d="M 5.44396,109.409 4.72198,102.189 z" id="boundary" inkscape:connector-curvature="0" />
	<path style="fill:none;stroke:red;stroke-width:1px;stroke-linecap:butt;stroke-linejoin:miter;stroke-opacity:1" d="M 22.0495,157.06 16.9956,151.284 z" id="boundary" inkscape:connector-curvature="0" />
	<path style="fill:none;stroke:red;stroke-width:1px;stroke-linecap:butt;stroke-linejoin:miter;stroke-opacity:1" d="M 16.9956,151.284 14.1077,144.064 z" id="boundary" inkscape:connector-curvature="0" />
	<path style="fill:none;stroke:red;stroke-width:1px;stroke-linecap:butt;stroke-linejoin:miter;stroke-opacity:1" d="M 14.1077,144.064 12.6638,136.844 z" id="boundary" inkscape:connector-curvature="0" />
	<path style="fill:none;stroke:red;stroke-width:1px;stroke-linecap:butt;stroke-linejoin:miter;stroke-opacity:1" d="M 32.8792,175.831 27.1033,171.499 z" id="boundary" inkscape:connector-curvature="0" />
	<path style="fill:none;stroke:red;stroke-width:1px;stroke-linecap:butt;stroke-linejoin:miter;stroke-opacity:1" d="M 27.1033,171.499 24.2154,164.279 z" id="boundary" inkscape:connector-curvature="0" />
	<path style="fill:none;stroke:red;stroke-width:1px;stroke-linecap:butt;stroke-linejoin:miter;stroke-opacity:1" d="M 24.2154,164.279 22.0495,157.06 z" id="boundary" inkscape:connector-curvature="0" />
	<path style="fill:none;stroke:red;stroke-width:1px;stroke-linecap:butt;stroke-linejoin:miter;stroke-opacity:1" d="M 38.655,188.827 34.3231,183.051 z" id="boundary" inkscape:connector-curvature="0" />
	<path style="fill:none;stroke:red;stroke-width:1px;stroke-linecap:butt;stroke-linejoin:miter;stroke-opacity:1" d="M 34.3231,183.051 32.8792,175.831 z" id="boundary" inkscape:connector-curvature="0" />
	<path style="fill:none;stroke:red;stroke-width:1px;stroke-linecap:butt;stroke-linejoin:miter;stroke-opacity:1" d="M 43.7089,194.603 38.655,188.827 z" id="boundary" inkscape:connector-curvature="0" />
	<path style="fill:none;stroke:red;stroke-width:1px;stroke-linecap:butt;stroke-linejoin:miter;stroke-opacity:1" d="M 51.6507,206.876 47.3188,201.1 z" id="boundary" inkscape:connector-curvature="0" />
	<path style="fill:none;stroke:red;stroke-width:1px;stroke-linecap:butt;stroke-linejoin:miter;stroke-opacity:1" d="M 47.3188,201.1 43.7089,194.603 z" id="boundary" inkscape:connector-curvature="0" />
	<path style="fill:none;stroke:red;stroke-width:1px;stroke-linecap:butt;stroke-linejoin:miter;stroke-opacity:1" d="M 64.6463,224.926 58.8705,219.872 z" id="boundary" inkscape:connector-curvature="0" />
	<path style="fill:none;stroke:red;stroke-width:1px;stroke-linecap:butt;stroke-linejoin:miter;stroke-opacity:1" d="M 58.8705,219.872 55.9825,212.652 z" id="boundary" inkscape:connector-curvature="0" />
	<path style="fill:none;stroke:red;stroke-width:1px;stroke-linecap:butt;stroke-linejoin:miter;stroke-opacity:1" d="M 70.4221,229.98 64.6463,224.926 z" id="boundary" inkscape:connector-curvature="0" />
	<path style="fill:none;stroke:red;stroke-width:1px;stroke-linecap:butt;stroke-linejoin:miter;stroke-opacity:1" d="M 51.6507,206.876 55.9825,212.652 z" id="boundary" inkscape:connector-curvature="0" />
	<path style="fill:none;stroke:red;stroke-width:1px;stroke-linecap:butt;stroke-linejoin:miter;stroke-opacity:1" d="M 81.2518,240.087 75.476,235.755 z" id="boundary" inkscape:connector-curvature="0" />
	<path style="fill:none;stroke:red;stroke-width:1px;stroke-linecap:butt;stroke-linejoin:miter;stroke-opacity:1" d="M 75.476,235.755 70.4221,229.98 z" id="boundary" inkscape:connector-curvature="0" />
	<path style="fill:none;stroke:red;stroke-width:1px;stroke-linecap:butt;stroke-linejoin:miter;stroke-opacity:1" d="M 87.0277,244.419 81.2518,240.087 z" id="boundary" inkscape:connector-curvature="0" />
	<path style="fill:none;stroke:red;stroke-width:1px;stroke-linecap:butt;stroke-linejoin:miter;stroke-opacity:1" d="M 128.902,7.6099 136.122,9.77584 z" id="boundary" inkscape:connector-curvature="0" />
	<path style="fill:none;stroke:red;stroke-width:1px;stroke-linecap:butt;stroke-linejoin:miter;stroke-opacity:1" d="M 165.001,19.1616 157.782,16.9956 z" id="boundary" inkscape:connector-curvature="0" />
	<path style="fill:none;stroke:red;stroke-width:1px;stroke-linecap:butt;stroke-linejoin:miter;stroke-opacity:1" d="M 157.782,16.9956 150.562,14.1077 z" id="boundary" inkscape:connector-curvature="0" />
	<path style="fill:none;stroke:red;stroke-width:1px;stroke-linecap:butt;stroke-linejoin:miter;stroke-opacity:1" d="M 143.342,11.9418 150.562,14.1077 z" id="boundary" inkscape:connector-curvature="0" />
	<path style="fill:none;stroke:red;stroke-width:1px;stroke-linecap:butt;stroke-linejoin:miter;stroke-opacity:1" d="M 185.939,28.5473 178.719,25.6594 z" id="boundary" inkscape:connector-curvature="0" />
	<path style="fill:none;stroke:red;stroke-width:1px;stroke-linecap:butt;stroke-linejoin:miter;stroke-opacity:1" d="M 178.719,25.6594 172.221,22.0495 z" id="boundary" inkscape:connector-curvature="0" />
	<path style="fill:none;stroke:red;stroke-width:1px;stroke-linecap:butt;stroke-linejoin:miter;stroke-opacity:1" d="M 185.939,28.5473 191.715,32.8792 z" id="boundary" inkscape:connector-curvature="0" />
	<path style="fill:none;stroke:red;stroke-width:1px;stroke-linecap:butt;stroke-linejoin:miter;stroke-opacity:1" d="M 165.001,19.1616 172.221,22.0495 z" id="boundary" inkscape:connector-curvature="0" />
	<path style="fill:none;stroke:red;stroke-width:1px;stroke-linecap:butt;stroke-linejoin:miter;stroke-opacity:1" d="M 191.715,32.8792 198.213,36.4891 z" id="boundary" inkscape:connector-curvature="0" />
	<path style="fill:none;stroke:red;stroke-width:1px;stroke-linecap:butt;stroke-linejoin:miter;stroke-opacity:1" d="M 204.71,40.099 198.213,36.4891 z" id="boundary" inkscape:connector-curvature="0" />
	<path style="fill:none;stroke:red;stroke-width:1px;stroke-linecap:butt;stroke-linejoin:miter;stroke-opacity:1" d="M 211.208,43.7089 204.71,40.099 z" id="boundary" inkscape:connector-curvature="0" />
	<path style="fill:none;stroke:red;stroke-width:1px;stroke-linecap:butt;stroke-linejoin:miter;stroke-opacity:1" d="M 223.482,51.6507 216.984,48.0408 z" id="boundary" inkscape:connector-curvature="0" />
	<path style="fill:none;stroke:red;stroke-width:1px;stroke-linecap:butt;stroke-linejoin:miter;stroke-opacity:1" d="M 216.984,48.0408 211.208,43.7089 z" id="boundary" inkscape:connector-curvature="0" />
	<path style="fill:none;stroke:red;stroke-width:1px;stroke-linecap:butt;stroke-linejoin:miter;stroke-opacity:1" d="M 223.482,51.6507 227.814,57.4265 z" id="boundary" inkscape:connector-curvature="0" />
	<path style="fill:none;stroke:red;stroke-width:1px;stroke-linecap:butt;stroke-linejoin:miter;stroke-opacity:1" d="M 227.814,57.4265 234.311,61.0364 z" id="boundary" inkscape:connector-curvature="0" />
	<path style="fill:none;stroke:red;stroke-width:1px;stroke-linecap:butt;stroke-linejoin:miter;stroke-opacity:1" d="M 234.311,61.0364 239.365,66.8122 z" id="boundary" inkscape:connector-curvature="0" />
	<path style="fill:none;stroke:red;stroke-width:1px;stroke-linecap:butt;stroke-linejoin:miter;stroke-opacity:1" d="M 245.863,70.4221 239.365,66.8122 z" id="boundary" inkscape:connector-curvature="0" />
	<path style="fill:none;stroke:red;stroke-width:1px;stroke-linecap:butt;stroke-linejoin:miter;stroke-opacity:1" d="M 251.639,75.476 255.971,81.2518 z" id="boundary" inkscape:connector-curvature="0" />
	<path style="fill:none;stroke:red;stroke-width:1px;stroke-linecap:butt;stroke-linejoin:miter;stroke-opacity:1" d="M 251.639,75.476 245.863,70.4221 z" id="boundary" inkscape:connector-curvature="0" />
	<path style="fill:none;stroke:red;stroke-width:1px;stroke-linecap:butt;stroke-linejoin:miter;stroke-opacity:1" d="M 262.469,84.8617 255.971,81.2518 z" id="boundary" inkscape:connector-curvature="0" />
	<path style="fill:none;stroke:red;stroke-width:1px;stroke-linecap:butt;stroke-linejoin:miter;stroke-opacity:1" d="M 262.469,84.8617 268.245,89.1936 z" id="boundary" inkscape:connector-curvature="0" />
	<path style="fill:none;stroke:red;stroke-width:1px;stroke-linecap:butt;stroke-linejoin:miter;stroke-opacity:1" d="M 268.245,89.1936 272.576,94.9694 z" id="boundary" inkscape:connector-curvature="0" />
	<path style="fill:none;stroke:red;stroke-width:1px;stroke-linecap:butt;stroke-linejoin:miter;stroke-opacity:1" d="M 272.576,94.9694 277.63,100.745 z" id="boundary" inkscape:connector-curvature="0" />
	<path style="fill:none;stroke:red;stroke-width:1px;stroke-linecap:butt;stroke-linejoin:miter;stroke-opacity:1" d="M 277.63,100.745 283.406,105.799 z" id="boundary" inkscape:connector-curvature="0" />
	<path style="fill:none;stroke:red;stroke-width:1px;stroke-linecap:butt;stroke-linejoin:miter;stroke-opacity:1" d="M 297.846,123.127 292.792,117.351 z" id="boundary" inkscape:connector-curvature="0" />
	<path style="fill:none;stroke:red;stroke-width:1px;stroke-linecap:butt;stroke-linejoin:miter;stroke-opacity:1" d="M 292.792,117.351 289.182,110.853 z" id="boundary" inkscape:connector-curvature="0" />
	<path style="fill:none;stroke:red;stroke-width:1px;stroke-linecap:butt;stroke-linejoin:miter;stroke-opacity:1" d="M 283.406,105.799 289.182,110.853 z" id="boundary" inkscape:connector-curvature="0" />
	<path style="fill:none;stroke:red;stroke-width:1px;stroke-linecap:butt;stroke-linejoin:miter;stroke-opacity:1" d="M 297.846,123.127 301.456,129.624 z" id="boundary" inkscape:connector-curvature="0" />
	<path style="fill:none;stroke:red;stroke-width:1px;stroke-linecap:butt;stroke-linejoin:miter;stroke-opacity:1" d="M 301.456,129.624 306.509,135.4 z" id="boundary" inkscape:connector-curvature="0" />
	<path style="fill:none;stroke:red;stroke-width:1px;stroke-linecap:butt;stroke-linejoin:miter;stroke-opacity:1" d="M 306.509,135.4 310.119,141.898 z" id="boundary" inkscape:connector-curvature="0" />
	<path style="fill:none;stroke:red;stroke-width:1px;stroke-linecap:butt;stroke-linejoin:miter;stroke-opacity:1" d="M 310.119,141.898 313.729,148.396 z" id="boundary" inkscape:connector-curvature="0" />
	<path style="fill:none;stroke:red;stroke-width:1px;stroke-linecap:butt;stroke-linejoin:miter;stroke-opacity:1" d="M 313.729,148.396 318.061,154.172 z" id="boundary" inkscape:connector-curvature="0" />
	<path style="fill:none;stroke:red;stroke-width:1px;stroke-linecap:butt;stroke-linejoin:miter;stroke-opacity:1" d="M 318.061,154.172 320.949,161.392 z" id="boundary" inkscape:connector-curvature="0" />
	<path style="fill:none;stroke:red;stroke-width:1px;stroke-linecap:butt;stroke-linejoin:miter;stroke-opacity:1" d="M 325.281,167.167 320.949,161.392 z" id="boundary" inkscape:connector-curvature="0" />
	<path style="fill:none;stroke:red;stroke-width:1px;stroke-linecap:butt;stroke-linejoin:miter;stroke-opacity:1" d="M 325.281,167.167 329.613,172.943 z" id="boundary" inkscape:connector-curvature="0" />
	<path style="fill:none;stroke:red;stroke-width:1px;stroke-linecap:butt;stroke-linejoin:miter;stroke-opacity:1" d="M 329.613,172.943 333.223,179.441 z" id="boundary" inkscape:connector-curvature="0" />
	<path style="fill:none;stroke:red;stroke-width:1px;stroke-linecap:butt;stroke-linejoin:miter;stroke-opacity:1" d="M 333.223,179.441 336.111,186.661 z" id="boundary" inkscape:connector-curvature="0" />
	<path style="fill:none;stroke:red;stroke-width:1px;stroke-linecap:butt;stroke-linejoin:miter;stroke-opacity:1" d="M 342.608,200.378 338.999,193.881 z" id="boundary" inkscape:connector-curvature="0" />
	<path style="fill:none;stroke:red;stroke-width:1px;stroke-linecap:butt;stroke-linejoin:miter;stroke-opacity:1" d="M 338.999,193.881 336.111,186.661 z" id="boundary" inkscape:connector-curvature="0" />
	<path style="fill:none;stroke:red;stroke-width:1px;stroke-linecap:butt;stroke-linejoin:miter;stroke-opacity:1" d="M 346.218,206.876 350.55,212.652 z" id="boundary" inkscape:connector-curvature="0" />
	<path style="fill:none;stroke:red;stroke-width:1px;stroke-linecap:butt;stroke-linejoin:miter;stroke-opacity:1" d="M 350.55,212.652 351.994,219.872 z" id="boundary" inkscape:connector-curvature="0" />
	<path style="fill:none;stroke:red;stroke-width:1px;stroke-linecap:butt;stroke-linejoin:miter;stroke-opacity:1" d="M 346.218,206.876 342.608,200.378 z" id="boundary" inkscape:connector-curvature="0" />
	<path style="fill:none;stroke:red;stroke-width:1px;stroke-linecap:butt;stroke-linejoin:miter;stroke-opacity:1" d="M 355.604,226.37 351.994,219.872 z" id="boundary" inkscape:connector-curvature="0" />
	<path style="fill:none;stroke:red;stroke-width:1px;stroke-linecap:butt;stroke-linejoin:miter;stroke-opacity:1" d="M 362.102,239.365 357.77,233.59 z" id="boundary" inkscape:connector-curvature="0" />
	<path style="fill:none;stroke:red;stroke-width:1px;stroke-linecap:butt;stroke-linejoin:miter;stroke-opacity:1" d="M 357.77,233.59 355.604,226.37 z" id="boundary" inkscape:connector-curvature="0" />
	<path style="fill:none;stroke:red;stroke-width:1px;stroke-linecap:butt;stroke-linejoin:miter;stroke-opacity:1" d="M 136.122,9.77584 143.342,11.9418 z" id="boundary" inkscape:connector-curvature="0" />
	<path style="fill:none;stroke:red;stroke-width:1px;stroke-linecap:butt;stroke-linejoin:miter;stroke-opacity:1" d="M 362.102,239.365 364.99,246.585 z" id="boundary" inkscape:connector-curvature="0" />
	<path style="fill:none;stroke:red;stroke-width:1px;stroke-linecap:butt;stroke-linejoin:miter;stroke-opacity:1" d="M 98.5793,254.527 92.8035,249.473 z" id="boundary" inkscape:connector-curvature="0" />
	<path style="fill:none;stroke:red;stroke-width:1px;stroke-linecap:butt;stroke-linejoin:miter;stroke-opacity:1" d="M 115.907,268.245 108.687,265.357 z" id="boundary" inkscape:connector-curvature="0" />
	<path style="fill:none;stroke:red;stroke-width:1px;stroke-linecap:butt;stroke-linejoin:miter;stroke-opacity:1" d="M 108.687,265.357 102.911,260.303 z" id="boundary" inkscape:connector-curvature="0" />
	<path style="fill:none;stroke:red;stroke-width:1px;stroke-linecap:butt;stroke-linejoin:miter;stroke-opacity:1" d="M 102.911,260.303 98.5793,254.527 z" id="boundary" inkscape:connector-curvature="0" />
	<path style="fill:none;stroke:red;stroke-width:1px;stroke-linecap:butt;stroke-linejoin:miter;stroke-opacity:1" d="M 87.0277,244.419 92.8035,249.473 z" id="boundary" inkscape:connector-curvature="0" />
	<path style="fill:none;stroke:red;stroke-width:1px;stroke-linecap:butt;stroke-linejoin:miter;stroke-opacity:1" d="M 128.18,276.186 121.683,272.576 z" id="boundary" inkscape:connector-curvature="0" />
	<path style="fill:none;stroke:red;stroke-width:1px;stroke-linecap:butt;stroke-linejoin:miter;stroke-opacity:1" d="M 121.683,272.576 115.907,268.245 z" id="boundary" inkscape:connector-curvature="0" />
	<path style="fill:none;stroke:red;stroke-width:1px;stroke-linecap:butt;stroke-linejoin:miter;stroke-opacity:1" d="M 128.18,276.186 133.956,281.24 z" id="boundary" inkscape:connector-curvature="0" />
	<path style="fill:none;stroke:red;stroke-width:1px;stroke-linecap:butt;stroke-linejoin:miter;stroke-opacity:1" d="M 133.956,281.24 140.454,284.85 z" id="boundary" inkscape:connector-curvature="0" />
	<path style="fill:none;stroke:red;stroke-width:1px;stroke-linecap:butt;stroke-linejoin:miter;stroke-opacity:1" d="M 146.952,288.46 140.454,284.85 z" id="boundary" inkscape:connector-curvature="0" />
	<path style="fill:none;stroke:red;stroke-width:1px;stroke-linecap:butt;stroke-linejoin:miter;stroke-opacity:1" d="M 146.952,288.46 152.728,292.792 z" id="boundary" inkscape:connector-curvature="0" />
	<path style="fill:none;stroke:red;stroke-width:1px;stroke-linecap:butt;stroke-linejoin:miter;stroke-opacity:1" d="M 166.445,298.568 159.226,296.402 z" id="boundary" inkscape:connector-curvature="0" />
	<path style="fill:none;stroke:red;stroke-width:1px;stroke-linecap:butt;stroke-linejoin:miter;stroke-opacity:1" d="M 159.226,296.402 152.728,292.792 z" id="boundary" inkscape:connector-curvature="0" />
	<path style="fill:none;stroke:red;stroke-width:1px;stroke-linecap:butt;stroke-linejoin:miter;stroke-opacity:1" d="M 166.445,298.568 172.943,302.178 z" id="boundary" inkscape:connector-curvature="0" />
	<path style="fill:none;stroke:red;stroke-width:1px;stroke-linecap:butt;stroke-linejoin:miter;stroke-opacity:1" d="M 364.99,246.585 368.6,253.083 z" id="boundary" inkscape:connector-curvature="0" />
	<path style="fill:none;stroke:red;stroke-width:1px;stroke-linecap:butt;stroke-linejoin:miter;stroke-opacity:1" d="M 368.6,253.083 371.488,260.303 z" id="boundary" inkscape:connector-curvature="0" />
	<path style="fill:none;stroke:red;stroke-width:1px;stroke-linecap:butt;stroke-linejoin:miter;stroke-opacity:1" d="M 375.098,266.801 371.488,260.303 z" id="boundary" inkscape:connector-curvature="0" />
	<path style="fill:none;stroke:red;stroke-width:1px;stroke-linecap:butt;stroke-linejoin:miter;stroke-opacity:1" d="M 193.881,310.119 186.661,308.675 z" id="boundary" inkscape:connector-curvature="0" />
	<path style="fill:none;stroke:red;stroke-width:1px;stroke-linecap:butt;stroke-linejoin:miter;stroke-opacity:1" d="M 186.661,308.675 179.441,305.787 z" id="boundary" inkscape:connector-curvature="0" />
	<path style="fill:none;stroke:red;stroke-width:1px;stroke-linecap:butt;stroke-linejoin:miter;stroke-opacity:1" d="M 179.441,305.787 172.943,302.178 z" id="boundary" inkscape:connector-curvature="0" />
	<path style="fill:none;stroke:red;stroke-width:1px;stroke-linecap:butt;stroke-linejoin:miter;stroke-opacity:1" d="M 193.881,310.119 201.1,312.285 z" id="boundary" inkscape:connector-curvature="0" />
	<path style="fill:none;stroke:red;stroke-width:1px;stroke-linecap:butt;stroke-linejoin:miter;stroke-opacity:1" d="M 208.32,315.173 201.1,312.285 z" id="boundary" inkscape:connector-curvature="0" />
	<path style="fill:none;stroke:red;stroke-width:1px;stroke-linecap:butt;stroke-linejoin:miter;stroke-opacity:1" d="M 208.32,315.173 214.096,319.505 z" id="boundary" inkscape:connector-curvature="0" />
	<path style="fill:none;stroke:red;stroke-width:1px;stroke-linecap:butt;stroke-linejoin:miter;stroke-opacity:1" d="M 221.316,322.393 214.096,319.505 z" id="boundary" inkscape:connector-curvature="0" />
	<path style="fill:none;stroke:red;stroke-width:1px;stroke-linecap:butt;stroke-linejoin:miter;stroke-opacity:1" d="M 228.536,321.671 221.316,322.393 z" id="boundary" inkscape:connector-curvature="0" />
	<path style="fill:none;stroke:red;stroke-width:1px;stroke-linecap:butt;stroke-linejoin:miter;stroke-opacity:1" d="M 228.536,321.671 235.755,324.559 z" id="boundary" inkscape:connector-curvature="0" />
	<path style="fill:none;stroke:red;stroke-width:1px;stroke-linecap:butt;stroke-linejoin:miter;stroke-opacity:1" d="M 242.975,327.447 235.755,324.559 z" id="boundary" inkscape:connector-curvature="0" />
	<path style="fill:none;stroke:red;stroke-width:1px;stroke-linecap:butt;stroke-linejoin:miter;stroke-opacity:1" d="M 242.975,327.447 250.195,330.335 z" id="boundary" inkscape:connector-curvature="0" />
	<path style="fill:none;stroke:red;stroke-width:1px;stroke-linecap:butt;stroke-linejoin:miter;stroke-opacity:1" d="M 250.195,330.335 257.415,331.057 z" id="boundary" inkscape:connector-curvature="0" />
	<path style="fill:none;stroke:red;stroke-width:1px;stroke-linecap:butt;stroke-linejoin:miter;stroke-opacity:1" d="M 257.415,331.057 263.913,334.667 z" id="boundary" inkscape:connector-curvature="0" />
	<path style="fill:none;stroke:red;stroke-width:1px;stroke-linecap:butt;stroke-linejoin:miter;stroke-opacity:1" d="M 271.132,335.389 263.913,334.667 z" id="boundary" inkscape:connector-curvature="0" />
	<path style="fill:none;stroke:red;stroke-width:1px;stroke-linecap:butt;stroke-linejoin:miter;stroke-opacity:1" d="M 285.572,339.721 278.352,338.277 z" id="boundary" inkscape:connector-curvature="0" />
	<path style="fill:none;stroke:red;stroke-width:1px;stroke-linecap:butt;stroke-linejoin:miter;stroke-opacity:1" d="M 278.352,338.277 271.132,335.389 z" id="boundary" inkscape:connector-curvature="0" />
	<path style="fill:none;stroke:red;stroke-width:1px;stroke-linecap:butt;stroke-linejoin:miter;stroke-opacity:1" d="M 285.572,339.721 292.07,343.33 z" id="boundary" inkscape:connector-curvature="0" />
	<path style="fill:none;stroke:red;stroke-width:1px;stroke-linecap:butt;stroke-linejoin:miter;stroke-opacity:1" d="M 292.07,343.33 299.29,344.052 z" id="boundary" inkscape:connector-curvature="0" />
	<path style="fill:none;stroke:red;stroke-width:1px;stroke-linecap:butt;stroke-linejoin:miter;stroke-opacity:1" d="M 299.29,344.052 305.787,347.662 z" id="boundary" inkscape:connector-curvature="0" />
	<path style="fill:none;stroke:red;stroke-width:1px;stroke-linecap:butt;stroke-linejoin:miter;stroke-opacity:1" d="M 313.007,349.828 320.227,349.828 z" id="boundary" inkscape:connector-curvature="0" />
	<path style="fill:none;stroke:red;stroke-width:1px;stroke-linecap:butt;stroke-linejoin:miter;stroke-opacity:1" d="M 320.227,349.828 326.725,353.438 z" id="boundary" inkscape:connector-curvature="0" />
	<path style="fill:none;stroke:red;stroke-width:1px;stroke-linecap:butt;stroke-linejoin:miter;stroke-opacity:1" d="M 313.007,349.828 305.787,347.662 z" id="boundary" inkscape:connector-curvature="0" />
	<path style="fill:none;stroke:red;stroke-width:1px;stroke-linecap:butt;stroke-linejoin:miter;stroke-opacity:1" d="M 333.945,355.604 326.725,353.438 z" id="boundary" inkscape:connector-curvature="0" />
	<path style="fill:none;stroke:red;stroke-width:1px;stroke-linecap:butt;stroke-linejoin:miter;stroke-opacity:1" d="M 333.945,355.604 341.164,357.77 z" id="boundary" inkscape:connector-curvature="0" />
	<path style="fill:none;stroke:red;stroke-width:1px;stroke-linecap:butt;stroke-linejoin:miter;stroke-opacity:1" d="M 341.164,357.77 346.94,362.102 z" id="boundary" inkscape:connector-curvature="0" />
	<path style="fill:none;stroke:red;stroke-width:1px;stroke-linecap:butt;stroke-linejoin:miter;stroke-opacity:1" d="M 346.94,362.102 352.716,366.434 z" id="boundary" inkscape:connector-curvature="0" />
	<path style="fill:none;stroke:red;stroke-width:1px;stroke-linecap:butt;stroke-linejoin:miter;stroke-opacity:1" d="M 352.716,366.434 359.936,367.156 z" id="boundary" inkscape:connector-curvature="0" />
	<path style="fill:none;stroke:red;stroke-width:1px;stroke-linecap:butt;stroke-linejoin:miter;stroke-opacity:1" d="M 359.936,367.156 365.712,371.488 z" id="boundary" inkscape:connector-curvature="0" />
	<path style="fill:none;stroke:red;stroke-width:1px;stroke-linecap:butt;stroke-linejoin:miter;stroke-opacity:1" d="M 372.932,374.376 365.712,371.488 z" id="boundary" inkscape:connector-curvature="0" />
	<path style="fill:none;stroke:red;stroke-width:1px;stroke-linecap:butt;stroke-linejoin:miter;stroke-opacity:1" d="M 378.707,273.298 382.317,279.796 z" id="boundary" inkscape:connector-curvature="0" />
	<path style="fill:none;stroke:red;stroke-width:1px;stroke-linecap:butt;stroke-linejoin:miter;stroke-opacity:1" d="M 385.927,286.294 389.537,292.792 z" id="boundary" inkscape:connector-curvature="0" />
	<path style="fill:none;stroke:red;stroke-width:1px;stroke-linecap:butt;stroke-linejoin:miter;stroke-opacity:1" d="M 385.927,286.294 382.317,279.796 z" id="boundary" inkscape:connector-curvature="0" />
	<path style="fill:none;stroke:red;stroke-width:1px;stroke-linecap:butt;stroke-linejoin:miter;stroke-opacity:1" d="M 389.537,292.792 393.147,299.29 z" id="boundary" inkscape:connector-curvature="0" />
	<path style="fill:none;stroke:red;stroke-width:1px;stroke-linecap:butt;stroke-linejoin:miter;stroke-opacity:1" d="M 379.429,377.985 372.932,374.376 z" id="boundary" inkscape:connector-curvature="0" />
	<path style="fill:none;stroke:red;stroke-width:1px;stroke-linecap:butt;stroke-linejoin:miter;stroke-opacity:1" d="M 393.147,299.29 397.479,305.066 z" id="boundary" inkscape:connector-curvature="0" />
	<path style="fill:none;stroke:red;stroke-width:1px;stroke-linecap:butt;stroke-linejoin:miter;stroke-opacity:1" d="M 379.429,377.985 385.205,382.317 z" id="boundary" inkscape:connector-curvature="0" />
	<path style="fill:none;stroke:red;stroke-width:1px;stroke-linecap:butt;stroke-linejoin:miter;stroke-opacity:1" d="M 397.479,305.066 401.811,310.841 z" id="boundary" inkscape:connector-curvature="0" />
	<path style="fill:none;stroke:red;stroke-width:1px;stroke-linecap:butt;stroke-linejoin:miter;stroke-opacity:1" d="M 401.811,310.841 403.977,318.061 z" id="boundary" inkscape:connector-curvature="0" />
	<path style="fill:none;stroke:red;stroke-width:1px;stroke-linecap:butt;stroke-linejoin:miter;stroke-opacity:1" d="M 408.309,323.837 403.977,318.061 z" id="boundary" inkscape:connector-curvature="0" />
	<path style="fill:none;stroke:red;stroke-width:1px;stroke-linecap:butt;stroke-linejoin:miter;stroke-opacity:1" d="M 378.707,273.298 375.098,266.801 z" id="boundary" inkscape:connector-curvature="0" />
	<path style="fill:none;stroke:red;stroke-width:1px;stroke-linecap:butt;stroke-linejoin:miter;stroke-opacity:1" d="M 423.47,339.721 417.694,335.389 z" id="boundary" inkscape:connector-curvature="0" />
	<path style="fill:none;stroke:red;stroke-width:1px;stroke-linecap:butt;stroke-linejoin:miter;stroke-opacity:1" d="M 417.694,335.389 412.64,329.613 z" id="boundary" inkscape:connector-curvature="0" />
	<path style="fill:none;stroke:red;stroke-width:1px;stroke-linecap:butt;stroke-linejoin:miter;stroke-opacity:1" d="M 412.64,329.613 408.309,323.837 z" id="boundary" inkscape:connector-curvature="0" />
	<path style="fill:none;stroke:red;stroke-width:1px;stroke-linecap:butt;stroke-linejoin:miter;stroke-opacity:1" d="M 433.578,350.55 427.802,345.496 z" id="boundary" inkscape:connector-curvature="0" />
	<path style="fill:none;stroke:red;stroke-width:1px;stroke-linecap:butt;stroke-linejoin:miter;stroke-opacity:1" d="M 427.802,345.496 423.47,339.721 z" id="boundary" inkscape:connector-curvature="0" />
	<path style="fill:none;stroke:red;stroke-width:1px;stroke-linecap:butt;stroke-linejoin:miter;stroke-opacity:1" d="M 437.91,356.326 444.408,359.936 z" id="boundary" inkscape:connector-curvature="0" />
	<path style="fill:none;stroke:red;stroke-width:1px;stroke-linecap:butt;stroke-linejoin:miter;stroke-opacity:1" d="M 444.408,359.936 448.017,366.434 z" id="boundary" inkscape:connector-curvature="0" />
	<path style="fill:none;stroke:red;stroke-width:1px;stroke-linecap:butt;stroke-linejoin:miter;stroke-opacity:1" d="M 437.91,356.326 433.578,350.55 z" id="boundary" inkscape:connector-curvature="0" />
	<path style="fill:none;stroke:red;stroke-width:1px;stroke-linecap:butt;stroke-linejoin:miter;stroke-opacity:1" d="M 455.237,369.322 448.017,366.434 z" id="boundary" inkscape:connector-curvature="0" />
	<path style="fill:none;stroke:red;stroke-width:1px;stroke-linecap:butt;stroke-linejoin:miter;stroke-opacity:1" d="M 466.067,380.151 460.291,375.098 z" id="boundary" inkscape:connector-curvature="0" />
	<path style="fill:none;stroke:red;stroke-width:1px;stroke-linecap:butt;stroke-linejoin:miter;stroke-opacity:1" d="M 460.291,375.098 455.237,369.322 z" id="boundary" inkscape:connector-curvature="0" />
	<path style="fill:none;stroke:red;stroke-width:1px;stroke-linecap:butt;stroke-linejoin:miter;stroke-opacity:1" d="M 471.843,384.483 466.067,380.151 z" id="boundary" inkscape:connector-curvature="0" />
	<path style="fill:none;stroke:red;stroke-width:1px;stroke-linecap:butt;stroke-linejoin:miter;stroke-opacity:1" d="M 385.205,382.317 390.981,387.371 z" id="boundary" inkscape:connector-curvature="0" />
	<path style="fill:none;stroke:red;stroke-width:1px;stroke-linecap:butt;stroke-linejoin:miter;stroke-opacity:1" d="M 414.806,405.421 408.309,401.811 z" id="boundary" inkscape:connector-curvature="0" />
	<path style="fill:none;stroke:red;stroke-width:1px;stroke-linecap:butt;stroke-linejoin:miter;stroke-opacity:1" d="M 396.757,392.425 402.533,396.757 z" id="boundary" inkscape:connector-curvature="0" />
	<path style="fill:none;stroke:red;stroke-width:1px;stroke-linecap:butt;stroke-linejoin:miter;stroke-opacity:1" d="M 402.533,396.757 408.309,401.811 z" id="boundary" inkscape:connector-curvature="0" />
	<path style="fill:none;stroke:red;stroke-width:1px;stroke-linecap:butt;stroke-linejoin:miter;stroke-opacity:1" d="M 396.757,392.425 390.981,387.371 z" id="boundary" inkscape:connector-curvature="0" />
	<path style="fill:none;stroke:red;stroke-width:1px;stroke-linecap:butt;stroke-linejoin:miter;stroke-opacity:1" d="M 420.582,409.753 414.806,405.421 z" id="boundary" inkscape:connector-curvature="0" />
	<path style="fill:none;stroke:red;stroke-width:1px;stroke-linecap:butt;stroke-linejoin:miter;stroke-opacity:1" d="M 426.358,414.084 420.582,409.753 z" id="boundary" inkscape:connector-curvature="0" />
	<path style="fill:none;stroke:red;stroke-width:1px;stroke-linecap:butt;stroke-linejoin:miter;stroke-opacity:1" d="M 426.358,414.084 431.412,419.86 z" id="boundary" inkscape:connector-curvature="0" />
	<path style="fill:none;stroke:red;stroke-width:1px;stroke-linecap:butt;stroke-linejoin:miter;stroke-opacity:1" d="M 431.412,419.86 437.188,424.192 z" id="boundary" inkscape:connector-curvature="0" />
	<path style="fill:none;stroke:red;stroke-width:1px;stroke-linecap:butt;stroke-linejoin:miter;stroke-opacity:1" d="M 442.964,428.524 437.188,424.192 z" id="boundary" inkscape:connector-curvature="0" />
	<path style="fill:none;stroke:red;stroke-width:1px;stroke-linecap:butt;stroke-linejoin:miter;stroke-opacity:1" d="M 442.964,428.524 448.739,433.578 z" id="boundary" inkscape:connector-curvature="0" />
	<path style="fill:none;stroke:red;stroke-width:1px;stroke-linecap:butt;stroke-linejoin:miter;stroke-opacity:1" d="M 455.237,437.188 448.739,433.578 z" id="boundary" inkscape:connector-curvature="0" />
	<path style="fill:none;stroke:red;stroke-width:1px;stroke-linecap:butt;stroke-linejoin:miter;stroke-opacity:1" d="M 471.843,384.483 477.619,388.815 z" id="boundary" inkscape:connector-curvature="0" />
	<path style="fill:none;stroke:red;stroke-width:1px;stroke-linecap:butt;stroke-linejoin:miter;stroke-opacity:1" d="M 477.619,388.815 483.394,393.147 z" id="boundary" inkscape:connector-curvature="0" />
	<path style="fill:none;stroke:red;stroke-width:1px;stroke-linecap:butt;stroke-linejoin:miter;stroke-opacity:1" d="M 483.394,393.147 487.726,398.923 z" id="boundary" inkscape:connector-curvature="0" />
	<path style="fill:none;stroke:red;stroke-width:1px;stroke-linecap:butt;stroke-linejoin:miter;stroke-opacity:1" d="M 462.457,440.076 455.237,437.188 z" id="boundary" inkscape:connector-curvature="0" />
	<path style="fill:none;stroke:red;stroke-width:1px;stroke-linecap:butt;stroke-linejoin:miter;stroke-opacity:1" d="M 474.009,449.461 467.511,445.852 z" id="boundary" inkscape:connector-curvature="0" />
	<path style="fill:none;stroke:red;stroke-width:1px;stroke-linecap:butt;stroke-linejoin:miter;stroke-opacity:1" d="M 467.511,445.852 462.457,440.076 z" id="boundary" inkscape:connector-curvature="0" />
	<path style="fill:none;stroke:red;stroke-width:1px;stroke-linecap:butt;stroke-linejoin:miter;stroke-opacity:1" d="M 480.507,453.071 486.282,457.403 z" id="boundary" inkscape:connector-curvature="0" />
	<path style="fill:none;stroke:red;stroke-width:1px;stroke-linecap:butt;stroke-linejoin:miter;stroke-opacity:1" d="M 486.282,457.403 488.448,464.623 z" id="boundary" inkscape:connector-curvature="0" />
	<path style="fill:none;stroke:red;stroke-width:1px;stroke-linecap:butt;stroke-linejoin:miter;stroke-opacity:1" d="M 494.224,468.955 488.448,464.623 z" id="boundary" inkscape:connector-curvature="0" />
	<path style="fill:none;stroke:red;stroke-width:1px;stroke-linecap:butt;stroke-linejoin:miter;stroke-opacity:1" d="M 474.009,449.461 480.507,453.071 z" id="boundary" inkscape:connector-curvature="0" />
	<path style="fill:none;stroke:red;stroke-width:1px;stroke-linecap:butt;stroke-linejoin:miter;stroke-opacity:1" d="M 487.726,398.923 493.502,403.255 z" id="boundary" inkscape:connector-curvature="0" />
	<path style="fill:none;stroke:red;stroke-width:1px;stroke-linecap:butt;stroke-linejoin:miter;stroke-opacity:1" d="M 493.502,403.255 500.722,404.699 z" id="boundary" inkscape:connector-curvature="0" />
	<path style="fill:none;stroke:red;stroke-width:1px;stroke-linecap:butt;stroke-linejoin:miter;stroke-opacity:1" d="M 500.722,404.699 504.332,411.197 z" id="boundary" inkscape:connector-curvature="0" />
	<path style="fill:none;stroke:red;stroke-width:1px;stroke-linecap:butt;stroke-linejoin:miter;stroke-opacity:1" d="M 510.108,415.528 514.44,421.304 z" id="boundary" inkscape:connector-curvature="0" />
	<path style="fill:none;stroke:red;stroke-width:1px;stroke-linecap:butt;stroke-linejoin:miter;stroke-opacity:1" d="M 510.108,415.528 504.332,411.197 z" id="boundary" inkscape:connector-curvature="0" />
	<path style="fill:none;stroke:red;stroke-width:1px;stroke-linecap:butt;stroke-linejoin:miter;stroke-opacity:1" d="M 521.659,424.192 514.44,421.304 z" id="boundary" inkscape:connector-curvature="0" />
	<path style="fill:none;stroke:red;stroke-width:1px;stroke-linecap:butt;stroke-linejoin:miter;stroke-opacity:1" d="M 505.776,476.897 498.556,474.731 z" id="boundary" inkscape:connector-curvature="0" />
	<path style="fill:none;stroke:red;stroke-width:1px;stroke-linecap:butt;stroke-linejoin:miter;stroke-opacity:1" d="M 498.556,474.731 494.224,468.955 z" id="boundary" inkscape:connector-curvature="0" />
	<path style="fill:none;stroke:red;stroke-width:1px;stroke-linecap:butt;stroke-linejoin:miter;stroke-opacity:1" d="M 505.776,476.897 508.664,484.116 z" id="boundary" inkscape:connector-curvature="0" />
	<path style="fill:none;stroke:red;stroke-width:1px;stroke-linecap:butt;stroke-linejoin:miter;stroke-opacity:1" d="M 514.44,489.17 508.664,484.116 z" id="boundary" inkscape:connector-curvature="0" />
	<path style="fill:none;stroke:red;stroke-width:1px;stroke-linecap:butt;stroke-linejoin:miter;stroke-opacity:1" d="M 525.991,429.968 521.659,424.192 z" id="boundary" inkscape:connector-curvature="0" />
	<path style="fill:none;stroke:red;stroke-width:1px;stroke-linecap:butt;stroke-linejoin:miter;stroke-opacity:1" d="M 531.767,434.3 525.991,429.968 z" id="boundary" inkscape:connector-curvature="0" />
	<path style="fill:none;stroke:red;stroke-width:1px;stroke-linecap:butt;stroke-linejoin:miter;stroke-opacity:1" d="M 537.543,438.632 542.597,444.408 z" id="boundary" inkscape:connector-curvature="0" />
	<path style="fill:none;stroke:red;stroke-width:1px;stroke-linecap:butt;stroke-linejoin:miter;stroke-opacity:1" d="M 537.543,438.632 531.767,434.3 z" id="boundary" inkscape:connector-curvature="0" />
	<path style="fill:none;stroke:red;stroke-width:1px;stroke-linecap:butt;stroke-linejoin:miter;stroke-opacity:1" d="M 549.095,448.017 542.597,444.408 z" id="boundary" inkscape:connector-curvature="0" />
	<path style="fill:none;stroke:red;stroke-width:1px;stroke-linecap:butt;stroke-linejoin:miter;stroke-opacity:1" d="M 554.87,453.071 549.095,448.017 z" id="boundary" inkscape:connector-curvature="0" />
	<path style="fill:none;stroke:red;stroke-width:1px;stroke-linecap:butt;stroke-linejoin:miter;stroke-opacity:1" d="M 560.646,458.125 554.87,453.071 z" id="boundary" inkscape:connector-curvature="0" />
	<path style="fill:none;stroke:red;stroke-width:1px;stroke-linecap:butt;stroke-linejoin:miter;stroke-opacity:1" d="M 560.646,458.125 564.256,464.623 z" id="boundary" inkscape:connector-curvature="0" />
	<path style="fill:none;stroke:red;stroke-width:1px;stroke-linecap:butt;stroke-linejoin:miter;stroke-opacity:1" d="M 564.256,464.623 571.476,466.067 z" id="boundary" inkscape:connector-curvature="0" />
	<path style="fill:none;stroke:red;stroke-width:1px;stroke-linecap:butt;stroke-linejoin:miter;stroke-opacity:1" d="M 571.476,466.067 575.808,471.843 z" id="boundary" inkscape:connector-curvature="0" />
	<path style="fill:none;stroke:red;stroke-width:1px;stroke-linecap:butt;stroke-linejoin:miter;stroke-opacity:1" d="M 582.306,475.453 575.808,471.843 z" id="boundary" inkscape:connector-curvature="0" />
	<path style="fill:none;stroke:red;stroke-width:1px;stroke-linecap:butt;stroke-linejoin:miter;stroke-opacity:1" d="M 593.135,484.838 586.638,481.229 z" id="boundary" inkscape:connector-curvature="0" />
	<path style="fill:none;stroke:red;stroke-width:1px;stroke-linecap:butt;stroke-linejoin:miter;stroke-opacity:1" d="M 586.638,481.229 582.306,475.453 z" id="boundary" inkscape:connector-curvature="0" />
	<path style="fill:none;stroke:red;stroke-width:1px;stroke-linecap:butt;stroke-linejoin:miter;stroke-opacity:1" d="M 593.135,484.838 596.745,491.336 z" id="boundary" inkscape:connector-curvature="0" />
	<path style="fill:none;stroke:red;stroke-width:1px;stroke-linecap:butt;stroke-linejoin:miter;stroke-opacity:1" d="M 514.44,489.17 520.215,493.502 z" id="boundary" inkscape:connector-curvature="0" />
	<path style="fill:none;stroke:red;stroke-width:1px;stroke-linecap:butt;stroke-linejoin:miter;stroke-opacity:1" d="M 520.215,493.502 524.547,499.278 z" id="boundary" inkscape:connector-curvature="0" />
	<path style="fill:none;stroke:red;stroke-width:1px;stroke-linecap:butt;stroke-linejoin:miter;stroke-opacity:1" d="M 537.543,507.22 530.323,504.332 z" id="boundary" inkscape:connector-curvature="0" />
	<path style="fill:none;stroke:red;stroke-width:1px;stroke-linecap:butt;stroke-linejoin:miter;stroke-opacity:1" d="M 530.323,504.332 524.547,499.278 z" id="boundary" inkscape:connector-curvature="0" />
	<path style="fill:none;stroke:red;stroke-width:1px;stroke-linecap:butt;stroke-linejoin:miter;stroke-opacity:1" d="M 543.319,511.552 537.543,507.22 z" id="boundary" inkscape:connector-curvature="0" />
	<path style="fill:none;stroke:red;stroke-width:1px;stroke-linecap:butt;stroke-linejoin:miter;stroke-opacity:1" d="M 554.148,520.937 547.651,517.328 z" id="boundary" inkscape:connector-curvature="0" />
	<path style="fill:none;stroke:red;stroke-width:1px;stroke-linecap:butt;stroke-linejoin:miter;stroke-opacity:1" d="M 547.651,517.328 543.319,511.552 z" id="boundary" inkscape:connector-curvature="0" />
	<path style="fill:none;stroke:red;stroke-width:1px;stroke-linecap:butt;stroke-linejoin:miter;stroke-opacity:1" d="M 554.148,520.937 559.202,526.713 z" id="boundary" inkscape:connector-curvature="0" />
	<path style="fill:none;stroke:red;stroke-width:1px;stroke-linecap:butt;stroke-linejoin:miter;stroke-opacity:1" d="M 559.202,526.713 565.7,530.323 z" id="boundary" inkscape:connector-curvature="0" />
	<path style="fill:none;stroke:red;stroke-width:1px;stroke-linecap:butt;stroke-linejoin:miter;stroke-opacity:1" d="M 565.7,530.323 570.032,536.099 z" id="boundary" inkscape:connector-curvature="0" />
	<path style="fill:none;stroke:red;stroke-width:1px;stroke-linecap:butt;stroke-linejoin:miter;stroke-opacity:1" d="M 576.53,539.709 570.032,536.099 z" id="boundary" inkscape:connector-curvature="0" />
	<path style="fill:none;stroke:red;stroke-width:1px;stroke-linecap:butt;stroke-linejoin:miter;stroke-opacity:1" d="M 582.306,544.041 576.53,539.709 z" id="boundary" inkscape:connector-curvature="0" />
	<path style="fill:none;stroke:red;stroke-width:1px;stroke-linecap:butt;stroke-linejoin:miter;stroke-opacity:1" d="M 596.745,491.336 602.521,495.668 z" id="boundary" inkscape:connector-curvature="0" />
	<path style="fill:none;stroke:red;stroke-width:1px;stroke-linecap:butt;stroke-linejoin:miter;stroke-opacity:1" d="M 582.306,544.041 586.638,549.817 z" id="boundary" inkscape:connector-curvature="0" />
	<path style="fill:none;stroke:red;stroke-width:1px;stroke-linecap:butt;stroke-linejoin:miter;stroke-opacity:1" d="M 602.521,495.668 608.297,500 z" id="boundary" inkscape:connector-curvature="0" />
	<path style="fill:none;stroke:red;stroke-width:1px;stroke-linecap:butt;stroke-linejoin:miter;stroke-opacity:1" d="M 614.073,504.332 608.297,500 z" id="boundary" inkscape:connector-curvature="0" />
	<path style="fill:none;stroke:red;stroke-width:1px;stroke-linecap:butt;stroke-linejoin:miter;stroke-opacity:1" d="M 586.638,549.817 592.413,554.148 z" id="boundary" inkscape:connector-curvature="0" />
	<path style="fill:none;stroke:red;stroke-width:1px;stroke-linecap:butt;stroke-linejoin:miter;stroke-opacity:1" d="M 592.413,554.148 598.189,559.202 z" id="boundary" inkscape:connector-curvature="0" />
	<path style="fill:none;stroke:red;stroke-width:1px;stroke-linecap:butt;stroke-linejoin:miter;stroke-opacity:1" d="M 609.019,570.032 603.965,564.256 z" id="boundary" inkscape:connector-curvature="0" />
	<path style="fill:none;stroke:red;stroke-width:1px;stroke-linecap:butt;stroke-linejoin:miter;stroke-opacity:1" d="M 614.795,575.086 609.019,570.032 z" id="boundary" inkscape:connector-curvature="0" />
	<path style="fill:none;stroke:red;stroke-width:1px;stroke-linecap:butt;stroke-linejoin:miter;stroke-opacity:1" d="M 598.189,559.202 603.965,564.256 z" id="boundary" inkscape:connector-curvature="0" />
	<path style="fill:none;stroke:red;stroke-width:1px;stroke-linecap:butt;stroke-linejoin:miter;stroke-opacity:1" d="M 614.073,504.332 619.849,508.664 z" id="boundary" inkscape:connector-curvature="0" />
	<path style="fill:none;stroke:red;stroke-width:1px;stroke-linecap:butt;stroke-linejoin:miter;stroke-opacity:1" d="M 625.624,512.996 630.678,518.771 z" id="boundary" inkscape:connector-curvature="0" />
	<path style="fill:none;stroke:red;stroke-width:1px;stroke-linecap:butt;stroke-linejoin:miter;stroke-opacity:1" d="M 625.624,512.996 619.849,508.664 z" id="boundary" inkscape:connector-curvature="0" />
	<path style="fill:none;stroke:red;stroke-width:1px;stroke-linecap:butt;stroke-linejoin:miter;stroke-opacity:1" d="M 636.454,523.103 642.23,528.157 z" id="boundary" inkscape:connector-curvature="0" />
	<path style="fill:none;stroke:red;stroke-width:1px;stroke-linecap:butt;stroke-linejoin:miter;stroke-opacity:1" d="M 636.454,523.103 630.678,518.771 z" id="boundary" inkscape:connector-curvature="0" />
	<path style="fill:none;stroke:red;stroke-width:1px;stroke-linecap:butt;stroke-linejoin:miter;stroke-opacity:1" d="M 642.23,528.157 647.284,533.933 z" id="boundary" inkscape:connector-curvature="0" />
	<path style="fill:none;stroke:red;stroke-width:1px;stroke-linecap:butt;stroke-linejoin:miter;stroke-opacity:1" d="M 620.571,579.418 626.346,583.75 z" id="boundary" inkscape:connector-curvature="0" />
	<path style="fill:none;stroke:red;stroke-width:1px;stroke-linecap:butt;stroke-linejoin:miter;stroke-opacity:1" d="M 626.346,583.75 631.4,589.525 z" id="boundary" inkscape:connector-curvature="0" />
	<path style="fill:none;stroke:red;stroke-width:1px;stroke-linecap:butt;stroke-linejoin:miter;stroke-opacity:1" d="M 637.898,593.135 631.4,589.525 z" id="boundary" inkscape:connector-curvature="0" />
	<path style="fill:none;stroke:red;stroke-width:1px;stroke-linecap:butt;stroke-linejoin:miter;stroke-opacity:1" d="M 614.795,575.086 620.571,579.418 z" id="boundary" inkscape:connector-curvature="0" />
	<path style="fill:none;stroke:red;stroke-width:1px;stroke-linecap:butt;stroke-linejoin:miter;stroke-opacity:1" d="M 647.284,533.933 653.782,537.543 z" id="boundary" inkscape:connector-curvature="0" />
	<path style="fill:none;stroke:red;stroke-width:1px;stroke-linecap:butt;stroke-linejoin:miter;stroke-opacity:1" d="M 653.782,537.543 659.557,542.597 z" id="boundary" inkscape:connector-curvature="0" />
	<path style="fill:none;stroke:red;stroke-width:1px;stroke-linecap:butt;stroke-linejoin:miter;stroke-opacity:1" d="M 637.898,593.135 642.952,598.911 z" id="boundary" inkscape:connector-curvature="0" />
	<path style="fill:none;stroke:red;stroke-width:1px;stroke-linecap:butt;stroke-linejoin:miter;stroke-opacity:1" d="M 659.557,542.597 665.333,546.929 z" id="boundary" inkscape:connector-curvature="0" />
	<path style="fill:none;stroke:red;stroke-width:1px;stroke-linecap:butt;stroke-linejoin:miter;stroke-opacity:1" d="M 665.333,546.929 669.665,552.705 z" id="boundary" inkscape:connector-curvature="0" />
	<path style="fill:none;stroke:red;stroke-width:1px;stroke-linecap:butt;stroke-linejoin:miter;stroke-opacity:1" d="M 675.441,557.036 669.665,552.705 z" id="boundary" inkscape:connector-curvature="0" />
	<path style="fill:none;stroke:red;stroke-width:1px;stroke-linecap:butt;stroke-linejoin:miter;stroke-opacity:1" d="M 675.441,557.036 681.217,561.368 z" id="boundary" inkscape:connector-curvature="0" />
	<path style="fill:none;stroke:red;stroke-width:1px;stroke-linecap:butt;stroke-linejoin:miter;stroke-opacity:1" d="M 686.993,565.7 681.217,561.368 z" id="boundary" inkscape:connector-curvature="0" />
	<path style="fill:none;stroke:red;stroke-width:1px;stroke-linecap:butt;stroke-linejoin:miter;stroke-opacity:1" d="M 686.993,565.7 691.325,571.476 z" id="boundary" inkscape:connector-curvature="0" />
	<path style="fill:none;stroke:red;stroke-width:1px;stroke-linecap:butt;stroke-linejoin:miter;stroke-opacity:1" d="M 691.325,571.476 697.1,575.808 z" id="boundary" inkscape:connector-curvature="0" />
	<path style="fill:none;stroke:red;stroke-width:1px;stroke-linecap:butt;stroke-linejoin:miter;stroke-opacity:1" d="M 702.154,581.584 697.1,575.808 z" id="boundary" inkscape:connector-curvature="0" />
	<path style="fill:none;stroke:red;stroke-width:1px;stroke-linecap:butt;stroke-linejoin:miter;stroke-opacity:1" d="M 708.652,585.194 702.154,581.584 z" id="boundary" inkscape:connector-curvature="0" />
	<path style="fill:none;stroke:red;stroke-width:1px;stroke-linecap:butt;stroke-linejoin:miter;stroke-opacity:1" d="M 720.926,593.857 714.428,590.247 z" id="boundary" inkscape:connector-curvature="0" />
	<path style="fill:none;stroke:red;stroke-width:1px;stroke-linecap:butt;stroke-linejoin:miter;stroke-opacity:1" d="M 714.428,590.247 708.652,585.194 z" id="boundary" inkscape:connector-curvature="0" />
	<path style="fill:none;stroke:red;stroke-width:1px;stroke-linecap:butt;stroke-linejoin:miter;stroke-opacity:1" d="M 720.926,593.857 725.258,599.633 z" id="boundary" inkscape:connector-curvature="0" />
	<path style="fill:none;stroke:red;stroke-width:1px;stroke-linecap:butt;stroke-linejoin:miter;stroke-opacity:1" d="M 642.952,598.911 649.45,602.521 z" id="boundary" inkscape:connector-curvature="0" />
	<path style="fill:none;stroke:red;stroke-width:1px;stroke-linecap:butt;stroke-linejoin:miter;stroke-opacity:1" d="M 665.333,616.961 659.557,612.629 z" id="boundary" inkscape:connector-curvature="0" />
	<path style="fill:none;stroke:red;stroke-width:1px;stroke-linecap:butt;stroke-linejoin:miter;stroke-opacity:1" d="M 659.557,612.629 655.226,606.853 z" id="boundary" inkscape:connector-curvature="0" />
	<path style="fill:none;stroke:red;stroke-width:1px;stroke-linecap:butt;stroke-linejoin:miter;stroke-opacity:1" d="M 665.333,616.961 670.387,622.737 z" id="boundary" inkscape:connector-curvature="0" />
	<path style="fill:none;stroke:red;stroke-width:1px;stroke-linecap:butt;stroke-linejoin:miter;stroke-opacity:1" d="M 649.45,602.521 655.226,606.853 z" id="boundary" inkscape:connector-curvature="0" />
	<path style="fill:none;stroke:red;stroke-width:1px;stroke-linecap:butt;stroke-linejoin:miter;stroke-opacity:1" d="M 670.387,622.737 677.607,625.624 z" id="boundary" inkscape:connector-curvature="0" />
	<path style="fill:none;stroke:red;stroke-width:1px;stroke-linecap:butt;stroke-linejoin:miter;stroke-opacity:1" d="M 677.607,625.624 681.939,631.4 z" id="boundary" inkscape:connector-curvature="0" />
	<path style="fill:none;stroke:red;stroke-width:1px;stroke-linecap:butt;stroke-linejoin:miter;stroke-opacity:1" d="M 687.715,636.454 681.939,631.4 z" id="boundary" inkscape:connector-curvature="0" />
	<path style="fill:none;stroke:red;stroke-width:1px;stroke-linecap:butt;stroke-linejoin:miter;stroke-opacity:1" d="M 699.988,645.118 693.491,641.508 z" id="boundary" inkscape:connector-curvature="0" />
	<path style="fill:none;stroke:red;stroke-width:1px;stroke-linecap:butt;stroke-linejoin:miter;stroke-opacity:1" d="M 693.491,641.508 687.715,636.454 z" id="boundary" inkscape:connector-curvature="0" />
	<path style="fill:none;stroke:red;stroke-width:1px;stroke-linecap:butt;stroke-linejoin:miter;stroke-opacity:1" d="M 699.988,645.118 703.598,651.616 z" id="boundary" inkscape:connector-curvature="0" />
	<path style="fill:none;stroke:red;stroke-width:1px;stroke-linecap:butt;stroke-linejoin:miter;stroke-opacity:1" d="M 731.033,604.687 725.258,599.633 z" id="boundary" inkscape:connector-curvature="0" />
	<path style="fill:none;stroke:red;stroke-width:1px;stroke-linecap:butt;stroke-linejoin:miter;stroke-opacity:1" d="M 736.809,609.019 731.033,604.687 z" id="boundary" inkscape:connector-curvature="0" />
	<path style="fill:none;stroke:red;stroke-width:1px;stroke-linecap:butt;stroke-linejoin:miter;stroke-opacity:1" d="M 736.809,609.019 742.585,614.073 z" id="boundary" inkscape:connector-curvature="0" />
	<path style="fill:none;stroke:red;stroke-width:1px;stroke-linecap:butt;stroke-linejoin:miter;stroke-opacity:1" d="M 742.585,614.073 748.361,618.405 z" id="boundary" inkscape:connector-curvature="0" />
	<path style="fill:none;stroke:red;stroke-width:1px;stroke-linecap:butt;stroke-linejoin:miter;stroke-opacity:1" d="M 748.361,618.405 752.693,624.18 z" id="boundary" inkscape:connector-curvature="0" />
	<path style="fill:none;stroke:red;stroke-width:1px;stroke-linecap:butt;stroke-linejoin:miter;stroke-opacity:1" d="M 710.096,655.226 703.598,651.616 z" id="boundary" inkscape:connector-curvature="0" />
	<path style="fill:none;stroke:red;stroke-width:1px;stroke-linecap:butt;stroke-linejoin:miter;stroke-opacity:1" d="M 752.693,624.18 758.469,629.234 z" id="boundary" inkscape:connector-curvature="0" />
	<path style="fill:none;stroke:red;stroke-width:1px;stroke-linecap:butt;stroke-linejoin:miter;stroke-opacity:1" d="M 764.967,632.844 758.469,629.234 z" id="boundary" inkscape:connector-curvature="0" />
	<path style="fill:none;stroke:red;stroke-width:1px;stroke-linecap:butt;stroke-linejoin:miter;stroke-opacity:1" d="M 764.967,632.844 769.298,638.62 z" id="boundary" inkscape:connector-curvature="0" />
	<path style="fill:none;stroke:red;stroke-width:1px;stroke-linecap:butt;stroke-linejoin:miter;stroke-opacity:1" d="M 769.298,638.62 775.796,642.23 z" id="boundary" inkscape:connector-curvature="0" />
	<path style="fill:none;stroke:red;stroke-width:1px;stroke-linecap:butt;stroke-linejoin:miter;stroke-opacity:1" d="M 775.796,642.23 780.85,648.006 z" id="boundary" inkscape:connector-curvature="0" />
	<path style="fill:none;stroke:red;stroke-width:1px;stroke-linecap:butt;stroke-linejoin:miter;stroke-opacity:1" d="M 787.348,651.616 780.85,648.006 z" id="boundary" inkscape:connector-curvature="0" />
	<path style="fill:none;stroke:red;stroke-width:1px;stroke-linecap:butt;stroke-linejoin:miter;stroke-opacity:1" d="M 715.872,659.557 710.096,655.226 z" id="boundary" inkscape:connector-curvature="0" />
	<path style="fill:none;stroke:red;stroke-width:1px;stroke-linecap:butt;stroke-linejoin:miter;stroke-opacity:1" d="M 721.648,663.889 727.424,668.943 z" id="boundary" inkscape:connector-curvature="0" />
	<path style="fill:none;stroke:red;stroke-width:1px;stroke-linecap:butt;stroke-linejoin:miter;stroke-opacity:1" d="M 727.424,668.943 731.755,674.719 z" id="boundary" inkscape:connector-curvature="0" />
	<path style="fill:none;stroke:red;stroke-width:1px;stroke-linecap:butt;stroke-linejoin:miter;stroke-opacity:1" d="M 736.809,680.495 731.755,674.719 z" id="boundary" inkscape:connector-curvature="0" />
	<path style="fill:none;stroke:red;stroke-width:1px;stroke-linecap:butt;stroke-linejoin:miter;stroke-opacity:1" d="M 715.872,659.557 721.648,663.889 z" id="boundary" inkscape:connector-curvature="0" />
	<path style="fill:none;stroke:red;stroke-width:1px;stroke-linecap:butt;stroke-linejoin:miter;stroke-opacity:1" d="M 742.585,684.827 736.809,680.495 z" id="boundary" inkscape:connector-curvature="0" />
	<path style="fill:none;stroke:red;stroke-width:1px;stroke-linecap:butt;stroke-linejoin:miter;stroke-opacity:1" d="M 749.083,688.437 742.585,684.827 z" id="boundary" inkscape:connector-curvature="0" />
	<path style="fill:none;stroke:red;stroke-width:1px;stroke-linecap:butt;stroke-linejoin:miter;stroke-opacity:1" d="M 749.083,688.437 754.859,693.491 z" id="boundary" inkscape:connector-curvature="0" />
	<path style="fill:none;stroke:red;stroke-width:1px;stroke-linecap:butt;stroke-linejoin:miter;stroke-opacity:1" d="M 754.859,693.491 760.635,697.822 z" id="boundary" inkscape:connector-curvature="0" />
	<path style="fill:none;stroke:red;stroke-width:1px;stroke-linecap:butt;stroke-linejoin:miter;stroke-opacity:1" d="M 760.635,697.822 764.967,703.598 z" id="boundary" inkscape:connector-curvature="0" />
	<path style="fill:none;stroke:red;stroke-width:1px;stroke-linecap:butt;stroke-linejoin:miter;stroke-opacity:1" d="M 770.742,707.93 764.967,703.598 z" id="boundary" inkscape:connector-curvature="0" />
	<path style="fill:none;stroke:red;stroke-width:1px;stroke-linecap:butt;stroke-linejoin:miter;stroke-opacity:1" d="M 793.124,656.67 797.456,662.445 z" id="boundary" inkscape:connector-curvature="0" />
	<path style="fill:none;stroke:red;stroke-width:1px;stroke-linecap:butt;stroke-linejoin:miter;stroke-opacity:1" d="M 797.456,662.445 802.509,668.221 z" id="boundary" inkscape:connector-curvature="0" />
	<path style="fill:none;stroke:red;stroke-width:1px;stroke-linecap:butt;stroke-linejoin:miter;stroke-opacity:1" d="M 808.285,672.553 802.509,668.221 z" id="boundary" inkscape:connector-curvature="0" />
	<path style="fill:none;stroke:red;stroke-width:1px;stroke-linecap:butt;stroke-linejoin:miter;stroke-opacity:1" d="M 814.783,676.163 808.285,672.553 z" id="boundary" inkscape:connector-curvature="0" />
	<path style="fill:none;stroke:red;stroke-width:1px;stroke-linecap:butt;stroke-linejoin:miter;stroke-opacity:1" d="M 787.348,651.616 793.124,656.67 z" id="boundary" inkscape:connector-curvature="0" />
	<path style="fill:none;stroke:red;stroke-width:1px;stroke-linecap:butt;stroke-linejoin:miter;stroke-opacity:1" d="M 820.559,681.217 826.335,685.549 z" id="boundary" inkscape:connector-curvature="0" />
	<path style="fill:none;stroke:red;stroke-width:1px;stroke-linecap:butt;stroke-linejoin:miter;stroke-opacity:1" d="M 826.335,685.549 830.667,691.325 z" id="boundary" inkscape:connector-curvature="0" />
	<path style="fill:none;stroke:red;stroke-width:1px;stroke-linecap:butt;stroke-linejoin:miter;stroke-opacity:1" d="M 820.559,681.217 814.783,676.163 z" id="boundary" inkscape:connector-curvature="0" />
	<path style="fill:none;stroke:red;stroke-width:1px;stroke-linecap:butt;stroke-linejoin:miter;stroke-opacity:1" d="M 836.443,696.378 830.667,691.325 z" id="boundary" inkscape:connector-curvature="0" />
	<path style="fill:none;stroke:red;stroke-width:1px;stroke-linecap:butt;stroke-linejoin:miter;stroke-opacity:1" d="M 854.492,709.374 847.272,707.208 z" id="boundary" inkscape:connector-curvature="0" />
	<path style="fill:none;stroke:red;stroke-width:1px;stroke-linecap:butt;stroke-linejoin:miter;stroke-opacity:1" d="M 847.272,707.208 841.496,702.154 z" id="boundary" inkscape:connector-curvature="0" />
	<path style="fill:none;stroke:red;stroke-width:1px;stroke-linecap:butt;stroke-linejoin:miter;stroke-opacity:1" d="M 841.496,702.154 836.443,696.378 z" id="boundary" inkscape:connector-curvature="0" />
	<path style="fill:none;stroke:red;stroke-width:1px;stroke-linecap:butt;stroke-linejoin:miter;stroke-opacity:1" d="M 770.742,707.93 775.074,713.706 z" id="boundary" inkscape:connector-curvature="0" />
	<path style="fill:none;stroke:red;stroke-width:1px;stroke-linecap:butt;stroke-linejoin:miter;stroke-opacity:1" d="M 780.85,718.038 775.074,713.706 z" id="boundary" inkscape:connector-curvature="0" />
	<path style="fill:none;stroke:red;stroke-width:1px;stroke-linecap:butt;stroke-linejoin:miter;stroke-opacity:1" d="M 791.68,728.146 785.904,723.814 z" id="boundary" inkscape:connector-curvature="0" />
	<path style="fill:none;stroke:red;stroke-width:1px;stroke-linecap:butt;stroke-linejoin:miter;stroke-opacity:1" d="M 785.904,723.814 780.85,718.038 z" id="boundary" inkscape:connector-curvature="0" />
	<path style="fill:none;stroke:red;stroke-width:1px;stroke-linecap:butt;stroke-linejoin:miter;stroke-opacity:1" d="M 798.9,731.033 791.68,728.146 z" id="boundary" inkscape:connector-curvature="0" />
	<path style="fill:none;stroke:red;stroke-width:1px;stroke-linecap:butt;stroke-linejoin:miter;stroke-opacity:1" d="M 809.729,740.419 803.231,736.809 z" id="boundary" inkscape:connector-curvature="0" />
	<path style="fill:none;stroke:red;stroke-width:1px;stroke-linecap:butt;stroke-linejoin:miter;stroke-opacity:1" d="M 803.231,736.809 798.9,731.033 z" id="boundary" inkscape:connector-curvature="0" />
	<path style="fill:none;stroke:red;stroke-width:1px;stroke-linecap:butt;stroke-linejoin:miter;stroke-opacity:1" d="M 809.729,740.419 814.061,746.195 z" id="boundary" inkscape:connector-curvature="0" />
	<path style="fill:none;stroke:red;stroke-width:1px;stroke-linecap:butt;stroke-linejoin:miter;stroke-opacity:1" d="M 825.613,754.859 818.393,751.971 z" id="boundary" inkscape:connector-curvature="0" />
	<path style="fill:none;stroke:red;stroke-width:1px;stroke-linecap:butt;stroke-linejoin:miter;stroke-opacity:1" d="M 818.393,751.971 814.061,746.195 z" id="boundary" inkscape:connector-curvature="0" />
	<path style="fill:none;stroke:red;stroke-width:1px;stroke-linecap:butt;stroke-linejoin:miter;stroke-opacity:1" d="M 825.613,754.859 829.945,760.635 z" id="boundary" inkscape:connector-curvature="0" />
	<path style="fill:none;stroke:red;stroke-width:1px;stroke-linecap:butt;stroke-linejoin:miter;stroke-opacity:1" d="M 837.164,762.801 829.945,760.635 z" id="boundary" inkscape:connector-curvature="0" />
	<path style="fill:none;stroke:red;stroke-width:1px;stroke-linecap:butt;stroke-linejoin:miter;stroke-opacity:1" d="M 837.164,762.801 841.496,768.576 z" id="boundary" inkscape:connector-curvature="0" />
	<path style="fill:none;stroke:red;stroke-width:1px;stroke-linecap:butt;stroke-linejoin:miter;stroke-opacity:1" d="M 864.6,719.482 870.376,724.536 z" id="boundary" inkscape:connector-curvature="0" />
	<path style="fill:none;stroke:red;stroke-width:1px;stroke-linecap:butt;stroke-linejoin:miter;stroke-opacity:1" d="M 864.6,719.482 858.102,715.872 z" id="boundary" inkscape:connector-curvature="0" />
	<path style="fill:none;stroke:red;stroke-width:1px;stroke-linecap:butt;stroke-linejoin:miter;stroke-opacity:1" d="M 858.102,715.872 854.492,709.374 z" id="boundary" inkscape:connector-curvature="0" />
	<path style="fill:none;stroke:red;stroke-width:1px;stroke-linecap:butt;stroke-linejoin:miter;stroke-opacity:1" d="M 846.55,774.352 850.882,780.128 z" id="boundary" inkscape:connector-curvature="0" />
	<path style="fill:none;stroke:red;stroke-width:1px;stroke-linecap:butt;stroke-linejoin:miter;stroke-opacity:1" d="M 846.55,774.352 841.496,768.576 z" id="boundary" inkscape:connector-curvature="0" />
	<path style="fill:none;stroke:red;stroke-width:1px;stroke-linecap:butt;stroke-linejoin:miter;stroke-opacity:1" d="M 856.658,784.46 850.882,780.128 z" id="boundary" inkscape:connector-curvature="0" />
	<path style="fill:none;stroke:red;stroke-width:1px;stroke-linecap:butt;stroke-linejoin:miter;stroke-opacity:1" d="M 867.488,793.846 860.99,790.236 z" id="boundary" inkscape:connector-curvature="0" />
	<path style="fill:none;stroke:red;stroke-width:1px;stroke-linecap:butt;stroke-linejoin:miter;stroke-opacity:1" d="M 860.99,790.236 856.658,784.46 z" id="boundary" inkscape:connector-curvature="0" />
	<path style="fill:none;stroke:red;stroke-width:1px;stroke-linecap:butt;stroke-linejoin:miter;stroke-opacity:1" d="M 867.488,793.846 872.541,799.622 z" id="boundary" inkscape:connector-curvature="0" />
	<path style="fill:none;stroke:red;stroke-width:1px;stroke-linecap:butt;stroke-linejoin:miter;stroke-opacity:1" d="M 870.376,724.536 874.707,730.311 z" id="boundary" inkscape:connector-curvature="0" />
	<path style="fill:none;stroke:red;stroke-width:1px;stroke-linecap:butt;stroke-linejoin:miter;stroke-opacity:1" d="M 880.483,734.643 886.259,739.697 z" id="boundary" inkscape:connector-curvature="0" />
	<path style="fill:none;stroke:red;stroke-width:1px;stroke-linecap:butt;stroke-linejoin:miter;stroke-opacity:1" d="M 880.483,734.643 874.707,730.311 z" id="boundary" inkscape:connector-curvature="0" />
	<path style="fill:none;stroke:red;stroke-width:1px;stroke-linecap:butt;stroke-linejoin:miter;stroke-opacity:1" d="M 886.259,739.697 892.757,743.307 z" id="boundary" inkscape:connector-curvature="0" />
	<path style="fill:none;stroke:red;stroke-width:1px;stroke-linecap:butt;stroke-linejoin:miter;stroke-opacity:1" d="M 892.757,743.307 896.367,749.805 z" id="boundary" inkscape:connector-curvature="0" />
	<path style="fill:none;stroke:red;stroke-width:1px;stroke-linecap:butt;stroke-linejoin:miter;stroke-opacity:1" d="M 902.143,754.137 896.367,749.805 z" id="boundary" inkscape:connector-curvature="0" />
	<path style="fill:none;stroke:red;stroke-width:1px;stroke-linecap:butt;stroke-linejoin:miter;stroke-opacity:1" d="M 872.541,799.622 878.317,803.953 z" id="boundary" inkscape:connector-curvature="0" />
	<path style="fill:none;stroke:red;stroke-width:1px;stroke-linecap:butt;stroke-linejoin:miter;stroke-opacity:1" d="M 884.093,808.285 878.317,803.953 z" id="boundary" inkscape:connector-curvature="0" />
	<path style="fill:none;stroke:red;stroke-width:1px;stroke-linecap:butt;stroke-linejoin:miter;stroke-opacity:1" d="M 884.093,808.285 889.869,813.339 z" id="boundary" inkscape:connector-curvature="0" />
	<path style="fill:none;stroke:red;stroke-width:1px;stroke-linecap:butt;stroke-linejoin:miter;stroke-opacity:1" d="M 913.694,763.523 907.197,759.913 z" id="boundary" inkscape:connector-curvature="0" />
	<path style="fill:none;stroke:red;stroke-width:1px;stroke-linecap:butt;stroke-linejoin:miter;stroke-opacity:1" d="M 907.197,759.913 902.143,754.137 z" id="boundary" inkscape:connector-curvature="0" />
	<path style="fill:none;stroke:red;stroke-width:1px;stroke-linecap:butt;stroke-linejoin:miter;stroke-opacity:1" d="M 923.802,773.63 918.026,769.298 z" id="boundary" inkscape:connector-curvature="0" />
	<path style="fill:none;stroke:red;stroke-width:1px;stroke-linecap:butt;stroke-linejoin:miter;stroke-opacity:1" d="M 918.026,769.298 913.694,763.523 z" id="boundary" inkscape:connector-curvature="0" />
	<path style="fill:none;stroke:red;stroke-width:1px;stroke-linecap:butt;stroke-linejoin:miter;stroke-opacity:1" d="M 930.3,777.24 923.802,773.63 z" id="boundary" inkscape:connector-curvature="0" />
	<path style="fill:none;stroke:red;stroke-width:1px;stroke-linecap:butt;stroke-linejoin:miter;stroke-opacity:1" d="M 895.645,818.393 889.869,813.339 z" id="boundary" inkscape:connector-curvature="0" />
	<path style="fill:none;stroke:red;stroke-width:1px;stroke-linecap:butt;stroke-linejoin:miter;stroke-opacity:1" d="M 940.408,787.348 934.632,783.016 z" id="boundary" inkscape:connector-curvature="0" />
	<path style="fill:none;stroke:red;stroke-width:1px;stroke-linecap:butt;stroke-linejoin:miter;stroke-opacity:1" d="M 934.632,783.016 930.3,777.24 z" id="boundary" inkscape:connector-curvature="0" />
	<path style="fill:none;stroke:red;stroke-width:1px;stroke-linecap:butt;stroke-linejoin:miter;stroke-opacity:1" d="M 946.183,792.402 951.959,796.734 z" id="boundary" inkscape:connector-curvature="0" />
	<path style="fill:none;stroke:red;stroke-width:1px;stroke-linecap:butt;stroke-linejoin:miter;stroke-opacity:1" d="M 946.183,792.402 940.408,787.348 z" id="boundary" inkscape:connector-curvature="0" />
	<path style="fill:none;stroke:red;stroke-width:1px;stroke-linecap:butt;stroke-linejoin:miter;stroke-opacity:1" d="M 957.013,802.509 951.959,796.734 z" id="boundary" inkscape:connector-curvature="0" />
	<path style="fill:none;stroke:red;stroke-width:1px;stroke-linecap:butt;stroke-linejoin:miter;stroke-opacity:1" d="M 962.789,806.841 957.013,802.509 z" id="boundary" inkscape:connector-curvature="0" />
	<path style="fill:none;stroke:red;stroke-width:1px;stroke-linecap:butt;stroke-linejoin:miter;stroke-opacity:1" d="M 962.789,806.841 968.565,811.173 z" id="boundary" inkscape:connector-curvature="0" />
	<path style="fill:none;stroke:red;stroke-width:1px;stroke-linecap:butt;stroke-linejoin:miter;stroke-opacity:1" d="M 974.341,816.227 968.565,811.173 z" id="boundary" inkscape:connector-curvature="0" />
	<path style="fill:none;stroke:red;stroke-width:1px;stroke-linecap:butt;stroke-linejoin:miter;stroke-opacity:1" d="M 895.645,818.393 901.421,822.725 z" id="boundary" inkscape:connector-curvature="0" />
	<path style="fill:none;stroke:red;stroke-width:1px;stroke-linecap:butt;stroke-linejoin:miter;stroke-opacity:1" d="M 901.421,822.725 905.753,828.501 z" id="boundary" inkscape:connector-curvature="0" />
	<path style="fill:none;stroke:red;stroke-width:1px;stroke-linecap:butt;stroke-linejoin:miter;stroke-opacity:1" d="M 905.753,828.501 911.528,832.833 z" id="boundary" inkscape:connector-curvature="0" />
	<path style="fill:none;stroke:red;stroke-width:1px;stroke-linecap:butt;stroke-linejoin:miter;stroke-opacity:1" d="M 911.528,832.833 917.304,837.886 z" id="boundary" inkscape:connector-curvature="0" />
	<path style="fill:none;stroke:red;stroke-width:1px;stroke-linecap:butt;stroke-linejoin:miter;stroke-opacity:1" d="M 917.304,837.886 921.636,843.662 z" id="boundary" inkscape:connector-curvature="0" />
	<path style="fill:none;stroke:red;stroke-width:1px;stroke-linecap:butt;stroke-linejoin:miter;stroke-opacity:1" d="M 921.636,843.662 928.856,846.55 z" id="boundary" inkscape:connector-curvature="0" />
	<path style="fill:none;stroke:red;stroke-width:1px;stroke-linecap:butt;stroke-linejoin:miter;stroke-opacity:1" d="M 928.856,846.55 934.632,851.604 z" id="boundary" inkscape:connector-curvature="0" />
	<path style="fill:none;stroke:red;stroke-width:1px;stroke-linecap:butt;stroke-linejoin:miter;stroke-opacity:1" d="M 934.632,851.604 938.964,857.38 z" id="boundary" inkscape:connector-curvature="0" />
	<path style="fill:none;stroke:red;stroke-width:1px;stroke-linecap:butt;stroke-linejoin:miter;stroke-opacity:1" d="M 938.964,857.38 944.739,861.712 z" id="boundary" inkscape:connector-curvature="0" />
	<path style="fill:none;stroke:red;stroke-width:1px;stroke-linecap:butt;stroke-linejoin:miter;stroke-opacity:1" d="M 950.515,866.044 944.739,861.712 z" id="boundary" inkscape:connector-curvature="0" />
	<path style="fill:none;stroke:red;stroke-width:1px;stroke-linecap:butt;stroke-linejoin:miter;stroke-opacity:1" d="M 980.116,821.281 985.892,825.613 z" id="boundary" inkscape:connector-curvature="0" />
	<path style="fill:none;stroke:red;stroke-width:1px;stroke-linecap:butt;stroke-linejoin:miter;stroke-opacity:1" d="M 980.116,821.281 974.341,816.227 z" id="boundary" inkscape:connector-curvature="0" />
	<path style="fill:none;stroke:red;stroke-width:1px;stroke-linecap:butt;stroke-linejoin:miter;stroke-opacity:1" d="M 985.892,825.613 990.224,831.389 z" id="boundary" inkscape:connector-curvature="0" />
	<path style="fill:none;stroke:red;stroke-width:1px;stroke-linecap:butt;stroke-linejoin:miter;stroke-opacity:1" d="M 993.834,837.886 996,845.106 z" id="boundary" inkscape:connector-curvature="0" />
	<path style="fill:none;stroke:red;stroke-width:1px;stroke-linecap:butt;stroke-linejoin:miter;stroke-opacity:1" d="M 990.224,831.389 993.834,837.886 z" id="boundary" inkscape:connector-curvature="0" />
	<path style="fill:none;stroke:red;stroke-width:1px;stroke-linecap:butt;stroke-linejoin:miter;stroke-opacity:1" d="M 996,845.106 996,852.326 z" id="boundary" inkscape:connector-curvature="0" />
	<path style="fill:none;stroke:red;stroke-width:1px;stroke-linecap:butt;stroke-linejoin:miter;stroke-opacity:1" d="M 996,852.326 992.39,858.824 z" id="boundary" inkscape:connector-curvature="0" />
	<path style="fill:none;stroke:red;stroke-width:1px;stroke-linecap:butt;stroke-linejoin:miter;stroke-opacity:1" d="M 957.735,868.21 964.955,867.488 z" id="boundary" inkscape:connector-curvature="0" />
	<path style="fill:none;stroke:red;stroke-width:1px;stroke-linecap:butt;stroke-linejoin:miter;stroke-opacity:1" d="M 964.955,867.488 972.175,868.21 z" id="boundary" inkscape:connector-curvature="0" />
	<path style="fill:none;stroke:red;stroke-width:1px;stroke-linecap:butt;stroke-linejoin:miter;stroke-opacity:1" d="M 957.735,868.21 950.515,866.044 z" id="boundary" inkscape:connector-curvature="0" />
	<path style="fill:none;stroke:red;stroke-width:1px;stroke-linecap:butt;stroke-linejoin:miter;stroke-opacity:1" d="M 979.394,866.044 972.175,868.21 z" id="boundary" inkscape:connector-curvature="0" />
	<path style="fill:none;stroke:red;stroke-width:1px;stroke-linecap:butt;stroke-linejoin:miter;stroke-opacity:1" d="M 992.39,858.824 986.614,863.878 z" id="boundary" inkscape:connector-curvature="0" />
	<path style="fill:none;stroke:red;stroke-width:1px;stroke-linecap:butt;stroke-linejoin:miter;stroke-opacity:1" d="M 986.614,863.878 979.394,866.044 z" id="boundary" inkscape:connector-curvature="0" />
	<circle cx="4" cy="91.3595" r="4" fill="#0" id="circle0"/>
	<circle cx="4.72198" cy="77.6419" r="4" fill="#0" id="circle1"/>
	<circle cx="4.72198" cy="102.189" r="4" fill="#0" id="circle2"/>
	<circle cx="5.44396" cy="109.409" r="4" fill="#0" id="circle3"/>
	<circle cx="6.16594" cy="116.629" r="4" fill="#0" id="circle4"/>
	<circle cx="6.88792" cy="69.7001" r="4" fill="#0" id="circle5"/>
	<circle cx="6.88792" cy="123.849" r="4" fill="#0" id="circle6"/>
	<circle cx="8.33188" cy="60.3144" r="4" fill="#0" id="circle7"/>
	<circle cx="8.33188" cy="131.068" r="4" fill="#0" id="circle8"/>
	<circle cx="12.6638" cy="53.0946" r="4" fill="#0" id="circle9"/>
	<circle cx="12.6638" cy="136.844" r="4" fill="#0" id="circle10"/>
	<circle cx="14.1077" cy="144.064" r="4" fill="#0" id="circle11"/>
	<circle cx="16.9956" cy="46.5968" r="4" fill="#0" id="circle12"/>
	<circle cx="16.9956" cy="151.284" r="4" fill="#0" id="circle13"/>
	<circle cx="21.3275" cy="39.377" r="4" fill="#0" id="circle14"/>
	<circle cx="22.0495" cy="157.06" r="4" fill="#0" id="circle15"/>
	<circle cx="24.2154" cy="164.279" r="4" fill="#0" id="circle16"/>
	<circle cx="27.1033" cy="34.3231" r="4" fill="#0" id="circle17"/>
	<circle cx="27.1033" cy="171.499" r="4" fill="#0" id="circle18"/>
	<circle cx="32.8792" cy="29.2693" r="4" fill="#0" id="circle19"/>
	<circle cx="32.8792" cy="175.831" r="4" fill="#0" id="circle20"/>
	<circle cx="34.3231" cy="183.051" r="4" fill="#0" id="circle21"/>
	<circle cx="37.933" cy="23.4934" r="4" fill="#0" id="circle22"/>
	<circle cx="38.655" cy="188.827" r="4" fill="#0" id="circle23"/>
	<circle cx="43.7089" cy="194.603" r="4" fill="#0" id="circle24"/>
	<circle cx="44.4309" cy="19.8836" r="4" fill="#0" id="circle25"/>
	<circle cx="47.3188" cy="201.1" r="4" fill="#0" id="circle26"/>
	<circle cx="50.9287" cy="15.5517" r="4" fill="#0" id="circle27"/>
	<circle cx="51.6507" cy="206.876" r="4" fill="#0" id="circle28"/>
	<circle cx="55.9825" cy="212.652" r="4" fill="#0" id="circle29"/>
	<circle cx="58.1485" cy="13.3857" r="4" fill="#0" id="circle30"/>
	<circle cx="58.8705" cy="219.872" r="4" fill="#0" id="circle31"/>
	<circle cx="63.9243" cy="9.05386" r="4" fill="#0" id="circle32"/>
	<circle cx="64.6463" cy="224.926" r="4" fill="#0" id="circle33"/>
	<circle cx="70.4221" cy="229.98" r="4" fill="#0" id="circle34"/>
	<circle cx="71.1441" cy="9.05386" r="4" fill="#0" id="circle35"/>
	<circle cx="75.476" cy="235.755" r="4" fill="#0" id="circle36"/>
	<circle cx="78.3639" cy="6.88792" r="4" fill="#0" id="circle37"/>
	<circle cx="81.2518" cy="240.087" r="4" fill="#0" id="circle38"/>
	<circle cx="85.5837" cy="5.44396" r="4" fill="#0" id="circle39"/>
	<circle cx="87.0277" cy="244.419" r="4" fill="#0" id="circle40"/>
	<circle cx="92.8035" cy="4" r="4" fill="#0" id="circle41"/>
	<circle cx="92.8035" cy="249.473" r="4" fill="#0" id="circle42"/>
	<circle cx="98.5793" cy="254.527" r="4" fill="#0" id="circle43"/>
	<circle cx="100.023" cy="4.72198" r="4" fill="#0" id="circle44"/>
	<circle cx="102.911" cy="260.303" r="4" fill="#0" id="circle45"/>
	<circle cx="107.243" cy="4.72198" r="4" fill="#0" id="circle46"/>
	<circle cx="108.687" cy="265.357" r="4" fill="#0" id="circle47"/>
	<circle cx="114.463" cy="5.44396" r="4" fill="#0" id="circle48"/>
	<circle cx="115.907" cy="268.245" r="4" fill="#0" id="circle49"/>
	<circle cx="121.683" cy="6.88792" r="4" fill="#0" id="circle50"/>
	<circle cx="121.683" cy="272.576" r="4" fill="#0" id="circle51"/>
	<circle cx="128.18" cy="276.186" r="4" fill="#0" id="circle52"/>
	<circle cx="128.902" cy="7.6099" r="4" fill="#0" id="circle53"/>
	<circle cx="133.956" cy="281.24" r="4" fill="#0" id="circle54"/>
	<circle cx="136.122" cy="9.77584" r="4" fill="#0" id="circle55"/>
	<circle cx="140.454" cy="284.85" r="4" fill="#0" id="circle56"/>
	<circle cx="143.342" cy="11.9418" r="4" fill="#0" id="circle57"/>
	<circle cx="146.952" cy="288.46" r="4" fill="#0" id="circle58"/>
	<circle cx="150.562" cy="14.1077" r="4" fill="#0" id="circle59"/>
	<circle cx="152.728" cy="292.792" r="4" fill="#0" id="circle60"/>
	<circle cx="157.782" cy="16.9956" r="4" fill="#0" id="circle61"/>
	<circle cx="159.226" cy="296.402" r="4" fill="#0" id="circle62"/>
	<circle cx="165.001" cy="19.1616" r="4" fill="#0" id="circle63"/>
	<circle cx="166.445" cy="298.568" r="4" fill="#0" id="circle64"/>
	<circle cx="172.221" cy="22.0495" r="4" fill="#0" id="circle65"/>
	<circle cx="172.943" cy="302.178" r="4" fill="#0" id="circle66"/>
	<circle cx="178.719" cy="25.6594" r="4" fill="#0" id="circle67"/>
	<circle cx="179.441" cy="305.787" r="4" fill="#0" id="circle68"/>
	<circle cx="185.939" cy="28.5473" r="4" fill="#0" id="circle69"/>
	<circle cx="186.661" cy="308.675" r="4" fill="#0" id="circle70"/>
	<circle cx="191.715" cy="32.8792" r="4" fill="#0" id="circle71"/>
	<circle cx="193.881" cy="310.119" r="4" fill="#0" id="circle72"/>
	<circle cx="198.213" cy="36.4891" r="4" fill="#0" id="circle73"/>
	<circle cx="201.1" cy="312.285" r="4" fill="#0" id="circle74"/>
	<circle cx="204.71" cy="40.099" r="4" fill="#0" id="circle75"/>
	<circle cx="208.32" cy="315.173" r="4" fill="#0" id="circle76"/>
	<circle cx="211.208" cy="43.7089" r="4" fill="#0" id="circle77"/>
	<circle cx="214.096" cy="319.505" r="4" fill="#0" id="circle78"/>
	<circle cx="216.984" cy="48.0408" r="4" fill="#0" id="circle79"/>
	<circle cx="221.316" cy="322.393" r="4" fill="#0" id="circle80"/>
	<circle cx="223.482" cy="51.6507" r="4" fill="#0" id="circle81"/>
	<circle cx="227.814" cy="57.4265" r="4" fill="#0" id="circle82"/>
	<circle cx="228.536" cy="321.671" r="4" fill="#0" id="circle83"/>
	<circle cx="234.311" cy="61.0364" r="4" fill="#0" id="circle84"/>
	<circle cx="235.755" cy="324.559" r="4" fill="#0" id="circle85"/>
	<circle cx="239.365" cy="66.8122" r="4" fill="#0" id="circle86"/>
	<circle cx="242.975" cy="327.447" r="4" fill="#0" id="circle87"/>
	<circle cx="245.863" cy="70.4221" r="4" fill="#0" id="circle88"/>
	<circle cx="250.195" cy="330.335" r="4" fill="#0" id="circle89"/>
	<circle cx="251.639" cy="75.476" r="4" fill="#0" id="circle90"/>
	<circle cx="255.971" cy="81.2518" r="4" fill="#0" id="circle91"/>
	<circle cx="257.415" cy="331.057" r="4" fill="#0" id="circle92"/>
	<circle cx="262.469" cy="84.8617" r="4" fill="#0" id="circle93"/>
	<circle cx="263.913" cy="334.667" r="4" fill="#0" id="circle94"/>
	<circle cx="268.245" cy="89.1936" r="4" fill="#0" id="circle95"/>
	<circle cx="271.132" cy="335.389" r="4" fill="#0" id="circle96"/>
	<circle cx="272.576" cy="94.9694" r="4" fill="#0" id="circle97"/>
	<circle cx="277.63" cy="100.745" r="4" fill="#0" id="circle98"/>
	<circle cx="278.352" cy="338.277" r="4" fill="#0" id="circle99"/>
	<circle cx="283.406" cy="105.799" r="4" fill="#0" id="circle100"/>
	<circle cx="285.572" cy="339.721" r="4" fill="#0" id="circle101"/>
	<circle cx="289.182" cy="110.853" r="4" fill="#0" id="circle102"/>
	<circle cx="292.07" cy="343.33" r="4" fill="#0" id="circle103"/>
	<circle cx="292.792" cy="117.351" r="4" fill="#0" id="circle104"/>
	<circle cx="297.846" cy="123.127" r="4" fill="#0" id="circle105"/>
	<circle cx="299.29" cy="344.052" r="4" fill="#0" id="circle106"/>
	<circle cx="301.456" cy="129.624" r="4" fill="#0" id="circle107"/>
	<circle cx="305.787" cy="347.662" r="4" fill="#0" id="circle108"/>
	<circle cx="306.509" cy="135.4" r="4" fill="#0" id="circle109"/>
	<circle cx="310.119" cy="141.898" r="4" fill="#0" id="circle110"/>
	<circle cx="313.007" cy="349.828" r="4" fill="#0" id="circle111"/>
	<circle cx="313.729" cy="148.396" r="4" fill="#0" id="circle112"/>
	<circle cx="318.061" cy="154.172" r="4" fill="#0" id="circle113"/>
	<circle cx="320.227" cy="349.828" r="4" fill="#0" id="circle114"/>
	<circle cx="320.949" cy="161.392" r="4" fill="#0" id="circle115"/>
	<circle cx="325.281" cy="167.167" r="4" fill="#0" id="circle116"/>
	<circle cx="326.725" cy="353.438" r="4" fill="#0" id="circle117"/>
	<circle cx="329.613" cy="172.943" r="4" fill="#0" id="circle118"/>
	<circle cx="333.223" cy="179.441" r="4" fill="#0" id="circle119"/>
	<circle cx="333.945" cy="355.604" r="4" fill="#0" id="circle120"/>
	<circle cx="336.111" cy="186.661" r="4" fill="#0" id="circle121"/>
	<circle cx="338.999" cy="193.881" r="4" fill="#0" id="circle122"/>
	<circle cx="341.164" cy="357.77" r="4" fill="#0" id="circle123"/>
	<circle cx="342.608" cy="200.378" r="4" fill="#0" id="circle124"/>
	<circle cx="346.218" cy="206.876" r="4" fill="#0" id="circle125"/>
	<circle cx="346.94" cy="362.102" r="4" fill="#0" id="circle126"/>
	<circle cx="350.55" cy="212.652" r="4" fill="#0" id="circle127"/>
	<circle cx="351.994" cy="219.872" r="4" fill="#0" id="circle128"/>
	<circle cx="352.716" cy="366.434" r="4" fill="#0" id="circle129"/>
	<circle cx="355.604" cy="226.37" r="4" fill="#0" id="circle130"/>
	<circle cx="357.77" cy="233.59" r="4" fill="#0" id="circle131"/>
	<circle cx="359.936" cy="367.156" r="4" fill="#0" id="circle132"/>
	<circle cx="362.102" cy="239.365" r="4" fill="#0" id="circle133"/>
	<circle cx="364.99" cy="246.585" r="4" fill="#0" id="circle134"/>
	<circle cx="365.712" cy="371.488" r="4" fill="#0" id="circle135"/>
	<circle cx="368.6" cy="253.083" r="4" fill="#0" id="circle136"/>
	<circle cx="371.488" cy="260.303" r="4" fill="#0" id="circle137"/>
	<circle cx="372.932" cy="374.376" r="4" fill="#0" id="circle138"/>
	<circle cx="375.098" cy="266.801" r="4" fill="#0" id="circle139"/>
	<circle cx="378.707" cy="273.298" r="4" fill="#0" id="circle140"/>
	<circle cx="379.429" cy="377.985" r="4" fill="#0" id="circle141"/>
	<circle cx="382.317" cy="279.796" r="4" fill="#0" id="circle142"/>
	<circle cx="385.205" cy="382.317" r="4" fill="#0" id="circle143"/>
	<circle cx="385.927" cy="286.294" r="4" fill="#0" id="circle144"/>
	<circle cx="389.537" cy="292.792" r="4" fill="#0" id="circle145"/>
	<circle cx="390.981" cy="387.371" r="4" fill="#0" id="circle146"/>
	<circle cx="393.147" cy="299.29" r="4" fill="#0" id="circle147"/>
	<circle cx="396.757" cy="392.425" r="4" fill="#0" id="circle148"/>
	<circle cx="397.479" cy="305.066" r="4" fill="#0" id="circle149"/>
	<circle cx="401.811" cy="310.841" r="4" fill="#0" id="circle150"/>
	<circle cx="402.533" cy="396.757" r="4" fill="#0" id="circle151"/>
	<circle cx="403.977" cy="318.061" r="4" fill="#0" id="circle152"/>
	<circle cx="408.309" cy="323.837" r="4" fill="#0" id="circle153"/>
	<circle cx="408.309" cy="401.811" r="4" fill="#0" id="circle154"/>
	<circle cx="412.64" cy="329.613" r="4" fill="#0" id="circle155"/>
	<circle cx="414.806" cy="405.421" r="4" fill="#0" id="circle156"/>
	<circle cx="417.694" cy="335.389" r="4" fill="#0" id="circle157"/>
	<circle cx="420.582" cy="409.753" r="4" fill="#0" id="circle158"/>
	<circle cx="423.47" cy="339.721" r="4" fill="#0" id="circle159"/>
	<circle cx="426.358" cy="414.084" r="4" fill="#0" id="circle160"/>
	<circle cx="427.802" cy="345.496" r="4" fill="#0" id="circle161"/>
	<circle cx="431.412" cy="419.86" r="4" fill="#0" id="circle162"/>
	<circle cx="433.578" cy="350.55" r="4" fill="#0" id="circle163"/>
	<circle cx="437.188" cy="424.192" r="4" fill="#0" id="circle164"/>
	<circle cx="437.91" cy="356.326" r="4" fill="#0" id="circle165"/>
	<circle cx="442.964" cy="428.524" r="4" fill="#0" id="circle166"/>
	<circle cx="444.408" cy="359.936" r="4" fill="#0" id="circle167"/>
	<circle cx="448.017" cy="366.434" r="4" fill="#0" id="circle168"/>
	<circle cx="448.739" cy="433.578" r="4" fill="#0" id="circle169"/>
	<circle cx="455.237" cy="369.322" r="4" fill="#0" id="circle170"/>
	<circle cx="455.237" cy="437.188" r="4" fill="#0" id="circle171"/>
	<circle cx="460.291" cy="375.098" r="4" fill="#0" id="circle172"/>
	<circle cx="462.457" cy="440.076" r="4" fill="#0" id="circle173"/>
	<circle cx="466.067" cy="380.151" r="4" fill="#0" id="circle174"/>
	<circle cx="467.511" cy="445.852" r="4" fill="#0" id="circle175"/>
	<circle cx="471.843" cy="384.483" r="4" fill="#0" id="circle176"/>
	<circle cx="474.009" cy="449.461" r="4" fill="#0" id="circle177"/>
	<circle cx="477.619" cy="388.815" r="4" fill="#0" id="circle178"/>
	<circle cx="480.507" cy="453.071" r="4" fill="#0" id="circle179"/>
	<circle cx="483.394" cy="393.147" r="4" fill="#0" id="circle180"/>
	<circle cx="486.282" cy="457.403" r="4" fill="#0" id="circle181"/>
	<circle cx="487.726" cy="398.923" r="4" fill="#0" id="circle182"/>
	<circle cx="488.448" cy="464.623" r="4" fill="#0" id="circle183"/>
	<circle cx="493.502" cy="403.255" r="4" fill="#0" id="circle184"/>
	<circle cx="494.224" cy="468.955" r="4" fill="#0" id="circle185"/>
	<circle cx="498.556" cy="474.731" r="4" fill="#0" id="circle186"/>
	<circle cx="500.722" cy="404.699" r="4" fill="#0" id="circle187"/>
	<circle cx="504.332" cy="411.197" r="4" fill="#0" id="circle188"/>
	<circle cx="505.776" cy="476.897" r="4" fill="#0" id="circle189"/>
	<circle cx="508.664" cy="484.116" r="4" fill="#0" id="circle190"/>
	<circle cx="510.108" cy="415.528" r="4" fill="#0" id="circle191"/>
	<circle cx="514.44" cy="421.304" r="4" fill="#0" id="circle192"/>
	<circle cx="514.44" cy="489.17" r="4" fill="#0" id="circle193"/>
	<circle cx="520.215" cy="493.502" r="4" fill="#0" id="circle194"/>
	<circle cx="521.659" cy="424.192" r="4" fill="#0" id="circle195"/>
	<circle cx="524.547" cy="499.278" r="4" fill="#0" id="circle196"/>
	<circle cx="525.991" cy="429.968" r="4" fill="#0" id="circle197"/>
	<circle cx="530.323" cy="504.332" r="4" fill="#0" id="circle198"/>
	<circle cx="531.767" cy="434.3" r="4" fill="#0" id="circle199"/>
	<circle cx="537.543" cy="438.632" r="4" fill="#0" id="circle200"/>
	<circle cx="537.543" cy="507.22" r="4" fill="#0" id="circle201"/>
	<circle cx="542.597" cy="444.408" r="4" fill="#0" id="circle202"/>
	<circle cx="543.319" cy="511.552" r="4" fill="#0" id="circle203"/>
	<circle cx="547.651" cy="517.328" r="4" fill="#0" id="circle204"/>
	<circle cx="549.095" cy="448.017" r="4" fill="#0" id="circle205"/>
	<circle cx="554.148" cy="520.937" r="4" fill="#0" id="circle206"/>
	<circle cx="554.87" cy="453.071" r="4" fill="#0" id="circle207"/>
	<circle cx="559.202" cy="526.713" r="4" fill="#0" id="circle208"/>
	<circle cx="560.646" cy="458.125" r="4" fill="#0" id="circle209"/>
	<circle cx="564.256" cy="464.623" r="4" fill="#0" id="circle210"/>
	<circle cx="565.7" cy="530.323" r="4" fill="#0" id="circle211"/>
	<circle cx="570.032" cy="536.099" r="4" fill="#0" id="circle212"/>
	<circle cx="571.476" cy="466.067" r="4" fill="#0" id="circle213"/>
	<circle cx="575.808" cy="471.843" r="4" fill="#0" id="circle214"/>
	<circle cx="576.53" cy="539.709" r="4" fill="#0" id="circle215"/>
	<circle cx="582.306" cy="475.453" r="4" fill="#0" id="circle216"/>
	<circle cx="582.306" cy="544.041" r="4" fill="#0" id="circle217"/>
	<circle cx="586.638" cy="481.229" r="4" fill="#0" id="circle218"/>
	<circle cx="586.638" cy="549.817" r="4" fill="#0" id="circle219"/>
	<circle cx="592.413" cy="554.148" r="4" fill="#0" id="circle220"/>
	<circle cx="593.135" cy="484.838" r="4" fill="#0" id="circle221"/>
	<circle cx="596.745" cy="491.336" r="4" fill="#0" id="circle222"/>
	<circle cx="598.189" cy="559.202" r="4" fill="#0" id="circle223"/>
	<circle cx="602.521" cy="495.668" r="4" fill="#0" id="circle224"/>
	<circle cx="603.965" cy="564.256" r="4" fill="#0" id="circle225"/>
	<circle cx="608.297" cy="500" r="4" fill="#0" id="circle226"/>
	<circle cx="609.019" cy="570.032" r="4" fill="#0" id="circle227"/>
	<circle cx="614.073" cy="504.332" r="4" fill="#0" id="circle228"/>
	<circle cx="614.795" cy="575.086" r="4" fill="#0" id="circle229"/>
	<circle cx="619.849" cy="508.664" r="4" fill="#0" id="circle230"/>
	<circle cx="620.571" cy="579.418" r="4" fill="#0" id="circle231"/>
	<circle cx="625.624" cy="512.996" r="4" fill="#0" id="circle232"/>
	<circle cx="626.346" cy="583.75" r="4" fill="#0" id="circle233"/>
	<circle cx="630.678" cy="518.771" r="4" fill="#0" id="circle234"/>
	<circle cx="631.4" cy="589.525" r="4" fill="#0" id="circle235"/>
	<circle cx="636.454" cy="523.103" r="4" fill="#0" id="circle236"/>
	<circle cx="637.898" cy="593.135" r="4" fill="#0" id="circle237"/>
	<circle cx="642.23" cy="528.157" r="4" fill="#0" id="circle238"/>
	<circle cx="642.952" cy="598.911" r="4" fill="#0" id="circle239"/>
	<circle cx="647.284" cy="533.933" r="4" fill="#0" id="circle240"/>
	<circle cx="649.45" cy="602.521" r="4" fill="#0" id="circle241"/>
	<circle cx="653.782" cy="537.543" r="4" fill="#0" id="circle242"/>
	<circle cx="655.226" cy="606.853" r="4" fill="#0" id="circle243"/>
	<circle cx="659.557" cy="542.597" r="4" fill="#0" id="circle244"/>
	<circle cx="659.557" cy="612.629" r="4" fill="#0" id="circle245"/>
	<circle cx="665.333" cy="546.929" r="4" fill="#0" id="circle246"/>
	<circle cx="665.333" cy="616.961" r="4" fill="#0" id="circle247"/>
	<circle cx="669.665" cy="552.705" r="4" fill="#0" id="circle248"/>
	<circle cx="670.387" cy="622.737" r="4" fill="#0" id="circle249"/>
	<circle cx="675.441" cy="557.036" r="4" fill="#0" id="circle250"/>
	<circle cx="677.607" cy="625.624" r="4" fill="#0" id="circle251"/>
	<circle cx="681.217" cy="561.368" r="4" fill="#0" id="circle252"/>
	<circle cx="681.939" cy="631.4" r="4" fill="#0" id="circle253"/>
	<circle cx="686.993" cy="565.7" r="4" fill="#0" id="circle254"/>
	<circle cx="687.715" cy="636.454" r="4" fill="#0" id="circle255"/>
	<circle cx="691.325" cy="571.476" r="4" fill="#0" id="circle256"/>
	<circle cx="693.491" cy="641.508" r="4" fill="#0" id="circle257"/>
	<circle cx="697.1" cy="575.808" r="4" fill="#0" id="circle258"/>
	<circle cx="699.988" cy="645.118" r="4" fill="#0" id="circle259"/>
	<circle cx="702.154" cy="581.584" r="4" fill="#0" id="circle260"/>
	<circle cx="703.598" cy="651.616" r="4" fill="#0" id="circle261"/>
	<circle cx="708.652" cy="585.194" r="4" fill="#0" id="circle262"/>
	<circle cx="710.096" cy="655.226" r="4" fill="#0" id="circle263"/>
	<circle cx="714.428" cy="590.247" r="4" fill="#0" id="circle264"/>
	<circle cx="715.872" cy="659.557" r="4" fill="#0" id="circle265"/>
	<circle cx="720.926" cy="593.857" r="4" fill="#0" id="circle266"/>
	<circle cx="721.648" cy="663.889" r="4" fill="#0" id="circle267"/>
	<circle cx="725.258" cy="599.633" r="4" fill="#0" id="circle268"/>
	<circle cx="727.424" cy="668.943" r="4" fill="#0" id="circle269"/>
	<circle cx="731.033" cy="604.687" r="4" fill="#0" id="circle270"/>
	<circle cx="731.755" cy="674.719" r="4" fill="#0" id="circle271"/>
	<circle cx="736.809" cy="609.019" r="4" fill="#0" id="circle272"/>
	<circle cx="736.809" cy="680.495" r="4" fill="#0" id="circle273"/>
	<circle cx="742.585" cy="614.073" r="4" fill="#0" id="circle274"/>
	<circle cx="742.585" cy="684.827" r="4" fill="#0" id="circle275"/>
	<circle cx="748.361" cy="618.405" r="4" fill="#0" id="circle276"/>
	<circle cx="749.083" cy="688.437" r="4" fill="#0" id="circle277"/>
	<circle cx="752.693" cy="624.18" r="4" fill="#0" id="circle278"/>
	<circle cx="754.859" cy="693.491" r="4" fill="#0" id="circle279"/>
	<circle cx="758.469" cy="629.234" r="4" fill="#0" id="circle280"/>
	<circle cx="760.635" cy="697.822" r="4" fill="#0" id="circle281"/>
	<circle cx="764.967" cy="632.844" r="4" fill="#0" id="circle282"/>
	<circle cx="764.967" cy="703.598" r="4" fill="#0" id="circle283"/>
	<circle cx="769.298" cy="638.62" r="4" fill="#0" id="circle284"/>
	<circle cx="770.742" cy="707.93" r="4" fill="#0" id="circle285"/>
	<circle cx="775.074" cy="713.706" r="4" fill="#0" id="circle286"/>
	<circle cx="775.796" cy="642.23" r="4" fill="#0" id="circle287"/>
	<circle cx="780.85" cy="648.006" r="4" fill="#0" id="circle288"/>
	<circle cx="780.85" cy="718.038" r="4" fill="#0" id="circle289"/>
	<circle cx="785.904" cy="723.814" r="4" fill="#0" id="circle290"/>
	<circle cx="787.348" cy="651.616" r="4" fill="#0" id="circle291"/>
	<circle cx="791.68" cy="728.146" r="4" fill="#0" id="circle292"/>
	<circle cx="793.124" cy="656.67" r="4" fill="#0" id="circle293"/>
	<circle cx="797.456" cy="662.445" r="4" fill="#0" id="circle294"/>
	<circle cx="798.9" cy="731.033" r="4" fill="#0" id="circle295"/>
	<circle cx="802.509" cy="668.221" r="4" fill="#0" id="circle296"/>
	<circle cx="803.231" cy="736.809" r="4" fill="#0" id="circle297"/>
	<circle cx="808.285" cy="672.553" r="4" fill="#0" id="circle298"/>
	<circle cx="809.729" cy="740.419" r="4" fill="#0" id="circle299"/>
	<circle cx="814.061" cy="746.195" r="4" fill="#0" id="circle300"/>
	<circle cx="814.783" cy="676.163" r="4" fill="#0" id="circle301"/>
	<circle cx="818.393" cy="751.971" r="4" fill="#0" id="circle302"/>
	<circle cx="820.559" cy="681.217" r="4" fill="#0" id="circle303"/>
	<circle cx="825.613" cy="754.859" r="4" fill="#0" id="circle304"/>
	<circle cx="826.335" cy="685.549" r="4" fill="#0" id="circle305"/>
	<circle cx="829.945" cy="760.635" r="4" fill="#0" id="circle306"/>
	<circle cx="830.667" cy="691.325" r="4" fill="#0" id="circle307"/>
	<circle cx="836.443" cy="696.378" r="4" fill="#0" id="circle308"/>
	<circle cx="837.164" cy="762.801" r="4" fill="#0" id="circle309"/>
	<circle cx="841.496" cy="702.154" r="4" fill="#0" id="circle310"/>
	<circle cx="841.496" cy="768.576" r="4" fill="#0" id="circle311"/>
	<circle cx="846.55" cy="774.352" r="4" fill="#0" id="circle312"/>
	<circle cx="847.272" cy="707.208" r="4" fill="#0" id="circle313"/>
	<circle cx="850.882" cy="780.128" r="4" fill="#0" id="circle314"/>
	<circle cx="854.492" cy="709.374" r="4" fill="#0" id="circle315"/>
	<circle cx="856.658" cy="784.46" r="4" fill="#0" id="circle316"/>
	<circle cx="858.102" cy="715.872" r="4" fill="#0" id="circle317"/>
	<circle cx="860.99" cy="790.236" r="4" fill="#0" id="circle318"/>
	<circle cx="864.6" cy="719.482" r="4" fill="#0" id="circle319"/>
	<circle cx="867.488" cy="793.846" r="4" fill="#0" id="circle320"/>
	<circle cx="870.376" cy="724.536" r="4" fill="#0" id="circle321"/>
	<circle cx="872.541" cy="799.622" r="4" fill="#0" id="circle322"/>
	<circle cx="874.707" cy="730.311" r="4" fill="#0" id="circle323"/>
	<circle cx="878.317" cy="803.953" r="4" fill="#0" id="circle324"/>
	<circle cx="880.483" cy="734.643" r="4" fill="#0" id="circle325"/>
	<circle cx="884.093" cy="808.285" r="4" fill="#0" id="circle326"/>
	<circle cx="886.259" cy="739.697" r="4" fill="#0" id="circle327"/>
	<circle cx="889.869" cy="813.339" r="4" fill="#0" id="circle328"/>
	<circle cx="892.757" cy="743.307" r="4" fill="#0" id="circle329"/>
	<circle cx="895.645" cy="818.393" r="4" fill="#0" id="circle330"/>
	<circle cx="896.367" cy="749.805" r="4" fill="#0" id="circle331"/>
	<circle cx="901.421" cy="822.725" r="4" fill="#0" id="circle332"/>
	<circle cx="902.143" cy="754.137" r="4" fill="#0" id="circle333"/>
	<circle cx="905.753" cy="828.501" r="4" fill="#0" id="circle334"/>
	<circle cx="907.197" cy="759.913" r="4" fill="#0" id="circle335"/>
	<circle cx="911.528" cy="832.833" r="4" fill="#0" id="circle336"/>
	<circle cx="913.694" cy="763.523" r="4" fill="#0" id="circle337"/>
	<circle cx="917.304" cy="837.886" r="4" fill="#0" id="circle338"/>
	<circle cx="918.026" cy="769.298" r="4" fill="#0" id="circle339"/>
	<circle cx="921.636" cy="843.662" r="4" fill="#0" id="circle340"/>
	<circle cx="923.802" cy="773.63" r="4" fill="#0" id="circle341"/>
	<circle cx="928.856" cy="846.55" r="4" fill="#0" id="circle342"/>
	<circle cx="930.3" cy="777.24" r="4" fill="#0" id="circle343"/>
	<circle cx="934.632" cy="783.016" r="4" fill="#0" id="circle344"/>
	<circle cx="934.632" cy="851.604" r="4" fill="#0" id="circle345"/>
	<circle cx="938.964" cy="857.38" r="4" fill="#0" id="circle346"/>
	<circle cx="940.408" cy="787.348" r="4" fill="#0" id="circle347"/>
	<circle cx="944.739" cy="861.712" r="4" fill="#0" id="circle348"/>
	<circle cx="946.183" cy="792.402" r="4" fill="#0" id="circle349"/>
	<circle cx="950.515" cy="866.044" r="4" fill="#0" id="circle350"/>
	<circle cx="951.959" cy="796.734" r="4" fill="#0" id="circle351"/>
	<circle cx="957.013" cy="802.509" r="4" fill="#0" id="circle352"/>
	<circle cx="957.735" cy="868.21" r="4" fill="#0" id="circle353"/>
	<circle cx="962.789" cy="806.841" r="4" fill="#0" id="circle354"/>
	<circle cx="964.955" cy="867.488" r="4" fill="#0" id="circle355"/>
	<circle cx="968.565" cy="811.173" r="4" fill="#0" id="circle356"/>
	<circle cx="972.175" cy="868.21" r="4" fill="#0" id="circle357"/>
	<circle cx="974.341" cy="816.227" r="4" fill="#0" id="circle358"/>
	<circle cx="979.394" cy="866.044" r="4" fill="#0" id="circle359"/>
	<circle cx="980.116" cy="821.281" r="4" fill="#0" id="circle360"/>
	<circle cx="985.892" cy="825.613" r="4" fill="#0" id="circle361"/>
	<circle cx="986.614" cy="863.878" r="4" fill="#0" id="circle362"/>
	<circle cx="990.224" cy="831.389" r="4" fill="#0" id="circle363"/>
	<circle cx="992.39" cy="858.824" r="4" fill="#0" id="circle364"/>
	<circle cx="993.834" cy="837.886" r="4" fill="#0" id="circle365"/>
	<circle cx="996" cy="845.106" r="4" fill="#0" id="circle366"/>
	<circle cx="996" cy="852.326" r="4" fill="#0" id="circle367"/>
	</g>
</svg>