<?xml version="1.0" encoding="UTF-8" standalone="no"?>
<!-- Created with CurveBenchmark -->
<svg
	xmlns:dc="http://purl.org/dc/elements/1.1/"
	xmlns:cc="http://creativecommons.org/ns#"
	xmlns:rdf="http://www.w3.org/1999/02/22-rdf-syntax-ns#"
	xmlns:svg="http://www.w3.org/2000/svg"
	xmlns="http://www.w3.org/2000/svg"
	xmlns:sodipodi="http://sodipodi.sourceforge.net/DTD/sodipodi-0.dtd"
	xmlns:inkscape="http://www.inkscape.org/namespaces/inkscape"
	width="1000"
	height="1000"
	id="svg2"
	version="1.1"
	sodipodi:docname="manifold/gathang-hammer40.png.txt">
<defs
	id="defs4" />
<metadata
	id="metadata7">
	<rdf:RDF>
		<cc:Work
			rdf:about="">
			<dc:format>image/svg+xml</dc:format>
			<dc:type
				rdf:resource="http://purl.org/dc/dcmitype/StillImage" />
			<dc:title></dc:title>
		</cc:Work>
	</rdf:RDF>
</metadata>
<g
	inkscape:label="Layer 1"
	inkscape:groupmode="layer"
	id="layer1">
	<path style="fill:none;stroke:red;stroke-width:1px;stroke-linecap:butt;stroke-linejoin:miter;stroke-opacity:1" d="M 91.8445,83.2743 108.985,68.2765 z" id="boundary" inkscape:connector-curvature="0" />
	<path style="fill:none;stroke:red;stroke-width:1px;stroke-linecap:butt;stroke-linejoin:miter;stroke-opacity:1" d="M 81.1317,104.7 91.8445,83.2743 z" id="boundary" inkscape:connector-curvature="0" />
	<path style="fill:none;stroke:red;stroke-width:1px;stroke-linecap:butt;stroke-linejoin:miter;stroke-opacity:1" d="M 70.419,126.125 81.1317,104.7 z" id="boundary" inkscape:connector-curvature="0" />
	<path style="fill:none;stroke:red;stroke-width:1px;stroke-linecap:butt;stroke-linejoin:miter;stroke-opacity:1" d="M 70.419,126.125 55.4212,143.266 z" id="boundary" inkscape:connector-curvature="0" />
	<path style="fill:none;stroke:red;stroke-width:1px;stroke-linecap:butt;stroke-linejoin:miter;stroke-opacity:1" d="M 147.551,46.851 168.976,38.2808 z" id="boundary" inkscape:connector-curvature="0" />
	<path style="fill:none;stroke:red;stroke-width:1px;stroke-linecap:butt;stroke-linejoin:miter;stroke-opacity:1" d="M 186.117,21.1404 168.976,38.2808 z" id="boundary" inkscape:connector-curvature="0" />
	<path style="fill:none;stroke:red;stroke-width:1px;stroke-linecap:butt;stroke-linejoin:miter;stroke-opacity:1" d="M 128.268,57.5637 147.551,46.851 z" id="boundary" inkscape:connector-curvature="0" />
	<path style="fill:none;stroke:red;stroke-width:1px;stroke-linecap:butt;stroke-linejoin:miter;stroke-opacity:1" d="M 203.257,4 186.117,21.1404 z" id="boundary" inkscape:connector-curvature="0" />
	<path style="fill:none;stroke:red;stroke-width:1px;stroke-linecap:butt;stroke-linejoin:miter;stroke-opacity:1" d="M 108.985,68.2765 128.268,57.5637 z" id="boundary" inkscape:connector-curvature="0" />
	<path style="fill:none;stroke:red;stroke-width:1px;stroke-linecap:butt;stroke-linejoin:miter;stroke-opacity:1" d="M 4,192.544 21.1404,175.404 z" id="boundary" inkscape:connector-curvature="0" />
	<path style="fill:none;stroke:red;stroke-width:1px;stroke-linecap:butt;stroke-linejoin:miter;stroke-opacity:1" d="M 4,213.97 21.1404,228.968 z" id="boundary" inkscape:connector-curvature="0" />
	<path style="fill:none;stroke:red;stroke-width:1px;stroke-linecap:butt;stroke-linejoin:miter;stroke-opacity:1" d="M 4,213.97 4,192.544 z" id="boundary" inkscape:connector-curvature="0" />
	<path style="fill:none;stroke:red;stroke-width:1px;stroke-linecap:butt;stroke-linejoin:miter;stroke-opacity:1" d="M 38.2808,241.823 21.1404,228.968 z" id="boundary" inkscape:connector-curvature="0" />
	<path style="fill:none;stroke:red;stroke-width:1px;stroke-linecap:butt;stroke-linejoin:miter;stroke-opacity:1" d="M 38.2808,158.263 55.4212,143.266 z" id="boundary" inkscape:connector-curvature="0" />
	<path style="fill:none;stroke:red;stroke-width:1px;stroke-linecap:butt;stroke-linejoin:miter;stroke-opacity:1" d="M 166.834,198.972 186.117,209.685 z" id="boundary" inkscape:connector-curvature="0" />
	<path style="fill:none;stroke:red;stroke-width:1px;stroke-linecap:butt;stroke-linejoin:miter;stroke-opacity:1" d="M 21.1404,175.404 38.2808,158.263 z" id="boundary" inkscape:connector-curvature="0" />
	<path style="fill:none;stroke:red;stroke-width:1px;stroke-linecap:butt;stroke-linejoin:miter;stroke-opacity:1" d="M 162.549,226.825 145.408,241.823 z" id="boundary" inkscape:connector-curvature="0" />
	<path style="fill:none;stroke:red;stroke-width:1px;stroke-linecap:butt;stroke-linejoin:miter;stroke-opacity:1" d="M 224.683,4 246.108,4 z" id="boundary" inkscape:connector-curvature="0" />
	<path style="fill:none;stroke:red;stroke-width:1px;stroke-linecap:butt;stroke-linejoin:miter;stroke-opacity:1" d="M 246.108,4 265.391,14.7127 z" id="boundary" inkscape:connector-curvature="0" />
	<path style="fill:none;stroke:red;stroke-width:1px;stroke-linecap:butt;stroke-linejoin:miter;stroke-opacity:1" d="M 263.248,91.8445 263.248,113.27 z" id="boundary" inkscape:connector-curvature="0" />
	<path style="fill:none;stroke:red;stroke-width:1px;stroke-linecap:butt;stroke-linejoin:miter;stroke-opacity:1" d="M 284.674,81.1317 263.248,91.8445 z" id="boundary" inkscape:connector-curvature="0" />
	<path style="fill:none;stroke:red;stroke-width:1px;stroke-linecap:butt;stroke-linejoin:miter;stroke-opacity:1" d="M 284.674,81.1317 295.387,46.851 z" id="boundary" inkscape:connector-curvature="0" />
	<path style="fill:none;stroke:red;stroke-width:1px;stroke-linecap:butt;stroke-linejoin:miter;stroke-opacity:1" d="M 282.531,29.7106 295.387,46.851 z" id="boundary" inkscape:connector-curvature="0" />
	<path style="fill:none;stroke:red;stroke-width:1px;stroke-linecap:butt;stroke-linejoin:miter;stroke-opacity:1" d="M 265.391,14.7127 282.531,29.7106 z" id="boundary" inkscape:connector-curvature="0" />
	<path style="fill:none;stroke:red;stroke-width:1px;stroke-linecap:butt;stroke-linejoin:miter;stroke-opacity:1" d="M 263.248,134.695 263.248,113.27 z" id="boundary" inkscape:connector-curvature="0" />
	<path style="fill:none;stroke:red;stroke-width:1px;stroke-linecap:butt;stroke-linejoin:miter;stroke-opacity:1" d="M 273.961,153.978 263.248,134.695 z" id="boundary" inkscape:connector-curvature="0" />
	<path style="fill:none;stroke:red;stroke-width:1px;stroke-linecap:butt;stroke-linejoin:miter;stroke-opacity:1" d="M 186.117,209.685 198.972,226.825 z" id="boundary" inkscape:connector-curvature="0" />
	<path style="fill:none;stroke:red;stroke-width:1px;stroke-linecap:butt;stroke-linejoin:miter;stroke-opacity:1" d="M 273.961,153.978 291.102,166.834 z" id="boundary" inkscape:connector-curvature="0" />
	<path style="fill:none;stroke:red;stroke-width:1px;stroke-linecap:butt;stroke-linejoin:miter;stroke-opacity:1" d="M 306.099,183.974 323.24,198.972 z" id="boundary" inkscape:connector-curvature="0" />
	<path style="fill:none;stroke:red;stroke-width:1px;stroke-linecap:butt;stroke-linejoin:miter;stroke-opacity:1" d="M 306.099,183.974 291.102,166.834 z" id="boundary" inkscape:connector-curvature="0" />
	<path style="fill:none;stroke:red;stroke-width:1px;stroke-linecap:butt;stroke-linejoin:miter;stroke-opacity:1" d="M 216.112,241.823 198.972,226.825 z" id="boundary" inkscape:connector-curvature="0" />
	<path style="fill:none;stroke:red;stroke-width:1px;stroke-linecap:butt;stroke-linejoin:miter;stroke-opacity:1" d="M 338.238,216.112 323.24,198.972 z" id="boundary" inkscape:connector-curvature="0" />
	<path style="fill:none;stroke:red;stroke-width:1px;stroke-linecap:butt;stroke-linejoin:miter;stroke-opacity:1" d="M 355.378,231.11 338.238,216.112 z" id="boundary" inkscape:connector-curvature="0" />
	<path style="fill:none;stroke:red;stroke-width:1px;stroke-linecap:butt;stroke-linejoin:miter;stroke-opacity:1" d="M 203.257,4 224.683,4 z" id="boundary" inkscape:connector-curvature="0" />
	<path style="fill:none;stroke:red;stroke-width:1px;stroke-linecap:butt;stroke-linejoin:miter;stroke-opacity:1" d="M 57.5637,252.536 38.2808,241.823 z" id="boundary" inkscape:connector-curvature="0" />
	<path style="fill:none;stroke:red;stroke-width:1px;stroke-linecap:butt;stroke-linejoin:miter;stroke-opacity:1" d="M 130.41,258.963 113.27,273.961 z" id="boundary" inkscape:connector-curvature="0" />
	<path style="fill:none;stroke:red;stroke-width:1px;stroke-linecap:butt;stroke-linejoin:miter;stroke-opacity:1" d="M 145.408,241.823 130.41,258.963 z" id="boundary" inkscape:connector-curvature="0" />
	<path style="fill:none;stroke:red;stroke-width:1px;stroke-linecap:butt;stroke-linejoin:miter;stroke-opacity:1" d="M 57.5637,252.536 70.419,269.676 z" id="boundary" inkscape:connector-curvature="0" />
	<path style="fill:none;stroke:red;stroke-width:1px;stroke-linecap:butt;stroke-linejoin:miter;stroke-opacity:1" d="M 252.536,267.533 231.11,258.963 z" id="boundary" inkscape:connector-curvature="0" />
	<path style="fill:none;stroke:red;stroke-width:1px;stroke-linecap:butt;stroke-linejoin:miter;stroke-opacity:1" d="M 231.11,258.963 216.112,241.823 z" id="boundary" inkscape:connector-curvature="0" />
	<path style="fill:none;stroke:red;stroke-width:1px;stroke-linecap:butt;stroke-linejoin:miter;stroke-opacity:1" d="M 252.536,267.533 261.106,288.959 z" id="boundary" inkscape:connector-curvature="0" />
	<path style="fill:none;stroke:red;stroke-width:1px;stroke-linecap:butt;stroke-linejoin:miter;stroke-opacity:1" d="M 113.27,273.961 91.8445,278.246 z" id="boundary" inkscape:connector-curvature="0" />
	<path style="fill:none;stroke:red;stroke-width:1px;stroke-linecap:butt;stroke-linejoin:miter;stroke-opacity:1" d="M 91.8445,278.246 70.419,269.676 z" id="boundary" inkscape:connector-curvature="0" />
	<path style="fill:none;stroke:red;stroke-width:1px;stroke-linecap:butt;stroke-linejoin:miter;stroke-opacity:1" d="M 282.531,295.387 295.387,312.527 z" id="boundary" inkscape:connector-curvature="0" />
	<path style="fill:none;stroke:red;stroke-width:1px;stroke-linecap:butt;stroke-linejoin:miter;stroke-opacity:1" d="M 261.106,288.959 282.531,295.387 z" id="boundary" inkscape:connector-curvature="0" />
	<path style="fill:none;stroke:red;stroke-width:1px;stroke-linecap:butt;stroke-linejoin:miter;stroke-opacity:1" d="M 327.525,344.665 312.527,327.525 z" id="boundary" inkscape:connector-curvature="0" />
	<path style="fill:none;stroke:red;stroke-width:1px;stroke-linecap:butt;stroke-linejoin:miter;stroke-opacity:1" d="M 312.527,327.525 295.387,312.527 z" id="boundary" inkscape:connector-curvature="0" />
	<path style="fill:none;stroke:red;stroke-width:1px;stroke-linecap:butt;stroke-linejoin:miter;stroke-opacity:1" d="M 344.665,359.663 327.525,344.665 z" id="boundary" inkscape:connector-curvature="0" />
	<path style="fill:none;stroke:red;stroke-width:1px;stroke-linecap:butt;stroke-linejoin:miter;stroke-opacity:1" d="M 355.378,231.11 363.948,252.536 z" id="boundary" inkscape:connector-curvature="0" />
	<path style="fill:none;stroke:red;stroke-width:1px;stroke-linecap:butt;stroke-linejoin:miter;stroke-opacity:1" d="M 381.089,267.533 396.086,284.674 z" id="boundary" inkscape:connector-curvature="0" />
	<path style="fill:none;stroke:red;stroke-width:1px;stroke-linecap:butt;stroke-linejoin:miter;stroke-opacity:1" d="M 381.089,267.533 363.948,252.536 z" id="boundary" inkscape:connector-curvature="0" />
	<path style="fill:none;stroke:red;stroke-width:1px;stroke-linecap:butt;stroke-linejoin:miter;stroke-opacity:1" d="M 357.521,376.803 344.665,359.663 z" id="boundary" inkscape:connector-curvature="0" />
	<path style="fill:none;stroke:red;stroke-width:1px;stroke-linecap:butt;stroke-linejoin:miter;stroke-opacity:1" d="M 417.512,293.244 396.086,284.674 z" id="boundary" inkscape:connector-curvature="0" />
	<path style="fill:none;stroke:red;stroke-width:1px;stroke-linecap:butt;stroke-linejoin:miter;stroke-opacity:1" d="M 417.512,293.244 432.51,310.384 z" id="boundary" inkscape:connector-curvature="0" />
	<path style="fill:none;stroke:red;stroke-width:1px;stroke-linecap:butt;stroke-linejoin:miter;stroke-opacity:1" d="M 453.935,318.955 432.51,310.384 z" id="boundary" inkscape:connector-curvature="0" />
	<path style="fill:none;stroke:red;stroke-width:1px;stroke-linecap:butt;stroke-linejoin:miter;stroke-opacity:1" d="M 453.935,318.955 462.505,340.38 z" id="boundary" inkscape:connector-curvature="0" />
	<path style="fill:none;stroke:red;stroke-width:1px;stroke-linecap:butt;stroke-linejoin:miter;stroke-opacity:1" d="M 477.503,357.521 462.505,340.38 z" id="boundary" inkscape:connector-curvature="0" />
	<path style="fill:none;stroke:red;stroke-width:1px;stroke-linecap:butt;stroke-linejoin:miter;stroke-opacity:1" d="M 357.521,398.229 357.521,376.803 z" id="boundary" inkscape:connector-curvature="0" />
	<path style="fill:none;stroke:red;stroke-width:1px;stroke-linecap:butt;stroke-linejoin:miter;stroke-opacity:1" d="M 357.521,398.229 359.663,419.654 z" id="boundary" inkscape:connector-curvature="0" />
	<path style="fill:none;stroke:red;stroke-width:1px;stroke-linecap:butt;stroke-linejoin:miter;stroke-opacity:1" d="M 370.376,438.937 359.663,419.654 z" id="boundary" inkscape:connector-curvature="0" />
	<path style="fill:none;stroke:red;stroke-width:1px;stroke-linecap:butt;stroke-linejoin:miter;stroke-opacity:1" d="M 385.374,456.078 370.376,438.937 z" id="boundary" inkscape:connector-curvature="0" />
	<path style="fill:none;stroke:red;stroke-width:1px;stroke-linecap:butt;stroke-linejoin:miter;stroke-opacity:1" d="M 417.512,488.216 402.514,471.076 z" id="boundary" inkscape:connector-curvature="0" />
	<path style="fill:none;stroke:red;stroke-width:1px;stroke-linecap:butt;stroke-linejoin:miter;stroke-opacity:1" d="M 438.937,496.786 417.512,488.216 z" id="boundary" inkscape:connector-curvature="0" />
	<path style="fill:none;stroke:red;stroke-width:1px;stroke-linecap:butt;stroke-linejoin:miter;stroke-opacity:1" d="M 453.935,537.495 443.222,518.212 z" id="boundary" inkscape:connector-curvature="0" />
	<path style="fill:none;stroke:red;stroke-width:1px;stroke-linecap:butt;stroke-linejoin:miter;stroke-opacity:1" d="M 443.222,518.212 438.937,496.786 z" id="boundary" inkscape:connector-curvature="0" />
	<path style="fill:none;stroke:red;stroke-width:1px;stroke-linecap:butt;stroke-linejoin:miter;stroke-opacity:1" d="M 402.514,471.076 385.374,456.078 z" id="boundary" inkscape:connector-curvature="0" />
	<path style="fill:none;stroke:red;stroke-width:1px;stroke-linecap:butt;stroke-linejoin:miter;stroke-opacity:1" d="M 453.935,537.495 464.648,556.778 z" id="boundary" inkscape:connector-curvature="0" />
	<path style="fill:none;stroke:red;stroke-width:1px;stroke-linecap:butt;stroke-linejoin:miter;stroke-opacity:1" d="M 494.644,370.376 509.641,387.516 z" id="boundary" inkscape:connector-curvature="0" />
	<path style="fill:none;stroke:red;stroke-width:1px;stroke-linecap:butt;stroke-linejoin:miter;stroke-opacity:1" d="M 494.644,370.376 477.503,357.521 z" id="boundary" inkscape:connector-curvature="0" />
	<path style="fill:none;stroke:red;stroke-width:1px;stroke-linecap:butt;stroke-linejoin:miter;stroke-opacity:1" d="M 509.641,387.516 531.067,396.086 z" id="boundary" inkscape:connector-curvature="0" />
	<path style="fill:none;stroke:red;stroke-width:1px;stroke-linecap:butt;stroke-linejoin:miter;stroke-opacity:1" d="M 531.067,396.086 546.065,413.227 z" id="boundary" inkscape:connector-curvature="0" />
	<path style="fill:none;stroke:red;stroke-width:1px;stroke-linecap:butt;stroke-linejoin:miter;stroke-opacity:1" d="M 563.205,428.225 578.203,445.365 z" id="boundary" inkscape:connector-curvature="0" />
	<path style="fill:none;stroke:red;stroke-width:1px;stroke-linecap:butt;stroke-linejoin:miter;stroke-opacity:1" d="M 563.205,428.225 546.065,413.227 z" id="boundary" inkscape:connector-curvature="0" />
	<path style="fill:none;stroke:red;stroke-width:1px;stroke-linecap:butt;stroke-linejoin:miter;stroke-opacity:1" d="M 595.343,460.363 578.203,445.365 z" id="boundary" inkscape:connector-curvature="0" />
	<path style="fill:none;stroke:red;stroke-width:1px;stroke-linecap:butt;stroke-linejoin:miter;stroke-opacity:1" d="M 464.648,556.778 475.361,576.06 z" id="boundary" inkscape:connector-curvature="0" />
	<path style="fill:none;stroke:red;stroke-width:1px;stroke-linecap:butt;stroke-linejoin:miter;stroke-opacity:1" d="M 496.786,584.631 475.361,576.06 z" id="boundary" inkscape:connector-curvature="0" />
	<path style="fill:none;stroke:red;stroke-width:1px;stroke-linecap:butt;stroke-linejoin:miter;stroke-opacity:1" d="M 496.786,584.631 509.641,601.771 z" id="boundary" inkscape:connector-curvature="0" />
	<path style="fill:none;stroke:red;stroke-width:1px;stroke-linecap:butt;stroke-linejoin:miter;stroke-opacity:1" d="M 539.637,633.909 550.35,653.192 z" id="boundary" inkscape:connector-curvature="0" />
	<path style="fill:none;stroke:red;stroke-width:1px;stroke-linecap:butt;stroke-linejoin:miter;stroke-opacity:1" d="M 539.637,633.909 526.782,616.769 z" id="boundary" inkscape:connector-curvature="0" />
	<path style="fill:none;stroke:red;stroke-width:1px;stroke-linecap:butt;stroke-linejoin:miter;stroke-opacity:1" d="M 550.35,653.192 567.49,668.19 z" id="boundary" inkscape:connector-curvature="0" />
	<path style="fill:none;stroke:red;stroke-width:1px;stroke-linecap:butt;stroke-linejoin:miter;stroke-opacity:1" d="M 567.49,668.19 582.488,685.33 z" id="boundary" inkscape:connector-curvature="0" />
	<path style="fill:none;stroke:red;stroke-width:1px;stroke-linecap:butt;stroke-linejoin:miter;stroke-opacity:1" d="M 509.641,601.771 526.782,616.769 z" id="boundary" inkscape:connector-curvature="0" />
	<path style="fill:none;stroke:red;stroke-width:1px;stroke-linecap:butt;stroke-linejoin:miter;stroke-opacity:1" d="M 595.343,460.363 610.341,477.503 z" id="boundary" inkscape:connector-curvature="0" />
	<path style="fill:none;stroke:red;stroke-width:1px;stroke-linecap:butt;stroke-linejoin:miter;stroke-opacity:1" d="M 610.341,477.503 631.767,486.073 z" id="boundary" inkscape:connector-curvature="0" />
	<path style="fill:none;stroke:red;stroke-width:1px;stroke-linecap:butt;stroke-linejoin:miter;stroke-opacity:1" d="M 631.767,486.073 646.765,503.214 z" id="boundary" inkscape:connector-curvature="0" />
	<path style="fill:none;stroke:red;stroke-width:1px;stroke-linecap:butt;stroke-linejoin:miter;stroke-opacity:1" d="M 646.765,503.214 663.905,518.212 z" id="boundary" inkscape:connector-curvature="0" />
	<path style="fill:none;stroke:red;stroke-width:1px;stroke-linecap:butt;stroke-linejoin:miter;stroke-opacity:1" d="M 663.905,518.212 678.903,535.352 z" id="boundary" inkscape:connector-curvature="0" />
	<path style="fill:none;stroke:red;stroke-width:1px;stroke-linecap:butt;stroke-linejoin:miter;stroke-opacity:1" d="M 696.043,550.35 711.041,567.49 z" id="boundary" inkscape:connector-curvature="0" />
	<path style="fill:none;stroke:red;stroke-width:1px;stroke-linecap:butt;stroke-linejoin:miter;stroke-opacity:1" d="M 696.043,550.35 678.903,535.352 z" id="boundary" inkscape:connector-curvature="0" />
	<path style="fill:none;stroke:red;stroke-width:1px;stroke-linecap:butt;stroke-linejoin:miter;stroke-opacity:1" d="M 711.041,567.49 728.181,582.488 z" id="boundary" inkscape:connector-curvature="0" />
	<path style="fill:none;stroke:red;stroke-width:1px;stroke-linecap:butt;stroke-linejoin:miter;stroke-opacity:1" d="M 599.629,700.328 582.488,685.33 z" id="boundary" inkscape:connector-curvature="0" />
	<path style="fill:none;stroke:red;stroke-width:1px;stroke-linecap:butt;stroke-linejoin:miter;stroke-opacity:1" d="M 614.626,717.469 599.629,700.328 z" id="boundary" inkscape:connector-curvature="0" />
	<path style="fill:none;stroke:red;stroke-width:1px;stroke-linecap:butt;stroke-linejoin:miter;stroke-opacity:1" d="M 760.32,614.626 743.179,599.629 z" id="boundary" inkscape:connector-curvature="0" />
	<path style="fill:none;stroke:red;stroke-width:1px;stroke-linecap:butt;stroke-linejoin:miter;stroke-opacity:1" d="M 743.179,599.629 728.181,582.488 z" id="boundary" inkscape:connector-curvature="0" />
	<path style="fill:none;stroke:red;stroke-width:1px;stroke-linecap:butt;stroke-linejoin:miter;stroke-opacity:1" d="M 760.32,614.626 775.317,631.767 z" id="boundary" inkscape:connector-curvature="0" />
	<path style="fill:none;stroke:red;stroke-width:1px;stroke-linecap:butt;stroke-linejoin:miter;stroke-opacity:1" d="M 792.458,646.765 775.317,631.767 z" id="boundary" inkscape:connector-curvature="0" />
	<path style="fill:none;stroke:red;stroke-width:1px;stroke-linecap:butt;stroke-linejoin:miter;stroke-opacity:1" d="M 807.456,663.905 792.458,646.765 z" id="boundary" inkscape:connector-curvature="0" />
	<path style="fill:none;stroke:red;stroke-width:1px;stroke-linecap:butt;stroke-linejoin:miter;stroke-opacity:1" d="M 824.596,678.903 807.456,663.905 z" id="boundary" inkscape:connector-curvature="0" />
	<path style="fill:none;stroke:red;stroke-width:1px;stroke-linecap:butt;stroke-linejoin:miter;stroke-opacity:1" d="M 856.734,711.041 839.594,696.043 z" id="boundary" inkscape:connector-curvature="0" />
	<path style="fill:none;stroke:red;stroke-width:1px;stroke-linecap:butt;stroke-linejoin:miter;stroke-opacity:1" d="M 839.594,696.043 824.596,678.903 z" id="boundary" inkscape:connector-curvature="0" />
	<path style="fill:none;stroke:red;stroke-width:1px;stroke-linecap:butt;stroke-linejoin:miter;stroke-opacity:1" d="M 614.626,717.469 631.767,732.467 z" id="boundary" inkscape:connector-curvature="0" />
	<path style="fill:none;stroke:red;stroke-width:1px;stroke-linecap:butt;stroke-linejoin:miter;stroke-opacity:1" d="M 631.767,732.467 640.337,753.892 z" id="boundary" inkscape:connector-curvature="0" />
	<path style="fill:none;stroke:red;stroke-width:1px;stroke-linecap:butt;stroke-linejoin:miter;stroke-opacity:1" d="M 640.337,753.892 657.477,766.747 z" id="boundary" inkscape:connector-curvature="0" />
	<path style="fill:none;stroke:red;stroke-width:1px;stroke-linecap:butt;stroke-linejoin:miter;stroke-opacity:1" d="M 676.76,777.46 657.477,766.747 z" id="boundary" inkscape:connector-curvature="0" />
	<path style="fill:none;stroke:red;stroke-width:1px;stroke-linecap:butt;stroke-linejoin:miter;stroke-opacity:1" d="M 676.76,777.46 691.758,794.6 z" id="boundary" inkscape:connector-curvature="0" />
	<path style="fill:none;stroke:red;stroke-width:1px;stroke-linecap:butt;stroke-linejoin:miter;stroke-opacity:1" d="M 708.898,809.598 691.758,794.6 z" id="boundary" inkscape:connector-curvature="0" />
	<path style="fill:none;stroke:red;stroke-width:1px;stroke-linecap:butt;stroke-linejoin:miter;stroke-opacity:1" d="M 723.896,826.739 708.898,809.598 z" id="boundary" inkscape:connector-curvature="0" />
	<path style="fill:none;stroke:red;stroke-width:1px;stroke-linecap:butt;stroke-linejoin:miter;stroke-opacity:1" d="M 723.896,826.739 732.467,848.164 z" id="boundary" inkscape:connector-curvature="0" />
	<path style="fill:none;stroke:red;stroke-width:1px;stroke-linecap:butt;stroke-linejoin:miter;stroke-opacity:1" d="M 732.467,848.164 743.179,867.447 z" id="boundary" inkscape:connector-curvature="0" />
	<path style="fill:none;stroke:red;stroke-width:1px;stroke-linecap:butt;stroke-linejoin:miter;stroke-opacity:1" d="M 764.605,873.875 743.179,867.447 z" id="boundary" inkscape:connector-curvature="0" />
	<path style="fill:none;stroke:red;stroke-width:1px;stroke-linecap:butt;stroke-linejoin:miter;stroke-opacity:1" d="M 764.605,873.875 777.46,891.015 z" id="boundary" inkscape:connector-curvature="0" />
	<path style="fill:none;stroke:red;stroke-width:1px;stroke-linecap:butt;stroke-linejoin:miter;stroke-opacity:1" d="M 777.46,891.015 788.173,910.298 z" id="boundary" inkscape:connector-curvature="0" />
	<path style="fill:none;stroke:red;stroke-width:1px;stroke-linecap:butt;stroke-linejoin:miter;stroke-opacity:1" d="M 788.173,910.298 807.456,921.011 z" id="boundary" inkscape:connector-curvature="0" />
	<path style="fill:none;stroke:red;stroke-width:1px;stroke-linecap:butt;stroke-linejoin:miter;stroke-opacity:1" d="M 807.456,921.011 818.168,940.294 z" id="boundary" inkscape:connector-curvature="0" />
	<path style="fill:none;stroke:red;stroke-width:1px;stroke-linecap:butt;stroke-linejoin:miter;stroke-opacity:1" d="M 850.307,942.436 833.166,957.434 z" id="boundary" inkscape:connector-curvature="0" />
	<path style="fill:none;stroke:red;stroke-width:1px;stroke-linecap:butt;stroke-linejoin:miter;stroke-opacity:1" d="M 833.166,957.434 818.168,940.294 z" id="boundary" inkscape:connector-curvature="0" />
	<path style="fill:none;stroke:red;stroke-width:1px;stroke-linecap:butt;stroke-linejoin:miter;stroke-opacity:1" d="M 867.447,927.438 850.307,942.436 z" id="boundary" inkscape:connector-curvature="0" />
	<path style="fill:none;stroke:red;stroke-width:1px;stroke-linecap:butt;stroke-linejoin:miter;stroke-opacity:1" d="M 888.873,743.179 903.87,760.32 z" id="boundary" inkscape:connector-curvature="0" />
	<path style="fill:none;stroke:red;stroke-width:1px;stroke-linecap:butt;stroke-linejoin:miter;stroke-opacity:1" d="M 888.873,743.179 871.732,728.181 z" id="boundary" inkscape:connector-curvature="0" />
	<path style="fill:none;stroke:red;stroke-width:1px;stroke-linecap:butt;stroke-linejoin:miter;stroke-opacity:1" d="M 871.732,728.181 856.734,711.041 z" id="boundary" inkscape:connector-curvature="0" />
	<path style="fill:none;stroke:red;stroke-width:1px;stroke-linecap:butt;stroke-linejoin:miter;stroke-opacity:1" d="M 903.87,760.32 921.011,775.317 z" id="boundary" inkscape:connector-curvature="0" />
	<path style="fill:none;stroke:red;stroke-width:1px;stroke-linecap:butt;stroke-linejoin:miter;stroke-opacity:1" d="M 921.011,775.317 927.438,796.743 z" id="boundary" inkscape:connector-curvature="0" />
	<path style="fill:none;stroke:red;stroke-width:1px;stroke-linecap:butt;stroke-linejoin:miter;stroke-opacity:1" d="M 927.438,796.743 948.864,803.171 z" id="boundary" inkscape:connector-curvature="0" />
	<path style="fill:none;stroke:red;stroke-width:1px;stroke-linecap:butt;stroke-linejoin:miter;stroke-opacity:1" d="M 948.864,803.171 963.862,820.311 z" id="boundary" inkscape:connector-curvature="0" />
	<path style="fill:none;stroke:red;stroke-width:1px;stroke-linecap:butt;stroke-linejoin:miter;stroke-opacity:1" d="M 981.002,835.309 963.862,820.311 z" id="boundary" inkscape:connector-curvature="0" />
	<path style="fill:none;stroke:red;stroke-width:1px;stroke-linecap:butt;stroke-linejoin:miter;stroke-opacity:1" d="M 888.873,927.438 910.298,936.009 z" id="boundary" inkscape:connector-curvature="0" />
	<path style="fill:none;stroke:red;stroke-width:1px;stroke-linecap:butt;stroke-linejoin:miter;stroke-opacity:1" d="M 888.873,927.438 867.447,927.438 z" id="boundary" inkscape:connector-curvature="0" />
	<path style="fill:none;stroke:red;stroke-width:1px;stroke-linecap:butt;stroke-linejoin:miter;stroke-opacity:1" d="M 910.298,936.009 929.581,946.721 z" id="boundary" inkscape:connector-curvature="0" />
	<path style="fill:none;stroke:red;stroke-width:1px;stroke-linecap:butt;stroke-linejoin:miter;stroke-opacity:1" d="M 981.002,884.587 996,852.449 z" id="boundary" inkscape:connector-curvature="0" />
	<path style="fill:none;stroke:red;stroke-width:1px;stroke-linecap:butt;stroke-linejoin:miter;stroke-opacity:1" d="M 981.002,906.013 981.002,884.587 z" id="boundary" inkscape:connector-curvature="0" />
	<path style="fill:none;stroke:red;stroke-width:1px;stroke-linecap:butt;stroke-linejoin:miter;stroke-opacity:1" d="M 968.147,931.724 951.006,948.864 z" id="boundary" inkscape:connector-curvature="0" />
	<path style="fill:none;stroke:red;stroke-width:1px;stroke-linecap:butt;stroke-linejoin:miter;stroke-opacity:1" d="M 951.006,948.864 929.581,946.721 z" id="boundary" inkscape:connector-curvature="0" />
	<path style="fill:none;stroke:red;stroke-width:1px;stroke-linecap:butt;stroke-linejoin:miter;stroke-opacity:1" d="M 981.002,906.013 968.147,931.724 z" id="boundary" inkscape:connector-curvature="0" />
	<path style="fill:none;stroke:red;stroke-width:1px;stroke-linecap:butt;stroke-linejoin:miter;stroke-opacity:1" d="M 981.002,835.309 996,852.449 z" id="boundary" inkscape:connector-curvature="0" />
	<circle cx="4" cy="192.544" r="4" fill="#0" id="circle0"/>
	<circle cx="4" cy="213.97" r="4" fill="#0" id="circle1"/>
	<circle cx="21.1404" cy="175.404" r="4" fill="#0" id="circle2"/>
	<circle cx="21.1404" cy="228.968" r="4" fill="#0" id="circle3"/>
	<circle cx="38.2808" cy="158.263" r="4" fill="#0" id="circle4"/>
	<circle cx="38.2808" cy="241.823" r="4" fill="#0" id="circle5"/>
	<circle cx="55.4212" cy="143.266" r="4" fill="#0" id="circle6"/>
	<circle cx="57.5637" cy="252.536" r="4" fill="#0" id="circle7"/>
	<circle cx="70.419" cy="126.125" r="4" fill="#0" id="circle8"/>
	<circle cx="70.419" cy="269.676" r="4" fill="#0" id="circle9"/>
	<circle cx="81.1317" cy="104.7" r="4" fill="#0" id="circle10"/>
	<circle cx="91.8445" cy="83.2743" r="4" fill="#0" id="circle11"/>
	<circle cx="91.8445" cy="278.246" r="4" fill="#0" id="circle12"/>
	<circle cx="108.985" cy="68.2765" r="4" fill="#0" id="circle13"/>
	<circle cx="113.27" cy="273.961" r="4" fill="#0" id="circle14"/>
	<circle cx="128.268" cy="57.5637" r="4" fill="#0" id="circle15"/>
	<circle cx="130.41" cy="258.963" r="4" fill="#0" id="circle16"/>
	<circle cx="145.408" cy="241.823" r="4" fill="#0" id="circle17"/>
	<circle cx="147.551" cy="46.851" r="4" fill="#0" id="circle18"/>
	<circle cx="162.549" cy="226.825" r="4" fill="#0" id="circle19"/>
	<circle cx="166.834" cy="198.972" r="4" fill="#0" id="circle20"/>
	<circle cx="168.976" cy="38.2808" r="4" fill="#0" id="circle21"/>
	<circle cx="186.117" cy="21.1404" r="4" fill="#0" id="circle22"/>
	<circle cx="186.117" cy="209.685" r="4" fill="#0" id="circle23"/>
	<circle cx="198.972" cy="226.825" r="4" fill="#0" id="circle24"/>
	<circle cx="203.257" cy="4" r="4" fill="#0" id="circle25"/>
	<circle cx="216.112" cy="241.823" r="4" fill="#0" id="circle26"/>
	<circle cx="224.683" cy="4" r="4" fill="#0" id="circle27"/>
	<circle cx="231.11" cy="258.963" r="4" fill="#0" id="circle28"/>
	<circle cx="246.108" cy="4" r="4" fill="#0" id="circle29"/>
	<circle cx="252.536" cy="267.533" r="4" fill="#0" id="circle30"/>
	<circle cx="261.106" cy="288.959" r="4" fill="#0" id="circle31"/>
	<circle cx="263.248" cy="91.8445" r="4" fill="#0" id="circle32"/>
	<circle cx="263.248" cy="113.27" r="4" fill="#0" id="circle33"/>
	<circle cx="263.248" cy="134.695" r="4" fill="#0" id="circle34"/>
	<circle cx="265.391" cy="14.7127" r="4" fill="#0" id="circle35"/>
	<circle cx="273.961" cy="153.978" r="4" fill="#0" id="circle36"/>
	<circle cx="282.531" cy="29.7106" r="4" fill="#0" id="circle37"/>
	<circle cx="282.531" cy="295.387" r="4" fill="#0" id="circle38"/>
	<circle cx="284.674" cy="81.1317" r="4" fill="#0" id="circle39"/>
	<circle cx="291.102" cy="166.834" r="4" fill="#0" id="circle40"/>
	<circle cx="295.387" cy="46.851" r="4" fill="#0" id="circle41"/>
	<circle cx="295.387" cy="312.527" r="4" fill="#0" id="circle42"/>
	<circle cx="306.099" cy="183.974" r="4" fill="#0" id="circle43"/>
	<circle cx="312.527" cy="327.525" r="4" fill="#0" id="circle44"/>
	<circle cx="323.24" cy="198.972" r="4" fill="#0" id="circle45"/>
	<circle cx="327.525" cy="344.665" r="4" fill="#0" id="circle46"/>
	<circle cx="338.238" cy="216.112" r="4" fill="#0" id="circle47"/>
	<circle cx="344.665" cy="359.663" r="4" fill="#0" id="circle48"/>
	<circle cx="355.378" cy="231.11" r="4" fill="#0" id="circle49"/>
	<circle cx="357.521" cy="376.803" r="4" fill="#0" id="circle50"/>
	<circle cx="357.521" cy="398.229" r="4" fill="#0" id="circle51"/>
	<circle cx="359.663" cy="419.654" r="4" fill="#0" id="circle52"/>
	<circle cx="363.948" cy="252.536" r="4" fill="#0" id="circle53"/>
	<circle cx="370.376" cy="438.937" r="4" fill="#0" id="circle54"/>
	<circle cx="381.089" cy="267.533" r="4" fill="#0" id="circle55"/>
	<circle cx="385.374" cy="456.078" r="4" fill="#0" id="circle56"/>
	<circle cx="396.086" cy="284.674" r="4" fill="#0" id="circle57"/>
	<circle cx="402.514" cy="471.076" r="4" fill="#0" id="circle58"/>
	<circle cx="417.512" cy="293.244" r="4" fill="#0" id="circle59"/>
	<circle cx="417.512" cy="488.216" r="4" fill="#0" id="circle60"/>
	<circle cx="432.51" cy="310.384" r="4" fill="#0" id="circle61"/>
	<circle cx="438.937" cy="496.786" r="4" fill="#0" id="circle62"/>
	<circle cx="443.222" cy="518.212" r="4" fill="#0" id="circle63"/>
	<circle cx="453.935" cy="318.955" r="4" fill="#0" id="circle64"/>
	<circle cx="453.935" cy="537.495" r="4" fill="#0" id="circle65"/>
	<circle cx="462.505" cy="340.38" r="4" fill="#0" id="circle66"/>
	<circle cx="464.648" cy="556.778" r="4" fill="#0" id="circle67"/>
	<circle cx="475.361" cy="576.06" r="4" fill="#0" id="circle68"/>
	<circle cx="477.503" cy="357.521" r="4" fill="#0" id="circle69"/>
	<circle cx="494.644" cy="370.376" r="4" fill="#0" id="circle70"/>
	<circle cx="496.786" cy="584.631" r="4" fill="#0" id="circle71"/>
	<circle cx="509.641" cy="387.516" r="4" fill="#0" id="circle72"/>
	<circle cx="509.641" cy="601.771" r="4" fill="#0" id="circle73"/>
	<circle cx="526.782" cy="616.769" r="4" fill="#0" id="circle74"/>
	<circle cx="531.067" cy="396.086" r="4" fill="#0" id="circle75"/>
	<circle cx="539.637" cy="633.909" r="4" fill="#0" id="circle76"/>
	<circle cx="546.065" cy="413.227" r="4" fill="#0" id="circle77"/>
	<circle cx="550.35" cy="653.192" r="4" fill="#0" id="circle78"/>
	<circle cx="563.205" cy="428.225" r="4" fill="#0" id="circle79"/>
	<circle cx="567.49" cy="668.19" r="4" fill="#0" id="circle80"/>
	<circle cx="578.203" cy="445.365" r="4" fill="#0" id="circle81"/>
	<circle cx="582.488" cy="685.33" r="4" fill="#0" id="circle82"/>
	<circle cx="595.343" cy="460.363" r="4" fill="#0" id="circle83"/>
	<circle cx="599.629" cy="700.328" r="4" fill="#0" id="circle84"/>
	<circle cx="610.341" cy="477.503" r="4" fill="#0" id="circle85"/>
	<circle cx="614.626" cy="717.469" r="4" fill="#0" id="circle86"/>
	<circle cx="631.767" cy="486.073" r="4" fill="#0" id="circle87"/>
	<circle cx="631.767" cy="732.467" r="4" fill="#0" id="circle88"/>
	<circle cx="640.337" cy="753.892" r="4" fill="#0" id="circle89"/>
	<circle cx="646.765" cy="503.214" r="4" fill="#0" id="circle90"/>
	<circle cx="657.477" cy="766.747" r="4" fill="#0" id="circle91"/>
	<circle cx="663.905" cy="518.212" r="4" fill="#0" id="circle92"/>
	<circle cx="676.76" cy="777.46" r="4" fill="#0" id="circle93"/>
	<circle cx="678.903" cy="535.352" r="4" fill="#0" id="circle94"/>
	<circle cx="691.758" cy="794.6" r="4" fill="#0" id="circle95"/>
	<circle cx="696.043" cy="550.35" r="4" fill="#0" id="circle96"/>
	<circle cx="708.898" cy="809.598" r="4" fill="#0" id="circle97"/>
	<circle cx="711.041" cy="567.49" r="4" fill="#0" id="circle98"/>
	<circle cx="723.896" cy="826.739" r="4" fill="#0" id="circle99"/>
	<circle cx="728.181" cy="582.488" r="4" fill="#0" id="circle100"/>
	<circle cx="732.467" cy="848.164" r="4" fill="#0" id="circle101"/>
	<circle cx="743.179" cy="599.629" r="4" fill="#0" id="circle102"/>
	<circle cx="743.179" cy="867.447" r="4" fill="#0" id="circle103"/>
	<circle cx="760.32" cy="614.626" r="4" fill="#0" id="circle104"/>
	<circle cx="764.605" cy="873.875" r="4" fill="#0" id="circle105"/>
	<circle cx="775.317" cy="631.767" r="4" fill="#0" id="circle106"/>
	<circle cx="777.46" cy="891.015" r="4" fill="#0" id="circle107"/>
	<circle cx="788.173" cy="910.298" r="4" fill="#0" id="circle108"/>
	<circle cx="792.458" cy="646.765" r="4" fill="#0" id="circle109"/>
	<circle cx="807.456" cy="663.905" r="4" fill="#0" id="circle110"/>
	<circle cx="807.456" cy="921.011" r="4" fill="#0" id="circle111"/>
	<circle cx="818.168" cy="940.294" r="4" fill="#0" id="circle112"/>
	<circle cx="824.596" cy="678.903" r="4" fill="#0" id="circle113"/>
	<circle cx="833.166" cy="957.434" r="4" fill="#0" id="circle114"/>
	<circle cx="839.594" cy="696.043" r="4" fill="#0" id="circle115"/>
	<circle cx="850.307" cy="942.436" r="4" fill="#0" id="circle116"/>
	<circle cx="856.734" cy="711.041" r="4" fill="#0" id="circle117"/>
	<circle cx="867.447" cy="927.438" r="4" fill="#0" id="circle118"/>
	<circle cx="871.732" cy="728.181" r="4" fill="#0" id="circle119"/>
	<circle cx="888.873" cy="743.179" r="4" fill="#0" id="circle120"/>
	<circle cx="888.873" cy="927.438" r="4" fill="#0" id="circle121"/>
	<circle cx="903.87" cy="760.32" r="4" fill="#0" id="circle122"/>
	<circle cx="910.298" cy="936.009" r="4" fill="#0" id="circle123"/>
	<circle cx="921.011" cy="775.317" r="4" fill="#0" id="circle124"/>
	<circle cx="927.438" cy="796.743" r="4" fill="#0" id="circle125"/>
	<circle cx="929.581" cy="946.721" r="4" fill="#0" id="circle126"/>
	<circle cx="948.864" cy="803.171" r="4" fill="#0" id="circle127"/>
	<circle cx="951.006" cy="948.864" r="4" fill="#0" id="circle128"/>
	<circle cx="963.862" cy="820.311" r="4" fill="#0" id="circle129"/>
	<circle cx="968.147" cy="931.724" r="4" fill="#0" id="circle130"/>
	<circle cx="981.002" cy="835.309" r="4" fill="#0" id="circle131"/>
	<circle cx="981.002" cy="884.587" r="4" fill="#0" id="circle132"/>
	<circle cx="981.002" cy="906.013" r="4" fill="#0" id="circle133"/>
	<circle cx="996" cy="852.449" r="4" fill="#0" id="circle134"/>
	</g>
</svg>